 2017-02-06 05:07:18.397343+01 | 1486354038.39734 | pgbench_accounts |       1342955520
 2017-02-06 05:07:18.397343+01 | 1486354038.39734 | pgbench_tellers  |            49152
 2017-02-06 05:07:18.397343+01 | 1486354038.39734 | pgbench_history  |                0
 2017-02-06 05:07:18.397343+01 | 1486354038.39734 | pgbench_branches |             8192

 2017-02-06 05:07:19.482979+01 | 1486354039.48298 | pgbench_accounts |       1342955520
 2017-02-06 05:07:19.482979+01 | 1486354039.48298 | pgbench_tellers  |            49152
 2017-02-06 05:07:19.482979+01 | 1486354039.48298 | pgbench_history  |                0
 2017-02-06 05:07:19.482979+01 | 1486354039.48298 | pgbench_branches |             8192

 2017-02-06 05:07:20.567193+01 | 1486354040.56719 | pgbench_accounts |       1342955520
 2017-02-06 05:07:20.567193+01 | 1486354040.56719 | pgbench_tellers  |            49152
 2017-02-06 05:07:20.567193+01 | 1486354040.56719 | pgbench_history  |                0
 2017-02-06 05:07:20.567193+01 | 1486354040.56719 | pgbench_branches |             8192

 2017-02-06 05:07:21.650907+01 | 1486354041.65091 | pgbench_accounts |       1342955520
 2017-02-06 05:07:21.650907+01 | 1486354041.65091 | pgbench_tellers  |            49152
 2017-02-06 05:07:21.650907+01 | 1486354041.65091 | pgbench_history  |                0
 2017-02-06 05:07:21.650907+01 | 1486354041.65091 | pgbench_branches |             8192

 2017-02-06 05:07:22.742486+01 | 1486354042.74249 | pgbench_accounts |       1342955520
 2017-02-06 05:07:22.742486+01 | 1486354042.74249 | pgbench_tellers  |            49152
 2017-02-06 05:07:22.742486+01 | 1486354042.74249 | pgbench_history  |                0
 2017-02-06 05:07:22.742486+01 | 1486354042.74249 | pgbench_branches |             8192

 2017-02-06 05:07:23.818646+01 | 1486354043.81865 | pgbench_accounts |       1342955520
 2017-02-06 05:07:23.818646+01 | 1486354043.81865 | pgbench_tellers  |            49152
 2017-02-06 05:07:23.818646+01 | 1486354043.81865 | pgbench_history  |                0
 2017-02-06 05:07:23.818646+01 | 1486354043.81865 | pgbench_branches |             8192

 2017-02-06 05:07:24.907652+01 | 1486354044.90765 | pgbench_accounts |       1342955520
 2017-02-06 05:07:24.907652+01 | 1486354044.90765 | pgbench_tellers  |            49152
 2017-02-06 05:07:24.907652+01 | 1486354044.90765 | pgbench_history  |                0
 2017-02-06 05:07:24.907652+01 | 1486354044.90765 | pgbench_branches |             8192

 2017-02-06 05:07:25.993675+01 | 1486354045.99367 | pgbench_accounts |       1342955520
 2017-02-06 05:07:25.993675+01 | 1486354045.99367 | pgbench_tellers  |            49152
 2017-02-06 05:07:25.993675+01 | 1486354045.99367 | pgbench_history  |                0
 2017-02-06 05:07:25.993675+01 | 1486354045.99367 | pgbench_branches |             8192

 2017-02-06 05:07:27.076135+01 | 1486354047.07613 | pgbench_accounts |       1342955520
 2017-02-06 05:07:27.076135+01 | 1486354047.07613 | pgbench_tellers  |            49152
 2017-02-06 05:07:27.076135+01 | 1486354047.07613 | pgbench_history  |                0
 2017-02-06 05:07:27.076135+01 | 1486354047.07613 | pgbench_branches |             8192

 2017-02-06 05:07:28.156515+01 | 1486354048.15651 | pgbench_accounts |       1342955520
 2017-02-06 05:07:28.156515+01 | 1486354048.15651 | pgbench_tellers  |            49152
 2017-02-06 05:07:28.156515+01 | 1486354048.15651 | pgbench_history  |                0
 2017-02-06 05:07:28.156515+01 | 1486354048.15651 | pgbench_branches |             8192

 2017-02-06 05:07:29.242666+01 | 1486354049.24267 | pgbench_accounts |       1342955520
 2017-02-06 05:07:29.242666+01 | 1486354049.24267 | pgbench_tellers  |            49152
 2017-02-06 05:07:29.242666+01 | 1486354049.24267 | pgbench_history  |                0
 2017-02-06 05:07:29.242666+01 | 1486354049.24267 | pgbench_branches |             8192

 2017-02-06 05:07:30.332981+01 | 1486354050.33298 | pgbench_accounts |       1342955520
 2017-02-06 05:07:30.332981+01 | 1486354050.33298 | pgbench_tellers  |            49152
 2017-02-06 05:07:30.332981+01 | 1486354050.33298 | pgbench_history  |                0
 2017-02-06 05:07:30.332981+01 | 1486354050.33298 | pgbench_branches |             8192

 2017-02-06 05:07:31.422484+01 | 1486354051.42248 | pgbench_accounts |       1342955520
 2017-02-06 05:07:31.422484+01 | 1486354051.42248 | pgbench_tellers  |            49152
 2017-02-06 05:07:31.422484+01 | 1486354051.42248 | pgbench_history  |                0
 2017-02-06 05:07:31.422484+01 | 1486354051.42248 | pgbench_branches |             8192

 2017-02-06 05:07:32.51111+01 | 1486354052.51111 | pgbench_accounts |       1342955520
 2017-02-06 05:07:32.51111+01 | 1486354052.51111 | pgbench_tellers  |            49152
 2017-02-06 05:07:32.51111+01 | 1486354052.51111 | pgbench_history  |                0
 2017-02-06 05:07:32.51111+01 | 1486354052.51111 | pgbench_branches |             8192

 2017-02-06 05:07:33.602132+01 | 1486354053.60213 | pgbench_accounts |       1342955520
 2017-02-06 05:07:33.602132+01 | 1486354053.60213 | pgbench_tellers  |            49152
 2017-02-06 05:07:33.602132+01 | 1486354053.60213 | pgbench_history  |                0
 2017-02-06 05:07:33.602132+01 | 1486354053.60213 | pgbench_branches |             8192

 2017-02-06 05:07:34.690282+01 | 1486354054.69028 | pgbench_accounts |       1342955520
 2017-02-06 05:07:34.690282+01 | 1486354054.69028 | pgbench_tellers  |            49152
 2017-02-06 05:07:34.690282+01 | 1486354054.69028 | pgbench_history  |                0
 2017-02-06 05:07:34.690282+01 | 1486354054.69028 | pgbench_branches |             8192

 2017-02-06 05:07:35.7814+01 | 1486354055.7814 | pgbench_accounts |       1342955520
 2017-02-06 05:07:35.7814+01 | 1486354055.7814 | pgbench_tellers  |            49152
 2017-02-06 05:07:35.7814+01 | 1486354055.7814 | pgbench_history  |                0
 2017-02-06 05:07:35.7814+01 | 1486354055.7814 | pgbench_branches |             8192

 2017-02-06 05:07:36.867565+01 | 1486354056.86756 | pgbench_accounts |       1342955520
 2017-02-06 05:07:36.867565+01 | 1486354056.86756 | pgbench_tellers  |            49152
 2017-02-06 05:07:36.867565+01 | 1486354056.86756 | pgbench_history  |                0
 2017-02-06 05:07:36.867565+01 | 1486354056.86756 | pgbench_branches |             8192

 2017-02-06 05:07:37.951276+01 | 1486354057.95128 | pgbench_accounts |       1342955520
 2017-02-06 05:07:37.951276+01 | 1486354057.95128 | pgbench_tellers  |            49152
 2017-02-06 05:07:37.951276+01 | 1486354057.95128 | pgbench_history  |                0
 2017-02-06 05:07:37.951276+01 | 1486354057.95128 | pgbench_branches |             8192

 2017-02-06 05:07:39.038106+01 | 1486354059.03811 | pgbench_accounts |       1342955520
 2017-02-06 05:07:39.038106+01 | 1486354059.03811 | pgbench_tellers  |            49152
 2017-02-06 05:07:39.038106+01 | 1486354059.03811 | pgbench_history  |                0
 2017-02-06 05:07:39.038106+01 | 1486354059.03811 | pgbench_branches |             8192

 2017-02-06 05:07:40.127551+01 | 1486354060.12755 | pgbench_accounts |       1342955520
 2017-02-06 05:07:40.127551+01 | 1486354060.12755 | pgbench_tellers  |            49152
 2017-02-06 05:07:40.127551+01 | 1486354060.12755 | pgbench_history  |                0
 2017-02-06 05:07:40.127551+01 | 1486354060.12755 | pgbench_branches |             8192

 2017-02-06 05:07:41.213157+01 | 1486354061.21316 | pgbench_accounts |       1342955520
 2017-02-06 05:07:41.213157+01 | 1486354061.21316 | pgbench_tellers  |            49152
 2017-02-06 05:07:41.213157+01 | 1486354061.21316 | pgbench_history  |                0
 2017-02-06 05:07:41.213157+01 | 1486354061.21316 | pgbench_branches |             8192

 2017-02-06 05:07:42.293194+01 | 1486354062.29319 | pgbench_accounts |       1342955520
 2017-02-06 05:07:42.293194+01 | 1486354062.29319 | pgbench_tellers  |            49152
 2017-02-06 05:07:42.293194+01 | 1486354062.29319 | pgbench_history  |                0
 2017-02-06 05:07:42.293194+01 | 1486354062.29319 | pgbench_branches |             8192

 2017-02-06 05:07:43.370748+01 | 1486354063.37075 | pgbench_accounts |       1342955520
 2017-02-06 05:07:43.370748+01 | 1486354063.37075 | pgbench_tellers  |            49152
 2017-02-06 05:07:43.370748+01 | 1486354063.37075 | pgbench_history  |                0
 2017-02-06 05:07:43.370748+01 | 1486354063.37075 | pgbench_branches |             8192

 2017-02-06 05:07:44.456618+01 | 1486354064.45662 | pgbench_accounts |       1342955520
 2017-02-06 05:07:44.456618+01 | 1486354064.45662 | pgbench_tellers  |            49152
 2017-02-06 05:07:44.456618+01 | 1486354064.45662 | pgbench_history  |                0
 2017-02-06 05:07:44.456618+01 | 1486354064.45662 | pgbench_branches |             8192

 2017-02-06 05:07:45.539999+01 | 1486354065.54 | pgbench_accounts |       1342955520
 2017-02-06 05:07:45.539999+01 | 1486354065.54 | pgbench_tellers  |            49152
 2017-02-06 05:07:45.539999+01 | 1486354065.54 | pgbench_history  |                0
 2017-02-06 05:07:45.539999+01 | 1486354065.54 | pgbench_branches |             8192

 2017-02-06 05:07:46.632308+01 | 1486354066.63231 | pgbench_accounts |       1342955520
 2017-02-06 05:07:46.632308+01 | 1486354066.63231 | pgbench_tellers  |            49152
 2017-02-06 05:07:46.632308+01 | 1486354066.63231 | pgbench_history  |                0
 2017-02-06 05:07:46.632308+01 | 1486354066.63231 | pgbench_branches |             8192

 2017-02-06 05:07:47.717891+01 | 1486354067.71789 | pgbench_accounts |       1342955520
 2017-02-06 05:07:47.717891+01 | 1486354067.71789 | pgbench_tellers  |            49152
 2017-02-06 05:07:47.717891+01 | 1486354067.71789 | pgbench_history  |                0
 2017-02-06 05:07:47.717891+01 | 1486354067.71789 | pgbench_branches |             8192

 2017-02-06 05:07:48.802342+01 | 1486354068.80234 | pgbench_accounts |       1342955520
 2017-02-06 05:07:48.802342+01 | 1486354068.80234 | pgbench_tellers  |            49152
 2017-02-06 05:07:48.802342+01 | 1486354068.80234 | pgbench_history  |                0
 2017-02-06 05:07:48.802342+01 | 1486354068.80234 | pgbench_branches |             8192

 2017-02-06 05:07:49.88564+01 | 1486354069.88564 | pgbench_accounts |       1342955520
 2017-02-06 05:07:49.88564+01 | 1486354069.88564 | pgbench_tellers  |            49152
 2017-02-06 05:07:49.88564+01 | 1486354069.88564 | pgbench_history  |                0
 2017-02-06 05:07:49.88564+01 | 1486354069.88564 | pgbench_branches |             8192

 2017-02-06 05:07:50.972319+01 | 1486354070.97232 | pgbench_accounts |       1342955520
 2017-02-06 05:07:50.972319+01 | 1486354070.97232 | pgbench_tellers  |            49152
 2017-02-06 05:07:50.972319+01 | 1486354070.97232 | pgbench_history  |                0
 2017-02-06 05:07:50.972319+01 | 1486354070.97232 | pgbench_branches |             8192

 2017-02-06 05:07:52.064871+01 | 1486354072.06487 | pgbench_accounts |       1342955520
 2017-02-06 05:07:52.064871+01 | 1486354072.06487 | pgbench_tellers  |            49152
 2017-02-06 05:07:52.064871+01 | 1486354072.06487 | pgbench_history  |                0
 2017-02-06 05:07:52.064871+01 | 1486354072.06487 | pgbench_branches |             8192

 2017-02-06 05:07:53.145394+01 | 1486354073.14539 | pgbench_accounts |       1342955520
 2017-02-06 05:07:53.145394+01 | 1486354073.14539 | pgbench_tellers  |            49152
 2017-02-06 05:07:53.145394+01 | 1486354073.14539 | pgbench_history  |                0
 2017-02-06 05:07:53.145394+01 | 1486354073.14539 | pgbench_branches |             8192

 2017-02-06 05:07:54.230812+01 | 1486354074.23081 | pgbench_accounts |       1342955520
 2017-02-06 05:07:54.230812+01 | 1486354074.23081 | pgbench_tellers  |            49152
 2017-02-06 05:07:54.230812+01 | 1486354074.23081 | pgbench_history  |                0
 2017-02-06 05:07:54.230812+01 | 1486354074.23081 | pgbench_branches |             8192

 2017-02-06 05:07:55.318041+01 | 1486354075.31804 | pgbench_accounts |       1342955520
 2017-02-06 05:07:55.318041+01 | 1486354075.31804 | pgbench_tellers  |            49152
 2017-02-06 05:07:55.318041+01 | 1486354075.31804 | pgbench_history  |                0
 2017-02-06 05:07:55.318041+01 | 1486354075.31804 | pgbench_branches |             8192

 2017-02-06 05:07:56.405962+01 | 1486354076.40596 | pgbench_accounts |       1342955520
 2017-02-06 05:07:56.405962+01 | 1486354076.40596 | pgbench_tellers  |            49152
 2017-02-06 05:07:56.405962+01 | 1486354076.40596 | pgbench_history  |                0
 2017-02-06 05:07:56.405962+01 | 1486354076.40596 | pgbench_branches |             8192

 2017-02-06 05:07:57.493919+01 | 1486354077.49392 | pgbench_accounts |       1342955520
 2017-02-06 05:07:57.493919+01 | 1486354077.49392 | pgbench_tellers  |            49152
 2017-02-06 05:07:57.493919+01 | 1486354077.49392 | pgbench_history  |                0
 2017-02-06 05:07:57.493919+01 | 1486354077.49392 | pgbench_branches |             8192

 2017-02-06 05:07:58.586927+01 | 1486354078.58693 | pgbench_accounts |       1342955520
 2017-02-06 05:07:58.586927+01 | 1486354078.58693 | pgbench_tellers  |            49152
 2017-02-06 05:07:58.586927+01 | 1486354078.58693 | pgbench_history  |                0
 2017-02-06 05:07:58.586927+01 | 1486354078.58693 | pgbench_branches |             8192

 2017-02-06 05:07:59.678072+01 | 1486354079.67807 | pgbench_accounts |       1342955520
 2017-02-06 05:07:59.678072+01 | 1486354079.67807 | pgbench_tellers  |            49152
 2017-02-06 05:07:59.678072+01 | 1486354079.67807 | pgbench_history  |                0
 2017-02-06 05:07:59.678072+01 | 1486354079.67807 | pgbench_branches |             8192

 2017-02-06 05:08:00.768501+01 | 1486354080.7685 | pgbench_accounts |       1342955520
 2017-02-06 05:08:00.768501+01 | 1486354080.7685 | pgbench_tellers  |            49152
 2017-02-06 05:08:00.768501+01 | 1486354080.7685 | pgbench_history  |                0
 2017-02-06 05:08:00.768501+01 | 1486354080.7685 | pgbench_branches |             8192

 2017-02-06 05:08:01.85049+01 | 1486354081.85049 | pgbench_accounts |       1342955520
 2017-02-06 05:08:01.85049+01 | 1486354081.85049 | pgbench_tellers  |            49152
 2017-02-06 05:08:01.85049+01 | 1486354081.85049 | pgbench_history  |                0
 2017-02-06 05:08:01.85049+01 | 1486354081.85049 | pgbench_branches |             8192

 2017-02-06 05:08:02.940972+01 | 1486354082.94097 | pgbench_accounts |       1342955520
 2017-02-06 05:08:02.940972+01 | 1486354082.94097 | pgbench_tellers  |            49152
 2017-02-06 05:08:02.940972+01 | 1486354082.94097 | pgbench_history  |                0
 2017-02-06 05:08:02.940972+01 | 1486354082.94097 | pgbench_branches |             8192

 2017-02-06 05:08:04.029187+01 | 1486354084.02919 | pgbench_accounts |       1342955520
 2017-02-06 05:08:04.029187+01 | 1486354084.02919 | pgbench_tellers  |            49152
 2017-02-06 05:08:04.029187+01 | 1486354084.02919 | pgbench_history  |                0
 2017-02-06 05:08:04.029187+01 | 1486354084.02919 | pgbench_branches |             8192

 2017-02-06 05:08:05.117076+01 | 1486354085.11708 | pgbench_accounts |       1342955520
 2017-02-06 05:08:05.117076+01 | 1486354085.11708 | pgbench_tellers  |            49152
 2017-02-06 05:08:05.117076+01 | 1486354085.11708 | pgbench_history  |                0
 2017-02-06 05:08:05.117076+01 | 1486354085.11708 | pgbench_branches |             8192

 2017-02-06 05:08:06.205754+01 | 1486354086.20575 | pgbench_accounts |       1342955520
 2017-02-06 05:08:06.205754+01 | 1486354086.20575 | pgbench_tellers  |            49152
 2017-02-06 05:08:06.205754+01 | 1486354086.20575 | pgbench_history  |                0
 2017-02-06 05:08:06.205754+01 | 1486354086.20575 | pgbench_branches |             8192

 2017-02-06 05:08:07.299213+01 | 1486354087.29921 | pgbench_accounts |       1342955520
 2017-02-06 05:08:07.299213+01 | 1486354087.29921 | pgbench_tellers  |            49152
 2017-02-06 05:08:07.299213+01 | 1486354087.29921 | pgbench_history  |                0
 2017-02-06 05:08:07.299213+01 | 1486354087.29921 | pgbench_branches |             8192

 2017-02-06 05:08:08.385027+01 | 1486354088.38503 | pgbench_accounts |       1342955520
 2017-02-06 05:08:08.385027+01 | 1486354088.38503 | pgbench_tellers  |            49152
 2017-02-06 05:08:08.385027+01 | 1486354088.38503 | pgbench_history  |                0
 2017-02-06 05:08:08.385027+01 | 1486354088.38503 | pgbench_branches |             8192

 2017-02-06 05:08:09.471089+01 | 1486354089.47109 | pgbench_accounts |       1342955520
 2017-02-06 05:08:09.471089+01 | 1486354089.47109 | pgbench_tellers  |            49152
 2017-02-06 05:08:09.471089+01 | 1486354089.47109 | pgbench_history  |                0
 2017-02-06 05:08:09.471089+01 | 1486354089.47109 | pgbench_branches |             8192

 2017-02-06 05:08:10.559397+01 | 1486354090.5594 | pgbench_accounts |       1342955520
 2017-02-06 05:08:10.559397+01 | 1486354090.5594 | pgbench_tellers  |            49152
 2017-02-06 05:08:10.559397+01 | 1486354090.5594 | pgbench_history  |                0
 2017-02-06 05:08:10.559397+01 | 1486354090.5594 | pgbench_branches |             8192

 2017-02-06 05:08:11.643659+01 | 1486354091.64366 | pgbench_accounts |       1342955520
 2017-02-06 05:08:11.643659+01 | 1486354091.64366 | pgbench_tellers  |            49152
 2017-02-06 05:08:11.643659+01 | 1486354091.64366 | pgbench_history  |                0
 2017-02-06 05:08:11.643659+01 | 1486354091.64366 | pgbench_branches |             8192

 2017-02-06 05:08:12.734766+01 | 1486354092.73477 | pgbench_accounts |       1342955520
 2017-02-06 05:08:12.734766+01 | 1486354092.73477 | pgbench_tellers  |            49152
 2017-02-06 05:08:12.734766+01 | 1486354092.73477 | pgbench_history  |                0
 2017-02-06 05:08:12.734766+01 | 1486354092.73477 | pgbench_branches |             8192

 2017-02-06 05:08:13.821357+01 | 1486354093.82136 | pgbench_accounts |       1342955520
 2017-02-06 05:08:13.821357+01 | 1486354093.82136 | pgbench_tellers  |            49152
 2017-02-06 05:08:13.821357+01 | 1486354093.82136 | pgbench_history  |                0
 2017-02-06 05:08:13.821357+01 | 1486354093.82136 | pgbench_branches |             8192

 2017-02-06 05:08:14.906948+01 | 1486354094.90695 | pgbench_accounts |       1342955520
 2017-02-06 05:08:14.906948+01 | 1486354094.90695 | pgbench_tellers  |            49152
 2017-02-06 05:08:14.906948+01 | 1486354094.90695 | pgbench_history  |                0
 2017-02-06 05:08:14.906948+01 | 1486354094.90695 | pgbench_branches |             8192

 2017-02-06 05:08:15.995203+01 | 1486354095.9952 | pgbench_accounts |       1342955520
 2017-02-06 05:08:15.995203+01 | 1486354095.9952 | pgbench_tellers  |            49152
 2017-02-06 05:08:15.995203+01 | 1486354095.9952 | pgbench_history  |                0
 2017-02-06 05:08:15.995203+01 | 1486354095.9952 | pgbench_branches |             8192

 2017-02-06 05:08:17.08754+01 | 1486354097.08754 | pgbench_accounts |       1342955520
 2017-02-06 05:08:17.08754+01 | 1486354097.08754 | pgbench_tellers  |            49152
 2017-02-06 05:08:17.08754+01 | 1486354097.08754 | pgbench_history  |                0
 2017-02-06 05:08:17.08754+01 | 1486354097.08754 | pgbench_branches |             8192

 2017-02-06 05:08:18.179932+01 | 1486354098.17993 | pgbench_accounts |       1342955520
 2017-02-06 05:08:18.179932+01 | 1486354098.17993 | pgbench_tellers  |            49152
 2017-02-06 05:08:18.179932+01 | 1486354098.17993 | pgbench_history  |                0
 2017-02-06 05:08:18.179932+01 | 1486354098.17993 | pgbench_branches |             8192

 2017-02-06 05:08:19.274243+01 | 1486354099.27424 | pgbench_accounts |       1342955520
 2017-02-06 05:08:19.274243+01 | 1486354099.27424 | pgbench_tellers  |            49152
 2017-02-06 05:08:19.274243+01 | 1486354099.27424 | pgbench_history  |                0
 2017-02-06 05:08:19.274243+01 | 1486354099.27424 | pgbench_branches |             8192

 2017-02-06 05:08:20.356594+01 | 1486354100.35659 | pgbench_accounts |       1342955520
 2017-02-06 05:08:20.356594+01 | 1486354100.35659 | pgbench_tellers  |            49152
 2017-02-06 05:08:20.356594+01 | 1486354100.35659 | pgbench_history  |                0
 2017-02-06 05:08:20.356594+01 | 1486354100.35659 | pgbench_branches |             8192

 2017-02-06 05:08:21.438992+01 | 1486354101.43899 | pgbench_accounts |       1342955520
 2017-02-06 05:08:21.438992+01 | 1486354101.43899 | pgbench_tellers  |            49152
 2017-02-06 05:08:21.438992+01 | 1486354101.43899 | pgbench_history  |                0
 2017-02-06 05:08:21.438992+01 | 1486354101.43899 | pgbench_branches |             8192

 2017-02-06 05:08:22.526652+01 | 1486354102.52665 | pgbench_accounts |       1342955520
 2017-02-06 05:08:22.526652+01 | 1486354102.52665 | pgbench_tellers  |            49152
 2017-02-06 05:08:22.526652+01 | 1486354102.52665 | pgbench_history  |                0
 2017-02-06 05:08:22.526652+01 | 1486354102.52665 | pgbench_branches |             8192

 2017-02-06 05:08:23.616852+01 | 1486354103.61685 | pgbench_accounts |       1342955520
 2017-02-06 05:08:23.616852+01 | 1486354103.61685 | pgbench_tellers  |            49152
 2017-02-06 05:08:23.616852+01 | 1486354103.61685 | pgbench_history  |                0
 2017-02-06 05:08:23.616852+01 | 1486354103.61685 | pgbench_branches |             8192

 2017-02-06 05:08:24.700408+01 | 1486354104.70041 | pgbench_accounts |       1342955520
 2017-02-06 05:08:24.700408+01 | 1486354104.70041 | pgbench_tellers  |            49152
 2017-02-06 05:08:24.700408+01 | 1486354104.70041 | pgbench_history  |                0
 2017-02-06 05:08:24.700408+01 | 1486354104.70041 | pgbench_branches |             8192

 2017-02-06 05:08:25.788142+01 | 1486354105.78814 | pgbench_accounts |       1342955520
 2017-02-06 05:08:25.788142+01 | 1486354105.78814 | pgbench_tellers  |            49152
 2017-02-06 05:08:25.788142+01 | 1486354105.78814 | pgbench_history  |                0
 2017-02-06 05:08:25.788142+01 | 1486354105.78814 | pgbench_branches |             8192

 2017-02-06 05:08:26.873366+01 | 1486354106.87337 | pgbench_accounts |       1342955520
 2017-02-06 05:08:26.873366+01 | 1486354106.87337 | pgbench_tellers  |            49152
 2017-02-06 05:08:26.873366+01 | 1486354106.87337 | pgbench_history  |                0
 2017-02-06 05:08:26.873366+01 | 1486354106.87337 | pgbench_branches |             8192

 2017-02-06 05:08:27.960868+01 | 1486354107.96087 | pgbench_accounts |       1342955520
 2017-02-06 05:08:27.960868+01 | 1486354107.96087 | pgbench_tellers  |            49152
 2017-02-06 05:08:27.960868+01 | 1486354107.96087 | pgbench_history  |                0
 2017-02-06 05:08:27.960868+01 | 1486354107.96087 | pgbench_branches |             8192

 2017-02-06 05:08:29.0545+01 | 1486354109.0545 | pgbench_accounts |       1342955520
 2017-02-06 05:08:29.0545+01 | 1486354109.0545 | pgbench_tellers  |            49152
 2017-02-06 05:08:29.0545+01 | 1486354109.0545 | pgbench_history  |                0
 2017-02-06 05:08:29.0545+01 | 1486354109.0545 | pgbench_branches |             8192

 2017-02-06 05:08:30.140756+01 | 1486354110.14076 | pgbench_accounts |       1342955520
 2017-02-06 05:08:30.140756+01 | 1486354110.14076 | pgbench_tellers  |            49152
 2017-02-06 05:08:30.140756+01 | 1486354110.14076 | pgbench_history  |                0
 2017-02-06 05:08:30.140756+01 | 1486354110.14076 | pgbench_branches |             8192

 2017-02-06 05:08:31.225251+01 | 1486354111.22525 | pgbench_accounts |       1342955520
 2017-02-06 05:08:31.225251+01 | 1486354111.22525 | pgbench_tellers  |            49152
 2017-02-06 05:08:31.225251+01 | 1486354111.22525 | pgbench_history  |                0
 2017-02-06 05:08:31.225251+01 | 1486354111.22525 | pgbench_branches |             8192

 2017-02-06 05:08:32.306049+01 | 1486354112.30605 | pgbench_accounts |       1342955520
 2017-02-06 05:08:32.306049+01 | 1486354112.30605 | pgbench_tellers  |            49152
 2017-02-06 05:08:32.306049+01 | 1486354112.30605 | pgbench_history  |                0
 2017-02-06 05:08:32.306049+01 | 1486354112.30605 | pgbench_branches |             8192

 2017-02-06 05:08:33.394755+01 | 1486354113.39475 | pgbench_accounts |       1342955520
 2017-02-06 05:08:33.394755+01 | 1486354113.39475 | pgbench_tellers  |            49152
 2017-02-06 05:08:33.394755+01 | 1486354113.39475 | pgbench_history  |                0
 2017-02-06 05:08:33.394755+01 | 1486354113.39475 | pgbench_branches |             8192

 2017-02-06 05:08:34.479484+01 | 1486354114.47948 | pgbench_accounts |       1342955520
 2017-02-06 05:08:34.479484+01 | 1486354114.47948 | pgbench_tellers  |            49152
 2017-02-06 05:08:34.479484+01 | 1486354114.47948 | pgbench_history  |                0
 2017-02-06 05:08:34.479484+01 | 1486354114.47948 | pgbench_branches |             8192

 2017-02-06 05:08:35.559558+01 | 1486354115.55956 | pgbench_accounts |       1342955520
 2017-02-06 05:08:35.559558+01 | 1486354115.55956 | pgbench_tellers  |            49152
 2017-02-06 05:08:35.559558+01 | 1486354115.55956 | pgbench_history  |                0
 2017-02-06 05:08:35.559558+01 | 1486354115.55956 | pgbench_branches |             8192

 2017-02-06 05:08:36.645763+01 | 1486354116.64576 | pgbench_accounts |       1342955520
 2017-02-06 05:08:36.645763+01 | 1486354116.64576 | pgbench_tellers  |            49152
 2017-02-06 05:08:36.645763+01 | 1486354116.64576 | pgbench_history  |                0
 2017-02-06 05:08:36.645763+01 | 1486354116.64576 | pgbench_branches |             8192

 2017-02-06 05:08:37.732596+01 | 1486354117.7326 | pgbench_accounts |       1342955520
 2017-02-06 05:08:37.732596+01 | 1486354117.7326 | pgbench_tellers  |            49152
 2017-02-06 05:08:37.732596+01 | 1486354117.7326 | pgbench_history  |                0
 2017-02-06 05:08:37.732596+01 | 1486354117.7326 | pgbench_branches |             8192

 2017-02-06 05:08:38.817118+01 | 1486354118.81712 | pgbench_accounts |       1342955520
 2017-02-06 05:08:38.817118+01 | 1486354118.81712 | pgbench_tellers  |            49152
 2017-02-06 05:08:38.817118+01 | 1486354118.81712 | pgbench_history  |                0
 2017-02-06 05:08:38.817118+01 | 1486354118.81712 | pgbench_branches |             8192

 2017-02-06 05:08:39.901447+01 | 1486354119.90145 | pgbench_accounts |       1342955520
 2017-02-06 05:08:39.901447+01 | 1486354119.90145 | pgbench_tellers  |            49152
 2017-02-06 05:08:39.901447+01 | 1486354119.90145 | pgbench_history  |                0
 2017-02-06 05:08:39.901447+01 | 1486354119.90145 | pgbench_branches |             8192

 2017-02-06 05:08:40.992236+01 | 1486354120.99224 | pgbench_accounts |       1342955520
 2017-02-06 05:08:40.992236+01 | 1486354120.99224 | pgbench_tellers  |            49152
 2017-02-06 05:08:40.992236+01 | 1486354120.99224 | pgbench_history  |                0
 2017-02-06 05:08:40.992236+01 | 1486354120.99224 | pgbench_branches |             8192

 2017-02-06 05:08:42.074898+01 | 1486354122.0749 | pgbench_accounts |       1342955520
 2017-02-06 05:08:42.074898+01 | 1486354122.0749 | pgbench_tellers  |            49152
 2017-02-06 05:08:42.074898+01 | 1486354122.0749 | pgbench_history  |                0
 2017-02-06 05:08:42.074898+01 | 1486354122.0749 | pgbench_branches |             8192

 2017-02-06 05:08:43.166744+01 | 1486354123.16674 | pgbench_accounts |       1342955520
 2017-02-06 05:08:43.166744+01 | 1486354123.16674 | pgbench_tellers  |            49152
 2017-02-06 05:08:43.166744+01 | 1486354123.16674 | pgbench_history  |                0
 2017-02-06 05:08:43.166744+01 | 1486354123.16674 | pgbench_branches |             8192

 2017-02-06 05:08:44.251574+01 | 1486354124.25157 | pgbench_accounts |       1342955520
 2017-02-06 05:08:44.251574+01 | 1486354124.25157 | pgbench_tellers  |            49152
 2017-02-06 05:08:44.251574+01 | 1486354124.25157 | pgbench_history  |                0
 2017-02-06 05:08:44.251574+01 | 1486354124.25157 | pgbench_branches |             8192

 2017-02-06 05:08:45.330577+01 | 1486354125.33058 | pgbench_accounts |       1342955520
 2017-02-06 05:08:45.330577+01 | 1486354125.33058 | pgbench_tellers  |            49152
 2017-02-06 05:08:45.330577+01 | 1486354125.33058 | pgbench_history  |                0
 2017-02-06 05:08:45.330577+01 | 1486354125.33058 | pgbench_branches |             8192

 2017-02-06 05:08:46.410423+01 | 1486354126.41042 | pgbench_accounts |       1342955520
 2017-02-06 05:08:46.410423+01 | 1486354126.41042 | pgbench_tellers  |            49152
 2017-02-06 05:08:46.410423+01 | 1486354126.41042 | pgbench_history  |                0
 2017-02-06 05:08:46.410423+01 | 1486354126.41042 | pgbench_branches |             8192

 2017-02-06 05:08:47.494123+01 | 1486354127.49412 | pgbench_accounts |       1342955520
 2017-02-06 05:08:47.494123+01 | 1486354127.49412 | pgbench_tellers  |            49152
 2017-02-06 05:08:47.494123+01 | 1486354127.49412 | pgbench_history  |                0
 2017-02-06 05:08:47.494123+01 | 1486354127.49412 | pgbench_branches |             8192

 2017-02-06 05:08:48.576754+01 | 1486354128.57675 | pgbench_accounts |       1342955520
 2017-02-06 05:08:48.576754+01 | 1486354128.57675 | pgbench_tellers  |            49152
 2017-02-06 05:08:48.576754+01 | 1486354128.57675 | pgbench_history  |                0
 2017-02-06 05:08:48.576754+01 | 1486354128.57675 | pgbench_branches |             8192

 2017-02-06 05:08:49.662264+01 | 1486354129.66226 | pgbench_accounts |       1342955520
 2017-02-06 05:08:49.662264+01 | 1486354129.66226 | pgbench_tellers  |            49152
 2017-02-06 05:08:49.662264+01 | 1486354129.66226 | pgbench_history  |                0
 2017-02-06 05:08:49.662264+01 | 1486354129.66226 | pgbench_branches |             8192

 2017-02-06 05:08:50.749022+01 | 1486354130.74902 | pgbench_accounts |       1342955520
 2017-02-06 05:08:50.749022+01 | 1486354130.74902 | pgbench_tellers  |            49152
 2017-02-06 05:08:50.749022+01 | 1486354130.74902 | pgbench_history  |                0
 2017-02-06 05:08:50.749022+01 | 1486354130.74902 | pgbench_branches |             8192

 2017-02-06 05:08:51.839686+01 | 1486354131.83969 | pgbench_accounts |       1342955520
 2017-02-06 05:08:51.839686+01 | 1486354131.83969 | pgbench_tellers  |            49152
 2017-02-06 05:08:51.839686+01 | 1486354131.83969 | pgbench_history  |                0
 2017-02-06 05:08:51.839686+01 | 1486354131.83969 | pgbench_branches |             8192

 2017-02-06 05:08:52.932414+01 | 1486354132.93241 | pgbench_accounts |       1342955520
 2017-02-06 05:08:52.932414+01 | 1486354132.93241 | pgbench_tellers  |            49152
 2017-02-06 05:08:52.932414+01 | 1486354132.93241 | pgbench_history  |                0
 2017-02-06 05:08:52.932414+01 | 1486354132.93241 | pgbench_branches |             8192

 2017-02-06 05:08:54.017086+01 | 1486354134.01709 | pgbench_accounts |       1342955520
 2017-02-06 05:08:54.017086+01 | 1486354134.01709 | pgbench_tellers  |            49152
 2017-02-06 05:08:54.017086+01 | 1486354134.01709 | pgbench_history  |                0
 2017-02-06 05:08:54.017086+01 | 1486354134.01709 | pgbench_branches |             8192

 2017-02-06 05:08:55.093803+01 | 1486354135.0938 | pgbench_accounts |       1342955520
 2017-02-06 05:08:55.093803+01 | 1486354135.0938 | pgbench_tellers  |            49152
 2017-02-06 05:08:55.093803+01 | 1486354135.0938 | pgbench_history  |                0
 2017-02-06 05:08:55.093803+01 | 1486354135.0938 | pgbench_branches |             8192

 2017-02-06 05:08:56.181894+01 | 1486354136.18189 | pgbench_accounts |       1342955520
 2017-02-06 05:08:56.181894+01 | 1486354136.18189 | pgbench_tellers  |            49152
 2017-02-06 05:08:56.181894+01 | 1486354136.18189 | pgbench_history  |                0
 2017-02-06 05:08:56.181894+01 | 1486354136.18189 | pgbench_branches |             8192

 2017-02-06 05:08:57.273993+01 | 1486354137.27399 | pgbench_accounts |       1342955520
 2017-02-06 05:08:57.273993+01 | 1486354137.27399 | pgbench_tellers  |            49152
 2017-02-06 05:08:57.273993+01 | 1486354137.27399 | pgbench_history  |                0
 2017-02-06 05:08:57.273993+01 | 1486354137.27399 | pgbench_branches |             8192

 2017-02-06 05:08:58.362104+01 | 1486354138.3621 | pgbench_accounts |       1342955520
 2017-02-06 05:08:58.362104+01 | 1486354138.3621 | pgbench_tellers  |            49152
 2017-02-06 05:08:58.362104+01 | 1486354138.3621 | pgbench_history  |                0
 2017-02-06 05:08:58.362104+01 | 1486354138.3621 | pgbench_branches |             8192

 2017-02-06 05:08:59.447221+01 | 1486354139.44722 | pgbench_accounts |       1342955520
 2017-02-06 05:08:59.447221+01 | 1486354139.44722 | pgbench_tellers  |            49152
 2017-02-06 05:08:59.447221+01 | 1486354139.44722 | pgbench_history  |                0
 2017-02-06 05:08:59.447221+01 | 1486354139.44722 | pgbench_branches |             8192

 2017-02-06 05:09:00.532227+01 | 1486354140.53223 | pgbench_accounts |       1342955520
 2017-02-06 05:09:00.532227+01 | 1486354140.53223 | pgbench_tellers  |            49152
 2017-02-06 05:09:00.532227+01 | 1486354140.53223 | pgbench_history  |                0
 2017-02-06 05:09:00.532227+01 | 1486354140.53223 | pgbench_branches |             8192

 2017-02-06 05:09:01.615828+01 | 1486354141.61583 | pgbench_accounts |       1342955520
 2017-02-06 05:09:01.615828+01 | 1486354141.61583 | pgbench_tellers  |            49152
 2017-02-06 05:09:01.615828+01 | 1486354141.61583 | pgbench_history  |                0
 2017-02-06 05:09:01.615828+01 | 1486354141.61583 | pgbench_branches |             8192

 2017-02-06 05:09:02.709048+01 | 1486354142.70905 | pgbench_accounts |       1342955520
 2017-02-06 05:09:02.709048+01 | 1486354142.70905 | pgbench_tellers  |            49152
 2017-02-06 05:09:02.709048+01 | 1486354142.70905 | pgbench_history  |                0
 2017-02-06 05:09:02.709048+01 | 1486354142.70905 | pgbench_branches |             8192

 2017-02-06 05:09:03.799585+01 | 1486354143.79959 | pgbench_accounts |       1342955520
 2017-02-06 05:09:03.799585+01 | 1486354143.79959 | pgbench_tellers  |            49152
 2017-02-06 05:09:03.799585+01 | 1486354143.79959 | pgbench_history  |                0
 2017-02-06 05:09:03.799585+01 | 1486354143.79959 | pgbench_branches |             8192

 2017-02-06 05:09:04.888254+01 | 1486354144.88825 | pgbench_accounts |       1342955520
 2017-02-06 05:09:04.888254+01 | 1486354144.88825 | pgbench_tellers  |            49152
 2017-02-06 05:09:04.888254+01 | 1486354144.88825 | pgbench_history  |                0
 2017-02-06 05:09:04.888254+01 | 1486354144.88825 | pgbench_branches |             8192

 2017-02-06 05:09:05.978835+01 | 1486354145.97884 | pgbench_accounts |       1342955520
 2017-02-06 05:09:05.978835+01 | 1486354145.97884 | pgbench_tellers  |            49152
 2017-02-06 05:09:05.978835+01 | 1486354145.97884 | pgbench_history  |                0
 2017-02-06 05:09:05.978835+01 | 1486354145.97884 | pgbench_branches |             8192

 2017-02-06 05:09:07.065201+01 | 1486354147.0652 | pgbench_accounts |       1342955520
 2017-02-06 05:09:07.065201+01 | 1486354147.0652 | pgbench_tellers  |            49152
 2017-02-06 05:09:07.065201+01 | 1486354147.0652 | pgbench_history  |                0
 2017-02-06 05:09:07.065201+01 | 1486354147.0652 | pgbench_branches |             8192

 2017-02-06 05:09:08.148263+01 | 1486354148.14826 | pgbench_accounts |       1342955520
 2017-02-06 05:09:08.148263+01 | 1486354148.14826 | pgbench_tellers  |            49152
 2017-02-06 05:09:08.148263+01 | 1486354148.14826 | pgbench_history  |                0
 2017-02-06 05:09:08.148263+01 | 1486354148.14826 | pgbench_branches |             8192

 2017-02-06 05:09:09.233712+01 | 1486354149.23371 | pgbench_accounts |       1342955520
 2017-02-06 05:09:09.233712+01 | 1486354149.23371 | pgbench_tellers  |            49152
 2017-02-06 05:09:09.233712+01 | 1486354149.23371 | pgbench_history  |                0
 2017-02-06 05:09:09.233712+01 | 1486354149.23371 | pgbench_branches |             8192

 2017-02-06 05:09:10.312994+01 | 1486354150.31299 | pgbench_accounts |       1342955520
 2017-02-06 05:09:10.312994+01 | 1486354150.31299 | pgbench_tellers  |            49152
 2017-02-06 05:09:10.312994+01 | 1486354150.31299 | pgbench_history  |                0
 2017-02-06 05:09:10.312994+01 | 1486354150.31299 | pgbench_branches |             8192

 2017-02-06 05:09:11.399659+01 | 1486354151.39966 | pgbench_accounts |       1342955520
 2017-02-06 05:09:11.399659+01 | 1486354151.39966 | pgbench_tellers  |            49152
 2017-02-06 05:09:11.399659+01 | 1486354151.39966 | pgbench_history  |                0
 2017-02-06 05:09:11.399659+01 | 1486354151.39966 | pgbench_branches |             8192

 2017-02-06 05:09:12.490699+01 | 1486354152.4907 | pgbench_accounts |       1342955520
 2017-02-06 05:09:12.490699+01 | 1486354152.4907 | pgbench_tellers  |            49152
 2017-02-06 05:09:12.490699+01 | 1486354152.4907 | pgbench_history  |                0
 2017-02-06 05:09:12.490699+01 | 1486354152.4907 | pgbench_branches |             8192

 2017-02-06 05:09:13.576765+01 | 1486354153.57677 | pgbench_accounts |       1342955520
 2017-02-06 05:09:13.576765+01 | 1486354153.57677 | pgbench_tellers  |            49152
 2017-02-06 05:09:13.576765+01 | 1486354153.57677 | pgbench_history  |                0
 2017-02-06 05:09:13.576765+01 | 1486354153.57677 | pgbench_branches |             8192

 2017-02-06 05:09:14.659293+01 | 1486354154.65929 | pgbench_accounts |       1342955520
 2017-02-06 05:09:14.659293+01 | 1486354154.65929 | pgbench_tellers  |            49152
 2017-02-06 05:09:14.659293+01 | 1486354154.65929 | pgbench_history  |                0
 2017-02-06 05:09:14.659293+01 | 1486354154.65929 | pgbench_branches |             8192

 2017-02-06 05:09:15.746177+01 | 1486354155.74618 | pgbench_accounts |       1342955520
 2017-02-06 05:09:15.746177+01 | 1486354155.74618 | pgbench_tellers  |            49152
 2017-02-06 05:09:15.746177+01 | 1486354155.74618 | pgbench_history  |                0
 2017-02-06 05:09:15.746177+01 | 1486354155.74618 | pgbench_branches |             8192

 2017-02-06 05:09:16.832807+01 | 1486354156.83281 | pgbench_accounts |       1342955520
 2017-02-06 05:09:16.832807+01 | 1486354156.83281 | pgbench_tellers  |            49152
 2017-02-06 05:09:16.832807+01 | 1486354156.83281 | pgbench_history  |                0
 2017-02-06 05:09:16.832807+01 | 1486354156.83281 | pgbench_branches |             8192

 2017-02-06 05:09:17.923466+01 | 1486354157.92347 | pgbench_accounts |       1342955520
 2017-02-06 05:09:17.923466+01 | 1486354157.92347 | pgbench_tellers  |            49152
 2017-02-06 05:09:17.923466+01 | 1486354157.92347 | pgbench_history  |                0
 2017-02-06 05:09:17.923466+01 | 1486354157.92347 | pgbench_branches |             8192

 2017-02-06 05:09:19.009535+01 | 1486354159.00954 | pgbench_accounts |       1342955520
 2017-02-06 05:09:19.009535+01 | 1486354159.00954 | pgbench_tellers  |            49152
 2017-02-06 05:09:19.009535+01 | 1486354159.00954 | pgbench_history  |                0
 2017-02-06 05:09:19.009535+01 | 1486354159.00954 | pgbench_branches |             8192

 2017-02-06 05:09:20.089697+01 | 1486354160.0897 | pgbench_accounts |       1342955520
 2017-02-06 05:09:20.089697+01 | 1486354160.0897 | pgbench_tellers  |            49152
 2017-02-06 05:09:20.089697+01 | 1486354160.0897 | pgbench_history  |                0
 2017-02-06 05:09:20.089697+01 | 1486354160.0897 | pgbench_branches |             8192

 2017-02-06 05:09:21.170488+01 | 1486354161.17049 | pgbench_accounts |       1342955520
 2017-02-06 05:09:21.170488+01 | 1486354161.17049 | pgbench_tellers  |            49152
 2017-02-06 05:09:21.170488+01 | 1486354161.17049 | pgbench_history  |                0
 2017-02-06 05:09:21.170488+01 | 1486354161.17049 | pgbench_branches |             8192

 2017-02-06 05:09:22.256871+01 | 1486354162.25687 | pgbench_accounts |       1342955520
 2017-02-06 05:09:22.256871+01 | 1486354162.25687 | pgbench_tellers  |            49152
 2017-02-06 05:09:22.256871+01 | 1486354162.25687 | pgbench_history  |                0
 2017-02-06 05:09:22.256871+01 | 1486354162.25687 | pgbench_branches |             8192

 2017-02-06 05:09:23.345778+01 | 1486354163.34578 | pgbench_accounts |       1342955520
 2017-02-06 05:09:23.345778+01 | 1486354163.34578 | pgbench_tellers  |            49152
 2017-02-06 05:09:23.345778+01 | 1486354163.34578 | pgbench_history  |                0
 2017-02-06 05:09:23.345778+01 | 1486354163.34578 | pgbench_branches |             8192

 2017-02-06 05:09:24.42864+01 | 1486354164.42864 | pgbench_accounts |       1342955520
 2017-02-06 05:09:24.42864+01 | 1486354164.42864 | pgbench_tellers  |            49152
 2017-02-06 05:09:24.42864+01 | 1486354164.42864 | pgbench_history  |                0
 2017-02-06 05:09:24.42864+01 | 1486354164.42864 | pgbench_branches |             8192

 2017-02-06 05:09:25.514145+01 | 1486354165.51414 | pgbench_accounts |       1342955520
 2017-02-06 05:09:25.514145+01 | 1486354165.51414 | pgbench_tellers  |            49152
 2017-02-06 05:09:25.514145+01 | 1486354165.51414 | pgbench_history  |                0
 2017-02-06 05:09:25.514145+01 | 1486354165.51414 | pgbench_branches |             8192

 2017-02-06 05:09:26.606789+01 | 1486354166.60679 | pgbench_accounts |       1342955520
 2017-02-06 05:09:26.606789+01 | 1486354166.60679 | pgbench_tellers  |            49152
 2017-02-06 05:09:26.606789+01 | 1486354166.60679 | pgbench_history  |                0
 2017-02-06 05:09:26.606789+01 | 1486354166.60679 | pgbench_branches |             8192

 2017-02-06 05:09:27.69155+01 | 1486354167.69155 | pgbench_accounts |       1342955520
 2017-02-06 05:09:27.69155+01 | 1486354167.69155 | pgbench_tellers  |            49152
 2017-02-06 05:09:27.69155+01 | 1486354167.69155 | pgbench_history  |                0
 2017-02-06 05:09:27.69155+01 | 1486354167.69155 | pgbench_branches |             8192

 2017-02-06 05:09:28.771362+01 | 1486354168.77136 | pgbench_accounts |       1342955520
 2017-02-06 05:09:28.771362+01 | 1486354168.77136 | pgbench_tellers  |            49152
 2017-02-06 05:09:28.771362+01 | 1486354168.77136 | pgbench_history  |                0
 2017-02-06 05:09:28.771362+01 | 1486354168.77136 | pgbench_branches |             8192

 2017-02-06 05:09:29.868191+01 | 1486354169.86819 | pgbench_accounts |       1342955520
 2017-02-06 05:09:29.868191+01 | 1486354169.86819 | pgbench_tellers  |            49152
 2017-02-06 05:09:29.868191+01 | 1486354169.86819 | pgbench_history  |                0
 2017-02-06 05:09:29.868191+01 | 1486354169.86819 | pgbench_branches |             8192

 2017-02-06 05:09:30.955306+01 | 1486354170.95531 | pgbench_accounts |       1342955520
 2017-02-06 05:09:30.955306+01 | 1486354170.95531 | pgbench_tellers  |            49152
 2017-02-06 05:09:30.955306+01 | 1486354170.95531 | pgbench_history  |                0
 2017-02-06 05:09:30.955306+01 | 1486354170.95531 | pgbench_branches |             8192

 2017-02-06 05:09:32.040037+01 | 1486354172.04004 | pgbench_accounts |       1342955520
 2017-02-06 05:09:32.040037+01 | 1486354172.04004 | pgbench_tellers  |            49152
 2017-02-06 05:09:32.040037+01 | 1486354172.04004 | pgbench_history  |                0
 2017-02-06 05:09:32.040037+01 | 1486354172.04004 | pgbench_branches |             8192

 2017-02-06 05:09:33.125978+01 | 1486354173.12598 | pgbench_accounts |       1342955520
 2017-02-06 05:09:33.125978+01 | 1486354173.12598 | pgbench_tellers  |            49152
 2017-02-06 05:09:33.125978+01 | 1486354173.12598 | pgbench_history  |                0
 2017-02-06 05:09:33.125978+01 | 1486354173.12598 | pgbench_branches |             8192

 2017-02-06 05:09:34.216887+01 | 1486354174.21689 | pgbench_accounts |       1342955520
 2017-02-06 05:09:34.216887+01 | 1486354174.21689 | pgbench_tellers  |            49152
 2017-02-06 05:09:34.216887+01 | 1486354174.21689 | pgbench_history  |                0
 2017-02-06 05:09:34.216887+01 | 1486354174.21689 | pgbench_branches |             8192

 2017-02-06 05:09:35.303674+01 | 1486354175.30367 | pgbench_accounts |       1342955520
 2017-02-06 05:09:35.303674+01 | 1486354175.30367 | pgbench_tellers  |            49152
 2017-02-06 05:09:35.303674+01 | 1486354175.30367 | pgbench_history  |                0
 2017-02-06 05:09:35.303674+01 | 1486354175.30367 | pgbench_branches |             8192

 2017-02-06 05:09:36.395253+01 | 1486354176.39525 | pgbench_accounts |       1342955520
 2017-02-06 05:09:36.395253+01 | 1486354176.39525 | pgbench_tellers  |            49152
 2017-02-06 05:09:36.395253+01 | 1486354176.39525 | pgbench_history  |                0
 2017-02-06 05:09:36.395253+01 | 1486354176.39525 | pgbench_branches |             8192

 2017-02-06 05:09:37.478257+01 | 1486354177.47826 | pgbench_accounts |       1342955520
 2017-02-06 05:09:37.478257+01 | 1486354177.47826 | pgbench_tellers  |            49152
 2017-02-06 05:09:37.478257+01 | 1486354177.47826 | pgbench_history  |                0
 2017-02-06 05:09:37.478257+01 | 1486354177.47826 | pgbench_branches |             8192

 2017-02-06 05:09:38.557771+01 | 1486354178.55777 | pgbench_accounts |       1342955520
 2017-02-06 05:09:38.557771+01 | 1486354178.55777 | pgbench_tellers  |            49152
 2017-02-06 05:09:38.557771+01 | 1486354178.55777 | pgbench_history  |                0
 2017-02-06 05:09:38.557771+01 | 1486354178.55777 | pgbench_branches |             8192

 2017-02-06 05:09:39.646498+01 | 1486354179.6465 | pgbench_accounts |       1342955520
 2017-02-06 05:09:39.646498+01 | 1486354179.6465 | pgbench_tellers  |            49152
 2017-02-06 05:09:39.646498+01 | 1486354179.6465 | pgbench_history  |                0
 2017-02-06 05:09:39.646498+01 | 1486354179.6465 | pgbench_branches |             8192

 2017-02-06 05:09:40.736023+01 | 1486354180.73602 | pgbench_accounts |       1342955520
 2017-02-06 05:09:40.736023+01 | 1486354180.73602 | pgbench_tellers  |            49152
 2017-02-06 05:09:40.736023+01 | 1486354180.73602 | pgbench_history  |                0
 2017-02-06 05:09:40.736023+01 | 1486354180.73602 | pgbench_branches |             8192

 2017-02-06 05:09:41.827562+01 | 1486354181.82756 | pgbench_accounts |       1342955520
 2017-02-06 05:09:41.827562+01 | 1486354181.82756 | pgbench_tellers  |            49152
 2017-02-06 05:09:41.827562+01 | 1486354181.82756 | pgbench_history  |                0
 2017-02-06 05:09:41.827562+01 | 1486354181.82756 | pgbench_branches |             8192

 2017-02-06 05:09:42.913533+01 | 1486354182.91353 | pgbench_accounts |       1342955520
 2017-02-06 05:09:42.913533+01 | 1486354182.91353 | pgbench_tellers  |            49152
 2017-02-06 05:09:42.913533+01 | 1486354182.91353 | pgbench_history  |                0
 2017-02-06 05:09:42.913533+01 | 1486354182.91353 | pgbench_branches |             8192

 2017-02-06 05:09:44.002332+01 | 1486354184.00233 | pgbench_accounts |       1342955520
 2017-02-06 05:09:44.002332+01 | 1486354184.00233 | pgbench_tellers  |            49152
 2017-02-06 05:09:44.002332+01 | 1486354184.00233 | pgbench_history  |                0
 2017-02-06 05:09:44.002332+01 | 1486354184.00233 | pgbench_branches |             8192

 2017-02-06 05:09:45.085879+01 | 1486354185.08588 | pgbench_accounts |       1342955520
 2017-02-06 05:09:45.085879+01 | 1486354185.08588 | pgbench_tellers  |            49152
 2017-02-06 05:09:45.085879+01 | 1486354185.08588 | pgbench_history  |                0
 2017-02-06 05:09:45.085879+01 | 1486354185.08588 | pgbench_branches |             8192

 2017-02-06 05:09:46.176701+01 | 1486354186.1767 | pgbench_accounts |       1342955520
 2017-02-06 05:09:46.176701+01 | 1486354186.1767 | pgbench_tellers  |            49152
 2017-02-06 05:09:46.176701+01 | 1486354186.1767 | pgbench_history  |                0
 2017-02-06 05:09:46.176701+01 | 1486354186.1767 | pgbench_branches |             8192

 2017-02-06 05:09:47.265008+01 | 1486354187.26501 | pgbench_accounts |       1342955520
 2017-02-06 05:09:47.265008+01 | 1486354187.26501 | pgbench_tellers  |            49152
 2017-02-06 05:09:47.265008+01 | 1486354187.26501 | pgbench_history  |                0
 2017-02-06 05:09:47.265008+01 | 1486354187.26501 | pgbench_branches |             8192

 2017-02-06 05:09:48.354313+01 | 1486354188.35431 | pgbench_accounts |       1342955520
 2017-02-06 05:09:48.354313+01 | 1486354188.35431 | pgbench_tellers  |            49152
 2017-02-06 05:09:48.354313+01 | 1486354188.35431 | pgbench_history  |                0
 2017-02-06 05:09:48.354313+01 | 1486354188.35431 | pgbench_branches |             8192

 2017-02-06 05:09:49.441568+01 | 1486354189.44157 | pgbench_accounts |       1342955520
 2017-02-06 05:09:49.441568+01 | 1486354189.44157 | pgbench_tellers  |            49152
 2017-02-06 05:09:49.441568+01 | 1486354189.44157 | pgbench_history  |                0
 2017-02-06 05:09:49.441568+01 | 1486354189.44157 | pgbench_branches |             8192

 2017-02-06 05:09:50.526551+01 | 1486354190.52655 | pgbench_accounts |       1342955520
 2017-02-06 05:09:50.526551+01 | 1486354190.52655 | pgbench_tellers  |            49152
 2017-02-06 05:09:50.526551+01 | 1486354190.52655 | pgbench_history  |                0
 2017-02-06 05:09:50.526551+01 | 1486354190.52655 | pgbench_branches |             8192

 2017-02-06 05:09:51.616444+01 | 1486354191.61644 | pgbench_accounts |       1342955520
 2017-02-06 05:09:51.616444+01 | 1486354191.61644 | pgbench_tellers  |            49152
 2017-02-06 05:09:51.616444+01 | 1486354191.61644 | pgbench_history  |                0
 2017-02-06 05:09:51.616444+01 | 1486354191.61644 | pgbench_branches |             8192

 2017-02-06 05:09:52.706774+01 | 1486354192.70677 | pgbench_accounts |       1342955520
 2017-02-06 05:09:52.706774+01 | 1486354192.70677 | pgbench_tellers  |            49152
 2017-02-06 05:09:52.706774+01 | 1486354192.70677 | pgbench_history  |                0
 2017-02-06 05:09:52.706774+01 | 1486354192.70677 | pgbench_branches |             8192

 2017-02-06 05:09:53.799892+01 | 1486354193.79989 | pgbench_accounts |       1342955520
 2017-02-06 05:09:53.799892+01 | 1486354193.79989 | pgbench_tellers  |            49152
 2017-02-06 05:09:53.799892+01 | 1486354193.79989 | pgbench_history  |                0
 2017-02-06 05:09:53.799892+01 | 1486354193.79989 | pgbench_branches |             8192

 2017-02-06 05:09:54.890111+01 | 1486354194.89011 | pgbench_accounts |       1342955520
 2017-02-06 05:09:54.890111+01 | 1486354194.89011 | pgbench_tellers  |            49152
 2017-02-06 05:09:54.890111+01 | 1486354194.89011 | pgbench_history  |                0
 2017-02-06 05:09:54.890111+01 | 1486354194.89011 | pgbench_branches |             8192

 2017-02-06 05:09:55.978087+01 | 1486354195.97809 | pgbench_accounts |       1342955520
 2017-02-06 05:09:55.978087+01 | 1486354195.97809 | pgbench_tellers  |            49152
 2017-02-06 05:09:55.978087+01 | 1486354195.97809 | pgbench_history  |                0
 2017-02-06 05:09:55.978087+01 | 1486354195.97809 | pgbench_branches |             8192

 2017-02-06 05:09:57.067042+01 | 1486354197.06704 | pgbench_accounts |       1342955520
 2017-02-06 05:09:57.067042+01 | 1486354197.06704 | pgbench_tellers  |            49152
 2017-02-06 05:09:57.067042+01 | 1486354197.06704 | pgbench_history  |                0
 2017-02-06 05:09:57.067042+01 | 1486354197.06704 | pgbench_branches |             8192

 2017-02-06 05:09:58.152986+01 | 1486354198.15299 | pgbench_accounts |       1342955520
 2017-02-06 05:09:58.152986+01 | 1486354198.15299 | pgbench_tellers  |            49152
 2017-02-06 05:09:58.152986+01 | 1486354198.15299 | pgbench_history  |                0
 2017-02-06 05:09:58.152986+01 | 1486354198.15299 | pgbench_branches |             8192

 2017-02-06 05:09:59.239432+01 | 1486354199.23943 | pgbench_accounts |       1342955520
 2017-02-06 05:09:59.239432+01 | 1486354199.23943 | pgbench_tellers  |            49152
 2017-02-06 05:09:59.239432+01 | 1486354199.23943 | pgbench_history  |                0
 2017-02-06 05:09:59.239432+01 | 1486354199.23943 | pgbench_branches |             8192

 2017-02-06 05:10:00.322288+01 | 1486354200.32229 | pgbench_accounts |       1342955520
 2017-02-06 05:10:00.322288+01 | 1486354200.32229 | pgbench_tellers  |            49152
 2017-02-06 05:10:00.322288+01 | 1486354200.32229 | pgbench_history  |                0
 2017-02-06 05:10:00.322288+01 | 1486354200.32229 | pgbench_branches |             8192

 2017-02-06 05:10:01.406703+01 | 1486354201.4067 | pgbench_accounts |       1342955520
 2017-02-06 05:10:01.406703+01 | 1486354201.4067 | pgbench_tellers  |            49152
 2017-02-06 05:10:01.406703+01 | 1486354201.4067 | pgbench_history  |                0
 2017-02-06 05:10:01.406703+01 | 1486354201.4067 | pgbench_branches |             8192

 2017-02-06 05:10:02.498114+01 | 1486354202.49811 | pgbench_accounts |       1342955520
 2017-02-06 05:10:02.498114+01 | 1486354202.49811 | pgbench_tellers  |            49152
 2017-02-06 05:10:02.498114+01 | 1486354202.49811 | pgbench_history  |                0
 2017-02-06 05:10:02.498114+01 | 1486354202.49811 | pgbench_branches |             8192

 2017-02-06 05:10:03.585649+01 | 1486354203.58565 | pgbench_accounts |       1342955520
 2017-02-06 05:10:03.585649+01 | 1486354203.58565 | pgbench_tellers  |            49152
 2017-02-06 05:10:03.585649+01 | 1486354203.58565 | pgbench_history  |                0
 2017-02-06 05:10:03.585649+01 | 1486354203.58565 | pgbench_branches |             8192

 2017-02-06 05:10:04.677731+01 | 1486354204.67773 | pgbench_accounts |       1342955520
 2017-02-06 05:10:04.677731+01 | 1486354204.67773 | pgbench_tellers  |            49152
 2017-02-06 05:10:04.677731+01 | 1486354204.67773 | pgbench_history  |                0
 2017-02-06 05:10:04.677731+01 | 1486354204.67773 | pgbench_branches |             8192

 2017-02-06 05:10:05.764899+01 | 1486354205.7649 | pgbench_accounts |       1342955520
 2017-02-06 05:10:05.764899+01 | 1486354205.7649 | pgbench_tellers  |            49152
 2017-02-06 05:10:05.764899+01 | 1486354205.7649 | pgbench_history  |                0
 2017-02-06 05:10:05.764899+01 | 1486354205.7649 | pgbench_branches |             8192

 2017-02-06 05:10:06.848294+01 | 1486354206.84829 | pgbench_accounts |       1342955520
 2017-02-06 05:10:06.848294+01 | 1486354206.84829 | pgbench_tellers  |            49152
 2017-02-06 05:10:06.848294+01 | 1486354206.84829 | pgbench_history  |                0
 2017-02-06 05:10:06.848294+01 | 1486354206.84829 | pgbench_branches |             8192

 2017-02-06 05:10:07.940148+01 | 1486354207.94015 | pgbench_accounts |       1342955520
 2017-02-06 05:10:07.940148+01 | 1486354207.94015 | pgbench_tellers  |            49152
 2017-02-06 05:10:07.940148+01 | 1486354207.94015 | pgbench_history  |                0
 2017-02-06 05:10:07.940148+01 | 1486354207.94015 | pgbench_branches |             8192

 2017-02-06 05:10:09.026879+01 | 1486354209.02688 | pgbench_accounts |       1342955520
 2017-02-06 05:10:09.026879+01 | 1486354209.02688 | pgbench_tellers  |            49152
 2017-02-06 05:10:09.026879+01 | 1486354209.02688 | pgbench_history  |                0
 2017-02-06 05:10:09.026879+01 | 1486354209.02688 | pgbench_branches |             8192

 2017-02-06 05:10:10.117438+01 | 1486354210.11744 | pgbench_accounts |       1342955520
 2017-02-06 05:10:10.117438+01 | 1486354210.11744 | pgbench_tellers  |            49152
 2017-02-06 05:10:10.117438+01 | 1486354210.11744 | pgbench_history  |                0
 2017-02-06 05:10:10.117438+01 | 1486354210.11744 | pgbench_branches |             8192

 2017-02-06 05:10:11.200404+01 | 1486354211.2004 | pgbench_accounts |       1342955520
 2017-02-06 05:10:11.200404+01 | 1486354211.2004 | pgbench_tellers  |            49152
 2017-02-06 05:10:11.200404+01 | 1486354211.2004 | pgbench_history  |                0
 2017-02-06 05:10:11.200404+01 | 1486354211.2004 | pgbench_branches |             8192

 2017-02-06 05:10:12.283654+01 | 1486354212.28365 | pgbench_accounts |       1342955520
 2017-02-06 05:10:12.283654+01 | 1486354212.28365 | pgbench_tellers  |            49152
 2017-02-06 05:10:12.283654+01 | 1486354212.28365 | pgbench_history  |                0
 2017-02-06 05:10:12.283654+01 | 1486354212.28365 | pgbench_branches |             8192

 2017-02-06 05:10:13.368825+01 | 1486354213.36882 | pgbench_accounts |       1342955520
 2017-02-06 05:10:13.368825+01 | 1486354213.36882 | pgbench_tellers  |            49152
 2017-02-06 05:10:13.368825+01 | 1486354213.36882 | pgbench_history  |                0
 2017-02-06 05:10:13.368825+01 | 1486354213.36882 | pgbench_branches |             8192

 2017-02-06 05:10:14.460337+01 | 1486354214.46034 | pgbench_accounts |       1342955520
 2017-02-06 05:10:14.460337+01 | 1486354214.46034 | pgbench_tellers  |            49152
 2017-02-06 05:10:14.460337+01 | 1486354214.46034 | pgbench_history  |                0
 2017-02-06 05:10:14.460337+01 | 1486354214.46034 | pgbench_branches |             8192

 2017-02-06 05:10:15.549688+01 | 1486354215.54969 | pgbench_accounts |       1342955520
 2017-02-06 05:10:15.549688+01 | 1486354215.54969 | pgbench_tellers  |            49152
 2017-02-06 05:10:15.549688+01 | 1486354215.54969 | pgbench_history  |                0
 2017-02-06 05:10:15.549688+01 | 1486354215.54969 | pgbench_branches |             8192

 2017-02-06 05:10:16.632638+01 | 1486354216.63264 | pgbench_accounts |       1342955520
 2017-02-06 05:10:16.632638+01 | 1486354216.63264 | pgbench_tellers  |            49152
 2017-02-06 05:10:16.632638+01 | 1486354216.63264 | pgbench_history  |                0
 2017-02-06 05:10:16.632638+01 | 1486354216.63264 | pgbench_branches |             8192

 2017-02-06 05:10:17.724517+01 | 1486354217.72452 | pgbench_accounts |       1342955520
 2017-02-06 05:10:17.724517+01 | 1486354217.72452 | pgbench_tellers  |            49152
 2017-02-06 05:10:17.724517+01 | 1486354217.72452 | pgbench_history  |                0
 2017-02-06 05:10:17.724517+01 | 1486354217.72452 | pgbench_branches |             8192

 2017-02-06 05:10:18.823511+01 | 1486354218.82351 | pgbench_accounts |       1342955520
 2017-02-06 05:10:18.823511+01 | 1486354218.82351 | pgbench_tellers  |            49152
 2017-02-06 05:10:18.823511+01 | 1486354218.82351 | pgbench_history  |                0
 2017-02-06 05:10:18.823511+01 | 1486354218.82351 | pgbench_branches |             8192

 2017-02-06 05:10:19.904887+01 | 1486354219.90489 | pgbench_accounts |       1342955520
 2017-02-06 05:10:19.904887+01 | 1486354219.90489 | pgbench_tellers  |            49152
 2017-02-06 05:10:19.904887+01 | 1486354219.90489 | pgbench_history  |                0
 2017-02-06 05:10:19.904887+01 | 1486354219.90489 | pgbench_branches |             8192

 2017-02-06 05:10:20.993211+01 | 1486354220.99321 | pgbench_accounts |       1342955520
 2017-02-06 05:10:20.993211+01 | 1486354220.99321 | pgbench_tellers  |            49152
 2017-02-06 05:10:20.993211+01 | 1486354220.99321 | pgbench_history  |                0
 2017-02-06 05:10:20.993211+01 | 1486354220.99321 | pgbench_branches |             8192

 2017-02-06 05:10:22.080057+01 | 1486354222.08006 | pgbench_accounts |       1342955520
 2017-02-06 05:10:22.080057+01 | 1486354222.08006 | pgbench_tellers  |            49152
 2017-02-06 05:10:22.080057+01 | 1486354222.08006 | pgbench_history  |                0
 2017-02-06 05:10:22.080057+01 | 1486354222.08006 | pgbench_branches |             8192

 2017-02-06 05:10:23.164596+01 | 1486354223.1646 | pgbench_accounts |       1342955520
 2017-02-06 05:10:23.164596+01 | 1486354223.1646 | pgbench_tellers  |            49152
 2017-02-06 05:10:23.164596+01 | 1486354223.1646 | pgbench_history  |                0
 2017-02-06 05:10:23.164596+01 | 1486354223.1646 | pgbench_branches |             8192

 2017-02-06 05:10:24.238608+01 | 1486354224.23861 | pgbench_accounts |       1342955520
 2017-02-06 05:10:24.238608+01 | 1486354224.23861 | pgbench_tellers  |            49152
 2017-02-06 05:10:24.238608+01 | 1486354224.23861 | pgbench_history  |                0
 2017-02-06 05:10:24.238608+01 | 1486354224.23861 | pgbench_branches |             8192

 2017-02-06 05:10:25.331526+01 | 1486354225.33153 | pgbench_accounts |       1342955520
 2017-02-06 05:10:25.331526+01 | 1486354225.33153 | pgbench_tellers  |            49152
 2017-02-06 05:10:25.331526+01 | 1486354225.33153 | pgbench_history  |                0
 2017-02-06 05:10:25.331526+01 | 1486354225.33153 | pgbench_branches |             8192

 2017-02-06 05:10:26.433866+01 | 1486354226.43387 | pgbench_accounts |       1342955520
 2017-02-06 05:10:26.433866+01 | 1486354226.43387 | pgbench_tellers  |            49152
 2017-02-06 05:10:26.433866+01 | 1486354226.43387 | pgbench_history  |                0
 2017-02-06 05:10:26.433866+01 | 1486354226.43387 | pgbench_branches |             8192

 2017-02-06 05:10:27.519627+01 | 1486354227.51963 | pgbench_accounts |       1342955520
 2017-02-06 05:10:27.519627+01 | 1486354227.51963 | pgbench_tellers  |            49152
 2017-02-06 05:10:27.519627+01 | 1486354227.51963 | pgbench_history  |                0
 2017-02-06 05:10:27.519627+01 | 1486354227.51963 | pgbench_branches |             8192

 2017-02-06 05:10:28.609379+01 | 1486354228.60938 | pgbench_accounts |       1342955520
 2017-02-06 05:10:28.609379+01 | 1486354228.60938 | pgbench_tellers  |            49152
 2017-02-06 05:10:28.609379+01 | 1486354228.60938 | pgbench_history  |                0
 2017-02-06 05:10:28.609379+01 | 1486354228.60938 | pgbench_branches |             8192

 2017-02-06 05:10:29.697975+01 | 1486354229.69797 | pgbench_accounts |       1342955520
 2017-02-06 05:10:29.697975+01 | 1486354229.69797 | pgbench_tellers  |            49152
 2017-02-06 05:10:29.697975+01 | 1486354229.69797 | pgbench_history  |                0
 2017-02-06 05:10:29.697975+01 | 1486354229.69797 | pgbench_branches |             8192

 2017-02-06 05:10:30.784352+01 | 1486354230.78435 | pgbench_accounts |       1342955520
 2017-02-06 05:10:30.784352+01 | 1486354230.78435 | pgbench_tellers  |            49152
 2017-02-06 05:10:30.784352+01 | 1486354230.78435 | pgbench_history  |                0
 2017-02-06 05:10:30.784352+01 | 1486354230.78435 | pgbench_branches |             8192

 2017-02-06 05:10:31.867215+01 | 1486354231.86721 | pgbench_accounts |       1342955520
 2017-02-06 05:10:31.867215+01 | 1486354231.86721 | pgbench_tellers  |            49152
 2017-02-06 05:10:31.867215+01 | 1486354231.86721 | pgbench_history  |                0
 2017-02-06 05:10:31.867215+01 | 1486354231.86721 | pgbench_branches |             8192

 2017-02-06 05:10:32.95384+01 | 1486354232.95384 | pgbench_accounts |       1342955520
 2017-02-06 05:10:32.95384+01 | 1486354232.95384 | pgbench_tellers  |            49152
 2017-02-06 05:10:32.95384+01 | 1486354232.95384 | pgbench_history  |                0
 2017-02-06 05:10:32.95384+01 | 1486354232.95384 | pgbench_branches |             8192

 2017-02-06 05:10:34.042864+01 | 1486354234.04286 | pgbench_accounts |       1342955520
 2017-02-06 05:10:34.042864+01 | 1486354234.04286 | pgbench_tellers  |            49152
 2017-02-06 05:10:34.042864+01 | 1486354234.04286 | pgbench_history  |                0
 2017-02-06 05:10:34.042864+01 | 1486354234.04286 | pgbench_branches |             8192

 2017-02-06 05:10:35.126977+01 | 1486354235.12698 | pgbench_accounts |       1342955520
 2017-02-06 05:10:35.126977+01 | 1486354235.12698 | pgbench_tellers  |            49152
 2017-02-06 05:10:35.126977+01 | 1486354235.12698 | pgbench_history  |                0
 2017-02-06 05:10:35.126977+01 | 1486354235.12698 | pgbench_branches |             8192

 2017-02-06 05:10:36.210537+01 | 1486354236.21054 | pgbench_accounts |       1342955520
 2017-02-06 05:10:36.210537+01 | 1486354236.21054 | pgbench_tellers  |            49152
 2017-02-06 05:10:36.210537+01 | 1486354236.21054 | pgbench_history  |                0
 2017-02-06 05:10:36.210537+01 | 1486354236.21054 | pgbench_branches |             8192

 2017-02-06 05:10:37.293928+01 | 1486354237.29393 | pgbench_accounts |       1342955520
 2017-02-06 05:10:37.293928+01 | 1486354237.29393 | pgbench_tellers  |            49152
 2017-02-06 05:10:37.293928+01 | 1486354237.29393 | pgbench_history  |                0
 2017-02-06 05:10:37.293928+01 | 1486354237.29393 | pgbench_branches |             8192

 2017-02-06 05:10:38.378676+01 | 1486354238.37868 | pgbench_accounts |       1342955520
 2017-02-06 05:10:38.378676+01 | 1486354238.37868 | pgbench_tellers  |            49152
 2017-02-06 05:10:38.378676+01 | 1486354238.37868 | pgbench_history  |                0
 2017-02-06 05:10:38.378676+01 | 1486354238.37868 | pgbench_branches |             8192

 2017-02-06 05:10:39.464214+01 | 1486354239.46421 | pgbench_accounts |       1342955520
 2017-02-06 05:10:39.464214+01 | 1486354239.46421 | pgbench_tellers  |            49152
 2017-02-06 05:10:39.464214+01 | 1486354239.46421 | pgbench_history  |                0
 2017-02-06 05:10:39.464214+01 | 1486354239.46421 | pgbench_branches |             8192

 2017-02-06 05:10:40.547503+01 | 1486354240.5475 | pgbench_accounts |       1342955520
 2017-02-06 05:10:40.547503+01 | 1486354240.5475 | pgbench_tellers  |            49152
 2017-02-06 05:10:40.547503+01 | 1486354240.5475 | pgbench_history  |                0
 2017-02-06 05:10:40.547503+01 | 1486354240.5475 | pgbench_branches |             8192

 2017-02-06 05:10:41.636506+01 | 1486354241.63651 | pgbench_accounts |       1342955520
 2017-02-06 05:10:41.636506+01 | 1486354241.63651 | pgbench_tellers  |            49152
 2017-02-06 05:10:41.636506+01 | 1486354241.63651 | pgbench_history  |                0
 2017-02-06 05:10:41.636506+01 | 1486354241.63651 | pgbench_branches |             8192

 2017-02-06 05:10:42.725495+01 | 1486354242.7255 | pgbench_accounts |       1342955520
 2017-02-06 05:10:42.725495+01 | 1486354242.7255 | pgbench_tellers  |            49152
 2017-02-06 05:10:42.725495+01 | 1486354242.7255 | pgbench_history  |                0
 2017-02-06 05:10:42.725495+01 | 1486354242.7255 | pgbench_branches |             8192

 2017-02-06 05:10:43.810702+01 | 1486354243.8107 | pgbench_accounts |       1342955520
 2017-02-06 05:10:43.810702+01 | 1486354243.8107 | pgbench_tellers  |            49152
 2017-02-06 05:10:43.810702+01 | 1486354243.8107 | pgbench_history  |                0
 2017-02-06 05:10:43.810702+01 | 1486354243.8107 | pgbench_branches |             8192

 2017-02-06 05:10:44.898409+01 | 1486354244.89841 | pgbench_accounts |       1342955520
 2017-02-06 05:10:44.898409+01 | 1486354244.89841 | pgbench_tellers  |            49152
 2017-02-06 05:10:44.898409+01 | 1486354244.89841 | pgbench_history  |                0
 2017-02-06 05:10:44.898409+01 | 1486354244.89841 | pgbench_branches |             8192

 2017-02-06 05:10:45.985153+01 | 1486354245.98515 | pgbench_accounts |       1342955520
 2017-02-06 05:10:45.985153+01 | 1486354245.98515 | pgbench_tellers  |            49152
 2017-02-06 05:10:45.985153+01 | 1486354245.98515 | pgbench_history  |                0
 2017-02-06 05:10:45.985153+01 | 1486354245.98515 | pgbench_branches |             8192

 2017-02-06 05:10:47.075514+01 | 1486354247.07551 | pgbench_accounts |       1342955520
 2017-02-06 05:10:47.075514+01 | 1486354247.07551 | pgbench_tellers  |            49152
 2017-02-06 05:10:47.075514+01 | 1486354247.07551 | pgbench_history  |                0
 2017-02-06 05:10:47.075514+01 | 1486354247.07551 | pgbench_branches |             8192

 2017-02-06 05:10:48.158279+01 | 1486354248.15828 | pgbench_accounts |       1342955520
 2017-02-06 05:10:48.158279+01 | 1486354248.15828 | pgbench_tellers  |            49152
 2017-02-06 05:10:48.158279+01 | 1486354248.15828 | pgbench_history  |                0
 2017-02-06 05:10:48.158279+01 | 1486354248.15828 | pgbench_branches |             8192

 2017-02-06 05:10:49.243541+01 | 1486354249.24354 | pgbench_accounts |       1342955520
 2017-02-06 05:10:49.243541+01 | 1486354249.24354 | pgbench_tellers  |            49152
 2017-02-06 05:10:49.243541+01 | 1486354249.24354 | pgbench_history  |                0
 2017-02-06 05:10:49.243541+01 | 1486354249.24354 | pgbench_branches |             8192

 2017-02-06 05:10:50.327016+01 | 1486354250.32702 | pgbench_accounts |       1342955520
 2017-02-06 05:10:50.327016+01 | 1486354250.32702 | pgbench_tellers  |            49152
 2017-02-06 05:10:50.327016+01 | 1486354250.32702 | pgbench_history  |                0
 2017-02-06 05:10:50.327016+01 | 1486354250.32702 | pgbench_branches |             8192

 2017-02-06 05:10:51.410272+01 | 1486354251.41027 | pgbench_accounts |       1342955520
 2017-02-06 05:10:51.410272+01 | 1486354251.41027 | pgbench_tellers  |            49152
 2017-02-06 05:10:51.410272+01 | 1486354251.41027 | pgbench_history  |                0
 2017-02-06 05:10:51.410272+01 | 1486354251.41027 | pgbench_branches |             8192

 2017-02-06 05:10:52.49582+01 | 1486354252.49582 | pgbench_accounts |       1342955520
 2017-02-06 05:10:52.49582+01 | 1486354252.49582 | pgbench_tellers  |            49152
 2017-02-06 05:10:52.49582+01 | 1486354252.49582 | pgbench_history  |                0
 2017-02-06 05:10:52.49582+01 | 1486354252.49582 | pgbench_branches |             8192

 2017-02-06 05:10:53.586528+01 | 1486354253.58653 | pgbench_accounts |       1342955520
 2017-02-06 05:10:53.586528+01 | 1486354253.58653 | pgbench_tellers  |            49152
 2017-02-06 05:10:53.586528+01 | 1486354253.58653 | pgbench_history  |                0
 2017-02-06 05:10:53.586528+01 | 1486354253.58653 | pgbench_branches |             8192

 2017-02-06 05:10:54.686761+01 | 1486354254.68676 | pgbench_accounts |       1342955520
 2017-02-06 05:10:54.686761+01 | 1486354254.68676 | pgbench_tellers  |            49152
 2017-02-06 05:10:54.686761+01 | 1486354254.68676 | pgbench_history  |                0
 2017-02-06 05:10:54.686761+01 | 1486354254.68676 | pgbench_branches |             8192

 2017-02-06 05:10:55.775884+01 | 1486354255.77588 | pgbench_accounts |       1342955520
 2017-02-06 05:10:55.775884+01 | 1486354255.77588 | pgbench_tellers  |            49152
 2017-02-06 05:10:55.775884+01 | 1486354255.77588 | pgbench_history  |                0
 2017-02-06 05:10:55.775884+01 | 1486354255.77588 | pgbench_branches |             8192

 2017-02-06 05:10:56.858414+01 | 1486354256.85841 | pgbench_accounts |       1342955520
 2017-02-06 05:10:56.858414+01 | 1486354256.85841 | pgbench_tellers  |            49152
 2017-02-06 05:10:56.858414+01 | 1486354256.85841 | pgbench_history  |                0
 2017-02-06 05:10:56.858414+01 | 1486354256.85841 | pgbench_branches |             8192

 2017-02-06 05:10:57.942423+01 | 1486354257.94242 | pgbench_accounts |       1342955520
 2017-02-06 05:10:57.942423+01 | 1486354257.94242 | pgbench_tellers  |            49152
 2017-02-06 05:10:57.942423+01 | 1486354257.94242 | pgbench_history  |                0
 2017-02-06 05:10:57.942423+01 | 1486354257.94242 | pgbench_branches |             8192

 2017-02-06 05:10:59.031047+01 | 1486354259.03105 | pgbench_accounts |       1342955520
 2017-02-06 05:10:59.031047+01 | 1486354259.03105 | pgbench_tellers  |            49152
 2017-02-06 05:10:59.031047+01 | 1486354259.03105 | pgbench_history  |                0
 2017-02-06 05:10:59.031047+01 | 1486354259.03105 | pgbench_branches |             8192

 2017-02-06 05:11:00.121501+01 | 1486354260.1215 | pgbench_accounts |       1342955520
 2017-02-06 05:11:00.121501+01 | 1486354260.1215 | pgbench_tellers  |            49152
 2017-02-06 05:11:00.121501+01 | 1486354260.1215 | pgbench_history  |                0
 2017-02-06 05:11:00.121501+01 | 1486354260.1215 | pgbench_branches |             8192

 2017-02-06 05:11:01.211625+01 | 1486354261.21163 | pgbench_accounts |       1342955520
 2017-02-06 05:11:01.211625+01 | 1486354261.21163 | pgbench_tellers  |            49152
 2017-02-06 05:11:01.211625+01 | 1486354261.21163 | pgbench_history  |                0
 2017-02-06 05:11:01.211625+01 | 1486354261.21163 | pgbench_branches |             8192

 2017-02-06 05:11:02.301306+01 | 1486354262.30131 | pgbench_accounts |       1342955520
 2017-02-06 05:11:02.301306+01 | 1486354262.30131 | pgbench_tellers  |            49152
 2017-02-06 05:11:02.301306+01 | 1486354262.30131 | pgbench_history  |                0
 2017-02-06 05:11:02.301306+01 | 1486354262.30131 | pgbench_branches |             8192

 2017-02-06 05:11:03.385193+01 | 1486354263.38519 | pgbench_accounts |       1342955520
 2017-02-06 05:11:03.385193+01 | 1486354263.38519 | pgbench_tellers  |            49152
 2017-02-06 05:11:03.385193+01 | 1486354263.38519 | pgbench_history  |                0
 2017-02-06 05:11:03.385193+01 | 1486354263.38519 | pgbench_branches |             8192

 2017-02-06 05:11:04.469075+01 | 1486354264.46907 | pgbench_accounts |       1342955520
 2017-02-06 05:11:04.469075+01 | 1486354264.46907 | pgbench_tellers  |            49152
 2017-02-06 05:11:04.469075+01 | 1486354264.46907 | pgbench_history  |                0
 2017-02-06 05:11:04.469075+01 | 1486354264.46907 | pgbench_branches |             8192

 2017-02-06 05:11:05.549287+01 | 1486354265.54929 | pgbench_accounts |       1342955520
 2017-02-06 05:11:05.549287+01 | 1486354265.54929 | pgbench_tellers  |            49152
 2017-02-06 05:11:05.549287+01 | 1486354265.54929 | pgbench_history  |                0
 2017-02-06 05:11:05.549287+01 | 1486354265.54929 | pgbench_branches |             8192

 2017-02-06 05:11:06.628973+01 | 1486354266.62897 | pgbench_accounts |       1342955520
 2017-02-06 05:11:06.628973+01 | 1486354266.62897 | pgbench_tellers  |            49152
 2017-02-06 05:11:06.628973+01 | 1486354266.62897 | pgbench_history  |                0
 2017-02-06 05:11:06.628973+01 | 1486354266.62897 | pgbench_branches |             8192

 2017-02-06 05:11:07.717008+01 | 1486354267.71701 | pgbench_accounts |       1342955520
 2017-02-06 05:11:07.717008+01 | 1486354267.71701 | pgbench_tellers  |            49152
 2017-02-06 05:11:07.717008+01 | 1486354267.71701 | pgbench_history  |                0
 2017-02-06 05:11:07.717008+01 | 1486354267.71701 | pgbench_branches |             8192

 2017-02-06 05:11:08.807072+01 | 1486354268.80707 | pgbench_accounts |       1342955520
 2017-02-06 05:11:08.807072+01 | 1486354268.80707 | pgbench_tellers  |            49152
 2017-02-06 05:11:08.807072+01 | 1486354268.80707 | pgbench_history  |                0
 2017-02-06 05:11:08.807072+01 | 1486354268.80707 | pgbench_branches |             8192

 2017-02-06 05:11:09.893932+01 | 1486354269.89393 | pgbench_accounts |       1342955520
 2017-02-06 05:11:09.893932+01 | 1486354269.89393 | pgbench_tellers  |            49152
 2017-02-06 05:11:09.893932+01 | 1486354269.89393 | pgbench_history  |                0
 2017-02-06 05:11:09.893932+01 | 1486354269.89393 | pgbench_branches |             8192

 2017-02-06 05:11:10.982495+01 | 1486354270.9825 | pgbench_accounts |       1342955520
 2017-02-06 05:11:10.982495+01 | 1486354270.9825 | pgbench_tellers  |            49152
 2017-02-06 05:11:10.982495+01 | 1486354270.9825 | pgbench_history  |                0
 2017-02-06 05:11:10.982495+01 | 1486354270.9825 | pgbench_branches |             8192

 2017-02-06 05:11:12.073427+01 | 1486354272.07343 | pgbench_accounts |       1342955520
 2017-02-06 05:11:12.073427+01 | 1486354272.07343 | pgbench_tellers  |            49152
 2017-02-06 05:11:12.073427+01 | 1486354272.07343 | pgbench_history  |                0
 2017-02-06 05:11:12.073427+01 | 1486354272.07343 | pgbench_branches |             8192

 2017-02-06 05:11:13.167159+01 | 1486354273.16716 | pgbench_accounts |       1342955520
 2017-02-06 05:11:13.167159+01 | 1486354273.16716 | pgbench_tellers  |            49152
 2017-02-06 05:11:13.167159+01 | 1486354273.16716 | pgbench_history  |                0
 2017-02-06 05:11:13.167159+01 | 1486354273.16716 | pgbench_branches |             8192

 2017-02-06 05:11:14.250816+01 | 1486354274.25082 | pgbench_accounts |       1342955520
 2017-02-06 05:11:14.250816+01 | 1486354274.25082 | pgbench_tellers  |            49152
 2017-02-06 05:11:14.250816+01 | 1486354274.25082 | pgbench_history  |                0
 2017-02-06 05:11:14.250816+01 | 1486354274.25082 | pgbench_branches |             8192

 2017-02-06 05:11:15.336794+01 | 1486354275.33679 | pgbench_accounts |       1342955520
 2017-02-06 05:11:15.336794+01 | 1486354275.33679 | pgbench_tellers  |            49152
 2017-02-06 05:11:15.336794+01 | 1486354275.33679 | pgbench_history  |                0
 2017-02-06 05:11:15.336794+01 | 1486354275.33679 | pgbench_branches |             8192

 2017-02-06 05:11:16.421056+01 | 1486354276.42106 | pgbench_accounts |       1342955520
 2017-02-06 05:11:16.421056+01 | 1486354276.42106 | pgbench_tellers  |            49152
 2017-02-06 05:11:16.421056+01 | 1486354276.42106 | pgbench_history  |                0
 2017-02-06 05:11:16.421056+01 | 1486354276.42106 | pgbench_branches |             8192

 2017-02-06 05:11:17.501335+01 | 1486354277.50133 | pgbench_accounts |       1342955520
 2017-02-06 05:11:17.501335+01 | 1486354277.50133 | pgbench_tellers  |            49152
 2017-02-06 05:11:17.501335+01 | 1486354277.50133 | pgbench_history  |                0
 2017-02-06 05:11:17.501335+01 | 1486354277.50133 | pgbench_branches |             8192

 2017-02-06 05:11:18.588027+01 | 1486354278.58803 | pgbench_accounts |       1342955520
 2017-02-06 05:11:18.588027+01 | 1486354278.58803 | pgbench_tellers  |            49152
 2017-02-06 05:11:18.588027+01 | 1486354278.58803 | pgbench_history  |                0
 2017-02-06 05:11:18.588027+01 | 1486354278.58803 | pgbench_branches |             8192

 2017-02-06 05:11:19.673451+01 | 1486354279.67345 | pgbench_accounts |       1342955520
 2017-02-06 05:11:19.673451+01 | 1486354279.67345 | pgbench_tellers  |            49152
 2017-02-06 05:11:19.673451+01 | 1486354279.67345 | pgbench_history  |                0
 2017-02-06 05:11:19.673451+01 | 1486354279.67345 | pgbench_branches |             8192

 2017-02-06 05:11:20.757614+01 | 1486354280.75761 | pgbench_accounts |       1342955520
 2017-02-06 05:11:20.757614+01 | 1486354280.75761 | pgbench_tellers  |            49152
 2017-02-06 05:11:20.757614+01 | 1486354280.75761 | pgbench_history  |                0
 2017-02-06 05:11:20.757614+01 | 1486354280.75761 | pgbench_branches |             8192

 2017-02-06 05:11:21.838389+01 | 1486354281.83839 | pgbench_accounts |       1342955520
 2017-02-06 05:11:21.838389+01 | 1486354281.83839 | pgbench_tellers  |            49152
 2017-02-06 05:11:21.838389+01 | 1486354281.83839 | pgbench_history  |                0
 2017-02-06 05:11:21.838389+01 | 1486354281.83839 | pgbench_branches |             8192

 2017-02-06 05:11:22.920215+01 | 1486354282.92021 | pgbench_accounts |       1342955520
 2017-02-06 05:11:22.920215+01 | 1486354282.92021 | pgbench_tellers  |            49152
 2017-02-06 05:11:22.920215+01 | 1486354282.92021 | pgbench_history  |                0
 2017-02-06 05:11:22.920215+01 | 1486354282.92021 | pgbench_branches |             8192

 2017-02-06 05:11:23.998503+01 | 1486354283.9985 | pgbench_accounts |       1342955520
 2017-02-06 05:11:23.998503+01 | 1486354283.9985 | pgbench_tellers  |            49152
 2017-02-06 05:11:23.998503+01 | 1486354283.9985 | pgbench_history  |                0
 2017-02-06 05:11:23.998503+01 | 1486354283.9985 | pgbench_branches |             8192

 2017-02-06 05:11:25.079919+01 | 1486354285.07992 | pgbench_accounts |       1342955520
 2017-02-06 05:11:25.079919+01 | 1486354285.07992 | pgbench_tellers  |            49152
 2017-02-06 05:11:25.079919+01 | 1486354285.07992 | pgbench_history  |                0
 2017-02-06 05:11:25.079919+01 | 1486354285.07992 | pgbench_branches |             8192

 2017-02-06 05:11:26.162917+01 | 1486354286.16292 | pgbench_accounts |       1342955520
 2017-02-06 05:11:26.162917+01 | 1486354286.16292 | pgbench_tellers  |            49152
 2017-02-06 05:11:26.162917+01 | 1486354286.16292 | pgbench_history  |                0
 2017-02-06 05:11:26.162917+01 | 1486354286.16292 | pgbench_branches |             8192

 2017-02-06 05:11:27.249248+01 | 1486354287.24925 | pgbench_accounts |       1342955520
 2017-02-06 05:11:27.249248+01 | 1486354287.24925 | pgbench_tellers  |            49152
 2017-02-06 05:11:27.249248+01 | 1486354287.24925 | pgbench_history  |                0
 2017-02-06 05:11:27.249248+01 | 1486354287.24925 | pgbench_branches |             8192

 2017-02-06 05:11:28.332514+01 | 1486354288.33251 | pgbench_accounts |       1342955520
 2017-02-06 05:11:28.332514+01 | 1486354288.33251 | pgbench_tellers  |            49152
 2017-02-06 05:11:28.332514+01 | 1486354288.33251 | pgbench_history  |                0
 2017-02-06 05:11:28.332514+01 | 1486354288.33251 | pgbench_branches |             8192

 2017-02-06 05:11:29.423426+01 | 1486354289.42343 | pgbench_accounts |       1342955520
 2017-02-06 05:11:29.423426+01 | 1486354289.42343 | pgbench_tellers  |            49152
 2017-02-06 05:11:29.423426+01 | 1486354289.42343 | pgbench_history  |                0
 2017-02-06 05:11:29.423426+01 | 1486354289.42343 | pgbench_branches |             8192

 2017-02-06 05:11:30.508881+01 | 1486354290.50888 | pgbench_accounts |       1342955520
 2017-02-06 05:11:30.508881+01 | 1486354290.50888 | pgbench_tellers  |            49152
 2017-02-06 05:11:30.508881+01 | 1486354290.50888 | pgbench_history  |                0
 2017-02-06 05:11:30.508881+01 | 1486354290.50888 | pgbench_branches |             8192

 2017-02-06 05:11:31.587518+01 | 1486354291.58752 | pgbench_accounts |       1342955520
 2017-02-06 05:11:31.587518+01 | 1486354291.58752 | pgbench_tellers  |            49152
 2017-02-06 05:11:31.587518+01 | 1486354291.58752 | pgbench_history  |                0
 2017-02-06 05:11:31.587518+01 | 1486354291.58752 | pgbench_branches |             8192

 2017-02-06 05:11:32.676019+01 | 1486354292.67602 | pgbench_accounts |       1342955520
 2017-02-06 05:11:32.676019+01 | 1486354292.67602 | pgbench_tellers  |            49152
 2017-02-06 05:11:32.676019+01 | 1486354292.67602 | pgbench_history  |                0
 2017-02-06 05:11:32.676019+01 | 1486354292.67602 | pgbench_branches |             8192

 2017-02-06 05:11:33.759618+01 | 1486354293.75962 | pgbench_accounts |       1342955520
 2017-02-06 05:11:33.759618+01 | 1486354293.75962 | pgbench_tellers  |            49152
 2017-02-06 05:11:33.759618+01 | 1486354293.75962 | pgbench_history  |                0
 2017-02-06 05:11:33.759618+01 | 1486354293.75962 | pgbench_branches |             8192

 2017-02-06 05:11:34.844141+01 | 1486354294.84414 | pgbench_accounts |       1342955520
 2017-02-06 05:11:34.844141+01 | 1486354294.84414 | pgbench_tellers  |            49152
 2017-02-06 05:11:34.844141+01 | 1486354294.84414 | pgbench_history  |                0
 2017-02-06 05:11:34.844141+01 | 1486354294.84414 | pgbench_branches |             8192

 2017-02-06 05:11:35.928292+01 | 1486354295.92829 | pgbench_accounts |       1342955520
 2017-02-06 05:11:35.928292+01 | 1486354295.92829 | pgbench_tellers  |            49152
 2017-02-06 05:11:35.928292+01 | 1486354295.92829 | pgbench_history  |                0
 2017-02-06 05:11:35.928292+01 | 1486354295.92829 | pgbench_branches |             8192

 2017-02-06 05:11:37.01491+01 | 1486354297.01491 | pgbench_accounts |       1342955520
 2017-02-06 05:11:37.01491+01 | 1486354297.01491 | pgbench_tellers  |            49152
 2017-02-06 05:11:37.01491+01 | 1486354297.01491 | pgbench_history  |                0
 2017-02-06 05:11:37.01491+01 | 1486354297.01491 | pgbench_branches |             8192

 2017-02-06 05:11:38.108611+01 | 1486354298.10861 | pgbench_accounts |       1342955520
 2017-02-06 05:11:38.108611+01 | 1486354298.10861 | pgbench_tellers  |            49152
 2017-02-06 05:11:38.108611+01 | 1486354298.10861 | pgbench_history  |                0
 2017-02-06 05:11:38.108611+01 | 1486354298.10861 | pgbench_branches |             8192

 2017-02-06 05:11:39.190884+01 | 1486354299.19088 | pgbench_accounts |       1342955520
 2017-02-06 05:11:39.190884+01 | 1486354299.19088 | pgbench_tellers  |            49152
 2017-02-06 05:11:39.190884+01 | 1486354299.19088 | pgbench_history  |                0
 2017-02-06 05:11:39.190884+01 | 1486354299.19088 | pgbench_branches |             8192

 2017-02-06 05:11:40.277939+01 | 1486354300.27794 | pgbench_accounts |       1342955520
 2017-02-06 05:11:40.277939+01 | 1486354300.27794 | pgbench_tellers  |            49152
 2017-02-06 05:11:40.277939+01 | 1486354300.27794 | pgbench_history  |                0
 2017-02-06 05:11:40.277939+01 | 1486354300.27794 | pgbench_branches |             8192

 2017-02-06 05:11:41.365184+01 | 1486354301.36518 | pgbench_accounts |       1342955520
 2017-02-06 05:11:41.365184+01 | 1486354301.36518 | pgbench_tellers  |            49152
 2017-02-06 05:11:41.365184+01 | 1486354301.36518 | pgbench_history  |                0
 2017-02-06 05:11:41.365184+01 | 1486354301.36518 | pgbench_branches |             8192

 2017-02-06 05:11:42.450383+01 | 1486354302.45038 | pgbench_accounts |       1342955520
 2017-02-06 05:11:42.450383+01 | 1486354302.45038 | pgbench_tellers  |            49152
 2017-02-06 05:11:42.450383+01 | 1486354302.45038 | pgbench_history  |                0
 2017-02-06 05:11:42.450383+01 | 1486354302.45038 | pgbench_branches |             8192

 2017-02-06 05:11:43.531118+01 | 1486354303.53112 | pgbench_accounts |       1342955520
 2017-02-06 05:11:43.531118+01 | 1486354303.53112 | pgbench_tellers  |            49152
 2017-02-06 05:11:43.531118+01 | 1486354303.53112 | pgbench_history  |                0
 2017-02-06 05:11:43.531118+01 | 1486354303.53112 | pgbench_branches |             8192

 2017-02-06 05:11:44.617002+01 | 1486354304.617 | pgbench_accounts |       1342955520
 2017-02-06 05:11:44.617002+01 | 1486354304.617 | pgbench_tellers  |            49152
 2017-02-06 05:11:44.617002+01 | 1486354304.617 | pgbench_history  |                0
 2017-02-06 05:11:44.617002+01 | 1486354304.617 | pgbench_branches |             8192

 2017-02-06 05:11:45.699216+01 | 1486354305.69922 | pgbench_accounts |       1342955520
 2017-02-06 05:11:45.699216+01 | 1486354305.69922 | pgbench_tellers  |            49152
 2017-02-06 05:11:45.699216+01 | 1486354305.69922 | pgbench_history  |                0
 2017-02-06 05:11:45.699216+01 | 1486354305.69922 | pgbench_branches |             8192

 2017-02-06 05:11:46.779561+01 | 1486354306.77956 | pgbench_accounts |       1342955520
 2017-02-06 05:11:46.779561+01 | 1486354306.77956 | pgbench_tellers  |            49152
 2017-02-06 05:11:46.779561+01 | 1486354306.77956 | pgbench_history  |                0
 2017-02-06 05:11:46.779561+01 | 1486354306.77956 | pgbench_branches |             8192

 2017-02-06 05:11:47.86852+01 | 1486354307.86852 | pgbench_accounts |       1342955520
 2017-02-06 05:11:47.86852+01 | 1486354307.86852 | pgbench_tellers  |            49152
 2017-02-06 05:11:47.86852+01 | 1486354307.86852 | pgbench_history  |                0
 2017-02-06 05:11:47.86852+01 | 1486354307.86852 | pgbench_branches |             8192

 2017-02-06 05:11:48.94986+01 | 1486354308.94986 | pgbench_accounts |       1342955520
 2017-02-06 05:11:48.94986+01 | 1486354308.94986 | pgbench_tellers  |            49152
 2017-02-06 05:11:48.94986+01 | 1486354308.94986 | pgbench_history  |                0
 2017-02-06 05:11:48.94986+01 | 1486354308.94986 | pgbench_branches |             8192

 2017-02-06 05:11:50.031765+01 | 1486354310.03176 | pgbench_accounts |       1342955520
 2017-02-06 05:11:50.031765+01 | 1486354310.03176 | pgbench_tellers  |            49152
 2017-02-06 05:11:50.031765+01 | 1486354310.03176 | pgbench_history  |                0
 2017-02-06 05:11:50.031765+01 | 1486354310.03176 | pgbench_branches |             8192

 2017-02-06 05:11:51.122392+01 | 1486354311.12239 | pgbench_accounts |       1342955520
 2017-02-06 05:11:51.122392+01 | 1486354311.12239 | pgbench_tellers  |            49152
 2017-02-06 05:11:51.122392+01 | 1486354311.12239 | pgbench_history  |                0
 2017-02-06 05:11:51.122392+01 | 1486354311.12239 | pgbench_branches |             8192

 2017-02-06 05:11:52.209321+01 | 1486354312.20932 | pgbench_accounts |       1342955520
 2017-02-06 05:11:52.209321+01 | 1486354312.20932 | pgbench_tellers  |            49152
 2017-02-06 05:11:52.209321+01 | 1486354312.20932 | pgbench_history  |                0
 2017-02-06 05:11:52.209321+01 | 1486354312.20932 | pgbench_branches |             8192

 2017-02-06 05:11:53.304794+01 | 1486354313.30479 | pgbench_accounts |       1342955520
 2017-02-06 05:11:53.304794+01 | 1486354313.30479 | pgbench_tellers  |            49152
 2017-02-06 05:11:53.304794+01 | 1486354313.30479 | pgbench_history  |                0
 2017-02-06 05:11:53.304794+01 | 1486354313.30479 | pgbench_branches |             8192

 2017-02-06 05:11:54.388511+01 | 1486354314.38851 | pgbench_accounts |       1342955520
 2017-02-06 05:11:54.388511+01 | 1486354314.38851 | pgbench_tellers  |            49152
 2017-02-06 05:11:54.388511+01 | 1486354314.38851 | pgbench_history  |                0
 2017-02-06 05:11:54.388511+01 | 1486354314.38851 | pgbench_branches |             8192

 2017-02-06 05:11:55.470553+01 | 1486354315.47055 | pgbench_accounts |       1342955520
 2017-02-06 05:11:55.470553+01 | 1486354315.47055 | pgbench_tellers  |            49152
 2017-02-06 05:11:55.470553+01 | 1486354315.47055 | pgbench_history  |                0
 2017-02-06 05:11:55.470553+01 | 1486354315.47055 | pgbench_branches |             8192

 2017-02-06 05:11:56.557226+01 | 1486354316.55723 | pgbench_accounts |       1342955520
 2017-02-06 05:11:56.557226+01 | 1486354316.55723 | pgbench_tellers  |            49152
 2017-02-06 05:11:56.557226+01 | 1486354316.55723 | pgbench_history  |                0
 2017-02-06 05:11:56.557226+01 | 1486354316.55723 | pgbench_branches |             8192

 2017-02-06 05:11:57.645939+01 | 1486354317.64594 | pgbench_accounts |       1342955520
 2017-02-06 05:11:57.645939+01 | 1486354317.64594 | pgbench_tellers  |            49152
 2017-02-06 05:11:57.645939+01 | 1486354317.64594 | pgbench_history  |                0
 2017-02-06 05:11:57.645939+01 | 1486354317.64594 | pgbench_branches |             8192

 2017-02-06 05:11:58.733529+01 | 1486354318.73353 | pgbench_accounts |       1342955520
 2017-02-06 05:11:58.733529+01 | 1486354318.73353 | pgbench_tellers  |            49152
 2017-02-06 05:11:58.733529+01 | 1486354318.73353 | pgbench_history  |                0
 2017-02-06 05:11:58.733529+01 | 1486354318.73353 | pgbench_branches |             8192

 2017-02-06 05:11:59.813322+01 | 1486354319.81332 | pgbench_accounts |       1342955520
 2017-02-06 05:11:59.813322+01 | 1486354319.81332 | pgbench_tellers  |            49152
 2017-02-06 05:11:59.813322+01 | 1486354319.81332 | pgbench_history  |                0
 2017-02-06 05:11:59.813322+01 | 1486354319.81332 | pgbench_branches |             8192

 2017-02-06 05:12:00.895988+01 | 1486354320.89599 | pgbench_accounts |       1342955520
 2017-02-06 05:12:00.895988+01 | 1486354320.89599 | pgbench_tellers  |            49152
 2017-02-06 05:12:00.895988+01 | 1486354320.89599 | pgbench_history  |                0
 2017-02-06 05:12:00.895988+01 | 1486354320.89599 | pgbench_branches |             8192

 2017-02-06 05:12:01.977869+01 | 1486354321.97787 | pgbench_accounts |       1342955520
 2017-02-06 05:12:01.977869+01 | 1486354321.97787 | pgbench_tellers  |            49152
 2017-02-06 05:12:01.977869+01 | 1486354321.97787 | pgbench_history  |                0
 2017-02-06 05:12:01.977869+01 | 1486354321.97787 | pgbench_branches |             8192

 2017-02-06 05:12:03.067011+01 | 1486354323.06701 | pgbench_accounts |       1342955520
 2017-02-06 05:12:03.067011+01 | 1486354323.06701 | pgbench_tellers  |            49152
 2017-02-06 05:12:03.067011+01 | 1486354323.06701 | pgbench_history  |                0
 2017-02-06 05:12:03.067011+01 | 1486354323.06701 | pgbench_branches |             8192

 2017-02-06 05:12:04.148357+01 | 1486354324.14836 | pgbench_accounts |       1342955520
 2017-02-06 05:12:04.148357+01 | 1486354324.14836 | pgbench_tellers  |            49152
 2017-02-06 05:12:04.148357+01 | 1486354324.14836 | pgbench_history  |                0
 2017-02-06 05:12:04.148357+01 | 1486354324.14836 | pgbench_branches |             8192

 2017-02-06 05:12:05.230086+01 | 1486354325.23009 | pgbench_accounts |       1342955520
 2017-02-06 05:12:05.230086+01 | 1486354325.23009 | pgbench_tellers  |            49152
 2017-02-06 05:12:05.230086+01 | 1486354325.23009 | pgbench_history  |                0
 2017-02-06 05:12:05.230086+01 | 1486354325.23009 | pgbench_branches |             8192

 2017-02-06 05:12:06.315621+01 | 1486354326.31562 | pgbench_accounts |       1342955520
 2017-02-06 05:12:06.315621+01 | 1486354326.31562 | pgbench_tellers  |            49152
 2017-02-06 05:12:06.315621+01 | 1486354326.31562 | pgbench_history  |                0
 2017-02-06 05:12:06.315621+01 | 1486354326.31562 | pgbench_branches |             8192

 2017-02-06 05:12:07.408741+01 | 1486354327.40874 | pgbench_accounts |       1342955520
 2017-02-06 05:12:07.408741+01 | 1486354327.40874 | pgbench_tellers  |            49152
 2017-02-06 05:12:07.408741+01 | 1486354327.40874 | pgbench_history  |                0
 2017-02-06 05:12:07.408741+01 | 1486354327.40874 | pgbench_branches |             8192

 2017-02-06 05:12:08.48966+01 | 1486354328.48966 | pgbench_accounts |       1342955520
 2017-02-06 05:12:08.48966+01 | 1486354328.48966 | pgbench_tellers  |            49152
 2017-02-06 05:12:08.48966+01 | 1486354328.48966 | pgbench_history  |                0
 2017-02-06 05:12:08.48966+01 | 1486354328.48966 | pgbench_branches |             8192

 2017-02-06 05:12:09.57475+01 | 1486354329.57475 | pgbench_accounts |       1342955520
 2017-02-06 05:12:09.57475+01 | 1486354329.57475 | pgbench_tellers  |            49152
 2017-02-06 05:12:09.57475+01 | 1486354329.57475 | pgbench_history  |                0
 2017-02-06 05:12:09.57475+01 | 1486354329.57475 | pgbench_branches |             8192

 2017-02-06 05:12:10.659026+01 | 1486354330.65903 | pgbench_accounts |       1342955520
 2017-02-06 05:12:10.659026+01 | 1486354330.65903 | pgbench_tellers  |            49152
 2017-02-06 05:12:10.659026+01 | 1486354330.65903 | pgbench_history  |                0
 2017-02-06 05:12:10.659026+01 | 1486354330.65903 | pgbench_branches |             8192

 2017-02-06 05:12:11.744779+01 | 1486354331.74478 | pgbench_accounts |       1342955520
 2017-02-06 05:12:11.744779+01 | 1486354331.74478 | pgbench_tellers  |            49152
 2017-02-06 05:12:11.744779+01 | 1486354331.74478 | pgbench_history  |                0
 2017-02-06 05:12:11.744779+01 | 1486354331.74478 | pgbench_branches |             8192

 2017-02-06 05:12:12.837523+01 | 1486354332.83752 | pgbench_accounts |       1342955520
 2017-02-06 05:12:12.837523+01 | 1486354332.83752 | pgbench_tellers  |            49152
 2017-02-06 05:12:12.837523+01 | 1486354332.83752 | pgbench_history  |                0
 2017-02-06 05:12:12.837523+01 | 1486354332.83752 | pgbench_branches |             8192

 2017-02-06 05:12:13.922547+01 | 1486354333.92255 | pgbench_accounts |       1342955520
 2017-02-06 05:12:13.922547+01 | 1486354333.92255 | pgbench_tellers  |            49152
 2017-02-06 05:12:13.922547+01 | 1486354333.92255 | pgbench_history  |                0
 2017-02-06 05:12:13.922547+01 | 1486354333.92255 | pgbench_branches |             8192

 2017-02-06 05:12:15.015754+01 | 1486354335.01575 | pgbench_accounts |       1342955520
 2017-02-06 05:12:15.015754+01 | 1486354335.01575 | pgbench_tellers  |            49152
 2017-02-06 05:12:15.015754+01 | 1486354335.01575 | pgbench_history  |                0
 2017-02-06 05:12:15.015754+01 | 1486354335.01575 | pgbench_branches |             8192

 2017-02-06 05:12:16.100598+01 | 1486354336.1006 | pgbench_accounts |       1342955520
 2017-02-06 05:12:16.100598+01 | 1486354336.1006 | pgbench_tellers  |            49152
 2017-02-06 05:12:16.100598+01 | 1486354336.1006 | pgbench_history  |                0
 2017-02-06 05:12:16.100598+01 | 1486354336.1006 | pgbench_branches |             8192

 2017-02-06 05:12:17.184101+01 | 1486354337.1841 | pgbench_accounts |       1342955520
 2017-02-06 05:12:17.184101+01 | 1486354337.1841 | pgbench_tellers  |            49152
 2017-02-06 05:12:17.184101+01 | 1486354337.1841 | pgbench_history  |                0
 2017-02-06 05:12:17.184101+01 | 1486354337.1841 | pgbench_branches |             8192

