 2017-02-03 20:32:07.167877+01 | 1486150327.16788 | 3/1B0AE70                |           12913258096

 2017-02-03 20:32:08.281911+01 | 1486150328.28191 | 3/1B0AE70                |           12913258096

 2017-02-03 20:32:09.455156+01 | 1486150329.45516 | 3/1B0AE70                |           12913258096

 2017-02-03 20:32:10.656792+01 | 1486150330.65679 | 3/1B0AE70                |           12913258096

 2017-02-03 20:32:11.793976+01 | 1486150331.79398 | 3/1B0AE70                |           12913258096

 2017-02-03 20:32:13.011673+01 | 1486150333.01167 | 3/1B0AE70                |           12913258096

 2017-02-03 20:32:14.155263+01 | 1486150334.15526 | 3/1B0AE70                |           12913258096

 2017-02-03 20:32:15.325995+01 | 1486150335.32599 | 3/1B0AE70                |           12913258096

 2017-02-03 20:32:16.517853+01 | 1486150336.51785 | 3/1B0AE70                |           12913258096

 2017-02-03 20:32:17.685344+01 | 1486150337.68534 | 3/1B0AE70                |           12913258096

 2017-02-03 20:32:18.848432+01 | 1486150338.84843 | 3/1B0AE70                |           12913258096

 2017-02-03 20:32:20.027674+01 | 1486150340.02767 | 3/1B0AE70                |           12913258096

 2017-02-03 20:32:21.189732+01 | 1486150341.18973 | 3/1B0AE70                |           12913258096

 2017-02-03 20:32:22.369456+01 | 1486150342.36946 | 3/1B0AE70                |           12913258096

 2017-02-03 20:32:23.510927+01 | 1486150343.51093 | 3/1B0AE70                |           12913258096

 2017-02-03 20:32:24.668171+01 | 1486150344.66817 | 3/1B0AE70                |           12913258096

 2017-02-03 20:32:25.812674+01 | 1486150345.81267 | 3/1B0AE70                |           12913258096

 2017-02-03 20:32:27.002324+01 | 1486150347.00232 | 3/1B0AE70                |           12913258096

 2017-02-03 20:32:28.164556+01 | 1486150348.16456 | 3/1B0AE70                |           12913258096

 2017-02-03 20:32:29.313984+01 | 1486150349.31398 | 3/1B0AE70                |           12913258096

 2017-02-03 20:32:30.451079+01 | 1486150350.45108 | 3/1B0AE70                |           12913258096

 2017-02-03 20:32:31.629382+01 | 1486150351.62938 | 3/1B0AE70                |           12913258096

 2017-02-03 20:32:32.796335+01 | 1486150352.79633 | 3/1B0AE70                |           12913258096

 2017-02-03 20:32:33.959498+01 | 1486150353.9595 | 3/1B0AE70                |           12913258096

 2017-02-03 20:32:35.130955+01 | 1486150355.13095 | 3/1B0AE70                |           12913258096

 2017-02-03 20:32:36.299078+01 | 1486150356.29908 | 3/1B0AE70                |           12913258096

 2017-02-03 20:32:37.485212+01 | 1486150357.48521 | 3/1B0AE70                |           12913258096

 2017-02-03 20:32:38.68276+01 | 1486150358.68276 | 3/1B0AE70                |           12913258096

 2017-02-03 20:32:39.825412+01 | 1486150359.82541 | 3/1B0AE70                |           12913258096

 2017-02-03 20:32:40.977911+01 | 1486150360.97791 | 3/1B0AE70                |           12913258096

 2017-02-03 20:32:42.158849+01 | 1486150362.15885 | 3/1B0AE70                |           12913258096

 2017-02-03 20:32:43.338447+01 | 1486150363.33845 | 3/1B0AE70                |           12913258096

 2017-02-03 20:32:44.48185+01 | 1486150364.48185 | 3/1B0AE70                |           12913258096

 2017-02-03 20:32:45.675098+01 | 1486150365.6751 | 3/1B0AE70                |           12913258096

 2017-02-03 20:32:46.828918+01 | 1486150366.82892 | 3/1B0AE70                |           12913258096

 2017-02-03 20:32:48.036933+01 | 1486150368.03693 | 3/1B0AE70                |           12913258096

 2017-02-03 20:32:49.25711+01 | 1486150369.25711 | 3/1B0AE70                |           12913258096

 2017-02-03 20:32:50.483219+01 | 1486150370.48322 | 3/1B0AE70                |           12913258096

 2017-02-03 20:32:51.679473+01 | 1486150371.67947 | 3/1B0AE70                |           12913258096

 2017-02-03 20:32:52.822462+01 | 1486150372.82246 | 3/1B0AE70                |           12913258096

 2017-02-03 20:32:53.965463+01 | 1486150373.96546 | 3/1B0AE70                |           12913258096

 2017-02-03 20:32:55.139394+01 | 1486150375.13939 | 3/1B0AE70                |           12913258096

 2017-02-03 20:32:56.302599+01 | 1486150376.3026 | 3/1B0AE70                |           12913258096

 2017-02-03 20:32:57.524445+01 | 1486150377.52445 | 3/1B0AE70                |           12913258096

 2017-02-03 20:32:58.673115+01 | 1486150378.67312 | 3/1B0AE70                |           12913258096

 2017-02-03 20:32:59.851299+01 | 1486150379.8513 | 3/1B0AE70                |           12913258096

 2017-02-03 20:33:01.008107+01 | 1486150381.00811 | 3/1B0AE70                |           12913258096

 2017-02-03 20:33:02.210002+01 | 1486150382.21 | 3/1B0AE70                |           12913258096

 2017-02-03 20:33:03.417541+01 | 1486150383.41754 | 3/1B0AE70                |           12913258096

 2017-02-03 20:33:04.580982+01 | 1486150384.58098 | 3/1B0AE70                |           12913258096

 2017-02-03 20:33:05.72966+01 | 1486150385.72966 | 3/1B0AE70                |           12913258096

 2017-02-03 20:33:06.947021+01 | 1486150386.94702 | 3/1B0AE70                |           12913258096

 2017-02-03 20:33:08.155645+01 | 1486150388.15564 | 3/1B0AE70                |           12913258096

 2017-02-03 20:33:09.330749+01 | 1486150389.33075 | 3/1B0AE70                |           12913258096

 2017-02-03 20:33:10.527485+01 | 1486150390.52748 | 3/1B0AE70                |           12913258096

 2017-02-03 20:33:11.737173+01 | 1486150391.73717 | 3/1B0AE70                |           12913258096

 2017-02-03 20:33:12.875725+01 | 1486150392.87573 | 3/1B0AE70                |           12913258096

 2017-02-03 20:33:14.014235+01 | 1486150394.01424 | 3/1B0AE70                |           12913258096

 2017-02-03 20:33:15.166431+01 | 1486150395.16643 | 3/1B0AE70                |           12913258096

 2017-02-03 20:33:16.351014+01 | 1486150396.35101 | 3/1B0AE70                |           12913258096

 2017-02-03 20:33:17.532671+01 | 1486150397.53267 | 3/1B0AE70                |           12913258096

 2017-02-03 20:33:18.699107+01 | 1486150398.69911 | 3/1B0AE70                |           12913258096

 2017-02-03 20:33:19.834948+01 | 1486150399.83495 | 3/1B0AE70                |           12913258096

 2017-02-03 20:33:21.014296+01 | 1486150401.0143 | 3/1B0AE70                |           12913258096

 2017-02-03 20:33:22.175564+01 | 1486150402.17556 | 3/1B0AE70                |           12913258096

 2017-02-03 20:33:23.320781+01 | 1486150403.32078 | 3/1B0AE70                |           12913258096

 2017-02-03 20:33:24.484008+01 | 1486150404.48401 | 3/1B0AE70                |           12913258096

 2017-02-03 20:33:25.626224+01 | 1486150405.62622 | 3/1B0AE70                |           12913258096

 2017-02-03 20:33:26.831582+01 | 1486150406.83158 | 3/1B0AE70                |           12913258096

 2017-02-03 20:33:28.041831+01 | 1486150408.04183 | 3/1B0AE70                |           12913258096

 2017-02-03 20:33:29.232119+01 | 1486150409.23212 | 3/1B0AE70                |           12913258096

 2017-02-03 20:33:30.400083+01 | 1486150410.40008 | 3/1B0AE70                |           12913258096

 2017-02-03 20:33:31.547784+01 | 1486150411.54778 | 3/1B0AE70                |           12913258096

 2017-02-03 20:33:32.711033+01 | 1486150412.71103 | 3/1B0AE70                |           12913258096

 2017-02-03 20:33:33.912984+01 | 1486150413.91298 | 3/1B0AE70                |           12913258096

 2017-02-03 20:33:35.09279+01 | 1486150415.09279 | 3/1B0AE70                |           12913258096

 2017-02-03 20:33:36.2547+01 | 1486150416.2547 | 3/1B0AE70                |           12913258096

 2017-02-03 20:33:37.4982+01 | 1486150417.4982 | 3/1B0AE70                |           12913258096

 2017-02-03 20:33:38.665835+01 | 1486150418.66583 | 3/1B0AE70                |           12913258096

 2017-02-03 20:33:39.838101+01 | 1486150419.8381 | 3/1B0AE70                |           12913258096

 2017-02-03 20:33:40.986364+01 | 1486150420.98636 | 3/1B0AE70                |           12913258096

 2017-02-03 20:33:42.139363+01 | 1486150422.13936 | 3/1B0AE70                |           12913258096

 2017-02-03 20:33:43.346879+01 | 1486150423.34688 | 3/1B0AE70                |           12913258096

 2017-02-03 20:33:44.516868+01 | 1486150424.51687 | 3/1B0AE70                |           12913258096

 2017-02-03 20:33:45.65679+01 | 1486150425.65679 | 3/1B0AE70                |           12913258096

 2017-02-03 20:33:46.846401+01 | 1486150426.8464 | 3/1B0AE70                |           12913258096

 2017-02-03 20:33:48.041529+01 | 1486150428.04153 | 3/1B0AE70                |           12913258096

 2017-02-03 20:33:49.259077+01 | 1486150429.25908 | 3/1B0AE70                |           12913258096

 2017-02-03 20:33:50.434638+01 | 1486150430.43464 | 3/1B0AE70                |           12913258096

 2017-02-03 20:33:51.588356+01 | 1486150431.58836 | 3/1B0AE70                |           12913258096

 2017-02-03 20:33:52.738203+01 | 1486150432.7382 | 3/1B0AE70                |           12913258096

 2017-02-03 20:33:53.896979+01 | 1486150433.89698 | 3/1B0AE70                |           12913258096

 2017-02-03 20:33:55.059794+01 | 1486150435.05979 | 3/1B0AE70                |           12913258096

 2017-02-03 20:33:56.175237+01 | 1486150436.17524 | 3/1B0AE70                |           12913258096

 2017-02-03 20:33:57.339145+01 | 1486150437.33914 | 3/1B0AE70                |           12913258096

 2017-02-03 20:33:58.512509+01 | 1486150438.51251 | 3/1B0AE70                |           12913258096

 2017-02-03 20:33:59.686904+01 | 1486150439.6869 | 3/1B0AE70                |           12913258096

 2017-02-03 20:34:00.870983+01 | 1486150440.87098 | 3/1B0AE70                |           12913258096

 2017-02-03 20:34:02.100871+01 | 1486150442.10087 | 3/1B0AE70                |           12913258096

 2017-02-03 20:34:03.261761+01 | 1486150443.26176 | 3/1B0AE70                |           12913258096

 2017-02-03 20:34:04.433613+01 | 1486150444.43361 | 3/1B0AE70                |           12913258096

 2017-02-03 20:34:05.63926+01 | 1486150445.63926 | 3/1B0AE70                |           12913258096

 2017-02-03 20:34:06.815592+01 | 1486150446.81559 | 3/1B0AE70                |           12913258096

 2017-02-03 20:34:07.990096+01 | 1486150447.9901 | 3/1B0AE70                |           12913258096

 2017-02-03 20:34:09.178621+01 | 1486150449.17862 | 3/1B0AE70                |           12913258096

 2017-02-03 20:34:10.322203+01 | 1486150450.3222 | 3/1B0AE70                |           12913258096

 2017-02-03 20:34:11.499716+01 | 1486150451.49972 | 3/1B0AE70                |           12913258096

 2017-02-03 20:34:12.666818+01 | 1486150452.66682 | 3/1B0AE70                |           12913258096

 2017-02-03 20:34:13.851364+01 | 1486150453.85136 | 3/1B0AE70                |           12913258096

 2017-02-03 20:34:15.001213+01 | 1486150455.00121 | 3/1B0AE70                |           12913258096

 2017-02-03 20:34:16.169544+01 | 1486150456.16954 | 3/1B0AE70                |           12913258096

 2017-02-03 20:34:17.383117+01 | 1486150457.38312 | 3/1B0AE70                |           12913258096

 2017-02-03 20:34:18.587682+01 | 1486150458.58768 | 3/1B0AE70                |           12913258096

 2017-02-03 20:34:19.78101+01 | 1486150459.78101 | 3/1B0AE70                |           12913258096

 2017-02-03 20:34:20.947535+01 | 1486150460.94754 | 3/1B0AE70                |           12913258096

 2017-02-03 20:34:22.075606+01 | 1486150462.07561 | 3/1B0AE70                |           12913258096

 2017-02-03 20:34:23.235352+01 | 1486150463.23535 | 3/1B0AE70                |           12913258096

 2017-02-03 20:34:24.400766+01 | 1486150464.40077 | 3/1B0AE70                |           12913258096

 2017-02-03 20:34:25.569469+01 | 1486150465.56947 | 3/1B0AE70                |           12913258096

 2017-02-03 20:34:26.768415+01 | 1486150466.76841 | 3/1B0AE70                |           12913258096

 2017-02-03 20:34:27.969071+01 | 1486150467.96907 | 3/1B0AE70                |           12913258096

 2017-02-03 20:34:29.139897+01 | 1486150469.1399 | 3/1B0AE70                |           12913258096

 2017-02-03 20:34:30.320996+01 | 1486150470.321 | 3/1B0AE70                |           12913258096

 2017-02-03 20:34:31.505363+01 | 1486150471.50536 | 3/1B0AE70                |           12913258096

 2017-02-03 20:34:32.656088+01 | 1486150472.65609 | 3/1B0AE70                |           12913258096

 2017-02-03 20:34:33.824398+01 | 1486150473.8244 | 3/1B0AE70                |           12913258096

 2017-02-03 20:34:34.977067+01 | 1486150474.97707 | 3/1B0AE70                |           12913258096

 2017-02-03 20:34:36.154812+01 | 1486150476.15481 | 3/1B0AE70                |           12913258096

 2017-02-03 20:34:37.300786+01 | 1486150477.30079 | 3/1B0AE70                |           12913258096

 2017-02-03 20:34:38.440316+01 | 1486150478.44032 | 3/1B0AE70                |           12913258096

 2017-02-03 20:34:39.565689+01 | 1486150479.56569 | 3/1B0AE70                |           12913258096

 2017-02-03 20:34:40.698163+01 | 1486150480.69816 | 3/1B0AE70                |           12913258096

 2017-02-03 20:34:41.90825+01 | 1486150481.90825 | 3/1B0AE70                |           12913258096

 2017-02-03 20:34:43.052478+01 | 1486150483.05248 | 3/1B0AE70                |           12913258096

 2017-02-03 20:34:44.24358+01 | 1486150484.24358 | 3/1B0AE70                |           12913258096

 2017-02-03 20:34:45.385957+01 | 1486150485.38596 | 3/1B0AE70                |           12913258096

 2017-02-03 20:34:46.534602+01 | 1486150486.5346 | 3/1B0AE70                |           12913258096

 2017-02-03 20:34:47.700608+01 | 1486150487.70061 | 3/1B0AE70                |           12913258096

 2017-02-03 20:34:48.83708+01 | 1486150488.83708 | 3/1B0AE70                |           12913258096

 2017-02-03 20:34:50.016308+01 | 1486150490.01631 | 3/1B0AE70                |           12913258096

 2017-02-03 20:34:51.162254+01 | 1486150491.16225 | 3/1B0AE70                |           12913258096

 2017-02-03 20:34:52.335795+01 | 1486150492.33579 | 3/1B0AE70                |           12913258096

 2017-02-03 20:34:53.490598+01 | 1486150493.4906 | 3/1B0AE70                |           12913258096

 2017-02-03 20:34:54.612897+01 | 1486150494.6129 | 3/1B0AE70                |           12913258096

 2017-02-03 20:34:55.745085+01 | 1486150495.74509 | 3/1B0AE70                |           12913258096

 2017-02-03 20:34:56.886908+01 | 1486150496.88691 | 3/1B0AE70                |           12913258096

 2017-02-03 20:34:58.051773+01 | 1486150498.05177 | 3/1B0AE70                |           12913258096

 2017-02-03 20:34:59.210131+01 | 1486150499.21013 | 3/1B0AE70                |           12913258096

 2017-02-03 20:35:00.357374+01 | 1486150500.35737 | 3/1B0AE70                |           12913258096

 2017-02-03 20:35:01.534091+01 | 1486150501.53409 | 3/1B0AE70                |           12913258096

 2017-02-03 20:35:02.729055+01 | 1486150502.72905 | 3/1B0AE70                |           12913258096

 2017-02-03 20:35:03.918624+01 | 1486150503.91862 | 3/1B0AE70                |           12913258096

 2017-02-03 20:35:05.087146+01 | 1486150505.08715 | 3/1B0AE70                |           12913258096

 2017-02-03 20:35:06.245152+01 | 1486150506.24515 | 3/1B0AE70                |           12913258096

 2017-02-03 20:35:07.415072+01 | 1486150507.41507 | 3/1B0AE70                |           12913258096

 2017-02-03 20:35:08.564978+01 | 1486150508.56498 | 3/1B0AE70                |           12913258096

 2017-02-03 20:35:09.726725+01 | 1486150509.72673 | 3/1B0AE70                |           12913258096

 2017-02-03 20:35:10.899438+01 | 1486150510.89944 | 3/1B0AE70                |           12913258096

 2017-02-03 20:35:12.070293+01 | 1486150512.07029 | 3/1B0AE70                |           12913258096

 2017-02-03 20:35:13.25909+01 | 1486150513.25909 | 3/1B0AE70                |           12913258096

 2017-02-03 20:35:14.460166+01 | 1486150514.46017 | 3/1B0AE70                |           12913258096

 2017-02-03 20:35:15.604036+01 | 1486150515.60404 | 3/1B0AE70                |           12913258096

 2017-02-03 20:35:16.730349+01 | 1486150516.73035 | 3/1B0AE70                |           12913258096

 2017-02-03 20:35:17.868443+01 | 1486150517.86844 | 3/1B0AE70                |           12913258096

 2017-02-03 20:35:19.001324+01 | 1486150519.00132 | 3/1B0AE70                |           12913258096

 2017-02-03 20:35:20.205579+01 | 1486150520.20558 | 3/1B0AE70                |           12913258096

 2017-02-03 20:35:21.416943+01 | 1486150521.41694 | 3/1B0AE70                |           12913258096

 2017-02-03 20:35:22.607904+01 | 1486150522.6079 | 3/1B0AE70                |           12913258096

 2017-02-03 20:35:23.753997+01 | 1486150523.754 | 3/1B0AE70                |           12913258096

 2017-02-03 20:35:24.877186+01 | 1486150524.87719 | 3/1B0AE70                |           12913258096

 2017-02-03 20:35:26.051806+01 | 1486150526.05181 | 3/1B0AE70                |           12913258096

 2017-02-03 20:35:27.204154+01 | 1486150527.20415 | 3/1B0AE70                |           12913258096

 2017-02-03 20:35:28.377372+01 | 1486150528.37737 | 3/1B0AE70                |           12913258096

 2017-02-03 20:35:29.532542+01 | 1486150529.53254 | 3/1B0AE70                |           12913258096

 2017-02-03 20:35:30.71346+01 | 1486150530.71346 | 3/1B0AE70                |           12913258096

 2017-02-03 20:35:31.928627+01 | 1486150531.92863 | 3/1B0AE70                |           12913258096

 2017-02-03 20:35:33.116334+01 | 1486150533.11633 | 3/1B0AE70                |           12913258096

 2017-02-03 20:35:34.271767+01 | 1486150534.27177 | 3/1B0AE70                |           12913258096

 2017-02-03 20:35:35.434502+01 | 1486150535.4345 | 3/1B0AE70                |           12913258096

 2017-02-03 20:35:36.624895+01 | 1486150536.6249 | 3/1B0AE70                |           12913258096

 2017-02-03 20:35:37.785928+01 | 1486150537.78593 | 3/1B0AE70                |           12913258096

 2017-02-03 20:35:38.944649+01 | 1486150538.94465 | 3/1B0AE70                |           12913258096

 2017-02-03 20:35:40.12916+01 | 1486150540.12916 | 3/1B0AE70                |           12913258096

 2017-02-03 20:35:41.269477+01 | 1486150541.26948 | 3/1B0AE70                |           12913258096

 2017-02-03 20:35:42.439627+01 | 1486150542.43963 | 3/1B0AE70                |           12913258096

 2017-02-03 20:35:43.586275+01 | 1486150543.58628 | 3/1B0AE70                |           12913258096

 2017-02-03 20:35:44.7518+01 | 1486150544.7518 | 3/1B0AE70                |           12913258096

 2017-02-03 20:35:45.926173+01 | 1486150545.92617 | 3/1B0AE70                |           12913258096

 2017-02-03 20:35:47.105465+01 | 1486150547.10546 | 3/1B0AE70                |           12913258096

 2017-02-03 20:35:48.296597+01 | 1486150548.2966 | 3/1B0AE70                |           12913258096

 2017-02-03 20:35:49.474858+01 | 1486150549.47486 | 3/1B0AE70                |           12913258096

 2017-02-03 20:35:50.628114+01 | 1486150550.62811 | 3/1B0AE70                |           12913258096

 2017-02-03 20:35:51.799365+01 | 1486150551.79937 | 3/1B0AE70                |           12913258096

 2017-02-03 20:35:52.940818+01 | 1486150552.94082 | 3/1B0AE70                |           12913258096

 2017-02-03 20:35:54.096274+01 | 1486150554.09627 | 3/1B0AE70                |           12913258096

 2017-02-03 20:35:55.259226+01 | 1486150555.25923 | 3/1B0AE70                |           12913258096

 2017-02-03 20:35:56.433144+01 | 1486150556.43314 | 3/1B0AE70                |           12913258096

 2017-02-03 20:35:57.587374+01 | 1486150557.58737 | 3/1B0AE70                |           12913258096

 2017-02-03 20:35:58.696169+01 | 1486150558.69617 | 3/1B0AE70                |           12913258096

 2017-02-03 20:35:59.861276+01 | 1486150559.86128 | 3/1B0AE70                |           12913258096

 2017-02-03 20:36:01.05135+01 | 1486150561.05135 | 3/1B0AE70                |           12913258096

 2017-02-03 20:36:02.228801+01 | 1486150562.2288 | 3/1B0AE70                |           12913258096

 2017-02-03 20:36:03.388091+01 | 1486150563.38809 | 3/1B0AE70                |           12913258096

 2017-02-03 20:36:04.572075+01 | 1486150564.57207 | 3/1B0AE70                |           12913258096

 2017-02-03 20:36:05.745155+01 | 1486150565.74516 | 3/1B0AE70                |           12913258096

 2017-02-03 20:36:06.913333+01 | 1486150566.91333 | 3/1B0AE70                |           12913258096

 2017-02-03 20:36:08.100511+01 | 1486150568.10051 | 3/1B0AE70                |           12913258096

 2017-02-03 20:36:09.263378+01 | 1486150569.26338 | 3/1B0AE70                |           12913258096

 2017-02-03 20:36:10.402704+01 | 1486150570.4027 | 3/1B0AE70                |           12913258096

 2017-02-03 20:36:11.594213+01 | 1486150571.59421 | 3/1B0AE70                |           12913258096

 2017-02-03 20:36:12.743242+01 | 1486150572.74324 | 3/1B0AE70                |           12913258096

 2017-02-03 20:36:13.92227+01 | 1486150573.92227 | 3/1B0AE70                |           12913258096

 2017-02-03 20:36:15.10518+01 | 1486150575.10518 | 3/1B0AE70                |           12913258096

 2017-02-03 20:36:16.307935+01 | 1486150576.30793 | 3/1B0AE70                |           12913258096

 2017-02-03 20:36:17.454455+01 | 1486150577.45445 | 3/1B0AE70                |           12913258096

 2017-02-03 20:36:18.614633+01 | 1486150578.61463 | 3/1B0AE70                |           12913258096

 2017-02-03 20:36:19.824634+01 | 1486150579.82463 | 3/1B0AE70                |           12913258096

 2017-02-03 20:36:21.015962+01 | 1486150581.01596 | 3/1B0AE70                |           12913258096

 2017-02-03 20:36:22.221658+01 | 1486150582.22166 | 3/1B0AE70                |           12913258096

 2017-02-03 20:36:23.427778+01 | 1486150583.42778 | 3/1B0AE70                |           12913258096

 2017-02-03 20:36:24.603357+01 | 1486150584.60336 | 3/1B0AE70                |           12913258096

 2017-02-03 20:36:25.760782+01 | 1486150585.76078 | 3/1B0AE70                |           12913258096

 2017-02-03 20:36:26.905231+01 | 1486150586.90523 | 3/1B0AE70                |           12913258096

 2017-02-03 20:36:28.112929+01 | 1486150588.11293 | 3/1B0AE70                |           12913258096

 2017-02-03 20:36:29.312108+01 | 1486150589.31211 | 3/1B0AE70                |           12913258096

 2017-02-03 20:36:30.461194+01 | 1486150590.46119 | 3/1B0AE70                |           12913258096

 2017-02-03 20:36:31.650834+01 | 1486150591.65083 | 3/1B0AE70                |           12913258096

 2017-02-03 20:36:32.792023+01 | 1486150592.79202 | 3/1B0AE70                |           12913258096

 2017-02-03 20:36:33.973921+01 | 1486150593.97392 | 3/1B0AE70                |           12913258096

 2017-02-03 20:36:35.120365+01 | 1486150595.12036 | 3/1B0AE70                |           12913258096

 2017-02-03 20:36:36.298917+01 | 1486150596.29892 | 3/1B0AE70                |           12913258096

 2017-02-03 20:36:37.498516+01 | 1486150597.49852 | 3/1B0AE70                |           12913258096

 2017-02-03 20:36:38.635922+01 | 1486150598.63592 | 3/1B0AE70                |           12913258096

 2017-02-03 20:36:39.77481+01 | 1486150599.77481 | 3/1B0AE70                |           12913258096

 2017-02-03 20:36:40.935766+01 | 1486150600.93577 | 3/1B0AE70                |           12913258096

 2017-02-03 20:36:42.077725+01 | 1486150602.07772 | 3/1B0AE70                |           12913258096

 2017-02-03 20:36:43.234103+01 | 1486150603.2341 | 3/1B0AE70                |           12913258096

 2017-02-03 20:36:44.429276+01 | 1486150604.42928 | 3/1B0AE70                |           12913258096

 2017-02-03 20:36:45.598499+01 | 1486150605.5985 | 3/1B0AE70                |           12913258096

 2017-02-03 20:36:46.759251+01 | 1486150606.75925 | 3/1B0AE70                |           12913258096

 2017-02-03 20:36:47.933685+01 | 1486150607.93369 | 3/1B0AE70                |           12913258096

 2017-02-03 20:36:49.112126+01 | 1486150609.11213 | 3/1B0AE70                |           12913258096

 2017-02-03 20:36:50.307834+01 | 1486150610.30783 | 3/1B0AE70                |           12913258096

 2017-02-03 20:36:51.500452+01 | 1486150611.50045 | 3/1B0AE70                |           12913258096

 2017-02-03 20:36:52.732675+01 | 1486150612.73268 | 3/1B0AE70                |           12913258096

 2017-02-03 20:36:53.914213+01 | 1486150613.91421 | 3/1B0AE70                |           12913258096

 2017-02-03 20:36:55.109747+01 | 1486150615.10975 | 3/1B0AE70                |           12913258096

 2017-02-03 20:36:56.273993+01 | 1486150616.27399 | 3/1B0AE70                |           12913258096

 2017-02-03 20:36:57.442343+01 | 1486150617.44234 | 3/1B0AE70                |           12913258096

 2017-02-03 20:36:58.589891+01 | 1486150618.58989 | 3/1B0AE70                |           12913258096

 2017-02-03 20:36:59.74372+01 | 1486150619.74372 | 3/1B0AE70                |           12913258096

 2017-02-03 20:37:00.90969+01 | 1486150620.90969 | 3/1B0AE70                |           12913258096

 2017-02-03 20:37:02.148032+01 | 1486150622.14803 | 3/1B0AE70                |           12913258096

 2017-02-03 20:37:03.306189+01 | 1486150623.30619 | 3/1B0AE70                |           12913258096

 2017-02-03 20:37:04.492416+01 | 1486150624.49242 | 3/1B0AE70                |           12913258096

 2017-02-03 20:37:05.673272+01 | 1486150625.67327 | 3/1B0AE70                |           12913258096

 2017-02-03 20:37:06.897165+01 | 1486150626.89717 | 3/1B0AE70                |           12913258096

