 2017-02-06 06:22:20.949316+01 | 1486358540.94932 | pgbench_branches_pkey |            16384
 2017-02-06 06:22:20.949316+01 | 1486358540.94932 | pgbench_tellers_pkey  |            40960
 2017-02-06 06:22:20.949316+01 | 1486358540.94932 | pgbench_accounts_pkey |        224641024

 2017-02-06 06:22:22.040307+01 | 1486358542.04031 | pgbench_branches_pkey |            16384
 2017-02-06 06:22:22.040307+01 | 1486358542.04031 | pgbench_tellers_pkey  |            40960
 2017-02-06 06:22:22.040307+01 | 1486358542.04031 | pgbench_accounts_pkey |        224641024

 2017-02-06 06:22:23.138609+01 | 1486358543.13861 | pgbench_branches_pkey |            16384
 2017-02-06 06:22:23.138609+01 | 1486358543.13861 | pgbench_tellers_pkey  |            40960
 2017-02-06 06:22:23.138609+01 | 1486358543.13861 | pgbench_accounts_pkey |        224641024

 2017-02-06 06:22:24.245441+01 | 1486358544.24544 | pgbench_branches_pkey |            16384
 2017-02-06 06:22:24.245441+01 | 1486358544.24544 | pgbench_tellers_pkey  |            40960
 2017-02-06 06:22:24.245441+01 | 1486358544.24544 | pgbench_accounts_pkey |        224641024

 2017-02-06 06:22:25.365535+01 | 1486358545.36554 | pgbench_branches_pkey |            16384
 2017-02-06 06:22:25.365535+01 | 1486358545.36554 | pgbench_tellers_pkey  |            40960
 2017-02-06 06:22:25.365535+01 | 1486358545.36554 | pgbench_accounts_pkey |        224641024

 2017-02-06 06:22:26.468889+01 | 1486358546.46889 | pgbench_branches_pkey |            16384
 2017-02-06 06:22:26.468889+01 | 1486358546.46889 | pgbench_tellers_pkey  |            40960
 2017-02-06 06:22:26.468889+01 | 1486358546.46889 | pgbench_accounts_pkey |        224641024

 2017-02-06 06:22:27.571169+01 | 1486358547.57117 | pgbench_branches_pkey |            16384
 2017-02-06 06:22:27.571169+01 | 1486358547.57117 | pgbench_tellers_pkey  |            40960
 2017-02-06 06:22:27.571169+01 | 1486358547.57117 | pgbench_accounts_pkey |        224641024

 2017-02-06 06:22:28.673505+01 | 1486358548.67351 | pgbench_branches_pkey |            16384
 2017-02-06 06:22:28.673505+01 | 1486358548.67351 | pgbench_tellers_pkey  |            40960
 2017-02-06 06:22:28.673505+01 | 1486358548.67351 | pgbench_accounts_pkey |        224641024

 2017-02-06 06:22:29.780078+01 | 1486358549.78008 | pgbench_branches_pkey |            16384
 2017-02-06 06:22:29.780078+01 | 1486358549.78008 | pgbench_tellers_pkey  |            40960
 2017-02-06 06:22:29.780078+01 | 1486358549.78008 | pgbench_accounts_pkey |        224641024

 2017-02-06 06:22:30.875502+01 | 1486358550.8755 | pgbench_branches_pkey |            16384
 2017-02-06 06:22:30.875502+01 | 1486358550.8755 | pgbench_tellers_pkey  |            40960
 2017-02-06 06:22:30.875502+01 | 1486358550.8755 | pgbench_accounts_pkey |        224641024

 2017-02-06 06:22:31.974907+01 | 1486358551.97491 | pgbench_branches_pkey |            16384
 2017-02-06 06:22:31.974907+01 | 1486358551.97491 | pgbench_tellers_pkey  |            40960
 2017-02-06 06:22:31.974907+01 | 1486358551.97491 | pgbench_accounts_pkey |        224641024

 2017-02-06 06:22:33.066802+01 | 1486358553.0668 | pgbench_branches_pkey |            16384
 2017-02-06 06:22:33.066802+01 | 1486358553.0668 | pgbench_tellers_pkey  |            40960
 2017-02-06 06:22:33.066802+01 | 1486358553.0668 | pgbench_accounts_pkey |        224641024

 2017-02-06 06:22:34.164906+01 | 1486358554.16491 | pgbench_branches_pkey |            16384
 2017-02-06 06:22:34.164906+01 | 1486358554.16491 | pgbench_tellers_pkey  |            40960
 2017-02-06 06:22:34.164906+01 | 1486358554.16491 | pgbench_accounts_pkey |        224641024

 2017-02-06 06:22:35.272207+01 | 1486358555.27221 | pgbench_branches_pkey |            16384
 2017-02-06 06:22:35.272207+01 | 1486358555.27221 | pgbench_tellers_pkey  |            40960
 2017-02-06 06:22:35.272207+01 | 1486358555.27221 | pgbench_accounts_pkey |        224641024

 2017-02-06 06:22:36.382922+01 | 1486358556.38292 | pgbench_branches_pkey |            16384
 2017-02-06 06:22:36.382922+01 | 1486358556.38292 | pgbench_tellers_pkey  |            40960
 2017-02-06 06:22:36.382922+01 | 1486358556.38292 | pgbench_accounts_pkey |        224641024

 2017-02-06 06:22:37.499639+01 | 1486358557.49964 | pgbench_branches_pkey |            16384
 2017-02-06 06:22:37.499639+01 | 1486358557.49964 | pgbench_tellers_pkey  |            40960
 2017-02-06 06:22:37.499639+01 | 1486358557.49964 | pgbench_accounts_pkey |        224641024

 2017-02-06 06:22:38.586631+01 | 1486358558.58663 | pgbench_branches_pkey |            16384
 2017-02-06 06:22:38.586631+01 | 1486358558.58663 | pgbench_tellers_pkey  |            40960
 2017-02-06 06:22:38.586631+01 | 1486358558.58663 | pgbench_accounts_pkey |        224641024

 2017-02-06 06:22:39.680174+01 | 1486358559.68017 | pgbench_branches_pkey |            16384
 2017-02-06 06:22:39.680174+01 | 1486358559.68017 | pgbench_tellers_pkey  |            40960
 2017-02-06 06:22:39.680174+01 | 1486358559.68017 | pgbench_accounts_pkey |        224641024

 2017-02-06 06:22:40.774901+01 | 1486358560.7749 | pgbench_branches_pkey |            16384
 2017-02-06 06:22:40.774901+01 | 1486358560.7749 | pgbench_tellers_pkey  |            40960
 2017-02-06 06:22:40.774901+01 | 1486358560.7749 | pgbench_accounts_pkey |        224641024

 2017-02-06 06:22:41.865692+01 | 1486358561.86569 | pgbench_branches_pkey |            16384
 2017-02-06 06:22:41.865692+01 | 1486358561.86569 | pgbench_tellers_pkey  |            40960
 2017-02-06 06:22:41.865692+01 | 1486358561.86569 | pgbench_accounts_pkey |        224641024

 2017-02-06 06:22:42.957985+01 | 1486358562.95798 | pgbench_branches_pkey |            16384
 2017-02-06 06:22:42.957985+01 | 1486358562.95798 | pgbench_tellers_pkey  |            40960
 2017-02-06 06:22:42.957985+01 | 1486358562.95798 | pgbench_accounts_pkey |        224641024

 2017-02-06 06:22:44.064772+01 | 1486358564.06477 | pgbench_branches_pkey |            16384
 2017-02-06 06:22:44.064772+01 | 1486358564.06477 | pgbench_tellers_pkey  |            40960
 2017-02-06 06:22:44.064772+01 | 1486358564.06477 | pgbench_accounts_pkey |        224641024

 2017-02-06 06:22:45.19114+01 | 1486358565.19114 | pgbench_branches_pkey |            16384
 2017-02-06 06:22:45.19114+01 | 1486358565.19114 | pgbench_tellers_pkey  |            40960
 2017-02-06 06:22:45.19114+01 | 1486358565.19114 | pgbench_accounts_pkey |        224641024

 2017-02-06 06:22:46.292278+01 | 1486358566.29228 | pgbench_branches_pkey |            16384
 2017-02-06 06:22:46.292278+01 | 1486358566.29228 | pgbench_tellers_pkey  |            40960
 2017-02-06 06:22:46.292278+01 | 1486358566.29228 | pgbench_accounts_pkey |        224641024

 2017-02-06 06:22:47.399145+01 | 1486358567.39914 | pgbench_branches_pkey |            16384
 2017-02-06 06:22:47.399145+01 | 1486358567.39914 | pgbench_tellers_pkey  |            40960
 2017-02-06 06:22:47.399145+01 | 1486358567.39914 | pgbench_accounts_pkey |        224641024

 2017-02-06 06:22:48.521912+01 | 1486358568.52191 | pgbench_branches_pkey |            16384
 2017-02-06 06:22:48.521912+01 | 1486358568.52191 | pgbench_tellers_pkey  |            40960
 2017-02-06 06:22:48.521912+01 | 1486358568.52191 | pgbench_accounts_pkey |        224641024

 2017-02-06 06:22:49.628275+01 | 1486358569.62827 | pgbench_branches_pkey |            16384
 2017-02-06 06:22:49.628275+01 | 1486358569.62827 | pgbench_tellers_pkey  |            40960
 2017-02-06 06:22:49.628275+01 | 1486358569.62827 | pgbench_accounts_pkey |        224641024

 2017-02-06 06:22:50.71621+01 | 1486358570.71621 | pgbench_branches_pkey |            16384
 2017-02-06 06:22:50.71621+01 | 1486358570.71621 | pgbench_tellers_pkey  |            40960
 2017-02-06 06:22:50.71621+01 | 1486358570.71621 | pgbench_accounts_pkey |        224641024

 2017-02-06 06:22:51.803531+01 | 1486358571.80353 | pgbench_branches_pkey |            16384
 2017-02-06 06:22:51.803531+01 | 1486358571.80353 | pgbench_tellers_pkey  |            40960
 2017-02-06 06:22:51.803531+01 | 1486358571.80353 | pgbench_accounts_pkey |        224641024

 2017-02-06 06:22:52.89264+01 | 1486358572.89264 | pgbench_branches_pkey |            16384
 2017-02-06 06:22:52.89264+01 | 1486358572.89264 | pgbench_tellers_pkey  |            40960
 2017-02-06 06:22:52.89264+01 | 1486358572.89264 | pgbench_accounts_pkey |        224641024

 2017-02-06 06:22:53.983848+01 | 1486358573.98385 | pgbench_branches_pkey |            16384
 2017-02-06 06:22:53.983848+01 | 1486358573.98385 | pgbench_tellers_pkey  |            40960
 2017-02-06 06:22:53.983848+01 | 1486358573.98385 | pgbench_accounts_pkey |        224641024

 2017-02-06 06:22:55.074122+01 | 1486358575.07412 | pgbench_branches_pkey |            16384
 2017-02-06 06:22:55.074122+01 | 1486358575.07412 | pgbench_tellers_pkey  |            40960
 2017-02-06 06:22:55.074122+01 | 1486358575.07412 | pgbench_accounts_pkey |        224641024

 2017-02-06 06:22:56.177901+01 | 1486358576.1779 | pgbench_branches_pkey |            16384
 2017-02-06 06:22:56.177901+01 | 1486358576.1779 | pgbench_tellers_pkey  |            40960
 2017-02-06 06:22:56.177901+01 | 1486358576.1779 | pgbench_accounts_pkey |        224641024

 2017-02-06 06:22:57.266356+01 | 1486358577.26636 | pgbench_branches_pkey |            16384
 2017-02-06 06:22:57.266356+01 | 1486358577.26636 | pgbench_tellers_pkey  |            40960
 2017-02-06 06:22:57.266356+01 | 1486358577.26636 | pgbench_accounts_pkey |        224641024

 2017-02-06 06:22:58.364192+01 | 1486358578.36419 | pgbench_branches_pkey |            16384
 2017-02-06 06:22:58.364192+01 | 1486358578.36419 | pgbench_tellers_pkey  |            40960
 2017-02-06 06:22:58.364192+01 | 1486358578.36419 | pgbench_accounts_pkey |        224641024

 2017-02-06 06:22:59.481655+01 | 1486358579.48165 | pgbench_branches_pkey |            16384
 2017-02-06 06:22:59.481655+01 | 1486358579.48165 | pgbench_tellers_pkey  |            40960
 2017-02-06 06:22:59.481655+01 | 1486358579.48165 | pgbench_accounts_pkey |        224641024

 2017-02-06 06:23:00.588866+01 | 1486358580.58887 | pgbench_branches_pkey |            16384
 2017-02-06 06:23:00.588866+01 | 1486358580.58887 | pgbench_tellers_pkey  |            40960
 2017-02-06 06:23:00.588866+01 | 1486358580.58887 | pgbench_accounts_pkey |        224641024

 2017-02-06 06:23:01.70561+01 | 1486358581.70561 | pgbench_branches_pkey |            16384
 2017-02-06 06:23:01.70561+01 | 1486358581.70561 | pgbench_tellers_pkey  |            40960
 2017-02-06 06:23:01.70561+01 | 1486358581.70561 | pgbench_accounts_pkey |        224641024

 2017-02-06 06:23:02.80091+01 | 1486358582.80091 | pgbench_branches_pkey |            16384
 2017-02-06 06:23:02.80091+01 | 1486358582.80091 | pgbench_tellers_pkey  |            40960
 2017-02-06 06:23:02.80091+01 | 1486358582.80091 | pgbench_accounts_pkey |        224641024

 2017-02-06 06:23:03.894163+01 | 1486358583.89416 | pgbench_branches_pkey |            16384
 2017-02-06 06:23:03.894163+01 | 1486358583.89416 | pgbench_tellers_pkey  |            40960
 2017-02-06 06:23:03.894163+01 | 1486358583.89416 | pgbench_accounts_pkey |        224641024

 2017-02-06 06:23:04.978138+01 | 1486358584.97814 | pgbench_branches_pkey |            16384
 2017-02-06 06:23:04.978138+01 | 1486358584.97814 | pgbench_tellers_pkey  |            40960
 2017-02-06 06:23:04.978138+01 | 1486358584.97814 | pgbench_accounts_pkey |        224641024

 2017-02-06 06:23:06.076679+01 | 1486358586.07668 | pgbench_branches_pkey |            16384
 2017-02-06 06:23:06.076679+01 | 1486358586.07668 | pgbench_tellers_pkey  |            40960
 2017-02-06 06:23:06.076679+01 | 1486358586.07668 | pgbench_accounts_pkey |        224641024

 2017-02-06 06:23:07.181962+01 | 1486358587.18196 | pgbench_branches_pkey |            16384
 2017-02-06 06:23:07.181962+01 | 1486358587.18196 | pgbench_tellers_pkey  |            40960
 2017-02-06 06:23:07.181962+01 | 1486358587.18196 | pgbench_accounts_pkey |        224641024

 2017-02-06 06:23:08.280581+01 | 1486358588.28058 | pgbench_branches_pkey |            16384
 2017-02-06 06:23:08.280581+01 | 1486358588.28058 | pgbench_tellers_pkey  |            40960
 2017-02-06 06:23:08.280581+01 | 1486358588.28058 | pgbench_accounts_pkey |        224641024

 2017-02-06 06:23:09.367018+01 | 1486358589.36702 | pgbench_branches_pkey |            16384
 2017-02-06 06:23:09.367018+01 | 1486358589.36702 | pgbench_tellers_pkey  |            40960
 2017-02-06 06:23:09.367018+01 | 1486358589.36702 | pgbench_accounts_pkey |        224641024

 2017-02-06 06:23:10.46498+01 | 1486358590.46498 | pgbench_branches_pkey |            16384
 2017-02-06 06:23:10.46498+01 | 1486358590.46498 | pgbench_tellers_pkey  |            40960
 2017-02-06 06:23:10.46498+01 | 1486358590.46498 | pgbench_accounts_pkey |        224641024

 2017-02-06 06:23:11.566091+01 | 1486358591.56609 | pgbench_branches_pkey |            16384
 2017-02-06 06:23:11.566091+01 | 1486358591.56609 | pgbench_tellers_pkey  |            40960
 2017-02-06 06:23:11.566091+01 | 1486358591.56609 | pgbench_accounts_pkey |        224641024

 2017-02-06 06:23:12.672865+01 | 1486358592.67286 | pgbench_branches_pkey |            16384
 2017-02-06 06:23:12.672865+01 | 1486358592.67286 | pgbench_tellers_pkey  |            40960
 2017-02-06 06:23:12.672865+01 | 1486358592.67286 | pgbench_accounts_pkey |        224641024

 2017-02-06 06:23:13.761972+01 | 1486358593.76197 | pgbench_branches_pkey |            16384
 2017-02-06 06:23:13.761972+01 | 1486358593.76197 | pgbench_tellers_pkey  |            40960
 2017-02-06 06:23:13.761972+01 | 1486358593.76197 | pgbench_accounts_pkey |        224641024

 2017-02-06 06:23:14.842209+01 | 1486358594.84221 | pgbench_branches_pkey |            16384
 2017-02-06 06:23:14.842209+01 | 1486358594.84221 | pgbench_tellers_pkey  |            40960
 2017-02-06 06:23:14.842209+01 | 1486358594.84221 | pgbench_accounts_pkey |        224641024

 2017-02-06 06:23:15.929076+01 | 1486358595.92908 | pgbench_branches_pkey |            16384
 2017-02-06 06:23:15.929076+01 | 1486358595.92908 | pgbench_tellers_pkey  |            40960
 2017-02-06 06:23:15.929076+01 | 1486358595.92908 | pgbench_accounts_pkey |        224641024

 2017-02-06 06:23:17.012369+01 | 1486358597.01237 | pgbench_branches_pkey |            16384
 2017-02-06 06:23:17.012369+01 | 1486358597.01237 | pgbench_tellers_pkey  |            40960
 2017-02-06 06:23:17.012369+01 | 1486358597.01237 | pgbench_accounts_pkey |        224641024

 2017-02-06 06:23:18.104822+01 | 1486358598.10482 | pgbench_branches_pkey |            16384
 2017-02-06 06:23:18.104822+01 | 1486358598.10482 | pgbench_tellers_pkey  |            40960
 2017-02-06 06:23:18.104822+01 | 1486358598.10482 | pgbench_accounts_pkey |        224641024

 2017-02-06 06:23:19.202035+01 | 1486358599.20203 | pgbench_branches_pkey |            16384
 2017-02-06 06:23:19.202035+01 | 1486358599.20203 | pgbench_tellers_pkey  |            40960
 2017-02-06 06:23:19.202035+01 | 1486358599.20203 | pgbench_accounts_pkey |        224641024

 2017-02-06 06:23:20.29201+01 | 1486358600.29201 | pgbench_branches_pkey |            16384
 2017-02-06 06:23:20.29201+01 | 1486358600.29201 | pgbench_tellers_pkey  |            40960
 2017-02-06 06:23:20.29201+01 | 1486358600.29201 | pgbench_accounts_pkey |        224641024

 2017-02-06 06:23:21.388087+01 | 1486358601.38809 | pgbench_branches_pkey |            16384
 2017-02-06 06:23:21.388087+01 | 1486358601.38809 | pgbench_tellers_pkey  |            40960
 2017-02-06 06:23:21.388087+01 | 1486358601.38809 | pgbench_accounts_pkey |        224641024

 2017-02-06 06:23:22.518048+01 | 1486358602.51805 | pgbench_branches_pkey |            16384
 2017-02-06 06:23:22.518048+01 | 1486358602.51805 | pgbench_tellers_pkey  |            40960
 2017-02-06 06:23:22.518048+01 | 1486358602.51805 | pgbench_accounts_pkey |        224641024

 2017-02-06 06:23:23.632762+01 | 1486358603.63276 | pgbench_branches_pkey |            16384
 2017-02-06 06:23:23.632762+01 | 1486358603.63276 | pgbench_tellers_pkey  |            40960
 2017-02-06 06:23:23.632762+01 | 1486358603.63276 | pgbench_accounts_pkey |        224641024

 2017-02-06 06:23:24.740602+01 | 1486358604.7406 | pgbench_branches_pkey |            16384
 2017-02-06 06:23:24.740602+01 | 1486358604.7406 | pgbench_tellers_pkey  |            40960
 2017-02-06 06:23:24.740602+01 | 1486358604.7406 | pgbench_accounts_pkey |        224641024

 2017-02-06 06:23:25.842653+01 | 1486358605.84265 | pgbench_branches_pkey |            16384
 2017-02-06 06:23:25.842653+01 | 1486358605.84265 | pgbench_tellers_pkey  |            40960
 2017-02-06 06:23:25.842653+01 | 1486358605.84265 | pgbench_accounts_pkey |        224641024

 2017-02-06 06:23:26.946493+01 | 1486358606.94649 | pgbench_branches_pkey |            16384
 2017-02-06 06:23:26.946493+01 | 1486358606.94649 | pgbench_tellers_pkey  |            40960
 2017-02-06 06:23:26.946493+01 | 1486358606.94649 | pgbench_accounts_pkey |        224641024

 2017-02-06 06:23:28.04837+01 | 1486358608.04837 | pgbench_branches_pkey |            16384
 2017-02-06 06:23:28.04837+01 | 1486358608.04837 | pgbench_tellers_pkey  |            40960
 2017-02-06 06:23:28.04837+01 | 1486358608.04837 | pgbench_accounts_pkey |        224641024

 2017-02-06 06:23:29.146705+01 | 1486358609.1467 | pgbench_branches_pkey |            16384
 2017-02-06 06:23:29.146705+01 | 1486358609.1467 | pgbench_tellers_pkey  |            40960
 2017-02-06 06:23:29.146705+01 | 1486358609.1467 | pgbench_accounts_pkey |        224641024

 2017-02-06 06:23:30.232957+01 | 1486358610.23296 | pgbench_branches_pkey |            16384
 2017-02-06 06:23:30.232957+01 | 1486358610.23296 | pgbench_tellers_pkey  |            40960
 2017-02-06 06:23:30.232957+01 | 1486358610.23296 | pgbench_accounts_pkey |        224641024

 2017-02-06 06:23:31.327189+01 | 1486358611.32719 | pgbench_branches_pkey |            16384
 2017-02-06 06:23:31.327189+01 | 1486358611.32719 | pgbench_tellers_pkey  |            40960
 2017-02-06 06:23:31.327189+01 | 1486358611.32719 | pgbench_accounts_pkey |        224641024

 2017-02-06 06:23:32.418348+01 | 1486358612.41835 | pgbench_branches_pkey |            16384
 2017-02-06 06:23:32.418348+01 | 1486358612.41835 | pgbench_tellers_pkey  |            40960
 2017-02-06 06:23:32.418348+01 | 1486358612.41835 | pgbench_accounts_pkey |        224641024

 2017-02-06 06:23:33.518723+01 | 1486358613.51872 | pgbench_branches_pkey |            16384
 2017-02-06 06:23:33.518723+01 | 1486358613.51872 | pgbench_tellers_pkey  |            40960
 2017-02-06 06:23:33.518723+01 | 1486358613.51872 | pgbench_accounts_pkey |        224641024

 2017-02-06 06:23:34.615938+01 | 1486358614.61594 | pgbench_branches_pkey |            16384
 2017-02-06 06:23:34.615938+01 | 1486358614.61594 | pgbench_tellers_pkey  |            40960
 2017-02-06 06:23:34.615938+01 | 1486358614.61594 | pgbench_accounts_pkey |        224641024

 2017-02-06 06:23:35.708878+01 | 1486358615.70888 | pgbench_branches_pkey |            16384
 2017-02-06 06:23:35.708878+01 | 1486358615.70888 | pgbench_tellers_pkey  |            40960
 2017-02-06 06:23:35.708878+01 | 1486358615.70888 | pgbench_accounts_pkey |        224641024

 2017-02-06 06:23:36.807202+01 | 1486358616.8072 | pgbench_branches_pkey |            16384
 2017-02-06 06:23:36.807202+01 | 1486358616.8072 | pgbench_tellers_pkey  |            40960
 2017-02-06 06:23:36.807202+01 | 1486358616.8072 | pgbench_accounts_pkey |        224641024

 2017-02-06 06:23:37.909832+01 | 1486358617.90983 | pgbench_branches_pkey |            16384
 2017-02-06 06:23:37.909832+01 | 1486358617.90983 | pgbench_tellers_pkey  |            40960
 2017-02-06 06:23:37.909832+01 | 1486358617.90983 | pgbench_accounts_pkey |        224641024

 2017-02-06 06:23:39.018018+01 | 1486358619.01802 | pgbench_branches_pkey |            16384
 2017-02-06 06:23:39.018018+01 | 1486358619.01802 | pgbench_tellers_pkey  |            40960
 2017-02-06 06:23:39.018018+01 | 1486358619.01802 | pgbench_accounts_pkey |        224641024

 2017-02-06 06:23:40.116231+01 | 1486358620.11623 | pgbench_branches_pkey |            16384
 2017-02-06 06:23:40.116231+01 | 1486358620.11623 | pgbench_tellers_pkey  |            40960
 2017-02-06 06:23:40.116231+01 | 1486358620.11623 | pgbench_accounts_pkey |        224641024

 2017-02-06 06:23:41.219999+01 | 1486358621.22 | pgbench_branches_pkey |            16384
 2017-02-06 06:23:41.219999+01 | 1486358621.22 | pgbench_tellers_pkey  |            40960
 2017-02-06 06:23:41.219999+01 | 1486358621.22 | pgbench_accounts_pkey |        224641024

 2017-02-06 06:23:42.314458+01 | 1486358622.31446 | pgbench_branches_pkey |            16384
 2017-02-06 06:23:42.314458+01 | 1486358622.31446 | pgbench_tellers_pkey  |            40960
 2017-02-06 06:23:42.314458+01 | 1486358622.31446 | pgbench_accounts_pkey |        224641024

 2017-02-06 06:23:43.399746+01 | 1486358623.39975 | pgbench_branches_pkey |            16384
 2017-02-06 06:23:43.399746+01 | 1486358623.39975 | pgbench_tellers_pkey  |            40960
 2017-02-06 06:23:43.399746+01 | 1486358623.39975 | pgbench_accounts_pkey |        224641024

 2017-02-06 06:23:44.495882+01 | 1486358624.49588 | pgbench_branches_pkey |            16384
 2017-02-06 06:23:44.495882+01 | 1486358624.49588 | pgbench_tellers_pkey  |            40960
 2017-02-06 06:23:44.495882+01 | 1486358624.49588 | pgbench_accounts_pkey |        224641024

 2017-02-06 06:23:45.583212+01 | 1486358625.58321 | pgbench_branches_pkey |            16384
 2017-02-06 06:23:45.583212+01 | 1486358625.58321 | pgbench_tellers_pkey  |            40960
 2017-02-06 06:23:45.583212+01 | 1486358625.58321 | pgbench_accounts_pkey |        224641024

 2017-02-06 06:23:46.674034+01 | 1486358626.67403 | pgbench_branches_pkey |            16384
 2017-02-06 06:23:46.674034+01 | 1486358626.67403 | pgbench_tellers_pkey  |            40960
 2017-02-06 06:23:46.674034+01 | 1486358626.67403 | pgbench_accounts_pkey |        224641024

 2017-02-06 06:23:47.783994+01 | 1486358627.78399 | pgbench_branches_pkey |            16384
 2017-02-06 06:23:47.783994+01 | 1486358627.78399 | pgbench_tellers_pkey  |            40960
 2017-02-06 06:23:47.783994+01 | 1486358627.78399 | pgbench_accounts_pkey |        224641024

 2017-02-06 06:23:48.8852+01 | 1486358628.8852 | pgbench_branches_pkey |            16384
 2017-02-06 06:23:48.8852+01 | 1486358628.8852 | pgbench_tellers_pkey  |            40960
 2017-02-06 06:23:48.8852+01 | 1486358628.8852 | pgbench_accounts_pkey |        224641024

 2017-02-06 06:23:50.001031+01 | 1486358630.00103 | pgbench_branches_pkey |            16384
 2017-02-06 06:23:50.001031+01 | 1486358630.00103 | pgbench_tellers_pkey  |            40960
 2017-02-06 06:23:50.001031+01 | 1486358630.00103 | pgbench_accounts_pkey |        224641024

 2017-02-06 06:23:51.109036+01 | 1486358631.10904 | pgbench_branches_pkey |            16384
 2017-02-06 06:23:51.109036+01 | 1486358631.10904 | pgbench_tellers_pkey  |            40960
 2017-02-06 06:23:51.109036+01 | 1486358631.10904 | pgbench_accounts_pkey |        224641024

 2017-02-06 06:23:52.221614+01 | 1486358632.22161 | pgbench_branches_pkey |            16384
 2017-02-06 06:23:52.221614+01 | 1486358632.22161 | pgbench_tellers_pkey  |            40960
 2017-02-06 06:23:52.221614+01 | 1486358632.22161 | pgbench_accounts_pkey |        224641024

 2017-02-06 06:23:53.315692+01 | 1486358633.31569 | pgbench_branches_pkey |            16384
 2017-02-06 06:23:53.315692+01 | 1486358633.31569 | pgbench_tellers_pkey  |            40960
 2017-02-06 06:23:53.315692+01 | 1486358633.31569 | pgbench_accounts_pkey |        224641024

 2017-02-06 06:23:54.408779+01 | 1486358634.40878 | pgbench_branches_pkey |            16384
 2017-02-06 06:23:54.408779+01 | 1486358634.40878 | pgbench_tellers_pkey  |            40960
 2017-02-06 06:23:54.408779+01 | 1486358634.40878 | pgbench_accounts_pkey |        224641024

 2017-02-06 06:23:55.502619+01 | 1486358635.50262 | pgbench_branches_pkey |            16384
 2017-02-06 06:23:55.502619+01 | 1486358635.50262 | pgbench_tellers_pkey  |            40960
 2017-02-06 06:23:55.502619+01 | 1486358635.50262 | pgbench_accounts_pkey |        224641024

 2017-02-06 06:23:56.604142+01 | 1486358636.60414 | pgbench_branches_pkey |            16384
 2017-02-06 06:23:56.604142+01 | 1486358636.60414 | pgbench_tellers_pkey  |            40960
 2017-02-06 06:23:56.604142+01 | 1486358636.60414 | pgbench_accounts_pkey |        224641024

 2017-02-06 06:23:57.703689+01 | 1486358637.70369 | pgbench_branches_pkey |            16384
 2017-02-06 06:23:57.703689+01 | 1486358637.70369 | pgbench_tellers_pkey  |            40960
 2017-02-06 06:23:57.703689+01 | 1486358637.70369 | pgbench_accounts_pkey |        224641024

 2017-02-06 06:23:58.793682+01 | 1486358638.79368 | pgbench_branches_pkey |            16384
 2017-02-06 06:23:58.793682+01 | 1486358638.79368 | pgbench_tellers_pkey  |            40960
 2017-02-06 06:23:58.793682+01 | 1486358638.79368 | pgbench_accounts_pkey |        224641024

 2017-02-06 06:23:59.897615+01 | 1486358639.89761 | pgbench_branches_pkey |            16384
 2017-02-06 06:23:59.897615+01 | 1486358639.89761 | pgbench_tellers_pkey  |            40960
 2017-02-06 06:23:59.897615+01 | 1486358639.89761 | pgbench_accounts_pkey |        224641024

 2017-02-06 06:24:01.002585+01 | 1486358641.00258 | pgbench_branches_pkey |            16384
 2017-02-06 06:24:01.002585+01 | 1486358641.00258 | pgbench_tellers_pkey  |            40960
 2017-02-06 06:24:01.002585+01 | 1486358641.00258 | pgbench_accounts_pkey |        224641024

 2017-02-06 06:24:02.097274+01 | 1486358642.09727 | pgbench_branches_pkey |            16384
 2017-02-06 06:24:02.097274+01 | 1486358642.09727 | pgbench_tellers_pkey  |            40960
 2017-02-06 06:24:02.097274+01 | 1486358642.09727 | pgbench_accounts_pkey |        224641024

 2017-02-06 06:24:03.196406+01 | 1486358643.19641 | pgbench_branches_pkey |            16384
 2017-02-06 06:24:03.196406+01 | 1486358643.19641 | pgbench_tellers_pkey  |            40960
 2017-02-06 06:24:03.196406+01 | 1486358643.19641 | pgbench_accounts_pkey |        224641024

 2017-02-06 06:24:04.29106+01 | 1486358644.29106 | pgbench_branches_pkey |            16384
 2017-02-06 06:24:04.29106+01 | 1486358644.29106 | pgbench_tellers_pkey  |            40960
 2017-02-06 06:24:04.29106+01 | 1486358644.29106 | pgbench_accounts_pkey |        224641024

 2017-02-06 06:24:05.380244+01 | 1486358645.38024 | pgbench_branches_pkey |            16384
 2017-02-06 06:24:05.380244+01 | 1486358645.38024 | pgbench_tellers_pkey  |            40960
 2017-02-06 06:24:05.380244+01 | 1486358645.38024 | pgbench_accounts_pkey |        224641024

 2017-02-06 06:24:06.479158+01 | 1486358646.47916 | pgbench_branches_pkey |            16384
 2017-02-06 06:24:06.479158+01 | 1486358646.47916 | pgbench_tellers_pkey  |            40960
 2017-02-06 06:24:06.479158+01 | 1486358646.47916 | pgbench_accounts_pkey |        224641024

 2017-02-06 06:24:07.578237+01 | 1486358647.57824 | pgbench_branches_pkey |            16384
 2017-02-06 06:24:07.578237+01 | 1486358647.57824 | pgbench_tellers_pkey  |            40960
 2017-02-06 06:24:07.578237+01 | 1486358647.57824 | pgbench_accounts_pkey |        224641024

 2017-02-06 06:24:08.681948+01 | 1486358648.68195 | pgbench_branches_pkey |            16384
 2017-02-06 06:24:08.681948+01 | 1486358648.68195 | pgbench_tellers_pkey  |            40960
 2017-02-06 06:24:08.681948+01 | 1486358648.68195 | pgbench_accounts_pkey |        224641024

 2017-02-06 06:24:09.774706+01 | 1486358649.77471 | pgbench_branches_pkey |            16384
 2017-02-06 06:24:09.774706+01 | 1486358649.77471 | pgbench_tellers_pkey  |            40960
 2017-02-06 06:24:09.774706+01 | 1486358649.77471 | pgbench_accounts_pkey |        224641024

 2017-02-06 06:24:10.872992+01 | 1486358650.87299 | pgbench_branches_pkey |            16384
 2017-02-06 06:24:10.872992+01 | 1486358650.87299 | pgbench_tellers_pkey  |            40960
 2017-02-06 06:24:10.872992+01 | 1486358650.87299 | pgbench_accounts_pkey |        224641024

 2017-02-06 06:24:11.97581+01 | 1486358651.97581 | pgbench_branches_pkey |            16384
 2017-02-06 06:24:11.97581+01 | 1486358651.97581 | pgbench_tellers_pkey  |            40960
 2017-02-06 06:24:11.97581+01 | 1486358651.97581 | pgbench_accounts_pkey |        224641024

 2017-02-06 06:24:13.065847+01 | 1486358653.06585 | pgbench_branches_pkey |            16384
 2017-02-06 06:24:13.065847+01 | 1486358653.06585 | pgbench_tellers_pkey  |            40960
 2017-02-06 06:24:13.065847+01 | 1486358653.06585 | pgbench_accounts_pkey |        224641024

 2017-02-06 06:24:14.172001+01 | 1486358654.172 | pgbench_branches_pkey |            16384
 2017-02-06 06:24:14.172001+01 | 1486358654.172 | pgbench_tellers_pkey  |            40960
 2017-02-06 06:24:14.172001+01 | 1486358654.172 | pgbench_accounts_pkey |        224641024

 2017-02-06 06:24:15.289552+01 | 1486358655.28955 | pgbench_branches_pkey |            16384
 2017-02-06 06:24:15.289552+01 | 1486358655.28955 | pgbench_tellers_pkey  |            40960
 2017-02-06 06:24:15.289552+01 | 1486358655.28955 | pgbench_accounts_pkey |        224641024

 2017-02-06 06:24:16.393883+01 | 1486358656.39388 | pgbench_branches_pkey |            16384
 2017-02-06 06:24:16.393883+01 | 1486358656.39388 | pgbench_tellers_pkey  |            40960
 2017-02-06 06:24:16.393883+01 | 1486358656.39388 | pgbench_accounts_pkey |        224641024

 2017-02-06 06:24:17.489923+01 | 1486358657.48992 | pgbench_branches_pkey |            16384
 2017-02-06 06:24:17.489923+01 | 1486358657.48992 | pgbench_tellers_pkey  |            40960
 2017-02-06 06:24:17.489923+01 | 1486358657.48992 | pgbench_accounts_pkey |        224641024

 2017-02-06 06:24:18.584291+01 | 1486358658.58429 | pgbench_branches_pkey |            16384
 2017-02-06 06:24:18.584291+01 | 1486358658.58429 | pgbench_tellers_pkey  |            40960
 2017-02-06 06:24:18.584291+01 | 1486358658.58429 | pgbench_accounts_pkey |        224641024

 2017-02-06 06:24:19.67552+01 | 1486358659.67552 | pgbench_branches_pkey |            16384
 2017-02-06 06:24:19.67552+01 | 1486358659.67552 | pgbench_tellers_pkey  |            40960
 2017-02-06 06:24:19.67552+01 | 1486358659.67552 | pgbench_accounts_pkey |        224641024

 2017-02-06 06:24:20.764024+01 | 1486358660.76402 | pgbench_branches_pkey |            16384
 2017-02-06 06:24:20.764024+01 | 1486358660.76402 | pgbench_tellers_pkey  |            40960
 2017-02-06 06:24:20.764024+01 | 1486358660.76402 | pgbench_accounts_pkey |        224641024

 2017-02-06 06:24:21.86159+01 | 1486358661.86159 | pgbench_branches_pkey |            16384
 2017-02-06 06:24:21.86159+01 | 1486358661.86159 | pgbench_tellers_pkey  |            40960
 2017-02-06 06:24:21.86159+01 | 1486358661.86159 | pgbench_accounts_pkey |        224641024

 2017-02-06 06:24:22.95604+01 | 1486358662.95604 | pgbench_branches_pkey |            16384
 2017-02-06 06:24:22.95604+01 | 1486358662.95604 | pgbench_tellers_pkey  |            40960
 2017-02-06 06:24:22.95604+01 | 1486358662.95604 | pgbench_accounts_pkey |        224641024

 2017-02-06 06:24:24.057245+01 | 1486358664.05725 | pgbench_branches_pkey |            16384
 2017-02-06 06:24:24.057245+01 | 1486358664.05725 | pgbench_tellers_pkey  |            40960
 2017-02-06 06:24:24.057245+01 | 1486358664.05725 | pgbench_accounts_pkey |        224641024

 2017-02-06 06:24:25.167227+01 | 1486358665.16723 | pgbench_branches_pkey |            16384
 2017-02-06 06:24:25.167227+01 | 1486358665.16723 | pgbench_tellers_pkey  |            40960
 2017-02-06 06:24:25.167227+01 | 1486358665.16723 | pgbench_accounts_pkey |        224641024

 2017-02-06 06:24:26.262931+01 | 1486358666.26293 | pgbench_branches_pkey |            16384
 2017-02-06 06:24:26.262931+01 | 1486358666.26293 | pgbench_tellers_pkey  |            40960
 2017-02-06 06:24:26.262931+01 | 1486358666.26293 | pgbench_accounts_pkey |        224641024

 2017-02-06 06:24:27.362915+01 | 1486358667.36292 | pgbench_branches_pkey |            16384
 2017-02-06 06:24:27.362915+01 | 1486358667.36292 | pgbench_tellers_pkey  |            40960
 2017-02-06 06:24:27.362915+01 | 1486358667.36292 | pgbench_accounts_pkey |        224641024

 2017-02-06 06:24:28.458724+01 | 1486358668.45872 | pgbench_branches_pkey |            16384
 2017-02-06 06:24:28.458724+01 | 1486358668.45872 | pgbench_tellers_pkey  |            40960
 2017-02-06 06:24:28.458724+01 | 1486358668.45872 | pgbench_accounts_pkey |        224641024

 2017-02-06 06:24:29.552882+01 | 1486358669.55288 | pgbench_branches_pkey |            16384
 2017-02-06 06:24:29.552882+01 | 1486358669.55288 | pgbench_tellers_pkey  |            40960
 2017-02-06 06:24:29.552882+01 | 1486358669.55288 | pgbench_accounts_pkey |        224641024

 2017-02-06 06:24:30.646543+01 | 1486358670.64654 | pgbench_branches_pkey |            16384
 2017-02-06 06:24:30.646543+01 | 1486358670.64654 | pgbench_tellers_pkey  |            40960
 2017-02-06 06:24:30.646543+01 | 1486358670.64654 | pgbench_accounts_pkey |        224641024

 2017-02-06 06:24:31.743967+01 | 1486358671.74397 | pgbench_branches_pkey |            16384
 2017-02-06 06:24:31.743967+01 | 1486358671.74397 | pgbench_tellers_pkey  |            40960
 2017-02-06 06:24:31.743967+01 | 1486358671.74397 | pgbench_accounts_pkey |        224641024

 2017-02-06 06:24:32.837377+01 | 1486358672.83738 | pgbench_branches_pkey |            16384
 2017-02-06 06:24:32.837377+01 | 1486358672.83738 | pgbench_tellers_pkey  |            40960
 2017-02-06 06:24:32.837377+01 | 1486358672.83738 | pgbench_accounts_pkey |        224641024

 2017-02-06 06:24:33.942895+01 | 1486358673.94289 | pgbench_branches_pkey |            16384
 2017-02-06 06:24:33.942895+01 | 1486358673.94289 | pgbench_tellers_pkey  |            40960
 2017-02-06 06:24:33.942895+01 | 1486358673.94289 | pgbench_accounts_pkey |        224641024

 2017-02-06 06:24:35.043072+01 | 1486358675.04307 | pgbench_branches_pkey |            16384
 2017-02-06 06:24:35.043072+01 | 1486358675.04307 | pgbench_tellers_pkey  |            40960
 2017-02-06 06:24:35.043072+01 | 1486358675.04307 | pgbench_accounts_pkey |        224641024

 2017-02-06 06:24:36.158799+01 | 1486358676.1588 | pgbench_branches_pkey |            16384
 2017-02-06 06:24:36.158799+01 | 1486358676.1588 | pgbench_tellers_pkey  |            40960
 2017-02-06 06:24:36.158799+01 | 1486358676.1588 | pgbench_accounts_pkey |        224641024

 2017-02-06 06:24:37.263575+01 | 1486358677.26358 | pgbench_branches_pkey |            16384
 2017-02-06 06:24:37.263575+01 | 1486358677.26358 | pgbench_tellers_pkey  |            40960
 2017-02-06 06:24:37.263575+01 | 1486358677.26358 | pgbench_accounts_pkey |        224641024

 2017-02-06 06:24:38.369187+01 | 1486358678.36919 | pgbench_branches_pkey |            16384
 2017-02-06 06:24:38.369187+01 | 1486358678.36919 | pgbench_tellers_pkey  |            40960
 2017-02-06 06:24:38.369187+01 | 1486358678.36919 | pgbench_accounts_pkey |        224641024

 2017-02-06 06:24:39.467037+01 | 1486358679.46704 | pgbench_branches_pkey |            16384
 2017-02-06 06:24:39.467037+01 | 1486358679.46704 | pgbench_tellers_pkey  |            40960
 2017-02-06 06:24:39.467037+01 | 1486358679.46704 | pgbench_accounts_pkey |        224641024

 2017-02-06 06:24:40.565549+01 | 1486358680.56555 | pgbench_branches_pkey |            16384
 2017-02-06 06:24:40.565549+01 | 1486358680.56555 | pgbench_tellers_pkey  |            40960
 2017-02-06 06:24:40.565549+01 | 1486358680.56555 | pgbench_accounts_pkey |        224641024

 2017-02-06 06:24:41.663189+01 | 1486358681.66319 | pgbench_branches_pkey |            16384
 2017-02-06 06:24:41.663189+01 | 1486358681.66319 | pgbench_tellers_pkey  |            40960
 2017-02-06 06:24:41.663189+01 | 1486358681.66319 | pgbench_accounts_pkey |        224641024

 2017-02-06 06:24:42.765581+01 | 1486358682.76558 | pgbench_branches_pkey |            16384
 2017-02-06 06:24:42.765581+01 | 1486358682.76558 | pgbench_tellers_pkey  |            40960
 2017-02-06 06:24:42.765581+01 | 1486358682.76558 | pgbench_accounts_pkey |        224641024

 2017-02-06 06:24:43.872702+01 | 1486358683.8727 | pgbench_branches_pkey |            16384
 2017-02-06 06:24:43.872702+01 | 1486358683.8727 | pgbench_tellers_pkey  |            40960
 2017-02-06 06:24:43.872702+01 | 1486358683.8727 | pgbench_accounts_pkey |        224641024

 2017-02-06 06:24:44.966113+01 | 1486358684.96611 | pgbench_branches_pkey |            16384
 2017-02-06 06:24:44.966113+01 | 1486358684.96611 | pgbench_tellers_pkey  |            40960
 2017-02-06 06:24:44.966113+01 | 1486358684.96611 | pgbench_accounts_pkey |        224641024

 2017-02-06 06:24:46.06998+01 | 1486358686.06998 | pgbench_branches_pkey |            16384
 2017-02-06 06:24:46.06998+01 | 1486358686.06998 | pgbench_tellers_pkey  |            40960
 2017-02-06 06:24:46.06998+01 | 1486358686.06998 | pgbench_accounts_pkey |        224641024

 2017-02-06 06:24:47.174466+01 | 1486358687.17447 | pgbench_branches_pkey |            16384
 2017-02-06 06:24:47.174466+01 | 1486358687.17447 | pgbench_tellers_pkey  |            40960
 2017-02-06 06:24:47.174466+01 | 1486358687.17447 | pgbench_accounts_pkey |        224641024

 2017-02-06 06:24:48.276149+01 | 1486358688.27615 | pgbench_branches_pkey |            16384
 2017-02-06 06:24:48.276149+01 | 1486358688.27615 | pgbench_tellers_pkey  |            40960
 2017-02-06 06:24:48.276149+01 | 1486358688.27615 | pgbench_accounts_pkey |        224641024

 2017-02-06 06:24:49.372061+01 | 1486358689.37206 | pgbench_branches_pkey |            16384
 2017-02-06 06:24:49.372061+01 | 1486358689.37206 | pgbench_tellers_pkey  |            40960
 2017-02-06 06:24:49.372061+01 | 1486358689.37206 | pgbench_accounts_pkey |        224641024

 2017-02-06 06:24:50.485114+01 | 1486358690.48511 | pgbench_branches_pkey |            16384
 2017-02-06 06:24:50.485114+01 | 1486358690.48511 | pgbench_tellers_pkey  |            40960
 2017-02-06 06:24:50.485114+01 | 1486358690.48511 | pgbench_accounts_pkey |        224641024

 2017-02-06 06:24:51.581995+01 | 1486358691.582 | pgbench_branches_pkey |            16384
 2017-02-06 06:24:51.581995+01 | 1486358691.582 | pgbench_tellers_pkey  |            40960
 2017-02-06 06:24:51.581995+01 | 1486358691.582 | pgbench_accounts_pkey |        224641024

 2017-02-06 06:24:52.681411+01 | 1486358692.68141 | pgbench_branches_pkey |            16384
 2017-02-06 06:24:52.681411+01 | 1486358692.68141 | pgbench_tellers_pkey  |            40960
 2017-02-06 06:24:52.681411+01 | 1486358692.68141 | pgbench_accounts_pkey |        224641024

 2017-02-06 06:24:53.765988+01 | 1486358693.76599 | pgbench_branches_pkey |            16384
 2017-02-06 06:24:53.765988+01 | 1486358693.76599 | pgbench_tellers_pkey  |            40960
 2017-02-06 06:24:53.765988+01 | 1486358693.76599 | pgbench_accounts_pkey |        224641024

 2017-02-06 06:24:54.858257+01 | 1486358694.85826 | pgbench_branches_pkey |            16384
 2017-02-06 06:24:54.858257+01 | 1486358694.85826 | pgbench_tellers_pkey  |            40960
 2017-02-06 06:24:54.858257+01 | 1486358694.85826 | pgbench_accounts_pkey |        224641024

 2017-02-06 06:24:55.950147+01 | 1486358695.95015 | pgbench_branches_pkey |            16384
 2017-02-06 06:24:55.950147+01 | 1486358695.95015 | pgbench_tellers_pkey  |            40960
 2017-02-06 06:24:55.950147+01 | 1486358695.95015 | pgbench_accounts_pkey |        224641024

 2017-02-06 06:24:57.049007+01 | 1486358697.04901 | pgbench_branches_pkey |            16384
 2017-02-06 06:24:57.049007+01 | 1486358697.04901 | pgbench_tellers_pkey  |            40960
 2017-02-06 06:24:57.049007+01 | 1486358697.04901 | pgbench_accounts_pkey |        224641024

 2017-02-06 06:24:58.155001+01 | 1486358698.155 | pgbench_branches_pkey |            16384
 2017-02-06 06:24:58.155001+01 | 1486358698.155 | pgbench_tellers_pkey  |            40960
 2017-02-06 06:24:58.155001+01 | 1486358698.155 | pgbench_accounts_pkey |        224641024

 2017-02-06 06:24:59.253637+01 | 1486358699.25364 | pgbench_branches_pkey |            16384
 2017-02-06 06:24:59.253637+01 | 1486358699.25364 | pgbench_tellers_pkey  |            40960
 2017-02-06 06:24:59.253637+01 | 1486358699.25364 | pgbench_accounts_pkey |        224641024

 2017-02-06 06:25:00.353023+01 | 1486358700.35302 | pgbench_branches_pkey |            16384
 2017-02-06 06:25:00.353023+01 | 1486358700.35302 | pgbench_tellers_pkey  |            40960
 2017-02-06 06:25:00.353023+01 | 1486358700.35302 | pgbench_accounts_pkey |        224641024

 2017-02-06 06:25:01.446128+01 | 1486358701.44613 | pgbench_branches_pkey |            16384
 2017-02-06 06:25:01.446128+01 | 1486358701.44613 | pgbench_tellers_pkey  |            40960
 2017-02-06 06:25:01.446128+01 | 1486358701.44613 | pgbench_accounts_pkey |        224641024

 2017-02-06 06:25:02.529902+01 | 1486358702.5299 | pgbench_branches_pkey |            16384
 2017-02-06 06:25:02.529902+01 | 1486358702.5299 | pgbench_tellers_pkey  |            40960
 2017-02-06 06:25:02.529902+01 | 1486358702.5299 | pgbench_accounts_pkey |        224641024

 2017-02-06 06:25:03.623048+01 | 1486358703.62305 | pgbench_branches_pkey |            16384
 2017-02-06 06:25:03.623048+01 | 1486358703.62305 | pgbench_tellers_pkey  |            40960
 2017-02-06 06:25:03.623048+01 | 1486358703.62305 | pgbench_accounts_pkey |        224641024

 2017-02-06 06:25:04.726783+01 | 1486358704.72678 | pgbench_branches_pkey |            16384
 2017-02-06 06:25:04.726783+01 | 1486358704.72678 | pgbench_tellers_pkey  |            40960
 2017-02-06 06:25:04.726783+01 | 1486358704.72678 | pgbench_accounts_pkey |        224641024

 2017-02-06 06:25:05.82904+01 | 1486358705.82904 | pgbench_branches_pkey |            16384
 2017-02-06 06:25:05.82904+01 | 1486358705.82904 | pgbench_tellers_pkey  |            40960
 2017-02-06 06:25:05.82904+01 | 1486358705.82904 | pgbench_accounts_pkey |        224641024

 2017-02-06 06:25:06.918742+01 | 1486358706.91874 | pgbench_branches_pkey |            16384
 2017-02-06 06:25:06.918742+01 | 1486358706.91874 | pgbench_tellers_pkey  |            40960
 2017-02-06 06:25:06.918742+01 | 1486358706.91874 | pgbench_accounts_pkey |        224641024

 2017-02-06 06:25:08.021903+01 | 1486358708.0219 | pgbench_branches_pkey |            16384
 2017-02-06 06:25:08.021903+01 | 1486358708.0219 | pgbench_tellers_pkey  |            40960
 2017-02-06 06:25:08.021903+01 | 1486358708.0219 | pgbench_accounts_pkey |        224641024

 2017-02-06 06:25:09.111298+01 | 1486358709.1113 | pgbench_branches_pkey |            16384
 2017-02-06 06:25:09.111298+01 | 1486358709.1113 | pgbench_tellers_pkey  |            40960
 2017-02-06 06:25:09.111298+01 | 1486358709.1113 | pgbench_accounts_pkey |        224641024

 2017-02-06 06:25:10.225069+01 | 1486358710.22507 | pgbench_branches_pkey |            16384
 2017-02-06 06:25:10.225069+01 | 1486358710.22507 | pgbench_tellers_pkey  |            40960
 2017-02-06 06:25:10.225069+01 | 1486358710.22507 | pgbench_accounts_pkey |        224641024

 2017-02-06 06:25:11.322616+01 | 1486358711.32262 | pgbench_branches_pkey |            16384
 2017-02-06 06:25:11.322616+01 | 1486358711.32262 | pgbench_tellers_pkey  |            40960
 2017-02-06 06:25:11.322616+01 | 1486358711.32262 | pgbench_accounts_pkey |        224641024

 2017-02-06 06:25:12.418058+01 | 1486358712.41806 | pgbench_branches_pkey |            16384
 2017-02-06 06:25:12.418058+01 | 1486358712.41806 | pgbench_tellers_pkey  |            40960
 2017-02-06 06:25:12.418058+01 | 1486358712.41806 | pgbench_accounts_pkey |        224641024

 2017-02-06 06:25:13.522543+01 | 1486358713.52254 | pgbench_branches_pkey |            16384
 2017-02-06 06:25:13.522543+01 | 1486358713.52254 | pgbench_tellers_pkey  |            40960
 2017-02-06 06:25:13.522543+01 | 1486358713.52254 | pgbench_accounts_pkey |        224641024

 2017-02-06 06:25:14.627581+01 | 1486358714.62758 | pgbench_branches_pkey |            16384
 2017-02-06 06:25:14.627581+01 | 1486358714.62758 | pgbench_tellers_pkey  |            40960
 2017-02-06 06:25:14.627581+01 | 1486358714.62758 | pgbench_accounts_pkey |        224641024

 2017-02-06 06:25:15.741118+01 | 1486358715.74112 | pgbench_branches_pkey |            16384
 2017-02-06 06:25:15.741118+01 | 1486358715.74112 | pgbench_tellers_pkey  |            40960
 2017-02-06 06:25:15.741118+01 | 1486358715.74112 | pgbench_accounts_pkey |        224641024

 2017-02-06 06:25:16.837968+01 | 1486358716.83797 | pgbench_branches_pkey |            16384
 2017-02-06 06:25:16.837968+01 | 1486358716.83797 | pgbench_tellers_pkey  |            40960
 2017-02-06 06:25:16.837968+01 | 1486358716.83797 | pgbench_accounts_pkey |        224641024

 2017-02-06 06:25:17.931103+01 | 1486358717.9311 | pgbench_branches_pkey |            16384
 2017-02-06 06:25:17.931103+01 | 1486358717.9311 | pgbench_tellers_pkey  |            40960
 2017-02-06 06:25:17.931103+01 | 1486358717.9311 | pgbench_accounts_pkey |        224641024

 2017-02-06 06:25:19.028812+01 | 1486358719.02881 | pgbench_branches_pkey |            16384
 2017-02-06 06:25:19.028812+01 | 1486358719.02881 | pgbench_tellers_pkey  |            40960
 2017-02-06 06:25:19.028812+01 | 1486358719.02881 | pgbench_accounts_pkey |        224641024

 2017-02-06 06:25:20.123728+01 | 1486358720.12373 | pgbench_branches_pkey |            16384
 2017-02-06 06:25:20.123728+01 | 1486358720.12373 | pgbench_tellers_pkey  |            40960
 2017-02-06 06:25:20.123728+01 | 1486358720.12373 | pgbench_accounts_pkey |        224641024

 2017-02-06 06:25:21.220267+01 | 1486358721.22027 | pgbench_branches_pkey |            16384
 2017-02-06 06:25:21.220267+01 | 1486358721.22027 | pgbench_tellers_pkey  |            40960
 2017-02-06 06:25:21.220267+01 | 1486358721.22027 | pgbench_accounts_pkey |        224641024

 2017-02-06 06:25:22.312275+01 | 1486358722.31227 | pgbench_branches_pkey |            16384
 2017-02-06 06:25:22.312275+01 | 1486358722.31227 | pgbench_tellers_pkey  |            40960
 2017-02-06 06:25:22.312275+01 | 1486358722.31227 | pgbench_accounts_pkey |        224641024

 2017-02-06 06:25:23.402147+01 | 1486358723.40215 | pgbench_branches_pkey |            16384
 2017-02-06 06:25:23.402147+01 | 1486358723.40215 | pgbench_tellers_pkey  |            40960
 2017-02-06 06:25:23.402147+01 | 1486358723.40215 | pgbench_accounts_pkey |        224641024

 2017-02-06 06:25:24.506696+01 | 1486358724.5067 | pgbench_branches_pkey |            16384
 2017-02-06 06:25:24.506696+01 | 1486358724.5067 | pgbench_tellers_pkey  |            40960
 2017-02-06 06:25:24.506696+01 | 1486358724.5067 | pgbench_accounts_pkey |        224641024

 2017-02-06 06:25:25.599762+01 | 1486358725.59976 | pgbench_branches_pkey |            16384
 2017-02-06 06:25:25.599762+01 | 1486358725.59976 | pgbench_tellers_pkey  |            40960
 2017-02-06 06:25:25.599762+01 | 1486358725.59976 | pgbench_accounts_pkey |        224641024

 2017-02-06 06:25:26.697613+01 | 1486358726.69761 | pgbench_branches_pkey |            16384
 2017-02-06 06:25:26.697613+01 | 1486358726.69761 | pgbench_tellers_pkey  |            40960
 2017-02-06 06:25:26.697613+01 | 1486358726.69761 | pgbench_accounts_pkey |        224641024

 2017-02-06 06:25:27.807602+01 | 1486358727.8076 | pgbench_branches_pkey |            16384
 2017-02-06 06:25:27.807602+01 | 1486358727.8076 | pgbench_tellers_pkey  |            40960
 2017-02-06 06:25:27.807602+01 | 1486358727.8076 | pgbench_accounts_pkey |        224641024

 2017-02-06 06:25:28.902132+01 | 1486358728.90213 | pgbench_branches_pkey |            16384
 2017-02-06 06:25:28.902132+01 | 1486358728.90213 | pgbench_tellers_pkey  |            40960
 2017-02-06 06:25:28.902132+01 | 1486358728.90213 | pgbench_accounts_pkey |        224641024

 2017-02-06 06:25:29.99706+01 | 1486358729.99706 | pgbench_branches_pkey |            16384
 2017-02-06 06:25:29.99706+01 | 1486358729.99706 | pgbench_tellers_pkey  |            40960
 2017-02-06 06:25:29.99706+01 | 1486358729.99706 | pgbench_accounts_pkey |        224641024

 2017-02-06 06:25:31.104139+01 | 1486358731.10414 | pgbench_branches_pkey |            16384
 2017-02-06 06:25:31.104139+01 | 1486358731.10414 | pgbench_tellers_pkey  |            40960
 2017-02-06 06:25:31.104139+01 | 1486358731.10414 | pgbench_accounts_pkey |        224641024

 2017-02-06 06:25:32.196884+01 | 1486358732.19688 | pgbench_branches_pkey |            16384
 2017-02-06 06:25:32.196884+01 | 1486358732.19688 | pgbench_tellers_pkey  |            40960
 2017-02-06 06:25:32.196884+01 | 1486358732.19688 | pgbench_accounts_pkey |        224641024

 2017-02-06 06:25:33.28979+01 | 1486358733.28979 | pgbench_branches_pkey |            16384
 2017-02-06 06:25:33.28979+01 | 1486358733.28979 | pgbench_tellers_pkey  |            40960
 2017-02-06 06:25:33.28979+01 | 1486358733.28979 | pgbench_accounts_pkey |        224641024

 2017-02-06 06:25:34.392889+01 | 1486358734.39289 | pgbench_branches_pkey |            16384
 2017-02-06 06:25:34.392889+01 | 1486358734.39289 | pgbench_tellers_pkey  |            40960
 2017-02-06 06:25:34.392889+01 | 1486358734.39289 | pgbench_accounts_pkey |        224641024

 2017-02-06 06:25:35.504929+01 | 1486358735.50493 | pgbench_branches_pkey |            16384
 2017-02-06 06:25:35.504929+01 | 1486358735.50493 | pgbench_tellers_pkey  |            40960
 2017-02-06 06:25:35.504929+01 | 1486358735.50493 | pgbench_accounts_pkey |        224641024

 2017-02-06 06:25:36.60138+01 | 1486358736.60138 | pgbench_branches_pkey |            16384
 2017-02-06 06:25:36.60138+01 | 1486358736.60138 | pgbench_tellers_pkey  |            40960
 2017-02-06 06:25:36.60138+01 | 1486358736.60138 | pgbench_accounts_pkey |        224641024

 2017-02-06 06:25:37.70855+01 | 1486358737.70855 | pgbench_branches_pkey |            16384
 2017-02-06 06:25:37.70855+01 | 1486358737.70855 | pgbench_tellers_pkey  |            40960
 2017-02-06 06:25:37.70855+01 | 1486358737.70855 | pgbench_accounts_pkey |        224641024

 2017-02-06 06:25:38.808273+01 | 1486358738.80827 | pgbench_branches_pkey |            16384
 2017-02-06 06:25:38.808273+01 | 1486358738.80827 | pgbench_tellers_pkey  |            40960
 2017-02-06 06:25:38.808273+01 | 1486358738.80827 | pgbench_accounts_pkey |        224641024

 2017-02-06 06:25:39.90412+01 | 1486358739.90412 | pgbench_branches_pkey |            16384
 2017-02-06 06:25:39.90412+01 | 1486358739.90412 | pgbench_tellers_pkey  |            40960
 2017-02-06 06:25:39.90412+01 | 1486358739.90412 | pgbench_accounts_pkey |        224641024

 2017-02-06 06:25:40.997964+01 | 1486358740.99796 | pgbench_branches_pkey |            16384
 2017-02-06 06:25:40.997964+01 | 1486358740.99796 | pgbench_tellers_pkey  |            40960
 2017-02-06 06:25:40.997964+01 | 1486358740.99796 | pgbench_accounts_pkey |        224641024

 2017-02-06 06:25:42.095104+01 | 1486358742.0951 | pgbench_branches_pkey |            16384
 2017-02-06 06:25:42.095104+01 | 1486358742.0951 | pgbench_tellers_pkey  |            40960
 2017-02-06 06:25:42.095104+01 | 1486358742.0951 | pgbench_accounts_pkey |        224641024

 2017-02-06 06:25:43.196662+01 | 1486358743.19666 | pgbench_branches_pkey |            16384
 2017-02-06 06:25:43.196662+01 | 1486358743.19666 | pgbench_tellers_pkey  |            40960
 2017-02-06 06:25:43.196662+01 | 1486358743.19666 | pgbench_accounts_pkey |        224641024

 2017-02-06 06:25:44.298575+01 | 1486358744.29857 | pgbench_branches_pkey |            16384
 2017-02-06 06:25:44.298575+01 | 1486358744.29857 | pgbench_tellers_pkey  |            40960
 2017-02-06 06:25:44.298575+01 | 1486358744.29857 | pgbench_accounts_pkey |        224641024

 2017-02-06 06:25:45.399972+01 | 1486358745.39997 | pgbench_branches_pkey |            16384
 2017-02-06 06:25:45.399972+01 | 1486358745.39997 | pgbench_tellers_pkey  |            40960
 2017-02-06 06:25:45.399972+01 | 1486358745.39997 | pgbench_accounts_pkey |        224641024

 2017-02-06 06:25:46.496949+01 | 1486358746.49695 | pgbench_branches_pkey |            16384
 2017-02-06 06:25:46.496949+01 | 1486358746.49695 | pgbench_tellers_pkey  |            40960
 2017-02-06 06:25:46.496949+01 | 1486358746.49695 | pgbench_accounts_pkey |        224641024

 2017-02-06 06:25:47.596986+01 | 1486358747.59699 | pgbench_branches_pkey |            16384
 2017-02-06 06:25:47.596986+01 | 1486358747.59699 | pgbench_tellers_pkey  |            40960
 2017-02-06 06:25:47.596986+01 | 1486358747.59699 | pgbench_accounts_pkey |        224641024

 2017-02-06 06:25:48.706294+01 | 1486358748.70629 | pgbench_branches_pkey |            16384
 2017-02-06 06:25:48.706294+01 | 1486358748.70629 | pgbench_tellers_pkey  |            40960
 2017-02-06 06:25:48.706294+01 | 1486358748.70629 | pgbench_accounts_pkey |        224641024

 2017-02-06 06:25:49.799002+01 | 1486358749.799 | pgbench_branches_pkey |            16384
 2017-02-06 06:25:49.799002+01 | 1486358749.799 | pgbench_tellers_pkey  |            40960
 2017-02-06 06:25:49.799002+01 | 1486358749.799 | pgbench_accounts_pkey |        224641024

 2017-02-06 06:25:50.889389+01 | 1486358750.88939 | pgbench_branches_pkey |            16384
 2017-02-06 06:25:50.889389+01 | 1486358750.88939 | pgbench_tellers_pkey  |            40960
 2017-02-06 06:25:50.889389+01 | 1486358750.88939 | pgbench_accounts_pkey |        224641024

 2017-02-06 06:25:51.986925+01 | 1486358751.98692 | pgbench_branches_pkey |            16384
 2017-02-06 06:25:51.986925+01 | 1486358751.98692 | pgbench_tellers_pkey  |            40960
 2017-02-06 06:25:51.986925+01 | 1486358751.98692 | pgbench_accounts_pkey |        224641024

 2017-02-06 06:25:53.094283+01 | 1486358753.09428 | pgbench_branches_pkey |            16384
 2017-02-06 06:25:53.094283+01 | 1486358753.09428 | pgbench_tellers_pkey  |            40960
 2017-02-06 06:25:53.094283+01 | 1486358753.09428 | pgbench_accounts_pkey |        224641024

 2017-02-06 06:25:54.2016+01 | 1486358754.2016 | pgbench_branches_pkey |            16384
 2017-02-06 06:25:54.2016+01 | 1486358754.2016 | pgbench_tellers_pkey  |            40960
 2017-02-06 06:25:54.2016+01 | 1486358754.2016 | pgbench_accounts_pkey |        224641024

 2017-02-06 06:25:55.308689+01 | 1486358755.30869 | pgbench_branches_pkey |            16384
 2017-02-06 06:25:55.308689+01 | 1486358755.30869 | pgbench_tellers_pkey  |            40960
 2017-02-06 06:25:55.308689+01 | 1486358755.30869 | pgbench_accounts_pkey |        224641024

 2017-02-06 06:25:56.404826+01 | 1486358756.40483 | pgbench_branches_pkey |            16384
 2017-02-06 06:25:56.404826+01 | 1486358756.40483 | pgbench_tellers_pkey  |            40960
 2017-02-06 06:25:56.404826+01 | 1486358756.40483 | pgbench_accounts_pkey |        224641024

 2017-02-06 06:25:57.497101+01 | 1486358757.4971 | pgbench_branches_pkey |            16384
 2017-02-06 06:25:57.497101+01 | 1486358757.4971 | pgbench_tellers_pkey  |            40960
 2017-02-06 06:25:57.497101+01 | 1486358757.4971 | pgbench_accounts_pkey |        224641024

 2017-02-06 06:25:58.604743+01 | 1486358758.60474 | pgbench_branches_pkey |            16384
 2017-02-06 06:25:58.604743+01 | 1486358758.60474 | pgbench_tellers_pkey  |            40960
 2017-02-06 06:25:58.604743+01 | 1486358758.60474 | pgbench_accounts_pkey |        224641024

 2017-02-06 06:25:59.710968+01 | 1486358759.71097 | pgbench_branches_pkey |            16384
 2017-02-06 06:25:59.710968+01 | 1486358759.71097 | pgbench_tellers_pkey  |            40960
 2017-02-06 06:25:59.710968+01 | 1486358759.71097 | pgbench_accounts_pkey |        224641024

 2017-02-06 06:26:00.805295+01 | 1486358760.80529 | pgbench_branches_pkey |            16384
 2017-02-06 06:26:00.805295+01 | 1486358760.80529 | pgbench_tellers_pkey  |            40960
 2017-02-06 06:26:00.805295+01 | 1486358760.80529 | pgbench_accounts_pkey |        224641024

 2017-02-06 06:26:01.900432+01 | 1486358761.90043 | pgbench_branches_pkey |            16384
 2017-02-06 06:26:01.900432+01 | 1486358761.90043 | pgbench_tellers_pkey  |            40960
 2017-02-06 06:26:01.900432+01 | 1486358761.90043 | pgbench_accounts_pkey |        224641024

 2017-02-06 06:26:03.009614+01 | 1486358763.00961 | pgbench_branches_pkey |            16384
 2017-02-06 06:26:03.009614+01 | 1486358763.00961 | pgbench_tellers_pkey  |            40960
 2017-02-06 06:26:03.009614+01 | 1486358763.00961 | pgbench_accounts_pkey |        224641024

 2017-02-06 06:26:04.107453+01 | 1486358764.10745 | pgbench_branches_pkey |            16384
 2017-02-06 06:26:04.107453+01 | 1486358764.10745 | pgbench_tellers_pkey  |            40960
 2017-02-06 06:26:04.107453+01 | 1486358764.10745 | pgbench_accounts_pkey |        224641024

 2017-02-06 06:26:05.21493+01 | 1486358765.21493 | pgbench_branches_pkey |            16384
 2017-02-06 06:26:05.21493+01 | 1486358765.21493 | pgbench_tellers_pkey  |            40960
 2017-02-06 06:26:05.21493+01 | 1486358765.21493 | pgbench_accounts_pkey |        224641024

 2017-02-06 06:26:06.317136+01 | 1486358766.31714 | pgbench_branches_pkey |            16384
 2017-02-06 06:26:06.317136+01 | 1486358766.31714 | pgbench_tellers_pkey  |            40960
 2017-02-06 06:26:06.317136+01 | 1486358766.31714 | pgbench_accounts_pkey |        224641024

 2017-02-06 06:26:07.415982+01 | 1486358767.41598 | pgbench_branches_pkey |            16384
 2017-02-06 06:26:07.415982+01 | 1486358767.41598 | pgbench_tellers_pkey  |            40960
 2017-02-06 06:26:07.415982+01 | 1486358767.41598 | pgbench_accounts_pkey |        224641024

 2017-02-06 06:26:08.526828+01 | 1486358768.52683 | pgbench_branches_pkey |            16384
 2017-02-06 06:26:08.526828+01 | 1486358768.52683 | pgbench_tellers_pkey  |            40960
 2017-02-06 06:26:08.526828+01 | 1486358768.52683 | pgbench_accounts_pkey |        224641024

 2017-02-06 06:26:09.617627+01 | 1486358769.61763 | pgbench_branches_pkey |            16384
 2017-02-06 06:26:09.617627+01 | 1486358769.61763 | pgbench_tellers_pkey  |            40960
 2017-02-06 06:26:09.617627+01 | 1486358769.61763 | pgbench_accounts_pkey |        224641024

 2017-02-06 06:26:10.70783+01 | 1486358770.70783 | pgbench_branches_pkey |            16384
 2017-02-06 06:26:10.70783+01 | 1486358770.70783 | pgbench_tellers_pkey  |            40960
 2017-02-06 06:26:10.70783+01 | 1486358770.70783 | pgbench_accounts_pkey |        224641024

 2017-02-06 06:26:11.820324+01 | 1486358771.82032 | pgbench_branches_pkey |            16384
 2017-02-06 06:26:11.820324+01 | 1486358771.82032 | pgbench_tellers_pkey  |            40960
 2017-02-06 06:26:11.820324+01 | 1486358771.82032 | pgbench_accounts_pkey |        224641024

 2017-02-06 06:26:12.91857+01 | 1486358772.91857 | pgbench_branches_pkey |            16384
 2017-02-06 06:26:12.91857+01 | 1486358772.91857 | pgbench_tellers_pkey  |            40960
 2017-02-06 06:26:12.91857+01 | 1486358772.91857 | pgbench_accounts_pkey |        224641024

 2017-02-06 06:26:14.012719+01 | 1486358774.01272 | pgbench_branches_pkey |            16384
 2017-02-06 06:26:14.012719+01 | 1486358774.01272 | pgbench_tellers_pkey  |            40960
 2017-02-06 06:26:14.012719+01 | 1486358774.01272 | pgbench_accounts_pkey |        224641024

 2017-02-06 06:26:15.107615+01 | 1486358775.10761 | pgbench_branches_pkey |            16384
 2017-02-06 06:26:15.107615+01 | 1486358775.10761 | pgbench_tellers_pkey  |            40960
 2017-02-06 06:26:15.107615+01 | 1486358775.10761 | pgbench_accounts_pkey |        224641024

 2017-02-06 06:26:16.208947+01 | 1486358776.20895 | pgbench_branches_pkey |            16384
 2017-02-06 06:26:16.208947+01 | 1486358776.20895 | pgbench_tellers_pkey  |            40960
 2017-02-06 06:26:16.208947+01 | 1486358776.20895 | pgbench_accounts_pkey |        224641024

 2017-02-06 06:26:17.297647+01 | 1486358777.29765 | pgbench_branches_pkey |            16384
 2017-02-06 06:26:17.297647+01 | 1486358777.29765 | pgbench_tellers_pkey  |            40960
 2017-02-06 06:26:17.297647+01 | 1486358777.29765 | pgbench_accounts_pkey |        224641024

 2017-02-06 06:26:18.377524+01 | 1486358778.37752 | pgbench_branches_pkey |            16384
 2017-02-06 06:26:18.377524+01 | 1486358778.37752 | pgbench_tellers_pkey  |            40960
 2017-02-06 06:26:18.377524+01 | 1486358778.37752 | pgbench_accounts_pkey |        224641024

 2017-02-06 06:26:19.468533+01 | 1486358779.46853 | pgbench_branches_pkey |            16384
 2017-02-06 06:26:19.468533+01 | 1486358779.46853 | pgbench_tellers_pkey  |            40960
 2017-02-06 06:26:19.468533+01 | 1486358779.46853 | pgbench_accounts_pkey |        224641024

 2017-02-06 06:26:20.571539+01 | 1486358780.57154 | pgbench_branches_pkey |            16384
 2017-02-06 06:26:20.571539+01 | 1486358780.57154 | pgbench_tellers_pkey  |            40960
 2017-02-06 06:26:20.571539+01 | 1486358780.57154 | pgbench_accounts_pkey |        224641024

 2017-02-06 06:26:21.674554+01 | 1486358781.67455 | pgbench_branches_pkey |            16384
 2017-02-06 06:26:21.674554+01 | 1486358781.67455 | pgbench_tellers_pkey  |            40960
 2017-02-06 06:26:21.674554+01 | 1486358781.67455 | pgbench_accounts_pkey |        224641024

 2017-02-06 06:26:22.776054+01 | 1486358782.77605 | pgbench_branches_pkey |            16384
 2017-02-06 06:26:22.776054+01 | 1486358782.77605 | pgbench_tellers_pkey  |            40960
 2017-02-06 06:26:22.776054+01 | 1486358782.77605 | pgbench_accounts_pkey |        224641024

 2017-02-06 06:26:23.870166+01 | 1486358783.87017 | pgbench_branches_pkey |            16384
 2017-02-06 06:26:23.870166+01 | 1486358783.87017 | pgbench_tellers_pkey  |            40960
 2017-02-06 06:26:23.870166+01 | 1486358783.87017 | pgbench_accounts_pkey |        224641024

 2017-02-06 06:26:24.959094+01 | 1486358784.95909 | pgbench_branches_pkey |            16384
 2017-02-06 06:26:24.959094+01 | 1486358784.95909 | pgbench_tellers_pkey  |            40960
 2017-02-06 06:26:24.959094+01 | 1486358784.95909 | pgbench_accounts_pkey |        224641024

 2017-02-06 06:26:26.046438+01 | 1486358786.04644 | pgbench_branches_pkey |            16384
 2017-02-06 06:26:26.046438+01 | 1486358786.04644 | pgbench_tellers_pkey  |            40960
 2017-02-06 06:26:26.046438+01 | 1486358786.04644 | pgbench_accounts_pkey |        224641024

 2017-02-06 06:26:27.132961+01 | 1486358787.13296 | pgbench_branches_pkey |            16384
 2017-02-06 06:26:27.132961+01 | 1486358787.13296 | pgbench_tellers_pkey  |            40960
 2017-02-06 06:26:27.132961+01 | 1486358787.13296 | pgbench_accounts_pkey |        224641024

 2017-02-06 06:26:28.225445+01 | 1486358788.22545 | pgbench_branches_pkey |            16384
 2017-02-06 06:26:28.225445+01 | 1486358788.22545 | pgbench_tellers_pkey  |            40960
 2017-02-06 06:26:28.225445+01 | 1486358788.22545 | pgbench_accounts_pkey |        224641024

 2017-02-06 06:26:29.323888+01 | 1486358789.32389 | pgbench_branches_pkey |            16384
 2017-02-06 06:26:29.323888+01 | 1486358789.32389 | pgbench_tellers_pkey  |            40960
 2017-02-06 06:26:29.323888+01 | 1486358789.32389 | pgbench_accounts_pkey |        224641024

 2017-02-06 06:26:30.410983+01 | 1486358790.41098 | pgbench_branches_pkey |            16384
 2017-02-06 06:26:30.410983+01 | 1486358790.41098 | pgbench_tellers_pkey  |            40960
 2017-02-06 06:26:30.410983+01 | 1486358790.41098 | pgbench_accounts_pkey |        224641024

 2017-02-06 06:26:31.50638+01 | 1486358791.50638 | pgbench_branches_pkey |            16384
 2017-02-06 06:26:31.50638+01 | 1486358791.50638 | pgbench_tellers_pkey  |            40960
 2017-02-06 06:26:31.50638+01 | 1486358791.50638 | pgbench_accounts_pkey |        224641024

 2017-02-06 06:26:32.602803+01 | 1486358792.6028 | pgbench_branches_pkey |            16384
 2017-02-06 06:26:32.602803+01 | 1486358792.6028 | pgbench_tellers_pkey  |            40960
 2017-02-06 06:26:32.602803+01 | 1486358792.6028 | pgbench_accounts_pkey |        224641024

 2017-02-06 06:26:33.702727+01 | 1486358793.70273 | pgbench_branches_pkey |            16384
 2017-02-06 06:26:33.702727+01 | 1486358793.70273 | pgbench_tellers_pkey  |            40960
 2017-02-06 06:26:33.702727+01 | 1486358793.70273 | pgbench_accounts_pkey |        224641024

 2017-02-06 06:26:34.806378+01 | 1486358794.80638 | pgbench_branches_pkey |            16384
 2017-02-06 06:26:34.806378+01 | 1486358794.80638 | pgbench_tellers_pkey  |            40960
 2017-02-06 06:26:34.806378+01 | 1486358794.80638 | pgbench_accounts_pkey |        224641024

 2017-02-06 06:26:35.904747+01 | 1486358795.90475 | pgbench_branches_pkey |            16384
 2017-02-06 06:26:35.904747+01 | 1486358795.90475 | pgbench_tellers_pkey  |            40960
 2017-02-06 06:26:35.904747+01 | 1486358795.90475 | pgbench_accounts_pkey |        224641024

 2017-02-06 06:26:36.996879+01 | 1486358796.99688 | pgbench_branches_pkey |            16384
 2017-02-06 06:26:36.996879+01 | 1486358796.99688 | pgbench_tellers_pkey  |            40960
 2017-02-06 06:26:36.996879+01 | 1486358796.99688 | pgbench_accounts_pkey |        224641024

 2017-02-06 06:26:38.097386+01 | 1486358798.09739 | pgbench_branches_pkey |            16384
 2017-02-06 06:26:38.097386+01 | 1486358798.09739 | pgbench_tellers_pkey  |            40960
 2017-02-06 06:26:38.097386+01 | 1486358798.09739 | pgbench_accounts_pkey |        224641024

 2017-02-06 06:26:39.201857+01 | 1486358799.20186 | pgbench_branches_pkey |            16384
 2017-02-06 06:26:39.201857+01 | 1486358799.20186 | pgbench_tellers_pkey  |            40960
 2017-02-06 06:26:39.201857+01 | 1486358799.20186 | pgbench_accounts_pkey |        224641024

 2017-02-06 06:26:40.296125+01 | 1486358800.29612 | pgbench_branches_pkey |            16384
 2017-02-06 06:26:40.296125+01 | 1486358800.29612 | pgbench_tellers_pkey  |            40960
 2017-02-06 06:26:40.296125+01 | 1486358800.29612 | pgbench_accounts_pkey |        224641024

 2017-02-06 06:26:41.391065+01 | 1486358801.39106 | pgbench_branches_pkey |            16384
 2017-02-06 06:26:41.391065+01 | 1486358801.39106 | pgbench_tellers_pkey  |            40960
 2017-02-06 06:26:41.391065+01 | 1486358801.39106 | pgbench_accounts_pkey |        224641024

 2017-02-06 06:26:42.487999+01 | 1486358802.488 | pgbench_branches_pkey |            16384
 2017-02-06 06:26:42.487999+01 | 1486358802.488 | pgbench_tellers_pkey  |            40960
 2017-02-06 06:26:42.487999+01 | 1486358802.488 | pgbench_accounts_pkey |        224641024

 2017-02-06 06:26:43.59063+01 | 1486358803.59063 | pgbench_branches_pkey |            16384
 2017-02-06 06:26:43.59063+01 | 1486358803.59063 | pgbench_tellers_pkey  |            40960
 2017-02-06 06:26:43.59063+01 | 1486358803.59063 | pgbench_accounts_pkey |        224641024

 2017-02-06 06:26:44.681065+01 | 1486358804.68107 | pgbench_branches_pkey |            16384
 2017-02-06 06:26:44.681065+01 | 1486358804.68107 | pgbench_tellers_pkey  |            40960
 2017-02-06 06:26:44.681065+01 | 1486358804.68107 | pgbench_accounts_pkey |        224641024

 2017-02-06 06:26:45.768203+01 | 1486358805.7682 | pgbench_branches_pkey |            16384
 2017-02-06 06:26:45.768203+01 | 1486358805.7682 | pgbench_tellers_pkey  |            40960
 2017-02-06 06:26:45.768203+01 | 1486358805.7682 | pgbench_accounts_pkey |        224641024

 2017-02-06 06:26:46.87326+01 | 1486358806.87326 | pgbench_branches_pkey |            16384
 2017-02-06 06:26:46.87326+01 | 1486358806.87326 | pgbench_tellers_pkey  |            40960
 2017-02-06 06:26:46.87326+01 | 1486358806.87326 | pgbench_accounts_pkey |        224641024

 2017-02-06 06:26:47.974121+01 | 1486358807.97412 | pgbench_branches_pkey |            16384
 2017-02-06 06:26:47.974121+01 | 1486358807.97412 | pgbench_tellers_pkey  |            40960
 2017-02-06 06:26:47.974121+01 | 1486358807.97412 | pgbench_accounts_pkey |        224641024

 2017-02-06 06:26:49.075042+01 | 1486358809.07504 | pgbench_branches_pkey |            16384
 2017-02-06 06:26:49.075042+01 | 1486358809.07504 | pgbench_tellers_pkey  |            40960
 2017-02-06 06:26:49.075042+01 | 1486358809.07504 | pgbench_accounts_pkey |        224641024

 2017-02-06 06:26:50.172745+01 | 1486358810.17274 | pgbench_branches_pkey |            16384
 2017-02-06 06:26:50.172745+01 | 1486358810.17274 | pgbench_tellers_pkey  |            40960
 2017-02-06 06:26:50.172745+01 | 1486358810.17274 | pgbench_accounts_pkey |        224641024

 2017-02-06 06:26:51.272332+01 | 1486358811.27233 | pgbench_branches_pkey |            16384
 2017-02-06 06:26:51.272332+01 | 1486358811.27233 | pgbench_tellers_pkey  |            40960
 2017-02-06 06:26:51.272332+01 | 1486358811.27233 | pgbench_accounts_pkey |        224641024

 2017-02-06 06:26:52.374004+01 | 1486358812.374 | pgbench_branches_pkey |            16384
 2017-02-06 06:26:52.374004+01 | 1486358812.374 | pgbench_tellers_pkey  |            40960
 2017-02-06 06:26:52.374004+01 | 1486358812.374 | pgbench_accounts_pkey |        224641024

 2017-02-06 06:26:53.474948+01 | 1486358813.47495 | pgbench_branches_pkey |            16384
 2017-02-06 06:26:53.474948+01 | 1486358813.47495 | pgbench_tellers_pkey  |            40960
 2017-02-06 06:26:53.474948+01 | 1486358813.47495 | pgbench_accounts_pkey |        224641024

 2017-02-06 06:26:54.559725+01 | 1486358814.55973 | pgbench_branches_pkey |            16384
 2017-02-06 06:26:54.559725+01 | 1486358814.55973 | pgbench_tellers_pkey  |            40960
 2017-02-06 06:26:54.559725+01 | 1486358814.55973 | pgbench_accounts_pkey |        224641024

 2017-02-06 06:26:55.668645+01 | 1486358815.66864 | pgbench_branches_pkey |            16384
 2017-02-06 06:26:55.668645+01 | 1486358815.66864 | pgbench_tellers_pkey  |            40960
 2017-02-06 06:26:55.668645+01 | 1486358815.66864 | pgbench_accounts_pkey |        224641024

 2017-02-06 06:26:56.762645+01 | 1486358816.76265 | pgbench_branches_pkey |            16384
 2017-02-06 06:26:56.762645+01 | 1486358816.76265 | pgbench_tellers_pkey  |            40960
 2017-02-06 06:26:56.762645+01 | 1486358816.76265 | pgbench_accounts_pkey |        224641024

 2017-02-06 06:26:57.858539+01 | 1486358817.85854 | pgbench_branches_pkey |            16384
 2017-02-06 06:26:57.858539+01 | 1486358817.85854 | pgbench_tellers_pkey  |            40960
 2017-02-06 06:26:57.858539+01 | 1486358817.85854 | pgbench_accounts_pkey |        224641024

 2017-02-06 06:26:58.957615+01 | 1486358818.95761 | pgbench_branches_pkey |            16384
 2017-02-06 06:26:58.957615+01 | 1486358818.95761 | pgbench_tellers_pkey  |            40960
 2017-02-06 06:26:58.957615+01 | 1486358818.95761 | pgbench_accounts_pkey |        224641024

 2017-02-06 06:27:00.067925+01 | 1486358820.06792 | pgbench_branches_pkey |            16384
 2017-02-06 06:27:00.067925+01 | 1486358820.06792 | pgbench_tellers_pkey  |            40960
 2017-02-06 06:27:00.067925+01 | 1486358820.06792 | pgbench_accounts_pkey |        224641024

 2017-02-06 06:27:01.167821+01 | 1486358821.16782 | pgbench_branches_pkey |            16384
 2017-02-06 06:27:01.167821+01 | 1486358821.16782 | pgbench_tellers_pkey  |            40960
 2017-02-06 06:27:01.167821+01 | 1486358821.16782 | pgbench_accounts_pkey |        224641024

 2017-02-06 06:27:02.265344+01 | 1486358822.26534 | pgbench_branches_pkey |            16384
 2017-02-06 06:27:02.265344+01 | 1486358822.26534 | pgbench_tellers_pkey  |            40960
 2017-02-06 06:27:02.265344+01 | 1486358822.26534 | pgbench_accounts_pkey |        224641024

 2017-02-06 06:27:03.365956+01 | 1486358823.36596 | pgbench_branches_pkey |            16384
 2017-02-06 06:27:03.365956+01 | 1486358823.36596 | pgbench_tellers_pkey  |            40960
 2017-02-06 06:27:03.365956+01 | 1486358823.36596 | pgbench_accounts_pkey |        224641024

 2017-02-06 06:27:04.472239+01 | 1486358824.47224 | pgbench_branches_pkey |            16384
 2017-02-06 06:27:04.472239+01 | 1486358824.47224 | pgbench_tellers_pkey  |            40960
 2017-02-06 06:27:04.472239+01 | 1486358824.47224 | pgbench_accounts_pkey |        224641024

 2017-02-06 06:27:05.574034+01 | 1486358825.57403 | pgbench_branches_pkey |            16384
 2017-02-06 06:27:05.574034+01 | 1486358825.57403 | pgbench_tellers_pkey  |            40960
 2017-02-06 06:27:05.574034+01 | 1486358825.57403 | pgbench_accounts_pkey |        224641024

 2017-02-06 06:27:06.670733+01 | 1486358826.67073 | pgbench_branches_pkey |            16384
 2017-02-06 06:27:06.670733+01 | 1486358826.67073 | pgbench_tellers_pkey  |            40960
 2017-02-06 06:27:06.670733+01 | 1486358826.67073 | pgbench_accounts_pkey |        224641024

 2017-02-06 06:27:07.778159+01 | 1486358827.77816 | pgbench_branches_pkey |            16384
 2017-02-06 06:27:07.778159+01 | 1486358827.77816 | pgbench_tellers_pkey  |            40960
 2017-02-06 06:27:07.778159+01 | 1486358827.77816 | pgbench_accounts_pkey |        224641024

 2017-02-06 06:27:08.882067+01 | 1486358828.88207 | pgbench_branches_pkey |            16384
 2017-02-06 06:27:08.882067+01 | 1486358828.88207 | pgbench_tellers_pkey  |            40960
 2017-02-06 06:27:08.882067+01 | 1486358828.88207 | pgbench_accounts_pkey |        224641024

 2017-02-06 06:27:09.974313+01 | 1486358829.97431 | pgbench_branches_pkey |            16384
 2017-02-06 06:27:09.974313+01 | 1486358829.97431 | pgbench_tellers_pkey  |            40960
 2017-02-06 06:27:09.974313+01 | 1486358829.97431 | pgbench_accounts_pkey |        224641024

 2017-02-06 06:27:11.070317+01 | 1486358831.07032 | pgbench_branches_pkey |            16384
 2017-02-06 06:27:11.070317+01 | 1486358831.07032 | pgbench_tellers_pkey  |            40960
 2017-02-06 06:27:11.070317+01 | 1486358831.07032 | pgbench_accounts_pkey |        224641024

 2017-02-06 06:27:12.174582+01 | 1486358832.17458 | pgbench_branches_pkey |            16384
 2017-02-06 06:27:12.174582+01 | 1486358832.17458 | pgbench_tellers_pkey  |            40960
 2017-02-06 06:27:12.174582+01 | 1486358832.17458 | pgbench_accounts_pkey |        224641024

 2017-02-06 06:27:13.269979+01 | 1486358833.26998 | pgbench_branches_pkey |            16384
 2017-02-06 06:27:13.269979+01 | 1486358833.26998 | pgbench_tellers_pkey  |            40960
 2017-02-06 06:27:13.269979+01 | 1486358833.26998 | pgbench_accounts_pkey |        224641024

 2017-02-06 06:27:14.357287+01 | 1486358834.35729 | pgbench_branches_pkey |            16384
 2017-02-06 06:27:14.357287+01 | 1486358834.35729 | pgbench_tellers_pkey  |            40960
 2017-02-06 06:27:14.357287+01 | 1486358834.35729 | pgbench_accounts_pkey |        224641024

 2017-02-06 06:27:15.447207+01 | 1486358835.44721 | pgbench_branches_pkey |            16384
 2017-02-06 06:27:15.447207+01 | 1486358835.44721 | pgbench_tellers_pkey  |            40960
 2017-02-06 06:27:15.447207+01 | 1486358835.44721 | pgbench_accounts_pkey |        224641024

 2017-02-06 06:27:16.553529+01 | 1486358836.55353 | pgbench_branches_pkey |            16384
 2017-02-06 06:27:16.553529+01 | 1486358836.55353 | pgbench_tellers_pkey  |            40960
 2017-02-06 06:27:16.553529+01 | 1486358836.55353 | pgbench_accounts_pkey |        224641024

 2017-02-06 06:27:17.647644+01 | 1486358837.64764 | pgbench_branches_pkey |            16384
 2017-02-06 06:27:17.647644+01 | 1486358837.64764 | pgbench_tellers_pkey  |            40960
 2017-02-06 06:27:17.647644+01 | 1486358837.64764 | pgbench_accounts_pkey |        224641024

 2017-02-06 06:27:18.753259+01 | 1486358838.75326 | pgbench_branches_pkey |            16384
 2017-02-06 06:27:18.753259+01 | 1486358838.75326 | pgbench_tellers_pkey  |            40960
 2017-02-06 06:27:18.753259+01 | 1486358838.75326 | pgbench_accounts_pkey |        224641024

 2017-02-06 06:27:19.856089+01 | 1486358839.85609 | pgbench_branches_pkey |            16384
 2017-02-06 06:27:19.856089+01 | 1486358839.85609 | pgbench_tellers_pkey  |            40960
 2017-02-06 06:27:19.856089+01 | 1486358839.85609 | pgbench_accounts_pkey |        224641024

