 2017-02-04 13:05:54.815701+01 | 1486209954.8157 | pgbench_branches_pkey |            57344
 2017-02-04 13:05:54.815701+01 | 1486209954.8157 | pgbench_tellers_pkey  |           245760
 2017-02-04 13:05:54.815701+01 | 1486209954.8157 | pgbench_accounts_pkey |        224641024

 2017-02-04 13:05:55.900664+01 | 1486209955.90066 | pgbench_branches_pkey |            57344
 2017-02-04 13:05:55.900664+01 | 1486209955.90066 | pgbench_tellers_pkey  |           245760
 2017-02-04 13:05:55.900664+01 | 1486209955.90066 | pgbench_accounts_pkey |        224641024

 2017-02-04 13:05:56.985458+01 | 1486209956.98546 | pgbench_branches_pkey |            57344
 2017-02-04 13:05:56.985458+01 | 1486209956.98546 | pgbench_tellers_pkey  |           245760
 2017-02-04 13:05:56.985458+01 | 1486209956.98546 | pgbench_accounts_pkey |        224641024

 2017-02-04 13:05:58.05811+01 | 1486209958.05811 | pgbench_branches_pkey |            57344
 2017-02-04 13:05:58.05811+01 | 1486209958.05811 | pgbench_tellers_pkey  |           245760
 2017-02-04 13:05:58.05811+01 | 1486209958.05811 | pgbench_accounts_pkey |        224641024

 2017-02-04 13:05:59.136074+01 | 1486209959.13607 | pgbench_branches_pkey |            57344
 2017-02-04 13:05:59.136074+01 | 1486209959.13607 | pgbench_tellers_pkey  |           245760
 2017-02-04 13:05:59.136074+01 | 1486209959.13607 | pgbench_accounts_pkey |        224641024

 2017-02-04 13:06:00.214028+01 | 1486209960.21403 | pgbench_branches_pkey |            57344
 2017-02-04 13:06:00.214028+01 | 1486209960.21403 | pgbench_tellers_pkey  |           245760
 2017-02-04 13:06:00.214028+01 | 1486209960.21403 | pgbench_accounts_pkey |        224641024

 2017-02-04 13:06:01.292675+01 | 1486209961.29268 | pgbench_branches_pkey |            57344
 2017-02-04 13:06:01.292675+01 | 1486209961.29268 | pgbench_tellers_pkey  |           245760
 2017-02-04 13:06:01.292675+01 | 1486209961.29268 | pgbench_accounts_pkey |        224641024

 2017-02-04 13:06:02.362625+01 | 1486209962.36262 | pgbench_branches_pkey |            57344
 2017-02-04 13:06:02.362625+01 | 1486209962.36262 | pgbench_tellers_pkey  |           245760
 2017-02-04 13:06:02.362625+01 | 1486209962.36262 | pgbench_accounts_pkey |        224641024

 2017-02-04 13:06:03.446441+01 | 1486209963.44644 | pgbench_branches_pkey |            57344
 2017-02-04 13:06:03.446441+01 | 1486209963.44644 | pgbench_tellers_pkey  |           245760
 2017-02-04 13:06:03.446441+01 | 1486209963.44644 | pgbench_accounts_pkey |        224641024

 2017-02-04 13:06:04.539658+01 | 1486209964.53966 | pgbench_branches_pkey |            57344
 2017-02-04 13:06:04.539658+01 | 1486209964.53966 | pgbench_tellers_pkey  |           245760
 2017-02-04 13:06:04.539658+01 | 1486209964.53966 | pgbench_accounts_pkey |        224641024

 2017-02-04 13:06:05.615173+01 | 1486209965.61517 | pgbench_branches_pkey |            57344
 2017-02-04 13:06:05.615173+01 | 1486209965.61517 | pgbench_tellers_pkey  |           245760
 2017-02-04 13:06:05.615173+01 | 1486209965.61517 | pgbench_accounts_pkey |        224641024

 2017-02-04 13:06:06.698566+01 | 1486209966.69857 | pgbench_branches_pkey |            57344
 2017-02-04 13:06:06.698566+01 | 1486209966.69857 | pgbench_tellers_pkey  |           245760
 2017-02-04 13:06:06.698566+01 | 1486209966.69857 | pgbench_accounts_pkey |        224641024

 2017-02-04 13:06:07.783015+01 | 1486209967.78302 | pgbench_branches_pkey |            57344
 2017-02-04 13:06:07.783015+01 | 1486209967.78302 | pgbench_tellers_pkey  |           245760
 2017-02-04 13:06:07.783015+01 | 1486209967.78302 | pgbench_accounts_pkey |        224641024

 2017-02-04 13:06:08.85727+01 | 1486209968.85727 | pgbench_branches_pkey |            57344
 2017-02-04 13:06:08.85727+01 | 1486209968.85727 | pgbench_tellers_pkey  |           245760
 2017-02-04 13:06:08.85727+01 | 1486209968.85727 | pgbench_accounts_pkey |        224641024

 2017-02-04 13:06:09.940672+01 | 1486209969.94067 | pgbench_branches_pkey |            57344
 2017-02-04 13:06:09.940672+01 | 1486209969.94067 | pgbench_tellers_pkey  |           245760
 2017-02-04 13:06:09.940672+01 | 1486209969.94067 | pgbench_accounts_pkey |        224641024

 2017-02-04 13:06:11.014861+01 | 1486209971.01486 | pgbench_branches_pkey |            57344
 2017-02-04 13:06:11.014861+01 | 1486209971.01486 | pgbench_tellers_pkey  |           245760
 2017-02-04 13:06:11.014861+01 | 1486209971.01486 | pgbench_accounts_pkey |        224641024

 2017-02-04 13:06:12.098725+01 | 1486209972.09873 | pgbench_branches_pkey |            57344
 2017-02-04 13:06:12.098725+01 | 1486209972.09873 | pgbench_tellers_pkey  |           245760
 2017-02-04 13:06:12.098725+01 | 1486209972.09873 | pgbench_accounts_pkey |        224641024

 2017-02-04 13:06:13.173255+01 | 1486209973.17325 | pgbench_branches_pkey |            57344
 2017-02-04 13:06:13.173255+01 | 1486209973.17325 | pgbench_tellers_pkey  |           245760
 2017-02-04 13:06:13.173255+01 | 1486209973.17325 | pgbench_accounts_pkey |        224641024

 2017-02-04 13:06:14.260362+01 | 1486209974.26036 | pgbench_branches_pkey |            57344
 2017-02-04 13:06:14.260362+01 | 1486209974.26036 | pgbench_tellers_pkey  |           245760
 2017-02-04 13:06:14.260362+01 | 1486209974.26036 | pgbench_accounts_pkey |        224641024

 2017-02-04 13:06:15.337257+01 | 1486209975.33726 | pgbench_branches_pkey |            57344
 2017-02-04 13:06:15.337257+01 | 1486209975.33726 | pgbench_tellers_pkey  |           245760
 2017-02-04 13:06:15.337257+01 | 1486209975.33726 | pgbench_accounts_pkey |        224641024

 2017-02-04 13:06:16.416651+01 | 1486209976.41665 | pgbench_branches_pkey |            57344
 2017-02-04 13:06:16.416651+01 | 1486209976.41665 | pgbench_tellers_pkey  |           245760
 2017-02-04 13:06:16.416651+01 | 1486209976.41665 | pgbench_accounts_pkey |        224641024

 2017-02-04 13:06:17.493708+01 | 1486209977.49371 | pgbench_branches_pkey |            57344
 2017-02-04 13:06:17.493708+01 | 1486209977.49371 | pgbench_tellers_pkey  |           245760
 2017-02-04 13:06:17.493708+01 | 1486209977.49371 | pgbench_accounts_pkey |        224641024

 2017-02-04 13:06:18.575567+01 | 1486209978.57557 | pgbench_branches_pkey |            57344
 2017-02-04 13:06:18.575567+01 | 1486209978.57557 | pgbench_tellers_pkey  |           245760
 2017-02-04 13:06:18.575567+01 | 1486209978.57557 | pgbench_accounts_pkey |        224641024

 2017-02-04 13:06:19.65734+01 | 1486209979.65734 | pgbench_branches_pkey |            57344
 2017-02-04 13:06:19.65734+01 | 1486209979.65734 | pgbench_tellers_pkey  |           245760
 2017-02-04 13:06:19.65734+01 | 1486209979.65734 | pgbench_accounts_pkey |        224641024

 2017-02-04 13:06:20.742869+01 | 1486209980.74287 | pgbench_branches_pkey |            57344
 2017-02-04 13:06:20.742869+01 | 1486209980.74287 | pgbench_tellers_pkey  |           245760
 2017-02-04 13:06:20.742869+01 | 1486209980.74287 | pgbench_accounts_pkey |        224641024

 2017-02-04 13:06:21.82955+01 | 1486209981.82955 | pgbench_branches_pkey |            57344
 2017-02-04 13:06:21.82955+01 | 1486209981.82955 | pgbench_tellers_pkey  |           245760
 2017-02-04 13:06:21.82955+01 | 1486209981.82955 | pgbench_accounts_pkey |        224641024

 2017-02-04 13:06:22.90589+01 | 1486209982.90589 | pgbench_branches_pkey |            57344
 2017-02-04 13:06:22.90589+01 | 1486209982.90589 | pgbench_tellers_pkey  |           245760
 2017-02-04 13:06:22.90589+01 | 1486209982.90589 | pgbench_accounts_pkey |        224641024

 2017-02-04 13:06:23.987804+01 | 1486209983.9878 | pgbench_branches_pkey |            57344
 2017-02-04 13:06:23.987804+01 | 1486209983.9878 | pgbench_tellers_pkey  |           245760
 2017-02-04 13:06:23.987804+01 | 1486209983.9878 | pgbench_accounts_pkey |        224641024

 2017-02-04 13:06:25.065173+01 | 1486209985.06517 | pgbench_branches_pkey |            57344
 2017-02-04 13:06:25.065173+01 | 1486209985.06517 | pgbench_tellers_pkey  |           245760
 2017-02-04 13:06:25.065173+01 | 1486209985.06517 | pgbench_accounts_pkey |        224641024

 2017-02-04 13:06:26.144535+01 | 1486209986.14454 | pgbench_branches_pkey |            57344
 2017-02-04 13:06:26.144535+01 | 1486209986.14454 | pgbench_tellers_pkey  |           245760
 2017-02-04 13:06:26.144535+01 | 1486209986.14454 | pgbench_accounts_pkey |        224641024

 2017-02-04 13:06:27.223403+01 | 1486209987.2234 | pgbench_branches_pkey |            57344
 2017-02-04 13:06:27.223403+01 | 1486209987.2234 | pgbench_tellers_pkey  |           245760
 2017-02-04 13:06:27.223403+01 | 1486209987.2234 | pgbench_accounts_pkey |        224641024

 2017-02-04 13:06:28.30805+01 | 1486209988.30805 | pgbench_branches_pkey |            57344
 2017-02-04 13:06:28.30805+01 | 1486209988.30805 | pgbench_tellers_pkey  |           245760
 2017-02-04 13:06:28.30805+01 | 1486209988.30805 | pgbench_accounts_pkey |        224641024

 2017-02-04 13:06:29.38396+01 | 1486209989.38396 | pgbench_branches_pkey |            57344
 2017-02-04 13:06:29.38396+01 | 1486209989.38396 | pgbench_tellers_pkey  |           245760
 2017-02-04 13:06:29.38396+01 | 1486209989.38396 | pgbench_accounts_pkey |        224641024

 2017-02-04 13:06:30.467832+01 | 1486209990.46783 | pgbench_branches_pkey |            57344
 2017-02-04 13:06:30.467832+01 | 1486209990.46783 | pgbench_tellers_pkey  |           245760
 2017-02-04 13:06:30.467832+01 | 1486209990.46783 | pgbench_accounts_pkey |        224641024

 2017-02-04 13:06:31.546358+01 | 1486209991.54636 | pgbench_branches_pkey |            57344
 2017-02-04 13:06:31.546358+01 | 1486209991.54636 | pgbench_tellers_pkey  |           245760
 2017-02-04 13:06:31.546358+01 | 1486209991.54636 | pgbench_accounts_pkey |        224641024

 2017-02-04 13:06:32.622732+01 | 1486209992.62273 | pgbench_branches_pkey |            57344
 2017-02-04 13:06:32.622732+01 | 1486209992.62273 | pgbench_tellers_pkey  |           245760
 2017-02-04 13:06:32.622732+01 | 1486209992.62273 | pgbench_accounts_pkey |        224641024

 2017-02-04 13:06:33.707329+01 | 1486209993.70733 | pgbench_branches_pkey |            57344
 2017-02-04 13:06:33.707329+01 | 1486209993.70733 | pgbench_tellers_pkey  |           245760
 2017-02-04 13:06:33.707329+01 | 1486209993.70733 | pgbench_accounts_pkey |        224641024

 2017-02-04 13:06:34.782905+01 | 1486209994.78291 | pgbench_branches_pkey |            57344
 2017-02-04 13:06:34.782905+01 | 1486209994.78291 | pgbench_tellers_pkey  |           245760
 2017-02-04 13:06:34.782905+01 | 1486209994.78291 | pgbench_accounts_pkey |        224641024

 2017-02-04 13:06:35.860733+01 | 1486209995.86073 | pgbench_branches_pkey |            57344
 2017-02-04 13:06:35.860733+01 | 1486209995.86073 | pgbench_tellers_pkey  |           245760
 2017-02-04 13:06:35.860733+01 | 1486209995.86073 | pgbench_accounts_pkey |        224641024

 2017-02-04 13:06:36.934623+01 | 1486209996.93462 | pgbench_branches_pkey |            57344
 2017-02-04 13:06:36.934623+01 | 1486209996.93462 | pgbench_tellers_pkey  |           245760
 2017-02-04 13:06:36.934623+01 | 1486209996.93462 | pgbench_accounts_pkey |        224641024

 2017-02-04 13:06:38.018014+01 | 1486209998.01801 | pgbench_branches_pkey |            57344
 2017-02-04 13:06:38.018014+01 | 1486209998.01801 | pgbench_tellers_pkey  |           245760
 2017-02-04 13:06:38.018014+01 | 1486209998.01801 | pgbench_accounts_pkey |        224641024

 2017-02-04 13:06:39.096255+01 | 1486209999.09626 | pgbench_branches_pkey |            57344
 2017-02-04 13:06:39.096255+01 | 1486209999.09626 | pgbench_tellers_pkey  |           245760
 2017-02-04 13:06:39.096255+01 | 1486209999.09626 | pgbench_accounts_pkey |        224641024

 2017-02-04 13:06:40.170019+01 | 1486210000.17002 | pgbench_branches_pkey |            57344
 2017-02-04 13:06:40.170019+01 | 1486210000.17002 | pgbench_tellers_pkey  |           245760
 2017-02-04 13:06:40.170019+01 | 1486210000.17002 | pgbench_accounts_pkey |        224641024

 2017-02-04 13:06:41.244046+01 | 1486210001.24405 | pgbench_branches_pkey |            57344
 2017-02-04 13:06:41.244046+01 | 1486210001.24405 | pgbench_tellers_pkey  |           245760
 2017-02-04 13:06:41.244046+01 | 1486210001.24405 | pgbench_accounts_pkey |        224641024

 2017-02-04 13:06:42.317505+01 | 1486210002.3175 | pgbench_branches_pkey |            57344
 2017-02-04 13:06:42.317505+01 | 1486210002.3175 | pgbench_tellers_pkey  |           245760
 2017-02-04 13:06:42.317505+01 | 1486210002.3175 | pgbench_accounts_pkey |        224641024

 2017-02-04 13:06:43.394157+01 | 1486210003.39416 | pgbench_branches_pkey |            57344
 2017-02-04 13:06:43.394157+01 | 1486210003.39416 | pgbench_tellers_pkey  |           245760
 2017-02-04 13:06:43.394157+01 | 1486210003.39416 | pgbench_accounts_pkey |        224641024

 2017-02-04 13:06:44.472396+01 | 1486210004.4724 | pgbench_branches_pkey |            57344
 2017-02-04 13:06:44.472396+01 | 1486210004.4724 | pgbench_tellers_pkey  |           245760
 2017-02-04 13:06:44.472396+01 | 1486210004.4724 | pgbench_accounts_pkey |        224641024

 2017-02-04 13:06:45.551499+01 | 1486210005.5515 | pgbench_branches_pkey |            57344
 2017-02-04 13:06:45.551499+01 | 1486210005.5515 | pgbench_tellers_pkey  |           245760
 2017-02-04 13:06:45.551499+01 | 1486210005.5515 | pgbench_accounts_pkey |        224641024

 2017-02-04 13:06:46.626095+01 | 1486210006.6261 | pgbench_branches_pkey |            57344
 2017-02-04 13:06:46.626095+01 | 1486210006.6261 | pgbench_tellers_pkey  |           245760
 2017-02-04 13:06:46.626095+01 | 1486210006.6261 | pgbench_accounts_pkey |        224641024

 2017-02-04 13:06:47.706068+01 | 1486210007.70607 | pgbench_branches_pkey |            57344
 2017-02-04 13:06:47.706068+01 | 1486210007.70607 | pgbench_tellers_pkey  |           245760
 2017-02-04 13:06:47.706068+01 | 1486210007.70607 | pgbench_accounts_pkey |        224641024

 2017-02-04 13:06:48.779908+01 | 1486210008.77991 | pgbench_branches_pkey |            57344
 2017-02-04 13:06:48.779908+01 | 1486210008.77991 | pgbench_tellers_pkey  |           245760
 2017-02-04 13:06:48.779908+01 | 1486210008.77991 | pgbench_accounts_pkey |        224641024

 2017-02-04 13:06:49.856928+01 | 1486210009.85693 | pgbench_branches_pkey |            57344
 2017-02-04 13:06:49.856928+01 | 1486210009.85693 | pgbench_tellers_pkey  |           245760
 2017-02-04 13:06:49.856928+01 | 1486210009.85693 | pgbench_accounts_pkey |        224641024

 2017-02-04 13:06:50.93329+01 | 1486210010.93329 | pgbench_branches_pkey |            57344
 2017-02-04 13:06:50.93329+01 | 1486210010.93329 | pgbench_tellers_pkey  |           245760
 2017-02-04 13:06:50.93329+01 | 1486210010.93329 | pgbench_accounts_pkey |        224641024

 2017-02-04 13:06:52.013243+01 | 1486210012.01324 | pgbench_branches_pkey |            57344
 2017-02-04 13:06:52.013243+01 | 1486210012.01324 | pgbench_tellers_pkey  |           245760
 2017-02-04 13:06:52.013243+01 | 1486210012.01324 | pgbench_accounts_pkey |        224641024

 2017-02-04 13:06:53.092354+01 | 1486210013.09235 | pgbench_branches_pkey |            57344
 2017-02-04 13:06:53.092354+01 | 1486210013.09235 | pgbench_tellers_pkey  |           245760
 2017-02-04 13:06:53.092354+01 | 1486210013.09235 | pgbench_accounts_pkey |        224641024

 2017-02-04 13:06:54.168231+01 | 1486210014.16823 | pgbench_branches_pkey |            57344
 2017-02-04 13:06:54.168231+01 | 1486210014.16823 | pgbench_tellers_pkey  |           245760
 2017-02-04 13:06:54.168231+01 | 1486210014.16823 | pgbench_accounts_pkey |        224641024

 2017-02-04 13:06:55.24352+01 | 1486210015.24352 | pgbench_branches_pkey |            57344
 2017-02-04 13:06:55.24352+01 | 1486210015.24352 | pgbench_tellers_pkey  |           245760
 2017-02-04 13:06:55.24352+01 | 1486210015.24352 | pgbench_accounts_pkey |        224641024

 2017-02-04 13:06:56.314699+01 | 1486210016.3147 | pgbench_branches_pkey |            57344
 2017-02-04 13:06:56.314699+01 | 1486210016.3147 | pgbench_tellers_pkey  |           245760
 2017-02-04 13:06:56.314699+01 | 1486210016.3147 | pgbench_accounts_pkey |        224641024

 2017-02-04 13:06:57.393751+01 | 1486210017.39375 | pgbench_branches_pkey |            57344
 2017-02-04 13:06:57.393751+01 | 1486210017.39375 | pgbench_tellers_pkey  |           245760
 2017-02-04 13:06:57.393751+01 | 1486210017.39375 | pgbench_accounts_pkey |        224641024

 2017-02-04 13:06:58.481976+01 | 1486210018.48198 | pgbench_branches_pkey |            57344
 2017-02-04 13:06:58.481976+01 | 1486210018.48198 | pgbench_tellers_pkey  |           245760
 2017-02-04 13:06:58.481976+01 | 1486210018.48198 | pgbench_accounts_pkey |        224641024

 2017-02-04 13:06:59.574679+01 | 1486210019.57468 | pgbench_branches_pkey |            57344
 2017-02-04 13:06:59.574679+01 | 1486210019.57468 | pgbench_tellers_pkey  |           245760
 2017-02-04 13:06:59.574679+01 | 1486210019.57468 | pgbench_accounts_pkey |        224641024

 2017-02-04 13:07:00.660447+01 | 1486210020.66045 | pgbench_branches_pkey |            57344
 2017-02-04 13:07:00.660447+01 | 1486210020.66045 | pgbench_tellers_pkey  |           245760
 2017-02-04 13:07:00.660447+01 | 1486210020.66045 | pgbench_accounts_pkey |        224641024

 2017-02-04 13:07:01.730116+01 | 1486210021.73012 | pgbench_branches_pkey |            57344
 2017-02-04 13:07:01.730116+01 | 1486210021.73012 | pgbench_tellers_pkey  |           245760
 2017-02-04 13:07:01.730116+01 | 1486210021.73012 | pgbench_accounts_pkey |        224641024

 2017-02-04 13:07:02.804996+01 | 1486210022.805 | pgbench_branches_pkey |            57344
 2017-02-04 13:07:02.804996+01 | 1486210022.805 | pgbench_tellers_pkey  |           245760
 2017-02-04 13:07:02.804996+01 | 1486210022.805 | pgbench_accounts_pkey |        224641024

 2017-02-04 13:07:03.888939+01 | 1486210023.88894 | pgbench_branches_pkey |            57344
 2017-02-04 13:07:03.888939+01 | 1486210023.88894 | pgbench_tellers_pkey  |           245760
 2017-02-04 13:07:03.888939+01 | 1486210023.88894 | pgbench_accounts_pkey |        224641024

 2017-02-04 13:07:04.969159+01 | 1486210024.96916 | pgbench_branches_pkey |            57344
 2017-02-04 13:07:04.969159+01 | 1486210024.96916 | pgbench_tellers_pkey  |           245760
 2017-02-04 13:07:04.969159+01 | 1486210024.96916 | pgbench_accounts_pkey |        224641024

 2017-02-04 13:07:06.045769+01 | 1486210026.04577 | pgbench_branches_pkey |            57344
 2017-02-04 13:07:06.045769+01 | 1486210026.04577 | pgbench_tellers_pkey  |           245760
 2017-02-04 13:07:06.045769+01 | 1486210026.04577 | pgbench_accounts_pkey |        224641024

 2017-02-04 13:07:07.127004+01 | 1486210027.127 | pgbench_branches_pkey |            57344
 2017-02-04 13:07:07.127004+01 | 1486210027.127 | pgbench_tellers_pkey  |           245760
 2017-02-04 13:07:07.127004+01 | 1486210027.127 | pgbench_accounts_pkey |        224641024

 2017-02-04 13:07:08.217544+01 | 1486210028.21754 | pgbench_branches_pkey |            57344
 2017-02-04 13:07:08.217544+01 | 1486210028.21754 | pgbench_tellers_pkey  |           245760
 2017-02-04 13:07:08.217544+01 | 1486210028.21754 | pgbench_accounts_pkey |        224641024

 2017-02-04 13:07:09.298003+01 | 1486210029.298 | pgbench_branches_pkey |            57344
 2017-02-04 13:07:09.298003+01 | 1486210029.298 | pgbench_tellers_pkey  |           245760
 2017-02-04 13:07:09.298003+01 | 1486210029.298 | pgbench_accounts_pkey |        224641024

 2017-02-04 13:07:10.372503+01 | 1486210030.3725 | pgbench_branches_pkey |            57344
 2017-02-04 13:07:10.372503+01 | 1486210030.3725 | pgbench_tellers_pkey  |           245760
 2017-02-04 13:07:10.372503+01 | 1486210030.3725 | pgbench_accounts_pkey |        224641024

 2017-02-04 13:07:11.449131+01 | 1486210031.44913 | pgbench_branches_pkey |            57344
 2017-02-04 13:07:11.449131+01 | 1486210031.44913 | pgbench_tellers_pkey  |           245760
 2017-02-04 13:07:11.449131+01 | 1486210031.44913 | pgbench_accounts_pkey |        224641024

 2017-02-04 13:07:12.528371+01 | 1486210032.52837 | pgbench_branches_pkey |            57344
 2017-02-04 13:07:12.528371+01 | 1486210032.52837 | pgbench_tellers_pkey  |           245760
 2017-02-04 13:07:12.528371+01 | 1486210032.52837 | pgbench_accounts_pkey |        224641024

 2017-02-04 13:07:13.60118+01 | 1486210033.60118 | pgbench_branches_pkey |            57344
 2017-02-04 13:07:13.60118+01 | 1486210033.60118 | pgbench_tellers_pkey  |           245760
 2017-02-04 13:07:13.60118+01 | 1486210033.60118 | pgbench_accounts_pkey |        224641024

 2017-02-04 13:07:14.677647+01 | 1486210034.67765 | pgbench_branches_pkey |            57344
 2017-02-04 13:07:14.677647+01 | 1486210034.67765 | pgbench_tellers_pkey  |           245760
 2017-02-04 13:07:14.677647+01 | 1486210034.67765 | pgbench_accounts_pkey |        224641024

 2017-02-04 13:07:15.761461+01 | 1486210035.76146 | pgbench_branches_pkey |            57344
 2017-02-04 13:07:15.761461+01 | 1486210035.76146 | pgbench_tellers_pkey  |           245760
 2017-02-04 13:07:15.761461+01 | 1486210035.76146 | pgbench_accounts_pkey |        224641024

 2017-02-04 13:07:16.845778+01 | 1486210036.84578 | pgbench_branches_pkey |            57344
 2017-02-04 13:07:16.845778+01 | 1486210036.84578 | pgbench_tellers_pkey  |           245760
 2017-02-04 13:07:16.845778+01 | 1486210036.84578 | pgbench_accounts_pkey |        224641024

 2017-02-04 13:07:17.924299+01 | 1486210037.9243 | pgbench_branches_pkey |            57344
 2017-02-04 13:07:17.924299+01 | 1486210037.9243 | pgbench_tellers_pkey  |           245760
 2017-02-04 13:07:17.924299+01 | 1486210037.9243 | pgbench_accounts_pkey |        224641024

 2017-02-04 13:07:19.002985+01 | 1486210039.00299 | pgbench_branches_pkey |            57344
 2017-02-04 13:07:19.002985+01 | 1486210039.00299 | pgbench_tellers_pkey  |           245760
 2017-02-04 13:07:19.002985+01 | 1486210039.00299 | pgbench_accounts_pkey |        224641024

 2017-02-04 13:07:20.090319+01 | 1486210040.09032 | pgbench_branches_pkey |            57344
 2017-02-04 13:07:20.090319+01 | 1486210040.09032 | pgbench_tellers_pkey  |           245760
 2017-02-04 13:07:20.090319+01 | 1486210040.09032 | pgbench_accounts_pkey |        224641024

 2017-02-04 13:07:21.17121+01 | 1486210041.17121 | pgbench_branches_pkey |            57344
 2017-02-04 13:07:21.17121+01 | 1486210041.17121 | pgbench_tellers_pkey  |           245760
 2017-02-04 13:07:21.17121+01 | 1486210041.17121 | pgbench_accounts_pkey |        224641024

 2017-02-04 13:07:22.248311+01 | 1486210042.24831 | pgbench_branches_pkey |            57344
 2017-02-04 13:07:22.248311+01 | 1486210042.24831 | pgbench_tellers_pkey  |           245760
 2017-02-04 13:07:22.248311+01 | 1486210042.24831 | pgbench_accounts_pkey |        224641024

 2017-02-04 13:07:23.334478+01 | 1486210043.33448 | pgbench_branches_pkey |            57344
 2017-02-04 13:07:23.334478+01 | 1486210043.33448 | pgbench_tellers_pkey  |           245760
 2017-02-04 13:07:23.334478+01 | 1486210043.33448 | pgbench_accounts_pkey |        224641024

 2017-02-04 13:07:24.423352+01 | 1486210044.42335 | pgbench_branches_pkey |            57344
 2017-02-04 13:07:24.423352+01 | 1486210044.42335 | pgbench_tellers_pkey  |           245760
 2017-02-04 13:07:24.423352+01 | 1486210044.42335 | pgbench_accounts_pkey |        224641024

 2017-02-04 13:07:25.500725+01 | 1486210045.50073 | pgbench_branches_pkey |            57344
 2017-02-04 13:07:25.500725+01 | 1486210045.50073 | pgbench_tellers_pkey  |           245760
 2017-02-04 13:07:25.500725+01 | 1486210045.50073 | pgbench_accounts_pkey |        224641024

 2017-02-04 13:07:26.589099+01 | 1486210046.5891 | pgbench_branches_pkey |            57344
 2017-02-04 13:07:26.589099+01 | 1486210046.5891 | pgbench_tellers_pkey  |           245760
 2017-02-04 13:07:26.589099+01 | 1486210046.5891 | pgbench_accounts_pkey |        224641024

 2017-02-04 13:07:27.672992+01 | 1486210047.67299 | pgbench_branches_pkey |            57344
 2017-02-04 13:07:27.672992+01 | 1486210047.67299 | pgbench_tellers_pkey  |           245760
 2017-02-04 13:07:27.672992+01 | 1486210047.67299 | pgbench_accounts_pkey |        224641024

 2017-02-04 13:07:28.75409+01 | 1486210048.75409 | pgbench_branches_pkey |            57344
 2017-02-04 13:07:28.75409+01 | 1486210048.75409 | pgbench_tellers_pkey  |           245760
 2017-02-04 13:07:28.75409+01 | 1486210048.75409 | pgbench_accounts_pkey |        224641024

 2017-02-04 13:07:29.841086+01 | 1486210049.84109 | pgbench_branches_pkey |            57344
 2017-02-04 13:07:29.841086+01 | 1486210049.84109 | pgbench_tellers_pkey  |           245760
 2017-02-04 13:07:29.841086+01 | 1486210049.84109 | pgbench_accounts_pkey |        224641024

 2017-02-04 13:07:30.923031+01 | 1486210050.92303 | pgbench_branches_pkey |            57344
 2017-02-04 13:07:30.923031+01 | 1486210050.92303 | pgbench_tellers_pkey  |           245760
 2017-02-04 13:07:30.923031+01 | 1486210050.92303 | pgbench_accounts_pkey |        224641024

 2017-02-04 13:07:32.00566+01 | 1486210052.00566 | pgbench_branches_pkey |            57344
 2017-02-04 13:07:32.00566+01 | 1486210052.00566 | pgbench_tellers_pkey  |           245760
 2017-02-04 13:07:32.00566+01 | 1486210052.00566 | pgbench_accounts_pkey |        224641024

 2017-02-04 13:07:33.083357+01 | 1486210053.08336 | pgbench_branches_pkey |            57344
 2017-02-04 13:07:33.083357+01 | 1486210053.08336 | pgbench_tellers_pkey  |           245760
 2017-02-04 13:07:33.083357+01 | 1486210053.08336 | pgbench_accounts_pkey |        224641024

 2017-02-04 13:07:34.147547+01 | 1486210054.14755 | pgbench_branches_pkey |            57344
 2017-02-04 13:07:34.147547+01 | 1486210054.14755 | pgbench_tellers_pkey  |           245760
 2017-02-04 13:07:34.147547+01 | 1486210054.14755 | pgbench_accounts_pkey |        224641024

 2017-02-04 13:07:35.228377+01 | 1486210055.22838 | pgbench_branches_pkey |            57344
 2017-02-04 13:07:35.228377+01 | 1486210055.22838 | pgbench_tellers_pkey  |           245760
 2017-02-04 13:07:35.228377+01 | 1486210055.22838 | pgbench_accounts_pkey |        224641024

 2017-02-04 13:07:36.303944+01 | 1486210056.30394 | pgbench_branches_pkey |            57344
 2017-02-04 13:07:36.303944+01 | 1486210056.30394 | pgbench_tellers_pkey  |           245760
 2017-02-04 13:07:36.303944+01 | 1486210056.30394 | pgbench_accounts_pkey |        224641024

 2017-02-04 13:07:37.386641+01 | 1486210057.38664 | pgbench_branches_pkey |            57344
 2017-02-04 13:07:37.386641+01 | 1486210057.38664 | pgbench_tellers_pkey  |           245760
 2017-02-04 13:07:37.386641+01 | 1486210057.38664 | pgbench_accounts_pkey |        224641024

 2017-02-04 13:07:38.458054+01 | 1486210058.45805 | pgbench_branches_pkey |            57344
 2017-02-04 13:07:38.458054+01 | 1486210058.45805 | pgbench_tellers_pkey  |           245760
 2017-02-04 13:07:38.458054+01 | 1486210058.45805 | pgbench_accounts_pkey |        224641024

 2017-02-04 13:07:39.533393+01 | 1486210059.53339 | pgbench_branches_pkey |            57344
 2017-02-04 13:07:39.533393+01 | 1486210059.53339 | pgbench_tellers_pkey  |           245760
 2017-02-04 13:07:39.533393+01 | 1486210059.53339 | pgbench_accounts_pkey |        224641024

 2017-02-04 13:07:40.608793+01 | 1486210060.60879 | pgbench_branches_pkey |            57344
 2017-02-04 13:07:40.608793+01 | 1486210060.60879 | pgbench_tellers_pkey  |           245760
 2017-02-04 13:07:40.608793+01 | 1486210060.60879 | pgbench_accounts_pkey |        224641024

 2017-02-04 13:07:41.692441+01 | 1486210061.69244 | pgbench_branches_pkey |            57344
 2017-02-04 13:07:41.692441+01 | 1486210061.69244 | pgbench_tellers_pkey  |           245760
 2017-02-04 13:07:41.692441+01 | 1486210061.69244 | pgbench_accounts_pkey |        224641024

 2017-02-04 13:07:42.770091+01 | 1486210062.77009 | pgbench_branches_pkey |            57344
 2017-02-04 13:07:42.770091+01 | 1486210062.77009 | pgbench_tellers_pkey  |           245760
 2017-02-04 13:07:42.770091+01 | 1486210062.77009 | pgbench_accounts_pkey |        224641024

 2017-02-04 13:07:43.846233+01 | 1486210063.84623 | pgbench_branches_pkey |            57344
 2017-02-04 13:07:43.846233+01 | 1486210063.84623 | pgbench_tellers_pkey  |           245760
 2017-02-04 13:07:43.846233+01 | 1486210063.84623 | pgbench_accounts_pkey |        224641024

 2017-02-04 13:07:44.920652+01 | 1486210064.92065 | pgbench_branches_pkey |            57344
 2017-02-04 13:07:44.920652+01 | 1486210064.92065 | pgbench_tellers_pkey  |           245760
 2017-02-04 13:07:44.920652+01 | 1486210064.92065 | pgbench_accounts_pkey |        224641024

 2017-02-04 13:07:45.997092+01 | 1486210065.99709 | pgbench_branches_pkey |            57344
 2017-02-04 13:07:45.997092+01 | 1486210065.99709 | pgbench_tellers_pkey  |           245760
 2017-02-04 13:07:45.997092+01 | 1486210065.99709 | pgbench_accounts_pkey |        224641024

 2017-02-04 13:07:47.0781+01 | 1486210067.0781 | pgbench_branches_pkey |            57344
 2017-02-04 13:07:47.0781+01 | 1486210067.0781 | pgbench_tellers_pkey  |           245760
 2017-02-04 13:07:47.0781+01 | 1486210067.0781 | pgbench_accounts_pkey |        224641024

 2017-02-04 13:07:48.15548+01 | 1486210068.15548 | pgbench_branches_pkey |            57344
 2017-02-04 13:07:48.15548+01 | 1486210068.15548 | pgbench_tellers_pkey  |           245760
 2017-02-04 13:07:48.15548+01 | 1486210068.15548 | pgbench_accounts_pkey |        224641024

 2017-02-04 13:07:49.235836+01 | 1486210069.23584 | pgbench_branches_pkey |            57344
 2017-02-04 13:07:49.235836+01 | 1486210069.23584 | pgbench_tellers_pkey  |           245760
 2017-02-04 13:07:49.235836+01 | 1486210069.23584 | pgbench_accounts_pkey |        224641024

 2017-02-04 13:07:50.313919+01 | 1486210070.31392 | pgbench_branches_pkey |            57344
 2017-02-04 13:07:50.313919+01 | 1486210070.31392 | pgbench_tellers_pkey  |           245760
 2017-02-04 13:07:50.313919+01 | 1486210070.31392 | pgbench_accounts_pkey |        224641024

 2017-02-04 13:07:51.386598+01 | 1486210071.3866 | pgbench_branches_pkey |            57344
 2017-02-04 13:07:51.386598+01 | 1486210071.3866 | pgbench_tellers_pkey  |           245760
 2017-02-04 13:07:51.386598+01 | 1486210071.3866 | pgbench_accounts_pkey |        224641024

 2017-02-04 13:07:52.456563+01 | 1486210072.45656 | pgbench_branches_pkey |            57344
 2017-02-04 13:07:52.456563+01 | 1486210072.45656 | pgbench_tellers_pkey  |           245760
 2017-02-04 13:07:52.456563+01 | 1486210072.45656 | pgbench_accounts_pkey |        224641024

 2017-02-04 13:07:53.543963+01 | 1486210073.54396 | pgbench_branches_pkey |            57344
 2017-02-04 13:07:53.543963+01 | 1486210073.54396 | pgbench_tellers_pkey  |           245760
 2017-02-04 13:07:53.543963+01 | 1486210073.54396 | pgbench_accounts_pkey |        224641024

 2017-02-04 13:07:54.62549+01 | 1486210074.62549 | pgbench_branches_pkey |            57344
 2017-02-04 13:07:54.62549+01 | 1486210074.62549 | pgbench_tellers_pkey  |           245760
 2017-02-04 13:07:54.62549+01 | 1486210074.62549 | pgbench_accounts_pkey |        224641024

 2017-02-04 13:07:55.703255+01 | 1486210075.70325 | pgbench_branches_pkey |            57344
 2017-02-04 13:07:55.703255+01 | 1486210075.70325 | pgbench_tellers_pkey  |           245760
 2017-02-04 13:07:55.703255+01 | 1486210075.70325 | pgbench_accounts_pkey |        224641024

 2017-02-04 13:07:56.784178+01 | 1486210076.78418 | pgbench_branches_pkey |            57344
 2017-02-04 13:07:56.784178+01 | 1486210076.78418 | pgbench_tellers_pkey  |           245760
 2017-02-04 13:07:56.784178+01 | 1486210076.78418 | pgbench_accounts_pkey |        224641024

 2017-02-04 13:07:57.858873+01 | 1486210077.85887 | pgbench_branches_pkey |            57344
 2017-02-04 13:07:57.858873+01 | 1486210077.85887 | pgbench_tellers_pkey  |           245760
 2017-02-04 13:07:57.858873+01 | 1486210077.85887 | pgbench_accounts_pkey |        224641024

 2017-02-04 13:07:58.935449+01 | 1486210078.93545 | pgbench_branches_pkey |            57344
 2017-02-04 13:07:58.935449+01 | 1486210078.93545 | pgbench_tellers_pkey  |           245760
 2017-02-04 13:07:58.935449+01 | 1486210078.93545 | pgbench_accounts_pkey |        224641024

 2017-02-04 13:08:00.012429+01 | 1486210080.01243 | pgbench_branches_pkey |            57344
 2017-02-04 13:08:00.012429+01 | 1486210080.01243 | pgbench_tellers_pkey  |           245760
 2017-02-04 13:08:00.012429+01 | 1486210080.01243 | pgbench_accounts_pkey |        224641024

 2017-02-04 13:08:01.091704+01 | 1486210081.0917 | pgbench_branches_pkey |            57344
 2017-02-04 13:08:01.091704+01 | 1486210081.0917 | pgbench_tellers_pkey  |           245760
 2017-02-04 13:08:01.091704+01 | 1486210081.0917 | pgbench_accounts_pkey |        224641024

 2017-02-04 13:08:02.171919+01 | 1486210082.17192 | pgbench_branches_pkey |            57344
 2017-02-04 13:08:02.171919+01 | 1486210082.17192 | pgbench_tellers_pkey  |           245760
 2017-02-04 13:08:02.171919+01 | 1486210082.17192 | pgbench_accounts_pkey |        224641024

 2017-02-04 13:08:03.252736+01 | 1486210083.25274 | pgbench_branches_pkey |            57344
 2017-02-04 13:08:03.252736+01 | 1486210083.25274 | pgbench_tellers_pkey  |           245760
 2017-02-04 13:08:03.252736+01 | 1486210083.25274 | pgbench_accounts_pkey |        224641024

 2017-02-04 13:08:04.33247+01 | 1486210084.33247 | pgbench_branches_pkey |            57344
 2017-02-04 13:08:04.33247+01 | 1486210084.33247 | pgbench_tellers_pkey  |           245760
 2017-02-04 13:08:04.33247+01 | 1486210084.33247 | pgbench_accounts_pkey |        224641024

 2017-02-04 13:08:05.411015+01 | 1486210085.41102 | pgbench_branches_pkey |            57344
 2017-02-04 13:08:05.411015+01 | 1486210085.41102 | pgbench_tellers_pkey  |           245760
 2017-02-04 13:08:05.411015+01 | 1486210085.41102 | pgbench_accounts_pkey |        224641024

 2017-02-04 13:08:06.488697+01 | 1486210086.4887 | pgbench_branches_pkey |            57344
 2017-02-04 13:08:06.488697+01 | 1486210086.4887 | pgbench_tellers_pkey  |           245760
 2017-02-04 13:08:06.488697+01 | 1486210086.4887 | pgbench_accounts_pkey |        224641024

 2017-02-04 13:08:07.564021+01 | 1486210087.56402 | pgbench_branches_pkey |            57344
 2017-02-04 13:08:07.564021+01 | 1486210087.56402 | pgbench_tellers_pkey  |           245760
 2017-02-04 13:08:07.564021+01 | 1486210087.56402 | pgbench_accounts_pkey |        224641024

 2017-02-04 13:08:08.639144+01 | 1486210088.63914 | pgbench_branches_pkey |            57344
 2017-02-04 13:08:08.639144+01 | 1486210088.63914 | pgbench_tellers_pkey  |           245760
 2017-02-04 13:08:08.639144+01 | 1486210088.63914 | pgbench_accounts_pkey |        224641024

 2017-02-04 13:08:09.717887+01 | 1486210089.71789 | pgbench_branches_pkey |            57344
 2017-02-04 13:08:09.717887+01 | 1486210089.71789 | pgbench_tellers_pkey  |           245760
 2017-02-04 13:08:09.717887+01 | 1486210089.71789 | pgbench_accounts_pkey |        224641024

 2017-02-04 13:08:10.80048+01 | 1486210090.80048 | pgbench_branches_pkey |            57344
 2017-02-04 13:08:10.80048+01 | 1486210090.80048 | pgbench_tellers_pkey  |           245760
 2017-02-04 13:08:10.80048+01 | 1486210090.80048 | pgbench_accounts_pkey |        224641024

 2017-02-04 13:08:11.880184+01 | 1486210091.88018 | pgbench_branches_pkey |            57344
 2017-02-04 13:08:11.880184+01 | 1486210091.88018 | pgbench_tellers_pkey  |           245760
 2017-02-04 13:08:11.880184+01 | 1486210091.88018 | pgbench_accounts_pkey |        224641024

 2017-02-04 13:08:12.950186+01 | 1486210092.95019 | pgbench_branches_pkey |            57344
 2017-02-04 13:08:12.950186+01 | 1486210092.95019 | pgbench_tellers_pkey  |           245760
 2017-02-04 13:08:12.950186+01 | 1486210092.95019 | pgbench_accounts_pkey |        224641024

 2017-02-04 13:08:14.033759+01 | 1486210094.03376 | pgbench_branches_pkey |            57344
 2017-02-04 13:08:14.033759+01 | 1486210094.03376 | pgbench_tellers_pkey  |           245760
 2017-02-04 13:08:14.033759+01 | 1486210094.03376 | pgbench_accounts_pkey |        224641024

 2017-02-04 13:08:15.110946+01 | 1486210095.11095 | pgbench_branches_pkey |            57344
 2017-02-04 13:08:15.110946+01 | 1486210095.11095 | pgbench_tellers_pkey  |           245760
 2017-02-04 13:08:15.110946+01 | 1486210095.11095 | pgbench_accounts_pkey |        224641024

 2017-02-04 13:08:16.186645+01 | 1486210096.18665 | pgbench_branches_pkey |            57344
 2017-02-04 13:08:16.186645+01 | 1486210096.18665 | pgbench_tellers_pkey  |           245760
 2017-02-04 13:08:16.186645+01 | 1486210096.18665 | pgbench_accounts_pkey |        224641024

 2017-02-04 13:08:17.272368+01 | 1486210097.27237 | pgbench_branches_pkey |            57344
 2017-02-04 13:08:17.272368+01 | 1486210097.27237 | pgbench_tellers_pkey  |           245760
 2017-02-04 13:08:17.272368+01 | 1486210097.27237 | pgbench_accounts_pkey |        224641024

 2017-02-04 13:08:18.354009+01 | 1486210098.35401 | pgbench_branches_pkey |            57344
 2017-02-04 13:08:18.354009+01 | 1486210098.35401 | pgbench_tellers_pkey  |           245760
 2017-02-04 13:08:18.354009+01 | 1486210098.35401 | pgbench_accounts_pkey |        224641024

 2017-02-04 13:08:19.431078+01 | 1486210099.43108 | pgbench_branches_pkey |            57344
 2017-02-04 13:08:19.431078+01 | 1486210099.43108 | pgbench_tellers_pkey  |           245760
 2017-02-04 13:08:19.431078+01 | 1486210099.43108 | pgbench_accounts_pkey |        224641024

 2017-02-04 13:08:20.505887+01 | 1486210100.50589 | pgbench_branches_pkey |            57344
 2017-02-04 13:08:20.505887+01 | 1486210100.50589 | pgbench_tellers_pkey  |           245760
 2017-02-04 13:08:20.505887+01 | 1486210100.50589 | pgbench_accounts_pkey |        224641024

 2017-02-04 13:08:21.583565+01 | 1486210101.58356 | pgbench_branches_pkey |            57344
 2017-02-04 13:08:21.583565+01 | 1486210101.58356 | pgbench_tellers_pkey  |           245760
 2017-02-04 13:08:21.583565+01 | 1486210101.58356 | pgbench_accounts_pkey |        224641024

 2017-02-04 13:08:22.662256+01 | 1486210102.66226 | pgbench_branches_pkey |            57344
 2017-02-04 13:08:22.662256+01 | 1486210102.66226 | pgbench_tellers_pkey  |           245760
 2017-02-04 13:08:22.662256+01 | 1486210102.66226 | pgbench_accounts_pkey |        224641024

 2017-02-04 13:08:23.74706+01 | 1486210103.74706 | pgbench_branches_pkey |            57344
 2017-02-04 13:08:23.74706+01 | 1486210103.74706 | pgbench_tellers_pkey  |           245760
 2017-02-04 13:08:23.74706+01 | 1486210103.74706 | pgbench_accounts_pkey |        224641024

 2017-02-04 13:08:24.822722+01 | 1486210104.82272 | pgbench_branches_pkey |            57344
 2017-02-04 13:08:24.822722+01 | 1486210104.82272 | pgbench_tellers_pkey  |           245760
 2017-02-04 13:08:24.822722+01 | 1486210104.82272 | pgbench_accounts_pkey |        224641024

 2017-02-04 13:08:25.901716+01 | 1486210105.90172 | pgbench_branches_pkey |            57344
 2017-02-04 13:08:25.901716+01 | 1486210105.90172 | pgbench_tellers_pkey  |           245760
 2017-02-04 13:08:25.901716+01 | 1486210105.90172 | pgbench_accounts_pkey |        224641024

 2017-02-04 13:08:26.978013+01 | 1486210106.97801 | pgbench_branches_pkey |            57344
 2017-02-04 13:08:26.978013+01 | 1486210106.97801 | pgbench_tellers_pkey  |           245760
 2017-02-04 13:08:26.978013+01 | 1486210106.97801 | pgbench_accounts_pkey |        224641024

 2017-02-04 13:08:28.049599+01 | 1486210108.0496 | pgbench_branches_pkey |            57344
 2017-02-04 13:08:28.049599+01 | 1486210108.0496 | pgbench_tellers_pkey  |           245760
 2017-02-04 13:08:28.049599+01 | 1486210108.0496 | pgbench_accounts_pkey |        224641024

 2017-02-04 13:08:29.108035+01 | 1486210109.10804 | pgbench_branches_pkey |            57344
 2017-02-04 13:08:29.108035+01 | 1486210109.10804 | pgbench_tellers_pkey  |           245760
 2017-02-04 13:08:29.108035+01 | 1486210109.10804 | pgbench_accounts_pkey |        224641024

 2017-02-04 13:08:30.186181+01 | 1486210110.18618 | pgbench_branches_pkey |            57344
 2017-02-04 13:08:30.186181+01 | 1486210110.18618 | pgbench_tellers_pkey  |           245760
 2017-02-04 13:08:30.186181+01 | 1486210110.18618 | pgbench_accounts_pkey |        224641024

 2017-02-04 13:08:31.262303+01 | 1486210111.2623 | pgbench_branches_pkey |            57344
 2017-02-04 13:08:31.262303+01 | 1486210111.2623 | pgbench_tellers_pkey  |           245760
 2017-02-04 13:08:31.262303+01 | 1486210111.2623 | pgbench_accounts_pkey |        224641024

 2017-02-04 13:08:32.334652+01 | 1486210112.33465 | pgbench_branches_pkey |            57344
 2017-02-04 13:08:32.334652+01 | 1486210112.33465 | pgbench_tellers_pkey  |           245760
 2017-02-04 13:08:32.334652+01 | 1486210112.33465 | pgbench_accounts_pkey |        224641024

 2017-02-04 13:08:33.406457+01 | 1486210113.40646 | pgbench_branches_pkey |            57344
 2017-02-04 13:08:33.406457+01 | 1486210113.40646 | pgbench_tellers_pkey  |           245760
 2017-02-04 13:08:33.406457+01 | 1486210113.40646 | pgbench_accounts_pkey |        224641024

 2017-02-04 13:08:34.492906+01 | 1486210114.49291 | pgbench_branches_pkey |            57344
 2017-02-04 13:08:34.492906+01 | 1486210114.49291 | pgbench_tellers_pkey  |           245760
 2017-02-04 13:08:34.492906+01 | 1486210114.49291 | pgbench_accounts_pkey |        224641024

 2017-02-04 13:08:35.574654+01 | 1486210115.57465 | pgbench_branches_pkey |            57344
 2017-02-04 13:08:35.574654+01 | 1486210115.57465 | pgbench_tellers_pkey  |           245760
 2017-02-04 13:08:35.574654+01 | 1486210115.57465 | pgbench_accounts_pkey |        224641024

 2017-02-04 13:08:36.660509+01 | 1486210116.66051 | pgbench_branches_pkey |            57344
 2017-02-04 13:08:36.660509+01 | 1486210116.66051 | pgbench_tellers_pkey  |           245760
 2017-02-04 13:08:36.660509+01 | 1486210116.66051 | pgbench_accounts_pkey |        224641024

 2017-02-04 13:08:37.741781+01 | 1486210117.74178 | pgbench_branches_pkey |            57344
 2017-02-04 13:08:37.741781+01 | 1486210117.74178 | pgbench_tellers_pkey  |           245760
 2017-02-04 13:08:37.741781+01 | 1486210117.74178 | pgbench_accounts_pkey |        224641024

 2017-02-04 13:08:38.818058+01 | 1486210118.81806 | pgbench_branches_pkey |            57344
 2017-02-04 13:08:38.818058+01 | 1486210118.81806 | pgbench_tellers_pkey  |           245760
 2017-02-04 13:08:38.818058+01 | 1486210118.81806 | pgbench_accounts_pkey |        224641024

 2017-02-04 13:08:39.886793+01 | 1486210119.88679 | pgbench_branches_pkey |            57344
 2017-02-04 13:08:39.886793+01 | 1486210119.88679 | pgbench_tellers_pkey  |           245760
 2017-02-04 13:08:39.886793+01 | 1486210119.88679 | pgbench_accounts_pkey |        224641024

 2017-02-04 13:08:40.966673+01 | 1486210120.96667 | pgbench_branches_pkey |            57344
 2017-02-04 13:08:40.966673+01 | 1486210120.96667 | pgbench_tellers_pkey  |           245760
 2017-02-04 13:08:40.966673+01 | 1486210120.96667 | pgbench_accounts_pkey |        224641024

 2017-02-04 13:08:42.041649+01 | 1486210122.04165 | pgbench_branches_pkey |            57344
 2017-02-04 13:08:42.041649+01 | 1486210122.04165 | pgbench_tellers_pkey  |           245760
 2017-02-04 13:08:42.041649+01 | 1486210122.04165 | pgbench_accounts_pkey |        224641024

 2017-02-04 13:08:43.125334+01 | 1486210123.12533 | pgbench_branches_pkey |            57344
 2017-02-04 13:08:43.125334+01 | 1486210123.12533 | pgbench_tellers_pkey  |           245760
 2017-02-04 13:08:43.125334+01 | 1486210123.12533 | pgbench_accounts_pkey |        224641024

 2017-02-04 13:08:44.198127+01 | 1486210124.19813 | pgbench_branches_pkey |            57344
 2017-02-04 13:08:44.198127+01 | 1486210124.19813 | pgbench_tellers_pkey  |           245760
 2017-02-04 13:08:44.198127+01 | 1486210124.19813 | pgbench_accounts_pkey |        224641024

 2017-02-04 13:08:45.271527+01 | 1486210125.27153 | pgbench_branches_pkey |            57344
 2017-02-04 13:08:45.271527+01 | 1486210125.27153 | pgbench_tellers_pkey  |           245760
 2017-02-04 13:08:45.271527+01 | 1486210125.27153 | pgbench_accounts_pkey |        224641024

 2017-02-04 13:08:46.343431+01 | 1486210126.34343 | pgbench_branches_pkey |            57344
 2017-02-04 13:08:46.343431+01 | 1486210126.34343 | pgbench_tellers_pkey  |           245760
 2017-02-04 13:08:46.343431+01 | 1486210126.34343 | pgbench_accounts_pkey |        224641024

 2017-02-04 13:08:47.418916+01 | 1486210127.41892 | pgbench_branches_pkey |            57344
 2017-02-04 13:08:47.418916+01 | 1486210127.41892 | pgbench_tellers_pkey  |           245760
 2017-02-04 13:08:47.418916+01 | 1486210127.41892 | pgbench_accounts_pkey |        224641024

 2017-02-04 13:08:48.490665+01 | 1486210128.49066 | pgbench_branches_pkey |            57344
 2017-02-04 13:08:48.490665+01 | 1486210128.49066 | pgbench_tellers_pkey  |           245760
 2017-02-04 13:08:48.490665+01 | 1486210128.49066 | pgbench_accounts_pkey |        224641024

 2017-02-04 13:08:49.563141+01 | 1486210129.56314 | pgbench_branches_pkey |            57344
 2017-02-04 13:08:49.563141+01 | 1486210129.56314 | pgbench_tellers_pkey  |           245760
 2017-02-04 13:08:49.563141+01 | 1486210129.56314 | pgbench_accounts_pkey |        224641024

 2017-02-04 13:08:50.643972+01 | 1486210130.64397 | pgbench_branches_pkey |            57344
 2017-02-04 13:08:50.643972+01 | 1486210130.64397 | pgbench_tellers_pkey  |           245760
 2017-02-04 13:08:50.643972+01 | 1486210130.64397 | pgbench_accounts_pkey |        224641024

 2017-02-04 13:08:51.723859+01 | 1486210131.72386 | pgbench_branches_pkey |            57344
 2017-02-04 13:08:51.723859+01 | 1486210131.72386 | pgbench_tellers_pkey  |           245760
 2017-02-04 13:08:51.723859+01 | 1486210131.72386 | pgbench_accounts_pkey |        224641024

 2017-02-04 13:08:52.811364+01 | 1486210132.81136 | pgbench_branches_pkey |            57344
 2017-02-04 13:08:52.811364+01 | 1486210132.81136 | pgbench_tellers_pkey  |           245760
 2017-02-04 13:08:52.811364+01 | 1486210132.81136 | pgbench_accounts_pkey |        224641024

 2017-02-04 13:08:53.88685+01 | 1486210133.88685 | pgbench_branches_pkey |            57344
 2017-02-04 13:08:53.88685+01 | 1486210133.88685 | pgbench_tellers_pkey  |           245760
 2017-02-04 13:08:53.88685+01 | 1486210133.88685 | pgbench_accounts_pkey |        224641024

 2017-02-04 13:08:54.97555+01 | 1486210134.97555 | pgbench_branches_pkey |            57344
 2017-02-04 13:08:54.97555+01 | 1486210134.97555 | pgbench_tellers_pkey  |           245760
 2017-02-04 13:08:54.97555+01 | 1486210134.97555 | pgbench_accounts_pkey |        224641024

 2017-02-04 13:08:56.052576+01 | 1486210136.05258 | pgbench_branches_pkey |            57344
 2017-02-04 13:08:56.052576+01 | 1486210136.05258 | pgbench_tellers_pkey  |           245760
 2017-02-04 13:08:56.052576+01 | 1486210136.05258 | pgbench_accounts_pkey |        224641024

 2017-02-04 13:08:57.129547+01 | 1486210137.12955 | pgbench_branches_pkey |            57344
 2017-02-04 13:08:57.129547+01 | 1486210137.12955 | pgbench_tellers_pkey  |           245760
 2017-02-04 13:08:57.129547+01 | 1486210137.12955 | pgbench_accounts_pkey |        224641024

 2017-02-04 13:08:58.206885+01 | 1486210138.20689 | pgbench_branches_pkey |            57344
 2017-02-04 13:08:58.206885+01 | 1486210138.20689 | pgbench_tellers_pkey  |           245760
 2017-02-04 13:08:58.206885+01 | 1486210138.20689 | pgbench_accounts_pkey |        224641024

 2017-02-04 13:08:59.283055+01 | 1486210139.28306 | pgbench_branches_pkey |            57344
 2017-02-04 13:08:59.283055+01 | 1486210139.28306 | pgbench_tellers_pkey  |           245760
 2017-02-04 13:08:59.283055+01 | 1486210139.28306 | pgbench_accounts_pkey |        224641024

 2017-02-04 13:09:00.366543+01 | 1486210140.36654 | pgbench_branches_pkey |            57344
 2017-02-04 13:09:00.366543+01 | 1486210140.36654 | pgbench_tellers_pkey  |           245760
 2017-02-04 13:09:00.366543+01 | 1486210140.36654 | pgbench_accounts_pkey |        224641024

 2017-02-04 13:09:01.446122+01 | 1486210141.44612 | pgbench_branches_pkey |            57344
 2017-02-04 13:09:01.446122+01 | 1486210141.44612 | pgbench_tellers_pkey  |           245760
 2017-02-04 13:09:01.446122+01 | 1486210141.44612 | pgbench_accounts_pkey |        224641024

 2017-02-04 13:09:02.532325+01 | 1486210142.53233 | pgbench_branches_pkey |            57344
 2017-02-04 13:09:02.532325+01 | 1486210142.53233 | pgbench_tellers_pkey  |           245760
 2017-02-04 13:09:02.532325+01 | 1486210142.53233 | pgbench_accounts_pkey |        224641024

 2017-02-04 13:09:03.616918+01 | 1486210143.61692 | pgbench_branches_pkey |            57344
 2017-02-04 13:09:03.616918+01 | 1486210143.61692 | pgbench_tellers_pkey  |           245760
 2017-02-04 13:09:03.616918+01 | 1486210143.61692 | pgbench_accounts_pkey |        224641024

 2017-02-04 13:09:04.695625+01 | 1486210144.69563 | pgbench_branches_pkey |            57344
 2017-02-04 13:09:04.695625+01 | 1486210144.69563 | pgbench_tellers_pkey  |           245760
 2017-02-04 13:09:04.695625+01 | 1486210144.69563 | pgbench_accounts_pkey |        224641024

 2017-02-04 13:09:05.772856+01 | 1486210145.77286 | pgbench_branches_pkey |            57344
 2017-02-04 13:09:05.772856+01 | 1486210145.77286 | pgbench_tellers_pkey  |           245760
 2017-02-04 13:09:05.772856+01 | 1486210145.77286 | pgbench_accounts_pkey |        224641024

 2017-02-04 13:09:06.855177+01 | 1486210146.85518 | pgbench_branches_pkey |            57344
 2017-02-04 13:09:06.855177+01 | 1486210146.85518 | pgbench_tellers_pkey  |           245760
 2017-02-04 13:09:06.855177+01 | 1486210146.85518 | pgbench_accounts_pkey |        224641024

 2017-02-04 13:09:07.946335+01 | 1486210147.94634 | pgbench_branches_pkey |            57344
 2017-02-04 13:09:07.946335+01 | 1486210147.94634 | pgbench_tellers_pkey  |           245760
 2017-02-04 13:09:07.946335+01 | 1486210147.94634 | pgbench_accounts_pkey |        224641024

 2017-02-04 13:09:09.030378+01 | 1486210149.03038 | pgbench_branches_pkey |            57344
 2017-02-04 13:09:09.030378+01 | 1486210149.03038 | pgbench_tellers_pkey  |           245760
 2017-02-04 13:09:09.030378+01 | 1486210149.03038 | pgbench_accounts_pkey |        224641024

 2017-02-04 13:09:10.115584+01 | 1486210150.11558 | pgbench_branches_pkey |            57344
 2017-02-04 13:09:10.115584+01 | 1486210150.11558 | pgbench_tellers_pkey  |           245760
 2017-02-04 13:09:10.115584+01 | 1486210150.11558 | pgbench_accounts_pkey |        224641024

 2017-02-04 13:09:11.193827+01 | 1486210151.19383 | pgbench_branches_pkey |            57344
 2017-02-04 13:09:11.193827+01 | 1486210151.19383 | pgbench_tellers_pkey  |           245760
 2017-02-04 13:09:11.193827+01 | 1486210151.19383 | pgbench_accounts_pkey |        224641024

 2017-02-04 13:09:12.271192+01 | 1486210152.27119 | pgbench_branches_pkey |            57344
 2017-02-04 13:09:12.271192+01 | 1486210152.27119 | pgbench_tellers_pkey  |           245760
 2017-02-04 13:09:12.271192+01 | 1486210152.27119 | pgbench_accounts_pkey |        224641024

 2017-02-04 13:09:13.35251+01 | 1486210153.35251 | pgbench_branches_pkey |            57344
 2017-02-04 13:09:13.35251+01 | 1486210153.35251 | pgbench_tellers_pkey  |           245760
 2017-02-04 13:09:13.35251+01 | 1486210153.35251 | pgbench_accounts_pkey |        224641024

 2017-02-04 13:09:14.432899+01 | 1486210154.4329 | pgbench_branches_pkey |            57344
 2017-02-04 13:09:14.432899+01 | 1486210154.4329 | pgbench_tellers_pkey  |           245760
 2017-02-04 13:09:14.432899+01 | 1486210154.4329 | pgbench_accounts_pkey |        224641024

 2017-02-04 13:09:15.506943+01 | 1486210155.50694 | pgbench_branches_pkey |            57344
 2017-02-04 13:09:15.506943+01 | 1486210155.50694 | pgbench_tellers_pkey  |           245760
 2017-02-04 13:09:15.506943+01 | 1486210155.50694 | pgbench_accounts_pkey |        224641024

 2017-02-04 13:09:16.588439+01 | 1486210156.58844 | pgbench_branches_pkey |            57344
 2017-02-04 13:09:16.588439+01 | 1486210156.58844 | pgbench_tellers_pkey  |           245760
 2017-02-04 13:09:16.588439+01 | 1486210156.58844 | pgbench_accounts_pkey |        224641024

 2017-02-04 13:09:17.662111+01 | 1486210157.66211 | pgbench_branches_pkey |            57344
 2017-02-04 13:09:17.662111+01 | 1486210157.66211 | pgbench_tellers_pkey  |           245760
 2017-02-04 13:09:17.662111+01 | 1486210157.66211 | pgbench_accounts_pkey |        224641024

 2017-02-04 13:09:18.74407+01 | 1486210158.74407 | pgbench_branches_pkey |            57344
 2017-02-04 13:09:18.74407+01 | 1486210158.74407 | pgbench_tellers_pkey  |           245760
 2017-02-04 13:09:18.74407+01 | 1486210158.74407 | pgbench_accounts_pkey |        224641024

 2017-02-04 13:09:19.825858+01 | 1486210159.82586 | pgbench_branches_pkey |            57344
 2017-02-04 13:09:19.825858+01 | 1486210159.82586 | pgbench_tellers_pkey  |           245760
 2017-02-04 13:09:19.825858+01 | 1486210159.82586 | pgbench_accounts_pkey |        224641024

 2017-02-04 13:09:20.906946+01 | 1486210160.90695 | pgbench_branches_pkey |            57344
 2017-02-04 13:09:20.906946+01 | 1486210160.90695 | pgbench_tellers_pkey  |           245760
 2017-02-04 13:09:20.906946+01 | 1486210160.90695 | pgbench_accounts_pkey |        224641024

 2017-02-04 13:09:21.990121+01 | 1486210161.99012 | pgbench_branches_pkey |            57344
 2017-02-04 13:09:21.990121+01 | 1486210161.99012 | pgbench_tellers_pkey  |           245760
 2017-02-04 13:09:21.990121+01 | 1486210161.99012 | pgbench_accounts_pkey |        224641024

 2017-02-04 13:09:23.063143+01 | 1486210163.06314 | pgbench_branches_pkey |            57344
 2017-02-04 13:09:23.063143+01 | 1486210163.06314 | pgbench_tellers_pkey  |           245760
 2017-02-04 13:09:23.063143+01 | 1486210163.06314 | pgbench_accounts_pkey |        224641024

 2017-02-04 13:09:24.133392+01 | 1486210164.13339 | pgbench_branches_pkey |            57344
 2017-02-04 13:09:24.133392+01 | 1486210164.13339 | pgbench_tellers_pkey  |           245760
 2017-02-04 13:09:24.133392+01 | 1486210164.13339 | pgbench_accounts_pkey |        224641024

 2017-02-04 13:09:25.211514+01 | 1486210165.21151 | pgbench_branches_pkey |            57344
 2017-02-04 13:09:25.211514+01 | 1486210165.21151 | pgbench_tellers_pkey  |           245760
 2017-02-04 13:09:25.211514+01 | 1486210165.21151 | pgbench_accounts_pkey |        224641024

 2017-02-04 13:09:26.280963+01 | 1486210166.28096 | pgbench_branches_pkey |            57344
 2017-02-04 13:09:26.280963+01 | 1486210166.28096 | pgbench_tellers_pkey  |           245760
 2017-02-04 13:09:26.280963+01 | 1486210166.28096 | pgbench_accounts_pkey |        224641024

 2017-02-04 13:09:27.35262+01 | 1486210167.35262 | pgbench_branches_pkey |            57344
 2017-02-04 13:09:27.35262+01 | 1486210167.35262 | pgbench_tellers_pkey  |           245760
 2017-02-04 13:09:27.35262+01 | 1486210167.35262 | pgbench_accounts_pkey |        224641024

 2017-02-04 13:09:28.431403+01 | 1486210168.4314 | pgbench_branches_pkey |            57344
 2017-02-04 13:09:28.431403+01 | 1486210168.4314 | pgbench_tellers_pkey  |           245760
 2017-02-04 13:09:28.431403+01 | 1486210168.4314 | pgbench_accounts_pkey |        224641024

 2017-02-04 13:09:29.501022+01 | 1486210169.50102 | pgbench_branches_pkey |            57344
 2017-02-04 13:09:29.501022+01 | 1486210169.50102 | pgbench_tellers_pkey  |           245760
 2017-02-04 13:09:29.501022+01 | 1486210169.50102 | pgbench_accounts_pkey |        224641024

 2017-02-04 13:09:30.57398+01 | 1486210170.57398 | pgbench_branches_pkey |            57344
 2017-02-04 13:09:30.57398+01 | 1486210170.57398 | pgbench_tellers_pkey  |           245760
 2017-02-04 13:09:30.57398+01 | 1486210170.57398 | pgbench_accounts_pkey |        224641024

 2017-02-04 13:09:31.648953+01 | 1486210171.64895 | pgbench_branches_pkey |            57344
 2017-02-04 13:09:31.648953+01 | 1486210171.64895 | pgbench_tellers_pkey  |           245760
 2017-02-04 13:09:31.648953+01 | 1486210171.64895 | pgbench_accounts_pkey |        224641024

 2017-02-04 13:09:32.732332+01 | 1486210172.73233 | pgbench_branches_pkey |            57344
 2017-02-04 13:09:32.732332+01 | 1486210172.73233 | pgbench_tellers_pkey  |           245760
 2017-02-04 13:09:32.732332+01 | 1486210172.73233 | pgbench_accounts_pkey |        224641024

 2017-02-04 13:09:33.810156+01 | 1486210173.81016 | pgbench_branches_pkey |            57344
 2017-02-04 13:09:33.810156+01 | 1486210173.81016 | pgbench_tellers_pkey  |           245760
 2017-02-04 13:09:33.810156+01 | 1486210173.81016 | pgbench_accounts_pkey |        224641024

 2017-02-04 13:09:34.883407+01 | 1486210174.88341 | pgbench_branches_pkey |            57344
 2017-02-04 13:09:34.883407+01 | 1486210174.88341 | pgbench_tellers_pkey  |           245760
 2017-02-04 13:09:34.883407+01 | 1486210174.88341 | pgbench_accounts_pkey |        224641024

 2017-02-04 13:09:35.965494+01 | 1486210175.96549 | pgbench_branches_pkey |            57344
 2017-02-04 13:09:35.965494+01 | 1486210175.96549 | pgbench_tellers_pkey  |           245760
 2017-02-04 13:09:35.965494+01 | 1486210175.96549 | pgbench_accounts_pkey |        224641024

 2017-02-04 13:09:37.042527+01 | 1486210177.04253 | pgbench_branches_pkey |            57344
 2017-02-04 13:09:37.042527+01 | 1486210177.04253 | pgbench_tellers_pkey  |           245760
 2017-02-04 13:09:37.042527+01 | 1486210177.04253 | pgbench_accounts_pkey |        224641024

 2017-02-04 13:09:38.115579+01 | 1486210178.11558 | pgbench_branches_pkey |            57344
 2017-02-04 13:09:38.115579+01 | 1486210178.11558 | pgbench_tellers_pkey  |           245760
 2017-02-04 13:09:38.115579+01 | 1486210178.11558 | pgbench_accounts_pkey |        224641024

 2017-02-04 13:09:39.191188+01 | 1486210179.19119 | pgbench_branches_pkey |            57344
 2017-02-04 13:09:39.191188+01 | 1486210179.19119 | pgbench_tellers_pkey  |           245760
 2017-02-04 13:09:39.191188+01 | 1486210179.19119 | pgbench_accounts_pkey |        224641024

 2017-02-04 13:09:40.266622+01 | 1486210180.26662 | pgbench_branches_pkey |            57344
 2017-02-04 13:09:40.266622+01 | 1486210180.26662 | pgbench_tellers_pkey  |           245760
 2017-02-04 13:09:40.266622+01 | 1486210180.26662 | pgbench_accounts_pkey |        224641024

 2017-02-04 13:09:41.347016+01 | 1486210181.34702 | pgbench_branches_pkey |            57344
 2017-02-04 13:09:41.347016+01 | 1486210181.34702 | pgbench_tellers_pkey  |           245760
 2017-02-04 13:09:41.347016+01 | 1486210181.34702 | pgbench_accounts_pkey |        224641024

 2017-02-04 13:09:42.426315+01 | 1486210182.42632 | pgbench_branches_pkey |            57344
 2017-02-04 13:09:42.426315+01 | 1486210182.42632 | pgbench_tellers_pkey  |           245760
 2017-02-04 13:09:42.426315+01 | 1486210182.42632 | pgbench_accounts_pkey |        224641024

 2017-02-04 13:09:43.501296+01 | 1486210183.5013 | pgbench_branches_pkey |            57344
 2017-02-04 13:09:43.501296+01 | 1486210183.5013 | pgbench_tellers_pkey  |           245760
 2017-02-04 13:09:43.501296+01 | 1486210183.5013 | pgbench_accounts_pkey |        224641024

 2017-02-04 13:09:44.58248+01 | 1486210184.58248 | pgbench_branches_pkey |            57344
 2017-02-04 13:09:44.58248+01 | 1486210184.58248 | pgbench_tellers_pkey  |           245760
 2017-02-04 13:09:44.58248+01 | 1486210184.58248 | pgbench_accounts_pkey |        224641024

 2017-02-04 13:09:45.661989+01 | 1486210185.66199 | pgbench_branches_pkey |            57344
 2017-02-04 13:09:45.661989+01 | 1486210185.66199 | pgbench_tellers_pkey  |           245760
 2017-02-04 13:09:45.661989+01 | 1486210185.66199 | pgbench_accounts_pkey |        224641024

 2017-02-04 13:09:46.742792+01 | 1486210186.74279 | pgbench_branches_pkey |            57344
 2017-02-04 13:09:46.742792+01 | 1486210186.74279 | pgbench_tellers_pkey  |           245760
 2017-02-04 13:09:46.742792+01 | 1486210186.74279 | pgbench_accounts_pkey |        224641024

 2017-02-04 13:09:47.822023+01 | 1486210187.82202 | pgbench_branches_pkey |            57344
 2017-02-04 13:09:47.822023+01 | 1486210187.82202 | pgbench_tellers_pkey  |           245760
 2017-02-04 13:09:47.822023+01 | 1486210187.82202 | pgbench_accounts_pkey |        224641024

 2017-02-04 13:09:48.904591+01 | 1486210188.90459 | pgbench_branches_pkey |            57344
 2017-02-04 13:09:48.904591+01 | 1486210188.90459 | pgbench_tellers_pkey  |           245760
 2017-02-04 13:09:48.904591+01 | 1486210188.90459 | pgbench_accounts_pkey |        224641024

 2017-02-04 13:09:49.983009+01 | 1486210189.98301 | pgbench_branches_pkey |            57344
 2017-02-04 13:09:49.983009+01 | 1486210189.98301 | pgbench_tellers_pkey  |           245760
 2017-02-04 13:09:49.983009+01 | 1486210189.98301 | pgbench_accounts_pkey |        224641024

 2017-02-04 13:09:51.061775+01 | 1486210191.06177 | pgbench_branches_pkey |            57344
 2017-02-04 13:09:51.061775+01 | 1486210191.06177 | pgbench_tellers_pkey  |           245760
 2017-02-04 13:09:51.061775+01 | 1486210191.06177 | pgbench_accounts_pkey |        224641024

 2017-02-04 13:09:52.140125+01 | 1486210192.14013 | pgbench_branches_pkey |            57344
 2017-02-04 13:09:52.140125+01 | 1486210192.14013 | pgbench_tellers_pkey  |           245760
 2017-02-04 13:09:52.140125+01 | 1486210192.14013 | pgbench_accounts_pkey |        224641024

 2017-02-04 13:09:53.212319+01 | 1486210193.21232 | pgbench_branches_pkey |            57344
 2017-02-04 13:09:53.212319+01 | 1486210193.21232 | pgbench_tellers_pkey  |           245760
 2017-02-04 13:09:53.212319+01 | 1486210193.21232 | pgbench_accounts_pkey |        224641024

 2017-02-04 13:09:54.287777+01 | 1486210194.28778 | pgbench_branches_pkey |            57344
 2017-02-04 13:09:54.287777+01 | 1486210194.28778 | pgbench_tellers_pkey  |           245760
 2017-02-04 13:09:54.287777+01 | 1486210194.28778 | pgbench_accounts_pkey |        224641024

 2017-02-04 13:09:55.367266+01 | 1486210195.36727 | pgbench_branches_pkey |            57344
 2017-02-04 13:09:55.367266+01 | 1486210195.36727 | pgbench_tellers_pkey  |           245760
 2017-02-04 13:09:55.367266+01 | 1486210195.36727 | pgbench_accounts_pkey |        224641024

 2017-02-04 13:09:56.440989+01 | 1486210196.44099 | pgbench_branches_pkey |            57344
 2017-02-04 13:09:56.440989+01 | 1486210196.44099 | pgbench_tellers_pkey  |           245760
 2017-02-04 13:09:56.440989+01 | 1486210196.44099 | pgbench_accounts_pkey |        224641024

 2017-02-04 13:09:57.521337+01 | 1486210197.52134 | pgbench_branches_pkey |            57344
 2017-02-04 13:09:57.521337+01 | 1486210197.52134 | pgbench_tellers_pkey  |           245760
 2017-02-04 13:09:57.521337+01 | 1486210197.52134 | pgbench_accounts_pkey |        224641024

 2017-02-04 13:09:58.599286+01 | 1486210198.59929 | pgbench_branches_pkey |            57344
 2017-02-04 13:09:58.599286+01 | 1486210198.59929 | pgbench_tellers_pkey  |           245760
 2017-02-04 13:09:58.599286+01 | 1486210198.59929 | pgbench_accounts_pkey |        224641024

 2017-02-04 13:09:59.67959+01 | 1486210199.67959 | pgbench_branches_pkey |            57344
 2017-02-04 13:09:59.67959+01 | 1486210199.67959 | pgbench_tellers_pkey  |           245760
 2017-02-04 13:09:59.67959+01 | 1486210199.67959 | pgbench_accounts_pkey |        224641024

 2017-02-04 13:10:00.757721+01 | 1486210200.75772 | pgbench_branches_pkey |            57344
 2017-02-04 13:10:00.757721+01 | 1486210200.75772 | pgbench_tellers_pkey  |           245760
 2017-02-04 13:10:00.757721+01 | 1486210200.75772 | pgbench_accounts_pkey |        224641024

 2017-02-04 13:10:01.83286+01 | 1486210201.83286 | pgbench_branches_pkey |            57344
 2017-02-04 13:10:01.83286+01 | 1486210201.83286 | pgbench_tellers_pkey  |           245760
 2017-02-04 13:10:01.83286+01 | 1486210201.83286 | pgbench_accounts_pkey |        224641024

 2017-02-04 13:10:02.918564+01 | 1486210202.91856 | pgbench_branches_pkey |            57344
 2017-02-04 13:10:02.918564+01 | 1486210202.91856 | pgbench_tellers_pkey  |           245760
 2017-02-04 13:10:02.918564+01 | 1486210202.91856 | pgbench_accounts_pkey |        224641024

 2017-02-04 13:10:03.995618+01 | 1486210203.99562 | pgbench_branches_pkey |            57344
 2017-02-04 13:10:03.995618+01 | 1486210203.99562 | pgbench_tellers_pkey  |           245760
 2017-02-04 13:10:03.995618+01 | 1486210203.99562 | pgbench_accounts_pkey |        224641024

 2017-02-04 13:10:05.075144+01 | 1486210205.07514 | pgbench_branches_pkey |            57344
 2017-02-04 13:10:05.075144+01 | 1486210205.07514 | pgbench_tellers_pkey  |           245760
 2017-02-04 13:10:05.075144+01 | 1486210205.07514 | pgbench_accounts_pkey |        224641024

 2017-02-04 13:10:06.148002+01 | 1486210206.148 | pgbench_branches_pkey |            57344
 2017-02-04 13:10:06.148002+01 | 1486210206.148 | pgbench_tellers_pkey  |           245760
 2017-02-04 13:10:06.148002+01 | 1486210206.148 | pgbench_accounts_pkey |        224641024

 2017-02-04 13:10:07.225303+01 | 1486210207.2253 | pgbench_branches_pkey |            57344
 2017-02-04 13:10:07.225303+01 | 1486210207.2253 | pgbench_tellers_pkey  |           245760
 2017-02-04 13:10:07.225303+01 | 1486210207.2253 | pgbench_accounts_pkey |        224641024

 2017-02-04 13:10:08.298934+01 | 1486210208.29893 | pgbench_branches_pkey |            57344
 2017-02-04 13:10:08.298934+01 | 1486210208.29893 | pgbench_tellers_pkey  |           245760
 2017-02-04 13:10:08.298934+01 | 1486210208.29893 | pgbench_accounts_pkey |        224641024

 2017-02-04 13:10:09.37512+01 | 1486210209.37512 | pgbench_branches_pkey |            57344
 2017-02-04 13:10:09.37512+01 | 1486210209.37512 | pgbench_tellers_pkey  |           245760
 2017-02-04 13:10:09.37512+01 | 1486210209.37512 | pgbench_accounts_pkey |        224641024

 2017-02-04 13:10:10.447587+01 | 1486210210.44759 | pgbench_branches_pkey |            57344
 2017-02-04 13:10:10.447587+01 | 1486210210.44759 | pgbench_tellers_pkey  |           245760
 2017-02-04 13:10:10.447587+01 | 1486210210.44759 | pgbench_accounts_pkey |        224641024

 2017-02-04 13:10:11.529914+01 | 1486210211.52991 | pgbench_branches_pkey |            57344
 2017-02-04 13:10:11.529914+01 | 1486210211.52991 | pgbench_tellers_pkey  |           245760
 2017-02-04 13:10:11.529914+01 | 1486210211.52991 | pgbench_accounts_pkey |        224641024

 2017-02-04 13:10:12.602127+01 | 1486210212.60213 | pgbench_branches_pkey |            57344
 2017-02-04 13:10:12.602127+01 | 1486210212.60213 | pgbench_tellers_pkey  |           245760
 2017-02-04 13:10:12.602127+01 | 1486210212.60213 | pgbench_accounts_pkey |        224641024

 2017-02-04 13:10:13.68132+01 | 1486210213.68132 | pgbench_branches_pkey |            57344
 2017-02-04 13:10:13.68132+01 | 1486210213.68132 | pgbench_tellers_pkey  |           245760
 2017-02-04 13:10:13.68132+01 | 1486210213.68132 | pgbench_accounts_pkey |        224641024

 2017-02-04 13:10:14.756184+01 | 1486210214.75618 | pgbench_branches_pkey |            57344
 2017-02-04 13:10:14.756184+01 | 1486210214.75618 | pgbench_tellers_pkey  |           245760
 2017-02-04 13:10:14.756184+01 | 1486210214.75618 | pgbench_accounts_pkey |        224641024

 2017-02-04 13:10:15.835693+01 | 1486210215.83569 | pgbench_branches_pkey |            57344
 2017-02-04 13:10:15.835693+01 | 1486210215.83569 | pgbench_tellers_pkey  |           245760
 2017-02-04 13:10:15.835693+01 | 1486210215.83569 | pgbench_accounts_pkey |        224641024

 2017-02-04 13:10:16.917971+01 | 1486210216.91797 | pgbench_branches_pkey |            57344
 2017-02-04 13:10:16.917971+01 | 1486210216.91797 | pgbench_tellers_pkey  |           245760
 2017-02-04 13:10:16.917971+01 | 1486210216.91797 | pgbench_accounts_pkey |        224641024

 2017-02-04 13:10:17.99987+01 | 1486210217.99987 | pgbench_branches_pkey |            57344
 2017-02-04 13:10:17.99987+01 | 1486210217.99987 | pgbench_tellers_pkey  |           245760
 2017-02-04 13:10:17.99987+01 | 1486210217.99987 | pgbench_accounts_pkey |        224641024

 2017-02-04 13:10:19.072648+01 | 1486210219.07265 | pgbench_branches_pkey |            57344
 2017-02-04 13:10:19.072648+01 | 1486210219.07265 | pgbench_tellers_pkey  |           245760
 2017-02-04 13:10:19.072648+01 | 1486210219.07265 | pgbench_accounts_pkey |        224641024

 2017-02-04 13:10:20.152368+01 | 1486210220.15237 | pgbench_branches_pkey |            57344
 2017-02-04 13:10:20.152368+01 | 1486210220.15237 | pgbench_tellers_pkey  |           245760
 2017-02-04 13:10:20.152368+01 | 1486210220.15237 | pgbench_accounts_pkey |        224641024

 2017-02-04 13:10:21.226926+01 | 1486210221.22693 | pgbench_branches_pkey |            57344
 2017-02-04 13:10:21.226926+01 | 1486210221.22693 | pgbench_tellers_pkey  |           245760
 2017-02-04 13:10:21.226926+01 | 1486210221.22693 | pgbench_accounts_pkey |        224641024

 2017-02-04 13:10:22.308419+01 | 1486210222.30842 | pgbench_branches_pkey |            57344
 2017-02-04 13:10:22.308419+01 | 1486210222.30842 | pgbench_tellers_pkey  |           245760
 2017-02-04 13:10:22.308419+01 | 1486210222.30842 | pgbench_accounts_pkey |        224641024

 2017-02-04 13:10:23.388836+01 | 1486210223.38884 | pgbench_branches_pkey |            57344
 2017-02-04 13:10:23.388836+01 | 1486210223.38884 | pgbench_tellers_pkey  |           245760
 2017-02-04 13:10:23.388836+01 | 1486210223.38884 | pgbench_accounts_pkey |        224641024

 2017-02-04 13:10:24.464004+01 | 1486210224.464 | pgbench_branches_pkey |            57344
 2017-02-04 13:10:24.464004+01 | 1486210224.464 | pgbench_tellers_pkey  |           245760
 2017-02-04 13:10:24.464004+01 | 1486210224.464 | pgbench_accounts_pkey |        224641024

 2017-02-04 13:10:25.534725+01 | 1486210225.53472 | pgbench_branches_pkey |            57344
 2017-02-04 13:10:25.534725+01 | 1486210225.53472 | pgbench_tellers_pkey  |           245760
 2017-02-04 13:10:25.534725+01 | 1486210225.53472 | pgbench_accounts_pkey |        224641024

 2017-02-04 13:10:26.613511+01 | 1486210226.61351 | pgbench_branches_pkey |            57344
 2017-02-04 13:10:26.613511+01 | 1486210226.61351 | pgbench_tellers_pkey  |           245760
 2017-02-04 13:10:26.613511+01 | 1486210226.61351 | pgbench_accounts_pkey |        224641024

 2017-02-04 13:10:27.697269+01 | 1486210227.69727 | pgbench_branches_pkey |            57344
 2017-02-04 13:10:27.697269+01 | 1486210227.69727 | pgbench_tellers_pkey  |           245760
 2017-02-04 13:10:27.697269+01 | 1486210227.69727 | pgbench_accounts_pkey |        224641024

 2017-02-04 13:10:28.779126+01 | 1486210228.77913 | pgbench_branches_pkey |            57344
 2017-02-04 13:10:28.779126+01 | 1486210228.77913 | pgbench_tellers_pkey  |           245760
 2017-02-04 13:10:28.779126+01 | 1486210228.77913 | pgbench_accounts_pkey |        224641024

 2017-02-04 13:10:29.864277+01 | 1486210229.86428 | pgbench_branches_pkey |            57344
 2017-02-04 13:10:29.864277+01 | 1486210229.86428 | pgbench_tellers_pkey  |           245760
 2017-02-04 13:10:29.864277+01 | 1486210229.86428 | pgbench_accounts_pkey |        224641024

 2017-02-04 13:10:30.948998+01 | 1486210230.949 | pgbench_branches_pkey |            57344
 2017-02-04 13:10:30.948998+01 | 1486210230.949 | pgbench_tellers_pkey  |           245760
 2017-02-04 13:10:30.948998+01 | 1486210230.949 | pgbench_accounts_pkey |        224641024

 2017-02-04 13:10:32.027065+01 | 1486210232.02707 | pgbench_branches_pkey |            57344
 2017-02-04 13:10:32.027065+01 | 1486210232.02707 | pgbench_tellers_pkey  |           245760
 2017-02-04 13:10:32.027065+01 | 1486210232.02707 | pgbench_accounts_pkey |        224641024

 2017-02-04 13:10:33.108359+01 | 1486210233.10836 | pgbench_branches_pkey |            57344
 2017-02-04 13:10:33.108359+01 | 1486210233.10836 | pgbench_tellers_pkey  |           245760
 2017-02-04 13:10:33.108359+01 | 1486210233.10836 | pgbench_accounts_pkey |        224641024

 2017-02-04 13:10:34.186991+01 | 1486210234.18699 | pgbench_branches_pkey |            57344
 2017-02-04 13:10:34.186991+01 | 1486210234.18699 | pgbench_tellers_pkey  |           245760
 2017-02-04 13:10:34.186991+01 | 1486210234.18699 | pgbench_accounts_pkey |        224641024

 2017-02-04 13:10:35.26698+01 | 1486210235.26698 | pgbench_branches_pkey |            57344
 2017-02-04 13:10:35.26698+01 | 1486210235.26698 | pgbench_tellers_pkey  |           245760
 2017-02-04 13:10:35.26698+01 | 1486210235.26698 | pgbench_accounts_pkey |        224641024

 2017-02-04 13:10:36.352649+01 | 1486210236.35265 | pgbench_branches_pkey |            57344
 2017-02-04 13:10:36.352649+01 | 1486210236.35265 | pgbench_tellers_pkey  |           245760
 2017-02-04 13:10:36.352649+01 | 1486210236.35265 | pgbench_accounts_pkey |        224641024

 2017-02-04 13:10:37.428906+01 | 1486210237.42891 | pgbench_branches_pkey |            57344
 2017-02-04 13:10:37.428906+01 | 1486210237.42891 | pgbench_tellers_pkey  |           245760
 2017-02-04 13:10:37.428906+01 | 1486210237.42891 | pgbench_accounts_pkey |        224641024

 2017-02-04 13:10:38.511725+01 | 1486210238.51172 | pgbench_branches_pkey |            57344
 2017-02-04 13:10:38.511725+01 | 1486210238.51172 | pgbench_tellers_pkey  |           245760
 2017-02-04 13:10:38.511725+01 | 1486210238.51172 | pgbench_accounts_pkey |        224641024

 2017-02-04 13:10:39.589934+01 | 1486210239.58993 | pgbench_branches_pkey |            57344
 2017-02-04 13:10:39.589934+01 | 1486210239.58993 | pgbench_tellers_pkey  |           245760
 2017-02-04 13:10:39.589934+01 | 1486210239.58993 | pgbench_accounts_pkey |        224641024

 2017-02-04 13:10:40.669031+01 | 1486210240.66903 | pgbench_branches_pkey |            57344
 2017-02-04 13:10:40.669031+01 | 1486210240.66903 | pgbench_tellers_pkey  |           245760
 2017-02-04 13:10:40.669031+01 | 1486210240.66903 | pgbench_accounts_pkey |        224641024

 2017-02-04 13:10:41.735825+01 | 1486210241.73583 | pgbench_branches_pkey |            57344
 2017-02-04 13:10:41.735825+01 | 1486210241.73583 | pgbench_tellers_pkey  |           245760
 2017-02-04 13:10:41.735825+01 | 1486210241.73583 | pgbench_accounts_pkey |        224641024

 2017-02-04 13:10:42.819537+01 | 1486210242.81954 | pgbench_branches_pkey |            57344
 2017-02-04 13:10:42.819537+01 | 1486210242.81954 | pgbench_tellers_pkey  |           245760
 2017-02-04 13:10:42.819537+01 | 1486210242.81954 | pgbench_accounts_pkey |        224641024

 2017-02-04 13:10:43.9008+01 | 1486210243.9008 | pgbench_branches_pkey |            57344
 2017-02-04 13:10:43.9008+01 | 1486210243.9008 | pgbench_tellers_pkey  |           245760
 2017-02-04 13:10:43.9008+01 | 1486210243.9008 | pgbench_accounts_pkey |        224641024

 2017-02-04 13:10:44.981254+01 | 1486210244.98125 | pgbench_branches_pkey |            57344
 2017-02-04 13:10:44.981254+01 | 1486210244.98125 | pgbench_tellers_pkey  |           245760
 2017-02-04 13:10:44.981254+01 | 1486210244.98125 | pgbench_accounts_pkey |        224641024

 2017-02-04 13:10:46.057005+01 | 1486210246.057 | pgbench_branches_pkey |            57344
 2017-02-04 13:10:46.057005+01 | 1486210246.057 | pgbench_tellers_pkey  |           245760
 2017-02-04 13:10:46.057005+01 | 1486210246.057 | pgbench_accounts_pkey |        224641024

 2017-02-04 13:10:47.141025+01 | 1486210247.14103 | pgbench_branches_pkey |            57344
 2017-02-04 13:10:47.141025+01 | 1486210247.14103 | pgbench_tellers_pkey  |           245760
 2017-02-04 13:10:47.141025+01 | 1486210247.14103 | pgbench_accounts_pkey |        224641024

 2017-02-04 13:10:48.216214+01 | 1486210248.21621 | pgbench_branches_pkey |            57344
 2017-02-04 13:10:48.216214+01 | 1486210248.21621 | pgbench_tellers_pkey  |           245760
 2017-02-04 13:10:48.216214+01 | 1486210248.21621 | pgbench_accounts_pkey |        224641024

 2017-02-04 13:10:49.293584+01 | 1486210249.29358 | pgbench_branches_pkey |            57344
 2017-02-04 13:10:49.293584+01 | 1486210249.29358 | pgbench_tellers_pkey  |           245760
 2017-02-04 13:10:49.293584+01 | 1486210249.29358 | pgbench_accounts_pkey |        224641024

 2017-02-04 13:10:50.370107+01 | 1486210250.37011 | pgbench_branches_pkey |            57344
 2017-02-04 13:10:50.370107+01 | 1486210250.37011 | pgbench_tellers_pkey  |           245760
 2017-02-04 13:10:50.370107+01 | 1486210250.37011 | pgbench_accounts_pkey |        224641024

 2017-02-04 13:10:51.442928+01 | 1486210251.44293 | pgbench_branches_pkey |            57344
 2017-02-04 13:10:51.442928+01 | 1486210251.44293 | pgbench_tellers_pkey  |           245760
 2017-02-04 13:10:51.442928+01 | 1486210251.44293 | pgbench_accounts_pkey |        224641024

 2017-02-04 13:10:52.516332+01 | 1486210252.51633 | pgbench_branches_pkey |            57344
 2017-02-04 13:10:52.516332+01 | 1486210252.51633 | pgbench_tellers_pkey  |           245760
 2017-02-04 13:10:52.516332+01 | 1486210252.51633 | pgbench_accounts_pkey |        224641024

 2017-02-04 13:10:53.607408+01 | 1486210253.60741 | pgbench_branches_pkey |            57344
 2017-02-04 13:10:53.607408+01 | 1486210253.60741 | pgbench_tellers_pkey  |           245760
 2017-02-04 13:10:53.607408+01 | 1486210253.60741 | pgbench_accounts_pkey |        224641024

 2017-02-04 13:10:54.685944+01 | 1486210254.68594 | pgbench_branches_pkey |            57344
 2017-02-04 13:10:54.685944+01 | 1486210254.68594 | pgbench_tellers_pkey  |           245760
 2017-02-04 13:10:54.685944+01 | 1486210254.68594 | pgbench_accounts_pkey |        224641024

