 2017-02-04 13:05:54.824319+01 | 1486209954.82432 |                 0 |              16 |                 26097 |                 1363 |            3028851 |             0 |                0 |         1333453 |                     0 |       1037454 | 2017-02-04 11:49:56.627292+01

 2017-02-04 13:05:55.906756+01 | 1486209955.90676 |                 0 |              16 |                 26097 |                 1363 |            3028851 |             0 |                0 |         1333453 |                     0 |       1037581 | 2017-02-04 11:49:56.627292+01

 2017-02-04 13:05:56.993026+01 | 1486209956.99303 |                 0 |              16 |                 26097 |                 1363 |            3028851 |             0 |                0 |         1333453 |                     0 |       1037796 | 2017-02-04 11:49:56.627292+01

 2017-02-04 13:05:58.066057+01 | 1486209958.06606 |                 0 |              16 |                 26097 |                 1363 |            3028851 |             0 |                0 |         1333453 |                     0 |       1037879 | 2017-02-04 11:49:56.627292+01

 2017-02-04 13:05:59.14406+01 | 1486209959.14406 |                 0 |              16 |                 26097 |                 1363 |            3028851 |             0 |                0 |         1333453 |                     0 |       1038076 | 2017-02-04 11:49:56.627292+01

 2017-02-04 13:06:00.219915+01 | 1486209960.21991 |                 0 |              16 |                 26097 |                 1363 |            3028851 |             0 |                0 |         1333453 |                     0 |       1038228 | 2017-02-04 11:49:56.627292+01

 2017-02-04 13:06:01.298309+01 | 1486209961.29831 |                 0 |              16 |                 26097 |                 1363 |            3028851 |             0 |                0 |         1333453 |                     0 |       1038365 | 2017-02-04 11:49:56.627292+01

 2017-02-04 13:06:02.369646+01 | 1486209962.36965 |                 0 |              16 |                 26097 |                 1363 |            3028851 |             0 |                0 |         1333453 |                     0 |       1038519 | 2017-02-04 11:49:56.627292+01

 2017-02-04 13:06:03.454921+01 | 1486209963.45492 |                 0 |              16 |                 26097 |                 1363 |            3028851 |             0 |                0 |         1333453 |                     0 |       1038745 | 2017-02-04 11:49:56.627292+01

 2017-02-04 13:06:04.54616+01 | 1486209964.54616 |                 0 |              16 |                 26097 |                 1363 |            3028851 |             0 |                0 |         1333453 |                     0 |       1038871 | 2017-02-04 11:49:56.627292+01

 2017-02-04 13:06:05.623785+01 | 1486209965.62379 |                 0 |              16 |                 26097 |                 1363 |            3028851 |             0 |                0 |         1333453 |                     0 |       1038962 | 2017-02-04 11:49:56.627292+01

 2017-02-04 13:06:06.70635+01 | 1486209966.70635 |                 0 |              16 |                 26097 |                 1363 |            3028851 |             0 |                0 |         1333453 |                     0 |       1039182 | 2017-02-04 11:49:56.627292+01

 2017-02-04 13:06:07.792463+01 | 1486209967.79246 |                 0 |              16 |                 26097 |                 1363 |            3028851 |             0 |                0 |         1333453 |                     0 |       1039308 | 2017-02-04 11:49:56.627292+01

 2017-02-04 13:06:08.863128+01 | 1486209968.86313 |                 0 |              16 |                 26097 |                 1363 |            3028851 |             0 |                0 |         1333453 |                     0 |       1039478 | 2017-02-04 11:49:56.627292+01

 2017-02-04 13:06:09.947092+01 | 1486209969.94709 |                 0 |              16 |                 26097 |                 1363 |            3028851 |             0 |                0 |         1333453 |                     0 |       1039609 | 2017-02-04 11:49:56.627292+01

 2017-02-04 13:06:11.021164+01 | 1486209971.02116 |                 0 |              16 |                 26097 |                 1363 |            3028851 |             0 |                0 |         1333453 |                     0 |       1039779 | 2017-02-04 11:49:56.627292+01

 2017-02-04 13:06:12.106141+01 | 1486209972.10614 |                 0 |              16 |                 26097 |                 1363 |            3028851 |             0 |                0 |         1333453 |                     0 |       1039886 | 2017-02-04 11:49:56.627292+01

 2017-02-04 13:06:13.179777+01 | 1486209973.17978 |                 0 |              16 |                 26097 |                 1363 |            3028851 |             0 |                0 |         1333453 |                     0 |       1040082 | 2017-02-04 11:49:56.627292+01

 2017-02-04 13:06:14.267729+01 | 1486209974.26773 |                 0 |              16 |                 26097 |                 1363 |            3028851 |             0 |                0 |         1333453 |                     0 |       1040209 | 2017-02-04 11:49:56.627292+01

 2017-02-04 13:06:15.343746+01 | 1486209975.34375 |                 0 |              16 |                 26097 |                 1363 |            3028851 |             0 |                0 |         1333453 |                     0 |       1040398 | 2017-02-04 11:49:56.627292+01

 2017-02-04 13:06:16.424871+01 | 1486209976.42487 |                 0 |              16 |                 26097 |                 1363 |            3028851 |             0 |                0 |         1333453 |                     0 |       1040486 | 2017-02-04 11:49:56.627292+01

 2017-02-04 13:06:17.501662+01 | 1486209977.50166 |                 0 |              16 |                 26097 |                 1363 |            3028851 |             0 |                0 |         1333453 |                     0 |       1040624 | 2017-02-04 11:49:56.627292+01

 2017-02-04 13:06:18.584015+01 | 1486209978.58401 |                 0 |              16 |                 26097 |                 1363 |            3028851 |             0 |                0 |         1333453 |                     0 |       1040772 | 2017-02-04 11:49:56.627292+01

 2017-02-04 13:06:19.664409+01 | 1486209979.66441 |                 0 |              16 |                 26097 |                 1363 |            3028851 |             0 |                0 |         1333453 |                     0 |       1040991 | 2017-02-04 11:49:56.627292+01

 2017-02-04 13:06:20.751465+01 | 1486209980.75147 |                 0 |              16 |                 26097 |                 1363 |            3028851 |             0 |                0 |         1333453 |                     0 |       1041078 | 2017-02-04 11:49:56.627292+01

 2017-02-04 13:06:21.838343+01 | 1486209981.83834 |                 0 |              16 |                 26097 |                 1363 |            3028851 |             0 |                0 |         1333453 |                     0 |       1041225 | 2017-02-04 11:49:56.627292+01

 2017-02-04 13:06:22.913016+01 | 1486209982.91302 |                 0 |              16 |                 26097 |                 1363 |            3028851 |             0 |                0 |         1333453 |                     0 |       1041375 | 2017-02-04 11:49:56.627292+01

 2017-02-04 13:06:23.994412+01 | 1486209983.99441 |                 0 |              16 |                 26097 |                 1363 |            3028851 |             0 |                0 |         1333453 |                     0 |       1041529 | 2017-02-04 11:49:56.627292+01

 2017-02-04 13:06:25.074303+01 | 1486209985.0743 |                 0 |              16 |                 26097 |                 1363 |            3028851 |             0 |                0 |         1333453 |                     0 |       1041706 | 2017-02-04 11:49:56.627292+01

 2017-02-04 13:06:26.152103+01 | 1486209986.1521 |                 0 |              16 |                 26097 |                 1363 |            3028851 |             0 |                0 |         1333453 |                     0 |       1041819 | 2017-02-04 11:49:56.627292+01

 2017-02-04 13:06:27.230373+01 | 1486209987.23037 |                 0 |              16 |                 26097 |                 1363 |            3028851 |             0 |                0 |         1333453 |                     0 |       1042001 | 2017-02-04 11:49:56.627292+01

 2017-02-04 13:06:28.314913+01 | 1486209988.31491 |                 0 |              16 |                 26097 |                 1363 |            3028851 |             0 |                0 |         1333453 |                     0 |       1042131 | 2017-02-04 11:49:56.627292+01

 2017-02-04 13:06:29.390277+01 | 1486209989.39028 |                 0 |              16 |                 26097 |                 1363 |            3028851 |             0 |                0 |         1333453 |                     0 |       1042262 | 2017-02-04 11:49:56.627292+01

 2017-02-04 13:06:30.477229+01 | 1486209990.47723 |                 0 |              16 |                 26097 |                 1363 |            3028851 |             0 |                0 |         1333453 |                     0 |       1042408 | 2017-02-04 11:49:56.627292+01

 2017-02-04 13:06:31.554731+01 | 1486209991.55473 |                 0 |              16 |                 26097 |                 1363 |            3028851 |             0 |                0 |         1333453 |                     0 |       1042555 | 2017-02-04 11:49:56.627292+01

 2017-02-04 13:06:32.631826+01 | 1486209992.63183 |                 0 |              16 |                 26097 |                 1363 |            3028851 |             0 |                0 |         1333453 |                     0 |       1042686 | 2017-02-04 11:49:56.627292+01

 2017-02-04 13:06:33.715251+01 | 1486209993.71525 |                 0 |              16 |                 26097 |                 1363 |            3028851 |             0 |                0 |         1333453 |                     0 |       1042943 | 2017-02-04 11:49:56.627292+01

 2017-02-04 13:06:34.789426+01 | 1486209994.78943 |                 0 |              16 |                 26097 |                 1363 |            3028851 |             0 |                0 |         1333453 |                     0 |       1043030 | 2017-02-04 11:49:56.627292+01

 2017-02-04 13:06:35.868126+01 | 1486209995.86813 |                 0 |              16 |                 26097 |                 1363 |            3028851 |             0 |                0 |         1333453 |                     0 |       1043140 | 2017-02-04 11:49:56.627292+01

 2017-02-04 13:06:36.940831+01 | 1486209996.94083 |                 0 |              16 |                 26097 |                 1363 |            3028851 |             0 |                0 |         1333453 |                     0 |       1043290 | 2017-02-04 11:49:56.627292+01

 2017-02-04 13:06:38.027071+01 | 1486209998.02707 |                 0 |              16 |                 26097 |                 1363 |            3028851 |             0 |                0 |         1333453 |                     0 |       1043470 | 2017-02-04 11:49:56.627292+01

 2017-02-04 13:06:39.102984+01 | 1486209999.10298 |                 0 |              16 |                 26097 |                 1363 |            3028851 |             0 |                0 |         1333453 |                     0 |       1043581 | 2017-02-04 11:49:56.627292+01

 2017-02-04 13:06:40.177007+01 | 1486210000.17701 |                 0 |              16 |                 26097 |                 1363 |            3028851 |             0 |                0 |         1333453 |                     0 |       1043784 | 2017-02-04 11:49:56.627292+01

 2017-02-04 13:06:41.250993+01 | 1486210001.25099 |                 0 |              16 |                 26097 |                 1363 |            3028851 |             0 |                0 |         1333453 |                     0 |       1043913 | 2017-02-04 11:49:56.627292+01

 2017-02-04 13:06:42.326837+01 | 1486210002.32684 |                 0 |              16 |                 26097 |                 1363 |            3028851 |             0 |                0 |         1333453 |                     0 |       1044046 | 2017-02-04 11:49:56.627292+01

 2017-02-04 13:06:43.403294+01 | 1486210003.40329 |                 0 |              16 |                 26097 |                 1363 |            3028851 |             0 |                0 |         1333453 |                     0 |       1044196 | 2017-02-04 11:49:56.627292+01

 2017-02-04 13:06:44.478928+01 | 1486210004.47893 |                 0 |              16 |                 26097 |                 1363 |            3028851 |             0 |                0 |         1333453 |                     0 |       1044353 | 2017-02-04 11:49:56.627292+01

 2017-02-04 13:06:45.558781+01 | 1486210005.55878 |                 0 |              16 |                 26097 |                 1363 |            3028851 |             0 |                0 |         1333453 |                     0 |       1044548 | 2017-02-04 11:49:56.627292+01

 2017-02-04 13:06:46.63426+01 | 1486210006.63426 |                 0 |              16 |                 26097 |                 1363 |            3028851 |             0 |                0 |         1333453 |                     0 |       1044679 | 2017-02-04 11:49:56.627292+01

 2017-02-04 13:06:47.713524+01 | 1486210007.71352 |                 0 |              16 |                 26097 |                 1363 |            3028851 |             0 |                0 |         1333453 |                     0 |       1044764 | 2017-02-04 11:49:56.627292+01

 2017-02-04 13:06:48.787407+01 | 1486210008.78741 |                 0 |              16 |                 26097 |                 1363 |            3028851 |             0 |                0 |         1333453 |                     0 |       1044934 | 2017-02-04 11:49:56.627292+01

 2017-02-04 13:06:49.864305+01 | 1486210009.86431 |                 0 |              16 |                 26097 |                 1363 |            3028851 |             0 |                0 |         1333453 |                     0 |       1045106 | 2017-02-04 11:49:56.627292+01

 2017-02-04 13:06:50.940732+01 | 1486210010.94073 |                 0 |              16 |                 26097 |                 1363 |            3028851 |             0 |                0 |         1333453 |                     0 |       1045243 | 2017-02-04 11:49:56.627292+01

 2017-02-04 13:06:52.020435+01 | 1486210012.02044 |                 0 |              16 |                 26097 |                 1363 |            3028851 |             0 |                0 |         1333453 |                     0 |       1045379 | 2017-02-04 11:49:56.627292+01

 2017-02-04 13:06:53.098831+01 | 1486210013.09883 |                 0 |              16 |                 26097 |                 1363 |            3028851 |             0 |                0 |         1333453 |                     0 |       1045545 | 2017-02-04 11:49:56.627292+01

 2017-02-04 13:06:54.174983+01 | 1486210014.17498 |                 0 |              16 |                 26097 |                 1363 |            3028851 |             0 |                0 |         1333453 |                     0 |       1045699 | 2017-02-04 11:49:56.627292+01

 2017-02-04 13:06:55.251568+01 | 1486210015.25157 |                 0 |              16 |                 26097 |                 1363 |            3028851 |             0 |                0 |         1333453 |                     0 |       1045850 | 2017-02-04 11:49:56.627292+01

 2017-02-04 13:06:56.324408+01 | 1486210016.32441 |                 0 |              16 |                 26097 |                 1363 |            3028851 |             0 |                0 |         1333453 |                     0 |       1046000 | 2017-02-04 11:49:56.627292+01

 2017-02-04 13:06:57.402385+01 | 1486210017.40238 |                 0 |              16 |                 26097 |                 1363 |            3028851 |             0 |                0 |         1333453 |                     0 |       1046084 | 2017-02-04 11:49:56.627292+01

 2017-02-04 13:06:58.492986+01 | 1486210018.49299 |                 0 |              16 |                 26097 |                 1363 |            3028851 |             0 |                0 |         1333453 |                     0 |       1046306 | 2017-02-04 11:49:56.627292+01

 2017-02-04 13:06:59.583361+01 | 1486210019.58336 |                 0 |              16 |                 26097 |                 1363 |            3028851 |             0 |                0 |         1333453 |                     0 |       1046472 | 2017-02-04 11:49:56.627292+01

 2017-02-04 13:07:00.666759+01 | 1486210020.66676 |                 0 |              16 |                 26097 |                 1363 |            3028851 |             0 |                0 |         1333453 |                     0 |       1046635 | 2017-02-04 11:49:56.627292+01

 2017-02-04 13:07:01.737653+01 | 1486210021.73765 |                 0 |              16 |                 26097 |                 1363 |            3028851 |             0 |                0 |         1333453 |                     0 |       1046722 | 2017-02-04 11:49:56.627292+01

 2017-02-04 13:07:02.81134+01 | 1486210022.81134 |                 0 |              16 |                 26097 |                 1363 |            3028851 |             0 |                0 |         1333453 |                     0 |       1046895 | 2017-02-04 11:49:56.627292+01

 2017-02-04 13:07:03.896662+01 | 1486210023.89666 |                 0 |              16 |                 26097 |                 1363 |            3028851 |             0 |                0 |         1333453 |                     0 |       1046982 | 2017-02-04 11:49:56.627292+01

 2017-02-04 13:07:04.97632+01 | 1486210024.97632 |                 0 |              16 |                 26097 |                 1363 |            3028851 |             0 |                0 |         1333453 |                     0 |       1047166 | 2017-02-04 11:49:56.627292+01

 2017-02-04 13:07:06.054089+01 | 1486210026.05409 |                 0 |              16 |                 26097 |                 1363 |            3028851 |             0 |                0 |         1333453 |                     0 |       1047375 | 2017-02-04 11:49:56.627292+01

 2017-02-04 13:07:07.135954+01 | 1486210027.13595 |                 0 |              16 |                 26097 |                 1363 |            3028851 |             0 |                0 |         1333453 |                     0 |       1047460 | 2017-02-04 11:49:56.627292+01

 2017-02-04 13:07:08.227385+01 | 1486210028.22739 |                 0 |              16 |                 26097 |                 1363 |            3028851 |             0 |                0 |         1333453 |                     0 |       1047609 | 2017-02-04 11:49:56.627292+01

 2017-02-04 13:07:09.305478+01 | 1486210029.30548 |                 0 |              16 |                 26097 |                 1363 |            3028851 |             0 |                0 |         1333453 |                     0 |       1047821 | 2017-02-04 11:49:56.627292+01

 2017-02-04 13:07:10.379807+01 | 1486210030.37981 |                 0 |              16 |                 26097 |                 1363 |            3028851 |             0 |                0 |         1333453 |                     0 |       1047905 | 2017-02-04 11:49:56.627292+01

 2017-02-04 13:07:11.457601+01 | 1486210031.4576 |                 0 |              16 |                 26097 |                 1363 |            3028851 |             0 |                0 |         1333453 |                     0 |       1048076 | 2017-02-04 11:49:56.627292+01

 2017-02-04 13:07:12.535059+01 | 1486210032.53506 |                 0 |              16 |                 26097 |                 1363 |            3028851 |             0 |                0 |         1333453 |                     0 |       1048256 | 2017-02-04 11:49:56.627292+01

 2017-02-04 13:07:13.60776+01 | 1486210033.60776 |                 0 |              16 |                 26097 |                 1363 |            3028851 |             0 |                0 |         1333453 |                     0 |       1048386 | 2017-02-04 11:49:56.627292+01

 2017-02-04 13:07:14.684358+01 | 1486210034.68436 |                 0 |              16 |                 26097 |                 1363 |            3028851 |             0 |                0 |         1333453 |                     0 |       1048555 | 2017-02-04 11:49:56.627292+01

 2017-02-04 13:07:15.769748+01 | 1486210035.76975 |                 0 |              16 |                 26097 |                 1363 |            3028851 |             0 |                0 |         1333453 |                     0 |       1048707 | 2017-02-04 11:49:56.627292+01

 2017-02-04 13:07:16.853165+01 | 1486210036.85316 |                 0 |              16 |                 26097 |                 1363 |            3028851 |             0 |                0 |         1333453 |                     0 |       1048848 | 2017-02-04 11:49:56.627292+01

 2017-02-04 13:07:17.931694+01 | 1486210037.93169 |                 0 |              16 |                 26097 |                 1363 |            3028851 |             0 |                0 |         1333453 |                     0 |       1048975 | 2017-02-04 11:49:56.627292+01

 2017-02-04 13:07:19.010452+01 | 1486210039.01045 |                 0 |              16 |                 26097 |                 1363 |            3028851 |             0 |                0 |         1333453 |                     0 |       1049169 | 2017-02-04 11:49:56.627292+01

 2017-02-04 13:07:20.09892+01 | 1486210040.09892 |                 0 |              16 |                 26097 |                 1363 |            3028851 |             0 |                0 |         1333453 |                     0 |       1049323 | 2017-02-04 11:49:56.627292+01

 2017-02-04 13:07:21.17808+01 | 1486210041.17808 |                 0 |              16 |                 26097 |                 1363 |            3028851 |             0 |                0 |         1333453 |                     0 |       1049469 | 2017-02-04 11:49:56.627292+01

 2017-02-04 13:07:22.256624+01 | 1486210042.25662 |                 0 |              16 |                 26097 |                 1363 |            3028851 |             0 |                0 |         1333453 |                     0 |       1049602 | 2017-02-04 11:49:56.627292+01

 2017-02-04 13:07:23.345981+01 | 1486210043.34598 |                 0 |              16 |                 26097 |                 1363 |            3028851 |             0 |                0 |         1333453 |                     0 |       1049709 | 2017-02-04 11:49:56.627292+01

 2017-02-04 13:07:24.431286+01 | 1486210044.43129 |                 0 |              16 |                 26097 |                 1363 |            3028851 |             0 |                0 |         1333453 |                     0 |       1049858 | 2017-02-04 11:49:56.627292+01

 2017-02-04 13:07:25.508122+01 | 1486210045.50812 |                 0 |              16 |                 26097 |                 1363 |            3028851 |             0 |                0 |         1333453 |                     0 |       1050005 | 2017-02-04 11:49:56.627292+01

 2017-02-04 13:07:26.595851+01 | 1486210046.59585 |                 0 |              16 |                 26097 |                 1363 |            3028851 |             0 |                0 |         1333453 |                     0 |       1050134 | 2017-02-04 11:49:56.627292+01

 2017-02-04 13:07:27.679989+01 | 1486210047.67999 |                 0 |              16 |                 26097 |                 1363 |            3028851 |             0 |                0 |         1333453 |                     0 |       1050366 | 2017-02-04 11:49:56.627292+01

 2017-02-04 13:07:28.760781+01 | 1486210048.76078 |                 0 |              16 |                 26097 |                 1363 |            3028851 |             0 |                0 |         1333453 |                     0 |       1050492 | 2017-02-04 11:49:56.627292+01

 2017-02-04 13:07:29.850307+01 | 1486210049.85031 |                 0 |              16 |                 26097 |                 1363 |            3028851 |             0 |                0 |         1333453 |                     0 |       1050629 | 2017-02-04 11:49:56.627292+01

 2017-02-04 13:07:30.93098+01 | 1486210050.93098 |                 0 |              16 |                 26097 |                 1363 |            3028851 |             0 |                0 |         1333453 |                     0 |       1050798 | 2017-02-04 11:49:56.627292+01

 2017-02-04 13:07:32.013298+01 | 1486210052.0133 |                 0 |              16 |                 26097 |                 1363 |            3028851 |             0 |                0 |         1333453 |                     0 |       1050904 | 2017-02-04 11:49:56.627292+01

 2017-02-04 13:07:33.09186+01 | 1486210053.09186 |                 0 |              16 |                 26097 |                 1363 |            3028851 |             0 |                0 |         1333453 |                     0 |       1051140 | 2017-02-04 11:49:56.627292+01

 2017-02-04 13:07:34.153964+01 | 1486210054.15396 |                 0 |              16 |                 26097 |                 1363 |            3028851 |             0 |                0 |         1333453 |                     0 |       1051246 | 2017-02-04 11:49:56.627292+01

 2017-02-04 13:07:35.23626+01 | 1486210055.23626 |                 0 |              16 |                 26097 |                 1363 |            3028851 |             0 |                0 |         1333453 |                     0 |       1051417 | 2017-02-04 11:49:56.627292+01

 2017-02-04 13:07:36.31168+01 | 1486210056.31168 |                 0 |              16 |                 26097 |                 1363 |            3028851 |             0 |                0 |         1333453 |                     0 |       1051586 | 2017-02-04 11:49:56.627292+01

 2017-02-04 13:07:37.393532+01 | 1486210057.39353 |                 0 |              16 |                 26097 |                 1363 |            3028851 |             0 |                0 |         1333453 |                     0 |       1051675 | 2017-02-04 11:49:56.627292+01

 2017-02-04 13:07:38.465201+01 | 1486210058.4652 |                 0 |              16 |                 26097 |                 1363 |            3028851 |             0 |                0 |         1333453 |                     0 |       1051814 | 2017-02-04 11:49:56.627292+01

 2017-02-04 13:07:39.539351+01 | 1486210059.53935 |                 0 |              16 |                 26097 |                 1363 |            3028851 |             0 |                0 |         1333453 |                     0 |       1051990 | 2017-02-04 11:49:56.627292+01

 2017-02-04 13:07:40.616043+01 | 1486210060.61604 |                 0 |              16 |                 26097 |                 1363 |            3028851 |             0 |                0 |         1333453 |                     0 |       1052118 | 2017-02-04 11:49:56.627292+01

 2017-02-04 13:07:41.699768+01 | 1486210061.69977 |                 0 |              16 |                 26097 |                 1363 |            3028851 |             0 |                0 |         1333453 |                     0 |       1052291 | 2017-02-04 11:49:56.627292+01

 2017-02-04 13:07:42.777597+01 | 1486210062.7776 |                 0 |              16 |                 26097 |                 1363 |            3028851 |             0 |                0 |         1333453 |                     0 |       1052398 | 2017-02-04 11:49:56.627292+01

 2017-02-04 13:07:43.853646+01 | 1486210063.85365 |                 0 |              16 |                 26097 |                 1363 |            3028851 |             0 |                0 |         1333453 |                     0 |       1052535 | 2017-02-04 11:49:56.627292+01

 2017-02-04 13:07:44.927082+01 | 1486210064.92708 |                 0 |              16 |                 26097 |                 1363 |            3028851 |             0 |                0 |         1333453 |                     0 |       1052686 | 2017-02-04 11:49:56.627292+01

 2017-02-04 13:07:46.004155+01 | 1486210066.00415 |                 0 |              16 |                 26097 |                 1363 |            3028851 |             0 |                0 |         1333453 |                     0 |       1052840 | 2017-02-04 11:49:56.627292+01

 2017-02-04 13:07:47.085146+01 | 1486210067.08515 |                 0 |              16 |                 26097 |                 1363 |            3028851 |             0 |                0 |         1333453 |                     0 |       1052992 | 2017-02-04 11:49:56.627292+01

 2017-02-04 13:07:48.162261+01 | 1486210068.16226 |                 0 |              16 |                 26097 |                 1363 |            3028851 |             0 |                0 |         1333453 |                     0 |       1053145 | 2017-02-04 11:49:56.627292+01

 2017-02-04 13:07:49.243023+01 | 1486210069.24302 |                 0 |              16 |                 26097 |                 1363 |            3028851 |             0 |                0 |         1333453 |                     0 |       1053277 | 2017-02-04 11:49:56.627292+01

 2017-02-04 13:07:50.321127+01 | 1486210070.32113 |                 0 |              16 |                 26097 |                 1363 |            3028851 |             0 |                0 |         1333453 |                     0 |       1053449 | 2017-02-04 11:49:56.627292+01

 2017-02-04 13:07:51.394+01 | 1486210071.394 |                 0 |              16 |                 26097 |                 1363 |            3028851 |             0 |                0 |         1333453 |                     0 |       1053592 | 2017-02-04 11:49:56.627292+01

 2017-02-04 13:07:52.463295+01 | 1486210072.46329 |                 0 |              16 |                 26097 |                 1363 |            3028851 |             0 |                0 |         1333453 |                     0 |       1053775 | 2017-02-04 11:49:56.627292+01

 2017-02-04 13:07:53.551618+01 | 1486210073.55162 |                 0 |              16 |                 26097 |                 1363 |            3028851 |             0 |                0 |         1333453 |                     0 |       1053886 | 2017-02-04 11:49:56.627292+01

 2017-02-04 13:07:54.633067+01 | 1486210074.63307 |                 0 |              16 |                 26097 |                 1363 |            3028851 |             0 |                0 |         1333453 |                     0 |       1054011 | 2017-02-04 11:49:56.627292+01

 2017-02-04 13:07:55.715053+01 | 1486210075.71505 |                 0 |              16 |                 26097 |                 1363 |            3028851 |             0 |                0 |         1333453 |                     0 |       1054178 | 2017-02-04 11:49:56.627292+01

 2017-02-04 13:07:56.790944+01 | 1486210076.79094 |                 0 |              16 |                 26097 |                 1363 |            3028851 |             0 |                0 |         1333453 |                     0 |       1054350 | 2017-02-04 11:49:56.627292+01

 2017-02-04 13:07:57.865194+01 | 1486210077.86519 |                 0 |              16 |                 26097 |                 1363 |            3028851 |             0 |                0 |         1333453 |                     0 |       1054491 | 2017-02-04 11:49:56.627292+01

 2017-02-04 13:07:58.942493+01 | 1486210078.94249 |                 0 |              16 |                 26097 |                 1363 |            3028851 |             0 |                0 |         1333453 |                     0 |       1054623 | 2017-02-04 11:49:56.627292+01

 2017-02-04 13:08:00.019717+01 | 1486210080.01972 |                 0 |              16 |                 26097 |                 1363 |            3028851 |             0 |                0 |         1333453 |                     0 |       1054752 | 2017-02-04 11:49:56.627292+01

 2017-02-04 13:08:01.09841+01 | 1486210081.09841 |                 0 |              16 |                 26097 |                 1363 |            3028851 |             0 |                0 |         1333453 |                     0 |       1054947 | 2017-02-04 11:49:56.627292+01

 2017-02-04 13:08:02.179997+01 | 1486210082.18 |                 0 |              16 |                 26097 |                 1363 |            3028851 |             0 |                0 |         1333453 |                     0 |       1055013 | 2017-02-04 11:49:56.627292+01

 2017-02-04 13:08:03.258948+01 | 1486210083.25895 |                 0 |              16 |                 26097 |                 1363 |            3028851 |             0 |                0 |         1333453 |                     0 |       1055165 | 2017-02-04 11:49:56.627292+01

 2017-02-04 13:08:04.340491+01 | 1486210084.34049 |                 0 |              16 |                 26097 |                 1363 |            3028851 |             0 |                0 |         1333453 |                     0 |       1055387 | 2017-02-04 11:49:56.627292+01

 2017-02-04 13:08:05.418729+01 | 1486210085.41873 |                 0 |              16 |                 26097 |                 1363 |            3028851 |             0 |                0 |         1333453 |                     0 |       1055471 | 2017-02-04 11:49:56.627292+01

 2017-02-04 13:08:06.496307+01 | 1486210086.49631 |                 0 |              16 |                 26097 |                 1363 |            3028851 |             0 |                0 |         1333453 |                     0 |       1055622 | 2017-02-04 11:49:56.627292+01

 2017-02-04 13:08:07.571418+01 | 1486210087.57142 |                 0 |              16 |                 26097 |                 1363 |            3028851 |             0 |                0 |         1333453 |                     0 |       1055811 | 2017-02-04 11:49:56.627292+01

 2017-02-04 13:08:08.646436+01 | 1486210088.64644 |                 0 |              16 |                 26097 |                 1363 |            3028851 |             0 |                0 |         1333453 |                     0 |       1055898 | 2017-02-04 11:49:56.627292+01

 2017-02-04 13:08:09.725955+01 | 1486210089.72596 |                 0 |              16 |                 26097 |                 1363 |            3028851 |             0 |                0 |         1333453 |                     0 |       1056056 | 2017-02-04 11:49:56.627292+01

 2017-02-04 13:08:10.807417+01 | 1486210090.80742 |                 0 |              16 |                 26097 |                 1363 |            3028851 |             0 |                0 |         1333453 |                     0 |       1056202 | 2017-02-04 11:49:56.627292+01

 2017-02-04 13:08:11.88761+01 | 1486210091.88761 |                 0 |              16 |                 26097 |                 1363 |            3028851 |             0 |                0 |         1333453 |                     0 |       1056357 | 2017-02-04 11:49:56.627292+01

 2017-02-04 13:08:12.956446+01 | 1486210092.95645 |                 0 |              16 |                 26097 |                 1363 |            3028851 |             0 |                0 |         1333453 |                     0 |       1056490 | 2017-02-04 11:49:56.627292+01

 2017-02-04 13:08:14.04139+01 | 1486210094.04139 |                 0 |              16 |                 26097 |                 1363 |            3028851 |             0 |                0 |         1333453 |                     0 |       1056621 | 2017-02-04 11:49:56.627292+01

 2017-02-04 13:08:15.11676+01 | 1486210095.11676 |                 0 |              16 |                 26097 |                 1363 |            3028851 |             0 |                0 |         1333453 |                     0 |       1056766 | 2017-02-04 11:49:56.627292+01

 2017-02-04 13:08:16.192941+01 | 1486210096.19294 |                 0 |              16 |                 26097 |                 1363 |            3028851 |             0 |                0 |         1333453 |                     0 |       1056984 | 2017-02-04 11:49:56.627292+01

 2017-02-04 13:08:17.283127+01 | 1486210097.28313 |                 0 |              16 |                 26097 |                 1363 |            3028851 |             0 |                0 |         1333453 |                     0 |       1057080 | 2017-02-04 11:49:56.627292+01

 2017-02-04 13:08:18.360756+01 | 1486210098.36076 |                 0 |              16 |                 26097 |                 1363 |            3028851 |             0 |                0 |         1333453 |                     0 |       1057278 | 2017-02-04 11:49:56.627292+01

 2017-02-04 13:08:19.438293+01 | 1486210099.43829 |                 0 |              16 |                 26097 |                 1363 |            3028851 |             0 |                0 |         1333453 |                     0 |       1057278 | 2017-02-04 11:49:56.627292+01

 2017-02-04 13:08:20.512584+01 | 1486210100.51258 |                 0 |              16 |                 26097 |                 1363 |            3028851 |             0 |                0 |         1333453 |                     0 |       1057534 | 2017-02-04 11:49:56.627292+01

 2017-02-04 13:08:21.591754+01 | 1486210101.59175 |                 0 |              16 |                 26097 |                 1363 |            3028851 |             0 |                0 |         1333453 |                     0 |       1057657 | 2017-02-04 11:49:56.627292+01

 2017-02-04 13:08:22.670999+01 | 1486210102.671 |                 0 |              16 |                 26097 |                 1363 |            3028851 |             0 |                0 |         1333453 |                     0 |       1057851 | 2017-02-04 11:49:56.627292+01

 2017-02-04 13:08:23.755307+01 | 1486210103.75531 |                 0 |              16 |                 26097 |                 1363 |            3028851 |             0 |                0 |         1333453 |                     0 |       1057915 | 2017-02-04 11:49:56.627292+01

 2017-02-04 13:08:24.830927+01 | 1486210104.83093 |                 0 |              16 |                 26097 |                 1363 |            3028851 |             0 |                0 |         1333453 |                     0 |       1058089 | 2017-02-04 11:49:56.627292+01

 2017-02-04 13:08:25.909468+01 | 1486210105.90947 |                 0 |              16 |                 26097 |                 1363 |            3028851 |             0 |                0 |         1333453 |                     0 |       1058152 | 2017-02-04 11:49:56.627292+01

 2017-02-04 13:08:26.985328+01 | 1486210106.98533 |                 0 |              16 |                 26097 |                 1363 |            3028851 |             0 |                0 |         1333453 |                     0 |       1058373 | 2017-02-04 11:49:56.627292+01

 2017-02-04 13:08:28.055637+01 | 1486210108.05564 |                 0 |              16 |                 26097 |                 1363 |            3028851 |             0 |                0 |         1333453 |                     0 |       1058503 | 2017-02-04 11:49:56.627292+01

 2017-02-04 13:08:29.114854+01 | 1486210109.11485 |                 0 |              16 |                 26097 |                 1363 |            3028851 |             0 |                0 |         1333453 |                     0 |       1058621 | 2017-02-04 11:49:56.627292+01

 2017-02-04 13:08:30.192617+01 | 1486210110.19262 |                 0 |              16 |                 26097 |                 1363 |            3028851 |             0 |                0 |         1333453 |                     0 |       1058797 | 2017-02-04 11:49:56.627292+01

 2017-02-04 13:08:31.26951+01 | 1486210111.26951 |                 0 |              16 |                 26097 |                 1363 |            3028851 |             0 |                0 |         1333453 |                     0 |       1058880 | 2017-02-04 11:49:56.627292+01

 2017-02-04 13:08:32.34235+01 | 1486210112.34235 |                 0 |              16 |                 26097 |                 1363 |            3028851 |             0 |                0 |         1333453 |                     0 |       1059115 | 2017-02-04 11:49:56.627292+01

 2017-02-04 13:08:33.413445+01 | 1486210113.41344 |                 0 |              16 |                 26097 |                 1363 |            3028851 |             0 |                0 |         1333453 |                     0 |       1059247 | 2017-02-04 11:49:56.627292+01

 2017-02-04 13:08:34.501951+01 | 1486210114.50195 |                 0 |              16 |                 26097 |                 1363 |            3028851 |             0 |                0 |         1333453 |                     0 |       1059436 | 2017-02-04 11:49:56.627292+01

 2017-02-04 13:08:35.582473+01 | 1486210115.58247 |                 0 |              16 |                 26097 |                 1363 |            3028851 |             0 |                0 |         1333453 |                     0 |       1059436 | 2017-02-04 11:49:56.627292+01

 2017-02-04 13:08:36.668051+01 | 1486210116.66805 |                 0 |              16 |                 26097 |                 1363 |            3028851 |             0 |                0 |         1333453 |                     0 |       1059710 | 2017-02-04 11:49:56.627292+01

 2017-02-04 13:08:37.749873+01 | 1486210117.74987 |                 0 |              16 |                 26097 |                 1363 |            3028851 |             0 |                0 |         1333453 |                     0 |       1059797 | 2017-02-04 11:49:56.627292+01

 2017-02-04 13:08:38.824247+01 | 1486210118.82425 |                 0 |              16 |                 26097 |                 1363 |            3028851 |             0 |                0 |         1333453 |                     0 |       1059965 | 2017-02-04 11:49:56.627292+01

 2017-02-04 13:08:39.894156+01 | 1486210119.89416 |                 0 |              16 |                 26097 |                 1363 |            3028851 |             0 |                0 |         1333453 |                     0 |       1060074 | 2017-02-04 11:49:56.627292+01

 2017-02-04 13:08:40.97332+01 | 1486210120.97332 |                 0 |              16 |                 26097 |                 1363 |            3028851 |             0 |                0 |         1333453 |                     0 |       1060284 | 2017-02-04 11:49:56.627292+01

 2017-02-04 13:08:42.048678+01 | 1486210122.04868 |                 0 |              16 |                 26097 |                 1363 |            3028851 |             0 |                0 |         1333453 |                     0 |       1060435 | 2017-02-04 11:49:56.627292+01

 2017-02-04 13:08:43.133144+01 | 1486210123.13314 |                 0 |              16 |                 26097 |                 1363 |            3028851 |             0 |                0 |         1333453 |                     0 |       1060531 | 2017-02-04 11:49:56.627292+01

 2017-02-04 13:08:44.205127+01 | 1486210124.20513 |                 0 |              16 |                 26097 |                 1363 |            3028851 |             0 |                0 |         1333453 |                     0 |       1060680 | 2017-02-04 11:49:56.627292+01

 2017-02-04 13:08:45.278735+01 | 1486210125.27873 |                 0 |              16 |                 26097 |                 1363 |            3028851 |             0 |                0 |         1333453 |                     0 |       1060853 | 2017-02-04 11:49:56.627292+01

 2017-02-04 13:08:46.350565+01 | 1486210126.35056 |                 0 |              16 |                 26097 |                 1363 |            3028851 |             0 |                0 |         1333453 |                     0 |       1060997 | 2017-02-04 11:49:56.627292+01

 2017-02-04 13:08:47.425724+01 | 1486210127.42572 |                 0 |              16 |                 26097 |                 1363 |            3028851 |             0 |                0 |         1333453 |                     0 |       1061131 | 2017-02-04 11:49:56.627292+01

 2017-02-04 13:08:48.497114+01 | 1486210128.49711 |                 0 |              16 |                 26097 |                 1363 |            3028851 |             0 |                0 |         1333453 |                     0 |       1061281 | 2017-02-04 11:49:56.627292+01

 2017-02-04 13:08:49.570745+01 | 1486210129.57074 |                 0 |              16 |                 26097 |                 1363 |            3028851 |             0 |                0 |         1333453 |                     0 |       1061453 | 2017-02-04 11:49:56.627292+01

 2017-02-04 13:08:50.650342+01 | 1486210130.65034 |                 0 |              16 |                 26097 |                 1363 |            3028851 |             0 |                0 |         1333453 |                     0 |       1061642 | 2017-02-04 11:49:56.627292+01

 2017-02-04 13:08:51.731004+01 | 1486210131.731 |                 0 |              16 |                 26097 |                 1363 |            3028851 |             0 |                0 |         1333453 |                     0 |       1061725 | 2017-02-04 11:49:56.627292+01

 2017-02-04 13:08:52.817981+01 | 1486210132.81798 |                 0 |              16 |                 26097 |                 1363 |            3028851 |             0 |                0 |         1333453 |                     0 |       1061896 | 2017-02-04 11:49:56.627292+01

 2017-02-04 13:08:53.894591+01 | 1486210133.89459 |                 0 |              16 |                 26097 |                 1363 |            3028851 |             0 |                0 |         1333453 |                     0 |       1062020 | 2017-02-04 11:49:56.627292+01

 2017-02-04 13:08:54.981893+01 | 1486210134.98189 |                 0 |              16 |                 26097 |                 1363 |            3028851 |             0 |                0 |         1333453 |                     0 |       1062198 | 2017-02-04 11:49:56.627292+01

 2017-02-04 13:08:56.059582+01 | 1486210136.05958 |                 0 |              16 |                 26097 |                 1363 |            3028851 |             0 |                0 |         1333453 |                     0 |       1062329 | 2017-02-04 11:49:56.627292+01

 2017-02-04 13:08:57.136385+01 | 1486210137.13638 |                 0 |              16 |                 26097 |                 1363 |            3028851 |             0 |                0 |         1333453 |                     0 |       1062480 | 2017-02-04 11:49:56.627292+01

 2017-02-04 13:08:58.213136+01 | 1486210138.21314 |                 0 |              16 |                 26097 |                 1363 |            3028851 |             0 |                0 |         1333453 |                     0 |       1062632 | 2017-02-04 11:49:56.627292+01

 2017-02-04 13:08:59.290176+01 | 1486210139.29018 |                 0 |              16 |                 26097 |                 1363 |            3028851 |             0 |                0 |         1333453 |                     0 |       1062761 | 2017-02-04 11:49:56.627292+01

 2017-02-04 13:09:00.374898+01 | 1486210140.3749 |                 0 |              16 |                 26097 |                 1363 |            3028851 |             0 |                0 |         1333453 |                     0 |       1062954 | 2017-02-04 11:49:56.627292+01

 2017-02-04 13:09:01.453128+01 | 1486210141.45313 |                 0 |              16 |                 26097 |                 1363 |            3028851 |             0 |                0 |         1333453 |                     0 |       1063085 | 2017-02-04 11:49:56.627292+01

 2017-02-04 13:09:02.540955+01 | 1486210142.54096 |                 0 |              16 |                 26097 |                 1363 |            3028851 |             0 |                0 |         1333453 |                     0 |       1063255 | 2017-02-04 11:49:56.627292+01

 2017-02-04 13:09:03.623731+01 | 1486210143.62373 |                 0 |              16 |                 26097 |                 1363 |            3028851 |             0 |                0 |         1333453 |                     0 |       1063369 | 2017-02-04 11:49:56.627292+01

 2017-02-04 13:09:04.703057+01 | 1486210144.70306 |                 0 |              16 |                 26097 |                 1363 |            3028851 |             0 |                0 |         1333453 |                     0 |       1063516 | 2017-02-04 11:49:56.627292+01

 2017-02-04 13:09:05.782744+01 | 1486210145.78274 |                 0 |              16 |                 26097 |                 1363 |            3028851 |             0 |                0 |         1333453 |                     0 |       1063641 | 2017-02-04 11:49:56.627292+01

 2017-02-04 13:09:06.864369+01 | 1486210146.86437 |                 0 |              16 |                 26097 |                 1363 |            3028851 |             0 |                0 |         1333453 |                     0 |       1063788 | 2017-02-04 11:49:56.627292+01

 2017-02-04 13:09:07.954619+01 | 1486210147.95462 |                 0 |              16 |                 26097 |                 1363 |            3028851 |             0 |                0 |         1333453 |                     0 |       1064045 | 2017-02-04 11:49:56.627292+01

 2017-02-04 13:09:09.038353+01 | 1486210149.03835 |                 0 |              16 |                 26097 |                 1363 |            3028851 |             0 |                0 |         1333453 |                     0 |       1064111 | 2017-02-04 11:49:56.627292+01

 2017-02-04 13:09:10.123837+01 | 1486210150.12384 |                 0 |              16 |                 26097 |                 1363 |            3028851 |             0 |                0 |         1333453 |                     0 |       1064267 | 2017-02-04 11:49:56.627292+01

 2017-02-04 13:09:11.201201+01 | 1486210151.2012 |                 0 |              16 |                 26097 |                 1363 |            3028851 |             0 |                0 |         1333453 |                     0 |       1064416 | 2017-02-04 11:49:56.627292+01

 2017-02-04 13:09:12.277493+01 | 1486210152.27749 |                 0 |              16 |                 26097 |                 1363 |            3028851 |             0 |                0 |         1333453 |                     0 |       1064574 | 2017-02-04 11:49:56.627292+01

 2017-02-04 13:09:13.35925+01 | 1486210153.35925 |                 0 |              16 |                 26097 |                 1363 |            3028851 |             0 |                0 |         1333453 |                     0 |       1064773 | 2017-02-04 11:49:56.627292+01

 2017-02-04 13:09:14.439743+01 | 1486210154.43974 |                 0 |              16 |                 26097 |                 1363 |            3028851 |             0 |                0 |         1333453 |                     0 |       1064907 | 2017-02-04 11:49:56.627292+01

 2017-02-04 13:09:15.516166+01 | 1486210155.51617 |                 0 |              16 |                 26097 |                 1363 |            3028851 |             0 |                0 |         1333453 |                     0 |       1064970 | 2017-02-04 11:49:56.627292+01

 2017-02-04 13:09:16.594994+01 | 1486210156.59499 |                 0 |              16 |                 26097 |                 1363 |            3028851 |             0 |                0 |         1333453 |                     0 |       1065186 | 2017-02-04 11:49:56.627292+01

 2017-02-04 13:09:17.668692+01 | 1486210157.66869 |                 0 |              16 |                 26097 |                 1363 |            3028851 |             0 |                0 |         1333453 |                     0 |       1065340 | 2017-02-04 11:49:56.627292+01

 2017-02-04 13:09:18.751882+01 | 1486210158.75188 |                 0 |              16 |                 26097 |                 1363 |            3028851 |             0 |                0 |         1333453 |                     0 |       1065469 | 2017-02-04 11:49:56.627292+01

 2017-02-04 13:09:19.833036+01 | 1486210159.83304 |                 0 |              16 |                 26097 |                 1363 |            3028851 |             0 |                0 |         1333453 |                     0 |       1065665 | 2017-02-04 11:49:56.627292+01

 2017-02-04 13:09:20.913813+01 | 1486210160.91381 |                 0 |              16 |                 26097 |                 1363 |            3028851 |             0 |                0 |         1333453 |                     0 |       1065771 | 2017-02-04 11:49:56.627292+01

 2017-02-04 13:09:21.99709+01 | 1486210161.99709 |                 0 |              16 |                 26097 |                 1363 |            3028851 |             0 |                0 |         1333453 |                     0 |       1065942 | 2017-02-04 11:49:56.627292+01

 2017-02-04 13:09:23.070087+01 | 1486210163.07009 |                 0 |              16 |                 26097 |                 1363 |            3028851 |             0 |                0 |         1333453 |                     0 |       1066099 | 2017-02-04 11:49:56.627292+01

 2017-02-04 13:09:24.141408+01 | 1486210164.14141 |                 0 |              16 |                 26097 |                 1363 |            3028851 |             0 |                0 |         1333453 |                     0 |       1066231 | 2017-02-04 11:49:56.627292+01

 2017-02-04 13:09:25.217391+01 | 1486210165.21739 |                 0 |              16 |                 26097 |                 1363 |            3028851 |             0 |                0 |         1333453 |                     0 |       1066422 | 2017-02-04 11:49:56.627292+01

 2017-02-04 13:09:26.286902+01 | 1486210166.2869 |                 0 |              16 |                 26097 |                 1363 |            3028851 |             0 |                0 |         1333453 |                     0 |       1066611 | 2017-02-04 11:49:56.627292+01

 2017-02-04 13:09:27.358932+01 | 1486210167.35893 |                 0 |              16 |                 26097 |                 1363 |            3028851 |             0 |                0 |         1333453 |                     0 |       1066843 | 2017-02-04 11:49:56.627292+01

 2017-02-04 13:09:28.43828+01 | 1486210168.43828 |                 0 |              16 |                 26097 |                 1363 |            3028851 |             0 |                0 |         1333453 |                     0 |       1066844 | 2017-02-04 11:49:56.627292+01

 2017-02-04 13:09:29.507045+01 | 1486210169.50705 |                 0 |              16 |                 26097 |                 1363 |            3028851 |             0 |                0 |         1333453 |                     0 |       1067002 | 2017-02-04 11:49:56.627292+01

 2017-02-04 13:09:30.580393+01 | 1486210170.58039 |                 0 |              16 |                 26097 |                 1363 |            3028851 |             0 |                0 |         1333453 |                     0 |       1067149 | 2017-02-04 11:49:56.627292+01

 2017-02-04 13:09:31.656143+01 | 1486210171.65614 |                 0 |              16 |                 26097 |                 1363 |            3028851 |             0 |                0 |         1333453 |                     0 |       1067366 | 2017-02-04 11:49:56.627292+01

 2017-02-04 13:09:32.739472+01 | 1486210172.73947 |                 0 |              16 |                 26097 |                 1363 |            3028851 |             0 |                0 |         1333453 |                     0 |       1067479 | 2017-02-04 11:49:56.627292+01

 2017-02-04 13:09:33.818335+01 | 1486210173.81834 |                 0 |              16 |                 26097 |                 1363 |            3028851 |             0 |                0 |         1333453 |                     0 |       1067636 | 2017-02-04 11:49:56.627292+01

 2017-02-04 13:09:34.891195+01 | 1486210174.8912 |                 0 |              16 |                 26097 |                 1363 |            3028851 |             0 |                0 |         1333453 |                     0 |       1067787 | 2017-02-04 11:49:56.627292+01

 2017-02-04 13:09:35.972683+01 | 1486210175.97268 |                 0 |              16 |                 26097 |                 1363 |            3028851 |             0 |                0 |         1333453 |                     0 |       1068004 | 2017-02-04 11:49:56.627292+01

 2017-02-04 13:09:37.049484+01 | 1486210177.04948 |                 0 |              16 |                 26097 |                 1363 |            3028851 |             0 |                0 |         1333453 |                     0 |       1068135 | 2017-02-04 11:49:56.627292+01

 2017-02-04 13:09:38.121808+01 | 1486210178.12181 |                 0 |              16 |                 26097 |                 1363 |            3028851 |             0 |                0 |         1333453 |                     0 |       1068304 | 2017-02-04 11:49:56.627292+01

 2017-02-04 13:09:39.199297+01 | 1486210179.1993 |                 0 |              16 |                 26097 |                 1363 |            3028851 |             0 |                0 |         1333453 |                     0 |       1068476 | 2017-02-04 11:49:56.627292+01

 2017-02-04 13:09:40.274292+01 | 1486210180.27429 |                 0 |              16 |                 26097 |                 1363 |            3028851 |             0 |                0 |         1333453 |                     0 |       1068603 | 2017-02-04 11:49:56.627292+01

 2017-02-04 13:09:41.354248+01 | 1486210181.35425 |                 0 |              16 |                 26097 |                 1363 |            3028851 |             0 |                0 |         1333453 |                     0 |       1068778 | 2017-02-04 11:49:56.627292+01

 2017-02-04 13:09:42.433199+01 | 1486210182.4332 |                 0 |              16 |                 26097 |                 1363 |            3028851 |             0 |                0 |         1333453 |                     0 |       1068927 | 2017-02-04 11:49:56.627292+01

 2017-02-04 13:09:43.509127+01 | 1486210183.50913 |                 0 |              16 |                 26097 |                 1363 |            3028851 |             0 |                0 |         1333453 |                     0 |       1069102 | 2017-02-04 11:49:56.627292+01

 2017-02-04 13:09:44.589721+01 | 1486210184.58972 |                 0 |              16 |                 26097 |                 1363 |            3028851 |             0 |                0 |         1333453 |                     0 |       1069232 | 2017-02-04 11:49:56.627292+01

 2017-02-04 13:09:45.669577+01 | 1486210185.66958 |                 0 |              16 |                 26097 |                 1363 |            3028851 |             0 |                0 |         1333453 |                     0 |       1069385 | 2017-02-04 11:49:56.627292+01

 2017-02-04 13:09:46.750046+01 | 1486210186.75005 |                 0 |              16 |                 26097 |                 1363 |            3028851 |             0 |                0 |         1333453 |                     0 |       1069513 | 2017-02-04 11:49:56.627292+01

 2017-02-04 13:09:47.82885+01 | 1486210187.82885 |                 0 |              16 |                 26097 |                 1363 |            3028851 |             0 |                0 |         1333453 |                     0 |       1069682 | 2017-02-04 11:49:56.627292+01

 2017-02-04 13:09:48.912994+01 | 1486210188.91299 |                 0 |              16 |                 26097 |                 1363 |            3028851 |             0 |                0 |         1333453 |                     0 |       1069831 | 2017-02-04 11:49:56.627292+01

 2017-02-04 13:09:49.989976+01 | 1486210189.98998 |                 0 |              16 |                 26097 |                 1363 |            3028851 |             0 |                0 |         1333453 |                     0 |       1069980 | 2017-02-04 11:49:56.627292+01

 2017-02-04 13:09:51.070804+01 | 1486210191.0708 |                 0 |              16 |                 26097 |                 1363 |            3028851 |             0 |                0 |         1333453 |                     0 |       1070133 | 2017-02-04 11:49:56.627292+01

 2017-02-04 13:09:52.146772+01 | 1486210192.14677 |                 0 |              16 |                 26097 |                 1363 |            3028851 |             0 |                0 |         1333453 |                     0 |       1070285 | 2017-02-04 11:49:56.627292+01

 2017-02-04 13:09:53.218954+01 | 1486210193.21895 |                 0 |              16 |                 26097 |                 1363 |            3028851 |             0 |                0 |         1333453 |                     0 |       1070415 | 2017-02-04 11:49:56.627292+01

 2017-02-04 13:09:54.295127+01 | 1486210194.29513 |                 0 |              16 |                 26097 |                 1363 |            3028851 |             0 |                0 |         1333453 |                     0 |       1070587 | 2017-02-04 11:49:56.627292+01

 2017-02-04 13:09:55.374282+01 | 1486210195.37428 |                 0 |              16 |                 26097 |                 1363 |            3028851 |             0 |                0 |         1333453 |                     0 |       1070761 | 2017-02-04 11:49:56.627292+01

 2017-02-04 13:09:56.448896+01 | 1486210196.4489 |                 0 |              16 |                 26097 |                 1363 |            3028851 |             0 |                0 |         1333453 |                     0 |       1070891 | 2017-02-04 11:49:56.627292+01

 2017-02-04 13:09:57.529551+01 | 1486210197.52955 |                 0 |              16 |                 26097 |                 1363 |            3028851 |             0 |                0 |         1333453 |                     0 |       1071028 | 2017-02-04 11:49:56.627292+01

 2017-02-04 13:09:58.605877+01 | 1486210198.60588 |                 0 |              16 |                 26097 |                 1363 |            3028851 |             0 |                0 |         1333453 |                     0 |       1071167 | 2017-02-04 11:49:56.627292+01

 2017-02-04 13:09:59.68668+01 | 1486210199.68668 |                 0 |              16 |                 26097 |                 1363 |            3028851 |             0 |                0 |         1333453 |                     0 |       1071344 | 2017-02-04 11:49:56.627292+01

 2017-02-04 13:10:00.765162+01 | 1486210200.76516 |                 0 |              16 |                 26097 |                 1363 |            3028851 |             0 |                0 |         1333453 |                     0 |       1071473 | 2017-02-04 11:49:56.627292+01

 2017-02-04 13:10:01.839479+01 | 1486210201.83948 |                 0 |              16 |                 26097 |                 1363 |            3028851 |             0 |                0 |         1333453 |                     0 |       1071626 | 2017-02-04 11:49:56.627292+01

 2017-02-04 13:10:02.926076+01 | 1486210202.92608 |                 0 |              16 |                 26097 |                 1363 |            3028851 |             0 |                0 |         1333453 |                     0 |       1071773 | 2017-02-04 11:49:56.627292+01

 2017-02-04 13:10:04.003474+01 | 1486210204.00347 |                 0 |              16 |                 26097 |                 1363 |            3028851 |             0 |                0 |         1333453 |                     0 |       1071907 | 2017-02-04 11:49:56.627292+01

 2017-02-04 13:10:05.082349+01 | 1486210205.08235 |                 0 |              16 |                 26097 |                 1363 |            3028851 |             0 |                0 |         1333453 |                     0 |       1072116 | 2017-02-04 11:49:56.627292+01

 2017-02-04 13:10:06.15526+01 | 1486210206.15526 |                 0 |              16 |                 26097 |                 1363 |            3028851 |             0 |                0 |         1333453 |                     0 |       1072202 | 2017-02-04 11:49:56.627292+01

 2017-02-04 13:10:07.232301+01 | 1486210207.2323 |                 0 |              16 |                 26097 |                 1363 |            3028851 |             0 |                0 |         1333453 |                     0 |       1072356 | 2017-02-04 11:49:56.627292+01

 2017-02-04 13:10:08.305728+01 | 1486210208.30573 |                 0 |              16 |                 26097 |                 1363 |            3028851 |             0 |                0 |         1333453 |                     0 |       1072526 | 2017-02-04 11:49:56.627292+01

 2017-02-04 13:10:09.381983+01 | 1486210209.38198 |                 0 |              16 |                 26097 |                 1363 |            3028851 |             0 |                0 |         1333453 |                     0 |       1072675 | 2017-02-04 11:49:56.627292+01

 2017-02-04 13:10:10.455558+01 | 1486210210.45556 |                 0 |              16 |                 26097 |                 1363 |            3028851 |             0 |                0 |         1333453 |                     0 |       1072876 | 2017-02-04 11:49:56.627292+01

 2017-02-04 13:10:11.536818+01 | 1486210211.53682 |                 0 |              16 |                 26097 |                 1363 |            3028851 |             0 |                0 |         1333453 |                     0 |       1073007 | 2017-02-04 11:49:56.627292+01

 2017-02-04 13:10:12.608502+01 | 1486210212.6085 |                 0 |              16 |                 26097 |                 1363 |            3028851 |             0 |                0 |         1333453 |                     0 |       1073137 | 2017-02-04 11:49:56.627292+01

 2017-02-04 13:10:13.688625+01 | 1486210213.68863 |                 0 |              16 |                 26097 |                 1363 |            3028851 |             0 |                0 |         1333453 |                     0 |       1073284 | 2017-02-04 11:49:56.627292+01

 2017-02-04 13:10:14.764485+01 | 1486210214.76448 |                 0 |              16 |                 26097 |                 1363 |            3028851 |             0 |                0 |         1333453 |                     0 |       1073433 | 2017-02-04 11:49:56.627292+01

 2017-02-04 13:10:15.843636+01 | 1486210215.84364 |                 0 |              16 |                 26097 |                 1363 |            3028851 |             0 |                0 |         1333453 |                     0 |       1073568 | 2017-02-04 11:49:56.627292+01

 2017-02-04 13:10:16.924581+01 | 1486210216.92458 |                 0 |              16 |                 26097 |                 1363 |            3028851 |             0 |                0 |         1333453 |                     0 |       1073651 | 2017-02-04 11:49:56.627292+01

 2017-02-04 13:10:18.008038+01 | 1486210218.00804 |                 0 |              16 |                 26097 |                 1363 |            3028851 |             0 |                0 |         1333453 |                     0 |       1073890 | 2017-02-04 11:49:56.627292+01

 2017-02-04 13:10:19.079788+01 | 1486210219.07979 |                 0 |              16 |                 26097 |                 1363 |            3028851 |             0 |                0 |         1333453 |                     0 |       1074025 | 2017-02-04 11:49:56.627292+01

 2017-02-04 13:10:20.159934+01 | 1486210220.15993 |                 0 |              16 |                 26097 |                 1363 |            3028851 |             0 |                0 |         1333453 |                     0 |       1074177 | 2017-02-04 11:49:56.627292+01

 2017-02-04 13:10:21.236008+01 | 1486210221.23601 |                 0 |              16 |                 26097 |                 1363 |            3028851 |             0 |                0 |         1333453 |                     0 |       1074348 | 2017-02-04 11:49:56.627292+01

 2017-02-04 13:10:22.316341+01 | 1486210222.31634 |                 0 |              16 |                 26097 |                 1363 |            3028851 |             0 |                0 |         1333453 |                     0 |       1074457 | 2017-02-04 11:49:56.627292+01

 2017-02-04 13:10:23.396464+01 | 1486210223.39646 |                 0 |              16 |                 26097 |                 1363 |            3028851 |             0 |                0 |         1333453 |                     0 |       1074669 | 2017-02-04 11:49:56.627292+01

 2017-02-04 13:10:24.471103+01 | 1486210224.4711 |                 0 |              16 |                 26097 |                 1363 |            3028851 |             0 |                0 |         1333453 |                     0 |       1074779 | 2017-02-04 11:49:56.627292+01

 2017-02-04 13:10:25.542421+01 | 1486210225.54242 |                 0 |              16 |                 26097 |                 1363 |            3028851 |             0 |                0 |         1333453 |                     0 |       1074954 | 2017-02-04 11:49:56.627292+01

 2017-02-04 13:10:26.620812+01 | 1486210226.62081 |                 0 |              16 |                 26097 |                 1363 |            3028851 |             0 |                0 |         1333453 |                     0 |       1075060 | 2017-02-04 11:49:56.627292+01

 2017-02-04 13:10:27.704515+01 | 1486210227.70451 |                 0 |              16 |                 26097 |                 1363 |            3028851 |             0 |                0 |         1333453 |                     0 |       1075207 | 2017-02-04 11:49:56.627292+01

 2017-02-04 13:10:28.78671+01 | 1486210228.78671 |                 0 |              16 |                 26097 |                 1363 |            3028851 |             0 |                0 |         1333453 |                     0 |       1075386 | 2017-02-04 11:49:56.627292+01

 2017-02-04 13:10:29.872879+01 | 1486210229.87288 |                 0 |              16 |                 26097 |                 1363 |            3028851 |             0 |                0 |         1333453 |                     0 |       1075562 | 2017-02-04 11:49:56.627292+01

 2017-02-04 13:10:30.957112+01 | 1486210230.95711 |                 0 |              16 |                 26097 |                 1363 |            3028851 |             0 |                0 |         1333453 |                     0 |       1075716 | 2017-02-04 11:49:56.627292+01

 2017-02-04 13:10:32.034905+01 | 1486210232.0349 |                 0 |              16 |                 26097 |                 1363 |            3028851 |             0 |                0 |         1333453 |                     0 |       1075850 | 2017-02-04 11:49:56.627292+01

 2017-02-04 13:10:33.115329+01 | 1486210233.11533 |                 0 |              16 |                 26097 |                 1363 |            3028851 |             0 |                0 |         1333453 |                     0 |       1076020 | 2017-02-04 11:49:56.627292+01

 2017-02-04 13:10:34.194539+01 | 1486210234.19454 |                 0 |              16 |                 26097 |                 1363 |            3028851 |             0 |                0 |         1333453 |                     0 |       1076193 | 2017-02-04 11:49:56.627292+01

 2017-02-04 13:10:35.274893+01 | 1486210235.27489 |                 0 |              16 |                 26097 |                 1363 |            3028851 |             0 |                0 |         1333453 |                     0 |       1076322 | 2017-02-04 11:49:56.627292+01

 2017-02-04 13:10:36.360495+01 | 1486210236.3605 |                 0 |              16 |                 26097 |                 1363 |            3028851 |             0 |                0 |         1333453 |                     0 |       1076426 | 2017-02-04 11:49:56.627292+01

 2017-02-04 13:10:37.436799+01 | 1486210237.4368 |                 0 |              16 |                 26097 |                 1363 |            3028851 |             0 |                0 |         1333453 |                     0 |       1076528 | 2017-02-04 11:49:56.627292+01

 2017-02-04 13:10:38.51817+01 | 1486210238.51817 |                 0 |              16 |                 26097 |                 1363 |            3028851 |             0 |                0 |         1333453 |                     0 |       1076699 | 2017-02-04 11:49:56.627292+01

 2017-02-04 13:10:39.598221+01 | 1486210239.59822 |                 0 |              16 |                 26097 |                 1363 |            3028851 |             0 |                0 |         1333453 |                     0 |       1076869 | 2017-02-04 11:49:56.627292+01

 2017-02-04 13:10:40.675643+01 | 1486210240.67564 |                 0 |              16 |                 26097 |                 1363 |            3028851 |             0 |                0 |         1333453 |                     0 |       1077017 | 2017-02-04 11:49:56.627292+01

 2017-02-04 13:10:41.742619+01 | 1486210241.74262 |                 0 |              16 |                 26097 |                 1363 |            3028851 |             0 |                0 |         1333453 |                     0 |       1077126 | 2017-02-04 11:49:56.627292+01

 2017-02-04 13:10:42.828644+01 | 1486210242.82864 |                 0 |              16 |                 26097 |                 1363 |            3028851 |             0 |                0 |         1333453 |                     0 |       1077338 | 2017-02-04 11:49:56.627292+01

 2017-02-04 13:10:43.908393+01 | 1486210243.90839 |                 0 |              16 |                 26097 |                 1363 |            3028851 |             0 |                0 |         1333453 |                     0 |       1077528 | 2017-02-04 11:49:56.627292+01

 2017-02-04 13:10:44.989335+01 | 1486210244.98934 |                 0 |              16 |                 26097 |                 1363 |            3028851 |             0 |                0 |         1333453 |                     0 |       1077654 | 2017-02-04 11:49:56.627292+01

 2017-02-04 13:10:46.063981+01 | 1486210246.06398 |                 0 |              16 |                 26097 |                 1363 |            3028851 |             0 |                0 |         1333453 |                     0 |       1077803 | 2017-02-04 11:49:56.627292+01

 2017-02-04 13:10:47.149636+01 | 1486210247.14964 |                 0 |              16 |                 26097 |                 1363 |            3028851 |             0 |                0 |         1333453 |                     0 |       1077909 | 2017-02-04 11:49:56.627292+01

 2017-02-04 13:10:48.223507+01 | 1486210248.22351 |                 0 |              16 |                 26097 |                 1363 |            3028851 |             0 |                0 |         1333453 |                     0 |       1078066 | 2017-02-04 11:49:56.627292+01

 2017-02-04 13:10:49.301381+01 | 1486210249.30138 |                 0 |              16 |                 26097 |                 1363 |            3028851 |             0 |                0 |         1333453 |                     0 |       1078195 | 2017-02-04 11:49:56.627292+01

 2017-02-04 13:10:50.377194+01 | 1486210250.37719 |                 0 |              16 |                 26097 |                 1363 |            3028851 |             0 |                0 |         1333453 |                     0 |       1078452 | 2017-02-04 11:49:56.627292+01

 2017-02-04 13:10:51.44897+01 | 1486210251.44897 |                 0 |              16 |                 26097 |                 1363 |            3028851 |             0 |                0 |         1333453 |                     0 |       1078579 | 2017-02-04 11:49:56.627292+01

 2017-02-04 13:10:52.524879+01 | 1486210252.52488 |                 0 |              16 |                 26097 |                 1363 |            3028851 |             0 |                0 |         1333453 |                     0 |       1078688 | 2017-02-04 11:49:56.627292+01

 2017-02-04 13:10:53.615498+01 | 1486210253.6155 |                 0 |              16 |                 26097 |                 1363 |            3028851 |             0 |                0 |         1333453 |                     0 |       1078817 | 2017-02-04 11:49:56.627292+01

 2017-02-04 13:10:54.695296+01 | 1486210254.6953 |                 0 |              16 |                 26097 |                 1363 |            3028851 |             0 |                0 |         1333453 |                     0 |       1079030 | 2017-02-04 11:49:56.627292+01

