 2017-02-04 07:47:19.613315+01 | 1486190839.61332 | pgbench_accounts |      13916651520
 2017-02-04 07:47:19.613315+01 | 1486190839.61332 | pgbench_tellers  |         34455552
 2017-02-04 07:47:19.613315+01 | 1486190839.61332 | pgbench_history  |             8192
 2017-02-04 07:47:19.613315+01 | 1486190839.61332 | pgbench_branches |         17047552

 2017-02-04 07:47:20.700467+01 | 1486190840.70047 | pgbench_accounts |      13916651520
 2017-02-04 07:47:20.700467+01 | 1486190840.70047 | pgbench_tellers  |         34455552
 2017-02-04 07:47:20.700467+01 | 1486190840.70047 | pgbench_history  |           917504
 2017-02-04 07:47:20.700467+01 | 1486190840.70047 | pgbench_branches |         17047552

 2017-02-04 07:47:21.775607+01 | 1486190841.77561 | pgbench_accounts |      13916651520
 2017-02-04 07:47:21.775607+01 | 1486190841.77561 | pgbench_tellers  |         34455552
 2017-02-04 07:47:21.775607+01 | 1486190841.77561 | pgbench_history  |          1622016
 2017-02-04 07:47:21.775607+01 | 1486190841.77561 | pgbench_branches |         17047552

 2017-02-04 07:47:22.859952+01 | 1486190842.85995 | pgbench_accounts |      13916651520
 2017-02-04 07:47:22.859952+01 | 1486190842.85995 | pgbench_tellers  |         34455552
 2017-02-04 07:47:22.859952+01 | 1486190842.85995 | pgbench_history  |          2523136
 2017-02-04 07:47:22.859952+01 | 1486190842.85995 | pgbench_branches |         17047552

 2017-02-04 07:47:23.950293+01 | 1486190843.95029 | pgbench_accounts |      13916651520
 2017-02-04 07:47:23.950293+01 | 1486190843.95029 | pgbench_tellers  |         34455552
 2017-02-04 07:47:23.950293+01 | 1486190843.95029 | pgbench_history  |          3260416
 2017-02-04 07:47:23.950293+01 | 1486190843.95029 | pgbench_branches |         17047552

 2017-02-04 07:47:25.033407+01 | 1486190845.03341 | pgbench_accounts |      13916651520
 2017-02-04 07:47:25.033407+01 | 1486190845.03341 | pgbench_tellers  |         34455552
 2017-02-04 07:47:25.033407+01 | 1486190845.03341 | pgbench_history  |          4317184
 2017-02-04 07:47:25.033407+01 | 1486190845.03341 | pgbench_branches |         17047552

 2017-02-04 07:47:26.110747+01 | 1486190846.11075 | pgbench_accounts |      13916651520
 2017-02-04 07:47:26.110747+01 | 1486190846.11075 | pgbench_tellers  |         34455552
 2017-02-04 07:47:26.110747+01 | 1486190846.11075 | pgbench_history  |          5324800
 2017-02-04 07:47:26.110747+01 | 1486190846.11075 | pgbench_branches |         17047552

 2017-02-04 07:47:27.19452+01 | 1486190847.19452 | pgbench_accounts |      13916651520
 2017-02-04 07:47:27.19452+01 | 1486190847.19452 | pgbench_tellers  |         34455552
 2017-02-04 07:47:27.19452+01 | 1486190847.19452 | pgbench_history  |          6045696
 2017-02-04 07:47:27.19452+01 | 1486190847.19452 | pgbench_branches |         17047552

 2017-02-04 07:47:28.280451+01 | 1486190848.28045 | pgbench_accounts |      13916651520
 2017-02-04 07:47:28.280451+01 | 1486190848.28045 | pgbench_tellers  |         34455552
 2017-02-04 07:47:28.280451+01 | 1486190848.28045 | pgbench_history  |          6471680
 2017-02-04 07:47:28.280451+01 | 1486190848.28045 | pgbench_branches |         17047552

 2017-02-04 07:47:29.361898+01 | 1486190849.3619 | pgbench_accounts |      13916651520
 2017-02-04 07:47:29.361898+01 | 1486190849.3619 | pgbench_tellers  |         34455552
 2017-02-04 07:47:29.361898+01 | 1486190849.3619 | pgbench_history  |          7200768
 2017-02-04 07:47:29.361898+01 | 1486190849.3619 | pgbench_branches |         17047552

 2017-02-04 07:47:30.447284+01 | 1486190850.44728 | pgbench_accounts |      13916651520
 2017-02-04 07:47:30.447284+01 | 1486190850.44728 | pgbench_tellers  |         34455552
 2017-02-04 07:47:30.447284+01 | 1486190850.44728 | pgbench_history  |          8101888
 2017-02-04 07:47:30.447284+01 | 1486190850.44728 | pgbench_branches |         17047552

 2017-02-04 07:47:31.533349+01 | 1486190851.53335 | pgbench_accounts |      13916651520
 2017-02-04 07:47:31.533349+01 | 1486190851.53335 | pgbench_tellers  |         34455552
 2017-02-04 07:47:31.533349+01 | 1486190851.53335 | pgbench_history  |          8978432
 2017-02-04 07:47:31.533349+01 | 1486190851.53335 | pgbench_branches |         17047552

 2017-02-04 07:47:32.601448+01 | 1486190852.60145 | pgbench_accounts |      13916651520
 2017-02-04 07:47:32.601448+01 | 1486190852.60145 | pgbench_tellers  |         34455552
 2017-02-04 07:47:32.601448+01 | 1486190852.60145 | pgbench_history  |          9748480
 2017-02-04 07:47:32.601448+01 | 1486190852.60145 | pgbench_branches |         17047552

 2017-02-04 07:47:33.683599+01 | 1486190853.6836 | pgbench_accounts |      13916651520
 2017-02-04 07:47:33.683599+01 | 1486190853.6836 | pgbench_tellers  |         34455552
 2017-02-04 07:47:33.683599+01 | 1486190853.6836 | pgbench_history  |         10493952
 2017-02-04 07:47:33.683599+01 | 1486190853.6836 | pgbench_branches |         17047552

 2017-02-04 07:47:34.754926+01 | 1486190854.75493 | pgbench_accounts |      13916651520
 2017-02-04 07:47:34.754926+01 | 1486190854.75493 | pgbench_tellers  |         34455552
 2017-02-04 07:47:34.754926+01 | 1486190854.75493 | pgbench_history  |         11370496
 2017-02-04 07:47:34.754926+01 | 1486190854.75493 | pgbench_branches |         17047552

 2017-02-04 07:47:35.843628+01 | 1486190855.84363 | pgbench_accounts |      13916651520
 2017-02-04 07:47:35.843628+01 | 1486190855.84363 | pgbench_tellers  |         34455552
 2017-02-04 07:47:35.843628+01 | 1486190855.84363 | pgbench_history  |         12083200
 2017-02-04 07:47:35.843628+01 | 1486190855.84363 | pgbench_branches |         17047552

 2017-02-04 07:47:36.939553+01 | 1486190856.93955 | pgbench_accounts |      13916651520
 2017-02-04 07:47:36.939553+01 | 1486190856.93955 | pgbench_tellers  |         34455552
 2017-02-04 07:47:36.939553+01 | 1486190856.93955 | pgbench_history  |         13443072
 2017-02-04 07:47:36.939553+01 | 1486190856.93955 | pgbench_branches |         17047552

 2017-02-04 07:47:38.021382+01 | 1486190858.02138 | pgbench_accounts |      13916651520
 2017-02-04 07:47:38.021382+01 | 1486190858.02138 | pgbench_tellers  |         34455552
 2017-02-04 07:47:38.021382+01 | 1486190858.02138 | pgbench_history  |         13828096
 2017-02-04 07:47:38.021382+01 | 1486190858.02138 | pgbench_branches |         17047552

 2017-02-04 07:47:39.107788+01 | 1486190859.10779 | pgbench_accounts |      13916651520
 2017-02-04 07:47:39.107788+01 | 1486190859.10779 | pgbench_tellers  |         34455552
 2017-02-04 07:47:39.107788+01 | 1486190859.10779 | pgbench_history  |         14884864
 2017-02-04 07:47:39.107788+01 | 1486190859.10779 | pgbench_branches |         17047552

 2017-02-04 07:47:40.192665+01 | 1486190860.19267 | pgbench_accounts |      13916651520
 2017-02-04 07:47:40.192665+01 | 1486190860.19267 | pgbench_tellers  |         34455552
 2017-02-04 07:47:40.192665+01 | 1486190860.19267 | pgbench_history  |         15810560
 2017-02-04 07:47:40.192665+01 | 1486190860.19267 | pgbench_branches |         17047552

 2017-02-04 07:47:41.282512+01 | 1486190861.28251 | pgbench_accounts |      13916651520
 2017-02-04 07:47:41.282512+01 | 1486190861.28251 | pgbench_tellers  |         34455552
 2017-02-04 07:47:41.282512+01 | 1486190861.28251 | pgbench_history  |         16367616
 2017-02-04 07:47:41.282512+01 | 1486190861.28251 | pgbench_branches |         17047552

 2017-02-04 07:47:42.356042+01 | 1486190862.35604 | pgbench_accounts |      13916651520
 2017-02-04 07:47:42.356042+01 | 1486190862.35604 | pgbench_tellers  |         34455552
 2017-02-04 07:47:42.356042+01 | 1486190862.35604 | pgbench_history  |         17276928
 2017-02-04 07:47:42.356042+01 | 1486190862.35604 | pgbench_branches |         17047552

 2017-02-04 07:47:43.433098+01 | 1486190863.4331 | pgbench_accounts |      13916651520
 2017-02-04 07:47:43.433098+01 | 1486190863.4331 | pgbench_tellers  |         34455552
 2017-02-04 07:47:43.433098+01 | 1486190863.4331 | pgbench_history  |         18071552
 2017-02-04 07:47:43.433098+01 | 1486190863.4331 | pgbench_branches |         17047552

 2017-02-04 07:47:44.511137+01 | 1486190864.51114 | pgbench_accounts |      13916651520
 2017-02-04 07:47:44.511137+01 | 1486190864.51114 | pgbench_tellers  |         34455552
 2017-02-04 07:47:44.511137+01 | 1486190864.51114 | pgbench_history  |         19013632
 2017-02-04 07:47:44.511137+01 | 1486190864.51114 | pgbench_branches |         17047552

 2017-02-04 07:47:45.600932+01 | 1486190865.60093 | pgbench_accounts |      13916651520
 2017-02-04 07:47:45.600932+01 | 1486190865.60093 | pgbench_tellers  |         34455552
 2017-02-04 07:47:45.600932+01 | 1486190865.60093 | pgbench_history  |         20267008
 2017-02-04 07:47:45.600932+01 | 1486190865.60093 | pgbench_branches |         17047552

 2017-02-04 07:47:46.684342+01 | 1486190866.68434 | pgbench_accounts |      13916651520
 2017-02-04 07:47:46.684342+01 | 1486190866.68434 | pgbench_tellers  |         34455552
 2017-02-04 07:47:46.684342+01 | 1486190866.68434 | pgbench_history  |         20652032
 2017-02-04 07:47:46.684342+01 | 1486190866.68434 | pgbench_branches |         17047552

 2017-02-04 07:47:47.773332+01 | 1486190867.77333 | pgbench_accounts |      13916651520
 2017-02-04 07:47:47.773332+01 | 1486190867.77333 | pgbench_tellers  |         34455552
 2017-02-04 07:47:47.773332+01 | 1486190867.77333 | pgbench_history  |         21929984
 2017-02-04 07:47:47.773332+01 | 1486190867.77333 | pgbench_branches |         17047552

 2017-02-04 07:47:48.861158+01 | 1486190868.86116 | pgbench_accounts |      13916651520
 2017-02-04 07:47:48.861158+01 | 1486190868.86116 | pgbench_tellers  |         34455552
 2017-02-04 07:47:48.861158+01 | 1486190868.86116 | pgbench_history  |         22495232
 2017-02-04 07:47:48.861158+01 | 1486190868.86116 | pgbench_branches |         17047552

 2017-02-04 07:47:49.949549+01 | 1486190869.94955 | pgbench_accounts |      13916651520
 2017-02-04 07:47:49.949549+01 | 1486190869.94955 | pgbench_tellers  |         34455552
 2017-02-04 07:47:49.949549+01 | 1486190869.94955 | pgbench_history  |         23101440
 2017-02-04 07:47:49.949549+01 | 1486190869.94955 | pgbench_branches |         17047552

 2017-02-04 07:47:51.040065+01 | 1486190871.04007 | pgbench_accounts |      13916651520
 2017-02-04 07:47:51.040065+01 | 1486190871.04007 | pgbench_tellers  |         34455552
 2017-02-04 07:47:51.040065+01 | 1486190871.04007 | pgbench_history  |         23986176
 2017-02-04 07:47:51.040065+01 | 1486190871.04007 | pgbench_branches |         17047552

 2017-02-04 07:47:52.126925+01 | 1486190872.12692 | pgbench_accounts |      13916651520
 2017-02-04 07:47:52.126925+01 | 1486190872.12692 | pgbench_tellers  |         34455552
 2017-02-04 07:47:52.126925+01 | 1486190872.12692 | pgbench_history  |         24870912
 2017-02-04 07:47:52.126925+01 | 1486190872.12692 | pgbench_branches |         17047552

 2017-02-04 07:47:53.21187+01 | 1486190873.21187 | pgbench_accounts |      13916651520
 2017-02-04 07:47:53.21187+01 | 1486190873.21187 | pgbench_tellers  |         34455552
 2017-02-04 07:47:53.21187+01 | 1486190873.21187 | pgbench_history  |         24870912
 2017-02-04 07:47:53.21187+01 | 1486190873.21187 | pgbench_branches |         17047552

 2017-02-04 07:47:54.289327+01 | 1486190874.28933 | pgbench_accounts |      13916651520
 2017-02-04 07:47:54.289327+01 | 1486190874.28933 | pgbench_tellers  |         34455552
 2017-02-04 07:47:54.289327+01 | 1486190874.28933 | pgbench_history  |         25763840
 2017-02-04 07:47:54.289327+01 | 1486190874.28933 | pgbench_branches |         17047552

 2017-02-04 07:47:55.365331+01 | 1486190875.36533 | pgbench_accounts |      13916651520
 2017-02-04 07:47:55.365331+01 | 1486190875.36533 | pgbench_tellers  |         34455552
 2017-02-04 07:47:55.365331+01 | 1486190875.36533 | pgbench_history  |         26640384
 2017-02-04 07:47:55.365331+01 | 1486190875.36533 | pgbench_branches |         17047552

 2017-02-04 07:47:56.441194+01 | 1486190876.44119 | pgbench_accounts |      13916651520
 2017-02-04 07:47:56.441194+01 | 1486190876.44119 | pgbench_tellers  |         34455552
 2017-02-04 07:47:56.441194+01 | 1486190876.44119 | pgbench_history  |         26992640
 2017-02-04 07:47:56.441194+01 | 1486190876.44119 | pgbench_branches |         17047552

 2017-02-04 07:47:57.518815+01 | 1486190877.51882 | pgbench_accounts |      13916651520
 2017-02-04 07:47:57.518815+01 | 1486190877.51882 | pgbench_tellers  |         34455552
 2017-02-04 07:47:57.518815+01 | 1486190877.51882 | pgbench_history  |         27746304
 2017-02-04 07:47:57.518815+01 | 1486190877.51882 | pgbench_branches |         17047552

 2017-02-04 07:47:58.596797+01 | 1486190878.5968 | pgbench_accounts |      13916651520
 2017-02-04 07:47:58.596797+01 | 1486190878.5968 | pgbench_tellers  |         34455552
 2017-02-04 07:47:58.596797+01 | 1486190878.5968 | pgbench_history  |         28663808
 2017-02-04 07:47:58.596797+01 | 1486190878.5968 | pgbench_branches |         17047552

 2017-02-04 07:47:59.680898+01 | 1486190879.6809 | pgbench_accounts |      13916651520
 2017-02-04 07:47:59.680898+01 | 1486190879.6809 | pgbench_tellers  |         34455552
 2017-02-04 07:47:59.680898+01 | 1486190879.6809 | pgbench_history  |         30113792
 2017-02-04 07:47:59.680898+01 | 1486190879.6809 | pgbench_branches |         17047552

 2017-02-04 07:48:00.756319+01 | 1486190880.75632 | pgbench_accounts |      13916651520
 2017-02-04 07:48:00.756319+01 | 1486190880.75632 | pgbench_tellers  |         34455552
 2017-02-04 07:48:00.756319+01 | 1486190880.75632 | pgbench_history  |         30638080
 2017-02-04 07:48:00.756319+01 | 1486190880.75632 | pgbench_branches |         17047552

 2017-02-04 07:48:01.841264+01 | 1486190881.84126 | pgbench_accounts |      13916651520
 2017-02-04 07:48:01.841264+01 | 1486190881.84126 | pgbench_tellers  |         34455552
 2017-02-04 07:48:01.841264+01 | 1486190881.84126 | pgbench_history  |         31285248
 2017-02-04 07:48:01.841264+01 | 1486190881.84126 | pgbench_branches |         17047552

 2017-02-04 07:48:02.916383+01 | 1486190882.91638 | pgbench_accounts |      13916651520
 2017-02-04 07:48:02.916383+01 | 1486190882.91638 | pgbench_tellers  |         34455552
 2017-02-04 07:48:02.916383+01 | 1486190882.91638 | pgbench_history  |         32137216
 2017-02-04 07:48:02.916383+01 | 1486190882.91638 | pgbench_branches |         17047552

 2017-02-04 07:48:03.989549+01 | 1486190883.98955 | pgbench_accounts |      13916651520
 2017-02-04 07:48:03.989549+01 | 1486190883.98955 | pgbench_tellers  |         34455552
 2017-02-04 07:48:03.989549+01 | 1486190883.98955 | pgbench_history  |         33013760
 2017-02-04 07:48:03.989549+01 | 1486190883.98955 | pgbench_branches |         17047552

 2017-02-04 07:48:05.062497+01 | 1486190885.0625 | pgbench_accounts |      13916651520
 2017-02-04 07:48:05.062497+01 | 1486190885.0625 | pgbench_tellers  |         34455552
 2017-02-04 07:48:05.062497+01 | 1486190885.0625 | pgbench_history  |         33890304
 2017-02-04 07:48:05.062497+01 | 1486190885.0625 | pgbench_branches |         17047552

 2017-02-04 07:48:06.144563+01 | 1486190886.14456 | pgbench_accounts |      13916651520
 2017-02-04 07:48:06.144563+01 | 1486190886.14456 | pgbench_tellers  |         34455552
 2017-02-04 07:48:06.144563+01 | 1486190886.14456 | pgbench_history  |         34750464
 2017-02-04 07:48:06.144563+01 | 1486190886.14456 | pgbench_branches |         17047552

 2017-02-04 07:48:07.21684+01 | 1486190887.21684 | pgbench_accounts |      13916651520
 2017-02-04 07:48:07.21684+01 | 1486190887.21684 | pgbench_tellers  |         34455552
 2017-02-04 07:48:07.21684+01 | 1486190887.21684 | pgbench_history  |         35766272
 2017-02-04 07:48:07.21684+01 | 1486190887.21684 | pgbench_branches |         17047552

 2017-02-04 07:48:08.289067+01 | 1486190888.28907 | pgbench_accounts |      13916651520
 2017-02-04 07:48:08.289067+01 | 1486190888.28907 | pgbench_tellers  |         34455552
 2017-02-04 07:48:08.289067+01 | 1486190888.28907 | pgbench_history  |         36503552
 2017-02-04 07:48:08.289067+01 | 1486190888.28907 | pgbench_branches |         17047552

 2017-02-04 07:48:09.371143+01 | 1486190889.37114 | pgbench_accounts |      13916651520
 2017-02-04 07:48:09.371143+01 | 1486190889.37114 | pgbench_tellers  |         34455552
 2017-02-04 07:48:09.371143+01 | 1486190889.37114 | pgbench_history  |         37740544
 2017-02-04 07:48:09.371143+01 | 1486190889.37114 | pgbench_branches |         17047552

 2017-02-04 07:48:10.442303+01 | 1486190890.4423 | pgbench_accounts |      13916651520
 2017-02-04 07:48:10.442303+01 | 1486190890.4423 | pgbench_tellers  |         34455552
 2017-02-04 07:48:10.442303+01 | 1486190890.4423 | pgbench_history  |         38420480
 2017-02-04 07:48:10.442303+01 | 1486190890.4423 | pgbench_branches |         17047552

 2017-02-04 07:48:11.518655+01 | 1486190891.51866 | pgbench_accounts |      13916651520
 2017-02-04 07:48:11.518655+01 | 1486190891.51866 | pgbench_tellers  |         34455552
 2017-02-04 07:48:11.518655+01 | 1486190891.51866 | pgbench_history  |         39297024
 2017-02-04 07:48:11.518655+01 | 1486190891.51866 | pgbench_branches |         17047552

 2017-02-04 07:48:12.610128+01 | 1486190892.61013 | pgbench_accounts |      13916651520
 2017-02-04 07:48:12.610128+01 | 1486190892.61013 | pgbench_tellers  |         34455552
 2017-02-04 07:48:12.610128+01 | 1486190892.61013 | pgbench_history  |         40009728
 2017-02-04 07:48:12.610128+01 | 1486190892.61013 | pgbench_branches |         17047552

 2017-02-04 07:48:13.699486+01 | 1486190893.69949 | pgbench_accounts |      13916651520
 2017-02-04 07:48:13.699486+01 | 1486190893.69949 | pgbench_tellers  |         34455552
 2017-02-04 07:48:13.699486+01 | 1486190893.69949 | pgbench_history  |         41115648
 2017-02-04 07:48:13.699486+01 | 1486190893.69949 | pgbench_branches |         17047552

 2017-02-04 07:48:14.784756+01 | 1486190894.78476 | pgbench_accounts |      13916651520
 2017-02-04 07:48:14.784756+01 | 1486190894.78476 | pgbench_tellers  |         34455552
 2017-02-04 07:48:14.784756+01 | 1486190894.78476 | pgbench_history  |         41861120
 2017-02-04 07:48:14.784756+01 | 1486190894.78476 | pgbench_branches |         17047552

 2017-02-04 07:48:15.87321+01 | 1486190895.87321 | pgbench_accounts |      13916651520
 2017-02-04 07:48:15.87321+01 | 1486190895.87321 | pgbench_tellers  |         34455552
 2017-02-04 07:48:15.87321+01 | 1486190895.87321 | pgbench_history  |         42590208
 2017-02-04 07:48:15.87321+01 | 1486190895.87321 | pgbench_branches |         17047552

 2017-02-04 07:48:16.962788+01 | 1486190896.96279 | pgbench_accounts |      13916651520
 2017-02-04 07:48:16.962788+01 | 1486190896.96279 | pgbench_tellers  |         34455552
 2017-02-04 07:48:16.962788+01 | 1486190896.96279 | pgbench_history  |         43835392
 2017-02-04 07:48:16.962788+01 | 1486190896.96279 | pgbench_branches |         17047552

 2017-02-04 07:48:18.036716+01 | 1486190898.03672 | pgbench_accounts |      13916651520
 2017-02-04 07:48:18.036716+01 | 1486190898.03672 | pgbench_tellers  |         34455552
 2017-02-04 07:48:18.036716+01 | 1486190898.03672 | pgbench_history  |         44228608
 2017-02-04 07:48:18.036716+01 | 1486190898.03672 | pgbench_branches |         17047552

 2017-02-04 07:48:19.113882+01 | 1486190899.11388 | pgbench_accounts |      13916651520
 2017-02-04 07:48:19.113882+01 | 1486190899.11388 | pgbench_tellers  |         34455552
 2017-02-04 07:48:19.113882+01 | 1486190899.11388 | pgbench_history  |         45154304
 2017-02-04 07:48:19.113882+01 | 1486190899.11388 | pgbench_branches |         17047552

 2017-02-04 07:48:20.181258+01 | 1486190900.18126 | pgbench_accounts |      13916651520
 2017-02-04 07:48:20.181258+01 | 1486190900.18126 | pgbench_tellers  |         34455552
 2017-02-04 07:48:20.181258+01 | 1486190900.18126 | pgbench_history  |         46604288
 2017-02-04 07:48:20.181258+01 | 1486190900.18126 | pgbench_branches |         17047552

 2017-02-04 07:48:21.26351+01 | 1486190901.26351 | pgbench_accounts |      13916651520
 2017-02-04 07:48:21.26351+01 | 1486190901.26351 | pgbench_tellers  |         34455552
 2017-02-04 07:48:21.26351+01 | 1486190901.26351 | pgbench_history  |         46989312
 2017-02-04 07:48:21.26351+01 | 1486190901.26351 | pgbench_branches |         17047552

 2017-02-04 07:48:22.341585+01 | 1486190902.34158 | pgbench_accounts |      13916651520
 2017-02-04 07:48:22.341585+01 | 1486190902.34158 | pgbench_tellers  |         34455552
 2017-02-04 07:48:22.341585+01 | 1486190902.34158 | pgbench_history  |         47857664
 2017-02-04 07:48:22.341585+01 | 1486190902.34158 | pgbench_branches |         17047552

 2017-02-04 07:48:23.430349+01 | 1486190903.43035 | pgbench_accounts |      13916651520
 2017-02-04 07:48:23.430349+01 | 1486190903.43035 | pgbench_tellers  |         34455552
 2017-02-04 07:48:23.430349+01 | 1486190903.43035 | pgbench_history  |         48267264
 2017-02-04 07:48:23.430349+01 | 1486190903.43035 | pgbench_branches |         17047552

 2017-02-04 07:48:24.510093+01 | 1486190904.51009 | pgbench_accounts |      13916651520
 2017-02-04 07:48:24.510093+01 | 1486190904.51009 | pgbench_tellers  |         34455552
 2017-02-04 07:48:24.510093+01 | 1486190904.51009 | pgbench_history  |         49324032
 2017-02-04 07:48:24.510093+01 | 1486190904.51009 | pgbench_branches |         17047552

 2017-02-04 07:48:25.595939+01 | 1486190905.59594 | pgbench_accounts |      13916651520
 2017-02-04 07:48:25.595939+01 | 1486190905.59594 | pgbench_tellers  |         34455552
 2017-02-04 07:48:25.595939+01 | 1486190905.59594 | pgbench_history  |         49750016
 2017-02-04 07:48:25.595939+01 | 1486190905.59594 | pgbench_branches |         17047552

 2017-02-04 07:48:26.696086+01 | 1486190906.69609 | pgbench_accounts |      13916651520
 2017-02-04 07:48:26.696086+01 | 1486190906.69609 | pgbench_tellers  |         34455552
 2017-02-04 07:48:26.696086+01 | 1486190906.69609 | pgbench_history  |         50487296
 2017-02-04 07:48:26.696086+01 | 1486190906.69609 | pgbench_branches |         17047552

 2017-02-04 07:48:27.777057+01 | 1486190907.77706 | pgbench_accounts |      13916651520
 2017-02-04 07:48:27.777057+01 | 1486190907.77706 | pgbench_tellers  |         34455552
 2017-02-04 07:48:27.777057+01 | 1486190907.77706 | pgbench_history  |         51363840
 2017-02-04 07:48:27.777057+01 | 1486190907.77706 | pgbench_branches |         17047552

 2017-02-04 07:48:28.870453+01 | 1486190908.87045 | pgbench_accounts |      13916651520
 2017-02-04 07:48:28.870453+01 | 1486190908.87045 | pgbench_tellers  |         34455552
 2017-02-04 07:48:28.870453+01 | 1486190908.87045 | pgbench_history  |         52068352
 2017-02-04 07:48:28.870453+01 | 1486190908.87045 | pgbench_branches |         17047552

 2017-02-04 07:48:29.957969+01 | 1486190909.95797 | pgbench_accounts |      13916651520
 2017-02-04 07:48:29.957969+01 | 1486190909.95797 | pgbench_tellers  |         34455552
 2017-02-04 07:48:29.957969+01 | 1486190909.95797 | pgbench_history  |         52666368
 2017-02-04 07:48:29.957969+01 | 1486190909.95797 | pgbench_branches |         17047552

 2017-02-04 07:48:31.036317+01 | 1486190911.03632 | pgbench_accounts |      13916651520
 2017-02-04 07:48:31.036317+01 | 1486190911.03632 | pgbench_tellers  |         34455552
 2017-02-04 07:48:31.036317+01 | 1486190911.03632 | pgbench_history  |         53592064
 2017-02-04 07:48:31.036317+01 | 1486190911.03632 | pgbench_branches |         17047552

 2017-02-04 07:48:32.120605+01 | 1486190912.1206 | pgbench_accounts |      13916651520
 2017-02-04 07:48:32.120605+01 | 1486190912.1206 | pgbench_tellers  |         34455552
 2017-02-04 07:48:32.120605+01 | 1486190912.1206 | pgbench_history  |         54321152
 2017-02-04 07:48:32.120605+01 | 1486190912.1206 | pgbench_branches |         17047552

 2017-02-04 07:48:33.202686+01 | 1486190913.20269 | pgbench_accounts |      13916651520
 2017-02-04 07:48:33.202686+01 | 1486190913.20269 | pgbench_tellers  |         34455552
 2017-02-04 07:48:33.202686+01 | 1486190913.20269 | pgbench_history  |         55058432
 2017-02-04 07:48:33.202686+01 | 1486190913.20269 | pgbench_branches |         17047552

 2017-02-04 07:48:34.279251+01 | 1486190914.27925 | pgbench_accounts |      13916651520
 2017-02-04 07:48:34.279251+01 | 1486190914.27925 | pgbench_tellers  |         34455552
 2017-02-04 07:48:34.279251+01 | 1486190914.27925 | pgbench_history  |         55738368
 2017-02-04 07:48:34.279251+01 | 1486190914.27925 | pgbench_branches |         17047552

 2017-02-04 07:48:35.366568+01 | 1486190915.36657 | pgbench_accounts |      13916651520
 2017-02-04 07:48:35.366568+01 | 1486190915.36657 | pgbench_tellers  |         34455552
 2017-02-04 07:48:35.366568+01 | 1486190915.36657 | pgbench_history  |         56655872
 2017-02-04 07:48:35.366568+01 | 1486190915.36657 | pgbench_branches |         17047552

 2017-02-04 07:48:36.449007+01 | 1486190916.44901 | pgbench_accounts |      13916651520
 2017-02-04 07:48:36.449007+01 | 1486190916.44901 | pgbench_tellers  |         34455552
 2017-02-04 07:48:36.449007+01 | 1486190916.44901 | pgbench_history  |         57221120
 2017-02-04 07:48:36.449007+01 | 1486190916.44901 | pgbench_branches |         17047552

 2017-02-04 07:48:37.530405+01 | 1486190917.53041 | pgbench_accounts |      13916651520
 2017-02-04 07:48:37.530405+01 | 1486190917.53041 | pgbench_tellers  |         34455552
 2017-02-04 07:48:37.530405+01 | 1486190917.53041 | pgbench_history  |         57958400
 2017-02-04 07:48:37.530405+01 | 1486190917.53041 | pgbench_branches |         17047552

 2017-02-04 07:48:38.616673+01 | 1486190918.61667 | pgbench_accounts |      13916651520
 2017-02-04 07:48:38.616673+01 | 1486190918.61667 | pgbench_tellers  |         34455552
 2017-02-04 07:48:38.616673+01 | 1486190918.61667 | pgbench_history  |         58859520
 2017-02-04 07:48:38.616673+01 | 1486190918.61667 | pgbench_branches |         17047552

 2017-02-04 07:48:39.699475+01 | 1486190919.69948 | pgbench_accounts |      13916651520
 2017-02-04 07:48:39.699475+01 | 1486190919.69948 | pgbench_tellers  |         34455552
 2017-02-04 07:48:39.699475+01 | 1486190919.69948 | pgbench_history  |         59736064
 2017-02-04 07:48:39.699475+01 | 1486190919.69948 | pgbench_branches |         17047552

 2017-02-04 07:48:40.780116+01 | 1486190920.78012 | pgbench_accounts |      13916651520
 2017-02-04 07:48:40.780116+01 | 1486190920.78012 | pgbench_tellers  |         34455552
 2017-02-04 07:48:40.780116+01 | 1486190920.78012 | pgbench_history  |         60260352
 2017-02-04 07:48:40.780116+01 | 1486190920.78012 | pgbench_branches |         17047552

 2017-02-04 07:48:41.858895+01 | 1486190921.8589 | pgbench_accounts |      13916651520
 2017-02-04 07:48:41.858895+01 | 1486190921.8589 | pgbench_tellers  |         34455552
 2017-02-04 07:48:41.858895+01 | 1486190921.8589 | pgbench_history  |         60448768
 2017-02-04 07:48:41.858895+01 | 1486190921.8589 | pgbench_branches |         17047552

 2017-02-04 07:48:42.934782+01 | 1486190922.93478 | pgbench_accounts |      13916651520
 2017-02-04 07:48:42.934782+01 | 1486190922.93478 | pgbench_tellers  |         34455552
 2017-02-04 07:48:42.934782+01 | 1486190922.93478 | pgbench_history  |         61186048
 2017-02-04 07:48:42.934782+01 | 1486190922.93478 | pgbench_branches |         17047552

 2017-02-04 07:48:44.026803+01 | 1486190924.0268 | pgbench_accounts |      13916651520
 2017-02-04 07:48:44.026803+01 | 1486190924.0268 | pgbench_tellers  |         34455552
 2017-02-04 07:48:44.026803+01 | 1486190924.0268 | pgbench_history  |         61997056
 2017-02-04 07:48:44.026803+01 | 1486190924.0268 | pgbench_branches |         17047552

 2017-02-04 07:48:45.108804+01 | 1486190925.1088 | pgbench_accounts |      13916651520
 2017-02-04 07:48:45.108804+01 | 1486190925.1088 | pgbench_tellers  |         34455552
 2017-02-04 07:48:45.108804+01 | 1486190925.1088 | pgbench_history  |         62758912
 2017-02-04 07:48:45.108804+01 | 1486190925.1088 | pgbench_branches |         17047552

 2017-02-04 07:48:46.202686+01 | 1486190926.20269 | pgbench_accounts |      13916651520
 2017-02-04 07:48:46.202686+01 | 1486190926.20269 | pgbench_tellers  |         34455552
 2017-02-04 07:48:46.202686+01 | 1486190926.20269 | pgbench_history  |         63520768
 2017-02-04 07:48:46.202686+01 | 1486190926.20269 | pgbench_branches |         17047552

 2017-02-04 07:48:47.277451+01 | 1486190927.27745 | pgbench_accounts |      13916651520
 2017-02-04 07:48:47.277451+01 | 1486190927.27745 | pgbench_tellers  |         34455552
 2017-02-04 07:48:47.277451+01 | 1486190927.27745 | pgbench_history  |         64233472
 2017-02-04 07:48:47.277451+01 | 1486190927.27745 | pgbench_branches |         17047552

 2017-02-04 07:48:48.363005+01 | 1486190928.363 | pgbench_accounts |      13916651520
 2017-02-04 07:48:48.363005+01 | 1486190928.363 | pgbench_tellers  |         34455552
 2017-02-04 07:48:48.363005+01 | 1486190928.363 | pgbench_history  |         65183744
 2017-02-04 07:48:48.363005+01 | 1486190928.363 | pgbench_branches |         17047552

 2017-02-04 07:48:49.453453+01 | 1486190929.45345 | pgbench_accounts |      13916651520
 2017-02-04 07:48:49.453453+01 | 1486190929.45345 | pgbench_tellers  |         34455552
 2017-02-04 07:48:49.453453+01 | 1486190929.45345 | pgbench_history  |         65921024
 2017-02-04 07:48:49.453453+01 | 1486190929.45345 | pgbench_branches |         17047552

 2017-02-04 07:48:50.531851+01 | 1486190930.53185 | pgbench_accounts |      13916651520
 2017-02-04 07:48:50.531851+01 | 1486190930.53185 | pgbench_tellers  |         34455552
 2017-02-04 07:48:50.531851+01 | 1486190930.53185 | pgbench_history  |         66502656
 2017-02-04 07:48:50.531851+01 | 1486190930.53185 | pgbench_branches |         17047552

 2017-02-04 07:48:51.605944+01 | 1486190931.60594 | pgbench_accounts |      13916651520
 2017-02-04 07:48:51.605944+01 | 1486190931.60594 | pgbench_tellers  |         34455552
 2017-02-04 07:48:51.605944+01 | 1486190931.60594 | pgbench_history  |         67223552
 2017-02-04 07:48:51.605944+01 | 1486190931.60594 | pgbench_branches |         17047552

 2017-02-04 07:48:52.668696+01 | 1486190932.6687 | pgbench_accounts |      13916651520
 2017-02-04 07:48:52.668696+01 | 1486190932.6687 | pgbench_tellers  |         34455552
 2017-02-04 07:48:52.668696+01 | 1486190932.6687 | pgbench_history  |         68108288
 2017-02-04 07:48:52.668696+01 | 1486190932.6687 | pgbench_branches |         17047552

 2017-02-04 07:48:53.750972+01 | 1486190933.75097 | pgbench_accounts |      13916651520
 2017-02-04 07:48:53.750972+01 | 1486190933.75097 | pgbench_tellers  |         34455552
 2017-02-04 07:48:53.750972+01 | 1486190933.75097 | pgbench_history  |         68870144
 2017-02-04 07:48:53.750972+01 | 1486190933.75097 | pgbench_branches |         17047552

 2017-02-04 07:48:54.830245+01 | 1486190934.83025 | pgbench_accounts |      13916651520
 2017-02-04 07:48:54.830245+01 | 1486190934.83025 | pgbench_tellers  |         34455552
 2017-02-04 07:48:54.830245+01 | 1486190934.83025 | pgbench_history  |         69804032
 2017-02-04 07:48:54.830245+01 | 1486190934.83025 | pgbench_branches |         17047552

 2017-02-04 07:48:55.916626+01 | 1486190935.91663 | pgbench_accounts |      13916651520
 2017-02-04 07:48:55.916626+01 | 1486190935.91663 | pgbench_tellers  |         34455552
 2017-02-04 07:48:55.916626+01 | 1486190935.91663 | pgbench_history  |         70516736
 2017-02-04 07:48:55.916626+01 | 1486190935.91663 | pgbench_branches |         17047552

 2017-02-04 07:48:57.004753+01 | 1486190937.00475 | pgbench_accounts |      13916651520
 2017-02-04 07:48:57.004753+01 | 1486190937.00475 | pgbench_tellers  |         34455552
 2017-02-04 07:48:57.004753+01 | 1486190937.00475 | pgbench_history  |         71106560
 2017-02-04 07:48:57.004753+01 | 1486190937.00475 | pgbench_branches |         17047552

 2017-02-04 07:48:58.080272+01 | 1486190938.08027 | pgbench_accounts |      13916651520
 2017-02-04 07:48:58.080272+01 | 1486190938.08027 | pgbench_tellers  |         34455552
 2017-02-04 07:48:58.080272+01 | 1486190938.08027 | pgbench_history  |         71507968
 2017-02-04 07:48:58.080272+01 | 1486190938.08027 | pgbench_branches |         17047552

 2017-02-04 07:48:59.162627+01 | 1486190939.16263 | pgbench_accounts |      13916651520
 2017-02-04 07:48:59.162627+01 | 1486190939.16263 | pgbench_tellers  |         34455552
 2017-02-04 07:48:59.162627+01 | 1486190939.16263 | pgbench_history  |         72433664
 2017-02-04 07:48:59.162627+01 | 1486190939.16263 | pgbench_branches |         17047552

 2017-02-04 07:49:00.251274+01 | 1486190940.25127 | pgbench_accounts |      13916651520
 2017-02-04 07:49:00.251274+01 | 1486190940.25127 | pgbench_tellers  |         34455552
 2017-02-04 07:49:00.251274+01 | 1486190940.25127 | pgbench_history  |         72957952
 2017-02-04 07:49:00.251274+01 | 1486190940.25127 | pgbench_branches |         17047552

 2017-02-04 07:49:01.333687+01 | 1486190941.33369 | pgbench_accounts |      13916651520
 2017-02-04 07:49:01.333687+01 | 1486190941.33369 | pgbench_tellers  |         34455552
 2017-02-04 07:49:01.333687+01 | 1486190941.33369 | pgbench_history  |         73326592
 2017-02-04 07:49:01.333687+01 | 1486190941.33369 | pgbench_branches |         17047552

 2017-02-04 07:49:02.420018+01 | 1486190942.42002 | pgbench_accounts |      13916651520
 2017-02-04 07:49:02.420018+01 | 1486190942.42002 | pgbench_tellers  |         34455552
 2017-02-04 07:49:02.420018+01 | 1486190942.42002 | pgbench_history  |         74293248
 2017-02-04 07:49:02.420018+01 | 1486190942.42002 | pgbench_branches |         17047552

 2017-02-04 07:49:03.51403+01 | 1486190943.51403 | pgbench_accounts |      13916651520
 2017-02-04 07:49:03.51403+01 | 1486190943.51403 | pgbench_tellers  |         34455552
 2017-02-04 07:49:03.51403+01 | 1486190943.51403 | pgbench_history  |         75014144
 2017-02-04 07:49:03.51403+01 | 1486190943.51403 | pgbench_branches |         17047552

 2017-02-04 07:49:04.594827+01 | 1486190944.59483 | pgbench_accounts |      13916651520
 2017-02-04 07:49:04.594827+01 | 1486190944.59483 | pgbench_tellers  |         34455552
 2017-02-04 07:49:04.594827+01 | 1486190944.59483 | pgbench_history  |         75694080
 2017-02-04 07:49:04.594827+01 | 1486190944.59483 | pgbench_branches |         17047552

 2017-02-04 07:49:05.676557+01 | 1486190945.67656 | pgbench_accounts |      13916651520
 2017-02-04 07:49:05.676557+01 | 1486190945.67656 | pgbench_tellers  |         34455552
 2017-02-04 07:49:05.676557+01 | 1486190945.67656 | pgbench_history  |         76070912
 2017-02-04 07:49:05.676557+01 | 1486190945.67656 | pgbench_branches |         17047552

 2017-02-04 07:49:06.763576+01 | 1486190946.76358 | pgbench_accounts |      13916651520
 2017-02-04 07:49:06.763576+01 | 1486190946.76358 | pgbench_tellers  |         34455552
 2017-02-04 07:49:06.763576+01 | 1486190946.76358 | pgbench_history  |         76685312
 2017-02-04 07:49:06.763576+01 | 1486190946.76358 | pgbench_branches |         17047552

 2017-02-04 07:49:07.848868+01 | 1486190947.84887 | pgbench_accounts |      13916651520
 2017-02-04 07:49:07.848868+01 | 1486190947.84887 | pgbench_tellers  |         34455552
 2017-02-04 07:49:07.848868+01 | 1486190947.84887 | pgbench_history  |         77602816
 2017-02-04 07:49:07.848868+01 | 1486190947.84887 | pgbench_branches |         17047552

 2017-02-04 07:49:08.929799+01 | 1486190948.9298 | pgbench_accounts |      13916651520
 2017-02-04 07:49:08.929799+01 | 1486190948.9298 | pgbench_tellers  |         34455552
 2017-02-04 07:49:08.929799+01 | 1486190948.9298 | pgbench_history  |         78340096
 2017-02-04 07:49:08.929799+01 | 1486190948.9298 | pgbench_branches |         17047552

 2017-02-04 07:49:10.011875+01 | 1486190950.01187 | pgbench_accounts |      13916651520
 2017-02-04 07:49:10.011875+01 | 1486190950.01187 | pgbench_tellers  |         34455552
 2017-02-04 07:49:10.011875+01 | 1486190950.01187 | pgbench_history  |         78913536
 2017-02-04 07:49:10.011875+01 | 1486190950.01187 | pgbench_branches |         17047552

 2017-02-04 07:49:11.094856+01 | 1486190951.09486 | pgbench_accounts |      13916651520
 2017-02-04 07:49:11.094856+01 | 1486190951.09486 | pgbench_tellers  |         34455552
 2017-02-04 07:49:11.094856+01 | 1486190951.09486 | pgbench_history  |         79634432
 2017-02-04 07:49:11.094856+01 | 1486190951.09486 | pgbench_branches |         17047552

 2017-02-04 07:49:12.177632+01 | 1486190952.17763 | pgbench_accounts |      13916651520
 2017-02-04 07:49:12.177632+01 | 1486190952.17763 | pgbench_tellers  |         34455552
 2017-02-04 07:49:12.177632+01 | 1486190952.17763 | pgbench_history  |         80338944
 2017-02-04 07:49:12.177632+01 | 1486190952.17763 | pgbench_branches |         17047552

 2017-02-04 07:49:13.256783+01 | 1486190953.25678 | pgbench_accounts |      13916651520
 2017-02-04 07:49:13.256783+01 | 1486190953.25678 | pgbench_tellers  |         34455552
 2017-02-04 07:49:13.256783+01 | 1486190953.25678 | pgbench_history  |         81289216
 2017-02-04 07:49:13.256783+01 | 1486190953.25678 | pgbench_branches |         17047552

 2017-02-04 07:49:14.336751+01 | 1486190954.33675 | pgbench_accounts |      13916651520
 2017-02-04 07:49:14.336751+01 | 1486190954.33675 | pgbench_tellers  |         34455552
 2017-02-04 07:49:14.336751+01 | 1486190954.33675 | pgbench_history  |         81805312
 2017-02-04 07:49:14.336751+01 | 1486190954.33675 | pgbench_branches |         17047552

 2017-02-04 07:49:15.414346+01 | 1486190955.41435 | pgbench_accounts |      13916651520
 2017-02-04 07:49:15.414346+01 | 1486190955.41435 | pgbench_tellers  |         34455552
 2017-02-04 07:49:15.414346+01 | 1486190955.41435 | pgbench_history  |         82739200
 2017-02-04 07:49:15.414346+01 | 1486190955.41435 | pgbench_branches |         17047552

 2017-02-04 07:49:16.488424+01 | 1486190956.48842 | pgbench_accounts |      13916651520
 2017-02-04 07:49:16.488424+01 | 1486190956.48842 | pgbench_tellers  |         34455552
 2017-02-04 07:49:16.488424+01 | 1486190956.48842 | pgbench_history  |         83451904
 2017-02-04 07:49:16.488424+01 | 1486190956.48842 | pgbench_branches |         17047552

 2017-02-04 07:49:17.564057+01 | 1486190957.56406 | pgbench_accounts |      13916651520
 2017-02-04 07:49:17.564057+01 | 1486190957.56406 | pgbench_tellers  |         34455552
 2017-02-04 07:49:17.564057+01 | 1486190957.56406 | pgbench_history  |         83968000
 2017-02-04 07:49:17.564057+01 | 1486190957.56406 | pgbench_branches |         17047552

 2017-02-04 07:49:18.639254+01 | 1486190958.63925 | pgbench_accounts |      13916651520
 2017-02-04 07:49:18.639254+01 | 1486190958.63925 | pgbench_tellers  |         34455552
 2017-02-04 07:49:18.639254+01 | 1486190958.63925 | pgbench_history  |         84934656
 2017-02-04 07:49:18.639254+01 | 1486190958.63925 | pgbench_branches |         17047552

 2017-02-04 07:49:19.722698+01 | 1486190959.7227 | pgbench_accounts |      13916651520
 2017-02-04 07:49:19.722698+01 | 1486190959.7227 | pgbench_tellers  |         34455552
 2017-02-04 07:49:19.722698+01 | 1486190959.7227 | pgbench_history  |         85524480
 2017-02-04 07:49:19.722698+01 | 1486190959.7227 | pgbench_branches |         17047552

 2017-02-04 07:49:20.809958+01 | 1486190960.80996 | pgbench_accounts |      13916651520
 2017-02-04 07:49:20.809958+01 | 1486190960.80996 | pgbench_tellers  |         34455552
 2017-02-04 07:49:20.809958+01 | 1486190960.80996 | pgbench_history  |         86204416
 2017-02-04 07:49:20.809958+01 | 1486190960.80996 | pgbench_branches |         17047552

 2017-02-04 07:49:21.896375+01 | 1486190961.89637 | pgbench_accounts |      13916651520
 2017-02-04 07:49:21.896375+01 | 1486190961.89637 | pgbench_tellers  |         34455552
 2017-02-04 07:49:21.896375+01 | 1486190961.89637 | pgbench_history  |         86933504
 2017-02-04 07:49:21.896375+01 | 1486190961.89637 | pgbench_branches |         17047552

 2017-02-04 07:49:22.98355+01 | 1486190962.98355 | pgbench_accounts |      13916651520
 2017-02-04 07:49:22.98355+01 | 1486190962.98355 | pgbench_tellers  |         34455552
 2017-02-04 07:49:22.98355+01 | 1486190962.98355 | pgbench_history  |         87711744
 2017-02-04 07:49:22.98355+01 | 1486190962.98355 | pgbench_branches |         17047552

 2017-02-04 07:49:24.072057+01 | 1486190964.07206 | pgbench_accounts |      13916651520
 2017-02-04 07:49:24.072057+01 | 1486190964.07206 | pgbench_tellers  |         34455552
 2017-02-04 07:49:24.072057+01 | 1486190964.07206 | pgbench_history  |         88424448
 2017-02-04 07:49:24.072057+01 | 1486190964.07206 | pgbench_branches |         17047552

 2017-02-04 07:49:25.158283+01 | 1486190965.15828 | pgbench_accounts |      13916651520
 2017-02-04 07:49:25.158283+01 | 1486190965.15828 | pgbench_tellers  |         34455552
 2017-02-04 07:49:25.158283+01 | 1486190965.15828 | pgbench_history  |         89300992
 2017-02-04 07:49:25.158283+01 | 1486190965.15828 | pgbench_branches |         17047552

 2017-02-04 07:49:26.246187+01 | 1486190966.24619 | pgbench_accounts |      13916651520
 2017-02-04 07:49:26.246187+01 | 1486190966.24619 | pgbench_tellers  |         34455552
 2017-02-04 07:49:26.246187+01 | 1486190966.24619 | pgbench_history  |         89866240
 2017-02-04 07:49:26.246187+01 | 1486190966.24619 | pgbench_branches |         17047552

 2017-02-04 07:49:27.332295+01 | 1486190967.33229 | pgbench_accounts |      13916651520
 2017-02-04 07:49:27.332295+01 | 1486190967.33229 | pgbench_tellers  |         34455552
 2017-02-04 07:49:27.332295+01 | 1486190967.33229 | pgbench_history  |         90791936
 2017-02-04 07:49:27.332295+01 | 1486190967.33229 | pgbench_branches |         17047552

 2017-02-04 07:49:28.410815+01 | 1486190968.41082 | pgbench_accounts |      13916651520
 2017-02-04 07:49:28.410815+01 | 1486190968.41082 | pgbench_tellers  |         34455552
 2017-02-04 07:49:28.410815+01 | 1486190968.41082 | pgbench_history  |         91701248
 2017-02-04 07:49:28.410815+01 | 1486190968.41082 | pgbench_branches |         17047552

 2017-02-04 07:49:29.486439+01 | 1486190969.48644 | pgbench_accounts |      13916651520
 2017-02-04 07:49:29.486439+01 | 1486190969.48644 | pgbench_tellers  |         34455552
 2017-02-04 07:49:29.486439+01 | 1486190969.48644 | pgbench_history  |         92405760
 2017-02-04 07:49:29.486439+01 | 1486190969.48644 | pgbench_branches |         17047552

 2017-02-04 07:49:30.555189+01 | 1486190970.55519 | pgbench_accounts |      13916651520
 2017-02-04 07:49:30.555189+01 | 1486190970.55519 | pgbench_tellers  |         34455552
 2017-02-04 07:49:30.555189+01 | 1486190970.55519 | pgbench_history  |         93126656
 2017-02-04 07:49:30.555189+01 | 1486190970.55519 | pgbench_branches |         17047552

 2017-02-04 07:49:31.637465+01 | 1486190971.63747 | pgbench_accounts |      13916651520
 2017-02-04 07:49:31.637465+01 | 1486190971.63747 | pgbench_tellers  |         34455552
 2017-02-04 07:49:31.637465+01 | 1486190971.63747 | pgbench_history  |         93528064
 2017-02-04 07:49:31.637465+01 | 1486190971.63747 | pgbench_branches |         17047552

 2017-02-04 07:49:32.72131+01 | 1486190972.72131 | pgbench_accounts |      13916651520
 2017-02-04 07:49:32.72131+01 | 1486190972.72131 | pgbench_tellers  |         34455552
 2017-02-04 07:49:32.72131+01 | 1486190972.72131 | pgbench_history  |         94601216
 2017-02-04 07:49:32.72131+01 | 1486190972.72131 | pgbench_branches |         17047552

 2017-02-04 07:49:33.795322+01 | 1486190973.79532 | pgbench_accounts |      13916651520
 2017-02-04 07:49:33.795322+01 | 1486190973.79532 | pgbench_tellers  |         34455552
 2017-02-04 07:49:33.795322+01 | 1486190973.79532 | pgbench_history  |         95174656
 2017-02-04 07:49:33.795322+01 | 1486190973.79532 | pgbench_branches |         17047552

 2017-02-04 07:49:34.869316+01 | 1486190974.86932 | pgbench_accounts |      13916651520
 2017-02-04 07:49:34.869316+01 | 1486190974.86932 | pgbench_tellers  |         34455552
 2017-02-04 07:49:34.869316+01 | 1486190974.86932 | pgbench_history  |         95723520
 2017-02-04 07:49:34.869316+01 | 1486190974.86932 | pgbench_branches |         17047552

 2017-02-04 07:49:35.951124+01 | 1486190975.95112 | pgbench_accounts |      13916651520
 2017-02-04 07:49:35.951124+01 | 1486190975.95112 | pgbench_tellers  |         34455552
 2017-02-04 07:49:35.951124+01 | 1486190975.95112 | pgbench_history  |         96460800
 2017-02-04 07:49:35.951124+01 | 1486190975.95112 | pgbench_branches |         17047552

 2017-02-04 07:49:37.021387+01 | 1486190977.02139 | pgbench_accounts |      13916651520
 2017-02-04 07:49:37.021387+01 | 1486190977.02139 | pgbench_tellers  |         34455552
 2017-02-04 07:49:37.021387+01 | 1486190977.02139 | pgbench_history  |         97181696
 2017-02-04 07:49:37.021387+01 | 1486190977.02139 | pgbench_branches |         17047552

 2017-02-04 07:49:38.105105+01 | 1486190978.1051 | pgbench_accounts |      13916708864
 2017-02-04 07:49:38.105105+01 | 1486190978.1051 | pgbench_tellers  |         34455552
 2017-02-04 07:49:38.105105+01 | 1486190978.1051 | pgbench_history  |         97927168
 2017-02-04 07:49:38.105105+01 | 1486190978.1051 | pgbench_branches |         17047552

 2017-02-04 07:49:39.182524+01 | 1486190979.18252 | pgbench_accounts |      13916717056
 2017-02-04 07:49:39.182524+01 | 1486190979.18252 | pgbench_tellers  |         34455552
 2017-02-04 07:49:39.182524+01 | 1486190979.18252 | pgbench_history  |         98623488
 2017-02-04 07:49:39.182524+01 | 1486190979.18252 | pgbench_branches |         17047552

 2017-02-04 07:49:40.263751+01 | 1486190980.26375 | pgbench_accounts |      13916717056
 2017-02-04 07:49:40.263751+01 | 1486190980.26375 | pgbench_tellers  |         34455552
 2017-02-04 07:49:40.263751+01 | 1486190980.26375 | pgbench_history  |         99205120
 2017-02-04 07:49:40.263751+01 | 1486190980.26375 | pgbench_branches |         17047552

 2017-02-04 07:49:41.343862+01 | 1486190981.34386 | pgbench_accounts |      13916717056
 2017-02-04 07:49:41.343862+01 | 1486190981.34386 | pgbench_tellers  |         34455552
 2017-02-04 07:49:41.343862+01 | 1486190981.34386 | pgbench_history  |         99926016
 2017-02-04 07:49:41.343862+01 | 1486190981.34386 | pgbench_branches |         17047552

 2017-02-04 07:49:42.427452+01 | 1486190982.42745 | pgbench_accounts |      13916717056
 2017-02-04 07:49:42.427452+01 | 1486190982.42745 | pgbench_tellers  |         34455552
 2017-02-04 07:49:42.427452+01 | 1486190982.42745 | pgbench_history  |        100655104
 2017-02-04 07:49:42.427452+01 | 1486190982.42745 | pgbench_branches |         17047552

 2017-02-04 07:49:43.516035+01 | 1486190983.51604 | pgbench_accounts |      13916741632
 2017-02-04 07:49:43.516035+01 | 1486190983.51604 | pgbench_tellers  |         34455552
 2017-02-04 07:49:43.516035+01 | 1486190983.51604 | pgbench_history  |        101531648
 2017-02-04 07:49:43.516035+01 | 1486190983.51604 | pgbench_branches |         17047552

 2017-02-04 07:49:44.605008+01 | 1486190984.60501 | pgbench_accounts |      13916766208
 2017-02-04 07:49:44.605008+01 | 1486190984.60501 | pgbench_tellers  |         34455552
 2017-02-04 07:49:44.605008+01 | 1486190984.60501 | pgbench_history  |        102211584
 2017-02-04 07:49:44.605008+01 | 1486190984.60501 | pgbench_branches |         17047552

 2017-02-04 07:49:45.690915+01 | 1486190985.69092 | pgbench_accounts |      13916782592
 2017-02-04 07:49:45.690915+01 | 1486190985.69092 | pgbench_tellers  |         34455552
 2017-02-04 07:49:45.690915+01 | 1486190985.69092 | pgbench_history  |        102776832
 2017-02-04 07:49:45.690915+01 | 1486190985.69092 | pgbench_branches |         17047552

 2017-02-04 07:49:46.76487+01 | 1486190986.76487 | pgbench_accounts |      13916782592
 2017-02-04 07:49:46.76487+01 | 1486190986.76487 | pgbench_tellers  |         34455552
 2017-02-04 07:49:46.76487+01 | 1486190986.76487 | pgbench_history  |        103374848
 2017-02-04 07:49:46.76487+01 | 1486190986.76487 | pgbench_branches |         17047552

 2017-02-04 07:49:47.843043+01 | 1486190987.84304 | pgbench_accounts |      13916790784
 2017-02-04 07:49:47.843043+01 | 1486190987.84304 | pgbench_tellers  |         34455552
 2017-02-04 07:49:47.843043+01 | 1486190987.84304 | pgbench_history  |        104087552
 2017-02-04 07:49:47.843043+01 | 1486190987.84304 | pgbench_branches |         17047552

 2017-02-04 07:49:48.933777+01 | 1486190988.93378 | pgbench_accounts |      13916790784
 2017-02-04 07:49:48.933777+01 | 1486190988.93378 | pgbench_tellers  |         34455552
 2017-02-04 07:49:48.933777+01 | 1486190988.93378 | pgbench_history  |        104751104
 2017-02-04 07:49:48.933777+01 | 1486190988.93378 | pgbench_branches |         17047552

 2017-02-04 07:49:50.026326+01 | 1486190990.02633 | pgbench_accounts |      13916807168
 2017-02-04 07:49:50.026326+01 | 1486190990.02633 | pgbench_tellers  |         34455552
 2017-02-04 07:49:50.026326+01 | 1486190990.02633 | pgbench_history  |        105652224
 2017-02-04 07:49:50.026326+01 | 1486190990.02633 | pgbench_branches |         17047552

 2017-02-04 07:49:51.107764+01 | 1486190991.10776 | pgbench_accounts |      13916848128
 2017-02-04 07:49:51.107764+01 | 1486190991.10776 | pgbench_tellers  |         34455552
 2017-02-04 07:49:51.107764+01 | 1486190991.10776 | pgbench_history  |        106373120
 2017-02-04 07:49:51.107764+01 | 1486190991.10776 | pgbench_branches |         17047552

 2017-02-04 07:49:52.192748+01 | 1486190992.19275 | pgbench_accounts |      13916848128
 2017-02-04 07:49:52.192748+01 | 1486190992.19275 | pgbench_tellers  |         34455552
 2017-02-04 07:49:52.192748+01 | 1486190992.19275 | pgbench_history  |        106962944
 2017-02-04 07:49:52.192748+01 | 1486190992.19275 | pgbench_branches |         17047552

 2017-02-04 07:49:53.267518+01 | 1486190993.26752 | pgbench_accounts |      13916856320
 2017-02-04 07:49:53.267518+01 | 1486190993.26752 | pgbench_tellers  |         34455552
 2017-02-04 07:49:53.267518+01 | 1486190993.26752 | pgbench_history  |        107888640
 2017-02-04 07:49:53.267518+01 | 1486190993.26752 | pgbench_branches |         17047552

 2017-02-04 07:49:54.340075+01 | 1486190994.34008 | pgbench_accounts |      13916872704
 2017-02-04 07:49:54.340075+01 | 1486190994.34008 | pgbench_tellers  |         34455552
 2017-02-04 07:49:54.340075+01 | 1486190994.34008 | pgbench_history  |        108470272
 2017-02-04 07:49:54.340075+01 | 1486190994.34008 | pgbench_branches |         17047552

 2017-02-04 07:49:55.42767+01 | 1486190995.42767 | pgbench_accounts |      13916905472
 2017-02-04 07:49:55.42767+01 | 1486190995.42767 | pgbench_tellers  |         34455552
 2017-02-04 07:49:55.42767+01 | 1486190995.42767 | pgbench_history  |        109182976
 2017-02-04 07:49:55.42767+01 | 1486190995.42767 | pgbench_branches |         17047552

 2017-02-04 07:49:56.506492+01 | 1486190996.50649 | pgbench_accounts |      13916913664
 2017-02-04 07:49:56.506492+01 | 1486190996.50649 | pgbench_tellers  |         34455552
 2017-02-04 07:49:56.506492+01 | 1486190996.50649 | pgbench_history  |        110305280
 2017-02-04 07:49:56.506492+01 | 1486190996.50649 | pgbench_branches |         17047552

 2017-02-04 07:49:57.576171+01 | 1486190997.57617 | pgbench_accounts |      13916913664
 2017-02-04 07:49:57.576171+01 | 1486190997.57617 | pgbench_tellers  |         34455552
 2017-02-04 07:49:57.576171+01 | 1486190997.57617 | pgbench_history  |        110706688
 2017-02-04 07:49:57.576171+01 | 1486190997.57617 | pgbench_branches |         17047552

 2017-02-04 07:49:58.650462+01 | 1486190998.65046 | pgbench_accounts |      13916921856
 2017-02-04 07:49:58.650462+01 | 1486190998.65046 | pgbench_tellers  |         34455552
 2017-02-04 07:49:58.650462+01 | 1486190998.65046 | pgbench_history  |        111411200
 2017-02-04 07:49:58.650462+01 | 1486190998.65046 | pgbench_branches |         17047552

 2017-02-04 07:49:59.728524+01 | 1486190999.72852 | pgbench_accounts |      13916946432
 2017-02-04 07:49:59.728524+01 | 1486190999.72852 | pgbench_tellers  |         34455552
 2017-02-04 07:49:59.728524+01 | 1486190999.72852 | pgbench_history  |        111935488
 2017-02-04 07:49:59.728524+01 | 1486190999.72852 | pgbench_branches |         17047552

 2017-02-04 07:50:00.818406+01 | 1486191000.81841 | pgbench_accounts |      13916946432
 2017-02-04 07:50:00.818406+01 | 1486191000.81841 | pgbench_tellers  |         34455552
 2017-02-04 07:50:00.818406+01 | 1486191000.81841 | pgbench_history  |        112656384
 2017-02-04 07:50:00.818406+01 | 1486191000.81841 | pgbench_branches |         17047552

 2017-02-04 07:50:01.900225+01 | 1486191001.90022 | pgbench_accounts |      13916954624
 2017-02-04 07:50:01.900225+01 | 1486191001.90022 | pgbench_tellers  |         34455552
 2017-02-04 07:50:01.900225+01 | 1486191001.90022 | pgbench_history  |        113385472
 2017-02-04 07:50:01.900225+01 | 1486191001.90022 | pgbench_branches |         17047552

 2017-02-04 07:50:02.984957+01 | 1486191002.98496 | pgbench_accounts |      13916962816
 2017-02-04 07:50:02.984957+01 | 1486191002.98496 | pgbench_tellers  |         34455552
 2017-02-04 07:50:02.984957+01 | 1486191002.98496 | pgbench_history  |        114417664
 2017-02-04 07:50:02.984957+01 | 1486191002.98496 | pgbench_branches |         17047552

 2017-02-04 07:50:04.07172+01 | 1486191004.07172 | pgbench_accounts |      13916971008
 2017-02-04 07:50:04.07172+01 | 1486191004.07172 | pgbench_tellers  |         34455552
 2017-02-04 07:50:04.07172+01 | 1486191004.07172 | pgbench_history  |        114769920
 2017-02-04 07:50:04.07172+01 | 1486191004.07172 | pgbench_branches |         17047552

 2017-02-04 07:50:05.16223+01 | 1486191005.16223 | pgbench_accounts |      13916979200
 2017-02-04 07:50:05.16223+01 | 1486191005.16223 | pgbench_tellers  |         34455552
 2017-02-04 07:50:05.16223+01 | 1486191005.16223 | pgbench_history  |        115122176
 2017-02-04 07:50:05.16223+01 | 1486191005.16223 | pgbench_branches |         17047552

 2017-02-04 07:50:06.241873+01 | 1486191006.24187 | pgbench_accounts |      13916995584
 2017-02-04 07:50:06.241873+01 | 1486191006.24187 | pgbench_tellers  |         34455552
 2017-02-04 07:50:06.241873+01 | 1486191006.24187 | pgbench_history  |        115679232
 2017-02-04 07:50:06.241873+01 | 1486191006.24187 | pgbench_branches |         17047552

 2017-02-04 07:50:07.323122+01 | 1486191007.32312 | pgbench_accounts |      13917003776
 2017-02-04 07:50:07.323122+01 | 1486191007.32312 | pgbench_tellers  |         34455552
 2017-02-04 07:50:07.323122+01 | 1486191007.32312 | pgbench_history  |        116572160
 2017-02-04 07:50:07.323122+01 | 1486191007.32312 | pgbench_branches |         17047552

 2017-02-04 07:50:08.402791+01 | 1486191008.40279 | pgbench_accounts |      13917011968
 2017-02-04 07:50:08.402791+01 | 1486191008.40279 | pgbench_tellers  |         34455552
 2017-02-04 07:50:08.402791+01 | 1486191008.40279 | pgbench_history  |        117104640
 2017-02-04 07:50:08.402791+01 | 1486191008.40279 | pgbench_branches |         17047552

 2017-02-04 07:50:09.482559+01 | 1486191009.48256 | pgbench_accounts |      13917028352
 2017-02-04 07:50:09.482559+01 | 1486191009.48256 | pgbench_tellers  |         34455552
 2017-02-04 07:50:09.482559+01 | 1486191009.48256 | pgbench_history  |        118153216
 2017-02-04 07:50:09.482559+01 | 1486191009.48256 | pgbench_branches |         17047552

 2017-02-04 07:50:10.560532+01 | 1486191010.56053 | pgbench_accounts |      13917044736
 2017-02-04 07:50:10.560532+01 | 1486191010.56053 | pgbench_tellers  |         34455552
 2017-02-04 07:50:10.560532+01 | 1486191010.56053 | pgbench_history  |        118546432
 2017-02-04 07:50:10.560532+01 | 1486191010.56053 | pgbench_branches |         17047552

 2017-02-04 07:50:11.645437+01 | 1486191011.64544 | pgbench_accounts |      13917044736
 2017-02-04 07:50:11.645437+01 | 1486191011.64544 | pgbench_tellers  |         34455552
 2017-02-04 07:50:11.645437+01 | 1486191011.64544 | pgbench_history  |        119439360
 2017-02-04 07:50:11.645437+01 | 1486191011.64544 | pgbench_branches |         17047552

 2017-02-04 07:50:12.717318+01 | 1486191012.71732 | pgbench_accounts |      13917052928
 2017-02-04 07:50:12.717318+01 | 1486191012.71732 | pgbench_tellers  |         34455552
 2017-02-04 07:50:12.717318+01 | 1486191012.71732 | pgbench_history  |        120160256
 2017-02-04 07:50:12.717318+01 | 1486191012.71732 | pgbench_branches |         17047552

 2017-02-04 07:50:13.800038+01 | 1486191013.80004 | pgbench_accounts |      13917052928
 2017-02-04 07:50:13.800038+01 | 1486191013.80004 | pgbench_tellers  |         34455552
 2017-02-04 07:50:13.800038+01 | 1486191013.80004 | pgbench_history  |        120872960
 2017-02-04 07:50:13.800038+01 | 1486191013.80004 | pgbench_branches |         17047552

 2017-02-04 07:50:14.885923+01 | 1486191014.88592 | pgbench_accounts |      13917077504
 2017-02-04 07:50:14.885923+01 | 1486191014.88592 | pgbench_tellers  |         34455552
 2017-02-04 07:50:14.885923+01 | 1486191014.88592 | pgbench_history  |        121782272
 2017-02-04 07:50:14.885923+01 | 1486191014.88592 | pgbench_branches |         17047552

 2017-02-04 07:50:15.968073+01 | 1486191015.96807 | pgbench_accounts |      13917093888
 2017-02-04 07:50:15.968073+01 | 1486191015.96807 | pgbench_tellers  |         34455552
 2017-02-04 07:50:15.968073+01 | 1486191015.96807 | pgbench_history  |        122134528
 2017-02-04 07:50:15.968073+01 | 1486191015.96807 | pgbench_branches |         17047552

 2017-02-04 07:50:17.060524+01 | 1486191017.06052 | pgbench_accounts |      13917093888
 2017-02-04 07:50:17.060524+01 | 1486191017.06052 | pgbench_tellers  |         34455552
 2017-02-04 07:50:17.060524+01 | 1486191017.06052 | pgbench_history  |        122888192
 2017-02-04 07:50:17.060524+01 | 1486191017.06052 | pgbench_branches |         17047552

 2017-02-04 07:50:18.153081+01 | 1486191018.15308 | pgbench_accounts |      13917102080
 2017-02-04 07:50:18.153081+01 | 1486191018.15308 | pgbench_tellers  |         34455552
 2017-02-04 07:50:18.153081+01 | 1486191018.15308 | pgbench_history  |        123592704
 2017-02-04 07:50:18.153081+01 | 1486191018.15308 | pgbench_branches |         17047552

 2017-02-04 07:50:19.233909+01 | 1486191019.23391 | pgbench_accounts |      13917110272
 2017-02-04 07:50:19.233909+01 | 1486191019.23391 | pgbench_tellers  |         34455552
 2017-02-04 07:50:19.233909+01 | 1486191019.23391 | pgbench_history  |        124166144
 2017-02-04 07:50:19.233909+01 | 1486191019.23391 | pgbench_branches |         17047552

 2017-02-04 07:50:20.315426+01 | 1486191020.31543 | pgbench_accounts |      13917118464
 2017-02-04 07:50:20.315426+01 | 1486191020.31543 | pgbench_tellers  |         34455552
 2017-02-04 07:50:20.315426+01 | 1486191020.31543 | pgbench_history  |        125206528
 2017-02-04 07:50:20.315426+01 | 1486191020.31543 | pgbench_branches |         17047552

 2017-02-04 07:50:21.392992+01 | 1486191021.39299 | pgbench_accounts |      13917126656
 2017-02-04 07:50:21.392992+01 | 1486191021.39299 | pgbench_tellers  |         34455552
 2017-02-04 07:50:21.392992+01 | 1486191021.39299 | pgbench_history  |        125558784
 2017-02-04 07:50:21.392992+01 | 1486191021.39299 | pgbench_branches |         17047552

 2017-02-04 07:50:22.484768+01 | 1486191022.48477 | pgbench_accounts |      13917151232
 2017-02-04 07:50:22.484768+01 | 1486191022.48477 | pgbench_tellers  |         34455552
 2017-02-04 07:50:22.484768+01 | 1486191022.48477 | pgbench_history  |        126615552
 2017-02-04 07:50:22.484768+01 | 1486191022.48477 | pgbench_branches |         17047552

 2017-02-04 07:50:23.581824+01 | 1486191023.58182 | pgbench_accounts |      13917159424
 2017-02-04 07:50:23.581824+01 | 1486191023.58182 | pgbench_tellers  |         34455552
 2017-02-04 07:50:23.581824+01 | 1486191023.58182 | pgbench_history  |        126992384
 2017-02-04 07:50:23.581824+01 | 1486191023.58182 | pgbench_branches |         17047552

 2017-02-04 07:50:24.677357+01 | 1486191024.67736 | pgbench_accounts |      13917159424
 2017-02-04 07:50:24.677357+01 | 1486191024.67736 | pgbench_tellers  |         34455552
 2017-02-04 07:50:24.677357+01 | 1486191024.67736 | pgbench_history  |        127909888
 2017-02-04 07:50:24.677357+01 | 1486191024.67736 | pgbench_branches |         17047552

 2017-02-04 07:50:25.767451+01 | 1486191025.76745 | pgbench_accounts |      13917175808
 2017-02-04 07:50:25.767451+01 | 1486191025.76745 | pgbench_tellers  |         34455552
 2017-02-04 07:50:25.767451+01 | 1486191025.76745 | pgbench_history  |        128098304
 2017-02-04 07:50:25.767451+01 | 1486191025.76745 | pgbench_branches |         17047552

 2017-02-04 07:50:26.858646+01 | 1486191026.85865 | pgbench_accounts |      13917175808
 2017-02-04 07:50:26.858646+01 | 1486191026.85865 | pgbench_tellers  |         34455552
 2017-02-04 07:50:26.858646+01 | 1486191026.85865 | pgbench_history  |        128860160
 2017-02-04 07:50:26.858646+01 | 1486191026.85865 | pgbench_branches |         17047552

 2017-02-04 07:50:27.951426+01 | 1486191027.95143 | pgbench_accounts |      13917175808
 2017-02-04 07:50:27.951426+01 | 1486191027.95143 | pgbench_tellers  |         34455552
 2017-02-04 07:50:27.951426+01 | 1486191027.95143 | pgbench_history  |        129769472
 2017-02-04 07:50:27.951426+01 | 1486191027.95143 | pgbench_branches |         17047552

 2017-02-04 07:50:29.036904+01 | 1486191029.0369 | pgbench_accounts |      13917184000
 2017-02-04 07:50:29.036904+01 | 1486191029.0369 | pgbench_tellers  |         34455552
 2017-02-04 07:50:29.036904+01 | 1486191029.0369 | pgbench_history  |        130310144
 2017-02-04 07:50:29.036904+01 | 1486191029.0369 | pgbench_branches |         17047552

 2017-02-04 07:50:30.128448+01 | 1486191030.12845 | pgbench_accounts |      13917192192
 2017-02-04 07:50:30.128448+01 | 1486191030.12845 | pgbench_tellers  |         34455552
 2017-02-04 07:50:30.128448+01 | 1486191030.12845 | pgbench_history  |        131203072
 2017-02-04 07:50:30.128448+01 | 1486191030.12845 | pgbench_branches |         17047552

 2017-02-04 07:50:31.204976+01 | 1486191031.20498 | pgbench_accounts |      13917224960
 2017-02-04 07:50:31.204976+01 | 1486191031.20498 | pgbench_tellers  |         34455552
 2017-02-04 07:50:31.204976+01 | 1486191031.20498 | pgbench_history  |        132071424
 2017-02-04 07:50:31.204976+01 | 1486191031.20498 | pgbench_branches |         17047552

 2017-02-04 07:50:32.28138+01 | 1486191032.28138 | pgbench_accounts |      13917224960
 2017-02-04 07:50:32.28138+01 | 1486191032.28138 | pgbench_tellers  |         34455552
 2017-02-04 07:50:32.28138+01 | 1486191032.28138 | pgbench_history  |        132612096
 2017-02-04 07:50:32.28138+01 | 1486191032.28138 | pgbench_branches |         17047552

 2017-02-04 07:50:33.367948+01 | 1486191033.36795 | pgbench_accounts |      13917233152
 2017-02-04 07:50:33.367948+01 | 1486191033.36795 | pgbench_tellers  |         34455552
 2017-02-04 07:50:33.367948+01 | 1486191033.36795 | pgbench_history  |        133136384
 2017-02-04 07:50:33.367948+01 | 1486191033.36795 | pgbench_branches |         17047552

 2017-02-04 07:50:34.452344+01 | 1486191034.45234 | pgbench_accounts |      13917241344
 2017-02-04 07:50:34.452344+01 | 1486191034.45234 | pgbench_tellers  |         34455552
 2017-02-04 07:50:34.452344+01 | 1486191034.45234 | pgbench_history  |        133832704
 2017-02-04 07:50:34.452344+01 | 1486191034.45234 | pgbench_branches |         17047552

 2017-02-04 07:50:35.537262+01 | 1486191035.53726 | pgbench_accounts |      13917241344
 2017-02-04 07:50:35.537262+01 | 1486191035.53726 | pgbench_tellers  |         34455552
 2017-02-04 07:50:35.537262+01 | 1486191035.53726 | pgbench_history  |        134905856
 2017-02-04 07:50:35.537262+01 | 1486191035.53726 | pgbench_branches |         17047552

 2017-02-04 07:50:36.619012+01 | 1486191036.61901 | pgbench_accounts |      13917241344
 2017-02-04 07:50:36.619012+01 | 1486191036.61901 | pgbench_tellers  |         34455552
 2017-02-04 07:50:36.619012+01 | 1486191036.61901 | pgbench_history  |        134905856
 2017-02-04 07:50:36.619012+01 | 1486191036.61901 | pgbench_branches |         17047552

 2017-02-04 07:50:37.693704+01 | 1486191037.6937 | pgbench_accounts |      13917249536
 2017-02-04 07:50:37.693704+01 | 1486191037.6937 | pgbench_tellers  |         34455552
 2017-02-04 07:50:37.693704+01 | 1486191037.6937 | pgbench_history  |        135987200
 2017-02-04 07:50:37.693704+01 | 1486191037.6937 | pgbench_branches |         17047552

 2017-02-04 07:50:38.769853+01 | 1486191038.76985 | pgbench_accounts |      13917265920
 2017-02-04 07:50:38.769853+01 | 1486191038.76985 | pgbench_tellers  |         34455552
 2017-02-04 07:50:38.769853+01 | 1486191038.76985 | pgbench_history  |        136830976
 2017-02-04 07:50:38.769853+01 | 1486191038.76985 | pgbench_branches |         17047552

 2017-02-04 07:50:39.851638+01 | 1486191039.85164 | pgbench_accounts |      13917274112
 2017-02-04 07:50:39.851638+01 | 1486191039.85164 | pgbench_tellers  |         34455552
 2017-02-04 07:50:39.851638+01 | 1486191039.85164 | pgbench_history  |        137027584
 2017-02-04 07:50:39.851638+01 | 1486191039.85164 | pgbench_branches |         17047552

 2017-02-04 07:50:40.935923+01 | 1486191040.93592 | pgbench_accounts |      13917290496
 2017-02-04 07:50:40.935923+01 | 1486191040.93592 | pgbench_tellers  |         34455552
 2017-02-04 07:50:40.935923+01 | 1486191040.93592 | pgbench_history  |        137936896
 2017-02-04 07:50:40.935923+01 | 1486191040.93592 | pgbench_branches |         17047552

 2017-02-04 07:50:42.013433+01 | 1486191042.01343 | pgbench_accounts |      13917298688
 2017-02-04 07:50:42.013433+01 | 1486191042.01343 | pgbench_tellers  |         34455552
 2017-02-04 07:50:42.013433+01 | 1486191042.01343 | pgbench_history  |        138518528
 2017-02-04 07:50:42.013433+01 | 1486191042.01343 | pgbench_branches |         17047552

 2017-02-04 07:50:43.097162+01 | 1486191043.09716 | pgbench_accounts |      13917306880
 2017-02-04 07:50:43.097162+01 | 1486191043.09716 | pgbench_tellers  |         34455552
 2017-02-04 07:50:43.097162+01 | 1486191043.09716 | pgbench_history  |        139632640
 2017-02-04 07:50:43.097162+01 | 1486191043.09716 | pgbench_branches |         17047552

 2017-02-04 07:50:44.178459+01 | 1486191044.17846 | pgbench_accounts |      13917306880
 2017-02-04 07:50:44.178459+01 | 1486191044.17846 | pgbench_tellers  |         34455552
 2017-02-04 07:50:44.178459+01 | 1486191044.17846 | pgbench_history  |        140017664
 2017-02-04 07:50:44.178459+01 | 1486191044.17846 | pgbench_branches |         17047552

 2017-02-04 07:50:45.263741+01 | 1486191045.26374 | pgbench_accounts |      13917306880
 2017-02-04 07:50:45.263741+01 | 1486191045.26374 | pgbench_tellers  |         34455552
 2017-02-04 07:50:45.263741+01 | 1486191045.26374 | pgbench_history  |        140533760
 2017-02-04 07:50:45.263741+01 | 1486191045.26374 | pgbench_branches |         17047552

 2017-02-04 07:50:46.35117+01 | 1486191046.35117 | pgbench_accounts |      13917306880
 2017-02-04 07:50:46.35117+01 | 1486191046.35117 | pgbench_tellers  |         34455552
 2017-02-04 07:50:46.35117+01 | 1486191046.35117 | pgbench_history  |        141279232
 2017-02-04 07:50:46.35117+01 | 1486191046.35117 | pgbench_branches |         17047552

 2017-02-04 07:50:47.439904+01 | 1486191047.4399 | pgbench_accounts |      13917315072
 2017-02-04 07:50:47.439904+01 | 1486191047.4399 | pgbench_tellers  |         34455552
 2017-02-04 07:50:47.439904+01 | 1486191047.4399 | pgbench_history  |        141664256
 2017-02-04 07:50:47.439904+01 | 1486191047.4399 | pgbench_branches |         17047552

 2017-02-04 07:50:48.529156+01 | 1486191048.52916 | pgbench_accounts |      13917323264
 2017-02-04 07:50:48.529156+01 | 1486191048.52916 | pgbench_tellers  |         34455552
 2017-02-04 07:50:48.529156+01 | 1486191048.52916 | pgbench_history  |        142213120
 2017-02-04 07:50:48.529156+01 | 1486191048.52916 | pgbench_branches |         17047552

 2017-02-04 07:50:49.618142+01 | 1486191049.61814 | pgbench_accounts |      13917339648
 2017-02-04 07:50:49.618142+01 | 1486191049.61814 | pgbench_tellers  |         34455552
 2017-02-04 07:50:49.618142+01 | 1486191049.61814 | pgbench_history  |        143138816
 2017-02-04 07:50:49.618142+01 | 1486191049.61814 | pgbench_branches |         17047552

 2017-02-04 07:50:50.694626+01 | 1486191050.69463 | pgbench_accounts |      13917364224
 2017-02-04 07:50:50.694626+01 | 1486191050.69463 | pgbench_tellers  |         34455552
 2017-02-04 07:50:50.694626+01 | 1486191050.69463 | pgbench_history  |        143835136
 2017-02-04 07:50:50.694626+01 | 1486191050.69463 | pgbench_branches |         17047552

 2017-02-04 07:50:51.765196+01 | 1486191051.7652 | pgbench_accounts |      13917364224
 2017-02-04 07:50:51.765196+01 | 1486191051.7652 | pgbench_tellers  |         34455552
 2017-02-04 07:50:51.765196+01 | 1486191051.7652 | pgbench_history  |        144629760
 2017-02-04 07:50:51.765196+01 | 1486191051.7652 | pgbench_branches |         17047552

 2017-02-04 07:50:52.854195+01 | 1486191052.8542 | pgbench_accounts |      13917372416
 2017-02-04 07:50:52.854195+01 | 1486191052.8542 | pgbench_tellers  |         34455552
 2017-02-04 07:50:52.854195+01 | 1486191052.8542 | pgbench_history  |        145186816
 2017-02-04 07:50:52.854195+01 | 1486191052.8542 | pgbench_branches |         17047552

 2017-02-04 07:50:53.941346+01 | 1486191053.94135 | pgbench_accounts |      13917372416
 2017-02-04 07:50:53.941346+01 | 1486191053.94135 | pgbench_tellers  |         34455552
 2017-02-04 07:50:53.941346+01 | 1486191053.94135 | pgbench_history  |        145891328
 2017-02-04 07:50:53.941346+01 | 1486191053.94135 | pgbench_branches |         17047552

 2017-02-04 07:50:55.031781+01 | 1486191055.03178 | pgbench_accounts |      13917405184
 2017-02-04 07:50:55.031781+01 | 1486191055.03178 | pgbench_tellers  |         34455552
 2017-02-04 07:50:55.031781+01 | 1486191055.03178 | pgbench_history  |        146825216
 2017-02-04 07:50:55.031781+01 | 1486191055.03178 | pgbench_branches |         17047552

 2017-02-04 07:50:56.118344+01 | 1486191056.11834 | pgbench_accounts |      13917437952
 2017-02-04 07:50:56.118344+01 | 1486191056.11834 | pgbench_tellers  |         34455552
 2017-02-04 07:50:56.118344+01 | 1486191056.11834 | pgbench_history  |        147513344
 2017-02-04 07:50:56.118344+01 | 1486191056.11834 | pgbench_branches |         17047552

 2017-02-04 07:50:57.205608+01 | 1486191057.20561 | pgbench_accounts |      13917437952
 2017-02-04 07:50:57.205608+01 | 1486191057.20561 | pgbench_tellers  |         34455552
 2017-02-04 07:50:57.205608+01 | 1486191057.20561 | pgbench_history  |        148217856
 2017-02-04 07:50:57.205608+01 | 1486191057.20561 | pgbench_branches |         17047552

 2017-02-04 07:50:58.280306+01 | 1486191058.28031 | pgbench_accounts |      13917437952
 2017-02-04 07:50:58.280306+01 | 1486191058.28031 | pgbench_tellers  |         34455552
 2017-02-04 07:50:58.280306+01 | 1486191058.28031 | pgbench_history  |        149086208
 2017-02-04 07:50:58.280306+01 | 1486191058.28031 | pgbench_branches |         17047552

 2017-02-04 07:50:59.370899+01 | 1486191059.3709 | pgbench_accounts |      13917437952
 2017-02-04 07:50:59.370899+01 | 1486191059.3709 | pgbench_tellers  |         34455552
 2017-02-04 07:50:59.370899+01 | 1486191059.3709 | pgbench_history  |        149880832
 2017-02-04 07:50:59.370899+01 | 1486191059.3709 | pgbench_branches |         17047552

 2017-02-04 07:51:00.464348+01 | 1486191060.46435 | pgbench_accounts |      13917446144
 2017-02-04 07:51:00.464348+01 | 1486191060.46435 | pgbench_tellers  |         34455552
 2017-02-04 07:51:00.464348+01 | 1486191060.46435 | pgbench_history  |        150478848
 2017-02-04 07:51:00.464348+01 | 1486191060.46435 | pgbench_branches |         17047552

 2017-02-04 07:51:01.554317+01 | 1486191061.55432 | pgbench_accounts |      13917478912
 2017-02-04 07:51:01.554317+01 | 1486191061.55432 | pgbench_tellers  |         34455552
 2017-02-04 07:51:01.554317+01 | 1486191061.55432 | pgbench_history  |        151265280
 2017-02-04 07:51:01.554317+01 | 1486191061.55432 | pgbench_branches |         17047552

 2017-02-04 07:51:02.645146+01 | 1486191062.64515 | pgbench_accounts |      13917487104
 2017-02-04 07:51:02.645146+01 | 1486191062.64515 | pgbench_tellers  |         34455552
 2017-02-04 07:51:02.645146+01 | 1486191062.64515 | pgbench_history  |        152354816
 2017-02-04 07:51:02.645146+01 | 1486191062.64515 | pgbench_branches |         17047552

 2017-02-04 07:51:03.731511+01 | 1486191063.73151 | pgbench_accounts |      13917495296
 2017-02-04 07:51:03.731511+01 | 1486191063.73151 | pgbench_tellers  |         34455552
 2017-02-04 07:51:03.731511+01 | 1486191063.73151 | pgbench_history  |        153034752
 2017-02-04 07:51:03.731511+01 | 1486191063.73151 | pgbench_branches |         17047552

 2017-02-04 07:51:04.816723+01 | 1486191064.81672 | pgbench_accounts |      13917495296
 2017-02-04 07:51:04.816723+01 | 1486191064.81672 | pgbench_tellers  |         34455552
 2017-02-04 07:51:04.816723+01 | 1486191064.81672 | pgbench_history  |        153739264
 2017-02-04 07:51:04.816723+01 | 1486191064.81672 | pgbench_branches |         17047552

 2017-02-04 07:51:05.896797+01 | 1486191065.8968 | pgbench_accounts |      13917495296
 2017-02-04 07:51:05.896797+01 | 1486191065.8968 | pgbench_tellers  |         34455552
 2017-02-04 07:51:05.896797+01 | 1486191065.8968 | pgbench_history  |        154435584
 2017-02-04 07:51:05.896797+01 | 1486191065.8968 | pgbench_branches |         17047552

 2017-02-04 07:51:06.985783+01 | 1486191066.98578 | pgbench_accounts |      13917503488
 2017-02-04 07:51:06.985783+01 | 1486191066.98578 | pgbench_tellers  |         34455552
 2017-02-04 07:51:06.985783+01 | 1486191066.98578 | pgbench_history  |        154435584
 2017-02-04 07:51:06.985783+01 | 1486191066.98578 | pgbench_branches |         17047552

 2017-02-04 07:51:08.067036+01 | 1486191068.06704 | pgbench_accounts |      13917503488
 2017-02-04 07:51:08.067036+01 | 1486191068.06704 | pgbench_tellers  |         34455552
 2017-02-04 07:51:08.067036+01 | 1486191068.06704 | pgbench_history  |        155009024
 2017-02-04 07:51:08.067036+01 | 1486191068.06704 | pgbench_branches |         17047552

 2017-02-04 07:51:09.137166+01 | 1486191069.13717 | pgbench_accounts |      13917503488
 2017-02-04 07:51:09.137166+01 | 1486191069.13717 | pgbench_tellers  |         34455552
 2017-02-04 07:51:09.137166+01 | 1486191069.13717 | pgbench_history  |        155738112
 2017-02-04 07:51:09.137166+01 | 1486191069.13717 | pgbench_branches |         17047552

 2017-02-04 07:51:10.222354+01 | 1486191070.22235 | pgbench_accounts |      13917511680
 2017-02-04 07:51:10.222354+01 | 1486191070.22235 | pgbench_tellers  |         34455552
 2017-02-04 07:51:10.222354+01 | 1486191070.22235 | pgbench_history  |        156442624
 2017-02-04 07:51:10.222354+01 | 1486191070.22235 | pgbench_branches |         17047552

 2017-02-04 07:51:11.312319+01 | 1486191071.31232 | pgbench_accounts |      13917528064
 2017-02-04 07:51:11.312319+01 | 1486191071.31232 | pgbench_tellers  |         34455552
 2017-02-04 07:51:11.312319+01 | 1486191071.31232 | pgbench_history  |        157343744
 2017-02-04 07:51:11.312319+01 | 1486191071.31232 | pgbench_branches |         17047552

 2017-02-04 07:51:12.39411+01 | 1486191072.39411 | pgbench_accounts |      13917536256
 2017-02-04 07:51:12.39411+01 | 1486191072.39411 | pgbench_tellers  |         34455552
 2017-02-04 07:51:12.39411+01 | 1486191072.39411 | pgbench_history  |        157966336
 2017-02-04 07:51:12.39411+01 | 1486191072.39411 | pgbench_branches |         17047552

 2017-02-04 07:51:13.473742+01 | 1486191073.47374 | pgbench_accounts |      13917560832
 2017-02-04 07:51:13.473742+01 | 1486191073.47374 | pgbench_tellers  |         34455552
 2017-02-04 07:51:13.473742+01 | 1486191073.47374 | pgbench_history  |        158859264
 2017-02-04 07:51:13.473742+01 | 1486191073.47374 | pgbench_branches |         17047552

 2017-02-04 07:51:14.555948+01 | 1486191074.55595 | pgbench_accounts |      13917560832
 2017-02-04 07:51:14.555948+01 | 1486191074.55595 | pgbench_tellers  |         34455552
 2017-02-04 07:51:14.555948+01 | 1486191074.55595 | pgbench_history  |        159752192
 2017-02-04 07:51:14.555948+01 | 1486191074.55595 | pgbench_branches |         17047552

 2017-02-04 07:51:15.642953+01 | 1486191075.64295 | pgbench_accounts |      13917569024
 2017-02-04 07:51:15.642953+01 | 1486191075.64295 | pgbench_tellers  |         34455552
 2017-02-04 07:51:15.642953+01 | 1486191075.64295 | pgbench_history  |        160104448
 2017-02-04 07:51:15.642953+01 | 1486191075.64295 | pgbench_branches |         17047552

 2017-02-04 07:51:16.732783+01 | 1486191076.73278 | pgbench_accounts |      13917569024
 2017-02-04 07:51:16.732783+01 | 1486191076.73278 | pgbench_tellers  |         34455552
 2017-02-04 07:51:16.732783+01 | 1486191076.73278 | pgbench_history  |        161202176
 2017-02-04 07:51:16.732783+01 | 1486191076.73278 | pgbench_branches |         17047552

 2017-02-04 07:51:17.813437+01 | 1486191077.81344 | pgbench_accounts |      13917569024
 2017-02-04 07:51:17.813437+01 | 1486191077.81344 | pgbench_tellers  |         34455552
 2017-02-04 07:51:17.813437+01 | 1486191077.81344 | pgbench_history  |        161923072
 2017-02-04 07:51:17.813437+01 | 1486191077.81344 | pgbench_branches |         17047552

 2017-02-04 07:51:18.90003+01 | 1486191078.90003 | pgbench_accounts |      13917577216
 2017-02-04 07:51:18.90003+01 | 1486191078.90003 | pgbench_tellers  |         34455552
 2017-02-04 07:51:18.90003+01 | 1486191078.90003 | pgbench_history  |        162127872
 2017-02-04 07:51:18.90003+01 | 1486191078.90003 | pgbench_branches |         17047552

 2017-02-04 07:51:19.983249+01 | 1486191079.98325 | pgbench_accounts |      13917593600
 2017-02-04 07:51:19.983249+01 | 1486191079.98325 | pgbench_tellers  |         34455552
 2017-02-04 07:51:19.983249+01 | 1486191079.98325 | pgbench_history  |        162799616
 2017-02-04 07:51:19.983249+01 | 1486191079.98325 | pgbench_branches |         17047552

 2017-02-04 07:51:21.07173+01 | 1486191081.07173 | pgbench_accounts |      13917593600
 2017-02-04 07:51:21.07173+01 | 1486191081.07173 | pgbench_tellers  |         34455552
 2017-02-04 07:51:21.07173+01 | 1486191081.07173 | pgbench_history  |        163856384
 2017-02-04 07:51:21.07173+01 | 1486191081.07173 | pgbench_branches |         17047552

 2017-02-04 07:51:22.160425+01 | 1486191082.16042 | pgbench_accounts |      13917634560
 2017-02-04 07:51:22.160425+01 | 1486191082.16042 | pgbench_tellers  |         34455552
 2017-02-04 07:51:22.160425+01 | 1486191082.16042 | pgbench_history  |        164405248
 2017-02-04 07:51:22.160425+01 | 1486191082.16042 | pgbench_branches |         17047552

 2017-02-04 07:51:23.248436+01 | 1486191083.24844 | pgbench_accounts |      13917634560
 2017-02-04 07:51:23.248436+01 | 1486191083.24844 | pgbench_tellers  |         34455552
 2017-02-04 07:51:23.248436+01 | 1486191083.24844 | pgbench_history  |        165126144
 2017-02-04 07:51:23.248436+01 | 1486191083.24844 | pgbench_branches |         17047552

 2017-02-04 07:51:24.339324+01 | 1486191084.33932 | pgbench_accounts |      13917634560
 2017-02-04 07:51:24.339324+01 | 1486191084.33932 | pgbench_tellers  |         34455552
 2017-02-04 07:51:24.339324+01 | 1486191084.33932 | pgbench_history  |        166158336
 2017-02-04 07:51:24.339324+01 | 1486191084.33932 | pgbench_branches |         17047552

 2017-02-04 07:51:25.432618+01 | 1486191085.43262 | pgbench_accounts |      13917634560
 2017-02-04 07:51:25.432618+01 | 1486191085.43262 | pgbench_tellers  |         34455552
 2017-02-04 07:51:25.432618+01 | 1486191085.43262 | pgbench_history  |        166838272
 2017-02-04 07:51:25.432618+01 | 1486191085.43262 | pgbench_branches |         17047552

 2017-02-04 07:51:26.514166+01 | 1486191086.51417 | pgbench_accounts |      13917634560
 2017-02-04 07:51:26.514166+01 | 1486191086.51417 | pgbench_tellers  |         34455552
 2017-02-04 07:51:26.514166+01 | 1486191086.51417 | pgbench_history  |        167362560
 2017-02-04 07:51:26.514166+01 | 1486191086.51417 | pgbench_branches |         17047552

 2017-02-04 07:51:27.595014+01 | 1486191087.59501 | pgbench_accounts |      13917634560
 2017-02-04 07:51:27.595014+01 | 1486191087.59501 | pgbench_tellers  |         34455552
 2017-02-04 07:51:27.595014+01 | 1486191087.59501 | pgbench_history  |        168083456
 2017-02-04 07:51:27.595014+01 | 1486191087.59501 | pgbench_branches |         17047552

 2017-02-04 07:51:28.683285+01 | 1486191088.68328 | pgbench_accounts |      13917650944
 2017-02-04 07:51:28.683285+01 | 1486191088.68328 | pgbench_tellers  |         34455552
 2017-02-04 07:51:28.683285+01 | 1486191088.68328 | pgbench_history  |        169115648
 2017-02-04 07:51:28.683285+01 | 1486191088.68328 | pgbench_branches |         17047552

 2017-02-04 07:51:29.763997+01 | 1486191089.764 | pgbench_accounts |      13917659136
 2017-02-04 07:51:29.763997+01 | 1486191089.764 | pgbench_tellers  |         34455552
 2017-02-04 07:51:29.763997+01 | 1486191089.764 | pgbench_history  |        169967616
 2017-02-04 07:51:29.763997+01 | 1486191089.764 | pgbench_branches |         17047552

 2017-02-04 07:51:30.843012+01 | 1486191090.84301 | pgbench_accounts |      13917659136
 2017-02-04 07:51:30.843012+01 | 1486191090.84301 | pgbench_tellers  |         34455552
 2017-02-04 07:51:30.843012+01 | 1486191090.84301 | pgbench_history  |        170541056
 2017-02-04 07:51:30.843012+01 | 1486191090.84301 | pgbench_branches |         17047552

 2017-02-04 07:51:31.917216+01 | 1486191091.91722 | pgbench_accounts |      13917675520
 2017-02-04 07:51:31.917216+01 | 1486191091.91722 | pgbench_tellers  |         34455552
 2017-02-04 07:51:31.917216+01 | 1486191091.91722 | pgbench_history  |        171057152
 2017-02-04 07:51:31.917216+01 | 1486191091.91722 | pgbench_branches |         17047552

 2017-02-04 07:51:32.997569+01 | 1486191092.99757 | pgbench_accounts |      13917683712
 2017-02-04 07:51:32.997569+01 | 1486191092.99757 | pgbench_tellers  |         34455552
 2017-02-04 07:51:32.997569+01 | 1486191092.99757 | pgbench_history  |        171859968
 2017-02-04 07:51:32.997569+01 | 1486191092.99757 | pgbench_branches |         17047552

 2017-02-04 07:51:34.079589+01 | 1486191094.07959 | pgbench_accounts |      13917700096
 2017-02-04 07:51:34.079589+01 | 1486191094.07959 | pgbench_tellers  |         34455552
 2017-02-04 07:51:34.079589+01 | 1486191094.07959 | pgbench_history  |        172630016
 2017-02-04 07:51:34.079589+01 | 1486191094.07959 | pgbench_branches |         17047552

 2017-02-04 07:51:35.166658+01 | 1486191095.16666 | pgbench_accounts |      13917700096
 2017-02-04 07:51:35.166658+01 | 1486191095.16666 | pgbench_tellers  |         34455552
 2017-02-04 07:51:35.166658+01 | 1486191095.16666 | pgbench_history  |        173719552
 2017-02-04 07:51:35.166658+01 | 1486191095.16666 | pgbench_branches |         17047552

 2017-02-04 07:51:36.249793+01 | 1486191096.24979 | pgbench_accounts |      13917700096
 2017-02-04 07:51:36.249793+01 | 1486191096.24979 | pgbench_tellers  |         34455552
 2017-02-04 07:51:36.249793+01 | 1486191096.24979 | pgbench_history  |        174080000
 2017-02-04 07:51:36.249793+01 | 1486191096.24979 | pgbench_branches |         17047552

 2017-02-04 07:51:37.343905+01 | 1486191097.3439 | pgbench_accounts |      13917700096
 2017-02-04 07:51:37.343905+01 | 1486191097.3439 | pgbench_tellers  |         34455552
 2017-02-04 07:51:37.343905+01 | 1486191097.3439 | pgbench_history  |        175054848
 2017-02-04 07:51:37.343905+01 | 1486191097.3439 | pgbench_branches |         17047552

 2017-02-04 07:51:38.42181+01 | 1486191098.42181 | pgbench_accounts |      13917708288
 2017-02-04 07:51:38.42181+01 | 1486191098.42181 | pgbench_tellers  |         34455552
 2017-02-04 07:51:38.42181+01 | 1486191098.42181 | pgbench_history  |        175579136
 2017-02-04 07:51:38.42181+01 | 1486191098.42181 | pgbench_branches |         17047552

 2017-02-04 07:51:39.506184+01 | 1486191099.50618 | pgbench_accounts |      13917708288
 2017-02-04 07:51:39.506184+01 | 1486191099.50618 | pgbench_tellers  |         34455552
 2017-02-04 07:51:39.506184+01 | 1486191099.50618 | pgbench_history  |        176488448
 2017-02-04 07:51:39.506184+01 | 1486191099.50618 | pgbench_branches |         17047552

 2017-02-04 07:51:40.597548+01 | 1486191100.59755 | pgbench_accounts |      13917708288
 2017-02-04 07:51:40.597548+01 | 1486191100.59755 | pgbench_tellers  |         34455552
 2017-02-04 07:51:40.597548+01 | 1486191100.59755 | pgbench_history  |        177569792
 2017-02-04 07:51:40.597548+01 | 1486191100.59755 | pgbench_branches |         17047552

 2017-02-04 07:51:41.680609+01 | 1486191101.68061 | pgbench_accounts |      13917724672
 2017-02-04 07:51:41.680609+01 | 1486191101.68061 | pgbench_tellers  |         34455552
 2017-02-04 07:51:41.680609+01 | 1486191101.68061 | pgbench_history  |        178085888
 2017-02-04 07:51:41.680609+01 | 1486191101.68061 | pgbench_branches |         17047552

 2017-02-04 07:51:42.757506+01 | 1486191102.75751 | pgbench_accounts |      13917732864
 2017-02-04 07:51:42.757506+01 | 1486191102.75751 | pgbench_tellers  |         34455552
 2017-02-04 07:51:42.757506+01 | 1486191102.75751 | pgbench_history  |        178978816
 2017-02-04 07:51:42.757506+01 | 1486191102.75751 | pgbench_branches |         17047552

 2017-02-04 07:51:43.846299+01 | 1486191103.8463 | pgbench_accounts |      13917757440
 2017-02-04 07:51:43.846299+01 | 1486191103.8463 | pgbench_tellers  |         34455552
 2017-02-04 07:51:43.846299+01 | 1486191103.8463 | pgbench_history  |        179658752
 2017-02-04 07:51:43.846299+01 | 1486191103.8463 | pgbench_branches |         17047552

 2017-02-04 07:51:44.926853+01 | 1486191104.92685 | pgbench_accounts |      13917757440
 2017-02-04 07:51:44.926853+01 | 1486191104.92685 | pgbench_tellers  |         34455552
 2017-02-04 07:51:44.926853+01 | 1486191104.92685 | pgbench_history  |        180174848
 2017-02-04 07:51:44.926853+01 | 1486191104.92685 | pgbench_branches |         17047552

 2017-02-04 07:51:46.014633+01 | 1486191106.01463 | pgbench_accounts |      13917765632
 2017-02-04 07:51:46.014633+01 | 1486191106.01463 | pgbench_tellers  |         34455552
 2017-02-04 07:51:46.014633+01 | 1486191106.01463 | pgbench_history  |        180920320
 2017-02-04 07:51:46.014633+01 | 1486191106.01463 | pgbench_branches |         17047552

 2017-02-04 07:51:47.108456+01 | 1486191107.10846 | pgbench_accounts |      13917765632
 2017-02-04 07:51:47.108456+01 | 1486191107.10846 | pgbench_tellers  |         34455552
 2017-02-04 07:51:47.108456+01 | 1486191107.10846 | pgbench_history  |        181641216
 2017-02-04 07:51:47.108456+01 | 1486191107.10846 | pgbench_branches |         17047552

 2017-02-04 07:51:48.198705+01 | 1486191108.1987 | pgbench_accounts |      13917765632
 2017-02-04 07:51:48.198705+01 | 1486191108.1987 | pgbench_tellers  |         34455552
 2017-02-04 07:51:48.198705+01 | 1486191108.1987 | pgbench_history  |        182517760
 2017-02-04 07:51:48.198705+01 | 1486191108.1987 | pgbench_branches |         17047552

 2017-02-04 07:51:49.289501+01 | 1486191109.2895 | pgbench_accounts |      13917773824
 2017-02-04 07:51:49.289501+01 | 1486191109.2895 | pgbench_tellers  |         34455552
 2017-02-04 07:51:49.289501+01 | 1486191109.2895 | pgbench_history  |        183255040
 2017-02-04 07:51:49.289501+01 | 1486191109.2895 | pgbench_branches |         17047552

 2017-02-04 07:51:50.382012+01 | 1486191110.38201 | pgbench_accounts |      13917773824
 2017-02-04 07:51:50.382012+01 | 1486191110.38201 | pgbench_tellers  |         34455552
 2017-02-04 07:51:50.382012+01 | 1486191110.38201 | pgbench_history  |        184467456
 2017-02-04 07:51:50.382012+01 | 1486191110.38201 | pgbench_branches |         17047552

 2017-02-04 07:51:51.445004+01 | 1486191111.445 | pgbench_accounts |      13917773824
 2017-02-04 07:51:51.445004+01 | 1486191111.445 | pgbench_tellers  |         34455552
 2017-02-04 07:51:51.445004+01 | 1486191111.445 | pgbench_history  |        184836096
 2017-02-04 07:51:51.445004+01 | 1486191111.445 | pgbench_branches |         17047552

 2017-02-04 07:51:52.527569+01 | 1486191112.52757 | pgbench_accounts |      13917782016
 2017-02-04 07:51:52.527569+01 | 1486191112.52757 | pgbench_tellers  |         34455552
 2017-02-04 07:51:52.527569+01 | 1486191112.52757 | pgbench_history  |        185237504
 2017-02-04 07:51:52.527569+01 | 1486191112.52757 | pgbench_branches |         17047552

 2017-02-04 07:51:53.607543+01 | 1486191113.60754 | pgbench_accounts |      13917822976
 2017-02-04 07:51:53.607543+01 | 1486191113.60754 | pgbench_tellers  |         34455552
 2017-02-04 07:51:53.607543+01 | 1486191113.60754 | pgbench_history  |        186294272
 2017-02-04 07:51:53.607543+01 | 1486191113.60754 | pgbench_branches |         17047552

 2017-02-04 07:51:54.680884+01 | 1486191114.68088 | pgbench_accounts |      13917831168
 2017-02-04 07:51:54.680884+01 | 1486191114.68088 | pgbench_tellers  |         34455552
 2017-02-04 07:51:54.680884+01 | 1486191114.68088 | pgbench_history  |        186974208
 2017-02-04 07:51:54.680884+01 | 1486191114.68088 | pgbench_branches |         17047552

 2017-02-04 07:51:55.752642+01 | 1486191115.75264 | pgbench_accounts |      13917839360
 2017-02-04 07:51:55.752642+01 | 1486191115.75264 | pgbench_tellers  |         34455552
 2017-02-04 07:51:55.752642+01 | 1486191115.75264 | pgbench_history  |        187539456
 2017-02-04 07:51:55.752642+01 | 1486191115.75264 | pgbench_branches |         17047552

 2017-02-04 07:51:56.831466+01 | 1486191116.83147 | pgbench_accounts |      13917888512
 2017-02-04 07:51:56.831466+01 | 1486191116.83147 | pgbench_tellers  |         34455552
 2017-02-04 07:51:56.831466+01 | 1486191116.83147 | pgbench_history  |        188301312
 2017-02-04 07:51:56.831466+01 | 1486191116.83147 | pgbench_branches |         17047552

 2017-02-04 07:51:57.911732+01 | 1486191117.91173 | pgbench_accounts |      13917913088
 2017-02-04 07:51:57.911732+01 | 1486191117.91173 | pgbench_tellers  |         34455552
 2017-02-04 07:51:57.911732+01 | 1486191117.91173 | pgbench_history  |        189169664
 2017-02-04 07:51:57.911732+01 | 1486191117.91173 | pgbench_branches |         17047552

 2017-02-04 07:51:58.997016+01 | 1486191118.99702 | pgbench_accounts |      13917954048
 2017-02-04 07:51:58.997016+01 | 1486191118.99702 | pgbench_tellers  |         34455552
 2017-02-04 07:51:58.997016+01 | 1486191118.99702 | pgbench_history  |        189874176
 2017-02-04 07:51:58.997016+01 | 1486191118.99702 | pgbench_branches |         17047552

 2017-02-04 07:52:00.071309+01 | 1486191120.07131 | pgbench_accounts |      13917962240
 2017-02-04 07:52:00.071309+01 | 1486191120.07131 | pgbench_tellers  |         34455552
 2017-02-04 07:52:00.071309+01 | 1486191120.07131 | pgbench_history  |        190578688
 2017-02-04 07:52:00.071309+01 | 1486191120.07131 | pgbench_branches |         17047552

 2017-02-04 07:52:01.152474+01 | 1486191121.15247 | pgbench_accounts |      13917962240
 2017-02-04 07:52:01.152474+01 | 1486191121.15247 | pgbench_tellers  |         34455552
 2017-02-04 07:52:01.152474+01 | 1486191121.15247 | pgbench_history  |        191299584
 2017-02-04 07:52:01.152474+01 | 1486191121.15247 | pgbench_branches |         17047552

 2017-02-04 07:52:02.240788+01 | 1486191122.24079 | pgbench_accounts |      13917962240
 2017-02-04 07:52:02.240788+01 | 1486191122.24079 | pgbench_tellers  |         34455552
 2017-02-04 07:52:02.240788+01 | 1486191122.24079 | pgbench_history  |        191979520
 2017-02-04 07:52:02.240788+01 | 1486191122.24079 | pgbench_branches |         17047552

 2017-02-04 07:52:03.318586+01 | 1486191123.31859 | pgbench_accounts |      13917962240
 2017-02-04 07:52:03.318586+01 | 1486191123.31859 | pgbench_tellers  |         34455552
 2017-02-04 07:52:03.318586+01 | 1486191123.31859 | pgbench_history  |        192684032
 2017-02-04 07:52:03.318586+01 | 1486191123.31859 | pgbench_branches |         17047552

 2017-02-04 07:52:04.405924+01 | 1486191124.40592 | pgbench_accounts |      13917970432
 2017-02-04 07:52:04.405924+01 | 1486191124.40592 | pgbench_tellers  |         34455552
 2017-02-04 07:52:04.405924+01 | 1486191124.40592 | pgbench_history  |        193454080
 2017-02-04 07:52:04.405924+01 | 1486191124.40592 | pgbench_branches |         17047552

 2017-02-04 07:52:05.496355+01 | 1486191125.49636 | pgbench_accounts |      13917970432
 2017-02-04 07:52:05.496355+01 | 1486191125.49636 | pgbench_tellers  |         34455552
 2017-02-04 07:52:05.496355+01 | 1486191125.49636 | pgbench_history  |        194224128
 2017-02-04 07:52:05.496355+01 | 1486191125.49636 | pgbench_branches |         17047552

 2017-02-04 07:52:06.59063+01 | 1486191126.59063 | pgbench_accounts |      13917978624
 2017-02-04 07:52:06.59063+01 | 1486191126.59063 | pgbench_tellers  |         34455552
 2017-02-04 07:52:06.59063+01 | 1486191126.59063 | pgbench_history  |        194985984
 2017-02-04 07:52:06.59063+01 | 1486191126.59063 | pgbench_branches |         17047552

 2017-02-04 07:52:07.685375+01 | 1486191127.68537 | pgbench_accounts |      13917986816
 2017-02-04 07:52:07.685375+01 | 1486191127.68537 | pgbench_tellers  |         34455552
 2017-02-04 07:52:07.685375+01 | 1486191127.68537 | pgbench_history  |        195887104
 2017-02-04 07:52:07.685375+01 | 1486191127.68537 | pgbench_branches |         17047552

 2017-02-04 07:52:08.774642+01 | 1486191128.77464 | pgbench_accounts |      13918003200
 2017-02-04 07:52:08.774642+01 | 1486191128.77464 | pgbench_tellers  |         34455552
 2017-02-04 07:52:08.774642+01 | 1486191128.77464 | pgbench_history  |        196608000
 2017-02-04 07:52:08.774642+01 | 1486191128.77464 | pgbench_branches |         17047552

 2017-02-04 07:52:09.859049+01 | 1486191129.85905 | pgbench_accounts |      13918003200
 2017-02-04 07:52:09.859049+01 | 1486191129.85905 | pgbench_tellers  |         34455552
 2017-02-04 07:52:09.859049+01 | 1486191129.85905 | pgbench_history  |        197500928
 2017-02-04 07:52:09.859049+01 | 1486191129.85905 | pgbench_branches |         17047552

 2017-02-04 07:52:10.943873+01 | 1486191130.94387 | pgbench_accounts |      13918011392
 2017-02-04 07:52:10.943873+01 | 1486191130.94387 | pgbench_tellers  |         34455552
 2017-02-04 07:52:10.943873+01 | 1486191130.94387 | pgbench_history  |        197943296
 2017-02-04 07:52:10.943873+01 | 1486191130.94387 | pgbench_branches |         17047552

 2017-02-04 07:52:12.021987+01 | 1486191132.02199 | pgbench_accounts |      13918011392
 2017-02-04 07:52:12.021987+01 | 1486191132.02199 | pgbench_tellers  |         34455552
 2017-02-04 07:52:12.021987+01 | 1486191132.02199 | pgbench_history  |        198656000
 2017-02-04 07:52:12.021987+01 | 1486191132.02199 | pgbench_branches |         17047552

 2017-02-04 07:52:13.112823+01 | 1486191133.11282 | pgbench_accounts |      13918019584
 2017-02-04 07:52:13.112823+01 | 1486191133.11282 | pgbench_tellers  |         34455552
 2017-02-04 07:52:13.112823+01 | 1486191133.11282 | pgbench_history  |        199262208
 2017-02-04 07:52:13.112823+01 | 1486191133.11282 | pgbench_branches |         17047552

 2017-02-04 07:52:14.207285+01 | 1486191134.20728 | pgbench_accounts |      13918019584
 2017-02-04 07:52:14.207285+01 | 1486191134.20728 | pgbench_tellers  |         34455552
 2017-02-04 07:52:14.207285+01 | 1486191134.20728 | pgbench_history  |        200228864
 2017-02-04 07:52:14.207285+01 | 1486191134.20728 | pgbench_branches |         17047552

 2017-02-04 07:52:15.293207+01 | 1486191135.29321 | pgbench_accounts |      13918027776
 2017-02-04 07:52:15.293207+01 | 1486191135.29321 | pgbench_tellers  |         34455552
 2017-02-04 07:52:15.293207+01 | 1486191135.29321 | pgbench_history  |        200957952
 2017-02-04 07:52:15.293207+01 | 1486191135.29321 | pgbench_branches |         17047552

 2017-02-04 07:52:16.383431+01 | 1486191136.38343 | pgbench_accounts |      13918027776
 2017-02-04 07:52:16.383431+01 | 1486191136.38343 | pgbench_tellers  |         34455552
 2017-02-04 07:52:16.383431+01 | 1486191136.38343 | pgbench_history  |        201637888
 2017-02-04 07:52:16.383431+01 | 1486191136.38343 | pgbench_branches |         17047552

 2017-02-04 07:52:17.473379+01 | 1486191137.47338 | pgbench_accounts |      13918035968
 2017-02-04 07:52:17.473379+01 | 1486191137.47338 | pgbench_tellers  |         34455552
 2017-02-04 07:52:17.473379+01 | 1486191137.47338 | pgbench_history  |        202350592
 2017-02-04 07:52:17.473379+01 | 1486191137.47338 | pgbench_branches |         17047552

 2017-02-04 07:52:18.549599+01 | 1486191138.5496 | pgbench_accounts |      13918035968
 2017-02-04 07:52:18.549599+01 | 1486191138.5496 | pgbench_tellers  |         34455552
 2017-02-04 07:52:18.549599+01 | 1486191138.5496 | pgbench_history  |        203251712
 2017-02-04 07:52:18.549599+01 | 1486191138.5496 | pgbench_branches |         17047552

