starting vacuum...end.
transaction type: multiple scripts
scaling factor: 1000
query mode: prepared
number of clients: 16
number of threads: 8
duration: 300 s
number of transactions actually processed: 33247980
latency average = 0.144 ms
tps = 110814.217979 (including connections establishing)
tps = 110815.940627 (excluding connections establishing)
SQL script 1: reads.sql
 - weight: 9 (targets 90.0% of total)
 - 29722149 transactions (89.4% of total, tps = 99062.761048)
 - latency average = 0.085 ms
 - latency stddev = 0.044 ms
SQL script 2: writes.sql
 - weight: 1 (targets 10.0% of total)
 - 3312627 transactions (10.0% of total, tps = 11040.856331)
 - latency average = 0.677 ms
 - latency stddev = 2.208 ms
