 2017-02-05 00:16:13.07162+01 | 1486250173.07162 | pgbench_branches_pkey |            16384
 2017-02-05 00:16:13.07162+01 | 1486250173.07162 | pgbench_tellers_pkey  |            40960
 2017-02-05 00:16:13.07162+01 | 1486250173.07162 | pgbench_accounts_pkey |        224641024

 2017-02-05 00:16:14.155069+01 | 1486250174.15507 | pgbench_branches_pkey |            16384
 2017-02-05 00:16:14.155069+01 | 1486250174.15507 | pgbench_tellers_pkey  |            40960
 2017-02-05 00:16:14.155069+01 | 1486250174.15507 | pgbench_accounts_pkey |        224641024

 2017-02-05 00:16:15.234667+01 | 1486250175.23467 | pgbench_branches_pkey |            16384
 2017-02-05 00:16:15.234667+01 | 1486250175.23467 | pgbench_tellers_pkey  |            40960
 2017-02-05 00:16:15.234667+01 | 1486250175.23467 | pgbench_accounts_pkey |        224641024

 2017-02-05 00:16:16.312702+01 | 1486250176.3127 | pgbench_branches_pkey |            16384
 2017-02-05 00:16:16.312702+01 | 1486250176.3127 | pgbench_tellers_pkey  |            40960
 2017-02-05 00:16:16.312702+01 | 1486250176.3127 | pgbench_accounts_pkey |        224641024

 2017-02-05 00:16:17.394377+01 | 1486250177.39438 | pgbench_branches_pkey |            16384
 2017-02-05 00:16:17.394377+01 | 1486250177.39438 | pgbench_tellers_pkey  |            40960
 2017-02-05 00:16:17.394377+01 | 1486250177.39438 | pgbench_accounts_pkey |        224641024

 2017-02-05 00:16:18.475539+01 | 1486250178.47554 | pgbench_branches_pkey |            16384
 2017-02-05 00:16:18.475539+01 | 1486250178.47554 | pgbench_tellers_pkey  |            40960
 2017-02-05 00:16:18.475539+01 | 1486250178.47554 | pgbench_accounts_pkey |        224641024

 2017-02-05 00:16:19.554589+01 | 1486250179.55459 | pgbench_branches_pkey |            16384
 2017-02-05 00:16:19.554589+01 | 1486250179.55459 | pgbench_tellers_pkey  |            40960
 2017-02-05 00:16:19.554589+01 | 1486250179.55459 | pgbench_accounts_pkey |        224641024

 2017-02-05 00:16:20.624032+01 | 1486250180.62403 | pgbench_branches_pkey |            16384
 2017-02-05 00:16:20.624032+01 | 1486250180.62403 | pgbench_tellers_pkey  |            40960
 2017-02-05 00:16:20.624032+01 | 1486250180.62403 | pgbench_accounts_pkey |        224641024

 2017-02-05 00:16:21.696901+01 | 1486250181.6969 | pgbench_branches_pkey |            16384
 2017-02-05 00:16:21.696901+01 | 1486250181.6969 | pgbench_tellers_pkey  |            40960
 2017-02-05 00:16:21.696901+01 | 1486250181.6969 | pgbench_accounts_pkey |        224641024

 2017-02-05 00:16:22.770771+01 | 1486250182.77077 | pgbench_branches_pkey |            16384
 2017-02-05 00:16:22.770771+01 | 1486250182.77077 | pgbench_tellers_pkey  |            40960
 2017-02-05 00:16:22.770771+01 | 1486250182.77077 | pgbench_accounts_pkey |        224641024

 2017-02-05 00:16:23.849959+01 | 1486250183.84996 | pgbench_branches_pkey |            16384
 2017-02-05 00:16:23.849959+01 | 1486250183.84996 | pgbench_tellers_pkey  |            40960
 2017-02-05 00:16:23.849959+01 | 1486250183.84996 | pgbench_accounts_pkey |        224641024

 2017-02-05 00:16:24.931858+01 | 1486250184.93186 | pgbench_branches_pkey |            16384
 2017-02-05 00:16:24.931858+01 | 1486250184.93186 | pgbench_tellers_pkey  |            40960
 2017-02-05 00:16:24.931858+01 | 1486250184.93186 | pgbench_accounts_pkey |        224641024

 2017-02-05 00:16:26.011701+01 | 1486250186.0117 | pgbench_branches_pkey |            16384
 2017-02-05 00:16:26.011701+01 | 1486250186.0117 | pgbench_tellers_pkey  |            40960
 2017-02-05 00:16:26.011701+01 | 1486250186.0117 | pgbench_accounts_pkey |        224641024

 2017-02-05 00:16:27.087286+01 | 1486250187.08729 | pgbench_branches_pkey |            16384
 2017-02-05 00:16:27.087286+01 | 1486250187.08729 | pgbench_tellers_pkey  |            40960
 2017-02-05 00:16:27.087286+01 | 1486250187.08729 | pgbench_accounts_pkey |        224641024

 2017-02-05 00:16:28.160373+01 | 1486250188.16037 | pgbench_branches_pkey |            16384
 2017-02-05 00:16:28.160373+01 | 1486250188.16037 | pgbench_tellers_pkey  |            40960
 2017-02-05 00:16:28.160373+01 | 1486250188.16037 | pgbench_accounts_pkey |        224641024

 2017-02-05 00:16:29.231869+01 | 1486250189.23187 | pgbench_branches_pkey |            16384
 2017-02-05 00:16:29.231869+01 | 1486250189.23187 | pgbench_tellers_pkey  |            40960
 2017-02-05 00:16:29.231869+01 | 1486250189.23187 | pgbench_accounts_pkey |        224641024

 2017-02-05 00:16:30.305679+01 | 1486250190.30568 | pgbench_branches_pkey |            16384
 2017-02-05 00:16:30.305679+01 | 1486250190.30568 | pgbench_tellers_pkey  |            40960
 2017-02-05 00:16:30.305679+01 | 1486250190.30568 | pgbench_accounts_pkey |        224641024

 2017-02-05 00:16:31.376238+01 | 1486250191.37624 | pgbench_branches_pkey |            16384
 2017-02-05 00:16:31.376238+01 | 1486250191.37624 | pgbench_tellers_pkey  |            40960
 2017-02-05 00:16:31.376238+01 | 1486250191.37624 | pgbench_accounts_pkey |        224641024

 2017-02-05 00:16:32.445039+01 | 1486250192.44504 | pgbench_branches_pkey |            16384
 2017-02-05 00:16:32.445039+01 | 1486250192.44504 | pgbench_tellers_pkey  |            40960
 2017-02-05 00:16:32.445039+01 | 1486250192.44504 | pgbench_accounts_pkey |        224641024

 2017-02-05 00:16:33.519173+01 | 1486250193.51917 | pgbench_branches_pkey |            16384
 2017-02-05 00:16:33.519173+01 | 1486250193.51917 | pgbench_tellers_pkey  |            40960
 2017-02-05 00:16:33.519173+01 | 1486250193.51917 | pgbench_accounts_pkey |        224641024

 2017-02-05 00:16:34.601775+01 | 1486250194.60177 | pgbench_branches_pkey |            16384
 2017-02-05 00:16:34.601775+01 | 1486250194.60177 | pgbench_tellers_pkey  |            40960
 2017-02-05 00:16:34.601775+01 | 1486250194.60177 | pgbench_accounts_pkey |        224641024

 2017-02-05 00:16:35.672729+01 | 1486250195.67273 | pgbench_branches_pkey |            16384
 2017-02-05 00:16:35.672729+01 | 1486250195.67273 | pgbench_tellers_pkey  |            40960
 2017-02-05 00:16:35.672729+01 | 1486250195.67273 | pgbench_accounts_pkey |        224641024

 2017-02-05 00:16:36.746507+01 | 1486250196.74651 | pgbench_branches_pkey |            16384
 2017-02-05 00:16:36.746507+01 | 1486250196.74651 | pgbench_tellers_pkey  |            40960
 2017-02-05 00:16:36.746507+01 | 1486250196.74651 | pgbench_accounts_pkey |        224641024

 2017-02-05 00:16:37.825023+01 | 1486250197.82502 | pgbench_branches_pkey |            16384
 2017-02-05 00:16:37.825023+01 | 1486250197.82502 | pgbench_tellers_pkey  |            40960
 2017-02-05 00:16:37.825023+01 | 1486250197.82502 | pgbench_accounts_pkey |        224641024

 2017-02-05 00:16:38.90033+01 | 1486250198.90033 | pgbench_branches_pkey |            16384
 2017-02-05 00:16:38.90033+01 | 1486250198.90033 | pgbench_tellers_pkey  |            40960
 2017-02-05 00:16:38.90033+01 | 1486250198.90033 | pgbench_accounts_pkey |        224641024

 2017-02-05 00:16:39.969876+01 | 1486250199.96988 | pgbench_branches_pkey |            16384
 2017-02-05 00:16:39.969876+01 | 1486250199.96988 | pgbench_tellers_pkey  |            40960
 2017-02-05 00:16:39.969876+01 | 1486250199.96988 | pgbench_accounts_pkey |        224641024

 2017-02-05 00:16:41.042187+01 | 1486250201.04219 | pgbench_branches_pkey |            16384
 2017-02-05 00:16:41.042187+01 | 1486250201.04219 | pgbench_tellers_pkey  |            40960
 2017-02-05 00:16:41.042187+01 | 1486250201.04219 | pgbench_accounts_pkey |        224641024

 2017-02-05 00:16:42.123689+01 | 1486250202.12369 | pgbench_branches_pkey |            16384
 2017-02-05 00:16:42.123689+01 | 1486250202.12369 | pgbench_tellers_pkey  |            40960
 2017-02-05 00:16:42.123689+01 | 1486250202.12369 | pgbench_accounts_pkey |        224641024

 2017-02-05 00:16:43.198966+01 | 1486250203.19897 | pgbench_branches_pkey |            16384
 2017-02-05 00:16:43.198966+01 | 1486250203.19897 | pgbench_tellers_pkey  |            40960
 2017-02-05 00:16:43.198966+01 | 1486250203.19897 | pgbench_accounts_pkey |        224641024

 2017-02-05 00:16:44.274854+01 | 1486250204.27485 | pgbench_branches_pkey |            16384
 2017-02-05 00:16:44.274854+01 | 1486250204.27485 | pgbench_tellers_pkey  |            40960
 2017-02-05 00:16:44.274854+01 | 1486250204.27485 | pgbench_accounts_pkey |        224641024

 2017-02-05 00:16:45.343527+01 | 1486250205.34353 | pgbench_branches_pkey |            16384
 2017-02-05 00:16:45.343527+01 | 1486250205.34353 | pgbench_tellers_pkey  |            40960
 2017-02-05 00:16:45.343527+01 | 1486250205.34353 | pgbench_accounts_pkey |        224641024

 2017-02-05 00:16:46.414096+01 | 1486250206.4141 | pgbench_branches_pkey |            16384
 2017-02-05 00:16:46.414096+01 | 1486250206.4141 | pgbench_tellers_pkey  |            40960
 2017-02-05 00:16:46.414096+01 | 1486250206.4141 | pgbench_accounts_pkey |        224641024

 2017-02-05 00:16:47.482035+01 | 1486250207.48203 | pgbench_branches_pkey |            16384
 2017-02-05 00:16:47.482035+01 | 1486250207.48203 | pgbench_tellers_pkey  |            40960
 2017-02-05 00:16:47.482035+01 | 1486250207.48203 | pgbench_accounts_pkey |        224641024

 2017-02-05 00:16:48.552708+01 | 1486250208.55271 | pgbench_branches_pkey |            16384
 2017-02-05 00:16:48.552708+01 | 1486250208.55271 | pgbench_tellers_pkey  |            40960
 2017-02-05 00:16:48.552708+01 | 1486250208.55271 | pgbench_accounts_pkey |        224641024

 2017-02-05 00:16:49.630301+01 | 1486250209.6303 | pgbench_branches_pkey |            16384
 2017-02-05 00:16:49.630301+01 | 1486250209.6303 | pgbench_tellers_pkey  |            40960
 2017-02-05 00:16:49.630301+01 | 1486250209.6303 | pgbench_accounts_pkey |        224641024

 2017-02-05 00:16:50.699919+01 | 1486250210.69992 | pgbench_branches_pkey |            16384
 2017-02-05 00:16:50.699919+01 | 1486250210.69992 | pgbench_tellers_pkey  |            40960
 2017-02-05 00:16:50.699919+01 | 1486250210.69992 | pgbench_accounts_pkey |        224641024

 2017-02-05 00:16:51.779407+01 | 1486250211.77941 | pgbench_branches_pkey |            16384
 2017-02-05 00:16:51.779407+01 | 1486250211.77941 | pgbench_tellers_pkey  |            40960
 2017-02-05 00:16:51.779407+01 | 1486250211.77941 | pgbench_accounts_pkey |        224641024

 2017-02-05 00:16:52.855999+01 | 1486250212.856 | pgbench_branches_pkey |            16384
 2017-02-05 00:16:52.855999+01 | 1486250212.856 | pgbench_tellers_pkey  |            40960
 2017-02-05 00:16:52.855999+01 | 1486250212.856 | pgbench_accounts_pkey |        224641024

 2017-02-05 00:16:53.928136+01 | 1486250213.92814 | pgbench_branches_pkey |            16384
 2017-02-05 00:16:53.928136+01 | 1486250213.92814 | pgbench_tellers_pkey  |            40960
 2017-02-05 00:16:53.928136+01 | 1486250213.92814 | pgbench_accounts_pkey |        224641024

 2017-02-05 00:16:54.994157+01 | 1486250214.99416 | pgbench_branches_pkey |            16384
 2017-02-05 00:16:54.994157+01 | 1486250214.99416 | pgbench_tellers_pkey  |            40960
 2017-02-05 00:16:54.994157+01 | 1486250214.99416 | pgbench_accounts_pkey |        224641024

 2017-02-05 00:16:56.068114+01 | 1486250216.06811 | pgbench_branches_pkey |            16384
 2017-02-05 00:16:56.068114+01 | 1486250216.06811 | pgbench_tellers_pkey  |            40960
 2017-02-05 00:16:56.068114+01 | 1486250216.06811 | pgbench_accounts_pkey |        224641024

 2017-02-05 00:16:57.144585+01 | 1486250217.14458 | pgbench_branches_pkey |            16384
 2017-02-05 00:16:57.144585+01 | 1486250217.14458 | pgbench_tellers_pkey  |            40960
 2017-02-05 00:16:57.144585+01 | 1486250217.14458 | pgbench_accounts_pkey |        224641024

 2017-02-05 00:16:58.216362+01 | 1486250218.21636 | pgbench_branches_pkey |            16384
 2017-02-05 00:16:58.216362+01 | 1486250218.21636 | pgbench_tellers_pkey  |            40960
 2017-02-05 00:16:58.216362+01 | 1486250218.21636 | pgbench_accounts_pkey |        224641024

 2017-02-05 00:16:59.290389+01 | 1486250219.29039 | pgbench_branches_pkey |            16384
 2017-02-05 00:16:59.290389+01 | 1486250219.29039 | pgbench_tellers_pkey  |            40960
 2017-02-05 00:16:59.290389+01 | 1486250219.29039 | pgbench_accounts_pkey |        224641024

 2017-02-05 00:17:00.360836+01 | 1486250220.36084 | pgbench_branches_pkey |            16384
 2017-02-05 00:17:00.360836+01 | 1486250220.36084 | pgbench_tellers_pkey  |            40960
 2017-02-05 00:17:00.360836+01 | 1486250220.36084 | pgbench_accounts_pkey |        224641024

 2017-02-05 00:17:01.436514+01 | 1486250221.43651 | pgbench_branches_pkey |            16384
 2017-02-05 00:17:01.436514+01 | 1486250221.43651 | pgbench_tellers_pkey  |            40960
 2017-02-05 00:17:01.436514+01 | 1486250221.43651 | pgbench_accounts_pkey |        224641024

 2017-02-05 00:17:02.508078+01 | 1486250222.50808 | pgbench_branches_pkey |            16384
 2017-02-05 00:17:02.508078+01 | 1486250222.50808 | pgbench_tellers_pkey  |            40960
 2017-02-05 00:17:02.508078+01 | 1486250222.50808 | pgbench_accounts_pkey |        224641024

 2017-02-05 00:17:03.582196+01 | 1486250223.5822 | pgbench_branches_pkey |            16384
 2017-02-05 00:17:03.582196+01 | 1486250223.5822 | pgbench_tellers_pkey  |            40960
 2017-02-05 00:17:03.582196+01 | 1486250223.5822 | pgbench_accounts_pkey |        224641024

 2017-02-05 00:17:04.651295+01 | 1486250224.65129 | pgbench_branches_pkey |            16384
 2017-02-05 00:17:04.651295+01 | 1486250224.65129 | pgbench_tellers_pkey  |            40960
 2017-02-05 00:17:04.651295+01 | 1486250224.65129 | pgbench_accounts_pkey |        224641024

 2017-02-05 00:17:05.724525+01 | 1486250225.72452 | pgbench_branches_pkey |            16384
 2017-02-05 00:17:05.724525+01 | 1486250225.72452 | pgbench_tellers_pkey  |            40960
 2017-02-05 00:17:05.724525+01 | 1486250225.72452 | pgbench_accounts_pkey |        224641024

 2017-02-05 00:17:06.796474+01 | 1486250226.79647 | pgbench_branches_pkey |            16384
 2017-02-05 00:17:06.796474+01 | 1486250226.79647 | pgbench_tellers_pkey  |            40960
 2017-02-05 00:17:06.796474+01 | 1486250226.79647 | pgbench_accounts_pkey |        224641024

 2017-02-05 00:17:07.880856+01 | 1486250227.88086 | pgbench_branches_pkey |            16384
 2017-02-05 00:17:07.880856+01 | 1486250227.88086 | pgbench_tellers_pkey  |            40960
 2017-02-05 00:17:07.880856+01 | 1486250227.88086 | pgbench_accounts_pkey |        224641024

 2017-02-05 00:17:08.952068+01 | 1486250228.95207 | pgbench_branches_pkey |            16384
 2017-02-05 00:17:08.952068+01 | 1486250228.95207 | pgbench_tellers_pkey  |            40960
 2017-02-05 00:17:08.952068+01 | 1486250228.95207 | pgbench_accounts_pkey |        224641024

 2017-02-05 00:17:10.020719+01 | 1486250230.02072 | pgbench_branches_pkey |            16384
 2017-02-05 00:17:10.020719+01 | 1486250230.02072 | pgbench_tellers_pkey  |            40960
 2017-02-05 00:17:10.020719+01 | 1486250230.02072 | pgbench_accounts_pkey |        224641024

 2017-02-05 00:17:11.097579+01 | 1486250231.09758 | pgbench_branches_pkey |            16384
 2017-02-05 00:17:11.097579+01 | 1486250231.09758 | pgbench_tellers_pkey  |            40960
 2017-02-05 00:17:11.097579+01 | 1486250231.09758 | pgbench_accounts_pkey |        224641024

 2017-02-05 00:17:12.169594+01 | 1486250232.16959 | pgbench_branches_pkey |            16384
 2017-02-05 00:17:12.169594+01 | 1486250232.16959 | pgbench_tellers_pkey  |            40960
 2017-02-05 00:17:12.169594+01 | 1486250232.16959 | pgbench_accounts_pkey |        224641024

 2017-02-05 00:17:13.241484+01 | 1486250233.24148 | pgbench_branches_pkey |            16384
 2017-02-05 00:17:13.241484+01 | 1486250233.24148 | pgbench_tellers_pkey  |            40960
 2017-02-05 00:17:13.241484+01 | 1486250233.24148 | pgbench_accounts_pkey |        224641024

 2017-02-05 00:17:14.315221+01 | 1486250234.31522 | pgbench_branches_pkey |            16384
 2017-02-05 00:17:14.315221+01 | 1486250234.31522 | pgbench_tellers_pkey  |            40960
 2017-02-05 00:17:14.315221+01 | 1486250234.31522 | pgbench_accounts_pkey |        224641024

 2017-02-05 00:17:15.387825+01 | 1486250235.38783 | pgbench_branches_pkey |            16384
 2017-02-05 00:17:15.387825+01 | 1486250235.38783 | pgbench_tellers_pkey  |            40960
 2017-02-05 00:17:15.387825+01 | 1486250235.38783 | pgbench_accounts_pkey |        224641024

 2017-02-05 00:17:16.459547+01 | 1486250236.45955 | pgbench_branches_pkey |            16384
 2017-02-05 00:17:16.459547+01 | 1486250236.45955 | pgbench_tellers_pkey  |            40960
 2017-02-05 00:17:16.459547+01 | 1486250236.45955 | pgbench_accounts_pkey |        224641024

 2017-02-05 00:17:17.533105+01 | 1486250237.5331 | pgbench_branches_pkey |            16384
 2017-02-05 00:17:17.533105+01 | 1486250237.5331 | pgbench_tellers_pkey  |            40960
 2017-02-05 00:17:17.533105+01 | 1486250237.5331 | pgbench_accounts_pkey |        224641024

 2017-02-05 00:17:18.608676+01 | 1486250238.60868 | pgbench_branches_pkey |            16384
 2017-02-05 00:17:18.608676+01 | 1486250238.60868 | pgbench_tellers_pkey  |            40960
 2017-02-05 00:17:18.608676+01 | 1486250238.60868 | pgbench_accounts_pkey |        224641024

 2017-02-05 00:17:19.707082+01 | 1486250239.70708 | pgbench_branches_pkey |            16384
 2017-02-05 00:17:19.707082+01 | 1486250239.70708 | pgbench_tellers_pkey  |            40960
 2017-02-05 00:17:19.707082+01 | 1486250239.70708 | pgbench_accounts_pkey |        224641024

 2017-02-05 00:17:20.790688+01 | 1486250240.79069 | pgbench_branches_pkey |            16384
 2017-02-05 00:17:20.790688+01 | 1486250240.79069 | pgbench_tellers_pkey  |            40960
 2017-02-05 00:17:20.790688+01 | 1486250240.79069 | pgbench_accounts_pkey |        224641024

 2017-02-05 00:17:21.865468+01 | 1486250241.86547 | pgbench_branches_pkey |            16384
 2017-02-05 00:17:21.865468+01 | 1486250241.86547 | pgbench_tellers_pkey  |            40960
 2017-02-05 00:17:21.865468+01 | 1486250241.86547 | pgbench_accounts_pkey |        224641024

 2017-02-05 00:17:22.936612+01 | 1486250242.93661 | pgbench_branches_pkey |            16384
 2017-02-05 00:17:22.936612+01 | 1486250242.93661 | pgbench_tellers_pkey  |            40960
 2017-02-05 00:17:22.936612+01 | 1486250242.93661 | pgbench_accounts_pkey |        224641024

 2017-02-05 00:17:24.009224+01 | 1486250244.00922 | pgbench_branches_pkey |            16384
 2017-02-05 00:17:24.009224+01 | 1486250244.00922 | pgbench_tellers_pkey  |            40960
 2017-02-05 00:17:24.009224+01 | 1486250244.00922 | pgbench_accounts_pkey |        224641024

 2017-02-05 00:17:25.081147+01 | 1486250245.08115 | pgbench_branches_pkey |            16384
 2017-02-05 00:17:25.081147+01 | 1486250245.08115 | pgbench_tellers_pkey  |            40960
 2017-02-05 00:17:25.081147+01 | 1486250245.08115 | pgbench_accounts_pkey |        224641024

 2017-02-05 00:17:26.155833+01 | 1486250246.15583 | pgbench_branches_pkey |            16384
 2017-02-05 00:17:26.155833+01 | 1486250246.15583 | pgbench_tellers_pkey  |            40960
 2017-02-05 00:17:26.155833+01 | 1486250246.15583 | pgbench_accounts_pkey |        224641024

 2017-02-05 00:17:27.233213+01 | 1486250247.23321 | pgbench_branches_pkey |            16384
 2017-02-05 00:17:27.233213+01 | 1486250247.23321 | pgbench_tellers_pkey  |            40960
 2017-02-05 00:17:27.233213+01 | 1486250247.23321 | pgbench_accounts_pkey |        224641024

 2017-02-05 00:17:28.313357+01 | 1486250248.31336 | pgbench_branches_pkey |            16384
 2017-02-05 00:17:28.313357+01 | 1486250248.31336 | pgbench_tellers_pkey  |            40960
 2017-02-05 00:17:28.313357+01 | 1486250248.31336 | pgbench_accounts_pkey |        224641024

 2017-02-05 00:17:29.386669+01 | 1486250249.38667 | pgbench_branches_pkey |            16384
 2017-02-05 00:17:29.386669+01 | 1486250249.38667 | pgbench_tellers_pkey  |            40960
 2017-02-05 00:17:29.386669+01 | 1486250249.38667 | pgbench_accounts_pkey |        224641024

 2017-02-05 00:17:30.462712+01 | 1486250250.46271 | pgbench_branches_pkey |            16384
 2017-02-05 00:17:30.462712+01 | 1486250250.46271 | pgbench_tellers_pkey  |            40960
 2017-02-05 00:17:30.462712+01 | 1486250250.46271 | pgbench_accounts_pkey |        224641024

 2017-02-05 00:17:31.536972+01 | 1486250251.53697 | pgbench_branches_pkey |            16384
 2017-02-05 00:17:31.536972+01 | 1486250251.53697 | pgbench_tellers_pkey  |            40960
 2017-02-05 00:17:31.536972+01 | 1486250251.53697 | pgbench_accounts_pkey |        224641024

 2017-02-05 00:17:32.605103+01 | 1486250252.6051 | pgbench_branches_pkey |            16384
 2017-02-05 00:17:32.605103+01 | 1486250252.6051 | pgbench_tellers_pkey  |            40960
 2017-02-05 00:17:32.605103+01 | 1486250252.6051 | pgbench_accounts_pkey |        224641024

 2017-02-05 00:17:33.677995+01 | 1486250253.67799 | pgbench_branches_pkey |            16384
 2017-02-05 00:17:33.677995+01 | 1486250253.67799 | pgbench_tellers_pkey  |            40960
 2017-02-05 00:17:33.677995+01 | 1486250253.67799 | pgbench_accounts_pkey |        224641024

 2017-02-05 00:17:34.750614+01 | 1486250254.75061 | pgbench_branches_pkey |            16384
 2017-02-05 00:17:34.750614+01 | 1486250254.75061 | pgbench_tellers_pkey  |            40960
 2017-02-05 00:17:34.750614+01 | 1486250254.75061 | pgbench_accounts_pkey |        224641024

 2017-02-05 00:17:35.840647+01 | 1486250255.84065 | pgbench_branches_pkey |            16384
 2017-02-05 00:17:35.840647+01 | 1486250255.84065 | pgbench_tellers_pkey  |            40960
 2017-02-05 00:17:35.840647+01 | 1486250255.84065 | pgbench_accounts_pkey |        224641024

 2017-02-05 00:17:36.915783+01 | 1486250256.91578 | pgbench_branches_pkey |            16384
 2017-02-05 00:17:36.915783+01 | 1486250256.91578 | pgbench_tellers_pkey  |            40960
 2017-02-05 00:17:36.915783+01 | 1486250256.91578 | pgbench_accounts_pkey |        224641024

 2017-02-05 00:17:37.993064+01 | 1486250257.99306 | pgbench_branches_pkey |            16384
 2017-02-05 00:17:37.993064+01 | 1486250257.99306 | pgbench_tellers_pkey  |            40960
 2017-02-05 00:17:37.993064+01 | 1486250257.99306 | pgbench_accounts_pkey |        224641024

 2017-02-05 00:17:39.070545+01 | 1486250259.07054 | pgbench_branches_pkey |            16384
 2017-02-05 00:17:39.070545+01 | 1486250259.07054 | pgbench_tellers_pkey  |            40960
 2017-02-05 00:17:39.070545+01 | 1486250259.07054 | pgbench_accounts_pkey |        224641024

 2017-02-05 00:17:40.144602+01 | 1486250260.1446 | pgbench_branches_pkey |            16384
 2017-02-05 00:17:40.144602+01 | 1486250260.1446 | pgbench_tellers_pkey  |            40960
 2017-02-05 00:17:40.144602+01 | 1486250260.1446 | pgbench_accounts_pkey |        224641024

 2017-02-05 00:17:41.217443+01 | 1486250261.21744 | pgbench_branches_pkey |            16384
 2017-02-05 00:17:41.217443+01 | 1486250261.21744 | pgbench_tellers_pkey  |            40960
 2017-02-05 00:17:41.217443+01 | 1486250261.21744 | pgbench_accounts_pkey |        224641024

 2017-02-05 00:17:42.292124+01 | 1486250262.29212 | pgbench_branches_pkey |            16384
 2017-02-05 00:17:42.292124+01 | 1486250262.29212 | pgbench_tellers_pkey  |            40960
 2017-02-05 00:17:42.292124+01 | 1486250262.29212 | pgbench_accounts_pkey |        224641024

 2017-02-05 00:17:43.363959+01 | 1486250263.36396 | pgbench_branches_pkey |            16384
 2017-02-05 00:17:43.363959+01 | 1486250263.36396 | pgbench_tellers_pkey  |            40960
 2017-02-05 00:17:43.363959+01 | 1486250263.36396 | pgbench_accounts_pkey |        224641024

 2017-02-05 00:17:44.439792+01 | 1486250264.43979 | pgbench_branches_pkey |            16384
 2017-02-05 00:17:44.439792+01 | 1486250264.43979 | pgbench_tellers_pkey  |            40960
 2017-02-05 00:17:44.439792+01 | 1486250264.43979 | pgbench_accounts_pkey |        224641024

 2017-02-05 00:17:45.515513+01 | 1486250265.51551 | pgbench_branches_pkey |            16384
 2017-02-05 00:17:45.515513+01 | 1486250265.51551 | pgbench_tellers_pkey  |            40960
 2017-02-05 00:17:45.515513+01 | 1486250265.51551 | pgbench_accounts_pkey |        224641024

 2017-02-05 00:17:46.593163+01 | 1486250266.59316 | pgbench_branches_pkey |            16384
 2017-02-05 00:17:46.593163+01 | 1486250266.59316 | pgbench_tellers_pkey  |            40960
 2017-02-05 00:17:46.593163+01 | 1486250266.59316 | pgbench_accounts_pkey |        224641024

 2017-02-05 00:17:47.673034+01 | 1486250267.67303 | pgbench_branches_pkey |            16384
 2017-02-05 00:17:47.673034+01 | 1486250267.67303 | pgbench_tellers_pkey  |            40960
 2017-02-05 00:17:47.673034+01 | 1486250267.67303 | pgbench_accounts_pkey |        224641024

 2017-02-05 00:17:48.749492+01 | 1486250268.74949 | pgbench_branches_pkey |            16384
 2017-02-05 00:17:48.749492+01 | 1486250268.74949 | pgbench_tellers_pkey  |            40960
 2017-02-05 00:17:48.749492+01 | 1486250268.74949 | pgbench_accounts_pkey |        224641024

 2017-02-05 00:17:49.820762+01 | 1486250269.82076 | pgbench_branches_pkey |            16384
 2017-02-05 00:17:49.820762+01 | 1486250269.82076 | pgbench_tellers_pkey  |            40960
 2017-02-05 00:17:49.820762+01 | 1486250269.82076 | pgbench_accounts_pkey |        224641024

 2017-02-05 00:17:50.894975+01 | 1486250270.89497 | pgbench_branches_pkey |            16384
 2017-02-05 00:17:50.894975+01 | 1486250270.89497 | pgbench_tellers_pkey  |            40960
 2017-02-05 00:17:50.894975+01 | 1486250270.89497 | pgbench_accounts_pkey |        224641024

 2017-02-05 00:17:51.954148+01 | 1486250271.95415 | pgbench_branches_pkey |            16384
 2017-02-05 00:17:51.954148+01 | 1486250271.95415 | pgbench_tellers_pkey  |            40960
 2017-02-05 00:17:51.954148+01 | 1486250271.95415 | pgbench_accounts_pkey |        224641024

 2017-02-05 00:17:53.030965+01 | 1486250273.03097 | pgbench_branches_pkey |            16384
 2017-02-05 00:17:53.030965+01 | 1486250273.03097 | pgbench_tellers_pkey  |            40960
 2017-02-05 00:17:53.030965+01 | 1486250273.03097 | pgbench_accounts_pkey |        224641024

 2017-02-05 00:17:54.115757+01 | 1486250274.11576 | pgbench_branches_pkey |            16384
 2017-02-05 00:17:54.115757+01 | 1486250274.11576 | pgbench_tellers_pkey  |            40960
 2017-02-05 00:17:54.115757+01 | 1486250274.11576 | pgbench_accounts_pkey |        224641024

 2017-02-05 00:17:55.199528+01 | 1486250275.19953 | pgbench_branches_pkey |            16384
 2017-02-05 00:17:55.199528+01 | 1486250275.19953 | pgbench_tellers_pkey  |            40960
 2017-02-05 00:17:55.199528+01 | 1486250275.19953 | pgbench_accounts_pkey |        224641024

 2017-02-05 00:17:56.274544+01 | 1486250276.27454 | pgbench_branches_pkey |            16384
 2017-02-05 00:17:56.274544+01 | 1486250276.27454 | pgbench_tellers_pkey  |            40960
 2017-02-05 00:17:56.274544+01 | 1486250276.27454 | pgbench_accounts_pkey |        224641024

 2017-02-05 00:17:57.346874+01 | 1486250277.34687 | pgbench_branches_pkey |            16384
 2017-02-05 00:17:57.346874+01 | 1486250277.34687 | pgbench_tellers_pkey  |            40960
 2017-02-05 00:17:57.346874+01 | 1486250277.34687 | pgbench_accounts_pkey |        224641024

 2017-02-05 00:17:58.419089+01 | 1486250278.41909 | pgbench_branches_pkey |            16384
 2017-02-05 00:17:58.419089+01 | 1486250278.41909 | pgbench_tellers_pkey  |            40960
 2017-02-05 00:17:58.419089+01 | 1486250278.41909 | pgbench_accounts_pkey |        224641024

 2017-02-05 00:17:59.486622+01 | 1486250279.48662 | pgbench_branches_pkey |            16384
 2017-02-05 00:17:59.486622+01 | 1486250279.48662 | pgbench_tellers_pkey  |            40960
 2017-02-05 00:17:59.486622+01 | 1486250279.48662 | pgbench_accounts_pkey |        224641024

 2017-02-05 00:18:00.569368+01 | 1486250280.56937 | pgbench_branches_pkey |            16384
 2017-02-05 00:18:00.569368+01 | 1486250280.56937 | pgbench_tellers_pkey  |            40960
 2017-02-05 00:18:00.569368+01 | 1486250280.56937 | pgbench_accounts_pkey |        224641024

 2017-02-05 00:18:01.638542+01 | 1486250281.63854 | pgbench_branches_pkey |            16384
 2017-02-05 00:18:01.638542+01 | 1486250281.63854 | pgbench_tellers_pkey  |            40960
 2017-02-05 00:18:01.638542+01 | 1486250281.63854 | pgbench_accounts_pkey |        224641024

 2017-02-05 00:18:02.707543+01 | 1486250282.70754 | pgbench_branches_pkey |            16384
 2017-02-05 00:18:02.707543+01 | 1486250282.70754 | pgbench_tellers_pkey  |            40960
 2017-02-05 00:18:02.707543+01 | 1486250282.70754 | pgbench_accounts_pkey |        224641024

 2017-02-05 00:18:03.782604+01 | 1486250283.7826 | pgbench_branches_pkey |            16384
 2017-02-05 00:18:03.782604+01 | 1486250283.7826 | pgbench_tellers_pkey  |            40960
 2017-02-05 00:18:03.782604+01 | 1486250283.7826 | pgbench_accounts_pkey |        224641024

 2017-02-05 00:18:04.861524+01 | 1486250284.86152 | pgbench_branches_pkey |            16384
 2017-02-05 00:18:04.861524+01 | 1486250284.86152 | pgbench_tellers_pkey  |            40960
 2017-02-05 00:18:04.861524+01 | 1486250284.86152 | pgbench_accounts_pkey |        224641024

 2017-02-05 00:18:05.938641+01 | 1486250285.93864 | pgbench_branches_pkey |            16384
 2017-02-05 00:18:05.938641+01 | 1486250285.93864 | pgbench_tellers_pkey  |            40960
 2017-02-05 00:18:05.938641+01 | 1486250285.93864 | pgbench_accounts_pkey |        224641024

 2017-02-05 00:18:07.012567+01 | 1486250287.01257 | pgbench_branches_pkey |            16384
 2017-02-05 00:18:07.012567+01 | 1486250287.01257 | pgbench_tellers_pkey  |            40960
 2017-02-05 00:18:07.012567+01 | 1486250287.01257 | pgbench_accounts_pkey |        224641024

 2017-02-05 00:18:08.088089+01 | 1486250288.08809 | pgbench_branches_pkey |            16384
 2017-02-05 00:18:08.088089+01 | 1486250288.08809 | pgbench_tellers_pkey  |            40960
 2017-02-05 00:18:08.088089+01 | 1486250288.08809 | pgbench_accounts_pkey |        224641024

 2017-02-05 00:18:09.161496+01 | 1486250289.1615 | pgbench_branches_pkey |            16384
 2017-02-05 00:18:09.161496+01 | 1486250289.1615 | pgbench_tellers_pkey  |            40960
 2017-02-05 00:18:09.161496+01 | 1486250289.1615 | pgbench_accounts_pkey |        224641024

 2017-02-05 00:18:10.239041+01 | 1486250290.23904 | pgbench_branches_pkey |            16384
 2017-02-05 00:18:10.239041+01 | 1486250290.23904 | pgbench_tellers_pkey  |            40960
 2017-02-05 00:18:10.239041+01 | 1486250290.23904 | pgbench_accounts_pkey |        224641024

 2017-02-05 00:18:11.312572+01 | 1486250291.31257 | pgbench_branches_pkey |            16384
 2017-02-05 00:18:11.312572+01 | 1486250291.31257 | pgbench_tellers_pkey  |            40960
 2017-02-05 00:18:11.312572+01 | 1486250291.31257 | pgbench_accounts_pkey |        224641024

 2017-02-05 00:18:12.391374+01 | 1486250292.39137 | pgbench_branches_pkey |            16384
 2017-02-05 00:18:12.391374+01 | 1486250292.39137 | pgbench_tellers_pkey  |            40960
 2017-02-05 00:18:12.391374+01 | 1486250292.39137 | pgbench_accounts_pkey |        224641024

 2017-02-05 00:18:13.463175+01 | 1486250293.46318 | pgbench_branches_pkey |            16384
 2017-02-05 00:18:13.463175+01 | 1486250293.46318 | pgbench_tellers_pkey  |            40960
 2017-02-05 00:18:13.463175+01 | 1486250293.46318 | pgbench_accounts_pkey |        224641024

 2017-02-05 00:18:14.534037+01 | 1486250294.53404 | pgbench_branches_pkey |            16384
 2017-02-05 00:18:14.534037+01 | 1486250294.53404 | pgbench_tellers_pkey  |            40960
 2017-02-05 00:18:14.534037+01 | 1486250294.53404 | pgbench_accounts_pkey |        224641024

 2017-02-05 00:18:15.604866+01 | 1486250295.60487 | pgbench_branches_pkey |            16384
 2017-02-05 00:18:15.604866+01 | 1486250295.60487 | pgbench_tellers_pkey  |            40960
 2017-02-05 00:18:15.604866+01 | 1486250295.60487 | pgbench_accounts_pkey |        224641024

 2017-02-05 00:18:16.684528+01 | 1486250296.68453 | pgbench_branches_pkey |            16384
 2017-02-05 00:18:16.684528+01 | 1486250296.68453 | pgbench_tellers_pkey  |            40960
 2017-02-05 00:18:16.684528+01 | 1486250296.68453 | pgbench_accounts_pkey |        224641024

 2017-02-05 00:18:17.757691+01 | 1486250297.75769 | pgbench_branches_pkey |            16384
 2017-02-05 00:18:17.757691+01 | 1486250297.75769 | pgbench_tellers_pkey  |            40960
 2017-02-05 00:18:17.757691+01 | 1486250297.75769 | pgbench_accounts_pkey |        224641024

 2017-02-05 00:18:18.835822+01 | 1486250298.83582 | pgbench_branches_pkey |            16384
 2017-02-05 00:18:18.835822+01 | 1486250298.83582 | pgbench_tellers_pkey  |            40960
 2017-02-05 00:18:18.835822+01 | 1486250298.83582 | pgbench_accounts_pkey |        224641024

 2017-02-05 00:18:19.912598+01 | 1486250299.9126 | pgbench_branches_pkey |            16384
 2017-02-05 00:18:19.912598+01 | 1486250299.9126 | pgbench_tellers_pkey  |            40960
 2017-02-05 00:18:19.912598+01 | 1486250299.9126 | pgbench_accounts_pkey |        224641024

 2017-02-05 00:18:20.989214+01 | 1486250300.98921 | pgbench_branches_pkey |            16384
 2017-02-05 00:18:20.989214+01 | 1486250300.98921 | pgbench_tellers_pkey  |            40960
 2017-02-05 00:18:20.989214+01 | 1486250300.98921 | pgbench_accounts_pkey |        224641024

 2017-02-05 00:18:22.063042+01 | 1486250302.06304 | pgbench_branches_pkey |            16384
 2017-02-05 00:18:22.063042+01 | 1486250302.06304 | pgbench_tellers_pkey  |            40960
 2017-02-05 00:18:22.063042+01 | 1486250302.06304 | pgbench_accounts_pkey |        224641024

 2017-02-05 00:18:23.138196+01 | 1486250303.1382 | pgbench_branches_pkey |            16384
 2017-02-05 00:18:23.138196+01 | 1486250303.1382 | pgbench_tellers_pkey  |            40960
 2017-02-05 00:18:23.138196+01 | 1486250303.1382 | pgbench_accounts_pkey |        224641024

 2017-02-05 00:18:24.215496+01 | 1486250304.2155 | pgbench_branches_pkey |            16384
 2017-02-05 00:18:24.215496+01 | 1486250304.2155 | pgbench_tellers_pkey  |            40960
 2017-02-05 00:18:24.215496+01 | 1486250304.2155 | pgbench_accounts_pkey |        224641024

 2017-02-05 00:18:25.291816+01 | 1486250305.29182 | pgbench_branches_pkey |            16384
 2017-02-05 00:18:25.291816+01 | 1486250305.29182 | pgbench_tellers_pkey  |            40960
 2017-02-05 00:18:25.291816+01 | 1486250305.29182 | pgbench_accounts_pkey |        224641024

 2017-02-05 00:18:26.37288+01 | 1486250306.37288 | pgbench_branches_pkey |            16384
 2017-02-05 00:18:26.37288+01 | 1486250306.37288 | pgbench_tellers_pkey  |            40960
 2017-02-05 00:18:26.37288+01 | 1486250306.37288 | pgbench_accounts_pkey |        224641024

 2017-02-05 00:18:27.449766+01 | 1486250307.44977 | pgbench_branches_pkey |            16384
 2017-02-05 00:18:27.449766+01 | 1486250307.44977 | pgbench_tellers_pkey  |            40960
 2017-02-05 00:18:27.449766+01 | 1486250307.44977 | pgbench_accounts_pkey |        224641024

 2017-02-05 00:18:28.52375+01 | 1486250308.52375 | pgbench_branches_pkey |            16384
 2017-02-05 00:18:28.52375+01 | 1486250308.52375 | pgbench_tellers_pkey  |            40960
 2017-02-05 00:18:28.52375+01 | 1486250308.52375 | pgbench_accounts_pkey |        224641024

 2017-02-05 00:18:29.600221+01 | 1486250309.60022 | pgbench_branches_pkey |            16384
 2017-02-05 00:18:29.600221+01 | 1486250309.60022 | pgbench_tellers_pkey  |            40960
 2017-02-05 00:18:29.600221+01 | 1486250309.60022 | pgbench_accounts_pkey |        224641024

 2017-02-05 00:18:30.672949+01 | 1486250310.67295 | pgbench_branches_pkey |            16384
 2017-02-05 00:18:30.672949+01 | 1486250310.67295 | pgbench_tellers_pkey  |            40960
 2017-02-05 00:18:30.672949+01 | 1486250310.67295 | pgbench_accounts_pkey |        224641024

 2017-02-05 00:18:31.748662+01 | 1486250311.74866 | pgbench_branches_pkey |            16384
 2017-02-05 00:18:31.748662+01 | 1486250311.74866 | pgbench_tellers_pkey  |            40960
 2017-02-05 00:18:31.748662+01 | 1486250311.74866 | pgbench_accounts_pkey |        224641024

 2017-02-05 00:18:32.821922+01 | 1486250312.82192 | pgbench_branches_pkey |            16384
 2017-02-05 00:18:32.821922+01 | 1486250312.82192 | pgbench_tellers_pkey  |            40960
 2017-02-05 00:18:32.821922+01 | 1486250312.82192 | pgbench_accounts_pkey |        224641024

 2017-02-05 00:18:33.89785+01 | 1486250313.89785 | pgbench_branches_pkey |            16384
 2017-02-05 00:18:33.89785+01 | 1486250313.89785 | pgbench_tellers_pkey  |            40960
 2017-02-05 00:18:33.89785+01 | 1486250313.89785 | pgbench_accounts_pkey |        224641024

 2017-02-05 00:18:34.975874+01 | 1486250314.97587 | pgbench_branches_pkey |            16384
 2017-02-05 00:18:34.975874+01 | 1486250314.97587 | pgbench_tellers_pkey  |            40960
 2017-02-05 00:18:34.975874+01 | 1486250314.97587 | pgbench_accounts_pkey |        224641024

 2017-02-05 00:18:36.049615+01 | 1486250316.04961 | pgbench_branches_pkey |            16384
 2017-02-05 00:18:36.049615+01 | 1486250316.04961 | pgbench_tellers_pkey  |            40960
 2017-02-05 00:18:36.049615+01 | 1486250316.04961 | pgbench_accounts_pkey |        224641024

 2017-02-05 00:18:37.125167+01 | 1486250317.12517 | pgbench_branches_pkey |            16384
 2017-02-05 00:18:37.125167+01 | 1486250317.12517 | pgbench_tellers_pkey  |            40960
 2017-02-05 00:18:37.125167+01 | 1486250317.12517 | pgbench_accounts_pkey |        224641024

 2017-02-05 00:18:38.194056+01 | 1486250318.19406 | pgbench_branches_pkey |            16384
 2017-02-05 00:18:38.194056+01 | 1486250318.19406 | pgbench_tellers_pkey  |            40960
 2017-02-05 00:18:38.194056+01 | 1486250318.19406 | pgbench_accounts_pkey |        224641024

 2017-02-05 00:18:39.270561+01 | 1486250319.27056 | pgbench_branches_pkey |            16384
 2017-02-05 00:18:39.270561+01 | 1486250319.27056 | pgbench_tellers_pkey  |            40960
 2017-02-05 00:18:39.270561+01 | 1486250319.27056 | pgbench_accounts_pkey |        224641024

 2017-02-05 00:18:40.345214+01 | 1486250320.34521 | pgbench_branches_pkey |            16384
 2017-02-05 00:18:40.345214+01 | 1486250320.34521 | pgbench_tellers_pkey  |            40960
 2017-02-05 00:18:40.345214+01 | 1486250320.34521 | pgbench_accounts_pkey |        224641024

 2017-02-05 00:18:41.421748+01 | 1486250321.42175 | pgbench_branches_pkey |            16384
 2017-02-05 00:18:41.421748+01 | 1486250321.42175 | pgbench_tellers_pkey  |            40960
 2017-02-05 00:18:41.421748+01 | 1486250321.42175 | pgbench_accounts_pkey |        224641024

 2017-02-05 00:18:42.492123+01 | 1486250322.49212 | pgbench_branches_pkey |            16384
 2017-02-05 00:18:42.492123+01 | 1486250322.49212 | pgbench_tellers_pkey  |            40960
 2017-02-05 00:18:42.492123+01 | 1486250322.49212 | pgbench_accounts_pkey |        224641024

 2017-02-05 00:18:43.575081+01 | 1486250323.57508 | pgbench_branches_pkey |            16384
 2017-02-05 00:18:43.575081+01 | 1486250323.57508 | pgbench_tellers_pkey  |            40960
 2017-02-05 00:18:43.575081+01 | 1486250323.57508 | pgbench_accounts_pkey |        224641024

 2017-02-05 00:18:44.651462+01 | 1486250324.65146 | pgbench_branches_pkey |            16384
 2017-02-05 00:18:44.651462+01 | 1486250324.65146 | pgbench_tellers_pkey  |            40960
 2017-02-05 00:18:44.651462+01 | 1486250324.65146 | pgbench_accounts_pkey |        224641024

 2017-02-05 00:18:45.725434+01 | 1486250325.72543 | pgbench_branches_pkey |            16384
 2017-02-05 00:18:45.725434+01 | 1486250325.72543 | pgbench_tellers_pkey  |            40960
 2017-02-05 00:18:45.725434+01 | 1486250325.72543 | pgbench_accounts_pkey |        224641024

 2017-02-05 00:18:46.794305+01 | 1486250326.79431 | pgbench_branches_pkey |            16384
 2017-02-05 00:18:46.794305+01 | 1486250326.79431 | pgbench_tellers_pkey  |            40960
 2017-02-05 00:18:46.794305+01 | 1486250326.79431 | pgbench_accounts_pkey |        224641024

 2017-02-05 00:18:47.864952+01 | 1486250327.86495 | pgbench_branches_pkey |            16384
 2017-02-05 00:18:47.864952+01 | 1486250327.86495 | pgbench_tellers_pkey  |            40960
 2017-02-05 00:18:47.864952+01 | 1486250327.86495 | pgbench_accounts_pkey |        224641024

 2017-02-05 00:18:48.944273+01 | 1486250328.94427 | pgbench_branches_pkey |            16384
 2017-02-05 00:18:48.944273+01 | 1486250328.94427 | pgbench_tellers_pkey  |            40960
 2017-02-05 00:18:48.944273+01 | 1486250328.94427 | pgbench_accounts_pkey |        224641024

 2017-02-05 00:18:50.021851+01 | 1486250330.02185 | pgbench_branches_pkey |            16384
 2017-02-05 00:18:50.021851+01 | 1486250330.02185 | pgbench_tellers_pkey  |            40960
 2017-02-05 00:18:50.021851+01 | 1486250330.02185 | pgbench_accounts_pkey |        224641024

 2017-02-05 00:18:51.100233+01 | 1486250331.10023 | pgbench_branches_pkey |            16384
 2017-02-05 00:18:51.100233+01 | 1486250331.10023 | pgbench_tellers_pkey  |            40960
 2017-02-05 00:18:51.100233+01 | 1486250331.10023 | pgbench_accounts_pkey |        224641024

 2017-02-05 00:18:52.161453+01 | 1486250332.16145 | pgbench_branches_pkey |            16384
 2017-02-05 00:18:52.161453+01 | 1486250332.16145 | pgbench_tellers_pkey  |            40960
 2017-02-05 00:18:52.161453+01 | 1486250332.16145 | pgbench_accounts_pkey |        224641024

 2017-02-05 00:18:53.239169+01 | 1486250333.23917 | pgbench_branches_pkey |            16384
 2017-02-05 00:18:53.239169+01 | 1486250333.23917 | pgbench_tellers_pkey  |            40960
 2017-02-05 00:18:53.239169+01 | 1486250333.23917 | pgbench_accounts_pkey |        224641024

 2017-02-05 00:18:54.306156+01 | 1486250334.30616 | pgbench_branches_pkey |            16384
 2017-02-05 00:18:54.306156+01 | 1486250334.30616 | pgbench_tellers_pkey  |            40960
 2017-02-05 00:18:54.306156+01 | 1486250334.30616 | pgbench_accounts_pkey |        224641024

 2017-02-05 00:18:55.382553+01 | 1486250335.38255 | pgbench_branches_pkey |            16384
 2017-02-05 00:18:55.382553+01 | 1486250335.38255 | pgbench_tellers_pkey  |            40960
 2017-02-05 00:18:55.382553+01 | 1486250335.38255 | pgbench_accounts_pkey |        224641024

 2017-02-05 00:18:56.456542+01 | 1486250336.45654 | pgbench_branches_pkey |            16384
 2017-02-05 00:18:56.456542+01 | 1486250336.45654 | pgbench_tellers_pkey  |            40960
 2017-02-05 00:18:56.456542+01 | 1486250336.45654 | pgbench_accounts_pkey |        224641024

 2017-02-05 00:18:57.530901+01 | 1486250337.5309 | pgbench_branches_pkey |            16384
 2017-02-05 00:18:57.530901+01 | 1486250337.5309 | pgbench_tellers_pkey  |            40960
 2017-02-05 00:18:57.530901+01 | 1486250337.5309 | pgbench_accounts_pkey |        224641024

 2017-02-05 00:18:58.610169+01 | 1486250338.61017 | pgbench_branches_pkey |            16384
 2017-02-05 00:18:58.610169+01 | 1486250338.61017 | pgbench_tellers_pkey  |            40960
 2017-02-05 00:18:58.610169+01 | 1486250338.61017 | pgbench_accounts_pkey |        224641024

 2017-02-05 00:18:59.682092+01 | 1486250339.68209 | pgbench_branches_pkey |            16384
 2017-02-05 00:18:59.682092+01 | 1486250339.68209 | pgbench_tellers_pkey  |            40960
 2017-02-05 00:18:59.682092+01 | 1486250339.68209 | pgbench_accounts_pkey |        224641024

 2017-02-05 00:19:00.757311+01 | 1486250340.75731 | pgbench_branches_pkey |            16384
 2017-02-05 00:19:00.757311+01 | 1486250340.75731 | pgbench_tellers_pkey  |            40960
 2017-02-05 00:19:00.757311+01 | 1486250340.75731 | pgbench_accounts_pkey |        224641024

 2017-02-05 00:19:01.831414+01 | 1486250341.83141 | pgbench_branches_pkey |            16384
 2017-02-05 00:19:01.831414+01 | 1486250341.83141 | pgbench_tellers_pkey  |            40960
 2017-02-05 00:19:01.831414+01 | 1486250341.83141 | pgbench_accounts_pkey |        224641024

 2017-02-05 00:19:02.909669+01 | 1486250342.90967 | pgbench_branches_pkey |            16384
 2017-02-05 00:19:02.909669+01 | 1486250342.90967 | pgbench_tellers_pkey  |            40960
 2017-02-05 00:19:02.909669+01 | 1486250342.90967 | pgbench_accounts_pkey |        224641024

 2017-02-05 00:19:03.986488+01 | 1486250343.98649 | pgbench_branches_pkey |            16384
 2017-02-05 00:19:03.986488+01 | 1486250343.98649 | pgbench_tellers_pkey  |            40960
 2017-02-05 00:19:03.986488+01 | 1486250343.98649 | pgbench_accounts_pkey |        224641024

 2017-02-05 00:19:05.061785+01 | 1486250345.06178 | pgbench_branches_pkey |            16384
 2017-02-05 00:19:05.061785+01 | 1486250345.06178 | pgbench_tellers_pkey  |            40960
 2017-02-05 00:19:05.061785+01 | 1486250345.06178 | pgbench_accounts_pkey |        224641024

 2017-02-05 00:19:06.131672+01 | 1486250346.13167 | pgbench_branches_pkey |            16384
 2017-02-05 00:19:06.131672+01 | 1486250346.13167 | pgbench_tellers_pkey  |            40960
 2017-02-05 00:19:06.131672+01 | 1486250346.13167 | pgbench_accounts_pkey |        224641024

 2017-02-05 00:19:07.202391+01 | 1486250347.20239 | pgbench_branches_pkey |            16384
 2017-02-05 00:19:07.202391+01 | 1486250347.20239 | pgbench_tellers_pkey  |            40960
 2017-02-05 00:19:07.202391+01 | 1486250347.20239 | pgbench_accounts_pkey |        224641024

 2017-02-05 00:19:08.276016+01 | 1486250348.27602 | pgbench_branches_pkey |            16384
 2017-02-05 00:19:08.276016+01 | 1486250348.27602 | pgbench_tellers_pkey  |            40960
 2017-02-05 00:19:08.276016+01 | 1486250348.27602 | pgbench_accounts_pkey |        224641024

 2017-02-05 00:19:09.347835+01 | 1486250349.34784 | pgbench_branches_pkey |            16384
 2017-02-05 00:19:09.347835+01 | 1486250349.34784 | pgbench_tellers_pkey  |            40960
 2017-02-05 00:19:09.347835+01 | 1486250349.34784 | pgbench_accounts_pkey |        224641024

 2017-02-05 00:19:10.417331+01 | 1486250350.41733 | pgbench_branches_pkey |            16384
 2017-02-05 00:19:10.417331+01 | 1486250350.41733 | pgbench_tellers_pkey  |            40960
 2017-02-05 00:19:10.417331+01 | 1486250350.41733 | pgbench_accounts_pkey |        224641024

 2017-02-05 00:19:11.492616+01 | 1486250351.49262 | pgbench_branches_pkey |            16384
 2017-02-05 00:19:11.492616+01 | 1486250351.49262 | pgbench_tellers_pkey  |            40960
 2017-02-05 00:19:11.492616+01 | 1486250351.49262 | pgbench_accounts_pkey |        224641024

 2017-02-05 00:19:12.567394+01 | 1486250352.56739 | pgbench_branches_pkey |            16384
 2017-02-05 00:19:12.567394+01 | 1486250352.56739 | pgbench_tellers_pkey  |            40960
 2017-02-05 00:19:12.567394+01 | 1486250352.56739 | pgbench_accounts_pkey |        224641024

 2017-02-05 00:19:13.648083+01 | 1486250353.64808 | pgbench_branches_pkey |            16384
 2017-02-05 00:19:13.648083+01 | 1486250353.64808 | pgbench_tellers_pkey  |            40960
 2017-02-05 00:19:13.648083+01 | 1486250353.64808 | pgbench_accounts_pkey |        224641024

 2017-02-05 00:19:14.726023+01 | 1486250354.72602 | pgbench_branches_pkey |            16384
 2017-02-05 00:19:14.726023+01 | 1486250354.72602 | pgbench_tellers_pkey  |            40960
 2017-02-05 00:19:14.726023+01 | 1486250354.72602 | pgbench_accounts_pkey |        224641024

 2017-02-05 00:19:15.802429+01 | 1486250355.80243 | pgbench_branches_pkey |            16384
 2017-02-05 00:19:15.802429+01 | 1486250355.80243 | pgbench_tellers_pkey  |            40960
 2017-02-05 00:19:15.802429+01 | 1486250355.80243 | pgbench_accounts_pkey |        224641024

 2017-02-05 00:19:16.87403+01 | 1486250356.87403 | pgbench_branches_pkey |            16384
 2017-02-05 00:19:16.87403+01 | 1486250356.87403 | pgbench_tellers_pkey  |            40960
 2017-02-05 00:19:16.87403+01 | 1486250356.87403 | pgbench_accounts_pkey |        224641024

 2017-02-05 00:19:17.945589+01 | 1486250357.94559 | pgbench_branches_pkey |            16384
 2017-02-05 00:19:17.945589+01 | 1486250357.94559 | pgbench_tellers_pkey  |            40960
 2017-02-05 00:19:17.945589+01 | 1486250357.94559 | pgbench_accounts_pkey |        224641024

 2017-02-05 00:19:19.017189+01 | 1486250359.01719 | pgbench_branches_pkey |            16384
 2017-02-05 00:19:19.017189+01 | 1486250359.01719 | pgbench_tellers_pkey  |            40960
 2017-02-05 00:19:19.017189+01 | 1486250359.01719 | pgbench_accounts_pkey |        224641024

 2017-02-05 00:19:20.089169+01 | 1486250360.08917 | pgbench_branches_pkey |            16384
 2017-02-05 00:19:20.089169+01 | 1486250360.08917 | pgbench_tellers_pkey  |            40960
 2017-02-05 00:19:20.089169+01 | 1486250360.08917 | pgbench_accounts_pkey |        224641024

 2017-02-05 00:19:21.162259+01 | 1486250361.16226 | pgbench_branches_pkey |            16384
 2017-02-05 00:19:21.162259+01 | 1486250361.16226 | pgbench_tellers_pkey  |            40960
 2017-02-05 00:19:21.162259+01 | 1486250361.16226 | pgbench_accounts_pkey |        224641024

 2017-02-05 00:19:22.233744+01 | 1486250362.23374 | pgbench_branches_pkey |            16384
 2017-02-05 00:19:22.233744+01 | 1486250362.23374 | pgbench_tellers_pkey  |            40960
 2017-02-05 00:19:22.233744+01 | 1486250362.23374 | pgbench_accounts_pkey |        224641024

 2017-02-05 00:19:23.305877+01 | 1486250363.30588 | pgbench_branches_pkey |            16384
 2017-02-05 00:19:23.305877+01 | 1486250363.30588 | pgbench_tellers_pkey  |            40960
 2017-02-05 00:19:23.305877+01 | 1486250363.30588 | pgbench_accounts_pkey |        224641024

 2017-02-05 00:19:24.381731+01 | 1486250364.38173 | pgbench_branches_pkey |            16384
 2017-02-05 00:19:24.381731+01 | 1486250364.38173 | pgbench_tellers_pkey  |            40960
 2017-02-05 00:19:24.381731+01 | 1486250364.38173 | pgbench_accounts_pkey |        224641024

 2017-02-05 00:19:25.455906+01 | 1486250365.45591 | pgbench_branches_pkey |            16384
 2017-02-05 00:19:25.455906+01 | 1486250365.45591 | pgbench_tellers_pkey  |            40960
 2017-02-05 00:19:25.455906+01 | 1486250365.45591 | pgbench_accounts_pkey |        224641024

 2017-02-05 00:19:26.529226+01 | 1486250366.52923 | pgbench_branches_pkey |            16384
 2017-02-05 00:19:26.529226+01 | 1486250366.52923 | pgbench_tellers_pkey  |            40960
 2017-02-05 00:19:26.529226+01 | 1486250366.52923 | pgbench_accounts_pkey |        224641024

 2017-02-05 00:19:27.601804+01 | 1486250367.6018 | pgbench_branches_pkey |            16384
 2017-02-05 00:19:27.601804+01 | 1486250367.6018 | pgbench_tellers_pkey  |            40960
 2017-02-05 00:19:27.601804+01 | 1486250367.6018 | pgbench_accounts_pkey |        224641024

 2017-02-05 00:19:28.667275+01 | 1486250368.66727 | pgbench_branches_pkey |            16384
 2017-02-05 00:19:28.667275+01 | 1486250368.66727 | pgbench_tellers_pkey  |            40960
 2017-02-05 00:19:28.667275+01 | 1486250368.66727 | pgbench_accounts_pkey |        224641024

 2017-02-05 00:19:29.743279+01 | 1486250369.74328 | pgbench_branches_pkey |            16384
 2017-02-05 00:19:29.743279+01 | 1486250369.74328 | pgbench_tellers_pkey  |            40960
 2017-02-05 00:19:29.743279+01 | 1486250369.74328 | pgbench_accounts_pkey |        224641024

 2017-02-05 00:19:30.817553+01 | 1486250370.81755 | pgbench_branches_pkey |            16384
 2017-02-05 00:19:30.817553+01 | 1486250370.81755 | pgbench_tellers_pkey  |            40960
 2017-02-05 00:19:30.817553+01 | 1486250370.81755 | pgbench_accounts_pkey |        224641024

 2017-02-05 00:19:31.892831+01 | 1486250371.89283 | pgbench_branches_pkey |            16384
 2017-02-05 00:19:31.892831+01 | 1486250371.89283 | pgbench_tellers_pkey  |            40960
 2017-02-05 00:19:31.892831+01 | 1486250371.89283 | pgbench_accounts_pkey |        224641024

 2017-02-05 00:19:32.970697+01 | 1486250372.9707 | pgbench_branches_pkey |            16384
 2017-02-05 00:19:32.970697+01 | 1486250372.9707 | pgbench_tellers_pkey  |            40960
 2017-02-05 00:19:32.970697+01 | 1486250372.9707 | pgbench_accounts_pkey |        224641024

 2017-02-05 00:19:34.041571+01 | 1486250374.04157 | pgbench_branches_pkey |            16384
 2017-02-05 00:19:34.041571+01 | 1486250374.04157 | pgbench_tellers_pkey  |            40960
 2017-02-05 00:19:34.041571+01 | 1486250374.04157 | pgbench_accounts_pkey |        224641024

 2017-02-05 00:19:35.113599+01 | 1486250375.1136 | pgbench_branches_pkey |            16384
 2017-02-05 00:19:35.113599+01 | 1486250375.1136 | pgbench_tellers_pkey  |            40960
 2017-02-05 00:19:35.113599+01 | 1486250375.1136 | pgbench_accounts_pkey |        224641024

 2017-02-05 00:19:36.187924+01 | 1486250376.18792 | pgbench_branches_pkey |            16384
 2017-02-05 00:19:36.187924+01 | 1486250376.18792 | pgbench_tellers_pkey  |            40960
 2017-02-05 00:19:36.187924+01 | 1486250376.18792 | pgbench_accounts_pkey |        224641024

 2017-02-05 00:19:37.25798+01 | 1486250377.25798 | pgbench_branches_pkey |            16384
 2017-02-05 00:19:37.25798+01 | 1486250377.25798 | pgbench_tellers_pkey  |            40960
 2017-02-05 00:19:37.25798+01 | 1486250377.25798 | pgbench_accounts_pkey |        224641024

 2017-02-05 00:19:38.32424+01 | 1486250378.32424 | pgbench_branches_pkey |            16384
 2017-02-05 00:19:38.32424+01 | 1486250378.32424 | pgbench_tellers_pkey  |            40960
 2017-02-05 00:19:38.32424+01 | 1486250378.32424 | pgbench_accounts_pkey |        224641024

 2017-02-05 00:19:39.397684+01 | 1486250379.39768 | pgbench_branches_pkey |            16384
 2017-02-05 00:19:39.397684+01 | 1486250379.39768 | pgbench_tellers_pkey  |            40960
 2017-02-05 00:19:39.397684+01 | 1486250379.39768 | pgbench_accounts_pkey |        224641024

 2017-02-05 00:19:40.468932+01 | 1486250380.46893 | pgbench_branches_pkey |            16384
 2017-02-05 00:19:40.468932+01 | 1486250380.46893 | pgbench_tellers_pkey  |            40960
 2017-02-05 00:19:40.468932+01 | 1486250380.46893 | pgbench_accounts_pkey |        224641024

 2017-02-05 00:19:41.542796+01 | 1486250381.5428 | pgbench_branches_pkey |            16384
 2017-02-05 00:19:41.542796+01 | 1486250381.5428 | pgbench_tellers_pkey  |            40960
 2017-02-05 00:19:41.542796+01 | 1486250381.5428 | pgbench_accounts_pkey |        224641024

 2017-02-05 00:19:42.617949+01 | 1486250382.61795 | pgbench_branches_pkey |            16384
 2017-02-05 00:19:42.617949+01 | 1486250382.61795 | pgbench_tellers_pkey  |            40960
 2017-02-05 00:19:42.617949+01 | 1486250382.61795 | pgbench_accounts_pkey |        224641024

 2017-02-05 00:19:43.698422+01 | 1486250383.69842 | pgbench_branches_pkey |            16384
 2017-02-05 00:19:43.698422+01 | 1486250383.69842 | pgbench_tellers_pkey  |            40960
 2017-02-05 00:19:43.698422+01 | 1486250383.69842 | pgbench_accounts_pkey |        224641024

 2017-02-05 00:19:44.77401+01 | 1486250384.77401 | pgbench_branches_pkey |            16384
 2017-02-05 00:19:44.77401+01 | 1486250384.77401 | pgbench_tellers_pkey  |            40960
 2017-02-05 00:19:44.77401+01 | 1486250384.77401 | pgbench_accounts_pkey |        224641024

 2017-02-05 00:19:45.849255+01 | 1486250385.84926 | pgbench_branches_pkey |            16384
 2017-02-05 00:19:45.849255+01 | 1486250385.84926 | pgbench_tellers_pkey  |            40960
 2017-02-05 00:19:45.849255+01 | 1486250385.84926 | pgbench_accounts_pkey |        224641024

 2017-02-05 00:19:46.923786+01 | 1486250386.92379 | pgbench_branches_pkey |            16384
 2017-02-05 00:19:46.923786+01 | 1486250386.92379 | pgbench_tellers_pkey  |            40960
 2017-02-05 00:19:46.923786+01 | 1486250386.92379 | pgbench_accounts_pkey |        224641024

 2017-02-05 00:19:47.997485+01 | 1486250387.99748 | pgbench_branches_pkey |            16384
 2017-02-05 00:19:47.997485+01 | 1486250387.99748 | pgbench_tellers_pkey  |            40960
 2017-02-05 00:19:47.997485+01 | 1486250387.99748 | pgbench_accounts_pkey |        224641024

 2017-02-05 00:19:49.07461+01 | 1486250389.07461 | pgbench_branches_pkey |            16384
 2017-02-05 00:19:49.07461+01 | 1486250389.07461 | pgbench_tellers_pkey  |            40960
 2017-02-05 00:19:49.07461+01 | 1486250389.07461 | pgbench_accounts_pkey |        224641024

 2017-02-05 00:19:50.15029+01 | 1486250390.15029 | pgbench_branches_pkey |            16384
 2017-02-05 00:19:50.15029+01 | 1486250390.15029 | pgbench_tellers_pkey  |            40960
 2017-02-05 00:19:50.15029+01 | 1486250390.15029 | pgbench_accounts_pkey |        224641024

 2017-02-05 00:19:51.233699+01 | 1486250391.2337 | pgbench_branches_pkey |            16384
 2017-02-05 00:19:51.233699+01 | 1486250391.2337 | pgbench_tellers_pkey  |            40960
 2017-02-05 00:19:51.233699+01 | 1486250391.2337 | pgbench_accounts_pkey |        224641024

 2017-02-05 00:19:52.300768+01 | 1486250392.30077 | pgbench_branches_pkey |            16384
 2017-02-05 00:19:52.300768+01 | 1486250392.30077 | pgbench_tellers_pkey  |            40960
 2017-02-05 00:19:52.300768+01 | 1486250392.30077 | pgbench_accounts_pkey |        224641024

 2017-02-05 00:19:53.378193+01 | 1486250393.37819 | pgbench_branches_pkey |            16384
 2017-02-05 00:19:53.378193+01 | 1486250393.37819 | pgbench_tellers_pkey  |            40960
 2017-02-05 00:19:53.378193+01 | 1486250393.37819 | pgbench_accounts_pkey |        224641024

 2017-02-05 00:19:54.450519+01 | 1486250394.45052 | pgbench_branches_pkey |            16384
 2017-02-05 00:19:54.450519+01 | 1486250394.45052 | pgbench_tellers_pkey  |            40960
 2017-02-05 00:19:54.450519+01 | 1486250394.45052 | pgbench_accounts_pkey |        224641024

 2017-02-05 00:19:55.526965+01 | 1486250395.52696 | pgbench_branches_pkey |            16384
 2017-02-05 00:19:55.526965+01 | 1486250395.52696 | pgbench_tellers_pkey  |            40960
 2017-02-05 00:19:55.526965+01 | 1486250395.52696 | pgbench_accounts_pkey |        224641024

 2017-02-05 00:19:56.600228+01 | 1486250396.60023 | pgbench_branches_pkey |            16384
 2017-02-05 00:19:56.600228+01 | 1486250396.60023 | pgbench_tellers_pkey  |            40960
 2017-02-05 00:19:56.600228+01 | 1486250396.60023 | pgbench_accounts_pkey |        224641024

 2017-02-05 00:19:57.679149+01 | 1486250397.67915 | pgbench_branches_pkey |            16384
 2017-02-05 00:19:57.679149+01 | 1486250397.67915 | pgbench_tellers_pkey  |            40960
 2017-02-05 00:19:57.679149+01 | 1486250397.67915 | pgbench_accounts_pkey |        224641024

 2017-02-05 00:19:58.758264+01 | 1486250398.75826 | pgbench_branches_pkey |            16384
 2017-02-05 00:19:58.758264+01 | 1486250398.75826 | pgbench_tellers_pkey  |            40960
 2017-02-05 00:19:58.758264+01 | 1486250398.75826 | pgbench_accounts_pkey |        224641024

 2017-02-05 00:19:59.826919+01 | 1486250399.82692 | pgbench_branches_pkey |            16384
 2017-02-05 00:19:59.826919+01 | 1486250399.82692 | pgbench_tellers_pkey  |            40960
 2017-02-05 00:19:59.826919+01 | 1486250399.82692 | pgbench_accounts_pkey |        224641024

 2017-02-05 00:20:00.896033+01 | 1486250400.89603 | pgbench_branches_pkey |            16384
 2017-02-05 00:20:00.896033+01 | 1486250400.89603 | pgbench_tellers_pkey  |            40960
 2017-02-05 00:20:00.896033+01 | 1486250400.89603 | pgbench_accounts_pkey |        224641024

 2017-02-05 00:20:01.971395+01 | 1486250401.9714 | pgbench_branches_pkey |            16384
 2017-02-05 00:20:01.971395+01 | 1486250401.9714 | pgbench_tellers_pkey  |            40960
 2017-02-05 00:20:01.971395+01 | 1486250401.9714 | pgbench_accounts_pkey |        224641024

 2017-02-05 00:20:03.04689+01 | 1486250403.04689 | pgbench_branches_pkey |            16384
 2017-02-05 00:20:03.04689+01 | 1486250403.04689 | pgbench_tellers_pkey  |            40960
 2017-02-05 00:20:03.04689+01 | 1486250403.04689 | pgbench_accounts_pkey |        224641024

 2017-02-05 00:20:04.121332+01 | 1486250404.12133 | pgbench_branches_pkey |            16384
 2017-02-05 00:20:04.121332+01 | 1486250404.12133 | pgbench_tellers_pkey  |            40960
 2017-02-05 00:20:04.121332+01 | 1486250404.12133 | pgbench_accounts_pkey |        224641024

 2017-02-05 00:20:05.194163+01 | 1486250405.19416 | pgbench_branches_pkey |            16384
 2017-02-05 00:20:05.194163+01 | 1486250405.19416 | pgbench_tellers_pkey  |            40960
 2017-02-05 00:20:05.194163+01 | 1486250405.19416 | pgbench_accounts_pkey |        224641024

 2017-02-05 00:20:06.266375+01 | 1486250406.26638 | pgbench_branches_pkey |            16384
 2017-02-05 00:20:06.266375+01 | 1486250406.26638 | pgbench_tellers_pkey  |            40960
 2017-02-05 00:20:06.266375+01 | 1486250406.26638 | pgbench_accounts_pkey |        224641024

 2017-02-05 00:20:07.343+01 | 1486250407.343 | pgbench_branches_pkey |            16384
 2017-02-05 00:20:07.343+01 | 1486250407.343 | pgbench_tellers_pkey  |            40960
 2017-02-05 00:20:07.343+01 | 1486250407.343 | pgbench_accounts_pkey |        224641024

 2017-02-05 00:20:08.420684+01 | 1486250408.42068 | pgbench_branches_pkey |            16384
 2017-02-05 00:20:08.420684+01 | 1486250408.42068 | pgbench_tellers_pkey  |            40960
 2017-02-05 00:20:08.420684+01 | 1486250408.42068 | pgbench_accounts_pkey |        224641024

 2017-02-05 00:20:09.491254+01 | 1486250409.49125 | pgbench_branches_pkey |            16384
 2017-02-05 00:20:09.491254+01 | 1486250409.49125 | pgbench_tellers_pkey  |            40960
 2017-02-05 00:20:09.491254+01 | 1486250409.49125 | pgbench_accounts_pkey |        224641024

 2017-02-05 00:20:10.56681+01 | 1486250410.56681 | pgbench_branches_pkey |            16384
 2017-02-05 00:20:10.56681+01 | 1486250410.56681 | pgbench_tellers_pkey  |            40960
 2017-02-05 00:20:10.56681+01 | 1486250410.56681 | pgbench_accounts_pkey |        224641024

 2017-02-05 00:20:11.639196+01 | 1486250411.6392 | pgbench_branches_pkey |            16384
 2017-02-05 00:20:11.639196+01 | 1486250411.6392 | pgbench_tellers_pkey  |            40960
 2017-02-05 00:20:11.639196+01 | 1486250411.6392 | pgbench_accounts_pkey |        224641024

 2017-02-05 00:20:12.712587+01 | 1486250412.71259 | pgbench_branches_pkey |            16384
 2017-02-05 00:20:12.712587+01 | 1486250412.71259 | pgbench_tellers_pkey  |            40960
 2017-02-05 00:20:12.712587+01 | 1486250412.71259 | pgbench_accounts_pkey |        224641024

 2017-02-05 00:20:13.784301+01 | 1486250413.7843 | pgbench_branches_pkey |            16384
 2017-02-05 00:20:13.784301+01 | 1486250413.7843 | pgbench_tellers_pkey  |            40960
 2017-02-05 00:20:13.784301+01 | 1486250413.7843 | pgbench_accounts_pkey |        224641024

 2017-02-05 00:20:14.856345+01 | 1486250414.85634 | pgbench_branches_pkey |            16384
 2017-02-05 00:20:14.856345+01 | 1486250414.85634 | pgbench_tellers_pkey  |            40960
 2017-02-05 00:20:14.856345+01 | 1486250414.85634 | pgbench_accounts_pkey |        224641024

 2017-02-05 00:20:15.928361+01 | 1486250415.92836 | pgbench_branches_pkey |            16384
 2017-02-05 00:20:15.928361+01 | 1486250415.92836 | pgbench_tellers_pkey  |            40960
 2017-02-05 00:20:15.928361+01 | 1486250415.92836 | pgbench_accounts_pkey |        224641024

 2017-02-05 00:20:17.002867+01 | 1486250417.00287 | pgbench_branches_pkey |            16384
 2017-02-05 00:20:17.002867+01 | 1486250417.00287 | pgbench_tellers_pkey  |            40960
 2017-02-05 00:20:17.002867+01 | 1486250417.00287 | pgbench_accounts_pkey |        224641024

 2017-02-05 00:20:18.075522+01 | 1486250418.07552 | pgbench_branches_pkey |            16384
 2017-02-05 00:20:18.075522+01 | 1486250418.07552 | pgbench_tellers_pkey  |            40960
 2017-02-05 00:20:18.075522+01 | 1486250418.07552 | pgbench_accounts_pkey |        224641024

 2017-02-05 00:20:19.147717+01 | 1486250419.14772 | pgbench_branches_pkey |            16384
 2017-02-05 00:20:19.147717+01 | 1486250419.14772 | pgbench_tellers_pkey  |            40960
 2017-02-05 00:20:19.147717+01 | 1486250419.14772 | pgbench_accounts_pkey |        224641024

 2017-02-05 00:20:20.221935+01 | 1486250420.22194 | pgbench_branches_pkey |            16384
 2017-02-05 00:20:20.221935+01 | 1486250420.22194 | pgbench_tellers_pkey  |            40960
 2017-02-05 00:20:20.221935+01 | 1486250420.22194 | pgbench_accounts_pkey |        224641024

 2017-02-05 00:20:21.295111+01 | 1486250421.29511 | pgbench_branches_pkey |            16384
 2017-02-05 00:20:21.295111+01 | 1486250421.29511 | pgbench_tellers_pkey  |            40960
 2017-02-05 00:20:21.295111+01 | 1486250421.29511 | pgbench_accounts_pkey |        224641024

 2017-02-05 00:20:22.373181+01 | 1486250422.37318 | pgbench_branches_pkey |            16384
 2017-02-05 00:20:22.373181+01 | 1486250422.37318 | pgbench_tellers_pkey  |            40960
 2017-02-05 00:20:22.373181+01 | 1486250422.37318 | pgbench_accounts_pkey |        224641024

 2017-02-05 00:20:23.450628+01 | 1486250423.45063 | pgbench_branches_pkey |            16384
 2017-02-05 00:20:23.450628+01 | 1486250423.45063 | pgbench_tellers_pkey  |            40960
 2017-02-05 00:20:23.450628+01 | 1486250423.45063 | pgbench_accounts_pkey |        224641024

 2017-02-05 00:20:24.524051+01 | 1486250424.52405 | pgbench_branches_pkey |            16384
 2017-02-05 00:20:24.524051+01 | 1486250424.52405 | pgbench_tellers_pkey  |            40960
 2017-02-05 00:20:24.524051+01 | 1486250424.52405 | pgbench_accounts_pkey |        224641024

 2017-02-05 00:20:25.598765+01 | 1486250425.59876 | pgbench_branches_pkey |            16384
 2017-02-05 00:20:25.598765+01 | 1486250425.59876 | pgbench_tellers_pkey  |            40960
 2017-02-05 00:20:25.598765+01 | 1486250425.59876 | pgbench_accounts_pkey |        224641024

 2017-02-05 00:20:26.685461+01 | 1486250426.68546 | pgbench_branches_pkey |            16384
 2017-02-05 00:20:26.685461+01 | 1486250426.68546 | pgbench_tellers_pkey  |            40960
 2017-02-05 00:20:26.685461+01 | 1486250426.68546 | pgbench_accounts_pkey |        224641024

 2017-02-05 00:20:27.763243+01 | 1486250427.76324 | pgbench_branches_pkey |            16384
 2017-02-05 00:20:27.763243+01 | 1486250427.76324 | pgbench_tellers_pkey  |            40960
 2017-02-05 00:20:27.763243+01 | 1486250427.76324 | pgbench_accounts_pkey |        224641024

 2017-02-05 00:20:28.833098+01 | 1486250428.8331 | pgbench_branches_pkey |            16384
 2017-02-05 00:20:28.833098+01 | 1486250428.8331 | pgbench_tellers_pkey  |            40960
 2017-02-05 00:20:28.833098+01 | 1486250428.8331 | pgbench_accounts_pkey |        224641024

 2017-02-05 00:20:29.908878+01 | 1486250429.90888 | pgbench_branches_pkey |            16384
 2017-02-05 00:20:29.908878+01 | 1486250429.90888 | pgbench_tellers_pkey  |            40960
 2017-02-05 00:20:29.908878+01 | 1486250429.90888 | pgbench_accounts_pkey |        224641024

 2017-02-05 00:20:30.979722+01 | 1486250430.97972 | pgbench_branches_pkey |            16384
 2017-02-05 00:20:30.979722+01 | 1486250430.97972 | pgbench_tellers_pkey  |            40960
 2017-02-05 00:20:30.979722+01 | 1486250430.97972 | pgbench_accounts_pkey |        224641024

 2017-02-05 00:20:32.05812+01 | 1486250432.05812 | pgbench_branches_pkey |            16384
 2017-02-05 00:20:32.05812+01 | 1486250432.05812 | pgbench_tellers_pkey  |            40960
 2017-02-05 00:20:32.05812+01 | 1486250432.05812 | pgbench_accounts_pkey |        224641024

 2017-02-05 00:20:33.131874+01 | 1486250433.13187 | pgbench_branches_pkey |            16384
 2017-02-05 00:20:33.131874+01 | 1486250433.13187 | pgbench_tellers_pkey  |            40960
 2017-02-05 00:20:33.131874+01 | 1486250433.13187 | pgbench_accounts_pkey |        224641024

 2017-02-05 00:20:34.209328+01 | 1486250434.20933 | pgbench_branches_pkey |            16384
 2017-02-05 00:20:34.209328+01 | 1486250434.20933 | pgbench_tellers_pkey  |            40960
 2017-02-05 00:20:34.209328+01 | 1486250434.20933 | pgbench_accounts_pkey |        224641024

 2017-02-05 00:20:35.284694+01 | 1486250435.28469 | pgbench_branches_pkey |            16384
 2017-02-05 00:20:35.284694+01 | 1486250435.28469 | pgbench_tellers_pkey  |            40960
 2017-02-05 00:20:35.284694+01 | 1486250435.28469 | pgbench_accounts_pkey |        224641024

 2017-02-05 00:20:36.362456+01 | 1486250436.36246 | pgbench_branches_pkey |            16384
 2017-02-05 00:20:36.362456+01 | 1486250436.36246 | pgbench_tellers_pkey  |            40960
 2017-02-05 00:20:36.362456+01 | 1486250436.36246 | pgbench_accounts_pkey |        224641024

 2017-02-05 00:20:37.43636+01 | 1486250437.43636 | pgbench_branches_pkey |            16384
 2017-02-05 00:20:37.43636+01 | 1486250437.43636 | pgbench_tellers_pkey  |            40960
 2017-02-05 00:20:37.43636+01 | 1486250437.43636 | pgbench_accounts_pkey |        224641024

 2017-02-05 00:20:38.513977+01 | 1486250438.51398 | pgbench_branches_pkey |            16384
 2017-02-05 00:20:38.513977+01 | 1486250438.51398 | pgbench_tellers_pkey  |            40960
 2017-02-05 00:20:38.513977+01 | 1486250438.51398 | pgbench_accounts_pkey |        224641024

 2017-02-05 00:20:39.584261+01 | 1486250439.58426 | pgbench_branches_pkey |            16384
 2017-02-05 00:20:39.584261+01 | 1486250439.58426 | pgbench_tellers_pkey  |            40960
 2017-02-05 00:20:39.584261+01 | 1486250439.58426 | pgbench_accounts_pkey |        224641024

 2017-02-05 00:20:40.6546+01 | 1486250440.6546 | pgbench_branches_pkey |            16384
 2017-02-05 00:20:40.6546+01 | 1486250440.6546 | pgbench_tellers_pkey  |            40960
 2017-02-05 00:20:40.6546+01 | 1486250440.6546 | pgbench_accounts_pkey |        224641024

 2017-02-05 00:20:41.729887+01 | 1486250441.72989 | pgbench_branches_pkey |            16384
 2017-02-05 00:20:41.729887+01 | 1486250441.72989 | pgbench_tellers_pkey  |            40960
 2017-02-05 00:20:41.729887+01 | 1486250441.72989 | pgbench_accounts_pkey |        224641024

 2017-02-05 00:20:42.804889+01 | 1486250442.80489 | pgbench_branches_pkey |            16384
 2017-02-05 00:20:42.804889+01 | 1486250442.80489 | pgbench_tellers_pkey  |            40960
 2017-02-05 00:20:42.804889+01 | 1486250442.80489 | pgbench_accounts_pkey |        224641024

 2017-02-05 00:20:43.890013+01 | 1486250443.89001 | pgbench_branches_pkey |            16384
 2017-02-05 00:20:43.890013+01 | 1486250443.89001 | pgbench_tellers_pkey  |            40960
 2017-02-05 00:20:43.890013+01 | 1486250443.89001 | pgbench_accounts_pkey |        224641024

 2017-02-05 00:20:44.961927+01 | 1486250444.96193 | pgbench_branches_pkey |            16384
 2017-02-05 00:20:44.961927+01 | 1486250444.96193 | pgbench_tellers_pkey  |            40960
 2017-02-05 00:20:44.961927+01 | 1486250444.96193 | pgbench_accounts_pkey |        224641024

 2017-02-05 00:20:46.045971+01 | 1486250446.04597 | pgbench_branches_pkey |            16384
 2017-02-05 00:20:46.045971+01 | 1486250446.04597 | pgbench_tellers_pkey  |            40960
 2017-02-05 00:20:46.045971+01 | 1486250446.04597 | pgbench_accounts_pkey |        224641024

 2017-02-05 00:20:47.116435+01 | 1486250447.11644 | pgbench_branches_pkey |            16384
 2017-02-05 00:20:47.116435+01 | 1486250447.11644 | pgbench_tellers_pkey  |            40960
 2017-02-05 00:20:47.116435+01 | 1486250447.11644 | pgbench_accounts_pkey |        224641024

 2017-02-05 00:20:48.188025+01 | 1486250448.18802 | pgbench_branches_pkey |            16384
 2017-02-05 00:20:48.188025+01 | 1486250448.18802 | pgbench_tellers_pkey  |            40960
 2017-02-05 00:20:48.188025+01 | 1486250448.18802 | pgbench_accounts_pkey |        224641024

 2017-02-05 00:20:49.267583+01 | 1486250449.26758 | pgbench_branches_pkey |            16384
 2017-02-05 00:20:49.267583+01 | 1486250449.26758 | pgbench_tellers_pkey  |            40960
 2017-02-05 00:20:49.267583+01 | 1486250449.26758 | pgbench_accounts_pkey |        224641024

 2017-02-05 00:20:50.338017+01 | 1486250450.33802 | pgbench_branches_pkey |            16384
 2017-02-05 00:20:50.338017+01 | 1486250450.33802 | pgbench_tellers_pkey  |            40960
 2017-02-05 00:20:50.338017+01 | 1486250450.33802 | pgbench_accounts_pkey |        224641024

 2017-02-05 00:20:51.416172+01 | 1486250451.41617 | pgbench_branches_pkey |            16384
 2017-02-05 00:20:51.416172+01 | 1486250451.41617 | pgbench_tellers_pkey  |            40960
 2017-02-05 00:20:51.416172+01 | 1486250451.41617 | pgbench_accounts_pkey |        224641024

 2017-02-05 00:20:52.488741+01 | 1486250452.48874 | pgbench_branches_pkey |            16384
 2017-02-05 00:20:52.488741+01 | 1486250452.48874 | pgbench_tellers_pkey  |            40960
 2017-02-05 00:20:52.488741+01 | 1486250452.48874 | pgbench_accounts_pkey |        224641024

 2017-02-05 00:20:53.56138+01 | 1486250453.56138 | pgbench_branches_pkey |            16384
 2017-02-05 00:20:53.56138+01 | 1486250453.56138 | pgbench_tellers_pkey  |            40960
 2017-02-05 00:20:53.56138+01 | 1486250453.56138 | pgbench_accounts_pkey |        224641024

 2017-02-05 00:20:54.632807+01 | 1486250454.63281 | pgbench_branches_pkey |            16384
 2017-02-05 00:20:54.632807+01 | 1486250454.63281 | pgbench_tellers_pkey  |            40960
 2017-02-05 00:20:54.632807+01 | 1486250454.63281 | pgbench_accounts_pkey |        224641024

 2017-02-05 00:20:55.716826+01 | 1486250455.71683 | pgbench_branches_pkey |            16384
 2017-02-05 00:20:55.716826+01 | 1486250455.71683 | pgbench_tellers_pkey  |            40960
 2017-02-05 00:20:55.716826+01 | 1486250455.71683 | pgbench_accounts_pkey |        224641024

 2017-02-05 00:20:56.793664+01 | 1486250456.79366 | pgbench_branches_pkey |            16384
 2017-02-05 00:20:56.793664+01 | 1486250456.79366 | pgbench_tellers_pkey  |            40960
 2017-02-05 00:20:56.793664+01 | 1486250456.79366 | pgbench_accounts_pkey |        224641024

 2017-02-05 00:20:57.878186+01 | 1486250457.87819 | pgbench_branches_pkey |            16384
 2017-02-05 00:20:57.878186+01 | 1486250457.87819 | pgbench_tellers_pkey  |            40960
 2017-02-05 00:20:57.878186+01 | 1486250457.87819 | pgbench_accounts_pkey |        224641024

 2017-02-05 00:20:58.951612+01 | 1486250458.95161 | pgbench_branches_pkey |            16384
 2017-02-05 00:20:58.951612+01 | 1486250458.95161 | pgbench_tellers_pkey  |            40960
 2017-02-05 00:20:58.951612+01 | 1486250458.95161 | pgbench_accounts_pkey |        224641024

 2017-02-05 00:21:00.027386+01 | 1486250460.02739 | pgbench_branches_pkey |            16384
 2017-02-05 00:21:00.027386+01 | 1486250460.02739 | pgbench_tellers_pkey  |            40960
 2017-02-05 00:21:00.027386+01 | 1486250460.02739 | pgbench_accounts_pkey |        224641024

 2017-02-05 00:21:01.105008+01 | 1486250461.10501 | pgbench_branches_pkey |            16384
 2017-02-05 00:21:01.105008+01 | 1486250461.10501 | pgbench_tellers_pkey  |            40960
 2017-02-05 00:21:01.105008+01 | 1486250461.10501 | pgbench_accounts_pkey |        224641024

 2017-02-05 00:21:02.175967+01 | 1486250462.17597 | pgbench_branches_pkey |            16384
 2017-02-05 00:21:02.175967+01 | 1486250462.17597 | pgbench_tellers_pkey  |            40960
 2017-02-05 00:21:02.175967+01 | 1486250462.17597 | pgbench_accounts_pkey |        224641024

 2017-02-05 00:21:03.260637+01 | 1486250463.26064 | pgbench_branches_pkey |            16384
 2017-02-05 00:21:03.260637+01 | 1486250463.26064 | pgbench_tellers_pkey  |            40960
 2017-02-05 00:21:03.260637+01 | 1486250463.26064 | pgbench_accounts_pkey |        224641024

 2017-02-05 00:21:04.33925+01 | 1486250464.33925 | pgbench_branches_pkey |            16384
 2017-02-05 00:21:04.33925+01 | 1486250464.33925 | pgbench_tellers_pkey  |            40960
 2017-02-05 00:21:04.33925+01 | 1486250464.33925 | pgbench_accounts_pkey |        224641024

 2017-02-05 00:21:05.411623+01 | 1486250465.41162 | pgbench_branches_pkey |            16384
 2017-02-05 00:21:05.411623+01 | 1486250465.41162 | pgbench_tellers_pkey  |            40960
 2017-02-05 00:21:05.411623+01 | 1486250465.41162 | pgbench_accounts_pkey |        224641024

 2017-02-05 00:21:06.486345+01 | 1486250466.48635 | pgbench_branches_pkey |            16384
 2017-02-05 00:21:06.486345+01 | 1486250466.48635 | pgbench_tellers_pkey  |            40960
 2017-02-05 00:21:06.486345+01 | 1486250466.48635 | pgbench_accounts_pkey |        224641024

 2017-02-05 00:21:07.559797+01 | 1486250467.5598 | pgbench_branches_pkey |            16384
 2017-02-05 00:21:07.559797+01 | 1486250467.5598 | pgbench_tellers_pkey  |            40960
 2017-02-05 00:21:07.559797+01 | 1486250467.5598 | pgbench_accounts_pkey |        224641024

 2017-02-05 00:21:08.63347+01 | 1486250468.63347 | pgbench_branches_pkey |            16384
 2017-02-05 00:21:08.63347+01 | 1486250468.63347 | pgbench_tellers_pkey  |            40960
 2017-02-05 00:21:08.63347+01 | 1486250468.63347 | pgbench_accounts_pkey |        224641024

 2017-02-05 00:21:09.703664+01 | 1486250469.70366 | pgbench_branches_pkey |            16384
 2017-02-05 00:21:09.703664+01 | 1486250469.70366 | pgbench_tellers_pkey  |            40960
 2017-02-05 00:21:09.703664+01 | 1486250469.70366 | pgbench_accounts_pkey |        224641024

 2017-02-05 00:21:10.779021+01 | 1486250470.77902 | pgbench_branches_pkey |            16384
 2017-02-05 00:21:10.779021+01 | 1486250470.77902 | pgbench_tellers_pkey  |            40960
 2017-02-05 00:21:10.779021+01 | 1486250470.77902 | pgbench_accounts_pkey |        224641024

 2017-02-05 00:21:11.850977+01 | 1486250471.85098 | pgbench_branches_pkey |            16384
 2017-02-05 00:21:11.850977+01 | 1486250471.85098 | pgbench_tellers_pkey  |            40960
 2017-02-05 00:21:11.850977+01 | 1486250471.85098 | pgbench_accounts_pkey |        224641024

 2017-02-05 00:21:12.923082+01 | 1486250472.92308 | pgbench_branches_pkey |            16384
 2017-02-05 00:21:12.923082+01 | 1486250472.92308 | pgbench_tellers_pkey  |            40960
 2017-02-05 00:21:12.923082+01 | 1486250472.92308 | pgbench_accounts_pkey |        224641024

