 2017-02-04 08:34:59.923556+01 | 1486193699.92356 | pgbench_branches_pkey |          1826816
 2017-02-04 08:34:59.923556+01 | 1486193699.92356 | pgbench_tellers_pkey  |          7118848
 2017-02-04 08:34:59.923556+01 | 1486193699.92356 | pgbench_accounts_pkey |       2246197248

 2017-02-04 08:35:01.006971+01 | 1486193701.00697 | pgbench_branches_pkey |          1826816
 2017-02-04 08:35:01.006971+01 | 1486193701.00697 | pgbench_tellers_pkey  |          7118848
 2017-02-04 08:35:01.006971+01 | 1486193701.00697 | pgbench_accounts_pkey |       2246197248

 2017-02-04 08:35:02.085586+01 | 1486193702.08559 | pgbench_branches_pkey |          1826816
 2017-02-04 08:35:02.085586+01 | 1486193702.08559 | pgbench_tellers_pkey  |          7118848
 2017-02-04 08:35:02.085586+01 | 1486193702.08559 | pgbench_accounts_pkey |       2246197248

 2017-02-04 08:35:03.164583+01 | 1486193703.16458 | pgbench_branches_pkey |          1826816
 2017-02-04 08:35:03.164583+01 | 1486193703.16458 | pgbench_tellers_pkey  |          7118848
 2017-02-04 08:35:03.164583+01 | 1486193703.16458 | pgbench_accounts_pkey |       2246197248

 2017-02-04 08:35:04.25315+01 | 1486193704.25315 | pgbench_branches_pkey |          1826816
 2017-02-04 08:35:04.25315+01 | 1486193704.25315 | pgbench_tellers_pkey  |          7118848
 2017-02-04 08:35:04.25315+01 | 1486193704.25315 | pgbench_accounts_pkey |       2246197248

 2017-02-04 08:35:05.327101+01 | 1486193705.3271 | pgbench_branches_pkey |          1826816
 2017-02-04 08:35:05.327101+01 | 1486193705.3271 | pgbench_tellers_pkey  |          7118848
 2017-02-04 08:35:05.327101+01 | 1486193705.3271 | pgbench_accounts_pkey |       2246197248

 2017-02-04 08:35:06.403702+01 | 1486193706.4037 | pgbench_branches_pkey |          1826816
 2017-02-04 08:35:06.403702+01 | 1486193706.4037 | pgbench_tellers_pkey  |          7118848
 2017-02-04 08:35:06.403702+01 | 1486193706.4037 | pgbench_accounts_pkey |       2246197248

 2017-02-04 08:35:07.48348+01 | 1486193707.48348 | pgbench_branches_pkey |          1826816
 2017-02-04 08:35:07.48348+01 | 1486193707.48348 | pgbench_tellers_pkey  |          7118848
 2017-02-04 08:35:07.48348+01 | 1486193707.48348 | pgbench_accounts_pkey |       2246197248

 2017-02-04 08:35:08.560075+01 | 1486193708.56008 | pgbench_branches_pkey |          1826816
 2017-02-04 08:35:08.560075+01 | 1486193708.56008 | pgbench_tellers_pkey  |          7118848
 2017-02-04 08:35:08.560075+01 | 1486193708.56008 | pgbench_accounts_pkey |       2246197248

 2017-02-04 08:35:09.64414+01 | 1486193709.64414 | pgbench_branches_pkey |          1826816
 2017-02-04 08:35:09.64414+01 | 1486193709.64414 | pgbench_tellers_pkey  |          7118848
 2017-02-04 08:35:09.64414+01 | 1486193709.64414 | pgbench_accounts_pkey |       2246197248

 2017-02-04 08:35:10.721656+01 | 1486193710.72166 | pgbench_branches_pkey |          1826816
 2017-02-04 08:35:10.721656+01 | 1486193710.72166 | pgbench_tellers_pkey  |          7118848
 2017-02-04 08:35:10.721656+01 | 1486193710.72166 | pgbench_accounts_pkey |       2246197248

 2017-02-04 08:35:11.800211+01 | 1486193711.80021 | pgbench_branches_pkey |          1826816
 2017-02-04 08:35:11.800211+01 | 1486193711.80021 | pgbench_tellers_pkey  |          7118848
 2017-02-04 08:35:11.800211+01 | 1486193711.80021 | pgbench_accounts_pkey |       2246197248

 2017-02-04 08:35:12.876255+01 | 1486193712.87626 | pgbench_branches_pkey |          1826816
 2017-02-04 08:35:12.876255+01 | 1486193712.87626 | pgbench_tellers_pkey  |          7118848
 2017-02-04 08:35:12.876255+01 | 1486193712.87626 | pgbench_accounts_pkey |       2246197248

 2017-02-04 08:35:13.95109+01 | 1486193713.95109 | pgbench_branches_pkey |          1826816
 2017-02-04 08:35:13.95109+01 | 1486193713.95109 | pgbench_tellers_pkey  |          7118848
 2017-02-04 08:35:13.95109+01 | 1486193713.95109 | pgbench_accounts_pkey |       2246197248

 2017-02-04 08:35:15.0283+01 | 1486193715.0283 | pgbench_branches_pkey |          1826816
 2017-02-04 08:35:15.0283+01 | 1486193715.0283 | pgbench_tellers_pkey  |          7118848
 2017-02-04 08:35:15.0283+01 | 1486193715.0283 | pgbench_accounts_pkey |       2246197248

 2017-02-04 08:35:16.107541+01 | 1486193716.10754 | pgbench_branches_pkey |          1826816
 2017-02-04 08:35:16.107541+01 | 1486193716.10754 | pgbench_tellers_pkey  |          7118848
 2017-02-04 08:35:16.107541+01 | 1486193716.10754 | pgbench_accounts_pkey |       2246197248

 2017-02-04 08:35:17.191313+01 | 1486193717.19131 | pgbench_branches_pkey |          1826816
 2017-02-04 08:35:17.191313+01 | 1486193717.19131 | pgbench_tellers_pkey  |          7118848
 2017-02-04 08:35:17.191313+01 | 1486193717.19131 | pgbench_accounts_pkey |       2246197248

 2017-02-04 08:35:18.266539+01 | 1486193718.26654 | pgbench_branches_pkey |          1826816
 2017-02-04 08:35:18.266539+01 | 1486193718.26654 | pgbench_tellers_pkey  |          7118848
 2017-02-04 08:35:18.266539+01 | 1486193718.26654 | pgbench_accounts_pkey |       2246197248

 2017-02-04 08:35:19.350682+01 | 1486193719.35068 | pgbench_branches_pkey |          1826816
 2017-02-04 08:35:19.350682+01 | 1486193719.35068 | pgbench_tellers_pkey  |          7118848
 2017-02-04 08:35:19.350682+01 | 1486193719.35068 | pgbench_accounts_pkey |       2246197248

 2017-02-04 08:35:20.432547+01 | 1486193720.43255 | pgbench_branches_pkey |          1826816
 2017-02-04 08:35:20.432547+01 | 1486193720.43255 | pgbench_tellers_pkey  |          7118848
 2017-02-04 08:35:20.432547+01 | 1486193720.43255 | pgbench_accounts_pkey |       2246197248

 2017-02-04 08:35:21.514607+01 | 1486193721.51461 | pgbench_branches_pkey |          1826816
 2017-02-04 08:35:21.514607+01 | 1486193721.51461 | pgbench_tellers_pkey  |          7118848
 2017-02-04 08:35:21.514607+01 | 1486193721.51461 | pgbench_accounts_pkey |       2246197248

 2017-02-04 08:35:22.595467+01 | 1486193722.59547 | pgbench_branches_pkey |          1826816
 2017-02-04 08:35:22.595467+01 | 1486193722.59547 | pgbench_tellers_pkey  |          7118848
 2017-02-04 08:35:22.595467+01 | 1486193722.59547 | pgbench_accounts_pkey |       2246197248

 2017-02-04 08:35:23.669454+01 | 1486193723.66945 | pgbench_branches_pkey |          1826816
 2017-02-04 08:35:23.669454+01 | 1486193723.66945 | pgbench_tellers_pkey  |          7118848
 2017-02-04 08:35:23.669454+01 | 1486193723.66945 | pgbench_accounts_pkey |       2246197248

 2017-02-04 08:35:24.745908+01 | 1486193724.74591 | pgbench_branches_pkey |          1826816
 2017-02-04 08:35:24.745908+01 | 1486193724.74591 | pgbench_tellers_pkey  |          7118848
 2017-02-04 08:35:24.745908+01 | 1486193724.74591 | pgbench_accounts_pkey |       2246197248

 2017-02-04 08:35:25.820321+01 | 1486193725.82032 | pgbench_branches_pkey |          1826816
 2017-02-04 08:35:25.820321+01 | 1486193725.82032 | pgbench_tellers_pkey  |          7118848
 2017-02-04 08:35:25.820321+01 | 1486193725.82032 | pgbench_accounts_pkey |       2246197248

 2017-02-04 08:35:26.897491+01 | 1486193726.89749 | pgbench_branches_pkey |          1826816
 2017-02-04 08:35:26.897491+01 | 1486193726.89749 | pgbench_tellers_pkey  |          7118848
 2017-02-04 08:35:26.897491+01 | 1486193726.89749 | pgbench_accounts_pkey |       2246197248

 2017-02-04 08:35:27.978886+01 | 1486193727.97889 | pgbench_branches_pkey |          1826816
 2017-02-04 08:35:27.978886+01 | 1486193727.97889 | pgbench_tellers_pkey  |          7118848
 2017-02-04 08:35:27.978886+01 | 1486193727.97889 | pgbench_accounts_pkey |       2246197248

 2017-02-04 08:35:29.049743+01 | 1486193729.04974 | pgbench_branches_pkey |          1826816
 2017-02-04 08:35:29.049743+01 | 1486193729.04974 | pgbench_tellers_pkey  |          7118848
 2017-02-04 08:35:29.049743+01 | 1486193729.04974 | pgbench_accounts_pkey |       2246197248

 2017-02-04 08:35:30.130754+01 | 1486193730.13075 | pgbench_branches_pkey |          1826816
 2017-02-04 08:35:30.130754+01 | 1486193730.13075 | pgbench_tellers_pkey  |          7118848
 2017-02-04 08:35:30.130754+01 | 1486193730.13075 | pgbench_accounts_pkey |       2246197248

 2017-02-04 08:35:31.210158+01 | 1486193731.21016 | pgbench_branches_pkey |          1826816
 2017-02-04 08:35:31.210158+01 | 1486193731.21016 | pgbench_tellers_pkey  |          7118848
 2017-02-04 08:35:31.210158+01 | 1486193731.21016 | pgbench_accounts_pkey |       2246197248

 2017-02-04 08:35:32.289552+01 | 1486193732.28955 | pgbench_branches_pkey |          1826816
 2017-02-04 08:35:32.289552+01 | 1486193732.28955 | pgbench_tellers_pkey  |          7118848
 2017-02-04 08:35:32.289552+01 | 1486193732.28955 | pgbench_accounts_pkey |       2246197248

 2017-02-04 08:35:33.367334+01 | 1486193733.36733 | pgbench_branches_pkey |          1826816
 2017-02-04 08:35:33.367334+01 | 1486193733.36733 | pgbench_tellers_pkey  |          7118848
 2017-02-04 08:35:33.367334+01 | 1486193733.36733 | pgbench_accounts_pkey |       2246197248

 2017-02-04 08:35:34.46162+01 | 1486193734.46162 | pgbench_branches_pkey |          1826816
 2017-02-04 08:35:34.46162+01 | 1486193734.46162 | pgbench_tellers_pkey  |          7118848
 2017-02-04 08:35:34.46162+01 | 1486193734.46162 | pgbench_accounts_pkey |       2246197248

 2017-02-04 08:35:35.540511+01 | 1486193735.54051 | pgbench_branches_pkey |          1826816
 2017-02-04 08:35:35.540511+01 | 1486193735.54051 | pgbench_tellers_pkey  |          7118848
 2017-02-04 08:35:35.540511+01 | 1486193735.54051 | pgbench_accounts_pkey |       2246197248

 2017-02-04 08:35:36.626152+01 | 1486193736.62615 | pgbench_branches_pkey |          1826816
 2017-02-04 08:35:36.626152+01 | 1486193736.62615 | pgbench_tellers_pkey  |          7118848
 2017-02-04 08:35:36.626152+01 | 1486193736.62615 | pgbench_accounts_pkey |       2246197248

 2017-02-04 08:35:37.711003+01 | 1486193737.711 | pgbench_branches_pkey |          1826816
 2017-02-04 08:35:37.711003+01 | 1486193737.711 | pgbench_tellers_pkey  |          7118848
 2017-02-04 08:35:37.711003+01 | 1486193737.711 | pgbench_accounts_pkey |       2246197248

 2017-02-04 08:35:38.794875+01 | 1486193738.79487 | pgbench_branches_pkey |          1826816
 2017-02-04 08:35:38.794875+01 | 1486193738.79487 | pgbench_tellers_pkey  |          7118848
 2017-02-04 08:35:38.794875+01 | 1486193738.79487 | pgbench_accounts_pkey |       2246197248

 2017-02-04 08:35:39.87061+01 | 1486193739.87061 | pgbench_branches_pkey |          1826816
 2017-02-04 08:35:39.87061+01 | 1486193739.87061 | pgbench_tellers_pkey  |          7118848
 2017-02-04 08:35:39.87061+01 | 1486193739.87061 | pgbench_accounts_pkey |       2246197248

 2017-02-04 08:35:40.947957+01 | 1486193740.94796 | pgbench_branches_pkey |          1826816
 2017-02-04 08:35:40.947957+01 | 1486193740.94796 | pgbench_tellers_pkey  |          7118848
 2017-02-04 08:35:40.947957+01 | 1486193740.94796 | pgbench_accounts_pkey |       2246197248

 2017-02-04 08:35:42.021313+01 | 1486193742.02131 | pgbench_branches_pkey |          1826816
 2017-02-04 08:35:42.021313+01 | 1486193742.02131 | pgbench_tellers_pkey  |          7118848
 2017-02-04 08:35:42.021313+01 | 1486193742.02131 | pgbench_accounts_pkey |       2246197248

 2017-02-04 08:35:43.097629+01 | 1486193743.09763 | pgbench_branches_pkey |          1826816
 2017-02-04 08:35:43.097629+01 | 1486193743.09763 | pgbench_tellers_pkey  |          7118848
 2017-02-04 08:35:43.097629+01 | 1486193743.09763 | pgbench_accounts_pkey |       2246197248

 2017-02-04 08:35:44.185885+01 | 1486193744.18588 | pgbench_branches_pkey |          1826816
 2017-02-04 08:35:44.185885+01 | 1486193744.18588 | pgbench_tellers_pkey  |          7118848
 2017-02-04 08:35:44.185885+01 | 1486193744.18588 | pgbench_accounts_pkey |       2246197248

 2017-02-04 08:35:45.263188+01 | 1486193745.26319 | pgbench_branches_pkey |          1826816
 2017-02-04 08:35:45.263188+01 | 1486193745.26319 | pgbench_tellers_pkey  |          7118848
 2017-02-04 08:35:45.263188+01 | 1486193745.26319 | pgbench_accounts_pkey |       2246197248

 2017-02-04 08:35:46.357202+01 | 1486193746.3572 | pgbench_branches_pkey |          1826816
 2017-02-04 08:35:46.357202+01 | 1486193746.3572 | pgbench_tellers_pkey  |          7118848
 2017-02-04 08:35:46.357202+01 | 1486193746.3572 | pgbench_accounts_pkey |       2246197248

 2017-02-04 08:35:47.431573+01 | 1486193747.43157 | pgbench_branches_pkey |          1826816
 2017-02-04 08:35:47.431573+01 | 1486193747.43157 | pgbench_tellers_pkey  |          7118848
 2017-02-04 08:35:47.431573+01 | 1486193747.43157 | pgbench_accounts_pkey |       2246197248

 2017-02-04 08:35:48.508922+01 | 1486193748.50892 | pgbench_branches_pkey |          1826816
 2017-02-04 08:35:48.508922+01 | 1486193748.50892 | pgbench_tellers_pkey  |          7118848
 2017-02-04 08:35:48.508922+01 | 1486193748.50892 | pgbench_accounts_pkey |       2246197248

 2017-02-04 08:35:49.586558+01 | 1486193749.58656 | pgbench_branches_pkey |          1826816
 2017-02-04 08:35:49.586558+01 | 1486193749.58656 | pgbench_tellers_pkey  |          7118848
 2017-02-04 08:35:49.586558+01 | 1486193749.58656 | pgbench_accounts_pkey |       2246197248

 2017-02-04 08:35:50.659072+01 | 1486193750.65907 | pgbench_branches_pkey |          1826816
 2017-02-04 08:35:50.659072+01 | 1486193750.65907 | pgbench_tellers_pkey  |          7118848
 2017-02-04 08:35:50.659072+01 | 1486193750.65907 | pgbench_accounts_pkey |       2246197248

 2017-02-04 08:35:51.724722+01 | 1486193751.72472 | pgbench_branches_pkey |          1826816
 2017-02-04 08:35:51.724722+01 | 1486193751.72472 | pgbench_tellers_pkey  |          7118848
 2017-02-04 08:35:51.724722+01 | 1486193751.72472 | pgbench_accounts_pkey |       2246197248

 2017-02-04 08:35:52.80587+01 | 1486193752.80587 | pgbench_branches_pkey |          1826816
 2017-02-04 08:35:52.80587+01 | 1486193752.80587 | pgbench_tellers_pkey  |          7118848
 2017-02-04 08:35:52.80587+01 | 1486193752.80587 | pgbench_accounts_pkey |       2246197248

 2017-02-04 08:35:53.882552+01 | 1486193753.88255 | pgbench_branches_pkey |          1826816
 2017-02-04 08:35:53.882552+01 | 1486193753.88255 | pgbench_tellers_pkey  |          7118848
 2017-02-04 08:35:53.882552+01 | 1486193753.88255 | pgbench_accounts_pkey |       2246197248

 2017-02-04 08:35:54.961358+01 | 1486193754.96136 | pgbench_branches_pkey |          1826816
 2017-02-04 08:35:54.961358+01 | 1486193754.96136 | pgbench_tellers_pkey  |          7118848
 2017-02-04 08:35:54.961358+01 | 1486193754.96136 | pgbench_accounts_pkey |       2246197248

 2017-02-04 08:35:56.038069+01 | 1486193756.03807 | pgbench_branches_pkey |          1826816
 2017-02-04 08:35:56.038069+01 | 1486193756.03807 | pgbench_tellers_pkey  |          7118848
 2017-02-04 08:35:56.038069+01 | 1486193756.03807 | pgbench_accounts_pkey |       2246197248

 2017-02-04 08:35:57.119084+01 | 1486193757.11908 | pgbench_branches_pkey |          1826816
 2017-02-04 08:35:57.119084+01 | 1486193757.11908 | pgbench_tellers_pkey  |          7118848
 2017-02-04 08:35:57.119084+01 | 1486193757.11908 | pgbench_accounts_pkey |       2246197248

 2017-02-04 08:35:58.204175+01 | 1486193758.20417 | pgbench_branches_pkey |          1826816
 2017-02-04 08:35:58.204175+01 | 1486193758.20417 | pgbench_tellers_pkey  |          7118848
 2017-02-04 08:35:58.204175+01 | 1486193758.20417 | pgbench_accounts_pkey |       2246197248

 2017-02-04 08:35:59.269183+01 | 1486193759.26918 | pgbench_branches_pkey |          1826816
 2017-02-04 08:35:59.269183+01 | 1486193759.26918 | pgbench_tellers_pkey  |          7118848
 2017-02-04 08:35:59.269183+01 | 1486193759.26918 | pgbench_accounts_pkey |       2246197248

 2017-02-04 08:36:00.343745+01 | 1486193760.34374 | pgbench_branches_pkey |          1826816
 2017-02-04 08:36:00.343745+01 | 1486193760.34374 | pgbench_tellers_pkey  |          7118848
 2017-02-04 08:36:00.343745+01 | 1486193760.34374 | pgbench_accounts_pkey |       2246197248

 2017-02-04 08:36:01.432217+01 | 1486193761.43222 | pgbench_branches_pkey |          1826816
 2017-02-04 08:36:01.432217+01 | 1486193761.43222 | pgbench_tellers_pkey  |          7118848
 2017-02-04 08:36:01.432217+01 | 1486193761.43222 | pgbench_accounts_pkey |       2246197248

 2017-02-04 08:36:02.515585+01 | 1486193762.51558 | pgbench_branches_pkey |          1826816
 2017-02-04 08:36:02.515585+01 | 1486193762.51558 | pgbench_tellers_pkey  |          7118848
 2017-02-04 08:36:02.515585+01 | 1486193762.51558 | pgbench_accounts_pkey |       2246197248

 2017-02-04 08:36:03.594042+01 | 1486193763.59404 | pgbench_branches_pkey |          1826816
 2017-02-04 08:36:03.594042+01 | 1486193763.59404 | pgbench_tellers_pkey  |          7118848
 2017-02-04 08:36:03.594042+01 | 1486193763.59404 | pgbench_accounts_pkey |       2246197248

 2017-02-04 08:36:04.672368+01 | 1486193764.67237 | pgbench_branches_pkey |          1826816
 2017-02-04 08:36:04.672368+01 | 1486193764.67237 | pgbench_tellers_pkey  |          7118848
 2017-02-04 08:36:04.672368+01 | 1486193764.67237 | pgbench_accounts_pkey |       2246197248

 2017-02-04 08:36:05.745465+01 | 1486193765.74547 | pgbench_branches_pkey |          1826816
 2017-02-04 08:36:05.745465+01 | 1486193765.74547 | pgbench_tellers_pkey  |          7118848
 2017-02-04 08:36:05.745465+01 | 1486193765.74547 | pgbench_accounts_pkey |       2246197248

 2017-02-04 08:36:06.821009+01 | 1486193766.82101 | pgbench_branches_pkey |          1826816
 2017-02-04 08:36:06.821009+01 | 1486193766.82101 | pgbench_tellers_pkey  |          7118848
 2017-02-04 08:36:06.821009+01 | 1486193766.82101 | pgbench_accounts_pkey |       2246197248

 2017-02-04 08:36:07.899647+01 | 1486193767.89965 | pgbench_branches_pkey |          1826816
 2017-02-04 08:36:07.899647+01 | 1486193767.89965 | pgbench_tellers_pkey  |          7118848
 2017-02-04 08:36:07.899647+01 | 1486193767.89965 | pgbench_accounts_pkey |       2246197248

 2017-02-04 08:36:08.979932+01 | 1486193768.97993 | pgbench_branches_pkey |          1826816
 2017-02-04 08:36:08.979932+01 | 1486193768.97993 | pgbench_tellers_pkey  |          7118848
 2017-02-04 08:36:08.979932+01 | 1486193768.97993 | pgbench_accounts_pkey |       2246197248

 2017-02-04 08:36:10.056129+01 | 1486193770.05613 | pgbench_branches_pkey |          1826816
 2017-02-04 08:36:10.056129+01 | 1486193770.05613 | pgbench_tellers_pkey  |          7118848
 2017-02-04 08:36:10.056129+01 | 1486193770.05613 | pgbench_accounts_pkey |       2246197248

 2017-02-04 08:36:11.135495+01 | 1486193771.13549 | pgbench_branches_pkey |          1826816
 2017-02-04 08:36:11.135495+01 | 1486193771.13549 | pgbench_tellers_pkey  |          7118848
 2017-02-04 08:36:11.135495+01 | 1486193771.13549 | pgbench_accounts_pkey |       2246197248

 2017-02-04 08:36:12.21595+01 | 1486193772.21595 | pgbench_branches_pkey |          1826816
 2017-02-04 08:36:12.21595+01 | 1486193772.21595 | pgbench_tellers_pkey  |          7118848
 2017-02-04 08:36:12.21595+01 | 1486193772.21595 | pgbench_accounts_pkey |       2246197248

 2017-02-04 08:36:13.302743+01 | 1486193773.30274 | pgbench_branches_pkey |          1826816
 2017-02-04 08:36:13.302743+01 | 1486193773.30274 | pgbench_tellers_pkey  |          7118848
 2017-02-04 08:36:13.302743+01 | 1486193773.30274 | pgbench_accounts_pkey |       2246197248

 2017-02-04 08:36:14.378557+01 | 1486193774.37856 | pgbench_branches_pkey |          1826816
 2017-02-04 08:36:14.378557+01 | 1486193774.37856 | pgbench_tellers_pkey  |          7118848
 2017-02-04 08:36:14.378557+01 | 1486193774.37856 | pgbench_accounts_pkey |       2246197248

 2017-02-04 08:36:15.450628+01 | 1486193775.45063 | pgbench_branches_pkey |          1826816
 2017-02-04 08:36:15.450628+01 | 1486193775.45063 | pgbench_tellers_pkey  |          7118848
 2017-02-04 08:36:15.450628+01 | 1486193775.45063 | pgbench_accounts_pkey |       2246197248

 2017-02-04 08:36:16.536927+01 | 1486193776.53693 | pgbench_branches_pkey |          1826816
 2017-02-04 08:36:16.536927+01 | 1486193776.53693 | pgbench_tellers_pkey  |          7118848
 2017-02-04 08:36:16.536927+01 | 1486193776.53693 | pgbench_accounts_pkey |       2246197248

 2017-02-04 08:36:17.615728+01 | 1486193777.61573 | pgbench_branches_pkey |          1826816
 2017-02-04 08:36:17.615728+01 | 1486193777.61573 | pgbench_tellers_pkey  |          7118848
 2017-02-04 08:36:17.615728+01 | 1486193777.61573 | pgbench_accounts_pkey |       2246197248

 2017-02-04 08:36:18.693155+01 | 1486193778.69316 | pgbench_branches_pkey |          1826816
 2017-02-04 08:36:18.693155+01 | 1486193778.69316 | pgbench_tellers_pkey  |          7118848
 2017-02-04 08:36:18.693155+01 | 1486193778.69316 | pgbench_accounts_pkey |       2246197248

 2017-02-04 08:36:19.772035+01 | 1486193779.77203 | pgbench_branches_pkey |          1826816
 2017-02-04 08:36:19.772035+01 | 1486193779.77203 | pgbench_tellers_pkey  |          7118848
 2017-02-04 08:36:19.772035+01 | 1486193779.77203 | pgbench_accounts_pkey |       2246197248

 2017-02-04 08:36:20.853076+01 | 1486193780.85308 | pgbench_branches_pkey |          1826816
 2017-02-04 08:36:20.853076+01 | 1486193780.85308 | pgbench_tellers_pkey  |          7118848
 2017-02-04 08:36:20.853076+01 | 1486193780.85308 | pgbench_accounts_pkey |       2246197248

 2017-02-04 08:36:21.93407+01 | 1486193781.93407 | pgbench_branches_pkey |          1826816
 2017-02-04 08:36:21.93407+01 | 1486193781.93407 | pgbench_tellers_pkey  |          7118848
 2017-02-04 08:36:21.93407+01 | 1486193781.93407 | pgbench_accounts_pkey |       2246197248

 2017-02-04 08:36:23.01774+01 | 1486193783.01774 | pgbench_branches_pkey |          1826816
 2017-02-04 08:36:23.01774+01 | 1486193783.01774 | pgbench_tellers_pkey  |          7118848
 2017-02-04 08:36:23.01774+01 | 1486193783.01774 | pgbench_accounts_pkey |       2246197248

 2017-02-04 08:36:24.093136+01 | 1486193784.09314 | pgbench_branches_pkey |          1826816
 2017-02-04 08:36:24.093136+01 | 1486193784.09314 | pgbench_tellers_pkey  |          7118848
 2017-02-04 08:36:24.093136+01 | 1486193784.09314 | pgbench_accounts_pkey |       2246197248

 2017-02-04 08:36:25.166927+01 | 1486193785.16693 | pgbench_branches_pkey |          1826816
 2017-02-04 08:36:25.166927+01 | 1486193785.16693 | pgbench_tellers_pkey  |          7118848
 2017-02-04 08:36:25.166927+01 | 1486193785.16693 | pgbench_accounts_pkey |       2246197248

 2017-02-04 08:36:26.244528+01 | 1486193786.24453 | pgbench_branches_pkey |          1826816
 2017-02-04 08:36:26.244528+01 | 1486193786.24453 | pgbench_tellers_pkey  |          7118848
 2017-02-04 08:36:26.244528+01 | 1486193786.24453 | pgbench_accounts_pkey |       2246197248

 2017-02-04 08:36:27.328406+01 | 1486193787.32841 | pgbench_branches_pkey |          1826816
 2017-02-04 08:36:27.328406+01 | 1486193787.32841 | pgbench_tellers_pkey  |          7118848
 2017-02-04 08:36:27.328406+01 | 1486193787.32841 | pgbench_accounts_pkey |       2246197248

 2017-02-04 08:36:28.406299+01 | 1486193788.4063 | pgbench_branches_pkey |          1826816
 2017-02-04 08:36:28.406299+01 | 1486193788.4063 | pgbench_tellers_pkey  |          7118848
 2017-02-04 08:36:28.406299+01 | 1486193788.4063 | pgbench_accounts_pkey |       2246197248

 2017-02-04 08:36:29.482252+01 | 1486193789.48225 | pgbench_branches_pkey |          1826816
 2017-02-04 08:36:29.482252+01 | 1486193789.48225 | pgbench_tellers_pkey  |          7118848
 2017-02-04 08:36:29.482252+01 | 1486193789.48225 | pgbench_accounts_pkey |       2246197248

 2017-02-04 08:36:30.559505+01 | 1486193790.5595 | pgbench_branches_pkey |          1826816
 2017-02-04 08:36:30.559505+01 | 1486193790.5595 | pgbench_tellers_pkey  |          7118848
 2017-02-04 08:36:30.559505+01 | 1486193790.5595 | pgbench_accounts_pkey |       2246197248

 2017-02-04 08:36:31.63708+01 | 1486193791.63708 | pgbench_branches_pkey |          1826816
 2017-02-04 08:36:31.63708+01 | 1486193791.63708 | pgbench_tellers_pkey  |          7118848
 2017-02-04 08:36:31.63708+01 | 1486193791.63708 | pgbench_accounts_pkey |       2246197248

 2017-02-04 08:36:32.712822+01 | 1486193792.71282 | pgbench_branches_pkey |          1826816
 2017-02-04 08:36:32.712822+01 | 1486193792.71282 | pgbench_tellers_pkey  |          7118848
 2017-02-04 08:36:32.712822+01 | 1486193792.71282 | pgbench_accounts_pkey |       2246197248

 2017-02-04 08:36:33.800524+01 | 1486193793.80052 | pgbench_branches_pkey |          1826816
 2017-02-04 08:36:33.800524+01 | 1486193793.80052 | pgbench_tellers_pkey  |          7118848
 2017-02-04 08:36:33.800524+01 | 1486193793.80052 | pgbench_accounts_pkey |       2246197248

 2017-02-04 08:36:34.879571+01 | 1486193794.87957 | pgbench_branches_pkey |          1826816
 2017-02-04 08:36:34.879571+01 | 1486193794.87957 | pgbench_tellers_pkey  |          7118848
 2017-02-04 08:36:34.879571+01 | 1486193794.87957 | pgbench_accounts_pkey |       2246197248

 2017-02-04 08:36:35.95015+01 | 1486193795.95015 | pgbench_branches_pkey |          1826816
 2017-02-04 08:36:35.95015+01 | 1486193795.95015 | pgbench_tellers_pkey  |          7118848
 2017-02-04 08:36:35.95015+01 | 1486193795.95015 | pgbench_accounts_pkey |       2246197248

 2017-02-04 08:36:37.026962+01 | 1486193797.02696 | pgbench_branches_pkey |          1826816
 2017-02-04 08:36:37.026962+01 | 1486193797.02696 | pgbench_tellers_pkey  |          7118848
 2017-02-04 08:36:37.026962+01 | 1486193797.02696 | pgbench_accounts_pkey |       2246197248

 2017-02-04 08:36:38.10192+01 | 1486193798.10192 | pgbench_branches_pkey |          1826816
 2017-02-04 08:36:38.10192+01 | 1486193798.10192 | pgbench_tellers_pkey  |          7118848
 2017-02-04 08:36:38.10192+01 | 1486193798.10192 | pgbench_accounts_pkey |       2246197248

 2017-02-04 08:36:39.176081+01 | 1486193799.17608 | pgbench_branches_pkey |          1826816
 2017-02-04 08:36:39.176081+01 | 1486193799.17608 | pgbench_tellers_pkey  |          7118848
 2017-02-04 08:36:39.176081+01 | 1486193799.17608 | pgbench_accounts_pkey |       2246197248

 2017-02-04 08:36:40.252+01 | 1486193800.252 | pgbench_branches_pkey |          1826816
 2017-02-04 08:36:40.252+01 | 1486193800.252 | pgbench_tellers_pkey  |          7118848
 2017-02-04 08:36:40.252+01 | 1486193800.252 | pgbench_accounts_pkey |       2246197248

 2017-02-04 08:36:41.327074+01 | 1486193801.32707 | pgbench_branches_pkey |          1826816
 2017-02-04 08:36:41.327074+01 | 1486193801.32707 | pgbench_tellers_pkey  |          7118848
 2017-02-04 08:36:41.327074+01 | 1486193801.32707 | pgbench_accounts_pkey |       2246197248

 2017-02-04 08:36:42.412655+01 | 1486193802.41266 | pgbench_branches_pkey |          1826816
 2017-02-04 08:36:42.412655+01 | 1486193802.41266 | pgbench_tellers_pkey  |          7118848
 2017-02-04 08:36:42.412655+01 | 1486193802.41266 | pgbench_accounts_pkey |       2246197248

 2017-02-04 08:36:43.50346+01 | 1486193803.50346 | pgbench_branches_pkey |          1826816
 2017-02-04 08:36:43.50346+01 | 1486193803.50346 | pgbench_tellers_pkey  |          7118848
 2017-02-04 08:36:43.50346+01 | 1486193803.50346 | pgbench_accounts_pkey |       2246197248

 2017-02-04 08:36:44.591107+01 | 1486193804.59111 | pgbench_branches_pkey |          1826816
 2017-02-04 08:36:44.591107+01 | 1486193804.59111 | pgbench_tellers_pkey  |          7118848
 2017-02-04 08:36:44.591107+01 | 1486193804.59111 | pgbench_accounts_pkey |       2246197248

 2017-02-04 08:36:45.672289+01 | 1486193805.67229 | pgbench_branches_pkey |          1826816
 2017-02-04 08:36:45.672289+01 | 1486193805.67229 | pgbench_tellers_pkey  |          7118848
 2017-02-04 08:36:45.672289+01 | 1486193805.67229 | pgbench_accounts_pkey |       2246197248

 2017-02-04 08:36:46.755795+01 | 1486193806.7558 | pgbench_branches_pkey |          1826816
 2017-02-04 08:36:46.755795+01 | 1486193806.7558 | pgbench_tellers_pkey  |          7118848
 2017-02-04 08:36:46.755795+01 | 1486193806.7558 | pgbench_accounts_pkey |       2246197248

 2017-02-04 08:36:47.842005+01 | 1486193807.84201 | pgbench_branches_pkey |          1826816
 2017-02-04 08:36:47.842005+01 | 1486193807.84201 | pgbench_tellers_pkey  |          7118848
 2017-02-04 08:36:47.842005+01 | 1486193807.84201 | pgbench_accounts_pkey |       2246197248

 2017-02-04 08:36:48.92669+01 | 1486193808.92669 | pgbench_branches_pkey |          1826816
 2017-02-04 08:36:48.92669+01 | 1486193808.92669 | pgbench_tellers_pkey  |          7118848
 2017-02-04 08:36:48.92669+01 | 1486193808.92669 | pgbench_accounts_pkey |       2246197248

 2017-02-04 08:36:50.002375+01 | 1486193810.00237 | pgbench_branches_pkey |          1826816
 2017-02-04 08:36:50.002375+01 | 1486193810.00237 | pgbench_tellers_pkey  |          7118848
 2017-02-04 08:36:50.002375+01 | 1486193810.00237 | pgbench_accounts_pkey |       2246197248

 2017-02-04 08:36:51.077217+01 | 1486193811.07722 | pgbench_branches_pkey |          1826816
 2017-02-04 08:36:51.077217+01 | 1486193811.07722 | pgbench_tellers_pkey  |          7118848
 2017-02-04 08:36:51.077217+01 | 1486193811.07722 | pgbench_accounts_pkey |       2246197248

 2017-02-04 08:36:52.154747+01 | 1486193812.15475 | pgbench_branches_pkey |          1826816
 2017-02-04 08:36:52.154747+01 | 1486193812.15475 | pgbench_tellers_pkey  |          7118848
 2017-02-04 08:36:52.154747+01 | 1486193812.15475 | pgbench_accounts_pkey |       2246197248

 2017-02-04 08:36:53.228285+01 | 1486193813.22829 | pgbench_branches_pkey |          1826816
 2017-02-04 08:36:53.228285+01 | 1486193813.22829 | pgbench_tellers_pkey  |          7118848
 2017-02-04 08:36:53.228285+01 | 1486193813.22829 | pgbench_accounts_pkey |       2246197248

 2017-02-04 08:36:54.30493+01 | 1486193814.30493 | pgbench_branches_pkey |          1826816
 2017-02-04 08:36:54.30493+01 | 1486193814.30493 | pgbench_tellers_pkey  |          7118848
 2017-02-04 08:36:54.30493+01 | 1486193814.30493 | pgbench_accounts_pkey |       2246197248

 2017-02-04 08:36:55.379531+01 | 1486193815.37953 | pgbench_branches_pkey |          1826816
 2017-02-04 08:36:55.379531+01 | 1486193815.37953 | pgbench_tellers_pkey  |          7118848
 2017-02-04 08:36:55.379531+01 | 1486193815.37953 | pgbench_accounts_pkey |       2246197248

 2017-02-04 08:36:56.435352+01 | 1486193816.43535 | pgbench_branches_pkey |          1826816
 2017-02-04 08:36:56.435352+01 | 1486193816.43535 | pgbench_tellers_pkey  |          7118848
 2017-02-04 08:36:56.435352+01 | 1486193816.43535 | pgbench_accounts_pkey |       2246197248

 2017-02-04 08:36:57.515559+01 | 1486193817.51556 | pgbench_branches_pkey |          1826816
 2017-02-04 08:36:57.515559+01 | 1486193817.51556 | pgbench_tellers_pkey  |          7118848
 2017-02-04 08:36:57.515559+01 | 1486193817.51556 | pgbench_accounts_pkey |       2246197248

 2017-02-04 08:36:58.600207+01 | 1486193818.60021 | pgbench_branches_pkey |          1826816
 2017-02-04 08:36:58.600207+01 | 1486193818.60021 | pgbench_tellers_pkey  |          7118848
 2017-02-04 08:36:58.600207+01 | 1486193818.60021 | pgbench_accounts_pkey |       2246197248

 2017-02-04 08:36:59.680179+01 | 1486193819.68018 | pgbench_branches_pkey |          1826816
 2017-02-04 08:36:59.680179+01 | 1486193819.68018 | pgbench_tellers_pkey  |          7118848
 2017-02-04 08:36:59.680179+01 | 1486193819.68018 | pgbench_accounts_pkey |       2246197248

 2017-02-04 08:37:00.758546+01 | 1486193820.75855 | pgbench_branches_pkey |          1826816
 2017-02-04 08:37:00.758546+01 | 1486193820.75855 | pgbench_tellers_pkey  |          7118848
 2017-02-04 08:37:00.758546+01 | 1486193820.75855 | pgbench_accounts_pkey |       2246197248

 2017-02-04 08:37:01.837163+01 | 1486193821.83716 | pgbench_branches_pkey |          1826816
 2017-02-04 08:37:01.837163+01 | 1486193821.83716 | pgbench_tellers_pkey  |          7118848
 2017-02-04 08:37:01.837163+01 | 1486193821.83716 | pgbench_accounts_pkey |       2246197248

 2017-02-04 08:37:02.905687+01 | 1486193822.90569 | pgbench_branches_pkey |          1826816
 2017-02-04 08:37:02.905687+01 | 1486193822.90569 | pgbench_tellers_pkey  |          7118848
 2017-02-04 08:37:02.905687+01 | 1486193822.90569 | pgbench_accounts_pkey |       2246197248

 2017-02-04 08:37:03.988667+01 | 1486193823.98867 | pgbench_branches_pkey |          1826816
 2017-02-04 08:37:03.988667+01 | 1486193823.98867 | pgbench_tellers_pkey  |          7118848
 2017-02-04 08:37:03.988667+01 | 1486193823.98867 | pgbench_accounts_pkey |       2246197248

 2017-02-04 08:37:05.066667+01 | 1486193825.06667 | pgbench_branches_pkey |          1826816
 2017-02-04 08:37:05.066667+01 | 1486193825.06667 | pgbench_tellers_pkey  |          7118848
 2017-02-04 08:37:05.066667+01 | 1486193825.06667 | pgbench_accounts_pkey |       2246197248

 2017-02-04 08:37:06.14201+01 | 1486193826.14201 | pgbench_branches_pkey |          1826816
 2017-02-04 08:37:06.14201+01 | 1486193826.14201 | pgbench_tellers_pkey  |          7118848
 2017-02-04 08:37:06.14201+01 | 1486193826.14201 | pgbench_accounts_pkey |       2246197248

 2017-02-04 08:37:07.223747+01 | 1486193827.22375 | pgbench_branches_pkey |          1826816
 2017-02-04 08:37:07.223747+01 | 1486193827.22375 | pgbench_tellers_pkey  |          7118848
 2017-02-04 08:37:07.223747+01 | 1486193827.22375 | pgbench_accounts_pkey |       2246197248

 2017-02-04 08:37:08.303305+01 | 1486193828.3033 | pgbench_branches_pkey |          1826816
 2017-02-04 08:37:08.303305+01 | 1486193828.3033 | pgbench_tellers_pkey  |          7118848
 2017-02-04 08:37:08.303305+01 | 1486193828.3033 | pgbench_accounts_pkey |       2246197248

 2017-02-04 08:37:09.383+01 | 1486193829.383 | pgbench_branches_pkey |          1826816
 2017-02-04 08:37:09.383+01 | 1486193829.383 | pgbench_tellers_pkey  |          7118848
 2017-02-04 08:37:09.383+01 | 1486193829.383 | pgbench_accounts_pkey |       2246197248

 2017-02-04 08:37:10.460205+01 | 1486193830.46021 | pgbench_branches_pkey |          1826816
 2017-02-04 08:37:10.460205+01 | 1486193830.46021 | pgbench_tellers_pkey  |          7118848
 2017-02-04 08:37:10.460205+01 | 1486193830.46021 | pgbench_accounts_pkey |       2246197248

 2017-02-04 08:37:11.536286+01 | 1486193831.53629 | pgbench_branches_pkey |          1826816
 2017-02-04 08:37:11.536286+01 | 1486193831.53629 | pgbench_tellers_pkey  |          7118848
 2017-02-04 08:37:11.536286+01 | 1486193831.53629 | pgbench_accounts_pkey |       2246197248

 2017-02-04 08:37:12.608397+01 | 1486193832.6084 | pgbench_branches_pkey |          1826816
 2017-02-04 08:37:12.608397+01 | 1486193832.6084 | pgbench_tellers_pkey  |          7118848
 2017-02-04 08:37:12.608397+01 | 1486193832.6084 | pgbench_accounts_pkey |       2246197248

 2017-02-04 08:37:13.683321+01 | 1486193833.68332 | pgbench_branches_pkey |          1826816
 2017-02-04 08:37:13.683321+01 | 1486193833.68332 | pgbench_tellers_pkey  |          7118848
 2017-02-04 08:37:13.683321+01 | 1486193833.68332 | pgbench_accounts_pkey |       2246197248

 2017-02-04 08:37:14.764348+01 | 1486193834.76435 | pgbench_branches_pkey |          1826816
 2017-02-04 08:37:14.764348+01 | 1486193834.76435 | pgbench_tellers_pkey  |          7118848
 2017-02-04 08:37:14.764348+01 | 1486193834.76435 | pgbench_accounts_pkey |       2246197248

 2017-02-04 08:37:15.844003+01 | 1486193835.844 | pgbench_branches_pkey |          1826816
 2017-02-04 08:37:15.844003+01 | 1486193835.844 | pgbench_tellers_pkey  |          7118848
 2017-02-04 08:37:15.844003+01 | 1486193835.844 | pgbench_accounts_pkey |       2246197248

 2017-02-04 08:37:16.920926+01 | 1486193836.92093 | pgbench_branches_pkey |          1826816
 2017-02-04 08:37:16.920926+01 | 1486193836.92093 | pgbench_tellers_pkey  |          7118848
 2017-02-04 08:37:16.920926+01 | 1486193836.92093 | pgbench_accounts_pkey |       2246197248

 2017-02-04 08:37:18.005141+01 | 1486193838.00514 | pgbench_branches_pkey |          1826816
 2017-02-04 08:37:18.005141+01 | 1486193838.00514 | pgbench_tellers_pkey  |          7118848
 2017-02-04 08:37:18.005141+01 | 1486193838.00514 | pgbench_accounts_pkey |       2246197248

 2017-02-04 08:37:19.084766+01 | 1486193839.08477 | pgbench_branches_pkey |          1826816
 2017-02-04 08:37:19.084766+01 | 1486193839.08477 | pgbench_tellers_pkey  |          7118848
 2017-02-04 08:37:19.084766+01 | 1486193839.08477 | pgbench_accounts_pkey |       2246197248

 2017-02-04 08:37:20.155248+01 | 1486193840.15525 | pgbench_branches_pkey |          1826816
 2017-02-04 08:37:20.155248+01 | 1486193840.15525 | pgbench_tellers_pkey  |          7118848
 2017-02-04 08:37:20.155248+01 | 1486193840.15525 | pgbench_accounts_pkey |       2246197248

 2017-02-04 08:37:21.231097+01 | 1486193841.2311 | pgbench_branches_pkey |          1826816
 2017-02-04 08:37:21.231097+01 | 1486193841.2311 | pgbench_tellers_pkey  |          7118848
 2017-02-04 08:37:21.231097+01 | 1486193841.2311 | pgbench_accounts_pkey |       2246197248

 2017-02-04 08:37:22.306815+01 | 1486193842.30681 | pgbench_branches_pkey |          1826816
 2017-02-04 08:37:22.306815+01 | 1486193842.30681 | pgbench_tellers_pkey  |          7118848
 2017-02-04 08:37:22.306815+01 | 1486193842.30681 | pgbench_accounts_pkey |       2246197248

 2017-02-04 08:37:23.38237+01 | 1486193843.38237 | pgbench_branches_pkey |          1826816
 2017-02-04 08:37:23.38237+01 | 1486193843.38237 | pgbench_tellers_pkey  |          7118848
 2017-02-04 08:37:23.38237+01 | 1486193843.38237 | pgbench_accounts_pkey |       2246197248

 2017-02-04 08:37:24.476243+01 | 1486193844.47624 | pgbench_branches_pkey |          1826816
 2017-02-04 08:37:24.476243+01 | 1486193844.47624 | pgbench_tellers_pkey  |          7118848
 2017-02-04 08:37:24.476243+01 | 1486193844.47624 | pgbench_accounts_pkey |       2246197248

 2017-02-04 08:37:25.549525+01 | 1486193845.54953 | pgbench_branches_pkey |          1826816
 2017-02-04 08:37:25.549525+01 | 1486193845.54953 | pgbench_tellers_pkey  |          7118848
 2017-02-04 08:37:25.549525+01 | 1486193845.54953 | pgbench_accounts_pkey |       2246197248

 2017-02-04 08:37:26.620019+01 | 1486193846.62002 | pgbench_branches_pkey |          1826816
 2017-02-04 08:37:26.620019+01 | 1486193846.62002 | pgbench_tellers_pkey  |          7118848
 2017-02-04 08:37:26.620019+01 | 1486193846.62002 | pgbench_accounts_pkey |       2246197248

 2017-02-04 08:37:27.690939+01 | 1486193847.69094 | pgbench_branches_pkey |          1826816
 2017-02-04 08:37:27.690939+01 | 1486193847.69094 | pgbench_tellers_pkey  |          7118848
 2017-02-04 08:37:27.690939+01 | 1486193847.69094 | pgbench_accounts_pkey |       2246197248

 2017-02-04 08:37:28.767607+01 | 1486193848.76761 | pgbench_branches_pkey |          1826816
 2017-02-04 08:37:28.767607+01 | 1486193848.76761 | pgbench_tellers_pkey  |          7118848
 2017-02-04 08:37:28.767607+01 | 1486193848.76761 | pgbench_accounts_pkey |       2246197248

 2017-02-04 08:37:29.844922+01 | 1486193849.84492 | pgbench_branches_pkey |          1826816
 2017-02-04 08:37:29.844922+01 | 1486193849.84492 | pgbench_tellers_pkey  |          7118848
 2017-02-04 08:37:29.844922+01 | 1486193849.84492 | pgbench_accounts_pkey |       2246197248

 2017-02-04 08:37:30.911871+01 | 1486193850.91187 | pgbench_branches_pkey |          1826816
 2017-02-04 08:37:30.911871+01 | 1486193850.91187 | pgbench_tellers_pkey  |          7118848
 2017-02-04 08:37:30.911871+01 | 1486193850.91187 | pgbench_accounts_pkey |       2246197248

 2017-02-04 08:37:31.981948+01 | 1486193851.98195 | pgbench_branches_pkey |          1826816
 2017-02-04 08:37:31.981948+01 | 1486193851.98195 | pgbench_tellers_pkey  |          7118848
 2017-02-04 08:37:31.981948+01 | 1486193851.98195 | pgbench_accounts_pkey |       2246197248

 2017-02-04 08:37:33.061755+01 | 1486193853.06175 | pgbench_branches_pkey |          1826816
 2017-02-04 08:37:33.061755+01 | 1486193853.06175 | pgbench_tellers_pkey  |          7118848
 2017-02-04 08:37:33.061755+01 | 1486193853.06175 | pgbench_accounts_pkey |       2246197248

 2017-02-04 08:37:34.138705+01 | 1486193854.13871 | pgbench_branches_pkey |          1826816
 2017-02-04 08:37:34.138705+01 | 1486193854.13871 | pgbench_tellers_pkey  |          7118848
 2017-02-04 08:37:34.138705+01 | 1486193854.13871 | pgbench_accounts_pkey |       2246197248

 2017-02-04 08:37:35.21647+01 | 1486193855.21647 | pgbench_branches_pkey |          1826816
 2017-02-04 08:37:35.21647+01 | 1486193855.21647 | pgbench_tellers_pkey  |          7118848
 2017-02-04 08:37:35.21647+01 | 1486193855.21647 | pgbench_accounts_pkey |       2246197248

 2017-02-04 08:37:36.295232+01 | 1486193856.29523 | pgbench_branches_pkey |          1826816
 2017-02-04 08:37:36.295232+01 | 1486193856.29523 | pgbench_tellers_pkey  |          7118848
 2017-02-04 08:37:36.295232+01 | 1486193856.29523 | pgbench_accounts_pkey |       2246197248

 2017-02-04 08:37:37.375016+01 | 1486193857.37502 | pgbench_branches_pkey |          1826816
 2017-02-04 08:37:37.375016+01 | 1486193857.37502 | pgbench_tellers_pkey  |          7118848
 2017-02-04 08:37:37.375016+01 | 1486193857.37502 | pgbench_accounts_pkey |       2246197248

 2017-02-04 08:37:38.45414+01 | 1486193858.45414 | pgbench_branches_pkey |          1826816
 2017-02-04 08:37:38.45414+01 | 1486193858.45414 | pgbench_tellers_pkey  |          7118848
 2017-02-04 08:37:38.45414+01 | 1486193858.45414 | pgbench_accounts_pkey |       2246197248

 2017-02-04 08:37:39.529337+01 | 1486193859.52934 | pgbench_branches_pkey |          1826816
 2017-02-04 08:37:39.529337+01 | 1486193859.52934 | pgbench_tellers_pkey  |          7118848
 2017-02-04 08:37:39.529337+01 | 1486193859.52934 | pgbench_accounts_pkey |       2246197248

 2017-02-04 08:37:40.624927+01 | 1486193860.62493 | pgbench_branches_pkey |          1826816
 2017-02-04 08:37:40.624927+01 | 1486193860.62493 | pgbench_tellers_pkey  |          7118848
 2017-02-04 08:37:40.624927+01 | 1486193860.62493 | pgbench_accounts_pkey |       2246197248

 2017-02-04 08:37:41.714623+01 | 1486193861.71462 | pgbench_branches_pkey |          1826816
 2017-02-04 08:37:41.714623+01 | 1486193861.71462 | pgbench_tellers_pkey  |          7118848
 2017-02-04 08:37:41.714623+01 | 1486193861.71462 | pgbench_accounts_pkey |       2246197248

 2017-02-04 08:37:42.792332+01 | 1486193862.79233 | pgbench_branches_pkey |          1826816
 2017-02-04 08:37:42.792332+01 | 1486193862.79233 | pgbench_tellers_pkey  |          7118848
 2017-02-04 08:37:42.792332+01 | 1486193862.79233 | pgbench_accounts_pkey |       2246197248

 2017-02-04 08:37:43.876305+01 | 1486193863.87631 | pgbench_branches_pkey |          1826816
 2017-02-04 08:37:43.876305+01 | 1486193863.87631 | pgbench_tellers_pkey  |          7118848
 2017-02-04 08:37:43.876305+01 | 1486193863.87631 | pgbench_accounts_pkey |       2246197248

 2017-02-04 08:37:44.959947+01 | 1486193864.95995 | pgbench_branches_pkey |          1826816
 2017-02-04 08:37:44.959947+01 | 1486193864.95995 | pgbench_tellers_pkey  |          7118848
 2017-02-04 08:37:44.959947+01 | 1486193864.95995 | pgbench_accounts_pkey |       2246197248

 2017-02-04 08:37:46.036592+01 | 1486193866.03659 | pgbench_branches_pkey |          1826816
 2017-02-04 08:37:46.036592+01 | 1486193866.03659 | pgbench_tellers_pkey  |          7118848
 2017-02-04 08:37:46.036592+01 | 1486193866.03659 | pgbench_accounts_pkey |       2246197248

 2017-02-04 08:37:47.120287+01 | 1486193867.12029 | pgbench_branches_pkey |          1826816
 2017-02-04 08:37:47.120287+01 | 1486193867.12029 | pgbench_tellers_pkey  |          7118848
 2017-02-04 08:37:47.120287+01 | 1486193867.12029 | pgbench_accounts_pkey |       2246197248

 2017-02-04 08:37:48.197154+01 | 1486193868.19715 | pgbench_branches_pkey |          1826816
 2017-02-04 08:37:48.197154+01 | 1486193868.19715 | pgbench_tellers_pkey  |          7118848
 2017-02-04 08:37:48.197154+01 | 1486193868.19715 | pgbench_accounts_pkey |       2246197248

 2017-02-04 08:37:49.272193+01 | 1486193869.27219 | pgbench_branches_pkey |          1826816
 2017-02-04 08:37:49.272193+01 | 1486193869.27219 | pgbench_tellers_pkey  |          7118848
 2017-02-04 08:37:49.272193+01 | 1486193869.27219 | pgbench_accounts_pkey |       2246197248

 2017-02-04 08:37:50.347461+01 | 1486193870.34746 | pgbench_branches_pkey |          1826816
 2017-02-04 08:37:50.347461+01 | 1486193870.34746 | pgbench_tellers_pkey  |          7118848
 2017-02-04 08:37:50.347461+01 | 1486193870.34746 | pgbench_accounts_pkey |       2246197248

 2017-02-04 08:37:51.422392+01 | 1486193871.42239 | pgbench_branches_pkey |          1826816
 2017-02-04 08:37:51.422392+01 | 1486193871.42239 | pgbench_tellers_pkey  |          7118848
 2017-02-04 08:37:51.422392+01 | 1486193871.42239 | pgbench_accounts_pkey |       2246197248

 2017-02-04 08:37:52.513782+01 | 1486193872.51378 | pgbench_branches_pkey |          1826816
 2017-02-04 08:37:52.513782+01 | 1486193872.51378 | pgbench_tellers_pkey  |          7118848
 2017-02-04 08:37:52.513782+01 | 1486193872.51378 | pgbench_accounts_pkey |       2246197248

 2017-02-04 08:37:53.5942+01 | 1486193873.5942 | pgbench_branches_pkey |          1826816
 2017-02-04 08:37:53.5942+01 | 1486193873.5942 | pgbench_tellers_pkey  |          7118848
 2017-02-04 08:37:53.5942+01 | 1486193873.5942 | pgbench_accounts_pkey |       2246197248

 2017-02-04 08:37:54.671118+01 | 1486193874.67112 | pgbench_branches_pkey |          1826816
 2017-02-04 08:37:54.671118+01 | 1486193874.67112 | pgbench_tellers_pkey  |          7118848
 2017-02-04 08:37:54.671118+01 | 1486193874.67112 | pgbench_accounts_pkey |       2246197248

 2017-02-04 08:37:55.753901+01 | 1486193875.7539 | pgbench_branches_pkey |          1826816
 2017-02-04 08:37:55.753901+01 | 1486193875.7539 | pgbench_tellers_pkey  |          7118848
 2017-02-04 08:37:55.753901+01 | 1486193875.7539 | pgbench_accounts_pkey |       2246197248

 2017-02-04 08:37:56.820713+01 | 1486193876.82071 | pgbench_branches_pkey |          1826816
 2017-02-04 08:37:56.820713+01 | 1486193876.82071 | pgbench_tellers_pkey  |          7118848
 2017-02-04 08:37:56.820713+01 | 1486193876.82071 | pgbench_accounts_pkey |       2246197248

 2017-02-04 08:37:57.90109+01 | 1486193877.90109 | pgbench_branches_pkey |          1826816
 2017-02-04 08:37:57.90109+01 | 1486193877.90109 | pgbench_tellers_pkey  |          7118848
 2017-02-04 08:37:57.90109+01 | 1486193877.90109 | pgbench_accounts_pkey |       2246197248

 2017-02-04 08:37:58.987836+01 | 1486193878.98784 | pgbench_branches_pkey |          1826816
 2017-02-04 08:37:58.987836+01 | 1486193878.98784 | pgbench_tellers_pkey  |          7118848
 2017-02-04 08:37:58.987836+01 | 1486193878.98784 | pgbench_accounts_pkey |       2246197248

 2017-02-04 08:38:00.075108+01 | 1486193880.07511 | pgbench_branches_pkey |          1826816
 2017-02-04 08:38:00.075108+01 | 1486193880.07511 | pgbench_tellers_pkey  |          7118848
 2017-02-04 08:38:00.075108+01 | 1486193880.07511 | pgbench_accounts_pkey |       2246197248

 2017-02-04 08:38:01.157765+01 | 1486193881.15776 | pgbench_branches_pkey |          1826816
 2017-02-04 08:38:01.157765+01 | 1486193881.15776 | pgbench_tellers_pkey  |          7118848
 2017-02-04 08:38:01.157765+01 | 1486193881.15776 | pgbench_accounts_pkey |       2246197248

 2017-02-04 08:38:02.243223+01 | 1486193882.24322 | pgbench_branches_pkey |          1826816
 2017-02-04 08:38:02.243223+01 | 1486193882.24322 | pgbench_tellers_pkey  |          7118848
 2017-02-04 08:38:02.243223+01 | 1486193882.24322 | pgbench_accounts_pkey |       2246197248

 2017-02-04 08:38:03.324506+01 | 1486193883.32451 | pgbench_branches_pkey |          1826816
 2017-02-04 08:38:03.324506+01 | 1486193883.32451 | pgbench_tellers_pkey  |          7118848
 2017-02-04 08:38:03.324506+01 | 1486193883.32451 | pgbench_accounts_pkey |       2246197248

 2017-02-04 08:38:04.407703+01 | 1486193884.4077 | pgbench_branches_pkey |          1826816
 2017-02-04 08:38:04.407703+01 | 1486193884.4077 | pgbench_tellers_pkey  |          7118848
 2017-02-04 08:38:04.407703+01 | 1486193884.4077 | pgbench_accounts_pkey |       2246197248

 2017-02-04 08:38:05.47469+01 | 1486193885.47469 | pgbench_branches_pkey |          1826816
 2017-02-04 08:38:05.47469+01 | 1486193885.47469 | pgbench_tellers_pkey  |          7118848
 2017-02-04 08:38:05.47469+01 | 1486193885.47469 | pgbench_accounts_pkey |       2246197248

 2017-02-04 08:38:06.551939+01 | 1486193886.55194 | pgbench_branches_pkey |          1826816
 2017-02-04 08:38:06.551939+01 | 1486193886.55194 | pgbench_tellers_pkey  |          7118848
 2017-02-04 08:38:06.551939+01 | 1486193886.55194 | pgbench_accounts_pkey |       2246197248

 2017-02-04 08:38:07.629765+01 | 1486193887.62977 | pgbench_branches_pkey |          1826816
 2017-02-04 08:38:07.629765+01 | 1486193887.62977 | pgbench_tellers_pkey  |          7118848
 2017-02-04 08:38:07.629765+01 | 1486193887.62977 | pgbench_accounts_pkey |       2246197248

 2017-02-04 08:38:08.727509+01 | 1486193888.72751 | pgbench_branches_pkey |          1826816
 2017-02-04 08:38:08.727509+01 | 1486193888.72751 | pgbench_tellers_pkey  |          7118848
 2017-02-04 08:38:08.727509+01 | 1486193888.72751 | pgbench_accounts_pkey |       2246197248

 2017-02-04 08:38:09.811301+01 | 1486193889.8113 | pgbench_branches_pkey |          1826816
 2017-02-04 08:38:09.811301+01 | 1486193889.8113 | pgbench_tellers_pkey  |          7118848
 2017-02-04 08:38:09.811301+01 | 1486193889.8113 | pgbench_accounts_pkey |       2246197248

 2017-02-04 08:38:10.886833+01 | 1486193890.88683 | pgbench_branches_pkey |          1826816
 2017-02-04 08:38:10.886833+01 | 1486193890.88683 | pgbench_tellers_pkey  |          7118848
 2017-02-04 08:38:10.886833+01 | 1486193890.88683 | pgbench_accounts_pkey |       2246197248

 2017-02-04 08:38:11.96572+01 | 1486193891.96572 | pgbench_branches_pkey |          1826816
 2017-02-04 08:38:11.96572+01 | 1486193891.96572 | pgbench_tellers_pkey  |          7118848
 2017-02-04 08:38:11.96572+01 | 1486193891.96572 | pgbench_accounts_pkey |       2246197248

 2017-02-04 08:38:13.041512+01 | 1486193893.04151 | pgbench_branches_pkey |          1826816
 2017-02-04 08:38:13.041512+01 | 1486193893.04151 | pgbench_tellers_pkey  |          7118848
 2017-02-04 08:38:13.041512+01 | 1486193893.04151 | pgbench_accounts_pkey |       2246197248

 2017-02-04 08:38:14.113577+01 | 1486193894.11358 | pgbench_branches_pkey |          1826816
 2017-02-04 08:38:14.113577+01 | 1486193894.11358 | pgbench_tellers_pkey  |          7118848
 2017-02-04 08:38:14.113577+01 | 1486193894.11358 | pgbench_accounts_pkey |       2246197248

 2017-02-04 08:38:15.193644+01 | 1486193895.19364 | pgbench_branches_pkey |          1826816
 2017-02-04 08:38:15.193644+01 | 1486193895.19364 | pgbench_tellers_pkey  |          7118848
 2017-02-04 08:38:15.193644+01 | 1486193895.19364 | pgbench_accounts_pkey |       2246197248

 2017-02-04 08:38:16.263284+01 | 1486193896.26328 | pgbench_branches_pkey |          1826816
 2017-02-04 08:38:16.263284+01 | 1486193896.26328 | pgbench_tellers_pkey  |          7118848
 2017-02-04 08:38:16.263284+01 | 1486193896.26328 | pgbench_accounts_pkey |       2246197248

 2017-02-04 08:38:17.344184+01 | 1486193897.34418 | pgbench_branches_pkey |          1826816
 2017-02-04 08:38:17.344184+01 | 1486193897.34418 | pgbench_tellers_pkey  |          7118848
 2017-02-04 08:38:17.344184+01 | 1486193897.34418 | pgbench_accounts_pkey |       2246197248

 2017-02-04 08:38:18.421653+01 | 1486193898.42165 | pgbench_branches_pkey |          1826816
 2017-02-04 08:38:18.421653+01 | 1486193898.42165 | pgbench_tellers_pkey  |          7118848
 2017-02-04 08:38:18.421653+01 | 1486193898.42165 | pgbench_accounts_pkey |       2246197248

 2017-02-04 08:38:19.502552+01 | 1486193899.50255 | pgbench_branches_pkey |          1826816
 2017-02-04 08:38:19.502552+01 | 1486193899.50255 | pgbench_tellers_pkey  |          7118848
 2017-02-04 08:38:19.502552+01 | 1486193899.50255 | pgbench_accounts_pkey |       2246197248

 2017-02-04 08:38:20.577672+01 | 1486193900.57767 | pgbench_branches_pkey |          1826816
 2017-02-04 08:38:20.577672+01 | 1486193900.57767 | pgbench_tellers_pkey  |          7118848
 2017-02-04 08:38:20.577672+01 | 1486193900.57767 | pgbench_accounts_pkey |       2246197248

 2017-02-04 08:38:21.660312+01 | 1486193901.66031 | pgbench_branches_pkey |          1826816
 2017-02-04 08:38:21.660312+01 | 1486193901.66031 | pgbench_tellers_pkey  |          7118848
 2017-02-04 08:38:21.660312+01 | 1486193901.66031 | pgbench_accounts_pkey |       2246197248

 2017-02-04 08:38:22.733116+01 | 1486193902.73312 | pgbench_branches_pkey |          1826816
 2017-02-04 08:38:22.733116+01 | 1486193902.73312 | pgbench_tellers_pkey  |          7118848
 2017-02-04 08:38:22.733116+01 | 1486193902.73312 | pgbench_accounts_pkey |       2246197248

 2017-02-04 08:38:23.809203+01 | 1486193903.8092 | pgbench_branches_pkey |          1826816
 2017-02-04 08:38:23.809203+01 | 1486193903.8092 | pgbench_tellers_pkey  |          7118848
 2017-02-04 08:38:23.809203+01 | 1486193903.8092 | pgbench_accounts_pkey |       2246197248

 2017-02-04 08:38:24.891545+01 | 1486193904.89155 | pgbench_branches_pkey |          1826816
 2017-02-04 08:38:24.891545+01 | 1486193904.89155 | pgbench_tellers_pkey  |          7118848
 2017-02-04 08:38:24.891545+01 | 1486193904.89155 | pgbench_accounts_pkey |       2246197248

 2017-02-04 08:38:25.973543+01 | 1486193905.97354 | pgbench_branches_pkey |          1826816
 2017-02-04 08:38:25.973543+01 | 1486193905.97354 | pgbench_tellers_pkey  |          7118848
 2017-02-04 08:38:25.973543+01 | 1486193905.97354 | pgbench_accounts_pkey |       2246197248

 2017-02-04 08:38:27.048794+01 | 1486193907.04879 | pgbench_branches_pkey |          1826816
 2017-02-04 08:38:27.048794+01 | 1486193907.04879 | pgbench_tellers_pkey  |          7118848
 2017-02-04 08:38:27.048794+01 | 1486193907.04879 | pgbench_accounts_pkey |       2246197248

 2017-02-04 08:38:28.131544+01 | 1486193908.13154 | pgbench_branches_pkey |          1826816
 2017-02-04 08:38:28.131544+01 | 1486193908.13154 | pgbench_tellers_pkey  |          7118848
 2017-02-04 08:38:28.131544+01 | 1486193908.13154 | pgbench_accounts_pkey |       2246197248

 2017-02-04 08:38:29.20731+01 | 1486193909.20731 | pgbench_branches_pkey |          1826816
 2017-02-04 08:38:29.20731+01 | 1486193909.20731 | pgbench_tellers_pkey  |          7118848
 2017-02-04 08:38:29.20731+01 | 1486193909.20731 | pgbench_accounts_pkey |       2246197248

 2017-02-04 08:38:30.282025+01 | 1486193910.28203 | pgbench_branches_pkey |          1826816
 2017-02-04 08:38:30.282025+01 | 1486193910.28203 | pgbench_tellers_pkey  |          7118848
 2017-02-04 08:38:30.282025+01 | 1486193910.28203 | pgbench_accounts_pkey |       2246197248

 2017-02-04 08:38:31.361389+01 | 1486193911.36139 | pgbench_branches_pkey |          1826816
 2017-02-04 08:38:31.361389+01 | 1486193911.36139 | pgbench_tellers_pkey  |          7118848
 2017-02-04 08:38:31.361389+01 | 1486193911.36139 | pgbench_accounts_pkey |       2246197248

 2017-02-04 08:38:32.44501+01 | 1486193912.44501 | pgbench_branches_pkey |          1826816
 2017-02-04 08:38:32.44501+01 | 1486193912.44501 | pgbench_tellers_pkey  |          7118848
 2017-02-04 08:38:32.44501+01 | 1486193912.44501 | pgbench_accounts_pkey |       2246197248

 2017-02-04 08:38:33.521983+01 | 1486193913.52198 | pgbench_branches_pkey |          1826816
 2017-02-04 08:38:33.521983+01 | 1486193913.52198 | pgbench_tellers_pkey  |          7118848
 2017-02-04 08:38:33.521983+01 | 1486193913.52198 | pgbench_accounts_pkey |       2246197248

 2017-02-04 08:38:34.59823+01 | 1486193914.59823 | pgbench_branches_pkey |          1826816
 2017-02-04 08:38:34.59823+01 | 1486193914.59823 | pgbench_tellers_pkey  |          7118848
 2017-02-04 08:38:34.59823+01 | 1486193914.59823 | pgbench_accounts_pkey |       2246197248

 2017-02-04 08:38:35.674462+01 | 1486193915.67446 | pgbench_branches_pkey |          1826816
 2017-02-04 08:38:35.674462+01 | 1486193915.67446 | pgbench_tellers_pkey  |          7118848
 2017-02-04 08:38:35.674462+01 | 1486193915.67446 | pgbench_accounts_pkey |       2246197248

 2017-02-04 08:38:36.751492+01 | 1486193916.75149 | pgbench_branches_pkey |          1826816
 2017-02-04 08:38:36.751492+01 | 1486193916.75149 | pgbench_tellers_pkey  |          7118848
 2017-02-04 08:38:36.751492+01 | 1486193916.75149 | pgbench_accounts_pkey |       2246197248

 2017-02-04 08:38:37.828462+01 | 1486193917.82846 | pgbench_branches_pkey |          1826816
 2017-02-04 08:38:37.828462+01 | 1486193917.82846 | pgbench_tellers_pkey  |          7118848
 2017-02-04 08:38:37.828462+01 | 1486193917.82846 | pgbench_accounts_pkey |       2246197248

 2017-02-04 08:38:38.914215+01 | 1486193918.91422 | pgbench_branches_pkey |          1826816
 2017-02-04 08:38:38.914215+01 | 1486193918.91422 | pgbench_tellers_pkey  |          7118848
 2017-02-04 08:38:38.914215+01 | 1486193918.91422 | pgbench_accounts_pkey |       2246197248

 2017-02-04 08:38:40.004164+01 | 1486193920.00416 | pgbench_branches_pkey |          1826816
 2017-02-04 08:38:40.004164+01 | 1486193920.00416 | pgbench_tellers_pkey  |          7118848
 2017-02-04 08:38:40.004164+01 | 1486193920.00416 | pgbench_accounts_pkey |       2246197248

 2017-02-04 08:38:41.083908+01 | 1486193921.08391 | pgbench_branches_pkey |          1826816
 2017-02-04 08:38:41.083908+01 | 1486193921.08391 | pgbench_tellers_pkey  |          7118848
 2017-02-04 08:38:41.083908+01 | 1486193921.08391 | pgbench_accounts_pkey |       2246197248

 2017-02-04 08:38:42.163037+01 | 1486193922.16304 | pgbench_branches_pkey |          1826816
 2017-02-04 08:38:42.163037+01 | 1486193922.16304 | pgbench_tellers_pkey  |          7118848
 2017-02-04 08:38:42.163037+01 | 1486193922.16304 | pgbench_accounts_pkey |       2246197248

 2017-02-04 08:38:43.239513+01 | 1486193923.23951 | pgbench_branches_pkey |          1826816
 2017-02-04 08:38:43.239513+01 | 1486193923.23951 | pgbench_tellers_pkey  |          7118848
 2017-02-04 08:38:43.239513+01 | 1486193923.23951 | pgbench_accounts_pkey |       2246197248

 2017-02-04 08:38:44.314088+01 | 1486193924.31409 | pgbench_branches_pkey |          1826816
 2017-02-04 08:38:44.314088+01 | 1486193924.31409 | pgbench_tellers_pkey  |          7118848
 2017-02-04 08:38:44.314088+01 | 1486193924.31409 | pgbench_accounts_pkey |       2246197248

 2017-02-04 08:38:45.399279+01 | 1486193925.39928 | pgbench_branches_pkey |          1826816
 2017-02-04 08:38:45.399279+01 | 1486193925.39928 | pgbench_tellers_pkey  |          7118848
 2017-02-04 08:38:45.399279+01 | 1486193925.39928 | pgbench_accounts_pkey |       2246197248

 2017-02-04 08:38:46.475179+01 | 1486193926.47518 | pgbench_branches_pkey |          1826816
 2017-02-04 08:38:46.475179+01 | 1486193926.47518 | pgbench_tellers_pkey  |          7118848
 2017-02-04 08:38:46.475179+01 | 1486193926.47518 | pgbench_accounts_pkey |       2246197248

 2017-02-04 08:38:47.54936+01 | 1486193927.54936 | pgbench_branches_pkey |          1826816
 2017-02-04 08:38:47.54936+01 | 1486193927.54936 | pgbench_tellers_pkey  |          7118848
 2017-02-04 08:38:47.54936+01 | 1486193927.54936 | pgbench_accounts_pkey |       2246197248

 2017-02-04 08:38:48.627393+01 | 1486193928.62739 | pgbench_branches_pkey |          1826816
 2017-02-04 08:38:48.627393+01 | 1486193928.62739 | pgbench_tellers_pkey  |          7118848
 2017-02-04 08:38:48.627393+01 | 1486193928.62739 | pgbench_accounts_pkey |       2246197248

 2017-02-04 08:38:49.720349+01 | 1486193929.72035 | pgbench_branches_pkey |          1826816
 2017-02-04 08:38:49.720349+01 | 1486193929.72035 | pgbench_tellers_pkey  |          7118848
 2017-02-04 08:38:49.720349+01 | 1486193929.72035 | pgbench_accounts_pkey |       2246197248

 2017-02-04 08:38:50.799636+01 | 1486193930.79964 | pgbench_branches_pkey |          1826816
 2017-02-04 08:38:50.799636+01 | 1486193930.79964 | pgbench_tellers_pkey  |          7118848
 2017-02-04 08:38:50.799636+01 | 1486193930.79964 | pgbench_accounts_pkey |       2246197248

 2017-02-04 08:38:51.876257+01 | 1486193931.87626 | pgbench_branches_pkey |          1826816
 2017-02-04 08:38:51.876257+01 | 1486193931.87626 | pgbench_tellers_pkey  |          7118848
 2017-02-04 08:38:51.876257+01 | 1486193931.87626 | pgbench_accounts_pkey |       2246197248

 2017-02-04 08:38:52.966785+01 | 1486193932.96678 | pgbench_branches_pkey |          1826816
 2017-02-04 08:38:52.966785+01 | 1486193932.96678 | pgbench_tellers_pkey  |          7118848
 2017-02-04 08:38:52.966785+01 | 1486193932.96678 | pgbench_accounts_pkey |       2246197248

 2017-02-04 08:38:54.042132+01 | 1486193934.04213 | pgbench_branches_pkey |          1826816
 2017-02-04 08:38:54.042132+01 | 1486193934.04213 | pgbench_tellers_pkey  |          7118848
 2017-02-04 08:38:54.042132+01 | 1486193934.04213 | pgbench_accounts_pkey |       2246197248

 2017-02-04 08:38:55.126848+01 | 1486193935.12685 | pgbench_branches_pkey |          1826816
 2017-02-04 08:38:55.126848+01 | 1486193935.12685 | pgbench_tellers_pkey  |          7118848
 2017-02-04 08:38:55.126848+01 | 1486193935.12685 | pgbench_accounts_pkey |       2246197248

 2017-02-04 08:38:56.203677+01 | 1486193936.20368 | pgbench_branches_pkey |          1826816
 2017-02-04 08:38:56.203677+01 | 1486193936.20368 | pgbench_tellers_pkey  |          7118848
 2017-02-04 08:38:56.203677+01 | 1486193936.20368 | pgbench_accounts_pkey |       2246197248

 2017-02-04 08:38:57.274433+01 | 1486193937.27443 | pgbench_branches_pkey |          1826816
 2017-02-04 08:38:57.274433+01 | 1486193937.27443 | pgbench_tellers_pkey  |          7118848
 2017-02-04 08:38:57.274433+01 | 1486193937.27443 | pgbench_accounts_pkey |       2246197248

 2017-02-04 08:38:58.346898+01 | 1486193938.3469 | pgbench_branches_pkey |          1826816
 2017-02-04 08:38:58.346898+01 | 1486193938.3469 | pgbench_tellers_pkey  |          7118848
 2017-02-04 08:38:58.346898+01 | 1486193938.3469 | pgbench_accounts_pkey |       2246197248

 2017-02-04 08:38:59.420957+01 | 1486193939.42096 | pgbench_branches_pkey |          1826816
 2017-02-04 08:38:59.420957+01 | 1486193939.42096 | pgbench_tellers_pkey  |          7118848
 2017-02-04 08:38:59.420957+01 | 1486193939.42096 | pgbench_accounts_pkey |       2246197248

 2017-02-04 08:39:00.491754+01 | 1486193940.49175 | pgbench_branches_pkey |          1826816
 2017-02-04 08:39:00.491754+01 | 1486193940.49175 | pgbench_tellers_pkey  |          7118848
 2017-02-04 08:39:00.491754+01 | 1486193940.49175 | pgbench_accounts_pkey |       2246197248

 2017-02-04 08:39:01.566754+01 | 1486193941.56675 | pgbench_branches_pkey |          1826816
 2017-02-04 08:39:01.566754+01 | 1486193941.56675 | pgbench_tellers_pkey  |          7118848
 2017-02-04 08:39:01.566754+01 | 1486193941.56675 | pgbench_accounts_pkey |       2246197248

 2017-02-04 08:39:02.638814+01 | 1486193942.63881 | pgbench_branches_pkey |          1826816
 2017-02-04 08:39:02.638814+01 | 1486193942.63881 | pgbench_tellers_pkey  |          7118848
 2017-02-04 08:39:02.638814+01 | 1486193942.63881 | pgbench_accounts_pkey |       2246197248

 2017-02-04 08:39:03.708632+01 | 1486193943.70863 | pgbench_branches_pkey |          1826816
 2017-02-04 08:39:03.708632+01 | 1486193943.70863 | pgbench_tellers_pkey  |          7118848
 2017-02-04 08:39:03.708632+01 | 1486193943.70863 | pgbench_accounts_pkey |       2246197248

 2017-02-04 08:39:04.795712+01 | 1486193944.79571 | pgbench_branches_pkey |          1826816
 2017-02-04 08:39:04.795712+01 | 1486193944.79571 | pgbench_tellers_pkey  |          7118848
 2017-02-04 08:39:04.795712+01 | 1486193944.79571 | pgbench_accounts_pkey |       2246197248

 2017-02-04 08:39:05.875461+01 | 1486193945.87546 | pgbench_branches_pkey |          1826816
 2017-02-04 08:39:05.875461+01 | 1486193945.87546 | pgbench_tellers_pkey  |          7118848
 2017-02-04 08:39:05.875461+01 | 1486193945.87546 | pgbench_accounts_pkey |       2246197248

 2017-02-04 08:39:06.960816+01 | 1486193946.96082 | pgbench_branches_pkey |          1826816
 2017-02-04 08:39:06.960816+01 | 1486193946.96082 | pgbench_tellers_pkey  |          7118848
 2017-02-04 08:39:06.960816+01 | 1486193946.96082 | pgbench_accounts_pkey |       2246197248

 2017-02-04 08:39:08.044695+01 | 1486193948.04469 | pgbench_branches_pkey |          1826816
 2017-02-04 08:39:08.044695+01 | 1486193948.04469 | pgbench_tellers_pkey  |          7118848
 2017-02-04 08:39:08.044695+01 | 1486193948.04469 | pgbench_accounts_pkey |       2246197248

 2017-02-04 08:39:09.123947+01 | 1486193949.12395 | pgbench_branches_pkey |          1826816
 2017-02-04 08:39:09.123947+01 | 1486193949.12395 | pgbench_tellers_pkey  |          7118848
 2017-02-04 08:39:09.123947+01 | 1486193949.12395 | pgbench_accounts_pkey |       2246197248

 2017-02-04 08:39:10.196076+01 | 1486193950.19608 | pgbench_branches_pkey |          1826816
 2017-02-04 08:39:10.196076+01 | 1486193950.19608 | pgbench_tellers_pkey  |          7118848
 2017-02-04 08:39:10.196076+01 | 1486193950.19608 | pgbench_accounts_pkey |       2246197248

 2017-02-04 08:39:11.274836+01 | 1486193951.27484 | pgbench_branches_pkey |          1826816
 2017-02-04 08:39:11.274836+01 | 1486193951.27484 | pgbench_tellers_pkey  |          7118848
 2017-02-04 08:39:11.274836+01 | 1486193951.27484 | pgbench_accounts_pkey |       2246197248

 2017-02-04 08:39:12.353161+01 | 1486193952.35316 | pgbench_branches_pkey |          1826816
 2017-02-04 08:39:12.353161+01 | 1486193952.35316 | pgbench_tellers_pkey  |          7118848
 2017-02-04 08:39:12.353161+01 | 1486193952.35316 | pgbench_accounts_pkey |       2246197248

 2017-02-04 08:39:13.432341+01 | 1486193953.43234 | pgbench_branches_pkey |          1826816
 2017-02-04 08:39:13.432341+01 | 1486193953.43234 | pgbench_tellers_pkey  |          7118848
 2017-02-04 08:39:13.432341+01 | 1486193953.43234 | pgbench_accounts_pkey |       2246197248

 2017-02-04 08:39:14.517256+01 | 1486193954.51726 | pgbench_branches_pkey |          1826816
 2017-02-04 08:39:14.517256+01 | 1486193954.51726 | pgbench_tellers_pkey  |          7118848
 2017-02-04 08:39:14.517256+01 | 1486193954.51726 | pgbench_accounts_pkey |       2246197248

 2017-02-04 08:39:15.602426+01 | 1486193955.60243 | pgbench_branches_pkey |          1826816
 2017-02-04 08:39:15.602426+01 | 1486193955.60243 | pgbench_tellers_pkey  |          7118848
 2017-02-04 08:39:15.602426+01 | 1486193955.60243 | pgbench_accounts_pkey |       2246197248

 2017-02-04 08:39:16.678868+01 | 1486193956.67887 | pgbench_branches_pkey |          1826816
 2017-02-04 08:39:16.678868+01 | 1486193956.67887 | pgbench_tellers_pkey  |          7118848
 2017-02-04 08:39:16.678868+01 | 1486193956.67887 | pgbench_accounts_pkey |       2246197248

 2017-02-04 08:39:17.754405+01 | 1486193957.75441 | pgbench_branches_pkey |          1826816
 2017-02-04 08:39:17.754405+01 | 1486193957.75441 | pgbench_tellers_pkey  |          7118848
 2017-02-04 08:39:17.754405+01 | 1486193957.75441 | pgbench_accounts_pkey |       2246197248

 2017-02-04 08:39:18.82997+01 | 1486193958.82997 | pgbench_branches_pkey |          1826816
 2017-02-04 08:39:18.82997+01 | 1486193958.82997 | pgbench_tellers_pkey  |          7118848
 2017-02-04 08:39:18.82997+01 | 1486193958.82997 | pgbench_accounts_pkey |       2246197248

 2017-02-04 08:39:19.911505+01 | 1486193959.9115 | pgbench_branches_pkey |          1826816
 2017-02-04 08:39:19.911505+01 | 1486193959.9115 | pgbench_tellers_pkey  |          7118848
 2017-02-04 08:39:19.911505+01 | 1486193959.9115 | pgbench_accounts_pkey |       2246197248

 2017-02-04 08:39:20.991129+01 | 1486193960.99113 | pgbench_branches_pkey |          1826816
 2017-02-04 08:39:20.991129+01 | 1486193960.99113 | pgbench_tellers_pkey  |          7118848
 2017-02-04 08:39:20.991129+01 | 1486193960.99113 | pgbench_accounts_pkey |       2246197248

 2017-02-04 08:39:22.073676+01 | 1486193962.07368 | pgbench_branches_pkey |          1826816
 2017-02-04 08:39:22.073676+01 | 1486193962.07368 | pgbench_tellers_pkey  |          7118848
 2017-02-04 08:39:22.073676+01 | 1486193962.07368 | pgbench_accounts_pkey |       2246197248

 2017-02-04 08:39:23.1539+01 | 1486193963.1539 | pgbench_branches_pkey |          1826816
 2017-02-04 08:39:23.1539+01 | 1486193963.1539 | pgbench_tellers_pkey  |          7118848
 2017-02-04 08:39:23.1539+01 | 1486193963.1539 | pgbench_accounts_pkey |       2246197248

 2017-02-04 08:39:24.237568+01 | 1486193964.23757 | pgbench_branches_pkey |          1826816
 2017-02-04 08:39:24.237568+01 | 1486193964.23757 | pgbench_tellers_pkey  |          7118848
 2017-02-04 08:39:24.237568+01 | 1486193964.23757 | pgbench_accounts_pkey |       2246197248

 2017-02-04 08:39:25.320134+01 | 1486193965.32013 | pgbench_branches_pkey |          1826816
 2017-02-04 08:39:25.320134+01 | 1486193965.32013 | pgbench_tellers_pkey  |          7118848
 2017-02-04 08:39:25.320134+01 | 1486193965.32013 | pgbench_accounts_pkey |       2246197248

 2017-02-04 08:39:26.395079+01 | 1486193966.39508 | pgbench_branches_pkey |          1826816
 2017-02-04 08:39:26.395079+01 | 1486193966.39508 | pgbench_tellers_pkey  |          7118848
 2017-02-04 08:39:26.395079+01 | 1486193966.39508 | pgbench_accounts_pkey |       2246197248

 2017-02-04 08:39:27.474243+01 | 1486193967.47424 | pgbench_branches_pkey |          1826816
 2017-02-04 08:39:27.474243+01 | 1486193967.47424 | pgbench_tellers_pkey  |          7118848
 2017-02-04 08:39:27.474243+01 | 1486193967.47424 | pgbench_accounts_pkey |       2246197248

 2017-02-04 08:39:28.561788+01 | 1486193968.56179 | pgbench_branches_pkey |          1826816
 2017-02-04 08:39:28.561788+01 | 1486193968.56179 | pgbench_tellers_pkey  |          7118848
 2017-02-04 08:39:28.561788+01 | 1486193968.56179 | pgbench_accounts_pkey |       2246197248

 2017-02-04 08:39:29.645954+01 | 1486193969.64595 | pgbench_branches_pkey |          1826816
 2017-02-04 08:39:29.645954+01 | 1486193969.64595 | pgbench_tellers_pkey  |          7118848
 2017-02-04 08:39:29.645954+01 | 1486193969.64595 | pgbench_accounts_pkey |       2246197248

 2017-02-04 08:39:30.721766+01 | 1486193970.72177 | pgbench_branches_pkey |          1826816
 2017-02-04 08:39:30.721766+01 | 1486193970.72177 | pgbench_tellers_pkey  |          7118848
 2017-02-04 08:39:30.721766+01 | 1486193970.72177 | pgbench_accounts_pkey |       2246197248

 2017-02-04 08:39:31.806141+01 | 1486193971.80614 | pgbench_branches_pkey |          1826816
 2017-02-04 08:39:31.806141+01 | 1486193971.80614 | pgbench_tellers_pkey  |          7118848
 2017-02-04 08:39:31.806141+01 | 1486193971.80614 | pgbench_accounts_pkey |       2246197248

 2017-02-04 08:39:32.888383+01 | 1486193972.88838 | pgbench_branches_pkey |          1826816
 2017-02-04 08:39:32.888383+01 | 1486193972.88838 | pgbench_tellers_pkey  |          7118848
 2017-02-04 08:39:32.888383+01 | 1486193972.88838 | pgbench_accounts_pkey |       2246197248

 2017-02-04 08:39:33.97086+01 | 1486193973.97086 | pgbench_branches_pkey |          1826816
 2017-02-04 08:39:33.97086+01 | 1486193973.97086 | pgbench_tellers_pkey  |          7118848
 2017-02-04 08:39:33.97086+01 | 1486193973.97086 | pgbench_accounts_pkey |       2246197248

 2017-02-04 08:39:35.050181+01 | 1486193975.05018 | pgbench_branches_pkey |          1826816
 2017-02-04 08:39:35.050181+01 | 1486193975.05018 | pgbench_tellers_pkey  |          7118848
 2017-02-04 08:39:35.050181+01 | 1486193975.05018 | pgbench_accounts_pkey |       2246197248

 2017-02-04 08:39:36.134487+01 | 1486193976.13449 | pgbench_branches_pkey |          1826816
 2017-02-04 08:39:36.134487+01 | 1486193976.13449 | pgbench_tellers_pkey  |          7118848
 2017-02-04 08:39:36.134487+01 | 1486193976.13449 | pgbench_accounts_pkey |       2246197248

 2017-02-04 08:39:37.213352+01 | 1486193977.21335 | pgbench_branches_pkey |          1826816
 2017-02-04 08:39:37.213352+01 | 1486193977.21335 | pgbench_tellers_pkey  |          7118848
 2017-02-04 08:39:37.213352+01 | 1486193977.21335 | pgbench_accounts_pkey |       2246197248

 2017-02-04 08:39:38.288703+01 | 1486193978.2887 | pgbench_branches_pkey |          1826816
 2017-02-04 08:39:38.288703+01 | 1486193978.2887 | pgbench_tellers_pkey  |          7118848
 2017-02-04 08:39:38.288703+01 | 1486193978.2887 | pgbench_accounts_pkey |       2246197248

 2017-02-04 08:39:39.362546+01 | 1486193979.36255 | pgbench_branches_pkey |          1826816
 2017-02-04 08:39:39.362546+01 | 1486193979.36255 | pgbench_tellers_pkey  |          7118848
 2017-02-04 08:39:39.362546+01 | 1486193979.36255 | pgbench_accounts_pkey |       2246197248

 2017-02-04 08:39:40.434904+01 | 1486193980.4349 | pgbench_branches_pkey |          1826816
 2017-02-04 08:39:40.434904+01 | 1486193980.4349 | pgbench_tellers_pkey  |          7118848
 2017-02-04 08:39:40.434904+01 | 1486193980.4349 | pgbench_accounts_pkey |       2246197248

 2017-02-04 08:39:41.511879+01 | 1486193981.51188 | pgbench_branches_pkey |          1826816
 2017-02-04 08:39:41.511879+01 | 1486193981.51188 | pgbench_tellers_pkey  |          7118848
 2017-02-04 08:39:41.511879+01 | 1486193981.51188 | pgbench_accounts_pkey |       2246197248

 2017-02-04 08:39:42.588109+01 | 1486193982.58811 | pgbench_branches_pkey |          1826816
 2017-02-04 08:39:42.588109+01 | 1486193982.58811 | pgbench_tellers_pkey  |          7118848
 2017-02-04 08:39:42.588109+01 | 1486193982.58811 | pgbench_accounts_pkey |       2246197248

 2017-02-04 08:39:43.666018+01 | 1486193983.66602 | pgbench_branches_pkey |          1826816
 2017-02-04 08:39:43.666018+01 | 1486193983.66602 | pgbench_tellers_pkey  |          7118848
 2017-02-04 08:39:43.666018+01 | 1486193983.66602 | pgbench_accounts_pkey |       2246197248

 2017-02-04 08:39:44.748957+01 | 1486193984.74896 | pgbench_branches_pkey |          1826816
 2017-02-04 08:39:44.748957+01 | 1486193984.74896 | pgbench_tellers_pkey  |          7118848
 2017-02-04 08:39:44.748957+01 | 1486193984.74896 | pgbench_accounts_pkey |       2246197248

 2017-02-04 08:39:45.833086+01 | 1486193985.83309 | pgbench_branches_pkey |          1826816
 2017-02-04 08:39:45.833086+01 | 1486193985.83309 | pgbench_tellers_pkey  |          7118848
 2017-02-04 08:39:45.833086+01 | 1486193985.83309 | pgbench_accounts_pkey |       2246197248

 2017-02-04 08:39:46.914835+01 | 1486193986.91483 | pgbench_branches_pkey |          1826816
 2017-02-04 08:39:46.914835+01 | 1486193986.91483 | pgbench_tellers_pkey  |          7118848
 2017-02-04 08:39:46.914835+01 | 1486193986.91483 | pgbench_accounts_pkey |       2246197248

 2017-02-04 08:39:47.998385+01 | 1486193987.99838 | pgbench_branches_pkey |          1826816
 2017-02-04 08:39:47.998385+01 | 1486193987.99838 | pgbench_tellers_pkey  |          7118848
 2017-02-04 08:39:47.998385+01 | 1486193987.99838 | pgbench_accounts_pkey |       2246197248

 2017-02-04 08:39:49.081547+01 | 1486193989.08155 | pgbench_branches_pkey |          1826816
 2017-02-04 08:39:49.081547+01 | 1486193989.08155 | pgbench_tellers_pkey  |          7118848
 2017-02-04 08:39:49.081547+01 | 1486193989.08155 | pgbench_accounts_pkey |       2246197248

 2017-02-04 08:39:50.163371+01 | 1486193990.16337 | pgbench_branches_pkey |          1826816
 2017-02-04 08:39:50.163371+01 | 1486193990.16337 | pgbench_tellers_pkey  |          7118848
 2017-02-04 08:39:50.163371+01 | 1486193990.16337 | pgbench_accounts_pkey |       2246197248

 2017-02-04 08:39:51.244476+01 | 1486193991.24448 | pgbench_branches_pkey |          1826816
 2017-02-04 08:39:51.244476+01 | 1486193991.24448 | pgbench_tellers_pkey  |          7118848
 2017-02-04 08:39:51.244476+01 | 1486193991.24448 | pgbench_accounts_pkey |       2246197248

 2017-02-04 08:39:52.326925+01 | 1486193992.32693 | pgbench_branches_pkey |          1826816
 2017-02-04 08:39:52.326925+01 | 1486193992.32693 | pgbench_tellers_pkey  |          7118848
 2017-02-04 08:39:52.326925+01 | 1486193992.32693 | pgbench_accounts_pkey |       2246197248

 2017-02-04 08:39:53.405595+01 | 1486193993.4056 | pgbench_branches_pkey |          1826816
 2017-02-04 08:39:53.405595+01 | 1486193993.4056 | pgbench_tellers_pkey  |          7118848
 2017-02-04 08:39:53.405595+01 | 1486193993.4056 | pgbench_accounts_pkey |       2246197248

 2017-02-04 08:39:54.484454+01 | 1486193994.48445 | pgbench_branches_pkey |          1826816
 2017-02-04 08:39:54.484454+01 | 1486193994.48445 | pgbench_tellers_pkey  |          7118848
 2017-02-04 08:39:54.484454+01 | 1486193994.48445 | pgbench_accounts_pkey |       2246197248

 2017-02-04 08:39:55.559723+01 | 1486193995.55972 | pgbench_branches_pkey |          1826816
 2017-02-04 08:39:55.559723+01 | 1486193995.55972 | pgbench_tellers_pkey  |          7118848
 2017-02-04 08:39:55.559723+01 | 1486193995.55972 | pgbench_accounts_pkey |       2246197248

 2017-02-04 08:39:56.63442+01 | 1486193996.63442 | pgbench_branches_pkey |          1826816
 2017-02-04 08:39:56.63442+01 | 1486193996.63442 | pgbench_tellers_pkey  |          7118848
 2017-02-04 08:39:56.63442+01 | 1486193996.63442 | pgbench_accounts_pkey |       2246197248

 2017-02-04 08:39:57.71088+01 | 1486193997.71088 | pgbench_branches_pkey |          1826816
 2017-02-04 08:39:57.71088+01 | 1486193997.71088 | pgbench_tellers_pkey  |          7118848
 2017-02-04 08:39:57.71088+01 | 1486193997.71088 | pgbench_accounts_pkey |       2246197248

 2017-02-04 08:39:58.786116+01 | 1486193998.78612 | pgbench_branches_pkey |          1826816
 2017-02-04 08:39:58.786116+01 | 1486193998.78612 | pgbench_tellers_pkey  |          7118848
 2017-02-04 08:39:58.786116+01 | 1486193998.78612 | pgbench_accounts_pkey |       2246197248

 2017-02-04 08:39:59.867476+01 | 1486193999.86748 | pgbench_branches_pkey |          1826816
 2017-02-04 08:39:59.867476+01 | 1486193999.86748 | pgbench_tellers_pkey  |          7118848
 2017-02-04 08:39:59.867476+01 | 1486193999.86748 | pgbench_accounts_pkey |       2246197248

