 2017-02-06 12:13:54.91709+01 | 1486379634.91709 | pgbench_branches_pkey |            57344
 2017-02-06 12:13:54.91709+01 | 1486379634.91709 | pgbench_tellers_pkey  |           188416
 2017-02-06 12:13:54.91709+01 | 1486379634.91709 | pgbench_accounts_pkey |        224641024

 2017-02-06 12:13:56.007151+01 | 1486379636.00715 | pgbench_branches_pkey |            57344
 2017-02-06 12:13:56.007151+01 | 1486379636.00715 | pgbench_tellers_pkey  |           188416
 2017-02-06 12:13:56.007151+01 | 1486379636.00715 | pgbench_accounts_pkey |        224641024

 2017-02-06 12:13:57.0912+01 | 1486379637.0912 | pgbench_branches_pkey |            57344
 2017-02-06 12:13:57.0912+01 | 1486379637.0912 | pgbench_tellers_pkey  |           188416
 2017-02-06 12:13:57.0912+01 | 1486379637.0912 | pgbench_accounts_pkey |        224641024

 2017-02-06 12:13:58.170543+01 | 1486379638.17054 | pgbench_branches_pkey |            57344
 2017-02-06 12:13:58.170543+01 | 1486379638.17054 | pgbench_tellers_pkey  |           188416
 2017-02-06 12:13:58.170543+01 | 1486379638.17054 | pgbench_accounts_pkey |        224641024

 2017-02-06 12:13:59.258315+01 | 1486379639.25832 | pgbench_branches_pkey |            57344
 2017-02-06 12:13:59.258315+01 | 1486379639.25832 | pgbench_tellers_pkey  |           188416
 2017-02-06 12:13:59.258315+01 | 1486379639.25832 | pgbench_accounts_pkey |        224641024

 2017-02-06 12:14:00.348004+01 | 1486379640.348 | pgbench_branches_pkey |            57344
 2017-02-06 12:14:00.348004+01 | 1486379640.348 | pgbench_tellers_pkey  |           188416
 2017-02-06 12:14:00.348004+01 | 1486379640.348 | pgbench_accounts_pkey |        224641024

 2017-02-06 12:14:01.436242+01 | 1486379641.43624 | pgbench_branches_pkey |            57344
 2017-02-06 12:14:01.436242+01 | 1486379641.43624 | pgbench_tellers_pkey  |           188416
 2017-02-06 12:14:01.436242+01 | 1486379641.43624 | pgbench_accounts_pkey |        224641024

 2017-02-06 12:14:02.529301+01 | 1486379642.5293 | pgbench_branches_pkey |            57344
 2017-02-06 12:14:02.529301+01 | 1486379642.5293 | pgbench_tellers_pkey  |           188416
 2017-02-06 12:14:02.529301+01 | 1486379642.5293 | pgbench_accounts_pkey |        224641024

 2017-02-06 12:14:03.62709+01 | 1486379643.62709 | pgbench_branches_pkey |            57344
 2017-02-06 12:14:03.62709+01 | 1486379643.62709 | pgbench_tellers_pkey  |           188416
 2017-02-06 12:14:03.62709+01 | 1486379643.62709 | pgbench_accounts_pkey |        224641024

 2017-02-06 12:14:04.716966+01 | 1486379644.71697 | pgbench_branches_pkey |            57344
 2017-02-06 12:14:04.716966+01 | 1486379644.71697 | pgbench_tellers_pkey  |           188416
 2017-02-06 12:14:04.716966+01 | 1486379644.71697 | pgbench_accounts_pkey |        224641024

 2017-02-06 12:14:05.798897+01 | 1486379645.7989 | pgbench_branches_pkey |            57344
 2017-02-06 12:14:05.798897+01 | 1486379645.7989 | pgbench_tellers_pkey  |           188416
 2017-02-06 12:14:05.798897+01 | 1486379645.7989 | pgbench_accounts_pkey |        224641024

 2017-02-06 12:14:06.876607+01 | 1486379646.87661 | pgbench_branches_pkey |            57344
 2017-02-06 12:14:06.876607+01 | 1486379646.87661 | pgbench_tellers_pkey  |           188416
 2017-02-06 12:14:06.876607+01 | 1486379646.87661 | pgbench_accounts_pkey |        224641024

 2017-02-06 12:14:07.963137+01 | 1486379647.96314 | pgbench_branches_pkey |            57344
 2017-02-06 12:14:07.963137+01 | 1486379647.96314 | pgbench_tellers_pkey  |           188416
 2017-02-06 12:14:07.963137+01 | 1486379647.96314 | pgbench_accounts_pkey |        224641024

 2017-02-06 12:14:09.051498+01 | 1486379649.0515 | pgbench_branches_pkey |            57344
 2017-02-06 12:14:09.051498+01 | 1486379649.0515 | pgbench_tellers_pkey  |           188416
 2017-02-06 12:14:09.051498+01 | 1486379649.0515 | pgbench_accounts_pkey |        224641024

 2017-02-06 12:14:10.143073+01 | 1486379650.14307 | pgbench_branches_pkey |            57344
 2017-02-06 12:14:10.143073+01 | 1486379650.14307 | pgbench_tellers_pkey  |           188416
 2017-02-06 12:14:10.143073+01 | 1486379650.14307 | pgbench_accounts_pkey |        224641024

 2017-02-06 12:14:11.231086+01 | 1486379651.23109 | pgbench_branches_pkey |            57344
 2017-02-06 12:14:11.231086+01 | 1486379651.23109 | pgbench_tellers_pkey  |           188416
 2017-02-06 12:14:11.231086+01 | 1486379651.23109 | pgbench_accounts_pkey |        224641024

 2017-02-06 12:14:12.319174+01 | 1486379652.31917 | pgbench_branches_pkey |            57344
 2017-02-06 12:14:12.319174+01 | 1486379652.31917 | pgbench_tellers_pkey  |           188416
 2017-02-06 12:14:12.319174+01 | 1486379652.31917 | pgbench_accounts_pkey |        224641024

 2017-02-06 12:14:13.412046+01 | 1486379653.41205 | pgbench_branches_pkey |            57344
 2017-02-06 12:14:13.412046+01 | 1486379653.41205 | pgbench_tellers_pkey  |           188416
 2017-02-06 12:14:13.412046+01 | 1486379653.41205 | pgbench_accounts_pkey |        224641024

 2017-02-06 12:14:14.497683+01 | 1486379654.49768 | pgbench_branches_pkey |            57344
 2017-02-06 12:14:14.497683+01 | 1486379654.49768 | pgbench_tellers_pkey  |           188416
 2017-02-06 12:14:14.497683+01 | 1486379654.49768 | pgbench_accounts_pkey |        224641024

 2017-02-06 12:14:15.585353+01 | 1486379655.58535 | pgbench_branches_pkey |            57344
 2017-02-06 12:14:15.585353+01 | 1486379655.58535 | pgbench_tellers_pkey  |           188416
 2017-02-06 12:14:15.585353+01 | 1486379655.58535 | pgbench_accounts_pkey |        224641024

 2017-02-06 12:14:16.672106+01 | 1486379656.67211 | pgbench_branches_pkey |            57344
 2017-02-06 12:14:16.672106+01 | 1486379656.67211 | pgbench_tellers_pkey  |           188416
 2017-02-06 12:14:16.672106+01 | 1486379656.67211 | pgbench_accounts_pkey |        224641024

 2017-02-06 12:14:17.749599+01 | 1486379657.7496 | pgbench_branches_pkey |            57344
 2017-02-06 12:14:17.749599+01 | 1486379657.7496 | pgbench_tellers_pkey  |           188416
 2017-02-06 12:14:17.749599+01 | 1486379657.7496 | pgbench_accounts_pkey |        224641024

 2017-02-06 12:14:18.825622+01 | 1486379658.82562 | pgbench_branches_pkey |            57344
 2017-02-06 12:14:18.825622+01 | 1486379658.82562 | pgbench_tellers_pkey  |           188416
 2017-02-06 12:14:18.825622+01 | 1486379658.82562 | pgbench_accounts_pkey |        224641024

 2017-02-06 12:14:19.90001+01 | 1486379659.90001 | pgbench_branches_pkey |            57344
 2017-02-06 12:14:19.90001+01 | 1486379659.90001 | pgbench_tellers_pkey  |           188416
 2017-02-06 12:14:19.90001+01 | 1486379659.90001 | pgbench_accounts_pkey |        224641024

 2017-02-06 12:14:20.991345+01 | 1486379660.99134 | pgbench_branches_pkey |            57344
 2017-02-06 12:14:20.991345+01 | 1486379660.99134 | pgbench_tellers_pkey  |           188416
 2017-02-06 12:14:20.991345+01 | 1486379660.99134 | pgbench_accounts_pkey |        224641024

 2017-02-06 12:14:22.080656+01 | 1486379662.08066 | pgbench_branches_pkey |            57344
 2017-02-06 12:14:22.080656+01 | 1486379662.08066 | pgbench_tellers_pkey  |           188416
 2017-02-06 12:14:22.080656+01 | 1486379662.08066 | pgbench_accounts_pkey |        224641024

 2017-02-06 12:14:23.171853+01 | 1486379663.17185 | pgbench_branches_pkey |            57344
 2017-02-06 12:14:23.171853+01 | 1486379663.17185 | pgbench_tellers_pkey  |           188416
 2017-02-06 12:14:23.171853+01 | 1486379663.17185 | pgbench_accounts_pkey |        224641024

 2017-02-06 12:14:24.256629+01 | 1486379664.25663 | pgbench_branches_pkey |            57344
 2017-02-06 12:14:24.256629+01 | 1486379664.25663 | pgbench_tellers_pkey  |           188416
 2017-02-06 12:14:24.256629+01 | 1486379664.25663 | pgbench_accounts_pkey |        224641024

 2017-02-06 12:14:25.343711+01 | 1486379665.34371 | pgbench_branches_pkey |            57344
 2017-02-06 12:14:25.343711+01 | 1486379665.34371 | pgbench_tellers_pkey  |           188416
 2017-02-06 12:14:25.343711+01 | 1486379665.34371 | pgbench_accounts_pkey |        224641024

 2017-02-06 12:14:26.430545+01 | 1486379666.43055 | pgbench_branches_pkey |            57344
 2017-02-06 12:14:26.430545+01 | 1486379666.43055 | pgbench_tellers_pkey  |           188416
 2017-02-06 12:14:26.430545+01 | 1486379666.43055 | pgbench_accounts_pkey |        224641024

 2017-02-06 12:14:27.513112+01 | 1486379667.51311 | pgbench_branches_pkey |            57344
 2017-02-06 12:14:27.513112+01 | 1486379667.51311 | pgbench_tellers_pkey  |           188416
 2017-02-06 12:14:27.513112+01 | 1486379667.51311 | pgbench_accounts_pkey |        224641024

 2017-02-06 12:14:28.595679+01 | 1486379668.59568 | pgbench_branches_pkey |            57344
 2017-02-06 12:14:28.595679+01 | 1486379668.59568 | pgbench_tellers_pkey  |           188416
 2017-02-06 12:14:28.595679+01 | 1486379668.59568 | pgbench_accounts_pkey |        224641024

 2017-02-06 12:14:29.680603+01 | 1486379669.6806 | pgbench_branches_pkey |            57344
 2017-02-06 12:14:29.680603+01 | 1486379669.6806 | pgbench_tellers_pkey  |           188416
 2017-02-06 12:14:29.680603+01 | 1486379669.6806 | pgbench_accounts_pkey |        224641024

 2017-02-06 12:14:30.766268+01 | 1486379670.76627 | pgbench_branches_pkey |            57344
 2017-02-06 12:14:30.766268+01 | 1486379670.76627 | pgbench_tellers_pkey  |           188416
 2017-02-06 12:14:30.766268+01 | 1486379670.76627 | pgbench_accounts_pkey |        224641024

 2017-02-06 12:14:31.841254+01 | 1486379671.84125 | pgbench_branches_pkey |            57344
 2017-02-06 12:14:31.841254+01 | 1486379671.84125 | pgbench_tellers_pkey  |           188416
 2017-02-06 12:14:31.841254+01 | 1486379671.84125 | pgbench_accounts_pkey |        224641024

 2017-02-06 12:14:32.921013+01 | 1486379672.92101 | pgbench_branches_pkey |            57344
 2017-02-06 12:14:32.921013+01 | 1486379672.92101 | pgbench_tellers_pkey  |           188416
 2017-02-06 12:14:32.921013+01 | 1486379672.92101 | pgbench_accounts_pkey |        224641024

 2017-02-06 12:14:33.999677+01 | 1486379673.99968 | pgbench_branches_pkey |            57344
 2017-02-06 12:14:33.999677+01 | 1486379673.99968 | pgbench_tellers_pkey  |           188416
 2017-02-06 12:14:33.999677+01 | 1486379673.99968 | pgbench_accounts_pkey |        224641024

 2017-02-06 12:14:35.084041+01 | 1486379675.08404 | pgbench_branches_pkey |            57344
 2017-02-06 12:14:35.084041+01 | 1486379675.08404 | pgbench_tellers_pkey  |           188416
 2017-02-06 12:14:35.084041+01 | 1486379675.08404 | pgbench_accounts_pkey |        224641024

 2017-02-06 12:14:36.170347+01 | 1486379676.17035 | pgbench_branches_pkey |            57344
 2017-02-06 12:14:36.170347+01 | 1486379676.17035 | pgbench_tellers_pkey  |           188416
 2017-02-06 12:14:36.170347+01 | 1486379676.17035 | pgbench_accounts_pkey |        224641024

 2017-02-06 12:14:37.255091+01 | 1486379677.25509 | pgbench_branches_pkey |            57344
 2017-02-06 12:14:37.255091+01 | 1486379677.25509 | pgbench_tellers_pkey  |           188416
 2017-02-06 12:14:37.255091+01 | 1486379677.25509 | pgbench_accounts_pkey |        224641024

 2017-02-06 12:14:38.352736+01 | 1486379678.35274 | pgbench_branches_pkey |            57344
 2017-02-06 12:14:38.352736+01 | 1486379678.35274 | pgbench_tellers_pkey  |           188416
 2017-02-06 12:14:38.352736+01 | 1486379678.35274 | pgbench_accounts_pkey |        224641024

 2017-02-06 12:14:39.442363+01 | 1486379679.44236 | pgbench_branches_pkey |            57344
 2017-02-06 12:14:39.442363+01 | 1486379679.44236 | pgbench_tellers_pkey  |           188416
 2017-02-06 12:14:39.442363+01 | 1486379679.44236 | pgbench_accounts_pkey |        224641024

 2017-02-06 12:14:40.524591+01 | 1486379680.52459 | pgbench_branches_pkey |            57344
 2017-02-06 12:14:40.524591+01 | 1486379680.52459 | pgbench_tellers_pkey  |           188416
 2017-02-06 12:14:40.524591+01 | 1486379680.52459 | pgbench_accounts_pkey |        224641024

 2017-02-06 12:14:41.607659+01 | 1486379681.60766 | pgbench_branches_pkey |            57344
 2017-02-06 12:14:41.607659+01 | 1486379681.60766 | pgbench_tellers_pkey  |           188416
 2017-02-06 12:14:41.607659+01 | 1486379681.60766 | pgbench_accounts_pkey |        224641024

 2017-02-06 12:14:42.693475+01 | 1486379682.69348 | pgbench_branches_pkey |            57344
 2017-02-06 12:14:42.693475+01 | 1486379682.69348 | pgbench_tellers_pkey  |           188416
 2017-02-06 12:14:42.693475+01 | 1486379682.69348 | pgbench_accounts_pkey |        224641024

 2017-02-06 12:14:43.780426+01 | 1486379683.78043 | pgbench_branches_pkey |            57344
 2017-02-06 12:14:43.780426+01 | 1486379683.78043 | pgbench_tellers_pkey  |           188416
 2017-02-06 12:14:43.780426+01 | 1486379683.78043 | pgbench_accounts_pkey |        224641024

 2017-02-06 12:14:44.862416+01 | 1486379684.86242 | pgbench_branches_pkey |            57344
 2017-02-06 12:14:44.862416+01 | 1486379684.86242 | pgbench_tellers_pkey  |           188416
 2017-02-06 12:14:44.862416+01 | 1486379684.86242 | pgbench_accounts_pkey |        224641024

 2017-02-06 12:14:45.940658+01 | 1486379685.94066 | pgbench_branches_pkey |            57344
 2017-02-06 12:14:45.940658+01 | 1486379685.94066 | pgbench_tellers_pkey  |           188416
 2017-02-06 12:14:45.940658+01 | 1486379685.94066 | pgbench_accounts_pkey |        224641024

 2017-02-06 12:14:47.026102+01 | 1486379687.0261 | pgbench_branches_pkey |            57344
 2017-02-06 12:14:47.026102+01 | 1486379687.0261 | pgbench_tellers_pkey  |           188416
 2017-02-06 12:14:47.026102+01 | 1486379687.0261 | pgbench_accounts_pkey |        224641024

 2017-02-06 12:14:48.116218+01 | 1486379688.11622 | pgbench_branches_pkey |            57344
 2017-02-06 12:14:48.116218+01 | 1486379688.11622 | pgbench_tellers_pkey  |           188416
 2017-02-06 12:14:48.116218+01 | 1486379688.11622 | pgbench_accounts_pkey |        224641024

 2017-02-06 12:14:49.203406+01 | 1486379689.20341 | pgbench_branches_pkey |            57344
 2017-02-06 12:14:49.203406+01 | 1486379689.20341 | pgbench_tellers_pkey  |           188416
 2017-02-06 12:14:49.203406+01 | 1486379689.20341 | pgbench_accounts_pkey |        224641024

 2017-02-06 12:14:50.288161+01 | 1486379690.28816 | pgbench_branches_pkey |            57344
 2017-02-06 12:14:50.288161+01 | 1486379690.28816 | pgbench_tellers_pkey  |           188416
 2017-02-06 12:14:50.288161+01 | 1486379690.28816 | pgbench_accounts_pkey |        224641024

 2017-02-06 12:14:51.377408+01 | 1486379691.37741 | pgbench_branches_pkey |            57344
 2017-02-06 12:14:51.377408+01 | 1486379691.37741 | pgbench_tellers_pkey  |           188416
 2017-02-06 12:14:51.377408+01 | 1486379691.37741 | pgbench_accounts_pkey |        224641024

 2017-02-06 12:14:52.460778+01 | 1486379692.46078 | pgbench_branches_pkey |            57344
 2017-02-06 12:14:52.460778+01 | 1486379692.46078 | pgbench_tellers_pkey  |           188416
 2017-02-06 12:14:52.460778+01 | 1486379692.46078 | pgbench_accounts_pkey |        224641024

 2017-02-06 12:14:53.538932+01 | 1486379693.53893 | pgbench_branches_pkey |            57344
 2017-02-06 12:14:53.538932+01 | 1486379693.53893 | pgbench_tellers_pkey  |           188416
 2017-02-06 12:14:53.538932+01 | 1486379693.53893 | pgbench_accounts_pkey |        224641024

 2017-02-06 12:14:54.62813+01 | 1486379694.62813 | pgbench_branches_pkey |            57344
 2017-02-06 12:14:54.62813+01 | 1486379694.62813 | pgbench_tellers_pkey  |           188416
 2017-02-06 12:14:54.62813+01 | 1486379694.62813 | pgbench_accounts_pkey |        224641024

 2017-02-06 12:14:55.713709+01 | 1486379695.71371 | pgbench_branches_pkey |            57344
 2017-02-06 12:14:55.713709+01 | 1486379695.71371 | pgbench_tellers_pkey  |           188416
 2017-02-06 12:14:55.713709+01 | 1486379695.71371 | pgbench_accounts_pkey |        224641024

 2017-02-06 12:14:56.799749+01 | 1486379696.79975 | pgbench_branches_pkey |            57344
 2017-02-06 12:14:56.799749+01 | 1486379696.79975 | pgbench_tellers_pkey  |           188416
 2017-02-06 12:14:56.799749+01 | 1486379696.79975 | pgbench_accounts_pkey |        224641024

 2017-02-06 12:14:57.882827+01 | 1486379697.88283 | pgbench_branches_pkey |            57344
 2017-02-06 12:14:57.882827+01 | 1486379697.88283 | pgbench_tellers_pkey  |           188416
 2017-02-06 12:14:57.882827+01 | 1486379697.88283 | pgbench_accounts_pkey |        224641024

 2017-02-06 12:14:58.970468+01 | 1486379698.97047 | pgbench_branches_pkey |            57344
 2017-02-06 12:14:58.970468+01 | 1486379698.97047 | pgbench_tellers_pkey  |           188416
 2017-02-06 12:14:58.970468+01 | 1486379698.97047 | pgbench_accounts_pkey |        224641024

 2017-02-06 12:15:00.074934+01 | 1486379700.07493 | pgbench_branches_pkey |            57344
 2017-02-06 12:15:00.074934+01 | 1486379700.07493 | pgbench_tellers_pkey  |           188416
 2017-02-06 12:15:00.074934+01 | 1486379700.07493 | pgbench_accounts_pkey |        224641024

 2017-02-06 12:15:01.159482+01 | 1486379701.15948 | pgbench_branches_pkey |            57344
 2017-02-06 12:15:01.159482+01 | 1486379701.15948 | pgbench_tellers_pkey  |           188416
 2017-02-06 12:15:01.159482+01 | 1486379701.15948 | pgbench_accounts_pkey |        224641024

 2017-02-06 12:15:02.245052+01 | 1486379702.24505 | pgbench_branches_pkey |            57344
 2017-02-06 12:15:02.245052+01 | 1486379702.24505 | pgbench_tellers_pkey  |           188416
 2017-02-06 12:15:02.245052+01 | 1486379702.24505 | pgbench_accounts_pkey |        224641024

 2017-02-06 12:15:03.32966+01 | 1486379703.32966 | pgbench_branches_pkey |            57344
 2017-02-06 12:15:03.32966+01 | 1486379703.32966 | pgbench_tellers_pkey  |           188416
 2017-02-06 12:15:03.32966+01 | 1486379703.32966 | pgbench_accounts_pkey |        224641024

 2017-02-06 12:15:04.417774+01 | 1486379704.41777 | pgbench_branches_pkey |            57344
 2017-02-06 12:15:04.417774+01 | 1486379704.41777 | pgbench_tellers_pkey  |           188416
 2017-02-06 12:15:04.417774+01 | 1486379704.41777 | pgbench_accounts_pkey |        224641024

 2017-02-06 12:15:05.515278+01 | 1486379705.51528 | pgbench_branches_pkey |            57344
 2017-02-06 12:15:05.515278+01 | 1486379705.51528 | pgbench_tellers_pkey  |           188416
 2017-02-06 12:15:05.515278+01 | 1486379705.51528 | pgbench_accounts_pkey |        224641024

 2017-02-06 12:15:06.5914+01 | 1486379706.5914 | pgbench_branches_pkey |            57344
 2017-02-06 12:15:06.5914+01 | 1486379706.5914 | pgbench_tellers_pkey  |           188416
 2017-02-06 12:15:06.5914+01 | 1486379706.5914 | pgbench_accounts_pkey |        224641024

 2017-02-06 12:15:07.678264+01 | 1486379707.67826 | pgbench_branches_pkey |            57344
 2017-02-06 12:15:07.678264+01 | 1486379707.67826 | pgbench_tellers_pkey  |           188416
 2017-02-06 12:15:07.678264+01 | 1486379707.67826 | pgbench_accounts_pkey |        224641024

 2017-02-06 12:15:08.767075+01 | 1486379708.76708 | pgbench_branches_pkey |            57344
 2017-02-06 12:15:08.767075+01 | 1486379708.76708 | pgbench_tellers_pkey  |           188416
 2017-02-06 12:15:08.767075+01 | 1486379708.76708 | pgbench_accounts_pkey |        224641024

 2017-02-06 12:15:09.847544+01 | 1486379709.84754 | pgbench_branches_pkey |            57344
 2017-02-06 12:15:09.847544+01 | 1486379709.84754 | pgbench_tellers_pkey  |           188416
 2017-02-06 12:15:09.847544+01 | 1486379709.84754 | pgbench_accounts_pkey |        224641024

 2017-02-06 12:15:10.927627+01 | 1486379710.92763 | pgbench_branches_pkey |            57344
 2017-02-06 12:15:10.927627+01 | 1486379710.92763 | pgbench_tellers_pkey  |           188416
 2017-02-06 12:15:10.927627+01 | 1486379710.92763 | pgbench_accounts_pkey |        224641024

 2017-02-06 12:15:12.003777+01 | 1486379712.00378 | pgbench_branches_pkey |            57344
 2017-02-06 12:15:12.003777+01 | 1486379712.00378 | pgbench_tellers_pkey  |           188416
 2017-02-06 12:15:12.003777+01 | 1486379712.00378 | pgbench_accounts_pkey |        224641024

 2017-02-06 12:15:13.083103+01 | 1486379713.0831 | pgbench_branches_pkey |            57344
 2017-02-06 12:15:13.083103+01 | 1486379713.0831 | pgbench_tellers_pkey  |           188416
 2017-02-06 12:15:13.083103+01 | 1486379713.0831 | pgbench_accounts_pkey |        224641024

 2017-02-06 12:15:14.172434+01 | 1486379714.17243 | pgbench_branches_pkey |            57344
 2017-02-06 12:15:14.172434+01 | 1486379714.17243 | pgbench_tellers_pkey  |           188416
 2017-02-06 12:15:14.172434+01 | 1486379714.17243 | pgbench_accounts_pkey |        224641024

 2017-02-06 12:15:15.253152+01 | 1486379715.25315 | pgbench_branches_pkey |            57344
 2017-02-06 12:15:15.253152+01 | 1486379715.25315 | pgbench_tellers_pkey  |           188416
 2017-02-06 12:15:15.253152+01 | 1486379715.25315 | pgbench_accounts_pkey |        224641024

 2017-02-06 12:15:16.337666+01 | 1486379716.33767 | pgbench_branches_pkey |            57344
 2017-02-06 12:15:16.337666+01 | 1486379716.33767 | pgbench_tellers_pkey  |           188416
 2017-02-06 12:15:16.337666+01 | 1486379716.33767 | pgbench_accounts_pkey |        224641024

 2017-02-06 12:15:17.429947+01 | 1486379717.42995 | pgbench_branches_pkey |            57344
 2017-02-06 12:15:17.429947+01 | 1486379717.42995 | pgbench_tellers_pkey  |           188416
 2017-02-06 12:15:17.429947+01 | 1486379717.42995 | pgbench_accounts_pkey |        224641024

 2017-02-06 12:15:18.521392+01 | 1486379718.52139 | pgbench_branches_pkey |            57344
 2017-02-06 12:15:18.521392+01 | 1486379718.52139 | pgbench_tellers_pkey  |           188416
 2017-02-06 12:15:18.521392+01 | 1486379718.52139 | pgbench_accounts_pkey |        224641024

 2017-02-06 12:15:19.616774+01 | 1486379719.61677 | pgbench_branches_pkey |            57344
 2017-02-06 12:15:19.616774+01 | 1486379719.61677 | pgbench_tellers_pkey  |           188416
 2017-02-06 12:15:19.616774+01 | 1486379719.61677 | pgbench_accounts_pkey |        224641024

 2017-02-06 12:15:20.704422+01 | 1486379720.70442 | pgbench_branches_pkey |            57344
 2017-02-06 12:15:20.704422+01 | 1486379720.70442 | pgbench_tellers_pkey  |           188416
 2017-02-06 12:15:20.704422+01 | 1486379720.70442 | pgbench_accounts_pkey |        224641024

 2017-02-06 12:15:21.784331+01 | 1486379721.78433 | pgbench_branches_pkey |            57344
 2017-02-06 12:15:21.784331+01 | 1486379721.78433 | pgbench_tellers_pkey  |           188416
 2017-02-06 12:15:21.784331+01 | 1486379721.78433 | pgbench_accounts_pkey |        224641024

 2017-02-06 12:15:22.868022+01 | 1486379722.86802 | pgbench_branches_pkey |            57344
 2017-02-06 12:15:22.868022+01 | 1486379722.86802 | pgbench_tellers_pkey  |           188416
 2017-02-06 12:15:22.868022+01 | 1486379722.86802 | pgbench_accounts_pkey |        224641024

 2017-02-06 12:15:23.952321+01 | 1486379723.95232 | pgbench_branches_pkey |            57344
 2017-02-06 12:15:23.952321+01 | 1486379723.95232 | pgbench_tellers_pkey  |           188416
 2017-02-06 12:15:23.952321+01 | 1486379723.95232 | pgbench_accounts_pkey |        224641024

 2017-02-06 12:15:25.036975+01 | 1486379725.03697 | pgbench_branches_pkey |            57344
 2017-02-06 12:15:25.036975+01 | 1486379725.03697 | pgbench_tellers_pkey  |           188416
 2017-02-06 12:15:25.036975+01 | 1486379725.03697 | pgbench_accounts_pkey |        224641024

 2017-02-06 12:15:26.123114+01 | 1486379726.12311 | pgbench_branches_pkey |            57344
 2017-02-06 12:15:26.123114+01 | 1486379726.12311 | pgbench_tellers_pkey  |           188416
 2017-02-06 12:15:26.123114+01 | 1486379726.12311 | pgbench_accounts_pkey |        224641024

 2017-02-06 12:15:27.210584+01 | 1486379727.21058 | pgbench_branches_pkey |            57344
 2017-02-06 12:15:27.210584+01 | 1486379727.21058 | pgbench_tellers_pkey  |           188416
 2017-02-06 12:15:27.210584+01 | 1486379727.21058 | pgbench_accounts_pkey |        224641024

 2017-02-06 12:15:28.304236+01 | 1486379728.30424 | pgbench_branches_pkey |            57344
 2017-02-06 12:15:28.304236+01 | 1486379728.30424 | pgbench_tellers_pkey  |           188416
 2017-02-06 12:15:28.304236+01 | 1486379728.30424 | pgbench_accounts_pkey |        224641024

 2017-02-06 12:15:29.391868+01 | 1486379729.39187 | pgbench_branches_pkey |            57344
 2017-02-06 12:15:29.391868+01 | 1486379729.39187 | pgbench_tellers_pkey  |           188416
 2017-02-06 12:15:29.391868+01 | 1486379729.39187 | pgbench_accounts_pkey |        224641024

 2017-02-06 12:15:30.476712+01 | 1486379730.47671 | pgbench_branches_pkey |            57344
 2017-02-06 12:15:30.476712+01 | 1486379730.47671 | pgbench_tellers_pkey  |           188416
 2017-02-06 12:15:30.476712+01 | 1486379730.47671 | pgbench_accounts_pkey |        224641024

 2017-02-06 12:15:31.566082+01 | 1486379731.56608 | pgbench_branches_pkey |            57344
 2017-02-06 12:15:31.566082+01 | 1486379731.56608 | pgbench_tellers_pkey  |           188416
 2017-02-06 12:15:31.566082+01 | 1486379731.56608 | pgbench_accounts_pkey |        224641024

 2017-02-06 12:15:32.651566+01 | 1486379732.65157 | pgbench_branches_pkey |            57344
 2017-02-06 12:15:32.651566+01 | 1486379732.65157 | pgbench_tellers_pkey  |           188416
 2017-02-06 12:15:32.651566+01 | 1486379732.65157 | pgbench_accounts_pkey |        224641024

 2017-02-06 12:15:33.741101+01 | 1486379733.7411 | pgbench_branches_pkey |            57344
 2017-02-06 12:15:33.741101+01 | 1486379733.7411 | pgbench_tellers_pkey  |           188416
 2017-02-06 12:15:33.741101+01 | 1486379733.7411 | pgbench_accounts_pkey |        224641024

 2017-02-06 12:15:34.824239+01 | 1486379734.82424 | pgbench_branches_pkey |            57344
 2017-02-06 12:15:34.824239+01 | 1486379734.82424 | pgbench_tellers_pkey  |           188416
 2017-02-06 12:15:34.824239+01 | 1486379734.82424 | pgbench_accounts_pkey |        224641024

 2017-02-06 12:15:35.913883+01 | 1486379735.91388 | pgbench_branches_pkey |            57344
 2017-02-06 12:15:35.913883+01 | 1486379735.91388 | pgbench_tellers_pkey  |           188416
 2017-02-06 12:15:35.913883+01 | 1486379735.91388 | pgbench_accounts_pkey |        224641024

 2017-02-06 12:15:36.99908+01 | 1486379736.99908 | pgbench_branches_pkey |            57344
 2017-02-06 12:15:36.99908+01 | 1486379736.99908 | pgbench_tellers_pkey  |           188416
 2017-02-06 12:15:36.99908+01 | 1486379736.99908 | pgbench_accounts_pkey |        224641024

 2017-02-06 12:15:38.077901+01 | 1486379738.0779 | pgbench_branches_pkey |            57344
 2017-02-06 12:15:38.077901+01 | 1486379738.0779 | pgbench_tellers_pkey  |           188416
 2017-02-06 12:15:38.077901+01 | 1486379738.0779 | pgbench_accounts_pkey |        224641024

 2017-02-06 12:15:39.164149+01 | 1486379739.16415 | pgbench_branches_pkey |            57344
 2017-02-06 12:15:39.164149+01 | 1486379739.16415 | pgbench_tellers_pkey  |           188416
 2017-02-06 12:15:39.164149+01 | 1486379739.16415 | pgbench_accounts_pkey |        224641024

 2017-02-06 12:15:40.257342+01 | 1486379740.25734 | pgbench_branches_pkey |            57344
 2017-02-06 12:15:40.257342+01 | 1486379740.25734 | pgbench_tellers_pkey  |           188416
 2017-02-06 12:15:40.257342+01 | 1486379740.25734 | pgbench_accounts_pkey |        224641024

 2017-02-06 12:15:41.354532+01 | 1486379741.35453 | pgbench_branches_pkey |            57344
 2017-02-06 12:15:41.354532+01 | 1486379741.35453 | pgbench_tellers_pkey  |           188416
 2017-02-06 12:15:41.354532+01 | 1486379741.35453 | pgbench_accounts_pkey |        224641024

 2017-02-06 12:15:42.445789+01 | 1486379742.44579 | pgbench_branches_pkey |            57344
 2017-02-06 12:15:42.445789+01 | 1486379742.44579 | pgbench_tellers_pkey  |           188416
 2017-02-06 12:15:42.445789+01 | 1486379742.44579 | pgbench_accounts_pkey |        224641024

 2017-02-06 12:15:43.531652+01 | 1486379743.53165 | pgbench_branches_pkey |            57344
 2017-02-06 12:15:43.531652+01 | 1486379743.53165 | pgbench_tellers_pkey  |           188416
 2017-02-06 12:15:43.531652+01 | 1486379743.53165 | pgbench_accounts_pkey |        224641024

 2017-02-06 12:15:44.6174+01 | 1486379744.6174 | pgbench_branches_pkey |            57344
 2017-02-06 12:15:44.6174+01 | 1486379744.6174 | pgbench_tellers_pkey  |           188416
 2017-02-06 12:15:44.6174+01 | 1486379744.6174 | pgbench_accounts_pkey |        224641024

 2017-02-06 12:15:45.706179+01 | 1486379745.70618 | pgbench_branches_pkey |            57344
 2017-02-06 12:15:45.706179+01 | 1486379745.70618 | pgbench_tellers_pkey  |           188416
 2017-02-06 12:15:45.706179+01 | 1486379745.70618 | pgbench_accounts_pkey |        224641024

 2017-02-06 12:15:46.795587+01 | 1486379746.79559 | pgbench_branches_pkey |            57344
 2017-02-06 12:15:46.795587+01 | 1486379746.79559 | pgbench_tellers_pkey  |           188416
 2017-02-06 12:15:46.795587+01 | 1486379746.79559 | pgbench_accounts_pkey |        224641024

 2017-02-06 12:15:47.891371+01 | 1486379747.89137 | pgbench_branches_pkey |            57344
 2017-02-06 12:15:47.891371+01 | 1486379747.89137 | pgbench_tellers_pkey  |           188416
 2017-02-06 12:15:47.891371+01 | 1486379747.89137 | pgbench_accounts_pkey |        224641024

 2017-02-06 12:15:48.968399+01 | 1486379748.9684 | pgbench_branches_pkey |            57344
 2017-02-06 12:15:48.968399+01 | 1486379748.9684 | pgbench_tellers_pkey  |           188416
 2017-02-06 12:15:48.968399+01 | 1486379748.9684 | pgbench_accounts_pkey |        224641024

 2017-02-06 12:15:50.051918+01 | 1486379750.05192 | pgbench_branches_pkey |            57344
 2017-02-06 12:15:50.051918+01 | 1486379750.05192 | pgbench_tellers_pkey  |           188416
 2017-02-06 12:15:50.051918+01 | 1486379750.05192 | pgbench_accounts_pkey |        224641024

 2017-02-06 12:15:51.131964+01 | 1486379751.13196 | pgbench_branches_pkey |            57344
 2017-02-06 12:15:51.131964+01 | 1486379751.13196 | pgbench_tellers_pkey  |           188416
 2017-02-06 12:15:51.131964+01 | 1486379751.13196 | pgbench_accounts_pkey |        224641024

 2017-02-06 12:15:52.231214+01 | 1486379752.23121 | pgbench_branches_pkey |            57344
 2017-02-06 12:15:52.231214+01 | 1486379752.23121 | pgbench_tellers_pkey  |           188416
 2017-02-06 12:15:52.231214+01 | 1486379752.23121 | pgbench_accounts_pkey |        224641024

 2017-02-06 12:15:53.328543+01 | 1486379753.32854 | pgbench_branches_pkey |            57344
 2017-02-06 12:15:53.328543+01 | 1486379753.32854 | pgbench_tellers_pkey  |           188416
 2017-02-06 12:15:53.328543+01 | 1486379753.32854 | pgbench_accounts_pkey |        224641024

 2017-02-06 12:15:54.416134+01 | 1486379754.41613 | pgbench_branches_pkey |            57344
 2017-02-06 12:15:54.416134+01 | 1486379754.41613 | pgbench_tellers_pkey  |           188416
 2017-02-06 12:15:54.416134+01 | 1486379754.41613 | pgbench_accounts_pkey |        224641024

 2017-02-06 12:15:55.511247+01 | 1486379755.51125 | pgbench_branches_pkey |            57344
 2017-02-06 12:15:55.511247+01 | 1486379755.51125 | pgbench_tellers_pkey  |           188416
 2017-02-06 12:15:55.511247+01 | 1486379755.51125 | pgbench_accounts_pkey |        224641024

 2017-02-06 12:15:56.602614+01 | 1486379756.60261 | pgbench_branches_pkey |            57344
 2017-02-06 12:15:56.602614+01 | 1486379756.60261 | pgbench_tellers_pkey  |           188416
 2017-02-06 12:15:56.602614+01 | 1486379756.60261 | pgbench_accounts_pkey |        224641024

 2017-02-06 12:15:57.695918+01 | 1486379757.69592 | pgbench_branches_pkey |            57344
 2017-02-06 12:15:57.695918+01 | 1486379757.69592 | pgbench_tellers_pkey  |           188416
 2017-02-06 12:15:57.695918+01 | 1486379757.69592 | pgbench_accounts_pkey |        224641024

 2017-02-06 12:15:58.780781+01 | 1486379758.78078 | pgbench_branches_pkey |            57344
 2017-02-06 12:15:58.780781+01 | 1486379758.78078 | pgbench_tellers_pkey  |           188416
 2017-02-06 12:15:58.780781+01 | 1486379758.78078 | pgbench_accounts_pkey |        224641024

 2017-02-06 12:15:59.865779+01 | 1486379759.86578 | pgbench_branches_pkey |            57344
 2017-02-06 12:15:59.865779+01 | 1486379759.86578 | pgbench_tellers_pkey  |           188416
 2017-02-06 12:15:59.865779+01 | 1486379759.86578 | pgbench_accounts_pkey |        224641024

 2017-02-06 12:16:00.944458+01 | 1486379760.94446 | pgbench_branches_pkey |            57344
 2017-02-06 12:16:00.944458+01 | 1486379760.94446 | pgbench_tellers_pkey  |           188416
 2017-02-06 12:16:00.944458+01 | 1486379760.94446 | pgbench_accounts_pkey |        224641024

 2017-02-06 12:16:02.022896+01 | 1486379762.0229 | pgbench_branches_pkey |            57344
 2017-02-06 12:16:02.022896+01 | 1486379762.0229 | pgbench_tellers_pkey  |           188416
 2017-02-06 12:16:02.022896+01 | 1486379762.0229 | pgbench_accounts_pkey |        224641024

 2017-02-06 12:16:03.106821+01 | 1486379763.10682 | pgbench_branches_pkey |            57344
 2017-02-06 12:16:03.106821+01 | 1486379763.10682 | pgbench_tellers_pkey  |           188416
 2017-02-06 12:16:03.106821+01 | 1486379763.10682 | pgbench_accounts_pkey |        224641024

 2017-02-06 12:16:04.205922+01 | 1486379764.20592 | pgbench_branches_pkey |            57344
 2017-02-06 12:16:04.205922+01 | 1486379764.20592 | pgbench_tellers_pkey  |           188416
 2017-02-06 12:16:04.205922+01 | 1486379764.20592 | pgbench_accounts_pkey |        224641024

 2017-02-06 12:16:05.291395+01 | 1486379765.29139 | pgbench_branches_pkey |            57344
 2017-02-06 12:16:05.291395+01 | 1486379765.29139 | pgbench_tellers_pkey  |           188416
 2017-02-06 12:16:05.291395+01 | 1486379765.29139 | pgbench_accounts_pkey |        224641024

 2017-02-06 12:16:06.390212+01 | 1486379766.39021 | pgbench_branches_pkey |            57344
 2017-02-06 12:16:06.390212+01 | 1486379766.39021 | pgbench_tellers_pkey  |           188416
 2017-02-06 12:16:06.390212+01 | 1486379766.39021 | pgbench_accounts_pkey |        224641024

 2017-02-06 12:16:07.478304+01 | 1486379767.4783 | pgbench_branches_pkey |            57344
 2017-02-06 12:16:07.478304+01 | 1486379767.4783 | pgbench_tellers_pkey  |           188416
 2017-02-06 12:16:07.478304+01 | 1486379767.4783 | pgbench_accounts_pkey |        224641024

 2017-02-06 12:16:08.566517+01 | 1486379768.56652 | pgbench_branches_pkey |            57344
 2017-02-06 12:16:08.566517+01 | 1486379768.56652 | pgbench_tellers_pkey  |           188416
 2017-02-06 12:16:08.566517+01 | 1486379768.56652 | pgbench_accounts_pkey |        224641024

 2017-02-06 12:16:09.659672+01 | 1486379769.65967 | pgbench_branches_pkey |            57344
 2017-02-06 12:16:09.659672+01 | 1486379769.65967 | pgbench_tellers_pkey  |           188416
 2017-02-06 12:16:09.659672+01 | 1486379769.65967 | pgbench_accounts_pkey |        224641024

 2017-02-06 12:16:10.746644+01 | 1486379770.74664 | pgbench_branches_pkey |            57344
 2017-02-06 12:16:10.746644+01 | 1486379770.74664 | pgbench_tellers_pkey  |           188416
 2017-02-06 12:16:10.746644+01 | 1486379770.74664 | pgbench_accounts_pkey |        224641024

 2017-02-06 12:16:11.828266+01 | 1486379771.82827 | pgbench_branches_pkey |            57344
 2017-02-06 12:16:11.828266+01 | 1486379771.82827 | pgbench_tellers_pkey  |           188416
 2017-02-06 12:16:11.828266+01 | 1486379771.82827 | pgbench_accounts_pkey |        224641024

 2017-02-06 12:16:12.909125+01 | 1486379772.90913 | pgbench_branches_pkey |            57344
 2017-02-06 12:16:12.909125+01 | 1486379772.90913 | pgbench_tellers_pkey  |           188416
 2017-02-06 12:16:12.909125+01 | 1486379772.90913 | pgbench_accounts_pkey |        224641024

 2017-02-06 12:16:13.988614+01 | 1486379773.98861 | pgbench_branches_pkey |            57344
 2017-02-06 12:16:13.988614+01 | 1486379773.98861 | pgbench_tellers_pkey  |           188416
 2017-02-06 12:16:13.988614+01 | 1486379773.98861 | pgbench_accounts_pkey |        224641024

 2017-02-06 12:16:15.064713+01 | 1486379775.06471 | pgbench_branches_pkey |            57344
 2017-02-06 12:16:15.064713+01 | 1486379775.06471 | pgbench_tellers_pkey  |           188416
 2017-02-06 12:16:15.064713+01 | 1486379775.06471 | pgbench_accounts_pkey |        224641024

 2017-02-06 12:16:16.149726+01 | 1486379776.14973 | pgbench_branches_pkey |            57344
 2017-02-06 12:16:16.149726+01 | 1486379776.14973 | pgbench_tellers_pkey  |           188416
 2017-02-06 12:16:16.149726+01 | 1486379776.14973 | pgbench_accounts_pkey |        224641024

 2017-02-06 12:16:17.233406+01 | 1486379777.23341 | pgbench_branches_pkey |            57344
 2017-02-06 12:16:17.233406+01 | 1486379777.23341 | pgbench_tellers_pkey  |           188416
 2017-02-06 12:16:17.233406+01 | 1486379777.23341 | pgbench_accounts_pkey |        224641024

 2017-02-06 12:16:18.318777+01 | 1486379778.31878 | pgbench_branches_pkey |            57344
 2017-02-06 12:16:18.318777+01 | 1486379778.31878 | pgbench_tellers_pkey  |           188416
 2017-02-06 12:16:18.318777+01 | 1486379778.31878 | pgbench_accounts_pkey |        224641024

 2017-02-06 12:16:19.405001+01 | 1486379779.405 | pgbench_branches_pkey |            57344
 2017-02-06 12:16:19.405001+01 | 1486379779.405 | pgbench_tellers_pkey  |           188416
 2017-02-06 12:16:19.405001+01 | 1486379779.405 | pgbench_accounts_pkey |        224641024

 2017-02-06 12:16:20.500861+01 | 1486379780.50086 | pgbench_branches_pkey |            57344
 2017-02-06 12:16:20.500861+01 | 1486379780.50086 | pgbench_tellers_pkey  |           188416
 2017-02-06 12:16:20.500861+01 | 1486379780.50086 | pgbench_accounts_pkey |        224641024

 2017-02-06 12:16:21.602714+01 | 1486379781.60271 | pgbench_branches_pkey |            57344
 2017-02-06 12:16:21.602714+01 | 1486379781.60271 | pgbench_tellers_pkey  |           188416
 2017-02-06 12:16:21.602714+01 | 1486379781.60271 | pgbench_accounts_pkey |        224641024

 2017-02-06 12:16:22.697189+01 | 1486379782.69719 | pgbench_branches_pkey |            57344
 2017-02-06 12:16:22.697189+01 | 1486379782.69719 | pgbench_tellers_pkey  |           188416
 2017-02-06 12:16:22.697189+01 | 1486379782.69719 | pgbench_accounts_pkey |        224641024

 2017-02-06 12:16:23.790237+01 | 1486379783.79024 | pgbench_branches_pkey |            57344
 2017-02-06 12:16:23.790237+01 | 1486379783.79024 | pgbench_tellers_pkey  |           188416
 2017-02-06 12:16:23.790237+01 | 1486379783.79024 | pgbench_accounts_pkey |        224641024

 2017-02-06 12:16:24.881567+01 | 1486379784.88157 | pgbench_branches_pkey |            57344
 2017-02-06 12:16:24.881567+01 | 1486379784.88157 | pgbench_tellers_pkey  |           188416
 2017-02-06 12:16:24.881567+01 | 1486379784.88157 | pgbench_accounts_pkey |        224641024

 2017-02-06 12:16:25.958062+01 | 1486379785.95806 | pgbench_branches_pkey |            57344
 2017-02-06 12:16:25.958062+01 | 1486379785.95806 | pgbench_tellers_pkey  |           188416
 2017-02-06 12:16:25.958062+01 | 1486379785.95806 | pgbench_accounts_pkey |        224641024

 2017-02-06 12:16:27.036935+01 | 1486379787.03694 | pgbench_branches_pkey |            57344
 2017-02-06 12:16:27.036935+01 | 1486379787.03694 | pgbench_tellers_pkey  |           188416
 2017-02-06 12:16:27.036935+01 | 1486379787.03694 | pgbench_accounts_pkey |        224641024

 2017-02-06 12:16:28.118637+01 | 1486379788.11864 | pgbench_branches_pkey |            57344
 2017-02-06 12:16:28.118637+01 | 1486379788.11864 | pgbench_tellers_pkey  |           188416
 2017-02-06 12:16:28.118637+01 | 1486379788.11864 | pgbench_accounts_pkey |        224641024

 2017-02-06 12:16:29.195521+01 | 1486379789.19552 | pgbench_branches_pkey |            57344
 2017-02-06 12:16:29.195521+01 | 1486379789.19552 | pgbench_tellers_pkey  |           188416
 2017-02-06 12:16:29.195521+01 | 1486379789.19552 | pgbench_accounts_pkey |        224641024

 2017-02-06 12:16:30.285428+01 | 1486379790.28543 | pgbench_branches_pkey |            57344
 2017-02-06 12:16:30.285428+01 | 1486379790.28543 | pgbench_tellers_pkey  |           188416
 2017-02-06 12:16:30.285428+01 | 1486379790.28543 | pgbench_accounts_pkey |        224641024

 2017-02-06 12:16:31.371999+01 | 1486379791.372 | pgbench_branches_pkey |            57344
 2017-02-06 12:16:31.371999+01 | 1486379791.372 | pgbench_tellers_pkey  |           188416
 2017-02-06 12:16:31.371999+01 | 1486379791.372 | pgbench_accounts_pkey |        224641024

 2017-02-06 12:16:32.45934+01 | 1486379792.45934 | pgbench_branches_pkey |            57344
 2017-02-06 12:16:32.45934+01 | 1486379792.45934 | pgbench_tellers_pkey  |           188416
 2017-02-06 12:16:32.45934+01 | 1486379792.45934 | pgbench_accounts_pkey |        224641024

 2017-02-06 12:16:33.549876+01 | 1486379793.54988 | pgbench_branches_pkey |            57344
 2017-02-06 12:16:33.549876+01 | 1486379793.54988 | pgbench_tellers_pkey  |           188416
 2017-02-06 12:16:33.549876+01 | 1486379793.54988 | pgbench_accounts_pkey |        224641024

 2017-02-06 12:16:34.640379+01 | 1486379794.64038 | pgbench_branches_pkey |            57344
 2017-02-06 12:16:34.640379+01 | 1486379794.64038 | pgbench_tellers_pkey  |           188416
 2017-02-06 12:16:34.640379+01 | 1486379794.64038 | pgbench_accounts_pkey |        224641024

 2017-02-06 12:16:35.731927+01 | 1486379795.73193 | pgbench_branches_pkey |            57344
 2017-02-06 12:16:35.731927+01 | 1486379795.73193 | pgbench_tellers_pkey  |           188416
 2017-02-06 12:16:35.731927+01 | 1486379795.73193 | pgbench_accounts_pkey |        224641024

 2017-02-06 12:16:36.825119+01 | 1486379796.82512 | pgbench_branches_pkey |            57344
 2017-02-06 12:16:36.825119+01 | 1486379796.82512 | pgbench_tellers_pkey  |           188416
 2017-02-06 12:16:36.825119+01 | 1486379796.82512 | pgbench_accounts_pkey |        224641024

 2017-02-06 12:16:37.904261+01 | 1486379797.90426 | pgbench_branches_pkey |            57344
 2017-02-06 12:16:37.904261+01 | 1486379797.90426 | pgbench_tellers_pkey  |           188416
 2017-02-06 12:16:37.904261+01 | 1486379797.90426 | pgbench_accounts_pkey |        224641024

 2017-02-06 12:16:38.983902+01 | 1486379798.9839 | pgbench_branches_pkey |            57344
 2017-02-06 12:16:38.983902+01 | 1486379798.9839 | pgbench_tellers_pkey  |           188416
 2017-02-06 12:16:38.983902+01 | 1486379798.9839 | pgbench_accounts_pkey |        224641024

 2017-02-06 12:16:40.059766+01 | 1486379800.05977 | pgbench_branches_pkey |            57344
 2017-02-06 12:16:40.059766+01 | 1486379800.05977 | pgbench_tellers_pkey  |           188416
 2017-02-06 12:16:40.059766+01 | 1486379800.05977 | pgbench_accounts_pkey |        224641024

 2017-02-06 12:16:41.137964+01 | 1486379801.13796 | pgbench_branches_pkey |            57344
 2017-02-06 12:16:41.137964+01 | 1486379801.13796 | pgbench_tellers_pkey  |           188416
 2017-02-06 12:16:41.137964+01 | 1486379801.13796 | pgbench_accounts_pkey |        224641024

 2017-02-06 12:16:42.215163+01 | 1486379802.21516 | pgbench_branches_pkey |            57344
 2017-02-06 12:16:42.215163+01 | 1486379802.21516 | pgbench_tellers_pkey  |           188416
 2017-02-06 12:16:42.215163+01 | 1486379802.21516 | pgbench_accounts_pkey |        224641024

 2017-02-06 12:16:43.307041+01 | 1486379803.30704 | pgbench_branches_pkey |            57344
 2017-02-06 12:16:43.307041+01 | 1486379803.30704 | pgbench_tellers_pkey  |           188416
 2017-02-06 12:16:43.307041+01 | 1486379803.30704 | pgbench_accounts_pkey |        224641024

 2017-02-06 12:16:44.399503+01 | 1486379804.3995 | pgbench_branches_pkey |            57344
 2017-02-06 12:16:44.399503+01 | 1486379804.3995 | pgbench_tellers_pkey  |           188416
 2017-02-06 12:16:44.399503+01 | 1486379804.3995 | pgbench_accounts_pkey |        224641024

 2017-02-06 12:16:45.491178+01 | 1486379805.49118 | pgbench_branches_pkey |            57344
 2017-02-06 12:16:45.491178+01 | 1486379805.49118 | pgbench_tellers_pkey  |           188416
 2017-02-06 12:16:45.491178+01 | 1486379805.49118 | pgbench_accounts_pkey |        224641024

 2017-02-06 12:16:46.595091+01 | 1486379806.59509 | pgbench_branches_pkey |            57344
 2017-02-06 12:16:46.595091+01 | 1486379806.59509 | pgbench_tellers_pkey  |           188416
 2017-02-06 12:16:46.595091+01 | 1486379806.59509 | pgbench_accounts_pkey |        224641024

 2017-02-06 12:16:47.692225+01 | 1486379807.69222 | pgbench_branches_pkey |            57344
 2017-02-06 12:16:47.692225+01 | 1486379807.69222 | pgbench_tellers_pkey  |           188416
 2017-02-06 12:16:47.692225+01 | 1486379807.69222 | pgbench_accounts_pkey |        224641024

 2017-02-06 12:16:48.778609+01 | 1486379808.77861 | pgbench_branches_pkey |            57344
 2017-02-06 12:16:48.778609+01 | 1486379808.77861 | pgbench_tellers_pkey  |           188416
 2017-02-06 12:16:48.778609+01 | 1486379808.77861 | pgbench_accounts_pkey |        224641024

 2017-02-06 12:16:49.862816+01 | 1486379809.86282 | pgbench_branches_pkey |            57344
 2017-02-06 12:16:49.862816+01 | 1486379809.86282 | pgbench_tellers_pkey  |           188416
 2017-02-06 12:16:49.862816+01 | 1486379809.86282 | pgbench_accounts_pkey |        224641024

 2017-02-06 12:16:50.947109+01 | 1486379810.94711 | pgbench_branches_pkey |            57344
 2017-02-06 12:16:50.947109+01 | 1486379810.94711 | pgbench_tellers_pkey  |           188416
 2017-02-06 12:16:50.947109+01 | 1486379810.94711 | pgbench_accounts_pkey |        224641024

 2017-02-06 12:16:52.043452+01 | 1486379812.04345 | pgbench_branches_pkey |            57344
 2017-02-06 12:16:52.043452+01 | 1486379812.04345 | pgbench_tellers_pkey  |           188416
 2017-02-06 12:16:52.043452+01 | 1486379812.04345 | pgbench_accounts_pkey |        224641024

 2017-02-06 12:16:53.127588+01 | 1486379813.12759 | pgbench_branches_pkey |            57344
 2017-02-06 12:16:53.127588+01 | 1486379813.12759 | pgbench_tellers_pkey  |           188416
 2017-02-06 12:16:53.127588+01 | 1486379813.12759 | pgbench_accounts_pkey |        224641024

 2017-02-06 12:16:54.205246+01 | 1486379814.20525 | pgbench_branches_pkey |            57344
 2017-02-06 12:16:54.205246+01 | 1486379814.20525 | pgbench_tellers_pkey  |           188416
 2017-02-06 12:16:54.205246+01 | 1486379814.20525 | pgbench_accounts_pkey |        224641024

 2017-02-06 12:16:55.289573+01 | 1486379815.28957 | pgbench_branches_pkey |            57344
 2017-02-06 12:16:55.289573+01 | 1486379815.28957 | pgbench_tellers_pkey  |           188416
 2017-02-06 12:16:55.289573+01 | 1486379815.28957 | pgbench_accounts_pkey |        224641024

 2017-02-06 12:16:56.36791+01 | 1486379816.36791 | pgbench_branches_pkey |            57344
 2017-02-06 12:16:56.36791+01 | 1486379816.36791 | pgbench_tellers_pkey  |           188416
 2017-02-06 12:16:56.36791+01 | 1486379816.36791 | pgbench_accounts_pkey |        224641024

 2017-02-06 12:16:57.458098+01 | 1486379817.4581 | pgbench_branches_pkey |            57344
 2017-02-06 12:16:57.458098+01 | 1486379817.4581 | pgbench_tellers_pkey  |           188416
 2017-02-06 12:16:57.458098+01 | 1486379817.4581 | pgbench_accounts_pkey |        224641024

 2017-02-06 12:16:58.548746+01 | 1486379818.54875 | pgbench_branches_pkey |            57344
 2017-02-06 12:16:58.548746+01 | 1486379818.54875 | pgbench_tellers_pkey  |           188416
 2017-02-06 12:16:58.548746+01 | 1486379818.54875 | pgbench_accounts_pkey |        224641024

 2017-02-06 12:16:59.640871+01 | 1486379819.64087 | pgbench_branches_pkey |            57344
 2017-02-06 12:16:59.640871+01 | 1486379819.64087 | pgbench_tellers_pkey  |           188416
 2017-02-06 12:16:59.640871+01 | 1486379819.64087 | pgbench_accounts_pkey |        224641024

 2017-02-06 12:17:00.721995+01 | 1486379820.722 | pgbench_branches_pkey |            57344
 2017-02-06 12:17:00.721995+01 | 1486379820.722 | pgbench_tellers_pkey  |           188416
 2017-02-06 12:17:00.721995+01 | 1486379820.722 | pgbench_accounts_pkey |        224641024

 2017-02-06 12:17:01.810533+01 | 1486379821.81053 | pgbench_branches_pkey |            57344
 2017-02-06 12:17:01.810533+01 | 1486379821.81053 | pgbench_tellers_pkey  |           188416
 2017-02-06 12:17:01.810533+01 | 1486379821.81053 | pgbench_accounts_pkey |        224641024

 2017-02-06 12:17:02.899032+01 | 1486379822.89903 | pgbench_branches_pkey |            57344
 2017-02-06 12:17:02.899032+01 | 1486379822.89903 | pgbench_tellers_pkey  |           188416
 2017-02-06 12:17:02.899032+01 | 1486379822.89903 | pgbench_accounts_pkey |        224641024

 2017-02-06 12:17:03.98199+01 | 1486379823.98199 | pgbench_branches_pkey |            57344
 2017-02-06 12:17:03.98199+01 | 1486379823.98199 | pgbench_tellers_pkey  |           188416
 2017-02-06 12:17:03.98199+01 | 1486379823.98199 | pgbench_accounts_pkey |        224641024

 2017-02-06 12:17:05.058139+01 | 1486379825.05814 | pgbench_branches_pkey |            57344
 2017-02-06 12:17:05.058139+01 | 1486379825.05814 | pgbench_tellers_pkey  |           188416
 2017-02-06 12:17:05.058139+01 | 1486379825.05814 | pgbench_accounts_pkey |        224641024

 2017-02-06 12:17:06.145193+01 | 1486379826.14519 | pgbench_branches_pkey |            57344
 2017-02-06 12:17:06.145193+01 | 1486379826.14519 | pgbench_tellers_pkey  |           188416
 2017-02-06 12:17:06.145193+01 | 1486379826.14519 | pgbench_accounts_pkey |        224641024

 2017-02-06 12:17:07.217089+01 | 1486379827.21709 | pgbench_branches_pkey |            57344
 2017-02-06 12:17:07.217089+01 | 1486379827.21709 | pgbench_tellers_pkey  |           188416
 2017-02-06 12:17:07.217089+01 | 1486379827.21709 | pgbench_accounts_pkey |        224641024

 2017-02-06 12:17:08.302185+01 | 1486379828.30219 | pgbench_branches_pkey |            57344
 2017-02-06 12:17:08.302185+01 | 1486379828.30219 | pgbench_tellers_pkey  |           188416
 2017-02-06 12:17:08.302185+01 | 1486379828.30219 | pgbench_accounts_pkey |        224641024

 2017-02-06 12:17:09.388872+01 | 1486379829.38887 | pgbench_branches_pkey |            57344
 2017-02-06 12:17:09.388872+01 | 1486379829.38887 | pgbench_tellers_pkey  |           188416
 2017-02-06 12:17:09.388872+01 | 1486379829.38887 | pgbench_accounts_pkey |        224641024

 2017-02-06 12:17:10.474972+01 | 1486379830.47497 | pgbench_branches_pkey |            57344
 2017-02-06 12:17:10.474972+01 | 1486379830.47497 | pgbench_tellers_pkey  |           188416
 2017-02-06 12:17:10.474972+01 | 1486379830.47497 | pgbench_accounts_pkey |        224641024

 2017-02-06 12:17:11.574085+01 | 1486379831.57408 | pgbench_branches_pkey |            57344
 2017-02-06 12:17:11.574085+01 | 1486379831.57408 | pgbench_tellers_pkey  |           188416
 2017-02-06 12:17:11.574085+01 | 1486379831.57408 | pgbench_accounts_pkey |        224641024

 2017-02-06 12:17:12.66019+01 | 1486379832.66019 | pgbench_branches_pkey |            57344
 2017-02-06 12:17:12.66019+01 | 1486379832.66019 | pgbench_tellers_pkey  |           188416
 2017-02-06 12:17:12.66019+01 | 1486379832.66019 | pgbench_accounts_pkey |        224641024

 2017-02-06 12:17:13.751341+01 | 1486379833.75134 | pgbench_branches_pkey |            57344
 2017-02-06 12:17:13.751341+01 | 1486379833.75134 | pgbench_tellers_pkey  |           188416
 2017-02-06 12:17:13.751341+01 | 1486379833.75134 | pgbench_accounts_pkey |        224641024

 2017-02-06 12:17:14.841109+01 | 1486379834.84111 | pgbench_branches_pkey |            57344
 2017-02-06 12:17:14.841109+01 | 1486379834.84111 | pgbench_tellers_pkey  |           188416
 2017-02-06 12:17:14.841109+01 | 1486379834.84111 | pgbench_accounts_pkey |        224641024

 2017-02-06 12:17:15.930188+01 | 1486379835.93019 | pgbench_branches_pkey |            57344
 2017-02-06 12:17:15.930188+01 | 1486379835.93019 | pgbench_tellers_pkey  |           188416
 2017-02-06 12:17:15.930188+01 | 1486379835.93019 | pgbench_accounts_pkey |        224641024

 2017-02-06 12:17:17.015081+01 | 1486379837.01508 | pgbench_branches_pkey |            57344
 2017-02-06 12:17:17.015081+01 | 1486379837.01508 | pgbench_tellers_pkey  |           188416
 2017-02-06 12:17:17.015081+01 | 1486379837.01508 | pgbench_accounts_pkey |        224641024

 2017-02-06 12:17:18.092624+01 | 1486379838.09262 | pgbench_branches_pkey |            57344
 2017-02-06 12:17:18.092624+01 | 1486379838.09262 | pgbench_tellers_pkey  |           188416
 2017-02-06 12:17:18.092624+01 | 1486379838.09262 | pgbench_accounts_pkey |        224641024

 2017-02-06 12:17:19.16464+01 | 1486379839.16464 | pgbench_branches_pkey |            57344
 2017-02-06 12:17:19.16464+01 | 1486379839.16464 | pgbench_tellers_pkey  |           188416
 2017-02-06 12:17:19.16464+01 | 1486379839.16464 | pgbench_accounts_pkey |        224641024

 2017-02-06 12:17:20.238721+01 | 1486379840.23872 | pgbench_branches_pkey |            57344
 2017-02-06 12:17:20.238721+01 | 1486379840.23872 | pgbench_tellers_pkey  |           188416
 2017-02-06 12:17:20.238721+01 | 1486379840.23872 | pgbench_accounts_pkey |        224641024

 2017-02-06 12:17:21.313993+01 | 1486379841.31399 | pgbench_branches_pkey |            57344
 2017-02-06 12:17:21.313993+01 | 1486379841.31399 | pgbench_tellers_pkey  |           188416
 2017-02-06 12:17:21.313993+01 | 1486379841.31399 | pgbench_accounts_pkey |        224641024

 2017-02-06 12:17:22.394013+01 | 1486379842.39401 | pgbench_branches_pkey |            57344
 2017-02-06 12:17:22.394013+01 | 1486379842.39401 | pgbench_tellers_pkey  |           188416
 2017-02-06 12:17:22.394013+01 | 1486379842.39401 | pgbench_accounts_pkey |        224641024

 2017-02-06 12:17:23.504068+01 | 1486379843.50407 | pgbench_branches_pkey |            57344
 2017-02-06 12:17:23.504068+01 | 1486379843.50407 | pgbench_tellers_pkey  |           188416
 2017-02-06 12:17:23.504068+01 | 1486379843.50407 | pgbench_accounts_pkey |        224641024

 2017-02-06 12:17:24.59168+01 | 1486379844.59168 | pgbench_branches_pkey |            57344
 2017-02-06 12:17:24.59168+01 | 1486379844.59168 | pgbench_tellers_pkey  |           188416
 2017-02-06 12:17:24.59168+01 | 1486379844.59168 | pgbench_accounts_pkey |        224641024

 2017-02-06 12:17:25.684346+01 | 1486379845.68435 | pgbench_branches_pkey |            57344
 2017-02-06 12:17:25.684346+01 | 1486379845.68435 | pgbench_tellers_pkey  |           188416
 2017-02-06 12:17:25.684346+01 | 1486379845.68435 | pgbench_accounts_pkey |        224641024

 2017-02-06 12:17:26.77313+01 | 1486379846.77313 | pgbench_branches_pkey |            57344
 2017-02-06 12:17:26.77313+01 | 1486379846.77313 | pgbench_tellers_pkey  |           188416
 2017-02-06 12:17:26.77313+01 | 1486379846.77313 | pgbench_accounts_pkey |        224641024

 2017-02-06 12:17:27.866497+01 | 1486379847.8665 | pgbench_branches_pkey |            57344
 2017-02-06 12:17:27.866497+01 | 1486379847.8665 | pgbench_tellers_pkey  |           188416
 2017-02-06 12:17:27.866497+01 | 1486379847.8665 | pgbench_accounts_pkey |        224641024

 2017-02-06 12:17:28.952118+01 | 1486379848.95212 | pgbench_branches_pkey |            57344
 2017-02-06 12:17:28.952118+01 | 1486379848.95212 | pgbench_tellers_pkey  |           188416
 2017-02-06 12:17:28.952118+01 | 1486379848.95212 | pgbench_accounts_pkey |        224641024

 2017-02-06 12:17:30.026762+01 | 1486379850.02676 | pgbench_branches_pkey |            57344
 2017-02-06 12:17:30.026762+01 | 1486379850.02676 | pgbench_tellers_pkey  |           188416
 2017-02-06 12:17:30.026762+01 | 1486379850.02676 | pgbench_accounts_pkey |        224641024

 2017-02-06 12:17:31.113349+01 | 1486379851.11335 | pgbench_branches_pkey |            57344
 2017-02-06 12:17:31.113349+01 | 1486379851.11335 | pgbench_tellers_pkey  |           188416
 2017-02-06 12:17:31.113349+01 | 1486379851.11335 | pgbench_accounts_pkey |        224641024

 2017-02-06 12:17:32.189855+01 | 1486379852.18986 | pgbench_branches_pkey |            57344
 2017-02-06 12:17:32.189855+01 | 1486379852.18986 | pgbench_tellers_pkey  |           188416
 2017-02-06 12:17:32.189855+01 | 1486379852.18986 | pgbench_accounts_pkey |        224641024

 2017-02-06 12:17:33.274381+01 | 1486379853.27438 | pgbench_branches_pkey |            57344
 2017-02-06 12:17:33.274381+01 | 1486379853.27438 | pgbench_tellers_pkey  |           188416
 2017-02-06 12:17:33.274381+01 | 1486379853.27438 | pgbench_accounts_pkey |        224641024

 2017-02-06 12:17:34.362815+01 | 1486379854.36281 | pgbench_branches_pkey |            57344
 2017-02-06 12:17:34.362815+01 | 1486379854.36281 | pgbench_tellers_pkey  |           188416
 2017-02-06 12:17:34.362815+01 | 1486379854.36281 | pgbench_accounts_pkey |        224641024

 2017-02-06 12:17:35.447095+01 | 1486379855.44709 | pgbench_branches_pkey |            57344
 2017-02-06 12:17:35.447095+01 | 1486379855.44709 | pgbench_tellers_pkey  |           188416
 2017-02-06 12:17:35.447095+01 | 1486379855.44709 | pgbench_accounts_pkey |        224641024

 2017-02-06 12:17:36.54063+01 | 1486379856.54063 | pgbench_branches_pkey |            57344
 2017-02-06 12:17:36.54063+01 | 1486379856.54063 | pgbench_tellers_pkey  |           188416
 2017-02-06 12:17:36.54063+01 | 1486379856.54063 | pgbench_accounts_pkey |        224641024

 2017-02-06 12:17:37.631089+01 | 1486379857.63109 | pgbench_branches_pkey |            57344
 2017-02-06 12:17:37.631089+01 | 1486379857.63109 | pgbench_tellers_pkey  |           188416
 2017-02-06 12:17:37.631089+01 | 1486379857.63109 | pgbench_accounts_pkey |        224641024

 2017-02-06 12:17:38.728388+01 | 1486379858.72839 | pgbench_branches_pkey |            57344
 2017-02-06 12:17:38.728388+01 | 1486379858.72839 | pgbench_tellers_pkey  |           188416
 2017-02-06 12:17:38.728388+01 | 1486379858.72839 | pgbench_accounts_pkey |        224641024

 2017-02-06 12:17:39.822465+01 | 1486379859.82246 | pgbench_branches_pkey |            57344
 2017-02-06 12:17:39.822465+01 | 1486379859.82246 | pgbench_tellers_pkey  |           188416
 2017-02-06 12:17:39.822465+01 | 1486379859.82246 | pgbench_accounts_pkey |        224641024

 2017-02-06 12:17:40.911804+01 | 1486379860.9118 | pgbench_branches_pkey |            57344
 2017-02-06 12:17:40.911804+01 | 1486379860.9118 | pgbench_tellers_pkey  |           188416
 2017-02-06 12:17:40.911804+01 | 1486379860.9118 | pgbench_accounts_pkey |        224641024

 2017-02-06 12:17:41.997629+01 | 1486379861.99763 | pgbench_branches_pkey |            57344
 2017-02-06 12:17:41.997629+01 | 1486379861.99763 | pgbench_tellers_pkey  |           188416
 2017-02-06 12:17:41.997629+01 | 1486379861.99763 | pgbench_accounts_pkey |        224641024

 2017-02-06 12:17:43.080113+01 | 1486379863.08011 | pgbench_branches_pkey |            57344
 2017-02-06 12:17:43.080113+01 | 1486379863.08011 | pgbench_tellers_pkey  |           188416
 2017-02-06 12:17:43.080113+01 | 1486379863.08011 | pgbench_accounts_pkey |        224641024

 2017-02-06 12:17:44.157151+01 | 1486379864.15715 | pgbench_branches_pkey |            57344
 2017-02-06 12:17:44.157151+01 | 1486379864.15715 | pgbench_tellers_pkey  |           188416
 2017-02-06 12:17:44.157151+01 | 1486379864.15715 | pgbench_accounts_pkey |        224641024

 2017-02-06 12:17:45.239613+01 | 1486379865.23961 | pgbench_branches_pkey |            57344
 2017-02-06 12:17:45.239613+01 | 1486379865.23961 | pgbench_tellers_pkey  |           188416
 2017-02-06 12:17:45.239613+01 | 1486379865.23961 | pgbench_accounts_pkey |        224641024

 2017-02-06 12:17:46.315916+01 | 1486379866.31592 | pgbench_branches_pkey |            57344
 2017-02-06 12:17:46.315916+01 | 1486379866.31592 | pgbench_tellers_pkey  |           188416
 2017-02-06 12:17:46.315916+01 | 1486379866.31592 | pgbench_accounts_pkey |        224641024

 2017-02-06 12:17:47.395135+01 | 1486379867.39513 | pgbench_branches_pkey |            57344
 2017-02-06 12:17:47.395135+01 | 1486379867.39513 | pgbench_tellers_pkey  |           188416
 2017-02-06 12:17:47.395135+01 | 1486379867.39513 | pgbench_accounts_pkey |        224641024

 2017-02-06 12:17:48.480789+01 | 1486379868.48079 | pgbench_branches_pkey |            57344
 2017-02-06 12:17:48.480789+01 | 1486379868.48079 | pgbench_tellers_pkey  |           188416
 2017-02-06 12:17:48.480789+01 | 1486379868.48079 | pgbench_accounts_pkey |        224641024

 2017-02-06 12:17:49.576048+01 | 1486379869.57605 | pgbench_branches_pkey |            57344
 2017-02-06 12:17:49.576048+01 | 1486379869.57605 | pgbench_tellers_pkey  |           188416
 2017-02-06 12:17:49.576048+01 | 1486379869.57605 | pgbench_accounts_pkey |        224641024

 2017-02-06 12:17:50.660909+01 | 1486379870.66091 | pgbench_branches_pkey |            57344
 2017-02-06 12:17:50.660909+01 | 1486379870.66091 | pgbench_tellers_pkey  |           188416
 2017-02-06 12:17:50.660909+01 | 1486379870.66091 | pgbench_accounts_pkey |        224641024

 2017-02-06 12:17:51.755891+01 | 1486379871.75589 | pgbench_branches_pkey |            57344
 2017-02-06 12:17:51.755891+01 | 1486379871.75589 | pgbench_tellers_pkey  |           188416
 2017-02-06 12:17:51.755891+01 | 1486379871.75589 | pgbench_accounts_pkey |        224641024

 2017-02-06 12:17:52.84775+01 | 1486379872.84775 | pgbench_branches_pkey |            57344
 2017-02-06 12:17:52.84775+01 | 1486379872.84775 | pgbench_tellers_pkey  |           188416
 2017-02-06 12:17:52.84775+01 | 1486379872.84775 | pgbench_accounts_pkey |        224641024

 2017-02-06 12:17:53.941632+01 | 1486379873.94163 | pgbench_branches_pkey |            57344
 2017-02-06 12:17:53.941632+01 | 1486379873.94163 | pgbench_tellers_pkey  |           188416
 2017-02-06 12:17:53.941632+01 | 1486379873.94163 | pgbench_accounts_pkey |        224641024

 2017-02-06 12:17:55.026765+01 | 1486379875.02677 | pgbench_branches_pkey |            57344
 2017-02-06 12:17:55.026765+01 | 1486379875.02677 | pgbench_tellers_pkey  |           188416
 2017-02-06 12:17:55.026765+01 | 1486379875.02677 | pgbench_accounts_pkey |        224641024

 2017-02-06 12:17:56.110139+01 | 1486379876.11014 | pgbench_branches_pkey |            57344
 2017-02-06 12:17:56.110139+01 | 1486379876.11014 | pgbench_tellers_pkey  |           188416
 2017-02-06 12:17:56.110139+01 | 1486379876.11014 | pgbench_accounts_pkey |        224641024

 2017-02-06 12:17:57.190639+01 | 1486379877.19064 | pgbench_branches_pkey |            57344
 2017-02-06 12:17:57.190639+01 | 1486379877.19064 | pgbench_tellers_pkey  |           188416
 2017-02-06 12:17:57.190639+01 | 1486379877.19064 | pgbench_accounts_pkey |        224641024

 2017-02-06 12:17:58.289385+01 | 1486379878.28939 | pgbench_branches_pkey |            57344
 2017-02-06 12:17:58.289385+01 | 1486379878.28939 | pgbench_tellers_pkey  |           188416
 2017-02-06 12:17:58.289385+01 | 1486379878.28939 | pgbench_accounts_pkey |        224641024

 2017-02-06 12:17:59.381368+01 | 1486379879.38137 | pgbench_branches_pkey |            57344
 2017-02-06 12:17:59.381368+01 | 1486379879.38137 | pgbench_tellers_pkey  |           188416
 2017-02-06 12:17:59.381368+01 | 1486379879.38137 | pgbench_accounts_pkey |        224641024

 2017-02-06 12:18:00.462725+01 | 1486379880.46272 | pgbench_branches_pkey |            57344
 2017-02-06 12:18:00.462725+01 | 1486379880.46272 | pgbench_tellers_pkey  |           188416
 2017-02-06 12:18:00.462725+01 | 1486379880.46272 | pgbench_accounts_pkey |        224641024

 2017-02-06 12:18:01.561807+01 | 1486379881.56181 | pgbench_branches_pkey |            57344
 2017-02-06 12:18:01.561807+01 | 1486379881.56181 | pgbench_tellers_pkey  |           188416
 2017-02-06 12:18:01.561807+01 | 1486379881.56181 | pgbench_accounts_pkey |        224641024

 2017-02-06 12:18:02.660827+01 | 1486379882.66083 | pgbench_branches_pkey |            57344
 2017-02-06 12:18:02.660827+01 | 1486379882.66083 | pgbench_tellers_pkey  |           188416
 2017-02-06 12:18:02.660827+01 | 1486379882.66083 | pgbench_accounts_pkey |        224641024

 2017-02-06 12:18:03.757109+01 | 1486379883.75711 | pgbench_branches_pkey |            57344
 2017-02-06 12:18:03.757109+01 | 1486379883.75711 | pgbench_tellers_pkey  |           188416
 2017-02-06 12:18:03.757109+01 | 1486379883.75711 | pgbench_accounts_pkey |        224641024

 2017-02-06 12:18:04.852565+01 | 1486379884.85257 | pgbench_branches_pkey |            57344
 2017-02-06 12:18:04.852565+01 | 1486379884.85257 | pgbench_tellers_pkey  |           188416
 2017-02-06 12:18:04.852565+01 | 1486379884.85257 | pgbench_accounts_pkey |        224641024

 2017-02-06 12:18:05.940153+01 | 1486379885.94015 | pgbench_branches_pkey |            57344
 2017-02-06 12:18:05.940153+01 | 1486379885.94015 | pgbench_tellers_pkey  |           188416
 2017-02-06 12:18:05.940153+01 | 1486379885.94015 | pgbench_accounts_pkey |        224641024

 2017-02-06 12:18:07.015356+01 | 1486379887.01536 | pgbench_branches_pkey |            57344
 2017-02-06 12:18:07.015356+01 | 1486379887.01536 | pgbench_tellers_pkey  |           188416
 2017-02-06 12:18:07.015356+01 | 1486379887.01536 | pgbench_accounts_pkey |        224641024

 2017-02-06 12:18:08.105619+01 | 1486379888.10562 | pgbench_branches_pkey |            57344
 2017-02-06 12:18:08.105619+01 | 1486379888.10562 | pgbench_tellers_pkey  |           188416
 2017-02-06 12:18:08.105619+01 | 1486379888.10562 | pgbench_accounts_pkey |        224641024

 2017-02-06 12:18:09.185831+01 | 1486379889.18583 | pgbench_branches_pkey |            57344
 2017-02-06 12:18:09.185831+01 | 1486379889.18583 | pgbench_tellers_pkey  |           188416
 2017-02-06 12:18:09.185831+01 | 1486379889.18583 | pgbench_accounts_pkey |        224641024

 2017-02-06 12:18:10.272175+01 | 1486379890.27218 | pgbench_branches_pkey |            57344
 2017-02-06 12:18:10.272175+01 | 1486379890.27218 | pgbench_tellers_pkey  |           188416
 2017-02-06 12:18:10.272175+01 | 1486379890.27218 | pgbench_accounts_pkey |        224641024

 2017-02-06 12:18:11.357098+01 | 1486379891.3571 | pgbench_branches_pkey |            57344
 2017-02-06 12:18:11.357098+01 | 1486379891.3571 | pgbench_tellers_pkey  |           188416
 2017-02-06 12:18:11.357098+01 | 1486379891.3571 | pgbench_accounts_pkey |        224641024

 2017-02-06 12:18:12.43791+01 | 1486379892.43791 | pgbench_branches_pkey |            57344
 2017-02-06 12:18:12.43791+01 | 1486379892.43791 | pgbench_tellers_pkey  |           188416
 2017-02-06 12:18:12.43791+01 | 1486379892.43791 | pgbench_accounts_pkey |        224641024

 2017-02-06 12:18:13.522668+01 | 1486379893.52267 | pgbench_branches_pkey |            57344
 2017-02-06 12:18:13.522668+01 | 1486379893.52267 | pgbench_tellers_pkey  |           188416
 2017-02-06 12:18:13.522668+01 | 1486379893.52267 | pgbench_accounts_pkey |        224641024

 2017-02-06 12:18:14.620929+01 | 1486379894.62093 | pgbench_branches_pkey |            57344
 2017-02-06 12:18:14.620929+01 | 1486379894.62093 | pgbench_tellers_pkey  |           188416
 2017-02-06 12:18:14.620929+01 | 1486379894.62093 | pgbench_accounts_pkey |        224641024

 2017-02-06 12:18:15.708722+01 | 1486379895.70872 | pgbench_branches_pkey |            57344
 2017-02-06 12:18:15.708722+01 | 1486379895.70872 | pgbench_tellers_pkey  |           188416
 2017-02-06 12:18:15.708722+01 | 1486379895.70872 | pgbench_accounts_pkey |        224641024

 2017-02-06 12:18:16.80477+01 | 1486379896.80477 | pgbench_branches_pkey |            57344
 2017-02-06 12:18:16.80477+01 | 1486379896.80477 | pgbench_tellers_pkey  |           188416
 2017-02-06 12:18:16.80477+01 | 1486379896.80477 | pgbench_accounts_pkey |        224641024

 2017-02-06 12:18:17.893203+01 | 1486379897.8932 | pgbench_branches_pkey |            57344
 2017-02-06 12:18:17.893203+01 | 1486379897.8932 | pgbench_tellers_pkey  |           188416
 2017-02-06 12:18:17.893203+01 | 1486379897.8932 | pgbench_accounts_pkey |        224641024

 2017-02-06 12:18:18.993191+01 | 1486379898.99319 | pgbench_branches_pkey |            57344
 2017-02-06 12:18:18.993191+01 | 1486379898.99319 | pgbench_tellers_pkey  |           188416
 2017-02-06 12:18:18.993191+01 | 1486379898.99319 | pgbench_accounts_pkey |        224641024

 2017-02-06 12:18:20.074114+01 | 1486379900.07411 | pgbench_branches_pkey |            57344
 2017-02-06 12:18:20.074114+01 | 1486379900.07411 | pgbench_tellers_pkey  |           188416
 2017-02-06 12:18:20.074114+01 | 1486379900.07411 | pgbench_accounts_pkey |        224641024

 2017-02-06 12:18:21.159345+01 | 1486379901.15934 | pgbench_branches_pkey |            57344
 2017-02-06 12:18:21.159345+01 | 1486379901.15934 | pgbench_tellers_pkey  |           188416
 2017-02-06 12:18:21.159345+01 | 1486379901.15934 | pgbench_accounts_pkey |        224641024

 2017-02-06 12:18:22.246507+01 | 1486379902.24651 | pgbench_branches_pkey |            57344
 2017-02-06 12:18:22.246507+01 | 1486379902.24651 | pgbench_tellers_pkey  |           188416
 2017-02-06 12:18:22.246507+01 | 1486379902.24651 | pgbench_accounts_pkey |        224641024

 2017-02-06 12:18:23.332001+01 | 1486379903.332 | pgbench_branches_pkey |            57344
 2017-02-06 12:18:23.332001+01 | 1486379903.332 | pgbench_tellers_pkey  |           188416
 2017-02-06 12:18:23.332001+01 | 1486379903.332 | pgbench_accounts_pkey |        224641024

 2017-02-06 12:18:24.411177+01 | 1486379904.41118 | pgbench_branches_pkey |            57344
 2017-02-06 12:18:24.411177+01 | 1486379904.41118 | pgbench_tellers_pkey  |           188416
 2017-02-06 12:18:24.411177+01 | 1486379904.41118 | pgbench_accounts_pkey |        224641024

 2017-02-06 12:18:25.488324+01 | 1486379905.48832 | pgbench_branches_pkey |            57344
 2017-02-06 12:18:25.488324+01 | 1486379905.48832 | pgbench_tellers_pkey  |           188416
 2017-02-06 12:18:25.488324+01 | 1486379905.48832 | pgbench_accounts_pkey |        224641024

 2017-02-06 12:18:26.584318+01 | 1486379906.58432 | pgbench_branches_pkey |            57344
 2017-02-06 12:18:26.584318+01 | 1486379906.58432 | pgbench_tellers_pkey  |           188416
 2017-02-06 12:18:26.584318+01 | 1486379906.58432 | pgbench_accounts_pkey |        224641024

 2017-02-06 12:18:27.670198+01 | 1486379907.6702 | pgbench_branches_pkey |            57344
 2017-02-06 12:18:27.670198+01 | 1486379907.6702 | pgbench_tellers_pkey  |           188416
 2017-02-06 12:18:27.670198+01 | 1486379907.6702 | pgbench_accounts_pkey |        224641024

 2017-02-06 12:18:28.755588+01 | 1486379908.75559 | pgbench_branches_pkey |            57344
 2017-02-06 12:18:28.755588+01 | 1486379908.75559 | pgbench_tellers_pkey  |           188416
 2017-02-06 12:18:28.755588+01 | 1486379908.75559 | pgbench_accounts_pkey |        224641024

 2017-02-06 12:18:29.853477+01 | 1486379909.85348 | pgbench_branches_pkey |            57344
 2017-02-06 12:18:29.853477+01 | 1486379909.85348 | pgbench_tellers_pkey  |           188416
 2017-02-06 12:18:29.853477+01 | 1486379909.85348 | pgbench_accounts_pkey |        224641024

 2017-02-06 12:18:30.938649+01 | 1486379910.93865 | pgbench_branches_pkey |            57344
 2017-02-06 12:18:30.938649+01 | 1486379910.93865 | pgbench_tellers_pkey  |           188416
 2017-02-06 12:18:30.938649+01 | 1486379910.93865 | pgbench_accounts_pkey |        224641024

 2017-02-06 12:18:32.023663+01 | 1486379912.02366 | pgbench_branches_pkey |            57344
 2017-02-06 12:18:32.023663+01 | 1486379912.02366 | pgbench_tellers_pkey  |           188416
 2017-02-06 12:18:32.023663+01 | 1486379912.02366 | pgbench_accounts_pkey |        224641024

 2017-02-06 12:18:33.100592+01 | 1486379913.10059 | pgbench_branches_pkey |            57344
 2017-02-06 12:18:33.100592+01 | 1486379913.10059 | pgbench_tellers_pkey  |           188416
 2017-02-06 12:18:33.100592+01 | 1486379913.10059 | pgbench_accounts_pkey |        224641024

 2017-02-06 12:18:34.181366+01 | 1486379914.18137 | pgbench_branches_pkey |            57344
 2017-02-06 12:18:34.181366+01 | 1486379914.18137 | pgbench_tellers_pkey  |           188416
 2017-02-06 12:18:34.181366+01 | 1486379914.18137 | pgbench_accounts_pkey |        224641024

 2017-02-06 12:18:35.260549+01 | 1486379915.26055 | pgbench_branches_pkey |            57344
 2017-02-06 12:18:35.260549+01 | 1486379915.26055 | pgbench_tellers_pkey  |           188416
 2017-02-06 12:18:35.260549+01 | 1486379915.26055 | pgbench_accounts_pkey |        224641024

 2017-02-06 12:18:36.343964+01 | 1486379916.34396 | pgbench_branches_pkey |            57344
 2017-02-06 12:18:36.343964+01 | 1486379916.34396 | pgbench_tellers_pkey  |           188416
 2017-02-06 12:18:36.343964+01 | 1486379916.34396 | pgbench_accounts_pkey |        224641024

 2017-02-06 12:18:37.422871+01 | 1486379917.42287 | pgbench_branches_pkey |            57344
 2017-02-06 12:18:37.422871+01 | 1486379917.42287 | pgbench_tellers_pkey  |           188416
 2017-02-06 12:18:37.422871+01 | 1486379917.42287 | pgbench_accounts_pkey |        224641024

 2017-02-06 12:18:38.510096+01 | 1486379918.5101 | pgbench_branches_pkey |            57344
 2017-02-06 12:18:38.510096+01 | 1486379918.5101 | pgbench_tellers_pkey  |           188416
 2017-02-06 12:18:38.510096+01 | 1486379918.5101 | pgbench_accounts_pkey |        224641024

 2017-02-06 12:18:39.599403+01 | 1486379919.5994 | pgbench_branches_pkey |            57344
 2017-02-06 12:18:39.599403+01 | 1486379919.5994 | pgbench_tellers_pkey  |           188416
 2017-02-06 12:18:39.599403+01 | 1486379919.5994 | pgbench_accounts_pkey |        224641024

 2017-02-06 12:18:40.682417+01 | 1486379920.68242 | pgbench_branches_pkey |            57344
 2017-02-06 12:18:40.682417+01 | 1486379920.68242 | pgbench_tellers_pkey  |           188416
 2017-02-06 12:18:40.682417+01 | 1486379920.68242 | pgbench_accounts_pkey |        224641024

 2017-02-06 12:18:41.778762+01 | 1486379921.77876 | pgbench_branches_pkey |            57344
 2017-02-06 12:18:41.778762+01 | 1486379921.77876 | pgbench_tellers_pkey  |           188416
 2017-02-06 12:18:41.778762+01 | 1486379921.77876 | pgbench_accounts_pkey |        224641024

 2017-02-06 12:18:42.865428+01 | 1486379922.86543 | pgbench_branches_pkey |            57344
 2017-02-06 12:18:42.865428+01 | 1486379922.86543 | pgbench_tellers_pkey  |           188416
 2017-02-06 12:18:42.865428+01 | 1486379922.86543 | pgbench_accounts_pkey |        224641024

 2017-02-06 12:18:43.954599+01 | 1486379923.9546 | pgbench_branches_pkey |            57344
 2017-02-06 12:18:43.954599+01 | 1486379923.9546 | pgbench_tellers_pkey  |           188416
 2017-02-06 12:18:43.954599+01 | 1486379923.9546 | pgbench_accounts_pkey |        224641024

 2017-02-06 12:18:45.042257+01 | 1486379925.04226 | pgbench_branches_pkey |            57344
 2017-02-06 12:18:45.042257+01 | 1486379925.04226 | pgbench_tellers_pkey  |           188416
 2017-02-06 12:18:45.042257+01 | 1486379925.04226 | pgbench_accounts_pkey |        224641024

 2017-02-06 12:18:46.116343+01 | 1486379926.11634 | pgbench_branches_pkey |            57344
 2017-02-06 12:18:46.116343+01 | 1486379926.11634 | pgbench_tellers_pkey  |           188416
 2017-02-06 12:18:46.116343+01 | 1486379926.11634 | pgbench_accounts_pkey |        224641024

 2017-02-06 12:18:47.19959+01 | 1486379927.19959 | pgbench_branches_pkey |            57344
 2017-02-06 12:18:47.19959+01 | 1486379927.19959 | pgbench_tellers_pkey  |           188416
 2017-02-06 12:18:47.19959+01 | 1486379927.19959 | pgbench_accounts_pkey |        224641024

 2017-02-06 12:18:48.283357+01 | 1486379928.28336 | pgbench_branches_pkey |            57344
 2017-02-06 12:18:48.283357+01 | 1486379928.28336 | pgbench_tellers_pkey  |           188416
 2017-02-06 12:18:48.283357+01 | 1486379928.28336 | pgbench_accounts_pkey |        224641024

 2017-02-06 12:18:49.367851+01 | 1486379929.36785 | pgbench_branches_pkey |            57344
 2017-02-06 12:18:49.367851+01 | 1486379929.36785 | pgbench_tellers_pkey  |           188416
 2017-02-06 12:18:49.367851+01 | 1486379929.36785 | pgbench_accounts_pkey |        224641024

 2017-02-06 12:18:50.446682+01 | 1486379930.44668 | pgbench_branches_pkey |            57344
 2017-02-06 12:18:50.446682+01 | 1486379930.44668 | pgbench_tellers_pkey  |           188416
 2017-02-06 12:18:50.446682+01 | 1486379930.44668 | pgbench_accounts_pkey |        224641024

 2017-02-06 12:18:51.531623+01 | 1486379931.53162 | pgbench_branches_pkey |            57344
 2017-02-06 12:18:51.531623+01 | 1486379931.53162 | pgbench_tellers_pkey  |           188416
 2017-02-06 12:18:51.531623+01 | 1486379931.53162 | pgbench_accounts_pkey |        224641024

 2017-02-06 12:18:52.620059+01 | 1486379932.62006 | pgbench_branches_pkey |            57344
 2017-02-06 12:18:52.620059+01 | 1486379932.62006 | pgbench_tellers_pkey  |           188416
 2017-02-06 12:18:52.620059+01 | 1486379932.62006 | pgbench_accounts_pkey |        224641024

 2017-02-06 12:18:53.696264+01 | 1486379933.69626 | pgbench_branches_pkey |            57344
 2017-02-06 12:18:53.696264+01 | 1486379933.69626 | pgbench_tellers_pkey  |           188416
 2017-02-06 12:18:53.696264+01 | 1486379933.69626 | pgbench_accounts_pkey |        224641024

 2017-02-06 12:18:54.78811+01 | 1486379934.78811 | pgbench_branches_pkey |            57344
 2017-02-06 12:18:54.78811+01 | 1486379934.78811 | pgbench_tellers_pkey  |           188416
 2017-02-06 12:18:54.78811+01 | 1486379934.78811 | pgbench_accounts_pkey |        224641024

