 2017-02-05 17:09:48.379903+01 | 1486310988.3799 | pgbench_branches_pkey |            16384
 2017-02-05 17:09:48.379903+01 | 1486310988.3799 | pgbench_tellers_pkey  |            40960
 2017-02-05 17:09:48.379903+01 | 1486310988.3799 | pgbench_accounts_pkey |        225394688

 2017-02-05 17:09:49.462055+01 | 1486310989.46205 | pgbench_branches_pkey |            16384
 2017-02-05 17:09:49.462055+01 | 1486310989.46205 | pgbench_tellers_pkey  |            40960
 2017-02-05 17:09:49.462055+01 | 1486310989.46205 | pgbench_accounts_pkey |        225394688

 2017-02-05 17:09:50.549289+01 | 1486310990.54929 | pgbench_branches_pkey |            16384
 2017-02-05 17:09:50.549289+01 | 1486310990.54929 | pgbench_tellers_pkey  |            40960
 2017-02-05 17:09:50.549289+01 | 1486310990.54929 | pgbench_accounts_pkey |        225394688

 2017-02-05 17:09:51.634652+01 | 1486310991.63465 | pgbench_branches_pkey |            16384
 2017-02-05 17:09:51.634652+01 | 1486310991.63465 | pgbench_tellers_pkey  |            40960
 2017-02-05 17:09:51.634652+01 | 1486310991.63465 | pgbench_accounts_pkey |        225394688

 2017-02-05 17:09:52.71956+01 | 1486310992.71956 | pgbench_branches_pkey |            16384
 2017-02-05 17:09:52.71956+01 | 1486310992.71956 | pgbench_tellers_pkey  |            40960
 2017-02-05 17:09:52.71956+01 | 1486310992.71956 | pgbench_accounts_pkey |        225394688

 2017-02-05 17:09:53.804715+01 | 1486310993.80471 | pgbench_branches_pkey |            16384
 2017-02-05 17:09:53.804715+01 | 1486310993.80471 | pgbench_tellers_pkey  |            40960
 2017-02-05 17:09:53.804715+01 | 1486310993.80471 | pgbench_accounts_pkey |        225394688

 2017-02-05 17:09:54.882071+01 | 1486310994.88207 | pgbench_branches_pkey |            16384
 2017-02-05 17:09:54.882071+01 | 1486310994.88207 | pgbench_tellers_pkey  |            40960
 2017-02-05 17:09:54.882071+01 | 1486310994.88207 | pgbench_accounts_pkey |        225394688

 2017-02-05 17:09:55.966883+01 | 1486310995.96688 | pgbench_branches_pkey |            16384
 2017-02-05 17:09:55.966883+01 | 1486310995.96688 | pgbench_tellers_pkey  |            40960
 2017-02-05 17:09:55.966883+01 | 1486310995.96688 | pgbench_accounts_pkey |        225394688

 2017-02-05 17:09:57.044975+01 | 1486310997.04498 | pgbench_branches_pkey |            16384
 2017-02-05 17:09:57.044975+01 | 1486310997.04498 | pgbench_tellers_pkey  |            40960
 2017-02-05 17:09:57.044975+01 | 1486310997.04498 | pgbench_accounts_pkey |        225394688

 2017-02-05 17:09:58.112995+01 | 1486310998.11299 | pgbench_branches_pkey |            16384
 2017-02-05 17:09:58.112995+01 | 1486310998.11299 | pgbench_tellers_pkey  |            40960
 2017-02-05 17:09:58.112995+01 | 1486310998.11299 | pgbench_accounts_pkey |        225394688

 2017-02-05 17:09:59.203223+01 | 1486310999.20322 | pgbench_branches_pkey |            16384
 2017-02-05 17:09:59.203223+01 | 1486310999.20322 | pgbench_tellers_pkey  |            40960
 2017-02-05 17:09:59.203223+01 | 1486310999.20322 | pgbench_accounts_pkey |        225394688

 2017-02-05 17:10:00.290447+01 | 1486311000.29045 | pgbench_branches_pkey |            16384
 2017-02-05 17:10:00.290447+01 | 1486311000.29045 | pgbench_tellers_pkey  |            40960
 2017-02-05 17:10:00.290447+01 | 1486311000.29045 | pgbench_accounts_pkey |        225394688

 2017-02-05 17:10:01.378234+01 | 1486311001.37823 | pgbench_branches_pkey |            16384
 2017-02-05 17:10:01.378234+01 | 1486311001.37823 | pgbench_tellers_pkey  |            40960
 2017-02-05 17:10:01.378234+01 | 1486311001.37823 | pgbench_accounts_pkey |        225394688

 2017-02-05 17:10:02.461617+01 | 1486311002.46162 | pgbench_branches_pkey |            16384
 2017-02-05 17:10:02.461617+01 | 1486311002.46162 | pgbench_tellers_pkey  |            40960
 2017-02-05 17:10:02.461617+01 | 1486311002.46162 | pgbench_accounts_pkey |        225394688

 2017-02-05 17:10:03.551071+01 | 1486311003.55107 | pgbench_branches_pkey |            16384
 2017-02-05 17:10:03.551071+01 | 1486311003.55107 | pgbench_tellers_pkey  |            40960
 2017-02-05 17:10:03.551071+01 | 1486311003.55107 | pgbench_accounts_pkey |        225394688

 2017-02-05 17:10:04.638368+01 | 1486311004.63837 | pgbench_branches_pkey |            16384
 2017-02-05 17:10:04.638368+01 | 1486311004.63837 | pgbench_tellers_pkey  |            40960
 2017-02-05 17:10:04.638368+01 | 1486311004.63837 | pgbench_accounts_pkey |        225394688

 2017-02-05 17:10:05.721955+01 | 1486311005.72196 | pgbench_branches_pkey |            16384
 2017-02-05 17:10:05.721955+01 | 1486311005.72196 | pgbench_tellers_pkey  |            40960
 2017-02-05 17:10:05.721955+01 | 1486311005.72196 | pgbench_accounts_pkey |        225394688

 2017-02-05 17:10:06.807126+01 | 1486311006.80713 | pgbench_branches_pkey |            16384
 2017-02-05 17:10:06.807126+01 | 1486311006.80713 | pgbench_tellers_pkey  |            40960
 2017-02-05 17:10:06.807126+01 | 1486311006.80713 | pgbench_accounts_pkey |        225394688

 2017-02-05 17:10:07.879312+01 | 1486311007.87931 | pgbench_branches_pkey |            16384
 2017-02-05 17:10:07.879312+01 | 1486311007.87931 | pgbench_tellers_pkey  |            40960
 2017-02-05 17:10:07.879312+01 | 1486311007.87931 | pgbench_accounts_pkey |        225394688

 2017-02-05 17:10:08.951626+01 | 1486311008.95163 | pgbench_branches_pkey |            16384
 2017-02-05 17:10:08.951626+01 | 1486311008.95163 | pgbench_tellers_pkey  |            40960
 2017-02-05 17:10:08.951626+01 | 1486311008.95163 | pgbench_accounts_pkey |        225394688

 2017-02-05 17:10:10.042084+01 | 1486311010.04208 | pgbench_branches_pkey |            16384
 2017-02-05 17:10:10.042084+01 | 1486311010.04208 | pgbench_tellers_pkey  |            40960
 2017-02-05 17:10:10.042084+01 | 1486311010.04208 | pgbench_accounts_pkey |        225394688

 2017-02-05 17:10:11.129819+01 | 1486311011.12982 | pgbench_branches_pkey |            16384
 2017-02-05 17:10:11.129819+01 | 1486311011.12982 | pgbench_tellers_pkey  |            40960
 2017-02-05 17:10:11.129819+01 | 1486311011.12982 | pgbench_accounts_pkey |        225394688

 2017-02-05 17:10:12.221824+01 | 1486311012.22182 | pgbench_branches_pkey |            16384
 2017-02-05 17:10:12.221824+01 | 1486311012.22182 | pgbench_tellers_pkey  |            40960
 2017-02-05 17:10:12.221824+01 | 1486311012.22182 | pgbench_accounts_pkey |        225394688

 2017-02-05 17:10:13.298818+01 | 1486311013.29882 | pgbench_branches_pkey |            16384
 2017-02-05 17:10:13.298818+01 | 1486311013.29882 | pgbench_tellers_pkey  |            40960
 2017-02-05 17:10:13.298818+01 | 1486311013.29882 | pgbench_accounts_pkey |        225394688

 2017-02-05 17:10:14.384944+01 | 1486311014.38494 | pgbench_branches_pkey |            16384
 2017-02-05 17:10:14.384944+01 | 1486311014.38494 | pgbench_tellers_pkey  |            40960
 2017-02-05 17:10:14.384944+01 | 1486311014.38494 | pgbench_accounts_pkey |        225394688

 2017-02-05 17:10:15.467195+01 | 1486311015.4672 | pgbench_branches_pkey |            16384
 2017-02-05 17:10:15.467195+01 | 1486311015.4672 | pgbench_tellers_pkey  |            40960
 2017-02-05 17:10:15.467195+01 | 1486311015.4672 | pgbench_accounts_pkey |        225394688

 2017-02-05 17:10:16.551055+01 | 1486311016.55105 | pgbench_branches_pkey |            16384
 2017-02-05 17:10:16.551055+01 | 1486311016.55105 | pgbench_tellers_pkey  |            40960
 2017-02-05 17:10:16.551055+01 | 1486311016.55105 | pgbench_accounts_pkey |        225394688

 2017-02-05 17:10:17.639694+01 | 1486311017.63969 | pgbench_branches_pkey |            16384
 2017-02-05 17:10:17.639694+01 | 1486311017.63969 | pgbench_tellers_pkey  |            40960
 2017-02-05 17:10:17.639694+01 | 1486311017.63969 | pgbench_accounts_pkey |        225394688

 2017-02-05 17:10:18.728097+01 | 1486311018.7281 | pgbench_branches_pkey |            16384
 2017-02-05 17:10:18.728097+01 | 1486311018.7281 | pgbench_tellers_pkey  |            40960
 2017-02-05 17:10:18.728097+01 | 1486311018.7281 | pgbench_accounts_pkey |        225394688

 2017-02-05 17:10:19.814479+01 | 1486311019.81448 | pgbench_branches_pkey |            16384
 2017-02-05 17:10:19.814479+01 | 1486311019.81448 | pgbench_tellers_pkey  |            40960
 2017-02-05 17:10:19.814479+01 | 1486311019.81448 | pgbench_accounts_pkey |        225394688

 2017-02-05 17:10:20.896655+01 | 1486311020.89666 | pgbench_branches_pkey |            16384
 2017-02-05 17:10:20.896655+01 | 1486311020.89666 | pgbench_tellers_pkey  |            40960
 2017-02-05 17:10:20.896655+01 | 1486311020.89666 | pgbench_accounts_pkey |        225394688

 2017-02-05 17:10:21.978296+01 | 1486311021.9783 | pgbench_branches_pkey |            16384
 2017-02-05 17:10:21.978296+01 | 1486311021.9783 | pgbench_tellers_pkey  |            40960
 2017-02-05 17:10:21.978296+01 | 1486311021.9783 | pgbench_accounts_pkey |        225394688

 2017-02-05 17:10:23.062731+01 | 1486311023.06273 | pgbench_branches_pkey |            16384
 2017-02-05 17:10:23.062731+01 | 1486311023.06273 | pgbench_tellers_pkey  |            40960
 2017-02-05 17:10:23.062731+01 | 1486311023.06273 | pgbench_accounts_pkey |        225394688

 2017-02-05 17:10:24.149238+01 | 1486311024.14924 | pgbench_branches_pkey |            16384
 2017-02-05 17:10:24.149238+01 | 1486311024.14924 | pgbench_tellers_pkey  |            40960
 2017-02-05 17:10:24.149238+01 | 1486311024.14924 | pgbench_accounts_pkey |        225394688

 2017-02-05 17:10:25.237087+01 | 1486311025.23709 | pgbench_branches_pkey |            16384
 2017-02-05 17:10:25.237087+01 | 1486311025.23709 | pgbench_tellers_pkey  |            40960
 2017-02-05 17:10:25.237087+01 | 1486311025.23709 | pgbench_accounts_pkey |        225394688

 2017-02-05 17:10:26.315096+01 | 1486311026.3151 | pgbench_branches_pkey |            16384
 2017-02-05 17:10:26.315096+01 | 1486311026.3151 | pgbench_tellers_pkey  |            40960
 2017-02-05 17:10:26.315096+01 | 1486311026.3151 | pgbench_accounts_pkey |        225394688

 2017-02-05 17:10:27.387183+01 | 1486311027.38718 | pgbench_branches_pkey |            16384
 2017-02-05 17:10:27.387183+01 | 1486311027.38718 | pgbench_tellers_pkey  |            40960
 2017-02-05 17:10:27.387183+01 | 1486311027.38718 | pgbench_accounts_pkey |        225394688

 2017-02-05 17:10:28.473426+01 | 1486311028.47343 | pgbench_branches_pkey |            16384
 2017-02-05 17:10:28.473426+01 | 1486311028.47343 | pgbench_tellers_pkey  |            40960
 2017-02-05 17:10:28.473426+01 | 1486311028.47343 | pgbench_accounts_pkey |        225394688

 2017-02-05 17:10:29.554607+01 | 1486311029.55461 | pgbench_branches_pkey |            16384
 2017-02-05 17:10:29.554607+01 | 1486311029.55461 | pgbench_tellers_pkey  |            40960
 2017-02-05 17:10:29.554607+01 | 1486311029.55461 | pgbench_accounts_pkey |        225394688

 2017-02-05 17:10:30.626328+01 | 1486311030.62633 | pgbench_branches_pkey |            16384
 2017-02-05 17:10:30.626328+01 | 1486311030.62633 | pgbench_tellers_pkey  |            40960
 2017-02-05 17:10:30.626328+01 | 1486311030.62633 | pgbench_accounts_pkey |        225394688

 2017-02-05 17:10:31.706455+01 | 1486311031.70645 | pgbench_branches_pkey |            16384
 2017-02-05 17:10:31.706455+01 | 1486311031.70645 | pgbench_tellers_pkey  |            40960
 2017-02-05 17:10:31.706455+01 | 1486311031.70645 | pgbench_accounts_pkey |        225394688

 2017-02-05 17:10:32.789076+01 | 1486311032.78908 | pgbench_branches_pkey |            16384
 2017-02-05 17:10:32.789076+01 | 1486311032.78908 | pgbench_tellers_pkey  |            40960
 2017-02-05 17:10:32.789076+01 | 1486311032.78908 | pgbench_accounts_pkey |        225394688

 2017-02-05 17:10:33.876385+01 | 1486311033.87638 | pgbench_branches_pkey |            16384
 2017-02-05 17:10:33.876385+01 | 1486311033.87638 | pgbench_tellers_pkey  |            40960
 2017-02-05 17:10:33.876385+01 | 1486311033.87638 | pgbench_accounts_pkey |        225394688

 2017-02-05 17:10:34.956679+01 | 1486311034.95668 | pgbench_branches_pkey |            16384
 2017-02-05 17:10:34.956679+01 | 1486311034.95668 | pgbench_tellers_pkey  |            40960
 2017-02-05 17:10:34.956679+01 | 1486311034.95668 | pgbench_accounts_pkey |        225394688

 2017-02-05 17:10:36.040382+01 | 1486311036.04038 | pgbench_branches_pkey |            16384
 2017-02-05 17:10:36.040382+01 | 1486311036.04038 | pgbench_tellers_pkey  |            40960
 2017-02-05 17:10:36.040382+01 | 1486311036.04038 | pgbench_accounts_pkey |        225394688

 2017-02-05 17:10:37.132579+01 | 1486311037.13258 | pgbench_branches_pkey |            16384
 2017-02-05 17:10:37.132579+01 | 1486311037.13258 | pgbench_tellers_pkey  |            40960
 2017-02-05 17:10:37.132579+01 | 1486311037.13258 | pgbench_accounts_pkey |        225394688

 2017-02-05 17:10:38.22072+01 | 1486311038.22072 | pgbench_branches_pkey |            16384
 2017-02-05 17:10:38.22072+01 | 1486311038.22072 | pgbench_tellers_pkey  |            40960
 2017-02-05 17:10:38.22072+01 | 1486311038.22072 | pgbench_accounts_pkey |        225394688

 2017-02-05 17:10:39.300903+01 | 1486311039.3009 | pgbench_branches_pkey |            16384
 2017-02-05 17:10:39.300903+01 | 1486311039.3009 | pgbench_tellers_pkey  |            40960
 2017-02-05 17:10:39.300903+01 | 1486311039.3009 | pgbench_accounts_pkey |        225394688

 2017-02-05 17:10:40.386123+01 | 1486311040.38612 | pgbench_branches_pkey |            16384
 2017-02-05 17:10:40.386123+01 | 1486311040.38612 | pgbench_tellers_pkey  |            40960
 2017-02-05 17:10:40.386123+01 | 1486311040.38612 | pgbench_accounts_pkey |        225394688

 2017-02-05 17:10:41.460643+01 | 1486311041.46064 | pgbench_branches_pkey |            16384
 2017-02-05 17:10:41.460643+01 | 1486311041.46064 | pgbench_tellers_pkey  |            40960
 2017-02-05 17:10:41.460643+01 | 1486311041.46064 | pgbench_accounts_pkey |        225394688

 2017-02-05 17:10:42.541944+01 | 1486311042.54194 | pgbench_branches_pkey |            16384
 2017-02-05 17:10:42.541944+01 | 1486311042.54194 | pgbench_tellers_pkey  |            40960
 2017-02-05 17:10:42.541944+01 | 1486311042.54194 | pgbench_accounts_pkey |        225394688

 2017-02-05 17:10:43.624444+01 | 1486311043.62444 | pgbench_branches_pkey |            16384
 2017-02-05 17:10:43.624444+01 | 1486311043.62444 | pgbench_tellers_pkey  |            40960
 2017-02-05 17:10:43.624444+01 | 1486311043.62444 | pgbench_accounts_pkey |        225394688

 2017-02-05 17:10:44.709345+01 | 1486311044.70935 | pgbench_branches_pkey |            16384
 2017-02-05 17:10:44.709345+01 | 1486311044.70935 | pgbench_tellers_pkey  |            40960
 2017-02-05 17:10:44.709345+01 | 1486311044.70935 | pgbench_accounts_pkey |        225394688

 2017-02-05 17:10:45.796057+01 | 1486311045.79606 | pgbench_branches_pkey |            16384
 2017-02-05 17:10:45.796057+01 | 1486311045.79606 | pgbench_tellers_pkey  |            40960
 2017-02-05 17:10:45.796057+01 | 1486311045.79606 | pgbench_accounts_pkey |        225394688

 2017-02-05 17:10:46.876821+01 | 1486311046.87682 | pgbench_branches_pkey |            16384
 2017-02-05 17:10:46.876821+01 | 1486311046.87682 | pgbench_tellers_pkey  |            40960
 2017-02-05 17:10:46.876821+01 | 1486311046.87682 | pgbench_accounts_pkey |        225394688

 2017-02-05 17:10:47.957722+01 | 1486311047.95772 | pgbench_branches_pkey |            16384
 2017-02-05 17:10:47.957722+01 | 1486311047.95772 | pgbench_tellers_pkey  |            40960
 2017-02-05 17:10:47.957722+01 | 1486311047.95772 | pgbench_accounts_pkey |        225394688

 2017-02-05 17:10:49.047059+01 | 1486311049.04706 | pgbench_branches_pkey |            16384
 2017-02-05 17:10:49.047059+01 | 1486311049.04706 | pgbench_tellers_pkey  |            40960
 2017-02-05 17:10:49.047059+01 | 1486311049.04706 | pgbench_accounts_pkey |        225394688

 2017-02-05 17:10:50.127662+01 | 1486311050.12766 | pgbench_branches_pkey |            16384
 2017-02-05 17:10:50.127662+01 | 1486311050.12766 | pgbench_tellers_pkey  |            40960
 2017-02-05 17:10:50.127662+01 | 1486311050.12766 | pgbench_accounts_pkey |        225394688

 2017-02-05 17:10:51.205987+01 | 1486311051.20599 | pgbench_branches_pkey |            16384
 2017-02-05 17:10:51.205987+01 | 1486311051.20599 | pgbench_tellers_pkey  |            40960
 2017-02-05 17:10:51.205987+01 | 1486311051.20599 | pgbench_accounts_pkey |        225394688

 2017-02-05 17:10:52.275138+01 | 1486311052.27514 | pgbench_branches_pkey |            16384
 2017-02-05 17:10:52.275138+01 | 1486311052.27514 | pgbench_tellers_pkey  |            40960
 2017-02-05 17:10:52.275138+01 | 1486311052.27514 | pgbench_accounts_pkey |        225394688

 2017-02-05 17:10:53.356056+01 | 1486311053.35606 | pgbench_branches_pkey |            16384
 2017-02-05 17:10:53.356056+01 | 1486311053.35606 | pgbench_tellers_pkey  |            40960
 2017-02-05 17:10:53.356056+01 | 1486311053.35606 | pgbench_accounts_pkey |        225394688

 2017-02-05 17:10:54.437983+01 | 1486311054.43798 | pgbench_branches_pkey |            16384
 2017-02-05 17:10:54.437983+01 | 1486311054.43798 | pgbench_tellers_pkey  |            40960
 2017-02-05 17:10:54.437983+01 | 1486311054.43798 | pgbench_accounts_pkey |        225394688

 2017-02-05 17:10:55.520544+01 | 1486311055.52054 | pgbench_branches_pkey |            16384
 2017-02-05 17:10:55.520544+01 | 1486311055.52054 | pgbench_tellers_pkey  |            40960
 2017-02-05 17:10:55.520544+01 | 1486311055.52054 | pgbench_accounts_pkey |        225394688

 2017-02-05 17:10:56.611952+01 | 1486311056.61195 | pgbench_branches_pkey |            16384
 2017-02-05 17:10:56.611952+01 | 1486311056.61195 | pgbench_tellers_pkey  |            40960
 2017-02-05 17:10:56.611952+01 | 1486311056.61195 | pgbench_accounts_pkey |        225394688

 2017-02-05 17:10:57.707578+01 | 1486311057.70758 | pgbench_branches_pkey |            16384
 2017-02-05 17:10:57.707578+01 | 1486311057.70758 | pgbench_tellers_pkey  |            40960
 2017-02-05 17:10:57.707578+01 | 1486311057.70758 | pgbench_accounts_pkey |        225394688

 2017-02-05 17:10:58.788796+01 | 1486311058.7888 | pgbench_branches_pkey |            16384
 2017-02-05 17:10:58.788796+01 | 1486311058.7888 | pgbench_tellers_pkey  |            40960
 2017-02-05 17:10:58.788796+01 | 1486311058.7888 | pgbench_accounts_pkey |        225394688

 2017-02-05 17:10:59.883233+01 | 1486311059.88323 | pgbench_branches_pkey |            16384
 2017-02-05 17:10:59.883233+01 | 1486311059.88323 | pgbench_tellers_pkey  |            40960
 2017-02-05 17:10:59.883233+01 | 1486311059.88323 | pgbench_accounts_pkey |        225394688

 2017-02-05 17:11:00.981344+01 | 1486311060.98134 | pgbench_branches_pkey |            16384
 2017-02-05 17:11:00.981344+01 | 1486311060.98134 | pgbench_tellers_pkey  |            40960
 2017-02-05 17:11:00.981344+01 | 1486311060.98134 | pgbench_accounts_pkey |        225394688

 2017-02-05 17:11:02.069306+01 | 1486311062.06931 | pgbench_branches_pkey |            16384
 2017-02-05 17:11:02.069306+01 | 1486311062.06931 | pgbench_tellers_pkey  |            40960
 2017-02-05 17:11:02.069306+01 | 1486311062.06931 | pgbench_accounts_pkey |        225394688

 2017-02-05 17:11:03.153382+01 | 1486311063.15338 | pgbench_branches_pkey |            16384
 2017-02-05 17:11:03.153382+01 | 1486311063.15338 | pgbench_tellers_pkey  |            40960
 2017-02-05 17:11:03.153382+01 | 1486311063.15338 | pgbench_accounts_pkey |        225394688

 2017-02-05 17:11:04.234459+01 | 1486311064.23446 | pgbench_branches_pkey |            16384
 2017-02-05 17:11:04.234459+01 | 1486311064.23446 | pgbench_tellers_pkey  |            40960
 2017-02-05 17:11:04.234459+01 | 1486311064.23446 | pgbench_accounts_pkey |        225394688

 2017-02-05 17:11:05.309458+01 | 1486311065.30946 | pgbench_branches_pkey |            16384
 2017-02-05 17:11:05.309458+01 | 1486311065.30946 | pgbench_tellers_pkey  |            40960
 2017-02-05 17:11:05.309458+01 | 1486311065.30946 | pgbench_accounts_pkey |        225394688

 2017-02-05 17:11:06.394908+01 | 1486311066.39491 | pgbench_branches_pkey |            16384
 2017-02-05 17:11:06.394908+01 | 1486311066.39491 | pgbench_tellers_pkey  |            40960
 2017-02-05 17:11:06.394908+01 | 1486311066.39491 | pgbench_accounts_pkey |        225394688

 2017-02-05 17:11:07.486543+01 | 1486311067.48654 | pgbench_branches_pkey |            16384
 2017-02-05 17:11:07.486543+01 | 1486311067.48654 | pgbench_tellers_pkey  |            40960
 2017-02-05 17:11:07.486543+01 | 1486311067.48654 | pgbench_accounts_pkey |        225394688

 2017-02-05 17:11:08.576021+01 | 1486311068.57602 | pgbench_branches_pkey |            16384
 2017-02-05 17:11:08.576021+01 | 1486311068.57602 | pgbench_tellers_pkey  |            40960
 2017-02-05 17:11:08.576021+01 | 1486311068.57602 | pgbench_accounts_pkey |        225394688

 2017-02-05 17:11:09.661564+01 | 1486311069.66156 | pgbench_branches_pkey |            16384
 2017-02-05 17:11:09.661564+01 | 1486311069.66156 | pgbench_tellers_pkey  |            40960
 2017-02-05 17:11:09.661564+01 | 1486311069.66156 | pgbench_accounts_pkey |        225394688

 2017-02-05 17:11:10.746728+01 | 1486311070.74673 | pgbench_branches_pkey |            16384
 2017-02-05 17:11:10.746728+01 | 1486311070.74673 | pgbench_tellers_pkey  |            40960
 2017-02-05 17:11:10.746728+01 | 1486311070.74673 | pgbench_accounts_pkey |        225394688

 2017-02-05 17:11:11.839031+01 | 1486311071.83903 | pgbench_branches_pkey |            16384
 2017-02-05 17:11:11.839031+01 | 1486311071.83903 | pgbench_tellers_pkey  |            40960
 2017-02-05 17:11:11.839031+01 | 1486311071.83903 | pgbench_accounts_pkey |        225394688

 2017-02-05 17:11:12.933614+01 | 1486311072.93361 | pgbench_branches_pkey |            16384
 2017-02-05 17:11:12.933614+01 | 1486311072.93361 | pgbench_tellers_pkey  |            40960
 2017-02-05 17:11:12.933614+01 | 1486311072.93361 | pgbench_accounts_pkey |        225394688

 2017-02-05 17:11:14.024552+01 | 1486311074.02455 | pgbench_branches_pkey |            16384
 2017-02-05 17:11:14.024552+01 | 1486311074.02455 | pgbench_tellers_pkey  |            40960
 2017-02-05 17:11:14.024552+01 | 1486311074.02455 | pgbench_accounts_pkey |        225394688

 2017-02-05 17:11:15.111411+01 | 1486311075.11141 | pgbench_branches_pkey |            16384
 2017-02-05 17:11:15.111411+01 | 1486311075.11141 | pgbench_tellers_pkey  |            40960
 2017-02-05 17:11:15.111411+01 | 1486311075.11141 | pgbench_accounts_pkey |        225394688

 2017-02-05 17:11:16.201672+01 | 1486311076.20167 | pgbench_branches_pkey |            16384
 2017-02-05 17:11:16.201672+01 | 1486311076.20167 | pgbench_tellers_pkey  |            40960
 2017-02-05 17:11:16.201672+01 | 1486311076.20167 | pgbench_accounts_pkey |        225394688

 2017-02-05 17:11:17.288248+01 | 1486311077.28825 | pgbench_branches_pkey |            16384
 2017-02-05 17:11:17.288248+01 | 1486311077.28825 | pgbench_tellers_pkey  |            40960
 2017-02-05 17:11:17.288248+01 | 1486311077.28825 | pgbench_accounts_pkey |        225394688

 2017-02-05 17:11:18.371184+01 | 1486311078.37118 | pgbench_branches_pkey |            16384
 2017-02-05 17:11:18.371184+01 | 1486311078.37118 | pgbench_tellers_pkey  |            40960
 2017-02-05 17:11:18.371184+01 | 1486311078.37118 | pgbench_accounts_pkey |        225394688

 2017-02-05 17:11:19.458652+01 | 1486311079.45865 | pgbench_branches_pkey |            16384
 2017-02-05 17:11:19.458652+01 | 1486311079.45865 | pgbench_tellers_pkey  |            40960
 2017-02-05 17:11:19.458652+01 | 1486311079.45865 | pgbench_accounts_pkey |        225394688

 2017-02-05 17:11:20.551379+01 | 1486311080.55138 | pgbench_branches_pkey |            16384
 2017-02-05 17:11:20.551379+01 | 1486311080.55138 | pgbench_tellers_pkey  |            40960
 2017-02-05 17:11:20.551379+01 | 1486311080.55138 | pgbench_accounts_pkey |        225394688

 2017-02-05 17:11:21.644345+01 | 1486311081.64435 | pgbench_branches_pkey |            16384
 2017-02-05 17:11:21.644345+01 | 1486311081.64435 | pgbench_tellers_pkey  |            40960
 2017-02-05 17:11:21.644345+01 | 1486311081.64435 | pgbench_accounts_pkey |        225394688

 2017-02-05 17:11:22.728357+01 | 1486311082.72836 | pgbench_branches_pkey |            16384
 2017-02-05 17:11:22.728357+01 | 1486311082.72836 | pgbench_tellers_pkey  |            40960
 2017-02-05 17:11:22.728357+01 | 1486311082.72836 | pgbench_accounts_pkey |        225394688

 2017-02-05 17:11:23.816814+01 | 1486311083.81681 | pgbench_branches_pkey |            16384
 2017-02-05 17:11:23.816814+01 | 1486311083.81681 | pgbench_tellers_pkey  |            40960
 2017-02-05 17:11:23.816814+01 | 1486311083.81681 | pgbench_accounts_pkey |        225394688

 2017-02-05 17:11:24.89944+01 | 1486311084.89944 | pgbench_branches_pkey |            16384
 2017-02-05 17:11:24.89944+01 | 1486311084.89944 | pgbench_tellers_pkey  |            40960
 2017-02-05 17:11:24.89944+01 | 1486311084.89944 | pgbench_accounts_pkey |        225394688

 2017-02-05 17:11:25.977014+01 | 1486311085.97701 | pgbench_branches_pkey |            16384
 2017-02-05 17:11:25.977014+01 | 1486311085.97701 | pgbench_tellers_pkey  |            40960
 2017-02-05 17:11:25.977014+01 | 1486311085.97701 | pgbench_accounts_pkey |        225394688

 2017-02-05 17:11:27.05858+01 | 1486311087.05858 | pgbench_branches_pkey |            16384
 2017-02-05 17:11:27.05858+01 | 1486311087.05858 | pgbench_tellers_pkey  |            40960
 2017-02-05 17:11:27.05858+01 | 1486311087.05858 | pgbench_accounts_pkey |        225394688

 2017-02-05 17:11:28.144434+01 | 1486311088.14443 | pgbench_branches_pkey |            16384
 2017-02-05 17:11:28.144434+01 | 1486311088.14443 | pgbench_tellers_pkey  |            40960
 2017-02-05 17:11:28.144434+01 | 1486311088.14443 | pgbench_accounts_pkey |        225394688

 2017-02-05 17:11:29.228265+01 | 1486311089.22827 | pgbench_branches_pkey |            16384
 2017-02-05 17:11:29.228265+01 | 1486311089.22827 | pgbench_tellers_pkey  |            40960
 2017-02-05 17:11:29.228265+01 | 1486311089.22827 | pgbench_accounts_pkey |        225394688

 2017-02-05 17:11:30.311404+01 | 1486311090.3114 | pgbench_branches_pkey |            16384
 2017-02-05 17:11:30.311404+01 | 1486311090.3114 | pgbench_tellers_pkey  |            40960
 2017-02-05 17:11:30.311404+01 | 1486311090.3114 | pgbench_accounts_pkey |        225394688

 2017-02-05 17:11:31.382539+01 | 1486311091.38254 | pgbench_branches_pkey |            16384
 2017-02-05 17:11:31.382539+01 | 1486311091.38254 | pgbench_tellers_pkey  |            40960
 2017-02-05 17:11:31.382539+01 | 1486311091.38254 | pgbench_accounts_pkey |        225394688

 2017-02-05 17:11:32.461251+01 | 1486311092.46125 | pgbench_branches_pkey |            16384
 2017-02-05 17:11:32.461251+01 | 1486311092.46125 | pgbench_tellers_pkey  |            40960
 2017-02-05 17:11:32.461251+01 | 1486311092.46125 | pgbench_accounts_pkey |        225394688

 2017-02-05 17:11:33.548549+01 | 1486311093.54855 | pgbench_branches_pkey |            16384
 2017-02-05 17:11:33.548549+01 | 1486311093.54855 | pgbench_tellers_pkey  |            40960
 2017-02-05 17:11:33.548549+01 | 1486311093.54855 | pgbench_accounts_pkey |        225394688

 2017-02-05 17:11:34.636222+01 | 1486311094.63622 | pgbench_branches_pkey |            16384
 2017-02-05 17:11:34.636222+01 | 1486311094.63622 | pgbench_tellers_pkey  |            40960
 2017-02-05 17:11:34.636222+01 | 1486311094.63622 | pgbench_accounts_pkey |        225394688

 2017-02-05 17:11:35.723016+01 | 1486311095.72302 | pgbench_branches_pkey |            16384
 2017-02-05 17:11:35.723016+01 | 1486311095.72302 | pgbench_tellers_pkey  |            40960
 2017-02-05 17:11:35.723016+01 | 1486311095.72302 | pgbench_accounts_pkey |        225394688

 2017-02-05 17:11:36.815429+01 | 1486311096.81543 | pgbench_branches_pkey |            16384
 2017-02-05 17:11:36.815429+01 | 1486311096.81543 | pgbench_tellers_pkey  |            40960
 2017-02-05 17:11:36.815429+01 | 1486311096.81543 | pgbench_accounts_pkey |        225394688

 2017-02-05 17:11:37.891291+01 | 1486311097.89129 | pgbench_branches_pkey |            16384
 2017-02-05 17:11:37.891291+01 | 1486311097.89129 | pgbench_tellers_pkey  |            40960
 2017-02-05 17:11:37.891291+01 | 1486311097.89129 | pgbench_accounts_pkey |        225394688

 2017-02-05 17:11:38.976604+01 | 1486311098.9766 | pgbench_branches_pkey |            16384
 2017-02-05 17:11:38.976604+01 | 1486311098.9766 | pgbench_tellers_pkey  |            40960
 2017-02-05 17:11:38.976604+01 | 1486311098.9766 | pgbench_accounts_pkey |        225394688

 2017-02-05 17:11:40.059516+01 | 1486311100.05952 | pgbench_branches_pkey |            16384
 2017-02-05 17:11:40.059516+01 | 1486311100.05952 | pgbench_tellers_pkey  |            40960
 2017-02-05 17:11:40.059516+01 | 1486311100.05952 | pgbench_accounts_pkey |        225394688

 2017-02-05 17:11:41.145108+01 | 1486311101.14511 | pgbench_branches_pkey |            16384
 2017-02-05 17:11:41.145108+01 | 1486311101.14511 | pgbench_tellers_pkey  |            40960
 2017-02-05 17:11:41.145108+01 | 1486311101.14511 | pgbench_accounts_pkey |        225394688

 2017-02-05 17:11:42.224211+01 | 1486311102.22421 | pgbench_branches_pkey |            16384
 2017-02-05 17:11:42.224211+01 | 1486311102.22421 | pgbench_tellers_pkey  |            40960
 2017-02-05 17:11:42.224211+01 | 1486311102.22421 | pgbench_accounts_pkey |        225394688

 2017-02-05 17:11:43.30744+01 | 1486311103.30744 | pgbench_branches_pkey |            16384
 2017-02-05 17:11:43.30744+01 | 1486311103.30744 | pgbench_tellers_pkey  |            40960
 2017-02-05 17:11:43.30744+01 | 1486311103.30744 | pgbench_accounts_pkey |        225394688

 2017-02-05 17:11:44.3878+01 | 1486311104.3878 | pgbench_branches_pkey |            16384
 2017-02-05 17:11:44.3878+01 | 1486311104.3878 | pgbench_tellers_pkey  |            40960
 2017-02-05 17:11:44.3878+01 | 1486311104.3878 | pgbench_accounts_pkey |        225394688

 2017-02-05 17:11:45.476863+01 | 1486311105.47686 | pgbench_branches_pkey |            16384
 2017-02-05 17:11:45.476863+01 | 1486311105.47686 | pgbench_tellers_pkey  |            40960
 2017-02-05 17:11:45.476863+01 | 1486311105.47686 | pgbench_accounts_pkey |        225394688

 2017-02-05 17:11:46.560347+01 | 1486311106.56035 | pgbench_branches_pkey |            16384
 2017-02-05 17:11:46.560347+01 | 1486311106.56035 | pgbench_tellers_pkey  |            40960
 2017-02-05 17:11:46.560347+01 | 1486311106.56035 | pgbench_accounts_pkey |        225394688

 2017-02-05 17:11:47.648287+01 | 1486311107.64829 | pgbench_branches_pkey |            16384
 2017-02-05 17:11:47.648287+01 | 1486311107.64829 | pgbench_tellers_pkey  |            40960
 2017-02-05 17:11:47.648287+01 | 1486311107.64829 | pgbench_accounts_pkey |        225394688

 2017-02-05 17:11:48.733244+01 | 1486311108.73324 | pgbench_branches_pkey |            16384
 2017-02-05 17:11:48.733244+01 | 1486311108.73324 | pgbench_tellers_pkey  |            40960
 2017-02-05 17:11:48.733244+01 | 1486311108.73324 | pgbench_accounts_pkey |        225394688

 2017-02-05 17:11:49.819955+01 | 1486311109.81996 | pgbench_branches_pkey |            16384
 2017-02-05 17:11:49.819955+01 | 1486311109.81996 | pgbench_tellers_pkey  |            40960
 2017-02-05 17:11:49.819955+01 | 1486311109.81996 | pgbench_accounts_pkey |        225394688

 2017-02-05 17:11:50.89228+01 | 1486311110.89228 | pgbench_branches_pkey |            16384
 2017-02-05 17:11:50.89228+01 | 1486311110.89228 | pgbench_tellers_pkey  |            40960
 2017-02-05 17:11:50.89228+01 | 1486311110.89228 | pgbench_accounts_pkey |        225394688

 2017-02-05 17:11:51.97995+01 | 1486311111.97995 | pgbench_branches_pkey |            16384
 2017-02-05 17:11:51.97995+01 | 1486311111.97995 | pgbench_tellers_pkey  |            40960
 2017-02-05 17:11:51.97995+01 | 1486311111.97995 | pgbench_accounts_pkey |        225394688

 2017-02-05 17:11:53.064387+01 | 1486311113.06439 | pgbench_branches_pkey |            16384
 2017-02-05 17:11:53.064387+01 | 1486311113.06439 | pgbench_tellers_pkey  |            40960
 2017-02-05 17:11:53.064387+01 | 1486311113.06439 | pgbench_accounts_pkey |        225394688

 2017-02-05 17:11:54.148098+01 | 1486311114.1481 | pgbench_branches_pkey |            16384
 2017-02-05 17:11:54.148098+01 | 1486311114.1481 | pgbench_tellers_pkey  |            40960
 2017-02-05 17:11:54.148098+01 | 1486311114.1481 | pgbench_accounts_pkey |        225394688

 2017-02-05 17:11:55.227153+01 | 1486311115.22715 | pgbench_branches_pkey |            16384
 2017-02-05 17:11:55.227153+01 | 1486311115.22715 | pgbench_tellers_pkey  |            40960
 2017-02-05 17:11:55.227153+01 | 1486311115.22715 | pgbench_accounts_pkey |        225394688

 2017-02-05 17:11:56.316147+01 | 1486311116.31615 | pgbench_branches_pkey |            16384
 2017-02-05 17:11:56.316147+01 | 1486311116.31615 | pgbench_tellers_pkey  |            40960
 2017-02-05 17:11:56.316147+01 | 1486311116.31615 | pgbench_accounts_pkey |        225394688

 2017-02-05 17:11:57.406441+01 | 1486311117.40644 | pgbench_branches_pkey |            16384
 2017-02-05 17:11:57.406441+01 | 1486311117.40644 | pgbench_tellers_pkey  |            40960
 2017-02-05 17:11:57.406441+01 | 1486311117.40644 | pgbench_accounts_pkey |        225394688

 2017-02-05 17:11:58.492305+01 | 1486311118.49231 | pgbench_branches_pkey |            16384
 2017-02-05 17:11:58.492305+01 | 1486311118.49231 | pgbench_tellers_pkey  |            40960
 2017-02-05 17:11:58.492305+01 | 1486311118.49231 | pgbench_accounts_pkey |        225394688

 2017-02-05 17:11:59.579832+01 | 1486311119.57983 | pgbench_branches_pkey |            16384
 2017-02-05 17:11:59.579832+01 | 1486311119.57983 | pgbench_tellers_pkey  |            40960
 2017-02-05 17:11:59.579832+01 | 1486311119.57983 | pgbench_accounts_pkey |        225394688

 2017-02-05 17:12:00.657562+01 | 1486311120.65756 | pgbench_branches_pkey |            16384
 2017-02-05 17:12:00.657562+01 | 1486311120.65756 | pgbench_tellers_pkey  |            40960
 2017-02-05 17:12:00.657562+01 | 1486311120.65756 | pgbench_accounts_pkey |        225394688

 2017-02-05 17:12:01.750382+01 | 1486311121.75038 | pgbench_branches_pkey |            16384
 2017-02-05 17:12:01.750382+01 | 1486311121.75038 | pgbench_tellers_pkey  |            40960
 2017-02-05 17:12:01.750382+01 | 1486311121.75038 | pgbench_accounts_pkey |        225394688

 2017-02-05 17:12:02.839449+01 | 1486311122.83945 | pgbench_branches_pkey |            16384
 2017-02-05 17:12:02.839449+01 | 1486311122.83945 | pgbench_tellers_pkey  |            40960
 2017-02-05 17:12:02.839449+01 | 1486311122.83945 | pgbench_accounts_pkey |        225394688

 2017-02-05 17:12:03.916886+01 | 1486311123.91689 | pgbench_branches_pkey |            16384
 2017-02-05 17:12:03.916886+01 | 1486311123.91689 | pgbench_tellers_pkey  |            40960
 2017-02-05 17:12:03.916886+01 | 1486311123.91689 | pgbench_accounts_pkey |        225394688

 2017-02-05 17:12:05.008946+01 | 1486311125.00895 | pgbench_branches_pkey |            16384
 2017-02-05 17:12:05.008946+01 | 1486311125.00895 | pgbench_tellers_pkey  |            40960
 2017-02-05 17:12:05.008946+01 | 1486311125.00895 | pgbench_accounts_pkey |        225394688

 2017-02-05 17:12:06.103511+01 | 1486311126.10351 | pgbench_branches_pkey |            16384
 2017-02-05 17:12:06.103511+01 | 1486311126.10351 | pgbench_tellers_pkey  |            40960
 2017-02-05 17:12:06.103511+01 | 1486311126.10351 | pgbench_accounts_pkey |        225394688

 2017-02-05 17:12:07.193186+01 | 1486311127.19319 | pgbench_branches_pkey |            16384
 2017-02-05 17:12:07.193186+01 | 1486311127.19319 | pgbench_tellers_pkey  |            40960
 2017-02-05 17:12:07.193186+01 | 1486311127.19319 | pgbench_accounts_pkey |        225394688

 2017-02-05 17:12:08.285419+01 | 1486311128.28542 | pgbench_branches_pkey |            16384
 2017-02-05 17:12:08.285419+01 | 1486311128.28542 | pgbench_tellers_pkey  |            40960
 2017-02-05 17:12:08.285419+01 | 1486311128.28542 | pgbench_accounts_pkey |        225394688

 2017-02-05 17:12:09.373221+01 | 1486311129.37322 | pgbench_branches_pkey |            16384
 2017-02-05 17:12:09.373221+01 | 1486311129.37322 | pgbench_tellers_pkey  |            40960
 2017-02-05 17:12:09.373221+01 | 1486311129.37322 | pgbench_accounts_pkey |        225394688

 2017-02-05 17:12:10.457143+01 | 1486311130.45714 | pgbench_branches_pkey |            16384
 2017-02-05 17:12:10.457143+01 | 1486311130.45714 | pgbench_tellers_pkey  |            40960
 2017-02-05 17:12:10.457143+01 | 1486311130.45714 | pgbench_accounts_pkey |        225394688

 2017-02-05 17:12:11.53779+01 | 1486311131.53779 | pgbench_branches_pkey |            16384
 2017-02-05 17:12:11.53779+01 | 1486311131.53779 | pgbench_tellers_pkey  |            40960
 2017-02-05 17:12:11.53779+01 | 1486311131.53779 | pgbench_accounts_pkey |        225394688

 2017-02-05 17:12:12.622452+01 | 1486311132.62245 | pgbench_branches_pkey |            16384
 2017-02-05 17:12:12.622452+01 | 1486311132.62245 | pgbench_tellers_pkey  |            40960
 2017-02-05 17:12:12.622452+01 | 1486311132.62245 | pgbench_accounts_pkey |        225394688

 2017-02-05 17:12:13.698723+01 | 1486311133.69872 | pgbench_branches_pkey |            16384
 2017-02-05 17:12:13.698723+01 | 1486311133.69872 | pgbench_tellers_pkey  |            40960
 2017-02-05 17:12:13.698723+01 | 1486311133.69872 | pgbench_accounts_pkey |        225394688

 2017-02-05 17:12:14.78108+01 | 1486311134.78108 | pgbench_branches_pkey |            16384
 2017-02-05 17:12:14.78108+01 | 1486311134.78108 | pgbench_tellers_pkey  |            40960
 2017-02-05 17:12:14.78108+01 | 1486311134.78108 | pgbench_accounts_pkey |        225394688

 2017-02-05 17:12:15.867076+01 | 1486311135.86708 | pgbench_branches_pkey |            16384
 2017-02-05 17:12:15.867076+01 | 1486311135.86708 | pgbench_tellers_pkey  |            40960
 2017-02-05 17:12:15.867076+01 | 1486311135.86708 | pgbench_accounts_pkey |        225394688

 2017-02-05 17:12:16.948776+01 | 1486311136.94878 | pgbench_branches_pkey |            16384
 2017-02-05 17:12:16.948776+01 | 1486311136.94878 | pgbench_tellers_pkey  |            40960
 2017-02-05 17:12:16.948776+01 | 1486311136.94878 | pgbench_accounts_pkey |        225394688

 2017-02-05 17:12:18.039002+01 | 1486311138.039 | pgbench_branches_pkey |            16384
 2017-02-05 17:12:18.039002+01 | 1486311138.039 | pgbench_tellers_pkey  |            40960
 2017-02-05 17:12:18.039002+01 | 1486311138.039 | pgbench_accounts_pkey |        225394688

 2017-02-05 17:12:19.110453+01 | 1486311139.11045 | pgbench_branches_pkey |            16384
 2017-02-05 17:12:19.110453+01 | 1486311139.11045 | pgbench_tellers_pkey  |            40960
 2017-02-05 17:12:19.110453+01 | 1486311139.11045 | pgbench_accounts_pkey |        225394688

 2017-02-05 17:12:20.187194+01 | 1486311140.18719 | pgbench_branches_pkey |            16384
 2017-02-05 17:12:20.187194+01 | 1486311140.18719 | pgbench_tellers_pkey  |            40960
 2017-02-05 17:12:20.187194+01 | 1486311140.18719 | pgbench_accounts_pkey |        225394688

 2017-02-05 17:12:21.275183+01 | 1486311141.27518 | pgbench_branches_pkey |            16384
 2017-02-05 17:12:21.275183+01 | 1486311141.27518 | pgbench_tellers_pkey  |            40960
 2017-02-05 17:12:21.275183+01 | 1486311141.27518 | pgbench_accounts_pkey |        225394688

 2017-02-05 17:12:22.356677+01 | 1486311142.35668 | pgbench_branches_pkey |            16384
 2017-02-05 17:12:22.356677+01 | 1486311142.35668 | pgbench_tellers_pkey  |            40960
 2017-02-05 17:12:22.356677+01 | 1486311142.35668 | pgbench_accounts_pkey |        225394688

 2017-02-05 17:12:23.447951+01 | 1486311143.44795 | pgbench_branches_pkey |            16384
 2017-02-05 17:12:23.447951+01 | 1486311143.44795 | pgbench_tellers_pkey  |            40960
 2017-02-05 17:12:23.447951+01 | 1486311143.44795 | pgbench_accounts_pkey |        225394688

 2017-02-05 17:12:24.538389+01 | 1486311144.53839 | pgbench_branches_pkey |            16384
 2017-02-05 17:12:24.538389+01 | 1486311144.53839 | pgbench_tellers_pkey  |            40960
 2017-02-05 17:12:24.538389+01 | 1486311144.53839 | pgbench_accounts_pkey |        225394688

 2017-02-05 17:12:25.6227+01 | 1486311145.6227 | pgbench_branches_pkey |            16384
 2017-02-05 17:12:25.6227+01 | 1486311145.6227 | pgbench_tellers_pkey  |            40960
 2017-02-05 17:12:25.6227+01 | 1486311145.6227 | pgbench_accounts_pkey |        225394688

 2017-02-05 17:12:26.706036+01 | 1486311146.70604 | pgbench_branches_pkey |            16384
 2017-02-05 17:12:26.706036+01 | 1486311146.70604 | pgbench_tellers_pkey  |            40960
 2017-02-05 17:12:26.706036+01 | 1486311146.70604 | pgbench_accounts_pkey |        225394688

 2017-02-05 17:12:27.796021+01 | 1486311147.79602 | pgbench_branches_pkey |            16384
 2017-02-05 17:12:27.796021+01 | 1486311147.79602 | pgbench_tellers_pkey  |            40960
 2017-02-05 17:12:27.796021+01 | 1486311147.79602 | pgbench_accounts_pkey |        225394688

 2017-02-05 17:12:28.883718+01 | 1486311148.88372 | pgbench_branches_pkey |            16384
 2017-02-05 17:12:28.883718+01 | 1486311148.88372 | pgbench_tellers_pkey  |            40960
 2017-02-05 17:12:28.883718+01 | 1486311148.88372 | pgbench_accounts_pkey |        225394688

 2017-02-05 17:12:29.973978+01 | 1486311149.97398 | pgbench_branches_pkey |            16384
 2017-02-05 17:12:29.973978+01 | 1486311149.97398 | pgbench_tellers_pkey  |            40960
 2017-02-05 17:12:29.973978+01 | 1486311149.97398 | pgbench_accounts_pkey |        225394688

 2017-02-05 17:12:31.061132+01 | 1486311151.06113 | pgbench_branches_pkey |            16384
 2017-02-05 17:12:31.061132+01 | 1486311151.06113 | pgbench_tellers_pkey  |            40960
 2017-02-05 17:12:31.061132+01 | 1486311151.06113 | pgbench_accounts_pkey |        225394688

 2017-02-05 17:12:32.145226+01 | 1486311152.14523 | pgbench_branches_pkey |            16384
 2017-02-05 17:12:32.145226+01 | 1486311152.14523 | pgbench_tellers_pkey  |            40960
 2017-02-05 17:12:32.145226+01 | 1486311152.14523 | pgbench_accounts_pkey |        225394688

 2017-02-05 17:12:33.235573+01 | 1486311153.23557 | pgbench_branches_pkey |            16384
 2017-02-05 17:12:33.235573+01 | 1486311153.23557 | pgbench_tellers_pkey  |            40960
 2017-02-05 17:12:33.235573+01 | 1486311153.23557 | pgbench_accounts_pkey |        225394688

 2017-02-05 17:12:34.326076+01 | 1486311154.32608 | pgbench_branches_pkey |            16384
 2017-02-05 17:12:34.326076+01 | 1486311154.32608 | pgbench_tellers_pkey  |            40960
 2017-02-05 17:12:34.326076+01 | 1486311154.32608 | pgbench_accounts_pkey |        225394688

 2017-02-05 17:12:35.416918+01 | 1486311155.41692 | pgbench_branches_pkey |            16384
 2017-02-05 17:12:35.416918+01 | 1486311155.41692 | pgbench_tellers_pkey  |            40960
 2017-02-05 17:12:35.416918+01 | 1486311155.41692 | pgbench_accounts_pkey |        225394688

 2017-02-05 17:12:36.500156+01 | 1486311156.50016 | pgbench_branches_pkey |            16384
 2017-02-05 17:12:36.500156+01 | 1486311156.50016 | pgbench_tellers_pkey  |            40960
 2017-02-05 17:12:36.500156+01 | 1486311156.50016 | pgbench_accounts_pkey |        225394688

 2017-02-05 17:12:37.569061+01 | 1486311157.56906 | pgbench_branches_pkey |            16384
 2017-02-05 17:12:37.569061+01 | 1486311157.56906 | pgbench_tellers_pkey  |            40960
 2017-02-05 17:12:37.569061+01 | 1486311157.56906 | pgbench_accounts_pkey |        225394688

 2017-02-05 17:12:38.649395+01 | 1486311158.64939 | pgbench_branches_pkey |            16384
 2017-02-05 17:12:38.649395+01 | 1486311158.64939 | pgbench_tellers_pkey  |            40960
 2017-02-05 17:12:38.649395+01 | 1486311158.64939 | pgbench_accounts_pkey |        225394688

 2017-02-05 17:12:39.733589+01 | 1486311159.73359 | pgbench_branches_pkey |            16384
 2017-02-05 17:12:39.733589+01 | 1486311159.73359 | pgbench_tellers_pkey  |            40960
 2017-02-05 17:12:39.733589+01 | 1486311159.73359 | pgbench_accounts_pkey |        225394688

 2017-02-05 17:12:40.81485+01 | 1486311160.81485 | pgbench_branches_pkey |            16384
 2017-02-05 17:12:40.81485+01 | 1486311160.81485 | pgbench_tellers_pkey  |            40960
 2017-02-05 17:12:40.81485+01 | 1486311160.81485 | pgbench_accounts_pkey |        225394688

 2017-02-05 17:12:41.893343+01 | 1486311161.89334 | pgbench_branches_pkey |            16384
 2017-02-05 17:12:41.893343+01 | 1486311161.89334 | pgbench_tellers_pkey  |            40960
 2017-02-05 17:12:41.893343+01 | 1486311161.89334 | pgbench_accounts_pkey |        225394688

 2017-02-05 17:12:42.978692+01 | 1486311162.97869 | pgbench_branches_pkey |            16384
 2017-02-05 17:12:42.978692+01 | 1486311162.97869 | pgbench_tellers_pkey  |            40960
 2017-02-05 17:12:42.978692+01 | 1486311162.97869 | pgbench_accounts_pkey |        225394688

 2017-02-05 17:12:44.063589+01 | 1486311164.06359 | pgbench_branches_pkey |            16384
 2017-02-05 17:12:44.063589+01 | 1486311164.06359 | pgbench_tellers_pkey  |            40960
 2017-02-05 17:12:44.063589+01 | 1486311164.06359 | pgbench_accounts_pkey |        225394688

 2017-02-05 17:12:45.148724+01 | 1486311165.14872 | pgbench_branches_pkey |            16384
 2017-02-05 17:12:45.148724+01 | 1486311165.14872 | pgbench_tellers_pkey  |            40960
 2017-02-05 17:12:45.148724+01 | 1486311165.14872 | pgbench_accounts_pkey |        225394688

 2017-02-05 17:12:46.23705+01 | 1486311166.23705 | pgbench_branches_pkey |            16384
 2017-02-05 17:12:46.23705+01 | 1486311166.23705 | pgbench_tellers_pkey  |            40960
 2017-02-05 17:12:46.23705+01 | 1486311166.23705 | pgbench_accounts_pkey |        225394688

 2017-02-05 17:12:47.321248+01 | 1486311167.32125 | pgbench_branches_pkey |            16384
 2017-02-05 17:12:47.321248+01 | 1486311167.32125 | pgbench_tellers_pkey  |            40960
 2017-02-05 17:12:47.321248+01 | 1486311167.32125 | pgbench_accounts_pkey |        225394688

 2017-02-05 17:12:48.409002+01 | 1486311168.409 | pgbench_branches_pkey |            16384
 2017-02-05 17:12:48.409002+01 | 1486311168.409 | pgbench_tellers_pkey  |            40960
 2017-02-05 17:12:48.409002+01 | 1486311168.409 | pgbench_accounts_pkey |        225394688

 2017-02-05 17:12:49.484448+01 | 1486311169.48445 | pgbench_branches_pkey |            16384
 2017-02-05 17:12:49.484448+01 | 1486311169.48445 | pgbench_tellers_pkey  |            40960
 2017-02-05 17:12:49.484448+01 | 1486311169.48445 | pgbench_accounts_pkey |        225394688

 2017-02-05 17:12:50.566785+01 | 1486311170.56679 | pgbench_branches_pkey |            16384
 2017-02-05 17:12:50.566785+01 | 1486311170.56679 | pgbench_tellers_pkey  |            40960
 2017-02-05 17:12:50.566785+01 | 1486311170.56679 | pgbench_accounts_pkey |        225394688

 2017-02-05 17:12:51.659191+01 | 1486311171.65919 | pgbench_branches_pkey |            16384
 2017-02-05 17:12:51.659191+01 | 1486311171.65919 | pgbench_tellers_pkey  |            40960
 2017-02-05 17:12:51.659191+01 | 1486311171.65919 | pgbench_accounts_pkey |        225394688

 2017-02-05 17:12:52.751069+01 | 1486311172.75107 | pgbench_branches_pkey |            16384
 2017-02-05 17:12:52.751069+01 | 1486311172.75107 | pgbench_tellers_pkey  |            40960
 2017-02-05 17:12:52.751069+01 | 1486311172.75107 | pgbench_accounts_pkey |        225394688

 2017-02-05 17:12:53.831109+01 | 1486311173.83111 | pgbench_branches_pkey |            16384
 2017-02-05 17:12:53.831109+01 | 1486311173.83111 | pgbench_tellers_pkey  |            40960
 2017-02-05 17:12:53.831109+01 | 1486311173.83111 | pgbench_accounts_pkey |        225394688

 2017-02-05 17:12:54.919136+01 | 1486311174.91914 | pgbench_branches_pkey |            16384
 2017-02-05 17:12:54.919136+01 | 1486311174.91914 | pgbench_tellers_pkey  |            40960
 2017-02-05 17:12:54.919136+01 | 1486311174.91914 | pgbench_accounts_pkey |        225394688

 2017-02-05 17:12:56.00319+01 | 1486311176.00319 | pgbench_branches_pkey |            16384
 2017-02-05 17:12:56.00319+01 | 1486311176.00319 | pgbench_tellers_pkey  |            40960
 2017-02-05 17:12:56.00319+01 | 1486311176.00319 | pgbench_accounts_pkey |        225394688

 2017-02-05 17:12:57.092413+01 | 1486311177.09241 | pgbench_branches_pkey |            16384
 2017-02-05 17:12:57.092413+01 | 1486311177.09241 | pgbench_tellers_pkey  |            40960
 2017-02-05 17:12:57.092413+01 | 1486311177.09241 | pgbench_accounts_pkey |        225394688

 2017-02-05 17:12:58.181355+01 | 1486311178.18135 | pgbench_branches_pkey |            16384
 2017-02-05 17:12:58.181355+01 | 1486311178.18135 | pgbench_tellers_pkey  |            40960
 2017-02-05 17:12:58.181355+01 | 1486311178.18135 | pgbench_accounts_pkey |        225394688

 2017-02-05 17:12:59.275945+01 | 1486311179.27594 | pgbench_branches_pkey |            16384
 2017-02-05 17:12:59.275945+01 | 1486311179.27594 | pgbench_tellers_pkey  |            40960
 2017-02-05 17:12:59.275945+01 | 1486311179.27594 | pgbench_accounts_pkey |        225394688

 2017-02-05 17:13:00.366414+01 | 1486311180.36641 | pgbench_branches_pkey |            16384
 2017-02-05 17:13:00.366414+01 | 1486311180.36641 | pgbench_tellers_pkey  |            40960
 2017-02-05 17:13:00.366414+01 | 1486311180.36641 | pgbench_accounts_pkey |        225394688

 2017-02-05 17:13:01.456077+01 | 1486311181.45608 | pgbench_branches_pkey |            16384
 2017-02-05 17:13:01.456077+01 | 1486311181.45608 | pgbench_tellers_pkey  |            40960
 2017-02-05 17:13:01.456077+01 | 1486311181.45608 | pgbench_accounts_pkey |        225394688

 2017-02-05 17:13:02.529878+01 | 1486311182.52988 | pgbench_branches_pkey |            16384
 2017-02-05 17:13:02.529878+01 | 1486311182.52988 | pgbench_tellers_pkey  |            40960
 2017-02-05 17:13:02.529878+01 | 1486311182.52988 | pgbench_accounts_pkey |        225394688

 2017-02-05 17:13:03.601245+01 | 1486311183.60124 | pgbench_branches_pkey |            16384
 2017-02-05 17:13:03.601245+01 | 1486311183.60124 | pgbench_tellers_pkey  |            40960
 2017-02-05 17:13:03.601245+01 | 1486311183.60124 | pgbench_accounts_pkey |        225394688

 2017-02-05 17:13:04.685774+01 | 1486311184.68577 | pgbench_branches_pkey |            16384
 2017-02-05 17:13:04.685774+01 | 1486311184.68577 | pgbench_tellers_pkey  |            40960
 2017-02-05 17:13:04.685774+01 | 1486311184.68577 | pgbench_accounts_pkey |        225394688

 2017-02-05 17:13:05.77842+01 | 1486311185.77842 | pgbench_branches_pkey |            16384
 2017-02-05 17:13:05.77842+01 | 1486311185.77842 | pgbench_tellers_pkey  |            40960
 2017-02-05 17:13:05.77842+01 | 1486311185.77842 | pgbench_accounts_pkey |        225394688

 2017-02-05 17:13:06.864572+01 | 1486311186.86457 | pgbench_branches_pkey |            16384
 2017-02-05 17:13:06.864572+01 | 1486311186.86457 | pgbench_tellers_pkey  |            40960
 2017-02-05 17:13:06.864572+01 | 1486311186.86457 | pgbench_accounts_pkey |        225394688

 2017-02-05 17:13:07.944021+01 | 1486311187.94402 | pgbench_branches_pkey |            16384
 2017-02-05 17:13:07.944021+01 | 1486311187.94402 | pgbench_tellers_pkey  |            40960
 2017-02-05 17:13:07.944021+01 | 1486311187.94402 | pgbench_accounts_pkey |        225394688

 2017-02-05 17:13:09.031072+01 | 1486311189.03107 | pgbench_branches_pkey |            16384
 2017-02-05 17:13:09.031072+01 | 1486311189.03107 | pgbench_tellers_pkey  |            40960
 2017-02-05 17:13:09.031072+01 | 1486311189.03107 | pgbench_accounts_pkey |        225394688

 2017-02-05 17:13:10.113258+01 | 1486311190.11326 | pgbench_branches_pkey |            16384
 2017-02-05 17:13:10.113258+01 | 1486311190.11326 | pgbench_tellers_pkey  |            40960
 2017-02-05 17:13:10.113258+01 | 1486311190.11326 | pgbench_accounts_pkey |        225394688

 2017-02-05 17:13:11.187079+01 | 1486311191.18708 | pgbench_branches_pkey |            16384
 2017-02-05 17:13:11.187079+01 | 1486311191.18708 | pgbench_tellers_pkey  |            40960
 2017-02-05 17:13:11.187079+01 | 1486311191.18708 | pgbench_accounts_pkey |        225394688

 2017-02-05 17:13:12.268835+01 | 1486311192.26884 | pgbench_branches_pkey |            16384
 2017-02-05 17:13:12.268835+01 | 1486311192.26884 | pgbench_tellers_pkey  |            40960
 2017-02-05 17:13:12.268835+01 | 1486311192.26884 | pgbench_accounts_pkey |        225394688

 2017-02-05 17:13:13.346196+01 | 1486311193.3462 | pgbench_branches_pkey |            16384
 2017-02-05 17:13:13.346196+01 | 1486311193.3462 | pgbench_tellers_pkey  |            40960
 2017-02-05 17:13:13.346196+01 | 1486311193.3462 | pgbench_accounts_pkey |        225394688

 2017-02-05 17:13:14.440804+01 | 1486311194.4408 | pgbench_branches_pkey |            16384
 2017-02-05 17:13:14.440804+01 | 1486311194.4408 | pgbench_tellers_pkey  |            40960
 2017-02-05 17:13:14.440804+01 | 1486311194.4408 | pgbench_accounts_pkey |        225394688

 2017-02-05 17:13:15.531618+01 | 1486311195.53162 | pgbench_branches_pkey |            16384
 2017-02-05 17:13:15.531618+01 | 1486311195.53162 | pgbench_tellers_pkey  |            40960
 2017-02-05 17:13:15.531618+01 | 1486311195.53162 | pgbench_accounts_pkey |        225394688

 2017-02-05 17:13:16.618579+01 | 1486311196.61858 | pgbench_branches_pkey |            16384
 2017-02-05 17:13:16.618579+01 | 1486311196.61858 | pgbench_tellers_pkey  |            40960
 2017-02-05 17:13:16.618579+01 | 1486311196.61858 | pgbench_accounts_pkey |        225394688

 2017-02-05 17:13:17.707269+01 | 1486311197.70727 | pgbench_branches_pkey |            16384
 2017-02-05 17:13:17.707269+01 | 1486311197.70727 | pgbench_tellers_pkey  |            40960
 2017-02-05 17:13:17.707269+01 | 1486311197.70727 | pgbench_accounts_pkey |        225394688

 2017-02-05 17:13:18.796191+01 | 1486311198.79619 | pgbench_branches_pkey |            16384
 2017-02-05 17:13:18.796191+01 | 1486311198.79619 | pgbench_tellers_pkey  |            40960
 2017-02-05 17:13:18.796191+01 | 1486311198.79619 | pgbench_accounts_pkey |        225394688

 2017-02-05 17:13:19.877391+01 | 1486311199.87739 | pgbench_branches_pkey |            16384
 2017-02-05 17:13:19.877391+01 | 1486311199.87739 | pgbench_tellers_pkey  |            40960
 2017-02-05 17:13:19.877391+01 | 1486311199.87739 | pgbench_accounts_pkey |        225394688

 2017-02-05 17:13:20.962275+01 | 1486311200.96228 | pgbench_branches_pkey |            16384
 2017-02-05 17:13:20.962275+01 | 1486311200.96228 | pgbench_tellers_pkey  |            40960
 2017-02-05 17:13:20.962275+01 | 1486311200.96228 | pgbench_accounts_pkey |        225394688

 2017-02-05 17:13:22.047598+01 | 1486311202.0476 | pgbench_branches_pkey |            16384
 2017-02-05 17:13:22.047598+01 | 1486311202.0476 | pgbench_tellers_pkey  |            40960
 2017-02-05 17:13:22.047598+01 | 1486311202.0476 | pgbench_accounts_pkey |        225394688

 2017-02-05 17:13:23.130793+01 | 1486311203.13079 | pgbench_branches_pkey |            16384
 2017-02-05 17:13:23.130793+01 | 1486311203.13079 | pgbench_tellers_pkey  |            40960
 2017-02-05 17:13:23.130793+01 | 1486311203.13079 | pgbench_accounts_pkey |        225394688

 2017-02-05 17:13:24.202442+01 | 1486311204.20244 | pgbench_branches_pkey |            16384
 2017-02-05 17:13:24.202442+01 | 1486311204.20244 | pgbench_tellers_pkey  |            40960
 2017-02-05 17:13:24.202442+01 | 1486311204.20244 | pgbench_accounts_pkey |        225394688

 2017-02-05 17:13:25.286832+01 | 1486311205.28683 | pgbench_branches_pkey |            16384
 2017-02-05 17:13:25.286832+01 | 1486311205.28683 | pgbench_tellers_pkey  |            40960
 2017-02-05 17:13:25.286832+01 | 1486311205.28683 | pgbench_accounts_pkey |        225394688

 2017-02-05 17:13:26.375103+01 | 1486311206.3751 | pgbench_branches_pkey |            16384
 2017-02-05 17:13:26.375103+01 | 1486311206.3751 | pgbench_tellers_pkey  |            40960
 2017-02-05 17:13:26.375103+01 | 1486311206.3751 | pgbench_accounts_pkey |        225394688

 2017-02-05 17:13:27.454021+01 | 1486311207.45402 | pgbench_branches_pkey |            16384
 2017-02-05 17:13:27.454021+01 | 1486311207.45402 | pgbench_tellers_pkey  |            40960
 2017-02-05 17:13:27.454021+01 | 1486311207.45402 | pgbench_accounts_pkey |        225394688

 2017-02-05 17:13:28.52802+01 | 1486311208.52802 | pgbench_branches_pkey |            16384
 2017-02-05 17:13:28.52802+01 | 1486311208.52802 | pgbench_tellers_pkey  |            40960
 2017-02-05 17:13:28.52802+01 | 1486311208.52802 | pgbench_accounts_pkey |        225394688

 2017-02-05 17:13:29.611183+01 | 1486311209.61118 | pgbench_branches_pkey |            16384
 2017-02-05 17:13:29.611183+01 | 1486311209.61118 | pgbench_tellers_pkey  |            40960
 2017-02-05 17:13:29.611183+01 | 1486311209.61118 | pgbench_accounts_pkey |        225394688

 2017-02-05 17:13:30.698457+01 | 1486311210.69846 | pgbench_branches_pkey |            16384
 2017-02-05 17:13:30.698457+01 | 1486311210.69846 | pgbench_tellers_pkey  |            40960
 2017-02-05 17:13:30.698457+01 | 1486311210.69846 | pgbench_accounts_pkey |        225394688

 2017-02-05 17:13:31.78751+01 | 1486311211.78751 | pgbench_branches_pkey |            16384
 2017-02-05 17:13:31.78751+01 | 1486311211.78751 | pgbench_tellers_pkey  |            40960
 2017-02-05 17:13:31.78751+01 | 1486311211.78751 | pgbench_accounts_pkey |        225394688

 2017-02-05 17:13:32.870509+01 | 1486311212.87051 | pgbench_branches_pkey |            16384
 2017-02-05 17:13:32.870509+01 | 1486311212.87051 | pgbench_tellers_pkey  |            40960
 2017-02-05 17:13:32.870509+01 | 1486311212.87051 | pgbench_accounts_pkey |        225394688

 2017-02-05 17:13:33.946631+01 | 1486311213.94663 | pgbench_branches_pkey |            16384
 2017-02-05 17:13:33.946631+01 | 1486311213.94663 | pgbench_tellers_pkey  |            40960
 2017-02-05 17:13:33.946631+01 | 1486311213.94663 | pgbench_accounts_pkey |        225394688

 2017-02-05 17:13:35.033383+01 | 1486311215.03338 | pgbench_branches_pkey |            16384
 2017-02-05 17:13:35.033383+01 | 1486311215.03338 | pgbench_tellers_pkey  |            40960
 2017-02-05 17:13:35.033383+01 | 1486311215.03338 | pgbench_accounts_pkey |        225394688

 2017-02-05 17:13:36.109311+01 | 1486311216.10931 | pgbench_branches_pkey |            16384
 2017-02-05 17:13:36.109311+01 | 1486311216.10931 | pgbench_tellers_pkey  |            40960
 2017-02-05 17:13:36.109311+01 | 1486311216.10931 | pgbench_accounts_pkey |        225394688

 2017-02-05 17:13:37.183743+01 | 1486311217.18374 | pgbench_branches_pkey |            16384
 2017-02-05 17:13:37.183743+01 | 1486311217.18374 | pgbench_tellers_pkey  |            40960
 2017-02-05 17:13:37.183743+01 | 1486311217.18374 | pgbench_accounts_pkey |        225394688

 2017-02-05 17:13:38.27031+01 | 1486311218.27031 | pgbench_branches_pkey |            16384
 2017-02-05 17:13:38.27031+01 | 1486311218.27031 | pgbench_tellers_pkey  |            40960
 2017-02-05 17:13:38.27031+01 | 1486311218.27031 | pgbench_accounts_pkey |        225394688

 2017-02-05 17:13:39.34514+01 | 1486311219.34514 | pgbench_branches_pkey |            16384
 2017-02-05 17:13:39.34514+01 | 1486311219.34514 | pgbench_tellers_pkey  |            40960
 2017-02-05 17:13:39.34514+01 | 1486311219.34514 | pgbench_accounts_pkey |        225394688

 2017-02-05 17:13:40.426954+01 | 1486311220.42695 | pgbench_branches_pkey |            16384
 2017-02-05 17:13:40.426954+01 | 1486311220.42695 | pgbench_tellers_pkey  |            40960
 2017-02-05 17:13:40.426954+01 | 1486311220.42695 | pgbench_accounts_pkey |        225394688

 2017-02-05 17:13:41.508152+01 | 1486311221.50815 | pgbench_branches_pkey |            16384
 2017-02-05 17:13:41.508152+01 | 1486311221.50815 | pgbench_tellers_pkey  |            40960
 2017-02-05 17:13:41.508152+01 | 1486311221.50815 | pgbench_accounts_pkey |        225394688

 2017-02-05 17:13:42.590192+01 | 1486311222.59019 | pgbench_branches_pkey |            16384
 2017-02-05 17:13:42.590192+01 | 1486311222.59019 | pgbench_tellers_pkey  |            40960
 2017-02-05 17:13:42.590192+01 | 1486311222.59019 | pgbench_accounts_pkey |        225394688

 2017-02-05 17:13:43.677523+01 | 1486311223.67752 | pgbench_branches_pkey |            16384
 2017-02-05 17:13:43.677523+01 | 1486311223.67752 | pgbench_tellers_pkey  |            40960
 2017-02-05 17:13:43.677523+01 | 1486311223.67752 | pgbench_accounts_pkey |        225394688

 2017-02-05 17:13:44.764307+01 | 1486311224.76431 | pgbench_branches_pkey |            16384
 2017-02-05 17:13:44.764307+01 | 1486311224.76431 | pgbench_tellers_pkey  |            40960
 2017-02-05 17:13:44.764307+01 | 1486311224.76431 | pgbench_accounts_pkey |        225394688

 2017-02-05 17:13:45.844949+01 | 1486311225.84495 | pgbench_branches_pkey |            16384
 2017-02-05 17:13:45.844949+01 | 1486311225.84495 | pgbench_tellers_pkey  |            40960
 2017-02-05 17:13:45.844949+01 | 1486311225.84495 | pgbench_accounts_pkey |        225394688

 2017-02-05 17:13:46.912444+01 | 1486311226.91244 | pgbench_branches_pkey |            16384
 2017-02-05 17:13:46.912444+01 | 1486311226.91244 | pgbench_tellers_pkey  |            40960
 2017-02-05 17:13:46.912444+01 | 1486311226.91244 | pgbench_accounts_pkey |        225394688

 2017-02-05 17:13:47.994163+01 | 1486311227.99416 | pgbench_branches_pkey |            16384
 2017-02-05 17:13:47.994163+01 | 1486311227.99416 | pgbench_tellers_pkey  |            40960
 2017-02-05 17:13:47.994163+01 | 1486311227.99416 | pgbench_accounts_pkey |        225394688

 2017-02-05 17:13:49.068139+01 | 1486311229.06814 | pgbench_branches_pkey |            16384
 2017-02-05 17:13:49.068139+01 | 1486311229.06814 | pgbench_tellers_pkey  |            40960
 2017-02-05 17:13:49.068139+01 | 1486311229.06814 | pgbench_accounts_pkey |        225394688

 2017-02-05 17:13:50.154164+01 | 1486311230.15416 | pgbench_branches_pkey |            16384
 2017-02-05 17:13:50.154164+01 | 1486311230.15416 | pgbench_tellers_pkey  |            40960
 2017-02-05 17:13:50.154164+01 | 1486311230.15416 | pgbench_accounts_pkey |        225394688

 2017-02-05 17:13:51.228216+01 | 1486311231.22822 | pgbench_branches_pkey |            16384
 2017-02-05 17:13:51.228216+01 | 1486311231.22822 | pgbench_tellers_pkey  |            40960
 2017-02-05 17:13:51.228216+01 | 1486311231.22822 | pgbench_accounts_pkey |        225394688

 2017-02-05 17:13:52.310926+01 | 1486311232.31093 | pgbench_branches_pkey |            16384
 2017-02-05 17:13:52.310926+01 | 1486311232.31093 | pgbench_tellers_pkey  |            40960
 2017-02-05 17:13:52.310926+01 | 1486311232.31093 | pgbench_accounts_pkey |        225394688

 2017-02-05 17:13:53.390098+01 | 1486311233.3901 | pgbench_branches_pkey |            16384
 2017-02-05 17:13:53.390098+01 | 1486311233.3901 | pgbench_tellers_pkey  |            40960
 2017-02-05 17:13:53.390098+01 | 1486311233.3901 | pgbench_accounts_pkey |        225394688

 2017-02-05 17:13:54.477751+01 | 1486311234.47775 | pgbench_branches_pkey |            16384
 2017-02-05 17:13:54.477751+01 | 1486311234.47775 | pgbench_tellers_pkey  |            40960
 2017-02-05 17:13:54.477751+01 | 1486311234.47775 | pgbench_accounts_pkey |        225394688

 2017-02-05 17:13:55.560434+01 | 1486311235.56043 | pgbench_branches_pkey |            16384
 2017-02-05 17:13:55.560434+01 | 1486311235.56043 | pgbench_tellers_pkey  |            40960
 2017-02-05 17:13:55.560434+01 | 1486311235.56043 | pgbench_accounts_pkey |        225394688

 2017-02-05 17:13:56.647335+01 | 1486311236.64734 | pgbench_branches_pkey |            16384
 2017-02-05 17:13:56.647335+01 | 1486311236.64734 | pgbench_tellers_pkey  |            40960
 2017-02-05 17:13:56.647335+01 | 1486311236.64734 | pgbench_accounts_pkey |        225394688

 2017-02-05 17:13:57.724151+01 | 1486311237.72415 | pgbench_branches_pkey |            16384
 2017-02-05 17:13:57.724151+01 | 1486311237.72415 | pgbench_tellers_pkey  |            40960
 2017-02-05 17:13:57.724151+01 | 1486311237.72415 | pgbench_accounts_pkey |        225394688

 2017-02-05 17:13:58.802465+01 | 1486311238.80246 | pgbench_branches_pkey |            16384
 2017-02-05 17:13:58.802465+01 | 1486311238.80246 | pgbench_tellers_pkey  |            40960
 2017-02-05 17:13:58.802465+01 | 1486311238.80246 | pgbench_accounts_pkey |        225394688

 2017-02-05 17:13:59.887101+01 | 1486311239.8871 | pgbench_branches_pkey |            16384
 2017-02-05 17:13:59.887101+01 | 1486311239.8871 | pgbench_tellers_pkey  |            40960
 2017-02-05 17:13:59.887101+01 | 1486311239.8871 | pgbench_accounts_pkey |        225394688

 2017-02-05 17:14:00.976409+01 | 1486311240.97641 | pgbench_branches_pkey |            16384
 2017-02-05 17:14:00.976409+01 | 1486311240.97641 | pgbench_tellers_pkey  |            40960
 2017-02-05 17:14:00.976409+01 | 1486311240.97641 | pgbench_accounts_pkey |        225394688

 2017-02-05 17:14:02.067629+01 | 1486311242.06763 | pgbench_branches_pkey |            16384
 2017-02-05 17:14:02.067629+01 | 1486311242.06763 | pgbench_tellers_pkey  |            40960
 2017-02-05 17:14:02.067629+01 | 1486311242.06763 | pgbench_accounts_pkey |        225394688

 2017-02-05 17:14:03.155094+01 | 1486311243.15509 | pgbench_branches_pkey |            16384
 2017-02-05 17:14:03.155094+01 | 1486311243.15509 | pgbench_tellers_pkey  |            40960
 2017-02-05 17:14:03.155094+01 | 1486311243.15509 | pgbench_accounts_pkey |        225394688

 2017-02-05 17:14:04.232888+01 | 1486311244.23289 | pgbench_branches_pkey |            16384
 2017-02-05 17:14:04.232888+01 | 1486311244.23289 | pgbench_tellers_pkey  |            40960
 2017-02-05 17:14:04.232888+01 | 1486311244.23289 | pgbench_accounts_pkey |        225394688

 2017-02-05 17:14:05.314393+01 | 1486311245.31439 | pgbench_branches_pkey |            16384
 2017-02-05 17:14:05.314393+01 | 1486311245.31439 | pgbench_tellers_pkey  |            40960
 2017-02-05 17:14:05.314393+01 | 1486311245.31439 | pgbench_accounts_pkey |        225394688

 2017-02-05 17:14:06.392053+01 | 1486311246.39205 | pgbench_branches_pkey |            16384
 2017-02-05 17:14:06.392053+01 | 1486311246.39205 | pgbench_tellers_pkey  |            40960
 2017-02-05 17:14:06.392053+01 | 1486311246.39205 | pgbench_accounts_pkey |        225394688

 2017-02-05 17:14:07.480912+01 | 1486311247.48091 | pgbench_branches_pkey |            16384
 2017-02-05 17:14:07.480912+01 | 1486311247.48091 | pgbench_tellers_pkey  |            40960
 2017-02-05 17:14:07.480912+01 | 1486311247.48091 | pgbench_accounts_pkey |        225394688

 2017-02-05 17:14:08.558333+01 | 1486311248.55833 | pgbench_branches_pkey |            16384
 2017-02-05 17:14:08.558333+01 | 1486311248.55833 | pgbench_tellers_pkey  |            40960
 2017-02-05 17:14:08.558333+01 | 1486311248.55833 | pgbench_accounts_pkey |        225394688

 2017-02-05 17:14:09.652998+01 | 1486311249.653 | pgbench_branches_pkey |            16384
 2017-02-05 17:14:09.652998+01 | 1486311249.653 | pgbench_tellers_pkey  |            40960
 2017-02-05 17:14:09.652998+01 | 1486311249.653 | pgbench_accounts_pkey |        225394688

 2017-02-05 17:14:10.743145+01 | 1486311250.74314 | pgbench_branches_pkey |            16384
 2017-02-05 17:14:10.743145+01 | 1486311250.74314 | pgbench_tellers_pkey  |            40960
 2017-02-05 17:14:10.743145+01 | 1486311250.74314 | pgbench_accounts_pkey |        225394688

 2017-02-05 17:14:11.832509+01 | 1486311251.83251 | pgbench_branches_pkey |            16384
 2017-02-05 17:14:11.832509+01 | 1486311251.83251 | pgbench_tellers_pkey  |            40960
 2017-02-05 17:14:11.832509+01 | 1486311251.83251 | pgbench_accounts_pkey |        225394688

 2017-02-05 17:14:12.92247+01 | 1486311252.92247 | pgbench_branches_pkey |            16384
 2017-02-05 17:14:12.92247+01 | 1486311252.92247 | pgbench_tellers_pkey  |            40960
 2017-02-05 17:14:12.92247+01 | 1486311252.92247 | pgbench_accounts_pkey |        225394688

 2017-02-05 17:14:14.014565+01 | 1486311254.01456 | pgbench_branches_pkey |            16384
 2017-02-05 17:14:14.014565+01 | 1486311254.01456 | pgbench_tellers_pkey  |            40960
 2017-02-05 17:14:14.014565+01 | 1486311254.01456 | pgbench_accounts_pkey |        225394688

 2017-02-05 17:14:15.104553+01 | 1486311255.10455 | pgbench_branches_pkey |            16384
 2017-02-05 17:14:15.104553+01 | 1486311255.10455 | pgbench_tellers_pkey  |            40960
 2017-02-05 17:14:15.104553+01 | 1486311255.10455 | pgbench_accounts_pkey |        225394688

 2017-02-05 17:14:16.189332+01 | 1486311256.18933 | pgbench_branches_pkey |            16384
 2017-02-05 17:14:16.189332+01 | 1486311256.18933 | pgbench_tellers_pkey  |            40960
 2017-02-05 17:14:16.189332+01 | 1486311256.18933 | pgbench_accounts_pkey |        225394688

 2017-02-05 17:14:17.266412+01 | 1486311257.26641 | pgbench_branches_pkey |            16384
 2017-02-05 17:14:17.266412+01 | 1486311257.26641 | pgbench_tellers_pkey  |            40960
 2017-02-05 17:14:17.266412+01 | 1486311257.26641 | pgbench_accounts_pkey |        225394688

 2017-02-05 17:14:18.350071+01 | 1486311258.35007 | pgbench_branches_pkey |            16384
 2017-02-05 17:14:18.350071+01 | 1486311258.35007 | pgbench_tellers_pkey  |            40960
 2017-02-05 17:14:18.350071+01 | 1486311258.35007 | pgbench_accounts_pkey |        225394688

 2017-02-05 17:14:19.430801+01 | 1486311259.4308 | pgbench_branches_pkey |            16384
 2017-02-05 17:14:19.430801+01 | 1486311259.4308 | pgbench_tellers_pkey  |            40960
 2017-02-05 17:14:19.430801+01 | 1486311259.4308 | pgbench_accounts_pkey |        225394688

 2017-02-05 17:14:20.516677+01 | 1486311260.51668 | pgbench_branches_pkey |            16384
 2017-02-05 17:14:20.516677+01 | 1486311260.51668 | pgbench_tellers_pkey  |            40960
 2017-02-05 17:14:20.516677+01 | 1486311260.51668 | pgbench_accounts_pkey |        225394688

 2017-02-05 17:14:21.606352+01 | 1486311261.60635 | pgbench_branches_pkey |            16384
 2017-02-05 17:14:21.606352+01 | 1486311261.60635 | pgbench_tellers_pkey  |            40960
 2017-02-05 17:14:21.606352+01 | 1486311261.60635 | pgbench_accounts_pkey |        225394688

 2017-02-05 17:14:22.691291+01 | 1486311262.69129 | pgbench_branches_pkey |            16384
 2017-02-05 17:14:22.691291+01 | 1486311262.69129 | pgbench_tellers_pkey  |            40960
 2017-02-05 17:14:22.691291+01 | 1486311262.69129 | pgbench_accounts_pkey |        225394688

 2017-02-05 17:14:23.786997+01 | 1486311263.787 | pgbench_branches_pkey |            16384
 2017-02-05 17:14:23.786997+01 | 1486311263.787 | pgbench_tellers_pkey  |            40960
 2017-02-05 17:14:23.786997+01 | 1486311263.787 | pgbench_accounts_pkey |        225394688

 2017-02-05 17:14:24.863631+01 | 1486311264.86363 | pgbench_branches_pkey |            16384
 2017-02-05 17:14:24.863631+01 | 1486311264.86363 | pgbench_tellers_pkey  |            40960
 2017-02-05 17:14:24.863631+01 | 1486311264.86363 | pgbench_accounts_pkey |        225394688

 2017-02-05 17:14:25.948003+01 | 1486311265.948 | pgbench_branches_pkey |            16384
 2017-02-05 17:14:25.948003+01 | 1486311265.948 | pgbench_tellers_pkey  |            40960
 2017-02-05 17:14:25.948003+01 | 1486311265.948 | pgbench_accounts_pkey |        225394688

 2017-02-05 17:14:27.037596+01 | 1486311267.0376 | pgbench_branches_pkey |            16384
 2017-02-05 17:14:27.037596+01 | 1486311267.0376 | pgbench_tellers_pkey  |            40960
 2017-02-05 17:14:27.037596+01 | 1486311267.0376 | pgbench_accounts_pkey |        225394688

 2017-02-05 17:14:28.1281+01 | 1486311268.1281 | pgbench_branches_pkey |            16384
 2017-02-05 17:14:28.1281+01 | 1486311268.1281 | pgbench_tellers_pkey  |            40960
 2017-02-05 17:14:28.1281+01 | 1486311268.1281 | pgbench_accounts_pkey |        225394688

 2017-02-05 17:14:29.204144+01 | 1486311269.20414 | pgbench_branches_pkey |            16384
 2017-02-05 17:14:29.204144+01 | 1486311269.20414 | pgbench_tellers_pkey  |            40960
 2017-02-05 17:14:29.204144+01 | 1486311269.20414 | pgbench_accounts_pkey |        225394688

 2017-02-05 17:14:30.287704+01 | 1486311270.2877 | pgbench_branches_pkey |            16384
 2017-02-05 17:14:30.287704+01 | 1486311270.2877 | pgbench_tellers_pkey  |            40960
 2017-02-05 17:14:30.287704+01 | 1486311270.2877 | pgbench_accounts_pkey |        225394688

 2017-02-05 17:14:31.376586+01 | 1486311271.37659 | pgbench_branches_pkey |            16384
 2017-02-05 17:14:31.376586+01 | 1486311271.37659 | pgbench_tellers_pkey  |            40960
 2017-02-05 17:14:31.376586+01 | 1486311271.37659 | pgbench_accounts_pkey |        225394688

 2017-02-05 17:14:32.462936+01 | 1486311272.46294 | pgbench_branches_pkey |            16384
 2017-02-05 17:14:32.462936+01 | 1486311272.46294 | pgbench_tellers_pkey  |            40960
 2017-02-05 17:14:32.462936+01 | 1486311272.46294 | pgbench_accounts_pkey |        225394688

 2017-02-05 17:14:33.544606+01 | 1486311273.54461 | pgbench_branches_pkey |            16384
 2017-02-05 17:14:33.544606+01 | 1486311273.54461 | pgbench_tellers_pkey  |            40960
 2017-02-05 17:14:33.544606+01 | 1486311273.54461 | pgbench_accounts_pkey |        225394688

 2017-02-05 17:14:34.63913+01 | 1486311274.63913 | pgbench_branches_pkey |            16384
 2017-02-05 17:14:34.63913+01 | 1486311274.63913 | pgbench_tellers_pkey  |            40960
 2017-02-05 17:14:34.63913+01 | 1486311274.63913 | pgbench_accounts_pkey |        225394688

 2017-02-05 17:14:35.730687+01 | 1486311275.73069 | pgbench_branches_pkey |            16384
 2017-02-05 17:14:35.730687+01 | 1486311275.73069 | pgbench_tellers_pkey  |            40960
 2017-02-05 17:14:35.730687+01 | 1486311275.73069 | pgbench_accounts_pkey |        225394688

 2017-02-05 17:14:36.819195+01 | 1486311276.8192 | pgbench_branches_pkey |            16384
 2017-02-05 17:14:36.819195+01 | 1486311276.8192 | pgbench_tellers_pkey  |            40960
 2017-02-05 17:14:36.819195+01 | 1486311276.8192 | pgbench_accounts_pkey |        225394688

 2017-02-05 17:14:37.900942+01 | 1486311277.90094 | pgbench_branches_pkey |            16384
 2017-02-05 17:14:37.900942+01 | 1486311277.90094 | pgbench_tellers_pkey  |            40960
 2017-02-05 17:14:37.900942+01 | 1486311277.90094 | pgbench_accounts_pkey |        225394688

 2017-02-05 17:14:38.984622+01 | 1486311278.98462 | pgbench_branches_pkey |            16384
 2017-02-05 17:14:38.984622+01 | 1486311278.98462 | pgbench_tellers_pkey  |            40960
 2017-02-05 17:14:38.984622+01 | 1486311278.98462 | pgbench_accounts_pkey |        225394688

 2017-02-05 17:14:40.069571+01 | 1486311280.06957 | pgbench_branches_pkey |            16384
 2017-02-05 17:14:40.069571+01 | 1486311280.06957 | pgbench_tellers_pkey  |            40960
 2017-02-05 17:14:40.069571+01 | 1486311280.06957 | pgbench_accounts_pkey |        225394688

 2017-02-05 17:14:41.156979+01 | 1486311281.15698 | pgbench_branches_pkey |            16384
 2017-02-05 17:14:41.156979+01 | 1486311281.15698 | pgbench_tellers_pkey  |            40960
 2017-02-05 17:14:41.156979+01 | 1486311281.15698 | pgbench_accounts_pkey |        225394688

 2017-02-05 17:14:42.243298+01 | 1486311282.2433 | pgbench_branches_pkey |            16384
 2017-02-05 17:14:42.243298+01 | 1486311282.2433 | pgbench_tellers_pkey  |            40960
 2017-02-05 17:14:42.243298+01 | 1486311282.2433 | pgbench_accounts_pkey |        225394688

 2017-02-05 17:14:43.326425+01 | 1486311283.32643 | pgbench_branches_pkey |            16384
 2017-02-05 17:14:43.326425+01 | 1486311283.32643 | pgbench_tellers_pkey  |            40960
 2017-02-05 17:14:43.326425+01 | 1486311283.32643 | pgbench_accounts_pkey |        225394688

 2017-02-05 17:14:44.413399+01 | 1486311284.4134 | pgbench_branches_pkey |            16384
 2017-02-05 17:14:44.413399+01 | 1486311284.4134 | pgbench_tellers_pkey  |            40960
 2017-02-05 17:14:44.413399+01 | 1486311284.4134 | pgbench_accounts_pkey |        225394688

 2017-02-05 17:14:45.505317+01 | 1486311285.50532 | pgbench_branches_pkey |            16384
 2017-02-05 17:14:45.505317+01 | 1486311285.50532 | pgbench_tellers_pkey  |            40960
 2017-02-05 17:14:45.505317+01 | 1486311285.50532 | pgbench_accounts_pkey |        225394688

 2017-02-05 17:14:46.586272+01 | 1486311286.58627 | pgbench_branches_pkey |            16384
 2017-02-05 17:14:46.586272+01 | 1486311286.58627 | pgbench_tellers_pkey  |            40960
 2017-02-05 17:14:46.586272+01 | 1486311286.58627 | pgbench_accounts_pkey |        225394688

 2017-02-05 17:14:47.671266+01 | 1486311287.67127 | pgbench_branches_pkey |            16384
 2017-02-05 17:14:47.671266+01 | 1486311287.67127 | pgbench_tellers_pkey  |            40960
 2017-02-05 17:14:47.671266+01 | 1486311287.67127 | pgbench_accounts_pkey |        225394688

