starting vacuum...end.
transaction type: <builtin: TPC-B (sort of)>
scaling factor: 100
query mode: prepared
number of clients: 32
number of threads: 8
duration: 600 s
number of transactions actually processed: 18267524
latency average = 1.051 ms
tps = 30444.692402 (including connections establishing)
tps = 30444.918242 (excluding connections establishing)
