 2017-02-04 15:43:20.605095+01 | 1486219400.60509 | pgbench_accounts |      13662224384
 2017-02-04 15:43:20.605095+01 | 1486219400.60509 | pgbench_tellers  |         15532032
 2017-02-04 15:43:20.605095+01 | 1486219400.60509 | pgbench_history  |                0
 2017-02-04 15:43:20.605095+01 | 1486219400.60509 | pgbench_branches |         12926976

 2017-02-04 15:43:21.703268+01 | 1486219401.70327 | pgbench_accounts |      13662437376
 2017-02-04 15:43:21.703268+01 | 1486219401.70327 | pgbench_tellers  |         15532032
 2017-02-04 15:43:21.703268+01 | 1486219401.70327 | pgbench_history  |          1744896
 2017-02-04 15:43:21.703268+01 | 1486219401.70327 | pgbench_branches |         12926976

 2017-02-04 15:43:22.795528+01 | 1486219402.79553 | pgbench_accounts |      13662511104
 2017-02-04 15:43:22.795528+01 | 1486219402.79553 | pgbench_tellers  |         15532032
 2017-02-04 15:43:22.795528+01 | 1486219402.79553 | pgbench_history  |          2957312
 2017-02-04 15:43:22.795528+01 | 1486219402.79553 | pgbench_branches |         12926976

 2017-02-04 15:43:23.878689+01 | 1486219403.87869 | pgbench_accounts |      13662511104
 2017-02-04 15:43:23.878689+01 | 1486219403.87869 | pgbench_tellers  |         15532032
 2017-02-04 15:43:23.878689+01 | 1486219403.87869 | pgbench_history  |          4644864
 2017-02-04 15:43:23.878689+01 | 1486219403.87869 | pgbench_branches |         12926976

 2017-02-04 15:43:24.976009+01 | 1486219404.97601 | pgbench_accounts |      13662617600
 2017-02-04 15:43:24.976009+01 | 1486219404.97601 | pgbench_tellers  |         15532032
 2017-02-04 15:43:24.976009+01 | 1486219404.97601 | pgbench_history  |          8151040
 2017-02-04 15:43:24.976009+01 | 1486219404.97601 | pgbench_branches |         12926976

 2017-02-04 15:43:26.071661+01 | 1486219406.07166 | pgbench_accounts |      13662765056
 2017-02-04 15:43:26.071661+01 | 1486219406.07166 | pgbench_tellers  |         15532032
 2017-02-04 15:43:26.071661+01 | 1486219406.07166 | pgbench_history  |          9650176
 2017-02-04 15:43:26.071661+01 | 1486219406.07166 | pgbench_branches |         12926976

 2017-02-04 15:43:27.160711+01 | 1486219407.16071 | pgbench_accounts |      13662904320
 2017-02-04 15:43:27.160711+01 | 1486219407.16071 | pgbench_tellers  |         15532032
 2017-02-04 15:43:27.160711+01 | 1486219407.16071 | pgbench_history  |         11345920
 2017-02-04 15:43:27.160711+01 | 1486219407.16071 | pgbench_branches |         12926976

 2017-02-04 15:43:28.247756+01 | 1486219408.24776 | pgbench_accounts |      13662961664
 2017-02-04 15:43:28.247756+01 | 1486219408.24776 | pgbench_tellers  |         15532032
 2017-02-04 15:43:28.247756+01 | 1486219408.24776 | pgbench_history  |         13836288
 2017-02-04 15:43:28.247756+01 | 1486219408.24776 | pgbench_branches |         12926976

 2017-02-04 15:43:29.339734+01 | 1486219409.33973 | pgbench_accounts |      13663027200
 2017-02-04 15:43:29.339734+01 | 1486219409.33973 | pgbench_tellers  |         15532032
 2017-02-04 15:43:29.339734+01 | 1486219409.33973 | pgbench_history  |         18989056
 2017-02-04 15:43:29.339734+01 | 1486219409.33973 | pgbench_branches |         12926976

 2017-02-04 15:43:30.430791+01 | 1486219410.43079 | pgbench_accounts |      13663043584
 2017-02-04 15:43:30.430791+01 | 1486219410.43079 | pgbench_tellers  |         15532032
 2017-02-04 15:43:30.430791+01 | 1486219410.43079 | pgbench_history  |         18989056
 2017-02-04 15:43:30.430791+01 | 1486219410.43079 | pgbench_branches |         12926976

 2017-02-04 15:43:31.512032+01 | 1486219411.51203 | pgbench_accounts |      13663068160
 2017-02-04 15:43:31.512032+01 | 1486219411.51203 | pgbench_tellers  |         15532032
 2017-02-04 15:43:31.512032+01 | 1486219411.51203 | pgbench_history  |         21168128
 2017-02-04 15:43:31.512032+01 | 1486219411.51203 | pgbench_branches |         12926976

 2017-02-04 15:43:32.595278+01 | 1486219412.59528 | pgbench_accounts |      13663076352
 2017-02-04 15:43:32.595278+01 | 1486219412.59528 | pgbench_tellers  |         15532032
 2017-02-04 15:43:32.595278+01 | 1486219412.59528 | pgbench_history  |         24190976
 2017-02-04 15:43:32.595278+01 | 1486219412.59528 | pgbench_branches |         12926976

 2017-02-04 15:43:33.675878+01 | 1486219413.67588 | pgbench_accounts |      13663076352
 2017-02-04 15:43:33.675878+01 | 1486219413.67588 | pgbench_tellers  |         15532032
 2017-02-04 15:43:33.675878+01 | 1486219413.67588 | pgbench_history  |         26042368
 2017-02-04 15:43:33.675878+01 | 1486219413.67588 | pgbench_branches |         12926976

 2017-02-04 15:43:34.758211+01 | 1486219414.75821 | pgbench_accounts |      13663133696
 2017-02-04 15:43:34.758211+01 | 1486219414.75821 | pgbench_tellers  |         15532032
 2017-02-04 15:43:34.758211+01 | 1486219414.75821 | pgbench_history  |         28221440
 2017-02-04 15:43:34.758211+01 | 1486219414.75821 | pgbench_branches |         12926976

 2017-02-04 15:43:35.849786+01 | 1486219415.84979 | pgbench_accounts |      13663166464
 2017-02-04 15:43:35.849786+01 | 1486219415.84979 | pgbench_tellers  |         15532032
 2017-02-04 15:43:35.849786+01 | 1486219415.84979 | pgbench_history  |         30613504
 2017-02-04 15:43:35.849786+01 | 1486219415.84979 | pgbench_branches |         12926976

 2017-02-04 15:43:36.941689+01 | 1486219416.94169 | pgbench_accounts |      13663248384
 2017-02-04 15:43:36.941689+01 | 1486219416.94169 | pgbench_tellers  |         15532032
 2017-02-04 15:43:36.941689+01 | 1486219416.94169 | pgbench_history  |         34152448
 2017-02-04 15:43:36.941689+01 | 1486219416.94169 | pgbench_branches |         12926976

 2017-02-04 15:43:38.036882+01 | 1486219418.03688 | pgbench_accounts |      13663322112
 2017-02-04 15:43:38.036882+01 | 1486219418.03688 | pgbench_tellers  |         15532032
 2017-02-04 15:43:38.036882+01 | 1486219418.03688 | pgbench_history  |         36044800
 2017-02-04 15:43:38.036882+01 | 1486219418.03688 | pgbench_branches |         12926976

 2017-02-04 15:43:39.121513+01 | 1486219419.12151 | pgbench_accounts |      13663526912
 2017-02-04 15:43:39.121513+01 | 1486219419.12151 | pgbench_tellers  |         15532032
 2017-02-04 15:43:39.121513+01 | 1486219419.12151 | pgbench_history  |         40353792
 2017-02-04 15:43:39.121513+01 | 1486219419.12151 | pgbench_branches |         12926976

 2017-02-04 15:43:40.217456+01 | 1486219420.21746 | pgbench_accounts |      13663674368
 2017-02-04 15:43:40.217456+01 | 1486219420.21746 | pgbench_tellers  |         15532032
 2017-02-04 15:43:40.217456+01 | 1486219420.21746 | pgbench_history  |         41525248
 2017-02-04 15:43:40.217456+01 | 1486219420.21746 | pgbench_branches |         12926976

 2017-02-04 15:43:41.314013+01 | 1486219421.31401 | pgbench_accounts |      13663715328
 2017-02-04 15:43:41.314013+01 | 1486219421.31401 | pgbench_tellers  |         15532032
 2017-02-04 15:43:41.314013+01 | 1486219421.31401 | pgbench_history  |         44384256
 2017-02-04 15:43:41.314013+01 | 1486219421.31401 | pgbench_branches |         12926976

 2017-02-04 15:43:42.411283+01 | 1486219422.41128 | pgbench_accounts |      13663723520
 2017-02-04 15:43:42.411283+01 | 1486219422.41128 | pgbench_tellers  |         15532032
 2017-02-04 15:43:42.411283+01 | 1486219422.41128 | pgbench_history  |         46399488
 2017-02-04 15:43:42.411283+01 | 1486219422.41128 | pgbench_branches |         12926976

 2017-02-04 15:43:43.497524+01 | 1486219423.49752 | pgbench_accounts |      13663739904
 2017-02-04 15:43:43.497524+01 | 1486219423.49752 | pgbench_tellers  |         15532032
 2017-02-04 15:43:43.497524+01 | 1486219423.49752 | pgbench_history  |         48766976
 2017-02-04 15:43:43.497524+01 | 1486219423.49752 | pgbench_branches |         12926976

 2017-02-04 15:43:44.577174+01 | 1486219424.57717 | pgbench_accounts |      13663764480
 2017-02-04 15:43:44.577174+01 | 1486219424.57717 | pgbench_tellers  |         15532032
 2017-02-04 15:43:44.577174+01 | 1486219424.57717 | pgbench_history  |         51789824
 2017-02-04 15:43:44.577174+01 | 1486219424.57717 | pgbench_branches |         12926976

 2017-02-04 15:43:45.655999+01 | 1486219425.656 | pgbench_accounts |      13663805440
 2017-02-04 15:43:45.655999+01 | 1486219425.656 | pgbench_tellers  |         15532032
 2017-02-04 15:43:45.655999+01 | 1486219425.656 | pgbench_history  |         54321152
 2017-02-04 15:43:45.655999+01 | 1486219425.656 | pgbench_branches |         12926976

 2017-02-04 15:43:46.736958+01 | 1486219426.73696 | pgbench_accounts |      13663870976
 2017-02-04 15:43:46.736958+01 | 1486219426.73696 | pgbench_tellers  |         15532032
 2017-02-04 15:43:46.736958+01 | 1486219426.73696 | pgbench_history  |         57032704
 2017-02-04 15:43:46.736958+01 | 1486219426.73696 | pgbench_branches |         12926976

 2017-02-04 15:43:47.818448+01 | 1486219427.81845 | pgbench_accounts |      13663977472
 2017-02-04 15:43:47.818448+01 | 1486219427.81845 | pgbench_tellers  |         15532032
 2017-02-04 15:43:47.818448+01 | 1486219427.81845 | pgbench_history  |         60055552
 2017-02-04 15:43:47.818448+01 | 1486219427.81845 | pgbench_branches |         12926976

 2017-02-04 15:43:48.905131+01 | 1486219428.90513 | pgbench_accounts |      13664075776
 2017-02-04 15:43:48.905131+01 | 1486219428.90513 | pgbench_tellers  |         15532032
 2017-02-04 15:43:48.905131+01 | 1486219428.90513 | pgbench_history  |         63266816
 2017-02-04 15:43:48.905131+01 | 1486219428.90513 | pgbench_branches |         12926976

 2017-02-04 15:43:49.993149+01 | 1486219429.99315 | pgbench_accounts |      13664190464
 2017-02-04 15:43:49.993149+01 | 1486219429.99315 | pgbench_tellers  |         15532032
 2017-02-04 15:43:49.993149+01 | 1486219429.99315 | pgbench_history  |         64929792
 2017-02-04 15:43:49.993149+01 | 1486219429.99315 | pgbench_branches |         12926976

 2017-02-04 15:43:51.082954+01 | 1486219431.08295 | pgbench_accounts |      13664288768
 2017-02-04 15:43:51.082954+01 | 1486219431.08295 | pgbench_tellers  |         15532032
 2017-02-04 15:43:51.082954+01 | 1486219431.08295 | pgbench_history  |         68280320
 2017-02-04 15:43:51.082954+01 | 1486219431.08295 | pgbench_branches |         12926976

 2017-02-04 15:43:52.176394+01 | 1486219432.17639 | pgbench_accounts |      13664337920
 2017-02-04 15:43:52.176394+01 | 1486219432.17639 | pgbench_tellers  |         15532032
 2017-02-04 15:43:52.176394+01 | 1486219432.17639 | pgbench_history  |         70811648
 2017-02-04 15:43:52.176394+01 | 1486219432.17639 | pgbench_branches |         12926976

 2017-02-04 15:43:53.27524+01 | 1486219433.27524 | pgbench_accounts |      13664395264
 2017-02-04 15:43:53.27524+01 | 1486219433.27524 | pgbench_tellers  |         15532032
 2017-02-04 15:43:53.27524+01 | 1486219433.27524 | pgbench_history  |         73842688
 2017-02-04 15:43:53.27524+01 | 1486219433.27524 | pgbench_branches |         12926976

 2017-02-04 15:43:54.36273+01 | 1486219434.36273 | pgbench_accounts |      13664403456
 2017-02-04 15:43:54.36273+01 | 1486219434.36273 | pgbench_tellers  |         15532032
 2017-02-04 15:43:54.36273+01 | 1486219434.36273 | pgbench_history  |         77004800
 2017-02-04 15:43:54.36273+01 | 1486219434.36273 | pgbench_branches |         12926976

 2017-02-04 15:43:55.463889+01 | 1486219435.46389 | pgbench_accounts |      13664419840
 2017-02-04 15:43:55.463889+01 | 1486219435.46389 | pgbench_tellers  |         15532032
 2017-02-04 15:43:55.463889+01 | 1486219435.46389 | pgbench_history  |         78856192
 2017-02-04 15:43:55.463889+01 | 1486219435.46389 | pgbench_branches |         12926976

 2017-02-04 15:43:56.542663+01 | 1486219436.54266 | pgbench_accounts |      13664493568
 2017-02-04 15:43:56.542663+01 | 1486219436.54266 | pgbench_tellers  |         15532032
 2017-02-04 15:43:56.542663+01 | 1486219436.54266 | pgbench_history  |         82763776
 2017-02-04 15:43:56.542663+01 | 1486219436.54266 | pgbench_branches |         12926976

 2017-02-04 15:43:57.618813+01 | 1486219437.61881 | pgbench_accounts |      13664542720
 2017-02-04 15:43:57.618813+01 | 1486219437.61881 | pgbench_tellers  |         15532032
 2017-02-04 15:43:57.618813+01 | 1486219437.61881 | pgbench_history  |         84312064
 2017-02-04 15:43:57.618813+01 | 1486219437.61881 | pgbench_branches |         12926976

 2017-02-04 15:43:58.699657+01 | 1486219438.69966 | pgbench_accounts |      13664673792
 2017-02-04 15:43:58.699657+01 | 1486219438.69966 | pgbench_tellers  |         15532032
 2017-02-04 15:43:58.699657+01 | 1486219438.69966 | pgbench_history  |         87056384
 2017-02-04 15:43:58.699657+01 | 1486219438.69966 | pgbench_branches |         12926976

 2017-02-04 15:43:59.783289+01 | 1486219439.78329 | pgbench_accounts |      13664747520
 2017-02-04 15:43:59.783289+01 | 1486219439.78329 | pgbench_tellers  |         15532032
 2017-02-04 15:43:59.783289+01 | 1486219439.78329 | pgbench_history  |         89808896
 2017-02-04 15:43:59.783289+01 | 1486219439.78329 | pgbench_branches |         12926976

 2017-02-04 15:44:00.866344+01 | 1486219440.86634 | pgbench_accounts |      13664829440
 2017-02-04 15:44:00.866344+01 | 1486219440.86634 | pgbench_tellers  |         15532032
 2017-02-04 15:44:00.866344+01 | 1486219440.86634 | pgbench_history  |         93241344
 2017-02-04 15:44:00.866344+01 | 1486219440.86634 | pgbench_branches |         12926976

 2017-02-04 15:44:01.952033+01 | 1486219441.95203 | pgbench_accounts |      13664886784
 2017-02-04 15:44:01.952033+01 | 1486219441.95203 | pgbench_tellers  |         15532032
 2017-02-04 15:44:01.952033+01 | 1486219441.95203 | pgbench_history  |         96182272
 2017-02-04 15:44:01.952033+01 | 1486219441.95203 | pgbench_branches |         12926976

 2017-02-04 15:44:03.054763+01 | 1486219443.05476 | pgbench_accounts |      13664968704
 2017-02-04 15:44:03.054763+01 | 1486219443.05476 | pgbench_tellers  |         15532032
 2017-02-04 15:44:03.054763+01 | 1486219443.05476 | pgbench_history  |         98525184
 2017-02-04 15:44:03.054763+01 | 1486219443.05476 | pgbench_branches |         12926976

 2017-02-04 15:44:04.152944+01 | 1486219444.15294 | pgbench_accounts |      13665034240
 2017-02-04 15:44:04.152944+01 | 1486219444.15294 | pgbench_tellers  |         15532032
 2017-02-04 15:44:04.152944+01 | 1486219444.15294 | pgbench_history  |        101244928
 2017-02-04 15:44:04.152944+01 | 1486219444.15294 | pgbench_branches |         12926976

 2017-02-04 15:44:05.251861+01 | 1486219445.25186 | pgbench_accounts |      13665058816
 2017-02-04 15:44:05.251861+01 | 1486219445.25186 | pgbench_tellers  |         15532032
 2017-02-04 15:44:05.251861+01 | 1486219445.25186 | pgbench_history  |        105250816
 2017-02-04 15:44:05.251861+01 | 1486219445.25186 | pgbench_branches |         12926976

 2017-02-04 15:44:06.340747+01 | 1486219446.34075 | pgbench_accounts |      13665091584
 2017-02-04 15:44:06.340747+01 | 1486219446.34075 | pgbench_tellers  |         15532032
 2017-02-04 15:44:06.340747+01 | 1486219446.34075 | pgbench_history  |        107593728
 2017-02-04 15:44:06.340747+01 | 1486219446.34075 | pgbench_branches |         12926976

 2017-02-04 15:44:07.437008+01 | 1486219447.43701 | pgbench_accounts |      13665181696
 2017-02-04 15:44:07.437008+01 | 1486219447.43701 | pgbench_tellers  |         15532032
 2017-02-04 15:44:07.437008+01 | 1486219447.43701 | pgbench_history  |        109633536
 2017-02-04 15:44:07.437008+01 | 1486219447.43701 | pgbench_branches |         12926976

 2017-02-04 15:44:08.524283+01 | 1486219448.52428 | pgbench_accounts |      13665263616
 2017-02-04 15:44:08.524283+01 | 1486219448.52428 | pgbench_tellers  |         15532032
 2017-02-04 15:44:08.524283+01 | 1486219448.52428 | pgbench_history  |        112336896
 2017-02-04 15:44:08.524283+01 | 1486219448.52428 | pgbench_branches |         12926976

 2017-02-04 15:44:09.607578+01 | 1486219449.60758 | pgbench_accounts |      13665296384
 2017-02-04 15:44:09.607578+01 | 1486219449.60758 | pgbench_tellers  |         15532032
 2017-02-04 15:44:09.607578+01 | 1486219449.60758 | pgbench_history  |        116154368
 2017-02-04 15:44:09.607578+01 | 1486219449.60758 | pgbench_branches |         12926976

 2017-02-04 15:44:10.688555+01 | 1486219450.68856 | pgbench_accounts |      13665370112
 2017-02-04 15:44:10.688555+01 | 1486219450.68856 | pgbench_tellers  |         15532032
 2017-02-04 15:44:10.688555+01 | 1486219450.68856 | pgbench_history  |        117514240
 2017-02-04 15:44:10.688555+01 | 1486219450.68856 | pgbench_branches |         12926976

 2017-02-04 15:44:11.776481+01 | 1486219451.77648 | pgbench_accounts |      13665468416
 2017-02-04 15:44:11.776481+01 | 1486219451.77648 | pgbench_tellers  |         15532032
 2017-02-04 15:44:11.776481+01 | 1486219451.77648 | pgbench_history  |        120561664
 2017-02-04 15:44:11.776481+01 | 1486219451.77648 | pgbench_branches |         12926976

 2017-02-04 15:44:12.863116+01 | 1486219452.86312 | pgbench_accounts |      13665492992
 2017-02-04 15:44:12.863116+01 | 1486219452.86312 | pgbench_tellers  |         15532032
 2017-02-04 15:44:12.863116+01 | 1486219452.86312 | pgbench_history  |        122765312
 2017-02-04 15:44:12.863116+01 | 1486219452.86312 | pgbench_branches |         12926976

 2017-02-04 15:44:13.953121+01 | 1486219453.95312 | pgbench_accounts |      13665566720
 2017-02-04 15:44:13.953121+01 | 1486219453.95312 | pgbench_tellers  |         15532032
 2017-02-04 15:44:13.953121+01 | 1486219453.95312 | pgbench_history  |        124854272
 2017-02-04 15:44:13.953121+01 | 1486219453.95312 | pgbench_branches |         12926976

 2017-02-04 15:44:15.042946+01 | 1486219455.04295 | pgbench_accounts |      13665640448
 2017-02-04 15:44:15.042946+01 | 1486219455.04295 | pgbench_tellers  |         15532032
 2017-02-04 15:44:15.042946+01 | 1486219455.04295 | pgbench_history  |        127746048
 2017-02-04 15:44:15.042946+01 | 1486219455.04295 | pgbench_branches |         12926976

 2017-02-04 15:44:16.133076+01 | 1486219456.13308 | pgbench_accounts |      13665681408
 2017-02-04 15:44:16.133076+01 | 1486219456.13308 | pgbench_tellers  |         15532032
 2017-02-04 15:44:16.133076+01 | 1486219456.13308 | pgbench_history  |        130605056
 2017-02-04 15:44:16.133076+01 | 1486219456.13308 | pgbench_branches |         12926976

 2017-02-04 15:44:17.224127+01 | 1486219457.22413 | pgbench_accounts |      13665746944
 2017-02-04 15:44:17.224127+01 | 1486219457.22413 | pgbench_tellers  |         15532032
 2017-02-04 15:44:17.224127+01 | 1486219457.22413 | pgbench_history  |        132923392
 2017-02-04 15:44:17.224127+01 | 1486219457.22413 | pgbench_branches |         12926976

 2017-02-04 15:44:18.320649+01 | 1486219458.32065 | pgbench_accounts |      13665779712
 2017-02-04 15:44:18.320649+01 | 1486219458.32065 | pgbench_tellers  |         15532032
 2017-02-04 15:44:18.320649+01 | 1486219458.32065 | pgbench_history  |        135831552
 2017-02-04 15:44:18.320649+01 | 1486219458.32065 | pgbench_branches |         12926976

 2017-02-04 15:44:19.411041+01 | 1486219459.41104 | pgbench_accounts |      13665861632
 2017-02-04 15:44:19.411041+01 | 1486219459.41104 | pgbench_tellers  |         15532032
 2017-02-04 15:44:19.411041+01 | 1486219459.41104 | pgbench_history  |        138362880
 2017-02-04 15:44:19.411041+01 | 1486219459.41104 | pgbench_branches |         12926976

 2017-02-04 15:44:20.503714+01 | 1486219460.50371 | pgbench_accounts |      13665910784
 2017-02-04 15:44:20.503714+01 | 1486219460.50371 | pgbench_tellers  |         15532032
 2017-02-04 15:44:20.503714+01 | 1486219460.50371 | pgbench_history  |        141877248
 2017-02-04 15:44:20.503714+01 | 1486219460.50371 | pgbench_branches |         12926976

 2017-02-04 15:44:21.581197+01 | 1486219461.5812 | pgbench_accounts |      13666033664
 2017-02-04 15:44:21.581197+01 | 1486219461.5812 | pgbench_tellers  |         15532032
 2017-02-04 15:44:21.581197+01 | 1486219461.5812 | pgbench_history  |        144384000
 2017-02-04 15:44:21.581197+01 | 1486219461.5812 | pgbench_branches |         12926976

 2017-02-04 15:44:22.660553+01 | 1486219462.66055 | pgbench_accounts |      13666082816
 2017-02-04 15:44:22.660553+01 | 1486219462.66055 | pgbench_tellers  |         15532032
 2017-02-04 15:44:22.660553+01 | 1486219462.66055 | pgbench_history  |        147243008
 2017-02-04 15:44:22.660553+01 | 1486219462.66055 | pgbench_branches |         12926976

 2017-02-04 15:44:23.747399+01 | 1486219463.7474 | pgbench_accounts |      13666189312
 2017-02-04 15:44:23.747399+01 | 1486219463.7474 | pgbench_tellers  |         15532032
 2017-02-04 15:44:23.747399+01 | 1486219463.7474 | pgbench_history  |        150568960
 2017-02-04 15:44:23.747399+01 | 1486219463.7474 | pgbench_branches |         12926976

 2017-02-04 15:44:24.830954+01 | 1486219464.83095 | pgbench_accounts |      13666238464
 2017-02-04 15:44:24.830954+01 | 1486219464.83095 | pgbench_tellers  |         15532032
 2017-02-04 15:44:24.830954+01 | 1486219464.83095 | pgbench_history  |        153755648
 2017-02-04 15:44:24.830954+01 | 1486219464.83095 | pgbench_branches |         12926976

 2017-02-04 15:44:25.920539+01 | 1486219465.92054 | pgbench_accounts |      13666304000
 2017-02-04 15:44:25.920539+01 | 1486219465.92054 | pgbench_tellers  |         15532032
 2017-02-04 15:44:25.920539+01 | 1486219465.92054 | pgbench_history  |        156098560
 2017-02-04 15:44:25.920539+01 | 1486219465.92054 | pgbench_branches |         12926976

 2017-02-04 15:44:27.017819+01 | 1486219467.01782 | pgbench_accounts |      13666361344
 2017-02-04 15:44:27.017819+01 | 1486219467.01782 | pgbench_tellers  |         15532032
 2017-02-04 15:44:27.017819+01 | 1486219467.01782 | pgbench_history  |        158932992
 2017-02-04 15:44:27.017819+01 | 1486219467.01782 | pgbench_branches |         12926976

 2017-02-04 15:44:28.110302+01 | 1486219468.1103 | pgbench_accounts |      13666394112
 2017-02-04 15:44:28.110302+01 | 1486219468.1103 | pgbench_tellers  |         15532032
 2017-02-04 15:44:28.110302+01 | 1486219468.1103 | pgbench_history  |        161464320
 2017-02-04 15:44:28.110302+01 | 1486219468.1103 | pgbench_branches |         12926976

 2017-02-04 15:44:29.204431+01 | 1486219469.20443 | pgbench_accounts |      13666426880
 2017-02-04 15:44:29.204431+01 | 1486219469.20443 | pgbench_tellers  |         15532032
 2017-02-04 15:44:29.204431+01 | 1486219469.20443 | pgbench_history  |        164708352
 2017-02-04 15:44:29.204431+01 | 1486219469.20443 | pgbench_branches |         12926976

 2017-02-04 15:44:30.300454+01 | 1486219470.30045 | pgbench_accounts |      13666525184
 2017-02-04 15:44:30.300454+01 | 1486219470.30045 | pgbench_tellers  |         15532032
 2017-02-04 15:44:30.300454+01 | 1486219470.30045 | pgbench_history  |        168058880
 2017-02-04 15:44:30.300454+01 | 1486219470.30045 | pgbench_branches |         12926976

 2017-02-04 15:44:31.396478+01 | 1486219471.39648 | pgbench_accounts |      13666607104
 2017-02-04 15:44:31.396478+01 | 1486219471.39648 | pgbench_tellers  |         15532032
 2017-02-04 15:44:31.396478+01 | 1486219471.39648 | pgbench_history  |        170901504
 2017-02-04 15:44:31.396478+01 | 1486219471.39648 | pgbench_branches |         12926976

 2017-02-04 15:44:32.487941+01 | 1486219472.48794 | pgbench_accounts |      13666697216
 2017-02-04 15:44:32.487941+01 | 1486219472.48794 | pgbench_tellers  |         15532032
 2017-02-04 15:44:32.487941+01 | 1486219472.48794 | pgbench_history  |        172916736
 2017-02-04 15:44:32.487941+01 | 1486219472.48794 | pgbench_branches |         12926976

 2017-02-04 15:44:33.573606+01 | 1486219473.57361 | pgbench_accounts |      13666779136
 2017-02-04 15:44:33.573606+01 | 1486219473.57361 | pgbench_tellers  |         15532032
 2017-02-04 15:44:33.573606+01 | 1486219473.57361 | pgbench_history  |        176300032
 2017-02-04 15:44:33.573606+01 | 1486219473.57361 | pgbench_branches |         12926976

 2017-02-04 15:44:34.653966+01 | 1486219474.65397 | pgbench_accounts |      13666869248
 2017-02-04 15:44:34.653966+01 | 1486219474.65397 | pgbench_tellers  |         15532032
 2017-02-04 15:44:34.653966+01 | 1486219474.65397 | pgbench_history  |        179134464
 2017-02-04 15:44:34.653966+01 | 1486219474.65397 | pgbench_branches |         12926976

 2017-02-04 15:44:35.742729+01 | 1486219475.74273 | pgbench_accounts |      13666902016
 2017-02-04 15:44:35.742729+01 | 1486219475.74273 | pgbench_tellers  |         15532032
 2017-02-04 15:44:35.742729+01 | 1486219475.74273 | pgbench_history  |        182321152
 2017-02-04 15:44:35.742729+01 | 1486219475.74273 | pgbench_branches |         12926976

 2017-02-04 15:44:36.825351+01 | 1486219476.82535 | pgbench_accounts |      13666951168
 2017-02-04 15:44:36.825351+01 | 1486219476.82535 | pgbench_tellers  |         15532032
 2017-02-04 15:44:36.825351+01 | 1486219476.82535 | pgbench_history  |        184336384
 2017-02-04 15:44:36.825351+01 | 1486219476.82535 | pgbench_branches |         12926976

 2017-02-04 15:44:37.918001+01 | 1486219477.918 | pgbench_accounts |      13666992128
 2017-02-04 15:44:37.918001+01 | 1486219477.918 | pgbench_tellers  |         15532032
 2017-02-04 15:44:37.918001+01 | 1486219477.918 | pgbench_history  |        187236352
 2017-02-04 15:44:37.918001+01 | 1486219477.918 | pgbench_branches |         12926976

 2017-02-04 15:44:39.000636+01 | 1486219479.00064 | pgbench_accounts |      13667057664
 2017-02-04 15:44:39.000636+01 | 1486219479.00064 | pgbench_tellers  |         15532032
 2017-02-04 15:44:39.000636+01 | 1486219479.00064 | pgbench_history  |        190808064
 2017-02-04 15:44:39.000636+01 | 1486219479.00064 | pgbench_branches |         12926976

 2017-02-04 15:44:40.091733+01 | 1486219480.09173 | pgbench_accounts |      13667598336
 2017-02-04 15:44:40.091733+01 | 1486219480.09173 | pgbench_tellers  |         15532032
 2017-02-04 15:44:40.091733+01 | 1486219480.09173 | pgbench_history  |        192880640
 2017-02-04 15:44:40.091733+01 | 1486219480.09173 | pgbench_branches |         12926976

 2017-02-04 15:44:41.186708+01 | 1486219481.18671 | pgbench_accounts |      13667876864
 2017-02-04 15:44:41.186708+01 | 1486219481.18671 | pgbench_tellers  |         15532032
 2017-02-04 15:44:41.186708+01 | 1486219481.18671 | pgbench_history  |        195600384
 2017-02-04 15:44:41.186708+01 | 1486219481.18671 | pgbench_branches |         12926976

 2017-02-04 15:44:42.265138+01 | 1486219482.26514 | pgbench_accounts |      13667876864
 2017-02-04 15:44:42.265138+01 | 1486219482.26514 | pgbench_tellers  |         15532032
 2017-02-04 15:44:42.265138+01 | 1486219482.26514 | pgbench_history  |        198270976
 2017-02-04 15:44:42.265138+01 | 1486219482.26514 | pgbench_branches |         12926976

 2017-02-04 15:44:43.362146+01 | 1486219483.36215 | pgbench_accounts |      13667876864
 2017-02-04 15:44:43.362146+01 | 1486219483.36215 | pgbench_tellers  |         15532032
 2017-02-04 15:44:43.362146+01 | 1486219483.36215 | pgbench_history  |        201129984
 2017-02-04 15:44:43.362146+01 | 1486219483.36215 | pgbench_branches |         12926976

 2017-02-04 15:44:44.448321+01 | 1486219484.44832 | pgbench_accounts |      13667876864
 2017-02-04 15:44:44.448321+01 | 1486219484.44832 | pgbench_tellers  |         15532032
 2017-02-04 15:44:44.448321+01 | 1486219484.44832 | pgbench_history  |        203808768
 2017-02-04 15:44:44.448321+01 | 1486219484.44832 | pgbench_branches |         12926976

 2017-02-04 15:44:45.545139+01 | 1486219485.54514 | pgbench_accounts |      13668065280
 2017-02-04 15:44:45.545139+01 | 1486219485.54514 | pgbench_tellers  |         15532032
 2017-02-04 15:44:45.545139+01 | 1486219485.54514 | pgbench_history  |        207298560
 2017-02-04 15:44:45.545139+01 | 1486219485.54514 | pgbench_branches |         12926976

 2017-02-04 15:44:46.623449+01 | 1486219486.62345 | pgbench_accounts |      13668065280
 2017-02-04 15:44:46.623449+01 | 1486219486.62345 | pgbench_tellers  |         15532032
 2017-02-04 15:44:46.623449+01 | 1486219486.62345 | pgbench_history  |        210518016
 2017-02-04 15:44:46.623449+01 | 1486219486.62345 | pgbench_branches |         12926976

 2017-02-04 15:44:47.702435+01 | 1486219487.70244 | pgbench_accounts |      13668065280
 2017-02-04 15:44:47.702435+01 | 1486219487.70244 | pgbench_tellers  |         15532032
 2017-02-04 15:44:47.702435+01 | 1486219487.70244 | pgbench_history  |        213680128
 2017-02-04 15:44:47.702435+01 | 1486219487.70244 | pgbench_branches |         12926976

 2017-02-04 15:44:48.788691+01 | 1486219488.78869 | pgbench_accounts |      13668335616
 2017-02-04 15:44:48.788691+01 | 1486219488.78869 | pgbench_tellers  |         15532032
 2017-02-04 15:44:48.788691+01 | 1486219488.78869 | pgbench_history  |        215531520
 2017-02-04 15:44:48.788691+01 | 1486219488.78869 | pgbench_branches |         12926976

 2017-02-04 15:44:49.871705+01 | 1486219489.87171 | pgbench_accounts |      13668335616
 2017-02-04 15:44:49.871705+01 | 1486219489.87171 | pgbench_tellers  |         15532032
 2017-02-04 15:44:49.871705+01 | 1486219489.87171 | pgbench_history  |        218275840
 2017-02-04 15:44:49.871705+01 | 1486219489.87171 | pgbench_branches |         12926976

 2017-02-04 15:44:50.959225+01 | 1486219490.95922 | pgbench_accounts |      13668335616
 2017-02-04 15:44:50.959225+01 | 1486219490.95922 | pgbench_tellers  |         15532032
 2017-02-04 15:44:50.959225+01 | 1486219490.95922 | pgbench_history  |        221511680
 2017-02-04 15:44:50.959225+01 | 1486219490.95922 | pgbench_branches |         12926976

 2017-02-04 15:44:52.044772+01 | 1486219492.04477 | pgbench_accounts |      13668335616
 2017-02-04 15:44:52.044772+01 | 1486219492.04477 | pgbench_tellers  |         15532032
 2017-02-04 15:44:52.044772+01 | 1486219492.04477 | pgbench_history  |        224673792
 2017-02-04 15:44:52.044772+01 | 1486219492.04477 | pgbench_branches |         12926976

 2017-02-04 15:44:53.134587+01 | 1486219493.13459 | pgbench_accounts |      13668859904
 2017-02-04 15:44:53.134587+01 | 1486219493.13459 | pgbench_tellers  |         15532032
 2017-02-04 15:44:53.134587+01 | 1486219493.13459 | pgbench_history  |        227696640
 2017-02-04 15:44:53.134587+01 | 1486219493.13459 | pgbench_branches |         12926976

 2017-02-04 15:44:54.229081+01 | 1486219494.22908 | pgbench_accounts |      13668859904
 2017-02-04 15:44:54.229081+01 | 1486219494.22908 | pgbench_tellers  |         15532032
 2017-02-04 15:44:54.229081+01 | 1486219494.22908 | pgbench_history  |        230203392
 2017-02-04 15:44:54.229081+01 | 1486219494.22908 | pgbench_branches |         12926976

 2017-02-04 15:44:55.308614+01 | 1486219495.30861 | pgbench_accounts |      13668884480
 2017-02-04 15:44:55.308614+01 | 1486219495.30861 | pgbench_tellers  |         15532032
 2017-02-04 15:44:55.308614+01 | 1486219495.30861 | pgbench_history  |        233627648
 2017-02-04 15:44:55.308614+01 | 1486219495.30861 | pgbench_branches |         12926976

 2017-02-04 15:44:56.396655+01 | 1486219496.39666 | pgbench_accounts |      13668892672
 2017-02-04 15:44:56.396655+01 | 1486219496.39666 | pgbench_tellers  |         15532032
 2017-02-04 15:44:56.396655+01 | 1486219496.39666 | pgbench_history  |        235995136
 2017-02-04 15:44:56.396655+01 | 1486219496.39666 | pgbench_branches |         12926976

 2017-02-04 15:44:57.495849+01 | 1486219497.49585 | pgbench_accounts |      13668892672
 2017-02-04 15:44:57.495849+01 | 1486219497.49585 | pgbench_tellers  |         15532032
 2017-02-04 15:44:57.495849+01 | 1486219497.49585 | pgbench_history  |        239017984
 2017-02-04 15:44:57.495849+01 | 1486219497.49585 | pgbench_branches |         12926976

 2017-02-04 15:44:58.578416+01 | 1486219498.57842 | pgbench_accounts |      13668900864
 2017-02-04 15:44:58.578416+01 | 1486219498.57842 | pgbench_tellers  |         15532032
 2017-02-04 15:44:58.578416+01 | 1486219498.57842 | pgbench_history  |        241549312
 2017-02-04 15:44:58.578416+01 | 1486219498.57842 | pgbench_branches |         12926976

 2017-02-04 15:44:59.660696+01 | 1486219499.6607 | pgbench_accounts |      13668925440
 2017-02-04 15:44:59.660696+01 | 1486219499.6607 | pgbench_tellers  |         15532032
 2017-02-04 15:44:59.660696+01 | 1486219499.6607 | pgbench_history  |        244547584
 2017-02-04 15:44:59.660696+01 | 1486219499.6607 | pgbench_branches |         12926976

 2017-02-04 15:45:00.748548+01 | 1486219500.74855 | pgbench_accounts |      13668958208
 2017-02-04 15:45:00.748548+01 | 1486219500.74855 | pgbench_tellers  |         15532032
 2017-02-04 15:45:00.748548+01 | 1486219500.74855 | pgbench_history  |        247291904
 2017-02-04 15:45:00.748548+01 | 1486219500.74855 | pgbench_branches |         12926976

 2017-02-04 15:45:01.834338+01 | 1486219501.83434 | pgbench_accounts |      13668990976
 2017-02-04 15:45:01.834338+01 | 1486219501.83434 | pgbench_tellers  |         15532032
 2017-02-04 15:45:01.834338+01 | 1486219501.83434 | pgbench_history  |        251183104
 2017-02-04 15:45:01.834338+01 | 1486219501.83434 | pgbench_branches |         12926976

 2017-02-04 15:45:02.91974+01 | 1486219502.91974 | pgbench_accounts |      13669081088
 2017-02-04 15:45:02.91974+01 | 1486219502.91974 | pgbench_tellers  |         15532032
 2017-02-04 15:45:02.91974+01 | 1486219502.91974 | pgbench_history  |        254066688
 2017-02-04 15:45:02.91974+01 | 1486219502.91974 | pgbench_branches |         12926976

 2017-02-04 15:45:04.01433+01 | 1486219504.01433 | pgbench_accounts |      13669244928
 2017-02-04 15:45:04.01433+01 | 1486219504.01433 | pgbench_tellers  |         15532032
 2017-02-04 15:45:04.01433+01 | 1486219504.01433 | pgbench_history  |        256090112
 2017-02-04 15:45:04.01433+01 | 1486219504.01433 | pgbench_branches |         12926976

 2017-02-04 15:45:05.101797+01 | 1486219505.1018 | pgbench_accounts |      13669408768
 2017-02-04 15:45:05.101797+01 | 1486219505.1018 | pgbench_tellers  |         15532032
 2017-02-04 15:45:05.101797+01 | 1486219505.1018 | pgbench_history  |        259596288
 2017-02-04 15:45:05.101797+01 | 1486219505.1018 | pgbench_branches |         12926976

 2017-02-04 15:45:06.196977+01 | 1486219506.19698 | pgbench_accounts |      13669507072
 2017-02-04 15:45:06.196977+01 | 1486219506.19698 | pgbench_tellers  |         15532032
 2017-02-04 15:45:06.196977+01 | 1486219506.19698 | pgbench_history  |        262438912
 2017-02-04 15:45:06.196977+01 | 1486219506.19698 | pgbench_branches |         12926976

 2017-02-04 15:45:07.288171+01 | 1486219507.28817 | pgbench_accounts |      13669539840
 2017-02-04 15:45:07.288171+01 | 1486219507.28817 | pgbench_tellers  |         15532032
 2017-02-04 15:45:07.288171+01 | 1486219507.28817 | pgbench_history  |        265928704
 2017-02-04 15:45:07.288171+01 | 1486219507.28817 | pgbench_branches |         12926976

 2017-02-04 15:45:08.385269+01 | 1486219508.38527 | pgbench_accounts |      13669556224
 2017-02-04 15:45:08.385269+01 | 1486219508.38527 | pgbench_tellers  |         15532032
 2017-02-04 15:45:08.385269+01 | 1486219508.38527 | pgbench_history  |        267649024
 2017-02-04 15:45:08.385269+01 | 1486219508.38527 | pgbench_branches |         12926976

 2017-02-04 15:45:09.474505+01 | 1486219509.4745 | pgbench_accounts |      13669556224
 2017-02-04 15:45:09.474505+01 | 1486219509.4745 | pgbench_tellers  |         15532032
 2017-02-04 15:45:09.474505+01 | 1486219509.4745 | pgbench_history  |        271163392
 2017-02-04 15:45:09.474505+01 | 1486219509.4745 | pgbench_branches |         12926976

 2017-02-04 15:45:10.564962+01 | 1486219510.56496 | pgbench_accounts |      13669556224
 2017-02-04 15:45:10.564962+01 | 1486219510.56496 | pgbench_tellers  |         15532032
 2017-02-04 15:45:10.564962+01 | 1486219510.56496 | pgbench_history  |        272859136
 2017-02-04 15:45:10.564962+01 | 1486219510.56496 | pgbench_branches |         12926976

 2017-02-04 15:45:11.646878+01 | 1486219511.64688 | pgbench_accounts |      13669580800
 2017-02-04 15:45:11.646878+01 | 1486219511.64688 | pgbench_tellers  |         15532032
 2017-02-04 15:45:11.646878+01 | 1486219511.64688 | pgbench_history  |        275718144
 2017-02-04 15:45:11.646878+01 | 1486219511.64688 | pgbench_branches |         12926976

 2017-02-04 15:45:12.727252+01 | 1486219512.72725 | pgbench_accounts |      13669662720
 2017-02-04 15:45:12.727252+01 | 1486219512.72725 | pgbench_tellers  |         15532032
 2017-02-04 15:45:12.727252+01 | 1486219512.72725 | pgbench_history  |        278953984
 2017-02-04 15:45:12.727252+01 | 1486219512.72725 | pgbench_branches |         12926976

 2017-02-04 15:45:13.812447+01 | 1486219513.81245 | pgbench_accounts |      13669728256
 2017-02-04 15:45:13.812447+01 | 1486219513.81245 | pgbench_tellers  |         15532032
 2017-02-04 15:45:13.812447+01 | 1486219513.81245 | pgbench_history  |        281673728
 2017-02-04 15:45:13.812447+01 | 1486219513.81245 | pgbench_branches |         12926976

 2017-02-04 15:45:14.898212+01 | 1486219514.89821 | pgbench_accounts |      13669810176
 2017-02-04 15:45:14.898212+01 | 1486219514.89821 | pgbench_tellers  |         15532032
 2017-02-04 15:45:14.898212+01 | 1486219514.89821 | pgbench_history  |        285163520
 2017-02-04 15:45:14.898212+01 | 1486219514.89821 | pgbench_branches |         12926976

 2017-02-04 15:45:15.984046+01 | 1486219515.98405 | pgbench_accounts |      13669883904
 2017-02-04 15:45:15.984046+01 | 1486219515.98405 | pgbench_tellers  |         15532032
 2017-02-04 15:45:15.984046+01 | 1486219515.98405 | pgbench_history  |        287367168
 2017-02-04 15:45:15.984046+01 | 1486219515.98405 | pgbench_branches |         12926976

 2017-02-04 15:45:17.070196+01 | 1486219517.0702 | pgbench_accounts |      13670014976
 2017-02-04 15:45:17.070196+01 | 1486219517.0702 | pgbench_tellers  |         15532032
 2017-02-04 15:45:17.070196+01 | 1486219517.0702 | pgbench_history  |        289947648
 2017-02-04 15:45:17.070196+01 | 1486219517.0702 | pgbench_branches |         12926976

 2017-02-04 15:45:18.157031+01 | 1486219518.15703 | pgbench_accounts |      13670113280
 2017-02-04 15:45:18.157031+01 | 1486219518.15703 | pgbench_tellers  |         15532032
 2017-02-04 15:45:18.157031+01 | 1486219518.15703 | pgbench_history  |        293216256
 2017-02-04 15:45:18.157031+01 | 1486219518.15703 | pgbench_branches |         12926976

 2017-02-04 15:45:19.251749+01 | 1486219519.25175 | pgbench_accounts |      13670178816
 2017-02-04 15:45:19.251749+01 | 1486219519.25175 | pgbench_tellers  |         15532032
 2017-02-04 15:45:19.251749+01 | 1486219519.25175 | pgbench_history  |        296296448
 2017-02-04 15:45:19.251749+01 | 1486219519.25175 | pgbench_branches |         12926976

 2017-02-04 15:45:20.343991+01 | 1486219520.34399 | pgbench_accounts |      13670203392
 2017-02-04 15:45:20.343991+01 | 1486219520.34399 | pgbench_tellers  |         15532032
 2017-02-04 15:45:20.343991+01 | 1486219520.34399 | pgbench_history  |        299810816
 2017-02-04 15:45:20.343991+01 | 1486219520.34399 | pgbench_branches |         12926976

 2017-02-04 15:45:21.433445+01 | 1486219521.43344 | pgbench_accounts |      13670211584
 2017-02-04 15:45:21.433445+01 | 1486219521.43344 | pgbench_tellers  |         15532032
 2017-02-04 15:45:21.433445+01 | 1486219521.43344 | pgbench_history  |        301850624
 2017-02-04 15:45:21.433445+01 | 1486219521.43344 | pgbench_branches |         12926976

 2017-02-04 15:45:22.521335+01 | 1486219522.52133 | pgbench_accounts |      13670244352
 2017-02-04 15:45:22.521335+01 | 1486219522.52133 | pgbench_tellers  |         15532032
 2017-02-04 15:45:22.521335+01 | 1486219522.52133 | pgbench_history  |        305553408
 2017-02-04 15:45:22.521335+01 | 1486219522.52133 | pgbench_branches |         12926976

 2017-02-04 15:45:23.607454+01 | 1486219523.60745 | pgbench_accounts |      13670285312
 2017-02-04 15:45:23.607454+01 | 1486219523.60745 | pgbench_tellers  |         15532032
 2017-02-04 15:45:23.607454+01 | 1486219523.60745 | pgbench_history  |        308715520
 2017-02-04 15:45:23.607454+01 | 1486219523.60745 | pgbench_branches |         12926976

 2017-02-04 15:45:24.697089+01 | 1486219524.69709 | pgbench_accounts |      13670334464
 2017-02-04 15:45:24.697089+01 | 1486219524.69709 | pgbench_tellers  |         15532032
 2017-02-04 15:45:24.697089+01 | 1486219524.69709 | pgbench_history  |        311107584
 2017-02-04 15:45:24.697089+01 | 1486219524.69709 | pgbench_branches |         12926976

 2017-02-04 15:45:25.783+01 | 1486219525.783 | pgbench_accounts |      13670465536
 2017-02-04 15:45:25.783+01 | 1486219525.783 | pgbench_tellers  |         15532032
 2017-02-04 15:45:25.783+01 | 1486219525.783 | pgbench_history  |        313450496
 2017-02-04 15:45:25.783+01 | 1486219525.783 | pgbench_branches |         12926976

 2017-02-04 15:45:26.86837+01 | 1486219526.86837 | pgbench_accounts |      13670522880
 2017-02-04 15:45:26.86837+01 | 1486219526.86837 | pgbench_tellers  |         15532032
 2017-02-04 15:45:26.86837+01 | 1486219526.86837 | pgbench_history  |        316801024
 2017-02-04 15:45:26.86837+01 | 1486219526.86837 | pgbench_branches |         12926976

 2017-02-04 15:45:27.956475+01 | 1486219527.95648 | pgbench_accounts |      13670621184
 2017-02-04 15:45:27.956475+01 | 1486219527.95648 | pgbench_tellers  |         15532032
 2017-02-04 15:45:27.956475+01 | 1486219527.95648 | pgbench_history  |        320151552
 2017-02-04 15:45:27.956475+01 | 1486219527.95648 | pgbench_branches |         12926976

 2017-02-04 15:45:29.0459+01 | 1486219529.0459 | pgbench_accounts |      13670678528
 2017-02-04 15:45:29.0459+01 | 1486219529.0459 | pgbench_tellers  |         15532032
 2017-02-04 15:45:29.0459+01 | 1486219529.0459 | pgbench_history  |        322887680
 2017-02-04 15:45:29.0459+01 | 1486219529.0459 | pgbench_branches |         12926976

 2017-02-04 15:45:30.144291+01 | 1486219530.14429 | pgbench_accounts |      13670719488
 2017-02-04 15:45:30.144291+01 | 1486219530.14429 | pgbench_tellers  |         15532032
 2017-02-04 15:45:30.144291+01 | 1486219530.14429 | pgbench_history  |        325935104
 2017-02-04 15:45:30.144291+01 | 1486219530.14429 | pgbench_branches |         12926976

 2017-02-04 15:45:31.234761+01 | 1486219531.23476 | pgbench_accounts |      13670825984
 2017-02-04 15:45:31.234761+01 | 1486219531.23476 | pgbench_tellers  |         15532032
 2017-02-04 15:45:31.234761+01 | 1486219531.23476 | pgbench_history  |        328114176
 2017-02-04 15:45:31.234761+01 | 1486219531.23476 | pgbench_branches |         12926976

 2017-02-04 15:45:32.320108+01 | 1486219532.32011 | pgbench_accounts |      13670858752
 2017-02-04 15:45:32.320108+01 | 1486219532.32011 | pgbench_tellers  |         15532032
 2017-02-04 15:45:32.320108+01 | 1486219532.32011 | pgbench_history  |        331350016
 2017-02-04 15:45:32.320108+01 | 1486219532.32011 | pgbench_branches |         12926976

 2017-02-04 15:45:33.417293+01 | 1486219533.41729 | pgbench_accounts |      13670899712
 2017-02-04 15:45:33.417293+01 | 1486219533.41729 | pgbench_tellers  |         15532032
 2017-02-04 15:45:33.417293+01 | 1486219533.41729 | pgbench_history  |        334536704
 2017-02-04 15:45:33.417293+01 | 1486219533.41729 | pgbench_branches |         12926976

 2017-02-04 15:45:34.511667+01 | 1486219534.51167 | pgbench_accounts |      13670932480
 2017-02-04 15:45:34.511667+01 | 1486219534.51167 | pgbench_tellers  |         15532032
 2017-02-04 15:45:34.511667+01 | 1486219534.51167 | pgbench_history  |        339574784
 2017-02-04 15:45:34.511667+01 | 1486219534.51167 | pgbench_branches |         12926976

 2017-02-04 15:45:35.589739+01 | 1486219535.58974 | pgbench_accounts |      13670965248
 2017-02-04 15:45:35.589739+01 | 1486219535.58974 | pgbench_tellers  |         15532032
 2017-02-04 15:45:35.589739+01 | 1486219535.58974 | pgbench_history  |        340123648
 2017-02-04 15:45:35.589739+01 | 1486219535.58974 | pgbench_branches |         12926976

 2017-02-04 15:45:36.674606+01 | 1486219536.67461 | pgbench_accounts |      13671153664
 2017-02-04 15:45:36.674606+01 | 1486219536.67461 | pgbench_tellers  |         15532032
 2017-02-04 15:45:36.674606+01 | 1486219536.67461 | pgbench_history  |        344072192
 2017-02-04 15:45:36.674606+01 | 1486219536.67461 | pgbench_branches |         12926976

 2017-02-04 15:45:37.765401+01 | 1486219537.7654 | pgbench_accounts |      13671153664
 2017-02-04 15:45:37.765401+01 | 1486219537.7654 | pgbench_tellers  |         15532032
 2017-02-04 15:45:37.765401+01 | 1486219537.7654 | pgbench_history  |        346251264
 2017-02-04 15:45:37.765401+01 | 1486219537.7654 | pgbench_branches |         12926976

 2017-02-04 15:45:38.848547+01 | 1486219538.84855 | pgbench_accounts |      13671153664
 2017-02-04 15:45:38.848547+01 | 1486219538.84855 | pgbench_tellers  |         15532032
 2017-02-04 15:45:38.848547+01 | 1486219538.84855 | pgbench_history  |        350453760
 2017-02-04 15:45:38.848547+01 | 1486219538.84855 | pgbench_branches |         12926976

 2017-02-04 15:45:39.940296+01 | 1486219539.9403 | pgbench_accounts |      13671153664
 2017-02-04 15:45:39.940296+01 | 1486219539.9403 | pgbench_tellers  |         15532032
 2017-02-04 15:45:39.940296+01 | 1486219539.9403 | pgbench_history  |        352305152
 2017-02-04 15:45:39.940296+01 | 1486219539.9403 | pgbench_branches |         12926976

 2017-02-04 15:45:41.031629+01 | 1486219541.03163 | pgbench_accounts |      13671972864
 2017-02-04 15:45:41.031629+01 | 1486219541.03163 | pgbench_tellers  |         15532032
 2017-02-04 15:45:41.031629+01 | 1486219541.03163 | pgbench_history  |        354672640
 2017-02-04 15:45:41.031629+01 | 1486219541.03163 | pgbench_branches |         12926976

 2017-02-04 15:45:42.131331+01 | 1486219542.13133 | pgbench_accounts |      13671972864
 2017-02-04 15:45:42.131331+01 | 1486219542.13133 | pgbench_tellers  |         15532032
 2017-02-04 15:45:42.131331+01 | 1486219542.13133 | pgbench_history  |        359358464
 2017-02-04 15:45:42.131331+01 | 1486219542.13133 | pgbench_branches |         12926976

 2017-02-04 15:45:43.226685+01 | 1486219543.22669 | pgbench_accounts |      13671972864
 2017-02-04 15:45:43.226685+01 | 1486219543.22669 | pgbench_tellers  |         15532032
 2017-02-04 15:45:43.226685+01 | 1486219543.22669 | pgbench_history  |        360554496
 2017-02-04 15:45:43.226685+01 | 1486219543.22669 | pgbench_branches |         12926976

 2017-02-04 15:45:44.319405+01 | 1486219544.31941 | pgbench_accounts |      13671972864
 2017-02-04 15:45:44.319405+01 | 1486219544.31941 | pgbench_tellers  |         15532032
 2017-02-04 15:45:44.319405+01 | 1486219544.31941 | pgbench_history  |        362733568
 2017-02-04 15:45:44.319405+01 | 1486219544.31941 | pgbench_branches |         12926976

 2017-02-04 15:45:45.410321+01 | 1486219545.41032 | pgbench_accounts |      13671972864
 2017-02-04 15:45:45.410321+01 | 1486219545.41032 | pgbench_tellers  |         15532032
 2017-02-04 15:45:45.410321+01 | 1486219545.41032 | pgbench_history  |        366247936
 2017-02-04 15:45:45.410321+01 | 1486219545.41032 | pgbench_branches |         12926976

 2017-02-04 15:45:46.505012+01 | 1486219546.50501 | pgbench_accounts |      13672488960
 2017-02-04 15:45:46.505012+01 | 1486219546.50501 | pgbench_tellers  |         15532032
 2017-02-04 15:45:46.505012+01 | 1486219546.50501 | pgbench_history  |        368287744
 2017-02-04 15:45:46.505012+01 | 1486219546.50501 | pgbench_branches |         12926976

 2017-02-04 15:45:47.593255+01 | 1486219547.59326 | pgbench_accounts |      13672562688
 2017-02-04 15:45:47.593255+01 | 1486219547.59326 | pgbench_tellers  |         15532032
 2017-02-04 15:45:47.593255+01 | 1486219547.59326 | pgbench_history  |        371826688
 2017-02-04 15:45:47.593255+01 | 1486219547.59326 | pgbench_branches |         12926976

 2017-02-04 15:45:48.673423+01 | 1486219548.67342 | pgbench_accounts |      13672595456
 2017-02-04 15:45:48.673423+01 | 1486219548.67342 | pgbench_tellers  |         15532032
 2017-02-04 15:45:48.673423+01 | 1486219548.67342 | pgbench_history  |        373161984
 2017-02-04 15:45:48.673423+01 | 1486219548.67342 | pgbench_branches |         12926976

 2017-02-04 15:45:49.757193+01 | 1486219549.75719 | pgbench_accounts |      13672611840
 2017-02-04 15:45:49.757193+01 | 1486219549.75719 | pgbench_tellers  |         15532032
 2017-02-04 15:45:49.757193+01 | 1486219549.75719 | pgbench_history  |        376184832
 2017-02-04 15:45:49.757193+01 | 1486219549.75719 | pgbench_branches |         12926976

 2017-02-04 15:45:50.838813+01 | 1486219550.83881 | pgbench_accounts |      13672620032
 2017-02-04 15:45:50.838813+01 | 1486219550.83881 | pgbench_tellers  |         15532032
 2017-02-04 15:45:50.838813+01 | 1486219550.83881 | pgbench_history  |        378085376
 2017-02-04 15:45:50.838813+01 | 1486219550.83881 | pgbench_branches |         12926976

 2017-02-04 15:45:51.927023+01 | 1486219551.92702 | pgbench_accounts |      13672628224
 2017-02-04 15:45:51.927023+01 | 1486219551.92702 | pgbench_tellers  |         15532032
 2017-02-04 15:45:51.927023+01 | 1486219551.92702 | pgbench_history  |        380764160
 2017-02-04 15:45:51.927023+01 | 1486219551.92702 | pgbench_branches |         12926976

 2017-02-04 15:45:53.017642+01 | 1486219553.01764 | pgbench_accounts |      13672628224
 2017-02-04 15:45:53.017642+01 | 1486219553.01764 | pgbench_tellers  |         15532032
 2017-02-04 15:45:53.017642+01 | 1486219553.01764 | pgbench_history  |        383508480
 2017-02-04 15:45:53.017642+01 | 1486219553.01764 | pgbench_branches |         12926976

 2017-02-04 15:45:54.109063+01 | 1486219554.10906 | pgbench_accounts |      13672628224
 2017-02-04 15:45:54.109063+01 | 1486219554.10906 | pgbench_tellers  |         15532032
 2017-02-04 15:45:54.109063+01 | 1486219554.10906 | pgbench_history  |        387022848
 2017-02-04 15:45:54.109063+01 | 1486219554.10906 | pgbench_branches |         12926976

 2017-02-04 15:45:55.200053+01 | 1486219555.20005 | pgbench_accounts |      13672628224
 2017-02-04 15:45:55.200053+01 | 1486219555.20005 | pgbench_tellers  |         15532032
 2017-02-04 15:45:55.200053+01 | 1486219555.20005 | pgbench_history  |        389554176
 2017-02-04 15:45:55.200053+01 | 1486219555.20005 | pgbench_branches |         12926976

 2017-02-04 15:45:56.292831+01 | 1486219556.29283 | pgbench_accounts |      13672652800
 2017-02-04 15:45:56.292831+01 | 1486219556.29283 | pgbench_tellers  |         15532032
 2017-02-04 15:45:56.292831+01 | 1486219556.29283 | pgbench_history  |        392273920
 2017-02-04 15:45:56.292831+01 | 1486219556.29283 | pgbench_branches |         12926976

 2017-02-04 15:45:57.384489+01 | 1486219557.38449 | pgbench_accounts |      13672751104
 2017-02-04 15:45:57.384489+01 | 1486219557.38449 | pgbench_tellers  |         15532032
 2017-02-04 15:45:57.384489+01 | 1486219557.38449 | pgbench_history  |        394829824
 2017-02-04 15:45:57.384489+01 | 1486219557.38449 | pgbench_branches |         12926976

 2017-02-04 15:45:58.47289+01 | 1486219558.47289 | pgbench_accounts |      13672890368
 2017-02-04 15:45:58.47289+01 | 1486219558.47289 | pgbench_tellers  |         15532032
 2017-02-04 15:45:58.47289+01 | 1486219558.47289 | pgbench_history  |        398016512
 2017-02-04 15:45:58.47289+01 | 1486219558.47289 | pgbench_branches |         12926976

 2017-02-04 15:45:59.56276+01 | 1486219559.56276 | pgbench_accounts |      13673013248
 2017-02-04 15:45:59.56276+01 | 1486219559.56276 | pgbench_tellers  |         15532032
 2017-02-04 15:45:59.56276+01 | 1486219559.56276 | pgbench_history  |        403496960
 2017-02-04 15:45:59.56276+01 | 1486219559.56276 | pgbench_branches |         12926976

 2017-02-04 15:46:00.645981+01 | 1486219560.64598 | pgbench_accounts |      13673103360
 2017-02-04 15:46:00.645981+01 | 1486219560.64598 | pgbench_tellers  |         15532032
 2017-02-04 15:46:00.645981+01 | 1486219560.64598 | pgbench_history  |        403496960
 2017-02-04 15:46:00.645981+01 | 1486219560.64598 | pgbench_branches |         12926976

 2017-02-04 15:46:01.730818+01 | 1486219561.73082 | pgbench_accounts |      13673177088
 2017-02-04 15:46:01.730818+01 | 1486219561.73082 | pgbench_tellers  |         15532032
 2017-02-04 15:46:01.730818+01 | 1486219561.73082 | pgbench_history  |        406659072
 2017-02-04 15:46:01.730818+01 | 1486219561.73082 | pgbench_branches |         12926976

 2017-02-04 15:46:02.818754+01 | 1486219562.81875 | pgbench_accounts |      13673226240
 2017-02-04 15:46:02.818754+01 | 1486219562.81875 | pgbench_tellers  |         15532032
 2017-02-04 15:46:02.818754+01 | 1486219562.81875 | pgbench_history  |        410173440
 2017-02-04 15:46:02.818754+01 | 1486219562.81875 | pgbench_branches |         12926976

 2017-02-04 15:46:03.91232+01 | 1486219563.91232 | pgbench_accounts |      13673259008
 2017-02-04 15:46:03.91232+01 | 1486219563.91232 | pgbench_tellers  |         15532032
 2017-02-04 15:46:03.91232+01 | 1486219563.91232 | pgbench_history  |        411860992
 2017-02-04 15:46:03.91232+01 | 1486219563.91232 | pgbench_branches |         12926976

 2017-02-04 15:46:05.00849+01 | 1486219565.00849 | pgbench_accounts |      13673275392
 2017-02-04 15:46:05.00849+01 | 1486219565.00849 | pgbench_tellers  |         15532032
 2017-02-04 15:46:05.00849+01 | 1486219565.00849 | pgbench_history  |        415096832
 2017-02-04 15:46:05.00849+01 | 1486219565.00849 | pgbench_branches |         12926976

 2017-02-04 15:46:06.096985+01 | 1486219566.09699 | pgbench_accounts |      13673275392
 2017-02-04 15:46:06.096985+01 | 1486219566.09699 | pgbench_tellers  |         15532032
 2017-02-04 15:46:06.096985+01 | 1486219566.09699 | pgbench_history  |        418168832
 2017-02-04 15:46:06.096985+01 | 1486219566.09699 | pgbench_branches |         12926976

 2017-02-04 15:46:07.184398+01 | 1486219567.1844 | pgbench_accounts |      13673291776
 2017-02-04 15:46:07.184398+01 | 1486219567.1844 | pgbench_tellers  |         15532032
 2017-02-04 15:46:07.184398+01 | 1486219567.1844 | pgbench_history  |        421879808
 2017-02-04 15:46:07.184398+01 | 1486219567.1844 | pgbench_branches |         12926976

 2017-02-04 15:46:08.274671+01 | 1486219568.27467 | pgbench_accounts |      13673308160
 2017-02-04 15:46:08.274671+01 | 1486219568.27467 | pgbench_tellers  |         15532032
 2017-02-04 15:46:08.274671+01 | 1486219568.27467 | pgbench_history  |        423755776
 2017-02-04 15:46:08.274671+01 | 1486219568.27467 | pgbench_branches |         12926976

 2017-02-04 15:46:09.371462+01 | 1486219569.37146 | pgbench_accounts |      13673373696
 2017-02-04 15:46:09.371462+01 | 1486219569.37146 | pgbench_tellers  |         15532032
 2017-02-04 15:46:09.371462+01 | 1486219569.37146 | pgbench_history  |        426508288
 2017-02-04 15:46:09.371462+01 | 1486219569.37146 | pgbench_branches |         12926976

 2017-02-04 15:46:10.462433+01 | 1486219570.46243 | pgbench_accounts |      13673480192
 2017-02-04 15:46:10.462433+01 | 1486219570.46243 | pgbench_tellers  |         15532032
 2017-02-04 15:46:10.462433+01 | 1486219570.46243 | pgbench_history  |        430702592
 2017-02-04 15:46:10.462433+01 | 1486219570.46243 | pgbench_branches |         12926976

 2017-02-04 15:46:11.557451+01 | 1486219571.55745 | pgbench_accounts |      13673603072
 2017-02-04 15:46:11.557451+01 | 1486219571.55745 | pgbench_tellers  |         15532032
 2017-02-04 15:46:11.557451+01 | 1486219571.55745 | pgbench_history  |        432742400
 2017-02-04 15:46:11.557451+01 | 1486219571.55745 | pgbench_branches |         12926976

 2017-02-04 15:46:12.645211+01 | 1486219572.64521 | pgbench_accounts |      13673701376
 2017-02-04 15:46:12.645211+01 | 1486219572.64521 | pgbench_tellers  |         15532032
 2017-02-04 15:46:12.645211+01 | 1486219572.64521 | pgbench_history  |        435445760
 2017-02-04 15:46:12.645211+01 | 1486219572.64521 | pgbench_branches |         12926976

 2017-02-04 15:46:13.728913+01 | 1486219573.72891 | pgbench_accounts |      13673758720
 2017-02-04 15:46:13.728913+01 | 1486219573.72891 | pgbench_tellers  |         15532032
 2017-02-04 15:46:13.728913+01 | 1486219573.72891 | pgbench_history  |        438501376
 2017-02-04 15:46:13.728913+01 | 1486219573.72891 | pgbench_branches |         12926976

 2017-02-04 15:46:14.819381+01 | 1486219574.81938 | pgbench_accounts |      13673799680
 2017-02-04 15:46:14.819381+01 | 1486219574.81938 | pgbench_tellers  |         15532032
 2017-02-04 15:46:14.819381+01 | 1486219574.81938 | pgbench_history  |        441909248
 2017-02-04 15:46:14.819381+01 | 1486219574.81938 | pgbench_branches |         12926976

 2017-02-04 15:46:15.900952+01 | 1486219575.90095 | pgbench_accounts |      13673857024
 2017-02-04 15:46:15.900952+01 | 1486219575.90095 | pgbench_tellers  |         15532032
 2017-02-04 15:46:15.900952+01 | 1486219575.90095 | pgbench_history  |        444604416
 2017-02-04 15:46:15.900952+01 | 1486219575.90095 | pgbench_branches |         12926976

 2017-02-04 15:46:16.988175+01 | 1486219576.98817 | pgbench_accounts |      13673897984
 2017-02-04 15:46:16.988175+01 | 1486219576.98817 | pgbench_tellers  |         15532032
 2017-02-04 15:46:16.988175+01 | 1486219576.98817 | pgbench_history  |        447627264
 2017-02-04 15:46:16.988175+01 | 1486219576.98817 | pgbench_branches |         12926976

 2017-02-04 15:46:18.079355+01 | 1486219578.07936 | pgbench_accounts |      13673922560
 2017-02-04 15:46:18.079355+01 | 1486219578.07936 | pgbench_tellers  |         15532032
 2017-02-04 15:46:18.079355+01 | 1486219578.07936 | pgbench_history  |        450248704
 2017-02-04 15:46:18.079355+01 | 1486219578.07936 | pgbench_branches |         12926976

 2017-02-04 15:46:19.171296+01 | 1486219579.1713 | pgbench_accounts |      13673947136
 2017-02-04 15:46:19.171296+01 | 1486219579.1713 | pgbench_tellers  |         15532032
 2017-02-04 15:46:19.171296+01 | 1486219579.1713 | pgbench_history  |        453984256
 2017-02-04 15:46:19.171296+01 | 1486219579.1713 | pgbench_branches |         12926976

 2017-02-04 15:46:20.263894+01 | 1486219580.26389 | pgbench_accounts |      13673979904
 2017-02-04 15:46:20.263894+01 | 1486219580.26389 | pgbench_tellers  |         15532032
 2017-02-04 15:46:20.263894+01 | 1486219580.26389 | pgbench_history  |        456187904
 2017-02-04 15:46:20.263894+01 | 1486219580.26389 | pgbench_branches |         12926976

 2017-02-04 15:46:21.35142+01 | 1486219581.35142 | pgbench_accounts |      13674201088
 2017-02-04 15:46:21.35142+01 | 1486219581.35142 | pgbench_tellers  |         15532032
 2017-02-04 15:46:21.35142+01 | 1486219581.35142 | pgbench_history  |        459268096
 2017-02-04 15:46:21.35142+01 | 1486219581.35142 | pgbench_branches |         12926976

 2017-02-04 15:46:22.445919+01 | 1486219582.44592 | pgbench_accounts |      13674201088
 2017-02-04 15:46:22.445919+01 | 1486219582.44592 | pgbench_tellers  |         15532032
 2017-02-04 15:46:22.445919+01 | 1486219582.44592 | pgbench_history  |        461963264
 2017-02-04 15:46:22.445919+01 | 1486219582.44592 | pgbench_branches |         12926976

 2017-02-04 15:46:23.541371+01 | 1486219583.54137 | pgbench_accounts |      13674201088
 2017-02-04 15:46:23.541371+01 | 1486219583.54137 | pgbench_tellers  |         15532032
 2017-02-04 15:46:23.541371+01 | 1486219583.54137 | pgbench_history  |        464519168
 2017-02-04 15:46:23.541371+01 | 1486219583.54137 | pgbench_branches |         12926976

 2017-02-04 15:46:24.625938+01 | 1486219584.62594 | pgbench_accounts |      13674201088
 2017-02-04 15:46:24.625938+01 | 1486219584.62594 | pgbench_tellers  |         15532032
 2017-02-04 15:46:24.625938+01 | 1486219584.62594 | pgbench_history  |        467869696
 2017-02-04 15:46:24.625938+01 | 1486219584.62594 | pgbench_branches |         12926976

 2017-02-04 15:46:25.711678+01 | 1486219585.71168 | pgbench_accounts |      13674201088
 2017-02-04 15:46:25.711678+01 | 1486219585.71168 | pgbench_tellers  |         15532032
 2017-02-04 15:46:25.711678+01 | 1486219585.71168 | pgbench_history  |        470753280
 2017-02-04 15:46:25.711678+01 | 1486219585.71168 | pgbench_branches |         12926976

 2017-02-04 15:46:26.795381+01 | 1486219586.79538 | pgbench_accounts |      13674201088
 2017-02-04 15:46:26.795381+01 | 1486219586.79538 | pgbench_tellers  |         15532032
 2017-02-04 15:46:26.795381+01 | 1486219586.79538 | pgbench_history  |        473489408
 2017-02-04 15:46:26.795381+01 | 1486219586.79538 | pgbench_branches |         12926976

 2017-02-04 15:46:27.880499+01 | 1486219587.8805 | pgbench_accounts |      13674201088
 2017-02-04 15:46:27.880499+01 | 1486219587.8805 | pgbench_tellers  |         15532032
 2017-02-04 15:46:27.880499+01 | 1486219587.8805 | pgbench_history  |        476872704
 2017-02-04 15:46:27.880499+01 | 1486219587.8805 | pgbench_branches |         12926976

 2017-02-04 15:46:28.967489+01 | 1486219588.96749 | pgbench_accounts |      13674201088
 2017-02-04 15:46:28.967489+01 | 1486219588.96749 | pgbench_tellers  |         15532032
 2017-02-04 15:46:28.967489+01 | 1486219588.96749 | pgbench_history  |        479240192
 2017-02-04 15:46:28.967489+01 | 1486219588.96749 | pgbench_branches |         12926976

 2017-02-04 15:46:30.049271+01 | 1486219590.04927 | pgbench_accounts |      13674733568
 2017-02-04 15:46:30.049271+01 | 1486219590.04927 | pgbench_tellers  |         15532032
 2017-02-04 15:46:30.049271+01 | 1486219590.04927 | pgbench_history  |        482115584
 2017-02-04 15:46:30.049271+01 | 1486219590.04927 | pgbench_branches |         12926976

 2017-02-04 15:46:31.14402+01 | 1486219591.14402 | pgbench_accounts |      13674741760
 2017-02-04 15:46:31.14402+01 | 1486219591.14402 | pgbench_tellers  |         15532032
 2017-02-04 15:46:31.14402+01 | 1486219591.14402 | pgbench_history  |        485818368
 2017-02-04 15:46:31.14402+01 | 1486219591.14402 | pgbench_branches |         12926976

 2017-02-04 15:46:32.232488+01 | 1486219592.23249 | pgbench_accounts |      13674766336
 2017-02-04 15:46:32.232488+01 | 1486219592.23249 | pgbench_tellers  |         15532032
 2017-02-04 15:46:32.232488+01 | 1486219592.23249 | pgbench_history  |        488022016
 2017-02-04 15:46:32.232488+01 | 1486219592.23249 | pgbench_branches |         12926976

 2017-02-04 15:46:33.32356+01 | 1486219593.32356 | pgbench_accounts |      13674790912
 2017-02-04 15:46:33.32356+01 | 1486219593.32356 | pgbench_tellers  |         15532032
 2017-02-04 15:46:33.32356+01 | 1486219593.32356 | pgbench_history  |        490905600
 2017-02-04 15:46:33.32356+01 | 1486219593.32356 | pgbench_branches |         12926976

 2017-02-04 15:46:34.417778+01 | 1486219594.41778 | pgbench_accounts |      13674823680
 2017-02-04 15:46:34.417778+01 | 1486219594.41778 | pgbench_tellers  |         15532032
 2017-02-04 15:46:34.417778+01 | 1486219594.41778 | pgbench_history  |        494583808
 2017-02-04 15:46:34.417778+01 | 1486219594.41778 | pgbench_branches |         12926976

 2017-02-04 15:46:35.520284+01 | 1486219595.52028 | pgbench_accounts |      13674831872
 2017-02-04 15:46:35.520284+01 | 1486219595.52028 | pgbench_tellers  |         15532032
 2017-02-04 15:46:35.520284+01 | 1486219595.52028 | pgbench_history  |        498122752
 2017-02-04 15:46:35.520284+01 | 1486219595.52028 | pgbench_branches |         12926976

 2017-02-04 15:46:36.610792+01 | 1486219596.61079 | pgbench_accounts |      13674848256
 2017-02-04 15:46:36.610792+01 | 1486219596.61079 | pgbench_tellers  |         15532032
 2017-02-04 15:46:36.610792+01 | 1486219596.61079 | pgbench_history  |        502968320
 2017-02-04 15:46:36.610792+01 | 1486219596.61079 | pgbench_branches |         12926976

 2017-02-04 15:46:37.696511+01 | 1486219597.69651 | pgbench_accounts |      13674856448
 2017-02-04 15:46:37.696511+01 | 1486219597.69651 | pgbench_tellers  |         15532032
 2017-02-04 15:46:37.696511+01 | 1486219597.69651 | pgbench_history  |        503349248
 2017-02-04 15:46:37.696511+01 | 1486219597.69651 | pgbench_branches |         12926976

 2017-02-04 15:46:38.772837+01 | 1486219598.77284 | pgbench_accounts |      13674856448
 2017-02-04 15:46:38.772837+01 | 1486219598.77284 | pgbench_tellers  |         15532032
 2017-02-04 15:46:38.772837+01 | 1486219598.77284 | pgbench_history  |        505012224
 2017-02-04 15:46:38.772837+01 | 1486219598.77284 | pgbench_branches |         12926976

 2017-02-04 15:46:39.856575+01 | 1486219599.85658 | pgbench_accounts |      13674987520
 2017-02-04 15:46:39.856575+01 | 1486219599.85658 | pgbench_tellers  |         15532032
 2017-02-04 15:46:39.856575+01 | 1486219599.85658 | pgbench_history  |        507846656
 2017-02-04 15:46:39.856575+01 | 1486219599.85658 | pgbench_branches |         12926976

 2017-02-04 15:46:40.945242+01 | 1486219600.94524 | pgbench_accounts |      13675495424
 2017-02-04 15:46:40.945242+01 | 1486219600.94524 | pgbench_tellers  |         15532032
 2017-02-04 15:46:40.945242+01 | 1486219600.94524 | pgbench_history  |        510607360
 2017-02-04 15:46:40.945242+01 | 1486219600.94524 | pgbench_branches |         12926976

 2017-02-04 15:46:42.032367+01 | 1486219602.03237 | pgbench_accounts |      13675642880
 2017-02-04 15:46:42.032367+01 | 1486219602.03237 | pgbench_tellers  |         15532032
 2017-02-04 15:46:42.032367+01 | 1486219602.03237 | pgbench_history  |        513335296
 2017-02-04 15:46:42.032367+01 | 1486219602.03237 | pgbench_branches |         12926976

 2017-02-04 15:46:43.131211+01 | 1486219603.13121 | pgbench_accounts |      13675732992
 2017-02-04 15:46:43.131211+01 | 1486219603.13121 | pgbench_tellers  |         15532032
 2017-02-04 15:46:43.131211+01 | 1486219603.13121 | pgbench_history  |        516661248
 2017-02-04 15:46:43.131211+01 | 1486219603.13121 | pgbench_branches |         12926976

 2017-02-04 15:46:44.226749+01 | 1486219604.22675 | pgbench_accounts |      13675782144
 2017-02-04 15:46:44.226749+01 | 1486219604.22675 | pgbench_tellers  |         15532032
 2017-02-04 15:46:44.226749+01 | 1486219604.22675 | pgbench_history  |        519634944
 2017-02-04 15:46:44.226749+01 | 1486219604.22675 | pgbench_branches |         12926976

 2017-02-04 15:46:45.31057+01 | 1486219605.31057 | pgbench_accounts |      13675864064
 2017-02-04 15:46:45.31057+01 | 1486219605.31057 | pgbench_tellers  |         15532032
 2017-02-04 15:46:45.31057+01 | 1486219605.31057 | pgbench_history  |        522960896
 2017-02-04 15:46:45.31057+01 | 1486219605.31057 | pgbench_branches |         12926976

 2017-02-04 15:46:46.401367+01 | 1486219606.40137 | pgbench_accounts |      13675954176
 2017-02-04 15:46:46.401367+01 | 1486219606.40137 | pgbench_tellers  |         15532032
 2017-02-04 15:46:46.401367+01 | 1486219606.40137 | pgbench_history  |        524812288
 2017-02-04 15:46:46.401367+01 | 1486219606.40137 | pgbench_branches |         12926976

 2017-02-04 15:46:47.490573+01 | 1486219607.49057 | pgbench_accounts |      13676003328
 2017-02-04 15:46:47.490573+01 | 1486219607.49057 | pgbench_tellers  |         15532032
 2017-02-04 15:46:47.490573+01 | 1486219607.49057 | pgbench_history  |        528171008
 2017-02-04 15:46:47.490573+01 | 1486219607.49057 | pgbench_branches |         12926976

 2017-02-04 15:46:48.576739+01 | 1486219608.57674 | pgbench_accounts |      13676052480
 2017-02-04 15:46:48.576739+01 | 1486219608.57674 | pgbench_tellers  |         15532032
 2017-02-04 15:46:48.576739+01 | 1486219608.57674 | pgbench_history  |        530538496
 2017-02-04 15:46:48.576739+01 | 1486219608.57674 | pgbench_branches |         12926976

 2017-02-04 15:46:49.661804+01 | 1486219609.6618 | pgbench_accounts |      13676085248
 2017-02-04 15:46:49.661804+01 | 1486219609.6618 | pgbench_tellers  |         15532032
 2017-02-04 15:46:49.661804+01 | 1486219609.6618 | pgbench_history  |        532905984
 2017-02-04 15:46:49.661804+01 | 1486219609.6618 | pgbench_branches |         12926976

 2017-02-04 15:46:50.745152+01 | 1486219610.74515 | pgbench_accounts |      13676134400
 2017-02-04 15:46:50.745152+01 | 1486219610.74515 | pgbench_tellers  |         15532032
 2017-02-04 15:46:50.745152+01 | 1486219610.74515 | pgbench_history  |        535486464
 2017-02-04 15:46:50.745152+01 | 1486219610.74515 | pgbench_branches |         12926976

 2017-02-04 15:46:51.827915+01 | 1486219611.82791 | pgbench_accounts |      13676167168
 2017-02-04 15:46:51.827915+01 | 1486219611.82791 | pgbench_tellers  |         15532032
 2017-02-04 15:46:51.827915+01 | 1486219611.82791 | pgbench_history  |        540508160
 2017-02-04 15:46:51.827915+01 | 1486219611.82791 | pgbench_branches |         12926976

 2017-02-04 15:46:52.910775+01 | 1486219612.91077 | pgbench_accounts |      13676167168
 2017-02-04 15:46:52.910775+01 | 1486219612.91077 | pgbench_tellers  |         15532032
 2017-02-04 15:46:52.910775+01 | 1486219612.91077 | pgbench_history  |        541679616
 2017-02-04 15:46:52.910775+01 | 1486219612.91077 | pgbench_branches |         12926976

 2017-02-04 15:46:53.996392+01 | 1486219613.99639 | pgbench_accounts |      13676232704
 2017-02-04 15:46:53.996392+01 | 1486219613.99639 | pgbench_tellers  |         15532032
 2017-02-04 15:46:53.996392+01 | 1486219613.99639 | pgbench_history  |        543211520
 2017-02-04 15:46:53.996392+01 | 1486219613.99639 | pgbench_branches |         12926976

 2017-02-04 15:46:55.084369+01 | 1486219615.08437 | pgbench_accounts |      13676265472
 2017-02-04 15:46:55.084369+01 | 1486219615.08437 | pgbench_tellers  |         15532032
 2017-02-04 15:46:55.084369+01 | 1486219615.08437 | pgbench_history  |        546398208
 2017-02-04 15:46:55.084369+01 | 1486219615.08437 | pgbench_branches |         12926976

 2017-02-04 15:46:56.179691+01 | 1486219616.17969 | pgbench_accounts |      13676281856
 2017-02-04 15:46:56.179691+01 | 1486219616.17969 | pgbench_tellers  |         15532032
 2017-02-04 15:46:56.179691+01 | 1486219616.17969 | pgbench_history  |        549093376
 2017-02-04 15:46:56.179691+01 | 1486219616.17969 | pgbench_branches |         12926976

 2017-02-04 15:46:57.27577+01 | 1486219617.27577 | pgbench_accounts |      13676355584
 2017-02-04 15:46:57.27577+01 | 1486219617.27577 | pgbench_tellers  |         15532032
 2017-02-04 15:46:57.27577+01 | 1486219617.27577 | pgbench_history  |        552960000
 2017-02-04 15:46:57.27577+01 | 1486219617.27577 | pgbench_branches |         12926976

 2017-02-04 15:46:58.36529+01 | 1486219618.36529 | pgbench_accounts |      13676437504
 2017-02-04 15:46:58.36529+01 | 1486219618.36529 | pgbench_tellers  |         15532032
 2017-02-04 15:46:58.36529+01 | 1486219618.36529 | pgbench_history  |        557457408
 2017-02-04 15:46:58.36529+01 | 1486219618.36529 | pgbench_branches |         12926976

 2017-02-04 15:46:59.458063+01 | 1486219619.45806 | pgbench_accounts |      13676494848
 2017-02-04 15:46:59.458063+01 | 1486219619.45806 | pgbench_tellers  |         15532032
 2017-02-04 15:46:59.458063+01 | 1486219619.45806 | pgbench_history  |        558137344
 2017-02-04 15:46:59.458063+01 | 1486219619.45806 | pgbench_branches |         12926976

 2017-02-04 15:47:00.549636+01 | 1486219620.54964 | pgbench_accounts |      13676576768
 2017-02-04 15:47:00.549636+01 | 1486219620.54964 | pgbench_tellers  |         15532032
 2017-02-04 15:47:00.549636+01 | 1486219620.54964 | pgbench_history  |        560316416
 2017-02-04 15:47:00.549636+01 | 1486219620.54964 | pgbench_branches |         12926976

 2017-02-04 15:47:01.652672+01 | 1486219621.65267 | pgbench_accounts |      13676896256
 2017-02-04 15:47:01.652672+01 | 1486219621.65267 | pgbench_tellers  |         15532032
 2017-02-04 15:47:01.652672+01 | 1486219621.65267 | pgbench_history  |        563150848
 2017-02-04 15:47:01.652672+01 | 1486219621.65267 | pgbench_branches |         12926976

 2017-02-04 15:47:02.738482+01 | 1486219622.73848 | pgbench_accounts |      13676896256
 2017-02-04 15:47:02.738482+01 | 1486219622.73848 | pgbench_tellers  |         15532032
 2017-02-04 15:47:02.738482+01 | 1486219622.73848 | pgbench_history  |        566173696
 2017-02-04 15:47:02.738482+01 | 1486219622.73848 | pgbench_branches |         12926976

 2017-02-04 15:47:03.828466+01 | 1486219623.82847 | pgbench_accounts |      13676978176
 2017-02-04 15:47:03.828466+01 | 1486219623.82847 | pgbench_tellers  |         15532032
 2017-02-04 15:47:03.828466+01 | 1486219623.82847 | pgbench_history  |        569196544
 2017-02-04 15:47:03.828466+01 | 1486219623.82847 | pgbench_branches |         12926976

 2017-02-04 15:47:04.910603+01 | 1486219624.9106 | pgbench_accounts |      13677035520
 2017-02-04 15:47:04.910603+01 | 1486219624.9106 | pgbench_tellers  |         15532032
 2017-02-04 15:47:04.910603+01 | 1486219624.9106 | pgbench_history  |        572383232
 2017-02-04 15:47:04.910603+01 | 1486219624.9106 | pgbench_branches |         12926976

 2017-02-04 15:47:06.000279+01 | 1486219626.00028 | pgbench_accounts |      13677092864
 2017-02-04 15:47:06.000279+01 | 1486219626.00028 | pgbench_tellers  |         15532032
 2017-02-04 15:47:06.000279+01 | 1486219626.00028 | pgbench_history  |        575078400
 2017-02-04 15:47:06.000279+01 | 1486219626.00028 | pgbench_branches |         12926976

 2017-02-04 15:47:07.090172+01 | 1486219627.09017 | pgbench_accounts |      13677182976
 2017-02-04 15:47:07.090172+01 | 1486219627.09017 | pgbench_tellers  |         15532032
 2017-02-04 15:47:07.090172+01 | 1486219627.09017 | pgbench_history  |        578076672
 2017-02-04 15:47:07.090172+01 | 1486219627.09017 | pgbench_branches |         12926976

 2017-02-04 15:47:08.179619+01 | 1486219628.17962 | pgbench_accounts |      13677264896
 2017-02-04 15:47:08.179619+01 | 1486219628.17962 | pgbench_tellers  |         15532032
 2017-02-04 15:47:08.179619+01 | 1486219628.17962 | pgbench_history  |        580255744
 2017-02-04 15:47:08.179619+01 | 1486219628.17962 | pgbench_branches |         12926976

 2017-02-04 15:47:09.276747+01 | 1486219629.27675 | pgbench_accounts |      13677355008
 2017-02-04 15:47:09.276747+01 | 1486219629.27675 | pgbench_tellers  |         15532032
 2017-02-04 15:47:09.276747+01 | 1486219629.27675 | pgbench_history  |        585064448
 2017-02-04 15:47:09.276747+01 | 1486219629.27675 | pgbench_branches |         12926976

 2017-02-04 15:47:10.369324+01 | 1486219630.36932 | pgbench_accounts |      13677404160
 2017-02-04 15:47:10.369324+01 | 1486219630.36932 | pgbench_tellers  |         15532032
 2017-02-04 15:47:10.369324+01 | 1486219630.36932 | pgbench_history  |        587382784
 2017-02-04 15:47:10.369324+01 | 1486219630.36932 | pgbench_branches |         12926976

 2017-02-04 15:47:11.460891+01 | 1486219631.46089 | pgbench_accounts |      13677404160
 2017-02-04 15:47:11.460891+01 | 1486219631.46089 | pgbench_tellers  |         15532032
 2017-02-04 15:47:11.460891+01 | 1486219631.46089 | pgbench_history  |        589078528
 2017-02-04 15:47:11.460891+01 | 1486219631.46089 | pgbench_branches |         12926976

 2017-02-04 15:47:12.554532+01 | 1486219632.55453 | pgbench_accounts |      13677428736
 2017-02-04 15:47:12.554532+01 | 1486219632.55453 | pgbench_tellers  |         15532032
 2017-02-04 15:47:12.554532+01 | 1486219632.55453 | pgbench_history  |        591937536
 2017-02-04 15:47:12.554532+01 | 1486219632.55453 | pgbench_branches |         12926976

 2017-02-04 15:47:13.660036+01 | 1486219633.66004 | pgbench_accounts |      13677453312
 2017-02-04 15:47:13.660036+01 | 1486219633.66004 | pgbench_tellers  |         15532032
 2017-02-04 15:47:13.660036+01 | 1486219633.66004 | pgbench_history  |        594935808
 2017-02-04 15:47:13.660036+01 | 1486219633.66004 | pgbench_branches |         12926976

 2017-02-04 15:47:14.749742+01 | 1486219634.74974 | pgbench_accounts |      13677502464
 2017-02-04 15:47:14.749742+01 | 1486219634.74974 | pgbench_tellers  |         15532032
 2017-02-04 15:47:14.749742+01 | 1486219634.74974 | pgbench_history  |        597327872
 2017-02-04 15:47:14.749742+01 | 1486219634.74974 | pgbench_branches |         12926976

 2017-02-04 15:47:15.843638+01 | 1486219635.84364 | pgbench_accounts |      13677559808
 2017-02-04 15:47:15.843638+01 | 1486219635.84364 | pgbench_tellers  |         15532032
 2017-02-04 15:47:15.843638+01 | 1486219635.84364 | pgbench_history  |        599883776
 2017-02-04 15:47:15.843638+01 | 1486219635.84364 | pgbench_branches |         12926976

 2017-02-04 15:47:16.927912+01 | 1486219636.92791 | pgbench_accounts |      13677592576
 2017-02-04 15:47:16.927912+01 | 1486219636.92791 | pgbench_tellers  |         15532032
 2017-02-04 15:47:16.927912+01 | 1486219636.92791 | pgbench_history  |        603283456
 2017-02-04 15:47:16.927912+01 | 1486219636.92791 | pgbench_branches |         12926976

 2017-02-04 15:47:18.01411+01 | 1486219638.01411 | pgbench_accounts |      13677641728
 2017-02-04 15:47:18.01411+01 | 1486219638.01411 | pgbench_tellers  |         15532032
 2017-02-04 15:47:18.01411+01 | 1486219638.01411 | pgbench_history  |        607920128
 2017-02-04 15:47:18.01411+01 | 1486219638.01411 | pgbench_branches |         12926976

 2017-02-04 15:47:19.100942+01 | 1486219639.10094 | pgbench_accounts |      13677699072
 2017-02-04 15:47:19.100942+01 | 1486219639.10094 | pgbench_tellers  |         15532032
 2017-02-04 15:47:19.100942+01 | 1486219639.10094 | pgbench_history  |        608600064
 2017-02-04 15:47:19.100942+01 | 1486219639.10094 | pgbench_branches |         12926976

 2017-02-04 15:47:20.187956+01 | 1486219640.18796 | pgbench_accounts |      13677780992
 2017-02-04 15:47:20.187956+01 | 1486219640.18796 | pgbench_tellers  |         15532032
 2017-02-04 15:47:20.187956+01 | 1486219640.18796 | pgbench_history  |        611246080
 2017-02-04 15:47:20.187956+01 | 1486219640.18796 | pgbench_branches |         12926976

 2017-02-04 15:47:21.277193+01 | 1486219641.27719 | pgbench_accounts |      13677830144
 2017-02-04 15:47:21.277193+01 | 1486219641.27719 | pgbench_tellers  |         15532032
 2017-02-04 15:47:21.277193+01 | 1486219641.27719 | pgbench_history  |        614981632
 2017-02-04 15:47:21.277193+01 | 1486219641.27719 | pgbench_branches |         12926976

 2017-02-04 15:47:22.379645+01 | 1486219642.37965 | pgbench_accounts |      13677912064
 2017-02-04 15:47:22.379645+01 | 1486219642.37965 | pgbench_tellers  |         15532032
 2017-02-04 15:47:22.379645+01 | 1486219642.37965 | pgbench_history  |        618143744
 2017-02-04 15:47:22.379645+01 | 1486219642.37965 | pgbench_branches |         12926976

 2017-02-04 15:47:23.477029+01 | 1486219643.47703 | pgbench_accounts |      13677944832
 2017-02-04 15:47:23.477029+01 | 1486219643.47703 | pgbench_tellers  |         15532032
 2017-02-04 15:47:23.477029+01 | 1486219643.47703 | pgbench_history  |        620978176
 2017-02-04 15:47:23.477029+01 | 1486219643.47703 | pgbench_branches |         12926976

 2017-02-04 15:47:24.57082+01 | 1486219644.57082 | pgbench_accounts |      13677977600
 2017-02-04 15:47:24.57082+01 | 1486219644.57082 | pgbench_tellers  |         15532032
 2017-02-04 15:47:24.57082+01 | 1486219644.57082 | pgbench_history  |        623976448
 2017-02-04 15:47:24.57082+01 | 1486219644.57082 | pgbench_branches |         12926976

 2017-02-04 15:47:25.658538+01 | 1486219645.65854 | pgbench_accounts |      13678018560
 2017-02-04 15:47:25.658538+01 | 1486219645.65854 | pgbench_tellers  |         15532032
 2017-02-04 15:47:25.658538+01 | 1486219645.65854 | pgbench_history  |        625852416
 2017-02-04 15:47:25.658538+01 | 1486219645.65854 | pgbench_branches |         12926976

 2017-02-04 15:47:26.751515+01 | 1486219646.75151 | pgbench_accounts |      13678067712
 2017-02-04 15:47:26.751515+01 | 1486219646.75151 | pgbench_tellers  |         15532032
 2017-02-04 15:47:26.751515+01 | 1486219646.75151 | pgbench_history  |        629415936
 2017-02-04 15:47:26.751515+01 | 1486219646.75151 | pgbench_branches |         12926976

 2017-02-04 15:47:27.83865+01 | 1486219647.83865 | pgbench_accounts |      13678133248
 2017-02-04 15:47:27.83865+01 | 1486219647.83865 | pgbench_tellers  |         15532032
 2017-02-04 15:47:27.83865+01 | 1486219647.83865 | pgbench_history  |        632438784
 2017-02-04 15:47:27.83865+01 | 1486219647.83865 | pgbench_branches |         12926976

 2017-02-04 15:47:28.923233+01 | 1486219648.92323 | pgbench_accounts |      13678174208
 2017-02-04 15:47:28.923233+01 | 1486219648.92323 | pgbench_tellers  |         15532032
 2017-02-04 15:47:28.923233+01 | 1486219648.92323 | pgbench_history  |        635297792
 2017-02-04 15:47:28.923233+01 | 1486219648.92323 | pgbench_branches |         12926976

 2017-02-04 15:47:30.011255+01 | 1486219650.01126 | pgbench_accounts |      13678190592
 2017-02-04 15:47:30.011255+01 | 1486219650.01126 | pgbench_tellers  |         15532032
 2017-02-04 15:47:30.011255+01 | 1486219650.01126 | pgbench_history  |        637640704
 2017-02-04 15:47:30.011255+01 | 1486219650.01126 | pgbench_branches |         12926976

 2017-02-04 15:47:31.100983+01 | 1486219651.10098 | pgbench_accounts |      13678256128
 2017-02-04 15:47:31.100983+01 | 1486219651.10098 | pgbench_tellers  |         15532032
 2017-02-04 15:47:31.100983+01 | 1486219651.10098 | pgbench_history  |        640016384
 2017-02-04 15:47:31.100983+01 | 1486219651.10098 | pgbench_branches |         12926976

 2017-02-04 15:47:32.190529+01 | 1486219652.19053 | pgbench_accounts |      13678305280
 2017-02-04 15:47:32.190529+01 | 1486219652.19053 | pgbench_tellers  |         15532032
 2017-02-04 15:47:32.190529+01 | 1486219652.19053 | pgbench_history  |        642875392
 2017-02-04 15:47:32.190529+01 | 1486219652.19053 | pgbench_branches |         12926976

 2017-02-04 15:47:33.273782+01 | 1486219653.27378 | pgbench_accounts |      13678346240
 2017-02-04 15:47:33.273782+01 | 1486219653.27378 | pgbench_tellers  |         15532032
 2017-02-04 15:47:33.273782+01 | 1486219653.27378 | pgbench_history  |        645808128
 2017-02-04 15:47:33.273782+01 | 1486219653.27378 | pgbench_branches |         12926976

 2017-02-04 15:47:34.363158+01 | 1486219654.36316 | pgbench_accounts |      13678419968
 2017-02-04 15:47:34.363158+01 | 1486219654.36316 | pgbench_tellers  |         15532032
 2017-02-04 15:47:34.363158+01 | 1486219654.36316 | pgbench_history  |        649322496
 2017-02-04 15:47:34.363158+01 | 1486219654.36316 | pgbench_branches |         12926976

 2017-02-04 15:47:35.461389+01 | 1486219655.46139 | pgbench_accounts |      13678469120
 2017-02-04 15:47:35.461389+01 | 1486219655.46139 | pgbench_tellers  |         15532032
 2017-02-04 15:47:35.461389+01 | 1486219655.46139 | pgbench_history  |        651337728
 2017-02-04 15:47:35.461389+01 | 1486219655.46139 | pgbench_branches |         12926976

 2017-02-04 15:47:36.553432+01 | 1486219656.55343 | pgbench_accounts |      13678510080
 2017-02-04 15:47:36.553432+01 | 1486219656.55343 | pgbench_tellers  |         15532032
 2017-02-04 15:47:36.553432+01 | 1486219656.55343 | pgbench_history  |        654761984
 2017-02-04 15:47:36.553432+01 | 1486219656.55343 | pgbench_branches |         12926976

 2017-02-04 15:47:37.64425+01 | 1486219657.64425 | pgbench_accounts |      13678616576
 2017-02-04 15:47:37.64425+01 | 1486219657.64425 | pgbench_tellers  |         15532032
 2017-02-04 15:47:37.64425+01 | 1486219657.64425 | pgbench_history  |        657350656
 2017-02-04 15:47:37.64425+01 | 1486219657.64425 | pgbench_branches |         12926976

 2017-02-04 15:47:38.725137+01 | 1486219658.72514 | pgbench_accounts |      13678641152
 2017-02-04 15:47:38.725137+01 | 1486219658.72514 | pgbench_tellers  |         15532032
 2017-02-04 15:47:38.725137+01 | 1486219658.72514 | pgbench_history  |        660611072
 2017-02-04 15:47:38.725137+01 | 1486219658.72514 | pgbench_branches |         12926976

 2017-02-04 15:47:39.81485+01 | 1486219659.81485 | pgbench_accounts |      13678755840
 2017-02-04 15:47:39.81485+01 | 1486219659.81485 | pgbench_tellers  |         15532032
 2017-02-04 15:47:39.81485+01 | 1486219659.81485 | pgbench_history  |        663683072
 2017-02-04 15:47:39.81485+01 | 1486219659.81485 | pgbench_branches |         12926976

 2017-02-04 15:47:40.897639+01 | 1486219660.89764 | pgbench_accounts |      13679124480
 2017-02-04 15:47:40.897639+01 | 1486219660.89764 | pgbench_tellers  |         15532032
 2017-02-04 15:47:40.897639+01 | 1486219660.89764 | pgbench_history  |        665559040
 2017-02-04 15:47:40.897639+01 | 1486219660.89764 | pgbench_branches |         12926976

 2017-02-04 15:47:41.981183+01 | 1486219661.98118 | pgbench_accounts |      13679280128
 2017-02-04 15:47:41.981183+01 | 1486219661.98118 | pgbench_tellers  |         15532032
 2017-02-04 15:47:41.981183+01 | 1486219661.98118 | pgbench_history  |        668286976
 2017-02-04 15:47:41.981183+01 | 1486219661.98118 | pgbench_branches |         12926976

 2017-02-04 15:47:43.067957+01 | 1486219663.06796 | pgbench_accounts |      13679321088
 2017-02-04 15:47:43.067957+01 | 1486219663.06796 | pgbench_tellers  |         15532032
 2017-02-04 15:47:43.067957+01 | 1486219663.06796 | pgbench_history  |        671342592
 2017-02-04 15:47:43.067957+01 | 1486219663.06796 | pgbench_branches |         12926976

 2017-02-04 15:47:44.161593+01 | 1486219664.16159 | pgbench_accounts |      13679362048
 2017-02-04 15:47:44.161593+01 | 1486219664.16159 | pgbench_tellers  |         15532032
 2017-02-04 15:47:44.161593+01 | 1486219664.16159 | pgbench_history  |        675700736
 2017-02-04 15:47:44.161593+01 | 1486219664.16159 | pgbench_branches |         12926976

 2017-02-04 15:47:45.254932+01 | 1486219665.25493 | pgbench_accounts |      13679419392
 2017-02-04 15:47:45.254932+01 | 1486219665.25493 | pgbench_tellers  |         15532032
 2017-02-04 15:47:45.254932+01 | 1486219665.25493 | pgbench_history  |        678699008
 2017-02-04 15:47:45.254932+01 | 1486219665.25493 | pgbench_branches |         12926976

 2017-02-04 15:47:46.340266+01 | 1486219666.34027 | pgbench_accounts |      13679460352
 2017-02-04 15:47:46.340266+01 | 1486219666.34027 | pgbench_tellers  |         15532032
 2017-02-04 15:47:46.340266+01 | 1486219666.34027 | pgbench_history  |        679878656
 2017-02-04 15:47:46.340266+01 | 1486219666.34027 | pgbench_branches |         12926976

 2017-02-04 15:47:47.43867+01 | 1486219667.43867 | pgbench_accounts |      13679525888
 2017-02-04 15:47:47.43867+01 | 1486219667.43867 | pgbench_tellers  |         15532032
 2017-02-04 15:47:47.43867+01 | 1486219667.43867 | pgbench_history  |        682737664
 2017-02-04 15:47:47.43867+01 | 1486219667.43867 | pgbench_branches |         12926976

 2017-02-04 15:47:48.532508+01 | 1486219668.53251 | pgbench_accounts |      13679550464
 2017-02-04 15:47:48.532508+01 | 1486219668.53251 | pgbench_tellers  |         15532032
 2017-02-04 15:47:48.532508+01 | 1486219668.53251 | pgbench_history  |        685268992
 2017-02-04 15:47:48.532508+01 | 1486219668.53251 | pgbench_branches |         12926976

 2017-02-04 15:47:49.617594+01 | 1486219669.61759 | pgbench_accounts |      13679599616
 2017-02-04 15:47:49.617594+01 | 1486219669.61759 | pgbench_tellers  |         15532032
 2017-02-04 15:47:49.617594+01 | 1486219669.61759 | pgbench_history  |        690143232
 2017-02-04 15:47:49.617594+01 | 1486219669.61759 | pgbench_branches |         12926976

 2017-02-04 15:47:50.705961+01 | 1486219670.70596 | pgbench_accounts |      13679632384
 2017-02-04 15:47:50.705961+01 | 1486219670.70596 | pgbench_tellers  |         15532032
 2017-02-04 15:47:50.705961+01 | 1486219670.70596 | pgbench_history  |        691994624
 2017-02-04 15:47:50.705961+01 | 1486219670.70596 | pgbench_branches |         12926976

 2017-02-04 15:47:51.803144+01 | 1486219671.80314 | pgbench_accounts |      13679722496
 2017-02-04 15:47:51.803144+01 | 1486219671.80314 | pgbench_tellers  |         15532032
 2017-02-04 15:47:51.803144+01 | 1486219671.80314 | pgbench_history  |        694689792
 2017-02-04 15:47:51.803144+01 | 1486219671.80314 | pgbench_branches |         12926976

 2017-02-04 15:47:52.892701+01 | 1486219672.8927 | pgbench_accounts |      13679779840
 2017-02-04 15:47:52.892701+01 | 1486219672.8927 | pgbench_tellers  |         15532032
 2017-02-04 15:47:52.892701+01 | 1486219672.8927 | pgbench_history  |        698531840
 2017-02-04 15:47:52.892701+01 | 1486219672.8927 | pgbench_branches |         12926976

 2017-02-04 15:47:53.976535+01 | 1486219673.97654 | pgbench_accounts |      13679837184
 2017-02-04 15:47:53.976535+01 | 1486219673.97654 | pgbench_tellers  |         15532032
 2017-02-04 15:47:53.976535+01 | 1486219673.97654 | pgbench_history  |        701038592
 2017-02-04 15:47:53.976535+01 | 1486219673.97654 | pgbench_branches |         12926976

 2017-02-04 15:47:55.063465+01 | 1486219675.06347 | pgbench_accounts |      13679861760
 2017-02-04 15:47:55.063465+01 | 1486219675.06347 | pgbench_tellers  |         15532032
 2017-02-04 15:47:55.063465+01 | 1486219675.06347 | pgbench_history  |        702889984
 2017-02-04 15:47:55.063465+01 | 1486219675.06347 | pgbench_branches |         12926976

 2017-02-04 15:47:56.161507+01 | 1486219676.16151 | pgbench_accounts |      13679894528
 2017-02-04 15:47:56.161507+01 | 1486219676.16151 | pgbench_tellers  |         15532032
 2017-02-04 15:47:56.161507+01 | 1486219676.16151 | pgbench_history  |        705863680
 2017-02-04 15:47:56.161507+01 | 1486219676.16151 | pgbench_branches |         12926976

 2017-02-04 15:47:57.262549+01 | 1486219677.26255 | pgbench_accounts |      13679968256
 2017-02-04 15:47:57.262549+01 | 1486219677.26255 | pgbench_tellers  |         15532032
 2017-02-04 15:47:57.262549+01 | 1486219677.26255 | pgbench_history  |        708722688
 2017-02-04 15:47:57.262549+01 | 1486219677.26255 | pgbench_branches |         12926976

 2017-02-04 15:47:58.350789+01 | 1486219678.35079 | pgbench_accounts |      13680033792
 2017-02-04 15:47:58.350789+01 | 1486219678.35079 | pgbench_tellers  |         15532032
 2017-02-04 15:47:58.350789+01 | 1486219678.35079 | pgbench_history  |        711614464
 2017-02-04 15:47:58.350789+01 | 1486219678.35079 | pgbench_branches |         12926976

 2017-02-04 15:47:59.443275+01 | 1486219679.44327 | pgbench_accounts |      13680066560
 2017-02-04 15:47:59.443275+01 | 1486219679.44327 | pgbench_tellers  |         15532032
 2017-02-04 15:47:59.443275+01 | 1486219679.44327 | pgbench_history  |        714817536
 2017-02-04 15:47:59.443275+01 | 1486219679.44327 | pgbench_branches |         12926976

 2017-02-04 15:48:00.528822+01 | 1486219680.52882 | pgbench_accounts |      13680099328
 2017-02-04 15:48:00.528822+01 | 1486219680.52882 | pgbench_tellers  |         15532032
 2017-02-04 15:48:00.528822+01 | 1486219680.52882 | pgbench_history  |        717373440
 2017-02-04 15:48:00.528822+01 | 1486219680.52882 | pgbench_branches |         12926976

 2017-02-04 15:48:01.620529+01 | 1486219681.62053 | pgbench_accounts |      13680140288
 2017-02-04 15:48:01.620529+01 | 1486219681.62053 | pgbench_tellers  |         15532032
 2017-02-04 15:48:01.620529+01 | 1486219681.62053 | pgbench_history  |        720265216
 2017-02-04 15:48:01.620529+01 | 1486219681.62053 | pgbench_branches |         12926976

 2017-02-04 15:48:02.713915+01 | 1486219682.71392 | pgbench_accounts |      13680189440
 2017-02-04 15:48:02.713915+01 | 1486219682.71392 | pgbench_tellers  |         15532032
 2017-02-04 15:48:02.713915+01 | 1486219682.71392 | pgbench_history  |        725606400
 2017-02-04 15:48:02.713915+01 | 1486219682.71392 | pgbench_branches |         12926976

 2017-02-04 15:48:03.798576+01 | 1486219683.79858 | pgbench_accounts |      13680222208
 2017-02-04 15:48:03.798576+01 | 1486219683.79858 | pgbench_tellers  |         15532032
 2017-02-04 15:48:03.798576+01 | 1486219683.79858 | pgbench_history  |        726450176
 2017-02-04 15:48:03.798576+01 | 1486219683.79858 | pgbench_branches |         12926976

 2017-02-04 15:48:04.879906+01 | 1486219684.87991 | pgbench_accounts |      13680279552
 2017-02-04 15:48:04.879906+01 | 1486219684.87991 | pgbench_tellers  |         15532032
 2017-02-04 15:48:04.879906+01 | 1486219684.87991 | pgbench_history  |        728629248
 2017-02-04 15:48:04.879906+01 | 1486219684.87991 | pgbench_branches |         12926976

 2017-02-04 15:48:05.975349+01 | 1486219685.97535 | pgbench_accounts |      13680328704
 2017-02-04 15:48:05.975349+01 | 1486219685.97535 | pgbench_tellers  |         15532032
 2017-02-04 15:48:05.975349+01 | 1486219685.97535 | pgbench_history  |        731815936
 2017-02-04 15:48:05.975349+01 | 1486219685.97535 | pgbench_branches |         12926976

 2017-02-04 15:48:07.065414+01 | 1486219687.06541 | pgbench_accounts |      13680369664
 2017-02-04 15:48:07.065414+01 | 1486219687.06541 | pgbench_tellers  |         15532032
 2017-02-04 15:48:07.065414+01 | 1486219687.06541 | pgbench_history  |        734838784
 2017-02-04 15:48:07.065414+01 | 1486219687.06541 | pgbench_branches |         12926976

 2017-02-04 15:48:08.149923+01 | 1486219688.14992 | pgbench_accounts |      13680443392
 2017-02-04 15:48:08.149923+01 | 1486219688.14992 | pgbench_tellers  |         15532032
 2017-02-04 15:48:08.149923+01 | 1486219688.14992 | pgbench_history  |        738189312
 2017-02-04 15:48:08.149923+01 | 1486219688.14992 | pgbench_branches |         12926976

 2017-02-04 15:48:09.231894+01 | 1486219689.23189 | pgbench_accounts |      13680459776
 2017-02-04 15:48:09.231894+01 | 1486219689.23189 | pgbench_tellers  |         15532032
 2017-02-04 15:48:09.231894+01 | 1486219689.23189 | pgbench_history  |        740229120
 2017-02-04 15:48:09.231894+01 | 1486219689.23189 | pgbench_branches |         12926976

 2017-02-04 15:48:10.328701+01 | 1486219690.3287 | pgbench_accounts |      13680517120
 2017-02-04 15:48:10.328701+01 | 1486219690.3287 | pgbench_tellers  |         15532032
 2017-02-04 15:48:10.328701+01 | 1486219690.3287 | pgbench_history  |        743088128
 2017-02-04 15:48:10.328701+01 | 1486219690.3287 | pgbench_branches |         12926976

 2017-02-04 15:48:11.421247+01 | 1486219691.42125 | pgbench_accounts |      13680607232
 2017-02-04 15:48:11.421247+01 | 1486219691.42125 | pgbench_tellers  |         15532032
 2017-02-04 15:48:11.421247+01 | 1486219691.42125 | pgbench_history  |        746135552
 2017-02-04 15:48:11.421247+01 | 1486219691.42125 | pgbench_branches |         12926976

 2017-02-04 15:48:12.515578+01 | 1486219692.51558 | pgbench_accounts |      13680672768
 2017-02-04 15:48:12.515578+01 | 1486219692.51558 | pgbench_tellers  |         15532032
 2017-02-04 15:48:12.515578+01 | 1486219692.51558 | pgbench_history  |        749838336
 2017-02-04 15:48:12.515578+01 | 1486219692.51558 | pgbench_branches |         12926976

 2017-02-04 15:48:13.609614+01 | 1486219693.60961 | pgbench_accounts |      13680697344
 2017-02-04 15:48:13.609614+01 | 1486219693.60961 | pgbench_tellers  |         15532032
 2017-02-04 15:48:13.609614+01 | 1486219693.60961 | pgbench_history  |        753516544
 2017-02-04 15:48:13.609614+01 | 1486219693.60961 | pgbench_branches |         12926976

 2017-02-04 15:48:14.70852+01 | 1486219694.70852 | pgbench_accounts |      13680721920
 2017-02-04 15:48:14.70852+01 | 1486219694.70852 | pgbench_tellers  |         15532032
 2017-02-04 15:48:14.70852+01 | 1486219694.70852 | pgbench_history  |        755064832
 2017-02-04 15:48:14.70852+01 | 1486219694.70852 | pgbench_branches |         12926976

 2017-02-04 15:48:15.802019+01 | 1486219695.80202 | pgbench_accounts |      13680746496
 2017-02-04 15:48:15.802019+01 | 1486219695.80202 | pgbench_tellers  |         15532032
 2017-02-04 15:48:15.802019+01 | 1486219695.80202 | pgbench_history  |        757628928
 2017-02-04 15:48:15.802019+01 | 1486219695.80202 | pgbench_branches |         12926976

 2017-02-04 15:48:16.887185+01 | 1486219696.88719 | pgbench_accounts |      13680836608
 2017-02-04 15:48:16.887185+01 | 1486219696.88719 | pgbench_tellers  |         15532032
 2017-02-04 15:48:16.887185+01 | 1486219696.88719 | pgbench_history  |        760651776
 2017-02-04 15:48:16.887185+01 | 1486219696.88719 | pgbench_branches |         12926976

 2017-02-04 15:48:17.9718+01 | 1486219697.9718 | pgbench_accounts |      13680844800
 2017-02-04 15:48:17.9718+01 | 1486219697.9718 | pgbench_tellers  |         15532032
 2017-02-04 15:48:17.9718+01 | 1486219697.9718 | pgbench_history  |        763510784
 2017-02-04 15:48:17.9718+01 | 1486219697.9718 | pgbench_branches |         12926976

 2017-02-04 15:48:19.05958+01 | 1486219699.05958 | pgbench_accounts |      13680918528
 2017-02-04 15:48:19.05958+01 | 1486219699.05958 | pgbench_tellers  |         15532032
 2017-02-04 15:48:19.05958+01 | 1486219699.05958 | pgbench_history  |        767213568
 2017-02-04 15:48:19.05958+01 | 1486219699.05958 | pgbench_branches |         12926976

 2017-02-04 15:48:20.139119+01 | 1486219700.13912 | pgbench_accounts |      13680934912
 2017-02-04 15:48:20.139119+01 | 1486219700.13912 | pgbench_tellers  |         15532032
 2017-02-04 15:48:20.139119+01 | 1486219700.13912 | pgbench_history  |        768901120
 2017-02-04 15:48:20.139119+01 | 1486219700.13912 | pgbench_branches |         12926976

