 2017-02-04 15:43:20.552337+01 | 1486219400.55234 | 26/76A6A00               |          163333171712

 2017-02-04 15:43:21.638149+01 | 1486219401.63815 | 26/12906218              |          163520209432

 2017-02-04 15:43:22.738867+01 | 1486219402.73887 | 26/2138C500              |          163766125824

 2017-02-04 15:43:23.827305+01 | 1486219403.82731 | 26/300CA9A0              |          164014893472

 2017-02-04 15:43:24.920524+01 | 1486219404.92052 | 26/3FDB9F88              |          164280115080

 2017-02-04 15:43:26.014213+01 | 1486219406.01421 | 26/4FA1F578              |          164544771448

 2017-02-04 15:43:27.106084+01 | 1486219407.10608 | 26/5E271000              |          164788375552

 2017-02-04 15:43:28.195648+01 | 1486219408.19565 | 26/6BC35278              |          165016719992

 2017-02-04 15:43:29.28555+01 | 1486219409.28555 | 26/78900000              |          165231460352

 2017-02-04 15:43:30.374825+01 | 1486219410.37483 | 26/84A66800              |          165434255360

 2017-02-04 15:43:31.463583+01 | 1486219411.46358 | 26/8EE96578              |          165606417784

 2017-02-04 15:43:32.543301+01 | 1486219412.5433 | 26/99C31650              |          165788456528

 2017-02-04 15:43:33.627431+01 | 1486219413.62743 | 26/A3D765E0              |          165957559776

 2017-02-04 15:43:34.707689+01 | 1486219414.70769 | 26/AD9DD240              |          166121558592

 2017-02-04 15:43:35.792003+01 | 1486219415.792 | 26/B681B788              |          166270711688

 2017-02-04 15:43:36.889603+01 | 1486219416.8896 | 26/BF5D1920              |          166419306784

 2017-02-04 15:43:37.980538+01 | 1486219417.98054 | 26/C7D69350              |          166561485648

 2017-02-04 15:43:39.08187+01 | 1486219419.08187 | 26/CFEBA330              |          166697083696

 2017-02-04 15:43:40.163138+01 | 1486219420.16314 | 26/D7957E78              |          166825655928

 2017-02-04 15:43:41.259501+01 | 1486219421.2595 | 26/DF1B1490              |          166951851152

 2017-02-04 15:43:42.347994+01 | 1486219422.34799 | 26/E63F2570              |          167071655280

 2017-02-04 15:43:43.449164+01 | 1486219423.44916 | 26/EC408FA0              |          167172411296

 2017-02-04 15:43:44.527884+01 | 1486219424.52788 | 26/F2EFCF90              |          167284559760

 2017-02-04 15:43:45.606568+01 | 1486219425.60657 | 26/F96AA938              |          167393274168

 2017-02-04 15:43:46.685153+01 | 1486219426.68515 | 26/FF2FD148              |          167490081096

 2017-02-04 15:43:47.770017+01 | 1486219427.77002 | 27/4D1C778               |          167584581496

 2017-02-04 15:43:48.849702+01 | 1486219428.8497 | 27/A3E9E28               |          167675600424

 2017-02-04 15:43:49.94147+01 | 1486219429.94147 | 27/10117B60              |          167773305696

 2017-02-04 15:43:51.029495+01 | 1486219431.0295 | 27/15AC5160              |          167867339104

 2017-02-04 15:43:52.118556+01 | 1486219432.11856 | 27/1B0312E8              |          167956910824

 2017-02-04 15:43:53.216693+01 | 1486219433.21669 | 27/20510E48              |          168045907528

 2017-02-04 15:43:54.309761+01 | 1486219434.30976 | 27/2507E578              |          168124999032

 2017-02-04 15:43:55.401403+01 | 1486219435.4014 | 27/2A04CFA8              |          168208682920

 2017-02-04 15:43:56.493343+01 | 1486219436.49334 | 27/2F010E38              |          168292322872

 2017-02-04 15:43:57.572388+01 | 1486219437.57239 | 27/33CE3CF0              |          168372878576

 2017-02-04 15:43:58.650926+01 | 1486219438.65093 | 27/38AC7350              |          168454550352

 2017-02-04 15:43:59.732205+01 | 1486219439.7322 | 27/3D647338              |          168533717816

 2017-02-04 15:44:00.815201+01 | 1486219440.8152 | 27/420BB4E0              |          168611788000

 2017-02-04 15:44:01.901675+01 | 1486219441.90167 | 27/464DCE98              |          168683228824

 2017-02-04 15:44:02.988965+01 | 1486219442.98897 | 27/4AB64C68              |          168757185640

 2017-02-04 15:44:04.096931+01 | 1486219444.09693 | 27/4F185910              |          168830720272

 2017-02-04 15:44:05.192856+01 | 1486219445.19286 | 27/52D18668              |          168893187688

 2017-02-04 15:44:06.288694+01 | 1486219446.28869 | 27/57382510              |          168967021840

 2017-02-04 15:44:07.375693+01 | 1486219447.37569 | 27/5B641448              |          169037009992

 2017-02-04 15:44:08.472583+01 | 1486219448.47258 | 27/5F9B7EB0              |          169107750576

 2017-02-04 15:44:09.556014+01 | 1486219449.55601 | 27/6354A068              |          169170215016

 2017-02-04 15:44:10.63623+01 | 1486219450.63623 | 27/66ED64A0              |          169230558368

 2017-02-04 15:44:11.724437+01 | 1486219451.72444 | 27/6A82B000              |          169290674176

 2017-02-04 15:44:12.813629+01 | 1486219452.81363 | 27/6E1D5030              |          169351139376

 2017-02-04 15:44:13.897652+01 | 1486219453.89765 | 27/719696A8              |          169409418920

 2017-02-04 15:44:14.989613+01 | 1486219454.98961 | 27/752AB2F8              |          169469457144

 2017-02-04 15:44:16.077586+01 | 1486219456.07759 | 27/78E095C8              |          169531708872

 2017-02-04 15:44:17.169258+01 | 1486219457.16926 | 27/7C370520              |          169587705120

 2017-02-04 15:44:18.261241+01 | 1486219458.26124 | 27/7FF49FB8              |          169650462648

 2017-02-04 15:44:19.359326+01 | 1486219459.35933 | 27/83728B80              |          169709046656

 2017-02-04 15:44:20.453208+01 | 1486219460.45321 | 27/8730F4F0              |          169771857136

 2017-02-04 15:44:21.53387+01 | 1486219461.53387 | 27/8AB87580              |          169831069056

 2017-02-04 15:44:22.609697+01 | 1486219462.6097 | 27/8E3E5500              |          169890174208

 2017-02-04 15:44:23.69546+01 | 1486219463.69546 | 27/91B75EE0              |          169948438240

 2017-02-04 15:44:24.779499+01 | 1486219464.7795 | 27/95333DB0              |          170006887856

 2017-02-04 15:44:25.863423+01 | 1486219465.86342 | 27/98B5FCD8              |          170065788120

 2017-02-04 15:44:26.960968+01 | 1486219466.96097 | 27/9C1A49D8              |          170122693080

 2017-02-04 15:44:28.060658+01 | 1486219468.06066 | 27/9F936AC0              |          170180963008

 2017-02-04 15:44:29.148104+01 | 1486219469.1481 | 27/A29D6810              |          170231949328

 2017-02-04 15:44:30.243672+01 | 1486219470.24367 | 27/A5F8BB40              |          170288266048

 2017-02-04 15:44:31.339558+01 | 1486219471.33956 | 27/A9332F68              |          170342428520

 2017-02-04 15:44:32.43231+01 | 1486219472.43231 | 27/AC844D98              |          170398076312

 2017-02-04 15:44:33.520385+01 | 1486219473.52039 | 27/AFAFAA70              |          170451249776

 2017-02-04 15:44:34.605106+01 | 1486219474.60511 | 27/B2ECCFD0              |          170505588688

 2017-02-04 15:44:35.691114+01 | 1486219475.69111 | 27/B6147740              |          170558519104

 2017-02-04 15:44:36.774127+01 | 1486219476.77413 | 27/B94EB6D8              |          170612668120

 2017-02-04 15:44:37.862217+01 | 1486219477.86222 | 27/BC6CDFC8              |          170664976328

 2017-02-04 15:44:38.952803+01 | 1486219478.9528 | 27/BF7FF9A0              |          170716559776

 2017-02-04 15:44:40.034136+01 | 1486219480.03414 | 27/C2E1C4A8              |          170773300392

 2017-02-04 15:44:41.130227+01 | 1486219481.13023 | 27/C6CFB8E8              |          170839226600

 2017-02-04 15:44:42.21924+01 | 1486219482.21924 | 27/C9B91FE8              |          170888077288

 2017-02-04 15:44:43.302751+01 | 1486219483.30275 | 27/CC7F3D80              |          170934615424

 2017-02-04 15:44:44.401761+01 | 1486219484.40176 | 27/CF87B9C0              |          170985503168

 2017-02-04 15:44:45.493092+01 | 1486219485.49309 | 27/D28D5948              |          171036203336

 2017-02-04 15:44:46.573511+01 | 1486219486.57351 | 27/D589CBE8              |          171086302184

 2017-02-04 15:44:47.654246+01 | 1486219487.65425 | 27/D869EA08              |          171134544392

 2017-02-04 15:44:48.738899+01 | 1486219488.7389 | 27/DB6A1D90              |          171184889232

 2017-02-04 15:44:49.821344+01 | 1486219489.82134 | 27/DE425660              |          171232613984

 2017-02-04 15:44:50.905152+01 | 1486219490.90515 | 27/E11B8DE0              |          171280403936

 2017-02-04 15:44:51.992126+01 | 1486219491.99213 | 27/E3D9B940              |          171326421312

 2017-02-04 15:44:53.080648+01 | 1486219493.08065 | 27/E6A6B0E8              |          171373408488

 2017-02-04 15:44:54.170999+01 | 1486219494.171 | 27/E97AEB90              |          171420871568

 2017-02-04 15:44:55.269568+01 | 1486219495.26957 | 27/EC422948              |          171467483464

 2017-02-04 15:44:56.342554+01 | 1486219496.34255 | 27/EECF8C70              |          171510303856

 2017-02-04 15:44:57.434472+01 | 1486219497.43447 | 27/F191D5E8              |          171556591080

 2017-02-04 15:44:58.530632+01 | 1486219498.53063 | 27/F45EF2D0              |          171603587792

 2017-02-04 15:44:59.610234+01 | 1486219499.61023 | 27/F72479A8              |          171650087336

 2017-02-04 15:45:00.695957+01 | 1486219500.69596 | 27/F9DAF6A8              |          171695601320

 2017-02-04 15:45:01.782428+01 | 1486219501.78243 | 27/FC8FD3A8              |          171741008808

 2017-02-04 15:45:02.868198+01 | 1486219502.8682 | 27/FF484608              |          171786651144

 2017-02-04 15:45:03.95747+01 | 1486219503.95747 | 28/1EEFC38               |          171831131192

 2017-02-04 15:45:05.048966+01 | 1486219505.04897 | 28/49936F8               |          171875841784

 2017-02-04 15:45:06.138825+01 | 1486219506.13882 | 28/73354C0               |          171919496384

 2017-02-04 15:45:07.232547+01 | 1486219507.23255 | 28/9C921F8               |          171962868216

 2017-02-04 15:45:08.322637+01 | 1486219508.32264 | 28/C608638               |          172006344248

 2017-02-04 15:45:09.416898+01 | 1486219509.4169 | 28/F08F350               |          172050936656

 2017-02-04 15:45:10.516748+01 | 1486219510.51675 | 28/11699440              |          172090823744

 2017-02-04 15:45:11.597313+01 | 1486219511.59731 | 28/13EEED40              |          172133117248

 2017-02-04 15:45:12.679981+01 | 1486219512.67998 | 28/167E4080              |          172176064640

 2017-02-04 15:45:13.76078+01 | 1486219513.76078 | 28/1900F2C0              |          172218184384

 2017-02-04 15:45:14.84789+01 | 1486219514.84789 | 28/1B6BEE98              |          172258750104

 2017-02-04 15:45:15.929287+01 | 1486219515.92929 | 28/1DF7BEA8              |          172301467304

 2017-02-04 15:45:17.017683+01 | 1486219517.01768 | 28/2076DAF8              |          172343352056

 2017-02-04 15:45:18.106061+01 | 1486219518.10606 | 28/23051560              |          172386227552

 2017-02-04 15:45:19.193937+01 | 1486219519.19394 | 28/2594AE08              |          172429192712

 2017-02-04 15:45:20.28671+01 | 1486219520.28671 | 28/281CD9D8              |          172471671256

 2017-02-04 15:45:21.378355+01 | 1486219521.37836 | 28/2AB89218              |          172515430936

 2017-02-04 15:45:22.467395+01 | 1486219522.4674 | 28/2D3CA2F0              |          172557640432

 2017-02-04 15:45:23.557015+01 | 1486219523.55701 | 28/2FD8BB88              |          172601424776

 2017-02-04 15:45:24.641623+01 | 1486219524.64162 | 28/325467B8              |          172643084216

 2017-02-04 15:45:25.730491+01 | 1486219525.73049 | 28/349F6998              |          172681554328

 2017-02-04 15:45:26.812726+01 | 1486219526.81273 | 28/371F6CD0              |          172723498192

 2017-02-04 15:45:27.903029+01 | 1486219527.90303 | 28/398E5E10              |          172764323344

 2017-02-04 15:45:28.992814+01 | 1486219528.99281 | 28/3C03D7F8              |          172805576696

 2017-02-04 15:45:30.086684+01 | 1486219530.08668 | 28/3E8BB828              |          172848035880

 2017-02-04 15:45:31.179273+01 | 1486219531.17927 | 28/40EEDE10              |          172888088080

 2017-02-04 15:45:32.269979+01 | 1486219532.26998 | 28/435626E0              |          172928411360

 2017-02-04 15:45:33.362651+01 | 1486219533.36265 | 28/45C3BFD8              |          172969148376

 2017-02-04 15:45:34.453161+01 | 1486219534.45316 | 28/48379290              |          173010293392

 2017-02-04 15:45:35.542665+01 | 1486219535.54267 | 28/4AB94270              |          173052346992

 2017-02-04 15:45:36.623555+01 | 1486219536.62355 | 28/4D2BE8C0              |          173093415104

 2017-02-04 15:45:37.709114+01 | 1486219537.70911 | 28/4F957598              |          173133886872

 2017-02-04 15:45:38.802552+01 | 1486219538.80255 | 28/51FC25B8              |          173174171064

 2017-02-04 15:45:39.884148+01 | 1486219539.88415 | 28/54835440              |          173216584768

 2017-02-04 15:45:40.972891+01 | 1486219540.97289 | 28/576EFC30              |          173265583152

 2017-02-04 15:45:42.067971+01 | 1486219542.06797 | 28/59F0F3B0              |          173307655088

 2017-02-04 15:45:43.170419+01 | 1486219543.17042 | 28/5BF9E960              |          173341796704

 2017-02-04 15:45:44.266162+01 | 1486219544.26616 | 28/5E17A200              |          173377298944

 2017-02-04 15:45:45.354911+01 | 1486219545.35491 | 28/6041EC58              |          173413624920

 2017-02-04 15:45:46.446475+01 | 1486219546.44648 | 28/62508E08              |          173448138248

 2017-02-04 15:45:47.541732+01 | 1486219547.54173 | 28/64747398              |          173484045208

 2017-02-04 15:45:48.625744+01 | 1486219548.62574 | 28/664FAE68              |          173515189864

 2017-02-04 15:45:49.705947+01 | 1486219549.70595 | 28/685D3348              |          173549630280

 2017-02-04 15:45:50.787994+01 | 1486219550.78799 | 28/6A5CDEF8              |          173583163128

 2017-02-04 15:45:51.876637+01 | 1486219551.87664 | 28/6C5A1B40              |          173616536384

 2017-02-04 15:45:52.961019+01 | 1486219552.96102 | 28/6E942038              |          173653893176

 2017-02-04 15:45:54.054714+01 | 1486219554.05471 | 28/70E06750              |          173692446544

 2017-02-04 15:45:55.14214+01 | 1486219555.14214 | 28/73306F58              |          173731245912

 2017-02-04 15:45:56.238469+01 | 1486219556.23847 | 28/758F0858              |          173770999896

 2017-02-04 15:45:57.327037+01 | 1486219557.32704 | 28/77F634C0              |          173811315904

 2017-02-04 15:45:58.420731+01 | 1486219558.42073 | 28/7A475268              |          173850186344

 2017-02-04 15:45:59.507992+01 | 1486219559.50799 | 28/7C9869A0              |          173889055136

 2017-02-04 15:46:00.597723+01 | 1486219560.59772 | 28/7EEF7908              |          173928315144

 2017-02-04 15:46:01.682676+01 | 1486219561.68268 | 28/811CB3F8              |          173964833784

 2017-02-04 15:46:02.767022+01 | 1486219562.76702 | 28/831F43B8              |          173998556088

 2017-02-04 15:46:03.855628+01 | 1486219563.85563 | 28/857E7D80              |          174038351232

 2017-02-04 15:46:04.949224+01 | 1486219564.94922 | 28/87C358C8              |          174076418248

 2017-02-04 15:46:06.044163+01 | 1486219566.04416 | 28/8A28ADF8              |          174116613624

 2017-02-04 15:46:07.13232+01 | 1486219567.13232 | 28/8C5CD9E0              |          174153587168

 2017-02-04 15:46:08.220616+01 | 1486219568.22062 | 28/8EA5C4C8              |          174191920328

 2017-02-04 15:46:09.313938+01 | 1486219569.31394 | 28/90EFB7A8              |          174230321064

 2017-02-04 15:46:10.409126+01 | 1486219570.40913 | 28/933E01A0              |          174269006240

 2017-02-04 15:46:11.50094+01 | 1486219571.50094 | 28/9589D470              |          174307529840

 2017-02-04 15:46:12.591639+01 | 1486219572.59164 | 28/97F04AA8              |          174347799208

 2017-02-04 15:46:13.675078+01 | 1486219573.67508 | 28/9A41EA20              |          174386702880

 2017-02-04 15:46:14.76089+01 | 1486219574.76089 | 28/9C767500              |          174423700736

 2017-02-04 15:46:15.850254+01 | 1486219575.85025 | 28/9ED2A470              |          174463296624

 2017-02-04 15:46:16.935727+01 | 1486219576.93573 | 28/A12605E8              |          174502315496

 2017-02-04 15:46:18.024382+01 | 1486219578.02438 | 28/A3730E60              |          174540918368

 2017-02-04 15:46:19.114834+01 | 1486219579.11483 | 28/A5AD1E88              |          174578278024

 2017-02-04 15:46:20.207086+01 | 1486219580.20709 | 28/A7FD9CD0              |          174617107664

 2017-02-04 15:46:21.296696+01 | 1486219581.2967 | 28/AA574878              |          174656538744

 2017-02-04 15:46:22.390137+01 | 1486219582.39014 | 28/ACBC8C58              |          174696729688

 2017-02-04 15:46:23.483663+01 | 1486219583.48366 | 28/AF0DBF28              |          174735605544

 2017-02-04 15:46:24.573211+01 | 1486219584.57321 | 28/B17FED98              |          174776642968

 2017-02-04 15:46:25.659872+01 | 1486219585.65987 | 28/B3E5DBC8              |          174816877512

 2017-02-04 15:46:26.744432+01 | 1486219586.74443 | 28/B6474928              |          174856816936

 2017-02-04 15:46:27.828379+01 | 1486219587.82838 | 28/B8AE0A98              |          174897105560

 2017-02-04 15:46:28.914616+01 | 1486219588.91462 | 28/BAD59768              |          174933251944

 2017-02-04 15:46:29.998753+01 | 1486219589.99875 | 28/BD48C768              |          174974355304

 2017-02-04 15:46:31.08432+01 | 1486219591.08432 | 28/BFAD0288              |          175014478472

 2017-02-04 15:46:32.182077+01 | 1486219592.18208 | 28/C20C9C20              |          175054298144

 2017-02-04 15:46:33.265777+01 | 1486219593.26578 | 28/C465FCC8              |          175093710024

 2017-02-04 15:46:34.362081+01 | 1486219594.36208 | 28/C6A69440              |          175131497536

 2017-02-04 15:46:35.456534+01 | 1486219595.45653 | 28/C8F47168              |          175170154856

 2017-02-04 15:46:36.554561+01 | 1486219596.55456 | 28/CB45FBF8              |          175209053176

 2017-02-04 15:46:37.648924+01 | 1486219597.64892 | 28/CDB279C8              |          175249717704

 2017-02-04 15:46:38.730505+01 | 1486219598.7305 | 28/D013A838              |          175289641016

 2017-02-04 15:46:39.802525+01 | 1486219599.80253 | 28/D21EBCF8              |          175323921656

 2017-02-04 15:46:40.894543+01 | 1486219600.89454 | 28/D4D5B308              |          175369466632

 2017-02-04 15:46:41.978153+01 | 1486219601.97815 | 28/D74E9788              |          175410943880

 2017-02-04 15:46:43.07069+01 | 1486219603.07069 | 28/D9BF3C80              |          175451880576

 2017-02-04 15:46:44.166515+01 | 1486219604.16652 | 28/DC32DA68              |          175493012072

 2017-02-04 15:46:45.260455+01 | 1486219605.26045 | 28/DE895898              |          175532234904

 2017-02-04 15:46:46.347726+01 | 1486219606.34773 | 28/E0F98D18              |          175573142808

 2017-02-04 15:46:47.438399+01 | 1486219607.4384 | 28/E36FEB20              |          175614454560

 2017-02-04 15:46:48.525729+01 | 1486219608.52573 | 28/E58197C0              |          175649167296

 2017-02-04 15:46:49.609974+01 | 1486219609.60997 | 28/E7BA9ED0              |          175686459088

 2017-02-04 15:46:50.693524+01 | 1486219610.69352 | 28/E9ED1EA8              |          175723323048

 2017-02-04 15:46:51.776103+01 | 1486219611.7761 | 28/EC13D160              |          175759413600

 2017-02-04 15:46:52.860333+01 | 1486219612.86033 | 28/EE422410              |          175796003856

 2017-02-04 15:46:53.944664+01 | 1486219613.94466 | 28/F0384F40              |          175828913984

 2017-02-04 15:46:55.029937+01 | 1486219615.02994 | 28/F29AEEA0              |          175868931744

 2017-02-04 15:46:56.124624+01 | 1486219616.12462 | 28/F500C2C8              |          175909159624

 2017-02-04 15:46:57.218656+01 | 1486219617.21866 | 28/F78696B8              |          175951484600

 2017-02-04 15:46:58.312487+01 | 1486219618.31249 | 28/FA0E8CB8              |          175993949368

 2017-02-04 15:46:59.403093+01 | 1486219619.40309 | 28/FC2A24E8              |          176029312232

 2017-02-04 15:47:00.49335+01 | 1486219620.49335 | 28/FE34BF98              |          176063561624

 2017-02-04 15:47:01.594725+01 | 1486219621.59472 | 29/EA4B58                |          176109013848

 2017-02-04 15:47:02.689482+01 | 1486219622.68948 | 29/3ADFE50               |          176155393616

 2017-02-04 15:47:03.779699+01 | 1486219623.7797 | 29/6A6CBF8               |          176205253624

 2017-02-04 15:47:04.857997+01 | 1486219624.858 | 29/98AD768               |          176253753192

 2017-02-04 15:47:05.944665+01 | 1486219625.94466 | 29/C5C0588               |          176301016456

 2017-02-04 15:47:07.033442+01 | 1486219627.03344 | 29/F31D8D8               |          176348584152

 2017-02-04 15:47:08.127714+01 | 1486219628.12771 | 29/12007320              |          176395678496

 2017-02-04 15:47:09.218397+01 | 1486219629.2184 | 29/14EA9BE8              |          176444578792

 2017-02-04 15:47:10.313529+01 | 1486219630.31353 | 29/17C33418              |          176492327960

 2017-02-04 15:47:11.405395+01 | 1486219631.4054 | 29/1A936B88              |          176539528072

 2017-02-04 15:47:12.496256+01 | 1486219632.49626 | 29/1D5BD6C0              |          176586217152

 2017-02-04 15:47:13.597782+01 | 1486219633.59778 | 29/20433690              |          176634934928

 2017-02-04 15:47:14.696417+01 | 1486219634.69642 | 29/2322AED0              |          176683134672

 2017-02-04 15:47:15.783738+01 | 1486219635.78374 | 29/25B54108              |          176726294792

 2017-02-04 15:47:16.876644+01 | 1486219636.87664 | 29/284A6B70              |          176769624944

 2017-02-04 15:47:17.962745+01 | 1486219637.96274 | 29/2AEA37C8              |          176813651912

 2017-02-04 15:47:19.049093+01 | 1486219639.04909 | 29/2D9544D0              |          176858416336

 2017-02-04 15:47:20.136769+01 | 1486219640.13677 | 29/305D5418              |          176905081880

 2017-02-04 15:47:21.221833+01 | 1486219641.22183 | 29/3313B3B8              |          176950588344

 2017-02-04 15:47:22.320553+01 | 1486219642.32055 | 29/35D10D18              |          176996554440

 2017-02-04 15:47:23.416775+01 | 1486219643.41677 | 29/389CD5F8              |          177043461624

 2017-02-04 15:47:24.512727+01 | 1486219644.51273 | 29/3B59D700              |          177089402624

 2017-02-04 15:47:25.606935+01 | 1486219645.60694 | 29/3E07CF88              |          177134358408

 2017-02-04 15:47:26.69716+01 | 1486219646.69716 | 29/40D2F1E0              |          177181225440

 2017-02-04 15:47:27.786965+01 | 1486219647.78696 | 29/43940D60              |          177227435360

 2017-02-04 15:47:28.87489+01 | 1486219648.87489 | 29/46475728              |          177272739624

 2017-02-04 15:47:29.957034+01 | 1486219649.95703 | 29/48B44458              |          177313432664

 2017-02-04 15:47:31.042219+01 | 1486219651.04222 | 29/4B543E28              |          177357471272

 2017-02-04 15:47:32.133644+01 | 1486219652.13364 | 29/4E0BC3E8              |          177403053032

 2017-02-04 15:47:33.22187+01 | 1486219653.22187 | 29/50950E78              |          177445604984

 2017-02-04 15:47:34.31022+01 | 1486219654.31022 | 29/5336B798              |          177489754008

 2017-02-04 15:47:35.400721+01 | 1486219655.40072 | 29/55BE44F0              |          177532191984

 2017-02-04 15:47:36.498711+01 | 1486219656.49871 | 29/584E70C0              |          177575194816

 2017-02-04 15:47:37.588321+01 | 1486219657.58832 | 29/5AD914C8              |          177617835208

 2017-02-04 15:47:38.67905+01 | 1486219658.67905 | 29/5D4C8530              |          177658955056

 2017-02-04 15:47:39.762817+01 | 1486219659.76282 | 29/5F7992C8              |          177695462088

 2017-02-04 15:47:40.847824+01 | 1486219660.84782 | 29/61673150              |          177727811920

 2017-02-04 15:47:41.930583+01 | 1486219661.93058 | 29/63B23658              |          177766282840

 2017-02-04 15:47:43.013424+01 | 1486219663.01342 | 29/660EE380              |          177805910912

 2017-02-04 15:47:44.105321+01 | 1486219664.10532 | 29/686BE750              |          177845561168

 2017-02-04 15:47:45.201143+01 | 1486219665.20114 | 29/6ACF8EB0              |          177885646512

 2017-02-04 15:47:46.28626+01 | 1486219666.28626 | 29/6D36ACD0              |          177925958864

 2017-02-04 15:47:47.375985+01 | 1486219667.37598 | 29/6F768670              |          177963697776

 2017-02-04 15:47:48.474702+01 | 1486219668.4747 | 29/717F02E8              |          177997808360

 2017-02-04 15:47:49.564181+01 | 1486219669.56418 | 29/73CACBF8              |          178036329464

 2017-02-04 15:47:50.651957+01 | 1486219670.65196 | 29/761E3E78              |          178075352696

 2017-02-04 15:47:51.747315+01 | 1486219671.74731 | 29/785D0FC8              |          178113023944

 2017-02-04 15:47:52.839867+01 | 1486219672.83987 | 29/7AA366D0              |          178151188176

 2017-02-04 15:47:53.9277+01 | 1486219673.9277 | 29/7CDDBCE0              |          178188565728

 2017-02-04 15:47:55.008681+01 | 1486219675.00868 | 29/7EE68C58              |          178222697560

 2017-02-04 15:47:56.104096+01 | 1486219676.1041 | 29/80F43AC8              |          178257148616

 2017-02-04 15:47:57.20236+01 | 1486219677.20236 | 29/832A3D60              |          178294242656

 2017-02-04 15:47:58.297202+01 | 1486219678.2972 | 29/853E5B98              |          178329115544

 2017-02-04 15:47:59.390921+01 | 1486219679.39092 | 29/87637F70              |          178365103984

 2017-02-04 15:48:00.475439+01 | 1486219680.47544 | 29/8942D458              |          178396517464

 2017-02-04 15:48:01.566595+01 | 1486219681.5666 | 29/8B5A8958              |          178431625560

 2017-02-04 15:48:02.662733+01 | 1486219682.66273 | 29/8D63B778              |          178465781624

 2017-02-04 15:48:03.751364+01 | 1486219683.75136 | 29/8F6C62D0              |          178499904208

 2017-02-04 15:48:04.831298+01 | 1486219684.8313 | 29/91326C28              |          178529659944

 2017-02-04 15:48:05.922916+01 | 1486219685.92292 | 29/93395940              |          178563668288

 2017-02-04 15:48:07.011583+01 | 1486219687.01158 | 29/952E8CF8              |          178596515064

 2017-02-04 15:48:08.101648+01 | 1486219688.10165 | 29/9726F178              |          178629570936

 2017-02-04 15:48:09.181967+01 | 1486219689.18197 | 29/99089B30              |          178661137200

 2017-02-04 15:48:10.275069+01 | 1486219690.27507 | 29/9AE66308              |          178692449032

 2017-02-04 15:48:11.361127+01 | 1486219691.36113 | 29/9CC790F0              |          178723983600

 2017-02-04 15:48:12.460525+01 | 1486219692.46053 | 29/9EAE9100              |          178755899648

 2017-02-04 15:48:13.553005+01 | 1486219693.553 | 29/A0997B98              |          178788072344

 2017-02-04 15:48:14.655984+01 | 1486219694.65598 | 29/A26DDD60              |          178818768224

 2017-02-04 15:48:15.746128+01 | 1486219695.74613 | 29/A4107E28              |          178846203432

 2017-02-04 15:48:16.833923+01 | 1486219696.83392 | 29/A5E47E70              |          178876874352

 2017-02-04 15:48:17.921662+01 | 1486219697.92166 | 29/A79CD990              |          178905733520

 2017-02-04 15:48:19.007657+01 | 1486219699.00766 | 29/A942E820              |          178933393440

 2017-02-04 15:48:20.093759+01 | 1486219700.09376 | 29/AAF46590              |          178961802640

