 2017-02-06 04:57:18.106105+01 | 1486353438.10611 | pgbench_branches_pkey |            16384
 2017-02-06 04:57:18.106105+01 | 1486353438.10611 | pgbench_tellers_pkey  |            40960
 2017-02-06 04:57:18.106105+01 | 1486353438.10611 | pgbench_accounts_pkey |        224641024

 2017-02-06 04:57:19.18976+01 | 1486353439.18976 | pgbench_branches_pkey |            16384
 2017-02-06 04:57:19.18976+01 | 1486353439.18976 | pgbench_tellers_pkey  |            40960
 2017-02-06 04:57:19.18976+01 | 1486353439.18976 | pgbench_accounts_pkey |        224641024

 2017-02-06 04:57:20.273593+01 | 1486353440.27359 | pgbench_branches_pkey |            16384
 2017-02-06 04:57:20.273593+01 | 1486353440.27359 | pgbench_tellers_pkey  |            40960
 2017-02-06 04:57:20.273593+01 | 1486353440.27359 | pgbench_accounts_pkey |        224641024

 2017-02-06 04:57:21.359334+01 | 1486353441.35933 | pgbench_branches_pkey |            16384
 2017-02-06 04:57:21.359334+01 | 1486353441.35933 | pgbench_tellers_pkey  |            40960
 2017-02-06 04:57:21.359334+01 | 1486353441.35933 | pgbench_accounts_pkey |        224641024

 2017-02-06 04:57:22.443737+01 | 1486353442.44374 | pgbench_branches_pkey |            16384
 2017-02-06 04:57:22.443737+01 | 1486353442.44374 | pgbench_tellers_pkey  |            40960
 2017-02-06 04:57:22.443737+01 | 1486353442.44374 | pgbench_accounts_pkey |        224641024

 2017-02-06 04:57:23.508516+01 | 1486353443.50852 | pgbench_branches_pkey |            16384
 2017-02-06 04:57:23.508516+01 | 1486353443.50852 | pgbench_tellers_pkey  |            40960
 2017-02-06 04:57:23.508516+01 | 1486353443.50852 | pgbench_accounts_pkey |        224641024

 2017-02-06 04:57:24.580776+01 | 1486353444.58078 | pgbench_branches_pkey |            16384
 2017-02-06 04:57:24.580776+01 | 1486353444.58078 | pgbench_tellers_pkey  |            40960
 2017-02-06 04:57:24.580776+01 | 1486353444.58078 | pgbench_accounts_pkey |        224641024

 2017-02-06 04:57:25.668457+01 | 1486353445.66846 | pgbench_branches_pkey |            16384
 2017-02-06 04:57:25.668457+01 | 1486353445.66846 | pgbench_tellers_pkey  |            40960
 2017-02-06 04:57:25.668457+01 | 1486353445.66846 | pgbench_accounts_pkey |        224641024

 2017-02-06 04:57:26.752793+01 | 1486353446.75279 | pgbench_branches_pkey |            16384
 2017-02-06 04:57:26.752793+01 | 1486353446.75279 | pgbench_tellers_pkey  |            40960
 2017-02-06 04:57:26.752793+01 | 1486353446.75279 | pgbench_accounts_pkey |        224641024

 2017-02-06 04:57:27.829506+01 | 1486353447.82951 | pgbench_branches_pkey |            16384
 2017-02-06 04:57:27.829506+01 | 1486353447.82951 | pgbench_tellers_pkey  |            40960
 2017-02-06 04:57:27.829506+01 | 1486353447.82951 | pgbench_accounts_pkey |        224641024

 2017-02-06 04:57:28.914215+01 | 1486353448.91422 | pgbench_branches_pkey |            16384
 2017-02-06 04:57:28.914215+01 | 1486353448.91422 | pgbench_tellers_pkey  |            40960
 2017-02-06 04:57:28.914215+01 | 1486353448.91422 | pgbench_accounts_pkey |        224641024

 2017-02-06 04:57:29.996273+01 | 1486353449.99627 | pgbench_branches_pkey |            16384
 2017-02-06 04:57:29.996273+01 | 1486353449.99627 | pgbench_tellers_pkey  |            40960
 2017-02-06 04:57:29.996273+01 | 1486353449.99627 | pgbench_accounts_pkey |        224641024

 2017-02-06 04:57:31.070553+01 | 1486353451.07055 | pgbench_branches_pkey |            16384
 2017-02-06 04:57:31.070553+01 | 1486353451.07055 | pgbench_tellers_pkey  |            40960
 2017-02-06 04:57:31.070553+01 | 1486353451.07055 | pgbench_accounts_pkey |        224641024

 2017-02-06 04:57:32.14759+01 | 1486353452.14759 | pgbench_branches_pkey |            16384
 2017-02-06 04:57:32.14759+01 | 1486353452.14759 | pgbench_tellers_pkey  |            40960
 2017-02-06 04:57:32.14759+01 | 1486353452.14759 | pgbench_accounts_pkey |        224641024

 2017-02-06 04:57:33.229586+01 | 1486353453.22959 | pgbench_branches_pkey |            16384
 2017-02-06 04:57:33.229586+01 | 1486353453.22959 | pgbench_tellers_pkey  |            40960
 2017-02-06 04:57:33.229586+01 | 1486353453.22959 | pgbench_accounts_pkey |        224641024

 2017-02-06 04:57:34.307194+01 | 1486353454.30719 | pgbench_branches_pkey |            16384
 2017-02-06 04:57:34.307194+01 | 1486353454.30719 | pgbench_tellers_pkey  |            40960
 2017-02-06 04:57:34.307194+01 | 1486353454.30719 | pgbench_accounts_pkey |        224641024

 2017-02-06 04:57:35.380367+01 | 1486353455.38037 | pgbench_branches_pkey |            16384
 2017-02-06 04:57:35.380367+01 | 1486353455.38037 | pgbench_tellers_pkey  |            40960
 2017-02-06 04:57:35.380367+01 | 1486353455.38037 | pgbench_accounts_pkey |        224641024

 2017-02-06 04:57:36.462521+01 | 1486353456.46252 | pgbench_branches_pkey |            16384
 2017-02-06 04:57:36.462521+01 | 1486353456.46252 | pgbench_tellers_pkey  |            40960
 2017-02-06 04:57:36.462521+01 | 1486353456.46252 | pgbench_accounts_pkey |        224641024

 2017-02-06 04:57:37.538477+01 | 1486353457.53848 | pgbench_branches_pkey |            16384
 2017-02-06 04:57:37.538477+01 | 1486353457.53848 | pgbench_tellers_pkey  |            40960
 2017-02-06 04:57:37.538477+01 | 1486353457.53848 | pgbench_accounts_pkey |        224641024

 2017-02-06 04:57:38.607969+01 | 1486353458.60797 | pgbench_branches_pkey |            16384
 2017-02-06 04:57:38.607969+01 | 1486353458.60797 | pgbench_tellers_pkey  |            40960
 2017-02-06 04:57:38.607969+01 | 1486353458.60797 | pgbench_accounts_pkey |        224641024

 2017-02-06 04:57:39.686571+01 | 1486353459.68657 | pgbench_branches_pkey |            16384
 2017-02-06 04:57:39.686571+01 | 1486353459.68657 | pgbench_tellers_pkey  |            40960
 2017-02-06 04:57:39.686571+01 | 1486353459.68657 | pgbench_accounts_pkey |        224641024

 2017-02-06 04:57:40.767238+01 | 1486353460.76724 | pgbench_branches_pkey |            16384
 2017-02-06 04:57:40.767238+01 | 1486353460.76724 | pgbench_tellers_pkey  |            40960
 2017-02-06 04:57:40.767238+01 | 1486353460.76724 | pgbench_accounts_pkey |        224641024

 2017-02-06 04:57:41.83968+01 | 1486353461.83968 | pgbench_branches_pkey |            16384
 2017-02-06 04:57:41.83968+01 | 1486353461.83968 | pgbench_tellers_pkey  |            40960
 2017-02-06 04:57:41.83968+01 | 1486353461.83968 | pgbench_accounts_pkey |        224641024

 2017-02-06 04:57:42.920623+01 | 1486353462.92062 | pgbench_branches_pkey |            16384
 2017-02-06 04:57:42.920623+01 | 1486353462.92062 | pgbench_tellers_pkey  |            40960
 2017-02-06 04:57:42.920623+01 | 1486353462.92062 | pgbench_accounts_pkey |        224641024

 2017-02-06 04:57:43.994009+01 | 1486353463.99401 | pgbench_branches_pkey |            16384
 2017-02-06 04:57:43.994009+01 | 1486353463.99401 | pgbench_tellers_pkey  |            40960
 2017-02-06 04:57:43.994009+01 | 1486353463.99401 | pgbench_accounts_pkey |        224641024

 2017-02-06 04:57:45.075834+01 | 1486353465.07583 | pgbench_branches_pkey |            16384
 2017-02-06 04:57:45.075834+01 | 1486353465.07583 | pgbench_tellers_pkey  |            40960
 2017-02-06 04:57:45.075834+01 | 1486353465.07583 | pgbench_accounts_pkey |        224641024

 2017-02-06 04:57:46.16218+01 | 1486353466.16218 | pgbench_branches_pkey |            16384
 2017-02-06 04:57:46.16218+01 | 1486353466.16218 | pgbench_tellers_pkey  |            40960
 2017-02-06 04:57:46.16218+01 | 1486353466.16218 | pgbench_accounts_pkey |        224641024

 2017-02-06 04:57:47.251326+01 | 1486353467.25133 | pgbench_branches_pkey |            16384
 2017-02-06 04:57:47.251326+01 | 1486353467.25133 | pgbench_tellers_pkey  |            40960
 2017-02-06 04:57:47.251326+01 | 1486353467.25133 | pgbench_accounts_pkey |        224641024

 2017-02-06 04:57:48.338953+01 | 1486353468.33895 | pgbench_branches_pkey |            16384
 2017-02-06 04:57:48.338953+01 | 1486353468.33895 | pgbench_tellers_pkey  |            40960
 2017-02-06 04:57:48.338953+01 | 1486353468.33895 | pgbench_accounts_pkey |        224641024

 2017-02-06 04:57:49.419632+01 | 1486353469.41963 | pgbench_branches_pkey |            16384
 2017-02-06 04:57:49.419632+01 | 1486353469.41963 | pgbench_tellers_pkey  |            40960
 2017-02-06 04:57:49.419632+01 | 1486353469.41963 | pgbench_accounts_pkey |        224641024

 2017-02-06 04:57:50.493902+01 | 1486353470.4939 | pgbench_branches_pkey |            16384
 2017-02-06 04:57:50.493902+01 | 1486353470.4939 | pgbench_tellers_pkey  |            40960
 2017-02-06 04:57:50.493902+01 | 1486353470.4939 | pgbench_accounts_pkey |        224641024

 2017-02-06 04:57:51.57479+01 | 1486353471.57479 | pgbench_branches_pkey |            16384
 2017-02-06 04:57:51.57479+01 | 1486353471.57479 | pgbench_tellers_pkey  |            40960
 2017-02-06 04:57:51.57479+01 | 1486353471.57479 | pgbench_accounts_pkey |        224641024

 2017-02-06 04:57:52.656546+01 | 1486353472.65655 | pgbench_branches_pkey |            16384
 2017-02-06 04:57:52.656546+01 | 1486353472.65655 | pgbench_tellers_pkey  |            40960
 2017-02-06 04:57:52.656546+01 | 1486353472.65655 | pgbench_accounts_pkey |        224641024

 2017-02-06 04:57:53.735542+01 | 1486353473.73554 | pgbench_branches_pkey |            16384
 2017-02-06 04:57:53.735542+01 | 1486353473.73554 | pgbench_tellers_pkey  |            40960
 2017-02-06 04:57:53.735542+01 | 1486353473.73554 | pgbench_accounts_pkey |        224641024

 2017-02-06 04:57:54.814139+01 | 1486353474.81414 | pgbench_branches_pkey |            16384
 2017-02-06 04:57:54.814139+01 | 1486353474.81414 | pgbench_tellers_pkey  |            40960
 2017-02-06 04:57:54.814139+01 | 1486353474.81414 | pgbench_accounts_pkey |        224641024

 2017-02-06 04:57:55.895535+01 | 1486353475.89553 | pgbench_branches_pkey |            16384
 2017-02-06 04:57:55.895535+01 | 1486353475.89553 | pgbench_tellers_pkey  |            40960
 2017-02-06 04:57:55.895535+01 | 1486353475.89553 | pgbench_accounts_pkey |        224641024

 2017-02-06 04:57:56.971968+01 | 1486353476.97197 | pgbench_branches_pkey |            16384
 2017-02-06 04:57:56.971968+01 | 1486353476.97197 | pgbench_tellers_pkey  |            40960
 2017-02-06 04:57:56.971968+01 | 1486353476.97197 | pgbench_accounts_pkey |        224641024

 2017-02-06 04:57:58.049206+01 | 1486353478.04921 | pgbench_branches_pkey |            16384
 2017-02-06 04:57:58.049206+01 | 1486353478.04921 | pgbench_tellers_pkey  |            40960
 2017-02-06 04:57:58.049206+01 | 1486353478.04921 | pgbench_accounts_pkey |        224641024

 2017-02-06 04:57:59.136099+01 | 1486353479.1361 | pgbench_branches_pkey |            16384
 2017-02-06 04:57:59.136099+01 | 1486353479.1361 | pgbench_tellers_pkey  |            40960
 2017-02-06 04:57:59.136099+01 | 1486353479.1361 | pgbench_accounts_pkey |        224641024

 2017-02-06 04:58:00.209988+01 | 1486353480.20999 | pgbench_branches_pkey |            16384
 2017-02-06 04:58:00.209988+01 | 1486353480.20999 | pgbench_tellers_pkey  |            40960
 2017-02-06 04:58:00.209988+01 | 1486353480.20999 | pgbench_accounts_pkey |        224641024

 2017-02-06 04:58:01.296838+01 | 1486353481.29684 | pgbench_branches_pkey |            16384
 2017-02-06 04:58:01.296838+01 | 1486353481.29684 | pgbench_tellers_pkey  |            40960
 2017-02-06 04:58:01.296838+01 | 1486353481.29684 | pgbench_accounts_pkey |        224641024

 2017-02-06 04:58:02.369239+01 | 1486353482.36924 | pgbench_branches_pkey |            16384
 2017-02-06 04:58:02.369239+01 | 1486353482.36924 | pgbench_tellers_pkey  |            40960
 2017-02-06 04:58:02.369239+01 | 1486353482.36924 | pgbench_accounts_pkey |        224641024

 2017-02-06 04:58:03.440045+01 | 1486353483.44005 | pgbench_branches_pkey |            16384
 2017-02-06 04:58:03.440045+01 | 1486353483.44005 | pgbench_tellers_pkey  |            40960
 2017-02-06 04:58:03.440045+01 | 1486353483.44005 | pgbench_accounts_pkey |        224641024

 2017-02-06 04:58:04.528962+01 | 1486353484.52896 | pgbench_branches_pkey |            16384
 2017-02-06 04:58:04.528962+01 | 1486353484.52896 | pgbench_tellers_pkey  |            40960
 2017-02-06 04:58:04.528962+01 | 1486353484.52896 | pgbench_accounts_pkey |        224641024

 2017-02-06 04:58:05.609215+01 | 1486353485.60922 | pgbench_branches_pkey |            16384
 2017-02-06 04:58:05.609215+01 | 1486353485.60922 | pgbench_tellers_pkey  |            40960
 2017-02-06 04:58:05.609215+01 | 1486353485.60922 | pgbench_accounts_pkey |        224641024

 2017-02-06 04:58:06.693998+01 | 1486353486.694 | pgbench_branches_pkey |            16384
 2017-02-06 04:58:06.693998+01 | 1486353486.694 | pgbench_tellers_pkey  |            40960
 2017-02-06 04:58:06.693998+01 | 1486353486.694 | pgbench_accounts_pkey |        224641024

 2017-02-06 04:58:07.766549+01 | 1486353487.76655 | pgbench_branches_pkey |            16384
 2017-02-06 04:58:07.766549+01 | 1486353487.76655 | pgbench_tellers_pkey  |            40960
 2017-02-06 04:58:07.766549+01 | 1486353487.76655 | pgbench_accounts_pkey |        224641024

 2017-02-06 04:58:08.843958+01 | 1486353488.84396 | pgbench_branches_pkey |            16384
 2017-02-06 04:58:08.843958+01 | 1486353488.84396 | pgbench_tellers_pkey  |            40960
 2017-02-06 04:58:08.843958+01 | 1486353488.84396 | pgbench_accounts_pkey |        224641024

 2017-02-06 04:58:09.920207+01 | 1486353489.92021 | pgbench_branches_pkey |            16384
 2017-02-06 04:58:09.920207+01 | 1486353489.92021 | pgbench_tellers_pkey  |            40960
 2017-02-06 04:58:09.920207+01 | 1486353489.92021 | pgbench_accounts_pkey |        224641024

 2017-02-06 04:58:10.989115+01 | 1486353490.98911 | pgbench_branches_pkey |            16384
 2017-02-06 04:58:10.989115+01 | 1486353490.98911 | pgbench_tellers_pkey  |            40960
 2017-02-06 04:58:10.989115+01 | 1486353490.98911 | pgbench_accounts_pkey |        224641024

 2017-02-06 04:58:12.067365+01 | 1486353492.06736 | pgbench_branches_pkey |            16384
 2017-02-06 04:58:12.067365+01 | 1486353492.06736 | pgbench_tellers_pkey  |            40960
 2017-02-06 04:58:12.067365+01 | 1486353492.06736 | pgbench_accounts_pkey |        224641024

 2017-02-06 04:58:13.138672+01 | 1486353493.13867 | pgbench_branches_pkey |            16384
 2017-02-06 04:58:13.138672+01 | 1486353493.13867 | pgbench_tellers_pkey  |            40960
 2017-02-06 04:58:13.138672+01 | 1486353493.13867 | pgbench_accounts_pkey |        224641024

 2017-02-06 04:58:14.219452+01 | 1486353494.21945 | pgbench_branches_pkey |            16384
 2017-02-06 04:58:14.219452+01 | 1486353494.21945 | pgbench_tellers_pkey  |            40960
 2017-02-06 04:58:14.219452+01 | 1486353494.21945 | pgbench_accounts_pkey |        224641024

 2017-02-06 04:58:15.304502+01 | 1486353495.3045 | pgbench_branches_pkey |            16384
 2017-02-06 04:58:15.304502+01 | 1486353495.3045 | pgbench_tellers_pkey  |            40960
 2017-02-06 04:58:15.304502+01 | 1486353495.3045 | pgbench_accounts_pkey |        224641024

 2017-02-06 04:58:16.376514+01 | 1486353496.37651 | pgbench_branches_pkey |            16384
 2017-02-06 04:58:16.376514+01 | 1486353496.37651 | pgbench_tellers_pkey  |            40960
 2017-02-06 04:58:16.376514+01 | 1486353496.37651 | pgbench_accounts_pkey |        224641024

 2017-02-06 04:58:17.45238+01 | 1486353497.45238 | pgbench_branches_pkey |            16384
 2017-02-06 04:58:17.45238+01 | 1486353497.45238 | pgbench_tellers_pkey  |            40960
 2017-02-06 04:58:17.45238+01 | 1486353497.45238 | pgbench_accounts_pkey |        224641024

 2017-02-06 04:58:18.51624+01 | 1486353498.51624 | pgbench_branches_pkey |            16384
 2017-02-06 04:58:18.51624+01 | 1486353498.51624 | pgbench_tellers_pkey  |            40960
 2017-02-06 04:58:18.51624+01 | 1486353498.51624 | pgbench_accounts_pkey |        224641024

 2017-02-06 04:58:19.59048+01 | 1486353499.59048 | pgbench_branches_pkey |            16384
 2017-02-06 04:58:19.59048+01 | 1486353499.59048 | pgbench_tellers_pkey  |            40960
 2017-02-06 04:58:19.59048+01 | 1486353499.59048 | pgbench_accounts_pkey |        224641024

 2017-02-06 04:58:20.662226+01 | 1486353500.66223 | pgbench_branches_pkey |            16384
 2017-02-06 04:58:20.662226+01 | 1486353500.66223 | pgbench_tellers_pkey  |            40960
 2017-02-06 04:58:20.662226+01 | 1486353500.66223 | pgbench_accounts_pkey |        224641024

 2017-02-06 04:58:21.740209+01 | 1486353501.74021 | pgbench_branches_pkey |            16384
 2017-02-06 04:58:21.740209+01 | 1486353501.74021 | pgbench_tellers_pkey  |            40960
 2017-02-06 04:58:21.740209+01 | 1486353501.74021 | pgbench_accounts_pkey |        224641024

 2017-02-06 04:58:22.813414+01 | 1486353502.81341 | pgbench_branches_pkey |            16384
 2017-02-06 04:58:22.813414+01 | 1486353502.81341 | pgbench_tellers_pkey  |            40960
 2017-02-06 04:58:22.813414+01 | 1486353502.81341 | pgbench_accounts_pkey |        224641024

 2017-02-06 04:58:23.873781+01 | 1486353503.87378 | pgbench_branches_pkey |            16384
 2017-02-06 04:58:23.873781+01 | 1486353503.87378 | pgbench_tellers_pkey  |            40960
 2017-02-06 04:58:23.873781+01 | 1486353503.87378 | pgbench_accounts_pkey |        224641024

 2017-02-06 04:58:24.94878+01 | 1486353504.94878 | pgbench_branches_pkey |            16384
 2017-02-06 04:58:24.94878+01 | 1486353504.94878 | pgbench_tellers_pkey  |            40960
 2017-02-06 04:58:24.94878+01 | 1486353504.94878 | pgbench_accounts_pkey |        224641024

 2017-02-06 04:58:26.025586+01 | 1486353506.02559 | pgbench_branches_pkey |            16384
 2017-02-06 04:58:26.025586+01 | 1486353506.02559 | pgbench_tellers_pkey  |            40960
 2017-02-06 04:58:26.025586+01 | 1486353506.02559 | pgbench_accounts_pkey |        224641024

 2017-02-06 04:58:27.108294+01 | 1486353507.10829 | pgbench_branches_pkey |            16384
 2017-02-06 04:58:27.108294+01 | 1486353507.10829 | pgbench_tellers_pkey  |            40960
 2017-02-06 04:58:27.108294+01 | 1486353507.10829 | pgbench_accounts_pkey |        224641024

 2017-02-06 04:58:28.188006+01 | 1486353508.18801 | pgbench_branches_pkey |            16384
 2017-02-06 04:58:28.188006+01 | 1486353508.18801 | pgbench_tellers_pkey  |            40960
 2017-02-06 04:58:28.188006+01 | 1486353508.18801 | pgbench_accounts_pkey |        224641024

 2017-02-06 04:58:29.262378+01 | 1486353509.26238 | pgbench_branches_pkey |            16384
 2017-02-06 04:58:29.262378+01 | 1486353509.26238 | pgbench_tellers_pkey  |            40960
 2017-02-06 04:58:29.262378+01 | 1486353509.26238 | pgbench_accounts_pkey |        224641024

 2017-02-06 04:58:30.339482+01 | 1486353510.33948 | pgbench_branches_pkey |            16384
 2017-02-06 04:58:30.339482+01 | 1486353510.33948 | pgbench_tellers_pkey  |            40960
 2017-02-06 04:58:30.339482+01 | 1486353510.33948 | pgbench_accounts_pkey |        224641024

 2017-02-06 04:58:31.419855+01 | 1486353511.41986 | pgbench_branches_pkey |            16384
 2017-02-06 04:58:31.419855+01 | 1486353511.41986 | pgbench_tellers_pkey  |            40960
 2017-02-06 04:58:31.419855+01 | 1486353511.41986 | pgbench_accounts_pkey |        224641024

 2017-02-06 04:58:32.500621+01 | 1486353512.50062 | pgbench_branches_pkey |            16384
 2017-02-06 04:58:32.500621+01 | 1486353512.50062 | pgbench_tellers_pkey  |            40960
 2017-02-06 04:58:32.500621+01 | 1486353512.50062 | pgbench_accounts_pkey |        224641024

 2017-02-06 04:58:33.583317+01 | 1486353513.58332 | pgbench_branches_pkey |            16384
 2017-02-06 04:58:33.583317+01 | 1486353513.58332 | pgbench_tellers_pkey  |            40960
 2017-02-06 04:58:33.583317+01 | 1486353513.58332 | pgbench_accounts_pkey |        224641024

 2017-02-06 04:58:34.650867+01 | 1486353514.65087 | pgbench_branches_pkey |            16384
 2017-02-06 04:58:34.650867+01 | 1486353514.65087 | pgbench_tellers_pkey  |            40960
 2017-02-06 04:58:34.650867+01 | 1486353514.65087 | pgbench_accounts_pkey |        224641024

 2017-02-06 04:58:35.734026+01 | 1486353515.73403 | pgbench_branches_pkey |            16384
 2017-02-06 04:58:35.734026+01 | 1486353515.73403 | pgbench_tellers_pkey  |            40960
 2017-02-06 04:58:35.734026+01 | 1486353515.73403 | pgbench_accounts_pkey |        224641024

 2017-02-06 04:58:36.802527+01 | 1486353516.80253 | pgbench_branches_pkey |            16384
 2017-02-06 04:58:36.802527+01 | 1486353516.80253 | pgbench_tellers_pkey  |            40960
 2017-02-06 04:58:36.802527+01 | 1486353516.80253 | pgbench_accounts_pkey |        224641024

 2017-02-06 04:58:37.878234+01 | 1486353517.87823 | pgbench_branches_pkey |            16384
 2017-02-06 04:58:37.878234+01 | 1486353517.87823 | pgbench_tellers_pkey  |            40960
 2017-02-06 04:58:37.878234+01 | 1486353517.87823 | pgbench_accounts_pkey |        224641024

 2017-02-06 04:58:38.952956+01 | 1486353518.95296 | pgbench_branches_pkey |            16384
 2017-02-06 04:58:38.952956+01 | 1486353518.95296 | pgbench_tellers_pkey  |            40960
 2017-02-06 04:58:38.952956+01 | 1486353518.95296 | pgbench_accounts_pkey |        224641024

 2017-02-06 04:58:40.029354+01 | 1486353520.02935 | pgbench_branches_pkey |            16384
 2017-02-06 04:58:40.029354+01 | 1486353520.02935 | pgbench_tellers_pkey  |            40960
 2017-02-06 04:58:40.029354+01 | 1486353520.02935 | pgbench_accounts_pkey |        224641024

 2017-02-06 04:58:41.106427+01 | 1486353521.10643 | pgbench_branches_pkey |            16384
 2017-02-06 04:58:41.106427+01 | 1486353521.10643 | pgbench_tellers_pkey  |            40960
 2017-02-06 04:58:41.106427+01 | 1486353521.10643 | pgbench_accounts_pkey |        224641024

 2017-02-06 04:58:42.183422+01 | 1486353522.18342 | pgbench_branches_pkey |            16384
 2017-02-06 04:58:42.183422+01 | 1486353522.18342 | pgbench_tellers_pkey  |            40960
 2017-02-06 04:58:42.183422+01 | 1486353522.18342 | pgbench_accounts_pkey |        224641024

 2017-02-06 04:58:43.258396+01 | 1486353523.2584 | pgbench_branches_pkey |            16384
 2017-02-06 04:58:43.258396+01 | 1486353523.2584 | pgbench_tellers_pkey  |            40960
 2017-02-06 04:58:43.258396+01 | 1486353523.2584 | pgbench_accounts_pkey |        224641024

 2017-02-06 04:58:44.328318+01 | 1486353524.32832 | pgbench_branches_pkey |            16384
 2017-02-06 04:58:44.328318+01 | 1486353524.32832 | pgbench_tellers_pkey  |            40960
 2017-02-06 04:58:44.328318+01 | 1486353524.32832 | pgbench_accounts_pkey |        224641024

 2017-02-06 04:58:45.402726+01 | 1486353525.40273 | pgbench_branches_pkey |            16384
 2017-02-06 04:58:45.402726+01 | 1486353525.40273 | pgbench_tellers_pkey  |            40960
 2017-02-06 04:58:45.402726+01 | 1486353525.40273 | pgbench_accounts_pkey |        224641024

 2017-02-06 04:58:46.480103+01 | 1486353526.4801 | pgbench_branches_pkey |            16384
 2017-02-06 04:58:46.480103+01 | 1486353526.4801 | pgbench_tellers_pkey  |            40960
 2017-02-06 04:58:46.480103+01 | 1486353526.4801 | pgbench_accounts_pkey |        224641024

 2017-02-06 04:58:47.566336+01 | 1486353527.56634 | pgbench_branches_pkey |            16384
 2017-02-06 04:58:47.566336+01 | 1486353527.56634 | pgbench_tellers_pkey  |            40960
 2017-02-06 04:58:47.566336+01 | 1486353527.56634 | pgbench_accounts_pkey |        224641024

 2017-02-06 04:58:48.644926+01 | 1486353528.64493 | pgbench_branches_pkey |            16384
 2017-02-06 04:58:48.644926+01 | 1486353528.64493 | pgbench_tellers_pkey  |            40960
 2017-02-06 04:58:48.644926+01 | 1486353528.64493 | pgbench_accounts_pkey |        224641024

 2017-02-06 04:58:49.718583+01 | 1486353529.71858 | pgbench_branches_pkey |            16384
 2017-02-06 04:58:49.718583+01 | 1486353529.71858 | pgbench_tellers_pkey  |            40960
 2017-02-06 04:58:49.718583+01 | 1486353529.71858 | pgbench_accounts_pkey |        224641024

 2017-02-06 04:58:50.804449+01 | 1486353530.80445 | pgbench_branches_pkey |            16384
 2017-02-06 04:58:50.804449+01 | 1486353530.80445 | pgbench_tellers_pkey  |            40960
 2017-02-06 04:58:50.804449+01 | 1486353530.80445 | pgbench_accounts_pkey |        224641024

 2017-02-06 04:58:51.882794+01 | 1486353531.88279 | pgbench_branches_pkey |            16384
 2017-02-06 04:58:51.882794+01 | 1486353531.88279 | pgbench_tellers_pkey  |            40960
 2017-02-06 04:58:51.882794+01 | 1486353531.88279 | pgbench_accounts_pkey |        224641024

 2017-02-06 04:58:52.953408+01 | 1486353532.95341 | pgbench_branches_pkey |            16384
 2017-02-06 04:58:52.953408+01 | 1486353532.95341 | pgbench_tellers_pkey  |            40960
 2017-02-06 04:58:52.953408+01 | 1486353532.95341 | pgbench_accounts_pkey |        224641024

 2017-02-06 04:58:54.028438+01 | 1486353534.02844 | pgbench_branches_pkey |            16384
 2017-02-06 04:58:54.028438+01 | 1486353534.02844 | pgbench_tellers_pkey  |            40960
 2017-02-06 04:58:54.028438+01 | 1486353534.02844 | pgbench_accounts_pkey |        224641024

 2017-02-06 04:58:55.107085+01 | 1486353535.10708 | pgbench_branches_pkey |            16384
 2017-02-06 04:58:55.107085+01 | 1486353535.10708 | pgbench_tellers_pkey  |            40960
 2017-02-06 04:58:55.107085+01 | 1486353535.10708 | pgbench_accounts_pkey |        224641024

 2017-02-06 04:58:56.182959+01 | 1486353536.18296 | pgbench_branches_pkey |            16384
 2017-02-06 04:58:56.182959+01 | 1486353536.18296 | pgbench_tellers_pkey  |            40960
 2017-02-06 04:58:56.182959+01 | 1486353536.18296 | pgbench_accounts_pkey |        224641024

 2017-02-06 04:58:57.268621+01 | 1486353537.26862 | pgbench_branches_pkey |            16384
 2017-02-06 04:58:57.268621+01 | 1486353537.26862 | pgbench_tellers_pkey  |            40960
 2017-02-06 04:58:57.268621+01 | 1486353537.26862 | pgbench_accounts_pkey |        224641024

 2017-02-06 04:58:58.360645+01 | 1486353538.36065 | pgbench_branches_pkey |            16384
 2017-02-06 04:58:58.360645+01 | 1486353538.36065 | pgbench_tellers_pkey  |            40960
 2017-02-06 04:58:58.360645+01 | 1486353538.36065 | pgbench_accounts_pkey |        224641024

 2017-02-06 04:58:59.434188+01 | 1486353539.43419 | pgbench_branches_pkey |            16384
 2017-02-06 04:58:59.434188+01 | 1486353539.43419 | pgbench_tellers_pkey  |            40960
 2017-02-06 04:58:59.434188+01 | 1486353539.43419 | pgbench_accounts_pkey |        224641024

 2017-02-06 04:59:00.513129+01 | 1486353540.51313 | pgbench_branches_pkey |            16384
 2017-02-06 04:59:00.513129+01 | 1486353540.51313 | pgbench_tellers_pkey  |            40960
 2017-02-06 04:59:00.513129+01 | 1486353540.51313 | pgbench_accounts_pkey |        224641024

 2017-02-06 04:59:01.592178+01 | 1486353541.59218 | pgbench_branches_pkey |            16384
 2017-02-06 04:59:01.592178+01 | 1486353541.59218 | pgbench_tellers_pkey  |            40960
 2017-02-06 04:59:01.592178+01 | 1486353541.59218 | pgbench_accounts_pkey |        224641024

 2017-02-06 04:59:02.670611+01 | 1486353542.67061 | pgbench_branches_pkey |            16384
 2017-02-06 04:59:02.670611+01 | 1486353542.67061 | pgbench_tellers_pkey  |            40960
 2017-02-06 04:59:02.670611+01 | 1486353542.67061 | pgbench_accounts_pkey |        224641024

 2017-02-06 04:59:03.751089+01 | 1486353543.75109 | pgbench_branches_pkey |            16384
 2017-02-06 04:59:03.751089+01 | 1486353543.75109 | pgbench_tellers_pkey  |            40960
 2017-02-06 04:59:03.751089+01 | 1486353543.75109 | pgbench_accounts_pkey |        224641024

 2017-02-06 04:59:04.83699+01 | 1486353544.83699 | pgbench_branches_pkey |            16384
 2017-02-06 04:59:04.83699+01 | 1486353544.83699 | pgbench_tellers_pkey  |            40960
 2017-02-06 04:59:04.83699+01 | 1486353544.83699 | pgbench_accounts_pkey |        224641024

 2017-02-06 04:59:05.911956+01 | 1486353545.91196 | pgbench_branches_pkey |            16384
 2017-02-06 04:59:05.911956+01 | 1486353545.91196 | pgbench_tellers_pkey  |            40960
 2017-02-06 04:59:05.911956+01 | 1486353545.91196 | pgbench_accounts_pkey |        224641024

 2017-02-06 04:59:06.999965+01 | 1486353546.99996 | pgbench_branches_pkey |            16384
 2017-02-06 04:59:06.999965+01 | 1486353546.99996 | pgbench_tellers_pkey  |            40960
 2017-02-06 04:59:06.999965+01 | 1486353546.99996 | pgbench_accounts_pkey |        224641024

 2017-02-06 04:59:08.079401+01 | 1486353548.0794 | pgbench_branches_pkey |            16384
 2017-02-06 04:59:08.079401+01 | 1486353548.0794 | pgbench_tellers_pkey  |            40960
 2017-02-06 04:59:08.079401+01 | 1486353548.0794 | pgbench_accounts_pkey |        224641024

 2017-02-06 04:59:09.161822+01 | 1486353549.16182 | pgbench_branches_pkey |            16384
 2017-02-06 04:59:09.161822+01 | 1486353549.16182 | pgbench_tellers_pkey  |            40960
 2017-02-06 04:59:09.161822+01 | 1486353549.16182 | pgbench_accounts_pkey |        224641024

 2017-02-06 04:59:10.232119+01 | 1486353550.23212 | pgbench_branches_pkey |            16384
 2017-02-06 04:59:10.232119+01 | 1486353550.23212 | pgbench_tellers_pkey  |            40960
 2017-02-06 04:59:10.232119+01 | 1486353550.23212 | pgbench_accounts_pkey |        224641024

 2017-02-06 04:59:11.30854+01 | 1486353551.30854 | pgbench_branches_pkey |            16384
 2017-02-06 04:59:11.30854+01 | 1486353551.30854 | pgbench_tellers_pkey  |            40960
 2017-02-06 04:59:11.30854+01 | 1486353551.30854 | pgbench_accounts_pkey |        224641024

 2017-02-06 04:59:12.389918+01 | 1486353552.38992 | pgbench_branches_pkey |            16384
 2017-02-06 04:59:12.389918+01 | 1486353552.38992 | pgbench_tellers_pkey  |            40960
 2017-02-06 04:59:12.389918+01 | 1486353552.38992 | pgbench_accounts_pkey |        224641024

 2017-02-06 04:59:13.47372+01 | 1486353553.47372 | pgbench_branches_pkey |            16384
 2017-02-06 04:59:13.47372+01 | 1486353553.47372 | pgbench_tellers_pkey  |            40960
 2017-02-06 04:59:13.47372+01 | 1486353553.47372 | pgbench_accounts_pkey |        224641024

 2017-02-06 04:59:14.555545+01 | 1486353554.55555 | pgbench_branches_pkey |            16384
 2017-02-06 04:59:14.555545+01 | 1486353554.55555 | pgbench_tellers_pkey  |            40960
 2017-02-06 04:59:14.555545+01 | 1486353554.55555 | pgbench_accounts_pkey |        224641024

 2017-02-06 04:59:15.632911+01 | 1486353555.63291 | pgbench_branches_pkey |            16384
 2017-02-06 04:59:15.632911+01 | 1486353555.63291 | pgbench_tellers_pkey  |            40960
 2017-02-06 04:59:15.632911+01 | 1486353555.63291 | pgbench_accounts_pkey |        224641024

 2017-02-06 04:59:16.71058+01 | 1486353556.71058 | pgbench_branches_pkey |            16384
 2017-02-06 04:59:16.71058+01 | 1486353556.71058 | pgbench_tellers_pkey  |            40960
 2017-02-06 04:59:16.71058+01 | 1486353556.71058 | pgbench_accounts_pkey |        224641024

 2017-02-06 04:59:17.791711+01 | 1486353557.79171 | pgbench_branches_pkey |            16384
 2017-02-06 04:59:17.791711+01 | 1486353557.79171 | pgbench_tellers_pkey  |            40960
 2017-02-06 04:59:17.791711+01 | 1486353557.79171 | pgbench_accounts_pkey |        224641024

 2017-02-06 04:59:18.873645+01 | 1486353558.87365 | pgbench_branches_pkey |            16384
 2017-02-06 04:59:18.873645+01 | 1486353558.87365 | pgbench_tellers_pkey  |            40960
 2017-02-06 04:59:18.873645+01 | 1486353558.87365 | pgbench_accounts_pkey |        224641024

 2017-02-06 04:59:19.95988+01 | 1486353559.95988 | pgbench_branches_pkey |            16384
 2017-02-06 04:59:19.95988+01 | 1486353559.95988 | pgbench_tellers_pkey  |            40960
 2017-02-06 04:59:19.95988+01 | 1486353559.95988 | pgbench_accounts_pkey |        224641024

 2017-02-06 04:59:21.03915+01 | 1486353561.03915 | pgbench_branches_pkey |            16384
 2017-02-06 04:59:21.03915+01 | 1486353561.03915 | pgbench_tellers_pkey  |            40960
 2017-02-06 04:59:21.03915+01 | 1486353561.03915 | pgbench_accounts_pkey |        224641024

 2017-02-06 04:59:22.119757+01 | 1486353562.11976 | pgbench_branches_pkey |            16384
 2017-02-06 04:59:22.119757+01 | 1486353562.11976 | pgbench_tellers_pkey  |            40960
 2017-02-06 04:59:22.119757+01 | 1486353562.11976 | pgbench_accounts_pkey |        224641024

 2017-02-06 04:59:23.196352+01 | 1486353563.19635 | pgbench_branches_pkey |            16384
 2017-02-06 04:59:23.196352+01 | 1486353563.19635 | pgbench_tellers_pkey  |            40960
 2017-02-06 04:59:23.196352+01 | 1486353563.19635 | pgbench_accounts_pkey |        224641024

 2017-02-06 04:59:24.2769+01 | 1486353564.2769 | pgbench_branches_pkey |            16384
 2017-02-06 04:59:24.2769+01 | 1486353564.2769 | pgbench_tellers_pkey  |            40960
 2017-02-06 04:59:24.2769+01 | 1486353564.2769 | pgbench_accounts_pkey |        224641024

 2017-02-06 04:59:25.358178+01 | 1486353565.35818 | pgbench_branches_pkey |            16384
 2017-02-06 04:59:25.358178+01 | 1486353565.35818 | pgbench_tellers_pkey  |            40960
 2017-02-06 04:59:25.358178+01 | 1486353565.35818 | pgbench_accounts_pkey |        224641024

 2017-02-06 04:59:26.437881+01 | 1486353566.43788 | pgbench_branches_pkey |            16384
 2017-02-06 04:59:26.437881+01 | 1486353566.43788 | pgbench_tellers_pkey  |            40960
 2017-02-06 04:59:26.437881+01 | 1486353566.43788 | pgbench_accounts_pkey |        224641024

 2017-02-06 04:59:27.514788+01 | 1486353567.51479 | pgbench_branches_pkey |            16384
 2017-02-06 04:59:27.514788+01 | 1486353567.51479 | pgbench_tellers_pkey  |            40960
 2017-02-06 04:59:27.514788+01 | 1486353567.51479 | pgbench_accounts_pkey |        224641024

 2017-02-06 04:59:28.598523+01 | 1486353568.59852 | pgbench_branches_pkey |            16384
 2017-02-06 04:59:28.598523+01 | 1486353568.59852 | pgbench_tellers_pkey  |            40960
 2017-02-06 04:59:28.598523+01 | 1486353568.59852 | pgbench_accounts_pkey |        224641024

 2017-02-06 04:59:29.669538+01 | 1486353569.66954 | pgbench_branches_pkey |            16384
 2017-02-06 04:59:29.669538+01 | 1486353569.66954 | pgbench_tellers_pkey  |            40960
 2017-02-06 04:59:29.669538+01 | 1486353569.66954 | pgbench_accounts_pkey |        224641024

 2017-02-06 04:59:30.739525+01 | 1486353570.73953 | pgbench_branches_pkey |            16384
 2017-02-06 04:59:30.739525+01 | 1486353570.73953 | pgbench_tellers_pkey  |            40960
 2017-02-06 04:59:30.739525+01 | 1486353570.73953 | pgbench_accounts_pkey |        224641024

 2017-02-06 04:59:31.814627+01 | 1486353571.81463 | pgbench_branches_pkey |            16384
 2017-02-06 04:59:31.814627+01 | 1486353571.81463 | pgbench_tellers_pkey  |            40960
 2017-02-06 04:59:31.814627+01 | 1486353571.81463 | pgbench_accounts_pkey |        224641024

 2017-02-06 04:59:32.88608+01 | 1486353572.88608 | pgbench_branches_pkey |            16384
 2017-02-06 04:59:32.88608+01 | 1486353572.88608 | pgbench_tellers_pkey  |            40960
 2017-02-06 04:59:32.88608+01 | 1486353572.88608 | pgbench_accounts_pkey |        224641024

 2017-02-06 04:59:33.956009+01 | 1486353573.95601 | pgbench_branches_pkey |            16384
 2017-02-06 04:59:33.956009+01 | 1486353573.95601 | pgbench_tellers_pkey  |            40960
 2017-02-06 04:59:33.956009+01 | 1486353573.95601 | pgbench_accounts_pkey |        224641024

 2017-02-06 04:59:35.030162+01 | 1486353575.03016 | pgbench_branches_pkey |            16384
 2017-02-06 04:59:35.030162+01 | 1486353575.03016 | pgbench_tellers_pkey  |            40960
 2017-02-06 04:59:35.030162+01 | 1486353575.03016 | pgbench_accounts_pkey |        224641024

 2017-02-06 04:59:36.106346+01 | 1486353576.10635 | pgbench_branches_pkey |            16384
 2017-02-06 04:59:36.106346+01 | 1486353576.10635 | pgbench_tellers_pkey  |            40960
 2017-02-06 04:59:36.106346+01 | 1486353576.10635 | pgbench_accounts_pkey |        224641024

 2017-02-06 04:59:37.197516+01 | 1486353577.19752 | pgbench_branches_pkey |            16384
 2017-02-06 04:59:37.197516+01 | 1486353577.19752 | pgbench_tellers_pkey  |            40960
 2017-02-06 04:59:37.197516+01 | 1486353577.19752 | pgbench_accounts_pkey |        224641024

 2017-02-06 04:59:38.284973+01 | 1486353578.28497 | pgbench_branches_pkey |            16384
 2017-02-06 04:59:38.284973+01 | 1486353578.28497 | pgbench_tellers_pkey  |            40960
 2017-02-06 04:59:38.284973+01 | 1486353578.28497 | pgbench_accounts_pkey |        224641024

 2017-02-06 04:59:39.361808+01 | 1486353579.36181 | pgbench_branches_pkey |            16384
 2017-02-06 04:59:39.361808+01 | 1486353579.36181 | pgbench_tellers_pkey  |            40960
 2017-02-06 04:59:39.361808+01 | 1486353579.36181 | pgbench_accounts_pkey |        224641024

 2017-02-06 04:59:40.44649+01 | 1486353580.44649 | pgbench_branches_pkey |            16384
 2017-02-06 04:59:40.44649+01 | 1486353580.44649 | pgbench_tellers_pkey  |            40960
 2017-02-06 04:59:40.44649+01 | 1486353580.44649 | pgbench_accounts_pkey |        224641024

 2017-02-06 04:59:41.5123+01 | 1486353581.5123 | pgbench_branches_pkey |            16384
 2017-02-06 04:59:41.5123+01 | 1486353581.5123 | pgbench_tellers_pkey  |            40960
 2017-02-06 04:59:41.5123+01 | 1486353581.5123 | pgbench_accounts_pkey |        224641024

 2017-02-06 04:59:42.593444+01 | 1486353582.59344 | pgbench_branches_pkey |            16384
 2017-02-06 04:59:42.593444+01 | 1486353582.59344 | pgbench_tellers_pkey  |            40960
 2017-02-06 04:59:42.593444+01 | 1486353582.59344 | pgbench_accounts_pkey |        224641024

 2017-02-06 04:59:43.664278+01 | 1486353583.66428 | pgbench_branches_pkey |            16384
 2017-02-06 04:59:43.664278+01 | 1486353583.66428 | pgbench_tellers_pkey  |            40960
 2017-02-06 04:59:43.664278+01 | 1486353583.66428 | pgbench_accounts_pkey |        224641024

 2017-02-06 04:59:44.745694+01 | 1486353584.74569 | pgbench_branches_pkey |            16384
 2017-02-06 04:59:44.745694+01 | 1486353584.74569 | pgbench_tellers_pkey  |            40960
 2017-02-06 04:59:44.745694+01 | 1486353584.74569 | pgbench_accounts_pkey |        224641024

 2017-02-06 04:59:45.83403+01 | 1486353585.83403 | pgbench_branches_pkey |            16384
 2017-02-06 04:59:45.83403+01 | 1486353585.83403 | pgbench_tellers_pkey  |            40960
 2017-02-06 04:59:45.83403+01 | 1486353585.83403 | pgbench_accounts_pkey |        224641024

 2017-02-06 04:59:46.912404+01 | 1486353586.9124 | pgbench_branches_pkey |            16384
 2017-02-06 04:59:46.912404+01 | 1486353586.9124 | pgbench_tellers_pkey  |            40960
 2017-02-06 04:59:46.912404+01 | 1486353586.9124 | pgbench_accounts_pkey |        224641024

 2017-02-06 04:59:47.987635+01 | 1486353587.98763 | pgbench_branches_pkey |            16384
 2017-02-06 04:59:47.987635+01 | 1486353587.98763 | pgbench_tellers_pkey  |            40960
 2017-02-06 04:59:47.987635+01 | 1486353587.98763 | pgbench_accounts_pkey |        224641024

 2017-02-06 04:59:49.057167+01 | 1486353589.05717 | pgbench_branches_pkey |            16384
 2017-02-06 04:59:49.057167+01 | 1486353589.05717 | pgbench_tellers_pkey  |            40960
 2017-02-06 04:59:49.057167+01 | 1486353589.05717 | pgbench_accounts_pkey |        224641024

 2017-02-06 04:59:50.144067+01 | 1486353590.14407 | pgbench_branches_pkey |            16384
 2017-02-06 04:59:50.144067+01 | 1486353590.14407 | pgbench_tellers_pkey  |            40960
 2017-02-06 04:59:50.144067+01 | 1486353590.14407 | pgbench_accounts_pkey |        224641024

 2017-02-06 04:59:51.228061+01 | 1486353591.22806 | pgbench_branches_pkey |            16384
 2017-02-06 04:59:51.228061+01 | 1486353591.22806 | pgbench_tellers_pkey  |            40960
 2017-02-06 04:59:51.228061+01 | 1486353591.22806 | pgbench_accounts_pkey |        224641024

 2017-02-06 04:59:52.306783+01 | 1486353592.30678 | pgbench_branches_pkey |            16384
 2017-02-06 04:59:52.306783+01 | 1486353592.30678 | pgbench_tellers_pkey  |            40960
 2017-02-06 04:59:52.306783+01 | 1486353592.30678 | pgbench_accounts_pkey |        224641024

 2017-02-06 04:59:53.387216+01 | 1486353593.38722 | pgbench_branches_pkey |            16384
 2017-02-06 04:59:53.387216+01 | 1486353593.38722 | pgbench_tellers_pkey  |            40960
 2017-02-06 04:59:53.387216+01 | 1486353593.38722 | pgbench_accounts_pkey |        224641024

 2017-02-06 04:59:54.462543+01 | 1486353594.46254 | pgbench_branches_pkey |            16384
 2017-02-06 04:59:54.462543+01 | 1486353594.46254 | pgbench_tellers_pkey  |            40960
 2017-02-06 04:59:54.462543+01 | 1486353594.46254 | pgbench_accounts_pkey |        224641024

 2017-02-06 04:59:55.535656+01 | 1486353595.53566 | pgbench_branches_pkey |            16384
 2017-02-06 04:59:55.535656+01 | 1486353595.53566 | pgbench_tellers_pkey  |            40960
 2017-02-06 04:59:55.535656+01 | 1486353595.53566 | pgbench_accounts_pkey |        224641024

 2017-02-06 04:59:56.617715+01 | 1486353596.61771 | pgbench_branches_pkey |            16384
 2017-02-06 04:59:56.617715+01 | 1486353596.61771 | pgbench_tellers_pkey  |            40960
 2017-02-06 04:59:56.617715+01 | 1486353596.61771 | pgbench_accounts_pkey |        224641024

 2017-02-06 04:59:57.698618+01 | 1486353597.69862 | pgbench_branches_pkey |            16384
 2017-02-06 04:59:57.698618+01 | 1486353597.69862 | pgbench_tellers_pkey  |            40960
 2017-02-06 04:59:57.698618+01 | 1486353597.69862 | pgbench_accounts_pkey |        224641024

 2017-02-06 04:59:58.781062+01 | 1486353598.78106 | pgbench_branches_pkey |            16384
 2017-02-06 04:59:58.781062+01 | 1486353598.78106 | pgbench_tellers_pkey  |            40960
 2017-02-06 04:59:58.781062+01 | 1486353598.78106 | pgbench_accounts_pkey |        224641024

 2017-02-06 04:59:59.850213+01 | 1486353599.85021 | pgbench_branches_pkey |            16384
 2017-02-06 04:59:59.850213+01 | 1486353599.85021 | pgbench_tellers_pkey  |            40960
 2017-02-06 04:59:59.850213+01 | 1486353599.85021 | pgbench_accounts_pkey |        224641024

 2017-02-06 05:00:00.918593+01 | 1486353600.91859 | pgbench_branches_pkey |            16384
 2017-02-06 05:00:00.918593+01 | 1486353600.91859 | pgbench_tellers_pkey  |            40960
 2017-02-06 05:00:00.918593+01 | 1486353600.91859 | pgbench_accounts_pkey |        224641024

 2017-02-06 05:00:01.99344+01 | 1486353601.99344 | pgbench_branches_pkey |            16384
 2017-02-06 05:00:01.99344+01 | 1486353601.99344 | pgbench_tellers_pkey  |            40960
 2017-02-06 05:00:01.99344+01 | 1486353601.99344 | pgbench_accounts_pkey |        224641024

 2017-02-06 05:00:03.065424+01 | 1486353603.06542 | pgbench_branches_pkey |            16384
 2017-02-06 05:00:03.065424+01 | 1486353603.06542 | pgbench_tellers_pkey  |            40960
 2017-02-06 05:00:03.065424+01 | 1486353603.06542 | pgbench_accounts_pkey |        224641024

 2017-02-06 05:00:04.137564+01 | 1486353604.13756 | pgbench_branches_pkey |            16384
 2017-02-06 05:00:04.137564+01 | 1486353604.13756 | pgbench_tellers_pkey  |            40960
 2017-02-06 05:00:04.137564+01 | 1486353604.13756 | pgbench_accounts_pkey |        224641024

 2017-02-06 05:00:05.221194+01 | 1486353605.22119 | pgbench_branches_pkey |            16384
 2017-02-06 05:00:05.221194+01 | 1486353605.22119 | pgbench_tellers_pkey  |            40960
 2017-02-06 05:00:05.221194+01 | 1486353605.22119 | pgbench_accounts_pkey |        224641024

 2017-02-06 05:00:06.301572+01 | 1486353606.30157 | pgbench_branches_pkey |            16384
 2017-02-06 05:00:06.301572+01 | 1486353606.30157 | pgbench_tellers_pkey  |            40960
 2017-02-06 05:00:06.301572+01 | 1486353606.30157 | pgbench_accounts_pkey |        224641024

 2017-02-06 05:00:07.385326+01 | 1486353607.38533 | pgbench_branches_pkey |            16384
 2017-02-06 05:00:07.385326+01 | 1486353607.38533 | pgbench_tellers_pkey  |            40960
 2017-02-06 05:00:07.385326+01 | 1486353607.38533 | pgbench_accounts_pkey |        224641024

 2017-02-06 05:00:08.464806+01 | 1486353608.46481 | pgbench_branches_pkey |            16384
 2017-02-06 05:00:08.464806+01 | 1486353608.46481 | pgbench_tellers_pkey  |            40960
 2017-02-06 05:00:08.464806+01 | 1486353608.46481 | pgbench_accounts_pkey |        224641024

 2017-02-06 05:00:09.550121+01 | 1486353609.55012 | pgbench_branches_pkey |            16384
 2017-02-06 05:00:09.550121+01 | 1486353609.55012 | pgbench_tellers_pkey  |            40960
 2017-02-06 05:00:09.550121+01 | 1486353609.55012 | pgbench_accounts_pkey |        224641024

 2017-02-06 05:00:10.62459+01 | 1486353610.62459 | pgbench_branches_pkey |            16384
 2017-02-06 05:00:10.62459+01 | 1486353610.62459 | pgbench_tellers_pkey  |            40960
 2017-02-06 05:00:10.62459+01 | 1486353610.62459 | pgbench_accounts_pkey |        224641024

 2017-02-06 05:00:11.709134+01 | 1486353611.70913 | pgbench_branches_pkey |            16384
 2017-02-06 05:00:11.709134+01 | 1486353611.70913 | pgbench_tellers_pkey  |            40960
 2017-02-06 05:00:11.709134+01 | 1486353611.70913 | pgbench_accounts_pkey |        224641024

 2017-02-06 05:00:12.790216+01 | 1486353612.79022 | pgbench_branches_pkey |            16384
 2017-02-06 05:00:12.790216+01 | 1486353612.79022 | pgbench_tellers_pkey  |            40960
 2017-02-06 05:00:12.790216+01 | 1486353612.79022 | pgbench_accounts_pkey |        224641024

 2017-02-06 05:00:13.873169+01 | 1486353613.87317 | pgbench_branches_pkey |            16384
 2017-02-06 05:00:13.873169+01 | 1486353613.87317 | pgbench_tellers_pkey  |            40960
 2017-02-06 05:00:13.873169+01 | 1486353613.87317 | pgbench_accounts_pkey |        224641024

 2017-02-06 05:00:14.951107+01 | 1486353614.95111 | pgbench_branches_pkey |            16384
 2017-02-06 05:00:14.951107+01 | 1486353614.95111 | pgbench_tellers_pkey  |            40960
 2017-02-06 05:00:14.951107+01 | 1486353614.95111 | pgbench_accounts_pkey |        224641024

 2017-02-06 05:00:16.029325+01 | 1486353616.02933 | pgbench_branches_pkey |            16384
 2017-02-06 05:00:16.029325+01 | 1486353616.02933 | pgbench_tellers_pkey  |            40960
 2017-02-06 05:00:16.029325+01 | 1486353616.02933 | pgbench_accounts_pkey |        224641024

 2017-02-06 05:00:17.10727+01 | 1486353617.10727 | pgbench_branches_pkey |            16384
 2017-02-06 05:00:17.10727+01 | 1486353617.10727 | pgbench_tellers_pkey  |            40960
 2017-02-06 05:00:17.10727+01 | 1486353617.10727 | pgbench_accounts_pkey |        224641024

 2017-02-06 05:00:18.189399+01 | 1486353618.1894 | pgbench_branches_pkey |            16384
 2017-02-06 05:00:18.189399+01 | 1486353618.1894 | pgbench_tellers_pkey  |            40960
 2017-02-06 05:00:18.189399+01 | 1486353618.1894 | pgbench_accounts_pkey |        224641024

 2017-02-06 05:00:19.254892+01 | 1486353619.25489 | pgbench_branches_pkey |            16384
 2017-02-06 05:00:19.254892+01 | 1486353619.25489 | pgbench_tellers_pkey  |            40960
 2017-02-06 05:00:19.254892+01 | 1486353619.25489 | pgbench_accounts_pkey |        224641024

 2017-02-06 05:00:20.322924+01 | 1486353620.32292 | pgbench_branches_pkey |            16384
 2017-02-06 05:00:20.322924+01 | 1486353620.32292 | pgbench_tellers_pkey  |            40960
 2017-02-06 05:00:20.322924+01 | 1486353620.32292 | pgbench_accounts_pkey |        224641024

 2017-02-06 05:00:21.409407+01 | 1486353621.40941 | pgbench_branches_pkey |            16384
 2017-02-06 05:00:21.409407+01 | 1486353621.40941 | pgbench_tellers_pkey  |            40960
 2017-02-06 05:00:21.409407+01 | 1486353621.40941 | pgbench_accounts_pkey |        224641024

 2017-02-06 05:00:22.482178+01 | 1486353622.48218 | pgbench_branches_pkey |            16384
 2017-02-06 05:00:22.482178+01 | 1486353622.48218 | pgbench_tellers_pkey  |            40960
 2017-02-06 05:00:22.482178+01 | 1486353622.48218 | pgbench_accounts_pkey |        224641024

 2017-02-06 05:00:23.539651+01 | 1486353623.53965 | pgbench_branches_pkey |            16384
 2017-02-06 05:00:23.539651+01 | 1486353623.53965 | pgbench_tellers_pkey  |            40960
 2017-02-06 05:00:23.539651+01 | 1486353623.53965 | pgbench_accounts_pkey |        224641024

 2017-02-06 05:00:24.622451+01 | 1486353624.62245 | pgbench_branches_pkey |            16384
 2017-02-06 05:00:24.622451+01 | 1486353624.62245 | pgbench_tellers_pkey  |            40960
 2017-02-06 05:00:24.622451+01 | 1486353624.62245 | pgbench_accounts_pkey |        224641024

 2017-02-06 05:00:25.701011+01 | 1486353625.70101 | pgbench_branches_pkey |            16384
 2017-02-06 05:00:25.701011+01 | 1486353625.70101 | pgbench_tellers_pkey  |            40960
 2017-02-06 05:00:25.701011+01 | 1486353625.70101 | pgbench_accounts_pkey |        224641024

 2017-02-06 05:00:26.782114+01 | 1486353626.78211 | pgbench_branches_pkey |            16384
 2017-02-06 05:00:26.782114+01 | 1486353626.78211 | pgbench_tellers_pkey  |            40960
 2017-02-06 05:00:26.782114+01 | 1486353626.78211 | pgbench_accounts_pkey |        224641024

 2017-02-06 05:00:27.854667+01 | 1486353627.85467 | pgbench_branches_pkey |            16384
 2017-02-06 05:00:27.854667+01 | 1486353627.85467 | pgbench_tellers_pkey  |            40960
 2017-02-06 05:00:27.854667+01 | 1486353627.85467 | pgbench_accounts_pkey |        224641024

 2017-02-06 05:00:28.927516+01 | 1486353628.92752 | pgbench_branches_pkey |            16384
 2017-02-06 05:00:28.927516+01 | 1486353628.92752 | pgbench_tellers_pkey  |            40960
 2017-02-06 05:00:28.927516+01 | 1486353628.92752 | pgbench_accounts_pkey |        224641024

 2017-02-06 05:00:30.001527+01 | 1486353630.00153 | pgbench_branches_pkey |            16384
 2017-02-06 05:00:30.001527+01 | 1486353630.00153 | pgbench_tellers_pkey  |            40960
 2017-02-06 05:00:30.001527+01 | 1486353630.00153 | pgbench_accounts_pkey |        224641024

 2017-02-06 05:00:31.080878+01 | 1486353631.08088 | pgbench_branches_pkey |            16384
 2017-02-06 05:00:31.080878+01 | 1486353631.08088 | pgbench_tellers_pkey  |            40960
 2017-02-06 05:00:31.080878+01 | 1486353631.08088 | pgbench_accounts_pkey |        224641024

 2017-02-06 05:00:32.159718+01 | 1486353632.15972 | pgbench_branches_pkey |            16384
 2017-02-06 05:00:32.159718+01 | 1486353632.15972 | pgbench_tellers_pkey  |            40960
 2017-02-06 05:00:32.159718+01 | 1486353632.15972 | pgbench_accounts_pkey |        224641024

 2017-02-06 05:00:33.23729+01 | 1486353633.23729 | pgbench_branches_pkey |            16384
 2017-02-06 05:00:33.23729+01 | 1486353633.23729 | pgbench_tellers_pkey  |            40960
 2017-02-06 05:00:33.23729+01 | 1486353633.23729 | pgbench_accounts_pkey |        224641024

 2017-02-06 05:00:34.309094+01 | 1486353634.30909 | pgbench_branches_pkey |            16384
 2017-02-06 05:00:34.309094+01 | 1486353634.30909 | pgbench_tellers_pkey  |            40960
 2017-02-06 05:00:34.309094+01 | 1486353634.30909 | pgbench_accounts_pkey |        224641024

 2017-02-06 05:00:35.384832+01 | 1486353635.38483 | pgbench_branches_pkey |            16384
 2017-02-06 05:00:35.384832+01 | 1486353635.38483 | pgbench_tellers_pkey  |            40960
 2017-02-06 05:00:35.384832+01 | 1486353635.38483 | pgbench_accounts_pkey |        224641024

 2017-02-06 05:00:36.460189+01 | 1486353636.46019 | pgbench_branches_pkey |            16384
 2017-02-06 05:00:36.460189+01 | 1486353636.46019 | pgbench_tellers_pkey  |            40960
 2017-02-06 05:00:36.460189+01 | 1486353636.46019 | pgbench_accounts_pkey |        224641024

 2017-02-06 05:00:37.537619+01 | 1486353637.53762 | pgbench_branches_pkey |            16384
 2017-02-06 05:00:37.537619+01 | 1486353637.53762 | pgbench_tellers_pkey  |            40960
 2017-02-06 05:00:37.537619+01 | 1486353637.53762 | pgbench_accounts_pkey |        224641024

 2017-02-06 05:00:38.614832+01 | 1486353638.61483 | pgbench_branches_pkey |            16384
 2017-02-06 05:00:38.614832+01 | 1486353638.61483 | pgbench_tellers_pkey  |            40960
 2017-02-06 05:00:38.614832+01 | 1486353638.61483 | pgbench_accounts_pkey |        224641024

 2017-02-06 05:00:39.706069+01 | 1486353639.70607 | pgbench_branches_pkey |            16384
 2017-02-06 05:00:39.706069+01 | 1486353639.70607 | pgbench_tellers_pkey  |            40960
 2017-02-06 05:00:39.706069+01 | 1486353639.70607 | pgbench_accounts_pkey |        224641024

 2017-02-06 05:00:40.784317+01 | 1486353640.78432 | pgbench_branches_pkey |            16384
 2017-02-06 05:00:40.784317+01 | 1486353640.78432 | pgbench_tellers_pkey  |            40960
 2017-02-06 05:00:40.784317+01 | 1486353640.78432 | pgbench_accounts_pkey |        224641024

 2017-02-06 05:00:41.866108+01 | 1486353641.86611 | pgbench_branches_pkey |            16384
 2017-02-06 05:00:41.866108+01 | 1486353641.86611 | pgbench_tellers_pkey  |            40960
 2017-02-06 05:00:41.866108+01 | 1486353641.86611 | pgbench_accounts_pkey |        224641024

 2017-02-06 05:00:42.948991+01 | 1486353642.94899 | pgbench_branches_pkey |            16384
 2017-02-06 05:00:42.948991+01 | 1486353642.94899 | pgbench_tellers_pkey  |            40960
 2017-02-06 05:00:42.948991+01 | 1486353642.94899 | pgbench_accounts_pkey |        224641024

 2017-02-06 05:00:44.02161+01 | 1486353644.02161 | pgbench_branches_pkey |            16384
 2017-02-06 05:00:44.02161+01 | 1486353644.02161 | pgbench_tellers_pkey  |            40960
 2017-02-06 05:00:44.02161+01 | 1486353644.02161 | pgbench_accounts_pkey |        224641024

 2017-02-06 05:00:45.105961+01 | 1486353645.10596 | pgbench_branches_pkey |            16384
 2017-02-06 05:00:45.105961+01 | 1486353645.10596 | pgbench_tellers_pkey  |            40960
 2017-02-06 05:00:45.105961+01 | 1486353645.10596 | pgbench_accounts_pkey |        224641024

 2017-02-06 05:00:46.185075+01 | 1486353646.18508 | pgbench_branches_pkey |            16384
 2017-02-06 05:00:46.185075+01 | 1486353646.18508 | pgbench_tellers_pkey  |            40960
 2017-02-06 05:00:46.185075+01 | 1486353646.18508 | pgbench_accounts_pkey |        224641024

 2017-02-06 05:00:47.259567+01 | 1486353647.25957 | pgbench_branches_pkey |            16384
 2017-02-06 05:00:47.259567+01 | 1486353647.25957 | pgbench_tellers_pkey  |            40960
 2017-02-06 05:00:47.259567+01 | 1486353647.25957 | pgbench_accounts_pkey |        224641024

 2017-02-06 05:00:48.331306+01 | 1486353648.33131 | pgbench_branches_pkey |            16384
 2017-02-06 05:00:48.331306+01 | 1486353648.33131 | pgbench_tellers_pkey  |            40960
 2017-02-06 05:00:48.331306+01 | 1486353648.33131 | pgbench_accounts_pkey |        224641024

 2017-02-06 05:00:49.412416+01 | 1486353649.41242 | pgbench_branches_pkey |            16384
 2017-02-06 05:00:49.412416+01 | 1486353649.41242 | pgbench_tellers_pkey  |            40960
 2017-02-06 05:00:49.412416+01 | 1486353649.41242 | pgbench_accounts_pkey |        224641024

 2017-02-06 05:00:50.496255+01 | 1486353650.49625 | pgbench_branches_pkey |            16384
 2017-02-06 05:00:50.496255+01 | 1486353650.49625 | pgbench_tellers_pkey  |            40960
 2017-02-06 05:00:50.496255+01 | 1486353650.49625 | pgbench_accounts_pkey |        224641024

 2017-02-06 05:00:51.564578+01 | 1486353651.56458 | pgbench_branches_pkey |            16384
 2017-02-06 05:00:51.564578+01 | 1486353651.56458 | pgbench_tellers_pkey  |            40960
 2017-02-06 05:00:51.564578+01 | 1486353651.56458 | pgbench_accounts_pkey |        224641024

 2017-02-06 05:00:52.634438+01 | 1486353652.63444 | pgbench_branches_pkey |            16384
 2017-02-06 05:00:52.634438+01 | 1486353652.63444 | pgbench_tellers_pkey  |            40960
 2017-02-06 05:00:52.634438+01 | 1486353652.63444 | pgbench_accounts_pkey |        224641024

 2017-02-06 05:00:53.709068+01 | 1486353653.70907 | pgbench_branches_pkey |            16384
 2017-02-06 05:00:53.709068+01 | 1486353653.70907 | pgbench_tellers_pkey  |            40960
 2017-02-06 05:00:53.709068+01 | 1486353653.70907 | pgbench_accounts_pkey |        224641024

 2017-02-06 05:00:54.786876+01 | 1486353654.78688 | pgbench_branches_pkey |            16384
 2017-02-06 05:00:54.786876+01 | 1486353654.78688 | pgbench_tellers_pkey  |            40960
 2017-02-06 05:00:54.786876+01 | 1486353654.78688 | pgbench_accounts_pkey |        224641024

 2017-02-06 05:00:55.859113+01 | 1486353655.85911 | pgbench_branches_pkey |            16384
 2017-02-06 05:00:55.859113+01 | 1486353655.85911 | pgbench_tellers_pkey  |            40960
 2017-02-06 05:00:55.859113+01 | 1486353655.85911 | pgbench_accounts_pkey |        224641024

 2017-02-06 05:00:56.938498+01 | 1486353656.9385 | pgbench_branches_pkey |            16384
 2017-02-06 05:00:56.938498+01 | 1486353656.9385 | pgbench_tellers_pkey  |            40960
 2017-02-06 05:00:56.938498+01 | 1486353656.9385 | pgbench_accounts_pkey |        224641024

 2017-02-06 05:00:58.014881+01 | 1486353658.01488 | pgbench_branches_pkey |            16384
 2017-02-06 05:00:58.014881+01 | 1486353658.01488 | pgbench_tellers_pkey  |            40960
 2017-02-06 05:00:58.014881+01 | 1486353658.01488 | pgbench_accounts_pkey |        224641024

 2017-02-06 05:00:59.086918+01 | 1486353659.08692 | pgbench_branches_pkey |            16384
 2017-02-06 05:00:59.086918+01 | 1486353659.08692 | pgbench_tellers_pkey  |            40960
 2017-02-06 05:00:59.086918+01 | 1486353659.08692 | pgbench_accounts_pkey |        224641024

 2017-02-06 05:01:00.160513+01 | 1486353660.16051 | pgbench_branches_pkey |            16384
 2017-02-06 05:01:00.160513+01 | 1486353660.16051 | pgbench_tellers_pkey  |            40960
 2017-02-06 05:01:00.160513+01 | 1486353660.16051 | pgbench_accounts_pkey |        224641024

 2017-02-06 05:01:01.240134+01 | 1486353661.24013 | pgbench_branches_pkey |            16384
 2017-02-06 05:01:01.240134+01 | 1486353661.24013 | pgbench_tellers_pkey  |            40960
 2017-02-06 05:01:01.240134+01 | 1486353661.24013 | pgbench_accounts_pkey |        224641024

 2017-02-06 05:01:02.320207+01 | 1486353662.32021 | pgbench_branches_pkey |            16384
 2017-02-06 05:01:02.320207+01 | 1486353662.32021 | pgbench_tellers_pkey  |            40960
 2017-02-06 05:01:02.320207+01 | 1486353662.32021 | pgbench_accounts_pkey |        224641024

 2017-02-06 05:01:03.401893+01 | 1486353663.40189 | pgbench_branches_pkey |            16384
 2017-02-06 05:01:03.401893+01 | 1486353663.40189 | pgbench_tellers_pkey  |            40960
 2017-02-06 05:01:03.401893+01 | 1486353663.40189 | pgbench_accounts_pkey |        224641024

 2017-02-06 05:01:04.48108+01 | 1486353664.48108 | pgbench_branches_pkey |            16384
 2017-02-06 05:01:04.48108+01 | 1486353664.48108 | pgbench_tellers_pkey  |            40960
 2017-02-06 05:01:04.48108+01 | 1486353664.48108 | pgbench_accounts_pkey |        224641024

 2017-02-06 05:01:05.55937+01 | 1486353665.55937 | pgbench_branches_pkey |            16384
 2017-02-06 05:01:05.55937+01 | 1486353665.55937 | pgbench_tellers_pkey  |            40960
 2017-02-06 05:01:05.55937+01 | 1486353665.55937 | pgbench_accounts_pkey |        224641024

 2017-02-06 05:01:06.635675+01 | 1486353666.63567 | pgbench_branches_pkey |            16384
 2017-02-06 05:01:06.635675+01 | 1486353666.63567 | pgbench_tellers_pkey  |            40960
 2017-02-06 05:01:06.635675+01 | 1486353666.63567 | pgbench_accounts_pkey |        224641024

 2017-02-06 05:01:07.719232+01 | 1486353667.71923 | pgbench_branches_pkey |            16384
 2017-02-06 05:01:07.719232+01 | 1486353667.71923 | pgbench_tellers_pkey  |            40960
 2017-02-06 05:01:07.719232+01 | 1486353667.71923 | pgbench_accounts_pkey |        224641024

 2017-02-06 05:01:08.798313+01 | 1486353668.79831 | pgbench_branches_pkey |            16384
 2017-02-06 05:01:08.798313+01 | 1486353668.79831 | pgbench_tellers_pkey  |            40960
 2017-02-06 05:01:08.798313+01 | 1486353668.79831 | pgbench_accounts_pkey |        224641024

 2017-02-06 05:01:09.879218+01 | 1486353669.87922 | pgbench_branches_pkey |            16384
 2017-02-06 05:01:09.879218+01 | 1486353669.87922 | pgbench_tellers_pkey  |            40960
 2017-02-06 05:01:09.879218+01 | 1486353669.87922 | pgbench_accounts_pkey |        224641024

 2017-02-06 05:01:10.956924+01 | 1486353670.95692 | pgbench_branches_pkey |            16384
 2017-02-06 05:01:10.956924+01 | 1486353670.95692 | pgbench_tellers_pkey  |            40960
 2017-02-06 05:01:10.956924+01 | 1486353670.95692 | pgbench_accounts_pkey |        224641024

 2017-02-06 05:01:12.03511+01 | 1486353672.03511 | pgbench_branches_pkey |            16384
 2017-02-06 05:01:12.03511+01 | 1486353672.03511 | pgbench_tellers_pkey  |            40960
 2017-02-06 05:01:12.03511+01 | 1486353672.03511 | pgbench_accounts_pkey |        224641024

 2017-02-06 05:01:13.109428+01 | 1486353673.10943 | pgbench_branches_pkey |            16384
 2017-02-06 05:01:13.109428+01 | 1486353673.10943 | pgbench_tellers_pkey  |            40960
 2017-02-06 05:01:13.109428+01 | 1486353673.10943 | pgbench_accounts_pkey |        224641024

 2017-02-06 05:01:14.188721+01 | 1486353674.18872 | pgbench_branches_pkey |            16384
 2017-02-06 05:01:14.188721+01 | 1486353674.18872 | pgbench_tellers_pkey  |            40960
 2017-02-06 05:01:14.188721+01 | 1486353674.18872 | pgbench_accounts_pkey |        224641024

 2017-02-06 05:01:15.264646+01 | 1486353675.26465 | pgbench_branches_pkey |            16384
 2017-02-06 05:01:15.264646+01 | 1486353675.26465 | pgbench_tellers_pkey  |            40960
 2017-02-06 05:01:15.264646+01 | 1486353675.26465 | pgbench_accounts_pkey |        224641024

 2017-02-06 05:01:16.346725+01 | 1486353676.34672 | pgbench_branches_pkey |            16384
 2017-02-06 05:01:16.346725+01 | 1486353676.34672 | pgbench_tellers_pkey  |            40960
 2017-02-06 05:01:16.346725+01 | 1486353676.34672 | pgbench_accounts_pkey |        224641024

 2017-02-06 05:01:17.429065+01 | 1486353677.42906 | pgbench_branches_pkey |            16384
 2017-02-06 05:01:17.429065+01 | 1486353677.42906 | pgbench_tellers_pkey  |            40960
 2017-02-06 05:01:17.429065+01 | 1486353677.42906 | pgbench_accounts_pkey |        224641024

 2017-02-06 05:01:18.504855+01 | 1486353678.50485 | pgbench_branches_pkey |            16384
 2017-02-06 05:01:18.504855+01 | 1486353678.50485 | pgbench_tellers_pkey  |            40960
 2017-02-06 05:01:18.504855+01 | 1486353678.50485 | pgbench_accounts_pkey |        224641024

 2017-02-06 05:01:19.583061+01 | 1486353679.58306 | pgbench_branches_pkey |            16384
 2017-02-06 05:01:19.583061+01 | 1486353679.58306 | pgbench_tellers_pkey  |            40960
 2017-02-06 05:01:19.583061+01 | 1486353679.58306 | pgbench_accounts_pkey |        224641024

 2017-02-06 05:01:20.661815+01 | 1486353680.66181 | pgbench_branches_pkey |            16384
 2017-02-06 05:01:20.661815+01 | 1486353680.66181 | pgbench_tellers_pkey  |            40960
 2017-02-06 05:01:20.661815+01 | 1486353680.66181 | pgbench_accounts_pkey |        224641024

 2017-02-06 05:01:21.745972+01 | 1486353681.74597 | pgbench_branches_pkey |            16384
 2017-02-06 05:01:21.745972+01 | 1486353681.74597 | pgbench_tellers_pkey  |            40960
 2017-02-06 05:01:21.745972+01 | 1486353681.74597 | pgbench_accounts_pkey |        224641024

 2017-02-06 05:01:22.825561+01 | 1486353682.82556 | pgbench_branches_pkey |            16384
 2017-02-06 05:01:22.825561+01 | 1486353682.82556 | pgbench_tellers_pkey  |            40960
 2017-02-06 05:01:22.825561+01 | 1486353682.82556 | pgbench_accounts_pkey |        224641024

 2017-02-06 05:01:23.893879+01 | 1486353683.89388 | pgbench_branches_pkey |            16384
 2017-02-06 05:01:23.893879+01 | 1486353683.89388 | pgbench_tellers_pkey  |            40960
 2017-02-06 05:01:23.893879+01 | 1486353683.89388 | pgbench_accounts_pkey |        224641024

 2017-02-06 05:01:24.975675+01 | 1486353684.97568 | pgbench_branches_pkey |            16384
 2017-02-06 05:01:24.975675+01 | 1486353684.97568 | pgbench_tellers_pkey  |            40960
 2017-02-06 05:01:24.975675+01 | 1486353684.97568 | pgbench_accounts_pkey |        224641024

 2017-02-06 05:01:26.051997+01 | 1486353686.052 | pgbench_branches_pkey |            16384
 2017-02-06 05:01:26.051997+01 | 1486353686.052 | pgbench_tellers_pkey  |            40960
 2017-02-06 05:01:26.051997+01 | 1486353686.052 | pgbench_accounts_pkey |        224641024

 2017-02-06 05:01:27.129402+01 | 1486353687.1294 | pgbench_branches_pkey |            16384
 2017-02-06 05:01:27.129402+01 | 1486353687.1294 | pgbench_tellers_pkey  |            40960
 2017-02-06 05:01:27.129402+01 | 1486353687.1294 | pgbench_accounts_pkey |        224641024

 2017-02-06 05:01:28.209266+01 | 1486353688.20927 | pgbench_branches_pkey |            16384
 2017-02-06 05:01:28.209266+01 | 1486353688.20927 | pgbench_tellers_pkey  |            40960
 2017-02-06 05:01:28.209266+01 | 1486353688.20927 | pgbench_accounts_pkey |        224641024

 2017-02-06 05:01:29.284307+01 | 1486353689.28431 | pgbench_branches_pkey |            16384
 2017-02-06 05:01:29.284307+01 | 1486353689.28431 | pgbench_tellers_pkey  |            40960
 2017-02-06 05:01:29.284307+01 | 1486353689.28431 | pgbench_accounts_pkey |        224641024

 2017-02-06 05:01:30.360025+01 | 1486353690.36002 | pgbench_branches_pkey |            16384
 2017-02-06 05:01:30.360025+01 | 1486353690.36002 | pgbench_tellers_pkey  |            40960
 2017-02-06 05:01:30.360025+01 | 1486353690.36002 | pgbench_accounts_pkey |        224641024

 2017-02-06 05:01:31.436749+01 | 1486353691.43675 | pgbench_branches_pkey |            16384
 2017-02-06 05:01:31.436749+01 | 1486353691.43675 | pgbench_tellers_pkey  |            40960
 2017-02-06 05:01:31.436749+01 | 1486353691.43675 | pgbench_accounts_pkey |        224641024

 2017-02-06 05:01:32.513723+01 | 1486353692.51372 | pgbench_branches_pkey |            16384
 2017-02-06 05:01:32.513723+01 | 1486353692.51372 | pgbench_tellers_pkey  |            40960
 2017-02-06 05:01:32.513723+01 | 1486353692.51372 | pgbench_accounts_pkey |        224641024

 2017-02-06 05:01:33.592873+01 | 1486353693.59287 | pgbench_branches_pkey |            16384
 2017-02-06 05:01:33.592873+01 | 1486353693.59287 | pgbench_tellers_pkey  |            40960
 2017-02-06 05:01:33.592873+01 | 1486353693.59287 | pgbench_accounts_pkey |        224641024

 2017-02-06 05:01:34.672195+01 | 1486353694.67219 | pgbench_branches_pkey |            16384
 2017-02-06 05:01:34.672195+01 | 1486353694.67219 | pgbench_tellers_pkey  |            40960
 2017-02-06 05:01:34.672195+01 | 1486353694.67219 | pgbench_accounts_pkey |        224641024

 2017-02-06 05:01:35.746668+01 | 1486353695.74667 | pgbench_branches_pkey |            16384
 2017-02-06 05:01:35.746668+01 | 1486353695.74667 | pgbench_tellers_pkey  |            40960
 2017-02-06 05:01:35.746668+01 | 1486353695.74667 | pgbench_accounts_pkey |        224641024

 2017-02-06 05:01:36.831698+01 | 1486353696.8317 | pgbench_branches_pkey |            16384
 2017-02-06 05:01:36.831698+01 | 1486353696.8317 | pgbench_tellers_pkey  |            40960
 2017-02-06 05:01:36.831698+01 | 1486353696.8317 | pgbench_accounts_pkey |        224641024

 2017-02-06 05:01:37.900795+01 | 1486353697.90079 | pgbench_branches_pkey |            16384
 2017-02-06 05:01:37.900795+01 | 1486353697.90079 | pgbench_tellers_pkey  |            40960
 2017-02-06 05:01:37.900795+01 | 1486353697.90079 | pgbench_accounts_pkey |        224641024

 2017-02-06 05:01:38.98136+01 | 1486353698.98136 | pgbench_branches_pkey |            16384
 2017-02-06 05:01:38.98136+01 | 1486353698.98136 | pgbench_tellers_pkey  |            40960
 2017-02-06 05:01:38.98136+01 | 1486353698.98136 | pgbench_accounts_pkey |        224641024

 2017-02-06 05:01:40.059662+01 | 1486353700.05966 | pgbench_branches_pkey |            16384
 2017-02-06 05:01:40.059662+01 | 1486353700.05966 | pgbench_tellers_pkey  |            40960
 2017-02-06 05:01:40.059662+01 | 1486353700.05966 | pgbench_accounts_pkey |        224641024

 2017-02-06 05:01:41.131991+01 | 1486353701.13199 | pgbench_branches_pkey |            16384
 2017-02-06 05:01:41.131991+01 | 1486353701.13199 | pgbench_tellers_pkey  |            40960
 2017-02-06 05:01:41.131991+01 | 1486353701.13199 | pgbench_accounts_pkey |        224641024

 2017-02-06 05:01:42.199493+01 | 1486353702.19949 | pgbench_branches_pkey |            16384
 2017-02-06 05:01:42.199493+01 | 1486353702.19949 | pgbench_tellers_pkey  |            40960
 2017-02-06 05:01:42.199493+01 | 1486353702.19949 | pgbench_accounts_pkey |        224641024

 2017-02-06 05:01:43.278662+01 | 1486353703.27866 | pgbench_branches_pkey |            16384
 2017-02-06 05:01:43.278662+01 | 1486353703.27866 | pgbench_tellers_pkey  |            40960
 2017-02-06 05:01:43.278662+01 | 1486353703.27866 | pgbench_accounts_pkey |        224641024

 2017-02-06 05:01:44.357101+01 | 1486353704.3571 | pgbench_branches_pkey |            16384
 2017-02-06 05:01:44.357101+01 | 1486353704.3571 | pgbench_tellers_pkey  |            40960
 2017-02-06 05:01:44.357101+01 | 1486353704.3571 | pgbench_accounts_pkey |        224641024

 2017-02-06 05:01:45.430774+01 | 1486353705.43077 | pgbench_branches_pkey |            16384
 2017-02-06 05:01:45.430774+01 | 1486353705.43077 | pgbench_tellers_pkey  |            40960
 2017-02-06 05:01:45.430774+01 | 1486353705.43077 | pgbench_accounts_pkey |        224641024

 2017-02-06 05:01:46.510985+01 | 1486353706.51098 | pgbench_branches_pkey |            16384
 2017-02-06 05:01:46.510985+01 | 1486353706.51098 | pgbench_tellers_pkey  |            40960
 2017-02-06 05:01:46.510985+01 | 1486353706.51098 | pgbench_accounts_pkey |        224641024

 2017-02-06 05:01:47.5892+01 | 1486353707.5892 | pgbench_branches_pkey |            16384
 2017-02-06 05:01:47.5892+01 | 1486353707.5892 | pgbench_tellers_pkey  |            40960
 2017-02-06 05:01:47.5892+01 | 1486353707.5892 | pgbench_accounts_pkey |        224641024

 2017-02-06 05:01:48.670616+01 | 1486353708.67062 | pgbench_branches_pkey |            16384
 2017-02-06 05:01:48.670616+01 | 1486353708.67062 | pgbench_tellers_pkey  |            40960
 2017-02-06 05:01:48.670616+01 | 1486353708.67062 | pgbench_accounts_pkey |        224641024

 2017-02-06 05:01:49.750712+01 | 1486353709.75071 | pgbench_branches_pkey |            16384
 2017-02-06 05:01:49.750712+01 | 1486353709.75071 | pgbench_tellers_pkey  |            40960
 2017-02-06 05:01:49.750712+01 | 1486353709.75071 | pgbench_accounts_pkey |        224641024

 2017-02-06 05:01:50.830715+01 | 1486353710.83071 | pgbench_branches_pkey |            16384
 2017-02-06 05:01:50.830715+01 | 1486353710.83071 | pgbench_tellers_pkey  |            40960
 2017-02-06 05:01:50.830715+01 | 1486353710.83071 | pgbench_accounts_pkey |        224641024

 2017-02-06 05:01:51.915922+01 | 1486353711.91592 | pgbench_branches_pkey |            16384
 2017-02-06 05:01:51.915922+01 | 1486353711.91592 | pgbench_tellers_pkey  |            40960
 2017-02-06 05:01:51.915922+01 | 1486353711.91592 | pgbench_accounts_pkey |        224641024

 2017-02-06 05:01:52.990539+01 | 1486353712.99054 | pgbench_branches_pkey |            16384
 2017-02-06 05:01:52.990539+01 | 1486353712.99054 | pgbench_tellers_pkey  |            40960
 2017-02-06 05:01:52.990539+01 | 1486353712.99054 | pgbench_accounts_pkey |        224641024

 2017-02-06 05:01:54.065282+01 | 1486353714.06528 | pgbench_branches_pkey |            16384
 2017-02-06 05:01:54.065282+01 | 1486353714.06528 | pgbench_tellers_pkey  |            40960
 2017-02-06 05:01:54.065282+01 | 1486353714.06528 | pgbench_accounts_pkey |        224641024

 2017-02-06 05:01:55.145623+01 | 1486353715.14562 | pgbench_branches_pkey |            16384
 2017-02-06 05:01:55.145623+01 | 1486353715.14562 | pgbench_tellers_pkey  |            40960
 2017-02-06 05:01:55.145623+01 | 1486353715.14562 | pgbench_accounts_pkey |        224641024

 2017-02-06 05:01:56.227589+01 | 1486353716.22759 | pgbench_branches_pkey |            16384
 2017-02-06 05:01:56.227589+01 | 1486353716.22759 | pgbench_tellers_pkey  |            40960
 2017-02-06 05:01:56.227589+01 | 1486353716.22759 | pgbench_accounts_pkey |        224641024

 2017-02-06 05:01:57.319925+01 | 1486353717.31993 | pgbench_branches_pkey |            16384
 2017-02-06 05:01:57.319925+01 | 1486353717.31993 | pgbench_tellers_pkey  |            40960
 2017-02-06 05:01:57.319925+01 | 1486353717.31993 | pgbench_accounts_pkey |        224641024

 2017-02-06 05:01:58.40319+01 | 1486353718.40319 | pgbench_branches_pkey |            16384
 2017-02-06 05:01:58.40319+01 | 1486353718.40319 | pgbench_tellers_pkey  |            40960
 2017-02-06 05:01:58.40319+01 | 1486353718.40319 | pgbench_accounts_pkey |        224641024

 2017-02-06 05:01:59.477012+01 | 1486353719.47701 | pgbench_branches_pkey |            16384
 2017-02-06 05:01:59.477012+01 | 1486353719.47701 | pgbench_tellers_pkey  |            40960
 2017-02-06 05:01:59.477012+01 | 1486353719.47701 | pgbench_accounts_pkey |        224641024

 2017-02-06 05:02:00.547964+01 | 1486353720.54796 | pgbench_branches_pkey |            16384
 2017-02-06 05:02:00.547964+01 | 1486353720.54796 | pgbench_tellers_pkey  |            40960
 2017-02-06 05:02:00.547964+01 | 1486353720.54796 | pgbench_accounts_pkey |        224641024

 2017-02-06 05:02:01.628253+01 | 1486353721.62825 | pgbench_branches_pkey |            16384
 2017-02-06 05:02:01.628253+01 | 1486353721.62825 | pgbench_tellers_pkey  |            40960
 2017-02-06 05:02:01.628253+01 | 1486353721.62825 | pgbench_accounts_pkey |        224641024

 2017-02-06 05:02:02.703927+01 | 1486353722.70393 | pgbench_branches_pkey |            16384
 2017-02-06 05:02:02.703927+01 | 1486353722.70393 | pgbench_tellers_pkey  |            40960
 2017-02-06 05:02:02.703927+01 | 1486353722.70393 | pgbench_accounts_pkey |        224641024

 2017-02-06 05:02:03.787192+01 | 1486353723.78719 | pgbench_branches_pkey |            16384
 2017-02-06 05:02:03.787192+01 | 1486353723.78719 | pgbench_tellers_pkey  |            40960
 2017-02-06 05:02:03.787192+01 | 1486353723.78719 | pgbench_accounts_pkey |        224641024

 2017-02-06 05:02:04.86201+01 | 1486353724.86201 | pgbench_branches_pkey |            16384
 2017-02-06 05:02:04.86201+01 | 1486353724.86201 | pgbench_tellers_pkey  |            40960
 2017-02-06 05:02:04.86201+01 | 1486353724.86201 | pgbench_accounts_pkey |        224641024

 2017-02-06 05:02:05.935588+01 | 1486353725.93559 | pgbench_branches_pkey |            16384
 2017-02-06 05:02:05.935588+01 | 1486353725.93559 | pgbench_tellers_pkey  |            40960
 2017-02-06 05:02:05.935588+01 | 1486353725.93559 | pgbench_accounts_pkey |        224641024

 2017-02-06 05:02:07.01596+01 | 1486353727.01596 | pgbench_branches_pkey |            16384
 2017-02-06 05:02:07.01596+01 | 1486353727.01596 | pgbench_tellers_pkey  |            40960
 2017-02-06 05:02:07.01596+01 | 1486353727.01596 | pgbench_accounts_pkey |        224641024

 2017-02-06 05:02:08.082849+01 | 1486353728.08285 | pgbench_branches_pkey |            16384
 2017-02-06 05:02:08.082849+01 | 1486353728.08285 | pgbench_tellers_pkey  |            40960
 2017-02-06 05:02:08.082849+01 | 1486353728.08285 | pgbench_accounts_pkey |        224641024

 2017-02-06 05:02:09.157157+01 | 1486353729.15716 | pgbench_branches_pkey |            16384
 2017-02-06 05:02:09.157157+01 | 1486353729.15716 | pgbench_tellers_pkey  |            40960
 2017-02-06 05:02:09.157157+01 | 1486353729.15716 | pgbench_accounts_pkey |        224641024

 2017-02-06 05:02:10.242968+01 | 1486353730.24297 | pgbench_branches_pkey |            16384
 2017-02-06 05:02:10.242968+01 | 1486353730.24297 | pgbench_tellers_pkey  |            40960
 2017-02-06 05:02:10.242968+01 | 1486353730.24297 | pgbench_accounts_pkey |        224641024

 2017-02-06 05:02:11.317487+01 | 1486353731.31749 | pgbench_branches_pkey |            16384
 2017-02-06 05:02:11.317487+01 | 1486353731.31749 | pgbench_tellers_pkey  |            40960
 2017-02-06 05:02:11.317487+01 | 1486353731.31749 | pgbench_accounts_pkey |        224641024

 2017-02-06 05:02:12.400639+01 | 1486353732.40064 | pgbench_branches_pkey |            16384
 2017-02-06 05:02:12.400639+01 | 1486353732.40064 | pgbench_tellers_pkey  |            40960
 2017-02-06 05:02:12.400639+01 | 1486353732.40064 | pgbench_accounts_pkey |        224641024

 2017-02-06 05:02:13.479189+01 | 1486353733.47919 | pgbench_branches_pkey |            16384
 2017-02-06 05:02:13.479189+01 | 1486353733.47919 | pgbench_tellers_pkey  |            40960
 2017-02-06 05:02:13.479189+01 | 1486353733.47919 | pgbench_accounts_pkey |        224641024

 2017-02-06 05:02:14.555051+01 | 1486353734.55505 | pgbench_branches_pkey |            16384
 2017-02-06 05:02:14.555051+01 | 1486353734.55505 | pgbench_tellers_pkey  |            40960
 2017-02-06 05:02:14.555051+01 | 1486353734.55505 | pgbench_accounts_pkey |        224641024

 2017-02-06 05:02:15.635563+01 | 1486353735.63556 | pgbench_branches_pkey |            16384
 2017-02-06 05:02:15.635563+01 | 1486353735.63556 | pgbench_tellers_pkey  |            40960
 2017-02-06 05:02:15.635563+01 | 1486353735.63556 | pgbench_accounts_pkey |        224641024

 2017-02-06 05:02:16.709904+01 | 1486353736.7099 | pgbench_branches_pkey |            16384
 2017-02-06 05:02:16.709904+01 | 1486353736.7099 | pgbench_tellers_pkey  |            40960
 2017-02-06 05:02:16.709904+01 | 1486353736.7099 | pgbench_accounts_pkey |        224641024

 2017-02-06 05:02:17.793474+01 | 1486353737.79347 | pgbench_branches_pkey |            16384
 2017-02-06 05:02:17.793474+01 | 1486353737.79347 | pgbench_tellers_pkey  |            40960
 2017-02-06 05:02:17.793474+01 | 1486353737.79347 | pgbench_accounts_pkey |        224641024

