 2017-02-04 14:16:27.973063+01 | 1486214187.97306 | 21/E1918028              |          145518329896

 2017-02-04 14:16:29.070777+01 | 1486214189.07078 | 21/EDB68960              |          145722083680

 2017-02-04 14:16:30.150206+01 | 1486214190.15021 | 21/F66CE448              |          145868252232

 2017-02-04 14:16:31.230227+01 | 1486214191.23023 | 21/FD2F7770              |          145981667184

 2017-02-04 14:16:32.304748+01 | 1486214192.30475 | 22/2614CF8               |          146068819192

 2017-02-04 14:16:33.376202+01 | 1486214193.3762 | 22/718A900               |          146147944704

 2017-02-04 14:16:34.445259+01 | 1486214194.44526 | 22/B094AE8               |          146214046440

 2017-02-04 14:16:35.507207+01 | 1486214195.50721 | 22/E6C5990               |          146270869904

 2017-02-04 14:16:36.591611+01 | 1486214196.59161 | 22/11D52338              |          146328068920

 2017-02-04 14:16:37.671001+01 | 1486214197.671 | 22/155AB820              |          146387154976

 2017-02-04 14:16:38.747092+01 | 1486214198.74709 | 22/18A9F620              |          146442679840

 2017-02-04 14:16:39.823715+01 | 1486214199.82371 | 22/1BEAE4F0              |          146497266928

 2017-02-04 14:16:40.895654+01 | 1486214200.89565 | 22/1EE4DDF8              |          146547203576

 2017-02-04 14:16:41.972153+01 | 1486214201.97215 | 22/21C67308              |          146595541768

 2017-02-04 14:16:43.052322+01 | 1486214203.05232 | 22/24AEE000              |          146644328448

 2017-02-04 14:16:44.125122+01 | 1486214204.12512 | 22/2767D858              |          146690005080

 2017-02-04 14:16:45.198662+01 | 1486214205.19866 | 22/2A1864A8              |          146735129768

 2017-02-04 14:16:46.271409+01 | 1486214206.27141 | 22/2CBDB6D8              |          146779518680

 2017-02-04 14:16:47.349098+01 | 1486214207.3491 | 22/2F525860              |          146822813792

 2017-02-04 14:16:48.430939+01 | 1486214208.43094 | 22/31E20D18              |          146865786136

 2017-02-04 14:16:49.504492+01 | 1486214209.50449 | 22/342E69D0              |          146904345040

 2017-02-04 14:16:50.581282+01 | 1486214210.58128 | 22/367B0748              |          146942920520

 2017-02-04 14:16:51.65952+01 | 1486214211.65952 | 22/38C5FAC0              |          146981386944

 2017-02-04 14:16:52.738377+01 | 1486214212.73838 | 22/3AD42F60              |          147015872352

 2017-02-04 14:16:53.813079+01 | 1486214213.81308 | 22/3C9F99D8              |          147045980632

 2017-02-04 14:16:54.892975+01 | 1486214214.89298 | 22/3E271CB0              |          147071638704

 2017-02-04 14:16:55.967541+01 | 1486214215.96754 | 22/4020FD40              |          147104791872

 2017-02-04 14:16:57.047823+01 | 1486214217.04782 | 22/41F2A818              |          147135309848

 2017-02-04 14:16:58.129554+01 | 1486214218.12955 | 22/435EDA30              |          147159177776

 2017-02-04 14:16:59.208891+01 | 1486214219.20889 | 22/44D9AAA8              |          147184003752

 2017-02-04 14:17:00.282065+01 | 1486214220.28206 | 22/46571DC0              |          147209002432

 2017-02-04 14:17:01.353073+01 | 1486214221.35307 | 22/47623AB8              |          147226507960

 2017-02-04 14:17:02.430179+01 | 1486214222.43018 | 22/48643328              |          147243414312

 2017-02-04 14:17:03.512306+01 | 1486214223.51231 | 22/4954E180              |          147259187584

 2017-02-04 14:17:04.585647+01 | 1486214224.58565 | 22/4A50DF88              |          147275702152

 2017-02-04 14:17:05.660089+01 | 1486214225.66009 | 22/4B549208              |          147292721672

 2017-02-04 14:17:06.742571+01 | 1486214226.74257 | 22/4C6005E8              |          147310249448

 2017-02-04 14:17:07.823338+01 | 1486214227.82334 | 22/4D660460              |          147327419488

 2017-02-04 14:17:08.901497+01 | 1486214228.9015 | 22/4E6CD2F8              |          147344642808

 2017-02-04 14:17:09.983621+01 | 1486214229.98362 | 22/4F5E89C0              |          147360483776

 2017-02-04 14:17:11.06156+01 | 1486214231.06156 | 22/5055DBF8              |          147376692216

 2017-02-04 14:17:12.136503+01 | 1486214232.1365 | 22/5148BFE0              |          147392610272

 2017-02-04 14:17:13.210041+01 | 1486214233.21004 | 22/52463FB0              |          147409223600

 2017-02-04 14:17:14.291341+01 | 1486214234.29134 | 22/534C96F8              |          147426416376

 2017-02-04 14:17:15.366223+01 | 1486214235.36622 | 22/54521110              |          147443552528

 2017-02-04 14:17:16.442395+01 | 1486214236.44239 | 22/55510B18              |          147460262680

 2017-02-04 14:17:17.520527+01 | 1486214237.52053 | 22/56485668              |          147476469352

 2017-02-04 14:17:18.597057+01 | 1486214238.59706 | 22/57469288              |          147493130888

 2017-02-04 14:17:19.67438+01 | 1486214239.67438 | 22/5847F0D8              |          147509997784

 2017-02-04 14:17:20.749926+01 | 1486214240.74993 | 22/59424D50              |          147526405456

 2017-02-04 14:17:21.828003+01 | 1486214241.828 | 22/5A376540              |          147542467904

 2017-02-04 14:17:22.906311+01 | 1486214242.90631 | 22/5B34FFD0              |          147559088080

 2017-02-04 14:17:23.992354+01 | 1486214243.99235 | 22/5C24D5D8              |          147574805976

 2017-02-04 14:17:25.073002+01 | 1486214245.073 | 22/5D24C1A8              |          147591578024

 2017-02-04 14:17:26.144822+01 | 1486214246.14482 | 22/5E2155C0              |          147608131008

 2017-02-04 14:17:27.225209+01 | 1486214247.22521 | 22/5F25CF30              |          147625201456

 2017-02-04 14:17:28.29875+01 | 1486214248.29875 | 22/602C3600              |          147642398208

 2017-02-04 14:17:29.372067+01 | 1486214249.37207 | 22/612C9728              |          147659200296

 2017-02-04 14:17:30.448232+01 | 1486214250.44823 | 22/622674D8              |          147675575512

 2017-02-04 14:17:31.524532+01 | 1486214251.52453 | 22/632C3E38              |          147692731960

 2017-02-04 14:17:32.59806+01 | 1486214252.59806 | 22/6430ABA0              |          147709799328

 2017-02-04 14:17:33.672746+01 | 1486214253.67275 | 22/651F1438              |          147725423672

 2017-02-04 14:17:34.752789+01 | 1486214254.75279 | 22/66233E38              |          147742473784

 2017-02-04 14:17:35.829228+01 | 1486214255.82923 | 22/6722AC08              |          147759213576

 2017-02-04 14:17:36.902624+01 | 1486214256.90262 | 22/680C5B98              |          147774528408

 2017-02-04 14:17:37.972492+01 | 1486214257.97249 | 22/690F70B0              |          147791507632

 2017-02-04 14:17:39.047376+01 | 1486214259.04738 | 22/6A0A7430              |          147807958064

 2017-02-04 14:17:40.130892+01 | 1486214260.13089 | 22/6B21B0A8              |          147826258088

 2017-02-04 14:17:41.207022+01 | 1486214261.20702 | 22/6C332CF8              |          147844181240

 2017-02-04 14:17:42.286482+01 | 1486214262.28648 | 22/6D55BF70              |          147863224176

 2017-02-04 14:17:43.368587+01 | 1486214263.36859 | 22/6E797FF0              |          147882344432

 2017-02-04 14:17:44.446552+01 | 1486214264.44655 | 22/6FA46728              |          147901933352

 2017-02-04 14:17:45.525027+01 | 1486214265.52503 | 22/70CDDB00              |          147921427200

 2017-02-04 14:17:46.606138+01 | 1486214266.60614 | 22/71FC81D0              |          147941261776

 2017-02-04 14:17:47.686072+01 | 1486214267.68607 | 22/73058FB0              |          147958632368

 2017-02-04 14:17:48.759333+01 | 1486214268.75933 | 22/740C5D60              |          147975855456

 2017-02-04 14:17:49.829249+01 | 1486214269.82925 | 22/7528AA20              |          147994487328

 2017-02-04 14:17:50.905932+01 | 1486214270.90593 | 22/764A8C38              |          148013485112

 2017-02-04 14:17:51.983324+01 | 1486214271.98332 | 22/776053F0              |          148031689712

 2017-02-04 14:17:53.055893+01 | 1486214273.05589 | 22/7862C0B0              |          148048625840

 2017-02-04 14:17:54.137421+01 | 1486214274.13742 | 22/796B7570              |          148065973616

 2017-02-04 14:17:55.21509+01 | 1486214275.21509 | 22/7A70F7E0              |          148083111904

 2017-02-04 14:17:56.298732+01 | 1486214276.29873 | 22/7B734030              |          148100038704

 2017-02-04 14:17:57.370883+01 | 1486214277.37088 | 22/7C74F100              |          148116926720

 2017-02-04 14:17:58.45915+01 | 1486214278.45915 | 22/7D77D850              |          148133894224

 2017-02-04 14:17:59.532644+01 | 1486214279.53264 | 22/7E8136D0              |          148151285456

 2017-02-04 14:18:00.612443+01 | 1486214280.61244 | 22/7F88EE00              |          148168568320

 2017-02-04 14:18:01.693332+01 | 1486214281.69333 | 22/8090DB58              |          148185865048

 2017-02-04 14:18:02.771341+01 | 1486214282.77134 | 22/81960768              |          148202981224

 2017-02-04 14:18:03.845688+01 | 1486214283.84569 | 22/82957480              |          148219720832

 2017-02-04 14:18:04.927965+01 | 1486214284.92796 | 22/83757EB0              |          148234403504

 2017-02-04 14:18:06.001137+01 | 1486214286.00114 | 22/84779C00              |          148251319296

 2017-02-04 14:18:07.078123+01 | 1486214287.07812 | 22/857CCEC8              |          148268437192

 2017-02-04 14:18:08.156213+01 | 1486214288.15621 | 22/867B7CA0              |          148285128680

 2017-02-04 14:18:09.233866+01 | 1486214289.23387 | 22/8770A5A0              |          148301194656

 2017-02-04 14:18:10.311108+01 | 1486214290.31111 | 22/886F5EE8              |          148317888232

 2017-02-04 14:18:11.389655+01 | 1486214291.38966 | 22/89732B98              |          148334914456

 2017-02-04 14:18:12.465959+01 | 1486214292.46596 | 22/8A704F98              |          148351504280

 2017-02-04 14:18:13.54295+01 | 1486214293.54295 | 22/8B70B478              |          148368307320

 2017-02-04 14:18:14.619047+01 | 1486214294.61905 | 22/8C6B1678              |          148384716408

 2017-02-04 14:18:15.69811+01 | 1486214295.69811 | 22/8D725130              |          148401967408

 2017-02-04 14:18:16.778132+01 | 1486214296.77813 | 22/8E7332A8              |          148418802344

 2017-02-04 14:18:17.870505+01 | 1486214297.87051 | 22/8F5EA810              |          148434233360

 2017-02-04 14:18:18.955503+01 | 1486214298.9555 | 22/9055BEB0              |          148450426544

 2017-02-04 14:18:20.040333+01 | 1486214300.04033 | 22/915292F0              |          148466995952

 2017-02-04 14:18:21.114771+01 | 1486214301.11477 | 22/924DC7B0              |          148483458992

 2017-02-04 14:18:22.194734+01 | 1486214302.19473 | 22/9357D6A0              |          148500895392

 2017-02-04 14:18:23.26673+01 | 1486214303.26673 | 22/94565CF0              |          148517575920

 2017-02-04 14:18:24.343146+01 | 1486214304.34315 | 22/955C1C00              |          148534729728

 2017-02-04 14:18:25.427758+01 | 1486214305.42776 | 22/966502C8              |          148552090312

 2017-02-04 14:18:26.501838+01 | 1486214306.50184 | 22/976088E0              |          148568574176

 2017-02-04 14:18:27.57412+01 | 1486214307.57412 | 22/986D6588              |          148586194312

 2017-02-04 14:18:28.650708+01 | 1486214308.65071 | 22/99759070              |          148603506800

 2017-02-04 14:18:29.725722+01 | 1486214309.72572 | 22/9A784FA0              |          148620464032

 2017-02-04 14:18:30.803683+01 | 1486214310.80368 | 22/9B7908A8              |          148637288616

 2017-02-04 14:18:31.879643+01 | 1486214311.87964 | 22/9C779C78              |          148653972600

 2017-02-04 14:18:32.960965+01 | 1486214312.96096 | 22/9D806130              |          148671324464

 2017-02-04 14:18:34.037818+01 | 1486214314.03782 | 22/9E8195D8              |          148688180696

 2017-02-04 14:18:35.114818+01 | 1486214315.11482 | 22/9F7CD570              |          148704646512

 2017-02-04 14:18:36.193779+01 | 1486214316.19378 | 22/A086BFD8              |          148722073560

 2017-02-04 14:18:37.272479+01 | 1486214317.27248 | 22/A1927A50              |          148739619408

 2017-02-04 14:18:38.354995+01 | 1486214318.355 | 22/A2AC9F58              |          148758110040

 2017-02-04 14:18:39.438651+01 | 1486214319.43865 | 22/A3BF8710              |          148776126224

 2017-02-04 14:18:40.521857+01 | 1486214320.52186 | 22/A4D511B0              |          148794315184

 2017-02-04 14:18:41.59843+01 | 1486214321.59843 | 22/A5F4E988              |          148813179272

 2017-02-04 14:18:42.676521+01 | 1486214322.67652 | 22/A6F27768              |          148829796200

 2017-02-04 14:18:43.759999+01 | 1486214323.76 | 22/A7F8B648              |          148846982728

 2017-02-04 14:18:44.834699+01 | 1486214324.8347 | 22/A92C8950              |          148867156304

 2017-02-04 14:18:45.917901+01 | 1486214325.9179 | 22/AA73A418              |          148888593432

 2017-02-04 14:18:46.994398+01 | 1486214326.9944 | 22/ABA32D50              |          148908485968

 2017-02-04 14:18:48.064442+01 | 1486214328.06444 | 22/ACA3EC08              |          148925312008

 2017-02-04 14:18:49.147946+01 | 1486214329.14795 | 22/ADAAB758              |          148942534488

 2017-02-04 14:18:50.231734+01 | 1486214330.23173 | 22/AEA78198              |          148959101336

 2017-02-04 14:18:51.309156+01 | 1486214331.30916 | 22/AFB3EBF8              |          148976692216

 2017-02-04 14:18:52.38745+01 | 1486214332.38745 | 22/B0B73698              |          148993685144

 2017-02-04 14:18:53.463709+01 | 1486214333.46371 | 22/B1C18668              |          149011138152

 2017-02-04 14:18:54.535983+01 | 1486214334.53598 | 22/B2C42608              |          149028087304

 2017-02-04 14:18:55.610885+01 | 1486214335.61088 | 22/B3BCBB30              |          149044378416

 2017-02-04 14:18:56.687771+01 | 1486214336.68777 | 22/B4CD8818              |          149062256664

 2017-02-04 14:18:57.759211+01 | 1486214337.75921 | 22/B5C7E350              |          149078664016

 2017-02-04 14:18:58.839601+01 | 1486214338.8396 | 22/B6C39F58              |          149095161688

 2017-02-04 14:18:59.922001+01 | 1486214339.922 | 22/B7CD2300              |          149112562432

 2017-02-04 14:19:01.000077+01 | 1486214341.00008 | 22/B8D506F0              |          149129856752

 2017-02-04 14:19:02.075074+01 | 1486214342.07507 | 22/B9DD85A0              |          149147190688

 2017-02-04 14:19:03.152527+01 | 1486214343.15253 | 22/BAE0D438              |          149164184632

 2017-02-04 14:19:04.226446+01 | 1486214344.22645 | 22/BBE283E8              |          149181072360

 2017-02-04 14:19:05.297805+01 | 1486214345.29781 | 22/BCEE0F58              |          149198606168

 2017-02-04 14:19:06.373237+01 | 1486214346.37324 | 22/BDEA3BB0              |          149215132592

 2017-02-04 14:19:07.452846+01 | 1486214347.45285 | 22/BEEAB7D8              |          149231941592

 2017-02-04 14:19:08.5336+01 | 1486214348.5336 | 22/BFE71670              |          149248480880

 2017-02-04 14:19:09.607261+01 | 1486214349.60726 | 22/C0EB46F0              |          149265532656

 2017-02-04 14:19:10.680773+01 | 1486214350.68077 | 22/C1F22368              |          149282759528

 2017-02-04 14:19:11.759879+01 | 1486214351.75988 | 22/C2EBB830              |          149299116080

 2017-02-04 14:19:12.837809+01 | 1486214352.83781 | 22/C3E293B8              |          149315294136

 2017-02-04 14:19:13.913141+01 | 1486214353.91314 | 22/C4E62100              |          149332304128

 2017-02-04 14:19:14.987554+01 | 1486214354.98755 | 22/C5E6D228              |          149349126696

 2017-02-04 14:19:16.070618+01 | 1486214356.07062 | 22/C6E90178              |          149366047096

 2017-02-04 14:19:17.1475+01 | 1486214357.1475 | 22/C7ED6A78              |          149383113336

 2017-02-04 14:19:18.221388+01 | 1486214358.22139 | 22/C8FA19D0              |          149400721872

 2017-02-04 14:19:19.297917+01 | 1486214359.29792 | 22/C9EF1908              |          149416777992

 2017-02-04 14:19:20.37237+01 | 1486214360.37237 | 22/CAEF5390              |          149433570192

 2017-02-04 14:19:21.448275+01 | 1486214361.44828 | 22/CBD65508              |          149448709384

 2017-02-04 14:19:22.525159+01 | 1486214362.52516 | 22/CCC5EA78              |          149464410744

 2017-02-04 14:19:23.597047+01 | 1486214363.59705 | 22/CDB0A920              |          149479794976

 2017-02-04 14:19:24.674737+01 | 1486214364.67474 | 22/CEAEE1D0              |          149496455632

 2017-02-04 14:19:25.759611+01 | 1486214365.75961 | 22/CFAC17E0              |          149513050080

 2017-02-04 14:19:26.832747+01 | 1486214366.83275 | 22/D0A50228              |          149529362984

 2017-02-04 14:19:27.914001+01 | 1486214367.914 | 22/D19ED318              |          149545734936

 2017-02-04 14:19:28.994355+01 | 1486214368.99435 | 22/D2AB78F0              |          149563341040

 2017-02-04 14:19:30.06554+01 | 1486214370.06554 | 22/D3A34160              |          149579579744

 2017-02-04 14:19:31.139032+01 | 1486214371.13903 | 22/D4A9C5D0              |          149596784080

 2017-02-04 14:19:32.213484+01 | 1486214372.21348 | 22/D59631C0              |          149612278208

 2017-02-04 14:19:33.289286+01 | 1486214373.28929 | 22/D68CD248              |          149628441160

 2017-02-04 14:19:34.365922+01 | 1486214374.36592 | 22/D7841848              |          149644646472

 2017-02-04 14:19:35.43361+01 | 1486214375.43361 | 22/D888A6B0              |          149661722288

 2017-02-04 14:19:36.511785+01 | 1486214376.51179 | 22/D9961180              |          149679378816

 2017-02-04 14:19:37.584616+01 | 1486214377.58462 | 22/DAFBE2A0              |          149702828704

 2017-02-04 14:19:38.661573+01 | 1486214378.66157 | 22/DC67D6D0              |          149726680784

 2017-02-04 14:19:39.744037+01 | 1486214379.74404 | 22/DDC446B0              |          149749515952

 2017-02-04 14:19:40.820921+01 | 1486214380.82092 | 22/DF171A80              |          149771721344

 2017-02-04 14:19:41.893541+01 | 1486214381.89354 | 22/E06B0B28              |          149793999656

 2017-02-04 14:19:42.976937+01 | 1486214382.97694 | 22/E1882A90              |          149812685456

 2017-02-04 14:19:44.059183+01 | 1486214384.05918 | 22/E2C47730              |          149833414448

 2017-02-04 14:19:45.139718+01 | 1486214385.13972 | 22/E4189880              |          149855705216

 2017-02-04 14:19:46.215465+01 | 1486214386.21547 | 22/E57A20C8              |          149878874312

 2017-02-04 14:19:47.291622+01 | 1486214387.29162 | 22/E6A655E8              |          149898548712

 2017-02-04 14:19:48.356536+01 | 1486214388.35654 | 22/E7AE86A0              |          149915862688

 2017-02-04 14:19:49.436011+01 | 1486214389.43601 | 22/E8BA2BF0              |          149933403120

 2017-02-04 14:19:50.511975+01 | 1486214390.51198 | 22/E9B64AB8              |          149949926072

 2017-02-04 14:19:51.598641+01 | 1486214391.59864 | 22/EAB4AD08              |          149966597384

 2017-02-04 14:19:52.671544+01 | 1486214392.67154 | 22/EBBA7048              |          149983752264

 2017-02-04 14:19:53.745071+01 | 1486214393.74507 | 22/ECBD2368              |          150000706408

 2017-02-04 14:19:54.819825+01 | 1486214394.81982 | 22/EDBD0B10              |          150017477392

 2017-02-04 14:19:55.901726+01 | 1486214395.90173 | 22/EEC00EE8              |          150034452200

 2017-02-04 14:19:56.979249+01 | 1486214396.97925 | 22/EFC3E710              |          150051481360

 2017-02-04 14:19:58.054964+01 | 1486214398.05496 | 22/F0BCF288              |          150067802760

 2017-02-04 14:19:59.137951+01 | 1486214399.13795 | 22/F1B2CAC8              |          150083914440

 2017-02-04 14:20:00.214878+01 | 1486214400.21488 | 22/F2AC3F28              |          150100262696

 2017-02-04 14:20:01.290881+01 | 1486214401.29088 | 22/F3B25EE0              |          150117441248

 2017-02-04 14:20:02.379454+01 | 1486214402.37945 | 22/F4A7AEC0              |          150133518016

 2017-02-04 14:20:03.460234+01 | 1486214403.46023 | 22/F5912608              |          150148818440

 2017-02-04 14:20:04.538153+01 | 1486214404.53815 | 22/F68C6460              |          150165283936

 2017-02-04 14:20:05.618613+01 | 1486214405.61861 | 22/F78F3038              |          150182244408

 2017-02-04 14:20:06.697788+01 | 1486214406.69779 | 22/F88EDB40              |          150198999872

 2017-02-04 14:20:07.775025+01 | 1486214407.77502 | 22/F97AB690              |          150214456976

 2017-02-04 14:20:08.861407+01 | 1486214408.86141 | 22/FA762DF8              |          150230937080

 2017-02-04 14:20:09.950731+01 | 1486214409.95073 | 22/FB856B68              |          150248713064

 2017-02-04 14:20:11.02643+01 | 1486214411.02643 | 22/FC8B6578              |          150265881976

 2017-02-04 14:20:12.098113+01 | 1486214412.09811 | 22/FD7C9C88              |          150281690248

 2017-02-04 14:20:13.178307+01 | 1486214413.17831 | 22/FE7173A8              |          150297736104

 2017-02-04 14:20:14.260643+01 | 1486214414.26064 | 22/FF64D7C0              |          150313686976

 2017-02-04 14:20:15.335873+01 | 1486214415.33587 | 23/5F81A0                |          150330114464

 2017-02-04 14:20:16.415831+01 | 1486214416.41583 | 23/1586DB0               |          150346427824

 2017-02-04 14:20:17.490007+01 | 1486214417.49001 | 23/2532B78               |          150362860408

 2017-02-04 14:20:18.560288+01 | 1486214418.56029 | 23/35213A0               |          150379565984

 2017-02-04 14:20:19.639241+01 | 1486214419.63924 | 23/44507E0               |          150395488224

 2017-02-04 14:20:20.715563+01 | 1486214420.71556 | 23/539FDA8               |          150411541928

 2017-02-04 14:20:21.792599+01 | 1486214421.7926 | 23/62EDEA8               |          150427592008

 2017-02-04 14:20:22.873554+01 | 1486214422.87355 | 23/726F9F8               |          150443850232

 2017-02-04 14:20:23.948522+01 | 1486214423.94852 | 23/81CA1E0               |          150459949536

 2017-02-04 14:20:25.026376+01 | 1486214425.02638 | 23/91DC088               |          150476800136

 2017-02-04 14:20:26.099603+01 | 1486214426.0996 | 23/A122AE0               |          150492818144

 2017-02-04 14:20:27.173766+01 | 1486214427.17377 | 23/B0E3EE0               |          150509338336

 2017-02-04 14:20:28.247318+01 | 1486214428.24732 | 23/C0FF8F8               |          150526228728

 2017-02-04 14:20:29.324186+01 | 1486214429.32419 | 23/D11D098               |          150543126680

 2017-02-04 14:20:30.403831+01 | 1486214430.40383 | 23/E130A50               |          150559984208

 2017-02-04 14:20:31.48346+01 | 1486214431.48346 | 23/EFEA250               |          150575424080

 2017-02-04 14:20:32.56119+01 | 1486214432.56119 | 23/FE1DC88               |          150590315656

 2017-02-04 14:20:33.634388+01 | 1486214433.63439 | 23/10C24BC8              |          150605024200

 2017-02-04 14:20:34.721963+01 | 1486214434.72196 | 23/11A73460              |          150620025952

 2017-02-04 14:20:35.800633+01 | 1486214435.80063 | 23/12900210              |          150635282960

 2017-02-04 14:20:36.875237+01 | 1486214436.87524 | 23/1377BD28              |          150650469672

 2017-02-04 14:20:37.946026+01 | 1486214437.94603 | 23/14453D88              |          150663937416

 2017-02-04 14:20:39.019656+01 | 1486214439.01966 | 23/152E0608              |          150679193096

 2017-02-04 14:20:40.095635+01 | 1486214440.09563 | 23/1625AD50              |          150695423312

 2017-02-04 14:20:41.169028+01 | 1486214441.16903 | 23/171165F0              |          150710871536

 2017-02-04 14:20:42.249338+01 | 1486214442.24934 | 23/18198B00              |          150728182528

 2017-02-04 14:20:43.331086+01 | 1486214443.33109 | 23/19171540              |          150744798528

 2017-02-04 14:20:44.410877+01 | 1486214444.41088 | 23/1A279968              |          150762658152

 2017-02-04 14:20:45.492622+01 | 1486214445.49262 | 23/1B3E1E48              |          150780911176

 2017-02-04 14:20:46.57462+01 | 1486214446.57462 | 23/1C4EA468              |          150798771304

 2017-02-04 14:20:47.655494+01 | 1486214447.65549 | 23/1D408228              |          150814622248

 2017-02-04 14:20:48.738924+01 | 1486214448.73892 | 23/1E321240              |          150830453312

 2017-02-04 14:20:49.814806+01 | 1486214449.81481 | 23/1F4258B8              |          150848297144

 2017-02-04 14:20:50.897324+01 | 1486214450.89732 | 23/208244F0              |          150869263600

 2017-02-04 14:20:51.976394+01 | 1486214451.97639 | 23/21BFF918              |          150890084632

 2017-02-04 14:20:53.05845+01 | 1486214453.05845 | 23/22B1B9A8              |          150905928104

 2017-02-04 14:20:54.140041+01 | 1486214454.14004 | 23/23A7D760              |          150922057568

 2017-02-04 14:20:55.215916+01 | 1486214455.21592 | 23/249A9A98              |          150937967256

 2017-02-04 14:20:56.302397+01 | 1486214456.3024 | 23/259DD748              |          150954956616

 2017-02-04 14:20:57.382068+01 | 1486214457.38207 | 23/26AAF5B8              |          150972593592

 2017-02-04 14:20:58.453851+01 | 1486214458.45385 | 23/27AA9108              |          150989345032

 2017-02-04 14:20:59.531962+01 | 1486214459.53196 | 23/28AE5B00              |          151006370560

 2017-02-04 14:21:00.60288+01 | 1486214460.60288 | 23/29A72E18              |          151022677528

 2017-02-04 14:21:01.683119+01 | 1486214461.68312 | 23/2AA35290              |          151039201936

 2017-02-04 14:21:02.76626+01 | 1486214462.76626 | 23/2B9B49F8              |          151055452664

 2017-02-04 14:21:03.842881+01 | 1486214463.84288 | 23/2C917BB0              |          151071587248

 2017-02-04 14:21:04.918745+01 | 1486214464.91875 | 23/2D7BC8C8              |          151086942408

 2017-02-04 14:21:05.999422+01 | 1486214465.99942 | 23/2E75ED30              |          151103335728

 2017-02-04 14:21:07.075615+01 | 1486214467.07561 | 23/2F7712D0              |          151120188112

 2017-02-04 14:21:08.15087+01 | 1486214468.15087 | 23/3075B698              |          151136876184

 2017-02-04 14:21:09.230008+01 | 1486214469.23001 | 23/315AF9C8              |          151151901128

 2017-02-04 14:21:10.306684+01 | 1486214470.30668 | 23/32532638              |          151168165432

 2017-02-04 14:21:11.389202+01 | 1486214471.3892 | 23/3345ECA8              |          151184075944

 2017-02-04 14:21:12.47014+01 | 1486214472.47014 | 23/34273A00              |          151198841344

 2017-02-04 14:21:13.553994+01 | 1486214473.55399 | 23/352C58C0              |          151215954112

 2017-02-04 14:21:14.639746+01 | 1486214474.63975 | 23/36264230              |          151232332336

 2017-02-04 14:21:15.717506+01 | 1486214475.71751 | 23/371ACA20              |          151248357920

 2017-02-04 14:21:16.795883+01 | 1486214476.79588 | 23/381924D0              |          151265027280

 2017-02-04 14:21:17.870656+01 | 1486214477.87066 | 23/39121AF0              |          151281343216

 2017-02-04 14:21:18.952217+01 | 1486214478.95222 | 23/3A0F4250              |          151297933904

 2017-02-04 14:21:20.030058+01 | 1486214480.03006 | 23/3B0D4800              |          151314581504

 2017-02-04 14:21:21.109758+01 | 1486214481.10976 | 23/3C08B398              |          151331058584

 2017-02-04 14:21:22.186588+01 | 1486214482.18659 | 23/3D02A1A8              |          151347437992

 2017-02-04 14:21:23.259518+01 | 1486214483.25952 | 23/3DFD0900              |          151363848448

 2017-02-04 14:21:24.340166+01 | 1486214484.34017 | 23/3EF31490              |          151379973264

 2017-02-04 14:21:25.416313+01 | 1486214485.41631 | 23/3FED7128              |          151396380968

 2017-02-04 14:21:26.489638+01 | 1486214486.48964 | 23/40ED77C0              |          151413159872

 2017-02-04 14:21:27.572973+01 | 1486214487.57297 | 23/41DCE258              |          151428850264

