 2017-02-05 10:56:29.737327+01 | 1486288589.73733 | B/C4B00AD0               |           50544511696

 2017-02-05 10:56:30.831035+01 | 1486288590.83103 | B/D180E378               |           50759525240

 2017-02-05 10:56:31.914796+01 | 1486288591.9148 | B/DAA852D0               |           50913104592

 2017-02-05 10:56:32.994463+01 | 1486288592.99446 | B/E0178820               |           51004278816

 2017-02-05 10:56:34.079885+01 | 1486288594.07989 | B/E4A43C48               |           51080608840

 2017-02-05 10:56:35.158287+01 | 1486288595.15829 | B/E7C4B290               |           51133067920

 2017-02-05 10:56:36.249905+01 | 1486288596.24991 | B/EA518E50               |           51175853648

 2017-02-05 10:56:37.32894+01 | 1486288597.32894 | B/ECBAAEC8               |           51216297672

 2017-02-05 10:56:38.412948+01 | 1486288598.41295 | B/EF365E60               |           51257957984

 2017-02-05 10:56:39.491975+01 | 1486288599.49198 | B/F178E7D8               |           51295872984

 2017-02-05 10:56:40.574433+01 | 1486288600.57443 | B/F3A3FE18               |           51332251160

 2017-02-05 10:56:41.665259+01 | 1486288601.66526 | B/F5CC80C8               |           51368460488

 2017-02-05 10:56:42.741226+01 | 1486288602.74123 | B/F7ADB4A8               |           51399996584

 2017-02-05 10:56:43.820012+01 | 1486288603.82001 | B/F96BD9B8               |           51429235128

 2017-02-05 10:56:44.902636+01 | 1486288604.90264 | B/FB50BD08               |           51461012744

 2017-02-05 10:56:45.9884+01 | 1486288605.9884 | B/FD16B050               |           51490762832

 2017-02-05 10:56:47.071255+01 | 1486288607.07125 | B/FECE6AD0               |           51519580880

 2017-02-05 10:56:48.153392+01 | 1486288608.15339 | C/6C0B50                 |           51546688336

 2017-02-05 10:56:49.23317+01 | 1486288609.23317 | C/210F180                |           51574272384

 2017-02-05 10:56:50.308536+01 | 1486288610.30854 | C/39A4698                |           51600049816

 2017-02-05 10:56:51.388633+01 | 1486288611.38863 | C/5147778                |           51624834936

 2017-02-05 10:56:52.471177+01 | 1486288612.47118 | C/68812F0                |           51649188592

 2017-02-05 10:56:53.546054+01 | 1486288613.54605 | C/8121670                |           51675010672

 2017-02-05 10:56:54.622386+01 | 1486288614.62239 | C/9950940                |           51700369728

 2017-02-05 10:56:55.703178+01 | 1486288615.70318 | C/B0CBBD8                |           51724991448

 2017-02-05 10:56:56.781423+01 | 1486288616.78142 | C/C620378                |           51747357560

 2017-02-05 10:56:57.858341+01 | 1486288617.85834 | C/D9AD628                |           51767858728

 2017-02-05 10:56:58.936034+01 | 1486288618.93603 | C/EF72188                |           51790684552

 2017-02-05 10:57:00.016464+01 | 1486288620.01646 | C/104C6078               |           51813048440

 2017-02-05 10:57:01.099364+01 | 1486288621.09936 | C/11A88380               |           51835863936

 2017-02-05 10:57:02.186657+01 | 1486288622.18666 | C/12E09EF0               |           51856318192

 2017-02-05 10:57:03.264402+01 | 1486288623.2644 | C/14140A10               |           51876465168

 2017-02-05 10:57:04.345537+01 | 1486288624.34554 | C/1563D750               |           51898472272

 2017-02-05 10:57:05.427217+01 | 1486288625.42722 | C/16A30F30               |           51919392560

 2017-02-05 10:57:06.509179+01 | 1486288626.50918 | C/181842A8               |           51943850664

 2017-02-05 10:57:07.586236+01 | 1486288627.58624 | C/19C68EF0               |           51972050672

 2017-02-05 10:57:08.669708+01 | 1486288628.66971 | C/1BB07D38               |           52004158776

 2017-02-05 10:57:09.760603+01 | 1486288629.7606 | C/1D9A4608               |           52036257288

 2017-02-05 10:57:10.836222+01 | 1486288630.83622 | C/1F919E90               |           52069244560

 2017-02-05 10:57:11.917257+01 | 1486288631.91726 | C/218CCE30               |           52102483504

 2017-02-05 10:57:12.995959+01 | 1486288632.99596 | C/237FE378               |           52135191416

 2017-02-05 10:57:14.073795+01 | 1486288634.0738 | C/253F4648               |           52164511304

 2017-02-05 10:57:15.153719+01 | 1486288635.15372 | C/26CD6570               |           52190602608

 2017-02-05 10:57:16.237208+01 | 1486288636.23721 | C/27E96EB8               |           52209217208

 2017-02-05 10:57:17.320594+01 | 1486288637.32059 | C/299DE150               |           52237820240

 2017-02-05 10:57:18.400401+01 | 1486288638.4004 | C/2AE14EB8               |           52259016376

 2017-02-05 10:57:19.479613+01 | 1486288639.47961 | C/2C0A7848               |           52278492640

 2017-02-05 10:57:20.56052+01 | 1486288640.56052 | C/2D361810               |           52298127376

 2017-02-05 10:57:21.639472+01 | 1486288641.63947 | C/2E5A2760               |           52317267808

 2017-02-05 10:57:22.718824+01 | 1486288642.71882 | C/2F8D3510               |           52337390864

 2017-02-05 10:57:23.798229+01 | 1486288643.79823 | C/308BCA50               |           52354075216

 2017-02-05 10:57:24.874606+01 | 1486288644.87461 | C/3194AFB8               |           52371435448

 2017-02-05 10:57:25.950609+01 | 1486288645.95061 | C/32975710               |           52388386576

 2017-02-05 10:57:27.032474+01 | 1486288647.03247 | C/33A2C620               |           52405913120

 2017-02-05 10:57:28.119095+01 | 1486288648.1191 | C/34AAF240               |           52423225920

 2017-02-05 10:57:29.198581+01 | 1486288649.19858 | C/35B458D0               |           52440619216

 2017-02-05 10:57:30.274291+01 | 1486288650.27429 | C/36CF7D60               |           52459175264

 2017-02-05 10:57:31.353727+01 | 1486288651.35373 | C/37E10890               |           52477102224

 2017-02-05 10:57:32.438913+01 | 1486288652.43891 | C/38E623B0               |           52494214064

 2017-02-05 10:57:33.519245+01 | 1486288653.51924 | C/39E112D8               |           52510659288

 2017-02-05 10:57:34.600563+01 | 1486288654.60056 | C/3AFBC348               |           52529185608

 2017-02-05 10:57:35.678055+01 | 1486288655.67806 | C/3C0DF6A8               |           52547155624

 2017-02-05 10:57:36.755543+01 | 1486288656.75554 | C/3D15E658               |           52564452952

 2017-02-05 10:57:37.835305+01 | 1486288657.8353 | C/3E321928               |           52583078184

 2017-02-05 10:57:38.923484+01 | 1486288658.92348 | C/3F4F8660               |           52601783904

 2017-02-05 10:57:40.004946+01 | 1486288660.00495 | C/405C5BF8               |           52619402232

 2017-02-05 10:57:41.095171+01 | 1486288661.09517 | C/416ED898               |           52637391000

 2017-02-05 10:57:42.189435+01 | 1486288662.18944 | C/42996EE8               |           52656959208

 2017-02-05 10:57:43.269524+01 | 1486288663.26952 | C/43DCC7E0               |           52678150112

 2017-02-05 10:57:44.344443+01 | 1486288664.34444 | C/45042C98               |           52697509016

 2017-02-05 10:57:45.425253+01 | 1486288665.42525 | C/4628FB88               |           52716698504

 2017-02-05 10:57:46.508456+01 | 1486288666.50846 | C/475F4248               |           52737032776

 2017-02-05 10:57:47.587801+01 | 1486288667.5878 | C/48901780               |           52757010304

 2017-02-05 10:57:48.661285+01 | 1486288668.66128 | C/49D42D80               |           52778249600

 2017-02-05 10:57:49.735985+01 | 1486288669.73599 | C/4B09B540               |           52798534976

 2017-02-05 10:57:50.815129+01 | 1486288670.81513 | C/4C3D2F68               |           52818685800

 2017-02-05 10:57:51.898258+01 | 1486288671.89826 | C/4D6C5620               |           52838553120

 2017-02-05 10:57:52.97794+01 | 1486288672.97794 | C/4E91FFA8               |           52857798568

 2017-02-05 10:57:54.063198+01 | 1486288674.0632 | C/4FC03040               |           52877602880

 2017-02-05 10:57:55.142315+01 | 1486288675.14231 | C/50EB7B88               |           52897217416

 2017-02-05 10:57:56.226253+01 | 1486288676.22625 | C/5219CFA0               |           52917030816

 2017-02-05 10:57:57.310041+01 | 1486288677.31004 | C/53623050               |           52938551376

 2017-02-05 10:57:58.38869+01 | 1486288678.38869 | C/549BDF80               |           52959108992

 2017-02-05 10:57:59.461091+01 | 1486288679.46109 | C/55FCECF0               |           52982246640

 2017-02-05 10:58:00.540193+01 | 1486288680.54019 | C/5741BA18               |           53003532824

 2017-02-05 10:58:01.619136+01 | 1486288681.61914 | C/588C38A0               |           53025192096

 2017-02-05 10:58:02.696199+01 | 1486288682.6962 | C/59E31620               |           53047662112

 2017-02-05 10:58:03.77351+01 | 1486288683.77351 | C/5B164120               |           53067792672

 2017-02-05 10:58:04.844505+01 | 1486288684.84451 | C/5C534230               |           53088567856

 2017-02-05 10:58:05.929032+01 | 1486288685.92903 | C/5D98BF68               |           53109899112

 2017-02-05 10:58:07.020953+01 | 1486288687.02095 | C/5EDBE878               |           53131077752

 2017-02-05 10:58:08.104731+01 | 1486288688.10473 | C/60581CA0               |           53155994784

 2017-02-05 10:58:09.185491+01 | 1486288689.18549 | C/61D0F868               |           53180692584

 2017-02-05 10:58:10.267024+01 | 1486288690.26702 | C/635CBDC8               |           53206629832

 2017-02-05 10:58:11.344954+01 | 1486288691.34495 | C/64D166C0               |           53231052480

 2017-02-05 10:58:12.42349+01 | 1486288692.42349 | C/65F7C438               |           53250343992

 2017-02-05 10:58:13.497504+01 | 1486288693.4975 | C/6745C058               |           53272232024

 2017-02-05 10:58:14.582356+01 | 1486288694.58236 | C/68B8A240               |           53296538176

 2017-02-05 10:58:15.659273+01 | 1486288695.65927 | C/6A1737C0               |           53319514048

 2017-02-05 10:58:16.742155+01 | 1486288696.74216 | C/6B3898E8               |           53338478824

 2017-02-05 10:58:17.816941+01 | 1486288697.81694 | C/6C4F2260               |           53356733024

 2017-02-05 10:58:18.900791+01 | 1486288698.90079 | C/6D75B5F0               |           53376038384

 2017-02-05 10:58:19.979645+01 | 1486288699.97965 | C/6E7197F8               |           53392545784

 2017-02-05 10:58:21.063798+01 | 1486288701.0638 | C/6F6A4648               |           53408843336

 2017-02-05 10:58:22.148589+01 | 1486288702.14859 | C/7068B0D0               |           53425516752

 2017-02-05 10:58:23.229312+01 | 1486288703.22931 | C/716821A0               |           53442257312

 2017-02-05 10:58:24.311476+01 | 1486288704.31148 | C/724ADD38               |           53457116472

 2017-02-05 10:58:25.387097+01 | 1486288705.3871 | C/734ED4B8               |           53474153656

 2017-02-05 10:58:26.470766+01 | 1486288706.47077 | C/74513620               |           53491086880

 2017-02-05 10:58:27.54955+01 | 1486288707.54955 | C/75532748               |           53507991368

 2017-02-05 10:58:28.640802+01 | 1486288708.6408 | C/7649E168               |           53524160872

 2017-02-05 10:58:29.725035+01 | 1486288709.72503 | C/773D1B40               |           53540100928

 2017-02-05 10:58:30.799033+01 | 1486288710.79903 | C/783F90E0               |           53557039328

 2017-02-05 10:58:31.888542+01 | 1486288711.88854 | C/79295DE8               |           53572361704

 2017-02-05 10:58:32.9701+01 | 1486288712.9701 | C/7A259D38               |           53588892984

 2017-02-05 10:58:34.058507+01 | 1486288714.05851 | C/7B0846E8               |           53603747560

 2017-02-05 10:58:35.143402+01 | 1486288715.1434 | C/7BF95318               |           53619544856

 2017-02-05 10:58:36.222435+01 | 1486288716.22243 | C/7CEDA138               |           53635555640

 2017-02-05 10:58:37.312+01 | 1486288717.312 | C/7DE26F58               |           53651599192

 2017-02-05 10:58:38.400988+01 | 1486288718.40099 | C/7EED25C8               |           53669078472

 2017-02-05 10:58:39.478919+01 | 1486288719.47892 | C/7FF590D8               |           53686407384

 2017-02-05 10:58:40.556389+01 | 1486288720.55639 | C/810A9F88               |           53704564616

 2017-02-05 10:58:41.635092+01 | 1486288721.63509 | C/821151A0               |           53721780640

 2017-02-05 10:58:42.711894+01 | 1486288722.71189 | C/83148690               |           53738768016

 2017-02-05 10:58:43.786197+01 | 1486288723.7862 | C/8425EF28               |           53756686120

 2017-02-05 10:58:44.860462+01 | 1486288724.86046 | C/852DF638               |           53773989432

 2017-02-05 10:58:45.939787+01 | 1486288725.93979 | C/863D3D30               |           53791767856

 2017-02-05 10:58:47.020487+01 | 1486288727.02049 | C/87491000               |           53809319936

 2017-02-05 10:58:48.099402+01 | 1486288728.0994 | C/885507D0               |           53826881488

 2017-02-05 10:58:49.184102+01 | 1486288729.1841 | C/89696BF0               |           53844995056

 2017-02-05 10:58:50.263767+01 | 1486288730.26377 | C/8A7447A0               |           53862483872

 2017-02-05 10:58:51.343515+01 | 1486288731.34351 | C/8B83D1F0               |           53880279536

 2017-02-05 10:58:52.420576+01 | 1486288732.42058 | C/8C94B6C8               |           53898163912

 2017-02-05 10:58:53.501991+01 | 1486288733.50199 | C/8D9EF950               |           53915613520

 2017-02-05 10:58:54.575792+01 | 1486288734.57579 | C/8EA1F320               |           53932585760

 2017-02-05 10:58:55.653601+01 | 1486288735.6536 | C/8FA5D000               |           53949616128

 2017-02-05 10:58:56.730024+01 | 1486288736.73002 | C/90B75698               |           53967541912

 2017-02-05 10:58:57.805481+01 | 1486288737.80548 | C/91C651E8               |           53985300968

 2017-02-05 10:58:58.889756+01 | 1486288738.88976 | C/92C21330               |           54001799984

 2017-02-05 10:58:59.974016+01 | 1486288739.97402 | C/93B8BA10               |           54017964560

 2017-02-05 10:59:01.065+01 | 1486288741.065 | C/94A8A9A8               |           54033689000

 2017-02-05 10:59:02.147588+01 | 1486288742.14759 | C/95A09430               |           54049936432

 2017-02-05 10:59:03.234973+01 | 1486288743.23497 | C/96B3E9F0               |           54067980784

 2017-02-05 10:59:04.314927+01 | 1486288744.31493 | C/97D3CCC0               |           54086847680

 2017-02-05 10:59:05.400476+01 | 1486288745.40048 | C/98EA2CB8               |           54105091256

 2017-02-05 10:59:06.487929+01 | 1486288746.48793 | C/9A1C7E90               |           54125166224

 2017-02-05 10:59:07.568737+01 | 1486288747.56874 | C/9B623CB0               |           54146514096

 2017-02-05 10:59:08.649631+01 | 1486288748.64963 | C/9CA30218               |           54167536152

 2017-02-05 10:59:09.726482+01 | 1486288749.72648 | C/9DE814D8               |           54188840152

 2017-02-05 10:59:10.805423+01 | 1486288750.80542 | C/9F37AE78               |           54210834040

 2017-02-05 10:59:11.87903+01 | 1486288751.87903 | C/A03DAE90               |           54228004496

 2017-02-05 10:59:12.966082+01 | 1486288752.96608 | C/A14DF228               |           54245847592

 2017-02-05 10:59:14.049851+01 | 1486288754.04985 | C/A25CEE18               |           54263606808

 2017-02-05 10:59:15.132321+01 | 1486288755.13232 | C/A37B9D10               |           54282394896

 2017-02-05 10:59:16.213255+01 | 1486288756.21325 | C/A4A49AD0               |           54301858512

 2017-02-05 10:59:17.290688+01 | 1486288757.29069 | C/A587A978               |           54316738936

 2017-02-05 10:59:18.361887+01 | 1486288758.36189 | C/A6677868               |           54331406440

 2017-02-05 10:59:19.440504+01 | 1486288759.4405 | C/A75AB160               |           54347346272

 2017-02-05 10:59:20.519355+01 | 1486288760.51936 | C/A842CF40               |           54362558272

 2017-02-05 10:59:21.597755+01 | 1486288761.59775 | C/A92EE5C0               |           54378030528

 2017-02-05 10:59:22.675427+01 | 1486288762.67543 | C/AA136920               |           54393006368

 2017-02-05 10:59:23.750821+01 | 1486288763.75082 | C/AAF62790               |           54407866256

 2017-02-05 10:59:24.825228+01 | 1486288764.82523 | C/ABE03C30               |           54423206960

 2017-02-05 10:59:25.895171+01 | 1486288765.89517 | C/ACCB6DD8               |           54438620632

 2017-02-05 10:59:26.971963+01 | 1486288766.97196 | C/ADB43760               |           54453876576

 2017-02-05 10:59:28.056135+01 | 1486288768.05613 | C/AE9D7E78               |           54469164664

 2017-02-05 10:59:29.140296+01 | 1486288769.1403 | C/AF8847C0               |           54484551616

 2017-02-05 10:59:30.221217+01 | 1486288770.22122 | C/B07A3D70               |           54500408688

 2017-02-05 10:59:31.300567+01 | 1486288771.30057 | C/B168A398               |           54516032408

 2017-02-05 10:59:32.379884+01 | 1486288772.37988 | C/B24A3220               |           54530814496

 2017-02-05 10:59:33.454014+01 | 1486288773.45401 | C/B33A09E0               |           54546532832

 2017-02-05 10:59:34.533676+01 | 1486288774.53368 | C/B4494FF0               |           54564311024

 2017-02-05 10:59:35.617756+01 | 1486288775.61776 | C/B535BD40               |           54579805504

 2017-02-05 10:59:36.704284+01 | 1486288776.70428 | C/B63E5320               |           54597145376

 2017-02-05 10:59:37.786662+01 | 1486288777.78666 | C/B74CCE20               |           54614871584

 2017-02-05 10:59:38.869497+01 | 1486288778.8695 | C/B84D0788               |           54631663496

 2017-02-05 10:59:39.947833+01 | 1486288779.94783 | C/B952CF40               |           54648819520

 2017-02-05 10:59:41.028282+01 | 1486288781.02828 | C/BA54C400               |           54665724928

 2017-02-05 10:59:42.107196+01 | 1486288782.1072 | C/BB5C0ED0               |           54682980048

 2017-02-05 10:59:43.185573+01 | 1486288783.18557 | C/BC5379F0               |           54699194864

 2017-02-05 10:59:44.2709+01 | 1486288784.2709 | C/BD55EB00               |           54716132096

 2017-02-05 10:59:45.353417+01 | 1486288785.35342 | C/BE45AE90               |           54731845264

 2017-02-05 10:59:46.431655+01 | 1486288786.43165 | C/BF25EC70               |           54746541168

 2017-02-05 10:59:47.514408+01 | 1486288787.51441 | C/C017D788               |           54762395528

 2017-02-05 10:59:48.602683+01 | 1486288788.60268 | C/C10A4438               |           54778283064

 2017-02-05 10:59:49.692543+01 | 1486288789.69254 | C/C2025F20               |           54794542880

 2017-02-05 10:59:50.777907+01 | 1486288790.77791 | C/C305D138               |           54811545912

 2017-02-05 10:59:51.856739+01 | 1486288791.85674 | C/C3F443D8               |           54827172824

 2017-02-05 10:59:52.940692+01 | 1486288792.94069 | C/C4E8F468               |           54843208808

 2017-02-05 10:59:54.027651+01 | 1486288794.02765 | C/C5E3A870               |           54859638896

 2017-02-05 10:59:55.111365+01 | 1486288795.11137 | C/C6DBDF58               |           54875905880

 2017-02-05 10:59:56.19494+01 | 1486288796.19494 | C/C7CEB9C0               |           54891821504

 2017-02-05 10:59:57.273086+01 | 1486288797.27309 | C/C8C34358               |           54907847512

 2017-02-05 10:59:58.361438+01 | 1486288798.36144 | C/C9A4B338               |           54922621752

 2017-02-05 10:59:59.455946+01 | 1486288799.45595 | C/CA923A00               |           54938188288

 2017-02-05 11:00:00.540986+01 | 1486288800.54099 | C/CB853DC8               |           54954114504

 2017-02-05 11:00:01.617106+01 | 1486288801.61711 | C/CC88EB08               |           54971132680

 2017-02-05 11:00:02.698866+01 | 1486288802.69887 | C/CD6F73D8               |           54986240984

 2017-02-05 11:00:03.77985+01 | 1486288803.77985 | C/CE62D040               |           55002189888

 2017-02-05 11:00:04.849608+01 | 1486288804.84961 | C/CF51C570               |           55017850224

 2017-02-05 11:00:05.927728+01 | 1486288805.92773 | C/D0578698               |           55035004568

 2017-02-05 11:00:07.012031+01 | 1486288807.01203 | C/D1527918               |           55051450648

 2017-02-05 11:00:08.101904+01 | 1486288808.1019 | C/D2666180               |           55069532544

 2017-02-05 11:00:09.182629+01 | 1486288809.18263 | C/D3727B68               |           55087102824

 2017-02-05 11:00:10.261694+01 | 1486288810.26169 | C/D46894D8               |           55103231192

 2017-02-05 11:00:11.346017+01 | 1486288811.34602 | C/D5972B10               |           55123061520

 2017-02-05 11:00:12.431397+01 | 1486288812.4314 | C/D6D2A950               |           55143737680

 2017-02-05 11:00:13.507463+01 | 1486288813.50746 | C/D7D67860               |           55160764512

 2017-02-05 11:00:14.583723+01 | 1486288814.58372 | C/D8DD3FB8               |           55177985976

 2017-02-05 11:00:15.663525+01 | 1486288815.66353 | C/D9EF9708               |           55195965192

 2017-02-05 11:00:16.745011+01 | 1486288816.74501 | C/DB137D58               |           55215095128

 2017-02-05 11:00:17.82705+01 | 1486288817.82705 | C/DC10D7A0               |           55231698848

 2017-02-05 11:00:18.897606+01 | 1486288818.89761 | C/DD43E2B8               |           55251821240

 2017-02-05 11:00:19.9739+01 | 1486288819.9739 | C/DE39B6F8               |           55267931896

 2017-02-05 11:00:21.05865+01 | 1486288821.05865 | C/DF363978               |           55284480376

 2017-02-05 11:00:22.14129+01 | 1486288822.14129 | C/E039FD40               |           55301504320

 2017-02-05 11:00:23.226081+01 | 1486288823.22608 | C/E14693E8               |           55319106536

 2017-02-05 11:00:24.309314+01 | 1486288824.30931 | C/E24EBB28               |           55336418088

 2017-02-05 11:00:25.386509+01 | 1486288825.38651 | C/E33A1F58               |           55351844696

 2017-02-05 11:00:26.467165+01 | 1486288826.46716 | C/E4343E10               |           55368236560

 2017-02-05 11:00:27.556442+01 | 1486288827.55644 | C/E537AC68               |           55385238632

 2017-02-05 11:00:28.633142+01 | 1486288828.63314 | C/E646C9B8               |           55403006392

 2017-02-05 11:00:29.716156+01 | 1486288829.71616 | C/E755B190               |           55420760464

 2017-02-05 11:00:30.791832+01 | 1486288830.79183 | C/E8603BA0               |           55438228384

 2017-02-05 11:00:31.86614+01 | 1486288831.86614 | C/E96902E0               |           55455580896

 2017-02-05 11:00:32.943147+01 | 1486288832.94315 | C/EA73CEB0               |           55473065648

 2017-02-05 11:00:34.022179+01 | 1486288834.02218 | C/EB796220               |           55490208288

 2017-02-05 11:00:35.105137+01 | 1486288835.10514 | C/EC884E50               |           55507963472

 2017-02-05 11:00:36.193125+01 | 1486288836.19313 | C/ED9A3810               |           55525914640

 2017-02-05 11:00:37.269119+01 | 1486288837.26912 | C/EE8461D8               |           55541260760

 2017-02-05 11:00:38.349011+01 | 1486288838.34901 | C/EF772988               |           55557171592

 2017-02-05 11:00:39.432343+01 | 1486288839.43234 | C/F071D2A0               |           55573598880

 2017-02-05 11:00:40.520428+01 | 1486288840.52043 | C/F180DD38               |           55591361848

 2017-02-05 11:00:41.605522+01 | 1486288841.60552 | C/F2855F48               |           55608434504

 2017-02-05 11:00:42.684778+01 | 1486288842.68478 | C/F38352D8               |           55625077464

 2017-02-05 11:00:43.765349+01 | 1486288843.76535 | C/F48CE040               |           55642482952

 2017-02-05 11:00:44.850191+01 | 1486288844.85019 | C/F5872210               |           55658881552

 2017-02-05 11:00:45.926615+01 | 1486288845.92661 | C/F683ABD0               |           55675431888

 2017-02-05 11:00:47.003419+01 | 1486288847.00342 | C/F7851CD8               |           55692303576

 2017-02-05 11:00:48.077971+01 | 1486288848.07797 | C/F88C9340               |           55709569856

 2017-02-05 11:00:49.167108+01 | 1486288849.16711 | C/F9876A60               |           55726008928

 2017-02-05 11:00:50.251012+01 | 1486288850.25101 | C/FA7A8F98               |           55741943704

 2017-02-05 11:00:51.335596+01 | 1486288851.3356 | C/FB77FB48               |           55758551880

 2017-02-05 11:00:52.420951+01 | 1486288852.42095 | C/FC7D55A0               |           55775679904

 2017-02-05 11:00:53.501145+01 | 1486288853.50114 | C/FD6FA5C8               |           55791560136

 2017-02-05 11:00:54.578615+01 | 1486288854.57861 | C/FE7C63B8               |           55809172408

 2017-02-05 11:00:55.662319+01 | 1486288855.66232 | C/FF8979A8               |           55826807208

 2017-02-05 11:00:56.743171+01 | 1486288856.74317 | D/841CF8                 |           55843233016

 2017-02-05 11:00:57.82587+01 | 1486288857.82587 | D/189FE58                |           55860395608

 2017-02-05 11:00:58.910543+01 | 1486288858.91054 | D/28E7998                |           55877466520

 2017-02-05 11:00:59.987702+01 | 1486288859.9877 | D/38C6EE8                |           55894109928

 2017-02-05 11:01:01.064302+01 | 1486288861.0643 | D/4798688                |           55909648008

 2017-02-05 11:01:02.144223+01 | 1486288862.14422 | D/563FE40                |           55925014080

 2017-02-05 11:01:03.226416+01 | 1486288863.22642 | D/65CAA68                |           55941311080

 2017-02-05 11:01:04.304227+01 | 1486288864.30423 | D/77EEB38                |           55960333112

 2017-02-05 11:01:05.384876+01 | 1486288865.38488 | D/8A8ED20                |           55979863328

 2017-02-05 11:01:06.463338+01 | 1486288866.46334 | D/9F315F0                |           56001500656

 2017-02-05 11:01:07.546336+01 | 1486288867.54634 | D/B222BE8                |           56021363688

 2017-02-05 11:01:08.609016+01 | 1486288868.60902 | D/C383D00                |           56039587072

 2017-02-05 11:01:09.689438+01 | 1486288869.68944 | D/D974D00                |           56062594304

 2017-02-05 11:01:10.767804+01 | 1486288870.7678 | D/EE6A9D0                |           56084572624

 2017-02-05 11:01:11.848336+01 | 1486288871.84834 | D/102952E0               |           56105718496

 2017-02-05 11:01:12.925401+01 | 1486288872.9254 | D/11690350               |           56126669648

 2017-02-05 11:01:14.001049+01 | 1486288874.00105 | D/12B4A920               |           56148404512

 2017-02-05 11:01:15.075368+01 | 1486288875.07537 | D/140F26D8               |           56171112152

 2017-02-05 11:01:16.149202+01 | 1486288876.1492 | D/15727B28               |           56194399016

 2017-02-05 11:01:17.228222+01 | 1486288877.22822 | D/16816548               |           56212153672

 2017-02-05 11:01:18.298499+01 | 1486288878.2985 | D/1784BA80               |           56229149312

 2017-02-05 11:01:19.374761+01 | 1486288879.37476 | D/18981780               |           56247195520

 2017-02-05 11:01:20.458753+01 | 1486288880.45875 | D/1996D860               |           56263891040

 2017-02-05 11:01:21.552006+01 | 1486288881.55201 | D/1A92E630               |           56280409648

 2017-02-05 11:01:22.637465+01 | 1486288882.63747 | D/1B9A70E8               |           56297681128

 2017-02-05 11:01:23.716126+01 | 1486288883.71613 | D/1C9F6278               |           56314782328

 2017-02-05 11:01:24.797991+01 | 1486288884.79799 | D/1D9C3EB8               |           56331353784

 2017-02-05 11:01:25.879402+01 | 1486288885.8794 | D/1E98F080               |           56347914368

 2017-02-05 11:01:26.959634+01 | 1486288886.95963 | D/1F9EA6F0               |           56365065968

 2017-02-05 11:01:28.051089+01 | 1486288888.05109 | D/20970BB8               |           56381344696

 2017-02-05 11:01:29.127426+01 | 1486288889.12743 | D/218B5E98               |           56397356696

