 2017-02-06 13:05:03.836032+01 | 1486382703.83603 |                 0 |               8 |                 93690 |                 1712 |            5301365 |        994853 |             9776 |        23240214 |                     0 |      20297416 | 2017-02-06 12:24:33.04114+01

 2017-02-06 13:05:04.913726+01 | 1486382704.91373 |                 0 |               8 |                 93690 |                 1712 |            5301365 |        994853 |             9776 |        23240214 |                     0 |      20306176 | 2017-02-06 12:24:33.04114+01

 2017-02-06 13:05:06.01227+01 | 1486382706.01227 |                 0 |               8 |                 93690 |                 1712 |            5301365 |        994853 |             9776 |        23240214 |                     0 |      20319307 | 2017-02-06 12:24:33.04114+01

 2017-02-06 13:05:07.102226+01 | 1486382707.10223 |                 0 |               8 |                 93690 |                 1712 |            5301365 |        994853 |             9776 |        23240214 |                     0 |      20331988 | 2017-02-06 12:24:33.04114+01

 2017-02-06 13:05:08.188376+01 | 1486382708.18838 |                 0 |               8 |                 93690 |                 1712 |            5301365 |        994853 |             9776 |        23240214 |                     0 |      20348396 | 2017-02-06 12:24:33.04114+01

 2017-02-06 13:05:09.285418+01 | 1486382709.28542 |                 0 |               8 |                 93690 |                 1712 |            5301365 |        994853 |             9776 |        23240214 |                     0 |      20362340 | 2017-02-06 12:24:33.04114+01

 2017-02-06 13:05:10.381893+01 | 1486382710.38189 |                 0 |               8 |                 93690 |                 1712 |            5301365 |        994853 |             9776 |        23240214 |                     0 |      20379545 | 2017-02-06 12:24:33.04114+01

 2017-02-06 13:05:11.466488+01 | 1486382711.46649 |                 0 |               8 |                 93690 |                 1712 |            5301365 |        994853 |             9776 |        23240214 |                     0 |      20394387 | 2017-02-06 12:24:33.04114+01

 2017-02-06 13:05:12.56573+01 | 1486382712.56573 |                 0 |               8 |                 93690 |                 1712 |            5301365 |        994853 |             9776 |        23240214 |                     0 |      20409046 | 2017-02-06 12:24:33.04114+01

 2017-02-06 13:05:13.658151+01 | 1486382713.65815 |                 0 |               8 |                 93690 |                 1712 |            5301365 |        994853 |             9776 |        23240214 |                     0 |      20426607 | 2017-02-06 12:24:33.04114+01

 2017-02-06 13:05:14.743586+01 | 1486382714.74359 |                 0 |               8 |                 93690 |                 1712 |            5301365 |        994853 |             9776 |        23240214 |                     0 |      20441197 | 2017-02-06 12:24:33.04114+01

 2017-02-06 13:05:15.821819+01 | 1486382715.82182 |                 0 |               8 |                 93690 |                 1712 |            5301365 |        994853 |             9776 |        23240214 |                     0 |      20459390 | 2017-02-06 12:24:33.04114+01

 2017-02-06 13:05:16.900369+01 | 1486382716.90037 |                 0 |               8 |                 93690 |                 1712 |            5301365 |        994857 |             9776 |        23240214 |                     0 |      20474538 | 2017-02-06 12:24:33.04114+01

 2017-02-06 13:05:17.988393+01 | 1486382717.98839 |                 0 |               8 |                 93690 |                 1712 |            5301365 |        994868 |             9776 |        23240214 |                     0 |      20488762 | 2017-02-06 12:24:33.04114+01

 2017-02-06 13:05:19.078286+01 | 1486382719.07829 |                 0 |               8 |                 93690 |                 1712 |            5301365 |        994882 |             9776 |        23240214 |                     0 |      20505458 | 2017-02-06 12:24:33.04114+01

 2017-02-06 13:05:20.176634+01 | 1486382720.17663 |                 0 |               8 |                 93690 |                 1712 |            5301365 |        994889 |             9776 |        23240214 |                     0 |      20520689 | 2017-02-06 12:24:33.04114+01

 2017-02-06 13:05:21.270206+01 | 1486382721.27021 |                 0 |               8 |                 93690 |                 1712 |            5301365 |        994902 |             9776 |        23240214 |                     0 |      20538652 | 2017-02-06 12:24:33.04114+01

 2017-02-06 13:05:22.359387+01 | 1486382722.35939 |                 0 |               8 |                 93690 |                 1712 |            5301365 |        994916 |             9776 |        23240214 |                     0 |      20553354 | 2017-02-06 12:24:33.04114+01

 2017-02-06 13:05:23.466292+01 | 1486382723.46629 |                 0 |               8 |                 93690 |                 1712 |            5301365 |        994923 |             9776 |        23240214 |                     0 |      20571739 | 2017-02-06 12:24:33.04114+01

 2017-02-06 13:05:24.554379+01 | 1486382724.55438 |                 0 |               8 |                 93690 |                 1712 |            5301365 |        994931 |             9776 |        23240214 |                     0 |      20587105 | 2017-02-06 12:24:33.04114+01

 2017-02-06 13:05:25.657273+01 | 1486382725.65727 |                 0 |               8 |                 93690 |                 1712 |            5301365 |        994943 |             9776 |        23240214 |                     0 |      20604872 | 2017-02-06 12:24:33.04114+01

 2017-02-06 13:05:26.74675+01 | 1486382726.74675 |                 0 |               8 |                 93690 |                 1712 |            5301365 |        994964 |             9776 |        23240214 |                     0 |      20620247 | 2017-02-06 12:24:33.04114+01

 2017-02-06 13:05:27.823543+01 | 1486382727.82354 |                 0 |               8 |                 93690 |                 1712 |            5301365 |        995128 |             9777 |        23240214 |                     0 |      20635364 | 2017-02-06 12:24:33.04114+01

 2017-02-06 13:05:28.90617+01 | 1486382728.90617 |                 0 |               8 |                 93690 |                 1712 |            5301365 |        995728 |             9783 |        23240214 |                     0 |      20653261 | 2017-02-06 12:24:33.04114+01

 2017-02-06 13:05:29.988526+01 | 1486382729.98853 |                 0 |               8 |                 93690 |                 1712 |            5301365 |        996228 |             9788 |        23240214 |                     0 |      20668279 | 2017-02-06 12:24:33.04114+01

 2017-02-06 13:05:31.087299+01 | 1486382731.0873 |                 0 |               8 |                 93690 |                 1712 |            5301365 |        996728 |             9793 |        23240214 |                     0 |      20682728 | 2017-02-06 12:24:33.04114+01

 2017-02-06 13:05:32.182106+01 | 1486382732.18211 |                 0 |               8 |                 93690 |                 1712 |            5301365 |        997328 |             9799 |        23240214 |                     0 |      20701726 | 2017-02-06 12:24:33.04114+01

 2017-02-06 13:05:33.277859+01 | 1486382733.27786 |                 0 |               8 |                 93690 |                 1712 |            5301365 |        997828 |             9804 |        23240214 |                     0 |      20717049 | 2017-02-06 12:24:33.04114+01

 2017-02-06 13:05:34.363328+01 | 1486382734.36333 |                 0 |               8 |                 93690 |                 1712 |            5301365 |        998328 |             9809 |        23240214 |                     0 |      20732589 | 2017-02-06 12:24:33.04114+01

 2017-02-06 13:05:35.457426+01 | 1486382735.45743 |                 0 |               8 |                 93690 |                 1712 |            5301365 |        998928 |             9815 |        23240214 |                     0 |      20750747 | 2017-02-06 12:24:33.04114+01

 2017-02-06 13:05:36.544764+01 | 1486382736.54476 |                 0 |               8 |                 93690 |                 1712 |            5301365 |        999528 |             9821 |        23240214 |                     0 |      20769309 | 2017-02-06 12:24:33.04114+01

 2017-02-06 13:05:37.645471+01 | 1486382737.64547 |                 0 |               8 |                 93690 |                 1712 |            5301365 |       1000028 |             9826 |        23240214 |                     0 |      20782706 | 2017-02-06 12:24:33.04114+01

 2017-02-06 13:05:38.737608+01 | 1486382738.73761 |                 0 |               8 |                 93690 |                 1712 |            5301365 |       1000528 |             9831 |        23240214 |                     0 |      20797852 | 2017-02-06 12:24:33.04114+01

 2017-02-06 13:05:39.822635+01 | 1486382739.82263 |                 0 |               8 |                 93690 |                 1712 |            5301365 |       1001128 |             9837 |        23240214 |                     0 |      20815946 | 2017-02-06 12:24:33.04114+01

 2017-02-06 13:05:40.901407+01 | 1486382740.90141 |                 0 |               8 |                 93690 |                 1712 |            5301365 |       1001628 |             9842 |        23240214 |                     0 |      20830913 | 2017-02-06 12:24:33.04114+01

 2017-02-06 13:05:41.985864+01 | 1486382741.98586 |                 0 |               8 |                 93690 |                 1712 |            5301365 |       1002128 |             9847 |        23240214 |                     0 |      20845532 | 2017-02-06 12:24:33.04114+01

 2017-02-06 13:05:43.053904+01 | 1486382743.0539 |                 0 |               8 |                 93690 |                 1712 |            5301365 |       1002728 |             9853 |        23240214 |                     0 |      20862825 | 2017-02-06 12:24:33.04114+01

 2017-02-06 13:05:44.140364+01 | 1486382744.14036 |                 0 |               8 |                 93690 |                 1712 |            5301365 |       1003228 |             9858 |        23240214 |                     0 |      20877511 | 2017-02-06 12:24:33.04114+01

 2017-02-06 13:05:45.235465+01 | 1486382745.23547 |                 0 |               8 |                 93690 |                 1712 |            5301365 |       1003728 |             9863 |        23240214 |                     0 |      20891292 | 2017-02-06 12:24:33.04114+01

 2017-02-06 13:05:46.329673+01 | 1486382746.32967 |                 0 |               8 |                 93690 |                 1712 |            5301365 |       1004328 |             9869 |        23240214 |                     0 |      20906492 | 2017-02-06 12:24:33.04114+01

 2017-02-06 13:05:47.423397+01 | 1486382747.4234 |                 0 |               8 |                 93690 |                 1712 |            5301365 |       1004828 |             9874 |        23240214 |                     0 |      20918804 | 2017-02-06 12:24:33.04114+01

 2017-02-06 13:05:48.509489+01 | 1486382748.50949 |                 0 |               8 |                 93690 |                 1712 |            5301365 |       1005428 |             9880 |        23240214 |                     0 |      20934207 | 2017-02-06 12:24:33.04114+01

 2017-02-06 13:05:49.597643+01 | 1486382749.59764 |                 0 |               8 |                 93690 |                 1712 |            5301365 |       1005928 |             9885 |        23240214 |                     0 |      20944060 | 2017-02-06 12:24:33.04114+01

 2017-02-06 13:05:50.698673+01 | 1486382750.69867 |                 0 |               8 |                 93690 |                 1712 |            5301365 |       1006428 |             9890 |        23240214 |                     0 |      20957027 | 2017-02-06 12:24:33.04114+01

 2017-02-06 13:05:51.778161+01 | 1486382751.77816 |                 0 |               8 |                 93690 |                 1712 |            5301365 |       1007028 |             9896 |        23240214 |                     0 |      20971139 | 2017-02-06 12:24:33.04114+01

 2017-02-06 13:05:52.856284+01 | 1486382752.85628 |                 0 |               8 |                 93690 |                 1712 |            5301365 |       1007528 |             9901 |        23240214 |                     0 |      20982420 | 2017-02-06 12:24:33.04114+01

 2017-02-06 13:05:53.936365+01 | 1486382753.93636 |                 0 |               8 |                 93690 |                 1712 |            5301365 |       1008128 |             9907 |        23240214 |                     0 |      20999305 | 2017-02-06 12:24:33.04114+01

 2017-02-06 13:05:55.023966+01 | 1486382755.02397 |                 0 |               8 |                 93690 |                 1712 |            5301365 |       1008628 |             9912 |        23240214 |                     0 |      21013153 | 2017-02-06 12:24:33.04114+01

 2017-02-06 13:05:56.121693+01 | 1486382756.12169 |                 0 |               8 |                 93690 |                 1712 |            5301365 |       1009128 |             9917 |        23240214 |                     0 |      21026857 | 2017-02-06 12:24:33.04114+01

 2017-02-06 13:05:57.195281+01 | 1486382757.19528 |                 0 |               8 |                 93690 |                 1712 |            5301365 |       1009728 |             9923 |        23240214 |                     0 |      21043766 | 2017-02-06 12:24:33.04114+01

 2017-02-06 13:05:58.285933+01 | 1486382758.28593 |                 0 |               8 |                 93690 |                 1712 |            5301365 |       1010228 |             9928 |        23240214 |                     0 |      21056840 | 2017-02-06 12:24:33.04114+01

 2017-02-06 13:05:59.377659+01 | 1486382759.37766 |                 0 |               8 |                 93690 |                 1712 |            5301365 |       1010728 |             9933 |        23240214 |                     0 |      21071051 | 2017-02-06 12:24:33.04114+01

 2017-02-06 13:06:00.481676+01 | 1486382760.48168 |                 0 |               8 |                 93690 |                 1712 |            5301365 |       1011328 |             9939 |        23240214 |                     0 |      21088714 | 2017-02-06 12:24:33.04114+01

 2017-02-06 13:06:01.576009+01 | 1486382761.57601 |                 0 |               8 |                 93690 |                 1712 |            5301365 |       1011828 |             9944 |        23240214 |                     0 |      21104054 | 2017-02-06 12:24:33.04114+01

 2017-02-06 13:06:02.675726+01 | 1486382762.67573 |                 0 |               8 |                 93690 |                 1712 |            5301365 |       1012428 |             9950 |        23240214 |                     0 |      21121010 | 2017-02-06 12:24:33.04114+01

 2017-02-06 13:06:03.763352+01 | 1486382763.76335 |                 0 |               8 |                 93690 |                 1712 |            5301365 |       1012928 |             9955 |        23240214 |                     0 |      21134934 | 2017-02-06 12:24:33.04114+01

 2017-02-06 13:06:04.839646+01 | 1486382764.83965 |                 0 |               8 |                 93690 |                 1712 |            5301365 |       1013428 |             9960 |        23240214 |                     0 |      21149283 | 2017-02-06 12:24:33.04114+01

 2017-02-06 13:06:05.927351+01 | 1486382765.92735 |                 0 |               8 |                 93690 |                 1712 |            5301365 |       1014028 |             9966 |        23240214 |                     0 |      21166731 | 2017-02-06 12:24:33.04114+01

 2017-02-06 13:06:07.017641+01 | 1486382767.01764 |                 0 |               8 |                 93690 |                 1712 |            5301365 |       1014528 |             9971 |        23240214 |                     0 |      21180892 | 2017-02-06 12:24:33.04114+01

 2017-02-06 13:06:08.10917+01 | 1486382768.10917 |                 0 |               8 |                 93690 |                 1712 |            5301365 |       1015128 |             9977 |        23240214 |                     0 |      21195806 | 2017-02-06 12:24:33.04114+01

 2017-02-06 13:06:09.182973+01 | 1486382769.18297 |                 0 |               8 |                 93690 |                 1712 |            5301365 |       1015628 |             9982 |        23240214 |                     0 |      21208151 | 2017-02-06 12:24:33.04114+01

 2017-02-06 13:06:10.274342+01 | 1486382770.27434 |                 0 |               8 |                 93690 |                 1712 |            5301365 |       1016128 |             9987 |        23240214 |                     0 |      21218828 | 2017-02-06 12:24:33.04114+01

 2017-02-06 13:06:11.376372+01 | 1486382771.37637 |                 0 |               8 |                 93690 |                 1712 |            5301365 |       1016728 |             9993 |        23240214 |                     0 |      21232528 | 2017-02-06 12:24:33.04114+01

 2017-02-06 13:06:12.479305+01 | 1486382772.47931 |                 0 |               8 |                 93690 |                 1712 |            5301365 |       1017228 |             9998 |        23240214 |                     0 |      21245327 | 2017-02-06 12:24:33.04114+01

 2017-02-06 13:06:13.572791+01 | 1486382773.57279 |                 0 |               8 |                 93690 |                 1712 |            5301365 |       1017828 |            10004 |        23240214 |                     0 |      21262616 | 2017-02-06 12:24:33.04114+01

 2017-02-06 13:06:14.673919+01 | 1486382774.67392 |                 0 |               8 |                 93690 |                 1712 |            5301365 |       1018328 |            10009 |        23240214 |                     0 |      21274915 | 2017-02-06 12:24:33.04114+01

 2017-02-06 13:06:15.766343+01 | 1486382775.76634 |                 0 |               8 |                 93690 |                 1712 |            5301365 |       1018828 |            10014 |        23240214 |                     0 |      21289080 | 2017-02-06 12:24:33.04114+01

 2017-02-06 13:06:16.861363+01 | 1486382776.86136 |                 0 |               8 |                 93690 |                 1712 |            5301365 |       1019428 |            10020 |        23240214 |                     0 |      21307283 | 2017-02-06 12:24:33.04114+01

 2017-02-06 13:06:17.947452+01 | 1486382777.94745 |                 0 |               8 |                 93690 |                 1712 |            5301365 |       1019928 |            10025 |        23739729 |                     0 |      21321087 | 2017-02-06 12:24:33.04114+01

 2017-02-06 13:06:19.017028+01 | 1486382779.01703 |                 0 |               8 |                 93690 |                 1712 |            5301365 |       1020528 |            10031 |        23739729 |                     0 |      21338919 | 2017-02-06 12:24:33.04114+01

 2017-02-06 13:06:20.10479+01 | 1486382780.10479 |                 0 |               8 |                 93690 |                 1712 |            5301365 |       1021028 |            10036 |        23739729 |                     0 |      21352989 | 2017-02-06 12:24:33.04114+01

 2017-02-06 13:06:21.208398+01 | 1486382781.2084 |                 0 |               8 |                 93690 |                 1712 |            5301365 |       1021528 |            10041 |        23739729 |                     0 |      21368060 | 2017-02-06 12:24:33.04114+01

 2017-02-06 13:06:22.309297+01 | 1486382782.3093 |                 0 |               8 |                 93690 |                 1712 |            5301365 |       1022128 |            10047 |        23739729 |                     0 |      21384132 | 2017-02-06 12:24:33.04114+01

 2017-02-06 13:06:23.385515+01 | 1486382783.38551 |                 0 |               8 |                 93690 |                 1712 |            5301365 |       1022628 |            10052 |        23739729 |                     0 |      21396774 | 2017-02-06 12:24:33.04114+01

 2017-02-06 13:06:24.444897+01 | 1486382784.4449 |                 0 |               8 |                 93690 |                 1712 |            5301365 |       1023228 |            10058 |        23739729 |                     0 |      21411222 | 2017-02-06 12:24:33.04114+01

 2017-02-06 13:06:25.527461+01 | 1486382785.52746 |                 0 |               8 |                 93690 |                 1712 |            5301365 |       1023728 |            10063 |        23739729 |                     0 |      21422981 | 2017-02-06 12:24:33.04114+01

 2017-02-06 13:06:26.617163+01 | 1486382786.61716 |                 0 |               8 |                 93690 |                 1712 |            5301365 |       1024228 |            10068 |        23739729 |                     0 |      21434173 | 2017-02-06 12:24:33.04114+01

 2017-02-06 13:06:27.690361+01 | 1486382787.69036 |                 0 |               8 |                 93690 |                 1712 |            5301365 |       1024728 |            10073 |        23739729 |                     0 |      21446480 | 2017-02-06 12:24:33.04114+01

 2017-02-06 13:06:28.790577+01 | 1486382788.79058 |                 0 |               8 |                 93690 |                 1712 |            5301365 |       1025328 |            10079 |        23739729 |                     0 |      21463422 | 2017-02-06 12:24:33.04114+01

 2017-02-06 13:06:29.878446+01 | 1486382789.87845 |                 0 |               8 |                 93690 |                 1712 |            5301365 |       1025828 |            10084 |        23739729 |                     0 |      21478509 | 2017-02-06 12:24:33.04114+01

 2017-02-06 13:06:30.964389+01 | 1486382790.96439 |                 0 |               8 |                 93690 |                 1712 |            5301365 |       1026428 |            10090 |        23739729 |                     0 |      21495087 | 2017-02-06 12:24:33.04114+01

 2017-02-06 13:06:32.043892+01 | 1486382792.04389 |                 0 |               8 |                 93690 |                 1712 |            5301365 |       1026928 |            10095 |        23739729 |                     0 |      21509492 | 2017-02-06 12:24:33.04114+01

 2017-02-06 13:06:33.130969+01 | 1486382793.13097 |                 0 |               8 |                 93690 |                 1712 |            5301365 |       1027428 |            10100 |        23739729 |                     0 |      21522469 | 2017-02-06 12:24:33.04114+01

 2017-02-06 13:06:34.225561+01 | 1486382794.22556 |                 0 |               8 |                 93690 |                 1712 |            5301365 |       1028028 |            10106 |        23739729 |                     0 |      21539795 | 2017-02-06 12:24:33.04114+01

 2017-02-06 13:06:35.314738+01 | 1486382795.31474 |                 0 |               8 |                 93690 |                 1712 |            5301365 |       1028428 |            10110 |        23739729 |                     0 |      21551316 | 2017-02-06 12:24:33.04114+01

 2017-02-06 13:06:36.408232+01 | 1486382796.40823 |                 0 |               8 |                 93690 |                 1712 |            5301365 |       1029128 |            10117 |        23739729 |                     0 |      21571640 | 2017-02-06 12:24:33.04114+01

 2017-02-06 13:06:37.510685+01 | 1486382797.51068 |                 0 |               8 |                 93690 |                 1712 |            5301365 |       1029628 |            10122 |        23739729 |                     0 |      21585133 | 2017-02-06 12:24:33.04114+01

 2017-02-06 13:06:38.608789+01 | 1486382798.60879 |                 0 |               8 |                 93690 |                 1712 |            5301365 |       1030128 |            10127 |        23739729 |                     0 |      21599466 | 2017-02-06 12:24:33.04114+01

 2017-02-06 13:06:39.708807+01 | 1486382799.70881 |                 0 |               8 |                 93690 |                 1712 |            5301365 |       1030728 |            10133 |        23739729 |                     0 |      21616561 | 2017-02-06 12:24:33.04114+01

 2017-02-06 13:06:40.805815+01 | 1486382800.80581 |                 0 |               8 |                 93690 |                 1712 |            5301365 |       1031228 |            10138 |        23739729 |                     0 |      21629179 | 2017-02-06 12:24:33.04114+01

 2017-02-06 13:06:41.895319+01 | 1486382801.89532 |                 0 |               8 |                 93690 |                 1712 |            5301365 |       1031828 |            10144 |        23739729 |                     0 |      21643883 | 2017-02-06 12:24:33.04114+01

 2017-02-06 13:06:42.96287+01 | 1486382802.96287 |                 0 |               8 |                 93690 |                 1712 |            5301365 |       1032328 |            10149 |        23739729 |                     0 |      21658584 | 2017-02-06 12:24:33.04114+01

 2017-02-06 13:06:44.058197+01 | 1486382804.0582 |                 0 |               8 |                 93690 |                 1712 |            5301365 |       1032828 |            10154 |        23739729 |                     0 |      21672565 | 2017-02-06 12:24:33.04114+01

 2017-02-06 13:06:45.140432+01 | 1486382805.14043 |                 0 |               8 |                 93690 |                 1712 |            5301365 |       1033428 |            10160 |        23739729 |                     0 |      21689063 | 2017-02-06 12:24:33.04114+01

 2017-02-06 13:06:46.230793+01 | 1486382806.23079 |                 0 |               8 |                 93690 |                 1712 |            5301365 |       1033928 |            10165 |        23739729 |                     0 |      21702541 | 2017-02-06 12:24:33.04114+01

 2017-02-06 13:06:47.327201+01 | 1486382807.3272 |                 0 |               8 |                 93690 |                 1712 |            5301365 |       1034528 |            10171 |        23739729 |                     0 |      21716419 | 2017-02-06 12:24:33.04114+01

 2017-02-06 13:06:48.408173+01 | 1486382808.40817 |                 0 |               8 |                 93690 |                 1712 |            5301365 |       1035028 |            10176 |        23739729 |                     0 |      21730774 | 2017-02-06 12:24:33.04114+01

 2017-02-06 13:06:49.491936+01 | 1486382809.49194 |                 0 |               8 |                 93690 |                 1712 |            5301365 |       1035528 |            10181 |        23739729 |                     0 |      21743483 | 2017-02-06 12:24:33.04114+01

 2017-02-06 13:06:50.587625+01 | 1486382810.58763 |                 0 |               8 |                 93690 |                 1712 |            5301365 |       1036128 |            10187 |        23739729 |                     0 |      21756478 | 2017-02-06 12:24:33.04114+01

 2017-02-06 13:06:51.667928+01 | 1486382811.66793 |                 0 |               8 |                 93690 |                 1712 |            5301365 |       1036628 |            10192 |        23739729 |                     0 |      21768218 | 2017-02-06 12:24:33.04114+01

 2017-02-06 13:06:52.766296+01 | 1486382812.7663 |                 0 |               8 |                 93690 |                 1712 |            5301365 |       1037128 |            10197 |        23739729 |                     0 |      21775528 | 2017-02-06 12:24:33.04114+01

 2017-02-06 13:06:53.866817+01 | 1486382813.86682 |                 0 |               8 |                 93690 |                 1712 |            5301365 |       1037728 |            10203 |        24246118 |                     0 |      21789996 | 2017-02-06 12:24:33.04114+01

 2017-02-06 13:06:54.951072+01 | 1486382814.95107 |                 0 |               8 |                 93690 |                 1712 |            5301365 |       1038228 |            10208 |        24246118 |                     0 |      21803632 | 2017-02-06 12:24:33.04114+01

 2017-02-06 13:06:56.03222+01 | 1486382816.03222 |                 0 |               8 |                 93690 |                 1712 |            5301365 |       1038828 |            10214 |        24246118 |                     0 |      21818590 | 2017-02-06 12:24:33.04114+01

 2017-02-06 13:06:57.117849+01 | 1486382817.11785 |                 0 |               8 |                 93690 |                 1712 |            5301365 |       1039328 |            10219 |        24246118 |                     0 |      21832705 | 2017-02-06 12:24:33.04114+01

 2017-02-06 13:06:58.199341+01 | 1486382818.19934 |                 0 |               8 |                 93690 |                 1712 |            5301365 |       1039828 |            10224 |        24246118 |                     0 |      21847672 | 2017-02-06 12:24:33.04114+01

 2017-02-06 13:06:59.290546+01 | 1486382819.29055 |                 0 |               8 |                 93690 |                 1712 |            5301365 |       1040428 |            10230 |        24246118 |                     0 |      21863738 | 2017-02-06 12:24:33.04114+01

 2017-02-06 13:07:00.38879+01 | 1486382820.38879 |                 0 |               8 |                 93690 |                 1712 |            5301365 |       1040928 |            10235 |        24246118 |                     0 |      21878681 | 2017-02-06 12:24:33.04114+01

 2017-02-06 13:07:01.482815+01 | 1486382821.48282 |                 0 |               8 |                 93690 |                 1712 |            5301365 |       1041528 |            10241 |        24246118 |                     0 |      21894336 | 2017-02-06 12:24:33.04114+01

 2017-02-06 13:07:02.57063+01 | 1486382822.57063 |                 0 |               8 |                 93690 |                 1712 |            5301365 |       1042028 |            10246 |        24246118 |                     0 |      21907806 | 2017-02-06 12:24:33.04114+01

 2017-02-06 13:07:03.654694+01 | 1486382823.65469 |                 0 |               8 |                 93690 |                 1712 |            5301365 |       1042528 |            10251 |        24246118 |                     0 |      21919192 | 2017-02-06 12:24:33.04114+01

 2017-02-06 13:07:04.74053+01 | 1486382824.74053 |                 0 |               8 |                 93690 |                 1712 |            5301365 |       1043128 |            10257 |        24246118 |                     0 |      21932834 | 2017-02-06 12:24:33.04114+01

 2017-02-06 13:07:05.806517+01 | 1486382825.80652 |                 0 |               8 |                 93690 |                 1712 |            5301365 |       1043628 |            10262 |        24246118 |                     0 |      21945101 | 2017-02-06 12:24:33.04114+01

 2017-02-06 13:07:06.884753+01 | 1486382826.88475 |                 0 |               8 |                 93690 |                 1712 |            5301365 |       1044128 |            10267 |        24246118 |                     0 |      21959225 | 2017-02-06 12:24:33.04114+01

 2017-02-06 13:07:07.981724+01 | 1486382827.98172 |                 0 |               8 |                 93690 |                 1712 |            5301365 |       1044728 |            10273 |        24246118 |                     0 |      21975679 | 2017-02-06 12:24:33.04114+01

 2017-02-06 13:07:09.080355+01 | 1486382829.08035 |                 0 |               8 |                 93690 |                 1712 |            5301365 |       1045228 |            10278 |        24246118 |                     0 |      21989941 | 2017-02-06 12:24:33.04114+01

 2017-02-06 13:07:10.172235+01 | 1486382830.17224 |                 0 |               8 |                 93690 |                 1712 |            5301365 |       1045828 |            10284 |        24246118 |                     0 |      22007405 | 2017-02-06 12:24:33.04114+01

 2017-02-06 13:07:11.264975+01 | 1486382831.26498 |                 0 |               8 |                 93690 |                 1712 |            5301365 |       1046328 |            10289 |        24246118 |                     0 |      22022638 | 2017-02-06 12:24:33.04114+01

 2017-02-06 13:07:12.363569+01 | 1486382832.36357 |                 0 |               8 |                 93690 |                 1712 |            5301365 |       1046828 |            10294 |        24246118 |                     0 |      22037734 | 2017-02-06 12:24:33.04114+01

 2017-02-06 13:07:13.453992+01 | 1486382833.45399 |                 0 |               8 |                 93690 |                 1712 |            5301365 |       1047428 |            10300 |        24246118 |                     0 |      22055083 | 2017-02-06 12:24:33.04114+01

 2017-02-06 13:07:14.549732+01 | 1486382834.54973 |                 0 |               8 |                 93690 |                 1712 |            5301365 |       1047928 |            10305 |        24246118 |                     0 |      22069461 | 2017-02-06 12:24:33.04114+01

 2017-02-06 13:07:15.629054+01 | 1486382835.62905 |                 0 |               8 |                 93690 |                 1712 |            5301365 |       1048528 |            10311 |        24246118 |                     0 |      22087354 | 2017-02-06 12:24:33.04114+01

 2017-02-06 13:07:16.721908+01 | 1486382836.72191 |                 0 |               8 |                 93690 |                 1712 |            5301365 |       1049028 |            10316 |        24246118 |                     0 |      22100858 | 2017-02-06 12:24:33.04114+01

 2017-02-06 13:07:17.829733+01 | 1486382837.82973 |                 0 |               8 |                 93690 |                 1712 |            5301365 |       1049528 |            10321 |        24246118 |                     0 |      22116159 | 2017-02-06 12:24:33.04114+01

 2017-02-06 13:07:18.934559+01 | 1486382838.93456 |                 0 |               8 |                 93690 |                 1712 |            5301365 |       1050128 |            10327 |        24246118 |                     0 |      22133169 | 2017-02-06 12:24:33.04114+01

 2017-02-06 13:07:20.006306+01 | 1486382840.00631 |                 0 |               8 |                 93690 |                 1712 |            5301365 |       1050628 |            10332 |        24246118 |                     0 |      22148574 | 2017-02-06 12:24:33.04114+01

 2017-02-06 13:07:21.093585+01 | 1486382841.09359 |                 0 |               8 |                 93690 |                 1712 |            5301365 |       1051228 |            10338 |        24246118 |                     0 |      22166085 | 2017-02-06 12:24:33.04114+01

 2017-02-06 13:07:22.184445+01 | 1486382842.18444 |                 0 |               8 |                 93690 |                 1712 |            5301365 |       1051728 |            10343 |        24246118 |                     0 |      22181190 | 2017-02-06 12:24:33.04114+01

 2017-02-06 13:07:23.277821+01 | 1486382843.27782 |                 0 |               8 |                 93690 |                 1712 |            5301365 |       1052228 |            10348 |        24246118 |                     0 |      22195274 | 2017-02-06 12:24:33.04114+01

 2017-02-06 13:07:24.352967+01 | 1486382844.35297 |                 0 |               8 |                 93690 |                 1712 |            5301365 |       1052828 |            10354 |        24246118 |                     0 |      22213968 | 2017-02-06 12:24:33.04114+01

 2017-02-06 13:07:25.439673+01 | 1486382845.43967 |                 0 |               8 |                 93690 |                 1712 |            5301365 |       1053328 |            10359 |        24246118 |                     0 |      22227612 | 2017-02-06 12:24:33.04114+01

 2017-02-06 13:07:26.524599+01 | 1486382846.5246 |                 0 |               8 |                 93690 |                 1712 |            5301365 |       1053828 |            10364 |        24246118 |                     0 |      22243324 | 2017-02-06 12:24:33.04114+01

 2017-02-06 13:07:27.620345+01 | 1486382847.62035 |                 0 |               8 |                 93690 |                 1712 |            5301365 |       1054428 |            10370 |        24753606 |                     0 |      22262372 | 2017-02-06 12:24:33.04114+01

 2017-02-06 13:07:28.718974+01 | 1486382848.71897 |                 0 |               8 |                 93690 |                 1712 |            5301365 |       1054928 |            10375 |        24753606 |                     0 |      22278587 | 2017-02-06 12:24:33.04114+01

 2017-02-06 13:07:29.789796+01 | 1486382849.7898 |                 0 |               8 |                 93690 |                 1712 |            5301365 |       1055528 |            10381 |        24753606 |                     0 |      22297850 | 2017-02-06 12:24:33.04114+01

 2017-02-06 13:07:30.881929+01 | 1486382850.88193 |                 0 |               8 |                 93690 |                 1712 |            5301365 |       1056028 |            10386 |        24753606 |                     0 |      22311054 | 2017-02-06 12:24:33.04114+01

 2017-02-06 13:07:31.962873+01 | 1486382851.96287 |                 0 |               8 |                 93690 |                 1712 |            5301365 |       1056528 |            10391 |        24753606 |                     0 |      22326380 | 2017-02-06 12:24:33.04114+01

 2017-02-06 13:07:33.050681+01 | 1486382853.05068 |                 0 |               8 |                 93690 |                 1712 |            5301365 |       1057128 |            10397 |        24753606 |                     0 |      22343434 | 2017-02-06 12:24:33.04114+01

 2017-02-06 13:07:34.118378+01 | 1486382854.11838 |                 0 |               8 |                 93690 |                 1712 |            5301365 |       1057628 |            10402 |        24753606 |                     0 |      22357738 | 2017-02-06 12:24:33.04114+01

 2017-02-06 13:07:35.206929+01 | 1486382855.20693 |                 0 |               8 |                 93690 |                 1712 |            5301365 |       1058028 |            10406 |        24753606 |                     0 |      22367201 | 2017-02-06 12:24:33.04114+01

 2017-02-06 13:07:36.30141+01 | 1486382856.30141 |                 0 |               8 |                 93690 |                 1712 |            5301365 |       1058728 |            10413 |        24753606 |                     0 |      22381662 | 2017-02-06 12:24:33.04114+01

 2017-02-06 13:07:37.368662+01 | 1486382857.36866 |                 0 |               8 |                 93690 |                 1712 |            5301365 |       1059228 |            10418 |        24753606 |                     0 |      22394764 | 2017-02-06 12:24:33.04114+01

 2017-02-06 13:07:38.464347+01 | 1486382858.46435 |                 0 |               8 |                 93690 |                 1712 |            5301365 |       1059728 |            10423 |        24753606 |                     0 |      22405522 | 2017-02-06 12:24:33.04114+01

 2017-02-06 13:07:39.579022+01 | 1486382859.57902 |                 0 |               8 |                 93690 |                 1712 |            5301365 |       1060328 |            10429 |        24753606 |                     0 |      22420137 | 2017-02-06 12:24:33.04114+01

 2017-02-06 13:07:40.67366+01 | 1486382860.67366 |                 0 |               8 |                 93690 |                 1712 |            5301365 |       1060828 |            10434 |        24753606 |                     0 |      22431871 | 2017-02-06 12:24:33.04114+01

 2017-02-06 13:07:41.779323+01 | 1486382861.77932 |                 0 |               8 |                 93690 |                 1712 |            5301365 |       1061428 |            10440 |        24753606 |                     0 |      22449497 | 2017-02-06 12:24:33.04114+01

 2017-02-06 13:07:42.858398+01 | 1486382862.8584 |                 0 |               8 |                 93690 |                 1712 |            5301365 |       1061928 |            10445 |        24753606 |                     0 |      22464589 | 2017-02-06 12:24:33.04114+01

 2017-02-06 13:07:43.951098+01 | 1486382863.9511 |                 0 |               8 |                 93690 |                 1712 |            5301365 |       1062528 |            10451 |        24753606 |                     0 |      22482620 | 2017-02-06 12:24:33.04114+01

 2017-02-06 13:07:45.047078+01 | 1486382865.04708 |                 0 |               8 |                 93690 |                 1712 |            5301365 |       1063028 |            10456 |        24753606 |                     0 |      22496828 | 2017-02-06 12:24:33.04114+01

 2017-02-06 13:07:46.124456+01 | 1486382866.12446 |                 0 |               8 |                 93690 |                 1712 |            5301365 |       1063528 |            10461 |        24753606 |                     0 |      22509194 | 2017-02-06 12:24:33.04114+01

 2017-02-06 13:07:47.211558+01 | 1486382867.21156 |                 0 |               8 |                 93690 |                 1712 |            5301365 |       1064128 |            10467 |        24753606 |                     0 |      22523924 | 2017-02-06 12:24:33.04114+01

 2017-02-06 13:07:48.298822+01 | 1486382868.29882 |                 0 |               8 |                 93690 |                 1712 |            5301365 |       1064628 |            10472 |        24753606 |                     0 |      22533698 | 2017-02-06 12:24:33.04114+01

 2017-02-06 13:07:49.395095+01 | 1486382869.3951 |                 0 |               8 |                 93690 |                 1712 |            5301365 |       1065228 |            10478 |        24753606 |                     0 |      22549005 | 2017-02-06 12:24:33.04114+01

 2017-02-06 13:07:50.469668+01 | 1486382870.46967 |                 0 |               8 |                 93690 |                 1712 |            5301365 |       1065728 |            10483 |        24753606 |                     0 |      22561352 | 2017-02-06 12:24:33.04114+01

 2017-02-06 13:07:51.546348+01 | 1486382871.54635 |                 0 |               8 |                 93690 |                 1712 |            5301365 |       1066228 |            10488 |        24753606 |                     0 |      22571770 | 2017-02-06 12:24:33.04114+01

 2017-02-06 13:07:52.64158+01 | 1486382872.64158 |                 0 |               8 |                 93690 |                 1712 |            5301365 |       1066828 |            10494 |        24753606 |                     0 |      22585976 | 2017-02-06 12:24:33.04114+01

 2017-02-06 13:07:53.7183+01 | 1486382873.7183 |                 0 |               8 |                 93690 |                 1712 |            5301365 |       1067328 |            10499 |        24753606 |                     0 |      22599170 | 2017-02-06 12:24:33.04114+01

 2017-02-06 13:07:54.781039+01 | 1486382874.78104 |                 0 |               8 |                 93690 |                 1712 |            5301365 |       1067828 |            10504 |        24753606 |                     0 |      22611676 | 2017-02-06 12:24:33.04114+01

 2017-02-06 13:07:55.876687+01 | 1486382875.87669 |                 0 |               8 |                 93690 |                 1712 |            5301365 |       1068428 |            10510 |        24753606 |                     0 |      22625589 | 2017-02-06 12:24:33.04114+01

 2017-02-06 13:07:56.978037+01 | 1486382876.97804 |                 0 |               8 |                 93690 |                 1712 |            5301365 |       1068928 |            10515 |        24753606 |                     0 |      22638578 | 2017-02-06 12:24:33.04114+01

 2017-02-06 13:07:58.06479+01 | 1486382878.06479 |                 0 |               8 |                 93690 |                 1712 |            5301365 |       1069428 |            10520 |        24753606 |                     0 |      22650944 | 2017-02-06 12:24:33.04114+01

 2017-02-06 13:07:59.155155+01 | 1486382879.15515 |                 0 |               8 |                 93690 |                 1712 |            5301365 |       1070028 |            10526 |        24753606 |                     0 |      22666112 | 2017-02-06 12:24:33.04114+01

 2017-02-06 13:08:00.252589+01 | 1486382880.25259 |                 0 |               8 |                 93690 |                 1712 |            5301365 |       1070528 |            10531 |        24753606 |                     0 |      22678457 | 2017-02-06 12:24:33.04114+01

 2017-02-06 13:08:01.322711+01 | 1486382881.32271 |                 0 |               8 |                 93690 |                 1712 |            5301365 |       1071128 |            10537 |        24753606 |                     0 |      22696668 | 2017-02-06 12:24:33.04114+01

 2017-02-06 13:08:02.414485+01 | 1486382882.41448 |                 0 |               8 |                 93690 |                 1712 |            5301365 |       1071628 |            10542 |        24753606 |                     0 |      22710967 | 2017-02-06 12:24:33.04114+01

 2017-02-06 13:08:03.510922+01 | 1486382883.51092 |                 0 |               8 |                 93690 |                 1712 |            5301365 |       1072128 |            10547 |        24753606 |                     0 |      22726899 | 2017-02-06 12:24:33.04114+01

 2017-02-06 13:08:04.61798+01 | 1486382884.61798 |                 0 |               8 |                 93690 |                 1712 |            5301365 |       1072728 |            10553 |        24753606 |                     0 |      22744440 | 2017-02-06 12:24:33.04114+01

 2017-02-06 13:08:05.710646+01 | 1486382885.71065 |                 0 |               8 |                 93690 |                 1712 |            5301365 |       1073228 |            10558 |        24753606 |                     0 |      22760434 | 2017-02-06 12:24:33.04114+01

 2017-02-06 13:08:06.804694+01 | 1486382886.80469 |                 0 |               8 |                 93690 |                 1712 |            5301365 |       1073828 |            10564 |        25258695 |                     0 |      22778081 | 2017-02-06 12:24:33.04114+01

 2017-02-06 13:08:07.901076+01 | 1486382887.90108 |                 0 |               8 |                 93690 |                 1712 |            5301365 |       1074328 |            10569 |        25258695 |                     0 |      22793902 | 2017-02-06 12:24:33.04114+01

 2017-02-06 13:08:08.989288+01 | 1486382888.98929 |                 0 |               8 |                 93690 |                 1712 |            5301365 |       1074828 |            10574 |        25258695 |                     0 |      22809427 | 2017-02-06 12:24:33.04114+01

 2017-02-06 13:08:10.078+01 | 1486382890.078 |                 0 |               8 |                 93690 |                 1712 |            5301365 |       1075428 |            10580 |        25258695 |                     0 |      22827270 | 2017-02-06 12:24:33.04114+01

 2017-02-06 13:08:11.15463+01 | 1486382891.15463 |                 0 |               8 |                 93690 |                 1712 |            5301365 |       1075928 |            10585 |        25258695 |                     0 |      22843716 | 2017-02-06 12:24:33.04114+01

 2017-02-06 13:08:12.254206+01 | 1486382892.25421 |                 0 |               8 |                 93690 |                 1712 |            5301365 |       1076428 |            10590 |        25258695 |                     0 |      22858855 | 2017-02-06 12:24:33.04114+01

 2017-02-06 13:08:13.361992+01 | 1486382893.36199 |                 0 |               8 |                 93690 |                 1712 |            5301365 |       1077028 |            10596 |        25258695 |                     0 |      22878010 | 2017-02-06 12:24:33.04114+01

 2017-02-06 13:08:14.454643+01 | 1486382894.45464 |                 0 |               8 |                 93690 |                 1712 |            5301365 |       1077528 |            10601 |        25258695 |                     0 |      22893010 | 2017-02-06 12:24:33.04114+01

 2017-02-06 13:08:15.534112+01 | 1486382895.53411 |                 0 |               8 |                 93690 |                 1712 |            5301365 |       1078128 |            10607 |        25258695 |                     0 |      22912603 | 2017-02-06 12:24:33.04114+01

 2017-02-06 13:08:16.633001+01 | 1486382896.633 |                 0 |               8 |                 93690 |                 1712 |            5301365 |       1078628 |            10612 |        25258695 |                     0 |      22926636 | 2017-02-06 12:24:33.04114+01

 2017-02-06 13:08:17.727332+01 | 1486382897.72733 |                 0 |               8 |                 93690 |                 1712 |            5301365 |       1079228 |            10618 |        25258695 |                     0 |      22945979 | 2017-02-06 12:24:33.04114+01

 2017-02-06 13:08:18.812794+01 | 1486382898.81279 |                 0 |               8 |                 93690 |                 1712 |            5301365 |       1079728 |            10623 |        25258695 |                     0 |      22960934 | 2017-02-06 12:24:33.04114+01

 2017-02-06 13:08:19.907425+01 | 1486382899.90742 |                 0 |               8 |                 93690 |                 1712 |            5301365 |       1080228 |            10628 |        25258695 |                     0 |      22976859 | 2017-02-06 12:24:33.04114+01

 2017-02-06 13:08:21.009577+01 | 1486382901.00958 |                 0 |               8 |                 93690 |                 1712 |            5301365 |       1080828 |            10634 |        25258695 |                     0 |      22996017 | 2017-02-06 12:24:33.04114+01

 2017-02-06 13:08:22.108174+01 | 1486382902.10817 |                 0 |               8 |                 93690 |                 1712 |            5301365 |       1081328 |            10639 |        25258695 |                     0 |      23010840 | 2017-02-06 12:24:33.04114+01

 2017-02-06 13:08:23.175965+01 | 1486382903.17597 |                 0 |               8 |                 93690 |                 1712 |            5301365 |       1081928 |            10645 |        25258695 |                     0 |      23029949 | 2017-02-06 12:24:33.04114+01

 2017-02-06 13:08:24.271558+01 | 1486382904.27156 |                 0 |               8 |                 93690 |                 1712 |            5301365 |       1082428 |            10650 |        25258695 |                     0 |      23045286 | 2017-02-06 12:24:33.04114+01

 2017-02-06 13:08:25.352057+01 | 1486382905.35206 |                 0 |               8 |                 93690 |                 1712 |            5301365 |       1082928 |            10655 |        25258695 |                     0 |      23061092 | 2017-02-06 12:24:33.04114+01

 2017-02-06 13:08:26.441026+01 | 1486382906.44103 |                 0 |               8 |                 93690 |                 1712 |            5301365 |       1083528 |            10661 |        25258695 |                     0 |      23079646 | 2017-02-06 12:24:33.04114+01

 2017-02-06 13:08:27.542136+01 | 1486382907.54214 |                 0 |               8 |                 93690 |                 1712 |            5301365 |       1084028 |            10666 |        25258695 |                     0 |      23095289 | 2017-02-06 12:24:33.04114+01

 2017-02-06 13:08:28.635055+01 | 1486382908.63506 |                 0 |               8 |                 93690 |                 1712 |            5301365 |       1084528 |            10671 |        25258695 |                     0 |      23111010 | 2017-02-06 12:24:33.04114+01

 2017-02-06 13:08:29.722701+01 | 1486382909.7227 |                 0 |               8 |                 93690 |                 1712 |            5301365 |       1085128 |            10677 |        25258695 |                     0 |      23129157 | 2017-02-06 12:24:33.04114+01

 2017-02-06 13:08:30.840216+01 | 1486382910.84022 |                 0 |               8 |                 93690 |                 1712 |            5301365 |       1085628 |            10682 |        25258695 |                     0 |      23145154 | 2017-02-06 12:24:33.04114+01

 2017-02-06 13:08:31.948268+01 | 1486382911.94827 |                 0 |               8 |                 93690 |                 1712 |            5301365 |       1086228 |            10688 |        25258695 |                     0 |      23163042 | 2017-02-06 12:24:33.04114+01

 2017-02-06 13:08:33.023209+01 | 1486382913.02321 |                 0 |               8 |                 93690 |                 1712 |            5301365 |       1086728 |            10693 |        25258695 |                     0 |      23178719 | 2017-02-06 12:24:33.04114+01

 2017-02-06 13:08:34.121711+01 | 1486382914.12171 |                 0 |               8 |                 93690 |                 1712 |            5301365 |       1087228 |            10698 |        25258695 |                     0 |      23193330 | 2017-02-06 12:24:33.04114+01

 2017-02-06 13:08:35.215592+01 | 1486382915.21559 |                 0 |               8 |                 93690 |                 1712 |            5301365 |       1087828 |            10704 |        25258695 |                     0 |      23212425 | 2017-02-06 12:24:33.04114+01

 2017-02-06 13:08:36.329818+01 | 1486382916.32982 |                 0 |               8 |                 93690 |                 1712 |            5301365 |       1088328 |            10709 |        25258695 |                     0 |      23227353 | 2017-02-06 12:24:33.04114+01

 2017-02-06 13:08:37.424562+01 | 1486382917.42456 |                 0 |               8 |                 93690 |                 1712 |            5301365 |       1088928 |            10715 |        25258695 |                     0 |      23245567 | 2017-02-06 12:24:33.04114+01

 2017-02-06 13:08:38.526041+01 | 1486382918.52604 |                 0 |               8 |                 93690 |                 1712 |            5301365 |       1089428 |            10720 |        25258695 |                     0 |      23261125 | 2017-02-06 12:24:33.04114+01

 2017-02-06 13:08:39.619726+01 | 1486382919.61973 |                 0 |               8 |                 93690 |                 1712 |            5301365 |       1090028 |            10726 |        25258695 |                     0 |      23278741 | 2017-02-06 12:24:33.04114+01

 2017-02-06 13:08:40.687306+01 | 1486382920.68731 |                 0 |               8 |                 93690 |                 1712 |            5301365 |       1090528 |            10731 |        25766385 |                     0 |      23294634 | 2017-02-06 12:24:33.04114+01

 2017-02-06 13:08:41.772902+01 | 1486382921.7729 |                 0 |               8 |                 93690 |                 1712 |            5301365 |       1091028 |            10736 |        25766385 |                     0 |      23309475 | 2017-02-06 12:24:33.04114+01

 2017-02-06 13:08:42.850594+01 | 1486382922.85059 |                 0 |               8 |                 93690 |                 1712 |            5301365 |       1091628 |            10742 |        25766385 |                     0 |      23328387 | 2017-02-06 12:24:33.04114+01

 2017-02-06 13:08:43.946005+01 | 1486382923.94601 |                 0 |               8 |                 93690 |                 1712 |            5301365 |       1092128 |            10747 |        25766385 |                     0 |      23342295 | 2017-02-06 12:24:33.04114+01

 2017-02-06 13:08:45.046642+01 | 1486382925.04664 |                 0 |               8 |                 93690 |                 1712 |            5301365 |       1092728 |            10753 |        25766385 |                     0 |      23360145 | 2017-02-06 12:24:33.04114+01

 2017-02-06 13:08:46.13923+01 | 1486382926.13923 |                 0 |               8 |                 93690 |                 1712 |            5301365 |       1093228 |            10758 |        25766385 |                     0 |      23376958 | 2017-02-06 12:24:33.04114+01

 2017-02-06 13:08:47.238304+01 | 1486382927.2383 |                 0 |               8 |                 93690 |                 1712 |            5301365 |       1093728 |            10763 |        25766385 |                     0 |      23391526 | 2017-02-06 12:24:33.04114+01

 2017-02-06 13:08:48.334014+01 | 1486382928.33401 |                 0 |               8 |                 93690 |                 1712 |            5301365 |       1094328 |            10769 |        25766385 |                     0 |      23409757 | 2017-02-06 12:24:33.04114+01

 2017-02-06 13:08:49.425341+01 | 1486382929.42534 |                 0 |               8 |                 93690 |                 1712 |            5301365 |       1094828 |            10774 |        25766385 |                     0 |      23423172 | 2017-02-06 12:24:33.04114+01

 2017-02-06 13:08:50.495031+01 | 1486382930.49503 |                 0 |               8 |                 93690 |                 1712 |            5301365 |       1095428 |            10780 |        25766385 |                     0 |      23442361 | 2017-02-06 12:24:33.04114+01

 2017-02-06 13:08:51.57634+01 | 1486382931.57634 |                 0 |               8 |                 93690 |                 1712 |            5301365 |       1095928 |            10785 |        25766385 |                     0 |      23456794 | 2017-02-06 12:24:33.04114+01

 2017-02-06 13:08:52.653411+01 | 1486382932.65341 |                 0 |               8 |                 93690 |                 1712 |            5301365 |       1096428 |            10790 |        25766385 |                     0 |      23471864 | 2017-02-06 12:24:33.04114+01

 2017-02-06 13:08:53.774085+01 | 1486382933.77409 |                 0 |               8 |                 93690 |                 1712 |            5301365 |       1097028 |            10796 |        25766385 |                     0 |      23488543 | 2017-02-06 12:24:33.04114+01

 2017-02-06 13:08:54.851401+01 | 1486382934.8514 |                 0 |               8 |                 93690 |                 1712 |            5301365 |       1097528 |            10801 |        25766385 |                     0 |      23503440 | 2017-02-06 12:24:33.04114+01

 2017-02-06 13:08:55.935107+01 | 1486382935.93511 |                 0 |               8 |                 93690 |                 1712 |            5301365 |       1098028 |            10806 |        25766385 |                     0 |      23516912 | 2017-02-06 12:24:33.04114+01

 2017-02-06 13:08:57.006561+01 | 1486382937.00656 |                 0 |               8 |                 93690 |                 1712 |            5301365 |       1098628 |            10812 |        25766385 |                     0 |      23532359 | 2017-02-06 12:24:33.04114+01

 2017-02-06 13:08:58.11283+01 | 1486382938.11283 |                 0 |               8 |                 93690 |                 1712 |            5301365 |       1099128 |            10817 |        25766385 |                     0 |      23544059 | 2017-02-06 12:24:33.04114+01

 2017-02-06 13:08:59.194566+01 | 1486382939.19457 |                 0 |               8 |                 93690 |                 1712 |            5301365 |       1099728 |            10823 |        25766385 |                     0 |      23558936 | 2017-02-06 12:24:33.04114+01

 2017-02-06 13:09:00.269226+01 | 1486382940.26923 |                 0 |               8 |                 93690 |                 1712 |            5301365 |       1100228 |            10828 |        25766385 |                     0 |      23571318 | 2017-02-06 12:24:33.04114+01

 2017-02-06 13:09:01.359599+01 | 1486382941.3596 |                 0 |               8 |                 93690 |                 1712 |            5301365 |       1100728 |            10833 |        25766385 |                     0 |      23579817 | 2017-02-06 12:24:33.04114+01

 2017-02-06 13:09:02.450409+01 | 1486382942.45041 |                 0 |               8 |                 93690 |                 1712 |            5301365 |       1101328 |            10839 |        25766385 |                     0 |      23594871 | 2017-02-06 12:24:33.04114+01

 2017-02-06 13:09:03.550036+01 | 1486382943.55004 |                 0 |               8 |                 93690 |                 1712 |            5301365 |       1101828 |            10844 |        25766385 |                     0 |      23606394 | 2017-02-06 12:24:33.04114+01

 2017-02-06 13:09:04.644622+01 | 1486382944.64462 |                 0 |               8 |                 93690 |                 1712 |            5301365 |       1102328 |            10849 |        25766385 |                     0 |      23617349 | 2017-02-06 12:24:33.04114+01

 2017-02-06 13:09:05.71794+01 | 1486382945.71794 |                 0 |               8 |                 93690 |                 1712 |            5301365 |       1102928 |            10855 |        25766385 |                     0 |      23630834 | 2017-02-06 12:24:33.04114+01

 2017-02-06 13:09:06.786852+01 | 1486382946.78685 |                 0 |               8 |                 93690 |                 1712 |            5301365 |       1103428 |            10860 |        25766385 |                     0 |      23641982 | 2017-02-06 12:24:33.04114+01

 2017-02-06 13:09:07.874889+01 | 1486382947.87489 |                 0 |               8 |                 93690 |                 1712 |            5301365 |       1103928 |            10865 |        25766385 |                     0 |      23652440 | 2017-02-06 12:24:33.04114+01

 2017-02-06 13:09:08.974048+01 | 1486382948.97405 |                 0 |               8 |                 93690 |                 1712 |            5301365 |       1104528 |            10871 |        25766385 |                     0 |      23669433 | 2017-02-06 12:24:33.04114+01

 2017-02-06 13:09:10.045198+01 | 1486382950.0452 |                 0 |               8 |                 93690 |                 1712 |            5301365 |       1105028 |            10876 |        25766385 |                     0 |      23683541 | 2017-02-06 12:24:33.04114+01

 2017-02-06 13:09:11.134242+01 | 1486382951.13424 |                 0 |               8 |                 93690 |                 1712 |            5301365 |       1105628 |            10882 |        25766385 |                     0 |      23700144 | 2017-02-06 12:24:33.04114+01

 2017-02-06 13:09:12.211547+01 | 1486382952.21155 |                 0 |               8 |                 93690 |                 1712 |            5301365 |       1106128 |            10887 |        25766385 |                     0 |      23715595 | 2017-02-06 12:24:33.04114+01

 2017-02-06 13:09:13.312977+01 | 1486382953.31298 |                 0 |               8 |                 93690 |                 1712 |            5301365 |       1106628 |            10892 |        25766385 |                     0 |      23730284 | 2017-02-06 12:24:33.04114+01

 2017-02-06 13:09:14.407147+01 | 1486382954.40715 |                 0 |               8 |                 93690 |                 1712 |            5301365 |       1107228 |            10898 |        25766385 |                     0 |      23746881 | 2017-02-06 12:24:33.04114+01

 2017-02-06 13:09:15.502648+01 | 1486382955.50265 |                 0 |               8 |                 93690 |                 1712 |            5301365 |       1107728 |            10903 |        26273274 |                     0 |      23761582 | 2017-02-06 12:24:33.04114+01

 2017-02-06 13:09:16.590438+01 | 1486382956.59044 |                 0 |               8 |                 93690 |                 1712 |            5301365 |       1108328 |            10909 |        26273274 |                     0 |      23778666 | 2017-02-06 12:24:33.04114+01

 2017-02-06 13:09:17.685364+01 | 1486382957.68536 |                 0 |               8 |                 93690 |                 1712 |            5301365 |       1108828 |            10914 |        26273274 |                     0 |      23793395 | 2017-02-06 12:24:33.04114+01

 2017-02-06 13:09:18.775722+01 | 1486382958.77572 |                 0 |               8 |                 93690 |                 1712 |            5301365 |       1109328 |            10919 |        26273274 |                     0 |      23806409 | 2017-02-06 12:24:33.04114+01

 2017-02-06 13:09:19.867642+01 | 1486382959.86764 |                 0 |               8 |                 93690 |                 1712 |            5301365 |       1109928 |            10925 |        26273274 |                     0 |      23822418 | 2017-02-06 12:24:33.04114+01

 2017-02-06 13:09:20.974125+01 | 1486382960.97412 |                 0 |               8 |                 93690 |                 1712 |            5301365 |       1110428 |            10930 |        26273274 |                     0 |      23835564 | 2017-02-06 12:24:33.04114+01

 2017-02-06 13:09:22.068072+01 | 1486382962.06807 |                 0 |               8 |                 93690 |                 1712 |            5301365 |       1111028 |            10936 |        26273274 |                     0 |      23853123 | 2017-02-06 12:24:33.04114+01

 2017-02-06 13:09:23.173563+01 | 1486382963.17356 |                 0 |               8 |                 93690 |                 1712 |            5301365 |       1111528 |            10941 |        26273274 |                     0 |      23866318 | 2017-02-06 12:24:33.04114+01

 2017-02-06 13:09:24.267615+01 | 1486382964.26762 |                 0 |               8 |                 93690 |                 1712 |            5301365 |       1112028 |            10946 |        26273274 |                     0 |      23880792 | 2017-02-06 12:24:33.04114+01

 2017-02-06 13:09:25.365833+01 | 1486382965.36583 |                 0 |               8 |                 93690 |                 1712 |            5301365 |       1112628 |            10952 |        26273274 |                     0 |      23898598 | 2017-02-06 12:24:33.04114+01

 2017-02-06 13:09:26.445313+01 | 1486382966.44531 |                 0 |               8 |                 93690 |                 1712 |            5301365 |       1113128 |            10957 |        26273274 |                     0 |      23913602 | 2017-02-06 12:24:33.04114+01

 2017-02-06 13:09:27.534987+01 | 1486382967.53499 |                 0 |               8 |                 93690 |                 1712 |            5301365 |       1113728 |            10963 |        26273274 |                     0 |      23930284 | 2017-02-06 12:24:33.04114+01

 2017-02-06 13:09:28.619972+01 | 1486382968.61997 |                 0 |               8 |                 93690 |                 1712 |            5301365 |       1114228 |            10968 |        26273274 |                     0 |      23944463 | 2017-02-06 12:24:33.04114+01

 2017-02-06 13:09:29.723731+01 | 1486382969.72373 |                 0 |               8 |                 93690 |                 1712 |            5301365 |       1114728 |            10973 |        26273274 |                     0 |      23955740 | 2017-02-06 12:24:33.04114+01

 2017-02-06 13:09:30.808947+01 | 1486382970.80895 |                 0 |               8 |                 93690 |                 1712 |            5301365 |       1115328 |            10979 |        26273274 |                     0 |      23969421 | 2017-02-06 12:24:33.04114+01

 2017-02-06 13:09:31.908298+01 | 1486382971.9083 |                 0 |               8 |                 93690 |                 1712 |            5301365 |       1115828 |            10984 |        26273274 |                     0 |      23981984 | 2017-02-06 12:24:33.04114+01

 2017-02-06 13:09:33.008932+01 | 1486382973.00893 |                 0 |               8 |                 93690 |                 1712 |            5301365 |       1116428 |            10990 |        26273274 |                     0 |      23995335 | 2017-02-06 12:24:33.04114+01

 2017-02-06 13:09:34.096372+01 | 1486382974.09637 |                 0 |               8 |                 93690 |                 1712 |            5301365 |       1116928 |            10995 |        26273274 |                     0 |      24010179 | 2017-02-06 12:24:33.04114+01

 2017-02-06 13:09:35.181637+01 | 1486382975.18164 |                 0 |               8 |                 93690 |                 1712 |            5301365 |       1117428 |            11000 |        26273274 |                     0 |      24024536 | 2017-02-06 12:24:33.04114+01

 2017-02-06 13:09:36.270218+01 | 1486382976.27022 |                 0 |               8 |                 93690 |                 1712 |            5301365 |       1118028 |            11006 |        26273274 |                     0 |      24035504 | 2017-02-06 12:24:33.04114+01

 2017-02-06 13:09:37.362952+01 | 1486382977.36295 |                 0 |               8 |                 93690 |                 1712 |            5301365 |       1118528 |            11011 |        26273274 |                     0 |      24046058 | 2017-02-06 12:24:33.04114+01

 2017-02-06 13:09:38.454136+01 | 1486382978.45414 |                 0 |               8 |                 93690 |                 1712 |            5301365 |       1119128 |            11017 |        26273274 |                     0 |      24059925 | 2017-02-06 12:24:33.04114+01

 2017-02-06 13:09:39.527957+01 | 1486382979.52796 |                 0 |               8 |                 93690 |                 1712 |            5301365 |       1119628 |            11022 |        26273274 |                     0 |      24070733 | 2017-02-06 12:24:33.04114+01

 2017-02-06 13:09:40.600316+01 | 1486382980.60032 |                 0 |               8 |                 93690 |                 1712 |            5301365 |       1120128 |            11027 |        26273274 |                     0 |      24085512 | 2017-02-06 12:24:33.04114+01

 2017-02-06 13:09:41.695555+01 | 1486382981.69555 |                 0 |               8 |                 93690 |                 1712 |            5301365 |       1120728 |            11033 |        26273274 |                     0 |      24101060 | 2017-02-06 12:24:33.04114+01

 2017-02-06 13:09:42.796574+01 | 1486382982.79657 |                 0 |               8 |                 93690 |                 1712 |            5301365 |       1121228 |            11038 |        26273274 |                     0 |      24116034 | 2017-02-06 12:24:33.04114+01

 2017-02-06 13:09:43.907383+01 | 1486382983.90738 |                 0 |               8 |                 93690 |                 1712 |            5301365 |       1121728 |            11043 |        26273274 |                     0 |      24130421 | 2017-02-06 12:24:33.04114+01

 2017-02-06 13:09:45.007678+01 | 1486382985.00768 |                 0 |               8 |                 93690 |                 1712 |            5301365 |       1122328 |            11049 |        26273274 |                     0 |      24146903 | 2017-02-06 12:24:33.04114+01

 2017-02-06 13:09:46.108427+01 | 1486382986.10843 |                 0 |               8 |                 93690 |                 1712 |            5301365 |       1122828 |            11054 |        26273274 |                     0 |      24160026 | 2017-02-06 12:24:33.04114+01

 2017-02-06 13:09:47.212985+01 | 1486382987.21299 |                 0 |               8 |                 93690 |                 1712 |            5301365 |       1123428 |            11060 |        26273274 |                     0 |      24172390 | 2017-02-06 12:24:33.04114+01

 2017-02-06 13:09:48.325771+01 | 1486382988.32577 |                 0 |               8 |                 93690 |                 1712 |            5301365 |       1123928 |            11065 |        26273274 |                     0 |      24184381 | 2017-02-06 12:24:33.04114+01

 2017-02-06 13:09:49.440308+01 | 1486382989.44031 |                 0 |               8 |                 93690 |                 1712 |            5301365 |       1124528 |            11071 |        26273274 |                     0 |      24199376 | 2017-02-06 12:24:33.04114+01

 2017-02-06 13:09:50.539824+01 | 1486382990.53982 |                 0 |               8 |                 93690 |                 1712 |            5301365 |       1125028 |            11076 |        26273274 |                     0 |      24212715 | 2017-02-06 12:24:33.04114+01

 2017-02-06 13:09:51.628056+01 | 1486382991.62806 |                 0 |               8 |                 93690 |                 1712 |            5301365 |       1125628 |            11082 |        26273274 |                     0 |      24226257 | 2017-02-06 12:24:33.04114+01

 2017-02-06 13:09:52.722063+01 | 1486382992.72206 |                 0 |               8 |                 93690 |                 1712 |            5301365 |       1126128 |            11087 |        26779363 |                     0 |      24236438 | 2017-02-06 12:24:33.04114+01

 2017-02-06 13:09:53.83473+01 | 1486382993.83473 |                 0 |               8 |                 93690 |                 1712 |            5301365 |       1126728 |            11093 |        26779363 |                     0 |      24248953 | 2017-02-06 12:24:33.04114+01

 2017-02-06 13:09:54.930585+01 | 1486382994.93058 |                 0 |               8 |                 93690 |                 1712 |            5301365 |       1127228 |            11098 |        26779363 |                     0 |      24260386 | 2017-02-06 12:24:33.04114+01

 2017-02-06 13:09:56.025208+01 | 1486382996.02521 |                 0 |               8 |                 93690 |                 1712 |            5301365 |       1127728 |            11103 |        26779363 |                     0 |      24274682 | 2017-02-06 12:24:33.04114+01

 2017-02-06 13:09:57.098381+01 | 1486382997.09838 |                 0 |               8 |                 93690 |                 1712 |            5301365 |       1128328 |            11109 |        26779363 |                     0 |      24291811 | 2017-02-06 12:24:33.04114+01

 2017-02-06 13:09:58.180563+01 | 1486382998.18056 |                 0 |               8 |                 93690 |                 1712 |            5301365 |       1128828 |            11114 |        26779363 |                     0 |      24304314 | 2017-02-06 12:24:33.04114+01

 2017-02-06 13:09:59.24639+01 | 1486382999.24639 |                 0 |               8 |                 93690 |                 1712 |            5301365 |       1129328 |            11119 |        26779363 |                     0 |      24316813 | 2017-02-06 12:24:33.04114+01

 2017-02-06 13:10:00.347377+01 | 1486383000.34738 |                 0 |               8 |                 93690 |                 1712 |            5301365 |       1129928 |            11125 |        26779363 |                     0 |      24327855 | 2017-02-06 12:24:33.04114+01

 2017-02-06 13:10:01.439055+01 | 1486383001.43905 |                 0 |               8 |                 93690 |                 1712 |            5301365 |       1130428 |            11130 |        26779363 |                     0 |      24338051 | 2017-02-06 12:24:33.04114+01

 2017-02-06 13:10:02.542686+01 | 1486383002.54269 |                 0 |               8 |                 93690 |                 1712 |            5301365 |       1131028 |            11136 |        26779363 |                     0 |      24351359 | 2017-02-06 12:24:33.04114+01

 2017-02-06 13:10:03.644672+01 | 1486383003.64467 |                 0 |               8 |                 93690 |                 1712 |            5301365 |       1131528 |            11141 |        26779363 |                     0 |      24361618 | 2017-02-06 12:24:33.04114+01

