 2017-02-05 12:07:08.432501+01 | 1486292828.4325 | pgbench_accounts |       1388601344
 2017-02-05 12:07:08.432501+01 | 1486292828.4325 | pgbench_tellers  |            49152
 2017-02-05 12:07:08.432501+01 | 1486292828.4325 | pgbench_history  |                0
 2017-02-05 12:07:08.432501+01 | 1486292828.4325 | pgbench_branches |             8192

 2017-02-05 12:07:09.513407+01 | 1486292829.51341 | pgbench_accounts |       1388601344
 2017-02-05 12:07:09.513407+01 | 1486292829.51341 | pgbench_tellers  |            49152
 2017-02-05 12:07:09.513407+01 | 1486292829.51341 | pgbench_history  |          1392640
 2017-02-05 12:07:09.513407+01 | 1486292829.51341 | pgbench_branches |             8192

 2017-02-05 12:07:10.589038+01 | 1486292830.58904 | pgbench_accounts |       1388601344
 2017-02-05 12:07:10.589038+01 | 1486292830.58904 | pgbench_tellers  |            49152
 2017-02-05 12:07:10.589038+01 | 1486292830.58904 | pgbench_history  |          2236416
 2017-02-05 12:07:10.589038+01 | 1486292830.58904 | pgbench_branches |             8192

 2017-02-05 12:07:11.662823+01 | 1486292831.66282 | pgbench_accounts |       1388601344
 2017-02-05 12:07:11.662823+01 | 1486292831.66282 | pgbench_tellers  |            49152
 2017-02-05 12:07:11.662823+01 | 1486292831.66282 | pgbench_history  |          3661824
 2017-02-05 12:07:11.662823+01 | 1486292831.66282 | pgbench_branches |             8192

 2017-02-05 12:07:12.74669+01 | 1486292832.74669 | pgbench_accounts |       1388601344
 2017-02-05 12:07:12.74669+01 | 1486292832.74669 | pgbench_tellers  |            49152
 2017-02-05 12:07:12.74669+01 | 1486292832.74669 | pgbench_history  |          4710400
 2017-02-05 12:07:12.74669+01 | 1486292832.74669 | pgbench_branches |             8192

 2017-02-05 12:07:13.82895+01 | 1486292833.82895 | pgbench_accounts |       1388601344
 2017-02-05 12:07:13.82895+01 | 1486292833.82895 | pgbench_tellers  |            49152
 2017-02-05 12:07:13.82895+01 | 1486292833.82895 | pgbench_history  |          6258688
 2017-02-05 12:07:13.82895+01 | 1486292833.82895 | pgbench_branches |             8192

 2017-02-05 12:07:14.914007+01 | 1486292834.91401 | pgbench_accounts |       1388601344
 2017-02-05 12:07:14.914007+01 | 1486292834.91401 | pgbench_tellers  |            49152
 2017-02-05 12:07:14.914007+01 | 1486292834.91401 | pgbench_history  |          7176192
 2017-02-05 12:07:14.914007+01 | 1486292834.91401 | pgbench_branches |             8192

 2017-02-05 12:07:15.993872+01 | 1486292835.99387 | pgbench_accounts |       1388601344
 2017-02-05 12:07:15.993872+01 | 1486292835.99387 | pgbench_tellers  |            49152
 2017-02-05 12:07:15.993872+01 | 1486292835.99387 | pgbench_history  |          8077312
 2017-02-05 12:07:15.993872+01 | 1486292835.99387 | pgbench_branches |             8192

 2017-02-05 12:07:17.071824+01 | 1486292837.07182 | pgbench_accounts |       1388601344
 2017-02-05 12:07:17.071824+01 | 1486292837.07182 | pgbench_tellers  |            49152
 2017-02-05 12:07:17.071824+01 | 1486292837.07182 | pgbench_history  |          9248768
 2017-02-05 12:07:17.071824+01 | 1486292837.07182 | pgbench_branches |             8192

 2017-02-05 12:07:18.164437+01 | 1486292838.16444 | pgbench_accounts |       1388601344
 2017-02-05 12:07:18.164437+01 | 1486292838.16444 | pgbench_tellers  |            49152
 2017-02-05 12:07:18.164437+01 | 1486292838.16444 | pgbench_history  |         10551296
 2017-02-05 12:07:18.164437+01 | 1486292838.16444 | pgbench_branches |             8192

 2017-02-05 12:07:19.250542+01 | 1486292839.25054 | pgbench_accounts |       1388601344
 2017-02-05 12:07:19.250542+01 | 1486292839.25054 | pgbench_tellers  |            49152
 2017-02-05 12:07:19.250542+01 | 1486292839.25054 | pgbench_history  |         12238848
 2017-02-05 12:07:19.250542+01 | 1486292839.25054 | pgbench_branches |             8192

 2017-02-05 12:07:20.330582+01 | 1486292840.33058 | pgbench_accounts |       1388601344
 2017-02-05 12:07:20.330582+01 | 1486292840.33058 | pgbench_tellers  |            49152
 2017-02-05 12:07:20.330582+01 | 1486292840.33058 | pgbench_history  |         12787712
 2017-02-05 12:07:20.330582+01 | 1486292840.33058 | pgbench_branches |             8192

 2017-02-05 12:07:21.407329+01 | 1486292841.40733 | pgbench_accounts |       1388601344
 2017-02-05 12:07:21.407329+01 | 1486292841.40733 | pgbench_tellers  |            49152
 2017-02-05 12:07:21.407329+01 | 1486292841.40733 | pgbench_history  |         14049280
 2017-02-05 12:07:21.407329+01 | 1486292841.40733 | pgbench_branches |             8192

 2017-02-05 12:07:22.478897+01 | 1486292842.4789 | pgbench_accounts |       1388601344
 2017-02-05 12:07:22.478897+01 | 1486292842.4789 | pgbench_tellers  |            49152
 2017-02-05 12:07:22.478897+01 | 1486292842.4789 | pgbench_history  |         14729216
 2017-02-05 12:07:22.478897+01 | 1486292842.4789 | pgbench_branches |             8192

 2017-02-05 12:07:23.558092+01 | 1486292843.55809 | pgbench_accounts |       1388601344
 2017-02-05 12:07:23.558092+01 | 1486292843.55809 | pgbench_tellers  |            49152
 2017-02-05 12:07:23.558092+01 | 1486292843.55809 | pgbench_history  |         15785984
 2017-02-05 12:07:23.558092+01 | 1486292843.55809 | pgbench_branches |             8192

 2017-02-05 12:07:24.635425+01 | 1486292844.63543 | pgbench_accounts |       1388601344
 2017-02-05 12:07:24.635425+01 | 1486292844.63543 | pgbench_tellers  |            49152
 2017-02-05 12:07:24.635425+01 | 1486292844.63543 | pgbench_history  |         16826368
 2017-02-05 12:07:24.635425+01 | 1486292844.63543 | pgbench_branches |             8192

 2017-02-05 12:07:25.715943+01 | 1486292845.71594 | pgbench_accounts |       1388601344
 2017-02-05 12:07:25.715943+01 | 1486292845.71594 | pgbench_tellers  |            49152
 2017-02-05 12:07:25.715943+01 | 1486292845.71594 | pgbench_history  |         18096128
 2017-02-05 12:07:25.715943+01 | 1486292845.71594 | pgbench_branches |             8192

 2017-02-05 12:07:26.808358+01 | 1486292846.80836 | pgbench_accounts |       1388601344
 2017-02-05 12:07:26.808358+01 | 1486292846.80836 | pgbench_tellers  |            49152
 2017-02-05 12:07:26.808358+01 | 1486292846.80836 | pgbench_history  |         19161088
 2017-02-05 12:07:26.808358+01 | 1486292846.80836 | pgbench_branches |             8192

 2017-02-05 12:07:27.882517+01 | 1486292847.88252 | pgbench_accounts |       1388601344
 2017-02-05 12:07:27.882517+01 | 1486292847.88252 | pgbench_tellers  |            49152
 2017-02-05 12:07:27.882517+01 | 1486292847.88252 | pgbench_history  |         20045824
 2017-02-05 12:07:27.882517+01 | 1486292847.88252 | pgbench_branches |             8192

 2017-02-05 12:07:28.95764+01 | 1486292848.95764 | pgbench_accounts |       1388601344
 2017-02-05 12:07:28.95764+01 | 1486292848.95764 | pgbench_tellers  |            49152
 2017-02-05 12:07:28.95764+01 | 1486292848.95764 | pgbench_history  |         21438464
 2017-02-05 12:07:28.95764+01 | 1486292848.95764 | pgbench_branches |             8192

 2017-02-05 12:07:30.027653+01 | 1486292850.02765 | pgbench_accounts |       1388601344
 2017-02-05 12:07:30.027653+01 | 1486292850.02765 | pgbench_tellers  |            49152
 2017-02-05 12:07:30.027653+01 | 1486292850.02765 | pgbench_history  |         22470656
 2017-02-05 12:07:30.027653+01 | 1486292850.02765 | pgbench_branches |             8192

 2017-02-05 12:07:31.102612+01 | 1486292851.10261 | pgbench_accounts |       1388601344
 2017-02-05 12:07:31.102612+01 | 1486292851.10261 | pgbench_tellers  |            49152
 2017-02-05 12:07:31.102612+01 | 1486292851.10261 | pgbench_history  |         23339008
 2017-02-05 12:07:31.102612+01 | 1486292851.10261 | pgbench_branches |             8192

 2017-02-05 12:07:32.185771+01 | 1486292852.18577 | pgbench_accounts |       1388601344
 2017-02-05 12:07:32.185771+01 | 1486292852.18577 | pgbench_tellers  |            49152
 2017-02-05 12:07:32.185771+01 | 1486292852.18577 | pgbench_history  |         24698880
 2017-02-05 12:07:32.185771+01 | 1486292852.18577 | pgbench_branches |             8192

 2017-02-05 12:07:33.265952+01 | 1486292853.26595 | pgbench_accounts |       1388601344
 2017-02-05 12:07:33.265952+01 | 1486292853.26595 | pgbench_tellers  |            49152
 2017-02-05 12:07:33.265952+01 | 1486292853.26595 | pgbench_history  |         25419776
 2017-02-05 12:07:33.265952+01 | 1486292853.26595 | pgbench_branches |             8192

 2017-02-05 12:07:34.341227+01 | 1486292854.34123 | pgbench_accounts |       1388601344
 2017-02-05 12:07:34.341227+01 | 1486292854.34123 | pgbench_tellers  |            49152
 2017-02-05 12:07:34.341227+01 | 1486292854.34123 | pgbench_history  |         26976256
 2017-02-05 12:07:34.341227+01 | 1486292854.34123 | pgbench_branches |             8192

 2017-02-05 12:07:35.425054+01 | 1486292855.42505 | pgbench_accounts |       1388601344
 2017-02-05 12:07:35.425054+01 | 1486292855.42505 | pgbench_tellers  |            49152
 2017-02-05 12:07:35.425054+01 | 1486292855.42505 | pgbench_history  |         27664384
 2017-02-05 12:07:35.425054+01 | 1486292855.42505 | pgbench_branches |             8192

 2017-02-05 12:07:36.507428+01 | 1486292856.50743 | pgbench_accounts |       1388601344
 2017-02-05 12:07:36.507428+01 | 1486292856.50743 | pgbench_tellers  |            49152
 2017-02-05 12:07:36.507428+01 | 1486292856.50743 | pgbench_history  |         29024256
 2017-02-05 12:07:36.507428+01 | 1486292856.50743 | pgbench_branches |             8192

 2017-02-05 12:07:37.590581+01 | 1486292857.59058 | pgbench_accounts |       1388601344
 2017-02-05 12:07:37.590581+01 | 1486292857.59058 | pgbench_tellers  |            49152
 2017-02-05 12:07:37.590581+01 | 1486292857.59058 | pgbench_history  |         29573120
 2017-02-05 12:07:37.590581+01 | 1486292857.59058 | pgbench_branches |             8192

 2017-02-05 12:07:38.66947+01 | 1486292858.66947 | pgbench_accounts |       1388601344
 2017-02-05 12:07:38.66947+01 | 1486292858.66947 | pgbench_tellers  |            49152
 2017-02-05 12:07:38.66947+01 | 1486292858.66947 | pgbench_history  |         30490624
 2017-02-05 12:07:38.66947+01 | 1486292858.66947 | pgbench_branches |             8192

 2017-02-05 12:07:39.756921+01 | 1486292859.75692 | pgbench_accounts |       1388601344
 2017-02-05 12:07:39.756921+01 | 1486292859.75692 | pgbench_tellers  |            49152
 2017-02-05 12:07:39.756921+01 | 1486292859.75692 | pgbench_history  |         31358976
 2017-02-05 12:07:39.756921+01 | 1486292859.75692 | pgbench_branches |             8192

 2017-02-05 12:07:40.841513+01 | 1486292860.84151 | pgbench_accounts |       1388601344
 2017-02-05 12:07:40.841513+01 | 1486292860.84151 | pgbench_tellers  |            49152
 2017-02-05 12:07:40.841513+01 | 1486292860.84151 | pgbench_history  |         32432128
 2017-02-05 12:07:40.841513+01 | 1486292860.84151 | pgbench_branches |             8192

 2017-02-05 12:07:41.931625+01 | 1486292861.93162 | pgbench_accounts |       1388601344
 2017-02-05 12:07:41.931625+01 | 1486292861.93162 | pgbench_tellers  |            49152
 2017-02-05 12:07:41.931625+01 | 1486292861.93162 | pgbench_history  |         34488320
 2017-02-05 12:07:41.931625+01 | 1486292861.93162 | pgbench_branches |             8192

 2017-02-05 12:07:43.016639+01 | 1486292863.01664 | pgbench_accounts |       1388601344
 2017-02-05 12:07:43.016639+01 | 1486292863.01664 | pgbench_tellers  |            49152
 2017-02-05 12:07:43.016639+01 | 1486292863.01664 | pgbench_history  |         34488320
 2017-02-05 12:07:43.016639+01 | 1486292863.01664 | pgbench_branches |             8192

 2017-02-05 12:07:44.10347+01 | 1486292864.10347 | pgbench_accounts |       1388601344
 2017-02-05 12:07:44.10347+01 | 1486292864.10347 | pgbench_tellers  |            49152
 2017-02-05 12:07:44.10347+01 | 1486292864.10347 | pgbench_history  |         35733504
 2017-02-05 12:07:44.10347+01 | 1486292864.10347 | pgbench_branches |             8192

 2017-02-05 12:07:45.171946+01 | 1486292865.17195 | pgbench_accounts |       1388601344
 2017-02-05 12:07:45.171946+01 | 1486292865.17195 | pgbench_tellers  |            49152
 2017-02-05 12:07:45.171946+01 | 1486292865.17195 | pgbench_history  |         36790272
 2017-02-05 12:07:45.171946+01 | 1486292865.17195 | pgbench_branches |             8192

 2017-02-05 12:07:46.252807+01 | 1486292866.25281 | pgbench_accounts |       1388601344
 2017-02-05 12:07:46.252807+01 | 1486292866.25281 | pgbench_tellers  |            49152
 2017-02-05 12:07:46.252807+01 | 1486292866.25281 | pgbench_history  |         37724160
 2017-02-05 12:07:46.252807+01 | 1486292866.25281 | pgbench_branches |             8192

 2017-02-05 12:07:47.327875+01 | 1486292867.32787 | pgbench_accounts |       1388601344
 2017-02-05 12:07:47.327875+01 | 1486292867.32787 | pgbench_tellers  |            49152
 2017-02-05 12:07:47.327875+01 | 1486292867.32787 | pgbench_history  |         38838272
 2017-02-05 12:07:47.327875+01 | 1486292867.32787 | pgbench_branches |             8192

 2017-02-05 12:07:48.407643+01 | 1486292868.40764 | pgbench_accounts |       1388601344
 2017-02-05 12:07:48.407643+01 | 1486292868.40764 | pgbench_tellers  |            49152
 2017-02-05 12:07:48.407643+01 | 1486292868.40764 | pgbench_history  |         39895040
 2017-02-05 12:07:48.407643+01 | 1486292868.40764 | pgbench_branches |             8192

 2017-02-05 12:07:49.482502+01 | 1486292869.4825 | pgbench_accounts |       1388601344
 2017-02-05 12:07:49.482502+01 | 1486292869.4825 | pgbench_tellers  |            49152
 2017-02-05 12:07:49.482502+01 | 1486292869.4825 | pgbench_history  |         41328640
 2017-02-05 12:07:49.482502+01 | 1486292869.4825 | pgbench_branches |             8192

 2017-02-05 12:07:50.561746+01 | 1486292870.56175 | pgbench_accounts |       1388601344
 2017-02-05 12:07:50.561746+01 | 1486292870.56175 | pgbench_tellers  |            49152
 2017-02-05 12:07:50.561746+01 | 1486292870.56175 | pgbench_history  |         42074112
 2017-02-05 12:07:50.561746+01 | 1486292870.56175 | pgbench_branches |             8192

 2017-02-05 12:07:51.637056+01 | 1486292871.63706 | pgbench_accounts |       1388601344
 2017-02-05 12:07:51.637056+01 | 1486292871.63706 | pgbench_tellers  |            49152
 2017-02-05 12:07:51.637056+01 | 1486292871.63706 | pgbench_history  |         43008000
 2017-02-05 12:07:51.637056+01 | 1486292871.63706 | pgbench_branches |             8192

 2017-02-05 12:07:52.715724+01 | 1486292872.71572 | pgbench_accounts |       1388601344
 2017-02-05 12:07:52.715724+01 | 1486292872.71572 | pgbench_tellers  |            49152
 2017-02-05 12:07:52.715724+01 | 1486292872.71572 | pgbench_history  |         44400640
 2017-02-05 12:07:52.715724+01 | 1486292872.71572 | pgbench_branches |             8192

 2017-02-05 12:07:53.79199+01 | 1486292873.79199 | pgbench_accounts |       1388601344
 2017-02-05 12:07:53.79199+01 | 1486292873.79199 | pgbench_tellers  |            49152
 2017-02-05 12:07:53.79199+01 | 1486292873.79199 | pgbench_history  |         45252608
 2017-02-05 12:07:53.79199+01 | 1486292873.79199 | pgbench_branches |             8192

 2017-02-05 12:07:54.882778+01 | 1486292874.88278 | pgbench_accounts |       1388601344
 2017-02-05 12:07:54.882778+01 | 1486292874.88278 | pgbench_tellers  |            49152
 2017-02-05 12:07:54.882778+01 | 1486292874.88278 | pgbench_history  |         46792704
 2017-02-05 12:07:54.882778+01 | 1486292874.88278 | pgbench_branches |             8192

 2017-02-05 12:07:55.957366+01 | 1486292875.95737 | pgbench_accounts |       1388601344
 2017-02-05 12:07:55.957366+01 | 1486292875.95737 | pgbench_tellers  |            49152
 2017-02-05 12:07:55.957366+01 | 1486292875.95737 | pgbench_history  |         47316992
 2017-02-05 12:07:55.957366+01 | 1486292875.95737 | pgbench_branches |             8192

 2017-02-05 12:07:57.041485+01 | 1486292877.04149 | pgbench_accounts |       1388601344
 2017-02-05 12:07:57.041485+01 | 1486292877.04149 | pgbench_tellers  |            49152
 2017-02-05 12:07:57.041485+01 | 1486292877.04149 | pgbench_history  |         48513024
 2017-02-05 12:07:57.041485+01 | 1486292877.04149 | pgbench_branches |             8192

 2017-02-05 12:07:58.127807+01 | 1486292878.12781 | pgbench_accounts |       1388601344
 2017-02-05 12:07:58.127807+01 | 1486292878.12781 | pgbench_tellers  |            49152
 2017-02-05 12:07:58.127807+01 | 1486292878.12781 | pgbench_history  |         49577984
 2017-02-05 12:07:58.127807+01 | 1486292878.12781 | pgbench_branches |             8192

 2017-02-05 12:07:59.211263+01 | 1486292879.21126 | pgbench_accounts |       1388601344
 2017-02-05 12:07:59.211263+01 | 1486292879.21126 | pgbench_tellers  |            49152
 2017-02-05 12:07:59.211263+01 | 1486292879.21126 | pgbench_history  |         50503680
 2017-02-05 12:07:59.211263+01 | 1486292879.21126 | pgbench_branches |             8192

 2017-02-05 12:08:00.289227+01 | 1486292880.28923 | pgbench_accounts |       1388601344
 2017-02-05 12:08:00.289227+01 | 1486292880.28923 | pgbench_tellers  |            49152
 2017-02-05 12:08:00.289227+01 | 1486292880.28923 | pgbench_history  |         51699712
 2017-02-05 12:08:00.289227+01 | 1486292880.28923 | pgbench_branches |             8192

 2017-02-05 12:08:01.367782+01 | 1486292881.36778 | pgbench_accounts |       1388601344
 2017-02-05 12:08:01.367782+01 | 1486292881.36778 | pgbench_tellers  |            49152
 2017-02-05 12:08:01.367782+01 | 1486292881.36778 | pgbench_history  |         52895744
 2017-02-05 12:08:01.367782+01 | 1486292881.36778 | pgbench_branches |             8192

 2017-02-05 12:08:02.448807+01 | 1486292882.44881 | pgbench_accounts |       1388601344
 2017-02-05 12:08:02.448807+01 | 1486292882.44881 | pgbench_tellers  |            49152
 2017-02-05 12:08:02.448807+01 | 1486292882.44881 | pgbench_history  |         53805056
 2017-02-05 12:08:02.448807+01 | 1486292882.44881 | pgbench_branches |             8192

 2017-02-05 12:08:03.53649+01 | 1486292883.53649 | pgbench_accounts |       1388601344
 2017-02-05 12:08:03.53649+01 | 1486292883.53649 | pgbench_tellers  |            49152
 2017-02-05 12:08:03.53649+01 | 1486292883.53649 | pgbench_history  |         54550528
 2017-02-05 12:08:03.53649+01 | 1486292883.53649 | pgbench_branches |             8192

 2017-02-05 12:08:04.612422+01 | 1486292884.61242 | pgbench_accounts |       1388601344
 2017-02-05 12:08:04.612422+01 | 1486292884.61242 | pgbench_tellers  |            49152
 2017-02-05 12:08:04.612422+01 | 1486292884.61242 | pgbench_history  |         55443456
 2017-02-05 12:08:04.612422+01 | 1486292884.61242 | pgbench_branches |             8192

 2017-02-05 12:08:05.699727+01 | 1486292885.69973 | pgbench_accounts |       1388601344
 2017-02-05 12:08:05.699727+01 | 1486292885.69973 | pgbench_tellers  |            49152
 2017-02-05 12:08:05.699727+01 | 1486292885.69973 | pgbench_history  |         56508416
 2017-02-05 12:08:05.699727+01 | 1486292885.69973 | pgbench_branches |             8192

 2017-02-05 12:08:06.782834+01 | 1486292886.78283 | pgbench_accounts |       1388601344
 2017-02-05 12:08:06.782834+01 | 1486292886.78283 | pgbench_tellers  |            49152
 2017-02-05 12:08:06.782834+01 | 1486292886.78283 | pgbench_history  |         57720832
 2017-02-05 12:08:06.782834+01 | 1486292886.78283 | pgbench_branches |             8192

 2017-02-05 12:08:07.870016+01 | 1486292887.87002 | pgbench_accounts |       1388601344
 2017-02-05 12:08:07.870016+01 | 1486292887.87002 | pgbench_tellers  |            49152
 2017-02-05 12:08:07.870016+01 | 1486292887.87002 | pgbench_history  |         58851328
 2017-02-05 12:08:07.870016+01 | 1486292887.87002 | pgbench_branches |             8192

 2017-02-05 12:08:08.9421+01 | 1486292888.9421 | pgbench_accounts |       1388601344
 2017-02-05 12:08:08.9421+01 | 1486292888.9421 | pgbench_tellers  |            49152
 2017-02-05 12:08:08.9421+01 | 1486292888.9421 | pgbench_history  |         59736064
 2017-02-05 12:08:08.9421+01 | 1486292888.9421 | pgbench_branches |             8192

 2017-02-05 12:08:10.017503+01 | 1486292890.0175 | pgbench_accounts |       1388601344
 2017-02-05 12:08:10.017503+01 | 1486292890.0175 | pgbench_tellers  |            49152
 2017-02-05 12:08:10.017503+01 | 1486292890.0175 | pgbench_history  |         60784640
 2017-02-05 12:08:10.017503+01 | 1486292890.0175 | pgbench_branches |             8192

 2017-02-05 12:08:11.099958+01 | 1486292891.09996 | pgbench_accounts |       1388601344
 2017-02-05 12:08:11.099958+01 | 1486292891.09996 | pgbench_tellers  |            49152
 2017-02-05 12:08:11.099958+01 | 1486292891.09996 | pgbench_history  |         62021632
 2017-02-05 12:08:11.099958+01 | 1486292891.09996 | pgbench_branches |             8192

 2017-02-05 12:08:12.171916+01 | 1486292892.17192 | pgbench_accounts |       1388601344
 2017-02-05 12:08:12.171916+01 | 1486292892.17192 | pgbench_tellers  |            49152
 2017-02-05 12:08:12.171916+01 | 1486292892.17192 | pgbench_history  |         62808064
 2017-02-05 12:08:12.171916+01 | 1486292892.17192 | pgbench_branches |             8192

 2017-02-05 12:08:13.252001+01 | 1486292893.252 | pgbench_accounts |       1388601344
 2017-02-05 12:08:13.252001+01 | 1486292893.252 | pgbench_tellers  |            49152
 2017-02-05 12:08:13.252001+01 | 1486292893.252 | pgbench_history  |         63717376
 2017-02-05 12:08:13.252001+01 | 1486292893.252 | pgbench_branches |             8192

 2017-02-05 12:08:14.32794+01 | 1486292894.32794 | pgbench_accounts |       1388601344
 2017-02-05 12:08:14.32794+01 | 1486292894.32794 | pgbench_tellers  |            49152
 2017-02-05 12:08:14.32794+01 | 1486292894.32794 | pgbench_history  |         64806912
 2017-02-05 12:08:14.32794+01 | 1486292894.32794 | pgbench_branches |             8192

 2017-02-05 12:08:15.411066+01 | 1486292895.41107 | pgbench_accounts |       1388601344
 2017-02-05 12:08:15.411066+01 | 1486292895.41107 | pgbench_tellers  |            49152
 2017-02-05 12:08:15.411066+01 | 1486292895.41107 | pgbench_history  |         66027520
 2017-02-05 12:08:15.411066+01 | 1486292895.41107 | pgbench_branches |             8192

 2017-02-05 12:08:16.495102+01 | 1486292896.4951 | pgbench_accounts |       1388601344
 2017-02-05 12:08:16.495102+01 | 1486292896.4951 | pgbench_tellers  |            49152
 2017-02-05 12:08:16.495102+01 | 1486292896.4951 | pgbench_history  |         67059712
 2017-02-05 12:08:16.495102+01 | 1486292896.4951 | pgbench_branches |             8192

 2017-02-05 12:08:17.572914+01 | 1486292897.57291 | pgbench_accounts |       1388601344
 2017-02-05 12:08:17.572914+01 | 1486292897.57291 | pgbench_tellers  |            49152
 2017-02-05 12:08:17.572914+01 | 1486292897.57291 | pgbench_history  |         67944448
 2017-02-05 12:08:17.572914+01 | 1486292897.57291 | pgbench_branches |             8192

 2017-02-05 12:08:18.653563+01 | 1486292898.65356 | pgbench_accounts |       1388601344
 2017-02-05 12:08:18.653563+01 | 1486292898.65356 | pgbench_tellers  |            49152
 2017-02-05 12:08:18.653563+01 | 1486292898.65356 | pgbench_history  |         69033984
 2017-02-05 12:08:18.653563+01 | 1486292898.65356 | pgbench_branches |             8192

 2017-02-05 12:08:19.724933+01 | 1486292899.72493 | pgbench_accounts |       1388601344
 2017-02-05 12:08:19.724933+01 | 1486292899.72493 | pgbench_tellers  |            49152
 2017-02-05 12:08:19.724933+01 | 1486292899.72493 | pgbench_history  |         70066176
 2017-02-05 12:08:19.724933+01 | 1486292899.72493 | pgbench_branches |             8192

 2017-02-05 12:08:20.796113+01 | 1486292900.79611 | pgbench_accounts |       1388601344
 2017-02-05 12:08:20.796113+01 | 1486292900.79611 | pgbench_tellers  |            49152
 2017-02-05 12:08:20.796113+01 | 1486292900.79611 | pgbench_history  |         70983680
 2017-02-05 12:08:20.796113+01 | 1486292900.79611 | pgbench_branches |             8192

 2017-02-05 12:08:21.864156+01 | 1486292901.86416 | pgbench_accounts |       1388601344
 2017-02-05 12:08:21.864156+01 | 1486292901.86416 | pgbench_tellers  |            49152
 2017-02-05 12:08:21.864156+01 | 1486292901.86416 | pgbench_history  |         72024064
 2017-02-05 12:08:21.864156+01 | 1486292901.86416 | pgbench_branches |             8192

 2017-02-05 12:08:22.948482+01 | 1486292902.94848 | pgbench_accounts |       1388601344
 2017-02-05 12:08:22.948482+01 | 1486292902.94848 | pgbench_tellers  |            49152
 2017-02-05 12:08:22.948482+01 | 1486292902.94848 | pgbench_history  |         73031680
 2017-02-05 12:08:22.948482+01 | 1486292902.94848 | pgbench_branches |             8192

 2017-02-05 12:08:24.029029+01 | 1486292904.02903 | pgbench_accounts |       1388601344
 2017-02-05 12:08:24.029029+01 | 1486292904.02903 | pgbench_tellers  |            49152
 2017-02-05 12:08:24.029029+01 | 1486292904.02903 | pgbench_history  |         74252288
 2017-02-05 12:08:24.029029+01 | 1486292904.02903 | pgbench_branches |             8192

 2017-02-05 12:08:25.117477+01 | 1486292905.11748 | pgbench_accounts |       1388601344
 2017-02-05 12:08:25.117477+01 | 1486292905.11748 | pgbench_tellers  |            49152
 2017-02-05 12:08:25.117477+01 | 1486292905.11748 | pgbench_history  |         75120640
 2017-02-05 12:08:25.117477+01 | 1486292905.11748 | pgbench_branches |             8192

 2017-02-05 12:08:26.211309+01 | 1486292906.21131 | pgbench_accounts |       1388601344
 2017-02-05 12:08:26.211309+01 | 1486292906.21131 | pgbench_tellers  |            49152
 2017-02-05 12:08:26.211309+01 | 1486292906.21131 | pgbench_history  |         76480512
 2017-02-05 12:08:26.211309+01 | 1486292906.21131 | pgbench_branches |             8192

 2017-02-05 12:08:27.290021+01 | 1486292907.29002 | pgbench_accounts |       1388601344
 2017-02-05 12:08:27.290021+01 | 1486292907.29002 | pgbench_tellers  |            49152
 2017-02-05 12:08:27.290021+01 | 1486292907.29002 | pgbench_history  |         77168640
 2017-02-05 12:08:27.290021+01 | 1486292907.29002 | pgbench_branches |             8192

 2017-02-05 12:08:28.373357+01 | 1486292908.37336 | pgbench_accounts |       1388601344
 2017-02-05 12:08:28.373357+01 | 1486292908.37336 | pgbench_tellers  |            49152
 2017-02-05 12:08:28.373357+01 | 1486292908.37336 | pgbench_history  |         78528512
 2017-02-05 12:08:28.373357+01 | 1486292908.37336 | pgbench_branches |             8192

 2017-02-05 12:08:29.450426+01 | 1486292909.45043 | pgbench_accounts |       1388601344
 2017-02-05 12:08:29.450426+01 | 1486292909.45043 | pgbench_tellers  |            49152
 2017-02-05 12:08:29.450426+01 | 1486292909.45043 | pgbench_history  |         79405056
 2017-02-05 12:08:29.450426+01 | 1486292909.45043 | pgbench_branches |             8192

 2017-02-05 12:08:30.525315+01 | 1486292910.52532 | pgbench_accounts |       1388601344
 2017-02-05 12:08:30.525315+01 | 1486292910.52532 | pgbench_tellers  |            49152
 2017-02-05 12:08:30.525315+01 | 1486292910.52532 | pgbench_history  |         80297984
 2017-02-05 12:08:30.525315+01 | 1486292910.52532 | pgbench_branches |             8192

 2017-02-05 12:08:31.602116+01 | 1486292911.60212 | pgbench_accounts |       1388601344
 2017-02-05 12:08:31.602116+01 | 1486292911.60212 | pgbench_tellers  |            49152
 2017-02-05 12:08:31.602116+01 | 1486292911.60212 | pgbench_history  |         81526784
 2017-02-05 12:08:31.602116+01 | 1486292911.60212 | pgbench_branches |             8192

 2017-02-05 12:08:32.680252+01 | 1486292912.68025 | pgbench_accounts |       1388601344
 2017-02-05 12:08:32.680252+01 | 1486292912.68025 | pgbench_tellers  |            49152
 2017-02-05 12:08:32.680252+01 | 1486292912.68025 | pgbench_history  |         82305024
 2017-02-05 12:08:32.680252+01 | 1486292912.68025 | pgbench_branches |             8192

 2017-02-05 12:08:33.762634+01 | 1486292913.76263 | pgbench_accounts |       1388601344
 2017-02-05 12:08:33.762634+01 | 1486292913.76263 | pgbench_tellers  |            49152
 2017-02-05 12:08:33.762634+01 | 1486292913.76263 | pgbench_history  |         83410944
 2017-02-05 12:08:33.762634+01 | 1486292913.76263 | pgbench_branches |             8192

 2017-02-05 12:08:34.84225+01 | 1486292914.84225 | pgbench_accounts |       1388601344
 2017-02-05 12:08:34.84225+01 | 1486292914.84225 | pgbench_tellers  |            49152
 2017-02-05 12:08:34.84225+01 | 1486292914.84225 | pgbench_history  |         84500480
 2017-02-05 12:08:34.84225+01 | 1486292914.84225 | pgbench_branches |             8192

 2017-02-05 12:08:35.927178+01 | 1486292915.92718 | pgbench_accounts |       1388601344
 2017-02-05 12:08:35.927178+01 | 1486292915.92718 | pgbench_tellers  |            49152
 2017-02-05 12:08:35.927178+01 | 1486292915.92718 | pgbench_history  |         85557248
 2017-02-05 12:08:35.927178+01 | 1486292915.92718 | pgbench_branches |             8192

 2017-02-05 12:08:37.000747+01 | 1486292917.00075 | pgbench_accounts |       1388601344
 2017-02-05 12:08:37.000747+01 | 1486292917.00075 | pgbench_tellers  |            49152
 2017-02-05 12:08:37.000747+01 | 1486292917.00075 | pgbench_history  |         87105536
 2017-02-05 12:08:37.000747+01 | 1486292917.00075 | pgbench_branches |             8192

 2017-02-05 12:08:38.083268+01 | 1486292918.08327 | pgbench_accounts |       1388601344
 2017-02-05 12:08:38.083268+01 | 1486292918.08327 | pgbench_tellers  |            49152
 2017-02-05 12:08:38.083268+01 | 1486292918.08327 | pgbench_history  |         87785472
 2017-02-05 12:08:38.083268+01 | 1486292918.08327 | pgbench_branches |             8192

 2017-02-05 12:08:39.162503+01 | 1486292919.1625 | pgbench_accounts |       1388601344
 2017-02-05 12:08:39.162503+01 | 1486292919.1625 | pgbench_tellers  |            49152
 2017-02-05 12:08:39.162503+01 | 1486292919.1625 | pgbench_history  |         88514560
 2017-02-05 12:08:39.162503+01 | 1486292919.1625 | pgbench_branches |             8192

 2017-02-05 12:08:40.25353+01 | 1486292920.25353 | pgbench_accounts |       1388601344
 2017-02-05 12:08:40.25353+01 | 1486292920.25353 | pgbench_tellers  |            49152
 2017-02-05 12:08:40.25353+01 | 1486292920.25353 | pgbench_history  |         89874432
 2017-02-05 12:08:40.25353+01 | 1486292920.25353 | pgbench_branches |             8192

 2017-02-05 12:08:41.327679+01 | 1486292921.32768 | pgbench_accounts |       1388601344
 2017-02-05 12:08:41.327679+01 | 1486292921.32768 | pgbench_tellers  |            49152
 2017-02-05 12:08:41.327679+01 | 1486292921.32768 | pgbench_history  |         90587136
 2017-02-05 12:08:41.327679+01 | 1486292921.32768 | pgbench_branches |             8192

 2017-02-05 12:08:42.409807+01 | 1486292922.40981 | pgbench_accounts |       1388601344
 2017-02-05 12:08:42.409807+01 | 1486292922.40981 | pgbench_tellers  |            49152
 2017-02-05 12:08:42.409807+01 | 1486292922.40981 | pgbench_history  |         91471872
 2017-02-05 12:08:42.409807+01 | 1486292922.40981 | pgbench_branches |             8192

 2017-02-05 12:08:43.497332+01 | 1486292923.49733 | pgbench_accounts |       1388601344
 2017-02-05 12:08:43.497332+01 | 1486292923.49733 | pgbench_tellers  |            49152
 2017-02-05 12:08:43.497332+01 | 1486292923.49733 | pgbench_history  |         92856320
 2017-02-05 12:08:43.497332+01 | 1486292923.49733 | pgbench_branches |             8192

 2017-02-05 12:08:44.577267+01 | 1486292924.57727 | pgbench_accounts |       1388601344
 2017-02-05 12:08:44.577267+01 | 1486292924.57727 | pgbench_tellers  |            49152
 2017-02-05 12:08:44.577267+01 | 1486292924.57727 | pgbench_history  |         93536256
 2017-02-05 12:08:44.577267+01 | 1486292924.57727 | pgbench_branches |             8192

 2017-02-05 12:08:45.654867+01 | 1486292925.65487 | pgbench_accounts |       1388601344
 2017-02-05 12:08:45.654867+01 | 1486292925.65487 | pgbench_tellers  |            49152
 2017-02-05 12:08:45.654867+01 | 1486292925.65487 | pgbench_history  |         94257152
 2017-02-05 12:08:45.654867+01 | 1486292925.65487 | pgbench_branches |             8192

 2017-02-05 12:08:46.736238+01 | 1486292926.73624 | pgbench_accounts |       1388601344
 2017-02-05 12:08:46.736238+01 | 1486292926.73624 | pgbench_tellers  |            49152
 2017-02-05 12:08:46.736238+01 | 1486292926.73624 | pgbench_history  |         95305728
 2017-02-05 12:08:46.736238+01 | 1486292926.73624 | pgbench_branches |             8192

 2017-02-05 12:08:47.822279+01 | 1486292927.82228 | pgbench_accounts |       1388601344
 2017-02-05 12:08:47.822279+01 | 1486292927.82228 | pgbench_tellers  |            49152
 2017-02-05 12:08:47.822279+01 | 1486292927.82228 | pgbench_history  |         96337920
 2017-02-05 12:08:47.822279+01 | 1486292927.82228 | pgbench_branches |             8192

 2017-02-05 12:08:48.912467+01 | 1486292928.91247 | pgbench_accounts |       1388601344
 2017-02-05 12:08:48.912467+01 | 1486292928.91247 | pgbench_tellers  |            49152
 2017-02-05 12:08:48.912467+01 | 1486292928.91247 | pgbench_history  |         97763328
 2017-02-05 12:08:48.912467+01 | 1486292928.91247 | pgbench_branches |             8192

 2017-02-05 12:08:50.001524+01 | 1486292930.00152 | pgbench_accounts |       1388601344
 2017-02-05 12:08:50.001524+01 | 1486292930.00152 | pgbench_tellers  |            49152
 2017-02-05 12:08:50.001524+01 | 1486292930.00152 | pgbench_history  |         98140160
 2017-02-05 12:08:50.001524+01 | 1486292930.00152 | pgbench_branches |             8192

 2017-02-05 12:08:51.086737+01 | 1486292931.08674 | pgbench_accounts |       1388601344
 2017-02-05 12:08:51.086737+01 | 1486292931.08674 | pgbench_tellers  |            49152
 2017-02-05 12:08:51.086737+01 | 1486292931.08674 | pgbench_history  |         99344384
 2017-02-05 12:08:51.086737+01 | 1486292931.08674 | pgbench_branches |             8192

 2017-02-05 12:08:52.175495+01 | 1486292932.17549 | pgbench_accounts |       1388601344
 2017-02-05 12:08:52.175495+01 | 1486292932.17549 | pgbench_tellers  |            49152
 2017-02-05 12:08:52.175495+01 | 1486292932.17549 | pgbench_history  |        100409344
 2017-02-05 12:08:52.175495+01 | 1486292932.17549 | pgbench_branches |             8192

 2017-02-05 12:08:53.251671+01 | 1486292933.25167 | pgbench_accounts |       1388601344
 2017-02-05 12:08:53.251671+01 | 1486292933.25167 | pgbench_tellers  |            49152
 2017-02-05 12:08:53.251671+01 | 1486292933.25167 | pgbench_history  |        101113856
 2017-02-05 12:08:53.251671+01 | 1486292933.25167 | pgbench_branches |             8192

 2017-02-05 12:08:54.326456+01 | 1486292934.32646 | pgbench_accounts |       1388601344
 2017-02-05 12:08:54.326456+01 | 1486292934.32646 | pgbench_tellers  |            49152
 2017-02-05 12:08:54.326456+01 | 1486292934.32646 | pgbench_history  |        101957632
 2017-02-05 12:08:54.326456+01 | 1486292934.32646 | pgbench_branches |             8192

 2017-02-05 12:08:55.401854+01 | 1486292935.40185 | pgbench_accounts |       1388601344
 2017-02-05 12:08:55.401854+01 | 1486292935.40185 | pgbench_tellers  |            49152
 2017-02-05 12:08:55.401854+01 | 1486292935.40185 | pgbench_history  |        103153664
 2017-02-05 12:08:55.401854+01 | 1486292935.40185 | pgbench_branches |             8192

 2017-02-05 12:08:56.480746+01 | 1486292936.48075 | pgbench_accounts |       1388601344
 2017-02-05 12:08:56.480746+01 | 1486292936.48075 | pgbench_tellers  |            49152
 2017-02-05 12:08:56.480746+01 | 1486292936.48075 | pgbench_history  |        103858176
 2017-02-05 12:08:56.480746+01 | 1486292936.48075 | pgbench_branches |             8192

 2017-02-05 12:08:57.558872+01 | 1486292937.55887 | pgbench_accounts |       1388601344
 2017-02-05 12:08:57.558872+01 | 1486292937.55887 | pgbench_tellers  |            49152
 2017-02-05 12:08:57.558872+01 | 1486292937.55887 | pgbench_history  |        105250816
 2017-02-05 12:08:57.558872+01 | 1486292937.55887 | pgbench_branches |             8192

 2017-02-05 12:08:58.64598+01 | 1486292938.64598 | pgbench_accounts |       1388601344
 2017-02-05 12:08:58.64598+01 | 1486292938.64598 | pgbench_tellers  |            49152
 2017-02-05 12:08:58.64598+01 | 1486292938.64598 | pgbench_history  |        106332160
 2017-02-05 12:08:58.64598+01 | 1486292938.64598 | pgbench_branches |             8192

 2017-02-05 12:08:59.718642+01 | 1486292939.71864 | pgbench_accounts |       1388601344
 2017-02-05 12:08:59.718642+01 | 1486292939.71864 | pgbench_tellers  |            49152
 2017-02-05 12:08:59.718642+01 | 1486292939.71864 | pgbench_history  |        107413504
 2017-02-05 12:08:59.718642+01 | 1486292939.71864 | pgbench_branches |             8192

 2017-02-05 12:09:00.800662+01 | 1486292940.80066 | pgbench_accounts |       1388601344
 2017-02-05 12:09:00.800662+01 | 1486292940.80066 | pgbench_tellers  |            49152
 2017-02-05 12:09:00.800662+01 | 1486292940.80066 | pgbench_history  |        108273664
 2017-02-05 12:09:00.800662+01 | 1486292940.80066 | pgbench_branches |             8192

 2017-02-05 12:09:01.8893+01 | 1486292941.8893 | pgbench_accounts |       1388601344
 2017-02-05 12:09:01.8893+01 | 1486292941.8893 | pgbench_tellers  |            49152
 2017-02-05 12:09:01.8893+01 | 1486292941.8893 | pgbench_history  |        109150208
 2017-02-05 12:09:01.8893+01 | 1486292941.8893 | pgbench_branches |             8192

 2017-02-05 12:09:02.98138+01 | 1486292942.98138 | pgbench_accounts |       1388601344
 2017-02-05 12:09:02.98138+01 | 1486292942.98138 | pgbench_tellers  |            49152
 2017-02-05 12:09:02.98138+01 | 1486292942.98138 | pgbench_history  |        110403584
 2017-02-05 12:09:02.98138+01 | 1486292942.98138 | pgbench_branches |             8192

 2017-02-05 12:09:04.067029+01 | 1486292944.06703 | pgbench_accounts |       1388601344
 2017-02-05 12:09:04.067029+01 | 1486292944.06703 | pgbench_tellers  |            49152
 2017-02-05 12:09:04.067029+01 | 1486292944.06703 | pgbench_history  |        111820800
 2017-02-05 12:09:04.067029+01 | 1486292944.06703 | pgbench_branches |             8192

 2017-02-05 12:09:05.159765+01 | 1486292945.15977 | pgbench_accounts |       1388601344
 2017-02-05 12:09:05.159765+01 | 1486292945.15977 | pgbench_tellers  |            49152
 2017-02-05 12:09:05.159765+01 | 1486292945.15977 | pgbench_history  |        112664576
 2017-02-05 12:09:05.159765+01 | 1486292945.15977 | pgbench_branches |             8192

 2017-02-05 12:09:06.247338+01 | 1486292946.24734 | pgbench_accounts |       1388601344
 2017-02-05 12:09:06.247338+01 | 1486292946.24734 | pgbench_tellers  |            49152
 2017-02-05 12:09:06.247338+01 | 1486292946.24734 | pgbench_history  |        113557504
 2017-02-05 12:09:06.247338+01 | 1486292946.24734 | pgbench_branches |             8192

 2017-02-05 12:09:07.332105+01 | 1486292947.3321 | pgbench_accounts |       1388601344
 2017-02-05 12:09:07.332105+01 | 1486292947.3321 | pgbench_tellers  |            49152
 2017-02-05 12:09:07.332105+01 | 1486292947.3321 | pgbench_history  |        114589696
 2017-02-05 12:09:07.332105+01 | 1486292947.3321 | pgbench_branches |             8192

 2017-02-05 12:09:08.416263+01 | 1486292948.41626 | pgbench_accounts |       1388601344
 2017-02-05 12:09:08.416263+01 | 1486292948.41626 | pgbench_tellers  |            49152
 2017-02-05 12:09:08.416263+01 | 1486292948.41626 | pgbench_history  |        116023296
 2017-02-05 12:09:08.416263+01 | 1486292948.41626 | pgbench_branches |             8192

 2017-02-05 12:09:09.499148+01 | 1486292949.49915 | pgbench_accounts |       1388601344
 2017-02-05 12:09:09.499148+01 | 1486292949.49915 | pgbench_tellers  |            49152
 2017-02-05 12:09:09.499148+01 | 1486292949.49915 | pgbench_history  |        116932608
 2017-02-05 12:09:09.499148+01 | 1486292949.49915 | pgbench_branches |             8192

 2017-02-05 12:09:10.580889+01 | 1486292950.58089 | pgbench_accounts |       1388601344
 2017-02-05 12:09:10.580889+01 | 1486292950.58089 | pgbench_tellers  |            49152
 2017-02-05 12:09:10.580889+01 | 1486292950.58089 | pgbench_history  |        117989376
 2017-02-05 12:09:10.580889+01 | 1486292950.58089 | pgbench_branches |             8192

 2017-02-05 12:09:11.659581+01 | 1486292951.65958 | pgbench_accounts |       1388601344
 2017-02-05 12:09:11.659581+01 | 1486292951.65958 | pgbench_tellers  |            49152
 2017-02-05 12:09:11.659581+01 | 1486292951.65958 | pgbench_history  |        118996992
 2017-02-05 12:09:11.659581+01 | 1486292951.65958 | pgbench_branches |             8192

 2017-02-05 12:09:12.741431+01 | 1486292952.74143 | pgbench_accounts |       1388601344
 2017-02-05 12:09:12.741431+01 | 1486292952.74143 | pgbench_tellers  |            49152
 2017-02-05 12:09:12.741431+01 | 1486292952.74143 | pgbench_history  |        119840768
 2017-02-05 12:09:12.741431+01 | 1486292952.74143 | pgbench_branches |             8192

 2017-02-05 12:09:13.821664+01 | 1486292953.82166 | pgbench_accounts |       1388601344
 2017-02-05 12:09:13.821664+01 | 1486292953.82166 | pgbench_tellers  |            49152
 2017-02-05 12:09:13.821664+01 | 1486292953.82166 | pgbench_history  |        121405440
 2017-02-05 12:09:13.821664+01 | 1486292953.82166 | pgbench_branches |             8192

 2017-02-05 12:09:14.903075+01 | 1486292954.90307 | pgbench_accounts |       1388601344
 2017-02-05 12:09:14.903075+01 | 1486292954.90307 | pgbench_tellers  |            49152
 2017-02-05 12:09:14.903075+01 | 1486292954.90307 | pgbench_history  |        122085376
 2017-02-05 12:09:14.903075+01 | 1486292954.90307 | pgbench_branches |             8192

 2017-02-05 12:09:15.99239+01 | 1486292955.99239 | pgbench_accounts |       1388601344
 2017-02-05 12:09:15.99239+01 | 1486292955.99239 | pgbench_tellers  |            49152
 2017-02-05 12:09:15.99239+01 | 1486292955.99239 | pgbench_history  |        122953728
 2017-02-05 12:09:15.99239+01 | 1486292955.99239 | pgbench_branches |             8192

 2017-02-05 12:09:17.083396+01 | 1486292957.0834 | pgbench_accounts |       1388601344
 2017-02-05 12:09:17.083396+01 | 1486292957.0834 | pgbench_tellers  |            49152
 2017-02-05 12:09:17.083396+01 | 1486292957.0834 | pgbench_history  |        124149760
 2017-02-05 12:09:17.083396+01 | 1486292957.0834 | pgbench_branches |             8192

 2017-02-05 12:09:18.167534+01 | 1486292958.16753 | pgbench_accounts |       1388601344
 2017-02-05 12:09:18.167534+01 | 1486292958.16753 | pgbench_tellers  |            49152
 2017-02-05 12:09:18.167534+01 | 1486292958.16753 | pgbench_history  |        125345792
 2017-02-05 12:09:18.167534+01 | 1486292958.16753 | pgbench_branches |             8192

 2017-02-05 12:09:19.238118+01 | 1486292959.23812 | pgbench_accounts |       1388601344
 2017-02-05 12:09:19.238118+01 | 1486292959.23812 | pgbench_tellers  |            49152
 2017-02-05 12:09:19.238118+01 | 1486292959.23812 | pgbench_history  |        126607360
 2017-02-05 12:09:19.238118+01 | 1486292959.23812 | pgbench_branches |             8192

 2017-02-05 12:09:20.315423+01 | 1486292960.31542 | pgbench_accounts |       1388601344
 2017-02-05 12:09:20.315423+01 | 1486292960.31542 | pgbench_tellers  |            49152
 2017-02-05 12:09:20.315423+01 | 1486292960.31542 | pgbench_history  |        127369216
 2017-02-05 12:09:20.315423+01 | 1486292960.31542 | pgbench_branches |             8192

 2017-02-05 12:09:21.409155+01 | 1486292961.40915 | pgbench_accounts |       1388601344
 2017-02-05 12:09:21.409155+01 | 1486292961.40915 | pgbench_tellers  |            49152
 2017-02-05 12:09:21.409155+01 | 1486292961.40915 | pgbench_history  |        128696320
 2017-02-05 12:09:21.409155+01 | 1486292961.40915 | pgbench_branches |             8192

 2017-02-05 12:09:22.483314+01 | 1486292962.48331 | pgbench_accounts |       1388601344
 2017-02-05 12:09:22.483314+01 | 1486292962.48331 | pgbench_tellers  |            49152
 2017-02-05 12:09:22.483314+01 | 1486292962.48331 | pgbench_history  |        129736704
 2017-02-05 12:09:22.483314+01 | 1486292962.48331 | pgbench_branches |             8192

 2017-02-05 12:09:23.565411+01 | 1486292963.56541 | pgbench_accounts |       1388601344
 2017-02-05 12:09:23.565411+01 | 1486292963.56541 | pgbench_tellers  |            49152
 2017-02-05 12:09:23.565411+01 | 1486292963.56541 | pgbench_history  |        130457600
 2017-02-05 12:09:23.565411+01 | 1486292963.56541 | pgbench_branches |             8192

 2017-02-05 12:09:24.65454+01 | 1486292964.65454 | pgbench_accounts |       1388601344
 2017-02-05 12:09:24.65454+01 | 1486292964.65454 | pgbench_tellers  |            49152
 2017-02-05 12:09:24.65454+01 | 1486292964.65454 | pgbench_history  |        131653632
 2017-02-05 12:09:24.65454+01 | 1486292964.65454 | pgbench_branches |             8192

 2017-02-05 12:09:25.737689+01 | 1486292965.73769 | pgbench_accounts |       1388601344
 2017-02-05 12:09:25.737689+01 | 1486292965.73769 | pgbench_tellers  |            49152
 2017-02-05 12:09:25.737689+01 | 1486292965.73769 | pgbench_history  |        132767744
 2017-02-05 12:09:25.737689+01 | 1486292965.73769 | pgbench_branches |             8192

 2017-02-05 12:09:26.812961+01 | 1486292966.81296 | pgbench_accounts |       1388601344
 2017-02-05 12:09:26.812961+01 | 1486292966.81296 | pgbench_tellers  |            49152
 2017-02-05 12:09:26.812961+01 | 1486292966.81296 | pgbench_history  |        133857280
 2017-02-05 12:09:26.812961+01 | 1486292966.81296 | pgbench_branches |             8192

 2017-02-05 12:09:27.887105+01 | 1486292967.8871 | pgbench_accounts |       1388601344
 2017-02-05 12:09:27.887105+01 | 1486292967.8871 | pgbench_tellers  |            49152
 2017-02-05 12:09:27.887105+01 | 1486292967.8871 | pgbench_history  |        135053312
 2017-02-05 12:09:27.887105+01 | 1486292967.8871 | pgbench_branches |             8192

 2017-02-05 12:09:28.95868+01 | 1486292968.95868 | pgbench_accounts |       1388601344
 2017-02-05 12:09:28.95868+01 | 1486292968.95868 | pgbench_tellers  |            49152
 2017-02-05 12:09:28.95868+01 | 1486292968.95868 | pgbench_history  |        135979008
 2017-02-05 12:09:28.95868+01 | 1486292968.95868 | pgbench_branches |             8192

 2017-02-05 12:09:30.04307+01 | 1486292970.04307 | pgbench_accounts |       1388601344
 2017-02-05 12:09:30.04307+01 | 1486292970.04307 | pgbench_tellers  |            49152
 2017-02-05 12:09:30.04307+01 | 1486292970.04307 | pgbench_history  |        137084928
 2017-02-05 12:09:30.04307+01 | 1486292970.04307 | pgbench_branches |             8192

 2017-02-05 12:09:31.127229+01 | 1486292971.12723 | pgbench_accounts |       1388601344
 2017-02-05 12:09:31.127229+01 | 1486292971.12723 | pgbench_tellers  |            49152
 2017-02-05 12:09:31.127229+01 | 1486292971.12723 | pgbench_history  |        138002432
 2017-02-05 12:09:31.127229+01 | 1486292971.12723 | pgbench_branches |             8192

 2017-02-05 12:09:32.205634+01 | 1486292972.20563 | pgbench_accounts |       1388601344
 2017-02-05 12:09:32.205634+01 | 1486292972.20563 | pgbench_tellers  |            49152
 2017-02-05 12:09:32.205634+01 | 1486292972.20563 | pgbench_history  |        139419648
 2017-02-05 12:09:32.205634+01 | 1486292972.20563 | pgbench_branches |             8192

 2017-02-05 12:09:33.295266+01 | 1486292973.29527 | pgbench_accounts |       1388601344
 2017-02-05 12:09:33.295266+01 | 1486292973.29527 | pgbench_tellers  |            49152
 2017-02-05 12:09:33.295266+01 | 1486292973.29527 | pgbench_history  |        140099584
 2017-02-05 12:09:33.295266+01 | 1486292973.29527 | pgbench_branches |             8192

 2017-02-05 12:09:34.379596+01 | 1486292974.3796 | pgbench_accounts |       1388601344
 2017-02-05 12:09:34.379596+01 | 1486292974.3796 | pgbench_tellers  |            49152
 2017-02-05 12:09:34.379596+01 | 1486292974.3796 | pgbench_history  |        141156352
 2017-02-05 12:09:34.379596+01 | 1486292974.3796 | pgbench_branches |             8192

 2017-02-05 12:09:35.465331+01 | 1486292975.46533 | pgbench_accounts |       1388601344
 2017-02-05 12:09:35.465331+01 | 1486292975.46533 | pgbench_tellers  |            49152
 2017-02-05 12:09:35.465331+01 | 1486292975.46533 | pgbench_history  |        142213120
 2017-02-05 12:09:35.465331+01 | 1486292975.46533 | pgbench_branches |             8192

 2017-02-05 12:09:36.539834+01 | 1486292976.53983 | pgbench_accounts |       1388601344
 2017-02-05 12:09:36.539834+01 | 1486292976.53983 | pgbench_tellers  |            49152
 2017-02-05 12:09:36.539834+01 | 1486292976.53983 | pgbench_history  |        143327232
 2017-02-05 12:09:36.539834+01 | 1486292976.53983 | pgbench_branches |             8192

 2017-02-05 12:09:37.620361+01 | 1486292977.62036 | pgbench_accounts |       1388601344
 2017-02-05 12:09:37.620361+01 | 1486292977.62036 | pgbench_tellers  |            49152
 2017-02-05 12:09:37.620361+01 | 1486292977.62036 | pgbench_history  |        144564224
 2017-02-05 12:09:37.620361+01 | 1486292977.62036 | pgbench_branches |             8192

 2017-02-05 12:09:38.699334+01 | 1486292978.69933 | pgbench_accounts |       1388601344
 2017-02-05 12:09:38.699334+01 | 1486292978.69933 | pgbench_tellers  |            49152
 2017-02-05 12:09:38.699334+01 | 1486292978.69933 | pgbench_history  |        145629184
 2017-02-05 12:09:38.699334+01 | 1486292978.69933 | pgbench_branches |             8192

 2017-02-05 12:09:39.777736+01 | 1486292979.77774 | pgbench_accounts |       1388601344
 2017-02-05 12:09:39.777736+01 | 1486292979.77774 | pgbench_tellers  |            49152
 2017-02-05 12:09:39.777736+01 | 1486292979.77774 | pgbench_history  |        146735104
 2017-02-05 12:09:39.777736+01 | 1486292979.77774 | pgbench_branches |             8192

 2017-02-05 12:09:40.863151+01 | 1486292980.86315 | pgbench_accounts |       1388601344
 2017-02-05 12:09:40.863151+01 | 1486292980.86315 | pgbench_tellers  |            49152
 2017-02-05 12:09:40.863151+01 | 1486292980.86315 | pgbench_history  |        147750912
 2017-02-05 12:09:40.863151+01 | 1486292980.86315 | pgbench_branches |             8192

 2017-02-05 12:09:41.949824+01 | 1486292981.94982 | pgbench_accounts |       1388601344
 2017-02-05 12:09:41.949824+01 | 1486292981.94982 | pgbench_tellers  |            49152
 2017-02-05 12:09:41.949824+01 | 1486292981.94982 | pgbench_history  |        149004288
 2017-02-05 12:09:41.949824+01 | 1486292981.94982 | pgbench_branches |             8192

 2017-02-05 12:09:43.027358+01 | 1486292983.02736 | pgbench_accounts |       1388601344
 2017-02-05 12:09:43.027358+01 | 1486292983.02736 | pgbench_tellers  |            49152
 2017-02-05 12:09:43.027358+01 | 1486292983.02736 | pgbench_history  |        149741568
 2017-02-05 12:09:43.027358+01 | 1486292983.02736 | pgbench_branches |             8192

 2017-02-05 12:09:44.101834+01 | 1486292984.10183 | pgbench_accounts |       1388601344
 2017-02-05 12:09:44.101834+01 | 1486292984.10183 | pgbench_tellers  |            49152
 2017-02-05 12:09:44.101834+01 | 1486292984.10183 | pgbench_history  |        150757376
 2017-02-05 12:09:44.101834+01 | 1486292984.10183 | pgbench_branches |             8192

 2017-02-05 12:09:45.188718+01 | 1486292985.18872 | pgbench_accounts |       1388601344
 2017-02-05 12:09:45.188718+01 | 1486292985.18872 | pgbench_tellers  |            49152
 2017-02-05 12:09:45.188718+01 | 1486292985.18872 | pgbench_history  |        151953408
 2017-02-05 12:09:45.188718+01 | 1486292985.18872 | pgbench_branches |             8192

 2017-02-05 12:09:46.281518+01 | 1486292986.28152 | pgbench_accounts |       1388601344
 2017-02-05 12:09:46.281518+01 | 1486292986.28152 | pgbench_tellers  |            49152
 2017-02-05 12:09:46.281518+01 | 1486292986.28152 | pgbench_history  |        153018368
 2017-02-05 12:09:46.281518+01 | 1486292986.28152 | pgbench_branches |             8192

 2017-02-05 12:09:47.357139+01 | 1486292987.35714 | pgbench_accounts |       1388601344
 2017-02-05 12:09:47.357139+01 | 1486292987.35714 | pgbench_tellers  |            49152
 2017-02-05 12:09:47.357139+01 | 1486292987.35714 | pgbench_history  |        154271744
 2017-02-05 12:09:47.357139+01 | 1486292987.35714 | pgbench_branches |             8192

 2017-02-05 12:09:48.435669+01 | 1486292988.43567 | pgbench_accounts |       1388601344
 2017-02-05 12:09:48.435669+01 | 1486292988.43567 | pgbench_tellers  |            49152
 2017-02-05 12:09:48.435669+01 | 1486292988.43567 | pgbench_history  |        155492352
 2017-02-05 12:09:48.435669+01 | 1486292988.43567 | pgbench_branches |             8192

 2017-02-05 12:09:49.520394+01 | 1486292989.52039 | pgbench_accounts |       1388601344
 2017-02-05 12:09:49.520394+01 | 1486292989.52039 | pgbench_tellers  |            49152
 2017-02-05 12:09:49.520394+01 | 1486292989.52039 | pgbench_history  |        156221440
 2017-02-05 12:09:49.520394+01 | 1486292989.52039 | pgbench_branches |             8192

 2017-02-05 12:09:50.603297+01 | 1486292990.6033 | pgbench_accounts |       1388601344
 2017-02-05 12:09:50.603297+01 | 1486292990.6033 | pgbench_tellers  |            49152
 2017-02-05 12:09:50.603297+01 | 1486292990.6033 | pgbench_history  |        157745152
 2017-02-05 12:09:50.603297+01 | 1486292990.6033 | pgbench_branches |             8192

 2017-02-05 12:09:51.682851+01 | 1486292991.68285 | pgbench_accounts |       1388601344
 2017-02-05 12:09:51.682851+01 | 1486292991.68285 | pgbench_tellers  |            49152
 2017-02-05 12:09:51.682851+01 | 1486292991.68285 | pgbench_history  |        158482432
 2017-02-05 12:09:51.682851+01 | 1486292991.68285 | pgbench_branches |             8192

 2017-02-05 12:09:52.755849+01 | 1486292992.75585 | pgbench_accounts |       1388601344
 2017-02-05 12:09:52.755849+01 | 1486292992.75585 | pgbench_tellers  |            49152
 2017-02-05 12:09:52.755849+01 | 1486292992.75585 | pgbench_history  |        159514624
 2017-02-05 12:09:52.755849+01 | 1486292992.75585 | pgbench_branches |             8192

 2017-02-05 12:09:53.838404+01 | 1486292993.8384 | pgbench_accounts |       1388601344
 2017-02-05 12:09:53.838404+01 | 1486292993.8384 | pgbench_tellers  |            49152
 2017-02-05 12:09:53.838404+01 | 1486292993.8384 | pgbench_history  |        160727040
 2017-02-05 12:09:53.838404+01 | 1486292993.8384 | pgbench_branches |             8192

 2017-02-05 12:09:54.917091+01 | 1486292994.91709 | pgbench_accounts |       1388601344
 2017-02-05 12:09:54.917091+01 | 1486292994.91709 | pgbench_tellers  |            49152
 2017-02-05 12:09:54.917091+01 | 1486292994.91709 | pgbench_history  |        161497088
 2017-02-05 12:09:54.917091+01 | 1486292994.91709 | pgbench_branches |             8192

 2017-02-05 12:09:55.995191+01 | 1486292995.99519 | pgbench_accounts |       1388601344
 2017-02-05 12:09:55.995191+01 | 1486292995.99519 | pgbench_tellers  |            49152
 2017-02-05 12:09:55.995191+01 | 1486292995.99519 | pgbench_history  |        162586624
 2017-02-05 12:09:55.995191+01 | 1486292995.99519 | pgbench_branches |             8192

 2017-02-05 12:09:57.073921+01 | 1486292997.07392 | pgbench_accounts |       1388601344
 2017-02-05 12:09:57.073921+01 | 1486292997.07392 | pgbench_tellers  |            49152
 2017-02-05 12:09:57.073921+01 | 1486292997.07392 | pgbench_history  |        163962880
 2017-02-05 12:09:57.073921+01 | 1486292997.07392 | pgbench_branches |             8192

 2017-02-05 12:09:58.150657+01 | 1486292998.15066 | pgbench_accounts |       1388601344
 2017-02-05 12:09:58.150657+01 | 1486292998.15066 | pgbench_tellers  |            49152
 2017-02-05 12:09:58.150657+01 | 1486292998.15066 | pgbench_history  |        164831232
 2017-02-05 12:09:58.150657+01 | 1486292998.15066 | pgbench_branches |             8192

 2017-02-05 12:09:59.225327+01 | 1486292999.22533 | pgbench_accounts |       1388601344
 2017-02-05 12:09:59.225327+01 | 1486292999.22533 | pgbench_tellers  |            49152
 2017-02-05 12:09:59.225327+01 | 1486292999.22533 | pgbench_history  |        165863424
 2017-02-05 12:09:59.225327+01 | 1486292999.22533 | pgbench_branches |             8192

 2017-02-05 12:10:00.307744+01 | 1486293000.30774 | pgbench_accounts |       1388601344
 2017-02-05 12:10:00.307744+01 | 1486293000.30774 | pgbench_tellers  |            49152
 2017-02-05 12:10:00.307744+01 | 1486293000.30774 | pgbench_history  |        167084032
 2017-02-05 12:10:00.307744+01 | 1486293000.30774 | pgbench_branches |             8192

 2017-02-05 12:10:01.386349+01 | 1486293001.38635 | pgbench_accounts |       1388601344
 2017-02-05 12:10:01.386349+01 | 1486293001.38635 | pgbench_tellers  |            49152
 2017-02-05 12:10:01.386349+01 | 1486293001.38635 | pgbench_history  |        167976960
 2017-02-05 12:10:01.386349+01 | 1486293001.38635 | pgbench_branches |             8192

 2017-02-05 12:10:02.461895+01 | 1486293002.46189 | pgbench_accounts |       1388601344
 2017-02-05 12:10:02.461895+01 | 1486293002.46189 | pgbench_tellers  |            49152
 2017-02-05 12:10:02.461895+01 | 1486293002.46189 | pgbench_history  |        169336832
 2017-02-05 12:10:02.461895+01 | 1486293002.46189 | pgbench_branches |             8192

 2017-02-05 12:10:03.544189+01 | 1486293003.54419 | pgbench_accounts |       1388601344
 2017-02-05 12:10:03.544189+01 | 1486293003.54419 | pgbench_tellers  |            49152
 2017-02-05 12:10:03.544189+01 | 1486293003.54419 | pgbench_history  |        170369024
 2017-02-05 12:10:03.544189+01 | 1486293003.54419 | pgbench_branches |             8192

 2017-02-05 12:10:04.630714+01 | 1486293004.63071 | pgbench_accounts |       1388601344
 2017-02-05 12:10:04.630714+01 | 1486293004.63071 | pgbench_tellers  |            49152
 2017-02-05 12:10:04.630714+01 | 1486293004.63071 | pgbench_history  |        171286528
 2017-02-05 12:10:04.630714+01 | 1486293004.63071 | pgbench_branches |             8192

 2017-02-05 12:10:05.714098+01 | 1486293005.7141 | pgbench_accounts |       1388601344
 2017-02-05 12:10:05.714098+01 | 1486293005.7141 | pgbench_tellers  |            49152
 2017-02-05 12:10:05.714098+01 | 1486293005.7141 | pgbench_history  |        172359680
 2017-02-05 12:10:05.714098+01 | 1486293005.7141 | pgbench_branches |             8192

 2017-02-05 12:10:06.799437+01 | 1486293006.79944 | pgbench_accounts |       1388601344
 2017-02-05 12:10:06.799437+01 | 1486293006.79944 | pgbench_tellers  |            49152
 2017-02-05 12:10:06.799437+01 | 1486293006.79944 | pgbench_history  |        173572096
 2017-02-05 12:10:06.799437+01 | 1486293006.79944 | pgbench_branches |             8192

 2017-02-05 12:10:07.882563+01 | 1486293007.88256 | pgbench_accounts |       1388601344
 2017-02-05 12:10:07.882563+01 | 1486293007.88256 | pgbench_tellers  |            49152
 2017-02-05 12:10:07.882563+01 | 1486293007.88256 | pgbench_history  |        174637056
 2017-02-05 12:10:07.882563+01 | 1486293007.88256 | pgbench_branches |             8192

 2017-02-05 12:10:08.960503+01 | 1486293008.9605 | pgbench_accounts |       1388601344
 2017-02-05 12:10:08.960503+01 | 1486293008.9605 | pgbench_tellers  |            49152
 2017-02-05 12:10:08.960503+01 | 1486293008.9605 | pgbench_history  |        175513600
 2017-02-05 12:10:08.960503+01 | 1486293008.9605 | pgbench_branches |             8192

 2017-02-05 12:10:10.047763+01 | 1486293010.04776 | pgbench_accounts |       1388601344
 2017-02-05 12:10:10.047763+01 | 1486293010.04776 | pgbench_tellers  |            49152
 2017-02-05 12:10:10.047763+01 | 1486293010.04776 | pgbench_history  |        176799744
 2017-02-05 12:10:10.047763+01 | 1486293010.04776 | pgbench_branches |             8192

 2017-02-05 12:10:11.134594+01 | 1486293011.13459 | pgbench_accounts |       1388601344
 2017-02-05 12:10:11.134594+01 | 1486293011.13459 | pgbench_tellers  |            49152
 2017-02-05 12:10:11.134594+01 | 1486293011.13459 | pgbench_history  |        177717248
 2017-02-05 12:10:11.134594+01 | 1486293011.13459 | pgbench_branches |             8192

 2017-02-05 12:10:12.225593+01 | 1486293012.22559 | pgbench_accounts |       1388601344
 2017-02-05 12:10:12.225593+01 | 1486293012.22559 | pgbench_tellers  |            49152
 2017-02-05 12:10:12.225593+01 | 1486293012.22559 | pgbench_history  |        179462144
 2017-02-05 12:10:12.225593+01 | 1486293012.22559 | pgbench_branches |             8192

 2017-02-05 12:10:13.308384+01 | 1486293013.30838 | pgbench_accounts |       1388601344
 2017-02-05 12:10:13.308384+01 | 1486293013.30838 | pgbench_tellers  |            49152
 2017-02-05 12:10:13.308384+01 | 1486293013.30838 | pgbench_history  |        180150272
 2017-02-05 12:10:13.308384+01 | 1486293013.30838 | pgbench_branches |             8192

 2017-02-05 12:10:14.390472+01 | 1486293014.39047 | pgbench_accounts |       1388601344
 2017-02-05 12:10:14.390472+01 | 1486293014.39047 | pgbench_tellers  |            49152
 2017-02-05 12:10:14.390472+01 | 1486293014.39047 | pgbench_history  |        181018624
 2017-02-05 12:10:14.390472+01 | 1486293014.39047 | pgbench_branches |             8192

 2017-02-05 12:10:15.473341+01 | 1486293015.47334 | pgbench_accounts |       1388601344
 2017-02-05 12:10:15.473341+01 | 1486293015.47334 | pgbench_tellers  |            49152
 2017-02-05 12:10:15.473341+01 | 1486293015.47334 | pgbench_history  |        182231040
 2017-02-05 12:10:15.473341+01 | 1486293015.47334 | pgbench_branches |             8192

 2017-02-05 12:10:16.552479+01 | 1486293016.55248 | pgbench_accounts |       1388601344
 2017-02-05 12:10:16.552479+01 | 1486293016.55248 | pgbench_tellers  |            49152
 2017-02-05 12:10:16.552479+01 | 1486293016.55248 | pgbench_history  |        183123968
 2017-02-05 12:10:16.552479+01 | 1486293016.55248 | pgbench_branches |             8192

 2017-02-05 12:10:17.634515+01 | 1486293017.63452 | pgbench_accounts |       1388601344
 2017-02-05 12:10:17.634515+01 | 1486293017.63452 | pgbench_tellers  |            49152
 2017-02-05 12:10:17.634515+01 | 1486293017.63452 | pgbench_history  |        184131584
 2017-02-05 12:10:17.634515+01 | 1486293017.63452 | pgbench_branches |             8192

 2017-02-05 12:10:18.714199+01 | 1486293018.7142 | pgbench_accounts |       1388601344
 2017-02-05 12:10:18.714199+01 | 1486293018.7142 | pgbench_tellers  |            49152
 2017-02-05 12:10:18.714199+01 | 1486293018.7142 | pgbench_history  |        185548800
 2017-02-05 12:10:18.714199+01 | 1486293018.7142 | pgbench_branches |             8192

 2017-02-05 12:10:19.791969+01 | 1486293019.79197 | pgbench_accounts |       1388601344
 2017-02-05 12:10:19.791969+01 | 1486293019.79197 | pgbench_tellers  |            49152
 2017-02-05 12:10:19.791969+01 | 1486293019.79197 | pgbench_history  |        186335232
 2017-02-05 12:10:19.791969+01 | 1486293019.79197 | pgbench_branches |             8192

 2017-02-05 12:10:20.864151+01 | 1486293020.86415 | pgbench_accounts |       1388601344
 2017-02-05 12:10:20.864151+01 | 1486293020.86415 | pgbench_tellers  |            49152
 2017-02-05 12:10:20.864151+01 | 1486293020.86415 | pgbench_history  |        187531264
 2017-02-05 12:10:20.864151+01 | 1486293020.86415 | pgbench_branches |             8192

 2017-02-05 12:10:21.945739+01 | 1486293021.94574 | pgbench_accounts |       1388601344
 2017-02-05 12:10:21.945739+01 | 1486293021.94574 | pgbench_tellers  |            49152
 2017-02-05 12:10:21.945739+01 | 1486293021.94574 | pgbench_history  |        188596224
 2017-02-05 12:10:21.945739+01 | 1486293021.94574 | pgbench_branches |             8192

 2017-02-05 12:10:23.03348+01 | 1486293023.03348 | pgbench_accounts |       1388601344
 2017-02-05 12:10:23.03348+01 | 1486293023.03348 | pgbench_tellers  |            49152
 2017-02-05 12:10:23.03348+01 | 1486293023.03348 | pgbench_history  |        189530112
 2017-02-05 12:10:23.03348+01 | 1486293023.03348 | pgbench_branches |             8192

 2017-02-05 12:10:24.103357+01 | 1486293024.10336 | pgbench_accounts |       1388601344
 2017-02-05 12:10:24.103357+01 | 1486293024.10336 | pgbench_tellers  |            49152
 2017-02-05 12:10:24.103357+01 | 1486293024.10336 | pgbench_history  |        190726144
 2017-02-05 12:10:24.103357+01 | 1486293024.10336 | pgbench_branches |             8192

 2017-02-05 12:10:25.178488+01 | 1486293025.17849 | pgbench_accounts |       1388601344
 2017-02-05 12:10:25.178488+01 | 1486293025.17849 | pgbench_tellers  |            49152
 2017-02-05 12:10:25.178488+01 | 1486293025.17849 | pgbench_history  |        191619072
 2017-02-05 12:10:25.178488+01 | 1486293025.17849 | pgbench_branches |             8192

 2017-02-05 12:10:26.260552+01 | 1486293026.26055 | pgbench_accounts |       1388601344
 2017-02-05 12:10:26.260552+01 | 1486293026.26055 | pgbench_tellers  |            49152
 2017-02-05 12:10:26.260552+01 | 1486293026.26055 | pgbench_history  |        192888832
 2017-02-05 12:10:26.260552+01 | 1486293026.26055 | pgbench_branches |             8192

 2017-02-05 12:10:27.353134+01 | 1486293027.35313 | pgbench_accounts |       1388601344
 2017-02-05 12:10:27.353134+01 | 1486293027.35313 | pgbench_tellers  |            49152
 2017-02-05 12:10:27.353134+01 | 1486293027.35313 | pgbench_history  |        193904640
 2017-02-05 12:10:27.353134+01 | 1486293027.35313 | pgbench_branches |             8192

 2017-02-05 12:10:28.437962+01 | 1486293028.43796 | pgbench_accounts |       1388601344
 2017-02-05 12:10:28.437962+01 | 1486293028.43796 | pgbench_tellers  |            49152
 2017-02-05 12:10:28.437962+01 | 1486293028.43796 | pgbench_history  |        194822144
 2017-02-05 12:10:28.437962+01 | 1486293028.43796 | pgbench_branches |             8192

 2017-02-05 12:10:29.525631+01 | 1486293029.52563 | pgbench_accounts |       1388601344
 2017-02-05 12:10:29.525631+01 | 1486293029.52563 | pgbench_tellers  |            49152
 2017-02-05 12:10:29.525631+01 | 1486293029.52563 | pgbench_history  |        196206592
 2017-02-05 12:10:29.525631+01 | 1486293029.52563 | pgbench_branches |             8192

 2017-02-05 12:10:30.606387+01 | 1486293030.60639 | pgbench_accounts |       1388601344
 2017-02-05 12:10:30.606387+01 | 1486293030.60639 | pgbench_tellers  |            49152
 2017-02-05 12:10:30.606387+01 | 1486293030.60639 | pgbench_history  |        196935680
 2017-02-05 12:10:30.606387+01 | 1486293030.60639 | pgbench_branches |             8192

 2017-02-05 12:10:31.691988+01 | 1486293031.69199 | pgbench_accounts |       1388601344
 2017-02-05 12:10:31.691988+01 | 1486293031.69199 | pgbench_tellers  |            49152
 2017-02-05 12:10:31.691988+01 | 1486293031.69199 | pgbench_history  |        198156288
 2017-02-05 12:10:31.691988+01 | 1486293031.69199 | pgbench_branches |             8192

 2017-02-05 12:10:32.774484+01 | 1486293032.77448 | pgbench_accounts |       1388601344
 2017-02-05 12:10:32.774484+01 | 1486293032.77448 | pgbench_tellers  |            49152
 2017-02-05 12:10:32.774484+01 | 1486293032.77448 | pgbench_history  |        199229440
 2017-02-05 12:10:32.774484+01 | 1486293032.77448 | pgbench_branches |             8192

 2017-02-05 12:10:33.850545+01 | 1486293033.85054 | pgbench_accounts |       1388601344
 2017-02-05 12:10:33.850545+01 | 1486293033.85054 | pgbench_tellers  |            49152
 2017-02-05 12:10:33.850545+01 | 1486293033.85054 | pgbench_history  |        200433664
 2017-02-05 12:10:33.850545+01 | 1486293033.85054 | pgbench_branches |             8192

 2017-02-05 12:10:34.931559+01 | 1486293034.93156 | pgbench_accounts |       1388601344
 2017-02-05 12:10:34.931559+01 | 1486293034.93156 | pgbench_tellers  |            49152
 2017-02-05 12:10:34.931559+01 | 1486293034.93156 | pgbench_history  |        201441280
 2017-02-05 12:10:34.931559+01 | 1486293034.93156 | pgbench_branches |             8192

 2017-02-05 12:10:36.015522+01 | 1486293036.01552 | pgbench_accounts |       1388601344
 2017-02-05 12:10:36.015522+01 | 1486293036.01552 | pgbench_tellers  |            49152
 2017-02-05 12:10:36.015522+01 | 1486293036.01552 | pgbench_history  |        202366976
 2017-02-05 12:10:36.015522+01 | 1486293036.01552 | pgbench_branches |             8192

 2017-02-05 12:10:37.097887+01 | 1486293037.09789 | pgbench_accounts |       1388601344
 2017-02-05 12:10:37.097887+01 | 1486293037.09789 | pgbench_tellers  |            49152
 2017-02-05 12:10:37.097887+01 | 1486293037.09789 | pgbench_history  |        203751424
 2017-02-05 12:10:37.097887+01 | 1486293037.09789 | pgbench_branches |             8192

 2017-02-05 12:10:38.179824+01 | 1486293038.17982 | pgbench_accounts |       1388601344
 2017-02-05 12:10:38.179824+01 | 1486293038.17982 | pgbench_tellers  |            49152
 2017-02-05 12:10:38.179824+01 | 1486293038.17982 | pgbench_history  |        204619776
 2017-02-05 12:10:38.179824+01 | 1486293038.17982 | pgbench_branches |             8192

 2017-02-05 12:10:39.262157+01 | 1486293039.26216 | pgbench_accounts |       1388601344
 2017-02-05 12:10:39.262157+01 | 1486293039.26216 | pgbench_tellers  |            49152
 2017-02-05 12:10:39.262157+01 | 1486293039.26216 | pgbench_history  |        205684736
 2017-02-05 12:10:39.262157+01 | 1486293039.26216 | pgbench_branches |             8192

 2017-02-05 12:10:40.342265+01 | 1486293040.34226 | pgbench_accounts |       1388601344
 2017-02-05 12:10:40.342265+01 | 1486293040.34226 | pgbench_tellers  |            49152
 2017-02-05 12:10:40.342265+01 | 1486293040.34226 | pgbench_history  |        206561280
 2017-02-05 12:10:40.342265+01 | 1486293040.34226 | pgbench_branches |             8192

 2017-02-05 12:10:41.429523+01 | 1486293041.42952 | pgbench_accounts |       1388601344
 2017-02-05 12:10:41.429523+01 | 1486293041.42952 | pgbench_tellers  |            49152
 2017-02-05 12:10:41.429523+01 | 1486293041.42952 | pgbench_history  |        207642624
 2017-02-05 12:10:41.429523+01 | 1486293041.42952 | pgbench_branches |             8192

 2017-02-05 12:10:42.511362+01 | 1486293042.51136 | pgbench_accounts |       1388601344
 2017-02-05 12:10:42.511362+01 | 1486293042.51136 | pgbench_tellers  |            49152
 2017-02-05 12:10:42.511362+01 | 1486293042.51136 | pgbench_history  |        208863232
 2017-02-05 12:10:42.511362+01 | 1486293042.51136 | pgbench_branches |             8192

 2017-02-05 12:10:43.594348+01 | 1486293043.59435 | pgbench_accounts |       1388601344
 2017-02-05 12:10:43.594348+01 | 1486293043.59435 | pgbench_tellers  |            49152
 2017-02-05 12:10:43.594348+01 | 1486293043.59435 | pgbench_history  |        209756160
 2017-02-05 12:10:43.594348+01 | 1486293043.59435 | pgbench_branches |             8192

 2017-02-05 12:10:44.675113+01 | 1486293044.67511 | pgbench_accounts |       1388601344
 2017-02-05 12:10:44.675113+01 | 1486293044.67511 | pgbench_tellers  |            49152
 2017-02-05 12:10:44.675113+01 | 1486293044.67511 | pgbench_history  |        211116032
 2017-02-05 12:10:44.675113+01 | 1486293044.67511 | pgbench_branches |             8192

 2017-02-05 12:10:45.761813+01 | 1486293045.76181 | pgbench_accounts |       1388601344
 2017-02-05 12:10:45.761813+01 | 1486293045.76181 | pgbench_tellers  |            49152
 2017-02-05 12:10:45.761813+01 | 1486293045.76181 | pgbench_history  |        212123648
 2017-02-05 12:10:45.761813+01 | 1486293045.76181 | pgbench_branches |             8192

 2017-02-05 12:10:46.847161+01 | 1486293046.84716 | pgbench_accounts |       1388601344
 2017-02-05 12:10:46.847161+01 | 1486293046.84716 | pgbench_tellers  |            49152
 2017-02-05 12:10:46.847161+01 | 1486293046.84716 | pgbench_history  |        212885504
 2017-02-05 12:10:46.847161+01 | 1486293046.84716 | pgbench_branches |             8192

 2017-02-05 12:10:47.936265+01 | 1486293047.93626 | pgbench_accounts |       1388601344
 2017-02-05 12:10:47.936265+01 | 1486293047.93626 | pgbench_tellers  |            49152
 2017-02-05 12:10:47.936265+01 | 1486293047.93626 | pgbench_history  |        214614016
 2017-02-05 12:10:47.936265+01 | 1486293047.93626 | pgbench_branches |             8192

 2017-02-05 12:10:49.02663+01 | 1486293049.02663 | pgbench_accounts |       1388601344
 2017-02-05 12:10:49.02663+01 | 1486293049.02663 | pgbench_tellers  |            49152
 2017-02-05 12:10:49.02663+01 | 1486293049.02663 | pgbench_history  |        215293952
 2017-02-05 12:10:49.02663+01 | 1486293049.02663 | pgbench_branches |             8192

 2017-02-05 12:10:50.11552+01 | 1486293050.11552 | pgbench_accounts |       1388601344
 2017-02-05 12:10:50.11552+01 | 1486293050.11552 | pgbench_tellers  |            49152
 2017-02-05 12:10:50.11552+01 | 1486293050.11552 | pgbench_history  |        216186880
 2017-02-05 12:10:50.11552+01 | 1486293050.11552 | pgbench_branches |             8192

 2017-02-05 12:10:51.197803+01 | 1486293051.1978 | pgbench_accounts |       1388601344
 2017-02-05 12:10:51.197803+01 | 1486293051.1978 | pgbench_tellers  |            49152
 2017-02-05 12:10:51.197803+01 | 1486293051.1978 | pgbench_history  |        217710592
 2017-02-05 12:10:51.197803+01 | 1486293051.1978 | pgbench_branches |             8192

 2017-02-05 12:10:52.28355+01 | 1486293052.28355 | pgbench_accounts |       1388601344
 2017-02-05 12:10:52.28355+01 | 1486293052.28355 | pgbench_tellers  |            49152
 2017-02-05 12:10:52.28355+01 | 1486293052.28355 | pgbench_history  |        218062848
 2017-02-05 12:10:52.28355+01 | 1486293052.28355 | pgbench_branches |             8192

 2017-02-05 12:10:53.364601+01 | 1486293053.3646 | pgbench_accounts |       1388601344
 2017-02-05 12:10:53.364601+01 | 1486293053.3646 | pgbench_tellers  |            49152
 2017-02-05 12:10:53.364601+01 | 1486293053.3646 | pgbench_history  |        219512832
 2017-02-05 12:10:53.364601+01 | 1486293053.3646 | pgbench_branches |             8192

 2017-02-05 12:10:54.449504+01 | 1486293054.4495 | pgbench_accounts |       1388601344
 2017-02-05 12:10:54.449504+01 | 1486293054.4495 | pgbench_tellers  |            49152
 2017-02-05 12:10:54.449504+01 | 1486293054.4495 | pgbench_history  |        220217344
 2017-02-05 12:10:54.449504+01 | 1486293054.4495 | pgbench_branches |             8192

 2017-02-05 12:10:55.532887+01 | 1486293055.53289 | pgbench_accounts |       1388601344
 2017-02-05 12:10:55.532887+01 | 1486293055.53289 | pgbench_tellers  |            49152
 2017-02-05 12:10:55.532887+01 | 1486293055.53289 | pgbench_history  |        221143040
 2017-02-05 12:10:55.532887+01 | 1486293055.53289 | pgbench_branches |             8192

 2017-02-05 12:10:56.615651+01 | 1486293056.61565 | pgbench_accounts |       1388601344
 2017-02-05 12:10:56.615651+01 | 1486293056.61565 | pgbench_tellers  |            49152
 2017-02-05 12:10:56.615651+01 | 1486293056.61565 | pgbench_history  |        222248960
 2017-02-05 12:10:56.615651+01 | 1486293056.61565 | pgbench_branches |             8192

 2017-02-05 12:10:57.699347+01 | 1486293057.69935 | pgbench_accounts |       1388601344
 2017-02-05 12:10:57.699347+01 | 1486293057.69935 | pgbench_tellers  |            49152
 2017-02-05 12:10:57.699347+01 | 1486293057.69935 | pgbench_history  |        223281152
 2017-02-05 12:10:57.699347+01 | 1486293057.69935 | pgbench_branches |             8192

 2017-02-05 12:10:58.773768+01 | 1486293058.77377 | pgbench_accounts |       1388601344
 2017-02-05 12:10:58.773768+01 | 1486293058.77377 | pgbench_tellers  |            49152
 2017-02-05 12:10:58.773768+01 | 1486293058.77377 | pgbench_history  |        224649216
 2017-02-05 12:10:58.773768+01 | 1486293058.77377 | pgbench_branches |             8192

 2017-02-05 12:10:59.859795+01 | 1486293059.8598 | pgbench_accounts |       1388601344
 2017-02-05 12:10:59.859795+01 | 1486293059.8598 | pgbench_tellers  |            49152
 2017-02-05 12:10:59.859795+01 | 1486293059.8598 | pgbench_history  |        225222656
 2017-02-05 12:10:59.859795+01 | 1486293059.8598 | pgbench_branches |             8192

 2017-02-05 12:11:00.94773+01 | 1486293060.94773 | pgbench_accounts |       1388601344
 2017-02-05 12:11:00.94773+01 | 1486293060.94773 | pgbench_tellers  |            49152
 2017-02-05 12:11:00.94773+01 | 1486293060.94773 | pgbench_history  |        226582528
 2017-02-05 12:11:00.94773+01 | 1486293060.94773 | pgbench_branches |             8192

 2017-02-05 12:11:02.036085+01 | 1486293062.03608 | pgbench_accounts |       1388601344
 2017-02-05 12:11:02.036085+01 | 1486293062.03608 | pgbench_tellers  |            49152
 2017-02-05 12:11:02.036085+01 | 1486293062.03608 | pgbench_history  |        227975168
 2017-02-05 12:11:02.036085+01 | 1486293062.03608 | pgbench_branches |             8192

 2017-02-05 12:11:03.12318+01 | 1486293063.12318 | pgbench_accounts |       1388601344
 2017-02-05 12:11:03.12318+01 | 1486293063.12318 | pgbench_tellers  |            49152
 2017-02-05 12:11:03.12318+01 | 1486293063.12318 | pgbench_history  |        228491264
 2017-02-05 12:11:03.12318+01 | 1486293063.12318 | pgbench_branches |             8192

 2017-02-05 12:11:04.210926+01 | 1486293064.21093 | pgbench_accounts |       1388601344
 2017-02-05 12:11:04.210926+01 | 1486293064.21093 | pgbench_tellers  |            49152
 2017-02-05 12:11:04.210926+01 | 1486293064.21093 | pgbench_history  |        229556224
 2017-02-05 12:11:04.210926+01 | 1486293064.21093 | pgbench_branches |             8192

 2017-02-05 12:11:05.293774+01 | 1486293065.29377 | pgbench_accounts |       1388601344
 2017-02-05 12:11:05.293774+01 | 1486293065.29377 | pgbench_tellers  |            49152
 2017-02-05 12:11:05.293774+01 | 1486293065.29377 | pgbench_history  |        230400000
 2017-02-05 12:11:05.293774+01 | 1486293065.29377 | pgbench_branches |             8192

 2017-02-05 12:11:06.377189+01 | 1486293066.37719 | pgbench_accounts |       1388601344
 2017-02-05 12:11:06.377189+01 | 1486293066.37719 | pgbench_tellers  |            49152
 2017-02-05 12:11:06.377189+01 | 1486293066.37719 | pgbench_history  |        231448576
 2017-02-05 12:11:06.377189+01 | 1486293066.37719 | pgbench_branches |             8192

 2017-02-05 12:11:07.458118+01 | 1486293067.45812 | pgbench_accounts |       1388601344
 2017-02-05 12:11:07.458118+01 | 1486293067.45812 | pgbench_tellers  |            49152
 2017-02-05 12:11:07.458118+01 | 1486293067.45812 | pgbench_history  |        232972288
 2017-02-05 12:11:07.458118+01 | 1486293067.45812 | pgbench_branches |             8192

 2017-02-05 12:11:08.539806+01 | 1486293068.53981 | pgbench_accounts |       1388601344
 2017-02-05 12:11:08.539806+01 | 1486293068.53981 | pgbench_tellers  |            49152
 2017-02-05 12:11:08.539806+01 | 1486293068.53981 | pgbench_history  |        233488384
 2017-02-05 12:11:08.539806+01 | 1486293068.53981 | pgbench_branches |             8192

 2017-02-05 12:11:09.620454+01 | 1486293069.62045 | pgbench_accounts |       1388601344
 2017-02-05 12:11:09.620454+01 | 1486293069.62045 | pgbench_tellers  |            49152
 2017-02-05 12:11:09.620454+01 | 1486293069.62045 | pgbench_history  |        234577920
 2017-02-05 12:11:09.620454+01 | 1486293069.62045 | pgbench_branches |             8192

 2017-02-05 12:11:10.697993+01 | 1486293070.69799 | pgbench_accounts |       1388601344
 2017-02-05 12:11:10.697993+01 | 1486293070.69799 | pgbench_tellers  |            49152
 2017-02-05 12:11:10.697993+01 | 1486293070.69799 | pgbench_history  |        235479040
 2017-02-05 12:11:10.697993+01 | 1486293070.69799 | pgbench_branches |             8192

 2017-02-05 12:11:11.780105+01 | 1486293071.78011 | pgbench_accounts |       1388601344
 2017-02-05 12:11:11.780105+01 | 1486293071.78011 | pgbench_tellers  |            49152
 2017-02-05 12:11:11.780105+01 | 1486293071.78011 | pgbench_history  |        236544000
 2017-02-05 12:11:11.780105+01 | 1486293071.78011 | pgbench_branches |             8192

 2017-02-05 12:11:12.860795+01 | 1486293072.8608 | pgbench_accounts |       1388601344
 2017-02-05 12:11:12.860795+01 | 1486293072.8608 | pgbench_tellers  |            49152
 2017-02-05 12:11:12.860795+01 | 1486293072.8608 | pgbench_history  |        238092288
 2017-02-05 12:11:12.860795+01 | 1486293072.8608 | pgbench_branches |             8192

 2017-02-05 12:11:13.948091+01 | 1486293073.94809 | pgbench_accounts |       1388601344
 2017-02-05 12:11:13.948091+01 | 1486293073.94809 | pgbench_tellers  |            49152
 2017-02-05 12:11:13.948091+01 | 1486293073.94809 | pgbench_history  |        238608384
 2017-02-05 12:11:13.948091+01 | 1486293073.94809 | pgbench_branches |             8192

 2017-02-05 12:11:15.033486+01 | 1486293075.03349 | pgbench_accounts |       1388601344
 2017-02-05 12:11:15.033486+01 | 1486293075.03349 | pgbench_tellers  |            49152
 2017-02-05 12:11:15.033486+01 | 1486293075.03349 | pgbench_history  |        239968256
 2017-02-05 12:11:15.033486+01 | 1486293075.03349 | pgbench_branches |             8192

 2017-02-05 12:11:16.112424+01 | 1486293076.11242 | pgbench_accounts |       1388601344
 2017-02-05 12:11:16.112424+01 | 1486293076.11242 | pgbench_tellers  |            49152
 2017-02-05 12:11:16.112424+01 | 1486293076.11242 | pgbench_history  |        240869376
 2017-02-05 12:11:16.112424+01 | 1486293076.11242 | pgbench_branches |             8192

 2017-02-05 12:11:17.19085+01 | 1486293077.19085 | pgbench_accounts |       1388601344
 2017-02-05 12:11:17.19085+01 | 1486293077.19085 | pgbench_tellers  |            49152
 2017-02-05 12:11:17.19085+01 | 1486293077.19085 | pgbench_history  |        241991680
 2017-02-05 12:11:17.19085+01 | 1486293077.19085 | pgbench_branches |             8192

 2017-02-05 12:11:18.263049+01 | 1486293078.26305 | pgbench_accounts |       1388601344
 2017-02-05 12:11:18.263049+01 | 1486293078.26305 | pgbench_tellers  |            49152
 2017-02-05 12:11:18.263049+01 | 1486293078.26305 | pgbench_history  |        242835456
 2017-02-05 12:11:18.263049+01 | 1486293078.26305 | pgbench_branches |             8192

 2017-02-05 12:11:19.329429+01 | 1486293079.32943 | pgbench_accounts |       1388601344
 2017-02-05 12:11:19.329429+01 | 1486293079.32943 | pgbench_tellers  |            49152
 2017-02-05 12:11:19.329429+01 | 1486293079.32943 | pgbench_history  |        244563968
 2017-02-05 12:11:19.329429+01 | 1486293079.32943 | pgbench_branches |             8192

 2017-02-05 12:11:20.417199+01 | 1486293080.4172 | pgbench_accounts |       1388601344
 2017-02-05 12:11:20.417199+01 | 1486293080.4172 | pgbench_tellers  |            49152
 2017-02-05 12:11:20.417199+01 | 1486293080.4172 | pgbench_history  |        245080064
 2017-02-05 12:11:20.417199+01 | 1486293080.4172 | pgbench_branches |             8192

 2017-02-05 12:11:21.497072+01 | 1486293081.49707 | pgbench_accounts |       1388601344
 2017-02-05 12:11:21.497072+01 | 1486293081.49707 | pgbench_tellers  |            49152
 2017-02-05 12:11:21.497072+01 | 1486293081.49707 | pgbench_history  |        246521856
 2017-02-05 12:11:21.497072+01 | 1486293081.49707 | pgbench_branches |             8192

 2017-02-05 12:11:22.574963+01 | 1486293082.57496 | pgbench_accounts |       1388601344
 2017-02-05 12:11:22.574963+01 | 1486293082.57496 | pgbench_tellers  |            49152
 2017-02-05 12:11:22.574963+01 | 1486293082.57496 | pgbench_history  |        247209984
 2017-02-05 12:11:22.574963+01 | 1486293082.57496 | pgbench_branches |             8192

 2017-02-05 12:11:23.648268+01 | 1486293083.64827 | pgbench_accounts |       1388601344
 2017-02-05 12:11:23.648268+01 | 1486293083.64827 | pgbench_tellers  |            49152
 2017-02-05 12:11:23.648268+01 | 1486293083.64827 | pgbench_history  |        248102912
 2017-02-05 12:11:23.648268+01 | 1486293083.64827 | pgbench_branches |             8192

 2017-02-05 12:11:24.728318+01 | 1486293084.72832 | pgbench_accounts |       1388601344
 2017-02-05 12:11:24.728318+01 | 1486293084.72832 | pgbench_tellers  |            49152
 2017-02-05 12:11:24.728318+01 | 1486293084.72832 | pgbench_history  |        248995840
 2017-02-05 12:11:24.728318+01 | 1486293084.72832 | pgbench_branches |             8192

 2017-02-05 12:11:25.812494+01 | 1486293085.81249 | pgbench_accounts |       1388601344
 2017-02-05 12:11:25.812494+01 | 1486293085.81249 | pgbench_tellers  |            49152
 2017-02-05 12:11:25.812494+01 | 1486293085.81249 | pgbench_history  |        250372096
 2017-02-05 12:11:25.812494+01 | 1486293085.81249 | pgbench_branches |             8192

 2017-02-05 12:11:26.898872+01 | 1486293086.89887 | pgbench_accounts |       1388601344
 2017-02-05 12:11:26.898872+01 | 1486293086.89887 | pgbench_tellers  |            49152
 2017-02-05 12:11:26.898872+01 | 1486293086.89887 | pgbench_history  |        251731968
 2017-02-05 12:11:26.898872+01 | 1486293086.89887 | pgbench_branches |             8192

 2017-02-05 12:11:27.99057+01 | 1486293087.99057 | pgbench_accounts |       1388601344
 2017-02-05 12:11:27.99057+01 | 1486293087.99057 | pgbench_tellers  |            49152
 2017-02-05 12:11:27.99057+01 | 1486293087.99057 | pgbench_history  |        252264448
 2017-02-05 12:11:27.99057+01 | 1486293087.99057 | pgbench_branches |             8192

 2017-02-05 12:11:29.069561+01 | 1486293089.06956 | pgbench_accounts |       1388601344
 2017-02-05 12:11:29.069561+01 | 1486293089.06956 | pgbench_tellers  |            49152
 2017-02-05 12:11:29.069561+01 | 1486293089.06956 | pgbench_history  |        253485056
 2017-02-05 12:11:29.069561+01 | 1486293089.06956 | pgbench_branches |             8192

 2017-02-05 12:11:30.150247+01 | 1486293090.15025 | pgbench_accounts |       1388601344
 2017-02-05 12:11:30.150247+01 | 1486293090.15025 | pgbench_tellers  |            49152
 2017-02-05 12:11:30.150247+01 | 1486293090.15025 | pgbench_history  |        254353408
 2017-02-05 12:11:30.150247+01 | 1486293090.15025 | pgbench_branches |             8192

 2017-02-05 12:11:31.233984+01 | 1486293091.23398 | pgbench_accounts |       1388601344
 2017-02-05 12:11:31.233984+01 | 1486293091.23398 | pgbench_tellers  |            49152
 2017-02-05 12:11:31.233984+01 | 1486293091.23398 | pgbench_history  |        255590400
 2017-02-05 12:11:31.233984+01 | 1486293091.23398 | pgbench_branches |             8192

 2017-02-05 12:11:32.320471+01 | 1486293092.32047 | pgbench_accounts |       1388601344
 2017-02-05 12:11:32.320471+01 | 1486293092.32047 | pgbench_tellers  |            49152
 2017-02-05 12:11:32.320471+01 | 1486293092.32047 | pgbench_history  |        256524288
 2017-02-05 12:11:32.320471+01 | 1486293092.32047 | pgbench_branches |             8192

 2017-02-05 12:11:33.408238+01 | 1486293093.40824 | pgbench_accounts |       1388601344
 2017-02-05 12:11:33.408238+01 | 1486293093.40824 | pgbench_tellers  |            49152
 2017-02-05 12:11:33.408238+01 | 1486293093.40824 | pgbench_history  |        257253376
 2017-02-05 12:11:33.408238+01 | 1486293093.40824 | pgbench_branches |             8192

 2017-02-05 12:11:34.490893+01 | 1486293094.49089 | pgbench_accounts |       1388601344
 2017-02-05 12:11:34.490893+01 | 1486293094.49089 | pgbench_tellers  |            49152
 2017-02-05 12:11:34.490893+01 | 1486293094.49089 | pgbench_history  |        258449408
 2017-02-05 12:11:34.490893+01 | 1486293094.49089 | pgbench_branches |             8192

 2017-02-05 12:11:35.579303+01 | 1486293095.5793 | pgbench_accounts |       1388601344
 2017-02-05 12:11:35.579303+01 | 1486293095.5793 | pgbench_tellers  |            49152
 2017-02-05 12:11:35.579303+01 | 1486293095.5793 | pgbench_history  |        259481600
 2017-02-05 12:11:35.579303+01 | 1486293095.5793 | pgbench_branches |             8192

 2017-02-05 12:11:36.665267+01 | 1486293096.66527 | pgbench_accounts |       1388601344
 2017-02-05 12:11:36.665267+01 | 1486293096.66527 | pgbench_tellers  |            49152
 2017-02-05 12:11:36.665267+01 | 1486293096.66527 | pgbench_history  |        260718592
 2017-02-05 12:11:36.665267+01 | 1486293096.66527 | pgbench_branches |             8192

 2017-02-05 12:11:37.747426+01 | 1486293097.74743 | pgbench_accounts |       1388601344
 2017-02-05 12:11:37.747426+01 | 1486293097.74743 | pgbench_tellers  |            49152
 2017-02-05 12:11:37.747426+01 | 1486293097.74743 | pgbench_history  |        261611520
 2017-02-05 12:11:37.747426+01 | 1486293097.74743 | pgbench_branches |             8192

 2017-02-05 12:11:38.830087+01 | 1486293098.83009 | pgbench_accounts |       1388601344
 2017-02-05 12:11:38.830087+01 | 1486293098.83009 | pgbench_tellers  |            49152
 2017-02-05 12:11:38.830087+01 | 1486293098.83009 | pgbench_history  |        262660096
 2017-02-05 12:11:38.830087+01 | 1486293098.83009 | pgbench_branches |             8192

 2017-02-05 12:11:39.916559+01 | 1486293099.91656 | pgbench_accounts |       1388601344
 2017-02-05 12:11:39.916559+01 | 1486293099.91656 | pgbench_tellers  |            49152
 2017-02-05 12:11:39.916559+01 | 1486293099.91656 | pgbench_history  |        263741440
 2017-02-05 12:11:39.916559+01 | 1486293099.91656 | pgbench_branches |             8192

 2017-02-05 12:11:40.996815+01 | 1486293100.99681 | pgbench_accounts |       1388601344
 2017-02-05 12:11:40.996815+01 | 1486293100.99681 | pgbench_tellers  |            49152
 2017-02-05 12:11:40.996815+01 | 1486293100.99681 | pgbench_history  |        264757248
 2017-02-05 12:11:40.996815+01 | 1486293100.99681 | pgbench_branches |             8192

 2017-02-05 12:11:42.075786+01 | 1486293102.07579 | pgbench_accounts |       1388601344
 2017-02-05 12:11:42.075786+01 | 1486293102.07579 | pgbench_tellers  |            49152
 2017-02-05 12:11:42.075786+01 | 1486293102.07579 | pgbench_history  |        265822208
 2017-02-05 12:11:42.075786+01 | 1486293102.07579 | pgbench_branches |             8192

 2017-02-05 12:11:43.163359+01 | 1486293103.16336 | pgbench_accounts |       1388601344
 2017-02-05 12:11:43.163359+01 | 1486293103.16336 | pgbench_tellers  |            49152
 2017-02-05 12:11:43.163359+01 | 1486293103.16336 | pgbench_history  |        267386880
 2017-02-05 12:11:43.163359+01 | 1486293103.16336 | pgbench_branches |             8192

 2017-02-05 12:11:44.248215+01 | 1486293104.24821 | pgbench_accounts |       1388601344
 2017-02-05 12:11:44.248215+01 | 1486293104.24821 | pgbench_tellers  |            49152
 2017-02-05 12:11:44.248215+01 | 1486293104.24821 | pgbench_history  |        268419072
 2017-02-05 12:11:44.248215+01 | 1486293104.24821 | pgbench_branches |             8192

 2017-02-05 12:11:45.329022+01 | 1486293105.32902 | pgbench_accounts |       1388601344
 2017-02-05 12:11:45.329022+01 | 1486293105.32902 | pgbench_tellers  |            49152
 2017-02-05 12:11:45.329022+01 | 1486293105.32902 | pgbench_history  |        268976128
 2017-02-05 12:11:45.329022+01 | 1486293105.32902 | pgbench_branches |             8192

 2017-02-05 12:11:46.416544+01 | 1486293106.41654 | pgbench_accounts |       1388601344
 2017-02-05 12:11:46.416544+01 | 1486293106.41654 | pgbench_tellers  |            49152
 2017-02-05 12:11:46.416544+01 | 1486293106.41654 | pgbench_history  |        270204928
 2017-02-05 12:11:46.416544+01 | 1486293106.41654 | pgbench_branches |             8192

 2017-02-05 12:11:47.493611+01 | 1486293107.49361 | pgbench_accounts |       1388601344
 2017-02-05 12:11:47.493611+01 | 1486293107.49361 | pgbench_tellers  |            49152
 2017-02-05 12:11:47.493611+01 | 1486293107.49361 | pgbench_history  |        271581184
 2017-02-05 12:11:47.493611+01 | 1486293107.49361 | pgbench_branches |             8192

 2017-02-05 12:11:48.56957+01 | 1486293108.56957 | pgbench_accounts |       1388601344
 2017-02-05 12:11:48.56957+01 | 1486293108.56957 | pgbench_tellers  |            49152
 2017-02-05 12:11:48.56957+01 | 1486293108.56957 | pgbench_history  |        272318464
 2017-02-05 12:11:48.56957+01 | 1486293108.56957 | pgbench_branches |             8192

 2017-02-05 12:11:49.639737+01 | 1486293109.63974 | pgbench_accounts |       1388601344
 2017-02-05 12:11:49.639737+01 | 1486293109.63974 | pgbench_tellers  |            49152
 2017-02-05 12:11:49.639737+01 | 1486293109.63974 | pgbench_history  |        273211392
 2017-02-05 12:11:49.639737+01 | 1486293109.63974 | pgbench_branches |             8192

 2017-02-05 12:11:50.730537+01 | 1486293110.73054 | pgbench_accounts |       1388601344
 2017-02-05 12:11:50.730537+01 | 1486293110.73054 | pgbench_tellers  |            49152
 2017-02-05 12:11:50.730537+01 | 1486293110.73054 | pgbench_history  |        274120704
 2017-02-05 12:11:50.730537+01 | 1486293110.73054 | pgbench_branches |             8192

 2017-02-05 12:11:51.808883+01 | 1486293111.80888 | pgbench_accounts |       1388601344
 2017-02-05 12:11:51.808883+01 | 1486293111.80888 | pgbench_tellers  |            49152
 2017-02-05 12:11:51.808883+01 | 1486293111.80888 | pgbench_history  |        276004864
 2017-02-05 12:11:51.808883+01 | 1486293111.80888 | pgbench_branches |             8192

 2017-02-05 12:11:52.882363+01 | 1486293112.88236 | pgbench_accounts |       1388601344
 2017-02-05 12:11:52.882363+01 | 1486293112.88236 | pgbench_tellers  |            49152
 2017-02-05 12:11:52.882363+01 | 1486293112.88236 | pgbench_history  |        276357120
 2017-02-05 12:11:52.882363+01 | 1486293112.88236 | pgbench_branches |             8192

 2017-02-05 12:11:53.966851+01 | 1486293113.96685 | pgbench_accounts |       1388601344
 2017-02-05 12:11:53.966851+01 | 1486293113.96685 | pgbench_tellers  |            49152
 2017-02-05 12:11:53.966851+01 | 1486293113.96685 | pgbench_history  |        277553152
 2017-02-05 12:11:53.966851+01 | 1486293113.96685 | pgbench_branches |             8192

 2017-02-05 12:11:55.05968+01 | 1486293115.05968 | pgbench_accounts |       1388601344
 2017-02-05 12:11:55.05968+01 | 1486293115.05968 | pgbench_tellers  |            49152
 2017-02-05 12:11:55.05968+01 | 1486293115.05968 | pgbench_history  |        278585344
 2017-02-05 12:11:55.05968+01 | 1486293115.05968 | pgbench_branches |             8192

 2017-02-05 12:11:56.138644+01 | 1486293116.13864 | pgbench_accounts |       1388601344
 2017-02-05 12:11:56.138644+01 | 1486293116.13864 | pgbench_tellers  |            49152
 2017-02-05 12:11:56.138644+01 | 1486293116.13864 | pgbench_history  |        279846912
 2017-02-05 12:11:56.138644+01 | 1486293116.13864 | pgbench_branches |             8192

 2017-02-05 12:11:57.230505+01 | 1486293117.2305 | pgbench_accounts |       1388601344
 2017-02-05 12:11:57.230505+01 | 1486293117.2305 | pgbench_tellers  |            49152
 2017-02-05 12:11:57.230505+01 | 1486293117.2305 | pgbench_history  |        280895488
 2017-02-05 12:11:57.230505+01 | 1486293117.2305 | pgbench_branches |             8192

 2017-02-05 12:11:58.30945+01 | 1486293118.30945 | pgbench_accounts |       1388601344
 2017-02-05 12:11:58.30945+01 | 1486293118.30945 | pgbench_tellers  |            49152
 2017-02-05 12:11:58.30945+01 | 1486293118.30945 | pgbench_history  |        281780224
 2017-02-05 12:11:58.30945+01 | 1486293118.30945 | pgbench_branches |             8192

 2017-02-05 12:11:59.390086+01 | 1486293119.39009 | pgbench_accounts |       1388601344
 2017-02-05 12:11:59.390086+01 | 1486293119.39009 | pgbench_tellers  |            49152
 2017-02-05 12:11:59.390086+01 | 1486293119.39009 | pgbench_history  |        283025408
 2017-02-05 12:11:59.390086+01 | 1486293119.39009 | pgbench_branches |             8192

 2017-02-05 12:12:00.470245+01 | 1486293120.47024 | pgbench_accounts |       1388601344
 2017-02-05 12:12:00.470245+01 | 1486293120.47024 | pgbench_tellers  |            49152
 2017-02-05 12:12:00.470245+01 | 1486293120.47024 | pgbench_history  |        284057600
 2017-02-05 12:12:00.470245+01 | 1486293120.47024 | pgbench_branches |             8192

 2017-02-05 12:12:01.554576+01 | 1486293121.55458 | pgbench_accounts |       1388601344
 2017-02-05 12:12:01.554576+01 | 1486293121.55458 | pgbench_tellers  |            49152
 2017-02-05 12:12:01.554576+01 | 1486293121.55458 | pgbench_history  |        284934144
 2017-02-05 12:12:01.554576+01 | 1486293121.55458 | pgbench_branches |             8192

 2017-02-05 12:12:02.642973+01 | 1486293122.64297 | pgbench_accounts |       1388601344
 2017-02-05 12:12:02.642973+01 | 1486293122.64297 | pgbench_tellers  |            49152
 2017-02-05 12:12:02.642973+01 | 1486293122.64297 | pgbench_history  |        286326784
 2017-02-05 12:12:02.642973+01 | 1486293122.64297 | pgbench_branches |             8192

 2017-02-05 12:12:03.727011+01 | 1486293123.72701 | pgbench_accounts |       1388601344
 2017-02-05 12:12:03.727011+01 | 1486293123.72701 | pgbench_tellers  |            49152
 2017-02-05 12:12:03.727011+01 | 1486293123.72701 | pgbench_history  |        287744000
 2017-02-05 12:12:03.727011+01 | 1486293123.72701 | pgbench_branches |             8192

 2017-02-05 12:12:04.815183+01 | 1486293124.81518 | pgbench_accounts |       1388601344
 2017-02-05 12:12:04.815183+01 | 1486293124.81518 | pgbench_tellers  |            49152
 2017-02-05 12:12:04.815183+01 | 1486293124.81518 | pgbench_history  |        288358400
 2017-02-05 12:12:04.815183+01 | 1486293124.81518 | pgbench_branches |             8192

 2017-02-05 12:12:05.900996+01 | 1486293125.901 | pgbench_accounts |       1388601344
 2017-02-05 12:12:05.900996+01 | 1486293125.901 | pgbench_tellers  |            49152
 2017-02-05 12:12:05.900996+01 | 1486293125.901 | pgbench_history  |        289734656
 2017-02-05 12:12:05.900996+01 | 1486293125.901 | pgbench_branches |             8192

 2017-02-05 12:12:06.982022+01 | 1486293126.98202 | pgbench_accounts |       1388601344
 2017-02-05 12:12:06.982022+01 | 1486293126.98202 | pgbench_tellers  |            49152
 2017-02-05 12:12:06.982022+01 | 1486293126.98202 | pgbench_history  |        290496512
 2017-02-05 12:12:06.982022+01 | 1486293126.98202 | pgbench_branches |             8192

 2017-02-05 12:12:08.069491+01 | 1486293128.06949 | pgbench_accounts |       1388601344
 2017-02-05 12:12:08.069491+01 | 1486293128.06949 | pgbench_tellers  |            49152
 2017-02-05 12:12:08.069491+01 | 1486293128.06949 | pgbench_history  |        291340288
 2017-02-05 12:12:08.069491+01 | 1486293128.06949 | pgbench_branches |             8192

