 2017-02-03 18:47:50.542445+01 | 1486144070.54244 |                 0 |              31 |                   853 |                    4 |               2327 |             0 |                0 |          487923 |                     0 |        191842 | 2017-02-03 16:12:20.928298+01

 2017-02-03 18:47:51.64936+01 | 1486144071.64936 |                 0 |              32 |                   877 |                    4 |               2333 |             0 |                0 |          487928 |                     0 |        191842 | 2017-02-03 16:12:20.928298+01

 2017-02-03 18:47:52.743463+01 | 1486144072.74346 |                 0 |              32 |                   877 |                    4 |               2333 |             0 |                0 |          487928 |                     0 |        191842 | 2017-02-03 16:12:20.928298+01

 2017-02-03 18:47:53.841688+01 | 1486144073.84169 |                 0 |              32 |                   877 |                    4 |               2333 |             0 |                0 |          487928 |                     0 |        191842 | 2017-02-03 16:12:20.928298+01

 2017-02-03 18:47:54.934909+01 | 1486144074.93491 |                 0 |              32 |                   877 |                    4 |               2333 |             0 |                0 |          487928 |                     0 |        191842 | 2017-02-03 16:12:20.928298+01

 2017-02-03 18:47:56.029348+01 | 1486144076.02935 |                 0 |              32 |                   877 |                    4 |               2333 |             0 |                0 |          487928 |                     0 |        191842 | 2017-02-03 16:12:20.928298+01

 2017-02-03 18:47:57.136355+01 | 1486144077.13635 |                 0 |              32 |                   877 |                    4 |               2333 |             0 |                0 |          487928 |                     0 |        191842 | 2017-02-03 16:12:20.928298+01

 2017-02-03 18:47:58.220405+01 | 1486144078.22041 |                 0 |              32 |                   877 |                    4 |               2333 |             0 |                0 |          487928 |                     0 |        191842 | 2017-02-03 16:12:20.928298+01

 2017-02-03 18:47:59.304326+01 | 1486144079.30433 |                 0 |              32 |                   877 |                    4 |               2333 |             0 |                0 |          487928 |                     0 |        191842 | 2017-02-03 16:12:20.928298+01

 2017-02-03 18:48:00.418839+01 | 1486144080.41884 |                 0 |              32 |                   877 |                    4 |               2333 |             0 |                0 |          487928 |                     0 |        191842 | 2017-02-03 16:12:20.928298+01

 2017-02-03 18:48:01.564044+01 | 1486144081.56404 |                 0 |              32 |                   877 |                    4 |               2333 |             0 |                0 |          487928 |                     0 |        191842 | 2017-02-03 16:12:20.928298+01

 2017-02-03 18:48:02.67951+01 | 1486144082.67951 |                 0 |              32 |                   877 |                    4 |               2333 |             0 |                0 |          487928 |                     0 |        191842 | 2017-02-03 16:12:20.928298+01

 2017-02-03 18:48:03.802799+01 | 1486144083.8028 |                 0 |              32 |                   877 |                    4 |               2333 |             0 |                0 |          487928 |                     0 |        191842 | 2017-02-03 16:12:20.928298+01

 2017-02-03 18:48:04.90997+01 | 1486144084.90997 |                 0 |              32 |                   877 |                    4 |               2333 |             0 |                0 |          487928 |                     0 |        191842 | 2017-02-03 16:12:20.928298+01

 2017-02-03 18:48:05.99811+01 | 1486144085.99811 |                 0 |              32 |                   877 |                    4 |               2333 |             0 |                0 |          487928 |                     0 |        191842 | 2017-02-03 16:12:20.928298+01

 2017-02-03 18:48:07.098565+01 | 1486144087.09857 |                 0 |              32 |                   877 |                    4 |               2333 |             0 |                0 |          487928 |                     0 |        191842 | 2017-02-03 16:12:20.928298+01

 2017-02-03 18:48:08.185366+01 | 1486144088.18537 |                 0 |              32 |                   877 |                    4 |               2333 |             0 |                0 |          487928 |                     0 |        191842 | 2017-02-03 16:12:20.928298+01

 2017-02-03 18:48:09.281042+01 | 1486144089.28104 |                 0 |              32 |                   877 |                    4 |               2333 |             0 |                0 |          487928 |                     0 |        191842 | 2017-02-03 16:12:20.928298+01

 2017-02-03 18:48:10.375329+01 | 1486144090.37533 |                 0 |              32 |                   877 |                    4 |               2333 |             0 |                0 |          487928 |                     0 |        191842 | 2017-02-03 16:12:20.928298+01

 2017-02-03 18:48:11.490969+01 | 1486144091.49097 |                 0 |              32 |                   877 |                    4 |               2333 |             0 |                0 |          487928 |                     0 |        191842 | 2017-02-03 16:12:20.928298+01

 2017-02-03 18:48:12.597815+01 | 1486144092.59782 |                 0 |              32 |                   877 |                    4 |               2333 |             0 |                0 |          487928 |                     0 |        191842 | 2017-02-03 16:12:20.928298+01

 2017-02-03 18:48:13.713184+01 | 1486144093.71318 |                 0 |              32 |                   877 |                    4 |               2333 |             0 |                0 |          487928 |                     0 |        191842 | 2017-02-03 16:12:20.928298+01

 2017-02-03 18:48:14.817925+01 | 1486144094.81792 |                 0 |              32 |                   877 |                    4 |               2333 |             0 |                0 |          487928 |                     0 |        191842 | 2017-02-03 16:12:20.928298+01

 2017-02-03 18:48:15.94139+01 | 1486144095.94139 |                 0 |              32 |                   877 |                    4 |               2333 |             0 |                0 |          487928 |                     0 |        191842 | 2017-02-03 16:12:20.928298+01

 2017-02-03 18:48:17.044632+01 | 1486144097.04463 |                 0 |              32 |                   877 |                    4 |               2333 |             0 |                0 |          487928 |                     0 |        191842 | 2017-02-03 16:12:20.928298+01

 2017-02-03 18:48:18.16743+01 | 1486144098.16743 |                 0 |              32 |                   877 |                    4 |               2333 |             0 |                0 |          487928 |                     0 |        191842 | 2017-02-03 16:12:20.928298+01

 2017-02-03 18:48:19.269616+01 | 1486144099.26962 |                 0 |              32 |                   877 |                    4 |               2333 |             0 |                0 |          487928 |                     0 |        191842 | 2017-02-03 16:12:20.928298+01

 2017-02-03 18:48:20.366779+01 | 1486144100.36678 |                 0 |              32 |                   877 |                    4 |               2333 |             0 |                0 |          487928 |                     0 |        191842 | 2017-02-03 16:12:20.928298+01

 2017-02-03 18:48:21.478143+01 | 1486144101.47814 |                 0 |              32 |                   877 |                    4 |               2333 |             0 |                0 |          487928 |                     0 |        191842 | 2017-02-03 16:12:20.928298+01

 2017-02-03 18:48:22.56903+01 | 1486144102.56903 |                 0 |              32 |                   877 |                    4 |               2333 |             0 |                0 |          487928 |                     0 |        191842 | 2017-02-03 16:12:20.928298+01

 2017-02-03 18:48:23.657224+01 | 1486144103.65722 |                 0 |              32 |                   877 |                    4 |               2333 |             0 |                0 |          487928 |                     0 |        191842 | 2017-02-03 16:12:20.928298+01

 2017-02-03 18:48:24.741737+01 | 1486144104.74174 |                 0 |              32 |                   877 |                    4 |               2333 |             0 |                0 |          487928 |                     0 |        191842 | 2017-02-03 16:12:20.928298+01

 2017-02-03 18:48:25.834132+01 | 1486144105.83413 |                 0 |              32 |                   877 |                    4 |               2333 |             0 |                0 |          487928 |                     0 |        191842 | 2017-02-03 16:12:20.928298+01

 2017-02-03 18:48:26.923223+01 | 1486144106.92322 |                 0 |              32 |                   877 |                    4 |               2333 |             0 |                0 |          487928 |                     0 |        191842 | 2017-02-03 16:12:20.928298+01

 2017-02-03 18:48:28.028407+01 | 1486144108.02841 |                 0 |              32 |                   877 |                    4 |               2333 |             0 |                0 |          487928 |                     0 |        191842 | 2017-02-03 16:12:20.928298+01

 2017-02-03 18:48:29.128074+01 | 1486144109.12807 |                 0 |              32 |                   877 |                    4 |               2333 |             0 |                0 |          487928 |                     0 |        191842 | 2017-02-03 16:12:20.928298+01

 2017-02-03 18:48:30.223871+01 | 1486144110.22387 |                 0 |              32 |                   877 |                    4 |               2333 |             0 |                0 |          487928 |                     0 |        191842 | 2017-02-03 16:12:20.928298+01

 2017-02-03 18:48:31.307249+01 | 1486144111.30725 |                 0 |              32 |                   877 |                    4 |               2333 |             0 |                0 |          487928 |                     0 |        191842 | 2017-02-03 16:12:20.928298+01

 2017-02-03 18:48:32.409411+01 | 1486144112.40941 |                 0 |              32 |                   877 |                    4 |               2333 |             0 |                0 |          487928 |                     0 |        191842 | 2017-02-03 16:12:20.928298+01

 2017-02-03 18:48:33.488318+01 | 1486144113.48832 |                 0 |              32 |                   877 |                    4 |               2333 |             0 |                0 |          487928 |                     0 |        191842 | 2017-02-03 16:12:20.928298+01

 2017-02-03 18:48:34.575378+01 | 1486144114.57538 |                 0 |              32 |                   877 |                    4 |               2333 |             0 |                0 |          487928 |                     0 |        191842 | 2017-02-03 16:12:20.928298+01

 2017-02-03 18:48:35.66179+01 | 1486144115.66179 |                 0 |              32 |                   877 |                    4 |               2333 |             0 |                0 |          487928 |                     0 |        191842 | 2017-02-03 16:12:20.928298+01

 2017-02-03 18:48:36.761367+01 | 1486144116.76137 |                 0 |              32 |                   877 |                    4 |               2333 |             0 |                0 |          487928 |                     0 |        191842 | 2017-02-03 16:12:20.928298+01

 2017-02-03 18:48:37.862147+01 | 1486144117.86215 |                 0 |              32 |                   877 |                    4 |               2333 |             0 |                0 |          487928 |                     0 |        191842 | 2017-02-03 16:12:20.928298+01

 2017-02-03 18:48:38.967234+01 | 1486144118.96723 |                 0 |              32 |                   877 |                    4 |               2333 |             0 |                0 |          487928 |                     0 |        191842 | 2017-02-03 16:12:20.928298+01

 2017-02-03 18:48:40.067437+01 | 1486144120.06744 |                 0 |              32 |                   877 |                    4 |               2333 |             0 |                0 |          487928 |                     0 |        191842 | 2017-02-03 16:12:20.928298+01

 2017-02-03 18:48:41.163945+01 | 1486144121.16394 |                 0 |              32 |                   877 |                    4 |               2333 |             0 |                0 |          487928 |                     0 |        191842 | 2017-02-03 16:12:20.928298+01

 2017-02-03 18:48:42.263754+01 | 1486144122.26375 |                 0 |              32 |                   877 |                    4 |               2333 |             0 |                0 |          487928 |                     0 |        191842 | 2017-02-03 16:12:20.928298+01

 2017-02-03 18:48:43.382213+01 | 1486144123.38221 |                 0 |              32 |                   877 |                    4 |               2333 |             0 |                0 |          487928 |                     0 |        191842 | 2017-02-03 16:12:20.928298+01

 2017-02-03 18:48:44.494498+01 | 1486144124.4945 |                 0 |              32 |                   877 |                    4 |               2333 |             0 |                0 |          487928 |                     0 |        191842 | 2017-02-03 16:12:20.928298+01

 2017-02-03 18:48:45.59103+01 | 1486144125.59103 |                 0 |              32 |                   877 |                    4 |               2333 |             0 |                0 |          487928 |                     0 |        191842 | 2017-02-03 16:12:20.928298+01

 2017-02-03 18:48:46.691838+01 | 1486144126.69184 |                 0 |              32 |                   877 |                    4 |               2333 |             0 |                0 |          487928 |                     0 |        191842 | 2017-02-03 16:12:20.928298+01

 2017-02-03 18:48:47.781204+01 | 1486144127.7812 |                 0 |              32 |                   877 |                    4 |               2333 |             0 |                0 |          487928 |                     0 |        191842 | 2017-02-03 16:12:20.928298+01

 2017-02-03 18:48:48.884261+01 | 1486144128.88426 |                 0 |              32 |                   877 |                    4 |               2333 |             0 |                0 |          487928 |                     0 |        191842 | 2017-02-03 16:12:20.928298+01

 2017-02-03 18:48:49.976912+01 | 1486144129.97691 |                 0 |              32 |                   877 |                    4 |               2333 |             0 |                0 |          487928 |                     0 |        191842 | 2017-02-03 16:12:20.928298+01

 2017-02-03 18:48:51.070214+01 | 1486144131.07021 |                 0 |              32 |                   877 |                    4 |               2333 |             0 |                0 |          487928 |                     0 |        191842 | 2017-02-03 16:12:20.928298+01

 2017-02-03 18:48:52.157369+01 | 1486144132.15737 |                 0 |              32 |                   877 |                    4 |               2333 |             0 |                0 |          487928 |                     0 |        191842 | 2017-02-03 16:12:20.928298+01

 2017-02-03 18:48:53.245248+01 | 1486144133.24525 |                 0 |              32 |                   877 |                    4 |               2333 |             0 |                0 |          487928 |                     0 |        191842 | 2017-02-03 16:12:20.928298+01

 2017-02-03 18:48:54.353876+01 | 1486144134.35388 |                 0 |              32 |                   877 |                    4 |               2333 |             0 |                0 |          487928 |                     0 |        191842 | 2017-02-03 16:12:20.928298+01

 2017-02-03 18:48:55.469963+01 | 1486144135.46996 |                 0 |              32 |                   877 |                    4 |               2333 |             0 |                0 |          487928 |                     0 |        191842 | 2017-02-03 16:12:20.928298+01

 2017-02-03 18:48:56.609826+01 | 1486144136.60983 |                 0 |              32 |                   877 |                    4 |               2333 |             0 |                0 |          487928 |                     0 |        191842 | 2017-02-03 16:12:20.928298+01

 2017-02-03 18:48:57.694586+01 | 1486144137.69459 |                 0 |              32 |                   877 |                    4 |               2333 |             0 |                0 |          487928 |                     0 |        191842 | 2017-02-03 16:12:20.928298+01

 2017-02-03 18:48:58.793022+01 | 1486144138.79302 |                 0 |              32 |                   877 |                    4 |               2333 |             0 |                0 |          487928 |                     0 |        191842 | 2017-02-03 16:12:20.928298+01

 2017-02-03 18:48:59.89472+01 | 1486144139.89472 |                 0 |              32 |                   877 |                    4 |               2333 |             0 |                0 |          487928 |                     0 |        191842 | 2017-02-03 16:12:20.928298+01

 2017-02-03 18:49:00.995688+01 | 1486144140.99569 |                 0 |              32 |                   877 |                    4 |               2333 |             0 |                0 |          487928 |                     0 |        191842 | 2017-02-03 16:12:20.928298+01

 2017-02-03 18:49:02.098701+01 | 1486144142.0987 |                 0 |              32 |                   877 |                    4 |               2333 |             0 |                0 |          487928 |                     0 |        191842 | 2017-02-03 16:12:20.928298+01

 2017-02-03 18:49:03.198239+01 | 1486144143.19824 |                 0 |              32 |                   877 |                    4 |               2333 |             0 |                0 |          487928 |                     0 |        191842 | 2017-02-03 16:12:20.928298+01

 2017-02-03 18:49:04.302407+01 | 1486144144.30241 |                 0 |              32 |                   877 |                    4 |               2333 |             0 |                0 |          487928 |                     0 |        191842 | 2017-02-03 16:12:20.928298+01

 2017-02-03 18:49:05.426523+01 | 1486144145.42652 |                 0 |              32 |                   877 |                    4 |               2333 |             0 |                0 |          487928 |                     0 |        191842 | 2017-02-03 16:12:20.928298+01

 2017-02-03 18:49:06.529945+01 | 1486144146.52994 |                 0 |              32 |                   877 |                    4 |               2333 |             0 |                0 |          487928 |                     0 |        191842 | 2017-02-03 16:12:20.928298+01

 2017-02-03 18:49:07.621913+01 | 1486144147.62191 |                 0 |              32 |                   877 |                    4 |               2333 |             0 |                0 |          487928 |                     0 |        191842 | 2017-02-03 16:12:20.928298+01

 2017-02-03 18:49:08.707494+01 | 1486144148.70749 |                 0 |              32 |                   877 |                    4 |               2333 |             0 |                0 |          487928 |                     0 |        191842 | 2017-02-03 16:12:20.928298+01

 2017-02-03 18:49:09.815698+01 | 1486144149.8157 |                 0 |              32 |                   877 |                    4 |               2333 |             0 |                0 |          487928 |                     0 |        191842 | 2017-02-03 16:12:20.928298+01

 2017-02-03 18:49:10.909162+01 | 1486144150.90916 |                 0 |              32 |                   877 |                    4 |               2333 |             0 |                0 |          487928 |                     0 |        191842 | 2017-02-03 16:12:20.928298+01

 2017-02-03 18:49:12.011829+01 | 1486144152.01183 |                 0 |              32 |                   877 |                    4 |               2333 |             0 |                0 |          487928 |                     0 |        191842 | 2017-02-03 16:12:20.928298+01

 2017-02-03 18:49:13.105886+01 | 1486144153.10589 |                 0 |              32 |                   877 |                    4 |               2333 |             0 |                0 |          487928 |                     0 |        191842 | 2017-02-03 16:12:20.928298+01

 2017-02-03 18:49:14.216128+01 | 1486144154.21613 |                 0 |              32 |                   877 |                    4 |               2333 |             0 |                0 |          487928 |                     0 |        191842 | 2017-02-03 16:12:20.928298+01

 2017-02-03 18:49:15.313048+01 | 1486144155.31305 |                 0 |              32 |                   877 |                    4 |               2333 |             0 |                0 |          487928 |                     0 |        191842 | 2017-02-03 16:12:20.928298+01

 2017-02-03 18:49:16.418076+01 | 1486144156.41808 |                 0 |              32 |                   877 |                    4 |               2333 |             0 |                0 |          487928 |                     0 |        191842 | 2017-02-03 16:12:20.928298+01

 2017-02-03 18:49:17.518732+01 | 1486144157.51873 |                 0 |              32 |                   877 |                    4 |               2333 |             0 |                0 |          487928 |                     0 |        191842 | 2017-02-03 16:12:20.928298+01

 2017-02-03 18:49:18.622141+01 | 1486144158.62214 |                 0 |              32 |                   877 |                    4 |               2333 |             0 |                0 |          487928 |                     0 |        191842 | 2017-02-03 16:12:20.928298+01

 2017-02-03 18:49:19.786947+01 | 1486144159.78695 |                 0 |              32 |                   877 |                    4 |               2333 |             0 |                0 |          487928 |                     0 |        191842 | 2017-02-03 16:12:20.928298+01

 2017-02-03 18:49:20.923404+01 | 1486144160.9234 |                 0 |              32 |                   877 |                    4 |               2333 |             0 |                0 |          487928 |                     0 |        191842 | 2017-02-03 16:12:20.928298+01

 2017-02-03 18:49:22.065489+01 | 1486144162.06549 |                 0 |              32 |                   877 |                    4 |               2333 |             0 |                0 |          487928 |                     0 |        191842 | 2017-02-03 16:12:20.928298+01

 2017-02-03 18:49:23.169823+01 | 1486144163.16982 |                 0 |              32 |                   877 |                    4 |               2333 |             0 |                0 |          487928 |                     0 |        191842 | 2017-02-03 16:12:20.928298+01

 2017-02-03 18:49:24.286849+01 | 1486144164.28685 |                 0 |              32 |                   877 |                    4 |               2333 |             0 |                0 |          487928 |                     0 |        191842 | 2017-02-03 16:12:20.928298+01

 2017-02-03 18:49:25.394162+01 | 1486144165.39416 |                 0 |              32 |                   877 |                    4 |               2333 |             0 |                0 |          487928 |                     0 |        191842 | 2017-02-03 16:12:20.928298+01

 2017-02-03 18:49:26.490705+01 | 1486144166.49071 |                 0 |              32 |                   877 |                    4 |               2333 |             0 |                0 |          487928 |                     0 |        191842 | 2017-02-03 16:12:20.928298+01

 2017-02-03 18:49:27.590313+01 | 1486144167.59031 |                 0 |              32 |                   877 |                    4 |               2333 |             0 |                0 |          487928 |                     0 |        191842 | 2017-02-03 16:12:20.928298+01

 2017-02-03 18:49:28.694632+01 | 1486144168.69463 |                 0 |              32 |                   877 |                    4 |               2333 |             0 |                0 |          487928 |                     0 |        191842 | 2017-02-03 16:12:20.928298+01

 2017-02-03 18:49:29.791486+01 | 1486144169.79149 |                 0 |              32 |                   877 |                    4 |               2333 |             0 |                0 |          487928 |                     0 |        191842 | 2017-02-03 16:12:20.928298+01

 2017-02-03 18:49:30.893123+01 | 1486144170.89312 |                 0 |              32 |                   877 |                    4 |               2333 |             0 |                0 |          487928 |                     0 |        191842 | 2017-02-03 16:12:20.928298+01

 2017-02-03 18:49:32.00765+01 | 1486144172.00765 |                 0 |              32 |                   877 |                    4 |               2333 |             0 |                0 |          487928 |                     0 |        191842 | 2017-02-03 16:12:20.928298+01

 2017-02-03 18:49:33.121602+01 | 1486144173.1216 |                 0 |              32 |                   877 |                    4 |               2333 |             0 |                0 |          487928 |                     0 |        191842 | 2017-02-03 16:12:20.928298+01

 2017-02-03 18:49:34.227497+01 | 1486144174.2275 |                 0 |              32 |                   877 |                    4 |               2333 |             0 |                0 |          487928 |                     0 |        191842 | 2017-02-03 16:12:20.928298+01

 2017-02-03 18:49:35.340067+01 | 1486144175.34007 |                 0 |              32 |                   877 |                    4 |               2333 |             0 |                0 |          487928 |                     0 |        191842 | 2017-02-03 16:12:20.928298+01

 2017-02-03 18:49:36.451408+01 | 1486144176.45141 |                 0 |              32 |                   877 |                    4 |               2333 |             0 |                0 |          487928 |                     0 |        191842 | 2017-02-03 16:12:20.928298+01

 2017-02-03 18:49:37.545323+01 | 1486144177.54532 |                 0 |              32 |                   877 |                    4 |               2333 |             0 |                0 |          487928 |                     0 |        191842 | 2017-02-03 16:12:20.928298+01

 2017-02-03 18:49:38.646622+01 | 1486144178.64662 |                 0 |              32 |                   877 |                    4 |               2333 |             0 |                0 |          487928 |                     0 |        191842 | 2017-02-03 16:12:20.928298+01

 2017-02-03 18:49:39.747059+01 | 1486144179.74706 |                 0 |              32 |                   877 |                    4 |               2333 |             0 |                0 |          487928 |                     0 |        191842 | 2017-02-03 16:12:20.928298+01

 2017-02-03 18:49:40.844084+01 | 1486144180.84408 |                 0 |              32 |                   877 |                    4 |               2333 |             0 |                0 |          487928 |                     0 |        191842 | 2017-02-03 16:12:20.928298+01

 2017-02-03 18:49:41.946784+01 | 1486144181.94678 |                 0 |              32 |                   877 |                    4 |               2333 |             0 |                0 |          487928 |                     0 |        191842 | 2017-02-03 16:12:20.928298+01

 2017-02-03 18:49:43.06584+01 | 1486144183.06584 |                 0 |              32 |                   877 |                    4 |               2333 |             0 |                0 |          487928 |                     0 |        191842 | 2017-02-03 16:12:20.928298+01

 2017-02-03 18:49:44.164712+01 | 1486144184.16471 |                 0 |              32 |                   877 |                    4 |               2333 |             0 |                0 |          487928 |                     0 |        191842 | 2017-02-03 16:12:20.928298+01

 2017-02-03 18:49:45.276862+01 | 1486144185.27686 |                 0 |              32 |                   877 |                    4 |               2333 |             0 |                0 |          487928 |                     0 |        191842 | 2017-02-03 16:12:20.928298+01

 2017-02-03 18:49:46.400859+01 | 1486144186.40086 |                 0 |              32 |                   877 |                    4 |               2333 |             0 |                0 |          487928 |                     0 |        191842 | 2017-02-03 16:12:20.928298+01

 2017-02-03 18:49:47.541694+01 | 1486144187.54169 |                 0 |              32 |                   877 |                    4 |               2333 |             0 |                0 |          487928 |                     0 |        191842 | 2017-02-03 16:12:20.928298+01

 2017-02-03 18:49:48.640839+01 | 1486144188.64084 |                 0 |              32 |                   877 |                    4 |               2333 |             0 |                0 |          487928 |                     0 |        191842 | 2017-02-03 16:12:20.928298+01

 2017-02-03 18:49:49.734822+01 | 1486144189.73482 |                 0 |              32 |                   877 |                    4 |               2333 |             0 |                0 |          487928 |                     0 |        191842 | 2017-02-03 16:12:20.928298+01

 2017-02-03 18:49:50.845599+01 | 1486144190.8456 |                 0 |              32 |                   877 |                    4 |               2333 |             0 |                0 |          487928 |                     0 |        191842 | 2017-02-03 16:12:20.928298+01

 2017-02-03 18:49:51.941713+01 | 1486144191.94171 |                 0 |              32 |                   877 |                    4 |               2333 |             0 |                0 |          487928 |                     0 |        191842 | 2017-02-03 16:12:20.928298+01

 2017-02-03 18:49:53.047599+01 | 1486144193.0476 |                 0 |              32 |                   877 |                    4 |               2333 |             0 |                0 |          487928 |                     0 |        191842 | 2017-02-03 16:12:20.928298+01

 2017-02-03 18:49:54.14955+01 | 1486144194.14955 |                 0 |              32 |                   877 |                    4 |               2333 |             0 |                0 |          487928 |                     0 |        191842 | 2017-02-03 16:12:20.928298+01

 2017-02-03 18:49:55.252446+01 | 1486144195.25245 |                 0 |              32 |                   877 |                    4 |               2333 |             0 |                0 |          487928 |                     0 |        191842 | 2017-02-03 16:12:20.928298+01

 2017-02-03 18:49:56.34866+01 | 1486144196.34866 |                 0 |              32 |                   877 |                    4 |               2333 |             0 |                0 |          487928 |                     0 |        191842 | 2017-02-03 16:12:20.928298+01

 2017-02-03 18:49:57.443267+01 | 1486144197.44327 |                 0 |              32 |                   877 |                    4 |               2333 |             0 |                0 |          487928 |                     0 |        191842 | 2017-02-03 16:12:20.928298+01

 2017-02-03 18:49:58.550935+01 | 1486144198.55094 |                 0 |              32 |                   877 |                    4 |               2333 |             0 |                0 |          487928 |                     0 |        191842 | 2017-02-03 16:12:20.928298+01

 2017-02-03 18:49:59.630628+01 | 1486144199.63063 |                 0 |              32 |                   877 |                    4 |               2333 |             0 |                0 |          487928 |                     0 |        191842 | 2017-02-03 16:12:20.928298+01

 2017-02-03 18:50:00.73421+01 | 1486144200.73421 |                 0 |              32 |                   877 |                    4 |               2333 |             0 |                0 |          487928 |                     0 |        191842 | 2017-02-03 16:12:20.928298+01

 2017-02-03 18:50:01.851234+01 | 1486144201.85123 |                 0 |              32 |                   877 |                    4 |               2333 |             0 |                0 |          487928 |                     0 |        191842 | 2017-02-03 16:12:20.928298+01

 2017-02-03 18:50:02.949996+01 | 1486144202.95 |                 0 |              32 |                   877 |                    4 |               2333 |             0 |                0 |          487928 |                     0 |        191842 | 2017-02-03 16:12:20.928298+01

 2017-02-03 18:50:04.039095+01 | 1486144204.03909 |                 0 |              32 |                   877 |                    4 |               2333 |             0 |                0 |          487928 |                     0 |        191842 | 2017-02-03 16:12:20.928298+01

 2017-02-03 18:50:05.13415+01 | 1486144205.13415 |                 0 |              32 |                   877 |                    4 |               2333 |             0 |                0 |          487928 |                     0 |        191842 | 2017-02-03 16:12:20.928298+01

 2017-02-03 18:50:06.243425+01 | 1486144206.24342 |                 0 |              32 |                   877 |                    4 |               2333 |             0 |                0 |          487928 |                     0 |        191842 | 2017-02-03 16:12:20.928298+01

 2017-02-03 18:50:07.336368+01 | 1486144207.33637 |                 0 |              32 |                   877 |                    4 |               2333 |             0 |                0 |          487928 |                     0 |        191842 | 2017-02-03 16:12:20.928298+01

 2017-02-03 18:50:08.439874+01 | 1486144208.43987 |                 0 |              32 |                   877 |                    4 |               2333 |             0 |                0 |          487928 |                     0 |        191842 | 2017-02-03 16:12:20.928298+01

 2017-02-03 18:50:09.573586+01 | 1486144209.57359 |                 0 |              32 |                   877 |                    4 |               2333 |             0 |                0 |          487928 |                     0 |        191842 | 2017-02-03 16:12:20.928298+01

 2017-02-03 18:50:10.664247+01 | 1486144210.66425 |                 0 |              32 |                   877 |                    4 |               2333 |             0 |                0 |          487928 |                     0 |        191842 | 2017-02-03 16:12:20.928298+01

 2017-02-03 18:50:11.777697+01 | 1486144211.7777 |                 0 |              32 |                   877 |                    4 |               2333 |             0 |                0 |          487928 |                     0 |        191842 | 2017-02-03 16:12:20.928298+01

 2017-02-03 18:50:12.872821+01 | 1486144212.87282 |                 0 |              32 |                   877 |                    4 |               2333 |             0 |                0 |          487928 |                     0 |        191842 | 2017-02-03 16:12:20.928298+01

 2017-02-03 18:50:13.971069+01 | 1486144213.97107 |                 0 |              32 |                   877 |                    4 |               2333 |             0 |                0 |          487928 |                     0 |        191842 | 2017-02-03 16:12:20.928298+01

 2017-02-03 18:50:15.073624+01 | 1486144215.07362 |                 0 |              32 |                   877 |                    4 |               2333 |             0 |                0 |          487928 |                     0 |        191842 | 2017-02-03 16:12:20.928298+01

 2017-02-03 18:50:16.176145+01 | 1486144216.17615 |                 0 |              32 |                   877 |                    4 |               2333 |             0 |                0 |          487928 |                     0 |        191842 | 2017-02-03 16:12:20.928298+01

 2017-02-03 18:50:17.282279+01 | 1486144217.28228 |                 0 |              32 |                   877 |                    4 |               2333 |             0 |                0 |          487928 |                     0 |        191842 | 2017-02-03 16:12:20.928298+01

 2017-02-03 18:50:18.378685+01 | 1486144218.37868 |                 0 |              32 |                   877 |                    4 |               2333 |             0 |                0 |          487928 |                     0 |        191842 | 2017-02-03 16:12:20.928298+01

 2017-02-03 18:50:19.473756+01 | 1486144219.47376 |                 0 |              32 |                   877 |                    4 |               2333 |             0 |                0 |          487928 |                     0 |        191842 | 2017-02-03 16:12:20.928298+01

 2017-02-03 18:50:20.587112+01 | 1486144220.58711 |                 0 |              32 |                   877 |                    4 |               2333 |             0 |                0 |          487928 |                     0 |        191842 | 2017-02-03 16:12:20.928298+01

 2017-02-03 18:50:21.698887+01 | 1486144221.69889 |                 0 |              32 |                   877 |                    4 |               2333 |             0 |                0 |          487928 |                     0 |        191842 | 2017-02-03 16:12:20.928298+01

 2017-02-03 18:50:22.814825+01 | 1486144222.81483 |                 0 |              32 |                   877 |                    4 |               2333 |             0 |                0 |          487928 |                     0 |        191842 | 2017-02-03 16:12:20.928298+01

 2017-02-03 18:50:23.923575+01 | 1486144223.92357 |                 0 |              32 |                   877 |                    4 |               2333 |             0 |                0 |          487928 |                     0 |        191842 | 2017-02-03 16:12:20.928298+01

 2017-02-03 18:50:25.02028+01 | 1486144225.02028 |                 0 |              32 |                   877 |                    4 |               2333 |             0 |                0 |          487928 |                     0 |        191842 | 2017-02-03 16:12:20.928298+01

 2017-02-03 18:50:26.123448+01 | 1486144226.12345 |                 0 |              32 |                   877 |                    4 |               2333 |             0 |                0 |          487928 |                     0 |        191842 | 2017-02-03 16:12:20.928298+01

 2017-02-03 18:50:27.219366+01 | 1486144227.21937 |                 0 |              32 |                   877 |                    4 |               2333 |             0 |                0 |          487928 |                     0 |        191842 | 2017-02-03 16:12:20.928298+01

 2017-02-03 18:50:28.330813+01 | 1486144228.33081 |                 0 |              32 |                   877 |                    4 |               2333 |             0 |                0 |          487928 |                     0 |        191842 | 2017-02-03 16:12:20.928298+01

 2017-02-03 18:50:29.420183+01 | 1486144229.42018 |                 0 |              32 |                   877 |                    4 |               2333 |             0 |                0 |          487928 |                     0 |        191842 | 2017-02-03 16:12:20.928298+01

 2017-02-03 18:50:30.513104+01 | 1486144230.5131 |                 0 |              32 |                   877 |                    4 |               2333 |             0 |                0 |          487928 |                     0 |        191842 | 2017-02-03 16:12:20.928298+01

 2017-02-03 18:50:31.606811+01 | 1486144231.60681 |                 0 |              32 |                   877 |                    4 |               2333 |             0 |                0 |          487928 |                     0 |        191842 | 2017-02-03 16:12:20.928298+01

 2017-02-03 18:50:32.695414+01 | 1486144232.69541 |                 0 |              32 |                   877 |                    4 |               2333 |             0 |                0 |          487928 |                     0 |        191842 | 2017-02-03 16:12:20.928298+01

 2017-02-03 18:50:33.79193+01 | 1486144233.79193 |                 0 |              32 |                   877 |                    4 |               2333 |             0 |                0 |          487928 |                     0 |        191842 | 2017-02-03 16:12:20.928298+01

 2017-02-03 18:50:34.887554+01 | 1486144234.88755 |                 0 |              32 |                   877 |                    4 |               2333 |             0 |                0 |          487928 |                     0 |        191842 | 2017-02-03 16:12:20.928298+01

 2017-02-03 18:50:36.001108+01 | 1486144236.00111 |                 0 |              32 |                   877 |                    4 |               2333 |             0 |                0 |          487928 |                     0 |        191842 | 2017-02-03 16:12:20.928298+01

 2017-02-03 18:50:37.087789+01 | 1486144237.08779 |                 0 |              32 |                   877 |                    4 |               2333 |             0 |                0 |          487928 |                     0 |        191842 | 2017-02-03 16:12:20.928298+01

 2017-02-03 18:50:38.175511+01 | 1486144238.17551 |                 0 |              32 |                   877 |                    4 |               2333 |             0 |                0 |          487928 |                     0 |        191842 | 2017-02-03 16:12:20.928298+01

 2017-02-03 18:50:39.288187+01 | 1486144239.28819 |                 0 |              32 |                   877 |                    4 |               2333 |             0 |                0 |          487928 |                     0 |        191842 | 2017-02-03 16:12:20.928298+01

 2017-02-03 18:50:40.407639+01 | 1486144240.40764 |                 0 |              32 |                   877 |                    4 |               2333 |             0 |                0 |          487928 |                     0 |        191842 | 2017-02-03 16:12:20.928298+01

 2017-02-03 18:50:41.498535+01 | 1486144241.49853 |                 0 |              32 |                   877 |                    4 |               2333 |             0 |                0 |          487928 |                     0 |        191842 | 2017-02-03 16:12:20.928298+01

 2017-02-03 18:50:42.605965+01 | 1486144242.60596 |                 0 |              32 |                   877 |                    4 |               2333 |             0 |                0 |          487928 |                     0 |        191842 | 2017-02-03 16:12:20.928298+01

 2017-02-03 18:50:43.714799+01 | 1486144243.7148 |                 0 |              32 |                   877 |                    4 |               2333 |             0 |                0 |          487928 |                     0 |        191842 | 2017-02-03 16:12:20.928298+01

 2017-02-03 18:50:44.828413+01 | 1486144244.82841 |                 0 |              32 |                   877 |                    4 |               2333 |             0 |                0 |          487928 |                     0 |        191842 | 2017-02-03 16:12:20.928298+01

 2017-02-03 18:50:45.925215+01 | 1486144245.92522 |                 0 |              32 |                   877 |                    4 |               2333 |             0 |                0 |          487928 |                     0 |        191842 | 2017-02-03 16:12:20.928298+01

 2017-02-03 18:50:47.051346+01 | 1486144247.05135 |                 0 |              32 |                   877 |                    4 |               2333 |             0 |                0 |          487928 |                     0 |        191842 | 2017-02-03 16:12:20.928298+01

 2017-02-03 18:50:48.17256+01 | 1486144248.17256 |                 0 |              32 |                   877 |                    4 |               2333 |             0 |                0 |          487928 |                     0 |        191842 | 2017-02-03 16:12:20.928298+01

 2017-02-03 18:50:49.290703+01 | 1486144249.2907 |                 0 |              32 |                   877 |                    4 |               2333 |             0 |                0 |          487928 |                     0 |        191842 | 2017-02-03 16:12:20.928298+01

 2017-02-03 18:50:50.412053+01 | 1486144250.41205 |                 0 |              32 |                   877 |                    4 |               2333 |             0 |                0 |          487928 |                     0 |        191842 | 2017-02-03 16:12:20.928298+01

 2017-02-03 18:50:51.52781+01 | 1486144251.52781 |                 0 |              32 |                   877 |                    4 |               2333 |             0 |                0 |          487928 |                     0 |        191842 | 2017-02-03 16:12:20.928298+01

 2017-02-03 18:50:52.62112+01 | 1486144252.62112 |                 0 |              32 |                   877 |                    4 |               2333 |             0 |                0 |          487928 |                     0 |        191842 | 2017-02-03 16:12:20.928298+01

 2017-02-03 18:50:53.724329+01 | 1486144253.72433 |                 0 |              32 |                   877 |                    4 |               2333 |             0 |                0 |          487928 |                     0 |        191842 | 2017-02-03 16:12:20.928298+01

 2017-02-03 18:50:54.813101+01 | 1486144254.8131 |                 0 |              32 |                   877 |                    4 |               2333 |             0 |                0 |          487928 |                     0 |        191842 | 2017-02-03 16:12:20.928298+01

 2017-02-03 18:50:55.926514+01 | 1486144255.92651 |                 0 |              32 |                   877 |                    4 |               2333 |             0 |                0 |          487928 |                     0 |        191842 | 2017-02-03 16:12:20.928298+01

 2017-02-03 18:50:57.017065+01 | 1486144257.01707 |                 0 |              32 |                   877 |                    4 |               2333 |             0 |                0 |          487928 |                     0 |        191842 | 2017-02-03 16:12:20.928298+01

 2017-02-03 18:50:58.130075+01 | 1486144258.13007 |                 0 |              32 |                   877 |                    4 |               2333 |             0 |                0 |          487928 |                     0 |        191842 | 2017-02-03 16:12:20.928298+01

 2017-02-03 18:50:59.238107+01 | 1486144259.23811 |                 0 |              32 |                   877 |                    4 |               2333 |             0 |                0 |          487928 |                     0 |        191842 | 2017-02-03 16:12:20.928298+01

 2017-02-03 18:51:00.357213+01 | 1486144260.35721 |                 0 |              32 |                   877 |                    4 |               2333 |             0 |                0 |          487928 |                     0 |        191842 | 2017-02-03 16:12:20.928298+01

 2017-02-03 18:51:01.463905+01 | 1486144261.46391 |                 0 |              32 |                   877 |                    4 |               2333 |             0 |                0 |          487928 |                     0 |        191842 | 2017-02-03 16:12:20.928298+01

 2017-02-03 18:51:02.563956+01 | 1486144262.56396 |                 0 |              32 |                   877 |                    4 |               2333 |             0 |                0 |          487928 |                     0 |        191842 | 2017-02-03 16:12:20.928298+01

 2017-02-03 18:51:03.667783+01 | 1486144263.66778 |                 0 |              32 |                   877 |                    4 |               2333 |             0 |                0 |          487928 |                     0 |        191842 | 2017-02-03 16:12:20.928298+01

 2017-02-03 18:51:04.784956+01 | 1486144264.78496 |                 0 |              32 |                   877 |                    4 |               2333 |             0 |                0 |          487928 |                     0 |        191842 | 2017-02-03 16:12:20.928298+01

 2017-02-03 18:51:05.878884+01 | 1486144265.87888 |                 0 |              32 |                   877 |                    4 |               2333 |             0 |                0 |          487928 |                     0 |        191842 | 2017-02-03 16:12:20.928298+01

 2017-02-03 18:51:06.975693+01 | 1486144266.97569 |                 0 |              32 |                   877 |                    4 |               2333 |             0 |                0 |          487928 |                     0 |        191842 | 2017-02-03 16:12:20.928298+01

 2017-02-03 18:51:08.077722+01 | 1486144268.07772 |                 0 |              32 |                   877 |                    4 |               2333 |             0 |                0 |          487928 |                     0 |        191842 | 2017-02-03 16:12:20.928298+01

 2017-02-03 18:51:09.173697+01 | 1486144269.1737 |                 0 |              32 |                   877 |                    4 |               2333 |             0 |                0 |          487928 |                     0 |        191842 | 2017-02-03 16:12:20.928298+01

 2017-02-03 18:51:10.272201+01 | 1486144270.2722 |                 0 |              32 |                   877 |                    4 |               2333 |             0 |                0 |          487928 |                     0 |        191842 | 2017-02-03 16:12:20.928298+01

 2017-02-03 18:51:11.367314+01 | 1486144271.36731 |                 0 |              32 |                   877 |                    4 |               2333 |             0 |                0 |          487928 |                     0 |        191842 | 2017-02-03 16:12:20.928298+01

 2017-02-03 18:51:12.457976+01 | 1486144272.45798 |                 0 |              32 |                   877 |                    4 |               2333 |             0 |                0 |          487928 |                     0 |        191842 | 2017-02-03 16:12:20.928298+01

 2017-02-03 18:51:13.55078+01 | 1486144273.55078 |                 0 |              32 |                   877 |                    4 |               2333 |             0 |                0 |          487928 |                     0 |        191842 | 2017-02-03 16:12:20.928298+01

 2017-02-03 18:51:14.653346+01 | 1486144274.65335 |                 0 |              32 |                   877 |                    4 |               2333 |             0 |                0 |          487928 |                     0 |        191842 | 2017-02-03 16:12:20.928298+01

 2017-02-03 18:51:15.75488+01 | 1486144275.75488 |                 0 |              32 |                   877 |                    4 |               2333 |             0 |                0 |          487928 |                     0 |        191842 | 2017-02-03 16:12:20.928298+01

 2017-02-03 18:51:16.870474+01 | 1486144276.87047 |                 0 |              32 |                   877 |                    4 |               2333 |             0 |                0 |          487928 |                     0 |        191842 | 2017-02-03 16:12:20.928298+01

 2017-02-03 18:51:17.991285+01 | 1486144277.99129 |                 0 |              32 |                   877 |                    4 |               2333 |             0 |                0 |          487928 |                     0 |        191842 | 2017-02-03 16:12:20.928298+01

 2017-02-03 18:51:19.093849+01 | 1486144279.09385 |                 0 |              32 |                   877 |                    4 |               2333 |             0 |                0 |          487928 |                     0 |        191842 | 2017-02-03 16:12:20.928298+01

 2017-02-03 18:51:20.201287+01 | 1486144280.20129 |                 0 |              32 |                   877 |                    4 |               2333 |             0 |                0 |          487928 |                     0 |        191842 | 2017-02-03 16:12:20.928298+01

 2017-02-03 18:51:21.309935+01 | 1486144281.30994 |                 0 |              32 |                   877 |                    4 |               2333 |             0 |                0 |          487928 |                     0 |        191842 | 2017-02-03 16:12:20.928298+01

 2017-02-03 18:51:22.403641+01 | 1486144282.40364 |                 0 |              32 |                   877 |                    4 |               2333 |             0 |                0 |          487928 |                     0 |        191842 | 2017-02-03 16:12:20.928298+01

 2017-02-03 18:51:23.500964+01 | 1486144283.50096 |                 0 |              32 |                   877 |                    4 |               2333 |             0 |                0 |          487928 |                     0 |        191842 | 2017-02-03 16:12:20.928298+01

 2017-02-03 18:51:24.585832+01 | 1486144284.58583 |                 0 |              32 |                   877 |                    4 |               2333 |             0 |                0 |          487928 |                     0 |        191842 | 2017-02-03 16:12:20.928298+01

 2017-02-03 18:51:25.705255+01 | 1486144285.70526 |                 0 |              32 |                   877 |                    4 |               2333 |             0 |                0 |          487928 |                     0 |        191842 | 2017-02-03 16:12:20.928298+01

 2017-02-03 18:51:26.829038+01 | 1486144286.82904 |                 0 |              32 |                   877 |                    4 |               2333 |             0 |                0 |          487928 |                     0 |        191842 | 2017-02-03 16:12:20.928298+01

 2017-02-03 18:51:27.93312+01 | 1486144287.93312 |                 0 |              32 |                   877 |                    4 |               2333 |             0 |                0 |          487928 |                     0 |        191842 | 2017-02-03 16:12:20.928298+01

 2017-02-03 18:51:29.052056+01 | 1486144289.05206 |                 0 |              32 |                   877 |                    4 |               2333 |             0 |                0 |          487928 |                     0 |        191842 | 2017-02-03 16:12:20.928298+01

 2017-02-03 18:51:30.17687+01 | 1486144290.17687 |                 0 |              32 |                   877 |                    4 |               2333 |             0 |                0 |          487928 |                     0 |        191842 | 2017-02-03 16:12:20.928298+01

 2017-02-03 18:51:31.269128+01 | 1486144291.26913 |                 0 |              32 |                   877 |                    4 |               2333 |             0 |                0 |          487928 |                     0 |        191842 | 2017-02-03 16:12:20.928298+01

 2017-02-03 18:51:32.364203+01 | 1486144292.3642 |                 0 |              32 |                   877 |                    4 |               2333 |             0 |                0 |          487928 |                     0 |        191842 | 2017-02-03 16:12:20.928298+01

 2017-02-03 18:51:33.461315+01 | 1486144293.46131 |                 0 |              32 |                   877 |                    4 |               2333 |             0 |                0 |          487928 |                     0 |        191842 | 2017-02-03 16:12:20.928298+01

 2017-02-03 18:51:34.561608+01 | 1486144294.56161 |                 0 |              32 |                   877 |                    4 |               2333 |             0 |                0 |          487928 |                     0 |        191842 | 2017-02-03 16:12:20.928298+01

 2017-02-03 18:51:35.662174+01 | 1486144295.66217 |                 0 |              32 |                   877 |                    4 |               2333 |             0 |                0 |          487928 |                     0 |        191842 | 2017-02-03 16:12:20.928298+01

 2017-02-03 18:51:36.803227+01 | 1486144296.80323 |                 0 |              32 |                   877 |                    4 |               2333 |             0 |                0 |          487928 |                     0 |        191842 | 2017-02-03 16:12:20.928298+01

 2017-02-03 18:51:37.929019+01 | 1486144297.92902 |                 0 |              32 |                   877 |                    4 |               2333 |             0 |                0 |          487928 |                     0 |        191842 | 2017-02-03 16:12:20.928298+01

 2017-02-03 18:51:39.055468+01 | 1486144299.05547 |                 0 |              32 |                   877 |                    4 |               2333 |             0 |                0 |          487928 |                     0 |        191842 | 2017-02-03 16:12:20.928298+01

 2017-02-03 18:51:40.184944+01 | 1486144300.18494 |                 0 |              32 |                   877 |                    4 |               2333 |             0 |                0 |          487928 |                     0 |        191842 | 2017-02-03 16:12:20.928298+01

 2017-02-03 18:51:41.303941+01 | 1486144301.30394 |                 0 |              32 |                   877 |                    4 |               2333 |             0 |                0 |          487928 |                     0 |        191842 | 2017-02-03 16:12:20.928298+01

 2017-02-03 18:51:42.427434+01 | 1486144302.42743 |                 0 |              32 |                   877 |                    4 |               2333 |             0 |                0 |          487928 |                     0 |        191842 | 2017-02-03 16:12:20.928298+01

 2017-02-03 18:51:43.52351+01 | 1486144303.52351 |                 0 |              32 |                   877 |                    4 |               2333 |             0 |                0 |          487928 |                     0 |        191842 | 2017-02-03 16:12:20.928298+01

 2017-02-03 18:51:44.635759+01 | 1486144304.63576 |                 0 |              32 |                   877 |                    4 |               2333 |             0 |                0 |          487928 |                     0 |        191842 | 2017-02-03 16:12:20.928298+01

 2017-02-03 18:51:45.730576+01 | 1486144305.73058 |                 0 |              32 |                   877 |                    4 |               2333 |             0 |                0 |          487928 |                     0 |        191842 | 2017-02-03 16:12:20.928298+01

 2017-02-03 18:51:46.834821+01 | 1486144306.83482 |                 0 |              32 |                   877 |                    4 |               2333 |             0 |                0 |          487928 |                     0 |        191842 | 2017-02-03 16:12:20.928298+01

 2017-02-03 18:51:47.934573+01 | 1486144307.93457 |                 0 |              32 |                   877 |                    4 |               2333 |             0 |                0 |          487928 |                     0 |        191842 | 2017-02-03 16:12:20.928298+01

 2017-02-03 18:51:49.032665+01 | 1486144309.03267 |                 0 |              32 |                   877 |                    4 |               2333 |             0 |                0 |          487928 |                     0 |        191842 | 2017-02-03 16:12:20.928298+01

 2017-02-03 18:51:50.147052+01 | 1486144310.14705 |                 0 |              32 |                   877 |                    4 |               2333 |             0 |                0 |          487928 |                     0 |        191842 | 2017-02-03 16:12:20.928298+01

 2017-02-03 18:51:51.274477+01 | 1486144311.27448 |                 0 |              32 |                   877 |                    4 |               2333 |             0 |                0 |          487928 |                     0 |        191842 | 2017-02-03 16:12:20.928298+01

 2017-02-03 18:51:52.367673+01 | 1486144312.36767 |                 0 |              32 |                   877 |                    4 |               2333 |             0 |                0 |          487928 |                     0 |        191842 | 2017-02-03 16:12:20.928298+01

 2017-02-03 18:51:53.480216+01 | 1486144313.48022 |                 0 |              32 |                   877 |                    4 |               2333 |             0 |                0 |          487928 |                     0 |        191842 | 2017-02-03 16:12:20.928298+01

 2017-02-03 18:51:54.59084+01 | 1486144314.59084 |                 0 |              32 |                   877 |                    4 |               2333 |             0 |                0 |          487928 |                     0 |        191842 | 2017-02-03 16:12:20.928298+01

 2017-02-03 18:51:55.680856+01 | 1486144315.68086 |                 0 |              32 |                   877 |                    4 |               2333 |             0 |                0 |          487928 |                     0 |        191842 | 2017-02-03 16:12:20.928298+01

 2017-02-03 18:51:56.779764+01 | 1486144316.77976 |                 0 |              32 |                   877 |                    4 |               2333 |             0 |                0 |          487928 |                     0 |        191842 | 2017-02-03 16:12:20.928298+01

 2017-02-03 18:51:57.877023+01 | 1486144317.87702 |                 0 |              32 |                   877 |                    4 |               2333 |             0 |                0 |          487928 |                     0 |        191842 | 2017-02-03 16:12:20.928298+01

 2017-02-03 18:51:58.968932+01 | 1486144318.96893 |                 0 |              32 |                   877 |                    4 |               2333 |             0 |                0 |          487928 |                     0 |        191842 | 2017-02-03 16:12:20.928298+01

 2017-02-03 18:52:00.053371+01 | 1486144320.05337 |                 0 |              32 |                   877 |                    4 |               2333 |             0 |                0 |          487928 |                     0 |        191842 | 2017-02-03 16:12:20.928298+01

 2017-02-03 18:52:01.158563+01 | 1486144321.15856 |                 0 |              32 |                   877 |                    4 |               2333 |             0 |                0 |          487928 |                     0 |        191842 | 2017-02-03 16:12:20.928298+01

 2017-02-03 18:52:02.253846+01 | 1486144322.25385 |                 0 |              32 |                   877 |                    4 |               2333 |             0 |                0 |          487928 |                     0 |        191842 | 2017-02-03 16:12:20.928298+01

 2017-02-03 18:52:03.364809+01 | 1486144323.36481 |                 0 |              32 |                   877 |                    4 |               2333 |             0 |                0 |          487928 |                     0 |        191842 | 2017-02-03 16:12:20.928298+01

 2017-02-03 18:52:04.470701+01 | 1486144324.4707 |                 0 |              32 |                   877 |                    4 |               2333 |             0 |                0 |          487928 |                     0 |        191842 | 2017-02-03 16:12:20.928298+01

 2017-02-03 18:52:05.571859+01 | 1486144325.57186 |                 0 |              32 |                   877 |                    4 |               2333 |             0 |                0 |          487928 |                     0 |        191842 | 2017-02-03 16:12:20.928298+01

 2017-02-03 18:52:06.673631+01 | 1486144326.67363 |                 0 |              32 |                   877 |                    4 |               2333 |             0 |                0 |          487928 |                     0 |        191842 | 2017-02-03 16:12:20.928298+01

 2017-02-03 18:52:07.78801+01 | 1486144327.78801 |                 0 |              32 |                   877 |                    4 |               2333 |             0 |                0 |          487928 |                     0 |        191842 | 2017-02-03 16:12:20.928298+01

 2017-02-03 18:52:08.89159+01 | 1486144328.89159 |                 0 |              32 |                   877 |                    4 |               2333 |             0 |                0 |          487928 |                     0 |        191842 | 2017-02-03 16:12:20.928298+01

 2017-02-03 18:52:09.988392+01 | 1486144329.98839 |                 0 |              32 |                   877 |                    4 |               2333 |             0 |                0 |          487928 |                     0 |        191842 | 2017-02-03 16:12:20.928298+01

 2017-02-03 18:52:11.080871+01 | 1486144331.08087 |                 0 |              32 |                   877 |                    4 |               2333 |             0 |                0 |          487928 |                     0 |        191842 | 2017-02-03 16:12:20.928298+01

 2017-02-03 18:52:12.184532+01 | 1486144332.18453 |                 0 |              32 |                   877 |                    4 |               2333 |             0 |                0 |          487928 |                     0 |        191842 | 2017-02-03 16:12:20.928298+01

 2017-02-03 18:52:13.289035+01 | 1486144333.28904 |                 0 |              32 |                   877 |                    4 |               2333 |             0 |                0 |          487928 |                     0 |        191842 | 2017-02-03 16:12:20.928298+01

 2017-02-03 18:52:14.38127+01 | 1486144334.38127 |                 0 |              32 |                   877 |                    4 |               2333 |             0 |                0 |          487928 |                     0 |        191842 | 2017-02-03 16:12:20.928298+01

 2017-02-03 18:52:15.481065+01 | 1486144335.48107 |                 0 |              32 |                   877 |                    4 |               2333 |             0 |                0 |          487928 |                     0 |        191842 | 2017-02-03 16:12:20.928298+01

 2017-02-03 18:52:16.581452+01 | 1486144336.58145 |                 0 |              32 |                   877 |                    4 |               2333 |             0 |                0 |          487928 |                     0 |        191842 | 2017-02-03 16:12:20.928298+01

 2017-02-03 18:52:17.697249+01 | 1486144337.69725 |                 0 |              32 |                   877 |                    4 |               2333 |             0 |                0 |          487928 |                     0 |        191842 | 2017-02-03 16:12:20.928298+01

 2017-02-03 18:52:18.826564+01 | 1486144338.82656 |                 0 |              32 |                   877 |                    4 |               2333 |             0 |                0 |          487928 |                     0 |        191842 | 2017-02-03 16:12:20.928298+01

 2017-02-03 18:52:19.975923+01 | 1486144339.97592 |                 0 |              32 |                   877 |                    4 |               2333 |             0 |                0 |          487928 |                     0 |        191842 | 2017-02-03 16:12:20.928298+01

 2017-02-03 18:52:21.074137+01 | 1486144341.07414 |                 0 |              32 |                   877 |                    4 |               2333 |             0 |                0 |          487928 |                     0 |        191842 | 2017-02-03 16:12:20.928298+01

 2017-02-03 18:52:22.17907+01 | 1486144342.17907 |                 0 |              32 |                   877 |                    4 |               2333 |             0 |                0 |          487928 |                     0 |        191842 | 2017-02-03 16:12:20.928298+01

 2017-02-03 18:52:23.278735+01 | 1486144343.27873 |                 0 |              32 |                   877 |                    4 |               2333 |             0 |                0 |          487928 |                     0 |        191842 | 2017-02-03 16:12:20.928298+01

 2017-02-03 18:52:24.376208+01 | 1486144344.37621 |                 0 |              32 |                   877 |                    4 |               2333 |             0 |                0 |          487928 |                     0 |        191842 | 2017-02-03 16:12:20.928298+01

 2017-02-03 18:52:25.498639+01 | 1486144345.49864 |                 0 |              32 |                   877 |                    4 |               2333 |             0 |                0 |          487928 |                     0 |        191842 | 2017-02-03 16:12:20.928298+01

 2017-02-03 18:52:26.604199+01 | 1486144346.6042 |                 0 |              32 |                   877 |                    4 |               2333 |             0 |                0 |          487928 |                     0 |        191842 | 2017-02-03 16:12:20.928298+01

 2017-02-03 18:52:27.712509+01 | 1486144347.71251 |                 0 |              32 |                   877 |                    4 |               2333 |             0 |                0 |          487928 |                     0 |        191842 | 2017-02-03 16:12:20.928298+01

 2017-02-03 18:52:28.841252+01 | 1486144348.84125 |                 0 |              32 |                   877 |                    4 |               2333 |             0 |                0 |          487928 |                     0 |        191842 | 2017-02-03 16:12:20.928298+01

 2017-02-03 18:52:29.943223+01 | 1486144349.94322 |                 0 |              32 |                   877 |                    4 |               2333 |             0 |                0 |          487928 |                     0 |        191842 | 2017-02-03 16:12:20.928298+01

 2017-02-03 18:52:31.037076+01 | 1486144351.03708 |                 0 |              32 |                   877 |                    4 |               2333 |             0 |                0 |          487928 |                     0 |        191842 | 2017-02-03 16:12:20.928298+01

 2017-02-03 18:52:32.172542+01 | 1486144352.17254 |                 0 |              32 |                   877 |                    4 |               2333 |             0 |                0 |          487928 |                     0 |        191842 | 2017-02-03 16:12:20.928298+01

 2017-02-03 18:52:33.290713+01 | 1486144353.29071 |                 0 |              32 |                   877 |                    4 |               2333 |             0 |                0 |          487928 |                     0 |        191842 | 2017-02-03 16:12:20.928298+01

 2017-02-03 18:52:34.413687+01 | 1486144354.41369 |                 0 |              32 |                   877 |                    4 |               2333 |             0 |                0 |          487928 |                     0 |        191842 | 2017-02-03 16:12:20.928298+01

 2017-02-03 18:52:35.527948+01 | 1486144355.52795 |                 0 |              32 |                   877 |                    4 |               2333 |             0 |                0 |          487928 |                     0 |        191842 | 2017-02-03 16:12:20.928298+01

 2017-02-03 18:52:36.652478+01 | 1486144356.65248 |                 0 |              32 |                   877 |                    4 |               2333 |             0 |                0 |          487928 |                     0 |        191842 | 2017-02-03 16:12:20.928298+01

 2017-02-03 18:52:37.778543+01 | 1486144357.77854 |                 0 |              32 |                   877 |                    4 |               2333 |             0 |                0 |          487928 |                     0 |        191842 | 2017-02-03 16:12:20.928298+01

 2017-02-03 18:52:38.89902+01 | 1486144358.89902 |                 0 |              32 |                   877 |                    4 |               2333 |             0 |                0 |          487928 |                     0 |        191842 | 2017-02-03 16:12:20.928298+01

 2017-02-03 18:52:39.992888+01 | 1486144359.99289 |                 0 |              32 |                   877 |                    4 |               2333 |             0 |                0 |          487928 |                     0 |        191842 | 2017-02-03 16:12:20.928298+01

 2017-02-03 18:52:41.113698+01 | 1486144361.1137 |                 0 |              32 |                   877 |                    4 |               2333 |             0 |                0 |          487928 |                     0 |        191842 | 2017-02-03 16:12:20.928298+01

 2017-02-03 18:52:42.223935+01 | 1486144362.22393 |                 0 |              32 |                   877 |                    4 |               2333 |             0 |                0 |          487928 |                     0 |        191842 | 2017-02-03 16:12:20.928298+01

 2017-02-03 18:52:43.370049+01 | 1486144363.37005 |                 0 |              32 |                   877 |                    4 |               2333 |             0 |                0 |          487928 |                     0 |        191842 | 2017-02-03 16:12:20.928298+01

 2017-02-03 18:52:44.476581+01 | 1486144364.47658 |                 0 |              32 |                   877 |                    4 |               2333 |             0 |                0 |          487928 |                     0 |        191842 | 2017-02-03 16:12:20.928298+01

 2017-02-03 18:52:45.58797+01 | 1486144365.58797 |                 0 |              32 |                   877 |                    4 |               2333 |             0 |                0 |          487928 |                     0 |        191842 | 2017-02-03 16:12:20.928298+01

 2017-02-03 18:52:46.688429+01 | 1486144366.68843 |                 0 |              32 |                   877 |                    4 |               2333 |             0 |                0 |          487928 |                     0 |        191842 | 2017-02-03 16:12:20.928298+01

 2017-02-03 18:52:47.796311+01 | 1486144367.79631 |                 0 |              32 |                   877 |                    4 |               2333 |             0 |                0 |          487928 |                     0 |        191842 | 2017-02-03 16:12:20.928298+01

 2017-02-03 18:52:48.909026+01 | 1486144368.90903 |                 0 |              32 |                   877 |                    4 |               2333 |             0 |                0 |          487928 |                     0 |        191842 | 2017-02-03 16:12:20.928298+01

 2017-02-03 18:52:50.010518+01 | 1486144370.01052 |                 0 |              32 |                   877 |                    4 |               2333 |             0 |                0 |          487928 |                     0 |        191842 | 2017-02-03 16:12:20.928298+01

