 2017-02-06 16:59:08.009248+01 | 1486396748.00925 | pgbench_accounts |       1391173632
 2017-02-06 16:59:08.009248+01 | 1486396748.00925 | pgbench_tellers  |          3063808
 2017-02-06 16:59:08.009248+01 | 1486396748.00925 | pgbench_history  |            65536
 2017-02-06 16:59:08.009248+01 | 1486396748.00925 | pgbench_branches |          1400832

 2017-02-06 16:59:09.104887+01 | 1486396749.10489 | pgbench_accounts |       1391173632
 2017-02-06 16:59:09.104887+01 | 1486396749.10489 | pgbench_tellers  |          3063808
 2017-02-06 16:59:09.104887+01 | 1486396749.10489 | pgbench_history  |           704512
 2017-02-06 16:59:09.104887+01 | 1486396749.10489 | pgbench_branches |          1400832

 2017-02-06 16:59:10.175108+01 | 1486396750.17511 | pgbench_accounts |       1391173632
 2017-02-06 16:59:10.175108+01 | 1486396750.17511 | pgbench_tellers  |          3063808
 2017-02-06 16:59:10.175108+01 | 1486396750.17511 | pgbench_history  |          1310720
 2017-02-06 16:59:10.175108+01 | 1486396750.17511 | pgbench_branches |          1400832

 2017-02-06 16:59:11.254075+01 | 1486396751.25408 | pgbench_accounts |       1391173632
 2017-02-06 16:59:11.254075+01 | 1486396751.25408 | pgbench_tellers  |          3063808
 2017-02-06 16:59:11.254075+01 | 1486396751.25408 | pgbench_history  |          1900544
 2017-02-06 16:59:11.254075+01 | 1486396751.25408 | pgbench_branches |          1400832

 2017-02-06 16:59:12.345904+01 | 1486396752.3459 | pgbench_accounts |       1391173632
 2017-02-06 16:59:12.345904+01 | 1486396752.3459 | pgbench_tellers  |          3063808
 2017-02-06 16:59:12.345904+01 | 1486396752.3459 | pgbench_history  |          2498560
 2017-02-06 16:59:12.345904+01 | 1486396752.3459 | pgbench_branches |          1400832

 2017-02-06 16:59:13.432797+01 | 1486396753.4328 | pgbench_accounts |       1391173632
 2017-02-06 16:59:13.432797+01 | 1486396753.4328 | pgbench_tellers  |          3063808
 2017-02-06 16:59:13.432797+01 | 1486396753.4328 | pgbench_history  |          3145728
 2017-02-06 16:59:13.432797+01 | 1486396753.4328 | pgbench_branches |          1400832

 2017-02-06 16:59:14.523273+01 | 1486396754.52327 | pgbench_accounts |       1391173632
 2017-02-06 16:59:14.523273+01 | 1486396754.52327 | pgbench_tellers  |          3063808
 2017-02-06 16:59:14.523273+01 | 1486396754.52327 | pgbench_history  |          3891200
 2017-02-06 16:59:14.523273+01 | 1486396754.52327 | pgbench_branches |          1400832

 2017-02-06 16:59:15.61638+01 | 1486396755.61638 | pgbench_accounts |       1391173632
 2017-02-06 16:59:15.61638+01 | 1486396755.61638 | pgbench_tellers  |          3063808
 2017-02-06 16:59:15.61638+01 | 1486396755.61638 | pgbench_history  |          4431872
 2017-02-06 16:59:15.61638+01 | 1486396755.61638 | pgbench_branches |          1400832

 2017-02-06 16:59:16.702368+01 | 1486396756.70237 | pgbench_accounts |       1391173632
 2017-02-06 16:59:16.702368+01 | 1486396756.70237 | pgbench_tellers  |          3063808
 2017-02-06 16:59:16.702368+01 | 1486396756.70237 | pgbench_history  |          5054464
 2017-02-06 16:59:16.702368+01 | 1486396756.70237 | pgbench_branches |          1400832

 2017-02-06 16:59:17.792863+01 | 1486396757.79286 | pgbench_accounts |       1391173632
 2017-02-06 16:59:17.792863+01 | 1486396757.79286 | pgbench_tellers  |          3063808
 2017-02-06 16:59:17.792863+01 | 1486396757.79286 | pgbench_history  |          5709824
 2017-02-06 16:59:17.792863+01 | 1486396757.79286 | pgbench_branches |          1400832

 2017-02-06 16:59:18.870651+01 | 1486396758.87065 | pgbench_accounts |       1391173632
 2017-02-06 16:59:18.870651+01 | 1486396758.87065 | pgbench_tellers  |          3063808
 2017-02-06 16:59:18.870651+01 | 1486396758.87065 | pgbench_history  |          6283264
 2017-02-06 16:59:18.870651+01 | 1486396758.87065 | pgbench_branches |          1400832

 2017-02-06 16:59:19.949329+01 | 1486396759.94933 | pgbench_accounts |       1391173632
 2017-02-06 16:59:19.949329+01 | 1486396759.94933 | pgbench_tellers  |          3063808
 2017-02-06 16:59:19.949329+01 | 1486396759.94933 | pgbench_history  |          7168000
 2017-02-06 16:59:19.949329+01 | 1486396759.94933 | pgbench_branches |          1400832

 2017-02-06 16:59:21.036757+01 | 1486396761.03676 | pgbench_accounts |       1391173632
 2017-02-06 16:59:21.036757+01 | 1486396761.03676 | pgbench_tellers  |          3063808
 2017-02-06 16:59:21.036757+01 | 1486396761.03676 | pgbench_history  |          7618560
 2017-02-06 16:59:21.036757+01 | 1486396761.03676 | pgbench_branches |          1400832

 2017-02-06 16:59:22.126793+01 | 1486396762.12679 | pgbench_accounts |       1391173632
 2017-02-06 16:59:22.126793+01 | 1486396762.12679 | pgbench_tellers  |          3063808
 2017-02-06 16:59:22.126793+01 | 1486396762.12679 | pgbench_history  |          8241152
 2017-02-06 16:59:22.126793+01 | 1486396762.12679 | pgbench_branches |          1400832

 2017-02-06 16:59:23.212714+01 | 1486396763.21271 | pgbench_accounts |       1391173632
 2017-02-06 16:59:23.212714+01 | 1486396763.21271 | pgbench_tellers  |          3063808
 2017-02-06 16:59:23.212714+01 | 1486396763.21271 | pgbench_history  |          8929280
 2017-02-06 16:59:23.212714+01 | 1486396763.21271 | pgbench_branches |          1400832

 2017-02-06 16:59:24.302703+01 | 1486396764.3027 | pgbench_accounts |       1391173632
 2017-02-06 16:59:24.302703+01 | 1486396764.3027 | pgbench_tellers  |          3063808
 2017-02-06 16:59:24.302703+01 | 1486396764.3027 | pgbench_history  |          9568256
 2017-02-06 16:59:24.302703+01 | 1486396764.3027 | pgbench_branches |          1400832

 2017-02-06 16:59:25.381433+01 | 1486396765.38143 | pgbench_accounts |       1391173632
 2017-02-06 16:59:25.381433+01 | 1486396765.38143 | pgbench_tellers  |          3063808
 2017-02-06 16:59:25.381433+01 | 1486396765.38143 | pgbench_history  |         10190848
 2017-02-06 16:59:25.381433+01 | 1486396765.38143 | pgbench_branches |          1400832

 2017-02-06 16:59:26.450995+01 | 1486396766.45099 | pgbench_accounts |       1391173632
 2017-02-06 16:59:26.450995+01 | 1486396766.45099 | pgbench_tellers  |          3063808
 2017-02-06 16:59:26.450995+01 | 1486396766.45099 | pgbench_history  |         10838016
 2017-02-06 16:59:26.450995+01 | 1486396766.45099 | pgbench_branches |          1400832

 2017-02-06 16:59:27.537164+01 | 1486396767.53716 | pgbench_accounts |       1391173632
 2017-02-06 16:59:27.537164+01 | 1486396767.53716 | pgbench_tellers  |          3063808
 2017-02-06 16:59:27.537164+01 | 1486396767.53716 | pgbench_history  |         11460608
 2017-02-06 16:59:27.537164+01 | 1486396767.53716 | pgbench_branches |          1400832

 2017-02-06 16:59:28.627495+01 | 1486396768.6275 | pgbench_accounts |       1391173632
 2017-02-06 16:59:28.627495+01 | 1486396768.6275 | pgbench_tellers  |          3063808
 2017-02-06 16:59:28.627495+01 | 1486396768.6275 | pgbench_history  |         12148736
 2017-02-06 16:59:28.627495+01 | 1486396768.6275 | pgbench_branches |          1400832

 2017-02-06 16:59:29.715149+01 | 1486396769.71515 | pgbench_accounts |       1391173632
 2017-02-06 16:59:29.715149+01 | 1486396769.71515 | pgbench_tellers  |          3063808
 2017-02-06 16:59:29.715149+01 | 1486396769.71515 | pgbench_history  |         12722176
 2017-02-06 16:59:29.715149+01 | 1486396769.71515 | pgbench_branches |          1400832

 2017-02-06 16:59:30.791551+01 | 1486396770.79155 | pgbench_accounts |       1391173632
 2017-02-06 16:59:30.791551+01 | 1486396770.79155 | pgbench_tellers  |          3063808
 2017-02-06 16:59:30.791551+01 | 1486396770.79155 | pgbench_history  |         13352960
 2017-02-06 16:59:30.791551+01 | 1486396770.79155 | pgbench_branches |          1400832

 2017-02-06 16:59:31.871881+01 | 1486396771.87188 | pgbench_accounts |       1391173632
 2017-02-06 16:59:31.871881+01 | 1486396771.87188 | pgbench_tellers  |          3063808
 2017-02-06 16:59:31.871881+01 | 1486396771.87188 | pgbench_history  |         13942784
 2017-02-06 16:59:31.871881+01 | 1486396771.87188 | pgbench_branches |          1400832

 2017-02-06 16:59:32.964169+01 | 1486396772.96417 | pgbench_accounts |       1391173632
 2017-02-06 16:59:32.964169+01 | 1486396772.96417 | pgbench_tellers  |          3063808
 2017-02-06 16:59:32.964169+01 | 1486396772.96417 | pgbench_history  |         14753792
 2017-02-06 16:59:32.964169+01 | 1486396772.96417 | pgbench_branches |          1400832

 2017-02-06 16:59:34.048037+01 | 1486396774.04804 | pgbench_accounts |       1391173632
 2017-02-06 16:59:34.048037+01 | 1486396774.04804 | pgbench_tellers  |          3063808
 2017-02-06 16:59:34.048037+01 | 1486396774.04804 | pgbench_history  |         15384576
 2017-02-06 16:59:34.048037+01 | 1486396774.04804 | pgbench_branches |          1400832

 2017-02-06 16:59:35.136056+01 | 1486396775.13606 | pgbench_accounts |       1391173632
 2017-02-06 16:59:35.136056+01 | 1486396775.13606 | pgbench_tellers  |          3063808
 2017-02-06 16:59:35.136056+01 | 1486396775.13606 | pgbench_history  |         16171008
 2017-02-06 16:59:35.136056+01 | 1486396775.13606 | pgbench_branches |          1400832

 2017-02-06 16:59:36.226138+01 | 1486396776.22614 | pgbench_accounts |       1391173632
 2017-02-06 16:59:36.226138+01 | 1486396776.22614 | pgbench_tellers  |          3063808
 2017-02-06 16:59:36.226138+01 | 1486396776.22614 | pgbench_history  |         16687104
 2017-02-06 16:59:36.226138+01 | 1486396776.22614 | pgbench_branches |          1400832

 2017-02-06 16:59:37.306665+01 | 1486396777.30666 | pgbench_accounts |       1391173632
 2017-02-06 16:59:37.306665+01 | 1486396777.30666 | pgbench_tellers  |          3063808
 2017-02-06 16:59:37.306665+01 | 1486396777.30666 | pgbench_history  |         17088512
 2017-02-06 16:59:37.306665+01 | 1486396777.30666 | pgbench_branches |          1400832

 2017-02-06 16:59:38.394836+01 | 1486396778.39484 | pgbench_accounts |       1391173632
 2017-02-06 16:59:38.394836+01 | 1486396778.39484 | pgbench_tellers  |          3063808
 2017-02-06 16:59:38.394836+01 | 1486396778.39484 | pgbench_history  |         17686528
 2017-02-06 16:59:38.394836+01 | 1486396778.39484 | pgbench_branches |          1400832

 2017-02-06 16:59:39.481657+01 | 1486396779.48166 | pgbench_accounts |       1391173632
 2017-02-06 16:59:39.481657+01 | 1486396779.48166 | pgbench_tellers  |          3063808
 2017-02-06 16:59:39.481657+01 | 1486396779.48166 | pgbench_history  |         18448384
 2017-02-06 16:59:39.481657+01 | 1486396779.48166 | pgbench_branches |          1400832

 2017-02-06 16:59:40.557386+01 | 1486396780.55739 | pgbench_accounts |       1391173632
 2017-02-06 16:59:40.557386+01 | 1486396780.55739 | pgbench_tellers  |          3063808
 2017-02-06 16:59:40.557386+01 | 1486396780.55739 | pgbench_history  |         19054592
 2017-02-06 16:59:40.557386+01 | 1486396780.55739 | pgbench_branches |          1400832

 2017-02-06 16:59:41.637646+01 | 1486396781.63765 | pgbench_accounts |       1391173632
 2017-02-06 16:59:41.637646+01 | 1486396781.63765 | pgbench_tellers  |          3063808
 2017-02-06 16:59:41.637646+01 | 1486396781.63765 | pgbench_history  |         19947520
 2017-02-06 16:59:41.637646+01 | 1486396781.63765 | pgbench_branches |          1400832

 2017-02-06 16:59:42.720123+01 | 1486396782.72012 | pgbench_accounts |       1391173632
 2017-02-06 16:59:42.720123+01 | 1486396782.72012 | pgbench_tellers  |          3063808
 2017-02-06 16:59:42.720123+01 | 1486396782.72012 | pgbench_history  |         20168704
 2017-02-06 16:59:42.720123+01 | 1486396782.72012 | pgbench_branches |          1400832

 2017-02-06 16:59:43.801778+01 | 1486396783.80178 | pgbench_accounts |       1391173632
 2017-02-06 16:59:43.801778+01 | 1486396783.80178 | pgbench_tellers  |          3063808
 2017-02-06 16:59:43.801778+01 | 1486396783.80178 | pgbench_history  |         20766720
 2017-02-06 16:59:43.801778+01 | 1486396783.80178 | pgbench_branches |          1400832

 2017-02-06 16:59:44.879514+01 | 1486396784.87951 | pgbench_accounts |       1391173632
 2017-02-06 16:59:44.879514+01 | 1486396784.87951 | pgbench_tellers  |          3063808
 2017-02-06 16:59:44.879514+01 | 1486396784.87951 | pgbench_history  |         21520384
 2017-02-06 16:59:44.879514+01 | 1486396784.87951 | pgbench_branches |          1400832

 2017-02-06 16:59:45.947645+01 | 1486396785.94764 | pgbench_accounts |       1391173632
 2017-02-06 16:59:45.947645+01 | 1486396785.94764 | pgbench_tellers  |          3063808
 2017-02-06 16:59:45.947645+01 | 1486396785.94764 | pgbench_history  |         22290432
 2017-02-06 16:59:45.947645+01 | 1486396785.94764 | pgbench_branches |          1400832

 2017-02-06 16:59:47.029765+01 | 1486396787.02976 | pgbench_accounts |       1391173632
 2017-02-06 16:59:47.029765+01 | 1486396787.02976 | pgbench_tellers  |          3063808
 2017-02-06 16:59:47.029765+01 | 1486396787.02976 | pgbench_history  |         22552576
 2017-02-06 16:59:47.029765+01 | 1486396787.02976 | pgbench_branches |          1400832

 2017-02-06 16:59:48.112386+01 | 1486396788.11239 | pgbench_accounts |       1391173632
 2017-02-06 16:59:48.112386+01 | 1486396788.11239 | pgbench_tellers  |          3063808
 2017-02-06 16:59:48.112386+01 | 1486396788.11239 | pgbench_history  |         23199744
 2017-02-06 16:59:48.112386+01 | 1486396788.11239 | pgbench_branches |          1400832

 2017-02-06 16:59:49.202702+01 | 1486396789.2027 | pgbench_accounts |       1391173632
 2017-02-06 16:59:49.202702+01 | 1486396789.2027 | pgbench_tellers  |          3063808
 2017-02-06 16:59:49.202702+01 | 1486396789.2027 | pgbench_history  |         23822336
 2017-02-06 16:59:49.202702+01 | 1486396789.2027 | pgbench_branches |          1400832

 2017-02-06 16:59:50.295699+01 | 1486396790.2957 | pgbench_accounts |       1391173632
 2017-02-06 16:59:50.295699+01 | 1486396790.2957 | pgbench_tellers  |          3063808
 2017-02-06 16:59:50.295699+01 | 1486396790.2957 | pgbench_history  |         24461312
 2017-02-06 16:59:50.295699+01 | 1486396790.2957 | pgbench_branches |          1400832

 2017-02-06 16:59:51.380621+01 | 1486396791.38062 | pgbench_accounts |       1391173632
 2017-02-06 16:59:51.380621+01 | 1486396791.38062 | pgbench_tellers  |          3063808
 2017-02-06 16:59:51.380621+01 | 1486396791.38062 | pgbench_history  |         25092096
 2017-02-06 16:59:51.380621+01 | 1486396791.38062 | pgbench_branches |          1400832

 2017-02-06 16:59:52.469673+01 | 1486396792.46967 | pgbench_accounts |       1391173632
 2017-02-06 16:59:52.469673+01 | 1486396792.46967 | pgbench_tellers  |          3063808
 2017-02-06 16:59:52.469673+01 | 1486396792.46967 | pgbench_history  |         25714688
 2017-02-06 16:59:52.469673+01 | 1486396792.46967 | pgbench_branches |          1400832

 2017-02-06 16:59:53.560134+01 | 1486396793.56013 | pgbench_accounts |       1391173632
 2017-02-06 16:59:53.560134+01 | 1486396793.56013 | pgbench_tellers  |          3063808
 2017-02-06 16:59:53.560134+01 | 1486396793.56013 | pgbench_history  |         26361856
 2017-02-06 16:59:53.560134+01 | 1486396793.56013 | pgbench_branches |          1400832

 2017-02-06 16:59:54.647441+01 | 1486396794.64744 | pgbench_accounts |       1391173632
 2017-02-06 16:59:54.647441+01 | 1486396794.64744 | pgbench_tellers  |          3063808
 2017-02-06 16:59:54.647441+01 | 1486396794.64744 | pgbench_history  |         27066368
 2017-02-06 16:59:54.647441+01 | 1486396794.64744 | pgbench_branches |          1400832

 2017-02-06 16:59:55.737902+01 | 1486396795.7379 | pgbench_accounts |       1391173632
 2017-02-06 16:59:55.737902+01 | 1486396795.7379 | pgbench_tellers  |          3063808
 2017-02-06 16:59:55.737902+01 | 1486396795.7379 | pgbench_history  |         27992064
 2017-02-06 16:59:55.737902+01 | 1486396795.7379 | pgbench_branches |          1400832

 2017-02-06 16:59:56.814662+01 | 1486396796.81466 | pgbench_accounts |       1391173632
 2017-02-06 16:59:56.814662+01 | 1486396796.81466 | pgbench_tellers  |          3063808
 2017-02-06 16:59:56.814662+01 | 1486396796.81466 | pgbench_history  |         28188672
 2017-02-06 16:59:56.814662+01 | 1486396796.81466 | pgbench_branches |          1400832

 2017-02-06 16:59:57.89732+01 | 1486396797.89732 | pgbench_accounts |       1391173632
 2017-02-06 16:59:57.89732+01 | 1486396797.89732 | pgbench_tellers  |          3063808
 2017-02-06 16:59:57.89732+01 | 1486396797.89732 | pgbench_history  |         29392896
 2017-02-06 16:59:57.89732+01 | 1486396797.89732 | pgbench_branches |          1400832

 2017-02-06 16:59:58.967791+01 | 1486396798.96779 | pgbench_accounts |       1391173632
 2017-02-06 16:59:58.967791+01 | 1486396798.96779 | pgbench_tellers  |          3063808
 2017-02-06 16:59:58.967791+01 | 1486396798.96779 | pgbench_history  |         29392896
 2017-02-06 16:59:58.967791+01 | 1486396798.96779 | pgbench_branches |          1400832

 2017-02-06 17:00:00.052132+01 | 1486396800.05213 | pgbench_accounts |       1391173632
 2017-02-06 17:00:00.052132+01 | 1486396800.05213 | pgbench_tellers  |          3063808
 2017-02-06 17:00:00.052132+01 | 1486396800.05213 | pgbench_history  |         30326784
 2017-02-06 17:00:00.052132+01 | 1486396800.05213 | pgbench_branches |          1400832

 2017-02-06 17:00:01.127798+01 | 1486396801.1278 | pgbench_accounts |       1391173632
 2017-02-06 17:00:01.127798+01 | 1486396801.1278 | pgbench_tellers  |          3063808
 2017-02-06 17:00:01.127798+01 | 1486396801.1278 | pgbench_history  |         30728192
 2017-02-06 17:00:01.127798+01 | 1486396801.1278 | pgbench_branches |          1400832

 2017-02-06 17:00:02.211531+01 | 1486396802.21153 | pgbench_accounts |       1391173632
 2017-02-06 17:00:02.211531+01 | 1486396802.21153 | pgbench_tellers  |          3063808
 2017-02-06 17:00:02.211531+01 | 1486396802.21153 | pgbench_history  |         31268864
 2017-02-06 17:00:02.211531+01 | 1486396802.21153 | pgbench_branches |          1400832

 2017-02-06 17:00:03.301134+01 | 1486396803.30113 | pgbench_accounts |       1391173632
 2017-02-06 17:00:03.301134+01 | 1486396803.30113 | pgbench_tellers  |          3063808
 2017-02-06 17:00:03.301134+01 | 1486396803.30113 | pgbench_history  |         31825920
 2017-02-06 17:00:03.301134+01 | 1486396803.30113 | pgbench_branches |          1400832

 2017-02-06 17:00:04.389601+01 | 1486396804.3896 | pgbench_accounts |       1391173632
 2017-02-06 17:00:04.389601+01 | 1486396804.3896 | pgbench_tellers  |          3063808
 2017-02-06 17:00:04.389601+01 | 1486396804.3896 | pgbench_history  |         32473088
 2017-02-06 17:00:04.389601+01 | 1486396804.3896 | pgbench_branches |          1400832

 2017-02-06 17:00:05.473689+01 | 1486396805.47369 | pgbench_accounts |       1391173632
 2017-02-06 17:00:05.473689+01 | 1486396805.47369 | pgbench_tellers  |          3063808
 2017-02-06 17:00:05.473689+01 | 1486396805.47369 | pgbench_history  |         33112064
 2017-02-06 17:00:05.473689+01 | 1486396805.47369 | pgbench_branches |          1400832

 2017-02-06 17:00:06.554932+01 | 1486396806.55493 | pgbench_accounts |       1391173632
 2017-02-06 17:00:06.554932+01 | 1486396806.55493 | pgbench_tellers  |          3063808
 2017-02-06 17:00:06.554932+01 | 1486396806.55493 | pgbench_history  |         34111488
 2017-02-06 17:00:06.554932+01 | 1486396806.55493 | pgbench_branches |          1400832

 2017-02-06 17:00:07.646551+01 | 1486396807.64655 | pgbench_accounts |       1391173632
 2017-02-06 17:00:07.646551+01 | 1486396807.64655 | pgbench_tellers  |          3063808
 2017-02-06 17:00:07.646551+01 | 1486396807.64655 | pgbench_history  |         34299904
 2017-02-06 17:00:07.646551+01 | 1486396807.64655 | pgbench_branches |          1400832

 2017-02-06 17:00:08.731315+01 | 1486396808.73131 | pgbench_accounts |       1391173632
 2017-02-06 17:00:08.731315+01 | 1486396808.73131 | pgbench_tellers  |          3063808
 2017-02-06 17:00:08.731315+01 | 1486396808.73131 | pgbench_history  |         35430400
 2017-02-06 17:00:08.731315+01 | 1486396808.73131 | pgbench_branches |          1400832

 2017-02-06 17:00:09.824188+01 | 1486396809.82419 | pgbench_accounts |       1391173632
 2017-02-06 17:00:09.824188+01 | 1486396809.82419 | pgbench_tellers  |          3063808
 2017-02-06 17:00:09.824188+01 | 1486396809.82419 | pgbench_history  |         35667968
 2017-02-06 17:00:09.824188+01 | 1486396809.82419 | pgbench_branches |          1400832

 2017-02-06 17:00:10.906717+01 | 1486396810.90672 | pgbench_accounts |       1391173632
 2017-02-06 17:00:10.906717+01 | 1486396810.90672 | pgbench_tellers  |          3063808
 2017-02-06 17:00:10.906717+01 | 1486396810.90672 | pgbench_history  |         36265984
 2017-02-06 17:00:10.906717+01 | 1486396810.90672 | pgbench_branches |          1400832

 2017-02-06 17:00:11.983439+01 | 1486396811.98344 | pgbench_accounts |       1391173632
 2017-02-06 17:00:11.983439+01 | 1486396811.98344 | pgbench_tellers  |          3063808
 2017-02-06 17:00:11.983439+01 | 1486396811.98344 | pgbench_history  |         36806656
 2017-02-06 17:00:11.983439+01 | 1486396811.98344 | pgbench_branches |          1400832

 2017-02-06 17:00:13.056446+01 | 1486396813.05645 | pgbench_accounts |       1391173632
 2017-02-06 17:00:13.056446+01 | 1486396813.05645 | pgbench_tellers  |          3063808
 2017-02-06 17:00:13.056446+01 | 1486396813.05645 | pgbench_history  |         37732352
 2017-02-06 17:00:13.056446+01 | 1486396813.05645 | pgbench_branches |          1400832

 2017-02-06 17:00:14.142484+01 | 1486396814.14248 | pgbench_accounts |       1391173632
 2017-02-06 17:00:14.142484+01 | 1486396814.14248 | pgbench_tellers  |          3063808
 2017-02-06 17:00:14.142484+01 | 1486396814.14248 | pgbench_history  |         38289408
 2017-02-06 17:00:14.142484+01 | 1486396814.14248 | pgbench_branches |          1400832

 2017-02-06 17:00:15.22053+01 | 1486396815.22053 | pgbench_accounts |       1391173632
 2017-02-06 17:00:15.22053+01 | 1486396815.22053 | pgbench_tellers  |          3063808
 2017-02-06 17:00:15.22053+01 | 1486396815.22053 | pgbench_history  |         38641664
 2017-02-06 17:00:15.22053+01 | 1486396815.22053 | pgbench_branches |          1400832

 2017-02-06 17:00:16.303631+01 | 1486396816.30363 | pgbench_accounts |       1391173632
 2017-02-06 17:00:16.303631+01 | 1486396816.30363 | pgbench_tellers  |          3063808
 2017-02-06 17:00:16.303631+01 | 1486396816.30363 | pgbench_history  |         39198720
 2017-02-06 17:00:16.303631+01 | 1486396816.30363 | pgbench_branches |          1400832

 2017-02-06 17:00:17.396776+01 | 1486396817.39678 | pgbench_accounts |       1391173632
 2017-02-06 17:00:17.396776+01 | 1486396817.39678 | pgbench_tellers  |          3063808
 2017-02-06 17:00:17.396776+01 | 1486396817.39678 | pgbench_history  |         39936000
 2017-02-06 17:00:17.396776+01 | 1486396817.39678 | pgbench_branches |          1400832

 2017-02-06 17:00:18.483735+01 | 1486396818.48374 | pgbench_accounts |       1391173632
 2017-02-06 17:00:18.483735+01 | 1486396818.48374 | pgbench_tellers  |          3063808
 2017-02-06 17:00:18.483735+01 | 1486396818.48374 | pgbench_history  |         40656896
 2017-02-06 17:00:18.483735+01 | 1486396818.48374 | pgbench_branches |          1400832

 2017-02-06 17:00:19.57232+01 | 1486396819.57232 | pgbench_accounts |       1391173632
 2017-02-06 17:00:19.57232+01 | 1486396819.57232 | pgbench_tellers  |          3063808
 2017-02-06 17:00:19.57232+01 | 1486396819.57232 | pgbench_history  |         41041920
 2017-02-06 17:00:19.57232+01 | 1486396819.57232 | pgbench_branches |          1400832

 2017-02-06 17:00:20.665384+01 | 1486396820.66538 | pgbench_accounts |       1391173632
 2017-02-06 17:00:20.665384+01 | 1486396820.66538 | pgbench_tellers  |          3063808
 2017-02-06 17:00:20.665384+01 | 1486396820.66538 | pgbench_history  |         41959424
 2017-02-06 17:00:20.665384+01 | 1486396820.66538 | pgbench_branches |          1400832

 2017-02-06 17:00:21.752638+01 | 1486396821.75264 | pgbench_accounts |       1391173632
 2017-02-06 17:00:21.752638+01 | 1486396821.75264 | pgbench_tellers  |          3063808
 2017-02-06 17:00:21.752638+01 | 1486396821.75264 | pgbench_history  |         42319872
 2017-02-06 17:00:21.752638+01 | 1486396821.75264 | pgbench_branches |          1400832

 2017-02-06 17:00:22.845882+01 | 1486396822.84588 | pgbench_accounts |       1391173632
 2017-02-06 17:00:22.845882+01 | 1486396822.84588 | pgbench_tellers  |          3063808
 2017-02-06 17:00:22.845882+01 | 1486396822.84588 | pgbench_history  |         43048960
 2017-02-06 17:00:22.845882+01 | 1486396822.84588 | pgbench_branches |          1400832

 2017-02-06 17:00:23.940953+01 | 1486396823.94095 | pgbench_accounts |       1391173632
 2017-02-06 17:00:23.940953+01 | 1486396823.94095 | pgbench_tellers  |          3063808
 2017-02-06 17:00:23.940953+01 | 1486396823.94095 | pgbench_history  |         43606016
 2017-02-06 17:00:23.940953+01 | 1486396823.94095 | pgbench_branches |          1400832

 2017-02-06 17:00:25.032809+01 | 1486396825.03281 | pgbench_accounts |       1391173632
 2017-02-06 17:00:25.032809+01 | 1486396825.03281 | pgbench_tellers  |          3063808
 2017-02-06 17:00:25.032809+01 | 1486396825.03281 | pgbench_history  |         44204032
 2017-02-06 17:00:25.032809+01 | 1486396825.03281 | pgbench_branches |          1400832

 2017-02-06 17:00:26.110264+01 | 1486396826.11026 | pgbench_accounts |       1391173632
 2017-02-06 17:00:26.110264+01 | 1486396826.11026 | pgbench_tellers  |          3063808
 2017-02-06 17:00:26.110264+01 | 1486396826.11026 | pgbench_history  |         44785664
 2017-02-06 17:00:26.110264+01 | 1486396826.11026 | pgbench_branches |          1400832

 2017-02-06 17:00:27.195009+01 | 1486396827.19501 | pgbench_accounts |       1391173632
 2017-02-06 17:00:27.195009+01 | 1486396827.19501 | pgbench_tellers  |          3063808
 2017-02-06 17:00:27.195009+01 | 1486396827.19501 | pgbench_history  |         45539328
 2017-02-06 17:00:27.195009+01 | 1486396827.19501 | pgbench_branches |          1400832

 2017-02-06 17:00:28.283687+01 | 1486396828.28369 | pgbench_accounts |       1391173632
 2017-02-06 17:00:28.283687+01 | 1486396828.28369 | pgbench_tellers  |          3063808
 2017-02-06 17:00:28.283687+01 | 1486396828.28369 | pgbench_history  |         46096384
 2017-02-06 17:00:28.283687+01 | 1486396828.28369 | pgbench_branches |          1400832

 2017-02-06 17:00:29.372159+01 | 1486396829.37216 | pgbench_accounts |       1391173632
 2017-02-06 17:00:29.372159+01 | 1486396829.37216 | pgbench_tellers  |          3063808
 2017-02-06 17:00:29.372159+01 | 1486396829.37216 | pgbench_history  |         46637056
 2017-02-06 17:00:29.372159+01 | 1486396829.37216 | pgbench_branches |          1400832

 2017-02-06 17:00:30.455663+01 | 1486396830.45566 | pgbench_accounts |       1391173632
 2017-02-06 17:00:30.455663+01 | 1486396830.45566 | pgbench_tellers  |          3063808
 2017-02-06 17:00:30.455663+01 | 1486396830.45566 | pgbench_history  |         47226880
 2017-02-06 17:00:30.455663+01 | 1486396830.45566 | pgbench_branches |          1400832

 2017-02-06 17:00:31.541655+01 | 1486396831.54166 | pgbench_accounts |       1391173632
 2017-02-06 17:00:31.541655+01 | 1486396831.54166 | pgbench_tellers  |          3063808
 2017-02-06 17:00:31.541655+01 | 1486396831.54166 | pgbench_history  |         47882240
 2017-02-06 17:00:31.541655+01 | 1486396831.54166 | pgbench_branches |          1400832

 2017-02-06 17:00:32.629396+01 | 1486396832.6294 | pgbench_accounts |       1391173632
 2017-02-06 17:00:32.629396+01 | 1486396832.6294 | pgbench_tellers  |          3063808
 2017-02-06 17:00:32.629396+01 | 1486396832.6294 | pgbench_history  |         48439296
 2017-02-06 17:00:32.629396+01 | 1486396832.6294 | pgbench_branches |          1400832

 2017-02-06 17:00:33.710252+01 | 1486396833.71025 | pgbench_accounts |       1391173632
 2017-02-06 17:00:33.710252+01 | 1486396833.71025 | pgbench_tellers  |          3063808
 2017-02-06 17:00:33.710252+01 | 1486396833.71025 | pgbench_history  |         49037312
 2017-02-06 17:00:33.710252+01 | 1486396833.71025 | pgbench_branches |          1400832

 2017-02-06 17:00:34.799181+01 | 1486396834.79918 | pgbench_accounts |       1391173632
 2017-02-06 17:00:34.799181+01 | 1486396834.79918 | pgbench_tellers  |          3063808
 2017-02-06 17:00:34.799181+01 | 1486396834.79918 | pgbench_history  |         49954816
 2017-02-06 17:00:34.799181+01 | 1486396834.79918 | pgbench_branches |          1400832

 2017-02-06 17:00:35.878154+01 | 1486396835.87815 | pgbench_accounts |       1391173632
 2017-02-06 17:00:35.878154+01 | 1486396835.87815 | pgbench_tellers  |          3063808
 2017-02-06 17:00:35.878154+01 | 1486396835.87815 | pgbench_history  |         50266112
 2017-02-06 17:00:35.878154+01 | 1486396835.87815 | pgbench_branches |          1400832

 2017-02-06 17:00:36.959822+01 | 1486396836.95982 | pgbench_accounts |       1391173632
 2017-02-06 17:00:36.959822+01 | 1486396836.95982 | pgbench_tellers  |          3063808
 2017-02-06 17:00:36.959822+01 | 1486396836.95982 | pgbench_history  |         50872320
 2017-02-06 17:00:36.959822+01 | 1486396836.95982 | pgbench_branches |          1400832

 2017-02-06 17:00:38.052371+01 | 1486396838.05237 | pgbench_accounts |       1391173632
 2017-02-06 17:00:38.052371+01 | 1486396838.05237 | pgbench_tellers  |          3063808
 2017-02-06 17:00:38.052371+01 | 1486396838.05237 | pgbench_history  |         51593216
 2017-02-06 17:00:38.052371+01 | 1486396838.05237 | pgbench_branches |          1400832

 2017-02-06 17:00:39.127616+01 | 1486396839.12762 | pgbench_accounts |       1391173632
 2017-02-06 17:00:39.127616+01 | 1486396839.12762 | pgbench_tellers  |          3063808
 2017-02-06 17:00:39.127616+01 | 1486396839.12762 | pgbench_history  |         52248576
 2017-02-06 17:00:39.127616+01 | 1486396839.12762 | pgbench_branches |          1400832

 2017-02-06 17:00:40.223163+01 | 1486396840.22316 | pgbench_accounts |       1391173632
 2017-02-06 17:00:40.223163+01 | 1486396840.22316 | pgbench_tellers  |          3063808
 2017-02-06 17:00:40.223163+01 | 1486396840.22316 | pgbench_history  |         52871168
 2017-02-06 17:00:40.223163+01 | 1486396840.22316 | pgbench_branches |          1400832

 2017-02-06 17:00:41.305811+01 | 1486396841.30581 | pgbench_accounts |       1391173632
 2017-02-06 17:00:41.305811+01 | 1486396841.30581 | pgbench_tellers  |          3063808
 2017-02-06 17:00:41.305811+01 | 1486396841.30581 | pgbench_history  |         53477376
 2017-02-06 17:00:41.305811+01 | 1486396841.30581 | pgbench_branches |          1400832

 2017-02-06 17:00:42.385165+01 | 1486396842.38516 | pgbench_accounts |       1391173632
 2017-02-06 17:00:42.385165+01 | 1486396842.38516 | pgbench_tellers  |          3063808
 2017-02-06 17:00:42.385165+01 | 1486396842.38516 | pgbench_history  |         53944320
 2017-02-06 17:00:42.385165+01 | 1486396842.38516 | pgbench_branches |          1400832

 2017-02-06 17:00:43.466649+01 | 1486396843.46665 | pgbench_accounts |       1391173632
 2017-02-06 17:00:43.466649+01 | 1486396843.46665 | pgbench_tellers  |          3063808
 2017-02-06 17:00:43.466649+01 | 1486396843.46665 | pgbench_history  |         54575104
 2017-02-06 17:00:43.466649+01 | 1486396843.46665 | pgbench_branches |          1400832

 2017-02-06 17:00:44.555548+01 | 1486396844.55555 | pgbench_accounts |       1391173632
 2017-02-06 17:00:44.555548+01 | 1486396844.55555 | pgbench_tellers  |          3063808
 2017-02-06 17:00:44.555548+01 | 1486396844.55555 | pgbench_history  |         55197696
 2017-02-06 17:00:44.555548+01 | 1486396844.55555 | pgbench_branches |          1400832

 2017-02-06 17:00:45.640671+01 | 1486396845.64067 | pgbench_accounts |       1391173632
 2017-02-06 17:00:45.640671+01 | 1486396845.64067 | pgbench_tellers  |          3063808
 2017-02-06 17:00:45.640671+01 | 1486396845.64067 | pgbench_history  |         55869440
 2017-02-06 17:00:45.640671+01 | 1486396845.64067 | pgbench_branches |          1400832

 2017-02-06 17:00:46.726198+01 | 1486396846.7262 | pgbench_accounts |       1391173632
 2017-02-06 17:00:46.726198+01 | 1486396846.7262 | pgbench_tellers  |          3063808
 2017-02-06 17:00:46.726198+01 | 1486396846.7262 | pgbench_history  |         56426496
 2017-02-06 17:00:46.726198+01 | 1486396846.7262 | pgbench_branches |          1400832

 2017-02-06 17:00:47.810125+01 | 1486396847.81013 | pgbench_accounts |       1391173632
 2017-02-06 17:00:47.810125+01 | 1486396847.81013 | pgbench_tellers  |          3063808
 2017-02-06 17:00:47.810125+01 | 1486396847.81013 | pgbench_history  |         57040896
 2017-02-06 17:00:47.810125+01 | 1486396847.81013 | pgbench_branches |          1400832

 2017-02-06 17:00:48.904359+01 | 1486396848.90436 | pgbench_accounts |       1391173632
 2017-02-06 17:00:48.904359+01 | 1486396848.90436 | pgbench_tellers  |          3063808
 2017-02-06 17:00:48.904359+01 | 1486396848.90436 | pgbench_history  |         57638912
 2017-02-06 17:00:48.904359+01 | 1486396848.90436 | pgbench_branches |          1400832

 2017-02-06 17:00:49.991389+01 | 1486396849.99139 | pgbench_accounts |       1391173632
 2017-02-06 17:00:49.991389+01 | 1486396849.99139 | pgbench_tellers  |          3063808
 2017-02-06 17:00:49.991389+01 | 1486396849.99139 | pgbench_history  |         58212352
 2017-02-06 17:00:49.991389+01 | 1486396849.99139 | pgbench_branches |          1400832

 2017-02-06 17:00:51.066868+01 | 1486396851.06687 | pgbench_accounts |       1391173632
 2017-02-06 17:00:51.066868+01 | 1486396851.06687 | pgbench_tellers  |          3063808
 2017-02-06 17:00:51.066868+01 | 1486396851.06687 | pgbench_history  |         58744832
 2017-02-06 17:00:51.066868+01 | 1486396851.06687 | pgbench_branches |          1400832

 2017-02-06 17:00:52.145231+01 | 1486396852.14523 | pgbench_accounts |       1391173632
 2017-02-06 17:00:52.145231+01 | 1486396852.14523 | pgbench_tellers  |          3063808
 2017-02-06 17:00:52.145231+01 | 1486396852.14523 | pgbench_history  |         59277312
 2017-02-06 17:00:52.145231+01 | 1486396852.14523 | pgbench_branches |          1400832

 2017-02-06 17:00:53.227853+01 | 1486396853.22785 | pgbench_accounts |       1391173632
 2017-02-06 17:00:53.227853+01 | 1486396853.22785 | pgbench_tellers  |          3063808
 2017-02-06 17:00:53.227853+01 | 1486396853.22785 | pgbench_history  |         59858944
 2017-02-06 17:00:53.227853+01 | 1486396853.22785 | pgbench_branches |          1400832

 2017-02-06 17:00:54.316228+01 | 1486396854.31623 | pgbench_accounts |       1391173632
 2017-02-06 17:00:54.316228+01 | 1486396854.31623 | pgbench_tellers  |          3063808
 2017-02-06 17:00:54.316228+01 | 1486396854.31623 | pgbench_history  |         60432384
 2017-02-06 17:00:54.316228+01 | 1486396854.31623 | pgbench_branches |          1400832

 2017-02-06 17:00:55.396657+01 | 1486396855.39666 | pgbench_accounts |       1391173632
 2017-02-06 17:00:55.396657+01 | 1486396855.39666 | pgbench_tellers  |          3063808
 2017-02-06 17:00:55.396657+01 | 1486396855.39666 | pgbench_history  |         60997632
 2017-02-06 17:00:55.396657+01 | 1486396855.39666 | pgbench_branches |          1400832

 2017-02-06 17:00:56.473902+01 | 1486396856.4739 | pgbench_accounts |       1391173632
 2017-02-06 17:00:56.473902+01 | 1486396856.4739 | pgbench_tellers  |          3063808
 2017-02-06 17:00:56.473902+01 | 1486396856.4739 | pgbench_history  |         61636608
 2017-02-06 17:00:56.473902+01 | 1486396856.4739 | pgbench_branches |          1400832

 2017-02-06 17:00:57.562524+01 | 1486396857.56252 | pgbench_accounts |       1391173632
 2017-02-06 17:00:57.562524+01 | 1486396857.56252 | pgbench_tellers  |          3063808
 2017-02-06 17:00:57.562524+01 | 1486396857.56252 | pgbench_history  |         62365696
 2017-02-06 17:00:57.562524+01 | 1486396857.56252 | pgbench_branches |          1400832

 2017-02-06 17:00:58.646818+01 | 1486396858.64682 | pgbench_accounts |       1391173632
 2017-02-06 17:00:58.646818+01 | 1486396858.64682 | pgbench_tellers  |          3063808
 2017-02-06 17:00:58.646818+01 | 1486396858.64682 | pgbench_history  |         62636032
 2017-02-06 17:00:58.646818+01 | 1486396858.64682 | pgbench_branches |          1400832

 2017-02-06 17:00:59.732539+01 | 1486396859.73254 | pgbench_accounts |       1391173632
 2017-02-06 17:00:59.732539+01 | 1486396859.73254 | pgbench_tellers  |          3063808
 2017-02-06 17:00:59.732539+01 | 1486396859.73254 | pgbench_history  |         63225856
 2017-02-06 17:00:59.732539+01 | 1486396859.73254 | pgbench_branches |          1400832

 2017-02-06 17:01:00.824936+01 | 1486396860.82494 | pgbench_accounts |       1391173632
 2017-02-06 17:01:00.824936+01 | 1486396860.82494 | pgbench_tellers  |          3063808
 2017-02-06 17:01:00.824936+01 | 1486396860.82494 | pgbench_history  |         63815680
 2017-02-06 17:01:00.824936+01 | 1486396860.82494 | pgbench_branches |          1400832

 2017-02-06 17:01:01.912057+01 | 1486396861.91206 | pgbench_accounts |       1391173632
 2017-02-06 17:01:01.912057+01 | 1486396861.91206 | pgbench_tellers  |          3063808
 2017-02-06 17:01:01.912057+01 | 1486396861.91206 | pgbench_history  |         64380928
 2017-02-06 17:01:01.912057+01 | 1486396861.91206 | pgbench_branches |          1400832

 2017-02-06 17:01:03.004442+01 | 1486396863.00444 | pgbench_accounts |       1391173632
 2017-02-06 17:01:03.004442+01 | 1486396863.00444 | pgbench_tellers  |          3063808
 2017-02-06 17:01:03.004442+01 | 1486396863.00444 | pgbench_history  |         64954368
 2017-02-06 17:01:03.004442+01 | 1486396863.00444 | pgbench_branches |          1400832

 2017-02-06 17:01:04.088547+01 | 1486396864.08855 | pgbench_accounts |       1391173632
 2017-02-06 17:01:04.088547+01 | 1486396864.08855 | pgbench_tellers  |          3063808
 2017-02-06 17:01:04.088547+01 | 1486396864.08855 | pgbench_history  |         65527808
 2017-02-06 17:01:04.088547+01 | 1486396864.08855 | pgbench_branches |          1400832

 2017-02-06 17:01:05.178832+01 | 1486396865.17883 | pgbench_accounts |       1391173632
 2017-02-06 17:01:05.178832+01 | 1486396865.17883 | pgbench_tellers  |          3063808
 2017-02-06 17:01:05.178832+01 | 1486396865.17883 | pgbench_history  |         66109440
 2017-02-06 17:01:05.178832+01 | 1486396865.17883 | pgbench_branches |          1400832

 2017-02-06 17:01:06.2715+01 | 1486396866.2715 | pgbench_accounts |       1391173632
 2017-02-06 17:01:06.2715+01 | 1486396866.2715 | pgbench_tellers  |          3063808
 2017-02-06 17:01:06.2715+01 | 1486396866.2715 | pgbench_history  |         66633728
 2017-02-06 17:01:06.2715+01 | 1486396866.2715 | pgbench_branches |          1400832

 2017-02-06 17:01:07.359974+01 | 1486396867.35997 | pgbench_accounts |       1391173632
 2017-02-06 17:01:07.359974+01 | 1486396867.35997 | pgbench_tellers  |          3063808
 2017-02-06 17:01:07.359974+01 | 1486396867.35997 | pgbench_history  |         67166208
 2017-02-06 17:01:07.359974+01 | 1486396867.35997 | pgbench_branches |          1400832

 2017-02-06 17:01:08.446927+01 | 1486396868.44693 | pgbench_accounts |       1391173632
 2017-02-06 17:01:08.446927+01 | 1486396868.44693 | pgbench_tellers  |          3063808
 2017-02-06 17:01:08.446927+01 | 1486396868.44693 | pgbench_history  |         67657728
 2017-02-06 17:01:08.446927+01 | 1486396868.44693 | pgbench_branches |          1400832

 2017-02-06 17:01:09.523812+01 | 1486396869.52381 | pgbench_accounts |       1391173632
 2017-02-06 17:01:09.523812+01 | 1486396869.52381 | pgbench_tellers  |          3063808
 2017-02-06 17:01:09.523812+01 | 1486396869.52381 | pgbench_history  |         68132864
 2017-02-06 17:01:09.523812+01 | 1486396869.52381 | pgbench_branches |          1400832

 2017-02-06 17:01:10.606505+01 | 1486396870.6065 | pgbench_accounts |       1391173632
 2017-02-06 17:01:10.606505+01 | 1486396870.6065 | pgbench_tellers  |          3063808
 2017-02-06 17:01:10.606505+01 | 1486396870.6065 | pgbench_history  |         68747264
 2017-02-06 17:01:10.606505+01 | 1486396870.6065 | pgbench_branches |          1400832

 2017-02-06 17:01:11.687591+01 | 1486396871.68759 | pgbench_accounts |       1391173632
 2017-02-06 17:01:11.687591+01 | 1486396871.68759 | pgbench_tellers  |          3063808
 2017-02-06 17:01:11.687591+01 | 1486396871.68759 | pgbench_history  |         69378048
 2017-02-06 17:01:11.687591+01 | 1486396871.68759 | pgbench_branches |          1400832

 2017-02-06 17:01:12.769227+01 | 1486396872.76923 | pgbench_accounts |       1391173632
 2017-02-06 17:01:12.769227+01 | 1486396872.76923 | pgbench_tellers  |          3063808
 2017-02-06 17:01:12.769227+01 | 1486396872.76923 | pgbench_history  |         69984256
 2017-02-06 17:01:12.769227+01 | 1486396872.76923 | pgbench_branches |          1400832

 2017-02-06 17:01:13.858909+01 | 1486396873.85891 | pgbench_accounts |       1391173632
 2017-02-06 17:01:13.858909+01 | 1486396873.85891 | pgbench_tellers  |          3063808
 2017-02-06 17:01:13.858909+01 | 1486396873.85891 | pgbench_history  |         70615040
 2017-02-06 17:01:13.858909+01 | 1486396873.85891 | pgbench_branches |          1400832

 2017-02-06 17:01:14.95143+01 | 1486396874.95143 | pgbench_accounts |       1391173632
 2017-02-06 17:01:14.95143+01 | 1486396874.95143 | pgbench_tellers  |          3063808
 2017-02-06 17:01:14.95143+01 | 1486396874.95143 | pgbench_history  |         71245824
 2017-02-06 17:01:14.95143+01 | 1486396874.95143 | pgbench_branches |          1400832

 2017-02-06 17:01:16.047187+01 | 1486396876.04719 | pgbench_accounts |       1391173632
 2017-02-06 17:01:16.047187+01 | 1486396876.04719 | pgbench_tellers  |          3063808
 2017-02-06 17:01:16.047187+01 | 1486396876.04719 | pgbench_history  |         71884800
 2017-02-06 17:01:16.047187+01 | 1486396876.04719 | pgbench_branches |          1400832

 2017-02-06 17:01:17.140639+01 | 1486396877.14064 | pgbench_accounts |       1391173632
 2017-02-06 17:01:17.140639+01 | 1486396877.14064 | pgbench_tellers  |          3063808
 2017-02-06 17:01:17.140639+01 | 1486396877.14064 | pgbench_history  |         72515584
 2017-02-06 17:01:17.140639+01 | 1486396877.14064 | pgbench_branches |          1400832

 2017-02-06 17:01:18.228149+01 | 1486396878.22815 | pgbench_accounts |       1391173632
 2017-02-06 17:01:18.228149+01 | 1486396878.22815 | pgbench_tellers  |          3063808
 2017-02-06 17:01:18.228149+01 | 1486396878.22815 | pgbench_history  |         73285632
 2017-02-06 17:01:18.228149+01 | 1486396878.22815 | pgbench_branches |          1400832

 2017-02-06 17:01:19.317388+01 | 1486396879.31739 | pgbench_accounts |       1391173632
 2017-02-06 17:01:19.317388+01 | 1486396879.31739 | pgbench_tellers  |          3063808
 2017-02-06 17:01:19.317388+01 | 1486396879.31739 | pgbench_history  |         73998336
 2017-02-06 17:01:19.317388+01 | 1486396879.31739 | pgbench_branches |          1400832

 2017-02-06 17:01:20.397794+01 | 1486396880.39779 | pgbench_accounts |       1391173632
 2017-02-06 17:01:20.397794+01 | 1486396880.39779 | pgbench_tellers  |          3063808
 2017-02-06 17:01:20.397794+01 | 1486396880.39779 | pgbench_history  |         74407936
 2017-02-06 17:01:20.397794+01 | 1486396880.39779 | pgbench_branches |          1400832

 2017-02-06 17:01:21.474796+01 | 1486396881.4748 | pgbench_accounts |       1391173632
 2017-02-06 17:01:21.474796+01 | 1486396881.4748 | pgbench_tellers  |          3063808
 2017-02-06 17:01:21.474796+01 | 1486396881.4748 | pgbench_history  |         74981376
 2017-02-06 17:01:21.474796+01 | 1486396881.4748 | pgbench_branches |          1400832

 2017-02-06 17:01:22.562699+01 | 1486396882.5627 | pgbench_accounts |       1391173632
 2017-02-06 17:01:22.562699+01 | 1486396882.5627 | pgbench_tellers  |          3063808
 2017-02-06 17:01:22.562699+01 | 1486396882.5627 | pgbench_history  |         75571200
 2017-02-06 17:01:22.562699+01 | 1486396882.5627 | pgbench_branches |          1400832

 2017-02-06 17:01:23.655399+01 | 1486396883.6554 | pgbench_accounts |       1391173632
 2017-02-06 17:01:23.655399+01 | 1486396883.6554 | pgbench_tellers  |          3063808
 2017-02-06 17:01:23.655399+01 | 1486396883.6554 | pgbench_history  |         76218368
 2017-02-06 17:01:23.655399+01 | 1486396883.6554 | pgbench_branches |          1400832

 2017-02-06 17:01:24.721651+01 | 1486396884.72165 | pgbench_accounts |       1391173632
 2017-02-06 17:01:24.721651+01 | 1486396884.72165 | pgbench_tellers  |          3063808
 2017-02-06 17:01:24.721651+01 | 1486396884.72165 | pgbench_history  |         76816384
 2017-02-06 17:01:24.721651+01 | 1486396884.72165 | pgbench_branches |          1400832

 2017-02-06 17:01:25.797723+01 | 1486396885.79772 | pgbench_accounts |       1391173632
 2017-02-06 17:01:25.797723+01 | 1486396885.79772 | pgbench_tellers  |          3063808
 2017-02-06 17:01:25.797723+01 | 1486396885.79772 | pgbench_history  |         77340672
 2017-02-06 17:01:25.797723+01 | 1486396885.79772 | pgbench_branches |          1400832

 2017-02-06 17:01:26.866262+01 | 1486396886.86626 | pgbench_accounts |       1391173632
 2017-02-06 17:01:26.866262+01 | 1486396886.86626 | pgbench_tellers  |          3063808
 2017-02-06 17:01:26.866262+01 | 1486396886.86626 | pgbench_history  |         78184448
 2017-02-06 17:01:26.866262+01 | 1486396886.86626 | pgbench_branches |          1400832

 2017-02-06 17:01:27.94111+01 | 1486396887.94111 | pgbench_accounts |       1391173632
 2017-02-06 17:01:27.94111+01 | 1486396887.94111 | pgbench_tellers  |          3063808
 2017-02-06 17:01:27.94111+01 | 1486396887.94111 | pgbench_history  |         78585856
 2017-02-06 17:01:27.94111+01 | 1486396887.94111 | pgbench_branches |          1400832

 2017-02-06 17:01:29.01568+01 | 1486396889.01568 | pgbench_accounts |       1391173632
 2017-02-06 17:01:29.01568+01 | 1486396889.01568 | pgbench_tellers  |          3063808
 2017-02-06 17:01:29.01568+01 | 1486396889.01568 | pgbench_history  |         79192064
 2017-02-06 17:01:29.01568+01 | 1486396889.01568 | pgbench_branches |          1400832

 2017-02-06 17:01:30.090221+01 | 1486396890.09022 | pgbench_accounts |       1391173632
 2017-02-06 17:01:30.090221+01 | 1486396890.09022 | pgbench_tellers  |          3063808
 2017-02-06 17:01:30.090221+01 | 1486396890.09022 | pgbench_history  |         79822848
 2017-02-06 17:01:30.090221+01 | 1486396890.09022 | pgbench_branches |          1400832

 2017-02-06 17:01:31.174347+01 | 1486396891.17435 | pgbench_accounts |       1391173632
 2017-02-06 17:01:31.174347+01 | 1486396891.17435 | pgbench_tellers  |          3063808
 2017-02-06 17:01:31.174347+01 | 1486396891.17435 | pgbench_history  |         80453632
 2017-02-06 17:01:31.174347+01 | 1486396891.17435 | pgbench_branches |          1400832

 2017-02-06 17:01:32.263417+01 | 1486396892.26342 | pgbench_accounts |       1391173632
 2017-02-06 17:01:32.263417+01 | 1486396892.26342 | pgbench_tellers  |          3063808
 2017-02-06 17:01:32.263417+01 | 1486396892.26342 | pgbench_history  |         80986112
 2017-02-06 17:01:32.263417+01 | 1486396892.26342 | pgbench_branches |          1400832

 2017-02-06 17:01:33.354837+01 | 1486396893.35484 | pgbench_accounts |       1391173632
 2017-02-06 17:01:33.354837+01 | 1486396893.35484 | pgbench_tellers  |          3063808
 2017-02-06 17:01:33.354837+01 | 1486396893.35484 | pgbench_history  |         81960960
 2017-02-06 17:01:33.354837+01 | 1486396893.35484 | pgbench_branches |          1400832

 2017-02-06 17:01:34.438687+01 | 1486396894.43869 | pgbench_accounts |       1391173632
 2017-02-06 17:01:34.438687+01 | 1486396894.43869 | pgbench_tellers  |          3063808
 2017-02-06 17:01:34.438687+01 | 1486396894.43869 | pgbench_history  |         82313216
 2017-02-06 17:01:34.438687+01 | 1486396894.43869 | pgbench_branches |          1400832

 2017-02-06 17:01:35.520666+01 | 1486396895.52067 | pgbench_accounts |       1391173632
 2017-02-06 17:01:35.520666+01 | 1486396895.52067 | pgbench_tellers  |          3063808
 2017-02-06 17:01:35.520666+01 | 1486396895.52067 | pgbench_history  |         82845696
 2017-02-06 17:01:35.520666+01 | 1486396895.52067 | pgbench_branches |          1400832

 2017-02-06 17:01:36.603136+01 | 1486396896.60314 | pgbench_accounts |       1391173632
 2017-02-06 17:01:36.603136+01 | 1486396896.60314 | pgbench_tellers  |          3063808
 2017-02-06 17:01:36.603136+01 | 1486396896.60314 | pgbench_history  |         83468288
 2017-02-06 17:01:36.603136+01 | 1486396896.60314 | pgbench_branches |          1400832

 2017-02-06 17:01:37.680585+01 | 1486396897.68058 | pgbench_accounts |       1391173632
 2017-02-06 17:01:37.680585+01 | 1486396897.68058 | pgbench_tellers  |          3063808
 2017-02-06 17:01:37.680585+01 | 1486396897.68058 | pgbench_history  |         84025344
 2017-02-06 17:01:37.680585+01 | 1486396897.68058 | pgbench_branches |          1400832

 2017-02-06 17:01:38.769545+01 | 1486396898.76955 | pgbench_accounts |       1391173632
 2017-02-06 17:01:38.769545+01 | 1486396898.76955 | pgbench_tellers  |          3063808
 2017-02-06 17:01:38.769545+01 | 1486396898.76955 | pgbench_history  |         84811776
 2017-02-06 17:01:38.769545+01 | 1486396898.76955 | pgbench_branches |          1400832

 2017-02-06 17:01:39.853218+01 | 1486396899.85322 | pgbench_accounts |       1391173632
 2017-02-06 17:01:39.853218+01 | 1486396899.85322 | pgbench_tellers  |          3063808
 2017-02-06 17:01:39.853218+01 | 1486396899.85322 | pgbench_history  |         85213184
 2017-02-06 17:01:39.853218+01 | 1486396899.85322 | pgbench_branches |          1400832

 2017-02-06 17:01:40.932849+01 | 1486396900.93285 | pgbench_accounts |       1391173632
 2017-02-06 17:01:40.932849+01 | 1486396900.93285 | pgbench_tellers  |          3063808
 2017-02-06 17:01:40.932849+01 | 1486396900.93285 | pgbench_history  |         85843968
 2017-02-06 17:01:40.932849+01 | 1486396900.93285 | pgbench_branches |          1400832

 2017-02-06 17:01:42.012608+01 | 1486396902.01261 | pgbench_accounts |       1391173632
 2017-02-06 17:01:42.012608+01 | 1486396902.01261 | pgbench_tellers  |          3063808
 2017-02-06 17:01:42.012608+01 | 1486396902.01261 | pgbench_history  |         86614016
 2017-02-06 17:01:42.012608+01 | 1486396902.01261 | pgbench_branches |          1400832

 2017-02-06 17:01:43.105692+01 | 1486396903.10569 | pgbench_accounts |       1391173632
 2017-02-06 17:01:43.105692+01 | 1486396903.10569 | pgbench_tellers  |          3063808
 2017-02-06 17:01:43.105692+01 | 1486396903.10569 | pgbench_history  |         87195648
 2017-02-06 17:01:43.105692+01 | 1486396903.10569 | pgbench_branches |          1400832

 2017-02-06 17:01:44.184411+01 | 1486396904.18441 | pgbench_accounts |       1391173632
 2017-02-06 17:01:44.184411+01 | 1486396904.18441 | pgbench_tellers  |          3063808
 2017-02-06 17:01:44.184411+01 | 1486396904.18441 | pgbench_history  |         87785472
 2017-02-06 17:01:44.184411+01 | 1486396904.18441 | pgbench_branches |          1400832

 2017-02-06 17:01:45.272188+01 | 1486396905.27219 | pgbench_accounts |       1391173632
 2017-02-06 17:01:45.272188+01 | 1486396905.27219 | pgbench_tellers  |          3063808
 2017-02-06 17:01:45.272188+01 | 1486396905.27219 | pgbench_history  |         88489984
 2017-02-06 17:01:45.272188+01 | 1486396905.27219 | pgbench_branches |          1400832

 2017-02-06 17:01:46.34508+01 | 1486396906.34508 | pgbench_accounts |       1391173632
 2017-02-06 17:01:46.34508+01 | 1486396906.34508 | pgbench_tellers  |          3063808
 2017-02-06 17:01:46.34508+01 | 1486396906.34508 | pgbench_history  |         88997888
 2017-02-06 17:01:46.34508+01 | 1486396906.34508 | pgbench_branches |          1400832

 2017-02-06 17:01:47.430488+01 | 1486396907.43049 | pgbench_accounts |       1391173632
 2017-02-06 17:01:47.430488+01 | 1486396907.43049 | pgbench_tellers  |          3063808
 2017-02-06 17:01:47.430488+01 | 1486396907.43049 | pgbench_history  |         90087424
 2017-02-06 17:01:47.430488+01 | 1486396907.43049 | pgbench_branches |          1400832

 2017-02-06 17:01:48.521472+01 | 1486396908.52147 | pgbench_accounts |       1391173632
 2017-02-06 17:01:48.521472+01 | 1486396908.52147 | pgbench_tellers  |          3063808
 2017-02-06 17:01:48.521472+01 | 1486396908.52147 | pgbench_history  |         90275840
 2017-02-06 17:01:48.521472+01 | 1486396908.52147 | pgbench_branches |          1400832

 2017-02-06 17:01:49.614168+01 | 1486396909.61417 | pgbench_accounts |       1391173632
 2017-02-06 17:01:49.614168+01 | 1486396909.61417 | pgbench_tellers  |          3063808
 2017-02-06 17:01:49.614168+01 | 1486396909.61417 | pgbench_history  |         90865664
 2017-02-06 17:01:49.614168+01 | 1486396909.61417 | pgbench_branches |          1400832

 2017-02-06 17:01:50.704594+01 | 1486396910.70459 | pgbench_accounts |       1391173632
 2017-02-06 17:01:50.704594+01 | 1486396910.70459 | pgbench_tellers  |          3063808
 2017-02-06 17:01:50.704594+01 | 1486396910.70459 | pgbench_history  |         91521024
 2017-02-06 17:01:50.704594+01 | 1486396910.70459 | pgbench_branches |          1400832

 2017-02-06 17:01:51.799373+01 | 1486396911.79937 | pgbench_accounts |       1391173632
 2017-02-06 17:01:51.799373+01 | 1486396911.79937 | pgbench_tellers  |          3063808
 2017-02-06 17:01:51.799373+01 | 1486396911.79937 | pgbench_history  |         92119040
 2017-02-06 17:01:51.799373+01 | 1486396911.79937 | pgbench_branches |          1400832

 2017-02-06 17:01:52.894852+01 | 1486396912.89485 | pgbench_accounts |       1391173632
 2017-02-06 17:01:52.894852+01 | 1486396912.89485 | pgbench_tellers  |          3063808
 2017-02-06 17:01:52.894852+01 | 1486396912.89485 | pgbench_history  |         92758016
 2017-02-06 17:01:52.894852+01 | 1486396912.89485 | pgbench_branches |          1400832

 2017-02-06 17:01:53.975457+01 | 1486396913.97546 | pgbench_accounts |       1391173632
 2017-02-06 17:01:53.975457+01 | 1486396913.97546 | pgbench_tellers  |          3063808
 2017-02-06 17:01:53.975457+01 | 1486396913.97546 | pgbench_history  |         93339648
 2017-02-06 17:01:53.975457+01 | 1486396913.97546 | pgbench_branches |          1400832

 2017-02-06 17:01:55.058006+01 | 1486396915.05801 | pgbench_accounts |       1391173632
 2017-02-06 17:01:55.058006+01 | 1486396915.05801 | pgbench_tellers  |          3063808
 2017-02-06 17:01:55.058006+01 | 1486396915.05801 | pgbench_history  |         94068736
 2017-02-06 17:01:55.058006+01 | 1486396915.05801 | pgbench_branches |          1400832

 2017-02-06 17:01:56.138605+01 | 1486396916.13861 | pgbench_accounts |       1391173632
 2017-02-06 17:01:56.138605+01 | 1486396916.13861 | pgbench_tellers  |          3063808
 2017-02-06 17:01:56.138605+01 | 1486396916.13861 | pgbench_history  |         94617600
 2017-02-06 17:01:56.138605+01 | 1486396916.13861 | pgbench_branches |          1400832

 2017-02-06 17:01:57.225905+01 | 1486396917.2259 | pgbench_accounts |       1391173632
 2017-02-06 17:01:57.225905+01 | 1486396917.2259 | pgbench_tellers  |          3063808
 2017-02-06 17:01:57.225905+01 | 1486396917.2259 | pgbench_history  |         95371264
 2017-02-06 17:01:57.225905+01 | 1486396917.2259 | pgbench_branches |          1400832

 2017-02-06 17:01:58.3188+01 | 1486396918.3188 | pgbench_accounts |       1391173632
 2017-02-06 17:01:58.3188+01 | 1486396918.3188 | pgbench_tellers  |          3063808
 2017-02-06 17:01:58.3188+01 | 1486396918.3188 | pgbench_history  |         95887360
 2017-02-06 17:01:58.3188+01 | 1486396918.3188 | pgbench_branches |          1400832

 2017-02-06 17:01:59.404853+01 | 1486396919.40485 | pgbench_accounts |       1391173632
 2017-02-06 17:01:59.404853+01 | 1486396919.40485 | pgbench_tellers  |          3063808
 2017-02-06 17:01:59.404853+01 | 1486396919.40485 | pgbench_history  |         96460800
 2017-02-06 17:01:59.404853+01 | 1486396919.40485 | pgbench_branches |          1400832

 2017-02-06 17:02:00.4853+01 | 1486396920.4853 | pgbench_accounts |       1391173632
 2017-02-06 17:02:00.4853+01 | 1486396920.4853 | pgbench_tellers  |          3063808
 2017-02-06 17:02:00.4853+01 | 1486396920.4853 | pgbench_history  |         97181696
 2017-02-06 17:02:00.4853+01 | 1486396920.4853 | pgbench_branches |          1400832

 2017-02-06 17:02:01.557036+01 | 1486396921.55704 | pgbench_accounts |       1391173632
 2017-02-06 17:02:01.557036+01 | 1486396921.55704 | pgbench_tellers  |          3063808
 2017-02-06 17:02:01.557036+01 | 1486396921.55704 | pgbench_history  |         97689600
 2017-02-06 17:02:01.557036+01 | 1486396921.55704 | pgbench_branches |          1400832

 2017-02-06 17:02:02.625624+01 | 1486396922.62562 | pgbench_accounts |       1391173632
 2017-02-06 17:02:02.625624+01 | 1486396922.62562 | pgbench_tellers  |          3063808
 2017-02-06 17:02:02.625624+01 | 1486396922.62562 | pgbench_history  |         98295808
 2017-02-06 17:02:02.625624+01 | 1486396922.62562 | pgbench_branches |          1400832

 2017-02-06 17:02:03.698465+01 | 1486396923.69847 | pgbench_accounts |       1391173632
 2017-02-06 17:02:03.698465+01 | 1486396923.69847 | pgbench_tellers  |          3063808
 2017-02-06 17:02:03.698465+01 | 1486396923.69847 | pgbench_history  |         98910208
 2017-02-06 17:02:03.698465+01 | 1486396923.69847 | pgbench_branches |          1400832

 2017-02-06 17:02:04.784742+01 | 1486396924.78474 | pgbench_accounts |       1391173632
 2017-02-06 17:02:04.784742+01 | 1486396924.78474 | pgbench_tellers  |          3063808
 2017-02-06 17:02:04.784742+01 | 1486396924.78474 | pgbench_history  |         99532800
 2017-02-06 17:02:04.784742+01 | 1486396924.78474 | pgbench_branches |          1400832

 2017-02-06 17:02:05.874047+01 | 1486396925.87405 | pgbench_accounts |       1391173632
 2017-02-06 17:02:05.874047+01 | 1486396925.87405 | pgbench_tellers  |          3063808
 2017-02-06 17:02:05.874047+01 | 1486396925.87405 | pgbench_history  |        100147200
 2017-02-06 17:02:05.874047+01 | 1486396925.87405 | pgbench_branches |          1400832

 2017-02-06 17:02:06.953944+01 | 1486396926.95394 | pgbench_accounts |       1391173632
 2017-02-06 17:02:06.953944+01 | 1486396926.95394 | pgbench_tellers  |          3063808
 2017-02-06 17:02:06.953944+01 | 1486396926.95394 | pgbench_history  |        100753408
 2017-02-06 17:02:06.953944+01 | 1486396926.95394 | pgbench_branches |          1400832

 2017-02-06 17:02:08.038518+01 | 1486396928.03852 | pgbench_accounts |       1391173632
 2017-02-06 17:02:08.038518+01 | 1486396928.03852 | pgbench_tellers  |          3063808
 2017-02-06 17:02:08.038518+01 | 1486396928.03852 | pgbench_history  |        101367808
 2017-02-06 17:02:08.038518+01 | 1486396928.03852 | pgbench_branches |          1400832

 2017-02-06 17:02:09.121033+01 | 1486396929.12103 | pgbench_accounts |       1391173632
 2017-02-06 17:02:09.121033+01 | 1486396929.12103 | pgbench_tellers  |          3063808
 2017-02-06 17:02:09.121033+01 | 1486396929.12103 | pgbench_history  |        101990400
 2017-02-06 17:02:09.121033+01 | 1486396929.12103 | pgbench_branches |          1400832

 2017-02-06 17:02:10.189401+01 | 1486396930.1894 | pgbench_accounts |       1391173632
 2017-02-06 17:02:10.189401+01 | 1486396930.1894 | pgbench_tellers  |          3063808
 2017-02-06 17:02:10.189401+01 | 1486396930.1894 | pgbench_history  |        102596608
 2017-02-06 17:02:10.189401+01 | 1486396930.1894 | pgbench_branches |          1400832

 2017-02-06 17:02:11.266799+01 | 1486396931.2668 | pgbench_accounts |       1391173632
 2017-02-06 17:02:11.266799+01 | 1486396931.2668 | pgbench_tellers  |          3063808
 2017-02-06 17:02:11.266799+01 | 1486396931.2668 | pgbench_history  |        103219200
 2017-02-06 17:02:11.266799+01 | 1486396931.2668 | pgbench_branches |          1400832

 2017-02-06 17:02:12.345733+01 | 1486396932.34573 | pgbench_accounts |       1391173632
 2017-02-06 17:02:12.345733+01 | 1486396932.34573 | pgbench_tellers  |          3063808
 2017-02-06 17:02:12.345733+01 | 1486396932.34573 | pgbench_history  |        103825408
 2017-02-06 17:02:12.345733+01 | 1486396932.34573 | pgbench_branches |          1400832

 2017-02-06 17:02:13.423983+01 | 1486396933.42398 | pgbench_accounts |       1391173632
 2017-02-06 17:02:13.423983+01 | 1486396933.42398 | pgbench_tellers  |          3063808
 2017-02-06 17:02:13.423983+01 | 1486396933.42398 | pgbench_history  |        104431616
 2017-02-06 17:02:13.423983+01 | 1486396933.42398 | pgbench_branches |          1400832

 2017-02-06 17:02:14.507546+01 | 1486396934.50755 | pgbench_accounts |       1391173632
 2017-02-06 17:02:14.507546+01 | 1486396934.50755 | pgbench_tellers  |          3063808
 2017-02-06 17:02:14.507546+01 | 1486396934.50755 | pgbench_history  |        105078784
 2017-02-06 17:02:14.507546+01 | 1486396934.50755 | pgbench_branches |          1400832

 2017-02-06 17:02:15.586173+01 | 1486396935.58617 | pgbench_accounts |       1391173632
 2017-02-06 17:02:15.586173+01 | 1486396935.58617 | pgbench_tellers  |          3063808
 2017-02-06 17:02:15.586173+01 | 1486396935.58617 | pgbench_history  |        105799680
 2017-02-06 17:02:15.586173+01 | 1486396935.58617 | pgbench_branches |          1400832

 2017-02-06 17:02:16.6672+01 | 1486396936.6672 | pgbench_accounts |       1391173632
 2017-02-06 17:02:16.6672+01 | 1486396936.6672 | pgbench_tellers  |          3063808
 2017-02-06 17:02:16.6672+01 | 1486396936.6672 | pgbench_history  |        106340352
 2017-02-06 17:02:16.6672+01 | 1486396936.6672 | pgbench_branches |          1400832

 2017-02-06 17:02:17.75364+01 | 1486396937.75364 | pgbench_accounts |       1391173632
 2017-02-06 17:02:17.75364+01 | 1486396937.75364 | pgbench_tellers  |          3063808
 2017-02-06 17:02:17.75364+01 | 1486396937.75364 | pgbench_history  |        106962944
 2017-02-06 17:02:17.75364+01 | 1486396937.75364 | pgbench_branches |          1400832

 2017-02-06 17:02:18.837315+01 | 1486396938.83732 | pgbench_accounts |       1391173632
 2017-02-06 17:02:18.837315+01 | 1486396938.83732 | pgbench_tellers  |          3063808
 2017-02-06 17:02:18.837315+01 | 1486396938.83732 | pgbench_history  |        107618304
 2017-02-06 17:02:18.837315+01 | 1486396938.83732 | pgbench_branches |          1400832

 2017-02-06 17:02:19.914074+01 | 1486396939.91407 | pgbench_accounts |       1391173632
 2017-02-06 17:02:19.914074+01 | 1486396939.91407 | pgbench_tellers  |          3063808
 2017-02-06 17:02:19.914074+01 | 1486396939.91407 | pgbench_history  |        108429312
 2017-02-06 17:02:19.914074+01 | 1486396939.91407 | pgbench_branches |          1400832

 2017-02-06 17:02:20.992596+01 | 1486396940.9926 | pgbench_accounts |       1391173632
 2017-02-06 17:02:20.992596+01 | 1486396940.9926 | pgbench_tellers  |          3063808
 2017-02-06 17:02:20.992596+01 | 1486396940.9926 | pgbench_history  |        108789760
 2017-02-06 17:02:20.992596+01 | 1486396940.9926 | pgbench_branches |          1400832

 2017-02-06 17:02:22.073553+01 | 1486396942.07355 | pgbench_accounts |       1391173632
 2017-02-06 17:02:22.073553+01 | 1486396942.07355 | pgbench_tellers  |          3063808
 2017-02-06 17:02:22.073553+01 | 1486396942.07355 | pgbench_history  |        109543424
 2017-02-06 17:02:22.073553+01 | 1486396942.07355 | pgbench_branches |          1400832

 2017-02-06 17:02:23.14676+01 | 1486396943.14676 | pgbench_accounts |       1391173632
 2017-02-06 17:02:23.14676+01 | 1486396943.14676 | pgbench_tellers  |          3063808
 2017-02-06 17:02:23.14676+01 | 1486396943.14676 | pgbench_history  |        109936640
 2017-02-06 17:02:23.14676+01 | 1486396943.14676 | pgbench_branches |          1400832

 2017-02-06 17:02:24.240373+01 | 1486396944.24037 | pgbench_accounts |       1391173632
 2017-02-06 17:02:24.240373+01 | 1486396944.24037 | pgbench_tellers  |          3063808
 2017-02-06 17:02:24.240373+01 | 1486396944.24037 | pgbench_history  |        110608384
 2017-02-06 17:02:24.240373+01 | 1486396944.24037 | pgbench_branches |          1400832

 2017-02-06 17:02:25.330125+01 | 1486396945.33013 | pgbench_accounts |       1391173632
 2017-02-06 17:02:25.330125+01 | 1486396945.33013 | pgbench_tellers  |          3063808
 2017-02-06 17:02:25.330125+01 | 1486396945.33013 | pgbench_history  |        111378432
 2017-02-06 17:02:25.330125+01 | 1486396945.33013 | pgbench_branches |          1400832

 2017-02-06 17:02:26.417699+01 | 1486396946.4177 | pgbench_accounts |       1391173632
 2017-02-06 17:02:26.417699+01 | 1486396946.4177 | pgbench_tellers  |          3063808
 2017-02-06 17:02:26.417699+01 | 1486396946.4177 | pgbench_history  |        111796224
 2017-02-06 17:02:26.417699+01 | 1486396946.4177 | pgbench_branches |          1400832

 2017-02-06 17:02:27.498093+01 | 1486396947.49809 | pgbench_accounts |       1391173632
 2017-02-06 17:02:27.498093+01 | 1486396947.49809 | pgbench_tellers  |          3063808
 2017-02-06 17:02:27.498093+01 | 1486396947.49809 | pgbench_history  |        112427008
 2017-02-06 17:02:27.498093+01 | 1486396947.49809 | pgbench_branches |          1400832

 2017-02-06 17:02:28.58778+01 | 1486396948.58778 | pgbench_accounts |       1391173632
 2017-02-06 17:02:28.58778+01 | 1486396948.58778 | pgbench_tellers  |          3063808
 2017-02-06 17:02:28.58778+01 | 1486396948.58778 | pgbench_history  |        113270784
 2017-02-06 17:02:28.58778+01 | 1486396948.58778 | pgbench_branches |          1400832

 2017-02-06 17:02:29.667154+01 | 1486396949.66715 | pgbench_accounts |       1391173632
 2017-02-06 17:02:29.667154+01 | 1486396949.66715 | pgbench_tellers  |          3063808
 2017-02-06 17:02:29.667154+01 | 1486396949.66715 | pgbench_history  |        113664000
 2017-02-06 17:02:29.667154+01 | 1486396949.66715 | pgbench_branches |          1400832

 2017-02-06 17:02:30.750493+01 | 1486396950.75049 | pgbench_accounts |       1391173632
 2017-02-06 17:02:30.750493+01 | 1486396950.75049 | pgbench_tellers  |          3063808
 2017-02-06 17:02:30.750493+01 | 1486396950.75049 | pgbench_history  |        114401280
 2017-02-06 17:02:30.750493+01 | 1486396950.75049 | pgbench_branches |          1400832

 2017-02-06 17:02:31.841736+01 | 1486396951.84174 | pgbench_accounts |       1391173632
 2017-02-06 17:02:31.841736+01 | 1486396951.84174 | pgbench_tellers  |          3063808
 2017-02-06 17:02:31.841736+01 | 1486396951.84174 | pgbench_history  |        114999296
 2017-02-06 17:02:31.841736+01 | 1486396951.84174 | pgbench_branches |          1400832

 2017-02-06 17:02:32.927486+01 | 1486396952.92749 | pgbench_accounts |       1391173632
 2017-02-06 17:02:32.927486+01 | 1486396952.92749 | pgbench_tellers  |          3063808
 2017-02-06 17:02:32.927486+01 | 1486396952.92749 | pgbench_history  |        115613696
 2017-02-06 17:02:32.927486+01 | 1486396952.92749 | pgbench_branches |          1400832

 2017-02-06 17:02:34.018224+01 | 1486396954.01822 | pgbench_accounts |       1391173632
 2017-02-06 17:02:34.018224+01 | 1486396954.01822 | pgbench_tellers  |          3063808
 2017-02-06 17:02:34.018224+01 | 1486396954.01822 | pgbench_history  |        116219904
 2017-02-06 17:02:34.018224+01 | 1486396954.01822 | pgbench_branches |          1400832

 2017-02-06 17:02:35.096149+01 | 1486396955.09615 | pgbench_accounts |       1391173632
 2017-02-06 17:02:35.096149+01 | 1486396955.09615 | pgbench_tellers  |          3063808
 2017-02-06 17:02:35.096149+01 | 1486396955.09615 | pgbench_history  |        117129216
 2017-02-06 17:02:35.096149+01 | 1486396955.09615 | pgbench_branches |          1400832

 2017-02-06 17:02:36.182594+01 | 1486396956.18259 | pgbench_accounts |       1391173632
 2017-02-06 17:02:36.182594+01 | 1486396956.18259 | pgbench_tellers  |          3063808
 2017-02-06 17:02:36.182594+01 | 1486396956.18259 | pgbench_history  |        117514240
 2017-02-06 17:02:36.182594+01 | 1486396956.18259 | pgbench_branches |          1400832

 2017-02-06 17:02:37.268528+01 | 1486396957.26853 | pgbench_accounts |       1391173632
 2017-02-06 17:02:37.268528+01 | 1486396957.26853 | pgbench_tellers  |          3063808
 2017-02-06 17:02:37.268528+01 | 1486396957.26853 | pgbench_history  |        118112256
 2017-02-06 17:02:37.268528+01 | 1486396957.26853 | pgbench_branches |          1400832

 2017-02-06 17:02:38.347496+01 | 1486396958.3475 | pgbench_accounts |       1391173632
 2017-02-06 17:02:38.347496+01 | 1486396958.3475 | pgbench_tellers  |          3063808
 2017-02-06 17:02:38.347496+01 | 1486396958.3475 | pgbench_history  |        118874112
 2017-02-06 17:02:38.347496+01 | 1486396958.3475 | pgbench_branches |          1400832

 2017-02-06 17:02:39.419433+01 | 1486396959.41943 | pgbench_accounts |       1391173632
 2017-02-06 17:02:39.419433+01 | 1486396959.41943 | pgbench_tellers  |          3063808
 2017-02-06 17:02:39.419433+01 | 1486396959.41943 | pgbench_history  |        119595008
 2017-02-06 17:02:39.419433+01 | 1486396959.41943 | pgbench_branches |          1400832

 2017-02-06 17:02:40.508761+01 | 1486396960.50876 | pgbench_accounts |       1391173632
 2017-02-06 17:02:40.508761+01 | 1486396960.50876 | pgbench_tellers  |          3063808
 2017-02-06 17:02:40.508761+01 | 1486396960.50876 | pgbench_history  |        120029184
 2017-02-06 17:02:40.508761+01 | 1486396960.50876 | pgbench_branches |          1400832

 2017-02-06 17:02:41.597319+01 | 1486396961.59732 | pgbench_accounts |       1391173632
 2017-02-06 17:02:41.597319+01 | 1486396961.59732 | pgbench_tellers  |          3063808
 2017-02-06 17:02:41.597319+01 | 1486396961.59732 | pgbench_history  |        120619008
 2017-02-06 17:02:41.597319+01 | 1486396961.59732 | pgbench_branches |          1400832

 2017-02-06 17:02:42.688388+01 | 1486396962.68839 | pgbench_accounts |       1391173632
 2017-02-06 17:02:42.688388+01 | 1486396962.68839 | pgbench_tellers  |          3063808
 2017-02-06 17:02:42.688388+01 | 1486396962.68839 | pgbench_history  |        121225216
 2017-02-06 17:02:42.688388+01 | 1486396962.68839 | pgbench_branches |          1400832

 2017-02-06 17:02:43.774344+01 | 1486396963.77434 | pgbench_accounts |       1391173632
 2017-02-06 17:02:43.774344+01 | 1486396963.77434 | pgbench_tellers  |          3063808
 2017-02-06 17:02:43.774344+01 | 1486396963.77434 | pgbench_history  |        121823232
 2017-02-06 17:02:43.774344+01 | 1486396963.77434 | pgbench_branches |          1400832

 2017-02-06 17:02:44.849571+01 | 1486396964.84957 | pgbench_accounts |       1391173632
 2017-02-06 17:02:44.849571+01 | 1486396964.84957 | pgbench_tellers  |          3063808
 2017-02-06 17:02:44.849571+01 | 1486396964.84957 | pgbench_history  |        122593280
 2017-02-06 17:02:44.849571+01 | 1486396964.84957 | pgbench_branches |          1400832

 2017-02-06 17:02:45.931869+01 | 1486396965.93187 | pgbench_accounts |       1391173632
 2017-02-06 17:02:45.931869+01 | 1486396965.93187 | pgbench_tellers  |          3063808
 2017-02-06 17:02:45.931869+01 | 1486396965.93187 | pgbench_history  |        123068416
 2017-02-06 17:02:45.931869+01 | 1486396965.93187 | pgbench_branches |          1400832

 2017-02-06 17:02:47.007049+01 | 1486396967.00705 | pgbench_accounts |       1391173632
 2017-02-06 17:02:47.007049+01 | 1486396967.00705 | pgbench_tellers  |          3063808
 2017-02-06 17:02:47.007049+01 | 1486396967.00705 | pgbench_history  |        123822080
 2017-02-06 17:02:47.007049+01 | 1486396967.00705 | pgbench_branches |          1400832

 2017-02-06 17:02:48.090289+01 | 1486396968.09029 | pgbench_accounts |       1391173632
 2017-02-06 17:02:48.090289+01 | 1486396968.09029 | pgbench_tellers  |          3063808
 2017-02-06 17:02:48.090289+01 | 1486396968.09029 | pgbench_history  |        124297216
 2017-02-06 17:02:48.090289+01 | 1486396968.09029 | pgbench_branches |          1400832

 2017-02-06 17:02:49.184107+01 | 1486396969.18411 | pgbench_accounts |       1391173632
 2017-02-06 17:02:49.184107+01 | 1486396969.18411 | pgbench_tellers  |          3063808
 2017-02-06 17:02:49.184107+01 | 1486396969.18411 | pgbench_history  |        124968960
 2017-02-06 17:02:49.184107+01 | 1486396969.18411 | pgbench_branches |          1400832

 2017-02-06 17:02:50.263132+01 | 1486396970.26313 | pgbench_accounts |       1391173632
 2017-02-06 17:02:50.263132+01 | 1486396970.26313 | pgbench_tellers  |          3063808
 2017-02-06 17:02:50.263132+01 | 1486396970.26313 | pgbench_history  |        125591552
 2017-02-06 17:02:50.263132+01 | 1486396970.26313 | pgbench_branches |          1400832

 2017-02-06 17:02:51.352696+01 | 1486396971.3527 | pgbench_accounts |       1391173632
 2017-02-06 17:02:51.352696+01 | 1486396971.3527 | pgbench_tellers  |          3063808
 2017-02-06 17:02:51.352696+01 | 1486396971.3527 | pgbench_history  |        126197760
 2017-02-06 17:02:51.352696+01 | 1486396971.3527 | pgbench_branches |          1400832

 2017-02-06 17:02:52.446438+01 | 1486396972.44644 | pgbench_accounts |       1391173632
 2017-02-06 17:02:52.446438+01 | 1486396972.44644 | pgbench_tellers  |          3063808
 2017-02-06 17:02:52.446438+01 | 1486396972.44644 | pgbench_history  |        126836736
 2017-02-06 17:02:52.446438+01 | 1486396972.44644 | pgbench_branches |          1400832

 2017-02-06 17:02:53.53274+01 | 1486396973.53274 | pgbench_accounts |       1391173632
 2017-02-06 17:02:53.53274+01 | 1486396973.53274 | pgbench_tellers  |          3063808
 2017-02-06 17:02:53.53274+01 | 1486396973.53274 | pgbench_history  |        127475712
 2017-02-06 17:02:53.53274+01 | 1486396973.53274 | pgbench_branches |          1400832

 2017-02-06 17:02:54.623857+01 | 1486396974.62386 | pgbench_accounts |       1391173632
 2017-02-06 17:02:54.623857+01 | 1486396974.62386 | pgbench_tellers  |          3063808
 2017-02-06 17:02:54.623857+01 | 1486396974.62386 | pgbench_history  |        128106496
 2017-02-06 17:02:54.623857+01 | 1486396974.62386 | pgbench_branches |          1400832

 2017-02-06 17:02:55.71312+01 | 1486396975.71312 | pgbench_accounts |       1391173632
 2017-02-06 17:02:55.71312+01 | 1486396975.71312 | pgbench_tellers  |          3063808
 2017-02-06 17:02:55.71312+01 | 1486396975.71312 | pgbench_history  |        128745472
 2017-02-06 17:02:55.71312+01 | 1486396975.71312 | pgbench_branches |          1400832

 2017-02-06 17:02:56.804371+01 | 1486396976.80437 | pgbench_accounts |       1391173632
 2017-02-06 17:02:56.804371+01 | 1486396976.80437 | pgbench_tellers  |          3063808
 2017-02-06 17:02:56.804371+01 | 1486396976.80437 | pgbench_history  |        129499136
 2017-02-06 17:02:56.804371+01 | 1486396976.80437 | pgbench_branches |          1400832

 2017-02-06 17:02:57.892572+01 | 1486396977.89257 | pgbench_accounts |       1391173632
 2017-02-06 17:02:57.892572+01 | 1486396977.89257 | pgbench_tellers  |          3063808
 2017-02-06 17:02:57.892572+01 | 1486396977.89257 | pgbench_history  |        130064384
 2017-02-06 17:02:57.892572+01 | 1486396977.89257 | pgbench_branches |          1400832

 2017-02-06 17:02:58.983727+01 | 1486396978.98373 | pgbench_accounts |       1391173632
 2017-02-06 17:02:58.983727+01 | 1486396978.98373 | pgbench_tellers  |          3063808
 2017-02-06 17:02:58.983727+01 | 1486396978.98373 | pgbench_history  |        130826240
 2017-02-06 17:02:58.983727+01 | 1486396978.98373 | pgbench_branches |          1400832

 2017-02-06 17:03:00.076489+01 | 1486396980.07649 | pgbench_accounts |       1391173632
 2017-02-06 17:03:00.076489+01 | 1486396980.07649 | pgbench_tellers  |          3063808
 2017-02-06 17:03:00.076489+01 | 1486396980.07649 | pgbench_history  |        131244032
 2017-02-06 17:03:00.076489+01 | 1486396980.07649 | pgbench_branches |          1400832

 2017-02-06 17:03:01.159549+01 | 1486396981.15955 | pgbench_accounts |       1391173632
 2017-02-06 17:03:01.159549+01 | 1486396981.15955 | pgbench_tellers  |          3063808
 2017-02-06 17:03:01.159549+01 | 1486396981.15955 | pgbench_history  |        131899392
 2017-02-06 17:03:01.159549+01 | 1486396981.15955 | pgbench_branches |          1400832

 2017-02-06 17:03:02.243492+01 | 1486396982.24349 | pgbench_accounts |       1391173632
 2017-02-06 17:03:02.243492+01 | 1486396982.24349 | pgbench_tellers  |          3063808
 2017-02-06 17:03:02.243492+01 | 1486396982.24349 | pgbench_history  |        132505600
 2017-02-06 17:03:02.243492+01 | 1486396982.24349 | pgbench_branches |          1400832

 2017-02-06 17:03:03.334499+01 | 1486396983.3345 | pgbench_accounts |       1391173632
 2017-02-06 17:03:03.334499+01 | 1486396983.3345 | pgbench_tellers  |          3063808
 2017-02-06 17:03:03.334499+01 | 1486396983.3345 | pgbench_history  |        133160960
 2017-02-06 17:03:03.334499+01 | 1486396983.3345 | pgbench_branches |          1400832

 2017-02-06 17:03:04.425001+01 | 1486396984.425 | pgbench_accounts |       1391173632
 2017-02-06 17:03:04.425001+01 | 1486396984.425 | pgbench_tellers  |          3063808
 2017-02-06 17:03:04.425001+01 | 1486396984.425 | pgbench_history  |        133791744
 2017-02-06 17:03:04.425001+01 | 1486396984.425 | pgbench_branches |          1400832

 2017-02-06 17:03:05.51737+01 | 1486396985.51737 | pgbench_accounts |       1391173632
 2017-02-06 17:03:05.51737+01 | 1486396985.51737 | pgbench_tellers  |          3063808
 2017-02-06 17:03:05.51737+01 | 1486396985.51737 | pgbench_history  |        134422528
 2017-02-06 17:03:05.51737+01 | 1486396985.51737 | pgbench_branches |          1400832

 2017-02-06 17:03:06.610057+01 | 1486396986.61006 | pgbench_accounts |       1391173632
 2017-02-06 17:03:06.610057+01 | 1486396986.61006 | pgbench_tellers  |          3063808
 2017-02-06 17:03:06.610057+01 | 1486396986.61006 | pgbench_history  |        135053312
 2017-02-06 17:03:06.610057+01 | 1486396986.61006 | pgbench_branches |          1400832

 2017-02-06 17:03:07.690562+01 | 1486396987.69056 | pgbench_accounts |       1391173632
 2017-02-06 17:03:07.690562+01 | 1486396987.69056 | pgbench_tellers  |          3063808
 2017-02-06 17:03:07.690562+01 | 1486396987.69056 | pgbench_history  |        135659520
 2017-02-06 17:03:07.690562+01 | 1486396987.69056 | pgbench_branches |          1400832

 2017-02-06 17:03:08.770526+01 | 1486396988.77053 | pgbench_accounts |       1391173632
 2017-02-06 17:03:08.770526+01 | 1486396988.77053 | pgbench_tellers  |          3063808
 2017-02-06 17:03:08.770526+01 | 1486396988.77053 | pgbench_history  |        136249344
 2017-02-06 17:03:08.770526+01 | 1486396988.77053 | pgbench_branches |          1400832

 2017-02-06 17:03:09.846599+01 | 1486396989.8466 | pgbench_accounts |       1391173632
 2017-02-06 17:03:09.846599+01 | 1486396989.8466 | pgbench_tellers  |          3063808
 2017-02-06 17:03:09.846599+01 | 1486396989.8466 | pgbench_history  |        136880128
 2017-02-06 17:03:09.846599+01 | 1486396989.8466 | pgbench_branches |          1400832

 2017-02-06 17:03:10.934352+01 | 1486396990.93435 | pgbench_accounts |       1391173632
 2017-02-06 17:03:10.934352+01 | 1486396990.93435 | pgbench_tellers  |          3063808
 2017-02-06 17:03:10.934352+01 | 1486396990.93435 | pgbench_history  |        137453568
 2017-02-06 17:03:10.934352+01 | 1486396990.93435 | pgbench_branches |          1400832

 2017-02-06 17:03:12.024293+01 | 1486396992.02429 | pgbench_accounts |       1391173632
 2017-02-06 17:03:12.024293+01 | 1486396992.02429 | pgbench_tellers  |          3063808
 2017-02-06 17:03:12.024293+01 | 1486396992.02429 | pgbench_history  |        138108928
 2017-02-06 17:03:12.024293+01 | 1486396992.02429 | pgbench_branches |          1400832

 2017-02-06 17:03:13.109232+01 | 1486396993.10923 | pgbench_accounts |       1391173632
 2017-02-06 17:03:13.109232+01 | 1486396993.10923 | pgbench_tellers  |          3063808
 2017-02-06 17:03:13.109232+01 | 1486396993.10923 | pgbench_history  |        138739712
 2017-02-06 17:03:13.109232+01 | 1486396993.10923 | pgbench_branches |          1400832

 2017-02-06 17:03:14.187069+01 | 1486396994.18707 | pgbench_accounts |       1391173632
 2017-02-06 17:03:14.187069+01 | 1486396994.18707 | pgbench_tellers  |          3063808
 2017-02-06 17:03:14.187069+01 | 1486396994.18707 | pgbench_history  |        139354112
 2017-02-06 17:03:14.187069+01 | 1486396994.18707 | pgbench_branches |          1400832

 2017-02-06 17:03:15.25705+01 | 1486396995.25705 | pgbench_accounts |       1391173632
 2017-02-06 17:03:15.25705+01 | 1486396995.25705 | pgbench_tellers  |          3063808
 2017-02-06 17:03:15.25705+01 | 1486396995.25705 | pgbench_history  |        139952128
 2017-02-06 17:03:15.25705+01 | 1486396995.25705 | pgbench_branches |          1400832

 2017-02-06 17:03:16.33167+01 | 1486396996.33167 | pgbench_accounts |       1391173632
 2017-02-06 17:03:16.33167+01 | 1486396996.33167 | pgbench_tellers  |          3063808
 2017-02-06 17:03:16.33167+01 | 1486396996.33167 | pgbench_history  |        140558336
 2017-02-06 17:03:16.33167+01 | 1486396996.33167 | pgbench_branches |          1400832

 2017-02-06 17:03:17.412981+01 | 1486396997.41298 | pgbench_accounts |       1391173632
 2017-02-06 17:03:17.412981+01 | 1486396997.41298 | pgbench_tellers  |          3063808
 2017-02-06 17:03:17.412981+01 | 1486396997.41298 | pgbench_history  |        141164544
 2017-02-06 17:03:17.412981+01 | 1486396997.41298 | pgbench_branches |          1400832

 2017-02-06 17:03:18.487818+01 | 1486396998.48782 | pgbench_accounts |       1391173632
 2017-02-06 17:03:18.487818+01 | 1486396998.48782 | pgbench_tellers  |          3063808
 2017-02-06 17:03:18.487818+01 | 1486396998.48782 | pgbench_history  |        141762560
 2017-02-06 17:03:18.487818+01 | 1486396998.48782 | pgbench_branches |          1400832

 2017-02-06 17:03:19.573678+01 | 1486396999.57368 | pgbench_accounts |       1391173632
 2017-02-06 17:03:19.573678+01 | 1486396999.57368 | pgbench_tellers  |          3063808
 2017-02-06 17:03:19.573678+01 | 1486396999.57368 | pgbench_history  |        142409728
 2017-02-06 17:03:19.573678+01 | 1486396999.57368 | pgbench_branches |          1400832

 2017-02-06 17:03:20.662713+01 | 1486397000.66271 | pgbench_accounts |       1391173632
 2017-02-06 17:03:20.662713+01 | 1486397000.66271 | pgbench_tellers  |          3063808
 2017-02-06 17:03:20.662713+01 | 1486397000.66271 | pgbench_history  |        143056896
 2017-02-06 17:03:20.662713+01 | 1486397000.66271 | pgbench_branches |          1400832

 2017-02-06 17:03:21.739401+01 | 1486397001.7394 | pgbench_accounts |       1391173632
 2017-02-06 17:03:21.739401+01 | 1486397001.7394 | pgbench_tellers  |          3063808
 2017-02-06 17:03:21.739401+01 | 1486397001.7394 | pgbench_history  |        143753216
 2017-02-06 17:03:21.739401+01 | 1486397001.7394 | pgbench_branches |          1400832

 2017-02-06 17:03:22.824676+01 | 1486397002.82468 | pgbench_accounts |       1391173632
 2017-02-06 17:03:22.824676+01 | 1486397002.82468 | pgbench_tellers  |          3063808
 2017-02-06 17:03:22.824676+01 | 1486397002.82468 | pgbench_history  |        144457728
 2017-02-06 17:03:22.824676+01 | 1486397002.82468 | pgbench_branches |          1400832

 2017-02-06 17:03:23.915233+01 | 1486397003.91523 | pgbench_accounts |       1391173632
 2017-02-06 17:03:23.915233+01 | 1486397003.91523 | pgbench_tellers  |          3063808
 2017-02-06 17:03:23.915233+01 | 1486397003.91523 | pgbench_history  |        144916480
 2017-02-06 17:03:23.915233+01 | 1486397003.91523 | pgbench_branches |          1400832

 2017-02-06 17:03:25.008166+01 | 1486397005.00817 | pgbench_accounts |       1391173632
 2017-02-06 17:03:25.008166+01 | 1486397005.00817 | pgbench_tellers  |          3063808
 2017-02-06 17:03:25.008166+01 | 1486397005.00817 | pgbench_history  |        145580032
 2017-02-06 17:03:25.008166+01 | 1486397005.00817 | pgbench_branches |          1400832

 2017-02-06 17:03:26.103261+01 | 1486397006.10326 | pgbench_accounts |       1391173632
 2017-02-06 17:03:26.103261+01 | 1486397006.10326 | pgbench_tellers  |          3063808
 2017-02-06 17:03:26.103261+01 | 1486397006.10326 | pgbench_history  |        146358272
 2017-02-06 17:03:26.103261+01 | 1486397006.10326 | pgbench_branches |          1400832

 2017-02-06 17:03:27.189912+01 | 1486397007.18991 | pgbench_accounts |       1391173632
 2017-02-06 17:03:27.189912+01 | 1486397007.18991 | pgbench_tellers  |          3063808
 2017-02-06 17:03:27.189912+01 | 1486397007.18991 | pgbench_history  |        146882560
 2017-02-06 17:03:27.189912+01 | 1486397007.18991 | pgbench_branches |          1400832

 2017-02-06 17:03:28.273736+01 | 1486397008.27374 | pgbench_accounts |       1391173632
 2017-02-06 17:03:28.273736+01 | 1486397008.27374 | pgbench_tellers  |          3063808
 2017-02-06 17:03:28.273736+01 | 1486397008.27374 | pgbench_history  |        147488768
 2017-02-06 17:03:28.273736+01 | 1486397008.27374 | pgbench_branches |          1400832

 2017-02-06 17:03:29.362797+01 | 1486397009.3628 | pgbench_accounts |       1391173632
 2017-02-06 17:03:29.362797+01 | 1486397009.3628 | pgbench_tellers  |          3063808
 2017-02-06 17:03:29.362797+01 | 1486397009.3628 | pgbench_history  |        148127744
 2017-02-06 17:03:29.362797+01 | 1486397009.3628 | pgbench_branches |          1400832

 2017-02-06 17:03:30.440379+01 | 1486397010.44038 | pgbench_accounts |       1391173632
 2017-02-06 17:03:30.440379+01 | 1486397010.44038 | pgbench_tellers  |          3063808
 2017-02-06 17:03:30.440379+01 | 1486397010.44038 | pgbench_history  |        148717568
 2017-02-06 17:03:30.440379+01 | 1486397010.44038 | pgbench_branches |          1400832

 2017-02-06 17:03:31.525778+01 | 1486397011.52578 | pgbench_accounts |       1391173632
 2017-02-06 17:03:31.525778+01 | 1486397011.52578 | pgbench_tellers  |          3063808
 2017-02-06 17:03:31.525778+01 | 1486397011.52578 | pgbench_history  |        149331968
 2017-02-06 17:03:31.525778+01 | 1486397011.52578 | pgbench_branches |          1400832

 2017-02-06 17:03:32.610284+01 | 1486397012.61028 | pgbench_accounts |       1391173632
 2017-02-06 17:03:32.610284+01 | 1486397012.61028 | pgbench_tellers  |          3063808
 2017-02-06 17:03:32.610284+01 | 1486397012.61028 | pgbench_history  |        150265856
 2017-02-06 17:03:32.610284+01 | 1486397012.61028 | pgbench_branches |          1400832

 2017-02-06 17:03:33.69534+01 | 1486397013.69534 | pgbench_accounts |       1391173632
 2017-02-06 17:03:33.69534+01 | 1486397013.69534 | pgbench_tellers  |          3063808
 2017-02-06 17:03:33.69534+01 | 1486397013.69534 | pgbench_history  |        150659072
 2017-02-06 17:03:33.69534+01 | 1486397013.69534 | pgbench_branches |          1400832

 2017-02-06 17:03:34.778774+01 | 1486397014.77877 | pgbench_accounts |       1391173632
 2017-02-06 17:03:34.778774+01 | 1486397014.77877 | pgbench_tellers  |          3063808
 2017-02-06 17:03:34.778774+01 | 1486397014.77877 | pgbench_history  |        151429120
 2017-02-06 17:03:34.778774+01 | 1486397014.77877 | pgbench_branches |          1400832

 2017-02-06 17:03:35.858123+01 | 1486397015.85812 | pgbench_accounts |       1391173632
 2017-02-06 17:03:35.858123+01 | 1486397015.85812 | pgbench_tellers  |          3063808
 2017-02-06 17:03:35.858123+01 | 1486397015.85812 | pgbench_history  |        151805952
 2017-02-06 17:03:35.858123+01 | 1486397015.85812 | pgbench_branches |          1400832

 2017-02-06 17:03:36.94322+01 | 1486397016.94322 | pgbench_accounts |       1391173632
 2017-02-06 17:03:36.94322+01 | 1486397016.94322 | pgbench_tellers  |          3063808
 2017-02-06 17:03:36.94322+01 | 1486397016.94322 | pgbench_history  |        152510464
 2017-02-06 17:03:36.94322+01 | 1486397016.94322 | pgbench_branches |          1400832

 2017-02-06 17:03:38.023673+01 | 1486397018.02367 | pgbench_accounts |       1391173632
 2017-02-06 17:03:38.023673+01 | 1486397018.02367 | pgbench_tellers  |          3063808
 2017-02-06 17:03:38.023673+01 | 1486397018.02367 | pgbench_history  |        153108480
 2017-02-06 17:03:38.023673+01 | 1486397018.02367 | pgbench_branches |          1400832

 2017-02-06 17:03:39.107142+01 | 1486397019.10714 | pgbench_accounts |       1391173632
 2017-02-06 17:03:39.107142+01 | 1486397019.10714 | pgbench_tellers  |          3063808
 2017-02-06 17:03:39.107142+01 | 1486397019.10714 | pgbench_history  |        153673728
 2017-02-06 17:03:39.107142+01 | 1486397019.10714 | pgbench_branches |          1400832

 2017-02-06 17:03:40.195342+01 | 1486397020.19534 | pgbench_accounts |       1391173632
 2017-02-06 17:03:40.195342+01 | 1486397020.19534 | pgbench_tellers  |          3063808
 2017-02-06 17:03:40.195342+01 | 1486397020.19534 | pgbench_history  |        154419200
 2017-02-06 17:03:40.195342+01 | 1486397020.19534 | pgbench_branches |          1400832

 2017-02-06 17:03:41.270708+01 | 1486397021.27071 | pgbench_accounts |       1391173632
 2017-02-06 17:03:41.270708+01 | 1486397021.27071 | pgbench_tellers  |          3063808
 2017-02-06 17:03:41.270708+01 | 1486397021.27071 | pgbench_history  |        154984448
 2017-02-06 17:03:41.270708+01 | 1486397021.27071 | pgbench_branches |          1400832

 2017-02-06 17:03:42.3396+01 | 1486397022.3396 | pgbench_accounts |       1391173632
 2017-02-06 17:03:42.3396+01 | 1486397022.3396 | pgbench_tellers  |          3063808
 2017-02-06 17:03:42.3396+01 | 1486397022.3396 | pgbench_history  |        155566080
 2017-02-06 17:03:42.3396+01 | 1486397022.3396 | pgbench_branches |          1400832

 2017-02-06 17:03:43.424968+01 | 1486397023.42497 | pgbench_accounts |       1391173632
 2017-02-06 17:03:43.424968+01 | 1486397023.42497 | pgbench_tellers  |          3063808
 2017-02-06 17:03:43.424968+01 | 1486397023.42497 | pgbench_history  |        156229632
 2017-02-06 17:03:43.424968+01 | 1486397023.42497 | pgbench_branches |          1400832

 2017-02-06 17:03:44.51327+01 | 1486397024.51327 | pgbench_accounts |       1391173632
 2017-02-06 17:03:44.51327+01 | 1486397024.51327 | pgbench_tellers  |          3063808
 2017-02-06 17:03:44.51327+01 | 1486397024.51327 | pgbench_history  |        156811264
 2017-02-06 17:03:44.51327+01 | 1486397024.51327 | pgbench_branches |          1400832

 2017-02-06 17:03:45.597872+01 | 1486397025.59787 | pgbench_accounts |       1391173632
 2017-02-06 17:03:45.597872+01 | 1486397025.59787 | pgbench_tellers  |          3063808
 2017-02-06 17:03:45.597872+01 | 1486397025.59787 | pgbench_history  |        157417472
 2017-02-06 17:03:45.597872+01 | 1486397025.59787 | pgbench_branches |          1400832

 2017-02-06 17:03:46.688634+01 | 1486397026.68863 | pgbench_accounts |       1391173632
 2017-02-06 17:03:46.688634+01 | 1486397026.68863 | pgbench_tellers  |          3063808
 2017-02-06 17:03:46.688634+01 | 1486397026.68863 | pgbench_history  |        158212096
 2017-02-06 17:03:46.688634+01 | 1486397026.68863 | pgbench_branches |          1400832

 2017-02-06 17:03:47.777784+01 | 1486397027.77778 | pgbench_accounts |       1391173632
 2017-02-06 17:03:47.777784+01 | 1486397027.77778 | pgbench_tellers  |          3063808
 2017-02-06 17:03:47.777784+01 | 1486397027.77778 | pgbench_history  |        158638080
 2017-02-06 17:03:47.777784+01 | 1486397027.77778 | pgbench_branches |          1400832

 2017-02-06 17:03:48.861598+01 | 1486397028.8616 | pgbench_accounts |       1391173632
 2017-02-06 17:03:48.861598+01 | 1486397028.8616 | pgbench_tellers  |          3063808
 2017-02-06 17:03:48.861598+01 | 1486397028.8616 | pgbench_history  |        159334400
 2017-02-06 17:03:48.861598+01 | 1486397028.8616 | pgbench_branches |          1400832

 2017-02-06 17:03:49.947345+01 | 1486397029.94735 | pgbench_accounts |       1391173632
 2017-02-06 17:03:49.947345+01 | 1486397029.94735 | pgbench_tellers  |          3063808
 2017-02-06 17:03:49.947345+01 | 1486397029.94735 | pgbench_history  |        159899648
 2017-02-06 17:03:49.947345+01 | 1486397029.94735 | pgbench_branches |          1400832

 2017-02-06 17:03:51.042982+01 | 1486397031.04298 | pgbench_accounts |       1391173632
 2017-02-06 17:03:51.042982+01 | 1486397031.04298 | pgbench_tellers  |          3063808
 2017-02-06 17:03:51.042982+01 | 1486397031.04298 | pgbench_history  |        160612352
 2017-02-06 17:03:51.042982+01 | 1486397031.04298 | pgbench_branches |          1400832

 2017-02-06 17:03:52.122061+01 | 1486397032.12206 | pgbench_accounts |       1391173632
 2017-02-06 17:03:52.122061+01 | 1486397032.12206 | pgbench_tellers  |          3063808
 2017-02-06 17:03:52.122061+01 | 1486397032.12206 | pgbench_history  |        161226752
 2017-02-06 17:03:52.122061+01 | 1486397032.12206 | pgbench_branches |          1400832

 2017-02-06 17:03:53.200334+01 | 1486397033.20033 | pgbench_accounts |       1391173632
 2017-02-06 17:03:53.200334+01 | 1486397033.20033 | pgbench_tellers  |          3063808
 2017-02-06 17:03:53.200334+01 | 1486397033.20033 | pgbench_history  |        162127872
 2017-02-06 17:03:53.200334+01 | 1486397033.20033 | pgbench_branches |          1400832

 2017-02-06 17:03:54.289028+01 | 1486397034.28903 | pgbench_accounts |       1391173632
 2017-02-06 17:03:54.289028+01 | 1486397034.28903 | pgbench_tellers  |          3063808
 2017-02-06 17:03:54.289028+01 | 1486397034.28903 | pgbench_history  |        162504704
 2017-02-06 17:03:54.289028+01 | 1486397034.28903 | pgbench_branches |          1400832

 2017-02-06 17:03:55.365097+01 | 1486397035.3651 | pgbench_accounts |       1391173632
 2017-02-06 17:03:55.365097+01 | 1486397035.3651 | pgbench_tellers  |          3063808
 2017-02-06 17:03:55.365097+01 | 1486397035.3651 | pgbench_history  |        163127296
 2017-02-06 17:03:55.365097+01 | 1486397035.3651 | pgbench_branches |          1400832

 2017-02-06 17:03:56.455745+01 | 1486397036.45574 | pgbench_accounts |       1391173632
 2017-02-06 17:03:56.455745+01 | 1486397036.45574 | pgbench_tellers  |          3063808
 2017-02-06 17:03:56.455745+01 | 1486397036.45574 | pgbench_history  |        163708928
 2017-02-06 17:03:56.455745+01 | 1486397036.45574 | pgbench_branches |          1400832

 2017-02-06 17:03:57.545791+01 | 1486397037.54579 | pgbench_accounts |       1391173632
 2017-02-06 17:03:57.545791+01 | 1486397037.54579 | pgbench_tellers  |          3063808
 2017-02-06 17:03:57.545791+01 | 1486397037.54579 | pgbench_history  |        164454400
 2017-02-06 17:03:57.545791+01 | 1486397037.54579 | pgbench_branches |          1400832

 2017-02-06 17:03:58.63214+01 | 1486397038.63214 | pgbench_accounts |       1391173632
 2017-02-06 17:03:58.63214+01 | 1486397038.63214 | pgbench_tellers  |          3063808
 2017-02-06 17:03:58.63214+01 | 1486397038.63214 | pgbench_history  |        164798464
 2017-02-06 17:03:58.63214+01 | 1486397038.63214 | pgbench_branches |          1400832

 2017-02-06 17:03:59.720891+01 | 1486397039.72089 | pgbench_accounts |       1391173632
 2017-02-06 17:03:59.720891+01 | 1486397039.72089 | pgbench_tellers  |          3063808
 2017-02-06 17:03:59.720891+01 | 1486397039.72089 | pgbench_history  |        165396480
 2017-02-06 17:03:59.720891+01 | 1486397039.72089 | pgbench_branches |          1400832

 2017-02-06 17:04:00.81491+01 | 1486397040.81491 | pgbench_accounts |       1391173632
 2017-02-06 17:04:00.81491+01 | 1486397040.81491 | pgbench_tellers  |          3063808
 2017-02-06 17:04:00.81491+01 | 1486397040.81491 | pgbench_history  |        166051840
 2017-02-06 17:04:00.81491+01 | 1486397040.81491 | pgbench_branches |          1400832

 2017-02-06 17:04:01.908783+01 | 1486397041.90878 | pgbench_accounts |       1391173632
 2017-02-06 17:04:01.908783+01 | 1486397041.90878 | pgbench_tellers  |          3063808
 2017-02-06 17:04:01.908783+01 | 1486397041.90878 | pgbench_history  |        166649856
 2017-02-06 17:04:01.908783+01 | 1486397041.90878 | pgbench_branches |          1400832

 2017-02-06 17:04:03.003048+01 | 1486397043.00305 | pgbench_accounts |       1391173632
 2017-02-06 17:04:03.003048+01 | 1486397043.00305 | pgbench_tellers  |          3063808
 2017-02-06 17:04:03.003048+01 | 1486397043.00305 | pgbench_history  |        167288832
 2017-02-06 17:04:03.003048+01 | 1486397043.00305 | pgbench_branches |          1400832

 2017-02-06 17:04:04.079257+01 | 1486397044.07926 | pgbench_accounts |       1391173632
 2017-02-06 17:04:04.079257+01 | 1486397044.07926 | pgbench_tellers  |          3063808
 2017-02-06 17:04:04.079257+01 | 1486397044.07926 | pgbench_history  |        167878656
 2017-02-06 17:04:04.079257+01 | 1486397044.07926 | pgbench_branches |          1400832

 2017-02-06 17:04:05.169143+01 | 1486397045.16914 | pgbench_accounts |       1391173632
 2017-02-06 17:04:05.169143+01 | 1486397045.16914 | pgbench_tellers  |          3063808
 2017-02-06 17:04:05.169143+01 | 1486397045.16914 | pgbench_history  |        168640512
 2017-02-06 17:04:05.169143+01 | 1486397045.16914 | pgbench_branches |          1400832

 2017-02-06 17:04:06.244592+01 | 1486397046.24459 | pgbench_accounts |       1391173632
 2017-02-06 17:04:06.244592+01 | 1486397046.24459 | pgbench_tellers  |          3063808
 2017-02-06 17:04:06.244592+01 | 1486397046.24459 | pgbench_history  |        169107456
 2017-02-06 17:04:06.244592+01 | 1486397046.24459 | pgbench_branches |          1400832

 2017-02-06 17:04:07.326614+01 | 1486397047.32661 | pgbench_accounts |       1391173632
 2017-02-06 17:04:07.326614+01 | 1486397047.32661 | pgbench_tellers  |          3063808
 2017-02-06 17:04:07.326614+01 | 1486397047.32661 | pgbench_history  |        169697280
 2017-02-06 17:04:07.326614+01 | 1486397047.32661 | pgbench_branches |          1400832

