 2017-02-06 03:16:17.353157+01 | 1486347377.35316 |                 0 |              21 |                   794 |                   14 |                 53 |          1217 |                9 |         4916020 |                     0 |     633136357 | 2017-02-06 01:32:13.946157+01

 2017-02-06 03:16:18.441252+01 | 1486347378.44125 |                 0 |              21 |                   794 |                   14 |                 53 |          1217 |                9 |         4916020 |                     0 |     633183286 | 2017-02-06 01:32:13.946157+01

 2017-02-06 03:16:19.530286+01 | 1486347379.53029 |                 0 |              21 |                   794 |                   14 |                 53 |          1217 |                9 |         4916020 |                     0 |     633229288 | 2017-02-06 01:32:13.946157+01

 2017-02-06 03:16:20.619675+01 | 1486347380.61967 |                 0 |              21 |                   794 |                   14 |                 53 |          1217 |                9 |         4916020 |                     0 |     633284736 | 2017-02-06 01:32:13.946157+01

 2017-02-06 03:16:21.705904+01 | 1486347381.7059 |                 0 |              21 |                   794 |                   14 |                 53 |          1217 |                9 |         4916020 |                     0 |     633331973 | 2017-02-06 01:32:13.946157+01

 2017-02-06 03:16:22.778438+01 | 1486347382.77844 |                 0 |              21 |                   794 |                   14 |                 53 |          1217 |                9 |         4916020 |                     0 |     633379541 | 2017-02-06 01:32:13.946157+01

 2017-02-06 03:16:23.868378+01 | 1486347383.86838 |                 0 |              21 |                   794 |                   14 |                 53 |          1217 |                9 |         4916020 |                     0 |     633438240 | 2017-02-06 01:32:13.946157+01

 2017-02-06 03:16:24.947393+01 | 1486347384.94739 |                 0 |              21 |                   794 |                   14 |                 53 |          1217 |                9 |         4916020 |                     0 |     633486022 | 2017-02-06 01:32:13.946157+01

 2017-02-06 03:16:26.029256+01 | 1486347386.02926 |                 0 |              21 |                   794 |                   14 |                 53 |          1217 |                9 |         4916020 |                     0 |     633534835 | 2017-02-06 01:32:13.946157+01

 2017-02-06 03:16:27.108563+01 | 1486347387.10856 |                 0 |              21 |                   794 |                   14 |                 53 |          1217 |                9 |         4916020 |                     0 |     633593635 | 2017-02-06 01:32:13.946157+01

 2017-02-06 03:16:28.192617+01 | 1486347388.19262 |                 0 |              21 |                   794 |                   14 |                 53 |          1217 |                9 |         4916020 |                     0 |     633642625 | 2017-02-06 01:32:13.946157+01

 2017-02-06 03:16:29.262688+01 | 1486347389.26269 |                 0 |              21 |                   794 |                   14 |                 53 |          1218 |                9 |         4916020 |                     0 |     633701778 | 2017-02-06 01:32:13.946157+01

 2017-02-06 03:16:30.358089+01 | 1486347390.35809 |                 0 |              21 |                   794 |                   14 |                 53 |          1218 |                9 |         4916020 |                     0 |     633751127 | 2017-02-06 01:32:13.946157+01

 2017-02-06 03:16:31.436946+01 | 1486347391.43695 |                 0 |              21 |                   794 |                   14 |                 53 |          1218 |                9 |         4916020 |                     0 |     633800770 | 2017-02-06 01:32:13.946157+01

 2017-02-06 03:16:32.515057+01 | 1486347392.51506 |                 0 |              21 |                   794 |                   14 |                 53 |          1218 |                9 |         4916020 |                     0 |     633858154 | 2017-02-06 01:32:13.946157+01

 2017-02-06 03:16:33.595115+01 | 1486347393.59511 |                 0 |              21 |                   794 |                   14 |                 53 |          1218 |                9 |         4916020 |                     0 |     633908555 | 2017-02-06 01:32:13.946157+01

 2017-02-06 03:16:34.676211+01 | 1486347394.67621 |                 0 |              21 |                   794 |                   14 |                 53 |          1220 |                9 |         4916020 |                     0 |     633958827 | 2017-02-06 01:32:13.946157+01

 2017-02-06 03:16:35.748294+01 | 1486347395.74829 |                 0 |              21 |                   794 |                   14 |                 53 |          1220 |                9 |         4916020 |                     0 |     634016717 | 2017-02-06 01:32:13.946157+01

 2017-02-06 03:16:36.826955+01 | 1486347396.82696 |                 0 |              21 |                   794 |                   14 |                 53 |          1220 |                9 |         4916020 |                     0 |     634066347 | 2017-02-06 01:32:13.946157+01

 2017-02-06 03:16:37.915078+01 | 1486347397.91508 |                 0 |              21 |                   794 |                   14 |                 53 |          1220 |                9 |         4916020 |                     0 |     634115664 | 2017-02-06 01:32:13.946157+01

 2017-02-06 03:16:38.996808+01 | 1486347398.99681 |                 0 |              21 |                   794 |                   14 |                 53 |          1220 |                9 |         4916020 |                     0 |     634175834 | 2017-02-06 01:32:13.946157+01

 2017-02-06 03:16:40.079576+01 | 1486347400.07958 |                 0 |              21 |                   794 |                   14 |                 53 |          1220 |                9 |         4916020 |                     0 |     634225249 | 2017-02-06 01:32:13.946157+01

 2017-02-06 03:16:41.155772+01 | 1486347401.15577 |                 0 |              21 |                   794 |                   14 |                 53 |          1220 |                9 |         4916020 |                     0 |     634273661 | 2017-02-06 01:32:13.946157+01

 2017-02-06 03:16:42.229174+01 | 1486347402.22917 |                 0 |              21 |                   794 |                   14 |                 53 |          1220 |                9 |         4916020 |                     0 |     634335289 | 2017-02-06 01:32:13.946157+01

 2017-02-06 03:16:43.30477+01 | 1486347403.30477 |                 0 |              21 |                   794 |                   14 |                 53 |          1220 |                9 |         4916020 |                     0 |     634386415 | 2017-02-06 01:32:13.946157+01

 2017-02-06 03:16:44.384298+01 | 1486347404.3843 |                 0 |              21 |                   794 |                   14 |                 53 |          1220 |                9 |         4916020 |                     0 |     634438257 | 2017-02-06 01:32:13.946157+01

 2017-02-06 03:16:45.453576+01 | 1486347405.45358 |                 0 |              21 |                   794 |                   14 |                 53 |          1220 |                9 |         4916020 |                     0 |     634498176 | 2017-02-06 01:32:13.946157+01

 2017-02-06 03:16:46.531975+01 | 1486347406.53198 |                 0 |              21 |                   794 |                   14 |                 53 |          1220 |                9 |         4916020 |                     0 |     634547065 | 2017-02-06 01:32:13.946157+01

 2017-02-06 03:16:47.609807+01 | 1486347407.60981 |                 0 |              21 |                   794 |                   14 |                 53 |          1220 |                9 |         4916020 |                     0 |     634596277 | 2017-02-06 01:32:13.946157+01

 2017-02-06 03:16:48.693501+01 | 1486347408.6935 |                 0 |              21 |                   794 |                   14 |                 53 |          1220 |                9 |         4916020 |                     0 |     634656720 | 2017-02-06 01:32:13.946157+01

 2017-02-06 03:16:49.772999+01 | 1486347409.773 |                 0 |              21 |                   794 |                   14 |                 53 |          1220 |                9 |         4916020 |                     0 |     634706614 | 2017-02-06 01:32:13.946157+01

 2017-02-06 03:16:50.862563+01 | 1486347410.86256 |                 0 |              21 |                   794 |                   14 |                 53 |          1221 |                9 |         4916020 |                     0 |     634766733 | 2017-02-06 01:32:13.946157+01

 2017-02-06 03:16:51.931628+01 | 1486347411.93163 |                 0 |              21 |                   794 |                   14 |                 53 |          1221 |                9 |         4916020 |                     0 |     634815586 | 2017-02-06 01:32:13.946157+01

 2017-02-06 03:16:53.01446+01 | 1486347413.01446 |                 0 |              21 |                   794 |                   14 |                 53 |          1221 |                9 |         4916020 |                     0 |     634864584 | 2017-02-06 01:32:13.946157+01

 2017-02-06 03:16:54.094803+01 | 1486347414.0948 |                 0 |              21 |                   794 |                   14 |                 53 |          1221 |                9 |         4916020 |                     0 |     634924786 | 2017-02-06 01:32:13.946157+01

 2017-02-06 03:16:55.175628+01 | 1486347415.17563 |                 0 |              21 |                   794 |                   14 |                 53 |          1221 |                9 |         4916020 |                     0 |     634974467 | 2017-02-06 01:32:13.946157+01

 2017-02-06 03:16:56.254593+01 | 1486347416.25459 |                 0 |              21 |                   794 |                   14 |                 53 |          1221 |                9 |         4916020 |                     0 |     635024873 | 2017-02-06 01:32:13.946157+01

 2017-02-06 03:16:57.322112+01 | 1486347417.32211 |                 0 |              21 |                   794 |                   14 |                 53 |          1221 |                9 |         4916020 |                     0 |     635084118 | 2017-02-06 01:32:13.946157+01

 2017-02-06 03:16:58.403516+01 | 1486347418.40352 |                 0 |              21 |                   794 |                   14 |                 53 |          1221 |                9 |         4916020 |                     0 |     635133506 | 2017-02-06 01:32:13.946157+01

 2017-02-06 03:16:59.478141+01 | 1486347419.47814 |                 0 |              21 |                   794 |                   14 |                 53 |          1221 |                9 |         4916020 |                     0 |     635183987 | 2017-02-06 01:32:13.946157+01

 2017-02-06 03:17:00.554455+01 | 1486347420.55446 |                 0 |              21 |                   794 |                   14 |                 53 |          1221 |                9 |         4916020 |                     0 |     635244425 | 2017-02-06 01:32:13.946157+01

 2017-02-06 03:17:01.637315+01 | 1486347421.63732 |                 0 |              21 |                   794 |                   14 |                 53 |          1221 |                9 |         4916020 |                     0 |     635294232 | 2017-02-06 01:32:13.946157+01

 2017-02-06 03:17:02.708306+01 | 1486347422.70831 |                 0 |              21 |                   794 |                   14 |                 53 |          1221 |                9 |         4916020 |                     0 |     635344253 | 2017-02-06 01:32:13.946157+01

 2017-02-06 03:17:03.796223+01 | 1486347423.79622 |                 0 |              21 |                   794 |                   14 |                 53 |          1221 |                9 |         4916020 |                     0 |     635406421 | 2017-02-06 01:32:13.946157+01

 2017-02-06 03:17:04.878401+01 | 1486347424.8784 |                 0 |              21 |                   794 |                   14 |                 53 |          1221 |                9 |         4916020 |                     0 |     635456608 | 2017-02-06 01:32:13.946157+01

 2017-02-06 03:17:05.949562+01 | 1486347425.94956 |                 0 |              21 |                   794 |                   14 |                 53 |          1221 |                9 |         4916020 |                     0 |     635507661 | 2017-02-06 01:32:13.946157+01

 2017-02-06 03:17:07.026522+01 | 1486347427.02652 |                 0 |              21 |                   794 |                   14 |                 53 |          1221 |                9 |         4916020 |                     0 |     635566743 | 2017-02-06 01:32:13.946157+01

 2017-02-06 03:17:08.092551+01 | 1486347428.09255 |                 0 |              21 |                   794 |                   14 |                 53 |          1221 |                9 |         4916020 |                     0 |     635617110 | 2017-02-06 01:32:13.946157+01

 2017-02-06 03:17:09.164435+01 | 1486347429.16443 |                 0 |              21 |                   794 |                   14 |                 53 |          1221 |                9 |         4916020 |                     0 |     635667075 | 2017-02-06 01:32:13.946157+01

 2017-02-06 03:17:10.244053+01 | 1486347430.24405 |                 0 |              21 |                   794 |                   14 |                 53 |          1221 |                9 |         4916020 |                     0 |     635726906 | 2017-02-06 01:32:13.946157+01

 2017-02-06 03:17:11.331576+01 | 1486347431.33158 |                 0 |              21 |                   794 |                   14 |                 53 |          1221 |                9 |         4916020 |                     0 |     635775023 | 2017-02-06 01:32:13.946157+01

 2017-02-06 03:17:12.410887+01 | 1486347432.41089 |                 0 |              21 |                   794 |                   14 |                 53 |          1221 |                9 |         4916020 |                     0 |     635825921 | 2017-02-06 01:32:13.946157+01

 2017-02-06 03:17:13.485505+01 | 1486347433.48551 |                 0 |              21 |                   794 |                   14 |                 53 |          1221 |                9 |         4916020 |                     0 |     635886504 | 2017-02-06 01:32:13.946157+01

 2017-02-06 03:17:14.56997+01 | 1486347434.56997 |                 0 |              21 |                   794 |                   14 |                 53 |          1221 |                9 |         4916020 |                     0 |     635937592 | 2017-02-06 01:32:13.946157+01

 2017-02-06 03:17:15.643188+01 | 1486347435.64319 |                 0 |              21 |                   794 |                   14 |                 53 |          1221 |                9 |         4916020 |                     0 |     635990084 | 2017-02-06 01:32:13.946157+01

 2017-02-06 03:17:16.732791+01 | 1486347436.73279 |                 0 |              21 |                   794 |                   14 |                 53 |          1221 |                9 |         4916020 |                     0 |     636051013 | 2017-02-06 01:32:13.946157+01

 2017-02-06 03:17:17.811736+01 | 1486347437.81174 |                 0 |              21 |                   794 |                   14 |                 53 |          1221 |                9 |         4916020 |                     0 |     636101086 | 2017-02-06 01:32:13.946157+01

 2017-02-06 03:17:18.881814+01 | 1486347438.88181 |                 0 |              21 |                   794 |                   14 |                 53 |          1221 |                9 |         4916020 |                     0 |     636151912 | 2017-02-06 01:32:13.946157+01

 2017-02-06 03:17:19.970054+01 | 1486347439.97005 |                 0 |              21 |                   794 |                   14 |                 53 |          1221 |                9 |         4916020 |                     0 |     636212522 | 2017-02-06 01:32:13.946157+01

 2017-02-06 03:17:21.0532+01 | 1486347441.0532 |                 0 |              21 |                   794 |                   14 |                 53 |          1221 |                9 |         4916020 |                     0 |     636262530 | 2017-02-06 01:32:13.946157+01

 2017-02-06 03:17:22.143912+01 | 1486347442.14391 |                 0 |              21 |                   794 |                   14 |                 53 |          1221 |                9 |         4916020 |                     0 |     636321692 | 2017-02-06 01:32:13.946157+01

 2017-02-06 03:17:23.229013+01 | 1486347443.22901 |                 0 |              21 |                   794 |                   14 |                 53 |          1221 |                9 |         4916020 |                     0 |     636372727 | 2017-02-06 01:32:13.946157+01

 2017-02-06 03:17:24.313507+01 | 1486347444.31351 |                 0 |              21 |                   794 |                   14 |                 53 |          1221 |                9 |         4916020 |                     0 |     636421832 | 2017-02-06 01:32:13.946157+01

 2017-02-06 03:17:25.389109+01 | 1486347445.38911 |                 0 |              21 |                   794 |                   14 |                 53 |          1221 |                9 |         4916020 |                     0 |     636481335 | 2017-02-06 01:32:13.946157+01

 2017-02-06 03:17:26.473012+01 | 1486347446.47301 |                 0 |              21 |                   794 |                   14 |                 53 |          1221 |                9 |         4916020 |                     0 |     636532458 | 2017-02-06 01:32:13.946157+01

 2017-02-06 03:17:27.552657+01 | 1486347447.55266 |                 0 |              21 |                   794 |                   14 |                 53 |          1221 |                9 |         4916020 |                     0 |     636582224 | 2017-02-06 01:32:13.946157+01

 2017-02-06 03:17:28.626265+01 | 1486347448.62627 |                 0 |              21 |                   794 |                   14 |                 53 |          1221 |                9 |         4916020 |                     0 |     636642252 | 2017-02-06 01:32:13.946157+01

 2017-02-06 03:17:29.707939+01 | 1486347449.70794 |                 0 |              21 |                   794 |                   14 |                 53 |          1221 |                9 |         4916020 |                     0 |     636693155 | 2017-02-06 01:32:13.946157+01

 2017-02-06 03:17:30.784172+01 | 1486347450.78417 |                 0 |              21 |                   794 |                   14 |                 53 |          1221 |                9 |         4916020 |                     0 |     636741643 | 2017-02-06 01:32:13.946157+01

 2017-02-06 03:17:31.867748+01 | 1486347451.86775 |                 0 |              21 |                   794 |                   14 |                 53 |          1221 |                9 |         4916020 |                     0 |     636801140 | 2017-02-06 01:32:13.946157+01

 2017-02-06 03:17:32.94601+01 | 1486347452.94601 |                 0 |              21 |                   794 |                   14 |                 53 |          1221 |                9 |         4916020 |                     0 |     636851390 | 2017-02-06 01:32:13.946157+01

 2017-02-06 03:17:34.031269+01 | 1486347454.03127 |                 0 |              21 |                   794 |                   14 |                 53 |          1221 |                9 |         4916020 |                     0 |     636912182 | 2017-02-06 01:32:13.946157+01

 2017-02-06 03:17:35.109695+01 | 1486347455.10969 |                 0 |              21 |                   794 |                   14 |                 53 |          1221 |                9 |         4916020 |                     0 |     636962239 | 2017-02-06 01:32:13.946157+01

 2017-02-06 03:17:36.190099+01 | 1486347456.1901 |                 0 |              21 |                   794 |                   14 |                 53 |          1221 |                9 |         4916020 |                     0 |     637013368 | 2017-02-06 01:32:13.946157+01

 2017-02-06 03:17:37.272368+01 | 1486347457.27237 |                 0 |              21 |                   794 |                   14 |                 53 |          1221 |                9 |         4916020 |                     0 |     637075321 | 2017-02-06 01:32:13.946157+01

 2017-02-06 03:17:38.349999+01 | 1486347458.35 |                 0 |              21 |                   794 |                   14 |                 53 |          1221 |                9 |         4916020 |                     0 |     637126735 | 2017-02-06 01:32:13.946157+01

 2017-02-06 03:17:39.436892+01 | 1486347459.43689 |                 0 |              21 |                   794 |                   14 |                 53 |          1221 |                9 |         4916020 |                     0 |     637176910 | 2017-02-06 01:32:13.946157+01

 2017-02-06 03:17:40.511105+01 | 1486347460.51111 |                 0 |              21 |                   794 |                   14 |                 53 |          1221 |                9 |         4916020 |                     0 |     637237563 | 2017-02-06 01:32:13.946157+01

 2017-02-06 03:17:41.587359+01 | 1486347461.58736 |                 0 |              21 |                   794 |                   14 |                 53 |          1221 |                9 |         4916020 |                     0 |     637286943 | 2017-02-06 01:32:13.946157+01

 2017-02-06 03:17:42.658962+01 | 1486347462.65896 |                 0 |              21 |                   794 |                   14 |                 53 |          1221 |                9 |         4916020 |                     0 |     637337753 | 2017-02-06 01:32:13.946157+01

 2017-02-06 03:17:43.734079+01 | 1486347463.73408 |                 0 |              21 |                   794 |                   14 |                 53 |          1221 |                9 |         4916020 |                     0 |     637397078 | 2017-02-06 01:32:13.946157+01

 2017-02-06 03:17:44.809951+01 | 1486347464.80995 |                 0 |              21 |                   794 |                   14 |                 53 |          1221 |                9 |         4916020 |                     0 |     637448437 | 2017-02-06 01:32:13.946157+01

 2017-02-06 03:17:45.889491+01 | 1486347465.88949 |                 0 |              21 |                   794 |                   14 |                 53 |          1221 |                9 |         4916020 |                     0 |     637498020 | 2017-02-06 01:32:13.946157+01

 2017-02-06 03:17:46.956486+01 | 1486347466.95649 |                 0 |              21 |                   794 |                   14 |                 53 |          1221 |                9 |         4916020 |                     0 |     637547540 | 2017-02-06 01:32:13.946157+01

 2017-02-06 03:17:48.044766+01 | 1486347468.04477 |                 0 |              21 |                   794 |                   14 |                 53 |          1221 |                9 |         4916020 |                     0 |     637606340 | 2017-02-06 01:32:13.946157+01

 2017-02-06 03:17:49.127189+01 | 1486347469.12719 |                 0 |              21 |                   794 |                   14 |                 53 |          1221 |                9 |         4916020 |                     0 |     637655799 | 2017-02-06 01:32:13.946157+01

 2017-02-06 03:17:50.197555+01 | 1486347470.19756 |                 0 |              21 |                   794 |                   14 |                 53 |          1221 |                9 |         4916020 |                     0 |     637716727 | 2017-02-06 01:32:13.946157+01

 2017-02-06 03:17:51.275441+01 | 1486347471.27544 |                 0 |              21 |                   794 |                   14 |                 53 |          1221 |                9 |         4916020 |                     0 |     637766283 | 2017-02-06 01:32:13.946157+01

 2017-02-06 03:17:52.368604+01 | 1486347472.3686 |                 0 |              21 |                   794 |                   14 |                 53 |          1221 |                9 |         4916020 |                     0 |     637817037 | 2017-02-06 01:32:13.946157+01

 2017-02-06 03:17:53.449612+01 | 1486347473.44961 |                 0 |              21 |                   794 |                   14 |                 53 |          1221 |                9 |         4916020 |                     0 |     637879526 | 2017-02-06 01:32:13.946157+01

 2017-02-06 03:17:54.523639+01 | 1486347474.52364 |                 0 |              21 |                   794 |                   14 |                 53 |          1221 |                9 |         4916020 |                     0 |     637930420 | 2017-02-06 01:32:13.946157+01

 2017-02-06 03:17:55.604378+01 | 1486347475.60438 |                 0 |              21 |                   794 |                   14 |                 53 |          1221 |                9 |         4916020 |                     0 |     637980180 | 2017-02-06 01:32:13.946157+01

 2017-02-06 03:17:56.680239+01 | 1486347476.68024 |                 0 |              21 |                   794 |                   14 |                 53 |          1221 |                9 |         4916020 |                     0 |     638039655 | 2017-02-06 01:32:13.946157+01

 2017-02-06 03:17:57.749086+01 | 1486347477.74909 |                 0 |              21 |                   794 |                   14 |                 53 |          1221 |                9 |         4916020 |                     0 |     638090209 | 2017-02-06 01:32:13.946157+01

 2017-02-06 03:17:58.832752+01 | 1486347478.83275 |                 0 |              21 |                   794 |                   14 |                 53 |          1221 |                9 |         4916020 |                     0 |     638141281 | 2017-02-06 01:32:13.946157+01

 2017-02-06 03:17:59.904621+01 | 1486347479.90462 |                 0 |              21 |                   794 |                   14 |                 53 |          1221 |                9 |         4916020 |                     0 |     638202568 | 2017-02-06 01:32:13.946157+01

 2017-02-06 03:18:00.989729+01 | 1486347480.98973 |                 0 |              21 |                   794 |                   14 |                 53 |          1221 |                9 |         4916020 |                     0 |     638253981 | 2017-02-06 01:32:13.946157+01

 2017-02-06 03:18:02.068057+01 | 1486347482.06806 |                 0 |              21 |                   794 |                   14 |                 53 |          1221 |                9 |         4916020 |                     0 |     638314976 | 2017-02-06 01:32:13.946157+01

 2017-02-06 03:18:03.153907+01 | 1486347483.15391 |                 0 |              21 |                   794 |                   14 |                 53 |          1221 |                9 |         4916020 |                     0 |     638366614 | 2017-02-06 01:32:13.946157+01

 2017-02-06 03:18:04.23471+01 | 1486347484.23471 |                 0 |              21 |                   794 |                   14 |                 53 |          1221 |                9 |         4916020 |                     0 |     638415880 | 2017-02-06 01:32:13.946157+01

 2017-02-06 03:18:05.317759+01 | 1486347485.31776 |                 0 |              21 |                   794 |                   14 |                 53 |          1221 |                9 |         4916020 |                     0 |     638477253 | 2017-02-06 01:32:13.946157+01

 2017-02-06 03:18:06.386615+01 | 1486347486.38662 |                 0 |              21 |                   794 |                   14 |                 53 |          1221 |                9 |         4916020 |                     0 |     638528887 | 2017-02-06 01:32:13.946157+01

 2017-02-06 03:18:07.469583+01 | 1486347487.46958 |                 0 |              21 |                   794 |                   14 |                 53 |          1221 |                9 |         4916020 |                     0 |     638579800 | 2017-02-06 01:32:13.946157+01

 2017-02-06 03:18:08.558405+01 | 1486347488.5584 |                 0 |              21 |                   794 |                   14 |                 53 |          1221 |                9 |         4916020 |                     0 |     638640531 | 2017-02-06 01:32:13.946157+01

 2017-02-06 03:18:09.639629+01 | 1486347489.63963 |                 0 |              21 |                   794 |                   14 |                 53 |          1221 |                9 |         4916020 |                     0 |     638690666 | 2017-02-06 01:32:13.946157+01

 2017-02-06 03:18:10.719526+01 | 1486347490.71953 |                 0 |              21 |                   794 |                   14 |                 53 |          1221 |                9 |         4916020 |                     0 |     638741337 | 2017-02-06 01:32:13.946157+01

 2017-02-06 03:18:11.801557+01 | 1486347491.80156 |                 0 |              21 |                   794 |                   14 |                 53 |          1221 |                9 |         4916020 |                     0 |     638801511 | 2017-02-06 01:32:13.946157+01

 2017-02-06 03:18:12.88067+01 | 1486347492.88067 |                 0 |              21 |                   794 |                   14 |                 53 |          1221 |                9 |         4916020 |                     0 |     638852330 | 2017-02-06 01:32:13.946157+01

 2017-02-06 03:18:13.95805+01 | 1486347493.95805 |                 0 |              21 |                   794 |                   14 |                 53 |          1221 |                9 |         4916020 |                     0 |     638913641 | 2017-02-06 01:32:13.946157+01

 2017-02-06 03:18:15.038811+01 | 1486347495.03881 |                 0 |              21 |                   794 |                   14 |                 53 |          1221 |                9 |         4916020 |                     0 |     638964269 | 2017-02-06 01:32:13.946157+01

 2017-02-06 03:18:16.123254+01 | 1486347496.12325 |                 0 |              21 |                   794 |                   14 |                 53 |          1221 |                9 |         4916020 |                     0 |     639014476 | 2017-02-06 01:32:13.946157+01

 2017-02-06 03:18:17.208902+01 | 1486347497.2089 |                 0 |              21 |                   794 |                   14 |                 53 |          1221 |                9 |         4916020 |                     0 |     639074139 | 2017-02-06 01:32:13.946157+01

 2017-02-06 03:18:18.285374+01 | 1486347498.28537 |                 0 |              21 |                   794 |                   14 |                 53 |          1221 |                9 |         4916020 |                     0 |     639124471 | 2017-02-06 01:32:13.946157+01

 2017-02-06 03:18:19.36859+01 | 1486347499.36859 |                 0 |              21 |                   794 |                   14 |                 53 |          1221 |                9 |         4916020 |                     0 |     639175507 | 2017-02-06 01:32:13.946157+01

 2017-02-06 03:18:20.452227+01 | 1486347500.45223 |                 0 |              21 |                   794 |                   14 |                 53 |          1221 |                9 |         4916020 |                     0 |     639236376 | 2017-02-06 01:32:13.946157+01

 2017-02-06 03:18:21.535557+01 | 1486347501.53556 |                 0 |              21 |                   794 |                   14 |                 53 |          1221 |                9 |         4916020 |                     0 |     639287101 | 2017-02-06 01:32:13.946157+01

 2017-02-06 03:18:22.616719+01 | 1486347502.61672 |                 0 |              21 |                   794 |                   14 |                 53 |          1221 |                9 |         4916020 |                     0 |     639339047 | 2017-02-06 01:32:13.946157+01

 2017-02-06 03:18:23.70727+01 | 1486347503.70727 |                 0 |              21 |                   794 |                   14 |                 53 |          1221 |                9 |         4916020 |                     0 |     639399467 | 2017-02-06 01:32:13.946157+01

 2017-02-06 03:18:24.780733+01 | 1486347504.78073 |                 0 |              21 |                   794 |                   14 |                 53 |          1221 |                9 |         4916020 |                     0 |     639449763 | 2017-02-06 01:32:13.946157+01

 2017-02-06 03:18:25.862575+01 | 1486347505.86258 |                 0 |              21 |                   794 |                   14 |                 53 |          1221 |                9 |         4916020 |                     0 |     639499441 | 2017-02-06 01:32:13.946157+01

 2017-02-06 03:18:26.945422+01 | 1486347506.94542 |                 0 |              21 |                   794 |                   14 |                 53 |          1221 |                9 |         4916020 |                     0 |     639559794 | 2017-02-06 01:32:13.946157+01

 2017-02-06 03:18:28.031043+01 | 1486347508.03104 |                 0 |              21 |                   794 |                   14 |                 53 |          1221 |                9 |         4916020 |                     0 |     639609695 | 2017-02-06 01:32:13.946157+01

 2017-02-06 03:18:29.10545+01 | 1486347509.10545 |                 0 |              21 |                   794 |                   14 |                 53 |          1221 |                9 |         4916020 |                     0 |     639670908 | 2017-02-06 01:32:13.946157+01

 2017-02-06 03:18:30.188458+01 | 1486347510.18846 |                 0 |              21 |                   794 |                   14 |                 53 |          1221 |                9 |         4916020 |                     0 |     639722221 | 2017-02-06 01:32:13.946157+01

 2017-02-06 03:18:31.280466+01 | 1486347511.28047 |                 0 |              21 |                   794 |                   14 |                 53 |          1221 |                9 |         4916020 |                     0 |     639773016 | 2017-02-06 01:32:13.946157+01

 2017-02-06 03:18:32.356787+01 | 1486347512.35679 |                 0 |              21 |                   794 |                   14 |                 53 |          1221 |                9 |         4916020 |                     0 |     639835145 | 2017-02-06 01:32:13.946157+01

 2017-02-06 03:18:33.441306+01 | 1486347513.44131 |                 0 |              21 |                   794 |                   14 |                 53 |          1221 |                9 |         4916020 |                     0 |     639886657 | 2017-02-06 01:32:13.946157+01

 2017-02-06 03:18:34.524057+01 | 1486347514.52406 |                 0 |              21 |                   794 |                   14 |                 53 |          1221 |                9 |         4916020 |                     0 |     639937842 | 2017-02-06 01:32:13.946157+01

 2017-02-06 03:18:35.595564+01 | 1486347515.59556 |                 0 |              21 |                   794 |                   14 |                 53 |          1221 |                9 |         4916020 |                     0 |     639998682 | 2017-02-06 01:32:13.946157+01

 2017-02-06 03:18:36.66774+01 | 1486347516.66774 |                 0 |              21 |                   794 |                   14 |                 53 |          1221 |                9 |         4916020 |                     0 |     640051193 | 2017-02-06 01:32:13.946157+01

 2017-02-06 03:18:37.760935+01 | 1486347517.76094 |                 0 |              21 |                   794 |                   14 |                 53 |          1221 |                9 |         4916020 |                     0 |     640102872 | 2017-02-06 01:32:13.946157+01

 2017-02-06 03:18:38.845919+01 | 1486347518.84592 |                 0 |              21 |                   794 |                   14 |                 53 |          1221 |                9 |         4916020 |                     0 |     640163357 | 2017-02-06 01:32:13.946157+01

 2017-02-06 03:18:39.915546+01 | 1486347519.91555 |                 0 |              21 |                   794 |                   14 |                 53 |          1221 |                9 |         4916020 |                     0 |     640213117 | 2017-02-06 01:32:13.946157+01

 2017-02-06 03:18:40.988904+01 | 1486347520.9889 |                 0 |              21 |                   794 |                   14 |                 53 |          1221 |                9 |         4916020 |                     0 |     640262531 | 2017-02-06 01:32:13.946157+01

 2017-02-06 03:18:42.074296+01 | 1486347522.0743 |                 0 |              21 |                   794 |                   14 |                 53 |          1221 |                9 |         4916020 |                     0 |     640323538 | 2017-02-06 01:32:13.946157+01

 2017-02-06 03:18:43.153098+01 | 1486347523.1531 |                 0 |              21 |                   794 |                   14 |                 53 |          1221 |                9 |         4916020 |                     0 |     640373982 | 2017-02-06 01:32:13.946157+01

 2017-02-06 03:18:44.239427+01 | 1486347524.23943 |                 0 |              21 |                   794 |                   14 |                 53 |          1221 |                9 |         4916020 |                     0 |     640435220 | 2017-02-06 01:32:13.946157+01

 2017-02-06 03:18:45.321704+01 | 1486347525.3217 |                 0 |              21 |                   794 |                   14 |                 53 |          1221 |                9 |         4916020 |                     0 |     640486436 | 2017-02-06 01:32:13.946157+01

 2017-02-06 03:18:46.393321+01 | 1486347526.39332 |                 0 |              21 |                   794 |                   14 |                 53 |          1221 |                9 |         4916020 |                     0 |     640537961 | 2017-02-06 01:32:13.946157+01

 2017-02-06 03:18:47.467315+01 | 1486347527.46731 |                 0 |              21 |                   794 |                   14 |                 53 |          1221 |                9 |         4916020 |                     0 |     640597258 | 2017-02-06 01:32:13.946157+01

 2017-02-06 03:18:48.545465+01 | 1486347528.54546 |                 0 |              21 |                   794 |                   14 |                 53 |          1221 |                9 |         4916020 |                     0 |     640647447 | 2017-02-06 01:32:13.946157+01

 2017-02-06 03:18:49.620409+01 | 1486347529.62041 |                 0 |              21 |                   794 |                   14 |                 53 |          1221 |                9 |         4916020 |                     0 |     640698018 | 2017-02-06 01:32:13.946157+01

 2017-02-06 03:18:50.707132+01 | 1486347530.70713 |                 0 |              21 |                   794 |                   14 |                 53 |          1221 |                9 |         4916020 |                     0 |     640758201 | 2017-02-06 01:32:13.946157+01

 2017-02-06 03:18:51.782256+01 | 1486347531.78226 |                 0 |              21 |                   794 |                   14 |                 53 |          1221 |                9 |         4916020 |                     0 |     640808323 | 2017-02-06 01:32:13.946157+01

 2017-02-06 03:18:52.861698+01 | 1486347532.8617 |                 0 |              21 |                   794 |                   14 |                 53 |          1221 |                9 |         4916020 |                     0 |     640859550 | 2017-02-06 01:32:13.946157+01

 2017-02-06 03:18:53.946835+01 | 1486347533.94684 |                 0 |              21 |                   794 |                   14 |                 53 |          1221 |                9 |         4916020 |                     0 |     640921259 | 2017-02-06 01:32:13.946157+01

 2017-02-06 03:18:55.030917+01 | 1486347535.03092 |                 0 |              21 |                   794 |                   14 |                 53 |          1221 |                9 |         4916020 |                     0 |     640970756 | 2017-02-06 01:32:13.946157+01

 2017-02-06 03:18:56.117245+01 | 1486347536.11724 |                 0 |              21 |                   794 |                   14 |                 53 |          1221 |                9 |         4916020 |                     0 |     641021961 | 2017-02-06 01:32:13.946157+01

 2017-02-06 03:18:57.19728+01 | 1486347537.19728 |                 0 |              21 |                   794 |                   14 |                 53 |          1221 |                9 |         4916020 |                     0 |     641083239 | 2017-02-06 01:32:13.946157+01

 2017-02-06 03:18:58.274206+01 | 1486347538.27421 |                 0 |              21 |                   794 |                   14 |                 53 |          1221 |                9 |         4916020 |                     0 |     641134286 | 2017-02-06 01:32:13.946157+01

 2017-02-06 03:18:59.348389+01 | 1486347539.34839 |                 0 |              21 |                   794 |                   14 |                 53 |          1221 |                9 |         4916020 |                     0 |     641184603 | 2017-02-06 01:32:13.946157+01

 2017-02-06 03:19:00.420479+01 | 1486347540.42048 |                 0 |              21 |                   794 |                   14 |                 53 |          1221 |                9 |         4916020 |                     0 |     641246736 | 2017-02-06 01:32:13.946157+01

 2017-02-06 03:19:01.506697+01 | 1486347541.5067 |                 0 |              21 |                   794 |                   14 |                 53 |          1221 |                9 |         4916020 |                     0 |     641296301 | 2017-02-06 01:32:13.946157+01

 2017-02-06 03:19:02.586001+01 | 1486347542.586 |                 0 |              21 |                   794 |                   14 |                 53 |          1221 |                9 |         4916020 |                     0 |     641347320 | 2017-02-06 01:32:13.946157+01

 2017-02-06 03:19:03.662744+01 | 1486347543.66274 |                 0 |              21 |                   794 |                   14 |                 53 |          1221 |                9 |         4916020 |                     0 |     641407322 | 2017-02-06 01:32:13.946157+01

 2017-02-06 03:19:04.7495+01 | 1486347544.7495 |                 0 |              21 |                   794 |                   14 |                 53 |          1221 |                9 |         4916020 |                     0 |     641456687 | 2017-02-06 01:32:13.946157+01

 2017-02-06 03:19:05.82843+01 | 1486347545.82843 |                 0 |              21 |                   794 |                   14 |                 53 |          1221 |                9 |         4916020 |                     0 |     641517182 | 2017-02-06 01:32:13.946157+01

 2017-02-06 03:19:06.910125+01 | 1486347546.91013 |                 0 |              21 |                   794 |                   14 |                 53 |          1221 |                9 |         4916020 |                     0 |     641566694 | 2017-02-06 01:32:13.946157+01

 2017-02-06 03:19:07.996785+01 | 1486347547.99678 |                 0 |              21 |                   794 |                   14 |                 53 |          1221 |                9 |         4916020 |                     0 |     641616412 | 2017-02-06 01:32:13.946157+01

 2017-02-06 03:19:09.077981+01 | 1486347549.07798 |                 0 |              21 |                   794 |                   14 |                 53 |          1221 |                9 |         4916020 |                     0 |     641677097 | 2017-02-06 01:32:13.946157+01

 2017-02-06 03:19:10.156868+01 | 1486347550.15687 |                 0 |              21 |                   794 |                   14 |                 53 |          1221 |                9 |         4916020 |                     0 |     641726637 | 2017-02-06 01:32:13.946157+01

 2017-02-06 03:19:11.230232+01 | 1486347551.23023 |                 0 |              21 |                   794 |                   14 |                 53 |          1221 |                9 |         4916020 |                     0 |     641778135 | 2017-02-06 01:32:13.946157+01

 2017-02-06 03:19:12.305312+01 | 1486347552.30531 |                 0 |              21 |                   794 |                   14 |                 53 |          1221 |                9 |         4916020 |                     0 |     641837702 | 2017-02-06 01:32:13.946157+01

 2017-02-06 03:19:13.382698+01 | 1486347553.3827 |                 0 |              21 |                   794 |                   14 |                 53 |          1221 |                9 |         4916020 |                     0 |     641889082 | 2017-02-06 01:32:13.946157+01

 2017-02-06 03:19:14.452186+01 | 1486347554.45219 |                 0 |              21 |                   794 |                   14 |                 53 |          1221 |                9 |         4916020 |                     0 |     641938880 | 2017-02-06 01:32:13.946157+01

 2017-02-06 03:19:15.530778+01 | 1486347555.53078 |                 0 |              21 |                   794 |                   14 |                 53 |          1221 |                9 |         4916020 |                     0 |     641999313 | 2017-02-06 01:32:13.946157+01

 2017-02-06 03:19:16.611082+01 | 1486347556.61108 |                 0 |              21 |                   794 |                   14 |                 53 |          1221 |                9 |         4916020 |                     0 |     642050329 | 2017-02-06 01:32:13.946157+01

 2017-02-06 03:19:17.682213+01 | 1486347557.68221 |                 0 |              21 |                   794 |                   14 |                 53 |          1221 |                9 |         4916020 |                     0 |     642099796 | 2017-02-06 01:32:13.946157+01

 2017-02-06 03:19:18.755198+01 | 1486347558.7552 |                 0 |              21 |                   794 |                   14 |                 53 |          1221 |                9 |         4916020 |                     0 |     642162063 | 2017-02-06 01:32:13.946157+01

 2017-02-06 03:19:19.82558+01 | 1486347559.82558 |                 0 |              21 |                   794 |                   14 |                 53 |          1221 |                9 |         4916020 |                     0 |     642214737 | 2017-02-06 01:32:13.946157+01

 2017-02-06 03:19:20.904417+01 | 1486347560.90442 |                 0 |              21 |                   794 |                   14 |                 53 |          1221 |                9 |         4916020 |                     0 |     642264800 | 2017-02-06 01:32:13.946157+01

 2017-02-06 03:19:21.984966+01 | 1486347561.98497 |                 0 |              21 |                   794 |                   14 |                 53 |          1221 |                9 |         4916020 |                     0 |     642326187 | 2017-02-06 01:32:13.946157+01

 2017-02-06 03:19:23.066775+01 | 1486347563.06678 |                 0 |              21 |                   794 |                   14 |                 53 |          1221 |                9 |         4916020 |                     0 |     642374998 | 2017-02-06 01:32:13.946157+01

 2017-02-06 03:19:24.149576+01 | 1486347564.14958 |                 0 |              21 |                   794 |                   14 |                 53 |          1221 |                9 |         4916020 |                     0 |     642425923 | 2017-02-06 01:32:13.946157+01

 2017-02-06 03:19:25.233349+01 | 1486347565.23335 |                 0 |              21 |                   794 |                   14 |                 53 |          1221 |                9 |         4916020 |                     0 |     642487747 | 2017-02-06 01:32:13.946157+01

 2017-02-06 03:19:26.318674+01 | 1486347566.31867 |                 0 |              21 |                   794 |                   14 |                 53 |          1221 |                9 |         4916020 |                     0 |     642538960 | 2017-02-06 01:32:13.946157+01

 2017-02-06 03:19:27.385396+01 | 1486347567.3854 |                 0 |              21 |                   794 |                   14 |                 53 |          1221 |                9 |         4916020 |                     0 |     642591318 | 2017-02-06 01:32:13.946157+01

 2017-02-06 03:19:28.471704+01 | 1486347568.4717 |                 0 |              21 |                   794 |                   14 |                 53 |          1221 |                9 |         4916020 |                     0 |     642651944 | 2017-02-06 01:32:13.946157+01

 2017-02-06 03:19:29.550423+01 | 1486347569.55042 |                 0 |              21 |                   794 |                   14 |                 53 |          1221 |                9 |         4916020 |                     0 |     642701242 | 2017-02-06 01:32:13.946157+01

 2017-02-06 03:19:30.627304+01 | 1486347570.6273 |                 0 |              21 |                   794 |                   14 |                 53 |          1221 |                9 |         4916020 |                     0 |     642752376 | 2017-02-06 01:32:13.946157+01

 2017-02-06 03:19:31.716836+01 | 1486347571.71684 |                 0 |              21 |                   794 |                   14 |                 53 |          1221 |                9 |         4916020 |                     0 |     642811360 | 2017-02-06 01:32:13.946157+01

 2017-02-06 03:19:32.805806+01 | 1486347572.80581 |                 0 |              21 |                   794 |                   14 |                 53 |          1221 |                9 |         4916020 |                     0 |     642861972 | 2017-02-06 01:32:13.946157+01

 2017-02-06 03:19:33.888095+01 | 1486347573.88809 |                 0 |              21 |                   794 |                   14 |                 53 |          1221 |                9 |         4916020 |                     0 |     642922625 | 2017-02-06 01:32:13.946157+01

 2017-02-06 03:19:34.968652+01 | 1486347574.96865 |                 0 |              21 |                   794 |                   14 |                 53 |          1221 |                9 |         4916020 |                     0 |     642972962 | 2017-02-06 01:32:13.946157+01

 2017-02-06 03:19:36.053339+01 | 1486347576.05334 |                 0 |              21 |                   794 |                   14 |                 53 |          1221 |                9 |         4916020 |                     0 |     643022660 | 2017-02-06 01:32:13.946157+01

 2017-02-06 03:19:37.134528+01 | 1486347577.13453 |                 0 |              21 |                   794 |                   14 |                 53 |          1221 |                9 |         4916020 |                     0 |     643084399 | 2017-02-06 01:32:13.946157+01

 2017-02-06 03:19:38.205252+01 | 1486347578.20525 |                 0 |              21 |                   794 |                   14 |                 53 |          1221 |                9 |         4916020 |                     0 |     643134171 | 2017-02-06 01:32:13.946157+01

 2017-02-06 03:19:39.290395+01 | 1486347579.2904 |                 0 |              21 |                   794 |                   14 |                 53 |          1221 |                9 |         4916020 |                     0 |     643185181 | 2017-02-06 01:32:13.946157+01

 2017-02-06 03:19:40.364715+01 | 1486347580.36472 |                 0 |              21 |                   794 |                   14 |                 53 |          1221 |                9 |         4916020 |                     0 |     643245185 | 2017-02-06 01:32:13.946157+01

 2017-02-06 03:19:41.440039+01 | 1486347581.44004 |                 0 |              21 |                   794 |                   14 |                 53 |          1221 |                9 |         4916020 |                     0 |     643295932 | 2017-02-06 01:32:13.946157+01

 2017-02-06 03:19:42.520126+01 | 1486347582.52013 |                 0 |              21 |                   794 |                   14 |                 53 |          1221 |                9 |         4916020 |                     0 |     643346334 | 2017-02-06 01:32:13.946157+01

 2017-02-06 03:19:43.601101+01 | 1486347583.6011 |                 0 |              21 |                   794 |                   14 |                 53 |          1221 |                9 |         4916020 |                     0 |     643408247 | 2017-02-06 01:32:13.946157+01

 2017-02-06 03:19:44.68524+01 | 1486347584.68524 |                 0 |              21 |                   794 |                   14 |                 53 |          1221 |                9 |         4916020 |                     0 |     643458317 | 2017-02-06 01:32:13.946157+01

 2017-02-06 03:19:45.761084+01 | 1486347585.76108 |                 0 |              21 |                   794 |                   14 |                 53 |          1221 |                9 |         4916020 |                     0 |     643509403 | 2017-02-06 01:32:13.946157+01

 2017-02-06 03:19:46.838499+01 | 1486347586.8385 |                 0 |              21 |                   794 |                   14 |                 53 |          1221 |                9 |         4916020 |                     0 |     643572034 | 2017-02-06 01:32:13.946157+01

 2017-02-06 03:19:47.921132+01 | 1486347587.92113 |                 0 |              21 |                   794 |                   14 |                 53 |          1221 |                9 |         4916020 |                     0 |     643622601 | 2017-02-06 01:32:13.946157+01

 2017-02-06 03:19:49.008496+01 | 1486347589.0085 |                 0 |              21 |                   794 |                   14 |                 53 |          1221 |                9 |         4916020 |                     0 |     643672427 | 2017-02-06 01:32:13.946157+01

 2017-02-06 03:19:50.105662+01 | 1486347590.10566 |                 0 |              21 |                   794 |                   14 |                 53 |          1221 |                9 |         4916020 |                     0 |     643733379 | 2017-02-06 01:32:13.946157+01

 2017-02-06 03:19:51.187597+01 | 1486347591.1876 |                 0 |              21 |                   794 |                   14 |                 53 |          1221 |                9 |         4916020 |                     0 |     643784283 | 2017-02-06 01:32:13.946157+01

 2017-02-06 03:19:52.27199+01 | 1486347592.27199 |                 0 |              21 |                   794 |                   14 |                 53 |          1221 |                9 |         4916020 |                     0 |     643844594 | 2017-02-06 01:32:13.946157+01

 2017-02-06 03:19:53.350522+01 | 1486347593.35052 |                 0 |              21 |                   794 |                   14 |                 53 |          1221 |                9 |         4916020 |                     0 |     643895483 | 2017-02-06 01:32:13.946157+01

 2017-02-06 03:19:54.428303+01 | 1486347594.4283 |                 0 |              21 |                   794 |                   14 |                 53 |          1221 |                9 |         4916020 |                     0 |     643946232 | 2017-02-06 01:32:13.946157+01

 2017-02-06 03:19:55.508717+01 | 1486347595.50872 |                 0 |              21 |                   794 |                   14 |                 53 |          1221 |                9 |         4916020 |                     0 |     644007689 | 2017-02-06 01:32:13.946157+01

 2017-02-06 03:19:56.596605+01 | 1486347596.59661 |                 0 |              21 |                   794 |                   14 |                 53 |          1221 |                9 |         4916020 |                     0 |     644057787 | 2017-02-06 01:32:13.946157+01

 2017-02-06 03:19:57.682075+01 | 1486347597.68208 |                 0 |              21 |                   794 |                   14 |                 53 |          1221 |                9 |         4916020 |                     0 |     644106675 | 2017-02-06 01:32:13.946157+01

 2017-02-06 03:19:58.755456+01 | 1486347598.75546 |                 0 |              21 |                   794 |                   14 |                 53 |          1221 |                9 |         4916020 |                     0 |     644167838 | 2017-02-06 01:32:13.946157+01

 2017-02-06 03:19:59.845367+01 | 1486347599.84537 |                 0 |              21 |                   794 |                   14 |                 53 |          1221 |                9 |         4916020 |                     0 |     644218884 | 2017-02-06 01:32:13.946157+01

 2017-02-06 03:20:00.927265+01 | 1486347600.92726 |                 0 |              21 |                   794 |                   14 |                 53 |          1221 |                9 |         4916020 |                     0 |     644280457 | 2017-02-06 01:32:13.946157+01

 2017-02-06 03:20:02.011451+01 | 1486347602.01145 |                 0 |              21 |                   794 |                   14 |                 53 |          1221 |                9 |         4916020 |                     0 |     644329580 | 2017-02-06 01:32:13.946157+01

 2017-02-06 03:20:03.085359+01 | 1486347603.08536 |                 0 |              21 |                   794 |                   14 |                 53 |          1221 |                9 |         4916020 |                     0 |     644380234 | 2017-02-06 01:32:13.946157+01

 2017-02-06 03:20:04.16844+01 | 1486347604.16844 |                 0 |              21 |                   794 |                   14 |                 53 |          1221 |                9 |         4916020 |                     0 |     644442273 | 2017-02-06 01:32:13.946157+01

 2017-02-06 03:20:05.248886+01 | 1486347605.24889 |                 0 |              21 |                   794 |                   14 |                 53 |          1221 |                9 |         4916020 |                     0 |     644491219 | 2017-02-06 01:32:13.946157+01

 2017-02-06 03:20:06.326513+01 | 1486347606.32651 |                 0 |              21 |                   794 |                   14 |                 53 |          1221 |                9 |         4916020 |                     0 |     644540850 | 2017-02-06 01:32:13.946157+01

 2017-02-06 03:20:07.395409+01 | 1486347607.39541 |                 0 |              21 |                   794 |                   14 |                 53 |          1221 |                9 |         4916020 |                     0 |     644601838 | 2017-02-06 01:32:13.946157+01

 2017-02-06 03:20:08.483489+01 | 1486347608.48349 |                 0 |              21 |                   794 |                   14 |                 53 |          1221 |                9 |         4916020 |                     0 |     644651976 | 2017-02-06 01:32:13.946157+01

 2017-02-06 03:20:09.562899+01 | 1486347609.5629 |                 0 |              21 |                   794 |                   14 |                 53 |          1221 |                9 |         4916020 |                     0 |     644702924 | 2017-02-06 01:32:13.946157+01

 2017-02-06 03:20:10.650063+01 | 1486347610.65006 |                 0 |              21 |                   794 |                   14 |                 53 |          1221 |                9 |         4916020 |                     0 |     644763643 | 2017-02-06 01:32:13.946157+01

 2017-02-06 03:20:11.735977+01 | 1486347611.73598 |                 0 |              21 |                   794 |                   14 |                 53 |          1221 |                9 |         4916020 |                     0 |     644813740 | 2017-02-06 01:32:13.946157+01

 2017-02-06 03:20:12.811567+01 | 1486347612.81157 |                 0 |              21 |                   794 |                   14 |                 53 |          1221 |                9 |         4916020 |                     0 |     644873295 | 2017-02-06 01:32:13.946157+01

 2017-02-06 03:20:13.888365+01 | 1486347613.88837 |                 0 |              21 |                   794 |                   14 |                 53 |          1221 |                9 |         4916020 |                     0 |     644924983 | 2017-02-06 01:32:13.946157+01

 2017-02-06 03:20:14.974136+01 | 1486347614.97414 |                 0 |              21 |                   794 |                   14 |                 53 |          1221 |                9 |         4916020 |                     0 |     644975179 | 2017-02-06 01:32:13.946157+01

 2017-02-06 03:20:16.05766+01 | 1486347616.05766 |                 0 |              21 |                   794 |                   14 |                 53 |          1221 |                9 |         4916020 |                     0 |     645036368 | 2017-02-06 01:32:13.946157+01

 2017-02-06 03:20:17.127623+01 | 1486347617.12762 |                 0 |              21 |                   794 |                   14 |                 53 |          1221 |                9 |         4916020 |                     0 |     645085613 | 2017-02-06 01:32:13.946157+01

 2017-02-06 03:20:18.203758+01 | 1486347618.20376 |                 0 |              21 |                   794 |                   14 |                 53 |          1221 |                9 |         4916020 |                     0 |     645136109 | 2017-02-06 01:32:13.946157+01

 2017-02-06 03:20:19.278702+01 | 1486347619.2787 |                 0 |              21 |                   794 |                   14 |                 53 |          1221 |                9 |         4916020 |                     0 |     645197545 | 2017-02-06 01:32:13.946157+01

 2017-02-06 03:20:20.358315+01 | 1486347620.35831 |                 0 |              21 |                   794 |                   14 |                 53 |          1221 |                9 |         4916020 |                     0 |     645248657 | 2017-02-06 01:32:13.946157+01

 2017-02-06 03:20:21.438549+01 | 1486347621.43855 |                 0 |              21 |                   794 |                   14 |                 53 |          1221 |                9 |         4916020 |                     0 |     645298268 | 2017-02-06 01:32:13.946157+01

 2017-02-06 03:20:22.521488+01 | 1486347622.52149 |                 0 |              21 |                   794 |                   14 |                 53 |          1221 |                9 |         4916020 |                     0 |     645356599 | 2017-02-06 01:32:13.946157+01

 2017-02-06 03:20:23.603531+01 | 1486347623.60353 |                 0 |              21 |                   794 |                   14 |                 53 |          1221 |                9 |         4916020 |                     0 |     645408166 | 2017-02-06 01:32:13.946157+01

 2017-02-06 03:20:24.675086+01 | 1486347624.67509 |                 0 |              21 |                   794 |                   14 |                 53 |          1221 |                9 |         4916020 |                     0 |     645459484 | 2017-02-06 01:32:13.946157+01

 2017-02-06 03:20:25.750214+01 | 1486347625.75021 |                 0 |              21 |                   794 |                   14 |                 53 |          1221 |                9 |         4916020 |                     0 |     645519897 | 2017-02-06 01:32:13.946157+01

 2017-02-06 03:20:26.822037+01 | 1486347626.82204 |                 0 |              21 |                   794 |                   14 |                 53 |          1221 |                9 |         4916020 |                     0 |     645572158 | 2017-02-06 01:32:13.946157+01

 2017-02-06 03:20:27.894352+01 | 1486347627.89435 |                 0 |              21 |                   794 |                   14 |                 53 |          1221 |                9 |         4916020 |                     0 |     645621985 | 2017-02-06 01:32:13.946157+01

 2017-02-06 03:20:28.973685+01 | 1486347628.97369 |                 0 |              21 |                   794 |                   14 |                 53 |          1221 |                9 |         4916020 |                     0 |     645682364 | 2017-02-06 01:32:13.946157+01

 2017-02-06 03:20:30.05199+01 | 1486347630.05199 |                 0 |              21 |                   794 |                   14 |                 53 |          1221 |                9 |         4916020 |                     0 |     645732741 | 2017-02-06 01:32:13.946157+01

 2017-02-06 03:20:31.133045+01 | 1486347631.13304 |                 0 |              21 |                   794 |                   14 |                 53 |          1221 |                9 |         4916020 |                     0 |     645783293 | 2017-02-06 01:32:13.946157+01

 2017-02-06 03:20:32.212127+01 | 1486347632.21213 |                 0 |              21 |                   794 |                   14 |                 53 |          1221 |                9 |         4916020 |                     0 |     645843403 | 2017-02-06 01:32:13.946157+01

 2017-02-06 03:20:33.292917+01 | 1486347633.29292 |                 0 |              21 |                   794 |                   14 |                 53 |          1221 |                9 |         4916020 |                     0 |     645894297 | 2017-02-06 01:32:13.946157+01

 2017-02-06 03:20:34.366583+01 | 1486347634.36658 |                 0 |              21 |                   794 |                   14 |                 53 |          1221 |                9 |         4916020 |                     0 |     645944867 | 2017-02-06 01:32:13.946157+01

 2017-02-06 03:20:35.44239+01 | 1486347635.44239 |                 0 |              21 |                   794 |                   14 |                 53 |          1221 |                9 |         4916020 |                     0 |     646006052 | 2017-02-06 01:32:13.946157+01

 2017-02-06 03:20:36.514728+01 | 1486347636.51473 |                 0 |              21 |                   794 |                   14 |                 53 |          1221 |                9 |         4916020 |                     0 |     646056362 | 2017-02-06 01:32:13.946157+01

 2017-02-06 03:20:37.589692+01 | 1486347637.58969 |                 0 |              21 |                   794 |                   14 |                 53 |          1221 |                9 |         4916020 |                     0 |     646107675 | 2017-02-06 01:32:13.946157+01

 2017-02-06 03:20:38.675994+01 | 1486347638.67599 |                 0 |              21 |                   794 |                   14 |                 53 |          1221 |                9 |         4916020 |                     0 |     646169286 | 2017-02-06 01:32:13.946157+01

 2017-02-06 03:20:39.753193+01 | 1486347639.75319 |                 0 |              21 |                   794 |                   14 |                 53 |          1221 |                9 |         4916020 |                     0 |     646220420 | 2017-02-06 01:32:13.946157+01

 2017-02-06 03:20:40.83629+01 | 1486347640.83629 |                 0 |              21 |                   794 |                   14 |                 53 |          1221 |                9 |         4916020 |                     0 |     646271462 | 2017-02-06 01:32:13.946157+01

 2017-02-06 03:20:41.912939+01 | 1486347641.91294 |                 0 |              21 |                   794 |                   14 |                 53 |          1221 |                9 |         4916020 |                     0 |     646332110 | 2017-02-06 01:32:13.946157+01

 2017-02-06 03:20:42.996517+01 | 1486347642.99652 |                 0 |              21 |                   794 |                   14 |                 53 |          1221 |                9 |         4916020 |                     0 |     646383040 | 2017-02-06 01:32:13.946157+01

 2017-02-06 03:20:44.075805+01 | 1486347644.0758 |                 0 |              21 |                   794 |                   14 |                 53 |          1221 |                9 |         4916020 |                     0 |     646434817 | 2017-02-06 01:32:13.946157+01

 2017-02-06 03:20:45.156621+01 | 1486347645.15662 |                 0 |              21 |                   794 |                   14 |                 53 |          1221 |                9 |         4916020 |                     0 |     646495696 | 2017-02-06 01:32:13.946157+01

 2017-02-06 03:20:46.233514+01 | 1486347646.23351 |                 0 |              21 |                   794 |                   14 |                 53 |          1221 |                9 |         4916020 |                     0 |     646547233 | 2017-02-06 01:32:13.946157+01

 2017-02-06 03:20:47.301174+01 | 1486347647.30117 |                 0 |              21 |                   794 |                   14 |                 53 |          1221 |                9 |         4916020 |                     0 |     646587543 | 2017-02-06 01:32:13.946157+01

 2017-02-06 03:20:48.375952+01 | 1486347648.37595 |                 0 |              21 |                   794 |                   14 |                 53 |          1221 |                9 |         4916020 |                     0 |     646658678 | 2017-02-06 01:32:13.946157+01

 2017-02-06 03:20:49.448945+01 | 1486347649.44895 |                 0 |              21 |                   794 |                   14 |                 53 |          1221 |                9 |         4916020 |                     0 |     646710251 | 2017-02-06 01:32:13.946157+01

 2017-02-06 03:20:50.519266+01 | 1486347650.51927 |                 0 |              21 |                   794 |                   14 |                 53 |          1221 |                9 |         4916020 |                     0 |     646761565 | 2017-02-06 01:32:13.946157+01

 2017-02-06 03:20:51.610805+01 | 1486347651.61081 |                 0 |              21 |                   794 |                   14 |                 53 |          1221 |                9 |         4916020 |                     0 |     646821930 | 2017-02-06 01:32:13.946157+01

 2017-02-06 03:20:52.68643+01 | 1486347652.68643 |                 0 |              21 |                   794 |                   14 |                 53 |          1221 |                9 |         4916020 |                     0 |     646870939 | 2017-02-06 01:32:13.946157+01

 2017-02-06 03:20:53.773306+01 | 1486347653.77331 |                 0 |              21 |                   794 |                   14 |                 53 |          1221 |                9 |         4916020 |                     0 |     646932111 | 2017-02-06 01:32:13.946157+01

 2017-02-06 03:20:54.849219+01 | 1486347654.84922 |                 0 |              21 |                   794 |                   14 |                 53 |          1221 |                9 |         4916020 |                     0 |     646983467 | 2017-02-06 01:32:13.946157+01

 2017-02-06 03:20:55.927327+01 | 1486347655.92733 |                 0 |              21 |                   794 |                   14 |                 53 |          1221 |                9 |         4916020 |                     0 |     647034935 | 2017-02-06 01:32:13.946157+01

 2017-02-06 03:20:57.00092+01 | 1486347657.00092 |                 0 |              21 |                   794 |                   14 |                 53 |          1221 |                9 |         4916020 |                     0 |     647095990 | 2017-02-06 01:32:13.946157+01

 2017-02-06 03:20:58.082695+01 | 1486347658.0827 |                 0 |              21 |                   794 |                   14 |                 53 |          1221 |                9 |         4916020 |                     0 |     647148225 | 2017-02-06 01:32:13.946157+01

 2017-02-06 03:20:59.164159+01 | 1486347659.16416 |                 0 |              21 |                   794 |                   14 |                 53 |          1221 |                9 |         4916020 |                     0 |     647198615 | 2017-02-06 01:32:13.946157+01

 2017-02-06 03:21:00.254396+01 | 1486347660.2544 |                 0 |              21 |                   794 |                   14 |                 53 |          1221 |                9 |         4916020 |                     0 |     647261757 | 2017-02-06 01:32:13.946157+01

 2017-02-06 03:21:01.33594+01 | 1486347661.33594 |                 0 |              21 |                   794 |                   14 |                 53 |          1221 |                9 |         4916020 |                     0 |     647312311 | 2017-02-06 01:32:13.946157+01

 2017-02-06 03:21:02.426548+01 | 1486347662.42655 |                 0 |              21 |                   794 |                   14 |                 53 |          1221 |                9 |         4916020 |                     0 |     647363735 | 2017-02-06 01:32:13.946157+01

 2017-02-06 03:21:03.504554+01 | 1486347663.50455 |                 0 |              21 |                   794 |                   14 |                 53 |          1221 |                9 |         4916020 |                     0 |     647425264 | 2017-02-06 01:32:13.946157+01

 2017-02-06 03:21:04.592969+01 | 1486347664.59297 |                 0 |              21 |                   794 |                   14 |                 53 |          1221 |                9 |         4916020 |                     0 |     647475676 | 2017-02-06 01:32:13.946157+01

 2017-02-06 03:21:05.685196+01 | 1486347665.6852 |                 0 |              21 |                   794 |                   14 |                 53 |          1221 |                9 |         4916020 |                     0 |     647538588 | 2017-02-06 01:32:13.946157+01

 2017-02-06 03:21:06.766976+01 | 1486347666.76698 |                 0 |              21 |                   794 |                   14 |                 53 |          1221 |                9 |         4916020 |                     0 |     647589100 | 2017-02-06 01:32:13.946157+01

 2017-02-06 03:21:07.844468+01 | 1486347667.84447 |                 0 |              21 |                   794 |                   14 |                 53 |          1221 |                9 |         4916020 |                     0 |     647640241 | 2017-02-06 01:32:13.946157+01

 2017-02-06 03:21:08.927308+01 | 1486347668.92731 |                 0 |              21 |                   794 |                   14 |                 53 |          1221 |                9 |         4916020 |                     0 |     647701508 | 2017-02-06 01:32:13.946157+01

 2017-02-06 03:21:10.007673+01 | 1486347670.00767 |                 0 |              21 |                   794 |                   14 |                 53 |          1221 |                9 |         4916020 |                     0 |     647751529 | 2017-02-06 01:32:13.946157+01

 2017-02-06 03:21:11.086945+01 | 1486347671.08695 |                 0 |              21 |                   794 |                   14 |                 53 |          1221 |                9 |         4916020 |                     0 |     647800147 | 2017-02-06 01:32:13.946157+01

 2017-02-06 03:21:12.164582+01 | 1486347672.16458 |                 0 |              21 |                   794 |                   14 |                 53 |          1221 |                9 |         4916020 |                     0 |     647859261 | 2017-02-06 01:32:13.946157+01

 2017-02-06 03:21:13.241341+01 | 1486347673.24134 |                 0 |              21 |                   794 |                   14 |                 53 |          1221 |                9 |         4916020 |                     0 |     647910187 | 2017-02-06 01:32:13.946157+01

 2017-02-06 03:21:14.318835+01 | 1486347674.31884 |                 0 |              21 |                   794 |                   14 |                 53 |          1221 |                9 |         4916020 |                     0 |     647960791 | 2017-02-06 01:32:13.946157+01

 2017-02-06 03:21:15.399683+01 | 1486347675.39968 |                 0 |              21 |                   794 |                   14 |                 53 |          1221 |                9 |         4916020 |                     0 |     648023947 | 2017-02-06 01:32:13.946157+01

 2017-02-06 03:21:16.477942+01 | 1486347676.47794 |                 0 |              21 |                   794 |                   14 |                 53 |          1221 |                9 |         4916020 |                     0 |     648073692 | 2017-02-06 01:32:13.946157+01

