 2017-02-04 02:36:57.325987+01 | 1486172217.32599 | pgbench_branches_pkey |          2203648
 2017-02-04 02:36:57.325987+01 | 1486172217.32599 | pgbench_tellers_pkey  |          9527296
 2017-02-04 02:36:57.325987+01 | 1486172217.32599 | pgbench_accounts_pkey |       2246197248

 2017-02-04 02:36:58.42775+01 | 1486172218.42775 | pgbench_branches_pkey |          2203648
 2017-02-04 02:36:58.42775+01 | 1486172218.42775 | pgbench_tellers_pkey  |          9527296
 2017-02-04 02:36:58.42775+01 | 1486172218.42775 | pgbench_accounts_pkey |       2246197248

 2017-02-04 02:36:59.516571+01 | 1486172219.51657 | pgbench_branches_pkey |          2203648
 2017-02-04 02:36:59.516571+01 | 1486172219.51657 | pgbench_tellers_pkey  |          9527296
 2017-02-04 02:36:59.516571+01 | 1486172219.51657 | pgbench_accounts_pkey |       2246197248

 2017-02-04 02:37:00.607979+01 | 1486172220.60798 | pgbench_branches_pkey |          2203648
 2017-02-04 02:37:00.607979+01 | 1486172220.60798 | pgbench_tellers_pkey  |          9527296
 2017-02-04 02:37:00.607979+01 | 1486172220.60798 | pgbench_accounts_pkey |       2246197248

 2017-02-04 02:37:01.694231+01 | 1486172221.69423 | pgbench_branches_pkey |          2203648
 2017-02-04 02:37:01.694231+01 | 1486172221.69423 | pgbench_tellers_pkey  |          9527296
 2017-02-04 02:37:01.694231+01 | 1486172221.69423 | pgbench_accounts_pkey |       2246197248

 2017-02-04 02:37:02.782975+01 | 1486172222.78297 | pgbench_branches_pkey |          2203648
 2017-02-04 02:37:02.782975+01 | 1486172222.78297 | pgbench_tellers_pkey  |          9527296
 2017-02-04 02:37:02.782975+01 | 1486172222.78297 | pgbench_accounts_pkey |       2246197248

 2017-02-04 02:37:03.874394+01 | 1486172223.87439 | pgbench_branches_pkey |          2203648
 2017-02-04 02:37:03.874394+01 | 1486172223.87439 | pgbench_tellers_pkey  |          9527296
 2017-02-04 02:37:03.874394+01 | 1486172223.87439 | pgbench_accounts_pkey |       2246197248

 2017-02-04 02:37:04.959484+01 | 1486172224.95948 | pgbench_branches_pkey |          2203648
 2017-02-04 02:37:04.959484+01 | 1486172224.95948 | pgbench_tellers_pkey  |          9527296
 2017-02-04 02:37:04.959484+01 | 1486172224.95948 | pgbench_accounts_pkey |       2246197248

 2017-02-04 02:37:06.0448+01 | 1486172226.0448 | pgbench_branches_pkey |          2203648
 2017-02-04 02:37:06.0448+01 | 1486172226.0448 | pgbench_tellers_pkey  |          9527296
 2017-02-04 02:37:06.0448+01 | 1486172226.0448 | pgbench_accounts_pkey |       2246197248

 2017-02-04 02:37:07.127636+01 | 1486172227.12764 | pgbench_branches_pkey |          2203648
 2017-02-04 02:37:07.127636+01 | 1486172227.12764 | pgbench_tellers_pkey  |          9527296
 2017-02-04 02:37:07.127636+01 | 1486172227.12764 | pgbench_accounts_pkey |       2246197248

 2017-02-04 02:37:08.208156+01 | 1486172228.20816 | pgbench_branches_pkey |          2203648
 2017-02-04 02:37:08.208156+01 | 1486172228.20816 | pgbench_tellers_pkey  |          9527296
 2017-02-04 02:37:08.208156+01 | 1486172228.20816 | pgbench_accounts_pkey |       2246197248

 2017-02-04 02:37:09.297598+01 | 1486172229.2976 | pgbench_branches_pkey |          2203648
 2017-02-04 02:37:09.297598+01 | 1486172229.2976 | pgbench_tellers_pkey  |          9527296
 2017-02-04 02:37:09.297598+01 | 1486172229.2976 | pgbench_accounts_pkey |       2246197248

 2017-02-04 02:37:10.383981+01 | 1486172230.38398 | pgbench_branches_pkey |          2203648
 2017-02-04 02:37:10.383981+01 | 1486172230.38398 | pgbench_tellers_pkey  |          9527296
 2017-02-04 02:37:10.383981+01 | 1486172230.38398 | pgbench_accounts_pkey |       2246197248

 2017-02-04 02:37:11.4617+01 | 1486172231.4617 | pgbench_branches_pkey |          2203648
 2017-02-04 02:37:11.4617+01 | 1486172231.4617 | pgbench_tellers_pkey  |          9527296
 2017-02-04 02:37:11.4617+01 | 1486172231.4617 | pgbench_accounts_pkey |       2246197248

 2017-02-04 02:37:12.548347+01 | 1486172232.54835 | pgbench_branches_pkey |          2203648
 2017-02-04 02:37:12.548347+01 | 1486172232.54835 | pgbench_tellers_pkey  |          9527296
 2017-02-04 02:37:12.548347+01 | 1486172232.54835 | pgbench_accounts_pkey |       2246197248

 2017-02-04 02:37:13.629735+01 | 1486172233.62973 | pgbench_branches_pkey |          2203648
 2017-02-04 02:37:13.629735+01 | 1486172233.62973 | pgbench_tellers_pkey  |          9527296
 2017-02-04 02:37:13.629735+01 | 1486172233.62973 | pgbench_accounts_pkey |       2246197248

 2017-02-04 02:37:14.71127+01 | 1486172234.71127 | pgbench_branches_pkey |          2203648
 2017-02-04 02:37:14.71127+01 | 1486172234.71127 | pgbench_tellers_pkey  |          9527296
 2017-02-04 02:37:14.71127+01 | 1486172234.71127 | pgbench_accounts_pkey |       2246197248

 2017-02-04 02:37:15.79739+01 | 1486172235.79739 | pgbench_branches_pkey |          2203648
 2017-02-04 02:37:15.79739+01 | 1486172235.79739 | pgbench_tellers_pkey  |          9527296
 2017-02-04 02:37:15.79739+01 | 1486172235.79739 | pgbench_accounts_pkey |       2246197248

 2017-02-04 02:37:16.878567+01 | 1486172236.87857 | pgbench_branches_pkey |          2203648
 2017-02-04 02:37:16.878567+01 | 1486172236.87857 | pgbench_tellers_pkey  |          9527296
 2017-02-04 02:37:16.878567+01 | 1486172236.87857 | pgbench_accounts_pkey |       2246197248

 2017-02-04 02:37:17.970305+01 | 1486172237.9703 | pgbench_branches_pkey |          2203648
 2017-02-04 02:37:17.970305+01 | 1486172237.9703 | pgbench_tellers_pkey  |          9527296
 2017-02-04 02:37:17.970305+01 | 1486172237.9703 | pgbench_accounts_pkey |       2246197248

 2017-02-04 02:37:19.051011+01 | 1486172239.05101 | pgbench_branches_pkey |          2203648
 2017-02-04 02:37:19.051011+01 | 1486172239.05101 | pgbench_tellers_pkey  |          9527296
 2017-02-04 02:37:19.051011+01 | 1486172239.05101 | pgbench_accounts_pkey |       2246197248

 2017-02-04 02:37:20.140122+01 | 1486172240.14012 | pgbench_branches_pkey |          2203648
 2017-02-04 02:37:20.140122+01 | 1486172240.14012 | pgbench_tellers_pkey  |          9527296
 2017-02-04 02:37:20.140122+01 | 1486172240.14012 | pgbench_accounts_pkey |       2246197248

 2017-02-04 02:37:21.235583+01 | 1486172241.23558 | pgbench_branches_pkey |          2203648
 2017-02-04 02:37:21.235583+01 | 1486172241.23558 | pgbench_tellers_pkey  |          9527296
 2017-02-04 02:37:21.235583+01 | 1486172241.23558 | pgbench_accounts_pkey |       2246197248

 2017-02-04 02:37:22.305839+01 | 1486172242.30584 | pgbench_branches_pkey |          2203648
 2017-02-04 02:37:22.305839+01 | 1486172242.30584 | pgbench_tellers_pkey  |          9527296
 2017-02-04 02:37:22.305839+01 | 1486172242.30584 | pgbench_accounts_pkey |       2246197248

 2017-02-04 02:37:23.384977+01 | 1486172243.38498 | pgbench_branches_pkey |          2203648
 2017-02-04 02:37:23.384977+01 | 1486172243.38498 | pgbench_tellers_pkey  |          9527296
 2017-02-04 02:37:23.384977+01 | 1486172243.38498 | pgbench_accounts_pkey |       2246197248

 2017-02-04 02:37:24.472711+01 | 1486172244.47271 | pgbench_branches_pkey |          2203648
 2017-02-04 02:37:24.472711+01 | 1486172244.47271 | pgbench_tellers_pkey  |          9527296
 2017-02-04 02:37:24.472711+01 | 1486172244.47271 | pgbench_accounts_pkey |       2246197248

 2017-02-04 02:37:25.560269+01 | 1486172245.56027 | pgbench_branches_pkey |          2203648
 2017-02-04 02:37:25.560269+01 | 1486172245.56027 | pgbench_tellers_pkey  |          9527296
 2017-02-04 02:37:25.560269+01 | 1486172245.56027 | pgbench_accounts_pkey |       2246197248

 2017-02-04 02:37:26.65514+01 | 1486172246.65514 | pgbench_branches_pkey |          2203648
 2017-02-04 02:37:26.65514+01 | 1486172246.65514 | pgbench_tellers_pkey  |          9527296
 2017-02-04 02:37:26.65514+01 | 1486172246.65514 | pgbench_accounts_pkey |       2246197248

 2017-02-04 02:37:27.745931+01 | 1486172247.74593 | pgbench_branches_pkey |          2203648
 2017-02-04 02:37:27.745931+01 | 1486172247.74593 | pgbench_tellers_pkey  |          9527296
 2017-02-04 02:37:27.745931+01 | 1486172247.74593 | pgbench_accounts_pkey |       2246197248

 2017-02-04 02:37:28.831684+01 | 1486172248.83168 | pgbench_branches_pkey |          2203648
 2017-02-04 02:37:28.831684+01 | 1486172248.83168 | pgbench_tellers_pkey  |          9527296
 2017-02-04 02:37:28.831684+01 | 1486172248.83168 | pgbench_accounts_pkey |       2246197248

 2017-02-04 02:37:29.913774+01 | 1486172249.91377 | pgbench_branches_pkey |          2203648
 2017-02-04 02:37:29.913774+01 | 1486172249.91377 | pgbench_tellers_pkey  |          9527296
 2017-02-04 02:37:29.913774+01 | 1486172249.91377 | pgbench_accounts_pkey |       2246197248

 2017-02-04 02:37:30.991701+01 | 1486172250.9917 | pgbench_branches_pkey |          2203648
 2017-02-04 02:37:30.991701+01 | 1486172250.9917 | pgbench_tellers_pkey  |          9527296
 2017-02-04 02:37:30.991701+01 | 1486172250.9917 | pgbench_accounts_pkey |       2246197248

 2017-02-04 02:37:32.082584+01 | 1486172252.08258 | pgbench_branches_pkey |          2203648
 2017-02-04 02:37:32.082584+01 | 1486172252.08258 | pgbench_tellers_pkey  |          9527296
 2017-02-04 02:37:32.082584+01 | 1486172252.08258 | pgbench_accounts_pkey |       2246197248

 2017-02-04 02:37:33.174298+01 | 1486172253.1743 | pgbench_branches_pkey |          2203648
 2017-02-04 02:37:33.174298+01 | 1486172253.1743 | pgbench_tellers_pkey  |          9527296
 2017-02-04 02:37:33.174298+01 | 1486172253.1743 | pgbench_accounts_pkey |       2246197248

 2017-02-04 02:37:34.245802+01 | 1486172254.2458 | pgbench_branches_pkey |          2203648
 2017-02-04 02:37:34.245802+01 | 1486172254.2458 | pgbench_tellers_pkey  |          9527296
 2017-02-04 02:37:34.245802+01 | 1486172254.2458 | pgbench_accounts_pkey |       2246197248

 2017-02-04 02:37:35.312971+01 | 1486172255.31297 | pgbench_branches_pkey |          2203648
 2017-02-04 02:37:35.312971+01 | 1486172255.31297 | pgbench_tellers_pkey  |          9527296
 2017-02-04 02:37:35.312971+01 | 1486172255.31297 | pgbench_accounts_pkey |       2246197248

 2017-02-04 02:37:36.407997+01 | 1486172256.408 | pgbench_branches_pkey |          2203648
 2017-02-04 02:37:36.407997+01 | 1486172256.408 | pgbench_tellers_pkey  |          9527296
 2017-02-04 02:37:36.407997+01 | 1486172256.408 | pgbench_accounts_pkey |       2246197248

 2017-02-04 02:37:37.506034+01 | 1486172257.50603 | pgbench_branches_pkey |          2203648
 2017-02-04 02:37:37.506034+01 | 1486172257.50603 | pgbench_tellers_pkey  |          9527296
 2017-02-04 02:37:37.506034+01 | 1486172257.50603 | pgbench_accounts_pkey |       2246197248

 2017-02-04 02:37:38.591275+01 | 1486172258.59127 | pgbench_branches_pkey |          2203648
 2017-02-04 02:37:38.591275+01 | 1486172258.59127 | pgbench_tellers_pkey  |          9527296
 2017-02-04 02:37:38.591275+01 | 1486172258.59127 | pgbench_accounts_pkey |       2246197248

 2017-02-04 02:37:39.684894+01 | 1486172259.68489 | pgbench_branches_pkey |          2203648
 2017-02-04 02:37:39.684894+01 | 1486172259.68489 | pgbench_tellers_pkey  |          9527296
 2017-02-04 02:37:39.684894+01 | 1486172259.68489 | pgbench_accounts_pkey |       2246197248

 2017-02-04 02:37:40.772937+01 | 1486172260.77294 | pgbench_branches_pkey |          2203648
 2017-02-04 02:37:40.772937+01 | 1486172260.77294 | pgbench_tellers_pkey  |          9527296
 2017-02-04 02:37:40.772937+01 | 1486172260.77294 | pgbench_accounts_pkey |       2246197248

 2017-02-04 02:37:41.869752+01 | 1486172261.86975 | pgbench_branches_pkey |          2203648
 2017-02-04 02:37:41.869752+01 | 1486172261.86975 | pgbench_tellers_pkey  |          9527296
 2017-02-04 02:37:41.869752+01 | 1486172261.86975 | pgbench_accounts_pkey |       2246197248

 2017-02-04 02:37:42.956435+01 | 1486172262.95643 | pgbench_branches_pkey |          2203648
 2017-02-04 02:37:42.956435+01 | 1486172262.95643 | pgbench_tellers_pkey  |          9527296
 2017-02-04 02:37:42.956435+01 | 1486172262.95643 | pgbench_accounts_pkey |       2246197248

 2017-02-04 02:37:44.043517+01 | 1486172264.04352 | pgbench_branches_pkey |          2203648
 2017-02-04 02:37:44.043517+01 | 1486172264.04352 | pgbench_tellers_pkey  |          9527296
 2017-02-04 02:37:44.043517+01 | 1486172264.04352 | pgbench_accounts_pkey |       2246197248

 2017-02-04 02:37:45.126687+01 | 1486172265.12669 | pgbench_branches_pkey |          2203648
 2017-02-04 02:37:45.126687+01 | 1486172265.12669 | pgbench_tellers_pkey  |          9527296
 2017-02-04 02:37:45.126687+01 | 1486172265.12669 | pgbench_accounts_pkey |       2246197248

 2017-02-04 02:37:46.182678+01 | 1486172266.18268 | pgbench_branches_pkey |          2203648
 2017-02-04 02:37:46.182678+01 | 1486172266.18268 | pgbench_tellers_pkey  |          9527296
 2017-02-04 02:37:46.182678+01 | 1486172266.18268 | pgbench_accounts_pkey |       2246197248

 2017-02-04 02:37:47.25674+01 | 1486172267.25674 | pgbench_branches_pkey |          2203648
 2017-02-04 02:37:47.25674+01 | 1486172267.25674 | pgbench_tellers_pkey  |          9527296
 2017-02-04 02:37:47.25674+01 | 1486172267.25674 | pgbench_accounts_pkey |       2246197248

 2017-02-04 02:37:48.34842+01 | 1486172268.34842 | pgbench_branches_pkey |          2203648
 2017-02-04 02:37:48.34842+01 | 1486172268.34842 | pgbench_tellers_pkey  |          9527296
 2017-02-04 02:37:48.34842+01 | 1486172268.34842 | pgbench_accounts_pkey |       2246197248

 2017-02-04 02:37:49.431962+01 | 1486172269.43196 | pgbench_branches_pkey |          2203648
 2017-02-04 02:37:49.431962+01 | 1486172269.43196 | pgbench_tellers_pkey  |          9527296
 2017-02-04 02:37:49.431962+01 | 1486172269.43196 | pgbench_accounts_pkey |       2246197248

 2017-02-04 02:37:50.510354+01 | 1486172270.51035 | pgbench_branches_pkey |          2203648
 2017-02-04 02:37:50.510354+01 | 1486172270.51035 | pgbench_tellers_pkey  |          9527296
 2017-02-04 02:37:50.510354+01 | 1486172270.51035 | pgbench_accounts_pkey |       2246197248

 2017-02-04 02:37:51.589959+01 | 1486172271.58996 | pgbench_branches_pkey |          2203648
 2017-02-04 02:37:51.589959+01 | 1486172271.58996 | pgbench_tellers_pkey  |          9527296
 2017-02-04 02:37:51.589959+01 | 1486172271.58996 | pgbench_accounts_pkey |       2246197248

 2017-02-04 02:37:52.671403+01 | 1486172272.6714 | pgbench_branches_pkey |          2203648
 2017-02-04 02:37:52.671403+01 | 1486172272.6714 | pgbench_tellers_pkey  |          9527296
 2017-02-04 02:37:52.671403+01 | 1486172272.6714 | pgbench_accounts_pkey |       2246197248

 2017-02-04 02:37:53.753563+01 | 1486172273.75356 | pgbench_branches_pkey |          2203648
 2017-02-04 02:37:53.753563+01 | 1486172273.75356 | pgbench_tellers_pkey  |          9527296
 2017-02-04 02:37:53.753563+01 | 1486172273.75356 | pgbench_accounts_pkey |       2246197248

 2017-02-04 02:37:54.818545+01 | 1486172274.81855 | pgbench_branches_pkey |          2203648
 2017-02-04 02:37:54.818545+01 | 1486172274.81855 | pgbench_tellers_pkey  |          9527296
 2017-02-04 02:37:54.818545+01 | 1486172274.81855 | pgbench_accounts_pkey |       2246197248

 2017-02-04 02:37:55.883323+01 | 1486172275.88332 | pgbench_branches_pkey |          2203648
 2017-02-04 02:37:55.883323+01 | 1486172275.88332 | pgbench_tellers_pkey  |          9527296
 2017-02-04 02:37:55.883323+01 | 1486172275.88332 | pgbench_accounts_pkey |       2246197248

 2017-02-04 02:37:56.960692+01 | 1486172276.96069 | pgbench_branches_pkey |          2203648
 2017-02-04 02:37:56.960692+01 | 1486172276.96069 | pgbench_tellers_pkey  |          9527296
 2017-02-04 02:37:56.960692+01 | 1486172276.96069 | pgbench_accounts_pkey |       2246197248

 2017-02-04 02:37:58.034427+01 | 1486172278.03443 | pgbench_branches_pkey |          2203648
 2017-02-04 02:37:58.034427+01 | 1486172278.03443 | pgbench_tellers_pkey  |          9527296
 2017-02-04 02:37:58.034427+01 | 1486172278.03443 | pgbench_accounts_pkey |       2246197248

 2017-02-04 02:37:59.120751+01 | 1486172279.12075 | pgbench_branches_pkey |          2203648
 2017-02-04 02:37:59.120751+01 | 1486172279.12075 | pgbench_tellers_pkey  |          9527296
 2017-02-04 02:37:59.120751+01 | 1486172279.12075 | pgbench_accounts_pkey |       2246197248

 2017-02-04 02:38:00.202076+01 | 1486172280.20208 | pgbench_branches_pkey |          2203648
 2017-02-04 02:38:00.202076+01 | 1486172280.20208 | pgbench_tellers_pkey  |          9527296
 2017-02-04 02:38:00.202076+01 | 1486172280.20208 | pgbench_accounts_pkey |       2246197248

 2017-02-04 02:38:01.269997+01 | 1486172281.27 | pgbench_branches_pkey |          2203648
 2017-02-04 02:38:01.269997+01 | 1486172281.27 | pgbench_tellers_pkey  |          9527296
 2017-02-04 02:38:01.269997+01 | 1486172281.27 | pgbench_accounts_pkey |       2246197248

 2017-02-04 02:38:02.340708+01 | 1486172282.34071 | pgbench_branches_pkey |          2203648
 2017-02-04 02:38:02.340708+01 | 1486172282.34071 | pgbench_tellers_pkey  |          9527296
 2017-02-04 02:38:02.340708+01 | 1486172282.34071 | pgbench_accounts_pkey |       2246197248

 2017-02-04 02:38:03.410307+01 | 1486172283.41031 | pgbench_branches_pkey |          2203648
 2017-02-04 02:38:03.410307+01 | 1486172283.41031 | pgbench_tellers_pkey  |          9527296
 2017-02-04 02:38:03.410307+01 | 1486172283.41031 | pgbench_accounts_pkey |       2246197248

 2017-02-04 02:38:04.480049+01 | 1486172284.48005 | pgbench_branches_pkey |          2203648
 2017-02-04 02:38:04.480049+01 | 1486172284.48005 | pgbench_tellers_pkey  |          9527296
 2017-02-04 02:38:04.480049+01 | 1486172284.48005 | pgbench_accounts_pkey |       2246197248

 2017-02-04 02:38:05.544127+01 | 1486172285.54413 | pgbench_branches_pkey |          2203648
 2017-02-04 02:38:05.544127+01 | 1486172285.54413 | pgbench_tellers_pkey  |          9527296
 2017-02-04 02:38:05.544127+01 | 1486172285.54413 | pgbench_accounts_pkey |       2246197248

 2017-02-04 02:38:06.609641+01 | 1486172286.60964 | pgbench_branches_pkey |          2203648
 2017-02-04 02:38:06.609641+01 | 1486172286.60964 | pgbench_tellers_pkey  |          9527296
 2017-02-04 02:38:06.609641+01 | 1486172286.60964 | pgbench_accounts_pkey |       2246197248

 2017-02-04 02:38:07.703115+01 | 1486172287.70311 | pgbench_branches_pkey |          2203648
 2017-02-04 02:38:07.703115+01 | 1486172287.70311 | pgbench_tellers_pkey  |          9527296
 2017-02-04 02:38:07.703115+01 | 1486172287.70311 | pgbench_accounts_pkey |       2246197248

 2017-02-04 02:38:08.791488+01 | 1486172288.79149 | pgbench_branches_pkey |          2203648
 2017-02-04 02:38:08.791488+01 | 1486172288.79149 | pgbench_tellers_pkey  |          9527296
 2017-02-04 02:38:08.791488+01 | 1486172288.79149 | pgbench_accounts_pkey |       2246197248

 2017-02-04 02:38:09.880969+01 | 1486172289.88097 | pgbench_branches_pkey |          2203648
 2017-02-04 02:38:09.880969+01 | 1486172289.88097 | pgbench_tellers_pkey  |          9527296
 2017-02-04 02:38:09.880969+01 | 1486172289.88097 | pgbench_accounts_pkey |       2246197248

 2017-02-04 02:38:10.972607+01 | 1486172290.97261 | pgbench_branches_pkey |          2203648
 2017-02-04 02:38:10.972607+01 | 1486172290.97261 | pgbench_tellers_pkey  |          9527296
 2017-02-04 02:38:10.972607+01 | 1486172290.97261 | pgbench_accounts_pkey |       2246197248

 2017-02-04 02:38:12.05596+01 | 1486172292.05596 | pgbench_branches_pkey |          2203648
 2017-02-04 02:38:12.05596+01 | 1486172292.05596 | pgbench_tellers_pkey  |          9527296
 2017-02-04 02:38:12.05596+01 | 1486172292.05596 | pgbench_accounts_pkey |       2246197248

 2017-02-04 02:38:13.126556+01 | 1486172293.12656 | pgbench_branches_pkey |          2203648
 2017-02-04 02:38:13.126556+01 | 1486172293.12656 | pgbench_tellers_pkey  |          9527296
 2017-02-04 02:38:13.126556+01 | 1486172293.12656 | pgbench_accounts_pkey |       2246197248

 2017-02-04 02:38:14.201004+01 | 1486172294.201 | pgbench_branches_pkey |          2203648
 2017-02-04 02:38:14.201004+01 | 1486172294.201 | pgbench_tellers_pkey  |          9527296
 2017-02-04 02:38:14.201004+01 | 1486172294.201 | pgbench_accounts_pkey |       2246197248

 2017-02-04 02:38:15.28188+01 | 1486172295.28188 | pgbench_branches_pkey |          2203648
 2017-02-04 02:38:15.28188+01 | 1486172295.28188 | pgbench_tellers_pkey  |          9527296
 2017-02-04 02:38:15.28188+01 | 1486172295.28188 | pgbench_accounts_pkey |       2246197248

 2017-02-04 02:38:16.379564+01 | 1486172296.37956 | pgbench_branches_pkey |          2203648
 2017-02-04 02:38:16.379564+01 | 1486172296.37956 | pgbench_tellers_pkey  |          9527296
 2017-02-04 02:38:16.379564+01 | 1486172296.37956 | pgbench_accounts_pkey |       2246197248

 2017-02-04 02:38:17.481059+01 | 1486172297.48106 | pgbench_branches_pkey |          2203648
 2017-02-04 02:38:17.481059+01 | 1486172297.48106 | pgbench_tellers_pkey  |          9527296
 2017-02-04 02:38:17.481059+01 | 1486172297.48106 | pgbench_accounts_pkey |       2246197248

 2017-02-04 02:38:18.581748+01 | 1486172298.58175 | pgbench_branches_pkey |          2203648
 2017-02-04 02:38:18.581748+01 | 1486172298.58175 | pgbench_tellers_pkey  |          9527296
 2017-02-04 02:38:18.581748+01 | 1486172298.58175 | pgbench_accounts_pkey |       2246197248

 2017-02-04 02:38:19.674982+01 | 1486172299.67498 | pgbench_branches_pkey |          2203648
 2017-02-04 02:38:19.674982+01 | 1486172299.67498 | pgbench_tellers_pkey  |          9527296
 2017-02-04 02:38:19.674982+01 | 1486172299.67498 | pgbench_accounts_pkey |       2246197248

 2017-02-04 02:38:20.759002+01 | 1486172300.759 | pgbench_branches_pkey |          2203648
 2017-02-04 02:38:20.759002+01 | 1486172300.759 | pgbench_tellers_pkey  |          9527296
 2017-02-04 02:38:20.759002+01 | 1486172300.759 | pgbench_accounts_pkey |       2246197248

 2017-02-04 02:38:21.840099+01 | 1486172301.8401 | pgbench_branches_pkey |          2203648
 2017-02-04 02:38:21.840099+01 | 1486172301.8401 | pgbench_tellers_pkey  |          9527296
 2017-02-04 02:38:21.840099+01 | 1486172301.8401 | pgbench_accounts_pkey |       2246197248

 2017-02-04 02:38:22.939434+01 | 1486172302.93943 | pgbench_branches_pkey |          2203648
 2017-02-04 02:38:22.939434+01 | 1486172302.93943 | pgbench_tellers_pkey  |          9527296
 2017-02-04 02:38:22.939434+01 | 1486172302.93943 | pgbench_accounts_pkey |       2246197248

 2017-02-04 02:38:24.034702+01 | 1486172304.0347 | pgbench_branches_pkey |          2203648
 2017-02-04 02:38:24.034702+01 | 1486172304.0347 | pgbench_tellers_pkey  |          9527296
 2017-02-04 02:38:24.034702+01 | 1486172304.0347 | pgbench_accounts_pkey |       2246197248

 2017-02-04 02:38:25.122975+01 | 1486172305.12298 | pgbench_branches_pkey |          2203648
 2017-02-04 02:38:25.122975+01 | 1486172305.12298 | pgbench_tellers_pkey  |          9527296
 2017-02-04 02:38:25.122975+01 | 1486172305.12298 | pgbench_accounts_pkey |       2246197248

 2017-02-04 02:38:26.211378+01 | 1486172306.21138 | pgbench_branches_pkey |          2203648
 2017-02-04 02:38:26.211378+01 | 1486172306.21138 | pgbench_tellers_pkey  |          9527296
 2017-02-04 02:38:26.211378+01 | 1486172306.21138 | pgbench_accounts_pkey |       2246197248

 2017-02-04 02:38:27.30513+01 | 1486172307.30513 | pgbench_branches_pkey |          2203648
 2017-02-04 02:38:27.30513+01 | 1486172307.30513 | pgbench_tellers_pkey  |          9527296
 2017-02-04 02:38:27.30513+01 | 1486172307.30513 | pgbench_accounts_pkey |       2246197248

 2017-02-04 02:38:28.386425+01 | 1486172308.38643 | pgbench_branches_pkey |          2203648
 2017-02-04 02:38:28.386425+01 | 1486172308.38643 | pgbench_tellers_pkey  |          9527296
 2017-02-04 02:38:28.386425+01 | 1486172308.38643 | pgbench_accounts_pkey |       2246197248

 2017-02-04 02:38:29.475287+01 | 1486172309.47529 | pgbench_branches_pkey |          2203648
 2017-02-04 02:38:29.475287+01 | 1486172309.47529 | pgbench_tellers_pkey  |          9527296
 2017-02-04 02:38:29.475287+01 | 1486172309.47529 | pgbench_accounts_pkey |       2246197248

 2017-02-04 02:38:30.565725+01 | 1486172310.56573 | pgbench_branches_pkey |          2203648
 2017-02-04 02:38:30.565725+01 | 1486172310.56573 | pgbench_tellers_pkey  |          9527296
 2017-02-04 02:38:30.565725+01 | 1486172310.56573 | pgbench_accounts_pkey |       2246197248

 2017-02-04 02:38:31.662508+01 | 1486172311.66251 | pgbench_branches_pkey |          2203648
 2017-02-04 02:38:31.662508+01 | 1486172311.66251 | pgbench_tellers_pkey  |          9527296
 2017-02-04 02:38:31.662508+01 | 1486172311.66251 | pgbench_accounts_pkey |       2246197248

 2017-02-04 02:38:32.728821+01 | 1486172312.72882 | pgbench_branches_pkey |          2203648
 2017-02-04 02:38:32.728821+01 | 1486172312.72882 | pgbench_tellers_pkey  |          9527296
 2017-02-04 02:38:32.728821+01 | 1486172312.72882 | pgbench_accounts_pkey |       2246197248

 2017-02-04 02:38:33.795999+01 | 1486172313.796 | pgbench_branches_pkey |          2203648
 2017-02-04 02:38:33.795999+01 | 1486172313.796 | pgbench_tellers_pkey  |          9527296
 2017-02-04 02:38:33.795999+01 | 1486172313.796 | pgbench_accounts_pkey |       2246197248

 2017-02-04 02:38:34.867517+01 | 1486172314.86752 | pgbench_branches_pkey |          2203648
 2017-02-04 02:38:34.867517+01 | 1486172314.86752 | pgbench_tellers_pkey  |          9527296
 2017-02-04 02:38:34.867517+01 | 1486172314.86752 | pgbench_accounts_pkey |       2246197248

 2017-02-04 02:38:35.936307+01 | 1486172315.93631 | pgbench_branches_pkey |          2203648
 2017-02-04 02:38:35.936307+01 | 1486172315.93631 | pgbench_tellers_pkey  |          9527296
 2017-02-04 02:38:35.936307+01 | 1486172315.93631 | pgbench_accounts_pkey |       2246197248

 2017-02-04 02:38:36.995946+01 | 1486172316.99595 | pgbench_branches_pkey |          2203648
 2017-02-04 02:38:36.995946+01 | 1486172316.99595 | pgbench_tellers_pkey  |          9527296
 2017-02-04 02:38:36.995946+01 | 1486172316.99595 | pgbench_accounts_pkey |       2246197248

 2017-02-04 02:38:38.061675+01 | 1486172318.06168 | pgbench_branches_pkey |          2203648
 2017-02-04 02:38:38.061675+01 | 1486172318.06168 | pgbench_tellers_pkey  |          9527296
 2017-02-04 02:38:38.061675+01 | 1486172318.06168 | pgbench_accounts_pkey |       2246197248

 2017-02-04 02:38:39.146325+01 | 1486172319.14633 | pgbench_branches_pkey |          2203648
 2017-02-04 02:38:39.146325+01 | 1486172319.14633 | pgbench_tellers_pkey  |          9527296
 2017-02-04 02:38:39.146325+01 | 1486172319.14633 | pgbench_accounts_pkey |       2246197248

 2017-02-04 02:38:40.24673+01 | 1486172320.24673 | pgbench_branches_pkey |          2203648
 2017-02-04 02:38:40.24673+01 | 1486172320.24673 | pgbench_tellers_pkey  |          9527296
 2017-02-04 02:38:40.24673+01 | 1486172320.24673 | pgbench_accounts_pkey |       2246197248

 2017-02-04 02:38:41.328148+01 | 1486172321.32815 | pgbench_branches_pkey |          2203648
 2017-02-04 02:38:41.328148+01 | 1486172321.32815 | pgbench_tellers_pkey  |          9527296
 2017-02-04 02:38:41.328148+01 | 1486172321.32815 | pgbench_accounts_pkey |       2246197248

 2017-02-04 02:38:42.396598+01 | 1486172322.3966 | pgbench_branches_pkey |          2203648
 2017-02-04 02:38:42.396598+01 | 1486172322.3966 | pgbench_tellers_pkey  |          9527296
 2017-02-04 02:38:42.396598+01 | 1486172322.3966 | pgbench_accounts_pkey |       2246197248

 2017-02-04 02:38:43.481514+01 | 1486172323.48151 | pgbench_branches_pkey |          2203648
 2017-02-04 02:38:43.481514+01 | 1486172323.48151 | pgbench_tellers_pkey  |          9527296
 2017-02-04 02:38:43.481514+01 | 1486172323.48151 | pgbench_accounts_pkey |       2246197248

 2017-02-04 02:38:44.556254+01 | 1486172324.55625 | pgbench_branches_pkey |          2203648
 2017-02-04 02:38:44.556254+01 | 1486172324.55625 | pgbench_tellers_pkey  |          9527296
 2017-02-04 02:38:44.556254+01 | 1486172324.55625 | pgbench_accounts_pkey |       2246197248

 2017-02-04 02:38:45.65292+01 | 1486172325.65292 | pgbench_branches_pkey |          2203648
 2017-02-04 02:38:45.65292+01 | 1486172325.65292 | pgbench_tellers_pkey  |          9527296
 2017-02-04 02:38:45.65292+01 | 1486172325.65292 | pgbench_accounts_pkey |       2246197248

 2017-02-04 02:38:46.72518+01 | 1486172326.72518 | pgbench_branches_pkey |          2203648
 2017-02-04 02:38:46.72518+01 | 1486172326.72518 | pgbench_tellers_pkey  |          9527296
 2017-02-04 02:38:46.72518+01 | 1486172326.72518 | pgbench_accounts_pkey |       2246197248

 2017-02-04 02:38:47.799797+01 | 1486172327.7998 | pgbench_branches_pkey |          2203648
 2017-02-04 02:38:47.799797+01 | 1486172327.7998 | pgbench_tellers_pkey  |          9527296
 2017-02-04 02:38:47.799797+01 | 1486172327.7998 | pgbench_accounts_pkey |       2246197248

 2017-02-04 02:38:48.874849+01 | 1486172328.87485 | pgbench_branches_pkey |          2203648
 2017-02-04 02:38:48.874849+01 | 1486172328.87485 | pgbench_tellers_pkey  |          9527296
 2017-02-04 02:38:48.874849+01 | 1486172328.87485 | pgbench_accounts_pkey |       2246197248

 2017-02-04 02:38:49.95575+01 | 1486172329.95575 | pgbench_branches_pkey |          2203648
 2017-02-04 02:38:49.95575+01 | 1486172329.95575 | pgbench_tellers_pkey  |          9527296
 2017-02-04 02:38:49.95575+01 | 1486172329.95575 | pgbench_accounts_pkey |       2246197248

 2017-02-04 02:38:51.041661+01 | 1486172331.04166 | pgbench_branches_pkey |          2203648
 2017-02-04 02:38:51.041661+01 | 1486172331.04166 | pgbench_tellers_pkey  |          9527296
 2017-02-04 02:38:51.041661+01 | 1486172331.04166 | pgbench_accounts_pkey |       2246197248

 2017-02-04 02:38:52.113664+01 | 1486172332.11366 | pgbench_branches_pkey |          2203648
 2017-02-04 02:38:52.113664+01 | 1486172332.11366 | pgbench_tellers_pkey  |          9527296
 2017-02-04 02:38:52.113664+01 | 1486172332.11366 | pgbench_accounts_pkey |       2246197248

 2017-02-04 02:38:53.211054+01 | 1486172333.21105 | pgbench_branches_pkey |          2203648
 2017-02-04 02:38:53.211054+01 | 1486172333.21105 | pgbench_tellers_pkey  |          9527296
 2017-02-04 02:38:53.211054+01 | 1486172333.21105 | pgbench_accounts_pkey |       2246197248

 2017-02-04 02:38:54.312296+01 | 1486172334.3123 | pgbench_branches_pkey |          2203648
 2017-02-04 02:38:54.312296+01 | 1486172334.3123 | pgbench_tellers_pkey  |          9527296
 2017-02-04 02:38:54.312296+01 | 1486172334.3123 | pgbench_accounts_pkey |       2246197248

 2017-02-04 02:38:55.414178+01 | 1486172335.41418 | pgbench_branches_pkey |          2203648
 2017-02-04 02:38:55.414178+01 | 1486172335.41418 | pgbench_tellers_pkey  |          9527296
 2017-02-04 02:38:55.414178+01 | 1486172335.41418 | pgbench_accounts_pkey |       2246197248

 2017-02-04 02:38:56.513699+01 | 1486172336.5137 | pgbench_branches_pkey |          2203648
 2017-02-04 02:38:56.513699+01 | 1486172336.5137 | pgbench_tellers_pkey  |          9527296
 2017-02-04 02:38:56.513699+01 | 1486172336.5137 | pgbench_accounts_pkey |       2246197248

 2017-02-04 02:38:57.604691+01 | 1486172337.60469 | pgbench_branches_pkey |          2203648
 2017-02-04 02:38:57.604691+01 | 1486172337.60469 | pgbench_tellers_pkey  |          9527296
 2017-02-04 02:38:57.604691+01 | 1486172337.60469 | pgbench_accounts_pkey |       2246197248

 2017-02-04 02:38:58.690764+01 | 1486172338.69076 | pgbench_branches_pkey |          2203648
 2017-02-04 02:38:58.690764+01 | 1486172338.69076 | pgbench_tellers_pkey  |          9527296
 2017-02-04 02:38:58.690764+01 | 1486172338.69076 | pgbench_accounts_pkey |       2246197248

 2017-02-04 02:38:59.76551+01 | 1486172339.76551 | pgbench_branches_pkey |          2203648
 2017-02-04 02:38:59.76551+01 | 1486172339.76551 | pgbench_tellers_pkey  |          9527296
 2017-02-04 02:38:59.76551+01 | 1486172339.76551 | pgbench_accounts_pkey |       2246197248

 2017-02-04 02:39:00.826509+01 | 1486172340.82651 | pgbench_branches_pkey |          2203648
 2017-02-04 02:39:00.826509+01 | 1486172340.82651 | pgbench_tellers_pkey  |          9527296
 2017-02-04 02:39:00.826509+01 | 1486172340.82651 | pgbench_accounts_pkey |       2246197248

 2017-02-04 02:39:01.904101+01 | 1486172341.9041 | pgbench_branches_pkey |          2203648
 2017-02-04 02:39:01.904101+01 | 1486172341.9041 | pgbench_tellers_pkey  |          9527296
 2017-02-04 02:39:01.904101+01 | 1486172341.9041 | pgbench_accounts_pkey |       2246197248

 2017-02-04 02:39:02.989493+01 | 1486172342.98949 | pgbench_branches_pkey |          2203648
 2017-02-04 02:39:02.989493+01 | 1486172342.98949 | pgbench_tellers_pkey  |          9527296
 2017-02-04 02:39:02.989493+01 | 1486172342.98949 | pgbench_accounts_pkey |       2246197248

 2017-02-04 02:39:04.081481+01 | 1486172344.08148 | pgbench_branches_pkey |          2203648
 2017-02-04 02:39:04.081481+01 | 1486172344.08148 | pgbench_tellers_pkey  |          9527296
 2017-02-04 02:39:04.081481+01 | 1486172344.08148 | pgbench_accounts_pkey |       2246197248

 2017-02-04 02:39:05.145897+01 | 1486172345.1459 | pgbench_branches_pkey |          2203648
 2017-02-04 02:39:05.145897+01 | 1486172345.1459 | pgbench_tellers_pkey  |          9527296
 2017-02-04 02:39:05.145897+01 | 1486172345.1459 | pgbench_accounts_pkey |       2246197248

 2017-02-04 02:39:06.231203+01 | 1486172346.2312 | pgbench_branches_pkey |          2203648
 2017-02-04 02:39:06.231203+01 | 1486172346.2312 | pgbench_tellers_pkey  |          9527296
 2017-02-04 02:39:06.231203+01 | 1486172346.2312 | pgbench_accounts_pkey |       2246197248

 2017-02-04 02:39:07.325792+01 | 1486172347.32579 | pgbench_branches_pkey |          2203648
 2017-02-04 02:39:07.325792+01 | 1486172347.32579 | pgbench_tellers_pkey  |          9527296
 2017-02-04 02:39:07.325792+01 | 1486172347.32579 | pgbench_accounts_pkey |       2246197248

 2017-02-04 02:39:08.40021+01 | 1486172348.40021 | pgbench_branches_pkey |          2203648
 2017-02-04 02:39:08.40021+01 | 1486172348.40021 | pgbench_tellers_pkey  |          9527296
 2017-02-04 02:39:08.40021+01 | 1486172348.40021 | pgbench_accounts_pkey |       2246197248

 2017-02-04 02:39:09.485376+01 | 1486172349.48538 | pgbench_branches_pkey |          2203648
 2017-02-04 02:39:09.485376+01 | 1486172349.48538 | pgbench_tellers_pkey  |          9527296
 2017-02-04 02:39:09.485376+01 | 1486172349.48538 | pgbench_accounts_pkey |       2246197248

 2017-02-04 02:39:10.551774+01 | 1486172350.55177 | pgbench_branches_pkey |          2203648
 2017-02-04 02:39:10.551774+01 | 1486172350.55177 | pgbench_tellers_pkey  |          9527296
 2017-02-04 02:39:10.551774+01 | 1486172350.55177 | pgbench_accounts_pkey |       2246197248

 2017-02-04 02:39:11.631298+01 | 1486172351.6313 | pgbench_branches_pkey |          2203648
 2017-02-04 02:39:11.631298+01 | 1486172351.6313 | pgbench_tellers_pkey  |          9527296
 2017-02-04 02:39:11.631298+01 | 1486172351.6313 | pgbench_accounts_pkey |       2246197248

 2017-02-04 02:39:12.718595+01 | 1486172352.7186 | pgbench_branches_pkey |          2203648
 2017-02-04 02:39:12.718595+01 | 1486172352.7186 | pgbench_tellers_pkey  |          9527296
 2017-02-04 02:39:12.718595+01 | 1486172352.7186 | pgbench_accounts_pkey |       2246197248

 2017-02-04 02:39:13.803019+01 | 1486172353.80302 | pgbench_branches_pkey |          2203648
 2017-02-04 02:39:13.803019+01 | 1486172353.80302 | pgbench_tellers_pkey  |          9527296
 2017-02-04 02:39:13.803019+01 | 1486172353.80302 | pgbench_accounts_pkey |       2246197248

 2017-02-04 02:39:14.881378+01 | 1486172354.88138 | pgbench_branches_pkey |          2203648
 2017-02-04 02:39:14.881378+01 | 1486172354.88138 | pgbench_tellers_pkey  |          9527296
 2017-02-04 02:39:14.881378+01 | 1486172354.88138 | pgbench_accounts_pkey |       2246197248

 2017-02-04 02:39:15.963877+01 | 1486172355.96388 | pgbench_branches_pkey |          2203648
 2017-02-04 02:39:15.963877+01 | 1486172355.96388 | pgbench_tellers_pkey  |          9527296
 2017-02-04 02:39:15.963877+01 | 1486172355.96388 | pgbench_accounts_pkey |       2246197248

 2017-02-04 02:39:17.04345+01 | 1486172357.04345 | pgbench_branches_pkey |          2203648
 2017-02-04 02:39:17.04345+01 | 1486172357.04345 | pgbench_tellers_pkey  |          9527296
 2017-02-04 02:39:17.04345+01 | 1486172357.04345 | pgbench_accounts_pkey |       2246197248

 2017-02-04 02:39:18.132521+01 | 1486172358.13252 | pgbench_branches_pkey |          2203648
 2017-02-04 02:39:18.132521+01 | 1486172358.13252 | pgbench_tellers_pkey  |          9527296
 2017-02-04 02:39:18.132521+01 | 1486172358.13252 | pgbench_accounts_pkey |       2246197248

 2017-02-04 02:39:19.224969+01 | 1486172359.22497 | pgbench_branches_pkey |          2203648
 2017-02-04 02:39:19.224969+01 | 1486172359.22497 | pgbench_tellers_pkey  |          9527296
 2017-02-04 02:39:19.224969+01 | 1486172359.22497 | pgbench_accounts_pkey |       2246197248

 2017-02-04 02:39:20.314664+01 | 1486172360.31466 | pgbench_branches_pkey |          2203648
 2017-02-04 02:39:20.314664+01 | 1486172360.31466 | pgbench_tellers_pkey  |          9527296
 2017-02-04 02:39:20.314664+01 | 1486172360.31466 | pgbench_accounts_pkey |       2246197248

 2017-02-04 02:39:21.394664+01 | 1486172361.39466 | pgbench_branches_pkey |          2203648
 2017-02-04 02:39:21.394664+01 | 1486172361.39466 | pgbench_tellers_pkey  |          9527296
 2017-02-04 02:39:21.394664+01 | 1486172361.39466 | pgbench_accounts_pkey |       2246197248

 2017-02-04 02:39:22.492723+01 | 1486172362.49272 | pgbench_branches_pkey |          2203648
 2017-02-04 02:39:22.492723+01 | 1486172362.49272 | pgbench_tellers_pkey  |          9527296
 2017-02-04 02:39:22.492723+01 | 1486172362.49272 | pgbench_accounts_pkey |       2246197248

 2017-02-04 02:39:23.586115+01 | 1486172363.58611 | pgbench_branches_pkey |          2203648
 2017-02-04 02:39:23.586115+01 | 1486172363.58611 | pgbench_tellers_pkey  |          9527296
 2017-02-04 02:39:23.586115+01 | 1486172363.58611 | pgbench_accounts_pkey |       2246197248

 2017-02-04 02:39:24.683092+01 | 1486172364.68309 | pgbench_branches_pkey |          2203648
 2017-02-04 02:39:24.683092+01 | 1486172364.68309 | pgbench_tellers_pkey  |          9527296
 2017-02-04 02:39:24.683092+01 | 1486172364.68309 | pgbench_accounts_pkey |       2246197248

 2017-02-04 02:39:25.764395+01 | 1486172365.76439 | pgbench_branches_pkey |          2203648
 2017-02-04 02:39:25.764395+01 | 1486172365.76439 | pgbench_tellers_pkey  |          9527296
 2017-02-04 02:39:25.764395+01 | 1486172365.76439 | pgbench_accounts_pkey |       2246197248

 2017-02-04 02:39:26.848376+01 | 1486172366.84838 | pgbench_branches_pkey |          2203648
 2017-02-04 02:39:26.848376+01 | 1486172366.84838 | pgbench_tellers_pkey  |          9527296
 2017-02-04 02:39:26.848376+01 | 1486172366.84838 | pgbench_accounts_pkey |       2246197248

 2017-02-04 02:39:27.937201+01 | 1486172367.9372 | pgbench_branches_pkey |          2203648
 2017-02-04 02:39:27.937201+01 | 1486172367.9372 | pgbench_tellers_pkey  |          9527296
 2017-02-04 02:39:27.937201+01 | 1486172367.9372 | pgbench_accounts_pkey |       2246197248

 2017-02-04 02:39:29.02034+01 | 1486172369.02034 | pgbench_branches_pkey |          2203648
 2017-02-04 02:39:29.02034+01 | 1486172369.02034 | pgbench_tellers_pkey  |          9527296
 2017-02-04 02:39:29.02034+01 | 1486172369.02034 | pgbench_accounts_pkey |       2246197248

 2017-02-04 02:39:30.110255+01 | 1486172370.11026 | pgbench_branches_pkey |          2203648
 2017-02-04 02:39:30.110255+01 | 1486172370.11026 | pgbench_tellers_pkey  |          9527296
 2017-02-04 02:39:30.110255+01 | 1486172370.11026 | pgbench_accounts_pkey |       2246197248

 2017-02-04 02:39:31.18798+01 | 1486172371.18798 | pgbench_branches_pkey |          2203648
 2017-02-04 02:39:31.18798+01 | 1486172371.18798 | pgbench_tellers_pkey  |          9527296
 2017-02-04 02:39:31.18798+01 | 1486172371.18798 | pgbench_accounts_pkey |       2246197248

 2017-02-04 02:39:32.269912+01 | 1486172372.26991 | pgbench_branches_pkey |          2203648
 2017-02-04 02:39:32.269912+01 | 1486172372.26991 | pgbench_tellers_pkey  |          9527296
 2017-02-04 02:39:32.269912+01 | 1486172372.26991 | pgbench_accounts_pkey |       2246197248

 2017-02-04 02:39:33.340199+01 | 1486172373.3402 | pgbench_branches_pkey |          2203648
 2017-02-04 02:39:33.340199+01 | 1486172373.3402 | pgbench_tellers_pkey  |          9527296
 2017-02-04 02:39:33.340199+01 | 1486172373.3402 | pgbench_accounts_pkey |       2246197248

 2017-02-04 02:39:34.399766+01 | 1486172374.39977 | pgbench_branches_pkey |          2203648
 2017-02-04 02:39:34.399766+01 | 1486172374.39977 | pgbench_tellers_pkey  |          9527296
 2017-02-04 02:39:34.399766+01 | 1486172374.39977 | pgbench_accounts_pkey |       2246197248

 2017-02-04 02:39:35.457103+01 | 1486172375.4571 | pgbench_branches_pkey |          2203648
 2017-02-04 02:39:35.457103+01 | 1486172375.4571 | pgbench_tellers_pkey  |          9527296
 2017-02-04 02:39:35.457103+01 | 1486172375.4571 | pgbench_accounts_pkey |       2246197248

 2017-02-04 02:39:36.539186+01 | 1486172376.53919 | pgbench_branches_pkey |          2203648
 2017-02-04 02:39:36.539186+01 | 1486172376.53919 | pgbench_tellers_pkey  |          9527296
 2017-02-04 02:39:36.539186+01 | 1486172376.53919 | pgbench_accounts_pkey |       2246197248

 2017-02-04 02:39:37.632247+01 | 1486172377.63225 | pgbench_branches_pkey |          2203648
 2017-02-04 02:39:37.632247+01 | 1486172377.63225 | pgbench_tellers_pkey  |          9527296
 2017-02-04 02:39:37.632247+01 | 1486172377.63225 | pgbench_accounts_pkey |       2246197248

 2017-02-04 02:39:38.730394+01 | 1486172378.73039 | pgbench_branches_pkey |          2203648
 2017-02-04 02:39:38.730394+01 | 1486172378.73039 | pgbench_tellers_pkey  |          9527296
 2017-02-04 02:39:38.730394+01 | 1486172378.73039 | pgbench_accounts_pkey |       2246197248

 2017-02-04 02:39:39.814985+01 | 1486172379.81499 | pgbench_branches_pkey |          2203648
 2017-02-04 02:39:39.814985+01 | 1486172379.81499 | pgbench_tellers_pkey  |          9527296
 2017-02-04 02:39:39.814985+01 | 1486172379.81499 | pgbench_accounts_pkey |       2246197248

 2017-02-04 02:39:40.896887+01 | 1486172380.89689 | pgbench_branches_pkey |          2203648
 2017-02-04 02:39:40.896887+01 | 1486172380.89689 | pgbench_tellers_pkey  |          9527296
 2017-02-04 02:39:40.896887+01 | 1486172380.89689 | pgbench_accounts_pkey |       2246197248

 2017-02-04 02:39:41.971276+01 | 1486172381.97128 | pgbench_branches_pkey |          2203648
 2017-02-04 02:39:41.971276+01 | 1486172381.97128 | pgbench_tellers_pkey  |          9527296
 2017-02-04 02:39:41.971276+01 | 1486172381.97128 | pgbench_accounts_pkey |       2246197248

 2017-02-04 02:39:43.059452+01 | 1486172383.05945 | pgbench_branches_pkey |          2203648
 2017-02-04 02:39:43.059452+01 | 1486172383.05945 | pgbench_tellers_pkey  |          9527296
 2017-02-04 02:39:43.059452+01 | 1486172383.05945 | pgbench_accounts_pkey |       2246197248

 2017-02-04 02:39:44.141422+01 | 1486172384.14142 | pgbench_branches_pkey |          2203648
 2017-02-04 02:39:44.141422+01 | 1486172384.14142 | pgbench_tellers_pkey  |          9527296
 2017-02-04 02:39:44.141422+01 | 1486172384.14142 | pgbench_accounts_pkey |       2246197248

 2017-02-04 02:39:45.222892+01 | 1486172385.22289 | pgbench_branches_pkey |          2203648
 2017-02-04 02:39:45.222892+01 | 1486172385.22289 | pgbench_tellers_pkey  |          9527296
 2017-02-04 02:39:45.222892+01 | 1486172385.22289 | pgbench_accounts_pkey |       2246197248

 2017-02-04 02:39:46.306609+01 | 1486172386.30661 | pgbench_branches_pkey |          2203648
 2017-02-04 02:39:46.306609+01 | 1486172386.30661 | pgbench_tellers_pkey  |          9527296
 2017-02-04 02:39:46.306609+01 | 1486172386.30661 | pgbench_accounts_pkey |       2246197248

 2017-02-04 02:39:47.39425+01 | 1486172387.39425 | pgbench_branches_pkey |          2203648
 2017-02-04 02:39:47.39425+01 | 1486172387.39425 | pgbench_tellers_pkey  |          9527296
 2017-02-04 02:39:47.39425+01 | 1486172387.39425 | pgbench_accounts_pkey |       2246197248

 2017-02-04 02:39:48.488661+01 | 1486172388.48866 | pgbench_branches_pkey |          2203648
 2017-02-04 02:39:48.488661+01 | 1486172388.48866 | pgbench_tellers_pkey  |          9527296
 2017-02-04 02:39:48.488661+01 | 1486172388.48866 | pgbench_accounts_pkey |       2246197248

 2017-02-04 02:39:49.574782+01 | 1486172389.57478 | pgbench_branches_pkey |          2203648
 2017-02-04 02:39:49.574782+01 | 1486172389.57478 | pgbench_tellers_pkey  |          9527296
 2017-02-04 02:39:49.574782+01 | 1486172389.57478 | pgbench_accounts_pkey |       2246197248

 2017-02-04 02:39:50.670494+01 | 1486172390.67049 | pgbench_branches_pkey |          2203648
 2017-02-04 02:39:50.670494+01 | 1486172390.67049 | pgbench_tellers_pkey  |          9527296
 2017-02-04 02:39:50.670494+01 | 1486172390.67049 | pgbench_accounts_pkey |       2246197248

 2017-02-04 02:39:51.768757+01 | 1486172391.76876 | pgbench_branches_pkey |          2203648
 2017-02-04 02:39:51.768757+01 | 1486172391.76876 | pgbench_tellers_pkey  |          9527296
 2017-02-04 02:39:51.768757+01 | 1486172391.76876 | pgbench_accounts_pkey |       2246197248

 2017-02-04 02:39:52.869018+01 | 1486172392.86902 | pgbench_branches_pkey |          2203648
 2017-02-04 02:39:52.869018+01 | 1486172392.86902 | pgbench_tellers_pkey  |          9527296
 2017-02-04 02:39:52.869018+01 | 1486172392.86902 | pgbench_accounts_pkey |       2246197248

 2017-02-04 02:39:53.947479+01 | 1486172393.94748 | pgbench_branches_pkey |          2203648
 2017-02-04 02:39:53.947479+01 | 1486172393.94748 | pgbench_tellers_pkey  |          9527296
 2017-02-04 02:39:53.947479+01 | 1486172393.94748 | pgbench_accounts_pkey |       2246197248

 2017-02-04 02:39:55.038387+01 | 1486172395.03839 | pgbench_branches_pkey |          2203648
 2017-02-04 02:39:55.038387+01 | 1486172395.03839 | pgbench_tellers_pkey  |          9527296
 2017-02-04 02:39:55.038387+01 | 1486172395.03839 | pgbench_accounts_pkey |       2246197248

 2017-02-04 02:39:56.127385+01 | 1486172396.12738 | pgbench_branches_pkey |          2203648
 2017-02-04 02:39:56.127385+01 | 1486172396.12738 | pgbench_tellers_pkey  |          9527296
 2017-02-04 02:39:56.127385+01 | 1486172396.12738 | pgbench_accounts_pkey |       2246197248

 2017-02-04 02:39:57.220075+01 | 1486172397.22007 | pgbench_branches_pkey |          2203648
 2017-02-04 02:39:57.220075+01 | 1486172397.22007 | pgbench_tellers_pkey  |          9527296
 2017-02-04 02:39:57.220075+01 | 1486172397.22007 | pgbench_accounts_pkey |       2246197248

 2017-02-04 02:39:58.302598+01 | 1486172398.3026 | pgbench_branches_pkey |          2203648
 2017-02-04 02:39:58.302598+01 | 1486172398.3026 | pgbench_tellers_pkey  |          9527296
 2017-02-04 02:39:58.302598+01 | 1486172398.3026 | pgbench_accounts_pkey |       2246197248

 2017-02-04 02:39:59.397963+01 | 1486172399.39796 | pgbench_branches_pkey |          2203648
 2017-02-04 02:39:59.397963+01 | 1486172399.39796 | pgbench_tellers_pkey  |          9527296
 2017-02-04 02:39:59.397963+01 | 1486172399.39796 | pgbench_accounts_pkey |       2246197248

 2017-02-04 02:40:00.521362+01 | 1486172400.52136 | pgbench_branches_pkey |          2203648
 2017-02-04 02:40:00.521362+01 | 1486172400.52136 | pgbench_tellers_pkey  |          9527296
 2017-02-04 02:40:00.521362+01 | 1486172400.52136 | pgbench_accounts_pkey |       2246197248

 2017-02-04 02:40:01.601928+01 | 1486172401.60193 | pgbench_branches_pkey |          2203648
 2017-02-04 02:40:01.601928+01 | 1486172401.60193 | pgbench_tellers_pkey  |          9527296
 2017-02-04 02:40:01.601928+01 | 1486172401.60193 | pgbench_accounts_pkey |       2246197248

 2017-02-04 02:40:02.671786+01 | 1486172402.67179 | pgbench_branches_pkey |          2203648
 2017-02-04 02:40:02.671786+01 | 1486172402.67179 | pgbench_tellers_pkey  |          9527296
 2017-02-04 02:40:02.671786+01 | 1486172402.67179 | pgbench_accounts_pkey |       2246197248

 2017-02-04 02:40:03.765752+01 | 1486172403.76575 | pgbench_branches_pkey |          2203648
 2017-02-04 02:40:03.765752+01 | 1486172403.76575 | pgbench_tellers_pkey  |          9527296
 2017-02-04 02:40:03.765752+01 | 1486172403.76575 | pgbench_accounts_pkey |       2246197248

 2017-02-04 02:40:04.864793+01 | 1486172404.86479 | pgbench_branches_pkey |          2203648
 2017-02-04 02:40:04.864793+01 | 1486172404.86479 | pgbench_tellers_pkey  |          9527296
 2017-02-04 02:40:04.864793+01 | 1486172404.86479 | pgbench_accounts_pkey |       2246197248

 2017-02-04 02:40:05.955124+01 | 1486172405.95512 | pgbench_branches_pkey |          2203648
 2017-02-04 02:40:05.955124+01 | 1486172405.95512 | pgbench_tellers_pkey  |          9527296
 2017-02-04 02:40:05.955124+01 | 1486172405.95512 | pgbench_accounts_pkey |       2246197248

 2017-02-04 02:40:07.034694+01 | 1486172407.03469 | pgbench_branches_pkey |          2203648
 2017-02-04 02:40:07.034694+01 | 1486172407.03469 | pgbench_tellers_pkey  |          9527296
 2017-02-04 02:40:07.034694+01 | 1486172407.03469 | pgbench_accounts_pkey |       2246197248

 2017-02-04 02:40:08.101791+01 | 1486172408.10179 | pgbench_branches_pkey |          2203648
 2017-02-04 02:40:08.101791+01 | 1486172408.10179 | pgbench_tellers_pkey  |          9527296
 2017-02-04 02:40:08.101791+01 | 1486172408.10179 | pgbench_accounts_pkey |       2246197248

 2017-02-04 02:40:09.163522+01 | 1486172409.16352 | pgbench_branches_pkey |          2203648
 2017-02-04 02:40:09.163522+01 | 1486172409.16352 | pgbench_tellers_pkey  |          9527296
 2017-02-04 02:40:09.163522+01 | 1486172409.16352 | pgbench_accounts_pkey |       2246197248

 2017-02-04 02:40:10.249647+01 | 1486172410.24965 | pgbench_branches_pkey |          2203648
 2017-02-04 02:40:10.249647+01 | 1486172410.24965 | pgbench_tellers_pkey  |          9527296
 2017-02-04 02:40:10.249647+01 | 1486172410.24965 | pgbench_accounts_pkey |       2246197248

 2017-02-04 02:40:11.341532+01 | 1486172411.34153 | pgbench_branches_pkey |          2203648
 2017-02-04 02:40:11.341532+01 | 1486172411.34153 | pgbench_tellers_pkey  |          9527296
 2017-02-04 02:40:11.341532+01 | 1486172411.34153 | pgbench_accounts_pkey |       2246197248

 2017-02-04 02:40:12.432074+01 | 1486172412.43207 | pgbench_branches_pkey |          2203648
 2017-02-04 02:40:12.432074+01 | 1486172412.43207 | pgbench_tellers_pkey  |          9527296
 2017-02-04 02:40:12.432074+01 | 1486172412.43207 | pgbench_accounts_pkey |       2246197248

 2017-02-04 02:40:13.516051+01 | 1486172413.51605 | pgbench_branches_pkey |          2203648
 2017-02-04 02:40:13.516051+01 | 1486172413.51605 | pgbench_tellers_pkey  |          9527296
 2017-02-04 02:40:13.516051+01 | 1486172413.51605 | pgbench_accounts_pkey |       2246197248

 2017-02-04 02:40:14.611393+01 | 1486172414.61139 | pgbench_branches_pkey |          2203648
 2017-02-04 02:40:14.611393+01 | 1486172414.61139 | pgbench_tellers_pkey  |          9527296
 2017-02-04 02:40:14.611393+01 | 1486172414.61139 | pgbench_accounts_pkey |       2246197248

 2017-02-04 02:40:15.694675+01 | 1486172415.69467 | pgbench_branches_pkey |          2203648
 2017-02-04 02:40:15.694675+01 | 1486172415.69467 | pgbench_tellers_pkey  |          9527296
 2017-02-04 02:40:15.694675+01 | 1486172415.69467 | pgbench_accounts_pkey |       2246197248

 2017-02-04 02:40:16.789716+01 | 1486172416.78972 | pgbench_branches_pkey |          2203648
 2017-02-04 02:40:16.789716+01 | 1486172416.78972 | pgbench_tellers_pkey  |          9527296
 2017-02-04 02:40:16.789716+01 | 1486172416.78972 | pgbench_accounts_pkey |       2246197248

 2017-02-04 02:40:17.888536+01 | 1486172417.88854 | pgbench_branches_pkey |          2203648
 2017-02-04 02:40:17.888536+01 | 1486172417.88854 | pgbench_tellers_pkey  |          9527296
 2017-02-04 02:40:17.888536+01 | 1486172417.88854 | pgbench_accounts_pkey |       2246197248

 2017-02-04 02:40:18.966253+01 | 1486172418.96625 | pgbench_branches_pkey |          2203648
 2017-02-04 02:40:18.966253+01 | 1486172418.96625 | pgbench_tellers_pkey  |          9527296
 2017-02-04 02:40:18.966253+01 | 1486172418.96625 | pgbench_accounts_pkey |       2246197248

 2017-02-04 02:40:20.035032+01 | 1486172420.03503 | pgbench_branches_pkey |          2203648
 2017-02-04 02:40:20.035032+01 | 1486172420.03503 | pgbench_tellers_pkey  |          9527296
 2017-02-04 02:40:20.035032+01 | 1486172420.03503 | pgbench_accounts_pkey |       2246197248

 2017-02-04 02:40:21.102221+01 | 1486172421.10222 | pgbench_branches_pkey |          2203648
 2017-02-04 02:40:21.102221+01 | 1486172421.10222 | pgbench_tellers_pkey  |          9527296
 2017-02-04 02:40:21.102221+01 | 1486172421.10222 | pgbench_accounts_pkey |       2246197248

 2017-02-04 02:40:22.199659+01 | 1486172422.19966 | pgbench_branches_pkey |          2203648
 2017-02-04 02:40:22.199659+01 | 1486172422.19966 | pgbench_tellers_pkey  |          9527296
 2017-02-04 02:40:22.199659+01 | 1486172422.19966 | pgbench_accounts_pkey |       2246197248

 2017-02-04 02:40:23.286547+01 | 1486172423.28655 | pgbench_branches_pkey |          2203648
 2017-02-04 02:40:23.286547+01 | 1486172423.28655 | pgbench_tellers_pkey  |          9527296
 2017-02-04 02:40:23.286547+01 | 1486172423.28655 | pgbench_accounts_pkey |       2246197248

 2017-02-04 02:40:24.372546+01 | 1486172424.37255 | pgbench_branches_pkey |          2203648
 2017-02-04 02:40:24.372546+01 | 1486172424.37255 | pgbench_tellers_pkey  |          9527296
 2017-02-04 02:40:24.372546+01 | 1486172424.37255 | pgbench_accounts_pkey |       2246197248

 2017-02-04 02:40:25.445582+01 | 1486172425.44558 | pgbench_branches_pkey |          2203648
 2017-02-04 02:40:25.445582+01 | 1486172425.44558 | pgbench_tellers_pkey  |          9527296
 2017-02-04 02:40:25.445582+01 | 1486172425.44558 | pgbench_accounts_pkey |       2246197248

 2017-02-04 02:40:26.529942+01 | 1486172426.52994 | pgbench_branches_pkey |          2203648
 2017-02-04 02:40:26.529942+01 | 1486172426.52994 | pgbench_tellers_pkey  |          9527296
 2017-02-04 02:40:26.529942+01 | 1486172426.52994 | pgbench_accounts_pkey |       2246197248

 2017-02-04 02:40:27.616132+01 | 1486172427.61613 | pgbench_branches_pkey |          2203648
 2017-02-04 02:40:27.616132+01 | 1486172427.61613 | pgbench_tellers_pkey  |          9527296
 2017-02-04 02:40:27.616132+01 | 1486172427.61613 | pgbench_accounts_pkey |       2246197248

 2017-02-04 02:40:28.706084+01 | 1486172428.70608 | pgbench_branches_pkey |          2203648
 2017-02-04 02:40:28.706084+01 | 1486172428.70608 | pgbench_tellers_pkey  |          9527296
 2017-02-04 02:40:28.706084+01 | 1486172428.70608 | pgbench_accounts_pkey |       2246197248

 2017-02-04 02:40:29.793565+01 | 1486172429.79357 | pgbench_branches_pkey |          2203648
 2017-02-04 02:40:29.793565+01 | 1486172429.79357 | pgbench_tellers_pkey  |          9527296
 2017-02-04 02:40:29.793565+01 | 1486172429.79357 | pgbench_accounts_pkey |       2246197248

 2017-02-04 02:40:30.881185+01 | 1486172430.88119 | pgbench_branches_pkey |          2203648
 2017-02-04 02:40:30.881185+01 | 1486172430.88119 | pgbench_tellers_pkey  |          9527296
 2017-02-04 02:40:30.881185+01 | 1486172430.88119 | pgbench_accounts_pkey |       2246197248

 2017-02-04 02:40:31.980264+01 | 1486172431.98026 | pgbench_branches_pkey |          2203648
 2017-02-04 02:40:31.980264+01 | 1486172431.98026 | pgbench_tellers_pkey  |          9527296
 2017-02-04 02:40:31.980264+01 | 1486172431.98026 | pgbench_accounts_pkey |       2246197248

 2017-02-04 02:40:33.070479+01 | 1486172433.07048 | pgbench_branches_pkey |          2203648
 2017-02-04 02:40:33.070479+01 | 1486172433.07048 | pgbench_tellers_pkey  |          9527296
 2017-02-04 02:40:33.070479+01 | 1486172433.07048 | pgbench_accounts_pkey |       2246197248

 2017-02-04 02:40:34.148957+01 | 1486172434.14896 | pgbench_branches_pkey |          2203648
 2017-02-04 02:40:34.148957+01 | 1486172434.14896 | pgbench_tellers_pkey  |          9527296
 2017-02-04 02:40:34.148957+01 | 1486172434.14896 | pgbench_accounts_pkey |       2246197248

 2017-02-04 02:40:35.21931+01 | 1486172435.21931 | pgbench_branches_pkey |          2203648
 2017-02-04 02:40:35.21931+01 | 1486172435.21931 | pgbench_tellers_pkey  |          9527296
 2017-02-04 02:40:35.21931+01 | 1486172435.21931 | pgbench_accounts_pkey |       2246197248

 2017-02-04 02:40:36.309857+01 | 1486172436.30986 | pgbench_branches_pkey |          2203648
 2017-02-04 02:40:36.309857+01 | 1486172436.30986 | pgbench_tellers_pkey  |          9527296
 2017-02-04 02:40:36.309857+01 | 1486172436.30986 | pgbench_accounts_pkey |       2246197248

 2017-02-04 02:40:37.401124+01 | 1486172437.40112 | pgbench_branches_pkey |          2203648
 2017-02-04 02:40:37.401124+01 | 1486172437.40112 | pgbench_tellers_pkey  |          9527296
 2017-02-04 02:40:37.401124+01 | 1486172437.40112 | pgbench_accounts_pkey |       2246197248

 2017-02-04 02:40:38.49086+01 | 1486172438.49086 | pgbench_branches_pkey |          2203648
 2017-02-04 02:40:38.49086+01 | 1486172438.49086 | pgbench_tellers_pkey  |          9527296
 2017-02-04 02:40:38.49086+01 | 1486172438.49086 | pgbench_accounts_pkey |       2246197248

 2017-02-04 02:40:39.573667+01 | 1486172439.57367 | pgbench_branches_pkey |          2203648
 2017-02-04 02:40:39.573667+01 | 1486172439.57367 | pgbench_tellers_pkey  |          9527296
 2017-02-04 02:40:39.573667+01 | 1486172439.57367 | pgbench_accounts_pkey |       2246197248

 2017-02-04 02:40:40.655651+01 | 1486172440.65565 | pgbench_branches_pkey |          2203648
 2017-02-04 02:40:40.655651+01 | 1486172440.65565 | pgbench_tellers_pkey  |          9527296
 2017-02-04 02:40:40.655651+01 | 1486172440.65565 | pgbench_accounts_pkey |       2246197248

 2017-02-04 02:40:41.760198+01 | 1486172441.7602 | pgbench_branches_pkey |          2203648
 2017-02-04 02:40:41.760198+01 | 1486172441.7602 | pgbench_tellers_pkey  |          9527296
 2017-02-04 02:40:41.760198+01 | 1486172441.7602 | pgbench_accounts_pkey |       2246197248

 2017-02-04 02:40:42.840241+01 | 1486172442.84024 | pgbench_branches_pkey |          2203648
 2017-02-04 02:40:42.840241+01 | 1486172442.84024 | pgbench_tellers_pkey  |          9527296
 2017-02-04 02:40:42.840241+01 | 1486172442.84024 | pgbench_accounts_pkey |       2246197248

 2017-02-04 02:40:43.930459+01 | 1486172443.93046 | pgbench_branches_pkey |          2203648
 2017-02-04 02:40:43.930459+01 | 1486172443.93046 | pgbench_tellers_pkey  |          9527296
 2017-02-04 02:40:43.930459+01 | 1486172443.93046 | pgbench_accounts_pkey |       2246197248

 2017-02-04 02:40:45.019825+01 | 1486172445.01982 | pgbench_branches_pkey |          2203648
 2017-02-04 02:40:45.019825+01 | 1486172445.01982 | pgbench_tellers_pkey  |          9527296
 2017-02-04 02:40:45.019825+01 | 1486172445.01982 | pgbench_accounts_pkey |       2246197248

 2017-02-04 02:40:46.090924+01 | 1486172446.09092 | pgbench_branches_pkey |          2203648
 2017-02-04 02:40:46.090924+01 | 1486172446.09092 | pgbench_tellers_pkey  |          9527296
 2017-02-04 02:40:46.090924+01 | 1486172446.09092 | pgbench_accounts_pkey |       2246197248

 2017-02-04 02:40:47.196239+01 | 1486172447.19624 | pgbench_branches_pkey |          2203648
 2017-02-04 02:40:47.196239+01 | 1486172447.19624 | pgbench_tellers_pkey  |          9527296
 2017-02-04 02:40:47.196239+01 | 1486172447.19624 | pgbench_accounts_pkey |       2246197248

 2017-02-04 02:40:48.283296+01 | 1486172448.2833 | pgbench_branches_pkey |          2203648
 2017-02-04 02:40:48.283296+01 | 1486172448.2833 | pgbench_tellers_pkey  |          9527296
 2017-02-04 02:40:48.283296+01 | 1486172448.2833 | pgbench_accounts_pkey |       2246197248

 2017-02-04 02:40:49.374237+01 | 1486172449.37424 | pgbench_branches_pkey |          2203648
 2017-02-04 02:40:49.374237+01 | 1486172449.37424 | pgbench_tellers_pkey  |          9527296
 2017-02-04 02:40:49.374237+01 | 1486172449.37424 | pgbench_accounts_pkey |       2246197248

 2017-02-04 02:40:50.460032+01 | 1486172450.46003 | pgbench_branches_pkey |          2203648
 2017-02-04 02:40:50.460032+01 | 1486172450.46003 | pgbench_tellers_pkey  |          9527296
 2017-02-04 02:40:50.460032+01 | 1486172450.46003 | pgbench_accounts_pkey |       2246197248

 2017-02-04 02:40:51.554271+01 | 1486172451.55427 | pgbench_branches_pkey |          2203648
 2017-02-04 02:40:51.554271+01 | 1486172451.55427 | pgbench_tellers_pkey  |          9527296
 2017-02-04 02:40:51.554271+01 | 1486172451.55427 | pgbench_accounts_pkey |       2246197248

 2017-02-04 02:40:52.656702+01 | 1486172452.6567 | pgbench_branches_pkey |          2203648
 2017-02-04 02:40:52.656702+01 | 1486172452.6567 | pgbench_tellers_pkey  |          9527296
 2017-02-04 02:40:52.656702+01 | 1486172452.6567 | pgbench_accounts_pkey |       2246197248

 2017-02-04 02:40:53.753723+01 | 1486172453.75372 | pgbench_branches_pkey |          2203648
 2017-02-04 02:40:53.753723+01 | 1486172453.75372 | pgbench_tellers_pkey  |          9527296
 2017-02-04 02:40:53.753723+01 | 1486172453.75372 | pgbench_accounts_pkey |       2246197248

 2017-02-04 02:40:54.861301+01 | 1486172454.8613 | pgbench_branches_pkey |          2203648
 2017-02-04 02:40:54.861301+01 | 1486172454.8613 | pgbench_tellers_pkey  |          9527296
 2017-02-04 02:40:54.861301+01 | 1486172454.8613 | pgbench_accounts_pkey |       2246197248

 2017-02-04 02:40:55.935509+01 | 1486172455.93551 | pgbench_branches_pkey |          2203648
 2017-02-04 02:40:55.935509+01 | 1486172455.93551 | pgbench_tellers_pkey  |          9527296
 2017-02-04 02:40:55.935509+01 | 1486172455.93551 | pgbench_accounts_pkey |       2246197248

 2017-02-04 02:40:57.017941+01 | 1486172457.01794 | pgbench_branches_pkey |          2203648
 2017-02-04 02:40:57.017941+01 | 1486172457.01794 | pgbench_tellers_pkey  |          9527296
 2017-02-04 02:40:57.017941+01 | 1486172457.01794 | pgbench_accounts_pkey |       2246197248

 2017-02-04 02:40:58.109176+01 | 1486172458.10918 | pgbench_branches_pkey |          2203648
 2017-02-04 02:40:58.109176+01 | 1486172458.10918 | pgbench_tellers_pkey  |          9527296
 2017-02-04 02:40:58.109176+01 | 1486172458.10918 | pgbench_accounts_pkey |       2246197248

 2017-02-04 02:40:59.196893+01 | 1486172459.19689 | pgbench_branches_pkey |          2203648
 2017-02-04 02:40:59.196893+01 | 1486172459.19689 | pgbench_tellers_pkey  |          9527296
 2017-02-04 02:40:59.196893+01 | 1486172459.19689 | pgbench_accounts_pkey |       2246197248

 2017-02-04 02:41:00.29466+01 | 1486172460.29466 | pgbench_branches_pkey |          2203648
 2017-02-04 02:41:00.29466+01 | 1486172460.29466 | pgbench_tellers_pkey  |          9527296
 2017-02-04 02:41:00.29466+01 | 1486172460.29466 | pgbench_accounts_pkey |       2246197248

 2017-02-04 02:41:01.369977+01 | 1486172461.36998 | pgbench_branches_pkey |          2203648
 2017-02-04 02:41:01.369977+01 | 1486172461.36998 | pgbench_tellers_pkey  |          9527296
 2017-02-04 02:41:01.369977+01 | 1486172461.36998 | pgbench_accounts_pkey |       2246197248

 2017-02-04 02:41:02.448411+01 | 1486172462.44841 | pgbench_branches_pkey |          2203648
 2017-02-04 02:41:02.448411+01 | 1486172462.44841 | pgbench_tellers_pkey  |          9527296
 2017-02-04 02:41:02.448411+01 | 1486172462.44841 | pgbench_accounts_pkey |       2246197248

 2017-02-04 02:41:03.544017+01 | 1486172463.54402 | pgbench_branches_pkey |          2203648
 2017-02-04 02:41:03.544017+01 | 1486172463.54402 | pgbench_tellers_pkey  |          9527296
 2017-02-04 02:41:03.544017+01 | 1486172463.54402 | pgbench_accounts_pkey |       2246197248

 2017-02-04 02:41:04.644352+01 | 1486172464.64435 | pgbench_branches_pkey |          2203648
 2017-02-04 02:41:04.644352+01 | 1486172464.64435 | pgbench_tellers_pkey  |          9527296
 2017-02-04 02:41:04.644352+01 | 1486172464.64435 | pgbench_accounts_pkey |       2246197248

 2017-02-04 02:41:05.731304+01 | 1486172465.7313 | pgbench_branches_pkey |          2203648
 2017-02-04 02:41:05.731304+01 | 1486172465.7313 | pgbench_tellers_pkey  |          9527296
 2017-02-04 02:41:05.731304+01 | 1486172465.7313 | pgbench_accounts_pkey |       2246197248

 2017-02-04 02:41:06.823883+01 | 1486172466.82388 | pgbench_branches_pkey |          2203648
 2017-02-04 02:41:06.823883+01 | 1486172466.82388 | pgbench_tellers_pkey  |          9527296
 2017-02-04 02:41:06.823883+01 | 1486172466.82388 | pgbench_accounts_pkey |       2246197248

 2017-02-04 02:41:07.91264+01 | 1486172467.91264 | pgbench_branches_pkey |          2203648
 2017-02-04 02:41:07.91264+01 | 1486172467.91264 | pgbench_tellers_pkey  |          9527296
 2017-02-04 02:41:07.91264+01 | 1486172467.91264 | pgbench_accounts_pkey |       2246197248

 2017-02-04 02:41:08.999987+01 | 1486172468.99999 | pgbench_branches_pkey |          2203648
 2017-02-04 02:41:08.999987+01 | 1486172468.99999 | pgbench_tellers_pkey  |          9527296
 2017-02-04 02:41:08.999987+01 | 1486172468.99999 | pgbench_accounts_pkey |       2246197248

 2017-02-04 02:41:10.08341+01 | 1486172470.08341 | pgbench_branches_pkey |          2203648
 2017-02-04 02:41:10.08341+01 | 1486172470.08341 | pgbench_tellers_pkey  |          9527296
 2017-02-04 02:41:10.08341+01 | 1486172470.08341 | pgbench_accounts_pkey |       2246197248

 2017-02-04 02:41:11.164102+01 | 1486172471.1641 | pgbench_branches_pkey |          2203648
 2017-02-04 02:41:11.164102+01 | 1486172471.1641 | pgbench_tellers_pkey  |          9527296
 2017-02-04 02:41:11.164102+01 | 1486172471.1641 | pgbench_accounts_pkey |       2246197248

 2017-02-04 02:41:12.236467+01 | 1486172472.23647 | pgbench_branches_pkey |          2203648
 2017-02-04 02:41:12.236467+01 | 1486172472.23647 | pgbench_tellers_pkey  |          9527296
 2017-02-04 02:41:12.236467+01 | 1486172472.23647 | pgbench_accounts_pkey |       2246197248

 2017-02-04 02:41:13.306218+01 | 1486172473.30622 | pgbench_branches_pkey |          2203648
 2017-02-04 02:41:13.306218+01 | 1486172473.30622 | pgbench_tellers_pkey  |          9527296
 2017-02-04 02:41:13.306218+01 | 1486172473.30622 | pgbench_accounts_pkey |       2246197248

 2017-02-04 02:41:14.394014+01 | 1486172474.39401 | pgbench_branches_pkey |          2203648
 2017-02-04 02:41:14.394014+01 | 1486172474.39401 | pgbench_tellers_pkey  |          9527296
 2017-02-04 02:41:14.394014+01 | 1486172474.39401 | pgbench_accounts_pkey |       2246197248

 2017-02-04 02:41:15.481783+01 | 1486172475.48178 | pgbench_branches_pkey |          2203648
 2017-02-04 02:41:15.481783+01 | 1486172475.48178 | pgbench_tellers_pkey  |          9527296
 2017-02-04 02:41:15.481783+01 | 1486172475.48178 | pgbench_accounts_pkey |       2246197248

 2017-02-04 02:41:16.574725+01 | 1486172476.57472 | pgbench_branches_pkey |          2203648
 2017-02-04 02:41:16.574725+01 | 1486172476.57472 | pgbench_tellers_pkey  |          9527296
 2017-02-04 02:41:16.574725+01 | 1486172476.57472 | pgbench_accounts_pkey |       2246197248

 2017-02-04 02:41:17.661533+01 | 1486172477.66153 | pgbench_branches_pkey |          2203648
 2017-02-04 02:41:17.661533+01 | 1486172477.66153 | pgbench_tellers_pkey  |          9527296
 2017-02-04 02:41:17.661533+01 | 1486172477.66153 | pgbench_accounts_pkey |       2246197248

 2017-02-04 02:41:18.748528+01 | 1486172478.74853 | pgbench_branches_pkey |          2203648
 2017-02-04 02:41:18.748528+01 | 1486172478.74853 | pgbench_tellers_pkey  |          9527296
 2017-02-04 02:41:18.748528+01 | 1486172478.74853 | pgbench_accounts_pkey |       2246197248

 2017-02-04 02:41:19.846129+01 | 1486172479.84613 | pgbench_branches_pkey |          2203648
 2017-02-04 02:41:19.846129+01 | 1486172479.84613 | pgbench_tellers_pkey  |          9527296
 2017-02-04 02:41:19.846129+01 | 1486172479.84613 | pgbench_accounts_pkey |       2246197248

 2017-02-04 02:41:20.938962+01 | 1486172480.93896 | pgbench_branches_pkey |          2203648
 2017-02-04 02:41:20.938962+01 | 1486172480.93896 | pgbench_tellers_pkey  |          9527296
 2017-02-04 02:41:20.938962+01 | 1486172480.93896 | pgbench_accounts_pkey |       2246197248

 2017-02-04 02:41:22.011579+01 | 1486172482.01158 | pgbench_branches_pkey |          2203648
 2017-02-04 02:41:22.011579+01 | 1486172482.01158 | pgbench_tellers_pkey  |          9527296
 2017-02-04 02:41:22.011579+01 | 1486172482.01158 | pgbench_accounts_pkey |       2246197248

 2017-02-04 02:41:23.083987+01 | 1486172483.08399 | pgbench_branches_pkey |          2203648
 2017-02-04 02:41:23.083987+01 | 1486172483.08399 | pgbench_tellers_pkey  |          9527296
 2017-02-04 02:41:23.083987+01 | 1486172483.08399 | pgbench_accounts_pkey |       2246197248

 2017-02-04 02:41:24.153886+01 | 1486172484.15389 | pgbench_branches_pkey |          2203648
 2017-02-04 02:41:24.153886+01 | 1486172484.15389 | pgbench_tellers_pkey  |          9527296
 2017-02-04 02:41:24.153886+01 | 1486172484.15389 | pgbench_accounts_pkey |       2246197248

 2017-02-04 02:41:25.217875+01 | 1486172485.21788 | pgbench_branches_pkey |          2203648
 2017-02-04 02:41:25.217875+01 | 1486172485.21788 | pgbench_tellers_pkey  |          9527296
 2017-02-04 02:41:25.217875+01 | 1486172485.21788 | pgbench_accounts_pkey |       2246197248

 2017-02-04 02:41:26.301137+01 | 1486172486.30114 | pgbench_branches_pkey |          2203648
 2017-02-04 02:41:26.301137+01 | 1486172486.30114 | pgbench_tellers_pkey  |          9527296
 2017-02-04 02:41:26.301137+01 | 1486172486.30114 | pgbench_accounts_pkey |       2246197248

 2017-02-04 02:41:27.384852+01 | 1486172487.38485 | pgbench_branches_pkey |          2203648
 2017-02-04 02:41:27.384852+01 | 1486172487.38485 | pgbench_tellers_pkey  |          9527296
 2017-02-04 02:41:27.384852+01 | 1486172487.38485 | pgbench_accounts_pkey |       2246197248

 2017-02-04 02:41:28.471916+01 | 1486172488.47192 | pgbench_branches_pkey |          2203648
 2017-02-04 02:41:28.471916+01 | 1486172488.47192 | pgbench_tellers_pkey  |          9527296
 2017-02-04 02:41:28.471916+01 | 1486172488.47192 | pgbench_accounts_pkey |       2246197248

 2017-02-04 02:41:29.559496+01 | 1486172489.5595 | pgbench_branches_pkey |          2203648
 2017-02-04 02:41:29.559496+01 | 1486172489.5595 | pgbench_tellers_pkey  |          9527296
 2017-02-04 02:41:29.559496+01 | 1486172489.5595 | pgbench_accounts_pkey |       2246197248

 2017-02-04 02:41:30.658388+01 | 1486172490.65839 | pgbench_branches_pkey |          2203648
 2017-02-04 02:41:30.658388+01 | 1486172490.65839 | pgbench_tellers_pkey  |          9527296
 2017-02-04 02:41:30.658388+01 | 1486172490.65839 | pgbench_accounts_pkey |       2246197248

 2017-02-04 02:41:31.751278+01 | 1486172491.75128 | pgbench_branches_pkey |          2203648
 2017-02-04 02:41:31.751278+01 | 1486172491.75128 | pgbench_tellers_pkey  |          9527296
 2017-02-04 02:41:31.751278+01 | 1486172491.75128 | pgbench_accounts_pkey |       2246197248

 2017-02-04 02:41:32.837809+01 | 1486172492.83781 | pgbench_branches_pkey |          2203648
 2017-02-04 02:41:32.837809+01 | 1486172492.83781 | pgbench_tellers_pkey  |          9527296
 2017-02-04 02:41:32.837809+01 | 1486172492.83781 | pgbench_accounts_pkey |       2246197248

 2017-02-04 02:41:33.928262+01 | 1486172493.92826 | pgbench_branches_pkey |          2203648
 2017-02-04 02:41:33.928262+01 | 1486172493.92826 | pgbench_tellers_pkey  |          9527296
 2017-02-04 02:41:33.928262+01 | 1486172493.92826 | pgbench_accounts_pkey |       2246197248

 2017-02-04 02:41:35.020752+01 | 1486172495.02075 | pgbench_branches_pkey |          2203648
 2017-02-04 02:41:35.020752+01 | 1486172495.02075 | pgbench_tellers_pkey  |          9527296
 2017-02-04 02:41:35.020752+01 | 1486172495.02075 | pgbench_accounts_pkey |       2246197248

 2017-02-04 02:41:36.11199+01 | 1486172496.11199 | pgbench_branches_pkey |          2203648
 2017-02-04 02:41:36.11199+01 | 1486172496.11199 | pgbench_tellers_pkey  |          9527296
 2017-02-04 02:41:36.11199+01 | 1486172496.11199 | pgbench_accounts_pkey |       2246197248

 2017-02-04 02:41:37.195333+01 | 1486172497.19533 | pgbench_branches_pkey |          2203648
 2017-02-04 02:41:37.195333+01 | 1486172497.19533 | pgbench_tellers_pkey  |          9527296
 2017-02-04 02:41:37.195333+01 | 1486172497.19533 | pgbench_accounts_pkey |       2246197248

 2017-02-04 02:41:38.279338+01 | 1486172498.27934 | pgbench_branches_pkey |          2203648
 2017-02-04 02:41:38.279338+01 | 1486172498.27934 | pgbench_tellers_pkey  |          9527296
 2017-02-04 02:41:38.279338+01 | 1486172498.27934 | pgbench_accounts_pkey |       2246197248

 2017-02-04 02:41:39.367112+01 | 1486172499.36711 | pgbench_branches_pkey |          2203648
 2017-02-04 02:41:39.367112+01 | 1486172499.36711 | pgbench_tellers_pkey  |          9527296
 2017-02-04 02:41:39.367112+01 | 1486172499.36711 | pgbench_accounts_pkey |       2246197248

 2017-02-04 02:41:40.444254+01 | 1486172500.44425 | pgbench_branches_pkey |          2203648
 2017-02-04 02:41:40.444254+01 | 1486172500.44425 | pgbench_tellers_pkey  |          9527296
 2017-02-04 02:41:40.444254+01 | 1486172500.44425 | pgbench_accounts_pkey |       2246197248

 2017-02-04 02:41:41.533646+01 | 1486172501.53365 | pgbench_branches_pkey |          2203648
 2017-02-04 02:41:41.533646+01 | 1486172501.53365 | pgbench_tellers_pkey  |          9527296
 2017-02-04 02:41:41.533646+01 | 1486172501.53365 | pgbench_accounts_pkey |       2246197248

 2017-02-04 02:41:42.597743+01 | 1486172502.59774 | pgbench_branches_pkey |          2203648
 2017-02-04 02:41:42.597743+01 | 1486172502.59774 | pgbench_tellers_pkey  |          9527296
 2017-02-04 02:41:42.597743+01 | 1486172502.59774 | pgbench_accounts_pkey |       2246197248

 2017-02-04 02:41:43.689946+01 | 1486172503.68995 | pgbench_branches_pkey |          2203648
 2017-02-04 02:41:43.689946+01 | 1486172503.68995 | pgbench_tellers_pkey  |          9527296
 2017-02-04 02:41:43.689946+01 | 1486172503.68995 | pgbench_accounts_pkey |       2246197248

 2017-02-04 02:41:44.784361+01 | 1486172504.78436 | pgbench_branches_pkey |          2203648
 2017-02-04 02:41:44.784361+01 | 1486172504.78436 | pgbench_tellers_pkey  |          9527296
 2017-02-04 02:41:44.784361+01 | 1486172504.78436 | pgbench_accounts_pkey |       2246197248

 2017-02-04 02:41:45.877886+01 | 1486172505.87789 | pgbench_branches_pkey |          2203648
 2017-02-04 02:41:45.877886+01 | 1486172505.87789 | pgbench_tellers_pkey  |          9527296
 2017-02-04 02:41:45.877886+01 | 1486172505.87789 | pgbench_accounts_pkey |       2246197248

 2017-02-04 02:41:46.966195+01 | 1486172506.9662 | pgbench_branches_pkey |          2203648
 2017-02-04 02:41:46.966195+01 | 1486172506.9662 | pgbench_tellers_pkey  |          9527296
 2017-02-04 02:41:46.966195+01 | 1486172506.9662 | pgbench_accounts_pkey |       2246197248

 2017-02-04 02:41:48.051928+01 | 1486172508.05193 | pgbench_branches_pkey |          2203648
 2017-02-04 02:41:48.051928+01 | 1486172508.05193 | pgbench_tellers_pkey  |          9527296
 2017-02-04 02:41:48.051928+01 | 1486172508.05193 | pgbench_accounts_pkey |       2246197248

 2017-02-04 02:41:49.140937+01 | 1486172509.14094 | pgbench_branches_pkey |          2203648
 2017-02-04 02:41:49.140937+01 | 1486172509.14094 | pgbench_tellers_pkey  |          9527296
 2017-02-04 02:41:49.140937+01 | 1486172509.14094 | pgbench_accounts_pkey |       2246197248

 2017-02-04 02:41:50.228988+01 | 1486172510.22899 | pgbench_branches_pkey |          2203648
 2017-02-04 02:41:50.228988+01 | 1486172510.22899 | pgbench_tellers_pkey  |          9527296
 2017-02-04 02:41:50.228988+01 | 1486172510.22899 | pgbench_accounts_pkey |       2246197248

 2017-02-04 02:41:51.320574+01 | 1486172511.32057 | pgbench_branches_pkey |          2203648
 2017-02-04 02:41:51.320574+01 | 1486172511.32057 | pgbench_tellers_pkey  |          9527296
 2017-02-04 02:41:51.320574+01 | 1486172511.32057 | pgbench_accounts_pkey |       2246197248

 2017-02-04 02:41:52.409597+01 | 1486172512.4096 | pgbench_branches_pkey |          2203648
 2017-02-04 02:41:52.409597+01 | 1486172512.4096 | pgbench_tellers_pkey  |          9527296
 2017-02-04 02:41:52.409597+01 | 1486172512.4096 | pgbench_accounts_pkey |       2246197248

 2017-02-04 02:41:53.502519+01 | 1486172513.50252 | pgbench_branches_pkey |          2203648
 2017-02-04 02:41:53.502519+01 | 1486172513.50252 | pgbench_tellers_pkey  |          9527296
 2017-02-04 02:41:53.502519+01 | 1486172513.50252 | pgbench_accounts_pkey |       2246197248

 2017-02-04 02:41:54.598362+01 | 1486172514.59836 | pgbench_branches_pkey |          2203648
 2017-02-04 02:41:54.598362+01 | 1486172514.59836 | pgbench_tellers_pkey  |          9527296
 2017-02-04 02:41:54.598362+01 | 1486172514.59836 | pgbench_accounts_pkey |       2246197248

 2017-02-04 02:41:55.702655+01 | 1486172515.70266 | pgbench_branches_pkey |          2203648
 2017-02-04 02:41:55.702655+01 | 1486172515.70266 | pgbench_tellers_pkey  |          9527296
 2017-02-04 02:41:55.702655+01 | 1486172515.70266 | pgbench_accounts_pkey |       2246197248

 2017-02-04 02:41:56.800279+01 | 1486172516.80028 | pgbench_branches_pkey |          2203648
 2017-02-04 02:41:56.800279+01 | 1486172516.80028 | pgbench_tellers_pkey  |          9527296
 2017-02-04 02:41:56.800279+01 | 1486172516.80028 | pgbench_accounts_pkey |       2246197248

