 2017-02-05 08:32:53.536469+01 | 1486279973.53647 |                 0 |              17 |                 88498 |                 3475 |            4777894 |       2369543 |            23661 |        93735971 |                     0 |     354587141 | 2017-02-05 07:07:06.023438+01

 2017-02-05 08:32:54.623962+01 | 1486279974.62396 |                 0 |              17 |                 88498 |                 3475 |            4777894 |       2369543 |            23661 |        93735971 |                     0 |     354672104 | 2017-02-05 07:07:06.023438+01

 2017-02-05 08:32:55.702744+01 | 1486279975.70274 |                 0 |              17 |                 88498 |                 3475 |            4777894 |       2369543 |            23661 |        93735971 |                     0 |     354764111 | 2017-02-05 07:07:06.023438+01

 2017-02-05 08:32:56.781424+01 | 1486279976.78142 |                 0 |              17 |                 88498 |                 3475 |            4777894 |       2369867 |            23664 |        93735971 |                     0 |     354881241 | 2017-02-05 07:07:06.023438+01

 2017-02-05 08:32:57.863447+01 | 1486279977.86345 |                 0 |              17 |                 88498 |                 3475 |            4777894 |       2370367 |            23669 |        93735971 |                     0 |     354985852 | 2017-02-05 07:07:06.023438+01

 2017-02-05 08:32:58.942588+01 | 1486279978.94259 |                 0 |              17 |                 88498 |                 3475 |            4777894 |       2370867 |            23674 |        93735971 |                     0 |     355093562 | 2017-02-05 07:07:06.023438+01

 2017-02-05 08:33:00.027395+01 | 1486279980.0274 |                 0 |              17 |                 88498 |                 3475 |            4777894 |       2371467 |            23680 |        93735971 |                     0 |     355209656 | 2017-02-05 07:07:06.023438+01

 2017-02-05 08:33:01.116065+01 | 1486279981.11607 |                 0 |              17 |                 88498 |                 3475 |            4777894 |       2371967 |            23685 |        93735971 |                     0 |     355294424 | 2017-02-05 07:07:06.023438+01

 2017-02-05 08:33:02.200284+01 | 1486279982.20028 |                 0 |              17 |                 88498 |                 3475 |            4777894 |       2372467 |            23690 |        93735971 |                     0 |     355388587 | 2017-02-05 07:07:06.023438+01

 2017-02-05 08:33:03.276214+01 | 1486279983.27621 |                 0 |              17 |                 88498 |                 3475 |            4777894 |       2373067 |            23696 |        93735971 |                     0 |     355489520 | 2017-02-05 07:07:06.023438+01

 2017-02-05 08:33:04.351392+01 | 1486279984.35139 |                 0 |              17 |                 88498 |                 3475 |            4777894 |       2373567 |            23701 |        93735971 |                     0 |     355575813 | 2017-02-05 07:07:06.023438+01

 2017-02-05 08:33:05.426706+01 | 1486279985.42671 |                 0 |              17 |                 88498 |                 3475 |            4777894 |       2374067 |            23706 |        93735971 |                     0 |     355658762 | 2017-02-05 07:07:06.023438+01

 2017-02-05 08:33:06.506515+01 | 1486279986.50652 |                 0 |              17 |                 88498 |                 3475 |            4777894 |       2374667 |            23712 |        93735971 |                     0 |     355756900 | 2017-02-05 07:07:06.023438+01

 2017-02-05 08:33:07.583742+01 | 1486279987.58374 |                 0 |              17 |                 88498 |                 3475 |            4777894 |       2375167 |            23717 |        93735971 |                     0 |     355842711 | 2017-02-05 07:07:06.023438+01

 2017-02-05 08:33:08.655974+01 | 1486279988.65597 |                 0 |              17 |                 88498 |                 3475 |            4777894 |       2375667 |            23722 |        93735971 |                     0 |     355923299 | 2017-02-05 07:07:06.023438+01

 2017-02-05 08:33:09.728099+01 | 1486279989.7281 |                 0 |              17 |                 88498 |                 3475 |            4777894 |       2376267 |            23728 |        93735971 |                     0 |     356027601 | 2017-02-05 07:07:06.023438+01

 2017-02-05 08:33:10.801851+01 | 1486279990.80185 |                 0 |              17 |                 88498 |                 3475 |            4777894 |       2376767 |            23733 |        93735971 |                     0 |     356104781 | 2017-02-05 07:07:06.023438+01

 2017-02-05 08:33:11.882986+01 | 1486279991.88299 |                 0 |              17 |                 88498 |                 3475 |            4777894 |       2377267 |            23738 |        93735971 |                     0 |     356179602 | 2017-02-05 07:07:06.023438+01

 2017-02-05 08:33:12.958341+01 | 1486279992.95834 |                 0 |              17 |                 88498 |                 3475 |            4777894 |       2377867 |            23744 |        93735971 |                     0 |     356248853 | 2017-02-05 07:07:06.023438+01

 2017-02-05 08:33:14.037447+01 | 1486279994.03745 |                 0 |              17 |                 88498 |                 3475 |            4777894 |       2378367 |            23749 |        93735971 |                     0 |     356312822 | 2017-02-05 07:07:06.023438+01

 2017-02-05 08:33:15.117374+01 | 1486279995.11737 |                 0 |              17 |                 88498 |                 3475 |            4777894 |       2378867 |            23754 |        93735971 |                     0 |     356396010 | 2017-02-05 07:07:06.023438+01

 2017-02-05 08:33:16.201547+01 | 1486279996.20155 |                 0 |              17 |                 88498 |                 3475 |            4777894 |       2379467 |            23760 |        93735971 |                     0 |     356500923 | 2017-02-05 07:07:06.023438+01

 2017-02-05 08:33:17.280896+01 | 1486279997.2809 |                 0 |              17 |                 88498 |                 3475 |            4777894 |       2379967 |            23765 |        93735971 |                     0 |     356579321 | 2017-02-05 07:07:06.023438+01

 2017-02-05 08:33:18.363404+01 | 1486279998.3634 |                 0 |              17 |                 88498 |                 3475 |            4777894 |       2380467 |            23770 |        93735971 |                     0 |     356658088 | 2017-02-05 07:07:06.023438+01

 2017-02-05 08:33:19.431527+01 | 1486279999.43153 |                 0 |              17 |                 88498 |                 3475 |            4777894 |       2381067 |            23776 |        93735971 |                     0 |     356755887 | 2017-02-05 07:07:06.023438+01

 2017-02-05 08:33:20.510534+01 | 1486280000.51053 |                 0 |              17 |                 88498 |                 3475 |            4777894 |       2381567 |            23781 |        93735971 |                     0 |     356818621 | 2017-02-05 07:07:06.023438+01

 2017-02-05 08:33:21.594145+01 | 1486280001.59415 |                 0 |              17 |                 88498 |                 3475 |            4777894 |       2382067 |            23786 |        93735971 |                     0 |     356903912 | 2017-02-05 07:07:06.023438+01

 2017-02-05 08:33:22.69139+01 | 1486280002.69139 |                 0 |              17 |                 88498 |                 3475 |            4777894 |       2382667 |            23792 |        93735971 |                     0 |     357000553 | 2017-02-05 07:07:06.023438+01

 2017-02-05 08:33:23.770771+01 | 1486280003.77077 |                 0 |              17 |                 88498 |                 3475 |            4777894 |       2383167 |            23797 |        93735971 |                     0 |     357084757 | 2017-02-05 07:07:06.023438+01

 2017-02-05 08:33:24.858133+01 | 1486280004.85813 |                 0 |              17 |                 88498 |                 3475 |            4777894 |       2383767 |            23803 |        94247338 |                     0 |     357174415 | 2017-02-05 07:07:06.023438+01

 2017-02-05 08:33:25.937962+01 | 1486280005.93796 |                 0 |              17 |                 88498 |                 3475 |            4777894 |       2384267 |            23808 |        94247338 |                     0 |     357258857 | 2017-02-05 07:07:06.023438+01

 2017-02-05 08:33:27.015806+01 | 1486280007.01581 |                 0 |              17 |                 88498 |                 3475 |            4777894 |       2384767 |            23813 |        94247338 |                     0 |     357335566 | 2017-02-05 07:07:06.023438+01

 2017-02-05 08:33:28.096457+01 | 1486280008.09646 |                 0 |              17 |                 88498 |                 3475 |            4777894 |       2385367 |            23819 |        94247338 |                     0 |     357424174 | 2017-02-05 07:07:06.023438+01

 2017-02-05 08:33:29.177029+01 | 1486280009.17703 |                 0 |              17 |                 88498 |                 3475 |            4777894 |       2385867 |            23824 |        94247338 |                     0 |     357509351 | 2017-02-05 07:07:06.023438+01

 2017-02-05 08:33:30.250696+01 | 1486280010.2507 |                 0 |              17 |                 88498 |                 3475 |            4777894 |       2386367 |            23829 |        94247338 |                     0 |     357593554 | 2017-02-05 07:07:06.023438+01

 2017-02-05 08:33:31.329236+01 | 1486280011.32924 |                 0 |              17 |                 88498 |                 3475 |            4777894 |       2386967 |            23835 |        94247338 |                     0 |     357681410 | 2017-02-05 07:07:06.023438+01

 2017-02-05 08:33:32.408991+01 | 1486280012.40899 |                 0 |              17 |                 88498 |                 3475 |            4777894 |       2387467 |            23840 |        94247338 |                     0 |     357742309 | 2017-02-05 07:07:06.023438+01

 2017-02-05 08:33:33.490079+01 | 1486280013.49008 |                 0 |              17 |                 88498 |                 3475 |            4777894 |       2387967 |            23845 |        94247338 |                     0 |     357811157 | 2017-02-05 07:07:06.023438+01

 2017-02-05 08:33:34.571604+01 | 1486280014.5716 |                 0 |              17 |                 88498 |                 3475 |            4777894 |       2388567 |            23851 |        94247338 |                     0 |     357919051 | 2017-02-05 07:07:06.023438+01

 2017-02-05 08:33:35.636937+01 | 1486280015.63694 |                 0 |              17 |                 88498 |                 3475 |            4777894 |       2389067 |            23856 |        94247338 |                     0 |     358004514 | 2017-02-05 07:07:06.023438+01

 2017-02-05 08:33:36.707393+01 | 1486280016.70739 |                 0 |              17 |                 88498 |                 3475 |            4777894 |       2389567 |            23861 |        94247338 |                     0 |     358081280 | 2017-02-05 07:07:06.023438+01

 2017-02-05 08:33:37.787514+01 | 1486280017.78751 |                 0 |              17 |                 88498 |                 3475 |            4777894 |       2390167 |            23867 |        94247338 |                     0 |     358180791 | 2017-02-05 07:07:06.023438+01

 2017-02-05 08:33:38.85967+01 | 1486280018.85967 |                 0 |              17 |                 88498 |                 3475 |            4777894 |       2390567 |            23871 |        94247338 |                     0 |     358251404 | 2017-02-05 07:07:06.023438+01

 2017-02-05 08:33:39.93858+01 | 1486280019.93858 |                 0 |              17 |                 88498 |                 3475 |            4777894 |       2391167 |            23877 |        94247338 |                     0 |     358346157 | 2017-02-05 07:07:06.023438+01

 2017-02-05 08:33:41.018575+01 | 1486280021.01857 |                 0 |              17 |                 88498 |                 3475 |            4777894 |       2391767 |            23883 |        94247338 |                     0 |     358455542 | 2017-02-05 07:07:06.023438+01

 2017-02-05 08:33:42.092223+01 | 1486280022.09222 |                 0 |              17 |                 88498 |                 3475 |            4777894 |       2392267 |            23888 |        94247338 |                     0 |     358542523 | 2017-02-05 07:07:06.023438+01

 2017-02-05 08:33:43.150373+01 | 1486280023.15037 |                 0 |              17 |                 88498 |                 3475 |            4777894 |       2392767 |            23893 |        94247338 |                     0 |     358625060 | 2017-02-05 07:07:06.023438+01

 2017-02-05 08:33:44.228455+01 | 1486280024.22846 |                 0 |              17 |                 88498 |                 3475 |            4777894 |       2393367 |            23899 |        94247338 |                     0 |     358723138 | 2017-02-05 07:07:06.023438+01

 2017-02-05 08:33:45.311047+01 | 1486280025.31105 |                 0 |              17 |                 88498 |                 3475 |            4777894 |       2393867 |            23904 |        94247338 |                     0 |     358802212 | 2017-02-05 07:07:06.023438+01

 2017-02-05 08:33:46.38199+01 | 1486280026.38199 |                 0 |              17 |                 88498 |                 3475 |            4777894 |       2394367 |            23909 |        94247338 |                     0 |     358880692 | 2017-02-05 07:07:06.023438+01

 2017-02-05 08:33:47.458133+01 | 1486280027.45813 |                 0 |              17 |                 88498 |                 3475 |            4777894 |       2394967 |            23915 |        94247338 |                     0 |     358979187 | 2017-02-05 07:07:06.023438+01

 2017-02-05 08:33:48.539392+01 | 1486280028.53939 |                 0 |              17 |                 88498 |                 3475 |            4777894 |       2395467 |            23920 |        94759726 |                     0 |     359048469 | 2017-02-05 07:07:06.023438+01

 2017-02-05 08:33:49.622773+01 | 1486280029.62277 |                 0 |              17 |                 88498 |                 3475 |            4777894 |       2395967 |            23925 |        94759726 |                     0 |     359131223 | 2017-02-05 07:07:06.023438+01

 2017-02-05 08:33:50.711231+01 | 1486280030.71123 |                 0 |              17 |                 88498 |                 3475 |            4777894 |       2396567 |            23931 |        94759726 |                     0 |     359222665 | 2017-02-05 07:07:06.023438+01

 2017-02-05 08:33:51.793893+01 | 1486280031.79389 |                 0 |              17 |                 88498 |                 3475 |            4777894 |       2397067 |            23936 |        94759726 |                     0 |     359313966 | 2017-02-05 07:07:06.023438+01

 2017-02-05 08:33:52.878851+01 | 1486280032.87885 |                 0 |              17 |                 88498 |                 3475 |            4777894 |       2397567 |            23941 |        94759726 |                     0 |     359397974 | 2017-02-05 07:07:06.023438+01

 2017-02-05 08:33:53.962599+01 | 1486280033.9626 |                 0 |              17 |                 88498 |                 3475 |            4777894 |       2398167 |            23947 |        94759726 |                     0 |     359490695 | 2017-02-05 07:07:06.023438+01

 2017-02-05 08:33:55.041818+01 | 1486280035.04182 |                 0 |              17 |                 88498 |                 3475 |            4777894 |       2398667 |            23952 |        94759726 |                     0 |     359570307 | 2017-02-05 07:07:06.023438+01

 2017-02-05 08:33:56.119414+01 | 1486280036.11941 |                 0 |              17 |                 88498 |                 3475 |            4777894 |       2399167 |            23957 |        94759726 |                     0 |     359655191 | 2017-02-05 07:07:06.023438+01

 2017-02-05 08:33:57.198336+01 | 1486280037.19834 |                 0 |              17 |                 88498 |                 3475 |            4777894 |       2399767 |            23963 |        94759726 |                     0 |     359762403 | 2017-02-05 07:07:06.023438+01

 2017-02-05 08:33:58.278253+01 | 1486280038.27825 |                 0 |              17 |                 88498 |                 3475 |            4777894 |       2400267 |            23968 |        94759726 |                     0 |     359848712 | 2017-02-05 07:07:06.023438+01

 2017-02-05 08:33:59.355851+01 | 1486280039.35585 |                 0 |              17 |                 88498 |                 3475 |            4777894 |       2400767 |            23973 |        94759726 |                     0 |     359920947 | 2017-02-05 07:07:06.023438+01

 2017-02-05 08:34:00.426797+01 | 1486280040.4268 |                 0 |              17 |                 88498 |                 3475 |            4777894 |       2401367 |            23979 |        94759726 |                     0 |     360024372 | 2017-02-05 07:07:06.023438+01

 2017-02-05 08:34:01.511327+01 | 1486280041.51133 |                 0 |              17 |                 88498 |                 3475 |            4777894 |       2401867 |            23984 |        94759726 |                     0 |     360106586 | 2017-02-05 07:07:06.023438+01

 2017-02-05 08:34:02.591532+01 | 1486280042.59153 |                 0 |              17 |                 88498 |                 3475 |            4777894 |       2402367 |            23989 |        94759726 |                     0 |     360189847 | 2017-02-05 07:07:06.023438+01

 2017-02-05 08:34:03.67171+01 | 1486280043.67171 |                 0 |              17 |                 88498 |                 3475 |            4777894 |       2402967 |            23995 |        94759726 |                     0 |     360290872 | 2017-02-05 07:07:06.023438+01

 2017-02-05 08:34:04.763415+01 | 1486280044.76342 |                 0 |              17 |                 88498 |                 3475 |            4777894 |       2403467 |            24000 |        94759726 |                     0 |     360382333 | 2017-02-05 07:07:06.023438+01

 2017-02-05 08:34:05.846605+01 | 1486280045.84661 |                 0 |              17 |                 88498 |                 3475 |            4777894 |       2404067 |            24006 |        94759726 |                     0 |     360472944 | 2017-02-05 07:07:06.023438+01

 2017-02-05 08:34:06.924961+01 | 1486280046.92496 |                 0 |              17 |                 88498 |                 3475 |            4777894 |       2404567 |            24011 |        94759726 |                     0 |     360554557 | 2017-02-05 07:07:06.023438+01

 2017-02-05 08:34:08.002352+01 | 1486280048.00235 |                 0 |              17 |                 88498 |                 3475 |            4777894 |       2405067 |            24016 |        94759726 |                     0 |     360641276 | 2017-02-05 07:07:06.023438+01

 2017-02-05 08:34:09.079681+01 | 1486280049.07968 |                 0 |              17 |                 88498 |                 3475 |            4777894 |       2405667 |            24022 |        94759726 |                     0 |     360745882 | 2017-02-05 07:07:06.023438+01

 2017-02-05 08:34:10.152625+01 | 1486280050.15263 |                 0 |              17 |                 88498 |                 3475 |            4777894 |       2406167 |            24027 |        94759726 |                     0 |     360828653 | 2017-02-05 07:07:06.023438+01

 2017-02-05 08:34:11.223173+01 | 1486280051.22317 |                 0 |              17 |                 88498 |                 3475 |            4777894 |       2406667 |            24032 |        94759726 |                     0 |     360906982 | 2017-02-05 07:07:06.023438+01

 2017-02-05 08:34:12.321913+01 | 1486280052.32191 |                 0 |              17 |                 88498 |                 3475 |            4777894 |       2407267 |            24038 |        95273070 |                     0 |     360973617 | 2017-02-05 07:07:06.023438+01

 2017-02-05 08:34:13.409971+01 | 1486280053.40997 |                 0 |              17 |                 88498 |                 3475 |            4777894 |       2407767 |            24043 |        95273070 |                     0 |     361043941 | 2017-02-05 07:07:06.023438+01

 2017-02-05 08:34:14.497236+01 | 1486280054.49724 |                 0 |              17 |                 88498 |                 3475 |            4777894 |       2408267 |            24048 |        95273070 |                     0 |     361096040 | 2017-02-05 07:07:06.023438+01

 2017-02-05 08:34:15.577967+01 | 1486280055.57797 |                 0 |              17 |                 88498 |                 3475 |            4777894 |       2408867 |            24054 |        95273070 |                     0 |     361176597 | 2017-02-05 07:07:06.023438+01

 2017-02-05 08:34:16.657197+01 | 1486280056.6572 |                 0 |              17 |                 88498 |                 3475 |            4777894 |       2409367 |            24059 |        95273070 |                     0 |     361239122 | 2017-02-05 07:07:06.023438+01

 2017-02-05 08:34:17.731385+01 | 1486280057.73138 |                 0 |              17 |                 88498 |                 3475 |            4777894 |       2409867 |            24064 |        95273070 |                     0 |     361310555 | 2017-02-05 07:07:06.023438+01

 2017-02-05 08:34:18.818213+01 | 1486280058.81821 |                 0 |              17 |                 88498 |                 3475 |            4777894 |       2410467 |            24070 |        95273070 |                     0 |     361389891 | 2017-02-05 07:07:06.023438+01

 2017-02-05 08:34:19.896769+01 | 1486280059.89677 |                 0 |              17 |                 88498 |                 3475 |            4777894 |       2410967 |            24075 |        95273070 |                     0 |     361447672 | 2017-02-05 07:07:06.023438+01

 2017-02-05 08:34:20.976437+01 | 1486280060.97644 |                 0 |              17 |                 88498 |                 3475 |            4777894 |       2411567 |            24081 |        95273070 |                     0 |     361525036 | 2017-02-05 07:07:06.023438+01

 2017-02-05 08:34:22.056902+01 | 1486280062.0569 |                 0 |              17 |                 88498 |                 3475 |            4777894 |       2412067 |            24086 |        95273070 |                     0 |     361594248 | 2017-02-05 07:07:06.023438+01

 2017-02-05 08:34:23.133351+01 | 1486280063.13335 |                 0 |              17 |                 88498 |                 3475 |            4777894 |       2412567 |            24091 |        95273070 |                     0 |     361661229 | 2017-02-05 07:07:06.023438+01

 2017-02-05 08:34:24.208096+01 | 1486280064.2081 |                 0 |              17 |                 88498 |                 3475 |            4777894 |       2413167 |            24097 |        95273070 |                     0 |     361743116 | 2017-02-05 07:07:06.023438+01

 2017-02-05 08:34:25.289799+01 | 1486280065.2898 |                 0 |              17 |                 88498 |                 3475 |            4777894 |       2413667 |            24102 |        95273070 |                     0 |     361800789 | 2017-02-05 07:07:06.023438+01

 2017-02-05 08:34:26.371963+01 | 1486280066.37196 |                 0 |              17 |                 88498 |                 3475 |            4777894 |       2414167 |            24107 |        95273070 |                     0 |     361882391 | 2017-02-05 07:07:06.023438+01

 2017-02-05 08:34:27.445898+01 | 1486280067.4459 |                 0 |              17 |                 88498 |                 3475 |            4777894 |       2414767 |            24113 |        95273070 |                     0 |     361979388 | 2017-02-05 07:07:06.023438+01

 2017-02-05 08:34:28.528988+01 | 1486280068.52899 |                 0 |              17 |                 88498 |                 3475 |            4777894 |       2415267 |            24118 |        95273070 |                     0 |     362061521 | 2017-02-05 07:07:06.023438+01

 2017-02-05 08:34:29.608109+01 | 1486280069.60811 |                 0 |              17 |                 88498 |                 3475 |            4777894 |       2415767 |            24123 |        95273070 |                     0 |     362146108 | 2017-02-05 07:07:06.023438+01

 2017-02-05 08:34:30.690205+01 | 1486280070.69021 |                 0 |              17 |                 88498 |                 3475 |            4777894 |       2416367 |            24129 |        95273070 |                     0 |     362243898 | 2017-02-05 07:07:06.023438+01

 2017-02-05 08:34:31.782705+01 | 1486280071.78271 |                 0 |              17 |                 88498 |                 3475 |            4777894 |       2416867 |            24134 |        95273070 |                     0 |     362310893 | 2017-02-05 07:07:06.023438+01

 2017-02-05 08:34:32.86617+01 | 1486280072.86617 |                 0 |              17 |                 88498 |                 3475 |            4777894 |       2417367 |            24139 |        95273070 |                     0 |     362371041 | 2017-02-05 07:07:06.023438+01

 2017-02-05 08:34:33.945298+01 | 1486280073.9453 |                 0 |              17 |                 88498 |                 3475 |            4777894 |       2417967 |            24145 |        95273070 |                     0 |     362446792 | 2017-02-05 07:07:06.023438+01

 2017-02-05 08:34:35.027048+01 | 1486280075.02705 |                 0 |              17 |                 88498 |                 3475 |            4777894 |       2418467 |            24150 |        95273070 |                     0 |     362506780 | 2017-02-05 07:07:06.023438+01

 2017-02-05 08:34:36.106628+01 | 1486280076.10663 |                 0 |              17 |                 88498 |                 3475 |            4777894 |       2418967 |            24155 |        95273070 |                     0 |     362577259 | 2017-02-05 07:07:06.023438+01

 2017-02-05 08:34:37.18653+01 | 1486280077.18653 |                 0 |              17 |                 88498 |                 3475 |            4777894 |       2419567 |            24161 |        95273070 |                     0 |     362651993 | 2017-02-05 07:07:06.023438+01

 2017-02-05 08:34:38.275969+01 | 1486280078.27597 |                 0 |              17 |                 88498 |                 3475 |            4777894 |       2420067 |            24166 |        95273070 |                     0 |     362721838 | 2017-02-05 07:07:06.023438+01

 2017-02-05 08:34:39.35833+01 | 1486280079.35833 |                 0 |              17 |                 88498 |                 3475 |            4777894 |       2420667 |            24172 |        95273070 |                     0 |     362823844 | 2017-02-05 07:07:06.023438+01

 2017-02-05 08:34:40.430049+01 | 1486280080.43005 |                 0 |              17 |                 88498 |                 3475 |            4777894 |       2421167 |            24177 |        95784313 |                     0 |     362908389 | 2017-02-05 07:07:06.023438+01

 2017-02-05 08:34:41.523549+01 | 1486280081.52355 |                 0 |              17 |                 88498 |                 3475 |            4777894 |       2421667 |            24182 |        95784313 |                     0 |     362995594 | 2017-02-05 07:07:06.023438+01

 2017-02-05 08:34:42.607848+01 | 1486280082.60785 |                 0 |              17 |                 88498 |                 3475 |            4777894 |       2422267 |            24188 |        95784313 |                     0 |     363092691 | 2017-02-05 07:07:06.023438+01

 2017-02-05 08:34:43.685078+01 | 1486280083.68508 |                 0 |              17 |                 88498 |                 3475 |            4777894 |       2422767 |            24193 |        95784313 |                     0 |     363176505 | 2017-02-05 07:07:06.023438+01

 2017-02-05 08:34:44.764165+01 | 1486280084.76416 |                 0 |              17 |                 88498 |                 3475 |            4777894 |       2423267 |            24198 |        95784313 |                     0 |     363264676 | 2017-02-05 07:07:06.023438+01

 2017-02-05 08:34:45.843289+01 | 1486280085.84329 |                 0 |              17 |                 88498 |                 3475 |            4777894 |       2423867 |            24204 |        95784313 |                     0 |     363372970 | 2017-02-05 07:07:06.023438+01

 2017-02-05 08:34:46.910633+01 | 1486280086.91063 |                 0 |              17 |                 88498 |                 3475 |            4777894 |       2424367 |            24209 |        95784313 |                     0 |     363460786 | 2017-02-05 07:07:06.023438+01

 2017-02-05 08:34:47.986315+01 | 1486280087.98632 |                 0 |              17 |                 88498 |                 3475 |            4777894 |       2424867 |            24214 |        95784313 |                     0 |     363545847 | 2017-02-05 07:07:06.023438+01

 2017-02-05 08:34:49.069651+01 | 1486280089.06965 |                 0 |              17 |                 88498 |                 3475 |            4777894 |       2425467 |            24220 |        95784313 |                     0 |     363639106 | 2017-02-05 07:07:06.023438+01

 2017-02-05 08:34:50.152832+01 | 1486280090.15283 |                 0 |              17 |                 88498 |                 3475 |            4777894 |       2425967 |            24225 |        95784313 |                     0 |     363726354 | 2017-02-05 07:07:06.023438+01

 2017-02-05 08:34:51.237371+01 | 1486280091.23737 |                 0 |              17 |                 88498 |                 3475 |            4777894 |       2426467 |            24230 |        95784313 |                     0 |     363808571 | 2017-02-05 07:07:06.023438+01

 2017-02-05 08:34:52.320407+01 | 1486280092.32041 |                 0 |              17 |                 88498 |                 3475 |            4777894 |       2427067 |            24236 |        95784313 |                     0 |     363914781 | 2017-02-05 07:07:06.023438+01

 2017-02-05 08:34:53.394658+01 | 1486280093.39466 |                 0 |              17 |                 88498 |                 3475 |            4777894 |       2427567 |            24241 |        95784313 |                     0 |     363995604 | 2017-02-05 07:07:06.023438+01

 2017-02-05 08:34:54.47305+01 | 1486280094.47305 |                 0 |              17 |                 88498 |                 3475 |            4777894 |       2428067 |            24246 |        95784313 |                     0 |     364086589 | 2017-02-05 07:07:06.023438+01

 2017-02-05 08:34:55.548799+01 | 1486280095.5488 |                 0 |              17 |                 88498 |                 3475 |            4777894 |       2428667 |            24252 |        95784313 |                     0 |     364189911 | 2017-02-05 07:07:06.023438+01

 2017-02-05 08:34:56.628959+01 | 1486280096.62896 |                 0 |              17 |                 88498 |                 3475 |            4777894 |       2429167 |            24257 |        95784313 |                     0 |     364278031 | 2017-02-05 07:07:06.023438+01

 2017-02-05 08:34:57.706899+01 | 1486280097.7069 |                 0 |              17 |                 88498 |                 3475 |            4777894 |       2429667 |            24262 |        95784313 |                     0 |     364364301 | 2017-02-05 07:07:06.023438+01

 2017-02-05 08:34:58.774679+01 | 1486280098.77468 |                 0 |              17 |                 88498 |                 3475 |            4777894 |       2430267 |            24268 |        95784313 |                     0 |     364474023 | 2017-02-05 07:07:06.023438+01

 2017-02-05 08:34:59.868468+01 | 1486280099.86847 |                 0 |              17 |                 88498 |                 3475 |            4777894 |       2430767 |            24273 |        95784313 |                     0 |     364557927 | 2017-02-05 07:07:06.023438+01

 2017-02-05 08:35:00.947736+01 | 1486280100.94774 |                 0 |              17 |                 88498 |                 3475 |            4777894 |       2431367 |            24279 |        95784313 |                     0 |     364660081 | 2017-02-05 07:07:06.023438+01

 2017-02-05 08:35:02.026759+01 | 1486280102.02676 |                 0 |              17 |                 88498 |                 3475 |            4777894 |       2431867 |            24284 |        95784313 |                     0 |     364740590 | 2017-02-05 07:07:06.023438+01

 2017-02-05 08:35:03.104948+01 | 1486280103.10495 |                 0 |              17 |                 88498 |                 3475 |            4777894 |       2432367 |            24289 |        96297402 |                     0 |     364826112 | 2017-02-05 07:07:06.023438+01

 2017-02-05 08:35:04.171865+01 | 1486280104.17186 |                 0 |              17 |                 88498 |                 3475 |            4777894 |       2432967 |            24295 |        96297402 |                     0 |     364929813 | 2017-02-05 07:07:06.023438+01

 2017-02-05 08:35:05.260258+01 | 1486280105.26026 |                 0 |              17 |                 88498 |                 3475 |            4777894 |       2433467 |            24300 |        96297402 |                     0 |     365009389 | 2017-02-05 07:07:06.023438+01

 2017-02-05 08:35:06.340921+01 | 1486280106.34092 |                 0 |              17 |                 88498 |                 3475 |            4777894 |       2433967 |            24305 |        96297402 |                     0 |     365096255 | 2017-02-05 07:07:06.023438+01

 2017-02-05 08:35:07.428604+01 | 1486280107.4286 |                 0 |              17 |                 88498 |                 3475 |            4777894 |       2434567 |            24311 |        96297402 |                     0 |     365196344 | 2017-02-05 07:07:06.023438+01

 2017-02-05 08:35:08.507026+01 | 1486280108.50703 |                 0 |              17 |                 88498 |                 3475 |            4777894 |       2435067 |            24316 |        96297402 |                     0 |     365289561 | 2017-02-05 07:07:06.023438+01

 2017-02-05 08:35:09.585281+01 | 1486280109.58528 |                 0 |              17 |                 88498 |                 3475 |            4777894 |       2435567 |            24321 |        96297402 |                     0 |     365373590 | 2017-02-05 07:07:06.023438+01

 2017-02-05 08:35:10.665481+01 | 1486280110.66548 |                 0 |              17 |                 88498 |                 3475 |            4777894 |       2436167 |            24327 |        96297402 |                     0 |     365472045 | 2017-02-05 07:07:06.023438+01

 2017-02-05 08:35:11.748464+01 | 1486280111.74846 |                 0 |              17 |                 88498 |                 3475 |            4777894 |       2436667 |            24332 |        96297402 |                     0 |     365565071 | 2017-02-05 07:07:06.023438+01

 2017-02-05 08:35:12.83033+01 | 1486280112.83033 |                 0 |              17 |                 88498 |                 3475 |            4777894 |       2437167 |            24337 |        96297402 |                     0 |     365645692 | 2017-02-05 07:07:06.023438+01

 2017-02-05 08:35:13.896636+01 | 1486280113.89664 |                 0 |              17 |                 88498 |                 3475 |            4777894 |       2437767 |            24343 |        96297402 |                     0 |     365760815 | 2017-02-05 07:07:06.023438+01

 2017-02-05 08:35:14.978033+01 | 1486280114.97803 |                 0 |              17 |                 88498 |                 3475 |            4777894 |       2438267 |            24348 |        96297402 |                     0 |     365842324 | 2017-02-05 07:07:06.023438+01

 2017-02-05 08:35:16.055624+01 | 1486280116.05562 |                 0 |              17 |                 88498 |                 3475 |            4777894 |       2438767 |            24353 |        96297402 |                     0 |     365927539 | 2017-02-05 07:07:06.023438+01

 2017-02-05 08:35:17.139237+01 | 1486280117.13924 |                 0 |              17 |                 88498 |                 3475 |            4777894 |       2439367 |            24359 |        96297402 |                     0 |     366036445 | 2017-02-05 07:07:06.023438+01

 2017-02-05 08:35:18.216367+01 | 1486280118.21637 |                 0 |              17 |                 88498 |                 3475 |            4777894 |       2439867 |            24364 |        96297402 |                     0 |     366122263 | 2017-02-05 07:07:06.023438+01

 2017-02-05 08:35:19.284602+01 | 1486280119.2846 |                 0 |              17 |                 88498 |                 3475 |            4777894 |       2440367 |            24369 |        96297402 |                     0 |     366208857 | 2017-02-05 07:07:06.023438+01

 2017-02-05 08:35:20.369042+01 | 1486280120.36904 |                 0 |              17 |                 88498 |                 3475 |            4777894 |       2440967 |            24375 |        96297402 |                     0 |     366312998 | 2017-02-05 07:07:06.023438+01

 2017-02-05 08:35:21.451746+01 | 1486280121.45175 |                 0 |              17 |                 88498 |                 3475 |            4777894 |       2441467 |            24380 |        96297402 |                     0 |     366399495 | 2017-02-05 07:07:06.023438+01

 2017-02-05 08:35:22.533873+01 | 1486280122.53387 |                 0 |              17 |                 88498 |                 3475 |            4777894 |       2441967 |            24385 |        96297402 |                     0 |     366487483 | 2017-02-05 07:07:06.023438+01

 2017-02-05 08:35:23.602988+01 | 1486280123.60299 |                 0 |              17 |                 88498 |                 3475 |            4777894 |       2442567 |            24391 |        96297402 |                     0 |     366599466 | 2017-02-05 07:07:06.023438+01

 2017-02-05 08:35:24.668978+01 | 1486280124.66898 |                 0 |              17 |                 88498 |                 3475 |            4777894 |       2443067 |            24396 |        96297402 |                     0 |     366686065 | 2017-02-05 07:07:06.023438+01

 2017-02-05 08:35:25.745514+01 | 1486280125.74551 |                 0 |              17 |                 88498 |                 3475 |            4777894 |       2443567 |            24401 |        96810691 |                     0 |     366774331 | 2017-02-05 07:07:06.023438+01

 2017-02-05 08:35:26.832512+01 | 1486280126.83251 |                 0 |              17 |                 88498 |                 3475 |            4777894 |       2444167 |            24407 |        96810691 |                     0 |     366872560 | 2017-02-05 07:07:06.023438+01

 2017-02-05 08:35:27.908644+01 | 1486280127.90864 |                 0 |              17 |                 88498 |                 3475 |            4777894 |       2444667 |            24412 |        96810691 |                     0 |     366959230 | 2017-02-05 07:07:06.023438+01

 2017-02-05 08:35:28.988346+01 | 1486280128.98835 |                 0 |              17 |                 88498 |                 3475 |            4777894 |       2445167 |            24417 |        96810691 |                     0 |     367043347 | 2017-02-05 07:07:06.023438+01

 2017-02-05 08:35:30.055338+01 | 1486280130.05534 |                 0 |              17 |                 88498 |                 3475 |            4777894 |       2445767 |            24423 |        96810691 |                     0 |     367158598 | 2017-02-05 07:07:06.023438+01

 2017-02-05 08:35:31.131268+01 | 1486280131.13127 |                 0 |              17 |                 88498 |                 3475 |            4777894 |       2446267 |            24428 |        96810691 |                     0 |     367245069 | 2017-02-05 07:07:06.023438+01

 2017-02-05 08:35:32.214885+01 | 1486280132.21488 |                 0 |              17 |                 88498 |                 3475 |            4777894 |       2446767 |            24433 |        96810691 |                     0 |     367329753 | 2017-02-05 07:07:06.023438+01

 2017-02-05 08:35:33.296181+01 | 1486280133.29618 |                 0 |              17 |                 88498 |                 3475 |            4777894 |       2447367 |            24439 |        96810691 |                     0 |     367430145 | 2017-02-05 07:07:06.023438+01

 2017-02-05 08:35:34.377588+01 | 1486280134.37759 |                 0 |              17 |                 88498 |                 3475 |            4777894 |       2447867 |            24444 |        96810691 |                     0 |     367514759 | 2017-02-05 07:07:06.023438+01

 2017-02-05 08:35:35.45802+01 | 1486280135.45802 |                 0 |              17 |                 88498 |                 3475 |            4777894 |       2448367 |            24449 |        96810691 |                     0 |     367599508 | 2017-02-05 07:07:06.023438+01

 2017-02-05 08:35:36.532417+01 | 1486280136.53242 |                 0 |              17 |                 88498 |                 3475 |            4777894 |       2448967 |            24455 |        96810691 |                     0 |     367706307 | 2017-02-05 07:07:06.023438+01

 2017-02-05 08:35:37.614082+01 | 1486280137.61408 |                 0 |              17 |                 88498 |                 3475 |            4777894 |       2449467 |            24460 |        96810691 |                     0 |     367791664 | 2017-02-05 07:07:06.023438+01

 2017-02-05 08:35:38.696502+01 | 1486280138.6965 |                 0 |              17 |                 88498 |                 3475 |            4777894 |       2450067 |            24466 |        96810691 |                     0 |     367895629 | 2017-02-05 07:07:06.023438+01

 2017-02-05 08:35:39.774887+01 | 1486280139.77489 |                 0 |              17 |                 88498 |                 3475 |            4777894 |       2450567 |            24471 |        96810691 |                     0 |     367987927 | 2017-02-05 07:07:06.023438+01

 2017-02-05 08:35:40.84288+01 | 1486280140.84288 |                 0 |              17 |                 88498 |                 3475 |            4777894 |       2451067 |            24476 |        96810691 |                     0 |     368076127 | 2017-02-05 07:07:06.023438+01

 2017-02-05 08:35:41.921545+01 | 1486280141.92155 |                 0 |              17 |                 88498 |                 3475 |            4777894 |       2451567 |            24481 |        96810691 |                     0 |     368168446 | 2017-02-05 07:07:06.023438+01

 2017-02-05 08:35:43.001717+01 | 1486280143.00172 |                 0 |              17 |                 88498 |                 3475 |            4777894 |       2452167 |            24487 |        96810691 |                     0 |     368264493 | 2017-02-05 07:07:06.023438+01

 2017-02-05 08:35:44.084829+01 | 1486280144.08483 |                 0 |              17 |                 88498 |                 3475 |            4777894 |       2452667 |            24492 |        96810691 |                     0 |     368355286 | 2017-02-05 07:07:06.023438+01

 2017-02-05 08:35:45.16542+01 | 1486280145.16542 |                 0 |              17 |                 88498 |                 3475 |            4777894 |       2453267 |            24498 |        96810691 |                     0 |     368458986 | 2017-02-05 07:07:06.023438+01

 2017-02-05 08:35:46.236299+01 | 1486280146.2363 |                 0 |              17 |                 88498 |                 3475 |            4777894 |       2453767 |            24503 |        96810691 |                     0 |     368547523 | 2017-02-05 07:07:06.023438+01

 2017-02-05 08:35:47.315358+01 | 1486280147.31536 |                 0 |              17 |                 88498 |                 3475 |            4777894 |       2454267 |            24508 |        97323980 |                     0 |     368636884 | 2017-02-05 07:07:06.023438+01

 2017-02-05 08:35:48.395427+01 | 1486280148.39543 |                 0 |              17 |                 88498 |                 3475 |            4777894 |       2454867 |            24514 |        97323980 |                     0 |     368741958 | 2017-02-05 07:07:06.023438+01

 2017-02-05 08:35:49.475269+01 | 1486280149.47527 |                 0 |              17 |                 88498 |                 3475 |            4777894 |       2455367 |            24519 |        97323980 |                     0 |     368830465 | 2017-02-05 07:07:06.023438+01

 2017-02-05 08:35:50.545875+01 | 1486280150.54588 |                 0 |              17 |                 88498 |                 3475 |            4777894 |       2455867 |            24524 |        97323980 |                     0 |     368918323 | 2017-02-05 07:07:06.023438+01

 2017-02-05 08:35:51.62032+01 | 1486280151.62032 |                 0 |              17 |                 88498 |                 3475 |            4777894 |       2456467 |            24530 |        97323980 |                     0 |     369023113 | 2017-02-05 07:07:06.023438+01

 2017-02-05 08:35:52.698296+01 | 1486280152.6983 |                 0 |              17 |                 88498 |                 3475 |            4777894 |       2456967 |            24535 |        97323980 |                     0 |     369106150 | 2017-02-05 07:07:06.023438+01

 2017-02-05 08:35:53.782036+01 | 1486280153.78204 |                 0 |              17 |                 88498 |                 3475 |            4777894 |       2457467 |            24540 |        97323980 |                     0 |     369188921 | 2017-02-05 07:07:06.023438+01

 2017-02-05 08:35:54.857453+01 | 1486280154.85745 |                 0 |              17 |                 88498 |                 3475 |            4777894 |       2458067 |            24546 |        97323980 |                     0 |     369308411 | 2017-02-05 07:07:06.023438+01

 2017-02-05 08:35:55.931634+01 | 1486280155.93163 |                 0 |              17 |                 88498 |                 3475 |            4777894 |       2458567 |            24551 |        97323980 |                     0 |     369393225 | 2017-02-05 07:07:06.023438+01

 2017-02-05 08:35:57.016928+01 | 1486280157.01693 |                 0 |              17 |                 88498 |                 3475 |            4777894 |       2459067 |            24556 |        97323980 |                     0 |     369484483 | 2017-02-05 07:07:06.023438+01

 2017-02-05 08:35:58.097374+01 | 1486280158.09737 |                 0 |              17 |                 88498 |                 3475 |            4777894 |       2459667 |            24562 |        97323980 |                     0 |     369578501 | 2017-02-05 07:07:06.023438+01

 2017-02-05 08:35:59.179031+01 | 1486280159.17903 |                 0 |              17 |                 88498 |                 3475 |            4777894 |       2460167 |            24567 |        97323980 |                     0 |     369667429 | 2017-02-05 07:07:06.023438+01

 2017-02-05 08:36:00.257968+01 | 1486280160.25797 |                 0 |              17 |                 88498 |                 3475 |            4777894 |       2460667 |            24572 |        97323980 |                     0 |     369761936 | 2017-02-05 07:07:06.023438+01

 2017-02-05 08:36:01.352464+01 | 1486280161.35246 |                 0 |              17 |                 88498 |                 3475 |            4777894 |       2461267 |            24578 |        97323980 |                     0 |     369857157 | 2017-02-05 07:07:06.023438+01

 2017-02-05 08:36:02.435066+01 | 1486280162.43507 |                 0 |              17 |                 88498 |                 3475 |            4777894 |       2461767 |            24583 |        97323980 |                     0 |     369942298 | 2017-02-05 07:07:06.023438+01

 2017-02-05 08:36:03.516198+01 | 1486280163.5162 |                 0 |              17 |                 88498 |                 3475 |            4777894 |       2462267 |            24588 |        97323980 |                     0 |     370025846 | 2017-02-05 07:07:06.023438+01

 2017-02-05 08:36:04.596453+01 | 1486280164.59645 |                 0 |              17 |                 88498 |                 3475 |            4777894 |       2462867 |            24594 |        97323980 |                     0 |     370132648 | 2017-02-05 07:07:06.023438+01

 2017-02-05 08:36:05.676078+01 | 1486280165.67608 |                 0 |              17 |                 88498 |                 3475 |            4777894 |       2463367 |            24599 |        97323980 |                     0 |     370217929 | 2017-02-05 07:07:06.023438+01

 2017-02-05 08:36:06.750681+01 | 1486280166.75068 |                 0 |              17 |                 88498 |                 3475 |            4777894 |       2463867 |            24604 |        97323980 |                     0 |     370304065 | 2017-02-05 07:07:06.023438+01

 2017-02-05 08:36:07.828379+01 | 1486280167.82838 |                 0 |              17 |                 88498 |                 3475 |            4777894 |       2464467 |            24610 |        97323980 |                     0 |     370413459 | 2017-02-05 07:07:06.023438+01

 2017-02-05 08:36:08.909189+01 | 1486280168.90919 |                 0 |              17 |                 88498 |                 3475 |            4777894 |       2464967 |            24615 |        97323980 |                     0 |     370500192 | 2017-02-05 07:07:06.023438+01

 2017-02-05 08:36:09.990679+01 | 1486280169.99068 |                 0 |              17 |                 88498 |                 3475 |            4777894 |       2465467 |            24620 |        97837169 |                     0 |     370583599 | 2017-02-05 07:07:06.023438+01

 2017-02-05 08:36:11.072113+01 | 1486280171.07211 |                 0 |              17 |                 88498 |                 3475 |            4777894 |       2466067 |            24626 |        97837169 |                     0 |     370684965 | 2017-02-05 07:07:06.023438+01

 2017-02-05 08:36:12.141521+01 | 1486280172.14152 |                 0 |              17 |                 88498 |                 3475 |            4777894 |       2466567 |            24631 |        97837169 |                     0 |     370771160 | 2017-02-05 07:07:06.023438+01

 2017-02-05 08:36:13.218837+01 | 1486280173.21884 |                 0 |              17 |                 88498 |                 3475 |            4777894 |       2467067 |            24636 |        97837169 |                     0 |     370857995 | 2017-02-05 07:07:06.023438+01

 2017-02-05 08:36:14.291223+01 | 1486280174.29122 |                 0 |              17 |                 88498 |                 3475 |            4777894 |       2467667 |            24642 |        97837169 |                     0 |     370956889 | 2017-02-05 07:07:06.023438+01

 2017-02-05 08:36:15.379055+01 | 1486280175.37906 |                 0 |              17 |                 88498 |                 3475 |            4777894 |       2468167 |            24647 |        97837169 |                     0 |     371041299 | 2017-02-05 07:07:06.023438+01

 2017-02-05 08:36:16.457361+01 | 1486280176.45736 |                 0 |              17 |                 88498 |                 3475 |            4777894 |       2468767 |            24653 |        97837169 |                     0 |     371143380 | 2017-02-05 07:07:06.023438+01

 2017-02-05 08:36:17.535135+01 | 1486280177.53514 |                 0 |              17 |                 88498 |                 3475 |            4777894 |       2469267 |            24658 |        97837169 |                     0 |     371225203 | 2017-02-05 07:07:06.023438+01

 2017-02-05 08:36:18.606708+01 | 1486280178.60671 |                 0 |              17 |                 88498 |                 3475 |            4777894 |       2469767 |            24663 |        97837169 |                     0 |     371299317 | 2017-02-05 07:07:06.023438+01

 2017-02-05 08:36:19.686388+01 | 1486280179.68639 |                 0 |              17 |                 88498 |                 3475 |            4777894 |       2470367 |            24669 |        97837169 |                     0 |     371374641 | 2017-02-05 07:07:06.023438+01

 2017-02-05 08:36:20.767779+01 | 1486280180.76778 |                 0 |              17 |                 88498 |                 3475 |            4777894 |       2470867 |            24674 |        97837169 |                     0 |     371432007 | 2017-02-05 07:07:06.023438+01

 2017-02-05 08:36:21.839058+01 | 1486280181.83906 |                 0 |              17 |                 88498 |                 3475 |            4777894 |       2471367 |            24679 |        97837169 |                     0 |     371507451 | 2017-02-05 07:07:06.023438+01

 2017-02-05 08:36:22.921483+01 | 1486280182.92148 |                 0 |              17 |                 88498 |                 3475 |            4777894 |       2471967 |            24685 |        97837169 |                     0 |     371585842 | 2017-02-05 07:07:06.023438+01

 2017-02-05 08:36:24.006901+01 | 1486280184.0069 |                 0 |              17 |                 88498 |                 3475 |            4777894 |       2472467 |            24690 |        97837169 |                     0 |     371657876 | 2017-02-05 07:07:06.023438+01

 2017-02-05 08:36:25.088127+01 | 1486280185.08813 |                 0 |              17 |                 88498 |                 3475 |            4777894 |       2472967 |            24695 |        97837169 |                     0 |     371723987 | 2017-02-05 07:07:06.023438+01

 2017-02-05 08:36:26.16179+01 | 1486280186.16179 |                 0 |              17 |                 88498 |                 3475 |            4777894 |       2473567 |            24701 |        97837169 |                     0 |     371803905 | 2017-02-05 07:07:06.023438+01

 2017-02-05 08:36:27.254417+01 | 1486280187.25442 |                 0 |              17 |                 88498 |                 3475 |            4777894 |       2474067 |            24706 |        97837169 |                     0 |     371868742 | 2017-02-05 07:07:06.023438+01

 2017-02-05 08:36:28.337816+01 | 1486280188.33782 |                 0 |              17 |                 88498 |                 3475 |            4777894 |       2474567 |            24711 |        97837169 |                     0 |     371928693 | 2017-02-05 07:07:06.023438+01

 2017-02-05 08:36:29.422513+01 | 1486280189.42251 |                 0 |              17 |                 88498 |                 3475 |            4777894 |       2475167 |            24717 |        97837169 |                     0 |     372033743 | 2017-02-05 07:07:06.023438+01

 2017-02-05 08:36:30.50313+01 | 1486280190.50313 |                 0 |              17 |                 88498 |                 3475 |            4777894 |       2475667 |            24722 |        97837169 |                     0 |     372120068 | 2017-02-05 07:07:06.023438+01

 2017-02-05 08:36:31.573309+01 | 1486280191.57331 |                 0 |              17 |                 88498 |                 3475 |            4777894 |       2476167 |            24727 |        97837169 |                     0 |     372204158 | 2017-02-05 07:07:06.023438+01

 2017-02-05 08:36:32.65857+01 | 1486280192.65857 |                 0 |              17 |                 88498 |                 3475 |            4777894 |       2476767 |            24733 |        97837169 |                     0 |     372306475 | 2017-02-05 07:07:06.023438+01

 2017-02-05 08:36:33.745814+01 | 1486280193.74581 |                 0 |              17 |                 88498 |                 3475 |            4777894 |       2477267 |            24738 |        97837169 |                     0 |     372391253 | 2017-02-05 07:07:06.023438+01

 2017-02-05 08:36:34.83229+01 | 1486280194.83229 |                 0 |              17 |                 88498 |                 3475 |            4777894 |       2477767 |            24743 |        98349058 |                     0 |     372478319 | 2017-02-05 07:07:06.023438+01

 2017-02-05 08:36:35.9153+01 | 1486280195.9153 |                 0 |              17 |                 88498 |                 3475 |            4777894 |       2478367 |            24749 |        98349058 |                     0 |     372569261 | 2017-02-05 07:07:06.023438+01

 2017-02-05 08:36:36.992462+01 | 1486280196.99246 |                 0 |              17 |                 88498 |                 3475 |            4777894 |       2478867 |            24754 |        98349058 |                     0 |     372655387 | 2017-02-05 07:07:06.023438+01

 2017-02-05 08:36:38.07947+01 | 1486280198.07947 |                 0 |              17 |                 88498 |                 3475 |            4777894 |       2479467 |            24760 |        98349058 |                     0 |     372760963 | 2017-02-05 07:07:06.023438+01

 2017-02-05 08:36:39.147932+01 | 1486280199.14793 |                 0 |              17 |                 88498 |                 3475 |            4777894 |       2479767 |            24763 |        98349058 |                     0 |     372811500 | 2017-02-05 07:07:06.023438+01

 2017-02-05 08:36:40.227791+01 | 1486280200.22779 |                 0 |              17 |                 88498 |                 3475 |            4777894 |       2480467 |            24770 |        98349058 |                     0 |     372933200 | 2017-02-05 07:07:06.023438+01

 2017-02-05 08:36:41.303508+01 | 1486280201.30351 |                 0 |              17 |                 88498 |                 3475 |            4777894 |       2481067 |            24776 |        98349058 |                     0 |     373034744 | 2017-02-05 07:07:06.023438+01

 2017-02-05 08:36:42.377701+01 | 1486280202.3777 |                 0 |              17 |                 88498 |                 3475 |            4777894 |       2481567 |            24781 |        98349058 |                     0 |     373117229 | 2017-02-05 07:07:06.023438+01

 2017-02-05 08:36:43.458585+01 | 1486280203.45859 |                 0 |              17 |                 88498 |                 3475 |            4777894 |       2482067 |            24786 |        98349058 |                     0 |     373206285 | 2017-02-05 07:07:06.023438+01

 2017-02-05 08:36:44.53025+01 | 1486280204.53025 |                 0 |              17 |                 88498 |                 3475 |            4777894 |       2482667 |            24792 |        98349058 |                     0 |     373317711 | 2017-02-05 07:07:06.023438+01

 2017-02-05 08:36:45.618315+01 | 1486280205.61831 |                 0 |              17 |                 88498 |                 3475 |            4777894 |       2483167 |            24797 |        98349058 |                     0 |     373398205 | 2017-02-05 07:07:06.023438+01

 2017-02-05 08:36:46.697443+01 | 1486280206.69744 |                 0 |              17 |                 88498 |                 3475 |            4777894 |       2483667 |            24802 |        98349058 |                     0 |     373484661 | 2017-02-05 07:07:06.023438+01

 2017-02-05 08:36:47.77854+01 | 1486280207.77854 |                 0 |              17 |                 88498 |                 3475 |            4777894 |       2484267 |            24808 |        98349058 |                     0 |     373585417 | 2017-02-05 07:07:06.023438+01

 2017-02-05 08:36:48.857901+01 | 1486280208.8579 |                 0 |              17 |                 88498 |                 3475 |            4777894 |       2484767 |            24813 |        98349058 |                     0 |     373671675 | 2017-02-05 07:07:06.023438+01

 2017-02-05 08:36:49.933018+01 | 1486280209.93302 |                 0 |              17 |                 88498 |                 3475 |            4777894 |       2485267 |            24818 |        98349058 |                     0 |     373759051 | 2017-02-05 07:07:06.023438+01

 2017-02-05 08:36:51.023307+01 | 1486280211.02331 |                 0 |              17 |                 88498 |                 3475 |            4777894 |       2485867 |            24824 |        98349058 |                     0 |     373861044 | 2017-02-05 07:07:06.023438+01

 2017-02-05 08:36:52.103392+01 | 1486280212.10339 |                 0 |              17 |                 88498 |                 3475 |            4777894 |       2486367 |            24829 |        98349058 |                     0 |     373948981 | 2017-02-05 07:07:06.023438+01

 2017-02-05 08:36:53.185458+01 | 1486280213.18546 |                 0 |              17 |                 88498 |                 3475 |            4777894 |       2486867 |            24834 |        98349058 |                     0 |     374036345 | 2017-02-05 07:07:06.023438+01

 2017-02-05 08:36:54.26671+01 | 1486280214.26671 |                 0 |              17 |                 88498 |                 3475 |            4777894 |       2487467 |            24840 |        98349058 |                     0 |     374141237 | 2017-02-05 07:07:06.023438+01

 2017-02-05 08:36:55.339513+01 | 1486280215.33951 |                 0 |              17 |                 88498 |                 3475 |            4777894 |       2487967 |            24845 |        98349058 |                     0 |     374227288 | 2017-02-05 07:07:06.023438+01

 2017-02-05 08:36:56.416171+01 | 1486280216.41617 |                 0 |              17 |                 88498 |                 3475 |            4777894 |       2488467 |            24850 |        98349058 |                     0 |     374309727 | 2017-02-05 07:07:06.023438+01

 2017-02-05 08:36:57.494737+01 | 1486280217.49474 |                 0 |              17 |                 88498 |                 3475 |            4777894 |       2489067 |            24856 |        98862147 |                     0 |     374413955 | 2017-02-05 07:07:06.023438+01

 2017-02-05 08:36:58.59269+01 | 1486280218.59269 |                 0 |              17 |                 88498 |                 3475 |            4777894 |       2489567 |            24861 |        98862147 |                     0 |     374499566 | 2017-02-05 07:07:06.023438+01

 2017-02-05 08:36:59.668181+01 | 1486280219.66818 |                 0 |              17 |                 88498 |                 3475 |            4777894 |       2490167 |            24867 |        98862147 |                     0 |     374597264 | 2017-02-05 07:07:06.023438+01

 2017-02-05 08:37:00.753459+01 | 1486280220.75346 |                 0 |              17 |                 88498 |                 3475 |            4777894 |       2490667 |            24872 |        98862147 |                     0 |     374682018 | 2017-02-05 07:07:06.023438+01

 2017-02-05 08:37:01.830171+01 | 1486280221.83017 |                 0 |              17 |                 88498 |                 3475 |            4777894 |       2491167 |            24877 |        98862147 |                     0 |     374768258 | 2017-02-05 07:07:06.023438+01

 2017-02-05 08:37:02.916602+01 | 1486280222.9166 |                 0 |              17 |                 88498 |                 3475 |            4777894 |       2491767 |            24883 |        98862147 |                     0 |     374872540 | 2017-02-05 07:07:06.023438+01

 2017-02-05 08:37:03.994675+01 | 1486280223.99467 |                 0 |              17 |                 88498 |                 3475 |            4777894 |       2492267 |            24888 |        98862147 |                     0 |     374959289 | 2017-02-05 07:07:06.023438+01

 2017-02-05 08:37:05.066798+01 | 1486280225.0668 |                 0 |              17 |                 88498 |                 3475 |            4777894 |       2492767 |            24893 |        98862147 |                     0 |     375043771 | 2017-02-05 07:07:06.023438+01

 2017-02-05 08:37:06.149549+01 | 1486280226.14955 |                 0 |              17 |                 88498 |                 3475 |            4777894 |       2493367 |            24899 |        98862147 |                     0 |     375148298 | 2017-02-05 07:07:06.023438+01

 2017-02-05 08:37:07.23338+01 | 1486280227.23338 |                 0 |              17 |                 88498 |                 3475 |            4777894 |       2493867 |            24904 |        98862147 |                     0 |     375234688 | 2017-02-05 07:07:06.023438+01

 2017-02-05 08:37:08.315686+01 | 1486280228.31569 |                 0 |              17 |                 88498 |                 3475 |            4777894 |       2494367 |            24909 |        98862147 |                     0 |     375321306 | 2017-02-05 07:07:06.023438+01

 2017-02-05 08:37:09.39445+01 | 1486280229.39445 |                 0 |              17 |                 88498 |                 3475 |            4777894 |       2494967 |            24915 |        98862147 |                     0 |     375427738 | 2017-02-05 07:07:06.023438+01

 2017-02-05 08:37:10.469596+01 | 1486280230.4696 |                 0 |              17 |                 88498 |                 3475 |            4777894 |       2495467 |            24920 |        98862147 |                     0 |     375512690 | 2017-02-05 07:07:06.023438+01

 2017-02-05 08:37:11.538475+01 | 1486280231.53848 |                 0 |              17 |                 88498 |                 3475 |            4777894 |       2495967 |            24925 |        98862147 |                     0 |     375587282 | 2017-02-05 07:07:06.023438+01

 2017-02-05 08:37:12.619966+01 | 1486280232.61997 |                 0 |              17 |                 88498 |                 3475 |            4777894 |       2496567 |            24931 |        98862147 |                     0 |     375684710 | 2017-02-05 07:07:06.023438+01

 2017-02-05 08:37:13.700165+01 | 1486280233.70017 |                 0 |              17 |                 88498 |                 3475 |            4777894 |       2497067 |            24936 |        98862147 |                     0 |     375767929 | 2017-02-05 07:07:06.023438+01

 2017-02-05 08:37:14.783873+01 | 1486280234.78387 |                 0 |              17 |                 88498 |                 3475 |            4777894 |       2497567 |            24941 |        98862147 |                     0 |     375853762 | 2017-02-05 07:07:06.023438+01

 2017-02-05 08:37:15.863787+01 | 1486280235.86379 |                 0 |              17 |                 88498 |                 3475 |            4777894 |       2498167 |            24947 |        98862147 |                     0 |     375956656 | 2017-02-05 07:07:06.023438+01

 2017-02-05 08:37:16.943523+01 | 1486280236.94352 |                 0 |              17 |                 88498 |                 3475 |            4777894 |       2498667 |            24952 |        98862147 |                     0 |     376043583 | 2017-02-05 07:07:06.023438+01

 2017-02-05 08:37:18.02486+01 | 1486280238.02486 |                 0 |              17 |                 88498 |                 3475 |            4777894 |       2499167 |            24957 |        98862147 |                     0 |     376133505 | 2017-02-05 07:07:06.023438+01

 2017-02-05 08:37:19.097549+01 | 1486280239.09755 |                 0 |              17 |                 88498 |                 3475 |            4777894 |       2499767 |            24963 |        98862147 |                     0 |     376237936 | 2017-02-05 07:07:06.023438+01

 2017-02-05 08:37:20.17334+01 | 1486280240.17334 |                 0 |              17 |                 88498 |                 3475 |            4777894 |       2500267 |            24968 |        99375236 |                     0 |     376324433 | 2017-02-05 07:07:06.023438+01

 2017-02-05 08:37:21.246354+01 | 1486280241.24635 |                 0 |              17 |                 88498 |                 3475 |            4777894 |       2500767 |            24973 |        99375236 |                     0 |     376410332 | 2017-02-05 07:07:06.023438+01

 2017-02-05 08:37:22.328271+01 | 1486280242.32827 |                 0 |              17 |                 88498 |                 3475 |            4777894 |       2501367 |            24979 |        99375236 |                     0 |     376506021 | 2017-02-05 07:07:06.023438+01

 2017-02-05 08:37:23.40632+01 | 1486280243.40632 |                 0 |              17 |                 88498 |                 3475 |            4777894 |       2501867 |            24984 |        99375236 |                     0 |     376591311 | 2017-02-05 07:07:06.023438+01

 2017-02-05 08:37:24.48995+01 | 1486280244.48995 |                 0 |              17 |                 88498 |                 3475 |            4777894 |       2502367 |            24989 |        99375236 |                     0 |     376678131 | 2017-02-05 07:07:06.023438+01

 2017-02-05 08:37:25.571609+01 | 1486280245.57161 |                 0 |              17 |                 88498 |                 3475 |            4777894 |       2502967 |            24995 |        99375236 |                     0 |     376781692 | 2017-02-05 07:07:06.023438+01

 2017-02-05 08:37:26.639724+01 | 1486280246.63972 |                 0 |              17 |                 88498 |                 3475 |            4777894 |       2503467 |            25000 |        99375236 |                     0 |     376868865 | 2017-02-05 07:07:06.023438+01

 2017-02-05 08:37:27.703464+01 | 1486280247.70346 |                 0 |              17 |                 88498 |                 3475 |            4777894 |       2503967 |            25005 |        99375236 |                     0 |     376949970 | 2017-02-05 07:07:06.023438+01

 2017-02-05 08:37:28.778833+01 | 1486280248.77883 |                 0 |              17 |                 88498 |                 3475 |            4777894 |       2504567 |            25011 |        99375236 |                     0 |     377053437 | 2017-02-05 07:07:06.023438+01

 2017-02-05 08:37:29.865556+01 | 1486280249.86556 |                 0 |              17 |                 88498 |                 3475 |            4777894 |       2505067 |            25016 |        99375236 |                     0 |     377137133 | 2017-02-05 07:07:06.023438+01

 2017-02-05 08:37:30.951767+01 | 1486280250.95177 |                 0 |              17 |                 88498 |                 3475 |            4777894 |       2505567 |            25021 |        99375236 |                     0 |     377220824 | 2017-02-05 07:07:06.023438+01

 2017-02-05 08:37:32.028376+01 | 1486280252.02838 |                 0 |              17 |                 88498 |                 3475 |            4777894 |       2506167 |            25027 |        99375236 |                     0 |     377319073 | 2017-02-05 07:07:06.023438+01

 2017-02-05 08:37:33.107073+01 | 1486280253.10707 |                 0 |              17 |                 88498 |                 3475 |            4777894 |       2506667 |            25032 |        99375236 |                     0 |     377398220 | 2017-02-05 07:07:06.023438+01

 2017-02-05 08:37:34.190695+01 | 1486280254.1907 |                 0 |              17 |                 88498 |                 3475 |            4777894 |       2507167 |            25037 |        99375236 |                     0 |     377483327 | 2017-02-05 07:07:06.023438+01

 2017-02-05 08:37:35.266223+01 | 1486280255.26622 |                 0 |              17 |                 88498 |                 3475 |            4777894 |       2507767 |            25043 |        99375236 |                     0 |     377591721 | 2017-02-05 07:07:06.023438+01

 2017-02-05 08:37:36.333725+01 | 1486280256.33372 |                 0 |              17 |                 88498 |                 3475 |            4777894 |       2508267 |            25048 |        99375236 |                     0 |     377673083 | 2017-02-05 07:07:06.023438+01

 2017-02-05 08:37:37.405668+01 | 1486280257.40567 |                 0 |              17 |                 88498 |                 3475 |            4777894 |       2508767 |            25053 |        99375236 |                     0 |     377756389 | 2017-02-05 07:07:06.023438+01

 2017-02-05 08:37:38.487965+01 | 1486280258.48797 |                 0 |              17 |                 88498 |                 3475 |            4777894 |       2509367 |            25059 |        99375236 |                     0 |     377848048 | 2017-02-05 07:07:06.023438+01

 2017-02-05 08:37:39.567301+01 | 1486280259.5673 |                 0 |              17 |                 88498 |                 3475 |            4777894 |       2509867 |            25064 |        99375236 |                     0 |     377935255 | 2017-02-05 07:07:06.023438+01

 2017-02-05 08:37:40.649927+01 | 1486280260.64993 |                 0 |              17 |                 88498 |                 3475 |            4777894 |       2510367 |            25069 |        99375236 |                     0 |     378022640 | 2017-02-05 07:07:06.023438+01

 2017-02-05 08:37:41.73281+01 | 1486280261.73281 |                 0 |              17 |                 88498 |                 3475 |            4777894 |       2510967 |            25075 |        99375236 |                     0 |     378119306 | 2017-02-05 07:07:06.023438+01

 2017-02-05 08:37:42.813166+01 | 1486280262.81317 |                 0 |              17 |                 88498 |                 3475 |            4777894 |       2511467 |            25080 |        99888127 |                     0 |     378202772 | 2017-02-05 07:07:06.023438+01

 2017-02-05 08:37:43.891573+01 | 1486280263.89157 |                 0 |              17 |                 88498 |                 3475 |            4777894 |       2512067 |            25086 |        99888127 |                     0 |     378310777 | 2017-02-05 07:07:06.023438+01

 2017-02-05 08:37:44.963489+01 | 1486280264.96349 |                 0 |              17 |                 88498 |                 3475 |            4777894 |       2512567 |            25091 |        99888127 |                     0 |     378394731 | 2017-02-05 07:07:06.023438+01

 2017-02-05 08:37:46.032891+01 | 1486280266.03289 |                 0 |              17 |                 88498 |                 3475 |            4777894 |       2513067 |            25096 |        99888127 |                     0 |     378476965 | 2017-02-05 07:07:06.023438+01

 2017-02-05 08:37:47.111918+01 | 1486280267.11192 |                 0 |              17 |                 88498 |                 3475 |            4777894 |       2513567 |            25101 |        99888127 |                     0 |     378563542 | 2017-02-05 07:07:06.023438+01

 2017-02-05 08:37:48.191204+01 | 1486280268.1912 |                 0 |              17 |                 88498 |                 3475 |            4777894 |       2514167 |            25107 |        99888127 |                     0 |     378661989 | 2017-02-05 07:07:06.023438+01

 2017-02-05 08:37:49.277758+01 | 1486280269.27776 |                 0 |              17 |                 88498 |                 3475 |            4777894 |       2514667 |            25112 |        99888127 |                     0 |     378744230 | 2017-02-05 07:07:06.023438+01

 2017-02-05 08:37:50.366116+01 | 1486280270.36612 |                 0 |              17 |                 88498 |                 3475 |            4777894 |       2515267 |            25118 |        99888127 |                     0 |     378836215 | 2017-02-05 07:07:06.023438+01

 2017-02-05 08:37:51.451519+01 | 1486280271.45152 |                 0 |              17 |                 88498 |                 3475 |            4777894 |       2515767 |            25123 |        99888127 |                     0 |     378920488 | 2017-02-05 07:07:06.023438+01

 2017-02-05 08:37:52.533548+01 | 1486280272.53355 |                 0 |              17 |                 88498 |                 3475 |            4777894 |       2516267 |            25128 |        99888127 |                     0 |     379010546 | 2017-02-05 07:07:06.023438+01

