 2017-02-05 18:00:13.723056+01 | 1486314013.72306 |                 0 |              31 |                 61031 |                 2927 |            6889908 |             0 |                0 |         2878163 |                     0 |       2583230 | 2017-02-05 15:28:29.905286+01

 2017-02-05 18:00:14.807057+01 | 1486314014.80706 |                 0 |              31 |                 61031 |                 2927 |            6889908 |             0 |                0 |         2878163 |                     0 |       2583516 | 2017-02-05 15:28:29.905286+01

 2017-02-05 18:00:15.883951+01 | 1486314015.88395 |                 0 |              31 |                 61031 |                 2927 |            6889908 |             0 |                0 |         2878163 |                     0 |       2584042 | 2017-02-05 15:28:29.905286+01

 2017-02-05 18:00:16.964424+01 | 1486314016.96442 |                 0 |              31 |                 61031 |                 2927 |            6889908 |             0 |                0 |         2878163 |                     0 |       2584043 | 2017-02-05 15:28:29.905286+01

 2017-02-05 18:00:18.046686+01 | 1486314018.04669 |                 0 |              31 |                 61031 |                 2927 |            6889908 |             0 |                0 |         2878163 |                     0 |       2584651 | 2017-02-05 15:28:29.905286+01

 2017-02-05 18:00:19.126822+01 | 1486314019.12682 |                 0 |              31 |                 61031 |                 2927 |            6889908 |             0 |                0 |         2878163 |                     0 |       2584977 | 2017-02-05 15:28:29.905286+01

 2017-02-05 18:00:20.211899+01 | 1486314020.2119 |                 0 |              31 |                 61031 |                 2927 |            6889908 |             0 |                0 |         2878163 |                     0 |       2585105 | 2017-02-05 15:28:29.905286+01

 2017-02-05 18:00:21.291612+01 | 1486314021.29161 |                 0 |              31 |                 61031 |                 2927 |            6889908 |             0 |                0 |         2878163 |                     0 |       2585655 | 2017-02-05 15:28:29.905286+01

 2017-02-05 18:00:22.370558+01 | 1486314022.37056 |                 0 |              31 |                 61031 |                 2927 |            6889908 |             0 |                0 |         2878163 |                     0 |       2585921 | 2017-02-05 15:28:29.905286+01

 2017-02-05 18:00:23.448469+01 | 1486314023.44847 |                 0 |              31 |                 61031 |                 2927 |            6889908 |             0 |                0 |         2878163 |                     0 |       2586187 | 2017-02-05 15:28:29.905286+01

 2017-02-05 18:00:24.532789+01 | 1486314024.53279 |                 0 |              31 |                 61031 |                 2927 |            6889908 |             0 |                0 |         2878163 |                     0 |       2586759 | 2017-02-05 15:28:29.905286+01

 2017-02-05 18:00:25.613954+01 | 1486314025.61395 |                 0 |              31 |                 61031 |                 2927 |            6889908 |             0 |                0 |         2878163 |                     0 |       2587191 | 2017-02-05 15:28:29.905286+01

 2017-02-05 18:00:26.693212+01 | 1486314026.69321 |                 0 |              31 |                 61031 |                 2927 |            6889908 |             0 |                0 |         2878163 |                     0 |       2587438 | 2017-02-05 15:28:29.905286+01

 2017-02-05 18:00:27.772857+01 | 1486314027.77286 |                 0 |              31 |                 61031 |                 2927 |            6889908 |             0 |                0 |         2878163 |                     0 |       2587847 | 2017-02-05 15:28:29.905286+01

 2017-02-05 18:00:28.848347+01 | 1486314028.84835 |                 0 |              31 |                 61031 |                 2927 |            6889908 |             0 |                0 |         2878163 |                     0 |       2588299 | 2017-02-05 15:28:29.905286+01

 2017-02-05 18:00:29.929672+01 | 1486314029.92967 |                 0 |              31 |                 61031 |                 2927 |            6889908 |             0 |                0 |         2878163 |                     0 |       2588691 | 2017-02-05 15:28:29.905286+01

 2017-02-05 18:00:31.010533+01 | 1486314031.01053 |                 0 |              31 |                 61031 |                 2927 |            6889908 |             0 |                0 |         2878163 |                     0 |       2589080 | 2017-02-05 15:28:29.905286+01

 2017-02-05 18:00:32.090725+01 | 1486314032.09072 |                 0 |              31 |                 61031 |                 2927 |            6889908 |             0 |                0 |         2878163 |                     0 |       2589753 | 2017-02-05 15:28:29.905286+01

 2017-02-05 18:00:33.163072+01 | 1486314033.16307 |                 0 |              31 |                 61031 |                 2927 |            6889908 |             0 |                0 |         2878163 |                     0 |       2589836 | 2017-02-05 15:28:29.905286+01

 2017-02-05 18:00:34.247099+01 | 1486314034.2471 |                 0 |              31 |                 61031 |                 2927 |            6889908 |             0 |                0 |         2878163 |                     0 |       2590245 | 2017-02-05 15:28:29.905286+01

 2017-02-05 18:00:35.326467+01 | 1486314035.32647 |                 0 |              31 |                 61031 |                 2927 |            6889908 |             0 |                0 |         2878163 |                     0 |       2590717 | 2017-02-05 15:28:29.905286+01

 2017-02-05 18:00:36.406772+01 | 1486314036.40677 |                 0 |              31 |                 61031 |                 2927 |            6889908 |             0 |                0 |         2878163 |                     0 |       2591006 | 2017-02-05 15:28:29.905286+01

 2017-02-05 18:00:37.484006+01 | 1486314037.48401 |                 0 |              31 |                 61031 |                 2927 |            6889908 |             0 |                0 |         2878163 |                     0 |       2591312 | 2017-02-05 15:28:29.905286+01

 2017-02-05 18:00:38.563839+01 | 1486314038.56384 |                 0 |              31 |                 61031 |                 2927 |            6889908 |             0 |                0 |         2878163 |                     0 |       2591939 | 2017-02-05 15:28:29.905286+01

 2017-02-05 18:00:39.639392+01 | 1486314039.63939 |                 0 |              31 |                 61031 |                 2927 |            6889908 |             0 |                0 |         2878163 |                     0 |       2592165 | 2017-02-05 15:28:29.905286+01

 2017-02-05 18:00:40.711977+01 | 1486314040.71198 |                 0 |              31 |                 61031 |                 2927 |            6889908 |             0 |                0 |         2878163 |                     0 |       2592471 | 2017-02-05 15:28:29.905286+01

 2017-02-05 18:00:41.792582+01 | 1486314041.79258 |                 0 |              31 |                 61031 |                 2927 |            6889908 |             0 |                0 |         2878163 |                     0 |       2592797 | 2017-02-05 15:28:29.905286+01

 2017-02-05 18:00:42.869535+01 | 1486314042.86953 |                 0 |              31 |                 61031 |                 2927 |            6889908 |             0 |                0 |         2878163 |                     0 |       2593289 | 2017-02-05 15:28:29.905286+01

 2017-02-05 18:00:43.945028+01 | 1486314043.94503 |                 0 |              31 |                 61031 |                 2927 |            6889908 |             0 |                0 |         2878163 |                     0 |       2593835 | 2017-02-05 15:28:29.905286+01

 2017-02-05 18:00:45.027422+01 | 1486314045.02742 |                 0 |              31 |                 61031 |                 2927 |            6889908 |             0 |                0 |         2878163 |                     0 |       2593835 | 2017-02-05 15:28:29.905286+01

 2017-02-05 18:00:46.114887+01 | 1486314046.11489 |                 0 |              31 |                 61031 |                 2927 |            6889908 |             0 |                0 |         2878163 |                     0 |       2594221 | 2017-02-05 15:28:29.905286+01

 2017-02-05 18:00:47.200526+01 | 1486314047.20053 |                 0 |              31 |                 61031 |                 2927 |            6889908 |             0 |                0 |         2878163 |                     0 |       2594813 | 2017-02-05 15:28:29.905286+01

 2017-02-05 18:00:48.275877+01 | 1486314048.27588 |                 0 |              31 |                 61031 |                 2927 |            6889908 |             0 |                0 |         2878163 |                     0 |       2595039 | 2017-02-05 15:28:29.905286+01

 2017-02-05 18:00:49.366761+01 | 1486314049.36676 |                 0 |              31 |                 61031 |                 2927 |            6889908 |             0 |                0 |         2878163 |                     0 |       2595265 | 2017-02-05 15:28:29.905286+01

 2017-02-05 18:00:50.447105+01 | 1486314050.4471 |                 0 |              31 |                 61031 |                 2927 |            6889908 |             0 |                0 |         2878163 |                     0 |       2595675 | 2017-02-05 15:28:29.905286+01

 2017-02-05 18:00:51.523058+01 | 1486314051.52306 |                 0 |              31 |                 61031 |                 2927 |            6889908 |             0 |                0 |         2878163 |                     0 |       2596068 | 2017-02-05 15:28:29.905286+01

 2017-02-05 18:00:52.595266+01 | 1486314052.59527 |                 0 |              31 |                 61031 |                 2927 |            6889908 |             0 |                0 |         2878163 |                     0 |       2596397 | 2017-02-05 15:28:29.905286+01

 2017-02-05 18:00:53.672926+01 | 1486314053.67293 |                 0 |              31 |                 61031 |                 2927 |            6889908 |             0 |                0 |         2878163 |                     0 |       2596866 | 2017-02-05 15:28:29.905286+01

 2017-02-05 18:00:54.750767+01 | 1486314054.75077 |                 0 |              31 |                 61031 |                 2927 |            6889908 |             0 |                0 |         2878163 |                     0 |       2597318 | 2017-02-05 15:28:29.905286+01

 2017-02-05 18:00:55.829152+01 | 1486314055.82915 |                 0 |              31 |                 61031 |                 2927 |            6889908 |             0 |                0 |         2878163 |                     0 |       2597630 | 2017-02-05 15:28:29.905286+01

 2017-02-05 18:00:56.906365+01 | 1486314056.90636 |                 0 |              31 |                 61031 |                 2927 |            6889908 |             0 |                0 |         2878163 |                     0 |       2598002 | 2017-02-05 15:28:29.905286+01

 2017-02-05 18:00:57.984918+01 | 1486314057.98492 |                 0 |              31 |                 61031 |                 2927 |            6889908 |             0 |                0 |         2878163 |                     0 |       2598437 | 2017-02-05 15:28:29.905286+01

 2017-02-05 18:00:59.069221+01 | 1486314059.06922 |                 0 |              31 |                 61031 |                 2927 |            6889908 |             0 |                0 |         2878163 |                     0 |       2598703 | 2017-02-05 15:28:29.905286+01

 2017-02-05 18:01:00.157212+01 | 1486314060.15721 |                 0 |              31 |                 61031 |                 2927 |            6889908 |             0 |                0 |         2878163 |                     0 |       2599175 | 2017-02-05 15:28:29.905286+01

 2017-02-05 18:01:01.243415+01 | 1486314061.24342 |                 0 |              31 |                 61031 |                 2927 |            6889908 |             0 |                0 |         2878163 |                     0 |       2599582 | 2017-02-05 15:28:29.905286+01

 2017-02-05 18:01:02.326443+01 | 1486314062.32644 |                 0 |              31 |                 61031 |                 2927 |            6889908 |             0 |                0 |         2878163 |                     0 |       2599971 | 2017-02-05 15:28:29.905286+01

 2017-02-05 18:01:03.407234+01 | 1486314063.40723 |                 0 |              31 |                 61031 |                 2927 |            6889908 |             0 |                0 |         2878163 |                     0 |       2600300 | 2017-02-05 15:28:29.905286+01

 2017-02-05 18:01:04.491678+01 | 1486314064.49168 |                 0 |              31 |                 61031 |                 2927 |            6889908 |             0 |                0 |         2878163 |                     0 |       2600672 | 2017-02-05 15:28:29.905286+01

 2017-02-05 18:01:05.575654+01 | 1486314065.57565 |                 0 |              31 |                 61031 |                 2927 |            6889908 |             0 |                0 |         2878163 |                     0 |       2601085 | 2017-02-05 15:28:29.905286+01

 2017-02-05 18:01:06.654039+01 | 1486314066.65404 |                 0 |              31 |                 61031 |                 2927 |            6889908 |             0 |                0 |         2878163 |                     0 |       2601519 | 2017-02-05 15:28:29.905286+01

 2017-02-05 18:01:07.728854+01 | 1486314067.72885 |                 0 |              31 |                 61031 |                 2927 |            6889908 |             0 |                0 |         2878163 |                     0 |       2601945 | 2017-02-05 15:28:29.905286+01

 2017-02-05 18:01:08.8048+01 | 1486314068.8048 |                 0 |              31 |                 61031 |                 2927 |            6889908 |             0 |                0 |         2878163 |                     0 |       2602274 | 2017-02-05 15:28:29.905286+01

 2017-02-05 18:01:09.885655+01 | 1486314069.88565 |                 0 |              31 |                 61031 |                 2927 |            6889908 |             0 |                0 |         2878163 |                     0 |       2602666 | 2017-02-05 15:28:29.905286+01

 2017-02-05 18:01:10.969626+01 | 1486314070.96963 |                 0 |              31 |                 61031 |                 2927 |            6889908 |             0 |                0 |         2878163 |                     0 |       2603175 | 2017-02-05 15:28:29.905286+01

 2017-02-05 18:01:12.047279+01 | 1486314072.04728 |                 0 |              31 |                 61031 |                 2927 |            6889908 |             0 |                0 |         2878163 |                     0 |       2603481 | 2017-02-05 15:28:29.905286+01

 2017-02-05 18:01:13.130013+01 | 1486314073.13001 |                 0 |              31 |                 61031 |                 2927 |            6889908 |             0 |                0 |         2878163 |                     0 |       2603918 | 2017-02-05 15:28:29.905286+01

 2017-02-05 18:01:14.212716+01 | 1486314074.21272 |                 0 |              31 |                 61031 |                 2927 |            6889908 |             0 |                0 |         2878163 |                     0 |       2604187 | 2017-02-05 15:28:29.905286+01

 2017-02-05 18:01:15.294873+01 | 1486314075.29487 |                 0 |              31 |                 61031 |                 2927 |            6889908 |             0 |                0 |         2878163 |                     0 |       2604559 | 2017-02-05 15:28:29.905286+01

 2017-02-05 18:01:16.382519+01 | 1486314076.38252 |                 0 |              31 |                 61031 |                 2927 |            6889908 |             0 |                0 |         2878163 |                     0 |       2604945 | 2017-02-05 15:28:29.905286+01

 2017-02-05 18:01:17.463549+01 | 1486314077.46355 |                 0 |              31 |                 61031 |                 2927 |            6889908 |             0 |                0 |         2878163 |                     0 |       2605358 | 2017-02-05 15:28:29.905286+01

 2017-02-05 18:01:18.555009+01 | 1486314078.55501 |                 0 |              31 |                 61031 |                 2927 |            6889908 |             0 |                0 |         2878163 |                     0 |       2605601 | 2017-02-05 15:28:29.905286+01

 2017-02-05 18:01:19.629987+01 | 1486314079.62999 |                 0 |              31 |                 61031 |                 2927 |            6889908 |             0 |                0 |         2878163 |                     0 |       2606127 | 2017-02-05 15:28:29.905286+01

 2017-02-05 18:01:20.704179+01 | 1486314080.70418 |                 0 |              31 |                 61031 |                 2927 |            6889908 |             0 |                0 |         2878163 |                     0 |       2606517 | 2017-02-05 15:28:29.905286+01

 2017-02-05 18:01:21.782194+01 | 1486314081.78219 |                 0 |              31 |                 61031 |                 2927 |            6889908 |             0 |                0 |         2878163 |                     0 |       2606720 | 2017-02-05 15:28:29.905286+01

 2017-02-05 18:01:22.867058+01 | 1486314082.86706 |                 0 |              31 |                 61031 |                 2927 |            6889908 |             0 |                0 |         2878163 |                     0 |       2607355 | 2017-02-05 15:28:29.905286+01

 2017-02-05 18:01:23.960702+01 | 1486314083.9607 |                 0 |              31 |                 61031 |                 2927 |            6889908 |             0 |                0 |         2878163 |                     0 |       2607765 | 2017-02-05 15:28:29.905286+01

 2017-02-05 18:01:25.03173+01 | 1486314085.03173 |                 0 |              31 |                 61031 |                 2927 |            6889908 |             0 |                0 |         2878163 |                     0 |       2608071 | 2017-02-05 15:28:29.905286+01

 2017-02-05 18:01:26.113177+01 | 1486314086.11318 |                 0 |              31 |                 61031 |                 2927 |            6889908 |             0 |                0 |         2878163 |                     0 |       2608418 | 2017-02-05 15:28:29.905286+01

 2017-02-05 18:01:27.196948+01 | 1486314087.19695 |                 0 |              31 |                 61031 |                 2927 |            6889908 |             0 |                0 |         2878163 |                     0 |       2608792 | 2017-02-05 15:28:29.905286+01

 2017-02-05 18:01:28.276326+01 | 1486314088.27633 |                 0 |              31 |                 61031 |                 2927 |            6889908 |             0 |                0 |         2878163 |                     0 |       2609244 | 2017-02-05 15:28:29.905286+01

 2017-02-05 18:01:29.359151+01 | 1486314089.35915 |                 0 |              31 |                 61031 |                 2927 |            6889908 |             0 |                0 |         2878163 |                     0 |       2609699 | 2017-02-05 15:28:29.905286+01

 2017-02-05 18:01:30.437307+01 | 1486314090.43731 |                 0 |              31 |                 61031 |                 2927 |            6889908 |             0 |                0 |         2878163 |                     0 |       2610168 | 2017-02-05 15:28:29.905286+01

 2017-02-05 18:01:31.515586+01 | 1486314091.51559 |                 0 |              31 |                 61031 |                 2927 |            6889908 |             0 |                0 |         2878163 |                     0 |       2610495 | 2017-02-05 15:28:29.905286+01

 2017-02-05 18:01:32.593543+01 | 1486314092.59354 |                 0 |              31 |                 61031 |                 2927 |            6889908 |             0 |                0 |         2878163 |                     0 |       2610905 | 2017-02-05 15:28:29.905286+01

 2017-02-05 18:01:33.669773+01 | 1486314093.66977 |                 0 |              31 |                 61031 |                 2927 |            6889908 |             0 |                0 |         2878163 |                     0 |       2611231 | 2017-02-05 15:28:29.905286+01

 2017-02-05 18:01:34.751345+01 | 1486314094.75134 |                 0 |              31 |                 61031 |                 2927 |            6889908 |             0 |                0 |         2878163 |                     0 |       2611838 | 2017-02-05 15:28:29.905286+01

 2017-02-05 18:01:35.82849+01 | 1486314095.82849 |                 0 |              31 |                 61031 |                 2927 |            6889908 |             0 |                0 |         2878163 |                     0 |       2612121 | 2017-02-05 15:28:29.905286+01

 2017-02-05 18:01:36.907552+01 | 1486314096.90755 |                 0 |              31 |                 61031 |                 2927 |            6889908 |             0 |                0 |         2878163 |                     0 |       2612515 | 2017-02-05 15:28:29.905286+01

 2017-02-05 18:01:37.992338+01 | 1486314097.99234 |                 0 |              31 |                 61031 |                 2927 |            6889908 |             0 |                0 |         2878163 |                     0 |       2613005 | 2017-02-05 15:28:29.905286+01

 2017-02-05 18:01:39.069704+01 | 1486314099.0697 |                 0 |              31 |                 61031 |                 2927 |            6889908 |             0 |                0 |         2878163 |                     0 |       2613248 | 2017-02-05 15:28:29.905286+01

 2017-02-05 18:01:40.149121+01 | 1486314100.14912 |                 0 |              31 |                 61031 |                 2927 |            6889908 |             0 |                0 |         2878163 |                     0 |       2613697 | 2017-02-05 15:28:29.905286+01

 2017-02-05 18:01:41.227434+01 | 1486314101.22743 |                 0 |              31 |                 61031 |                 2927 |            6889908 |             0 |                0 |         2878163 |                     0 |       2614063 | 2017-02-05 15:28:29.905286+01

 2017-02-05 18:01:42.30758+01 | 1486314102.30758 |                 0 |              31 |                 61031 |                 2927 |            6889908 |             0 |                0 |         2878163 |                     0 |       2614618 | 2017-02-05 15:28:29.905286+01

 2017-02-05 18:01:43.382671+01 | 1486314103.38267 |                 0 |              31 |                 61031 |                 2927 |            6889908 |             0 |                0 |         2878163 |                     0 |       2614964 | 2017-02-05 15:28:29.905286+01

 2017-02-05 18:01:44.470282+01 | 1486314104.47028 |                 0 |              31 |                 61031 |                 2927 |            6889908 |             0 |                0 |         2878163 |                     0 |       2615288 | 2017-02-05 15:28:29.905286+01

 2017-02-05 18:01:45.548742+01 | 1486314105.54874 |                 0 |              31 |                 61031 |                 2927 |            6889908 |             0 |                0 |         2878163 |                     0 |       2615680 | 2017-02-05 15:28:29.905286+01

 2017-02-05 18:01:46.630903+01 | 1486314106.6309 |                 0 |              31 |                 61031 |                 2927 |            6889908 |             0 |                0 |         2878163 |                     0 |       2616293 | 2017-02-05 15:28:29.905286+01

 2017-02-05 18:01:47.718344+01 | 1486314107.71834 |                 0 |              31 |                 61031 |                 2927 |            6889908 |             0 |                0 |         2878163 |                     0 |       2616460 | 2017-02-05 15:28:29.905286+01

 2017-02-05 18:01:48.798664+01 | 1486314108.79866 |                 0 |              31 |                 61031 |                 2927 |            6889908 |             0 |                0 |         2878163 |                     0 |       2616932 | 2017-02-05 15:28:29.905286+01

 2017-02-05 18:01:49.882006+01 | 1486314109.88201 |                 0 |              31 |                 61031 |                 2927 |            6889908 |             0 |                0 |         2878163 |                     0 |       2617261 | 2017-02-05 15:28:29.905286+01

 2017-02-05 18:01:50.962809+01 | 1486314110.96281 |                 0 |              31 |                 61031 |                 2927 |            6889908 |             0 |                0 |         2878163 |                     0 |       2617677 | 2017-02-05 15:28:29.905286+01

 2017-02-05 18:01:52.044457+01 | 1486314112.04446 |                 0 |              31 |                 61031 |                 2927 |            6889908 |             0 |                0 |         2878163 |                     0 |       2618169 | 2017-02-05 15:28:29.905286+01

 2017-02-05 18:01:53.12541+01 | 1486314113.12541 |                 0 |              31 |                 61031 |                 2927 |            6889908 |             0 |                0 |         2878163 |                     0 |       2618392 | 2017-02-05 15:28:29.905286+01

 2017-02-05 18:01:54.214253+01 | 1486314114.21425 |                 0 |              31 |                 61031 |                 2927 |            6889908 |             0 |                0 |         2878163 |                     0 |       2618845 | 2017-02-05 15:28:29.905286+01

 2017-02-05 18:01:55.29359+01 | 1486314115.29359 |                 0 |              31 |                 61031 |                 2927 |            6889908 |             0 |                0 |         2878163 |                     0 |       2619254 | 2017-02-05 15:28:29.905286+01

 2017-02-05 18:01:56.368788+01 | 1486314116.36879 |                 0 |              31 |                 61031 |                 2927 |            6889908 |             0 |                0 |         2878163 |                     0 |       2619664 | 2017-02-05 15:28:29.905286+01

 2017-02-05 18:01:57.45705+01 | 1486314117.45705 |                 0 |              31 |                 61031 |                 2927 |            6889908 |             0 |                0 |         2878163 |                     0 |       2620179 | 2017-02-05 15:28:29.905286+01

 2017-02-05 18:01:58.534132+01 | 1486314118.53413 |                 0 |              31 |                 61031 |                 2927 |            6889908 |             0 |                0 |         2878163 |                     0 |       2620422 | 2017-02-05 15:28:29.905286+01

 2017-02-05 18:01:59.612622+01 | 1486314119.61262 |                 0 |              31 |                 61031 |                 2927 |            6889908 |             0 |                0 |         2878163 |                     0 |       2620872 | 2017-02-05 15:28:29.905286+01

 2017-02-05 18:02:00.693143+01 | 1486314120.69314 |                 0 |              31 |                 61031 |                 2927 |            6889908 |             0 |                0 |         2878163 |                     0 |       2621301 | 2017-02-05 15:28:29.905286+01

 2017-02-05 18:02:01.770469+01 | 1486314121.77047 |                 0 |              31 |                 61031 |                 2927 |            6889908 |             0 |                0 |         2878163 |                     0 |       2621711 | 2017-02-05 15:28:29.905286+01

 2017-02-05 18:02:02.842762+01 | 1486314122.84276 |                 0 |              31 |                 61031 |                 2927 |            6889908 |             0 |                0 |         2878163 |                     0 |       2622236 | 2017-02-05 15:28:29.905286+01

 2017-02-05 18:02:03.924027+01 | 1486314123.92403 |                 0 |              31 |                 61031 |                 2927 |            6889908 |             0 |                0 |         2878163 |                     0 |       2622645 | 2017-02-05 15:28:29.905286+01

 2017-02-05 18:02:05.000387+01 | 1486314125.00039 |                 0 |              31 |                 61031 |                 2927 |            6889908 |             0 |                0 |         2878163 |                     0 |       2622871 | 2017-02-05 15:28:29.905286+01

 2017-02-05 18:02:06.087872+01 | 1486314126.08787 |                 0 |              31 |                 61031 |                 2927 |            6889908 |             0 |                0 |         2878163 |                     0 |       2623240 | 2017-02-05 15:28:29.905286+01

 2017-02-05 18:02:07.164767+01 | 1486314127.16477 |                 0 |              31 |                 61031 |                 2927 |            6889908 |             0 |                0 |         2878163 |                     0 |       2623712 | 2017-02-05 15:28:29.905286+01

 2017-02-05 18:02:08.243357+01 | 1486314128.24336 |                 0 |              31 |                 61031 |                 2927 |            6889908 |             0 |                0 |         2878163 |                     0 |       2624162 | 2017-02-05 15:28:29.905286+01

 2017-02-05 18:02:09.318797+01 | 1486314129.3188 |                 0 |              31 |                 61031 |                 2927 |            6889908 |             0 |                0 |         2878163 |                     0 |       2624491 | 2017-02-05 15:28:29.905286+01

 2017-02-05 18:02:10.400412+01 | 1486314130.40041 |                 0 |              31 |                 61031 |                 2927 |            6889908 |             0 |                0 |         2878163 |                     0 |       2624987 | 2017-02-05 15:28:29.905286+01

 2017-02-05 18:02:11.476112+01 | 1486314131.47611 |                 0 |              31 |                 61031 |                 2927 |            6889908 |             0 |                0 |         2878163 |                     0 |       2625539 | 2017-02-05 15:28:29.905286+01

 2017-02-05 18:02:12.555017+01 | 1486314132.55502 |                 0 |              31 |                 61031 |                 2927 |            6889908 |             0 |                0 |         2878163 |                     0 |       2625765 | 2017-02-05 15:28:29.905286+01

 2017-02-05 18:02:13.632354+01 | 1486314133.63235 |                 0 |              31 |                 61031 |                 2927 |            6889908 |             0 |                0 |         2878163 |                     0 |       2626139 | 2017-02-05 15:28:29.905286+01

 2017-02-05 18:02:14.71181+01 | 1486314134.71181 |                 0 |              31 |                 61031 |                 2927 |            6889908 |             0 |                0 |         2878163 |                     0 |       2626488 | 2017-02-05 15:28:29.905286+01

 2017-02-05 18:02:15.784417+01 | 1486314135.78442 |                 0 |              31 |                 61031 |                 2927 |            6889908 |             0 |                0 |         2878163 |                     0 |       2627020 | 2017-02-05 15:28:29.905286+01

 2017-02-05 18:02:16.862288+01 | 1486314136.86229 |                 0 |              31 |                 61031 |                 2927 |            6889908 |             0 |                0 |         2878163 |                     0 |       2627432 | 2017-02-05 15:28:29.905286+01

 2017-02-05 18:02:17.940974+01 | 1486314137.94097 |                 0 |              31 |                 61031 |                 2927 |            6889908 |             0 |                0 |         2878163 |                     0 |       2627862 | 2017-02-05 15:28:29.905286+01

 2017-02-05 18:02:19.021924+01 | 1486314139.02192 |                 0 |              31 |                 61031 |                 2927 |            6889908 |             0 |                0 |         2878163 |                     0 |       2628172 | 2017-02-05 15:28:29.905286+01

 2017-02-05 18:02:20.103329+01 | 1486314140.10333 |                 0 |              31 |                 61031 |                 2927 |            6889908 |             0 |                0 |         2878163 |                     0 |       2628581 | 2017-02-05 15:28:29.905286+01

 2017-02-05 18:02:21.18583+01 | 1486314141.18583 |                 0 |              31 |                 61031 |                 2927 |            6889908 |             0 |                0 |         2878163 |                     0 |       2628950 | 2017-02-05 15:28:29.905286+01

 2017-02-05 18:02:22.264484+01 | 1486314142.26448 |                 0 |              31 |                 61031 |                 2927 |            6889908 |             0 |                0 |         2878163 |                     0 |       2629153 | 2017-02-05 15:28:29.905286+01

 2017-02-05 18:02:23.330691+01 | 1486314143.33069 |                 0 |              31 |                 61031 |                 2927 |            6889908 |             0 |                0 |         2878163 |                     0 |       2630125 | 2017-02-05 15:28:29.905286+01

 2017-02-05 18:02:24.411333+01 | 1486314144.41133 |                 0 |              31 |                 61031 |                 2927 |            6889908 |             0 |                0 |         2878163 |                     0 |       2630126 | 2017-02-05 15:28:29.905286+01

 2017-02-05 18:02:25.489565+01 | 1486314145.48956 |                 0 |              31 |                 61031 |                 2927 |            6889908 |             0 |                0 |         2878163 |                     0 |       2630494 | 2017-02-05 15:28:29.905286+01

 2017-02-05 18:02:26.568749+01 | 1486314146.56875 |                 0 |              31 |                 61031 |                 2927 |            6889908 |             0 |                0 |         2878163 |                     0 |       2631106 | 2017-02-05 15:28:29.905286+01

 2017-02-05 18:02:27.651762+01 | 1486314147.65176 |                 0 |              31 |                 61031 |                 2927 |            6889908 |             0 |                0 |         2878163 |                     0 |       2631289 | 2017-02-05 15:28:29.905286+01

 2017-02-05 18:02:28.744897+01 | 1486314148.7449 |                 0 |              31 |                 61031 |                 2927 |            6889908 |             0 |                0 |         2878163 |                     0 |       2631744 | 2017-02-05 15:28:29.905286+01

 2017-02-05 18:02:29.823033+01 | 1486314149.82303 |                 0 |              31 |                 61031 |                 2927 |            6889908 |             0 |                0 |         2878163 |                     0 |       2632131 | 2017-02-05 15:28:29.905286+01

 2017-02-05 18:02:30.906446+01 | 1486314150.90645 |                 0 |              31 |                 61031 |                 2927 |            6889908 |             0 |                0 |         2878163 |                     0 |       2632500 | 2017-02-05 15:28:29.905286+01

 2017-02-05 18:02:31.989564+01 | 1486314151.98956 |                 0 |              31 |                 61031 |                 2927 |            6889908 |             0 |                0 |         2878163 |                     0 |       2632929 | 2017-02-05 15:28:29.905286+01

 2017-02-05 18:02:33.071452+01 | 1486314153.07145 |                 0 |              31 |                 61031 |                 2927 |            6889908 |             0 |                0 |         2878163 |                     0 |       2633295 | 2017-02-05 15:28:29.905286+01

 2017-02-05 18:02:34.158135+01 | 1486314154.15813 |                 0 |              31 |                 61031 |                 2927 |            6889908 |             0 |                0 |         2878163 |                     0 |       2633683 | 2017-02-05 15:28:29.905286+01

 2017-02-05 18:02:35.239234+01 | 1486314155.23923 |                 0 |              31 |                 61031 |                 2927 |            6889908 |             0 |                0 |         2878163 |                     0 |       2634054 | 2017-02-05 15:28:29.905286+01

 2017-02-05 18:02:36.322884+01 | 1486314156.32288 |                 0 |              31 |                 61031 |                 2927 |            6889908 |             0 |                0 |         2878163 |                     0 |       2634669 | 2017-02-05 15:28:29.905286+01

 2017-02-05 18:02:37.403731+01 | 1486314157.40373 |                 0 |              31 |                 61031 |                 2927 |            6889908 |             0 |                0 |         2878163 |                     0 |       2634669 | 2017-02-05 15:28:29.905286+01

 2017-02-05 18:02:38.491098+01 | 1486314158.4911 |                 0 |              31 |                 61031 |                 2927 |            6889908 |             0 |                0 |         2878163 |                     0 |       2635235 | 2017-02-05 15:28:29.905286+01

 2017-02-05 18:02:39.567444+01 | 1486314159.56744 |                 0 |              31 |                 61031 |                 2927 |            6889908 |             0 |                0 |         2878163 |                     0 |       2635787 | 2017-02-05 15:28:29.905286+01

 2017-02-05 18:02:40.644651+01 | 1486314160.64465 |                 0 |              31 |                 61031 |                 2927 |            6889908 |             0 |                0 |         2878163 |                     0 |       2636116 | 2017-02-05 15:28:29.905286+01

 2017-02-05 18:02:41.726331+01 | 1486314161.72633 |                 0 |              31 |                 61031 |                 2927 |            6889908 |             0 |                0 |         2878163 |                     0 |       2636606 | 2017-02-05 15:28:29.905286+01

 2017-02-05 18:02:42.803975+01 | 1486314162.80398 |                 0 |              31 |                 61031 |                 2927 |            6889908 |             0 |                0 |         2878163 |                     0 |       2636912 | 2017-02-05 15:28:29.905286+01

 2017-02-05 18:02:43.888375+01 | 1486314163.88838 |                 0 |              31 |                 61031 |                 2927 |            6889908 |             0 |                0 |         2878163 |                     0 |       2637358 | 2017-02-05 15:28:29.905286+01

 2017-02-05 18:02:44.96668+01 | 1486314164.96668 |                 0 |              31 |                 61031 |                 2927 |            6889908 |             0 |                0 |         2878163 |                     0 |       2637976 | 2017-02-05 15:28:29.905286+01

 2017-02-05 18:02:46.050363+01 | 1486314166.05036 |                 0 |              31 |                 61031 |                 2927 |            6889908 |             0 |                0 |         2878163 |                     0 |       2638282 | 2017-02-05 15:28:29.905286+01

 2017-02-05 18:02:47.130393+01 | 1486314167.13039 |                 0 |              31 |                 61031 |                 2927 |            6889908 |             0 |                0 |         2878163 |                     0 |       2638282 | 2017-02-05 15:28:29.905286+01

 2017-02-05 18:02:48.21159+01 | 1486314168.21159 |                 0 |              31 |                 61031 |                 2927 |            6889908 |             0 |                0 |         2878163 |                     0 |       2638949 | 2017-02-05 15:28:29.905286+01

 2017-02-05 18:02:49.293726+01 | 1486314169.29373 |                 0 |              31 |                 61031 |                 2927 |            6889908 |             0 |                0 |         2878163 |                     0 |       2639409 | 2017-02-05 15:28:29.905286+01

 2017-02-05 18:02:50.373351+01 | 1486314170.37335 |                 0 |              31 |                 61031 |                 2927 |            6889908 |             0 |                0 |         2878163 |                     0 |       2639744 | 2017-02-05 15:28:29.905286+01

 2017-02-05 18:02:51.451946+01 | 1486314171.45195 |                 0 |              31 |                 61031 |                 2927 |            6889908 |             0 |                0 |         2878163 |                     0 |       2640175 | 2017-02-05 15:28:29.905286+01

 2017-02-05 18:02:52.530952+01 | 1486314172.53095 |                 0 |              31 |                 61031 |                 2927 |            6889908 |             0 |                0 |         2878163 |                     0 |       2640549 | 2017-02-05 15:28:29.905286+01

 2017-02-05 18:02:53.613295+01 | 1486314173.6133 |                 0 |              31 |                 61031 |                 2927 |            6889908 |             0 |                0 |         2878163 |                     0 |       2640975 | 2017-02-05 15:28:29.905286+01

 2017-02-05 18:02:54.700291+01 | 1486314174.70029 |                 0 |              31 |                 61031 |                 2927 |            6889908 |             0 |                0 |         2878163 |                     0 |       2641381 | 2017-02-05 15:28:29.905286+01

 2017-02-05 18:02:55.780062+01 | 1486314175.78006 |                 0 |              31 |                 61031 |                 2927 |            6889908 |             0 |                0 |         2878163 |                     0 |       2641893 | 2017-02-05 15:28:29.905286+01

 2017-02-05 18:02:56.862379+01 | 1486314176.86238 |                 0 |              31 |                 61031 |                 2927 |            6889908 |             0 |                0 |         2878163 |                     0 |       2642123 | 2017-02-05 15:28:29.905286+01

 2017-02-05 18:02:57.951835+01 | 1486314177.95183 |                 0 |              31 |                 61031 |                 2927 |            6889908 |             0 |                0 |         2878163 |                     0 |       2642608 | 2017-02-05 15:28:29.905286+01

 2017-02-05 18:02:59.029863+01 | 1486314179.02986 |                 0 |              31 |                 61031 |                 2927 |            6889908 |             0 |                0 |         2878163 |                     0 |       2642977 | 2017-02-05 15:28:29.905286+01

 2017-02-05 18:03:00.105666+01 | 1486314180.10567 |                 0 |              31 |                 61031 |                 2927 |            6889908 |             0 |                0 |         2878163 |                     0 |       2643349 | 2017-02-05 15:28:29.905286+01

 2017-02-05 18:03:01.187184+01 | 1486314181.18718 |                 0 |              31 |                 61031 |                 2927 |            6889908 |             0 |                0 |         2878163 |                     0 |       2643718 | 2017-02-05 15:28:29.905286+01

 2017-02-05 18:03:02.268025+01 | 1486314182.26802 |                 0 |              31 |                 61031 |                 2927 |            6889908 |             0 |                0 |         2878163 |                     0 |       2644082 | 2017-02-05 15:28:29.905286+01

 2017-02-05 18:03:03.35639+01 | 1486314183.35639 |                 0 |              31 |                 61031 |                 2927 |            6889908 |             0 |                0 |         2878163 |                     0 |       2644508 | 2017-02-05 15:28:29.905286+01

 2017-02-05 18:03:04.437392+01 | 1486314184.43739 |                 0 |              31 |                 61031 |                 2927 |            6889908 |             0 |                0 |         2878163 |                     0 |       2644943 | 2017-02-05 15:28:29.905286+01

 2017-02-05 18:03:05.517982+01 | 1486314185.51798 |                 0 |              31 |                 61031 |                 2927 |            6889908 |             0 |                0 |         2878163 |                     0 |       2645340 | 2017-02-05 15:28:29.905286+01

 2017-02-05 18:03:06.593762+01 | 1486314186.59376 |                 0 |              31 |                 61031 |                 2927 |            6889908 |             0 |                0 |         2878163 |                     0 |       2645765 | 2017-02-05 15:28:29.905286+01

 2017-02-05 18:03:07.671137+01 | 1486314187.67114 |                 0 |              31 |                 61031 |                 2927 |            6889908 |             0 |                0 |         2878163 |                     0 |       2646139 | 2017-02-05 15:28:29.905286+01

 2017-02-05 18:03:08.752778+01 | 1486314188.75278 |                 0 |              31 |                 61031 |                 2927 |            6889908 |             0 |                0 |         2878163 |                     0 |       2646691 | 2017-02-05 15:28:29.905286+01

 2017-02-05 18:03:09.832919+01 | 1486314189.83292 |                 0 |              31 |                 61031 |                 2927 |            6889908 |             0 |                0 |         2878163 |                     0 |       2646915 | 2017-02-05 15:28:29.905286+01

 2017-02-05 18:03:10.911917+01 | 1486314190.91192 |                 0 |              31 |                 61031 |                 2927 |            6889908 |             0 |                0 |         2878163 |                     0 |       2647409 | 2017-02-05 15:28:29.905286+01

 2017-02-05 18:03:11.992168+01 | 1486314191.99217 |                 0 |              31 |                 61031 |                 2927 |            6889908 |             0 |                0 |         2878163 |                     0 |       2647758 | 2017-02-05 15:28:29.905286+01

 2017-02-05 18:03:13.072223+01 | 1486314193.07222 |                 0 |              31 |                 61031 |                 2927 |            6889908 |             0 |                0 |         2878163 |                     0 |       2648224 | 2017-02-05 15:28:29.905286+01

 2017-02-05 18:03:14.154348+01 | 1486314194.15435 |                 0 |              31 |                 61031 |                 2927 |            6889908 |             0 |                0 |         2878163 |                     0 |       2648597 | 2017-02-05 15:28:29.905286+01

 2017-02-05 18:03:15.239269+01 | 1486314195.23927 |                 0 |              31 |                 61031 |                 2927 |            6889908 |             0 |                0 |         2878163 |                     0 |       2648849 | 2017-02-05 15:28:29.905286+01

 2017-02-05 18:03:16.327379+01 | 1486314196.32738 |                 0 |              31 |                 61031 |                 2927 |            6889908 |             0 |                0 |         2878163 |                     0 |       2649395 | 2017-02-05 15:28:29.905286+01

 2017-02-05 18:03:17.406552+01 | 1486314197.40655 |                 0 |              31 |                 61031 |                 2927 |            6889908 |             0 |                0 |         2878163 |                     0 |       2649638 | 2017-02-05 15:28:29.905286+01

 2017-02-05 18:03:18.488301+01 | 1486314198.4883 |                 0 |              31 |                 61031 |                 2927 |            6889908 |             0 |                0 |         2878163 |                     0 |       2650004 | 2017-02-05 15:28:29.905286+01

 2017-02-05 18:03:19.566506+01 | 1486314199.56651 |                 0 |              31 |                 61031 |                 2927 |            6889908 |             0 |                0 |         2878163 |                     0 |       2650310 | 2017-02-05 15:28:29.905286+01

 2017-02-05 18:03:20.645018+01 | 1486314200.64502 |                 0 |              31 |                 61031 |                 2927 |            6889908 |             0 |                0 |         2878163 |                     0 |       2650676 | 2017-02-05 15:28:29.905286+01

 2017-02-05 18:03:21.72557+01 | 1486314201.72557 |                 0 |              31 |                 61031 |                 2927 |            6889908 |             0 |                0 |         2878163 |                     0 |       2651085 | 2017-02-05 15:28:29.905286+01

 2017-02-05 18:03:22.801986+01 | 1486314202.80199 |                 0 |              31 |                 61031 |                 2927 |            6889908 |             0 |                0 |         2878163 |                     0 |       2651355 | 2017-02-05 15:28:29.905286+01

 2017-02-05 18:03:23.880877+01 | 1486314203.88088 |                 0 |              31 |                 61031 |                 2927 |            6889908 |             0 |                0 |         2878163 |                     0 |       2651894 | 2017-02-05 15:28:29.905286+01

 2017-02-05 18:03:24.948131+01 | 1486314204.94813 |                 0 |              31 |                 61031 |                 2927 |            6889908 |             0 |                0 |         2878163 |                     0 |       2651977 | 2017-02-05 15:28:29.905286+01

 2017-02-05 18:03:26.023932+01 | 1486314206.02393 |                 0 |              31 |                 61031 |                 2927 |            6889908 |             0 |                0 |         2878163 |                     0 |       2652326 | 2017-02-05 15:28:29.905286+01

 2017-02-05 18:03:27.110445+01 | 1486314207.11045 |                 0 |              31 |                 61031 |                 2927 |            6889908 |             0 |                0 |         2878163 |                     0 |       2652693 | 2017-02-05 15:28:29.905286+01

 2017-02-05 18:03:28.192579+01 | 1486314208.19258 |                 0 |              31 |                 61031 |                 2927 |            6889908 |             0 |                0 |         2878163 |                     0 |       2653039 | 2017-02-05 15:28:29.905286+01

 2017-02-05 18:03:29.267463+01 | 1486314209.26746 |                 0 |              31 |                 61031 |                 2927 |            6889908 |             0 |                0 |         2878163 |                     0 |       2653365 | 2017-02-05 15:28:29.905286+01

 2017-02-05 18:03:30.346713+01 | 1486314210.34671 |                 0 |              31 |                 61031 |                 2927 |            6889908 |             0 |                0 |         2878163 |                     0 |       2653754 | 2017-02-05 15:28:29.905286+01

 2017-02-05 18:03:31.424349+01 | 1486314211.42435 |                 0 |              31 |                 61031 |                 2927 |            6889908 |             0 |                0 |         2878163 |                     0 |       2654283 | 2017-02-05 15:28:29.905286+01

 2017-02-05 18:03:32.499509+01 | 1486314212.49951 |                 0 |              31 |                 61031 |                 2927 |            6889908 |             0 |                0 |         2878163 |                     0 |       2654449 | 2017-02-05 15:28:29.905286+01

 2017-02-05 18:03:33.579563+01 | 1486314213.57956 |                 0 |              31 |                 61031 |                 2927 |            6889908 |             0 |                0 |         2878163 |                     0 |       2654981 | 2017-02-05 15:28:29.905286+01

 2017-02-05 18:03:34.667153+01 | 1486314214.66715 |                 0 |              31 |                 61031 |                 2927 |            6889908 |             0 |                0 |         2878163 |                     0 |       2655207 | 2017-02-05 15:28:29.905286+01

 2017-02-05 18:03:35.745232+01 | 1486314215.74523 |                 0 |              31 |                 61031 |                 2927 |            6889908 |             0 |                0 |         2878163 |                     0 |       2655576 | 2017-02-05 15:28:29.905286+01

 2017-02-05 18:03:36.821558+01 | 1486314216.82156 |                 0 |              31 |                 61031 |                 2927 |            6889908 |             0 |                0 |         2878163 |                     0 |       2656006 | 2017-02-05 15:28:29.905286+01

 2017-02-05 18:03:37.902701+01 | 1486314217.9027 |                 0 |              31 |                 61031 |                 2927 |            6889908 |             0 |                0 |         2878163 |                     0 |       2656458 | 2017-02-05 15:28:29.905286+01

 2017-02-05 18:03:38.978209+01 | 1486314218.97821 |                 0 |              31 |                 61031 |                 2927 |            6889908 |             0 |                0 |         2878163 |                     0 |       2656812 | 2017-02-05 15:28:29.905286+01

 2017-02-05 18:03:40.064713+01 | 1486314220.06471 |                 0 |              31 |                 61031 |                 2927 |            6889908 |             0 |                0 |         2878163 |                     0 |       2657341 | 2017-02-05 15:28:29.905286+01

 2017-02-05 18:03:41.141827+01 | 1486314221.14183 |                 0 |              31 |                 61031 |                 2927 |            6889908 |             0 |                0 |         2878163 |                     0 |       2657584 | 2017-02-05 15:28:29.905286+01

 2017-02-05 18:03:42.230674+01 | 1486314222.23067 |                 0 |              31 |                 61031 |                 2927 |            6889908 |             0 |                0 |         2878163 |                     0 |       2658156 | 2017-02-05 15:28:29.905286+01

 2017-02-05 18:03:43.311668+01 | 1486314223.31167 |                 0 |              31 |                 61031 |                 2927 |            6889908 |             0 |                0 |         2878163 |                     0 |       2658565 | 2017-02-05 15:28:29.905286+01

 2017-02-05 18:03:44.399905+01 | 1486314224.3999 |                 0 |              31 |                 61031 |                 2927 |            6889908 |             0 |                0 |         2878163 |                     0 |       2658991 | 2017-02-05 15:28:29.905286+01

 2017-02-05 18:03:45.482138+01 | 1486314225.48214 |                 0 |              31 |                 61031 |                 2927 |            6889908 |             0 |                0 |         2878163 |                     0 |       2659420 | 2017-02-05 15:28:29.905286+01

 2017-02-05 18:03:46.565148+01 | 1486314226.56515 |                 0 |              31 |                 61031 |                 2927 |            6889908 |             0 |                0 |         2878163 |                     0 |       2659872 | 2017-02-05 15:28:29.905286+01

 2017-02-05 18:03:47.657721+01 | 1486314227.65772 |                 0 |              31 |                 61031 |                 2927 |            6889908 |             0 |                0 |         2878163 |                     0 |       2660119 | 2017-02-05 15:28:29.905286+01

 2017-02-05 18:03:48.740759+01 | 1486314228.74076 |                 0 |              31 |                 61031 |                 2927 |            6889908 |             0 |                0 |         2878163 |                     0 |       2660635 | 2017-02-05 15:28:29.905286+01

 2017-02-05 18:03:49.820439+01 | 1486314229.82044 |                 0 |              31 |                 61031 |                 2927 |            6889908 |             0 |                0 |         2878163 |                     0 |       2661150 | 2017-02-05 15:28:29.905286+01

 2017-02-05 18:03:50.899648+01 | 1486314230.89965 |                 0 |              31 |                 61031 |                 2927 |            6889908 |             0 |                0 |         2878163 |                     0 |       2661453 | 2017-02-05 15:28:29.905286+01

 2017-02-05 18:03:51.980724+01 | 1486314231.98072 |                 0 |              31 |                 61031 |                 2927 |            6889908 |             0 |                0 |         2878163 |                     0 |       2661842 | 2017-02-05 15:28:29.905286+01

 2017-02-05 18:03:53.055151+01 | 1486314233.05515 |                 0 |              31 |                 61031 |                 2927 |            6889908 |             0 |                0 |         2878163 |                     0 |       2662128 | 2017-02-05 15:28:29.905286+01

 2017-02-05 18:03:54.137723+01 | 1486314234.13772 |                 0 |              31 |                 61031 |                 2927 |            6889908 |             0 |                0 |         2878163 |                     0 |       2662872 | 2017-02-05 15:28:29.905286+01

 2017-02-05 18:03:55.223555+01 | 1486314235.22356 |                 0 |              31 |                 61031 |                 2927 |            6889908 |             0 |                0 |         2878163 |                     0 |       2662955 | 2017-02-05 15:28:29.905286+01

 2017-02-05 18:03:56.30335+01 | 1486314236.30335 |                 0 |              31 |                 61031 |                 2927 |            6889908 |             0 |                0 |         2878163 |                     0 |       2663408 | 2017-02-05 15:28:29.905286+01

 2017-02-05 18:03:57.388733+01 | 1486314237.38873 |                 0 |              31 |                 61031 |                 2927 |            6889908 |             0 |                0 |         2878163 |                     0 |       2663997 | 2017-02-05 15:28:29.905286+01

 2017-02-05 18:03:58.472596+01 | 1486314238.4726 |                 0 |              31 |                 61031 |                 2927 |            6889908 |             0 |                0 |         2878163 |                     0 |       2664203 | 2017-02-05 15:28:29.905286+01

 2017-02-05 18:03:59.557169+01 | 1486314239.55717 |                 0 |              31 |                 61031 |                 2927 |            6889908 |             0 |                0 |         2878163 |                     0 |       2664575 | 2017-02-05 15:28:29.905286+01

 2017-02-05 18:04:00.637131+01 | 1486314240.63713 |                 0 |              31 |                 61031 |                 2927 |            6889908 |             0 |                0 |         2878163 |                     0 |       2664987 | 2017-02-05 15:28:29.905286+01

 2017-02-05 18:04:01.717433+01 | 1486314241.71743 |                 0 |              31 |                 61031 |                 2927 |            6889908 |             0 |                0 |         2878163 |                     0 |       2665249 | 2017-02-05 15:28:29.905286+01

 2017-02-05 18:04:02.794689+01 | 1486314242.79469 |                 0 |              31 |                 61031 |                 2927 |            6889908 |             0 |                0 |         2878163 |                     0 |       2665841 | 2017-02-05 15:28:29.905286+01

 2017-02-05 18:04:03.876759+01 | 1486314243.87676 |                 0 |              31 |                 61031 |                 2927 |            6889908 |             0 |                0 |         2878163 |                     0 |       2666256 | 2017-02-05 15:28:29.905286+01

 2017-02-05 18:04:04.952525+01 | 1486314244.95252 |                 0 |              31 |                 61031 |                 2927 |            6889908 |             0 |                0 |         2878163 |                     0 |       2666685 | 2017-02-05 15:28:29.905286+01

 2017-02-05 18:04:06.022656+01 | 1486314246.02266 |                 0 |              31 |                 61031 |                 2927 |            6889908 |             0 |                0 |         2878163 |                     0 |       2666997 | 2017-02-05 15:28:29.905286+01

 2017-02-05 18:04:07.103921+01 | 1486314247.10392 |                 0 |              31 |                 61031 |                 2927 |            6889908 |             0 |                0 |         2878163 |                     0 |       2667447 | 2017-02-05 15:28:29.905286+01

 2017-02-05 18:04:08.180819+01 | 1486314248.18082 |                 0 |              31 |                 61031 |                 2927 |            6889908 |             0 |                0 |         2878163 |                     0 |       2667858 | 2017-02-05 15:28:29.905286+01

 2017-02-05 18:04:09.269035+01 | 1486314249.26904 |                 0 |              31 |                 61031 |                 2927 |            6889908 |             0 |                0 |         2878163 |                     0 |       2668321 | 2017-02-05 15:28:29.905286+01

 2017-02-05 18:04:10.350718+01 | 1486314250.35072 |                 0 |              31 |                 61031 |                 2927 |            6889908 |             0 |                0 |         2878163 |                     0 |       2668709 | 2017-02-05 15:28:29.905286+01

 2017-02-05 18:04:11.431036+01 | 1486314251.43104 |                 0 |              31 |                 61031 |                 2927 |            6889908 |             0 |                0 |         2878163 |                     0 |       2669103 | 2017-02-05 15:28:29.905286+01

 2017-02-05 18:04:12.508901+01 | 1486314252.5089 |                 0 |              31 |                 61031 |                 2927 |            6889908 |             0 |                0 |         2878163 |                     0 |       2669695 | 2017-02-05 15:28:29.905286+01

 2017-02-05 18:04:13.586291+01 | 1486314253.58629 |                 0 |              31 |                 61031 |                 2927 |            6889908 |             0 |                0 |         2878163 |                     0 |       2670021 | 2017-02-05 15:28:29.905286+01

 2017-02-05 18:04:14.670141+01 | 1486314254.67014 |                 0 |              31 |                 61031 |                 2927 |            6889908 |             0 |                0 |         2878163 |                     0 |       2670307 | 2017-02-05 15:28:29.905286+01

 2017-02-05 18:04:15.747685+01 | 1486314255.74768 |                 0 |              31 |                 61031 |                 2927 |            6889908 |             0 |                0 |         2878163 |                     0 |       2670779 | 2017-02-05 15:28:29.905286+01

 2017-02-05 18:04:16.823859+01 | 1486314256.82386 |                 0 |              31 |                 61031 |                 2927 |            6889908 |             0 |                0 |         2878163 |                     0 |       2671191 | 2017-02-05 15:28:29.905286+01

 2017-02-05 18:04:17.90215+01 | 1486314257.90215 |                 0 |              31 |                 61031 |                 2927 |            6889908 |             0 |                0 |         2878163 |                     0 |       2671797 | 2017-02-05 15:28:29.905286+01

 2017-02-05 18:04:18.979815+01 | 1486314258.97982 |                 0 |              31 |                 61031 |                 2927 |            6889908 |             0 |                0 |         2878163 |                     0 |       2672163 | 2017-02-05 15:28:29.905286+01

 2017-02-05 18:04:20.050775+01 | 1486314260.05078 |                 0 |              31 |                 61031 |                 2927 |            6889908 |             0 |                0 |         2878163 |                     0 |       2672327 | 2017-02-05 15:28:29.905286+01

 2017-02-05 18:04:21.135734+01 | 1486314261.13573 |                 0 |              31 |                 61031 |                 2927 |            6889908 |             0 |                0 |         2878163 |                     0 |       2672756 | 2017-02-05 15:28:29.905286+01

 2017-02-05 18:04:22.214831+01 | 1486314262.21483 |                 0 |              31 |                 61031 |                 2927 |            6889908 |             0 |                0 |         2878163 |                     0 |       2673526 | 2017-02-05 15:28:29.905286+01

 2017-02-05 18:04:23.290548+01 | 1486314263.29055 |                 0 |              31 |                 61031 |                 2927 |            6889908 |             0 |                0 |         2878163 |                     0 |       2673792 | 2017-02-05 15:28:29.905286+01

 2017-02-05 18:04:24.365936+01 | 1486314264.36594 |                 0 |              31 |                 61031 |                 2927 |            6889908 |             0 |                0 |         2878163 |                     0 |       2673955 | 2017-02-05 15:28:29.905286+01

 2017-02-05 18:04:25.454116+01 | 1486314265.45412 |                 0 |              31 |                 61031 |                 2927 |            6889908 |             0 |                0 |         2878163 |                     0 |       2674378 | 2017-02-05 15:28:29.905286+01

 2017-02-05 18:04:26.534002+01 | 1486314266.534 |                 0 |              31 |                 61031 |                 2927 |            6889908 |             0 |                0 |         2878163 |                     0 |       2674871 | 2017-02-05 15:28:29.905286+01

 2017-02-05 18:04:27.616279+01 | 1486314267.61628 |                 0 |              31 |                 61031 |                 2927 |            6889908 |             0 |                0 |         2878163 |                     0 |       2675098 | 2017-02-05 15:28:29.905286+01

 2017-02-05 18:04:28.701337+01 | 1486314268.70134 |                 0 |              31 |                 61031 |                 2927 |            6889908 |             0 |                0 |         2878163 |                     0 |       2675949 | 2017-02-05 15:28:29.905286+01

 2017-02-05 18:04:29.77812+01 | 1486314269.77812 |                 0 |              31 |                 61031 |                 2927 |            6889908 |             0 |                0 |         2878163 |                     0 |       2675951 | 2017-02-05 15:28:29.905286+01

 2017-02-05 18:04:30.854617+01 | 1486314270.85462 |                 0 |              31 |                 61031 |                 2927 |            6889908 |             0 |                0 |         2878163 |                     0 |       2676338 | 2017-02-05 15:28:29.905286+01

 2017-02-05 18:04:31.931745+01 | 1486314271.93175 |                 0 |              31 |                 61031 |                 2927 |            6889908 |             0 |                0 |         2878163 |                     0 |       2676745 | 2017-02-05 15:28:29.905286+01

 2017-02-05 18:04:33.012363+01 | 1486314273.01236 |                 0 |              31 |                 61031 |                 2927 |            6889908 |             0 |                0 |         2878163 |                     0 |       2677134 | 2017-02-05 15:28:29.905286+01

 2017-02-05 18:04:34.091277+01 | 1486314274.09128 |                 0 |              31 |                 61031 |                 2927 |            6889908 |             0 |                0 |         2878163 |                     0 |       2677609 | 2017-02-05 15:28:29.905286+01

 2017-02-05 18:04:35.179198+01 | 1486314275.1792 |                 0 |              31 |                 61031 |                 2927 |            6889908 |             0 |                0 |         2878163 |                     0 |       2677895 | 2017-02-05 15:28:29.905286+01

 2017-02-05 18:04:36.263267+01 | 1486314276.26327 |                 0 |              31 |                 61031 |                 2927 |            6889908 |             0 |                0 |         2878163 |                     0 |       2678461 | 2017-02-05 15:28:29.905286+01

 2017-02-05 18:04:37.349936+01 | 1486314277.34994 |                 0 |              31 |                 61031 |                 2927 |            6889908 |             0 |                0 |         2878163 |                     0 |       2678744 | 2017-02-05 15:28:29.905286+01

 2017-02-05 18:04:38.431429+01 | 1486314278.43143 |                 0 |              31 |                 61031 |                 2927 |            6889908 |             0 |                0 |         2878163 |                     0 |       2679253 | 2017-02-05 15:28:29.905286+01

 2017-02-05 18:04:39.506623+01 | 1486314279.50662 |                 0 |              31 |                 61031 |                 2927 |            6889908 |             0 |                0 |         2878163 |                     0 |       2679725 | 2017-02-05 15:28:29.905286+01

 2017-02-05 18:04:40.586547+01 | 1486314280.58655 |                 0 |              31 |                 61031 |                 2927 |            6889908 |             0 |                0 |         2878163 |                     0 |       2680034 | 2017-02-05 15:28:29.905286+01

 2017-02-05 18:04:41.672959+01 | 1486314281.67296 |                 0 |              31 |                 61031 |                 2927 |            6889908 |             0 |                0 |         2878163 |                     0 |       2680483 | 2017-02-05 15:28:29.905286+01

 2017-02-05 18:04:42.754964+01 | 1486314282.75496 |                 0 |              31 |                 61031 |                 2927 |            6889908 |             0 |                0 |         2878163 |                     0 |       2680852 | 2017-02-05 15:28:29.905286+01

 2017-02-05 18:04:43.830691+01 | 1486314283.83069 |                 0 |              31 |                 61031 |                 2927 |            6889908 |             0 |                0 |         2878163 |                     0 |       2681204 | 2017-02-05 15:28:29.905286+01

 2017-02-05 18:04:44.905911+01 | 1486314284.90591 |                 0 |              31 |                 61031 |                 2927 |            6889908 |             0 |                0 |         2878163 |                     0 |       2681852 | 2017-02-05 15:28:29.905286+01

 2017-02-05 18:04:45.980223+01 | 1486314285.98022 |                 0 |              31 |                 61031 |                 2927 |            6889908 |             0 |                0 |         2878163 |                     0 |       2682075 | 2017-02-05 15:28:29.905286+01

 2017-02-05 18:04:47.059874+01 | 1486314287.05987 |                 0 |              31 |                 61031 |                 2927 |            6889908 |             0 |                0 |         2878163 |                     0 |       2682342 | 2017-02-05 15:28:29.905286+01

 2017-02-05 18:04:48.13884+01 | 1486314288.13884 |                 0 |              31 |                 61031 |                 2927 |            6889908 |             0 |                0 |         2878163 |                     0 |       2683080 | 2017-02-05 15:28:29.905286+01

 2017-02-05 18:04:49.222745+01 | 1486314289.22274 |                 0 |              31 |                 61031 |                 2927 |            6889908 |             0 |                0 |         2878163 |                     0 |       2683372 | 2017-02-05 15:28:29.905286+01

 2017-02-05 18:04:50.298072+01 | 1486314290.29807 |                 0 |              31 |                 61031 |                 2927 |            6889908 |             0 |                0 |         2878163 |                     0 |       2683827 | 2017-02-05 15:28:29.905286+01

 2017-02-05 18:04:51.378173+01 | 1486314291.37817 |                 0 |              31 |                 61031 |                 2927 |            6889908 |             0 |                0 |         2878163 |                     0 |       2684113 | 2017-02-05 15:28:29.905286+01

 2017-02-05 18:04:52.462702+01 | 1486314292.4627 |                 0 |              31 |                 61031 |                 2927 |            6889908 |             0 |                0 |         2878163 |                     0 |       2684585 | 2017-02-05 15:28:29.905286+01

 2017-02-05 18:04:53.547381+01 | 1486314293.54738 |                 0 |              31 |                 61031 |                 2927 |            6889908 |             0 |                0 |         2878163 |                     0 |       2684995 | 2017-02-05 15:28:29.905286+01

 2017-02-05 18:04:54.627238+01 | 1486314294.62724 |                 0 |              31 |                 61031 |                 2927 |            6889908 |             0 |                0 |         2878163 |                     0 |       2685181 | 2017-02-05 15:28:29.905286+01

 2017-02-05 18:04:55.70767+01 | 1486314295.70767 |                 0 |              31 |                 61031 |                 2927 |            6889908 |             0 |                0 |         2878163 |                     0 |       2685650 | 2017-02-05 15:28:29.905286+01

 2017-02-05 18:04:56.794308+01 | 1486314296.79431 |                 0 |              31 |                 61031 |                 2927 |            6889908 |             0 |                0 |         2878163 |                     0 |       2686139 | 2017-02-05 15:28:29.905286+01

 2017-02-05 18:04:57.870839+01 | 1486314297.87084 |                 0 |              31 |                 61031 |                 2927 |            6889908 |             0 |                0 |         2878163 |                     0 |       2686139 | 2017-02-05 15:28:29.905286+01

 2017-02-05 18:04:58.952602+01 | 1486314298.9526 |                 0 |              31 |                 61031 |                 2927 |            6889908 |             0 |                0 |         2878163 |                     0 |       2686980 | 2017-02-05 15:28:29.905286+01

 2017-02-05 18:05:00.031389+01 | 1486314300.03139 |                 0 |              31 |                 61031 |                 2927 |            6889908 |             0 |                0 |         2878163 |                     0 |       2687369 | 2017-02-05 15:28:29.905286+01

 2017-02-05 18:05:01.110068+01 | 1486314301.11007 |                 0 |              31 |                 61031 |                 2927 |            6889908 |             0 |                0 |         2878163 |                     0 |       2687693 | 2017-02-05 15:28:29.905286+01

 2017-02-05 18:05:02.194367+01 | 1486314302.19437 |                 0 |              31 |                 61031 |                 2927 |            6889908 |             0 |                0 |         2878163 |                     0 |       2688361 | 2017-02-05 15:28:29.905286+01

 2017-02-05 18:05:03.276803+01 | 1486314303.2768 |                 0 |              31 |                 61031 |                 2927 |            6889908 |             0 |                0 |         2878163 |                     0 |       2688567 | 2017-02-05 15:28:29.905286+01

 2017-02-05 18:05:04.354767+01 | 1486314304.35477 |                 0 |              31 |                 61031 |                 2927 |            6889908 |             0 |                0 |         2878163 |                     0 |       2688996 | 2017-02-05 15:28:29.905286+01

 2017-02-05 18:05:05.438943+01 | 1486314305.43894 |                 0 |              31 |                 61031 |                 2927 |            6889908 |             0 |                0 |         2878163 |                     0 |       2689321 | 2017-02-05 15:28:29.905286+01

 2017-02-05 18:05:06.524958+01 | 1486314306.52496 |                 0 |              31 |                 61031 |                 2927 |            6889908 |             0 |                0 |         2878163 |                     0 |       2689777 | 2017-02-05 15:28:29.905286+01

 2017-02-05 18:05:07.600859+01 | 1486314307.60086 |                 0 |              31 |                 61031 |                 2927 |            6889908 |             0 |                0 |         2878163 |                     0 |       2690144 | 2017-02-05 15:28:29.905286+01

 2017-02-05 18:05:08.678326+01 | 1486314308.67833 |                 0 |              31 |                 61031 |                 2927 |            6889908 |             0 |                0 |         2878163 |                     0 |       2690567 | 2017-02-05 15:28:29.905286+01

 2017-02-05 18:05:09.758478+01 | 1486314309.75848 |                 0 |              31 |                 61031 |                 2927 |            6889908 |             0 |                0 |         2878163 |                     0 |       2691038 | 2017-02-05 15:28:29.905286+01

 2017-02-05 18:05:10.838688+01 | 1486314310.83869 |                 0 |              31 |                 61031 |                 2927 |            6889908 |             0 |                0 |         2878163 |                     0 |       2691610 | 2017-02-05 15:28:29.905286+01

 2017-02-05 18:05:11.924906+01 | 1486314311.92491 |                 0 |              31 |                 61031 |                 2927 |            6889908 |             0 |                0 |         2878163 |                     0 |       2691773 | 2017-02-05 15:28:29.905286+01

 2017-02-05 18:05:13.003522+01 | 1486314313.00352 |                 0 |              31 |                 61031 |                 2927 |            6889908 |             0 |                0 |         2878163 |                     0 |       2692388 | 2017-02-05 15:28:29.905286+01

