 2017-02-03 17:07:47.031997+01 | 1486138067.032 |                 0 |              12 |                   361 |                    1 |               2213 |             0 |                0 |          487828 |                     0 |        191842 | 2017-02-03 16:12:20.928298+01

 2017-02-03 17:07:48.117921+01 | 1486138068.11792 |                 0 |              12 |                   361 |                    1 |               2213 |             0 |                0 |          487828 |                     0 |        191842 | 2017-02-03 16:12:20.928298+01

 2017-02-03 17:07:49.210032+01 | 1486138069.21003 |                 0 |              12 |                   361 |                    1 |               2213 |             0 |                0 |          487828 |                     0 |        191842 | 2017-02-03 16:12:20.928298+01

 2017-02-03 17:07:50.299174+01 | 1486138070.29917 |                 0 |              12 |                   361 |                    1 |               2213 |             0 |                0 |          487828 |                     0 |        191842 | 2017-02-03 16:12:20.928298+01

 2017-02-03 17:07:51.390549+01 | 1486138071.39055 |                 0 |              12 |                   361 |                    1 |               2213 |             0 |                0 |          487828 |                     0 |        191842 | 2017-02-03 16:12:20.928298+01

 2017-02-03 17:07:52.500825+01 | 1486138072.50082 |                 0 |              12 |                   361 |                    1 |               2213 |             0 |                0 |          487828 |                     0 |        191842 | 2017-02-03 16:12:20.928298+01

 2017-02-03 17:07:53.602081+01 | 1486138073.60208 |                 0 |              12 |                   361 |                    1 |               2213 |             0 |                0 |          487828 |                     0 |        191842 | 2017-02-03 16:12:20.928298+01

 2017-02-03 17:07:54.699102+01 | 1486138074.6991 |                 0 |              12 |                   361 |                    1 |               2213 |             0 |                0 |          487828 |                     0 |        191842 | 2017-02-03 16:12:20.928298+01

 2017-02-03 17:07:55.784426+01 | 1486138075.78443 |                 0 |              12 |                   361 |                    1 |               2213 |             0 |                0 |          487828 |                     0 |        191842 | 2017-02-03 16:12:20.928298+01

 2017-02-03 17:07:56.883839+01 | 1486138076.88384 |                 0 |              12 |                   361 |                    1 |               2213 |             0 |                0 |          487828 |                     0 |        191842 | 2017-02-03 16:12:20.928298+01

 2017-02-03 17:07:57.972194+01 | 1486138077.97219 |                 0 |              12 |                   361 |                    1 |               2213 |             0 |                0 |          487828 |                     0 |        191842 | 2017-02-03 16:12:20.928298+01

 2017-02-03 17:07:59.054939+01 | 1486138079.05494 |                 0 |              12 |                   361 |                    1 |               2213 |             0 |                0 |          487828 |                     0 |        191842 | 2017-02-03 16:12:20.928298+01

 2017-02-03 17:08:00.138403+01 | 1486138080.1384 |                 0 |              12 |                   361 |                    1 |               2213 |             0 |                0 |          487828 |                     0 |        191842 | 2017-02-03 16:12:20.928298+01

 2017-02-03 17:08:01.22296+01 | 1486138081.22296 |                 0 |              12 |                   361 |                    1 |               2213 |             0 |                0 |          487828 |                     0 |        191842 | 2017-02-03 16:12:20.928298+01

 2017-02-03 17:08:02.319019+01 | 1486138082.31902 |                 0 |              12 |                   361 |                    1 |               2213 |             0 |                0 |          487828 |                     0 |        191842 | 2017-02-03 16:12:20.928298+01

 2017-02-03 17:08:03.407958+01 | 1486138083.40796 |                 0 |              12 |                   361 |                    1 |               2213 |             0 |                0 |          487828 |                     0 |        191842 | 2017-02-03 16:12:20.928298+01

 2017-02-03 17:08:04.499229+01 | 1486138084.49923 |                 0 |              12 |                   361 |                    1 |               2213 |             0 |                0 |          487828 |                     0 |        191842 | 2017-02-03 16:12:20.928298+01

 2017-02-03 17:08:05.602415+01 | 1486138085.60242 |                 0 |              12 |                   361 |                    1 |               2213 |             0 |                0 |          487828 |                     0 |        191842 | 2017-02-03 16:12:20.928298+01

 2017-02-03 17:08:06.705652+01 | 1486138086.70565 |                 0 |              12 |                   361 |                    1 |               2213 |             0 |                0 |          487828 |                     0 |        191842 | 2017-02-03 16:12:20.928298+01

 2017-02-03 17:08:07.792245+01 | 1486138087.79224 |                 0 |              12 |                   361 |                    1 |               2213 |             0 |                0 |          487828 |                     0 |        191842 | 2017-02-03 16:12:20.928298+01

 2017-02-03 17:08:08.888694+01 | 1486138088.88869 |                 0 |              12 |                   361 |                    1 |               2213 |             0 |                0 |          487828 |                     0 |        191842 | 2017-02-03 16:12:20.928298+01

 2017-02-03 17:08:09.976096+01 | 1486138089.9761 |                 0 |              12 |                   361 |                    1 |               2213 |             0 |                0 |          487828 |                     0 |        191842 | 2017-02-03 16:12:20.928298+01

 2017-02-03 17:08:11.057276+01 | 1486138091.05728 |                 0 |              12 |                   361 |                    1 |               2213 |             0 |                0 |          487828 |                     0 |        191842 | 2017-02-03 16:12:20.928298+01

 2017-02-03 17:08:12.140431+01 | 1486138092.14043 |                 0 |              12 |                   361 |                    1 |               2213 |             0 |                0 |          487828 |                     0 |        191842 | 2017-02-03 16:12:20.928298+01

 2017-02-03 17:08:13.228913+01 | 1486138093.22891 |                 0 |              12 |                   361 |                    1 |               2213 |             0 |                0 |          487828 |                     0 |        191842 | 2017-02-03 16:12:20.928298+01

 2017-02-03 17:08:14.316437+01 | 1486138094.31644 |                 0 |              12 |                   361 |                    1 |               2213 |             0 |                0 |          487828 |                     0 |        191842 | 2017-02-03 16:12:20.928298+01

 2017-02-03 17:08:15.402218+01 | 1486138095.40222 |                 0 |              12 |                   361 |                    1 |               2213 |             0 |                0 |          487828 |                     0 |        191842 | 2017-02-03 16:12:20.928298+01

 2017-02-03 17:08:16.503635+01 | 1486138096.50363 |                 0 |              12 |                   361 |                    1 |               2213 |             0 |                0 |          487828 |                     0 |        191842 | 2017-02-03 16:12:20.928298+01

 2017-02-03 17:08:17.59929+01 | 1486138097.59929 |                 0 |              12 |                   361 |                    1 |               2213 |             0 |                0 |          487828 |                     0 |        191842 | 2017-02-03 16:12:20.928298+01

 2017-02-03 17:08:18.691543+01 | 1486138098.69154 |                 0 |              12 |                   361 |                    1 |               2213 |             0 |                0 |          487828 |                     0 |        191842 | 2017-02-03 16:12:20.928298+01

 2017-02-03 17:08:19.785363+01 | 1486138099.78536 |                 0 |              12 |                   361 |                    1 |               2213 |             0 |                0 |          487828 |                     0 |        191842 | 2017-02-03 16:12:20.928298+01

 2017-02-03 17:08:20.885863+01 | 1486138100.88586 |                 0 |              12 |                   361 |                    1 |               2213 |             0 |                0 |          487828 |                     0 |        191842 | 2017-02-03 16:12:20.928298+01

 2017-02-03 17:08:21.98322+01 | 1486138101.98322 |                 0 |              12 |                   361 |                    1 |               2213 |             0 |                0 |          487828 |                     0 |        191842 | 2017-02-03 16:12:20.928298+01

 2017-02-03 17:08:23.065728+01 | 1486138103.06573 |                 0 |              12 |                   361 |                    1 |               2213 |             0 |                0 |          487828 |                     0 |        191842 | 2017-02-03 16:12:20.928298+01

 2017-02-03 17:08:24.147604+01 | 1486138104.1476 |                 0 |              12 |                   361 |                    1 |               2213 |             0 |                0 |          487828 |                     0 |        191842 | 2017-02-03 16:12:20.928298+01

 2017-02-03 17:08:25.24689+01 | 1486138105.24689 |                 0 |              12 |                   361 |                    1 |               2213 |             0 |                0 |          487828 |                     0 |        191842 | 2017-02-03 16:12:20.928298+01

 2017-02-03 17:08:26.336798+01 | 1486138106.3368 |                 0 |              12 |                   361 |                    1 |               2213 |             0 |                0 |          487828 |                     0 |        191842 | 2017-02-03 16:12:20.928298+01

 2017-02-03 17:08:27.431604+01 | 1486138107.4316 |                 0 |              12 |                   361 |                    1 |               2213 |             0 |                0 |          487828 |                     0 |        191842 | 2017-02-03 16:12:20.928298+01

 2017-02-03 17:08:28.526176+01 | 1486138108.52618 |                 0 |              12 |                   361 |                    1 |               2213 |             0 |                0 |          487828 |                     0 |        191842 | 2017-02-03 16:12:20.928298+01

 2017-02-03 17:08:29.623893+01 | 1486138109.62389 |                 0 |              12 |                   361 |                    1 |               2213 |             0 |                0 |          487828 |                     0 |        191842 | 2017-02-03 16:12:20.928298+01

 2017-02-03 17:08:30.725529+01 | 1486138110.72553 |                 0 |              12 |                   361 |                    1 |               2213 |             0 |                0 |          487828 |                     0 |        191842 | 2017-02-03 16:12:20.928298+01

 2017-02-03 17:08:31.819618+01 | 1486138111.81962 |                 0 |              12 |                   361 |                    1 |               2213 |             0 |                0 |          487828 |                     0 |        191842 | 2017-02-03 16:12:20.928298+01

 2017-02-03 17:08:32.924455+01 | 1486138112.92445 |                 0 |              12 |                   361 |                    1 |               2213 |             0 |                0 |          487828 |                     0 |        191842 | 2017-02-03 16:12:20.928298+01

 2017-02-03 17:08:34.01755+01 | 1486138114.01755 |                 0 |              12 |                   361 |                    1 |               2213 |             0 |                0 |          487828 |                     0 |        191842 | 2017-02-03 16:12:20.928298+01

 2017-02-03 17:08:35.098241+01 | 1486138115.09824 |                 0 |              12 |                   361 |                    1 |               2213 |             0 |                0 |          487828 |                     0 |        191842 | 2017-02-03 16:12:20.928298+01

 2017-02-03 17:08:36.196121+01 | 1486138116.19612 |                 0 |              12 |                   361 |                    1 |               2213 |             0 |                0 |          487828 |                     0 |        191842 | 2017-02-03 16:12:20.928298+01

 2017-02-03 17:08:37.27841+01 | 1486138117.27841 |                 0 |              12 |                   361 |                    1 |               2213 |             0 |                0 |          487828 |                     0 |        191842 | 2017-02-03 16:12:20.928298+01

 2017-02-03 17:08:38.360524+01 | 1486138118.36052 |                 0 |              12 |                   361 |                    1 |               2213 |             0 |                0 |          487828 |                     0 |        191842 | 2017-02-03 16:12:20.928298+01

 2017-02-03 17:08:39.461514+01 | 1486138119.46151 |                 0 |              12 |                   361 |                    1 |               2213 |             0 |                0 |          487828 |                     0 |        191842 | 2017-02-03 16:12:20.928298+01

 2017-02-03 17:08:40.550873+01 | 1486138120.55087 |                 0 |              12 |                   361 |                    1 |               2213 |             0 |                0 |          487828 |                     0 |        191842 | 2017-02-03 16:12:20.928298+01

 2017-02-03 17:08:41.642483+01 | 1486138121.64248 |                 0 |              12 |                   361 |                    1 |               2213 |             0 |                0 |          487828 |                     0 |        191842 | 2017-02-03 16:12:20.928298+01

 2017-02-03 17:08:42.740222+01 | 1486138122.74022 |                 0 |              12 |                   361 |                    1 |               2213 |             0 |                0 |          487828 |                     0 |        191842 | 2017-02-03 16:12:20.928298+01

 2017-02-03 17:08:43.848613+01 | 1486138123.84861 |                 0 |              12 |                   361 |                    1 |               2213 |             0 |                0 |          487828 |                     0 |        191842 | 2017-02-03 16:12:20.928298+01

 2017-02-03 17:08:44.973968+01 | 1486138124.97397 |                 0 |              12 |                   361 |                    1 |               2213 |             0 |                0 |          487828 |                     0 |        191842 | 2017-02-03 16:12:20.928298+01

 2017-02-03 17:08:46.056195+01 | 1486138126.0562 |                 0 |              12 |                   361 |                    1 |               2213 |             0 |                0 |          487828 |                     0 |        191842 | 2017-02-03 16:12:20.928298+01

 2017-02-03 17:08:47.145202+01 | 1486138127.1452 |                 0 |              12 |                   361 |                    1 |               2213 |             0 |                0 |          487828 |                     0 |        191842 | 2017-02-03 16:12:20.928298+01

 2017-02-03 17:08:48.234362+01 | 1486138128.23436 |                 0 |              12 |                   361 |                    1 |               2213 |             0 |                0 |          487828 |                     0 |        191842 | 2017-02-03 16:12:20.928298+01

 2017-02-03 17:08:49.328798+01 | 1486138129.3288 |                 0 |              12 |                   361 |                    1 |               2213 |             0 |                0 |          487828 |                     0 |        191842 | 2017-02-03 16:12:20.928298+01

 2017-02-03 17:08:50.418312+01 | 1486138130.41831 |                 0 |              12 |                   361 |                    1 |               2213 |             0 |                0 |          487828 |                     0 |        191842 | 2017-02-03 16:12:20.928298+01

 2017-02-03 17:08:51.512522+01 | 1486138131.51252 |                 0 |              12 |                   361 |                    1 |               2213 |             0 |                0 |          487828 |                     0 |        191842 | 2017-02-03 16:12:20.928298+01

 2017-02-03 17:08:52.59131+01 | 1486138132.59131 |                 0 |              12 |                   361 |                    1 |               2213 |             0 |                0 |          487828 |                     0 |        191842 | 2017-02-03 16:12:20.928298+01

 2017-02-03 17:08:53.677004+01 | 1486138133.677 |                 0 |              12 |                   361 |                    1 |               2213 |             0 |                0 |          487828 |                     0 |        191842 | 2017-02-03 16:12:20.928298+01

 2017-02-03 17:08:54.767717+01 | 1486138134.76772 |                 0 |              12 |                   361 |                    1 |               2213 |             0 |                0 |          487828 |                     0 |        191842 | 2017-02-03 16:12:20.928298+01

 2017-02-03 17:08:55.856334+01 | 1486138135.85633 |                 0 |              12 |                   361 |                    1 |               2213 |             0 |                0 |          487828 |                     0 |        191842 | 2017-02-03 16:12:20.928298+01

 2017-02-03 17:08:56.945917+01 | 1486138136.94592 |                 0 |              12 |                   361 |                    1 |               2213 |             0 |                0 |          487828 |                     0 |        191842 | 2017-02-03 16:12:20.928298+01

 2017-02-03 17:08:58.032644+01 | 1486138138.03264 |                 0 |              12 |                   361 |                    1 |               2213 |             0 |                0 |          487828 |                     0 |        191842 | 2017-02-03 16:12:20.928298+01

 2017-02-03 17:08:59.118359+01 | 1486138139.11836 |                 0 |              12 |                   361 |                    1 |               2213 |             0 |                0 |          487828 |                     0 |        191842 | 2017-02-03 16:12:20.928298+01

 2017-02-03 17:09:00.207154+01 | 1486138140.20715 |                 0 |              12 |                   361 |                    1 |               2213 |             0 |                0 |          487828 |                     0 |        191842 | 2017-02-03 16:12:20.928298+01

 2017-02-03 17:09:01.292593+01 | 1486138141.29259 |                 0 |              12 |                   361 |                    1 |               2213 |             0 |                0 |          487828 |                     0 |        191842 | 2017-02-03 16:12:20.928298+01

 2017-02-03 17:09:02.387525+01 | 1486138142.38753 |                 0 |              12 |                   361 |                    1 |               2213 |             0 |                0 |          487828 |                     0 |        191842 | 2017-02-03 16:12:20.928298+01

 2017-02-03 17:09:03.47638+01 | 1486138143.47638 |                 0 |              12 |                   361 |                    1 |               2213 |             0 |                0 |          487828 |                     0 |        191842 | 2017-02-03 16:12:20.928298+01

 2017-02-03 17:09:04.574139+01 | 1486138144.57414 |                 0 |              12 |                   361 |                    1 |               2213 |             0 |                0 |          487828 |                     0 |        191842 | 2017-02-03 16:12:20.928298+01

 2017-02-03 17:09:05.664483+01 | 1486138145.66448 |                 0 |              12 |                   361 |                    1 |               2213 |             0 |                0 |          487828 |                     0 |        191842 | 2017-02-03 16:12:20.928298+01

 2017-02-03 17:09:06.756476+01 | 1486138146.75648 |                 0 |              12 |                   361 |                    1 |               2213 |             0 |                0 |          487828 |                     0 |        191842 | 2017-02-03 16:12:20.928298+01

 2017-02-03 17:09:07.846705+01 | 1486138147.8467 |                 0 |              12 |                   361 |                    1 |               2213 |             0 |                0 |          487828 |                     0 |        191842 | 2017-02-03 16:12:20.928298+01

 2017-02-03 17:09:08.946185+01 | 1486138148.94619 |                 0 |              12 |                   361 |                    1 |               2213 |             0 |                0 |          487828 |                     0 |        191842 | 2017-02-03 16:12:20.928298+01

 2017-02-03 17:09:10.036539+01 | 1486138150.03654 |                 0 |              12 |                   361 |                    1 |               2213 |             0 |                0 |          487828 |                     0 |        191842 | 2017-02-03 16:12:20.928298+01

 2017-02-03 17:09:11.11856+01 | 1486138151.11856 |                 0 |              12 |                   361 |                    1 |               2213 |             0 |                0 |          487828 |                     0 |        191842 | 2017-02-03 16:12:20.928298+01

 2017-02-03 17:09:12.210201+01 | 1486138152.2102 |                 0 |              12 |                   361 |                    1 |               2213 |             0 |                0 |          487828 |                     0 |        191842 | 2017-02-03 16:12:20.928298+01

 2017-02-03 17:09:13.295743+01 | 1486138153.29574 |                 0 |              12 |                   361 |                    1 |               2213 |             0 |                0 |          487828 |                     0 |        191842 | 2017-02-03 16:12:20.928298+01

 2017-02-03 17:09:14.379778+01 | 1486138154.37978 |                 0 |              12 |                   361 |                    1 |               2213 |             0 |                0 |          487828 |                     0 |        191842 | 2017-02-03 16:12:20.928298+01

 2017-02-03 17:09:15.465287+01 | 1486138155.46529 |                 0 |              12 |                   361 |                    1 |               2213 |             0 |                0 |          487828 |                     0 |        191842 | 2017-02-03 16:12:20.928298+01

 2017-02-03 17:09:16.551542+01 | 1486138156.55154 |                 0 |              12 |                   361 |                    1 |               2213 |             0 |                0 |          487828 |                     0 |        191842 | 2017-02-03 16:12:20.928298+01

 2017-02-03 17:09:17.655028+01 | 1486138157.65503 |                 0 |              12 |                   361 |                    1 |               2213 |             0 |                0 |          487828 |                     0 |        191842 | 2017-02-03 16:12:20.928298+01

 2017-02-03 17:09:18.768476+01 | 1486138158.76848 |                 0 |              12 |                   361 |                    1 |               2213 |             0 |                0 |          487828 |                     0 |        191842 | 2017-02-03 16:12:20.928298+01

 2017-02-03 17:09:19.876864+01 | 1486138159.87686 |                 0 |              12 |                   361 |                    1 |               2213 |             0 |                0 |          487828 |                     0 |        191842 | 2017-02-03 16:12:20.928298+01

 2017-02-03 17:09:20.986289+01 | 1486138160.98629 |                 0 |              12 |                   361 |                    1 |               2213 |             0 |                0 |          487828 |                     0 |        191842 | 2017-02-03 16:12:20.928298+01

 2017-02-03 17:09:22.079968+01 | 1486138162.07997 |                 0 |              12 |                   361 |                    1 |               2213 |             0 |                0 |          487828 |                     0 |        191842 | 2017-02-03 16:12:20.928298+01

 2017-02-03 17:09:23.164159+01 | 1486138163.16416 |                 0 |              12 |                   361 |                    1 |               2213 |             0 |                0 |          487828 |                     0 |        191842 | 2017-02-03 16:12:20.928298+01

 2017-02-03 17:09:24.251324+01 | 1486138164.25132 |                 0 |              12 |                   361 |                    1 |               2213 |             0 |                0 |          487828 |                     0 |        191842 | 2017-02-03 16:12:20.928298+01

 2017-02-03 17:09:25.341721+01 | 1486138165.34172 |                 0 |              12 |                   361 |                    1 |               2213 |             0 |                0 |          487828 |                     0 |        191842 | 2017-02-03 16:12:20.928298+01

 2017-02-03 17:09:26.425354+01 | 1486138166.42535 |                 0 |              12 |                   361 |                    1 |               2213 |             0 |                0 |          487828 |                     0 |        191842 | 2017-02-03 16:12:20.928298+01

 2017-02-03 17:09:27.515392+01 | 1486138167.51539 |                 0 |              12 |                   361 |                    1 |               2213 |             0 |                0 |          487828 |                     0 |        191842 | 2017-02-03 16:12:20.928298+01

 2017-02-03 17:09:28.61323+01 | 1486138168.61323 |                 0 |              12 |                   361 |                    1 |               2213 |             0 |                0 |          487828 |                     0 |        191842 | 2017-02-03 16:12:20.928298+01

 2017-02-03 17:09:29.71371+01 | 1486138169.71371 |                 0 |              12 |                   361 |                    1 |               2213 |             0 |                0 |          487828 |                     0 |        191842 | 2017-02-03 16:12:20.928298+01

 2017-02-03 17:09:30.814912+01 | 1486138170.81491 |                 0 |              12 |                   361 |                    1 |               2213 |             0 |                0 |          487828 |                     0 |        191842 | 2017-02-03 16:12:20.928298+01

 2017-02-03 17:09:31.91487+01 | 1486138171.91487 |                 0 |              12 |                   361 |                    1 |               2213 |             0 |                0 |          487828 |                     0 |        191842 | 2017-02-03 16:12:20.928298+01

 2017-02-03 17:09:33.039141+01 | 1486138173.03914 |                 0 |              12 |                   361 |                    1 |               2213 |             0 |                0 |          487828 |                     0 |        191842 | 2017-02-03 16:12:20.928298+01

 2017-02-03 17:09:34.124913+01 | 1486138174.12491 |                 0 |              12 |                   361 |                    1 |               2213 |             0 |                0 |          487828 |                     0 |        191842 | 2017-02-03 16:12:20.928298+01

 2017-02-03 17:09:35.214627+01 | 1486138175.21463 |                 0 |              12 |                   361 |                    1 |               2213 |             0 |                0 |          487828 |                     0 |        191842 | 2017-02-03 16:12:20.928298+01

 2017-02-03 17:09:36.297291+01 | 1486138176.29729 |                 0 |              12 |                   361 |                    1 |               2213 |             0 |                0 |          487828 |                     0 |        191842 | 2017-02-03 16:12:20.928298+01

 2017-02-03 17:09:37.386006+01 | 1486138177.38601 |                 0 |              12 |                   361 |                    1 |               2213 |             0 |                0 |          487828 |                     0 |        191842 | 2017-02-03 16:12:20.928298+01

 2017-02-03 17:09:38.471352+01 | 1486138178.47135 |                 0 |              12 |                   361 |                    1 |               2213 |             0 |                0 |          487828 |                     0 |        191842 | 2017-02-03 16:12:20.928298+01

 2017-02-03 17:09:39.556488+01 | 1486138179.55649 |                 0 |              12 |                   361 |                    1 |               2213 |             0 |                0 |          487828 |                     0 |        191842 | 2017-02-03 16:12:20.928298+01

 2017-02-03 17:09:40.642694+01 | 1486138180.64269 |                 0 |              12 |                   361 |                    1 |               2213 |             0 |                0 |          487828 |                     0 |        191842 | 2017-02-03 16:12:20.928298+01

 2017-02-03 17:09:41.737374+01 | 1486138181.73737 |                 0 |              12 |                   361 |                    1 |               2213 |             0 |                0 |          487828 |                     0 |        191842 | 2017-02-03 16:12:20.928298+01

 2017-02-03 17:09:42.832969+01 | 1486138182.83297 |                 0 |              12 |                   361 |                    1 |               2213 |             0 |                0 |          487828 |                     0 |        191842 | 2017-02-03 16:12:20.928298+01

 2017-02-03 17:09:43.925141+01 | 1486138183.92514 |                 0 |              12 |                   361 |                    1 |               2213 |             0 |                0 |          487828 |                     0 |        191842 | 2017-02-03 16:12:20.928298+01

 2017-02-03 17:09:45.018907+01 | 1486138185.01891 |                 0 |              12 |                   361 |                    1 |               2213 |             0 |                0 |          487828 |                     0 |        191842 | 2017-02-03 16:12:20.928298+01

 2017-02-03 17:09:46.100281+01 | 1486138186.10028 |                 0 |              12 |                   361 |                    1 |               2213 |             0 |                0 |          487828 |                     0 |        191842 | 2017-02-03 16:12:20.928298+01

 2017-02-03 17:09:47.185108+01 | 1486138187.18511 |                 0 |              12 |                   361 |                    1 |               2213 |             0 |                0 |          487828 |                     0 |        191842 | 2017-02-03 16:12:20.928298+01

 2017-02-03 17:09:48.270388+01 | 1486138188.27039 |                 0 |              12 |                   361 |                    1 |               2213 |             0 |                0 |          487828 |                     0 |        191842 | 2017-02-03 16:12:20.928298+01

 2017-02-03 17:09:49.354511+01 | 1486138189.35451 |                 0 |              12 |                   361 |                    1 |               2213 |             0 |                0 |          487828 |                     0 |        191842 | 2017-02-03 16:12:20.928298+01

 2017-02-03 17:09:50.444151+01 | 1486138190.44415 |                 0 |              12 |                   361 |                    1 |               2213 |             0 |                0 |          487828 |                     0 |        191842 | 2017-02-03 16:12:20.928298+01

 2017-02-03 17:09:51.542418+01 | 1486138191.54242 |                 0 |              12 |                   361 |                    1 |               2213 |             0 |                0 |          487828 |                     0 |        191842 | 2017-02-03 16:12:20.928298+01

 2017-02-03 17:09:52.627598+01 | 1486138192.6276 |                 0 |              12 |                   361 |                    1 |               2213 |             0 |                0 |          487828 |                     0 |        191842 | 2017-02-03 16:12:20.928298+01

 2017-02-03 17:09:53.722724+01 | 1486138193.72272 |                 0 |              12 |                   361 |                    1 |               2213 |             0 |                0 |          487828 |                     0 |        191842 | 2017-02-03 16:12:20.928298+01

 2017-02-03 17:09:54.826142+01 | 1486138194.82614 |                 0 |              12 |                   361 |                    1 |               2213 |             0 |                0 |          487828 |                     0 |        191842 | 2017-02-03 16:12:20.928298+01

 2017-02-03 17:09:55.931974+01 | 1486138195.93197 |                 0 |              12 |                   361 |                    1 |               2213 |             0 |                0 |          487828 |                     0 |        191842 | 2017-02-03 16:12:20.928298+01

 2017-02-03 17:09:57.035917+01 | 1486138197.03592 |                 0 |              12 |                   361 |                    1 |               2213 |             0 |                0 |          487828 |                     0 |        191842 | 2017-02-03 16:12:20.928298+01

 2017-02-03 17:09:58.124771+01 | 1486138198.12477 |                 0 |              12 |                   361 |                    1 |               2213 |             0 |                0 |          487828 |                     0 |        191842 | 2017-02-03 16:12:20.928298+01

 2017-02-03 17:09:59.212144+01 | 1486138199.21214 |                 0 |              12 |                   361 |                    1 |               2213 |             0 |                0 |          487828 |                     0 |        191842 | 2017-02-03 16:12:20.928298+01

 2017-02-03 17:10:00.297577+01 | 1486138200.29758 |                 0 |              12 |                   361 |                    1 |               2213 |             0 |                0 |          487828 |                     0 |        191842 | 2017-02-03 16:12:20.928298+01

 2017-02-03 17:10:01.378422+01 | 1486138201.37842 |                 0 |              12 |                   361 |                    1 |               2213 |             0 |                0 |          487828 |                     0 |        191842 | 2017-02-03 16:12:20.928298+01

 2017-02-03 17:10:02.472237+01 | 1486138202.47224 |                 0 |              12 |                   361 |                    1 |               2213 |             0 |                0 |          487828 |                     0 |        191842 | 2017-02-03 16:12:20.928298+01

 2017-02-03 17:10:03.57017+01 | 1486138203.57017 |                 0 |              12 |                   361 |                    1 |               2213 |             0 |                0 |          487828 |                     0 |        191842 | 2017-02-03 16:12:20.928298+01

 2017-02-03 17:10:04.665554+01 | 1486138204.66555 |                 0 |              12 |                   361 |                    1 |               2213 |             0 |                0 |          487828 |                     0 |        191842 | 2017-02-03 16:12:20.928298+01

 2017-02-03 17:10:05.753894+01 | 1486138205.75389 |                 0 |              12 |                   361 |                    1 |               2213 |             0 |                0 |          487828 |                     0 |        191842 | 2017-02-03 16:12:20.928298+01

 2017-02-03 17:10:06.84517+01 | 1486138206.84517 |                 0 |              12 |                   361 |                    1 |               2213 |             0 |                0 |          487828 |                     0 |        191842 | 2017-02-03 16:12:20.928298+01

 2017-02-03 17:10:07.942224+01 | 1486138207.94222 |                 0 |              12 |                   361 |                    1 |               2213 |             0 |                0 |          487828 |                     0 |        191842 | 2017-02-03 16:12:20.928298+01

 2017-02-03 17:10:09.051391+01 | 1486138209.05139 |                 0 |              12 |                   361 |                    1 |               2213 |             0 |                0 |          487828 |                     0 |        191842 | 2017-02-03 16:12:20.928298+01

 2017-02-03 17:10:10.139615+01 | 1486138210.13962 |                 0 |              12 |                   361 |                    1 |               2213 |             0 |                0 |          487828 |                     0 |        191842 | 2017-02-03 16:12:20.928298+01

 2017-02-03 17:10:11.225795+01 | 1486138211.2258 |                 0 |              12 |                   361 |                    1 |               2213 |             0 |                0 |          487828 |                     0 |        191842 | 2017-02-03 16:12:20.928298+01

 2017-02-03 17:10:12.31305+01 | 1486138212.31305 |                 0 |              12 |                   361 |                    1 |               2213 |             0 |                0 |          487828 |                     0 |        191842 | 2017-02-03 16:12:20.928298+01

 2017-02-03 17:10:13.403455+01 | 1486138213.40346 |                 0 |              12 |                   361 |                    1 |               2213 |             0 |                0 |          487828 |                     0 |        191842 | 2017-02-03 16:12:20.928298+01

 2017-02-03 17:10:14.498691+01 | 1486138214.49869 |                 0 |              12 |                   361 |                    1 |               2213 |             0 |                0 |          487828 |                     0 |        191842 | 2017-02-03 16:12:20.928298+01

 2017-02-03 17:10:15.602527+01 | 1486138215.60253 |                 0 |              12 |                   361 |                    1 |               2213 |             0 |                0 |          487828 |                     0 |        191842 | 2017-02-03 16:12:20.928298+01

 2017-02-03 17:10:16.698089+01 | 1486138216.69809 |                 0 |              12 |                   361 |                    1 |               2213 |             0 |                0 |          487828 |                     0 |        191842 | 2017-02-03 16:12:20.928298+01

 2017-02-03 17:10:17.797346+01 | 1486138217.79735 |                 0 |              12 |                   361 |                    1 |               2213 |             0 |                0 |          487828 |                     0 |        191842 | 2017-02-03 16:12:20.928298+01

 2017-02-03 17:10:18.901012+01 | 1486138218.90101 |                 0 |              12 |                   361 |                    1 |               2213 |             0 |                0 |          487828 |                     0 |        191842 | 2017-02-03 16:12:20.928298+01

 2017-02-03 17:10:20.010829+01 | 1486138220.01083 |                 0 |              12 |                   361 |                    1 |               2213 |             0 |                0 |          487828 |                     0 |        191842 | 2017-02-03 16:12:20.928298+01

 2017-02-03 17:10:21.120692+01 | 1486138221.12069 |                 0 |              12 |                   361 |                    1 |               2213 |             0 |                0 |          487828 |                     0 |        191842 | 2017-02-03 16:12:20.928298+01

 2017-02-03 17:10:22.20766+01 | 1486138222.20766 |                 0 |              12 |                   361 |                    1 |               2213 |             0 |                0 |          487828 |                     0 |        191842 | 2017-02-03 16:12:20.928298+01

 2017-02-03 17:10:23.288655+01 | 1486138223.28866 |                 0 |              12 |                   361 |                    1 |               2213 |             0 |                0 |          487828 |                     0 |        191842 | 2017-02-03 16:12:20.928298+01

 2017-02-03 17:10:24.368512+01 | 1486138224.36851 |                 0 |              12 |                   361 |                    1 |               2213 |             0 |                0 |          487828 |                     0 |        191842 | 2017-02-03 16:12:20.928298+01

 2017-02-03 17:10:25.468421+01 | 1486138225.46842 |                 0 |              12 |                   361 |                    1 |               2213 |             0 |                0 |          487828 |                     0 |        191842 | 2017-02-03 16:12:20.928298+01

 2017-02-03 17:10:26.567377+01 | 1486138226.56738 |                 0 |              12 |                   361 |                    1 |               2213 |             0 |                0 |          487828 |                     0 |        191842 | 2017-02-03 16:12:20.928298+01

 2017-02-03 17:10:27.667452+01 | 1486138227.66745 |                 0 |              12 |                   361 |                    1 |               2213 |             0 |                0 |          487828 |                     0 |        191842 | 2017-02-03 16:12:20.928298+01

 2017-02-03 17:10:28.764048+01 | 1486138228.76405 |                 0 |              12 |                   361 |                    1 |               2213 |             0 |                0 |          487828 |                     0 |        191842 | 2017-02-03 16:12:20.928298+01

 2017-02-03 17:10:29.860982+01 | 1486138229.86098 |                 0 |              12 |                   361 |                    1 |               2213 |             0 |                0 |          487828 |                     0 |        191842 | 2017-02-03 16:12:20.928298+01

 2017-02-03 17:10:30.958705+01 | 1486138230.9587 |                 0 |              12 |                   361 |                    1 |               2213 |             0 |                0 |          487828 |                     0 |        191842 | 2017-02-03 16:12:20.928298+01

 2017-02-03 17:10:32.06042+01 | 1486138232.06042 |                 0 |              12 |                   361 |                    1 |               2213 |             0 |                0 |          487828 |                     0 |        191842 | 2017-02-03 16:12:20.928298+01

 2017-02-03 17:10:33.158949+01 | 1486138233.15895 |                 0 |              12 |                   361 |                    1 |               2213 |             0 |                0 |          487828 |                     0 |        191842 | 2017-02-03 16:12:20.928298+01

 2017-02-03 17:10:34.24665+01 | 1486138234.24665 |                 0 |              12 |                   361 |                    1 |               2213 |             0 |                0 |          487828 |                     0 |        191842 | 2017-02-03 16:12:20.928298+01

 2017-02-03 17:10:35.333934+01 | 1486138235.33393 |                 0 |              12 |                   361 |                    1 |               2213 |             0 |                0 |          487828 |                     0 |        191842 | 2017-02-03 16:12:20.928298+01

 2017-02-03 17:10:36.415394+01 | 1486138236.41539 |                 0 |              12 |                   361 |                    1 |               2213 |             0 |                0 |          487828 |                     0 |        191842 | 2017-02-03 16:12:20.928298+01

 2017-02-03 17:10:37.504795+01 | 1486138237.5048 |                 0 |              12 |                   361 |                    1 |               2213 |             0 |                0 |          487828 |                     0 |        191842 | 2017-02-03 16:12:20.928298+01

 2017-02-03 17:10:38.597312+01 | 1486138238.59731 |                 0 |              12 |                   361 |                    1 |               2213 |             0 |                0 |          487828 |                     0 |        191842 | 2017-02-03 16:12:20.928298+01

 2017-02-03 17:10:39.69132+01 | 1486138239.69132 |                 0 |              12 |                   361 |                    1 |               2213 |             0 |                0 |          487828 |                     0 |        191842 | 2017-02-03 16:12:20.928298+01

 2017-02-03 17:10:40.784623+01 | 1486138240.78462 |                 0 |              12 |                   361 |                    1 |               2213 |             0 |                0 |          487828 |                     0 |        191842 | 2017-02-03 16:12:20.928298+01

 2017-02-03 17:10:41.888668+01 | 1486138241.88867 |                 0 |              12 |                   361 |                    1 |               2213 |             0 |                0 |          487828 |                     0 |        191842 | 2017-02-03 16:12:20.928298+01

 2017-02-03 17:10:42.996174+01 | 1486138242.99617 |                 0 |              12 |                   361 |                    1 |               2213 |             0 |                0 |          487828 |                     0 |        191842 | 2017-02-03 16:12:20.928298+01

 2017-02-03 17:10:44.115093+01 | 1486138244.11509 |                 0 |              12 |                   361 |                    1 |               2213 |             0 |                0 |          487828 |                     0 |        191842 | 2017-02-03 16:12:20.928298+01

 2017-02-03 17:10:45.203483+01 | 1486138245.20348 |                 0 |              12 |                   361 |                    1 |               2213 |             0 |                0 |          487828 |                     0 |        191842 | 2017-02-03 16:12:20.928298+01

 2017-02-03 17:10:46.295231+01 | 1486138246.29523 |                 0 |              12 |                   361 |                    1 |               2213 |             0 |                0 |          487828 |                     0 |        191842 | 2017-02-03 16:12:20.928298+01

 2017-02-03 17:10:47.384653+01 | 1486138247.38465 |                 0 |              12 |                   361 |                    1 |               2213 |             0 |                0 |          487828 |                     0 |        191842 | 2017-02-03 16:12:20.928298+01

 2017-02-03 17:10:48.473846+01 | 1486138248.47385 |                 0 |              12 |                   361 |                    1 |               2213 |             0 |                0 |          487828 |                     0 |        191842 | 2017-02-03 16:12:20.928298+01

 2017-02-03 17:10:49.561242+01 | 1486138249.56124 |                 0 |              12 |                   361 |                    1 |               2213 |             0 |                0 |          487828 |                     0 |        191842 | 2017-02-03 16:12:20.928298+01

 2017-02-03 17:10:50.648246+01 | 1486138250.64825 |                 0 |              12 |                   361 |                    1 |               2213 |             0 |                0 |          487828 |                     0 |        191842 | 2017-02-03 16:12:20.928298+01

 2017-02-03 17:10:51.746014+01 | 1486138251.74601 |                 0 |              12 |                   361 |                    1 |               2213 |             0 |                0 |          487828 |                     0 |        191842 | 2017-02-03 16:12:20.928298+01

 2017-02-03 17:10:52.829408+01 | 1486138252.82941 |                 0 |              12 |                   361 |                    1 |               2213 |             0 |                0 |          487828 |                     0 |        191842 | 2017-02-03 16:12:20.928298+01

 2017-02-03 17:10:53.9302+01 | 1486138253.9302 |                 0 |              12 |                   361 |                    1 |               2213 |             0 |                0 |          487828 |                     0 |        191842 | 2017-02-03 16:12:20.928298+01

 2017-02-03 17:10:55.046636+01 | 1486138255.04664 |                 0 |              12 |                   361 |                    1 |               2213 |             0 |                0 |          487828 |                     0 |        191842 | 2017-02-03 16:12:20.928298+01

 2017-02-03 17:10:56.142369+01 | 1486138256.14237 |                 0 |              12 |                   361 |                    1 |               2213 |             0 |                0 |          487828 |                     0 |        191842 | 2017-02-03 16:12:20.928298+01

 2017-02-03 17:10:57.232397+01 | 1486138257.2324 |                 0 |              12 |                   361 |                    1 |               2213 |             0 |                0 |          487828 |                     0 |        191842 | 2017-02-03 16:12:20.928298+01

 2017-02-03 17:10:58.318349+01 | 1486138258.31835 |                 0 |              12 |                   361 |                    1 |               2213 |             0 |                0 |          487828 |                     0 |        191842 | 2017-02-03 16:12:20.928298+01

 2017-02-03 17:10:59.401059+01 | 1486138259.40106 |                 0 |              12 |                   361 |                    1 |               2213 |             0 |                0 |          487828 |                     0 |        191842 | 2017-02-03 16:12:20.928298+01

 2017-02-03 17:11:00.491684+01 | 1486138260.49168 |                 0 |              12 |                   361 |                    1 |               2213 |             0 |                0 |          487828 |                     0 |        191842 | 2017-02-03 16:12:20.928298+01

 2017-02-03 17:11:01.581028+01 | 1486138261.58103 |                 0 |              12 |                   361 |                    1 |               2213 |             0 |                0 |          487828 |                     0 |        191842 | 2017-02-03 16:12:20.928298+01

 2017-02-03 17:11:02.662162+01 | 1486138262.66216 |                 0 |              12 |                   361 |                    1 |               2213 |             0 |                0 |          487828 |                     0 |        191842 | 2017-02-03 16:12:20.928298+01

 2017-02-03 17:11:03.74604+01 | 1486138263.74604 |                 0 |              12 |                   361 |                    1 |               2213 |             0 |                0 |          487828 |                     0 |        191842 | 2017-02-03 16:12:20.928298+01

 2017-02-03 17:11:04.840107+01 | 1486138264.84011 |                 0 |              12 |                   361 |                    1 |               2213 |             0 |                0 |          487828 |                     0 |        191842 | 2017-02-03 16:12:20.928298+01

 2017-02-03 17:11:05.944891+01 | 1486138265.94489 |                 0 |              12 |                   361 |                    1 |               2213 |             0 |                0 |          487828 |                     0 |        191842 | 2017-02-03 16:12:20.928298+01

 2017-02-03 17:11:07.042531+01 | 1486138267.04253 |                 0 |              12 |                   361 |                    1 |               2213 |             0 |                0 |          487828 |                     0 |        191842 | 2017-02-03 16:12:20.928298+01

 2017-02-03 17:11:08.146792+01 | 1486138268.14679 |                 0 |              12 |                   361 |                    1 |               2213 |             0 |                0 |          487828 |                     0 |        191842 | 2017-02-03 16:12:20.928298+01

 2017-02-03 17:11:09.242651+01 | 1486138269.24265 |                 0 |              12 |                   361 |                    1 |               2213 |             0 |                0 |          487828 |                     0 |        191842 | 2017-02-03 16:12:20.928298+01

 2017-02-03 17:11:10.333866+01 | 1486138270.33387 |                 0 |              12 |                   361 |                    1 |               2213 |             0 |                0 |          487828 |                     0 |        191842 | 2017-02-03 16:12:20.928298+01

 2017-02-03 17:11:11.414779+01 | 1486138271.41478 |                 0 |              12 |                   361 |                    1 |               2213 |             0 |                0 |          487828 |                     0 |        191842 | 2017-02-03 16:12:20.928298+01

 2017-02-03 17:11:12.506808+01 | 1486138272.50681 |                 0 |              12 |                   361 |                    1 |               2213 |             0 |                0 |          487828 |                     0 |        191842 | 2017-02-03 16:12:20.928298+01

 2017-02-03 17:11:13.599031+01 | 1486138273.59903 |                 0 |              12 |                   361 |                    1 |               2213 |             0 |                0 |          487828 |                     0 |        191842 | 2017-02-03 16:12:20.928298+01

 2017-02-03 17:11:14.690496+01 | 1486138274.6905 |                 0 |              12 |                   361 |                    1 |               2213 |             0 |                0 |          487828 |                     0 |        191842 | 2017-02-03 16:12:20.928298+01

 2017-02-03 17:11:15.791583+01 | 1486138275.79158 |                 0 |              12 |                   361 |                    1 |               2213 |             0 |                0 |          487828 |                     0 |        191842 | 2017-02-03 16:12:20.928298+01

 2017-02-03 17:11:16.885884+01 | 1486138276.88588 |                 0 |              12 |                   361 |                    1 |               2213 |             0 |                0 |          487828 |                     0 |        191842 | 2017-02-03 16:12:20.928298+01

 2017-02-03 17:11:17.982227+01 | 1486138277.98223 |                 0 |              12 |                   361 |                    1 |               2213 |             0 |                0 |          487828 |                     0 |        191842 | 2017-02-03 16:12:20.928298+01

 2017-02-03 17:11:19.082669+01 | 1486138279.08267 |                 0 |              12 |                   361 |                    1 |               2213 |             0 |                0 |          487828 |                     0 |        191842 | 2017-02-03 16:12:20.928298+01

 2017-02-03 17:11:20.179137+01 | 1486138280.17914 |                 0 |              12 |                   361 |                    1 |               2213 |             0 |                0 |          487828 |                     0 |        191842 | 2017-02-03 16:12:20.928298+01

 2017-02-03 17:11:21.264775+01 | 1486138281.26478 |                 0 |              12 |                   361 |                    1 |               2213 |             0 |                0 |          487828 |                     0 |        191842 | 2017-02-03 16:12:20.928298+01

 2017-02-03 17:11:22.35411+01 | 1486138282.35411 |                 0 |              12 |                   361 |                    1 |               2213 |             0 |                0 |          487828 |                     0 |        191842 | 2017-02-03 16:12:20.928298+01

 2017-02-03 17:11:23.440675+01 | 1486138283.44068 |                 0 |              12 |                   361 |                    1 |               2213 |             0 |                0 |          487828 |                     0 |        191842 | 2017-02-03 16:12:20.928298+01

 2017-02-03 17:11:24.527161+01 | 1486138284.52716 |                 0 |              12 |                   361 |                    1 |               2213 |             0 |                0 |          487828 |                     0 |        191842 | 2017-02-03 16:12:20.928298+01

 2017-02-03 17:11:25.617933+01 | 1486138285.61793 |                 0 |              12 |                   361 |                    1 |               2213 |             0 |                0 |          487828 |                     0 |        191842 | 2017-02-03 16:12:20.928298+01

 2017-02-03 17:11:26.717243+01 | 1486138286.71724 |                 0 |              12 |                   361 |                    1 |               2213 |             0 |                0 |          487828 |                     0 |        191842 | 2017-02-03 16:12:20.928298+01

 2017-02-03 17:11:27.815467+01 | 1486138287.81547 |                 0 |              12 |                   361 |                    1 |               2213 |             0 |                0 |          487828 |                     0 |        191842 | 2017-02-03 16:12:20.928298+01

 2017-02-03 17:11:28.917476+01 | 1486138288.91748 |                 0 |              12 |                   361 |                    1 |               2213 |             0 |                0 |          487828 |                     0 |        191842 | 2017-02-03 16:12:20.928298+01

 2017-02-03 17:11:30.026701+01 | 1486138290.0267 |                 0 |              12 |                   361 |                    1 |               2213 |             0 |                0 |          487828 |                     0 |        191842 | 2017-02-03 16:12:20.928298+01

 2017-02-03 17:11:31.119527+01 | 1486138291.11953 |                 0 |              12 |                   361 |                    1 |               2213 |             0 |                0 |          487828 |                     0 |        191842 | 2017-02-03 16:12:20.928298+01

 2017-02-03 17:11:32.209098+01 | 1486138292.2091 |                 0 |              12 |                   361 |                    1 |               2213 |             0 |                0 |          487828 |                     0 |        191842 | 2017-02-03 16:12:20.928298+01

 2017-02-03 17:11:33.290586+01 | 1486138293.29059 |                 0 |              12 |                   361 |                    1 |               2213 |             0 |                0 |          487828 |                     0 |        191842 | 2017-02-03 16:12:20.928298+01

 2017-02-03 17:11:34.37428+01 | 1486138294.37428 |                 0 |              12 |                   361 |                    1 |               2213 |             0 |                0 |          487828 |                     0 |        191842 | 2017-02-03 16:12:20.928298+01

 2017-02-03 17:11:35.465267+01 | 1486138295.46527 |                 0 |              12 |                   361 |                    1 |               2213 |             0 |                0 |          487828 |                     0 |        191842 | 2017-02-03 16:12:20.928298+01

 2017-02-03 17:11:36.555823+01 | 1486138296.55582 |                 0 |              12 |                   361 |                    1 |               2213 |             0 |                0 |          487828 |                     0 |        191842 | 2017-02-03 16:12:20.928298+01

 2017-02-03 17:11:37.664261+01 | 1486138297.66426 |                 0 |              12 |                   361 |                    1 |               2213 |             0 |                0 |          487828 |                     0 |        191842 | 2017-02-03 16:12:20.928298+01

 2017-02-03 17:11:38.764181+01 | 1486138298.76418 |                 0 |              12 |                   361 |                    1 |               2213 |             0 |                0 |          487828 |                     0 |        191842 | 2017-02-03 16:12:20.928298+01

 2017-02-03 17:11:39.86403+01 | 1486138299.86403 |                 0 |              12 |                   361 |                    1 |               2213 |             0 |                0 |          487828 |                     0 |        191842 | 2017-02-03 16:12:20.928298+01

 2017-02-03 17:11:40.973743+01 | 1486138300.97374 |                 0 |              12 |                   361 |                    1 |               2213 |             0 |                0 |          487828 |                     0 |        191842 | 2017-02-03 16:12:20.928298+01

 2017-02-03 17:11:42.084253+01 | 1486138302.08425 |                 0 |              12 |                   361 |                    1 |               2213 |             0 |                0 |          487828 |                     0 |        191842 | 2017-02-03 16:12:20.928298+01

 2017-02-03 17:11:43.177641+01 | 1486138303.17764 |                 0 |              12 |                   361 |                    1 |               2213 |             0 |                0 |          487828 |                     0 |        191842 | 2017-02-03 16:12:20.928298+01

 2017-02-03 17:11:44.274178+01 | 1486138304.27418 |                 0 |              12 |                   361 |                    1 |               2213 |             0 |                0 |          487828 |                     0 |        191842 | 2017-02-03 16:12:20.928298+01

 2017-02-03 17:11:45.360196+01 | 1486138305.3602 |                 0 |              12 |                   361 |                    1 |               2213 |             0 |                0 |          487828 |                     0 |        191842 | 2017-02-03 16:12:20.928298+01

 2017-02-03 17:11:46.448657+01 | 1486138306.44866 |                 0 |              12 |                   361 |                    1 |               2213 |             0 |                0 |          487828 |                     0 |        191842 | 2017-02-03 16:12:20.928298+01

 2017-02-03 17:11:47.540445+01 | 1486138307.54045 |                 0 |              12 |                   361 |                    1 |               2213 |             0 |                0 |          487828 |                     0 |        191842 | 2017-02-03 16:12:20.928298+01

 2017-02-03 17:11:48.627825+01 | 1486138308.62783 |                 0 |              12 |                   361 |                    1 |               2213 |             0 |                0 |          487828 |                     0 |        191842 | 2017-02-03 16:12:20.928298+01

 2017-02-03 17:11:49.723034+01 | 1486138309.72303 |                 0 |              12 |                   361 |                    1 |               2213 |             0 |                0 |          487828 |                     0 |        191842 | 2017-02-03 16:12:20.928298+01

 2017-02-03 17:11:50.820689+01 | 1486138310.82069 |                 0 |              12 |                   361 |                    1 |               2213 |             0 |                0 |          487828 |                     0 |        191842 | 2017-02-03 16:12:20.928298+01

 2017-02-03 17:11:51.910681+01 | 1486138311.91068 |                 0 |              12 |                   361 |                    1 |               2213 |             0 |                0 |          487828 |                     0 |        191842 | 2017-02-03 16:12:20.928298+01

 2017-02-03 17:11:53.000689+01 | 1486138313.00069 |                 0 |              12 |                   361 |                    1 |               2213 |             0 |                0 |          487828 |                     0 |        191842 | 2017-02-03 16:12:20.928298+01

 2017-02-03 17:11:54.110621+01 | 1486138314.11062 |                 0 |              12 |                   361 |                    1 |               2213 |             0 |                0 |          487828 |                     0 |        191842 | 2017-02-03 16:12:20.928298+01

 2017-02-03 17:11:55.193949+01 | 1486138315.19395 |                 0 |              12 |                   361 |                    1 |               2213 |             0 |                0 |          487828 |                     0 |        191842 | 2017-02-03 16:12:20.928298+01

 2017-02-03 17:11:56.27858+01 | 1486138316.27858 |                 0 |              12 |                   361 |                    1 |               2213 |             0 |                0 |          487828 |                     0 |        191842 | 2017-02-03 16:12:20.928298+01

 2017-02-03 17:11:57.361557+01 | 1486138317.36156 |                 0 |              12 |                   361 |                    1 |               2213 |             0 |                0 |          487828 |                     0 |        191842 | 2017-02-03 16:12:20.928298+01

 2017-02-03 17:11:58.450333+01 | 1486138318.45033 |                 0 |              12 |                   361 |                    1 |               2213 |             0 |                0 |          487828 |                     0 |        191842 | 2017-02-03 16:12:20.928298+01

 2017-02-03 17:11:59.54228+01 | 1486138319.54228 |                 0 |              12 |                   361 |                    1 |               2213 |             0 |                0 |          487828 |                     0 |        191842 | 2017-02-03 16:12:20.928298+01

 2017-02-03 17:12:00.642913+01 | 1486138320.64291 |                 0 |              12 |                   361 |                    1 |               2213 |             0 |                0 |          487828 |                     0 |        191842 | 2017-02-03 16:12:20.928298+01

 2017-02-03 17:12:01.736674+01 | 1486138321.73667 |                 0 |              12 |                   361 |                    1 |               2213 |             0 |                0 |          487828 |                     0 |        191842 | 2017-02-03 16:12:20.928298+01

 2017-02-03 17:12:02.834436+01 | 1486138322.83444 |                 0 |              12 |                   361 |                    1 |               2213 |             0 |                0 |          487828 |                     0 |        191842 | 2017-02-03 16:12:20.928298+01

 2017-02-03 17:12:03.921521+01 | 1486138323.92152 |                 0 |              12 |                   361 |                    1 |               2213 |             0 |                0 |          487828 |                     0 |        191842 | 2017-02-03 16:12:20.928298+01

 2017-02-03 17:12:05.021378+01 | 1486138325.02138 |                 0 |              12 |                   361 |                    1 |               2213 |             0 |                0 |          487828 |                     0 |        191842 | 2017-02-03 16:12:20.928298+01

 2017-02-03 17:12:06.114642+01 | 1486138326.11464 |                 0 |              12 |                   361 |                    1 |               2213 |             0 |                0 |          487828 |                     0 |        191842 | 2017-02-03 16:12:20.928298+01

 2017-02-03 17:12:07.215065+01 | 1486138327.21507 |                 0 |              12 |                   361 |                    1 |               2213 |             0 |                0 |          487828 |                     0 |        191842 | 2017-02-03 16:12:20.928298+01

 2017-02-03 17:12:08.308817+01 | 1486138328.30882 |                 0 |              12 |                   361 |                    1 |               2213 |             0 |                0 |          487828 |                     0 |        191842 | 2017-02-03 16:12:20.928298+01

 2017-02-03 17:12:09.391276+01 | 1486138329.39128 |                 0 |              12 |                   361 |                    1 |               2213 |             0 |                0 |          487828 |                     0 |        191842 | 2017-02-03 16:12:20.928298+01

 2017-02-03 17:12:10.47876+01 | 1486138330.47876 |                 0 |              12 |                   361 |                    1 |               2213 |             0 |                0 |          487828 |                     0 |        191842 | 2017-02-03 16:12:20.928298+01

 2017-02-03 17:12:11.577953+01 | 1486138331.57795 |                 0 |              12 |                   361 |                    1 |               2213 |             0 |                0 |          487828 |                     0 |        191842 | 2017-02-03 16:12:20.928298+01

 2017-02-03 17:12:12.663327+01 | 1486138332.66333 |                 0 |              12 |                   361 |                    1 |               2213 |             0 |                0 |          487828 |                     0 |        191842 | 2017-02-03 16:12:20.928298+01

 2017-02-03 17:12:13.753182+01 | 1486138333.75318 |                 0 |              12 |                   361 |                    1 |               2213 |             0 |                0 |          487828 |                     0 |        191842 | 2017-02-03 16:12:20.928298+01

 2017-02-03 17:12:14.85667+01 | 1486138334.85667 |                 0 |              12 |                   361 |                    1 |               2213 |             0 |                0 |          487828 |                     0 |        191842 | 2017-02-03 16:12:20.928298+01

 2017-02-03 17:12:15.956599+01 | 1486138335.9566 |                 0 |              12 |                   361 |                    1 |               2213 |             0 |                0 |          487828 |                     0 |        191842 | 2017-02-03 16:12:20.928298+01

 2017-02-03 17:12:17.065497+01 | 1486138337.0655 |                 0 |              12 |                   361 |                    1 |               2213 |             0 |                0 |          487828 |                     0 |        191842 | 2017-02-03 16:12:20.928298+01

 2017-02-03 17:12:18.16533+01 | 1486138338.16533 |                 0 |              12 |                   361 |                    1 |               2213 |             0 |                0 |          487828 |                     0 |        191842 | 2017-02-03 16:12:20.928298+01

 2017-02-03 17:12:19.261635+01 | 1486138339.26164 |                 0 |              12 |                   361 |                    1 |               2213 |             0 |                0 |          487828 |                     0 |        191842 | 2017-02-03 16:12:20.928298+01

 2017-02-03 17:12:20.353046+01 | 1486138340.35305 |                 0 |              12 |                   361 |                    1 |               2213 |             0 |                0 |          487828 |                     0 |        191842 | 2017-02-03 16:12:20.928298+01

 2017-02-03 17:12:21.441552+01 | 1486138341.44155 |                 0 |              12 |                   361 |                    1 |               2213 |             0 |                0 |          487828 |                     0 |        191842 | 2017-02-03 16:12:20.928298+01

 2017-02-03 17:12:22.527466+01 | 1486138342.52747 |                 0 |              12 |                   361 |                    1 |               2213 |             0 |                0 |          487828 |                     0 |        191842 | 2017-02-03 16:12:20.928298+01

 2017-02-03 17:12:23.622242+01 | 1486138343.62224 |                 0 |              12 |                   361 |                    1 |               2213 |             0 |                0 |          487828 |                     0 |        191842 | 2017-02-03 16:12:20.928298+01

 2017-02-03 17:12:24.714438+01 | 1486138344.71444 |                 0 |              12 |                   361 |                    1 |               2213 |             0 |                0 |          487828 |                     0 |        191842 | 2017-02-03 16:12:20.928298+01

 2017-02-03 17:12:25.809112+01 | 1486138345.80911 |                 0 |              12 |                   361 |                    1 |               2213 |             0 |                0 |          487828 |                     0 |        191842 | 2017-02-03 16:12:20.928298+01

 2017-02-03 17:12:26.908799+01 | 1486138346.9088 |                 0 |              12 |                   361 |                    1 |               2213 |             0 |                0 |          487828 |                     0 |        191842 | 2017-02-03 16:12:20.928298+01

 2017-02-03 17:12:28.003298+01 | 1486138348.0033 |                 0 |              12 |                   361 |                    1 |               2213 |             0 |                0 |          487828 |                     0 |        191842 | 2017-02-03 16:12:20.928298+01

 2017-02-03 17:12:29.0985+01 | 1486138349.0985 |                 0 |              12 |                   361 |                    1 |               2213 |             0 |                0 |          487828 |                     0 |        191842 | 2017-02-03 16:12:20.928298+01

 2017-02-03 17:12:30.202343+01 | 1486138350.20234 |                 0 |              12 |                   361 |                    1 |               2213 |             0 |                0 |          487828 |                     0 |        191842 | 2017-02-03 16:12:20.928298+01

 2017-02-03 17:12:31.291928+01 | 1486138351.29193 |                 0 |              12 |                   361 |                    1 |               2213 |             0 |                0 |          487828 |                     0 |        191842 | 2017-02-03 16:12:20.928298+01

 2017-02-03 17:12:32.389484+01 | 1486138352.38948 |                 0 |              12 |                   361 |                    1 |               2213 |             0 |                0 |          487828 |                     0 |        191842 | 2017-02-03 16:12:20.928298+01

 2017-02-03 17:12:33.47732+01 | 1486138353.47732 |                 0 |              12 |                   361 |                    1 |               2213 |             0 |                0 |          487828 |                     0 |        191842 | 2017-02-03 16:12:20.928298+01

 2017-02-03 17:12:34.562535+01 | 1486138354.56254 |                 0 |              12 |                   361 |                    1 |               2213 |             0 |                0 |          487828 |                     0 |        191842 | 2017-02-03 16:12:20.928298+01

 2017-02-03 17:12:35.651271+01 | 1486138355.65127 |                 0 |              12 |                   361 |                    1 |               2213 |             0 |                0 |          487828 |                     0 |        191842 | 2017-02-03 16:12:20.928298+01

 2017-02-03 17:12:36.744785+01 | 1486138356.74479 |                 0 |              12 |                   361 |                    1 |               2213 |             0 |                0 |          487828 |                     0 |        191842 | 2017-02-03 16:12:20.928298+01

 2017-02-03 17:12:37.841568+01 | 1486138357.84157 |                 0 |              12 |                   361 |                    1 |               2213 |             0 |                0 |          487828 |                     0 |        191842 | 2017-02-03 16:12:20.928298+01

 2017-02-03 17:12:38.92406+01 | 1486138358.92406 |                 0 |              12 |                   361 |                    1 |               2213 |             0 |                0 |          487828 |                     0 |        191842 | 2017-02-03 16:12:20.928298+01

 2017-02-03 17:12:40.021907+01 | 1486138360.02191 |                 0 |              12 |                   361 |                    1 |               2213 |             0 |                0 |          487828 |                     0 |        191842 | 2017-02-03 16:12:20.928298+01

 2017-02-03 17:12:41.123497+01 | 1486138361.1235 |                 0 |              12 |                   361 |                    1 |               2213 |             0 |                0 |          487828 |                     0 |        191842 | 2017-02-03 16:12:20.928298+01

 2017-02-03 17:12:42.238637+01 | 1486138362.23864 |                 0 |              12 |                   361 |                    1 |               2213 |             0 |                0 |          487828 |                     0 |        191842 | 2017-02-03 16:12:20.928298+01

 2017-02-03 17:12:43.332764+01 | 1486138363.33276 |                 0 |              12 |                   361 |                    1 |               2213 |             0 |                0 |          487828 |                     0 |        191842 | 2017-02-03 16:12:20.928298+01

 2017-02-03 17:12:44.41993+01 | 1486138364.41993 |                 0 |              12 |                   361 |                    1 |               2213 |             0 |                0 |          487828 |                     0 |        191842 | 2017-02-03 16:12:20.928298+01

 2017-02-03 17:12:45.510148+01 | 1486138365.51015 |                 0 |              12 |                   361 |                    1 |               2213 |             0 |                0 |          487828 |                     0 |        191842 | 2017-02-03 16:12:20.928298+01

 2017-02-03 17:12:46.615296+01 | 1486138366.6153 |                 0 |              12 |                   361 |                    1 |               2213 |             0 |                0 |          487828 |                     0 |        191842 | 2017-02-03 16:12:20.928298+01

