 2017-02-05 15:01:55.567729+01 | 1486303315.56773 | pgbench_branches_pkey |            40960
 2017-02-05 15:01:55.567729+01 | 1486303315.56773 | pgbench_tellers_pkey  |           245760
 2017-02-05 15:01:55.567729+01 | 1486303315.56773 | pgbench_accounts_pkey |       2246197248

 2017-02-05 15:01:56.656465+01 | 1486303316.65647 | pgbench_branches_pkey |            40960
 2017-02-05 15:01:56.656465+01 | 1486303316.65647 | pgbench_tellers_pkey  |           245760
 2017-02-05 15:01:56.656465+01 | 1486303316.65647 | pgbench_accounts_pkey |       2246197248

 2017-02-05 15:01:57.73076+01 | 1486303317.73076 | pgbench_branches_pkey |            40960
 2017-02-05 15:01:57.73076+01 | 1486303317.73076 | pgbench_tellers_pkey  |           245760
 2017-02-05 15:01:57.73076+01 | 1486303317.73076 | pgbench_accounts_pkey |       2246197248

 2017-02-05 15:01:58.813893+01 | 1486303318.81389 | pgbench_branches_pkey |            40960
 2017-02-05 15:01:58.813893+01 | 1486303318.81389 | pgbench_tellers_pkey  |           245760
 2017-02-05 15:01:58.813893+01 | 1486303318.81389 | pgbench_accounts_pkey |       2246197248

 2017-02-05 15:01:59.893765+01 | 1486303319.89376 | pgbench_branches_pkey |            40960
 2017-02-05 15:01:59.893765+01 | 1486303319.89376 | pgbench_tellers_pkey  |           245760
 2017-02-05 15:01:59.893765+01 | 1486303319.89376 | pgbench_accounts_pkey |       2246197248

 2017-02-05 15:02:00.975128+01 | 1486303320.97513 | pgbench_branches_pkey |            40960
 2017-02-05 15:02:00.975128+01 | 1486303320.97513 | pgbench_tellers_pkey  |           245760
 2017-02-05 15:02:00.975128+01 | 1486303320.97513 | pgbench_accounts_pkey |       2246197248

 2017-02-05 15:02:02.054792+01 | 1486303322.05479 | pgbench_branches_pkey |            40960
 2017-02-05 15:02:02.054792+01 | 1486303322.05479 | pgbench_tellers_pkey  |           245760
 2017-02-05 15:02:02.054792+01 | 1486303322.05479 | pgbench_accounts_pkey |       2246197248

 2017-02-05 15:02:03.135234+01 | 1486303323.13523 | pgbench_branches_pkey |            40960
 2017-02-05 15:02:03.135234+01 | 1486303323.13523 | pgbench_tellers_pkey  |           245760
 2017-02-05 15:02:03.135234+01 | 1486303323.13523 | pgbench_accounts_pkey |       2246197248

 2017-02-05 15:02:04.211106+01 | 1486303324.21111 | pgbench_branches_pkey |            40960
 2017-02-05 15:02:04.211106+01 | 1486303324.21111 | pgbench_tellers_pkey  |           245760
 2017-02-05 15:02:04.211106+01 | 1486303324.21111 | pgbench_accounts_pkey |       2246197248

 2017-02-05 15:02:05.286509+01 | 1486303325.28651 | pgbench_branches_pkey |            40960
 2017-02-05 15:02:05.286509+01 | 1486303325.28651 | pgbench_tellers_pkey  |           245760
 2017-02-05 15:02:05.286509+01 | 1486303325.28651 | pgbench_accounts_pkey |       2246197248

 2017-02-05 15:02:06.360337+01 | 1486303326.36034 | pgbench_branches_pkey |            40960
 2017-02-05 15:02:06.360337+01 | 1486303326.36034 | pgbench_tellers_pkey  |           245760
 2017-02-05 15:02:06.360337+01 | 1486303326.36034 | pgbench_accounts_pkey |       2246197248

 2017-02-05 15:02:07.43874+01 | 1486303327.43874 | pgbench_branches_pkey |            40960
 2017-02-05 15:02:07.43874+01 | 1486303327.43874 | pgbench_tellers_pkey  |           245760
 2017-02-05 15:02:07.43874+01 | 1486303327.43874 | pgbench_accounts_pkey |       2246197248

 2017-02-05 15:02:08.517419+01 | 1486303328.51742 | pgbench_branches_pkey |            40960
 2017-02-05 15:02:08.517419+01 | 1486303328.51742 | pgbench_tellers_pkey  |           245760
 2017-02-05 15:02:08.517419+01 | 1486303328.51742 | pgbench_accounts_pkey |       2246197248

 2017-02-05 15:02:09.59275+01 | 1486303329.59275 | pgbench_branches_pkey |            40960
 2017-02-05 15:02:09.59275+01 | 1486303329.59275 | pgbench_tellers_pkey  |           245760
 2017-02-05 15:02:09.59275+01 | 1486303329.59275 | pgbench_accounts_pkey |       2246197248

 2017-02-05 15:02:10.667389+01 | 1486303330.66739 | pgbench_branches_pkey |            40960
 2017-02-05 15:02:10.667389+01 | 1486303330.66739 | pgbench_tellers_pkey  |           245760
 2017-02-05 15:02:10.667389+01 | 1486303330.66739 | pgbench_accounts_pkey |       2246197248

 2017-02-05 15:02:11.753391+01 | 1486303331.75339 | pgbench_branches_pkey |            40960
 2017-02-05 15:02:11.753391+01 | 1486303331.75339 | pgbench_tellers_pkey  |           245760
 2017-02-05 15:02:11.753391+01 | 1486303331.75339 | pgbench_accounts_pkey |       2246197248

 2017-02-05 15:02:12.831519+01 | 1486303332.83152 | pgbench_branches_pkey |            40960
 2017-02-05 15:02:12.831519+01 | 1486303332.83152 | pgbench_tellers_pkey  |           245760
 2017-02-05 15:02:12.831519+01 | 1486303332.83152 | pgbench_accounts_pkey |       2246197248

 2017-02-05 15:02:13.91362+01 | 1486303333.91362 | pgbench_branches_pkey |            40960
 2017-02-05 15:02:13.91362+01 | 1486303333.91362 | pgbench_tellers_pkey  |           245760
 2017-02-05 15:02:13.91362+01 | 1486303333.91362 | pgbench_accounts_pkey |       2246197248

 2017-02-05 15:02:14.99899+01 | 1486303334.99899 | pgbench_branches_pkey |            40960
 2017-02-05 15:02:14.99899+01 | 1486303334.99899 | pgbench_tellers_pkey  |           245760
 2017-02-05 15:02:14.99899+01 | 1486303334.99899 | pgbench_accounts_pkey |       2246197248

 2017-02-05 15:02:16.082584+01 | 1486303336.08258 | pgbench_branches_pkey |            40960
 2017-02-05 15:02:16.082584+01 | 1486303336.08258 | pgbench_tellers_pkey  |           245760
 2017-02-05 15:02:16.082584+01 | 1486303336.08258 | pgbench_accounts_pkey |       2246197248

 2017-02-05 15:02:17.159314+01 | 1486303337.15931 | pgbench_branches_pkey |            40960
 2017-02-05 15:02:17.159314+01 | 1486303337.15931 | pgbench_tellers_pkey  |           245760
 2017-02-05 15:02:17.159314+01 | 1486303337.15931 | pgbench_accounts_pkey |       2246197248

 2017-02-05 15:02:18.243458+01 | 1486303338.24346 | pgbench_branches_pkey |            40960
 2017-02-05 15:02:18.243458+01 | 1486303338.24346 | pgbench_tellers_pkey  |           245760
 2017-02-05 15:02:18.243458+01 | 1486303338.24346 | pgbench_accounts_pkey |       2246197248

 2017-02-05 15:02:19.323483+01 | 1486303339.32348 | pgbench_branches_pkey |            40960
 2017-02-05 15:02:19.323483+01 | 1486303339.32348 | pgbench_tellers_pkey  |           245760
 2017-02-05 15:02:19.323483+01 | 1486303339.32348 | pgbench_accounts_pkey |       2246197248

 2017-02-05 15:02:20.40197+01 | 1486303340.40197 | pgbench_branches_pkey |            40960
 2017-02-05 15:02:20.40197+01 | 1486303340.40197 | pgbench_tellers_pkey  |           245760
 2017-02-05 15:02:20.40197+01 | 1486303340.40197 | pgbench_accounts_pkey |       2246197248

 2017-02-05 15:02:21.47908+01 | 1486303341.47908 | pgbench_branches_pkey |            40960
 2017-02-05 15:02:21.47908+01 | 1486303341.47908 | pgbench_tellers_pkey  |           245760
 2017-02-05 15:02:21.47908+01 | 1486303341.47908 | pgbench_accounts_pkey |       2246197248

 2017-02-05 15:02:22.556096+01 | 1486303342.5561 | pgbench_branches_pkey |            40960
 2017-02-05 15:02:22.556096+01 | 1486303342.5561 | pgbench_tellers_pkey  |           245760
 2017-02-05 15:02:22.556096+01 | 1486303342.5561 | pgbench_accounts_pkey |       2246197248

 2017-02-05 15:02:23.635461+01 | 1486303343.63546 | pgbench_branches_pkey |            40960
 2017-02-05 15:02:23.635461+01 | 1486303343.63546 | pgbench_tellers_pkey  |           245760
 2017-02-05 15:02:23.635461+01 | 1486303343.63546 | pgbench_accounts_pkey |       2246197248

 2017-02-05 15:02:24.717117+01 | 1486303344.71712 | pgbench_branches_pkey |            40960
 2017-02-05 15:02:24.717117+01 | 1486303344.71712 | pgbench_tellers_pkey  |           245760
 2017-02-05 15:02:24.717117+01 | 1486303344.71712 | pgbench_accounts_pkey |       2246197248

 2017-02-05 15:02:25.803077+01 | 1486303345.80308 | pgbench_branches_pkey |            40960
 2017-02-05 15:02:25.803077+01 | 1486303345.80308 | pgbench_tellers_pkey  |           245760
 2017-02-05 15:02:25.803077+01 | 1486303345.80308 | pgbench_accounts_pkey |       2246197248

 2017-02-05 15:02:26.883222+01 | 1486303346.88322 | pgbench_branches_pkey |            40960
 2017-02-05 15:02:26.883222+01 | 1486303346.88322 | pgbench_tellers_pkey  |           245760
 2017-02-05 15:02:26.883222+01 | 1486303346.88322 | pgbench_accounts_pkey |       2246197248

 2017-02-05 15:02:27.961949+01 | 1486303347.96195 | pgbench_branches_pkey |            40960
 2017-02-05 15:02:27.961949+01 | 1486303347.96195 | pgbench_tellers_pkey  |           245760
 2017-02-05 15:02:27.961949+01 | 1486303347.96195 | pgbench_accounts_pkey |       2246197248

 2017-02-05 15:02:29.041549+01 | 1486303349.04155 | pgbench_branches_pkey |            40960
 2017-02-05 15:02:29.041549+01 | 1486303349.04155 | pgbench_tellers_pkey  |           245760
 2017-02-05 15:02:29.041549+01 | 1486303349.04155 | pgbench_accounts_pkey |       2246197248

 2017-02-05 15:02:30.125076+01 | 1486303350.12508 | pgbench_branches_pkey |            40960
 2017-02-05 15:02:30.125076+01 | 1486303350.12508 | pgbench_tellers_pkey  |           245760
 2017-02-05 15:02:30.125076+01 | 1486303350.12508 | pgbench_accounts_pkey |       2246197248

 2017-02-05 15:02:31.204882+01 | 1486303351.20488 | pgbench_branches_pkey |            40960
 2017-02-05 15:02:31.204882+01 | 1486303351.20488 | pgbench_tellers_pkey  |           245760
 2017-02-05 15:02:31.204882+01 | 1486303351.20488 | pgbench_accounts_pkey |       2246197248

 2017-02-05 15:02:32.290414+01 | 1486303352.29041 | pgbench_branches_pkey |            40960
 2017-02-05 15:02:32.290414+01 | 1486303352.29041 | pgbench_tellers_pkey  |           245760
 2017-02-05 15:02:32.290414+01 | 1486303352.29041 | pgbench_accounts_pkey |       2246197248

 2017-02-05 15:02:33.358773+01 | 1486303353.35877 | pgbench_branches_pkey |            40960
 2017-02-05 15:02:33.358773+01 | 1486303353.35877 | pgbench_tellers_pkey  |           245760
 2017-02-05 15:02:33.358773+01 | 1486303353.35877 | pgbench_accounts_pkey |       2246197248

 2017-02-05 15:02:34.443459+01 | 1486303354.44346 | pgbench_branches_pkey |            40960
 2017-02-05 15:02:34.443459+01 | 1486303354.44346 | pgbench_tellers_pkey  |           245760
 2017-02-05 15:02:34.443459+01 | 1486303354.44346 | pgbench_accounts_pkey |       2246197248

 2017-02-05 15:02:35.52554+01 | 1486303355.52554 | pgbench_branches_pkey |            40960
 2017-02-05 15:02:35.52554+01 | 1486303355.52554 | pgbench_tellers_pkey  |           245760
 2017-02-05 15:02:35.52554+01 | 1486303355.52554 | pgbench_accounts_pkey |       2246197248

 2017-02-05 15:02:36.602878+01 | 1486303356.60288 | pgbench_branches_pkey |            40960
 2017-02-05 15:02:36.602878+01 | 1486303356.60288 | pgbench_tellers_pkey  |           245760
 2017-02-05 15:02:36.602878+01 | 1486303356.60288 | pgbench_accounts_pkey |       2246197248

 2017-02-05 15:02:37.680232+01 | 1486303357.68023 | pgbench_branches_pkey |            40960
 2017-02-05 15:02:37.680232+01 | 1486303357.68023 | pgbench_tellers_pkey  |           245760
 2017-02-05 15:02:37.680232+01 | 1486303357.68023 | pgbench_accounts_pkey |       2246197248

 2017-02-05 15:02:38.758156+01 | 1486303358.75816 | pgbench_branches_pkey |            40960
 2017-02-05 15:02:38.758156+01 | 1486303358.75816 | pgbench_tellers_pkey  |           245760
 2017-02-05 15:02:38.758156+01 | 1486303358.75816 | pgbench_accounts_pkey |       2246197248

 2017-02-05 15:02:39.833483+01 | 1486303359.83348 | pgbench_branches_pkey |            40960
 2017-02-05 15:02:39.833483+01 | 1486303359.83348 | pgbench_tellers_pkey  |           245760
 2017-02-05 15:02:39.833483+01 | 1486303359.83348 | pgbench_accounts_pkey |       2246197248

 2017-02-05 15:02:40.908794+01 | 1486303360.90879 | pgbench_branches_pkey |            40960
 2017-02-05 15:02:40.908794+01 | 1486303360.90879 | pgbench_tellers_pkey  |           245760
 2017-02-05 15:02:40.908794+01 | 1486303360.90879 | pgbench_accounts_pkey |       2246197248

 2017-02-05 15:02:41.991001+01 | 1486303361.991 | pgbench_branches_pkey |            40960
 2017-02-05 15:02:41.991001+01 | 1486303361.991 | pgbench_tellers_pkey  |           245760
 2017-02-05 15:02:41.991001+01 | 1486303361.991 | pgbench_accounts_pkey |       2246197248

 2017-02-05 15:02:43.066916+01 | 1486303363.06692 | pgbench_branches_pkey |            40960
 2017-02-05 15:02:43.066916+01 | 1486303363.06692 | pgbench_tellers_pkey  |           245760
 2017-02-05 15:02:43.066916+01 | 1486303363.06692 | pgbench_accounts_pkey |       2246197248

 2017-02-05 15:02:44.153096+01 | 1486303364.1531 | pgbench_branches_pkey |            40960
 2017-02-05 15:02:44.153096+01 | 1486303364.1531 | pgbench_tellers_pkey  |           245760
 2017-02-05 15:02:44.153096+01 | 1486303364.1531 | pgbench_accounts_pkey |       2246197248

 2017-02-05 15:02:45.236631+01 | 1486303365.23663 | pgbench_branches_pkey |            40960
 2017-02-05 15:02:45.236631+01 | 1486303365.23663 | pgbench_tellers_pkey  |           245760
 2017-02-05 15:02:45.236631+01 | 1486303365.23663 | pgbench_accounts_pkey |       2246197248

 2017-02-05 15:02:46.311347+01 | 1486303366.31135 | pgbench_branches_pkey |            40960
 2017-02-05 15:02:46.311347+01 | 1486303366.31135 | pgbench_tellers_pkey  |           245760
 2017-02-05 15:02:46.311347+01 | 1486303366.31135 | pgbench_accounts_pkey |       2246197248

 2017-02-05 15:02:47.397266+01 | 1486303367.39727 | pgbench_branches_pkey |            40960
 2017-02-05 15:02:47.397266+01 | 1486303367.39727 | pgbench_tellers_pkey  |           245760
 2017-02-05 15:02:47.397266+01 | 1486303367.39727 | pgbench_accounts_pkey |       2246197248

 2017-02-05 15:02:48.480977+01 | 1486303368.48098 | pgbench_branches_pkey |            40960
 2017-02-05 15:02:48.480977+01 | 1486303368.48098 | pgbench_tellers_pkey  |           245760
 2017-02-05 15:02:48.480977+01 | 1486303368.48098 | pgbench_accounts_pkey |       2246197248

 2017-02-05 15:02:49.567135+01 | 1486303369.56714 | pgbench_branches_pkey |            40960
 2017-02-05 15:02:49.567135+01 | 1486303369.56714 | pgbench_tellers_pkey  |           245760
 2017-02-05 15:02:49.567135+01 | 1486303369.56714 | pgbench_accounts_pkey |       2246197248

 2017-02-05 15:02:50.643816+01 | 1486303370.64382 | pgbench_branches_pkey |            40960
 2017-02-05 15:02:50.643816+01 | 1486303370.64382 | pgbench_tellers_pkey  |           245760
 2017-02-05 15:02:50.643816+01 | 1486303370.64382 | pgbench_accounts_pkey |       2246197248

 2017-02-05 15:02:51.726296+01 | 1486303371.7263 | pgbench_branches_pkey |            40960
 2017-02-05 15:02:51.726296+01 | 1486303371.7263 | pgbench_tellers_pkey  |           245760
 2017-02-05 15:02:51.726296+01 | 1486303371.7263 | pgbench_accounts_pkey |       2246197248

 2017-02-05 15:02:52.811872+01 | 1486303372.81187 | pgbench_branches_pkey |            40960
 2017-02-05 15:02:52.811872+01 | 1486303372.81187 | pgbench_tellers_pkey  |           245760
 2017-02-05 15:02:52.811872+01 | 1486303372.81187 | pgbench_accounts_pkey |       2246197248

 2017-02-05 15:02:53.890171+01 | 1486303373.89017 | pgbench_branches_pkey |            40960
 2017-02-05 15:02:53.890171+01 | 1486303373.89017 | pgbench_tellers_pkey  |           245760
 2017-02-05 15:02:53.890171+01 | 1486303373.89017 | pgbench_accounts_pkey |       2246197248

 2017-02-05 15:02:54.972092+01 | 1486303374.97209 | pgbench_branches_pkey |            40960
 2017-02-05 15:02:54.972092+01 | 1486303374.97209 | pgbench_tellers_pkey  |           245760
 2017-02-05 15:02:54.972092+01 | 1486303374.97209 | pgbench_accounts_pkey |       2246197248

 2017-02-05 15:02:56.047454+01 | 1486303376.04745 | pgbench_branches_pkey |            40960
 2017-02-05 15:02:56.047454+01 | 1486303376.04745 | pgbench_tellers_pkey  |           245760
 2017-02-05 15:02:56.047454+01 | 1486303376.04745 | pgbench_accounts_pkey |       2246197248

 2017-02-05 15:02:57.127851+01 | 1486303377.12785 | pgbench_branches_pkey |            40960
 2017-02-05 15:02:57.127851+01 | 1486303377.12785 | pgbench_tellers_pkey  |           245760
 2017-02-05 15:02:57.127851+01 | 1486303377.12785 | pgbench_accounts_pkey |       2246197248

 2017-02-05 15:02:58.207081+01 | 1486303378.20708 | pgbench_branches_pkey |            40960
 2017-02-05 15:02:58.207081+01 | 1486303378.20708 | pgbench_tellers_pkey  |           245760
 2017-02-05 15:02:58.207081+01 | 1486303378.20708 | pgbench_accounts_pkey |       2246197248

 2017-02-05 15:02:59.284393+01 | 1486303379.28439 | pgbench_branches_pkey |            40960
 2017-02-05 15:02:59.284393+01 | 1486303379.28439 | pgbench_tellers_pkey  |           245760
 2017-02-05 15:02:59.284393+01 | 1486303379.28439 | pgbench_accounts_pkey |       2246197248

 2017-02-05 15:03:00.367544+01 | 1486303380.36754 | pgbench_branches_pkey |            40960
 2017-02-05 15:03:00.367544+01 | 1486303380.36754 | pgbench_tellers_pkey  |           245760
 2017-02-05 15:03:00.367544+01 | 1486303380.36754 | pgbench_accounts_pkey |       2246197248

 2017-02-05 15:03:01.46206+01 | 1486303381.46206 | pgbench_branches_pkey |            40960
 2017-02-05 15:03:01.46206+01 | 1486303381.46206 | pgbench_tellers_pkey  |           245760
 2017-02-05 15:03:01.46206+01 | 1486303381.46206 | pgbench_accounts_pkey |       2246197248

 2017-02-05 15:03:02.542805+01 | 1486303382.5428 | pgbench_branches_pkey |            40960
 2017-02-05 15:03:02.542805+01 | 1486303382.5428 | pgbench_tellers_pkey  |           245760
 2017-02-05 15:03:02.542805+01 | 1486303382.5428 | pgbench_accounts_pkey |       2246197248

 2017-02-05 15:03:03.622298+01 | 1486303383.6223 | pgbench_branches_pkey |            40960
 2017-02-05 15:03:03.622298+01 | 1486303383.6223 | pgbench_tellers_pkey  |           245760
 2017-02-05 15:03:03.622298+01 | 1486303383.6223 | pgbench_accounts_pkey |       2246197248

 2017-02-05 15:03:04.69724+01 | 1486303384.69724 | pgbench_branches_pkey |            40960
 2017-02-05 15:03:04.69724+01 | 1486303384.69724 | pgbench_tellers_pkey  |           245760
 2017-02-05 15:03:04.69724+01 | 1486303384.69724 | pgbench_accounts_pkey |       2246197248

 2017-02-05 15:03:05.776417+01 | 1486303385.77642 | pgbench_branches_pkey |            40960
 2017-02-05 15:03:05.776417+01 | 1486303385.77642 | pgbench_tellers_pkey  |           245760
 2017-02-05 15:03:05.776417+01 | 1486303385.77642 | pgbench_accounts_pkey |       2246197248

 2017-02-05 15:03:06.853769+01 | 1486303386.85377 | pgbench_branches_pkey |            40960
 2017-02-05 15:03:06.853769+01 | 1486303386.85377 | pgbench_tellers_pkey  |           245760
 2017-02-05 15:03:06.853769+01 | 1486303386.85377 | pgbench_accounts_pkey |       2246197248

 2017-02-05 15:03:07.928099+01 | 1486303387.9281 | pgbench_branches_pkey |            40960
 2017-02-05 15:03:07.928099+01 | 1486303387.9281 | pgbench_tellers_pkey  |           245760
 2017-02-05 15:03:07.928099+01 | 1486303387.9281 | pgbench_accounts_pkey |       2246197248

 2017-02-05 15:03:09.012223+01 | 1486303389.01222 | pgbench_branches_pkey |            40960
 2017-02-05 15:03:09.012223+01 | 1486303389.01222 | pgbench_tellers_pkey  |           245760
 2017-02-05 15:03:09.012223+01 | 1486303389.01222 | pgbench_accounts_pkey |       2246197248

 2017-02-05 15:03:10.092691+01 | 1486303390.09269 | pgbench_branches_pkey |            40960
 2017-02-05 15:03:10.092691+01 | 1486303390.09269 | pgbench_tellers_pkey  |           245760
 2017-02-05 15:03:10.092691+01 | 1486303390.09269 | pgbench_accounts_pkey |       2246197248

 2017-02-05 15:03:11.168953+01 | 1486303391.16895 | pgbench_branches_pkey |            40960
 2017-02-05 15:03:11.168953+01 | 1486303391.16895 | pgbench_tellers_pkey  |           245760
 2017-02-05 15:03:11.168953+01 | 1486303391.16895 | pgbench_accounts_pkey |       2246197248

 2017-02-05 15:03:12.25096+01 | 1486303392.25096 | pgbench_branches_pkey |            40960
 2017-02-05 15:03:12.25096+01 | 1486303392.25096 | pgbench_tellers_pkey  |           245760
 2017-02-05 15:03:12.25096+01 | 1486303392.25096 | pgbench_accounts_pkey |       2246197248

 2017-02-05 15:03:13.329786+01 | 1486303393.32979 | pgbench_branches_pkey |            40960
 2017-02-05 15:03:13.329786+01 | 1486303393.32979 | pgbench_tellers_pkey  |           245760
 2017-02-05 15:03:13.329786+01 | 1486303393.32979 | pgbench_accounts_pkey |       2246197248

 2017-02-05 15:03:14.405767+01 | 1486303394.40577 | pgbench_branches_pkey |            40960
 2017-02-05 15:03:14.405767+01 | 1486303394.40577 | pgbench_tellers_pkey  |           245760
 2017-02-05 15:03:14.405767+01 | 1486303394.40577 | pgbench_accounts_pkey |       2246197248

 2017-02-05 15:03:15.480321+01 | 1486303395.48032 | pgbench_branches_pkey |            40960
 2017-02-05 15:03:15.480321+01 | 1486303395.48032 | pgbench_tellers_pkey  |           245760
 2017-02-05 15:03:15.480321+01 | 1486303395.48032 | pgbench_accounts_pkey |       2246197248

 2017-02-05 15:03:16.556978+01 | 1486303396.55698 | pgbench_branches_pkey |            40960
 2017-02-05 15:03:16.556978+01 | 1486303396.55698 | pgbench_tellers_pkey  |           245760
 2017-02-05 15:03:16.556978+01 | 1486303396.55698 | pgbench_accounts_pkey |       2246197248

 2017-02-05 15:03:17.636592+01 | 1486303397.63659 | pgbench_branches_pkey |            40960
 2017-02-05 15:03:17.636592+01 | 1486303397.63659 | pgbench_tellers_pkey  |           245760
 2017-02-05 15:03:17.636592+01 | 1486303397.63659 | pgbench_accounts_pkey |       2246197248

 2017-02-05 15:03:18.71742+01 | 1486303398.71742 | pgbench_branches_pkey |            40960
 2017-02-05 15:03:18.71742+01 | 1486303398.71742 | pgbench_tellers_pkey  |           245760
 2017-02-05 15:03:18.71742+01 | 1486303398.71742 | pgbench_accounts_pkey |       2246197248

 2017-02-05 15:03:19.793504+01 | 1486303399.7935 | pgbench_branches_pkey |            40960
 2017-02-05 15:03:19.793504+01 | 1486303399.7935 | pgbench_tellers_pkey  |           245760
 2017-02-05 15:03:19.793504+01 | 1486303399.7935 | pgbench_accounts_pkey |       2246197248

 2017-02-05 15:03:20.864974+01 | 1486303400.86497 | pgbench_branches_pkey |            40960
 2017-02-05 15:03:20.864974+01 | 1486303400.86497 | pgbench_tellers_pkey  |           245760
 2017-02-05 15:03:20.864974+01 | 1486303400.86497 | pgbench_accounts_pkey |       2246197248

 2017-02-05 15:03:21.939667+01 | 1486303401.93967 | pgbench_branches_pkey |            40960
 2017-02-05 15:03:21.939667+01 | 1486303401.93967 | pgbench_tellers_pkey  |           245760
 2017-02-05 15:03:21.939667+01 | 1486303401.93967 | pgbench_accounts_pkey |       2246197248

 2017-02-05 15:03:23.014025+01 | 1486303403.01402 | pgbench_branches_pkey |            40960
 2017-02-05 15:03:23.014025+01 | 1486303403.01402 | pgbench_tellers_pkey  |           245760
 2017-02-05 15:03:23.014025+01 | 1486303403.01402 | pgbench_accounts_pkey |       2246197248

 2017-02-05 15:03:24.085397+01 | 1486303404.0854 | pgbench_branches_pkey |            40960
 2017-02-05 15:03:24.085397+01 | 1486303404.0854 | pgbench_tellers_pkey  |           245760
 2017-02-05 15:03:24.085397+01 | 1486303404.0854 | pgbench_accounts_pkey |       2246197248

 2017-02-05 15:03:25.160584+01 | 1486303405.16058 | pgbench_branches_pkey |            40960
 2017-02-05 15:03:25.160584+01 | 1486303405.16058 | pgbench_tellers_pkey  |           245760
 2017-02-05 15:03:25.160584+01 | 1486303405.16058 | pgbench_accounts_pkey |       2246197248

 2017-02-05 15:03:26.237474+01 | 1486303406.23747 | pgbench_branches_pkey |            40960
 2017-02-05 15:03:26.237474+01 | 1486303406.23747 | pgbench_tellers_pkey  |           245760
 2017-02-05 15:03:26.237474+01 | 1486303406.23747 | pgbench_accounts_pkey |       2246197248

 2017-02-05 15:03:27.311081+01 | 1486303407.31108 | pgbench_branches_pkey |            40960
 2017-02-05 15:03:27.311081+01 | 1486303407.31108 | pgbench_tellers_pkey  |           245760
 2017-02-05 15:03:27.311081+01 | 1486303407.31108 | pgbench_accounts_pkey |       2246197248

 2017-02-05 15:03:28.39172+01 | 1486303408.39172 | pgbench_branches_pkey |            40960
 2017-02-05 15:03:28.39172+01 | 1486303408.39172 | pgbench_tellers_pkey  |           245760
 2017-02-05 15:03:28.39172+01 | 1486303408.39172 | pgbench_accounts_pkey |       2246197248

 2017-02-05 15:03:29.474254+01 | 1486303409.47425 | pgbench_branches_pkey |            40960
 2017-02-05 15:03:29.474254+01 | 1486303409.47425 | pgbench_tellers_pkey  |           245760
 2017-02-05 15:03:29.474254+01 | 1486303409.47425 | pgbench_accounts_pkey |       2246197248

 2017-02-05 15:03:30.554128+01 | 1486303410.55413 | pgbench_branches_pkey |            40960
 2017-02-05 15:03:30.554128+01 | 1486303410.55413 | pgbench_tellers_pkey  |           245760
 2017-02-05 15:03:30.554128+01 | 1486303410.55413 | pgbench_accounts_pkey |       2246197248

 2017-02-05 15:03:31.64965+01 | 1486303411.64965 | pgbench_branches_pkey |            40960
 2017-02-05 15:03:31.64965+01 | 1486303411.64965 | pgbench_tellers_pkey  |           245760
 2017-02-05 15:03:31.64965+01 | 1486303411.64965 | pgbench_accounts_pkey |       2246197248

 2017-02-05 15:03:32.728861+01 | 1486303412.72886 | pgbench_branches_pkey |            40960
 2017-02-05 15:03:32.728861+01 | 1486303412.72886 | pgbench_tellers_pkey  |           245760
 2017-02-05 15:03:32.728861+01 | 1486303412.72886 | pgbench_accounts_pkey |       2246197248

 2017-02-05 15:03:33.806032+01 | 1486303413.80603 | pgbench_branches_pkey |            40960
 2017-02-05 15:03:33.806032+01 | 1486303413.80603 | pgbench_tellers_pkey  |           245760
 2017-02-05 15:03:33.806032+01 | 1486303413.80603 | pgbench_accounts_pkey |       2246197248

 2017-02-05 15:03:34.894195+01 | 1486303414.8942 | pgbench_branches_pkey |            40960
 2017-02-05 15:03:34.894195+01 | 1486303414.8942 | pgbench_tellers_pkey  |           245760
 2017-02-05 15:03:34.894195+01 | 1486303414.8942 | pgbench_accounts_pkey |       2246197248

 2017-02-05 15:03:35.972702+01 | 1486303415.9727 | pgbench_branches_pkey |            40960
 2017-02-05 15:03:35.972702+01 | 1486303415.9727 | pgbench_tellers_pkey  |           245760
 2017-02-05 15:03:35.972702+01 | 1486303415.9727 | pgbench_accounts_pkey |       2246197248

 2017-02-05 15:03:37.045556+01 | 1486303417.04556 | pgbench_branches_pkey |            40960
 2017-02-05 15:03:37.045556+01 | 1486303417.04556 | pgbench_tellers_pkey  |           245760
 2017-02-05 15:03:37.045556+01 | 1486303417.04556 | pgbench_accounts_pkey |       2246197248

 2017-02-05 15:03:38.130184+01 | 1486303418.13018 | pgbench_branches_pkey |            40960
 2017-02-05 15:03:38.130184+01 | 1486303418.13018 | pgbench_tellers_pkey  |           245760
 2017-02-05 15:03:38.130184+01 | 1486303418.13018 | pgbench_accounts_pkey |       2246197248

 2017-02-05 15:03:39.212769+01 | 1486303419.21277 | pgbench_branches_pkey |            40960
 2017-02-05 15:03:39.212769+01 | 1486303419.21277 | pgbench_tellers_pkey  |           245760
 2017-02-05 15:03:39.212769+01 | 1486303419.21277 | pgbench_accounts_pkey |       2246197248

 2017-02-05 15:03:40.289848+01 | 1486303420.28985 | pgbench_branches_pkey |            40960
 2017-02-05 15:03:40.289848+01 | 1486303420.28985 | pgbench_tellers_pkey  |           245760
 2017-02-05 15:03:40.289848+01 | 1486303420.28985 | pgbench_accounts_pkey |       2246197248

 2017-02-05 15:03:41.377275+01 | 1486303421.37727 | pgbench_branches_pkey |            40960
 2017-02-05 15:03:41.377275+01 | 1486303421.37727 | pgbench_tellers_pkey  |           245760
 2017-02-05 15:03:41.377275+01 | 1486303421.37727 | pgbench_accounts_pkey |       2246197248

 2017-02-05 15:03:42.457379+01 | 1486303422.45738 | pgbench_branches_pkey |            40960
 2017-02-05 15:03:42.457379+01 | 1486303422.45738 | pgbench_tellers_pkey  |           245760
 2017-02-05 15:03:42.457379+01 | 1486303422.45738 | pgbench_accounts_pkey |       2246197248

 2017-02-05 15:03:43.53755+01 | 1486303423.53755 | pgbench_branches_pkey |            40960
 2017-02-05 15:03:43.53755+01 | 1486303423.53755 | pgbench_tellers_pkey  |           245760
 2017-02-05 15:03:43.53755+01 | 1486303423.53755 | pgbench_accounts_pkey |       2246197248

 2017-02-05 15:03:44.611231+01 | 1486303424.61123 | pgbench_branches_pkey |            40960
 2017-02-05 15:03:44.611231+01 | 1486303424.61123 | pgbench_tellers_pkey  |           245760
 2017-02-05 15:03:44.611231+01 | 1486303424.61123 | pgbench_accounts_pkey |       2246197248

 2017-02-05 15:03:45.685082+01 | 1486303425.68508 | pgbench_branches_pkey |            40960
 2017-02-05 15:03:45.685082+01 | 1486303425.68508 | pgbench_tellers_pkey  |           245760
 2017-02-05 15:03:45.685082+01 | 1486303425.68508 | pgbench_accounts_pkey |       2246197248

 2017-02-05 15:03:46.755199+01 | 1486303426.7552 | pgbench_branches_pkey |            40960
 2017-02-05 15:03:46.755199+01 | 1486303426.7552 | pgbench_tellers_pkey  |           245760
 2017-02-05 15:03:46.755199+01 | 1486303426.7552 | pgbench_accounts_pkey |       2246197248

 2017-02-05 15:03:47.844398+01 | 1486303427.8444 | pgbench_branches_pkey |            40960
 2017-02-05 15:03:47.844398+01 | 1486303427.8444 | pgbench_tellers_pkey  |           245760
 2017-02-05 15:03:47.844398+01 | 1486303427.8444 | pgbench_accounts_pkey |       2246197248

 2017-02-05 15:03:48.924489+01 | 1486303428.92449 | pgbench_branches_pkey |            40960
 2017-02-05 15:03:48.924489+01 | 1486303428.92449 | pgbench_tellers_pkey  |           245760
 2017-02-05 15:03:48.924489+01 | 1486303428.92449 | pgbench_accounts_pkey |       2246197248

 2017-02-05 15:03:50.00183+01 | 1486303430.00183 | pgbench_branches_pkey |            40960
 2017-02-05 15:03:50.00183+01 | 1486303430.00183 | pgbench_tellers_pkey  |           245760
 2017-02-05 15:03:50.00183+01 | 1486303430.00183 | pgbench_accounts_pkey |       2246197248

 2017-02-05 15:03:51.093757+01 | 1486303431.09376 | pgbench_branches_pkey |            40960
 2017-02-05 15:03:51.093757+01 | 1486303431.09376 | pgbench_tellers_pkey  |           245760
 2017-02-05 15:03:51.093757+01 | 1486303431.09376 | pgbench_accounts_pkey |       2246197248

 2017-02-05 15:03:52.168434+01 | 1486303432.16843 | pgbench_branches_pkey |            40960
 2017-02-05 15:03:52.168434+01 | 1486303432.16843 | pgbench_tellers_pkey  |           245760
 2017-02-05 15:03:52.168434+01 | 1486303432.16843 | pgbench_accounts_pkey |       2246197248

 2017-02-05 15:03:53.253643+01 | 1486303433.25364 | pgbench_branches_pkey |            40960
 2017-02-05 15:03:53.253643+01 | 1486303433.25364 | pgbench_tellers_pkey  |           245760
 2017-02-05 15:03:53.253643+01 | 1486303433.25364 | pgbench_accounts_pkey |       2246197248

 2017-02-05 15:03:54.335353+01 | 1486303434.33535 | pgbench_branches_pkey |            40960
 2017-02-05 15:03:54.335353+01 | 1486303434.33535 | pgbench_tellers_pkey  |           245760
 2017-02-05 15:03:54.335353+01 | 1486303434.33535 | pgbench_accounts_pkey |       2246197248

 2017-02-05 15:03:55.412807+01 | 1486303435.41281 | pgbench_branches_pkey |            40960
 2017-02-05 15:03:55.412807+01 | 1486303435.41281 | pgbench_tellers_pkey  |           245760
 2017-02-05 15:03:55.412807+01 | 1486303435.41281 | pgbench_accounts_pkey |       2246197248

 2017-02-05 15:03:56.495048+01 | 1486303436.49505 | pgbench_branches_pkey |            40960
 2017-02-05 15:03:56.495048+01 | 1486303436.49505 | pgbench_tellers_pkey  |           245760
 2017-02-05 15:03:56.495048+01 | 1486303436.49505 | pgbench_accounts_pkey |       2246197248

 2017-02-05 15:03:57.572627+01 | 1486303437.57263 | pgbench_branches_pkey |            40960
 2017-02-05 15:03:57.572627+01 | 1486303437.57263 | pgbench_tellers_pkey  |           245760
 2017-02-05 15:03:57.572627+01 | 1486303437.57263 | pgbench_accounts_pkey |       2246197248

 2017-02-05 15:03:58.648481+01 | 1486303438.64848 | pgbench_branches_pkey |            40960
 2017-02-05 15:03:58.648481+01 | 1486303438.64848 | pgbench_tellers_pkey  |           245760
 2017-02-05 15:03:58.648481+01 | 1486303438.64848 | pgbench_accounts_pkey |       2246197248

 2017-02-05 15:03:59.73016+01 | 1486303439.73016 | pgbench_branches_pkey |            40960
 2017-02-05 15:03:59.73016+01 | 1486303439.73016 | pgbench_tellers_pkey  |           245760
 2017-02-05 15:03:59.73016+01 | 1486303439.73016 | pgbench_accounts_pkey |       2246197248

 2017-02-05 15:04:00.806372+01 | 1486303440.80637 | pgbench_branches_pkey |            40960
 2017-02-05 15:04:00.806372+01 | 1486303440.80637 | pgbench_tellers_pkey  |           245760
 2017-02-05 15:04:00.806372+01 | 1486303440.80637 | pgbench_accounts_pkey |       2246197248

 2017-02-05 15:04:01.88134+01 | 1486303441.88134 | pgbench_branches_pkey |            40960
 2017-02-05 15:04:01.88134+01 | 1486303441.88134 | pgbench_tellers_pkey  |           245760
 2017-02-05 15:04:01.88134+01 | 1486303441.88134 | pgbench_accounts_pkey |       2246197248

 2017-02-05 15:04:02.956414+01 | 1486303442.95641 | pgbench_branches_pkey |            40960
 2017-02-05 15:04:02.956414+01 | 1486303442.95641 | pgbench_tellers_pkey  |           245760
 2017-02-05 15:04:02.956414+01 | 1486303442.95641 | pgbench_accounts_pkey |       2246197248

 2017-02-05 15:04:04.025173+01 | 1486303444.02517 | pgbench_branches_pkey |            40960
 2017-02-05 15:04:04.025173+01 | 1486303444.02517 | pgbench_tellers_pkey  |           245760
 2017-02-05 15:04:04.025173+01 | 1486303444.02517 | pgbench_accounts_pkey |       2246197248

 2017-02-05 15:04:05.1102+01 | 1486303445.1102 | pgbench_branches_pkey |            40960
 2017-02-05 15:04:05.1102+01 | 1486303445.1102 | pgbench_tellers_pkey  |           245760
 2017-02-05 15:04:05.1102+01 | 1486303445.1102 | pgbench_accounts_pkey |       2246197248

 2017-02-05 15:04:06.190635+01 | 1486303446.19063 | pgbench_branches_pkey |            40960
 2017-02-05 15:04:06.190635+01 | 1486303446.19063 | pgbench_tellers_pkey  |           245760
 2017-02-05 15:04:06.190635+01 | 1486303446.19063 | pgbench_accounts_pkey |       2246197248

 2017-02-05 15:04:07.269678+01 | 1486303447.26968 | pgbench_branches_pkey |            40960
 2017-02-05 15:04:07.269678+01 | 1486303447.26968 | pgbench_tellers_pkey  |           245760
 2017-02-05 15:04:07.269678+01 | 1486303447.26968 | pgbench_accounts_pkey |       2246197248

 2017-02-05 15:04:08.344864+01 | 1486303448.34486 | pgbench_branches_pkey |            40960
 2017-02-05 15:04:08.344864+01 | 1486303448.34486 | pgbench_tellers_pkey  |           245760
 2017-02-05 15:04:08.344864+01 | 1486303448.34486 | pgbench_accounts_pkey |       2246197248

 2017-02-05 15:04:09.424811+01 | 1486303449.42481 | pgbench_branches_pkey |            40960
 2017-02-05 15:04:09.424811+01 | 1486303449.42481 | pgbench_tellers_pkey  |           245760
 2017-02-05 15:04:09.424811+01 | 1486303449.42481 | pgbench_accounts_pkey |       2246197248

 2017-02-05 15:04:10.50864+01 | 1486303450.50864 | pgbench_branches_pkey |            40960
 2017-02-05 15:04:10.50864+01 | 1486303450.50864 | pgbench_tellers_pkey  |           245760
 2017-02-05 15:04:10.50864+01 | 1486303450.50864 | pgbench_accounts_pkey |       2246197248

 2017-02-05 15:04:11.581448+01 | 1486303451.58145 | pgbench_branches_pkey |            40960
 2017-02-05 15:04:11.581448+01 | 1486303451.58145 | pgbench_tellers_pkey  |           245760
 2017-02-05 15:04:11.581448+01 | 1486303451.58145 | pgbench_accounts_pkey |       2246197248

 2017-02-05 15:04:12.661941+01 | 1486303452.66194 | pgbench_branches_pkey |            40960
 2017-02-05 15:04:12.661941+01 | 1486303452.66194 | pgbench_tellers_pkey  |           245760
 2017-02-05 15:04:12.661941+01 | 1486303452.66194 | pgbench_accounts_pkey |       2246197248

 2017-02-05 15:04:13.739453+01 | 1486303453.73945 | pgbench_branches_pkey |            40960
 2017-02-05 15:04:13.739453+01 | 1486303453.73945 | pgbench_tellers_pkey  |           245760
 2017-02-05 15:04:13.739453+01 | 1486303453.73945 | pgbench_accounts_pkey |       2246197248

 2017-02-05 15:04:14.813726+01 | 1486303454.81373 | pgbench_branches_pkey |            40960
 2017-02-05 15:04:14.813726+01 | 1486303454.81373 | pgbench_tellers_pkey  |           245760
 2017-02-05 15:04:14.813726+01 | 1486303454.81373 | pgbench_accounts_pkey |       2246197248

 2017-02-05 15:04:15.895256+01 | 1486303455.89526 | pgbench_branches_pkey |            40960
 2017-02-05 15:04:15.895256+01 | 1486303455.89526 | pgbench_tellers_pkey  |           245760
 2017-02-05 15:04:15.895256+01 | 1486303455.89526 | pgbench_accounts_pkey |       2246197248

 2017-02-05 15:04:16.972611+01 | 1486303456.97261 | pgbench_branches_pkey |            40960
 2017-02-05 15:04:16.972611+01 | 1486303456.97261 | pgbench_tellers_pkey  |           245760
 2017-02-05 15:04:16.972611+01 | 1486303456.97261 | pgbench_accounts_pkey |       2246197248

 2017-02-05 15:04:18.052395+01 | 1486303458.0524 | pgbench_branches_pkey |            40960
 2017-02-05 15:04:18.052395+01 | 1486303458.0524 | pgbench_tellers_pkey  |           245760
 2017-02-05 15:04:18.052395+01 | 1486303458.0524 | pgbench_accounts_pkey |       2246197248

 2017-02-05 15:04:19.14219+01 | 1486303459.14219 | pgbench_branches_pkey |            40960
 2017-02-05 15:04:19.14219+01 | 1486303459.14219 | pgbench_tellers_pkey  |           245760
 2017-02-05 15:04:19.14219+01 | 1486303459.14219 | pgbench_accounts_pkey |       2246197248

 2017-02-05 15:04:20.225671+01 | 1486303460.22567 | pgbench_branches_pkey |            40960
 2017-02-05 15:04:20.225671+01 | 1486303460.22567 | pgbench_tellers_pkey  |           245760
 2017-02-05 15:04:20.225671+01 | 1486303460.22567 | pgbench_accounts_pkey |       2246197248

 2017-02-05 15:04:21.312256+01 | 1486303461.31226 | pgbench_branches_pkey |            40960
 2017-02-05 15:04:21.312256+01 | 1486303461.31226 | pgbench_tellers_pkey  |           245760
 2017-02-05 15:04:21.312256+01 | 1486303461.31226 | pgbench_accounts_pkey |       2246197248

 2017-02-05 15:04:22.385219+01 | 1486303462.38522 | pgbench_branches_pkey |            40960
 2017-02-05 15:04:22.385219+01 | 1486303462.38522 | pgbench_tellers_pkey  |           245760
 2017-02-05 15:04:22.385219+01 | 1486303462.38522 | pgbench_accounts_pkey |       2246197248

 2017-02-05 15:04:23.479885+01 | 1486303463.47989 | pgbench_branches_pkey |            40960
 2017-02-05 15:04:23.479885+01 | 1486303463.47989 | pgbench_tellers_pkey  |           245760
 2017-02-05 15:04:23.479885+01 | 1486303463.47989 | pgbench_accounts_pkey |       2246197248

 2017-02-05 15:04:24.566755+01 | 1486303464.56676 | pgbench_branches_pkey |            40960
 2017-02-05 15:04:24.566755+01 | 1486303464.56676 | pgbench_tellers_pkey  |           245760
 2017-02-05 15:04:24.566755+01 | 1486303464.56676 | pgbench_accounts_pkey |       2246197248

 2017-02-05 15:04:25.644787+01 | 1486303465.64479 | pgbench_branches_pkey |            40960
 2017-02-05 15:04:25.644787+01 | 1486303465.64479 | pgbench_tellers_pkey  |           245760
 2017-02-05 15:04:25.644787+01 | 1486303465.64479 | pgbench_accounts_pkey |       2246197248

 2017-02-05 15:04:26.726365+01 | 1486303466.72637 | pgbench_branches_pkey |            40960
 2017-02-05 15:04:26.726365+01 | 1486303466.72637 | pgbench_tellers_pkey  |           245760
 2017-02-05 15:04:26.726365+01 | 1486303466.72637 | pgbench_accounts_pkey |       2246197248

 2017-02-05 15:04:27.80942+01 | 1486303467.80942 | pgbench_branches_pkey |            40960
 2017-02-05 15:04:27.80942+01 | 1486303467.80942 | pgbench_tellers_pkey  |           245760
 2017-02-05 15:04:27.80942+01 | 1486303467.80942 | pgbench_accounts_pkey |       2246197248

 2017-02-05 15:04:28.888678+01 | 1486303468.88868 | pgbench_branches_pkey |            40960
 2017-02-05 15:04:28.888678+01 | 1486303468.88868 | pgbench_tellers_pkey  |           245760
 2017-02-05 15:04:28.888678+01 | 1486303468.88868 | pgbench_accounts_pkey |       2246197248

 2017-02-05 15:04:29.978922+01 | 1486303469.97892 | pgbench_branches_pkey |            40960
 2017-02-05 15:04:29.978922+01 | 1486303469.97892 | pgbench_tellers_pkey  |           245760
 2017-02-05 15:04:29.978922+01 | 1486303469.97892 | pgbench_accounts_pkey |       2246197248

 2017-02-05 15:04:31.059486+01 | 1486303471.05949 | pgbench_branches_pkey |            40960
 2017-02-05 15:04:31.059486+01 | 1486303471.05949 | pgbench_tellers_pkey  |           245760
 2017-02-05 15:04:31.059486+01 | 1486303471.05949 | pgbench_accounts_pkey |       2246197248

 2017-02-05 15:04:32.142082+01 | 1486303472.14208 | pgbench_branches_pkey |            40960
 2017-02-05 15:04:32.142082+01 | 1486303472.14208 | pgbench_tellers_pkey  |           245760
 2017-02-05 15:04:32.142082+01 | 1486303472.14208 | pgbench_accounts_pkey |       2246197248

 2017-02-05 15:04:33.213086+01 | 1486303473.21309 | pgbench_branches_pkey |            40960
 2017-02-05 15:04:33.213086+01 | 1486303473.21309 | pgbench_tellers_pkey  |           245760
 2017-02-05 15:04:33.213086+01 | 1486303473.21309 | pgbench_accounts_pkey |       2246197248

 2017-02-05 15:04:34.303623+01 | 1486303474.30362 | pgbench_branches_pkey |            40960
 2017-02-05 15:04:34.303623+01 | 1486303474.30362 | pgbench_tellers_pkey  |           245760
 2017-02-05 15:04:34.303623+01 | 1486303474.30362 | pgbench_accounts_pkey |       2246197248

 2017-02-05 15:04:35.379441+01 | 1486303475.37944 | pgbench_branches_pkey |            40960
 2017-02-05 15:04:35.379441+01 | 1486303475.37944 | pgbench_tellers_pkey  |           245760
 2017-02-05 15:04:35.379441+01 | 1486303475.37944 | pgbench_accounts_pkey |       2246197248

 2017-02-05 15:04:36.456231+01 | 1486303476.45623 | pgbench_branches_pkey |            40960
 2017-02-05 15:04:36.456231+01 | 1486303476.45623 | pgbench_tellers_pkey  |           245760
 2017-02-05 15:04:36.456231+01 | 1486303476.45623 | pgbench_accounts_pkey |       2246197248

 2017-02-05 15:04:37.535387+01 | 1486303477.53539 | pgbench_branches_pkey |            40960
 2017-02-05 15:04:37.535387+01 | 1486303477.53539 | pgbench_tellers_pkey  |           245760
 2017-02-05 15:04:37.535387+01 | 1486303477.53539 | pgbench_accounts_pkey |       2246197248

 2017-02-05 15:04:38.616435+01 | 1486303478.61644 | pgbench_branches_pkey |            40960
 2017-02-05 15:04:38.616435+01 | 1486303478.61644 | pgbench_tellers_pkey  |           245760
 2017-02-05 15:04:38.616435+01 | 1486303478.61644 | pgbench_accounts_pkey |       2246197248

 2017-02-05 15:04:39.699087+01 | 1486303479.69909 | pgbench_branches_pkey |            40960
 2017-02-05 15:04:39.699087+01 | 1486303479.69909 | pgbench_tellers_pkey  |           245760
 2017-02-05 15:04:39.699087+01 | 1486303479.69909 | pgbench_accounts_pkey |       2246197248

 2017-02-05 15:04:40.777578+01 | 1486303480.77758 | pgbench_branches_pkey |            40960
 2017-02-05 15:04:40.777578+01 | 1486303480.77758 | pgbench_tellers_pkey  |           245760
 2017-02-05 15:04:40.777578+01 | 1486303480.77758 | pgbench_accounts_pkey |       2246197248

 2017-02-05 15:04:41.861737+01 | 1486303481.86174 | pgbench_branches_pkey |            40960
 2017-02-05 15:04:41.861737+01 | 1486303481.86174 | pgbench_tellers_pkey  |           245760
 2017-02-05 15:04:41.861737+01 | 1486303481.86174 | pgbench_accounts_pkey |       2246197248

 2017-02-05 15:04:42.942502+01 | 1486303482.9425 | pgbench_branches_pkey |            40960
 2017-02-05 15:04:42.942502+01 | 1486303482.9425 | pgbench_tellers_pkey  |           245760
 2017-02-05 15:04:42.942502+01 | 1486303482.9425 | pgbench_accounts_pkey |       2246197248

 2017-02-05 15:04:44.024436+01 | 1486303484.02444 | pgbench_branches_pkey |            40960
 2017-02-05 15:04:44.024436+01 | 1486303484.02444 | pgbench_tellers_pkey  |           245760
 2017-02-05 15:04:44.024436+01 | 1486303484.02444 | pgbench_accounts_pkey |       2246197248

 2017-02-05 15:04:45.099449+01 | 1486303485.09945 | pgbench_branches_pkey |            40960
 2017-02-05 15:04:45.099449+01 | 1486303485.09945 | pgbench_tellers_pkey  |           245760
 2017-02-05 15:04:45.099449+01 | 1486303485.09945 | pgbench_accounts_pkey |       2246197248

 2017-02-05 15:04:46.180776+01 | 1486303486.18078 | pgbench_branches_pkey |            40960
 2017-02-05 15:04:46.180776+01 | 1486303486.18078 | pgbench_tellers_pkey  |           245760
 2017-02-05 15:04:46.180776+01 | 1486303486.18078 | pgbench_accounts_pkey |       2246197248

 2017-02-05 15:04:47.262561+01 | 1486303487.26256 | pgbench_branches_pkey |            40960
 2017-02-05 15:04:47.262561+01 | 1486303487.26256 | pgbench_tellers_pkey  |           245760
 2017-02-05 15:04:47.262561+01 | 1486303487.26256 | pgbench_accounts_pkey |       2246197248

 2017-02-05 15:04:48.343821+01 | 1486303488.34382 | pgbench_branches_pkey |            40960
 2017-02-05 15:04:48.343821+01 | 1486303488.34382 | pgbench_tellers_pkey  |           245760
 2017-02-05 15:04:48.343821+01 | 1486303488.34382 | pgbench_accounts_pkey |       2246197248

 2017-02-05 15:04:49.417774+01 | 1486303489.41777 | pgbench_branches_pkey |            40960
 2017-02-05 15:04:49.417774+01 | 1486303489.41777 | pgbench_tellers_pkey  |           245760
 2017-02-05 15:04:49.417774+01 | 1486303489.41777 | pgbench_accounts_pkey |       2246197248

 2017-02-05 15:04:50.505388+01 | 1486303490.50539 | pgbench_branches_pkey |            40960
 2017-02-05 15:04:50.505388+01 | 1486303490.50539 | pgbench_tellers_pkey  |           245760
 2017-02-05 15:04:50.505388+01 | 1486303490.50539 | pgbench_accounts_pkey |       2246197248

 2017-02-05 15:04:51.587657+01 | 1486303491.58766 | pgbench_branches_pkey |            40960
 2017-02-05 15:04:51.587657+01 | 1486303491.58766 | pgbench_tellers_pkey  |           245760
 2017-02-05 15:04:51.587657+01 | 1486303491.58766 | pgbench_accounts_pkey |       2246197248

 2017-02-05 15:04:52.662525+01 | 1486303492.66252 | pgbench_branches_pkey |            40960
 2017-02-05 15:04:52.662525+01 | 1486303492.66252 | pgbench_tellers_pkey  |           245760
 2017-02-05 15:04:52.662525+01 | 1486303492.66252 | pgbench_accounts_pkey |       2246197248

 2017-02-05 15:04:53.736615+01 | 1486303493.73661 | pgbench_branches_pkey |            40960
 2017-02-05 15:04:53.736615+01 | 1486303493.73661 | pgbench_tellers_pkey  |           245760
 2017-02-05 15:04:53.736615+01 | 1486303493.73661 | pgbench_accounts_pkey |       2246197248

 2017-02-05 15:04:54.813749+01 | 1486303494.81375 | pgbench_branches_pkey |            40960
 2017-02-05 15:04:54.813749+01 | 1486303494.81375 | pgbench_tellers_pkey  |           245760
 2017-02-05 15:04:54.813749+01 | 1486303494.81375 | pgbench_accounts_pkey |       2246197248

 2017-02-05 15:04:55.887874+01 | 1486303495.88787 | pgbench_branches_pkey |            40960
 2017-02-05 15:04:55.887874+01 | 1486303495.88787 | pgbench_tellers_pkey  |           245760
 2017-02-05 15:04:55.887874+01 | 1486303495.88787 | pgbench_accounts_pkey |       2246197248

 2017-02-05 15:04:56.965458+01 | 1486303496.96546 | pgbench_branches_pkey |            40960
 2017-02-05 15:04:56.965458+01 | 1486303496.96546 | pgbench_tellers_pkey  |           245760
 2017-02-05 15:04:56.965458+01 | 1486303496.96546 | pgbench_accounts_pkey |       2246197248

 2017-02-05 15:04:58.045111+01 | 1486303498.04511 | pgbench_branches_pkey |            40960
 2017-02-05 15:04:58.045111+01 | 1486303498.04511 | pgbench_tellers_pkey  |           245760
 2017-02-05 15:04:58.045111+01 | 1486303498.04511 | pgbench_accounts_pkey |       2246197248

 2017-02-05 15:04:59.121272+01 | 1486303499.12127 | pgbench_branches_pkey |            40960
 2017-02-05 15:04:59.121272+01 | 1486303499.12127 | pgbench_tellers_pkey  |           245760
 2017-02-05 15:04:59.121272+01 | 1486303499.12127 | pgbench_accounts_pkey |       2246197248

 2017-02-05 15:05:00.197098+01 | 1486303500.1971 | pgbench_branches_pkey |            40960
 2017-02-05 15:05:00.197098+01 | 1486303500.1971 | pgbench_tellers_pkey  |           245760
 2017-02-05 15:05:00.197098+01 | 1486303500.1971 | pgbench_accounts_pkey |       2246197248

 2017-02-05 15:05:01.275782+01 | 1486303501.27578 | pgbench_branches_pkey |            40960
 2017-02-05 15:05:01.275782+01 | 1486303501.27578 | pgbench_tellers_pkey  |           245760
 2017-02-05 15:05:01.275782+01 | 1486303501.27578 | pgbench_accounts_pkey |       2246197248

 2017-02-05 15:05:02.355404+01 | 1486303502.3554 | pgbench_branches_pkey |            40960
 2017-02-05 15:05:02.355404+01 | 1486303502.3554 | pgbench_tellers_pkey  |           245760
 2017-02-05 15:05:02.355404+01 | 1486303502.3554 | pgbench_accounts_pkey |       2246197248

 2017-02-05 15:05:03.435007+01 | 1486303503.43501 | pgbench_branches_pkey |            40960
 2017-02-05 15:05:03.435007+01 | 1486303503.43501 | pgbench_tellers_pkey  |           245760
 2017-02-05 15:05:03.435007+01 | 1486303503.43501 | pgbench_accounts_pkey |       2246197248

 2017-02-05 15:05:04.518008+01 | 1486303504.51801 | pgbench_branches_pkey |            40960
 2017-02-05 15:05:04.518008+01 | 1486303504.51801 | pgbench_tellers_pkey  |           245760
 2017-02-05 15:05:04.518008+01 | 1486303504.51801 | pgbench_accounts_pkey |       2246197248

 2017-02-05 15:05:05.608361+01 | 1486303505.60836 | pgbench_branches_pkey |            40960
 2017-02-05 15:05:05.608361+01 | 1486303505.60836 | pgbench_tellers_pkey  |           245760
 2017-02-05 15:05:05.608361+01 | 1486303505.60836 | pgbench_accounts_pkey |       2246197248

 2017-02-05 15:05:06.693784+01 | 1486303506.69378 | pgbench_branches_pkey |            40960
 2017-02-05 15:05:06.693784+01 | 1486303506.69378 | pgbench_tellers_pkey  |           245760
 2017-02-05 15:05:06.693784+01 | 1486303506.69378 | pgbench_accounts_pkey |       2246197248

 2017-02-05 15:05:07.774081+01 | 1486303507.77408 | pgbench_branches_pkey |            40960
 2017-02-05 15:05:07.774081+01 | 1486303507.77408 | pgbench_tellers_pkey  |           245760
 2017-02-05 15:05:07.774081+01 | 1486303507.77408 | pgbench_accounts_pkey |       2246197248

 2017-02-05 15:05:08.853965+01 | 1486303508.85397 | pgbench_branches_pkey |            40960
 2017-02-05 15:05:08.853965+01 | 1486303508.85397 | pgbench_tellers_pkey  |           245760
 2017-02-05 15:05:08.853965+01 | 1486303508.85397 | pgbench_accounts_pkey |       2246197248

 2017-02-05 15:05:09.93542+01 | 1486303509.93542 | pgbench_branches_pkey |            40960
 2017-02-05 15:05:09.93542+01 | 1486303509.93542 | pgbench_tellers_pkey  |           245760
 2017-02-05 15:05:09.93542+01 | 1486303509.93542 | pgbench_accounts_pkey |       2246197248

 2017-02-05 15:05:11.023214+01 | 1486303511.02321 | pgbench_branches_pkey |            40960
 2017-02-05 15:05:11.023214+01 | 1486303511.02321 | pgbench_tellers_pkey  |           245760
 2017-02-05 15:05:11.023214+01 | 1486303511.02321 | pgbench_accounts_pkey |       2246197248

 2017-02-05 15:05:12.101487+01 | 1486303512.10149 | pgbench_branches_pkey |            40960
 2017-02-05 15:05:12.101487+01 | 1486303512.10149 | pgbench_tellers_pkey  |           245760
 2017-02-05 15:05:12.101487+01 | 1486303512.10149 | pgbench_accounts_pkey |       2246197248

 2017-02-05 15:05:13.184846+01 | 1486303513.18485 | pgbench_branches_pkey |            40960
 2017-02-05 15:05:13.184846+01 | 1486303513.18485 | pgbench_tellers_pkey  |           245760
 2017-02-05 15:05:13.184846+01 | 1486303513.18485 | pgbench_accounts_pkey |       2246197248

 2017-02-05 15:05:14.262089+01 | 1486303514.26209 | pgbench_branches_pkey |            40960
 2017-02-05 15:05:14.262089+01 | 1486303514.26209 | pgbench_tellers_pkey  |           245760
 2017-02-05 15:05:14.262089+01 | 1486303514.26209 | pgbench_accounts_pkey |       2246197248

 2017-02-05 15:05:15.346731+01 | 1486303515.34673 | pgbench_branches_pkey |            40960
 2017-02-05 15:05:15.346731+01 | 1486303515.34673 | pgbench_tellers_pkey  |           245760
 2017-02-05 15:05:15.346731+01 | 1486303515.34673 | pgbench_accounts_pkey |       2246197248

 2017-02-05 15:05:16.423282+01 | 1486303516.42328 | pgbench_branches_pkey |            40960
 2017-02-05 15:05:16.423282+01 | 1486303516.42328 | pgbench_tellers_pkey  |           245760
 2017-02-05 15:05:16.423282+01 | 1486303516.42328 | pgbench_accounts_pkey |       2246197248

 2017-02-05 15:05:17.503004+01 | 1486303517.503 | pgbench_branches_pkey |            40960
 2017-02-05 15:05:17.503004+01 | 1486303517.503 | pgbench_tellers_pkey  |           245760
 2017-02-05 15:05:17.503004+01 | 1486303517.503 | pgbench_accounts_pkey |       2246197248

 2017-02-05 15:05:18.577234+01 | 1486303518.57723 | pgbench_branches_pkey |            40960
 2017-02-05 15:05:18.577234+01 | 1486303518.57723 | pgbench_tellers_pkey  |           245760
 2017-02-05 15:05:18.577234+01 | 1486303518.57723 | pgbench_accounts_pkey |       2246197248

 2017-02-05 15:05:19.654659+01 | 1486303519.65466 | pgbench_branches_pkey |            40960
 2017-02-05 15:05:19.654659+01 | 1486303519.65466 | pgbench_tellers_pkey  |           245760
 2017-02-05 15:05:19.654659+01 | 1486303519.65466 | pgbench_accounts_pkey |       2246197248

 2017-02-05 15:05:20.728636+01 | 1486303520.72864 | pgbench_branches_pkey |            40960
 2017-02-05 15:05:20.728636+01 | 1486303520.72864 | pgbench_tellers_pkey  |           245760
 2017-02-05 15:05:20.728636+01 | 1486303520.72864 | pgbench_accounts_pkey |       2246197248

 2017-02-05 15:05:21.807746+01 | 1486303521.80775 | pgbench_branches_pkey |            40960
 2017-02-05 15:05:21.807746+01 | 1486303521.80775 | pgbench_tellers_pkey  |           245760
 2017-02-05 15:05:21.807746+01 | 1486303521.80775 | pgbench_accounts_pkey |       2246197248

 2017-02-05 15:05:22.88631+01 | 1486303522.88631 | pgbench_branches_pkey |            40960
 2017-02-05 15:05:22.88631+01 | 1486303522.88631 | pgbench_tellers_pkey  |           245760
 2017-02-05 15:05:22.88631+01 | 1486303522.88631 | pgbench_accounts_pkey |       2246197248

 2017-02-05 15:05:23.95793+01 | 1486303523.95793 | pgbench_branches_pkey |            40960
 2017-02-05 15:05:23.95793+01 | 1486303523.95793 | pgbench_tellers_pkey  |           245760
 2017-02-05 15:05:23.95793+01 | 1486303523.95793 | pgbench_accounts_pkey |       2246197248

 2017-02-05 15:05:25.030492+01 | 1486303525.03049 | pgbench_branches_pkey |            40960
 2017-02-05 15:05:25.030492+01 | 1486303525.03049 | pgbench_tellers_pkey  |           245760
 2017-02-05 15:05:25.030492+01 | 1486303525.03049 | pgbench_accounts_pkey |       2246197248

 2017-02-05 15:05:26.115107+01 | 1486303526.11511 | pgbench_branches_pkey |            40960
 2017-02-05 15:05:26.115107+01 | 1486303526.11511 | pgbench_tellers_pkey  |           245760
 2017-02-05 15:05:26.115107+01 | 1486303526.11511 | pgbench_accounts_pkey |       2246197248

 2017-02-05 15:05:27.203475+01 | 1486303527.20347 | pgbench_branches_pkey |            40960
 2017-02-05 15:05:27.203475+01 | 1486303527.20347 | pgbench_tellers_pkey  |           245760
 2017-02-05 15:05:27.203475+01 | 1486303527.20347 | pgbench_accounts_pkey |       2246197248

 2017-02-05 15:05:28.281322+01 | 1486303528.28132 | pgbench_branches_pkey |            40960
 2017-02-05 15:05:28.281322+01 | 1486303528.28132 | pgbench_tellers_pkey  |           245760
 2017-02-05 15:05:28.281322+01 | 1486303528.28132 | pgbench_accounts_pkey |       2246197248

 2017-02-05 15:05:29.357278+01 | 1486303529.35728 | pgbench_branches_pkey |            40960
 2017-02-05 15:05:29.357278+01 | 1486303529.35728 | pgbench_tellers_pkey  |           245760
 2017-02-05 15:05:29.357278+01 | 1486303529.35728 | pgbench_accounts_pkey |       2246197248

 2017-02-05 15:05:30.432235+01 | 1486303530.43224 | pgbench_branches_pkey |            40960
 2017-02-05 15:05:30.432235+01 | 1486303530.43224 | pgbench_tellers_pkey  |           245760
 2017-02-05 15:05:30.432235+01 | 1486303530.43224 | pgbench_accounts_pkey |       2246197248

 2017-02-05 15:05:31.513999+01 | 1486303531.514 | pgbench_branches_pkey |            40960
 2017-02-05 15:05:31.513999+01 | 1486303531.514 | pgbench_tellers_pkey  |           245760
 2017-02-05 15:05:31.513999+01 | 1486303531.514 | pgbench_accounts_pkey |       2246197248

 2017-02-05 15:05:32.598183+01 | 1486303532.59818 | pgbench_branches_pkey |            40960
 2017-02-05 15:05:32.598183+01 | 1486303532.59818 | pgbench_tellers_pkey  |           245760
 2017-02-05 15:05:32.598183+01 | 1486303532.59818 | pgbench_accounts_pkey |       2246197248

 2017-02-05 15:05:33.678317+01 | 1486303533.67832 | pgbench_branches_pkey |            40960
 2017-02-05 15:05:33.678317+01 | 1486303533.67832 | pgbench_tellers_pkey  |           245760
 2017-02-05 15:05:33.678317+01 | 1486303533.67832 | pgbench_accounts_pkey |       2246197248

 2017-02-05 15:05:34.758402+01 | 1486303534.7584 | pgbench_branches_pkey |            40960
 2017-02-05 15:05:34.758402+01 | 1486303534.7584 | pgbench_tellers_pkey  |           245760
 2017-02-05 15:05:34.758402+01 | 1486303534.7584 | pgbench_accounts_pkey |       2246197248

 2017-02-05 15:05:35.837065+01 | 1486303535.83706 | pgbench_branches_pkey |            40960
 2017-02-05 15:05:35.837065+01 | 1486303535.83706 | pgbench_tellers_pkey  |           245760
 2017-02-05 15:05:35.837065+01 | 1486303535.83706 | pgbench_accounts_pkey |       2246197248

 2017-02-05 15:05:36.913509+01 | 1486303536.91351 | pgbench_branches_pkey |            40960
 2017-02-05 15:05:36.913509+01 | 1486303536.91351 | pgbench_tellers_pkey  |           245760
 2017-02-05 15:05:36.913509+01 | 1486303536.91351 | pgbench_accounts_pkey |       2246197248

 2017-02-05 15:05:37.995137+01 | 1486303537.99514 | pgbench_branches_pkey |            40960
 2017-02-05 15:05:37.995137+01 | 1486303537.99514 | pgbench_tellers_pkey  |           245760
 2017-02-05 15:05:37.995137+01 | 1486303537.99514 | pgbench_accounts_pkey |       2246197248

 2017-02-05 15:05:39.081383+01 | 1486303539.08138 | pgbench_branches_pkey |            40960
 2017-02-05 15:05:39.081383+01 | 1486303539.08138 | pgbench_tellers_pkey  |           245760
 2017-02-05 15:05:39.081383+01 | 1486303539.08138 | pgbench_accounts_pkey |       2246197248

 2017-02-05 15:05:40.16395+01 | 1486303540.16395 | pgbench_branches_pkey |            40960
 2017-02-05 15:05:40.16395+01 | 1486303540.16395 | pgbench_tellers_pkey  |           245760
 2017-02-05 15:05:40.16395+01 | 1486303540.16395 | pgbench_accounts_pkey |       2246197248

 2017-02-05 15:05:41.238455+01 | 1486303541.23846 | pgbench_branches_pkey |            40960
 2017-02-05 15:05:41.238455+01 | 1486303541.23846 | pgbench_tellers_pkey  |           245760
 2017-02-05 15:05:41.238455+01 | 1486303541.23846 | pgbench_accounts_pkey |       2246197248

 2017-02-05 15:05:42.324256+01 | 1486303542.32426 | pgbench_branches_pkey |            40960
 2017-02-05 15:05:42.324256+01 | 1486303542.32426 | pgbench_tellers_pkey  |           245760
 2017-02-05 15:05:42.324256+01 | 1486303542.32426 | pgbench_accounts_pkey |       2246197248

 2017-02-05 15:05:43.414644+01 | 1486303543.41464 | pgbench_branches_pkey |            40960
 2017-02-05 15:05:43.414644+01 | 1486303543.41464 | pgbench_tellers_pkey  |           245760
 2017-02-05 15:05:43.414644+01 | 1486303543.41464 | pgbench_accounts_pkey |       2246197248

 2017-02-05 15:05:44.489483+01 | 1486303544.48948 | pgbench_branches_pkey |            40960
 2017-02-05 15:05:44.489483+01 | 1486303544.48948 | pgbench_tellers_pkey  |           245760
 2017-02-05 15:05:44.489483+01 | 1486303544.48948 | pgbench_accounts_pkey |       2246197248

 2017-02-05 15:05:45.568574+01 | 1486303545.56857 | pgbench_branches_pkey |            40960
 2017-02-05 15:05:45.568574+01 | 1486303545.56857 | pgbench_tellers_pkey  |           245760
 2017-02-05 15:05:45.568574+01 | 1486303545.56857 | pgbench_accounts_pkey |       2246197248

 2017-02-05 15:05:46.641832+01 | 1486303546.64183 | pgbench_branches_pkey |            40960
 2017-02-05 15:05:46.641832+01 | 1486303546.64183 | pgbench_tellers_pkey  |           245760
 2017-02-05 15:05:46.641832+01 | 1486303546.64183 | pgbench_accounts_pkey |       2246197248

 2017-02-05 15:05:47.733612+01 | 1486303547.73361 | pgbench_branches_pkey |            40960
 2017-02-05 15:05:47.733612+01 | 1486303547.73361 | pgbench_tellers_pkey  |           245760
 2017-02-05 15:05:47.733612+01 | 1486303547.73361 | pgbench_accounts_pkey |       2246197248

 2017-02-05 15:05:48.807007+01 | 1486303548.80701 | pgbench_branches_pkey |            40960
 2017-02-05 15:05:48.807007+01 | 1486303548.80701 | pgbench_tellers_pkey  |           245760
 2017-02-05 15:05:48.807007+01 | 1486303548.80701 | pgbench_accounts_pkey |       2246197248

 2017-02-05 15:05:49.889076+01 | 1486303549.88908 | pgbench_branches_pkey |            40960
 2017-02-05 15:05:49.889076+01 | 1486303549.88908 | pgbench_tellers_pkey  |           245760
 2017-02-05 15:05:49.889076+01 | 1486303549.88908 | pgbench_accounts_pkey |       2246197248

 2017-02-05 15:05:50.96602+01 | 1486303550.96602 | pgbench_branches_pkey |            40960
 2017-02-05 15:05:50.96602+01 | 1486303550.96602 | pgbench_tellers_pkey  |           245760
 2017-02-05 15:05:50.96602+01 | 1486303550.96602 | pgbench_accounts_pkey |       2246197248

 2017-02-05 15:05:52.043549+01 | 1486303552.04355 | pgbench_branches_pkey |            40960
 2017-02-05 15:05:52.043549+01 | 1486303552.04355 | pgbench_tellers_pkey  |           245760
 2017-02-05 15:05:52.043549+01 | 1486303552.04355 | pgbench_accounts_pkey |       2246197248

 2017-02-05 15:05:53.119926+01 | 1486303553.11993 | pgbench_branches_pkey |            40960
 2017-02-05 15:05:53.119926+01 | 1486303553.11993 | pgbench_tellers_pkey  |           245760
 2017-02-05 15:05:53.119926+01 | 1486303553.11993 | pgbench_accounts_pkey |       2246197248

 2017-02-05 15:05:54.196545+01 | 1486303554.19654 | pgbench_branches_pkey |            40960
 2017-02-05 15:05:54.196545+01 | 1486303554.19654 | pgbench_tellers_pkey  |           245760
 2017-02-05 15:05:54.196545+01 | 1486303554.19654 | pgbench_accounts_pkey |       2246197248

 2017-02-05 15:05:55.275319+01 | 1486303555.27532 | pgbench_branches_pkey |            40960
 2017-02-05 15:05:55.275319+01 | 1486303555.27532 | pgbench_tellers_pkey  |           245760
 2017-02-05 15:05:55.275319+01 | 1486303555.27532 | pgbench_accounts_pkey |       2246197248

 2017-02-05 15:05:56.365508+01 | 1486303556.36551 | pgbench_branches_pkey |            40960
 2017-02-05 15:05:56.365508+01 | 1486303556.36551 | pgbench_tellers_pkey  |           245760
 2017-02-05 15:05:56.365508+01 | 1486303556.36551 | pgbench_accounts_pkey |       2246197248

 2017-02-05 15:05:57.446874+01 | 1486303557.44687 | pgbench_branches_pkey |            40960
 2017-02-05 15:05:57.446874+01 | 1486303557.44687 | pgbench_tellers_pkey  |           245760
 2017-02-05 15:05:57.446874+01 | 1486303557.44687 | pgbench_accounts_pkey |       2246197248

 2017-02-05 15:05:58.523205+01 | 1486303558.52321 | pgbench_branches_pkey |            40960
 2017-02-05 15:05:58.523205+01 | 1486303558.52321 | pgbench_tellers_pkey  |           245760
 2017-02-05 15:05:58.523205+01 | 1486303558.52321 | pgbench_accounts_pkey |       2246197248

 2017-02-05 15:05:59.605261+01 | 1486303559.60526 | pgbench_branches_pkey |            40960
 2017-02-05 15:05:59.605261+01 | 1486303559.60526 | pgbench_tellers_pkey  |           245760
 2017-02-05 15:05:59.605261+01 | 1486303559.60526 | pgbench_accounts_pkey |       2246197248

 2017-02-05 15:06:00.678314+01 | 1486303560.67831 | pgbench_branches_pkey |            40960
 2017-02-05 15:06:00.678314+01 | 1486303560.67831 | pgbench_tellers_pkey  |           245760
 2017-02-05 15:06:00.678314+01 | 1486303560.67831 | pgbench_accounts_pkey |       2246197248

 2017-02-05 15:06:01.756221+01 | 1486303561.75622 | pgbench_branches_pkey |            40960
 2017-02-05 15:06:01.756221+01 | 1486303561.75622 | pgbench_tellers_pkey  |           245760
 2017-02-05 15:06:01.756221+01 | 1486303561.75622 | pgbench_accounts_pkey |       2246197248

 2017-02-05 15:06:02.830898+01 | 1486303562.8309 | pgbench_branches_pkey |            40960
 2017-02-05 15:06:02.830898+01 | 1486303562.8309 | pgbench_tellers_pkey  |           245760
 2017-02-05 15:06:02.830898+01 | 1486303562.8309 | pgbench_accounts_pkey |       2246197248

 2017-02-05 15:06:03.913594+01 | 1486303563.91359 | pgbench_branches_pkey |            40960
 2017-02-05 15:06:03.913594+01 | 1486303563.91359 | pgbench_tellers_pkey  |           245760
 2017-02-05 15:06:03.913594+01 | 1486303563.91359 | pgbench_accounts_pkey |       2246197248

 2017-02-05 15:06:04.990754+01 | 1486303564.99075 | pgbench_branches_pkey |            40960
 2017-02-05 15:06:04.990754+01 | 1486303564.99075 | pgbench_tellers_pkey  |           245760
 2017-02-05 15:06:04.990754+01 | 1486303564.99075 | pgbench_accounts_pkey |       2246197248

 2017-02-05 15:06:06.06665+01 | 1486303566.06665 | pgbench_branches_pkey |            40960
 2017-02-05 15:06:06.06665+01 | 1486303566.06665 | pgbench_tellers_pkey  |           245760
 2017-02-05 15:06:06.06665+01 | 1486303566.06665 | pgbench_accounts_pkey |       2246197248

 2017-02-05 15:06:07.140988+01 | 1486303567.14099 | pgbench_branches_pkey |            40960
 2017-02-05 15:06:07.140988+01 | 1486303567.14099 | pgbench_tellers_pkey  |           245760
 2017-02-05 15:06:07.140988+01 | 1486303567.14099 | pgbench_accounts_pkey |       2246197248

 2017-02-05 15:06:08.222873+01 | 1486303568.22287 | pgbench_branches_pkey |            40960
 2017-02-05 15:06:08.222873+01 | 1486303568.22287 | pgbench_tellers_pkey  |           245760
 2017-02-05 15:06:08.222873+01 | 1486303568.22287 | pgbench_accounts_pkey |       2246197248

 2017-02-05 15:06:09.305748+01 | 1486303569.30575 | pgbench_branches_pkey |            40960
 2017-02-05 15:06:09.305748+01 | 1486303569.30575 | pgbench_tellers_pkey  |           245760
 2017-02-05 15:06:09.305748+01 | 1486303569.30575 | pgbench_accounts_pkey |       2246197248

 2017-02-05 15:06:10.383497+01 | 1486303570.3835 | pgbench_branches_pkey |            40960
 2017-02-05 15:06:10.383497+01 | 1486303570.3835 | pgbench_tellers_pkey  |           245760
 2017-02-05 15:06:10.383497+01 | 1486303570.3835 | pgbench_accounts_pkey |       2246197248

 2017-02-05 15:06:11.468515+01 | 1486303571.46851 | pgbench_branches_pkey |            40960
 2017-02-05 15:06:11.468515+01 | 1486303571.46851 | pgbench_tellers_pkey  |           245760
 2017-02-05 15:06:11.468515+01 | 1486303571.46851 | pgbench_accounts_pkey |       2246197248

 2017-02-05 15:06:12.545266+01 | 1486303572.54527 | pgbench_branches_pkey |            40960
 2017-02-05 15:06:12.545266+01 | 1486303572.54527 | pgbench_tellers_pkey  |           245760
 2017-02-05 15:06:12.545266+01 | 1486303572.54527 | pgbench_accounts_pkey |       2246197248

 2017-02-05 15:06:13.620907+01 | 1486303573.62091 | pgbench_branches_pkey |            40960
 2017-02-05 15:06:13.620907+01 | 1486303573.62091 | pgbench_tellers_pkey  |           245760
 2017-02-05 15:06:13.620907+01 | 1486303573.62091 | pgbench_accounts_pkey |       2246197248

 2017-02-05 15:06:14.697462+01 | 1486303574.69746 | pgbench_branches_pkey |            40960
 2017-02-05 15:06:14.697462+01 | 1486303574.69746 | pgbench_tellers_pkey  |           245760
 2017-02-05 15:06:14.697462+01 | 1486303574.69746 | pgbench_accounts_pkey |       2246197248

 2017-02-05 15:06:15.769251+01 | 1486303575.76925 | pgbench_branches_pkey |            40960
 2017-02-05 15:06:15.769251+01 | 1486303575.76925 | pgbench_tellers_pkey  |           245760
 2017-02-05 15:06:15.769251+01 | 1486303575.76925 | pgbench_accounts_pkey |       2246197248

 2017-02-05 15:06:16.850278+01 | 1486303576.85028 | pgbench_branches_pkey |            40960
 2017-02-05 15:06:16.850278+01 | 1486303576.85028 | pgbench_tellers_pkey  |           245760
 2017-02-05 15:06:16.850278+01 | 1486303576.85028 | pgbench_accounts_pkey |       2246197248

 2017-02-05 15:06:17.92806+01 | 1486303577.92806 | pgbench_branches_pkey |            40960
 2017-02-05 15:06:17.92806+01 | 1486303577.92806 | pgbench_tellers_pkey  |           245760
 2017-02-05 15:06:17.92806+01 | 1486303577.92806 | pgbench_accounts_pkey |       2246197248

 2017-02-05 15:06:19.003138+01 | 1486303579.00314 | pgbench_branches_pkey |            40960
 2017-02-05 15:06:19.003138+01 | 1486303579.00314 | pgbench_tellers_pkey  |           245760
 2017-02-05 15:06:19.003138+01 | 1486303579.00314 | pgbench_accounts_pkey |       2246197248

 2017-02-05 15:06:20.083907+01 | 1486303580.08391 | pgbench_branches_pkey |            40960
 2017-02-05 15:06:20.083907+01 | 1486303580.08391 | pgbench_tellers_pkey  |           245760
 2017-02-05 15:06:20.083907+01 | 1486303580.08391 | pgbench_accounts_pkey |       2246197248

 2017-02-05 15:06:21.158253+01 | 1486303581.15825 | pgbench_branches_pkey |            40960
 2017-02-05 15:06:21.158253+01 | 1486303581.15825 | pgbench_tellers_pkey  |           245760
 2017-02-05 15:06:21.158253+01 | 1486303581.15825 | pgbench_accounts_pkey |       2246197248

 2017-02-05 15:06:22.231801+01 | 1486303582.2318 | pgbench_branches_pkey |            40960
 2017-02-05 15:06:22.231801+01 | 1486303582.2318 | pgbench_tellers_pkey  |           245760
 2017-02-05 15:06:22.231801+01 | 1486303582.2318 | pgbench_accounts_pkey |       2246197248

 2017-02-05 15:06:23.306839+01 | 1486303583.30684 | pgbench_branches_pkey |            40960
 2017-02-05 15:06:23.306839+01 | 1486303583.30684 | pgbench_tellers_pkey  |           245760
 2017-02-05 15:06:23.306839+01 | 1486303583.30684 | pgbench_accounts_pkey |       2246197248

 2017-02-05 15:06:24.383759+01 | 1486303584.38376 | pgbench_branches_pkey |            40960
 2017-02-05 15:06:24.383759+01 | 1486303584.38376 | pgbench_tellers_pkey  |           245760
 2017-02-05 15:06:24.383759+01 | 1486303584.38376 | pgbench_accounts_pkey |       2246197248

 2017-02-05 15:06:25.465589+01 | 1486303585.46559 | pgbench_branches_pkey |            40960
 2017-02-05 15:06:25.465589+01 | 1486303585.46559 | pgbench_tellers_pkey  |           245760
 2017-02-05 15:06:25.465589+01 | 1486303585.46559 | pgbench_accounts_pkey |       2246197248

 2017-02-05 15:06:26.555943+01 | 1486303586.55594 | pgbench_branches_pkey |            40960
 2017-02-05 15:06:26.555943+01 | 1486303586.55594 | pgbench_tellers_pkey  |           245760
 2017-02-05 15:06:26.555943+01 | 1486303586.55594 | pgbench_accounts_pkey |       2246197248

 2017-02-05 15:06:27.633655+01 | 1486303587.63366 | pgbench_branches_pkey |            40960
 2017-02-05 15:06:27.633655+01 | 1486303587.63366 | pgbench_tellers_pkey  |           245760
 2017-02-05 15:06:27.633655+01 | 1486303587.63366 | pgbench_accounts_pkey |       2246197248

 2017-02-05 15:06:28.715281+01 | 1486303588.71528 | pgbench_branches_pkey |            40960
 2017-02-05 15:06:28.715281+01 | 1486303588.71528 | pgbench_tellers_pkey  |           245760
 2017-02-05 15:06:28.715281+01 | 1486303588.71528 | pgbench_accounts_pkey |       2246197248

 2017-02-05 15:06:29.795468+01 | 1486303589.79547 | pgbench_branches_pkey |            40960
 2017-02-05 15:06:29.795468+01 | 1486303589.79547 | pgbench_tellers_pkey  |           245760
 2017-02-05 15:06:29.795468+01 | 1486303589.79547 | pgbench_accounts_pkey |       2246197248

 2017-02-05 15:06:30.867312+01 | 1486303590.86731 | pgbench_branches_pkey |            40960
 2017-02-05 15:06:30.867312+01 | 1486303590.86731 | pgbench_tellers_pkey  |           245760
 2017-02-05 15:06:30.867312+01 | 1486303590.86731 | pgbench_accounts_pkey |       2246197248

 2017-02-05 15:06:31.951427+01 | 1486303591.95143 | pgbench_branches_pkey |            40960
 2017-02-05 15:06:31.951427+01 | 1486303591.95143 | pgbench_tellers_pkey  |           245760
 2017-02-05 15:06:31.951427+01 | 1486303591.95143 | pgbench_accounts_pkey |       2246197248

 2017-02-05 15:06:33.02999+01 | 1486303593.02999 | pgbench_branches_pkey |            40960
 2017-02-05 15:06:33.02999+01 | 1486303593.02999 | pgbench_tellers_pkey  |           245760
 2017-02-05 15:06:33.02999+01 | 1486303593.02999 | pgbench_accounts_pkey |       2246197248

 2017-02-05 15:06:34.109754+01 | 1486303594.10975 | pgbench_branches_pkey |            40960
 2017-02-05 15:06:34.109754+01 | 1486303594.10975 | pgbench_tellers_pkey  |           245760
 2017-02-05 15:06:34.109754+01 | 1486303594.10975 | pgbench_accounts_pkey |       2246197248

 2017-02-05 15:06:35.18804+01 | 1486303595.18804 | pgbench_branches_pkey |            40960
 2017-02-05 15:06:35.18804+01 | 1486303595.18804 | pgbench_tellers_pkey  |           245760
 2017-02-05 15:06:35.18804+01 | 1486303595.18804 | pgbench_accounts_pkey |       2246197248

 2017-02-05 15:06:36.266165+01 | 1486303596.26617 | pgbench_branches_pkey |            40960
 2017-02-05 15:06:36.266165+01 | 1486303596.26617 | pgbench_tellers_pkey  |           245760
 2017-02-05 15:06:36.266165+01 | 1486303596.26617 | pgbench_accounts_pkey |       2246197248

 2017-02-05 15:06:37.346209+01 | 1486303597.34621 | pgbench_branches_pkey |            40960
 2017-02-05 15:06:37.346209+01 | 1486303597.34621 | pgbench_tellers_pkey  |           245760
 2017-02-05 15:06:37.346209+01 | 1486303597.34621 | pgbench_accounts_pkey |       2246197248

 2017-02-05 15:06:38.429776+01 | 1486303598.42978 | pgbench_branches_pkey |            40960
 2017-02-05 15:06:38.429776+01 | 1486303598.42978 | pgbench_tellers_pkey  |           245760
 2017-02-05 15:06:38.429776+01 | 1486303598.42978 | pgbench_accounts_pkey |       2246197248

 2017-02-05 15:06:39.509131+01 | 1486303599.50913 | pgbench_branches_pkey |            40960
 2017-02-05 15:06:39.509131+01 | 1486303599.50913 | pgbench_tellers_pkey  |           245760
 2017-02-05 15:06:39.509131+01 | 1486303599.50913 | pgbench_accounts_pkey |       2246197248

 2017-02-05 15:06:40.595988+01 | 1486303600.59599 | pgbench_branches_pkey |            40960
 2017-02-05 15:06:40.595988+01 | 1486303600.59599 | pgbench_tellers_pkey  |           245760
 2017-02-05 15:06:40.595988+01 | 1486303600.59599 | pgbench_accounts_pkey |       2246197248

 2017-02-05 15:06:41.669932+01 | 1486303601.66993 | pgbench_branches_pkey |            40960
 2017-02-05 15:06:41.669932+01 | 1486303601.66993 | pgbench_tellers_pkey  |           245760
 2017-02-05 15:06:41.669932+01 | 1486303601.66993 | pgbench_accounts_pkey |       2246197248

 2017-02-05 15:06:42.750083+01 | 1486303602.75008 | pgbench_branches_pkey |            40960
 2017-02-05 15:06:42.750083+01 | 1486303602.75008 | pgbench_tellers_pkey  |           245760
 2017-02-05 15:06:42.750083+01 | 1486303602.75008 | pgbench_accounts_pkey |       2246197248

 2017-02-05 15:06:43.834952+01 | 1486303603.83495 | pgbench_branches_pkey |            40960
 2017-02-05 15:06:43.834952+01 | 1486303603.83495 | pgbench_tellers_pkey  |           245760
 2017-02-05 15:06:43.834952+01 | 1486303603.83495 | pgbench_accounts_pkey |       2246197248

 2017-02-05 15:06:44.913426+01 | 1486303604.91343 | pgbench_branches_pkey |            40960
 2017-02-05 15:06:44.913426+01 | 1486303604.91343 | pgbench_tellers_pkey  |           245760
 2017-02-05 15:06:44.913426+01 | 1486303604.91343 | pgbench_accounts_pkey |       2246197248

 2017-02-05 15:06:45.989733+01 | 1486303605.98973 | pgbench_branches_pkey |            40960
 2017-02-05 15:06:45.989733+01 | 1486303605.98973 | pgbench_tellers_pkey  |           245760
 2017-02-05 15:06:45.989733+01 | 1486303605.98973 | pgbench_accounts_pkey |       2246197248

 2017-02-05 15:06:47.07011+01 | 1486303607.07011 | pgbench_branches_pkey |            40960
 2017-02-05 15:06:47.07011+01 | 1486303607.07011 | pgbench_tellers_pkey  |           245760
 2017-02-05 15:06:47.07011+01 | 1486303607.07011 | pgbench_accounts_pkey |       2246197248

 2017-02-05 15:06:48.144253+01 | 1486303608.14425 | pgbench_branches_pkey |            40960
 2017-02-05 15:06:48.144253+01 | 1486303608.14425 | pgbench_tellers_pkey  |           245760
 2017-02-05 15:06:48.144253+01 | 1486303608.14425 | pgbench_accounts_pkey |       2246197248

 2017-02-05 15:06:49.219016+01 | 1486303609.21902 | pgbench_branches_pkey |            40960
 2017-02-05 15:06:49.219016+01 | 1486303609.21902 | pgbench_tellers_pkey  |           245760
 2017-02-05 15:06:49.219016+01 | 1486303609.21902 | pgbench_accounts_pkey |       2246197248

 2017-02-05 15:06:50.293732+01 | 1486303610.29373 | pgbench_branches_pkey |            40960
 2017-02-05 15:06:50.293732+01 | 1486303610.29373 | pgbench_tellers_pkey  |           245760
 2017-02-05 15:06:50.293732+01 | 1486303610.29373 | pgbench_accounts_pkey |       2246197248

 2017-02-05 15:06:51.371263+01 | 1486303611.37126 | pgbench_branches_pkey |            40960
 2017-02-05 15:06:51.371263+01 | 1486303611.37126 | pgbench_tellers_pkey  |           245760
 2017-02-05 15:06:51.371263+01 | 1486303611.37126 | pgbench_accounts_pkey |       2246197248

 2017-02-05 15:06:52.45038+01 | 1486303612.45038 | pgbench_branches_pkey |            40960
 2017-02-05 15:06:52.45038+01 | 1486303612.45038 | pgbench_tellers_pkey  |           245760
 2017-02-05 15:06:52.45038+01 | 1486303612.45038 | pgbench_accounts_pkey |       2246197248

 2017-02-05 15:06:53.521692+01 | 1486303613.52169 | pgbench_branches_pkey |            40960
 2017-02-05 15:06:53.521692+01 | 1486303613.52169 | pgbench_tellers_pkey  |           245760
 2017-02-05 15:06:53.521692+01 | 1486303613.52169 | pgbench_accounts_pkey |       2246197248

 2017-02-05 15:06:54.592251+01 | 1486303614.59225 | pgbench_branches_pkey |            40960
 2017-02-05 15:06:54.592251+01 | 1486303614.59225 | pgbench_tellers_pkey  |           245760
 2017-02-05 15:06:54.592251+01 | 1486303614.59225 | pgbench_accounts_pkey |       2246197248

