 2017-02-05 15:01:55.555969+01 | 1486303315.55597 | pgbench_accounts |      13768179712
 2017-02-05 15:01:55.555969+01 | 1486303315.55597 | pgbench_tellers  |           450560
 2017-02-05 15:01:55.555969+01 | 1486303315.55597 | pgbench_history  |           679936
 2017-02-05 15:01:55.555969+01 | 1486303315.55597 | pgbench_branches |            40960

 2017-02-05 15:01:56.646762+01 | 1486303316.64676 | pgbench_accounts |      13768179712
 2017-02-05 15:01:56.646762+01 | 1486303316.64676 | pgbench_tellers  |           450560
 2017-02-05 15:01:56.646762+01 | 1486303316.64676 | pgbench_history  |          1687552
 2017-02-05 15:01:56.646762+01 | 1486303316.64676 | pgbench_branches |            40960

 2017-02-05 15:01:57.722913+01 | 1486303317.72291 | pgbench_accounts |      13768179712
 2017-02-05 15:01:57.722913+01 | 1486303317.72291 | pgbench_tellers  |           450560
 2017-02-05 15:01:57.722913+01 | 1486303317.72291 | pgbench_history  |          3424256
 2017-02-05 15:01:57.722913+01 | 1486303317.72291 | pgbench_branches |            40960

 2017-02-05 15:01:58.80501+01 | 1486303318.80501 | pgbench_accounts |      13768179712
 2017-02-05 15:01:58.80501+01 | 1486303318.80501 | pgbench_tellers  |           450560
 2017-02-05 15:01:58.80501+01 | 1486303318.80501 | pgbench_history  |          4947968
 2017-02-05 15:01:58.80501+01 | 1486303318.80501 | pgbench_branches |            40960

 2017-02-05 15:01:59.884932+01 | 1486303319.88493 | pgbench_accounts |      13768179712
 2017-02-05 15:01:59.884932+01 | 1486303319.88493 | pgbench_tellers  |           450560
 2017-02-05 15:01:59.884932+01 | 1486303319.88493 | pgbench_history  |          6512640
 2017-02-05 15:01:59.884932+01 | 1486303319.88493 | pgbench_branches |            40960

 2017-02-05 15:02:00.966464+01 | 1486303320.96646 | pgbench_accounts |      13768179712
 2017-02-05 15:02:00.966464+01 | 1486303320.96646 | pgbench_tellers  |           450560
 2017-02-05 15:02:00.966464+01 | 1486303320.96646 | pgbench_history  |          8044544
 2017-02-05 15:02:00.966464+01 | 1486303320.96646 | pgbench_branches |            40960

 2017-02-05 15:02:02.047219+01 | 1486303322.04722 | pgbench_accounts |      13768179712
 2017-02-05 15:02:02.047219+01 | 1486303322.04722 | pgbench_tellers  |           450560
 2017-02-05 15:02:02.047219+01 | 1486303322.04722 | pgbench_history  |          9822208
 2017-02-05 15:02:02.047219+01 | 1486303322.04722 | pgbench_branches |            40960

 2017-02-05 15:02:03.128038+01 | 1486303323.12804 | pgbench_accounts |      13768179712
 2017-02-05 15:02:03.128038+01 | 1486303323.12804 | pgbench_tellers  |           450560
 2017-02-05 15:02:03.128038+01 | 1486303323.12804 | pgbench_history  |         11534336
 2017-02-05 15:02:03.128038+01 | 1486303323.12804 | pgbench_branches |            40960

 2017-02-05 15:02:04.203754+01 | 1486303324.20375 | pgbench_accounts |      13768179712
 2017-02-05 15:02:04.203754+01 | 1486303324.20375 | pgbench_tellers  |           450560
 2017-02-05 15:02:04.203754+01 | 1486303324.20375 | pgbench_history  |         13058048
 2017-02-05 15:02:04.203754+01 | 1486303324.20375 | pgbench_branches |            40960

 2017-02-05 15:02:05.279803+01 | 1486303325.2798 | pgbench_accounts |      13768179712
 2017-02-05 15:02:05.279803+01 | 1486303325.2798 | pgbench_tellers  |           450560
 2017-02-05 15:02:05.279803+01 | 1486303325.2798 | pgbench_history  |         14958592
 2017-02-05 15:02:05.279803+01 | 1486303325.2798 | pgbench_branches |            40960

 2017-02-05 15:02:06.353208+01 | 1486303326.35321 | pgbench_accounts |      13768179712
 2017-02-05 15:02:06.353208+01 | 1486303326.35321 | pgbench_tellers  |           450560
 2017-02-05 15:02:06.353208+01 | 1486303326.35321 | pgbench_history  |         16490496
 2017-02-05 15:02:06.353208+01 | 1486303326.35321 | pgbench_branches |            40960

 2017-02-05 15:02:07.43109+01 | 1486303327.43109 | pgbench_accounts |      13768179712
 2017-02-05 15:02:07.43109+01 | 1486303327.43109 | pgbench_tellers  |           450560
 2017-02-05 15:02:07.43109+01 | 1486303327.43109 | pgbench_history  |         18759680
 2017-02-05 15:02:07.43109+01 | 1486303327.43109 | pgbench_branches |            40960

 2017-02-05 15:02:08.509587+01 | 1486303328.50959 | pgbench_accounts |      13768179712
 2017-02-05 15:02:08.509587+01 | 1486303328.50959 | pgbench_tellers  |           450560
 2017-02-05 15:02:08.509587+01 | 1486303328.50959 | pgbench_history  |         20340736
 2017-02-05 15:02:08.509587+01 | 1486303328.50959 | pgbench_branches |            40960

 2017-02-05 15:02:09.5856+01 | 1486303329.5856 | pgbench_accounts |      13768179712
 2017-02-05 15:02:09.5856+01 | 1486303329.5856 | pgbench_tellers  |           450560
 2017-02-05 15:02:09.5856+01 | 1486303329.5856 | pgbench_history  |         21397504
 2017-02-05 15:02:09.5856+01 | 1486303329.5856 | pgbench_branches |            40960

 2017-02-05 15:02:10.65918+01 | 1486303330.65918 | pgbench_accounts |      13768179712
 2017-02-05 15:02:10.65918+01 | 1486303330.65918 | pgbench_tellers  |           450560
 2017-02-05 15:02:10.65918+01 | 1486303330.65918 | pgbench_history  |         23134208
 2017-02-05 15:02:10.65918+01 | 1486303330.65918 | pgbench_branches |            40960

 2017-02-05 15:02:11.744327+01 | 1486303331.74433 | pgbench_accounts |      13768179712
 2017-02-05 15:02:11.744327+01 | 1486303331.74433 | pgbench_tellers  |           450560
 2017-02-05 15:02:11.744327+01 | 1486303331.74433 | pgbench_history  |         24903680
 2017-02-05 15:02:11.744327+01 | 1486303331.74433 | pgbench_branches |            40960

 2017-02-05 15:02:12.824493+01 | 1486303332.82449 | pgbench_accounts |      13768179712
 2017-02-05 15:02:12.824493+01 | 1486303332.82449 | pgbench_tellers  |           450560
 2017-02-05 15:02:12.824493+01 | 1486303332.82449 | pgbench_history  |         26624000
 2017-02-05 15:02:12.824493+01 | 1486303332.82449 | pgbench_branches |            40960

 2017-02-05 15:02:13.904797+01 | 1486303333.9048 | pgbench_accounts |      13768179712
 2017-02-05 15:02:13.904797+01 | 1486303333.9048 | pgbench_tellers  |           450560
 2017-02-05 15:02:13.904797+01 | 1486303333.9048 | pgbench_history  |         28033024
 2017-02-05 15:02:13.904797+01 | 1486303333.9048 | pgbench_branches |            40960

 2017-02-05 15:02:14.992342+01 | 1486303334.99234 | pgbench_accounts |      13768179712
 2017-02-05 15:02:14.992342+01 | 1486303334.99234 | pgbench_tellers  |           450560
 2017-02-05 15:02:14.992342+01 | 1486303334.99234 | pgbench_history  |         29638656
 2017-02-05 15:02:14.992342+01 | 1486303334.99234 | pgbench_branches |            40960

 2017-02-05 15:02:16.076275+01 | 1486303336.07628 | pgbench_accounts |      13768179712
 2017-02-05 15:02:16.076275+01 | 1486303336.07628 | pgbench_tellers  |           450560
 2017-02-05 15:02:16.076275+01 | 1486303336.07628 | pgbench_history  |         31186944
 2017-02-05 15:02:16.076275+01 | 1486303336.07628 | pgbench_branches |            40960

 2017-02-05 15:02:17.151347+01 | 1486303337.15135 | pgbench_accounts |      13768179712
 2017-02-05 15:02:17.151347+01 | 1486303337.15135 | pgbench_tellers  |           450560
 2017-02-05 15:02:17.151347+01 | 1486303337.15135 | pgbench_history  |         32358400
 2017-02-05 15:02:17.151347+01 | 1486303337.15135 | pgbench_branches |            40960

 2017-02-05 15:02:18.23435+01 | 1486303338.23435 | pgbench_accounts |      13768179712
 2017-02-05 15:02:18.23435+01 | 1486303338.23435 | pgbench_tellers  |           450560
 2017-02-05 15:02:18.23435+01 | 1486303338.23435 | pgbench_history  |         34725888
 2017-02-05 15:02:18.23435+01 | 1486303338.23435 | pgbench_branches |            40960

 2017-02-05 15:02:19.316564+01 | 1486303339.31656 | pgbench_accounts |      13768179712
 2017-02-05 15:02:19.316564+01 | 1486303339.31656 | pgbench_tellers  |           450560
 2017-02-05 15:02:19.316564+01 | 1486303339.31656 | pgbench_history  |         35569664
 2017-02-05 15:02:19.316564+01 | 1486303339.31656 | pgbench_branches |            40960

 2017-02-05 15:02:20.393123+01 | 1486303340.39312 | pgbench_accounts |      13768179712
 2017-02-05 15:02:20.393123+01 | 1486303340.39312 | pgbench_tellers  |           450560
 2017-02-05 15:02:20.393123+01 | 1486303340.39312 | pgbench_history  |         36651008
 2017-02-05 15:02:20.393123+01 | 1486303340.39312 | pgbench_branches |            40960

 2017-02-05 15:02:21.471955+01 | 1486303341.47196 | pgbench_accounts |      13768179712
 2017-02-05 15:02:21.471955+01 | 1486303341.47196 | pgbench_tellers  |           450560
 2017-02-05 15:02:21.471955+01 | 1486303341.47196 | pgbench_history  |         38346752
 2017-02-05 15:02:21.471955+01 | 1486303341.47196 | pgbench_branches |            40960

 2017-02-05 15:02:22.548546+01 | 1486303342.54855 | pgbench_accounts |      13768179712
 2017-02-05 15:02:22.548546+01 | 1486303342.54855 | pgbench_tellers  |           450560
 2017-02-05 15:02:22.548546+01 | 1486303342.54855 | pgbench_history  |         40067072
 2017-02-05 15:02:22.548546+01 | 1486303342.54855 | pgbench_branches |            40960

 2017-02-05 15:02:23.628117+01 | 1486303343.62812 | pgbench_accounts |      13768179712
 2017-02-05 15:02:23.628117+01 | 1486303343.62812 | pgbench_tellers  |           450560
 2017-02-05 15:02:23.628117+01 | 1486303343.62812 | pgbench_history  |         41787392
 2017-02-05 15:02:23.628117+01 | 1486303343.62812 | pgbench_branches |            40960

 2017-02-05 15:02:24.709675+01 | 1486303344.70968 | pgbench_accounts |      13768179712
 2017-02-05 15:02:24.709675+01 | 1486303344.70968 | pgbench_tellers  |           450560
 2017-02-05 15:02:24.709675+01 | 1486303344.70968 | pgbench_history  |         42844160
 2017-02-05 15:02:24.709675+01 | 1486303344.70968 | pgbench_branches |            40960

 2017-02-05 15:02:25.79396+01 | 1486303345.79396 | pgbench_accounts |      13768179712
 2017-02-05 15:02:25.79396+01 | 1486303345.79396 | pgbench_tellers  |           450560
 2017-02-05 15:02:25.79396+01 | 1486303345.79396 | pgbench_history  |         45113344
 2017-02-05 15:02:25.79396+01 | 1486303345.79396 | pgbench_branches |            40960

 2017-02-05 15:02:26.876045+01 | 1486303346.87604 | pgbench_accounts |      13768179712
 2017-02-05 15:02:26.876045+01 | 1486303346.87604 | pgbench_tellers  |           450560
 2017-02-05 15:02:26.876045+01 | 1486303346.87604 | pgbench_history  |         46481408
 2017-02-05 15:02:26.876045+01 | 1486303346.87604 | pgbench_branches |            40960

 2017-02-05 15:02:27.954229+01 | 1486303347.95423 | pgbench_accounts |      13768179712
 2017-02-05 15:02:27.954229+01 | 1486303347.95423 | pgbench_tellers  |           450560
 2017-02-05 15:02:27.954229+01 | 1486303347.95423 | pgbench_history  |         47702016
 2017-02-05 15:02:27.954229+01 | 1486303347.95423 | pgbench_branches |            40960

 2017-02-05 15:02:29.031986+01 | 1486303349.03199 | pgbench_accounts |      13768179712
 2017-02-05 15:02:29.031986+01 | 1486303349.03199 | pgbench_tellers  |           450560
 2017-02-05 15:02:29.031986+01 | 1486303349.03199 | pgbench_history  |         49299456
 2017-02-05 15:02:29.031986+01 | 1486303349.03199 | pgbench_branches |            40960

 2017-02-05 15:02:30.115005+01 | 1486303350.11501 | pgbench_accounts |      13768179712
 2017-02-05 15:02:30.115005+01 | 1486303350.11501 | pgbench_tellers  |           450560
 2017-02-05 15:02:30.115005+01 | 1486303350.11501 | pgbench_history  |         51388416
 2017-02-05 15:02:30.115005+01 | 1486303350.11501 | pgbench_branches |            40960

 2017-02-05 15:02:31.196914+01 | 1486303351.19691 | pgbench_accounts |      13768179712
 2017-02-05 15:02:31.196914+01 | 1486303351.19691 | pgbench_tellers  |           450560
 2017-02-05 15:02:31.196914+01 | 1486303351.19691 | pgbench_history  |         52453376
 2017-02-05 15:02:31.196914+01 | 1486303351.19691 | pgbench_branches |            40960

 2017-02-05 15:02:32.280979+01 | 1486303352.28098 | pgbench_accounts |      13768179712
 2017-02-05 15:02:32.280979+01 | 1486303352.28098 | pgbench_tellers  |           450560
 2017-02-05 15:02:32.280979+01 | 1486303352.28098 | pgbench_history  |         54329344
 2017-02-05 15:02:32.280979+01 | 1486303352.28098 | pgbench_branches |            40960

 2017-02-05 15:02:33.353115+01 | 1486303353.35312 | pgbench_accounts |      13768179712
 2017-02-05 15:02:33.353115+01 | 1486303353.35312 | pgbench_tellers  |           450560
 2017-02-05 15:02:33.353115+01 | 1486303353.35312 | pgbench_history  |         55705600
 2017-02-05 15:02:33.353115+01 | 1486303353.35312 | pgbench_branches |            40960

 2017-02-05 15:02:34.434977+01 | 1486303354.43498 | pgbench_accounts |      13768179712
 2017-02-05 15:02:34.434977+01 | 1486303354.43498 | pgbench_tellers  |           450560
 2017-02-05 15:02:34.434977+01 | 1486303354.43498 | pgbench_history  |         57638912
 2017-02-05 15:02:34.434977+01 | 1486303354.43498 | pgbench_branches |            40960

 2017-02-05 15:02:35.518353+01 | 1486303355.51835 | pgbench_accounts |      13768179712
 2017-02-05 15:02:35.518353+01 | 1486303355.51835 | pgbench_tellers  |           450560
 2017-02-05 15:02:35.518353+01 | 1486303355.51835 | pgbench_history  |         59006976
 2017-02-05 15:02:35.518353+01 | 1486303355.51835 | pgbench_branches |            40960

 2017-02-05 15:02:36.594822+01 | 1486303356.59482 | pgbench_accounts |      13768179712
 2017-02-05 15:02:36.594822+01 | 1486303356.59482 | pgbench_tellers  |           450560
 2017-02-05 15:02:36.594822+01 | 1486303356.59482 | pgbench_history  |         60858368
 2017-02-05 15:02:36.594822+01 | 1486303356.59482 | pgbench_branches |            40960

 2017-02-05 15:02:37.673772+01 | 1486303357.67377 | pgbench_accounts |      13768179712
 2017-02-05 15:02:37.673772+01 | 1486303357.67377 | pgbench_tellers  |           450560
 2017-02-05 15:02:37.673772+01 | 1486303357.67377 | pgbench_history  |         62734336
 2017-02-05 15:02:37.673772+01 | 1486303357.67377 | pgbench_branches |            40960

 2017-02-05 15:02:38.750738+01 | 1486303358.75074 | pgbench_accounts |      13768179712
 2017-02-05 15:02:38.750738+01 | 1486303358.75074 | pgbench_tellers  |           450560
 2017-02-05 15:02:38.750738+01 | 1486303358.75074 | pgbench_history  |         64446464
 2017-02-05 15:02:38.750738+01 | 1486303358.75074 | pgbench_branches |            40960

 2017-02-05 15:02:39.8268+01 | 1486303359.8268 | pgbench_accounts |      13768179712
 2017-02-05 15:02:39.8268+01 | 1486303359.8268 | pgbench_tellers  |           450560
 2017-02-05 15:02:39.8268+01 | 1486303359.8268 | pgbench_history  |         65642496
 2017-02-05 15:02:39.8268+01 | 1486303359.8268 | pgbench_branches |            40960

 2017-02-05 15:02:40.901943+01 | 1486303360.90194 | pgbench_accounts |      13768179712
 2017-02-05 15:02:40.901943+01 | 1486303360.90194 | pgbench_tellers  |           450560
 2017-02-05 15:02:40.901943+01 | 1486303360.90194 | pgbench_history  |         67215360
 2017-02-05 15:02:40.901943+01 | 1486303360.90194 | pgbench_branches |            40960

 2017-02-05 15:02:41.984354+01 | 1486303361.98435 | pgbench_accounts |      13768179712
 2017-02-05 15:02:41.984354+01 | 1486303361.98435 | pgbench_tellers  |           450560
 2017-02-05 15:02:41.984354+01 | 1486303361.98435 | pgbench_history  |         68624384
 2017-02-05 15:02:41.984354+01 | 1486303361.98435 | pgbench_branches |            40960

 2017-02-05 15:02:43.059147+01 | 1486303363.05915 | pgbench_accounts |      13768179712
 2017-02-05 15:02:43.059147+01 | 1486303363.05915 | pgbench_tellers  |           450560
 2017-02-05 15:02:43.059147+01 | 1486303363.05915 | pgbench_history  |         70680576
 2017-02-05 15:02:43.059147+01 | 1486303363.05915 | pgbench_branches |            40960

 2017-02-05 15:02:44.144192+01 | 1486303364.14419 | pgbench_accounts |      13768179712
 2017-02-05 15:02:44.144192+01 | 1486303364.14419 | pgbench_tellers  |           450560
 2017-02-05 15:02:44.144192+01 | 1486303364.14419 | pgbench_history  |         71974912
 2017-02-05 15:02:44.144192+01 | 1486303364.14419 | pgbench_branches |            40960

 2017-02-05 15:02:45.228341+01 | 1486303365.22834 | pgbench_accounts |      13768179712
 2017-02-05 15:02:45.228341+01 | 1486303365.22834 | pgbench_tellers  |           450560
 2017-02-05 15:02:45.228341+01 | 1486303365.22834 | pgbench_history  |         73564160
 2017-02-05 15:02:45.228341+01 | 1486303365.22834 | pgbench_branches |            40960

 2017-02-05 15:02:46.304147+01 | 1486303366.30415 | pgbench_accounts |      13768179712
 2017-02-05 15:02:46.304147+01 | 1486303366.30415 | pgbench_tellers  |           450560
 2017-02-05 15:02:46.304147+01 | 1486303366.30415 | pgbench_history  |         75284480
 2017-02-05 15:02:46.304147+01 | 1486303366.30415 | pgbench_branches |            40960

 2017-02-05 15:02:47.389674+01 | 1486303367.38967 | pgbench_accounts |      13768179712
 2017-02-05 15:02:47.389674+01 | 1486303367.38967 | pgbench_tellers  |           450560
 2017-02-05 15:02:47.389674+01 | 1486303367.38967 | pgbench_history  |         77029376
 2017-02-05 15:02:47.389674+01 | 1486303367.38967 | pgbench_branches |            40960

 2017-02-05 15:02:48.472623+01 | 1486303368.47262 | pgbench_accounts |      13768179712
 2017-02-05 15:02:48.472623+01 | 1486303368.47262 | pgbench_tellers  |           450560
 2017-02-05 15:02:48.472623+01 | 1486303368.47262 | pgbench_history  |         78422016
 2017-02-05 15:02:48.472623+01 | 1486303368.47262 | pgbench_branches |            40960

 2017-02-05 15:02:49.559185+01 | 1486303369.55919 | pgbench_accounts |      13768179712
 2017-02-05 15:02:49.559185+01 | 1486303369.55919 | pgbench_tellers  |           450560
 2017-02-05 15:02:49.559185+01 | 1486303369.55919 | pgbench_history  |         80003072
 2017-02-05 15:02:49.559185+01 | 1486303369.55919 | pgbench_branches |            40960

 2017-02-05 15:02:50.635851+01 | 1486303370.63585 | pgbench_accounts |      13768179712
 2017-02-05 15:02:50.635851+01 | 1486303370.63585 | pgbench_tellers  |           450560
 2017-02-05 15:02:50.635851+01 | 1486303370.63585 | pgbench_history  |         81543168
 2017-02-05 15:02:50.635851+01 | 1486303370.63585 | pgbench_branches |            40960

 2017-02-05 15:02:51.717662+01 | 1486303371.71766 | pgbench_accounts |      13768179712
 2017-02-05 15:02:51.717662+01 | 1486303371.71766 | pgbench_tellers  |           450560
 2017-02-05 15:02:51.717662+01 | 1486303371.71766 | pgbench_history  |         83271680
 2017-02-05 15:02:51.717662+01 | 1486303371.71766 | pgbench_branches |            40960

 2017-02-05 15:02:52.805012+01 | 1486303372.80501 | pgbench_accounts |      13768179712
 2017-02-05 15:02:52.805012+01 | 1486303372.80501 | pgbench_tellers  |           450560
 2017-02-05 15:02:52.805012+01 | 1486303372.80501 | pgbench_history  |         84869120
 2017-02-05 15:02:52.805012+01 | 1486303372.80501 | pgbench_branches |            40960

 2017-02-05 15:02:53.882726+01 | 1486303373.88273 | pgbench_accounts |      13768179712
 2017-02-05 15:02:53.882726+01 | 1486303373.88273 | pgbench_tellers  |           450560
 2017-02-05 15:02:53.882726+01 | 1486303373.88273 | pgbench_history  |         86917120
 2017-02-05 15:02:53.882726+01 | 1486303373.88273 | pgbench_branches |            40960

 2017-02-05 15:02:54.964967+01 | 1486303374.96497 | pgbench_accounts |      13768179712
 2017-02-05 15:02:54.964967+01 | 1486303374.96497 | pgbench_tellers  |           450560
 2017-02-05 15:02:54.964967+01 | 1486303374.96497 | pgbench_history  |         88121344
 2017-02-05 15:02:54.964967+01 | 1486303374.96497 | pgbench_branches |            40960

 2017-02-05 15:02:56.040752+01 | 1486303376.04075 | pgbench_accounts |      13768179712
 2017-02-05 15:02:56.040752+01 | 1486303376.04075 | pgbench_tellers  |           450560
 2017-02-05 15:02:56.040752+01 | 1486303376.04075 | pgbench_history  |         89882624
 2017-02-05 15:02:56.040752+01 | 1486303376.04075 | pgbench_branches |            40960

 2017-02-05 15:02:57.11893+01 | 1486303377.11893 | pgbench_accounts |      13768179712
 2017-02-05 15:02:57.11893+01 | 1486303377.11893 | pgbench_tellers  |           450560
 2017-02-05 15:02:57.11893+01 | 1486303377.11893 | pgbench_history  |         91242496
 2017-02-05 15:02:57.11893+01 | 1486303377.11893 | pgbench_branches |            40960

 2017-02-05 15:02:58.197563+01 | 1486303378.19756 | pgbench_accounts |      13768179712
 2017-02-05 15:02:58.197563+01 | 1486303378.19756 | pgbench_tellers  |           450560
 2017-02-05 15:02:58.197563+01 | 1486303378.19756 | pgbench_history  |         93143040
 2017-02-05 15:02:58.197563+01 | 1486303378.19756 | pgbench_branches |            40960

 2017-02-05 15:02:59.277266+01 | 1486303379.27727 | pgbench_accounts |      13768179712
 2017-02-05 15:02:59.277266+01 | 1486303379.27727 | pgbench_tellers  |           450560
 2017-02-05 15:02:59.277266+01 | 1486303379.27727 | pgbench_history  |         94691328
 2017-02-05 15:02:59.277266+01 | 1486303379.27727 | pgbench_branches |            40960

 2017-02-05 15:03:00.361164+01 | 1486303380.36116 | pgbench_accounts |      13768179712
 2017-02-05 15:03:00.361164+01 | 1486303380.36116 | pgbench_tellers  |           450560
 2017-02-05 15:03:00.361164+01 | 1486303380.36116 | pgbench_history  |         95731712
 2017-02-05 15:03:00.361164+01 | 1486303380.36116 | pgbench_branches |            40960

 2017-02-05 15:03:01.451426+01 | 1486303381.45143 | pgbench_accounts |      13768179712
 2017-02-05 15:03:01.451426+01 | 1486303381.45143 | pgbench_tellers  |           450560
 2017-02-05 15:03:01.451426+01 | 1486303381.45143 | pgbench_history  |         96739328
 2017-02-05 15:03:01.451426+01 | 1486303381.45143 | pgbench_branches |            40960

 2017-02-05 15:03:02.535944+01 | 1486303382.53594 | pgbench_accounts |      13768179712
 2017-02-05 15:03:02.535944+01 | 1486303382.53594 | pgbench_tellers  |           450560
 2017-02-05 15:03:02.535944+01 | 1486303382.53594 | pgbench_history  |         97968128
 2017-02-05 15:03:02.535944+01 | 1486303382.53594 | pgbench_branches |            40960

 2017-02-05 15:03:03.61583+01 | 1486303383.61583 | pgbench_accounts |      13768179712
 2017-02-05 15:03:03.61583+01 | 1486303383.61583 | pgbench_tellers  |           450560
 2017-02-05 15:03:03.61583+01 | 1486303383.61583 | pgbench_history  |        100007936
 2017-02-05 15:03:03.61583+01 | 1486303383.61583 | pgbench_branches |            40960

 2017-02-05 15:03:04.688607+01 | 1486303384.68861 | pgbench_accounts |      13768179712
 2017-02-05 15:03:04.688607+01 | 1486303384.68861 | pgbench_tellers  |           450560
 2017-02-05 15:03:04.688607+01 | 1486303384.68861 | pgbench_history  |        101605376
 2017-02-05 15:03:04.688607+01 | 1486303384.68861 | pgbench_branches |            40960

 2017-02-05 15:03:05.768047+01 | 1486303385.76805 | pgbench_accounts |      13768179712
 2017-02-05 15:03:05.768047+01 | 1486303385.76805 | pgbench_tellers  |           450560
 2017-02-05 15:03:05.768047+01 | 1486303385.76805 | pgbench_history  |        103325696
 2017-02-05 15:03:05.768047+01 | 1486303385.76805 | pgbench_branches |            40960

 2017-02-05 15:03:06.845792+01 | 1486303386.84579 | pgbench_accounts |      13768179712
 2017-02-05 15:03:06.845792+01 | 1486303386.84579 | pgbench_tellers  |           450560
 2017-02-05 15:03:06.845792+01 | 1486303386.84579 | pgbench_history  |        104759296
 2017-02-05 15:03:06.845792+01 | 1486303386.84579 | pgbench_branches |            40960

 2017-02-05 15:03:07.920955+01 | 1486303387.92095 | pgbench_accounts |      13768179712
 2017-02-05 15:03:07.920955+01 | 1486303387.92095 | pgbench_tellers  |           450560
 2017-02-05 15:03:07.920955+01 | 1486303387.92095 | pgbench_history  |        106643456
 2017-02-05 15:03:07.920955+01 | 1486303387.92095 | pgbench_branches |            40960

 2017-02-05 15:03:09.003339+01 | 1486303389.00334 | pgbench_accounts |      13768179712
 2017-02-05 15:03:09.003339+01 | 1486303389.00334 | pgbench_tellers  |           450560
 2017-02-05 15:03:09.003339+01 | 1486303389.00334 | pgbench_history  |        108027904
 2017-02-05 15:03:09.003339+01 | 1486303389.00334 | pgbench_branches |            40960

 2017-02-05 15:03:10.085198+01 | 1486303390.0852 | pgbench_accounts |      13768179712
 2017-02-05 15:03:10.085198+01 | 1486303390.0852 | pgbench_tellers  |           450560
 2017-02-05 15:03:10.085198+01 | 1486303390.0852 | pgbench_history  |        109297664
 2017-02-05 15:03:10.085198+01 | 1486303390.0852 | pgbench_branches |            40960

 2017-02-05 15:03:11.160864+01 | 1486303391.16086 | pgbench_accounts |      13768179712
 2017-02-05 15:03:11.160864+01 | 1486303391.16086 | pgbench_tellers  |           450560
 2017-02-05 15:03:11.160864+01 | 1486303391.16086 | pgbench_history  |        111370240
 2017-02-05 15:03:11.160864+01 | 1486303391.16086 | pgbench_branches |            40960

 2017-02-05 15:03:12.243702+01 | 1486303392.2437 | pgbench_accounts |      13768179712
 2017-02-05 15:03:12.243702+01 | 1486303392.2437 | pgbench_tellers  |           450560
 2017-02-05 15:03:12.243702+01 | 1486303392.2437 | pgbench_history  |        113123328
 2017-02-05 15:03:12.243702+01 | 1486303392.2437 | pgbench_branches |            40960

 2017-02-05 15:03:13.322288+01 | 1486303393.32229 | pgbench_accounts |      13768179712
 2017-02-05 15:03:13.322288+01 | 1486303393.32229 | pgbench_tellers  |           450560
 2017-02-05 15:03:13.322288+01 | 1486303393.32229 | pgbench_history  |        114155520
 2017-02-05 15:03:13.322288+01 | 1486303393.32229 | pgbench_branches |            40960

 2017-02-05 15:03:14.399099+01 | 1486303394.3991 | pgbench_accounts |      13768179712
 2017-02-05 15:03:14.399099+01 | 1486303394.3991 | pgbench_tellers  |           450560
 2017-02-05 15:03:14.399099+01 | 1486303394.3991 | pgbench_history  |        115572736
 2017-02-05 15:03:14.399099+01 | 1486303394.3991 | pgbench_branches |            40960

 2017-02-05 15:03:15.472345+01 | 1486303395.47235 | pgbench_accounts |      13768179712
 2017-02-05 15:03:15.472345+01 | 1486303395.47235 | pgbench_tellers  |           450560
 2017-02-05 15:03:15.472345+01 | 1486303395.47235 | pgbench_history  |        117800960
 2017-02-05 15:03:15.472345+01 | 1486303395.47235 | pgbench_branches |            40960

 2017-02-05 15:03:16.550565+01 | 1486303396.55057 | pgbench_accounts |      13768179712
 2017-02-05 15:03:16.550565+01 | 1486303396.55057 | pgbench_tellers  |           450560
 2017-02-05 15:03:16.550565+01 | 1486303396.55057 | pgbench_history  |        119160832
 2017-02-05 15:03:16.550565+01 | 1486303396.55057 | pgbench_branches |            40960

 2017-02-05 15:03:17.628033+01 | 1486303397.62803 | pgbench_accounts |      13768179712
 2017-02-05 15:03:17.628033+01 | 1486303397.62803 | pgbench_tellers  |           450560
 2017-02-05 15:03:17.628033+01 | 1486303397.62803 | pgbench_history  |        121044992
 2017-02-05 15:03:17.628033+01 | 1486303397.62803 | pgbench_branches |            40960

 2017-02-05 15:03:18.709321+01 | 1486303398.70932 | pgbench_accounts |      13768179712
 2017-02-05 15:03:18.709321+01 | 1486303398.70932 | pgbench_tellers  |           450560
 2017-02-05 15:03:18.709321+01 | 1486303398.70932 | pgbench_history  |        122413056
 2017-02-05 15:03:18.709321+01 | 1486303398.70932 | pgbench_branches |            40960

 2017-02-05 15:03:19.785728+01 | 1486303399.78573 | pgbench_accounts |      13768179712
 2017-02-05 15:03:19.785728+01 | 1486303399.78573 | pgbench_tellers  |           450560
 2017-02-05 15:03:19.785728+01 | 1486303399.78573 | pgbench_history  |        123478016
 2017-02-05 15:03:19.785728+01 | 1486303399.78573 | pgbench_branches |            40960

 2017-02-05 15:03:20.857549+01 | 1486303400.85755 | pgbench_accounts |      13768179712
 2017-02-05 15:03:20.857549+01 | 1486303400.85755 | pgbench_tellers  |           450560
 2017-02-05 15:03:20.857549+01 | 1486303400.85755 | pgbench_history  |        125747200
 2017-02-05 15:03:20.857549+01 | 1486303400.85755 | pgbench_branches |            40960

 2017-02-05 15:03:21.932046+01 | 1486303401.93205 | pgbench_accounts |      13768179712
 2017-02-05 15:03:21.932046+01 | 1486303401.93205 | pgbench_tellers  |           450560
 2017-02-05 15:03:21.932046+01 | 1486303401.93205 | pgbench_history  |        126943232
 2017-02-05 15:03:21.932046+01 | 1486303401.93205 | pgbench_branches |            40960

 2017-02-05 15:03:23.007697+01 | 1486303403.0077 | pgbench_accounts |      13768179712
 2017-02-05 15:03:23.007697+01 | 1486303403.0077 | pgbench_tellers  |           450560
 2017-02-05 15:03:23.007697+01 | 1486303403.0077 | pgbench_history  |        128188416
 2017-02-05 15:03:23.007697+01 | 1486303403.0077 | pgbench_branches |            40960

 2017-02-05 15:03:24.078644+01 | 1486303404.07864 | pgbench_accounts |      13768179712
 2017-02-05 15:03:24.078644+01 | 1486303404.07864 | pgbench_tellers  |           450560
 2017-02-05 15:03:24.078644+01 | 1486303404.07864 | pgbench_history  |        130744320
 2017-02-05 15:03:24.078644+01 | 1486303404.07864 | pgbench_branches |            40960

 2017-02-05 15:03:25.154054+01 | 1486303405.15405 | pgbench_accounts |      13768179712
 2017-02-05 15:03:25.154054+01 | 1486303405.15405 | pgbench_tellers  |           450560
 2017-02-05 15:03:25.154054+01 | 1486303405.15405 | pgbench_history  |        132472832
 2017-02-05 15:03:25.154054+01 | 1486303405.15405 | pgbench_branches |            40960

 2017-02-05 15:03:26.229178+01 | 1486303406.22918 | pgbench_accounts |      13768179712
 2017-02-05 15:03:26.229178+01 | 1486303406.22918 | pgbench_tellers  |           450560
 2017-02-05 15:03:26.229178+01 | 1486303406.22918 | pgbench_history  |        133193728
 2017-02-05 15:03:26.229178+01 | 1486303406.22918 | pgbench_branches |            40960

 2017-02-05 15:03:27.30371+01 | 1486303407.30371 | pgbench_accounts |      13768179712
 2017-02-05 15:03:27.30371+01 | 1486303407.30371 | pgbench_tellers  |           450560
 2017-02-05 15:03:27.30371+01 | 1486303407.30371 | pgbench_history  |        134619136
 2017-02-05 15:03:27.30371+01 | 1486303407.30371 | pgbench_branches |            40960

 2017-02-05 15:03:28.382872+01 | 1486303408.38287 | pgbench_accounts |      13768179712
 2017-02-05 15:03:28.382872+01 | 1486303408.38287 | pgbench_tellers  |           450560
 2017-02-05 15:03:28.382872+01 | 1486303408.38287 | pgbench_history  |        136724480
 2017-02-05 15:03:28.382872+01 | 1486303408.38287 | pgbench_branches |            40960

 2017-02-05 15:03:29.466422+01 | 1486303409.46642 | pgbench_accounts |      13768179712
 2017-02-05 15:03:29.466422+01 | 1486303409.46642 | pgbench_tellers  |           450560
 2017-02-05 15:03:29.466422+01 | 1486303409.46642 | pgbench_history  |        138452992
 2017-02-05 15:03:29.466422+01 | 1486303409.46642 | pgbench_branches |            40960

 2017-02-05 15:03:30.543781+01 | 1486303410.54378 | pgbench_accounts |      13768179712
 2017-02-05 15:03:30.543781+01 | 1486303410.54378 | pgbench_tellers  |           450560
 2017-02-05 15:03:30.543781+01 | 1486303410.54378 | pgbench_history  |        140165120
 2017-02-05 15:03:30.543781+01 | 1486303410.54378 | pgbench_branches |            40960

 2017-02-05 15:03:31.641104+01 | 1486303411.6411 | pgbench_accounts |      13768179712
 2017-02-05 15:03:31.641104+01 | 1486303411.6411 | pgbench_tellers  |           450560
 2017-02-05 15:03:31.641104+01 | 1486303411.6411 | pgbench_history  |        141221888
 2017-02-05 15:03:31.641104+01 | 1486303411.6411 | pgbench_branches |            40960

 2017-02-05 15:03:32.719684+01 | 1486303412.71968 | pgbench_accounts |      13768179712
 2017-02-05 15:03:32.719684+01 | 1486303412.71968 | pgbench_tellers  |           450560
 2017-02-05 15:03:32.719684+01 | 1486303412.71968 | pgbench_history  |        143589376
 2017-02-05 15:03:32.719684+01 | 1486303412.71968 | pgbench_branches |            40960

 2017-02-05 15:03:33.798542+01 | 1486303413.79854 | pgbench_accounts |      13768179712
 2017-02-05 15:03:33.798542+01 | 1486303413.79854 | pgbench_tellers  |           450560
 2017-02-05 15:03:33.798542+01 | 1486303413.79854 | pgbench_history  |        144785408
 2017-02-05 15:03:33.798542+01 | 1486303413.79854 | pgbench_branches |            40960

 2017-02-05 15:03:34.887621+01 | 1486303414.88762 | pgbench_accounts |      13768179712
 2017-02-05 15:03:34.887621+01 | 1486303414.88762 | pgbench_tellers  |           450560
 2017-02-05 15:03:34.887621+01 | 1486303414.88762 | pgbench_history  |        146046976
 2017-02-05 15:03:34.887621+01 | 1486303414.88762 | pgbench_branches |            40960

 2017-02-05 15:03:35.964982+01 | 1486303415.96498 | pgbench_accounts |      13768179712
 2017-02-05 15:03:35.964982+01 | 1486303415.96498 | pgbench_tellers  |           450560
 2017-02-05 15:03:35.964982+01 | 1486303415.96498 | pgbench_history  |        147619840
 2017-02-05 15:03:35.964982+01 | 1486303415.96498 | pgbench_branches |            40960

 2017-02-05 15:03:37.038523+01 | 1486303417.03852 | pgbench_accounts |      13768179712
 2017-02-05 15:03:37.038523+01 | 1486303417.03852 | pgbench_tellers  |           450560
 2017-02-05 15:03:37.038523+01 | 1486303417.03852 | pgbench_history  |        150511616
 2017-02-05 15:03:37.038523+01 | 1486303417.03852 | pgbench_branches |            40960

 2017-02-05 15:03:38.121113+01 | 1486303418.12111 | pgbench_accounts |      13768179712
 2017-02-05 15:03:38.121113+01 | 1486303418.12111 | pgbench_tellers  |           450560
 2017-02-05 15:03:38.121113+01 | 1486303418.12111 | pgbench_history  |        150896640
 2017-02-05 15:03:38.121113+01 | 1486303418.12111 | pgbench_branches |            40960

 2017-02-05 15:03:39.205978+01 | 1486303419.20598 | pgbench_accounts |      13768179712
 2017-02-05 15:03:39.205978+01 | 1486303419.20598 | pgbench_tellers  |           450560
 2017-02-05 15:03:39.205978+01 | 1486303419.20598 | pgbench_history  |        152928256
 2017-02-05 15:03:39.205978+01 | 1486303419.20598 | pgbench_branches |            40960

 2017-02-05 15:03:40.282452+01 | 1486303420.28245 | pgbench_accounts |      13768179712
 2017-02-05 15:03:40.282452+01 | 1486303420.28245 | pgbench_tellers  |           450560
 2017-02-05 15:03:40.282452+01 | 1486303420.28245 | pgbench_history  |        154148864
 2017-02-05 15:03:40.282452+01 | 1486303420.28245 | pgbench_branches |            40960

 2017-02-05 15:03:41.369322+01 | 1486303421.36932 | pgbench_accounts |      13768179712
 2017-02-05 15:03:41.369322+01 | 1486303421.36932 | pgbench_tellers  |           450560
 2017-02-05 15:03:41.369322+01 | 1486303421.36932 | pgbench_history  |        155885568
 2017-02-05 15:03:41.369322+01 | 1486303421.36932 | pgbench_branches |            40960

 2017-02-05 15:03:42.450373+01 | 1486303422.45037 | pgbench_accounts |      13768179712
 2017-02-05 15:03:42.450373+01 | 1486303422.45037 | pgbench_tellers  |           450560
 2017-02-05 15:03:42.450373+01 | 1486303422.45037 | pgbench_history  |        156917760
 2017-02-05 15:03:42.450373+01 | 1486303422.45037 | pgbench_branches |            40960

 2017-02-05 15:03:43.530084+01 | 1486303423.53008 | pgbench_accounts |      13768179712
 2017-02-05 15:03:43.530084+01 | 1486303423.53008 | pgbench_tellers  |           450560
 2017-02-05 15:03:43.530084+01 | 1486303423.53008 | pgbench_history  |        158769152
 2017-02-05 15:03:43.530084+01 | 1486303423.53008 | pgbench_branches |            40960

 2017-02-05 15:03:44.60367+01 | 1486303424.60367 | pgbench_accounts |      13768179712
 2017-02-05 15:03:44.60367+01 | 1486303424.60367 | pgbench_tellers  |           450560
 2017-02-05 15:03:44.60367+01 | 1486303424.60367 | pgbench_history  |        159637504
 2017-02-05 15:03:44.60367+01 | 1486303424.60367 | pgbench_branches |            40960

 2017-02-05 15:03:45.678085+01 | 1486303425.67809 | pgbench_accounts |      13768179712
 2017-02-05 15:03:45.678085+01 | 1486303425.67809 | pgbench_tellers  |           450560
 2017-02-05 15:03:45.678085+01 | 1486303425.67809 | pgbench_history  |        161882112
 2017-02-05 15:03:45.678085+01 | 1486303425.67809 | pgbench_branches |            40960

 2017-02-05 15:03:46.748204+01 | 1486303426.7482 | pgbench_accounts |      13768179712
 2017-02-05 15:03:46.748204+01 | 1486303426.7482 | pgbench_tellers  |           450560
 2017-02-05 15:03:46.748204+01 | 1486303426.7482 | pgbench_history  |        162234368
 2017-02-05 15:03:46.748204+01 | 1486303426.7482 | pgbench_branches |            40960

 2017-02-05 15:03:47.834895+01 | 1486303427.83489 | pgbench_accounts |      13768179712
 2017-02-05 15:03:47.834895+01 | 1486303427.83489 | pgbench_tellers  |           450560
 2017-02-05 15:03:47.834895+01 | 1486303427.83489 | pgbench_history  |        163921920
 2017-02-05 15:03:47.834895+01 | 1486303427.83489 | pgbench_branches |            40960

 2017-02-05 15:03:48.915857+01 | 1486303428.91586 | pgbench_accounts |      13768179712
 2017-02-05 15:03:48.915857+01 | 1486303428.91586 | pgbench_tellers  |           450560
 2017-02-05 15:03:48.915857+01 | 1486303428.91586 | pgbench_history  |        165347328
 2017-02-05 15:03:48.915857+01 | 1486303428.91586 | pgbench_branches |            40960

 2017-02-05 15:03:49.994342+01 | 1486303429.99434 | pgbench_accounts |      13768179712
 2017-02-05 15:03:49.994342+01 | 1486303429.99434 | pgbench_tellers  |           450560
 2017-02-05 15:03:49.994342+01 | 1486303429.99434 | pgbench_history  |        167247872
 2017-02-05 15:03:49.994342+01 | 1486303429.99434 | pgbench_branches |            40960

 2017-02-05 15:03:51.085999+01 | 1486303431.086 | pgbench_accounts |      13768179712
 2017-02-05 15:03:51.085999+01 | 1486303431.086 | pgbench_tellers  |           450560
 2017-02-05 15:03:51.085999+01 | 1486303431.086 | pgbench_history  |        168648704
 2017-02-05 15:03:51.085999+01 | 1486303431.086 | pgbench_branches |            40960

 2017-02-05 15:03:52.160069+01 | 1486303432.16007 | pgbench_accounts |      13768179712
 2017-02-05 15:03:52.160069+01 | 1486303432.16007 | pgbench_tellers  |           450560
 2017-02-05 15:03:52.160069+01 | 1486303432.16007 | pgbench_history  |        170041344
 2017-02-05 15:03:52.160069+01 | 1486303432.16007 | pgbench_branches |            40960

 2017-02-05 15:03:53.246296+01 | 1486303433.2463 | pgbench_accounts |      13768179712
 2017-02-05 15:03:53.246296+01 | 1486303433.2463 | pgbench_tellers  |           450560
 2017-02-05 15:03:53.246296+01 | 1486303433.2463 | pgbench_history  |        171966464
 2017-02-05 15:03:53.246296+01 | 1486303433.2463 | pgbench_branches |            40960

 2017-02-05 15:03:54.327558+01 | 1486303434.32756 | pgbench_accounts |      13768179712
 2017-02-05 15:03:54.327558+01 | 1486303434.32756 | pgbench_tellers  |           450560
 2017-02-05 15:03:54.327558+01 | 1486303434.32756 | pgbench_history  |        173662208
 2017-02-05 15:03:54.327558+01 | 1486303434.32756 | pgbench_branches |            40960

 2017-02-05 15:03:55.40604+01 | 1486303435.40604 | pgbench_accounts |      13768179712
 2017-02-05 15:03:55.40604+01 | 1486303435.40604 | pgbench_tellers  |           450560
 2017-02-05 15:03:55.40604+01 | 1486303435.40604 | pgbench_history  |        174530560
 2017-02-05 15:03:55.40604+01 | 1486303435.40604 | pgbench_branches |            40960

 2017-02-05 15:03:56.486887+01 | 1486303436.48689 | pgbench_accounts |      13768179712
 2017-02-05 15:03:56.486887+01 | 1486303436.48689 | pgbench_tellers  |           450560
 2017-02-05 15:03:56.486887+01 | 1486303436.48689 | pgbench_history  |        176422912
 2017-02-05 15:03:56.486887+01 | 1486303436.48689 | pgbench_branches |            40960

 2017-02-05 15:03:57.565114+01 | 1486303437.56511 | pgbench_accounts |      13768179712
 2017-02-05 15:03:57.565114+01 | 1486303437.56511 | pgbench_tellers  |           450560
 2017-02-05 15:03:57.565114+01 | 1486303437.56511 | pgbench_history  |        177463296
 2017-02-05 15:03:57.565114+01 | 1486303437.56511 | pgbench_branches |            40960

 2017-02-05 15:03:58.641581+01 | 1486303438.64158 | pgbench_accounts |      13768179712
 2017-02-05 15:03:58.641581+01 | 1486303438.64158 | pgbench_tellers  |           450560
 2017-02-05 15:03:58.641581+01 | 1486303438.64158 | pgbench_history  |        178987008
 2017-02-05 15:03:58.641581+01 | 1486303438.64158 | pgbench_branches |            40960

 2017-02-05 15:03:59.722728+01 | 1486303439.72273 | pgbench_accounts |      13768179712
 2017-02-05 15:03:59.722728+01 | 1486303439.72273 | pgbench_tellers  |           450560
 2017-02-05 15:03:59.722728+01 | 1486303439.72273 | pgbench_history  |        181051392
 2017-02-05 15:03:59.722728+01 | 1486303439.72273 | pgbench_branches |            40960

 2017-02-05 15:04:00.799241+01 | 1486303440.79924 | pgbench_accounts |      13768179712
 2017-02-05 15:04:00.799241+01 | 1486303440.79924 | pgbench_tellers  |           450560
 2017-02-05 15:04:00.799241+01 | 1486303440.79924 | pgbench_history  |        182329344
 2017-02-05 15:04:00.799241+01 | 1486303440.79924 | pgbench_branches |            40960

 2017-02-05 15:04:01.873175+01 | 1486303441.87317 | pgbench_accounts |      13768179712
 2017-02-05 15:04:01.873175+01 | 1486303441.87317 | pgbench_tellers  |           450560
 2017-02-05 15:04:01.873175+01 | 1486303441.87317 | pgbench_history  |        183861248
 2017-02-05 15:04:01.873175+01 | 1486303441.87317 | pgbench_branches |            40960

 2017-02-05 15:04:02.949162+01 | 1486303442.94916 | pgbench_accounts |      13768179712
 2017-02-05 15:04:02.949162+01 | 1486303442.94916 | pgbench_tellers  |           450560
 2017-02-05 15:04:02.949162+01 | 1486303442.94916 | pgbench_history  |        185221120
 2017-02-05 15:04:02.949162+01 | 1486303442.94916 | pgbench_branches |            40960

 2017-02-05 15:04:04.01771+01 | 1486303444.01771 | pgbench_accounts |      13768179712
 2017-02-05 15:04:04.01771+01 | 1486303444.01771 | pgbench_tellers  |           450560
 2017-02-05 15:04:04.01771+01 | 1486303444.01771 | pgbench_history  |        187277312
 2017-02-05 15:04:04.01771+01 | 1486303444.01771 | pgbench_branches |            40960

 2017-02-05 15:04:05.102778+01 | 1486303445.10278 | pgbench_accounts |      13768179712
 2017-02-05 15:04:05.102778+01 | 1486303445.10278 | pgbench_tellers  |           450560
 2017-02-05 15:04:05.102778+01 | 1486303445.10278 | pgbench_history  |        188506112
 2017-02-05 15:04:05.102778+01 | 1486303445.10278 | pgbench_branches |            40960

 2017-02-05 15:04:06.181582+01 | 1486303446.18158 | pgbench_accounts |      13768179712
 2017-02-05 15:04:06.181582+01 | 1486303446.18158 | pgbench_tellers  |           450560
 2017-02-05 15:04:06.181582+01 | 1486303446.18158 | pgbench_history  |        190111744
 2017-02-05 15:04:06.181582+01 | 1486303446.18158 | pgbench_branches |            40960

 2017-02-05 15:04:07.260453+01 | 1486303447.26045 | pgbench_accounts |      13768179712
 2017-02-05 15:04:07.260453+01 | 1486303447.26045 | pgbench_tellers  |           450560
 2017-02-05 15:04:07.260453+01 | 1486303447.26045 | pgbench_history  |        191848448
 2017-02-05 15:04:07.260453+01 | 1486303447.26045 | pgbench_branches |            40960

 2017-02-05 15:04:08.338223+01 | 1486303448.33822 | pgbench_accounts |      13768179712
 2017-02-05 15:04:08.338223+01 | 1486303448.33822 | pgbench_tellers  |           450560
 2017-02-05 15:04:08.338223+01 | 1486303448.33822 | pgbench_history  |        193699840
 2017-02-05 15:04:08.338223+01 | 1486303448.33822 | pgbench_branches |            40960

 2017-02-05 15:04:09.415627+01 | 1486303449.41563 | pgbench_accounts |      13768179712
 2017-02-05 15:04:09.415627+01 | 1486303449.41563 | pgbench_tellers  |           450560
 2017-02-05 15:04:09.415627+01 | 1486303449.41563 | pgbench_history  |        195756032
 2017-02-05 15:04:09.415627+01 | 1486303449.41563 | pgbench_branches |            40960

 2017-02-05 15:04:10.500862+01 | 1486303450.50086 | pgbench_accounts |      13768179712
 2017-02-05 15:04:10.500862+01 | 1486303450.50086 | pgbench_tellers  |           450560
 2017-02-05 15:04:10.500862+01 | 1486303450.50086 | pgbench_history  |        196952064
 2017-02-05 15:04:10.500862+01 | 1486303450.50086 | pgbench_branches |            40960

 2017-02-05 15:04:11.573754+01 | 1486303451.57375 | pgbench_accounts |      13768179712
 2017-02-05 15:04:11.573754+01 | 1486303451.57375 | pgbench_tellers  |           450560
 2017-02-05 15:04:11.573754+01 | 1486303451.57375 | pgbench_history  |        198664192
 2017-02-05 15:04:11.573754+01 | 1486303451.57375 | pgbench_branches |            40960

 2017-02-05 15:04:12.654253+01 | 1486303452.65425 | pgbench_accounts |      13768179712
 2017-02-05 15:04:12.654253+01 | 1486303452.65425 | pgbench_tellers  |           450560
 2017-02-05 15:04:12.654253+01 | 1486303452.65425 | pgbench_history  |        199868416
 2017-02-05 15:04:12.654253+01 | 1486303452.65425 | pgbench_branches |            40960

 2017-02-05 15:04:13.731908+01 | 1486303453.73191 | pgbench_accounts |      13768179712
 2017-02-05 15:04:13.731908+01 | 1486303453.73191 | pgbench_tellers  |           450560
 2017-02-05 15:04:13.731908+01 | 1486303453.73191 | pgbench_history  |        201302016
 2017-02-05 15:04:13.731908+01 | 1486303453.73191 | pgbench_branches |            40960

 2017-02-05 15:04:14.80571+01 | 1486303454.80571 | pgbench_accounts |      13768179712
 2017-02-05 15:04:14.80571+01 | 1486303454.80571 | pgbench_tellers  |           450560
 2017-02-05 15:04:14.80571+01 | 1486303454.80571 | pgbench_history  |        203341824
 2017-02-05 15:04:14.80571+01 | 1486303454.80571 | pgbench_branches |            40960

 2017-02-05 15:04:15.884942+01 | 1486303455.88494 | pgbench_accounts |      13768179712
 2017-02-05 15:04:15.884942+01 | 1486303455.88494 | pgbench_tellers  |           450560
 2017-02-05 15:04:15.884942+01 | 1486303455.88494 | pgbench_history  |        204726272
 2017-02-05 15:04:15.884942+01 | 1486303455.88494 | pgbench_branches |            40960

 2017-02-05 15:04:16.96512+01 | 1486303456.96512 | pgbench_accounts |      13768179712
 2017-02-05 15:04:16.96512+01 | 1486303456.96512 | pgbench_tellers  |           450560
 2017-02-05 15:04:16.96512+01 | 1486303456.96512 | pgbench_history  |        206086144
 2017-02-05 15:04:16.96512+01 | 1486303456.96512 | pgbench_branches |            40960

 2017-02-05 15:04:18.044405+01 | 1486303458.0444 | pgbench_accounts |      13768179712
 2017-02-05 15:04:18.044405+01 | 1486303458.0444 | pgbench_tellers  |           450560
 2017-02-05 15:04:18.044405+01 | 1486303458.0444 | pgbench_history  |        207667200
 2017-02-05 15:04:18.044405+01 | 1486303458.0444 | pgbench_branches |            40960

 2017-02-05 15:04:19.134047+01 | 1486303459.13405 | pgbench_accounts |      13768179712
 2017-02-05 15:04:19.134047+01 | 1486303459.13405 | pgbench_tellers  |           450560
 2017-02-05 15:04:19.134047+01 | 1486303459.13405 | pgbench_history  |        209584128
 2017-02-05 15:04:19.134047+01 | 1486303459.13405 | pgbench_branches |            40960

 2017-02-05 15:04:20.217702+01 | 1486303460.2177 | pgbench_accounts |      13768179712
 2017-02-05 15:04:20.217702+01 | 1486303460.2177 | pgbench_tellers  |           450560
 2017-02-05 15:04:20.217702+01 | 1486303460.2177 | pgbench_history  |        211599360
 2017-02-05 15:04:20.217702+01 | 1486303460.2177 | pgbench_branches |            40960

 2017-02-05 15:04:21.304382+01 | 1486303461.30438 | pgbench_accounts |      13768179712
 2017-02-05 15:04:21.304382+01 | 1486303461.30438 | pgbench_tellers  |           450560
 2017-02-05 15:04:21.304382+01 | 1486303461.30438 | pgbench_history  |        212803584
 2017-02-05 15:04:21.304382+01 | 1486303461.30438 | pgbench_branches |            40960

 2017-02-05 15:04:22.377307+01 | 1486303462.37731 | pgbench_accounts |      13768179712
 2017-02-05 15:04:22.377307+01 | 1486303462.37731 | pgbench_tellers  |           450560
 2017-02-05 15:04:22.377307+01 | 1486303462.37731 | pgbench_history  |        214499328
 2017-02-05 15:04:22.377307+01 | 1486303462.37731 | pgbench_branches |            40960

 2017-02-05 15:04:23.470147+01 | 1486303463.47015 | pgbench_accounts |      13768179712
 2017-02-05 15:04:23.470147+01 | 1486303463.47015 | pgbench_tellers  |           450560
 2017-02-05 15:04:23.470147+01 | 1486303463.47015 | pgbench_history  |        215531520
 2017-02-05 15:04:23.470147+01 | 1486303463.47015 | pgbench_branches |            40960

 2017-02-05 15:04:24.559803+01 | 1486303464.5598 | pgbench_accounts |      13768179712
 2017-02-05 15:04:24.559803+01 | 1486303464.5598 | pgbench_tellers  |           450560
 2017-02-05 15:04:24.559803+01 | 1486303464.5598 | pgbench_history  |        217432064
 2017-02-05 15:04:24.559803+01 | 1486303464.5598 | pgbench_branches |            40960

 2017-02-05 15:04:25.638094+01 | 1486303465.63809 | pgbench_accounts |      13768179712
 2017-02-05 15:04:25.638094+01 | 1486303465.63809 | pgbench_tellers  |           450560
 2017-02-05 15:04:25.638094+01 | 1486303465.63809 | pgbench_history  |        218816512
 2017-02-05 15:04:25.638094+01 | 1486303465.63809 | pgbench_branches |            40960

 2017-02-05 15:04:26.718778+01 | 1486303466.71878 | pgbench_accounts |      13768179712
 2017-02-05 15:04:26.718778+01 | 1486303466.71878 | pgbench_tellers  |           450560
 2017-02-05 15:04:26.718778+01 | 1486303466.71878 | pgbench_history  |        220504064
 2017-02-05 15:04:26.718778+01 | 1486303466.71878 | pgbench_branches |            40960

 2017-02-05 15:04:27.800213+01 | 1486303467.80021 | pgbench_accounts |      13768179712
 2017-02-05 15:04:27.800213+01 | 1486303467.80021 | pgbench_tellers  |           450560
 2017-02-05 15:04:27.800213+01 | 1486303467.80021 | pgbench_history  |        222257152
 2017-02-05 15:04:27.800213+01 | 1486303467.80021 | pgbench_branches |            40960

 2017-02-05 15:04:28.881907+01 | 1486303468.88191 | pgbench_accounts |      13768179712
 2017-02-05 15:04:28.881907+01 | 1486303468.88191 | pgbench_tellers  |           450560
 2017-02-05 15:04:28.881907+01 | 1486303468.88191 | pgbench_history  |        223617024
 2017-02-05 15:04:28.881907+01 | 1486303468.88191 | pgbench_branches |            40960

 2017-02-05 15:04:29.971106+01 | 1486303469.97111 | pgbench_accounts |      13768179712
 2017-02-05 15:04:29.971106+01 | 1486303469.97111 | pgbench_tellers  |           450560
 2017-02-05 15:04:29.971106+01 | 1486303469.97111 | pgbench_history  |        225198080
 2017-02-05 15:04:29.971106+01 | 1486303469.97111 | pgbench_branches |            40960

 2017-02-05 15:04:31.051063+01 | 1486303471.05106 | pgbench_accounts |      13768179712
 2017-02-05 15:04:31.051063+01 | 1486303471.05106 | pgbench_tellers  |           450560
 2017-02-05 15:04:31.051063+01 | 1486303471.05106 | pgbench_history  |        226918400
 2017-02-05 15:04:31.051063+01 | 1486303471.05106 | pgbench_branches |            40960

 2017-02-05 15:04:32.133969+01 | 1486303472.13397 | pgbench_accounts |      13768179712
 2017-02-05 15:04:32.133969+01 | 1486303472.13397 | pgbench_tellers  |           450560
 2017-02-05 15:04:32.133969+01 | 1486303472.13397 | pgbench_history  |        228360192
 2017-02-05 15:04:32.133969+01 | 1486303472.13397 | pgbench_branches |            40960

 2017-02-05 15:04:33.205998+01 | 1486303473.206 | pgbench_accounts |      13768179712
 2017-02-05 15:04:33.205998+01 | 1486303473.206 | pgbench_tellers  |           450560
 2017-02-05 15:04:33.205998+01 | 1486303473.206 | pgbench_history  |        230318080
 2017-02-05 15:04:33.205998+01 | 1486303473.206 | pgbench_branches |            40960

 2017-02-05 15:04:34.295163+01 | 1486303474.29516 | pgbench_accounts |      13768179712
 2017-02-05 15:04:34.295163+01 | 1486303474.29516 | pgbench_tellers  |           450560
 2017-02-05 15:04:34.295163+01 | 1486303474.29516 | pgbench_history  |        231489536
 2017-02-05 15:04:34.295163+01 | 1486303474.29516 | pgbench_branches |            40960

 2017-02-05 15:04:35.372048+01 | 1486303475.37205 | pgbench_accounts |      13768179712
 2017-02-05 15:04:35.372048+01 | 1486303475.37205 | pgbench_tellers  |           450560
 2017-02-05 15:04:35.372048+01 | 1486303475.37205 | pgbench_history  |        233103360
 2017-02-05 15:04:35.372048+01 | 1486303475.37205 | pgbench_branches |            40960

 2017-02-05 15:04:36.448129+01 | 1486303476.44813 | pgbench_accounts |      13768179712
 2017-02-05 15:04:36.448129+01 | 1486303476.44813 | pgbench_tellers  |           450560
 2017-02-05 15:04:36.448129+01 | 1486303476.44813 | pgbench_history  |        235003904
 2017-02-05 15:04:36.448129+01 | 1486303476.44813 | pgbench_branches |            40960

 2017-02-05 15:04:37.527743+01 | 1486303477.52774 | pgbench_accounts |      13768179712
 2017-02-05 15:04:37.527743+01 | 1486303477.52774 | pgbench_tellers  |           450560
 2017-02-05 15:04:37.527743+01 | 1486303477.52774 | pgbench_history  |        236363776
 2017-02-05 15:04:37.527743+01 | 1486303477.52774 | pgbench_branches |            40960

 2017-02-05 15:04:38.609124+01 | 1486303478.60912 | pgbench_accounts |      13768179712
 2017-02-05 15:04:38.609124+01 | 1486303478.60912 | pgbench_tellers  |           450560
 2017-02-05 15:04:38.609124+01 | 1486303478.60912 | pgbench_history  |        238100480
 2017-02-05 15:04:38.609124+01 | 1486303478.60912 | pgbench_branches |            40960

 2017-02-05 15:04:39.691891+01 | 1486303479.69189 | pgbench_accounts |      13768179712
 2017-02-05 15:04:39.691891+01 | 1486303479.69189 | pgbench_tellers  |           450560
 2017-02-05 15:04:39.691891+01 | 1486303479.69189 | pgbench_history  |        239828992
 2017-02-05 15:04:39.691891+01 | 1486303479.69189 | pgbench_branches |            40960

 2017-02-05 15:04:40.77027+01 | 1486303480.77027 | pgbench_accounts |      13768179712
 2017-02-05 15:04:40.77027+01 | 1486303480.77027 | pgbench_tellers  |           450560
 2017-02-05 15:04:40.77027+01 | 1486303480.77027 | pgbench_history  |        241246208
 2017-02-05 15:04:40.77027+01 | 1486303480.77027 | pgbench_branches |            40960

 2017-02-05 15:04:41.853814+01 | 1486303481.85381 | pgbench_accounts |      13768179712
 2017-02-05 15:04:41.853814+01 | 1486303481.85381 | pgbench_tellers  |           450560
 2017-02-05 15:04:41.853814+01 | 1486303481.85381 | pgbench_history  |        242638848
 2017-02-05 15:04:41.853814+01 | 1486303481.85381 | pgbench_branches |            40960

 2017-02-05 15:04:42.934688+01 | 1486303482.93469 | pgbench_accounts |      13768179712
 2017-02-05 15:04:42.934688+01 | 1486303482.93469 | pgbench_tellers  |           450560
 2017-02-05 15:04:42.934688+01 | 1486303482.93469 | pgbench_history  |        244105216
 2017-02-05 15:04:42.934688+01 | 1486303482.93469 | pgbench_branches |            40960

 2017-02-05 15:04:44.016707+01 | 1486303484.01671 | pgbench_accounts |      13768179712
 2017-02-05 15:04:44.016707+01 | 1486303484.01671 | pgbench_tellers  |           450560
 2017-02-05 15:04:44.016707+01 | 1486303484.01671 | pgbench_history  |        245653504
 2017-02-05 15:04:44.016707+01 | 1486303484.01671 | pgbench_branches |            40960

 2017-02-05 15:04:45.092422+01 | 1486303485.09242 | pgbench_accounts |      13768179712
 2017-02-05 15:04:45.092422+01 | 1486303485.09242 | pgbench_tellers  |           450560
 2017-02-05 15:04:45.092422+01 | 1486303485.09242 | pgbench_history  |        247177216
 2017-02-05 15:04:45.092422+01 | 1486303485.09242 | pgbench_branches |            40960

 2017-02-05 15:04:46.17327+01 | 1486303486.17327 | pgbench_accounts |      13768179712
 2017-02-05 15:04:46.17327+01 | 1486303486.17327 | pgbench_tellers  |           450560
 2017-02-05 15:04:46.17327+01 | 1486303486.17327 | pgbench_history  |        248700928
 2017-02-05 15:04:46.17327+01 | 1486303486.17327 | pgbench_branches |            40960

 2017-02-05 15:04:47.255112+01 | 1486303487.25511 | pgbench_accounts |      13768179712
 2017-02-05 15:04:47.255112+01 | 1486303487.25511 | pgbench_tellers  |           450560
 2017-02-05 15:04:47.255112+01 | 1486303487.25511 | pgbench_history  |        249397248
 2017-02-05 15:04:47.255112+01 | 1486303487.25511 | pgbench_branches |            40960

 2017-02-05 15:04:48.335812+01 | 1486303488.33581 | pgbench_accounts |      13768179712
 2017-02-05 15:04:48.335812+01 | 1486303488.33581 | pgbench_tellers  |           450560
 2017-02-05 15:04:48.335812+01 | 1486303488.33581 | pgbench_history  |        250724352
 2017-02-05 15:04:48.335812+01 | 1486303488.33581 | pgbench_branches |            40960

 2017-02-05 15:04:49.410766+01 | 1486303489.41077 | pgbench_accounts |      13768179712
 2017-02-05 15:04:49.410766+01 | 1486303489.41077 | pgbench_tellers  |           450560
 2017-02-05 15:04:49.410766+01 | 1486303489.41077 | pgbench_history  |        252108800
 2017-02-05 15:04:49.410766+01 | 1486303489.41077 | pgbench_branches |            40960

 2017-02-05 15:04:50.495968+01 | 1486303490.49597 | pgbench_accounts |      13768179712
 2017-02-05 15:04:50.495968+01 | 1486303490.49597 | pgbench_tellers  |           450560
 2017-02-05 15:04:50.495968+01 | 1486303490.49597 | pgbench_history  |        255148032
 2017-02-05 15:04:50.495968+01 | 1486303490.49597 | pgbench_branches |            40960

 2017-02-05 15:04:51.579119+01 | 1486303491.57912 | pgbench_accounts |      13768179712
 2017-02-05 15:04:51.579119+01 | 1486303491.57912 | pgbench_tellers  |           450560
 2017-02-05 15:04:51.579119+01 | 1486303491.57912 | pgbench_history  |        256155648
 2017-02-05 15:04:51.579119+01 | 1486303491.57912 | pgbench_branches |            40960

 2017-02-05 15:04:52.655343+01 | 1486303492.65534 | pgbench_accounts |      13768179712
 2017-02-05 15:04:52.655343+01 | 1486303492.65534 | pgbench_tellers  |           450560
 2017-02-05 15:04:52.655343+01 | 1486303492.65534 | pgbench_history  |        256868352
 2017-02-05 15:04:52.655343+01 | 1486303492.65534 | pgbench_branches |            40960

 2017-02-05 15:04:53.729315+01 | 1486303493.72932 | pgbench_accounts |      13768179712
 2017-02-05 15:04:53.729315+01 | 1486303493.72932 | pgbench_tellers  |           450560
 2017-02-05 15:04:53.729315+01 | 1486303493.72932 | pgbench_history  |        258605056
 2017-02-05 15:04:53.729315+01 | 1486303493.72932 | pgbench_branches |            40960

 2017-02-05 15:04:54.806538+01 | 1486303494.80654 | pgbench_accounts |      13768179712
 2017-02-05 15:04:54.806538+01 | 1486303494.80654 | pgbench_tellers  |           450560
 2017-02-05 15:04:54.806538+01 | 1486303494.80654 | pgbench_history  |        260153344
 2017-02-05 15:04:54.806538+01 | 1486303494.80654 | pgbench_branches |            40960

 2017-02-05 15:04:55.880333+01 | 1486303495.88033 | pgbench_accounts |      13768179712
 2017-02-05 15:04:55.880333+01 | 1486303495.88033 | pgbench_tellers  |           450560
 2017-02-05 15:04:55.880333+01 | 1486303495.88033 | pgbench_history  |        261513216
 2017-02-05 15:04:55.880333+01 | 1486303495.88033 | pgbench_branches |            40960

 2017-02-05 15:04:56.958291+01 | 1486303496.95829 | pgbench_accounts |      13768179712
 2017-02-05 15:04:56.958291+01 | 1486303496.95829 | pgbench_tellers  |           450560
 2017-02-05 15:04:56.958291+01 | 1486303496.95829 | pgbench_history  |        264536064
 2017-02-05 15:04:56.958291+01 | 1486303496.95829 | pgbench_branches |            40960

 2017-02-05 15:04:58.037114+01 | 1486303498.03711 | pgbench_accounts |      13768179712
 2017-02-05 15:04:58.037114+01 | 1486303498.03711 | pgbench_tellers  |           450560
 2017-02-05 15:04:58.037114+01 | 1486303498.03711 | pgbench_history  |        264536064
 2017-02-05 15:04:58.037114+01 | 1486303498.03711 | pgbench_branches |            40960

 2017-02-05 15:04:59.115111+01 | 1486303499.11511 | pgbench_accounts |      13768179712
 2017-02-05 15:04:59.115111+01 | 1486303499.11511 | pgbench_tellers  |           450560
 2017-02-05 15:04:59.115111+01 | 1486303499.11511 | pgbench_history  |        267296768
 2017-02-05 15:04:59.115111+01 | 1486303499.11511 | pgbench_branches |            40960

 2017-02-05 15:05:00.190139+01 | 1486303500.19014 | pgbench_accounts |      13768179712
 2017-02-05 15:05:00.190139+01 | 1486303500.19014 | pgbench_tellers  |           450560
 2017-02-05 15:05:00.190139+01 | 1486303500.19014 | pgbench_history  |        267976704
 2017-02-05 15:05:00.190139+01 | 1486303500.19014 | pgbench_branches |            40960

 2017-02-05 15:05:01.266829+01 | 1486303501.26683 | pgbench_accounts |      13768179712
 2017-02-05 15:05:01.266829+01 | 1486303501.26683 | pgbench_tellers  |           450560
 2017-02-05 15:05:01.266829+01 | 1486303501.26683 | pgbench_history  |        269524992
 2017-02-05 15:05:01.266829+01 | 1486303501.26683 | pgbench_branches |            40960

 2017-02-05 15:05:02.347826+01 | 1486303502.34783 | pgbench_accounts |      13768179712
 2017-02-05 15:05:02.347826+01 | 1486303502.34783 | pgbench_tellers  |           450560
 2017-02-05 15:05:02.347826+01 | 1486303502.34783 | pgbench_history  |        270942208
 2017-02-05 15:05:02.347826+01 | 1486303502.34783 | pgbench_branches |            40960

 2017-02-05 15:05:03.427267+01 | 1486303503.42727 | pgbench_accounts |      13768179712
 2017-02-05 15:05:03.427267+01 | 1486303503.42727 | pgbench_tellers  |           450560
 2017-02-05 15:05:03.427267+01 | 1486303503.42727 | pgbench_history  |        272506880
 2017-02-05 15:05:03.427267+01 | 1486303503.42727 | pgbench_branches |            40960

 2017-02-05 15:05:04.510979+01 | 1486303504.51098 | pgbench_accounts |      13768179712
 2017-02-05 15:05:04.510979+01 | 1486303504.51098 | pgbench_tellers  |           450560
 2017-02-05 15:05:04.510979+01 | 1486303504.51098 | pgbench_history  |        274063360
 2017-02-05 15:05:04.510979+01 | 1486303504.51098 | pgbench_branches |            40960

 2017-02-05 15:05:05.59873+01 | 1486303505.59873 | pgbench_accounts |      13768179712
 2017-02-05 15:05:05.59873+01 | 1486303505.59873 | pgbench_tellers  |           450560
 2017-02-05 15:05:05.59873+01 | 1486303505.59873 | pgbench_history  |        275841024
 2017-02-05 15:05:05.59873+01 | 1486303505.59873 | pgbench_branches |            40960

 2017-02-05 15:05:06.68583+01 | 1486303506.68583 | pgbench_accounts |      13768179712
 2017-02-05 15:05:06.68583+01 | 1486303506.68583 | pgbench_tellers  |           450560
 2017-02-05 15:05:06.68583+01 | 1486303506.68583 | pgbench_history  |        277733376
 2017-02-05 15:05:06.68583+01 | 1486303506.68583 | pgbench_branches |            40960

 2017-02-05 15:05:07.76638+01 | 1486303507.76638 | pgbench_accounts |      13768179712
 2017-02-05 15:05:07.76638+01 | 1486303507.76638 | pgbench_tellers  |           450560
 2017-02-05 15:05:07.76638+01 | 1486303507.76638 | pgbench_history  |        279584768
 2017-02-05 15:05:07.76638+01 | 1486303507.76638 | pgbench_branches |            40960

 2017-02-05 15:05:08.846759+01 | 1486303508.84676 | pgbench_accounts |      13768179712
 2017-02-05 15:05:08.846759+01 | 1486303508.84676 | pgbench_tellers  |           450560
 2017-02-05 15:05:08.846759+01 | 1486303508.84676 | pgbench_history  |        280616960
 2017-02-05 15:05:08.846759+01 | 1486303508.84676 | pgbench_branches |            40960

 2017-02-05 15:05:09.92662+01 | 1486303509.92662 | pgbench_accounts |      13768179712
 2017-02-05 15:05:09.92662+01 | 1486303509.92662 | pgbench_tellers  |           450560
 2017-02-05 15:05:09.92662+01 | 1486303509.92662 | pgbench_history  |        282189824
 2017-02-05 15:05:09.92662+01 | 1486303509.92662 | pgbench_branches |            40960

 2017-02-05 15:05:11.01512+01 | 1486303511.01512 | pgbench_accounts |      13768179712
 2017-02-05 15:05:11.01512+01 | 1486303511.01512 | pgbench_tellers  |           450560
 2017-02-05 15:05:11.01512+01 | 1486303511.01512 | pgbench_history  |        284385280
 2017-02-05 15:05:11.01512+01 | 1486303511.01512 | pgbench_branches |            40960

 2017-02-05 15:05:12.093042+01 | 1486303512.09304 | pgbench_accounts |      13768179712
 2017-02-05 15:05:12.093042+01 | 1486303512.09304 | pgbench_tellers  |           450560
 2017-02-05 15:05:12.093042+01 | 1486303512.09304 | pgbench_history  |        285253632
 2017-02-05 15:05:12.093042+01 | 1486303512.09304 | pgbench_branches |            40960

 2017-02-05 15:05:13.175872+01 | 1486303513.17587 | pgbench_accounts |      13768179712
 2017-02-05 15:05:13.175872+01 | 1486303513.17587 | pgbench_tellers  |           450560
 2017-02-05 15:05:13.175872+01 | 1486303513.17587 | pgbench_history  |        287293440
 2017-02-05 15:05:13.175872+01 | 1486303513.17587 | pgbench_branches |            40960

 2017-02-05 15:05:14.25301+01 | 1486303514.25301 | pgbench_accounts |      13768179712
 2017-02-05 15:05:14.25301+01 | 1486303514.25301 | pgbench_tellers  |           450560
 2017-02-05 15:05:14.25301+01 | 1486303514.25301 | pgbench_history  |        288464896
 2017-02-05 15:05:14.25301+01 | 1486303514.25301 | pgbench_branches |            40960

 2017-02-05 15:05:15.339654+01 | 1486303515.33965 | pgbench_accounts |      13768179712
 2017-02-05 15:05:15.339654+01 | 1486303515.33965 | pgbench_tellers  |           450560
 2017-02-05 15:05:15.339654+01 | 1486303515.33965 | pgbench_history  |        290226176
 2017-02-05 15:05:15.339654+01 | 1486303515.33965 | pgbench_branches |            40960

 2017-02-05 15:05:16.414696+01 | 1486303516.4147 | pgbench_accounts |      13768179712
 2017-02-05 15:05:16.414696+01 | 1486303516.4147 | pgbench_tellers  |           450560
 2017-02-05 15:05:16.414696+01 | 1486303516.4147 | pgbench_history  |        292290560
 2017-02-05 15:05:16.414696+01 | 1486303516.4147 | pgbench_branches |            40960

 2017-02-05 15:05:17.493226+01 | 1486303517.49323 | pgbench_accounts |      13768179712
 2017-02-05 15:05:17.493226+01 | 1486303517.49323 | pgbench_tellers  |           450560
 2017-02-05 15:05:17.493226+01 | 1486303517.49323 | pgbench_history  |        293216256
 2017-02-05 15:05:17.493226+01 | 1486303517.49323 | pgbench_branches |            40960

 2017-02-05 15:05:18.570329+01 | 1486303518.57033 | pgbench_accounts |      13768179712
 2017-02-05 15:05:18.570329+01 | 1486303518.57033 | pgbench_tellers  |           450560
 2017-02-05 15:05:18.570329+01 | 1486303518.57033 | pgbench_history  |        294764544
 2017-02-05 15:05:18.570329+01 | 1486303518.57033 | pgbench_branches |            40960

 2017-02-05 15:05:19.647591+01 | 1486303519.64759 | pgbench_accounts |      13768179712
 2017-02-05 15:05:19.647591+01 | 1486303519.64759 | pgbench_tellers  |           450560
 2017-02-05 15:05:19.647591+01 | 1486303519.64759 | pgbench_history  |        296509440
 2017-02-05 15:05:19.647591+01 | 1486303519.64759 | pgbench_branches |            40960

 2017-02-05 15:05:20.720987+01 | 1486303520.72099 | pgbench_accounts |      13768179712
 2017-02-05 15:05:20.720987+01 | 1486303520.72099 | pgbench_tellers  |           450560
 2017-02-05 15:05:20.720987+01 | 1486303520.72099 | pgbench_history  |        298115072
 2017-02-05 15:05:20.720987+01 | 1486303520.72099 | pgbench_branches |            40960

 2017-02-05 15:05:21.797619+01 | 1486303521.79762 | pgbench_accounts |      13768179712
 2017-02-05 15:05:21.797619+01 | 1486303521.79762 | pgbench_tellers  |           450560
 2017-02-05 15:05:21.797619+01 | 1486303521.79762 | pgbench_history  |        299343872
 2017-02-05 15:05:21.797619+01 | 1486303521.79762 | pgbench_branches |            40960

 2017-02-05 15:05:22.877451+01 | 1486303522.87745 | pgbench_accounts |      13768179712
 2017-02-05 15:05:22.877451+01 | 1486303522.87745 | pgbench_tellers  |           450560
 2017-02-05 15:05:22.877451+01 | 1486303522.87745 | pgbench_history  |        301080576
 2017-02-05 15:05:22.877451+01 | 1486303522.87745 | pgbench_branches |            40960

 2017-02-05 15:05:23.950653+01 | 1486303523.95065 | pgbench_accounts |      13768179712
 2017-02-05 15:05:23.950653+01 | 1486303523.95065 | pgbench_tellers  |           450560
 2017-02-05 15:05:23.950653+01 | 1486303523.95065 | pgbench_history  |        303939584
 2017-02-05 15:05:23.950653+01 | 1486303523.95065 | pgbench_branches |            40960

 2017-02-05 15:05:25.023041+01 | 1486303525.02304 | pgbench_accounts |      13768179712
 2017-02-05 15:05:25.023041+01 | 1486303525.02304 | pgbench_tellers  |           450560
 2017-02-05 15:05:25.023041+01 | 1486303525.02304 | pgbench_history  |        304455680
 2017-02-05 15:05:25.023041+01 | 1486303525.02304 | pgbench_branches |            40960

 2017-02-05 15:05:26.105115+01 | 1486303526.10511 | pgbench_accounts |      13768179712
 2017-02-05 15:05:26.105115+01 | 1486303526.10511 | pgbench_tellers  |           450560
 2017-02-05 15:05:26.105115+01 | 1486303526.10511 | pgbench_history  |        306036736
 2017-02-05 15:05:26.105115+01 | 1486303526.10511 | pgbench_branches |            40960

 2017-02-05 15:05:27.195293+01 | 1486303527.19529 | pgbench_accounts |      13768179712
 2017-02-05 15:05:27.195293+01 | 1486303527.19529 | pgbench_tellers  |           450560
 2017-02-05 15:05:27.195293+01 | 1486303527.19529 | pgbench_history  |        307625984
 2017-02-05 15:05:27.195293+01 | 1486303527.19529 | pgbench_branches |            40960

 2017-02-05 15:05:28.272308+01 | 1486303528.27231 | pgbench_accounts |      13768179712
 2017-02-05 15:05:28.272308+01 | 1486303528.27231 | pgbench_tellers  |           450560
 2017-02-05 15:05:28.272308+01 | 1486303528.27231 | pgbench_history  |        309477376
 2017-02-05 15:05:28.272308+01 | 1486303528.27231 | pgbench_branches |            40960

 2017-02-05 15:05:29.350175+01 | 1486303529.35017 | pgbench_accounts |      13768179712
 2017-02-05 15:05:29.350175+01 | 1486303529.35017 | pgbench_tellers  |           450560
 2017-02-05 15:05:29.350175+01 | 1486303529.35017 | pgbench_history  |        310837248
 2017-02-05 15:05:29.350175+01 | 1486303529.35017 | pgbench_branches |            40960

 2017-02-05 15:05:30.425391+01 | 1486303530.42539 | pgbench_accounts |      13768179712
 2017-02-05 15:05:30.425391+01 | 1486303530.42539 | pgbench_tellers  |           450560
 2017-02-05 15:05:30.425391+01 | 1486303530.42539 | pgbench_history  |        312410112
 2017-02-05 15:05:30.425391+01 | 1486303530.42539 | pgbench_branches |            40960

 2017-02-05 15:05:31.505858+01 | 1486303531.50586 | pgbench_accounts |      13768179712
 2017-02-05 15:05:31.505858+01 | 1486303531.50586 | pgbench_tellers  |           450560
 2017-02-05 15:05:31.505858+01 | 1486303531.50586 | pgbench_history  |        313933824
 2017-02-05 15:05:31.505858+01 | 1486303531.50586 | pgbench_branches |            40960

 2017-02-05 15:05:32.590367+01 | 1486303532.59037 | pgbench_accounts |      13768179712
 2017-02-05 15:05:32.590367+01 | 1486303532.59037 | pgbench_tellers  |           450560
 2017-02-05 15:05:32.590367+01 | 1486303532.59037 | pgbench_history  |        315482112
 2017-02-05 15:05:32.590367+01 | 1486303532.59037 | pgbench_branches |            40960

 2017-02-05 15:05:33.670203+01 | 1486303533.6702 | pgbench_accounts |      13768179712
 2017-02-05 15:05:33.670203+01 | 1486303533.6702 | pgbench_tellers  |           450560
 2017-02-05 15:05:33.670203+01 | 1486303533.6702 | pgbench_history  |        317030400
 2017-02-05 15:05:33.670203+01 | 1486303533.6702 | pgbench_branches |            40960

 2017-02-05 15:05:34.751937+01 | 1486303534.75194 | pgbench_accounts |      13768179712
 2017-02-05 15:05:34.751937+01 | 1486303534.75194 | pgbench_tellers  |           450560
 2017-02-05 15:05:34.751937+01 | 1486303534.75194 | pgbench_history  |        318423040
 2017-02-05 15:05:34.751937+01 | 1486303534.75194 | pgbench_branches |            40960

 2017-02-05 15:05:35.830252+01 | 1486303535.83025 | pgbench_accounts |      13768179712
 2017-02-05 15:05:35.830252+01 | 1486303535.83025 | pgbench_tellers  |           450560
 2017-02-05 15:05:35.830252+01 | 1486303535.83025 | pgbench_history  |        320217088
 2017-02-05 15:05:35.830252+01 | 1486303535.83025 | pgbench_branches |            40960

 2017-02-05 15:05:36.906428+01 | 1486303536.90643 | pgbench_accounts |      13768179712
 2017-02-05 15:05:36.906428+01 | 1486303536.90643 | pgbench_tellers  |           450560
 2017-02-05 15:05:36.906428+01 | 1486303536.90643 | pgbench_history  |        321601536
 2017-02-05 15:05:36.906428+01 | 1486303536.90643 | pgbench_branches |            40960

 2017-02-05 15:05:37.986254+01 | 1486303537.98625 | pgbench_accounts |      13768179712
 2017-02-05 15:05:37.986254+01 | 1486303537.98625 | pgbench_tellers  |           450560
 2017-02-05 15:05:37.986254+01 | 1486303537.98625 | pgbench_history  |        323182592
 2017-02-05 15:05:37.986254+01 | 1486303537.98625 | pgbench_branches |            40960

 2017-02-05 15:05:39.073794+01 | 1486303539.07379 | pgbench_accounts |      13768179712
 2017-02-05 15:05:39.073794+01 | 1486303539.07379 | pgbench_tellers  |           450560
 2017-02-05 15:05:39.073794+01 | 1486303539.07379 | pgbench_history  |        324894720
 2017-02-05 15:05:39.073794+01 | 1486303539.07379 | pgbench_branches |            40960

 2017-02-05 15:05:40.155064+01 | 1486303540.15506 | pgbench_accounts |      13768179712
 2017-02-05 15:05:40.155064+01 | 1486303540.15506 | pgbench_tellers  |           450560
 2017-02-05 15:05:40.155064+01 | 1486303540.15506 | pgbench_history  |        326295552
 2017-02-05 15:05:40.155064+01 | 1486303540.15506 | pgbench_branches |            40960

 2017-02-05 15:05:41.229174+01 | 1486303541.22917 | pgbench_accounts |      13768179712
 2017-02-05 15:05:41.229174+01 | 1486303541.22917 | pgbench_tellers  |           450560
 2017-02-05 15:05:41.229174+01 | 1486303541.22917 | pgbench_history  |        328024064
 2017-02-05 15:05:41.229174+01 | 1486303541.22917 | pgbench_branches |            40960

 2017-02-05 15:05:42.317176+01 | 1486303542.31718 | pgbench_accounts |      13768179712
 2017-02-05 15:05:42.317176+01 | 1486303542.31718 | pgbench_tellers  |           450560
 2017-02-05 15:05:42.317176+01 | 1486303542.31718 | pgbench_history  |        328704000
 2017-02-05 15:05:42.317176+01 | 1486303542.31718 | pgbench_branches |            40960

 2017-02-05 15:05:43.406505+01 | 1486303543.40651 | pgbench_accounts |      13768179712
 2017-02-05 15:05:43.406505+01 | 1486303543.40651 | pgbench_tellers  |           450560
 2017-02-05 15:05:43.406505+01 | 1486303543.40651 | pgbench_history  |        330039296
 2017-02-05 15:05:43.406505+01 | 1486303543.40651 | pgbench_branches |            40960

 2017-02-05 15:05:44.481393+01 | 1486303544.48139 | pgbench_accounts |      13768179712
 2017-02-05 15:05:44.481393+01 | 1486303544.48139 | pgbench_tellers  |           450560
 2017-02-05 15:05:44.481393+01 | 1486303544.48139 | pgbench_history  |        331235328
 2017-02-05 15:05:44.481393+01 | 1486303544.48139 | pgbench_branches |            40960

 2017-02-05 15:05:45.560546+01 | 1486303545.56055 | pgbench_accounts |      13768179712
 2017-02-05 15:05:45.560546+01 | 1486303545.56055 | pgbench_tellers  |           450560
 2017-02-05 15:05:45.560546+01 | 1486303545.56055 | pgbench_history  |        332595200
 2017-02-05 15:05:45.560546+01 | 1486303545.56055 | pgbench_branches |            40960

 2017-02-05 15:05:46.634379+01 | 1486303546.63438 | pgbench_accounts |      13768179712
 2017-02-05 15:05:46.634379+01 | 1486303546.63438 | pgbench_tellers  |           450560
 2017-02-05 15:05:46.634379+01 | 1486303546.63438 | pgbench_history  |        333299712
 2017-02-05 15:05:46.634379+01 | 1486303546.63438 | pgbench_branches |            40960

 2017-02-05 15:05:47.725588+01 | 1486303547.72559 | pgbench_accounts |      13768179712
 2017-02-05 15:05:47.725588+01 | 1486303547.72559 | pgbench_tellers  |           450560
 2017-02-05 15:05:47.725588+01 | 1486303547.72559 | pgbench_history  |        334389248
 2017-02-05 15:05:47.725588+01 | 1486303547.72559 | pgbench_branches |            40960

 2017-02-05 15:05:48.799989+01 | 1486303548.79999 | pgbench_accounts |      13768179712
 2017-02-05 15:05:48.799989+01 | 1486303548.79999 | pgbench_tellers  |           450560
 2017-02-05 15:05:48.799989+01 | 1486303548.79999 | pgbench_history  |        335740928
 2017-02-05 15:05:48.799989+01 | 1486303548.79999 | pgbench_branches |            40960

 2017-02-05 15:05:49.88096+01 | 1486303549.88096 | pgbench_accounts |      13768179712
 2017-02-05 15:05:49.88096+01 | 1486303549.88096 | pgbench_tellers  |           450560
 2017-02-05 15:05:49.88096+01 | 1486303549.88096 | pgbench_history  |        337141760
 2017-02-05 15:05:49.88096+01 | 1486303549.88096 | pgbench_branches |            40960

 2017-02-05 15:05:50.958478+01 | 1486303550.95848 | pgbench_accounts |      13768179712
 2017-02-05 15:05:50.958478+01 | 1486303550.95848 | pgbench_tellers  |           450560
 2017-02-05 15:05:50.958478+01 | 1486303550.95848 | pgbench_history  |        338173952
 2017-02-05 15:05:50.958478+01 | 1486303550.95848 | pgbench_branches |            40960

 2017-02-05 15:05:52.036761+01 | 1486303552.03676 | pgbench_accounts |      13768179712
 2017-02-05 15:05:52.036761+01 | 1486303552.03676 | pgbench_tellers  |           450560
 2017-02-05 15:05:52.036761+01 | 1486303552.03676 | pgbench_history  |        339566592
 2017-02-05 15:05:52.036761+01 | 1486303552.03676 | pgbench_branches |            40960

 2017-02-05 15:05:53.112585+01 | 1486303553.11259 | pgbench_accounts |      13768179712
 2017-02-05 15:05:53.112585+01 | 1486303553.11259 | pgbench_tellers  |           450560
 2017-02-05 15:05:53.112585+01 | 1486303553.11259 | pgbench_history  |        340926464
 2017-02-05 15:05:53.112585+01 | 1486303553.11259 | pgbench_branches |            40960

 2017-02-05 15:05:54.189965+01 | 1486303554.18997 | pgbench_accounts |      13768179712
 2017-02-05 15:05:54.189965+01 | 1486303554.18997 | pgbench_tellers  |           450560
 2017-02-05 15:05:54.189965+01 | 1486303554.18997 | pgbench_history  |        343154688
 2017-02-05 15:05:54.189965+01 | 1486303554.18997 | pgbench_branches |            40960

 2017-02-05 15:05:55.2692+01 | 1486303555.2692 | pgbench_accounts |      13768179712
 2017-02-05 15:05:55.2692+01 | 1486303555.2692 | pgbench_tellers  |           450560
 2017-02-05 15:05:55.2692+01 | 1486303555.2692 | pgbench_history  |        344350720
 2017-02-05 15:05:55.2692+01 | 1486303555.2692 | pgbench_branches |            40960

 2017-02-05 15:05:56.357066+01 | 1486303556.35707 | pgbench_accounts |      13768179712
 2017-02-05 15:05:56.357066+01 | 1486303556.35707 | pgbench_tellers  |           450560
 2017-02-05 15:05:56.357066+01 | 1486303556.35707 | pgbench_history  |        345784320
 2017-02-05 15:05:56.357066+01 | 1486303556.35707 | pgbench_branches |            40960

 2017-02-05 15:05:57.439258+01 | 1486303557.43926 | pgbench_accounts |      13768179712
 2017-02-05 15:05:57.439258+01 | 1486303557.43926 | pgbench_tellers  |           450560
 2017-02-05 15:05:57.439258+01 | 1486303557.43926 | pgbench_history  |        347496448
 2017-02-05 15:05:57.439258+01 | 1486303557.43926 | pgbench_branches |            40960

 2017-02-05 15:05:58.515774+01 | 1486303558.51577 | pgbench_accounts |      13768179712
 2017-02-05 15:05:58.515774+01 | 1486303558.51577 | pgbench_tellers  |           450560
 2017-02-05 15:05:58.515774+01 | 1486303558.51577 | pgbench_history  |        348905472
 2017-02-05 15:05:58.515774+01 | 1486303558.51577 | pgbench_branches |            40960

 2017-02-05 15:05:59.597799+01 | 1486303559.5978 | pgbench_accounts |      13768179712
 2017-02-05 15:05:59.597799+01 | 1486303559.5978 | pgbench_tellers  |           450560
 2017-02-05 15:05:59.597799+01 | 1486303559.5978 | pgbench_history  |        350642176
 2017-02-05 15:05:59.597799+01 | 1486303559.5978 | pgbench_branches |            40960

 2017-02-05 15:06:00.670719+01 | 1486303560.67072 | pgbench_accounts |      13768179712
 2017-02-05 15:06:00.670719+01 | 1486303560.67072 | pgbench_tellers  |           450560
 2017-02-05 15:06:00.670719+01 | 1486303560.67072 | pgbench_history  |        353034240
 2017-02-05 15:06:00.670719+01 | 1486303560.67072 | pgbench_branches |            40960

 2017-02-05 15:06:01.749049+01 | 1486303561.74905 | pgbench_accounts |      13768179712
 2017-02-05 15:06:01.749049+01 | 1486303561.74905 | pgbench_tellers  |           450560
 2017-02-05 15:06:01.749049+01 | 1486303561.74905 | pgbench_history  |        353878016
 2017-02-05 15:06:01.749049+01 | 1486303561.74905 | pgbench_branches |            40960

 2017-02-05 15:06:02.824443+01 | 1486303562.82444 | pgbench_accounts |      13768179712
 2017-02-05 15:06:02.824443+01 | 1486303562.82444 | pgbench_tellers  |           450560
 2017-02-05 15:06:02.824443+01 | 1486303562.82444 | pgbench_history  |        355426304
 2017-02-05 15:06:02.824443+01 | 1486303562.82444 | pgbench_branches |            40960

 2017-02-05 15:06:03.904846+01 | 1486303563.90485 | pgbench_accounts |      13768179712
 2017-02-05 15:06:03.904846+01 | 1486303563.90485 | pgbench_tellers  |           450560
 2017-02-05 15:06:03.904846+01 | 1486303563.90485 | pgbench_history  |        357376000
 2017-02-05 15:06:03.904846+01 | 1486303563.90485 | pgbench_branches |            40960

 2017-02-05 15:06:04.983043+01 | 1486303564.98304 | pgbench_accounts |      13768179712
 2017-02-05 15:06:04.983043+01 | 1486303564.98304 | pgbench_tellers  |           450560
 2017-02-05 15:06:04.983043+01 | 1486303564.98304 | pgbench_history  |        359120896
 2017-02-05 15:06:04.983043+01 | 1486303564.98304 | pgbench_branches |            40960

 2017-02-05 15:06:06.058617+01 | 1486303566.05862 | pgbench_accounts |      13768179712
 2017-02-05 15:06:06.058617+01 | 1486303566.05862 | pgbench_tellers  |           450560
 2017-02-05 15:06:06.058617+01 | 1486303566.05862 | pgbench_history  |        360316928
 2017-02-05 15:06:06.058617+01 | 1486303566.05862 | pgbench_branches |            40960

 2017-02-05 15:06:07.134101+01 | 1486303567.1341 | pgbench_accounts |      13768179712
 2017-02-05 15:06:07.134101+01 | 1486303567.1341 | pgbench_tellers  |           450560
 2017-02-05 15:06:07.134101+01 | 1486303567.1341 | pgbench_history  |        362061824
 2017-02-05 15:06:07.134101+01 | 1486303567.1341 | pgbench_branches |            40960

 2017-02-05 15:06:08.213593+01 | 1486303568.21359 | pgbench_accounts |      13768179712
 2017-02-05 15:06:08.213593+01 | 1486303568.21359 | pgbench_tellers  |           450560
 2017-02-05 15:06:08.213593+01 | 1486303568.21359 | pgbench_history  |        363585536
 2017-02-05 15:06:08.213593+01 | 1486303568.21359 | pgbench_branches |            40960

 2017-02-05 15:06:09.297822+01 | 1486303569.29782 | pgbench_accounts |      13768179712
 2017-02-05 15:06:09.297822+01 | 1486303569.29782 | pgbench_tellers  |           450560
 2017-02-05 15:06:09.297822+01 | 1486303569.29782 | pgbench_history  |        365142016
 2017-02-05 15:06:09.297822+01 | 1486303569.29782 | pgbench_branches |            40960

 2017-02-05 15:06:10.376214+01 | 1486303570.37621 | pgbench_accounts |      13768179712
 2017-02-05 15:06:10.376214+01 | 1486303570.37621 | pgbench_tellers  |           450560
 2017-02-05 15:06:10.376214+01 | 1486303570.37621 | pgbench_history  |        366903296
 2017-02-05 15:06:10.376214+01 | 1486303570.37621 | pgbench_branches |            40960

 2017-02-05 15:06:11.461665+01 | 1486303571.46166 | pgbench_accounts |      13768179712
 2017-02-05 15:06:11.461665+01 | 1486303571.46166 | pgbench_tellers  |           450560
 2017-02-05 15:06:11.461665+01 | 1486303571.46166 | pgbench_history  |        368451584
 2017-02-05 15:06:11.461665+01 | 1486303571.46166 | pgbench_branches |            40960

 2017-02-05 15:06:12.53864+01 | 1486303572.53864 | pgbench_accounts |      13768179712
 2017-02-05 15:06:12.53864+01 | 1486303572.53864 | pgbench_tellers  |           450560
 2017-02-05 15:06:12.53864+01 | 1486303572.53864 | pgbench_history  |        369836032
 2017-02-05 15:06:12.53864+01 | 1486303572.53864 | pgbench_branches |            40960

 2017-02-05 15:06:13.614618+01 | 1486303573.61462 | pgbench_accounts |      13768179712
 2017-02-05 15:06:13.614618+01 | 1486303573.61462 | pgbench_tellers  |           450560
 2017-02-05 15:06:13.614618+01 | 1486303573.61462 | pgbench_history  |        371744768
 2017-02-05 15:06:13.614618+01 | 1486303573.61462 | pgbench_branches |            40960

 2017-02-05 15:06:14.690596+01 | 1486303574.6906 | pgbench_accounts |      13768179712
 2017-02-05 15:06:14.690596+01 | 1486303574.6906 | pgbench_tellers  |           450560
 2017-02-05 15:06:14.690596+01 | 1486303574.6906 | pgbench_history  |        373129216
 2017-02-05 15:06:14.690596+01 | 1486303574.6906 | pgbench_branches |            40960

 2017-02-05 15:06:15.761809+01 | 1486303575.76181 | pgbench_accounts |      13768179712
 2017-02-05 15:06:15.761809+01 | 1486303575.76181 | pgbench_tellers  |           450560
 2017-02-05 15:06:15.761809+01 | 1486303575.76181 | pgbench_history  |        375046144
 2017-02-05 15:06:15.761809+01 | 1486303575.76181 | pgbench_branches |            40960

 2017-02-05 15:06:16.843863+01 | 1486303576.84386 | pgbench_accounts |      13768179712
 2017-02-05 15:06:16.843863+01 | 1486303576.84386 | pgbench_tellers  |           450560
 2017-02-05 15:06:16.843863+01 | 1486303576.84386 | pgbench_history  |        376766464
 2017-02-05 15:06:16.843863+01 | 1486303576.84386 | pgbench_branches |            40960

 2017-02-05 15:06:17.920528+01 | 1486303577.92053 | pgbench_accounts |      13768179712
 2017-02-05 15:06:17.920528+01 | 1486303577.92053 | pgbench_tellers  |           450560
 2017-02-05 15:06:17.920528+01 | 1486303577.92053 | pgbench_history  |        378150912
 2017-02-05 15:06:17.920528+01 | 1486303577.92053 | pgbench_branches |            40960

 2017-02-05 15:06:18.99598+01 | 1486303578.99598 | pgbench_accounts |      13768179712
 2017-02-05 15:06:18.99598+01 | 1486303578.99598 | pgbench_tellers  |           450560
 2017-02-05 15:06:18.99598+01 | 1486303578.99598 | pgbench_history  |        379510784
 2017-02-05 15:06:18.99598+01 | 1486303578.99598 | pgbench_branches |            40960

 2017-02-05 15:06:20.076165+01 | 1486303580.07616 | pgbench_accounts |      13768179712
 2017-02-05 15:06:20.076165+01 | 1486303580.07616 | pgbench_tellers  |           450560
 2017-02-05 15:06:20.076165+01 | 1486303580.07616 | pgbench_history  |        381075456
 2017-02-05 15:06:20.076165+01 | 1486303580.07616 | pgbench_branches |            40960

 2017-02-05 15:06:21.150065+01 | 1486303581.15006 | pgbench_accounts |      13768179712
 2017-02-05 15:06:21.150065+01 | 1486303581.15006 | pgbench_tellers  |           450560
 2017-02-05 15:06:21.150065+01 | 1486303581.15006 | pgbench_history  |        382787584
 2017-02-05 15:06:21.150065+01 | 1486303581.15006 | pgbench_branches |            40960

 2017-02-05 15:06:22.224417+01 | 1486303582.22442 | pgbench_accounts |      13768179712
 2017-02-05 15:06:22.224417+01 | 1486303582.22442 | pgbench_tellers  |           450560
 2017-02-05 15:06:22.224417+01 | 1486303582.22442 | pgbench_history  |        384212992
 2017-02-05 15:06:22.224417+01 | 1486303582.22442 | pgbench_branches |            40960

 2017-02-05 15:06:23.299094+01 | 1486303583.29909 | pgbench_accounts |      13768179712
 2017-02-05 15:06:23.299094+01 | 1486303583.29909 | pgbench_tellers  |           450560
 2017-02-05 15:06:23.299094+01 | 1486303583.29909 | pgbench_history  |        385966080
 2017-02-05 15:06:23.299094+01 | 1486303583.29909 | pgbench_branches |            40960

 2017-02-05 15:06:24.375261+01 | 1486303584.37526 | pgbench_accounts |      13768179712
 2017-02-05 15:06:24.375261+01 | 1486303584.37526 | pgbench_tellers  |           450560
 2017-02-05 15:06:24.375261+01 | 1486303584.37526 | pgbench_history  |        387686400
 2017-02-05 15:06:24.375261+01 | 1486303584.37526 | pgbench_branches |            40960

 2017-02-05 15:06:25.458576+01 | 1486303585.45858 | pgbench_accounts |      13768179712
 2017-02-05 15:06:25.458576+01 | 1486303585.45858 | pgbench_tellers  |           450560
 2017-02-05 15:06:25.458576+01 | 1486303585.45858 | pgbench_history  |        389537792
 2017-02-05 15:06:25.458576+01 | 1486303585.45858 | pgbench_branches |            40960

 2017-02-05 15:06:26.547251+01 | 1486303586.54725 | pgbench_accounts |      13768179712
 2017-02-05 15:06:26.547251+01 | 1486303586.54725 | pgbench_tellers  |           450560
 2017-02-05 15:06:26.547251+01 | 1486303586.54725 | pgbench_history  |        391561216
 2017-02-05 15:06:26.547251+01 | 1486303586.54725 | pgbench_branches |            40960

 2017-02-05 15:06:27.625264+01 | 1486303587.62526 | pgbench_accounts |      13768179712
 2017-02-05 15:06:27.625264+01 | 1486303587.62526 | pgbench_tellers  |           450560
 2017-02-05 15:06:27.625264+01 | 1486303587.62526 | pgbench_history  |        392437760
 2017-02-05 15:06:27.625264+01 | 1486303587.62526 | pgbench_branches |            40960

 2017-02-05 15:06:28.708107+01 | 1486303588.70811 | pgbench_accounts |      13768179712
 2017-02-05 15:06:28.708107+01 | 1486303588.70811 | pgbench_tellers  |           450560
 2017-02-05 15:06:28.708107+01 | 1486303588.70811 | pgbench_history  |        394149888
 2017-02-05 15:06:28.708107+01 | 1486303588.70811 | pgbench_branches |            40960

 2017-02-05 15:06:29.786757+01 | 1486303589.78676 | pgbench_accounts |      13768179712
 2017-02-05 15:06:29.786757+01 | 1486303589.78676 | pgbench_tellers  |           450560
 2017-02-05 15:06:29.786757+01 | 1486303589.78676 | pgbench_history  |        395862016
 2017-02-05 15:06:29.786757+01 | 1486303589.78676 | pgbench_branches |            40960

 2017-02-05 15:06:30.860967+01 | 1486303590.86097 | pgbench_accounts |      13768179712
 2017-02-05 15:06:30.860967+01 | 1486303590.86097 | pgbench_tellers  |           450560
 2017-02-05 15:06:30.860967+01 | 1486303590.86097 | pgbench_history  |        397090816
 2017-02-05 15:06:30.860967+01 | 1486303590.86097 | pgbench_branches |            40960

 2017-02-05 15:06:31.943852+01 | 1486303591.94385 | pgbench_accounts |      13768179712
 2017-02-05 15:06:31.943852+01 | 1486303591.94385 | pgbench_tellers  |           450560
 2017-02-05 15:06:31.943852+01 | 1486303591.94385 | pgbench_history  |        398991360
 2017-02-05 15:06:31.943852+01 | 1486303591.94385 | pgbench_branches |            40960

 2017-02-05 15:06:33.021821+01 | 1486303593.02182 | pgbench_accounts |      13768179712
 2017-02-05 15:06:33.021821+01 | 1486303593.02182 | pgbench_tellers  |           450560
 2017-02-05 15:06:33.021821+01 | 1486303593.02182 | pgbench_history  |        400564224
 2017-02-05 15:06:33.021821+01 | 1486303593.02182 | pgbench_branches |            40960

 2017-02-05 15:06:34.101158+01 | 1486303594.10116 | pgbench_accounts |      13768179712
 2017-02-05 15:06:34.101158+01 | 1486303594.10116 | pgbench_tellers  |           450560
 2017-02-05 15:06:34.101158+01 | 1486303594.10116 | pgbench_history  |        402014208
 2017-02-05 15:06:34.101158+01 | 1486303594.10116 | pgbench_branches |            40960

 2017-02-05 15:06:35.178846+01 | 1486303595.17885 | pgbench_accounts |      13768179712
 2017-02-05 15:06:35.178846+01 | 1486303595.17885 | pgbench_tellers  |           450560
 2017-02-05 15:06:35.178846+01 | 1486303595.17885 | pgbench_history  |        404078592
 2017-02-05 15:06:35.178846+01 | 1486303595.17885 | pgbench_branches |            40960

 2017-02-05 15:06:36.257061+01 | 1486303596.25706 | pgbench_accounts |      13768179712
 2017-02-05 15:06:36.257061+01 | 1486303596.25706 | pgbench_tellers  |           450560
 2017-02-05 15:06:36.257061+01 | 1486303596.25706 | pgbench_history  |        405520384
 2017-02-05 15:06:36.257061+01 | 1486303596.25706 | pgbench_branches |            40960

 2017-02-05 15:06:37.337601+01 | 1486303597.3376 | pgbench_accounts |      13768179712
 2017-02-05 15:06:37.337601+01 | 1486303597.3376 | pgbench_tellers  |           450560
 2017-02-05 15:06:37.337601+01 | 1486303597.3376 | pgbench_history  |        407060480
 2017-02-05 15:06:37.337601+01 | 1486303597.3376 | pgbench_branches |            40960

 2017-02-05 15:06:38.421711+01 | 1486303598.42171 | pgbench_accounts |      13768179712
 2017-02-05 15:06:38.421711+01 | 1486303598.42171 | pgbench_tellers  |           450560
 2017-02-05 15:06:38.421711+01 | 1486303598.42171 | pgbench_history  |        408805376
 2017-02-05 15:06:38.421711+01 | 1486303598.42171 | pgbench_branches |            40960

 2017-02-05 15:06:39.503006+01 | 1486303599.50301 | pgbench_accounts |      13768179712
 2017-02-05 15:06:39.503006+01 | 1486303599.50301 | pgbench_tellers  |           450560
 2017-02-05 15:06:39.503006+01 | 1486303599.50301 | pgbench_history  |        410214400
 2017-02-05 15:06:39.503006+01 | 1486303599.50301 | pgbench_branches |            40960

 2017-02-05 15:06:40.588764+01 | 1486303600.58876 | pgbench_accounts |      13768179712
 2017-02-05 15:06:40.588764+01 | 1486303600.58876 | pgbench_tellers  |           450560
 2017-02-05 15:06:40.588764+01 | 1486303600.58876 | pgbench_history  |        411959296
 2017-02-05 15:06:40.588764+01 | 1486303600.58876 | pgbench_branches |            40960

 2017-02-05 15:06:41.663109+01 | 1486303601.66311 | pgbench_accounts |      13768179712
 2017-02-05 15:06:41.663109+01 | 1486303601.66311 | pgbench_tellers  |           450560
 2017-02-05 15:06:41.663109+01 | 1486303601.66311 | pgbench_history  |        413564928
 2017-02-05 15:06:41.663109+01 | 1486303601.66311 | pgbench_branches |            40960

 2017-02-05 15:06:42.742636+01 | 1486303602.74264 | pgbench_accounts |      13768179712
 2017-02-05 15:06:42.742636+01 | 1486303602.74264 | pgbench_tellers  |           450560
 2017-02-05 15:06:42.742636+01 | 1486303602.74264 | pgbench_history  |        415318016
 2017-02-05 15:06:42.742636+01 | 1486303602.74264 | pgbench_branches |            40960

 2017-02-05 15:06:43.827558+01 | 1486303603.82756 | pgbench_accounts |      13768179712
 2017-02-05 15:06:43.827558+01 | 1486303603.82756 | pgbench_tellers  |           450560
 2017-02-05 15:06:43.827558+01 | 1486303603.82756 | pgbench_history  |        416841728
 2017-02-05 15:06:43.827558+01 | 1486303603.82756 | pgbench_branches |            40960

 2017-02-05 15:06:44.907098+01 | 1486303604.9071 | pgbench_accounts |      13768179712
 2017-02-05 15:06:44.907098+01 | 1486303604.9071 | pgbench_tellers  |           450560
 2017-02-05 15:06:44.907098+01 | 1486303604.9071 | pgbench_history  |        418553856
 2017-02-05 15:06:44.907098+01 | 1486303604.9071 | pgbench_branches |            40960

 2017-02-05 15:06:45.98275+01 | 1486303605.98275 | pgbench_accounts |      13768179712
 2017-02-05 15:06:45.98275+01 | 1486303605.98275 | pgbench_tellers  |           450560
 2017-02-05 15:06:45.98275+01 | 1486303605.98275 | pgbench_history  |        419962880
 2017-02-05 15:06:45.98275+01 | 1486303605.98275 | pgbench_branches |            40960

 2017-02-05 15:06:47.062199+01 | 1486303607.0622 | pgbench_accounts |      13768179712
 2017-02-05 15:06:47.062199+01 | 1486303607.0622 | pgbench_tellers  |           450560
 2017-02-05 15:06:47.062199+01 | 1486303607.0622 | pgbench_history  |        421699584
 2017-02-05 15:06:47.062199+01 | 1486303607.0622 | pgbench_branches |            40960

 2017-02-05 15:06:48.137557+01 | 1486303608.13756 | pgbench_accounts |      13768179712
 2017-02-05 15:06:48.137557+01 | 1486303608.13756 | pgbench_tellers  |           450560
 2017-02-05 15:06:48.137557+01 | 1486303608.13756 | pgbench_history  |        423510016
 2017-02-05 15:06:48.137557+01 | 1486303608.13756 | pgbench_branches |            40960

 2017-02-05 15:06:49.212723+01 | 1486303609.21272 | pgbench_accounts |      13768179712
 2017-02-05 15:06:49.212723+01 | 1486303609.21272 | pgbench_tellers  |           450560
 2017-02-05 15:06:49.212723+01 | 1486303609.21272 | pgbench_history  |        425066496
 2017-02-05 15:06:49.212723+01 | 1486303609.21272 | pgbench_branches |            40960

 2017-02-05 15:06:50.28674+01 | 1486303610.28674 | pgbench_accounts |      13768179712
 2017-02-05 15:06:50.28674+01 | 1486303610.28674 | pgbench_tellers  |           450560
 2017-02-05 15:06:50.28674+01 | 1486303610.28674 | pgbench_history  |        426287104
 2017-02-05 15:06:50.28674+01 | 1486303610.28674 | pgbench_branches |            40960

 2017-02-05 15:06:51.363073+01 | 1486303611.36307 | pgbench_accounts |      13768179712
 2017-02-05 15:06:51.363073+01 | 1486303611.36307 | pgbench_tellers  |           450560
 2017-02-05 15:06:51.363073+01 | 1486303611.36307 | pgbench_history  |        427859968
 2017-02-05 15:06:51.363073+01 | 1486303611.36307 | pgbench_branches |            40960

 2017-02-05 15:06:52.442636+01 | 1486303612.44264 | pgbench_accounts |      13768179712
 2017-02-05 15:06:52.442636+01 | 1486303612.44264 | pgbench_tellers  |           450560
 2017-02-05 15:06:52.442636+01 | 1486303612.44264 | pgbench_history  |        429932544
 2017-02-05 15:06:52.442636+01 | 1486303612.44264 | pgbench_branches |            40960

 2017-02-05 15:06:53.515604+01 | 1486303613.5156 | pgbench_accounts |      13768179712
 2017-02-05 15:06:53.515604+01 | 1486303613.5156 | pgbench_tellers  |           450560
 2017-02-05 15:06:53.515604+01 | 1486303613.5156 | pgbench_history  |        431292416
 2017-02-05 15:06:53.515604+01 | 1486303613.5156 | pgbench_branches |            40960

 2017-02-05 15:06:54.585479+01 | 1486303614.58548 | pgbench_accounts |      13768179712
 2017-02-05 15:06:54.585479+01 | 1486303614.58548 | pgbench_tellers  |           450560
 2017-02-05 15:06:54.585479+01 | 1486303614.58548 | pgbench_history  |        432881664
 2017-02-05 15:06:54.585479+01 | 1486303614.58548 | pgbench_branches |            40960

