 2017-02-06 17:44:29.489974+01 | 1486399469.48997 | pgbench_branches_pkey |            90112
 2017-02-06 17:44:29.489974+01 | 1486399469.48997 | pgbench_tellers_pkey  |           442368
 2017-02-06 17:44:29.489974+01 | 1486399469.48997 | pgbench_accounts_pkey |        224641024

 2017-02-06 17:44:30.593047+01 | 1486399470.59305 | pgbench_branches_pkey |            90112
 2017-02-06 17:44:30.593047+01 | 1486399470.59305 | pgbench_tellers_pkey  |           442368
 2017-02-06 17:44:30.593047+01 | 1486399470.59305 | pgbench_accounts_pkey |        224641024

 2017-02-06 17:44:31.67048+01 | 1486399471.67048 | pgbench_branches_pkey |            90112
 2017-02-06 17:44:31.67048+01 | 1486399471.67048 | pgbench_tellers_pkey  |           442368
 2017-02-06 17:44:31.67048+01 | 1486399471.67048 | pgbench_accounts_pkey |        224641024

 2017-02-06 17:44:32.760239+01 | 1486399472.76024 | pgbench_branches_pkey |            90112
 2017-02-06 17:44:32.760239+01 | 1486399472.76024 | pgbench_tellers_pkey  |           442368
 2017-02-06 17:44:32.760239+01 | 1486399472.76024 | pgbench_accounts_pkey |        224641024

 2017-02-06 17:44:33.83923+01 | 1486399473.83923 | pgbench_branches_pkey |            90112
 2017-02-06 17:44:33.83923+01 | 1486399473.83923 | pgbench_tellers_pkey  |           442368
 2017-02-06 17:44:33.83923+01 | 1486399473.83923 | pgbench_accounts_pkey |        224641024

 2017-02-06 17:44:34.919228+01 | 1486399474.91923 | pgbench_branches_pkey |            90112
 2017-02-06 17:44:34.919228+01 | 1486399474.91923 | pgbench_tellers_pkey  |           442368
 2017-02-06 17:44:34.919228+01 | 1486399474.91923 | pgbench_accounts_pkey |        224641024

 2017-02-06 17:44:35.988661+01 | 1486399475.98866 | pgbench_branches_pkey |            90112
 2017-02-06 17:44:35.988661+01 | 1486399475.98866 | pgbench_tellers_pkey  |           442368
 2017-02-06 17:44:35.988661+01 | 1486399475.98866 | pgbench_accounts_pkey |        224641024

 2017-02-06 17:44:37.074245+01 | 1486399477.07424 | pgbench_branches_pkey |            90112
 2017-02-06 17:44:37.074245+01 | 1486399477.07424 | pgbench_tellers_pkey  |           442368
 2017-02-06 17:44:37.074245+01 | 1486399477.07424 | pgbench_accounts_pkey |        224641024

 2017-02-06 17:44:38.158117+01 | 1486399478.15812 | pgbench_branches_pkey |            90112
 2017-02-06 17:44:38.158117+01 | 1486399478.15812 | pgbench_tellers_pkey  |           442368
 2017-02-06 17:44:38.158117+01 | 1486399478.15812 | pgbench_accounts_pkey |        224641024

 2017-02-06 17:44:39.233964+01 | 1486399479.23396 | pgbench_branches_pkey |            90112
 2017-02-06 17:44:39.233964+01 | 1486399479.23396 | pgbench_tellers_pkey  |           442368
 2017-02-06 17:44:39.233964+01 | 1486399479.23396 | pgbench_accounts_pkey |        224641024

 2017-02-06 17:44:40.310202+01 | 1486399480.3102 | pgbench_branches_pkey |            90112
 2017-02-06 17:44:40.310202+01 | 1486399480.3102 | pgbench_tellers_pkey  |           442368
 2017-02-06 17:44:40.310202+01 | 1486399480.3102 | pgbench_accounts_pkey |        224641024

 2017-02-06 17:44:41.390736+01 | 1486399481.39074 | pgbench_branches_pkey |            90112
 2017-02-06 17:44:41.390736+01 | 1486399481.39074 | pgbench_tellers_pkey  |           442368
 2017-02-06 17:44:41.390736+01 | 1486399481.39074 | pgbench_accounts_pkey |        224641024

 2017-02-06 17:44:42.463809+01 | 1486399482.46381 | pgbench_branches_pkey |            90112
 2017-02-06 17:44:42.463809+01 | 1486399482.46381 | pgbench_tellers_pkey  |           442368
 2017-02-06 17:44:42.463809+01 | 1486399482.46381 | pgbench_accounts_pkey |        224641024

 2017-02-06 17:44:43.541113+01 | 1486399483.54111 | pgbench_branches_pkey |            90112
 2017-02-06 17:44:43.541113+01 | 1486399483.54111 | pgbench_tellers_pkey  |           442368
 2017-02-06 17:44:43.541113+01 | 1486399483.54111 | pgbench_accounts_pkey |        224641024

 2017-02-06 17:44:44.620013+01 | 1486399484.62001 | pgbench_branches_pkey |            90112
 2017-02-06 17:44:44.620013+01 | 1486399484.62001 | pgbench_tellers_pkey  |           442368
 2017-02-06 17:44:44.620013+01 | 1486399484.62001 | pgbench_accounts_pkey |        224641024

 2017-02-06 17:44:45.696186+01 | 1486399485.69619 | pgbench_branches_pkey |            90112
 2017-02-06 17:44:45.696186+01 | 1486399485.69619 | pgbench_tellers_pkey  |           442368
 2017-02-06 17:44:45.696186+01 | 1486399485.69619 | pgbench_accounts_pkey |        224641024

 2017-02-06 17:44:46.778971+01 | 1486399486.77897 | pgbench_branches_pkey |            90112
 2017-02-06 17:44:46.778971+01 | 1486399486.77897 | pgbench_tellers_pkey  |           442368
 2017-02-06 17:44:46.778971+01 | 1486399486.77897 | pgbench_accounts_pkey |        224641024

 2017-02-06 17:44:47.861053+01 | 1486399487.86105 | pgbench_branches_pkey |            90112
 2017-02-06 17:44:47.861053+01 | 1486399487.86105 | pgbench_tellers_pkey  |           442368
 2017-02-06 17:44:47.861053+01 | 1486399487.86105 | pgbench_accounts_pkey |        224641024

 2017-02-06 17:44:48.940765+01 | 1486399488.94076 | pgbench_branches_pkey |            90112
 2017-02-06 17:44:48.940765+01 | 1486399488.94076 | pgbench_tellers_pkey  |           442368
 2017-02-06 17:44:48.940765+01 | 1486399488.94076 | pgbench_accounts_pkey |        224641024

 2017-02-06 17:44:50.021397+01 | 1486399490.0214 | pgbench_branches_pkey |            90112
 2017-02-06 17:44:50.021397+01 | 1486399490.0214 | pgbench_tellers_pkey  |           442368
 2017-02-06 17:44:50.021397+01 | 1486399490.0214 | pgbench_accounts_pkey |        224641024

 2017-02-06 17:44:51.106168+01 | 1486399491.10617 | pgbench_branches_pkey |            90112
 2017-02-06 17:44:51.106168+01 | 1486399491.10617 | pgbench_tellers_pkey  |           442368
 2017-02-06 17:44:51.106168+01 | 1486399491.10617 | pgbench_accounts_pkey |        224641024

 2017-02-06 17:44:52.187867+01 | 1486399492.18787 | pgbench_branches_pkey |            90112
 2017-02-06 17:44:52.187867+01 | 1486399492.18787 | pgbench_tellers_pkey  |           442368
 2017-02-06 17:44:52.187867+01 | 1486399492.18787 | pgbench_accounts_pkey |        224641024

 2017-02-06 17:44:53.268051+01 | 1486399493.26805 | pgbench_branches_pkey |            90112
 2017-02-06 17:44:53.268051+01 | 1486399493.26805 | pgbench_tellers_pkey  |           442368
 2017-02-06 17:44:53.268051+01 | 1486399493.26805 | pgbench_accounts_pkey |        224641024

 2017-02-06 17:44:54.349026+01 | 1486399494.34903 | pgbench_branches_pkey |            90112
 2017-02-06 17:44:54.349026+01 | 1486399494.34903 | pgbench_tellers_pkey  |           442368
 2017-02-06 17:44:54.349026+01 | 1486399494.34903 | pgbench_accounts_pkey |        224641024

 2017-02-06 17:44:55.431781+01 | 1486399495.43178 | pgbench_branches_pkey |            90112
 2017-02-06 17:44:55.431781+01 | 1486399495.43178 | pgbench_tellers_pkey  |           442368
 2017-02-06 17:44:55.431781+01 | 1486399495.43178 | pgbench_accounts_pkey |        224641024

 2017-02-06 17:44:56.508456+01 | 1486399496.50846 | pgbench_branches_pkey |            90112
 2017-02-06 17:44:56.508456+01 | 1486399496.50846 | pgbench_tellers_pkey  |           442368
 2017-02-06 17:44:56.508456+01 | 1486399496.50846 | pgbench_accounts_pkey |        224641024

 2017-02-06 17:44:57.585138+01 | 1486399497.58514 | pgbench_branches_pkey |            90112
 2017-02-06 17:44:57.585138+01 | 1486399497.58514 | pgbench_tellers_pkey  |           442368
 2017-02-06 17:44:57.585138+01 | 1486399497.58514 | pgbench_accounts_pkey |        224641024

 2017-02-06 17:44:58.659574+01 | 1486399498.65957 | pgbench_branches_pkey |            90112
 2017-02-06 17:44:58.659574+01 | 1486399498.65957 | pgbench_tellers_pkey  |           442368
 2017-02-06 17:44:58.659574+01 | 1486399498.65957 | pgbench_accounts_pkey |        224641024

 2017-02-06 17:44:59.733557+01 | 1486399499.73356 | pgbench_branches_pkey |            90112
 2017-02-06 17:44:59.733557+01 | 1486399499.73356 | pgbench_tellers_pkey  |           442368
 2017-02-06 17:44:59.733557+01 | 1486399499.73356 | pgbench_accounts_pkey |        224641024

 2017-02-06 17:45:00.814387+01 | 1486399500.81439 | pgbench_branches_pkey |            90112
 2017-02-06 17:45:00.814387+01 | 1486399500.81439 | pgbench_tellers_pkey  |           442368
 2017-02-06 17:45:00.814387+01 | 1486399500.81439 | pgbench_accounts_pkey |        224641024

 2017-02-06 17:45:01.89492+01 | 1486399501.89492 | pgbench_branches_pkey |            90112
 2017-02-06 17:45:01.89492+01 | 1486399501.89492 | pgbench_tellers_pkey  |           442368
 2017-02-06 17:45:01.89492+01 | 1486399501.89492 | pgbench_accounts_pkey |        224641024

 2017-02-06 17:45:02.976001+01 | 1486399502.976 | pgbench_branches_pkey |            90112
 2017-02-06 17:45:02.976001+01 | 1486399502.976 | pgbench_tellers_pkey  |           442368
 2017-02-06 17:45:02.976001+01 | 1486399502.976 | pgbench_accounts_pkey |        224641024

 2017-02-06 17:45:04.05181+01 | 1486399504.05181 | pgbench_branches_pkey |            90112
 2017-02-06 17:45:04.05181+01 | 1486399504.05181 | pgbench_tellers_pkey  |           442368
 2017-02-06 17:45:04.05181+01 | 1486399504.05181 | pgbench_accounts_pkey |        224641024

 2017-02-06 17:45:05.126779+01 | 1486399505.12678 | pgbench_branches_pkey |            90112
 2017-02-06 17:45:05.126779+01 | 1486399505.12678 | pgbench_tellers_pkey  |           442368
 2017-02-06 17:45:05.126779+01 | 1486399505.12678 | pgbench_accounts_pkey |        224641024

 2017-02-06 17:45:06.201918+01 | 1486399506.20192 | pgbench_branches_pkey |            90112
 2017-02-06 17:45:06.201918+01 | 1486399506.20192 | pgbench_tellers_pkey  |           442368
 2017-02-06 17:45:06.201918+01 | 1486399506.20192 | pgbench_accounts_pkey |        224641024

 2017-02-06 17:45:07.281987+01 | 1486399507.28199 | pgbench_branches_pkey |            90112
 2017-02-06 17:45:07.281987+01 | 1486399507.28199 | pgbench_tellers_pkey  |           442368
 2017-02-06 17:45:07.281987+01 | 1486399507.28199 | pgbench_accounts_pkey |        224641024

 2017-02-06 17:45:08.368329+01 | 1486399508.36833 | pgbench_branches_pkey |            90112
 2017-02-06 17:45:08.368329+01 | 1486399508.36833 | pgbench_tellers_pkey  |           442368
 2017-02-06 17:45:08.368329+01 | 1486399508.36833 | pgbench_accounts_pkey |        224641024

 2017-02-06 17:45:09.448813+01 | 1486399509.44881 | pgbench_branches_pkey |            90112
 2017-02-06 17:45:09.448813+01 | 1486399509.44881 | pgbench_tellers_pkey  |           442368
 2017-02-06 17:45:09.448813+01 | 1486399509.44881 | pgbench_accounts_pkey |        224641024

 2017-02-06 17:45:10.524777+01 | 1486399510.52478 | pgbench_branches_pkey |            90112
 2017-02-06 17:45:10.524777+01 | 1486399510.52478 | pgbench_tellers_pkey  |           442368
 2017-02-06 17:45:10.524777+01 | 1486399510.52478 | pgbench_accounts_pkey |        224641024

 2017-02-06 17:45:11.601698+01 | 1486399511.6017 | pgbench_branches_pkey |            90112
 2017-02-06 17:45:11.601698+01 | 1486399511.6017 | pgbench_tellers_pkey  |           442368
 2017-02-06 17:45:11.601698+01 | 1486399511.6017 | pgbench_accounts_pkey |        224641024

 2017-02-06 17:45:12.683558+01 | 1486399512.68356 | pgbench_branches_pkey |            90112
 2017-02-06 17:45:12.683558+01 | 1486399512.68356 | pgbench_tellers_pkey  |           442368
 2017-02-06 17:45:12.683558+01 | 1486399512.68356 | pgbench_accounts_pkey |        224641024

 2017-02-06 17:45:13.766974+01 | 1486399513.76697 | pgbench_branches_pkey |            90112
 2017-02-06 17:45:13.766974+01 | 1486399513.76697 | pgbench_tellers_pkey  |           442368
 2017-02-06 17:45:13.766974+01 | 1486399513.76697 | pgbench_accounts_pkey |        224641024

 2017-02-06 17:45:14.846042+01 | 1486399514.84604 | pgbench_branches_pkey |            90112
 2017-02-06 17:45:14.846042+01 | 1486399514.84604 | pgbench_tellers_pkey  |           442368
 2017-02-06 17:45:14.846042+01 | 1486399514.84604 | pgbench_accounts_pkey |        224641024

 2017-02-06 17:45:15.923709+01 | 1486399515.92371 | pgbench_branches_pkey |            90112
 2017-02-06 17:45:15.923709+01 | 1486399515.92371 | pgbench_tellers_pkey  |           442368
 2017-02-06 17:45:15.923709+01 | 1486399515.92371 | pgbench_accounts_pkey |        224641024

 2017-02-06 17:45:17.006206+01 | 1486399517.00621 | pgbench_branches_pkey |            90112
 2017-02-06 17:45:17.006206+01 | 1486399517.00621 | pgbench_tellers_pkey  |           442368
 2017-02-06 17:45:17.006206+01 | 1486399517.00621 | pgbench_accounts_pkey |        224641024

 2017-02-06 17:45:18.081883+01 | 1486399518.08188 | pgbench_branches_pkey |            90112
 2017-02-06 17:45:18.081883+01 | 1486399518.08188 | pgbench_tellers_pkey  |           442368
 2017-02-06 17:45:18.081883+01 | 1486399518.08188 | pgbench_accounts_pkey |        224641024

 2017-02-06 17:45:19.164741+01 | 1486399519.16474 | pgbench_branches_pkey |            90112
 2017-02-06 17:45:19.164741+01 | 1486399519.16474 | pgbench_tellers_pkey  |           442368
 2017-02-06 17:45:19.164741+01 | 1486399519.16474 | pgbench_accounts_pkey |        224641024

 2017-02-06 17:45:20.242927+01 | 1486399520.24293 | pgbench_branches_pkey |            90112
 2017-02-06 17:45:20.242927+01 | 1486399520.24293 | pgbench_tellers_pkey  |           442368
 2017-02-06 17:45:20.242927+01 | 1486399520.24293 | pgbench_accounts_pkey |        224641024

 2017-02-06 17:45:21.322044+01 | 1486399521.32204 | pgbench_branches_pkey |            90112
 2017-02-06 17:45:21.322044+01 | 1486399521.32204 | pgbench_tellers_pkey  |           442368
 2017-02-06 17:45:21.322044+01 | 1486399521.32204 | pgbench_accounts_pkey |        224641024

 2017-02-06 17:45:22.398458+01 | 1486399522.39846 | pgbench_branches_pkey |            90112
 2017-02-06 17:45:22.398458+01 | 1486399522.39846 | pgbench_tellers_pkey  |           442368
 2017-02-06 17:45:22.398458+01 | 1486399522.39846 | pgbench_accounts_pkey |        224641024

 2017-02-06 17:45:23.487425+01 | 1486399523.48743 | pgbench_branches_pkey |            90112
 2017-02-06 17:45:23.487425+01 | 1486399523.48743 | pgbench_tellers_pkey  |           442368
 2017-02-06 17:45:23.487425+01 | 1486399523.48743 | pgbench_accounts_pkey |        224641024

 2017-02-06 17:45:24.576808+01 | 1486399524.57681 | pgbench_branches_pkey |            90112
 2017-02-06 17:45:24.576808+01 | 1486399524.57681 | pgbench_tellers_pkey  |           442368
 2017-02-06 17:45:24.576808+01 | 1486399524.57681 | pgbench_accounts_pkey |        224641024

 2017-02-06 17:45:25.652976+01 | 1486399525.65298 | pgbench_branches_pkey |            90112
 2017-02-06 17:45:25.652976+01 | 1486399525.65298 | pgbench_tellers_pkey  |           442368
 2017-02-06 17:45:25.652976+01 | 1486399525.65298 | pgbench_accounts_pkey |        224641024

 2017-02-06 17:45:26.732597+01 | 1486399526.7326 | pgbench_branches_pkey |            90112
 2017-02-06 17:45:26.732597+01 | 1486399526.7326 | pgbench_tellers_pkey  |           442368
 2017-02-06 17:45:26.732597+01 | 1486399526.7326 | pgbench_accounts_pkey |        224641024

 2017-02-06 17:45:27.802332+01 | 1486399527.80233 | pgbench_branches_pkey |            90112
 2017-02-06 17:45:27.802332+01 | 1486399527.80233 | pgbench_tellers_pkey  |           442368
 2017-02-06 17:45:27.802332+01 | 1486399527.80233 | pgbench_accounts_pkey |        224641024

 2017-02-06 17:45:28.881766+01 | 1486399528.88177 | pgbench_branches_pkey |            90112
 2017-02-06 17:45:28.881766+01 | 1486399528.88177 | pgbench_tellers_pkey  |           442368
 2017-02-06 17:45:28.881766+01 | 1486399528.88177 | pgbench_accounts_pkey |        224641024

 2017-02-06 17:45:29.962543+01 | 1486399529.96254 | pgbench_branches_pkey |            90112
 2017-02-06 17:45:29.962543+01 | 1486399529.96254 | pgbench_tellers_pkey  |           442368
 2017-02-06 17:45:29.962543+01 | 1486399529.96254 | pgbench_accounts_pkey |        224641024

 2017-02-06 17:45:31.04406+01 | 1486399531.04406 | pgbench_branches_pkey |            90112
 2017-02-06 17:45:31.04406+01 | 1486399531.04406 | pgbench_tellers_pkey  |           442368
 2017-02-06 17:45:31.04406+01 | 1486399531.04406 | pgbench_accounts_pkey |        224641024

 2017-02-06 17:45:32.127188+01 | 1486399532.12719 | pgbench_branches_pkey |            90112
 2017-02-06 17:45:32.127188+01 | 1486399532.12719 | pgbench_tellers_pkey  |           442368
 2017-02-06 17:45:32.127188+01 | 1486399532.12719 | pgbench_accounts_pkey |        224641024

 2017-02-06 17:45:33.204436+01 | 1486399533.20444 | pgbench_branches_pkey |            90112
 2017-02-06 17:45:33.204436+01 | 1486399533.20444 | pgbench_tellers_pkey  |           442368
 2017-02-06 17:45:33.204436+01 | 1486399533.20444 | pgbench_accounts_pkey |        224641024

 2017-02-06 17:45:34.27933+01 | 1486399534.27933 | pgbench_branches_pkey |            90112
 2017-02-06 17:45:34.27933+01 | 1486399534.27933 | pgbench_tellers_pkey  |           442368
 2017-02-06 17:45:34.27933+01 | 1486399534.27933 | pgbench_accounts_pkey |        224641024

 2017-02-06 17:45:35.355786+01 | 1486399535.35579 | pgbench_branches_pkey |            90112
 2017-02-06 17:45:35.355786+01 | 1486399535.35579 | pgbench_tellers_pkey  |           442368
 2017-02-06 17:45:35.355786+01 | 1486399535.35579 | pgbench_accounts_pkey |        224641024

 2017-02-06 17:45:36.430676+01 | 1486399536.43068 | pgbench_branches_pkey |            90112
 2017-02-06 17:45:36.430676+01 | 1486399536.43068 | pgbench_tellers_pkey  |           442368
 2017-02-06 17:45:36.430676+01 | 1486399536.43068 | pgbench_accounts_pkey |        224641024

 2017-02-06 17:45:37.518876+01 | 1486399537.51888 | pgbench_branches_pkey |            90112
 2017-02-06 17:45:37.518876+01 | 1486399537.51888 | pgbench_tellers_pkey  |           442368
 2017-02-06 17:45:37.518876+01 | 1486399537.51888 | pgbench_accounts_pkey |        224641024

 2017-02-06 17:45:38.610634+01 | 1486399538.61063 | pgbench_branches_pkey |            90112
 2017-02-06 17:45:38.610634+01 | 1486399538.61063 | pgbench_tellers_pkey  |           442368
 2017-02-06 17:45:38.610634+01 | 1486399538.61063 | pgbench_accounts_pkey |        224641024

 2017-02-06 17:45:39.683911+01 | 1486399539.68391 | pgbench_branches_pkey |            90112
 2017-02-06 17:45:39.683911+01 | 1486399539.68391 | pgbench_tellers_pkey  |           442368
 2017-02-06 17:45:39.683911+01 | 1486399539.68391 | pgbench_accounts_pkey |        224641024

 2017-02-06 17:45:40.768235+01 | 1486399540.76823 | pgbench_branches_pkey |            90112
 2017-02-06 17:45:40.768235+01 | 1486399540.76823 | pgbench_tellers_pkey  |           442368
 2017-02-06 17:45:40.768235+01 | 1486399540.76823 | pgbench_accounts_pkey |        224641024

 2017-02-06 17:45:41.846707+01 | 1486399541.84671 | pgbench_branches_pkey |            90112
 2017-02-06 17:45:41.846707+01 | 1486399541.84671 | pgbench_tellers_pkey  |           442368
 2017-02-06 17:45:41.846707+01 | 1486399541.84671 | pgbench_accounts_pkey |        224641024

 2017-02-06 17:45:42.922912+01 | 1486399542.92291 | pgbench_branches_pkey |            90112
 2017-02-06 17:45:42.922912+01 | 1486399542.92291 | pgbench_tellers_pkey  |           442368
 2017-02-06 17:45:42.922912+01 | 1486399542.92291 | pgbench_accounts_pkey |        224641024

 2017-02-06 17:45:44.000833+01 | 1486399544.00083 | pgbench_branches_pkey |            90112
 2017-02-06 17:45:44.000833+01 | 1486399544.00083 | pgbench_tellers_pkey  |           442368
 2017-02-06 17:45:44.000833+01 | 1486399544.00083 | pgbench_accounts_pkey |        224641024

 2017-02-06 17:45:45.084539+01 | 1486399545.08454 | pgbench_branches_pkey |            90112
 2017-02-06 17:45:45.084539+01 | 1486399545.08454 | pgbench_tellers_pkey  |           442368
 2017-02-06 17:45:45.084539+01 | 1486399545.08454 | pgbench_accounts_pkey |        224641024

 2017-02-06 17:45:46.161773+01 | 1486399546.16177 | pgbench_branches_pkey |            90112
 2017-02-06 17:45:46.161773+01 | 1486399546.16177 | pgbench_tellers_pkey  |           442368
 2017-02-06 17:45:46.161773+01 | 1486399546.16177 | pgbench_accounts_pkey |        224641024

 2017-02-06 17:45:47.243483+01 | 1486399547.24348 | pgbench_branches_pkey |            90112
 2017-02-06 17:45:47.243483+01 | 1486399547.24348 | pgbench_tellers_pkey  |           442368
 2017-02-06 17:45:47.243483+01 | 1486399547.24348 | pgbench_accounts_pkey |        224641024

 2017-02-06 17:45:48.318987+01 | 1486399548.31899 | pgbench_branches_pkey |            90112
 2017-02-06 17:45:48.318987+01 | 1486399548.31899 | pgbench_tellers_pkey  |           442368
 2017-02-06 17:45:48.318987+01 | 1486399548.31899 | pgbench_accounts_pkey |        224641024

 2017-02-06 17:45:49.39555+01 | 1486399549.39555 | pgbench_branches_pkey |            90112
 2017-02-06 17:45:49.39555+01 | 1486399549.39555 | pgbench_tellers_pkey  |           442368
 2017-02-06 17:45:49.39555+01 | 1486399549.39555 | pgbench_accounts_pkey |        224641024

 2017-02-06 17:45:50.47111+01 | 1486399550.47111 | pgbench_branches_pkey |            90112
 2017-02-06 17:45:50.47111+01 | 1486399550.47111 | pgbench_tellers_pkey  |           442368
 2017-02-06 17:45:50.47111+01 | 1486399550.47111 | pgbench_accounts_pkey |        224641024

 2017-02-06 17:45:51.550949+01 | 1486399551.55095 | pgbench_branches_pkey |            90112
 2017-02-06 17:45:51.550949+01 | 1486399551.55095 | pgbench_tellers_pkey  |           442368
 2017-02-06 17:45:51.550949+01 | 1486399551.55095 | pgbench_accounts_pkey |        224641024

 2017-02-06 17:45:52.628439+01 | 1486399552.62844 | pgbench_branches_pkey |            90112
 2017-02-06 17:45:52.628439+01 | 1486399552.62844 | pgbench_tellers_pkey  |           442368
 2017-02-06 17:45:52.628439+01 | 1486399552.62844 | pgbench_accounts_pkey |        224641024

 2017-02-06 17:45:53.716789+01 | 1486399553.71679 | pgbench_branches_pkey |            90112
 2017-02-06 17:45:53.716789+01 | 1486399553.71679 | pgbench_tellers_pkey  |           442368
 2017-02-06 17:45:53.716789+01 | 1486399553.71679 | pgbench_accounts_pkey |        224641024

 2017-02-06 17:45:54.792881+01 | 1486399554.79288 | pgbench_branches_pkey |            90112
 2017-02-06 17:45:54.792881+01 | 1486399554.79288 | pgbench_tellers_pkey  |           442368
 2017-02-06 17:45:54.792881+01 | 1486399554.79288 | pgbench_accounts_pkey |        224641024

 2017-02-06 17:45:55.870821+01 | 1486399555.87082 | pgbench_branches_pkey |            90112
 2017-02-06 17:45:55.870821+01 | 1486399555.87082 | pgbench_tellers_pkey  |           442368
 2017-02-06 17:45:55.870821+01 | 1486399555.87082 | pgbench_accounts_pkey |        224641024

 2017-02-06 17:45:56.949904+01 | 1486399556.9499 | pgbench_branches_pkey |            90112
 2017-02-06 17:45:56.949904+01 | 1486399556.9499 | pgbench_tellers_pkey  |           442368
 2017-02-06 17:45:56.949904+01 | 1486399556.9499 | pgbench_accounts_pkey |        224641024

 2017-02-06 17:45:58.030631+01 | 1486399558.03063 | pgbench_branches_pkey |            90112
 2017-02-06 17:45:58.030631+01 | 1486399558.03063 | pgbench_tellers_pkey  |           442368
 2017-02-06 17:45:58.030631+01 | 1486399558.03063 | pgbench_accounts_pkey |        224641024

 2017-02-06 17:45:59.111909+01 | 1486399559.11191 | pgbench_branches_pkey |            90112
 2017-02-06 17:45:59.111909+01 | 1486399559.11191 | pgbench_tellers_pkey  |           442368
 2017-02-06 17:45:59.111909+01 | 1486399559.11191 | pgbench_accounts_pkey |        224641024

 2017-02-06 17:46:00.189747+01 | 1486399560.18975 | pgbench_branches_pkey |            90112
 2017-02-06 17:46:00.189747+01 | 1486399560.18975 | pgbench_tellers_pkey  |           442368
 2017-02-06 17:46:00.189747+01 | 1486399560.18975 | pgbench_accounts_pkey |        224641024

 2017-02-06 17:46:01.271333+01 | 1486399561.27133 | pgbench_branches_pkey |            90112
 2017-02-06 17:46:01.271333+01 | 1486399561.27133 | pgbench_tellers_pkey  |           442368
 2017-02-06 17:46:01.271333+01 | 1486399561.27133 | pgbench_accounts_pkey |        224641024

 2017-02-06 17:46:02.35627+01 | 1486399562.35627 | pgbench_branches_pkey |            90112
 2017-02-06 17:46:02.35627+01 | 1486399562.35627 | pgbench_tellers_pkey  |           442368
 2017-02-06 17:46:02.35627+01 | 1486399562.35627 | pgbench_accounts_pkey |        224641024

 2017-02-06 17:46:03.433342+01 | 1486399563.43334 | pgbench_branches_pkey |            90112
 2017-02-06 17:46:03.433342+01 | 1486399563.43334 | pgbench_tellers_pkey  |           442368
 2017-02-06 17:46:03.433342+01 | 1486399563.43334 | pgbench_accounts_pkey |        224641024

 2017-02-06 17:46:04.521302+01 | 1486399564.5213 | pgbench_branches_pkey |            90112
 2017-02-06 17:46:04.521302+01 | 1486399564.5213 | pgbench_tellers_pkey  |           442368
 2017-02-06 17:46:04.521302+01 | 1486399564.5213 | pgbench_accounts_pkey |        224641024

 2017-02-06 17:46:05.596123+01 | 1486399565.59612 | pgbench_branches_pkey |            90112
 2017-02-06 17:46:05.596123+01 | 1486399565.59612 | pgbench_tellers_pkey  |           442368
 2017-02-06 17:46:05.596123+01 | 1486399565.59612 | pgbench_accounts_pkey |        224641024

 2017-02-06 17:46:06.676501+01 | 1486399566.6765 | pgbench_branches_pkey |            90112
 2017-02-06 17:46:06.676501+01 | 1486399566.6765 | pgbench_tellers_pkey  |           442368
 2017-02-06 17:46:06.676501+01 | 1486399566.6765 | pgbench_accounts_pkey |        224641024

 2017-02-06 17:46:07.757527+01 | 1486399567.75753 | pgbench_branches_pkey |            90112
 2017-02-06 17:46:07.757527+01 | 1486399567.75753 | pgbench_tellers_pkey  |           442368
 2017-02-06 17:46:07.757527+01 | 1486399567.75753 | pgbench_accounts_pkey |        224641024

 2017-02-06 17:46:08.841485+01 | 1486399568.84149 | pgbench_branches_pkey |            90112
 2017-02-06 17:46:08.841485+01 | 1486399568.84149 | pgbench_tellers_pkey  |           442368
 2017-02-06 17:46:08.841485+01 | 1486399568.84149 | pgbench_accounts_pkey |        224641024

 2017-02-06 17:46:09.917504+01 | 1486399569.9175 | pgbench_branches_pkey |            90112
 2017-02-06 17:46:09.917504+01 | 1486399569.9175 | pgbench_tellers_pkey  |           442368
 2017-02-06 17:46:09.917504+01 | 1486399569.9175 | pgbench_accounts_pkey |        224641024

 2017-02-06 17:46:11.001647+01 | 1486399571.00165 | pgbench_branches_pkey |            90112
 2017-02-06 17:46:11.001647+01 | 1486399571.00165 | pgbench_tellers_pkey  |           442368
 2017-02-06 17:46:11.001647+01 | 1486399571.00165 | pgbench_accounts_pkey |        224641024

 2017-02-06 17:46:12.087419+01 | 1486399572.08742 | pgbench_branches_pkey |            90112
 2017-02-06 17:46:12.087419+01 | 1486399572.08742 | pgbench_tellers_pkey  |           442368
 2017-02-06 17:46:12.087419+01 | 1486399572.08742 | pgbench_accounts_pkey |        224641024

 2017-02-06 17:46:13.164044+01 | 1486399573.16404 | pgbench_branches_pkey |            90112
 2017-02-06 17:46:13.164044+01 | 1486399573.16404 | pgbench_tellers_pkey  |           442368
 2017-02-06 17:46:13.164044+01 | 1486399573.16404 | pgbench_accounts_pkey |        224641024

 2017-02-06 17:46:14.239708+01 | 1486399574.23971 | pgbench_branches_pkey |            90112
 2017-02-06 17:46:14.239708+01 | 1486399574.23971 | pgbench_tellers_pkey  |           442368
 2017-02-06 17:46:14.239708+01 | 1486399574.23971 | pgbench_accounts_pkey |        224641024

 2017-02-06 17:46:15.323111+01 | 1486399575.32311 | pgbench_branches_pkey |            90112
 2017-02-06 17:46:15.323111+01 | 1486399575.32311 | pgbench_tellers_pkey  |           442368
 2017-02-06 17:46:15.323111+01 | 1486399575.32311 | pgbench_accounts_pkey |        224641024

 2017-02-06 17:46:16.416736+01 | 1486399576.41674 | pgbench_branches_pkey |            90112
 2017-02-06 17:46:16.416736+01 | 1486399576.41674 | pgbench_tellers_pkey  |           442368
 2017-02-06 17:46:16.416736+01 | 1486399576.41674 | pgbench_accounts_pkey |        224641024

 2017-02-06 17:46:17.494227+01 | 1486399577.49423 | pgbench_branches_pkey |            90112
 2017-02-06 17:46:17.494227+01 | 1486399577.49423 | pgbench_tellers_pkey  |           442368
 2017-02-06 17:46:17.494227+01 | 1486399577.49423 | pgbench_accounts_pkey |        224641024

 2017-02-06 17:46:18.576798+01 | 1486399578.5768 | pgbench_branches_pkey |            90112
 2017-02-06 17:46:18.576798+01 | 1486399578.5768 | pgbench_tellers_pkey  |           442368
 2017-02-06 17:46:18.576798+01 | 1486399578.5768 | pgbench_accounts_pkey |        224641024

 2017-02-06 17:46:19.65407+01 | 1486399579.65407 | pgbench_branches_pkey |            90112
 2017-02-06 17:46:19.65407+01 | 1486399579.65407 | pgbench_tellers_pkey  |           442368
 2017-02-06 17:46:19.65407+01 | 1486399579.65407 | pgbench_accounts_pkey |        224641024

 2017-02-06 17:46:20.735335+01 | 1486399580.73534 | pgbench_branches_pkey |            90112
 2017-02-06 17:46:20.735335+01 | 1486399580.73534 | pgbench_tellers_pkey  |           442368
 2017-02-06 17:46:20.735335+01 | 1486399580.73534 | pgbench_accounts_pkey |        224641024

 2017-02-06 17:46:21.813274+01 | 1486399581.81327 | pgbench_branches_pkey |            90112
 2017-02-06 17:46:21.813274+01 | 1486399581.81327 | pgbench_tellers_pkey  |           442368
 2017-02-06 17:46:21.813274+01 | 1486399581.81327 | pgbench_accounts_pkey |        224641024

 2017-02-06 17:46:22.895459+01 | 1486399582.89546 | pgbench_branches_pkey |            90112
 2017-02-06 17:46:22.895459+01 | 1486399582.89546 | pgbench_tellers_pkey  |           442368
 2017-02-06 17:46:22.895459+01 | 1486399582.89546 | pgbench_accounts_pkey |        224641024

 2017-02-06 17:46:23.974424+01 | 1486399583.97442 | pgbench_branches_pkey |            90112
 2017-02-06 17:46:23.974424+01 | 1486399583.97442 | pgbench_tellers_pkey  |           442368
 2017-02-06 17:46:23.974424+01 | 1486399583.97442 | pgbench_accounts_pkey |        224641024

 2017-02-06 17:46:25.047339+01 | 1486399585.04734 | pgbench_branches_pkey |            90112
 2017-02-06 17:46:25.047339+01 | 1486399585.04734 | pgbench_tellers_pkey  |           442368
 2017-02-06 17:46:25.047339+01 | 1486399585.04734 | pgbench_accounts_pkey |        224641024

 2017-02-06 17:46:26.123905+01 | 1486399586.1239 | pgbench_branches_pkey |            90112
 2017-02-06 17:46:26.123905+01 | 1486399586.1239 | pgbench_tellers_pkey  |           442368
 2017-02-06 17:46:26.123905+01 | 1486399586.1239 | pgbench_accounts_pkey |        224641024

 2017-02-06 17:46:27.201656+01 | 1486399587.20166 | pgbench_branches_pkey |            90112
 2017-02-06 17:46:27.201656+01 | 1486399587.20166 | pgbench_tellers_pkey  |           442368
 2017-02-06 17:46:27.201656+01 | 1486399587.20166 | pgbench_accounts_pkey |        224641024

 2017-02-06 17:46:28.282848+01 | 1486399588.28285 | pgbench_branches_pkey |            90112
 2017-02-06 17:46:28.282848+01 | 1486399588.28285 | pgbench_tellers_pkey  |           442368
 2017-02-06 17:46:28.282848+01 | 1486399588.28285 | pgbench_accounts_pkey |        224641024

 2017-02-06 17:46:29.361043+01 | 1486399589.36104 | pgbench_branches_pkey |            90112
 2017-02-06 17:46:29.361043+01 | 1486399589.36104 | pgbench_tellers_pkey  |           442368
 2017-02-06 17:46:29.361043+01 | 1486399589.36104 | pgbench_accounts_pkey |        224641024

 2017-02-06 17:46:30.444565+01 | 1486399590.44457 | pgbench_branches_pkey |            90112
 2017-02-06 17:46:30.444565+01 | 1486399590.44457 | pgbench_tellers_pkey  |           442368
 2017-02-06 17:46:30.444565+01 | 1486399590.44457 | pgbench_accounts_pkey |        224641024

 2017-02-06 17:46:31.528583+01 | 1486399591.52858 | pgbench_branches_pkey |            90112
 2017-02-06 17:46:31.528583+01 | 1486399591.52858 | pgbench_tellers_pkey  |           442368
 2017-02-06 17:46:31.528583+01 | 1486399591.52858 | pgbench_accounts_pkey |        224641024

 2017-02-06 17:46:32.605319+01 | 1486399592.60532 | pgbench_branches_pkey |            90112
 2017-02-06 17:46:32.605319+01 | 1486399592.60532 | pgbench_tellers_pkey  |           442368
 2017-02-06 17:46:32.605319+01 | 1486399592.60532 | pgbench_accounts_pkey |        224641024

 2017-02-06 17:46:33.686159+01 | 1486399593.68616 | pgbench_branches_pkey |            90112
 2017-02-06 17:46:33.686159+01 | 1486399593.68616 | pgbench_tellers_pkey  |           442368
 2017-02-06 17:46:33.686159+01 | 1486399593.68616 | pgbench_accounts_pkey |        224641024

 2017-02-06 17:46:34.76183+01 | 1486399594.76183 | pgbench_branches_pkey |            90112
 2017-02-06 17:46:34.76183+01 | 1486399594.76183 | pgbench_tellers_pkey  |           442368
 2017-02-06 17:46:34.76183+01 | 1486399594.76183 | pgbench_accounts_pkey |        224641024

 2017-02-06 17:46:35.835823+01 | 1486399595.83582 | pgbench_branches_pkey |            90112
 2017-02-06 17:46:35.835823+01 | 1486399595.83582 | pgbench_tellers_pkey  |           442368
 2017-02-06 17:46:35.835823+01 | 1486399595.83582 | pgbench_accounts_pkey |        224641024

 2017-02-06 17:46:36.923956+01 | 1486399596.92396 | pgbench_branches_pkey |            90112
 2017-02-06 17:46:36.923956+01 | 1486399596.92396 | pgbench_tellers_pkey  |           442368
 2017-02-06 17:46:36.923956+01 | 1486399596.92396 | pgbench_accounts_pkey |        224641024

 2017-02-06 17:46:38.002815+01 | 1486399598.00282 | pgbench_branches_pkey |            90112
 2017-02-06 17:46:38.002815+01 | 1486399598.00282 | pgbench_tellers_pkey  |           442368
 2017-02-06 17:46:38.002815+01 | 1486399598.00282 | pgbench_accounts_pkey |        224641024

 2017-02-06 17:46:39.080197+01 | 1486399599.0802 | pgbench_branches_pkey |            90112
 2017-02-06 17:46:39.080197+01 | 1486399599.0802 | pgbench_tellers_pkey  |           442368
 2017-02-06 17:46:39.080197+01 | 1486399599.0802 | pgbench_accounts_pkey |        224641024

 2017-02-06 17:46:40.17078+01 | 1486399600.17078 | pgbench_branches_pkey |            90112
 2017-02-06 17:46:40.17078+01 | 1486399600.17078 | pgbench_tellers_pkey  |           442368
 2017-02-06 17:46:40.17078+01 | 1486399600.17078 | pgbench_accounts_pkey |        224641024

 2017-02-06 17:46:41.251903+01 | 1486399601.2519 | pgbench_branches_pkey |            90112
 2017-02-06 17:46:41.251903+01 | 1486399601.2519 | pgbench_tellers_pkey  |           442368
 2017-02-06 17:46:41.251903+01 | 1486399601.2519 | pgbench_accounts_pkey |        224641024

 2017-02-06 17:46:42.329798+01 | 1486399602.3298 | pgbench_branches_pkey |            90112
 2017-02-06 17:46:42.329798+01 | 1486399602.3298 | pgbench_tellers_pkey  |           442368
 2017-02-06 17:46:42.329798+01 | 1486399602.3298 | pgbench_accounts_pkey |        224641024

 2017-02-06 17:46:43.410749+01 | 1486399603.41075 | pgbench_branches_pkey |            90112
 2017-02-06 17:46:43.410749+01 | 1486399603.41075 | pgbench_tellers_pkey  |           442368
 2017-02-06 17:46:43.410749+01 | 1486399603.41075 | pgbench_accounts_pkey |        224641024

 2017-02-06 17:46:44.486603+01 | 1486399604.4866 | pgbench_branches_pkey |            90112
 2017-02-06 17:46:44.486603+01 | 1486399604.4866 | pgbench_tellers_pkey  |           442368
 2017-02-06 17:46:44.486603+01 | 1486399604.4866 | pgbench_accounts_pkey |        224641024

 2017-02-06 17:46:45.567065+01 | 1486399605.56707 | pgbench_branches_pkey |            90112
 2017-02-06 17:46:45.567065+01 | 1486399605.56707 | pgbench_tellers_pkey  |           442368
 2017-02-06 17:46:45.567065+01 | 1486399605.56707 | pgbench_accounts_pkey |        224641024

 2017-02-06 17:46:46.651043+01 | 1486399606.65104 | pgbench_branches_pkey |            90112
 2017-02-06 17:46:46.651043+01 | 1486399606.65104 | pgbench_tellers_pkey  |           442368
 2017-02-06 17:46:46.651043+01 | 1486399606.65104 | pgbench_accounts_pkey |        224641024

 2017-02-06 17:46:47.731017+01 | 1486399607.73102 | pgbench_branches_pkey |            90112
 2017-02-06 17:46:47.731017+01 | 1486399607.73102 | pgbench_tellers_pkey  |           442368
 2017-02-06 17:46:47.731017+01 | 1486399607.73102 | pgbench_accounts_pkey |        224641024

 2017-02-06 17:46:48.807392+01 | 1486399608.80739 | pgbench_branches_pkey |            90112
 2017-02-06 17:46:48.807392+01 | 1486399608.80739 | pgbench_tellers_pkey  |           442368
 2017-02-06 17:46:48.807392+01 | 1486399608.80739 | pgbench_accounts_pkey |        224641024

 2017-02-06 17:46:49.882363+01 | 1486399609.88236 | pgbench_branches_pkey |            90112
 2017-02-06 17:46:49.882363+01 | 1486399609.88236 | pgbench_tellers_pkey  |           442368
 2017-02-06 17:46:49.882363+01 | 1486399609.88236 | pgbench_accounts_pkey |        224641024

 2017-02-06 17:46:50.961116+01 | 1486399610.96112 | pgbench_branches_pkey |            90112
 2017-02-06 17:46:50.961116+01 | 1486399610.96112 | pgbench_tellers_pkey  |           442368
 2017-02-06 17:46:50.961116+01 | 1486399610.96112 | pgbench_accounts_pkey |        224641024

 2017-02-06 17:46:52.038694+01 | 1486399612.03869 | pgbench_branches_pkey |            90112
 2017-02-06 17:46:52.038694+01 | 1486399612.03869 | pgbench_tellers_pkey  |           442368
 2017-02-06 17:46:52.038694+01 | 1486399612.03869 | pgbench_accounts_pkey |        224641024

 2017-02-06 17:46:53.129733+01 | 1486399613.12973 | pgbench_branches_pkey |            90112
 2017-02-06 17:46:53.129733+01 | 1486399613.12973 | pgbench_tellers_pkey  |           442368
 2017-02-06 17:46:53.129733+01 | 1486399613.12973 | pgbench_accounts_pkey |        224641024

 2017-02-06 17:46:54.208436+01 | 1486399614.20844 | pgbench_branches_pkey |            90112
 2017-02-06 17:46:54.208436+01 | 1486399614.20844 | pgbench_tellers_pkey  |           442368
 2017-02-06 17:46:54.208436+01 | 1486399614.20844 | pgbench_accounts_pkey |        224641024

 2017-02-06 17:46:55.285932+01 | 1486399615.28593 | pgbench_branches_pkey |            90112
 2017-02-06 17:46:55.285932+01 | 1486399615.28593 | pgbench_tellers_pkey  |           442368
 2017-02-06 17:46:55.285932+01 | 1486399615.28593 | pgbench_accounts_pkey |        224641024

 2017-02-06 17:46:56.368195+01 | 1486399616.3682 | pgbench_branches_pkey |            90112
 2017-02-06 17:46:56.368195+01 | 1486399616.3682 | pgbench_tellers_pkey  |           442368
 2017-02-06 17:46:56.368195+01 | 1486399616.3682 | pgbench_accounts_pkey |        224641024

 2017-02-06 17:46:57.445687+01 | 1486399617.44569 | pgbench_branches_pkey |            90112
 2017-02-06 17:46:57.445687+01 | 1486399617.44569 | pgbench_tellers_pkey  |           442368
 2017-02-06 17:46:57.445687+01 | 1486399617.44569 | pgbench_accounts_pkey |        224641024

 2017-02-06 17:46:58.523292+01 | 1486399618.52329 | pgbench_branches_pkey |            90112
 2017-02-06 17:46:58.523292+01 | 1486399618.52329 | pgbench_tellers_pkey  |           442368
 2017-02-06 17:46:58.523292+01 | 1486399618.52329 | pgbench_accounts_pkey |        224641024

 2017-02-06 17:46:59.603792+01 | 1486399619.60379 | pgbench_branches_pkey |            90112
 2017-02-06 17:46:59.603792+01 | 1486399619.60379 | pgbench_tellers_pkey  |           442368
 2017-02-06 17:46:59.603792+01 | 1486399619.60379 | pgbench_accounts_pkey |        224641024

 2017-02-06 17:47:00.677329+01 | 1486399620.67733 | pgbench_branches_pkey |            90112
 2017-02-06 17:47:00.677329+01 | 1486399620.67733 | pgbench_tellers_pkey  |           442368
 2017-02-06 17:47:00.677329+01 | 1486399620.67733 | pgbench_accounts_pkey |        224641024

 2017-02-06 17:47:01.767344+01 | 1486399621.76734 | pgbench_branches_pkey |            90112
 2017-02-06 17:47:01.767344+01 | 1486399621.76734 | pgbench_tellers_pkey  |           442368
 2017-02-06 17:47:01.767344+01 | 1486399621.76734 | pgbench_accounts_pkey |        224641024

 2017-02-06 17:47:02.85052+01 | 1486399622.85052 | pgbench_branches_pkey |            90112
 2017-02-06 17:47:02.85052+01 | 1486399622.85052 | pgbench_tellers_pkey  |           442368
 2017-02-06 17:47:02.85052+01 | 1486399622.85052 | pgbench_accounts_pkey |        224641024

 2017-02-06 17:47:03.93034+01 | 1486399623.93034 | pgbench_branches_pkey |            90112
 2017-02-06 17:47:03.93034+01 | 1486399623.93034 | pgbench_tellers_pkey  |           442368
 2017-02-06 17:47:03.93034+01 | 1486399623.93034 | pgbench_accounts_pkey |        224641024

 2017-02-06 17:47:05.018865+01 | 1486399625.01887 | pgbench_branches_pkey |            90112
 2017-02-06 17:47:05.018865+01 | 1486399625.01887 | pgbench_tellers_pkey  |           442368
 2017-02-06 17:47:05.018865+01 | 1486399625.01887 | pgbench_accounts_pkey |        224641024

 2017-02-06 17:47:06.103955+01 | 1486399626.10396 | pgbench_branches_pkey |            90112
 2017-02-06 17:47:06.103955+01 | 1486399626.10396 | pgbench_tellers_pkey  |           442368
 2017-02-06 17:47:06.103955+01 | 1486399626.10396 | pgbench_accounts_pkey |        224641024

 2017-02-06 17:47:07.183649+01 | 1486399627.18365 | pgbench_branches_pkey |            90112
 2017-02-06 17:47:07.183649+01 | 1486399627.18365 | pgbench_tellers_pkey  |           442368
 2017-02-06 17:47:07.183649+01 | 1486399627.18365 | pgbench_accounts_pkey |        224641024

 2017-02-06 17:47:08.263886+01 | 1486399628.26389 | pgbench_branches_pkey |            90112
 2017-02-06 17:47:08.263886+01 | 1486399628.26389 | pgbench_tellers_pkey  |           442368
 2017-02-06 17:47:08.263886+01 | 1486399628.26389 | pgbench_accounts_pkey |        224641024

 2017-02-06 17:47:09.347167+01 | 1486399629.34717 | pgbench_branches_pkey |            90112
 2017-02-06 17:47:09.347167+01 | 1486399629.34717 | pgbench_tellers_pkey  |           442368
 2017-02-06 17:47:09.347167+01 | 1486399629.34717 | pgbench_accounts_pkey |        224641024

 2017-02-06 17:47:10.430965+01 | 1486399630.43096 | pgbench_branches_pkey |            90112
 2017-02-06 17:47:10.430965+01 | 1486399630.43096 | pgbench_tellers_pkey  |           442368
 2017-02-06 17:47:10.430965+01 | 1486399630.43096 | pgbench_accounts_pkey |        224641024

 2017-02-06 17:47:11.518247+01 | 1486399631.51825 | pgbench_branches_pkey |            90112
 2017-02-06 17:47:11.518247+01 | 1486399631.51825 | pgbench_tellers_pkey  |           442368
 2017-02-06 17:47:11.518247+01 | 1486399631.51825 | pgbench_accounts_pkey |        224641024

 2017-02-06 17:47:12.598192+01 | 1486399632.59819 | pgbench_branches_pkey |            90112
 2017-02-06 17:47:12.598192+01 | 1486399632.59819 | pgbench_tellers_pkey  |           442368
 2017-02-06 17:47:12.598192+01 | 1486399632.59819 | pgbench_accounts_pkey |        224641024

 2017-02-06 17:47:13.681603+01 | 1486399633.6816 | pgbench_branches_pkey |            90112
 2017-02-06 17:47:13.681603+01 | 1486399633.6816 | pgbench_tellers_pkey  |           442368
 2017-02-06 17:47:13.681603+01 | 1486399633.6816 | pgbench_accounts_pkey |        224641024

 2017-02-06 17:47:14.772224+01 | 1486399634.77222 | pgbench_branches_pkey |            90112
 2017-02-06 17:47:14.772224+01 | 1486399634.77222 | pgbench_tellers_pkey  |           442368
 2017-02-06 17:47:14.772224+01 | 1486399634.77222 | pgbench_accounts_pkey |        224641024

 2017-02-06 17:47:15.850068+01 | 1486399635.85007 | pgbench_branches_pkey |            90112
 2017-02-06 17:47:15.850068+01 | 1486399635.85007 | pgbench_tellers_pkey  |           442368
 2017-02-06 17:47:15.850068+01 | 1486399635.85007 | pgbench_accounts_pkey |        224641024

 2017-02-06 17:47:16.93291+01 | 1486399636.93291 | pgbench_branches_pkey |            90112
 2017-02-06 17:47:16.93291+01 | 1486399636.93291 | pgbench_tellers_pkey  |           442368
 2017-02-06 17:47:16.93291+01 | 1486399636.93291 | pgbench_accounts_pkey |        224641024

 2017-02-06 17:47:18.015194+01 | 1486399638.01519 | pgbench_branches_pkey |            90112
 2017-02-06 17:47:18.015194+01 | 1486399638.01519 | pgbench_tellers_pkey  |           442368
 2017-02-06 17:47:18.015194+01 | 1486399638.01519 | pgbench_accounts_pkey |        224641024

 2017-02-06 17:47:19.087404+01 | 1486399639.0874 | pgbench_branches_pkey |            90112
 2017-02-06 17:47:19.087404+01 | 1486399639.0874 | pgbench_tellers_pkey  |           442368
 2017-02-06 17:47:19.087404+01 | 1486399639.0874 | pgbench_accounts_pkey |        224641024

 2017-02-06 17:47:20.170012+01 | 1486399640.17001 | pgbench_branches_pkey |            90112
 2017-02-06 17:47:20.170012+01 | 1486399640.17001 | pgbench_tellers_pkey  |           442368
 2017-02-06 17:47:20.170012+01 | 1486399640.17001 | pgbench_accounts_pkey |        224641024

 2017-02-06 17:47:21.250027+01 | 1486399641.25003 | pgbench_branches_pkey |            90112
 2017-02-06 17:47:21.250027+01 | 1486399641.25003 | pgbench_tellers_pkey  |           442368
 2017-02-06 17:47:21.250027+01 | 1486399641.25003 | pgbench_accounts_pkey |        224641024

 2017-02-06 17:47:22.32869+01 | 1486399642.32869 | pgbench_branches_pkey |            90112
 2017-02-06 17:47:22.32869+01 | 1486399642.32869 | pgbench_tellers_pkey  |           442368
 2017-02-06 17:47:22.32869+01 | 1486399642.32869 | pgbench_accounts_pkey |        224641024

 2017-02-06 17:47:23.407144+01 | 1486399643.40714 | pgbench_branches_pkey |            90112
 2017-02-06 17:47:23.407144+01 | 1486399643.40714 | pgbench_tellers_pkey  |           442368
 2017-02-06 17:47:23.407144+01 | 1486399643.40714 | pgbench_accounts_pkey |        224641024

 2017-02-06 17:47:24.485385+01 | 1486399644.48538 | pgbench_branches_pkey |            90112
 2017-02-06 17:47:24.485385+01 | 1486399644.48538 | pgbench_tellers_pkey  |           442368
 2017-02-06 17:47:24.485385+01 | 1486399644.48538 | pgbench_accounts_pkey |        224641024

 2017-02-06 17:47:25.562644+01 | 1486399645.56264 | pgbench_branches_pkey |            90112
 2017-02-06 17:47:25.562644+01 | 1486399645.56264 | pgbench_tellers_pkey  |           442368
 2017-02-06 17:47:25.562644+01 | 1486399645.56264 | pgbench_accounts_pkey |        224641024

 2017-02-06 17:47:26.640176+01 | 1486399646.64018 | pgbench_branches_pkey |            90112
 2017-02-06 17:47:26.640176+01 | 1486399646.64018 | pgbench_tellers_pkey  |           442368
 2017-02-06 17:47:26.640176+01 | 1486399646.64018 | pgbench_accounts_pkey |        224641024

 2017-02-06 17:47:27.721025+01 | 1486399647.72102 | pgbench_branches_pkey |            90112
 2017-02-06 17:47:27.721025+01 | 1486399647.72102 | pgbench_tellers_pkey  |           442368
 2017-02-06 17:47:27.721025+01 | 1486399647.72102 | pgbench_accounts_pkey |        224641024

 2017-02-06 17:47:28.800881+01 | 1486399648.80088 | pgbench_branches_pkey |            90112
 2017-02-06 17:47:28.800881+01 | 1486399648.80088 | pgbench_tellers_pkey  |           442368
 2017-02-06 17:47:28.800881+01 | 1486399648.80088 | pgbench_accounts_pkey |        224641024

 2017-02-06 17:47:29.88302+01 | 1486399649.88302 | pgbench_branches_pkey |            90112
 2017-02-06 17:47:29.88302+01 | 1486399649.88302 | pgbench_tellers_pkey  |           442368
 2017-02-06 17:47:29.88302+01 | 1486399649.88302 | pgbench_accounts_pkey |        224641024

 2017-02-06 17:47:30.959436+01 | 1486399650.95944 | pgbench_branches_pkey |            90112
 2017-02-06 17:47:30.959436+01 | 1486399650.95944 | pgbench_tellers_pkey  |           442368
 2017-02-06 17:47:30.959436+01 | 1486399650.95944 | pgbench_accounts_pkey |        224641024

 2017-02-06 17:47:32.047034+01 | 1486399652.04703 | pgbench_branches_pkey |            90112
 2017-02-06 17:47:32.047034+01 | 1486399652.04703 | pgbench_tellers_pkey  |           442368
 2017-02-06 17:47:32.047034+01 | 1486399652.04703 | pgbench_accounts_pkey |        224641024

 2017-02-06 17:47:33.126388+01 | 1486399653.12639 | pgbench_branches_pkey |            90112
 2017-02-06 17:47:33.126388+01 | 1486399653.12639 | pgbench_tellers_pkey  |           442368
 2017-02-06 17:47:33.126388+01 | 1486399653.12639 | pgbench_accounts_pkey |        224641024

 2017-02-06 17:47:34.202134+01 | 1486399654.20213 | pgbench_branches_pkey |            90112
 2017-02-06 17:47:34.202134+01 | 1486399654.20213 | pgbench_tellers_pkey  |           442368
 2017-02-06 17:47:34.202134+01 | 1486399654.20213 | pgbench_accounts_pkey |        224641024

 2017-02-06 17:47:35.278143+01 | 1486399655.27814 | pgbench_branches_pkey |            90112
 2017-02-06 17:47:35.278143+01 | 1486399655.27814 | pgbench_tellers_pkey  |           442368
 2017-02-06 17:47:35.278143+01 | 1486399655.27814 | pgbench_accounts_pkey |        224641024

 2017-02-06 17:47:36.358381+01 | 1486399656.35838 | pgbench_branches_pkey |            90112
 2017-02-06 17:47:36.358381+01 | 1486399656.35838 | pgbench_tellers_pkey  |           442368
 2017-02-06 17:47:36.358381+01 | 1486399656.35838 | pgbench_accounts_pkey |        224641024

 2017-02-06 17:47:37.446372+01 | 1486399657.44637 | pgbench_branches_pkey |            90112
 2017-02-06 17:47:37.446372+01 | 1486399657.44637 | pgbench_tellers_pkey  |           442368
 2017-02-06 17:47:37.446372+01 | 1486399657.44637 | pgbench_accounts_pkey |        224641024

 2017-02-06 17:47:38.518941+01 | 1486399658.51894 | pgbench_branches_pkey |            90112
 2017-02-06 17:47:38.518941+01 | 1486399658.51894 | pgbench_tellers_pkey  |           442368
 2017-02-06 17:47:38.518941+01 | 1486399658.51894 | pgbench_accounts_pkey |        224641024

 2017-02-06 17:47:39.591959+01 | 1486399659.59196 | pgbench_branches_pkey |            90112
 2017-02-06 17:47:39.591959+01 | 1486399659.59196 | pgbench_tellers_pkey  |           442368
 2017-02-06 17:47:39.591959+01 | 1486399659.59196 | pgbench_accounts_pkey |        224641024

 2017-02-06 17:47:40.666773+01 | 1486399660.66677 | pgbench_branches_pkey |            90112
 2017-02-06 17:47:40.666773+01 | 1486399660.66677 | pgbench_tellers_pkey  |           442368
 2017-02-06 17:47:40.666773+01 | 1486399660.66677 | pgbench_accounts_pkey |        224641024

 2017-02-06 17:47:41.744708+01 | 1486399661.74471 | pgbench_branches_pkey |            90112
 2017-02-06 17:47:41.744708+01 | 1486399661.74471 | pgbench_tellers_pkey  |           442368
 2017-02-06 17:47:41.744708+01 | 1486399661.74471 | pgbench_accounts_pkey |        224641024

 2017-02-06 17:47:42.825175+01 | 1486399662.82518 | pgbench_branches_pkey |            90112
 2017-02-06 17:47:42.825175+01 | 1486399662.82518 | pgbench_tellers_pkey  |           442368
 2017-02-06 17:47:42.825175+01 | 1486399662.82518 | pgbench_accounts_pkey |        224641024

 2017-02-06 17:47:43.909644+01 | 1486399663.90964 | pgbench_branches_pkey |            90112
 2017-02-06 17:47:43.909644+01 | 1486399663.90964 | pgbench_tellers_pkey  |           442368
 2017-02-06 17:47:43.909644+01 | 1486399663.90964 | pgbench_accounts_pkey |        224641024

 2017-02-06 17:47:44.9893+01 | 1486399664.9893 | pgbench_branches_pkey |            90112
 2017-02-06 17:47:44.9893+01 | 1486399664.9893 | pgbench_tellers_pkey  |           442368
 2017-02-06 17:47:44.9893+01 | 1486399664.9893 | pgbench_accounts_pkey |        224641024

 2017-02-06 17:47:46.069903+01 | 1486399666.0699 | pgbench_branches_pkey |            90112
 2017-02-06 17:47:46.069903+01 | 1486399666.0699 | pgbench_tellers_pkey  |           442368
 2017-02-06 17:47:46.069903+01 | 1486399666.0699 | pgbench_accounts_pkey |        224641024

 2017-02-06 17:47:47.148362+01 | 1486399667.14836 | pgbench_branches_pkey |            90112
 2017-02-06 17:47:47.148362+01 | 1486399667.14836 | pgbench_tellers_pkey  |           442368
 2017-02-06 17:47:47.148362+01 | 1486399667.14836 | pgbench_accounts_pkey |        224641024

 2017-02-06 17:47:48.22391+01 | 1486399668.22391 | pgbench_branches_pkey |            90112
 2017-02-06 17:47:48.22391+01 | 1486399668.22391 | pgbench_tellers_pkey  |           442368
 2017-02-06 17:47:48.22391+01 | 1486399668.22391 | pgbench_accounts_pkey |        224641024

 2017-02-06 17:47:49.318853+01 | 1486399669.31885 | pgbench_branches_pkey |            90112
 2017-02-06 17:47:49.318853+01 | 1486399669.31885 | pgbench_tellers_pkey  |           442368
 2017-02-06 17:47:49.318853+01 | 1486399669.31885 | pgbench_accounts_pkey |        224641024

 2017-02-06 17:47:50.40444+01 | 1486399670.40444 | pgbench_branches_pkey |            90112
 2017-02-06 17:47:50.40444+01 | 1486399670.40444 | pgbench_tellers_pkey  |           442368
 2017-02-06 17:47:50.40444+01 | 1486399670.40444 | pgbench_accounts_pkey |        224641024

 2017-02-06 17:47:51.488428+01 | 1486399671.48843 | pgbench_branches_pkey |            90112
 2017-02-06 17:47:51.488428+01 | 1486399671.48843 | pgbench_tellers_pkey  |           442368
 2017-02-06 17:47:51.488428+01 | 1486399671.48843 | pgbench_accounts_pkey |        224641024

 2017-02-06 17:47:52.565344+01 | 1486399672.56534 | pgbench_branches_pkey |            90112
 2017-02-06 17:47:52.565344+01 | 1486399672.56534 | pgbench_tellers_pkey  |           442368
 2017-02-06 17:47:52.565344+01 | 1486399672.56534 | pgbench_accounts_pkey |        224641024

 2017-02-06 17:47:53.644376+01 | 1486399673.64438 | pgbench_branches_pkey |            90112
 2017-02-06 17:47:53.644376+01 | 1486399673.64438 | pgbench_tellers_pkey  |           442368
 2017-02-06 17:47:53.644376+01 | 1486399673.64438 | pgbench_accounts_pkey |        224641024

 2017-02-06 17:47:54.726214+01 | 1486399674.72621 | pgbench_branches_pkey |            90112
 2017-02-06 17:47:54.726214+01 | 1486399674.72621 | pgbench_tellers_pkey  |           442368
 2017-02-06 17:47:54.726214+01 | 1486399674.72621 | pgbench_accounts_pkey |        224641024

 2017-02-06 17:47:55.812976+01 | 1486399675.81298 | pgbench_branches_pkey |            90112
 2017-02-06 17:47:55.812976+01 | 1486399675.81298 | pgbench_tellers_pkey  |           442368
 2017-02-06 17:47:55.812976+01 | 1486399675.81298 | pgbench_accounts_pkey |        224641024

 2017-02-06 17:47:56.895381+01 | 1486399676.89538 | pgbench_branches_pkey |            90112
 2017-02-06 17:47:56.895381+01 | 1486399676.89538 | pgbench_tellers_pkey  |           442368
 2017-02-06 17:47:56.895381+01 | 1486399676.89538 | pgbench_accounts_pkey |        224641024

 2017-02-06 17:47:57.975375+01 | 1486399677.97537 | pgbench_branches_pkey |            90112
 2017-02-06 17:47:57.975375+01 | 1486399677.97537 | pgbench_tellers_pkey  |           442368
 2017-02-06 17:47:57.975375+01 | 1486399677.97537 | pgbench_accounts_pkey |        224641024

 2017-02-06 17:47:59.059463+01 | 1486399679.05946 | pgbench_branches_pkey |            90112
 2017-02-06 17:47:59.059463+01 | 1486399679.05946 | pgbench_tellers_pkey  |           442368
 2017-02-06 17:47:59.059463+01 | 1486399679.05946 | pgbench_accounts_pkey |        224641024

 2017-02-06 17:48:00.145879+01 | 1486399680.14588 | pgbench_branches_pkey |            90112
 2017-02-06 17:48:00.145879+01 | 1486399680.14588 | pgbench_tellers_pkey  |           442368
 2017-02-06 17:48:00.145879+01 | 1486399680.14588 | pgbench_accounts_pkey |        224641024

 2017-02-06 17:48:01.228669+01 | 1486399681.22867 | pgbench_branches_pkey |            90112
 2017-02-06 17:48:01.228669+01 | 1486399681.22867 | pgbench_tellers_pkey  |           442368
 2017-02-06 17:48:01.228669+01 | 1486399681.22867 | pgbench_accounts_pkey |        224641024

 2017-02-06 17:48:02.315264+01 | 1486399682.31526 | pgbench_branches_pkey |            90112
 2017-02-06 17:48:02.315264+01 | 1486399682.31526 | pgbench_tellers_pkey  |           442368
 2017-02-06 17:48:02.315264+01 | 1486399682.31526 | pgbench_accounts_pkey |        224641024

 2017-02-06 17:48:03.40044+01 | 1486399683.40044 | pgbench_branches_pkey |            90112
 2017-02-06 17:48:03.40044+01 | 1486399683.40044 | pgbench_tellers_pkey  |           442368
 2017-02-06 17:48:03.40044+01 | 1486399683.40044 | pgbench_accounts_pkey |        224641024

 2017-02-06 17:48:04.489712+01 | 1486399684.48971 | pgbench_branches_pkey |            90112
 2017-02-06 17:48:04.489712+01 | 1486399684.48971 | pgbench_tellers_pkey  |           442368
 2017-02-06 17:48:04.489712+01 | 1486399684.48971 | pgbench_accounts_pkey |        224641024

 2017-02-06 17:48:05.567261+01 | 1486399685.56726 | pgbench_branches_pkey |            90112
 2017-02-06 17:48:05.567261+01 | 1486399685.56726 | pgbench_tellers_pkey  |           442368
 2017-02-06 17:48:05.567261+01 | 1486399685.56726 | pgbench_accounts_pkey |        224641024

 2017-02-06 17:48:06.643136+01 | 1486399686.64314 | pgbench_branches_pkey |            90112
 2017-02-06 17:48:06.643136+01 | 1486399686.64314 | pgbench_tellers_pkey  |           442368
 2017-02-06 17:48:06.643136+01 | 1486399686.64314 | pgbench_accounts_pkey |        224641024

 2017-02-06 17:48:07.725204+01 | 1486399687.7252 | pgbench_branches_pkey |            90112
 2017-02-06 17:48:07.725204+01 | 1486399687.7252 | pgbench_tellers_pkey  |           442368
 2017-02-06 17:48:07.725204+01 | 1486399687.7252 | pgbench_accounts_pkey |        224641024

 2017-02-06 17:48:08.811214+01 | 1486399688.81121 | pgbench_branches_pkey |            90112
 2017-02-06 17:48:08.811214+01 | 1486399688.81121 | pgbench_tellers_pkey  |           442368
 2017-02-06 17:48:08.811214+01 | 1486399688.81121 | pgbench_accounts_pkey |        224641024

 2017-02-06 17:48:09.897694+01 | 1486399689.89769 | pgbench_branches_pkey |            90112
 2017-02-06 17:48:09.897694+01 | 1486399689.89769 | pgbench_tellers_pkey  |           442368
 2017-02-06 17:48:09.897694+01 | 1486399689.89769 | pgbench_accounts_pkey |        224641024

 2017-02-06 17:48:10.979704+01 | 1486399690.9797 | pgbench_branches_pkey |            90112
 2017-02-06 17:48:10.979704+01 | 1486399690.9797 | pgbench_tellers_pkey  |           442368
 2017-02-06 17:48:10.979704+01 | 1486399690.9797 | pgbench_accounts_pkey |        224641024

 2017-02-06 17:48:12.054651+01 | 1486399692.05465 | pgbench_branches_pkey |            90112
 2017-02-06 17:48:12.054651+01 | 1486399692.05465 | pgbench_tellers_pkey  |           442368
 2017-02-06 17:48:12.054651+01 | 1486399692.05465 | pgbench_accounts_pkey |        224641024

 2017-02-06 17:48:13.13214+01 | 1486399693.13214 | pgbench_branches_pkey |            90112
 2017-02-06 17:48:13.13214+01 | 1486399693.13214 | pgbench_tellers_pkey  |           442368
 2017-02-06 17:48:13.13214+01 | 1486399693.13214 | pgbench_accounts_pkey |        224641024

 2017-02-06 17:48:14.205541+01 | 1486399694.20554 | pgbench_branches_pkey |            90112
 2017-02-06 17:48:14.205541+01 | 1486399694.20554 | pgbench_tellers_pkey  |           442368
 2017-02-06 17:48:14.205541+01 | 1486399694.20554 | pgbench_accounts_pkey |        224641024

 2017-02-06 17:48:15.296203+01 | 1486399695.2962 | pgbench_branches_pkey |            90112
 2017-02-06 17:48:15.296203+01 | 1486399695.2962 | pgbench_tellers_pkey  |           442368
 2017-02-06 17:48:15.296203+01 | 1486399695.2962 | pgbench_accounts_pkey |        224641024

 2017-02-06 17:48:16.377174+01 | 1486399696.37717 | pgbench_branches_pkey |            90112
 2017-02-06 17:48:16.377174+01 | 1486399696.37717 | pgbench_tellers_pkey  |           442368
 2017-02-06 17:48:16.377174+01 | 1486399696.37717 | pgbench_accounts_pkey |        224641024

 2017-02-06 17:48:17.451355+01 | 1486399697.45135 | pgbench_branches_pkey |            90112
 2017-02-06 17:48:17.451355+01 | 1486399697.45135 | pgbench_tellers_pkey  |           442368
 2017-02-06 17:48:17.451355+01 | 1486399697.45135 | pgbench_accounts_pkey |        224641024

 2017-02-06 17:48:18.525446+01 | 1486399698.52545 | pgbench_branches_pkey |            90112
 2017-02-06 17:48:18.525446+01 | 1486399698.52545 | pgbench_tellers_pkey  |           442368
 2017-02-06 17:48:18.525446+01 | 1486399698.52545 | pgbench_accounts_pkey |        224641024

 2017-02-06 17:48:19.599171+01 | 1486399699.59917 | pgbench_branches_pkey |            90112
 2017-02-06 17:48:19.599171+01 | 1486399699.59917 | pgbench_tellers_pkey  |           442368
 2017-02-06 17:48:19.599171+01 | 1486399699.59917 | pgbench_accounts_pkey |        224641024

 2017-02-06 17:48:20.681214+01 | 1486399700.68121 | pgbench_branches_pkey |            90112
 2017-02-06 17:48:20.681214+01 | 1486399700.68121 | pgbench_tellers_pkey  |           442368
 2017-02-06 17:48:20.681214+01 | 1486399700.68121 | pgbench_accounts_pkey |        224641024

 2017-02-06 17:48:21.760696+01 | 1486399701.7607 | pgbench_branches_pkey |            90112
 2017-02-06 17:48:21.760696+01 | 1486399701.7607 | pgbench_tellers_pkey  |           442368
 2017-02-06 17:48:21.760696+01 | 1486399701.7607 | pgbench_accounts_pkey |        224641024

 2017-02-06 17:48:22.837329+01 | 1486399702.83733 | pgbench_branches_pkey |            90112
 2017-02-06 17:48:22.837329+01 | 1486399702.83733 | pgbench_tellers_pkey  |           442368
 2017-02-06 17:48:22.837329+01 | 1486399702.83733 | pgbench_accounts_pkey |        224641024

 2017-02-06 17:48:23.914817+01 | 1486399703.91482 | pgbench_branches_pkey |            90112
 2017-02-06 17:48:23.914817+01 | 1486399703.91482 | pgbench_tellers_pkey  |           442368
 2017-02-06 17:48:23.914817+01 | 1486399703.91482 | pgbench_accounts_pkey |        224641024

 2017-02-06 17:48:24.991004+01 | 1486399704.991 | pgbench_branches_pkey |            90112
 2017-02-06 17:48:24.991004+01 | 1486399704.991 | pgbench_tellers_pkey  |           442368
 2017-02-06 17:48:24.991004+01 | 1486399704.991 | pgbench_accounts_pkey |        224641024

 2017-02-06 17:48:26.070717+01 | 1486399706.07072 | pgbench_branches_pkey |            90112
 2017-02-06 17:48:26.070717+01 | 1486399706.07072 | pgbench_tellers_pkey  |           442368
 2017-02-06 17:48:26.070717+01 | 1486399706.07072 | pgbench_accounts_pkey |        224641024

 2017-02-06 17:48:27.155244+01 | 1486399707.15524 | pgbench_branches_pkey |            90112
 2017-02-06 17:48:27.155244+01 | 1486399707.15524 | pgbench_tellers_pkey  |           442368
 2017-02-06 17:48:27.155244+01 | 1486399707.15524 | pgbench_accounts_pkey |        224641024

 2017-02-06 17:48:28.225349+01 | 1486399708.22535 | pgbench_branches_pkey |            90112
 2017-02-06 17:48:28.225349+01 | 1486399708.22535 | pgbench_tellers_pkey  |           442368
 2017-02-06 17:48:28.225349+01 | 1486399708.22535 | pgbench_accounts_pkey |        224641024

 2017-02-06 17:48:29.309908+01 | 1486399709.30991 | pgbench_branches_pkey |            90112
 2017-02-06 17:48:29.309908+01 | 1486399709.30991 | pgbench_tellers_pkey  |           442368
 2017-02-06 17:48:29.309908+01 | 1486399709.30991 | pgbench_accounts_pkey |        224641024

 2017-02-06 17:48:30.392035+01 | 1486399710.39204 | pgbench_branches_pkey |            90112
 2017-02-06 17:48:30.392035+01 | 1486399710.39204 | pgbench_tellers_pkey  |           442368
 2017-02-06 17:48:30.392035+01 | 1486399710.39204 | pgbench_accounts_pkey |        224641024

 2017-02-06 17:48:31.487168+01 | 1486399711.48717 | pgbench_branches_pkey |            90112
 2017-02-06 17:48:31.487168+01 | 1486399711.48717 | pgbench_tellers_pkey  |           442368
 2017-02-06 17:48:31.487168+01 | 1486399711.48717 | pgbench_accounts_pkey |        224641024

 2017-02-06 17:48:32.567425+01 | 1486399712.56743 | pgbench_branches_pkey |            90112
 2017-02-06 17:48:32.567425+01 | 1486399712.56743 | pgbench_tellers_pkey  |           442368
 2017-02-06 17:48:32.567425+01 | 1486399712.56743 | pgbench_accounts_pkey |        224641024

 2017-02-06 17:48:33.643654+01 | 1486399713.64365 | pgbench_branches_pkey |            90112
 2017-02-06 17:48:33.643654+01 | 1486399713.64365 | pgbench_tellers_pkey  |           442368
 2017-02-06 17:48:33.643654+01 | 1486399713.64365 | pgbench_accounts_pkey |        224641024

 2017-02-06 17:48:34.726136+01 | 1486399714.72614 | pgbench_branches_pkey |            90112
 2017-02-06 17:48:34.726136+01 | 1486399714.72614 | pgbench_tellers_pkey  |           442368
 2017-02-06 17:48:34.726136+01 | 1486399714.72614 | pgbench_accounts_pkey |        224641024

 2017-02-06 17:48:35.802209+01 | 1486399715.80221 | pgbench_branches_pkey |            90112
 2017-02-06 17:48:35.802209+01 | 1486399715.80221 | pgbench_tellers_pkey  |           442368
 2017-02-06 17:48:35.802209+01 | 1486399715.80221 | pgbench_accounts_pkey |        224641024

 2017-02-06 17:48:36.880729+01 | 1486399716.88073 | pgbench_branches_pkey |            90112
 2017-02-06 17:48:36.880729+01 | 1486399716.88073 | pgbench_tellers_pkey  |           442368
 2017-02-06 17:48:36.880729+01 | 1486399716.88073 | pgbench_accounts_pkey |        224641024

 2017-02-06 17:48:37.960522+01 | 1486399717.96052 | pgbench_branches_pkey |            90112
 2017-02-06 17:48:37.960522+01 | 1486399717.96052 | pgbench_tellers_pkey  |           442368
 2017-02-06 17:48:37.960522+01 | 1486399717.96052 | pgbench_accounts_pkey |        224641024

 2017-02-06 17:48:39.045712+01 | 1486399719.04571 | pgbench_branches_pkey |            90112
 2017-02-06 17:48:39.045712+01 | 1486399719.04571 | pgbench_tellers_pkey  |           442368
 2017-02-06 17:48:39.045712+01 | 1486399719.04571 | pgbench_accounts_pkey |        224641024

 2017-02-06 17:48:40.125362+01 | 1486399720.12536 | pgbench_branches_pkey |            90112
 2017-02-06 17:48:40.125362+01 | 1486399720.12536 | pgbench_tellers_pkey  |           442368
 2017-02-06 17:48:40.125362+01 | 1486399720.12536 | pgbench_accounts_pkey |        224641024

 2017-02-06 17:48:41.20273+01 | 1486399721.20273 | pgbench_branches_pkey |            90112
 2017-02-06 17:48:41.20273+01 | 1486399721.20273 | pgbench_tellers_pkey  |           442368
 2017-02-06 17:48:41.20273+01 | 1486399721.20273 | pgbench_accounts_pkey |        224641024

 2017-02-06 17:48:42.280095+01 | 1486399722.2801 | pgbench_branches_pkey |            90112
 2017-02-06 17:48:42.280095+01 | 1486399722.2801 | pgbench_tellers_pkey  |           442368
 2017-02-06 17:48:42.280095+01 | 1486399722.2801 | pgbench_accounts_pkey |        224641024

 2017-02-06 17:48:43.359441+01 | 1486399723.35944 | pgbench_branches_pkey |            90112
 2017-02-06 17:48:43.359441+01 | 1486399723.35944 | pgbench_tellers_pkey  |           442368
 2017-02-06 17:48:43.359441+01 | 1486399723.35944 | pgbench_accounts_pkey |        224641024

 2017-02-06 17:48:44.439528+01 | 1486399724.43953 | pgbench_branches_pkey |            90112
 2017-02-06 17:48:44.439528+01 | 1486399724.43953 | pgbench_tellers_pkey  |           442368
 2017-02-06 17:48:44.439528+01 | 1486399724.43953 | pgbench_accounts_pkey |        224641024

 2017-02-06 17:48:45.518786+01 | 1486399725.51879 | pgbench_branches_pkey |            90112
 2017-02-06 17:48:45.518786+01 | 1486399725.51879 | pgbench_tellers_pkey  |           442368
 2017-02-06 17:48:45.518786+01 | 1486399725.51879 | pgbench_accounts_pkey |        224641024

 2017-02-06 17:48:46.595786+01 | 1486399726.59579 | pgbench_branches_pkey |            90112
 2017-02-06 17:48:46.595786+01 | 1486399726.59579 | pgbench_tellers_pkey  |           442368
 2017-02-06 17:48:46.595786+01 | 1486399726.59579 | pgbench_accounts_pkey |        224641024

 2017-02-06 17:48:47.667465+01 | 1486399727.66746 | pgbench_branches_pkey |            90112
 2017-02-06 17:48:47.667465+01 | 1486399727.66746 | pgbench_tellers_pkey  |           442368
 2017-02-06 17:48:47.667465+01 | 1486399727.66746 | pgbench_accounts_pkey |        224641024

 2017-02-06 17:48:48.746458+01 | 1486399728.74646 | pgbench_branches_pkey |            90112
 2017-02-06 17:48:48.746458+01 | 1486399728.74646 | pgbench_tellers_pkey  |           442368
 2017-02-06 17:48:48.746458+01 | 1486399728.74646 | pgbench_accounts_pkey |        224641024

 2017-02-06 17:48:49.821708+01 | 1486399729.82171 | pgbench_branches_pkey |            90112
 2017-02-06 17:48:49.821708+01 | 1486399729.82171 | pgbench_tellers_pkey  |           442368
 2017-02-06 17:48:49.821708+01 | 1486399729.82171 | pgbench_accounts_pkey |        224641024

 2017-02-06 17:48:50.900375+01 | 1486399730.90037 | pgbench_branches_pkey |            90112
 2017-02-06 17:48:50.900375+01 | 1486399730.90037 | pgbench_tellers_pkey  |           442368
 2017-02-06 17:48:50.900375+01 | 1486399730.90037 | pgbench_accounts_pkey |        224641024

 2017-02-06 17:48:51.982067+01 | 1486399731.98207 | pgbench_branches_pkey |            90112
 2017-02-06 17:48:51.982067+01 | 1486399731.98207 | pgbench_tellers_pkey  |           442368
 2017-02-06 17:48:51.982067+01 | 1486399731.98207 | pgbench_accounts_pkey |        224641024

 2017-02-06 17:48:53.070408+01 | 1486399733.07041 | pgbench_branches_pkey |            90112
 2017-02-06 17:48:53.070408+01 | 1486399733.07041 | pgbench_tellers_pkey  |           442368
 2017-02-06 17:48:53.070408+01 | 1486399733.07041 | pgbench_accounts_pkey |        224641024

 2017-02-06 17:48:54.148484+01 | 1486399734.14848 | pgbench_branches_pkey |            90112
 2017-02-06 17:48:54.148484+01 | 1486399734.14848 | pgbench_tellers_pkey  |           442368
 2017-02-06 17:48:54.148484+01 | 1486399734.14848 | pgbench_accounts_pkey |        224641024

 2017-02-06 17:48:55.225592+01 | 1486399735.22559 | pgbench_branches_pkey |            90112
 2017-02-06 17:48:55.225592+01 | 1486399735.22559 | pgbench_tellers_pkey  |           442368
 2017-02-06 17:48:55.225592+01 | 1486399735.22559 | pgbench_accounts_pkey |        224641024

 2017-02-06 17:48:56.30979+01 | 1486399736.30979 | pgbench_branches_pkey |            90112
 2017-02-06 17:48:56.30979+01 | 1486399736.30979 | pgbench_tellers_pkey  |           442368
 2017-02-06 17:48:56.30979+01 | 1486399736.30979 | pgbench_accounts_pkey |        224641024

 2017-02-06 17:48:57.389066+01 | 1486399737.38907 | pgbench_branches_pkey |            90112
 2017-02-06 17:48:57.389066+01 | 1486399737.38907 | pgbench_tellers_pkey  |           442368
 2017-02-06 17:48:57.389066+01 | 1486399737.38907 | pgbench_accounts_pkey |        224641024

 2017-02-06 17:48:58.472979+01 | 1486399738.47298 | pgbench_branches_pkey |            90112
 2017-02-06 17:48:58.472979+01 | 1486399738.47298 | pgbench_tellers_pkey  |           442368
 2017-02-06 17:48:58.472979+01 | 1486399738.47298 | pgbench_accounts_pkey |        224641024

 2017-02-06 17:48:59.54753+01 | 1486399739.54753 | pgbench_branches_pkey |            90112
 2017-02-06 17:48:59.54753+01 | 1486399739.54753 | pgbench_tellers_pkey  |           442368
 2017-02-06 17:48:59.54753+01 | 1486399739.54753 | pgbench_accounts_pkey |        224641024

 2017-02-06 17:49:00.622316+01 | 1486399740.62232 | pgbench_branches_pkey |            90112
 2017-02-06 17:49:00.622316+01 | 1486399740.62232 | pgbench_tellers_pkey  |           442368
 2017-02-06 17:49:00.622316+01 | 1486399740.62232 | pgbench_accounts_pkey |        224641024

 2017-02-06 17:49:01.696589+01 | 1486399741.69659 | pgbench_branches_pkey |            90112
 2017-02-06 17:49:01.696589+01 | 1486399741.69659 | pgbench_tellers_pkey  |           442368
 2017-02-06 17:49:01.696589+01 | 1486399741.69659 | pgbench_accounts_pkey |        224641024

 2017-02-06 17:49:02.785599+01 | 1486399742.7856 | pgbench_branches_pkey |            90112
 2017-02-06 17:49:02.785599+01 | 1486399742.7856 | pgbench_tellers_pkey  |           442368
 2017-02-06 17:49:02.785599+01 | 1486399742.7856 | pgbench_accounts_pkey |        224641024

 2017-02-06 17:49:03.858676+01 | 1486399743.85868 | pgbench_branches_pkey |            90112
 2017-02-06 17:49:03.858676+01 | 1486399743.85868 | pgbench_tellers_pkey  |           442368
 2017-02-06 17:49:03.858676+01 | 1486399743.85868 | pgbench_accounts_pkey |        224641024

 2017-02-06 17:49:04.932624+01 | 1486399744.93262 | pgbench_branches_pkey |            90112
 2017-02-06 17:49:04.932624+01 | 1486399744.93262 | pgbench_tellers_pkey  |           442368
 2017-02-06 17:49:04.932624+01 | 1486399744.93262 | pgbench_accounts_pkey |        224641024

 2017-02-06 17:49:06.007996+01 | 1486399746.008 | pgbench_branches_pkey |            90112
 2017-02-06 17:49:06.007996+01 | 1486399746.008 | pgbench_tellers_pkey  |           442368
 2017-02-06 17:49:06.007996+01 | 1486399746.008 | pgbench_accounts_pkey |        224641024

 2017-02-06 17:49:07.089125+01 | 1486399747.08912 | pgbench_branches_pkey |            90112
 2017-02-06 17:49:07.089125+01 | 1486399747.08912 | pgbench_tellers_pkey  |           442368
 2017-02-06 17:49:07.089125+01 | 1486399747.08912 | pgbench_accounts_pkey |        224641024

 2017-02-06 17:49:08.170634+01 | 1486399748.17063 | pgbench_branches_pkey |            90112
 2017-02-06 17:49:08.170634+01 | 1486399748.17063 | pgbench_tellers_pkey  |           442368
 2017-02-06 17:49:08.170634+01 | 1486399748.17063 | pgbench_accounts_pkey |        224641024

 2017-02-06 17:49:09.250756+01 | 1486399749.25076 | pgbench_branches_pkey |            90112
 2017-02-06 17:49:09.250756+01 | 1486399749.25076 | pgbench_tellers_pkey  |           442368
 2017-02-06 17:49:09.250756+01 | 1486399749.25076 | pgbench_accounts_pkey |        224641024

 2017-02-06 17:49:10.332458+01 | 1486399750.33246 | pgbench_branches_pkey |            90112
 2017-02-06 17:49:10.332458+01 | 1486399750.33246 | pgbench_tellers_pkey  |           442368
 2017-02-06 17:49:10.332458+01 | 1486399750.33246 | pgbench_accounts_pkey |        224641024

 2017-02-06 17:49:11.41934+01 | 1486399751.41934 | pgbench_branches_pkey |            90112
 2017-02-06 17:49:11.41934+01 | 1486399751.41934 | pgbench_tellers_pkey  |           442368
 2017-02-06 17:49:11.41934+01 | 1486399751.41934 | pgbench_accounts_pkey |        224641024

 2017-02-06 17:49:12.493681+01 | 1486399752.49368 | pgbench_branches_pkey |            90112
 2017-02-06 17:49:12.493681+01 | 1486399752.49368 | pgbench_tellers_pkey  |           442368
 2017-02-06 17:49:12.493681+01 | 1486399752.49368 | pgbench_accounts_pkey |        224641024

 2017-02-06 17:49:13.576953+01 | 1486399753.57695 | pgbench_branches_pkey |            90112
 2017-02-06 17:49:13.576953+01 | 1486399753.57695 | pgbench_tellers_pkey  |           442368
 2017-02-06 17:49:13.576953+01 | 1486399753.57695 | pgbench_accounts_pkey |        224641024

 2017-02-06 17:49:14.650635+01 | 1486399754.65064 | pgbench_branches_pkey |            90112
 2017-02-06 17:49:14.650635+01 | 1486399754.65064 | pgbench_tellers_pkey  |           442368
 2017-02-06 17:49:14.650635+01 | 1486399754.65064 | pgbench_accounts_pkey |        224641024

 2017-02-06 17:49:15.725798+01 | 1486399755.7258 | pgbench_branches_pkey |            90112
 2017-02-06 17:49:15.725798+01 | 1486399755.7258 | pgbench_tellers_pkey  |           442368
 2017-02-06 17:49:15.725798+01 | 1486399755.7258 | pgbench_accounts_pkey |        224641024

 2017-02-06 17:49:16.804277+01 | 1486399756.80428 | pgbench_branches_pkey |            90112
 2017-02-06 17:49:16.804277+01 | 1486399756.80428 | pgbench_tellers_pkey  |           442368
 2017-02-06 17:49:16.804277+01 | 1486399756.80428 | pgbench_accounts_pkey |        224641024

 2017-02-06 17:49:17.880566+01 | 1486399757.88057 | pgbench_branches_pkey |            90112
 2017-02-06 17:49:17.880566+01 | 1486399757.88057 | pgbench_tellers_pkey  |           442368
 2017-02-06 17:49:17.880566+01 | 1486399757.88057 | pgbench_accounts_pkey |        224641024

 2017-02-06 17:49:18.9563+01 | 1486399758.9563 | pgbench_branches_pkey |            90112
 2017-02-06 17:49:18.9563+01 | 1486399758.9563 | pgbench_tellers_pkey  |           442368
 2017-02-06 17:49:18.9563+01 | 1486399758.9563 | pgbench_accounts_pkey |        224641024

 2017-02-06 17:49:20.038477+01 | 1486399760.03848 | pgbench_branches_pkey |            90112
 2017-02-06 17:49:20.038477+01 | 1486399760.03848 | pgbench_tellers_pkey  |           442368
 2017-02-06 17:49:20.038477+01 | 1486399760.03848 | pgbench_accounts_pkey |        224641024

 2017-02-06 17:49:21.123553+01 | 1486399761.12355 | pgbench_branches_pkey |            90112
 2017-02-06 17:49:21.123553+01 | 1486399761.12355 | pgbench_tellers_pkey  |           442368
 2017-02-06 17:49:21.123553+01 | 1486399761.12355 | pgbench_accounts_pkey |        224641024

 2017-02-06 17:49:22.20666+01 | 1486399762.20666 | pgbench_branches_pkey |            90112
 2017-02-06 17:49:22.20666+01 | 1486399762.20666 | pgbench_tellers_pkey  |           442368
 2017-02-06 17:49:22.20666+01 | 1486399762.20666 | pgbench_accounts_pkey |        224641024

 2017-02-06 17:49:23.291582+01 | 1486399763.29158 | pgbench_branches_pkey |            90112
 2017-02-06 17:49:23.291582+01 | 1486399763.29158 | pgbench_tellers_pkey  |           442368
 2017-02-06 17:49:23.291582+01 | 1486399763.29158 | pgbench_accounts_pkey |        224641024

 2017-02-06 17:49:24.375211+01 | 1486399764.37521 | pgbench_branches_pkey |            90112
 2017-02-06 17:49:24.375211+01 | 1486399764.37521 | pgbench_tellers_pkey  |           442368
 2017-02-06 17:49:24.375211+01 | 1486399764.37521 | pgbench_accounts_pkey |        224641024

 2017-02-06 17:49:25.456159+01 | 1486399765.45616 | pgbench_branches_pkey |            90112
 2017-02-06 17:49:25.456159+01 | 1486399765.45616 | pgbench_tellers_pkey  |           442368
 2017-02-06 17:49:25.456159+01 | 1486399765.45616 | pgbench_accounts_pkey |        224641024

 2017-02-06 17:49:26.537462+01 | 1486399766.53746 | pgbench_branches_pkey |            90112
 2017-02-06 17:49:26.537462+01 | 1486399766.53746 | pgbench_tellers_pkey  |           442368
 2017-02-06 17:49:26.537462+01 | 1486399766.53746 | pgbench_accounts_pkey |        224641024

 2017-02-06 17:49:27.622421+01 | 1486399767.62242 | pgbench_branches_pkey |            90112
 2017-02-06 17:49:27.622421+01 | 1486399767.62242 | pgbench_tellers_pkey  |           442368
 2017-02-06 17:49:27.622421+01 | 1486399767.62242 | pgbench_accounts_pkey |        224641024

 2017-02-06 17:49:28.703069+01 | 1486399768.70307 | pgbench_branches_pkey |            90112
 2017-02-06 17:49:28.703069+01 | 1486399768.70307 | pgbench_tellers_pkey  |           442368
 2017-02-06 17:49:28.703069+01 | 1486399768.70307 | pgbench_accounts_pkey |        224641024

