 2017-02-06 17:44:29.424182+01 | 1486399469.42418 | 1B/8D4FCA58              |          118334933592

 2017-02-06 17:44:30.520093+01 | 1486399470.52009 | 1B/96A88E58              |          118491745880

 2017-02-06 17:44:31.61273+01 | 1486399471.61273 | 1B/9F872938              |          118640552248

 2017-02-06 17:44:32.6935+01 | 1486399472.6935 | 1B/A7A9DE18              |          118777044504

 2017-02-06 17:44:33.784216+01 | 1486399473.78422 | 1B/AF20FDA0              |          118902291872

 2017-02-06 17:44:34.862829+01 | 1486399474.86283 | 1B/B777A9F0              |          119042189808

 2017-02-06 17:44:35.939571+01 | 1486399475.93957 | 1B/BE4AC280              |          119156687488

 2017-02-06 17:44:37.013249+01 | 1486399477.01325 | 1B/C421FCF0              |          119254678768

 2017-02-06 17:44:38.097607+01 | 1486399478.09761 | 1B/C9B42FA8              |          119348146088

 2017-02-06 17:44:39.180932+01 | 1486399479.18093 | 1B/CEAB6EE0              |          119431458528

 2017-02-06 17:44:40.254673+01 | 1486399480.25467 | 1B/D30CABE8              |          119504940008

 2017-02-06 17:44:41.335707+01 | 1486399481.33571 | 1B/D6DEA5C8              |          119569032648

 2017-02-06 17:44:42.412586+01 | 1486399482.41259 | 1B/DA21A040              |          119623753792

 2017-02-06 17:44:43.485033+01 | 1486399483.48503 | 1B/DD1F79E0              |          119673944544

 2017-02-06 17:44:44.565185+01 | 1486399484.56519 | 1B/DFD0AAB8              |          119719111352

 2017-02-06 17:44:45.643616+01 | 1486399485.64362 | 1B/E23B6A00              |          119759661568

 2017-02-06 17:44:46.717428+01 | 1486399486.71743 | 1B/E451A880              |          119794673792

 2017-02-06 17:44:47.80405+01 | 1486399487.80405 | 1B/E639E0F0              |          119826669808

 2017-02-06 17:44:48.885255+01 | 1486399488.88526 | 1B/E7E058A8              |          119854356648

 2017-02-06 17:44:49.964754+01 | 1486399489.96475 | 1B/E95CF6B8              |          119879300792

 2017-02-06 17:44:51.045397+01 | 1486399491.0454 | 1B/EA9E5DC8              |          119900364232

 2017-02-06 17:44:52.130431+01 | 1486399492.13043 | 1B/EBB11F48              |          119918370632

 2017-02-06 17:44:53.209037+01 | 1486399493.20904 | 1B/ED082260              |          119940850272

 2017-02-06 17:44:54.292041+01 | 1486399494.29204 | 1B/EEBC83D0              |          119969448912

 2017-02-06 17:44:55.370921+01 | 1486399495.37092 | 1B/F060A798              |          119996983192

 2017-02-06 17:44:56.455258+01 | 1486399496.45526 | 1B/F1FB4198              |          120023892376

 2017-02-06 17:44:57.529483+01 | 1486399497.52948 | 1B/F39524A0              |          120050754720

 2017-02-06 17:44:58.607375+01 | 1486399498.60737 | 1B/F52A4200              |          120077304320

 2017-02-06 17:44:59.682183+01 | 1486399499.68218 | 1B/F62A6A40              |          120094091840

 2017-02-06 17:45:00.757216+01 | 1486399500.75722 | 1B/F6EE6948              |          120106936648

 2017-02-06 17:45:01.839512+01 | 1486399501.83951 | 1B/F7B14188              |          120119705992

 2017-02-06 17:45:02.920164+01 | 1486399502.92016 | 1B/F85A3CE8              |          120130780392

 2017-02-06 17:45:03.999347+01 | 1486399503.99935 | 1B/F9097A58              |          120142265688

 2017-02-06 17:45:05.075757+01 | 1486399505.07576 | 1B/F9B3FC58              |          120153439320

 2017-02-06 17:45:06.149839+01 | 1486399506.14984 | 1B/FA68BA88              |          120165284488

 2017-02-06 17:45:07.225195+01 | 1486399507.22519 | 1B/FB137988              |          120176474504

 2017-02-06 17:45:08.308391+01 | 1486399508.30839 | 1B/FBC11BA0              |          120187853728

 2017-02-06 17:45:09.393892+01 | 1486399509.39389 | 1B/FC675C00              |          120198749184

 2017-02-06 17:45:10.472308+01 | 1486399510.47231 | 1B/FD0FD8C0              |          120209791168

 2017-02-06 17:45:11.546545+01 | 1486399511.54655 | 1B/FDB64D40              |          120220699968

 2017-02-06 17:45:12.626728+01 | 1486399512.62673 | 1B/FE647A10              |          120232114704

 2017-02-06 17:45:13.708783+01 | 1486399513.70878 | 1B/FF1DD4F0              |          120244262128

 2017-02-06 17:45:14.78824+01 | 1486399514.78824 | 1B/FFCB8230              |          120255644208

 2017-02-06 17:45:15.867436+01 | 1486399515.86744 | 1C/6A2590                |          120266040720

 2017-02-06 17:45:16.949487+01 | 1486399516.94949 | 1C/11E3768               |          120277841768

 2017-02-06 17:45:18.028976+01 | 1486399518.02898 | 1C/1C99668               |          120289072744

 2017-02-06 17:45:19.103158+01 | 1486399519.10316 | 1C/276B418               |          120300418072

 2017-02-06 17:45:20.18779+01 | 1486399520.18779 | 1C/31FD348               |          120311501640

 2017-02-06 17:45:21.267318+01 | 1486399521.26732 | 1C/3C43388               |          120322274184

 2017-02-06 17:45:22.342403+01 | 1486399522.3424 | 1C/46D6980               |          120333363584

 2017-02-06 17:45:23.42627+01 | 1486399523.42627 | 1C/5137008               |          120344244856

 2017-02-06 17:45:24.518228+01 | 1486399524.51823 | 1C/5ADE7F8               |          120354367480

 2017-02-06 17:45:25.601425+01 | 1486399525.60142 | 1C/6522858               |          120365131864

 2017-02-06 17:45:26.677236+01 | 1486399526.67724 | 1C/6F693A0               |          120375907232

 2017-02-06 17:45:27.753932+01 | 1486399527.75393 | 1C/79F99F0               |          120386984432

 2017-02-06 17:45:28.8257+01 | 1486399528.8257 | 1C/86F1D70               |          120400584048

 2017-02-06 17:45:29.9058+01 | 1486399529.9058 | 1C/9261E80               |          120412577408

 2017-02-06 17:45:30.986709+01 | 1486399530.98671 | 1C/9D23AE8               |          120423856872

 2017-02-06 17:45:32.067037+01 | 1486399532.06704 | 1C/A86A280               |          120435679872

 2017-02-06 17:45:33.149243+01 | 1486399533.14924 | 1C/B39F938               |          120447433016

 2017-02-06 17:45:34.22602+01 | 1486399534.22602 | 1C/BEE4670               |          120459249264

 2017-02-06 17:45:35.301746+01 | 1486399535.30175 | 1C/CA46B48               |          120471186248

 2017-02-06 17:45:36.376629+01 | 1486399536.37663 | 1C/D5DCFF8               |          120483336184

 2017-02-06 17:45:37.453657+01 | 1486399537.45366 | 1C/E088C78               |          120494525560

 2017-02-06 17:45:38.545918+01 | 1486399538.54592 | 1C/EB37D58               |          120505728344

 2017-02-06 17:45:39.638407+01 | 1486399539.63841 | 1C/F60C4A0               |          120517084320

 2017-02-06 17:45:40.706199+01 | 1486399540.7062 | 1C/1000E4E8              |          120527578344

 2017-02-06 17:45:41.791384+01 | 1486399541.79138 | 1C/109EF138              |          120537936184

 2017-02-06 17:45:42.868689+01 | 1486399542.86869 | 1C/1141B580              |          120548603264

 2017-02-06 17:45:43.944767+01 | 1486399543.94477 | 1C/11E67240              |          120559399488

 2017-02-06 17:45:45.026976+01 | 1486399545.02698 | 1C/128759D8              |          120569944536

 2017-02-06 17:45:46.107709+01 | 1486399546.10771 | 1C/1321FF98              |          120580079512

 2017-02-06 17:45:47.185077+01 | 1486399547.18508 | 1C/13B74540              |          120589862208

 2017-02-06 17:45:48.265874+01 | 1486399548.26587 | 1C/14492A98              |          120599423640

 2017-02-06 17:45:49.344104+01 | 1486399549.3441 | 1C/14EB9408              |          120610067464

 2017-02-06 17:45:50.419348+01 | 1486399550.41935 | 1C/15872ED8              |          120620265176

 2017-02-06 17:45:51.493787+01 | 1486399551.49379 | 1C/162B8B78              |          120631036792

 2017-02-06 17:45:52.574801+01 | 1486399552.5748 | 1C/16CD70A0              |          120641646752

 2017-02-06 17:45:53.65207+01 | 1486399553.65207 | 1C/17742C10              |          120652573712

 2017-02-06 17:45:54.737703+01 | 1486399554.7377 | 1C/18134260              |          120662999648

 2017-02-06 17:45:55.813008+01 | 1486399555.81301 | 1C/18B1D3B0              |          120673391536

 2017-02-06 17:45:56.893335+01 | 1486399556.89334 | 1C/19556FC8              |          120684113864

 2017-02-06 17:45:57.972173+01 | 1486399557.97217 | 1C/1A002160              |          120695300448

 2017-02-06 17:45:59.054978+01 | 1486399559.05498 | 1C/1AA35C40              |          120705997888

 2017-02-06 17:46:00.136733+01 | 1486399560.13673 | 1C/1B43DAC0              |          120716516032

 2017-02-06 17:46:01.21447+01 | 1486399561.21447 | 1C/1BDE6130              |          120726642992

 2017-02-06 17:46:02.295189+01 | 1486399562.29519 | 1C/1C7AA6D0              |          120736884432

 2017-02-06 17:46:03.381329+01 | 1486399563.38133 | 1C/1D1D4178              |          120747540856

 2017-02-06 17:46:04.459462+01 | 1486399564.45946 | 1C/1DACA858              |          120756938840

 2017-02-06 17:46:05.541732+01 | 1486399565.54173 | 1C/1E4BEB48              |          120767376200

 2017-02-06 17:46:06.62188+01 | 1486399566.62188 | 1C/1EEC59F0              |          120777890288

 2017-02-06 17:46:07.700689+01 | 1486399567.70069 | 1C/1F946C28              |          120788905000

 2017-02-06 17:46:08.785462+01 | 1486399568.78546 | 1C/2032CDC0              |          120799284672

 2017-02-06 17:46:09.862881+01 | 1486399569.86288 | 1C/20D94200              |          120810193408

 2017-02-06 17:46:10.941211+01 | 1486399570.94121 | 1C/216F69F8              |          120820034040

 2017-02-06 17:46:12.026268+01 | 1486399572.02627 | 1C/21FA8DF0              |          120829152752

 2017-02-06 17:46:13.108751+01 | 1486399573.10875 | 1C/2293C9A8              |          120839195048

 2017-02-06 17:46:14.184913+01 | 1486399574.18491 | 1C/2330AE98              |          120849477272

 2017-02-06 17:46:15.264532+01 | 1486399575.26453 | 1C/23C4ED00              |          120859192576

 2017-02-06 17:46:16.351605+01 | 1486399576.3516 | 1C/245FB030              |          120869335088

 2017-02-06 17:46:17.440831+01 | 1486399577.44083 | 1C/24EAB778              |          120878446456

 2017-02-06 17:46:18.522238+01 | 1486399578.52224 | 1C/2593FEC8              |          120889540296

 2017-02-06 17:46:19.599062+01 | 1486399579.59906 | 1C/26376BD8              |          120900250584

 2017-02-06 17:46:20.675769+01 | 1486399580.67577 | 1C/26D136B8              |          120910329528

 2017-02-06 17:46:21.758602+01 | 1486399581.7586 | 1C/277581D8              |          120921096664

 2017-02-06 17:46:22.836581+01 | 1486399582.83658 | 1C/28106180              |          120931246464

 2017-02-06 17:46:23.920019+01 | 1486399583.92002 | 1C/28B4F258              |          120942031448

 2017-02-06 17:46:24.995902+01 | 1486399584.9959 | 1C/2955DFF8              |          120952578040

 2017-02-06 17:46:26.070159+01 | 1486399586.07016 | 1C/29FBA820              |          120963442720

 2017-02-06 17:46:27.144436+01 | 1486399587.14444 | 1C/2A963F78              |          120973574008

 2017-02-06 17:46:28.22492+01 | 1486399588.22492 | 1C/2B413BA0              |          120984779680

 2017-02-06 17:46:29.308029+01 | 1486399589.30803 | 1C/2BFDEAF0              |          120997145328

 2017-02-06 17:46:30.383196+01 | 1486399590.3832 | 1C/2CBE5A40              |          121009756736

 2017-02-06 17:46:31.471056+01 | 1486399591.47106 | 1C/2D7640F0              |          121021808880

 2017-02-06 17:46:32.551044+01 | 1486399592.55104 | 1C/2E209288              |          121032970888

 2017-02-06 17:46:33.62823+01 | 1486399593.62823 | 1C/2ECD7978              |          121044302200

 2017-02-06 17:46:34.70847+01 | 1486399594.70847 | 1C/2F7C5860              |          121055762528

 2017-02-06 17:46:35.782972+01 | 1486399595.78297 | 1C/3030A640              |          121067578944

 2017-02-06 17:46:36.864323+01 | 1486399596.86432 | 1C/30E21E38              |          121079209528

 2017-02-06 17:46:37.945171+01 | 1486399597.94517 | 1C/318C19D0              |          121090349520

 2017-02-06 17:46:39.027323+01 | 1486399599.02732 | 1C/323FAEB0              |          121102118576

 2017-02-06 17:46:40.10725+01 | 1486399600.10725 | 1C/32F7E9A8              |          121114192296

 2017-02-06 17:46:41.191548+01 | 1486399601.19155 | 1C/33A2BC88              |          121125387400

 2017-02-06 17:46:42.27211+01 | 1486399602.27211 | 1C/342FB698              |          121134626456

 2017-02-06 17:46:43.357735+01 | 1486399603.35773 | 1C/34BD1B68              |          121143892840

 2017-02-06 17:46:44.430344+01 | 1486399604.43034 | 1C/35485B18              |          121153018648

 2017-02-06 17:46:45.508074+01 | 1486399605.50807 | 1C/35E0E7A8              |          121163016104

 2017-02-06 17:46:46.594005+01 | 1486399606.59401 | 1C/3666B100              |          121171783936

 2017-02-06 17:46:47.675648+01 | 1486399607.67565 | 1C/36FB5810              |          121181526032

 2017-02-06 17:46:48.753514+01 | 1486399608.75351 | 1C/3791E1B0              |          121191391664

 2017-02-06 17:46:49.827366+01 | 1486399609.82737 | 1C/382C82D0              |          121201525456

 2017-02-06 17:46:50.905214+01 | 1486399610.90521 | 1C/38C94208              |          121211798024

 2017-02-06 17:46:51.983632+01 | 1486399611.98363 | 1C/3961B518              |          121221788952

 2017-02-06 17:46:53.064652+01 | 1486399613.06465 | 1C/39FD1E78              |          121231974008

 2017-02-06 17:46:54.152876+01 | 1486399614.15288 | 1C/3A929AB8              |          121241770680

 2017-02-06 17:46:55.22817+01 | 1486399615.22817 | 1C/3B246E90              |          121251327632

 2017-02-06 17:46:56.308636+01 | 1486399616.30864 | 1C/3BB13418              |          121260553240

 2017-02-06 17:46:57.388284+01 | 1486399617.38828 | 1C/3C4B2860              |          121270642784

 2017-02-06 17:46:58.465816+01 | 1486399618.46582 | 1C/3CD1CE30              |          121279467056

 2017-02-06 17:46:59.550465+01 | 1486399619.55047 | 1C/3D5ED2E0              |          121288708832

 2017-02-06 17:47:00.626212+01 | 1486399620.62621 | 1C/3DDE3320              |          121297056544

 2017-02-06 17:47:01.704226+01 | 1486399621.70423 | 1C/3E74C900              |          121306925312

 2017-02-06 17:47:02.794359+01 | 1486399622.79436 | 1C/3F098B68              |          121316674408

 2017-02-06 17:47:03.874186+01 | 1486399623.87419 | 1C/3F90F3B0              |          121325548464

 2017-02-06 17:47:04.957057+01 | 1486399624.95706 | 1C/40172C00              |          121334344704

 2017-02-06 17:47:06.042897+01 | 1486399626.0429 | 1C/40B71CA0              |          121344826528

 2017-02-06 17:47:07.125193+01 | 1486399627.12519 | 1C/41449F78              |          121354100600

 2017-02-06 17:47:08.208321+01 | 1486399628.20832 | 1C/41D92F88              |          121363836808

 2017-02-06 17:47:09.288351+01 | 1486399629.28835 | 1C/426F27E0              |          121373665248

 2017-02-06 17:47:10.372486+01 | 1486399630.37249 | 1C/42FFFC18              |          121383156760

 2017-02-06 17:47:11.454872+01 | 1486399631.45487 | 1C/438D2340              |          121392407360

 2017-02-06 17:47:12.544296+01 | 1486399632.5443 | 1C/440ADCE8              |          121400646888

 2017-02-06 17:47:13.621938+01 | 1486399633.62194 | 1C/449D16C8              |          121410229960

 2017-02-06 17:47:14.706409+01 | 1486399634.70641 | 1C/453223E0              |          121419998176

 2017-02-06 17:47:15.794523+01 | 1486399635.79452 | 1C/45BD49F8              |          121429117432

 2017-02-06 17:47:16.873895+01 | 1486399636.87389 | 1C/464FA148              |          121438708040

 2017-02-06 17:47:17.957322+01 | 1486399637.95732 | 1C/46DEBE50              |          121448087120

 2017-02-06 17:47:19.036828+01 | 1486399639.03683 | 1C/47736818              |          121457829912

 2017-02-06 17:47:20.112493+01 | 1486399640.11249 | 1C/47F91DF8              |          121466592760

 2017-02-06 17:47:21.193543+01 | 1486399641.19354 | 1C/48961498              |          121476879512

 2017-02-06 17:47:22.271006+01 | 1486399642.27101 | 1C/493634C0              |          121487373504

 2017-02-06 17:47:23.350453+01 | 1486399643.35045 | 1C/49D5A638              |          121497822776

 2017-02-06 17:47:24.429821+01 | 1486399644.42982 | 1C/4A6FB980              |          121507920256

 2017-02-06 17:47:25.506949+01 | 1486399645.50695 | 1C/4B0C7D38              |          121518193976

 2017-02-06 17:47:26.586666+01 | 1486399646.58667 | 1C/4BA28338              |          121528025912

 2017-02-06 17:47:27.665107+01 | 1486399647.66511 | 1C/4C450F00              |          121538678528

 2017-02-06 17:47:28.745045+01 | 1486399648.74504 | 1C/4CFEAD38              |          121550843192

 2017-02-06 17:47:29.828274+01 | 1486399649.82827 | 1C/4DB25C08              |          121562618888

 2017-02-06 17:47:30.903732+01 | 1486399650.90373 | 1C/4E694E98              |          121574608536

 2017-02-06 17:47:31.987756+01 | 1486399651.98776 | 1C/4F1A2E88              |          121586200200

 2017-02-06 17:47:33.071179+01 | 1486399653.07118 | 1C/4FD09198              |          121598153112

 2017-02-06 17:47:34.150007+01 | 1486399654.15001 | 1C/508436F0              |          121609926384

 2017-02-06 17:47:35.224072+01 | 1486399655.22407 | 1C/5126BE58              |          121620577880

 2017-02-06 17:47:36.297828+01 | 1486399656.29783 | 1C/51CEACA0              |          121631583392

 2017-02-06 17:47:37.380437+01 | 1486399657.38044 | 1C/526D65D0              |          121641985488

 2017-02-06 17:47:38.468535+01 | 1486399658.46853 | 1C/53061FA8              |          121651994536

 2017-02-06 17:47:39.5382+01 | 1486399659.5382 | 1C/53B9AE68              |          121663762024

 2017-02-06 17:47:40.612714+01 | 1486399660.61271 | 1C/54651948              |          121674996040

 2017-02-06 17:47:41.689816+01 | 1486399661.68982 | 1C/5500CA10              |          121685199376

 2017-02-06 17:47:42.768291+01 | 1486399662.76829 | 1C/559633E0              |          121694991328

 2017-02-06 17:47:43.847848+01 | 1486399663.84785 | 1C/563B4BB8              |          121705810872

 2017-02-06 17:47:44.930357+01 | 1486399664.93036 | 1C/56DD2728              |          121716418344

 2017-02-06 17:47:46.012991+01 | 1486399666.01299 | 1C/577F4EE0              |          121727045344

 2017-02-06 17:47:47.093858+01 | 1486399667.09386 | 1C/58210290              |          121737642640

 2017-02-06 17:47:48.171514+01 | 1486399668.17151 | 1C/58C9FC18              |          121748716568

 2017-02-06 17:47:49.250341+01 | 1486399669.25034 | 1C/59690A10              |          121759140368

 2017-02-06 17:47:50.348106+01 | 1486399670.34811 | 1C/5A0DF238              |          121769947704

 2017-02-06 17:47:51.431739+01 | 1486399671.43174 | 1C/5AAC60B8              |          121780330680

 2017-02-06 17:47:52.510333+01 | 1486399672.51033 | 1C/5B50E500              |          121791112448

 2017-02-06 17:47:53.585018+01 | 1486399673.58502 | 1C/5BE95EE8              |          121801105128

 2017-02-06 17:47:54.668007+01 | 1486399674.66801 | 1C/5C8320E8              |          121811181800

 2017-02-06 17:47:55.745824+01 | 1486399675.74582 | 1C/5D106920              |          121820440864

 2017-02-06 17:47:56.83966+01 | 1486399676.83966 | 1C/5DA99B00              |          121830480640

 2017-02-06 17:47:57.919206+01 | 1486399677.91921 | 1C/5E3E7738              |          121840236344

 2017-02-06 17:47:59.000567+01 | 1486399679.00057 | 1C/5EDA0098              |          121850429592

 2017-02-06 17:48:00.086404+01 | 1486399680.0864 | 1C/5F6AFD40              |          121859931456

 2017-02-06 17:48:01.171151+01 | 1486399681.17115 | 1C/60093910              |          121870301456

 2017-02-06 17:48:02.252069+01 | 1486399682.25207 | 1C/60A37B48              |          121880410952

 2017-02-06 17:48:03.342468+01 | 1486399683.34247 | 1C/6134D828              |          121889937448

 2017-02-06 17:48:04.428894+01 | 1486399684.42889 | 1C/61C28540              |          121899222336

 2017-02-06 17:48:05.516103+01 | 1486399685.5161 | 1C/62595600              |          121909106176

 2017-02-06 17:48:06.588138+01 | 1486399686.58814 | 1C/62EE0888              |          121918851208

 2017-02-06 17:48:07.668795+01 | 1486399687.6688 | 1C/6383ED38              |          121928674616

 2017-02-06 17:48:08.74645+01 | 1486399688.74645 | 1C/64288C40              |          121939463232

 2017-02-06 17:48:09.837188+01 | 1486399689.83719 | 1C/64C7AFB8              |          121949892536

 2017-02-06 17:48:10.920617+01 | 1486399690.92062 | 1C/656D9020              |          121960763424

 2017-02-06 17:48:12.002772+01 | 1486399692.00277 | 1C/66179248              |          121971905096

 2017-02-06 17:48:13.076624+01 | 1486399693.07662 | 1C/66C42A18              |          121983216152

 2017-02-06 17:48:14.152735+01 | 1486399694.15273 | 1C/67677BA0              |          121993919392

 2017-02-06 17:48:15.229859+01 | 1486399695.22986 | 1C/67FA6AB0              |          122003548848

 2017-02-06 17:48:16.321154+01 | 1486399696.32115 | 1C/689EC620              |          122014320160

 2017-02-06 17:48:17.39826+01 | 1486399697.39826 | 1C/69420620              |          122025018912

 2017-02-06 17:48:18.473751+01 | 1486399698.47375 | 1C/69E20FB0              |          122035507120

 2017-02-06 17:48:19.545768+01 | 1486399699.54577 | 1C/6A7CD340              |          122045649728

 2017-02-06 17:48:20.623481+01 | 1486399700.62348 | 1C/6B136630              |          122055517744

 2017-02-06 17:48:21.70511+01 | 1486399701.70511 | 1C/6BAD5830              |          122065606704

 2017-02-06 17:48:22.783621+01 | 1486399702.78362 | 1C/6C536550              |          122076489040

 2017-02-06 17:48:23.861781+01 | 1486399703.86178 | 1C/6CF2A418              |          122086925336

 2017-02-06 17:48:24.937878+01 | 1486399704.93788 | 1C/6D8715A8              |          122096653736

 2017-02-06 17:48:26.016008+01 | 1486399706.01601 | 1C/6E1A1598              |          122106287512

 2017-02-06 17:48:27.096559+01 | 1486399707.09656 | 1C/6EB1D448              |          122116232264

 2017-02-06 17:48:28.179206+01 | 1486399708.17921 | 1C/6F6A1E20              |          122128309792

 2017-02-06 17:48:29.25139+01 | 1486399709.25139 | 1C/7024CD18              |          122140544280

 2017-02-06 17:48:30.33677+01 | 1486399710.33677 | 1C/70D81930              |          122152294704

 2017-02-06 17:48:31.418437+01 | 1486399711.41844 | 1C/71938EF8              |          122164580088

 2017-02-06 17:48:32.51024+01 | 1486399712.51024 | 1C/724C5DC8              |          122176691656

 2017-02-06 17:48:33.588648+01 | 1486399713.58865 | 1C/72FB69C0              |          122188163520

 2017-02-06 17:48:34.665504+01 | 1486399714.6655 | 1C/73A094D8              |          122198987992

 2017-02-06 17:48:35.749383+01 | 1486399715.74938 | 1C/743E9E60              |          122209345120

 2017-02-06 17:48:36.824726+01 | 1486399716.82473 | 1C/74E040A8              |          122219937960

 2017-02-06 17:48:37.900575+01 | 1486399717.90057 | 1C/7579D718              |          122230003480

 2017-02-06 17:48:38.98737+01 | 1486399718.98737 | 1C/7623C400              |          122241139712

 2017-02-06 17:48:40.07056+01 | 1486399720.07056 | 1C/76CECF50              |          122252349264

 2017-02-06 17:48:41.148201+01 | 1486399721.1482 | 1C/77765868              |          122263328872

 2017-02-06 17:48:42.224143+01 | 1486399722.22414 | 1C/781AABB0              |          122274098096

 2017-02-06 17:48:43.301272+01 | 1486399723.30127 | 1C/78BF19F8              |          122284874232

 2017-02-06 17:48:44.384773+01 | 1486399724.38477 | 1C/795C6320              |          122295182112

 2017-02-06 17:48:45.46212+01 | 1486399725.46212 | 1C/7A026558              |          122306061656

 2017-02-06 17:48:46.539531+01 | 1486399726.53953 | 1C/7AA15188              |          122316476808

 2017-02-06 17:48:47.616153+01 | 1486399727.61615 | 1C/7B3CB8B0              |          122326661296

 2017-02-06 17:48:48.689855+01 | 1486399728.68986 | 1C/7BDEC260              |          122337280608

 2017-02-06 17:48:49.767548+01 | 1486399729.76755 | 1C/7C821E68              |          122347986536

 2017-02-06 17:48:50.845365+01 | 1486399730.84537 | 1C/7D1FD330              |          122358321968

 2017-02-06 17:48:51.925396+01 | 1486399731.9254 | 1C/7DC58EC8              |          122369183432

 2017-02-06 17:48:53.008712+01 | 1486399733.00871 | 1C/7E6E7218              |          122380251672

 2017-02-06 17:48:54.094857+01 | 1486399734.09486 | 1C/7F1B9E08              |          122391600648

 2017-02-06 17:48:55.170277+01 | 1486399735.17028 | 1C/7FBFD050              |          122402361424

 2017-02-06 17:48:56.25335+01 | 1486399736.25335 | 1C/805B9628              |          122412570152

 2017-02-06 17:48:57.332232+01 | 1486399737.33223 | 1C/81066A28              |          122423765544

 2017-02-06 17:48:58.412077+01 | 1486399738.41208 | 1C/81A354F8              |          122434049272

 2017-02-06 17:48:59.494217+01 | 1486399739.49422 | 1C/823E4F20              |          122444205856

 2017-02-06 17:49:00.568379+01 | 1486399740.56838 | 1C/82D76B48              |          122454240072

 2017-02-06 17:49:01.643611+01 | 1486399741.64361 | 1C/83651A38              |          122463525432

 2017-02-06 17:49:02.721866+01 | 1486399742.72187 | 1C/83F071F8              |          122472657400

 2017-02-06 17:49:03.805981+01 | 1486399743.80598 | 1C/8489FAA8              |          122482719400

 2017-02-06 17:49:04.881084+01 | 1486399744.88108 | 1C/852B8A50              |          122493309528

 2017-02-06 17:49:05.952568+01 | 1486399745.95257 | 1C/85D30F38              |          122504286008

 2017-02-06 17:49:07.029087+01 | 1486399747.02909 | 1C/86757F78              |          122514931576

 2017-02-06 17:49:08.113223+01 | 1486399748.11322 | 1C/871D66E8              |          122525935336

 2017-02-06 17:49:09.192291+01 | 1486399749.19229 | 1C/87C53F78              |          122536935288

 2017-02-06 17:49:10.274517+01 | 1486399750.27452 | 1C/886711F8              |          122547540472

 2017-02-06 17:49:11.359559+01 | 1486399751.35956 | 1C/890AA380              |          122558260096

 2017-02-06 17:49:12.439891+01 | 1486399752.43989 | 1C/89B801A8              |          122569621928

 2017-02-06 17:49:13.522237+01 | 1486399753.52224 | 1C/8A69D780              |          122581276544

 2017-02-06 17:49:14.597494+01 | 1486399754.59749 | 1C/8B14F800              |          122592491520

 2017-02-06 17:49:15.673807+01 | 1486399755.67381 | 1C/8BB565A8              |          122603005352

 2017-02-06 17:49:16.746536+01 | 1486399756.74654 | 1C/8C48A678              |          122612655736

 2017-02-06 17:49:17.827464+01 | 1486399757.82746 | 1C/8CEA1620              |          122623236528

 2017-02-06 17:49:18.902772+01 | 1486399758.90277 | 1C/8D8CA498              |          122633888920

 2017-02-06 17:49:19.986777+01 | 1486399759.98678 | 1C/8E36E5D0              |          122645046736

 2017-02-06 17:49:21.060476+01 | 1486399761.06048 | 1C/8ED27460              |          122655241312

 2017-02-06 17:49:22.149934+01 | 1486399762.14993 | 1C/8F783268              |          122666103400

 2017-02-06 17:49:23.23199+01 | 1486399763.23199 | 1C/901DF8B8              |          122676967608

 2017-02-06 17:49:24.316343+01 | 1486399764.31634 | 1C/90CB9F38              |          122688347960

 2017-02-06 17:49:25.40152+01 | 1486399765.40152 | 1C/9173EC18              |          122699377688

 2017-02-06 17:49:26.47982+01 | 1486399766.47982 | 1C/92184E10              |          122710150672

 2017-02-06 17:49:27.564479+01 | 1486399767.56448 | 1C/92B61FE8              |          122720493544

 2017-02-06 17:49:28.644826+01 | 1486399768.64483 | 1C/93795760              |          122733287264

