 2017-02-06 04:11:19.406826+01 | 1486350679.40683 | 3/1B5ACF0                |           12913585392

 2017-02-06 04:11:20.524815+01 | 1486350680.52482 | 3/1B5ACF0                |           12913585392

 2017-02-06 04:11:21.679869+01 | 1486350681.67987 | 3/1B5ACF0                |           12913585392

 2017-02-06 04:11:22.819564+01 | 1486350682.81956 | 3/1B5ACF0                |           12913585392

 2017-02-06 04:11:23.967941+01 | 1486350683.96794 | 3/1B5ACF0                |           12913585392

 2017-02-06 04:11:25.091781+01 | 1486350685.09178 | 3/1B5ACF0                |           12913585392

 2017-02-06 04:11:26.23201+01 | 1486350686.23201 | 3/1B5ACF0                |           12913585392

 2017-02-06 04:11:27.369324+01 | 1486350687.36932 | 3/1B5ACF0                |           12913585392

 2017-02-06 04:11:28.498977+01 | 1486350688.49898 | 3/1B5ACF0                |           12913585392

 2017-02-06 04:11:29.631047+01 | 1486350689.63105 | 3/1B5ACF0                |           12913585392

 2017-02-06 04:11:30.775394+01 | 1486350690.77539 | 3/1B5ACF0                |           12913585392

 2017-02-06 04:11:31.938125+01 | 1486350691.93812 | 3/1B5ACF0                |           12913585392

 2017-02-06 04:11:33.089839+01 | 1486350693.08984 | 3/1B5ACF0                |           12913585392

 2017-02-06 04:11:34.21225+01 | 1486350694.21225 | 3/1B5AD28                |           12913585448

 2017-02-06 04:11:35.350545+01 | 1486350695.35054 | 3/1B5AD28                |           12913585448

 2017-02-06 04:11:36.494932+01 | 1486350696.49493 | 3/1B5AD28                |           12913585448

 2017-02-06 04:11:37.654612+01 | 1486350697.65461 | 3/1B5AD28                |           12913585448

 2017-02-06 04:11:38.782799+01 | 1486350698.7828 | 3/1B5AD28                |           12913585448

 2017-02-06 04:11:39.918004+01 | 1486350699.918 | 3/1B5AD28                |           12913585448

 2017-02-06 04:11:41.047086+01 | 1486350701.04709 | 3/1B5AD28                |           12913585448

 2017-02-06 04:11:42.174238+01 | 1486350702.17424 | 3/1B5AD28                |           12913585448

 2017-02-06 04:11:43.344671+01 | 1486350703.34467 | 3/1B5AD28                |           12913585448

 2017-02-06 04:11:44.487587+01 | 1486350704.48759 | 3/1B5AD28                |           12913585448

 2017-02-06 04:11:45.618347+01 | 1486350705.61835 | 3/1B5AD28                |           12913585448

 2017-02-06 04:11:46.751757+01 | 1486350706.75176 | 3/1B5AD28                |           12913585448

 2017-02-06 04:11:47.878758+01 | 1486350707.87876 | 3/1B5AD28                |           12913585448

 2017-02-06 04:11:49.027081+01 | 1486350709.02708 | 3/1B5AD28                |           12913585448

 2017-02-06 04:11:50.145216+01 | 1486350710.14522 | 3/1B5AD28                |           12913585448

 2017-02-06 04:11:51.28665+01 | 1486350711.28665 | 3/1B5AD28                |           12913585448

 2017-02-06 04:11:52.435604+01 | 1486350712.4356 | 3/1B5AD28                |           12913585448

 2017-02-06 04:11:53.56211+01 | 1486350713.56211 | 3/1B5AD28                |           12913585448

 2017-02-06 04:11:54.669096+01 | 1486350714.6691 | 3/1B5AD28                |           12913585448

 2017-02-06 04:11:55.787201+01 | 1486350715.7872 | 3/1B5AD28                |           12913585448

 2017-02-06 04:11:56.920405+01 | 1486350716.9204 | 3/1B5AD28                |           12913585448

 2017-02-06 04:11:58.088256+01 | 1486350718.08826 | 3/1B5AD28                |           12913585448

 2017-02-06 04:11:59.230061+01 | 1486350719.23006 | 3/1B5AD28                |           12913585448

 2017-02-06 04:12:00.351466+01 | 1486350720.35147 | 3/1B5AD28                |           12913585448

 2017-02-06 04:12:01.484241+01 | 1486350721.48424 | 3/1B5AD28                |           12913585448

 2017-02-06 04:12:02.64448+01 | 1486350722.64448 | 3/1B5AD28                |           12913585448

 2017-02-06 04:12:03.780229+01 | 1486350723.78023 | 3/1B5AD28                |           12913585448

 2017-02-06 04:12:04.911583+01 | 1486350724.91158 | 3/1B5AD28                |           12913585448

 2017-02-06 04:12:06.022403+01 | 1486350726.0224 | 3/1B5AD28                |           12913585448

 2017-02-06 04:12:07.15479+01 | 1486350727.15479 | 3/1B5AD28                |           12913585448

 2017-02-06 04:12:08.2805+01 | 1486350728.2805 | 3/1B5AD28                |           12913585448

 2017-02-06 04:12:09.39431+01 | 1486350729.39431 | 3/1B5AD28                |           12913585448

 2017-02-06 04:12:10.527128+01 | 1486350730.52713 | 3/1B5AD28                |           12913585448

 2017-02-06 04:12:11.654184+01 | 1486350731.65418 | 3/1B5AD28                |           12913585448

 2017-02-06 04:12:12.765691+01 | 1486350732.76569 | 3/1B5AD28                |           12913585448

 2017-02-06 04:12:13.907941+01 | 1486350733.90794 | 3/1B5AD28                |           12913585448

 2017-02-06 04:12:15.032708+01 | 1486350735.03271 | 3/1B5AD28                |           12913585448

 2017-02-06 04:12:16.176592+01 | 1486350736.17659 | 3/1B5AD28                |           12913585448

 2017-02-06 04:12:17.315246+01 | 1486350737.31525 | 3/1B5AD28                |           12913585448

 2017-02-06 04:12:18.479772+01 | 1486350738.47977 | 3/1B5AD28                |           12913585448

 2017-02-06 04:12:19.62318+01 | 1486350739.62318 | 3/1B5AD28                |           12913585448

 2017-02-06 04:12:20.767996+01 | 1486350740.768 | 3/1B5AD28                |           12913585448

 2017-02-06 04:12:21.925554+01 | 1486350741.92555 | 3/1B5AD28                |           12913585448

 2017-02-06 04:12:23.068147+01 | 1486350743.06815 | 3/1B5AD28                |           12913585448

 2017-02-06 04:12:24.201318+01 | 1486350744.20132 | 3/1B5AD28                |           12913585448

 2017-02-06 04:12:25.342306+01 | 1486350745.34231 | 3/1B5AD28                |           12913585448

 2017-02-06 04:12:26.491307+01 | 1486350746.49131 | 3/1B5AD28                |           12913585448

 2017-02-06 04:12:27.622593+01 | 1486350747.62259 | 3/1B5AD28                |           12913585448

 2017-02-06 04:12:28.780546+01 | 1486350748.78055 | 3/1B5AD28                |           12913585448

 2017-02-06 04:12:29.927443+01 | 1486350749.92744 | 3/1B5AD28                |           12913585448

 2017-02-06 04:12:31.074507+01 | 1486350751.07451 | 3/1B5AD28                |           12913585448

 2017-02-06 04:12:32.198833+01 | 1486350752.19883 | 3/1B5AD28                |           12913585448

 2017-02-06 04:12:33.364024+01 | 1486350753.36402 | 3/1B5AD28                |           12913585448

 2017-02-06 04:12:34.486866+01 | 1486350754.48687 | 3/1B5AD28                |           12913585448

 2017-02-06 04:12:35.630829+01 | 1486350755.63083 | 3/1B5AD28                |           12913585448

 2017-02-06 04:12:36.74755+01 | 1486350756.74755 | 3/1B5AD28                |           12913585448

 2017-02-06 04:12:37.876165+01 | 1486350757.87616 | 3/1B5AD28                |           12913585448

 2017-02-06 04:12:39.027874+01 | 1486350759.02787 | 3/1B5AD28                |           12913585448

 2017-02-06 04:12:40.151068+01 | 1486350760.15107 | 3/1B5AD28                |           12913585448

 2017-02-06 04:12:41.302417+01 | 1486350761.30242 | 3/1B5AD28                |           12913585448

 2017-02-06 04:12:42.457234+01 | 1486350762.45723 | 3/1B5AD28                |           12913585448

 2017-02-06 04:12:43.593949+01 | 1486350763.59395 | 3/1B5AD28                |           12913585448

 2017-02-06 04:12:44.750154+01 | 1486350764.75015 | 3/1B5AD28                |           12913585448

 2017-02-06 04:12:45.881924+01 | 1486350765.88192 | 3/1B5AD28                |           12913585448

 2017-02-06 04:12:47.034253+01 | 1486350767.03425 | 3/1B5AD28                |           12913585448

 2017-02-06 04:12:48.164556+01 | 1486350768.16456 | 3/1B5AD28                |           12913585448

 2017-02-06 04:12:49.299693+01 | 1486350769.29969 | 3/1B5AD28                |           12913585448

 2017-02-06 04:12:50.411732+01 | 1486350770.41173 | 3/1B5AD28                |           12913585448

 2017-02-06 04:12:51.535181+01 | 1486350771.53518 | 3/1B5AD28                |           12913585448

 2017-02-06 04:12:52.647799+01 | 1486350772.6478 | 3/1B5AD28                |           12913585448

 2017-02-06 04:12:53.824831+01 | 1486350773.82483 | 3/1B5AD28                |           12913585448

 2017-02-06 04:12:54.995449+01 | 1486350774.99545 | 3/1B5AD28                |           12913585448

 2017-02-06 04:12:56.119131+01 | 1486350776.11913 | 3/1B5AD28                |           12913585448

 2017-02-06 04:12:57.268315+01 | 1486350777.26832 | 3/1B5AD28                |           12913585448

 2017-02-06 04:12:58.409044+01 | 1486350778.40904 | 3/1B5AD28                |           12913585448

 2017-02-06 04:12:59.524772+01 | 1486350779.52477 | 3/1B5AD28                |           12913585448

 2017-02-06 04:13:00.655347+01 | 1486350780.65535 | 3/1B5AD28                |           12913585448

 2017-02-06 04:13:01.802422+01 | 1486350781.80242 | 3/1B5AD28                |           12913585448

 2017-02-06 04:13:02.961072+01 | 1486350782.96107 | 3/1B5AD28                |           12913585448

 2017-02-06 04:13:04.125825+01 | 1486350784.12582 | 3/1B5AD28                |           12913585448

 2017-02-06 04:13:05.24326+01 | 1486350785.24326 | 3/1B5AD28                |           12913585448

 2017-02-06 04:13:06.37218+01 | 1486350786.37218 | 3/1B5AD28                |           12913585448

 2017-02-06 04:13:07.521228+01 | 1486350787.52123 | 3/1B5AD28                |           12913585448

 2017-02-06 04:13:08.698774+01 | 1486350788.69877 | 3/1B5AD28                |           12913585448

 2017-02-06 04:13:09.859629+01 | 1486350789.85963 | 3/1B5AD28                |           12913585448

 2017-02-06 04:13:11.009145+01 | 1486350791.00915 | 3/1B5AD28                |           12913585448

 2017-02-06 04:13:12.127196+01 | 1486350792.1272 | 3/1B5AD28                |           12913585448

 2017-02-06 04:13:13.277663+01 | 1486350793.27766 | 3/1B5AD28                |           12913585448

 2017-02-06 04:13:14.450324+01 | 1486350794.45032 | 3/1B5AD28                |           12913585448

 2017-02-06 04:13:15.583527+01 | 1486350795.58353 | 3/1B5AD28                |           12913585448

 2017-02-06 04:13:16.731687+01 | 1486350796.73169 | 3/1B5AD28                |           12913585448

 2017-02-06 04:13:17.904999+01 | 1486350797.905 | 3/1B5AD28                |           12913585448

 2017-02-06 04:13:19.060815+01 | 1486350799.06082 | 3/1B5AD28                |           12913585448

 2017-02-06 04:13:20.202216+01 | 1486350800.20222 | 3/1B5AD28                |           12913585448

 2017-02-06 04:13:21.353062+01 | 1486350801.35306 | 3/1B5AD28                |           12913585448

 2017-02-06 04:13:22.48513+01 | 1486350802.48513 | 3/1B5AD28                |           12913585448

 2017-02-06 04:13:23.624605+01 | 1486350803.6246 | 3/1B5AD28                |           12913585448

 2017-02-06 04:13:24.752833+01 | 1486350804.75283 | 3/1B5AD28                |           12913585448

 2017-02-06 04:13:25.894687+01 | 1486350805.89469 | 3/1B5AD28                |           12913585448

 2017-02-06 04:13:27.022109+01 | 1486350807.02211 | 3/1B5AD28                |           12913585448

 2017-02-06 04:13:28.147049+01 | 1486350808.14705 | 3/1B5AD28                |           12913585448

 2017-02-06 04:13:29.290182+01 | 1486350809.29018 | 3/1B5AD28                |           12913585448

 2017-02-06 04:13:30.434263+01 | 1486350810.43426 | 3/1B5AD28                |           12913585448

 2017-02-06 04:13:31.553521+01 | 1486350811.55352 | 3/1B5AD28                |           12913585448

 2017-02-06 04:13:32.679214+01 | 1486350812.67921 | 3/1B5AD28                |           12913585448

 2017-02-06 04:13:33.799915+01 | 1486350813.79992 | 3/1B5AD28                |           12913585448

 2017-02-06 04:13:34.951195+01 | 1486350814.9512 | 3/1B5AD28                |           12913585448

 2017-02-06 04:13:36.078875+01 | 1486350816.07888 | 3/1B5AD28                |           12913585448

 2017-02-06 04:13:37.234604+01 | 1486350817.2346 | 3/1B5AD28                |           12913585448

 2017-02-06 04:13:38.376004+01 | 1486350818.376 | 3/1B5AD28                |           12913585448

 2017-02-06 04:13:39.512589+01 | 1486350819.51259 | 3/1B5AD28                |           12913585448

 2017-02-06 04:13:40.659928+01 | 1486350820.65993 | 3/1B5AD28                |           12913585448

 2017-02-06 04:13:41.79854+01 | 1486350821.79854 | 3/1B5AD28                |           12913585448

 2017-02-06 04:13:42.928985+01 | 1486350822.92899 | 3/1B5AD28                |           12913585448

 2017-02-06 04:13:44.065522+01 | 1486350824.06552 | 3/1B5AD28                |           12913585448

 2017-02-06 04:13:45.178421+01 | 1486350825.17842 | 3/1B5AD28                |           12913585448

 2017-02-06 04:13:46.332287+01 | 1486350826.33229 | 3/1B5AD28                |           12913585448

 2017-02-06 04:13:47.45449+01 | 1486350827.45449 | 3/1B5AD28                |           12913585448

 2017-02-06 04:13:48.613299+01 | 1486350828.6133 | 3/1B5AD28                |           12913585448

 2017-02-06 04:13:49.755067+01 | 1486350829.75507 | 3/1B5AD28                |           12913585448

 2017-02-06 04:13:50.906649+01 | 1486350830.90665 | 3/1B5AD28                |           12913585448

 2017-02-06 04:13:52.049318+01 | 1486350832.04932 | 3/1B5AD28                |           12913585448

 2017-02-06 04:13:53.202506+01 | 1486350833.20251 | 3/1B5AD28                |           12913585448

 2017-02-06 04:13:54.351621+01 | 1486350834.35162 | 3/1B5AD28                |           12913585448

 2017-02-06 04:13:55.47552+01 | 1486350835.47552 | 3/1B5AD28                |           12913585448

 2017-02-06 04:13:56.623654+01 | 1486350836.62365 | 3/1B5AD28                |           12913585448

 2017-02-06 04:13:57.749351+01 | 1486350837.74935 | 3/1B5AD28                |           12913585448

 2017-02-06 04:13:58.881406+01 | 1486350838.88141 | 3/1B5AD28                |           12913585448

 2017-02-06 04:14:00.003691+01 | 1486350840.00369 | 3/1B5AD28                |           12913585448

 2017-02-06 04:14:01.157028+01 | 1486350841.15703 | 3/1B5AD28                |           12913585448

 2017-02-06 04:14:02.294292+01 | 1486350842.29429 | 3/1B5AD28                |           12913585448

 2017-02-06 04:14:03.443002+01 | 1486350843.443 | 3/1B5AD28                |           12913585448

 2017-02-06 04:14:04.579929+01 | 1486350844.57993 | 3/1B5AD28                |           12913585448

 2017-02-06 04:14:05.719642+01 | 1486350845.71964 | 3/1B5AD28                |           12913585448

 2017-02-06 04:14:06.864989+01 | 1486350846.86499 | 3/1B5AD28                |           12913585448

 2017-02-06 04:14:08.028701+01 | 1486350848.0287 | 3/1B5AD28                |           12913585448

 2017-02-06 04:14:09.146639+01 | 1486350849.14664 | 3/1B5AD28                |           12913585448

 2017-02-06 04:14:10.28803+01 | 1486350850.28803 | 3/1B5AD28                |           12913585448

 2017-02-06 04:14:11.466155+01 | 1486350851.46616 | 3/1B5AD28                |           12913585448

 2017-02-06 04:14:12.62437+01 | 1486350852.62437 | 3/1B5AD28                |           12913585448

 2017-02-06 04:14:13.735623+01 | 1486350853.73562 | 3/1B5AD28                |           12913585448

 2017-02-06 04:14:14.881045+01 | 1486350854.88105 | 3/1B5AD28                |           12913585448

 2017-02-06 04:14:16.007149+01 | 1486350856.00715 | 3/1B5AD28                |           12913585448

 2017-02-06 04:14:17.125069+01 | 1486350857.12507 | 3/1B5AD28                |           12913585448

 2017-02-06 04:14:18.256691+01 | 1486350858.25669 | 3/1B5AD28                |           12913585448

 2017-02-06 04:14:19.47215+01 | 1486350859.47215 | 3/1B5AD28                |           12913585448

 2017-02-06 04:14:20.637837+01 | 1486350860.63784 | 3/1B5AD28                |           12913585448

 2017-02-06 04:14:21.778389+01 | 1486350861.77839 | 3/1B5AD28                |           12913585448

 2017-02-06 04:14:22.919622+01 | 1486350862.91962 | 3/1B5AD28                |           12913585448

 2017-02-06 04:14:24.05028+01 | 1486350864.05028 | 3/1B5AD28                |           12913585448

 2017-02-06 04:14:25.206192+01 | 1486350865.20619 | 3/1B5AD28                |           12913585448

 2017-02-06 04:14:26.366819+01 | 1486350866.36682 | 3/1B5AD28                |           12913585448

 2017-02-06 04:14:27.544968+01 | 1486350867.54497 | 3/1B5AD28                |           12913585448

 2017-02-06 04:14:28.697321+01 | 1486350868.69732 | 3/1B5AD28                |           12913585448

 2017-02-06 04:14:29.845596+01 | 1486350869.8456 | 3/1B5AD28                |           12913585448

 2017-02-06 04:14:30.984837+01 | 1486350870.98484 | 3/1B5AD28                |           12913585448

 2017-02-06 04:14:32.124112+01 | 1486350872.12411 | 3/1B5AD28                |           12913585448

 2017-02-06 04:14:33.257319+01 | 1486350873.25732 | 3/1B5AD28                |           12913585448

 2017-02-06 04:14:34.396935+01 | 1486350874.39693 | 3/1B5AD28                |           12913585448

 2017-02-06 04:14:35.562648+01 | 1486350875.56265 | 3/1B5AD28                |           12913585448

 2017-02-06 04:14:36.702167+01 | 1486350876.70217 | 3/1B5AD28                |           12913585448

 2017-02-06 04:14:37.863501+01 | 1486350877.8635 | 3/1B5AD28                |           12913585448

 2017-02-06 04:14:39.004251+01 | 1486350879.00425 | 3/1B5AD28                |           12913585448

 2017-02-06 04:14:40.207678+01 | 1486350880.20768 | 3/1B5AD28                |           12913585448

 2017-02-06 04:14:41.34811+01 | 1486350881.34811 | 3/1B5AD28                |           12913585448

 2017-02-06 04:14:42.473357+01 | 1486350882.47336 | 3/1B5AD28                |           12913585448

 2017-02-06 04:14:43.626228+01 | 1486350883.62623 | 3/1B5AD28                |           12913585448

 2017-02-06 04:14:44.759669+01 | 1486350884.75967 | 3/1B5AD28                |           12913585448

 2017-02-06 04:14:45.864686+01 | 1486350885.86469 | 3/1B5AD28                |           12913585448

 2017-02-06 04:14:47.026314+01 | 1486350887.02631 | 3/1B5AD28                |           12913585448

 2017-02-06 04:14:48.17045+01 | 1486350888.17045 | 3/1B5AD28                |           12913585448

 2017-02-06 04:14:49.320214+01 | 1486350889.32021 | 3/1B5AD28                |           12913585448

 2017-02-06 04:14:50.429797+01 | 1486350890.4298 | 3/1B5AD28                |           12913585448

 2017-02-06 04:14:51.590172+01 | 1486350891.59017 | 3/1B5AD28                |           12913585448

 2017-02-06 04:14:52.70601+01 | 1486350892.70601 | 3/1B5AD28                |           12913585448

 2017-02-06 04:14:53.873751+01 | 1486350893.87375 | 3/1B5AD28                |           12913585448

 2017-02-06 04:14:54.999331+01 | 1486350894.99933 | 3/1B5AD28                |           12913585448

 2017-02-06 04:14:56.137147+01 | 1486350896.13715 | 3/1B5AD28                |           12913585448

 2017-02-06 04:14:57.264993+01 | 1486350897.26499 | 3/1B5AD28                |           12913585448

 2017-02-06 04:14:58.417653+01 | 1486350898.41765 | 3/1B5AD28                |           12913585448

 2017-02-06 04:14:59.577443+01 | 1486350899.57744 | 3/1B5AD28                |           12913585448

 2017-02-06 04:15:00.710013+01 | 1486350900.71001 | 3/1B5AD28                |           12913585448

 2017-02-06 04:15:01.851666+01 | 1486350901.85167 | 3/1B5AD28                |           12913585448

 2017-02-06 04:15:03.021511+01 | 1486350903.02151 | 3/1B5AD28                |           12913585448

 2017-02-06 04:15:04.169001+01 | 1486350904.169 | 3/1B5AD28                |           12913585448

 2017-02-06 04:15:05.291003+01 | 1486350905.291 | 3/1B5AD28                |           12913585448

 2017-02-06 04:15:06.446495+01 | 1486350906.4465 | 3/1B5AD28                |           12913585448

 2017-02-06 04:15:07.585721+01 | 1486350907.58572 | 3/1B5AD28                |           12913585448

 2017-02-06 04:15:08.720322+01 | 1486350908.72032 | 3/1B5AD28                |           12913585448

 2017-02-06 04:15:09.861392+01 | 1486350909.86139 | 3/1B5AD28                |           12913585448

 2017-02-06 04:15:11.014816+01 | 1486350911.01482 | 3/1B5AD28                |           12913585448

 2017-02-06 04:15:12.177152+01 | 1486350912.17715 | 3/1B5AD28                |           12913585448

 2017-02-06 04:15:13.355896+01 | 1486350913.3559 | 3/1B5AD28                |           12913585448

 2017-02-06 04:15:14.48966+01 | 1486350914.48966 | 3/1B5AD28                |           12913585448

 2017-02-06 04:15:15.640951+01 | 1486350915.64095 | 3/1B5AD28                |           12913585448

 2017-02-06 04:15:16.787023+01 | 1486350916.78702 | 3/1B5AD28                |           12913585448

 2017-02-06 04:15:17.925872+01 | 1486350917.92587 | 3/1B5AD28                |           12913585448

 2017-02-06 04:15:19.098963+01 | 1486350919.09896 | 3/1B5AD28                |           12913585448

 2017-02-06 04:15:20.208481+01 | 1486350920.20848 | 3/1B5AD28                |           12913585448

 2017-02-06 04:15:21.351764+01 | 1486350921.35176 | 3/1B5AD28                |           12913585448

 2017-02-06 04:15:22.482249+01 | 1486350922.48225 | 3/1B5AD28                |           12913585448

 2017-02-06 04:15:23.612446+01 | 1486350923.61245 | 3/1B5AD28                |           12913585448

 2017-02-06 04:15:24.753998+01 | 1486350924.754 | 3/1B5AD28                |           12913585448

 2017-02-06 04:15:25.886627+01 | 1486350925.88663 | 3/1B5AD28                |           12913585448

 2017-02-06 04:15:27.03429+01 | 1486350927.03429 | 3/1B5AD28                |           12913585448

 2017-02-06 04:15:28.174583+01 | 1486350928.17458 | 3/1B5AD28                |           12913585448

 2017-02-06 04:15:29.306742+01 | 1486350929.30674 | 3/1B5AD28                |           12913585448

 2017-02-06 04:15:30.446268+01 | 1486350930.44627 | 3/1B5AD28                |           12913585448

 2017-02-06 04:15:31.624991+01 | 1486350931.62499 | 3/1B5AD28                |           12913585448

 2017-02-06 04:15:32.796159+01 | 1486350932.79616 | 3/1B5AD28                |           12913585448

 2017-02-06 04:15:33.924408+01 | 1486350933.92441 | 3/1B5AD28                |           12913585448

 2017-02-06 04:15:35.073213+01 | 1486350935.07321 | 3/1B5AD28                |           12913585448

 2017-02-06 04:15:36.187813+01 | 1486350936.18781 | 3/1B5AD28                |           12913585448

 2017-02-06 04:15:37.315295+01 | 1486350937.31529 | 3/1B5AD28                |           12913585448

 2017-02-06 04:15:38.445858+01 | 1486350938.44586 | 3/1B5AD28                |           12913585448

 2017-02-06 04:15:39.599059+01 | 1486350939.59906 | 3/1B5AD28                |           12913585448

 2017-02-06 04:15:40.772091+01 | 1486350940.77209 | 3/1B5AD28                |           12913585448

 2017-02-06 04:15:41.946319+01 | 1486350941.94632 | 3/1B5AD28                |           12913585448

 2017-02-06 04:15:43.083564+01 | 1486350943.08356 | 3/1B5AD28                |           12913585448

 2017-02-06 04:15:44.21712+01 | 1486350944.21712 | 3/1B5AD28                |           12913585448

 2017-02-06 04:15:45.346328+01 | 1486350945.34633 | 3/1B5AD28                |           12913585448

 2017-02-06 04:15:46.477366+01 | 1486350946.47737 | 3/1B5AD28                |           12913585448

 2017-02-06 04:15:47.636786+01 | 1486350947.63679 | 3/1B5AD28                |           12913585448

 2017-02-06 04:15:48.762047+01 | 1486350948.76205 | 3/1B5AD28                |           12913585448

 2017-02-06 04:15:49.885001+01 | 1486350949.885 | 3/1B5AD28                |           12913585448

 2017-02-06 04:15:51.013118+01 | 1486350951.01312 | 3/1B5AD28                |           12913585448

 2017-02-06 04:15:52.132792+01 | 1486350952.13279 | 3/1B5AD28                |           12913585448

 2017-02-06 04:15:53.315251+01 | 1486350953.31525 | 3/1B5AD28                |           12913585448

 2017-02-06 04:15:54.460031+01 | 1486350954.46003 | 3/1B5AD28                |           12913585448

 2017-02-06 04:15:55.623865+01 | 1486350955.62386 | 3/1B5AD28                |           12913585448

 2017-02-06 04:15:56.784918+01 | 1486350956.78492 | 3/1B5AD28                |           12913585448

 2017-02-06 04:15:57.906022+01 | 1486350957.90602 | 3/1B5AD28                |           12913585448

 2017-02-06 04:15:59.036418+01 | 1486350959.03642 | 3/1B5AD28                |           12913585448

 2017-02-06 04:16:00.194717+01 | 1486350960.19472 | 3/1B5AD28                |           12913585448

 2017-02-06 04:16:01.330482+01 | 1486350961.33048 | 3/1B5AD28                |           12913585448

 2017-02-06 04:16:02.460338+01 | 1486350962.46034 | 3/1B5AD28                |           12913585448

 2017-02-06 04:16:03.588897+01 | 1486350963.5889 | 3/1B5AD28                |           12913585448

 2017-02-06 04:16:04.730682+01 | 1486350964.73068 | 3/1B5AD28                |           12913585448

 2017-02-06 04:16:05.867154+01 | 1486350965.86715 | 3/1B5AD28                |           12913585448

 2017-02-06 04:16:07.042938+01 | 1486350967.04294 | 3/1B5AD28                |           12913585448

 2017-02-06 04:16:08.16668+01 | 1486350968.16668 | 3/1B5AD28                |           12913585448

 2017-02-06 04:16:09.3016+01 | 1486350969.3016 | 3/1B5AD28                |           12913585448

 2017-02-06 04:16:10.443155+01 | 1486350970.44316 | 3/1B5AD28                |           12913585448

 2017-02-06 04:16:11.556393+01 | 1486350971.55639 | 3/1B5AD28                |           12913585448

 2017-02-06 04:16:12.697621+01 | 1486350972.69762 | 3/1B5AD28                |           12913585448

 2017-02-06 04:16:13.85454+01 | 1486350973.85454 | 3/1B5AD28                |           12913585448

 2017-02-06 04:16:14.994702+01 | 1486350974.9947 | 3/1B5AD28                |           12913585448

 2017-02-06 04:16:16.121018+01 | 1486350976.12102 | 3/1B5AD28                |           12913585448

 2017-02-06 04:16:17.266888+01 | 1486350977.26689 | 3/1B5AD28                |           12913585448

 2017-02-06 04:16:18.402528+01 | 1486350978.40253 | 3/1B5AD28                |           12913585448

