 2017-02-05 17:40:04.200831+01 | 1486312804.20083 | pgbench_accounts |       1391050752
 2017-02-05 17:40:04.200831+01 | 1486312804.20083 | pgbench_tellers  |            49152
 2017-02-05 17:40:04.200831+01 | 1486312804.20083 | pgbench_history  |                0
 2017-02-05 17:40:04.200831+01 | 1486312804.20083 | pgbench_branches |             8192

 2017-02-05 17:40:05.28367+01 | 1486312805.28367 | pgbench_accounts |       1391050752
 2017-02-05 17:40:05.28367+01 | 1486312805.28367 | pgbench_tellers  |            49152
 2017-02-05 17:40:05.28367+01 | 1486312805.28367 | pgbench_history  |          1196032
 2017-02-05 17:40:05.28367+01 | 1486312805.28367 | pgbench_branches |             8192

 2017-02-05 17:40:06.369883+01 | 1486312806.36988 | pgbench_accounts |       1391050752
 2017-02-05 17:40:06.369883+01 | 1486312806.36988 | pgbench_tellers  |            49152
 2017-02-05 17:40:06.369883+01 | 1486312806.36988 | pgbench_history  |          2891776
 2017-02-05 17:40:06.369883+01 | 1486312806.36988 | pgbench_branches |             8192

 2017-02-05 17:40:07.449166+01 | 1486312807.44917 | pgbench_accounts |       1391050752
 2017-02-05 17:40:07.449166+01 | 1486312807.44917 | pgbench_tellers  |            49152
 2017-02-05 17:40:07.449166+01 | 1486312807.44917 | pgbench_history  |          3948544
 2017-02-05 17:40:07.449166+01 | 1486312807.44917 | pgbench_branches |             8192

 2017-02-05 17:40:08.520159+01 | 1486312808.52016 | pgbench_accounts |       1391050752
 2017-02-05 17:40:08.520159+01 | 1486312808.52016 | pgbench_tellers  |            49152
 2017-02-05 17:40:08.520159+01 | 1486312808.52016 | pgbench_history  |          4816896
 2017-02-05 17:40:08.520159+01 | 1486312808.52016 | pgbench_branches |             8192

 2017-02-05 17:40:09.607816+01 | 1486312809.60782 | pgbench_accounts |       1391050752
 2017-02-05 17:40:09.607816+01 | 1486312809.60782 | pgbench_tellers  |            49152
 2017-02-05 17:40:09.607816+01 | 1486312809.60782 | pgbench_history  |          6225920
 2017-02-05 17:40:09.607816+01 | 1486312809.60782 | pgbench_branches |             8192

 2017-02-05 17:40:10.691576+01 | 1486312810.69158 | pgbench_accounts |       1391050752
 2017-02-05 17:40:10.691576+01 | 1486312810.69158 | pgbench_tellers  |            49152
 2017-02-05 17:40:10.691576+01 | 1486312810.69158 | pgbench_history  |          7118848
 2017-02-05 17:40:10.691576+01 | 1486312810.69158 | pgbench_branches |             8192

 2017-02-05 17:40:11.758551+01 | 1486312811.75855 | pgbench_accounts |       1391050752
 2017-02-05 17:40:11.758551+01 | 1486312811.75855 | pgbench_tellers  |            49152
 2017-02-05 17:40:11.758551+01 | 1486312811.75855 | pgbench_history  |          8339456
 2017-02-05 17:40:11.758551+01 | 1486312811.75855 | pgbench_branches |             8192

 2017-02-05 17:40:12.844248+01 | 1486312812.84425 | pgbench_accounts |       1391050752
 2017-02-05 17:40:12.844248+01 | 1486312812.84425 | pgbench_tellers  |            49152
 2017-02-05 17:40:12.844248+01 | 1486312812.84425 | pgbench_history  |          9592832
 2017-02-05 17:40:12.844248+01 | 1486312812.84425 | pgbench_branches |             8192

 2017-02-05 17:40:13.917927+01 | 1486312813.91793 | pgbench_accounts |       1391050752
 2017-02-05 17:40:13.917927+01 | 1486312813.91793 | pgbench_tellers  |            49152
 2017-02-05 17:40:13.917927+01 | 1486312813.91793 | pgbench_history  |         10674176
 2017-02-05 17:40:13.917927+01 | 1486312813.91793 | pgbench_branches |             8192

 2017-02-05 17:40:14.997786+01 | 1486312814.99779 | pgbench_accounts |       1391050752
 2017-02-05 17:40:14.997786+01 | 1486312814.99779 | pgbench_tellers  |            49152
 2017-02-05 17:40:14.997786+01 | 1486312814.99779 | pgbench_history  |         11829248
 2017-02-05 17:40:14.997786+01 | 1486312814.99779 | pgbench_branches |             8192

 2017-02-05 17:40:16.081245+01 | 1486312816.08124 | pgbench_accounts |       1391050752
 2017-02-05 17:40:16.081245+01 | 1486312816.08124 | pgbench_tellers  |            49152
 2017-02-05 17:40:16.081245+01 | 1486312816.08124 | pgbench_history  |         13189120
 2017-02-05 17:40:16.081245+01 | 1486312816.08124 | pgbench_branches |             8192

 2017-02-05 17:40:17.167962+01 | 1486312817.16796 | pgbench_accounts |       1391050752
 2017-02-05 17:40:17.167962+01 | 1486312817.16796 | pgbench_tellers  |            49152
 2017-02-05 17:40:17.167962+01 | 1486312817.16796 | pgbench_history  |         14229504
 2017-02-05 17:40:17.167962+01 | 1486312817.16796 | pgbench_branches |             8192

 2017-02-05 17:40:18.257062+01 | 1486312818.25706 | pgbench_accounts |       1391050752
 2017-02-05 17:40:18.257062+01 | 1486312818.25706 | pgbench_tellers  |            49152
 2017-02-05 17:40:18.257062+01 | 1486312818.25706 | pgbench_history  |         15294464
 2017-02-05 17:40:18.257062+01 | 1486312818.25706 | pgbench_branches |             8192

 2017-02-05 17:40:19.348416+01 | 1486312819.34842 | pgbench_accounts |       1391050752
 2017-02-05 17:40:19.348416+01 | 1486312819.34842 | pgbench_tellers  |            49152
 2017-02-05 17:40:19.348416+01 | 1486312819.34842 | pgbench_history  |         16556032
 2017-02-05 17:40:19.348416+01 | 1486312819.34842 | pgbench_branches |             8192

 2017-02-05 17:40:20.432396+01 | 1486312820.4324 | pgbench_accounts |       1391050752
 2017-02-05 17:40:20.432396+01 | 1486312820.4324 | pgbench_tellers  |            49152
 2017-02-05 17:40:20.432396+01 | 1486312820.4324 | pgbench_history  |         17424384
 2017-02-05 17:40:20.432396+01 | 1486312820.4324 | pgbench_branches |             8192

 2017-02-05 17:40:21.516278+01 | 1486312821.51628 | pgbench_accounts |       1391050752
 2017-02-05 17:40:21.516278+01 | 1486312821.51628 | pgbench_tellers  |            49152
 2017-02-05 17:40:21.516278+01 | 1486312821.51628 | pgbench_history  |         18456576
 2017-02-05 17:40:21.516278+01 | 1486312821.51628 | pgbench_branches |             8192

 2017-02-05 17:40:22.602745+01 | 1486312822.60275 | pgbench_accounts |       1391050752
 2017-02-05 17:40:22.602745+01 | 1486312822.60275 | pgbench_tellers  |            49152
 2017-02-05 17:40:22.602745+01 | 1486312822.60275 | pgbench_history  |         19693568
 2017-02-05 17:40:22.602745+01 | 1486312822.60275 | pgbench_branches |             8192

 2017-02-05 17:40:23.694216+01 | 1486312823.69422 | pgbench_accounts |       1391050752
 2017-02-05 17:40:23.694216+01 | 1486312823.69422 | pgbench_tellers  |            49152
 2017-02-05 17:40:23.694216+01 | 1486312823.69422 | pgbench_history  |         20914176
 2017-02-05 17:40:23.694216+01 | 1486312823.69422 | pgbench_branches |             8192

 2017-02-05 17:40:24.777416+01 | 1486312824.77742 | pgbench_accounts |       1391050752
 2017-02-05 17:40:24.777416+01 | 1486312824.77742 | pgbench_tellers  |            49152
 2017-02-05 17:40:24.777416+01 | 1486312824.77742 | pgbench_history  |         21921792
 2017-02-05 17:40:24.777416+01 | 1486312824.77742 | pgbench_branches |             8192

 2017-02-05 17:40:25.862748+01 | 1486312825.86275 | pgbench_accounts |       1391050752
 2017-02-05 17:40:25.862748+01 | 1486312825.86275 | pgbench_tellers  |            49152
 2017-02-05 17:40:25.862748+01 | 1486312825.86275 | pgbench_history  |         23527424
 2017-02-05 17:40:25.862748+01 | 1486312825.86275 | pgbench_branches |             8192

 2017-02-05 17:40:26.942519+01 | 1486312826.94252 | pgbench_accounts |       1391050752
 2017-02-05 17:40:26.942519+01 | 1486312826.94252 | pgbench_tellers  |            49152
 2017-02-05 17:40:26.942519+01 | 1486312826.94252 | pgbench_history  |         24420352
 2017-02-05 17:40:26.942519+01 | 1486312826.94252 | pgbench_branches |             8192

 2017-02-05 17:40:28.018851+01 | 1486312828.01885 | pgbench_accounts |       1391050752
 2017-02-05 17:40:28.018851+01 | 1486312828.01885 | pgbench_tellers  |            49152
 2017-02-05 17:40:28.018851+01 | 1486312828.01885 | pgbench_history  |         25657344
 2017-02-05 17:40:28.018851+01 | 1486312828.01885 | pgbench_branches |             8192

 2017-02-05 17:40:29.10758+01 | 1486312829.10758 | pgbench_accounts |       1391050752
 2017-02-05 17:40:29.10758+01 | 1486312829.10758 | pgbench_tellers  |            49152
 2017-02-05 17:40:29.10758+01 | 1486312829.10758 | pgbench_history  |         26394624
 2017-02-05 17:40:29.10758+01 | 1486312829.10758 | pgbench_branches |             8192

 2017-02-05 17:40:30.197733+01 | 1486312830.19773 | pgbench_accounts |       1391050752
 2017-02-05 17:40:30.197733+01 | 1486312830.19773 | pgbench_tellers  |            49152
 2017-02-05 17:40:30.197733+01 | 1486312830.19773 | pgbench_history  |         28106752
 2017-02-05 17:40:30.197733+01 | 1486312830.19773 | pgbench_branches |             8192

 2017-02-05 17:40:31.287018+01 | 1486312831.28702 | pgbench_accounts |       1391050752
 2017-02-05 17:40:31.287018+01 | 1486312831.28702 | pgbench_tellers  |            49152
 2017-02-05 17:40:31.287018+01 | 1486312831.28702 | pgbench_history  |         28786688
 2017-02-05 17:40:31.287018+01 | 1486312831.28702 | pgbench_branches |             8192

 2017-02-05 17:40:32.374794+01 | 1486312832.37479 | pgbench_accounts |       1391050752
 2017-02-05 17:40:32.374794+01 | 1486312832.37479 | pgbench_tellers  |            49152
 2017-02-05 17:40:32.374794+01 | 1486312832.37479 | pgbench_history  |         30343168
 2017-02-05 17:40:32.374794+01 | 1486312832.37479 | pgbench_branches |             8192

 2017-02-05 17:40:33.461271+01 | 1486312833.46127 | pgbench_accounts |       1391050752
 2017-02-05 17:40:33.461271+01 | 1486312833.46127 | pgbench_tellers  |            49152
 2017-02-05 17:40:33.461271+01 | 1486312833.46127 | pgbench_history  |         31195136
 2017-02-05 17:40:33.461271+01 | 1486312833.46127 | pgbench_branches |             8192

 2017-02-05 17:40:34.553331+01 | 1486312834.55333 | pgbench_accounts |       1391050752
 2017-02-05 17:40:34.553331+01 | 1486312834.55333 | pgbench_tellers  |            49152
 2017-02-05 17:40:34.553331+01 | 1486312834.55333 | pgbench_history  |         32071680
 2017-02-05 17:40:34.553331+01 | 1486312834.55333 | pgbench_branches |             8192

 2017-02-05 17:40:35.628833+01 | 1486312835.62883 | pgbench_accounts |       1391050752
 2017-02-05 17:40:35.628833+01 | 1486312835.62883 | pgbench_tellers  |            49152
 2017-02-05 17:40:35.628833+01 | 1486312835.62883 | pgbench_history  |         33079296
 2017-02-05 17:40:35.628833+01 | 1486312835.62883 | pgbench_branches |             8192

 2017-02-05 17:40:36.71469+01 | 1486312836.71469 | pgbench_accounts |       1391050752
 2017-02-05 17:40:36.71469+01 | 1486312836.71469 | pgbench_tellers  |            49152
 2017-02-05 17:40:36.71469+01 | 1486312836.71469 | pgbench_history  |         34095104
 2017-02-05 17:40:36.71469+01 | 1486312836.71469 | pgbench_branches |             8192

 2017-02-05 17:40:37.801241+01 | 1486312837.80124 | pgbench_accounts |       1391050752
 2017-02-05 17:40:37.801241+01 | 1486312837.80124 | pgbench_tellers  |            49152
 2017-02-05 17:40:37.801241+01 | 1486312837.80124 | pgbench_history  |         35643392
 2017-02-05 17:40:37.801241+01 | 1486312837.80124 | pgbench_branches |             8192

 2017-02-05 17:40:38.887775+01 | 1486312838.88777 | pgbench_accounts |       1391050752
 2017-02-05 17:40:38.887775+01 | 1486312838.88777 | pgbench_tellers  |            49152
 2017-02-05 17:40:38.887775+01 | 1486312838.88777 | pgbench_history  |         36528128
 2017-02-05 17:40:38.887775+01 | 1486312838.88777 | pgbench_branches |             8192

 2017-02-05 17:40:39.964703+01 | 1486312839.9647 | pgbench_accounts |       1391050752
 2017-02-05 17:40:39.964703+01 | 1486312839.9647 | pgbench_tellers  |            49152
 2017-02-05 17:40:39.964703+01 | 1486312839.9647 | pgbench_history  |         37724160
 2017-02-05 17:40:39.964703+01 | 1486312839.9647 | pgbench_branches |             8192

 2017-02-05 17:40:41.041585+01 | 1486312841.04158 | pgbench_accounts |       1391050752
 2017-02-05 17:40:41.041585+01 | 1486312841.04158 | pgbench_tellers  |            49152
 2017-02-05 17:40:41.041585+01 | 1486312841.04158 | pgbench_history  |         38617088
 2017-02-05 17:40:41.041585+01 | 1486312841.04158 | pgbench_branches |             8192

 2017-02-05 17:40:42.123194+01 | 1486312842.12319 | pgbench_accounts |       1391050752
 2017-02-05 17:40:42.123194+01 | 1486312842.12319 | pgbench_tellers  |            49152
 2017-02-05 17:40:42.123194+01 | 1486312842.12319 | pgbench_history  |         40132608
 2017-02-05 17:40:42.123194+01 | 1486312842.12319 | pgbench_branches |             8192

 2017-02-05 17:40:43.210096+01 | 1486312843.2101 | pgbench_accounts |       1391050752
 2017-02-05 17:40:43.210096+01 | 1486312843.2101 | pgbench_tellers  |            49152
 2017-02-05 17:40:43.210096+01 | 1486312843.2101 | pgbench_history  |         41197568
 2017-02-05 17:40:43.210096+01 | 1486312843.2101 | pgbench_branches |             8192

 2017-02-05 17:40:44.29656+01 | 1486312844.29656 | pgbench_accounts |       1391050752
 2017-02-05 17:40:44.29656+01 | 1486312844.29656 | pgbench_tellers  |            49152
 2017-02-05 17:40:44.29656+01 | 1486312844.29656 | pgbench_history  |         42082304
 2017-02-05 17:40:44.29656+01 | 1486312844.29656 | pgbench_branches |             8192

 2017-02-05 17:40:45.365305+01 | 1486312845.3653 | pgbench_accounts |       1391050752
 2017-02-05 17:40:45.365305+01 | 1486312845.3653 | pgbench_tellers  |            49152
 2017-02-05 17:40:45.365305+01 | 1486312845.3653 | pgbench_history  |         43499520
 2017-02-05 17:40:45.365305+01 | 1486312845.3653 | pgbench_branches |             8192

 2017-02-05 17:40:46.435156+01 | 1486312846.43516 | pgbench_accounts |       1391050752
 2017-02-05 17:40:46.435156+01 | 1486312846.43516 | pgbench_tellers  |            49152
 2017-02-05 17:40:46.435156+01 | 1486312846.43516 | pgbench_history  |         44351488
 2017-02-05 17:40:46.435156+01 | 1486312846.43516 | pgbench_branches |             8192

 2017-02-05 17:40:47.518306+01 | 1486312847.51831 | pgbench_accounts |       1391050752
 2017-02-05 17:40:47.518306+01 | 1486312847.51831 | pgbench_tellers  |            49152
 2017-02-05 17:40:47.518306+01 | 1486312847.51831 | pgbench_history  |         45383680
 2017-02-05 17:40:47.518306+01 | 1486312847.51831 | pgbench_branches |             8192

 2017-02-05 17:40:48.608296+01 | 1486312848.6083 | pgbench_accounts |       1391050752
 2017-02-05 17:40:48.608296+01 | 1486312848.6083 | pgbench_tellers  |            49152
 2017-02-05 17:40:48.608296+01 | 1486312848.6083 | pgbench_history  |         46587904
 2017-02-05 17:40:48.608296+01 | 1486312848.6083 | pgbench_branches |             8192

 2017-02-05 17:40:49.703959+01 | 1486312849.70396 | pgbench_accounts |       1391050752
 2017-02-05 17:40:49.703959+01 | 1486312849.70396 | pgbench_tellers  |            49152
 2017-02-05 17:40:49.703959+01 | 1486312849.70396 | pgbench_history  |         47644672
 2017-02-05 17:40:49.703959+01 | 1486312849.70396 | pgbench_branches |             8192

 2017-02-05 17:40:50.788403+01 | 1486312850.7884 | pgbench_accounts |       1391050752
 2017-02-05 17:40:50.788403+01 | 1486312850.7884 | pgbench_tellers  |            49152
 2017-02-05 17:40:50.788403+01 | 1486312850.7884 | pgbench_history  |         48742400
 2017-02-05 17:40:50.788403+01 | 1486312850.7884 | pgbench_branches |             8192

 2017-02-05 17:40:51.869335+01 | 1486312851.86933 | pgbench_accounts |       1391050752
 2017-02-05 17:40:51.869335+01 | 1486312851.86933 | pgbench_tellers  |            49152
 2017-02-05 17:40:51.869335+01 | 1486312851.86933 | pgbench_history  |         50315264
 2017-02-05 17:40:51.869335+01 | 1486312851.86933 | pgbench_branches |             8192

 2017-02-05 17:40:52.958354+01 | 1486312852.95835 | pgbench_accounts |       1391050752
 2017-02-05 17:40:52.958354+01 | 1486312852.95835 | pgbench_tellers  |            49152
 2017-02-05 17:40:52.958354+01 | 1486312852.95835 | pgbench_history  |         51200000
 2017-02-05 17:40:52.958354+01 | 1486312852.95835 | pgbench_branches |             8192

 2017-02-05 17:40:54.048421+01 | 1486312854.04842 | pgbench_accounts |       1391050752
 2017-02-05 17:40:54.048421+01 | 1486312854.04842 | pgbench_tellers  |            49152
 2017-02-05 17:40:54.048421+01 | 1486312854.04842 | pgbench_history  |         52412416
 2017-02-05 17:40:54.048421+01 | 1486312854.04842 | pgbench_branches |             8192

 2017-02-05 17:40:55.129548+01 | 1486312855.12955 | pgbench_accounts |       1391050752
 2017-02-05 17:40:55.129548+01 | 1486312855.12955 | pgbench_tellers  |            49152
 2017-02-05 17:40:55.129548+01 | 1486312855.12955 | pgbench_history  |         53510144
 2017-02-05 17:40:55.129548+01 | 1486312855.12955 | pgbench_branches |             8192

 2017-02-05 17:40:56.208998+01 | 1486312856.209 | pgbench_accounts |       1391050752
 2017-02-05 17:40:56.208998+01 | 1486312856.209 | pgbench_tellers  |            49152
 2017-02-05 17:40:56.208998+01 | 1486312856.209 | pgbench_history  |         54403072
 2017-02-05 17:40:56.208998+01 | 1486312856.209 | pgbench_branches |             8192

 2017-02-05 17:40:57.293599+01 | 1486312857.2936 | pgbench_accounts |       1391050752
 2017-02-05 17:40:57.293599+01 | 1486312857.2936 | pgbench_tellers  |            49152
 2017-02-05 17:40:57.293599+01 | 1486312857.2936 | pgbench_history  |         55492608
 2017-02-05 17:40:57.293599+01 | 1486312857.2936 | pgbench_branches |             8192

 2017-02-05 17:40:58.375206+01 | 1486312858.37521 | pgbench_accounts |       1391050752
 2017-02-05 17:40:58.375206+01 | 1486312858.37521 | pgbench_tellers  |            49152
 2017-02-05 17:40:58.375206+01 | 1486312858.37521 | pgbench_history  |         56598528
 2017-02-05 17:40:58.375206+01 | 1486312858.37521 | pgbench_branches |             8192

 2017-02-05 17:40:59.460486+01 | 1486312859.46049 | pgbench_accounts |       1391050752
 2017-02-05 17:40:59.460486+01 | 1486312859.46049 | pgbench_tellers  |            49152
 2017-02-05 17:40:59.460486+01 | 1486312859.46049 | pgbench_history  |         57835520
 2017-02-05 17:40:59.460486+01 | 1486312859.46049 | pgbench_branches |             8192

 2017-02-05 17:41:00.550017+01 | 1486312860.55002 | pgbench_accounts |       1391050752
 2017-02-05 17:41:00.550017+01 | 1486312860.55002 | pgbench_tellers  |            49152
 2017-02-05 17:41:00.550017+01 | 1486312860.55002 | pgbench_history  |         58892288
 2017-02-05 17:41:00.550017+01 | 1486312860.55002 | pgbench_branches |             8192

 2017-02-05 17:41:01.620685+01 | 1486312861.62069 | pgbench_accounts |       1391050752
 2017-02-05 17:41:01.620685+01 | 1486312861.62069 | pgbench_tellers  |            49152
 2017-02-05 17:41:01.620685+01 | 1486312861.62069 | pgbench_history  |         59924480
 2017-02-05 17:41:01.620685+01 | 1486312861.62069 | pgbench_branches |             8192

 2017-02-05 17:41:02.70534+01 | 1486312862.70534 | pgbench_accounts |       1391050752
 2017-02-05 17:41:02.70534+01 | 1486312862.70534 | pgbench_tellers  |            49152
 2017-02-05 17:41:02.70534+01 | 1486312862.70534 | pgbench_history  |         60973056
 2017-02-05 17:41:02.70534+01 | 1486312862.70534 | pgbench_branches |             8192

 2017-02-05 17:41:03.786354+01 | 1486312863.78635 | pgbench_accounts |       1391050752
 2017-02-05 17:41:03.786354+01 | 1486312863.78635 | pgbench_tellers  |            49152
 2017-02-05 17:41:03.786354+01 | 1486312863.78635 | pgbench_history  |         62218240
 2017-02-05 17:41:03.786354+01 | 1486312863.78635 | pgbench_branches |             8192

 2017-02-05 17:41:04.872409+01 | 1486312864.87241 | pgbench_accounts |       1391050752
 2017-02-05 17:41:04.872409+01 | 1486312864.87241 | pgbench_tellers  |            49152
 2017-02-05 17:41:04.872409+01 | 1486312864.87241 | pgbench_history  |         63111168
 2017-02-05 17:41:04.872409+01 | 1486312864.87241 | pgbench_branches |             8192

 2017-02-05 17:41:05.961407+01 | 1486312865.96141 | pgbench_accounts |       1391050752
 2017-02-05 17:41:05.961407+01 | 1486312865.96141 | pgbench_tellers  |            49152
 2017-02-05 17:41:05.961407+01 | 1486312865.96141 | pgbench_history  |         64167936
 2017-02-05 17:41:05.961407+01 | 1486312865.96141 | pgbench_branches |             8192

 2017-02-05 17:41:07.048468+01 | 1486312867.04847 | pgbench_accounts |       1391050752
 2017-02-05 17:41:07.048468+01 | 1486312867.04847 | pgbench_tellers  |            49152
 2017-02-05 17:41:07.048468+01 | 1486312867.04847 | pgbench_history  |         65200128
 2017-02-05 17:41:07.048468+01 | 1486312867.04847 | pgbench_branches |             8192

 2017-02-05 17:41:08.127152+01 | 1486312868.12715 | pgbench_accounts |       1391050752
 2017-02-05 17:41:08.127152+01 | 1486312868.12715 | pgbench_tellers  |            49152
 2017-02-05 17:41:08.127152+01 | 1486312868.12715 | pgbench_history  |         66576384
 2017-02-05 17:41:08.127152+01 | 1486312868.12715 | pgbench_branches |             8192

 2017-02-05 17:41:09.206702+01 | 1486312869.2067 | pgbench_accounts |       1391050752
 2017-02-05 17:41:09.206702+01 | 1486312869.2067 | pgbench_tellers  |            49152
 2017-02-05 17:41:09.206702+01 | 1486312869.2067 | pgbench_history  |         67796992
 2017-02-05 17:41:09.206702+01 | 1486312869.2067 | pgbench_branches |             8192

 2017-02-05 17:41:10.296793+01 | 1486312870.29679 | pgbench_accounts |       1391050752
 2017-02-05 17:41:10.296793+01 | 1486312870.29679 | pgbench_tellers  |            49152
 2017-02-05 17:41:10.296793+01 | 1486312870.29679 | pgbench_history  |         68534272
 2017-02-05 17:41:10.296793+01 | 1486312870.29679 | pgbench_branches |             8192

 2017-02-05 17:41:11.375685+01 | 1486312871.37568 | pgbench_accounts |       1391050752
 2017-02-05 17:41:11.375685+01 | 1486312871.37568 | pgbench_tellers  |            49152
 2017-02-05 17:41:11.375685+01 | 1486312871.37568 | pgbench_history  |         69746688
 2017-02-05 17:41:11.375685+01 | 1486312871.37568 | pgbench_branches |             8192

 2017-02-05 17:41:12.465025+01 | 1486312872.46502 | pgbench_accounts |       1391050752
 2017-02-05 17:41:12.465025+01 | 1486312872.46502 | pgbench_tellers  |            49152
 2017-02-05 17:41:12.465025+01 | 1486312872.46502 | pgbench_history  |         70836224
 2017-02-05 17:41:12.465025+01 | 1486312872.46502 | pgbench_branches |             8192

 2017-02-05 17:41:13.545004+01 | 1486312873.545 | pgbench_accounts |       1391050752
 2017-02-05 17:41:13.545004+01 | 1486312873.545 | pgbench_tellers  |            49152
 2017-02-05 17:41:13.545004+01 | 1486312873.545 | pgbench_history  |         71680000
 2017-02-05 17:41:13.545004+01 | 1486312873.545 | pgbench_branches |             8192

 2017-02-05 17:41:14.636563+01 | 1486312874.63656 | pgbench_accounts |       1391050752
 2017-02-05 17:41:14.636563+01 | 1486312874.63656 | pgbench_tellers  |            49152
 2017-02-05 17:41:14.636563+01 | 1486312874.63656 | pgbench_history  |         73080832
 2017-02-05 17:41:14.636563+01 | 1486312874.63656 | pgbench_branches |             8192

 2017-02-05 17:41:15.724318+01 | 1486312875.72432 | pgbench_accounts |       1391050752
 2017-02-05 17:41:15.724318+01 | 1486312875.72432 | pgbench_tellers  |            49152
 2017-02-05 17:41:15.724318+01 | 1486312875.72432 | pgbench_history  |         74162176
 2017-02-05 17:41:15.724318+01 | 1486312875.72432 | pgbench_branches |             8192

 2017-02-05 17:41:16.80189+01 | 1486312876.80189 | pgbench_accounts |       1391050752
 2017-02-05 17:41:16.80189+01 | 1486312876.80189 | pgbench_tellers  |            49152
 2017-02-05 17:41:16.80189+01 | 1486312876.80189 | pgbench_history  |         75710464
 2017-02-05 17:41:16.80189+01 | 1486312876.80189 | pgbench_branches |             8192

 2017-02-05 17:41:17.896286+01 | 1486312877.89629 | pgbench_accounts |       1391050752
 2017-02-05 17:41:17.896286+01 | 1486312877.89629 | pgbench_tellers  |            49152
 2017-02-05 17:41:17.896286+01 | 1486312877.89629 | pgbench_history  |         76226560
 2017-02-05 17:41:17.896286+01 | 1486312877.89629 | pgbench_branches |             8192

 2017-02-05 17:41:18.981652+01 | 1486312878.98165 | pgbench_accounts |       1391050752
 2017-02-05 17:41:18.981652+01 | 1486312878.98165 | pgbench_tellers  |            49152
 2017-02-05 17:41:18.981652+01 | 1486312878.98165 | pgbench_history  |         77488128
 2017-02-05 17:41:18.981652+01 | 1486312878.98165 | pgbench_branches |             8192

 2017-02-05 17:41:20.063522+01 | 1486312880.06352 | pgbench_accounts |       1391050752
 2017-02-05 17:41:20.063522+01 | 1486312880.06352 | pgbench_tellers  |            49152
 2017-02-05 17:41:20.063522+01 | 1486312880.06352 | pgbench_history  |         78520320
 2017-02-05 17:41:20.063522+01 | 1486312880.06352 | pgbench_branches |             8192

 2017-02-05 17:41:21.140261+01 | 1486312881.14026 | pgbench_accounts |       1391050752
 2017-02-05 17:41:21.140261+01 | 1486312881.14026 | pgbench_tellers  |            49152
 2017-02-05 17:41:21.140261+01 | 1486312881.14026 | pgbench_history  |         79585280
 2017-02-05 17:41:21.140261+01 | 1486312881.14026 | pgbench_branches |             8192

 2017-02-05 17:41:22.215762+01 | 1486312882.21576 | pgbench_accounts |       1391050752
 2017-02-05 17:41:22.215762+01 | 1486312882.21576 | pgbench_tellers  |            49152
 2017-02-05 17:41:22.215762+01 | 1486312882.21576 | pgbench_history  |         80453632
 2017-02-05 17:41:22.215762+01 | 1486312882.21576 | pgbench_branches |             8192

 2017-02-05 17:41:23.294156+01 | 1486312883.29416 | pgbench_accounts |       1391050752
 2017-02-05 17:41:23.294156+01 | 1486312883.29416 | pgbench_tellers  |            49152
 2017-02-05 17:41:23.294156+01 | 1486312883.29416 | pgbench_history  |         81813504
 2017-02-05 17:41:23.294156+01 | 1486312883.29416 | pgbench_branches |             8192

 2017-02-05 17:41:24.375513+01 | 1486312884.37551 | pgbench_accounts |       1391050752
 2017-02-05 17:41:24.375513+01 | 1486312884.37551 | pgbench_tellers  |            49152
 2017-02-05 17:41:24.375513+01 | 1486312884.37551 | pgbench_history  |         83017728
 2017-02-05 17:41:24.375513+01 | 1486312884.37551 | pgbench_branches |             8192

 2017-02-05 17:41:25.457988+01 | 1486312885.45799 | pgbench_accounts |       1391050752
 2017-02-05 17:41:25.457988+01 | 1486312885.45799 | pgbench_tellers  |            49152
 2017-02-05 17:41:25.457988+01 | 1486312885.45799 | pgbench_history  |         84418560
 2017-02-05 17:41:25.457988+01 | 1486312885.45799 | pgbench_branches |             8192

 2017-02-05 17:41:26.539473+01 | 1486312886.53947 | pgbench_accounts |       1391050752
 2017-02-05 17:41:26.539473+01 | 1486312886.53947 | pgbench_tellers  |            49152
 2017-02-05 17:41:26.539473+01 | 1486312886.53947 | pgbench_history  |         85483520
 2017-02-05 17:41:26.539473+01 | 1486312886.53947 | pgbench_branches |             8192

 2017-02-05 17:41:27.618086+01 | 1486312887.61809 | pgbench_accounts |       1391050752
 2017-02-05 17:41:27.618086+01 | 1486312887.61809 | pgbench_tellers  |            49152
 2017-02-05 17:41:27.618086+01 | 1486312887.61809 | pgbench_history  |         85999616
 2017-02-05 17:41:27.618086+01 | 1486312887.61809 | pgbench_branches |             8192

 2017-02-05 17:41:28.701148+01 | 1486312888.70115 | pgbench_accounts |       1391050752
 2017-02-05 17:41:28.701148+01 | 1486312888.70115 | pgbench_tellers  |            49152
 2017-02-05 17:41:28.701148+01 | 1486312888.70115 | pgbench_history  |         87695360
 2017-02-05 17:41:28.701148+01 | 1486312888.70115 | pgbench_branches |             8192

 2017-02-05 17:41:29.784739+01 | 1486312889.78474 | pgbench_accounts |       1391050752
 2017-02-05 17:41:29.784739+01 | 1486312889.78474 | pgbench_tellers  |            49152
 2017-02-05 17:41:29.784739+01 | 1486312889.78474 | pgbench_history  |         88375296
 2017-02-05 17:41:29.784739+01 | 1486312889.78474 | pgbench_branches |             8192

 2017-02-05 17:41:30.861941+01 | 1486312890.86194 | pgbench_accounts |       1391050752
 2017-02-05 17:41:30.861941+01 | 1486312890.86194 | pgbench_tellers  |            49152
 2017-02-05 17:41:30.861941+01 | 1486312890.86194 | pgbench_history  |         89268224
 2017-02-05 17:41:30.861941+01 | 1486312890.86194 | pgbench_branches |             8192

 2017-02-05 17:41:31.935319+01 | 1486312891.93532 | pgbench_accounts |       1391050752
 2017-02-05 17:41:31.935319+01 | 1486312891.93532 | pgbench_tellers  |            49152
 2017-02-05 17:41:31.935319+01 | 1486312891.93532 | pgbench_history  |         90333184
 2017-02-05 17:41:31.935319+01 | 1486312891.93532 | pgbench_branches |             8192

 2017-02-05 17:41:33.009723+01 | 1486312893.00972 | pgbench_accounts |       1391050752
 2017-02-05 17:41:33.009723+01 | 1486312893.00972 | pgbench_tellers  |            49152
 2017-02-05 17:41:33.009723+01 | 1486312893.00972 | pgbench_history  |         91529216
 2017-02-05 17:41:33.009723+01 | 1486312893.00972 | pgbench_branches |             8192

 2017-02-05 17:41:34.087984+01 | 1486312894.08798 | pgbench_accounts |       1391050752
 2017-02-05 17:41:34.087984+01 | 1486312894.08798 | pgbench_tellers  |            49152
 2017-02-05 17:41:34.087984+01 | 1486312894.08798 | pgbench_history  |         92569600
 2017-02-05 17:41:34.087984+01 | 1486312894.08798 | pgbench_branches |             8192

 2017-02-05 17:41:35.179158+01 | 1486312895.17916 | pgbench_accounts |       1391050752
 2017-02-05 17:41:35.179158+01 | 1486312895.17916 | pgbench_tellers  |            49152
 2017-02-05 17:41:35.179158+01 | 1486312895.17916 | pgbench_history  |         93650944
 2017-02-05 17:41:35.179158+01 | 1486312895.17916 | pgbench_branches |             8192

 2017-02-05 17:41:36.262553+01 | 1486312896.26255 | pgbench_accounts |       1391050752
 2017-02-05 17:41:36.262553+01 | 1486312896.26255 | pgbench_tellers  |            49152
 2017-02-05 17:41:36.262553+01 | 1486312896.26255 | pgbench_history  |         94887936
 2017-02-05 17:41:36.262553+01 | 1486312896.26255 | pgbench_branches |             8192

 2017-02-05 17:41:37.33705+01 | 1486312897.33705 | pgbench_accounts |       1391050752
 2017-02-05 17:41:37.33705+01 | 1486312897.33705 | pgbench_tellers  |            49152
 2017-02-05 17:41:37.33705+01 | 1486312897.33705 | pgbench_history  |         95674368
 2017-02-05 17:41:37.33705+01 | 1486312897.33705 | pgbench_branches |             8192

 2017-02-05 17:41:38.401149+01 | 1486312898.40115 | pgbench_accounts |       1391050752
 2017-02-05 17:41:38.401149+01 | 1486312898.40115 | pgbench_tellers  |            49152
 2017-02-05 17:41:38.401149+01 | 1486312898.40115 | pgbench_history  |         96927744
 2017-02-05 17:41:38.401149+01 | 1486312898.40115 | pgbench_branches |             8192

 2017-02-05 17:41:39.498928+01 | 1486312899.49893 | pgbench_accounts |       1391050752
 2017-02-05 17:41:39.498928+01 | 1486312899.49893 | pgbench_tellers  |            49152
 2017-02-05 17:41:39.498928+01 | 1486312899.49893 | pgbench_history  |         98459648
 2017-02-05 17:41:39.498928+01 | 1486312899.49893 | pgbench_branches |             8192

 2017-02-05 17:41:40.595129+01 | 1486312900.59513 | pgbench_accounts |       1391050752
 2017-02-05 17:41:40.595129+01 | 1486312900.59513 | pgbench_tellers  |            49152
 2017-02-05 17:41:40.595129+01 | 1486312900.59513 | pgbench_history  |         99164160
 2017-02-05 17:41:40.595129+01 | 1486312900.59513 | pgbench_branches |             8192

 2017-02-05 17:41:41.67552+01 | 1486312901.67552 | pgbench_accounts |       1391050752
 2017-02-05 17:41:41.67552+01 | 1486312901.67552 | pgbench_tellers  |            49152
 2017-02-05 17:41:41.67552+01 | 1486312901.67552 | pgbench_history  |        100179968
 2017-02-05 17:41:41.67552+01 | 1486312901.67552 | pgbench_branches |             8192

 2017-02-05 17:41:42.760178+01 | 1486312902.76018 | pgbench_accounts |       1391050752
 2017-02-05 17:41:42.760178+01 | 1486312902.76018 | pgbench_tellers  |            49152
 2017-02-05 17:41:42.760178+01 | 1486312902.76018 | pgbench_history  |        101220352
 2017-02-05 17:41:42.760178+01 | 1486312902.76018 | pgbench_branches |             8192

 2017-02-05 17:41:43.850888+01 | 1486312903.85089 | pgbench_accounts |       1391050752
 2017-02-05 17:41:43.850888+01 | 1486312903.85089 | pgbench_tellers  |            49152
 2017-02-05 17:41:43.850888+01 | 1486312903.85089 | pgbench_history  |        101949440
 2017-02-05 17:41:43.850888+01 | 1486312903.85089 | pgbench_branches |             8192

 2017-02-05 17:41:44.930705+01 | 1486312904.93071 | pgbench_accounts |       1391050752
 2017-02-05 17:41:44.930705+01 | 1486312904.93071 | pgbench_tellers  |            49152
 2017-02-05 17:41:44.930705+01 | 1486312904.93071 | pgbench_history  |        103497728
 2017-02-05 17:41:44.930705+01 | 1486312904.93071 | pgbench_branches |             8192

 2017-02-05 17:41:46.012361+01 | 1486312906.01236 | pgbench_accounts |       1391050752
 2017-02-05 17:41:46.012361+01 | 1486312906.01236 | pgbench_tellers  |            49152
 2017-02-05 17:41:46.012361+01 | 1486312906.01236 | pgbench_history  |        104382464
 2017-02-05 17:41:46.012361+01 | 1486312906.01236 | pgbench_branches |             8192

 2017-02-05 17:41:47.09534+01 | 1486312907.09534 | pgbench_accounts |       1391050752
 2017-02-05 17:41:47.09534+01 | 1486312907.09534 | pgbench_tellers  |            49152
 2017-02-05 17:41:47.09534+01 | 1486312907.09534 | pgbench_history  |        105086976
 2017-02-05 17:41:47.09534+01 | 1486312907.09534 | pgbench_branches |             8192

 2017-02-05 17:41:48.161962+01 | 1486312908.16196 | pgbench_accounts |       1391050752
 2017-02-05 17:41:48.161962+01 | 1486312908.16196 | pgbench_tellers  |            49152
 2017-02-05 17:41:48.161962+01 | 1486312908.16196 | pgbench_history  |        106332160
 2017-02-05 17:41:48.161962+01 | 1486312908.16196 | pgbench_branches |             8192

 2017-02-05 17:41:49.234779+01 | 1486312909.23478 | pgbench_accounts |       1391050752
 2017-02-05 17:41:49.234779+01 | 1486312909.23478 | pgbench_tellers  |            49152
 2017-02-05 17:41:49.234779+01 | 1486312909.23478 | pgbench_history  |        107085824
 2017-02-05 17:41:49.234779+01 | 1486312909.23478 | pgbench_branches |             8192

 2017-02-05 17:41:50.318852+01 | 1486312910.31885 | pgbench_accounts |       1391050752
 2017-02-05 17:41:50.318852+01 | 1486312910.31885 | pgbench_tellers  |            49152
 2017-02-05 17:41:50.318852+01 | 1486312910.31885 | pgbench_history  |        108191744
 2017-02-05 17:41:50.318852+01 | 1486312910.31885 | pgbench_branches |             8192

 2017-02-05 17:41:51.397331+01 | 1486312911.39733 | pgbench_accounts |       1391050752
 2017-02-05 17:41:51.397331+01 | 1486312911.39733 | pgbench_tellers  |            49152
 2017-02-05 17:41:51.397331+01 | 1486312911.39733 | pgbench_history  |        109576192
 2017-02-05 17:41:51.397331+01 | 1486312911.39733 | pgbench_branches |             8192

 2017-02-05 17:41:52.486383+01 | 1486312912.48638 | pgbench_accounts |       1391050752
 2017-02-05 17:41:52.486383+01 | 1486312912.48638 | pgbench_tellers  |            49152
 2017-02-05 17:41:52.486383+01 | 1486312912.48638 | pgbench_history  |        110288896
 2017-02-05 17:41:52.486383+01 | 1486312912.48638 | pgbench_branches |             8192

 2017-02-05 17:41:53.563102+01 | 1486312913.5631 | pgbench_accounts |       1391050752
 2017-02-05 17:41:53.563102+01 | 1486312913.5631 | pgbench_tellers  |            49152
 2017-02-05 17:41:53.563102+01 | 1486312913.5631 | pgbench_history  |        111484928
 2017-02-05 17:41:53.563102+01 | 1486312913.5631 | pgbench_branches |             8192

 2017-02-05 17:41:54.643687+01 | 1486312914.64369 | pgbench_accounts |       1391050752
 2017-02-05 17:41:54.643687+01 | 1486312914.64369 | pgbench_tellers  |            49152
 2017-02-05 17:41:54.643687+01 | 1486312914.64369 | pgbench_history  |        112164864
 2017-02-05 17:41:54.643687+01 | 1486312914.64369 | pgbench_branches |             8192

 2017-02-05 17:41:55.722586+01 | 1486312915.72259 | pgbench_accounts |       1391050752
 2017-02-05 17:41:55.722586+01 | 1486312915.72259 | pgbench_tellers  |            49152
 2017-02-05 17:41:55.722586+01 | 1486312915.72259 | pgbench_history  |        113238016
 2017-02-05 17:41:55.722586+01 | 1486312915.72259 | pgbench_branches |             8192

 2017-02-05 17:41:56.800478+01 | 1486312916.80048 | pgbench_accounts |       1391050752
 2017-02-05 17:41:56.800478+01 | 1486312916.80048 | pgbench_tellers  |            49152
 2017-02-05 17:41:56.800478+01 | 1486312916.80048 | pgbench_history  |        114483200
 2017-02-05 17:41:56.800478+01 | 1486312916.80048 | pgbench_branches |             8192

 2017-02-05 17:41:57.882241+01 | 1486312917.88224 | pgbench_accounts |       1391050752
 2017-02-05 17:41:57.882241+01 | 1486312917.88224 | pgbench_tellers  |            49152
 2017-02-05 17:41:57.882241+01 | 1486312917.88224 | pgbench_history  |        115556352
 2017-02-05 17:41:57.882241+01 | 1486312917.88224 | pgbench_branches |             8192

 2017-02-05 17:41:58.967854+01 | 1486312918.96785 | pgbench_accounts |       1391050752
 2017-02-05 17:41:58.967854+01 | 1486312918.96785 | pgbench_tellers  |            49152
 2017-02-05 17:41:58.967854+01 | 1486312918.96785 | pgbench_history  |        116236288
 2017-02-05 17:41:58.967854+01 | 1486312918.96785 | pgbench_branches |             8192

 2017-02-05 17:42:00.059926+01 | 1486312920.05993 | pgbench_accounts |       1391050752
 2017-02-05 17:42:00.059926+01 | 1486312920.05993 | pgbench_tellers  |            49152
 2017-02-05 17:42:00.059926+01 | 1486312920.05993 | pgbench_history  |        117293056
 2017-02-05 17:42:00.059926+01 | 1486312920.05993 | pgbench_branches |             8192

 2017-02-05 17:42:01.142013+01 | 1486312921.14201 | pgbench_accounts |       1391050752
 2017-02-05 17:42:01.142013+01 | 1486312921.14201 | pgbench_tellers  |            49152
 2017-02-05 17:42:01.142013+01 | 1486312921.14201 | pgbench_history  |        118390784
 2017-02-05 17:42:01.142013+01 | 1486312921.14201 | pgbench_branches |             8192

 2017-02-05 17:42:02.21693+01 | 1486312922.21693 | pgbench_accounts |       1391050752
 2017-02-05 17:42:02.21693+01 | 1486312922.21693 | pgbench_tellers  |            49152
 2017-02-05 17:42:02.21693+01 | 1486312922.21693 | pgbench_history  |        119422976
 2017-02-05 17:42:02.21693+01 | 1486312922.21693 | pgbench_branches |             8192

 2017-02-05 17:42:03.298917+01 | 1486312923.29892 | pgbench_accounts |       1391050752
 2017-02-05 17:42:03.298917+01 | 1486312923.29892 | pgbench_tellers  |            49152
 2017-02-05 17:42:03.298917+01 | 1486312923.29892 | pgbench_history  |        120315904
 2017-02-05 17:42:03.298917+01 | 1486312923.29892 | pgbench_branches |             8192

 2017-02-05 17:42:04.381361+01 | 1486312924.38136 | pgbench_accounts |       1391050752
 2017-02-05 17:42:04.381361+01 | 1486312924.38136 | pgbench_tellers  |            49152
 2017-02-05 17:42:04.381361+01 | 1486312924.38136 | pgbench_history  |        121389056
 2017-02-05 17:42:04.381361+01 | 1486312924.38136 | pgbench_branches |             8192

 2017-02-05 17:42:05.467795+01 | 1486312925.46779 | pgbench_accounts |       1391050752
 2017-02-05 17:42:05.467795+01 | 1486312925.46779 | pgbench_tellers  |            49152
 2017-02-05 17:42:05.467795+01 | 1486312925.46779 | pgbench_history  |        122232832
 2017-02-05 17:42:05.467795+01 | 1486312925.46779 | pgbench_branches |             8192

 2017-02-05 17:42:06.554413+01 | 1486312926.55441 | pgbench_accounts |       1391050752
 2017-02-05 17:42:06.554413+01 | 1486312926.55441 | pgbench_tellers  |            49152
 2017-02-05 17:42:06.554413+01 | 1486312926.55441 | pgbench_history  |        123641856
 2017-02-05 17:42:06.554413+01 | 1486312926.55441 | pgbench_branches |             8192

 2017-02-05 17:42:07.630686+01 | 1486312927.63069 | pgbench_accounts |       1391050752
 2017-02-05 17:42:07.630686+01 | 1486312927.63069 | pgbench_tellers  |            49152
 2017-02-05 17:42:07.630686+01 | 1486312927.63069 | pgbench_history  |        124354560
 2017-02-05 17:42:07.630686+01 | 1486312927.63069 | pgbench_branches |             8192

 2017-02-05 17:42:08.717935+01 | 1486312928.71794 | pgbench_accounts |       1391050752
 2017-02-05 17:42:08.717935+01 | 1486312928.71794 | pgbench_tellers  |            49152
 2017-02-05 17:42:08.717935+01 | 1486312928.71794 | pgbench_history  |        125222912
 2017-02-05 17:42:08.717935+01 | 1486312928.71794 | pgbench_branches |             8192

 2017-02-05 17:42:09.800887+01 | 1486312929.80089 | pgbench_accounts |       1391050752
 2017-02-05 17:42:09.800887+01 | 1486312929.80089 | pgbench_tellers  |            49152
 2017-02-05 17:42:09.800887+01 | 1486312929.80089 | pgbench_history  |        126279680
 2017-02-05 17:42:09.800887+01 | 1486312929.80089 | pgbench_branches |             8192

 2017-02-05 17:42:10.878669+01 | 1486312930.87867 | pgbench_accounts |       1391050752
 2017-02-05 17:42:10.878669+01 | 1486312930.87867 | pgbench_tellers  |            49152
 2017-02-05 17:42:10.878669+01 | 1486312930.87867 | pgbench_history  |        127524864
 2017-02-05 17:42:10.878669+01 | 1486312930.87867 | pgbench_branches |             8192

 2017-02-05 17:42:11.96414+01 | 1486312931.96414 | pgbench_accounts |       1391050752
 2017-02-05 17:42:11.96414+01 | 1486312931.96414 | pgbench_tellers  |            49152
 2017-02-05 17:42:11.96414+01 | 1486312931.96414 | pgbench_history  |        128417792
 2017-02-05 17:42:11.96414+01 | 1486312931.96414 | pgbench_branches |             8192

 2017-02-05 17:42:13.048969+01 | 1486312933.04897 | pgbench_accounts |       1391050752
 2017-02-05 17:42:13.048969+01 | 1486312933.04897 | pgbench_tellers  |            49152
 2017-02-05 17:42:13.048969+01 | 1486312933.04897 | pgbench_history  |        129490944
 2017-02-05 17:42:13.048969+01 | 1486312933.04897 | pgbench_branches |             8192

 2017-02-05 17:42:14.141123+01 | 1486312934.14112 | pgbench_accounts |       1391050752
 2017-02-05 17:42:14.141123+01 | 1486312934.14112 | pgbench_tellers  |            49152
 2017-02-05 17:42:14.141123+01 | 1486312934.14112 | pgbench_history  |        130711552
 2017-02-05 17:42:14.141123+01 | 1486312934.14112 | pgbench_branches |             8192

 2017-02-05 17:42:15.22442+01 | 1486312935.22442 | pgbench_accounts |       1391050752
 2017-02-05 17:42:15.22442+01 | 1486312935.22442 | pgbench_tellers  |            49152
 2017-02-05 17:42:15.22442+01 | 1486312935.22442 | pgbench_history  |        131473408
 2017-02-05 17:42:15.22442+01 | 1486312935.22442 | pgbench_branches |             8192

 2017-02-05 17:42:16.297601+01 | 1486312936.2976 | pgbench_accounts |       1391050752
 2017-02-05 17:42:16.297601+01 | 1486312936.2976 | pgbench_tellers  |            49152
 2017-02-05 17:42:16.297601+01 | 1486312936.2976 | pgbench_history  |        132694016
 2017-02-05 17:42:16.297601+01 | 1486312936.2976 | pgbench_branches |             8192

 2017-02-05 17:42:17.383561+01 | 1486312937.38356 | pgbench_accounts |       1391050752
 2017-02-05 17:42:17.383561+01 | 1486312937.38356 | pgbench_tellers  |            49152
 2017-02-05 17:42:17.383561+01 | 1486312937.38356 | pgbench_history  |        134053888
 2017-02-05 17:42:17.383561+01 | 1486312937.38356 | pgbench_branches |             8192

 2017-02-05 17:42:18.46023+01 | 1486312938.46023 | pgbench_accounts |       1391050752
 2017-02-05 17:42:18.46023+01 | 1486312938.46023 | pgbench_tellers  |            49152
 2017-02-05 17:42:18.46023+01 | 1486312938.46023 | pgbench_history  |        135102464
 2017-02-05 17:42:18.46023+01 | 1486312938.46023 | pgbench_branches |             8192

 2017-02-05 17:42:19.542994+01 | 1486312939.54299 | pgbench_accounts |       1391050752
 2017-02-05 17:42:19.542994+01 | 1486312939.54299 | pgbench_tellers  |            49152
 2017-02-05 17:42:19.542994+01 | 1486312939.54299 | pgbench_history  |        135462912
 2017-02-05 17:42:19.542994+01 | 1486312939.54299 | pgbench_branches |             8192

 2017-02-05 17:42:20.61419+01 | 1486312940.61419 | pgbench_accounts |       1391050752
 2017-02-05 17:42:20.61419+01 | 1486312940.61419 | pgbench_tellers  |            49152
 2017-02-05 17:42:20.61419+01 | 1486312940.61419 | pgbench_history  |        136863744
 2017-02-05 17:42:20.61419+01 | 1486312940.61419 | pgbench_branches |             8192

 2017-02-05 17:42:21.696278+01 | 1486312941.69628 | pgbench_accounts |       1391050752
 2017-02-05 17:42:21.696278+01 | 1486312941.69628 | pgbench_tellers  |            49152
 2017-02-05 17:42:21.696278+01 | 1486312941.69628 | pgbench_history  |        137543680
 2017-02-05 17:42:21.696278+01 | 1486312941.69628 | pgbench_branches |             8192

 2017-02-05 17:42:22.777395+01 | 1486312942.7774 | pgbench_accounts |       1391050752
 2017-02-05 17:42:22.777395+01 | 1486312942.7774 | pgbench_tellers  |            49152
 2017-02-05 17:42:22.777395+01 | 1486312942.7774 | pgbench_history  |        138436608
 2017-02-05 17:42:22.777395+01 | 1486312942.7774 | pgbench_branches |             8192

 2017-02-05 17:42:23.863618+01 | 1486312943.86362 | pgbench_accounts |       1391050752
 2017-02-05 17:42:23.863618+01 | 1486312943.86362 | pgbench_tellers  |            49152
 2017-02-05 17:42:23.863618+01 | 1486312943.86362 | pgbench_history  |        140312576
 2017-02-05 17:42:23.863618+01 | 1486312943.86362 | pgbench_branches |             8192

 2017-02-05 17:42:24.952662+01 | 1486312944.95266 | pgbench_accounts |       1391050752
 2017-02-05 17:42:24.952662+01 | 1486312944.95266 | pgbench_tellers  |            49152
 2017-02-05 17:42:24.952662+01 | 1486312944.95266 | pgbench_history  |        140500992
 2017-02-05 17:42:24.952662+01 | 1486312944.95266 | pgbench_branches |             8192

 2017-02-05 17:42:26.031599+01 | 1486312946.0316 | pgbench_accounts |       1391050752
 2017-02-05 17:42:26.031599+01 | 1486312946.0316 | pgbench_tellers  |            49152
 2017-02-05 17:42:26.031599+01 | 1486312946.0316 | pgbench_history  |        141557760
 2017-02-05 17:42:26.031599+01 | 1486312946.0316 | pgbench_branches |             8192

 2017-02-05 17:42:27.123374+01 | 1486312947.12337 | pgbench_accounts |       1391050752
 2017-02-05 17:42:27.123374+01 | 1486312947.12337 | pgbench_tellers  |            49152
 2017-02-05 17:42:27.123374+01 | 1486312947.12337 | pgbench_history  |        142966784
 2017-02-05 17:42:27.123374+01 | 1486312947.12337 | pgbench_branches |             8192

 2017-02-05 17:42:28.194983+01 | 1486312948.19498 | pgbench_accounts |       1391050752
 2017-02-05 17:42:28.194983+01 | 1486312948.19498 | pgbench_tellers  |            49152
 2017-02-05 17:42:28.194983+01 | 1486312948.19498 | pgbench_history  |        143974400
 2017-02-05 17:42:28.194983+01 | 1486312948.19498 | pgbench_branches |             8192

 2017-02-05 17:42:29.278008+01 | 1486312949.27801 | pgbench_accounts |       1391050752
 2017-02-05 17:42:29.278008+01 | 1486312949.27801 | pgbench_tellers  |            49152
 2017-02-05 17:42:29.278008+01 | 1486312949.27801 | pgbench_history  |        144842752
 2017-02-05 17:42:29.278008+01 | 1486312949.27801 | pgbench_branches |             8192

 2017-02-05 17:42:30.368482+01 | 1486312950.36848 | pgbench_accounts |       1391050752
 2017-02-05 17:42:30.368482+01 | 1486312950.36848 | pgbench_tellers  |            49152
 2017-02-05 17:42:30.368482+01 | 1486312950.36848 | pgbench_history  |        146391040
 2017-02-05 17:42:30.368482+01 | 1486312950.36848 | pgbench_branches |             8192

 2017-02-05 17:42:31.442811+01 | 1486312951.44281 | pgbench_accounts |       1391050752
 2017-02-05 17:42:31.442811+01 | 1486312951.44281 | pgbench_tellers  |            49152
 2017-02-05 17:42:31.442811+01 | 1486312951.44281 | pgbench_history  |        147243008
 2017-02-05 17:42:31.442811+01 | 1486312951.44281 | pgbench_branches |             8192

 2017-02-05 17:42:32.519132+01 | 1486312952.51913 | pgbench_accounts |       1391050752
 2017-02-05 17:42:32.519132+01 | 1486312952.51913 | pgbench_tellers  |            49152
 2017-02-05 17:42:32.519132+01 | 1486312952.51913 | pgbench_history  |        147939328
 2017-02-05 17:42:32.519132+01 | 1486312952.51913 | pgbench_branches |             8192

 2017-02-05 17:42:33.60773+01 | 1486312953.60773 | pgbench_accounts |       1391050752
 2017-02-05 17:42:33.60773+01 | 1486312953.60773 | pgbench_tellers  |            49152
 2017-02-05 17:42:33.60773+01 | 1486312953.60773 | pgbench_history  |        148873216
 2017-02-05 17:42:33.60773+01 | 1486312953.60773 | pgbench_branches |             8192

 2017-02-05 17:42:34.689837+01 | 1486312954.68984 | pgbench_accounts |       1391050752
 2017-02-05 17:42:34.689837+01 | 1486312954.68984 | pgbench_tellers  |            49152
 2017-02-05 17:42:34.689837+01 | 1486312954.68984 | pgbench_history  |        149946368
 2017-02-05 17:42:34.689837+01 | 1486312954.68984 | pgbench_branches |             8192

 2017-02-05 17:42:35.773361+01 | 1486312955.77336 | pgbench_accounts |       1391050752
 2017-02-05 17:42:35.773361+01 | 1486312955.77336 | pgbench_tellers  |            49152
 2017-02-05 17:42:35.773361+01 | 1486312955.77336 | pgbench_history  |        150839296
 2017-02-05 17:42:35.773361+01 | 1486312955.77336 | pgbench_branches |             8192

 2017-02-05 17:42:36.851282+01 | 1486312956.85128 | pgbench_accounts |       1391050752
 2017-02-05 17:42:36.851282+01 | 1486312956.85128 | pgbench_tellers  |            49152
 2017-02-05 17:42:36.851282+01 | 1486312956.85128 | pgbench_history  |        151961600
 2017-02-05 17:42:36.851282+01 | 1486312956.85128 | pgbench_branches |             8192

 2017-02-05 17:42:37.930676+01 | 1486312957.93068 | pgbench_accounts |       1391050752
 2017-02-05 17:42:37.930676+01 | 1486312957.93068 | pgbench_tellers  |            49152
 2017-02-05 17:42:37.930676+01 | 1486312957.93068 | pgbench_history  |        153346048
 2017-02-05 17:42:37.930676+01 | 1486312957.93068 | pgbench_branches |             8192

 2017-02-05 17:42:39.002943+01 | 1486312959.00294 | pgbench_accounts |       1391050752
 2017-02-05 17:42:39.002943+01 | 1486312959.00294 | pgbench_tellers  |            49152
 2017-02-05 17:42:39.002943+01 | 1486312959.00294 | pgbench_history  |        154386432
 2017-02-05 17:42:39.002943+01 | 1486312959.00294 | pgbench_branches |             8192

 2017-02-05 17:42:40.08164+01 | 1486312960.08164 | pgbench_accounts |       1391050752
 2017-02-05 17:42:40.08164+01 | 1486312960.08164 | pgbench_tellers  |            49152
 2017-02-05 17:42:40.08164+01 | 1486312960.08164 | pgbench_history  |        155271168
 2017-02-05 17:42:40.08164+01 | 1486312960.08164 | pgbench_branches |             8192

 2017-02-05 17:42:41.163534+01 | 1486312961.16353 | pgbench_accounts |       1391050752
 2017-02-05 17:42:41.163534+01 | 1486312961.16353 | pgbench_tellers  |            49152
 2017-02-05 17:42:41.163534+01 | 1486312961.16353 | pgbench_history  |        155951104
 2017-02-05 17:42:41.163534+01 | 1486312961.16353 | pgbench_branches |             8192

 2017-02-05 17:42:42.243231+01 | 1486312962.24323 | pgbench_accounts |       1391050752
 2017-02-05 17:42:42.243231+01 | 1486312962.24323 | pgbench_tellers  |            49152
 2017-02-05 17:42:42.243231+01 | 1486312962.24323 | pgbench_history  |        157171712
 2017-02-05 17:42:42.243231+01 | 1486312962.24323 | pgbench_branches |             8192

 2017-02-05 17:42:43.334256+01 | 1486312963.33426 | pgbench_accounts |       1391050752
 2017-02-05 17:42:43.334256+01 | 1486312963.33426 | pgbench_tellers  |            49152
 2017-02-05 17:42:43.334256+01 | 1486312963.33426 | pgbench_history  |        158064640
 2017-02-05 17:42:43.334256+01 | 1486312963.33426 | pgbench_branches |             8192

 2017-02-05 17:42:44.421032+01 | 1486312964.42103 | pgbench_accounts |       1391050752
 2017-02-05 17:42:44.421032+01 | 1486312964.42103 | pgbench_tellers  |            49152
 2017-02-05 17:42:44.421032+01 | 1486312964.42103 | pgbench_history  |        159514624
 2017-02-05 17:42:44.421032+01 | 1486312964.42103 | pgbench_branches |             8192

 2017-02-05 17:42:45.501327+01 | 1486312965.50133 | pgbench_accounts |       1391050752
 2017-02-05 17:42:45.501327+01 | 1486312965.50133 | pgbench_tellers  |            49152
 2017-02-05 17:42:45.501327+01 | 1486312965.50133 | pgbench_history  |        160235520
 2017-02-05 17:42:45.501327+01 | 1486312965.50133 | pgbench_branches |             8192

 2017-02-05 17:42:46.595048+01 | 1486312966.59505 | pgbench_accounts |       1391050752
 2017-02-05 17:42:46.595048+01 | 1486312966.59505 | pgbench_tellers  |            49152
 2017-02-05 17:42:46.595048+01 | 1486312966.59505 | pgbench_history  |        161325056
 2017-02-05 17:42:46.595048+01 | 1486312966.59505 | pgbench_branches |             8192

 2017-02-05 17:42:47.681177+01 | 1486312967.68118 | pgbench_accounts |       1391050752
 2017-02-05 17:42:47.681177+01 | 1486312967.68118 | pgbench_tellers  |            49152
 2017-02-05 17:42:47.681177+01 | 1486312967.68118 | pgbench_history  |        162553856
 2017-02-05 17:42:47.681177+01 | 1486312967.68118 | pgbench_branches |             8192

 2017-02-05 17:42:48.758051+01 | 1486312968.75805 | pgbench_accounts |       1391050752
 2017-02-05 17:42:48.758051+01 | 1486312968.75805 | pgbench_tellers  |            49152
 2017-02-05 17:42:48.758051+01 | 1486312968.75805 | pgbench_history  |        163422208
 2017-02-05 17:42:48.758051+01 | 1486312968.75805 | pgbench_branches |             8192

 2017-02-05 17:42:49.838402+01 | 1486312969.8384 | pgbench_accounts |       1391050752
 2017-02-05 17:42:49.838402+01 | 1486312969.8384 | pgbench_tellers  |            49152
 2017-02-05 17:42:49.838402+01 | 1486312969.8384 | pgbench_history  |        164978688
 2017-02-05 17:42:49.838402+01 | 1486312969.8384 | pgbench_branches |             8192

 2017-02-05 17:42:50.927252+01 | 1486312970.92725 | pgbench_accounts |       1391050752
 2017-02-05 17:42:50.927252+01 | 1486312970.92725 | pgbench_tellers  |            49152
 2017-02-05 17:42:50.927252+01 | 1486312970.92725 | pgbench_history  |        165830656
 2017-02-05 17:42:50.927252+01 | 1486312970.92725 | pgbench_branches |             8192

 2017-02-05 17:42:52.016981+01 | 1486312972.01698 | pgbench_accounts |       1391050752
 2017-02-05 17:42:52.016981+01 | 1486312972.01698 | pgbench_tellers  |            49152
 2017-02-05 17:42:52.016981+01 | 1486312972.01698 | pgbench_history  |        166699008
 2017-02-05 17:42:52.016981+01 | 1486312972.01698 | pgbench_branches |             8192

 2017-02-05 17:42:53.103507+01 | 1486312973.10351 | pgbench_accounts |       1391050752
 2017-02-05 17:42:53.103507+01 | 1486312973.10351 | pgbench_tellers  |            49152
 2017-02-05 17:42:53.103507+01 | 1486312973.10351 | pgbench_history  |        167780352
 2017-02-05 17:42:53.103507+01 | 1486312973.10351 | pgbench_branches |             8192

 2017-02-05 17:42:54.189601+01 | 1486312974.1896 | pgbench_accounts |       1391050752
 2017-02-05 17:42:54.189601+01 | 1486312974.1896 | pgbench_tellers  |            49152
 2017-02-05 17:42:54.189601+01 | 1486312974.1896 | pgbench_history  |        168656896
 2017-02-05 17:42:54.189601+01 | 1486312974.1896 | pgbench_branches |             8192

 2017-02-05 17:42:55.276666+01 | 1486312975.27667 | pgbench_accounts |       1391050752
 2017-02-05 17:42:55.276666+01 | 1486312975.27667 | pgbench_tellers  |            49152
 2017-02-05 17:42:55.276666+01 | 1486312975.27667 | pgbench_history  |        169689088
 2017-02-05 17:42:55.276666+01 | 1486312975.27667 | pgbench_branches |             8192

 2017-02-05 17:42:56.373078+01 | 1486312976.37308 | pgbench_accounts |       1391050752
 2017-02-05 17:42:56.373078+01 | 1486312976.37308 | pgbench_tellers  |            49152
 2017-02-05 17:42:56.373078+01 | 1486312976.37308 | pgbench_history  |        170721280
 2017-02-05 17:42:56.373078+01 | 1486312976.37308 | pgbench_branches |             8192

 2017-02-05 17:42:57.451875+01 | 1486312977.45187 | pgbench_accounts |       1391050752
 2017-02-05 17:42:57.451875+01 | 1486312977.45187 | pgbench_tellers  |            49152
 2017-02-05 17:42:57.451875+01 | 1486312977.45187 | pgbench_history  |        171950080
 2017-02-05 17:42:57.451875+01 | 1486312977.45187 | pgbench_branches |             8192

 2017-02-05 17:42:58.536512+01 | 1486312978.53651 | pgbench_accounts |       1391050752
 2017-02-05 17:42:58.536512+01 | 1486312978.53651 | pgbench_tellers  |            49152
 2017-02-05 17:42:58.536512+01 | 1486312978.53651 | pgbench_history  |        172982272
 2017-02-05 17:42:58.536512+01 | 1486312978.53651 | pgbench_branches |             8192

 2017-02-05 17:42:59.625284+01 | 1486312979.62528 | pgbench_accounts |       1391050752
 2017-02-05 17:42:59.625284+01 | 1486312979.62528 | pgbench_tellers  |            49152
 2017-02-05 17:42:59.625284+01 | 1486312979.62528 | pgbench_history  |        173867008
 2017-02-05 17:42:59.625284+01 | 1486312979.62528 | pgbench_branches |             8192

 2017-02-05 17:43:00.704507+01 | 1486312980.70451 | pgbench_accounts |       1391050752
 2017-02-05 17:43:00.704507+01 | 1486312980.70451 | pgbench_tellers  |            49152
 2017-02-05 17:43:00.704507+01 | 1486312980.70451 | pgbench_history  |        175144960
 2017-02-05 17:43:00.704507+01 | 1486312980.70451 | pgbench_branches |             8192

 2017-02-05 17:43:01.789408+01 | 1486312981.78941 | pgbench_accounts |       1391050752
 2017-02-05 17:43:01.789408+01 | 1486312981.78941 | pgbench_tellers  |            49152
 2017-02-05 17:43:01.789408+01 | 1486312981.78941 | pgbench_history  |        175857664
 2017-02-05 17:43:01.789408+01 | 1486312981.78941 | pgbench_branches |             8192

 2017-02-05 17:43:02.869765+01 | 1486312982.86977 | pgbench_accounts |       1391050752
 2017-02-05 17:43:02.869765+01 | 1486312982.86977 | pgbench_tellers  |            49152
 2017-02-05 17:43:02.869765+01 | 1486312982.86977 | pgbench_history  |        176914432
 2017-02-05 17:43:02.869765+01 | 1486312982.86977 | pgbench_branches |             8192

 2017-02-05 17:43:03.951882+01 | 1486312983.95188 | pgbench_accounts |       1391050752
 2017-02-05 17:43:03.951882+01 | 1486312983.95188 | pgbench_tellers  |            49152
 2017-02-05 17:43:03.951882+01 | 1486312983.95188 | pgbench_history  |        178298880
 2017-02-05 17:43:03.951882+01 | 1486312983.95188 | pgbench_branches |             8192

 2017-02-05 17:43:05.034392+01 | 1486312985.03439 | pgbench_accounts |       1391050752
 2017-02-05 17:43:05.034392+01 | 1486312985.03439 | pgbench_tellers  |            49152
 2017-02-05 17:43:05.034392+01 | 1486312985.03439 | pgbench_history  |        178987008
 2017-02-05 17:43:05.034392+01 | 1486312985.03439 | pgbench_branches |             8192

 2017-02-05 17:43:06.114509+01 | 1486312986.11451 | pgbench_accounts |       1391050752
 2017-02-05 17:43:06.114509+01 | 1486312986.11451 | pgbench_tellers  |            49152
 2017-02-05 17:43:06.114509+01 | 1486312986.11451 | pgbench_history  |        180535296
 2017-02-05 17:43:06.114509+01 | 1486312986.11451 | pgbench_branches |             8192

 2017-02-05 17:43:07.186336+01 | 1486312987.18634 | pgbench_accounts |       1391050752
 2017-02-05 17:43:07.186336+01 | 1486312987.18634 | pgbench_tellers  |            49152
 2017-02-05 17:43:07.186336+01 | 1486312987.18634 | pgbench_history  |        181379072
 2017-02-05 17:43:07.186336+01 | 1486312987.18634 | pgbench_branches |             8192

 2017-02-05 17:43:08.264571+01 | 1486312988.26457 | pgbench_accounts |       1391050752
 2017-02-05 17:43:08.264571+01 | 1486312988.26457 | pgbench_tellers  |            49152
 2017-02-05 17:43:08.264571+01 | 1486312988.26457 | pgbench_history  |        182247424
 2017-02-05 17:43:08.264571+01 | 1486312988.26457 | pgbench_branches |             8192

 2017-02-05 17:43:09.352205+01 | 1486312989.35221 | pgbench_accounts |       1391050752
 2017-02-05 17:43:09.352205+01 | 1486312989.35221 | pgbench_tellers  |            49152
 2017-02-05 17:43:09.352205+01 | 1486312989.35221 | pgbench_history  |        183476224
 2017-02-05 17:43:09.352205+01 | 1486312989.35221 | pgbench_branches |             8192

 2017-02-05 17:43:10.442677+01 | 1486312990.44268 | pgbench_accounts |       1391050752
 2017-02-05 17:43:10.442677+01 | 1486312990.44268 | pgbench_tellers  |            49152
 2017-02-05 17:43:10.442677+01 | 1486312990.44268 | pgbench_history  |        184680448
 2017-02-05 17:43:10.442677+01 | 1486312990.44268 | pgbench_branches |             8192

 2017-02-05 17:43:11.517292+01 | 1486312991.51729 | pgbench_accounts |       1391050752
 2017-02-05 17:43:11.517292+01 | 1486312991.51729 | pgbench_tellers  |            49152
 2017-02-05 17:43:11.517292+01 | 1486312991.51729 | pgbench_history  |        185196544
 2017-02-05 17:43:11.517292+01 | 1486312991.51729 | pgbench_branches |             8192

 2017-02-05 17:43:12.606201+01 | 1486312992.6062 | pgbench_accounts |       1391050752
 2017-02-05 17:43:12.606201+01 | 1486312992.6062 | pgbench_tellers  |            49152
 2017-02-05 17:43:12.606201+01 | 1486312992.6062 | pgbench_history  |        186253312
 2017-02-05 17:43:12.606201+01 | 1486312992.6062 | pgbench_branches |             8192

 2017-02-05 17:43:13.694101+01 | 1486312993.6941 | pgbench_accounts |       1391050752
 2017-02-05 17:43:13.694101+01 | 1486312993.6941 | pgbench_tellers  |            49152
 2017-02-05 17:43:13.694101+01 | 1486312993.6941 | pgbench_history  |        187334656
 2017-02-05 17:43:13.694101+01 | 1486312993.6941 | pgbench_branches |             8192

 2017-02-05 17:43:14.775196+01 | 1486312994.7752 | pgbench_accounts |       1391050752
 2017-02-05 17:43:14.775196+01 | 1486312994.7752 | pgbench_tellers  |            49152
 2017-02-05 17:43:14.775196+01 | 1486312994.7752 | pgbench_history  |        188530688
 2017-02-05 17:43:14.775196+01 | 1486312994.7752 | pgbench_branches |             8192

 2017-02-05 17:43:15.858026+01 | 1486312995.85803 | pgbench_accounts |       1391050752
 2017-02-05 17:43:15.858026+01 | 1486312995.85803 | pgbench_tellers  |            49152
 2017-02-05 17:43:15.858026+01 | 1486312995.85803 | pgbench_history  |        189399040
 2017-02-05 17:43:15.858026+01 | 1486312995.85803 | pgbench_branches |             8192

 2017-02-05 17:43:16.951627+01 | 1486312996.95163 | pgbench_accounts |       1391050752
 2017-02-05 17:43:16.951627+01 | 1486312996.95163 | pgbench_tellers  |            49152
 2017-02-05 17:43:16.951627+01 | 1486312996.95163 | pgbench_history  |        190455808
 2017-02-05 17:43:16.951627+01 | 1486312996.95163 | pgbench_branches |             8192

 2017-02-05 17:43:18.041547+01 | 1486312998.04155 | pgbench_accounts |       1391050752
 2017-02-05 17:43:18.041547+01 | 1486312998.04155 | pgbench_tellers  |            49152
 2017-02-05 17:43:18.041547+01 | 1486312998.04155 | pgbench_history  |        191840256
 2017-02-05 17:43:18.041547+01 | 1486312998.04155 | pgbench_branches |             8192

 2017-02-05 17:43:19.12582+01 | 1486312999.12582 | pgbench_accounts |       1391050752
 2017-02-05 17:43:19.12582+01 | 1486312999.12582 | pgbench_tellers  |            49152
 2017-02-05 17:43:19.12582+01 | 1486312999.12582 | pgbench_history  |        192544768
 2017-02-05 17:43:19.12582+01 | 1486312999.12582 | pgbench_branches |             8192

 2017-02-05 17:43:20.197525+01 | 1486313000.19753 | pgbench_accounts |       1391050752
 2017-02-05 17:43:20.197525+01 | 1486313000.19753 | pgbench_tellers  |            49152
 2017-02-05 17:43:20.197525+01 | 1486313000.19753 | pgbench_history  |        193601536
 2017-02-05 17:43:20.197525+01 | 1486313000.19753 | pgbench_branches |             8192

 2017-02-05 17:43:21.276555+01 | 1486313001.27656 | pgbench_accounts |       1391050752
 2017-02-05 17:43:21.276555+01 | 1486313001.27656 | pgbench_tellers  |            49152
 2017-02-05 17:43:21.276555+01 | 1486313001.27656 | pgbench_history  |        194822144
 2017-02-05 17:43:21.276555+01 | 1486313001.27656 | pgbench_branches |             8192

 2017-02-05 17:43:22.360356+01 | 1486313002.36036 | pgbench_accounts |       1391050752
 2017-02-05 17:43:22.360356+01 | 1486313002.36036 | pgbench_tellers  |            49152
 2017-02-05 17:43:22.360356+01 | 1486313002.36036 | pgbench_history  |        195878912
 2017-02-05 17:43:22.360356+01 | 1486313002.36036 | pgbench_branches |             8192

 2017-02-05 17:43:23.44776+01 | 1486313003.44776 | pgbench_accounts |       1391050752
 2017-02-05 17:43:23.44776+01 | 1486313003.44776 | pgbench_tellers  |            49152
 2017-02-05 17:43:23.44776+01 | 1486313003.44776 | pgbench_history  |        196583424
 2017-02-05 17:43:23.44776+01 | 1486313003.44776 | pgbench_branches |             8192

 2017-02-05 17:43:24.535077+01 | 1486313004.53508 | pgbench_accounts |       1391050752
 2017-02-05 17:43:24.535077+01 | 1486313004.53508 | pgbench_tellers  |            49152
 2017-02-05 17:43:24.535077+01 | 1486313004.53508 | pgbench_history  |        197894144
 2017-02-05 17:43:24.535077+01 | 1486313004.53508 | pgbench_branches |             8192

 2017-02-05 17:43:25.615965+01 | 1486313005.61596 | pgbench_accounts |       1391050752
 2017-02-05 17:43:25.615965+01 | 1486313005.61596 | pgbench_tellers  |            49152
 2017-02-05 17:43:25.615965+01 | 1486313005.61596 | pgbench_history  |        199254016
 2017-02-05 17:43:25.615965+01 | 1486313005.61596 | pgbench_branches |             8192

 2017-02-05 17:43:26.705378+01 | 1486313006.70538 | pgbench_accounts |       1391050752
 2017-02-05 17:43:26.705378+01 | 1486313006.70538 | pgbench_tellers  |            49152
 2017-02-05 17:43:26.705378+01 | 1486313006.70538 | pgbench_history  |        199794688
 2017-02-05 17:43:26.705378+01 | 1486313006.70538 | pgbench_branches |             8192

 2017-02-05 17:43:27.791088+01 | 1486313007.79109 | pgbench_accounts |       1391050752
 2017-02-05 17:43:27.791088+01 | 1486313007.79109 | pgbench_tellers  |            49152
 2017-02-05 17:43:27.791088+01 | 1486313007.79109 | pgbench_history  |        201154560
 2017-02-05 17:43:27.791088+01 | 1486313007.79109 | pgbench_branches |             8192

 2017-02-05 17:43:28.880124+01 | 1486313008.88012 | pgbench_accounts |       1391050752
 2017-02-05 17:43:28.880124+01 | 1486313008.88012 | pgbench_tellers  |            49152
 2017-02-05 17:43:28.880124+01 | 1486313008.88012 | pgbench_history  |        202022912
 2017-02-05 17:43:28.880124+01 | 1486313008.88012 | pgbench_branches |             8192

 2017-02-05 17:43:29.972435+01 | 1486313009.97243 | pgbench_accounts |       1391050752
 2017-02-05 17:43:29.972435+01 | 1486313009.97243 | pgbench_tellers  |            49152
 2017-02-05 17:43:29.972435+01 | 1486313009.97243 | pgbench_history  |        203055104
 2017-02-05 17:43:29.972435+01 | 1486313009.97243 | pgbench_branches |             8192

 2017-02-05 17:43:31.06113+01 | 1486313011.06113 | pgbench_accounts |       1391050752
 2017-02-05 17:43:31.06113+01 | 1486313011.06113 | pgbench_tellers  |            49152
 2017-02-05 17:43:31.06113+01 | 1486313011.06113 | pgbench_history  |        203915264
 2017-02-05 17:43:31.06113+01 | 1486313011.06113 | pgbench_branches |             8192

 2017-02-05 17:43:32.149317+01 | 1486313012.14932 | pgbench_accounts |       1391050752
 2017-02-05 17:43:32.149317+01 | 1486313012.14932 | pgbench_tellers  |            49152
 2017-02-05 17:43:32.149317+01 | 1486313012.14932 | pgbench_history  |        204947456
 2017-02-05 17:43:32.149317+01 | 1486313012.14932 | pgbench_branches |             8192

 2017-02-05 17:43:33.233606+01 | 1486313013.23361 | pgbench_accounts |       1391050752
 2017-02-05 17:43:33.233606+01 | 1486313013.23361 | pgbench_tellers  |            49152
 2017-02-05 17:43:33.233606+01 | 1486313013.23361 | pgbench_history  |        206004224
 2017-02-05 17:43:33.233606+01 | 1486313013.23361 | pgbench_branches |             8192

 2017-02-05 17:43:34.316761+01 | 1486313014.31676 | pgbench_accounts |       1391050752
 2017-02-05 17:43:34.316761+01 | 1486313014.31676 | pgbench_tellers  |            49152
 2017-02-05 17:43:34.316761+01 | 1486313014.31676 | pgbench_history  |        207167488
 2017-02-05 17:43:34.316761+01 | 1486313014.31676 | pgbench_branches |             8192

 2017-02-05 17:43:35.407183+01 | 1486313015.40718 | pgbench_accounts |       1391050752
 2017-02-05 17:43:35.407183+01 | 1486313015.40718 | pgbench_tellers  |            49152
 2017-02-05 17:43:35.407183+01 | 1486313015.40718 | pgbench_history  |        208371712
 2017-02-05 17:43:35.407183+01 | 1486313015.40718 | pgbench_branches |             8192

 2017-02-05 17:43:36.494349+01 | 1486313016.49435 | pgbench_accounts |       1391050752
 2017-02-05 17:43:36.494349+01 | 1486313016.49435 | pgbench_tellers  |            49152
 2017-02-05 17:43:36.494349+01 | 1486313016.49435 | pgbench_history  |        209076224
 2017-02-05 17:43:36.494349+01 | 1486313016.49435 | pgbench_branches |             8192

 2017-02-05 17:43:37.575376+01 | 1486313017.57538 | pgbench_accounts |       1391050752
 2017-02-05 17:43:37.575376+01 | 1486313017.57538 | pgbench_tellers  |            49152
 2017-02-05 17:43:37.575376+01 | 1486313017.57538 | pgbench_history  |        210182144
 2017-02-05 17:43:37.575376+01 | 1486313017.57538 | pgbench_branches |             8192

 2017-02-05 17:43:38.651239+01 | 1486313018.65124 | pgbench_accounts |       1391050752
 2017-02-05 17:43:38.651239+01 | 1486313018.65124 | pgbench_tellers  |            49152
 2017-02-05 17:43:38.651239+01 | 1486313018.65124 | pgbench_history  |        211542016
 2017-02-05 17:43:38.651239+01 | 1486313018.65124 | pgbench_branches |             8192

 2017-02-05 17:43:39.736769+01 | 1486313019.73677 | pgbench_accounts |       1391050752
 2017-02-05 17:43:39.736769+01 | 1486313019.73677 | pgbench_tellers  |            49152
 2017-02-05 17:43:39.736769+01 | 1486313019.73677 | pgbench_history  |        212582400
 2017-02-05 17:43:39.736769+01 | 1486313019.73677 | pgbench_branches |             8192

 2017-02-05 17:43:40.820334+01 | 1486313020.82033 | pgbench_accounts |       1391050752
 2017-02-05 17:43:40.820334+01 | 1486313020.82033 | pgbench_tellers  |            49152
 2017-02-05 17:43:40.820334+01 | 1486313020.82033 | pgbench_history  |        213655552
 2017-02-05 17:43:40.820334+01 | 1486313020.82033 | pgbench_branches |             8192

 2017-02-05 17:43:41.903943+01 | 1486313021.90394 | pgbench_accounts |       1391050752
 2017-02-05 17:43:41.903943+01 | 1486313021.90394 | pgbench_tellers  |            49152
 2017-02-05 17:43:41.903943+01 | 1486313021.90394 | pgbench_history  |        214507520
 2017-02-05 17:43:41.903943+01 | 1486313021.90394 | pgbench_branches |             8192

 2017-02-05 17:43:42.988888+01 | 1486313022.98889 | pgbench_accounts |       1391050752
 2017-02-05 17:43:42.988888+01 | 1486313022.98889 | pgbench_tellers  |            49152
 2017-02-05 17:43:42.988888+01 | 1486313022.98889 | pgbench_history  |        215547904
 2017-02-05 17:43:42.988888+01 | 1486313022.98889 | pgbench_branches |             8192

 2017-02-05 17:43:44.067194+01 | 1486313024.06719 | pgbench_accounts |       1391050752
 2017-02-05 17:43:44.067194+01 | 1486313024.06719 | pgbench_tellers  |            49152
 2017-02-05 17:43:44.067194+01 | 1486313024.06719 | pgbench_history  |        216965120
 2017-02-05 17:43:44.067194+01 | 1486313024.06719 | pgbench_branches |             8192

 2017-02-05 17:43:45.147892+01 | 1486313025.14789 | pgbench_accounts |       1391050752
 2017-02-05 17:43:45.147892+01 | 1486313025.14789 | pgbench_tellers  |            49152
 2017-02-05 17:43:45.147892+01 | 1486313025.14789 | pgbench_history  |        218038272
 2017-02-05 17:43:45.147892+01 | 1486313025.14789 | pgbench_branches |             8192

 2017-02-05 17:43:46.224827+01 | 1486313026.22483 | pgbench_accounts |       1391050752
 2017-02-05 17:43:46.224827+01 | 1486313026.22483 | pgbench_tellers  |            49152
 2017-02-05 17:43:46.224827+01 | 1486313026.22483 | pgbench_history  |        218906624
 2017-02-05 17:43:46.224827+01 | 1486313026.22483 | pgbench_branches |             8192

 2017-02-05 17:43:47.294397+01 | 1486313027.2944 | pgbench_accounts |       1391050752
 2017-02-05 17:43:47.294397+01 | 1486313027.2944 | pgbench_tellers  |            49152
 2017-02-05 17:43:47.294397+01 | 1486313027.2944 | pgbench_history  |        220102656
 2017-02-05 17:43:47.294397+01 | 1486313027.2944 | pgbench_branches |             8192

 2017-02-05 17:43:48.363487+01 | 1486313028.36349 | pgbench_accounts |       1391050752
 2017-02-05 17:43:48.363487+01 | 1486313028.36349 | pgbench_tellers  |            49152
 2017-02-05 17:43:48.363487+01 | 1486313028.36349 | pgbench_history  |        221356032
 2017-02-05 17:43:48.363487+01 | 1486313028.36349 | pgbench_branches |             8192

 2017-02-05 17:43:49.446771+01 | 1486313029.44677 | pgbench_accounts |       1391050752
 2017-02-05 17:43:49.446771+01 | 1486313029.44677 | pgbench_tellers  |            49152
 2017-02-05 17:43:49.446771+01 | 1486313029.44677 | pgbench_history  |        222060544
 2017-02-05 17:43:49.446771+01 | 1486313029.44677 | pgbench_branches |             8192

 2017-02-05 17:43:50.523367+01 | 1486313030.52337 | pgbench_accounts |       1391050752
 2017-02-05 17:43:50.523367+01 | 1486313030.52337 | pgbench_tellers  |            49152
 2017-02-05 17:43:50.523367+01 | 1486313030.52337 | pgbench_history  |        223608832
 2017-02-05 17:43:50.523367+01 | 1486313030.52337 | pgbench_branches |             8192

 2017-02-05 17:43:51.613772+01 | 1486313031.61377 | pgbench_accounts |       1391050752
 2017-02-05 17:43:51.613772+01 | 1486313031.61377 | pgbench_tellers  |            49152
 2017-02-05 17:43:51.613772+01 | 1486313031.61377 | pgbench_history  |        224321536
 2017-02-05 17:43:51.613772+01 | 1486313031.61377 | pgbench_branches |             8192

 2017-02-05 17:43:52.702855+01 | 1486313032.70286 | pgbench_accounts |       1391050752
 2017-02-05 17:43:52.702855+01 | 1486313032.70286 | pgbench_tellers  |            49152
 2017-02-05 17:43:52.702855+01 | 1486313032.70286 | pgbench_history  |        225361920
 2017-02-05 17:43:52.702855+01 | 1486313032.70286 | pgbench_branches |             8192

 2017-02-05 17:43:53.789438+01 | 1486313033.78944 | pgbench_accounts |       1391050752
 2017-02-05 17:43:53.789438+01 | 1486313033.78944 | pgbench_tellers  |            49152
 2017-02-05 17:43:53.789438+01 | 1486313033.78944 | pgbench_history  |        226418688
 2017-02-05 17:43:53.789438+01 | 1486313033.78944 | pgbench_branches |             8192

 2017-02-05 17:43:54.866617+01 | 1486313034.86662 | pgbench_accounts |       1391050752
 2017-02-05 17:43:54.866617+01 | 1486313034.86662 | pgbench_tellers  |            49152
 2017-02-05 17:43:54.866617+01 | 1486313034.86662 | pgbench_history  |        227491840
 2017-02-05 17:43:54.866617+01 | 1486313034.86662 | pgbench_branches |             8192

 2017-02-05 17:43:55.946248+01 | 1486313035.94625 | pgbench_accounts |       1391050752
 2017-02-05 17:43:55.946248+01 | 1486313035.94625 | pgbench_tellers  |            49152
 2017-02-05 17:43:55.946248+01 | 1486313035.94625 | pgbench_history  |        228753408
 2017-02-05 17:43:55.946248+01 | 1486313035.94625 | pgbench_branches |             8192

 2017-02-05 17:43:57.032787+01 | 1486313037.03279 | pgbench_accounts |       1391050752
 2017-02-05 17:43:57.032787+01 | 1486313037.03279 | pgbench_tellers  |            49152
 2017-02-05 17:43:57.032787+01 | 1486313037.03279 | pgbench_history  |        230154240
 2017-02-05 17:43:57.032787+01 | 1486313037.03279 | pgbench_branches |             8192

 2017-02-05 17:43:58.113366+01 | 1486313038.11337 | pgbench_accounts |       1391050752
 2017-02-05 17:43:58.113366+01 | 1486313038.11337 | pgbench_tellers  |            49152
 2017-02-05 17:43:58.113366+01 | 1486313038.11337 | pgbench_history  |        231211008
 2017-02-05 17:43:58.113366+01 | 1486313038.11337 | pgbench_branches |             8192

 2017-02-05 17:43:59.20257+01 | 1486313039.20257 | pgbench_accounts |       1391050752
 2017-02-05 17:43:59.20257+01 | 1486313039.20257 | pgbench_tellers  |            49152
 2017-02-05 17:43:59.20257+01 | 1486313039.20257 | pgbench_history  |        231899136
 2017-02-05 17:43:59.20257+01 | 1486313039.20257 | pgbench_branches |             8192

 2017-02-05 17:44:00.284737+01 | 1486313040.28474 | pgbench_accounts |       1391050752
 2017-02-05 17:44:00.284737+01 | 1486313040.28474 | pgbench_tellers  |            49152
 2017-02-05 17:44:00.284737+01 | 1486313040.28474 | pgbench_history  |        233103360
 2017-02-05 17:44:00.284737+01 | 1486313040.28474 | pgbench_branches |             8192

 2017-02-05 17:44:01.373684+01 | 1486313041.37368 | pgbench_accounts |       1391050752
 2017-02-05 17:44:01.373684+01 | 1486313041.37368 | pgbench_tellers  |            49152
 2017-02-05 17:44:01.373684+01 | 1486313041.37368 | pgbench_history  |        233979904
 2017-02-05 17:44:01.373684+01 | 1486313041.37368 | pgbench_branches |             8192

 2017-02-05 17:44:02.464219+01 | 1486313042.46422 | pgbench_accounts |       1391050752
 2017-02-05 17:44:02.464219+01 | 1486313042.46422 | pgbench_tellers  |            49152
 2017-02-05 17:44:02.464219+01 | 1486313042.46422 | pgbench_history  |        235700224
 2017-02-05 17:44:02.464219+01 | 1486313042.46422 | pgbench_branches |             8192

 2017-02-05 17:44:03.54506+01 | 1486313043.54506 | pgbench_accounts |       1391050752
 2017-02-05 17:44:03.54506+01 | 1486313043.54506 | pgbench_tellers  |            49152
 2017-02-05 17:44:03.54506+01 | 1486313043.54506 | pgbench_history  |        236240896
 2017-02-05 17:44:03.54506+01 | 1486313043.54506 | pgbench_branches |             8192

 2017-02-05 17:44:04.628069+01 | 1486313044.62807 | pgbench_accounts |       1391050752
 2017-02-05 17:44:04.628069+01 | 1486313044.62807 | pgbench_tellers  |            49152
 2017-02-05 17:44:04.628069+01 | 1486313044.62807 | pgbench_history  |        237805568
 2017-02-05 17:44:04.628069+01 | 1486313044.62807 | pgbench_branches |             8192

 2017-02-05 17:44:05.709193+01 | 1486313045.70919 | pgbench_accounts |       1391050752
 2017-02-05 17:44:05.709193+01 | 1486313045.70919 | pgbench_tellers  |            49152
 2017-02-05 17:44:05.709193+01 | 1486313045.70919 | pgbench_history  |        238649344
 2017-02-05 17:44:05.709193+01 | 1486313045.70919 | pgbench_branches |             8192

 2017-02-05 17:44:06.788899+01 | 1486313046.7889 | pgbench_accounts |       1391050752
 2017-02-05 17:44:06.788899+01 | 1486313046.7889 | pgbench_tellers  |            49152
 2017-02-05 17:44:06.788899+01 | 1486313046.7889 | pgbench_history  |        239853568
 2017-02-05 17:44:06.788899+01 | 1486313046.7889 | pgbench_branches |             8192

 2017-02-05 17:44:07.869942+01 | 1486313047.86994 | pgbench_accounts |       1391050752
 2017-02-05 17:44:07.869942+01 | 1486313047.86994 | pgbench_tellers  |            49152
 2017-02-05 17:44:07.869942+01 | 1486313047.86994 | pgbench_history  |        240558080
 2017-02-05 17:44:07.869942+01 | 1486313047.86994 | pgbench_branches |             8192

 2017-02-05 17:44:08.959635+01 | 1486313048.95964 | pgbench_accounts |       1391050752
 2017-02-05 17:44:08.959635+01 | 1486313048.95964 | pgbench_tellers  |            49152
 2017-02-05 17:44:08.959635+01 | 1486313048.95964 | pgbench_history  |        241606656
 2017-02-05 17:44:08.959635+01 | 1486313048.95964 | pgbench_branches |             8192

 2017-02-05 17:44:10.046321+01 | 1486313050.04632 | pgbench_accounts |       1391050752
 2017-02-05 17:44:10.046321+01 | 1486313050.04632 | pgbench_tellers  |            49152
 2017-02-05 17:44:10.046321+01 | 1486313050.04632 | pgbench_history  |        242819072
 2017-02-05 17:44:10.046321+01 | 1486313050.04632 | pgbench_branches |             8192

 2017-02-05 17:44:11.138964+01 | 1486313051.13896 | pgbench_accounts |       1391050752
 2017-02-05 17:44:11.138964+01 | 1486313051.13896 | pgbench_tellers  |            49152
 2017-02-05 17:44:11.138964+01 | 1486313051.13896 | pgbench_history  |        243720192
 2017-02-05 17:44:11.138964+01 | 1486313051.13896 | pgbench_branches |             8192

 2017-02-05 17:44:12.228832+01 | 1486313052.22883 | pgbench_accounts |       1391050752
 2017-02-05 17:44:12.228832+01 | 1486313052.22883 | pgbench_tellers  |            49152
 2017-02-05 17:44:12.228832+01 | 1486313052.22883 | pgbench_history  |        245096448
 2017-02-05 17:44:12.228832+01 | 1486313052.22883 | pgbench_branches |             8192

 2017-02-05 17:44:13.316709+01 | 1486313053.31671 | pgbench_accounts |       1391050752
 2017-02-05 17:44:13.316709+01 | 1486313053.31671 | pgbench_tellers  |            49152
 2017-02-05 17:44:13.316709+01 | 1486313053.31671 | pgbench_history  |        246292480
 2017-02-05 17:44:13.316709+01 | 1486313053.31671 | pgbench_branches |             8192

 2017-02-05 17:44:14.40465+01 | 1486313054.40465 | pgbench_accounts |       1391050752
 2017-02-05 17:44:14.40465+01 | 1486313054.40465 | pgbench_tellers  |            49152
 2017-02-05 17:44:14.40465+01 | 1486313054.40465 | pgbench_history  |        247324672
 2017-02-05 17:44:14.40465+01 | 1486313054.40465 | pgbench_branches |             8192

 2017-02-05 17:44:15.494684+01 | 1486313055.49468 | pgbench_accounts |       1391050752
 2017-02-05 17:44:15.494684+01 | 1486313055.49468 | pgbench_tellers  |            49152
 2017-02-05 17:44:15.494684+01 | 1486313055.49468 | pgbench_history  |        248373248
 2017-02-05 17:44:15.494684+01 | 1486313055.49468 | pgbench_branches |             8192

 2017-02-05 17:44:16.584416+01 | 1486313056.58442 | pgbench_accounts |       1391050752
 2017-02-05 17:44:16.584416+01 | 1486313056.58442 | pgbench_tellers  |            49152
 2017-02-05 17:44:16.584416+01 | 1486313056.58442 | pgbench_history  |        249307136
 2017-02-05 17:44:16.584416+01 | 1486313056.58442 | pgbench_branches |             8192

 2017-02-05 17:44:17.669894+01 | 1486313057.66989 | pgbench_accounts |       1391050752
 2017-02-05 17:44:17.669894+01 | 1486313057.66989 | pgbench_tellers  |            49152
 2017-02-05 17:44:17.669894+01 | 1486313057.66989 | pgbench_history  |        250363904
 2017-02-05 17:44:17.669894+01 | 1486313057.66989 | pgbench_branches |             8192

 2017-02-05 17:44:18.753753+01 | 1486313058.75375 | pgbench_accounts |       1391050752
 2017-02-05 17:44:18.753753+01 | 1486313058.75375 | pgbench_tellers  |            49152
 2017-02-05 17:44:18.753753+01 | 1486313058.75375 | pgbench_history  |        251592704
 2017-02-05 17:44:18.753753+01 | 1486313058.75375 | pgbench_branches |             8192

 2017-02-05 17:44:19.836387+01 | 1486313059.83639 | pgbench_accounts |       1391050752
 2017-02-05 17:44:19.836387+01 | 1486313059.83639 | pgbench_tellers  |            49152
 2017-02-05 17:44:19.836387+01 | 1486313059.83639 | pgbench_history  |        252502016
 2017-02-05 17:44:19.836387+01 | 1486313059.83639 | pgbench_branches |             8192

 2017-02-05 17:44:20.922017+01 | 1486313060.92202 | pgbench_accounts |       1391050752
 2017-02-05 17:44:20.922017+01 | 1486313060.92202 | pgbench_tellers  |            49152
 2017-02-05 17:44:20.922017+01 | 1486313060.92202 | pgbench_history  |        254361600
 2017-02-05 17:44:20.922017+01 | 1486313060.92202 | pgbench_branches |             8192

 2017-02-05 17:44:21.998626+01 | 1486313061.99863 | pgbench_accounts |       1391050752
 2017-02-05 17:44:21.998626+01 | 1486313061.99863 | pgbench_tellers  |            49152
 2017-02-05 17:44:21.998626+01 | 1486313061.99863 | pgbench_history  |        254877696
 2017-02-05 17:44:21.998626+01 | 1486313061.99863 | pgbench_branches |             8192

 2017-02-05 17:44:23.081508+01 | 1486313063.08151 | pgbench_accounts |       1391050752
 2017-02-05 17:44:23.081508+01 | 1486313063.08151 | pgbench_tellers  |            49152
 2017-02-05 17:44:23.081508+01 | 1486313063.08151 | pgbench_history  |        255770624
 2017-02-05 17:44:23.081508+01 | 1486313063.08151 | pgbench_branches |             8192

 2017-02-05 17:44:24.166267+01 | 1486313064.16627 | pgbench_accounts |       1391050752
 2017-02-05 17:44:24.166267+01 | 1486313064.16627 | pgbench_tellers  |            49152
 2017-02-05 17:44:24.166267+01 | 1486313064.16627 | pgbench_history  |        256811008
 2017-02-05 17:44:24.166267+01 | 1486313064.16627 | pgbench_branches |             8192

 2017-02-05 17:44:25.26082+01 | 1486313065.26082 | pgbench_accounts |       1391050752
 2017-02-05 17:44:25.26082+01 | 1486313065.26082 | pgbench_tellers  |            49152
 2017-02-05 17:44:25.26082+01 | 1486313065.26082 | pgbench_history  |        257900544
 2017-02-05 17:44:25.26082+01 | 1486313065.26082 | pgbench_branches |             8192

 2017-02-05 17:44:26.352564+01 | 1486313066.35256 | pgbench_accounts |       1391050752
 2017-02-05 17:44:26.352564+01 | 1486313066.35256 | pgbench_tellers  |            49152
 2017-02-05 17:44:26.352564+01 | 1486313066.35256 | pgbench_history  |        259170304
 2017-02-05 17:44:26.352564+01 | 1486313066.35256 | pgbench_branches |             8192

 2017-02-05 17:44:27.441517+01 | 1486313067.44152 | pgbench_accounts |       1391050752
 2017-02-05 17:44:27.441517+01 | 1486313067.44152 | pgbench_tellers  |            49152
 2017-02-05 17:44:27.441517+01 | 1486313067.44152 | pgbench_history  |        260096000
 2017-02-05 17:44:27.441517+01 | 1486313067.44152 | pgbench_branches |             8192

 2017-02-05 17:44:28.528076+01 | 1486313068.52808 | pgbench_accounts |       1391050752
 2017-02-05 17:44:28.528076+01 | 1486313068.52808 | pgbench_tellers  |            49152
 2017-02-05 17:44:28.528076+01 | 1486313068.52808 | pgbench_history  |        261144576
 2017-02-05 17:44:28.528076+01 | 1486313068.52808 | pgbench_branches |             8192

 2017-02-05 17:44:29.612281+01 | 1486313069.61228 | pgbench_accounts |       1391050752
 2017-02-05 17:44:29.612281+01 | 1486313069.61228 | pgbench_tellers  |            49152
 2017-02-05 17:44:29.612281+01 | 1486313069.61228 | pgbench_history  |        262561792
 2017-02-05 17:44:29.612281+01 | 1486313069.61228 | pgbench_branches |             8192

 2017-02-05 17:44:30.702336+01 | 1486313070.70234 | pgbench_accounts |       1391050752
 2017-02-05 17:44:30.702336+01 | 1486313070.70234 | pgbench_tellers  |            49152
 2017-02-05 17:44:30.702336+01 | 1486313070.70234 | pgbench_history  |        263446528
 2017-02-05 17:44:30.702336+01 | 1486313070.70234 | pgbench_branches |             8192

 2017-02-05 17:44:31.788289+01 | 1486313071.78829 | pgbench_accounts |       1391050752
 2017-02-05 17:44:31.788289+01 | 1486313071.78829 | pgbench_tellers  |            49152
 2017-02-05 17:44:31.788289+01 | 1486313071.78829 | pgbench_history  |        264486912
 2017-02-05 17:44:31.788289+01 | 1486313071.78829 | pgbench_branches |             8192

 2017-02-05 17:44:32.864634+01 | 1486313072.86463 | pgbench_accounts |       1391050752
 2017-02-05 17:44:32.864634+01 | 1486313072.86463 | pgbench_tellers  |            49152
 2017-02-05 17:44:32.864634+01 | 1486313072.86463 | pgbench_history  |        265879552
 2017-02-05 17:44:32.864634+01 | 1486313072.86463 | pgbench_branches |             8192

 2017-02-05 17:44:33.953024+01 | 1486313073.95302 | pgbench_accounts |       1391050752
 2017-02-05 17:44:33.953024+01 | 1486313073.95302 | pgbench_tellers  |            49152
 2017-02-05 17:44:33.953024+01 | 1486313073.95302 | pgbench_history  |        266608640
 2017-02-05 17:44:33.953024+01 | 1486313073.95302 | pgbench_branches |             8192

 2017-02-05 17:44:35.043508+01 | 1486313075.04351 | pgbench_accounts |       1391050752
 2017-02-05 17:44:35.043508+01 | 1486313075.04351 | pgbench_tellers  |            49152
 2017-02-05 17:44:35.043508+01 | 1486313075.04351 | pgbench_history  |        268361728
 2017-02-05 17:44:35.043508+01 | 1486313075.04351 | pgbench_branches |             8192

 2017-02-05 17:44:36.132145+01 | 1486313076.13214 | pgbench_accounts |       1391050752
 2017-02-05 17:44:36.132145+01 | 1486313076.13214 | pgbench_tellers  |            49152
 2017-02-05 17:44:36.132145+01 | 1486313076.13214 | pgbench_history  |        269090816
 2017-02-05 17:44:36.132145+01 | 1486313076.13214 | pgbench_branches |             8192

 2017-02-05 17:44:37.208715+01 | 1486313077.20871 | pgbench_accounts |       1391050752
 2017-02-05 17:44:37.208715+01 | 1486313077.20871 | pgbench_tellers  |            49152
 2017-02-05 17:44:37.208715+01 | 1486313077.20871 | pgbench_history  |        269828096
 2017-02-05 17:44:37.208715+01 | 1486313077.20871 | pgbench_branches |             8192

 2017-02-05 17:44:38.285391+01 | 1486313078.28539 | pgbench_accounts |       1391050752
 2017-02-05 17:44:38.285391+01 | 1486313078.28539 | pgbench_tellers  |            49152
 2017-02-05 17:44:38.285391+01 | 1486313078.28539 | pgbench_history  |        270884864
 2017-02-05 17:44:38.285391+01 | 1486313078.28539 | pgbench_branches |             8192

 2017-02-05 17:44:39.374396+01 | 1486313079.3744 | pgbench_accounts |       1391050752
 2017-02-05 17:44:39.374396+01 | 1486313079.3744 | pgbench_tellers  |            49152
 2017-02-05 17:44:39.374396+01 | 1486313079.3744 | pgbench_history  |        271949824
 2017-02-05 17:44:39.374396+01 | 1486313079.3744 | pgbench_branches |             8192

 2017-02-05 17:44:40.461622+01 | 1486313080.46162 | pgbench_accounts |       1391050752
 2017-02-05 17:44:40.461622+01 | 1486313080.46162 | pgbench_tellers  |            49152
 2017-02-05 17:44:40.461622+01 | 1486313080.46162 | pgbench_history  |        273506304
 2017-02-05 17:44:40.461622+01 | 1486313080.46162 | pgbench_branches |             8192

 2017-02-05 17:44:41.544869+01 | 1486313081.54487 | pgbench_accounts |       1391050752
 2017-02-05 17:44:41.544869+01 | 1486313081.54487 | pgbench_tellers  |            49152
 2017-02-05 17:44:41.544869+01 | 1486313081.54487 | pgbench_history  |        274374656
 2017-02-05 17:44:41.544869+01 | 1486313081.54487 | pgbench_branches |             8192

 2017-02-05 17:44:42.625492+01 | 1486313082.62549 | pgbench_accounts |       1391050752
 2017-02-05 17:44:42.625492+01 | 1486313082.62549 | pgbench_tellers  |            49152
 2017-02-05 17:44:42.625492+01 | 1486313082.62549 | pgbench_history  |        275218432
 2017-02-05 17:44:42.625492+01 | 1486313082.62549 | pgbench_branches |             8192

 2017-02-05 17:44:43.711349+01 | 1486313083.71135 | pgbench_accounts |       1391050752
 2017-02-05 17:44:43.711349+01 | 1486313083.71135 | pgbench_tellers  |            49152
 2017-02-05 17:44:43.711349+01 | 1486313083.71135 | pgbench_history  |        276471808
 2017-02-05 17:44:43.711349+01 | 1486313083.71135 | pgbench_branches |             8192

 2017-02-05 17:44:44.802085+01 | 1486313084.80208 | pgbench_accounts |       1391050752
 2017-02-05 17:44:44.802085+01 | 1486313084.80208 | pgbench_tellers  |            49152
 2017-02-05 17:44:44.802085+01 | 1486313084.80208 | pgbench_history  |        277340160
 2017-02-05 17:44:44.802085+01 | 1486313084.80208 | pgbench_branches |             8192

 2017-02-05 17:44:45.888831+01 | 1486313085.88883 | pgbench_accounts |       1391050752
 2017-02-05 17:44:45.888831+01 | 1486313085.88883 | pgbench_tellers  |            49152
 2017-02-05 17:44:45.888831+01 | 1486313085.88883 | pgbench_history  |        279224320
 2017-02-05 17:44:45.888831+01 | 1486313085.88883 | pgbench_branches |             8192

 2017-02-05 17:44:46.967291+01 | 1486313086.96729 | pgbench_accounts |       1391050752
 2017-02-05 17:44:46.967291+01 | 1486313086.96729 | pgbench_tellers  |            49152
 2017-02-05 17:44:46.967291+01 | 1486313086.96729 | pgbench_history  |        279748608
 2017-02-05 17:44:46.967291+01 | 1486313086.96729 | pgbench_branches |             8192

 2017-02-05 17:44:48.036392+01 | 1486313088.03639 | pgbench_accounts |       1391050752
 2017-02-05 17:44:48.036392+01 | 1486313088.03639 | pgbench_tellers  |            49152
 2017-02-05 17:44:48.036392+01 | 1486313088.03639 | pgbench_history  |        280756224
 2017-02-05 17:44:48.036392+01 | 1486313088.03639 | pgbench_branches |             8192

 2017-02-05 17:44:49.112701+01 | 1486313089.1127 | pgbench_accounts |       1391050752
 2017-02-05 17:44:49.112701+01 | 1486313089.1127 | pgbench_tellers  |            49152
 2017-02-05 17:44:49.112701+01 | 1486313089.1127 | pgbench_history  |        282312704
 2017-02-05 17:44:49.112701+01 | 1486313089.1127 | pgbench_branches |             8192

 2017-02-05 17:44:50.202935+01 | 1486313090.20293 | pgbench_accounts |       1391050752
 2017-02-05 17:44:50.202935+01 | 1486313090.20293 | pgbench_tellers  |            49152
 2017-02-05 17:44:50.202935+01 | 1486313090.20293 | pgbench_history  |        283025408
 2017-02-05 17:44:50.202935+01 | 1486313090.20293 | pgbench_branches |             8192

 2017-02-05 17:44:51.292352+01 | 1486313091.29235 | pgbench_accounts |       1391050752
 2017-02-05 17:44:51.292352+01 | 1486313091.29235 | pgbench_tellers  |            49152
 2017-02-05 17:44:51.292352+01 | 1486313091.29235 | pgbench_history  |        283959296
 2017-02-05 17:44:51.292352+01 | 1486313091.29235 | pgbench_branches |             8192

 2017-02-05 17:44:52.371524+01 | 1486313092.37152 | pgbench_accounts |       1391050752
 2017-02-05 17:44:52.371524+01 | 1486313092.37152 | pgbench_tellers  |            49152
 2017-02-05 17:44:52.371524+01 | 1486313092.37152 | pgbench_history  |        284884992
 2017-02-05 17:44:52.371524+01 | 1486313092.37152 | pgbench_branches |             8192

 2017-02-05 17:44:53.454062+01 | 1486313093.45406 | pgbench_accounts |       1391050752
 2017-02-05 17:44:53.454062+01 | 1486313093.45406 | pgbench_tellers  |            49152
 2017-02-05 17:44:53.454062+01 | 1486313093.45406 | pgbench_history  |        285999104
 2017-02-05 17:44:53.454062+01 | 1486313093.45406 | pgbench_branches |             8192

 2017-02-05 17:44:54.525806+01 | 1486313094.52581 | pgbench_accounts |       1391050752
 2017-02-05 17:44:54.525806+01 | 1486313094.52581 | pgbench_tellers  |            49152
 2017-02-05 17:44:54.525806+01 | 1486313094.52581 | pgbench_history  |        287080448
 2017-02-05 17:44:54.525806+01 | 1486313094.52581 | pgbench_branches |             8192

 2017-02-05 17:44:55.606085+01 | 1486313095.60609 | pgbench_accounts |       1391050752
 2017-02-05 17:44:55.606085+01 | 1486313095.60609 | pgbench_tellers  |            49152
 2017-02-05 17:44:55.606085+01 | 1486313095.60609 | pgbench_history  |        288145408
 2017-02-05 17:44:55.606085+01 | 1486313095.60609 | pgbench_branches |             8192

 2017-02-05 17:44:56.695975+01 | 1486313096.69598 | pgbench_accounts |       1391050752
 2017-02-05 17:44:56.695975+01 | 1486313096.69598 | pgbench_tellers  |            49152
 2017-02-05 17:44:56.695975+01 | 1486313096.69598 | pgbench_history  |        289218560
 2017-02-05 17:44:56.695975+01 | 1486313096.69598 | pgbench_branches |             8192

 2017-02-05 17:44:57.780483+01 | 1486313097.78048 | pgbench_accounts |       1391050752
 2017-02-05 17:44:57.780483+01 | 1486313097.78048 | pgbench_tellers  |            49152
 2017-02-05 17:44:57.780483+01 | 1486313097.78048 | pgbench_history  |        290078720
 2017-02-05 17:44:57.780483+01 | 1486313097.78048 | pgbench_branches |             8192

 2017-02-05 17:44:58.871095+01 | 1486313098.87109 | pgbench_accounts |       1391050752
 2017-02-05 17:44:58.871095+01 | 1486313098.87109 | pgbench_tellers  |            49152
 2017-02-05 17:44:58.871095+01 | 1486313098.87109 | pgbench_history  |        291381248
 2017-02-05 17:44:58.871095+01 | 1486313098.87109 | pgbench_branches |             8192

 2017-02-05 17:44:59.955359+01 | 1486313099.95536 | pgbench_accounts |       1391050752
 2017-02-05 17:44:59.955359+01 | 1486313099.95536 | pgbench_tellers  |            49152
 2017-02-05 17:44:59.955359+01 | 1486313099.95536 | pgbench_history  |        292585472
 2017-02-05 17:44:59.955359+01 | 1486313099.95536 | pgbench_branches |             8192

 2017-02-05 17:45:01.045906+01 | 1486313101.04591 | pgbench_accounts |       1391050752
 2017-02-05 17:45:01.045906+01 | 1486313101.04591 | pgbench_tellers  |            49152
 2017-02-05 17:45:01.045906+01 | 1486313101.04591 | pgbench_history  |        293478400
 2017-02-05 17:45:01.045906+01 | 1486313101.04591 | pgbench_branches |             8192

 2017-02-05 17:45:02.137202+01 | 1486313102.1372 | pgbench_accounts |       1391050752
 2017-02-05 17:45:02.137202+01 | 1486313102.1372 | pgbench_tellers  |            49152
 2017-02-05 17:45:02.137202+01 | 1486313102.1372 | pgbench_history  |        294363136
 2017-02-05 17:45:02.137202+01 | 1486313102.1372 | pgbench_branches |             8192

 2017-02-05 17:45:03.229653+01 | 1486313103.22965 | pgbench_accounts |       1391050752
 2017-02-05 17:45:03.229653+01 | 1486313103.22965 | pgbench_tellers  |            49152
 2017-02-05 17:45:03.229653+01 | 1486313103.22965 | pgbench_history  |        295600128
 2017-02-05 17:45:03.229653+01 | 1486313103.22965 | pgbench_branches |             8192

 2017-02-05 17:45:04.314236+01 | 1486313104.31424 | pgbench_accounts |       1391050752
 2017-02-05 17:45:04.314236+01 | 1486313104.31424 | pgbench_tellers  |            49152
 2017-02-05 17:45:04.314236+01 | 1486313104.31424 | pgbench_history  |        296796160
 2017-02-05 17:45:04.314236+01 | 1486313104.31424 | pgbench_branches |             8192

