 2017-02-05 17:40:04.152986+01 | 1486312804.15299 | 1B/94B906F0              |          118459270896

 2017-02-05 17:40:05.233338+01 | 1486312805.23334 | 1B/9C5C4210              |          118587408912

 2017-02-05 17:40:06.316613+01 | 1486312806.31661 | 1B/A3875BE0              |          118707674080

 2017-02-05 17:40:07.406026+01 | 1486312807.40603 | 1B/A92AFEE8              |          118802284264

 2017-02-05 17:40:08.476983+01 | 1486312808.47698 | 1B/AD257AC8              |          118869031624

 2017-02-05 17:40:09.552984+01 | 1486312809.55298 | 1B/B025F7C8              |          118919395272

 2017-02-05 17:40:10.642164+01 | 1486312810.64216 | 1B/B2A19AF8              |          118961052408

 2017-02-05 17:40:11.720281+01 | 1486312811.72028 | 1B/B4AC6250              |          118995313232

 2017-02-05 17:40:12.794253+01 | 1486312812.79425 | 1B/B67AE1F0              |          119025623536

 2017-02-05 17:40:13.871171+01 | 1486312813.87117 | 1B/B80004A0              |          119051125920

 2017-02-05 17:40:14.944487+01 | 1486312814.94449 | 1B/B95FB9C0              |          119074175424

 2017-02-05 17:40:16.032422+01 | 1486312816.03242 | 1B/BAA17628              |          119095260712

 2017-02-05 17:40:17.112187+01 | 1486312817.11219 | 1B/BBC98E88              |          119114665608

 2017-02-05 17:40:18.205973+01 | 1486312818.20597 | 1B/BCE59FC0              |          119133282240

 2017-02-05 17:40:19.289988+01 | 1486312819.28999 | 1B/BDE65E48              |          119150108232

 2017-02-05 17:40:20.38387+01 | 1486312820.38387 | 1B/BEDB15F8              |          119166146040

 2017-02-05 17:40:21.464626+01 | 1486312821.46463 | 1B/BFC3D930              |          119181400368

 2017-02-05 17:40:22.547365+01 | 1486312822.54736 | 1B/C0AAB720              |          119196530464

 2017-02-05 17:40:23.639585+01 | 1486312823.63959 | 1B/C192B040              |          119211733056

 2017-02-05 17:40:24.731524+01 | 1486312824.73152 | 1B/C2605F58              |          119225212760

 2017-02-05 17:40:25.806624+01 | 1486312825.80662 | 1B/C3350BF8              |          119239150584

 2017-02-05 17:40:26.896927+01 | 1486312826.89693 | 1B/C40B2900              |          119253182720

 2017-02-05 17:40:27.97245+01 | 1486312827.97245 | 1B/C4C6C6B0              |          119265478320

 2017-02-05 17:40:29.051454+01 | 1486312829.05145 | 1B/C58B9278              |          119278375544

 2017-02-05 17:40:30.145442+01 | 1486312830.14544 | 1B/C65069A0              |          119291275680

 2017-02-05 17:40:31.23307+01 | 1486312831.23307 | 1B/C70D7B30              |          119303666480

 2017-02-05 17:40:32.322561+01 | 1486312832.32256 | 1B/C7C26B40              |          119315524416

 2017-02-05 17:40:33.407585+01 | 1486312833.40758 | 1B/C87BE468              |          119327679592

 2017-02-05 17:40:34.494882+01 | 1486312834.49488 | 1B/C9285138              |          119338979640

 2017-02-05 17:40:35.581786+01 | 1486312835.58179 | 1B/C9C8F6D0              |          119349507792

 2017-02-05 17:40:36.66251+01 | 1486312836.66251 | 1B/CA6BC430              |          119360177200

 2017-02-05 17:40:37.751274+01 | 1486312837.75127 | 1B/CB109FB8              |          119370981304

 2017-02-05 17:40:38.83455+01 | 1486312838.83455 | 1B/CBC47728              |          119382767400

 2017-02-05 17:40:39.918383+01 | 1486312839.91838 | 1B/CC7E4B18              |          119394945816

 2017-02-05 17:40:40.991958+01 | 1486312840.99196 | 1B/CD797A18              |          119411407504

 2017-02-05 17:40:42.070805+01 | 1486312842.07081 | 1B/CEDB8CE0              |          119434611936

 2017-02-05 17:40:43.153693+01 | 1486312843.15369 | 1B/D0533F90              |          119459233680

 2017-02-05 17:40:44.244962+01 | 1486312844.24496 | 1B/D1CB77D8              |          119483889624

 2017-02-05 17:40:45.322451+01 | 1486312845.32245 | 1B/D3386DB8              |          119507807672

 2017-02-05 17:40:46.391849+01 | 1486312846.39185 | 1B/D4A00208              |          119531373064

 2017-02-05 17:40:47.465125+01 | 1486312847.46513 | 1B/D60AE668              |          119555155560

 2017-02-05 17:40:48.550152+01 | 1486312848.55015 | 1B/D770FF70              |          119578623856

 2017-02-05 17:40:49.645947+01 | 1486312849.64595 | 1B/D8D9E910              |          119602276624

 2017-02-05 17:40:50.731106+01 | 1486312850.73111 | 1B/DA3291B8              |          119624864184

 2017-02-05 17:40:51.823562+01 | 1486312851.82356 | 1B/DB833818              |          119646926872

 2017-02-05 17:40:52.90258+01 | 1486312852.90258 | 1B/DCB3CD00              |          119666887936

 2017-02-05 17:40:53.994385+01 | 1486312853.99439 | 1B/DDB68B78              |          119683844984

 2017-02-05 17:40:55.080361+01 | 1486312855.08036 | 1B/DE7C3A08              |          119696800264

 2017-02-05 17:40:56.15625+01 | 1486312856.15625 | 1B/DFF171B8              |          119721259448

 2017-02-05 17:40:57.243174+01 | 1486312857.24317 | 1B/E1512620              |          119744308768

 2017-02-05 17:40:58.323794+01 | 1486312858.32379 | 1B/E24DE070              |          119760871536

 2017-02-05 17:40:59.405075+01 | 1486312859.40508 | 1B/E2BF55C8              |          119768307144

 2017-02-05 17:41:00.496891+01 | 1486312860.49689 | 1B/E33A87F8              |          119776380920

 2017-02-05 17:41:01.584654+01 | 1486312861.58465 | 1B/E39E3158              |          119782912344

 2017-02-05 17:41:02.654281+01 | 1486312862.65428 | 1B/E3FA9958              |          119788968280

 2017-02-05 17:41:03.734032+01 | 1486312863.73403 | 1B/E45625C8              |          119794968008

 2017-02-05 17:41:04.819618+01 | 1486312864.81962 | 1B/E4B425A0              |          119801128352

 2017-02-05 17:41:05.908738+01 | 1486312865.90874 | 1B/E50F1BB0              |          119807089584

 2017-02-05 17:41:06.994735+01 | 1486312866.99474 | 1B/E56A5938              |          119813069112

 2017-02-05 17:41:08.082708+01 | 1486312868.08271 | 1B/E5C99C68              |          119819312232

 2017-02-05 17:41:09.151905+01 | 1486312869.15191 | 1B/E626B4F0              |          119825413360

 2017-02-05 17:41:10.244932+01 | 1486312870.24493 | 1B/E68736B0              |          119831738032

 2017-02-05 17:41:11.329822+01 | 1486312871.32982 | 1B/E6DE0918              |          119837427992

 2017-02-05 17:41:12.408418+01 | 1486312872.40842 | 1B/E73C9C18              |          119843626008

 2017-02-05 17:41:13.491201+01 | 1486312873.4912 | 1B/E79AFDA0              |          119849811360

 2017-02-05 17:41:14.581494+01 | 1486312874.58149 | 1B/E7F8B7C0              |          119855953856

 2017-02-05 17:41:15.67382+01 | 1486312875.67382 | 1B/E8560F60              |          119862071136

 2017-02-05 17:41:16.750127+01 | 1486312876.75013 | 1B/E8B02410              |          119867974672

 2017-02-05 17:41:17.838933+01 | 1486312877.83893 | 1B/E90EC7F8              |          119874177016

 2017-02-05 17:41:18.932964+01 | 1486312878.93296 | 1B/E96F7860              |          119880513632

 2017-02-05 17:41:20.013961+01 | 1486312880.01396 | 1B/E9CBD3B8              |          119886566328

 2017-02-05 17:41:21.095919+01 | 1486312881.09592 | 1B/EA259580              |          119892448640

 2017-02-05 17:41:22.16817+01 | 1486312882.16817 | 1B/EA80D2B0              |          119898428080

 2017-02-05 17:41:23.246517+01 | 1486312883.24652 | 1B/EADDDC88              |          119904525448

 2017-02-05 17:41:24.321112+01 | 1486312884.32111 | 1B/EB36D7B8              |          119910356920

 2017-02-05 17:41:25.407016+01 | 1486312885.40702 | 1B/EB9494E0              |          119916500192

 2017-02-05 17:41:26.491366+01 | 1486312886.49137 | 1B/EBEEA748              |          119922403144

 2017-02-05 17:41:27.565588+01 | 1486312887.56559 | 1B/EC4854D0              |          119928280272

 2017-02-05 17:41:28.649573+01 | 1486312888.64957 | 1B/ECA2F618              |          119934219800

 2017-02-05 17:41:29.734638+01 | 1486312889.73464 | 1B/ECFD05A0              |          119940122016

 2017-02-05 17:41:30.813852+01 | 1486312890.81385 | 1B/ED559F78              |          119945928568

 2017-02-05 17:41:31.894475+01 | 1486312891.89447 | 1B/EDB433E0              |          119952126944

 2017-02-05 17:41:32.96451+01 | 1486312892.96451 | 1B/EE0E49A8              |          119958030760

 2017-02-05 17:41:34.036612+01 | 1486312894.03661 | 1B/EE6932D8              |          119963988696

 2017-02-05 17:41:35.124236+01 | 1486312895.12424 | 1B/EEC5AED8              |          119970049752

 2017-02-05 17:41:36.207645+01 | 1486312896.20764 | 1B/EF1E5740              |          119975860032

 2017-02-05 17:41:37.288895+01 | 1486312897.28889 | 1B/EF724FE0              |          119981363168

 2017-02-05 17:41:38.365432+01 | 1486312898.36543 | 1B/EFD857A8              |          119988049832

 2017-02-05 17:41:39.445588+01 | 1486312899.44559 | 1B/F0450780              |          119995172736

 2017-02-05 17:41:40.536813+01 | 1486312900.53681 | 1B/F0B15640              |          120002270784

 2017-02-05 17:41:41.631954+01 | 1486312901.63195 | 1B/F1256BD8              |          120009878488

 2017-02-05 17:41:42.705744+01 | 1486312902.70574 | 1B/F1A38C20              |          120018144288

 2017-02-05 17:41:43.794517+01 | 1486312903.79452 | 1B/F246BAF0              |          120028838640

 2017-02-05 17:41:44.879634+01 | 1486312904.87963 | 1B/F2E03DB0              |          120038899120

 2017-02-05 17:41:45.961116+01 | 1486312905.96112 | 1B/F36376E0              |          120047498976

 2017-02-05 17:41:47.046018+01 | 1486312907.04602 | 1B/F3B8BB30              |          120053087024

 2017-02-05 17:41:48.123629+01 | 1486312908.12363 | 1B/F40E7CA0              |          120058707104

 2017-02-05 17:41:49.188679+01 | 1486312909.18868 | 1B/F45F1010              |          120063987728

 2017-02-05 17:41:50.26574+01 | 1486312910.26574 | 1B/F4B35858              |          120069511256

 2017-02-05 17:41:51.349812+01 | 1486312911.34981 | 1B/F5058F30              |          120074899248

 2017-02-05 17:41:52.433421+01 | 1486312912.43342 | 1B/F55C8520              |          120080598304

 2017-02-05 17:41:53.515678+01 | 1486312913.51568 | 1B/F5AEF508              |          120086000904

 2017-02-05 17:41:54.597251+01 | 1486312914.59725 | 1B/F6004240              |          120091329088

 2017-02-05 17:41:55.673705+01 | 1486312915.67371 | 1B/F65087F8              |          120096589816

 2017-02-05 17:41:56.751287+01 | 1486312916.75129 | 1B/F6A41DA0              |          120102067616

 2017-02-05 17:41:57.831612+01 | 1486312917.83161 | 1B/F6F572E8              |          120107397864

 2017-02-05 17:41:58.912103+01 | 1486312918.9121 | 1B/F745E728              |          120112670504

 2017-02-05 17:42:00.004197+01 | 1486312920.0042 | 1B/F798B498              |          120118097048

 2017-02-05 17:42:01.094982+01 | 1486312921.09498 | 1B/F7EC3A18              |          120123570712

 2017-02-05 17:42:02.170936+01 | 1486312922.17094 | 1B/F83C9688              |          120128837256

 2017-02-05 17:42:03.248004+01 | 1486312923.248 | 1B/F88D6BA8              |          120134134696

 2017-02-05 17:42:04.330502+01 | 1486312924.3305 | 1B/F8E04DD8              |          120139566552

 2017-02-05 17:42:05.415765+01 | 1486312925.41577 | 1B/F931E118              |          120144912664

 2017-02-05 17:42:06.502674+01 | 1486312926.50267 | 1B/F981F6E0              |          120150161120

 2017-02-05 17:42:07.588075+01 | 1486312927.58807 | 1B/F9D3D3D8              |          120155526104

 2017-02-05 17:42:08.667785+01 | 1486312928.66778 | 1B/FA223B50              |          120160664400

 2017-02-05 17:42:09.751886+01 | 1486312929.75189 | 1B/FA72B738              |          120165939000

 2017-02-05 17:42:10.829262+01 | 1486312930.82926 | 1B/FAC4D598              |          120171320728

 2017-02-05 17:42:11.914519+01 | 1486312931.91452 | 1B/FB1828C0              |          120176781504

 2017-02-05 17:42:12.994155+01 | 1486312932.99415 | 1B/FB6D9970              |          120182380912

 2017-02-05 17:42:14.083801+01 | 1486312934.0838 | 1B/FBBED8B8              |          120187705528

 2017-02-05 17:42:15.172517+01 | 1486312935.17252 | 1B/FC105C08              |          120193047560

 2017-02-05 17:42:16.253987+01 | 1486312936.25399 | 1B/FC638800              |          120198498304

 2017-02-05 17:42:17.330946+01 | 1486312937.33095 | 1B/FCB10378              |          120203576184

 2017-02-05 17:42:18.410797+01 | 1486312938.4108 | 1B/FD027410              |          120208913424

 2017-02-05 17:42:19.496336+01 | 1486312939.49634 | 1B/FD546A00              |          120214284800

 2017-02-05 17:42:20.572115+01 | 1486312940.57211 | 1B/FDA8A960              |          120219806048

 2017-02-05 17:42:21.642822+01 | 1486312941.64282 | 1B/FDFBEC58              |          120225262680

 2017-02-05 17:42:22.729974+01 | 1486312942.72997 | 1B/FE4F11A8              |          120230711720

 2017-02-05 17:42:23.809251+01 | 1486312943.80925 | 1B/FEA28038              |          120236179512

 2017-02-05 17:42:24.900682+01 | 1486312944.90068 | 1B/FEF463F8              |          120241546232

 2017-02-05 17:42:25.986113+01 | 1486312945.98611 | 1B/FF47FD90              |          120247025040

 2017-02-05 17:42:27.068819+01 | 1486312947.06882 | 1B/FF9AC228              |          120252449320

 2017-02-05 17:42:28.150089+01 | 1486312948.15009 | 1B/FFED5F88              |          120257863560

 2017-02-05 17:42:29.224109+01 | 1486312949.22411 | 1C/3F4EC0                |          120263233216

 2017-02-05 17:42:30.314352+01 | 1486312950.31435 | 1C/945E90                |          120268807824

 2017-02-05 17:42:31.398244+01 | 1486312951.39824 | 1C/E89698                |          120274327192

 2017-02-05 17:42:32.47026+01 | 1486312952.47026 | 1C/13AC780               |          120279713664

 2017-02-05 17:42:33.553406+01 | 1486312953.55341 | 1C/18DE6B0               |          120285161136

 2017-02-05 17:42:34.642953+01 | 1486312954.64295 | 1C/1E03B30               |          120290556720

 2017-02-05 17:42:35.722772+01 | 1486312955.72277 | 1C/235A720               |          120296154912

 2017-02-05 17:42:36.798738+01 | 1486312956.79874 | 1C/2858F18               |          120301391640

 2017-02-05 17:42:37.887895+01 | 1486312957.8879 | 1C/2D67058               |          120306692184

 2017-02-05 17:42:38.966085+01 | 1486312958.96608 | 1C/32D4FF0               |          120312385520

 2017-02-05 17:42:40.031624+01 | 1486312960.03162 | 1C/37F5D80               |          120317762944

 2017-02-05 17:42:41.112799+01 | 1486312961.1128 | 1C/3D45FD8               |          120323334104

 2017-02-05 17:42:42.19686+01 | 1486312962.19686 | 1C/4294868               |          120328898664

 2017-02-05 17:42:43.27753+01 | 1486312963.27753 | 1C/47CD548               |          120334374216

 2017-02-05 17:42:44.369689+01 | 1486312964.36969 | 1C/4D0F260               |          120339886688

 2017-02-05 17:42:45.448564+01 | 1486312965.44856 | 1C/5262838               |          120345471032

 2017-02-05 17:42:46.538254+01 | 1486312966.53825 | 1C/57D7510               |          120351192336

 2017-02-05 17:42:47.630717+01 | 1486312967.63072 | 1C/5CF03E0               |          120356537312

 2017-02-05 17:42:48.7091+01 | 1486312968.7091 | 1C/621E420               |          120361968672

 2017-02-05 17:42:49.789013+01 | 1486312969.78901 | 1C/67707B0               |          120367548336

 2017-02-05 17:42:50.872967+01 | 1486312970.87297 | 1C/6CA7640               |          120373016128

 2017-02-05 17:42:51.964599+01 | 1486312971.9646 | 1C/7204738               |          120378640184

 2017-02-05 17:42:53.048984+01 | 1486312973.04898 | 1C/773EA00               |          120384121344

 2017-02-05 17:42:54.141862+01 | 1486312974.14186 | 1C/7C7F640               |          120389629504

 2017-02-05 17:42:55.223207+01 | 1486312975.22321 | 1C/81B2788               |          120395081608

 2017-02-05 17:42:56.311564+01 | 1486312976.31156 | 1C/86CAA00               |          120400423424

 2017-02-05 17:42:57.40754+01 | 1486312977.40754 | 1C/8C1B470               |          120405996656

 2017-02-05 17:42:58.485886+01 | 1486312978.48589 | 1C/9156ED8               |          120411483864

 2017-02-05 17:42:59.567939+01 | 1486312979.56794 | 1C/96C1EF8               |          120417165048

 2017-02-05 17:43:00.658689+01 | 1486312980.65869 | 1C/9BFDA88               |          120422652552

 2017-02-05 17:43:01.737084+01 | 1486312981.73708 | 1C/A0EDA68               |          120427829864

 2017-02-05 17:43:02.825485+01 | 1486312982.82548 | 1C/A645190               |          120433430928

 2017-02-05 17:43:03.902274+01 | 1486312983.90227 | 1C/AB28640               |          120438556224

 2017-02-05 17:43:04.985969+01 | 1486312984.98597 | 1C/B0668A0               |          120444053664

 2017-02-05 17:43:06.065065+01 | 1486312986.06506 | 1C/B58A7D0               |          120449443792

 2017-02-05 17:43:07.142944+01 | 1486312987.14294 | 1C/BA8F948               |          120454707528

 2017-02-05 17:43:08.215353+01 | 1486312988.21535 | 1C/BFB9818               |          120460122136

 2017-02-05 17:43:09.296829+01 | 1486312989.29683 | 1C/C4E9438               |          120465560632

 2017-02-05 17:43:10.388971+01 | 1486312990.38897 | 1C/CA00058               |          120470896728

 2017-02-05 17:43:11.472069+01 | 1486312991.47207 | 1C/CEF2890               |          120476084368

 2017-02-05 17:43:12.551441+01 | 1486312992.55144 | 1C/D42ACE0               |          120481557728

 2017-02-05 17:43:13.640593+01 | 1486312993.64059 | 1C/D9780F0               |          120487117040

 2017-02-05 17:43:14.726618+01 | 1486312994.72662 | 1C/DED0C68               |          120492723304

 2017-02-05 17:43:15.81017+01 | 1486312995.81017 | 1C/E423C88               |          120498306184

 2017-02-05 17:43:16.891756+01 | 1486312996.89176 | 1C/E92C1C8               |          120503583176

 2017-02-05 17:43:17.990071+01 | 1486312997.99007 | 1C/EE12D98               |          120508722584

 2017-02-05 17:43:19.075936+01 | 1486312999.07594 | 1C/F33DD38               |          120514141496

 2017-02-05 17:43:20.154318+01 | 1486313000.15432 | 1C/F8923A0               |          120519730080

 2017-02-05 17:43:21.225691+01 | 1486313001.22569 | 1C/FDE4210               |          120525308432

 2017-02-05 17:43:22.308045+01 | 1486313002.30804 | 1C/102D7F48              |          120530501448

 2017-02-05 17:43:23.391298+01 | 1486313003.3913 | 1C/108268F0              |          120536066288

 2017-02-05 17:43:24.482585+01 | 1486313004.48258 | 1C/10D60480              |          120541545600

 2017-02-05 17:43:25.5638+01 | 1486313005.5638 | 1C/11254ED0              |          120546741968

 2017-02-05 17:43:26.653566+01 | 1486313006.65357 | 1C/117C3D98              |          120552439192

 2017-02-05 17:43:27.737386+01 | 1486313007.73739 | 1C/11CD63A0              |          120557757344

 2017-02-05 17:43:28.823333+01 | 1486313008.82333 | 1C/121FD790              |          120563160976

 2017-02-05 17:43:29.917295+01 | 1486313009.91729 | 1C/12779F00              |          120568913664

 2017-02-05 17:43:31.007486+01 | 1486313011.00749 | 1C/12C66700              |          120574076672

 2017-02-05 17:43:32.091773+01 | 1486313012.09177 | 1C/1319BF98              |          120579538840

 2017-02-05 17:43:33.181386+01 | 1486313013.18139 | 1C/136E41F8              |          120585077240

 2017-02-05 17:43:34.262881+01 | 1486313014.26288 | 1C/13C40C98              |          120590699672

 2017-02-05 17:43:35.350031+01 | 1486313015.35003 | 1C/1413A540              |          120595916096

 2017-02-05 17:43:36.443104+01 | 1486313016.4431 | 1C/14630168              |          120601117032

 2017-02-05 17:43:37.525989+01 | 1486313017.52599 | 1C/14B658C8              |          120606578888

 2017-02-05 17:43:38.60693+01 | 1486313018.60693 | 1C/151DE180              |          120613364096

 2017-02-05 17:43:39.686831+01 | 1486313019.68683 | 1C/15879820              |          120620292128

 2017-02-05 17:43:40.77191+01 | 1486313020.77191 | 1C/15F34C38              |          120627350584

 2017-02-05 17:43:41.854574+01 | 1486313021.85457 | 1C/166DE328              |          120635384616

 2017-02-05 17:43:42.93522+01 | 1486313022.93522 | 1C/16EA40A0              |          120643535008

 2017-02-05 17:43:44.021999+01 | 1486313024.022 | 1C/178C9E98              |          120654175896

 2017-02-05 17:43:45.098618+01 | 1486313025.09862 | 1C/1840E3B8              |          120665990072

 2017-02-05 17:43:46.180151+01 | 1486313026.18015 | 1C/18E87688              |          120676972168

 2017-02-05 17:43:47.249626+01 | 1486313027.24963 | 1C/19547698              |          120684050072

 2017-02-05 17:43:48.322706+01 | 1486313028.32271 | 1C/19A6B5F0              |          120689440240

 2017-02-05 17:43:49.392867+01 | 1486313029.39287 | 1C/1A01DA78              |          120695413368

 2017-02-05 17:43:50.480417+01 | 1486313030.48042 | 1C/1A584118              |          120701075736

 2017-02-05 17:43:51.552401+01 | 1486313031.5524 | 1C/1AA780C0              |          120706269376

 2017-02-05 17:43:52.644738+01 | 1486313032.64474 | 1C/1AF938E8              |          120711624936

 2017-02-05 17:43:53.737769+01 | 1486313033.73777 | 1C/1B4E2D98              |          120717192600

 2017-02-05 17:43:54.815049+01 | 1486313034.81505 | 1C/1BA11108              |          120722624776

 2017-02-05 17:43:55.899811+01 | 1486313035.89981 | 1C/1BF65238              |          120728212024

 2017-02-05 17:43:56.976921+01 | 1486313036.97692 | 1C/1C4DC688              |          120733943432

 2017-02-05 17:43:58.058236+01 | 1486313038.05824 | 1C/1C9F3D18              |          120739282200

 2017-02-05 17:43:59.147941+01 | 1486313039.14794 | 1C/1CF5D030              |          120744955952

 2017-02-05 17:44:00.235149+01 | 1486313040.23515 | 1C/1D4ADDF8              |          120750530040

 2017-02-05 17:44:01.316079+01 | 1486313041.31608 | 1C/1D9EDF18              |          120756035352

 2017-02-05 17:44:02.409059+01 | 1486313042.40906 | 1C/1DF35CA0              |          120761572512

 2017-02-05 17:44:03.497876+01 | 1486313043.49788 | 1C/1E4587C0              |          120766957504

 2017-02-05 17:44:04.574753+01 | 1486313044.57475 | 1C/1E976738              |          120772323128

 2017-02-05 17:44:05.661722+01 | 1486313045.66172 | 1C/1EED5578              |          120777954680

 2017-02-05 17:44:06.738089+01 | 1486313046.73809 | 1C/1F455368              |          120783721320

 2017-02-05 17:44:07.822197+01 | 1486313047.8222 | 1C/1F9ADE20              |          120789327392

 2017-02-05 17:44:08.900957+01 | 1486313048.90096 | 1C/1FF2F3D0              |          120795100112

 2017-02-05 17:44:09.997954+01 | 1486313049.99795 | 1C/2048B708              |          120800720648

 2017-02-05 17:44:11.080913+01 | 1486313051.08091 | 1C/209BEB48              |          120806173512

 2017-02-05 17:44:12.173083+01 | 1486313052.17308 | 1C/20EC7B10              |          120811453200

 2017-02-05 17:44:13.266165+01 | 1486313053.26617 | 1C/2144F7C8              |          120817252296

 2017-02-05 17:44:14.347951+01 | 1486313054.34795 | 1C/21981A70              |          120822700656

 2017-02-05 17:44:15.443467+01 | 1486313055.44347 | 1C/21F13E58              |          120828542552

 2017-02-05 17:44:16.527467+01 | 1486313056.52747 | 1C/224A6668              |          120834385512

 2017-02-05 17:44:17.620139+01 | 1486313057.62014 | 1C/229E8598              |          120839898520

 2017-02-05 17:44:18.703045+01 | 1486313058.70304 | 1C/22F02FB8              |          120845250488

 2017-02-05 17:44:19.784755+01 | 1486313059.78475 | 1C/23488A08              |          120851040776

 2017-02-05 17:44:20.872187+01 | 1486313060.87219 | 1C/23994220              |          120856330784

 2017-02-05 17:44:21.952022+01 | 1486313061.95202 | 1C/23EAC648              |          120861673032

 2017-02-05 17:44:23.030471+01 | 1486313063.03047 | 1C/243C1160              |          120867000672

 2017-02-05 17:44:24.108491+01 | 1486313064.10849 | 1C/2492C570              |          120872682864

 2017-02-05 17:44:25.206944+01 | 1486313065.20694 | 1C/24EA8418              |          120878433304

 2017-02-05 17:44:26.298199+01 | 1486313066.2982 | 1C/2543FE68              |          120884297320

 2017-02-05 17:44:27.38958+01 | 1486313067.38958 | 1C/259D18E0              |          120890136800

 2017-02-05 17:44:28.476485+01 | 1486313068.47649 | 1C/25F1AB68              |          120895679336

 2017-02-05 17:44:29.56117+01 | 1486313069.56117 | 1C/2647D610              |          120901326352

 2017-02-05 17:44:30.649489+01 | 1486313070.64949 | 1C/269CA810              |          120906885136

 2017-02-05 17:44:31.734129+01 | 1486313071.73413 | 1C/26F1E938              |          120912472376

 2017-02-05 17:44:32.814922+01 | 1486313072.81492 | 1C/2744EFE8              |          120917913576

 2017-02-05 17:44:33.895659+01 | 1486313073.89566 | 1C/279A6708              |          120923514632

 2017-02-05 17:44:34.989367+01 | 1486313074.98937 | 1C/27F1C9B0              |          120929241520

 2017-02-05 17:44:36.078264+01 | 1486313076.07826 | 1C/28485E78              |          120934915704

 2017-02-05 17:44:37.164125+01 | 1486313077.16412 | 1C/289A8960              |          120940300640

 2017-02-05 17:44:38.244422+01 | 1486313078.24442 | 1C/28F389B8              |          120946133432

 2017-02-05 17:44:39.317618+01 | 1486313079.31762 | 1C/295CC0B8              |          120953028792

 2017-02-05 17:44:40.410127+01 | 1486313080.41013 | 1C/29C46430              |          120959820848

 2017-02-05 17:44:41.494408+01 | 1486313081.49441 | 1C/2A30C750              |          120966924112

 2017-02-05 17:44:42.579584+01 | 1486313082.57958 | 1C/2AA02D98              |          120974224792

 2017-02-05 17:44:43.654311+01 | 1486313083.65431 | 1C/2B09F0F8              |          120981156088

 2017-02-05 17:44:44.749233+01 | 1486313084.74923 | 1C/2B897B18              |          120989514520

 2017-02-05 17:44:45.838388+01 | 1486313085.83839 | 1C/2C097B90              |          120997903248

 2017-02-05 17:44:46.919512+01 | 1486313086.91951 | 1C/2C671CD0              |          121004039376

 2017-02-05 17:44:47.99031+01 | 1486313087.99031 | 1C/2CBC6848              |          121009629256

 2017-02-05 17:44:49.070352+01 | 1486313089.07035 | 1C/2D102DC0              |          121015119296

 2017-02-05 17:44:50.150185+01 | 1486313090.15019 | 1C/2D654C48              |          121020697672

 2017-02-05 17:44:51.238784+01 | 1486313091.23878 | 1C/2DB90BE0              |          121026186208

 2017-02-05 17:44:52.322543+01 | 1486313092.32254 | 1C/2E09C110              |          121031475472

 2017-02-05 17:44:53.406934+01 | 1486313093.40693 | 1C/2E5C3488              |          121036878984

 2017-02-05 17:44:54.479367+01 | 1486313094.47937 | 1C/2EAAE3A8              |          121042035624

 2017-02-05 17:44:55.555967+01 | 1486313095.55597 | 1C/2EFE2690              |          121047492240

 2017-02-05 17:44:56.642964+01 | 1486313096.64296 | 1C/2F4D2C48              |          121052671048

 2017-02-05 17:44:57.732809+01 | 1486313097.73281 | 1C/2F9CECC8              |          121057897672

 2017-02-05 17:44:58.817572+01 | 1486313098.81757 | 1C/2FEECC88              |          121063263368

 2017-02-05 17:44:59.90544+01 | 1486313099.90544 | 1C/30403FF0              |          121068601328

 2017-02-05 17:45:00.991236+01 | 1486313100.99124 | 1C/30925E98              |          121073983128

 2017-02-05 17:45:02.080517+01 | 1486313102.08052 | 1C/30E68930              |          121079499056

 2017-02-05 17:45:03.173981+01 | 1486313103.17398 | 1C/313AA358              |          121085010776

 2017-02-05 17:45:04.265232+01 | 1486313104.26523 | 1C/318CB290              |          121090388624

