 2017-02-04 22:07:54.870927+01 | 1486242474.87093 |                 0 |              24 |                229681 |                 4740 |           20932975 |       2069048 |            18628 |        11803353 |                     0 |       7565493 | 2017-02-04 20:04:48.025022+01

 2017-02-04 22:07:55.960983+01 | 1486242475.96098 |                 0 |              24 |                229681 |                 4740 |           20932975 |       2069048 |            18628 |        11803353 |                     0 |       7566849 | 2017-02-04 20:04:48.025022+01

 2017-02-04 22:07:57.039269+01 | 1486242477.03927 |                 0 |              24 |                229681 |                 4740 |           20932975 |       2069048 |            18628 |        11803353 |                     0 |       7567839 | 2017-02-04 20:04:48.025022+01

 2017-02-04 22:07:58.118397+01 | 1486242478.1184 |                 0 |              24 |                229681 |                 4740 |           20932975 |       2069048 |            18628 |        11803353 |                     0 |       7568870 | 2017-02-04 20:04:48.025022+01

 2017-02-04 22:07:59.201718+01 | 1486242479.20172 |                 0 |              24 |                229681 |                 4740 |           20932975 |       2069048 |            18628 |        11803353 |                     0 |       7570406 | 2017-02-04 20:04:48.025022+01

 2017-02-04 22:08:00.281125+01 | 1486242480.28113 |                 0 |              24 |                229681 |                 4740 |           20932975 |       2069048 |            18628 |        11803353 |                     0 |       7571647 | 2017-02-04 20:04:48.025022+01

 2017-02-04 22:08:01.36213+01 | 1486242481.36213 |                 0 |              24 |                229681 |                 4740 |           20932975 |       2069048 |            18628 |        11803353 |                     0 |       7573356 | 2017-02-04 20:04:48.025022+01

 2017-02-04 22:08:02.446753+01 | 1486242482.44675 |                 0 |              24 |                229681 |                 4740 |           20932975 |       2069048 |            18628 |        11803353 |                     0 |       7574735 | 2017-02-04 20:04:48.025022+01

 2017-02-04 22:08:03.525068+01 | 1486242483.52507 |                 0 |              24 |                229681 |                 4740 |           20932975 |       2069048 |            18628 |        11803353 |                     0 |       7576126 | 2017-02-04 20:04:48.025022+01

 2017-02-04 22:08:04.608222+01 | 1486242484.60822 |                 0 |              24 |                229681 |                 4740 |           20932975 |       2069048 |            18628 |        11803353 |                     0 |       7577729 | 2017-02-04 20:04:48.025022+01

 2017-02-04 22:08:05.681944+01 | 1486242485.68194 |                 0 |              24 |                229681 |                 4740 |           20932975 |       2069048 |            18628 |        11803353 |                     0 |       7579192 | 2017-02-04 20:04:48.025022+01

 2017-02-04 22:08:06.766611+01 | 1486242486.76661 |                 0 |              24 |                229681 |                 4740 |           20932975 |       2069048 |            18628 |        11803353 |                     0 |       7580821 | 2017-02-04 20:04:48.025022+01

 2017-02-04 22:08:07.843956+01 | 1486242487.84396 |                 0 |              24 |                229681 |                 4740 |           20932975 |       2069048 |            18628 |        11803353 |                     0 |       7582251 | 2017-02-04 20:04:48.025022+01

 2017-02-04 22:08:08.925864+01 | 1486242488.92586 |                 0 |              24 |                229681 |                 4740 |           20932975 |       2069048 |            18628 |        11803353 |                     0 |       7583545 | 2017-02-04 20:04:48.025022+01

 2017-02-04 22:08:10.009019+01 | 1486242490.00902 |                 0 |              24 |                229681 |                 4740 |           20932975 |       2069048 |            18628 |        11803353 |                     0 |       7585188 | 2017-02-04 20:04:48.025022+01

 2017-02-04 22:08:11.0918+01 | 1486242491.0918 |                 0 |              24 |                229681 |                 4740 |           20932975 |       2069048 |            18628 |        11803353 |                     0 |       7586571 | 2017-02-04 20:04:48.025022+01

 2017-02-04 22:08:12.170311+01 | 1486242492.17031 |                 0 |              24 |                229681 |                 4740 |           20932975 |       2069048 |            18628 |        11803353 |                     0 |       7588148 | 2017-02-04 20:04:48.025022+01

 2017-02-04 22:08:13.243249+01 | 1486242493.24325 |                 0 |              24 |                229681 |                 4740 |           20932975 |       2069048 |            18628 |        11803353 |                     0 |       7589450 | 2017-02-04 20:04:48.025022+01

 2017-02-04 22:08:14.327225+01 | 1486242494.32722 |                 0 |              24 |                229681 |                 4740 |           20932975 |       2069048 |            18628 |        11803353 |                     0 |       7590848 | 2017-02-04 20:04:48.025022+01

 2017-02-04 22:08:15.409829+01 | 1486242495.40983 |                 0 |              24 |                229681 |                 4740 |           20932975 |       2069048 |            18628 |        11803353 |                     0 |       7592173 | 2017-02-04 20:04:48.025022+01

 2017-02-04 22:08:16.487046+01 | 1486242496.48705 |                 0 |              24 |                229681 |                 4740 |           20932975 |       2069048 |            18628 |        11803353 |                     0 |       7593439 | 2017-02-04 20:04:48.025022+01

 2017-02-04 22:08:17.564194+01 | 1486242497.56419 |                 0 |              24 |                229681 |                 4740 |           20932975 |       2069048 |            18628 |        11803353 |                     0 |       7595106 | 2017-02-04 20:04:48.025022+01

 2017-02-04 22:08:18.642508+01 | 1486242498.64251 |                 0 |              24 |                229681 |                 4740 |           20932975 |       2069048 |            18628 |        11803353 |                     0 |       7596349 | 2017-02-04 20:04:48.025022+01

 2017-02-04 22:08:19.720487+01 | 1486242499.72049 |                 0 |              24 |                229681 |                 4740 |           20932975 |       2069048 |            18628 |        11803353 |                     0 |       7597687 | 2017-02-04 20:04:48.025022+01

 2017-02-04 22:08:20.801181+01 | 1486242500.80118 |                 0 |              24 |                229681 |                 4740 |           20932975 |       2069048 |            18628 |        11803353 |                     0 |       7599562 | 2017-02-04 20:04:48.025022+01

 2017-02-04 22:08:21.878639+01 | 1486242501.87864 |                 0 |              24 |                229681 |                 4740 |           20932975 |       2069048 |            18628 |        11803353 |                     0 |       7601027 | 2017-02-04 20:04:48.025022+01

 2017-02-04 22:08:22.96035+01 | 1486242502.96035 |                 0 |              24 |                229681 |                 4740 |           20932975 |       2069048 |            18628 |        11803353 |                     0 |       7602536 | 2017-02-04 20:04:48.025022+01

 2017-02-04 22:08:24.048289+01 | 1486242504.04829 |                 0 |              24 |                229681 |                 4740 |           20932975 |       2069048 |            18628 |        11803353 |                     0 |       7604196 | 2017-02-04 20:04:48.025022+01

 2017-02-04 22:08:25.13137+01 | 1486242505.13137 |                 0 |              24 |                229681 |                 4740 |           20932975 |       2069048 |            18628 |        11803353 |                     0 |       7605743 | 2017-02-04 20:04:48.025022+01

 2017-02-04 22:08:26.201055+01 | 1486242506.20106 |                 0 |              24 |                229681 |                 4740 |           20932975 |       2069048 |            18628 |        11803353 |                     0 |       7607333 | 2017-02-04 20:04:48.025022+01

 2017-02-04 22:08:27.28532+01 | 1486242507.28532 |                 0 |              24 |                229681 |                 4740 |           20932975 |       2069048 |            18628 |        11803353 |                     0 |       7609291 | 2017-02-04 20:04:48.025022+01

 2017-02-04 22:08:28.362765+01 | 1486242508.36277 |                 0 |              24 |                229681 |                 4740 |           20932975 |       2069048 |            18628 |        11803353 |                     0 |       7610789 | 2017-02-04 20:04:48.025022+01

 2017-02-04 22:08:29.441127+01 | 1486242509.44113 |                 0 |              24 |                229681 |                 4740 |           20932975 |       2069048 |            18628 |        11803353 |                     0 |       7612556 | 2017-02-04 20:04:48.025022+01

 2017-02-04 22:08:30.523432+01 | 1486242510.52343 |                 0 |              24 |                229681 |                 4740 |           20932975 |       2069048 |            18628 |        11803353 |                     0 |       7613919 | 2017-02-04 20:04:48.025022+01

 2017-02-04 22:08:31.60063+01 | 1486242511.60063 |                 0 |              24 |                229681 |                 4740 |           20932975 |       2069048 |            18628 |        11803353 |                     0 |       7615715 | 2017-02-04 20:04:48.025022+01

 2017-02-04 22:08:32.681222+01 | 1486242512.68122 |                 0 |              24 |                229681 |                 4740 |           20932975 |       2069048 |            18628 |        11803353 |                     0 |       7617186 | 2017-02-04 20:04:48.025022+01

 2017-02-04 22:08:33.755915+01 | 1486242513.75591 |                 0 |              24 |                229681 |                 4740 |           20932975 |       2069048 |            18628 |        11803353 |                     0 |       7618689 | 2017-02-04 20:04:48.025022+01

 2017-02-04 22:08:34.831559+01 | 1486242514.83156 |                 0 |              24 |                229681 |                 4740 |           20932975 |       2069048 |            18628 |        11803353 |                     0 |       7620311 | 2017-02-04 20:04:48.025022+01

 2017-02-04 22:08:35.910124+01 | 1486242515.91012 |                 0 |              24 |                229681 |                 4740 |           20932975 |       2069048 |            18628 |        11803353 |                     0 |       7621748 | 2017-02-04 20:04:48.025022+01

 2017-02-04 22:08:36.997485+01 | 1486242516.99748 |                 0 |              24 |                229681 |                 4740 |           20932975 |       2069048 |            18628 |        11803353 |                     0 |       7623587 | 2017-02-04 20:04:48.025022+01

 2017-02-04 22:08:38.077753+01 | 1486242518.07775 |                 0 |              24 |                229681 |                 4740 |           20932975 |       2069048 |            18628 |        11803353 |                     0 |       7624748 | 2017-02-04 20:04:48.025022+01

 2017-02-04 22:08:39.151121+01 | 1486242519.15112 |                 0 |              24 |                229681 |                 4740 |           20932975 |       2069048 |            18628 |        11803353 |                     0 |       7626234 | 2017-02-04 20:04:48.025022+01

 2017-02-04 22:08:40.233141+01 | 1486242520.23314 |                 0 |              24 |                229681 |                 4740 |           20932975 |       2069095 |            18628 |        11803353 |                     0 |       7627926 | 2017-02-04 20:04:48.025022+01

 2017-02-04 22:08:41.313619+01 | 1486242521.31362 |                 0 |              24 |                229681 |                 4740 |           20932975 |       2069189 |            18628 |        11803353 |                     0 |       7629473 | 2017-02-04 20:04:48.025022+01

 2017-02-04 22:08:42.392347+01 | 1486242522.39235 |                 0 |              24 |                229681 |                 4740 |           20932975 |       2069282 |            18628 |        11803353 |                     0 |       7630830 | 2017-02-04 20:04:48.025022+01

 2017-02-04 22:08:43.472621+01 | 1486242523.47262 |                 0 |              24 |                229681 |                 4740 |           20932975 |       2069381 |            18628 |        11803353 |                     0 |       7632640 | 2017-02-04 20:04:48.025022+01

 2017-02-04 22:08:44.557874+01 | 1486242524.55787 |                 0 |              24 |                229681 |                 4740 |           20932975 |       2069471 |            18628 |        11803353 |                     0 |       7634151 | 2017-02-04 20:04:48.025022+01

 2017-02-04 22:08:45.637066+01 | 1486242525.63707 |                 0 |              24 |                229681 |                 4740 |           20932975 |       2069560 |            18628 |        11803353 |                     0 |       7635668 | 2017-02-04 20:04:48.025022+01

 2017-02-04 22:08:46.718242+01 | 1486242526.71824 |                 0 |              24 |                229681 |                 4740 |           20932975 |       2069659 |            18628 |        11803353 |                     0 |       7637241 | 2017-02-04 20:04:48.025022+01

 2017-02-04 22:08:47.79689+01 | 1486242527.79689 |                 0 |              24 |                229681 |                 4740 |           20932975 |       2069768 |            18628 |        11803353 |                     0 |       7638799 | 2017-02-04 20:04:48.025022+01

 2017-02-04 22:08:48.875013+01 | 1486242528.87501 |                 0 |              24 |                229681 |                 4740 |           20932975 |       2069891 |            18628 |        11803353 |                     0 |       7640586 | 2017-02-04 20:04:48.025022+01

 2017-02-04 22:08:49.94866+01 | 1486242529.94866 |                 0 |              24 |                229681 |                 4740 |           20932975 |       2069975 |            18628 |        11803353 |                     0 |       7642013 | 2017-02-04 20:04:48.025022+01

 2017-02-04 22:08:51.039836+01 | 1486242531.03984 |                 0 |              24 |                229681 |                 4740 |           20932975 |       2070085 |            18628 |        11803353 |                     0 |       7643565 | 2017-02-04 20:04:48.025022+01

 2017-02-04 22:08:52.121131+01 | 1486242532.12113 |                 0 |              24 |                229681 |                 4740 |           20932975 |       2070195 |            18628 |        11803353 |                     0 |       7645228 | 2017-02-04 20:04:48.025022+01

 2017-02-04 22:08:53.205851+01 | 1486242533.20585 |                 0 |              24 |                229681 |                 4740 |           20932975 |       2070294 |            18628 |        11803353 |                     0 |       7646678 | 2017-02-04 20:04:48.025022+01

 2017-02-04 22:08:54.285033+01 | 1486242534.28503 |                 0 |              24 |                229681 |                 4740 |           20932975 |       2070401 |            18628 |        11803353 |                     0 |       7648488 | 2017-02-04 20:04:48.025022+01

 2017-02-04 22:08:55.36725+01 | 1486242535.36725 |                 0 |              24 |                229681 |                 4740 |           20932975 |       2070507 |            18628 |        11803353 |                     0 |       7649994 | 2017-02-04 20:04:48.025022+01

 2017-02-04 22:08:56.444392+01 | 1486242536.44439 |                 0 |              24 |                229681 |                 4740 |           20932975 |       2070606 |            18628 |        11803353 |                     0 |       7651542 | 2017-02-04 20:04:48.025022+01

 2017-02-04 22:08:57.525503+01 | 1486242537.5255 |                 0 |              24 |                229681 |                 4740 |           20932975 |       2070718 |            18628 |        11803353 |                     0 |       7653245 | 2017-02-04 20:04:48.025022+01

 2017-02-04 22:08:58.609075+01 | 1486242538.60908 |                 0 |              24 |                229681 |                 4740 |           20932975 |       2070838 |            18628 |        11803353 |                     0 |       7654845 | 2017-02-04 20:04:48.025022+01

 2017-02-04 22:08:59.684388+01 | 1486242539.68439 |                 0 |              24 |                229681 |                 4740 |           20932975 |       2070934 |            18628 |        11803353 |                     0 |       7656601 | 2017-02-04 20:04:48.025022+01

 2017-02-04 22:09:00.76055+01 | 1486242540.76055 |                 0 |              24 |                229681 |                 4740 |           20932975 |       2071010 |            18628 |        11803353 |                     0 |       7658139 | 2017-02-04 20:04:48.025022+01

 2017-02-04 22:09:01.84882+01 | 1486242541.84882 |                 0 |              24 |                229681 |                 4740 |           20932975 |       2071094 |            18628 |        11803353 |                     0 |       7659646 | 2017-02-04 20:04:48.025022+01

 2017-02-04 22:09:02.930365+01 | 1486242542.93037 |                 0 |              24 |                229681 |                 4740 |           20932975 |       2071194 |            18628 |        11803353 |                     0 |       7661386 | 2017-02-04 20:04:48.025022+01

 2017-02-04 22:09:04.006614+01 | 1486242544.00661 |                 0 |              24 |                229681 |                 4740 |           20932975 |       2071290 |            18628 |        11803353 |                     0 |       7662952 | 2017-02-04 20:04:48.025022+01

 2017-02-04 22:09:05.08575+01 | 1486242545.08575 |                 0 |              24 |                229681 |                 4740 |           20932975 |       2071379 |            18628 |        11803353 |                     0 |       7664509 | 2017-02-04 20:04:48.025022+01

 2017-02-04 22:09:06.163231+01 | 1486242546.16323 |                 0 |              24 |                229681 |                 4740 |           20932975 |       2071494 |            18628 |        11803353 |                     0 |       7666385 | 2017-02-04 20:04:48.025022+01

 2017-02-04 22:09:07.243122+01 | 1486242547.24312 |                 0 |              24 |                229681 |                 4740 |           20932975 |       2071579 |            18628 |        11803353 |                     0 |       7667911 | 2017-02-04 20:04:48.025022+01

 2017-02-04 22:09:08.328567+01 | 1486242548.32857 |                 0 |              24 |                229681 |                 4740 |           20932975 |       2071708 |            18628 |        11803353 |                     0 |       7669938 | 2017-02-04 20:04:48.025022+01

 2017-02-04 22:09:09.411324+01 | 1486242549.41132 |                 0 |              24 |                229681 |                 4740 |           20932975 |       2071793 |            18628 |        11803353 |                     0 |       7671531 | 2017-02-04 20:04:48.025022+01

 2017-02-04 22:09:10.492111+01 | 1486242550.49211 |                 0 |              24 |                229681 |                 4740 |           20932975 |       2072175 |            18631 |        11803353 |                     0 |       7673052 | 2017-02-04 20:04:48.025022+01

 2017-02-04 22:09:11.56892+01 | 1486242551.56892 |                 0 |              24 |                229681 |                 4740 |           20932975 |       2072775 |            18637 |        11803353 |                     0 |       7674955 | 2017-02-04 20:04:48.025022+01

 2017-02-04 22:09:12.651295+01 | 1486242552.65129 |                 0 |              24 |                229681 |                 4740 |           20932975 |       2073275 |            18642 |        11803353 |                     0 |       7676532 | 2017-02-04 20:04:48.025022+01

 2017-02-04 22:09:13.732548+01 | 1486242553.73255 |                 0 |              24 |                229681 |                 4740 |           20932975 |       2073775 |            18647 |        11803353 |                     0 |       7678036 | 2017-02-04 20:04:48.025022+01

 2017-02-04 22:09:14.808893+01 | 1486242554.80889 |                 0 |              24 |                229681 |                 4740 |           20932975 |       2074375 |            18653 |        11803353 |                     0 |       7679975 | 2017-02-04 20:04:48.025022+01

 2017-02-04 22:09:15.889125+01 | 1486242555.88913 |                 0 |              24 |                229681 |                 4740 |           20932975 |       2074875 |            18658 |        11803353 |                     0 |       7681453 | 2017-02-04 20:04:48.025022+01

 2017-02-04 22:09:16.965124+01 | 1486242556.96512 |                 0 |              24 |                229681 |                 4740 |           20932975 |       2075375 |            18663 |        11803353 |                     0 |       7683225 | 2017-02-04 20:04:48.025022+01

 2017-02-04 22:09:18.04065+01 | 1486242558.04065 |                 0 |              24 |                229681 |                 4740 |           20932975 |       2075975 |            18669 |        11803353 |                     0 |       7684946 | 2017-02-04 20:04:48.025022+01

 2017-02-04 22:09:19.121738+01 | 1486242559.12174 |                 0 |              24 |                229681 |                 4740 |           20932975 |       2076475 |            18674 |        11803353 |                     0 |       7686362 | 2017-02-04 20:04:48.025022+01

 2017-02-04 22:09:20.198207+01 | 1486242560.19821 |                 0 |              24 |                229681 |                 4740 |           20932975 |       2076975 |            18679 |        11803353 |                     0 |       7687883 | 2017-02-04 20:04:48.025022+01

 2017-02-04 22:09:21.280282+01 | 1486242561.28028 |                 0 |              24 |                229681 |                 4740 |           20932975 |       2077575 |            18685 |        11803353 |                     0 |       7689372 | 2017-02-04 20:04:48.025022+01

 2017-02-04 22:09:22.357381+01 | 1486242562.35738 |                 0 |              24 |                229681 |                 4740 |           20932975 |       2078075 |            18690 |        11803353 |                     0 |       7690823 | 2017-02-04 20:04:48.025022+01

 2017-02-04 22:09:23.444715+01 | 1486242563.44472 |                 0 |              24 |                229681 |                 4740 |           20932975 |       2078575 |            18695 |        11803353 |                     0 |       7692205 | 2017-02-04 20:04:48.025022+01

 2017-02-04 22:09:24.51896+01 | 1486242564.51896 |                 0 |              24 |                229681 |                 4740 |           20932975 |       2079175 |            18701 |        11803353 |                     0 |       7693716 | 2017-02-04 20:04:48.025022+01

 2017-02-04 22:09:25.596801+01 | 1486242565.5968 |                 0 |              24 |                229681 |                 4740 |           20932975 |       2079675 |            18706 |        11803353 |                     0 |       7695108 | 2017-02-04 20:04:48.025022+01

 2017-02-04 22:09:26.672737+01 | 1486242566.67274 |                 0 |              24 |                229681 |                 4740 |           20932975 |       2080075 |            18710 |        11803353 |                     0 |       7696404 | 2017-02-04 20:04:48.025022+01

 2017-02-04 22:09:27.761214+01 | 1486242567.76121 |                 0 |              24 |                229681 |                 4740 |           20932975 |       2080775 |            18717 |        11803353 |                     0 |       7700649 | 2017-02-04 20:04:48.025022+01

 2017-02-04 22:09:28.840317+01 | 1486242568.84032 |                 0 |              24 |                229681 |                 4740 |           20932975 |       2081275 |            18722 |        11803353 |                     0 |       7703294 | 2017-02-04 20:04:48.025022+01

 2017-02-04 22:09:29.926834+01 | 1486242569.92683 |                 0 |              24 |                229681 |                 4740 |           20932975 |       2081875 |            18728 |        11803353 |                     0 |       7705208 | 2017-02-04 20:04:48.025022+01

 2017-02-04 22:09:31.006755+01 | 1486242571.00676 |                 0 |              24 |                229681 |                 4740 |           20932975 |       2082375 |            18733 |        11803353 |                     0 |       7706732 | 2017-02-04 20:04:48.025022+01

 2017-02-04 22:09:32.094585+01 | 1486242572.09458 |                 0 |              24 |                229681 |                 4740 |           20932975 |       2082875 |            18738 |        11803353 |                     0 |       7708262 | 2017-02-04 20:04:48.025022+01

 2017-02-04 22:09:33.177001+01 | 1486242573.177 |                 0 |              24 |                229681 |                 4740 |           20932975 |       2083475 |            18744 |        11803353 |                     0 |       7710185 | 2017-02-04 20:04:48.025022+01

 2017-02-04 22:09:34.255115+01 | 1486242574.25512 |                 0 |              24 |                229681 |                 4740 |           20932975 |       2083975 |            18749 |        11803353 |                     0 |       7711740 | 2017-02-04 20:04:48.025022+01

 2017-02-04 22:09:35.338951+01 | 1486242575.33895 |                 0 |              24 |                229681 |                 4740 |           20932975 |       2084475 |            18754 |        11803353 |                     0 |       7713459 | 2017-02-04 20:04:48.025022+01

 2017-02-04 22:09:36.422879+01 | 1486242576.42288 |                 0 |              24 |                229681 |                 4740 |           20932975 |       2085075 |            18760 |        11803353 |                     0 |       7715431 | 2017-02-04 20:04:48.025022+01

 2017-02-04 22:09:37.505569+01 | 1486242577.50557 |                 0 |              24 |                229681 |                 4740 |           20932975 |       2085575 |            18765 |        11803353 |                     0 |       7717078 | 2017-02-04 20:04:48.025022+01

 2017-02-04 22:09:38.580171+01 | 1486242578.58017 |                 0 |              24 |                229681 |                 4740 |           20932975 |       2086075 |            18770 |        11803353 |                     0 |       7718848 | 2017-02-04 20:04:48.025022+01

 2017-02-04 22:09:39.662986+01 | 1486242579.66299 |                 0 |              24 |                229681 |                 4740 |           20932975 |       2086675 |            18776 |        11803353 |                     0 |       7720739 | 2017-02-04 20:04:48.025022+01

 2017-02-04 22:09:40.745468+01 | 1486242580.74547 |                 0 |              24 |                229681 |                 4740 |           20932975 |       2087175 |            18781 |        11803353 |                     0 |       7722363 | 2017-02-04 20:04:48.025022+01

 2017-02-04 22:09:41.821678+01 | 1486242581.82168 |                 0 |              24 |                229681 |                 4740 |           20932975 |       2087675 |            18786 |        11803353 |                     0 |       7724112 | 2017-02-04 20:04:48.025022+01

 2017-02-04 22:09:42.898685+01 | 1486242582.89868 |                 0 |              24 |                229681 |                 4740 |           20932975 |       2088275 |            18792 |        11803353 |                     0 |       7726064 | 2017-02-04 20:04:48.025022+01

 2017-02-04 22:09:43.979306+01 | 1486242583.97931 |                 0 |              24 |                229681 |                 4740 |           20932975 |       2088775 |            18797 |        11803353 |                     0 |       7727735 | 2017-02-04 20:04:48.025022+01

 2017-02-04 22:09:45.061153+01 | 1486242585.06115 |                 0 |              24 |                229681 |                 4740 |           20932975 |       2089275 |            18802 |        11803353 |                     0 |       7729371 | 2017-02-04 20:04:48.025022+01

 2017-02-04 22:09:46.142338+01 | 1486242586.14234 |                 0 |              24 |                229681 |                 4740 |           20932975 |       2089875 |            18808 |        11803353 |                     0 |       7731106 | 2017-02-04 20:04:48.025022+01

 2017-02-04 22:09:47.225014+01 | 1486242587.22501 |                 0 |              24 |                229681 |                 4740 |           20932975 |       2090375 |            18813 |        11803353 |                     0 |       7732873 | 2017-02-04 20:04:48.025022+01

 2017-02-04 22:09:48.310043+01 | 1486242588.31004 |                 0 |              24 |                229681 |                 4740 |           20932975 |       2090975 |            18819 |        11803353 |                     0 |       7734701 | 2017-02-04 20:04:48.025022+01

 2017-02-04 22:09:49.394345+01 | 1486242589.39435 |                 0 |              24 |                229681 |                 4740 |           20932975 |       2091475 |            18824 |        11803353 |                     0 |       7736322 | 2017-02-04 20:04:48.025022+01

 2017-02-04 22:09:50.471382+01 | 1486242590.47138 |                 0 |              24 |                229681 |                 4740 |           20932975 |       2091975 |            18829 |        11803353 |                     0 |       7738113 | 2017-02-04 20:04:48.025022+01

 2017-02-04 22:09:51.558423+01 | 1486242591.55842 |                 0 |              24 |                229681 |                 4740 |           20932975 |       2092575 |            18835 |        11803353 |                     0 |       7740042 | 2017-02-04 20:04:48.025022+01

 2017-02-04 22:09:52.63914+01 | 1486242592.63914 |                 0 |              24 |                229681 |                 4740 |           20932975 |       2093075 |            18840 |        11803353 |                     0 |       7741683 | 2017-02-04 20:04:48.025022+01

 2017-02-04 22:09:53.721401+01 | 1486242593.7214 |                 0 |              24 |                229681 |                 4740 |           20932975 |       2093575 |            18845 |        11803353 |                     0 |       7743391 | 2017-02-04 20:04:48.025022+01

 2017-02-04 22:09:54.798487+01 | 1486242594.79849 |                 0 |              24 |                229681 |                 4740 |           20932975 |       2094175 |            18851 |        11803353 |                     0 |       7745467 | 2017-02-04 20:04:48.025022+01

 2017-02-04 22:09:55.876523+01 | 1486242595.87652 |                 0 |              24 |                229681 |                 4740 |           20932975 |       2094675 |            18856 |        11803353 |                     0 |       7747109 | 2017-02-04 20:04:48.025022+01

 2017-02-04 22:09:56.956276+01 | 1486242596.95628 |                 0 |              24 |                229681 |                 4740 |           20932975 |       2095175 |            18861 |        11803353 |                     0 |       7748927 | 2017-02-04 20:04:48.025022+01

 2017-02-04 22:09:58.03518+01 | 1486242598.03518 |                 0 |              24 |                229681 |                 4740 |           20932975 |       2095775 |            18867 |        11803353 |                     0 |       7750926 | 2017-02-04 20:04:48.025022+01

 2017-02-04 22:09:59.117009+01 | 1486242599.11701 |                 0 |              24 |                229681 |                 4740 |           20932975 |       2096275 |            18872 |        11803353 |                     0 |       7752492 | 2017-02-04 20:04:48.025022+01

 2017-02-04 22:10:00.200641+01 | 1486242600.20064 |                 0 |              24 |                229681 |                 4740 |           20932975 |       2096775 |            18877 |        11803353 |                     0 |       7754202 | 2017-02-04 20:04:48.025022+01

 2017-02-04 22:10:01.284877+01 | 1486242601.28488 |                 0 |              24 |                229681 |                 4740 |           20932975 |       2097375 |            18883 |        11803353 |                     0 |       7756355 | 2017-02-04 20:04:48.025022+01

 2017-02-04 22:10:02.365573+01 | 1486242602.36557 |                 0 |              24 |                229681 |                 4740 |           20932975 |       2097875 |            18888 |        11803353 |                     0 |       7758247 | 2017-02-04 20:04:48.025022+01

 2017-02-04 22:10:03.448236+01 | 1486242603.44824 |                 0 |              24 |                229681 |                 4740 |           20932975 |       2098375 |            18893 |        11803353 |                     0 |       7759905 | 2017-02-04 20:04:48.025022+01

 2017-02-04 22:10:04.526344+01 | 1486242604.52634 |                 0 |              24 |                229681 |                 4740 |           20932975 |       2098975 |            18899 |        11803353 |                     0 |       7762061 | 2017-02-04 20:04:48.025022+01

 2017-02-04 22:10:05.604359+01 | 1486242605.60436 |                 0 |              24 |                229681 |                 4740 |           20932975 |       2099475 |            18904 |        11803353 |                     0 |       7763796 | 2017-02-04 20:04:48.025022+01

 2017-02-04 22:10:06.683321+01 | 1486242606.68332 |                 0 |              24 |                229681 |                 4740 |           20932975 |       2099975 |            18909 |        11803353 |                     0 |       7765425 | 2017-02-04 20:04:48.025022+01

 2017-02-04 22:10:07.768965+01 | 1486242607.76897 |                 0 |              24 |                229681 |                 4740 |           20932975 |       2100575 |            18915 |        11803353 |                     0 |       7767510 | 2017-02-04 20:04:48.025022+01

 2017-02-04 22:10:08.844504+01 | 1486242608.8445 |                 0 |              24 |                229681 |                 4740 |           20932975 |       2101075 |            18920 |        11803353 |                     0 |       7769080 | 2017-02-04 20:04:48.025022+01

 2017-02-04 22:10:09.925003+01 | 1486242609.925 |                 0 |              24 |                229681 |                 4740 |           20932975 |       2101675 |            18926 |        11803353 |                     0 |       7771131 | 2017-02-04 20:04:48.025022+01

 2017-02-04 22:10:11.003584+01 | 1486242611.00358 |                 0 |              24 |                229681 |                 4740 |           20932975 |       2102175 |            18931 |        11803353 |                     0 |       7772979 | 2017-02-04 20:04:48.025022+01

 2017-02-04 22:10:12.079914+01 | 1486242612.07991 |                 0 |              24 |                229681 |                 4740 |           20932975 |       2102675 |            18936 |        11803353 |                     0 |       7774730 | 2017-02-04 20:04:48.025022+01

 2017-02-04 22:10:13.156569+01 | 1486242613.15657 |                 0 |              24 |                229681 |                 4740 |           20932975 |       2103275 |            18942 |        11803353 |                     0 |       7776837 | 2017-02-04 20:04:48.025022+01

 2017-02-04 22:10:14.235877+01 | 1486242614.23588 |                 0 |              24 |                229681 |                 4740 |           20932975 |       2103775 |            18947 |        11803353 |                     0 |       7778158 | 2017-02-04 20:04:48.025022+01

 2017-02-04 22:10:15.311743+01 | 1486242615.31174 |                 0 |              24 |                229681 |                 4740 |           20932975 |       2104275 |            18952 |        11803353 |                     0 |       7779945 | 2017-02-04 20:04:48.025022+01

 2017-02-04 22:10:16.388992+01 | 1486242616.38899 |                 0 |              24 |                229681 |                 4740 |           20932975 |       2104875 |            18958 |        11803353 |                     0 |       7782173 | 2017-02-04 20:04:48.025022+01

 2017-02-04 22:10:17.465791+01 | 1486242617.46579 |                 0 |              24 |                229681 |                 4740 |           20932975 |       2105375 |            18963 |        11803353 |                     0 |       7783828 | 2017-02-04 20:04:48.025022+01

 2017-02-04 22:10:18.543176+01 | 1486242618.54318 |                 0 |              24 |                229681 |                 4740 |           20932975 |       2105875 |            18968 |        11803353 |                     0 |       7785525 | 2017-02-04 20:04:48.025022+01

 2017-02-04 22:10:19.622966+01 | 1486242619.62297 |                 0 |              24 |                229681 |                 4740 |           20932975 |       2106475 |            18974 |        11803353 |                     0 |       7787531 | 2017-02-04 20:04:48.025022+01

 2017-02-04 22:10:20.701005+01 | 1486242620.701 |                 0 |              24 |                229681 |                 4740 |           20932975 |       2106975 |            18979 |        11803353 |                     0 |       7789212 | 2017-02-04 20:04:48.025022+01

 2017-02-04 22:10:21.775067+01 | 1486242621.77507 |                 0 |              24 |                229681 |                 4740 |           20932975 |       2107475 |            18984 |        11803353 |                     0 |       7790880 | 2017-02-04 20:04:48.025022+01

 2017-02-04 22:10:22.851984+01 | 1486242622.85198 |                 0 |              24 |                229681 |                 4740 |           20932975 |       2108075 |            18990 |        11803353 |                     0 |       7793197 | 2017-02-04 20:04:48.025022+01

 2017-02-04 22:10:23.932181+01 | 1486242623.93218 |                 0 |              24 |                229681 |                 4740 |           20932975 |       2108575 |            18995 |        11803353 |                     0 |       7794838 | 2017-02-04 20:04:48.025022+01

 2017-02-04 22:10:25.009286+01 | 1486242625.00929 |                 0 |              24 |                229681 |                 4740 |           20932975 |       2109075 |            19000 |        11803353 |                     0 |       7796680 | 2017-02-04 20:04:48.025022+01

 2017-02-04 22:10:26.076581+01 | 1486242626.07658 |                 0 |              24 |                229681 |                 4740 |           20932975 |       2109575 |            19005 |        11803353 |                     0 |       7798302 | 2017-02-04 20:04:48.025022+01

 2017-02-04 22:10:27.153673+01 | 1486242627.15367 |                 0 |              24 |                229681 |                 4740 |           20932975 |       2110175 |            19011 |        11803353 |                     0 |       7800810 | 2017-02-04 20:04:48.025022+01

 2017-02-04 22:10:28.239154+01 | 1486242628.23915 |                 0 |              24 |                229681 |                 4740 |           20932975 |       2110675 |            19016 |        11803353 |                     0 |       7805105 | 2017-02-04 20:04:48.025022+01

 2017-02-04 22:10:29.320775+01 | 1486242629.32078 |                 0 |              24 |                229681 |                 4740 |           20932975 |       2111275 |            19022 |        11803353 |                     0 |       7808519 | 2017-02-04 20:04:48.025022+01

 2017-02-04 22:10:30.403028+01 | 1486242630.40303 |                 0 |              24 |                229681 |                 4740 |           20932975 |       2111775 |            19027 |        11803353 |                     0 |       7810262 | 2017-02-04 20:04:48.025022+01

 2017-02-04 22:10:31.486994+01 | 1486242631.48699 |                 0 |              24 |                229681 |                 4740 |           20932975 |       2112275 |            19032 |        11803353 |                     0 |       7812138 | 2017-02-04 20:04:48.025022+01

 2017-02-04 22:10:32.570125+01 | 1486242632.57013 |                 0 |              24 |                229681 |                 4740 |           20932975 |       2112875 |            19038 |        11803353 |                     0 |       7814352 | 2017-02-04 20:04:48.025022+01

 2017-02-04 22:10:33.655834+01 | 1486242633.65583 |                 0 |              24 |                229681 |                 4740 |           20932975 |       2113375 |            19043 |        11803353 |                     0 |       7816390 | 2017-02-04 20:04:48.025022+01

 2017-02-04 22:10:34.734634+01 | 1486242634.73463 |                 0 |              24 |                229681 |                 4740 |           20932975 |       2113875 |            19048 |        11803353 |                     0 |       7818051 | 2017-02-04 20:04:48.025022+01

 2017-02-04 22:10:35.808303+01 | 1486242635.8083 |                 0 |              24 |                229681 |                 4740 |           20932975 |       2114475 |            19054 |        11803353 |                     0 |       7820287 | 2017-02-04 20:04:48.025022+01

 2017-02-04 22:10:36.888644+01 | 1486242636.88864 |                 0 |              24 |                229681 |                 4740 |           20932975 |       2114975 |            19059 |        11803353 |                     0 |       7822183 | 2017-02-04 20:04:48.025022+01

 2017-02-04 22:10:37.968661+01 | 1486242637.96866 |                 0 |              24 |                229681 |                 4740 |           20932975 |       2115475 |            19064 |        11803353 |                     0 |       7823784 | 2017-02-04 20:04:48.025022+01

 2017-02-04 22:10:39.052081+01 | 1486242639.05208 |                 0 |              24 |                229681 |                 4740 |           20932975 |       2116075 |            19070 |        11803353 |                     0 |       7825958 | 2017-02-04 20:04:48.025022+01

 2017-02-04 22:10:40.136052+01 | 1486242640.13605 |                 0 |              24 |                229681 |                 4740 |           20932975 |       2116575 |            19075 |        11803353 |                     0 |       7827843 | 2017-02-04 20:04:48.025022+01

 2017-02-04 22:10:41.216578+01 | 1486242641.21658 |                 0 |              24 |                229681 |                 4740 |           20932975 |       2117075 |            19080 |        11803353 |                     0 |       7829699 | 2017-02-04 20:04:48.025022+01

 2017-02-04 22:10:42.29391+01 | 1486242642.29391 |                 0 |              24 |                229681 |                 4740 |           20932975 |       2117675 |            19086 |        11803353 |                     0 |       7831918 | 2017-02-04 20:04:48.025022+01

 2017-02-04 22:10:43.372+01 | 1486242643.372 |                 0 |              24 |                229681 |                 4740 |           20932975 |       2118175 |            19091 |        11803353 |                     0 |       7833717 | 2017-02-04 20:04:48.025022+01

 2017-02-04 22:10:44.450771+01 | 1486242644.45077 |                 0 |              24 |                229681 |                 4740 |           20932975 |       2118675 |            19096 |        11803353 |                     0 |       7835482 | 2017-02-04 20:04:48.025022+01

 2017-02-04 22:10:45.522204+01 | 1486242645.5222 |                 0 |              24 |                229681 |                 4740 |           20932975 |       2119275 |            19102 |        11803353 |                     0 |       7837321 | 2017-02-04 20:04:48.025022+01

 2017-02-04 22:10:46.596283+01 | 1486242646.59628 |                 0 |              24 |                229681 |                 4740 |           20932975 |       2119775 |            19107 |        11803353 |                     0 |       7838984 | 2017-02-04 20:04:48.025022+01

 2017-02-04 22:10:47.679616+01 | 1486242647.67962 |                 0 |              24 |                229681 |                 4740 |           20932975 |       2120275 |            19112 |        11803353 |                     0 |       7840597 | 2017-02-04 20:04:48.025022+01

 2017-02-04 22:10:48.760568+01 | 1486242648.76057 |                 0 |              24 |                229681 |                 4740 |           20932975 |       2120875 |            19118 |        11803353 |                     0 |       7842504 | 2017-02-04 20:04:48.025022+01

 2017-02-04 22:10:49.844715+01 | 1486242649.84472 |                 0 |              24 |                229681 |                 4740 |           20932975 |       2121375 |            19123 |        11803353 |                     0 |       7844010 | 2017-02-04 20:04:48.025022+01

 2017-02-04 22:10:50.918165+01 | 1486242650.91816 |                 0 |              24 |                229681 |                 4740 |           20932975 |       2121975 |            19129 |        11803353 |                     0 |       7846045 | 2017-02-04 20:04:48.025022+01

 2017-02-04 22:10:51.993672+01 | 1486242651.99367 |                 0 |              24 |                229681 |                 4740 |           20932975 |       2122475 |            19134 |        11803353 |                     0 |       7847417 | 2017-02-04 20:04:48.025022+01

 2017-02-04 22:10:53.068511+01 | 1486242653.06851 |                 0 |              24 |                229681 |                 4740 |           20932975 |       2122975 |            19139 |        11803353 |                     0 |       7849180 | 2017-02-04 20:04:48.025022+01

 2017-02-04 22:10:54.147933+01 | 1486242654.14793 |                 0 |              24 |                229681 |                 4740 |           20932975 |       2123475 |            19144 |        11803353 |                     0 |       7850796 | 2017-02-04 20:04:48.025022+01

 2017-02-04 22:10:55.22372+01 | 1486242655.22372 |                 0 |              24 |                229681 |                 4740 |           20932975 |       2124075 |            19150 |        11803353 |                     0 |       7853138 | 2017-02-04 20:04:48.025022+01

 2017-02-04 22:10:56.310167+01 | 1486242656.31017 |                 0 |              24 |                229681 |                 4740 |           20932975 |       2124575 |            19155 |        11803353 |                     0 |       7854956 | 2017-02-04 20:04:48.025022+01

 2017-02-04 22:10:57.385041+01 | 1486242657.38504 |                 0 |              24 |                229681 |                 4740 |           20932975 |       2125175 |            19161 |        11803353 |                     0 |       7856984 | 2017-02-04 20:04:48.025022+01

 2017-02-04 22:10:58.459303+01 | 1486242658.4593 |                 0 |              24 |                229681 |                 4740 |           20932975 |       2125675 |            19166 |        11803353 |                     0 |       7859006 | 2017-02-04 20:04:48.025022+01

 2017-02-04 22:10:59.534367+01 | 1486242659.53437 |                 0 |              24 |                229681 |                 4740 |           20932975 |       2126175 |            19171 |        11803353 |                     0 |       7860503 | 2017-02-04 20:04:48.025022+01

 2017-02-04 22:11:00.612142+01 | 1486242660.61214 |                 0 |              24 |                229681 |                 4740 |           20932975 |       2126775 |            19177 |        11803353 |                     0 |       7862147 | 2017-02-04 20:04:48.025022+01

 2017-02-04 22:11:01.693343+01 | 1486242661.69334 |                 0 |              24 |                229681 |                 4740 |           20932975 |       2127275 |            19182 |        11803353 |                     0 |       7863628 | 2017-02-04 20:04:48.025022+01

 2017-02-04 22:11:02.777008+01 | 1486242662.77701 |                 0 |              24 |                229681 |                 4740 |           20932975 |       2127775 |            19187 |        11803353 |                     0 |       7865194 | 2017-02-04 20:04:48.025022+01

 2017-02-04 22:11:03.855338+01 | 1486242663.85534 |                 0 |              24 |                229681 |                 4740 |           20932975 |       2128375 |            19193 |        11803353 |                     0 |       7867471 | 2017-02-04 20:04:48.025022+01

 2017-02-04 22:11:04.932745+01 | 1486242664.93274 |                 0 |              24 |                229681 |                 4740 |           20932975 |       2128875 |            19198 |        11803353 |                     0 |       7869387 | 2017-02-04 20:04:48.025022+01

 2017-02-04 22:11:06.015924+01 | 1486242666.01592 |                 0 |              24 |                229681 |                 4740 |           20932975 |       2129375 |            19203 |        11803353 |                     0 |       7871302 | 2017-02-04 20:04:48.025022+01

 2017-02-04 22:11:07.097995+01 | 1486242667.098 |                 0 |              24 |                229681 |                 4740 |           20932975 |       2129975 |            19209 |        11803353 |                     0 |       7873471 | 2017-02-04 20:04:48.025022+01

 2017-02-04 22:11:08.177264+01 | 1486242668.17726 |                 0 |              24 |                229681 |                 4740 |           20932975 |       2130475 |            19214 |        11803353 |                     0 |       7875131 | 2017-02-04 20:04:48.025022+01

 2017-02-04 22:11:09.256564+01 | 1486242669.25656 |                 0 |              24 |                229681 |                 4740 |           20932975 |       2130975 |            19219 |        11803353 |                     0 |       7877105 | 2017-02-04 20:04:48.025022+01

 2017-02-04 22:11:10.341569+01 | 1486242670.34157 |                 0 |              24 |                229681 |                 4740 |           20932975 |       2131575 |            19225 |        11803353 |                     0 |       7879314 | 2017-02-04 20:04:48.025022+01

 2017-02-04 22:11:11.422133+01 | 1486242671.42213 |                 0 |              24 |                229681 |                 4740 |           20932975 |       2132075 |            19230 |        11803353 |                     0 |       7881218 | 2017-02-04 20:04:48.025022+01

 2017-02-04 22:11:12.50527+01 | 1486242672.50527 |                 0 |              24 |                229681 |                 4740 |           20932975 |       2132575 |            19235 |        11803353 |                     0 |       7883153 | 2017-02-04 20:04:48.025022+01

 2017-02-04 22:11:13.585931+01 | 1486242673.58593 |                 0 |              24 |                229681 |                 4740 |           20932975 |       2133175 |            19241 |        11803353 |                     0 |       7885346 | 2017-02-04 20:04:48.025022+01

 2017-02-04 22:11:14.666547+01 | 1486242674.66655 |                 0 |              24 |                229681 |                 4740 |           20932975 |       2133675 |            19246 |        11803353 |                     0 |       7887189 | 2017-02-04 20:04:48.025022+01

 2017-02-04 22:11:15.74669+01 | 1486242675.74669 |                 0 |              24 |                229681 |                 4740 |           20932975 |       2134175 |            19251 |        11803353 |                     0 |       7888927 | 2017-02-04 20:04:48.025022+01

 2017-02-04 22:11:16.832156+01 | 1486242676.83216 |                 0 |              24 |                229681 |                 4740 |           20932975 |       2134775 |            19257 |        11803353 |                     0 |       7891282 | 2017-02-04 20:04:48.025022+01

 2017-02-04 22:11:17.909552+01 | 1486242677.90955 |                 0 |              24 |                229681 |                 4740 |           20932975 |       2135275 |            19262 |        11803353 |                     0 |       7893071 | 2017-02-04 20:04:48.025022+01

 2017-02-04 22:11:18.984632+01 | 1486242678.98463 |                 0 |              24 |                229681 |                 4740 |           20932975 |       2135875 |            19268 |        11803353 |                     0 |       7895341 | 2017-02-04 20:04:48.025022+01

 2017-02-04 22:11:20.063697+01 | 1486242680.0637 |                 0 |              24 |                229681 |                 4740 |           20932975 |       2136375 |            19273 |        11803353 |                     0 |       7897155 | 2017-02-04 20:04:48.025022+01

 2017-02-04 22:11:21.14114+01 | 1486242681.14114 |                 0 |              24 |                229681 |                 4740 |           20932975 |       2136875 |            19278 |        11803353 |                     0 |       7899220 | 2017-02-04 20:04:48.025022+01

 2017-02-04 22:11:22.217367+01 | 1486242682.21737 |                 0 |              24 |                229681 |                 4740 |           20932975 |       2137475 |            19284 |        11803353 |                     0 |       7901132 | 2017-02-04 20:04:48.025022+01

 2017-02-04 22:11:23.308368+01 | 1486242683.30837 |                 0 |              24 |                229681 |                 4740 |           20932975 |       2137975 |            19289 |        11803353 |                     0 |       7903009 | 2017-02-04 20:04:48.025022+01

 2017-02-04 22:11:24.386412+01 | 1486242684.38641 |                 0 |              24 |                229681 |                 4740 |           20932975 |       2138475 |            19294 |        11803353 |                     0 |       7904899 | 2017-02-04 20:04:48.025022+01

 2017-02-04 22:11:25.461015+01 | 1486242685.46101 |                 0 |              24 |                229681 |                 4740 |           20932975 |       2139075 |            19300 |        11803353 |                     0 |       7907284 | 2017-02-04 20:04:48.025022+01

 2017-02-04 22:11:26.533721+01 | 1486242686.53372 |                 0 |              24 |                229681 |                 4740 |           20932975 |       2139475 |            19304 |        11803353 |                     0 |       7908771 | 2017-02-04 20:04:48.025022+01

 2017-02-04 22:11:27.615005+01 | 1486242687.61501 |                 0 |              24 |                229681 |                 4740 |           20932975 |       2140075 |            19310 |        11803353 |                     0 |       7912075 | 2017-02-04 20:04:48.025022+01

 2017-02-04 22:11:28.69161+01 | 1486242688.69161 |                 0 |              24 |                229681 |                 4740 |           20932975 |       2140675 |            19316 |        11803353 |                     0 |       7916836 | 2017-02-04 20:04:48.025022+01

 2017-02-04 22:11:29.77288+01 | 1486242689.77288 |                 0 |              24 |                229681 |                 4740 |           20932975 |       2141175 |            19321 |        11803353 |                     0 |       7918749 | 2017-02-04 20:04:48.025022+01

 2017-02-04 22:11:30.848901+01 | 1486242690.8489 |                 0 |              24 |                229681 |                 4740 |           20932975 |       2141675 |            19326 |        11803353 |                     0 |       7920490 | 2017-02-04 20:04:48.025022+01

 2017-02-04 22:11:31.926315+01 | 1486242691.92632 |                 0 |              24 |                229681 |                 4740 |           20932975 |       2142275 |            19332 |        11803353 |                     0 |       7923033 | 2017-02-04 20:04:48.025022+01

 2017-02-04 22:11:33.005024+01 | 1486242693.00502 |                 0 |              24 |                229681 |                 4740 |           20932975 |       2142775 |            19337 |        11803353 |                     0 |       7924843 | 2017-02-04 20:04:48.025022+01

 2017-02-04 22:11:34.082671+01 | 1486242694.08267 |                 0 |              24 |                229681 |                 4740 |           20932975 |       2143275 |            19342 |        11803353 |                     0 |       7927065 | 2017-02-04 20:04:48.025022+01

 2017-02-04 22:11:35.161794+01 | 1486242695.16179 |                 0 |              24 |                229681 |                 4740 |           20932975 |       2143875 |            19348 |        11803353 |                     0 |       7928931 | 2017-02-04 20:04:48.025022+01

 2017-02-04 22:11:36.246249+01 | 1486242696.24625 |                 0 |              24 |                229681 |                 4740 |           20932975 |       2144375 |            19353 |        11803353 |                     0 |       7930899 | 2017-02-04 20:04:48.025022+01

 2017-02-04 22:11:37.32799+01 | 1486242697.32799 |                 0 |              24 |                229681 |                 4740 |           20932975 |       2144875 |            19358 |        11803353 |                     0 |       7932959 | 2017-02-04 20:04:48.025022+01

 2017-02-04 22:11:38.40762+01 | 1486242698.40762 |                 0 |              24 |                229681 |                 4740 |           20932975 |       2145475 |            19364 |        11803353 |                     0 |       7935381 | 2017-02-04 20:04:48.025022+01

 2017-02-04 22:11:39.487951+01 | 1486242699.48795 |                 0 |              24 |                229681 |                 4740 |           20932975 |       2145975 |            19369 |        11803353 |                     0 |       7937186 | 2017-02-04 20:04:48.025022+01

 2017-02-04 22:11:40.566197+01 | 1486242700.5662 |                 0 |              24 |                229681 |                 4740 |           20932975 |       2146475 |            19374 |        11803353 |                     0 |       7939095 | 2017-02-04 20:04:48.025022+01

 2017-02-04 22:11:41.644699+01 | 1486242701.6447 |                 0 |              24 |                229681 |                 4740 |           20932975 |       2147075 |            19380 |        11803353 |                     0 |       7941241 | 2017-02-04 20:04:48.025022+01

 2017-02-04 22:11:42.721252+01 | 1486242702.72125 |                 0 |              24 |                229681 |                 4740 |           20932975 |       2147575 |            19385 |        11803353 |                     0 |       7942728 | 2017-02-04 20:04:48.025022+01

 2017-02-04 22:11:43.79531+01 | 1486242703.79531 |                 0 |              24 |                229681 |                 4740 |           20932975 |       2148075 |            19390 |        11803353 |                     0 |       7944200 | 2017-02-04 20:04:48.025022+01

 2017-02-04 22:11:44.872857+01 | 1486242704.87286 |                 0 |              24 |                229681 |                 4740 |           20932975 |       2148675 |            19396 |        11803353 |                     0 |       7945801 | 2017-02-04 20:04:48.025022+01

 2017-02-04 22:11:45.951589+01 | 1486242705.95159 |                 0 |              24 |                229681 |                 4740 |           20932975 |       2149175 |            19401 |        11803353 |                     0 |       7947319 | 2017-02-04 20:04:48.025022+01

 2017-02-04 22:11:47.027502+01 | 1486242707.0275 |                 0 |              24 |                229681 |                 4740 |           20932975 |       2149675 |            19406 |        11803353 |                     0 |       7948775 | 2017-02-04 20:04:48.025022+01

 2017-02-04 22:11:48.104442+01 | 1486242708.10444 |                 0 |              24 |                229681 |                 4740 |           20932975 |       2150275 |            19412 |        11803353 |                     0 |       7950672 | 2017-02-04 20:04:48.025022+01

 2017-02-04 22:11:49.185824+01 | 1486242709.18582 |                 0 |              24 |                229681 |                 4740 |           20932975 |       2150775 |            19417 |        11803353 |                     0 |       7952072 | 2017-02-04 20:04:48.025022+01

 2017-02-04 22:11:50.269922+01 | 1486242710.26992 |                 0 |              24 |                229681 |                 4740 |           20932975 |       2151275 |            19422 |        11803353 |                     0 |       7953591 | 2017-02-04 20:04:48.025022+01

 2017-02-04 22:11:51.350025+01 | 1486242711.35002 |                 0 |              24 |                229681 |                 4740 |           20932975 |       2151875 |            19428 |        11803353 |                     0 |       7955385 | 2017-02-04 20:04:48.025022+01

 2017-02-04 22:11:52.431367+01 | 1486242712.43137 |                 0 |              24 |                229681 |                 4740 |           20932975 |       2152375 |            19433 |        11803353 |                     0 |       7956960 | 2017-02-04 20:04:48.025022+01

 2017-02-04 22:11:53.513797+01 | 1486242713.5138 |                 0 |              24 |                229681 |                 4740 |           20932975 |       2152875 |            19438 |        11803353 |                     0 |       7958217 | 2017-02-04 20:04:48.025022+01

 2017-02-04 22:11:54.589733+01 | 1486242714.58973 |                 0 |              24 |                229681 |                 4740 |           20932975 |       2153475 |            19444 |        11803353 |                     0 |       7959807 | 2017-02-04 20:04:48.025022+01

 2017-02-04 22:11:55.674106+01 | 1486242715.67411 |                 0 |              24 |                229681 |                 4740 |           20932975 |       2153975 |            19449 |        11803353 |                     0 |       7961258 | 2017-02-04 20:04:48.025022+01

 2017-02-04 22:11:56.757566+01 | 1486242716.75757 |                 0 |              24 |                229681 |                 4740 |           20932975 |       2154575 |            19455 |        11803353 |                     0 |       7963010 | 2017-02-04 20:04:48.025022+01

 2017-02-04 22:11:57.83967+01 | 1486242717.83967 |                 0 |              24 |                229681 |                 4740 |           20932975 |       2155075 |            19460 |        11803353 |                     0 |       7964425 | 2017-02-04 20:04:48.025022+01

 2017-02-04 22:11:58.916518+01 | 1486242718.91652 |                 0 |              24 |                229681 |                 4740 |           20932975 |       2155575 |            19465 |        11803353 |                     0 |       7965792 | 2017-02-04 20:04:48.025022+01

 2017-02-04 22:11:59.996683+01 | 1486242719.99668 |                 0 |              24 |                229681 |                 4740 |           20932975 |       2156175 |            19471 |        11803353 |                     0 |       7967199 | 2017-02-04 20:04:48.025022+01

 2017-02-04 22:12:01.074454+01 | 1486242721.07445 |                 0 |              24 |                229681 |                 4740 |           20932975 |       2156675 |            19476 |        11803353 |                     0 |       7968522 | 2017-02-04 20:04:48.025022+01

 2017-02-04 22:12:02.150472+01 | 1486242722.15047 |                 0 |              24 |                229681 |                 4740 |           20932975 |       2157175 |            19481 |        11803353 |                     0 |       7969848 | 2017-02-04 20:04:48.025022+01

 2017-02-04 22:12:03.227056+01 | 1486242723.22706 |                 0 |              24 |                229681 |                 4740 |           20932975 |       2157775 |            19487 |        11803353 |                     0 |       7971505 | 2017-02-04 20:04:48.025022+01

 2017-02-04 22:12:04.304072+01 | 1486242724.30407 |                 0 |              24 |                229681 |                 4740 |           20932975 |       2158275 |            19492 |        11803353 |                     0 |       7972855 | 2017-02-04 20:04:48.025022+01

 2017-02-04 22:12:05.383573+01 | 1486242725.38357 |                 0 |              24 |                229681 |                 4740 |           20932975 |       2158775 |            19497 |        11803353 |                     0 |       7974268 | 2017-02-04 20:04:48.025022+01

 2017-02-04 22:12:06.469197+01 | 1486242726.4692 |                 0 |              24 |                229681 |                 4740 |           20932975 |       2159375 |            19503 |        11803353 |                     0 |       7975998 | 2017-02-04 20:04:48.025022+01

 2017-02-04 22:12:07.552712+01 | 1486242727.55271 |                 0 |              24 |                229681 |                 4740 |           20932975 |       2159875 |            19508 |        11803353 |                     0 |       7977459 | 2017-02-04 20:04:48.025022+01

 2017-02-04 22:12:08.635486+01 | 1486242728.63549 |                 0 |              24 |                229681 |                 4740 |           20932975 |       2160375 |            19513 |        11803353 |                     0 |       7978973 | 2017-02-04 20:04:48.025022+01

 2017-02-04 22:12:09.714089+01 | 1486242729.71409 |                 0 |              24 |                229681 |                 4740 |           20932975 |       2160975 |            19519 |        11803353 |                     0 |       7980905 | 2017-02-04 20:04:48.025022+01

 2017-02-04 22:12:10.794219+01 | 1486242730.79422 |                 0 |              24 |                229681 |                 4740 |           20932975 |       2161475 |            19524 |        11803353 |                     0 |       7982354 | 2017-02-04 20:04:48.025022+01

 2017-02-04 22:12:11.87234+01 | 1486242731.87234 |                 0 |              24 |                229681 |                 4740 |           20932975 |       2161975 |            19529 |        11803353 |                     0 |       7983909 | 2017-02-04 20:04:48.025022+01

 2017-02-04 22:12:12.947126+01 | 1486242732.94713 |                 0 |              24 |                229681 |                 4740 |           20932975 |       2162575 |            19535 |        11803353 |                     0 |       7985547 | 2017-02-04 20:04:48.025022+01

 2017-02-04 22:12:14.024336+01 | 1486242734.02434 |                 0 |              24 |                229681 |                 4740 |           20932975 |       2163075 |            19540 |        11803353 |                     0 |       7986903 | 2017-02-04 20:04:48.025022+01

 2017-02-04 22:12:15.106196+01 | 1486242735.1062 |                 0 |              24 |                229681 |                 4740 |           20932975 |       2163575 |            19545 |        11803353 |                     0 |       7988355 | 2017-02-04 20:04:48.025022+01

 2017-02-04 22:12:16.179787+01 | 1486242736.17979 |                 0 |              24 |                229681 |                 4740 |           20932975 |       2164175 |            19551 |        11803353 |                     0 |       7990204 | 2017-02-04 20:04:48.025022+01

 2017-02-04 22:12:17.260074+01 | 1486242737.26007 |                 0 |              24 |                229681 |                 4740 |           20932975 |       2164675 |            19556 |        11803353 |                     0 |       7991620 | 2017-02-04 20:04:48.025022+01

 2017-02-04 22:12:18.340483+01 | 1486242738.34048 |                 0 |              24 |                229681 |                 4740 |           20932975 |       2165175 |            19561 |        11803353 |                     0 |       7992953 | 2017-02-04 20:04:48.025022+01

 2017-02-04 22:12:19.41706+01 | 1486242739.41706 |                 0 |              24 |                229681 |                 4740 |           20932975 |       2165775 |            19567 |        11803353 |                     0 |       7994668 | 2017-02-04 20:04:48.025022+01

 2017-02-04 22:12:20.495197+01 | 1486242740.4952 |                 0 |              24 |                229681 |                 4740 |           20932975 |       2166275 |            19572 |        11803353 |                     0 |       7996203 | 2017-02-04 20:04:48.025022+01

 2017-02-04 22:12:21.586182+01 | 1486242741.58618 |                 0 |              24 |                229681 |                 4740 |           20932975 |       2166875 |            19578 |        11803353 |                     0 |       7998086 | 2017-02-04 20:04:48.025022+01

 2017-02-04 22:12:22.664492+01 | 1486242742.66449 |                 0 |              24 |                229681 |                 4740 |           20932975 |       2167375 |            19583 |        11803353 |                     0 |       7999532 | 2017-02-04 20:04:48.025022+01

 2017-02-04 22:12:23.744517+01 | 1486242743.74452 |                 0 |              24 |                229681 |                 4740 |           20932975 |       2167875 |            19588 |        11803353 |                     0 |       8001281 | 2017-02-04 20:04:48.025022+01

 2017-02-04 22:12:24.823213+01 | 1486242744.82321 |                 0 |              24 |                229681 |                 4740 |           20932975 |       2168475 |            19594 |        11803353 |                     0 |       8002790 | 2017-02-04 20:04:48.025022+01

 2017-02-04 22:12:25.896982+01 | 1486242745.89698 |                 0 |              24 |                229681 |                 4740 |           20932975 |       2168975 |            19599 |        11803353 |                     0 |       8004343 | 2017-02-04 20:04:48.025022+01

 2017-02-04 22:12:26.969527+01 | 1486242746.96953 |                 0 |              24 |                229681 |                 4740 |           20932975 |       2169475 |            19604 |        11803353 |                     0 |       8005771 | 2017-02-04 20:04:48.025022+01

 2017-02-04 22:12:28.051527+01 | 1486242748.05153 |                 0 |              24 |                229681 |                 4740 |           20932975 |       2170075 |            19610 |        11803353 |                     0 |       8007414 | 2017-02-04 20:04:48.025022+01

 2017-02-04 22:12:29.128452+01 | 1486242749.12845 |                 0 |              24 |                229681 |                 4740 |           20932975 |       2170575 |            19615 |        11803353 |                     0 |       8008906 | 2017-02-04 20:04:48.025022+01

 2017-02-04 22:12:30.214045+01 | 1486242750.21405 |                 0 |              24 |                229681 |                 4740 |           20932975 |       2171075 |            19620 |        11803353 |                     0 |       8010421 | 2017-02-04 20:04:48.025022+01

 2017-02-04 22:12:31.297729+01 | 1486242751.29773 |                 0 |              24 |                229681 |                 4740 |           20932975 |       2171675 |            19626 |        11803353 |                     0 |       8011944 | 2017-02-04 20:04:48.025022+01

 2017-02-04 22:12:32.392583+01 | 1486242752.39258 |                 0 |              24 |                229681 |                 4740 |           20932975 |       2172175 |            19631 |        11803353 |                     0 |       8013358 | 2017-02-04 20:04:48.025022+01

 2017-02-04 22:12:33.471987+01 | 1486242753.47199 |                 0 |              24 |                229681 |                 4740 |           20932975 |       2172675 |            19636 |        11803353 |                     0 |       8014814 | 2017-02-04 20:04:48.025022+01

 2017-02-04 22:12:34.549391+01 | 1486242754.54939 |                 0 |              24 |                229681 |                 4740 |           20932975 |       2173275 |            19642 |        11803353 |                     0 |       8016667 | 2017-02-04 20:04:48.025022+01

 2017-02-04 22:12:35.628313+01 | 1486242755.62831 |                 0 |              24 |                229681 |                 4740 |           20932975 |       2173775 |            19647 |        11803353 |                     0 |       8018091 | 2017-02-04 20:04:48.025022+01

 2017-02-04 22:12:36.707171+01 | 1486242756.70717 |                 0 |              24 |                229681 |                 4740 |           20932975 |       2174275 |            19652 |        11803353 |                     0 |       8019527 | 2017-02-04 20:04:48.025022+01

 2017-02-04 22:12:37.793776+01 | 1486242757.79378 |                 0 |              24 |                229681 |                 4740 |           20932975 |       2174875 |            19658 |        11803353 |                     0 |       8021286 | 2017-02-04 20:04:48.025022+01

 2017-02-04 22:12:38.879513+01 | 1486242758.87951 |                 0 |              24 |                229681 |                 4740 |           20932975 |       2175375 |            19663 |        11803353 |                     0 |       8022724 | 2017-02-04 20:04:48.025022+01

 2017-02-04 22:12:39.957603+01 | 1486242759.9576 |                 0 |              24 |                229681 |                 4740 |           20932975 |       2175975 |            19669 |        11803353 |                     0 |       8024451 | 2017-02-04 20:04:48.025022+01

 2017-02-04 22:12:41.036906+01 | 1486242761.03691 |                 0 |              24 |                229681 |                 4740 |           20932975 |       2176475 |            19674 |        11803353 |                     0 |       8025951 | 2017-02-04 20:04:48.025022+01

 2017-02-04 22:12:42.114631+01 | 1486242762.11463 |                 0 |              24 |                229681 |                 4740 |           20932975 |       2176975 |            19679 |        11803353 |                     0 |       8028182 | 2017-02-04 20:04:48.025022+01

 2017-02-04 22:12:43.193642+01 | 1486242763.19364 |                 0 |              24 |                229681 |                 4740 |           20932975 |       2177575 |            19685 |        11803353 |                     0 |       8031305 | 2017-02-04 20:04:48.025022+01

 2017-02-04 22:12:44.267224+01 | 1486242764.26722 |                 0 |              24 |                229681 |                 4740 |           20932975 |       2178075 |            19690 |        11803353 |                     0 |       8033776 | 2017-02-04 20:04:48.025022+01

 2017-02-04 22:12:45.349016+01 | 1486242765.34902 |                 0 |              24 |                229681 |                 4740 |           20932975 |       2178575 |            19695 |        11803353 |                     0 |       8036428 | 2017-02-04 20:04:48.025022+01

 2017-02-04 22:12:46.429559+01 | 1486242766.42956 |                 0 |              24 |                229681 |                 4740 |           20932975 |       2179175 |            19701 |        11803353 |                     0 |       8039910 | 2017-02-04 20:04:48.025022+01

 2017-02-04 22:12:47.507758+01 | 1486242767.50776 |                 0 |              24 |                229681 |                 4740 |           20932975 |       2179675 |            19706 |        11803353 |                     0 |       8043061 | 2017-02-04 20:04:48.025022+01

 2017-02-04 22:12:48.591482+01 | 1486242768.59148 |                 0 |              24 |                229681 |                 4740 |           20932975 |       2180175 |            19711 |        11803353 |                     0 |       8045898 | 2017-02-04 20:04:48.025022+01

 2017-02-04 22:12:49.660964+01 | 1486242769.66096 |                 0 |              24 |                229681 |                 4740 |           20932975 |       2180775 |            19717 |        11803353 |                     0 |       8049448 | 2017-02-04 20:04:48.025022+01

 2017-02-04 22:12:50.73192+01 | 1486242770.73192 |                 0 |              24 |                229681 |                 4740 |           20932975 |       2181275 |            19722 |        11803353 |                     0 |       8051875 | 2017-02-04 20:04:48.025022+01

 2017-02-04 22:12:51.819383+01 | 1486242771.81938 |                 0 |              24 |                229681 |                 4740 |           20932975 |       2181775 |            19727 |        11803353 |                     0 |       8054651 | 2017-02-04 20:04:48.025022+01

 2017-02-04 22:12:52.897671+01 | 1486242772.89767 |                 0 |              24 |                229681 |                 4740 |           20932975 |       2182375 |            19733 |        11803353 |                     0 |       8058017 | 2017-02-04 20:04:48.025022+01

 2017-02-04 22:12:53.977094+01 | 1486242773.97709 |                 0 |              24 |                229681 |                 4740 |           20932975 |       2182875 |            19738 |        11803353 |                     0 |       8060923 | 2017-02-04 20:04:48.025022+01

