 2017-02-04 19:03:46.385147+01 | 1486231426.38515 | pgbench_branches_pkey |            90112
 2017-02-04 19:03:46.385147+01 | 1486231426.38515 | pgbench_tellers_pkey  |           458752
 2017-02-04 19:03:46.385147+01 | 1486231426.38515 | pgbench_accounts_pkey |        224641024

 2017-02-04 19:03:47.473153+01 | 1486231427.47315 | pgbench_branches_pkey |            90112
 2017-02-04 19:03:47.473153+01 | 1486231427.47315 | pgbench_tellers_pkey  |           458752
 2017-02-04 19:03:47.473153+01 | 1486231427.47315 | pgbench_accounts_pkey |        224641024

 2017-02-04 19:03:48.560616+01 | 1486231428.56062 | pgbench_branches_pkey |            90112
 2017-02-04 19:03:48.560616+01 | 1486231428.56062 | pgbench_tellers_pkey  |           458752
 2017-02-04 19:03:48.560616+01 | 1486231428.56062 | pgbench_accounts_pkey |        224641024

 2017-02-04 19:03:49.647469+01 | 1486231429.64747 | pgbench_branches_pkey |            90112
 2017-02-04 19:03:49.647469+01 | 1486231429.64747 | pgbench_tellers_pkey  |           458752
 2017-02-04 19:03:49.647469+01 | 1486231429.64747 | pgbench_accounts_pkey |        224641024

 2017-02-04 19:03:50.718776+01 | 1486231430.71878 | pgbench_branches_pkey |            90112
 2017-02-04 19:03:50.718776+01 | 1486231430.71878 | pgbench_tellers_pkey  |           458752
 2017-02-04 19:03:50.718776+01 | 1486231430.71878 | pgbench_accounts_pkey |        224641024

 2017-02-04 19:03:51.804568+01 | 1486231431.80457 | pgbench_branches_pkey |            90112
 2017-02-04 19:03:51.804568+01 | 1486231431.80457 | pgbench_tellers_pkey  |           458752
 2017-02-04 19:03:51.804568+01 | 1486231431.80457 | pgbench_accounts_pkey |        224641024

 2017-02-04 19:03:52.893284+01 | 1486231432.89328 | pgbench_branches_pkey |            90112
 2017-02-04 19:03:52.893284+01 | 1486231432.89328 | pgbench_tellers_pkey  |           458752
 2017-02-04 19:03:52.893284+01 | 1486231432.89328 | pgbench_accounts_pkey |        224641024

 2017-02-04 19:03:53.970408+01 | 1486231433.97041 | pgbench_branches_pkey |            90112
 2017-02-04 19:03:53.970408+01 | 1486231433.97041 | pgbench_tellers_pkey  |           458752
 2017-02-04 19:03:53.970408+01 | 1486231433.97041 | pgbench_accounts_pkey |        224641024

 2017-02-04 19:03:55.044325+01 | 1486231435.04433 | pgbench_branches_pkey |            90112
 2017-02-04 19:03:55.044325+01 | 1486231435.04433 | pgbench_tellers_pkey  |           458752
 2017-02-04 19:03:55.044325+01 | 1486231435.04433 | pgbench_accounts_pkey |        224641024

 2017-02-04 19:03:56.117409+01 | 1486231436.11741 | pgbench_branches_pkey |            90112
 2017-02-04 19:03:56.117409+01 | 1486231436.11741 | pgbench_tellers_pkey  |           458752
 2017-02-04 19:03:56.117409+01 | 1486231436.11741 | pgbench_accounts_pkey |        224641024

 2017-02-04 19:03:57.200677+01 | 1486231437.20068 | pgbench_branches_pkey |            90112
 2017-02-04 19:03:57.200677+01 | 1486231437.20068 | pgbench_tellers_pkey  |           458752
 2017-02-04 19:03:57.200677+01 | 1486231437.20068 | pgbench_accounts_pkey |        224641024

 2017-02-04 19:03:58.284251+01 | 1486231438.28425 | pgbench_branches_pkey |            90112
 2017-02-04 19:03:58.284251+01 | 1486231438.28425 | pgbench_tellers_pkey  |           458752
 2017-02-04 19:03:58.284251+01 | 1486231438.28425 | pgbench_accounts_pkey |        224641024

 2017-02-04 19:03:59.364167+01 | 1486231439.36417 | pgbench_branches_pkey |            90112
 2017-02-04 19:03:59.364167+01 | 1486231439.36417 | pgbench_tellers_pkey  |           458752
 2017-02-04 19:03:59.364167+01 | 1486231439.36417 | pgbench_accounts_pkey |        224641024

 2017-02-04 19:04:00.451137+01 | 1486231440.45114 | pgbench_branches_pkey |            90112
 2017-02-04 19:04:00.451137+01 | 1486231440.45114 | pgbench_tellers_pkey  |           458752
 2017-02-04 19:04:00.451137+01 | 1486231440.45114 | pgbench_accounts_pkey |        224641024

 2017-02-04 19:04:01.537262+01 | 1486231441.53726 | pgbench_branches_pkey |            90112
 2017-02-04 19:04:01.537262+01 | 1486231441.53726 | pgbench_tellers_pkey  |           458752
 2017-02-04 19:04:01.537262+01 | 1486231441.53726 | pgbench_accounts_pkey |        224641024

 2017-02-04 19:04:02.616581+01 | 1486231442.61658 | pgbench_branches_pkey |            90112
 2017-02-04 19:04:02.616581+01 | 1486231442.61658 | pgbench_tellers_pkey  |           458752
 2017-02-04 19:04:02.616581+01 | 1486231442.61658 | pgbench_accounts_pkey |        224641024

 2017-02-04 19:04:03.702691+01 | 1486231443.70269 | pgbench_branches_pkey |            90112
 2017-02-04 19:04:03.702691+01 | 1486231443.70269 | pgbench_tellers_pkey  |           458752
 2017-02-04 19:04:03.702691+01 | 1486231443.70269 | pgbench_accounts_pkey |        224641024

 2017-02-04 19:04:04.784097+01 | 1486231444.7841 | pgbench_branches_pkey |            90112
 2017-02-04 19:04:04.784097+01 | 1486231444.7841 | pgbench_tellers_pkey  |           458752
 2017-02-04 19:04:04.784097+01 | 1486231444.7841 | pgbench_accounts_pkey |        224641024

 2017-02-04 19:04:05.852117+01 | 1486231445.85212 | pgbench_branches_pkey |            90112
 2017-02-04 19:04:05.852117+01 | 1486231445.85212 | pgbench_tellers_pkey  |           458752
 2017-02-04 19:04:05.852117+01 | 1486231445.85212 | pgbench_accounts_pkey |        224641024

 2017-02-04 19:04:06.933154+01 | 1486231446.93315 | pgbench_branches_pkey |            90112
 2017-02-04 19:04:06.933154+01 | 1486231446.93315 | pgbench_tellers_pkey  |           458752
 2017-02-04 19:04:06.933154+01 | 1486231446.93315 | pgbench_accounts_pkey |        224641024

 2017-02-04 19:04:08.021411+01 | 1486231448.02141 | pgbench_branches_pkey |            90112
 2017-02-04 19:04:08.021411+01 | 1486231448.02141 | pgbench_tellers_pkey  |           458752
 2017-02-04 19:04:08.021411+01 | 1486231448.02141 | pgbench_accounts_pkey |        224641024

 2017-02-04 19:04:09.10603+01 | 1486231449.10603 | pgbench_branches_pkey |            90112
 2017-02-04 19:04:09.10603+01 | 1486231449.10603 | pgbench_tellers_pkey  |           458752
 2017-02-04 19:04:09.10603+01 | 1486231449.10603 | pgbench_accounts_pkey |        224641024

 2017-02-04 19:04:10.183697+01 | 1486231450.1837 | pgbench_branches_pkey |            90112
 2017-02-04 19:04:10.183697+01 | 1486231450.1837 | pgbench_tellers_pkey  |           458752
 2017-02-04 19:04:10.183697+01 | 1486231450.1837 | pgbench_accounts_pkey |        224641024

 2017-02-04 19:04:11.255051+01 | 1486231451.25505 | pgbench_branches_pkey |            90112
 2017-02-04 19:04:11.255051+01 | 1486231451.25505 | pgbench_tellers_pkey  |           458752
 2017-02-04 19:04:11.255051+01 | 1486231451.25505 | pgbench_accounts_pkey |        224641024

 2017-02-04 19:04:12.335521+01 | 1486231452.33552 | pgbench_branches_pkey |            90112
 2017-02-04 19:04:12.335521+01 | 1486231452.33552 | pgbench_tellers_pkey  |           458752
 2017-02-04 19:04:12.335521+01 | 1486231452.33552 | pgbench_accounts_pkey |        224641024

 2017-02-04 19:04:13.419148+01 | 1486231453.41915 | pgbench_branches_pkey |            90112
 2017-02-04 19:04:13.419148+01 | 1486231453.41915 | pgbench_tellers_pkey  |           458752
 2017-02-04 19:04:13.419148+01 | 1486231453.41915 | pgbench_accounts_pkey |        224641024

 2017-02-04 19:04:14.501579+01 | 1486231454.50158 | pgbench_branches_pkey |            90112
 2017-02-04 19:04:14.501579+01 | 1486231454.50158 | pgbench_tellers_pkey  |           458752
 2017-02-04 19:04:14.501579+01 | 1486231454.50158 | pgbench_accounts_pkey |        224641024

 2017-02-04 19:04:15.577275+01 | 1486231455.57728 | pgbench_branches_pkey |            90112
 2017-02-04 19:04:15.577275+01 | 1486231455.57728 | pgbench_tellers_pkey  |           458752
 2017-02-04 19:04:15.577275+01 | 1486231455.57728 | pgbench_accounts_pkey |        224641024

 2017-02-04 19:04:16.647343+01 | 1486231456.64734 | pgbench_branches_pkey |            90112
 2017-02-04 19:04:16.647343+01 | 1486231456.64734 | pgbench_tellers_pkey  |           458752
 2017-02-04 19:04:16.647343+01 | 1486231456.64734 | pgbench_accounts_pkey |        224641024

 2017-02-04 19:04:17.726403+01 | 1486231457.7264 | pgbench_branches_pkey |            90112
 2017-02-04 19:04:17.726403+01 | 1486231457.7264 | pgbench_tellers_pkey  |           458752
 2017-02-04 19:04:17.726403+01 | 1486231457.7264 | pgbench_accounts_pkey |        224641024

 2017-02-04 19:04:18.816561+01 | 1486231458.81656 | pgbench_branches_pkey |            90112
 2017-02-04 19:04:18.816561+01 | 1486231458.81656 | pgbench_tellers_pkey  |           458752
 2017-02-04 19:04:18.816561+01 | 1486231458.81656 | pgbench_accounts_pkey |        224641024

 2017-02-04 19:04:19.889134+01 | 1486231459.88913 | pgbench_branches_pkey |            90112
 2017-02-04 19:04:19.889134+01 | 1486231459.88913 | pgbench_tellers_pkey  |           458752
 2017-02-04 19:04:19.889134+01 | 1486231459.88913 | pgbench_accounts_pkey |        224641024

 2017-02-04 19:04:20.962024+01 | 1486231460.96202 | pgbench_branches_pkey |            90112
 2017-02-04 19:04:20.962024+01 | 1486231460.96202 | pgbench_tellers_pkey  |           458752
 2017-02-04 19:04:20.962024+01 | 1486231460.96202 | pgbench_accounts_pkey |        224641024

 2017-02-04 19:04:22.039395+01 | 1486231462.0394 | pgbench_branches_pkey |            90112
 2017-02-04 19:04:22.039395+01 | 1486231462.0394 | pgbench_tellers_pkey  |           458752
 2017-02-04 19:04:22.039395+01 | 1486231462.0394 | pgbench_accounts_pkey |        224641024

 2017-02-04 19:04:23.116365+01 | 1486231463.11636 | pgbench_branches_pkey |            90112
 2017-02-04 19:04:23.116365+01 | 1486231463.11636 | pgbench_tellers_pkey  |           458752
 2017-02-04 19:04:23.116365+01 | 1486231463.11636 | pgbench_accounts_pkey |        224641024

 2017-02-04 19:04:24.200127+01 | 1486231464.20013 | pgbench_branches_pkey |            90112
 2017-02-04 19:04:24.200127+01 | 1486231464.20013 | pgbench_tellers_pkey  |           458752
 2017-02-04 19:04:24.200127+01 | 1486231464.20013 | pgbench_accounts_pkey |        224641024

 2017-02-04 19:04:25.286229+01 | 1486231465.28623 | pgbench_branches_pkey |            90112
 2017-02-04 19:04:25.286229+01 | 1486231465.28623 | pgbench_tellers_pkey  |           458752
 2017-02-04 19:04:25.286229+01 | 1486231465.28623 | pgbench_accounts_pkey |        224641024

 2017-02-04 19:04:26.369402+01 | 1486231466.3694 | pgbench_branches_pkey |            90112
 2017-02-04 19:04:26.369402+01 | 1486231466.3694 | pgbench_tellers_pkey  |           458752
 2017-02-04 19:04:26.369402+01 | 1486231466.3694 | pgbench_accounts_pkey |        224641024

 2017-02-04 19:04:27.441316+01 | 1486231467.44132 | pgbench_branches_pkey |            90112
 2017-02-04 19:04:27.441316+01 | 1486231467.44132 | pgbench_tellers_pkey  |           458752
 2017-02-04 19:04:27.441316+01 | 1486231467.44132 | pgbench_accounts_pkey |        224641024

 2017-02-04 19:04:28.519143+01 | 1486231468.51914 | pgbench_branches_pkey |            90112
 2017-02-04 19:04:28.519143+01 | 1486231468.51914 | pgbench_tellers_pkey  |           458752
 2017-02-04 19:04:28.519143+01 | 1486231468.51914 | pgbench_accounts_pkey |        224641024

 2017-02-04 19:04:29.598574+01 | 1486231469.59857 | pgbench_branches_pkey |            90112
 2017-02-04 19:04:29.598574+01 | 1486231469.59857 | pgbench_tellers_pkey  |           458752
 2017-02-04 19:04:29.598574+01 | 1486231469.59857 | pgbench_accounts_pkey |        224641024

 2017-02-04 19:04:30.677849+01 | 1486231470.67785 | pgbench_branches_pkey |            90112
 2017-02-04 19:04:30.677849+01 | 1486231470.67785 | pgbench_tellers_pkey  |           458752
 2017-02-04 19:04:30.677849+01 | 1486231470.67785 | pgbench_accounts_pkey |        224641024

 2017-02-04 19:04:31.754006+01 | 1486231471.75401 | pgbench_branches_pkey |            90112
 2017-02-04 19:04:31.754006+01 | 1486231471.75401 | pgbench_tellers_pkey  |           458752
 2017-02-04 19:04:31.754006+01 | 1486231471.75401 | pgbench_accounts_pkey |        224641024

 2017-02-04 19:04:32.829749+01 | 1486231472.82975 | pgbench_branches_pkey |            90112
 2017-02-04 19:04:32.829749+01 | 1486231472.82975 | pgbench_tellers_pkey  |           458752
 2017-02-04 19:04:32.829749+01 | 1486231472.82975 | pgbench_accounts_pkey |        224641024

 2017-02-04 19:04:33.917136+01 | 1486231473.91714 | pgbench_branches_pkey |            90112
 2017-02-04 19:04:33.917136+01 | 1486231473.91714 | pgbench_tellers_pkey  |           458752
 2017-02-04 19:04:33.917136+01 | 1486231473.91714 | pgbench_accounts_pkey |        224641024

 2017-02-04 19:04:35.001655+01 | 1486231475.00166 | pgbench_branches_pkey |            90112
 2017-02-04 19:04:35.001655+01 | 1486231475.00166 | pgbench_tellers_pkey  |           458752
 2017-02-04 19:04:35.001655+01 | 1486231475.00166 | pgbench_accounts_pkey |        224641024

 2017-02-04 19:04:36.075428+01 | 1486231476.07543 | pgbench_branches_pkey |            90112
 2017-02-04 19:04:36.075428+01 | 1486231476.07543 | pgbench_tellers_pkey  |           458752
 2017-02-04 19:04:36.075428+01 | 1486231476.07543 | pgbench_accounts_pkey |        224641024

 2017-02-04 19:04:37.156321+01 | 1486231477.15632 | pgbench_branches_pkey |            90112
 2017-02-04 19:04:37.156321+01 | 1486231477.15632 | pgbench_tellers_pkey  |           458752
 2017-02-04 19:04:37.156321+01 | 1486231477.15632 | pgbench_accounts_pkey |        224641024

 2017-02-04 19:04:38.232128+01 | 1486231478.23213 | pgbench_branches_pkey |            90112
 2017-02-04 19:04:38.232128+01 | 1486231478.23213 | pgbench_tellers_pkey  |           458752
 2017-02-04 19:04:38.232128+01 | 1486231478.23213 | pgbench_accounts_pkey |        224641024

 2017-02-04 19:04:39.308875+01 | 1486231479.30888 | pgbench_branches_pkey |            90112
 2017-02-04 19:04:39.308875+01 | 1486231479.30888 | pgbench_tellers_pkey  |           458752
 2017-02-04 19:04:39.308875+01 | 1486231479.30888 | pgbench_accounts_pkey |        224641024

 2017-02-04 19:04:40.395364+01 | 1486231480.39536 | pgbench_branches_pkey |            90112
 2017-02-04 19:04:40.395364+01 | 1486231480.39536 | pgbench_tellers_pkey  |           458752
 2017-02-04 19:04:40.395364+01 | 1486231480.39536 | pgbench_accounts_pkey |        224641024

 2017-02-04 19:04:41.480137+01 | 1486231481.48014 | pgbench_branches_pkey |            90112
 2017-02-04 19:04:41.480137+01 | 1486231481.48014 | pgbench_tellers_pkey  |           458752
 2017-02-04 19:04:41.480137+01 | 1486231481.48014 | pgbench_accounts_pkey |        224641024

 2017-02-04 19:04:42.562089+01 | 1486231482.56209 | pgbench_branches_pkey |            90112
 2017-02-04 19:04:42.562089+01 | 1486231482.56209 | pgbench_tellers_pkey  |           458752
 2017-02-04 19:04:42.562089+01 | 1486231482.56209 | pgbench_accounts_pkey |        224641024

 2017-02-04 19:04:43.644762+01 | 1486231483.64476 | pgbench_branches_pkey |            90112
 2017-02-04 19:04:43.644762+01 | 1486231483.64476 | pgbench_tellers_pkey  |           458752
 2017-02-04 19:04:43.644762+01 | 1486231483.64476 | pgbench_accounts_pkey |        224641024

 2017-02-04 19:04:44.731543+01 | 1486231484.73154 | pgbench_branches_pkey |            90112
 2017-02-04 19:04:44.731543+01 | 1486231484.73154 | pgbench_tellers_pkey  |           458752
 2017-02-04 19:04:44.731543+01 | 1486231484.73154 | pgbench_accounts_pkey |        224641024

 2017-02-04 19:04:45.810032+01 | 1486231485.81003 | pgbench_branches_pkey |            90112
 2017-02-04 19:04:45.810032+01 | 1486231485.81003 | pgbench_tellers_pkey  |           458752
 2017-02-04 19:04:45.810032+01 | 1486231485.81003 | pgbench_accounts_pkey |        224641024

 2017-02-04 19:04:46.887888+01 | 1486231486.88789 | pgbench_branches_pkey |            90112
 2017-02-04 19:04:46.887888+01 | 1486231486.88789 | pgbench_tellers_pkey  |           458752
 2017-02-04 19:04:46.887888+01 | 1486231486.88789 | pgbench_accounts_pkey |        224641024

 2017-02-04 19:04:47.966269+01 | 1486231487.96627 | pgbench_branches_pkey |            90112
 2017-02-04 19:04:47.966269+01 | 1486231487.96627 | pgbench_tellers_pkey  |           458752
 2017-02-04 19:04:47.966269+01 | 1486231487.96627 | pgbench_accounts_pkey |        224641024

 2017-02-04 19:04:49.034852+01 | 1486231489.03485 | pgbench_branches_pkey |            90112
 2017-02-04 19:04:49.034852+01 | 1486231489.03485 | pgbench_tellers_pkey  |           458752
 2017-02-04 19:04:49.034852+01 | 1486231489.03485 | pgbench_accounts_pkey |        224641024

 2017-02-04 19:04:50.111409+01 | 1486231490.11141 | pgbench_branches_pkey |            90112
 2017-02-04 19:04:50.111409+01 | 1486231490.11141 | pgbench_tellers_pkey  |           458752
 2017-02-04 19:04:50.111409+01 | 1486231490.11141 | pgbench_accounts_pkey |        224641024

 2017-02-04 19:04:51.189428+01 | 1486231491.18943 | pgbench_branches_pkey |            90112
 2017-02-04 19:04:51.189428+01 | 1486231491.18943 | pgbench_tellers_pkey  |           458752
 2017-02-04 19:04:51.189428+01 | 1486231491.18943 | pgbench_accounts_pkey |        224641024

 2017-02-04 19:04:52.277076+01 | 1486231492.27708 | pgbench_branches_pkey |            90112
 2017-02-04 19:04:52.277076+01 | 1486231492.27708 | pgbench_tellers_pkey  |           458752
 2017-02-04 19:04:52.277076+01 | 1486231492.27708 | pgbench_accounts_pkey |        224641024

 2017-02-04 19:04:53.350522+01 | 1486231493.35052 | pgbench_branches_pkey |            90112
 2017-02-04 19:04:53.350522+01 | 1486231493.35052 | pgbench_tellers_pkey  |           458752
 2017-02-04 19:04:53.350522+01 | 1486231493.35052 | pgbench_accounts_pkey |        224641024

 2017-02-04 19:04:54.429979+01 | 1486231494.42998 | pgbench_branches_pkey |            90112
 2017-02-04 19:04:54.429979+01 | 1486231494.42998 | pgbench_tellers_pkey  |           458752
 2017-02-04 19:04:54.429979+01 | 1486231494.42998 | pgbench_accounts_pkey |        224641024

 2017-02-04 19:04:55.507079+01 | 1486231495.50708 | pgbench_branches_pkey |            90112
 2017-02-04 19:04:55.507079+01 | 1486231495.50708 | pgbench_tellers_pkey  |           458752
 2017-02-04 19:04:55.507079+01 | 1486231495.50708 | pgbench_accounts_pkey |        224641024

 2017-02-04 19:04:56.589525+01 | 1486231496.58952 | pgbench_branches_pkey |            90112
 2017-02-04 19:04:56.589525+01 | 1486231496.58952 | pgbench_tellers_pkey  |           458752
 2017-02-04 19:04:56.589525+01 | 1486231496.58952 | pgbench_accounts_pkey |        224641024

 2017-02-04 19:04:57.675662+01 | 1486231497.67566 | pgbench_branches_pkey |            90112
 2017-02-04 19:04:57.675662+01 | 1486231497.67566 | pgbench_tellers_pkey  |           458752
 2017-02-04 19:04:57.675662+01 | 1486231497.67566 | pgbench_accounts_pkey |        224641024

 2017-02-04 19:04:58.760115+01 | 1486231498.76011 | pgbench_branches_pkey |            90112
 2017-02-04 19:04:58.760115+01 | 1486231498.76011 | pgbench_tellers_pkey  |           458752
 2017-02-04 19:04:58.760115+01 | 1486231498.76011 | pgbench_accounts_pkey |        224641024

 2017-02-04 19:04:59.849613+01 | 1486231499.84961 | pgbench_branches_pkey |            90112
 2017-02-04 19:04:59.849613+01 | 1486231499.84961 | pgbench_tellers_pkey  |           458752
 2017-02-04 19:04:59.849613+01 | 1486231499.84961 | pgbench_accounts_pkey |        224641024

 2017-02-04 19:05:00.936266+01 | 1486231500.93627 | pgbench_branches_pkey |            90112
 2017-02-04 19:05:00.936266+01 | 1486231500.93627 | pgbench_tellers_pkey  |           458752
 2017-02-04 19:05:00.936266+01 | 1486231500.93627 | pgbench_accounts_pkey |        224641024

 2017-02-04 19:05:02.01965+01 | 1486231502.01965 | pgbench_branches_pkey |            90112
 2017-02-04 19:05:02.01965+01 | 1486231502.01965 | pgbench_tellers_pkey  |           458752
 2017-02-04 19:05:02.01965+01 | 1486231502.01965 | pgbench_accounts_pkey |        224641024

 2017-02-04 19:05:03.095548+01 | 1486231503.09555 | pgbench_branches_pkey |            90112
 2017-02-04 19:05:03.095548+01 | 1486231503.09555 | pgbench_tellers_pkey  |           458752
 2017-02-04 19:05:03.095548+01 | 1486231503.09555 | pgbench_accounts_pkey |        224641024

 2017-02-04 19:05:04.175435+01 | 1486231504.17544 | pgbench_branches_pkey |            90112
 2017-02-04 19:05:04.175435+01 | 1486231504.17544 | pgbench_tellers_pkey  |           458752
 2017-02-04 19:05:04.175435+01 | 1486231504.17544 | pgbench_accounts_pkey |        224641024

 2017-02-04 19:05:05.25466+01 | 1486231505.25466 | pgbench_branches_pkey |            90112
 2017-02-04 19:05:05.25466+01 | 1486231505.25466 | pgbench_tellers_pkey  |           458752
 2017-02-04 19:05:05.25466+01 | 1486231505.25466 | pgbench_accounts_pkey |        224641024

 2017-02-04 19:05:06.336879+01 | 1486231506.33688 | pgbench_branches_pkey |            90112
 2017-02-04 19:05:06.336879+01 | 1486231506.33688 | pgbench_tellers_pkey  |           458752
 2017-02-04 19:05:06.336879+01 | 1486231506.33688 | pgbench_accounts_pkey |        224641024

 2017-02-04 19:05:07.413523+01 | 1486231507.41352 | pgbench_branches_pkey |            90112
 2017-02-04 19:05:07.413523+01 | 1486231507.41352 | pgbench_tellers_pkey  |           458752
 2017-02-04 19:05:07.413523+01 | 1486231507.41352 | pgbench_accounts_pkey |        224641024

 2017-02-04 19:05:08.495614+01 | 1486231508.49561 | pgbench_branches_pkey |            90112
 2017-02-04 19:05:08.495614+01 | 1486231508.49561 | pgbench_tellers_pkey  |           458752
 2017-02-04 19:05:08.495614+01 | 1486231508.49561 | pgbench_accounts_pkey |        224641024

 2017-02-04 19:05:09.581568+01 | 1486231509.58157 | pgbench_branches_pkey |            90112
 2017-02-04 19:05:09.581568+01 | 1486231509.58157 | pgbench_tellers_pkey  |           458752
 2017-02-04 19:05:09.581568+01 | 1486231509.58157 | pgbench_accounts_pkey |        224641024

 2017-02-04 19:05:10.666494+01 | 1486231510.66649 | pgbench_branches_pkey |            90112
 2017-02-04 19:05:10.666494+01 | 1486231510.66649 | pgbench_tellers_pkey  |           458752
 2017-02-04 19:05:10.666494+01 | 1486231510.66649 | pgbench_accounts_pkey |        224641024

 2017-02-04 19:05:11.742261+01 | 1486231511.74226 | pgbench_branches_pkey |            90112
 2017-02-04 19:05:11.742261+01 | 1486231511.74226 | pgbench_tellers_pkey  |           458752
 2017-02-04 19:05:11.742261+01 | 1486231511.74226 | pgbench_accounts_pkey |        224641024

 2017-02-04 19:05:12.822132+01 | 1486231512.82213 | pgbench_branches_pkey |            90112
 2017-02-04 19:05:12.822132+01 | 1486231512.82213 | pgbench_tellers_pkey  |           458752
 2017-02-04 19:05:12.822132+01 | 1486231512.82213 | pgbench_accounts_pkey |        224641024

 2017-02-04 19:05:13.903709+01 | 1486231513.90371 | pgbench_branches_pkey |            90112
 2017-02-04 19:05:13.903709+01 | 1486231513.90371 | pgbench_tellers_pkey  |           458752
 2017-02-04 19:05:13.903709+01 | 1486231513.90371 | pgbench_accounts_pkey |        224641024

 2017-02-04 19:05:14.988359+01 | 1486231514.98836 | pgbench_branches_pkey |            90112
 2017-02-04 19:05:14.988359+01 | 1486231514.98836 | pgbench_tellers_pkey  |           458752
 2017-02-04 19:05:14.988359+01 | 1486231514.98836 | pgbench_accounts_pkey |        224641024

 2017-02-04 19:05:16.073237+01 | 1486231516.07324 | pgbench_branches_pkey |            90112
 2017-02-04 19:05:16.073237+01 | 1486231516.07324 | pgbench_tellers_pkey  |           458752
 2017-02-04 19:05:16.073237+01 | 1486231516.07324 | pgbench_accounts_pkey |        224641024

 2017-02-04 19:05:17.152511+01 | 1486231517.15251 | pgbench_branches_pkey |            90112
 2017-02-04 19:05:17.152511+01 | 1486231517.15251 | pgbench_tellers_pkey  |           458752
 2017-02-04 19:05:17.152511+01 | 1486231517.15251 | pgbench_accounts_pkey |        224641024

 2017-02-04 19:05:18.225337+01 | 1486231518.22534 | pgbench_branches_pkey |            90112
 2017-02-04 19:05:18.225337+01 | 1486231518.22534 | pgbench_tellers_pkey  |           458752
 2017-02-04 19:05:18.225337+01 | 1486231518.22534 | pgbench_accounts_pkey |        224641024

 2017-02-04 19:05:19.296044+01 | 1486231519.29604 | pgbench_branches_pkey |            90112
 2017-02-04 19:05:19.296044+01 | 1486231519.29604 | pgbench_tellers_pkey  |           458752
 2017-02-04 19:05:19.296044+01 | 1486231519.29604 | pgbench_accounts_pkey |        224641024

 2017-02-04 19:05:20.373028+01 | 1486231520.37303 | pgbench_branches_pkey |            90112
 2017-02-04 19:05:20.373028+01 | 1486231520.37303 | pgbench_tellers_pkey  |           458752
 2017-02-04 19:05:20.373028+01 | 1486231520.37303 | pgbench_accounts_pkey |        224641024

 2017-02-04 19:05:21.448692+01 | 1486231521.44869 | pgbench_branches_pkey |            90112
 2017-02-04 19:05:21.448692+01 | 1486231521.44869 | pgbench_tellers_pkey  |           458752
 2017-02-04 19:05:21.448692+01 | 1486231521.44869 | pgbench_accounts_pkey |        224641024

 2017-02-04 19:05:22.531322+01 | 1486231522.53132 | pgbench_branches_pkey |            90112
 2017-02-04 19:05:22.531322+01 | 1486231522.53132 | pgbench_tellers_pkey  |           458752
 2017-02-04 19:05:22.531322+01 | 1486231522.53132 | pgbench_accounts_pkey |        224641024

 2017-02-04 19:05:23.609494+01 | 1486231523.60949 | pgbench_branches_pkey |            90112
 2017-02-04 19:05:23.609494+01 | 1486231523.60949 | pgbench_tellers_pkey  |           458752
 2017-02-04 19:05:23.609494+01 | 1486231523.60949 | pgbench_accounts_pkey |        224641024

 2017-02-04 19:05:24.688596+01 | 1486231524.6886 | pgbench_branches_pkey |            90112
 2017-02-04 19:05:24.688596+01 | 1486231524.6886 | pgbench_tellers_pkey  |           458752
 2017-02-04 19:05:24.688596+01 | 1486231524.6886 | pgbench_accounts_pkey |        224641024

 2017-02-04 19:05:25.773898+01 | 1486231525.7739 | pgbench_branches_pkey |            90112
 2017-02-04 19:05:25.773898+01 | 1486231525.7739 | pgbench_tellers_pkey  |           458752
 2017-02-04 19:05:25.773898+01 | 1486231525.7739 | pgbench_accounts_pkey |        224641024

 2017-02-04 19:05:26.853097+01 | 1486231526.8531 | pgbench_branches_pkey |            90112
 2017-02-04 19:05:26.853097+01 | 1486231526.8531 | pgbench_tellers_pkey  |           458752
 2017-02-04 19:05:26.853097+01 | 1486231526.8531 | pgbench_accounts_pkey |        224641024

 2017-02-04 19:05:27.944215+01 | 1486231527.94422 | pgbench_branches_pkey |            90112
 2017-02-04 19:05:27.944215+01 | 1486231527.94422 | pgbench_tellers_pkey  |           458752
 2017-02-04 19:05:27.944215+01 | 1486231527.94422 | pgbench_accounts_pkey |        224641024

 2017-02-04 19:05:29.019238+01 | 1486231529.01924 | pgbench_branches_pkey |            90112
 2017-02-04 19:05:29.019238+01 | 1486231529.01924 | pgbench_tellers_pkey  |           458752
 2017-02-04 19:05:29.019238+01 | 1486231529.01924 | pgbench_accounts_pkey |        224641024

 2017-02-04 19:05:30.098538+01 | 1486231530.09854 | pgbench_branches_pkey |            90112
 2017-02-04 19:05:30.098538+01 | 1486231530.09854 | pgbench_tellers_pkey  |           458752
 2017-02-04 19:05:30.098538+01 | 1486231530.09854 | pgbench_accounts_pkey |        224641024

 2017-02-04 19:05:31.184798+01 | 1486231531.1848 | pgbench_branches_pkey |            90112
 2017-02-04 19:05:31.184798+01 | 1486231531.1848 | pgbench_tellers_pkey  |           458752
 2017-02-04 19:05:31.184798+01 | 1486231531.1848 | pgbench_accounts_pkey |        224641024

 2017-02-04 19:05:32.275202+01 | 1486231532.2752 | pgbench_branches_pkey |            90112
 2017-02-04 19:05:32.275202+01 | 1486231532.2752 | pgbench_tellers_pkey  |           458752
 2017-02-04 19:05:32.275202+01 | 1486231532.2752 | pgbench_accounts_pkey |        224641024

 2017-02-04 19:05:33.359345+01 | 1486231533.35934 | pgbench_branches_pkey |            90112
 2017-02-04 19:05:33.359345+01 | 1486231533.35934 | pgbench_tellers_pkey  |           458752
 2017-02-04 19:05:33.359345+01 | 1486231533.35934 | pgbench_accounts_pkey |        224641024

 2017-02-04 19:05:34.430388+01 | 1486231534.43039 | pgbench_branches_pkey |            90112
 2017-02-04 19:05:34.430388+01 | 1486231534.43039 | pgbench_tellers_pkey  |           458752
 2017-02-04 19:05:34.430388+01 | 1486231534.43039 | pgbench_accounts_pkey |        224641024

 2017-02-04 19:05:35.516511+01 | 1486231535.51651 | pgbench_branches_pkey |            90112
 2017-02-04 19:05:35.516511+01 | 1486231535.51651 | pgbench_tellers_pkey  |           458752
 2017-02-04 19:05:35.516511+01 | 1486231535.51651 | pgbench_accounts_pkey |        224641024

 2017-02-04 19:05:36.606687+01 | 1486231536.60669 | pgbench_branches_pkey |            90112
 2017-02-04 19:05:36.606687+01 | 1486231536.60669 | pgbench_tellers_pkey  |           458752
 2017-02-04 19:05:36.606687+01 | 1486231536.60669 | pgbench_accounts_pkey |        224641024

 2017-02-04 19:05:37.690742+01 | 1486231537.69074 | pgbench_branches_pkey |            90112
 2017-02-04 19:05:37.690742+01 | 1486231537.69074 | pgbench_tellers_pkey  |           458752
 2017-02-04 19:05:37.690742+01 | 1486231537.69074 | pgbench_accounts_pkey |        224641024

 2017-02-04 19:05:38.77055+01 | 1486231538.77055 | pgbench_branches_pkey |            90112
 2017-02-04 19:05:38.77055+01 | 1486231538.77055 | pgbench_tellers_pkey  |           458752
 2017-02-04 19:05:38.77055+01 | 1486231538.77055 | pgbench_accounts_pkey |        224641024

 2017-02-04 19:05:39.850889+01 | 1486231539.85089 | pgbench_branches_pkey |            90112
 2017-02-04 19:05:39.850889+01 | 1486231539.85089 | pgbench_tellers_pkey  |           458752
 2017-02-04 19:05:39.850889+01 | 1486231539.85089 | pgbench_accounts_pkey |        224641024

 2017-02-04 19:05:40.925894+01 | 1486231540.92589 | pgbench_branches_pkey |            90112
 2017-02-04 19:05:40.925894+01 | 1486231540.92589 | pgbench_tellers_pkey  |           458752
 2017-02-04 19:05:40.925894+01 | 1486231540.92589 | pgbench_accounts_pkey |        224641024

 2017-02-04 19:05:42.005756+01 | 1486231542.00576 | pgbench_branches_pkey |            90112
 2017-02-04 19:05:42.005756+01 | 1486231542.00576 | pgbench_tellers_pkey  |           458752
 2017-02-04 19:05:42.005756+01 | 1486231542.00576 | pgbench_accounts_pkey |        224641024

 2017-02-04 19:05:43.085731+01 | 1486231543.08573 | pgbench_branches_pkey |            90112
 2017-02-04 19:05:43.085731+01 | 1486231543.08573 | pgbench_tellers_pkey  |           458752
 2017-02-04 19:05:43.085731+01 | 1486231543.08573 | pgbench_accounts_pkey |        224641024

 2017-02-04 19:05:44.170492+01 | 1486231544.17049 | pgbench_branches_pkey |            90112
 2017-02-04 19:05:44.170492+01 | 1486231544.17049 | pgbench_tellers_pkey  |           458752
 2017-02-04 19:05:44.170492+01 | 1486231544.17049 | pgbench_accounts_pkey |        224641024

 2017-02-04 19:05:45.24577+01 | 1486231545.24577 | pgbench_branches_pkey |            90112
 2017-02-04 19:05:45.24577+01 | 1486231545.24577 | pgbench_tellers_pkey  |           458752
 2017-02-04 19:05:45.24577+01 | 1486231545.24577 | pgbench_accounts_pkey |        224641024

 2017-02-04 19:05:46.331598+01 | 1486231546.3316 | pgbench_branches_pkey |            90112
 2017-02-04 19:05:46.331598+01 | 1486231546.3316 | pgbench_tellers_pkey  |           458752
 2017-02-04 19:05:46.331598+01 | 1486231546.3316 | pgbench_accounts_pkey |        224641024

 2017-02-04 19:05:47.414201+01 | 1486231547.4142 | pgbench_branches_pkey |            90112
 2017-02-04 19:05:47.414201+01 | 1486231547.4142 | pgbench_tellers_pkey  |           458752
 2017-02-04 19:05:47.414201+01 | 1486231547.4142 | pgbench_accounts_pkey |        224641024

 2017-02-04 19:05:48.493987+01 | 1486231548.49399 | pgbench_branches_pkey |            90112
 2017-02-04 19:05:48.493987+01 | 1486231548.49399 | pgbench_tellers_pkey  |           458752
 2017-02-04 19:05:48.493987+01 | 1486231548.49399 | pgbench_accounts_pkey |        224641024

 2017-02-04 19:05:49.569181+01 | 1486231549.56918 | pgbench_branches_pkey |            90112
 2017-02-04 19:05:49.569181+01 | 1486231549.56918 | pgbench_tellers_pkey  |           458752
 2017-02-04 19:05:49.569181+01 | 1486231549.56918 | pgbench_accounts_pkey |        224641024

 2017-02-04 19:05:50.652999+01 | 1486231550.653 | pgbench_branches_pkey |            90112
 2017-02-04 19:05:50.652999+01 | 1486231550.653 | pgbench_tellers_pkey  |           458752
 2017-02-04 19:05:50.652999+01 | 1486231550.653 | pgbench_accounts_pkey |        224641024

 2017-02-04 19:05:51.728779+01 | 1486231551.72878 | pgbench_branches_pkey |            90112
 2017-02-04 19:05:51.728779+01 | 1486231551.72878 | pgbench_tellers_pkey  |           458752
 2017-02-04 19:05:51.728779+01 | 1486231551.72878 | pgbench_accounts_pkey |        224641024

 2017-02-04 19:05:52.80818+01 | 1486231552.80818 | pgbench_branches_pkey |            90112
 2017-02-04 19:05:52.80818+01 | 1486231552.80818 | pgbench_tellers_pkey  |           458752
 2017-02-04 19:05:52.80818+01 | 1486231552.80818 | pgbench_accounts_pkey |        224641024

 2017-02-04 19:05:53.895746+01 | 1486231553.89575 | pgbench_branches_pkey |            90112
 2017-02-04 19:05:53.895746+01 | 1486231553.89575 | pgbench_tellers_pkey  |           458752
 2017-02-04 19:05:53.895746+01 | 1486231553.89575 | pgbench_accounts_pkey |        224641024

 2017-02-04 19:05:54.973087+01 | 1486231554.97309 | pgbench_branches_pkey |            90112
 2017-02-04 19:05:54.973087+01 | 1486231554.97309 | pgbench_tellers_pkey  |           458752
 2017-02-04 19:05:54.973087+01 | 1486231554.97309 | pgbench_accounts_pkey |        224641024

 2017-02-04 19:05:56.054209+01 | 1486231556.05421 | pgbench_branches_pkey |            90112
 2017-02-04 19:05:56.054209+01 | 1486231556.05421 | pgbench_tellers_pkey  |           458752
 2017-02-04 19:05:56.054209+01 | 1486231556.05421 | pgbench_accounts_pkey |        224641024

 2017-02-04 19:05:57.140876+01 | 1486231557.14088 | pgbench_branches_pkey |            90112
 2017-02-04 19:05:57.140876+01 | 1486231557.14088 | pgbench_tellers_pkey  |           458752
 2017-02-04 19:05:57.140876+01 | 1486231557.14088 | pgbench_accounts_pkey |        224641024

 2017-02-04 19:05:58.220292+01 | 1486231558.22029 | pgbench_branches_pkey |            90112
 2017-02-04 19:05:58.220292+01 | 1486231558.22029 | pgbench_tellers_pkey  |           458752
 2017-02-04 19:05:58.220292+01 | 1486231558.22029 | pgbench_accounts_pkey |        224641024

 2017-02-04 19:05:59.300087+01 | 1486231559.30009 | pgbench_branches_pkey |            90112
 2017-02-04 19:05:59.300087+01 | 1486231559.30009 | pgbench_tellers_pkey  |           458752
 2017-02-04 19:05:59.300087+01 | 1486231559.30009 | pgbench_accounts_pkey |        224641024

 2017-02-04 19:06:00.376051+01 | 1486231560.37605 | pgbench_branches_pkey |            90112
 2017-02-04 19:06:00.376051+01 | 1486231560.37605 | pgbench_tellers_pkey  |           458752
 2017-02-04 19:06:00.376051+01 | 1486231560.37605 | pgbench_accounts_pkey |        224641024

 2017-02-04 19:06:01.452856+01 | 1486231561.45286 | pgbench_branches_pkey |            90112
 2017-02-04 19:06:01.452856+01 | 1486231561.45286 | pgbench_tellers_pkey  |           458752
 2017-02-04 19:06:01.452856+01 | 1486231561.45286 | pgbench_accounts_pkey |        224641024

 2017-02-04 19:06:02.532326+01 | 1486231562.53233 | pgbench_branches_pkey |            90112
 2017-02-04 19:06:02.532326+01 | 1486231562.53233 | pgbench_tellers_pkey  |           458752
 2017-02-04 19:06:02.532326+01 | 1486231562.53233 | pgbench_accounts_pkey |        224641024

 2017-02-04 19:06:03.614741+01 | 1486231563.61474 | pgbench_branches_pkey |            90112
 2017-02-04 19:06:03.614741+01 | 1486231563.61474 | pgbench_tellers_pkey  |           458752
 2017-02-04 19:06:03.614741+01 | 1486231563.61474 | pgbench_accounts_pkey |        224641024

 2017-02-04 19:06:04.68397+01 | 1486231564.68397 | pgbench_branches_pkey |            90112
 2017-02-04 19:06:04.68397+01 | 1486231564.68397 | pgbench_tellers_pkey  |           458752
 2017-02-04 19:06:04.68397+01 | 1486231564.68397 | pgbench_accounts_pkey |        224641024

 2017-02-04 19:06:05.756064+01 | 1486231565.75606 | pgbench_branches_pkey |            90112
 2017-02-04 19:06:05.756064+01 | 1486231565.75606 | pgbench_tellers_pkey  |           458752
 2017-02-04 19:06:05.756064+01 | 1486231565.75606 | pgbench_accounts_pkey |        224641024

 2017-02-04 19:06:06.832703+01 | 1486231566.8327 | pgbench_branches_pkey |            90112
 2017-02-04 19:06:06.832703+01 | 1486231566.8327 | pgbench_tellers_pkey  |           458752
 2017-02-04 19:06:06.832703+01 | 1486231566.8327 | pgbench_accounts_pkey |        224641024

 2017-02-04 19:06:07.908043+01 | 1486231567.90804 | pgbench_branches_pkey |            90112
 2017-02-04 19:06:07.908043+01 | 1486231567.90804 | pgbench_tellers_pkey  |           458752
 2017-02-04 19:06:07.908043+01 | 1486231567.90804 | pgbench_accounts_pkey |        224641024

 2017-02-04 19:06:08.982094+01 | 1486231568.98209 | pgbench_branches_pkey |            90112
 2017-02-04 19:06:08.982094+01 | 1486231568.98209 | pgbench_tellers_pkey  |           458752
 2017-02-04 19:06:08.982094+01 | 1486231568.98209 | pgbench_accounts_pkey |        224641024

 2017-02-04 19:06:10.05747+01 | 1486231570.05747 | pgbench_branches_pkey |            90112
 2017-02-04 19:06:10.05747+01 | 1486231570.05747 | pgbench_tellers_pkey  |           458752
 2017-02-04 19:06:10.05747+01 | 1486231570.05747 | pgbench_accounts_pkey |        224641024

 2017-02-04 19:06:11.142276+01 | 1486231571.14228 | pgbench_branches_pkey |            90112
 2017-02-04 19:06:11.142276+01 | 1486231571.14228 | pgbench_tellers_pkey  |           458752
 2017-02-04 19:06:11.142276+01 | 1486231571.14228 | pgbench_accounts_pkey |        224641024

 2017-02-04 19:06:12.218098+01 | 1486231572.2181 | pgbench_branches_pkey |            90112
 2017-02-04 19:06:12.218098+01 | 1486231572.2181 | pgbench_tellers_pkey  |           458752
 2017-02-04 19:06:12.218098+01 | 1486231572.2181 | pgbench_accounts_pkey |        224641024

 2017-02-04 19:06:13.307306+01 | 1486231573.30731 | pgbench_branches_pkey |            90112
 2017-02-04 19:06:13.307306+01 | 1486231573.30731 | pgbench_tellers_pkey  |           458752
 2017-02-04 19:06:13.307306+01 | 1486231573.30731 | pgbench_accounts_pkey |        224641024

 2017-02-04 19:06:14.392619+01 | 1486231574.39262 | pgbench_branches_pkey |            90112
 2017-02-04 19:06:14.392619+01 | 1486231574.39262 | pgbench_tellers_pkey  |           458752
 2017-02-04 19:06:14.392619+01 | 1486231574.39262 | pgbench_accounts_pkey |        224641024

 2017-02-04 19:06:15.476747+01 | 1486231575.47675 | pgbench_branches_pkey |            90112
 2017-02-04 19:06:15.476747+01 | 1486231575.47675 | pgbench_tellers_pkey  |           458752
 2017-02-04 19:06:15.476747+01 | 1486231575.47675 | pgbench_accounts_pkey |        224641024

 2017-02-04 19:06:16.562124+01 | 1486231576.56212 | pgbench_branches_pkey |            90112
 2017-02-04 19:06:16.562124+01 | 1486231576.56212 | pgbench_tellers_pkey  |           458752
 2017-02-04 19:06:16.562124+01 | 1486231576.56212 | pgbench_accounts_pkey |        224641024

 2017-02-04 19:06:17.650296+01 | 1486231577.6503 | pgbench_branches_pkey |            90112
 2017-02-04 19:06:17.650296+01 | 1486231577.6503 | pgbench_tellers_pkey  |           458752
 2017-02-04 19:06:17.650296+01 | 1486231577.6503 | pgbench_accounts_pkey |        224641024

 2017-02-04 19:06:18.739706+01 | 1486231578.73971 | pgbench_branches_pkey |            90112
 2017-02-04 19:06:18.739706+01 | 1486231578.73971 | pgbench_tellers_pkey  |           458752
 2017-02-04 19:06:18.739706+01 | 1486231578.73971 | pgbench_accounts_pkey |        224641024

 2017-02-04 19:06:19.825076+01 | 1486231579.82508 | pgbench_branches_pkey |            90112
 2017-02-04 19:06:19.825076+01 | 1486231579.82508 | pgbench_tellers_pkey  |           458752
 2017-02-04 19:06:19.825076+01 | 1486231579.82508 | pgbench_accounts_pkey |        224641024

 2017-02-04 19:06:20.908281+01 | 1486231580.90828 | pgbench_branches_pkey |            90112
 2017-02-04 19:06:20.908281+01 | 1486231580.90828 | pgbench_tellers_pkey  |           458752
 2017-02-04 19:06:20.908281+01 | 1486231580.90828 | pgbench_accounts_pkey |        224641024

 2017-02-04 19:06:21.99375+01 | 1486231581.99375 | pgbench_branches_pkey |            90112
 2017-02-04 19:06:21.99375+01 | 1486231581.99375 | pgbench_tellers_pkey  |           458752
 2017-02-04 19:06:21.99375+01 | 1486231581.99375 | pgbench_accounts_pkey |        224641024

 2017-02-04 19:06:23.071981+01 | 1486231583.07198 | pgbench_branches_pkey |            90112
 2017-02-04 19:06:23.071981+01 | 1486231583.07198 | pgbench_tellers_pkey  |           458752
 2017-02-04 19:06:23.071981+01 | 1486231583.07198 | pgbench_accounts_pkey |        224641024

 2017-02-04 19:06:24.162809+01 | 1486231584.16281 | pgbench_branches_pkey |            90112
 2017-02-04 19:06:24.162809+01 | 1486231584.16281 | pgbench_tellers_pkey  |           458752
 2017-02-04 19:06:24.162809+01 | 1486231584.16281 | pgbench_accounts_pkey |        224641024

 2017-02-04 19:06:25.250107+01 | 1486231585.25011 | pgbench_branches_pkey |            90112
 2017-02-04 19:06:25.250107+01 | 1486231585.25011 | pgbench_tellers_pkey  |           458752
 2017-02-04 19:06:25.250107+01 | 1486231585.25011 | pgbench_accounts_pkey |        224641024

 2017-02-04 19:06:26.33095+01 | 1486231586.33095 | pgbench_branches_pkey |            90112
 2017-02-04 19:06:26.33095+01 | 1486231586.33095 | pgbench_tellers_pkey  |           458752
 2017-02-04 19:06:26.33095+01 | 1486231586.33095 | pgbench_accounts_pkey |        224641024

 2017-02-04 19:06:27.417752+01 | 1486231587.41775 | pgbench_branches_pkey |            90112
 2017-02-04 19:06:27.417752+01 | 1486231587.41775 | pgbench_tellers_pkey  |           458752
 2017-02-04 19:06:27.417752+01 | 1486231587.41775 | pgbench_accounts_pkey |        224641024

 2017-02-04 19:06:28.489702+01 | 1486231588.4897 | pgbench_branches_pkey |            90112
 2017-02-04 19:06:28.489702+01 | 1486231588.4897 | pgbench_tellers_pkey  |           458752
 2017-02-04 19:06:28.489702+01 | 1486231588.4897 | pgbench_accounts_pkey |        224641024

 2017-02-04 19:06:29.570013+01 | 1486231589.57001 | pgbench_branches_pkey |            90112
 2017-02-04 19:06:29.570013+01 | 1486231589.57001 | pgbench_tellers_pkey  |           458752
 2017-02-04 19:06:29.570013+01 | 1486231589.57001 | pgbench_accounts_pkey |        224641024

 2017-02-04 19:06:30.654656+01 | 1486231590.65466 | pgbench_branches_pkey |            90112
 2017-02-04 19:06:30.654656+01 | 1486231590.65466 | pgbench_tellers_pkey  |           458752
 2017-02-04 19:06:30.654656+01 | 1486231590.65466 | pgbench_accounts_pkey |        224641024

 2017-02-04 19:06:31.740644+01 | 1486231591.74064 | pgbench_branches_pkey |            90112
 2017-02-04 19:06:31.740644+01 | 1486231591.74064 | pgbench_tellers_pkey  |           458752
 2017-02-04 19:06:31.740644+01 | 1486231591.74064 | pgbench_accounts_pkey |        224641024

 2017-02-04 19:06:32.830767+01 | 1486231592.83077 | pgbench_branches_pkey |            90112
 2017-02-04 19:06:32.830767+01 | 1486231592.83077 | pgbench_tellers_pkey  |           458752
 2017-02-04 19:06:32.830767+01 | 1486231592.83077 | pgbench_accounts_pkey |        224641024

 2017-02-04 19:06:33.911973+01 | 1486231593.91197 | pgbench_branches_pkey |            90112
 2017-02-04 19:06:33.911973+01 | 1486231593.91197 | pgbench_tellers_pkey  |           458752
 2017-02-04 19:06:33.911973+01 | 1486231593.91197 | pgbench_accounts_pkey |        224641024

 2017-02-04 19:06:34.989674+01 | 1486231594.98967 | pgbench_branches_pkey |            90112
 2017-02-04 19:06:34.989674+01 | 1486231594.98967 | pgbench_tellers_pkey  |           458752
 2017-02-04 19:06:34.989674+01 | 1486231594.98967 | pgbench_accounts_pkey |        224641024

 2017-02-04 19:06:36.071351+01 | 1486231596.07135 | pgbench_branches_pkey |            90112
 2017-02-04 19:06:36.071351+01 | 1486231596.07135 | pgbench_tellers_pkey  |           458752
 2017-02-04 19:06:36.071351+01 | 1486231596.07135 | pgbench_accounts_pkey |        224641024

 2017-02-04 19:06:37.156619+01 | 1486231597.15662 | pgbench_branches_pkey |            90112
 2017-02-04 19:06:37.156619+01 | 1486231597.15662 | pgbench_tellers_pkey  |           458752
 2017-02-04 19:06:37.156619+01 | 1486231597.15662 | pgbench_accounts_pkey |        224641024

 2017-02-04 19:06:38.24104+01 | 1486231598.24104 | pgbench_branches_pkey |            90112
 2017-02-04 19:06:38.24104+01 | 1486231598.24104 | pgbench_tellers_pkey  |           458752
 2017-02-04 19:06:38.24104+01 | 1486231598.24104 | pgbench_accounts_pkey |        224641024

 2017-02-04 19:06:39.322556+01 | 1486231599.32256 | pgbench_branches_pkey |            90112
 2017-02-04 19:06:39.322556+01 | 1486231599.32256 | pgbench_tellers_pkey  |           458752
 2017-02-04 19:06:39.322556+01 | 1486231599.32256 | pgbench_accounts_pkey |        224641024

 2017-02-04 19:06:40.398809+01 | 1486231600.39881 | pgbench_branches_pkey |            90112
 2017-02-04 19:06:40.398809+01 | 1486231600.39881 | pgbench_tellers_pkey  |           458752
 2017-02-04 19:06:40.398809+01 | 1486231600.39881 | pgbench_accounts_pkey |        224641024

 2017-02-04 19:06:41.479852+01 | 1486231601.47985 | pgbench_branches_pkey |            90112
 2017-02-04 19:06:41.479852+01 | 1486231601.47985 | pgbench_tellers_pkey  |           458752
 2017-02-04 19:06:41.479852+01 | 1486231601.47985 | pgbench_accounts_pkey |        224641024

 2017-02-04 19:06:42.560482+01 | 1486231602.56048 | pgbench_branches_pkey |            90112
 2017-02-04 19:06:42.560482+01 | 1486231602.56048 | pgbench_tellers_pkey  |           458752
 2017-02-04 19:06:42.560482+01 | 1486231602.56048 | pgbench_accounts_pkey |        224641024

 2017-02-04 19:06:43.644575+01 | 1486231603.64458 | pgbench_branches_pkey |            90112
 2017-02-04 19:06:43.644575+01 | 1486231603.64458 | pgbench_tellers_pkey  |           458752
 2017-02-04 19:06:43.644575+01 | 1486231603.64458 | pgbench_accounts_pkey |        224641024

 2017-02-04 19:06:44.731311+01 | 1486231604.73131 | pgbench_branches_pkey |            90112
 2017-02-04 19:06:44.731311+01 | 1486231604.73131 | pgbench_tellers_pkey  |           458752
 2017-02-04 19:06:44.731311+01 | 1486231604.73131 | pgbench_accounts_pkey |        224641024

 2017-02-04 19:06:45.820015+01 | 1486231605.82001 | pgbench_branches_pkey |            90112
 2017-02-04 19:06:45.820015+01 | 1486231605.82001 | pgbench_tellers_pkey  |           458752
 2017-02-04 19:06:45.820015+01 | 1486231605.82001 | pgbench_accounts_pkey |        224641024

 2017-02-04 19:06:46.898916+01 | 1486231606.89892 | pgbench_branches_pkey |            90112
 2017-02-04 19:06:46.898916+01 | 1486231606.89892 | pgbench_tellers_pkey  |           458752
 2017-02-04 19:06:46.898916+01 | 1486231606.89892 | pgbench_accounts_pkey |        224641024

 2017-02-04 19:06:47.978977+01 | 1486231607.97898 | pgbench_branches_pkey |            90112
 2017-02-04 19:06:47.978977+01 | 1486231607.97898 | pgbench_tellers_pkey  |           458752
 2017-02-04 19:06:47.978977+01 | 1486231607.97898 | pgbench_accounts_pkey |        224641024

 2017-02-04 19:06:49.065443+01 | 1486231609.06544 | pgbench_branches_pkey |            90112
 2017-02-04 19:06:49.065443+01 | 1486231609.06544 | pgbench_tellers_pkey  |           458752
 2017-02-04 19:06:49.065443+01 | 1486231609.06544 | pgbench_accounts_pkey |        224641024

 2017-02-04 19:06:50.156379+01 | 1486231610.15638 | pgbench_branches_pkey |            90112
 2017-02-04 19:06:50.156379+01 | 1486231610.15638 | pgbench_tellers_pkey  |           458752
 2017-02-04 19:06:50.156379+01 | 1486231610.15638 | pgbench_accounts_pkey |        224641024

 2017-02-04 19:06:51.236504+01 | 1486231611.2365 | pgbench_branches_pkey |            90112
 2017-02-04 19:06:51.236504+01 | 1486231611.2365 | pgbench_tellers_pkey  |           458752
 2017-02-04 19:06:51.236504+01 | 1486231611.2365 | pgbench_accounts_pkey |        224641024

 2017-02-04 19:06:52.312963+01 | 1486231612.31296 | pgbench_branches_pkey |            90112
 2017-02-04 19:06:52.312963+01 | 1486231612.31296 | pgbench_tellers_pkey  |           458752
 2017-02-04 19:06:52.312963+01 | 1486231612.31296 | pgbench_accounts_pkey |        224641024

 2017-02-04 19:06:53.396753+01 | 1486231613.39675 | pgbench_branches_pkey |            90112
 2017-02-04 19:06:53.396753+01 | 1486231613.39675 | pgbench_tellers_pkey  |           458752
 2017-02-04 19:06:53.396753+01 | 1486231613.39675 | pgbench_accounts_pkey |        224641024

 2017-02-04 19:06:54.481732+01 | 1486231614.48173 | pgbench_branches_pkey |            90112
 2017-02-04 19:06:54.481732+01 | 1486231614.48173 | pgbench_tellers_pkey  |           458752
 2017-02-04 19:06:54.481732+01 | 1486231614.48173 | pgbench_accounts_pkey |        224641024

 2017-02-04 19:06:55.570764+01 | 1486231615.57076 | pgbench_branches_pkey |            90112
 2017-02-04 19:06:55.570764+01 | 1486231615.57076 | pgbench_tellers_pkey  |           458752
 2017-02-04 19:06:55.570764+01 | 1486231615.57076 | pgbench_accounts_pkey |        224641024

 2017-02-04 19:06:56.648371+01 | 1486231616.64837 | pgbench_branches_pkey |            90112
 2017-02-04 19:06:56.648371+01 | 1486231616.64837 | pgbench_tellers_pkey  |           458752
 2017-02-04 19:06:56.648371+01 | 1486231616.64837 | pgbench_accounts_pkey |        224641024

 2017-02-04 19:06:57.721342+01 | 1486231617.72134 | pgbench_branches_pkey |            90112
 2017-02-04 19:06:57.721342+01 | 1486231617.72134 | pgbench_tellers_pkey  |           458752
 2017-02-04 19:06:57.721342+01 | 1486231617.72134 | pgbench_accounts_pkey |        224641024

 2017-02-04 19:06:58.797686+01 | 1486231618.79769 | pgbench_branches_pkey |            90112
 2017-02-04 19:06:58.797686+01 | 1486231618.79769 | pgbench_tellers_pkey  |           458752
 2017-02-04 19:06:58.797686+01 | 1486231618.79769 | pgbench_accounts_pkey |        224641024

 2017-02-04 19:06:59.886003+01 | 1486231619.886 | pgbench_branches_pkey |            90112
 2017-02-04 19:06:59.886003+01 | 1486231619.886 | pgbench_tellers_pkey  |           458752
 2017-02-04 19:06:59.886003+01 | 1486231619.886 | pgbench_accounts_pkey |        224641024

 2017-02-04 19:07:00.97137+01 | 1486231620.97137 | pgbench_branches_pkey |            90112
 2017-02-04 19:07:00.97137+01 | 1486231620.97137 | pgbench_tellers_pkey  |           458752
 2017-02-04 19:07:00.97137+01 | 1486231620.97137 | pgbench_accounts_pkey |        224641024

 2017-02-04 19:07:02.042447+01 | 1486231622.04245 | pgbench_branches_pkey |            90112
 2017-02-04 19:07:02.042447+01 | 1486231622.04245 | pgbench_tellers_pkey  |           458752
 2017-02-04 19:07:02.042447+01 | 1486231622.04245 | pgbench_accounts_pkey |        224641024

 2017-02-04 19:07:03.124156+01 | 1486231623.12416 | pgbench_branches_pkey |            90112
 2017-02-04 19:07:03.124156+01 | 1486231623.12416 | pgbench_tellers_pkey  |           458752
 2017-02-04 19:07:03.124156+01 | 1486231623.12416 | pgbench_accounts_pkey |        224641024

 2017-02-04 19:07:04.204387+01 | 1486231624.20439 | pgbench_branches_pkey |            90112
 2017-02-04 19:07:04.204387+01 | 1486231624.20439 | pgbench_tellers_pkey  |           458752
 2017-02-04 19:07:04.204387+01 | 1486231624.20439 | pgbench_accounts_pkey |        224641024

 2017-02-04 19:07:05.291576+01 | 1486231625.29158 | pgbench_branches_pkey |            90112
 2017-02-04 19:07:05.291576+01 | 1486231625.29158 | pgbench_tellers_pkey  |           458752
 2017-02-04 19:07:05.291576+01 | 1486231625.29158 | pgbench_accounts_pkey |        224641024

 2017-02-04 19:07:06.378884+01 | 1486231626.37888 | pgbench_branches_pkey |            90112
 2017-02-04 19:07:06.378884+01 | 1486231626.37888 | pgbench_tellers_pkey  |           458752
 2017-02-04 19:07:06.378884+01 | 1486231626.37888 | pgbench_accounts_pkey |        224641024

 2017-02-04 19:07:07.454091+01 | 1486231627.45409 | pgbench_branches_pkey |            90112
 2017-02-04 19:07:07.454091+01 | 1486231627.45409 | pgbench_tellers_pkey  |           458752
 2017-02-04 19:07:07.454091+01 | 1486231627.45409 | pgbench_accounts_pkey |        224641024

 2017-02-04 19:07:08.52775+01 | 1486231628.52775 | pgbench_branches_pkey |            90112
 2017-02-04 19:07:08.52775+01 | 1486231628.52775 | pgbench_tellers_pkey  |           458752
 2017-02-04 19:07:08.52775+01 | 1486231628.52775 | pgbench_accounts_pkey |        224641024

 2017-02-04 19:07:09.606476+01 | 1486231629.60648 | pgbench_branches_pkey |            90112
 2017-02-04 19:07:09.606476+01 | 1486231629.60648 | pgbench_tellers_pkey  |           458752
 2017-02-04 19:07:09.606476+01 | 1486231629.60648 | pgbench_accounts_pkey |        224641024

 2017-02-04 19:07:10.687834+01 | 1486231630.68783 | pgbench_branches_pkey |            90112
 2017-02-04 19:07:10.687834+01 | 1486231630.68783 | pgbench_tellers_pkey  |           458752
 2017-02-04 19:07:10.687834+01 | 1486231630.68783 | pgbench_accounts_pkey |        224641024

 2017-02-04 19:07:11.762589+01 | 1486231631.76259 | pgbench_branches_pkey |            90112
 2017-02-04 19:07:11.762589+01 | 1486231631.76259 | pgbench_tellers_pkey  |           458752
 2017-02-04 19:07:11.762589+01 | 1486231631.76259 | pgbench_accounts_pkey |        224641024

 2017-02-04 19:07:12.847711+01 | 1486231632.84771 | pgbench_branches_pkey |            90112
 2017-02-04 19:07:12.847711+01 | 1486231632.84771 | pgbench_tellers_pkey  |           458752
 2017-02-04 19:07:12.847711+01 | 1486231632.84771 | pgbench_accounts_pkey |        224641024

 2017-02-04 19:07:13.927719+01 | 1486231633.92772 | pgbench_branches_pkey |            90112
 2017-02-04 19:07:13.927719+01 | 1486231633.92772 | pgbench_tellers_pkey  |           458752
 2017-02-04 19:07:13.927719+01 | 1486231633.92772 | pgbench_accounts_pkey |        224641024

 2017-02-04 19:07:15.012929+01 | 1486231635.01293 | pgbench_branches_pkey |            90112
 2017-02-04 19:07:15.012929+01 | 1486231635.01293 | pgbench_tellers_pkey  |           458752
 2017-02-04 19:07:15.012929+01 | 1486231635.01293 | pgbench_accounts_pkey |        224641024

 2017-02-04 19:07:16.097657+01 | 1486231636.09766 | pgbench_branches_pkey |            90112
 2017-02-04 19:07:16.097657+01 | 1486231636.09766 | pgbench_tellers_pkey  |           458752
 2017-02-04 19:07:16.097657+01 | 1486231636.09766 | pgbench_accounts_pkey |        224641024

 2017-02-04 19:07:17.17474+01 | 1486231637.17474 | pgbench_branches_pkey |            90112
 2017-02-04 19:07:17.17474+01 | 1486231637.17474 | pgbench_tellers_pkey  |           458752
 2017-02-04 19:07:17.17474+01 | 1486231637.17474 | pgbench_accounts_pkey |        224641024

 2017-02-04 19:07:18.264507+01 | 1486231638.26451 | pgbench_branches_pkey |            90112
 2017-02-04 19:07:18.264507+01 | 1486231638.26451 | pgbench_tellers_pkey  |           458752
 2017-02-04 19:07:18.264507+01 | 1486231638.26451 | pgbench_accounts_pkey |        224641024

 2017-02-04 19:07:19.353326+01 | 1486231639.35333 | pgbench_branches_pkey |            90112
 2017-02-04 19:07:19.353326+01 | 1486231639.35333 | pgbench_tellers_pkey  |           458752
 2017-02-04 19:07:19.353326+01 | 1486231639.35333 | pgbench_accounts_pkey |        224641024

 2017-02-04 19:07:20.425108+01 | 1486231640.42511 | pgbench_branches_pkey |            90112
 2017-02-04 19:07:20.425108+01 | 1486231640.42511 | pgbench_tellers_pkey  |           458752
 2017-02-04 19:07:20.425108+01 | 1486231640.42511 | pgbench_accounts_pkey |        224641024

 2017-02-04 19:07:21.502311+01 | 1486231641.50231 | pgbench_branches_pkey |            90112
 2017-02-04 19:07:21.502311+01 | 1486231641.50231 | pgbench_tellers_pkey  |           458752
 2017-02-04 19:07:21.502311+01 | 1486231641.50231 | pgbench_accounts_pkey |        224641024

 2017-02-04 19:07:22.580159+01 | 1486231642.58016 | pgbench_branches_pkey |            90112
 2017-02-04 19:07:22.580159+01 | 1486231642.58016 | pgbench_tellers_pkey  |           458752
 2017-02-04 19:07:22.580159+01 | 1486231642.58016 | pgbench_accounts_pkey |        224641024

 2017-02-04 19:07:23.657853+01 | 1486231643.65785 | pgbench_branches_pkey |            90112
 2017-02-04 19:07:23.657853+01 | 1486231643.65785 | pgbench_tellers_pkey  |           458752
 2017-02-04 19:07:23.657853+01 | 1486231643.65785 | pgbench_accounts_pkey |        224641024

 2017-02-04 19:07:24.730873+01 | 1486231644.73087 | pgbench_branches_pkey |            90112
 2017-02-04 19:07:24.730873+01 | 1486231644.73087 | pgbench_tellers_pkey  |           458752
 2017-02-04 19:07:24.730873+01 | 1486231644.73087 | pgbench_accounts_pkey |        224641024

 2017-02-04 19:07:25.809943+01 | 1486231645.80994 | pgbench_branches_pkey |            90112
 2017-02-04 19:07:25.809943+01 | 1486231645.80994 | pgbench_tellers_pkey  |           458752
 2017-02-04 19:07:25.809943+01 | 1486231645.80994 | pgbench_accounts_pkey |        224641024

 2017-02-04 19:07:26.892282+01 | 1486231646.89228 | pgbench_branches_pkey |            90112
 2017-02-04 19:07:26.892282+01 | 1486231646.89228 | pgbench_tellers_pkey  |           458752
 2017-02-04 19:07:26.892282+01 | 1486231646.89228 | pgbench_accounts_pkey |        224641024

 2017-02-04 19:07:27.979984+01 | 1486231647.97998 | pgbench_branches_pkey |            90112
 2017-02-04 19:07:27.979984+01 | 1486231647.97998 | pgbench_tellers_pkey  |           458752
 2017-02-04 19:07:27.979984+01 | 1486231647.97998 | pgbench_accounts_pkey |        224641024

 2017-02-04 19:07:29.067904+01 | 1486231649.0679 | pgbench_branches_pkey |            90112
 2017-02-04 19:07:29.067904+01 | 1486231649.0679 | pgbench_tellers_pkey  |           458752
 2017-02-04 19:07:29.067904+01 | 1486231649.0679 | pgbench_accounts_pkey |        224641024

 2017-02-04 19:07:30.151112+01 | 1486231650.15111 | pgbench_branches_pkey |            90112
 2017-02-04 19:07:30.151112+01 | 1486231650.15111 | pgbench_tellers_pkey  |           458752
 2017-02-04 19:07:30.151112+01 | 1486231650.15111 | pgbench_accounts_pkey |        224641024

 2017-02-04 19:07:31.225434+01 | 1486231651.22543 | pgbench_branches_pkey |            90112
 2017-02-04 19:07:31.225434+01 | 1486231651.22543 | pgbench_tellers_pkey  |           458752
 2017-02-04 19:07:31.225434+01 | 1486231651.22543 | pgbench_accounts_pkey |        224641024

 2017-02-04 19:07:32.302839+01 | 1486231652.30284 | pgbench_branches_pkey |            90112
 2017-02-04 19:07:32.302839+01 | 1486231652.30284 | pgbench_tellers_pkey  |           458752
 2017-02-04 19:07:32.302839+01 | 1486231652.30284 | pgbench_accounts_pkey |        224641024

 2017-02-04 19:07:33.379541+01 | 1486231653.37954 | pgbench_branches_pkey |            90112
 2017-02-04 19:07:33.379541+01 | 1486231653.37954 | pgbench_tellers_pkey  |           458752
 2017-02-04 19:07:33.379541+01 | 1486231653.37954 | pgbench_accounts_pkey |        224641024

 2017-02-04 19:07:34.458924+01 | 1486231654.45892 | pgbench_branches_pkey |            90112
 2017-02-04 19:07:34.458924+01 | 1486231654.45892 | pgbench_tellers_pkey  |           458752
 2017-02-04 19:07:34.458924+01 | 1486231654.45892 | pgbench_accounts_pkey |        224641024

 2017-02-04 19:07:35.532436+01 | 1486231655.53244 | pgbench_branches_pkey |            90112
 2017-02-04 19:07:35.532436+01 | 1486231655.53244 | pgbench_tellers_pkey  |           458752
 2017-02-04 19:07:35.532436+01 | 1486231655.53244 | pgbench_accounts_pkey |        224641024

 2017-02-04 19:07:36.608633+01 | 1486231656.60863 | pgbench_branches_pkey |            90112
 2017-02-04 19:07:36.608633+01 | 1486231656.60863 | pgbench_tellers_pkey  |           458752
 2017-02-04 19:07:36.608633+01 | 1486231656.60863 | pgbench_accounts_pkey |        224641024

 2017-02-04 19:07:37.692869+01 | 1486231657.69287 | pgbench_branches_pkey |            90112
 2017-02-04 19:07:37.692869+01 | 1486231657.69287 | pgbench_tellers_pkey  |           458752
 2017-02-04 19:07:37.692869+01 | 1486231657.69287 | pgbench_accounts_pkey |        224641024

 2017-02-04 19:07:38.768716+01 | 1486231658.76872 | pgbench_branches_pkey |            90112
 2017-02-04 19:07:38.768716+01 | 1486231658.76872 | pgbench_tellers_pkey  |           458752
 2017-02-04 19:07:38.768716+01 | 1486231658.76872 | pgbench_accounts_pkey |        224641024

 2017-02-04 19:07:39.855423+01 | 1486231659.85542 | pgbench_branches_pkey |            90112
 2017-02-04 19:07:39.855423+01 | 1486231659.85542 | pgbench_tellers_pkey  |           458752
 2017-02-04 19:07:39.855423+01 | 1486231659.85542 | pgbench_accounts_pkey |        224641024

 2017-02-04 19:07:40.943452+01 | 1486231660.94345 | pgbench_branches_pkey |            90112
 2017-02-04 19:07:40.943452+01 | 1486231660.94345 | pgbench_tellers_pkey  |           458752
 2017-02-04 19:07:40.943452+01 | 1486231660.94345 | pgbench_accounts_pkey |        224641024

 2017-02-04 19:07:42.016443+01 | 1486231662.01644 | pgbench_branches_pkey |            90112
 2017-02-04 19:07:42.016443+01 | 1486231662.01644 | pgbench_tellers_pkey  |           458752
 2017-02-04 19:07:42.016443+01 | 1486231662.01644 | pgbench_accounts_pkey |        224641024

 2017-02-04 19:07:43.108504+01 | 1486231663.1085 | pgbench_branches_pkey |            90112
 2017-02-04 19:07:43.108504+01 | 1486231663.1085 | pgbench_tellers_pkey  |           458752
 2017-02-04 19:07:43.108504+01 | 1486231663.1085 | pgbench_accounts_pkey |        224641024

 2017-02-04 19:07:44.191398+01 | 1486231664.1914 | pgbench_branches_pkey |            90112
 2017-02-04 19:07:44.191398+01 | 1486231664.1914 | pgbench_tellers_pkey  |           458752
 2017-02-04 19:07:44.191398+01 | 1486231664.1914 | pgbench_accounts_pkey |        224641024

 2017-02-04 19:07:45.278868+01 | 1486231665.27887 | pgbench_branches_pkey |            90112
 2017-02-04 19:07:45.278868+01 | 1486231665.27887 | pgbench_tellers_pkey  |           458752
 2017-02-04 19:07:45.278868+01 | 1486231665.27887 | pgbench_accounts_pkey |        224641024

 2017-02-04 19:07:46.349361+01 | 1486231666.34936 | pgbench_branches_pkey |            90112
 2017-02-04 19:07:46.349361+01 | 1486231666.34936 | pgbench_tellers_pkey  |           458752
 2017-02-04 19:07:46.349361+01 | 1486231666.34936 | pgbench_accounts_pkey |        224641024

 2017-02-04 19:07:47.418962+01 | 1486231667.41896 | pgbench_branches_pkey |            90112
 2017-02-04 19:07:47.418962+01 | 1486231667.41896 | pgbench_tellers_pkey  |           458752
 2017-02-04 19:07:47.418962+01 | 1486231667.41896 | pgbench_accounts_pkey |        224641024

 2017-02-04 19:07:48.502753+01 | 1486231668.50275 | pgbench_branches_pkey |            90112
 2017-02-04 19:07:48.502753+01 | 1486231668.50275 | pgbench_tellers_pkey  |           458752
 2017-02-04 19:07:48.502753+01 | 1486231668.50275 | pgbench_accounts_pkey |        224641024

 2017-02-04 19:07:49.584764+01 | 1486231669.58476 | pgbench_branches_pkey |            90112
 2017-02-04 19:07:49.584764+01 | 1486231669.58476 | pgbench_tellers_pkey  |           458752
 2017-02-04 19:07:49.584764+01 | 1486231669.58476 | pgbench_accounts_pkey |        224641024

 2017-02-04 19:07:50.667454+01 | 1486231670.66745 | pgbench_branches_pkey |            90112
 2017-02-04 19:07:50.667454+01 | 1486231670.66745 | pgbench_tellers_pkey  |           458752
 2017-02-04 19:07:50.667454+01 | 1486231670.66745 | pgbench_accounts_pkey |        224641024

 2017-02-04 19:07:51.747382+01 | 1486231671.74738 | pgbench_branches_pkey |            90112
 2017-02-04 19:07:51.747382+01 | 1486231671.74738 | pgbench_tellers_pkey  |           458752
 2017-02-04 19:07:51.747382+01 | 1486231671.74738 | pgbench_accounts_pkey |        224641024

 2017-02-04 19:07:52.83025+01 | 1486231672.83025 | pgbench_branches_pkey |            90112
 2017-02-04 19:07:52.83025+01 | 1486231672.83025 | pgbench_tellers_pkey  |           458752
 2017-02-04 19:07:52.83025+01 | 1486231672.83025 | pgbench_accounts_pkey |        224641024

 2017-02-04 19:07:53.902271+01 | 1486231673.90227 | pgbench_branches_pkey |            90112
 2017-02-04 19:07:53.902271+01 | 1486231673.90227 | pgbench_tellers_pkey  |           458752
 2017-02-04 19:07:53.902271+01 | 1486231673.90227 | pgbench_accounts_pkey |        224641024

 2017-02-04 19:07:54.98263+01 | 1486231674.98263 | pgbench_branches_pkey |            90112
 2017-02-04 19:07:54.98263+01 | 1486231674.98263 | pgbench_tellers_pkey  |           458752
 2017-02-04 19:07:54.98263+01 | 1486231674.98263 | pgbench_accounts_pkey |        224641024

 2017-02-04 19:07:56.066714+01 | 1486231676.06671 | pgbench_branches_pkey |            90112
 2017-02-04 19:07:56.066714+01 | 1486231676.06671 | pgbench_tellers_pkey  |           458752
 2017-02-04 19:07:56.066714+01 | 1486231676.06671 | pgbench_accounts_pkey |        224641024

 2017-02-04 19:07:57.150743+01 | 1486231677.15074 | pgbench_branches_pkey |            90112
 2017-02-04 19:07:57.150743+01 | 1486231677.15074 | pgbench_tellers_pkey  |           458752
 2017-02-04 19:07:57.150743+01 | 1486231677.15074 | pgbench_accounts_pkey |        224641024

 2017-02-04 19:07:58.221931+01 | 1486231678.22193 | pgbench_branches_pkey |            90112
 2017-02-04 19:07:58.221931+01 | 1486231678.22193 | pgbench_tellers_pkey  |           458752
 2017-02-04 19:07:58.221931+01 | 1486231678.22193 | pgbench_accounts_pkey |        224641024

 2017-02-04 19:07:59.297226+01 | 1486231679.29723 | pgbench_branches_pkey |            90112
 2017-02-04 19:07:59.297226+01 | 1486231679.29723 | pgbench_tellers_pkey  |           458752
 2017-02-04 19:07:59.297226+01 | 1486231679.29723 | pgbench_accounts_pkey |        224641024

 2017-02-04 19:08:00.383552+01 | 1486231680.38355 | pgbench_branches_pkey |            90112
 2017-02-04 19:08:00.383552+01 | 1486231680.38355 | pgbench_tellers_pkey  |           458752
 2017-02-04 19:08:00.383552+01 | 1486231680.38355 | pgbench_accounts_pkey |        224641024

 2017-02-04 19:08:01.473869+01 | 1486231681.47387 | pgbench_branches_pkey |            90112
 2017-02-04 19:08:01.473869+01 | 1486231681.47387 | pgbench_tellers_pkey  |           458752
 2017-02-04 19:08:01.473869+01 | 1486231681.47387 | pgbench_accounts_pkey |        224641024

 2017-02-04 19:08:02.547493+01 | 1486231682.54749 | pgbench_branches_pkey |            90112
 2017-02-04 19:08:02.547493+01 | 1486231682.54749 | pgbench_tellers_pkey  |           458752
 2017-02-04 19:08:02.547493+01 | 1486231682.54749 | pgbench_accounts_pkey |        224641024

 2017-02-04 19:08:03.624131+01 | 1486231683.62413 | pgbench_branches_pkey |            90112
 2017-02-04 19:08:03.624131+01 | 1486231683.62413 | pgbench_tellers_pkey  |           458752
 2017-02-04 19:08:03.624131+01 | 1486231683.62413 | pgbench_accounts_pkey |        224641024

 2017-02-04 19:08:04.696765+01 | 1486231684.69676 | pgbench_branches_pkey |            90112
 2017-02-04 19:08:04.696765+01 | 1486231684.69676 | pgbench_tellers_pkey  |           458752
 2017-02-04 19:08:04.696765+01 | 1486231684.69676 | pgbench_accounts_pkey |        224641024

 2017-02-04 19:08:05.770539+01 | 1486231685.77054 | pgbench_branches_pkey |            90112
 2017-02-04 19:08:05.770539+01 | 1486231685.77054 | pgbench_tellers_pkey  |           458752
 2017-02-04 19:08:05.770539+01 | 1486231685.77054 | pgbench_accounts_pkey |        224641024

 2017-02-04 19:08:06.837831+01 | 1486231686.83783 | pgbench_branches_pkey |            90112
 2017-02-04 19:08:06.837831+01 | 1486231686.83783 | pgbench_tellers_pkey  |           458752
 2017-02-04 19:08:06.837831+01 | 1486231686.83783 | pgbench_accounts_pkey |        224641024

 2017-02-04 19:08:07.917417+01 | 1486231687.91742 | pgbench_branches_pkey |            90112
 2017-02-04 19:08:07.917417+01 | 1486231687.91742 | pgbench_tellers_pkey  |           458752
 2017-02-04 19:08:07.917417+01 | 1486231687.91742 | pgbench_accounts_pkey |        224641024

 2017-02-04 19:08:08.997934+01 | 1486231688.99793 | pgbench_branches_pkey |            90112
 2017-02-04 19:08:08.997934+01 | 1486231688.99793 | pgbench_tellers_pkey  |           458752
 2017-02-04 19:08:08.997934+01 | 1486231688.99793 | pgbench_accounts_pkey |        224641024

 2017-02-04 19:08:10.077636+01 | 1486231690.07764 | pgbench_branches_pkey |            90112
 2017-02-04 19:08:10.077636+01 | 1486231690.07764 | pgbench_tellers_pkey  |           458752
 2017-02-04 19:08:10.077636+01 | 1486231690.07764 | pgbench_accounts_pkey |        224641024

 2017-02-04 19:08:11.148228+01 | 1486231691.14823 | pgbench_branches_pkey |            90112
 2017-02-04 19:08:11.148228+01 | 1486231691.14823 | pgbench_tellers_pkey  |           458752
 2017-02-04 19:08:11.148228+01 | 1486231691.14823 | pgbench_accounts_pkey |        224641024

 2017-02-04 19:08:12.221457+01 | 1486231692.22146 | pgbench_branches_pkey |            90112
 2017-02-04 19:08:12.221457+01 | 1486231692.22146 | pgbench_tellers_pkey  |           458752
 2017-02-04 19:08:12.221457+01 | 1486231692.22146 | pgbench_accounts_pkey |        224641024

 2017-02-04 19:08:13.298034+01 | 1486231693.29803 | pgbench_branches_pkey |            90112
 2017-02-04 19:08:13.298034+01 | 1486231693.29803 | pgbench_tellers_pkey  |           458752
 2017-02-04 19:08:13.298034+01 | 1486231693.29803 | pgbench_accounts_pkey |        224641024

 2017-02-04 19:08:14.380412+01 | 1486231694.38041 | pgbench_branches_pkey |            90112
 2017-02-04 19:08:14.380412+01 | 1486231694.38041 | pgbench_tellers_pkey  |           458752
 2017-02-04 19:08:14.380412+01 | 1486231694.38041 | pgbench_accounts_pkey |        224641024

 2017-02-04 19:08:15.4545+01 | 1486231695.4545 | pgbench_branches_pkey |            90112
 2017-02-04 19:08:15.4545+01 | 1486231695.4545 | pgbench_tellers_pkey  |           458752
 2017-02-04 19:08:15.4545+01 | 1486231695.4545 | pgbench_accounts_pkey |        224641024

 2017-02-04 19:08:16.536623+01 | 1486231696.53662 | pgbench_branches_pkey |            90112
 2017-02-04 19:08:16.536623+01 | 1486231696.53662 | pgbench_tellers_pkey  |           458752
 2017-02-04 19:08:16.536623+01 | 1486231696.53662 | pgbench_accounts_pkey |        224641024

 2017-02-04 19:08:17.610073+01 | 1486231697.61007 | pgbench_branches_pkey |            90112
 2017-02-04 19:08:17.610073+01 | 1486231697.61007 | pgbench_tellers_pkey  |           458752
 2017-02-04 19:08:17.610073+01 | 1486231697.61007 | pgbench_accounts_pkey |        224641024

 2017-02-04 19:08:18.687942+01 | 1486231698.68794 | pgbench_branches_pkey |            90112
 2017-02-04 19:08:18.687942+01 | 1486231698.68794 | pgbench_tellers_pkey  |           458752
 2017-02-04 19:08:18.687942+01 | 1486231698.68794 | pgbench_accounts_pkey |        224641024

 2017-02-04 19:08:19.767291+01 | 1486231699.76729 | pgbench_branches_pkey |            90112
 2017-02-04 19:08:19.767291+01 | 1486231699.76729 | pgbench_tellers_pkey  |           458752
 2017-02-04 19:08:19.767291+01 | 1486231699.76729 | pgbench_accounts_pkey |        224641024

 2017-02-04 19:08:20.850902+01 | 1486231700.8509 | pgbench_branches_pkey |            90112
 2017-02-04 19:08:20.850902+01 | 1486231700.8509 | pgbench_tellers_pkey  |           458752
 2017-02-04 19:08:20.850902+01 | 1486231700.8509 | pgbench_accounts_pkey |        224641024

 2017-02-04 19:08:21.942589+01 | 1486231701.94259 | pgbench_branches_pkey |            90112
 2017-02-04 19:08:21.942589+01 | 1486231701.94259 | pgbench_tellers_pkey  |           458752
 2017-02-04 19:08:21.942589+01 | 1486231701.94259 | pgbench_accounts_pkey |        224641024

 2017-02-04 19:08:23.030232+01 | 1486231703.03023 | pgbench_branches_pkey |            90112
 2017-02-04 19:08:23.030232+01 | 1486231703.03023 | pgbench_tellers_pkey  |           458752
 2017-02-04 19:08:23.030232+01 | 1486231703.03023 | pgbench_accounts_pkey |        224641024

 2017-02-04 19:08:24.103293+01 | 1486231704.10329 | pgbench_branches_pkey |            90112
 2017-02-04 19:08:24.103293+01 | 1486231704.10329 | pgbench_tellers_pkey  |           458752
 2017-02-04 19:08:24.103293+01 | 1486231704.10329 | pgbench_accounts_pkey |        224641024

 2017-02-04 19:08:25.178797+01 | 1486231705.1788 | pgbench_branches_pkey |            90112
 2017-02-04 19:08:25.178797+01 | 1486231705.1788 | pgbench_tellers_pkey  |           458752
 2017-02-04 19:08:25.178797+01 | 1486231705.1788 | pgbench_accounts_pkey |        224641024

 2017-02-04 19:08:26.260582+01 | 1486231706.26058 | pgbench_branches_pkey |            90112
 2017-02-04 19:08:26.260582+01 | 1486231706.26058 | pgbench_tellers_pkey  |           458752
 2017-02-04 19:08:26.260582+01 | 1486231706.26058 | pgbench_accounts_pkey |        224641024

 2017-02-04 19:08:27.345458+01 | 1486231707.34546 | pgbench_branches_pkey |            90112
 2017-02-04 19:08:27.345458+01 | 1486231707.34546 | pgbench_tellers_pkey  |           458752
 2017-02-04 19:08:27.345458+01 | 1486231707.34546 | pgbench_accounts_pkey |        224641024

 2017-02-04 19:08:28.416618+01 | 1486231708.41662 | pgbench_branches_pkey |            90112
 2017-02-04 19:08:28.416618+01 | 1486231708.41662 | pgbench_tellers_pkey  |           458752
 2017-02-04 19:08:28.416618+01 | 1486231708.41662 | pgbench_accounts_pkey |        224641024

 2017-02-04 19:08:29.492901+01 | 1486231709.4929 | pgbench_branches_pkey |            90112
 2017-02-04 19:08:29.492901+01 | 1486231709.4929 | pgbench_tellers_pkey  |           458752
 2017-02-04 19:08:29.492901+01 | 1486231709.4929 | pgbench_accounts_pkey |        224641024

 2017-02-04 19:08:30.581158+01 | 1486231710.58116 | pgbench_branches_pkey |            90112
 2017-02-04 19:08:30.581158+01 | 1486231710.58116 | pgbench_tellers_pkey  |           458752
 2017-02-04 19:08:30.581158+01 | 1486231710.58116 | pgbench_accounts_pkey |        224641024

 2017-02-04 19:08:31.662045+01 | 1486231711.66205 | pgbench_branches_pkey |            90112
 2017-02-04 19:08:31.662045+01 | 1486231711.66205 | pgbench_tellers_pkey  |           458752
 2017-02-04 19:08:31.662045+01 | 1486231711.66205 | pgbench_accounts_pkey |        224641024

 2017-02-04 19:08:32.749922+01 | 1486231712.74992 | pgbench_branches_pkey |            90112
 2017-02-04 19:08:32.749922+01 | 1486231712.74992 | pgbench_tellers_pkey  |           458752
 2017-02-04 19:08:32.749922+01 | 1486231712.74992 | pgbench_accounts_pkey |        224641024

 2017-02-04 19:08:33.826497+01 | 1486231713.8265 | pgbench_branches_pkey |            90112
 2017-02-04 19:08:33.826497+01 | 1486231713.8265 | pgbench_tellers_pkey  |           458752
 2017-02-04 19:08:33.826497+01 | 1486231713.8265 | pgbench_accounts_pkey |        224641024

 2017-02-04 19:08:34.898877+01 | 1486231714.89888 | pgbench_branches_pkey |            90112
 2017-02-04 19:08:34.898877+01 | 1486231714.89888 | pgbench_tellers_pkey  |           458752
 2017-02-04 19:08:34.898877+01 | 1486231714.89888 | pgbench_accounts_pkey |        224641024

 2017-02-04 19:08:35.979337+01 | 1486231715.97934 | pgbench_branches_pkey |            90112
 2017-02-04 19:08:35.979337+01 | 1486231715.97934 | pgbench_tellers_pkey  |           458752
 2017-02-04 19:08:35.979337+01 | 1486231715.97934 | pgbench_accounts_pkey |        224641024

 2017-02-04 19:08:37.061978+01 | 1486231717.06198 | pgbench_branches_pkey |            90112
 2017-02-04 19:08:37.061978+01 | 1486231717.06198 | pgbench_tellers_pkey  |           458752
 2017-02-04 19:08:37.061978+01 | 1486231717.06198 | pgbench_accounts_pkey |        224641024

 2017-02-04 19:08:38.148466+01 | 1486231718.14847 | pgbench_branches_pkey |            90112
 2017-02-04 19:08:38.148466+01 | 1486231718.14847 | pgbench_tellers_pkey  |           458752
 2017-02-04 19:08:38.148466+01 | 1486231718.14847 | pgbench_accounts_pkey |        224641024

 2017-02-04 19:08:39.234951+01 | 1486231719.23495 | pgbench_branches_pkey |            90112
 2017-02-04 19:08:39.234951+01 | 1486231719.23495 | pgbench_tellers_pkey  |           458752
 2017-02-04 19:08:39.234951+01 | 1486231719.23495 | pgbench_accounts_pkey |        224641024

 2017-02-04 19:08:40.305628+01 | 1486231720.30563 | pgbench_branches_pkey |            90112
 2017-02-04 19:08:40.305628+01 | 1486231720.30563 | pgbench_tellers_pkey  |           458752
 2017-02-04 19:08:40.305628+01 | 1486231720.30563 | pgbench_accounts_pkey |        224641024

 2017-02-04 19:08:41.388669+01 | 1486231721.38867 | pgbench_branches_pkey |            90112
 2017-02-04 19:08:41.388669+01 | 1486231721.38867 | pgbench_tellers_pkey  |           458752
 2017-02-04 19:08:41.388669+01 | 1486231721.38867 | pgbench_accounts_pkey |        224641024

 2017-02-04 19:08:42.470393+01 | 1486231722.47039 | pgbench_branches_pkey |            90112
 2017-02-04 19:08:42.470393+01 | 1486231722.47039 | pgbench_tellers_pkey  |           458752
 2017-02-04 19:08:42.470393+01 | 1486231722.47039 | pgbench_accounts_pkey |        224641024

 2017-02-04 19:08:43.547949+01 | 1486231723.54795 | pgbench_branches_pkey |            90112
 2017-02-04 19:08:43.547949+01 | 1486231723.54795 | pgbench_tellers_pkey  |           458752
 2017-02-04 19:08:43.547949+01 | 1486231723.54795 | pgbench_accounts_pkey |        224641024

 2017-02-04 19:08:44.62355+01 | 1486231724.62355 | pgbench_branches_pkey |            90112
 2017-02-04 19:08:44.62355+01 | 1486231724.62355 | pgbench_tellers_pkey  |           458752
 2017-02-04 19:08:44.62355+01 | 1486231724.62355 | pgbench_accounts_pkey |        224641024

 2017-02-04 19:08:45.702391+01 | 1486231725.70239 | pgbench_branches_pkey |            90112
 2017-02-04 19:08:45.702391+01 | 1486231725.70239 | pgbench_tellers_pkey  |           458752
 2017-02-04 19:08:45.702391+01 | 1486231725.70239 | pgbench_accounts_pkey |        224641024

