 2017-02-06 16:28:53.592909+01 | 1486394933.59291 | pgbench_accounts |       1391173632
 2017-02-06 16:28:53.592909+01 | 1486394933.59291 | pgbench_tellers  |          3063808
 2017-02-06 16:28:53.592909+01 | 1486394933.59291 | pgbench_history  |             8192
 2017-02-06 16:28:53.592909+01 | 1486394933.59291 | pgbench_branches |          1507328

 2017-02-06 16:28:54.688438+01 | 1486394934.68844 | pgbench_accounts |       1391173632
 2017-02-06 16:28:54.688438+01 | 1486394934.68844 | pgbench_tellers  |          3063808
 2017-02-06 16:28:54.688438+01 | 1486394934.68844 | pgbench_history  |           614400
 2017-02-06 16:28:54.688438+01 | 1486394934.68844 | pgbench_branches |          1507328

 2017-02-06 16:28:55.773945+01 | 1486394935.77395 | pgbench_accounts |       1391173632
 2017-02-06 16:28:55.773945+01 | 1486394935.77395 | pgbench_tellers  |          3063808
 2017-02-06 16:28:55.773945+01 | 1486394935.77395 | pgbench_history  |          1343488
 2017-02-06 16:28:55.773945+01 | 1486394935.77395 | pgbench_branches |          1507328

 2017-02-06 16:28:56.849851+01 | 1486394936.84985 | pgbench_accounts |       1391173632
 2017-02-06 16:28:56.849851+01 | 1486394936.84985 | pgbench_tellers  |          3063808
 2017-02-06 16:28:56.849851+01 | 1486394936.84985 | pgbench_history  |          1925120
 2017-02-06 16:28:56.849851+01 | 1486394936.84985 | pgbench_branches |          1507328

 2017-02-06 16:28:57.926053+01 | 1486394937.92605 | pgbench_accounts |       1391173632
 2017-02-06 16:28:57.926053+01 | 1486394937.92605 | pgbench_tellers  |          3063808
 2017-02-06 16:28:57.926053+01 | 1486394937.92605 | pgbench_history  |          2449408
 2017-02-06 16:28:57.926053+01 | 1486394937.92605 | pgbench_branches |          1507328

 2017-02-06 16:28:59.010219+01 | 1486394939.01022 | pgbench_accounts |       1391173632
 2017-02-06 16:28:59.010219+01 | 1486394939.01022 | pgbench_tellers  |          3063808
 2017-02-06 16:28:59.010219+01 | 1486394939.01022 | pgbench_history  |          3080192
 2017-02-06 16:28:59.010219+01 | 1486394939.01022 | pgbench_branches |          1507328

 2017-02-06 16:29:00.084644+01 | 1486394940.08464 | pgbench_accounts |       1391173632
 2017-02-06 16:29:00.084644+01 | 1486394940.08464 | pgbench_tellers  |          3063808
 2017-02-06 16:29:00.084644+01 | 1486394940.08464 | pgbench_history  |          3784704
 2017-02-06 16:29:00.084644+01 | 1486394940.08464 | pgbench_branches |          1507328

 2017-02-06 16:29:01.147137+01 | 1486394941.14714 | pgbench_accounts |       1391173632
 2017-02-06 16:29:01.147137+01 | 1486394941.14714 | pgbench_tellers  |          3063808
 2017-02-06 16:29:01.147137+01 | 1486394941.14714 | pgbench_history  |          4358144
 2017-02-06 16:29:01.147137+01 | 1486394941.14714 | pgbench_branches |          1507328

 2017-02-06 16:29:02.230654+01 | 1486394942.23065 | pgbench_accounts |       1391173632
 2017-02-06 16:29:02.230654+01 | 1486394942.23065 | pgbench_tellers  |          3063808
 2017-02-06 16:29:02.230654+01 | 1486394942.23065 | pgbench_history  |          5095424
 2017-02-06 16:29:02.230654+01 | 1486394942.23065 | pgbench_branches |          1507328

 2017-02-06 16:29:03.316406+01 | 1486394943.31641 | pgbench_accounts |       1391173632
 2017-02-06 16:29:03.316406+01 | 1486394943.31641 | pgbench_tellers  |          3063808
 2017-02-06 16:29:03.316406+01 | 1486394943.31641 | pgbench_history  |          5693440
 2017-02-06 16:29:03.316406+01 | 1486394943.31641 | pgbench_branches |          1507328

 2017-02-06 16:29:04.387336+01 | 1486394944.38734 | pgbench_accounts |       1391173632
 2017-02-06 16:29:04.387336+01 | 1486394944.38734 | pgbench_tellers  |          3063808
 2017-02-06 16:29:04.387336+01 | 1486394944.38734 | pgbench_history  |          6266880
 2017-02-06 16:29:04.387336+01 | 1486394944.38734 | pgbench_branches |          1507328

 2017-02-06 16:29:05.459834+01 | 1486394945.45983 | pgbench_accounts |       1391173632
 2017-02-06 16:29:05.459834+01 | 1486394945.45983 | pgbench_tellers  |          3063808
 2017-02-06 16:29:05.459834+01 | 1486394945.45983 | pgbench_history  |          6889472
 2017-02-06 16:29:05.459834+01 | 1486394945.45983 | pgbench_branches |          1507328

 2017-02-06 16:29:06.535765+01 | 1486394946.53576 | pgbench_accounts |       1391173632
 2017-02-06 16:29:06.535765+01 | 1486394946.53576 | pgbench_tellers  |          3063808
 2017-02-06 16:29:06.535765+01 | 1486394946.53576 | pgbench_history  |          7667712
 2017-02-06 16:29:06.535765+01 | 1486394946.53576 | pgbench_branches |          1507328

 2017-02-06 16:29:07.622035+01 | 1486394947.62204 | pgbench_accounts |       1391173632
 2017-02-06 16:29:07.622035+01 | 1486394947.62204 | pgbench_tellers  |          3063808
 2017-02-06 16:29:07.622035+01 | 1486394947.62204 | pgbench_history  |          8110080
 2017-02-06 16:29:07.622035+01 | 1486394947.62204 | pgbench_branches |          1507328

 2017-02-06 16:29:08.71109+01 | 1486394948.71109 | pgbench_accounts |       1391173632
 2017-02-06 16:29:08.71109+01 | 1486394948.71109 | pgbench_tellers  |          3063808
 2017-02-06 16:29:08.71109+01 | 1486394948.71109 | pgbench_history  |          8732672
 2017-02-06 16:29:08.71109+01 | 1486394948.71109 | pgbench_branches |          1507328

 2017-02-06 16:29:09.807157+01 | 1486394949.80716 | pgbench_accounts |       1391173632
 2017-02-06 16:29:09.807157+01 | 1486394949.80716 | pgbench_tellers  |          3063808
 2017-02-06 16:29:09.807157+01 | 1486394949.80716 | pgbench_history  |          9396224
 2017-02-06 16:29:09.807157+01 | 1486394949.80716 | pgbench_branches |          1507328

 2017-02-06 16:29:10.887001+01 | 1486394950.887 | pgbench_accounts |       1391173632
 2017-02-06 16:29:10.887001+01 | 1486394950.887 | pgbench_tellers  |          3063808
 2017-02-06 16:29:10.887001+01 | 1486394950.887 | pgbench_history  |         10010624
 2017-02-06 16:29:10.887001+01 | 1486394950.887 | pgbench_branches |          1507328

 2017-02-06 16:29:11.972477+01 | 1486394951.97248 | pgbench_accounts |       1391173632
 2017-02-06 16:29:11.972477+01 | 1486394951.97248 | pgbench_tellers  |          3063808
 2017-02-06 16:29:11.972477+01 | 1486394951.97248 | pgbench_history  |         10665984
 2017-02-06 16:29:11.972477+01 | 1486394951.97248 | pgbench_branches |          1507328

 2017-02-06 16:29:13.056837+01 | 1486394953.05684 | pgbench_accounts |       1391173632
 2017-02-06 16:29:13.056837+01 | 1486394953.05684 | pgbench_tellers  |          3063808
 2017-02-06 16:29:13.056837+01 | 1486394953.05684 | pgbench_history  |         11280384
 2017-02-06 16:29:13.056837+01 | 1486394953.05684 | pgbench_branches |          1507328

 2017-02-06 16:29:14.135725+01 | 1486394954.13573 | pgbench_accounts |       1391173632
 2017-02-06 16:29:14.135725+01 | 1486394954.13573 | pgbench_tellers  |          3063808
 2017-02-06 16:29:14.135725+01 | 1486394954.13573 | pgbench_history  |         11911168
 2017-02-06 16:29:14.135725+01 | 1486394954.13573 | pgbench_branches |          1507328

 2017-02-06 16:29:15.213812+01 | 1486394955.21381 | pgbench_accounts |       1391173632
 2017-02-06 16:29:15.213812+01 | 1486394955.21381 | pgbench_tellers  |          3063808
 2017-02-06 16:29:15.213812+01 | 1486394955.21381 | pgbench_history  |         12640256
 2017-02-06 16:29:15.213812+01 | 1486394955.21381 | pgbench_branches |          1507328

 2017-02-06 16:29:16.288693+01 | 1486394956.28869 | pgbench_accounts |       1391173632
 2017-02-06 16:29:16.288693+01 | 1486394956.28869 | pgbench_tellers  |          3063808
 2017-02-06 16:29:16.288693+01 | 1486394956.28869 | pgbench_history  |         13230080
 2017-02-06 16:29:16.288693+01 | 1486394956.28869 | pgbench_branches |          1507328

 2017-02-06 16:29:17.364431+01 | 1486394957.36443 | pgbench_accounts |       1391173632
 2017-02-06 16:29:17.364431+01 | 1486394957.36443 | pgbench_tellers  |          3063808
 2017-02-06 16:29:17.364431+01 | 1486394957.36443 | pgbench_history  |         13803520
 2017-02-06 16:29:17.364431+01 | 1486394957.36443 | pgbench_branches |          1507328

 2017-02-06 16:29:18.445069+01 | 1486394958.44507 | pgbench_accounts |       1391173632
 2017-02-06 16:29:18.445069+01 | 1486394958.44507 | pgbench_tellers  |          3063808
 2017-02-06 16:29:18.445069+01 | 1486394958.44507 | pgbench_history  |         14327808
 2017-02-06 16:29:18.445069+01 | 1486394958.44507 | pgbench_branches |          1507328

 2017-02-06 16:29:19.519125+01 | 1486394959.51912 | pgbench_accounts |       1391173632
 2017-02-06 16:29:19.519125+01 | 1486394959.51912 | pgbench_tellers  |          3063808
 2017-02-06 16:29:19.519125+01 | 1486394959.51912 | pgbench_history  |         14958592
 2017-02-06 16:29:19.519125+01 | 1486394959.51912 | pgbench_branches |          1507328

 2017-02-06 16:29:20.609337+01 | 1486394960.60934 | pgbench_accounts |       1391173632
 2017-02-06 16:29:20.609337+01 | 1486394960.60934 | pgbench_tellers  |          3063808
 2017-02-06 16:29:20.609337+01 | 1486394960.60934 | pgbench_history  |         15597568
 2017-02-06 16:29:20.609337+01 | 1486394960.60934 | pgbench_branches |          1507328

 2017-02-06 16:29:21.704141+01 | 1486394961.70414 | pgbench_accounts |       1391173632
 2017-02-06 16:29:21.704141+01 | 1486394961.70414 | pgbench_tellers  |          3063808
 2017-02-06 16:29:21.704141+01 | 1486394961.70414 | pgbench_history  |         16236544
 2017-02-06 16:29:21.704141+01 | 1486394961.70414 | pgbench_branches |          1507328

 2017-02-06 16:29:22.795745+01 | 1486394962.79574 | pgbench_accounts |       1391173632
 2017-02-06 16:29:22.795745+01 | 1486394962.79574 | pgbench_tellers  |          3063808
 2017-02-06 16:29:22.795745+01 | 1486394962.79574 | pgbench_history  |         16875520
 2017-02-06 16:29:22.795745+01 | 1486394962.79574 | pgbench_branches |          1507328

 2017-02-06 16:29:23.88854+01 | 1486394963.88854 | pgbench_accounts |       1391173632
 2017-02-06 16:29:23.88854+01 | 1486394963.88854 | pgbench_tellers  |          3063808
 2017-02-06 16:29:23.88854+01 | 1486394963.88854 | pgbench_history  |         17530880
 2017-02-06 16:29:23.88854+01 | 1486394963.88854 | pgbench_branches |          1507328

 2017-02-06 16:29:24.977024+01 | 1486394964.97702 | pgbench_accounts |       1391173632
 2017-02-06 16:29:24.977024+01 | 1486394964.97702 | pgbench_tellers  |          3063808
 2017-02-06 16:29:24.977024+01 | 1486394964.97702 | pgbench_history  |         18145280
 2017-02-06 16:29:24.977024+01 | 1486394964.97702 | pgbench_branches |          1507328

 2017-02-06 16:29:26.042341+01 | 1486394966.04234 | pgbench_accounts |       1391173632
 2017-02-06 16:29:26.042341+01 | 1486394966.04234 | pgbench_tellers  |          3063808
 2017-02-06 16:29:26.042341+01 | 1486394966.04234 | pgbench_history  |         18726912
 2017-02-06 16:29:26.042341+01 | 1486394966.04234 | pgbench_branches |          1507328

 2017-02-06 16:29:27.114801+01 | 1486394967.1148 | pgbench_accounts |       1391173632
 2017-02-06 16:29:27.114801+01 | 1486394967.1148 | pgbench_tellers  |          3063808
 2017-02-06 16:29:27.114801+01 | 1486394967.1148 | pgbench_history  |         19357696
 2017-02-06 16:29:27.114801+01 | 1486394967.1148 | pgbench_branches |          1507328

 2017-02-06 16:29:28.207166+01 | 1486394968.20717 | pgbench_accounts |       1391173632
 2017-02-06 16:29:28.207166+01 | 1486394968.20717 | pgbench_tellers  |          3063808
 2017-02-06 16:29:28.207166+01 | 1486394968.20717 | pgbench_history  |         19980288
 2017-02-06 16:29:28.207166+01 | 1486394968.20717 | pgbench_branches |          1507328

 2017-02-06 16:29:29.282214+01 | 1486394969.28221 | pgbench_accounts |       1391173632
 2017-02-06 16:29:29.282214+01 | 1486394969.28221 | pgbench_tellers  |          3063808
 2017-02-06 16:29:29.282214+01 | 1486394969.28221 | pgbench_history  |         20594688
 2017-02-06 16:29:29.282214+01 | 1486394969.28221 | pgbench_branches |          1507328

 2017-02-06 16:29:30.359558+01 | 1486394970.35956 | pgbench_accounts |       1391173632
 2017-02-06 16:29:30.359558+01 | 1486394970.35956 | pgbench_tellers  |          3063808
 2017-02-06 16:29:30.359558+01 | 1486394970.35956 | pgbench_history  |         21225472
 2017-02-06 16:29:30.359558+01 | 1486394970.35956 | pgbench_branches |          1507328

 2017-02-06 16:29:31.43863+01 | 1486394971.43863 | pgbench_accounts |       1391173632
 2017-02-06 16:29:31.43863+01 | 1486394971.43863 | pgbench_tellers  |          3063808
 2017-02-06 16:29:31.43863+01 | 1486394971.43863 | pgbench_history  |         22044672
 2017-02-06 16:29:31.43863+01 | 1486394971.43863 | pgbench_branches |          1507328

 2017-02-06 16:29:32.509817+01 | 1486394972.50982 | pgbench_accounts |       1391173632
 2017-02-06 16:29:32.509817+01 | 1486394972.50982 | pgbench_tellers  |          3063808
 2017-02-06 16:29:32.509817+01 | 1486394972.50982 | pgbench_history  |         22454272
 2017-02-06 16:29:32.509817+01 | 1486394972.50982 | pgbench_branches |          1507328

 2017-02-06 16:29:33.584524+01 | 1486394973.58452 | pgbench_accounts |       1391173632
 2017-02-06 16:29:33.584524+01 | 1486394973.58452 | pgbench_tellers  |          3063808
 2017-02-06 16:29:33.584524+01 | 1486394973.58452 | pgbench_history  |         23166976
 2017-02-06 16:29:33.584524+01 | 1486394973.58452 | pgbench_branches |          1507328

 2017-02-06 16:29:34.669378+01 | 1486394974.66938 | pgbench_accounts |       1391173632
 2017-02-06 16:29:34.669378+01 | 1486394974.66938 | pgbench_tellers  |          3063808
 2017-02-06 16:29:34.669378+01 | 1486394974.66938 | pgbench_history  |         23764992
 2017-02-06 16:29:34.669378+01 | 1486394974.66938 | pgbench_branches |          1507328

 2017-02-06 16:29:35.75058+01 | 1486394975.75058 | pgbench_accounts |       1391173632
 2017-02-06 16:29:35.75058+01 | 1486394975.75058 | pgbench_tellers  |          3063808
 2017-02-06 16:29:35.75058+01 | 1486394975.75058 | pgbench_history  |         24502272
 2017-02-06 16:29:35.75058+01 | 1486394975.75058 | pgbench_branches |          1507328

 2017-02-06 16:29:36.826193+01 | 1486394976.82619 | pgbench_accounts |       1391173632
 2017-02-06 16:29:36.826193+01 | 1486394976.82619 | pgbench_tellers  |          3063808
 2017-02-06 16:29:36.826193+01 | 1486394976.82619 | pgbench_history  |         25378816
 2017-02-06 16:29:36.826193+01 | 1486394976.82619 | pgbench_branches |          1507328

 2017-02-06 16:29:37.900051+01 | 1486394977.90005 | pgbench_accounts |       1391173632
 2017-02-06 16:29:37.900051+01 | 1486394977.90005 | pgbench_tellers  |          3063808
 2017-02-06 16:29:37.900051+01 | 1486394977.90005 | pgbench_history  |         25772032
 2017-02-06 16:29:37.900051+01 | 1486394977.90005 | pgbench_branches |          1507328

 2017-02-06 16:29:38.986095+01 | 1486394978.98609 | pgbench_accounts |       1391173632
 2017-02-06 16:29:38.986095+01 | 1486394978.98609 | pgbench_tellers  |          3063808
 2017-02-06 16:29:38.986095+01 | 1486394978.98609 | pgbench_history  |         26198016
 2017-02-06 16:29:38.986095+01 | 1486394978.98609 | pgbench_branches |          1507328

 2017-02-06 16:29:40.061526+01 | 1486394980.06153 | pgbench_accounts |       1391173632
 2017-02-06 16:29:40.061526+01 | 1486394980.06153 | pgbench_tellers  |          3063808
 2017-02-06 16:29:40.061526+01 | 1486394980.06153 | pgbench_history  |         26820608
 2017-02-06 16:29:40.061526+01 | 1486394980.06153 | pgbench_branches |          1507328

 2017-02-06 16:29:41.145314+01 | 1486394981.14531 | pgbench_accounts |       1391173632
 2017-02-06 16:29:41.145314+01 | 1486394981.14531 | pgbench_tellers  |          3063808
 2017-02-06 16:29:41.145314+01 | 1486394981.14531 | pgbench_history  |         27590656
 2017-02-06 16:29:41.145314+01 | 1486394981.14531 | pgbench_branches |          1507328

 2017-02-06 16:29:42.236633+01 | 1486394982.23663 | pgbench_accounts |       1391173632
 2017-02-06 16:29:42.236633+01 | 1486394982.23663 | pgbench_tellers  |          3063808
 2017-02-06 16:29:42.236633+01 | 1486394982.23663 | pgbench_history  |         28352512
 2017-02-06 16:29:42.236633+01 | 1486394982.23663 | pgbench_branches |          1507328

 2017-02-06 16:29:43.325374+01 | 1486394983.32537 | pgbench_accounts |       1391173632
 2017-02-06 16:29:43.325374+01 | 1486394983.32537 | pgbench_tellers  |          3063808
 2017-02-06 16:29:43.325374+01 | 1486394983.32537 | pgbench_history  |         28729344
 2017-02-06 16:29:43.325374+01 | 1486394983.32537 | pgbench_branches |          1507328

 2017-02-06 16:29:44.401701+01 | 1486394984.4017 | pgbench_accounts |       1391173632
 2017-02-06 16:29:44.401701+01 | 1486394984.4017 | pgbench_tellers  |          3063808
 2017-02-06 16:29:44.401701+01 | 1486394984.4017 | pgbench_history  |         29286400
 2017-02-06 16:29:44.401701+01 | 1486394984.4017 | pgbench_branches |          1507328

 2017-02-06 16:29:45.474686+01 | 1486394985.47469 | pgbench_accounts |       1391173632
 2017-02-06 16:29:45.474686+01 | 1486394985.47469 | pgbench_tellers  |          3063808
 2017-02-06 16:29:45.474686+01 | 1486394985.47469 | pgbench_history  |         30187520
 2017-02-06 16:29:45.474686+01 | 1486394985.47469 | pgbench_branches |          1507328

 2017-02-06 16:29:46.547631+01 | 1486394986.54763 | pgbench_accounts |       1391173632
 2017-02-06 16:29:46.547631+01 | 1486394986.54763 | pgbench_tellers  |          3063808
 2017-02-06 16:29:46.547631+01 | 1486394986.54763 | pgbench_history  |         30539776
 2017-02-06 16:29:46.547631+01 | 1486394986.54763 | pgbench_branches |          1507328

 2017-02-06 16:29:47.625099+01 | 1486394987.6251 | pgbench_accounts |       1391173632
 2017-02-06 16:29:47.625099+01 | 1486394987.6251 | pgbench_tellers  |          3063808
 2017-02-06 16:29:47.625099+01 | 1486394987.6251 | pgbench_history  |         31285248
 2017-02-06 16:29:47.625099+01 | 1486394987.6251 | pgbench_branches |          1507328

 2017-02-06 16:29:48.701694+01 | 1486394988.70169 | pgbench_accounts |       1391173632
 2017-02-06 16:29:48.701694+01 | 1486394988.70169 | pgbench_tellers  |          3063808
 2017-02-06 16:29:48.701694+01 | 1486394988.70169 | pgbench_history  |         31719424
 2017-02-06 16:29:48.701694+01 | 1486394988.70169 | pgbench_branches |          1507328

 2017-02-06 16:29:49.779418+01 | 1486394989.77942 | pgbench_accounts |       1391173632
 2017-02-06 16:29:49.779418+01 | 1486394989.77942 | pgbench_tellers  |          3063808
 2017-02-06 16:29:49.779418+01 | 1486394989.77942 | pgbench_history  |         32473088
 2017-02-06 16:29:49.779418+01 | 1486394989.77942 | pgbench_branches |          1507328

 2017-02-06 16:29:50.866321+01 | 1486394990.86632 | pgbench_accounts |       1391173632
 2017-02-06 16:29:50.866321+01 | 1486394990.86632 | pgbench_tellers  |          3063808
 2017-02-06 16:29:50.866321+01 | 1486394990.86632 | pgbench_history  |         33095680
 2017-02-06 16:29:50.866321+01 | 1486394990.86632 | pgbench_branches |          1507328

 2017-02-06 16:29:51.949117+01 | 1486394991.94912 | pgbench_accounts |       1391173632
 2017-02-06 16:29:51.949117+01 | 1486394991.94912 | pgbench_tellers  |          3063808
 2017-02-06 16:29:51.949117+01 | 1486394991.94912 | pgbench_history  |         33652736
 2017-02-06 16:29:51.949117+01 | 1486394991.94912 | pgbench_branches |          1507328

 2017-02-06 16:29:53.039502+01 | 1486394993.0395 | pgbench_accounts |       1391173632
 2017-02-06 16:29:53.039502+01 | 1486394993.0395 | pgbench_tellers  |          3063808
 2017-02-06 16:29:53.039502+01 | 1486394993.0395 | pgbench_history  |         34553856
 2017-02-06 16:29:53.039502+01 | 1486394993.0395 | pgbench_branches |          1507328

 2017-02-06 16:29:54.131584+01 | 1486394994.13158 | pgbench_accounts |       1391173632
 2017-02-06 16:29:54.131584+01 | 1486394994.13158 | pgbench_tellers  |          3063808
 2017-02-06 16:29:54.131584+01 | 1486394994.13158 | pgbench_history  |         34914304
 2017-02-06 16:29:54.131584+01 | 1486394994.13158 | pgbench_branches |          1507328

 2017-02-06 16:29:55.220572+01 | 1486394995.22057 | pgbench_accounts |       1391173632
 2017-02-06 16:29:55.220572+01 | 1486394995.22057 | pgbench_tellers  |          3063808
 2017-02-06 16:29:55.220572+01 | 1486394995.22057 | pgbench_history  |         35454976
 2017-02-06 16:29:55.220572+01 | 1486394995.22057 | pgbench_branches |          1507328

 2017-02-06 16:29:56.293248+01 | 1486394996.29325 | pgbench_accounts |       1391173632
 2017-02-06 16:29:56.293248+01 | 1486394996.29325 | pgbench_tellers  |          3063808
 2017-02-06 16:29:56.293248+01 | 1486394996.29325 | pgbench_history  |         36200448
 2017-02-06 16:29:56.293248+01 | 1486394996.29325 | pgbench_branches |          1507328

 2017-02-06 16:29:57.362083+01 | 1486394997.36208 | pgbench_accounts |       1391173632
 2017-02-06 16:29:57.362083+01 | 1486394997.36208 | pgbench_tellers  |          3063808
 2017-02-06 16:29:57.362083+01 | 1486394997.36208 | pgbench_history  |         36814848
 2017-02-06 16:29:57.362083+01 | 1486394997.36208 | pgbench_branches |          1507328

 2017-02-06 16:29:58.446465+01 | 1486394998.44647 | pgbench_accounts |       1391173632
 2017-02-06 16:29:58.446465+01 | 1486394998.44647 | pgbench_tellers  |          3063808
 2017-02-06 16:29:58.446465+01 | 1486394998.44647 | pgbench_history  |         37625856
 2017-02-06 16:29:58.446465+01 | 1486394998.44647 | pgbench_branches |          1507328

 2017-02-06 16:29:59.525556+01 | 1486394999.52556 | pgbench_accounts |       1391173632
 2017-02-06 16:29:59.525556+01 | 1486394999.52556 | pgbench_tellers  |          3063808
 2017-02-06 16:29:59.525556+01 | 1486394999.52556 | pgbench_history  |         38010880
 2017-02-06 16:29:59.525556+01 | 1486394999.52556 | pgbench_branches |          1507328

 2017-02-06 16:30:00.60491+01 | 1486395000.60491 | pgbench_accounts |       1391173632
 2017-02-06 16:30:00.60491+01 | 1486395000.60491 | pgbench_tellers  |          3063808
 2017-02-06 16:30:00.60491+01 | 1486395000.60491 | pgbench_history  |         38756352
 2017-02-06 16:30:00.60491+01 | 1486395000.60491 | pgbench_branches |          1507328

 2017-02-06 16:30:01.678618+01 | 1486395001.67862 | pgbench_accounts |       1391173632
 2017-02-06 16:30:01.678618+01 | 1486395001.67862 | pgbench_tellers  |          3063808
 2017-02-06 16:30:01.678618+01 | 1486395001.67862 | pgbench_history  |         39337984
 2017-02-06 16:30:01.678618+01 | 1486395001.67862 | pgbench_branches |          1507328

 2017-02-06 16:30:02.755261+01 | 1486395002.75526 | pgbench_accounts |       1391173632
 2017-02-06 16:30:02.755261+01 | 1486395002.75526 | pgbench_tellers  |          3063808
 2017-02-06 16:30:02.755261+01 | 1486395002.75526 | pgbench_history  |         39878656
 2017-02-06 16:30:02.755261+01 | 1486395002.75526 | pgbench_branches |          1507328

 2017-02-06 16:30:03.827772+01 | 1486395003.82777 | pgbench_accounts |       1391173632
 2017-02-06 16:30:03.827772+01 | 1486395003.82777 | pgbench_tellers  |          3063808
 2017-02-06 16:30:03.827772+01 | 1486395003.82777 | pgbench_history  |         40607744
 2017-02-06 16:30:03.827772+01 | 1486395003.82777 | pgbench_branches |          1507328

 2017-02-06 16:30:04.90716+01 | 1486395004.90716 | pgbench_accounts |       1391173632
 2017-02-06 16:30:04.90716+01 | 1486395004.90716 | pgbench_tellers  |          3063808
 2017-02-06 16:30:04.90716+01 | 1486395004.90716 | pgbench_history  |         41213952
 2017-02-06 16:30:04.90716+01 | 1486395004.90716 | pgbench_branches |          1507328

 2017-02-06 16:30:05.992407+01 | 1486395005.99241 | pgbench_accounts |       1391173632
 2017-02-06 16:30:05.992407+01 | 1486395005.99241 | pgbench_tellers  |          3063808
 2017-02-06 16:30:05.992407+01 | 1486395005.99241 | pgbench_history  |         41566208
 2017-02-06 16:30:05.992407+01 | 1486395005.99241 | pgbench_branches |          1507328

 2017-02-06 16:30:07.067118+01 | 1486395007.06712 | pgbench_accounts |       1391173632
 2017-02-06 16:30:07.067118+01 | 1486395007.06712 | pgbench_tellers  |          3063808
 2017-02-06 16:30:07.067118+01 | 1486395007.06712 | pgbench_history  |         42434560
 2017-02-06 16:30:07.067118+01 | 1486395007.06712 | pgbench_branches |          1507328

 2017-02-06 16:30:08.138827+01 | 1486395008.13883 | pgbench_accounts |       1391173632
 2017-02-06 16:30:08.138827+01 | 1486395008.13883 | pgbench_tellers  |          3063808
 2017-02-06 16:30:08.138827+01 | 1486395008.13883 | pgbench_history  |         42811392
 2017-02-06 16:30:08.138827+01 | 1486395008.13883 | pgbench_branches |          1507328

 2017-02-06 16:30:09.206506+01 | 1486395009.20651 | pgbench_accounts |       1391173632
 2017-02-06 16:30:09.206506+01 | 1486395009.20651 | pgbench_tellers  |          3063808
 2017-02-06 16:30:09.206506+01 | 1486395009.20651 | pgbench_history  |         43728896
 2017-02-06 16:30:09.206506+01 | 1486395009.20651 | pgbench_branches |          1507328

 2017-02-06 16:30:10.29155+01 | 1486395010.29155 | pgbench_accounts |       1391173632
 2017-02-06 16:30:10.29155+01 | 1486395010.29155 | pgbench_tellers  |          3063808
 2017-02-06 16:30:10.29155+01 | 1486395010.29155 | pgbench_history  |         44032000
 2017-02-06 16:30:10.29155+01 | 1486395010.29155 | pgbench_branches |          1507328

 2017-02-06 16:30:11.380771+01 | 1486395011.38077 | pgbench_accounts |       1391173632
 2017-02-06 16:30:11.380771+01 | 1486395011.38077 | pgbench_tellers  |          3063808
 2017-02-06 16:30:11.380771+01 | 1486395011.38077 | pgbench_history  |         44670976
 2017-02-06 16:30:11.380771+01 | 1486395011.38077 | pgbench_branches |          1507328

 2017-02-06 16:30:12.465188+01 | 1486395012.46519 | pgbench_accounts |       1391173632
 2017-02-06 16:30:12.465188+01 | 1486395012.46519 | pgbench_tellers  |          3063808
 2017-02-06 16:30:12.465188+01 | 1486395012.46519 | pgbench_history  |         45318144
 2017-02-06 16:30:12.465188+01 | 1486395012.46519 | pgbench_branches |          1507328

 2017-02-06 16:30:13.539783+01 | 1486395013.53978 | pgbench_accounts |       1391173632
 2017-02-06 16:30:13.539783+01 | 1486395013.53978 | pgbench_tellers  |          3063808
 2017-02-06 16:30:13.539783+01 | 1486395013.53978 | pgbench_history  |         45932544
 2017-02-06 16:30:13.539783+01 | 1486395013.53978 | pgbench_branches |          1507328

 2017-02-06 16:30:14.610367+01 | 1486395014.61037 | pgbench_accounts |       1391173632
 2017-02-06 16:30:14.610367+01 | 1486395014.61037 | pgbench_tellers  |          3063808
 2017-02-06 16:30:14.610367+01 | 1486395014.61037 | pgbench_history  |         46563328
 2017-02-06 16:30:14.610367+01 | 1486395014.61037 | pgbench_branches |          1507328

 2017-02-06 16:30:15.68502+01 | 1486395015.68502 | pgbench_accounts |       1391173632
 2017-02-06 16:30:15.68502+01 | 1486395015.68502 | pgbench_tellers  |          3063808
 2017-02-06 16:30:15.68502+01 | 1486395015.68502 | pgbench_history  |         47161344
 2017-02-06 16:30:15.68502+01 | 1486395015.68502 | pgbench_branches |          1507328

 2017-02-06 16:30:16.772678+01 | 1486395016.77268 | pgbench_accounts |       1391173632
 2017-02-06 16:30:16.772678+01 | 1486395016.77268 | pgbench_tellers  |          3063808
 2017-02-06 16:30:16.772678+01 | 1486395016.77268 | pgbench_history  |         47759360
 2017-02-06 16:30:16.772678+01 | 1486395016.77268 | pgbench_branches |          1507328

 2017-02-06 16:30:17.857115+01 | 1486395017.85712 | pgbench_accounts |       1391173632
 2017-02-06 16:30:17.857115+01 | 1486395017.85712 | pgbench_tellers  |          3063808
 2017-02-06 16:30:17.857115+01 | 1486395017.85712 | pgbench_history  |         48365568
 2017-02-06 16:30:17.857115+01 | 1486395017.85712 | pgbench_branches |          1507328

 2017-02-06 16:30:18.931159+01 | 1486395018.93116 | pgbench_accounts |       1391173632
 2017-02-06 16:30:18.931159+01 | 1486395018.93116 | pgbench_tellers  |          3063808
 2017-02-06 16:30:18.931159+01 | 1486395018.93116 | pgbench_history  |         49029120
 2017-02-06 16:30:18.931159+01 | 1486395018.93116 | pgbench_branches |          1507328

 2017-02-06 16:30:20.015948+01 | 1486395020.01595 | pgbench_accounts |       1391173632
 2017-02-06 16:30:20.015948+01 | 1486395020.01595 | pgbench_tellers  |          3063808
 2017-02-06 16:30:20.015948+01 | 1486395020.01595 | pgbench_history  |         49602560
 2017-02-06 16:30:20.015948+01 | 1486395020.01595 | pgbench_branches |          1507328

 2017-02-06 16:30:21.101225+01 | 1486395021.10122 | pgbench_accounts |       1391173632
 2017-02-06 16:30:21.101225+01 | 1486395021.10122 | pgbench_tellers  |          3063808
 2017-02-06 16:30:21.101225+01 | 1486395021.10122 | pgbench_history  |         50192384
 2017-02-06 16:30:21.101225+01 | 1486395021.10122 | pgbench_branches |          1507328

 2017-02-06 16:30:22.185514+01 | 1486395022.18551 | pgbench_accounts |       1391173632
 2017-02-06 16:30:22.185514+01 | 1486395022.18551 | pgbench_tellers  |          3063808
 2017-02-06 16:30:22.185514+01 | 1486395022.18551 | pgbench_history  |         50937856
 2017-02-06 16:30:22.185514+01 | 1486395022.18551 | pgbench_branches |          1507328

 2017-02-06 16:30:23.269321+01 | 1486395023.26932 | pgbench_accounts |       1391173632
 2017-02-06 16:30:23.269321+01 | 1486395023.26932 | pgbench_tellers  |          3063808
 2017-02-06 16:30:23.269321+01 | 1486395023.26932 | pgbench_history  |         51453952
 2017-02-06 16:30:23.269321+01 | 1486395023.26932 | pgbench_branches |          1507328

 2017-02-06 16:30:24.35092+01 | 1486395024.35092 | pgbench_accounts |       1391173632
 2017-02-06 16:30:24.35092+01 | 1486395024.35092 | pgbench_tellers  |          3063808
 2017-02-06 16:30:24.35092+01 | 1486395024.35092 | pgbench_history  |         52068352
 2017-02-06 16:30:24.35092+01 | 1486395024.35092 | pgbench_branches |          1507328

 2017-02-06 16:30:25.427967+01 | 1486395025.42797 | pgbench_accounts |       1391173632
 2017-02-06 16:30:25.427967+01 | 1486395025.42797 | pgbench_tellers  |          3063808
 2017-02-06 16:30:25.427967+01 | 1486395025.42797 | pgbench_history  |         52666368
 2017-02-06 16:30:25.427967+01 | 1486395025.42797 | pgbench_branches |          1507328

 2017-02-06 16:30:26.493761+01 | 1486395026.49376 | pgbench_accounts |       1391173632
 2017-02-06 16:30:26.493761+01 | 1486395026.49376 | pgbench_tellers  |          3063808
 2017-02-06 16:30:26.493761+01 | 1486395026.49376 | pgbench_history  |         53256192
 2017-02-06 16:30:26.493761+01 | 1486395026.49376 | pgbench_branches |          1507328

 2017-02-06 16:30:27.569261+01 | 1486395027.56926 | pgbench_accounts |       1391173632
 2017-02-06 16:30:27.569261+01 | 1486395027.56926 | pgbench_tellers  |          3063808
 2017-02-06 16:30:27.569261+01 | 1486395027.56926 | pgbench_history  |         53854208
 2017-02-06 16:30:27.569261+01 | 1486395027.56926 | pgbench_branches |          1507328

 2017-02-06 16:30:28.648242+01 | 1486395028.64824 | pgbench_accounts |       1391173632
 2017-02-06 16:30:28.648242+01 | 1486395028.64824 | pgbench_tellers  |          3063808
 2017-02-06 16:30:28.648242+01 | 1486395028.64824 | pgbench_history  |         54460416
 2017-02-06 16:30:28.648242+01 | 1486395028.64824 | pgbench_branches |          1507328

 2017-02-06 16:30:29.727179+01 | 1486395029.72718 | pgbench_accounts |       1391173632
 2017-02-06 16:30:29.727179+01 | 1486395029.72718 | pgbench_tellers  |          3063808
 2017-02-06 16:30:29.727179+01 | 1486395029.72718 | pgbench_history  |         55074816
 2017-02-06 16:30:29.727179+01 | 1486395029.72718 | pgbench_branches |          1507328

 2017-02-06 16:30:30.81621+01 | 1486395030.81621 | pgbench_accounts |       1391173632
 2017-02-06 16:30:30.81621+01 | 1486395030.81621 | pgbench_tellers  |          3063808
 2017-02-06 16:30:30.81621+01 | 1486395030.81621 | pgbench_history  |         55664640
 2017-02-06 16:30:30.81621+01 | 1486395030.81621 | pgbench_branches |          1507328

 2017-02-06 16:30:31.899684+01 | 1486395031.89968 | pgbench_accounts |       1391173632
 2017-02-06 16:30:31.899684+01 | 1486395031.89968 | pgbench_tellers  |          3063808
 2017-02-06 16:30:31.899684+01 | 1486395031.89968 | pgbench_history  |         56254464
 2017-02-06 16:30:31.899684+01 | 1486395031.89968 | pgbench_branches |          1507328

 2017-02-06 16:30:32.975642+01 | 1486395032.97564 | pgbench_accounts |       1391173632
 2017-02-06 16:30:32.975642+01 | 1486395032.97564 | pgbench_tellers  |          3063808
 2017-02-06 16:30:32.975642+01 | 1486395032.97564 | pgbench_history  |         56844288
 2017-02-06 16:30:32.975642+01 | 1486395032.97564 | pgbench_branches |          1507328

 2017-02-06 16:30:34.055455+01 | 1486395034.05545 | pgbench_accounts |       1391173632
 2017-02-06 16:30:34.055455+01 | 1486395034.05545 | pgbench_tellers  |          3063808
 2017-02-06 16:30:34.055455+01 | 1486395034.05545 | pgbench_history  |         57466880
 2017-02-06 16:30:34.055455+01 | 1486395034.05545 | pgbench_branches |          1507328

 2017-02-06 16:30:35.13849+01 | 1486395035.13849 | pgbench_accounts |       1391173632
 2017-02-06 16:30:35.13849+01 | 1486395035.13849 | pgbench_tellers  |          3063808
 2017-02-06 16:30:35.13849+01 | 1486395035.13849 | pgbench_history  |         58097664
 2017-02-06 16:30:35.13849+01 | 1486395035.13849 | pgbench_branches |          1507328

 2017-02-06 16:30:36.219642+01 | 1486395036.21964 | pgbench_accounts |       1391173632
 2017-02-06 16:30:36.219642+01 | 1486395036.21964 | pgbench_tellers  |          3063808
 2017-02-06 16:30:36.219642+01 | 1486395036.21964 | pgbench_history  |         58712064
 2017-02-06 16:30:36.219642+01 | 1486395036.21964 | pgbench_branches |          1507328

 2017-02-06 16:30:37.29085+01 | 1486395037.29085 | pgbench_accounts |       1391173632
 2017-02-06 16:30:37.29085+01 | 1486395037.29085 | pgbench_tellers  |          3063808
 2017-02-06 16:30:37.29085+01 | 1486395037.29085 | pgbench_history  |         59318272
 2017-02-06 16:30:37.29085+01 | 1486395037.29085 | pgbench_branches |          1507328

 2017-02-06 16:30:38.360539+01 | 1486395038.36054 | pgbench_accounts |       1391173632
 2017-02-06 16:30:38.360539+01 | 1486395038.36054 | pgbench_tellers  |          3063808
 2017-02-06 16:30:38.360539+01 | 1486395038.36054 | pgbench_history  |         60137472
 2017-02-06 16:30:38.360539+01 | 1486395038.36054 | pgbench_branches |          1507328

 2017-02-06 16:30:39.445525+01 | 1486395039.44552 | pgbench_accounts |       1391173632
 2017-02-06 16:30:39.445525+01 | 1486395039.44552 | pgbench_tellers  |          3063808
 2017-02-06 16:30:39.445525+01 | 1486395039.44552 | pgbench_history  |         60596224
 2017-02-06 16:30:39.445525+01 | 1486395039.44552 | pgbench_branches |          1507328

 2017-02-06 16:30:40.535515+01 | 1486395040.53552 | pgbench_accounts |       1391173632
 2017-02-06 16:30:40.535515+01 | 1486395040.53552 | pgbench_tellers  |          3063808
 2017-02-06 16:30:40.535515+01 | 1486395040.53552 | pgbench_history  |         61186048
 2017-02-06 16:30:40.535515+01 | 1486395040.53552 | pgbench_branches |          1507328

 2017-02-06 16:30:41.617957+01 | 1486395041.61796 | pgbench_accounts |       1391173632
 2017-02-06 16:30:41.617957+01 | 1486395041.61796 | pgbench_tellers  |          3063808
 2017-02-06 16:30:41.617957+01 | 1486395041.61796 | pgbench_history  |         61808640
 2017-02-06 16:30:41.617957+01 | 1486395041.61796 | pgbench_branches |          1507328

 2017-02-06 16:30:42.706091+01 | 1486395042.70609 | pgbench_accounts |       1391173632
 2017-02-06 16:30:42.706091+01 | 1486395042.70609 | pgbench_tellers  |          3063808
 2017-02-06 16:30:42.706091+01 | 1486395042.70609 | pgbench_history  |         62423040
 2017-02-06 16:30:42.706091+01 | 1486395042.70609 | pgbench_branches |          1507328

 2017-02-06 16:30:43.788286+01 | 1486395043.78829 | pgbench_accounts |       1391173632
 2017-02-06 16:30:43.788286+01 | 1486395043.78829 | pgbench_tellers  |          3063808
 2017-02-06 16:30:43.788286+01 | 1486395043.78829 | pgbench_history  |         63029248
 2017-02-06 16:30:43.788286+01 | 1486395043.78829 | pgbench_branches |          1507328

 2017-02-06 16:30:44.875834+01 | 1486395044.87583 | pgbench_accounts |       1391173632
 2017-02-06 16:30:44.875834+01 | 1486395044.87583 | pgbench_tellers  |          3063808
 2017-02-06 16:30:44.875834+01 | 1486395044.87583 | pgbench_history  |         63627264
 2017-02-06 16:30:44.875834+01 | 1486395044.87583 | pgbench_branches |          1507328

 2017-02-06 16:30:45.964993+01 | 1486395045.96499 | pgbench_accounts |       1391173632
 2017-02-06 16:30:45.964993+01 | 1486395045.96499 | pgbench_tellers  |          3063808
 2017-02-06 16:30:45.964993+01 | 1486395045.96499 | pgbench_history  |         64233472
 2017-02-06 16:30:45.964993+01 | 1486395045.96499 | pgbench_branches |          1507328

 2017-02-06 16:30:47.055451+01 | 1486395047.05545 | pgbench_accounts |       1391173632
 2017-02-06 16:30:47.055451+01 | 1486395047.05545 | pgbench_tellers  |          3063808
 2017-02-06 16:30:47.055451+01 | 1486395047.05545 | pgbench_history  |         64815104
 2017-02-06 16:30:47.055451+01 | 1486395047.05545 | pgbench_branches |          1507328

 2017-02-06 16:30:48.14436+01 | 1486395048.14436 | pgbench_accounts |       1391173632
 2017-02-06 16:30:48.14436+01 | 1486395048.14436 | pgbench_tellers  |          3063808
 2017-02-06 16:30:48.14436+01 | 1486395048.14436 | pgbench_history  |         65486848
 2017-02-06 16:30:48.14436+01 | 1486395048.14436 | pgbench_branches |          1507328

 2017-02-06 16:30:49.223156+01 | 1486395049.22316 | pgbench_accounts |       1391173632
 2017-02-06 16:30:49.223156+01 | 1486395049.22316 | pgbench_tellers  |          3063808
 2017-02-06 16:30:49.223156+01 | 1486395049.22316 | pgbench_history  |         66043904
 2017-02-06 16:30:49.223156+01 | 1486395049.22316 | pgbench_branches |          1507328

 2017-02-06 16:30:50.294489+01 | 1486395050.29449 | pgbench_accounts |       1391173632
 2017-02-06 16:30:50.294489+01 | 1486395050.29449 | pgbench_tellers  |          3063808
 2017-02-06 16:30:50.294489+01 | 1486395050.29449 | pgbench_history  |         66625536
 2017-02-06 16:30:50.294489+01 | 1486395050.29449 | pgbench_branches |          1507328

 2017-02-06 16:30:51.37681+01 | 1486395051.37681 | pgbench_accounts |       1391173632
 2017-02-06 16:30:51.37681+01 | 1486395051.37681 | pgbench_tellers  |          3063808
 2017-02-06 16:30:51.37681+01 | 1486395051.37681 | pgbench_history  |         67420160
 2017-02-06 16:30:51.37681+01 | 1486395051.37681 | pgbench_branches |          1507328

 2017-02-06 16:30:52.470402+01 | 1486395052.4704 | pgbench_accounts |       1391173632
 2017-02-06 16:30:52.470402+01 | 1486395052.4704 | pgbench_tellers  |          3063808
 2017-02-06 16:30:52.470402+01 | 1486395052.4704 | pgbench_history  |         68001792
 2017-02-06 16:30:52.470402+01 | 1486395052.4704 | pgbench_branches |          1507328

 2017-02-06 16:30:53.546676+01 | 1486395053.54668 | pgbench_accounts |       1391173632
 2017-02-06 16:30:53.546676+01 | 1486395053.54668 | pgbench_tellers  |          3063808
 2017-02-06 16:30:53.546676+01 | 1486395053.54668 | pgbench_history  |         68550656
 2017-02-06 16:30:53.546676+01 | 1486395053.54668 | pgbench_branches |          1507328

 2017-02-06 16:30:54.630732+01 | 1486395054.63073 | pgbench_accounts |       1391173632
 2017-02-06 16:30:54.630732+01 | 1486395054.63073 | pgbench_tellers  |          3063808
 2017-02-06 16:30:54.630732+01 | 1486395054.63073 | pgbench_history  |         69107712
 2017-02-06 16:30:54.630732+01 | 1486395054.63073 | pgbench_branches |          1507328

 2017-02-06 16:30:55.713033+01 | 1486395055.71303 | pgbench_accounts |       1391173632
 2017-02-06 16:30:55.713033+01 | 1486395055.71303 | pgbench_tellers  |          3063808
 2017-02-06 16:30:55.713033+01 | 1486395055.71303 | pgbench_history  |         69869568
 2017-02-06 16:30:55.713033+01 | 1486395055.71303 | pgbench_branches |          1507328

 2017-02-06 16:30:56.784072+01 | 1486395056.78407 | pgbench_accounts |       1391173632
 2017-02-06 16:30:56.784072+01 | 1486395056.78407 | pgbench_tellers  |          3063808
 2017-02-06 16:30:56.784072+01 | 1486395056.78407 | pgbench_history  |         70287360
 2017-02-06 16:30:56.784072+01 | 1486395056.78407 | pgbench_branches |          1507328

 2017-02-06 16:30:57.856244+01 | 1486395057.85624 | pgbench_accounts |       1391173632
 2017-02-06 16:30:57.856244+01 | 1486395057.85624 | pgbench_tellers  |          3063808
 2017-02-06 16:30:57.856244+01 | 1486395057.85624 | pgbench_history  |         71032832
 2017-02-06 16:30:57.856244+01 | 1486395057.85624 | pgbench_branches |          1507328

 2017-02-06 16:30:58.942306+01 | 1486395058.94231 | pgbench_accounts |       1391173632
 2017-02-06 16:30:58.942306+01 | 1486395058.94231 | pgbench_tellers  |          3063808
 2017-02-06 16:30:58.942306+01 | 1486395058.94231 | pgbench_history  |         71630848
 2017-02-06 16:30:58.942306+01 | 1486395058.94231 | pgbench_branches |          1507328

 2017-02-06 16:31:00.030708+01 | 1486395060.03071 | pgbench_accounts |       1391173632
 2017-02-06 16:31:00.030708+01 | 1486395060.03071 | pgbench_tellers  |          3063808
 2017-02-06 16:31:00.030708+01 | 1486395060.03071 | pgbench_history  |         72212480
 2017-02-06 16:31:00.030708+01 | 1486395060.03071 | pgbench_branches |          1507328

 2017-02-06 16:31:01.116733+01 | 1486395061.11673 | pgbench_accounts |       1391173632
 2017-02-06 16:31:01.116733+01 | 1486395061.11673 | pgbench_tellers  |          3063808
 2017-02-06 16:31:01.116733+01 | 1486395061.11673 | pgbench_history  |         72785920
 2017-02-06 16:31:01.116733+01 | 1486395061.11673 | pgbench_branches |          1507328

 2017-02-06 16:31:02.210777+01 | 1486395062.21078 | pgbench_accounts |       1391173632
 2017-02-06 16:31:02.210777+01 | 1486395062.21078 | pgbench_tellers  |          3063808
 2017-02-06 16:31:02.210777+01 | 1486395062.21078 | pgbench_history  |         73400320
 2017-02-06 16:31:02.210777+01 | 1486395062.21078 | pgbench_branches |          1507328

 2017-02-06 16:31:03.305669+01 | 1486395063.30567 | pgbench_accounts |       1391173632
 2017-02-06 16:31:03.305669+01 | 1486395063.30567 | pgbench_tellers  |          3063808
 2017-02-06 16:31:03.305669+01 | 1486395063.30567 | pgbench_history  |         73990144
 2017-02-06 16:31:03.305669+01 | 1486395063.30567 | pgbench_branches |          1507328

 2017-02-06 16:31:04.388141+01 | 1486395064.38814 | pgbench_accounts |       1391173632
 2017-02-06 16:31:04.388141+01 | 1486395064.38814 | pgbench_tellers  |          3063808
 2017-02-06 16:31:04.388141+01 | 1486395064.38814 | pgbench_history  |         74563584
 2017-02-06 16:31:04.388141+01 | 1486395064.38814 | pgbench_branches |          1507328

 2017-02-06 16:31:05.475653+01 | 1486395065.47565 | pgbench_accounts |       1391173632
 2017-02-06 16:31:05.475653+01 | 1486395065.47565 | pgbench_tellers  |          3063808
 2017-02-06 16:31:05.475653+01 | 1486395065.47565 | pgbench_history  |         75300864
 2017-02-06 16:31:05.475653+01 | 1486395065.47565 | pgbench_branches |          1507328

 2017-02-06 16:31:06.554862+01 | 1486395066.55486 | pgbench_accounts |       1391173632
 2017-02-06 16:31:06.554862+01 | 1486395066.55486 | pgbench_tellers  |          3063808
 2017-02-06 16:31:06.554862+01 | 1486395066.55486 | pgbench_history  |         75890688
 2017-02-06 16:31:06.554862+01 | 1486395066.55486 | pgbench_branches |          1507328

 2017-02-06 16:31:07.631481+01 | 1486395067.63148 | pgbench_accounts |       1391173632
 2017-02-06 16:31:07.631481+01 | 1486395067.63148 | pgbench_tellers  |          3063808
 2017-02-06 16:31:07.631481+01 | 1486395067.63148 | pgbench_history  |         76464128
 2017-02-06 16:31:07.631481+01 | 1486395067.63148 | pgbench_branches |          1507328

 2017-02-06 16:31:08.717287+01 | 1486395068.71729 | pgbench_accounts |       1391173632
 2017-02-06 16:31:08.717287+01 | 1486395068.71729 | pgbench_tellers  |          3063808
 2017-02-06 16:31:08.717287+01 | 1486395068.71729 | pgbench_history  |         77037568
 2017-02-06 16:31:08.717287+01 | 1486395068.71729 | pgbench_branches |          1507328

 2017-02-06 16:31:09.806025+01 | 1486395069.80603 | pgbench_accounts |       1391173632
 2017-02-06 16:31:09.806025+01 | 1486395069.80603 | pgbench_tellers  |          3063808
 2017-02-06 16:31:09.806025+01 | 1486395069.80603 | pgbench_history  |         77832192
 2017-02-06 16:31:09.806025+01 | 1486395069.80603 | pgbench_branches |          1507328

 2017-02-06 16:31:10.894552+01 | 1486395070.89455 | pgbench_accounts |       1391173632
 2017-02-06 16:31:10.894552+01 | 1486395070.89455 | pgbench_tellers  |          3063808
 2017-02-06 16:31:10.894552+01 | 1486395070.89455 | pgbench_history  |         78200832
 2017-02-06 16:31:10.894552+01 | 1486395070.89455 | pgbench_branches |          1507328

 2017-02-06 16:31:11.982243+01 | 1486395071.98224 | pgbench_accounts |       1391173632
 2017-02-06 16:31:11.982243+01 | 1486395071.98224 | pgbench_tellers  |          3063808
 2017-02-06 16:31:11.982243+01 | 1486395071.98224 | pgbench_history  |         78815232
 2017-02-06 16:31:11.982243+01 | 1486395071.98224 | pgbench_branches |          1507328

 2017-02-06 16:31:13.073716+01 | 1486395073.07372 | pgbench_accounts |       1391173632
 2017-02-06 16:31:13.073716+01 | 1486395073.07372 | pgbench_tellers  |          3063808
 2017-02-06 16:31:13.073716+01 | 1486395073.07372 | pgbench_history  |         79429632
 2017-02-06 16:31:13.073716+01 | 1486395073.07372 | pgbench_branches |          1507328

 2017-02-06 16:31:14.146284+01 | 1486395074.14628 | pgbench_accounts |       1391173632
 2017-02-06 16:31:14.146284+01 | 1486395074.14628 | pgbench_tellers  |          3063808
 2017-02-06 16:31:14.146284+01 | 1486395074.14628 | pgbench_history  |         80068608
 2017-02-06 16:31:14.146284+01 | 1486395074.14628 | pgbench_branches |          1507328

 2017-02-06 16:31:15.214089+01 | 1486395075.21409 | pgbench_accounts |       1391173632
 2017-02-06 16:31:15.214089+01 | 1486395075.21409 | pgbench_tellers  |          3063808
 2017-02-06 16:31:15.214089+01 | 1486395075.21409 | pgbench_history  |         80650240
 2017-02-06 16:31:15.214089+01 | 1486395075.21409 | pgbench_branches |          1507328

 2017-02-06 16:31:16.287228+01 | 1486395076.28723 | pgbench_accounts |       1391173632
 2017-02-06 16:31:16.287228+01 | 1486395076.28723 | pgbench_tellers  |          3063808
 2017-02-06 16:31:16.287228+01 | 1486395076.28723 | pgbench_history  |         81215488
 2017-02-06 16:31:16.287228+01 | 1486395076.28723 | pgbench_branches |          1507328

 2017-02-06 16:31:17.377278+01 | 1486395077.37728 | pgbench_accounts |       1391173632
 2017-02-06 16:31:17.377278+01 | 1486395077.37728 | pgbench_tellers  |          3063808
 2017-02-06 16:31:17.377278+01 | 1486395077.37728 | pgbench_history  |         81854464
 2017-02-06 16:31:17.377278+01 | 1486395077.37728 | pgbench_branches |          1507328

 2017-02-06 16:31:18.448371+01 | 1486395078.44837 | pgbench_accounts |       1391173632
 2017-02-06 16:31:18.448371+01 | 1486395078.44837 | pgbench_tellers  |          3063808
 2017-02-06 16:31:18.448371+01 | 1486395078.44837 | pgbench_history  |         82616320
 2017-02-06 16:31:18.448371+01 | 1486395078.44837 | pgbench_branches |          1507328

 2017-02-06 16:31:19.516826+01 | 1486395079.51683 | pgbench_accounts |       1391173632
 2017-02-06 16:31:19.516826+01 | 1486395079.51683 | pgbench_tellers  |          3063808
 2017-02-06 16:31:19.516826+01 | 1486395079.51683 | pgbench_history  |         83034112
 2017-02-06 16:31:19.516826+01 | 1486395079.51683 | pgbench_branches |          1507328

 2017-02-06 16:31:20.598433+01 | 1486395080.59843 | pgbench_accounts |       1391173632
 2017-02-06 16:31:20.598433+01 | 1486395080.59843 | pgbench_tellers  |          3063808
 2017-02-06 16:31:20.598433+01 | 1486395080.59843 | pgbench_history  |         83787776
 2017-02-06 16:31:20.598433+01 | 1486395080.59843 | pgbench_branches |          1507328

 2017-02-06 16:31:21.682364+01 | 1486395081.68236 | pgbench_accounts |       1391173632
 2017-02-06 16:31:21.682364+01 | 1486395081.68236 | pgbench_tellers  |          3063808
 2017-02-06 16:31:21.682364+01 | 1486395081.68236 | pgbench_history  |         84271104
 2017-02-06 16:31:21.682364+01 | 1486395081.68236 | pgbench_branches |          1507328

 2017-02-06 16:31:22.749962+01 | 1486395082.74996 | pgbench_accounts |       1391173632
 2017-02-06 16:31:22.749962+01 | 1486395082.74996 | pgbench_tellers  |          3063808
 2017-02-06 16:31:22.749962+01 | 1486395082.74996 | pgbench_history  |         84860928
 2017-02-06 16:31:22.749962+01 | 1486395082.74996 | pgbench_branches |          1507328

 2017-02-06 16:31:23.813062+01 | 1486395083.81306 | pgbench_accounts |       1391173632
 2017-02-06 16:31:23.813062+01 | 1486395083.81306 | pgbench_tellers  |          3063808
 2017-02-06 16:31:23.813062+01 | 1486395083.81306 | pgbench_history  |         85516288
 2017-02-06 16:31:23.813062+01 | 1486395083.81306 | pgbench_branches |          1507328

 2017-02-06 16:31:24.885245+01 | 1486395084.88525 | pgbench_accounts |       1391173632
 2017-02-06 16:31:24.885245+01 | 1486395084.88525 | pgbench_tellers  |          3063808
 2017-02-06 16:31:24.885245+01 | 1486395084.88525 | pgbench_history  |         86097920
 2017-02-06 16:31:24.885245+01 | 1486395084.88525 | pgbench_branches |          1507328

 2017-02-06 16:31:25.948196+01 | 1486395085.9482 | pgbench_accounts |       1391173632
 2017-02-06 16:31:25.948196+01 | 1486395085.9482 | pgbench_tellers  |          3063808
 2017-02-06 16:31:25.948196+01 | 1486395085.9482 | pgbench_history  |         86654976
 2017-02-06 16:31:25.948196+01 | 1486395085.9482 | pgbench_branches |          1507328

 2017-02-06 16:31:27.032095+01 | 1486395087.03209 | pgbench_accounts |       1391173632
 2017-02-06 16:31:27.032095+01 | 1486395087.03209 | pgbench_tellers  |          3063808
 2017-02-06 16:31:27.032095+01 | 1486395087.03209 | pgbench_history  |         87293952
 2017-02-06 16:31:27.032095+01 | 1486395087.03209 | pgbench_branches |          1507328

 2017-02-06 16:31:28.117113+01 | 1486395088.11711 | pgbench_accounts |       1391173632
 2017-02-06 16:31:28.117113+01 | 1486395088.11711 | pgbench_tellers  |          3063808
 2017-02-06 16:31:28.117113+01 | 1486395088.11711 | pgbench_history  |         87859200
 2017-02-06 16:31:28.117113+01 | 1486395088.11711 | pgbench_branches |          1507328

 2017-02-06 16:31:29.213687+01 | 1486395089.21369 | pgbench_accounts |       1391173632
 2017-02-06 16:31:29.213687+01 | 1486395089.21369 | pgbench_tellers  |          3063808
 2017-02-06 16:31:29.213687+01 | 1486395089.21369 | pgbench_history  |         88416256
 2017-02-06 16:31:29.213687+01 | 1486395089.21369 | pgbench_branches |          1507328

 2017-02-06 16:31:30.288649+01 | 1486395090.28865 | pgbench_accounts |       1391173632
 2017-02-06 16:31:30.288649+01 | 1486395090.28865 | pgbench_tellers  |          3063808
 2017-02-06 16:31:30.288649+01 | 1486395090.28865 | pgbench_history  |         88981504
 2017-02-06 16:31:30.288649+01 | 1486395090.28865 | pgbench_branches |          1507328

 2017-02-06 16:31:31.367729+01 | 1486395091.36773 | pgbench_accounts |       1391173632
 2017-02-06 16:31:31.367729+01 | 1486395091.36773 | pgbench_tellers  |          3063808
 2017-02-06 16:31:31.367729+01 | 1486395091.36773 | pgbench_history  |         89530368
 2017-02-06 16:31:31.367729+01 | 1486395091.36773 | pgbench_branches |          1507328

 2017-02-06 16:31:32.443667+01 | 1486395092.44367 | pgbench_accounts |       1391173632
 2017-02-06 16:31:32.443667+01 | 1486395092.44367 | pgbench_tellers  |          3063808
 2017-02-06 16:31:32.443667+01 | 1486395092.44367 | pgbench_history  |         90300416
 2017-02-06 16:31:32.443667+01 | 1486395092.44367 | pgbench_branches |          1507328

 2017-02-06 16:31:33.538437+01 | 1486395093.53844 | pgbench_accounts |       1391173632
 2017-02-06 16:31:33.538437+01 | 1486395093.53844 | pgbench_tellers  |          3063808
 2017-02-06 16:31:33.538437+01 | 1486395093.53844 | pgbench_history  |         90890240
 2017-02-06 16:31:33.538437+01 | 1486395093.53844 | pgbench_branches |          1507328

 2017-02-06 16:31:34.62087+01 | 1486395094.62087 | pgbench_accounts |       1391173632
 2017-02-06 16:31:34.62087+01 | 1486395094.62087 | pgbench_tellers  |          3063808
 2017-02-06 16:31:34.62087+01 | 1486395094.62087 | pgbench_history  |         91299840
 2017-02-06 16:31:34.62087+01 | 1486395094.62087 | pgbench_branches |          1507328

 2017-02-06 16:31:35.705543+01 | 1486395095.70554 | pgbench_accounts |       1391173632
 2017-02-06 16:31:35.705543+01 | 1486395095.70554 | pgbench_tellers  |          3063808
 2017-02-06 16:31:35.705543+01 | 1486395095.70554 | pgbench_history  |         92069888
 2017-02-06 16:31:35.705543+01 | 1486395095.70554 | pgbench_branches |          1507328

 2017-02-06 16:31:36.779687+01 | 1486395096.77969 | pgbench_accounts |       1391173632
 2017-02-06 16:31:36.779687+01 | 1486395096.77969 | pgbench_tellers  |          3063808
 2017-02-06 16:31:36.779687+01 | 1486395096.77969 | pgbench_history  |         92495872
 2017-02-06 16:31:36.779687+01 | 1486395096.77969 | pgbench_branches |          1507328

 2017-02-06 16:31:37.860808+01 | 1486395097.86081 | pgbench_accounts |       1391173632
 2017-02-06 16:31:37.860808+01 | 1486395097.86081 | pgbench_tellers  |          3063808
 2017-02-06 16:31:37.860808+01 | 1486395097.86081 | pgbench_history  |         93560832
 2017-02-06 16:31:37.860808+01 | 1486395097.86081 | pgbench_branches |          1507328

 2017-02-06 16:31:38.948257+01 | 1486395098.94826 | pgbench_accounts |       1391173632
 2017-02-06 16:31:38.948257+01 | 1486395098.94826 | pgbench_tellers  |          3063808
 2017-02-06 16:31:38.948257+01 | 1486395098.94826 | pgbench_history  |         93749248
 2017-02-06 16:31:38.948257+01 | 1486395098.94826 | pgbench_branches |          1507328

 2017-02-06 16:31:40.019224+01 | 1486395100.01922 | pgbench_accounts |       1391173632
 2017-02-06 16:31:40.019224+01 | 1486395100.01922 | pgbench_tellers  |          3063808
 2017-02-06 16:31:40.019224+01 | 1486395100.01922 | pgbench_history  |         94289920
 2017-02-06 16:31:40.019224+01 | 1486395100.01922 | pgbench_branches |          1507328

 2017-02-06 16:31:41.103777+01 | 1486395101.10378 | pgbench_accounts |       1391173632
 2017-02-06 16:31:41.103777+01 | 1486395101.10378 | pgbench_tellers  |          3063808
 2017-02-06 16:31:41.103777+01 | 1486395101.10378 | pgbench_history  |         94846976
 2017-02-06 16:31:41.103777+01 | 1486395101.10378 | pgbench_branches |          1507328

 2017-02-06 16:31:42.188478+01 | 1486395102.18848 | pgbench_accounts |       1391173632
 2017-02-06 16:31:42.188478+01 | 1486395102.18848 | pgbench_tellers  |          3063808
 2017-02-06 16:31:42.188478+01 | 1486395102.18848 | pgbench_history  |         95485952
 2017-02-06 16:31:42.188478+01 | 1486395102.18848 | pgbench_branches |          1507328

 2017-02-06 16:31:43.262987+01 | 1486395103.26299 | pgbench_accounts |       1391173632
 2017-02-06 16:31:43.262987+01 | 1486395103.26299 | pgbench_tellers  |          3063808
 2017-02-06 16:31:43.262987+01 | 1486395103.26299 | pgbench_history  |         96059392
 2017-02-06 16:31:43.262987+01 | 1486395103.26299 | pgbench_branches |          1507328

 2017-02-06 16:31:44.352414+01 | 1486395104.35241 | pgbench_accounts |       1391173632
 2017-02-06 16:31:44.352414+01 | 1486395104.35241 | pgbench_tellers  |          3063808
 2017-02-06 16:31:44.352414+01 | 1486395104.35241 | pgbench_history  |         96673792
 2017-02-06 16:31:44.352414+01 | 1486395104.35241 | pgbench_branches |          1507328

 2017-02-06 16:31:45.442899+01 | 1486395105.4429 | pgbench_accounts |       1391173632
 2017-02-06 16:31:45.442899+01 | 1486395105.4429 | pgbench_tellers  |          3063808
 2017-02-06 16:31:45.442899+01 | 1486395105.4429 | pgbench_history  |         97091584
 2017-02-06 16:31:45.442899+01 | 1486395105.4429 | pgbench_branches |          1507328

 2017-02-06 16:31:46.529686+01 | 1486395106.52969 | pgbench_accounts |       1391173632
 2017-02-06 16:31:46.529686+01 | 1486395106.52969 | pgbench_tellers  |          3063808
 2017-02-06 16:31:46.529686+01 | 1486395106.52969 | pgbench_history  |         97820672
 2017-02-06 16:31:46.529686+01 | 1486395106.52969 | pgbench_branches |          1507328

 2017-02-06 16:31:47.61619+01 | 1486395107.61619 | pgbench_accounts |       1391173632
 2017-02-06 16:31:47.61619+01 | 1486395107.61619 | pgbench_tellers  |          3063808
 2017-02-06 16:31:47.61619+01 | 1486395107.61619 | pgbench_history  |         98443264
 2017-02-06 16:31:47.61619+01 | 1486395107.61619 | pgbench_branches |          1507328

 2017-02-06 16:31:48.690239+01 | 1486395108.69024 | pgbench_accounts |       1391173632
 2017-02-06 16:31:48.690239+01 | 1486395108.69024 | pgbench_tellers  |          3063808
 2017-02-06 16:31:48.690239+01 | 1486395108.69024 | pgbench_history  |         99033088
 2017-02-06 16:31:48.690239+01 | 1486395108.69024 | pgbench_branches |          1507328

 2017-02-06 16:31:49.765626+01 | 1486395109.76563 | pgbench_accounts |       1391173632
 2017-02-06 16:31:49.765626+01 | 1486395109.76563 | pgbench_tellers  |          3063808
 2017-02-06 16:31:49.765626+01 | 1486395109.76563 | pgbench_history  |         99770368
 2017-02-06 16:31:49.765626+01 | 1486395109.76563 | pgbench_branches |          1507328

 2017-02-06 16:31:50.852805+01 | 1486395110.8528 | pgbench_accounts |       1391173632
 2017-02-06 16:31:50.852805+01 | 1486395110.8528 | pgbench_tellers  |          3063808
 2017-02-06 16:31:50.852805+01 | 1486395110.8528 | pgbench_history  |        100360192
 2017-02-06 16:31:50.852805+01 | 1486395110.8528 | pgbench_branches |          1507328

 2017-02-06 16:31:51.929177+01 | 1486395111.92918 | pgbench_accounts |       1391173632
 2017-02-06 16:31:51.929177+01 | 1486395111.92918 | pgbench_tellers  |          3063808
 2017-02-06 16:31:51.929177+01 | 1486395111.92918 | pgbench_history  |        101105664
 2017-02-06 16:31:51.929177+01 | 1486395111.92918 | pgbench_branches |          1507328

 2017-02-06 16:31:53.01409+01 | 1486395113.01409 | pgbench_accounts |       1391173632
 2017-02-06 16:31:53.01409+01 | 1486395113.01409 | pgbench_tellers  |          3063808
 2017-02-06 16:31:53.01409+01 | 1486395113.01409 | pgbench_history  |        101367808
 2017-02-06 16:31:53.01409+01 | 1486395113.01409 | pgbench_branches |          1507328

 2017-02-06 16:31:54.100727+01 | 1486395114.10073 | pgbench_accounts |       1391173632
 2017-02-06 16:31:54.100727+01 | 1486395114.10073 | pgbench_tellers  |          3063808
 2017-02-06 16:31:54.100727+01 | 1486395114.10073 | pgbench_history  |        101949440
 2017-02-06 16:31:54.100727+01 | 1486395114.10073 | pgbench_branches |          1507328

 2017-02-06 16:31:55.193036+01 | 1486395115.19304 | pgbench_accounts |       1391173632
 2017-02-06 16:31:55.193036+01 | 1486395115.19304 | pgbench_tellers  |          3063808
 2017-02-06 16:31:55.193036+01 | 1486395115.19304 | pgbench_history  |        102563840
 2017-02-06 16:31:55.193036+01 | 1486395115.19304 | pgbench_branches |          1507328

 2017-02-06 16:31:56.284912+01 | 1486395116.28491 | pgbench_accounts |       1391173632
 2017-02-06 16:31:56.284912+01 | 1486395116.28491 | pgbench_tellers  |          3063808
 2017-02-06 16:31:56.284912+01 | 1486395116.28491 | pgbench_history  |        103284736
 2017-02-06 16:31:56.284912+01 | 1486395116.28491 | pgbench_branches |          1507328

 2017-02-06 16:31:57.354927+01 | 1486395117.35493 | pgbench_accounts |       1391173632
 2017-02-06 16:31:57.354927+01 | 1486395117.35493 | pgbench_tellers  |          3063808
 2017-02-06 16:31:57.354927+01 | 1486395117.35493 | pgbench_history  |        103866368
 2017-02-06 16:31:57.354927+01 | 1486395117.35493 | pgbench_branches |          1507328

 2017-02-06 16:31:58.433114+01 | 1486395118.43311 | pgbench_accounts |       1391173632
 2017-02-06 16:31:58.433114+01 | 1486395118.43311 | pgbench_tellers  |          3063808
 2017-02-06 16:31:58.433114+01 | 1486395118.43311 | pgbench_history  |        104529920
 2017-02-06 16:31:58.433114+01 | 1486395118.43311 | pgbench_branches |          1507328

 2017-02-06 16:31:59.501933+01 | 1486395119.50193 | pgbench_accounts |       1391173632
 2017-02-06 16:31:59.501933+01 | 1486395119.50193 | pgbench_tellers  |          3063808
 2017-02-06 16:31:59.501933+01 | 1486395119.50193 | pgbench_history  |        105250816
 2017-02-06 16:31:59.501933+01 | 1486395119.50193 | pgbench_branches |          1507328

 2017-02-06 16:32:00.574044+01 | 1486395120.57404 | pgbench_accounts |       1391173632
 2017-02-06 16:32:00.574044+01 | 1486395120.57404 | pgbench_tellers  |          3063808
 2017-02-06 16:32:00.574044+01 | 1486395120.57404 | pgbench_history  |        105668608
 2017-02-06 16:32:00.574044+01 | 1486395120.57404 | pgbench_branches |          1507328

 2017-02-06 16:32:01.648701+01 | 1486395121.6487 | pgbench_accounts |       1391173632
 2017-02-06 16:32:01.648701+01 | 1486395121.6487 | pgbench_tellers  |          3063808
 2017-02-06 16:32:01.648701+01 | 1486395121.6487 | pgbench_history  |        106266624
 2017-02-06 16:32:01.648701+01 | 1486395121.6487 | pgbench_branches |          1507328

 2017-02-06 16:32:02.728315+01 | 1486395122.72832 | pgbench_accounts |       1391173632
 2017-02-06 16:32:02.728315+01 | 1486395122.72832 | pgbench_tellers  |          3063808
 2017-02-06 16:32:02.728315+01 | 1486395122.72832 | pgbench_history  |        106872832
 2017-02-06 16:32:02.728315+01 | 1486395122.72832 | pgbench_branches |          1507328

 2017-02-06 16:32:03.806974+01 | 1486395123.80697 | pgbench_accounts |       1391173632
 2017-02-06 16:32:03.806974+01 | 1486395123.80697 | pgbench_tellers  |          3063808
 2017-02-06 16:32:03.806974+01 | 1486395123.80697 | pgbench_history  |        107503616
 2017-02-06 16:32:03.806974+01 | 1486395123.80697 | pgbench_branches |          1507328

 2017-02-06 16:32:04.887038+01 | 1486395124.88704 | pgbench_accounts |       1391173632
 2017-02-06 16:32:04.887038+01 | 1486395124.88704 | pgbench_tellers  |          3063808
 2017-02-06 16:32:04.887038+01 | 1486395124.88704 | pgbench_history  |        108126208
 2017-02-06 16:32:04.887038+01 | 1486395124.88704 | pgbench_branches |          1507328

 2017-02-06 16:32:05.974864+01 | 1486395125.97486 | pgbench_accounts |       1391173632
 2017-02-06 16:32:05.974864+01 | 1486395125.97486 | pgbench_tellers  |          3063808
 2017-02-06 16:32:05.974864+01 | 1486395125.97486 | pgbench_history  |        108765184
 2017-02-06 16:32:05.974864+01 | 1486395125.97486 | pgbench_branches |          1507328

 2017-02-06 16:32:07.04894+01 | 1486395127.04894 | pgbench_accounts |       1391173632
 2017-02-06 16:32:07.04894+01 | 1486395127.04894 | pgbench_tellers  |          3063808
 2017-02-06 16:32:07.04894+01 | 1486395127.04894 | pgbench_history  |        109355008
 2017-02-06 16:32:07.04894+01 | 1486395127.04894 | pgbench_branches |          1507328

 2017-02-06 16:32:08.122023+01 | 1486395128.12202 | pgbench_accounts |       1391173632
 2017-02-06 16:32:08.122023+01 | 1486395128.12202 | pgbench_tellers  |          3063808
 2017-02-06 16:32:08.122023+01 | 1486395128.12202 | pgbench_history  |        109993984
 2017-02-06 16:32:08.122023+01 | 1486395128.12202 | pgbench_branches |          1507328

 2017-02-06 16:32:09.207373+01 | 1486395129.20737 | pgbench_accounts |       1391173632
 2017-02-06 16:32:09.207373+01 | 1486395129.20737 | pgbench_tellers  |          3063808
 2017-02-06 16:32:09.207373+01 | 1486395129.20737 | pgbench_history  |        110624768
 2017-02-06 16:32:09.207373+01 | 1486395129.20737 | pgbench_branches |          1507328

 2017-02-06 16:32:10.29791+01 | 1486395130.29791 | pgbench_accounts |       1391173632
 2017-02-06 16:32:10.29791+01 | 1486395130.29791 | pgbench_tellers  |          3063808
 2017-02-06 16:32:10.29791+01 | 1486395130.29791 | pgbench_history  |        111353856
 2017-02-06 16:32:10.29791+01 | 1486395130.29791 | pgbench_branches |          1507328

 2017-02-06 16:32:11.381713+01 | 1486395131.38171 | pgbench_accounts |       1391173632
 2017-02-06 16:32:11.381713+01 | 1486395131.38171 | pgbench_tellers  |          3063808
 2017-02-06 16:32:11.381713+01 | 1486395131.38171 | pgbench_history  |        111910912
 2017-02-06 16:32:11.381713+01 | 1486395131.38171 | pgbench_branches |          1507328

 2017-02-06 16:32:12.458623+01 | 1486395132.45862 | pgbench_accounts |       1391173632
 2017-02-06 16:32:12.458623+01 | 1486395132.45862 | pgbench_tellers  |          3063808
 2017-02-06 16:32:12.458623+01 | 1486395132.45862 | pgbench_history  |        112500736
 2017-02-06 16:32:12.458623+01 | 1486395132.45862 | pgbench_branches |          1507328

 2017-02-06 16:32:13.532878+01 | 1486395133.53288 | pgbench_accounts |       1391173632
 2017-02-06 16:32:13.532878+01 | 1486395133.53288 | pgbench_tellers  |          3063808
 2017-02-06 16:32:13.532878+01 | 1486395133.53288 | pgbench_history  |        113016832
 2017-02-06 16:32:13.532878+01 | 1486395133.53288 | pgbench_branches |          1507328

 2017-02-06 16:32:14.60341+01 | 1486395134.60341 | pgbench_accounts |       1391173632
 2017-02-06 16:32:14.60341+01 | 1486395134.60341 | pgbench_tellers  |          3063808
 2017-02-06 16:32:14.60341+01 | 1486395134.60341 | pgbench_history  |        113598464
 2017-02-06 16:32:14.60341+01 | 1486395134.60341 | pgbench_branches |          1507328

 2017-02-06 16:32:15.6789+01 | 1486395135.6789 | pgbench_accounts |       1391173632
 2017-02-06 16:32:15.6789+01 | 1486395135.6789 | pgbench_tellers  |          3063808
 2017-02-06 16:32:15.6789+01 | 1486395135.6789 | pgbench_history  |        114343936
 2017-02-06 16:32:15.6789+01 | 1486395135.6789 | pgbench_branches |          1507328

 2017-02-06 16:32:16.76603+01 | 1486395136.76603 | pgbench_accounts |       1391173632
 2017-02-06 16:32:16.76603+01 | 1486395136.76603 | pgbench_tellers  |          3063808
 2017-02-06 16:32:16.76603+01 | 1486395136.76603 | pgbench_history  |        115286016
 2017-02-06 16:32:16.76603+01 | 1486395136.76603 | pgbench_branches |          1507328

 2017-02-06 16:32:17.840932+01 | 1486395137.84093 | pgbench_accounts |       1391173632
 2017-02-06 16:32:17.840932+01 | 1486395137.84093 | pgbench_tellers  |          3063808
 2017-02-06 16:32:17.840932+01 | 1486395137.84093 | pgbench_history  |        115638272
 2017-02-06 16:32:17.840932+01 | 1486395137.84093 | pgbench_branches |          1507328

 2017-02-06 16:32:18.917248+01 | 1486395138.91725 | pgbench_accounts |       1391173632
 2017-02-06 16:32:18.917248+01 | 1486395138.91725 | pgbench_tellers  |          3063808
 2017-02-06 16:32:18.917248+01 | 1486395138.91725 | pgbench_history  |        116015104
 2017-02-06 16:32:18.917248+01 | 1486395138.91725 | pgbench_branches |          1507328

 2017-02-06 16:32:19.985464+01 | 1486395139.98546 | pgbench_accounts |       1391173632
 2017-02-06 16:32:19.985464+01 | 1486395139.98546 | pgbench_tellers  |          3063808
 2017-02-06 16:32:19.985464+01 | 1486395139.98546 | pgbench_history  |        116695040
 2017-02-06 16:32:19.985464+01 | 1486395139.98546 | pgbench_branches |          1507328

 2017-02-06 16:32:21.065761+01 | 1486395141.06576 | pgbench_accounts |       1391173632
 2017-02-06 16:32:21.065761+01 | 1486395141.06576 | pgbench_tellers  |          3063808
 2017-02-06 16:32:21.065761+01 | 1486395141.06576 | pgbench_history  |        117317632
 2017-02-06 16:32:21.065761+01 | 1486395141.06576 | pgbench_branches |          1507328

 2017-02-06 16:32:22.133773+01 | 1486395142.13377 | pgbench_accounts |       1391173632
 2017-02-06 16:32:22.133773+01 | 1486395142.13377 | pgbench_tellers  |          3063808
 2017-02-06 16:32:22.133773+01 | 1486395142.13377 | pgbench_history  |        117874688
 2017-02-06 16:32:22.133773+01 | 1486395142.13377 | pgbench_branches |          1507328

 2017-02-06 16:32:23.206522+01 | 1486395143.20652 | pgbench_accounts |       1391173632
 2017-02-06 16:32:23.206522+01 | 1486395143.20652 | pgbench_tellers  |          3063808
 2017-02-06 16:32:23.206522+01 | 1486395143.20652 | pgbench_history  |        118415360
 2017-02-06 16:32:23.206522+01 | 1486395143.20652 | pgbench_branches |          1507328

 2017-02-06 16:32:24.283749+01 | 1486395144.28375 | pgbench_accounts |       1391173632
 2017-02-06 16:32:24.283749+01 | 1486395144.28375 | pgbench_tellers  |          3063808
 2017-02-06 16:32:24.283749+01 | 1486395144.28375 | pgbench_history  |        119144448
 2017-02-06 16:32:24.283749+01 | 1486395144.28375 | pgbench_branches |          1507328

 2017-02-06 16:32:25.365575+01 | 1486395145.36558 | pgbench_accounts |       1391173632
 2017-02-06 16:32:25.365575+01 | 1486395145.36558 | pgbench_tellers  |          3063808
 2017-02-06 16:32:25.365575+01 | 1486395145.36558 | pgbench_history  |        119775232
 2017-02-06 16:32:25.365575+01 | 1486395145.36558 | pgbench_branches |          1507328

 2017-02-06 16:32:26.444419+01 | 1486395146.44442 | pgbench_accounts |       1391173632
 2017-02-06 16:32:26.444419+01 | 1486395146.44442 | pgbench_tellers  |          3063808
 2017-02-06 16:32:26.444419+01 | 1486395146.44442 | pgbench_history  |        120283136
 2017-02-06 16:32:26.444419+01 | 1486395146.44442 | pgbench_branches |          1507328

 2017-02-06 16:32:27.527363+01 | 1486395147.52736 | pgbench_accounts |       1391173632
 2017-02-06 16:32:27.527363+01 | 1486395147.52736 | pgbench_tellers  |          3063808
 2017-02-06 16:32:27.527363+01 | 1486395147.52736 | pgbench_history  |        120954880
 2017-02-06 16:32:27.527363+01 | 1486395147.52736 | pgbench_branches |          1507328

 2017-02-06 16:32:28.60348+01 | 1486395148.60348 | pgbench_accounts |       1391173632
 2017-02-06 16:32:28.60348+01 | 1486395148.60348 | pgbench_tellers  |          3063808
 2017-02-06 16:32:28.60348+01 | 1486395148.60348 | pgbench_history  |        121716736
 2017-02-06 16:32:28.60348+01 | 1486395148.60348 | pgbench_branches |          1507328

 2017-02-06 16:32:29.693157+01 | 1486395149.69316 | pgbench_accounts |       1391173632
 2017-02-06 16:32:29.693157+01 | 1486395149.69316 | pgbench_tellers  |          3063808
 2017-02-06 16:32:29.693157+01 | 1486395149.69316 | pgbench_history  |        122429440
 2017-02-06 16:32:29.693157+01 | 1486395149.69316 | pgbench_branches |          1507328

 2017-02-06 16:32:30.760519+01 | 1486395150.76052 | pgbench_accounts |       1391173632
 2017-02-06 16:32:30.760519+01 | 1486395150.76052 | pgbench_tellers  |          3063808
 2017-02-06 16:32:30.760519+01 | 1486395150.76052 | pgbench_history  |        122814464
 2017-02-06 16:32:30.760519+01 | 1486395150.76052 | pgbench_branches |          1507328

 2017-02-06 16:32:31.834714+01 | 1486395151.83471 | pgbench_accounts |       1391173632
 2017-02-06 16:32:31.834714+01 | 1486395151.83471 | pgbench_tellers  |          3063808
 2017-02-06 16:32:31.834714+01 | 1486395151.83471 | pgbench_history  |        123502592
 2017-02-06 16:32:31.834714+01 | 1486395151.83471 | pgbench_branches |          1507328

 2017-02-06 16:32:32.921408+01 | 1486395152.92141 | pgbench_accounts |       1391173632
 2017-02-06 16:32:32.921408+01 | 1486395152.92141 | pgbench_tellers  |          3063808
 2017-02-06 16:32:32.921408+01 | 1486395152.92141 | pgbench_history  |        124067840
 2017-02-06 16:32:32.921408+01 | 1486395152.92141 | pgbench_branches |          1507328

 2017-02-06 16:32:34.011745+01 | 1486395154.01174 | pgbench_accounts |       1391173632
 2017-02-06 16:32:34.011745+01 | 1486395154.01174 | pgbench_tellers  |          3063808
 2017-02-06 16:32:34.011745+01 | 1486395154.01174 | pgbench_history  |        124641280
 2017-02-06 16:32:34.011745+01 | 1486395154.01174 | pgbench_branches |          1507328

 2017-02-06 16:32:35.098545+01 | 1486395155.09855 | pgbench_accounts |       1391173632
 2017-02-06 16:32:35.098545+01 | 1486395155.09855 | pgbench_tellers  |          3063808
 2017-02-06 16:32:35.098545+01 | 1486395155.09855 | pgbench_history  |        125616128
 2017-02-06 16:32:35.098545+01 | 1486395155.09855 | pgbench_branches |          1507328

 2017-02-06 16:32:36.175389+01 | 1486395156.17539 | pgbench_accounts |       1391173632
 2017-02-06 16:32:36.175389+01 | 1486395156.17539 | pgbench_tellers  |          3063808
 2017-02-06 16:32:36.175389+01 | 1486395156.17539 | pgbench_history  |        125812736
 2017-02-06 16:32:36.175389+01 | 1486395156.17539 | pgbench_branches |          1507328

 2017-02-06 16:32:37.266563+01 | 1486395157.26656 | pgbench_accounts |       1391173632
 2017-02-06 16:32:37.266563+01 | 1486395157.26656 | pgbench_tellers  |          3063808
 2017-02-06 16:32:37.266563+01 | 1486395157.26656 | pgbench_history  |        126443520
 2017-02-06 16:32:37.266563+01 | 1486395157.26656 | pgbench_branches |          1507328

 2017-02-06 16:32:38.339966+01 | 1486395158.33997 | pgbench_accounts |       1391173632
 2017-02-06 16:32:38.339966+01 | 1486395158.33997 | pgbench_tellers  |          3063808
 2017-02-06 16:32:38.339966+01 | 1486395158.33997 | pgbench_history  |        127049728
 2017-02-06 16:32:38.339966+01 | 1486395158.33997 | pgbench_branches |          1507328

 2017-02-06 16:32:39.416417+01 | 1486395159.41642 | pgbench_accounts |       1391173632
 2017-02-06 16:32:39.416417+01 | 1486395159.41642 | pgbench_tellers  |          3063808
 2017-02-06 16:32:39.416417+01 | 1486395159.41642 | pgbench_history  |        127721472
 2017-02-06 16:32:39.416417+01 | 1486395159.41642 | pgbench_branches |          1507328

 2017-02-06 16:32:40.491429+01 | 1486395160.49143 | pgbench_accounts |       1391173632
 2017-02-06 16:32:40.491429+01 | 1486395160.49143 | pgbench_tellers  |          3063808
 2017-02-06 16:32:40.491429+01 | 1486395160.49143 | pgbench_history  |        128442368
 2017-02-06 16:32:40.491429+01 | 1486395160.49143 | pgbench_branches |          1507328

 2017-02-06 16:32:41.578327+01 | 1486395161.57833 | pgbench_accounts |       1391173632
 2017-02-06 16:32:41.578327+01 | 1486395161.57833 | pgbench_tellers  |          3063808
 2017-02-06 16:32:41.578327+01 | 1486395161.57833 | pgbench_history  |        129179648
 2017-02-06 16:32:41.578327+01 | 1486395161.57833 | pgbench_branches |          1507328

 2017-02-06 16:32:42.667981+01 | 1486395162.66798 | pgbench_accounts |       1391173632
 2017-02-06 16:32:42.667981+01 | 1486395162.66798 | pgbench_tellers  |          3063808
 2017-02-06 16:32:42.667981+01 | 1486395162.66798 | pgbench_history  |        129703936
 2017-02-06 16:32:42.667981+01 | 1486395162.66798 | pgbench_branches |          1507328

 2017-02-06 16:32:43.740619+01 | 1486395163.74062 | pgbench_accounts |       1391173632
 2017-02-06 16:32:43.740619+01 | 1486395163.74062 | pgbench_tellers  |          3063808
 2017-02-06 16:32:43.740619+01 | 1486395163.74062 | pgbench_history  |        130220032
 2017-02-06 16:32:43.740619+01 | 1486395163.74062 | pgbench_branches |          1507328

 2017-02-06 16:32:44.819906+01 | 1486395164.81991 | pgbench_accounts |       1391173632
 2017-02-06 16:32:44.819906+01 | 1486395164.81991 | pgbench_tellers  |          3063808
 2017-02-06 16:32:44.819906+01 | 1486395164.81991 | pgbench_history  |        130809856
 2017-02-06 16:32:44.819906+01 | 1486395164.81991 | pgbench_branches |          1507328

 2017-02-06 16:32:45.890828+01 | 1486395165.89083 | pgbench_accounts |       1391173632
 2017-02-06 16:32:45.890828+01 | 1486395165.89083 | pgbench_tellers  |          3063808
 2017-02-06 16:32:45.890828+01 | 1486395165.89083 | pgbench_history  |        131399680
 2017-02-06 16:32:45.890828+01 | 1486395165.89083 | pgbench_branches |          1507328

 2017-02-06 16:32:46.978098+01 | 1486395166.9781 | pgbench_accounts |       1391173632
 2017-02-06 16:32:46.978098+01 | 1486395166.9781 | pgbench_tellers  |          3063808
 2017-02-06 16:32:46.978098+01 | 1486395166.9781 | pgbench_history  |        132022272
 2017-02-06 16:32:46.978098+01 | 1486395166.9781 | pgbench_branches |          1507328

 2017-02-06 16:32:48.049992+01 | 1486395168.04999 | pgbench_accounts |       1391173632
 2017-02-06 16:32:48.049992+01 | 1486395168.04999 | pgbench_tellers  |          3063808
 2017-02-06 16:32:48.049992+01 | 1486395168.04999 | pgbench_history  |        132620288
 2017-02-06 16:32:48.049992+01 | 1486395168.04999 | pgbench_branches |          1507328

 2017-02-06 16:32:49.125317+01 | 1486395169.12532 | pgbench_accounts |       1391173632
 2017-02-06 16:32:49.125317+01 | 1486395169.12532 | pgbench_tellers  |          3063808
 2017-02-06 16:32:49.125317+01 | 1486395169.12532 | pgbench_history  |        133210112
 2017-02-06 16:32:49.125317+01 | 1486395169.12532 | pgbench_branches |          1507328

 2017-02-06 16:32:50.199489+01 | 1486395170.19949 | pgbench_accounts |       1391173632
 2017-02-06 16:32:50.199489+01 | 1486395170.19949 | pgbench_tellers  |          3063808
 2017-02-06 16:32:50.199489+01 | 1486395170.19949 | pgbench_history  |        133849088
 2017-02-06 16:32:50.199489+01 | 1486395170.19949 | pgbench_branches |          1507328

 2017-02-06 16:32:51.276977+01 | 1486395171.27698 | pgbench_accounts |       1391173632
 2017-02-06 16:32:51.276977+01 | 1486395171.27698 | pgbench_tellers  |          3063808
 2017-02-06 16:32:51.276977+01 | 1486395171.27698 | pgbench_history  |        134455296
 2017-02-06 16:32:51.276977+01 | 1486395171.27698 | pgbench_branches |          1507328

 2017-02-06 16:32:52.354319+01 | 1486395172.35432 | pgbench_accounts |       1391173632
 2017-02-06 16:32:52.354319+01 | 1486395172.35432 | pgbench_tellers  |          3063808
 2017-02-06 16:32:52.354319+01 | 1486395172.35432 | pgbench_history  |        135036928
 2017-02-06 16:32:52.354319+01 | 1486395172.35432 | pgbench_branches |          1507328

 2017-02-06 16:32:53.431648+01 | 1486395173.43165 | pgbench_accounts |       1391173632
 2017-02-06 16:32:53.431648+01 | 1486395173.43165 | pgbench_tellers  |          3063808
 2017-02-06 16:32:53.431648+01 | 1486395173.43165 | pgbench_history  |        135643136
 2017-02-06 16:32:53.431648+01 | 1486395173.43165 | pgbench_branches |          1507328

 2017-02-06 16:32:54.517153+01 | 1486395174.51715 | pgbench_accounts |       1391173632
 2017-02-06 16:32:54.517153+01 | 1486395174.51715 | pgbench_tellers  |          3063808
 2017-02-06 16:32:54.517153+01 | 1486395174.51715 | pgbench_history  |        136290304
 2017-02-06 16:32:54.517153+01 | 1486395174.51715 | pgbench_branches |          1507328

 2017-02-06 16:32:55.606722+01 | 1486395175.60672 | pgbench_accounts |       1391173632
 2017-02-06 16:32:55.606722+01 | 1486395175.60672 | pgbench_tellers  |          3063808
 2017-02-06 16:32:55.606722+01 | 1486395175.60672 | pgbench_history  |        136904704
 2017-02-06 16:32:55.606722+01 | 1486395175.60672 | pgbench_branches |          1507328

 2017-02-06 16:32:56.690101+01 | 1486395176.6901 | pgbench_accounts |       1391173632
 2017-02-06 16:32:56.690101+01 | 1486395176.6901 | pgbench_tellers  |          3063808
 2017-02-06 16:32:56.690101+01 | 1486395176.6901 | pgbench_history  |        137519104
 2017-02-06 16:32:56.690101+01 | 1486395176.6901 | pgbench_branches |          1507328

 2017-02-06 16:32:57.775737+01 | 1486395177.77574 | pgbench_accounts |       1391173632
 2017-02-06 16:32:57.775737+01 | 1486395177.77574 | pgbench_tellers  |          3063808
 2017-02-06 16:32:57.775737+01 | 1486395177.77574 | pgbench_history  |        138174464
 2017-02-06 16:32:57.775737+01 | 1486395177.77574 | pgbench_branches |          1507328

 2017-02-06 16:32:58.86418+01 | 1486395178.86418 | pgbench_accounts |       1391173632
 2017-02-06 16:32:58.86418+01 | 1486395178.86418 | pgbench_tellers  |          3063808
 2017-02-06 16:32:58.86418+01 | 1486395178.86418 | pgbench_history  |        138788864
 2017-02-06 16:32:58.86418+01 | 1486395178.86418 | pgbench_branches |          1507328

 2017-02-06 16:32:59.953773+01 | 1486395179.95377 | pgbench_accounts |       1391173632
 2017-02-06 16:32:59.953773+01 | 1486395179.95377 | pgbench_tellers  |          3063808
 2017-02-06 16:32:59.953773+01 | 1486395179.95377 | pgbench_history  |        139411456
 2017-02-06 16:32:59.953773+01 | 1486395179.95377 | pgbench_branches |          1507328

 2017-02-06 16:33:01.031778+01 | 1486395181.03178 | pgbench_accounts |       1391173632
 2017-02-06 16:33:01.031778+01 | 1486395181.03178 | pgbench_tellers  |          3063808
 2017-02-06 16:33:01.031778+01 | 1486395181.03178 | pgbench_history  |        140025856
 2017-02-06 16:33:01.031778+01 | 1486395181.03178 | pgbench_branches |          1507328

 2017-02-06 16:33:02.113531+01 | 1486395182.11353 | pgbench_accounts |       1391173632
 2017-02-06 16:33:02.113531+01 | 1486395182.11353 | pgbench_tellers  |          3063808
 2017-02-06 16:33:02.113531+01 | 1486395182.11353 | pgbench_history  |        140640256
 2017-02-06 16:33:02.113531+01 | 1486395182.11353 | pgbench_branches |          1507328

 2017-02-06 16:33:03.201013+01 | 1486395183.20101 | pgbench_accounts |       1391173632
 2017-02-06 16:33:03.201013+01 | 1486395183.20101 | pgbench_tellers  |          3063808
 2017-02-06 16:33:03.201013+01 | 1486395183.20101 | pgbench_history  |        141262848
 2017-02-06 16:33:03.201013+01 | 1486395183.20101 | pgbench_branches |          1507328

 2017-02-06 16:33:04.287311+01 | 1486395184.28731 | pgbench_accounts |       1391173632
 2017-02-06 16:33:04.287311+01 | 1486395184.28731 | pgbench_tellers  |          3063808
 2017-02-06 16:33:04.287311+01 | 1486395184.28731 | pgbench_history  |        141869056
 2017-02-06 16:33:04.287311+01 | 1486395184.28731 | pgbench_branches |          1507328

 2017-02-06 16:33:05.371726+01 | 1486395185.37173 | pgbench_accounts |       1391173632
 2017-02-06 16:33:05.371726+01 | 1486395185.37173 | pgbench_tellers  |          3063808
 2017-02-06 16:33:05.371726+01 | 1486395185.37173 | pgbench_history  |        142491648
 2017-02-06 16:33:05.371726+01 | 1486395185.37173 | pgbench_branches |          1507328

 2017-02-06 16:33:06.464761+01 | 1486395186.46476 | pgbench_accounts |       1391173632
 2017-02-06 16:33:06.464761+01 | 1486395186.46476 | pgbench_tellers  |          3063808
 2017-02-06 16:33:06.464761+01 | 1486395186.46476 | pgbench_history  |        143122432
 2017-02-06 16:33:06.464761+01 | 1486395186.46476 | pgbench_branches |          1507328

 2017-02-06 16:33:07.555342+01 | 1486395187.55534 | pgbench_accounts |       1391173632
 2017-02-06 16:33:07.555342+01 | 1486395187.55534 | pgbench_tellers  |          3063808
 2017-02-06 16:33:07.555342+01 | 1486395187.55534 | pgbench_history  |        143736832
 2017-02-06 16:33:07.555342+01 | 1486395187.55534 | pgbench_branches |          1507328

 2017-02-06 16:33:08.645928+01 | 1486395188.64593 | pgbench_accounts |       1391173632
 2017-02-06 16:33:08.645928+01 | 1486395188.64593 | pgbench_tellers  |          3063808
 2017-02-06 16:33:08.645928+01 | 1486395188.64593 | pgbench_history  |        144359424
 2017-02-06 16:33:08.645928+01 | 1486395188.64593 | pgbench_branches |          1507328

 2017-02-06 16:33:09.72573+01 | 1486395189.72573 | pgbench_accounts |       1391173632
 2017-02-06 16:33:09.72573+01 | 1486395189.72573 | pgbench_tellers  |          3063808
 2017-02-06 16:33:09.72573+01 | 1486395189.72573 | pgbench_history  |        144949248
 2017-02-06 16:33:09.72573+01 | 1486395189.72573 | pgbench_branches |          1507328

 2017-02-06 16:33:10.79896+01 | 1486395190.79896 | pgbench_accounts |       1391173632
 2017-02-06 16:33:10.79896+01 | 1486395190.79896 | pgbench_tellers  |          3063808
 2017-02-06 16:33:10.79896+01 | 1486395190.79896 | pgbench_history  |        145563648
 2017-02-06 16:33:10.79896+01 | 1486395190.79896 | pgbench_branches |          1507328

 2017-02-06 16:33:11.879125+01 | 1486395191.87913 | pgbench_accounts |       1391173632
 2017-02-06 16:33:11.879125+01 | 1486395191.87913 | pgbench_tellers  |          3063808
 2017-02-06 16:33:11.879125+01 | 1486395191.87913 | pgbench_history  |        146317312
 2017-02-06 16:33:11.879125+01 | 1486395191.87913 | pgbench_branches |          1507328

 2017-02-06 16:33:12.970156+01 | 1486395192.97016 | pgbench_accounts |       1391173632
 2017-02-06 16:33:12.970156+01 | 1486395192.97016 | pgbench_tellers  |          3063808
 2017-02-06 16:33:12.970156+01 | 1486395192.97016 | pgbench_history  |        147218432
 2017-02-06 16:33:12.970156+01 | 1486395192.97016 | pgbench_branches |          1507328

 2017-02-06 16:33:14.056968+01 | 1486395194.05697 | pgbench_accounts |       1391173632
 2017-02-06 16:33:14.056968+01 | 1486395194.05697 | pgbench_tellers  |          3063808
 2017-02-06 16:33:14.056968+01 | 1486395194.05697 | pgbench_history  |        147570688
 2017-02-06 16:33:14.056968+01 | 1486395194.05697 | pgbench_branches |          1507328

 2017-02-06 16:33:15.141098+01 | 1486395195.1411 | pgbench_accounts |       1391173632
 2017-02-06 16:33:15.141098+01 | 1486395195.1411 | pgbench_tellers  |          3063808
 2017-02-06 16:33:15.141098+01 | 1486395195.1411 | pgbench_history  |        148029440
 2017-02-06 16:33:15.141098+01 | 1486395195.1411 | pgbench_branches |          1507328

 2017-02-06 16:33:16.228741+01 | 1486395196.22874 | pgbench_accounts |       1391173632
 2017-02-06 16:33:16.228741+01 | 1486395196.22874 | pgbench_tellers  |          3063808
 2017-02-06 16:33:16.228741+01 | 1486395196.22874 | pgbench_history  |        148668416
 2017-02-06 16:33:16.228741+01 | 1486395196.22874 | pgbench_branches |          1507328

 2017-02-06 16:33:17.31432+01 | 1486395197.31432 | pgbench_accounts |       1391173632
 2017-02-06 16:33:17.31432+01 | 1486395197.31432 | pgbench_tellers  |          3063808
 2017-02-06 16:33:17.31432+01 | 1486395197.31432 | pgbench_history  |        149266432
 2017-02-06 16:33:17.31432+01 | 1486395197.31432 | pgbench_branches |          1507328

 2017-02-06 16:33:18.411179+01 | 1486395198.41118 | pgbench_accounts |       1391173632
 2017-02-06 16:33:18.411179+01 | 1486395198.41118 | pgbench_tellers  |          3063808
 2017-02-06 16:33:18.411179+01 | 1486395198.41118 | pgbench_history  |        150003712
 2017-02-06 16:33:18.411179+01 | 1486395198.41118 | pgbench_branches |          1507328

 2017-02-06 16:33:19.507077+01 | 1486395199.50708 | pgbench_accounts |       1391173632
 2017-02-06 16:33:19.507077+01 | 1486395199.50708 | pgbench_tellers  |          3063808
 2017-02-06 16:33:19.507077+01 | 1486395199.50708 | pgbench_history  |        150740992
 2017-02-06 16:33:19.507077+01 | 1486395199.50708 | pgbench_branches |          1507328

 2017-02-06 16:33:20.600984+01 | 1486395200.60098 | pgbench_accounts |       1391173632
 2017-02-06 16:33:20.600984+01 | 1486395200.60098 | pgbench_tellers  |          3063808
 2017-02-06 16:33:20.600984+01 | 1486395200.60098 | pgbench_history  |        151265280
 2017-02-06 16:33:20.600984+01 | 1486395200.60098 | pgbench_branches |          1507328

 2017-02-06 16:33:21.678946+01 | 1486395201.67895 | pgbench_accounts |       1391173632
 2017-02-06 16:33:21.678946+01 | 1486395201.67895 | pgbench_tellers  |          3063808
 2017-02-06 16:33:21.678946+01 | 1486395201.67895 | pgbench_history  |        151986176
 2017-02-06 16:33:21.678946+01 | 1486395201.67895 | pgbench_branches |          1507328

 2017-02-06 16:33:22.758265+01 | 1486395202.75827 | pgbench_accounts |       1391173632
 2017-02-06 16:33:22.758265+01 | 1486395202.75827 | pgbench_tellers  |          3063808
 2017-02-06 16:33:22.758265+01 | 1486395202.75827 | pgbench_history  |        152551424
 2017-02-06 16:33:22.758265+01 | 1486395202.75827 | pgbench_branches |          1507328

 2017-02-06 16:33:23.84899+01 | 1486395203.84899 | pgbench_accounts |       1391173632
 2017-02-06 16:33:23.84899+01 | 1486395203.84899 | pgbench_tellers  |          3063808
 2017-02-06 16:33:23.84899+01 | 1486395203.84899 | pgbench_history  |        153452544
 2017-02-06 16:33:23.84899+01 | 1486395203.84899 | pgbench_branches |          1507328

 2017-02-06 16:33:24.93364+01 | 1486395204.93364 | pgbench_accounts |       1391173632
 2017-02-06 16:33:24.93364+01 | 1486395204.93364 | pgbench_tellers  |          3063808
 2017-02-06 16:33:24.93364+01 | 1486395204.93364 | pgbench_history  |        153804800
 2017-02-06 16:33:24.93364+01 | 1486395204.93364 | pgbench_branches |          1507328

 2017-02-06 16:33:26.015229+01 | 1486395206.01523 | pgbench_accounts |       1391173632
 2017-02-06 16:33:26.015229+01 | 1486395206.01523 | pgbench_tellers  |          3063808
 2017-02-06 16:33:26.015229+01 | 1486395206.01523 | pgbench_history  |        154689536
 2017-02-06 16:33:26.015229+01 | 1486395206.01523 | pgbench_branches |          1507328

 2017-02-06 16:33:27.090803+01 | 1486395207.0908 | pgbench_accounts |       1391173632
 2017-02-06 16:33:27.090803+01 | 1486395207.0908 | pgbench_tellers  |          3063808
 2017-02-06 16:33:27.090803+01 | 1486395207.0908 | pgbench_history  |        155041792
 2017-02-06 16:33:27.090803+01 | 1486395207.0908 | pgbench_branches |          1507328

 2017-02-06 16:33:28.165322+01 | 1486395208.16532 | pgbench_accounts |       1391173632
 2017-02-06 16:33:28.165322+01 | 1486395208.16532 | pgbench_tellers  |          3063808
 2017-02-06 16:33:28.165322+01 | 1486395208.16532 | pgbench_history  |        155598848
 2017-02-06 16:33:28.165322+01 | 1486395208.16532 | pgbench_branches |          1507328

 2017-02-06 16:33:29.243182+01 | 1486395209.24318 | pgbench_accounts |       1391173632
 2017-02-06 16:33:29.243182+01 | 1486395209.24318 | pgbench_tellers  |          3063808
 2017-02-06 16:33:29.243182+01 | 1486395209.24318 | pgbench_history  |        156147712
 2017-02-06 16:33:29.243182+01 | 1486395209.24318 | pgbench_branches |          1507328

 2017-02-06 16:33:30.309707+01 | 1486395210.30971 | pgbench_accounts |       1391173632
 2017-02-06 16:33:30.309707+01 | 1486395210.30971 | pgbench_tellers  |          3063808
 2017-02-06 16:33:30.309707+01 | 1486395210.30971 | pgbench_history  |        156753920
 2017-02-06 16:33:30.309707+01 | 1486395210.30971 | pgbench_branches |          1507328

 2017-02-06 16:33:31.397007+01 | 1486395211.39701 | pgbench_accounts |       1391173632
 2017-02-06 16:33:31.397007+01 | 1486395211.39701 | pgbench_tellers  |          3063808
 2017-02-06 16:33:31.397007+01 | 1486395211.39701 | pgbench_history  |        157507584
 2017-02-06 16:33:31.397007+01 | 1486395211.39701 | pgbench_branches |          1507328

 2017-02-06 16:33:32.480247+01 | 1486395212.48025 | pgbench_accounts |       1391173632
 2017-02-06 16:33:32.480247+01 | 1486395212.48025 | pgbench_tellers  |          3063808
 2017-02-06 16:33:32.480247+01 | 1486395212.48025 | pgbench_history  |        157933568
 2017-02-06 16:33:32.480247+01 | 1486395212.48025 | pgbench_branches |          1507328

 2017-02-06 16:33:33.558303+01 | 1486395213.5583 | pgbench_accounts |       1391173632
 2017-02-06 16:33:33.558303+01 | 1486395213.5583 | pgbench_tellers  |          3063808
 2017-02-06 16:33:33.558303+01 | 1486395213.5583 | pgbench_history  |        158539776
 2017-02-06 16:33:33.558303+01 | 1486395213.5583 | pgbench_branches |          1507328

 2017-02-06 16:33:34.640063+01 | 1486395214.64006 | pgbench_accounts |       1391173632
 2017-02-06 16:33:34.640063+01 | 1486395214.64006 | pgbench_tellers  |          3063808
 2017-02-06 16:33:34.640063+01 | 1486395214.64006 | pgbench_history  |        159211520
 2017-02-06 16:33:34.640063+01 | 1486395214.64006 | pgbench_branches |          1507328

 2017-02-06 16:33:35.72894+01 | 1486395215.72894 | pgbench_accounts |       1391173632
 2017-02-06 16:33:35.72894+01 | 1486395215.72894 | pgbench_tellers  |          3063808
 2017-02-06 16:33:35.72894+01 | 1486395215.72894 | pgbench_history  |        159842304
 2017-02-06 16:33:35.72894+01 | 1486395215.72894 | pgbench_branches |          1507328

 2017-02-06 16:33:36.803023+01 | 1486395216.80302 | pgbench_accounts |       1391173632
 2017-02-06 16:33:36.803023+01 | 1486395216.80302 | pgbench_tellers  |          3063808
 2017-02-06 16:33:36.803023+01 | 1486395216.80302 | pgbench_history  |        160440320
 2017-02-06 16:33:36.803023+01 | 1486395216.80302 | pgbench_branches |          1507328

 2017-02-06 16:33:37.876727+01 | 1486395217.87673 | pgbench_accounts |       1391173632
 2017-02-06 16:33:37.876727+01 | 1486395217.87673 | pgbench_tellers  |          3063808
 2017-02-06 16:33:37.876727+01 | 1486395217.87673 | pgbench_history  |        161169408
 2017-02-06 16:33:37.876727+01 | 1486395217.87673 | pgbench_branches |          1507328

 2017-02-06 16:33:38.967353+01 | 1486395218.96735 | pgbench_accounts |       1391173632
 2017-02-06 16:33:38.967353+01 | 1486395218.96735 | pgbench_tellers  |          3063808
 2017-02-06 16:33:38.967353+01 | 1486395218.96735 | pgbench_history  |        161701888
 2017-02-06 16:33:38.967353+01 | 1486395218.96735 | pgbench_branches |          1507328

 2017-02-06 16:33:40.042802+01 | 1486395220.0428 | pgbench_accounts |       1391173632
 2017-02-06 16:33:40.042802+01 | 1486395220.0428 | pgbench_tellers  |          3063808
 2017-02-06 16:33:40.042802+01 | 1486395220.0428 | pgbench_history  |        162299904
 2017-02-06 16:33:40.042802+01 | 1486395220.0428 | pgbench_branches |          1507328

 2017-02-06 16:33:41.118536+01 | 1486395221.11854 | pgbench_accounts |       1391173632
 2017-02-06 16:33:41.118536+01 | 1486395221.11854 | pgbench_tellers  |          3063808
 2017-02-06 16:33:41.118536+01 | 1486395221.11854 | pgbench_history  |        162922496
 2017-02-06 16:33:41.118536+01 | 1486395221.11854 | pgbench_branches |          1507328

 2017-02-06 16:33:42.189899+01 | 1486395222.1899 | pgbench_accounts |       1391173632
 2017-02-06 16:33:42.189899+01 | 1486395222.1899 | pgbench_tellers  |          3063808
 2017-02-06 16:33:42.189899+01 | 1486395222.1899 | pgbench_history  |        163536896
 2017-02-06 16:33:42.189899+01 | 1486395222.1899 | pgbench_branches |          1507328

 2017-02-06 16:33:43.272347+01 | 1486395223.27235 | pgbench_accounts |       1391173632
 2017-02-06 16:33:43.272347+01 | 1486395223.27235 | pgbench_tellers  |          3063808
 2017-02-06 16:33:43.272347+01 | 1486395223.27235 | pgbench_history  |        164143104
 2017-02-06 16:33:43.272347+01 | 1486395223.27235 | pgbench_branches |          1507328

 2017-02-06 16:33:44.364285+01 | 1486395224.36428 | pgbench_accounts |       1391173632
 2017-02-06 16:33:44.364285+01 | 1486395224.36428 | pgbench_tellers  |          3063808
 2017-02-06 16:33:44.364285+01 | 1486395224.36428 | pgbench_history  |        164790272
 2017-02-06 16:33:44.364285+01 | 1486395224.36428 | pgbench_branches |          1507328

 2017-02-06 16:33:45.4564+01 | 1486395225.4564 | pgbench_accounts |       1391173632
 2017-02-06 16:33:45.4564+01 | 1486395225.4564 | pgbench_tellers  |          3063808
 2017-02-06 16:33:45.4564+01 | 1486395225.4564 | pgbench_history  |        165421056
 2017-02-06 16:33:45.4564+01 | 1486395225.4564 | pgbench_branches |          1507328

 2017-02-06 16:33:46.537945+01 | 1486395226.53795 | pgbench_accounts |       1391173632
 2017-02-06 16:33:46.537945+01 | 1486395226.53795 | pgbench_tellers  |          3063808
 2017-02-06 16:33:46.537945+01 | 1486395226.53795 | pgbench_history  |        166060032
 2017-02-06 16:33:46.537945+01 | 1486395226.53795 | pgbench_branches |          1507328

 2017-02-06 16:33:47.617335+01 | 1486395227.61734 | pgbench_accounts |       1391173632
 2017-02-06 16:33:47.617335+01 | 1486395227.61734 | pgbench_tellers  |          3063808
 2017-02-06 16:33:47.617335+01 | 1486395227.61734 | pgbench_history  |        166674432
 2017-02-06 16:33:47.617335+01 | 1486395227.61734 | pgbench_branches |          1507328

 2017-02-06 16:33:48.700466+01 | 1486395228.70047 | pgbench_accounts |       1391173632
 2017-02-06 16:33:48.700466+01 | 1486395228.70047 | pgbench_tellers  |          3063808
 2017-02-06 16:33:48.700466+01 | 1486395228.70047 | pgbench_history  |        167280640
 2017-02-06 16:33:48.700466+01 | 1486395228.70047 | pgbench_branches |          1507328

 2017-02-06 16:33:49.777209+01 | 1486395229.77721 | pgbench_accounts |       1391173632
 2017-02-06 16:33:49.777209+01 | 1486395229.77721 | pgbench_tellers  |          3063808
 2017-02-06 16:33:49.777209+01 | 1486395229.77721 | pgbench_history  |        167886848
 2017-02-06 16:33:49.777209+01 | 1486395229.77721 | pgbench_branches |          1507328

 2017-02-06 16:33:50.84892+01 | 1486395230.84892 | pgbench_accounts |       1391173632
 2017-02-06 16:33:50.84892+01 | 1486395230.84892 | pgbench_tellers  |          3063808
 2017-02-06 16:33:50.84892+01 | 1486395230.84892 | pgbench_history  |        168493056
 2017-02-06 16:33:50.84892+01 | 1486395230.84892 | pgbench_branches |          1507328

 2017-02-06 16:33:51.921566+01 | 1486395231.92157 | pgbench_accounts |       1391173632
 2017-02-06 16:33:51.921566+01 | 1486395231.92157 | pgbench_tellers  |          3063808
 2017-02-06 16:33:51.921566+01 | 1486395231.92157 | pgbench_history  |        169132032
 2017-02-06 16:33:51.921566+01 | 1486395231.92157 | pgbench_branches |          1507328

 2017-02-06 16:33:52.996768+01 | 1486395232.99677 | pgbench_accounts |       1391173632
 2017-02-06 16:33:52.996768+01 | 1486395232.99677 | pgbench_tellers  |          3063808
 2017-02-06 16:33:52.996768+01 | 1486395232.99677 | pgbench_history  |        169738240
 2017-02-06 16:33:52.996768+01 | 1486395232.99677 | pgbench_branches |          1507328

