 2017-02-03 22:48:48.193736+01 | 1486158528.19374 | pgbench_branches_pkey |            57344
 2017-02-03 22:48:48.193736+01 | 1486158528.19374 | pgbench_tellers_pkey  |           270336
 2017-02-03 22:48:48.193736+01 | 1486158528.19374 | pgbench_accounts_pkey |        224641024

 2017-02-03 22:48:49.269026+01 | 1486158529.26903 | pgbench_branches_pkey |            57344
 2017-02-03 22:48:49.269026+01 | 1486158529.26903 | pgbench_tellers_pkey  |           270336
 2017-02-03 22:48:49.269026+01 | 1486158529.26903 | pgbench_accounts_pkey |        224641024

 2017-02-03 22:48:50.340555+01 | 1486158530.34055 | pgbench_branches_pkey |            57344
 2017-02-03 22:48:50.340555+01 | 1486158530.34055 | pgbench_tellers_pkey  |           270336
 2017-02-03 22:48:50.340555+01 | 1486158530.34055 | pgbench_accounts_pkey |        224641024

 2017-02-03 22:48:51.417194+01 | 1486158531.41719 | pgbench_branches_pkey |            57344
 2017-02-03 22:48:51.417194+01 | 1486158531.41719 | pgbench_tellers_pkey  |           270336
 2017-02-03 22:48:51.417194+01 | 1486158531.41719 | pgbench_accounts_pkey |        224641024

 2017-02-03 22:48:52.504016+01 | 1486158532.50402 | pgbench_branches_pkey |            57344
 2017-02-03 22:48:52.504016+01 | 1486158532.50402 | pgbench_tellers_pkey  |           270336
 2017-02-03 22:48:52.504016+01 | 1486158532.50402 | pgbench_accounts_pkey |        224641024

 2017-02-03 22:48:53.582005+01 | 1486158533.58201 | pgbench_branches_pkey |            57344
 2017-02-03 22:48:53.582005+01 | 1486158533.58201 | pgbench_tellers_pkey  |           270336
 2017-02-03 22:48:53.582005+01 | 1486158533.58201 | pgbench_accounts_pkey |        224641024

 2017-02-03 22:48:54.654624+01 | 1486158534.65462 | pgbench_branches_pkey |            57344
 2017-02-03 22:48:54.654624+01 | 1486158534.65462 | pgbench_tellers_pkey  |           270336
 2017-02-03 22:48:54.654624+01 | 1486158534.65462 | pgbench_accounts_pkey |        224641024

 2017-02-03 22:48:55.730849+01 | 1486158535.73085 | pgbench_branches_pkey |            57344
 2017-02-03 22:48:55.730849+01 | 1486158535.73085 | pgbench_tellers_pkey  |           270336
 2017-02-03 22:48:55.730849+01 | 1486158535.73085 | pgbench_accounts_pkey |        224641024

 2017-02-03 22:48:56.813107+01 | 1486158536.81311 | pgbench_branches_pkey |            57344
 2017-02-03 22:48:56.813107+01 | 1486158536.81311 | pgbench_tellers_pkey  |           270336
 2017-02-03 22:48:56.813107+01 | 1486158536.81311 | pgbench_accounts_pkey |        224641024

 2017-02-03 22:48:57.894908+01 | 1486158537.89491 | pgbench_branches_pkey |            57344
 2017-02-03 22:48:57.894908+01 | 1486158537.89491 | pgbench_tellers_pkey  |           270336
 2017-02-03 22:48:57.894908+01 | 1486158537.89491 | pgbench_accounts_pkey |        224641024

 2017-02-03 22:48:58.981629+01 | 1486158538.98163 | pgbench_branches_pkey |            57344
 2017-02-03 22:48:58.981629+01 | 1486158538.98163 | pgbench_tellers_pkey  |           270336
 2017-02-03 22:48:58.981629+01 | 1486158538.98163 | pgbench_accounts_pkey |        224641024

 2017-02-03 22:49:00.075568+01 | 1486158540.07557 | pgbench_branches_pkey |            57344
 2017-02-03 22:49:00.075568+01 | 1486158540.07557 | pgbench_tellers_pkey  |           270336
 2017-02-03 22:49:00.075568+01 | 1486158540.07557 | pgbench_accounts_pkey |        224641024

 2017-02-03 22:49:01.147793+01 | 1486158541.14779 | pgbench_branches_pkey |            57344
 2017-02-03 22:49:01.147793+01 | 1486158541.14779 | pgbench_tellers_pkey  |           270336
 2017-02-03 22:49:01.147793+01 | 1486158541.14779 | pgbench_accounts_pkey |        224641024

 2017-02-03 22:49:02.219968+01 | 1486158542.21997 | pgbench_branches_pkey |            57344
 2017-02-03 22:49:02.219968+01 | 1486158542.21997 | pgbench_tellers_pkey  |           270336
 2017-02-03 22:49:02.219968+01 | 1486158542.21997 | pgbench_accounts_pkey |        224641024

 2017-02-03 22:49:03.302043+01 | 1486158543.30204 | pgbench_branches_pkey |            57344
 2017-02-03 22:49:03.302043+01 | 1486158543.30204 | pgbench_tellers_pkey  |           270336
 2017-02-03 22:49:03.302043+01 | 1486158543.30204 | pgbench_accounts_pkey |        224641024

 2017-02-03 22:49:04.378427+01 | 1486158544.37843 | pgbench_branches_pkey |            57344
 2017-02-03 22:49:04.378427+01 | 1486158544.37843 | pgbench_tellers_pkey  |           270336
 2017-02-03 22:49:04.378427+01 | 1486158544.37843 | pgbench_accounts_pkey |        224641024

 2017-02-03 22:49:05.463615+01 | 1486158545.46361 | pgbench_branches_pkey |            57344
 2017-02-03 22:49:05.463615+01 | 1486158545.46361 | pgbench_tellers_pkey  |           270336
 2017-02-03 22:49:05.463615+01 | 1486158545.46361 | pgbench_accounts_pkey |        224641024

 2017-02-03 22:49:06.533108+01 | 1486158546.53311 | pgbench_branches_pkey |            57344
 2017-02-03 22:49:06.533108+01 | 1486158546.53311 | pgbench_tellers_pkey  |           270336
 2017-02-03 22:49:06.533108+01 | 1486158546.53311 | pgbench_accounts_pkey |        224641024

 2017-02-03 22:49:07.608193+01 | 1486158547.60819 | pgbench_branches_pkey |            57344
 2017-02-03 22:49:07.608193+01 | 1486158547.60819 | pgbench_tellers_pkey  |           270336
 2017-02-03 22:49:07.608193+01 | 1486158547.60819 | pgbench_accounts_pkey |        224641024

 2017-02-03 22:49:08.692557+01 | 1486158548.69256 | pgbench_branches_pkey |            57344
 2017-02-03 22:49:08.692557+01 | 1486158548.69256 | pgbench_tellers_pkey  |           270336
 2017-02-03 22:49:08.692557+01 | 1486158548.69256 | pgbench_accounts_pkey |        224641024

 2017-02-03 22:49:09.785065+01 | 1486158549.78506 | pgbench_branches_pkey |            57344
 2017-02-03 22:49:09.785065+01 | 1486158549.78506 | pgbench_tellers_pkey  |           270336
 2017-02-03 22:49:09.785065+01 | 1486158549.78506 | pgbench_accounts_pkey |        224641024

 2017-02-03 22:49:10.877255+01 | 1486158550.87725 | pgbench_branches_pkey |            57344
 2017-02-03 22:49:10.877255+01 | 1486158550.87725 | pgbench_tellers_pkey  |           270336
 2017-02-03 22:49:10.877255+01 | 1486158550.87725 | pgbench_accounts_pkey |        224641024

 2017-02-03 22:49:11.962976+01 | 1486158551.96298 | pgbench_branches_pkey |            57344
 2017-02-03 22:49:11.962976+01 | 1486158551.96298 | pgbench_tellers_pkey  |           270336
 2017-02-03 22:49:11.962976+01 | 1486158551.96298 | pgbench_accounts_pkey |        224641024

 2017-02-03 22:49:13.036833+01 | 1486158553.03683 | pgbench_branches_pkey |            57344
 2017-02-03 22:49:13.036833+01 | 1486158553.03683 | pgbench_tellers_pkey  |           270336
 2017-02-03 22:49:13.036833+01 | 1486158553.03683 | pgbench_accounts_pkey |        224641024

 2017-02-03 22:49:14.121696+01 | 1486158554.1217 | pgbench_branches_pkey |            57344
 2017-02-03 22:49:14.121696+01 | 1486158554.1217 | pgbench_tellers_pkey  |           270336
 2017-02-03 22:49:14.121696+01 | 1486158554.1217 | pgbench_accounts_pkey |        224641024

 2017-02-03 22:49:15.204729+01 | 1486158555.20473 | pgbench_branches_pkey |            57344
 2017-02-03 22:49:15.204729+01 | 1486158555.20473 | pgbench_tellers_pkey  |           270336
 2017-02-03 22:49:15.204729+01 | 1486158555.20473 | pgbench_accounts_pkey |        224641024

 2017-02-03 22:49:16.285253+01 | 1486158556.28525 | pgbench_branches_pkey |            57344
 2017-02-03 22:49:16.285253+01 | 1486158556.28525 | pgbench_tellers_pkey  |           270336
 2017-02-03 22:49:16.285253+01 | 1486158556.28525 | pgbench_accounts_pkey |        224641024

 2017-02-03 22:49:17.365036+01 | 1486158557.36504 | pgbench_branches_pkey |            57344
 2017-02-03 22:49:17.365036+01 | 1486158557.36504 | pgbench_tellers_pkey  |           270336
 2017-02-03 22:49:17.365036+01 | 1486158557.36504 | pgbench_accounts_pkey |        224641024

 2017-02-03 22:49:18.44574+01 | 1486158558.44574 | pgbench_branches_pkey |            57344
 2017-02-03 22:49:18.44574+01 | 1486158558.44574 | pgbench_tellers_pkey  |           270336
 2017-02-03 22:49:18.44574+01 | 1486158558.44574 | pgbench_accounts_pkey |        224641024

 2017-02-03 22:49:19.517677+01 | 1486158559.51768 | pgbench_branches_pkey |            57344
 2017-02-03 22:49:19.517677+01 | 1486158559.51768 | pgbench_tellers_pkey  |           270336
 2017-02-03 22:49:19.517677+01 | 1486158559.51768 | pgbench_accounts_pkey |        224641024

 2017-02-03 22:49:20.602382+01 | 1486158560.60238 | pgbench_branches_pkey |            57344
 2017-02-03 22:49:20.602382+01 | 1486158560.60238 | pgbench_tellers_pkey  |           270336
 2017-02-03 22:49:20.602382+01 | 1486158560.60238 | pgbench_accounts_pkey |        224641024

 2017-02-03 22:49:21.693309+01 | 1486158561.69331 | pgbench_branches_pkey |            57344
 2017-02-03 22:49:21.693309+01 | 1486158561.69331 | pgbench_tellers_pkey  |           270336
 2017-02-03 22:49:21.693309+01 | 1486158561.69331 | pgbench_accounts_pkey |        224641024

 2017-02-03 22:49:22.765996+01 | 1486158562.766 | pgbench_branches_pkey |            57344
 2017-02-03 22:49:22.765996+01 | 1486158562.766 | pgbench_tellers_pkey  |           270336
 2017-02-03 22:49:22.765996+01 | 1486158562.766 | pgbench_accounts_pkey |        224641024

 2017-02-03 22:49:23.85007+01 | 1486158563.85007 | pgbench_branches_pkey |            57344
 2017-02-03 22:49:23.85007+01 | 1486158563.85007 | pgbench_tellers_pkey  |           270336
 2017-02-03 22:49:23.85007+01 | 1486158563.85007 | pgbench_accounts_pkey |        224641024

 2017-02-03 22:49:24.932822+01 | 1486158564.93282 | pgbench_branches_pkey |            57344
 2017-02-03 22:49:24.932822+01 | 1486158564.93282 | pgbench_tellers_pkey  |           270336
 2017-02-03 22:49:24.932822+01 | 1486158564.93282 | pgbench_accounts_pkey |        224641024

 2017-02-03 22:49:26.023044+01 | 1486158566.02304 | pgbench_branches_pkey |            57344
 2017-02-03 22:49:26.023044+01 | 1486158566.02304 | pgbench_tellers_pkey  |           270336
 2017-02-03 22:49:26.023044+01 | 1486158566.02304 | pgbench_accounts_pkey |        224641024

 2017-02-03 22:49:27.112807+01 | 1486158567.11281 | pgbench_branches_pkey |            57344
 2017-02-03 22:49:27.112807+01 | 1486158567.11281 | pgbench_tellers_pkey  |           270336
 2017-02-03 22:49:27.112807+01 | 1486158567.11281 | pgbench_accounts_pkey |        224641024

 2017-02-03 22:49:28.198952+01 | 1486158568.19895 | pgbench_branches_pkey |            57344
 2017-02-03 22:49:28.198952+01 | 1486158568.19895 | pgbench_tellers_pkey  |           270336
 2017-02-03 22:49:28.198952+01 | 1486158568.19895 | pgbench_accounts_pkey |        224641024

 2017-02-03 22:49:29.28769+01 | 1486158569.28769 | pgbench_branches_pkey |            57344
 2017-02-03 22:49:29.28769+01 | 1486158569.28769 | pgbench_tellers_pkey  |           270336
 2017-02-03 22:49:29.28769+01 | 1486158569.28769 | pgbench_accounts_pkey |        224641024

 2017-02-03 22:49:30.366597+01 | 1486158570.3666 | pgbench_branches_pkey |            57344
 2017-02-03 22:49:30.366597+01 | 1486158570.3666 | pgbench_tellers_pkey  |           270336
 2017-02-03 22:49:30.366597+01 | 1486158570.3666 | pgbench_accounts_pkey |        224641024

 2017-02-03 22:49:31.446208+01 | 1486158571.44621 | pgbench_branches_pkey |            57344
 2017-02-03 22:49:31.446208+01 | 1486158571.44621 | pgbench_tellers_pkey  |           270336
 2017-02-03 22:49:31.446208+01 | 1486158571.44621 | pgbench_accounts_pkey |        224641024

 2017-02-03 22:49:32.530917+01 | 1486158572.53092 | pgbench_branches_pkey |            57344
 2017-02-03 22:49:32.530917+01 | 1486158572.53092 | pgbench_tellers_pkey  |           270336
 2017-02-03 22:49:32.530917+01 | 1486158572.53092 | pgbench_accounts_pkey |        224641024

 2017-02-03 22:49:33.610657+01 | 1486158573.61066 | pgbench_branches_pkey |            57344
 2017-02-03 22:49:33.610657+01 | 1486158573.61066 | pgbench_tellers_pkey  |           270336
 2017-02-03 22:49:33.610657+01 | 1486158573.61066 | pgbench_accounts_pkey |        224641024

 2017-02-03 22:49:34.691577+01 | 1486158574.69158 | pgbench_branches_pkey |            57344
 2017-02-03 22:49:34.691577+01 | 1486158574.69158 | pgbench_tellers_pkey  |           270336
 2017-02-03 22:49:34.691577+01 | 1486158574.69158 | pgbench_accounts_pkey |        224641024

 2017-02-03 22:49:35.761955+01 | 1486158575.76196 | pgbench_branches_pkey |            57344
 2017-02-03 22:49:35.761955+01 | 1486158575.76196 | pgbench_tellers_pkey  |           270336
 2017-02-03 22:49:35.761955+01 | 1486158575.76196 | pgbench_accounts_pkey |        224641024

 2017-02-03 22:49:36.8472+01 | 1486158576.8472 | pgbench_branches_pkey |            57344
 2017-02-03 22:49:36.8472+01 | 1486158576.8472 | pgbench_tellers_pkey  |           270336
 2017-02-03 22:49:36.8472+01 | 1486158576.8472 | pgbench_accounts_pkey |        224641024

 2017-02-03 22:49:37.929713+01 | 1486158577.92971 | pgbench_branches_pkey |            57344
 2017-02-03 22:49:37.929713+01 | 1486158577.92971 | pgbench_tellers_pkey  |           270336
 2017-02-03 22:49:37.929713+01 | 1486158577.92971 | pgbench_accounts_pkey |        224641024

 2017-02-03 22:49:39.018176+01 | 1486158579.01818 | pgbench_branches_pkey |            57344
 2017-02-03 22:49:39.018176+01 | 1486158579.01818 | pgbench_tellers_pkey  |           270336
 2017-02-03 22:49:39.018176+01 | 1486158579.01818 | pgbench_accounts_pkey |        224641024

 2017-02-03 22:49:40.097765+01 | 1486158580.09776 | pgbench_branches_pkey |            57344
 2017-02-03 22:49:40.097765+01 | 1486158580.09776 | pgbench_tellers_pkey  |           270336
 2017-02-03 22:49:40.097765+01 | 1486158580.09776 | pgbench_accounts_pkey |        224641024

 2017-02-03 22:49:41.168664+01 | 1486158581.16866 | pgbench_branches_pkey |            57344
 2017-02-03 22:49:41.168664+01 | 1486158581.16866 | pgbench_tellers_pkey  |           270336
 2017-02-03 22:49:41.168664+01 | 1486158581.16866 | pgbench_accounts_pkey |        224641024

 2017-02-03 22:49:42.243399+01 | 1486158582.2434 | pgbench_branches_pkey |            57344
 2017-02-03 22:49:42.243399+01 | 1486158582.2434 | pgbench_tellers_pkey  |           270336
 2017-02-03 22:49:42.243399+01 | 1486158582.2434 | pgbench_accounts_pkey |        224641024

 2017-02-03 22:49:43.330533+01 | 1486158583.33053 | pgbench_branches_pkey |            57344
 2017-02-03 22:49:43.330533+01 | 1486158583.33053 | pgbench_tellers_pkey  |           270336
 2017-02-03 22:49:43.330533+01 | 1486158583.33053 | pgbench_accounts_pkey |        224641024

 2017-02-03 22:49:44.415263+01 | 1486158584.41526 | pgbench_branches_pkey |            57344
 2017-02-03 22:49:44.415263+01 | 1486158584.41526 | pgbench_tellers_pkey  |           270336
 2017-02-03 22:49:44.415263+01 | 1486158584.41526 | pgbench_accounts_pkey |        224641024

 2017-02-03 22:49:45.508661+01 | 1486158585.50866 | pgbench_branches_pkey |            57344
 2017-02-03 22:49:45.508661+01 | 1486158585.50866 | pgbench_tellers_pkey  |           270336
 2017-02-03 22:49:45.508661+01 | 1486158585.50866 | pgbench_accounts_pkey |        224641024

 2017-02-03 22:49:46.602138+01 | 1486158586.60214 | pgbench_branches_pkey |            57344
 2017-02-03 22:49:46.602138+01 | 1486158586.60214 | pgbench_tellers_pkey  |           270336
 2017-02-03 22:49:46.602138+01 | 1486158586.60214 | pgbench_accounts_pkey |        224641024

 2017-02-03 22:49:47.672979+01 | 1486158587.67298 | pgbench_branches_pkey |            57344
 2017-02-03 22:49:47.672979+01 | 1486158587.67298 | pgbench_tellers_pkey  |           270336
 2017-02-03 22:49:47.672979+01 | 1486158587.67298 | pgbench_accounts_pkey |        224641024

 2017-02-03 22:49:48.746519+01 | 1486158588.74652 | pgbench_branches_pkey |            57344
 2017-02-03 22:49:48.746519+01 | 1486158588.74652 | pgbench_tellers_pkey  |           270336
 2017-02-03 22:49:48.746519+01 | 1486158588.74652 | pgbench_accounts_pkey |        224641024

 2017-02-03 22:49:49.839484+01 | 1486158589.83948 | pgbench_branches_pkey |            57344
 2017-02-03 22:49:49.839484+01 | 1486158589.83948 | pgbench_tellers_pkey  |           270336
 2017-02-03 22:49:49.839484+01 | 1486158589.83948 | pgbench_accounts_pkey |        224641024

 2017-02-03 22:49:50.931579+01 | 1486158590.93158 | pgbench_branches_pkey |            57344
 2017-02-03 22:49:50.931579+01 | 1486158590.93158 | pgbench_tellers_pkey  |           270336
 2017-02-03 22:49:50.931579+01 | 1486158590.93158 | pgbench_accounts_pkey |        224641024

 2017-02-03 22:49:52.009539+01 | 1486158592.00954 | pgbench_branches_pkey |            57344
 2017-02-03 22:49:52.009539+01 | 1486158592.00954 | pgbench_tellers_pkey  |           270336
 2017-02-03 22:49:52.009539+01 | 1486158592.00954 | pgbench_accounts_pkey |        224641024

 2017-02-03 22:49:53.090177+01 | 1486158593.09018 | pgbench_branches_pkey |            57344
 2017-02-03 22:49:53.090177+01 | 1486158593.09018 | pgbench_tellers_pkey  |           270336
 2017-02-03 22:49:53.090177+01 | 1486158593.09018 | pgbench_accounts_pkey |        224641024

 2017-02-03 22:49:54.171646+01 | 1486158594.17165 | pgbench_branches_pkey |            57344
 2017-02-03 22:49:54.171646+01 | 1486158594.17165 | pgbench_tellers_pkey  |           270336
 2017-02-03 22:49:54.171646+01 | 1486158594.17165 | pgbench_accounts_pkey |        224641024

 2017-02-03 22:49:55.255457+01 | 1486158595.25546 | pgbench_branches_pkey |            57344
 2017-02-03 22:49:55.255457+01 | 1486158595.25546 | pgbench_tellers_pkey  |           270336
 2017-02-03 22:49:55.255457+01 | 1486158595.25546 | pgbench_accounts_pkey |        224641024

 2017-02-03 22:49:56.344369+01 | 1486158596.34437 | pgbench_branches_pkey |            57344
 2017-02-03 22:49:56.344369+01 | 1486158596.34437 | pgbench_tellers_pkey  |           270336
 2017-02-03 22:49:56.344369+01 | 1486158596.34437 | pgbench_accounts_pkey |        224641024

 2017-02-03 22:49:57.424784+01 | 1486158597.42478 | pgbench_branches_pkey |            57344
 2017-02-03 22:49:57.424784+01 | 1486158597.42478 | pgbench_tellers_pkey  |           270336
 2017-02-03 22:49:57.424784+01 | 1486158597.42478 | pgbench_accounts_pkey |        224641024

 2017-02-03 22:49:58.499588+01 | 1486158598.49959 | pgbench_branches_pkey |            57344
 2017-02-03 22:49:58.499588+01 | 1486158598.49959 | pgbench_tellers_pkey  |           270336
 2017-02-03 22:49:58.499588+01 | 1486158598.49959 | pgbench_accounts_pkey |        224641024

 2017-02-03 22:49:59.581374+01 | 1486158599.58137 | pgbench_branches_pkey |            57344
 2017-02-03 22:49:59.581374+01 | 1486158599.58137 | pgbench_tellers_pkey  |           270336
 2017-02-03 22:49:59.581374+01 | 1486158599.58137 | pgbench_accounts_pkey |        224641024

 2017-02-03 22:50:00.653576+01 | 1486158600.65358 | pgbench_branches_pkey |            57344
 2017-02-03 22:50:00.653576+01 | 1486158600.65358 | pgbench_tellers_pkey  |           270336
 2017-02-03 22:50:00.653576+01 | 1486158600.65358 | pgbench_accounts_pkey |        224641024

 2017-02-03 22:50:01.732853+01 | 1486158601.73285 | pgbench_branches_pkey |            57344
 2017-02-03 22:50:01.732853+01 | 1486158601.73285 | pgbench_tellers_pkey  |           270336
 2017-02-03 22:50:01.732853+01 | 1486158601.73285 | pgbench_accounts_pkey |        224641024

 2017-02-03 22:50:02.815483+01 | 1486158602.81548 | pgbench_branches_pkey |            57344
 2017-02-03 22:50:02.815483+01 | 1486158602.81548 | pgbench_tellers_pkey  |           270336
 2017-02-03 22:50:02.815483+01 | 1486158602.81548 | pgbench_accounts_pkey |        224641024

 2017-02-03 22:50:03.903632+01 | 1486158603.90363 | pgbench_branches_pkey |            57344
 2017-02-03 22:50:03.903632+01 | 1486158603.90363 | pgbench_tellers_pkey  |           270336
 2017-02-03 22:50:03.903632+01 | 1486158603.90363 | pgbench_accounts_pkey |        224641024

 2017-02-03 22:50:04.980722+01 | 1486158604.98072 | pgbench_branches_pkey |            57344
 2017-02-03 22:50:04.980722+01 | 1486158604.98072 | pgbench_tellers_pkey  |           270336
 2017-02-03 22:50:04.980722+01 | 1486158604.98072 | pgbench_accounts_pkey |        224641024

 2017-02-03 22:50:06.064346+01 | 1486158606.06435 | pgbench_branches_pkey |            57344
 2017-02-03 22:50:06.064346+01 | 1486158606.06435 | pgbench_tellers_pkey  |           270336
 2017-02-03 22:50:06.064346+01 | 1486158606.06435 | pgbench_accounts_pkey |        224641024

 2017-02-03 22:50:07.149494+01 | 1486158607.14949 | pgbench_branches_pkey |            57344
 2017-02-03 22:50:07.149494+01 | 1486158607.14949 | pgbench_tellers_pkey  |           270336
 2017-02-03 22:50:07.149494+01 | 1486158607.14949 | pgbench_accounts_pkey |        224641024

 2017-02-03 22:50:08.226174+01 | 1486158608.22617 | pgbench_branches_pkey |            57344
 2017-02-03 22:50:08.226174+01 | 1486158608.22617 | pgbench_tellers_pkey  |           270336
 2017-02-03 22:50:08.226174+01 | 1486158608.22617 | pgbench_accounts_pkey |        224641024

 2017-02-03 22:50:09.309294+01 | 1486158609.30929 | pgbench_branches_pkey |            57344
 2017-02-03 22:50:09.309294+01 | 1486158609.30929 | pgbench_tellers_pkey  |           270336
 2017-02-03 22:50:09.309294+01 | 1486158609.30929 | pgbench_accounts_pkey |        224641024

 2017-02-03 22:50:10.385172+01 | 1486158610.38517 | pgbench_branches_pkey |            57344
 2017-02-03 22:50:10.385172+01 | 1486158610.38517 | pgbench_tellers_pkey  |           270336
 2017-02-03 22:50:10.385172+01 | 1486158610.38517 | pgbench_accounts_pkey |        224641024

 2017-02-03 22:50:11.469326+01 | 1486158611.46933 | pgbench_branches_pkey |            57344
 2017-02-03 22:50:11.469326+01 | 1486158611.46933 | pgbench_tellers_pkey  |           270336
 2017-02-03 22:50:11.469326+01 | 1486158611.46933 | pgbench_accounts_pkey |        224641024

 2017-02-03 22:50:12.544209+01 | 1486158612.54421 | pgbench_branches_pkey |            57344
 2017-02-03 22:50:12.544209+01 | 1486158612.54421 | pgbench_tellers_pkey  |           270336
 2017-02-03 22:50:12.544209+01 | 1486158612.54421 | pgbench_accounts_pkey |        224641024

 2017-02-03 22:50:13.625894+01 | 1486158613.62589 | pgbench_branches_pkey |            57344
 2017-02-03 22:50:13.625894+01 | 1486158613.62589 | pgbench_tellers_pkey  |           270336
 2017-02-03 22:50:13.625894+01 | 1486158613.62589 | pgbench_accounts_pkey |        224641024

 2017-02-03 22:50:14.704428+01 | 1486158614.70443 | pgbench_branches_pkey |            57344
 2017-02-03 22:50:14.704428+01 | 1486158614.70443 | pgbench_tellers_pkey  |           270336
 2017-02-03 22:50:14.704428+01 | 1486158614.70443 | pgbench_accounts_pkey |        224641024

 2017-02-03 22:50:15.786795+01 | 1486158615.78679 | pgbench_branches_pkey |            57344
 2017-02-03 22:50:15.786795+01 | 1486158615.78679 | pgbench_tellers_pkey  |           270336
 2017-02-03 22:50:15.786795+01 | 1486158615.78679 | pgbench_accounts_pkey |        224641024

 2017-02-03 22:50:16.869144+01 | 1486158616.86914 | pgbench_branches_pkey |            57344
 2017-02-03 22:50:16.869144+01 | 1486158616.86914 | pgbench_tellers_pkey  |           270336
 2017-02-03 22:50:16.869144+01 | 1486158616.86914 | pgbench_accounts_pkey |        224641024

 2017-02-03 22:50:17.947107+01 | 1486158617.94711 | pgbench_branches_pkey |            57344
 2017-02-03 22:50:17.947107+01 | 1486158617.94711 | pgbench_tellers_pkey  |           270336
 2017-02-03 22:50:17.947107+01 | 1486158617.94711 | pgbench_accounts_pkey |        224641024

 2017-02-03 22:50:19.026568+01 | 1486158619.02657 | pgbench_branches_pkey |            57344
 2017-02-03 22:50:19.026568+01 | 1486158619.02657 | pgbench_tellers_pkey  |           270336
 2017-02-03 22:50:19.026568+01 | 1486158619.02657 | pgbench_accounts_pkey |        224641024

 2017-02-03 22:50:20.111961+01 | 1486158620.11196 | pgbench_branches_pkey |            57344
 2017-02-03 22:50:20.111961+01 | 1486158620.11196 | pgbench_tellers_pkey  |           270336
 2017-02-03 22:50:20.111961+01 | 1486158620.11196 | pgbench_accounts_pkey |        224641024

 2017-02-03 22:50:21.193104+01 | 1486158621.1931 | pgbench_branches_pkey |            57344
 2017-02-03 22:50:21.193104+01 | 1486158621.1931 | pgbench_tellers_pkey  |           270336
 2017-02-03 22:50:21.193104+01 | 1486158621.1931 | pgbench_accounts_pkey |        224641024

 2017-02-03 22:50:22.27902+01 | 1486158622.27902 | pgbench_branches_pkey |            57344
 2017-02-03 22:50:22.27902+01 | 1486158622.27902 | pgbench_tellers_pkey  |           270336
 2017-02-03 22:50:22.27902+01 | 1486158622.27902 | pgbench_accounts_pkey |        224641024

 2017-02-03 22:50:23.35348+01 | 1486158623.35348 | pgbench_branches_pkey |            57344
 2017-02-03 22:50:23.35348+01 | 1486158623.35348 | pgbench_tellers_pkey  |           270336
 2017-02-03 22:50:23.35348+01 | 1486158623.35348 | pgbench_accounts_pkey |        224641024

 2017-02-03 22:50:24.428444+01 | 1486158624.42844 | pgbench_branches_pkey |            57344
 2017-02-03 22:50:24.428444+01 | 1486158624.42844 | pgbench_tellers_pkey  |           270336
 2017-02-03 22:50:24.428444+01 | 1486158624.42844 | pgbench_accounts_pkey |        224641024

 2017-02-03 22:50:25.510234+01 | 1486158625.51023 | pgbench_branches_pkey |            57344
 2017-02-03 22:50:25.510234+01 | 1486158625.51023 | pgbench_tellers_pkey  |           270336
 2017-02-03 22:50:25.510234+01 | 1486158625.51023 | pgbench_accounts_pkey |        224641024

 2017-02-03 22:50:26.59214+01 | 1486158626.59214 | pgbench_branches_pkey |            57344
 2017-02-03 22:50:26.59214+01 | 1486158626.59214 | pgbench_tellers_pkey  |           270336
 2017-02-03 22:50:26.59214+01 | 1486158626.59214 | pgbench_accounts_pkey |        224641024

 2017-02-03 22:50:27.674824+01 | 1486158627.67482 | pgbench_branches_pkey |            57344
 2017-02-03 22:50:27.674824+01 | 1486158627.67482 | pgbench_tellers_pkey  |           270336
 2017-02-03 22:50:27.674824+01 | 1486158627.67482 | pgbench_accounts_pkey |        224641024

 2017-02-03 22:50:28.752181+01 | 1486158628.75218 | pgbench_branches_pkey |            57344
 2017-02-03 22:50:28.752181+01 | 1486158628.75218 | pgbench_tellers_pkey  |           270336
 2017-02-03 22:50:28.752181+01 | 1486158628.75218 | pgbench_accounts_pkey |        224641024

 2017-02-03 22:50:29.832831+01 | 1486158629.83283 | pgbench_branches_pkey |            57344
 2017-02-03 22:50:29.832831+01 | 1486158629.83283 | pgbench_tellers_pkey  |           270336
 2017-02-03 22:50:29.832831+01 | 1486158629.83283 | pgbench_accounts_pkey |        224641024

 2017-02-03 22:50:30.912351+01 | 1486158630.91235 | pgbench_branches_pkey |            57344
 2017-02-03 22:50:30.912351+01 | 1486158630.91235 | pgbench_tellers_pkey  |           270336
 2017-02-03 22:50:30.912351+01 | 1486158630.91235 | pgbench_accounts_pkey |        224641024

 2017-02-03 22:50:32.004298+01 | 1486158632.0043 | pgbench_branches_pkey |            57344
 2017-02-03 22:50:32.004298+01 | 1486158632.0043 | pgbench_tellers_pkey  |           270336
 2017-02-03 22:50:32.004298+01 | 1486158632.0043 | pgbench_accounts_pkey |        224641024

 2017-02-03 22:50:33.082134+01 | 1486158633.08213 | pgbench_branches_pkey |            57344
 2017-02-03 22:50:33.082134+01 | 1486158633.08213 | pgbench_tellers_pkey  |           270336
 2017-02-03 22:50:33.082134+01 | 1486158633.08213 | pgbench_accounts_pkey |        224641024

 2017-02-03 22:50:34.164257+01 | 1486158634.16426 | pgbench_branches_pkey |            57344
 2017-02-03 22:50:34.164257+01 | 1486158634.16426 | pgbench_tellers_pkey  |           270336
 2017-02-03 22:50:34.164257+01 | 1486158634.16426 | pgbench_accounts_pkey |        224641024

 2017-02-03 22:50:35.240602+01 | 1486158635.2406 | pgbench_branches_pkey |            57344
 2017-02-03 22:50:35.240602+01 | 1486158635.2406 | pgbench_tellers_pkey  |           270336
 2017-02-03 22:50:35.240602+01 | 1486158635.2406 | pgbench_accounts_pkey |        224641024

 2017-02-03 22:50:36.324032+01 | 1486158636.32403 | pgbench_branches_pkey |            57344
 2017-02-03 22:50:36.324032+01 | 1486158636.32403 | pgbench_tellers_pkey  |           270336
 2017-02-03 22:50:36.324032+01 | 1486158636.32403 | pgbench_accounts_pkey |        224641024

 2017-02-03 22:50:37.407384+01 | 1486158637.40738 | pgbench_branches_pkey |            57344
 2017-02-03 22:50:37.407384+01 | 1486158637.40738 | pgbench_tellers_pkey  |           270336
 2017-02-03 22:50:37.407384+01 | 1486158637.40738 | pgbench_accounts_pkey |        224641024

 2017-02-03 22:50:38.489593+01 | 1486158638.48959 | pgbench_branches_pkey |            57344
 2017-02-03 22:50:38.489593+01 | 1486158638.48959 | pgbench_tellers_pkey  |           270336
 2017-02-03 22:50:38.489593+01 | 1486158638.48959 | pgbench_accounts_pkey |        224641024

 2017-02-03 22:50:39.588008+01 | 1486158639.58801 | pgbench_branches_pkey |            57344
 2017-02-03 22:50:39.588008+01 | 1486158639.58801 | pgbench_tellers_pkey  |           270336
 2017-02-03 22:50:39.588008+01 | 1486158639.58801 | pgbench_accounts_pkey |        224641024

 2017-02-03 22:50:40.672316+01 | 1486158640.67232 | pgbench_branches_pkey |            57344
 2017-02-03 22:50:40.672316+01 | 1486158640.67232 | pgbench_tellers_pkey  |           270336
 2017-02-03 22:50:40.672316+01 | 1486158640.67232 | pgbench_accounts_pkey |        224641024

 2017-02-03 22:50:41.754269+01 | 1486158641.75427 | pgbench_branches_pkey |            57344
 2017-02-03 22:50:41.754269+01 | 1486158641.75427 | pgbench_tellers_pkey  |           270336
 2017-02-03 22:50:41.754269+01 | 1486158641.75427 | pgbench_accounts_pkey |        224641024

 2017-02-03 22:50:42.843055+01 | 1486158642.84306 | pgbench_branches_pkey |            57344
 2017-02-03 22:50:42.843055+01 | 1486158642.84306 | pgbench_tellers_pkey  |           270336
 2017-02-03 22:50:42.843055+01 | 1486158642.84306 | pgbench_accounts_pkey |        224641024

 2017-02-03 22:50:43.925651+01 | 1486158643.92565 | pgbench_branches_pkey |            57344
 2017-02-03 22:50:43.925651+01 | 1486158643.92565 | pgbench_tellers_pkey  |           270336
 2017-02-03 22:50:43.925651+01 | 1486158643.92565 | pgbench_accounts_pkey |        224641024

 2017-02-03 22:50:45.013946+01 | 1486158645.01395 | pgbench_branches_pkey |            57344
 2017-02-03 22:50:45.013946+01 | 1486158645.01395 | pgbench_tellers_pkey  |           270336
 2017-02-03 22:50:45.013946+01 | 1486158645.01395 | pgbench_accounts_pkey |        224641024

 2017-02-03 22:50:46.103935+01 | 1486158646.10394 | pgbench_branches_pkey |            57344
 2017-02-03 22:50:46.103935+01 | 1486158646.10394 | pgbench_tellers_pkey  |           270336
 2017-02-03 22:50:46.103935+01 | 1486158646.10394 | pgbench_accounts_pkey |        224641024

 2017-02-03 22:50:47.1718+01 | 1486158647.1718 | pgbench_branches_pkey |            57344
 2017-02-03 22:50:47.1718+01 | 1486158647.1718 | pgbench_tellers_pkey  |           270336
 2017-02-03 22:50:47.1718+01 | 1486158647.1718 | pgbench_accounts_pkey |        224641024

 2017-02-03 22:50:48.245006+01 | 1486158648.24501 | pgbench_branches_pkey |            57344
 2017-02-03 22:50:48.245006+01 | 1486158648.24501 | pgbench_tellers_pkey  |           270336
 2017-02-03 22:50:48.245006+01 | 1486158648.24501 | pgbench_accounts_pkey |        224641024

 2017-02-03 22:50:49.32269+01 | 1486158649.32269 | pgbench_branches_pkey |            57344
 2017-02-03 22:50:49.32269+01 | 1486158649.32269 | pgbench_tellers_pkey  |           270336
 2017-02-03 22:50:49.32269+01 | 1486158649.32269 | pgbench_accounts_pkey |        224641024

 2017-02-03 22:50:50.413144+01 | 1486158650.41314 | pgbench_branches_pkey |            57344
 2017-02-03 22:50:50.413144+01 | 1486158650.41314 | pgbench_tellers_pkey  |           270336
 2017-02-03 22:50:50.413144+01 | 1486158650.41314 | pgbench_accounts_pkey |        224641024

 2017-02-03 22:50:51.497712+01 | 1486158651.49771 | pgbench_branches_pkey |            57344
 2017-02-03 22:50:51.497712+01 | 1486158651.49771 | pgbench_tellers_pkey  |           270336
 2017-02-03 22:50:51.497712+01 | 1486158651.49771 | pgbench_accounts_pkey |        224641024

 2017-02-03 22:50:52.580042+01 | 1486158652.58004 | pgbench_branches_pkey |            57344
 2017-02-03 22:50:52.580042+01 | 1486158652.58004 | pgbench_tellers_pkey  |           270336
 2017-02-03 22:50:52.580042+01 | 1486158652.58004 | pgbench_accounts_pkey |        224641024

 2017-02-03 22:50:53.658431+01 | 1486158653.65843 | pgbench_branches_pkey |            57344
 2017-02-03 22:50:53.658431+01 | 1486158653.65843 | pgbench_tellers_pkey  |           270336
 2017-02-03 22:50:53.658431+01 | 1486158653.65843 | pgbench_accounts_pkey |        224641024

 2017-02-03 22:50:54.747549+01 | 1486158654.74755 | pgbench_branches_pkey |            57344
 2017-02-03 22:50:54.747549+01 | 1486158654.74755 | pgbench_tellers_pkey  |           270336
 2017-02-03 22:50:54.747549+01 | 1486158654.74755 | pgbench_accounts_pkey |        224641024

 2017-02-03 22:50:55.827084+01 | 1486158655.82708 | pgbench_branches_pkey |            57344
 2017-02-03 22:50:55.827084+01 | 1486158655.82708 | pgbench_tellers_pkey  |           270336
 2017-02-03 22:50:55.827084+01 | 1486158655.82708 | pgbench_accounts_pkey |        224641024

 2017-02-03 22:50:56.903955+01 | 1486158656.90395 | pgbench_branches_pkey |            57344
 2017-02-03 22:50:56.903955+01 | 1486158656.90395 | pgbench_tellers_pkey  |           270336
 2017-02-03 22:50:56.903955+01 | 1486158656.90395 | pgbench_accounts_pkey |        224641024

 2017-02-03 22:50:57.981442+01 | 1486158657.98144 | pgbench_branches_pkey |            57344
 2017-02-03 22:50:57.981442+01 | 1486158657.98144 | pgbench_tellers_pkey  |           270336
 2017-02-03 22:50:57.981442+01 | 1486158657.98144 | pgbench_accounts_pkey |        224641024

 2017-02-03 22:50:59.062634+01 | 1486158659.06263 | pgbench_branches_pkey |            57344
 2017-02-03 22:50:59.062634+01 | 1486158659.06263 | pgbench_tellers_pkey  |           270336
 2017-02-03 22:50:59.062634+01 | 1486158659.06263 | pgbench_accounts_pkey |        224641024

 2017-02-03 22:51:00.154377+01 | 1486158660.15438 | pgbench_branches_pkey |            57344
 2017-02-03 22:51:00.154377+01 | 1486158660.15438 | pgbench_tellers_pkey  |           270336
 2017-02-03 22:51:00.154377+01 | 1486158660.15438 | pgbench_accounts_pkey |        224641024

 2017-02-03 22:51:01.239122+01 | 1486158661.23912 | pgbench_branches_pkey |            57344
 2017-02-03 22:51:01.239122+01 | 1486158661.23912 | pgbench_tellers_pkey  |           270336
 2017-02-03 22:51:01.239122+01 | 1486158661.23912 | pgbench_accounts_pkey |        224641024

 2017-02-03 22:51:02.323371+01 | 1486158662.32337 | pgbench_branches_pkey |            57344
 2017-02-03 22:51:02.323371+01 | 1486158662.32337 | pgbench_tellers_pkey  |           270336
 2017-02-03 22:51:02.323371+01 | 1486158662.32337 | pgbench_accounts_pkey |        224641024

 2017-02-03 22:51:03.407913+01 | 1486158663.40791 | pgbench_branches_pkey |            57344
 2017-02-03 22:51:03.407913+01 | 1486158663.40791 | pgbench_tellers_pkey  |           270336
 2017-02-03 22:51:03.407913+01 | 1486158663.40791 | pgbench_accounts_pkey |        224641024

 2017-02-03 22:51:04.47745+01 | 1486158664.47745 | pgbench_branches_pkey |            57344
 2017-02-03 22:51:04.47745+01 | 1486158664.47745 | pgbench_tellers_pkey  |           270336
 2017-02-03 22:51:04.47745+01 | 1486158664.47745 | pgbench_accounts_pkey |        224641024

 2017-02-03 22:51:05.561696+01 | 1486158665.5617 | pgbench_branches_pkey |            57344
 2017-02-03 22:51:05.561696+01 | 1486158665.5617 | pgbench_tellers_pkey  |           270336
 2017-02-03 22:51:05.561696+01 | 1486158665.5617 | pgbench_accounts_pkey |        224641024

 2017-02-03 22:51:06.651369+01 | 1486158666.65137 | pgbench_branches_pkey |            57344
 2017-02-03 22:51:06.651369+01 | 1486158666.65137 | pgbench_tellers_pkey  |           270336
 2017-02-03 22:51:06.651369+01 | 1486158666.65137 | pgbench_accounts_pkey |        224641024

 2017-02-03 22:51:07.737369+01 | 1486158667.73737 | pgbench_branches_pkey |            57344
 2017-02-03 22:51:07.737369+01 | 1486158667.73737 | pgbench_tellers_pkey  |           270336
 2017-02-03 22:51:07.737369+01 | 1486158667.73737 | pgbench_accounts_pkey |        224641024

 2017-02-03 22:51:08.82905+01 | 1486158668.82905 | pgbench_branches_pkey |            57344
 2017-02-03 22:51:08.82905+01 | 1486158668.82905 | pgbench_tellers_pkey  |           270336
 2017-02-03 22:51:08.82905+01 | 1486158668.82905 | pgbench_accounts_pkey |        224641024

 2017-02-03 22:51:09.910118+01 | 1486158669.91012 | pgbench_branches_pkey |            57344
 2017-02-03 22:51:09.910118+01 | 1486158669.91012 | pgbench_tellers_pkey  |           270336
 2017-02-03 22:51:09.910118+01 | 1486158669.91012 | pgbench_accounts_pkey |        224641024

 2017-02-03 22:51:10.993638+01 | 1486158670.99364 | pgbench_branches_pkey |            57344
 2017-02-03 22:51:10.993638+01 | 1486158670.99364 | pgbench_tellers_pkey  |           270336
 2017-02-03 22:51:10.993638+01 | 1486158670.99364 | pgbench_accounts_pkey |        224641024

 2017-02-03 22:51:12.0809+01 | 1486158672.0809 | pgbench_branches_pkey |            57344
 2017-02-03 22:51:12.0809+01 | 1486158672.0809 | pgbench_tellers_pkey  |           270336
 2017-02-03 22:51:12.0809+01 | 1486158672.0809 | pgbench_accounts_pkey |        224641024

 2017-02-03 22:51:13.15908+01 | 1486158673.15908 | pgbench_branches_pkey |            57344
 2017-02-03 22:51:13.15908+01 | 1486158673.15908 | pgbench_tellers_pkey  |           270336
 2017-02-03 22:51:13.15908+01 | 1486158673.15908 | pgbench_accounts_pkey |        224641024

 2017-02-03 22:51:14.243231+01 | 1486158674.24323 | pgbench_branches_pkey |            57344
 2017-02-03 22:51:14.243231+01 | 1486158674.24323 | pgbench_tellers_pkey  |           270336
 2017-02-03 22:51:14.243231+01 | 1486158674.24323 | pgbench_accounts_pkey |        224641024

 2017-02-03 22:51:15.318399+01 | 1486158675.3184 | pgbench_branches_pkey |            57344
 2017-02-03 22:51:15.318399+01 | 1486158675.3184 | pgbench_tellers_pkey  |           270336
 2017-02-03 22:51:15.318399+01 | 1486158675.3184 | pgbench_accounts_pkey |        224641024

 2017-02-03 22:51:16.402216+01 | 1486158676.40222 | pgbench_branches_pkey |            57344
 2017-02-03 22:51:16.402216+01 | 1486158676.40222 | pgbench_tellers_pkey  |           270336
 2017-02-03 22:51:16.402216+01 | 1486158676.40222 | pgbench_accounts_pkey |        224641024

 2017-02-03 22:51:17.481575+01 | 1486158677.48158 | pgbench_branches_pkey |            57344
 2017-02-03 22:51:17.481575+01 | 1486158677.48158 | pgbench_tellers_pkey  |           270336
 2017-02-03 22:51:17.481575+01 | 1486158677.48158 | pgbench_accounts_pkey |        224641024

 2017-02-03 22:51:18.563835+01 | 1486158678.56383 | pgbench_branches_pkey |            57344
 2017-02-03 22:51:18.563835+01 | 1486158678.56383 | pgbench_tellers_pkey  |           270336
 2017-02-03 22:51:18.563835+01 | 1486158678.56383 | pgbench_accounts_pkey |        224641024

 2017-02-03 22:51:19.645156+01 | 1486158679.64516 | pgbench_branches_pkey |            57344
 2017-02-03 22:51:19.645156+01 | 1486158679.64516 | pgbench_tellers_pkey  |           270336
 2017-02-03 22:51:19.645156+01 | 1486158679.64516 | pgbench_accounts_pkey |        224641024

 2017-02-03 22:51:20.727898+01 | 1486158680.7279 | pgbench_branches_pkey |            57344
 2017-02-03 22:51:20.727898+01 | 1486158680.7279 | pgbench_tellers_pkey  |           270336
 2017-02-03 22:51:20.727898+01 | 1486158680.7279 | pgbench_accounts_pkey |        224641024

 2017-02-03 22:51:21.813102+01 | 1486158681.8131 | pgbench_branches_pkey |            57344
 2017-02-03 22:51:21.813102+01 | 1486158681.8131 | pgbench_tellers_pkey  |           270336
 2017-02-03 22:51:21.813102+01 | 1486158681.8131 | pgbench_accounts_pkey |        224641024

 2017-02-03 22:51:22.897289+01 | 1486158682.89729 | pgbench_branches_pkey |            57344
 2017-02-03 22:51:22.897289+01 | 1486158682.89729 | pgbench_tellers_pkey  |           270336
 2017-02-03 22:51:22.897289+01 | 1486158682.89729 | pgbench_accounts_pkey |        224641024

 2017-02-03 22:51:23.984492+01 | 1486158683.98449 | pgbench_branches_pkey |            57344
 2017-02-03 22:51:23.984492+01 | 1486158683.98449 | pgbench_tellers_pkey  |           270336
 2017-02-03 22:51:23.984492+01 | 1486158683.98449 | pgbench_accounts_pkey |        224641024

 2017-02-03 22:51:25.069966+01 | 1486158685.06997 | pgbench_branches_pkey |            57344
 2017-02-03 22:51:25.069966+01 | 1486158685.06997 | pgbench_tellers_pkey  |           270336
 2017-02-03 22:51:25.069966+01 | 1486158685.06997 | pgbench_accounts_pkey |        224641024

 2017-02-03 22:51:26.159017+01 | 1486158686.15902 | pgbench_branches_pkey |            57344
 2017-02-03 22:51:26.159017+01 | 1486158686.15902 | pgbench_tellers_pkey  |           270336
 2017-02-03 22:51:26.159017+01 | 1486158686.15902 | pgbench_accounts_pkey |        224641024

 2017-02-03 22:51:27.243999+01 | 1486158687.244 | pgbench_branches_pkey |            57344
 2017-02-03 22:51:27.243999+01 | 1486158687.244 | pgbench_tellers_pkey  |           270336
 2017-02-03 22:51:27.243999+01 | 1486158687.244 | pgbench_accounts_pkey |        224641024

 2017-02-03 22:51:28.333972+01 | 1486158688.33397 | pgbench_branches_pkey |            57344
 2017-02-03 22:51:28.333972+01 | 1486158688.33397 | pgbench_tellers_pkey  |           270336
 2017-02-03 22:51:28.333972+01 | 1486158688.33397 | pgbench_accounts_pkey |        224641024

 2017-02-03 22:51:29.412543+01 | 1486158689.41254 | pgbench_branches_pkey |            57344
 2017-02-03 22:51:29.412543+01 | 1486158689.41254 | pgbench_tellers_pkey  |           270336
 2017-02-03 22:51:29.412543+01 | 1486158689.41254 | pgbench_accounts_pkey |        224641024

 2017-02-03 22:51:30.486103+01 | 1486158690.4861 | pgbench_branches_pkey |            57344
 2017-02-03 22:51:30.486103+01 | 1486158690.4861 | pgbench_tellers_pkey  |           270336
 2017-02-03 22:51:30.486103+01 | 1486158690.4861 | pgbench_accounts_pkey |        224641024

 2017-02-03 22:51:31.575112+01 | 1486158691.57511 | pgbench_branches_pkey |            57344
 2017-02-03 22:51:31.575112+01 | 1486158691.57511 | pgbench_tellers_pkey  |           270336
 2017-02-03 22:51:31.575112+01 | 1486158691.57511 | pgbench_accounts_pkey |        224641024

 2017-02-03 22:51:32.652353+01 | 1486158692.65235 | pgbench_branches_pkey |            57344
 2017-02-03 22:51:32.652353+01 | 1486158692.65235 | pgbench_tellers_pkey  |           270336
 2017-02-03 22:51:32.652353+01 | 1486158692.65235 | pgbench_accounts_pkey |        224641024

 2017-02-03 22:51:33.730838+01 | 1486158693.73084 | pgbench_branches_pkey |            57344
 2017-02-03 22:51:33.730838+01 | 1486158693.73084 | pgbench_tellers_pkey  |           270336
 2017-02-03 22:51:33.730838+01 | 1486158693.73084 | pgbench_accounts_pkey |        224641024

 2017-02-03 22:51:34.820043+01 | 1486158694.82004 | pgbench_branches_pkey |            57344
 2017-02-03 22:51:34.820043+01 | 1486158694.82004 | pgbench_tellers_pkey  |           270336
 2017-02-03 22:51:34.820043+01 | 1486158694.82004 | pgbench_accounts_pkey |        224641024

 2017-02-03 22:51:35.909698+01 | 1486158695.9097 | pgbench_branches_pkey |            57344
 2017-02-03 22:51:35.909698+01 | 1486158695.9097 | pgbench_tellers_pkey  |           270336
 2017-02-03 22:51:35.909698+01 | 1486158695.9097 | pgbench_accounts_pkey |        224641024

 2017-02-03 22:51:36.998396+01 | 1486158696.9984 | pgbench_branches_pkey |            57344
 2017-02-03 22:51:36.998396+01 | 1486158696.9984 | pgbench_tellers_pkey  |           270336
 2017-02-03 22:51:36.998396+01 | 1486158696.9984 | pgbench_accounts_pkey |        224641024

 2017-02-03 22:51:38.083563+01 | 1486158698.08356 | pgbench_branches_pkey |            57344
 2017-02-03 22:51:38.083563+01 | 1486158698.08356 | pgbench_tellers_pkey  |           270336
 2017-02-03 22:51:38.083563+01 | 1486158698.08356 | pgbench_accounts_pkey |        224641024

 2017-02-03 22:51:39.178436+01 | 1486158699.17844 | pgbench_branches_pkey |            57344
 2017-02-03 22:51:39.178436+01 | 1486158699.17844 | pgbench_tellers_pkey  |           270336
 2017-02-03 22:51:39.178436+01 | 1486158699.17844 | pgbench_accounts_pkey |        224641024

 2017-02-03 22:51:40.266874+01 | 1486158700.26687 | pgbench_branches_pkey |            57344
 2017-02-03 22:51:40.266874+01 | 1486158700.26687 | pgbench_tellers_pkey  |           270336
 2017-02-03 22:51:40.266874+01 | 1486158700.26687 | pgbench_accounts_pkey |        224641024

 2017-02-03 22:51:41.353234+01 | 1486158701.35323 | pgbench_branches_pkey |            57344
 2017-02-03 22:51:41.353234+01 | 1486158701.35323 | pgbench_tellers_pkey  |           270336
 2017-02-03 22:51:41.353234+01 | 1486158701.35323 | pgbench_accounts_pkey |        224641024

 2017-02-03 22:51:42.441063+01 | 1486158702.44106 | pgbench_branches_pkey |            57344
 2017-02-03 22:51:42.441063+01 | 1486158702.44106 | pgbench_tellers_pkey  |           270336
 2017-02-03 22:51:42.441063+01 | 1486158702.44106 | pgbench_accounts_pkey |        224641024

 2017-02-03 22:51:43.516121+01 | 1486158703.51612 | pgbench_branches_pkey |            57344
 2017-02-03 22:51:43.516121+01 | 1486158703.51612 | pgbench_tellers_pkey  |           270336
 2017-02-03 22:51:43.516121+01 | 1486158703.51612 | pgbench_accounts_pkey |        224641024

 2017-02-03 22:51:44.585461+01 | 1486158704.58546 | pgbench_branches_pkey |            57344
 2017-02-03 22:51:44.585461+01 | 1486158704.58546 | pgbench_tellers_pkey  |           270336
 2017-02-03 22:51:44.585461+01 | 1486158704.58546 | pgbench_accounts_pkey |        224641024

 2017-02-03 22:51:45.667267+01 | 1486158705.66727 | pgbench_branches_pkey |            57344
 2017-02-03 22:51:45.667267+01 | 1486158705.66727 | pgbench_tellers_pkey  |           270336
 2017-02-03 22:51:45.667267+01 | 1486158705.66727 | pgbench_accounts_pkey |        224641024

 2017-02-03 22:51:46.755156+01 | 1486158706.75516 | pgbench_branches_pkey |            57344
 2017-02-03 22:51:46.755156+01 | 1486158706.75516 | pgbench_tellers_pkey  |           270336
 2017-02-03 22:51:46.755156+01 | 1486158706.75516 | pgbench_accounts_pkey |        224641024

 2017-02-03 22:51:47.836787+01 | 1486158707.83679 | pgbench_branches_pkey |            57344
 2017-02-03 22:51:47.836787+01 | 1486158707.83679 | pgbench_tellers_pkey  |           270336
 2017-02-03 22:51:47.836787+01 | 1486158707.83679 | pgbench_accounts_pkey |        224641024

 2017-02-03 22:51:48.90985+01 | 1486158708.90985 | pgbench_branches_pkey |            57344
 2017-02-03 22:51:48.90985+01 | 1486158708.90985 | pgbench_tellers_pkey  |           270336
 2017-02-03 22:51:48.90985+01 | 1486158708.90985 | pgbench_accounts_pkey |        224641024

 2017-02-03 22:51:49.977973+01 | 1486158709.97797 | pgbench_branches_pkey |            57344
 2017-02-03 22:51:49.977973+01 | 1486158709.97797 | pgbench_tellers_pkey  |           270336
 2017-02-03 22:51:49.977973+01 | 1486158709.97797 | pgbench_accounts_pkey |        224641024

 2017-02-03 22:51:51.055464+01 | 1486158711.05546 | pgbench_branches_pkey |            57344
 2017-02-03 22:51:51.055464+01 | 1486158711.05546 | pgbench_tellers_pkey  |           270336
 2017-02-03 22:51:51.055464+01 | 1486158711.05546 | pgbench_accounts_pkey |        224641024

 2017-02-03 22:51:52.128197+01 | 1486158712.1282 | pgbench_branches_pkey |            57344
 2017-02-03 22:51:52.128197+01 | 1486158712.1282 | pgbench_tellers_pkey  |           270336
 2017-02-03 22:51:52.128197+01 | 1486158712.1282 | pgbench_accounts_pkey |        224641024

 2017-02-03 22:51:53.211214+01 | 1486158713.21121 | pgbench_branches_pkey |            57344
 2017-02-03 22:51:53.211214+01 | 1486158713.21121 | pgbench_tellers_pkey  |           270336
 2017-02-03 22:51:53.211214+01 | 1486158713.21121 | pgbench_accounts_pkey |        224641024

 2017-02-03 22:51:54.28745+01 | 1486158714.28745 | pgbench_branches_pkey |            57344
 2017-02-03 22:51:54.28745+01 | 1486158714.28745 | pgbench_tellers_pkey  |           270336
 2017-02-03 22:51:54.28745+01 | 1486158714.28745 | pgbench_accounts_pkey |        224641024

 2017-02-03 22:51:55.374491+01 | 1486158715.37449 | pgbench_branches_pkey |            57344
 2017-02-03 22:51:55.374491+01 | 1486158715.37449 | pgbench_tellers_pkey  |           270336
 2017-02-03 22:51:55.374491+01 | 1486158715.37449 | pgbench_accounts_pkey |        224641024

 2017-02-03 22:51:56.462813+01 | 1486158716.46281 | pgbench_branches_pkey |            57344
 2017-02-03 22:51:56.462813+01 | 1486158716.46281 | pgbench_tellers_pkey  |           270336
 2017-02-03 22:51:56.462813+01 | 1486158716.46281 | pgbench_accounts_pkey |        224641024

 2017-02-03 22:51:57.543777+01 | 1486158717.54378 | pgbench_branches_pkey |            57344
 2017-02-03 22:51:57.543777+01 | 1486158717.54378 | pgbench_tellers_pkey  |           270336
 2017-02-03 22:51:57.543777+01 | 1486158717.54378 | pgbench_accounts_pkey |        224641024

 2017-02-03 22:51:58.63061+01 | 1486158718.63061 | pgbench_branches_pkey |            57344
 2017-02-03 22:51:58.63061+01 | 1486158718.63061 | pgbench_tellers_pkey  |           270336
 2017-02-03 22:51:58.63061+01 | 1486158718.63061 | pgbench_accounts_pkey |        224641024

 2017-02-03 22:51:59.715357+01 | 1486158719.71536 | pgbench_branches_pkey |            57344
 2017-02-03 22:51:59.715357+01 | 1486158719.71536 | pgbench_tellers_pkey  |           270336
 2017-02-03 22:51:59.715357+01 | 1486158719.71536 | pgbench_accounts_pkey |        224641024

 2017-02-03 22:52:00.803177+01 | 1486158720.80318 | pgbench_branches_pkey |            57344
 2017-02-03 22:52:00.803177+01 | 1486158720.80318 | pgbench_tellers_pkey  |           270336
 2017-02-03 22:52:00.803177+01 | 1486158720.80318 | pgbench_accounts_pkey |        224641024

 2017-02-03 22:52:01.89101+01 | 1486158721.89101 | pgbench_branches_pkey |            57344
 2017-02-03 22:52:01.89101+01 | 1486158721.89101 | pgbench_tellers_pkey  |           270336
 2017-02-03 22:52:01.89101+01 | 1486158721.89101 | pgbench_accounts_pkey |        224641024

 2017-02-03 22:52:02.983981+01 | 1486158722.98398 | pgbench_branches_pkey |            57344
 2017-02-03 22:52:02.983981+01 | 1486158722.98398 | pgbench_tellers_pkey  |           270336
 2017-02-03 22:52:02.983981+01 | 1486158722.98398 | pgbench_accounts_pkey |        224641024

 2017-02-03 22:52:04.060134+01 | 1486158724.06013 | pgbench_branches_pkey |            57344
 2017-02-03 22:52:04.060134+01 | 1486158724.06013 | pgbench_tellers_pkey  |           270336
 2017-02-03 22:52:04.060134+01 | 1486158724.06013 | pgbench_accounts_pkey |        224641024

 2017-02-03 22:52:05.148432+01 | 1486158725.14843 | pgbench_branches_pkey |            57344
 2017-02-03 22:52:05.148432+01 | 1486158725.14843 | pgbench_tellers_pkey  |           270336
 2017-02-03 22:52:05.148432+01 | 1486158725.14843 | pgbench_accounts_pkey |        224641024

 2017-02-03 22:52:06.238386+01 | 1486158726.23839 | pgbench_branches_pkey |            57344
 2017-02-03 22:52:06.238386+01 | 1486158726.23839 | pgbench_tellers_pkey  |           270336
 2017-02-03 22:52:06.238386+01 | 1486158726.23839 | pgbench_accounts_pkey |        224641024

 2017-02-03 22:52:07.327009+01 | 1486158727.32701 | pgbench_branches_pkey |            57344
 2017-02-03 22:52:07.327009+01 | 1486158727.32701 | pgbench_tellers_pkey  |           270336
 2017-02-03 22:52:07.327009+01 | 1486158727.32701 | pgbench_accounts_pkey |        224641024

 2017-02-03 22:52:08.410446+01 | 1486158728.41045 | pgbench_branches_pkey |            57344
 2017-02-03 22:52:08.410446+01 | 1486158728.41045 | pgbench_tellers_pkey  |           270336
 2017-02-03 22:52:08.410446+01 | 1486158728.41045 | pgbench_accounts_pkey |        224641024

 2017-02-03 22:52:09.486374+01 | 1486158729.48637 | pgbench_branches_pkey |            57344
 2017-02-03 22:52:09.486374+01 | 1486158729.48637 | pgbench_tellers_pkey  |           270336
 2017-02-03 22:52:09.486374+01 | 1486158729.48637 | pgbench_accounts_pkey |        224641024

 2017-02-03 22:52:10.554569+01 | 1486158730.55457 | pgbench_branches_pkey |            57344
 2017-02-03 22:52:10.554569+01 | 1486158730.55457 | pgbench_tellers_pkey  |           270336
 2017-02-03 22:52:10.554569+01 | 1486158730.55457 | pgbench_accounts_pkey |        224641024

 2017-02-03 22:52:11.638806+01 | 1486158731.63881 | pgbench_branches_pkey |            57344
 2017-02-03 22:52:11.638806+01 | 1486158731.63881 | pgbench_tellers_pkey  |           270336
 2017-02-03 22:52:11.638806+01 | 1486158731.63881 | pgbench_accounts_pkey |        224641024

 2017-02-03 22:52:12.723488+01 | 1486158732.72349 | pgbench_branches_pkey |            57344
 2017-02-03 22:52:12.723488+01 | 1486158732.72349 | pgbench_tellers_pkey  |           270336
 2017-02-03 22:52:12.723488+01 | 1486158732.72349 | pgbench_accounts_pkey |        224641024

 2017-02-03 22:52:13.810259+01 | 1486158733.81026 | pgbench_branches_pkey |            57344
 2017-02-03 22:52:13.810259+01 | 1486158733.81026 | pgbench_tellers_pkey  |           270336
 2017-02-03 22:52:13.810259+01 | 1486158733.81026 | pgbench_accounts_pkey |        224641024

 2017-02-03 22:52:14.902182+01 | 1486158734.90218 | pgbench_branches_pkey |            57344
 2017-02-03 22:52:14.902182+01 | 1486158734.90218 | pgbench_tellers_pkey  |           270336
 2017-02-03 22:52:14.902182+01 | 1486158734.90218 | pgbench_accounts_pkey |        224641024

 2017-02-03 22:52:15.992229+01 | 1486158735.99223 | pgbench_branches_pkey |            57344
 2017-02-03 22:52:15.992229+01 | 1486158735.99223 | pgbench_tellers_pkey  |           270336
 2017-02-03 22:52:15.992229+01 | 1486158735.99223 | pgbench_accounts_pkey |        224641024

 2017-02-03 22:52:17.068601+01 | 1486158737.0686 | pgbench_branches_pkey |            57344
 2017-02-03 22:52:17.068601+01 | 1486158737.0686 | pgbench_tellers_pkey  |           270336
 2017-02-03 22:52:17.068601+01 | 1486158737.0686 | pgbench_accounts_pkey |        224641024

 2017-02-03 22:52:18.156798+01 | 1486158738.1568 | pgbench_branches_pkey |            57344
 2017-02-03 22:52:18.156798+01 | 1486158738.1568 | pgbench_tellers_pkey  |           270336
 2017-02-03 22:52:18.156798+01 | 1486158738.1568 | pgbench_accounts_pkey |        224641024

 2017-02-03 22:52:19.233569+01 | 1486158739.23357 | pgbench_branches_pkey |            57344
 2017-02-03 22:52:19.233569+01 | 1486158739.23357 | pgbench_tellers_pkey  |           270336
 2017-02-03 22:52:19.233569+01 | 1486158739.23357 | pgbench_accounts_pkey |        224641024

 2017-02-03 22:52:20.30995+01 | 1486158740.30995 | pgbench_branches_pkey |            57344
 2017-02-03 22:52:20.30995+01 | 1486158740.30995 | pgbench_tellers_pkey  |           270336
 2017-02-03 22:52:20.30995+01 | 1486158740.30995 | pgbench_accounts_pkey |        224641024

 2017-02-03 22:52:21.391443+01 | 1486158741.39144 | pgbench_branches_pkey |            57344
 2017-02-03 22:52:21.391443+01 | 1486158741.39144 | pgbench_tellers_pkey  |           270336
 2017-02-03 22:52:21.391443+01 | 1486158741.39144 | pgbench_accounts_pkey |        224641024

 2017-02-03 22:52:22.463521+01 | 1486158742.46352 | pgbench_branches_pkey |            57344
 2017-02-03 22:52:22.463521+01 | 1486158742.46352 | pgbench_tellers_pkey  |           270336
 2017-02-03 22:52:22.463521+01 | 1486158742.46352 | pgbench_accounts_pkey |        224641024

 2017-02-03 22:52:23.538667+01 | 1486158743.53867 | pgbench_branches_pkey |            57344
 2017-02-03 22:52:23.538667+01 | 1486158743.53867 | pgbench_tellers_pkey  |           270336
 2017-02-03 22:52:23.538667+01 | 1486158743.53867 | pgbench_accounts_pkey |        224641024

 2017-02-03 22:52:24.623039+01 | 1486158744.62304 | pgbench_branches_pkey |            57344
 2017-02-03 22:52:24.623039+01 | 1486158744.62304 | pgbench_tellers_pkey  |           270336
 2017-02-03 22:52:24.623039+01 | 1486158744.62304 | pgbench_accounts_pkey |        224641024

 2017-02-03 22:52:25.694164+01 | 1486158745.69416 | pgbench_branches_pkey |            57344
 2017-02-03 22:52:25.694164+01 | 1486158745.69416 | pgbench_tellers_pkey  |           270336
 2017-02-03 22:52:25.694164+01 | 1486158745.69416 | pgbench_accounts_pkey |        224641024

 2017-02-03 22:52:26.766523+01 | 1486158746.76652 | pgbench_branches_pkey |            57344
 2017-02-03 22:52:26.766523+01 | 1486158746.76652 | pgbench_tellers_pkey  |           270336
 2017-02-03 22:52:26.766523+01 | 1486158746.76652 | pgbench_accounts_pkey |        224641024

 2017-02-03 22:52:27.848065+01 | 1486158747.84806 | pgbench_branches_pkey |            57344
 2017-02-03 22:52:27.848065+01 | 1486158747.84806 | pgbench_tellers_pkey  |           270336
 2017-02-03 22:52:27.848065+01 | 1486158747.84806 | pgbench_accounts_pkey |        224641024

 2017-02-03 22:52:28.935546+01 | 1486158748.93555 | pgbench_branches_pkey |            57344
 2017-02-03 22:52:28.935546+01 | 1486158748.93555 | pgbench_tellers_pkey  |           270336
 2017-02-03 22:52:28.935546+01 | 1486158748.93555 | pgbench_accounts_pkey |        224641024

 2017-02-03 22:52:30.011521+01 | 1486158750.01152 | pgbench_branches_pkey |            57344
 2017-02-03 22:52:30.011521+01 | 1486158750.01152 | pgbench_tellers_pkey  |           270336
 2017-02-03 22:52:30.011521+01 | 1486158750.01152 | pgbench_accounts_pkey |        224641024

 2017-02-03 22:52:31.078596+01 | 1486158751.0786 | pgbench_branches_pkey |            57344
 2017-02-03 22:52:31.078596+01 | 1486158751.0786 | pgbench_tellers_pkey  |           270336
 2017-02-03 22:52:31.078596+01 | 1486158751.0786 | pgbench_accounts_pkey |        224641024

 2017-02-03 22:52:32.162739+01 | 1486158752.16274 | pgbench_branches_pkey |            57344
 2017-02-03 22:52:32.162739+01 | 1486158752.16274 | pgbench_tellers_pkey  |           270336
 2017-02-03 22:52:32.162739+01 | 1486158752.16274 | pgbench_accounts_pkey |        224641024

 2017-02-03 22:52:33.233808+01 | 1486158753.23381 | pgbench_branches_pkey |            57344
 2017-02-03 22:52:33.233808+01 | 1486158753.23381 | pgbench_tellers_pkey  |           270336
 2017-02-03 22:52:33.233808+01 | 1486158753.23381 | pgbench_accounts_pkey |        224641024

 2017-02-03 22:52:34.316879+01 | 1486158754.31688 | pgbench_branches_pkey |            57344
 2017-02-03 22:52:34.316879+01 | 1486158754.31688 | pgbench_tellers_pkey  |           270336
 2017-02-03 22:52:34.316879+01 | 1486158754.31688 | pgbench_accounts_pkey |        224641024

 2017-02-03 22:52:35.39752+01 | 1486158755.39752 | pgbench_branches_pkey |            57344
 2017-02-03 22:52:35.39752+01 | 1486158755.39752 | pgbench_tellers_pkey  |           270336
 2017-02-03 22:52:35.39752+01 | 1486158755.39752 | pgbench_accounts_pkey |        224641024

 2017-02-03 22:52:36.477722+01 | 1486158756.47772 | pgbench_branches_pkey |            57344
 2017-02-03 22:52:36.477722+01 | 1486158756.47772 | pgbench_tellers_pkey  |           270336
 2017-02-03 22:52:36.477722+01 | 1486158756.47772 | pgbench_accounts_pkey |        224641024

 2017-02-03 22:52:37.55854+01 | 1486158757.55854 | pgbench_branches_pkey |            57344
 2017-02-03 22:52:37.55854+01 | 1486158757.55854 | pgbench_tellers_pkey  |           270336
 2017-02-03 22:52:37.55854+01 | 1486158757.55854 | pgbench_accounts_pkey |        224641024

 2017-02-03 22:52:38.637274+01 | 1486158758.63727 | pgbench_branches_pkey |            57344
 2017-02-03 22:52:38.637274+01 | 1486158758.63727 | pgbench_tellers_pkey  |           270336
 2017-02-03 22:52:38.637274+01 | 1486158758.63727 | pgbench_accounts_pkey |        224641024

 2017-02-03 22:52:39.720081+01 | 1486158759.72008 | pgbench_branches_pkey |            57344
 2017-02-03 22:52:39.720081+01 | 1486158759.72008 | pgbench_tellers_pkey  |           270336
 2017-02-03 22:52:39.720081+01 | 1486158759.72008 | pgbench_accounts_pkey |        224641024

 2017-02-03 22:52:40.80835+01 | 1486158760.80835 | pgbench_branches_pkey |            57344
 2017-02-03 22:52:40.80835+01 | 1486158760.80835 | pgbench_tellers_pkey  |           270336
 2017-02-03 22:52:40.80835+01 | 1486158760.80835 | pgbench_accounts_pkey |        224641024

 2017-02-03 22:52:41.901786+01 | 1486158761.90179 | pgbench_branches_pkey |            57344
 2017-02-03 22:52:41.901786+01 | 1486158761.90179 | pgbench_tellers_pkey  |           270336
 2017-02-03 22:52:41.901786+01 | 1486158761.90179 | pgbench_accounts_pkey |        224641024

 2017-02-03 22:52:42.975195+01 | 1486158762.97519 | pgbench_branches_pkey |            57344
 2017-02-03 22:52:42.975195+01 | 1486158762.97519 | pgbench_tellers_pkey  |           270336
 2017-02-03 22:52:42.975195+01 | 1486158762.97519 | pgbench_accounts_pkey |        224641024

 2017-02-03 22:52:44.064472+01 | 1486158764.06447 | pgbench_branches_pkey |            57344
 2017-02-03 22:52:44.064472+01 | 1486158764.06447 | pgbench_tellers_pkey  |           270336
 2017-02-03 22:52:44.064472+01 | 1486158764.06447 | pgbench_accounts_pkey |        224641024

 2017-02-03 22:52:45.157518+01 | 1486158765.15752 | pgbench_branches_pkey |            57344
 2017-02-03 22:52:45.157518+01 | 1486158765.15752 | pgbench_tellers_pkey  |           270336
 2017-02-03 22:52:45.157518+01 | 1486158765.15752 | pgbench_accounts_pkey |        224641024

 2017-02-03 22:52:46.242185+01 | 1486158766.24219 | pgbench_branches_pkey |            57344
 2017-02-03 22:52:46.242185+01 | 1486158766.24219 | pgbench_tellers_pkey  |           270336
 2017-02-03 22:52:46.242185+01 | 1486158766.24219 | pgbench_accounts_pkey |        224641024

 2017-02-03 22:52:47.327579+01 | 1486158767.32758 | pgbench_branches_pkey |            57344
 2017-02-03 22:52:47.327579+01 | 1486158767.32758 | pgbench_tellers_pkey  |           270336
 2017-02-03 22:52:47.327579+01 | 1486158767.32758 | pgbench_accounts_pkey |        224641024

 2017-02-03 22:52:48.410653+01 | 1486158768.41065 | pgbench_branches_pkey |            57344
 2017-02-03 22:52:48.410653+01 | 1486158768.41065 | pgbench_tellers_pkey  |           270336
 2017-02-03 22:52:48.410653+01 | 1486158768.41065 | pgbench_accounts_pkey |        224641024

 2017-02-03 22:52:49.493482+01 | 1486158769.49348 | pgbench_branches_pkey |            57344
 2017-02-03 22:52:49.493482+01 | 1486158769.49348 | pgbench_tellers_pkey  |           270336
 2017-02-03 22:52:49.493482+01 | 1486158769.49348 | pgbench_accounts_pkey |        224641024

 2017-02-03 22:52:50.572854+01 | 1486158770.57285 | pgbench_branches_pkey |            57344
 2017-02-03 22:52:50.572854+01 | 1486158770.57285 | pgbench_tellers_pkey  |           270336
 2017-02-03 22:52:50.572854+01 | 1486158770.57285 | pgbench_accounts_pkey |        224641024

 2017-02-03 22:52:51.654711+01 | 1486158771.65471 | pgbench_branches_pkey |            57344
 2017-02-03 22:52:51.654711+01 | 1486158771.65471 | pgbench_tellers_pkey  |           270336
 2017-02-03 22:52:51.654711+01 | 1486158771.65471 | pgbench_accounts_pkey |        224641024

 2017-02-03 22:52:52.747059+01 | 1486158772.74706 | pgbench_branches_pkey |            57344
 2017-02-03 22:52:52.747059+01 | 1486158772.74706 | pgbench_tellers_pkey  |           270336
 2017-02-03 22:52:52.747059+01 | 1486158772.74706 | pgbench_accounts_pkey |        224641024

 2017-02-03 22:52:53.836539+01 | 1486158773.83654 | pgbench_branches_pkey |            57344
 2017-02-03 22:52:53.836539+01 | 1486158773.83654 | pgbench_tellers_pkey  |           270336
 2017-02-03 22:52:53.836539+01 | 1486158773.83654 | pgbench_accounts_pkey |        224641024

 2017-02-03 22:52:54.911005+01 | 1486158774.91101 | pgbench_branches_pkey |            57344
 2017-02-03 22:52:54.911005+01 | 1486158774.91101 | pgbench_tellers_pkey  |           270336
 2017-02-03 22:52:54.911005+01 | 1486158774.91101 | pgbench_accounts_pkey |        224641024

 2017-02-03 22:52:55.986958+01 | 1486158775.98696 | pgbench_branches_pkey |            57344
 2017-02-03 22:52:55.986958+01 | 1486158775.98696 | pgbench_tellers_pkey  |           270336
 2017-02-03 22:52:55.986958+01 | 1486158775.98696 | pgbench_accounts_pkey |        224641024

 2017-02-03 22:52:57.066747+01 | 1486158777.06675 | pgbench_branches_pkey |            57344
 2017-02-03 22:52:57.066747+01 | 1486158777.06675 | pgbench_tellers_pkey  |           270336
 2017-02-03 22:52:57.066747+01 | 1486158777.06675 | pgbench_accounts_pkey |        224641024

 2017-02-03 22:52:58.154576+01 | 1486158778.15458 | pgbench_branches_pkey |            57344
 2017-02-03 22:52:58.154576+01 | 1486158778.15458 | pgbench_tellers_pkey  |           270336
 2017-02-03 22:52:58.154576+01 | 1486158778.15458 | pgbench_accounts_pkey |        224641024

 2017-02-03 22:52:59.245159+01 | 1486158779.24516 | pgbench_branches_pkey |            57344
 2017-02-03 22:52:59.245159+01 | 1486158779.24516 | pgbench_tellers_pkey  |           270336
 2017-02-03 22:52:59.245159+01 | 1486158779.24516 | pgbench_accounts_pkey |        224641024

 2017-02-03 22:53:00.338444+01 | 1486158780.33844 | pgbench_branches_pkey |            57344
 2017-02-03 22:53:00.338444+01 | 1486158780.33844 | pgbench_tellers_pkey  |           270336
 2017-02-03 22:53:00.338444+01 | 1486158780.33844 | pgbench_accounts_pkey |        224641024

 2017-02-03 22:53:01.427537+01 | 1486158781.42754 | pgbench_branches_pkey |            57344
 2017-02-03 22:53:01.427537+01 | 1486158781.42754 | pgbench_tellers_pkey  |           270336
 2017-02-03 22:53:01.427537+01 | 1486158781.42754 | pgbench_accounts_pkey |        224641024

 2017-02-03 22:53:02.526536+01 | 1486158782.52654 | pgbench_branches_pkey |            57344
 2017-02-03 22:53:02.526536+01 | 1486158782.52654 | pgbench_tellers_pkey  |           270336
 2017-02-03 22:53:02.526536+01 | 1486158782.52654 | pgbench_accounts_pkey |        224641024

 2017-02-03 22:53:03.599622+01 | 1486158783.59962 | pgbench_branches_pkey |            57344
 2017-02-03 22:53:03.599622+01 | 1486158783.59962 | pgbench_tellers_pkey  |           270336
 2017-02-03 22:53:03.599622+01 | 1486158783.59962 | pgbench_accounts_pkey |        224641024

 2017-02-03 22:53:04.681459+01 | 1486158784.68146 | pgbench_branches_pkey |            57344
 2017-02-03 22:53:04.681459+01 | 1486158784.68146 | pgbench_tellers_pkey  |           270336
 2017-02-03 22:53:04.681459+01 | 1486158784.68146 | pgbench_accounts_pkey |        224641024

 2017-02-03 22:53:05.759651+01 | 1486158785.75965 | pgbench_branches_pkey |            57344
 2017-02-03 22:53:05.759651+01 | 1486158785.75965 | pgbench_tellers_pkey  |           270336
 2017-02-03 22:53:05.759651+01 | 1486158785.75965 | pgbench_accounts_pkey |        224641024

 2017-02-03 22:53:06.846359+01 | 1486158786.84636 | pgbench_branches_pkey |            57344
 2017-02-03 22:53:06.846359+01 | 1486158786.84636 | pgbench_tellers_pkey  |           270336
 2017-02-03 22:53:06.846359+01 | 1486158786.84636 | pgbench_accounts_pkey |        224641024

 2017-02-03 22:53:07.929625+01 | 1486158787.92963 | pgbench_branches_pkey |            57344
 2017-02-03 22:53:07.929625+01 | 1486158787.92963 | pgbench_tellers_pkey  |           270336
 2017-02-03 22:53:07.929625+01 | 1486158787.92963 | pgbench_accounts_pkey |        224641024

 2017-02-03 22:53:09.0146+01 | 1486158789.0146 | pgbench_branches_pkey |            57344
 2017-02-03 22:53:09.0146+01 | 1486158789.0146 | pgbench_tellers_pkey  |           270336
 2017-02-03 22:53:09.0146+01 | 1486158789.0146 | pgbench_accounts_pkey |        224641024

 2017-02-03 22:53:10.101381+01 | 1486158790.10138 | pgbench_branches_pkey |            57344
 2017-02-03 22:53:10.101381+01 | 1486158790.10138 | pgbench_tellers_pkey  |           270336
 2017-02-03 22:53:10.101381+01 | 1486158790.10138 | pgbench_accounts_pkey |        224641024

 2017-02-03 22:53:11.192686+01 | 1486158791.19269 | pgbench_branches_pkey |            57344
 2017-02-03 22:53:11.192686+01 | 1486158791.19269 | pgbench_tellers_pkey  |           270336
 2017-02-03 22:53:11.192686+01 | 1486158791.19269 | pgbench_accounts_pkey |        224641024

 2017-02-03 22:53:12.282359+01 | 1486158792.28236 | pgbench_branches_pkey |            57344
 2017-02-03 22:53:12.282359+01 | 1486158792.28236 | pgbench_tellers_pkey  |           270336
 2017-02-03 22:53:12.282359+01 | 1486158792.28236 | pgbench_accounts_pkey |        224641024

 2017-02-03 22:53:13.361881+01 | 1486158793.36188 | pgbench_branches_pkey |            57344
 2017-02-03 22:53:13.361881+01 | 1486158793.36188 | pgbench_tellers_pkey  |           270336
 2017-02-03 22:53:13.361881+01 | 1486158793.36188 | pgbench_accounts_pkey |        224641024

 2017-02-03 22:53:14.437882+01 | 1486158794.43788 | pgbench_branches_pkey |            57344
 2017-02-03 22:53:14.437882+01 | 1486158794.43788 | pgbench_tellers_pkey  |           270336
 2017-02-03 22:53:14.437882+01 | 1486158794.43788 | pgbench_accounts_pkey |        224641024

 2017-02-03 22:53:15.508268+01 | 1486158795.50827 | pgbench_branches_pkey |            57344
 2017-02-03 22:53:15.508268+01 | 1486158795.50827 | pgbench_tellers_pkey  |           270336
 2017-02-03 22:53:15.508268+01 | 1486158795.50827 | pgbench_accounts_pkey |        224641024

 2017-02-03 22:53:16.576625+01 | 1486158796.57663 | pgbench_branches_pkey |            57344
 2017-02-03 22:53:16.576625+01 | 1486158796.57663 | pgbench_tellers_pkey  |           270336
 2017-02-03 22:53:16.576625+01 | 1486158796.57663 | pgbench_accounts_pkey |        224641024

 2017-02-03 22:53:17.65167+01 | 1486158797.65167 | pgbench_branches_pkey |            57344
 2017-02-03 22:53:17.65167+01 | 1486158797.65167 | pgbench_tellers_pkey  |           270336
 2017-02-03 22:53:17.65167+01 | 1486158797.65167 | pgbench_accounts_pkey |        224641024

 2017-02-03 22:53:18.725814+01 | 1486158798.72581 | pgbench_branches_pkey |            57344
 2017-02-03 22:53:18.725814+01 | 1486158798.72581 | pgbench_tellers_pkey  |           270336
 2017-02-03 22:53:18.725814+01 | 1486158798.72581 | pgbench_accounts_pkey |        224641024

 2017-02-03 22:53:19.804535+01 | 1486158799.80453 | pgbench_branches_pkey |            57344
 2017-02-03 22:53:19.804535+01 | 1486158799.80453 | pgbench_tellers_pkey  |           270336
 2017-02-03 22:53:19.804535+01 | 1486158799.80453 | pgbench_accounts_pkey |        224641024

 2017-02-03 22:53:20.885167+01 | 1486158800.88517 | pgbench_branches_pkey |            57344
 2017-02-03 22:53:20.885167+01 | 1486158800.88517 | pgbench_tellers_pkey  |           270336
 2017-02-03 22:53:20.885167+01 | 1486158800.88517 | pgbench_accounts_pkey |        224641024

 2017-02-03 22:53:21.977431+01 | 1486158801.97743 | pgbench_branches_pkey |            57344
 2017-02-03 22:53:21.977431+01 | 1486158801.97743 | pgbench_tellers_pkey  |           270336
 2017-02-03 22:53:21.977431+01 | 1486158801.97743 | pgbench_accounts_pkey |        224641024

 2017-02-03 22:53:23.058074+01 | 1486158803.05807 | pgbench_branches_pkey |            57344
 2017-02-03 22:53:23.058074+01 | 1486158803.05807 | pgbench_tellers_pkey  |           270336
 2017-02-03 22:53:23.058074+01 | 1486158803.05807 | pgbench_accounts_pkey |        224641024

 2017-02-03 22:53:24.129645+01 | 1486158804.12965 | pgbench_branches_pkey |            57344
 2017-02-03 22:53:24.129645+01 | 1486158804.12965 | pgbench_tellers_pkey  |           270336
 2017-02-03 22:53:24.129645+01 | 1486158804.12965 | pgbench_accounts_pkey |        224641024

 2017-02-03 22:53:25.208216+01 | 1486158805.20822 | pgbench_branches_pkey |            57344
 2017-02-03 22:53:25.208216+01 | 1486158805.20822 | pgbench_tellers_pkey  |           270336
 2017-02-03 22:53:25.208216+01 | 1486158805.20822 | pgbench_accounts_pkey |        224641024

 2017-02-03 22:53:26.275702+01 | 1486158806.2757 | pgbench_branches_pkey |            57344
 2017-02-03 22:53:26.275702+01 | 1486158806.2757 | pgbench_tellers_pkey  |           270336
 2017-02-03 22:53:26.275702+01 | 1486158806.2757 | pgbench_accounts_pkey |        224641024

 2017-02-03 22:53:27.358434+01 | 1486158807.35843 | pgbench_branches_pkey |            57344
 2017-02-03 22:53:27.358434+01 | 1486158807.35843 | pgbench_tellers_pkey  |           270336
 2017-02-03 22:53:27.358434+01 | 1486158807.35843 | pgbench_accounts_pkey |        224641024

 2017-02-03 22:53:28.437868+01 | 1486158808.43787 | pgbench_branches_pkey |            57344
 2017-02-03 22:53:28.437868+01 | 1486158808.43787 | pgbench_tellers_pkey  |           270336
 2017-02-03 22:53:28.437868+01 | 1486158808.43787 | pgbench_accounts_pkey |        224641024

 2017-02-03 22:53:29.521147+01 | 1486158809.52115 | pgbench_branches_pkey |            57344
 2017-02-03 22:53:29.521147+01 | 1486158809.52115 | pgbench_tellers_pkey  |           270336
 2017-02-03 22:53:29.521147+01 | 1486158809.52115 | pgbench_accounts_pkey |        224641024

 2017-02-03 22:53:30.595017+01 | 1486158810.59502 | pgbench_branches_pkey |            57344
 2017-02-03 22:53:30.595017+01 | 1486158810.59502 | pgbench_tellers_pkey  |           270336
 2017-02-03 22:53:30.595017+01 | 1486158810.59502 | pgbench_accounts_pkey |        224641024

 2017-02-03 22:53:31.676547+01 | 1486158811.67655 | pgbench_branches_pkey |            57344
 2017-02-03 22:53:31.676547+01 | 1486158811.67655 | pgbench_tellers_pkey  |           270336
 2017-02-03 22:53:31.676547+01 | 1486158811.67655 | pgbench_accounts_pkey |        224641024

 2017-02-03 22:53:32.766633+01 | 1486158812.76663 | pgbench_branches_pkey |            57344
 2017-02-03 22:53:32.766633+01 | 1486158812.76663 | pgbench_tellers_pkey  |           270336
 2017-02-03 22:53:32.766633+01 | 1486158812.76663 | pgbench_accounts_pkey |        224641024

 2017-02-03 22:53:33.846491+01 | 1486158813.84649 | pgbench_branches_pkey |            57344
 2017-02-03 22:53:33.846491+01 | 1486158813.84649 | pgbench_tellers_pkey  |           270336
 2017-02-03 22:53:33.846491+01 | 1486158813.84649 | pgbench_accounts_pkey |        224641024

 2017-02-03 22:53:34.939654+01 | 1486158814.93965 | pgbench_branches_pkey |            57344
 2017-02-03 22:53:34.939654+01 | 1486158814.93965 | pgbench_tellers_pkey  |           270336
 2017-02-03 22:53:34.939654+01 | 1486158814.93965 | pgbench_accounts_pkey |        224641024

 2017-02-03 22:53:36.034152+01 | 1486158816.03415 | pgbench_branches_pkey |            57344
 2017-02-03 22:53:36.034152+01 | 1486158816.03415 | pgbench_tellers_pkey  |           270336
 2017-02-03 22:53:36.034152+01 | 1486158816.03415 | pgbench_accounts_pkey |        224641024

 2017-02-03 22:53:37.119196+01 | 1486158817.1192 | pgbench_branches_pkey |            57344
 2017-02-03 22:53:37.119196+01 | 1486158817.1192 | pgbench_tellers_pkey  |           270336
 2017-02-03 22:53:37.119196+01 | 1486158817.1192 | pgbench_accounts_pkey |        224641024

 2017-02-03 22:53:38.211477+01 | 1486158818.21148 | pgbench_branches_pkey |            57344
 2017-02-03 22:53:38.211477+01 | 1486158818.21148 | pgbench_tellers_pkey  |           270336
 2017-02-03 22:53:38.211477+01 | 1486158818.21148 | pgbench_accounts_pkey |        224641024

 2017-02-03 22:53:39.307078+01 | 1486158819.30708 | pgbench_branches_pkey |            57344
 2017-02-03 22:53:39.307078+01 | 1486158819.30708 | pgbench_tellers_pkey  |           270336
 2017-02-03 22:53:39.307078+01 | 1486158819.30708 | pgbench_accounts_pkey |        224641024

 2017-02-03 22:53:40.391479+01 | 1486158820.39148 | pgbench_branches_pkey |            57344
 2017-02-03 22:53:40.391479+01 | 1486158820.39148 | pgbench_tellers_pkey  |           270336
 2017-02-03 22:53:40.391479+01 | 1486158820.39148 | pgbench_accounts_pkey |        224641024

 2017-02-03 22:53:41.467785+01 | 1486158821.46778 | pgbench_branches_pkey |            57344
 2017-02-03 22:53:41.467785+01 | 1486158821.46778 | pgbench_tellers_pkey  |           270336
 2017-02-03 22:53:41.467785+01 | 1486158821.46778 | pgbench_accounts_pkey |        224641024

 2017-02-03 22:53:42.551176+01 | 1486158822.55118 | pgbench_branches_pkey |            57344
 2017-02-03 22:53:42.551176+01 | 1486158822.55118 | pgbench_tellers_pkey  |           270336
 2017-02-03 22:53:42.551176+01 | 1486158822.55118 | pgbench_accounts_pkey |        224641024

 2017-02-03 22:53:43.638156+01 | 1486158823.63816 | pgbench_branches_pkey |            57344
 2017-02-03 22:53:43.638156+01 | 1486158823.63816 | pgbench_tellers_pkey  |           270336
 2017-02-03 22:53:43.638156+01 | 1486158823.63816 | pgbench_accounts_pkey |        224641024

 2017-02-03 22:53:44.720982+01 | 1486158824.72098 | pgbench_branches_pkey |            57344
 2017-02-03 22:53:44.720982+01 | 1486158824.72098 | pgbench_tellers_pkey  |           270336
 2017-02-03 22:53:44.720982+01 | 1486158824.72098 | pgbench_accounts_pkey |        224641024

 2017-02-03 22:53:45.801306+01 | 1486158825.80131 | pgbench_branches_pkey |            57344
 2017-02-03 22:53:45.801306+01 | 1486158825.80131 | pgbench_tellers_pkey  |           270336
 2017-02-03 22:53:45.801306+01 | 1486158825.80131 | pgbench_accounts_pkey |        224641024

 2017-02-03 22:53:46.887282+01 | 1486158826.88728 | pgbench_branches_pkey |            57344
 2017-02-03 22:53:46.887282+01 | 1486158826.88728 | pgbench_tellers_pkey  |           270336
 2017-02-03 22:53:46.887282+01 | 1486158826.88728 | pgbench_accounts_pkey |        224641024

 2017-02-03 22:53:47.970674+01 | 1486158827.97067 | pgbench_branches_pkey |            57344
 2017-02-03 22:53:47.970674+01 | 1486158827.97067 | pgbench_tellers_pkey  |           270336
 2017-02-03 22:53:47.970674+01 | 1486158827.97067 | pgbench_accounts_pkey |        224641024

