 2017-02-04 05:36:35.516944+01 | 1486182995.51694 | pgbench_branches_pkey |            57344
 2017-02-04 05:36:35.516944+01 | 1486182995.51694 | pgbench_tellers_pkey  |           262144
 2017-02-04 05:36:35.516944+01 | 1486182995.51694 | pgbench_accounts_pkey |        224641024

 2017-02-04 05:36:36.601477+01 | 1486182996.60148 | pgbench_branches_pkey |            57344
 2017-02-04 05:36:36.601477+01 | 1486182996.60148 | pgbench_tellers_pkey  |           262144
 2017-02-04 05:36:36.601477+01 | 1486182996.60148 | pgbench_accounts_pkey |        224641024

 2017-02-04 05:36:37.67396+01 | 1486182997.67396 | pgbench_branches_pkey |            57344
 2017-02-04 05:36:37.67396+01 | 1486182997.67396 | pgbench_tellers_pkey  |           262144
 2017-02-04 05:36:37.67396+01 | 1486182997.67396 | pgbench_accounts_pkey |        224641024

 2017-02-04 05:36:38.751557+01 | 1486182998.75156 | pgbench_branches_pkey |            57344
 2017-02-04 05:36:38.751557+01 | 1486182998.75156 | pgbench_tellers_pkey  |           262144
 2017-02-04 05:36:38.751557+01 | 1486182998.75156 | pgbench_accounts_pkey |        224641024

 2017-02-04 05:36:39.822265+01 | 1486182999.82226 | pgbench_branches_pkey |            57344
 2017-02-04 05:36:39.822265+01 | 1486182999.82226 | pgbench_tellers_pkey  |           262144
 2017-02-04 05:36:39.822265+01 | 1486182999.82226 | pgbench_accounts_pkey |        224641024

 2017-02-04 05:36:40.896472+01 | 1486183000.89647 | pgbench_branches_pkey |            57344
 2017-02-04 05:36:40.896472+01 | 1486183000.89647 | pgbench_tellers_pkey  |           262144
 2017-02-04 05:36:40.896472+01 | 1486183000.89647 | pgbench_accounts_pkey |        224641024

 2017-02-04 05:36:41.969273+01 | 1486183001.96927 | pgbench_branches_pkey |            57344
 2017-02-04 05:36:41.969273+01 | 1486183001.96927 | pgbench_tellers_pkey  |           262144
 2017-02-04 05:36:41.969273+01 | 1486183001.96927 | pgbench_accounts_pkey |        224641024

 2017-02-04 05:36:43.050568+01 | 1486183003.05057 | pgbench_branches_pkey |            57344
 2017-02-04 05:36:43.050568+01 | 1486183003.05057 | pgbench_tellers_pkey  |           262144
 2017-02-04 05:36:43.050568+01 | 1486183003.05057 | pgbench_accounts_pkey |        224641024

 2017-02-04 05:36:44.12524+01 | 1486183004.12524 | pgbench_branches_pkey |            57344
 2017-02-04 05:36:44.12524+01 | 1486183004.12524 | pgbench_tellers_pkey  |           262144
 2017-02-04 05:36:44.12524+01 | 1486183004.12524 | pgbench_accounts_pkey |        224641024

 2017-02-04 05:36:45.202613+01 | 1486183005.20261 | pgbench_branches_pkey |            57344
 2017-02-04 05:36:45.202613+01 | 1486183005.20261 | pgbench_tellers_pkey  |           262144
 2017-02-04 05:36:45.202613+01 | 1486183005.20261 | pgbench_accounts_pkey |        224641024

 2017-02-04 05:36:46.279171+01 | 1486183006.27917 | pgbench_branches_pkey |            57344
 2017-02-04 05:36:46.279171+01 | 1486183006.27917 | pgbench_tellers_pkey  |           262144
 2017-02-04 05:36:46.279171+01 | 1486183006.27917 | pgbench_accounts_pkey |        224641024

 2017-02-04 05:36:47.363301+01 | 1486183007.3633 | pgbench_branches_pkey |            57344
 2017-02-04 05:36:47.363301+01 | 1486183007.3633 | pgbench_tellers_pkey  |           262144
 2017-02-04 05:36:47.363301+01 | 1486183007.3633 | pgbench_accounts_pkey |        224641024

 2017-02-04 05:36:48.438787+01 | 1486183008.43879 | pgbench_branches_pkey |            57344
 2017-02-04 05:36:48.438787+01 | 1486183008.43879 | pgbench_tellers_pkey  |           262144
 2017-02-04 05:36:48.438787+01 | 1486183008.43879 | pgbench_accounts_pkey |        224641024

 2017-02-04 05:36:49.523874+01 | 1486183009.52387 | pgbench_branches_pkey |            57344
 2017-02-04 05:36:49.523874+01 | 1486183009.52387 | pgbench_tellers_pkey  |           262144
 2017-02-04 05:36:49.523874+01 | 1486183009.52387 | pgbench_accounts_pkey |        224641024

 2017-02-04 05:36:50.612496+01 | 1486183010.6125 | pgbench_branches_pkey |            57344
 2017-02-04 05:36:50.612496+01 | 1486183010.6125 | pgbench_tellers_pkey  |           262144
 2017-02-04 05:36:50.612496+01 | 1486183010.6125 | pgbench_accounts_pkey |        224641024

 2017-02-04 05:36:51.684669+01 | 1486183011.68467 | pgbench_branches_pkey |            57344
 2017-02-04 05:36:51.684669+01 | 1486183011.68467 | pgbench_tellers_pkey  |           262144
 2017-02-04 05:36:51.684669+01 | 1486183011.68467 | pgbench_accounts_pkey |        224641024

 2017-02-04 05:36:52.760828+01 | 1486183012.76083 | pgbench_branches_pkey |            57344
 2017-02-04 05:36:52.760828+01 | 1486183012.76083 | pgbench_tellers_pkey  |           262144
 2017-02-04 05:36:52.760828+01 | 1486183012.76083 | pgbench_accounts_pkey |        224641024

 2017-02-04 05:36:53.835579+01 | 1486183013.83558 | pgbench_branches_pkey |            57344
 2017-02-04 05:36:53.835579+01 | 1486183013.83558 | pgbench_tellers_pkey  |           262144
 2017-02-04 05:36:53.835579+01 | 1486183013.83558 | pgbench_accounts_pkey |        224641024

 2017-02-04 05:36:54.912609+01 | 1486183014.91261 | pgbench_branches_pkey |            57344
 2017-02-04 05:36:54.912609+01 | 1486183014.91261 | pgbench_tellers_pkey  |           262144
 2017-02-04 05:36:54.912609+01 | 1486183014.91261 | pgbench_accounts_pkey |        224641024

 2017-02-04 05:36:55.988777+01 | 1486183015.98878 | pgbench_branches_pkey |            57344
 2017-02-04 05:36:55.988777+01 | 1486183015.98878 | pgbench_tellers_pkey  |           262144
 2017-02-04 05:36:55.988777+01 | 1486183015.98878 | pgbench_accounts_pkey |        224641024

 2017-02-04 05:36:57.062819+01 | 1486183017.06282 | pgbench_branches_pkey |            57344
 2017-02-04 05:36:57.062819+01 | 1486183017.06282 | pgbench_tellers_pkey  |           262144
 2017-02-04 05:36:57.062819+01 | 1486183017.06282 | pgbench_accounts_pkey |        224641024

 2017-02-04 05:36:58.136396+01 | 1486183018.1364 | pgbench_branches_pkey |            57344
 2017-02-04 05:36:58.136396+01 | 1486183018.1364 | pgbench_tellers_pkey  |           262144
 2017-02-04 05:36:58.136396+01 | 1486183018.1364 | pgbench_accounts_pkey |        224641024

 2017-02-04 05:36:59.213792+01 | 1486183019.21379 | pgbench_branches_pkey |            57344
 2017-02-04 05:36:59.213792+01 | 1486183019.21379 | pgbench_tellers_pkey  |           262144
 2017-02-04 05:36:59.213792+01 | 1486183019.21379 | pgbench_accounts_pkey |        224641024

 2017-02-04 05:37:00.277179+01 | 1486183020.27718 | pgbench_branches_pkey |            57344
 2017-02-04 05:37:00.277179+01 | 1486183020.27718 | pgbench_tellers_pkey  |           262144
 2017-02-04 05:37:00.277179+01 | 1486183020.27718 | pgbench_accounts_pkey |        224641024

 2017-02-04 05:37:01.356148+01 | 1486183021.35615 | pgbench_branches_pkey |            57344
 2017-02-04 05:37:01.356148+01 | 1486183021.35615 | pgbench_tellers_pkey  |           262144
 2017-02-04 05:37:01.356148+01 | 1486183021.35615 | pgbench_accounts_pkey |        224641024

 2017-02-04 05:37:02.427859+01 | 1486183022.42786 | pgbench_branches_pkey |            57344
 2017-02-04 05:37:02.427859+01 | 1486183022.42786 | pgbench_tellers_pkey  |           262144
 2017-02-04 05:37:02.427859+01 | 1486183022.42786 | pgbench_accounts_pkey |        224641024

 2017-02-04 05:37:03.502963+01 | 1486183023.50296 | pgbench_branches_pkey |            57344
 2017-02-04 05:37:03.502963+01 | 1486183023.50296 | pgbench_tellers_pkey  |           262144
 2017-02-04 05:37:03.502963+01 | 1486183023.50296 | pgbench_accounts_pkey |        224641024

 2017-02-04 05:37:04.575999+01 | 1486183024.576 | pgbench_branches_pkey |            57344
 2017-02-04 05:37:04.575999+01 | 1486183024.576 | pgbench_tellers_pkey  |           262144
 2017-02-04 05:37:04.575999+01 | 1486183024.576 | pgbench_accounts_pkey |        224641024

 2017-02-04 05:37:05.652832+01 | 1486183025.65283 | pgbench_branches_pkey |            57344
 2017-02-04 05:37:05.652832+01 | 1486183025.65283 | pgbench_tellers_pkey  |           262144
 2017-02-04 05:37:05.652832+01 | 1486183025.65283 | pgbench_accounts_pkey |        224641024

 2017-02-04 05:37:06.73501+01 | 1486183026.73501 | pgbench_branches_pkey |            57344
 2017-02-04 05:37:06.73501+01 | 1486183026.73501 | pgbench_tellers_pkey  |           262144
 2017-02-04 05:37:06.73501+01 | 1486183026.73501 | pgbench_accounts_pkey |        224641024

 2017-02-04 05:37:07.816+01 | 1486183027.816 | pgbench_branches_pkey |            57344
 2017-02-04 05:37:07.816+01 | 1486183027.816 | pgbench_tellers_pkey  |           262144
 2017-02-04 05:37:07.816+01 | 1486183027.816 | pgbench_accounts_pkey |        224641024

 2017-02-04 05:37:08.889624+01 | 1486183028.88962 | pgbench_branches_pkey |            57344
 2017-02-04 05:37:08.889624+01 | 1486183028.88962 | pgbench_tellers_pkey  |           262144
 2017-02-04 05:37:08.889624+01 | 1486183028.88962 | pgbench_accounts_pkey |        224641024

 2017-02-04 05:37:09.969641+01 | 1486183029.96964 | pgbench_branches_pkey |            57344
 2017-02-04 05:37:09.969641+01 | 1486183029.96964 | pgbench_tellers_pkey  |           262144
 2017-02-04 05:37:09.969641+01 | 1486183029.96964 | pgbench_accounts_pkey |        224641024

 2017-02-04 05:37:11.045381+01 | 1486183031.04538 | pgbench_branches_pkey |            57344
 2017-02-04 05:37:11.045381+01 | 1486183031.04538 | pgbench_tellers_pkey  |           262144
 2017-02-04 05:37:11.045381+01 | 1486183031.04538 | pgbench_accounts_pkey |        224641024

 2017-02-04 05:37:12.118136+01 | 1486183032.11814 | pgbench_branches_pkey |            57344
 2017-02-04 05:37:12.118136+01 | 1486183032.11814 | pgbench_tellers_pkey  |           262144
 2017-02-04 05:37:12.118136+01 | 1486183032.11814 | pgbench_accounts_pkey |        224641024

 2017-02-04 05:37:13.199167+01 | 1486183033.19917 | pgbench_branches_pkey |            57344
 2017-02-04 05:37:13.199167+01 | 1486183033.19917 | pgbench_tellers_pkey  |           262144
 2017-02-04 05:37:13.199167+01 | 1486183033.19917 | pgbench_accounts_pkey |        224641024

 2017-02-04 05:37:14.276127+01 | 1486183034.27613 | pgbench_branches_pkey |            57344
 2017-02-04 05:37:14.276127+01 | 1486183034.27613 | pgbench_tellers_pkey  |           262144
 2017-02-04 05:37:14.276127+01 | 1486183034.27613 | pgbench_accounts_pkey |        224641024

 2017-02-04 05:37:15.348554+01 | 1486183035.34855 | pgbench_branches_pkey |            57344
 2017-02-04 05:37:15.348554+01 | 1486183035.34855 | pgbench_tellers_pkey  |           262144
 2017-02-04 05:37:15.348554+01 | 1486183035.34855 | pgbench_accounts_pkey |        224641024

 2017-02-04 05:37:16.425534+01 | 1486183036.42553 | pgbench_branches_pkey |            57344
 2017-02-04 05:37:16.425534+01 | 1486183036.42553 | pgbench_tellers_pkey  |           262144
 2017-02-04 05:37:16.425534+01 | 1486183036.42553 | pgbench_accounts_pkey |        224641024

 2017-02-04 05:37:17.50328+01 | 1486183037.50328 | pgbench_branches_pkey |            57344
 2017-02-04 05:37:17.50328+01 | 1486183037.50328 | pgbench_tellers_pkey  |           262144
 2017-02-04 05:37:17.50328+01 | 1486183037.50328 | pgbench_accounts_pkey |        224641024

 2017-02-04 05:37:18.572852+01 | 1486183038.57285 | pgbench_branches_pkey |            57344
 2017-02-04 05:37:18.572852+01 | 1486183038.57285 | pgbench_tellers_pkey  |           262144
 2017-02-04 05:37:18.572852+01 | 1486183038.57285 | pgbench_accounts_pkey |        224641024

 2017-02-04 05:37:19.650001+01 | 1486183039.65 | pgbench_branches_pkey |            57344
 2017-02-04 05:37:19.650001+01 | 1486183039.65 | pgbench_tellers_pkey  |           262144
 2017-02-04 05:37:19.650001+01 | 1486183039.65 | pgbench_accounts_pkey |        224641024

 2017-02-04 05:37:20.730752+01 | 1486183040.73075 | pgbench_branches_pkey |            57344
 2017-02-04 05:37:20.730752+01 | 1486183040.73075 | pgbench_tellers_pkey  |           262144
 2017-02-04 05:37:20.730752+01 | 1486183040.73075 | pgbench_accounts_pkey |        224641024

 2017-02-04 05:37:21.797907+01 | 1486183041.79791 | pgbench_branches_pkey |            57344
 2017-02-04 05:37:21.797907+01 | 1486183041.79791 | pgbench_tellers_pkey  |           262144
 2017-02-04 05:37:21.797907+01 | 1486183041.79791 | pgbench_accounts_pkey |        224641024

 2017-02-04 05:37:22.874837+01 | 1486183042.87484 | pgbench_branches_pkey |            57344
 2017-02-04 05:37:22.874837+01 | 1486183042.87484 | pgbench_tellers_pkey  |           262144
 2017-02-04 05:37:22.874837+01 | 1486183042.87484 | pgbench_accounts_pkey |        224641024

 2017-02-04 05:37:23.955162+01 | 1486183043.95516 | pgbench_branches_pkey |            57344
 2017-02-04 05:37:23.955162+01 | 1486183043.95516 | pgbench_tellers_pkey  |           262144
 2017-02-04 05:37:23.955162+01 | 1486183043.95516 | pgbench_accounts_pkey |        224641024

 2017-02-04 05:37:25.034251+01 | 1486183045.03425 | pgbench_branches_pkey |            57344
 2017-02-04 05:37:25.034251+01 | 1486183045.03425 | pgbench_tellers_pkey  |           262144
 2017-02-04 05:37:25.034251+01 | 1486183045.03425 | pgbench_accounts_pkey |        224641024

 2017-02-04 05:37:26.109953+01 | 1486183046.10995 | pgbench_branches_pkey |            57344
 2017-02-04 05:37:26.109953+01 | 1486183046.10995 | pgbench_tellers_pkey  |           262144
 2017-02-04 05:37:26.109953+01 | 1486183046.10995 | pgbench_accounts_pkey |        224641024

 2017-02-04 05:37:27.183008+01 | 1486183047.18301 | pgbench_branches_pkey |            57344
 2017-02-04 05:37:27.183008+01 | 1486183047.18301 | pgbench_tellers_pkey  |           262144
 2017-02-04 05:37:27.183008+01 | 1486183047.18301 | pgbench_accounts_pkey |        224641024

 2017-02-04 05:37:28.25427+01 | 1486183048.25427 | pgbench_branches_pkey |            57344
 2017-02-04 05:37:28.25427+01 | 1486183048.25427 | pgbench_tellers_pkey  |           262144
 2017-02-04 05:37:28.25427+01 | 1486183048.25427 | pgbench_accounts_pkey |        224641024

 2017-02-04 05:37:29.332781+01 | 1486183049.33278 | pgbench_branches_pkey |            57344
 2017-02-04 05:37:29.332781+01 | 1486183049.33278 | pgbench_tellers_pkey  |           262144
 2017-02-04 05:37:29.332781+01 | 1486183049.33278 | pgbench_accounts_pkey |        224641024

 2017-02-04 05:37:30.407786+01 | 1486183050.40779 | pgbench_branches_pkey |            57344
 2017-02-04 05:37:30.407786+01 | 1486183050.40779 | pgbench_tellers_pkey  |           262144
 2017-02-04 05:37:30.407786+01 | 1486183050.40779 | pgbench_accounts_pkey |        224641024

 2017-02-04 05:37:31.479226+01 | 1486183051.47923 | pgbench_branches_pkey |            57344
 2017-02-04 05:37:31.479226+01 | 1486183051.47923 | pgbench_tellers_pkey  |           262144
 2017-02-04 05:37:31.479226+01 | 1486183051.47923 | pgbench_accounts_pkey |        224641024

 2017-02-04 05:37:32.556783+01 | 1486183052.55678 | pgbench_branches_pkey |            57344
 2017-02-04 05:37:32.556783+01 | 1486183052.55678 | pgbench_tellers_pkey  |           262144
 2017-02-04 05:37:32.556783+01 | 1486183052.55678 | pgbench_accounts_pkey |        224641024

 2017-02-04 05:37:33.635581+01 | 1486183053.63558 | pgbench_branches_pkey |            57344
 2017-02-04 05:37:33.635581+01 | 1486183053.63558 | pgbench_tellers_pkey  |           262144
 2017-02-04 05:37:33.635581+01 | 1486183053.63558 | pgbench_accounts_pkey |        224641024

 2017-02-04 05:37:34.713151+01 | 1486183054.71315 | pgbench_branches_pkey |            57344
 2017-02-04 05:37:34.713151+01 | 1486183054.71315 | pgbench_tellers_pkey  |           262144
 2017-02-04 05:37:34.713151+01 | 1486183054.71315 | pgbench_accounts_pkey |        224641024

 2017-02-04 05:37:35.789117+01 | 1486183055.78912 | pgbench_branches_pkey |            57344
 2017-02-04 05:37:35.789117+01 | 1486183055.78912 | pgbench_tellers_pkey  |           262144
 2017-02-04 05:37:35.789117+01 | 1486183055.78912 | pgbench_accounts_pkey |        224641024

 2017-02-04 05:37:36.866038+01 | 1486183056.86604 | pgbench_branches_pkey |            57344
 2017-02-04 05:37:36.866038+01 | 1486183056.86604 | pgbench_tellers_pkey  |           262144
 2017-02-04 05:37:36.866038+01 | 1486183056.86604 | pgbench_accounts_pkey |        224641024

 2017-02-04 05:37:37.937043+01 | 1486183057.93704 | pgbench_branches_pkey |            57344
 2017-02-04 05:37:37.937043+01 | 1486183057.93704 | pgbench_tellers_pkey  |           262144
 2017-02-04 05:37:37.937043+01 | 1486183057.93704 | pgbench_accounts_pkey |        224641024

 2017-02-04 05:37:39.007295+01 | 1486183059.00729 | pgbench_branches_pkey |            57344
 2017-02-04 05:37:39.007295+01 | 1486183059.00729 | pgbench_tellers_pkey  |           262144
 2017-02-04 05:37:39.007295+01 | 1486183059.00729 | pgbench_accounts_pkey |        224641024

 2017-02-04 05:37:40.080232+01 | 1486183060.08023 | pgbench_branches_pkey |            57344
 2017-02-04 05:37:40.080232+01 | 1486183060.08023 | pgbench_tellers_pkey  |           262144
 2017-02-04 05:37:40.080232+01 | 1486183060.08023 | pgbench_accounts_pkey |        224641024

 2017-02-04 05:37:41.155076+01 | 1486183061.15508 | pgbench_branches_pkey |            57344
 2017-02-04 05:37:41.155076+01 | 1486183061.15508 | pgbench_tellers_pkey  |           262144
 2017-02-04 05:37:41.155076+01 | 1486183061.15508 | pgbench_accounts_pkey |        224641024

 2017-02-04 05:37:42.232203+01 | 1486183062.2322 | pgbench_branches_pkey |            57344
 2017-02-04 05:37:42.232203+01 | 1486183062.2322 | pgbench_tellers_pkey  |           262144
 2017-02-04 05:37:42.232203+01 | 1486183062.2322 | pgbench_accounts_pkey |        224641024

 2017-02-04 05:37:43.306796+01 | 1486183063.3068 | pgbench_branches_pkey |            57344
 2017-02-04 05:37:43.306796+01 | 1486183063.3068 | pgbench_tellers_pkey  |           262144
 2017-02-04 05:37:43.306796+01 | 1486183063.3068 | pgbench_accounts_pkey |        224641024

 2017-02-04 05:37:44.381954+01 | 1486183064.38195 | pgbench_branches_pkey |            57344
 2017-02-04 05:37:44.381954+01 | 1486183064.38195 | pgbench_tellers_pkey  |           262144
 2017-02-04 05:37:44.381954+01 | 1486183064.38195 | pgbench_accounts_pkey |        224641024

 2017-02-04 05:37:45.458826+01 | 1486183065.45883 | pgbench_branches_pkey |            57344
 2017-02-04 05:37:45.458826+01 | 1486183065.45883 | pgbench_tellers_pkey  |           262144
 2017-02-04 05:37:45.458826+01 | 1486183065.45883 | pgbench_accounts_pkey |        224641024

 2017-02-04 05:37:46.539098+01 | 1486183066.5391 | pgbench_branches_pkey |            57344
 2017-02-04 05:37:46.539098+01 | 1486183066.5391 | pgbench_tellers_pkey  |           262144
 2017-02-04 05:37:46.539098+01 | 1486183066.5391 | pgbench_accounts_pkey |        224641024

 2017-02-04 05:37:47.612643+01 | 1486183067.61264 | pgbench_branches_pkey |            57344
 2017-02-04 05:37:47.612643+01 | 1486183067.61264 | pgbench_tellers_pkey  |           262144
 2017-02-04 05:37:47.612643+01 | 1486183067.61264 | pgbench_accounts_pkey |        224641024

 2017-02-04 05:37:48.691315+01 | 1486183068.69131 | pgbench_branches_pkey |            57344
 2017-02-04 05:37:48.691315+01 | 1486183068.69131 | pgbench_tellers_pkey  |           262144
 2017-02-04 05:37:48.691315+01 | 1486183068.69131 | pgbench_accounts_pkey |        224641024

 2017-02-04 05:37:49.76936+01 | 1486183069.76936 | pgbench_branches_pkey |            57344
 2017-02-04 05:37:49.76936+01 | 1486183069.76936 | pgbench_tellers_pkey  |           262144
 2017-02-04 05:37:49.76936+01 | 1486183069.76936 | pgbench_accounts_pkey |        224641024

 2017-02-04 05:37:50.851392+01 | 1486183070.85139 | pgbench_branches_pkey |            57344
 2017-02-04 05:37:50.851392+01 | 1486183070.85139 | pgbench_tellers_pkey  |           262144
 2017-02-04 05:37:50.851392+01 | 1486183070.85139 | pgbench_accounts_pkey |        224641024

 2017-02-04 05:37:51.927184+01 | 1486183071.92718 | pgbench_branches_pkey |            57344
 2017-02-04 05:37:51.927184+01 | 1486183071.92718 | pgbench_tellers_pkey  |           262144
 2017-02-04 05:37:51.927184+01 | 1486183071.92718 | pgbench_accounts_pkey |        224641024

 2017-02-04 05:37:53.002338+01 | 1486183073.00234 | pgbench_branches_pkey |            57344
 2017-02-04 05:37:53.002338+01 | 1486183073.00234 | pgbench_tellers_pkey  |           262144
 2017-02-04 05:37:53.002338+01 | 1486183073.00234 | pgbench_accounts_pkey |        224641024

 2017-02-04 05:37:54.07791+01 | 1486183074.07791 | pgbench_branches_pkey |            57344
 2017-02-04 05:37:54.07791+01 | 1486183074.07791 | pgbench_tellers_pkey  |           262144
 2017-02-04 05:37:54.07791+01 | 1486183074.07791 | pgbench_accounts_pkey |        224641024

 2017-02-04 05:37:55.153325+01 | 1486183075.15333 | pgbench_branches_pkey |            57344
 2017-02-04 05:37:55.153325+01 | 1486183075.15333 | pgbench_tellers_pkey  |           262144
 2017-02-04 05:37:55.153325+01 | 1486183075.15333 | pgbench_accounts_pkey |        224641024

 2017-02-04 05:37:56.225015+01 | 1486183076.22501 | pgbench_branches_pkey |            57344
 2017-02-04 05:37:56.225015+01 | 1486183076.22501 | pgbench_tellers_pkey  |           262144
 2017-02-04 05:37:56.225015+01 | 1486183076.22501 | pgbench_accounts_pkey |        224641024

 2017-02-04 05:37:57.301712+01 | 1486183077.30171 | pgbench_branches_pkey |            57344
 2017-02-04 05:37:57.301712+01 | 1486183077.30171 | pgbench_tellers_pkey  |           262144
 2017-02-04 05:37:57.301712+01 | 1486183077.30171 | pgbench_accounts_pkey |        224641024

 2017-02-04 05:37:58.371282+01 | 1486183078.37128 | pgbench_branches_pkey |            57344
 2017-02-04 05:37:58.371282+01 | 1486183078.37128 | pgbench_tellers_pkey  |           262144
 2017-02-04 05:37:58.371282+01 | 1486183078.37128 | pgbench_accounts_pkey |        224641024

 2017-02-04 05:37:59.44596+01 | 1486183079.44596 | pgbench_branches_pkey |            57344
 2017-02-04 05:37:59.44596+01 | 1486183079.44596 | pgbench_tellers_pkey  |           262144
 2017-02-04 05:37:59.44596+01 | 1486183079.44596 | pgbench_accounts_pkey |        224641024

 2017-02-04 05:38:00.512928+01 | 1486183080.51293 | pgbench_branches_pkey |            57344
 2017-02-04 05:38:00.512928+01 | 1486183080.51293 | pgbench_tellers_pkey  |           262144
 2017-02-04 05:38:00.512928+01 | 1486183080.51293 | pgbench_accounts_pkey |        224641024

 2017-02-04 05:38:01.590449+01 | 1486183081.59045 | pgbench_branches_pkey |            57344
 2017-02-04 05:38:01.590449+01 | 1486183081.59045 | pgbench_tellers_pkey  |           262144
 2017-02-04 05:38:01.590449+01 | 1486183081.59045 | pgbench_accounts_pkey |        224641024

 2017-02-04 05:38:02.664553+01 | 1486183082.66455 | pgbench_branches_pkey |            57344
 2017-02-04 05:38:02.664553+01 | 1486183082.66455 | pgbench_tellers_pkey  |           262144
 2017-02-04 05:38:02.664553+01 | 1486183082.66455 | pgbench_accounts_pkey |        224641024

 2017-02-04 05:38:03.741062+01 | 1486183083.74106 | pgbench_branches_pkey |            57344
 2017-02-04 05:38:03.741062+01 | 1486183083.74106 | pgbench_tellers_pkey  |           262144
 2017-02-04 05:38:03.741062+01 | 1486183083.74106 | pgbench_accounts_pkey |        224641024

 2017-02-04 05:38:04.817669+01 | 1486183084.81767 | pgbench_branches_pkey |            57344
 2017-02-04 05:38:04.817669+01 | 1486183084.81767 | pgbench_tellers_pkey  |           262144
 2017-02-04 05:38:04.817669+01 | 1486183084.81767 | pgbench_accounts_pkey |        224641024

 2017-02-04 05:38:05.896658+01 | 1486183085.89666 | pgbench_branches_pkey |            57344
 2017-02-04 05:38:05.896658+01 | 1486183085.89666 | pgbench_tellers_pkey  |           262144
 2017-02-04 05:38:05.896658+01 | 1486183085.89666 | pgbench_accounts_pkey |        224641024

 2017-02-04 05:38:06.97321+01 | 1486183086.97321 | pgbench_branches_pkey |            57344
 2017-02-04 05:38:06.97321+01 | 1486183086.97321 | pgbench_tellers_pkey  |           262144
 2017-02-04 05:38:06.97321+01 | 1486183086.97321 | pgbench_accounts_pkey |        224641024

 2017-02-04 05:38:08.049555+01 | 1486183088.04956 | pgbench_branches_pkey |            57344
 2017-02-04 05:38:08.049555+01 | 1486183088.04956 | pgbench_tellers_pkey  |           262144
 2017-02-04 05:38:08.049555+01 | 1486183088.04956 | pgbench_accounts_pkey |        224641024

 2017-02-04 05:38:09.121743+01 | 1486183089.12174 | pgbench_branches_pkey |            57344
 2017-02-04 05:38:09.121743+01 | 1486183089.12174 | pgbench_tellers_pkey  |           262144
 2017-02-04 05:38:09.121743+01 | 1486183089.12174 | pgbench_accounts_pkey |        224641024

 2017-02-04 05:38:10.196296+01 | 1486183090.1963 | pgbench_branches_pkey |            57344
 2017-02-04 05:38:10.196296+01 | 1486183090.1963 | pgbench_tellers_pkey  |           262144
 2017-02-04 05:38:10.196296+01 | 1486183090.1963 | pgbench_accounts_pkey |        224641024

 2017-02-04 05:38:11.27222+01 | 1486183091.27222 | pgbench_branches_pkey |            57344
 2017-02-04 05:38:11.27222+01 | 1486183091.27222 | pgbench_tellers_pkey  |           262144
 2017-02-04 05:38:11.27222+01 | 1486183091.27222 | pgbench_accounts_pkey |        224641024

 2017-02-04 05:38:12.351552+01 | 1486183092.35155 | pgbench_branches_pkey |            57344
 2017-02-04 05:38:12.351552+01 | 1486183092.35155 | pgbench_tellers_pkey  |           262144
 2017-02-04 05:38:12.351552+01 | 1486183092.35155 | pgbench_accounts_pkey |        224641024

 2017-02-04 05:38:13.428056+01 | 1486183093.42806 | pgbench_branches_pkey |            57344
 2017-02-04 05:38:13.428056+01 | 1486183093.42806 | pgbench_tellers_pkey  |           262144
 2017-02-04 05:38:13.428056+01 | 1486183093.42806 | pgbench_accounts_pkey |        224641024

 2017-02-04 05:38:14.507804+01 | 1486183094.5078 | pgbench_branches_pkey |            57344
 2017-02-04 05:38:14.507804+01 | 1486183094.5078 | pgbench_tellers_pkey  |           262144
 2017-02-04 05:38:14.507804+01 | 1486183094.5078 | pgbench_accounts_pkey |        224641024

 2017-02-04 05:38:15.582133+01 | 1486183095.58213 | pgbench_branches_pkey |            57344
 2017-02-04 05:38:15.582133+01 | 1486183095.58213 | pgbench_tellers_pkey  |           262144
 2017-02-04 05:38:15.582133+01 | 1486183095.58213 | pgbench_accounts_pkey |        224641024

 2017-02-04 05:38:16.65885+01 | 1486183096.65885 | pgbench_branches_pkey |            57344
 2017-02-04 05:38:16.65885+01 | 1486183096.65885 | pgbench_tellers_pkey  |           262144
 2017-02-04 05:38:16.65885+01 | 1486183096.65885 | pgbench_accounts_pkey |        224641024

 2017-02-04 05:38:17.737917+01 | 1486183097.73792 | pgbench_branches_pkey |            57344
 2017-02-04 05:38:17.737917+01 | 1486183097.73792 | pgbench_tellers_pkey  |           262144
 2017-02-04 05:38:17.737917+01 | 1486183097.73792 | pgbench_accounts_pkey |        224641024

 2017-02-04 05:38:18.811581+01 | 1486183098.81158 | pgbench_branches_pkey |            57344
 2017-02-04 05:38:18.811581+01 | 1486183098.81158 | pgbench_tellers_pkey  |           262144
 2017-02-04 05:38:18.811581+01 | 1486183098.81158 | pgbench_accounts_pkey |        224641024

 2017-02-04 05:38:19.887087+01 | 1486183099.88709 | pgbench_branches_pkey |            57344
 2017-02-04 05:38:19.887087+01 | 1486183099.88709 | pgbench_tellers_pkey  |           262144
 2017-02-04 05:38:19.887087+01 | 1486183099.88709 | pgbench_accounts_pkey |        224641024

 2017-02-04 05:38:20.964813+01 | 1486183100.96481 | pgbench_branches_pkey |            57344
 2017-02-04 05:38:20.964813+01 | 1486183100.96481 | pgbench_tellers_pkey  |           262144
 2017-02-04 05:38:20.964813+01 | 1486183100.96481 | pgbench_accounts_pkey |        224641024

 2017-02-04 05:38:22.043093+01 | 1486183102.04309 | pgbench_branches_pkey |            57344
 2017-02-04 05:38:22.043093+01 | 1486183102.04309 | pgbench_tellers_pkey  |           262144
 2017-02-04 05:38:22.043093+01 | 1486183102.04309 | pgbench_accounts_pkey |        224641024

 2017-02-04 05:38:23.117713+01 | 1486183103.11771 | pgbench_branches_pkey |            57344
 2017-02-04 05:38:23.117713+01 | 1486183103.11771 | pgbench_tellers_pkey  |           262144
 2017-02-04 05:38:23.117713+01 | 1486183103.11771 | pgbench_accounts_pkey |        224641024

 2017-02-04 05:38:24.197103+01 | 1486183104.1971 | pgbench_branches_pkey |            57344
 2017-02-04 05:38:24.197103+01 | 1486183104.1971 | pgbench_tellers_pkey  |           262144
 2017-02-04 05:38:24.197103+01 | 1486183104.1971 | pgbench_accounts_pkey |        224641024

 2017-02-04 05:38:25.267+01 | 1486183105.267 | pgbench_branches_pkey |            57344
 2017-02-04 05:38:25.267+01 | 1486183105.267 | pgbench_tellers_pkey  |           262144
 2017-02-04 05:38:25.267+01 | 1486183105.267 | pgbench_accounts_pkey |        224641024

 2017-02-04 05:38:26.347255+01 | 1486183106.34725 | pgbench_branches_pkey |            57344
 2017-02-04 05:38:26.347255+01 | 1486183106.34725 | pgbench_tellers_pkey  |           262144
 2017-02-04 05:38:26.347255+01 | 1486183106.34725 | pgbench_accounts_pkey |        224641024

 2017-02-04 05:38:27.424406+01 | 1486183107.42441 | pgbench_branches_pkey |            57344
 2017-02-04 05:38:27.424406+01 | 1486183107.42441 | pgbench_tellers_pkey  |           262144
 2017-02-04 05:38:27.424406+01 | 1486183107.42441 | pgbench_accounts_pkey |        224641024

 2017-02-04 05:38:28.495904+01 | 1486183108.4959 | pgbench_branches_pkey |            57344
 2017-02-04 05:38:28.495904+01 | 1486183108.4959 | pgbench_tellers_pkey  |           262144
 2017-02-04 05:38:28.495904+01 | 1486183108.4959 | pgbench_accounts_pkey |        224641024

 2017-02-04 05:38:29.572291+01 | 1486183109.57229 | pgbench_branches_pkey |            57344
 2017-02-04 05:38:29.572291+01 | 1486183109.57229 | pgbench_tellers_pkey  |           262144
 2017-02-04 05:38:29.572291+01 | 1486183109.57229 | pgbench_accounts_pkey |        224641024

 2017-02-04 05:38:30.646085+01 | 1486183110.64609 | pgbench_branches_pkey |            57344
 2017-02-04 05:38:30.646085+01 | 1486183110.64609 | pgbench_tellers_pkey  |           262144
 2017-02-04 05:38:30.646085+01 | 1486183110.64609 | pgbench_accounts_pkey |        224641024

 2017-02-04 05:38:31.723874+01 | 1486183111.72387 | pgbench_branches_pkey |            57344
 2017-02-04 05:38:31.723874+01 | 1486183111.72387 | pgbench_tellers_pkey  |           262144
 2017-02-04 05:38:31.723874+01 | 1486183111.72387 | pgbench_accounts_pkey |        224641024

 2017-02-04 05:38:32.802039+01 | 1486183112.80204 | pgbench_branches_pkey |            57344
 2017-02-04 05:38:32.802039+01 | 1486183112.80204 | pgbench_tellers_pkey  |           262144
 2017-02-04 05:38:32.802039+01 | 1486183112.80204 | pgbench_accounts_pkey |        224641024

 2017-02-04 05:38:33.879501+01 | 1486183113.8795 | pgbench_branches_pkey |            57344
 2017-02-04 05:38:33.879501+01 | 1486183113.8795 | pgbench_tellers_pkey  |           262144
 2017-02-04 05:38:33.879501+01 | 1486183113.8795 | pgbench_accounts_pkey |        224641024

 2017-02-04 05:38:34.962817+01 | 1486183114.96282 | pgbench_branches_pkey |            57344
 2017-02-04 05:38:34.962817+01 | 1486183114.96282 | pgbench_tellers_pkey  |           262144
 2017-02-04 05:38:34.962817+01 | 1486183114.96282 | pgbench_accounts_pkey |        224641024

 2017-02-04 05:38:36.032354+01 | 1486183116.03235 | pgbench_branches_pkey |            57344
 2017-02-04 05:38:36.032354+01 | 1486183116.03235 | pgbench_tellers_pkey  |           262144
 2017-02-04 05:38:36.032354+01 | 1486183116.03235 | pgbench_accounts_pkey |        224641024

 2017-02-04 05:38:37.113142+01 | 1486183117.11314 | pgbench_branches_pkey |            57344
 2017-02-04 05:38:37.113142+01 | 1486183117.11314 | pgbench_tellers_pkey  |           262144
 2017-02-04 05:38:37.113142+01 | 1486183117.11314 | pgbench_accounts_pkey |        224641024

 2017-02-04 05:38:38.186327+01 | 1486183118.18633 | pgbench_branches_pkey |            57344
 2017-02-04 05:38:38.186327+01 | 1486183118.18633 | pgbench_tellers_pkey  |           262144
 2017-02-04 05:38:38.186327+01 | 1486183118.18633 | pgbench_accounts_pkey |        224641024

 2017-02-04 05:38:39.265652+01 | 1486183119.26565 | pgbench_branches_pkey |            57344
 2017-02-04 05:38:39.265652+01 | 1486183119.26565 | pgbench_tellers_pkey  |           262144
 2017-02-04 05:38:39.265652+01 | 1486183119.26565 | pgbench_accounts_pkey |        224641024

 2017-02-04 05:38:40.344139+01 | 1486183120.34414 | pgbench_branches_pkey |            57344
 2017-02-04 05:38:40.344139+01 | 1486183120.34414 | pgbench_tellers_pkey  |           262144
 2017-02-04 05:38:40.344139+01 | 1486183120.34414 | pgbench_accounts_pkey |        224641024

 2017-02-04 05:38:41.417466+01 | 1486183121.41747 | pgbench_branches_pkey |            57344
 2017-02-04 05:38:41.417466+01 | 1486183121.41747 | pgbench_tellers_pkey  |           262144
 2017-02-04 05:38:41.417466+01 | 1486183121.41747 | pgbench_accounts_pkey |        224641024

 2017-02-04 05:38:42.493464+01 | 1486183122.49346 | pgbench_branches_pkey |            57344
 2017-02-04 05:38:42.493464+01 | 1486183122.49346 | pgbench_tellers_pkey  |           262144
 2017-02-04 05:38:42.493464+01 | 1486183122.49346 | pgbench_accounts_pkey |        224641024

 2017-02-04 05:38:43.572798+01 | 1486183123.5728 | pgbench_branches_pkey |            57344
 2017-02-04 05:38:43.572798+01 | 1486183123.5728 | pgbench_tellers_pkey  |           262144
 2017-02-04 05:38:43.572798+01 | 1486183123.5728 | pgbench_accounts_pkey |        224641024

 2017-02-04 05:38:44.649571+01 | 1486183124.64957 | pgbench_branches_pkey |            57344
 2017-02-04 05:38:44.649571+01 | 1486183124.64957 | pgbench_tellers_pkey  |           262144
 2017-02-04 05:38:44.649571+01 | 1486183124.64957 | pgbench_accounts_pkey |        224641024

 2017-02-04 05:38:45.725628+01 | 1486183125.72563 | pgbench_branches_pkey |            57344
 2017-02-04 05:38:45.725628+01 | 1486183125.72563 | pgbench_tellers_pkey  |           262144
 2017-02-04 05:38:45.725628+01 | 1486183125.72563 | pgbench_accounts_pkey |        224641024

 2017-02-04 05:38:46.795956+01 | 1486183126.79596 | pgbench_branches_pkey |            57344
 2017-02-04 05:38:46.795956+01 | 1486183126.79596 | pgbench_tellers_pkey  |           262144
 2017-02-04 05:38:46.795956+01 | 1486183126.79596 | pgbench_accounts_pkey |        224641024

 2017-02-04 05:38:47.878146+01 | 1486183127.87815 | pgbench_branches_pkey |            57344
 2017-02-04 05:38:47.878146+01 | 1486183127.87815 | pgbench_tellers_pkey  |           262144
 2017-02-04 05:38:47.878146+01 | 1486183127.87815 | pgbench_accounts_pkey |        224641024

 2017-02-04 05:38:48.956768+01 | 1486183128.95677 | pgbench_branches_pkey |            57344
 2017-02-04 05:38:48.956768+01 | 1486183128.95677 | pgbench_tellers_pkey  |           262144
 2017-02-04 05:38:48.956768+01 | 1486183128.95677 | pgbench_accounts_pkey |        224641024

 2017-02-04 05:38:50.029973+01 | 1486183130.02997 | pgbench_branches_pkey |            57344
 2017-02-04 05:38:50.029973+01 | 1486183130.02997 | pgbench_tellers_pkey  |           262144
 2017-02-04 05:38:50.029973+01 | 1486183130.02997 | pgbench_accounts_pkey |        224641024

 2017-02-04 05:38:51.10717+01 | 1486183131.10717 | pgbench_branches_pkey |            57344
 2017-02-04 05:38:51.10717+01 | 1486183131.10717 | pgbench_tellers_pkey  |           262144
 2017-02-04 05:38:51.10717+01 | 1486183131.10717 | pgbench_accounts_pkey |        224641024

 2017-02-04 05:38:52.180366+01 | 1486183132.18037 | pgbench_branches_pkey |            57344
 2017-02-04 05:38:52.180366+01 | 1486183132.18037 | pgbench_tellers_pkey  |           262144
 2017-02-04 05:38:52.180366+01 | 1486183132.18037 | pgbench_accounts_pkey |        224641024

 2017-02-04 05:38:53.249447+01 | 1486183133.24945 | pgbench_branches_pkey |            57344
 2017-02-04 05:38:53.249447+01 | 1486183133.24945 | pgbench_tellers_pkey  |           262144
 2017-02-04 05:38:53.249447+01 | 1486183133.24945 | pgbench_accounts_pkey |        224641024

 2017-02-04 05:38:54.323563+01 | 1486183134.32356 | pgbench_branches_pkey |            57344
 2017-02-04 05:38:54.323563+01 | 1486183134.32356 | pgbench_tellers_pkey  |           262144
 2017-02-04 05:38:54.323563+01 | 1486183134.32356 | pgbench_accounts_pkey |        224641024

 2017-02-04 05:38:55.399212+01 | 1486183135.39921 | pgbench_branches_pkey |            57344
 2017-02-04 05:38:55.399212+01 | 1486183135.39921 | pgbench_tellers_pkey  |           262144
 2017-02-04 05:38:55.399212+01 | 1486183135.39921 | pgbench_accounts_pkey |        224641024

 2017-02-04 05:38:56.47218+01 | 1486183136.47218 | pgbench_branches_pkey |            57344
 2017-02-04 05:38:56.47218+01 | 1486183136.47218 | pgbench_tellers_pkey  |           262144
 2017-02-04 05:38:56.47218+01 | 1486183136.47218 | pgbench_accounts_pkey |        224641024

 2017-02-04 05:38:57.54653+01 | 1486183137.54653 | pgbench_branches_pkey |            57344
 2017-02-04 05:38:57.54653+01 | 1486183137.54653 | pgbench_tellers_pkey  |           262144
 2017-02-04 05:38:57.54653+01 | 1486183137.54653 | pgbench_accounts_pkey |        224641024

 2017-02-04 05:38:58.629864+01 | 1486183138.62986 | pgbench_branches_pkey |            57344
 2017-02-04 05:38:58.629864+01 | 1486183138.62986 | pgbench_tellers_pkey  |           262144
 2017-02-04 05:38:58.629864+01 | 1486183138.62986 | pgbench_accounts_pkey |        224641024

 2017-02-04 05:38:59.704906+01 | 1486183139.70491 | pgbench_branches_pkey |            57344
 2017-02-04 05:38:59.704906+01 | 1486183139.70491 | pgbench_tellers_pkey  |           262144
 2017-02-04 05:38:59.704906+01 | 1486183139.70491 | pgbench_accounts_pkey |        224641024

 2017-02-04 05:39:00.778299+01 | 1486183140.7783 | pgbench_branches_pkey |            57344
 2017-02-04 05:39:00.778299+01 | 1486183140.7783 | pgbench_tellers_pkey  |           262144
 2017-02-04 05:39:00.778299+01 | 1486183140.7783 | pgbench_accounts_pkey |        224641024

 2017-02-04 05:39:01.861637+01 | 1486183141.86164 | pgbench_branches_pkey |            57344
 2017-02-04 05:39:01.861637+01 | 1486183141.86164 | pgbench_tellers_pkey  |           262144
 2017-02-04 05:39:01.861637+01 | 1486183141.86164 | pgbench_accounts_pkey |        224641024

 2017-02-04 05:39:02.941473+01 | 1486183142.94147 | pgbench_branches_pkey |            57344
 2017-02-04 05:39:02.941473+01 | 1486183142.94147 | pgbench_tellers_pkey  |           262144
 2017-02-04 05:39:02.941473+01 | 1486183142.94147 | pgbench_accounts_pkey |        224641024

 2017-02-04 05:39:04.023611+01 | 1486183144.02361 | pgbench_branches_pkey |            57344
 2017-02-04 05:39:04.023611+01 | 1486183144.02361 | pgbench_tellers_pkey  |           262144
 2017-02-04 05:39:04.023611+01 | 1486183144.02361 | pgbench_accounts_pkey |        224641024

 2017-02-04 05:39:05.096401+01 | 1486183145.0964 | pgbench_branches_pkey |            57344
 2017-02-04 05:39:05.096401+01 | 1486183145.0964 | pgbench_tellers_pkey  |           262144
 2017-02-04 05:39:05.096401+01 | 1486183145.0964 | pgbench_accounts_pkey |        224641024

 2017-02-04 05:39:06.176413+01 | 1486183146.17641 | pgbench_branches_pkey |            57344
 2017-02-04 05:39:06.176413+01 | 1486183146.17641 | pgbench_tellers_pkey  |           262144
 2017-02-04 05:39:06.176413+01 | 1486183146.17641 | pgbench_accounts_pkey |        224641024

 2017-02-04 05:39:07.24439+01 | 1486183147.24439 | pgbench_branches_pkey |            57344
 2017-02-04 05:39:07.24439+01 | 1486183147.24439 | pgbench_tellers_pkey  |           262144
 2017-02-04 05:39:07.24439+01 | 1486183147.24439 | pgbench_accounts_pkey |        224641024

 2017-02-04 05:39:08.326425+01 | 1486183148.32643 | pgbench_branches_pkey |            57344
 2017-02-04 05:39:08.326425+01 | 1486183148.32643 | pgbench_tellers_pkey  |           262144
 2017-02-04 05:39:08.326425+01 | 1486183148.32643 | pgbench_accounts_pkey |        224641024

 2017-02-04 05:39:09.400787+01 | 1486183149.40079 | pgbench_branches_pkey |            57344
 2017-02-04 05:39:09.400787+01 | 1486183149.40079 | pgbench_tellers_pkey  |           262144
 2017-02-04 05:39:09.400787+01 | 1486183149.40079 | pgbench_accounts_pkey |        224641024

 2017-02-04 05:39:10.474004+01 | 1486183150.474 | pgbench_branches_pkey |            57344
 2017-02-04 05:39:10.474004+01 | 1486183150.474 | pgbench_tellers_pkey  |           262144
 2017-02-04 05:39:10.474004+01 | 1486183150.474 | pgbench_accounts_pkey |        224641024

 2017-02-04 05:39:11.544835+01 | 1486183151.54484 | pgbench_branches_pkey |            57344
 2017-02-04 05:39:11.544835+01 | 1486183151.54484 | pgbench_tellers_pkey  |           262144
 2017-02-04 05:39:11.544835+01 | 1486183151.54484 | pgbench_accounts_pkey |        224641024

 2017-02-04 05:39:12.620979+01 | 1486183152.62098 | pgbench_branches_pkey |            57344
 2017-02-04 05:39:12.620979+01 | 1486183152.62098 | pgbench_tellers_pkey  |           262144
 2017-02-04 05:39:12.620979+01 | 1486183152.62098 | pgbench_accounts_pkey |        224641024

 2017-02-04 05:39:13.704549+01 | 1486183153.70455 | pgbench_branches_pkey |            57344
 2017-02-04 05:39:13.704549+01 | 1486183153.70455 | pgbench_tellers_pkey  |           262144
 2017-02-04 05:39:13.704549+01 | 1486183153.70455 | pgbench_accounts_pkey |        224641024

 2017-02-04 05:39:14.778324+01 | 1486183154.77832 | pgbench_branches_pkey |            57344
 2017-02-04 05:39:14.778324+01 | 1486183154.77832 | pgbench_tellers_pkey  |           262144
 2017-02-04 05:39:14.778324+01 | 1486183154.77832 | pgbench_accounts_pkey |        224641024

 2017-02-04 05:39:15.845758+01 | 1486183155.84576 | pgbench_branches_pkey |            57344
 2017-02-04 05:39:15.845758+01 | 1486183155.84576 | pgbench_tellers_pkey  |           262144
 2017-02-04 05:39:15.845758+01 | 1486183155.84576 | pgbench_accounts_pkey |        224641024

 2017-02-04 05:39:16.920028+01 | 1486183156.92003 | pgbench_branches_pkey |            57344
 2017-02-04 05:39:16.920028+01 | 1486183156.92003 | pgbench_tellers_pkey  |           262144
 2017-02-04 05:39:16.920028+01 | 1486183156.92003 | pgbench_accounts_pkey |        224641024

 2017-02-04 05:39:18.000439+01 | 1486183158.00044 | pgbench_branches_pkey |            57344
 2017-02-04 05:39:18.000439+01 | 1486183158.00044 | pgbench_tellers_pkey  |           262144
 2017-02-04 05:39:18.000439+01 | 1486183158.00044 | pgbench_accounts_pkey |        224641024

 2017-02-04 05:39:19.077008+01 | 1486183159.07701 | pgbench_branches_pkey |            57344
 2017-02-04 05:39:19.077008+01 | 1486183159.07701 | pgbench_tellers_pkey  |           262144
 2017-02-04 05:39:19.077008+01 | 1486183159.07701 | pgbench_accounts_pkey |        224641024

 2017-02-04 05:39:20.157676+01 | 1486183160.15768 | pgbench_branches_pkey |            57344
 2017-02-04 05:39:20.157676+01 | 1486183160.15768 | pgbench_tellers_pkey  |           262144
 2017-02-04 05:39:20.157676+01 | 1486183160.15768 | pgbench_accounts_pkey |        224641024

 2017-02-04 05:39:21.239329+01 | 1486183161.23933 | pgbench_branches_pkey |            57344
 2017-02-04 05:39:21.239329+01 | 1486183161.23933 | pgbench_tellers_pkey  |           262144
 2017-02-04 05:39:21.239329+01 | 1486183161.23933 | pgbench_accounts_pkey |        224641024

 2017-02-04 05:39:22.323316+01 | 1486183162.32332 | pgbench_branches_pkey |            57344
 2017-02-04 05:39:22.323316+01 | 1486183162.32332 | pgbench_tellers_pkey  |           262144
 2017-02-04 05:39:22.323316+01 | 1486183162.32332 | pgbench_accounts_pkey |        224641024

 2017-02-04 05:39:23.39837+01 | 1486183163.39837 | pgbench_branches_pkey |            57344
 2017-02-04 05:39:23.39837+01 | 1486183163.39837 | pgbench_tellers_pkey  |           262144
 2017-02-04 05:39:23.39837+01 | 1486183163.39837 | pgbench_accounts_pkey |        224641024

 2017-02-04 05:39:24.469975+01 | 1486183164.46997 | pgbench_branches_pkey |            57344
 2017-02-04 05:39:24.469975+01 | 1486183164.46997 | pgbench_tellers_pkey  |           262144
 2017-02-04 05:39:24.469975+01 | 1486183164.46997 | pgbench_accounts_pkey |        224641024

 2017-02-04 05:39:25.546766+01 | 1486183165.54677 | pgbench_branches_pkey |            57344
 2017-02-04 05:39:25.546766+01 | 1486183165.54677 | pgbench_tellers_pkey  |           262144
 2017-02-04 05:39:25.546766+01 | 1486183165.54677 | pgbench_accounts_pkey |        224641024

 2017-02-04 05:39:26.623614+01 | 1486183166.62361 | pgbench_branches_pkey |            57344
 2017-02-04 05:39:26.623614+01 | 1486183166.62361 | pgbench_tellers_pkey  |           262144
 2017-02-04 05:39:26.623614+01 | 1486183166.62361 | pgbench_accounts_pkey |        224641024

 2017-02-04 05:39:27.696798+01 | 1486183167.6968 | pgbench_branches_pkey |            57344
 2017-02-04 05:39:27.696798+01 | 1486183167.6968 | pgbench_tellers_pkey  |           262144
 2017-02-04 05:39:27.696798+01 | 1486183167.6968 | pgbench_accounts_pkey |        224641024

 2017-02-04 05:39:28.773323+01 | 1486183168.77332 | pgbench_branches_pkey |            57344
 2017-02-04 05:39:28.773323+01 | 1486183168.77332 | pgbench_tellers_pkey  |           262144
 2017-02-04 05:39:28.773323+01 | 1486183168.77332 | pgbench_accounts_pkey |        224641024

 2017-02-04 05:39:29.846248+01 | 1486183169.84625 | pgbench_branches_pkey |            57344
 2017-02-04 05:39:29.846248+01 | 1486183169.84625 | pgbench_tellers_pkey  |           262144
 2017-02-04 05:39:29.846248+01 | 1486183169.84625 | pgbench_accounts_pkey |        224641024

 2017-02-04 05:39:30.91837+01 | 1486183170.91837 | pgbench_branches_pkey |            57344
 2017-02-04 05:39:30.91837+01 | 1486183170.91837 | pgbench_tellers_pkey  |           262144
 2017-02-04 05:39:30.91837+01 | 1486183170.91837 | pgbench_accounts_pkey |        224641024

 2017-02-04 05:39:31.990316+01 | 1486183171.99032 | pgbench_branches_pkey |            57344
 2017-02-04 05:39:31.990316+01 | 1486183171.99032 | pgbench_tellers_pkey  |           262144
 2017-02-04 05:39:31.990316+01 | 1486183171.99032 | pgbench_accounts_pkey |        224641024

 2017-02-04 05:39:33.066413+01 | 1486183173.06641 | pgbench_branches_pkey |            57344
 2017-02-04 05:39:33.066413+01 | 1486183173.06641 | pgbench_tellers_pkey  |           262144
 2017-02-04 05:39:33.066413+01 | 1486183173.06641 | pgbench_accounts_pkey |        224641024

 2017-02-04 05:39:34.148075+01 | 1486183174.14808 | pgbench_branches_pkey |            57344
 2017-02-04 05:39:34.148075+01 | 1486183174.14808 | pgbench_tellers_pkey  |           262144
 2017-02-04 05:39:34.148075+01 | 1486183174.14808 | pgbench_accounts_pkey |        224641024

 2017-02-04 05:39:35.228089+01 | 1486183175.22809 | pgbench_branches_pkey |            57344
 2017-02-04 05:39:35.228089+01 | 1486183175.22809 | pgbench_tellers_pkey  |           262144
 2017-02-04 05:39:35.228089+01 | 1486183175.22809 | pgbench_accounts_pkey |        224641024

 2017-02-04 05:39:36.301408+01 | 1486183176.30141 | pgbench_branches_pkey |            57344
 2017-02-04 05:39:36.301408+01 | 1486183176.30141 | pgbench_tellers_pkey  |           262144
 2017-02-04 05:39:36.301408+01 | 1486183176.30141 | pgbench_accounts_pkey |        224641024

 2017-02-04 05:39:37.37395+01 | 1486183177.37395 | pgbench_branches_pkey |            57344
 2017-02-04 05:39:37.37395+01 | 1486183177.37395 | pgbench_tellers_pkey  |           262144
 2017-02-04 05:39:37.37395+01 | 1486183177.37395 | pgbench_accounts_pkey |        224641024

 2017-02-04 05:39:38.445104+01 | 1486183178.4451 | pgbench_branches_pkey |            57344
 2017-02-04 05:39:38.445104+01 | 1486183178.4451 | pgbench_tellers_pkey  |           262144
 2017-02-04 05:39:38.445104+01 | 1486183178.4451 | pgbench_accounts_pkey |        224641024

 2017-02-04 05:39:39.521644+01 | 1486183179.52164 | pgbench_branches_pkey |            57344
 2017-02-04 05:39:39.521644+01 | 1486183179.52164 | pgbench_tellers_pkey  |           262144
 2017-02-04 05:39:39.521644+01 | 1486183179.52164 | pgbench_accounts_pkey |        224641024

 2017-02-04 05:39:40.609483+01 | 1486183180.60948 | pgbench_branches_pkey |            57344
 2017-02-04 05:39:40.609483+01 | 1486183180.60948 | pgbench_tellers_pkey  |           262144
 2017-02-04 05:39:40.609483+01 | 1486183180.60948 | pgbench_accounts_pkey |        224641024

 2017-02-04 05:39:41.681929+01 | 1486183181.68193 | pgbench_branches_pkey |            57344
 2017-02-04 05:39:41.681929+01 | 1486183181.68193 | pgbench_tellers_pkey  |           262144
 2017-02-04 05:39:41.681929+01 | 1486183181.68193 | pgbench_accounts_pkey |        224641024

 2017-02-04 05:39:42.758216+01 | 1486183182.75822 | pgbench_branches_pkey |            57344
 2017-02-04 05:39:42.758216+01 | 1486183182.75822 | pgbench_tellers_pkey  |           262144
 2017-02-04 05:39:42.758216+01 | 1486183182.75822 | pgbench_accounts_pkey |        224641024

 2017-02-04 05:39:43.83429+01 | 1486183183.83429 | pgbench_branches_pkey |            57344
 2017-02-04 05:39:43.83429+01 | 1486183183.83429 | pgbench_tellers_pkey  |           262144
 2017-02-04 05:39:43.83429+01 | 1486183183.83429 | pgbench_accounts_pkey |        224641024

 2017-02-04 05:39:44.909285+01 | 1486183184.90929 | pgbench_branches_pkey |            57344
 2017-02-04 05:39:44.909285+01 | 1486183184.90929 | pgbench_tellers_pkey  |           262144
 2017-02-04 05:39:44.909285+01 | 1486183184.90929 | pgbench_accounts_pkey |        224641024

 2017-02-04 05:39:45.986607+01 | 1486183185.98661 | pgbench_branches_pkey |            57344
 2017-02-04 05:39:45.986607+01 | 1486183185.98661 | pgbench_tellers_pkey  |           262144
 2017-02-04 05:39:45.986607+01 | 1486183185.98661 | pgbench_accounts_pkey |        224641024

 2017-02-04 05:39:47.061333+01 | 1486183187.06133 | pgbench_branches_pkey |            57344
 2017-02-04 05:39:47.061333+01 | 1486183187.06133 | pgbench_tellers_pkey  |           262144
 2017-02-04 05:39:47.061333+01 | 1486183187.06133 | pgbench_accounts_pkey |        224641024

 2017-02-04 05:39:48.135475+01 | 1486183188.13547 | pgbench_branches_pkey |            57344
 2017-02-04 05:39:48.135475+01 | 1486183188.13547 | pgbench_tellers_pkey  |           262144
 2017-02-04 05:39:48.135475+01 | 1486183188.13547 | pgbench_accounts_pkey |        224641024

 2017-02-04 05:39:49.210113+01 | 1486183189.21011 | pgbench_branches_pkey |            57344
 2017-02-04 05:39:49.210113+01 | 1486183189.21011 | pgbench_tellers_pkey  |           262144
 2017-02-04 05:39:49.210113+01 | 1486183189.21011 | pgbench_accounts_pkey |        224641024

 2017-02-04 05:39:50.280324+01 | 1486183190.28032 | pgbench_branches_pkey |            57344
 2017-02-04 05:39:50.280324+01 | 1486183190.28032 | pgbench_tellers_pkey  |           262144
 2017-02-04 05:39:50.280324+01 | 1486183190.28032 | pgbench_accounts_pkey |        224641024

 2017-02-04 05:39:51.350865+01 | 1486183191.35086 | pgbench_branches_pkey |            57344
 2017-02-04 05:39:51.350865+01 | 1486183191.35086 | pgbench_tellers_pkey  |           262144
 2017-02-04 05:39:51.350865+01 | 1486183191.35086 | pgbench_accounts_pkey |        224641024

 2017-02-04 05:39:52.426559+01 | 1486183192.42656 | pgbench_branches_pkey |            57344
 2017-02-04 05:39:52.426559+01 | 1486183192.42656 | pgbench_tellers_pkey  |           262144
 2017-02-04 05:39:52.426559+01 | 1486183192.42656 | pgbench_accounts_pkey |        224641024

 2017-02-04 05:39:53.507023+01 | 1486183193.50702 | pgbench_branches_pkey |            57344
 2017-02-04 05:39:53.507023+01 | 1486183193.50702 | pgbench_tellers_pkey  |           262144
 2017-02-04 05:39:53.507023+01 | 1486183193.50702 | pgbench_accounts_pkey |        224641024

 2017-02-04 05:39:54.581547+01 | 1486183194.58155 | pgbench_branches_pkey |            57344
 2017-02-04 05:39:54.581547+01 | 1486183194.58155 | pgbench_tellers_pkey  |           262144
 2017-02-04 05:39:54.581547+01 | 1486183194.58155 | pgbench_accounts_pkey |        224641024

 2017-02-04 05:39:55.659412+01 | 1486183195.65941 | pgbench_branches_pkey |            57344
 2017-02-04 05:39:55.659412+01 | 1486183195.65941 | pgbench_tellers_pkey  |           262144
 2017-02-04 05:39:55.659412+01 | 1486183195.65941 | pgbench_accounts_pkey |        224641024

 2017-02-04 05:39:56.735312+01 | 1486183196.73531 | pgbench_branches_pkey |            57344
 2017-02-04 05:39:56.735312+01 | 1486183196.73531 | pgbench_tellers_pkey  |           262144
 2017-02-04 05:39:56.735312+01 | 1486183196.73531 | pgbench_accounts_pkey |        224641024

 2017-02-04 05:39:57.809707+01 | 1486183197.80971 | pgbench_branches_pkey |            57344
 2017-02-04 05:39:57.809707+01 | 1486183197.80971 | pgbench_tellers_pkey  |           262144
 2017-02-04 05:39:57.809707+01 | 1486183197.80971 | pgbench_accounts_pkey |        224641024

 2017-02-04 05:39:58.886887+01 | 1486183198.88689 | pgbench_branches_pkey |            57344
 2017-02-04 05:39:58.886887+01 | 1486183198.88689 | pgbench_tellers_pkey  |           262144
 2017-02-04 05:39:58.886887+01 | 1486183198.88689 | pgbench_accounts_pkey |        224641024

 2017-02-04 05:39:59.96029+01 | 1486183199.96029 | pgbench_branches_pkey |            57344
 2017-02-04 05:39:59.96029+01 | 1486183199.96029 | pgbench_tellers_pkey  |           262144
 2017-02-04 05:39:59.96029+01 | 1486183199.96029 | pgbench_accounts_pkey |        224641024

 2017-02-04 05:40:01.040152+01 | 1486183201.04015 | pgbench_branches_pkey |            57344
 2017-02-04 05:40:01.040152+01 | 1486183201.04015 | pgbench_tellers_pkey  |           262144
 2017-02-04 05:40:01.040152+01 | 1486183201.04015 | pgbench_accounts_pkey |        224641024

 2017-02-04 05:40:02.113888+01 | 1486183202.11389 | pgbench_branches_pkey |            57344
 2017-02-04 05:40:02.113888+01 | 1486183202.11389 | pgbench_tellers_pkey  |           262144
 2017-02-04 05:40:02.113888+01 | 1486183202.11389 | pgbench_accounts_pkey |        224641024

 2017-02-04 05:40:03.190913+01 | 1486183203.19091 | pgbench_branches_pkey |            57344
 2017-02-04 05:40:03.190913+01 | 1486183203.19091 | pgbench_tellers_pkey  |           262144
 2017-02-04 05:40:03.190913+01 | 1486183203.19091 | pgbench_accounts_pkey |        224641024

 2017-02-04 05:40:04.266763+01 | 1486183204.26676 | pgbench_branches_pkey |            57344
 2017-02-04 05:40:04.266763+01 | 1486183204.26676 | pgbench_tellers_pkey  |           262144
 2017-02-04 05:40:04.266763+01 | 1486183204.26676 | pgbench_accounts_pkey |        224641024

 2017-02-04 05:40:05.343132+01 | 1486183205.34313 | pgbench_branches_pkey |            57344
 2017-02-04 05:40:05.343132+01 | 1486183205.34313 | pgbench_tellers_pkey  |           262144
 2017-02-04 05:40:05.343132+01 | 1486183205.34313 | pgbench_accounts_pkey |        224641024

 2017-02-04 05:40:06.414543+01 | 1486183206.41454 | pgbench_branches_pkey |            57344
 2017-02-04 05:40:06.414543+01 | 1486183206.41454 | pgbench_tellers_pkey  |           262144
 2017-02-04 05:40:06.414543+01 | 1486183206.41454 | pgbench_accounts_pkey |        224641024

 2017-02-04 05:40:07.487946+01 | 1486183207.48795 | pgbench_branches_pkey |            57344
 2017-02-04 05:40:07.487946+01 | 1486183207.48795 | pgbench_tellers_pkey  |           262144
 2017-02-04 05:40:07.487946+01 | 1486183207.48795 | pgbench_accounts_pkey |        224641024

 2017-02-04 05:40:08.564157+01 | 1486183208.56416 | pgbench_branches_pkey |            57344
 2017-02-04 05:40:08.564157+01 | 1486183208.56416 | pgbench_tellers_pkey  |           262144
 2017-02-04 05:40:08.564157+01 | 1486183208.56416 | pgbench_accounts_pkey |        224641024

 2017-02-04 05:40:09.640152+01 | 1486183209.64015 | pgbench_branches_pkey |            57344
 2017-02-04 05:40:09.640152+01 | 1486183209.64015 | pgbench_tellers_pkey  |           262144
 2017-02-04 05:40:09.640152+01 | 1486183209.64015 | pgbench_accounts_pkey |        224641024

 2017-02-04 05:40:10.719293+01 | 1486183210.71929 | pgbench_branches_pkey |            57344
 2017-02-04 05:40:10.719293+01 | 1486183210.71929 | pgbench_tellers_pkey  |           262144
 2017-02-04 05:40:10.719293+01 | 1486183210.71929 | pgbench_accounts_pkey |        224641024

 2017-02-04 05:40:11.798766+01 | 1486183211.79877 | pgbench_branches_pkey |            57344
 2017-02-04 05:40:11.798766+01 | 1486183211.79877 | pgbench_tellers_pkey  |           262144
 2017-02-04 05:40:11.798766+01 | 1486183211.79877 | pgbench_accounts_pkey |        224641024

 2017-02-04 05:40:12.879422+01 | 1486183212.87942 | pgbench_branches_pkey |            57344
 2017-02-04 05:40:12.879422+01 | 1486183212.87942 | pgbench_tellers_pkey  |           262144
 2017-02-04 05:40:12.879422+01 | 1486183212.87942 | pgbench_accounts_pkey |        224641024

 2017-02-04 05:40:13.973681+01 | 1486183213.97368 | pgbench_branches_pkey |            57344
 2017-02-04 05:40:13.973681+01 | 1486183213.97368 | pgbench_tellers_pkey  |           262144
 2017-02-04 05:40:13.973681+01 | 1486183213.97368 | pgbench_accounts_pkey |        224641024

 2017-02-04 05:40:15.052484+01 | 1486183215.05248 | pgbench_branches_pkey |            57344
 2017-02-04 05:40:15.052484+01 | 1486183215.05248 | pgbench_tellers_pkey  |           262144
 2017-02-04 05:40:15.052484+01 | 1486183215.05248 | pgbench_accounts_pkey |        224641024

 2017-02-04 05:40:16.134078+01 | 1486183216.13408 | pgbench_branches_pkey |            57344
 2017-02-04 05:40:16.134078+01 | 1486183216.13408 | pgbench_tellers_pkey  |           262144
 2017-02-04 05:40:16.134078+01 | 1486183216.13408 | pgbench_accounts_pkey |        224641024

 2017-02-04 05:40:17.211549+01 | 1486183217.21155 | pgbench_branches_pkey |            57344
 2017-02-04 05:40:17.211549+01 | 1486183217.21155 | pgbench_tellers_pkey  |           262144
 2017-02-04 05:40:17.211549+01 | 1486183217.21155 | pgbench_accounts_pkey |        224641024

 2017-02-04 05:40:18.286101+01 | 1486183218.2861 | pgbench_branches_pkey |            57344
 2017-02-04 05:40:18.286101+01 | 1486183218.2861 | pgbench_tellers_pkey  |           262144
 2017-02-04 05:40:18.286101+01 | 1486183218.2861 | pgbench_accounts_pkey |        224641024

 2017-02-04 05:40:19.356601+01 | 1486183219.3566 | pgbench_branches_pkey |            57344
 2017-02-04 05:40:19.356601+01 | 1486183219.3566 | pgbench_tellers_pkey  |           262144
 2017-02-04 05:40:19.356601+01 | 1486183219.3566 | pgbench_accounts_pkey |        224641024

 2017-02-04 05:40:20.45486+01 | 1486183220.45486 | pgbench_branches_pkey |            57344
 2017-02-04 05:40:20.45486+01 | 1486183220.45486 | pgbench_tellers_pkey  |           262144
 2017-02-04 05:40:20.45486+01 | 1486183220.45486 | pgbench_accounts_pkey |        224641024

 2017-02-04 05:40:21.546276+01 | 1486183221.54628 | pgbench_branches_pkey |            57344
 2017-02-04 05:40:21.546276+01 | 1486183221.54628 | pgbench_tellers_pkey  |           262144
 2017-02-04 05:40:21.546276+01 | 1486183221.54628 | pgbench_accounts_pkey |        224641024

 2017-02-04 05:40:22.629075+01 | 1486183222.62908 | pgbench_branches_pkey |            57344
 2017-02-04 05:40:22.629075+01 | 1486183222.62908 | pgbench_tellers_pkey  |           262144
 2017-02-04 05:40:22.629075+01 | 1486183222.62908 | pgbench_accounts_pkey |        224641024

 2017-02-04 05:40:23.711784+01 | 1486183223.71178 | pgbench_branches_pkey |            57344
 2017-02-04 05:40:23.711784+01 | 1486183223.71178 | pgbench_tellers_pkey  |           262144
 2017-02-04 05:40:23.711784+01 | 1486183223.71178 | pgbench_accounts_pkey |        224641024

 2017-02-04 05:40:24.786523+01 | 1486183224.78652 | pgbench_branches_pkey |            57344
 2017-02-04 05:40:24.786523+01 | 1486183224.78652 | pgbench_tellers_pkey  |           262144
 2017-02-04 05:40:24.786523+01 | 1486183224.78652 | pgbench_accounts_pkey |        224641024

 2017-02-04 05:40:25.862739+01 | 1486183225.86274 | pgbench_branches_pkey |            57344
 2017-02-04 05:40:25.862739+01 | 1486183225.86274 | pgbench_tellers_pkey  |           262144
 2017-02-04 05:40:25.862739+01 | 1486183225.86274 | pgbench_accounts_pkey |        224641024

 2017-02-04 05:40:26.936649+01 | 1486183226.93665 | pgbench_branches_pkey |            57344
 2017-02-04 05:40:26.936649+01 | 1486183226.93665 | pgbench_tellers_pkey  |           262144
 2017-02-04 05:40:26.936649+01 | 1486183226.93665 | pgbench_accounts_pkey |        224641024

 2017-02-04 05:40:28.011085+01 | 1486183228.01109 | pgbench_branches_pkey |            57344
 2017-02-04 05:40:28.011085+01 | 1486183228.01109 | pgbench_tellers_pkey  |           262144
 2017-02-04 05:40:28.011085+01 | 1486183228.01109 | pgbench_accounts_pkey |        224641024

 2017-02-04 05:40:29.085715+01 | 1486183229.08572 | pgbench_branches_pkey |            57344
 2017-02-04 05:40:29.085715+01 | 1486183229.08572 | pgbench_tellers_pkey  |           262144
 2017-02-04 05:40:29.085715+01 | 1486183229.08572 | pgbench_accounts_pkey |        224641024

 2017-02-04 05:40:30.157812+01 | 1486183230.15781 | pgbench_branches_pkey |            57344
 2017-02-04 05:40:30.157812+01 | 1486183230.15781 | pgbench_tellers_pkey  |           262144
 2017-02-04 05:40:30.157812+01 | 1486183230.15781 | pgbench_accounts_pkey |        224641024

 2017-02-04 05:40:31.231554+01 | 1486183231.23155 | pgbench_branches_pkey |            57344
 2017-02-04 05:40:31.231554+01 | 1486183231.23155 | pgbench_tellers_pkey  |           262144
 2017-02-04 05:40:31.231554+01 | 1486183231.23155 | pgbench_accounts_pkey |        224641024

 2017-02-04 05:40:32.310704+01 | 1486183232.3107 | pgbench_branches_pkey |            57344
 2017-02-04 05:40:32.310704+01 | 1486183232.3107 | pgbench_tellers_pkey  |           262144
 2017-02-04 05:40:32.310704+01 | 1486183232.3107 | pgbench_accounts_pkey |        224641024

 2017-02-04 05:40:33.388819+01 | 1486183233.38882 | pgbench_branches_pkey |            57344
 2017-02-04 05:40:33.388819+01 | 1486183233.38882 | pgbench_tellers_pkey  |           262144
 2017-02-04 05:40:33.388819+01 | 1486183233.38882 | pgbench_accounts_pkey |        224641024

 2017-02-04 05:40:34.463332+01 | 1486183234.46333 | pgbench_branches_pkey |            57344
 2017-02-04 05:40:34.463332+01 | 1486183234.46333 | pgbench_tellers_pkey  |           262144
 2017-02-04 05:40:34.463332+01 | 1486183234.46333 | pgbench_accounts_pkey |        224641024

 2017-02-04 05:40:35.547362+01 | 1486183235.54736 | pgbench_branches_pkey |            57344
 2017-02-04 05:40:35.547362+01 | 1486183235.54736 | pgbench_tellers_pkey  |           262144
 2017-02-04 05:40:35.547362+01 | 1486183235.54736 | pgbench_accounts_pkey |        224641024

 2017-02-04 05:40:36.621292+01 | 1486183236.62129 | pgbench_branches_pkey |            57344
 2017-02-04 05:40:36.621292+01 | 1486183236.62129 | pgbench_tellers_pkey  |           262144
 2017-02-04 05:40:36.621292+01 | 1486183236.62129 | pgbench_accounts_pkey |        224641024

 2017-02-04 05:40:37.696343+01 | 1486183237.69634 | pgbench_branches_pkey |            57344
 2017-02-04 05:40:37.696343+01 | 1486183237.69634 | pgbench_tellers_pkey  |           262144
 2017-02-04 05:40:37.696343+01 | 1486183237.69634 | pgbench_accounts_pkey |        224641024

 2017-02-04 05:40:38.778008+01 | 1486183238.77801 | pgbench_branches_pkey |            57344
 2017-02-04 05:40:38.778008+01 | 1486183238.77801 | pgbench_tellers_pkey  |           262144
 2017-02-04 05:40:38.778008+01 | 1486183238.77801 | pgbench_accounts_pkey |        224641024

 2017-02-04 05:40:39.85106+01 | 1486183239.85106 | pgbench_branches_pkey |            57344
 2017-02-04 05:40:39.85106+01 | 1486183239.85106 | pgbench_tellers_pkey  |           262144
 2017-02-04 05:40:39.85106+01 | 1486183239.85106 | pgbench_accounts_pkey |        224641024

 2017-02-04 05:40:40.927751+01 | 1486183240.92775 | pgbench_branches_pkey |            57344
 2017-02-04 05:40:40.927751+01 | 1486183240.92775 | pgbench_tellers_pkey  |           262144
 2017-02-04 05:40:40.927751+01 | 1486183240.92775 | pgbench_accounts_pkey |        224641024

 2017-02-04 05:40:42.005708+01 | 1486183242.00571 | pgbench_branches_pkey |            57344
 2017-02-04 05:40:42.005708+01 | 1486183242.00571 | pgbench_tellers_pkey  |           262144
 2017-02-04 05:40:42.005708+01 | 1486183242.00571 | pgbench_accounts_pkey |        224641024

 2017-02-04 05:40:43.079879+01 | 1486183243.07988 | pgbench_branches_pkey |            57344
 2017-02-04 05:40:43.079879+01 | 1486183243.07988 | pgbench_tellers_pkey  |           262144
 2017-02-04 05:40:43.079879+01 | 1486183243.07988 | pgbench_accounts_pkey |        224641024

 2017-02-04 05:40:44.155673+01 | 1486183244.15567 | pgbench_branches_pkey |            57344
 2017-02-04 05:40:44.155673+01 | 1486183244.15567 | pgbench_tellers_pkey  |           262144
 2017-02-04 05:40:44.155673+01 | 1486183244.15567 | pgbench_accounts_pkey |        224641024

 2017-02-04 05:40:45.230206+01 | 1486183245.23021 | pgbench_branches_pkey |            57344
 2017-02-04 05:40:45.230206+01 | 1486183245.23021 | pgbench_tellers_pkey  |           262144
 2017-02-04 05:40:45.230206+01 | 1486183245.23021 | pgbench_accounts_pkey |        224641024

 2017-02-04 05:40:46.307053+01 | 1486183246.30705 | pgbench_branches_pkey |            57344
 2017-02-04 05:40:46.307053+01 | 1486183246.30705 | pgbench_tellers_pkey  |           262144
 2017-02-04 05:40:46.307053+01 | 1486183246.30705 | pgbench_accounts_pkey |        224641024

 2017-02-04 05:40:47.388094+01 | 1486183247.38809 | pgbench_branches_pkey |            57344
 2017-02-04 05:40:47.388094+01 | 1486183247.38809 | pgbench_tellers_pkey  |           262144
 2017-02-04 05:40:47.388094+01 | 1486183247.38809 | pgbench_accounts_pkey |        224641024

 2017-02-04 05:40:48.466321+01 | 1486183248.46632 | pgbench_branches_pkey |            57344
 2017-02-04 05:40:48.466321+01 | 1486183248.46632 | pgbench_tellers_pkey  |           262144
 2017-02-04 05:40:48.466321+01 | 1486183248.46632 | pgbench_accounts_pkey |        224641024

 2017-02-04 05:40:49.540956+01 | 1486183249.54096 | pgbench_branches_pkey |            57344
 2017-02-04 05:40:49.540956+01 | 1486183249.54096 | pgbench_tellers_pkey  |           262144
 2017-02-04 05:40:49.540956+01 | 1486183249.54096 | pgbench_accounts_pkey |        224641024

 2017-02-04 05:40:50.613677+01 | 1486183250.61368 | pgbench_branches_pkey |            57344
 2017-02-04 05:40:50.613677+01 | 1486183250.61368 | pgbench_tellers_pkey  |           262144
 2017-02-04 05:40:50.613677+01 | 1486183250.61368 | pgbench_accounts_pkey |        224641024

 2017-02-04 05:40:51.693388+01 | 1486183251.69339 | pgbench_branches_pkey |            57344
 2017-02-04 05:40:51.693388+01 | 1486183251.69339 | pgbench_tellers_pkey  |           262144
 2017-02-04 05:40:51.693388+01 | 1486183251.69339 | pgbench_accounts_pkey |        224641024

 2017-02-04 05:40:52.771298+01 | 1486183252.7713 | pgbench_branches_pkey |            57344
 2017-02-04 05:40:52.771298+01 | 1486183252.7713 | pgbench_tellers_pkey  |           262144
 2017-02-04 05:40:52.771298+01 | 1486183252.7713 | pgbench_accounts_pkey |        224641024

 2017-02-04 05:40:53.851004+01 | 1486183253.851 | pgbench_branches_pkey |            57344
 2017-02-04 05:40:53.851004+01 | 1486183253.851 | pgbench_tellers_pkey  |           262144
 2017-02-04 05:40:53.851004+01 | 1486183253.851 | pgbench_accounts_pkey |        224641024

 2017-02-04 05:40:54.925412+01 | 1486183254.92541 | pgbench_branches_pkey |            57344
 2017-02-04 05:40:54.925412+01 | 1486183254.92541 | pgbench_tellers_pkey  |           262144
 2017-02-04 05:40:54.925412+01 | 1486183254.92541 | pgbench_accounts_pkey |        224641024

 2017-02-04 05:40:55.999365+01 | 1486183255.99937 | pgbench_branches_pkey |            57344
 2017-02-04 05:40:55.999365+01 | 1486183255.99937 | pgbench_tellers_pkey  |           262144
 2017-02-04 05:40:55.999365+01 | 1486183255.99937 | pgbench_accounts_pkey |        224641024

 2017-02-04 05:40:57.075894+01 | 1486183257.07589 | pgbench_branches_pkey |            57344
 2017-02-04 05:40:57.075894+01 | 1486183257.07589 | pgbench_tellers_pkey  |           262144
 2017-02-04 05:40:57.075894+01 | 1486183257.07589 | pgbench_accounts_pkey |        224641024

 2017-02-04 05:40:58.149204+01 | 1486183258.1492 | pgbench_branches_pkey |            57344
 2017-02-04 05:40:58.149204+01 | 1486183258.1492 | pgbench_tellers_pkey  |           262144
 2017-02-04 05:40:58.149204+01 | 1486183258.1492 | pgbench_accounts_pkey |        224641024

 2017-02-04 05:40:59.223395+01 | 1486183259.2234 | pgbench_branches_pkey |            57344
 2017-02-04 05:40:59.223395+01 | 1486183259.2234 | pgbench_tellers_pkey  |           262144
 2017-02-04 05:40:59.223395+01 | 1486183259.2234 | pgbench_accounts_pkey |        224641024

 2017-02-04 05:41:00.288877+01 | 1486183260.28888 | pgbench_branches_pkey |            57344
 2017-02-04 05:41:00.288877+01 | 1486183260.28888 | pgbench_tellers_pkey  |           262144
 2017-02-04 05:41:00.288877+01 | 1486183260.28888 | pgbench_accounts_pkey |        224641024

 2017-02-04 05:41:01.360434+01 | 1486183261.36043 | pgbench_branches_pkey |            57344
 2017-02-04 05:41:01.360434+01 | 1486183261.36043 | pgbench_tellers_pkey  |           262144
 2017-02-04 05:41:01.360434+01 | 1486183261.36043 | pgbench_accounts_pkey |        224641024

 2017-02-04 05:41:02.43325+01 | 1486183262.43325 | pgbench_branches_pkey |            57344
 2017-02-04 05:41:02.43325+01 | 1486183262.43325 | pgbench_tellers_pkey  |           262144
 2017-02-04 05:41:02.43325+01 | 1486183262.43325 | pgbench_accounts_pkey |        224641024

 2017-02-04 05:41:03.506832+01 | 1486183263.50683 | pgbench_branches_pkey |            57344
 2017-02-04 05:41:03.506832+01 | 1486183263.50683 | pgbench_tellers_pkey  |           262144
 2017-02-04 05:41:03.506832+01 | 1486183263.50683 | pgbench_accounts_pkey |        224641024

 2017-02-04 05:41:04.578524+01 | 1486183264.57852 | pgbench_branches_pkey |            57344
 2017-02-04 05:41:04.578524+01 | 1486183264.57852 | pgbench_tellers_pkey  |           262144
 2017-02-04 05:41:04.578524+01 | 1486183264.57852 | pgbench_accounts_pkey |        224641024

 2017-02-04 05:41:05.645009+01 | 1486183265.64501 | pgbench_branches_pkey |            57344
 2017-02-04 05:41:05.645009+01 | 1486183265.64501 | pgbench_tellers_pkey  |           262144
 2017-02-04 05:41:05.645009+01 | 1486183265.64501 | pgbench_accounts_pkey |        224641024

 2017-02-04 05:41:06.720355+01 | 1486183266.72036 | pgbench_branches_pkey |            57344
 2017-02-04 05:41:06.720355+01 | 1486183266.72036 | pgbench_tellers_pkey  |           262144
 2017-02-04 05:41:06.720355+01 | 1486183266.72036 | pgbench_accounts_pkey |        224641024

 2017-02-04 05:41:07.796921+01 | 1486183267.79692 | pgbench_branches_pkey |            57344
 2017-02-04 05:41:07.796921+01 | 1486183267.79692 | pgbench_tellers_pkey  |           262144
 2017-02-04 05:41:07.796921+01 | 1486183267.79692 | pgbench_accounts_pkey |        224641024

 2017-02-04 05:41:08.870932+01 | 1486183268.87093 | pgbench_branches_pkey |            57344
 2017-02-04 05:41:08.870932+01 | 1486183268.87093 | pgbench_tellers_pkey  |           262144
 2017-02-04 05:41:08.870932+01 | 1486183268.87093 | pgbench_accounts_pkey |        224641024

 2017-02-04 05:41:09.951402+01 | 1486183269.9514 | pgbench_branches_pkey |            57344
 2017-02-04 05:41:09.951402+01 | 1486183269.9514 | pgbench_tellers_pkey  |           262144
 2017-02-04 05:41:09.951402+01 | 1486183269.9514 | pgbench_accounts_pkey |        224641024

 2017-02-04 05:41:11.029246+01 | 1486183271.02925 | pgbench_branches_pkey |            57344
 2017-02-04 05:41:11.029246+01 | 1486183271.02925 | pgbench_tellers_pkey  |           262144
 2017-02-04 05:41:11.029246+01 | 1486183271.02925 | pgbench_accounts_pkey |        224641024

 2017-02-04 05:41:12.10799+01 | 1486183272.10799 | pgbench_branches_pkey |            57344
 2017-02-04 05:41:12.10799+01 | 1486183272.10799 | pgbench_tellers_pkey  |           262144
 2017-02-04 05:41:12.10799+01 | 1486183272.10799 | pgbench_accounts_pkey |        224641024

 2017-02-04 05:41:13.185047+01 | 1486183273.18505 | pgbench_branches_pkey |            57344
 2017-02-04 05:41:13.185047+01 | 1486183273.18505 | pgbench_tellers_pkey  |           262144
 2017-02-04 05:41:13.185047+01 | 1486183273.18505 | pgbench_accounts_pkey |        224641024

 2017-02-04 05:41:14.255613+01 | 1486183274.25561 | pgbench_branches_pkey |            57344
 2017-02-04 05:41:14.255613+01 | 1486183274.25561 | pgbench_tellers_pkey  |           262144
 2017-02-04 05:41:14.255613+01 | 1486183274.25561 | pgbench_accounts_pkey |        224641024

 2017-02-04 05:41:15.33059+01 | 1486183275.33059 | pgbench_branches_pkey |            57344
 2017-02-04 05:41:15.33059+01 | 1486183275.33059 | pgbench_tellers_pkey  |           262144
 2017-02-04 05:41:15.33059+01 | 1486183275.33059 | pgbench_accounts_pkey |        224641024

 2017-02-04 05:41:16.402575+01 | 1486183276.40258 | pgbench_branches_pkey |            57344
 2017-02-04 05:41:16.402575+01 | 1486183276.40258 | pgbench_tellers_pkey  |           262144
 2017-02-04 05:41:16.402575+01 | 1486183276.40258 | pgbench_accounts_pkey |        224641024

 2017-02-04 05:41:17.471313+01 | 1486183277.47131 | pgbench_branches_pkey |            57344
 2017-02-04 05:41:17.471313+01 | 1486183277.47131 | pgbench_tellers_pkey  |           262144
 2017-02-04 05:41:17.471313+01 | 1486183277.47131 | pgbench_accounts_pkey |        224641024

 2017-02-04 05:41:18.539288+01 | 1486183278.53929 | pgbench_branches_pkey |            57344
 2017-02-04 05:41:18.539288+01 | 1486183278.53929 | pgbench_tellers_pkey  |           262144
 2017-02-04 05:41:18.539288+01 | 1486183278.53929 | pgbench_accounts_pkey |        224641024

 2017-02-04 05:41:19.610073+01 | 1486183279.61007 | pgbench_branches_pkey |            57344
 2017-02-04 05:41:19.610073+01 | 1486183279.61007 | pgbench_tellers_pkey  |           262144
 2017-02-04 05:41:19.610073+01 | 1486183279.61007 | pgbench_accounts_pkey |        224641024

 2017-02-04 05:41:20.686783+01 | 1486183280.68678 | pgbench_branches_pkey |            57344
 2017-02-04 05:41:20.686783+01 | 1486183280.68678 | pgbench_tellers_pkey  |           262144
 2017-02-04 05:41:20.686783+01 | 1486183280.68678 | pgbench_accounts_pkey |        224641024

 2017-02-04 05:41:21.773919+01 | 1486183281.77392 | pgbench_branches_pkey |            57344
 2017-02-04 05:41:21.773919+01 | 1486183281.77392 | pgbench_tellers_pkey  |           262144
 2017-02-04 05:41:21.773919+01 | 1486183281.77392 | pgbench_accounts_pkey |        224641024

 2017-02-04 05:41:22.851955+01 | 1486183282.85195 | pgbench_branches_pkey |            57344
 2017-02-04 05:41:22.851955+01 | 1486183282.85195 | pgbench_tellers_pkey  |           262144
 2017-02-04 05:41:22.851955+01 | 1486183282.85195 | pgbench_accounts_pkey |        224641024

 2017-02-04 05:41:23.924155+01 | 1486183283.92415 | pgbench_branches_pkey |            57344
 2017-02-04 05:41:23.924155+01 | 1486183283.92415 | pgbench_tellers_pkey  |           262144
 2017-02-04 05:41:23.924155+01 | 1486183283.92415 | pgbench_accounts_pkey |        224641024

 2017-02-04 05:41:25.006026+01 | 1486183285.00603 | pgbench_branches_pkey |            57344
 2017-02-04 05:41:25.006026+01 | 1486183285.00603 | pgbench_tellers_pkey  |           262144
 2017-02-04 05:41:25.006026+01 | 1486183285.00603 | pgbench_accounts_pkey |        224641024

 2017-02-04 05:41:26.075977+01 | 1486183286.07598 | pgbench_branches_pkey |            57344
 2017-02-04 05:41:26.075977+01 | 1486183286.07598 | pgbench_tellers_pkey  |           262144
 2017-02-04 05:41:26.075977+01 | 1486183286.07598 | pgbench_accounts_pkey |        224641024

 2017-02-04 05:41:27.157831+01 | 1486183287.15783 | pgbench_branches_pkey |            57344
 2017-02-04 05:41:27.157831+01 | 1486183287.15783 | pgbench_tellers_pkey  |           262144
 2017-02-04 05:41:27.157831+01 | 1486183287.15783 | pgbench_accounts_pkey |        224641024

 2017-02-04 05:41:28.230039+01 | 1486183288.23004 | pgbench_branches_pkey |            57344
 2017-02-04 05:41:28.230039+01 | 1486183288.23004 | pgbench_tellers_pkey  |           262144
 2017-02-04 05:41:28.230039+01 | 1486183288.23004 | pgbench_accounts_pkey |        224641024

 2017-02-04 05:41:29.305995+01 | 1486183289.30599 | pgbench_branches_pkey |            57344
 2017-02-04 05:41:29.305995+01 | 1486183289.30599 | pgbench_tellers_pkey  |           262144
 2017-02-04 05:41:29.305995+01 | 1486183289.30599 | pgbench_accounts_pkey |        224641024

 2017-02-04 05:41:30.381894+01 | 1486183290.38189 | pgbench_branches_pkey |            57344
 2017-02-04 05:41:30.381894+01 | 1486183290.38189 | pgbench_tellers_pkey  |           262144
 2017-02-04 05:41:30.381894+01 | 1486183290.38189 | pgbench_accounts_pkey |        224641024

 2017-02-04 05:41:31.452629+01 | 1486183291.45263 | pgbench_branches_pkey |            57344
 2017-02-04 05:41:31.452629+01 | 1486183291.45263 | pgbench_tellers_pkey  |           262144
 2017-02-04 05:41:31.452629+01 | 1486183291.45263 | pgbench_accounts_pkey |        224641024

 2017-02-04 05:41:32.527972+01 | 1486183292.52797 | pgbench_branches_pkey |            57344
 2017-02-04 05:41:32.527972+01 | 1486183292.52797 | pgbench_tellers_pkey  |           262144
 2017-02-04 05:41:32.527972+01 | 1486183292.52797 | pgbench_accounts_pkey |        224641024

 2017-02-04 05:41:33.60323+01 | 1486183293.60323 | pgbench_branches_pkey |            57344
 2017-02-04 05:41:33.60323+01 | 1486183293.60323 | pgbench_tellers_pkey  |           262144
 2017-02-04 05:41:33.60323+01 | 1486183293.60323 | pgbench_accounts_pkey |        224641024

 2017-02-04 05:41:34.678361+01 | 1486183294.67836 | pgbench_branches_pkey |            57344
 2017-02-04 05:41:34.678361+01 | 1486183294.67836 | pgbench_tellers_pkey  |           262144
 2017-02-04 05:41:34.678361+01 | 1486183294.67836 | pgbench_accounts_pkey |        224641024

