 2017-02-06 14:34:59.001284+01 | 1486388099.00128 | pgbench_branches_pkey |          1368064
 2017-02-06 14:34:59.001284+01 | 1486388099.00128 | pgbench_tellers_pkey  |          5259264
 2017-02-06 14:34:59.001284+01 | 1486388099.00128 | pgbench_accounts_pkey |       2246197248

 2017-02-06 14:35:00.092389+01 | 1486388100.09239 | pgbench_branches_pkey |          1368064
 2017-02-06 14:35:00.092389+01 | 1486388100.09239 | pgbench_tellers_pkey  |          5259264
 2017-02-06 14:35:00.092389+01 | 1486388100.09239 | pgbench_accounts_pkey |       2246197248

 2017-02-06 14:35:01.172691+01 | 1486388101.17269 | pgbench_branches_pkey |          1368064
 2017-02-06 14:35:01.172691+01 | 1486388101.17269 | pgbench_tellers_pkey  |          5259264
 2017-02-06 14:35:01.172691+01 | 1486388101.17269 | pgbench_accounts_pkey |       2246197248

 2017-02-06 14:35:02.253777+01 | 1486388102.25378 | pgbench_branches_pkey |          1368064
 2017-02-06 14:35:02.253777+01 | 1486388102.25378 | pgbench_tellers_pkey  |          5259264
 2017-02-06 14:35:02.253777+01 | 1486388102.25378 | pgbench_accounts_pkey |       2246197248

 2017-02-06 14:35:03.341559+01 | 1486388103.34156 | pgbench_branches_pkey |          1368064
 2017-02-06 14:35:03.341559+01 | 1486388103.34156 | pgbench_tellers_pkey  |          5259264
 2017-02-06 14:35:03.341559+01 | 1486388103.34156 | pgbench_accounts_pkey |       2246197248

 2017-02-06 14:35:04.42803+01 | 1486388104.42803 | pgbench_branches_pkey |          1368064
 2017-02-06 14:35:04.42803+01 | 1486388104.42803 | pgbench_tellers_pkey  |          5259264
 2017-02-06 14:35:04.42803+01 | 1486388104.42803 | pgbench_accounts_pkey |       2246197248

 2017-02-06 14:35:05.516617+01 | 1486388105.51662 | pgbench_branches_pkey |          1368064
 2017-02-06 14:35:05.516617+01 | 1486388105.51662 | pgbench_tellers_pkey  |          5259264
 2017-02-06 14:35:05.516617+01 | 1486388105.51662 | pgbench_accounts_pkey |       2246197248

 2017-02-06 14:35:06.606272+01 | 1486388106.60627 | pgbench_branches_pkey |          1368064
 2017-02-06 14:35:06.606272+01 | 1486388106.60627 | pgbench_tellers_pkey  |          5259264
 2017-02-06 14:35:06.606272+01 | 1486388106.60627 | pgbench_accounts_pkey |       2246197248

 2017-02-06 14:35:07.70366+01 | 1486388107.70366 | pgbench_branches_pkey |          1368064
 2017-02-06 14:35:07.70366+01 | 1486388107.70366 | pgbench_tellers_pkey  |          5259264
 2017-02-06 14:35:07.70366+01 | 1486388107.70366 | pgbench_accounts_pkey |       2246197248

 2017-02-06 14:35:08.787573+01 | 1486388108.78757 | pgbench_branches_pkey |          1368064
 2017-02-06 14:35:08.787573+01 | 1486388108.78757 | pgbench_tellers_pkey  |          5259264
 2017-02-06 14:35:08.787573+01 | 1486388108.78757 | pgbench_accounts_pkey |       2246197248

 2017-02-06 14:35:09.872164+01 | 1486388109.87216 | pgbench_branches_pkey |          1368064
 2017-02-06 14:35:09.872164+01 | 1486388109.87216 | pgbench_tellers_pkey  |          5259264
 2017-02-06 14:35:09.872164+01 | 1486388109.87216 | pgbench_accounts_pkey |       2246197248

 2017-02-06 14:35:10.954976+01 | 1486388110.95498 | pgbench_branches_pkey |          1368064
 2017-02-06 14:35:10.954976+01 | 1486388110.95498 | pgbench_tellers_pkey  |          5259264
 2017-02-06 14:35:10.954976+01 | 1486388110.95498 | pgbench_accounts_pkey |       2246197248

 2017-02-06 14:35:12.032872+01 | 1486388112.03287 | pgbench_branches_pkey |          1368064
 2017-02-06 14:35:12.032872+01 | 1486388112.03287 | pgbench_tellers_pkey  |          5259264
 2017-02-06 14:35:12.032872+01 | 1486388112.03287 | pgbench_accounts_pkey |       2246197248

 2017-02-06 14:35:13.126306+01 | 1486388113.12631 | pgbench_branches_pkey |          1368064
 2017-02-06 14:35:13.126306+01 | 1486388113.12631 | pgbench_tellers_pkey  |          5259264
 2017-02-06 14:35:13.126306+01 | 1486388113.12631 | pgbench_accounts_pkey |       2246197248

 2017-02-06 14:35:14.211922+01 | 1486388114.21192 | pgbench_branches_pkey |          1368064
 2017-02-06 14:35:14.211922+01 | 1486388114.21192 | pgbench_tellers_pkey  |          5259264
 2017-02-06 14:35:14.211922+01 | 1486388114.21192 | pgbench_accounts_pkey |       2246197248

 2017-02-06 14:35:15.300027+01 | 1486388115.30003 | pgbench_branches_pkey |          1368064
 2017-02-06 14:35:15.300027+01 | 1486388115.30003 | pgbench_tellers_pkey  |          5259264
 2017-02-06 14:35:15.300027+01 | 1486388115.30003 | pgbench_accounts_pkey |       2246197248

 2017-02-06 14:35:16.387355+01 | 1486388116.38736 | pgbench_branches_pkey |          1368064
 2017-02-06 14:35:16.387355+01 | 1486388116.38736 | pgbench_tellers_pkey  |          5259264
 2017-02-06 14:35:16.387355+01 | 1486388116.38736 | pgbench_accounts_pkey |       2246197248

 2017-02-06 14:35:17.479848+01 | 1486388117.47985 | pgbench_branches_pkey |          1368064
 2017-02-06 14:35:17.479848+01 | 1486388117.47985 | pgbench_tellers_pkey  |          5259264
 2017-02-06 14:35:17.479848+01 | 1486388117.47985 | pgbench_accounts_pkey |       2246197248

 2017-02-06 14:35:18.577956+01 | 1486388118.57796 | pgbench_branches_pkey |          1368064
 2017-02-06 14:35:18.577956+01 | 1486388118.57796 | pgbench_tellers_pkey  |          5259264
 2017-02-06 14:35:18.577956+01 | 1486388118.57796 | pgbench_accounts_pkey |       2246197248

 2017-02-06 14:35:19.668595+01 | 1486388119.6686 | pgbench_branches_pkey |          1368064
 2017-02-06 14:35:19.668595+01 | 1486388119.6686 | pgbench_tellers_pkey  |          5259264
 2017-02-06 14:35:19.668595+01 | 1486388119.6686 | pgbench_accounts_pkey |       2246197248

 2017-02-06 14:35:20.756824+01 | 1486388120.75682 | pgbench_branches_pkey |          1368064
 2017-02-06 14:35:20.756824+01 | 1486388120.75682 | pgbench_tellers_pkey  |          5259264
 2017-02-06 14:35:20.756824+01 | 1486388120.75682 | pgbench_accounts_pkey |       2246197248

 2017-02-06 14:35:21.843984+01 | 1486388121.84398 | pgbench_branches_pkey |          1368064
 2017-02-06 14:35:21.843984+01 | 1486388121.84398 | pgbench_tellers_pkey  |          5259264
 2017-02-06 14:35:21.843984+01 | 1486388121.84398 | pgbench_accounts_pkey |       2246197248

 2017-02-06 14:35:22.927612+01 | 1486388122.92761 | pgbench_branches_pkey |          1368064
 2017-02-06 14:35:22.927612+01 | 1486388122.92761 | pgbench_tellers_pkey  |          5259264
 2017-02-06 14:35:22.927612+01 | 1486388122.92761 | pgbench_accounts_pkey |       2246197248

 2017-02-06 14:35:24.004754+01 | 1486388124.00475 | pgbench_branches_pkey |          1368064
 2017-02-06 14:35:24.004754+01 | 1486388124.00475 | pgbench_tellers_pkey  |          5259264
 2017-02-06 14:35:24.004754+01 | 1486388124.00475 | pgbench_accounts_pkey |       2246197248

 2017-02-06 14:35:25.090777+01 | 1486388125.09078 | pgbench_branches_pkey |          1368064
 2017-02-06 14:35:25.090777+01 | 1486388125.09078 | pgbench_tellers_pkey  |          5259264
 2017-02-06 14:35:25.090777+01 | 1486388125.09078 | pgbench_accounts_pkey |       2246197248

 2017-02-06 14:35:26.182462+01 | 1486388126.18246 | pgbench_branches_pkey |          1368064
 2017-02-06 14:35:26.182462+01 | 1486388126.18246 | pgbench_tellers_pkey  |          5259264
 2017-02-06 14:35:26.182462+01 | 1486388126.18246 | pgbench_accounts_pkey |       2246197248

 2017-02-06 14:35:27.270318+01 | 1486388127.27032 | pgbench_branches_pkey |          1368064
 2017-02-06 14:35:27.270318+01 | 1486388127.27032 | pgbench_tellers_pkey  |          5259264
 2017-02-06 14:35:27.270318+01 | 1486388127.27032 | pgbench_accounts_pkey |       2246197248

 2017-02-06 14:35:28.370896+01 | 1486388128.3709 | pgbench_branches_pkey |          1368064
 2017-02-06 14:35:28.370896+01 | 1486388128.3709 | pgbench_tellers_pkey  |          5259264
 2017-02-06 14:35:28.370896+01 | 1486388128.3709 | pgbench_accounts_pkey |       2246197248

 2017-02-06 14:35:29.463458+01 | 1486388129.46346 | pgbench_branches_pkey |          1368064
 2017-02-06 14:35:29.463458+01 | 1486388129.46346 | pgbench_tellers_pkey  |          5259264
 2017-02-06 14:35:29.463458+01 | 1486388129.46346 | pgbench_accounts_pkey |       2246197248

 2017-02-06 14:35:30.556336+01 | 1486388130.55634 | pgbench_branches_pkey |          1368064
 2017-02-06 14:35:30.556336+01 | 1486388130.55634 | pgbench_tellers_pkey  |          5259264
 2017-02-06 14:35:30.556336+01 | 1486388130.55634 | pgbench_accounts_pkey |       2246197248

 2017-02-06 14:35:31.660796+01 | 1486388131.6608 | pgbench_branches_pkey |          1368064
 2017-02-06 14:35:31.660796+01 | 1486388131.6608 | pgbench_tellers_pkey  |          5259264
 2017-02-06 14:35:31.660796+01 | 1486388131.6608 | pgbench_accounts_pkey |       2246197248

 2017-02-06 14:35:32.747802+01 | 1486388132.7478 | pgbench_branches_pkey |          1368064
 2017-02-06 14:35:32.747802+01 | 1486388132.7478 | pgbench_tellers_pkey  |          5259264
 2017-02-06 14:35:32.747802+01 | 1486388132.7478 | pgbench_accounts_pkey |       2246197248

 2017-02-06 14:35:33.846138+01 | 1486388133.84614 | pgbench_branches_pkey |          1368064
 2017-02-06 14:35:33.846138+01 | 1486388133.84614 | pgbench_tellers_pkey  |          5259264
 2017-02-06 14:35:33.846138+01 | 1486388133.84614 | pgbench_accounts_pkey |       2246197248

 2017-02-06 14:35:34.927178+01 | 1486388134.92718 | pgbench_branches_pkey |          1368064
 2017-02-06 14:35:34.927178+01 | 1486388134.92718 | pgbench_tellers_pkey  |          5259264
 2017-02-06 14:35:34.927178+01 | 1486388134.92718 | pgbench_accounts_pkey |       2246197248

 2017-02-06 14:35:36.012445+01 | 1486388136.01244 | pgbench_branches_pkey |          1368064
 2017-02-06 14:35:36.012445+01 | 1486388136.01244 | pgbench_tellers_pkey  |          5259264
 2017-02-06 14:35:36.012445+01 | 1486388136.01244 | pgbench_accounts_pkey |       2246197248

 2017-02-06 14:35:37.080187+01 | 1486388137.08019 | pgbench_branches_pkey |          1368064
 2017-02-06 14:35:37.080187+01 | 1486388137.08019 | pgbench_tellers_pkey  |          5259264
 2017-02-06 14:35:37.080187+01 | 1486388137.08019 | pgbench_accounts_pkey |       2246197248

 2017-02-06 14:35:38.192487+01 | 1486388138.19249 | pgbench_branches_pkey |          1368064
 2017-02-06 14:35:38.192487+01 | 1486388138.19249 | pgbench_tellers_pkey  |          5259264
 2017-02-06 14:35:38.192487+01 | 1486388138.19249 | pgbench_accounts_pkey |       2246197248

 2017-02-06 14:35:39.279389+01 | 1486388139.27939 | pgbench_branches_pkey |          1368064
 2017-02-06 14:35:39.279389+01 | 1486388139.27939 | pgbench_tellers_pkey  |          5259264
 2017-02-06 14:35:39.279389+01 | 1486388139.27939 | pgbench_accounts_pkey |       2246197248

 2017-02-06 14:35:40.371824+01 | 1486388140.37182 | pgbench_branches_pkey |          1368064
 2017-02-06 14:35:40.371824+01 | 1486388140.37182 | pgbench_tellers_pkey  |          5259264
 2017-02-06 14:35:40.371824+01 | 1486388140.37182 | pgbench_accounts_pkey |       2246197248

 2017-02-06 14:35:41.465338+01 | 1486388141.46534 | pgbench_branches_pkey |          1368064
 2017-02-06 14:35:41.465338+01 | 1486388141.46534 | pgbench_tellers_pkey  |          5259264
 2017-02-06 14:35:41.465338+01 | 1486388141.46534 | pgbench_accounts_pkey |       2246197248

 2017-02-06 14:35:42.545693+01 | 1486388142.54569 | pgbench_branches_pkey |          1368064
 2017-02-06 14:35:42.545693+01 | 1486388142.54569 | pgbench_tellers_pkey  |          5259264
 2017-02-06 14:35:42.545693+01 | 1486388142.54569 | pgbench_accounts_pkey |       2246197248

 2017-02-06 14:35:43.629917+01 | 1486388143.62992 | pgbench_branches_pkey |          1368064
 2017-02-06 14:35:43.629917+01 | 1486388143.62992 | pgbench_tellers_pkey  |          5259264
 2017-02-06 14:35:43.629917+01 | 1486388143.62992 | pgbench_accounts_pkey |       2246197248

 2017-02-06 14:35:44.718944+01 | 1486388144.71894 | pgbench_branches_pkey |          1368064
 2017-02-06 14:35:44.718944+01 | 1486388144.71894 | pgbench_tellers_pkey  |          5259264
 2017-02-06 14:35:44.718944+01 | 1486388144.71894 | pgbench_accounts_pkey |       2246197248

 2017-02-06 14:35:45.809618+01 | 1486388145.80962 | pgbench_branches_pkey |          1368064
 2017-02-06 14:35:45.809618+01 | 1486388145.80962 | pgbench_tellers_pkey  |          5259264
 2017-02-06 14:35:45.809618+01 | 1486388145.80962 | pgbench_accounts_pkey |       2246197248

 2017-02-06 14:35:46.902992+01 | 1486388146.90299 | pgbench_branches_pkey |          1368064
 2017-02-06 14:35:46.902992+01 | 1486388146.90299 | pgbench_tellers_pkey  |          5259264
 2017-02-06 14:35:46.902992+01 | 1486388146.90299 | pgbench_accounts_pkey |       2246197248

 2017-02-06 14:35:47.971632+01 | 1486388147.97163 | pgbench_branches_pkey |          1368064
 2017-02-06 14:35:47.971632+01 | 1486388147.97163 | pgbench_tellers_pkey  |          5259264
 2017-02-06 14:35:47.971632+01 | 1486388147.97163 | pgbench_accounts_pkey |       2246197248

 2017-02-06 14:35:49.054868+01 | 1486388149.05487 | pgbench_branches_pkey |          1368064
 2017-02-06 14:35:49.054868+01 | 1486388149.05487 | pgbench_tellers_pkey  |          5259264
 2017-02-06 14:35:49.054868+01 | 1486388149.05487 | pgbench_accounts_pkey |       2246197248

 2017-02-06 14:35:50.129933+01 | 1486388150.12993 | pgbench_branches_pkey |          1368064
 2017-02-06 14:35:50.129933+01 | 1486388150.12993 | pgbench_tellers_pkey  |          5259264
 2017-02-06 14:35:50.129933+01 | 1486388150.12993 | pgbench_accounts_pkey |       2246197248

 2017-02-06 14:35:51.202115+01 | 1486388151.20212 | pgbench_branches_pkey |          1368064
 2017-02-06 14:35:51.202115+01 | 1486388151.20212 | pgbench_tellers_pkey  |          5259264
 2017-02-06 14:35:51.202115+01 | 1486388151.20212 | pgbench_accounts_pkey |       2246197248

 2017-02-06 14:35:52.29486+01 | 1486388152.29486 | pgbench_branches_pkey |          1368064
 2017-02-06 14:35:52.29486+01 | 1486388152.29486 | pgbench_tellers_pkey  |          5259264
 2017-02-06 14:35:52.29486+01 | 1486388152.29486 | pgbench_accounts_pkey |       2246197248

 2017-02-06 14:35:53.3865+01 | 1486388153.3865 | pgbench_branches_pkey |          1368064
 2017-02-06 14:35:53.3865+01 | 1486388153.3865 | pgbench_tellers_pkey  |          5259264
 2017-02-06 14:35:53.3865+01 | 1486388153.3865 | pgbench_accounts_pkey |       2246197248

 2017-02-06 14:35:54.497458+01 | 1486388154.49746 | pgbench_branches_pkey |          1368064
 2017-02-06 14:35:54.497458+01 | 1486388154.49746 | pgbench_tellers_pkey  |          5259264
 2017-02-06 14:35:54.497458+01 | 1486388154.49746 | pgbench_accounts_pkey |       2246197248

 2017-02-06 14:35:55.586035+01 | 1486388155.58604 | pgbench_branches_pkey |          1368064
 2017-02-06 14:35:55.586035+01 | 1486388155.58604 | pgbench_tellers_pkey  |          5259264
 2017-02-06 14:35:55.586035+01 | 1486388155.58604 | pgbench_accounts_pkey |       2246197248

 2017-02-06 14:35:56.660979+01 | 1486388156.66098 | pgbench_branches_pkey |          1368064
 2017-02-06 14:35:56.660979+01 | 1486388156.66098 | pgbench_tellers_pkey  |          5259264
 2017-02-06 14:35:56.660979+01 | 1486388156.66098 | pgbench_accounts_pkey |       2246197248

 2017-02-06 14:35:57.766861+01 | 1486388157.76686 | pgbench_branches_pkey |          1368064
 2017-02-06 14:35:57.766861+01 | 1486388157.76686 | pgbench_tellers_pkey  |          5259264
 2017-02-06 14:35:57.766861+01 | 1486388157.76686 | pgbench_accounts_pkey |       2246197248

 2017-02-06 14:35:58.877299+01 | 1486388158.8773 | pgbench_branches_pkey |          1368064
 2017-02-06 14:35:58.877299+01 | 1486388158.8773 | pgbench_tellers_pkey  |          5259264
 2017-02-06 14:35:58.877299+01 | 1486388158.8773 | pgbench_accounts_pkey |       2246197248

 2017-02-06 14:35:59.970956+01 | 1486388159.97096 | pgbench_branches_pkey |          1368064
 2017-02-06 14:35:59.970956+01 | 1486388159.97096 | pgbench_tellers_pkey  |          5259264
 2017-02-06 14:35:59.970956+01 | 1486388159.97096 | pgbench_accounts_pkey |       2246197248

 2017-02-06 14:36:01.049829+01 | 1486388161.04983 | pgbench_branches_pkey |          1368064
 2017-02-06 14:36:01.049829+01 | 1486388161.04983 | pgbench_tellers_pkey  |          5259264
 2017-02-06 14:36:01.049829+01 | 1486388161.04983 | pgbench_accounts_pkey |       2246197248

 2017-02-06 14:36:02.131602+01 | 1486388162.1316 | pgbench_branches_pkey |          1368064
 2017-02-06 14:36:02.131602+01 | 1486388162.1316 | pgbench_tellers_pkey  |          5259264
 2017-02-06 14:36:02.131602+01 | 1486388162.1316 | pgbench_accounts_pkey |       2246197248

 2017-02-06 14:36:03.211833+01 | 1486388163.21183 | pgbench_branches_pkey |          1368064
 2017-02-06 14:36:03.211833+01 | 1486388163.21183 | pgbench_tellers_pkey  |          5259264
 2017-02-06 14:36:03.211833+01 | 1486388163.21183 | pgbench_accounts_pkey |       2246197248

 2017-02-06 14:36:04.302198+01 | 1486388164.3022 | pgbench_branches_pkey |          1368064
 2017-02-06 14:36:04.302198+01 | 1486388164.3022 | pgbench_tellers_pkey  |          5259264
 2017-02-06 14:36:04.302198+01 | 1486388164.3022 | pgbench_accounts_pkey |       2246197248

 2017-02-06 14:36:05.390453+01 | 1486388165.39045 | pgbench_branches_pkey |          1368064
 2017-02-06 14:36:05.390453+01 | 1486388165.39045 | pgbench_tellers_pkey  |          5259264
 2017-02-06 14:36:05.390453+01 | 1486388165.39045 | pgbench_accounts_pkey |       2246197248

 2017-02-06 14:36:06.485266+01 | 1486388166.48527 | pgbench_branches_pkey |          1368064
 2017-02-06 14:36:06.485266+01 | 1486388166.48527 | pgbench_tellers_pkey  |          5259264
 2017-02-06 14:36:06.485266+01 | 1486388166.48527 | pgbench_accounts_pkey |       2246197248

 2017-02-06 14:36:07.577891+01 | 1486388167.57789 | pgbench_branches_pkey |          1368064
 2017-02-06 14:36:07.577891+01 | 1486388167.57789 | pgbench_tellers_pkey  |          5259264
 2017-02-06 14:36:07.577891+01 | 1486388167.57789 | pgbench_accounts_pkey |       2246197248

 2017-02-06 14:36:08.668408+01 | 1486388168.66841 | pgbench_branches_pkey |          1368064
 2017-02-06 14:36:08.668408+01 | 1486388168.66841 | pgbench_tellers_pkey  |          5259264
 2017-02-06 14:36:08.668408+01 | 1486388168.66841 | pgbench_accounts_pkey |       2246197248

 2017-02-06 14:36:09.749179+01 | 1486388169.74918 | pgbench_branches_pkey |          1368064
 2017-02-06 14:36:09.749179+01 | 1486388169.74918 | pgbench_tellers_pkey  |          5259264
 2017-02-06 14:36:09.749179+01 | 1486388169.74918 | pgbench_accounts_pkey |       2246197248

 2017-02-06 14:36:10.837617+01 | 1486388170.83762 | pgbench_branches_pkey |          1368064
 2017-02-06 14:36:10.837617+01 | 1486388170.83762 | pgbench_tellers_pkey  |          5259264
 2017-02-06 14:36:10.837617+01 | 1486388170.83762 | pgbench_accounts_pkey |       2246197248

 2017-02-06 14:36:11.932724+01 | 1486388171.93272 | pgbench_branches_pkey |          1368064
 2017-02-06 14:36:11.932724+01 | 1486388171.93272 | pgbench_tellers_pkey  |          5259264
 2017-02-06 14:36:11.932724+01 | 1486388171.93272 | pgbench_accounts_pkey |       2246197248

 2017-02-06 14:36:13.006671+01 | 1486388173.00667 | pgbench_branches_pkey |          1368064
 2017-02-06 14:36:13.006671+01 | 1486388173.00667 | pgbench_tellers_pkey  |          5259264
 2017-02-06 14:36:13.006671+01 | 1486388173.00667 | pgbench_accounts_pkey |       2246197248

 2017-02-06 14:36:14.080716+01 | 1486388174.08072 | pgbench_branches_pkey |          1368064
 2017-02-06 14:36:14.080716+01 | 1486388174.08072 | pgbench_tellers_pkey  |          5259264
 2017-02-06 14:36:14.080716+01 | 1486388174.08072 | pgbench_accounts_pkey |       2246197248

 2017-02-06 14:36:15.157543+01 | 1486388175.15754 | pgbench_branches_pkey |          1368064
 2017-02-06 14:36:15.157543+01 | 1486388175.15754 | pgbench_tellers_pkey  |          5259264
 2017-02-06 14:36:15.157543+01 | 1486388175.15754 | pgbench_accounts_pkey |       2246197248

 2017-02-06 14:36:16.238543+01 | 1486388176.23854 | pgbench_branches_pkey |          1368064
 2017-02-06 14:36:16.238543+01 | 1486388176.23854 | pgbench_tellers_pkey  |          5259264
 2017-02-06 14:36:16.238543+01 | 1486388176.23854 | pgbench_accounts_pkey |       2246197248

 2017-02-06 14:36:17.325299+01 | 1486388177.3253 | pgbench_branches_pkey |          1368064
 2017-02-06 14:36:17.325299+01 | 1486388177.3253 | pgbench_tellers_pkey  |          5259264
 2017-02-06 14:36:17.325299+01 | 1486388177.3253 | pgbench_accounts_pkey |       2246197248

 2017-02-06 14:36:18.410753+01 | 1486388178.41075 | pgbench_branches_pkey |          1368064
 2017-02-06 14:36:18.410753+01 | 1486388178.41075 | pgbench_tellers_pkey  |          5259264
 2017-02-06 14:36:18.410753+01 | 1486388178.41075 | pgbench_accounts_pkey |       2246197248

 2017-02-06 14:36:19.523431+01 | 1486388179.52343 | pgbench_branches_pkey |          1368064
 2017-02-06 14:36:19.523431+01 | 1486388179.52343 | pgbench_tellers_pkey  |          5259264
 2017-02-06 14:36:19.523431+01 | 1486388179.52343 | pgbench_accounts_pkey |       2246197248

 2017-02-06 14:36:20.625729+01 | 1486388180.62573 | pgbench_branches_pkey |          1368064
 2017-02-06 14:36:20.625729+01 | 1486388180.62573 | pgbench_tellers_pkey  |          5259264
 2017-02-06 14:36:20.625729+01 | 1486388180.62573 | pgbench_accounts_pkey |       2246197248

 2017-02-06 14:36:21.714648+01 | 1486388181.71465 | pgbench_branches_pkey |          1368064
 2017-02-06 14:36:21.714648+01 | 1486388181.71465 | pgbench_tellers_pkey  |          5259264
 2017-02-06 14:36:21.714648+01 | 1486388181.71465 | pgbench_accounts_pkey |       2246197248

 2017-02-06 14:36:22.8015+01 | 1486388182.8015 | pgbench_branches_pkey |          1368064
 2017-02-06 14:36:22.8015+01 | 1486388182.8015 | pgbench_tellers_pkey  |          5259264
 2017-02-06 14:36:22.8015+01 | 1486388182.8015 | pgbench_accounts_pkey |       2246197248

 2017-02-06 14:36:23.881638+01 | 1486388183.88164 | pgbench_branches_pkey |          1368064
 2017-02-06 14:36:23.881638+01 | 1486388183.88164 | pgbench_tellers_pkey  |          5259264
 2017-02-06 14:36:23.881638+01 | 1486388183.88164 | pgbench_accounts_pkey |       2246197248

 2017-02-06 14:36:24.977929+01 | 1486388184.97793 | pgbench_branches_pkey |          1368064
 2017-02-06 14:36:24.977929+01 | 1486388184.97793 | pgbench_tellers_pkey  |          5259264
 2017-02-06 14:36:24.977929+01 | 1486388184.97793 | pgbench_accounts_pkey |       2246197248

 2017-02-06 14:36:26.063373+01 | 1486388186.06337 | pgbench_branches_pkey |          1368064
 2017-02-06 14:36:26.063373+01 | 1486388186.06337 | pgbench_tellers_pkey  |          5259264
 2017-02-06 14:36:26.063373+01 | 1486388186.06337 | pgbench_accounts_pkey |       2246197248

 2017-02-06 14:36:27.14824+01 | 1486388187.14824 | pgbench_branches_pkey |          1368064
 2017-02-06 14:36:27.14824+01 | 1486388187.14824 | pgbench_tellers_pkey  |          5259264
 2017-02-06 14:36:27.14824+01 | 1486388187.14824 | pgbench_accounts_pkey |       2246197248

 2017-02-06 14:36:28.223582+01 | 1486388188.22358 | pgbench_branches_pkey |          1368064
 2017-02-06 14:36:28.223582+01 | 1486388188.22358 | pgbench_tellers_pkey  |          5259264
 2017-02-06 14:36:28.223582+01 | 1486388188.22358 | pgbench_accounts_pkey |       2246197248

 2017-02-06 14:36:29.29973+01 | 1486388189.29973 | pgbench_branches_pkey |          1368064
 2017-02-06 14:36:29.29973+01 | 1486388189.29973 | pgbench_tellers_pkey  |          5259264
 2017-02-06 14:36:29.29973+01 | 1486388189.29973 | pgbench_accounts_pkey |       2246197248

 2017-02-06 14:36:30.392913+01 | 1486388190.39291 | pgbench_branches_pkey |          1368064
 2017-02-06 14:36:30.392913+01 | 1486388190.39291 | pgbench_tellers_pkey  |          5259264
 2017-02-06 14:36:30.392913+01 | 1486388190.39291 | pgbench_accounts_pkey |       2246197248

 2017-02-06 14:36:31.479139+01 | 1486388191.47914 | pgbench_branches_pkey |          1368064
 2017-02-06 14:36:31.479139+01 | 1486388191.47914 | pgbench_tellers_pkey  |          5259264
 2017-02-06 14:36:31.479139+01 | 1486388191.47914 | pgbench_accounts_pkey |       2246197248

 2017-02-06 14:36:32.561939+01 | 1486388192.56194 | pgbench_branches_pkey |          1368064
 2017-02-06 14:36:32.561939+01 | 1486388192.56194 | pgbench_tellers_pkey  |          5259264
 2017-02-06 14:36:32.561939+01 | 1486388192.56194 | pgbench_accounts_pkey |       2246197248

 2017-02-06 14:36:33.657135+01 | 1486388193.65714 | pgbench_branches_pkey |          1368064
 2017-02-06 14:36:33.657135+01 | 1486388193.65714 | pgbench_tellers_pkey  |          5259264
 2017-02-06 14:36:33.657135+01 | 1486388193.65714 | pgbench_accounts_pkey |       2246197248

 2017-02-06 14:36:34.741746+01 | 1486388194.74175 | pgbench_branches_pkey |          1368064
 2017-02-06 14:36:34.741746+01 | 1486388194.74175 | pgbench_tellers_pkey  |          5259264
 2017-02-06 14:36:34.741746+01 | 1486388194.74175 | pgbench_accounts_pkey |       2246197248

 2017-02-06 14:36:35.82002+01 | 1486388195.82002 | pgbench_branches_pkey |          1368064
 2017-02-06 14:36:35.82002+01 | 1486388195.82002 | pgbench_tellers_pkey  |          5259264
 2017-02-06 14:36:35.82002+01 | 1486388195.82002 | pgbench_accounts_pkey |       2246197248

 2017-02-06 14:36:36.894814+01 | 1486388196.89481 | pgbench_branches_pkey |          1368064
 2017-02-06 14:36:36.894814+01 | 1486388196.89481 | pgbench_tellers_pkey  |          5259264
 2017-02-06 14:36:36.894814+01 | 1486388196.89481 | pgbench_accounts_pkey |       2246197248

 2017-02-06 14:36:37.972353+01 | 1486388197.97235 | pgbench_branches_pkey |          1368064
 2017-02-06 14:36:37.972353+01 | 1486388197.97235 | pgbench_tellers_pkey  |          5259264
 2017-02-06 14:36:37.972353+01 | 1486388197.97235 | pgbench_accounts_pkey |       2246197248

 2017-02-06 14:36:39.067629+01 | 1486388199.06763 | pgbench_branches_pkey |          1368064
 2017-02-06 14:36:39.067629+01 | 1486388199.06763 | pgbench_tellers_pkey  |          5259264
 2017-02-06 14:36:39.067629+01 | 1486388199.06763 | pgbench_accounts_pkey |       2246197248

 2017-02-06 14:36:40.155984+01 | 1486388200.15598 | pgbench_branches_pkey |          1368064
 2017-02-06 14:36:40.155984+01 | 1486388200.15598 | pgbench_tellers_pkey  |          5259264
 2017-02-06 14:36:40.155984+01 | 1486388200.15598 | pgbench_accounts_pkey |       2246197248

 2017-02-06 14:36:41.237223+01 | 1486388201.23722 | pgbench_branches_pkey |          1368064
 2017-02-06 14:36:41.237223+01 | 1486388201.23722 | pgbench_tellers_pkey  |          5259264
 2017-02-06 14:36:41.237223+01 | 1486388201.23722 | pgbench_accounts_pkey |       2246197248

 2017-02-06 14:36:42.307917+01 | 1486388202.30792 | pgbench_branches_pkey |          1368064
 2017-02-06 14:36:42.307917+01 | 1486388202.30792 | pgbench_tellers_pkey  |          5259264
 2017-02-06 14:36:42.307917+01 | 1486388202.30792 | pgbench_accounts_pkey |       2246197248

 2017-02-06 14:36:43.38414+01 | 1486388203.38414 | pgbench_branches_pkey |          1368064
 2017-02-06 14:36:43.38414+01 | 1486388203.38414 | pgbench_tellers_pkey  |          5259264
 2017-02-06 14:36:43.38414+01 | 1486388203.38414 | pgbench_accounts_pkey |       2246197248

 2017-02-06 14:36:44.464798+01 | 1486388204.4648 | pgbench_branches_pkey |          1368064
 2017-02-06 14:36:44.464798+01 | 1486388204.4648 | pgbench_tellers_pkey  |          5259264
 2017-02-06 14:36:44.464798+01 | 1486388204.4648 | pgbench_accounts_pkey |       2246197248

 2017-02-06 14:36:45.54708+01 | 1486388205.54708 | pgbench_branches_pkey |          1368064
 2017-02-06 14:36:45.54708+01 | 1486388205.54708 | pgbench_tellers_pkey  |          5259264
 2017-02-06 14:36:45.54708+01 | 1486388205.54708 | pgbench_accounts_pkey |       2246197248

 2017-02-06 14:36:46.621277+01 | 1486388206.62128 | pgbench_branches_pkey |          1368064
 2017-02-06 14:36:46.621277+01 | 1486388206.62128 | pgbench_tellers_pkey  |          5259264
 2017-02-06 14:36:46.621277+01 | 1486388206.62128 | pgbench_accounts_pkey |       2246197248

 2017-02-06 14:36:47.710652+01 | 1486388207.71065 | pgbench_branches_pkey |          1368064
 2017-02-06 14:36:47.710652+01 | 1486388207.71065 | pgbench_tellers_pkey  |          5259264
 2017-02-06 14:36:47.710652+01 | 1486388207.71065 | pgbench_accounts_pkey |       2246197248

 2017-02-06 14:36:48.809715+01 | 1486388208.80972 | pgbench_branches_pkey |          1368064
 2017-02-06 14:36:48.809715+01 | 1486388208.80972 | pgbench_tellers_pkey  |          5259264
 2017-02-06 14:36:48.809715+01 | 1486388208.80972 | pgbench_accounts_pkey |       2246197248

 2017-02-06 14:36:49.910065+01 | 1486388209.91006 | pgbench_branches_pkey |          1368064
 2017-02-06 14:36:49.910065+01 | 1486388209.91006 | pgbench_tellers_pkey  |          5259264
 2017-02-06 14:36:49.910065+01 | 1486388209.91006 | pgbench_accounts_pkey |       2246197248

 2017-02-06 14:36:50.98578+01 | 1486388210.98578 | pgbench_branches_pkey |          1368064
 2017-02-06 14:36:50.98578+01 | 1486388210.98578 | pgbench_tellers_pkey  |          5259264
 2017-02-06 14:36:50.98578+01 | 1486388210.98578 | pgbench_accounts_pkey |       2246197248

 2017-02-06 14:36:52.065981+01 | 1486388212.06598 | pgbench_branches_pkey |          1368064
 2017-02-06 14:36:52.065981+01 | 1486388212.06598 | pgbench_tellers_pkey  |          5259264
 2017-02-06 14:36:52.065981+01 | 1486388212.06598 | pgbench_accounts_pkey |       2246197248

 2017-02-06 14:36:53.152215+01 | 1486388213.15222 | pgbench_branches_pkey |          1368064
 2017-02-06 14:36:53.152215+01 | 1486388213.15222 | pgbench_tellers_pkey  |          5259264
 2017-02-06 14:36:53.152215+01 | 1486388213.15222 | pgbench_accounts_pkey |       2246197248

 2017-02-06 14:36:54.230801+01 | 1486388214.2308 | pgbench_branches_pkey |          1368064
 2017-02-06 14:36:54.230801+01 | 1486388214.2308 | pgbench_tellers_pkey  |          5259264
 2017-02-06 14:36:54.230801+01 | 1486388214.2308 | pgbench_accounts_pkey |       2246197248

 2017-02-06 14:36:55.309962+01 | 1486388215.30996 | pgbench_branches_pkey |          1368064
 2017-02-06 14:36:55.309962+01 | 1486388215.30996 | pgbench_tellers_pkey  |          5259264
 2017-02-06 14:36:55.309962+01 | 1486388215.30996 | pgbench_accounts_pkey |       2246197248

 2017-02-06 14:36:56.377803+01 | 1486388216.3778 | pgbench_branches_pkey |          1368064
 2017-02-06 14:36:56.377803+01 | 1486388216.3778 | pgbench_tellers_pkey  |          5259264
 2017-02-06 14:36:56.377803+01 | 1486388216.3778 | pgbench_accounts_pkey |       2246197248

 2017-02-06 14:36:57.450511+01 | 1486388217.45051 | pgbench_branches_pkey |          1368064
 2017-02-06 14:36:57.450511+01 | 1486388217.45051 | pgbench_tellers_pkey  |          5259264
 2017-02-06 14:36:57.450511+01 | 1486388217.45051 | pgbench_accounts_pkey |       2246197248

 2017-02-06 14:36:58.543771+01 | 1486388218.54377 | pgbench_branches_pkey |          1368064
 2017-02-06 14:36:58.543771+01 | 1486388218.54377 | pgbench_tellers_pkey  |          5259264
 2017-02-06 14:36:58.543771+01 | 1486388218.54377 | pgbench_accounts_pkey |       2246197248

 2017-02-06 14:36:59.61193+01 | 1486388219.61193 | pgbench_branches_pkey |          1368064
 2017-02-06 14:36:59.61193+01 | 1486388219.61193 | pgbench_tellers_pkey  |          5259264
 2017-02-06 14:36:59.61193+01 | 1486388219.61193 | pgbench_accounts_pkey |       2246197248

 2017-02-06 14:37:00.697525+01 | 1486388220.69753 | pgbench_branches_pkey |          1368064
 2017-02-06 14:37:00.697525+01 | 1486388220.69753 | pgbench_tellers_pkey  |          5259264
 2017-02-06 14:37:00.697525+01 | 1486388220.69753 | pgbench_accounts_pkey |       2246197248

 2017-02-06 14:37:01.790528+01 | 1486388221.79053 | pgbench_branches_pkey |          1368064
 2017-02-06 14:37:01.790528+01 | 1486388221.79053 | pgbench_tellers_pkey  |          5259264
 2017-02-06 14:37:01.790528+01 | 1486388221.79053 | pgbench_accounts_pkey |       2246197248

 2017-02-06 14:37:02.877305+01 | 1486388222.87731 | pgbench_branches_pkey |          1368064
 2017-02-06 14:37:02.877305+01 | 1486388222.87731 | pgbench_tellers_pkey  |          5259264
 2017-02-06 14:37:02.877305+01 | 1486388222.87731 | pgbench_accounts_pkey |       2246197248

 2017-02-06 14:37:03.971607+01 | 1486388223.97161 | pgbench_branches_pkey |          1368064
 2017-02-06 14:37:03.971607+01 | 1486388223.97161 | pgbench_tellers_pkey  |          5259264
 2017-02-06 14:37:03.971607+01 | 1486388223.97161 | pgbench_accounts_pkey |       2246197248

 2017-02-06 14:37:05.060337+01 | 1486388225.06034 | pgbench_branches_pkey |          1368064
 2017-02-06 14:37:05.060337+01 | 1486388225.06034 | pgbench_tellers_pkey  |          5259264
 2017-02-06 14:37:05.060337+01 | 1486388225.06034 | pgbench_accounts_pkey |       2246197248

 2017-02-06 14:37:06.15046+01 | 1486388226.15046 | pgbench_branches_pkey |          1368064
 2017-02-06 14:37:06.15046+01 | 1486388226.15046 | pgbench_tellers_pkey  |          5259264
 2017-02-06 14:37:06.15046+01 | 1486388226.15046 | pgbench_accounts_pkey |       2246197248

 2017-02-06 14:37:07.232679+01 | 1486388227.23268 | pgbench_branches_pkey |          1368064
 2017-02-06 14:37:07.232679+01 | 1486388227.23268 | pgbench_tellers_pkey  |          5259264
 2017-02-06 14:37:07.232679+01 | 1486388227.23268 | pgbench_accounts_pkey |       2246197248

 2017-02-06 14:37:08.314529+01 | 1486388228.31453 | pgbench_branches_pkey |          1368064
 2017-02-06 14:37:08.314529+01 | 1486388228.31453 | pgbench_tellers_pkey  |          5259264
 2017-02-06 14:37:08.314529+01 | 1486388228.31453 | pgbench_accounts_pkey |       2246197248

 2017-02-06 14:37:09.390902+01 | 1486388229.3909 | pgbench_branches_pkey |          1368064
 2017-02-06 14:37:09.390902+01 | 1486388229.3909 | pgbench_tellers_pkey  |          5259264
 2017-02-06 14:37:09.390902+01 | 1486388229.3909 | pgbench_accounts_pkey |       2246197248

 2017-02-06 14:37:10.477025+01 | 1486388230.47703 | pgbench_branches_pkey |          1368064
 2017-02-06 14:37:10.477025+01 | 1486388230.47703 | pgbench_tellers_pkey  |          5259264
 2017-02-06 14:37:10.477025+01 | 1486388230.47703 | pgbench_accounts_pkey |       2246197248

 2017-02-06 14:37:11.567042+01 | 1486388231.56704 | pgbench_branches_pkey |          1368064
 2017-02-06 14:37:11.567042+01 | 1486388231.56704 | pgbench_tellers_pkey  |          5259264
 2017-02-06 14:37:11.567042+01 | 1486388231.56704 | pgbench_accounts_pkey |       2246197248

 2017-02-06 14:37:12.648473+01 | 1486388232.64847 | pgbench_branches_pkey |          1368064
 2017-02-06 14:37:12.648473+01 | 1486388232.64847 | pgbench_tellers_pkey  |          5259264
 2017-02-06 14:37:12.648473+01 | 1486388232.64847 | pgbench_accounts_pkey |       2246197248

 2017-02-06 14:37:13.741892+01 | 1486388233.74189 | pgbench_branches_pkey |          1368064
 2017-02-06 14:37:13.741892+01 | 1486388233.74189 | pgbench_tellers_pkey  |          5259264
 2017-02-06 14:37:13.741892+01 | 1486388233.74189 | pgbench_accounts_pkey |       2246197248

 2017-02-06 14:37:14.813113+01 | 1486388234.81311 | pgbench_branches_pkey |          1368064
 2017-02-06 14:37:14.813113+01 | 1486388234.81311 | pgbench_tellers_pkey  |          5259264
 2017-02-06 14:37:14.813113+01 | 1486388234.81311 | pgbench_accounts_pkey |       2246197248

 2017-02-06 14:37:15.886538+01 | 1486388235.88654 | pgbench_branches_pkey |          1368064
 2017-02-06 14:37:15.886538+01 | 1486388235.88654 | pgbench_tellers_pkey  |          5259264
 2017-02-06 14:37:15.886538+01 | 1486388235.88654 | pgbench_accounts_pkey |       2246197248

 2017-02-06 14:37:16.965639+01 | 1486388236.96564 | pgbench_branches_pkey |          1368064
 2017-02-06 14:37:16.965639+01 | 1486388236.96564 | pgbench_tellers_pkey  |          5259264
 2017-02-06 14:37:16.965639+01 | 1486388236.96564 | pgbench_accounts_pkey |       2246197248

 2017-02-06 14:37:18.052646+01 | 1486388238.05265 | pgbench_branches_pkey |          1368064
 2017-02-06 14:37:18.052646+01 | 1486388238.05265 | pgbench_tellers_pkey  |          5259264
 2017-02-06 14:37:18.052646+01 | 1486388238.05265 | pgbench_accounts_pkey |       2246197248

 2017-02-06 14:37:19.152402+01 | 1486388239.1524 | pgbench_branches_pkey |          1368064
 2017-02-06 14:37:19.152402+01 | 1486388239.1524 | pgbench_tellers_pkey  |          5259264
 2017-02-06 14:37:19.152402+01 | 1486388239.1524 | pgbench_accounts_pkey |       2246197248

 2017-02-06 14:37:20.232797+01 | 1486388240.2328 | pgbench_branches_pkey |          1368064
 2017-02-06 14:37:20.232797+01 | 1486388240.2328 | pgbench_tellers_pkey  |          5259264
 2017-02-06 14:37:20.232797+01 | 1486388240.2328 | pgbench_accounts_pkey |       2246197248

 2017-02-06 14:37:21.304643+01 | 1486388241.30464 | pgbench_branches_pkey |          1368064
 2017-02-06 14:37:21.304643+01 | 1486388241.30464 | pgbench_tellers_pkey  |          5259264
 2017-02-06 14:37:21.304643+01 | 1486388241.30464 | pgbench_accounts_pkey |       2246197248

 2017-02-06 14:37:22.387777+01 | 1486388242.38778 | pgbench_branches_pkey |          1368064
 2017-02-06 14:37:22.387777+01 | 1486388242.38778 | pgbench_tellers_pkey  |          5259264
 2017-02-06 14:37:22.387777+01 | 1486388242.38778 | pgbench_accounts_pkey |       2246197248

 2017-02-06 14:37:23.468504+01 | 1486388243.4685 | pgbench_branches_pkey |          1368064
 2017-02-06 14:37:23.468504+01 | 1486388243.4685 | pgbench_tellers_pkey  |          5259264
 2017-02-06 14:37:23.468504+01 | 1486388243.4685 | pgbench_accounts_pkey |       2246197248

 2017-02-06 14:37:24.555492+01 | 1486388244.55549 | pgbench_branches_pkey |          1368064
 2017-02-06 14:37:24.555492+01 | 1486388244.55549 | pgbench_tellers_pkey  |          5259264
 2017-02-06 14:37:24.555492+01 | 1486388244.55549 | pgbench_accounts_pkey |       2246197248

 2017-02-06 14:37:25.643113+01 | 1486388245.64311 | pgbench_branches_pkey |          1368064
 2017-02-06 14:37:25.643113+01 | 1486388245.64311 | pgbench_tellers_pkey  |          5259264
 2017-02-06 14:37:25.643113+01 | 1486388245.64311 | pgbench_accounts_pkey |       2246197248

 2017-02-06 14:37:26.716001+01 | 1486388246.716 | pgbench_branches_pkey |          1368064
 2017-02-06 14:37:26.716001+01 | 1486388246.716 | pgbench_tellers_pkey  |          5259264
 2017-02-06 14:37:26.716001+01 | 1486388246.716 | pgbench_accounts_pkey |       2246197248

 2017-02-06 14:37:27.798341+01 | 1486388247.79834 | pgbench_branches_pkey |          1368064
 2017-02-06 14:37:27.798341+01 | 1486388247.79834 | pgbench_tellers_pkey  |          5259264
 2017-02-06 14:37:27.798341+01 | 1486388247.79834 | pgbench_accounts_pkey |       2246197248

 2017-02-06 14:37:28.897086+01 | 1486388248.89709 | pgbench_branches_pkey |          1368064
 2017-02-06 14:37:28.897086+01 | 1486388248.89709 | pgbench_tellers_pkey  |          5259264
 2017-02-06 14:37:28.897086+01 | 1486388248.89709 | pgbench_accounts_pkey |       2246197248

 2017-02-06 14:37:29.984112+01 | 1486388249.98411 | pgbench_branches_pkey |          1368064
 2017-02-06 14:37:29.984112+01 | 1486388249.98411 | pgbench_tellers_pkey  |          5259264
 2017-02-06 14:37:29.984112+01 | 1486388249.98411 | pgbench_accounts_pkey |       2246197248

 2017-02-06 14:37:31.071315+01 | 1486388251.07132 | pgbench_branches_pkey |          1368064
 2017-02-06 14:37:31.071315+01 | 1486388251.07132 | pgbench_tellers_pkey  |          5259264
 2017-02-06 14:37:31.071315+01 | 1486388251.07132 | pgbench_accounts_pkey |       2246197248

 2017-02-06 14:37:32.167634+01 | 1486388252.16763 | pgbench_branches_pkey |          1368064
 2017-02-06 14:37:32.167634+01 | 1486388252.16763 | pgbench_tellers_pkey  |          5259264
 2017-02-06 14:37:32.167634+01 | 1486388252.16763 | pgbench_accounts_pkey |       2246197248

 2017-02-06 14:37:33.257844+01 | 1486388253.25784 | pgbench_branches_pkey |          1368064
 2017-02-06 14:37:33.257844+01 | 1486388253.25784 | pgbench_tellers_pkey  |          5259264
 2017-02-06 14:37:33.257844+01 | 1486388253.25784 | pgbench_accounts_pkey |       2246197248

 2017-02-06 14:37:34.34595+01 | 1486388254.34595 | pgbench_branches_pkey |          1368064
 2017-02-06 14:37:34.34595+01 | 1486388254.34595 | pgbench_tellers_pkey  |          5259264
 2017-02-06 14:37:34.34595+01 | 1486388254.34595 | pgbench_accounts_pkey |       2246197248

 2017-02-06 14:37:35.415571+01 | 1486388255.41557 | pgbench_branches_pkey |          1368064
 2017-02-06 14:37:35.415571+01 | 1486388255.41557 | pgbench_tellers_pkey  |          5259264
 2017-02-06 14:37:35.415571+01 | 1486388255.41557 | pgbench_accounts_pkey |       2246197248

 2017-02-06 14:37:36.491851+01 | 1486388256.49185 | pgbench_branches_pkey |          1368064
 2017-02-06 14:37:36.491851+01 | 1486388256.49185 | pgbench_tellers_pkey  |          5259264
 2017-02-06 14:37:36.491851+01 | 1486388256.49185 | pgbench_accounts_pkey |       2246197248

 2017-02-06 14:37:37.567781+01 | 1486388257.56778 | pgbench_branches_pkey |          1368064
 2017-02-06 14:37:37.567781+01 | 1486388257.56778 | pgbench_tellers_pkey  |          5259264
 2017-02-06 14:37:37.567781+01 | 1486388257.56778 | pgbench_accounts_pkey |       2246197248

 2017-02-06 14:37:38.638046+01 | 1486388258.63805 | pgbench_branches_pkey |          1368064
 2017-02-06 14:37:38.638046+01 | 1486388258.63805 | pgbench_tellers_pkey  |          5259264
 2017-02-06 14:37:38.638046+01 | 1486388258.63805 | pgbench_accounts_pkey |       2246197248

 2017-02-06 14:37:39.720027+01 | 1486388259.72003 | pgbench_branches_pkey |          1368064
 2017-02-06 14:37:39.720027+01 | 1486388259.72003 | pgbench_tellers_pkey  |          5259264
 2017-02-06 14:37:39.720027+01 | 1486388259.72003 | pgbench_accounts_pkey |       2246197248

 2017-02-06 14:37:40.808851+01 | 1486388260.80885 | pgbench_branches_pkey |          1368064
 2017-02-06 14:37:40.808851+01 | 1486388260.80885 | pgbench_tellers_pkey  |          5259264
 2017-02-06 14:37:40.808851+01 | 1486388260.80885 | pgbench_accounts_pkey |       2246197248

 2017-02-06 14:37:41.889345+01 | 1486388261.88934 | pgbench_branches_pkey |          1368064
 2017-02-06 14:37:41.889345+01 | 1486388261.88934 | pgbench_tellers_pkey  |          5259264
 2017-02-06 14:37:41.889345+01 | 1486388261.88934 | pgbench_accounts_pkey |       2246197248

 2017-02-06 14:37:42.977758+01 | 1486388262.97776 | pgbench_branches_pkey |          1368064
 2017-02-06 14:37:42.977758+01 | 1486388262.97776 | pgbench_tellers_pkey  |          5259264
 2017-02-06 14:37:42.977758+01 | 1486388262.97776 | pgbench_accounts_pkey |       2246197248

 2017-02-06 14:37:44.06836+01 | 1486388264.06836 | pgbench_branches_pkey |          1368064
 2017-02-06 14:37:44.06836+01 | 1486388264.06836 | pgbench_tellers_pkey  |          5259264
 2017-02-06 14:37:44.06836+01 | 1486388264.06836 | pgbench_accounts_pkey |       2246197248

 2017-02-06 14:37:45.145361+01 | 1486388265.14536 | pgbench_branches_pkey |          1368064
 2017-02-06 14:37:45.145361+01 | 1486388265.14536 | pgbench_tellers_pkey  |          5259264
 2017-02-06 14:37:45.145361+01 | 1486388265.14536 | pgbench_accounts_pkey |       2246197248

 2017-02-06 14:37:46.246116+01 | 1486388266.24612 | pgbench_branches_pkey |          1368064
 2017-02-06 14:37:46.246116+01 | 1486388266.24612 | pgbench_tellers_pkey  |          5259264
 2017-02-06 14:37:46.246116+01 | 1486388266.24612 | pgbench_accounts_pkey |       2246197248

 2017-02-06 14:37:47.338541+01 | 1486388267.33854 | pgbench_branches_pkey |          1368064
 2017-02-06 14:37:47.338541+01 | 1486388267.33854 | pgbench_tellers_pkey  |          5259264
 2017-02-06 14:37:47.338541+01 | 1486388267.33854 | pgbench_accounts_pkey |       2246197248

 2017-02-06 14:37:48.404508+01 | 1486388268.40451 | pgbench_branches_pkey |          1368064
 2017-02-06 14:37:48.404508+01 | 1486388268.40451 | pgbench_tellers_pkey  |          5259264
 2017-02-06 14:37:48.404508+01 | 1486388268.40451 | pgbench_accounts_pkey |       2246197248

 2017-02-06 14:37:49.488084+01 | 1486388269.48808 | pgbench_branches_pkey |          1368064
 2017-02-06 14:37:49.488084+01 | 1486388269.48808 | pgbench_tellers_pkey  |          5259264
 2017-02-06 14:37:49.488084+01 | 1486388269.48808 | pgbench_accounts_pkey |       2246197248

 2017-02-06 14:37:50.567968+01 | 1486388270.56797 | pgbench_branches_pkey |          1368064
 2017-02-06 14:37:50.567968+01 | 1486388270.56797 | pgbench_tellers_pkey  |          5259264
 2017-02-06 14:37:50.567968+01 | 1486388270.56797 | pgbench_accounts_pkey |       2246197248

 2017-02-06 14:37:51.645969+01 | 1486388271.64597 | pgbench_branches_pkey |          1368064
 2017-02-06 14:37:51.645969+01 | 1486388271.64597 | pgbench_tellers_pkey  |          5259264
 2017-02-06 14:37:51.645969+01 | 1486388271.64597 | pgbench_accounts_pkey |       2246197248

 2017-02-06 14:37:52.722522+01 | 1486388272.72252 | pgbench_branches_pkey |          1368064
 2017-02-06 14:37:52.722522+01 | 1486388272.72252 | pgbench_tellers_pkey  |          5259264
 2017-02-06 14:37:52.722522+01 | 1486388272.72252 | pgbench_accounts_pkey |       2246197248

 2017-02-06 14:37:53.803328+01 | 1486388273.80333 | pgbench_branches_pkey |          1368064
 2017-02-06 14:37:53.803328+01 | 1486388273.80333 | pgbench_tellers_pkey  |          5259264
 2017-02-06 14:37:53.803328+01 | 1486388273.80333 | pgbench_accounts_pkey |       2246197248

 2017-02-06 14:37:54.88626+01 | 1486388274.88626 | pgbench_branches_pkey |          1368064
 2017-02-06 14:37:54.88626+01 | 1486388274.88626 | pgbench_tellers_pkey  |          5259264
 2017-02-06 14:37:54.88626+01 | 1486388274.88626 | pgbench_accounts_pkey |       2246197248

 2017-02-06 14:37:55.980438+01 | 1486388275.98044 | pgbench_branches_pkey |          1368064
 2017-02-06 14:37:55.980438+01 | 1486388275.98044 | pgbench_tellers_pkey  |          5259264
 2017-02-06 14:37:55.980438+01 | 1486388275.98044 | pgbench_accounts_pkey |       2246197248

 2017-02-06 14:37:57.076678+01 | 1486388277.07668 | pgbench_branches_pkey |          1368064
 2017-02-06 14:37:57.076678+01 | 1486388277.07668 | pgbench_tellers_pkey  |          5259264
 2017-02-06 14:37:57.076678+01 | 1486388277.07668 | pgbench_accounts_pkey |       2246197248

 2017-02-06 14:37:58.167459+01 | 1486388278.16746 | pgbench_branches_pkey |          1368064
 2017-02-06 14:37:58.167459+01 | 1486388278.16746 | pgbench_tellers_pkey  |          5259264
 2017-02-06 14:37:58.167459+01 | 1486388278.16746 | pgbench_accounts_pkey |       2246197248

 2017-02-06 14:37:59.261471+01 | 1486388279.26147 | pgbench_branches_pkey |          1368064
 2017-02-06 14:37:59.261471+01 | 1486388279.26147 | pgbench_tellers_pkey  |          5259264
 2017-02-06 14:37:59.261471+01 | 1486388279.26147 | pgbench_accounts_pkey |       2246197248

 2017-02-06 14:38:00.347371+01 | 1486388280.34737 | pgbench_branches_pkey |          1368064
 2017-02-06 14:38:00.347371+01 | 1486388280.34737 | pgbench_tellers_pkey  |          5259264
 2017-02-06 14:38:00.347371+01 | 1486388280.34737 | pgbench_accounts_pkey |       2246197248

 2017-02-06 14:38:01.427947+01 | 1486388281.42795 | pgbench_branches_pkey |          1368064
 2017-02-06 14:38:01.427947+01 | 1486388281.42795 | pgbench_tellers_pkey  |          5259264
 2017-02-06 14:38:01.427947+01 | 1486388281.42795 | pgbench_accounts_pkey |       2246197248

 2017-02-06 14:38:02.503357+01 | 1486388282.50336 | pgbench_branches_pkey |          1368064
 2017-02-06 14:38:02.503357+01 | 1486388282.50336 | pgbench_tellers_pkey  |          5259264
 2017-02-06 14:38:02.503357+01 | 1486388282.50336 | pgbench_accounts_pkey |       2246197248

 2017-02-06 14:38:03.586174+01 | 1486388283.58617 | pgbench_branches_pkey |          1368064
 2017-02-06 14:38:03.586174+01 | 1486388283.58617 | pgbench_tellers_pkey  |          5259264
 2017-02-06 14:38:03.586174+01 | 1486388283.58617 | pgbench_accounts_pkey |       2246197248

 2017-02-06 14:38:04.681175+01 | 1486388284.68117 | pgbench_branches_pkey |          1368064
 2017-02-06 14:38:04.681175+01 | 1486388284.68117 | pgbench_tellers_pkey  |          5259264
 2017-02-06 14:38:04.681175+01 | 1486388284.68117 | pgbench_accounts_pkey |       2246197248

 2017-02-06 14:38:05.771146+01 | 1486388285.77115 | pgbench_branches_pkey |          1368064
 2017-02-06 14:38:05.771146+01 | 1486388285.77115 | pgbench_tellers_pkey  |          5259264
 2017-02-06 14:38:05.771146+01 | 1486388285.77115 | pgbench_accounts_pkey |       2246197248

 2017-02-06 14:38:06.846687+01 | 1486388286.84669 | pgbench_branches_pkey |          1368064
 2017-02-06 14:38:06.846687+01 | 1486388286.84669 | pgbench_tellers_pkey  |          5259264
 2017-02-06 14:38:06.846687+01 | 1486388286.84669 | pgbench_accounts_pkey |       2246197248

 2017-02-06 14:38:07.940367+01 | 1486388287.94037 | pgbench_branches_pkey |          1368064
 2017-02-06 14:38:07.940367+01 | 1486388287.94037 | pgbench_tellers_pkey  |          5259264
 2017-02-06 14:38:07.940367+01 | 1486388287.94037 | pgbench_accounts_pkey |       2246197248

 2017-02-06 14:38:09.025139+01 | 1486388289.02514 | pgbench_branches_pkey |          1368064
 2017-02-06 14:38:09.025139+01 | 1486388289.02514 | pgbench_tellers_pkey  |          5259264
 2017-02-06 14:38:09.025139+01 | 1486388289.02514 | pgbench_accounts_pkey |       2246197248

 2017-02-06 14:38:10.116171+01 | 1486388290.11617 | pgbench_branches_pkey |          1368064
 2017-02-06 14:38:10.116171+01 | 1486388290.11617 | pgbench_tellers_pkey  |          5259264
 2017-02-06 14:38:10.116171+01 | 1486388290.11617 | pgbench_accounts_pkey |       2246197248

 2017-02-06 14:38:11.207853+01 | 1486388291.20785 | pgbench_branches_pkey |          1368064
 2017-02-06 14:38:11.207853+01 | 1486388291.20785 | pgbench_tellers_pkey  |          5259264
 2017-02-06 14:38:11.207853+01 | 1486388291.20785 | pgbench_accounts_pkey |       2246197248

 2017-02-06 14:38:12.30459+01 | 1486388292.30459 | pgbench_branches_pkey |          1368064
 2017-02-06 14:38:12.30459+01 | 1486388292.30459 | pgbench_tellers_pkey  |          5259264
 2017-02-06 14:38:12.30459+01 | 1486388292.30459 | pgbench_accounts_pkey |       2246197248

 2017-02-06 14:38:13.370514+01 | 1486388293.37051 | pgbench_branches_pkey |          1368064
 2017-02-06 14:38:13.370514+01 | 1486388293.37051 | pgbench_tellers_pkey  |          5259264
 2017-02-06 14:38:13.370514+01 | 1486388293.37051 | pgbench_accounts_pkey |       2246197248

 2017-02-06 14:38:14.447236+01 | 1486388294.44724 | pgbench_branches_pkey |          1368064
 2017-02-06 14:38:14.447236+01 | 1486388294.44724 | pgbench_tellers_pkey  |          5259264
 2017-02-06 14:38:14.447236+01 | 1486388294.44724 | pgbench_accounts_pkey |       2246197248

 2017-02-06 14:38:15.533992+01 | 1486388295.53399 | pgbench_branches_pkey |          1368064
 2017-02-06 14:38:15.533992+01 | 1486388295.53399 | pgbench_tellers_pkey  |          5259264
 2017-02-06 14:38:15.533992+01 | 1486388295.53399 | pgbench_accounts_pkey |       2246197248

 2017-02-06 14:38:16.628984+01 | 1486388296.62898 | pgbench_branches_pkey |          1368064
 2017-02-06 14:38:16.628984+01 | 1486388296.62898 | pgbench_tellers_pkey  |          5259264
 2017-02-06 14:38:16.628984+01 | 1486388296.62898 | pgbench_accounts_pkey |       2246197248

 2017-02-06 14:38:17.718922+01 | 1486388297.71892 | pgbench_branches_pkey |          1368064
 2017-02-06 14:38:17.718922+01 | 1486388297.71892 | pgbench_tellers_pkey  |          5259264
 2017-02-06 14:38:17.718922+01 | 1486388297.71892 | pgbench_accounts_pkey |       2246197248

 2017-02-06 14:38:18.810307+01 | 1486388298.81031 | pgbench_branches_pkey |          1368064
 2017-02-06 14:38:18.810307+01 | 1486388298.81031 | pgbench_tellers_pkey  |          5259264
 2017-02-06 14:38:18.810307+01 | 1486388298.81031 | pgbench_accounts_pkey |       2246197248

 2017-02-06 14:38:19.897975+01 | 1486388299.89797 | pgbench_branches_pkey |          1368064
 2017-02-06 14:38:19.897975+01 | 1486388299.89797 | pgbench_tellers_pkey  |          5259264
 2017-02-06 14:38:19.897975+01 | 1486388299.89797 | pgbench_accounts_pkey |       2246197248

 2017-02-06 14:38:20.965455+01 | 1486388300.96546 | pgbench_branches_pkey |          1368064
 2017-02-06 14:38:20.965455+01 | 1486388300.96546 | pgbench_tellers_pkey  |          5259264
 2017-02-06 14:38:20.965455+01 | 1486388300.96546 | pgbench_accounts_pkey |       2246197248

 2017-02-06 14:38:22.048156+01 | 1486388302.04816 | pgbench_branches_pkey |          1368064
 2017-02-06 14:38:22.048156+01 | 1486388302.04816 | pgbench_tellers_pkey  |          5259264
 2017-02-06 14:38:22.048156+01 | 1486388302.04816 | pgbench_accounts_pkey |       2246197248

 2017-02-06 14:38:23.135753+01 | 1486388303.13575 | pgbench_branches_pkey |          1368064
 2017-02-06 14:38:23.135753+01 | 1486388303.13575 | pgbench_tellers_pkey  |          5259264
 2017-02-06 14:38:23.135753+01 | 1486388303.13575 | pgbench_accounts_pkey |       2246197248

 2017-02-06 14:38:24.222182+01 | 1486388304.22218 | pgbench_branches_pkey |          1368064
 2017-02-06 14:38:24.222182+01 | 1486388304.22218 | pgbench_tellers_pkey  |          5259264
 2017-02-06 14:38:24.222182+01 | 1486388304.22218 | pgbench_accounts_pkey |       2246197248

 2017-02-06 14:38:25.312026+01 | 1486388305.31203 | pgbench_branches_pkey |          1368064
 2017-02-06 14:38:25.312026+01 | 1486388305.31203 | pgbench_tellers_pkey  |          5259264
 2017-02-06 14:38:25.312026+01 | 1486388305.31203 | pgbench_accounts_pkey |       2246197248

 2017-02-06 14:38:26.398749+01 | 1486388306.39875 | pgbench_branches_pkey |          1368064
 2017-02-06 14:38:26.398749+01 | 1486388306.39875 | pgbench_tellers_pkey  |          5259264
 2017-02-06 14:38:26.398749+01 | 1486388306.39875 | pgbench_accounts_pkey |       2246197248

 2017-02-06 14:38:27.486773+01 | 1486388307.48677 | pgbench_branches_pkey |          1368064
 2017-02-06 14:38:27.486773+01 | 1486388307.48677 | pgbench_tellers_pkey  |          5259264
 2017-02-06 14:38:27.486773+01 | 1486388307.48677 | pgbench_accounts_pkey |       2246197248

 2017-02-06 14:38:28.567923+01 | 1486388308.56792 | pgbench_branches_pkey |          1368064
 2017-02-06 14:38:28.567923+01 | 1486388308.56792 | pgbench_tellers_pkey  |          5259264
 2017-02-06 14:38:28.567923+01 | 1486388308.56792 | pgbench_accounts_pkey |       2246197248

 2017-02-06 14:38:29.650668+01 | 1486388309.65067 | pgbench_branches_pkey |          1368064
 2017-02-06 14:38:29.650668+01 | 1486388309.65067 | pgbench_tellers_pkey  |          5259264
 2017-02-06 14:38:29.650668+01 | 1486388309.65067 | pgbench_accounts_pkey |       2246197248

 2017-02-06 14:38:30.727007+01 | 1486388310.72701 | pgbench_branches_pkey |          1368064
 2017-02-06 14:38:30.727007+01 | 1486388310.72701 | pgbench_tellers_pkey  |          5259264
 2017-02-06 14:38:30.727007+01 | 1486388310.72701 | pgbench_accounts_pkey |       2246197248

 2017-02-06 14:38:31.80936+01 | 1486388311.80936 | pgbench_branches_pkey |          1368064
 2017-02-06 14:38:31.80936+01 | 1486388311.80936 | pgbench_tellers_pkey  |          5259264
 2017-02-06 14:38:31.80936+01 | 1486388311.80936 | pgbench_accounts_pkey |       2246197248

 2017-02-06 14:38:32.897398+01 | 1486388312.8974 | pgbench_branches_pkey |          1368064
 2017-02-06 14:38:32.897398+01 | 1486388312.8974 | pgbench_tellers_pkey  |          5259264
 2017-02-06 14:38:32.897398+01 | 1486388312.8974 | pgbench_accounts_pkey |       2246197248

 2017-02-06 14:38:33.984616+01 | 1486388313.98462 | pgbench_branches_pkey |          1368064
 2017-02-06 14:38:33.984616+01 | 1486388313.98462 | pgbench_tellers_pkey  |          5259264
 2017-02-06 14:38:33.984616+01 | 1486388313.98462 | pgbench_accounts_pkey |       2246197248

 2017-02-06 14:38:35.074403+01 | 1486388315.0744 | pgbench_branches_pkey |          1368064
 2017-02-06 14:38:35.074403+01 | 1486388315.0744 | pgbench_tellers_pkey  |          5259264
 2017-02-06 14:38:35.074403+01 | 1486388315.0744 | pgbench_accounts_pkey |       2246197248

 2017-02-06 14:38:36.159681+01 | 1486388316.15968 | pgbench_branches_pkey |          1368064
 2017-02-06 14:38:36.159681+01 | 1486388316.15968 | pgbench_tellers_pkey  |          5259264
 2017-02-06 14:38:36.159681+01 | 1486388316.15968 | pgbench_accounts_pkey |       2246197248

 2017-02-06 14:38:37.243577+01 | 1486388317.24358 | pgbench_branches_pkey |          1368064
 2017-02-06 14:38:37.243577+01 | 1486388317.24358 | pgbench_tellers_pkey  |          5259264
 2017-02-06 14:38:37.243577+01 | 1486388317.24358 | pgbench_accounts_pkey |       2246197248

 2017-02-06 14:38:38.313994+01 | 1486388318.31399 | pgbench_branches_pkey |          1368064
 2017-02-06 14:38:38.313994+01 | 1486388318.31399 | pgbench_tellers_pkey  |          5259264
 2017-02-06 14:38:38.313994+01 | 1486388318.31399 | pgbench_accounts_pkey |       2246197248

 2017-02-06 14:38:39.399601+01 | 1486388319.3996 | pgbench_branches_pkey |          1368064
 2017-02-06 14:38:39.399601+01 | 1486388319.3996 | pgbench_tellers_pkey  |          5259264
 2017-02-06 14:38:39.399601+01 | 1486388319.3996 | pgbench_accounts_pkey |       2246197248

 2017-02-06 14:38:40.486094+01 | 1486388320.48609 | pgbench_branches_pkey |          1368064
 2017-02-06 14:38:40.486094+01 | 1486388320.48609 | pgbench_tellers_pkey  |          5259264
 2017-02-06 14:38:40.486094+01 | 1486388320.48609 | pgbench_accounts_pkey |       2246197248

 2017-02-06 14:38:41.562257+01 | 1486388321.56226 | pgbench_branches_pkey |          1368064
 2017-02-06 14:38:41.562257+01 | 1486388321.56226 | pgbench_tellers_pkey  |          5259264
 2017-02-06 14:38:41.562257+01 | 1486388321.56226 | pgbench_accounts_pkey |       2246197248

 2017-02-06 14:38:42.639889+01 | 1486388322.63989 | pgbench_branches_pkey |          1368064
 2017-02-06 14:38:42.639889+01 | 1486388322.63989 | pgbench_tellers_pkey  |          5259264
 2017-02-06 14:38:42.639889+01 | 1486388322.63989 | pgbench_accounts_pkey |       2246197248

 2017-02-06 14:38:43.724903+01 | 1486388323.7249 | pgbench_branches_pkey |          1368064
 2017-02-06 14:38:43.724903+01 | 1486388323.7249 | pgbench_tellers_pkey  |          5259264
 2017-02-06 14:38:43.724903+01 | 1486388323.7249 | pgbench_accounts_pkey |       2246197248

 2017-02-06 14:38:44.79716+01 | 1486388324.79716 | pgbench_branches_pkey |          1368064
 2017-02-06 14:38:44.79716+01 | 1486388324.79716 | pgbench_tellers_pkey  |          5259264
 2017-02-06 14:38:44.79716+01 | 1486388324.79716 | pgbench_accounts_pkey |       2246197248

 2017-02-06 14:38:45.888472+01 | 1486388325.88847 | pgbench_branches_pkey |          1368064
 2017-02-06 14:38:45.888472+01 | 1486388325.88847 | pgbench_tellers_pkey  |          5259264
 2017-02-06 14:38:45.888472+01 | 1486388325.88847 | pgbench_accounts_pkey |       2246197248

 2017-02-06 14:38:46.973471+01 | 1486388326.97347 | pgbench_branches_pkey |          1368064
 2017-02-06 14:38:46.973471+01 | 1486388326.97347 | pgbench_tellers_pkey  |          5259264
 2017-02-06 14:38:46.973471+01 | 1486388326.97347 | pgbench_accounts_pkey |       2246197248

 2017-02-06 14:38:48.061167+01 | 1486388328.06117 | pgbench_branches_pkey |          1368064
 2017-02-06 14:38:48.061167+01 | 1486388328.06117 | pgbench_tellers_pkey  |          5259264
 2017-02-06 14:38:48.061167+01 | 1486388328.06117 | pgbench_accounts_pkey |       2246197248

 2017-02-06 14:38:49.157465+01 | 1486388329.15746 | pgbench_branches_pkey |          1368064
 2017-02-06 14:38:49.157465+01 | 1486388329.15746 | pgbench_tellers_pkey  |          5259264
 2017-02-06 14:38:49.157465+01 | 1486388329.15746 | pgbench_accounts_pkey |       2246197248

 2017-02-06 14:38:50.227534+01 | 1486388330.22753 | pgbench_branches_pkey |          1368064
 2017-02-06 14:38:50.227534+01 | 1486388330.22753 | pgbench_tellers_pkey  |          5259264
 2017-02-06 14:38:50.227534+01 | 1486388330.22753 | pgbench_accounts_pkey |       2246197248

 2017-02-06 14:38:51.309498+01 | 1486388331.3095 | pgbench_branches_pkey |          1368064
 2017-02-06 14:38:51.309498+01 | 1486388331.3095 | pgbench_tellers_pkey  |          5259264
 2017-02-06 14:38:51.309498+01 | 1486388331.3095 | pgbench_accounts_pkey |       2246197248

 2017-02-06 14:38:52.394791+01 | 1486388332.39479 | pgbench_branches_pkey |          1368064
 2017-02-06 14:38:52.394791+01 | 1486388332.39479 | pgbench_tellers_pkey  |          5259264
 2017-02-06 14:38:52.394791+01 | 1486388332.39479 | pgbench_accounts_pkey |       2246197248

 2017-02-06 14:38:53.478455+01 | 1486388333.47846 | pgbench_branches_pkey |          1368064
 2017-02-06 14:38:53.478455+01 | 1486388333.47846 | pgbench_tellers_pkey  |          5259264
 2017-02-06 14:38:53.478455+01 | 1486388333.47846 | pgbench_accounts_pkey |       2246197248

 2017-02-06 14:38:54.563747+01 | 1486388334.56375 | pgbench_branches_pkey |          1368064
 2017-02-06 14:38:54.563747+01 | 1486388334.56375 | pgbench_tellers_pkey  |          5259264
 2017-02-06 14:38:54.563747+01 | 1486388334.56375 | pgbench_accounts_pkey |       2246197248

 2017-02-06 14:38:55.656691+01 | 1486388335.65669 | pgbench_branches_pkey |          1368064
 2017-02-06 14:38:55.656691+01 | 1486388335.65669 | pgbench_tellers_pkey  |          5259264
 2017-02-06 14:38:55.656691+01 | 1486388335.65669 | pgbench_accounts_pkey |       2246197248

 2017-02-06 14:38:56.740627+01 | 1486388336.74063 | pgbench_branches_pkey |          1368064
 2017-02-06 14:38:56.740627+01 | 1486388336.74063 | pgbench_tellers_pkey  |          5259264
 2017-02-06 14:38:56.740627+01 | 1486388336.74063 | pgbench_accounts_pkey |       2246197248

 2017-02-06 14:38:57.822684+01 | 1486388337.82268 | pgbench_branches_pkey |          1368064
 2017-02-06 14:38:57.822684+01 | 1486388337.82268 | pgbench_tellers_pkey  |          5259264
 2017-02-06 14:38:57.822684+01 | 1486388337.82268 | pgbench_accounts_pkey |       2246197248

 2017-02-06 14:38:58.897344+01 | 1486388338.89734 | pgbench_branches_pkey |          1368064
 2017-02-06 14:38:58.897344+01 | 1486388338.89734 | pgbench_tellers_pkey  |          5259264
 2017-02-06 14:38:58.897344+01 | 1486388338.89734 | pgbench_accounts_pkey |       2246197248

 2017-02-06 14:38:59.980276+01 | 1486388339.98028 | pgbench_branches_pkey |          1368064
 2017-02-06 14:38:59.980276+01 | 1486388339.98028 | pgbench_tellers_pkey  |          5259264
 2017-02-06 14:38:59.980276+01 | 1486388339.98028 | pgbench_accounts_pkey |       2246197248

 2017-02-06 14:39:01.064048+01 | 1486388341.06405 | pgbench_branches_pkey |          1368064
 2017-02-06 14:39:01.064048+01 | 1486388341.06405 | pgbench_tellers_pkey  |          5259264
 2017-02-06 14:39:01.064048+01 | 1486388341.06405 | pgbench_accounts_pkey |       2246197248

 2017-02-06 14:39:02.160353+01 | 1486388342.16035 | pgbench_branches_pkey |          1368064
 2017-02-06 14:39:02.160353+01 | 1486388342.16035 | pgbench_tellers_pkey  |          5259264
 2017-02-06 14:39:02.160353+01 | 1486388342.16035 | pgbench_accounts_pkey |       2246197248

 2017-02-06 14:39:03.262165+01 | 1486388343.26217 | pgbench_branches_pkey |          1368064
 2017-02-06 14:39:03.262165+01 | 1486388343.26217 | pgbench_tellers_pkey  |          5259264
 2017-02-06 14:39:03.262165+01 | 1486388343.26217 | pgbench_accounts_pkey |       2246197248

 2017-02-06 14:39:04.355234+01 | 1486388344.35523 | pgbench_branches_pkey |          1368064
 2017-02-06 14:39:04.355234+01 | 1486388344.35523 | pgbench_tellers_pkey  |          5259264
 2017-02-06 14:39:04.355234+01 | 1486388344.35523 | pgbench_accounts_pkey |       2246197248

 2017-02-06 14:39:05.448165+01 | 1486388345.44816 | pgbench_branches_pkey |          1368064
 2017-02-06 14:39:05.448165+01 | 1486388345.44816 | pgbench_tellers_pkey  |          5259264
 2017-02-06 14:39:05.448165+01 | 1486388345.44816 | pgbench_accounts_pkey |       2246197248

 2017-02-06 14:39:06.529126+01 | 1486388346.52913 | pgbench_branches_pkey |          1368064
 2017-02-06 14:39:06.529126+01 | 1486388346.52913 | pgbench_tellers_pkey  |          5259264
 2017-02-06 14:39:06.529126+01 | 1486388346.52913 | pgbench_accounts_pkey |       2246197248

 2017-02-06 14:39:07.615965+01 | 1486388347.61596 | pgbench_branches_pkey |          1368064
 2017-02-06 14:39:07.615965+01 | 1486388347.61596 | pgbench_tellers_pkey  |          5259264
 2017-02-06 14:39:07.615965+01 | 1486388347.61596 | pgbench_accounts_pkey |       2246197248

 2017-02-06 14:39:08.701657+01 | 1486388348.70166 | pgbench_branches_pkey |          1368064
 2017-02-06 14:39:08.701657+01 | 1486388348.70166 | pgbench_tellers_pkey  |          5259264
 2017-02-06 14:39:08.701657+01 | 1486388348.70166 | pgbench_accounts_pkey |       2246197248

 2017-02-06 14:39:09.78552+01 | 1486388349.78552 | pgbench_branches_pkey |          1368064
 2017-02-06 14:39:09.78552+01 | 1486388349.78552 | pgbench_tellers_pkey  |          5259264
 2017-02-06 14:39:09.78552+01 | 1486388349.78552 | pgbench_accounts_pkey |       2246197248

 2017-02-06 14:39:10.870302+01 | 1486388350.8703 | pgbench_branches_pkey |          1368064
 2017-02-06 14:39:10.870302+01 | 1486388350.8703 | pgbench_tellers_pkey  |          5259264
 2017-02-06 14:39:10.870302+01 | 1486388350.8703 | pgbench_accounts_pkey |       2246197248

 2017-02-06 14:39:11.9527+01 | 1486388351.9527 | pgbench_branches_pkey |          1368064
 2017-02-06 14:39:11.9527+01 | 1486388351.9527 | pgbench_tellers_pkey  |          5259264
 2017-02-06 14:39:11.9527+01 | 1486388351.9527 | pgbench_accounts_pkey |       2246197248

 2017-02-06 14:39:13.03793+01 | 1486388353.03793 | pgbench_branches_pkey |          1368064
 2017-02-06 14:39:13.03793+01 | 1486388353.03793 | pgbench_tellers_pkey  |          5259264
 2017-02-06 14:39:13.03793+01 | 1486388353.03793 | pgbench_accounts_pkey |       2246197248

 2017-02-06 14:39:14.127115+01 | 1486388354.12712 | pgbench_branches_pkey |          1368064
 2017-02-06 14:39:14.127115+01 | 1486388354.12712 | pgbench_tellers_pkey  |          5259264
 2017-02-06 14:39:14.127115+01 | 1486388354.12712 | pgbench_accounts_pkey |       2246197248

 2017-02-06 14:39:15.209545+01 | 1486388355.20954 | pgbench_branches_pkey |          1368064
 2017-02-06 14:39:15.209545+01 | 1486388355.20954 | pgbench_tellers_pkey  |          5259264
 2017-02-06 14:39:15.209545+01 | 1486388355.20954 | pgbench_accounts_pkey |       2246197248

 2017-02-06 14:39:16.300317+01 | 1486388356.30032 | pgbench_branches_pkey |          1368064
 2017-02-06 14:39:16.300317+01 | 1486388356.30032 | pgbench_tellers_pkey  |          5259264
 2017-02-06 14:39:16.300317+01 | 1486388356.30032 | pgbench_accounts_pkey |       2246197248

 2017-02-06 14:39:17.383907+01 | 1486388357.38391 | pgbench_branches_pkey |          1368064
 2017-02-06 14:39:17.383907+01 | 1486388357.38391 | pgbench_tellers_pkey  |          5259264
 2017-02-06 14:39:17.383907+01 | 1486388357.38391 | pgbench_accounts_pkey |       2246197248

 2017-02-06 14:39:18.474501+01 | 1486388358.4745 | pgbench_branches_pkey |          1368064
 2017-02-06 14:39:18.474501+01 | 1486388358.4745 | pgbench_tellers_pkey  |          5259264
 2017-02-06 14:39:18.474501+01 | 1486388358.4745 | pgbench_accounts_pkey |       2246197248

 2017-02-06 14:39:19.551214+01 | 1486388359.55121 | pgbench_branches_pkey |          1368064
 2017-02-06 14:39:19.551214+01 | 1486388359.55121 | pgbench_tellers_pkey  |          5259264
 2017-02-06 14:39:19.551214+01 | 1486388359.55121 | pgbench_accounts_pkey |       2246197248

 2017-02-06 14:39:20.632832+01 | 1486388360.63283 | pgbench_branches_pkey |          1368064
 2017-02-06 14:39:20.632832+01 | 1486388360.63283 | pgbench_tellers_pkey  |          5259264
 2017-02-06 14:39:20.632832+01 | 1486388360.63283 | pgbench_accounts_pkey |       2246197248

 2017-02-06 14:39:21.714149+01 | 1486388361.71415 | pgbench_branches_pkey |          1368064
 2017-02-06 14:39:21.714149+01 | 1486388361.71415 | pgbench_tellers_pkey  |          5259264
 2017-02-06 14:39:21.714149+01 | 1486388361.71415 | pgbench_accounts_pkey |       2246197248

 2017-02-06 14:39:22.795931+01 | 1486388362.79593 | pgbench_branches_pkey |          1368064
 2017-02-06 14:39:22.795931+01 | 1486388362.79593 | pgbench_tellers_pkey  |          5259264
 2017-02-06 14:39:22.795931+01 | 1486388362.79593 | pgbench_accounts_pkey |       2246197248

 2017-02-06 14:39:23.87607+01 | 1486388363.87607 | pgbench_branches_pkey |          1368064
 2017-02-06 14:39:23.87607+01 | 1486388363.87607 | pgbench_tellers_pkey  |          5259264
 2017-02-06 14:39:23.87607+01 | 1486388363.87607 | pgbench_accounts_pkey |       2246197248

 2017-02-06 14:39:24.946583+01 | 1486388364.94658 | pgbench_branches_pkey |          1368064
 2017-02-06 14:39:24.946583+01 | 1486388364.94658 | pgbench_tellers_pkey  |          5259264
 2017-02-06 14:39:24.946583+01 | 1486388364.94658 | pgbench_accounts_pkey |       2246197248

 2017-02-06 14:39:26.038206+01 | 1486388366.03821 | pgbench_branches_pkey |          1368064
 2017-02-06 14:39:26.038206+01 | 1486388366.03821 | pgbench_tellers_pkey  |          5259264
 2017-02-06 14:39:26.038206+01 | 1486388366.03821 | pgbench_accounts_pkey |       2246197248

 2017-02-06 14:39:27.13446+01 | 1486388367.13446 | pgbench_branches_pkey |          1368064
 2017-02-06 14:39:27.13446+01 | 1486388367.13446 | pgbench_tellers_pkey  |          5259264
 2017-02-06 14:39:27.13446+01 | 1486388367.13446 | pgbench_accounts_pkey |       2246197248

 2017-02-06 14:39:28.226289+01 | 1486388368.22629 | pgbench_branches_pkey |          1368064
 2017-02-06 14:39:28.226289+01 | 1486388368.22629 | pgbench_tellers_pkey  |          5259264
 2017-02-06 14:39:28.226289+01 | 1486388368.22629 | pgbench_accounts_pkey |       2246197248

 2017-02-06 14:39:29.327677+01 | 1486388369.32768 | pgbench_branches_pkey |          1368064
 2017-02-06 14:39:29.327677+01 | 1486388369.32768 | pgbench_tellers_pkey  |          5259264
 2017-02-06 14:39:29.327677+01 | 1486388369.32768 | pgbench_accounts_pkey |       2246197248

 2017-02-06 14:39:30.408869+01 | 1486388370.40887 | pgbench_branches_pkey |          1368064
 2017-02-06 14:39:30.408869+01 | 1486388370.40887 | pgbench_tellers_pkey  |          5259264
 2017-02-06 14:39:30.408869+01 | 1486388370.40887 | pgbench_accounts_pkey |       2246197248

 2017-02-06 14:39:31.494077+01 | 1486388371.49408 | pgbench_branches_pkey |          1368064
 2017-02-06 14:39:31.494077+01 | 1486388371.49408 | pgbench_tellers_pkey  |          5259264
 2017-02-06 14:39:31.494077+01 | 1486388371.49408 | pgbench_accounts_pkey |       2246197248

 2017-02-06 14:39:32.582839+01 | 1486388372.58284 | pgbench_branches_pkey |          1368064
 2017-02-06 14:39:32.582839+01 | 1486388372.58284 | pgbench_tellers_pkey  |          5259264
 2017-02-06 14:39:32.582839+01 | 1486388372.58284 | pgbench_accounts_pkey |       2246197248

 2017-02-06 14:39:33.665383+01 | 1486388373.66538 | pgbench_branches_pkey |          1368064
 2017-02-06 14:39:33.665383+01 | 1486388373.66538 | pgbench_tellers_pkey  |          5259264
 2017-02-06 14:39:33.665383+01 | 1486388373.66538 | pgbench_accounts_pkey |       2246197248

 2017-02-06 14:39:34.755925+01 | 1486388374.75592 | pgbench_branches_pkey |          1368064
 2017-02-06 14:39:34.755925+01 | 1486388374.75592 | pgbench_tellers_pkey  |          5259264
 2017-02-06 14:39:34.755925+01 | 1486388374.75592 | pgbench_accounts_pkey |       2246197248

 2017-02-06 14:39:35.842632+01 | 1486388375.84263 | pgbench_branches_pkey |          1368064
 2017-02-06 14:39:35.842632+01 | 1486388375.84263 | pgbench_tellers_pkey  |          5259264
 2017-02-06 14:39:35.842632+01 | 1486388375.84263 | pgbench_accounts_pkey |       2246197248

 2017-02-06 14:39:36.916525+01 | 1486388376.91652 | pgbench_branches_pkey |          1368064
 2017-02-06 14:39:36.916525+01 | 1486388376.91652 | pgbench_tellers_pkey  |          5259264
 2017-02-06 14:39:36.916525+01 | 1486388376.91652 | pgbench_accounts_pkey |       2246197248

 2017-02-06 14:39:37.987371+01 | 1486388377.98737 | pgbench_branches_pkey |          1368064
 2017-02-06 14:39:37.987371+01 | 1486388377.98737 | pgbench_tellers_pkey  |          5259264
 2017-02-06 14:39:37.987371+01 | 1486388377.98737 | pgbench_accounts_pkey |       2246197248

 2017-02-06 14:39:39.082827+01 | 1486388379.08283 | pgbench_branches_pkey |          1368064
 2017-02-06 14:39:39.082827+01 | 1486388379.08283 | pgbench_tellers_pkey  |          5259264
 2017-02-06 14:39:39.082827+01 | 1486388379.08283 | pgbench_accounts_pkey |       2246197248

 2017-02-06 14:39:40.166043+01 | 1486388380.16604 | pgbench_branches_pkey |          1368064
 2017-02-06 14:39:40.166043+01 | 1486388380.16604 | pgbench_tellers_pkey  |          5259264
 2017-02-06 14:39:40.166043+01 | 1486388380.16604 | pgbench_accounts_pkey |       2246197248

 2017-02-06 14:39:41.254894+01 | 1486388381.25489 | pgbench_branches_pkey |          1368064
 2017-02-06 14:39:41.254894+01 | 1486388381.25489 | pgbench_tellers_pkey  |          5259264
 2017-02-06 14:39:41.254894+01 | 1486388381.25489 | pgbench_accounts_pkey |       2246197248

 2017-02-06 14:39:42.341685+01 | 1486388382.34169 | pgbench_branches_pkey |          1368064
 2017-02-06 14:39:42.341685+01 | 1486388382.34169 | pgbench_tellers_pkey  |          5259264
 2017-02-06 14:39:42.341685+01 | 1486388382.34169 | pgbench_accounts_pkey |       2246197248

 2017-02-06 14:39:43.424308+01 | 1486388383.42431 | pgbench_branches_pkey |          1368064
 2017-02-06 14:39:43.424308+01 | 1486388383.42431 | pgbench_tellers_pkey  |          5259264
 2017-02-06 14:39:43.424308+01 | 1486388383.42431 | pgbench_accounts_pkey |       2246197248

 2017-02-06 14:39:44.519485+01 | 1486388384.51948 | pgbench_branches_pkey |          1368064
 2017-02-06 14:39:44.519485+01 | 1486388384.51948 | pgbench_tellers_pkey  |          5259264
 2017-02-06 14:39:44.519485+01 | 1486388384.51948 | pgbench_accounts_pkey |       2246197248

 2017-02-06 14:39:45.615968+01 | 1486388385.61597 | pgbench_branches_pkey |          1368064
 2017-02-06 14:39:45.615968+01 | 1486388385.61597 | pgbench_tellers_pkey  |          5259264
 2017-02-06 14:39:45.615968+01 | 1486388385.61597 | pgbench_accounts_pkey |       2246197248

 2017-02-06 14:39:46.712157+01 | 1486388386.71216 | pgbench_branches_pkey |          1368064
 2017-02-06 14:39:46.712157+01 | 1486388386.71216 | pgbench_tellers_pkey  |          5259264
 2017-02-06 14:39:46.712157+01 | 1486388386.71216 | pgbench_accounts_pkey |       2246197248

 2017-02-06 14:39:47.801908+01 | 1486388387.80191 | pgbench_branches_pkey |          1368064
 2017-02-06 14:39:47.801908+01 | 1486388387.80191 | pgbench_tellers_pkey  |          5259264
 2017-02-06 14:39:47.801908+01 | 1486388387.80191 | pgbench_accounts_pkey |       2246197248

 2017-02-06 14:39:48.879556+01 | 1486388388.87956 | pgbench_branches_pkey |          1368064
 2017-02-06 14:39:48.879556+01 | 1486388388.87956 | pgbench_tellers_pkey  |          5259264
 2017-02-06 14:39:48.879556+01 | 1486388388.87956 | pgbench_accounts_pkey |       2246197248

 2017-02-06 14:39:49.962056+01 | 1486388389.96206 | pgbench_branches_pkey |          1368064
 2017-02-06 14:39:49.962056+01 | 1486388389.96206 | pgbench_tellers_pkey  |          5259264
 2017-02-06 14:39:49.962056+01 | 1486388389.96206 | pgbench_accounts_pkey |       2246197248

 2017-02-06 14:39:51.051323+01 | 1486388391.05132 | pgbench_branches_pkey |          1368064
 2017-02-06 14:39:51.051323+01 | 1486388391.05132 | pgbench_tellers_pkey  |          5259264
 2017-02-06 14:39:51.051323+01 | 1486388391.05132 | pgbench_accounts_pkey |       2246197248

 2017-02-06 14:39:52.143458+01 | 1486388392.14346 | pgbench_branches_pkey |          1368064
 2017-02-06 14:39:52.143458+01 | 1486388392.14346 | pgbench_tellers_pkey  |          5259264
 2017-02-06 14:39:52.143458+01 | 1486388392.14346 | pgbench_accounts_pkey |       2246197248

 2017-02-06 14:39:53.227835+01 | 1486388393.22783 | pgbench_branches_pkey |          1368064
 2017-02-06 14:39:53.227835+01 | 1486388393.22783 | pgbench_tellers_pkey  |          5259264
 2017-02-06 14:39:53.227835+01 | 1486388393.22783 | pgbench_accounts_pkey |       2246197248

 2017-02-06 14:39:54.298574+01 | 1486388394.29857 | pgbench_branches_pkey |          1368064
 2017-02-06 14:39:54.298574+01 | 1486388394.29857 | pgbench_tellers_pkey  |          5259264
 2017-02-06 14:39:54.298574+01 | 1486388394.29857 | pgbench_accounts_pkey |       2246197248

 2017-02-06 14:39:55.385961+01 | 1486388395.38596 | pgbench_branches_pkey |          1368064
 2017-02-06 14:39:55.385961+01 | 1486388395.38596 | pgbench_tellers_pkey  |          5259264
 2017-02-06 14:39:55.385961+01 | 1486388395.38596 | pgbench_accounts_pkey |       2246197248

 2017-02-06 14:39:56.473528+01 | 1486388396.47353 | pgbench_branches_pkey |          1368064
 2017-02-06 14:39:56.473528+01 | 1486388396.47353 | pgbench_tellers_pkey  |          5259264
 2017-02-06 14:39:56.473528+01 | 1486388396.47353 | pgbench_accounts_pkey |       2246197248

 2017-02-06 14:39:57.565553+01 | 1486388397.56555 | pgbench_branches_pkey |          1368064
 2017-02-06 14:39:57.565553+01 | 1486388397.56555 | pgbench_tellers_pkey  |          5259264
 2017-02-06 14:39:57.565553+01 | 1486388397.56555 | pgbench_accounts_pkey |       2246197248

 2017-02-06 14:39:58.652041+01 | 1486388398.65204 | pgbench_branches_pkey |          1368064
 2017-02-06 14:39:58.652041+01 | 1486388398.65204 | pgbench_tellers_pkey  |          5259264
 2017-02-06 14:39:58.652041+01 | 1486388398.65204 | pgbench_accounts_pkey |       2246197248

