 2017-02-04 18:48:37.62071+01 | 1486230517.62071 | pgbench_accounts |       1379270656
 2017-02-04 18:48:37.62071+01 | 1486230517.62071 | pgbench_tellers  |          4235264
 2017-02-04 18:48:37.62071+01 | 1486230517.62071 | pgbench_history  |                0
 2017-02-04 18:48:37.62071+01 | 1486230517.62071 | pgbench_branches |          1859584

 2017-02-04 18:48:38.717329+01 | 1486230518.71733 | pgbench_accounts |       1379270656
 2017-02-04 18:48:38.717329+01 | 1486230518.71733 | pgbench_tellers  |          4235264
 2017-02-04 18:48:38.717329+01 | 1486230518.71733 | pgbench_history  |          2506752
 2017-02-04 18:48:38.717329+01 | 1486230518.71733 | pgbench_branches |          1859584

 2017-02-04 18:48:39.795157+01 | 1486230519.79516 | pgbench_accounts |       1379270656
 2017-02-04 18:48:39.795157+01 | 1486230519.79516 | pgbench_tellers  |          4235264
 2017-02-04 18:48:39.795157+01 | 1486230519.79516 | pgbench_history  |          3702784
 2017-02-04 18:48:39.795157+01 | 1486230519.79516 | pgbench_branches |          1859584

 2017-02-04 18:48:40.872575+01 | 1486230520.87258 | pgbench_accounts |       1379270656
 2017-02-04 18:48:40.872575+01 | 1486230520.87258 | pgbench_tellers  |          4235264
 2017-02-04 18:48:40.872575+01 | 1486230520.87258 | pgbench_history  |          5070848
 2017-02-04 18:48:40.872575+01 | 1486230520.87258 | pgbench_branches |          1859584

 2017-02-04 18:48:41.945664+01 | 1486230521.94566 | pgbench_accounts |       1379270656
 2017-02-04 18:48:41.945664+01 | 1486230521.94566 | pgbench_tellers  |          4235264
 2017-02-04 18:48:41.945664+01 | 1486230521.94566 | pgbench_history  |          6946816
 2017-02-04 18:48:41.945664+01 | 1486230521.94566 | pgbench_branches |          1859584

 2017-02-04 18:48:43.022633+01 | 1486230523.02263 | pgbench_accounts |       1379270656
 2017-02-04 18:48:43.022633+01 | 1486230523.02263 | pgbench_tellers  |          4235264
 2017-02-04 18:48:43.022633+01 | 1486230523.02263 | pgbench_history  |          8773632
 2017-02-04 18:48:43.022633+01 | 1486230523.02263 | pgbench_branches |          1859584

 2017-02-04 18:48:44.097902+01 | 1486230524.0979 | pgbench_accounts |       1379270656
 2017-02-04 18:48:44.097902+01 | 1486230524.0979 | pgbench_tellers  |          4235264
 2017-02-04 18:48:44.097902+01 | 1486230524.0979 | pgbench_history  |         12124160
 2017-02-04 18:48:44.097902+01 | 1486230524.0979 | pgbench_branches |          1859584

 2017-02-04 18:48:45.177959+01 | 1486230525.17796 | pgbench_accounts |       1379270656
 2017-02-04 18:48:45.177959+01 | 1486230525.17796 | pgbench_tellers  |          4235264
 2017-02-04 18:48:45.177959+01 | 1486230525.17796 | pgbench_history  |         12992512
 2017-02-04 18:48:45.177959+01 | 1486230525.17796 | pgbench_branches |          1859584

 2017-02-04 18:48:46.250662+01 | 1486230526.25066 | pgbench_accounts |       1379270656
 2017-02-04 18:48:46.250662+01 | 1486230526.25066 | pgbench_tellers  |          4235264
 2017-02-04 18:48:46.250662+01 | 1486230526.25066 | pgbench_history  |         14680064
 2017-02-04 18:48:46.250662+01 | 1486230526.25066 | pgbench_branches |          1859584

 2017-02-04 18:48:47.335075+01 | 1486230527.33507 | pgbench_accounts |       1379270656
 2017-02-04 18:48:47.335075+01 | 1486230527.33507 | pgbench_tellers  |          4235264
 2017-02-04 18:48:47.335075+01 | 1486230527.33507 | pgbench_history  |         16605184
 2017-02-04 18:48:47.335075+01 | 1486230527.33507 | pgbench_branches |          1859584

 2017-02-04 18:48:48.414584+01 | 1486230528.41458 | pgbench_accounts |       1379270656
 2017-02-04 18:48:48.414584+01 | 1486230528.41458 | pgbench_tellers  |          4235264
 2017-02-04 18:48:48.414584+01 | 1486230528.41458 | pgbench_history  |         18432000
 2017-02-04 18:48:48.414584+01 | 1486230528.41458 | pgbench_branches |          1859584

 2017-02-04 18:48:49.499273+01 | 1486230529.49927 | pgbench_accounts |       1379270656
 2017-02-04 18:48:49.499273+01 | 1486230529.49927 | pgbench_tellers  |          4235264
 2017-02-04 18:48:49.499273+01 | 1486230529.49927 | pgbench_history  |         20340736
 2017-02-04 18:48:49.499273+01 | 1486230529.49927 | pgbench_branches |          1859584

 2017-02-04 18:48:50.578122+01 | 1486230530.57812 | pgbench_accounts |       1379270656
 2017-02-04 18:48:50.578122+01 | 1486230530.57812 | pgbench_tellers  |          4235264
 2017-02-04 18:48:50.578122+01 | 1486230530.57812 | pgbench_history  |         22192128
 2017-02-04 18:48:50.578122+01 | 1486230530.57812 | pgbench_branches |          1859584

 2017-02-04 18:48:51.653043+01 | 1486230531.65304 | pgbench_accounts |       1379270656
 2017-02-04 18:48:51.653043+01 | 1486230531.65304 | pgbench_tellers  |          4235264
 2017-02-04 18:48:51.653043+01 | 1486230531.65304 | pgbench_history  |         24395776
 2017-02-04 18:48:51.653043+01 | 1486230531.65304 | pgbench_branches |          1859584

 2017-02-04 18:48:52.733155+01 | 1486230532.73316 | pgbench_accounts |       1379270656
 2017-02-04 18:48:52.733155+01 | 1486230532.73316 | pgbench_tellers  |          4235264
 2017-02-04 18:48:52.733155+01 | 1486230532.73316 | pgbench_history  |         26460160
 2017-02-04 18:48:52.733155+01 | 1486230532.73316 | pgbench_branches |          1859584

 2017-02-04 18:48:53.813508+01 | 1486230533.81351 | pgbench_accounts |       1379270656
 2017-02-04 18:48:53.813508+01 | 1486230533.81351 | pgbench_tellers  |          4235264
 2017-02-04 18:48:53.813508+01 | 1486230533.81351 | pgbench_history  |         28360704
 2017-02-04 18:48:53.813508+01 | 1486230533.81351 | pgbench_branches |          1859584

 2017-02-04 18:48:54.909392+01 | 1486230534.90939 | pgbench_accounts |       1379270656
 2017-02-04 18:48:54.909392+01 | 1486230534.90939 | pgbench_tellers  |          4235264
 2017-02-04 18:48:54.909392+01 | 1486230534.90939 | pgbench_history  |         30564352
 2017-02-04 18:48:54.909392+01 | 1486230534.90939 | pgbench_branches |          1859584

 2017-02-04 18:48:55.985196+01 | 1486230535.9852 | pgbench_accounts |       1379270656
 2017-02-04 18:48:55.985196+01 | 1486230535.9852 | pgbench_tellers  |          4235264
 2017-02-04 18:48:55.985196+01 | 1486230535.9852 | pgbench_history  |         32776192
 2017-02-04 18:48:55.985196+01 | 1486230535.9852 | pgbench_branches |          1859584

 2017-02-04 18:48:57.057215+01 | 1486230537.05721 | pgbench_accounts |       1379270656
 2017-02-04 18:48:57.057215+01 | 1486230537.05721 | pgbench_tellers  |          4235264
 2017-02-04 18:48:57.057215+01 | 1486230537.05721 | pgbench_history  |         33816576
 2017-02-04 18:48:57.057215+01 | 1486230537.05721 | pgbench_branches |          1859584

 2017-02-04 18:48:58.134676+01 | 1486230538.13468 | pgbench_accounts |       1379270656
 2017-02-04 18:48:58.134676+01 | 1486230538.13468 | pgbench_tellers  |          4235264
 2017-02-04 18:48:58.134676+01 | 1486230538.13468 | pgbench_history  |         36372480
 2017-02-04 18:48:58.134676+01 | 1486230538.13468 | pgbench_branches |          1859584

 2017-02-04 18:48:59.210956+01 | 1486230539.21096 | pgbench_accounts |       1379270656
 2017-02-04 18:48:59.210956+01 | 1486230539.21096 | pgbench_tellers  |          4235264
 2017-02-04 18:48:59.210956+01 | 1486230539.21096 | pgbench_history  |         38060032
 2017-02-04 18:48:59.210956+01 | 1486230539.21096 | pgbench_branches |          1859584

 2017-02-04 18:49:00.284197+01 | 1486230540.2842 | pgbench_accounts |       1379270656
 2017-02-04 18:49:00.284197+01 | 1486230540.2842 | pgbench_tellers  |          4235264
 2017-02-04 18:49:00.284197+01 | 1486230540.2842 | pgbench_history  |         39796736
 2017-02-04 18:49:00.284197+01 | 1486230540.2842 | pgbench_branches |          1859584

 2017-02-04 18:49:01.361107+01 | 1486230541.36111 | pgbench_accounts |       1379270656
 2017-02-04 18:49:01.361107+01 | 1486230541.36111 | pgbench_tellers  |          4235264
 2017-02-04 18:49:01.361107+01 | 1486230541.36111 | pgbench_history  |         42557440
 2017-02-04 18:49:01.361107+01 | 1486230541.36111 | pgbench_branches |          1859584

 2017-02-04 18:49:02.435171+01 | 1486230542.43517 | pgbench_accounts |       1379270656
 2017-02-04 18:49:02.435171+01 | 1486230542.43517 | pgbench_tellers  |          4235264
 2017-02-04 18:49:02.435171+01 | 1486230542.43517 | pgbench_history  |         47030272
 2017-02-04 18:49:02.435171+01 | 1486230542.43517 | pgbench_branches |          1859584

 2017-02-04 18:49:03.514557+01 | 1486230543.51456 | pgbench_accounts |       1379270656
 2017-02-04 18:49:03.514557+01 | 1486230543.51456 | pgbench_tellers  |          4235264
 2017-02-04 18:49:03.514557+01 | 1486230543.51456 | pgbench_history  |         47030272
 2017-02-04 18:49:03.514557+01 | 1486230543.51456 | pgbench_branches |          1859584

 2017-02-04 18:49:04.599239+01 | 1486230544.59924 | pgbench_accounts |       1379270656
 2017-02-04 18:49:04.599239+01 | 1486230544.59924 | pgbench_tellers  |          4235264
 2017-02-04 18:49:04.599239+01 | 1486230544.59924 | pgbench_history  |         48226304
 2017-02-04 18:49:04.599239+01 | 1486230544.59924 | pgbench_branches |          1859584

 2017-02-04 18:49:05.680773+01 | 1486230545.68077 | pgbench_accounts |       1379270656
 2017-02-04 18:49:05.680773+01 | 1486230545.68077 | pgbench_tellers  |          4235264
 2017-02-04 18:49:05.680773+01 | 1486230545.68077 | pgbench_history  |         49995776
 2017-02-04 18:49:05.680773+01 | 1486230545.68077 | pgbench_branches |          1859584

 2017-02-04 18:49:06.76095+01 | 1486230546.76095 | pgbench_accounts |       1379270656
 2017-02-04 18:49:06.76095+01 | 1486230546.76095 | pgbench_tellers  |          4235264
 2017-02-04 18:49:06.76095+01 | 1486230546.76095 | pgbench_history  |         52215808
 2017-02-04 18:49:06.76095+01 | 1486230546.76095 | pgbench_branches |          1859584

 2017-02-04 18:49:07.834501+01 | 1486230547.8345 | pgbench_accounts |       1379270656
 2017-02-04 18:49:07.834501+01 | 1486230547.8345 | pgbench_tellers  |          4235264
 2017-02-04 18:49:07.834501+01 | 1486230547.8345 | pgbench_history  |         53608448
 2017-02-04 18:49:07.834501+01 | 1486230547.8345 | pgbench_branches |          1859584

 2017-02-04 18:49:08.911236+01 | 1486230548.91124 | pgbench_accounts |       1379270656
 2017-02-04 18:49:08.911236+01 | 1486230548.91124 | pgbench_tellers  |          4235264
 2017-02-04 18:49:08.911236+01 | 1486230548.91124 | pgbench_history  |         56795136
 2017-02-04 18:49:08.911236+01 | 1486230548.91124 | pgbench_branches |          1859584

 2017-02-04 18:49:09.989201+01 | 1486230549.9892 | pgbench_accounts |       1379270656
 2017-02-04 18:49:09.989201+01 | 1486230549.9892 | pgbench_tellers  |          4235264
 2017-02-04 18:49:09.989201+01 | 1486230549.9892 | pgbench_history  |         57475072
 2017-02-04 18:49:09.989201+01 | 1486230549.9892 | pgbench_branches |          1859584

 2017-02-04 18:49:11.068467+01 | 1486230551.06847 | pgbench_accounts |       1379270656
 2017-02-04 18:49:11.068467+01 | 1486230551.06847 | pgbench_tellers  |          4235264
 2017-02-04 18:49:11.068467+01 | 1486230551.06847 | pgbench_history  |         59539456
 2017-02-04 18:49:11.068467+01 | 1486230551.06847 | pgbench_branches |          1859584

 2017-02-04 18:49:12.142666+01 | 1486230552.14267 | pgbench_accounts |       1379270656
 2017-02-04 18:49:12.142666+01 | 1486230552.14267 | pgbench_tellers  |          4235264
 2017-02-04 18:49:12.142666+01 | 1486230552.14267 | pgbench_history  |         61423616
 2017-02-04 18:49:12.142666+01 | 1486230552.14267 | pgbench_branches |          1859584

 2017-02-04 18:49:13.216293+01 | 1486230553.21629 | pgbench_accounts |       1379270656
 2017-02-04 18:49:13.216293+01 | 1486230553.21629 | pgbench_tellers  |          4235264
 2017-02-04 18:49:13.216293+01 | 1486230553.21629 | pgbench_history  |         63979520
 2017-02-04 18:49:13.216293+01 | 1486230553.21629 | pgbench_branches |          1859584

 2017-02-04 18:49:14.300005+01 | 1486230554.3 | pgbench_accounts |       1379270656
 2017-02-04 18:49:14.300005+01 | 1486230554.3 | pgbench_tellers  |          4235264
 2017-02-04 18:49:14.300005+01 | 1486230554.3 | pgbench_history  |         65830912
 2017-02-04 18:49:14.300005+01 | 1486230554.3 | pgbench_branches |          1859584

 2017-02-04 18:49:15.382944+01 | 1486230555.38294 | pgbench_accounts |       1379270656
 2017-02-04 18:49:15.382944+01 | 1486230555.38294 | pgbench_tellers  |          4235264
 2017-02-04 18:49:15.382944+01 | 1486230555.38294 | pgbench_history  |         68698112
 2017-02-04 18:49:15.382944+01 | 1486230555.38294 | pgbench_branches |          1859584

 2017-02-04 18:49:16.463679+01 | 1486230556.46368 | pgbench_accounts |       1379270656
 2017-02-04 18:49:16.463679+01 | 1486230556.46368 | pgbench_tellers  |          4235264
 2017-02-04 18:49:16.463679+01 | 1486230556.46368 | pgbench_history  |         70549504
 2017-02-04 18:49:16.463679+01 | 1486230556.46368 | pgbench_branches |          1859584

 2017-02-04 18:49:17.539533+01 | 1486230557.53953 | pgbench_accounts |       1379270656
 2017-02-04 18:49:17.539533+01 | 1486230557.53953 | pgbench_tellers  |          4235264
 2017-02-04 18:49:17.539533+01 | 1486230557.53953 | pgbench_history  |         71770112
 2017-02-04 18:49:17.539533+01 | 1486230557.53953 | pgbench_branches |          1859584

 2017-02-04 18:49:18.618185+01 | 1486230558.61819 | pgbench_accounts |       1379270656
 2017-02-04 18:49:18.618185+01 | 1486230558.61819 | pgbench_tellers  |          4235264
 2017-02-04 18:49:18.618185+01 | 1486230558.61819 | pgbench_history  |         73154560
 2017-02-04 18:49:18.618185+01 | 1486230558.61819 | pgbench_branches |          1859584

 2017-02-04 18:49:19.699649+01 | 1486230559.69965 | pgbench_accounts |       1379270656
 2017-02-04 18:49:19.699649+01 | 1486230559.69965 | pgbench_tellers  |          4235264
 2017-02-04 18:49:19.699649+01 | 1486230559.69965 | pgbench_history  |         75382784
 2017-02-04 18:49:19.699649+01 | 1486230559.69965 | pgbench_branches |          1859584

 2017-02-04 18:49:20.779042+01 | 1486230560.77904 | pgbench_accounts |       1379270656
 2017-02-04 18:49:20.779042+01 | 1486230560.77904 | pgbench_tellers  |          4235264
 2017-02-04 18:49:20.779042+01 | 1486230560.77904 | pgbench_history  |         76955648
 2017-02-04 18:49:20.779042+01 | 1486230560.77904 | pgbench_branches |          1859584

 2017-02-04 18:49:21.861263+01 | 1486230561.86126 | pgbench_accounts |       1379270656
 2017-02-04 18:49:21.861263+01 | 1486230561.86126 | pgbench_tellers  |          4235264
 2017-02-04 18:49:21.861263+01 | 1486230561.86126 | pgbench_history  |         79675392
 2017-02-04 18:49:21.861263+01 | 1486230561.86126 | pgbench_branches |          1859584

 2017-02-04 18:49:22.936372+01 | 1486230562.93637 | pgbench_accounts |       1379270656
 2017-02-04 18:49:22.936372+01 | 1486230562.93637 | pgbench_tellers  |          4235264
 2017-02-04 18:49:22.936372+01 | 1486230562.93637 | pgbench_history  |         81223680
 2017-02-04 18:49:22.936372+01 | 1486230562.93637 | pgbench_branches |          1859584

 2017-02-04 18:49:24.012485+01 | 1486230564.01249 | pgbench_accounts |       1379270656
 2017-02-04 18:49:24.012485+01 | 1486230564.01249 | pgbench_tellers  |          4235264
 2017-02-04 18:49:24.012485+01 | 1486230564.01249 | pgbench_history  |         83402752
 2017-02-04 18:49:24.012485+01 | 1486230564.01249 | pgbench_branches |          1859584

 2017-02-04 18:49:25.089431+01 | 1486230565.08943 | pgbench_accounts |       1379270656
 2017-02-04 18:49:25.089431+01 | 1486230565.08943 | pgbench_tellers  |          4235264
 2017-02-04 18:49:25.089431+01 | 1486230565.08943 | pgbench_history  |         85254144
 2017-02-04 18:49:25.089431+01 | 1486230565.08943 | pgbench_branches |          1859584

 2017-02-04 18:49:26.172415+01 | 1486230566.17242 | pgbench_accounts |       1379270656
 2017-02-04 18:49:26.172415+01 | 1486230566.17242 | pgbench_tellers  |          4235264
 2017-02-04 18:49:26.172415+01 | 1486230566.17242 | pgbench_history  |         86802432
 2017-02-04 18:49:26.172415+01 | 1486230566.17242 | pgbench_branches |          1859584

 2017-02-04 18:49:27.252346+01 | 1486230567.25235 | pgbench_accounts |       1379270656
 2017-02-04 18:49:27.252346+01 | 1486230567.25235 | pgbench_tellers  |          4235264
 2017-02-04 18:49:27.252346+01 | 1486230567.25235 | pgbench_history  |         88653824
 2017-02-04 18:49:27.252346+01 | 1486230567.25235 | pgbench_branches |          1859584

 2017-02-04 18:49:28.330399+01 | 1486230568.3304 | pgbench_accounts |       1379270656
 2017-02-04 18:49:28.330399+01 | 1486230568.3304 | pgbench_tellers  |          4235264
 2017-02-04 18:49:28.330399+01 | 1486230568.3304 | pgbench_history  |         90865664
 2017-02-04 18:49:28.330399+01 | 1486230568.3304 | pgbench_branches |          1859584

 2017-02-04 18:49:29.411636+01 | 1486230569.41164 | pgbench_accounts |       1379270656
 2017-02-04 18:49:29.411636+01 | 1486230569.41164 | pgbench_tellers  |          4235264
 2017-02-04 18:49:29.411636+01 | 1486230569.41164 | pgbench_history  |         93208576
 2017-02-04 18:49:29.411636+01 | 1486230569.41164 | pgbench_branches |          1859584

 2017-02-04 18:49:30.493666+01 | 1486230570.49367 | pgbench_accounts |       1379270656
 2017-02-04 18:49:30.493666+01 | 1486230570.49367 | pgbench_tellers  |          4235264
 2017-02-04 18:49:30.493666+01 | 1486230570.49367 | pgbench_history  |         94920704
 2017-02-04 18:49:30.493666+01 | 1486230570.49367 | pgbench_branches |          1859584

 2017-02-04 18:49:31.568769+01 | 1486230571.56877 | pgbench_accounts |       1379270656
 2017-02-04 18:49:31.568769+01 | 1486230571.56877 | pgbench_tellers  |          4235264
 2017-02-04 18:49:31.568769+01 | 1486230571.56877 | pgbench_history  |         96993280
 2017-02-04 18:49:31.568769+01 | 1486230571.56877 | pgbench_branches |          1859584

 2017-02-04 18:49:32.644472+01 | 1486230572.64447 | pgbench_accounts |       1379270656
 2017-02-04 18:49:32.644472+01 | 1486230572.64447 | pgbench_tellers  |          4235264
 2017-02-04 18:49:32.644472+01 | 1486230572.64447 | pgbench_history  |         98353152
 2017-02-04 18:49:32.644472+01 | 1486230572.64447 | pgbench_branches |          1859584

 2017-02-04 18:49:33.724432+01 | 1486230573.72443 | pgbench_accounts |       1379270656
 2017-02-04 18:49:33.724432+01 | 1486230573.72443 | pgbench_tellers  |          4235264
 2017-02-04 18:49:33.724432+01 | 1486230573.72443 | pgbench_history  |        100589568
 2017-02-04 18:49:33.724432+01 | 1486230573.72443 | pgbench_branches |          1859584

 2017-02-04 18:49:34.80081+01 | 1486230574.80081 | pgbench_accounts |       1379270656
 2017-02-04 18:49:34.80081+01 | 1486230574.80081 | pgbench_tellers  |          4235264
 2017-02-04 18:49:34.80081+01 | 1486230574.80081 | pgbench_history  |        103309312
 2017-02-04 18:49:34.80081+01 | 1486230574.80081 | pgbench_branches |          1859584

 2017-02-04 18:49:35.881951+01 | 1486230575.88195 | pgbench_accounts |       1379270656
 2017-02-04 18:49:35.881951+01 | 1486230575.88195 | pgbench_tellers  |          4235264
 2017-02-04 18:49:35.881951+01 | 1486230575.88195 | pgbench_history  |        104996864
 2017-02-04 18:49:35.881951+01 | 1486230575.88195 | pgbench_branches |          1859584

 2017-02-04 18:49:36.961063+01 | 1486230576.96106 | pgbench_accounts |       1379270656
 2017-02-04 18:49:36.961063+01 | 1486230576.96106 | pgbench_tellers  |          4235264
 2017-02-04 18:49:36.961063+01 | 1486230576.96106 | pgbench_history  |        106545152
 2017-02-04 18:49:36.961063+01 | 1486230576.96106 | pgbench_branches |          1859584

 2017-02-04 18:49:38.03814+01 | 1486230578.03814 | pgbench_accounts |       1379270656
 2017-02-04 18:49:38.03814+01 | 1486230578.03814 | pgbench_tellers  |          4235264
 2017-02-04 18:49:38.03814+01 | 1486230578.03814 | pgbench_history  |        108781568
 2017-02-04 18:49:38.03814+01 | 1486230578.03814 | pgbench_branches |          1859584

 2017-02-04 18:49:39.119734+01 | 1486230579.11973 | pgbench_accounts |       1379270656
 2017-02-04 18:49:39.119734+01 | 1486230579.11973 | pgbench_tellers  |          4235264
 2017-02-04 18:49:39.119734+01 | 1486230579.11973 | pgbench_history  |        109985792
 2017-02-04 18:49:39.119734+01 | 1486230579.11973 | pgbench_branches |          1859584

 2017-02-04 18:49:40.190877+01 | 1486230580.19088 | pgbench_accounts |       1379270656
 2017-02-04 18:49:40.190877+01 | 1486230580.19088 | pgbench_tellers  |          4235264
 2017-02-04 18:49:40.190877+01 | 1486230580.19088 | pgbench_history  |        112222208
 2017-02-04 18:49:40.190877+01 | 1486230580.19088 | pgbench_branches |          1859584

 2017-02-04 18:49:41.271268+01 | 1486230581.27127 | pgbench_accounts |       1379270656
 2017-02-04 18:49:41.271268+01 | 1486230581.27127 | pgbench_tellers  |          4235264
 2017-02-04 18:49:41.271268+01 | 1486230581.27127 | pgbench_history  |        114409472
 2017-02-04 18:49:41.271268+01 | 1486230581.27127 | pgbench_branches |          1859584

 2017-02-04 18:49:42.352013+01 | 1486230582.35201 | pgbench_accounts |       1379270656
 2017-02-04 18:49:42.352013+01 | 1486230582.35201 | pgbench_tellers  |          4235264
 2017-02-04 18:49:42.352013+01 | 1486230582.35201 | pgbench_history  |        116482048
 2017-02-04 18:49:42.352013+01 | 1486230582.35201 | pgbench_branches |          1859584

 2017-02-04 18:49:43.433679+01 | 1486230583.43368 | pgbench_accounts |       1379270656
 2017-02-04 18:49:43.433679+01 | 1486230583.43368 | pgbench_tellers  |          4235264
 2017-02-04 18:49:43.433679+01 | 1486230583.43368 | pgbench_history  |        118210560
 2017-02-04 18:49:43.433679+01 | 1486230583.43368 | pgbench_branches |          1859584

 2017-02-04 18:49:44.513434+01 | 1486230584.51343 | pgbench_accounts |       1379270656
 2017-02-04 18:49:44.513434+01 | 1486230584.51343 | pgbench_tellers  |          4235264
 2017-02-04 18:49:44.513434+01 | 1486230584.51343 | pgbench_history  |        120905728
 2017-02-04 18:49:44.513434+01 | 1486230584.51343 | pgbench_branches |          1859584

 2017-02-04 18:49:45.587487+01 | 1486230585.58749 | pgbench_accounts |       1379270656
 2017-02-04 18:49:45.587487+01 | 1486230585.58749 | pgbench_tellers  |          4235264
 2017-02-04 18:49:45.587487+01 | 1486230585.58749 | pgbench_history  |        121937920
 2017-02-04 18:49:45.587487+01 | 1486230585.58749 | pgbench_branches |          1859584

 2017-02-04 18:49:46.663884+01 | 1486230586.66388 | pgbench_accounts |       1379270656
 2017-02-04 18:49:46.663884+01 | 1486230586.66388 | pgbench_tellers  |          4235264
 2017-02-04 18:49:46.663884+01 | 1486230586.66388 | pgbench_history  |        123813888
 2017-02-04 18:49:46.663884+01 | 1486230586.66388 | pgbench_branches |          1859584

 2017-02-04 18:49:47.73538+01 | 1486230587.73538 | pgbench_accounts |       1379270656
 2017-02-04 18:49:47.73538+01 | 1486230587.73538 | pgbench_tellers  |          4235264
 2017-02-04 18:49:47.73538+01 | 1486230587.73538 | pgbench_history  |        126246912
 2017-02-04 18:49:47.73538+01 | 1486230587.73538 | pgbench_branches |          1859584

 2017-02-04 18:49:48.82012+01 | 1486230588.82012 | pgbench_accounts |       1379270656
 2017-02-04 18:49:48.82012+01 | 1486230588.82012 | pgbench_tellers  |          4235264
 2017-02-04 18:49:48.82012+01 | 1486230588.82012 | pgbench_history  |        127795200
 2017-02-04 18:49:48.82012+01 | 1486230588.82012 | pgbench_branches |          1859584

 2017-02-04 18:49:49.896+01 | 1486230589.896 | pgbench_accounts |       1379270656
 2017-02-04 18:49:49.896+01 | 1486230589.896 | pgbench_tellers  |          4235264
 2017-02-04 18:49:49.896+01 | 1486230589.896 | pgbench_history  |        130514944
 2017-02-04 18:49:49.896+01 | 1486230589.896 | pgbench_branches |          1859584

 2017-02-04 18:49:50.978991+01 | 1486230590.97899 | pgbench_accounts |       1379270656
 2017-02-04 18:49:50.978991+01 | 1486230590.97899 | pgbench_tellers  |          4235264
 2017-02-04 18:49:50.978991+01 | 1486230590.97899 | pgbench_history  |        132046848
 2017-02-04 18:49:50.978991+01 | 1486230590.97899 | pgbench_branches |          1859584

 2017-02-04 18:49:52.05691+01 | 1486230592.05691 | pgbench_accounts |       1379270656
 2017-02-04 18:49:52.05691+01 | 1486230592.05691 | pgbench_tellers  |          4235264
 2017-02-04 18:49:52.05691+01 | 1486230592.05691 | pgbench_history  |        133644288
 2017-02-04 18:49:52.05691+01 | 1486230592.05691 | pgbench_branches |          1859584

 2017-02-04 18:49:53.139869+01 | 1486230593.13987 | pgbench_accounts |       1379270656
 2017-02-04 18:49:53.139869+01 | 1486230593.13987 | pgbench_tellers  |          4235264
 2017-02-04 18:49:53.139869+01 | 1486230593.13987 | pgbench_history  |        135356416
 2017-02-04 18:49:53.139869+01 | 1486230593.13987 | pgbench_branches |          1859584

 2017-02-04 18:49:54.220139+01 | 1486230594.22014 | pgbench_accounts |       1379270656
 2017-02-04 18:49:54.220139+01 | 1486230594.22014 | pgbench_tellers  |          4235264
 2017-02-04 18:49:54.220139+01 | 1486230594.22014 | pgbench_history  |        137732096
 2017-02-04 18:49:54.220139+01 | 1486230594.22014 | pgbench_branches |          1859584

 2017-02-04 18:49:55.302528+01 | 1486230595.30253 | pgbench_accounts |       1379270656
 2017-02-04 18:49:55.302528+01 | 1486230595.30253 | pgbench_tellers  |          4235264
 2017-02-04 18:49:55.302528+01 | 1486230595.30253 | pgbench_history  |        139747328
 2017-02-04 18:49:55.302528+01 | 1486230595.30253 | pgbench_branches |          1859584

 2017-02-04 18:49:56.382637+01 | 1486230596.38264 | pgbench_accounts |       1379270656
 2017-02-04 18:49:56.382637+01 | 1486230596.38264 | pgbench_tellers  |          4235264
 2017-02-04 18:49:56.382637+01 | 1486230596.38264 | pgbench_history  |        142426112
 2017-02-04 18:49:56.382637+01 | 1486230596.38264 | pgbench_branches |          1859584

 2017-02-04 18:49:57.462547+01 | 1486230597.46255 | pgbench_accounts |       1379270656
 2017-02-04 18:49:57.462547+01 | 1486230597.46255 | pgbench_tellers  |          4235264
 2017-02-04 18:49:57.462547+01 | 1486230597.46255 | pgbench_history  |        143925248
 2017-02-04 18:49:57.462547+01 | 1486230597.46255 | pgbench_branches |          1859584

 2017-02-04 18:49:58.534409+01 | 1486230598.53441 | pgbench_accounts |       1379270656
 2017-02-04 18:49:58.534409+01 | 1486230598.53441 | pgbench_tellers  |          4235264
 2017-02-04 18:49:58.534409+01 | 1486230598.53441 | pgbench_history  |        145612800
 2017-02-04 18:49:58.534409+01 | 1486230598.53441 | pgbench_branches |          1859584

 2017-02-04 18:49:59.61008+01 | 1486230599.61008 | pgbench_accounts |       1379270656
 2017-02-04 18:49:59.61008+01 | 1486230599.61008 | pgbench_tellers  |          4235264
 2017-02-04 18:49:59.61008+01 | 1486230599.61008 | pgbench_history  |        146808832
 2017-02-04 18:49:59.61008+01 | 1486230599.61008 | pgbench_branches |          1859584

 2017-02-04 18:50:00.689512+01 | 1486230600.68951 | pgbench_accounts |       1379270656
 2017-02-04 18:50:00.689512+01 | 1486230600.68951 | pgbench_tellers  |          4235264
 2017-02-04 18:50:00.689512+01 | 1486230600.68951 | pgbench_history  |        148692992
 2017-02-04 18:50:00.689512+01 | 1486230600.68951 | pgbench_branches |          1859584

 2017-02-04 18:50:01.772298+01 | 1486230601.7723 | pgbench_accounts |       1379270656
 2017-02-04 18:50:01.772298+01 | 1486230601.7723 | pgbench_tellers  |          4235264
 2017-02-04 18:50:01.772298+01 | 1486230601.7723 | pgbench_history  |        151035904
 2017-02-04 18:50:01.772298+01 | 1486230601.7723 | pgbench_branches |          1859584

 2017-02-04 18:50:02.854465+01 | 1486230602.85447 | pgbench_accounts |       1379270656
 2017-02-04 18:50:02.854465+01 | 1486230602.85447 | pgbench_tellers  |          4235264
 2017-02-04 18:50:02.854465+01 | 1486230602.85447 | pgbench_history  |        152444928
 2017-02-04 18:50:02.854465+01 | 1486230602.85447 | pgbench_branches |          1859584

 2017-02-04 18:50:03.930687+01 | 1486230603.93069 | pgbench_accounts |       1379270656
 2017-02-04 18:50:03.930687+01 | 1486230603.93069 | pgbench_tellers  |          4235264
 2017-02-04 18:50:03.930687+01 | 1486230603.93069 | pgbench_history  |        154345472
 2017-02-04 18:50:03.930687+01 | 1486230603.93069 | pgbench_branches |          1859584

 2017-02-04 18:50:05.010872+01 | 1486230605.01087 | pgbench_accounts |       1379270656
 2017-02-04 18:50:05.010872+01 | 1486230605.01087 | pgbench_tellers  |          4235264
 2017-02-04 18:50:05.010872+01 | 1486230605.01087 | pgbench_history  |        156385280
 2017-02-04 18:50:05.010872+01 | 1486230605.01087 | pgbench_branches |          1859584

 2017-02-04 18:50:06.087768+01 | 1486230606.08777 | pgbench_accounts |       1379270656
 2017-02-04 18:50:06.087768+01 | 1486230606.08777 | pgbench_tellers  |          4235264
 2017-02-04 18:50:06.087768+01 | 1486230606.08777 | pgbench_history  |        158588928
 2017-02-04 18:50:06.087768+01 | 1486230606.08777 | pgbench_branches |          1859584

 2017-02-04 18:50:07.161579+01 | 1486230607.16158 | pgbench_accounts |       1379270656
 2017-02-04 18:50:07.161579+01 | 1486230607.16158 | pgbench_tellers  |          4235264
 2017-02-04 18:50:07.161579+01 | 1486230607.16158 | pgbench_history  |        161947648
 2017-02-04 18:50:07.161579+01 | 1486230607.16158 | pgbench_branches |          1859584

 2017-02-04 18:50:08.238145+01 | 1486230608.23815 | pgbench_accounts |       1379270656
 2017-02-04 18:50:08.238145+01 | 1486230608.23815 | pgbench_tellers  |          4235264
 2017-02-04 18:50:08.238145+01 | 1486230608.23815 | pgbench_history  |        162627584
 2017-02-04 18:50:08.238145+01 | 1486230608.23815 | pgbench_branches |          1859584

 2017-02-04 18:50:09.318894+01 | 1486230609.31889 | pgbench_accounts |       1379270656
 2017-02-04 18:50:09.318894+01 | 1486230609.31889 | pgbench_tellers  |          4235264
 2017-02-04 18:50:09.318894+01 | 1486230609.31889 | pgbench_history  |        164208640
 2017-02-04 18:50:09.318894+01 | 1486230609.31889 | pgbench_branches |          1859584

 2017-02-04 18:50:10.38522+01 | 1486230610.38522 | pgbench_accounts |       1379270656
 2017-02-04 18:50:10.38522+01 | 1486230610.38522 | pgbench_tellers  |          4235264
 2017-02-04 18:50:10.38522+01 | 1486230610.38522 | pgbench_history  |        165953536
 2017-02-04 18:50:10.38522+01 | 1486230610.38522 | pgbench_branches |          1859584

 2017-02-04 18:50:11.463254+01 | 1486230611.46325 | pgbench_accounts |       1379270656
 2017-02-04 18:50:11.463254+01 | 1486230611.46325 | pgbench_tellers  |          4235264
 2017-02-04 18:50:11.463254+01 | 1486230611.46325 | pgbench_history  |        167829504
 2017-02-04 18:50:11.463254+01 | 1486230611.46325 | pgbench_branches |          1859584

 2017-02-04 18:50:12.551144+01 | 1486230612.55114 | pgbench_accounts |       1379270656
 2017-02-04 18:50:12.551144+01 | 1486230612.55114 | pgbench_tellers  |          4235264
 2017-02-04 18:50:12.551144+01 | 1486230612.55114 | pgbench_history  |        169713664
 2017-02-04 18:50:12.551144+01 | 1486230612.55114 | pgbench_branches |          1859584

 2017-02-04 18:50:13.635202+01 | 1486230613.6352 | pgbench_accounts |       1379270656
 2017-02-04 18:50:13.635202+01 | 1486230613.6352 | pgbench_tellers  |          4235264
 2017-02-04 18:50:13.635202+01 | 1486230613.6352 | pgbench_history  |        171835392
 2017-02-04 18:50:13.635202+01 | 1486230613.6352 | pgbench_branches |          1859584

 2017-02-04 18:50:14.713543+01 | 1486230614.71354 | pgbench_accounts |       1379270656
 2017-02-04 18:50:14.713543+01 | 1486230614.71354 | pgbench_tellers  |          4235264
 2017-02-04 18:50:14.713543+01 | 1486230614.71354 | pgbench_history  |        174227456
 2017-02-04 18:50:14.713543+01 | 1486230614.71354 | pgbench_branches |          1859584

 2017-02-04 18:50:15.792422+01 | 1486230615.79242 | pgbench_accounts |       1379270656
 2017-02-04 18:50:15.792422+01 | 1486230615.79242 | pgbench_tellers  |          4235264
 2017-02-04 18:50:15.792422+01 | 1486230615.79242 | pgbench_history  |        175800320
 2017-02-04 18:50:15.792422+01 | 1486230615.79242 | pgbench_branches |          1859584

 2017-02-04 18:50:16.868526+01 | 1486230616.86853 | pgbench_accounts |       1379270656
 2017-02-04 18:50:16.868526+01 | 1486230616.86853 | pgbench_tellers  |          4235264
 2017-02-04 18:50:16.868526+01 | 1486230616.86853 | pgbench_history  |        177553408
 2017-02-04 18:50:16.868526+01 | 1486230616.86853 | pgbench_branches |          1859584

 2017-02-04 18:50:17.946241+01 | 1486230617.94624 | pgbench_accounts |       1379270656
 2017-02-04 18:50:17.946241+01 | 1486230617.94624 | pgbench_tellers  |          4235264
 2017-02-04 18:50:17.946241+01 | 1486230617.94624 | pgbench_history  |        179978240
 2017-02-04 18:50:17.946241+01 | 1486230617.94624 | pgbench_branches |          1859584

 2017-02-04 18:50:19.026833+01 | 1486230619.02683 | pgbench_accounts |       1379270656
 2017-02-04 18:50:19.026833+01 | 1486230619.02683 | pgbench_tellers  |          4235264
 2017-02-04 18:50:19.026833+01 | 1486230619.02683 | pgbench_history  |        182558720
 2017-02-04 18:50:19.026833+01 | 1486230619.02683 | pgbench_branches |          1859584

 2017-02-04 18:50:20.099813+01 | 1486230620.09981 | pgbench_accounts |       1379270656
 2017-02-04 18:50:20.099813+01 | 1486230620.09981 | pgbench_tellers  |          4235264
 2017-02-04 18:50:20.099813+01 | 1486230620.09981 | pgbench_history  |        184410112
 2017-02-04 18:50:20.099813+01 | 1486230620.09981 | pgbench_branches |          1859584

 2017-02-04 18:50:21.174997+01 | 1486230621.175 | pgbench_accounts |       1379270656
 2017-02-04 18:50:21.174997+01 | 1486230621.175 | pgbench_tellers  |          4235264
 2017-02-04 18:50:21.174997+01 | 1486230621.175 | pgbench_history  |        185810944
 2017-02-04 18:50:21.174997+01 | 1486230621.175 | pgbench_branches |          1859584

 2017-02-04 18:50:22.248949+01 | 1486230622.24895 | pgbench_accounts |       1379270656
 2017-02-04 18:50:22.248949+01 | 1486230622.24895 | pgbench_tellers  |          4235264
 2017-02-04 18:50:22.248949+01 | 1486230622.24895 | pgbench_history  |        187736064
 2017-02-04 18:50:22.248949+01 | 1486230622.24895 | pgbench_branches |          1859584

 2017-02-04 18:50:23.32601+01 | 1486230623.32601 | pgbench_accounts |       1379270656
 2017-02-04 18:50:23.32601+01 | 1486230623.32601 | pgbench_tellers  |          4235264
 2017-02-04 18:50:23.32601+01 | 1486230623.32601 | pgbench_history  |        189939712
 2017-02-04 18:50:23.32601+01 | 1486230623.32601 | pgbench_branches |          1859584

 2017-02-04 18:50:24.39264+01 | 1486230624.39264 | pgbench_accounts |       1379270656
 2017-02-04 18:50:24.39264+01 | 1486230624.39264 | pgbench_tellers  |          4235264
 2017-02-04 18:50:24.39264+01 | 1486230624.39264 | pgbench_history  |        191676416
 2017-02-04 18:50:24.39264+01 | 1486230624.39264 | pgbench_branches |          1859584

 2017-02-04 18:50:25.476261+01 | 1486230625.47626 | pgbench_accounts |       1379270656
 2017-02-04 18:50:25.476261+01 | 1486230625.47626 | pgbench_tellers  |          4235264
 2017-02-04 18:50:25.476261+01 | 1486230625.47626 | pgbench_history  |        193609728
 2017-02-04 18:50:25.476261+01 | 1486230625.47626 | pgbench_branches |          1859584

 2017-02-04 18:50:26.560424+01 | 1486230626.56042 | pgbench_accounts |       1379270656
 2017-02-04 18:50:26.560424+01 | 1486230626.56042 | pgbench_tellers  |          4235264
 2017-02-04 18:50:26.560424+01 | 1486230626.56042 | pgbench_history  |        196829184
 2017-02-04 18:50:26.560424+01 | 1486230626.56042 | pgbench_branches |          1859584

 2017-02-04 18:50:27.634223+01 | 1486230627.63422 | pgbench_accounts |       1379270656
 2017-02-04 18:50:27.634223+01 | 1486230627.63422 | pgbench_tellers  |          4235264
 2017-02-04 18:50:27.634223+01 | 1486230627.63422 | pgbench_history  |        198205440
 2017-02-04 18:50:27.634223+01 | 1486230627.63422 | pgbench_branches |          2048000

 2017-02-04 18:50:28.706741+01 | 1486230628.70674 | pgbench_accounts |       1379270656
 2017-02-04 18:50:28.706741+01 | 1486230628.70674 | pgbench_tellers  |          4235264
 2017-02-04 18:50:28.706741+01 | 1486230628.70674 | pgbench_history  |        199729152
 2017-02-04 18:50:28.706741+01 | 1486230628.70674 | pgbench_branches |          2048000

 2017-02-04 18:50:29.780964+01 | 1486230629.78096 | pgbench_accounts |       1379270656
 2017-02-04 18:50:29.780964+01 | 1486230629.78096 | pgbench_tellers  |          4235264
 2017-02-04 18:50:29.780964+01 | 1486230629.78096 | pgbench_history  |        201654272
 2017-02-04 18:50:29.780964+01 | 1486230629.78096 | pgbench_branches |          2048000

 2017-02-04 18:50:30.855796+01 | 1486230630.8558 | pgbench_accounts |       1379270656
 2017-02-04 18:50:30.855796+01 | 1486230630.8558 | pgbench_tellers  |          4235264
 2017-02-04 18:50:30.855796+01 | 1486230630.8558 | pgbench_history  |        203882496
 2017-02-04 18:50:30.855796+01 | 1486230630.8558 | pgbench_branches |          2048000

 2017-02-04 18:50:31.935961+01 | 1486230631.93596 | pgbench_accounts |       1379270656
 2017-02-04 18:50:31.935961+01 | 1486230631.93596 | pgbench_tellers  |          4235264
 2017-02-04 18:50:31.935961+01 | 1486230631.93596 | pgbench_history  |        206135296
 2017-02-04 18:50:31.935961+01 | 1486230631.93596 | pgbench_branches |          2048000

 2017-02-04 18:50:33.008615+01 | 1486230633.00862 | pgbench_accounts |       1379270656
 2017-02-04 18:50:33.008615+01 | 1486230633.00862 | pgbench_tellers  |          4235264
 2017-02-04 18:50:33.008615+01 | 1486230633.00862 | pgbench_history  |        208125952
 2017-02-04 18:50:33.008615+01 | 1486230633.00862 | pgbench_branches |          2048000

 2017-02-04 18:50:34.095393+01 | 1486230634.09539 | pgbench_accounts |       1379270656
 2017-02-04 18:50:34.095393+01 | 1486230634.09539 | pgbench_tellers  |          4235264
 2017-02-04 18:50:34.095393+01 | 1486230634.09539 | pgbench_history  |        209715200
 2017-02-04 18:50:34.095393+01 | 1486230634.09539 | pgbench_branches |          2048000

 2017-02-04 18:50:35.172661+01 | 1486230635.17266 | pgbench_accounts |       1379270656
 2017-02-04 18:50:35.172661+01 | 1486230635.17266 | pgbench_tellers  |          4235264
 2017-02-04 18:50:35.172661+01 | 1486230635.17266 | pgbench_history  |        211656704
 2017-02-04 18:50:35.172661+01 | 1486230635.17266 | pgbench_branches |          2048000

 2017-02-04 18:50:36.254057+01 | 1486230636.25406 | pgbench_accounts |       1379270656
 2017-02-04 18:50:36.254057+01 | 1486230636.25406 | pgbench_tellers  |          4235264
 2017-02-04 18:50:36.254057+01 | 1486230636.25406 | pgbench_history  |        213925888
 2017-02-04 18:50:36.254057+01 | 1486230636.25406 | pgbench_branches |          2048000

 2017-02-04 18:50:37.326838+01 | 1486230637.32684 | pgbench_accounts |       1379270656
 2017-02-04 18:50:37.326838+01 | 1486230637.32684 | pgbench_tellers  |          4235264
 2017-02-04 18:50:37.326838+01 | 1486230637.32684 | pgbench_history  |        215998464
 2017-02-04 18:50:37.326838+01 | 1486230637.32684 | pgbench_branches |          2048000

 2017-02-04 18:50:38.406574+01 | 1486230638.40657 | pgbench_accounts |       1379270656
 2017-02-04 18:50:38.406574+01 | 1486230638.40657 | pgbench_tellers  |          4235264
 2017-02-04 18:50:38.406574+01 | 1486230638.40657 | pgbench_history  |        217554944
 2017-02-04 18:50:38.406574+01 | 1486230638.40657 | pgbench_branches |          2048000

 2017-02-04 18:50:39.486757+01 | 1486230639.48676 | pgbench_accounts |       1379270656
 2017-02-04 18:50:39.486757+01 | 1486230639.48676 | pgbench_tellers  |          4235264
 2017-02-04 18:50:39.486757+01 | 1486230639.48676 | pgbench_history  |        219430912
 2017-02-04 18:50:39.486757+01 | 1486230639.48676 | pgbench_branches |          2048000

 2017-02-04 18:50:40.565324+01 | 1486230640.56532 | pgbench_accounts |       1379270656
 2017-02-04 18:50:40.565324+01 | 1486230640.56532 | pgbench_tellers  |          4235264
 2017-02-04 18:50:40.565324+01 | 1486230640.56532 | pgbench_history  |        221724672
 2017-02-04 18:50:40.565324+01 | 1486230640.56532 | pgbench_branches |          2048000

 2017-02-04 18:50:41.647576+01 | 1486230641.64758 | pgbench_accounts |       1379270656
 2017-02-04 18:50:41.647576+01 | 1486230641.64758 | pgbench_tellers  |          4235264
 2017-02-04 18:50:41.647576+01 | 1486230641.64758 | pgbench_history  |        223133696
 2017-02-04 18:50:41.647576+01 | 1486230641.64758 | pgbench_branches |          2048000

 2017-02-04 18:50:42.736455+01 | 1486230642.73645 | pgbench_accounts |       1379270656
 2017-02-04 18:50:42.736455+01 | 1486230642.73645 | pgbench_tellers  |          4235264
 2017-02-04 18:50:42.736455+01 | 1486230642.73645 | pgbench_history  |        224747520
 2017-02-04 18:50:42.736455+01 | 1486230642.73645 | pgbench_branches |          2048000

 2017-02-04 18:50:43.814712+01 | 1486230643.81471 | pgbench_accounts |       1379270656
 2017-02-04 18:50:43.814712+01 | 1486230643.81471 | pgbench_tellers  |          4235264
 2017-02-04 18:50:43.814712+01 | 1486230643.81471 | pgbench_history  |        227631104
 2017-02-04 18:50:43.814712+01 | 1486230643.81471 | pgbench_branches |          2048000

 2017-02-04 18:50:44.897096+01 | 1486230644.8971 | pgbench_accounts |       1379270656
 2017-02-04 18:50:44.897096+01 | 1486230644.8971 | pgbench_tellers  |          4235264
 2017-02-04 18:50:44.897096+01 | 1486230644.8971 | pgbench_history  |        228663296
 2017-02-04 18:50:44.897096+01 | 1486230644.8971 | pgbench_branches |          2048000

 2017-02-04 18:50:45.967641+01 | 1486230645.96764 | pgbench_accounts |       1379270656
 2017-02-04 18:50:45.967641+01 | 1486230645.96764 | pgbench_tellers  |          4235264
 2017-02-04 18:50:45.967641+01 | 1486230645.96764 | pgbench_history  |        230768640
 2017-02-04 18:50:45.967641+01 | 1486230645.96764 | pgbench_branches |          2048000

 2017-02-04 18:50:47.044237+01 | 1486230647.04424 | pgbench_accounts |       1379270656
 2017-02-04 18:50:47.044237+01 | 1486230647.04424 | pgbench_tellers  |          4235264
 2017-02-04 18:50:47.044237+01 | 1486230647.04424 | pgbench_history  |        233111552
 2017-02-04 18:50:47.044237+01 | 1486230647.04424 | pgbench_branches |          2048000

 2017-02-04 18:50:48.12706+01 | 1486230648.12706 | pgbench_accounts |       1379270656
 2017-02-04 18:50:48.12706+01 | 1486230648.12706 | pgbench_tellers  |          4235264
 2017-02-04 18:50:48.12706+01 | 1486230648.12706 | pgbench_history  |        234668032
 2017-02-04 18:50:48.12706+01 | 1486230648.12706 | pgbench_branches |          2048000

 2017-02-04 18:50:49.207384+01 | 1486230649.20738 | pgbench_accounts |       1379270656
 2017-02-04 18:50:49.207384+01 | 1486230649.20738 | pgbench_tellers  |          4235264
 2017-02-04 18:50:49.207384+01 | 1486230649.20738 | pgbench_history  |        236871680
 2017-02-04 18:50:49.207384+01 | 1486230649.20738 | pgbench_branches |          2048000

 2017-02-04 18:50:50.286607+01 | 1486230650.28661 | pgbench_accounts |       1379270656
 2017-02-04 18:50:50.286607+01 | 1486230650.28661 | pgbench_tellers  |          4235264
 2017-02-04 18:50:50.286607+01 | 1486230650.28661 | pgbench_history  |        238444544
 2017-02-04 18:50:50.286607+01 | 1486230650.28661 | pgbench_branches |          2048000

 2017-02-04 18:50:51.371442+01 | 1486230651.37144 | pgbench_accounts |       1379270656
 2017-02-04 18:50:51.371442+01 | 1486230651.37144 | pgbench_tellers  |          4235264
 2017-02-04 18:50:51.371442+01 | 1486230651.37144 | pgbench_history  |        240214016
 2017-02-04 18:50:51.371442+01 | 1486230651.37144 | pgbench_branches |          2048000

 2017-02-04 18:50:52.445883+01 | 1486230652.44588 | pgbench_accounts |       1379270656
 2017-02-04 18:50:52.445883+01 | 1486230652.44588 | pgbench_tellers  |          4235264
 2017-02-04 18:50:52.445883+01 | 1486230652.44588 | pgbench_history  |        242327552
 2017-02-04 18:50:52.445883+01 | 1486230652.44588 | pgbench_branches |          2048000

 2017-02-04 18:50:53.525126+01 | 1486230653.52513 | pgbench_accounts |       1379270656
 2017-02-04 18:50:53.525126+01 | 1486230653.52513 | pgbench_tellers  |          4235264
 2017-02-04 18:50:53.525126+01 | 1486230653.52513 | pgbench_history  |        243924992
 2017-02-04 18:50:53.525126+01 | 1486230653.52513 | pgbench_branches |          2048000

 2017-02-04 18:50:54.608299+01 | 1486230654.6083 | pgbench_accounts |       1379270656
 2017-02-04 18:50:54.608299+01 | 1486230654.6083 | pgbench_tellers  |          4235264
 2017-02-04 18:50:54.608299+01 | 1486230654.6083 | pgbench_history  |        247357440
 2017-02-04 18:50:54.608299+01 | 1486230654.6083 | pgbench_branches |          2048000

 2017-02-04 18:50:55.683006+01 | 1486230655.68301 | pgbench_accounts |       1379270656
 2017-02-04 18:50:55.683006+01 | 1486230655.68301 | pgbench_tellers  |          4235264
 2017-02-04 18:50:55.683006+01 | 1486230655.68301 | pgbench_history  |        247898112
 2017-02-04 18:50:55.683006+01 | 1486230655.68301 | pgbench_branches |          2048000

 2017-02-04 18:50:56.765559+01 | 1486230656.76556 | pgbench_accounts |       1379270656
 2017-02-04 18:50:56.765559+01 | 1486230656.76556 | pgbench_tellers  |          4235264
 2017-02-04 18:50:56.765559+01 | 1486230656.76556 | pgbench_history  |        249798656
 2017-02-04 18:50:56.765559+01 | 1486230656.76556 | pgbench_branches |          2048000

 2017-02-04 18:50:57.847961+01 | 1486230657.84796 | pgbench_accounts |       1379270656
 2017-02-04 18:50:57.847961+01 | 1486230657.84796 | pgbench_tellers  |          4235264
 2017-02-04 18:50:57.847961+01 | 1486230657.84796 | pgbench_history  |        252428288
 2017-02-04 18:50:57.847961+01 | 1486230657.84796 | pgbench_branches |          2048000

 2017-02-04 18:50:58.922558+01 | 1486230658.92256 | pgbench_accounts |       1379270656
 2017-02-04 18:50:58.922558+01 | 1486230658.92256 | pgbench_tellers  |          4235264
 2017-02-04 18:50:58.922558+01 | 1486230658.92256 | pgbench_history  |        254001152
 2017-02-04 18:50:58.922558+01 | 1486230658.92256 | pgbench_branches |          2048000

 2017-02-04 18:51:00.012939+01 | 1486230660.01294 | pgbench_accounts |       1379270656
 2017-02-04 18:51:00.012939+01 | 1486230660.01294 | pgbench_tellers  |          4235264
 2017-02-04 18:51:00.012939+01 | 1486230660.01294 | pgbench_history  |        255778816
 2017-02-04 18:51:00.012939+01 | 1486230660.01294 | pgbench_branches |          2048000

 2017-02-04 18:51:01.090301+01 | 1486230661.0903 | pgbench_accounts |       1379270656
 2017-02-04 18:51:01.090301+01 | 1486230661.0903 | pgbench_tellers  |          4235264
 2017-02-04 18:51:01.090301+01 | 1486230661.0903 | pgbench_history  |        258203648
 2017-02-04 18:51:01.090301+01 | 1486230661.0903 | pgbench_branches |          2048000

 2017-02-04 18:51:02.174403+01 | 1486230662.1744 | pgbench_accounts |       1379270656
 2017-02-04 18:51:02.174403+01 | 1486230662.1744 | pgbench_tellers  |          4235264
 2017-02-04 18:51:02.174403+01 | 1486230662.1744 | pgbench_history  |        259645440
 2017-02-04 18:51:02.174403+01 | 1486230662.1744 | pgbench_branches |          2048000

 2017-02-04 18:51:03.254042+01 | 1486230663.25404 | pgbench_accounts |       1379270656
 2017-02-04 18:51:03.254042+01 | 1486230663.25404 | pgbench_tellers  |          4235264
 2017-02-04 18:51:03.254042+01 | 1486230663.25404 | pgbench_history  |        261619712
 2017-02-04 18:51:03.254042+01 | 1486230663.25404 | pgbench_branches |          2048000

 2017-02-04 18:51:04.331498+01 | 1486230664.3315 | pgbench_accounts |       1379270656
 2017-02-04 18:51:04.331498+01 | 1486230664.3315 | pgbench_tellers  |          4235264
 2017-02-04 18:51:04.331498+01 | 1486230664.3315 | pgbench_history  |        263372800
 2017-02-04 18:51:04.331498+01 | 1486230664.3315 | pgbench_branches |          2048000

 2017-02-04 18:51:05.40975+01 | 1486230665.40975 | pgbench_accounts |       1379270656
 2017-02-04 18:51:05.40975+01 | 1486230665.40975 | pgbench_tellers  |          4235264
 2017-02-04 18:51:05.40975+01 | 1486230665.40975 | pgbench_history  |        265494528
 2017-02-04 18:51:05.40975+01 | 1486230665.40975 | pgbench_branches |          2048000

 2017-02-04 18:51:06.488412+01 | 1486230666.48841 | pgbench_accounts |       1379270656
 2017-02-04 18:51:06.488412+01 | 1486230666.48841 | pgbench_tellers  |          4235264
 2017-02-04 18:51:06.488412+01 | 1486230666.48841 | pgbench_history  |        267739136
 2017-02-04 18:51:06.488412+01 | 1486230666.48841 | pgbench_branches |          2048000

 2017-02-04 18:51:07.565274+01 | 1486230667.56527 | pgbench_accounts |       1379270656
 2017-02-04 18:51:07.565274+01 | 1486230667.56527 | pgbench_tellers  |          4235264
 2017-02-04 18:51:07.565274+01 | 1486230667.56527 | pgbench_history  |        269287424
 2017-02-04 18:51:07.565274+01 | 1486230667.56527 | pgbench_branches |          2048000

 2017-02-04 18:51:08.638046+01 | 1486230668.63805 | pgbench_accounts |       1379270656
 2017-02-04 18:51:08.638046+01 | 1486230668.63805 | pgbench_tellers  |          4235264
 2017-02-04 18:51:08.638046+01 | 1486230668.63805 | pgbench_history  |        271515648
 2017-02-04 18:51:08.638046+01 | 1486230668.63805 | pgbench_branches |          2048000

 2017-02-04 18:51:09.719685+01 | 1486230669.71969 | pgbench_accounts |       1379270656
 2017-02-04 18:51:09.719685+01 | 1486230669.71969 | pgbench_tellers  |          4235264
 2017-02-04 18:51:09.719685+01 | 1486230669.71969 | pgbench_history  |        273580032
 2017-02-04 18:51:09.719685+01 | 1486230669.71969 | pgbench_branches |          2048000

 2017-02-04 18:51:10.798335+01 | 1486230670.79834 | pgbench_accounts |       1379270656
 2017-02-04 18:51:10.798335+01 | 1486230670.79834 | pgbench_tellers  |          4235264
 2017-02-04 18:51:10.798335+01 | 1486230670.79834 | pgbench_history  |        275177472
 2017-02-04 18:51:10.798335+01 | 1486230670.79834 | pgbench_branches |          2048000

 2017-02-04 18:51:11.875925+01 | 1486230671.87593 | pgbench_accounts |       1379270656
 2017-02-04 18:51:11.875925+01 | 1486230671.87593 | pgbench_tellers  |          4235264
 2017-02-04 18:51:11.875925+01 | 1486230671.87593 | pgbench_history  |        277708800
 2017-02-04 18:51:11.875925+01 | 1486230671.87593 | pgbench_branches |          2048000

 2017-02-04 18:51:12.959078+01 | 1486230672.95908 | pgbench_accounts |       1379270656
 2017-02-04 18:51:12.959078+01 | 1486230672.95908 | pgbench_tellers  |          4235264
 2017-02-04 18:51:12.959078+01 | 1486230672.95908 | pgbench_history  |        279257088
 2017-02-04 18:51:12.959078+01 | 1486230672.95908 | pgbench_branches |          2048000

 2017-02-04 18:51:14.041617+01 | 1486230674.04162 | pgbench_accounts |       1379270656
 2017-02-04 18:51:14.041617+01 | 1486230674.04162 | pgbench_tellers  |          4235264
 2017-02-04 18:51:14.041617+01 | 1486230674.04162 | pgbench_history  |        281116672
 2017-02-04 18:51:14.041617+01 | 1486230674.04162 | pgbench_branches |          2048000

 2017-02-04 18:51:15.122721+01 | 1486230675.12272 | pgbench_accounts |       1379270656
 2017-02-04 18:51:15.122721+01 | 1486230675.12272 | pgbench_tellers  |          4235264
 2017-02-04 18:51:15.122721+01 | 1486230675.12272 | pgbench_history  |        283787264
 2017-02-04 18:51:15.122721+01 | 1486230675.12272 | pgbench_branches |          2048000

 2017-02-04 18:51:16.197325+01 | 1486230676.19732 | pgbench_accounts |       1379270656
 2017-02-04 18:51:16.197325+01 | 1486230676.19732 | pgbench_tellers  |          4235264
 2017-02-04 18:51:16.197325+01 | 1486230676.19732 | pgbench_history  |        286023680
 2017-02-04 18:51:16.197325+01 | 1486230676.19732 | pgbench_branches |          2048000

 2017-02-04 18:51:17.285849+01 | 1486230677.28585 | pgbench_accounts |       1379270656
 2017-02-04 18:51:17.285849+01 | 1486230677.28585 | pgbench_tellers  |          4235264
 2017-02-04 18:51:17.285849+01 | 1486230677.28585 | pgbench_history  |        287031296
 2017-02-04 18:51:17.285849+01 | 1486230677.28585 | pgbench_branches |          2048000

 2017-02-04 18:51:18.364038+01 | 1486230678.36404 | pgbench_accounts |       1379270656
 2017-02-04 18:51:18.364038+01 | 1486230678.36404 | pgbench_tellers  |          4235264
 2017-02-04 18:51:18.364038+01 | 1486230678.36404 | pgbench_history  |        289431552
 2017-02-04 18:51:18.364038+01 | 1486230678.36404 | pgbench_branches |          2048000

 2017-02-04 18:51:19.446354+01 | 1486230679.44635 | pgbench_accounts |       1379270656
 2017-02-04 18:51:19.446354+01 | 1486230679.44635 | pgbench_tellers  |          4235264
 2017-02-04 18:51:19.446354+01 | 1486230679.44635 | pgbench_history  |        291782656
 2017-02-04 18:51:19.446354+01 | 1486230679.44635 | pgbench_branches |          2048000

 2017-02-04 18:51:20.52021+01 | 1486230680.52021 | pgbench_accounts |       1379270656
 2017-02-04 18:51:20.52021+01 | 1486230680.52021 | pgbench_tellers  |          4235264
 2017-02-04 18:51:20.52021+01 | 1486230680.52021 | pgbench_history  |        292978688
 2017-02-04 18:51:20.52021+01 | 1486230680.52021 | pgbench_branches |          2203648

 2017-02-04 18:51:21.600167+01 | 1486230681.60017 | pgbench_accounts |       1379270656
 2017-02-04 18:51:21.600167+01 | 1486230681.60017 | pgbench_tellers  |          4235264
 2017-02-04 18:51:21.600167+01 | 1486230681.60017 | pgbench_history  |        295370752
 2017-02-04 18:51:21.600167+01 | 1486230681.60017 | pgbench_branches |          2203648

 2017-02-04 18:51:22.677406+01 | 1486230682.67741 | pgbench_accounts |       1379270656
 2017-02-04 18:51:22.677406+01 | 1486230682.67741 | pgbench_tellers  |          4235264
 2017-02-04 18:51:22.677406+01 | 1486230682.67741 | pgbench_history  |        297418752
 2017-02-04 18:51:22.677406+01 | 1486230682.67741 | pgbench_branches |          2203648

 2017-02-04 18:51:23.754166+01 | 1486230683.75417 | pgbench_accounts |       1379270656
 2017-02-04 18:51:23.754166+01 | 1486230683.75417 | pgbench_tellers  |          4235264
 2017-02-04 18:51:23.754166+01 | 1486230683.75417 | pgbench_history  |        299319296
 2017-02-04 18:51:23.754166+01 | 1486230683.75417 | pgbench_branches |          2211840

 2017-02-04 18:51:24.837443+01 | 1486230684.83744 | pgbench_accounts |       1379270656
 2017-02-04 18:51:24.837443+01 | 1486230684.83744 | pgbench_tellers  |          4235264
 2017-02-04 18:51:24.837443+01 | 1486230684.83744 | pgbench_history  |        300761088
 2017-02-04 18:51:24.837443+01 | 1486230684.83744 | pgbench_branches |          2211840

 2017-02-04 18:51:25.914022+01 | 1486230685.91402 | pgbench_accounts |       1379270656
 2017-02-04 18:51:25.914022+01 | 1486230685.91402 | pgbench_tellers  |          4235264
 2017-02-04 18:51:25.914022+01 | 1486230685.91402 | pgbench_history  |        302825472
 2017-02-04 18:51:25.914022+01 | 1486230685.91402 | pgbench_branches |          2211840

 2017-02-04 18:51:26.995674+01 | 1486230686.99567 | pgbench_accounts |       1379270656
 2017-02-04 18:51:26.995674+01 | 1486230686.99567 | pgbench_tellers  |          4235264
 2017-02-04 18:51:26.995674+01 | 1486230686.99567 | pgbench_history  |        304914432
 2017-02-04 18:51:26.995674+01 | 1486230686.99567 | pgbench_branches |          2211840

 2017-02-04 18:51:28.074396+01 | 1486230688.0744 | pgbench_accounts |       1379270656
 2017-02-04 18:51:28.074396+01 | 1486230688.0744 | pgbench_tellers  |          4235264
 2017-02-04 18:51:28.074396+01 | 1486230688.0744 | pgbench_history  |        307314688
 2017-02-04 18:51:28.074396+01 | 1486230688.0744 | pgbench_branches |          2211840

 2017-02-04 18:51:29.158588+01 | 1486230689.15859 | pgbench_accounts |       1379270656
 2017-02-04 18:51:29.158588+01 | 1486230689.15859 | pgbench_tellers  |          4235264
 2017-02-04 18:51:29.158588+01 | 1486230689.15859 | pgbench_history  |        309796864
 2017-02-04 18:51:29.158588+01 | 1486230689.15859 | pgbench_branches |          2211840

 2017-02-04 18:51:30.232286+01 | 1486230690.23229 | pgbench_accounts |       1379270656
 2017-02-04 18:51:30.232286+01 | 1486230690.23229 | pgbench_tellers  |          4235264
 2017-02-04 18:51:30.232286+01 | 1486230690.23229 | pgbench_history  |        311648256
 2017-02-04 18:51:30.232286+01 | 1486230690.23229 | pgbench_branches |          2211840

 2017-02-04 18:51:31.310581+01 | 1486230691.31058 | pgbench_accounts |       1379270656
 2017-02-04 18:51:31.310581+01 | 1486230691.31058 | pgbench_tellers  |          4235264
 2017-02-04 18:51:31.310581+01 | 1486230691.31058 | pgbench_history  |        313180160
 2017-02-04 18:51:31.310581+01 | 1486230691.31058 | pgbench_branches |          2211840

 2017-02-04 18:51:32.388899+01 | 1486230692.3889 | pgbench_accounts |       1379270656
 2017-02-04 18:51:32.388899+01 | 1486230692.3889 | pgbench_tellers  |          4235264
 2017-02-04 18:51:32.388899+01 | 1486230692.3889 | pgbench_history  |        314564608
 2017-02-04 18:51:32.388899+01 | 1486230692.3889 | pgbench_branches |          2211840

 2017-02-04 18:51:33.468974+01 | 1486230693.46897 | pgbench_accounts |       1379270656
 2017-02-04 18:51:33.468974+01 | 1486230693.46897 | pgbench_tellers  |          4235264
 2017-02-04 18:51:33.468974+01 | 1486230693.46897 | pgbench_history  |        317104128
 2017-02-04 18:51:33.468974+01 | 1486230693.46897 | pgbench_branches |          2211840

 2017-02-04 18:51:34.544059+01 | 1486230694.54406 | pgbench_accounts |       1379270656
 2017-02-04 18:51:34.544059+01 | 1486230694.54406 | pgbench_tellers  |          4235264
 2017-02-04 18:51:34.544059+01 | 1486230694.54406 | pgbench_history  |        318816256
 2017-02-04 18:51:34.544059+01 | 1486230694.54406 | pgbench_branches |          2211840

 2017-02-04 18:51:35.621168+01 | 1486230695.62117 | pgbench_accounts |       1379270656
 2017-02-04 18:51:35.621168+01 | 1486230695.62117 | pgbench_tellers  |          4235264
 2017-02-04 18:51:35.621168+01 | 1486230695.62117 | pgbench_history  |        320512000
 2017-02-04 18:51:35.621168+01 | 1486230695.62117 | pgbench_branches |          2211840

 2017-02-04 18:51:36.697243+01 | 1486230696.69724 | pgbench_accounts |       1379270656
 2017-02-04 18:51:36.697243+01 | 1486230696.69724 | pgbench_tellers  |          4235264
 2017-02-04 18:51:36.697243+01 | 1486230696.69724 | pgbench_history  |        322273280
 2017-02-04 18:51:36.697243+01 | 1486230696.69724 | pgbench_branches |          2211840

 2017-02-04 18:51:37.778466+01 | 1486230697.77847 | pgbench_accounts |       1379270656
 2017-02-04 18:51:37.778466+01 | 1486230697.77847 | pgbench_tellers  |          4235264
 2017-02-04 18:51:37.778466+01 | 1486230697.77847 | pgbench_history  |        324313088
 2017-02-04 18:51:37.778466+01 | 1486230697.77847 | pgbench_branches |          2211840

 2017-02-04 18:51:38.85913+01 | 1486230698.85913 | pgbench_accounts |       1379270656
 2017-02-04 18:51:38.85913+01 | 1486230698.85913 | pgbench_tellers  |          4235264
 2017-02-04 18:51:38.85913+01 | 1486230698.85913 | pgbench_history  |        326541312
 2017-02-04 18:51:38.85913+01 | 1486230698.85913 | pgbench_branches |          2211840

 2017-02-04 18:51:39.93903+01 | 1486230699.93903 | pgbench_accounts |       1379270656
 2017-02-04 18:51:39.93903+01 | 1486230699.93903 | pgbench_tellers  |          4235264
 2017-02-04 18:51:39.93903+01 | 1486230699.93903 | pgbench_history  |        328327168
 2017-02-04 18:51:39.93903+01 | 1486230699.93903 | pgbench_branches |          2211840

 2017-02-04 18:51:41.021816+01 | 1486230701.02182 | pgbench_accounts |       1379270656
 2017-02-04 18:51:41.021816+01 | 1486230701.02182 | pgbench_tellers  |          4235264
 2017-02-04 18:51:41.021816+01 | 1486230701.02182 | pgbench_history  |        330670080
 2017-02-04 18:51:41.021816+01 | 1486230701.02182 | pgbench_branches |          2211840

 2017-02-04 18:51:42.098972+01 | 1486230702.09897 | pgbench_accounts |       1379270656
 2017-02-04 18:51:42.098972+01 | 1486230702.09897 | pgbench_tellers  |          4235264
 2017-02-04 18:51:42.098972+01 | 1486230702.09897 | pgbench_history  |        332898304
 2017-02-04 18:51:42.098972+01 | 1486230702.09897 | pgbench_branches |          2211840

 2017-02-04 18:51:43.175857+01 | 1486230703.17586 | pgbench_accounts |       1379270656
 2017-02-04 18:51:43.175857+01 | 1486230703.17586 | pgbench_tellers  |          4235264
 2017-02-04 18:51:43.175857+01 | 1486230703.17586 | pgbench_history  |        334102528
 2017-02-04 18:51:43.175857+01 | 1486230703.17586 | pgbench_branches |          2211840

 2017-02-04 18:51:44.257955+01 | 1486230704.25796 | pgbench_accounts |       1379270656
 2017-02-04 18:51:44.257955+01 | 1486230704.25796 | pgbench_tellers  |          4235264
 2017-02-04 18:51:44.257955+01 | 1486230704.25796 | pgbench_history  |        337018880
 2017-02-04 18:51:44.257955+01 | 1486230704.25796 | pgbench_branches |          2211840

 2017-02-04 18:51:45.336125+01 | 1486230705.33612 | pgbench_accounts |       1379270656
 2017-02-04 18:51:45.336125+01 | 1486230705.33612 | pgbench_tellers  |          4235264
 2017-02-04 18:51:45.336125+01 | 1486230705.33612 | pgbench_history  |        338591744
 2017-02-04 18:51:45.336125+01 | 1486230705.33612 | pgbench_branches |          2211840

 2017-02-04 18:51:46.413118+01 | 1486230706.41312 | pgbench_accounts |       1379270656
 2017-02-04 18:51:46.413118+01 | 1486230706.41312 | pgbench_tellers  |          4235264
 2017-02-04 18:51:46.413118+01 | 1486230706.41312 | pgbench_history  |        341237760
 2017-02-04 18:51:46.413118+01 | 1486230706.41312 | pgbench_branches |          2211840

 2017-02-04 18:51:47.493579+01 | 1486230707.49358 | pgbench_accounts |       1379270656
 2017-02-04 18:51:47.493579+01 | 1486230707.49358 | pgbench_tellers  |          4235264
 2017-02-04 18:51:47.493579+01 | 1486230707.49358 | pgbench_history  |        342433792
 2017-02-04 18:51:47.493579+01 | 1486230707.49358 | pgbench_branches |          2211840

 2017-02-04 18:51:48.581281+01 | 1486230708.58128 | pgbench_accounts |       1379270656
 2017-02-04 18:51:48.581281+01 | 1486230708.58128 | pgbench_tellers  |          4235264
 2017-02-04 18:51:48.581281+01 | 1486230708.58128 | pgbench_history  |        344350720
 2017-02-04 18:51:48.581281+01 | 1486230708.58128 | pgbench_branches |          2211840

 2017-02-04 18:51:49.656447+01 | 1486230709.65645 | pgbench_accounts |       1379270656
 2017-02-04 18:51:49.656447+01 | 1486230709.65645 | pgbench_tellers  |          4235264
 2017-02-04 18:51:49.656447+01 | 1486230709.65645 | pgbench_history  |        346062848
 2017-02-04 18:51:49.656447+01 | 1486230709.65645 | pgbench_branches |          2211840

 2017-02-04 18:51:50.72918+01 | 1486230710.72918 | pgbench_accounts |       1379270656
 2017-02-04 18:51:50.72918+01 | 1486230710.72918 | pgbench_tellers  |          4235264
 2017-02-04 18:51:50.72918+01 | 1486230710.72918 | pgbench_history  |        348135424
 2017-02-04 18:51:50.72918+01 | 1486230710.72918 | pgbench_branches |          2211840

 2017-02-04 18:51:51.80581+01 | 1486230711.80581 | pgbench_accounts |       1379270656
 2017-02-04 18:51:51.80581+01 | 1486230711.80581 | pgbench_tellers  |          4235264
 2017-02-04 18:51:51.80581+01 | 1486230711.80581 | pgbench_history  |        350199808
 2017-02-04 18:51:51.80581+01 | 1486230711.80581 | pgbench_branches |          2211840

 2017-02-04 18:51:52.882567+01 | 1486230712.88257 | pgbench_accounts |       1379270656
 2017-02-04 18:51:52.882567+01 | 1486230712.88257 | pgbench_tellers  |          4235264
 2017-02-04 18:51:52.882567+01 | 1486230712.88257 | pgbench_history  |        353615872
 2017-02-04 18:51:52.882567+01 | 1486230712.88257 | pgbench_branches |          2211840

 2017-02-04 18:51:53.968143+01 | 1486230713.96814 | pgbench_accounts |       1379270656
 2017-02-04 18:51:53.968143+01 | 1486230713.96814 | pgbench_tellers  |          4235264
 2017-02-04 18:51:53.968143+01 | 1486230713.96814 | pgbench_history  |        354295808
 2017-02-04 18:51:53.968143+01 | 1486230713.96814 | pgbench_branches |          2211840

 2017-02-04 18:51:55.04242+01 | 1486230715.04242 | pgbench_accounts |       1379270656
 2017-02-04 18:51:55.04242+01 | 1486230715.04242 | pgbench_tellers  |          4235264
 2017-02-04 18:51:55.04242+01 | 1486230715.04242 | pgbench_history  |        355844096
 2017-02-04 18:51:55.04242+01 | 1486230715.04242 | pgbench_branches |          2211840

 2017-02-04 18:51:56.11948+01 | 1486230716.11948 | pgbench_accounts |       1379270656
 2017-02-04 18:51:56.11948+01 | 1486230716.11948 | pgbench_tellers  |          4235264
 2017-02-04 18:51:56.11948+01 | 1486230716.11948 | pgbench_history  |        358424576
 2017-02-04 18:51:56.11948+01 | 1486230716.11948 | pgbench_branches |          2211840

 2017-02-04 18:51:57.194037+01 | 1486230717.19404 | pgbench_accounts |       1379270656
 2017-02-04 18:51:57.194037+01 | 1486230717.19404 | pgbench_tellers  |          4235264
 2017-02-04 18:51:57.194037+01 | 1486230717.19404 | pgbench_history  |        360169472
 2017-02-04 18:51:57.194037+01 | 1486230717.19404 | pgbench_branches |          2211840

 2017-02-04 18:51:58.268298+01 | 1486230718.2683 | pgbench_accounts |       1379270656
 2017-02-04 18:51:58.268298+01 | 1486230718.2683 | pgbench_tellers  |          4235264
 2017-02-04 18:51:58.268298+01 | 1486230718.2683 | pgbench_history  |        362201088
 2017-02-04 18:51:58.268298+01 | 1486230718.2683 | pgbench_branches |          2211840

 2017-02-04 18:51:59.36059+01 | 1486230719.36059 | pgbench_accounts |       1379270656
 2017-02-04 18:51:59.36059+01 | 1486230719.36059 | pgbench_tellers  |          4235264
 2017-02-04 18:51:59.36059+01 | 1486230719.36059 | pgbench_history  |        364052480
 2017-02-04 18:51:59.36059+01 | 1486230719.36059 | pgbench_branches |          2211840

 2017-02-04 18:52:00.441366+01 | 1486230720.44137 | pgbench_accounts |       1379270656
 2017-02-04 18:52:00.441366+01 | 1486230720.44137 | pgbench_tellers  |          4235264
 2017-02-04 18:52:00.441366+01 | 1486230720.44137 | pgbench_history  |        366116864
 2017-02-04 18:52:00.441366+01 | 1486230720.44137 | pgbench_branches |          2211840

 2017-02-04 18:52:01.517233+01 | 1486230721.51723 | pgbench_accounts |       1379270656
 2017-02-04 18:52:01.517233+01 | 1486230721.51723 | pgbench_tellers  |          4235264
 2017-02-04 18:52:01.517233+01 | 1486230721.51723 | pgbench_history  |        367828992
 2017-02-04 18:52:01.517233+01 | 1486230721.51723 | pgbench_branches |          2211840

 2017-02-04 18:52:02.590772+01 | 1486230722.59077 | pgbench_accounts |       1379270656
 2017-02-04 18:52:02.590772+01 | 1486230722.59077 | pgbench_tellers  |          4235264
 2017-02-04 18:52:02.590772+01 | 1486230722.59077 | pgbench_history  |        369704960
 2017-02-04 18:52:02.590772+01 | 1486230722.59077 | pgbench_branches |          2211840

 2017-02-04 18:52:03.672384+01 | 1486230723.67238 | pgbench_accounts |       1379270656
 2017-02-04 18:52:03.672384+01 | 1486230723.67238 | pgbench_tellers  |          4235264
 2017-02-04 18:52:03.672384+01 | 1486230723.67238 | pgbench_history  |        371793920
 2017-02-04 18:52:03.672384+01 | 1486230723.67238 | pgbench_branches |          2211840

 2017-02-04 18:52:04.755589+01 | 1486230724.75559 | pgbench_accounts |       1379270656
 2017-02-04 18:52:04.755589+01 | 1486230724.75559 | pgbench_tellers  |          4235264
 2017-02-04 18:52:04.755589+01 | 1486230724.75559 | pgbench_history  |        373538816
 2017-02-04 18:52:04.755589+01 | 1486230724.75559 | pgbench_branches |          2211840

 2017-02-04 18:52:05.839815+01 | 1486230725.83981 | pgbench_accounts |       1379270656
 2017-02-04 18:52:05.839815+01 | 1486230725.83981 | pgbench_tellers  |          4235264
 2017-02-04 18:52:05.839815+01 | 1486230725.83981 | pgbench_history  |        376242176
 2017-02-04 18:52:05.839815+01 | 1486230725.83981 | pgbench_branches |          2211840

 2017-02-04 18:52:06.918997+01 | 1486230726.919 | pgbench_accounts |       1379270656
 2017-02-04 18:52:06.918997+01 | 1486230726.919 | pgbench_tellers  |          4235264
 2017-02-04 18:52:06.918997+01 | 1486230726.919 | pgbench_history  |        377438208
 2017-02-04 18:52:06.918997+01 | 1486230726.919 | pgbench_branches |          2211840

 2017-02-04 18:52:08.005671+01 | 1486230728.00567 | pgbench_accounts |       1379270656
 2017-02-04 18:52:08.005671+01 | 1486230728.00567 | pgbench_tellers  |          4235264
 2017-02-04 18:52:08.005671+01 | 1486230728.00567 | pgbench_history  |        379813888
 2017-02-04 18:52:08.005671+01 | 1486230728.00567 | pgbench_branches |          2211840

 2017-02-04 18:52:09.081279+01 | 1486230729.08128 | pgbench_accounts |       1379270656
 2017-02-04 18:52:09.081279+01 | 1486230729.08128 | pgbench_tellers  |          4235264
 2017-02-04 18:52:09.081279+01 | 1486230729.08128 | pgbench_history  |        381829120
 2017-02-04 18:52:09.081279+01 | 1486230729.08128 | pgbench_branches |          2211840

 2017-02-04 18:52:10.158416+01 | 1486230730.15842 | pgbench_accounts |       1379270656
 2017-02-04 18:52:10.158416+01 | 1486230730.15842 | pgbench_tellers  |          4235264
 2017-02-04 18:52:10.158416+01 | 1486230730.15842 | pgbench_history  |        384524288
 2017-02-04 18:52:10.158416+01 | 1486230730.15842 | pgbench_branches |          2211840

 2017-02-04 18:52:11.232811+01 | 1486230731.23281 | pgbench_accounts |       1379270656
 2017-02-04 18:52:11.232811+01 | 1486230731.23281 | pgbench_tellers  |          4235264
 2017-02-04 18:52:11.232811+01 | 1486230731.23281 | pgbench_history  |        385736704
 2017-02-04 18:52:11.232811+01 | 1486230731.23281 | pgbench_branches |          2211840

 2017-02-04 18:52:12.313749+01 | 1486230732.31375 | pgbench_accounts |       1379270656
 2017-02-04 18:52:12.313749+01 | 1486230732.31375 | pgbench_tellers  |          4235264
 2017-02-04 18:52:12.313749+01 | 1486230732.31375 | pgbench_history  |        388128768
 2017-02-04 18:52:12.313749+01 | 1486230732.31375 | pgbench_branches |          2211840

 2017-02-04 18:52:13.389039+01 | 1486230733.38904 | pgbench_accounts |       1379270656
 2017-02-04 18:52:13.389039+01 | 1486230733.38904 | pgbench_tellers  |          4235264
 2017-02-04 18:52:13.389039+01 | 1486230733.38904 | pgbench_history  |        389685248
 2017-02-04 18:52:13.389039+01 | 1486230733.38904 | pgbench_branches |          2211840

 2017-02-04 18:52:14.468717+01 | 1486230734.46872 | pgbench_accounts |       1379270656
 2017-02-04 18:52:14.468717+01 | 1486230734.46872 | pgbench_tellers  |          4235264
 2017-02-04 18:52:14.468717+01 | 1486230734.46872 | pgbench_history  |        391913472
 2017-02-04 18:52:14.468717+01 | 1486230734.46872 | pgbench_branches |          2211840

 2017-02-04 18:52:15.555539+01 | 1486230735.55554 | pgbench_accounts |       1379270656
 2017-02-04 18:52:15.555539+01 | 1486230735.55554 | pgbench_tellers  |          4235264
 2017-02-04 18:52:15.555539+01 | 1486230735.55554 | pgbench_history  |        393854976
 2017-02-04 18:52:15.555539+01 | 1486230735.55554 | pgbench_branches |          2211840

 2017-02-04 18:52:16.638935+01 | 1486230736.63894 | pgbench_accounts |       1379270656
 2017-02-04 18:52:16.638935+01 | 1486230736.63894 | pgbench_tellers  |          4235264
 2017-02-04 18:52:16.638935+01 | 1486230736.63894 | pgbench_history  |        396009472
 2017-02-04 18:52:16.638935+01 | 1486230736.63894 | pgbench_branches |          2211840

 2017-02-04 18:52:17.717506+01 | 1486230737.71751 | pgbench_accounts |       1379270656
 2017-02-04 18:52:17.717506+01 | 1486230737.71751 | pgbench_tellers  |          4235264
 2017-02-04 18:52:17.717506+01 | 1486230737.71751 | pgbench_history  |        397344768
 2017-02-04 18:52:17.717506+01 | 1486230737.71751 | pgbench_branches |          2211840

 2017-02-04 18:52:18.805013+01 | 1486230738.80501 | pgbench_accounts |       1379270656
 2017-02-04 18:52:18.805013+01 | 1486230738.80501 | pgbench_tellers  |          4235264
 2017-02-04 18:52:18.805013+01 | 1486230738.80501 | pgbench_history  |        399056896
 2017-02-04 18:52:18.805013+01 | 1486230738.80501 | pgbench_branches |          2211840

 2017-02-04 18:52:19.882426+01 | 1486230739.88243 | pgbench_accounts |       1379270656
 2017-02-04 18:52:19.882426+01 | 1486230739.88243 | pgbench_tellers  |          4235264
 2017-02-04 18:52:19.882426+01 | 1486230739.88243 | pgbench_history  |        401457152
 2017-02-04 18:52:19.882426+01 | 1486230739.88243 | pgbench_branches |          2211840

 2017-02-04 18:52:20.957023+01 | 1486230740.95702 | pgbench_accounts |       1379270656
 2017-02-04 18:52:20.957023+01 | 1486230740.95702 | pgbench_tellers  |          4235264
 2017-02-04 18:52:20.957023+01 | 1486230740.95702 | pgbench_history  |        403152896
 2017-02-04 18:52:20.957023+01 | 1486230740.95702 | pgbench_branches |          2211840

 2017-02-04 18:52:22.039699+01 | 1486230742.0397 | pgbench_accounts |       1379270656
 2017-02-04 18:52:22.039699+01 | 1486230742.0397 | pgbench_tellers  |          4235264
 2017-02-04 18:52:22.039699+01 | 1486230742.0397 | pgbench_history  |        405028864
 2017-02-04 18:52:22.039699+01 | 1486230742.0397 | pgbench_branches |          2211840

 2017-02-04 18:52:23.119237+01 | 1486230743.11924 | pgbench_accounts |       1379270656
 2017-02-04 18:52:23.119237+01 | 1486230743.11924 | pgbench_tellers  |          4235264
 2017-02-04 18:52:23.119237+01 | 1486230743.11924 | pgbench_history  |        406904832
 2017-02-04 18:52:23.119237+01 | 1486230743.11924 | pgbench_branches |          2211840

 2017-02-04 18:52:24.197631+01 | 1486230744.19763 | pgbench_accounts |       1379270656
 2017-02-04 18:52:24.197631+01 | 1486230744.19763 | pgbench_tellers  |          4235264
 2017-02-04 18:52:24.197631+01 | 1486230744.19763 | pgbench_history  |        409321472
 2017-02-04 18:52:24.197631+01 | 1486230744.19763 | pgbench_branches |          2211840

 2017-02-04 18:52:25.278037+01 | 1486230745.27804 | pgbench_accounts |       1379270656
 2017-02-04 18:52:25.278037+01 | 1486230745.27804 | pgbench_tellers  |          4235264
 2017-02-04 18:52:25.278037+01 | 1486230745.27804 | pgbench_history  |        413163520
 2017-02-04 18:52:25.278037+01 | 1486230745.27804 | pgbench_branches |          2211840

 2017-02-04 18:52:26.35513+01 | 1486230746.35513 | pgbench_accounts |       1379270656
 2017-02-04 18:52:26.35513+01 | 1486230746.35513 | pgbench_tellers  |          4235264
 2017-02-04 18:52:26.35513+01 | 1486230746.35513 | pgbench_history  |        413163520
 2017-02-04 18:52:26.35513+01 | 1486230746.35513 | pgbench_branches |          2211840

 2017-02-04 18:52:27.431119+01 | 1486230747.43112 | pgbench_accounts |       1379270656
 2017-02-04 18:52:27.431119+01 | 1486230747.43112 | pgbench_tellers  |          4235264
 2017-02-04 18:52:27.431119+01 | 1486230747.43112 | pgbench_history  |        415858688
 2017-02-04 18:52:27.431119+01 | 1486230747.43112 | pgbench_branches |          2211840

 2017-02-04 18:52:28.504758+01 | 1486230748.50476 | pgbench_accounts |       1379270656
 2017-02-04 18:52:28.504758+01 | 1486230748.50476 | pgbench_tellers  |          4235264
 2017-02-04 18:52:28.504758+01 | 1486230748.50476 | pgbench_history  |        417030144
 2017-02-04 18:52:28.504758+01 | 1486230748.50476 | pgbench_branches |          2211840

 2017-02-04 18:52:29.580229+01 | 1486230749.58023 | pgbench_accounts |       1379270656
 2017-02-04 18:52:29.580229+01 | 1486230749.58023 | pgbench_tellers  |          4235264
 2017-02-04 18:52:29.580229+01 | 1486230749.58023 | pgbench_history  |        419897344
 2017-02-04 18:52:29.580229+01 | 1486230749.58023 | pgbench_branches |          2211840

 2017-02-04 18:52:30.657828+01 | 1486230750.65783 | pgbench_accounts |       1379270656
 2017-02-04 18:52:30.657828+01 | 1486230750.65783 | pgbench_tellers  |          4235264
 2017-02-04 18:52:30.657828+01 | 1486230750.65783 | pgbench_history  |        421232640
 2017-02-04 18:52:30.657828+01 | 1486230750.65783 | pgbench_branches |          2211840

 2017-02-04 18:52:31.736429+01 | 1486230751.73643 | pgbench_accounts |       1379270656
 2017-02-04 18:52:31.736429+01 | 1486230751.73643 | pgbench_tellers  |          4235264
 2017-02-04 18:52:31.736429+01 | 1486230751.73643 | pgbench_history  |        423272448
 2017-02-04 18:52:31.736429+01 | 1486230751.73643 | pgbench_branches |          2211840

 2017-02-04 18:52:32.810868+01 | 1486230752.81087 | pgbench_accounts |       1379270656
 2017-02-04 18:52:32.810868+01 | 1486230752.81087 | pgbench_tellers  |          4235264
 2017-02-04 18:52:32.810868+01 | 1486230752.81087 | pgbench_history  |        425992192
 2017-02-04 18:52:32.810868+01 | 1486230752.81087 | pgbench_branches |          2211840

 2017-02-04 18:52:33.886363+01 | 1486230753.88636 | pgbench_accounts |       1379270656
 2017-02-04 18:52:33.886363+01 | 1486230753.88636 | pgbench_tellers  |          4235264
 2017-02-04 18:52:33.886363+01 | 1486230753.88636 | pgbench_history  |        430899200
 2017-02-04 18:52:33.886363+01 | 1486230753.88636 | pgbench_branches |          2211840

 2017-02-04 18:52:34.970081+01 | 1486230754.97008 | pgbench_accounts |       1379270656
 2017-02-04 18:52:34.970081+01 | 1486230754.97008 | pgbench_tellers  |          4235264
 2017-02-04 18:52:34.970081+01 | 1486230754.97008 | pgbench_history  |        430899200
 2017-02-04 18:52:34.970081+01 | 1486230754.97008 | pgbench_branches |          2211840

 2017-02-04 18:52:36.048983+01 | 1486230756.04898 | pgbench_accounts |       1379270656
 2017-02-04 18:52:36.048983+01 | 1486230756.04898 | pgbench_tellers  |          4235264
 2017-02-04 18:52:36.048983+01 | 1486230756.04898 | pgbench_history  |        432095232
 2017-02-04 18:52:36.048983+01 | 1486230756.04898 | pgbench_branches |          2211840

 2017-02-04 18:52:37.124563+01 | 1486230757.12456 | pgbench_accounts |       1379270656
 2017-02-04 18:52:37.124563+01 | 1486230757.12456 | pgbench_tellers  |          4235264
 2017-02-04 18:52:37.124563+01 | 1486230757.12456 | pgbench_history  |        433782784
 2017-02-04 18:52:37.124563+01 | 1486230757.12456 | pgbench_branches |          2211840

 2017-02-04 18:52:38.205962+01 | 1486230758.20596 | pgbench_accounts |       1379270656
 2017-02-04 18:52:38.205962+01 | 1486230758.20596 | pgbench_tellers  |          4235264
 2017-02-04 18:52:38.205962+01 | 1486230758.20596 | pgbench_history  |        435634176
 2017-02-04 18:52:38.205962+01 | 1486230758.20596 | pgbench_branches |          2211840

 2017-02-04 18:52:39.280791+01 | 1486230759.28079 | pgbench_accounts |       1379270656
 2017-02-04 18:52:39.280791+01 | 1486230759.28079 | pgbench_tellers  |          4235264
 2017-02-04 18:52:39.280791+01 | 1486230759.28079 | pgbench_history  |        437510144
 2017-02-04 18:52:39.280791+01 | 1486230759.28079 | pgbench_branches |          2211840

 2017-02-04 18:52:40.363452+01 | 1486230760.36345 | pgbench_accounts |       1379270656
 2017-02-04 18:52:40.363452+01 | 1486230760.36345 | pgbench_tellers  |          4235264
 2017-02-04 18:52:40.363452+01 | 1486230760.36345 | pgbench_history  |        439558144
 2017-02-04 18:52:40.363452+01 | 1486230760.36345 | pgbench_branches |          2211840

 2017-02-04 18:52:41.437477+01 | 1486230761.43748 | pgbench_accounts |       1379270656
 2017-02-04 18:52:41.437477+01 | 1486230761.43748 | pgbench_tellers  |          4235264
 2017-02-04 18:52:41.437477+01 | 1486230761.43748 | pgbench_history  |        441573376
 2017-02-04 18:52:41.437477+01 | 1486230761.43748 | pgbench_branches |          2211840

 2017-02-04 18:52:42.513878+01 | 1486230762.51388 | pgbench_accounts |       1379270656
 2017-02-04 18:52:42.513878+01 | 1486230762.51388 | pgbench_tellers  |          4235264
 2017-02-04 18:52:42.513878+01 | 1486230762.51388 | pgbench_history  |        443809792
 2017-02-04 18:52:42.513878+01 | 1486230762.51388 | pgbench_branches |          2211840

 2017-02-04 18:52:43.592885+01 | 1486230763.59289 | pgbench_accounts |       1379270656
 2017-02-04 18:52:43.592885+01 | 1486230763.59289 | pgbench_tellers  |          4235264
 2017-02-04 18:52:43.592885+01 | 1486230763.59289 | pgbench_history  |        446013440
 2017-02-04 18:52:43.592885+01 | 1486230763.59289 | pgbench_branches |          2211840

 2017-02-04 18:52:44.667513+01 | 1486230764.66751 | pgbench_accounts |       1379270656
 2017-02-04 18:52:44.667513+01 | 1486230764.66751 | pgbench_tellers  |          4235264
 2017-02-04 18:52:44.667513+01 | 1486230764.66751 | pgbench_history  |        447725568
 2017-02-04 18:52:44.667513+01 | 1486230764.66751 | pgbench_branches |          2211840

 2017-02-04 18:52:45.743971+01 | 1486230765.74397 | pgbench_accounts |       1379270656
 2017-02-04 18:52:45.743971+01 | 1486230765.74397 | pgbench_tellers  |          4235264
 2017-02-04 18:52:45.743971+01 | 1486230765.74397 | pgbench_history  |        449970176
 2017-02-04 18:52:45.743971+01 | 1486230765.74397 | pgbench_branches |          2211840

 2017-02-04 18:52:46.824341+01 | 1486230766.82434 | pgbench_accounts |       1379270656
 2017-02-04 18:52:46.824341+01 | 1486230766.82434 | pgbench_tellers  |          4235264
 2017-02-04 18:52:46.824341+01 | 1486230766.82434 | pgbench_history  |        451846144
 2017-02-04 18:52:46.824341+01 | 1486230766.82434 | pgbench_branches |          2211840

 2017-02-04 18:52:47.901549+01 | 1486230767.90155 | pgbench_accounts |       1379270656
 2017-02-04 18:52:47.901549+01 | 1486230767.90155 | pgbench_tellers  |          4235264
 2017-02-04 18:52:47.901549+01 | 1486230767.90155 | pgbench_history  |        454402048
 2017-02-04 18:52:47.901549+01 | 1486230767.90155 | pgbench_branches |          2211840

 2017-02-04 18:52:48.987975+01 | 1486230768.98797 | pgbench_accounts |       1379270656
 2017-02-04 18:52:48.987975+01 | 1486230768.98797 | pgbench_tellers  |          4235264
 2017-02-04 18:52:48.987975+01 | 1486230768.98797 | pgbench_history  |        455761920
 2017-02-04 18:52:48.987975+01 | 1486230768.98797 | pgbench_branches |          2211840

 2017-02-04 18:52:50.064539+01 | 1486230770.06454 | pgbench_accounts |       1379270656
 2017-02-04 18:52:50.064539+01 | 1486230770.06454 | pgbench_tellers  |          4235264
 2017-02-04 18:52:50.064539+01 | 1486230770.06454 | pgbench_history  |        457965568
 2017-02-04 18:52:50.064539+01 | 1486230770.06454 | pgbench_branches |          2211840

 2017-02-04 18:52:51.14789+01 | 1486230771.14789 | pgbench_accounts |       1379270656
 2017-02-04 18:52:51.14789+01 | 1486230771.14789 | pgbench_tellers  |          4235264
 2017-02-04 18:52:51.14789+01 | 1486230771.14789 | pgbench_history  |        460120064
 2017-02-04 18:52:51.14789+01 | 1486230771.14789 | pgbench_branches |          2211840

 2017-02-04 18:52:52.228518+01 | 1486230772.22852 | pgbench_accounts |       1379270656
 2017-02-04 18:52:52.228518+01 | 1486230772.22852 | pgbench_tellers  |          4235264
 2017-02-04 18:52:52.228518+01 | 1486230772.22852 | pgbench_history  |        461946880
 2017-02-04 18:52:52.228518+01 | 1486230772.22852 | pgbench_branches |          2211840

 2017-02-04 18:52:53.306237+01 | 1486230773.30624 | pgbench_accounts |       1379270656
 2017-02-04 18:52:53.306237+01 | 1486230773.30624 | pgbench_tellers  |          4235264
 2017-02-04 18:52:53.306237+01 | 1486230773.30624 | pgbench_history  |        464150528
 2017-02-04 18:52:53.306237+01 | 1486230773.30624 | pgbench_branches |          2211840

 2017-02-04 18:52:54.381701+01 | 1486230774.3817 | pgbench_accounts |       1379270656
 2017-02-04 18:52:54.381701+01 | 1486230774.3817 | pgbench_tellers  |          4235264
 2017-02-04 18:52:54.381701+01 | 1486230774.3817 | pgbench_history  |        465862656
 2017-02-04 18:52:54.381701+01 | 1486230774.3817 | pgbench_branches |          2211840

 2017-02-04 18:52:55.456748+01 | 1486230775.45675 | pgbench_accounts |       1379270656
 2017-02-04 18:52:55.456748+01 | 1486230775.45675 | pgbench_tellers  |          4235264
 2017-02-04 18:52:55.456748+01 | 1486230775.45675 | pgbench_history  |        468402176
 2017-02-04 18:52:55.456748+01 | 1486230775.45675 | pgbench_branches |          2211840

 2017-02-04 18:52:56.535747+01 | 1486230776.53575 | pgbench_accounts |       1379270656
 2017-02-04 18:52:56.535747+01 | 1486230776.53575 | pgbench_tellers  |          4235264
 2017-02-04 18:52:56.535747+01 | 1486230776.53575 | pgbench_history  |        470933504
 2017-02-04 18:52:56.535747+01 | 1486230776.53575 | pgbench_branches |          2211840

 2017-02-04 18:52:57.611092+01 | 1486230777.61109 | pgbench_accounts |       1379270656
 2017-02-04 18:52:57.611092+01 | 1486230777.61109 | pgbench_tellers  |          4235264
 2017-02-04 18:52:57.611092+01 | 1486230777.61109 | pgbench_history  |        471973888
 2017-02-04 18:52:57.611092+01 | 1486230777.61109 | pgbench_branches |          2211840

 2017-02-04 18:52:58.694489+01 | 1486230778.69449 | pgbench_accounts |       1379270656
 2017-02-04 18:52:58.694489+01 | 1486230778.69449 | pgbench_tellers  |          4235264
 2017-02-04 18:52:58.694489+01 | 1486230778.69449 | pgbench_history  |        475136000
 2017-02-04 18:52:58.694489+01 | 1486230778.69449 | pgbench_branches |          2211840

 2017-02-04 18:52:59.770088+01 | 1486230779.77009 | pgbench_accounts |       1379270656
 2017-02-04 18:52:59.770088+01 | 1486230779.77009 | pgbench_tellers  |          4235264
 2017-02-04 18:52:59.770088+01 | 1486230779.77009 | pgbench_history  |        476332032
 2017-02-04 18:52:59.770088+01 | 1486230779.77009 | pgbench_branches |          2211840

 2017-02-04 18:53:00.853709+01 | 1486230780.85371 | pgbench_accounts |       1379270656
 2017-02-04 18:53:00.853709+01 | 1486230780.85371 | pgbench_tellers  |          4235264
 2017-02-04 18:53:00.853709+01 | 1486230780.85371 | pgbench_history  |        477691904
 2017-02-04 18:53:00.853709+01 | 1486230780.85371 | pgbench_branches |          2211840

 2017-02-04 18:53:01.935711+01 | 1486230781.93571 | pgbench_accounts |       1379270656
 2017-02-04 18:53:01.935711+01 | 1486230781.93571 | pgbench_tellers  |          4235264
 2017-02-04 18:53:01.935711+01 | 1486230781.93571 | pgbench_history  |        480436224
 2017-02-04 18:53:01.935711+01 | 1486230781.93571 | pgbench_branches |          2211840

 2017-02-04 18:53:03.013191+01 | 1486230783.01319 | pgbench_accounts |       1379270656
 2017-02-04 18:53:03.013191+01 | 1486230783.01319 | pgbench_tellers  |          4235264
 2017-02-04 18:53:03.013191+01 | 1486230783.01319 | pgbench_history  |        482615296
 2017-02-04 18:53:03.013191+01 | 1486230783.01319 | pgbench_branches |          2211840

 2017-02-04 18:53:04.093176+01 | 1486230784.09318 | pgbench_accounts |       1379270656
 2017-02-04 18:53:04.093176+01 | 1486230784.09318 | pgbench_tellers  |          4235264
 2017-02-04 18:53:04.093176+01 | 1486230784.09318 | pgbench_history  |        483319808
 2017-02-04 18:53:04.093176+01 | 1486230784.09318 | pgbench_branches |          2211840

 2017-02-04 18:53:05.172773+01 | 1486230785.17277 | pgbench_accounts |       1379270656
 2017-02-04 18:53:05.172773+01 | 1486230785.17277 | pgbench_tellers  |          4235264
 2017-02-04 18:53:05.172773+01 | 1486230785.17277 | pgbench_history  |        485875712
 2017-02-04 18:53:05.172773+01 | 1486230785.17277 | pgbench_branches |          2211840

 2017-02-04 18:53:06.253337+01 | 1486230786.25334 | pgbench_accounts |       1379270656
 2017-02-04 18:53:06.253337+01 | 1486230786.25334 | pgbench_tellers  |          4235264
 2017-02-04 18:53:06.253337+01 | 1486230786.25334 | pgbench_history  |        487915520
 2017-02-04 18:53:06.253337+01 | 1486230786.25334 | pgbench_branches |          2211840

 2017-02-04 18:53:07.330057+01 | 1486230787.33006 | pgbench_accounts |       1379270656
 2017-02-04 18:53:07.330057+01 | 1486230787.33006 | pgbench_tellers  |          4235264
 2017-02-04 18:53:07.330057+01 | 1486230787.33006 | pgbench_history  |        489439232
 2017-02-04 18:53:07.330057+01 | 1486230787.33006 | pgbench_branches |          2211840

 2017-02-04 18:53:08.409924+01 | 1486230788.40992 | pgbench_accounts |       1379270656
 2017-02-04 18:53:08.409924+01 | 1486230788.40992 | pgbench_tellers  |          4235264
 2017-02-04 18:53:08.409924+01 | 1486230788.40992 | pgbench_history  |        491618304
 2017-02-04 18:53:08.409924+01 | 1486230788.40992 | pgbench_branches |          2211840

 2017-02-04 18:53:09.485792+01 | 1486230789.48579 | pgbench_accounts |       1379270656
 2017-02-04 18:53:09.485792+01 | 1486230789.48579 | pgbench_tellers  |          4235264
 2017-02-04 18:53:09.485792+01 | 1486230789.48579 | pgbench_history  |        493355008
 2017-02-04 18:53:09.485792+01 | 1486230789.48579 | pgbench_branches |          2211840

 2017-02-04 18:53:10.561553+01 | 1486230790.56155 | pgbench_accounts |       1379270656
 2017-02-04 18:53:10.561553+01 | 1486230790.56155 | pgbench_tellers  |          4235264
 2017-02-04 18:53:10.561553+01 | 1486230790.56155 | pgbench_history  |        495099904
 2017-02-04 18:53:10.561553+01 | 1486230790.56155 | pgbench_branches |          2211840

 2017-02-04 18:53:11.639983+01 | 1486230791.63998 | pgbench_accounts |       1379270656
 2017-02-04 18:53:11.639983+01 | 1486230791.63998 | pgbench_tellers  |          4235264
 2017-02-04 18:53:11.639983+01 | 1486230791.63998 | pgbench_history  |        497360896
 2017-02-04 18:53:11.639983+01 | 1486230791.63998 | pgbench_branches |          2211840

 2017-02-04 18:53:12.715069+01 | 1486230792.71507 | pgbench_accounts |       1379270656
 2017-02-04 18:53:12.715069+01 | 1486230792.71507 | pgbench_tellers  |          4235264
 2017-02-04 18:53:12.715069+01 | 1486230792.71507 | pgbench_history  |        500080640
 2017-02-04 18:53:12.715069+01 | 1486230792.71507 | pgbench_branches |          2211840

 2017-02-04 18:53:13.79111+01 | 1486230793.79111 | pgbench_accounts |       1379270656
 2017-02-04 18:53:13.79111+01 | 1486230793.79111 | pgbench_tellers  |          4235264
 2017-02-04 18:53:13.79111+01 | 1486230793.79111 | pgbench_history  |        501579776
 2017-02-04 18:53:13.79111+01 | 1486230793.79111 | pgbench_branches |          2211840

 2017-02-04 18:53:14.872258+01 | 1486230794.87226 | pgbench_accounts |       1379270656
 2017-02-04 18:53:14.872258+01 | 1486230794.87226 | pgbench_tellers  |          4235264
 2017-02-04 18:53:14.872258+01 | 1486230794.87226 | pgbench_history  |        503316480
 2017-02-04 18:53:14.872258+01 | 1486230794.87226 | pgbench_branches |          2211840

 2017-02-04 18:53:15.951314+01 | 1486230795.95131 | pgbench_accounts |       1379270656
 2017-02-04 18:53:15.951314+01 | 1486230795.95131 | pgbench_tellers  |          4235264
 2017-02-04 18:53:15.951314+01 | 1486230795.95131 | pgbench_history  |        505520128
 2017-02-04 18:53:15.951314+01 | 1486230795.95131 | pgbench_branches |          2211840

 2017-02-04 18:53:17.032375+01 | 1486230797.03238 | pgbench_accounts |       1379270656
 2017-02-04 18:53:17.032375+01 | 1486230797.03238 | pgbench_tellers  |          4235264
 2017-02-04 18:53:17.032375+01 | 1486230797.03238 | pgbench_history  |        508354560
 2017-02-04 18:53:17.032375+01 | 1486230797.03238 | pgbench_branches |          2211840

 2017-02-04 18:53:18.105122+01 | 1486230798.10512 | pgbench_accounts |       1379270656
 2017-02-04 18:53:18.105122+01 | 1486230798.10512 | pgbench_tellers  |          4235264
 2017-02-04 18:53:18.105122+01 | 1486230798.10512 | pgbench_history  |        509198336
 2017-02-04 18:53:18.105122+01 | 1486230798.10512 | pgbench_branches |          2211840

 2017-02-04 18:53:19.1829+01 | 1486230799.1829 | pgbench_accounts |       1379270656
 2017-02-04 18:53:19.1829+01 | 1486230799.1829 | pgbench_tellers  |          4235264
 2017-02-04 18:53:19.1829+01 | 1486230799.1829 | pgbench_history  |        511049728
 2017-02-04 18:53:19.1829+01 | 1486230799.1829 | pgbench_branches |          2211840

 2017-02-04 18:53:20.25884+01 | 1486230800.25884 | pgbench_accounts |       1379270656
 2017-02-04 18:53:20.25884+01 | 1486230800.25884 | pgbench_tellers  |          4235264
 2017-02-04 18:53:20.25884+01 | 1486230800.25884 | pgbench_history  |        514613248
 2017-02-04 18:53:20.25884+01 | 1486230800.25884 | pgbench_branches |          2211840

 2017-02-04 18:53:21.343743+01 | 1486230801.34374 | pgbench_accounts |       1379270656
 2017-02-04 18:53:21.343743+01 | 1486230801.34374 | pgbench_tellers  |          4235264
 2017-02-04 18:53:21.343743+01 | 1486230801.34374 | pgbench_history  |        515293184
 2017-02-04 18:53:21.343743+01 | 1486230801.34374 | pgbench_branches |          2211840

 2017-02-04 18:53:22.427872+01 | 1486230802.42787 | pgbench_accounts |       1379270656
 2017-02-04 18:53:22.427872+01 | 1486230802.42787 | pgbench_tellers  |          4235264
 2017-02-04 18:53:22.427872+01 | 1486230802.42787 | pgbench_history  |        516980736
 2017-02-04 18:53:22.427872+01 | 1486230802.42787 | pgbench_branches |          2211840

 2017-02-04 18:53:23.50498+01 | 1486230803.50498 | pgbench_accounts |       1379270656
 2017-02-04 18:53:23.50498+01 | 1486230803.50498 | pgbench_tellers  |          4235264
 2017-02-04 18:53:23.50498+01 | 1486230803.50498 | pgbench_history  |        518701056
 2017-02-04 18:53:23.50498+01 | 1486230803.50498 | pgbench_branches |          2211840

 2017-02-04 18:53:24.5824+01 | 1486230804.5824 | pgbench_accounts |       1379270656
 2017-02-04 18:53:24.5824+01 | 1486230804.5824 | pgbench_tellers  |          4235264
 2017-02-04 18:53:24.5824+01 | 1486230804.5824 | pgbench_history  |        520413184
 2017-02-04 18:53:24.5824+01 | 1486230804.5824 | pgbench_branches |          2211840

 2017-02-04 18:53:25.669989+01 | 1486230805.66999 | pgbench_accounts |       1379270656
 2017-02-04 18:53:25.669989+01 | 1486230805.66999 | pgbench_tellers  |          4235264
 2017-02-04 18:53:25.669989+01 | 1486230805.66999 | pgbench_history  |        522452992
 2017-02-04 18:53:25.669989+01 | 1486230805.66999 | pgbench_branches |          2211840

 2017-02-04 18:53:26.744863+01 | 1486230806.74486 | pgbench_accounts |       1379270656
 2017-02-04 18:53:26.744863+01 | 1486230806.74486 | pgbench_tellers  |          4235264
 2017-02-04 18:53:26.744863+01 | 1486230806.74486 | pgbench_history  |        524337152
 2017-02-04 18:53:26.744863+01 | 1486230806.74486 | pgbench_branches |          2211840

 2017-02-04 18:53:27.828015+01 | 1486230807.82802 | pgbench_accounts |       1379270656
 2017-02-04 18:53:27.828015+01 | 1486230807.82802 | pgbench_tellers  |          4235264
 2017-02-04 18:53:27.828015+01 | 1486230807.82802 | pgbench_history  |        526073856
 2017-02-04 18:53:27.828015+01 | 1486230807.82802 | pgbench_branches |          2211840

 2017-02-04 18:53:28.905832+01 | 1486230808.90583 | pgbench_accounts |       1379270656
 2017-02-04 18:53:28.905832+01 | 1486230808.90583 | pgbench_tellers  |          4235264
 2017-02-04 18:53:28.905832+01 | 1486230808.90583 | pgbench_history  |        529014784
 2017-02-04 18:53:28.905832+01 | 1486230808.90583 | pgbench_branches |          2211840

 2017-02-04 18:53:29.980694+01 | 1486230809.98069 | pgbench_accounts |       1379270656
 2017-02-04 18:53:29.980694+01 | 1486230809.98069 | pgbench_tellers  |          4235264
 2017-02-04 18:53:29.980694+01 | 1486230809.98069 | pgbench_history  |        529833984
 2017-02-04 18:53:29.980694+01 | 1486230809.98069 | pgbench_branches |          2211840

 2017-02-04 18:53:31.060618+01 | 1486230811.06062 | pgbench_accounts |       1379270656
 2017-02-04 18:53:31.060618+01 | 1486230811.06062 | pgbench_tellers  |          4235264
 2017-02-04 18:53:31.060618+01 | 1486230811.06062 | pgbench_history  |        531693568
 2017-02-04 18:53:31.060618+01 | 1486230811.06062 | pgbench_branches |          2211840

 2017-02-04 18:53:32.147387+01 | 1486230812.14739 | pgbench_accounts |       1379270656
 2017-02-04 18:53:32.147387+01 | 1486230812.14739 | pgbench_tellers  |          4235264
 2017-02-04 18:53:32.147387+01 | 1486230812.14739 | pgbench_history  |        533733376
 2017-02-04 18:53:32.147387+01 | 1486230812.14739 | pgbench_branches |          2211840

 2017-02-04 18:53:33.222244+01 | 1486230813.22224 | pgbench_accounts |       1379270656
 2017-02-04 18:53:33.222244+01 | 1486230813.22224 | pgbench_tellers  |          4235264
 2017-02-04 18:53:33.222244+01 | 1486230813.22224 | pgbench_history  |        535306240
 2017-02-04 18:53:33.222244+01 | 1486230813.22224 | pgbench_branches |          2211840

 2017-02-04 18:53:34.301446+01 | 1486230814.30145 | pgbench_accounts |       1379270656
 2017-02-04 18:53:34.301446+01 | 1486230814.30145 | pgbench_tellers  |          4235264
 2017-02-04 18:53:34.301446+01 | 1486230814.30145 | pgbench_history  |        538189824
 2017-02-04 18:53:34.301446+01 | 1486230814.30145 | pgbench_branches |          2211840

 2017-02-04 18:53:35.379894+01 | 1486230815.37989 | pgbench_accounts |       1379270656
 2017-02-04 18:53:35.379894+01 | 1486230815.37989 | pgbench_tellers  |          4235264
 2017-02-04 18:53:35.379894+01 | 1486230815.37989 | pgbench_history  |        539197440
 2017-02-04 18:53:35.379894+01 | 1486230815.37989 | pgbench_branches |          2211840

 2017-02-04 18:53:36.462616+01 | 1486230816.46262 | pgbench_accounts |       1379270656
 2017-02-04 18:53:36.462616+01 | 1486230816.46262 | pgbench_tellers  |          4235264
 2017-02-04 18:53:36.462616+01 | 1486230816.46262 | pgbench_history  |        540696576
 2017-02-04 18:53:36.462616+01 | 1486230816.46262 | pgbench_branches |          2211840

 2017-02-04 18:53:37.544305+01 | 1486230817.54431 | pgbench_accounts |       1379270656
 2017-02-04 18:53:37.544305+01 | 1486230817.54431 | pgbench_tellers  |          4235264
 2017-02-04 18:53:37.544305+01 | 1486230817.54431 | pgbench_history  |        542408704
 2017-02-04 18:53:37.544305+01 | 1486230817.54431 | pgbench_branches |          2211840

