 2017-02-04 18:48:37.571716+01 | 1486230517.57172 | 13/518D14C0              |           82972579008

 2017-02-04 18:48:38.667665+01 | 1486230518.66767 | 13/5D47ADF0              |           83169357296

 2017-02-04 18:48:39.750312+01 | 1486230519.75031 | 13/65E53168              |           83313897832

 2017-02-04 18:48:40.825003+01 | 1486230520.825 | 13/6BD1DBB0              |           83413294000

 2017-02-04 18:48:41.90097+01 | 1486230521.90097 | 13/707514F0              |           83491099888

 2017-02-04 18:48:42.973877+01 | 1486230522.97388 | 13/7411CA60              |           83551701600

 2017-02-04 18:48:44.053434+01 | 1486230524.05343 | 13/7763BD90              |           83607403920

 2017-02-04 18:48:45.127238+01 | 1486230525.12724 | 13/7A2ECF68              |           83654266728

 2017-02-04 18:48:46.205848+01 | 1486230526.20585 | 13/7CBFE0E0              |           83697328352

 2017-02-04 18:48:47.284145+01 | 1486230527.28415 | 13/7F18AB40              |           83736701760

 2017-02-04 18:48:48.367001+01 | 1486230528.367 | 13/814DF6F0              |           83773750944

 2017-02-04 18:48:49.449531+01 | 1486230529.44953 | 13/8371B600              |           83809646080

 2017-02-04 18:48:50.530886+01 | 1486230530.53089 | 13/856DAB20              |           83842935584

 2017-02-04 18:48:51.60747+01 | 1486230531.60747 | 13/876A4790              |           83876267920

 2017-02-04 18:48:52.683932+01 | 1486230532.68393 | 13/894A0AC0              |           83907709632

 2017-02-04 18:48:53.76722+01 | 1486230533.76722 | 13/8B284280              |           83939050112

 2017-02-04 18:48:54.852291+01 | 1486230534.85229 | 13/8CD67008              |           83967242248

 2017-02-04 18:48:55.942783+01 | 1486230535.94278 | 13/8E8A9060              |           83995824224

 2017-02-04 18:48:57.014338+01 | 1486230537.01434 | 13/90149430              |           84021646384

 2017-02-04 18:48:58.091644+01 | 1486230538.09164 | 13/91B12188              |           84048683400

 2017-02-04 18:48:59.163289+01 | 1486230539.16329 | 13/934C66B0              |           84075636400

 2017-02-04 18:49:00.239175+01 | 1486230540.23918 | 13/94E2D8F0              |           84102273264

 2017-02-04 18:49:01.312522+01 | 1486230541.31252 | 13/9688CFA0              |           84129927072

 2017-02-04 18:49:02.39078+01 | 1486230542.39078 | 13/9830BD78              |           84157709688

 2017-02-04 18:49:03.467469+01 | 1486230543.46747 | 13/99EB9C38              |           84186733624

 2017-02-04 18:49:04.549558+01 | 1486230544.54956 | 13/9BABDF10              |           84216110864

 2017-02-04 18:49:05.631161+01 | 1486230545.63116 | 13/9D6E1620              |           84245616160

 2017-02-04 18:49:06.712091+01 | 1486230546.71209 | 13/9F270A38              |           84274514488

 2017-02-04 18:49:07.788901+01 | 1486230547.7889 | 13/A11D6418              |           84307436568

 2017-02-04 18:49:08.864055+01 | 1486230548.86405 | 13/A328F008              |           84341747720

 2017-02-04 18:49:09.945361+01 | 1486230549.94536 | 13/A56FF8F0              |           84379957488

 2017-02-04 18:49:11.017745+01 | 1486230551.01775 | 13/A7A47BA0              |           84416953248

 2017-02-04 18:49:12.096564+01 | 1486230552.09656 | 13/A9CCF320              |           84453159712

 2017-02-04 18:49:13.172349+01 | 1486230553.17235 | 13/ABE48888              |           84488259720

 2017-02-04 18:49:14.252016+01 | 1486230554.25202 | 13/ADFE20E0              |           84523491552

 2017-02-04 18:49:15.333054+01 | 1486230555.33305 | 13/AFD32940              |           84554230080

 2017-02-04 18:49:16.41424+01 | 1486230556.41424 | 13/B159E5E0              |           84579837408

 2017-02-04 18:49:17.494835+01 | 1486230557.49483 | 13/B2BDF268              |           84603171432

 2017-02-04 18:49:18.572635+01 | 1486230558.57263 | 13/B44EECD0              |           84629449936

 2017-02-04 18:49:19.64705+01 | 1486230559.64705 | 13/B5F5F580              |           84657173888

 2017-02-04 18:49:20.73084+01 | 1486230560.73084 | 13/B74F7A20              |           84679817760

 2017-02-04 18:49:21.8128+01 | 1486230561.8128 | 13/B8CAF648              |           84704687688

 2017-02-04 18:49:22.897123+01 | 1486230562.89712 | 13/B9E245B0              |           84722992560

 2017-02-04 18:49:23.966103+01 | 1486230563.9661 | 13/BAE5C250              |           84739998288

 2017-02-04 18:49:25.043886+01 | 1486230565.04389 | 13/BBF3F8C0              |           84757706944

 2017-02-04 18:49:26.121256+01 | 1486230566.12126 | 13/BCEFCB40              |           84774210368

 2017-02-04 18:49:27.203339+01 | 1486230567.20334 | 13/BDF57C10              |           84791360528

 2017-02-04 18:49:28.280977+01 | 1486230568.28098 | 13/BF0583C8              |           84809188296

 2017-02-04 18:49:29.363169+01 | 1486230569.36317 | 13/C00E48F8              |           84826540280

 2017-02-04 18:49:30.442303+01 | 1486230570.4423 | 13/C10B66B0              |           84843128496

 2017-02-04 18:49:31.522302+01 | 1486230571.5223 | 13/C20B5448              |           84859901000

 2017-02-04 18:49:32.59469+01 | 1486230572.59469 | 13/C2FB6120              |           84875632928

 2017-02-04 18:49:33.676134+01 | 1486230573.67613 | 13/C4115780              |           84893849472

 2017-02-04 18:49:34.751788+01 | 1486230574.75179 | 13/C50BCB20              |           84910263072

 2017-02-04 18:49:35.835386+01 | 1486230575.83539 | 13/C5FF7EC8              |           84926234312

 2017-02-04 18:49:36.912992+01 | 1486230576.91299 | 13/C6F62EA8              |           84942401192

 2017-02-04 18:49:37.993984+01 | 1486230577.99398 | 13/C7F7BED8              |           84959280856

 2017-02-04 18:49:39.068251+01 | 1486230579.06825 | 13/C8F41428              |           84975817768

 2017-02-04 18:49:40.14742+01 | 1486230580.14742 | 13/C9FE29C0              |           84993255872

 2017-02-04 18:49:41.222696+01 | 1486230581.2227 | 13/CB05A698              |           85010523800

 2017-02-04 18:49:42.301438+01 | 1486230582.30144 | 13/CC0C3520              |           85027730720

 2017-02-04 18:49:43.382916+01 | 1486230583.38292 | 13/CD076AD0              |           85044194000

 2017-02-04 18:49:44.460769+01 | 1486230584.46077 | 13/CDFEE530              |           85060412720

 2017-02-04 18:49:45.543135+01 | 1486230585.54313 | 13/CEF0B978              |           85076261240

 2017-02-04 18:49:46.61723+01 | 1486230586.61723 | 13/CFF3BA30              |           85093235248

 2017-02-04 18:49:47.692202+01 | 1486230587.6922 | 13/D0F4BDD0              |           85110078928

 2017-02-04 18:49:48.76646+01 | 1486230588.76646 | 13/D1F36248              |           85126767176

 2017-02-04 18:49:49.847427+01 | 1486230589.84743 | 13/D2E8A058              |           85142839384

 2017-02-04 18:49:50.92813+01 | 1486230590.92813 | 13/D3E0B370              |           85159097200

 2017-02-04 18:49:52.00997+01 | 1486230592.00997 | 13/D4DC6240              |           85175591488

 2017-02-04 18:49:53.092094+01 | 1486230593.09209 | 13/D5D13F90              |           85191638928

 2017-02-04 18:49:54.169543+01 | 1486230594.16954 | 13/D6C481F0              |           85207581168

 2017-02-04 18:49:55.250536+01 | 1486230595.25054 | 13/D7B67720              |           85223438112

 2017-02-04 18:49:56.331991+01 | 1486230596.33199 | 13/D8A2B530              |           85238920496

 2017-02-04 18:49:57.41516+01 | 1486230597.41516 | 13/D9910B90              |           85254540176

 2017-02-04 18:49:58.489833+01 | 1486230598.48983 | 13/DA8A1760              |           85270861664

 2017-02-04 18:49:59.562572+01 | 1486230599.56257 | 13/DB7DE338              |           85286839096

 2017-02-04 18:50:00.641482+01 | 1486230600.64148 | 13/DC7E27C0              |           85303633856

 2017-02-04 18:50:01.717849+01 | 1486230601.71785 | 13/DD7280E0              |           85319647456

 2017-02-04 18:50:02.803311+01 | 1486230602.80331 | 13/DE726768              |           85336418152

 2017-02-04 18:50:03.886044+01 | 1486230603.88604 | 13/DF671C28              |           85352455208

 2017-02-04 18:50:04.95988+01 | 1486230604.95988 | 13/E0676B60              |           85369252704

 2017-02-04 18:50:06.040422+01 | 1486230606.04042 | 13/E17CEFF8              |           85387440120

 2017-02-04 18:50:07.117154+01 | 1486230607.11715 | 13/E27B09A0              |           85404092832

 2017-02-04 18:50:08.190327+01 | 1486230608.19033 | 13/E36D61E0              |           85419975136

 2017-02-04 18:50:09.269823+01 | 1486230609.26982 | 13/E45844B0              |           85435368624

 2017-02-04 18:50:10.35182+01 | 1486230610.35182 | 13/E5550F68              |           85451935592

 2017-02-04 18:50:11.414799+01 | 1486230611.4148 | 13/E65ED110              |           85469352208

 2017-02-04 18:50:12.495504+01 | 1486230612.4955 | 13/E76F0548              |           85487191368

 2017-02-04 18:50:13.587034+01 | 1486230613.58703 | 13/E8D5DD00              |           85510708480

 2017-02-04 18:50:14.663634+01 | 1486230614.66363 | 13/EA39BBA8              |           85534030760

 2017-02-04 18:50:15.748871+01 | 1486230615.74887 | 13/EB941010              |           85556727824

 2017-02-04 18:50:16.822454+01 | 1486230616.82245 | 13/ECFB84B8              |           85580285112

 2017-02-04 18:50:17.899069+01 | 1486230617.89907 | 13/EE62E8A0              |           85603838112

 2017-02-04 18:50:18.981668+01 | 1486230618.98167 | 13/EFD581B8              |           85628125624

 2017-02-04 18:50:20.056282+01 | 1486230620.05628 | 13/F10AF6B8              |           85648406200

 2017-02-04 18:50:21.12905+01 | 1486230621.12905 | 13/F23DEC90              |           85668523152

 2017-02-04 18:50:22.20606+01 | 1486230622.20606 | 13/F38EDEC0              |           85690605248

 2017-02-04 18:50:23.279463+01 | 1486230623.27946 | 13/F4DF97A0              |           85712672672

 2017-02-04 18:50:24.357061+01 | 1486230624.35706 | 13/F5E2ED40              |           85729668416

 2017-02-04 18:50:25.422229+01 | 1486230625.42223 | 13/F6DFB7A8              |           85746235304

 2017-02-04 18:50:26.508585+01 | 1486230626.50858 | 13/F7E0BF78              |           85763080056

 2017-02-04 18:50:27.590538+01 | 1486230627.59054 | 13/F8EC8B78              |           85780630392

 2017-02-04 18:50:28.662939+01 | 1486230628.66294 | 13/F9F37698              |           85797861016

 2017-02-04 18:50:29.734602+01 | 1486230629.7346 | 13/FAED43B8              |           85814231992

 2017-02-04 18:50:30.810215+01 | 1486230630.81021 | 13/FBF47BF0              |           85831482352

 2017-02-04 18:50:31.888538+01 | 1486230631.88854 | 13/FCF3D8A0              |           85848217760

 2017-02-04 18:50:32.965982+01 | 1486230632.96598 | 13/FDF71AA8              |           85865208488

 2017-02-04 18:50:34.040738+01 | 1486230634.04074 | 13/FEEE6BA8              |           85881416616

 2017-02-04 18:50:35.126067+01 | 1486230635.12607 | 13/FFE13198              |           85897327000

 2017-02-04 18:50:36.200692+01 | 1486230636.20069 | 14/DCE850                |           85913823312

 2017-02-04 18:50:37.281601+01 | 1486230637.2816 | 14/1E1DBB8               |           85930924984

 2017-02-04 18:50:38.358307+01 | 1486230638.35831 | 14/2D9DE40               |           85947178560

 2017-02-04 18:50:39.433961+01 | 1486230639.43396 | 14/3C49298               |           85962560152

 2017-02-04 18:50:40.517029+01 | 1486230640.51703 | 14/4ABF3C0               |           85977723840

 2017-02-04 18:50:41.598071+01 | 1486230641.59807 | 14/598F790               |           85993256848

 2017-02-04 18:50:42.682045+01 | 1486230642.68204 | 14/679C220               |           86007988768

 2017-02-04 18:50:43.766173+01 | 1486230643.76617 | 14/766E560               |           86023529824

 2017-02-04 18:50:44.846093+01 | 1486230644.84609 | 14/85D5A90               |           86039681680

 2017-02-04 18:50:45.924853+01 | 1486230645.92485 | 14/95BCF30               |           86056357680

 2017-02-04 18:50:46.99646+01 | 1486230646.99646 | 14/A46C430               |           86071755824

 2017-02-04 18:50:48.075233+01 | 1486230648.07523 | 14/B367EF8               |           86087466744

 2017-02-04 18:50:49.160129+01 | 1486230649.16013 | 14/C322A58               |           86103960152

 2017-02-04 18:50:50.23772+01 | 1486230650.23772 | 14/D2A87A0               |           86120236960

 2017-02-04 18:50:51.319938+01 | 1486230651.31994 | 14/E1AF1D0               |           86135992784

 2017-02-04 18:50:52.400839+01 | 1486230652.40084 | 14/F149360               |           86152352608

 2017-02-04 18:50:53.47939+01 | 1486230653.47939 | 14/100507D0              |           86168111056

 2017-02-04 18:50:54.558287+01 | 1486230654.55829 | 14/1106B370              |           86184997744

 2017-02-04 18:50:55.638206+01 | 1486230655.63821 | 14/11F9C098              |           86200926360

 2017-02-04 18:50:56.713763+01 | 1486230656.71376 | 14/12E8D180              |           86216593792

 2017-02-04 18:50:57.799988+01 | 1486230657.79999 | 14/13EC7818              |           86233610264

 2017-02-04 18:50:58.87764+01 | 1486230658.87764 | 14/14E8E098              |           86250152088

 2017-02-04 18:50:59.950391+01 | 1486230659.95039 | 14/15DD7438              |           86266180664

 2017-02-04 18:51:01.042231+01 | 1486230661.04223 | 14/16CED138              |           86281998648

 2017-02-04 18:51:02.121201+01 | 1486230662.1212 | 14/17CBF3B8              |           86298588088

 2017-02-04 18:51:03.208265+01 | 1486230663.20827 | 14/18BA12A8              |           86314193576

 2017-02-04 18:51:04.286583+01 | 1486230664.28658 | 14/19A43F18              |           86329540376

 2017-02-04 18:51:05.367755+01 | 1486230665.36775 | 14/1A98D5D8              |           86345569752

 2017-02-04 18:51:06.441191+01 | 1486230666.44119 | 14/1B9F76B0              |           86362781360

 2017-02-04 18:51:07.517353+01 | 1486230667.51735 | 14/1CA32998              |           86379800984

 2017-02-04 18:51:08.591489+01 | 1486230668.59149 | 14/1DBF5A08              |           86398425608

 2017-02-04 18:51:09.667139+01 | 1486230669.66714 | 14/1EE0A878              |           86417385592

 2017-02-04 18:51:10.746678+01 | 1486230670.74668 | 14/1FFB5CF0              |           86435912944

 2017-02-04 18:51:11.82726+01 | 1486230671.82726 | 14/21170728              |           86454503208

 2017-02-04 18:51:12.908214+01 | 1486230672.90821 | 14/2220AF68              |           86471913320

 2017-02-04 18:51:13.995226+01 | 1486230673.99523 | 14/231C7EE0              |           86488415968

 2017-02-04 18:51:15.07538+01 | 1486230675.07538 | 14/24236E10              |           86505647632

 2017-02-04 18:51:16.152379+01 | 1486230676.15238 | 14/25368628              |           86523676200

 2017-02-04 18:51:17.237506+01 | 1486230677.23751 | 14/263CEF88              |           86540873608

 2017-02-04 18:51:18.317926+01 | 1486230678.31793 | 14/274D0E60              |           86558707296

 2017-02-04 18:51:19.394954+01 | 1486230679.39495 | 14/285267D0              |           86575835088

 2017-02-04 18:51:20.477855+01 | 1486230680.47785 | 14/295BEA08              |           86593235464

 2017-02-04 18:51:21.550164+01 | 1486230681.55016 | 14/2A56F298              |           86609687192

 2017-02-04 18:51:22.628951+01 | 1486230682.62895 | 14/2B553018              |           86626349080

 2017-02-04 18:51:23.707256+01 | 1486230683.70726 | 14/2C4FD2D8              |           86642774744

 2017-02-04 18:51:24.784868+01 | 1486230684.78487 | 14/2D3D7BA8              |           86658349992

 2017-02-04 18:51:25.866968+01 | 1486230685.86697 | 14/2E2A8AD0              |           86673885904

 2017-02-04 18:51:26.945361+01 | 1486230686.94536 | 14/2F1DF950              |           86689839440

 2017-02-04 18:51:28.026606+01 | 1486230688.02661 | 14/3019EB08              |           86706350856

 2017-02-04 18:51:29.110437+01 | 1486230689.11044 | 14/3119FFC8              |           86723133384

 2017-02-04 18:51:30.187108+01 | 1486230690.18711 | 14/322365B8              |           86740526520

 2017-02-04 18:51:31.261802+01 | 1486230691.2618 | 14/331C1F60              |           86756826976

 2017-02-04 18:51:32.341161+01 | 1486230692.34116 | 14/340CD7B0              |           86772602800

 2017-02-04 18:51:33.415936+01 | 1486230693.41594 | 14/35076990              |           86789024144

 2017-02-04 18:51:34.497125+01 | 1486230694.49712 | 14/35FE2550              |           86805194064

 2017-02-04 18:51:35.571775+01 | 1486230695.57177 | 14/36F9AB88              |           86821677960

 2017-02-04 18:51:36.653088+01 | 1486230696.65309 | 14/37EE27F8              |           86837700600

 2017-02-04 18:51:37.728363+01 | 1486230697.72836 | 14/38E28AC0              |           86853716672

 2017-02-04 18:51:38.815181+01 | 1486230698.81518 | 14/39DCD9E0              |           86870120928

 2017-02-04 18:51:39.889914+01 | 1486230699.88991 | 14/3AC64C50              |           86885420112

 2017-02-04 18:51:40.970621+01 | 1486230700.97062 | 14/3BC67AC0              |           86902209216

 2017-02-04 18:51:42.052141+01 | 1486230702.05214 | 14/3CC7F4A0              |           86919083168

 2017-02-04 18:51:43.129662+01 | 1486230703.12966 | 14/3DC2F2B8              |           86935532216

 2017-02-04 18:51:44.208685+01 | 1486230704.20868 | 14/3EBBDD30              |           86951845168

 2017-02-04 18:51:45.289204+01 | 1486230705.2892 | 14/3FAA5090              |           86967472272

 2017-02-04 18:51:46.365964+01 | 1486230706.36596 | 14/40A759E0              |           86984055264

 2017-02-04 18:51:47.445164+01 | 1486230707.44516 | 14/4199C9B8              |           86999943608

 2017-02-04 18:51:48.528136+01 | 1486230708.52814 | 14/428CD780              |           87015872384

 2017-02-04 18:51:49.60985+01 | 1486230709.60985 | 14/43920638              |           87032989240

 2017-02-04 18:51:50.68363+01 | 1486230710.68363 | 14/449A77A0              |           87050319776

 2017-02-04 18:51:51.759926+01 | 1486230711.75993 | 14/4584C738              |           87065675576

 2017-02-04 18:51:52.837865+01 | 1486230712.83787 | 14/4679D650              |           87081735760

 2017-02-04 18:51:53.919926+01 | 1486230713.91993 | 14/477BEE90              |           87098650256

 2017-02-04 18:51:54.997022+01 | 1486230714.99702 | 14/487E7608              |           87115593224

 2017-02-04 18:51:56.072439+01 | 1486230716.07244 | 14/498649C8              |           87132883400

 2017-02-04 18:51:57.147129+01 | 1486230717.14713 | 14/4A8FC860              |           87150282848

 2017-02-04 18:51:58.222974+01 | 1486230718.22297 | 14/4B857F68              |           87166386024

 2017-02-04 18:51:59.302084+01 | 1486230719.30208 | 14/4C76A0E8              |           87182188776

 2017-02-04 18:52:00.392561+01 | 1486230720.39256 | 14/4D696900              |           87198099712

 2017-02-04 18:52:01.471188+01 | 1486230721.47119 | 14/4E62BEF8              |           87214440184

 2017-02-04 18:52:02.545442+01 | 1486230722.54544 | 14/4F59E358              |           87230636888

 2017-02-04 18:52:03.624409+01 | 1486230723.62441 | 14/504C16F8              |           87246509816

 2017-02-04 18:52:04.706604+01 | 1486230724.7066 | 14/5135B0E8              |           87261819112

 2017-02-04 18:52:05.792346+01 | 1486230725.79235 | 14/52349710              |           87278524176

 2017-02-04 18:52:06.86878+01 | 1486230726.86878 | 14/5329BD78              |           87294590328

 2017-02-04 18:52:07.948677+01 | 1486230727.94868 | 14/54721BE8              |           87316110312

 2017-02-04 18:52:09.034428+01 | 1486230729.03443 | 14/55C32D80              |           87338200448

 2017-02-04 18:52:10.112828+01 | 1486230730.11283 | 14/57243030              |           87361335344

 2017-02-04 18:52:11.188184+01 | 1486230731.18818 | 14/58938D50              |           87385410896

 2017-02-04 18:52:12.267761+01 | 1486230732.26776 | 14/59E48418              |           87407494168

 2017-02-04 18:52:13.343238+01 | 1486230733.34324 | 14/5AEF37D0              |           87424972752

 2017-02-04 18:52:14.417112+01 | 1486230734.41711 | 14/5C1F9A78              |           87444920952

 2017-02-04 18:52:15.504215+01 | 1486230735.50422 | 14/5D5B1898              |           87465597080

 2017-02-04 18:52:16.587713+01 | 1486230736.58771 | 14/5E9EFEF8              |           87486824184

 2017-02-04 18:52:17.672966+01 | 1486230737.67297 | 14/5FBA0330              |           87505371952

 2017-02-04 18:52:18.754037+01 | 1486230738.75404 | 14/60A51980              |           87520778624

 2017-02-04 18:52:19.834527+01 | 1486230739.83453 | 14/61A01B80              |           87537228672

 2017-02-04 18:52:20.912681+01 | 1486230740.91268 | 14/6292DE40              |           87553138240

 2017-02-04 18:52:21.99251+01 | 1486230741.99251 | 14/6387FC48              |           87569202248

 2017-02-04 18:52:23.071125+01 | 1486230743.07113 | 14/647DB678              |           87585306232

 2017-02-04 18:52:24.150387+01 | 1486230744.15039 | 14/65817D88              |           87602331016

 2017-02-04 18:52:25.230018+01 | 1486230745.23002 | 14/667A9C30              |           87618657328

 2017-02-04 18:52:26.307922+01 | 1486230746.30792 | 14/676C2F28              |           87634489128

 2017-02-04 18:52:27.386648+01 | 1486230747.38665 | 14/68739E10              |           87651753488

 2017-02-04 18:52:28.461745+01 | 1486230748.46175 | 14/69764FE0              |           87668711336

 2017-02-04 18:52:29.534835+01 | 1486230749.53484 | 14/6A791DE0              |           87685668320

 2017-02-04 18:52:30.607093+01 | 1486230750.60709 | 14/6B76D160              |           87702294880

 2017-02-04 18:52:31.689896+01 | 1486230751.6899 | 14/6C7C5410              |           87719433232

 2017-02-04 18:52:32.766862+01 | 1486230752.76686 | 14/6D852FA0              |           87736790944

 2017-02-04 18:52:33.837965+01 | 1486230753.83797 | 14/6E820050              |           87753359440

 2017-02-04 18:52:34.916321+01 | 1486230754.91632 | 14/6F84E388              |           87770325896

 2017-02-04 18:52:36.000639+01 | 1486230756.00064 | 14/70806A58              |           87786809944

 2017-02-04 18:52:37.077617+01 | 1486230757.07762 | 14/717EA720              |           87803471648

 2017-02-04 18:52:38.155209+01 | 1486230758.15521 | 14/72757310              |           87819645712

 2017-02-04 18:52:39.234994+01 | 1486230759.23499 | 14/7379A330              |           87836697392

 2017-02-04 18:52:40.310747+01 | 1486230760.31075 | 14/746FEC30              |           87852837936

 2017-02-04 18:52:41.391131+01 | 1486230761.39113 | 14/75733750              |           87869830992

 2017-02-04 18:52:42.466693+01 | 1486230762.46669 | 14/7676F0A8              |           87886852264

 2017-02-04 18:52:43.543406+01 | 1486230763.54341 | 14/777AED00              |           87903890688

 2017-02-04 18:52:44.623876+01 | 1486230764.62388 | 14/787A7920              |           87920638240

 2017-02-04 18:52:45.697135+01 | 1486230765.69713 | 14/79744608              |           87937009160

 2017-02-04 18:52:46.773023+01 | 1486230766.77302 | 14/7A731388              |           87953707912

 2017-02-04 18:52:47.855952+01 | 1486230767.85595 | 14/7B70A658              |           87970326104

 2017-02-04 18:52:48.932972+01 | 1486230768.93297 | 14/7C6CB1C0              |           87986844096

 2017-02-04 18:52:50.018648+01 | 1486230770.01865 | 14/7D70D158              |           88003891544

 2017-02-04 18:52:51.09529+01 | 1486230771.09529 | 14/7E6C86B8              |           88020387512

 2017-02-04 18:52:52.181203+01 | 1486230772.1812 | 14/7F70E740              |           88037451584

 2017-02-04 18:52:53.260851+01 | 1486230773.26085 | 14/807704C0              |           88054629568

 2017-02-04 18:52:54.333499+01 | 1486230774.3335 | 14/81689750              |           88070461264

 2017-02-04 18:52:55.410067+01 | 1486230775.41007 | 14/825E0F80              |           88086548352

 2017-02-04 18:52:56.485758+01 | 1486230776.48576 | 14/8361FEC8              |           88103583432

 2017-02-04 18:52:57.566582+01 | 1486230777.56658 | 14/84642E20              |           88120503840

 2017-02-04 18:52:58.641348+01 | 1486230778.64135 | 14/856AA3D0              |           88137704400

 2017-02-04 18:52:59.727025+01 | 1486230779.72703 | 14/86544368              |           88153015144

 2017-02-04 18:53:00.799909+01 | 1486230780.79991 | 14/8742B410              |           88168641552

 2017-02-04 18:53:01.885311+01 | 1486230781.88531 | 14/882F9B28              |           88184167208

 2017-02-04 18:53:02.965909+01 | 1486230782.96591 | 14/891E1DD0              |           88199798224

 2017-02-04 18:53:04.046604+01 | 1486230784.0466 | 14/8A0F8B18              |           88215620376

 2017-02-04 18:53:05.123992+01 | 1486230785.12399 | 14/8AFE1568              |           88231253352

 2017-02-04 18:53:06.20609+01 | 1486230786.20609 | 14/8BFA7648              |           88247793224

 2017-02-04 18:53:07.281585+01 | 1486230787.28158 | 14/8CE24C48              |           88262986824

 2017-02-04 18:53:08.362448+01 | 1486230788.36245 | 14/8DDCD9B8              |           88279407032

 2017-02-04 18:53:09.443583+01 | 1486230789.44358 | 14/8ED69DD0              |           88295775696

 2017-02-04 18:53:10.517593+01 | 1486230790.51759 | 14/8FD16080              |           88312209536

 2017-02-04 18:53:11.591444+01 | 1486230791.59144 | 14/90DA6E50              |           88329580112

 2017-02-04 18:53:12.669696+01 | 1486230792.6697 | 14/91E4EE00              |           88347045376

 2017-02-04 18:53:13.744434+01 | 1486230793.74443 | 14/92FA1AC8              |           88365210312

 2017-02-04 18:53:14.824231+01 | 1486230794.82423 | 14/9416F1E0              |           88383877600

 2017-02-04 18:53:15.904317+01 | 1486230795.90432 | 14/953386A0              |           88402527904

 2017-02-04 18:53:16.981339+01 | 1486230796.98134 | 14/96504A50              |           88421190224

 2017-02-04 18:53:18.059571+01 | 1486230798.05957 | 14/977F7DE0              |           88441060832

 2017-02-04 18:53:19.133535+01 | 1486230799.13353 | 14/989E7838              |           88459868216

 2017-02-04 18:53:20.211142+01 | 1486230800.21114 | 14/99C9B838              |           88479479864

 2017-02-04 18:53:21.294193+01 | 1486230801.29419 | 14/9B17E728              |           88501380904

 2017-02-04 18:53:22.375035+01 | 1486230802.37504 | 14/9C3D8228              |           88520622632

 2017-02-04 18:53:23.459533+01 | 1486230803.45953 | 14/9D1CD920              |           88535259424

 2017-02-04 18:53:24.53522+01 | 1486230804.53522 | 14/9DFE5410              |           88550036496

 2017-02-04 18:53:25.625498+01 | 1486230805.6255 | 14/9EE8C038              |           88565399608

 2017-02-04 18:53:26.701346+01 | 1486230806.70135 | 14/9FCEE9A0              |           88580483488

 2017-02-04 18:53:27.775258+01 | 1486230807.77526 | 14/A0AE3260              |           88595116640

 2017-02-04 18:53:28.857855+01 | 1486230808.85786 | 14/A19CAF90              |           88610746256

 2017-02-04 18:53:29.93656+01 | 1486230809.93656 | 14/A28B5678              |           88626386552

 2017-02-04 18:53:31.010101+01 | 1486230811.0101 | 14/A373E920              |           88641628448

 2017-02-04 18:53:32.09093+01 | 1486230812.09093 | 14/A4565630              |           88656467504

 2017-02-04 18:53:33.177193+01 | 1486230813.17719 | 14/A54A3AE0              |           88672451296

 2017-02-04 18:53:34.250573+01 | 1486230814.25057 | 14/A63C2268              |           88688304744

 2017-02-04 18:53:35.329587+01 | 1486230815.32959 | 14/A71BD928              |           88702966056

 2017-02-04 18:53:36.407659+01 | 1486230816.40766 | 14/A7F70F80              |           88717332352

 2017-02-04 18:53:37.493393+01 | 1486230817.49339 | 14/A8D6EBF0              |           88732003312

