 2017-02-04 08:08:27.082982+01 | 1486192107.08298 |                 0 |              25 |                394719 |                 6503 |           20937942 |       3502749 |            34449 |        93062703 |                     0 |      94951577 | 2017-02-04 05:57:18.141517+01

 2017-02-04 08:08:28.167285+01 | 1486192108.16728 |                 0 |              25 |                394719 |                 6503 |           20937942 |       3502749 |            34449 |        93062703 |                     0 |      94961152 | 2017-02-04 05:57:18.141517+01

 2017-02-04 08:08:29.26289+01 | 1486192109.26289 |                 0 |              25 |                394719 |                 6503 |           20937942 |       3502749 |            34449 |        93062703 |                     0 |      94978389 | 2017-02-04 05:57:18.141517+01

 2017-02-04 08:08:30.356494+01 | 1486192110.35649 |                 0 |              25 |                394719 |                 6503 |           20937942 |       3502749 |            34449 |        93062703 |                     0 |      94994081 | 2017-02-04 05:57:18.141517+01

 2017-02-04 08:08:31.438916+01 | 1486192111.43892 |                 0 |              25 |                394719 |                 6503 |           20937942 |       3502749 |            34449 |        93062703 |                     0 |      95013217 | 2017-02-04 05:57:18.141517+01

 2017-02-04 08:08:32.514926+01 | 1486192112.51493 |                 0 |              25 |                394719 |                 6503 |           20937942 |       3502749 |            34449 |        93062703 |                     0 |      95031410 | 2017-02-04 05:57:18.141517+01

 2017-02-04 08:08:33.596592+01 | 1486192113.59659 |                 0 |              25 |                394719 |                 6503 |           20937942 |       3502749 |            34449 |        93062703 |                     0 |      95049943 | 2017-02-04 05:57:18.141517+01

 2017-02-04 08:08:34.677996+01 | 1486192114.678 |                 0 |              25 |                394719 |                 6503 |           20937942 |       3502749 |            34449 |        93062703 |                     0 |      95072421 | 2017-02-04 05:57:18.141517+01

 2017-02-04 08:08:35.758153+01 | 1486192115.75815 |                 0 |              25 |                394719 |                 6503 |           20937942 |       3502749 |            34449 |        93062703 |                     0 |      95090859 | 2017-02-04 05:57:18.141517+01

 2017-02-04 08:08:36.846482+01 | 1486192116.84648 |                 0 |              25 |                394719 |                 6503 |           20937942 |       3502749 |            34449 |        93062703 |                     0 |      95109766 | 2017-02-04 05:57:18.141517+01

 2017-02-04 08:08:37.931367+01 | 1486192117.93137 |                 0 |              25 |                394719 |                 6503 |           20937942 |       3502894 |            34449 |        93062703 |                     0 |      95131824 | 2017-02-04 05:57:18.141517+01

 2017-02-04 08:08:39.011544+01 | 1486192119.01154 |                 0 |              25 |                394719 |                 6503 |           20937942 |       3503016 |            34449 |        93062703 |                     0 |      95150588 | 2017-02-04 05:57:18.141517+01

 2017-02-04 08:08:40.094542+01 | 1486192120.09454 |                 0 |              25 |                394719 |                 6503 |           20937942 |       3503147 |            34449 |        93062703 |                     0 |      95170928 | 2017-02-04 05:57:18.141517+01

 2017-02-04 08:08:41.17826+01 | 1486192121.17826 |                 0 |              25 |                394719 |                 6503 |           20937942 |       3503283 |            34449 |        93062703 |                     0 |      95188935 | 2017-02-04 05:57:18.141517+01

 2017-02-04 08:08:42.265354+01 | 1486192122.26535 |                 0 |              25 |                394719 |                 6503 |           20937942 |       3503460 |            34449 |        93062703 |                     0 |      95207732 | 2017-02-04 05:57:18.141517+01

 2017-02-04 08:08:43.352029+01 | 1486192123.35203 |                 0 |              25 |                394719 |                 6503 |           20937942 |       3503691 |            34449 |        93062703 |                     0 |      95230654 | 2017-02-04 05:57:18.141517+01

 2017-02-04 08:08:44.4285+01 | 1486192124.4285 |                 0 |              25 |                394719 |                 6503 |           20937942 |       3503954 |            34449 |        93062703 |                     0 |      95250300 | 2017-02-04 05:57:18.141517+01

 2017-02-04 08:08:45.510455+01 | 1486192125.51045 |                 0 |              25 |                394719 |                 6503 |           20937942 |       3504197 |            34449 |        93062703 |                     0 |      95268197 | 2017-02-04 05:57:18.141517+01

 2017-02-04 08:08:46.588633+01 | 1486192126.58863 |                 0 |              25 |                394719 |                 6503 |           20937942 |       3504654 |            34452 |        93062703 |                     0 |      95292543 | 2017-02-04 05:57:18.141517+01

 2017-02-04 08:08:47.663978+01 | 1486192127.66398 |                 0 |              25 |                394719 |                 6503 |           20937942 |       3505154 |            34457 |        93062703 |                     0 |      95312920 | 2017-02-04 05:57:18.141517+01

 2017-02-04 08:08:48.742251+01 | 1486192128.74225 |                 0 |              25 |                394719 |                 6503 |           20937942 |       3505654 |            34462 |        93062703 |                     0 |      95333803 | 2017-02-04 05:57:18.141517+01

 2017-02-04 08:08:49.825453+01 | 1486192129.82545 |                 0 |              25 |                394719 |                 6503 |           20937942 |       3506254 |            34468 |        93062703 |                     0 |      95358810 | 2017-02-04 05:57:18.141517+01

 2017-02-04 08:08:50.90963+01 | 1486192130.90963 |                 0 |              25 |                394719 |                 6503 |           20937942 |       3506754 |            34473 |        93062703 |                     0 |      95380001 | 2017-02-04 05:57:18.141517+01

 2017-02-04 08:08:51.98319+01 | 1486192131.98319 |                 0 |              25 |                394719 |                 6503 |           20937942 |       3507254 |            34478 |        93062703 |                     0 |      95398312 | 2017-02-04 05:57:18.141517+01

 2017-02-04 08:08:53.070432+01 | 1486192133.07043 |                 0 |              25 |                394719 |                 6503 |           20937942 |       3507854 |            34484 |        93062703 |                     0 |      95423896 | 2017-02-04 05:57:18.141517+01

 2017-02-04 08:08:54.156399+01 | 1486192134.1564 |                 0 |              25 |                394719 |                 6503 |           20937942 |       3508354 |            34489 |        93062703 |                     0 |      95444687 | 2017-02-04 05:57:18.141517+01

 2017-02-04 08:08:55.237643+01 | 1486192135.23764 |                 0 |              25 |                394719 |                 6503 |           20937942 |       3508854 |            34494 |        93062703 |                     0 |      95463753 | 2017-02-04 05:57:18.141517+01

 2017-02-04 08:08:56.319888+01 | 1486192136.31989 |                 0 |              25 |                394719 |                 6503 |           20937942 |       3509454 |            34500 |        93062703 |                     0 |      95484643 | 2017-02-04 05:57:18.141517+01

 2017-02-04 08:08:57.398806+01 | 1486192137.39881 |                 0 |              25 |                394719 |                 6503 |           20937942 |       3509954 |            34505 |        93062703 |                     0 |      95501587 | 2017-02-04 05:57:18.141517+01

 2017-02-04 08:08:58.479149+01 | 1486192138.47915 |                 0 |              25 |                394719 |                 6503 |           20937942 |       3510554 |            34511 |        93062703 |                     0 |      95522663 | 2017-02-04 05:57:18.141517+01

 2017-02-04 08:08:59.564328+01 | 1486192139.56433 |                 0 |              25 |                394719 |                 6503 |           20937942 |       3511054 |            34516 |        93062703 |                     0 |      95538324 | 2017-02-04 05:57:18.141517+01

 2017-02-04 08:09:00.652946+01 | 1486192140.65295 |                 0 |              25 |                394719 |                 6503 |           20937942 |       3511554 |            34521 |        93062703 |                     0 |      95553730 | 2017-02-04 05:57:18.141517+01

 2017-02-04 08:09:01.736207+01 | 1486192141.73621 |                 0 |              25 |                394719 |                 6503 |           20937942 |       3512154 |            34527 |        93062703 |                     0 |      95575330 | 2017-02-04 05:57:18.141517+01

 2017-02-04 08:09:02.80074+01 | 1486192142.80074 |                 0 |              25 |                394719 |                 6503 |           20937942 |       3512654 |            34532 |        93062703 |                     0 |      95590053 | 2017-02-04 05:57:18.141517+01

 2017-02-04 08:09:03.883849+01 | 1486192143.88385 |                 0 |              25 |                394719 |                 6503 |           20937942 |       3513154 |            34537 |        93062703 |                     0 |      95603206 | 2017-02-04 05:57:18.141517+01

 2017-02-04 08:09:04.959977+01 | 1486192144.95998 |                 0 |              25 |                394719 |                 6503 |           20937942 |       3513754 |            34543 |        93062703 |                     0 |      95620048 | 2017-02-04 05:57:18.141517+01

 2017-02-04 08:09:06.031767+01 | 1486192146.03177 |                 0 |              25 |                394719 |                 6503 |           20937942 |       3514254 |            34548 |        93062703 |                     0 |      95635568 | 2017-02-04 05:57:18.141517+01

 2017-02-04 08:09:07.105775+01 | 1486192147.10578 |                 0 |              25 |                394719 |                 6503 |           20937942 |       3514754 |            34553 |        93062703 |                     0 |      95651558 | 2017-02-04 05:57:18.141517+01

 2017-02-04 08:09:08.185332+01 | 1486192148.18533 |                 0 |              25 |                394719 |                 6503 |           20937942 |       3515354 |            34559 |        93062703 |                     0 |      95670986 | 2017-02-04 05:57:18.141517+01

 2017-02-04 08:09:09.267991+01 | 1486192149.26799 |                 0 |              25 |                394719 |                 6503 |           20937942 |       3515854 |            34564 |        93062703 |                     0 |      95685790 | 2017-02-04 05:57:18.141517+01

 2017-02-04 08:09:10.3571+01 | 1486192150.3571 |                 0 |              25 |                394719 |                 6503 |           20937942 |       3516354 |            34569 |        93062703 |                     0 |      95700909 | 2017-02-04 05:57:18.141517+01

 2017-02-04 08:09:11.431249+01 | 1486192151.43125 |                 0 |              25 |                394719 |                 6503 |           20937942 |       3516954 |            34575 |        93062703 |                     0 |      95717570 | 2017-02-04 05:57:18.141517+01

 2017-02-04 08:09:12.495642+01 | 1486192152.49564 |                 0 |              25 |                394719 |                 6503 |           20937942 |       3517454 |            34580 |        93062703 |                     0 |      95732679 | 2017-02-04 05:57:18.141517+01

 2017-02-04 08:09:13.582862+01 | 1486192153.58286 |                 0 |              25 |                394719 |                 6503 |           20937942 |       3517954 |            34585 |        93062703 |                     0 |      95745200 | 2017-02-04 05:57:18.141517+01

 2017-02-04 08:09:14.680662+01 | 1486192154.68066 |                 0 |              25 |                394719 |                 6503 |           20937942 |       3518554 |            34591 |        93062703 |                     0 |      95764015 | 2017-02-04 05:57:18.141517+01

 2017-02-04 08:09:15.774285+01 | 1486192155.77429 |                 0 |              25 |                394719 |                 6503 |           20937942 |       3519054 |            34596 |        93062703 |                     0 |      95782815 | 2017-02-04 05:57:18.141517+01

 2017-02-04 08:09:16.853253+01 | 1486192156.85325 |                 0 |              25 |                394719 |                 6503 |           20937942 |       3519654 |            34602 |        93062703 |                     0 |      95804618 | 2017-02-04 05:57:18.141517+01

 2017-02-04 08:09:17.938029+01 | 1486192157.93803 |                 0 |              25 |                394719 |                 6503 |           20937942 |       3520154 |            34607 |        93062703 |                     0 |      95820043 | 2017-02-04 05:57:18.141517+01

 2017-02-04 08:09:19.028134+01 | 1486192159.02813 |                 0 |              25 |                394719 |                 6503 |           20937942 |       3520654 |            34612 |        93062703 |                     0 |      95838829 | 2017-02-04 05:57:18.141517+01

 2017-02-04 08:09:20.096832+01 | 1486192160.09683 |                 0 |              25 |                394719 |                 6503 |           20937942 |       3521254 |            34618 |        93062703 |                     0 |      95860896 | 2017-02-04 05:57:18.141517+01

 2017-02-04 08:09:21.175504+01 | 1486192161.1755 |                 0 |              25 |                394719 |                 6503 |           20937942 |       3521754 |            34623 |        93062703 |                     0 |      95878847 | 2017-02-04 05:57:18.141517+01

 2017-02-04 08:09:22.256329+01 | 1486192162.25633 |                 0 |              25 |                394719 |                 6503 |           20937942 |       3522254 |            34628 |        93062703 |                     0 |      95896759 | 2017-02-04 05:57:18.141517+01

 2017-02-04 08:09:23.361742+01 | 1486192163.36174 |                 0 |              25 |                394719 |                 6503 |           20937942 |       3522854 |            34634 |        93062703 |                     0 |      95919267 | 2017-02-04 05:57:18.141517+01

 2017-02-04 08:09:24.432628+01 | 1486192164.43263 |                 0 |              25 |                394719 |                 6503 |           20937942 |       3523354 |            34639 |        93566386 |                     0 |      95938063 | 2017-02-04 05:57:18.141517+01

 2017-02-04 08:09:25.509979+01 | 1486192165.50998 |                 0 |              25 |                394719 |                 6503 |           20937942 |       3523854 |            34644 |        93566386 |                     0 |      95956493 | 2017-02-04 05:57:18.141517+01

 2017-02-04 08:09:26.596034+01 | 1486192166.59603 |                 0 |              25 |                394719 |                 6503 |           20937942 |       3524454 |            34650 |        93566386 |                     0 |      95979631 | 2017-02-04 05:57:18.141517+01

 2017-02-04 08:09:27.687964+01 | 1486192167.68796 |                 0 |              25 |                394719 |                 6503 |           20937942 |       3524954 |            34655 |        93566386 |                     0 |      95997764 | 2017-02-04 05:57:18.141517+01

 2017-02-04 08:09:28.777094+01 | 1486192168.77709 |                 0 |              25 |                394719 |                 6503 |           20937942 |       3525454 |            34660 |        93566386 |                     0 |      96015651 | 2017-02-04 05:57:18.141517+01

 2017-02-04 08:09:29.867836+01 | 1486192169.86784 |                 0 |              25 |                394719 |                 6503 |           20937942 |       3526054 |            34666 |        93566386 |                     0 |      96037896 | 2017-02-04 05:57:18.141517+01

 2017-02-04 08:09:30.951574+01 | 1486192170.95157 |                 0 |              25 |                394719 |                 6503 |           20937942 |       3526554 |            34671 |        93566386 |                     0 |      96055599 | 2017-02-04 05:57:18.141517+01

 2017-02-04 08:09:32.037095+01 | 1486192172.0371 |                 0 |              25 |                394719 |                 6503 |           20937942 |       3527154 |            34677 |        93566386 |                     0 |      96076996 | 2017-02-04 05:57:18.141517+01

 2017-02-04 08:09:33.100023+01 | 1486192173.10002 |                 0 |              25 |                394719 |                 6503 |           20937942 |       3527654 |            34682 |        93566386 |                     0 |      96096456 | 2017-02-04 05:57:18.141517+01

 2017-02-04 08:09:34.176902+01 | 1486192174.1769 |                 0 |              25 |                394719 |                 6503 |           20937942 |       3528154 |            34687 |        93566386 |                     0 |      96113634 | 2017-02-04 05:57:18.141517+01

 2017-02-04 08:09:35.262076+01 | 1486192175.26208 |                 0 |              25 |                394719 |                 6503 |           20937942 |       3528754 |            34693 |        93566386 |                     0 |      96136126 | 2017-02-04 05:57:18.141517+01

 2017-02-04 08:09:36.352243+01 | 1486192176.35224 |                 0 |              25 |                394719 |                 6503 |           20937942 |       3529254 |            34698 |        93566386 |                     0 |      96153497 | 2017-02-04 05:57:18.141517+01

 2017-02-04 08:09:37.441753+01 | 1486192177.44175 |                 0 |              25 |                394719 |                 6503 |           20937942 |       3529754 |            34703 |        93566386 |                     0 |      96172109 | 2017-02-04 05:57:18.141517+01

 2017-02-04 08:09:38.519694+01 | 1486192178.51969 |                 0 |              25 |                394719 |                 6503 |           20937942 |       3530354 |            34709 |        93566386 |                     0 |      96193857 | 2017-02-04 05:57:18.141517+01

 2017-02-04 08:09:39.586735+01 | 1486192179.58674 |                 0 |              25 |                394719 |                 6503 |           20937942 |       3530854 |            34714 |        93566386 |                     0 |      96211824 | 2017-02-04 05:57:18.141517+01

 2017-02-04 08:09:40.670986+01 | 1486192180.67099 |                 0 |              25 |                394719 |                 6503 |           20937942 |       3531354 |            34719 |        93566386 |                     0 |      96230315 | 2017-02-04 05:57:18.141517+01

 2017-02-04 08:09:41.753905+01 | 1486192181.75391 |                 0 |              25 |                394719 |                 6503 |           20937942 |       3531954 |            34725 |        93566386 |                     0 |      96252873 | 2017-02-04 05:57:18.141517+01

 2017-02-04 08:09:42.838529+01 | 1486192182.83853 |                 0 |              25 |                394719 |                 6503 |           20937942 |       3532454 |            34730 |        93566386 |                     0 |      96271203 | 2017-02-04 05:57:18.141517+01

 2017-02-04 08:09:43.925324+01 | 1486192183.92532 |                 0 |              25 |                394719 |                 6503 |           20937942 |       3532954 |            34735 |        93566386 |                     0 |      96288361 | 2017-02-04 05:57:18.141517+01

 2017-02-04 08:09:44.999151+01 | 1486192184.99915 |                 0 |              25 |                394719 |                 6503 |           20937942 |       3533554 |            34741 |        93566386 |                     0 |      96309993 | 2017-02-04 05:57:18.141517+01

 2017-02-04 08:09:46.078194+01 | 1486192186.07819 |                 0 |              25 |                394719 |                 6503 |           20937942 |       3534054 |            34746 |        93566386 |                     0 |      96329346 | 2017-02-04 05:57:18.141517+01

 2017-02-04 08:09:47.145713+01 | 1486192187.14571 |                 0 |              25 |                394719 |                 6503 |           20937942 |       3534554 |            34751 |        93566386 |                     0 |      96347935 | 2017-02-04 05:57:18.141517+01

 2017-02-04 08:09:48.222519+01 | 1486192188.22252 |                 0 |              25 |                394719 |                 6503 |           20937942 |       3535154 |            34757 |        93566386 |                     0 |      96370052 | 2017-02-04 05:57:18.141517+01

 2017-02-04 08:09:49.300915+01 | 1486192189.30092 |                 0 |              25 |                394719 |                 6503 |           20937942 |       3535654 |            34762 |        93566386 |                     0 |      96387360 | 2017-02-04 05:57:18.141517+01

 2017-02-04 08:09:50.382235+01 | 1486192190.38224 |                 0 |              25 |                394719 |                 6503 |           20937942 |       3536154 |            34767 |        93566386 |                     0 |      96404641 | 2017-02-04 05:57:18.141517+01

 2017-02-04 08:09:51.47982+01 | 1486192191.47982 |                 0 |              25 |                394719 |                 6503 |           20937942 |       3536754 |            34773 |        94077465 |                     0 |      96427116 | 2017-02-04 05:57:18.141517+01

 2017-02-04 08:09:52.564979+01 | 1486192192.56498 |                 0 |              25 |                394719 |                 6503 |           20937942 |       3537254 |            34778 |        94077465 |                     0 |      96445580 | 2017-02-04 05:57:18.141517+01

 2017-02-04 08:09:53.644127+01 | 1486192193.64413 |                 0 |              25 |                394719 |                 6503 |           20937942 |       3537854 |            34784 |        94077465 |                     0 |      96466165 | 2017-02-04 05:57:18.141517+01

 2017-02-04 08:09:54.722197+01 | 1486192194.7222 |                 0 |              25 |                394719 |                 6503 |           20937942 |       3538154 |            34787 |        94077465 |                     0 |      96478158 | 2017-02-04 05:57:18.141517+01

 2017-02-04 08:09:55.810834+01 | 1486192195.81083 |                 0 |              25 |                394719 |                 6503 |           20937942 |       3538854 |            34794 |        94077465 |                     0 |      96501075 | 2017-02-04 05:57:18.141517+01

 2017-02-04 08:09:56.886761+01 | 1486192196.88676 |                 0 |              25 |                394719 |                 6503 |           20937942 |       3539454 |            34800 |        94077465 |                     0 |      96523532 | 2017-02-04 05:57:18.141517+01

 2017-02-04 08:09:57.963908+01 | 1486192197.96391 |                 0 |              25 |                394719 |                 6503 |           20937942 |       3539954 |            34805 |        94077465 |                     0 |      96538673 | 2017-02-04 05:57:18.141517+01

 2017-02-04 08:09:59.049878+01 | 1486192199.04988 |                 0 |              25 |                394719 |                 6503 |           20937942 |       3540454 |            34810 |        94077465 |                     0 |      96556080 | 2017-02-04 05:57:18.141517+01

 2017-02-04 08:10:00.113335+01 | 1486192200.11333 |                 0 |              25 |                394719 |                 6503 |           20937942 |       3541054 |            34816 |        94077465 |                     0 |      96576888 | 2017-02-04 05:57:18.141517+01

 2017-02-04 08:10:01.189051+01 | 1486192201.18905 |                 0 |              25 |                394719 |                 6503 |           20937942 |       3541554 |            34821 |        94077465 |                     0 |      96593048 | 2017-02-04 05:57:18.141517+01

 2017-02-04 08:10:02.275461+01 | 1486192202.27546 |                 0 |              25 |                394719 |                 6503 |           20937942 |       3542054 |            34826 |        94077465 |                     0 |      96611987 | 2017-02-04 05:57:18.141517+01

 2017-02-04 08:10:03.352021+01 | 1486192203.35202 |                 0 |              25 |                394719 |                 6503 |           20937942 |       3542654 |            34832 |        94077465 |                     0 |      96633541 | 2017-02-04 05:57:18.141517+01

 2017-02-04 08:10:04.43292+01 | 1486192204.43292 |                 0 |              25 |                394719 |                 6503 |           20937942 |       3543154 |            34837 |        94077465 |                     0 |      96647915 | 2017-02-04 05:57:18.141517+01

 2017-02-04 08:10:05.504425+01 | 1486192205.50443 |                 0 |              25 |                394719 |                 6503 |           20937942 |       3543654 |            34842 |        94077465 |                     0 |      96662472 | 2017-02-04 05:57:18.141517+01

 2017-02-04 08:10:06.59115+01 | 1486192206.59115 |                 0 |              25 |                394719 |                 6503 |           20937942 |       3544254 |            34848 |        94077465 |                     0 |      96678147 | 2017-02-04 05:57:18.141517+01

 2017-02-04 08:10:07.675115+01 | 1486192207.67512 |                 0 |              25 |                394719 |                 6503 |           20937942 |       3544754 |            34853 |        94077465 |                     0 |      96692720 | 2017-02-04 05:57:18.141517+01

 2017-02-04 08:10:08.757034+01 | 1486192208.75703 |                 0 |              25 |                394719 |                 6503 |           20937942 |       3545254 |            34858 |        94077465 |                     0 |      96705324 | 2017-02-04 05:57:18.141517+01

 2017-02-04 08:10:09.832937+01 | 1486192209.83294 |                 0 |              25 |                394719 |                 6503 |           20937942 |       3545854 |            34864 |        94077465 |                     0 |      96723043 | 2017-02-04 05:57:18.141517+01

 2017-02-04 08:10:10.921592+01 | 1486192210.92159 |                 0 |              25 |                394719 |                 6503 |           20937942 |       3546354 |            34869 |        94077465 |                     0 |      96738119 | 2017-02-04 05:57:18.141517+01

 2017-02-04 08:10:11.996373+01 | 1486192211.99637 |                 0 |              25 |                394719 |                 6503 |           20937942 |       3546854 |            34874 |        94077465 |                     0 |      96755680 | 2017-02-04 05:57:18.141517+01

 2017-02-04 08:10:13.073802+01 | 1486192213.0738 |                 0 |              25 |                394719 |                 6503 |           20937942 |       3547454 |            34880 |        94077465 |                     0 |      96775608 | 2017-02-04 05:57:18.141517+01

 2017-02-04 08:10:14.162265+01 | 1486192214.16227 |                 0 |              25 |                394719 |                 6503 |           20937942 |       3547954 |            34885 |        94077465 |                     0 |      96792715 | 2017-02-04 05:57:18.141517+01

 2017-02-04 08:10:15.24392+01 | 1486192215.24392 |                 0 |              25 |                394719 |                 6503 |           20937942 |       3548554 |            34891 |        94077465 |                     0 |      96812531 | 2017-02-04 05:57:18.141517+01

 2017-02-04 08:10:16.33044+01 | 1486192216.33044 |                 0 |              25 |                394719 |                 6503 |           20937942 |       3549054 |            34896 |        94077465 |                     0 |      96828725 | 2017-02-04 05:57:18.141517+01

 2017-02-04 08:10:17.409082+01 | 1486192217.40908 |                 0 |              25 |                394719 |                 6503 |           20937942 |       3549554 |            34901 |        94077465 |                     0 |      96845860 | 2017-02-04 05:57:18.141517+01

 2017-02-04 08:10:18.487185+01 | 1486192218.48719 |                 0 |              25 |                394719 |                 6503 |           20937942 |       3550154 |            34907 |        94077465 |                     0 |      96866176 | 2017-02-04 05:57:18.141517+01

 2017-02-04 08:10:19.567024+01 | 1486192219.56702 |                 0 |              25 |                394719 |                 6503 |           20937942 |       3550654 |            34912 |        94077465 |                     0 |      96879492 | 2017-02-04 05:57:18.141517+01

 2017-02-04 08:10:20.643343+01 | 1486192220.64334 |                 0 |              25 |                394719 |                 6503 |           20937942 |       3551154 |            34917 |        94077465 |                     0 |      96893309 | 2017-02-04 05:57:18.141517+01

 2017-02-04 08:10:21.71097+01 | 1486192221.71097 |                 0 |              25 |                394719 |                 6503 |           20937942 |       3551754 |            34923 |        94077465 |                     0 |      96908988 | 2017-02-04 05:57:18.141517+01

 2017-02-04 08:10:22.795902+01 | 1486192222.7959 |                 0 |              25 |                394719 |                 6503 |           20937942 |       3552254 |            34928 |        94586264 |                     0 |      96922239 | 2017-02-04 05:57:18.141517+01

 2017-02-04 08:10:23.893513+01 | 1486192223.89351 |                 0 |              25 |                394719 |                 6503 |           20937942 |       3552754 |            34933 |        94586264 |                     0 |      96936887 | 2017-02-04 05:57:18.141517+01

 2017-02-04 08:10:24.973968+01 | 1486192224.97397 |                 0 |              25 |                394719 |                 6503 |           20937942 |       3553354 |            34939 |        94586264 |                     0 |      96954015 | 2017-02-04 05:57:18.141517+01

 2017-02-04 08:10:26.07069+01 | 1486192226.07069 |                 0 |              25 |                394719 |                 6503 |           20937942 |       3553854 |            34944 |        94586264 |                     0 |      96969812 | 2017-02-04 05:57:18.141517+01

 2017-02-04 08:10:27.155162+01 | 1486192227.15516 |                 0 |              25 |                394719 |                 6503 |           20937942 |       3554354 |            34949 |        94586264 |                     0 |      96987152 | 2017-02-04 05:57:18.141517+01

 2017-02-04 08:10:28.236649+01 | 1486192228.23665 |                 0 |              25 |                394719 |                 6503 |           20937942 |       3554954 |            34955 |        94586264 |                     0 |      97009880 | 2017-02-04 05:57:18.141517+01

 2017-02-04 08:10:29.316172+01 | 1486192229.31617 |                 0 |              25 |                394719 |                 6503 |           20937942 |       3555454 |            34960 |        94586264 |                     0 |      97027446 | 2017-02-04 05:57:18.141517+01

 2017-02-04 08:10:30.4004+01 | 1486192230.4004 |                 0 |              25 |                394719 |                 6503 |           20937942 |       3556054 |            34966 |        94586264 |                     0 |      97049924 | 2017-02-04 05:57:18.141517+01

 2017-02-04 08:10:31.483333+01 | 1486192231.48333 |                 0 |              25 |                394719 |                 6503 |           20937942 |       3556554 |            34971 |        94586264 |                     0 |      97067652 | 2017-02-04 05:57:18.141517+01

 2017-02-04 08:10:32.558308+01 | 1486192232.55831 |                 0 |              25 |                394719 |                 6503 |           20937942 |       3557054 |            34976 |        94586264 |                     0 |      97087714 | 2017-02-04 05:57:18.141517+01

 2017-02-04 08:10:33.639335+01 | 1486192233.63933 |                 0 |              25 |                394719 |                 6503 |           20937942 |       3557654 |            34982 |        94586264 |                     0 |      97108755 | 2017-02-04 05:57:18.141517+01

 2017-02-04 08:10:34.726648+01 | 1486192234.72665 |                 0 |              25 |                394719 |                 6503 |           20937942 |       3558154 |            34987 |        94586264 |                     0 |      97126847 | 2017-02-04 05:57:18.141517+01

 2017-02-04 08:10:35.794491+01 | 1486192235.79449 |                 0 |              25 |                394719 |                 6503 |           20937942 |       3558654 |            34992 |        94586264 |                     0 |      97145855 | 2017-02-04 05:57:18.141517+01

 2017-02-04 08:10:36.874675+01 | 1486192236.87468 |                 0 |              25 |                394719 |                 6503 |           20937942 |       3559254 |            34998 |        94586264 |                     0 |      97167156 | 2017-02-04 05:57:18.141517+01

 2017-02-04 08:10:37.964243+01 | 1486192237.96424 |                 0 |              25 |                394719 |                 6503 |           20937942 |       3559754 |            35003 |        94586264 |                     0 |      97182286 | 2017-02-04 05:57:18.141517+01

 2017-02-04 08:10:39.039176+01 | 1486192239.03918 |                 0 |              25 |                394719 |                 6503 |           20937942 |       3560254 |            35008 |        94586264 |                     0 |      97201474 | 2017-02-04 05:57:18.141517+01

 2017-02-04 08:10:40.123907+01 | 1486192240.12391 |                 0 |              25 |                394719 |                 6503 |           20937942 |       3560854 |            35014 |        94586264 |                     0 |      97223070 | 2017-02-04 05:57:18.141517+01

 2017-02-04 08:10:41.208839+01 | 1486192241.20884 |                 0 |              25 |                394719 |                 6503 |           20937942 |       3561354 |            35019 |        94586264 |                     0 |      97239047 | 2017-02-04 05:57:18.141517+01

 2017-02-04 08:10:42.288276+01 | 1486192242.28828 |                 0 |              25 |                394719 |                 6503 |           20937942 |       3561854 |            35024 |        94586264 |                     0 |      97258628 | 2017-02-04 05:57:18.141517+01

 2017-02-04 08:10:43.372635+01 | 1486192243.37263 |                 0 |              25 |                394719 |                 6503 |           20937942 |       3562454 |            35030 |        94586264 |                     0 |      97279543 | 2017-02-04 05:57:18.141517+01

 2017-02-04 08:10:44.44738+01 | 1486192244.44738 |                 0 |              25 |                394719 |                 6503 |           20937942 |       3562954 |            35035 |        94586264 |                     0 |      97296449 | 2017-02-04 05:57:18.141517+01

 2017-02-04 08:10:45.537194+01 | 1486192245.53719 |                 0 |              25 |                394719 |                 6503 |           20937942 |       3563454 |            35040 |        94586264 |                     0 |      97315509 | 2017-02-04 05:57:18.141517+01

 2017-02-04 08:10:46.625335+01 | 1486192246.62533 |                 0 |              25 |                394719 |                 6503 |           20937942 |       3564054 |            35046 |        94586264 |                     0 |      97336351 | 2017-02-04 05:57:18.141517+01

 2017-02-04 08:10:47.704064+01 | 1486192247.70406 |                 0 |              25 |                394719 |                 6503 |           20937942 |       3564554 |            35051 |        94586264 |                     0 |      97353504 | 2017-02-04 05:57:18.141517+01

 2017-02-04 08:10:48.795016+01 | 1486192248.79502 |                 0 |              25 |                394719 |                 6503 |           20937942 |       3565154 |            35057 |        94586264 |                     0 |      97375751 | 2017-02-04 05:57:18.141517+01

 2017-02-04 08:10:49.888303+01 | 1486192249.8883 |                 0 |              25 |                394719 |                 6503 |           20937942 |       3565654 |            35062 |        94586264 |                     0 |      97394610 | 2017-02-04 05:57:18.141517+01

 2017-02-04 08:10:50.969676+01 | 1486192250.96968 |                 0 |              25 |                394719 |                 6503 |           20937942 |       3566154 |            35067 |        94586264 |                     0 |      97411541 | 2017-02-04 05:57:18.141517+01

 2017-02-04 08:10:52.043866+01 | 1486192252.04387 |                 0 |              25 |                394719 |                 6503 |           20937942 |       3566754 |            35073 |        94586264 |                     0 |      97431982 | 2017-02-04 05:57:18.141517+01

 2017-02-04 08:10:53.127098+01 | 1486192253.1271 |                 0 |              25 |                394719 |                 6503 |           20937942 |       3567254 |            35078 |        95095753 |                     0 |      97446192 | 2017-02-04 05:57:18.141517+01

 2017-02-04 08:10:54.203994+01 | 1486192254.20399 |                 0 |              25 |                394719 |                 6503 |           20937942 |       3567654 |            35082 |        95095753 |                     0 |      97457234 | 2017-02-04 05:57:18.141517+01

 2017-02-04 08:10:55.282711+01 | 1486192255.28271 |                 0 |              25 |                394719 |                 6503 |           20937942 |       3568354 |            35089 |        95095753 |                     0 |      97476279 | 2017-02-04 05:57:18.141517+01

 2017-02-04 08:10:56.358744+01 | 1486192256.35874 |                 0 |              25 |                394719 |                 6503 |           20937942 |       3568854 |            35094 |        95095753 |                     0 |      97488652 | 2017-02-04 05:57:18.141517+01

 2017-02-04 08:10:57.434165+01 | 1486192257.43417 |                 0 |              25 |                394719 |                 6503 |           20937942 |       3569354 |            35099 |        95095753 |                     0 |      97502704 | 2017-02-04 05:57:18.141517+01

 2017-02-04 08:10:58.510265+01 | 1486192258.51027 |                 0 |              25 |                394719 |                 6503 |           20937942 |       3569954 |            35105 |        95095753 |                     0 |      97518039 | 2017-02-04 05:57:18.141517+01

 2017-02-04 08:10:59.593429+01 | 1486192259.59343 |                 0 |              25 |                394719 |                 6503 |           20937942 |       3570454 |            35110 |        95095753 |                     0 |      97530101 | 2017-02-04 05:57:18.141517+01

 2017-02-04 08:11:00.676547+01 | 1486192260.67655 |                 0 |              25 |                394719 |                 6503 |           20937942 |       3570954 |            35115 |        95095753 |                     0 |      97542910 | 2017-02-04 05:57:18.141517+01

 2017-02-04 08:11:01.73986+01 | 1486192261.73986 |                 0 |              25 |                394719 |                 6503 |           20937942 |       3571554 |            35121 |        95095753 |                     0 |      97558967 | 2017-02-04 05:57:18.141517+01

 2017-02-04 08:11:02.814175+01 | 1486192262.81417 |                 0 |              25 |                394719 |                 6503 |           20937942 |       3572054 |            35126 |        95095753 |                     0 |      97571982 | 2017-02-04 05:57:18.141517+01

 2017-02-04 08:11:03.903467+01 | 1486192263.90347 |                 0 |              25 |                394719 |                 6503 |           20937942 |       3572554 |            35131 |        95095753 |                     0 |      97585396 | 2017-02-04 05:57:18.141517+01

 2017-02-04 08:11:04.982632+01 | 1486192264.98263 |                 0 |              25 |                394719 |                 6503 |           20937942 |       3573154 |            35137 |        95095753 |                     0 |      97601318 | 2017-02-04 05:57:18.141517+01

 2017-02-04 08:11:06.0662+01 | 1486192266.0662 |                 0 |              25 |                394719 |                 6503 |           20937942 |       3573654 |            35142 |        95095753 |                     0 |      97612372 | 2017-02-04 05:57:18.141517+01

 2017-02-04 08:11:07.146897+01 | 1486192267.1469 |                 0 |              25 |                394719 |                 6503 |           20937942 |       3574154 |            35147 |        95095753 |                     0 |      97626330 | 2017-02-04 05:57:18.141517+01

 2017-02-04 08:11:08.235498+01 | 1486192268.2355 |                 0 |              25 |                394719 |                 6503 |           20937942 |       3574754 |            35153 |        95095753 |                     0 |      97643408 | 2017-02-04 05:57:18.141517+01

 2017-02-04 08:11:09.314281+01 | 1486192269.31428 |                 0 |              25 |                394719 |                 6503 |           20937942 |       3575254 |            35158 |        95095753 |                     0 |      97655539 | 2017-02-04 05:57:18.141517+01

 2017-02-04 08:11:10.388693+01 | 1486192270.38869 |                 0 |              25 |                394719 |                 6503 |           20937942 |       3575854 |            35164 |        95095753 |                     0 |      97673512 | 2017-02-04 05:57:18.141517+01

 2017-02-04 08:11:11.461236+01 | 1486192271.46124 |                 0 |              25 |                394719 |                 6503 |           20937942 |       3576354 |            35169 |        95095753 |                     0 |      97688591 | 2017-02-04 05:57:18.141517+01

 2017-02-04 08:11:12.540816+01 | 1486192272.54082 |                 0 |              25 |                394719 |                 6503 |           20937942 |       3576854 |            35174 |        95095753 |                     0 |      97702565 | 2017-02-04 05:57:18.141517+01

 2017-02-04 08:11:13.616293+01 | 1486192273.61629 |                 0 |              25 |                394719 |                 6503 |           20937942 |       3577454 |            35180 |        95095753 |                     0 |      97723213 | 2017-02-04 05:57:18.141517+01

 2017-02-04 08:11:14.696016+01 | 1486192274.69602 |                 0 |              25 |                394719 |                 6503 |           20937942 |       3577954 |            35185 |        95095753 |                     0 |      97739328 | 2017-02-04 05:57:18.141517+01

 2017-02-04 08:11:15.774449+01 | 1486192275.77445 |                 0 |              25 |                394719 |                 6503 |           20937942 |       3578454 |            35190 |        95095753 |                     0 |      97759019 | 2017-02-04 05:57:18.141517+01

 2017-02-04 08:11:16.861084+01 | 1486192276.86108 |                 0 |              25 |                394719 |                 6503 |           20937942 |       3579054 |            35196 |        95095753 |                     0 |      97779176 | 2017-02-04 05:57:18.141517+01

 2017-02-04 08:11:17.946882+01 | 1486192277.94688 |                 0 |              25 |                394719 |                 6503 |           20937942 |       3579554 |            35201 |        95095753 |                     0 |      97794394 | 2017-02-04 05:57:18.141517+01

 2017-02-04 08:11:19.034662+01 | 1486192279.03466 |                 0 |              25 |                394719 |                 6503 |           20937942 |       3580054 |            35206 |        95095753 |                     0 |      97812541 | 2017-02-04 05:57:18.141517+01

 2017-02-04 08:11:20.121966+01 | 1486192280.12197 |                 0 |              25 |                394719 |                 6503 |           20937942 |       3580654 |            35212 |        95095753 |                     0 |      97833301 | 2017-02-04 05:57:18.141517+01

 2017-02-04 08:11:21.210154+01 | 1486192281.21015 |                 0 |              25 |                394719 |                 6503 |           20937942 |       3581154 |            35217 |        95095753 |                     0 |      97850095 | 2017-02-04 05:57:18.141517+01

 2017-02-04 08:11:22.302118+01 | 1486192282.30212 |                 0 |              25 |                394719 |                 6503 |           20937942 |       3581754 |            35223 |        95095753 |                     0 |      97871159 | 2017-02-04 05:57:18.141517+01

 2017-02-04 08:11:23.374863+01 | 1486192283.37486 |                 0 |              25 |                394719 |                 6503 |           20937942 |       3582254 |            35228 |        95095753 |                     0 |      97889736 | 2017-02-04 05:57:18.141517+01

 2017-02-04 08:11:24.450396+01 | 1486192284.4504 |                 0 |              25 |                394719 |                 6503 |           20937942 |       3582754 |            35233 |        95095753 |                     0 |      97905887 | 2017-02-04 05:57:18.141517+01

 2017-02-04 08:11:25.531599+01 | 1486192285.5316 |                 0 |              25 |                394719 |                 6503 |           20937942 |       3583254 |            35238 |        95095753 |                     0 |      97924288 | 2017-02-04 05:57:18.141517+01

 2017-02-04 08:11:26.617885+01 | 1486192286.61789 |                 0 |              25 |                394719 |                 6503 |           20937942 |       3583854 |            35244 |        95603141 |                     0 |      97945377 | 2017-02-04 05:57:18.141517+01

 2017-02-04 08:11:27.695412+01 | 1486192287.69541 |                 0 |              25 |                394719 |                 6503 |           20937942 |       3584354 |            35249 |        95603141 |                     0 |      97962631 | 2017-02-04 05:57:18.141517+01

 2017-02-04 08:11:28.77854+01 | 1486192288.77854 |                 0 |              25 |                394719 |                 6503 |           20937942 |       3584954 |            35255 |        95603141 |                     0 |      97983627 | 2017-02-04 05:57:18.141517+01

 2017-02-04 08:11:29.865165+01 | 1486192289.86516 |                 0 |              25 |                394719 |                 6503 |           20937942 |       3585454 |            35260 |        95603141 |                     0 |      98000860 | 2017-02-04 05:57:18.141517+01

 2017-02-04 08:11:30.945672+01 | 1486192290.94567 |                 0 |              25 |                394719 |                 6503 |           20937942 |       3585954 |            35265 |        95603141 |                     0 |      98019578 | 2017-02-04 05:57:18.141517+01

 2017-02-04 08:11:32.047806+01 | 1486192292.04781 |                 0 |              25 |                394719 |                 6503 |           20937942 |       3586554 |            35271 |        95603141 |                     0 |      98040108 | 2017-02-04 05:57:18.141517+01

 2017-02-04 08:11:33.121761+01 | 1486192293.12176 |                 0 |              25 |                394719 |                 6503 |           20937942 |       3587054 |            35276 |        95603141 |                     0 |      98058340 | 2017-02-04 05:57:18.141517+01

 2017-02-04 08:11:34.204614+01 | 1486192294.20461 |                 0 |              25 |                394719 |                 6503 |           20937942 |       3587554 |            35281 |        95603141 |                     0 |      98074650 | 2017-02-04 05:57:18.141517+01

 2017-02-04 08:11:35.295674+01 | 1486192295.29567 |                 0 |              25 |                394719 |                 6503 |           20937942 |       3588154 |            35287 |        95603141 |                     0 |      98095953 | 2017-02-04 05:57:18.141517+01

 2017-02-04 08:11:36.376755+01 | 1486192296.37675 |                 0 |              25 |                394719 |                 6503 |           20937942 |       3588654 |            35292 |        95603141 |                     0 |      98113119 | 2017-02-04 05:57:18.141517+01

 2017-02-04 08:11:37.453446+01 | 1486192297.45345 |                 0 |              25 |                394719 |                 6503 |           20937942 |       3589254 |            35298 |        95603141 |                     0 |      98135301 | 2017-02-04 05:57:18.141517+01

 2017-02-04 08:11:38.536964+01 | 1486192298.53696 |                 0 |              25 |                394719 |                 6503 |           20937942 |       3589754 |            35303 |        95603141 |                     0 |      98152456 | 2017-02-04 05:57:18.141517+01

 2017-02-04 08:11:39.615398+01 | 1486192299.6154 |                 0 |              25 |                394719 |                 6503 |           20937942 |       3590254 |            35308 |        95603141 |                     0 |      98169530 | 2017-02-04 05:57:18.141517+01

 2017-02-04 08:11:40.694168+01 | 1486192300.69417 |                 0 |              25 |                394719 |                 6503 |           20937942 |       3590854 |            35314 |        95603141 |                     0 |      98189993 | 2017-02-04 05:57:18.141517+01

 2017-02-04 08:11:41.778189+01 | 1486192301.77819 |                 0 |              25 |                394719 |                 6503 |           20937942 |       3591354 |            35319 |        95603141 |                     0 |      98209543 | 2017-02-04 05:57:18.141517+01

 2017-02-04 08:11:42.856894+01 | 1486192302.85689 |                 0 |              25 |                394719 |                 6503 |           20937942 |       3591854 |            35324 |        95603141 |                     0 |      98226919 | 2017-02-04 05:57:18.141517+01

 2017-02-04 08:11:43.94612+01 | 1486192303.94612 |                 0 |              25 |                394719 |                 6503 |           20937942 |       3592454 |            35330 |        95603141 |                     0 |      98248686 | 2017-02-04 05:57:18.141517+01

 2017-02-04 08:11:45.035883+01 | 1486192305.03588 |                 0 |              25 |                394719 |                 6503 |           20937942 |       3592954 |            35335 |        95603141 |                     0 |      98264854 | 2017-02-04 05:57:18.141517+01

 2017-02-04 08:11:46.125798+01 | 1486192306.1258 |                 0 |              25 |                394719 |                 6503 |           20937942 |       3593454 |            35340 |        95603141 |                     0 |      98283538 | 2017-02-04 05:57:18.141517+01

 2017-02-04 08:11:47.219411+01 | 1486192307.21941 |                 0 |              25 |                394719 |                 6503 |           20937942 |       3594054 |            35346 |        95603141 |                     0 |      98304848 | 2017-02-04 05:57:18.141517+01

 2017-02-04 08:11:48.309737+01 | 1486192308.30974 |                 0 |              25 |                394719 |                 6503 |           20937942 |       3594554 |            35351 |        95603141 |                     0 |      98323019 | 2017-02-04 05:57:18.141517+01

 2017-02-04 08:11:49.391344+01 | 1486192309.39134 |                 0 |              25 |                394719 |                 6503 |           20937942 |       3595154 |            35357 |        95603141 |                     0 |      98343973 | 2017-02-04 05:57:18.141517+01

 2017-02-04 08:11:50.470173+01 | 1486192310.47017 |                 0 |              25 |                394719 |                 6503 |           20937942 |       3595654 |            35362 |        95603141 |                     0 |      98360755 | 2017-02-04 05:57:18.141517+01

 2017-02-04 08:11:51.563752+01 | 1486192311.56375 |                 0 |              25 |                394719 |                 6503 |           20937942 |       3596154 |            35367 |        95603141 |                     0 |      98378750 | 2017-02-04 05:57:18.141517+01

 2017-02-04 08:11:52.649046+01 | 1486192312.64905 |                 0 |              25 |                394719 |                 6503 |           20937942 |       3596754 |            35373 |        95603141 |                     0 |      98400158 | 2017-02-04 05:57:18.141517+01

 2017-02-04 08:11:53.735447+01 | 1486192313.73545 |                 0 |              25 |                394719 |                 6503 |           20937942 |       3597254 |            35378 |        95603141 |                     0 |      98419968 | 2017-02-04 05:57:18.141517+01

 2017-02-04 08:11:54.813381+01 | 1486192314.81338 |                 0 |              25 |                394719 |                 6503 |           20937942 |       3597754 |            35383 |        96113751 |                     0 |      98438398 | 2017-02-04 05:57:18.141517+01

 2017-02-04 08:11:55.895475+01 | 1486192315.89547 |                 0 |              25 |                394719 |                 6503 |           20937942 |       3598354 |            35389 |        96113751 |                     0 |      98460233 | 2017-02-04 05:57:18.141517+01

 2017-02-04 08:11:56.977693+01 | 1486192316.97769 |                 0 |              25 |                394719 |                 6503 |           20937942 |       3598854 |            35394 |        96113751 |                     0 |      98476948 | 2017-02-04 05:57:18.141517+01

 2017-02-04 08:11:58.050434+01 | 1486192318.05043 |                 0 |              25 |                394719 |                 6503 |           20937942 |       3599454 |            35400 |        96113751 |                     0 |      98498928 | 2017-02-04 05:57:18.141517+01

 2017-02-04 08:11:59.13096+01 | 1486192319.13096 |                 0 |              25 |                394719 |                 6503 |           20937942 |       3599954 |            35405 |        96113751 |                     0 |      98517072 | 2017-02-04 05:57:18.141517+01

 2017-02-04 08:12:00.221347+01 | 1486192320.22135 |                 0 |              25 |                394719 |                 6503 |           20937942 |       3600454 |            35410 |        96113751 |                     0 |      98532707 | 2017-02-04 05:57:18.141517+01

 2017-02-04 08:12:01.322124+01 | 1486192321.32212 |                 0 |              25 |                394719 |                 6503 |           20937942 |       3601054 |            35416 |        96113751 |                     0 |      98554482 | 2017-02-04 05:57:18.141517+01

 2017-02-04 08:12:02.402826+01 | 1486192322.40283 |                 0 |              25 |                394719 |                 6503 |           20937942 |       3601554 |            35421 |        96113751 |                     0 |      98573149 | 2017-02-04 05:57:18.141517+01

 2017-02-04 08:12:03.489227+01 | 1486192323.48923 |                 0 |              25 |                394719 |                 6503 |           20937942 |       3602054 |            35426 |        96113751 |                     0 |      98589375 | 2017-02-04 05:57:18.141517+01

 2017-02-04 08:12:04.594541+01 | 1486192324.59454 |                 0 |              25 |                394719 |                 6503 |           20937942 |       3602654 |            35432 |        96113751 |                     0 |      98610224 | 2017-02-04 05:57:18.141517+01

 2017-02-04 08:12:05.670185+01 | 1486192325.67019 |                 0 |              25 |                394719 |                 6503 |           20937942 |       3603154 |            35437 |        96113751 |                     0 |      98627622 | 2017-02-04 05:57:18.141517+01

 2017-02-04 08:12:06.751741+01 | 1486192326.75174 |                 0 |              25 |                394719 |                 6503 |           20937942 |       3603754 |            35443 |        96113751 |                     0 |      98649301 | 2017-02-04 05:57:18.141517+01

 2017-02-04 08:12:07.837593+01 | 1486192327.83759 |                 0 |              25 |                394719 |                 6503 |           20937942 |       3604254 |            35448 |        96113751 |                     0 |      98666339 | 2017-02-04 05:57:18.141517+01

 2017-02-04 08:12:08.9209+01 | 1486192328.9209 |                 0 |              25 |                394719 |                 6503 |           20937942 |       3604754 |            35453 |        96113751 |                     0 |      98684606 | 2017-02-04 05:57:18.141517+01

 2017-02-04 08:12:10.002551+01 | 1486192330.00255 |                 0 |              25 |                394719 |                 6503 |           20937942 |       3605354 |            35459 |        96113751 |                     0 |      98706774 | 2017-02-04 05:57:18.141517+01

 2017-02-04 08:12:11.085966+01 | 1486192331.08597 |                 0 |              25 |                394719 |                 6503 |           20937942 |       3605854 |            35464 |        96113751 |                     0 |      98725455 | 2017-02-04 05:57:18.141517+01

 2017-02-04 08:12:12.173796+01 | 1486192332.1738 |                 0 |              25 |                394719 |                 6503 |           20937942 |       3606354 |            35469 |        96113751 |                     0 |      98745671 | 2017-02-04 05:57:18.141517+01

 2017-02-04 08:12:13.255906+01 | 1486192333.25591 |                 0 |              25 |                394719 |                 6503 |           20937942 |       3606954 |            35475 |        96113751 |                     0 |      98767593 | 2017-02-04 05:57:18.141517+01

 2017-02-04 08:12:14.331082+01 | 1486192334.33108 |                 0 |              25 |                394719 |                 6503 |           20937942 |       3607454 |            35480 |        96113751 |                     0 |      98786271 | 2017-02-04 05:57:18.141517+01

 2017-02-04 08:12:15.409871+01 | 1486192335.40987 |                 0 |              25 |                394719 |                 6503 |           20937942 |       3607954 |            35485 |        96113751 |                     0 |      98804025 | 2017-02-04 05:57:18.141517+01

 2017-02-04 08:12:16.489466+01 | 1486192336.48947 |                 0 |              25 |                394719 |                 6503 |           20937942 |       3608554 |            35491 |        96113751 |                     0 |      98827724 | 2017-02-04 05:57:18.141517+01

 2017-02-04 08:12:17.566679+01 | 1486192337.56668 |                 0 |              25 |                394719 |                 6503 |           20937942 |       3609054 |            35496 |        96113751 |                     0 |      98844989 | 2017-02-04 05:57:18.141517+01

 2017-02-04 08:12:18.656905+01 | 1486192338.6569 |                 0 |              25 |                394719 |                 6503 |           20937942 |       3609554 |            35501 |        96113751 |                     0 |      98863407 | 2017-02-04 05:57:18.141517+01

 2017-02-04 08:12:19.733156+01 | 1486192339.73316 |                 0 |              25 |                394719 |                 6503 |           20937942 |       3610154 |            35507 |        96113751 |                     0 |      98885909 | 2017-02-04 05:57:18.141517+01

 2017-02-04 08:12:20.820854+01 | 1486192340.82085 |                 0 |              25 |                394719 |                 6503 |           20937942 |       3610654 |            35512 |        96113751 |                     0 |      98905361 | 2017-02-04 05:57:18.141517+01

 2017-02-04 08:12:21.905064+01 | 1486192341.90506 |                 0 |              25 |                394719 |                 6503 |           20937942 |       3611254 |            35518 |        96624622 |                     0 |      98926821 | 2017-02-04 05:57:18.141517+01

 2017-02-04 08:12:22.977585+01 | 1486192342.97759 |                 0 |              25 |                394719 |                 6503 |           20937942 |       3611754 |            35523 |        96624622 |                     0 |      98946599 | 2017-02-04 05:57:18.141517+01

 2017-02-04 08:12:24.058075+01 | 1486192344.05807 |                 0 |              25 |                394719 |                 6503 |           20937942 |       3612254 |            35528 |        96624622 |                     0 |      98963609 | 2017-02-04 05:57:18.141517+01

 2017-02-04 08:12:25.138042+01 | 1486192345.13804 |                 0 |              25 |                394719 |                 6503 |           20937942 |       3612854 |            35534 |        96624622 |                     0 |      98987664 | 2017-02-04 05:57:18.141517+01

 2017-02-04 08:12:26.220773+01 | 1486192346.22077 |                 0 |              25 |                394719 |                 6503 |           20937942 |       3613354 |            35539 |        96624622 |                     0 |      99005633 | 2017-02-04 05:57:18.141517+01

 2017-02-04 08:12:27.304074+01 | 1486192347.30407 |                 0 |              25 |                394719 |                 6503 |           20937942 |       3613854 |            35544 |        96624622 |                     0 |      99023822 | 2017-02-04 05:57:18.141517+01

 2017-02-04 08:12:28.380356+01 | 1486192348.38036 |                 0 |              25 |                394719 |                 6503 |           20937942 |       3614454 |            35550 |        96624622 |                     0 |      99046853 | 2017-02-04 05:57:18.141517+01

 2017-02-04 08:12:29.459301+01 | 1486192349.4593 |                 0 |              25 |                394719 |                 6503 |           20937942 |       3614954 |            35555 |        96624622 |                     0 |      99065640 | 2017-02-04 05:57:18.141517+01

 2017-02-04 08:12:30.538802+01 | 1486192350.5388 |                 0 |              25 |                394719 |                 6503 |           20937942 |       3615454 |            35560 |        96624622 |                     0 |      99085172 | 2017-02-04 05:57:18.141517+01

 2017-02-04 08:12:31.61354+01 | 1486192351.61354 |                 0 |              25 |                394719 |                 6503 |           20937942 |       3616054 |            35566 |        96624622 |                     0 |      99107283 | 2017-02-04 05:57:18.141517+01

 2017-02-04 08:12:32.697811+01 | 1486192352.69781 |                 0 |              25 |                394719 |                 6503 |           20937942 |       3616554 |            35571 |        96624622 |                     0 |      99125119 | 2017-02-04 05:57:18.141517+01

 2017-02-04 08:12:33.801055+01 | 1486192353.80105 |                 0 |              25 |                394719 |                 6503 |           20937942 |       3617054 |            35576 |        96624622 |                     0 |      99144719 | 2017-02-04 05:57:18.141517+01

 2017-02-04 08:12:34.88528+01 | 1486192354.88528 |                 0 |              25 |                394719 |                 6503 |           20937942 |       3617654 |            35582 |        96624622 |                     0 |      99170370 | 2017-02-04 05:57:18.141517+01

 2017-02-04 08:12:35.954717+01 | 1486192355.95472 |                 0 |              25 |                394719 |                 6503 |           20937942 |       3618154 |            35587 |        96624622 |                     0 |      99191523 | 2017-02-04 05:57:18.141517+01

 2017-02-04 08:12:37.027406+01 | 1486192357.02741 |                 0 |              25 |                394719 |                 6503 |           20937942 |       3618754 |            35593 |        96624622 |                     0 |      99217107 | 2017-02-04 05:57:18.141517+01

 2017-02-04 08:12:38.10891+01 | 1486192358.10891 |                 0 |              25 |                394719 |                 6503 |           20937942 |       3619254 |            35598 |        96624622 |                     0 |      99234603 | 2017-02-04 05:57:18.141517+01

 2017-02-04 08:12:39.198073+01 | 1486192359.19807 |                 0 |              25 |                394719 |                 6503 |           20937942 |       3619754 |            35603 |        96624622 |                     0 |      99252475 | 2017-02-04 05:57:18.141517+01

 2017-02-04 08:12:40.291132+01 | 1486192360.29113 |                 0 |              25 |                394719 |                 6503 |           20937942 |       3620354 |            35609 |        96624622 |                     0 |      99274384 | 2017-02-04 05:57:18.141517+01

 2017-02-04 08:12:41.378217+01 | 1486192361.37822 |                 0 |              25 |                394719 |                 6503 |           20937942 |       3620854 |            35614 |        96624622 |                     0 |      99292976 | 2017-02-04 05:57:18.141517+01

 2017-02-04 08:12:42.466333+01 | 1486192362.46633 |                 0 |              25 |                394719 |                 6503 |           20937942 |       3621354 |            35619 |        96624622 |                     0 |      99311075 | 2017-02-04 05:57:18.141517+01

 2017-02-04 08:12:43.554045+01 | 1486192363.55404 |                 0 |              25 |                394719 |                 6503 |           20937942 |       3621954 |            35625 |        96624622 |                     0 |      99332598 | 2017-02-04 05:57:18.141517+01

 2017-02-04 08:12:44.638854+01 | 1486192364.63885 |                 0 |              25 |                394719 |                 6503 |           20937942 |       3622454 |            35630 |        96624622 |                     0 |      99349185 | 2017-02-04 05:57:18.141517+01

 2017-02-04 08:12:45.717458+01 | 1486192365.71746 |                 0 |              25 |                394719 |                 6503 |           20937942 |       3622954 |            35635 |        96624622 |                     0 |      99368391 | 2017-02-04 05:57:18.141517+01

 2017-02-04 08:12:46.791252+01 | 1486192366.79125 |                 0 |              25 |                394719 |                 6503 |           20937942 |       3623554 |            35641 |        96624622 |                     0 |      99390825 | 2017-02-04 05:57:18.141517+01

 2017-02-04 08:12:47.874619+01 | 1486192367.87462 |                 0 |              25 |                394719 |                 6503 |           20937942 |       3624054 |            35646 |        96624622 |                     0 |      99407455 | 2017-02-04 05:57:18.141517+01

 2017-02-04 08:12:48.956595+01 | 1486192368.95659 |                 0 |              25 |                394719 |                 6503 |           20937942 |       3624654 |            35652 |        97135512 |                     0 |      99429624 | 2017-02-04 05:57:18.141517+01

 2017-02-04 08:12:50.057146+01 | 1486192370.05715 |                 0 |              25 |                394719 |                 6503 |           20937942 |       3625154 |            35657 |        97135512 |                     0 |      99450156 | 2017-02-04 05:57:18.141517+01

 2017-02-04 08:12:51.143662+01 | 1486192371.14366 |                 0 |              25 |                394719 |                 6503 |           20937942 |       3625654 |            35662 |        97135512 |                     0 |      99467868 | 2017-02-04 05:57:18.141517+01

 2017-02-04 08:12:52.220504+01 | 1486192372.2205 |                 0 |              25 |                394719 |                 6503 |           20937942 |       3626154 |            35667 |        97135512 |                     0 |      99486777 | 2017-02-04 05:57:18.141517+01

 2017-02-04 08:12:53.295734+01 | 1486192373.29573 |                 0 |              25 |                394719 |                 6503 |           20937942 |       3626554 |            35671 |        97135512 |                     0 |      99500134 | 2017-02-04 05:57:18.141517+01

 2017-02-04 08:12:54.376407+01 | 1486192374.37641 |                 0 |              25 |                394719 |                 6503 |           20937942 |       3627254 |            35678 |        97135512 |                     0 |      99522690 | 2017-02-04 05:57:18.141517+01

 2017-02-04 08:12:55.461638+01 | 1486192375.46164 |                 0 |              25 |                394719 |                 6503 |           20937942 |       3627854 |            35684 |        97135512 |                     0 |      99535718 | 2017-02-04 05:57:18.141517+01

 2017-02-04 08:12:56.544503+01 | 1486192376.5445 |                 0 |              25 |                394719 |                 6503 |           20937942 |       3628354 |            35689 |        97135512 |                     0 |      99551367 | 2017-02-04 05:57:18.141517+01

 2017-02-04 08:12:57.62705+01 | 1486192377.62705 |                 0 |              25 |                394719 |                 6503 |           20937942 |       3628854 |            35694 |        97135512 |                     0 |      99564793 | 2017-02-04 05:57:18.141517+01

 2017-02-04 08:12:58.708004+01 | 1486192378.708 |                 0 |              25 |                394719 |                 6503 |           20937942 |       3629454 |            35700 |        97135512 |                     0 |      99581848 | 2017-02-04 05:57:18.141517+01

 2017-02-04 08:12:59.793717+01 | 1486192379.79372 |                 0 |              25 |                394719 |                 6503 |           20937942 |       3629954 |            35705 |        97135512 |                     0 |      99600464 | 2017-02-04 05:57:18.141517+01

 2017-02-04 08:13:00.875855+01 | 1486192380.87585 |                 0 |              25 |                394719 |                 6503 |           20937942 |       3630554 |            35711 |        97135512 |                     0 |      99621191 | 2017-02-04 05:57:18.141517+01

 2017-02-04 08:13:01.958804+01 | 1486192381.9588 |                 0 |              25 |                394719 |                 6503 |           20937942 |       3631054 |            35716 |        97135512 |                     0 |      99639418 | 2017-02-04 05:57:18.141517+01

 2017-02-04 08:13:03.028287+01 | 1486192383.02829 |                 0 |              25 |                394719 |                 6503 |           20937942 |       3631554 |            35721 |        97135512 |                     0 |      99657310 | 2017-02-04 05:57:18.141517+01

 2017-02-04 08:13:04.112483+01 | 1486192384.11248 |                 0 |              25 |                394719 |                 6503 |           20937942 |       3632154 |            35727 |        97135512 |                     0 |      99678129 | 2017-02-04 05:57:18.141517+01

 2017-02-04 08:13:05.207424+01 | 1486192385.20742 |                 0 |              25 |                394719 |                 6503 |           20937942 |       3632654 |            35732 |        97135512 |                     0 |      99695091 | 2017-02-04 05:57:18.141517+01

 2017-02-04 08:13:06.295085+01 | 1486192386.29508 |                 0 |              25 |                394719 |                 6503 |           20937942 |       3633154 |            35737 |        97135512 |                     0 |      99713192 | 2017-02-04 05:57:18.141517+01

 2017-02-04 08:13:07.385057+01 | 1486192387.38506 |                 0 |              25 |                394719 |                 6503 |           20937942 |       3633754 |            35743 |        97135512 |                     0 |      99734429 | 2017-02-04 05:57:18.141517+01

 2017-02-04 08:13:08.453783+01 | 1486192388.45378 |                 0 |              25 |                394719 |                 6503 |           20937942 |       3634254 |            35748 |        97135512 |                     0 |      99753595 | 2017-02-04 05:57:18.141517+01

 2017-02-04 08:13:09.531953+01 | 1486192389.53195 |                 0 |              25 |                394719 |                 6503 |           20937942 |       3634754 |            35753 |        97135512 |                     0 |      99770327 | 2017-02-04 05:57:18.141517+01

 2017-02-04 08:13:10.620971+01 | 1486192390.62097 |                 0 |              25 |                394719 |                 6503 |           20937942 |       3635354 |            35759 |        97135512 |                     0 |      99792853 | 2017-02-04 05:57:18.141517+01

 2017-02-04 08:13:11.705659+01 | 1486192391.70566 |                 0 |              25 |                394719 |                 6503 |           20937942 |       3635854 |            35764 |        97135512 |                     0 |      99809818 | 2017-02-04 05:57:18.141517+01

 2017-02-04 08:13:12.79515+01 | 1486192392.79515 |                 0 |              25 |                394719 |                 6503 |           20937942 |       3636454 |            35770 |        97135512 |                     0 |      99830902 | 2017-02-04 05:57:18.141517+01

 2017-02-04 08:13:13.86631+01 | 1486192393.86631 |                 0 |              25 |                394719 |                 6503 |           20937942 |       3636954 |            35775 |        97135512 |                     0 |      99850595 | 2017-02-04 05:57:18.141517+01

 2017-02-04 08:13:14.944924+01 | 1486192394.94492 |                 0 |              25 |                394719 |                 6503 |           20937942 |       3637454 |            35780 |        97135512 |                     0 |      99868066 | 2017-02-04 05:57:18.141517+01

 2017-02-04 08:13:16.030587+01 | 1486192396.03059 |                 0 |              25 |                394719 |                 6503 |           20937942 |       3638054 |            35786 |        97135512 |                     0 |      99889896 | 2017-02-04 05:57:18.141517+01

 2017-02-04 08:13:17.114576+01 | 1486192397.11458 |                 0 |              25 |                394719 |                 6503 |           20937942 |       3638554 |            35791 |        97135512 |                     0 |      99907732 | 2017-02-04 05:57:18.141517+01

 2017-02-04 08:13:18.195411+01 | 1486192398.19541 |                 0 |              25 |                394719 |                 6503 |           20937942 |       3639054 |            35796 |        97645300 |                     0 |      99925644 | 2017-02-04 05:57:18.141517+01

 2017-02-04 08:13:19.288774+01 | 1486192399.28877 |                 0 |              25 |                394719 |                 6503 |           20937942 |       3639654 |            35802 |        97645300 |                     0 |      99946043 | 2017-02-04 05:57:18.141517+01

 2017-02-04 08:13:20.378197+01 | 1486192400.3782 |                 0 |              25 |                394719 |                 6503 |           20937942 |       3640154 |            35807 |        97645300 |                     0 |      99964220 | 2017-02-04 05:57:18.141517+01

 2017-02-04 08:13:21.464536+01 | 1486192401.46454 |                 0 |              25 |                394719 |                 6503 |           20937942 |       3640654 |            35812 |        97645300 |                     0 |      99983104 | 2017-02-04 05:57:18.141517+01

 2017-02-04 08:13:22.559627+01 | 1486192402.55963 |                 0 |              25 |                394719 |                 6503 |           20937942 |       3641254 |            35818 |        97645300 |                     0 |     100005586 | 2017-02-04 05:57:18.141517+01

 2017-02-04 08:13:23.635594+01 | 1486192403.63559 |                 0 |              25 |                394719 |                 6503 |           20937942 |       3641754 |            35823 |        97645300 |                     0 |     100024150 | 2017-02-04 05:57:18.141517+01

 2017-02-04 08:13:24.715063+01 | 1486192404.71506 |                 0 |              25 |                394719 |                 6503 |           20937942 |       3642354 |            35829 |        97645300 |                     0 |     100039888 | 2017-02-04 05:57:18.141517+01

 2017-02-04 08:13:25.796088+01 | 1486192405.79609 |                 0 |              25 |                394719 |                 6503 |           20937942 |       3642854 |            35834 |        97645300 |                     0 |     100055081 | 2017-02-04 05:57:18.141517+01

 2017-02-04 08:13:26.879571+01 | 1486192406.87957 |                 0 |              25 |                394719 |                 6503 |           20937942 |       3643354 |            35839 |        97645300 |                     0 |     100067575 | 2017-02-04 05:57:18.141517+01

