 2017-02-05 01:06:32.191548+01 | 1486253192.19155 |                 0 |              27 |                 41253 |                 1748 |            4918123 |             0 |                0 |          493952 |                     0 |        197895 | 2017-02-04 22:55:19.380096+01

 2017-02-05 01:06:33.269851+01 | 1486253193.26985 |                 0 |              27 |                 41253 |                 1748 |            4918123 |             0 |                0 |          493952 |                     0 |        197895 | 2017-02-04 22:55:19.380096+01

 2017-02-05 01:06:34.339793+01 | 1486253194.33979 |                 0 |              27 |                 41253 |                 1748 |            4918123 |             0 |                0 |          493952 |                     0 |        197895 | 2017-02-04 22:55:19.380096+01

 2017-02-05 01:06:35.424547+01 | 1486253195.42455 |                 0 |              27 |                 41253 |                 1748 |            4918123 |             0 |                0 |          493952 |                     0 |        197895 | 2017-02-04 22:55:19.380096+01

 2017-02-05 01:06:36.49944+01 | 1486253196.49944 |                 0 |              27 |                 41253 |                 1748 |            4918123 |             0 |                0 |          493952 |                     0 |        197895 | 2017-02-04 22:55:19.380096+01

 2017-02-05 01:06:37.589029+01 | 1486253197.58903 |                 0 |              27 |                 41253 |                 1748 |            4918123 |             0 |                0 |          493952 |                     0 |        197895 | 2017-02-04 22:55:19.380096+01

 2017-02-05 01:06:38.658471+01 | 1486253198.65847 |                 0 |              27 |                 41253 |                 1748 |            4918123 |             0 |                0 |          493952 |                     0 |        197895 | 2017-02-04 22:55:19.380096+01

 2017-02-05 01:06:39.723173+01 | 1486253199.72317 |                 0 |              27 |                 41253 |                 1748 |            4918123 |             0 |                0 |          493952 |                     0 |        197895 | 2017-02-04 22:55:19.380096+01

 2017-02-05 01:06:40.807605+01 | 1486253200.80761 |                 0 |              27 |                 41253 |                 1748 |            4918123 |             0 |                0 |          493952 |                     0 |        197895 | 2017-02-04 22:55:19.380096+01

 2017-02-05 01:06:41.894379+01 | 1486253201.89438 |                 0 |              27 |                 41253 |                 1748 |            4918123 |             0 |                0 |          493952 |                     0 |        197895 | 2017-02-04 22:55:19.380096+01

 2017-02-05 01:06:42.974423+01 | 1486253202.97442 |                 0 |              27 |                 41253 |                 1748 |            4918123 |             0 |                0 |          493952 |                     0 |        197895 | 2017-02-04 22:55:19.380096+01

 2017-02-05 01:06:44.049208+01 | 1486253204.04921 |                 0 |              27 |                 41253 |                 1748 |            4918123 |             0 |                0 |          493952 |                     0 |        197895 | 2017-02-04 22:55:19.380096+01

 2017-02-05 01:06:45.137293+01 | 1486253205.13729 |                 0 |              27 |                 41253 |                 1748 |            4918123 |             0 |                0 |          493952 |                     0 |        197895 | 2017-02-04 22:55:19.380096+01

 2017-02-05 01:06:46.210418+01 | 1486253206.21042 |                 0 |              27 |                 41253 |                 1748 |            4918123 |             0 |                0 |          493952 |                     0 |        197895 | 2017-02-04 22:55:19.380096+01

 2017-02-05 01:06:47.2861+01 | 1486253207.2861 |                 0 |              27 |                 41253 |                 1748 |            4918123 |             0 |                0 |          493952 |                     0 |        197895 | 2017-02-04 22:55:19.380096+01

 2017-02-05 01:06:48.363395+01 | 1486253208.36339 |                 0 |              27 |                 41253 |                 1748 |            4918123 |             0 |                0 |          493952 |                     0 |        197895 | 2017-02-04 22:55:19.380096+01

 2017-02-05 01:06:49.454743+01 | 1486253209.45474 |                 0 |              27 |                 41253 |                 1748 |            4918123 |             0 |                0 |          493952 |                     0 |        197895 | 2017-02-04 22:55:19.380096+01

 2017-02-05 01:06:50.545436+01 | 1486253210.54544 |                 0 |              27 |                 41253 |                 1748 |            4918123 |             0 |                0 |          493952 |                     0 |        197895 | 2017-02-04 22:55:19.380096+01

 2017-02-05 01:06:51.61661+01 | 1486253211.61661 |                 0 |              27 |                 41253 |                 1748 |            4918123 |             0 |                0 |          493952 |                     0 |        197895 | 2017-02-04 22:55:19.380096+01

 2017-02-05 01:06:52.705638+01 | 1486253212.70564 |                 0 |              27 |                 41253 |                 1748 |            4918123 |             0 |                0 |          493952 |                     0 |        197895 | 2017-02-04 22:55:19.380096+01

 2017-02-05 01:06:53.780572+01 | 1486253213.78057 |                 0 |              27 |                 41253 |                 1748 |            4918123 |             0 |                0 |          493952 |                     0 |        197895 | 2017-02-04 22:55:19.380096+01

 2017-02-05 01:06:54.860392+01 | 1486253214.86039 |                 0 |              27 |                 41253 |                 1748 |            4918123 |             0 |                0 |          493952 |                     0 |        197895 | 2017-02-04 22:55:19.380096+01

 2017-02-05 01:06:55.943509+01 | 1486253215.94351 |                 0 |              27 |                 41253 |                 1748 |            4918123 |             0 |                0 |          493952 |                     0 |        197895 | 2017-02-04 22:55:19.380096+01

 2017-02-05 01:06:57.014173+01 | 1486253217.01417 |                 0 |              27 |                 41253 |                 1748 |            4918123 |             0 |                0 |          493952 |                     0 |        197895 | 2017-02-04 22:55:19.380096+01

 2017-02-05 01:06:58.091556+01 | 1486253218.09156 |                 0 |              27 |                 41253 |                 1748 |            4918123 |             0 |                0 |          493952 |                     0 |        197895 | 2017-02-04 22:55:19.380096+01

 2017-02-05 01:06:59.168666+01 | 1486253219.16867 |                 0 |              27 |                 41253 |                 1748 |            4918123 |             0 |                0 |          493952 |                     0 |        197895 | 2017-02-04 22:55:19.380096+01

 2017-02-05 01:07:00.237692+01 | 1486253220.23769 |                 0 |              27 |                 41253 |                 1748 |            4918123 |             0 |                0 |          493952 |                     0 |        197895 | 2017-02-04 22:55:19.380096+01

 2017-02-05 01:07:01.311596+01 | 1486253221.3116 |                 0 |              27 |                 41253 |                 1748 |            4918123 |             0 |                0 |          493952 |                     0 |        197895 | 2017-02-04 22:55:19.380096+01

 2017-02-05 01:07:02.375991+01 | 1486253222.37599 |                 0 |              27 |                 41253 |                 1748 |            4918123 |             0 |                0 |          493952 |                     0 |        197895 | 2017-02-04 22:55:19.380096+01

 2017-02-05 01:07:03.455426+01 | 1486253223.45543 |                 0 |              27 |                 41253 |                 1748 |            4918123 |             0 |                0 |          493952 |                     0 |        197895 | 2017-02-04 22:55:19.380096+01

 2017-02-05 01:07:04.534088+01 | 1486253224.53409 |                 0 |              27 |                 41253 |                 1748 |            4918123 |             0 |                0 |          493952 |                     0 |        197895 | 2017-02-04 22:55:19.380096+01

 2017-02-05 01:07:05.614051+01 | 1486253225.61405 |                 0 |              27 |                 41253 |                 1748 |            4918123 |             0 |                0 |          493952 |                     0 |        197895 | 2017-02-04 22:55:19.380096+01

 2017-02-05 01:07:06.701112+01 | 1486253226.70111 |                 0 |              27 |                 41253 |                 1748 |            4918123 |             0 |                0 |          493952 |                     0 |        197895 | 2017-02-04 22:55:19.380096+01

 2017-02-05 01:07:07.791158+01 | 1486253227.79116 |                 0 |              27 |                 41253 |                 1748 |            4918123 |             0 |                0 |          493952 |                     0 |        197895 | 2017-02-04 22:55:19.380096+01

 2017-02-05 01:07:08.881358+01 | 1486253228.88136 |                 0 |              27 |                 41253 |                 1748 |            4918123 |             0 |                0 |          493952 |                     0 |        197895 | 2017-02-04 22:55:19.380096+01

 2017-02-05 01:07:09.962142+01 | 1486253229.96214 |                 0 |              27 |                 41253 |                 1748 |            4918123 |             0 |                0 |          493952 |                     0 |        197895 | 2017-02-04 22:55:19.380096+01

 2017-02-05 01:07:11.044939+01 | 1486253231.04494 |                 0 |              27 |                 41253 |                 1748 |            4918123 |             0 |                0 |          493952 |                     0 |        197895 | 2017-02-04 22:55:19.380096+01

 2017-02-05 01:07:12.129102+01 | 1486253232.1291 |                 0 |              27 |                 41253 |                 1748 |            4918123 |             0 |                0 |          493952 |                     0 |        197895 | 2017-02-04 22:55:19.380096+01

 2017-02-05 01:07:13.216642+01 | 1486253233.21664 |                 0 |              27 |                 41253 |                 1748 |            4918123 |             0 |                0 |          493952 |                     0 |        197895 | 2017-02-04 22:55:19.380096+01

 2017-02-05 01:07:14.304153+01 | 1486253234.30415 |                 0 |              27 |                 41253 |                 1748 |            4918123 |             0 |                0 |          493952 |                     0 |        197895 | 2017-02-04 22:55:19.380096+01

 2017-02-05 01:07:15.386146+01 | 1486253235.38615 |                 0 |              27 |                 41253 |                 1748 |            4918123 |             0 |                0 |          493952 |                     0 |        197895 | 2017-02-04 22:55:19.380096+01

 2017-02-05 01:07:16.471534+01 | 1486253236.47153 |                 0 |              27 |                 41253 |                 1748 |            4918123 |             0 |                0 |          493952 |                     0 |        197895 | 2017-02-04 22:55:19.380096+01

 2017-02-05 01:07:17.55623+01 | 1486253237.55623 |                 0 |              27 |                 41253 |                 1748 |            4918123 |             0 |                0 |          493952 |                     0 |        197895 | 2017-02-04 22:55:19.380096+01

 2017-02-05 01:07:18.643379+01 | 1486253238.64338 |                 0 |              27 |                 41253 |                 1748 |            4918123 |             0 |                0 |          493952 |                     0 |        197895 | 2017-02-04 22:55:19.380096+01

 2017-02-05 01:07:19.721128+01 | 1486253239.72113 |                 0 |              27 |                 41253 |                 1748 |            4918123 |             0 |                0 |          493952 |                     0 |        197895 | 2017-02-04 22:55:19.380096+01

 2017-02-05 01:07:20.806915+01 | 1486253240.80692 |                 0 |              27 |                 41253 |                 1748 |            4918123 |             0 |                0 |          493952 |                     0 |        197895 | 2017-02-04 22:55:19.380096+01

 2017-02-05 01:07:21.895496+01 | 1486253241.8955 |                 0 |              27 |                 41253 |                 1748 |            4918123 |             0 |                0 |          493952 |                     0 |        197895 | 2017-02-04 22:55:19.380096+01

 2017-02-05 01:07:22.971234+01 | 1486253242.97123 |                 0 |              27 |                 41253 |                 1748 |            4918123 |             0 |                0 |          493952 |                     0 |        197895 | 2017-02-04 22:55:19.380096+01

 2017-02-05 01:07:24.037473+01 | 1486253244.03747 |                 0 |              27 |                 41253 |                 1748 |            4918123 |             0 |                0 |          493952 |                     0 |        197895 | 2017-02-04 22:55:19.380096+01

 2017-02-05 01:07:25.108771+01 | 1486253245.10877 |                 0 |              27 |                 41253 |                 1748 |            4918123 |             0 |                0 |          493952 |                     0 |        197895 | 2017-02-04 22:55:19.380096+01

 2017-02-05 01:07:26.195725+01 | 1486253246.19572 |                 0 |              27 |                 41253 |                 1748 |            4918123 |             0 |                0 |          493952 |                     0 |        197895 | 2017-02-04 22:55:19.380096+01

 2017-02-05 01:07:27.286888+01 | 1486253247.28689 |                 0 |              27 |                 41253 |                 1748 |            4918123 |             0 |                0 |          493952 |                     0 |        197895 | 2017-02-04 22:55:19.380096+01

 2017-02-05 01:07:28.361368+01 | 1486253248.36137 |                 0 |              27 |                 41253 |                 1748 |            4918123 |             0 |                0 |          493952 |                     0 |        197895 | 2017-02-04 22:55:19.380096+01

 2017-02-05 01:07:29.438582+01 | 1486253249.43858 |                 0 |              27 |                 41253 |                 1748 |            4918123 |             0 |                0 |          493952 |                     0 |        197895 | 2017-02-04 22:55:19.380096+01

 2017-02-05 01:07:30.512246+01 | 1486253250.51225 |                 0 |              27 |                 41253 |                 1748 |            4918123 |             0 |                0 |          493952 |                     0 |        197895 | 2017-02-04 22:55:19.380096+01

 2017-02-05 01:07:31.597329+01 | 1486253251.59733 |                 0 |              27 |                 41253 |                 1748 |            4918123 |             0 |                0 |          493952 |                     0 |        197895 | 2017-02-04 22:55:19.380096+01

 2017-02-05 01:07:32.668171+01 | 1486253252.66817 |                 0 |              27 |                 41253 |                 1748 |            4918123 |             0 |                0 |          493952 |                     0 |        197895 | 2017-02-04 22:55:19.380096+01

 2017-02-05 01:07:33.737954+01 | 1486253253.73795 |                 0 |              27 |                 41253 |                 1748 |            4918123 |             0 |                0 |          493952 |                     0 |        197895 | 2017-02-04 22:55:19.380096+01

 2017-02-05 01:07:34.825628+01 | 1486253254.82563 |                 0 |              27 |                 41253 |                 1748 |            4918123 |             0 |                0 |          493952 |                     0 |        197895 | 2017-02-04 22:55:19.380096+01

 2017-02-05 01:07:35.899181+01 | 1486253255.89918 |                 0 |              27 |                 41253 |                 1748 |            4918123 |             0 |                0 |          493952 |                     0 |        197895 | 2017-02-04 22:55:19.380096+01

 2017-02-05 01:07:36.984668+01 | 1486253256.98467 |                 0 |              27 |                 41253 |                 1748 |            4918123 |             0 |                0 |          493952 |                     0 |        197895 | 2017-02-04 22:55:19.380096+01

 2017-02-05 01:07:38.071201+01 | 1486253258.0712 |                 0 |              27 |                 41253 |                 1748 |            4918123 |             0 |                0 |          493952 |                     0 |        197895 | 2017-02-04 22:55:19.380096+01

 2017-02-05 01:07:39.149801+01 | 1486253259.1498 |                 0 |              27 |                 41253 |                 1748 |            4918123 |             0 |                0 |          493952 |                     0 |        197895 | 2017-02-04 22:55:19.380096+01

 2017-02-05 01:07:40.229627+01 | 1486253260.22963 |                 0 |              27 |                 41253 |                 1748 |            4918123 |             0 |                0 |          493952 |                     0 |        197895 | 2017-02-04 22:55:19.380096+01

 2017-02-05 01:07:41.314753+01 | 1486253261.31475 |                 0 |              27 |                 41253 |                 1748 |            4918123 |             0 |                0 |          493952 |                     0 |        197895 | 2017-02-04 22:55:19.380096+01

 2017-02-05 01:07:42.404536+01 | 1486253262.40454 |                 0 |              27 |                 41253 |                 1748 |            4918123 |             0 |                0 |          493952 |                     0 |        197895 | 2017-02-04 22:55:19.380096+01

 2017-02-05 01:07:43.483877+01 | 1486253263.48388 |                 0 |              27 |                 41253 |                 1748 |            4918123 |             0 |                0 |          493952 |                     0 |        197895 | 2017-02-04 22:55:19.380096+01

 2017-02-05 01:07:44.54719+01 | 1486253264.54719 |                 0 |              27 |                 41253 |                 1748 |            4918123 |             0 |                0 |          493952 |                     0 |        197895 | 2017-02-04 22:55:19.380096+01

 2017-02-05 01:07:45.630132+01 | 1486253265.63013 |                 0 |              27 |                 41253 |                 1748 |            4918123 |             0 |                0 |          493952 |                     0 |        197895 | 2017-02-04 22:55:19.380096+01

 2017-02-05 01:07:46.720217+01 | 1486253266.72022 |                 0 |              27 |                 41253 |                 1748 |            4918123 |             0 |                0 |          493952 |                     0 |        197895 | 2017-02-04 22:55:19.380096+01

 2017-02-05 01:07:47.797065+01 | 1486253267.79707 |                 0 |              27 |                 41253 |                 1748 |            4918123 |             0 |                0 |          493952 |                     0 |        197895 | 2017-02-04 22:55:19.380096+01

 2017-02-05 01:07:48.875462+01 | 1486253268.87546 |                 0 |              27 |                 41253 |                 1748 |            4918123 |             0 |                0 |          493952 |                     0 |        197895 | 2017-02-04 22:55:19.380096+01

 2017-02-05 01:07:49.966362+01 | 1486253269.96636 |                 0 |              27 |                 41253 |                 1748 |            4918123 |             0 |                0 |          493952 |                     0 |        197895 | 2017-02-04 22:55:19.380096+01

 2017-02-05 01:07:51.048865+01 | 1486253271.04887 |                 0 |              27 |                 41253 |                 1748 |            4918123 |             0 |                0 |          493952 |                     0 |        197895 | 2017-02-04 22:55:19.380096+01

 2017-02-05 01:07:52.136619+01 | 1486253272.13662 |                 0 |              27 |                 41253 |                 1748 |            4918123 |             0 |                0 |          493952 |                     0 |        197895 | 2017-02-04 22:55:19.380096+01

 2017-02-05 01:07:53.198732+01 | 1486253273.19873 |                 0 |              27 |                 41253 |                 1748 |            4918123 |             0 |                0 |          493952 |                     0 |        197895 | 2017-02-04 22:55:19.380096+01

 2017-02-05 01:07:54.270678+01 | 1486253274.27068 |                 0 |              27 |                 41253 |                 1748 |            4918123 |             0 |                0 |          493952 |                     0 |        197895 | 2017-02-04 22:55:19.380096+01

 2017-02-05 01:07:55.361608+01 | 1486253275.36161 |                 0 |              27 |                 41253 |                 1748 |            4918123 |             0 |                0 |          493952 |                     0 |        197895 | 2017-02-04 22:55:19.380096+01

 2017-02-05 01:07:56.434735+01 | 1486253276.43474 |                 0 |              27 |                 41253 |                 1748 |            4918123 |             0 |                0 |          493952 |                     0 |        197895 | 2017-02-04 22:55:19.380096+01

 2017-02-05 01:07:57.504292+01 | 1486253277.50429 |                 0 |              27 |                 41253 |                 1748 |            4918123 |             0 |                0 |          493952 |                     0 |        197895 | 2017-02-04 22:55:19.380096+01

 2017-02-05 01:07:58.585793+01 | 1486253278.58579 |                 0 |              27 |                 41253 |                 1748 |            4918123 |             0 |                0 |          493952 |                     0 |        197895 | 2017-02-04 22:55:19.380096+01

 2017-02-05 01:07:59.666131+01 | 1486253279.66613 |                 0 |              27 |                 41253 |                 1748 |            4918123 |             0 |                0 |          493952 |                     0 |        197895 | 2017-02-04 22:55:19.380096+01

 2017-02-05 01:08:00.728732+01 | 1486253280.72873 |                 0 |              27 |                 41253 |                 1748 |            4918123 |             0 |                0 |          493952 |                     0 |        197895 | 2017-02-04 22:55:19.380096+01

 2017-02-05 01:08:01.808722+01 | 1486253281.80872 |                 0 |              27 |                 41253 |                 1748 |            4918123 |             0 |                0 |          493952 |                     0 |        197895 | 2017-02-04 22:55:19.380096+01

 2017-02-05 01:08:02.885937+01 | 1486253282.88594 |                 0 |              27 |                 41253 |                 1748 |            4918123 |             0 |                0 |          493952 |                     0 |        197895 | 2017-02-04 22:55:19.380096+01

 2017-02-05 01:08:03.969259+01 | 1486253283.96926 |                 0 |              27 |                 41253 |                 1748 |            4918123 |             0 |                0 |          493952 |                     0 |        197895 | 2017-02-04 22:55:19.380096+01

 2017-02-05 01:08:05.058074+01 | 1486253285.05807 |                 0 |              27 |                 41253 |                 1748 |            4918123 |             0 |                0 |          493952 |                     0 |        197895 | 2017-02-04 22:55:19.380096+01

 2017-02-05 01:08:06.143302+01 | 1486253286.1433 |                 0 |              27 |                 41253 |                 1748 |            4918123 |             0 |                0 |          493952 |                     0 |        197895 | 2017-02-04 22:55:19.380096+01

 2017-02-05 01:08:07.233752+01 | 1486253287.23375 |                 0 |              27 |                 41253 |                 1748 |            4918123 |             0 |                0 |          493952 |                     0 |        197895 | 2017-02-04 22:55:19.380096+01

 2017-02-05 01:08:08.32519+01 | 1486253288.32519 |                 0 |              27 |                 41253 |                 1748 |            4918123 |             0 |                0 |          493952 |                     0 |        197895 | 2017-02-04 22:55:19.380096+01

 2017-02-05 01:08:09.418051+01 | 1486253289.41805 |                 0 |              27 |                 41253 |                 1748 |            4918123 |             0 |                0 |          493952 |                     0 |        197895 | 2017-02-04 22:55:19.380096+01

 2017-02-05 01:08:10.497075+01 | 1486253290.49708 |                 0 |              27 |                 41253 |                 1748 |            4918123 |             0 |                0 |          493952 |                     0 |        197895 | 2017-02-04 22:55:19.380096+01

 2017-02-05 01:08:11.582683+01 | 1486253291.58268 |                 0 |              27 |                 41253 |                 1748 |            4918123 |             0 |                0 |          493952 |                     0 |        197895 | 2017-02-04 22:55:19.380096+01

 2017-02-05 01:08:12.667416+01 | 1486253292.66742 |                 0 |              27 |                 41253 |                 1748 |            4918123 |             0 |                0 |          493952 |                     0 |        197895 | 2017-02-04 22:55:19.380096+01

 2017-02-05 01:08:13.741163+01 | 1486253293.74116 |                 0 |              27 |                 41253 |                 1748 |            4918123 |             0 |                0 |          493952 |                     0 |        197895 | 2017-02-04 22:55:19.380096+01

 2017-02-05 01:08:14.824159+01 | 1486253294.82416 |                 0 |              27 |                 41253 |                 1748 |            4918123 |             0 |                0 |          493952 |                     0 |        197895 | 2017-02-04 22:55:19.380096+01

 2017-02-05 01:08:15.913301+01 | 1486253295.9133 |                 0 |              27 |                 41253 |                 1748 |            4918123 |             0 |                0 |          493952 |                     0 |        197895 | 2017-02-04 22:55:19.380096+01

 2017-02-05 01:08:17.000059+01 | 1486253297.00006 |                 0 |              27 |                 41253 |                 1748 |            4918123 |             0 |                0 |          493952 |                     0 |        197895 | 2017-02-04 22:55:19.380096+01

 2017-02-05 01:08:18.094672+01 | 1486253298.09467 |                 0 |              27 |                 41253 |                 1748 |            4918123 |             0 |                0 |          493952 |                     0 |        197895 | 2017-02-04 22:55:19.380096+01

 2017-02-05 01:08:19.163803+01 | 1486253299.1638 |                 0 |              27 |                 41253 |                 1748 |            4918123 |             0 |                0 |          493952 |                     0 |        197895 | 2017-02-04 22:55:19.380096+01

 2017-02-05 01:08:20.235368+01 | 1486253300.23537 |                 0 |              27 |                 41253 |                 1748 |            4918123 |             0 |                0 |          493952 |                     0 |        197895 | 2017-02-04 22:55:19.380096+01

 2017-02-05 01:08:21.309279+01 | 1486253301.30928 |                 0 |              27 |                 41253 |                 1748 |            4918123 |             0 |                0 |          493952 |                     0 |        197895 | 2017-02-04 22:55:19.380096+01

 2017-02-05 01:08:22.388684+01 | 1486253302.38868 |                 0 |              27 |                 41253 |                 1748 |            4918123 |             0 |                0 |          493952 |                     0 |        197895 | 2017-02-04 22:55:19.380096+01

 2017-02-05 01:08:23.460929+01 | 1486253303.46093 |                 0 |              27 |                 41253 |                 1748 |            4918123 |             0 |                0 |          493952 |                     0 |        197895 | 2017-02-04 22:55:19.380096+01

 2017-02-05 01:08:24.539424+01 | 1486253304.53942 |                 0 |              27 |                 41253 |                 1748 |            4918123 |             0 |                0 |          493952 |                     0 |        197895 | 2017-02-04 22:55:19.380096+01

 2017-02-05 01:08:25.60573+01 | 1486253305.60573 |                 0 |              27 |                 41253 |                 1748 |            4918123 |             0 |                0 |          493952 |                     0 |        197895 | 2017-02-04 22:55:19.380096+01

 2017-02-05 01:08:26.69518+01 | 1486253306.69518 |                 0 |              27 |                 41253 |                 1748 |            4918123 |             0 |                0 |          493952 |                     0 |        197895 | 2017-02-04 22:55:19.380096+01

 2017-02-05 01:08:27.77749+01 | 1486253307.77749 |                 0 |              27 |                 41253 |                 1748 |            4918123 |             0 |                0 |          493952 |                     0 |        197895 | 2017-02-04 22:55:19.380096+01

 2017-02-05 01:08:28.859808+01 | 1486253308.85981 |                 0 |              27 |                 41253 |                 1748 |            4918123 |             0 |                0 |          493952 |                     0 |        197895 | 2017-02-04 22:55:19.380096+01

 2017-02-05 01:08:29.951179+01 | 1486253309.95118 |                 0 |              27 |                 41253 |                 1748 |            4918123 |             0 |                0 |          493952 |                     0 |        197895 | 2017-02-04 22:55:19.380096+01

 2017-02-05 01:08:31.03697+01 | 1486253311.03697 |                 0 |              27 |                 41253 |                 1748 |            4918123 |             0 |                0 |          493952 |                     0 |        197895 | 2017-02-04 22:55:19.380096+01

 2017-02-05 01:08:32.115631+01 | 1486253312.11563 |                 0 |              27 |                 41253 |                 1748 |            4918123 |             0 |                0 |          493952 |                     0 |        197895 | 2017-02-04 22:55:19.380096+01

 2017-02-05 01:08:33.203939+01 | 1486253313.20394 |                 0 |              27 |                 41253 |                 1748 |            4918123 |             0 |                0 |          493952 |                     0 |        197895 | 2017-02-04 22:55:19.380096+01

 2017-02-05 01:08:34.290343+01 | 1486253314.29034 |                 0 |              27 |                 41253 |                 1748 |            4918123 |             0 |                0 |          493952 |                     0 |        197895 | 2017-02-04 22:55:19.380096+01

 2017-02-05 01:08:35.384915+01 | 1486253315.38492 |                 0 |              27 |                 41253 |                 1748 |            4918123 |             0 |                0 |          493952 |                     0 |        197895 | 2017-02-04 22:55:19.380096+01

 2017-02-05 01:08:36.467529+01 | 1486253316.46753 |                 0 |              27 |                 41253 |                 1748 |            4918123 |             0 |                0 |          493952 |                     0 |        197895 | 2017-02-04 22:55:19.380096+01

 2017-02-05 01:08:37.551163+01 | 1486253317.55116 |                 0 |              27 |                 41253 |                 1748 |            4918123 |             0 |                0 |          493952 |                     0 |        197895 | 2017-02-04 22:55:19.380096+01

 2017-02-05 01:08:38.642362+01 | 1486253318.64236 |                 0 |              27 |                 41253 |                 1748 |            4918123 |             0 |                0 |          493952 |                     0 |        197895 | 2017-02-04 22:55:19.380096+01

 2017-02-05 01:08:39.733433+01 | 1486253319.73343 |                 0 |              27 |                 41253 |                 1748 |            4918123 |             0 |                0 |          493952 |                     0 |        197895 | 2017-02-04 22:55:19.380096+01

 2017-02-05 01:08:40.824143+01 | 1486253320.82414 |                 0 |              27 |                 41253 |                 1748 |            4918123 |             0 |                0 |          493952 |                     0 |        197895 | 2017-02-04 22:55:19.380096+01

 2017-02-05 01:08:41.917066+01 | 1486253321.91707 |                 0 |              27 |                 41253 |                 1748 |            4918123 |             0 |                0 |          493952 |                     0 |        197895 | 2017-02-04 22:55:19.380096+01

 2017-02-05 01:08:42.993344+01 | 1486253322.99334 |                 0 |              27 |                 41253 |                 1748 |            4918123 |             0 |                0 |          493952 |                     0 |        197895 | 2017-02-04 22:55:19.380096+01

 2017-02-05 01:08:44.072727+01 | 1486253324.07273 |                 0 |              27 |                 41253 |                 1748 |            4918123 |             0 |                0 |          493952 |                     0 |        197895 | 2017-02-04 22:55:19.380096+01

 2017-02-05 01:08:45.15732+01 | 1486253325.15732 |                 0 |              27 |                 41253 |                 1748 |            4918123 |             0 |                0 |          493952 |                     0 |        197895 | 2017-02-04 22:55:19.380096+01

 2017-02-05 01:08:46.237877+01 | 1486253326.23788 |                 0 |              27 |                 41253 |                 1748 |            4918123 |             0 |                0 |          493952 |                     0 |        197895 | 2017-02-04 22:55:19.380096+01

 2017-02-05 01:08:47.31934+01 | 1486253327.31934 |                 0 |              27 |                 41253 |                 1748 |            4918123 |             0 |                0 |          493952 |                     0 |        197895 | 2017-02-04 22:55:19.380096+01

 2017-02-05 01:08:48.411749+01 | 1486253328.41175 |                 0 |              27 |                 41253 |                 1748 |            4918123 |             0 |                0 |          493952 |                     0 |        197895 | 2017-02-04 22:55:19.380096+01

 2017-02-05 01:08:49.492981+01 | 1486253329.49298 |                 0 |              27 |                 41253 |                 1748 |            4918123 |             0 |                0 |          493952 |                     0 |        197895 | 2017-02-04 22:55:19.380096+01

 2017-02-05 01:08:50.576251+01 | 1486253330.57625 |                 0 |              27 |                 41253 |                 1748 |            4918123 |             0 |                0 |          493952 |                     0 |        197895 | 2017-02-04 22:55:19.380096+01

 2017-02-05 01:08:51.664831+01 | 1486253331.66483 |                 0 |              27 |                 41253 |                 1748 |            4918123 |             0 |                0 |          493952 |                     0 |        197895 | 2017-02-04 22:55:19.380096+01

 2017-02-05 01:08:52.744488+01 | 1486253332.74449 |                 0 |              27 |                 41253 |                 1748 |            4918123 |             0 |                0 |          493952 |                     0 |        197895 | 2017-02-04 22:55:19.380096+01

 2017-02-05 01:08:53.821015+01 | 1486253333.82101 |                 0 |              27 |                 41253 |                 1748 |            4918123 |             0 |                0 |          493952 |                     0 |        197895 | 2017-02-04 22:55:19.380096+01

 2017-02-05 01:08:54.914205+01 | 1486253334.91421 |                 0 |              27 |                 41253 |                 1748 |            4918123 |             0 |                0 |          493952 |                     0 |        197895 | 2017-02-04 22:55:19.380096+01

 2017-02-05 01:08:56.000486+01 | 1486253336.00049 |                 0 |              27 |                 41253 |                 1748 |            4918123 |             0 |                0 |          493952 |                     0 |        197895 | 2017-02-04 22:55:19.380096+01

 2017-02-05 01:08:57.090812+01 | 1486253337.09081 |                 0 |              27 |                 41253 |                 1748 |            4918123 |             0 |                0 |          493952 |                     0 |        197895 | 2017-02-04 22:55:19.380096+01

 2017-02-05 01:08:58.168721+01 | 1486253338.16872 |                 0 |              27 |                 41253 |                 1748 |            4918123 |             0 |                0 |          493952 |                     0 |        197895 | 2017-02-04 22:55:19.380096+01

 2017-02-05 01:08:59.243835+01 | 1486253339.24383 |                 0 |              27 |                 41253 |                 1748 |            4918123 |             0 |                0 |          493952 |                     0 |        197895 | 2017-02-04 22:55:19.380096+01

 2017-02-05 01:09:00.323669+01 | 1486253340.32367 |                 0 |              27 |                 41253 |                 1748 |            4918123 |             0 |                0 |          493952 |                     0 |        197895 | 2017-02-04 22:55:19.380096+01

 2017-02-05 01:09:01.412855+01 | 1486253341.41285 |                 0 |              27 |                 41253 |                 1748 |            4918123 |             0 |                0 |          493952 |                     0 |        197895 | 2017-02-04 22:55:19.380096+01

 2017-02-05 01:09:02.500412+01 | 1486253342.50041 |                 0 |              27 |                 41253 |                 1748 |            4918123 |             0 |                0 |          493952 |                     0 |        197895 | 2017-02-04 22:55:19.380096+01

 2017-02-05 01:09:03.588387+01 | 1486253343.58839 |                 0 |              27 |                 41253 |                 1748 |            4918123 |             0 |                0 |          493952 |                     0 |        197895 | 2017-02-04 22:55:19.380096+01

 2017-02-05 01:09:04.669978+01 | 1486253344.66998 |                 0 |              27 |                 41253 |                 1748 |            4918123 |             0 |                0 |          493952 |                     0 |        197895 | 2017-02-04 22:55:19.380096+01

 2017-02-05 01:09:05.756436+01 | 1486253345.75644 |                 0 |              27 |                 41253 |                 1748 |            4918123 |             0 |                0 |          493952 |                     0 |        197895 | 2017-02-04 22:55:19.380096+01

 2017-02-05 01:09:06.846118+01 | 1486253346.84612 |                 0 |              27 |                 41253 |                 1748 |            4918123 |             0 |                0 |          493952 |                     0 |        197895 | 2017-02-04 22:55:19.380096+01

 2017-02-05 01:09:07.938029+01 | 1486253347.93803 |                 0 |              27 |                 41253 |                 1748 |            4918123 |             0 |                0 |          493952 |                     0 |        197895 | 2017-02-04 22:55:19.380096+01

 2017-02-05 01:09:09.024879+01 | 1486253349.02488 |                 0 |              27 |                 41253 |                 1748 |            4918123 |             0 |                0 |          493952 |                     0 |        197895 | 2017-02-04 22:55:19.380096+01

 2017-02-05 01:09:10.102714+01 | 1486253350.10271 |                 0 |              27 |                 41253 |                 1748 |            4918123 |             0 |                0 |          493952 |                     0 |        197895 | 2017-02-04 22:55:19.380096+01

 2017-02-05 01:09:11.19106+01 | 1486253351.19106 |                 0 |              27 |                 41253 |                 1748 |            4918123 |             0 |                0 |          493952 |                     0 |        197895 | 2017-02-04 22:55:19.380096+01

 2017-02-05 01:09:12.281052+01 | 1486253352.28105 |                 0 |              27 |                 41253 |                 1748 |            4918123 |             0 |                0 |          493952 |                     0 |        197895 | 2017-02-04 22:55:19.380096+01

 2017-02-05 01:09:13.363568+01 | 1486253353.36357 |                 0 |              27 |                 41253 |                 1748 |            4918123 |             0 |                0 |          493952 |                     0 |        197895 | 2017-02-04 22:55:19.380096+01

 2017-02-05 01:09:14.453279+01 | 1486253354.45328 |                 0 |              27 |                 41253 |                 1748 |            4918123 |             0 |                0 |          493952 |                     0 |        197895 | 2017-02-04 22:55:19.380096+01

 2017-02-05 01:09:15.528257+01 | 1486253355.52826 |                 0 |              27 |                 41253 |                 1748 |            4918123 |             0 |                0 |          493952 |                     0 |        197895 | 2017-02-04 22:55:19.380096+01

 2017-02-05 01:09:16.620817+01 | 1486253356.62082 |                 0 |              27 |                 41253 |                 1748 |            4918123 |             0 |                0 |          493952 |                     0 |        197895 | 2017-02-04 22:55:19.380096+01

 2017-02-05 01:09:17.705545+01 | 1486253357.70554 |                 0 |              27 |                 41253 |                 1748 |            4918123 |             0 |                0 |          493952 |                     0 |        197895 | 2017-02-04 22:55:19.380096+01

 2017-02-05 01:09:18.795309+01 | 1486253358.79531 |                 0 |              27 |                 41253 |                 1748 |            4918123 |             0 |                0 |          493952 |                     0 |        197895 | 2017-02-04 22:55:19.380096+01

 2017-02-05 01:09:19.878335+01 | 1486253359.87833 |                 0 |              27 |                 41253 |                 1748 |            4918123 |             0 |                0 |          493952 |                     0 |        197895 | 2017-02-04 22:55:19.380096+01

 2017-02-05 01:09:20.951781+01 | 1486253360.95178 |                 0 |              27 |                 41253 |                 1748 |            4918123 |             0 |                0 |          493952 |                     0 |        197895 | 2017-02-04 22:55:19.380096+01

 2017-02-05 01:09:22.031638+01 | 1486253362.03164 |                 0 |              27 |                 41253 |                 1748 |            4918123 |             0 |                0 |          493952 |                     0 |        197895 | 2017-02-04 22:55:19.380096+01

 2017-02-05 01:09:23.109115+01 | 1486253363.10911 |                 0 |              27 |                 41253 |                 1748 |            4918123 |             0 |                0 |          493952 |                     0 |        197895 | 2017-02-04 22:55:19.380096+01

 2017-02-05 01:09:24.191337+01 | 1486253364.19134 |                 0 |              27 |                 41253 |                 1748 |            4918123 |             0 |                0 |          493952 |                     0 |        197895 | 2017-02-04 22:55:19.380096+01

 2017-02-05 01:09:25.269133+01 | 1486253365.26913 |                 0 |              27 |                 41253 |                 1748 |            4918123 |             0 |                0 |          493952 |                     0 |        197895 | 2017-02-04 22:55:19.380096+01

 2017-02-05 01:09:26.3556+01 | 1486253366.3556 |                 0 |              27 |                 41253 |                 1748 |            4918123 |             0 |                0 |          493952 |                     0 |        197895 | 2017-02-04 22:55:19.380096+01

 2017-02-05 01:09:27.444523+01 | 1486253367.44452 |                 0 |              27 |                 41253 |                 1748 |            4918123 |             0 |                0 |          493952 |                     0 |        197895 | 2017-02-04 22:55:19.380096+01

 2017-02-05 01:09:28.53216+01 | 1486253368.53216 |                 0 |              27 |                 41253 |                 1748 |            4918123 |             0 |                0 |          493952 |                     0 |        197895 | 2017-02-04 22:55:19.380096+01

 2017-02-05 01:09:29.618868+01 | 1486253369.61887 |                 0 |              27 |                 41253 |                 1748 |            4918123 |             0 |                0 |          493952 |                     0 |        197895 | 2017-02-04 22:55:19.380096+01

 2017-02-05 01:09:30.707613+01 | 1486253370.70761 |                 0 |              27 |                 41253 |                 1748 |            4918123 |             0 |                0 |          493952 |                     0 |        197895 | 2017-02-04 22:55:19.380096+01

 2017-02-05 01:09:31.788143+01 | 1486253371.78814 |                 0 |              27 |                 41253 |                 1748 |            4918123 |             0 |                0 |          493952 |                     0 |        197895 | 2017-02-04 22:55:19.380096+01

 2017-02-05 01:09:32.87399+01 | 1486253372.87399 |                 0 |              27 |                 41253 |                 1748 |            4918123 |             0 |                0 |          493952 |                     0 |        197895 | 2017-02-04 22:55:19.380096+01

 2017-02-05 01:09:33.958593+01 | 1486253373.95859 |                 0 |              27 |                 41253 |                 1748 |            4918123 |             0 |                0 |          493952 |                     0 |        197895 | 2017-02-04 22:55:19.380096+01

 2017-02-05 01:09:35.03268+01 | 1486253375.03268 |                 0 |              27 |                 41253 |                 1748 |            4918123 |             0 |                0 |          493952 |                     0 |        197895 | 2017-02-04 22:55:19.380096+01

 2017-02-05 01:09:36.120486+01 | 1486253376.12049 |                 0 |              27 |                 41253 |                 1748 |            4918123 |             0 |                0 |          493952 |                     0 |        197895 | 2017-02-04 22:55:19.380096+01

 2017-02-05 01:09:37.202539+01 | 1486253377.20254 |                 0 |              27 |                 41253 |                 1748 |            4918123 |             0 |                0 |          493952 |                     0 |        197895 | 2017-02-04 22:55:19.380096+01

 2017-02-05 01:09:38.27039+01 | 1486253378.27039 |                 0 |              27 |                 41253 |                 1748 |            4918123 |             0 |                0 |          493952 |                     0 |        197895 | 2017-02-04 22:55:19.380096+01

 2017-02-05 01:09:39.343027+01 | 1486253379.34303 |                 0 |              27 |                 41253 |                 1748 |            4918123 |             0 |                0 |          493952 |                     0 |        197895 | 2017-02-04 22:55:19.380096+01

 2017-02-05 01:09:40.406029+01 | 1486253380.40603 |                 0 |              27 |                 41253 |                 1748 |            4918123 |             0 |                0 |          493952 |                     0 |        197895 | 2017-02-04 22:55:19.380096+01

 2017-02-05 01:09:41.489485+01 | 1486253381.48949 |                 0 |              27 |                 41253 |                 1748 |            4918123 |             0 |                0 |          493952 |                     0 |        197895 | 2017-02-04 22:55:19.380096+01

 2017-02-05 01:09:42.572412+01 | 1486253382.57241 |                 0 |              27 |                 41253 |                 1748 |            4918123 |             0 |                0 |          493952 |                     0 |        197895 | 2017-02-04 22:55:19.380096+01

 2017-02-05 01:09:43.663834+01 | 1486253383.66383 |                 0 |              27 |                 41253 |                 1748 |            4918123 |             0 |                0 |          493952 |                     0 |        197895 | 2017-02-04 22:55:19.380096+01

 2017-02-05 01:09:44.75042+01 | 1486253384.75042 |                 0 |              27 |                 41253 |                 1748 |            4918123 |             0 |                0 |          493952 |                     0 |        197895 | 2017-02-04 22:55:19.380096+01

 2017-02-05 01:09:45.834895+01 | 1486253385.83489 |                 0 |              27 |                 41253 |                 1748 |            4918123 |             0 |                0 |          493952 |                     0 |        197895 | 2017-02-04 22:55:19.380096+01

 2017-02-05 01:09:46.907596+01 | 1486253386.9076 |                 0 |              27 |                 41253 |                 1748 |            4918123 |             0 |                0 |          493952 |                     0 |        197895 | 2017-02-04 22:55:19.380096+01

 2017-02-05 01:09:47.990109+01 | 1486253387.99011 |                 0 |              27 |                 41253 |                 1748 |            4918123 |             0 |                0 |          493952 |                     0 |        197895 | 2017-02-04 22:55:19.380096+01

 2017-02-05 01:09:49.062079+01 | 1486253389.06208 |                 0 |              27 |                 41253 |                 1748 |            4918123 |             0 |                0 |          493952 |                     0 |        197895 | 2017-02-04 22:55:19.380096+01

 2017-02-05 01:09:50.145547+01 | 1486253390.14555 |                 0 |              27 |                 41253 |                 1748 |            4918123 |             0 |                0 |          493952 |                     0 |        197895 | 2017-02-04 22:55:19.380096+01

 2017-02-05 01:09:51.235311+01 | 1486253391.23531 |                 0 |              27 |                 41253 |                 1748 |            4918123 |             0 |                0 |          493952 |                     0 |        197895 | 2017-02-04 22:55:19.380096+01

 2017-02-05 01:09:52.314093+01 | 1486253392.31409 |                 0 |              27 |                 41253 |                 1748 |            4918123 |             0 |                0 |          493952 |                     0 |        197895 | 2017-02-04 22:55:19.380096+01

 2017-02-05 01:09:53.371959+01 | 1486253393.37196 |                 0 |              27 |                 41253 |                 1748 |            4918123 |             0 |                0 |          493952 |                     0 |        197895 | 2017-02-04 22:55:19.380096+01

 2017-02-05 01:09:54.457171+01 | 1486253394.45717 |                 0 |              27 |                 41253 |                 1748 |            4918123 |             0 |                0 |          493952 |                     0 |        197895 | 2017-02-04 22:55:19.380096+01

 2017-02-05 01:09:55.542488+01 | 1486253395.54249 |                 0 |              27 |                 41253 |                 1748 |            4918123 |             0 |                0 |          493952 |                     0 |        197895 | 2017-02-04 22:55:19.380096+01

 2017-02-05 01:09:56.623006+01 | 1486253396.62301 |                 0 |              27 |                 41253 |                 1748 |            4918123 |             0 |                0 |          493952 |                     0 |        197895 | 2017-02-04 22:55:19.380096+01

 2017-02-05 01:09:57.712335+01 | 1486253397.71234 |                 0 |              27 |                 41253 |                 1748 |            4918123 |             0 |                0 |          493952 |                     0 |        197895 | 2017-02-04 22:55:19.380096+01

 2017-02-05 01:09:58.794907+01 | 1486253398.79491 |                 0 |              27 |                 41253 |                 1748 |            4918123 |             0 |                0 |          493952 |                     0 |        197895 | 2017-02-04 22:55:19.380096+01

 2017-02-05 01:09:59.889733+01 | 1486253399.88973 |                 0 |              27 |                 41253 |                 1748 |            4918123 |             0 |                0 |          493952 |                     0 |        197895 | 2017-02-04 22:55:19.380096+01

 2017-02-05 01:10:00.97392+01 | 1486253400.97392 |                 0 |              27 |                 41253 |                 1748 |            4918123 |             0 |                0 |          493952 |                     0 |        197895 | 2017-02-04 22:55:19.380096+01

 2017-02-05 01:10:02.060353+01 | 1486253402.06035 |                 0 |              27 |                 41253 |                 1748 |            4918123 |             0 |                0 |          493952 |                     0 |        197895 | 2017-02-04 22:55:19.380096+01

 2017-02-05 01:10:03.143981+01 | 1486253403.14398 |                 0 |              27 |                 41253 |                 1748 |            4918123 |             0 |                0 |          493952 |                     0 |        197895 | 2017-02-04 22:55:19.380096+01

 2017-02-05 01:10:04.212966+01 | 1486253404.21297 |                 0 |              27 |                 41253 |                 1748 |            4918123 |             0 |                0 |          493952 |                     0 |        197895 | 2017-02-04 22:55:19.380096+01

 2017-02-05 01:10:05.293931+01 | 1486253405.29393 |                 0 |              27 |                 41253 |                 1748 |            4918123 |             0 |                0 |          493952 |                     0 |        197895 | 2017-02-04 22:55:19.380096+01

 2017-02-05 01:10:06.369164+01 | 1486253406.36916 |                 0 |              27 |                 41253 |                 1748 |            4918123 |             0 |                0 |          493952 |                     0 |        197895 | 2017-02-04 22:55:19.380096+01

 2017-02-05 01:10:07.458524+01 | 1486253407.45852 |                 0 |              27 |                 41253 |                 1748 |            4918123 |             0 |                0 |          493952 |                     0 |        197895 | 2017-02-04 22:55:19.380096+01

 2017-02-05 01:10:08.545293+01 | 1486253408.54529 |                 0 |              27 |                 41253 |                 1748 |            4918123 |             0 |                0 |          493952 |                     0 |        197895 | 2017-02-04 22:55:19.380096+01

 2017-02-05 01:10:09.6331+01 | 1486253409.6331 |                 0 |              27 |                 41253 |                 1748 |            4918123 |             0 |                0 |          493952 |                     0 |        197895 | 2017-02-04 22:55:19.380096+01

 2017-02-05 01:10:10.723498+01 | 1486253410.7235 |                 0 |              27 |                 41253 |                 1748 |            4918123 |             0 |                0 |          493952 |                     0 |        197895 | 2017-02-04 22:55:19.380096+01

 2017-02-05 01:10:11.809656+01 | 1486253411.80966 |                 0 |              27 |                 41253 |                 1748 |            4918123 |             0 |                0 |          493952 |                     0 |        197895 | 2017-02-04 22:55:19.380096+01

 2017-02-05 01:10:12.891722+01 | 1486253412.89172 |                 0 |              27 |                 41253 |                 1748 |            4918123 |             0 |                0 |          493952 |                     0 |        197895 | 2017-02-04 22:55:19.380096+01

 2017-02-05 01:10:13.960985+01 | 1486253413.96098 |                 0 |              27 |                 41253 |                 1748 |            4918123 |             0 |                0 |          493952 |                     0 |        197895 | 2017-02-04 22:55:19.380096+01

 2017-02-05 01:10:15.041505+01 | 1486253415.04151 |                 0 |              27 |                 41253 |                 1748 |            4918123 |             0 |                0 |          493952 |                     0 |        197895 | 2017-02-04 22:55:19.380096+01

 2017-02-05 01:10:16.127886+01 | 1486253416.12789 |                 0 |              27 |                 41253 |                 1748 |            4918123 |             0 |                0 |          493952 |                     0 |        197895 | 2017-02-04 22:55:19.380096+01

 2017-02-05 01:10:17.208634+01 | 1486253417.20863 |                 0 |              27 |                 41253 |                 1748 |            4918123 |             0 |                0 |          493952 |                     0 |        197895 | 2017-02-04 22:55:19.380096+01

 2017-02-05 01:10:18.291889+01 | 1486253418.29189 |                 0 |              27 |                 41253 |                 1748 |            4918123 |             0 |                0 |          493952 |                     0 |        197895 | 2017-02-04 22:55:19.380096+01

 2017-02-05 01:10:19.372154+01 | 1486253419.37215 |                 0 |              27 |                 41253 |                 1748 |            4918123 |             0 |                0 |          493952 |                     0 |        197895 | 2017-02-04 22:55:19.380096+01

 2017-02-05 01:10:20.461824+01 | 1486253420.46182 |                 0 |              27 |                 41253 |                 1748 |            4918123 |             0 |                0 |          493952 |                     0 |        197895 | 2017-02-04 22:55:19.380096+01

 2017-02-05 01:10:21.550957+01 | 1486253421.55096 |                 0 |              27 |                 41253 |                 1748 |            4918123 |             0 |                0 |          493952 |                     0 |        197895 | 2017-02-04 22:55:19.380096+01

 2017-02-05 01:10:22.628277+01 | 1486253422.62828 |                 0 |              27 |                 41253 |                 1748 |            4918123 |             0 |                0 |          493952 |                     0 |        197895 | 2017-02-04 22:55:19.380096+01

 2017-02-05 01:10:23.712467+01 | 1486253423.71247 |                 0 |              27 |                 41253 |                 1748 |            4918123 |             0 |                0 |          493952 |                     0 |        197895 | 2017-02-04 22:55:19.380096+01

 2017-02-05 01:10:24.800091+01 | 1486253424.80009 |                 0 |              27 |                 41253 |                 1748 |            4918123 |             0 |                0 |          493952 |                     0 |        197895 | 2017-02-04 22:55:19.380096+01

 2017-02-05 01:10:25.890962+01 | 1486253425.89096 |                 0 |              27 |                 41253 |                 1748 |            4918123 |             0 |                0 |          493952 |                     0 |        197895 | 2017-02-04 22:55:19.380096+01

 2017-02-05 01:10:26.983351+01 | 1486253426.98335 |                 0 |              27 |                 41253 |                 1748 |            4918123 |             0 |                0 |          493952 |                     0 |        197895 | 2017-02-04 22:55:19.380096+01

 2017-02-05 01:10:28.052416+01 | 1486253428.05242 |                 0 |              27 |                 41253 |                 1748 |            4918123 |             0 |                0 |          493952 |                     0 |        197895 | 2017-02-04 22:55:19.380096+01

 2017-02-05 01:10:29.128972+01 | 1486253429.12897 |                 0 |              27 |                 41253 |                 1748 |            4918123 |             0 |                0 |          493952 |                     0 |        197895 | 2017-02-04 22:55:19.380096+01

 2017-02-05 01:10:30.204285+01 | 1486253430.20428 |                 0 |              27 |                 41253 |                 1748 |            4918123 |             0 |                0 |          493952 |                     0 |        197895 | 2017-02-04 22:55:19.380096+01

 2017-02-05 01:10:31.279282+01 | 1486253431.27928 |                 0 |              27 |                 41253 |                 1748 |            4918123 |             0 |                0 |          493952 |                     0 |        197895 | 2017-02-04 22:55:19.380096+01

 2017-02-05 01:10:32.371121+01 | 1486253432.37112 |                 0 |              27 |                 41253 |                 1748 |            4918123 |             0 |                0 |          493952 |                     0 |        197895 | 2017-02-04 22:55:19.380096+01

 2017-02-05 01:10:33.454231+01 | 1486253433.45423 |                 0 |              27 |                 41253 |                 1748 |            4918123 |             0 |                0 |          493952 |                     0 |        197895 | 2017-02-04 22:55:19.380096+01

 2017-02-05 01:10:34.528101+01 | 1486253434.5281 |                 0 |              27 |                 41253 |                 1748 |            4918123 |             0 |                0 |          493952 |                     0 |        197895 | 2017-02-04 22:55:19.380096+01

 2017-02-05 01:10:35.602608+01 | 1486253435.60261 |                 0 |              27 |                 41253 |                 1748 |            4918123 |             0 |                0 |          493952 |                     0 |        197895 | 2017-02-04 22:55:19.380096+01

 2017-02-05 01:10:36.694497+01 | 1486253436.6945 |                 0 |              27 |                 41253 |                 1748 |            4918123 |             0 |                0 |          493952 |                     0 |        197895 | 2017-02-04 22:55:19.380096+01

 2017-02-05 01:10:37.770416+01 | 1486253437.77042 |                 0 |              27 |                 41253 |                 1748 |            4918123 |             0 |                0 |          493952 |                     0 |        197895 | 2017-02-04 22:55:19.380096+01

 2017-02-05 01:10:38.848178+01 | 1486253438.84818 |                 0 |              27 |                 41253 |                 1748 |            4918123 |             0 |                0 |          493952 |                     0 |        197895 | 2017-02-04 22:55:19.380096+01

 2017-02-05 01:10:39.93881+01 | 1486253439.93881 |                 0 |              27 |                 41253 |                 1748 |            4918123 |             0 |                0 |          493952 |                     0 |        197895 | 2017-02-04 22:55:19.380096+01

 2017-02-05 01:10:41.02724+01 | 1486253441.02724 |                 0 |              27 |                 41253 |                 1748 |            4918123 |             0 |                0 |          493952 |                     0 |        197895 | 2017-02-04 22:55:19.380096+01

 2017-02-05 01:10:42.102681+01 | 1486253442.10268 |                 0 |              27 |                 41253 |                 1748 |            4918123 |             0 |                0 |          493952 |                     0 |        197895 | 2017-02-04 22:55:19.380096+01

 2017-02-05 01:10:43.182657+01 | 1486253443.18266 |                 0 |              27 |                 41253 |                 1748 |            4918123 |             0 |                0 |          493952 |                     0 |        197895 | 2017-02-04 22:55:19.380096+01

 2017-02-05 01:10:44.270913+01 | 1486253444.27091 |                 0 |              27 |                 41253 |                 1748 |            4918123 |             0 |                0 |          493952 |                     0 |        197895 | 2017-02-04 22:55:19.380096+01

 2017-02-05 01:10:45.348079+01 | 1486253445.34808 |                 0 |              27 |                 41253 |                 1748 |            4918123 |             0 |                0 |          493952 |                     0 |        197895 | 2017-02-04 22:55:19.380096+01

 2017-02-05 01:10:46.436746+01 | 1486253446.43675 |                 0 |              27 |                 41253 |                 1748 |            4918123 |             0 |                0 |          493952 |                     0 |        197895 | 2017-02-04 22:55:19.380096+01

 2017-02-05 01:10:47.511533+01 | 1486253447.51153 |                 0 |              27 |                 41253 |                 1748 |            4918123 |             0 |                0 |          493952 |                     0 |        197895 | 2017-02-04 22:55:19.380096+01

 2017-02-05 01:10:48.591211+01 | 1486253448.59121 |                 0 |              27 |                 41253 |                 1748 |            4918123 |             0 |                0 |          493952 |                     0 |        197895 | 2017-02-04 22:55:19.380096+01

 2017-02-05 01:10:49.677124+01 | 1486253449.67712 |                 0 |              27 |                 41253 |                 1748 |            4918123 |             0 |                0 |          493952 |                     0 |        197895 | 2017-02-04 22:55:19.380096+01

 2017-02-05 01:10:50.755468+01 | 1486253450.75547 |                 0 |              27 |                 41253 |                 1748 |            4918123 |             0 |                0 |          493952 |                     0 |        197895 | 2017-02-04 22:55:19.380096+01

 2017-02-05 01:10:51.838335+01 | 1486253451.83834 |                 0 |              27 |                 41253 |                 1748 |            4918123 |             0 |                0 |          493952 |                     0 |        197895 | 2017-02-04 22:55:19.380096+01

 2017-02-05 01:10:52.918201+01 | 1486253452.9182 |                 0 |              27 |                 41253 |                 1748 |            4918123 |             0 |                0 |          493952 |                     0 |        197895 | 2017-02-04 22:55:19.380096+01

 2017-02-05 01:10:54.007952+01 | 1486253454.00795 |                 0 |              27 |                 41253 |                 1748 |            4918123 |             0 |                0 |          493952 |                     0 |        197895 | 2017-02-04 22:55:19.380096+01

 2017-02-05 01:10:55.085311+01 | 1486253455.08531 |                 0 |              27 |                 41253 |                 1748 |            4918123 |             0 |                0 |          493952 |                     0 |        197895 | 2017-02-04 22:55:19.380096+01

 2017-02-05 01:10:56.172378+01 | 1486253456.17238 |                 0 |              27 |                 41253 |                 1748 |            4918123 |             0 |                0 |          493952 |                     0 |        197895 | 2017-02-04 22:55:19.380096+01

 2017-02-05 01:10:57.262384+01 | 1486253457.26238 |                 0 |              27 |                 41253 |                 1748 |            4918123 |             0 |                0 |          493952 |                     0 |        197895 | 2017-02-04 22:55:19.380096+01

 2017-02-05 01:10:58.339621+01 | 1486253458.33962 |                 0 |              27 |                 41253 |                 1748 |            4918123 |             0 |                0 |          493952 |                     0 |        197895 | 2017-02-04 22:55:19.380096+01

 2017-02-05 01:10:59.421943+01 | 1486253459.42194 |                 0 |              27 |                 41253 |                 1748 |            4918123 |             0 |                0 |          493952 |                     0 |        197895 | 2017-02-04 22:55:19.380096+01

 2017-02-05 01:11:00.511192+01 | 1486253460.51119 |                 0 |              27 |                 41253 |                 1748 |            4918123 |             0 |                0 |          493952 |                     0 |        197895 | 2017-02-04 22:55:19.380096+01

 2017-02-05 01:11:01.591638+01 | 1486253461.59164 |                 0 |              27 |                 41253 |                 1748 |            4918123 |             0 |                0 |          493952 |                     0 |        197895 | 2017-02-04 22:55:19.380096+01

 2017-02-05 01:11:02.682444+01 | 1486253462.68244 |                 0 |              27 |                 41253 |                 1748 |            4918123 |             0 |                0 |          493952 |                     0 |        197895 | 2017-02-04 22:55:19.380096+01

 2017-02-05 01:11:03.758552+01 | 1486253463.75855 |                 0 |              27 |                 41253 |                 1748 |            4918123 |             0 |                0 |          493952 |                     0 |        197895 | 2017-02-04 22:55:19.380096+01

 2017-02-05 01:11:04.840199+01 | 1486253464.8402 |                 0 |              27 |                 41253 |                 1748 |            4918123 |             0 |                0 |          493952 |                     0 |        197895 | 2017-02-04 22:55:19.380096+01

 2017-02-05 01:11:05.925388+01 | 1486253465.92539 |                 0 |              27 |                 41253 |                 1748 |            4918123 |             0 |                0 |          493952 |                     0 |        197895 | 2017-02-04 22:55:19.380096+01

 2017-02-05 01:11:07.0088+01 | 1486253467.0088 |                 0 |              27 |                 41253 |                 1748 |            4918123 |             0 |                0 |          493952 |                     0 |        197895 | 2017-02-04 22:55:19.380096+01

 2017-02-05 01:11:08.09788+01 | 1486253468.09788 |                 0 |              27 |                 41253 |                 1748 |            4918123 |             0 |                0 |          493952 |                     0 |        197895 | 2017-02-04 22:55:19.380096+01

 2017-02-05 01:11:09.188675+01 | 1486253469.18867 |                 0 |              27 |                 41253 |                 1748 |            4918123 |             0 |                0 |          493952 |                     0 |        197895 | 2017-02-04 22:55:19.380096+01

 2017-02-05 01:11:10.264104+01 | 1486253470.2641 |                 0 |              27 |                 41253 |                 1748 |            4918123 |             0 |                0 |          493952 |                     0 |        197895 | 2017-02-04 22:55:19.380096+01

 2017-02-05 01:11:11.346083+01 | 1486253471.34608 |                 0 |              27 |                 41253 |                 1748 |            4918123 |             0 |                0 |          493952 |                     0 |        197895 | 2017-02-04 22:55:19.380096+01

 2017-02-05 01:11:12.412914+01 | 1486253472.41291 |                 0 |              27 |                 41253 |                 1748 |            4918123 |             0 |                0 |          493952 |                     0 |        197895 | 2017-02-04 22:55:19.380096+01

 2017-02-05 01:11:13.48227+01 | 1486253473.48227 |                 0 |              27 |                 41253 |                 1748 |            4918123 |             0 |                0 |          493952 |                     0 |        197895 | 2017-02-04 22:55:19.380096+01

 2017-02-05 01:11:14.554616+01 | 1486253474.55462 |                 0 |              27 |                 41253 |                 1748 |            4918123 |             0 |                0 |          493952 |                     0 |        197895 | 2017-02-04 22:55:19.380096+01

 2017-02-05 01:11:15.643107+01 | 1486253475.64311 |                 0 |              27 |                 41253 |                 1748 |            4918123 |             0 |                0 |          493952 |                     0 |        197895 | 2017-02-04 22:55:19.380096+01

 2017-02-05 01:11:16.708459+01 | 1486253476.70846 |                 0 |              27 |                 41253 |                 1748 |            4918123 |             0 |                0 |          493952 |                     0 |        197895 | 2017-02-04 22:55:19.380096+01

 2017-02-05 01:11:17.777949+01 | 1486253477.77795 |                 0 |              27 |                 41253 |                 1748 |            4918123 |             0 |                0 |          493952 |                     0 |        197895 | 2017-02-04 22:55:19.380096+01

 2017-02-05 01:11:18.862923+01 | 1486253478.86292 |                 0 |              27 |                 41253 |                 1748 |            4918123 |             0 |                0 |          493952 |                     0 |        197895 | 2017-02-04 22:55:19.380096+01

 2017-02-05 01:11:19.92757+01 | 1486253479.92757 |                 0 |              27 |                 41253 |                 1748 |            4918123 |             0 |                0 |          493952 |                     0 |        197895 | 2017-02-04 22:55:19.380096+01

 2017-02-05 01:11:21.004671+01 | 1486253481.00467 |                 0 |              27 |                 41253 |                 1748 |            4918123 |             0 |                0 |          493952 |                     0 |        197895 | 2017-02-04 22:55:19.380096+01

 2017-02-05 01:11:22.094312+01 | 1486253482.09431 |                 0 |              27 |                 41253 |                 1748 |            4918123 |             0 |                0 |          493952 |                     0 |        197895 | 2017-02-04 22:55:19.380096+01

 2017-02-05 01:11:23.173567+01 | 1486253483.17357 |                 0 |              27 |                 41253 |                 1748 |            4918123 |             0 |                0 |          493952 |                     0 |        197895 | 2017-02-04 22:55:19.380096+01

 2017-02-05 01:11:24.252072+01 | 1486253484.25207 |                 0 |              27 |                 41253 |                 1748 |            4918123 |             0 |                0 |          493952 |                     0 |        197895 | 2017-02-04 22:55:19.380096+01

 2017-02-05 01:11:25.32953+01 | 1486253485.32953 |                 0 |              27 |                 41253 |                 1748 |            4918123 |             0 |                0 |          493952 |                     0 |        197895 | 2017-02-04 22:55:19.380096+01

 2017-02-05 01:11:26.401587+01 | 1486253486.40159 |                 0 |              27 |                 41253 |                 1748 |            4918123 |             0 |                0 |          493952 |                     0 |        197895 | 2017-02-04 22:55:19.380096+01

 2017-02-05 01:11:27.480591+01 | 1486253487.48059 |                 0 |              27 |                 41253 |                 1748 |            4918123 |             0 |                0 |          493952 |                     0 |        197895 | 2017-02-04 22:55:19.380096+01

 2017-02-05 01:11:28.55923+01 | 1486253488.55923 |                 0 |              27 |                 41253 |                 1748 |            4918123 |             0 |                0 |          493952 |                     0 |        197895 | 2017-02-04 22:55:19.380096+01

 2017-02-05 01:11:29.640001+01 | 1486253489.64 |                 0 |              27 |                 41253 |                 1748 |            4918123 |             0 |                0 |          493952 |                     0 |        197895 | 2017-02-04 22:55:19.380096+01

 2017-02-05 01:11:30.729622+01 | 1486253490.72962 |                 0 |              27 |                 41253 |                 1748 |            4918123 |             0 |                0 |          493952 |                     0 |        197895 | 2017-02-04 22:55:19.380096+01

 2017-02-05 01:11:31.822581+01 | 1486253491.82258 |                 0 |              27 |                 41253 |                 1748 |            4918123 |             0 |                0 |          493952 |                     0 |        197895 | 2017-02-04 22:55:19.380096+01

