 2017-02-03 18:02:48.890856+01 | 1486141368.89086 | 0/4E3F34A0               |            1312765088

 2017-02-03 18:02:49.965161+01 | 1486141369.96516 | 0/4E3F34A0               |            1312765088

 2017-02-03 18:02:51.045003+01 | 1486141371.045 | 0/4E3F34A0               |            1312765088

 2017-02-03 18:02:52.133178+01 | 1486141372.13318 | 0/4E3F34A0               |            1312765088

 2017-02-03 18:02:53.220981+01 | 1486141373.22098 | 0/4E3F34A0               |            1312765088

 2017-02-03 18:02:54.306489+01 | 1486141374.30649 | 0/4E3F34A0               |            1312765088

 2017-02-03 18:02:55.385109+01 | 1486141375.38511 | 0/4E3F34D8               |            1312765144

 2017-02-03 18:02:56.478272+01 | 1486141376.47827 | 0/4E3F34D8               |            1312765144

 2017-02-03 18:02:57.565081+01 | 1486141377.56508 | 0/4E3F34D8               |            1312765144

 2017-02-03 18:02:58.652193+01 | 1486141378.65219 | 0/4E3F34D8               |            1312765144

 2017-02-03 18:02:59.736405+01 | 1486141379.7364 | 0/4E3F34D8               |            1312765144

 2017-02-03 18:03:00.81365+01 | 1486141380.81365 | 0/4E3F34D8               |            1312765144

 2017-02-03 18:03:01.897302+01 | 1486141381.8973 | 0/4E3F34D8               |            1312765144

 2017-02-03 18:03:02.984321+01 | 1486141382.98432 | 0/4E3F34D8               |            1312765144

 2017-02-03 18:03:04.066034+01 | 1486141384.06603 | 0/4E3F34D8               |            1312765144

 2017-02-03 18:03:05.155782+01 | 1486141385.15578 | 0/4E3F34D8               |            1312765144

 2017-02-03 18:03:06.237865+01 | 1486141386.23786 | 0/4E3F34D8               |            1312765144

 2017-02-03 18:03:07.324833+01 | 1486141387.32483 | 0/4E3F34D8               |            1312765144

 2017-02-03 18:03:08.417079+01 | 1486141388.41708 | 0/4E3F34D8               |            1312765144

 2017-02-03 18:03:09.505514+01 | 1486141389.50551 | 0/4E3F34D8               |            1312765144

 2017-02-03 18:03:10.593581+01 | 1486141390.59358 | 0/4E3F34D8               |            1312765144

 2017-02-03 18:03:11.680176+01 | 1486141391.68018 | 0/4E3F34D8               |            1312765144

 2017-02-03 18:03:12.760434+01 | 1486141392.76043 | 0/4E3F34D8               |            1312765144

 2017-02-03 18:03:13.854078+01 | 1486141393.85408 | 0/4E3F34D8               |            1312765144

 2017-02-03 18:03:14.946959+01 | 1486141394.94696 | 0/4E3F34D8               |            1312765144

 2017-02-03 18:03:16.035623+01 | 1486141396.03562 | 0/4E3F34D8               |            1312765144

 2017-02-03 18:03:17.117793+01 | 1486141397.11779 | 0/4E3F34D8               |            1312765144

 2017-02-03 18:03:18.211728+01 | 1486141398.21173 | 0/4E3F34D8               |            1312765144

 2017-02-03 18:03:19.305617+01 | 1486141399.30562 | 0/4E3F34D8               |            1312765144

 2017-02-03 18:03:20.395928+01 | 1486141400.39593 | 0/4E3F34D8               |            1312765144

 2017-02-03 18:03:21.481198+01 | 1486141401.4812 | 0/4E3F34D8               |            1312765144

 2017-02-03 18:03:22.566155+01 | 1486141402.56615 | 0/4E3F34D8               |            1312765144

 2017-02-03 18:03:23.653749+01 | 1486141403.65375 | 0/4E3F34D8               |            1312765144

 2017-02-03 18:03:24.736359+01 | 1486141404.73636 | 0/4E3F34D8               |            1312765144

 2017-02-03 18:03:25.824017+01 | 1486141405.82402 | 0/4E3F34D8               |            1312765144

 2017-02-03 18:03:26.907089+01 | 1486141406.90709 | 0/4E3F34D8               |            1312765144

 2017-02-03 18:03:27.992749+01 | 1486141407.99275 | 0/4E3F34D8               |            1312765144

 2017-02-03 18:03:29.076856+01 | 1486141409.07686 | 0/4E3F34D8               |            1312765144

 2017-02-03 18:03:30.163698+01 | 1486141410.1637 | 0/4E3F34D8               |            1312765144

 2017-02-03 18:03:31.249305+01 | 1486141411.24931 | 0/4E3F34D8               |            1312765144

 2017-02-03 18:03:32.338061+01 | 1486141412.33806 | 0/4E3F34D8               |            1312765144

 2017-02-03 18:03:33.42358+01 | 1486141413.42358 | 0/4E3F34D8               |            1312765144

 2017-02-03 18:03:34.512382+01 | 1486141414.51238 | 0/4E3F34D8               |            1312765144

 2017-02-03 18:03:35.598117+01 | 1486141415.59812 | 0/4E3F34D8               |            1312765144

 2017-02-03 18:03:36.684075+01 | 1486141416.68408 | 0/4E3F34D8               |            1312765144

 2017-02-03 18:03:37.768248+01 | 1486141417.76825 | 0/4E3F34D8               |            1312765144

 2017-02-03 18:03:38.85326+01 | 1486141418.85326 | 0/4E3F34D8               |            1312765144

 2017-02-03 18:03:39.935886+01 | 1486141419.93589 | 0/4E3F34D8               |            1312765144

 2017-02-03 18:03:41.020562+01 | 1486141421.02056 | 0/4E3F34D8               |            1312765144

 2017-02-03 18:03:42.108769+01 | 1486141422.10877 | 0/4E3F34D8               |            1312765144

 2017-02-03 18:03:43.198044+01 | 1486141423.19804 | 0/4E3F34D8               |            1312765144

 2017-02-03 18:03:44.280367+01 | 1486141424.28037 | 0/4E3F34D8               |            1312765144

 2017-02-03 18:03:45.366903+01 | 1486141425.3669 | 0/4E3F34D8               |            1312765144

 2017-02-03 18:03:46.450889+01 | 1486141426.45089 | 0/4E3F34D8               |            1312765144

 2017-02-03 18:03:47.537948+01 | 1486141427.53795 | 0/4E3F34D8               |            1312765144

 2017-02-03 18:03:48.624223+01 | 1486141428.62422 | 0/4E3F34D8               |            1312765144

 2017-02-03 18:03:49.713265+01 | 1486141429.71326 | 0/4E3F34D8               |            1312765144

 2017-02-03 18:03:50.801647+01 | 1486141430.80165 | 0/4E3F34D8               |            1312765144

 2017-02-03 18:03:51.8858+01 | 1486141431.8858 | 0/4E3F34D8               |            1312765144

 2017-02-03 18:03:52.968738+01 | 1486141432.96874 | 0/4E3F34D8               |            1312765144

 2017-02-03 18:03:54.062168+01 | 1486141434.06217 | 0/4E3F34D8               |            1312765144

 2017-02-03 18:03:55.143433+01 | 1486141435.14343 | 0/4E3F34D8               |            1312765144

 2017-02-03 18:03:56.234161+01 | 1486141436.23416 | 0/4E3F34D8               |            1312765144

 2017-02-03 18:03:57.328727+01 | 1486141437.32873 | 0/4E3F34D8               |            1312765144

 2017-02-03 18:03:58.417997+01 | 1486141438.418 | 0/4E3F34D8               |            1312765144

 2017-02-03 18:03:59.49423+01 | 1486141439.49423 | 0/4E3F34D8               |            1312765144

 2017-02-03 18:04:00.577912+01 | 1486141440.57791 | 0/4E3F34D8               |            1312765144

 2017-02-03 18:04:01.664183+01 | 1486141441.66418 | 0/4E3F34D8               |            1312765144

 2017-02-03 18:04:02.743812+01 | 1486141442.74381 | 0/4E3F34D8               |            1312765144

 2017-02-03 18:04:03.82691+01 | 1486141443.82691 | 0/4E3F34D8               |            1312765144

 2017-02-03 18:04:04.911093+01 | 1486141444.91109 | 0/4E3F34D8               |            1312765144

 2017-02-03 18:04:05.994156+01 | 1486141445.99416 | 0/4E3F34D8               |            1312765144

 2017-02-03 18:04:07.087656+01 | 1486141447.08766 | 0/4E3F34D8               |            1312765144

 2017-02-03 18:04:08.174975+01 | 1486141448.17497 | 0/4E3F34D8               |            1312765144

 2017-02-03 18:04:09.26594+01 | 1486141449.26594 | 0/4E3F34D8               |            1312765144

 2017-02-03 18:04:10.348031+01 | 1486141450.34803 | 0/4E3F34D8               |            1312765144

 2017-02-03 18:04:11.428774+01 | 1486141451.42877 | 0/4E3F34D8               |            1312765144

 2017-02-03 18:04:12.512446+01 | 1486141452.51245 | 0/4E3F34D8               |            1312765144

 2017-02-03 18:04:13.597181+01 | 1486141453.59718 | 0/4E3F34D8               |            1312765144

 2017-02-03 18:04:14.686626+01 | 1486141454.68663 | 0/4E3F34D8               |            1312765144

 2017-02-03 18:04:15.773398+01 | 1486141455.7734 | 0/4E3F34D8               |            1312765144

 2017-02-03 18:04:16.86466+01 | 1486141456.86466 | 0/4E3F34D8               |            1312765144

 2017-02-03 18:04:17.95058+01 | 1486141457.95058 | 0/4E3F34D8               |            1312765144

 2017-02-03 18:04:19.040504+01 | 1486141459.0405 | 0/4E3F34D8               |            1312765144

 2017-02-03 18:04:20.126104+01 | 1486141460.1261 | 0/4E3F34D8               |            1312765144

 2017-02-03 18:04:21.216039+01 | 1486141461.21604 | 0/4E3F34D8               |            1312765144

 2017-02-03 18:04:22.30403+01 | 1486141462.30403 | 0/4E3F34D8               |            1312765144

 2017-02-03 18:04:23.395261+01 | 1486141463.39526 | 0/4E3F34D8               |            1312765144

 2017-02-03 18:04:24.48987+01 | 1486141464.48987 | 0/4E3F34D8               |            1312765144

 2017-02-03 18:04:25.574545+01 | 1486141465.57454 | 0/4E3F34D8               |            1312765144

 2017-02-03 18:04:26.661162+01 | 1486141466.66116 | 0/4E3F34D8               |            1312765144

 2017-02-03 18:04:27.748908+01 | 1486141467.74891 | 0/4E3F34D8               |            1312765144

 2017-02-03 18:04:28.836888+01 | 1486141468.83689 | 0/4E3F34D8               |            1312765144

 2017-02-03 18:04:29.922951+01 | 1486141469.92295 | 0/4E3F34D8               |            1312765144

 2017-02-03 18:04:31.012364+01 | 1486141471.01236 | 0/4E3F34D8               |            1312765144

 2017-02-03 18:04:32.10235+01 | 1486141472.10235 | 0/4E3F34D8               |            1312765144

 2017-02-03 18:04:33.191726+01 | 1486141473.19173 | 0/4E3F34D8               |            1312765144

 2017-02-03 18:04:34.276154+01 | 1486141474.27615 | 0/4E3F34D8               |            1312765144

 2017-02-03 18:04:35.357061+01 | 1486141475.35706 | 0/4E3F34D8               |            1312765144

 2017-02-03 18:04:36.441323+01 | 1486141476.44132 | 0/4E3F34D8               |            1312765144

 2017-02-03 18:04:37.529769+01 | 1486141477.52977 | 0/4E3F34D8               |            1312765144

 2017-02-03 18:04:38.620512+01 | 1486141478.62051 | 0/4E3F34D8               |            1312765144

 2017-02-03 18:04:39.709365+01 | 1486141479.70936 | 0/4E3F34D8               |            1312765144

 2017-02-03 18:04:40.796883+01 | 1486141480.79688 | 0/4E3F34D8               |            1312765144

 2017-02-03 18:04:41.882603+01 | 1486141481.8826 | 0/4E3F34D8               |            1312765144

 2017-02-03 18:04:42.969788+01 | 1486141482.96979 | 0/4E3F34D8               |            1312765144

 2017-02-03 18:04:44.059679+01 | 1486141484.05968 | 0/4E3F34D8               |            1312765144

 2017-02-03 18:04:45.144756+01 | 1486141485.14476 | 0/4E3F34D8               |            1312765144

 2017-02-03 18:04:46.228184+01 | 1486141486.22818 | 0/4E3F34D8               |            1312765144

 2017-02-03 18:04:47.319301+01 | 1486141487.3193 | 0/4E3F34D8               |            1312765144

 2017-02-03 18:04:48.401329+01 | 1486141488.40133 | 0/4E3F34D8               |            1312765144

 2017-02-03 18:04:49.482153+01 | 1486141489.48215 | 0/4E3F34D8               |            1312765144

 2017-02-03 18:04:50.568943+01 | 1486141490.56894 | 0/4E3F34D8               |            1312765144

 2017-02-03 18:04:51.657598+01 | 1486141491.6576 | 0/4E3F34D8               |            1312765144

 2017-02-03 18:04:52.744455+01 | 1486141492.74446 | 0/4E3F34D8               |            1312765144

 2017-02-03 18:04:53.826476+01 | 1486141493.82648 | 0/4E3F34D8               |            1312765144

 2017-02-03 18:04:54.915338+01 | 1486141494.91534 | 0/4E3F34D8               |            1312765144

 2017-02-03 18:04:55.996478+01 | 1486141495.99648 | 0/4E3F34D8               |            1312765144

 2017-02-03 18:04:57.076292+01 | 1486141497.07629 | 0/4E3F34D8               |            1312765144

 2017-02-03 18:04:58.163196+01 | 1486141498.1632 | 0/4E3F34D8               |            1312765144

 2017-02-03 18:04:59.251922+01 | 1486141499.25192 | 0/4E3F34D8               |            1312765144

 2017-02-03 18:05:00.336019+01 | 1486141500.33602 | 0/4E3F34D8               |            1312765144

 2017-02-03 18:05:01.41887+01 | 1486141501.41887 | 0/4E3F34D8               |            1312765144

 2017-02-03 18:05:02.508759+01 | 1486141502.50876 | 0/4E3F34D8               |            1312765144

 2017-02-03 18:05:03.596127+01 | 1486141503.59613 | 0/4E3F34D8               |            1312765144

 2017-02-03 18:05:04.684368+01 | 1486141504.68437 | 0/4E3F34D8               |            1312765144

 2017-02-03 18:05:05.770291+01 | 1486141505.77029 | 0/4E3F34D8               |            1312765144

 2017-02-03 18:05:06.85765+01 | 1486141506.85765 | 0/4E3F34D8               |            1312765144

 2017-02-03 18:05:07.942294+01 | 1486141507.94229 | 0/4E3F34D8               |            1312765144

 2017-02-03 18:05:09.028553+01 | 1486141509.02855 | 0/4E3F34D8               |            1312765144

 2017-02-03 18:05:10.119684+01 | 1486141510.11968 | 0/4E3F34D8               |            1312765144

 2017-02-03 18:05:11.206673+01 | 1486141511.20667 | 0/4E3F34D8               |            1312765144

 2017-02-03 18:05:12.289707+01 | 1486141512.28971 | 0/4E3F34D8               |            1312765144

 2017-02-03 18:05:13.373865+01 | 1486141513.37386 | 0/4E3F34D8               |            1312765144

 2017-02-03 18:05:14.458971+01 | 1486141514.45897 | 0/4E3F34D8               |            1312765144

 2017-02-03 18:05:15.549859+01 | 1486141515.54986 | 0/4E3F34D8               |            1312765144

 2017-02-03 18:05:16.637085+01 | 1486141516.63708 | 0/4E3F34D8               |            1312765144

 2017-02-03 18:05:17.726284+01 | 1486141517.72628 | 0/4E3F34D8               |            1312765144

 2017-02-03 18:05:18.809529+01 | 1486141518.80953 | 0/4E3F34D8               |            1312765144

 2017-02-03 18:05:19.894282+01 | 1486141519.89428 | 0/4E3F34D8               |            1312765144

 2017-02-03 18:05:20.984384+01 | 1486141520.98438 | 0/4E3F34D8               |            1312765144

 2017-02-03 18:05:22.069325+01 | 1486141522.06932 | 0/4E3F34D8               |            1312765144

 2017-02-03 18:05:23.154782+01 | 1486141523.15478 | 0/4E3F34D8               |            1312765144

 2017-02-03 18:05:24.244337+01 | 1486141524.24434 | 0/4E3F34D8               |            1312765144

 2017-02-03 18:05:25.332757+01 | 1486141525.33276 | 0/4E3F34D8               |            1312765144

 2017-02-03 18:05:26.417463+01 | 1486141526.41746 | 0/4E3F34D8               |            1312765144

 2017-02-03 18:05:27.499974+01 | 1486141527.49997 | 0/4E3F34D8               |            1312765144

 2017-02-03 18:05:28.581427+01 | 1486141528.58143 | 0/4E3F34D8               |            1312765144

 2017-02-03 18:05:29.674923+01 | 1486141529.67492 | 0/4E3F34D8               |            1312765144

 2017-02-03 18:05:30.760179+01 | 1486141530.76018 | 0/4E3F34D8               |            1312765144

 2017-02-03 18:05:31.84911+01 | 1486141531.84911 | 0/4E3F34D8               |            1312765144

 2017-02-03 18:05:32.934144+01 | 1486141532.93414 | 0/4E3F34D8               |            1312765144

 2017-02-03 18:05:34.018576+01 | 1486141534.01858 | 0/4E3F34D8               |            1312765144

 2017-02-03 18:05:35.107156+01 | 1486141535.10716 | 0/4E3F34D8               |            1312765144

 2017-02-03 18:05:36.197891+01 | 1486141536.19789 | 0/4E3F34D8               |            1312765144

 2017-02-03 18:05:37.289417+01 | 1486141537.28942 | 0/4E3F34D8               |            1312765144

 2017-02-03 18:05:38.383531+01 | 1486141538.38353 | 0/4E3F34D8               |            1312765144

 2017-02-03 18:05:39.465066+01 | 1486141539.46507 | 0/4E3F34D8               |            1312765144

 2017-02-03 18:05:40.55024+01 | 1486141540.55024 | 0/4E3F34D8               |            1312765144

 2017-02-03 18:05:41.629838+01 | 1486141541.62984 | 0/4E3F34D8               |            1312765144

 2017-02-03 18:05:42.715696+01 | 1486141542.7157 | 0/4E3F34D8               |            1312765144

 2017-02-03 18:05:43.802448+01 | 1486141543.80245 | 0/4E3F34D8               |            1312765144

 2017-02-03 18:05:44.893499+01 | 1486141544.8935 | 0/4E3F34D8               |            1312765144

 2017-02-03 18:05:45.979989+01 | 1486141545.97999 | 0/4E3F34D8               |            1312765144

 2017-02-03 18:05:47.073168+01 | 1486141547.07317 | 0/4E3F34D8               |            1312765144

 2017-02-03 18:05:48.15654+01 | 1486141548.15654 | 0/4E3F34D8               |            1312765144

 2017-02-03 18:05:49.241199+01 | 1486141549.2412 | 0/4E3F34D8               |            1312765144

 2017-02-03 18:05:50.328643+01 | 1486141550.32864 | 0/4E3F34D8               |            1312765144

 2017-02-03 18:05:51.417904+01 | 1486141551.4179 | 0/4E3F34D8               |            1312765144

 2017-02-03 18:05:52.49795+01 | 1486141552.49795 | 0/4E3F34D8               |            1312765144

 2017-02-03 18:05:53.58255+01 | 1486141553.58255 | 0/4E3F34D8               |            1312765144

 2017-02-03 18:05:54.672561+01 | 1486141554.67256 | 0/4E3F34D8               |            1312765144

 2017-02-03 18:05:55.751206+01 | 1486141555.75121 | 0/4E3F34D8               |            1312765144

 2017-02-03 18:05:56.835892+01 | 1486141556.83589 | 0/4E3F34D8               |            1312765144

 2017-02-03 18:05:57.92414+01 | 1486141557.92414 | 0/4E3F34D8               |            1312765144

 2017-02-03 18:05:59.01457+01 | 1486141559.01457 | 0/4E3F34D8               |            1312765144

 2017-02-03 18:06:00.107369+01 | 1486141560.10737 | 0/4E3F34D8               |            1312765144

 2017-02-03 18:06:01.19453+01 | 1486141561.19453 | 0/4E3F34D8               |            1312765144

 2017-02-03 18:06:02.281737+01 | 1486141562.28174 | 0/4E3F34D8               |            1312765144

 2017-02-03 18:06:03.370365+01 | 1486141563.37036 | 0/4E3F34D8               |            1312765144

 2017-02-03 18:06:04.458501+01 | 1486141564.4585 | 0/4E3F34D8               |            1312765144

 2017-02-03 18:06:05.545977+01 | 1486141565.54598 | 0/4E3F34D8               |            1312765144

 2017-02-03 18:06:06.631433+01 | 1486141566.63143 | 0/4E3F34D8               |            1312765144

 2017-02-03 18:06:07.711486+01 | 1486141567.71149 | 0/4E3F34D8               |            1312765144

 2017-02-03 18:06:08.795209+01 | 1486141568.79521 | 0/4E3F34D8               |            1312765144

 2017-02-03 18:06:09.879905+01 | 1486141569.8799 | 0/4E3F34D8               |            1312765144

 2017-02-03 18:06:10.971757+01 | 1486141570.97176 | 0/4E3F34D8               |            1312765144

 2017-02-03 18:06:12.064618+01 | 1486141572.06462 | 0/4E3F34D8               |            1312765144

 2017-02-03 18:06:13.156012+01 | 1486141573.15601 | 0/4E3F34D8               |            1312765144

 2017-02-03 18:06:14.248518+01 | 1486141574.24852 | 0/4E3F34D8               |            1312765144

 2017-02-03 18:06:15.33652+01 | 1486141575.33652 | 0/4E3F34D8               |            1312765144

 2017-02-03 18:06:16.420704+01 | 1486141576.4207 | 0/4E3F34D8               |            1312765144

 2017-02-03 18:06:17.506322+01 | 1486141577.50632 | 0/4E3F34D8               |            1312765144

 2017-02-03 18:06:18.58692+01 | 1486141578.58692 | 0/4E3F34D8               |            1312765144

 2017-02-03 18:06:19.674351+01 | 1486141579.67435 | 0/4E3F34D8               |            1312765144

 2017-02-03 18:06:20.764655+01 | 1486141580.76466 | 0/4E3F34D8               |            1312765144

 2017-02-03 18:06:21.847965+01 | 1486141581.84797 | 0/4E3F34D8               |            1312765144

 2017-02-03 18:06:22.930269+01 | 1486141582.93027 | 0/4E3F34D8               |            1312765144

 2017-02-03 18:06:24.015962+01 | 1486141584.01596 | 0/4E3F34D8               |            1312765144

 2017-02-03 18:06:25.103738+01 | 1486141585.10374 | 0/4E3F34D8               |            1312765144

 2017-02-03 18:06:26.19306+01 | 1486141586.19306 | 0/4E3F34D8               |            1312765144

 2017-02-03 18:06:27.280207+01 | 1486141587.28021 | 0/4E3F34D8               |            1312765144

 2017-02-03 18:06:28.371251+01 | 1486141588.37125 | 0/4E3F34D8               |            1312765144

 2017-02-03 18:06:29.456756+01 | 1486141589.45676 | 0/4E3F34D8               |            1312765144

 2017-02-03 18:06:30.545726+01 | 1486141590.54573 | 0/4E3F34D8               |            1312765144

 2017-02-03 18:06:31.633376+01 | 1486141591.63338 | 0/4E3F34D8               |            1312765144

 2017-02-03 18:06:32.723721+01 | 1486141592.72372 | 0/4E3F34D8               |            1312765144

 2017-02-03 18:06:33.805599+01 | 1486141593.8056 | 0/4E3F34D8               |            1312765144

 2017-02-03 18:06:34.8926+01 | 1486141594.8926 | 0/4E3F34D8               |            1312765144

 2017-02-03 18:06:35.97557+01 | 1486141595.97557 | 0/4E3F34D8               |            1312765144

 2017-02-03 18:06:37.06503+01 | 1486141597.06503 | 0/4E3F34D8               |            1312765144

 2017-02-03 18:06:38.153329+01 | 1486141598.15333 | 0/4E3F34D8               |            1312765144

 2017-02-03 18:06:39.237059+01 | 1486141599.23706 | 0/4E3F34D8               |            1312765144

 2017-02-03 18:06:40.321647+01 | 1486141600.32165 | 0/4E3F34D8               |            1312765144

 2017-02-03 18:06:41.406913+01 | 1486141601.40691 | 0/4E3F34D8               |            1312765144

 2017-02-03 18:06:42.493172+01 | 1486141602.49317 | 0/4E3F34D8               |            1312765144

 2017-02-03 18:06:43.583926+01 | 1486141603.58393 | 0/4E3F34D8               |            1312765144

 2017-02-03 18:06:44.671382+01 | 1486141604.67138 | 0/4E3F34D8               |            1312765144

 2017-02-03 18:06:45.75853+01 | 1486141605.75853 | 0/4E3F34D8               |            1312765144

 2017-02-03 18:06:46.842382+01 | 1486141606.84238 | 0/4E3F34D8               |            1312765144

 2017-02-03 18:06:47.929027+01 | 1486141607.92903 | 0/4E3F34D8               |            1312765144

 2017-02-03 18:06:49.008155+01 | 1486141609.00816 | 0/4E3F34D8               |            1312765144

 2017-02-03 18:06:50.098296+01 | 1486141610.0983 | 0/4E3F34D8               |            1312765144

 2017-02-03 18:06:51.183284+01 | 1486141611.18328 | 0/4E3F34D8               |            1312765144

 2017-02-03 18:06:52.272856+01 | 1486141612.27286 | 0/4E3F34D8               |            1312765144

 2017-02-03 18:06:53.361499+01 | 1486141613.3615 | 0/4E3F34D8               |            1312765144

 2017-02-03 18:06:54.447214+01 | 1486141614.44721 | 0/4E3F34D8               |            1312765144

 2017-02-03 18:06:55.531546+01 | 1486141615.53155 | 0/4E3F34D8               |            1312765144

 2017-02-03 18:06:56.616561+01 | 1486141616.61656 | 0/4E3F34D8               |            1312765144

 2017-02-03 18:06:57.69793+01 | 1486141617.69793 | 0/4E3F34D8               |            1312765144

 2017-02-03 18:06:58.78206+01 | 1486141618.78206 | 0/4E3F34D8               |            1312765144

 2017-02-03 18:06:59.865917+01 | 1486141619.86592 | 0/4E3F34D8               |            1312765144

 2017-02-03 18:07:00.955807+01 | 1486141620.95581 | 0/4E3F34D8               |            1312765144

 2017-02-03 18:07:02.046102+01 | 1486141622.0461 | 0/4E3F34D8               |            1312765144

 2017-02-03 18:07:03.140282+01 | 1486141623.14028 | 0/4E3F34D8               |            1312765144

 2017-02-03 18:07:04.226425+01 | 1486141624.22642 | 0/4E3F34D8               |            1312765144

 2017-02-03 18:07:05.313283+01 | 1486141625.31328 | 0/4E3F34D8               |            1312765144

 2017-02-03 18:07:06.401698+01 | 1486141626.4017 | 0/4E3F34D8               |            1312765144

 2017-02-03 18:07:07.492294+01 | 1486141627.49229 | 0/4E3F34D8               |            1312765144

 2017-02-03 18:07:08.58173+01 | 1486141628.58173 | 0/4E3F34D8               |            1312765144

 2017-02-03 18:07:09.673213+01 | 1486141629.67321 | 0/4E3F34D8               |            1312765144

 2017-02-03 18:07:10.76479+01 | 1486141630.76479 | 0/4E3F34D8               |            1312765144

 2017-02-03 18:07:11.849571+01 | 1486141631.84957 | 0/4E3F34D8               |            1312765144

 2017-02-03 18:07:12.933141+01 | 1486141632.93314 | 0/4E3F34D8               |            1312765144

 2017-02-03 18:07:14.015263+01 | 1486141634.01526 | 0/4E3F34D8               |            1312765144

 2017-02-03 18:07:15.099235+01 | 1486141635.09924 | 0/4E3F34D8               |            1312765144

 2017-02-03 18:07:16.182089+01 | 1486141636.18209 | 0/4E3F34D8               |            1312765144

 2017-02-03 18:07:17.26781+01 | 1486141637.26781 | 0/4E3F34D8               |            1312765144

 2017-02-03 18:07:18.366084+01 | 1486141638.36608 | 0/4E3F34D8               |            1312765144

 2017-02-03 18:07:19.451554+01 | 1486141639.45155 | 0/4E3F34D8               |            1312765144

 2017-02-03 18:07:20.539755+01 | 1486141640.53976 | 0/4E3F34D8               |            1312765144

 2017-02-03 18:07:21.630058+01 | 1486141641.63006 | 0/4E3F34D8               |            1312765144

 2017-02-03 18:07:22.719989+01 | 1486141642.71999 | 0/4E3F34D8               |            1312765144

 2017-02-03 18:07:23.802154+01 | 1486141643.80215 | 0/4E3F34D8               |            1312765144

 2017-02-03 18:07:24.896605+01 | 1486141644.89661 | 0/4E3F34D8               |            1312765144

 2017-02-03 18:07:25.985987+01 | 1486141645.98599 | 0/4E3F34D8               |            1312765144

 2017-02-03 18:07:27.072723+01 | 1486141647.07272 | 0/4E3F34D8               |            1312765144

 2017-02-03 18:07:28.148456+01 | 1486141648.14846 | 0/4E3F34D8               |            1312765144

 2017-02-03 18:07:29.236851+01 | 1486141649.23685 | 0/4E3F34D8               |            1312765144

 2017-02-03 18:07:30.320045+01 | 1486141650.32004 | 0/4E3F34D8               |            1312765144

 2017-02-03 18:07:31.407337+01 | 1486141651.40734 | 0/4E3F34D8               |            1312765144

 2017-02-03 18:07:32.489685+01 | 1486141652.48969 | 0/4E3F34D8               |            1312765144

 2017-02-03 18:07:33.581148+01 | 1486141653.58115 | 0/4E3F34D8               |            1312765144

 2017-02-03 18:07:34.668949+01 | 1486141654.66895 | 0/4E3F34D8               |            1312765144

 2017-02-03 18:07:35.757771+01 | 1486141655.75777 | 0/4E3F34D8               |            1312765144

 2017-02-03 18:07:36.841146+01 | 1486141656.84115 | 0/4E3F34D8               |            1312765144

 2017-02-03 18:07:37.930577+01 | 1486141657.93058 | 0/4E3F34D8               |            1312765144

 2017-02-03 18:07:39.008012+01 | 1486141659.00801 | 0/4E3F34D8               |            1312765144

 2017-02-03 18:07:40.093124+01 | 1486141660.09312 | 0/4E3F34D8               |            1312765144

 2017-02-03 18:07:41.176966+01 | 1486141661.17697 | 0/4E3F34D8               |            1312765144

 2017-02-03 18:07:42.265642+01 | 1486141662.26564 | 0/4E3F34D8               |            1312765144

 2017-02-03 18:07:43.360659+01 | 1486141663.36066 | 0/4E3F34D8               |            1312765144

 2017-02-03 18:07:44.449417+01 | 1486141664.44942 | 0/4E3F34D8               |            1312765144

 2017-02-03 18:07:45.528044+01 | 1486141665.52804 | 0/4E3F34D8               |            1312765144

 2017-02-03 18:07:46.612325+01 | 1486141666.61232 | 0/4E3F34D8               |            1312765144

 2017-02-03 18:07:47.697937+01 | 1486141667.69794 | 0/4E3F34D8               |            1312765144

 2017-02-03 18:07:48.782604+01 | 1486141668.7826 | 0/4E3F34D8               |            1312765144

