 2017-02-06 18:14:23.936884+01 | 1486401263.93688 |                 0 |               3 |                 18884 |                  276 |            1023951 |        279690 |             2791 |        10734415 |                     0 |       6354106 | 2017-02-06 18:00:10.837486+01

 2017-02-06 18:14:25.030839+01 | 1486401265.03084 |                 0 |               3 |                 18884 |                  276 |            1023951 |        279690 |             2791 |        10734415 |                     0 |       6358596 | 2017-02-06 18:00:10.837486+01

 2017-02-06 18:14:26.112257+01 | 1486401266.11226 |                 0 |               3 |                 18884 |                  276 |            1023951 |        279690 |             2791 |        10734415 |                     0 |       6363372 | 2017-02-06 18:00:10.837486+01

 2017-02-06 18:14:27.192726+01 | 1486401267.19273 |                 0 |               3 |                 18884 |                  276 |            1023951 |        279690 |             2791 |        10734415 |                     0 |       6368116 | 2017-02-06 18:00:10.837486+01

 2017-02-06 18:14:28.271309+01 | 1486401268.27131 |                 0 |               3 |                 18884 |                  276 |            1023951 |        279690 |             2791 |        10734415 |                     0 |       6373934 | 2017-02-06 18:00:10.837486+01

 2017-02-06 18:14:29.362991+01 | 1486401269.36299 |                 0 |               3 |                 18884 |                  276 |            1023951 |        279690 |             2791 |        10734415 |                     0 |       6378707 | 2017-02-06 18:00:10.837486+01

 2017-02-06 18:14:30.444752+01 | 1486401270.44475 |                 0 |               3 |                 18884 |                  276 |            1023951 |        279690 |             2791 |        10734415 |                     0 |       6384016 | 2017-02-06 18:00:10.837486+01

 2017-02-06 18:14:31.536401+01 | 1486401271.5364 |                 0 |               3 |                 18884 |                  276 |            1023951 |        279690 |             2791 |        10734415 |                     0 |       6388143 | 2017-02-06 18:00:10.837486+01

 2017-02-06 18:14:32.629319+01 | 1486401272.62932 |                 0 |               3 |                 18884 |                  276 |            1023951 |        279690 |             2791 |        10734415 |                     0 |       6391999 | 2017-02-06 18:00:10.837486+01

 2017-02-06 18:14:33.708925+01 | 1486401273.70893 |                 0 |               3 |                 18884 |                  276 |            1023951 |        279690 |             2791 |        10734415 |                     0 |       6396938 | 2017-02-06 18:00:10.837486+01

 2017-02-06 18:14:34.796611+01 | 1486401274.79661 |                 0 |               3 |                 18884 |                  276 |            1023951 |        279690 |             2791 |        10734415 |                     0 |       6400720 | 2017-02-06 18:00:10.837486+01

 2017-02-06 18:14:35.874935+01 | 1486401275.87493 |                 0 |               3 |                 18884 |                  276 |            1023951 |        279690 |             2791 |        10734415 |                     0 |       6405978 | 2017-02-06 18:00:10.837486+01

 2017-02-06 18:14:36.953537+01 | 1486401276.95354 |                 0 |               3 |                 18884 |                  276 |            1023951 |        279748 |             2791 |        10734415 |                     0 |       6410393 | 2017-02-06 18:00:10.837486+01

 2017-02-06 18:14:38.035213+01 | 1486401278.03521 |                 0 |               3 |                 18884 |                  276 |            1023951 |        279887 |             2791 |        10734415 |                     0 |       6414823 | 2017-02-06 18:00:10.837486+01

 2017-02-06 18:14:39.113138+01 | 1486401279.11314 |                 0 |               3 |                 18884 |                  276 |            1023951 |        280029 |             2791 |        10734415 |                     0 |       6420210 | 2017-02-06 18:00:10.837486+01

 2017-02-06 18:14:40.189811+01 | 1486401280.18981 |                 0 |               3 |                 18884 |                  276 |            1023951 |        280148 |             2791 |        10734415 |                     0 |       6425000 | 2017-02-06 18:00:10.837486+01

 2017-02-06 18:14:41.27496+01 | 1486401281.27496 |                 0 |               3 |                 18884 |                  276 |            1023951 |        280291 |             2791 |        10734415 |                     0 |       6430256 | 2017-02-06 18:00:10.837486+01

 2017-02-06 18:14:42.360765+01 | 1486401282.36076 |                 0 |               3 |                 18884 |                  276 |            1023951 |        280440 |             2791 |        10734415 |                     0 |       6434941 | 2017-02-06 18:00:10.837486+01

 2017-02-06 18:14:43.436038+01 | 1486401283.43604 |                 0 |               3 |                 18884 |                  276 |            1023951 |        280617 |             2791 |        10734415 |                     0 |       6439001 | 2017-02-06 18:00:10.837486+01

 2017-02-06 18:14:44.518889+01 | 1486401284.51889 |                 0 |               3 |                 18884 |                  276 |            1023951 |        280843 |             2791 |        10734415 |                     0 |       6444672 | 2017-02-06 18:00:10.837486+01

 2017-02-06 18:14:45.603985+01 | 1486401285.60399 |                 0 |               3 |                 18884 |                  276 |            1023951 |        281052 |             2791 |        10734415 |                     0 |       6449463 | 2017-02-06 18:00:10.837486+01

 2017-02-06 18:14:46.690128+01 | 1486401286.69013 |                 0 |               3 |                 18884 |                  276 |            1023951 |        281279 |             2791 |        10734415 |                     0 |       6453948 | 2017-02-06 18:00:10.837486+01

 2017-02-06 18:14:47.772994+01 | 1486401287.77299 |                 0 |               3 |                 18884 |                  276 |            1023951 |        281534 |             2791 |        10734415 |                     0 |       6458593 | 2017-02-06 18:00:10.837486+01

 2017-02-06 18:14:48.85294+01 | 1486401288.85294 |                 0 |               3 |                 18884 |                  276 |            1023951 |        281784 |             2791 |        10734415 |                     0 |       6462578 | 2017-02-06 18:00:10.837486+01

 2017-02-06 18:14:49.943302+01 | 1486401289.9433 |                 0 |               3 |                 18884 |                  276 |            1023951 |        282093 |             2791 |        10734415 |                     0 |       6468145 | 2017-02-06 18:00:10.837486+01

 2017-02-06 18:14:51.025343+01 | 1486401291.02534 |                 0 |               3 |                 18884 |                  276 |            1023951 |        282355 |             2791 |        10734415 |                     0 |       6473110 | 2017-02-06 18:00:10.837486+01

 2017-02-06 18:14:52.113549+01 | 1486401292.11355 |                 0 |               3 |                 18884 |                  276 |            1023951 |        282618 |             2791 |        10734415 |                     0 |       6477766 | 2017-02-06 18:00:10.837486+01

 2017-02-06 18:14:53.196773+01 | 1486401293.19677 |                 0 |               3 |                 18884 |                  276 |            1023951 |        282976 |             2791 |        10734415 |                     0 |       6483063 | 2017-02-06 18:00:10.837486+01

 2017-02-06 18:14:54.2877+01 | 1486401294.2877 |                 0 |               3 |                 18884 |                  276 |            1023951 |        283176 |             2791 |        10734415 |                     0 |       6486915 | 2017-02-06 18:00:10.837486+01

 2017-02-06 18:14:55.373986+01 | 1486401295.37399 |                 0 |               3 |                 18884 |                  276 |            1023951 |        283392 |             2791 |        10734415 |                     0 |       6491318 | 2017-02-06 18:00:10.837486+01

 2017-02-06 18:14:56.453518+01 | 1486401296.45352 |                 0 |               3 |                 18884 |                  276 |            1023951 |        283611 |             2791 |        10734415 |                     0 |       6495771 | 2017-02-06 18:00:10.837486+01

 2017-02-06 18:14:57.531315+01 | 1486401297.53132 |                 0 |               3 |                 18884 |                  276 |            1023951 |        283854 |             2791 |        10734415 |                     0 |       6500768 | 2017-02-06 18:00:10.837486+01

 2017-02-06 18:14:58.606325+01 | 1486401298.60632 |                 0 |               3 |                 18884 |                  276 |            1023951 |        284169 |             2791 |        10734415 |                     0 |       6506735 | 2017-02-06 18:00:10.837486+01

 2017-02-06 18:14:59.688185+01 | 1486401299.68818 |                 0 |               3 |                 18884 |                  276 |            1023951 |        284426 |             2791 |        10734415 |                     0 |       6511530 | 2017-02-06 18:00:10.837486+01

 2017-02-06 18:15:00.755897+01 | 1486401300.7559 |                 0 |               3 |                 18884 |                  276 |            1023951 |        284673 |             2791 |        10734415 |                     0 |       6516075 | 2017-02-06 18:00:10.837486+01

 2017-02-06 18:15:01.833752+01 | 1486401301.83375 |                 0 |               3 |                 18884 |                  276 |            1023951 |        284973 |             2791 |        10734415 |                     0 |       6521563 | 2017-02-06 18:00:10.837486+01

 2017-02-06 18:15:02.909642+01 | 1486401302.90964 |                 0 |               3 |                 18884 |                  276 |            1023951 |        285457 |             2795 |        10734415 |                     0 |       6525954 | 2017-02-06 18:00:10.837486+01

 2017-02-06 18:15:03.994263+01 | 1486401303.99426 |                 0 |               3 |                 18884 |                  276 |            1023951 |        285957 |             2800 |        10734415 |                     0 |       6530425 | 2017-02-06 18:00:10.837486+01

 2017-02-06 18:15:05.08578+01 | 1486401305.08578 |                 0 |               3 |                 18884 |                  276 |            1023951 |        286557 |             2806 |        10734415 |                     0 |       6535444 | 2017-02-06 18:00:10.837486+01

 2017-02-06 18:15:06.173221+01 | 1486401306.17322 |                 0 |               3 |                 18884 |                  276 |            1023951 |        287057 |             2811 |        10734415 |                     0 |       6539446 | 2017-02-06 18:00:10.837486+01

 2017-02-06 18:15:07.250136+01 | 1486401307.25014 |                 0 |               3 |                 18884 |                  276 |            1023951 |        287557 |             2816 |        10734415 |                     0 |       6543564 | 2017-02-06 18:00:10.837486+01

 2017-02-06 18:15:08.323628+01 | 1486401308.32363 |                 0 |               3 |                 18884 |                  276 |            1023951 |        288157 |             2822 |        10734415 |                     0 |       6548930 | 2017-02-06 18:00:10.837486+01

 2017-02-06 18:15:09.401012+01 | 1486401309.40101 |                 0 |               3 |                 18884 |                  276 |            1023951 |        288657 |             2827 |        10734415 |                     0 |       6553259 | 2017-02-06 18:00:10.837486+01

 2017-02-06 18:15:10.481282+01 | 1486401310.48128 |                 0 |               3 |                 18884 |                  276 |            1023951 |        289157 |             2832 |        10734415 |                     0 |       6557591 | 2017-02-06 18:00:10.837486+01

 2017-02-06 18:15:11.571126+01 | 1486401311.57113 |                 0 |               3 |                 18884 |                  276 |            1023951 |        289757 |             2838 |        10734415 |                     0 |       6563413 | 2017-02-06 18:00:10.837486+01

 2017-02-06 18:15:12.647337+01 | 1486401312.64734 |                 0 |               3 |                 18884 |                  276 |            1023951 |        290257 |             2843 |        10734415 |                     0 |       6567686 | 2017-02-06 18:00:10.837486+01

 2017-02-06 18:15:13.722072+01 | 1486401313.72207 |                 0 |               3 |                 18884 |                  276 |            1023951 |        290757 |             2848 |        10734415 |                     0 |       6572613 | 2017-02-06 18:00:10.837486+01

 2017-02-06 18:15:14.796645+01 | 1486401314.79664 |                 0 |               3 |                 18884 |                  276 |            1023951 |        291357 |             2854 |        10734415 |                     0 |       6578396 | 2017-02-06 18:00:10.837486+01

 2017-02-06 18:15:15.875903+01 | 1486401315.8759 |                 0 |               3 |                 18884 |                  276 |            1023951 |        291857 |             2859 |        10734415 |                     0 |       6583269 | 2017-02-06 18:00:10.837486+01

 2017-02-06 18:15:16.948619+01 | 1486401316.94862 |                 0 |               3 |                 18884 |                  276 |            1023951 |        292357 |             2864 |        10734415 |                     0 |       6588096 | 2017-02-06 18:00:10.837486+01

 2017-02-06 18:15:18.024505+01 | 1486401318.0245 |                 0 |               3 |                 18884 |                  276 |            1023951 |        292957 |             2870 |        10734415 |                     0 |       6593677 | 2017-02-06 18:00:10.837486+01

 2017-02-06 18:15:19.109229+01 | 1486401319.10923 |                 0 |               3 |                 18884 |                  276 |            1023951 |        293457 |             2875 |        10734415 |                     0 |       6598478 | 2017-02-06 18:00:10.837486+01

 2017-02-06 18:15:20.186778+01 | 1486401320.18678 |                 0 |               3 |                 18884 |                  276 |            1023951 |        293957 |             2880 |        10734415 |                     0 |       6603677 | 2017-02-06 18:00:10.837486+01

 2017-02-06 18:15:21.272702+01 | 1486401321.2727 |                 0 |               3 |                 18884 |                  276 |            1023951 |        294557 |             2886 |        10734415 |                     0 |       6609027 | 2017-02-06 18:00:10.837486+01

 2017-02-06 18:15:22.364399+01 | 1486401322.3644 |                 0 |               3 |                 18884 |                  276 |            1023951 |        295057 |             2891 |        10734415 |                     0 |       6613409 | 2017-02-06 18:00:10.837486+01

 2017-02-06 18:15:23.453596+01 | 1486401323.4536 |                 0 |               3 |                 18884 |                  276 |            1023951 |        295657 |             2897 |        10734415 |                     0 |       6618089 | 2017-02-06 18:00:10.837486+01

 2017-02-06 18:15:24.542816+01 | 1486401324.54282 |                 0 |               3 |                 18884 |                  276 |            1023951 |        296157 |             2902 |        10734415 |                     0 |       6622657 | 2017-02-06 18:00:10.837486+01

 2017-02-06 18:15:25.625642+01 | 1486401325.62564 |                 0 |               3 |                 18884 |                  276 |            1023951 |        296657 |             2907 |        10734415 |                     0 |       6627292 | 2017-02-06 18:00:10.837486+01

 2017-02-06 18:15:26.712858+01 | 1486401326.71286 |                 0 |               3 |                 18884 |                  276 |            1023951 |        297257 |             2913 |        10734415 |                     0 |       6633185 | 2017-02-06 18:00:10.837486+01

 2017-02-06 18:15:27.802725+01 | 1486401327.80273 |                 0 |               3 |                 18884 |                  276 |            1023951 |        297757 |             2918 |        10734415 |                     0 |       6638257 | 2017-02-06 18:00:10.837486+01

 2017-02-06 18:15:28.887819+01 | 1486401328.88782 |                 0 |               3 |                 18884 |                  276 |            1023951 |        298257 |             2923 |        10734415 |                     0 |       6642888 | 2017-02-06 18:00:10.837486+01

 2017-02-06 18:15:29.969284+01 | 1486401329.96928 |                 0 |               3 |                 18884 |                  276 |            1023951 |        298857 |             2929 |        10734415 |                     0 |       6648698 | 2017-02-06 18:00:10.837486+01

 2017-02-06 18:15:31.0632+01 | 1486401331.0632 |                 0 |               3 |                 18884 |                  276 |            1023951 |        299357 |             2934 |        10734415 |                     0 |       6653094 | 2017-02-06 18:00:10.837486+01

 2017-02-06 18:15:32.149215+01 | 1486401332.14921 |                 0 |               3 |                 18884 |                  276 |            1023951 |        299957 |             2940 |        10734415 |                     0 |       6658195 | 2017-02-06 18:00:10.837486+01

 2017-02-06 18:15:33.23539+01 | 1486401333.23539 |                 0 |               3 |                 18884 |                  276 |            1023951 |        300457 |             2945 |        10734415 |                     0 |       6662682 | 2017-02-06 18:00:10.837486+01

 2017-02-06 18:15:34.325032+01 | 1486401334.32503 |                 0 |               3 |                 18884 |                  276 |            1023951 |        300957 |             2950 |        10734415 |                     0 |       6667540 | 2017-02-06 18:00:10.837486+01

 2017-02-06 18:15:35.410242+01 | 1486401335.41024 |                 0 |               3 |                 18884 |                  276 |            1023951 |        301557 |             2956 |        10734415 |                     0 |       6673673 | 2017-02-06 18:00:10.837486+01

 2017-02-06 18:15:36.498805+01 | 1486401336.49881 |                 0 |               3 |                 18884 |                  276 |            1023951 |        302057 |             2961 |        10734415 |                     0 |       6678670 | 2017-02-06 18:00:10.837486+01

 2017-02-06 18:15:37.592612+01 | 1486401337.59261 |                 0 |               3 |                 18884 |                  276 |            1023951 |        302557 |             2966 |        10734415 |                     0 |       6683628 | 2017-02-06 18:00:10.837486+01

 2017-02-06 18:15:38.672227+01 | 1486401338.67223 |                 0 |               3 |                 18884 |                  276 |            1023951 |        303157 |             2972 |        10734415 |                     0 |       6689405 | 2017-02-06 18:00:10.837486+01

 2017-02-06 18:15:39.755451+01 | 1486401339.75545 |                 0 |               3 |                 18884 |                  276 |            1023951 |        303657 |             2977 |        10734415 |                     0 |       6693492 | 2017-02-06 18:00:10.837486+01

 2017-02-06 18:15:40.844354+01 | 1486401340.84435 |                 0 |               3 |                 18884 |                  276 |            1023951 |        304257 |             2983 |        10734415 |                     0 |       6699135 | 2017-02-06 18:00:10.837486+01

 2017-02-06 18:15:41.919372+01 | 1486401341.91937 |                 0 |               3 |                 18884 |                  276 |            1023951 |        304557 |             2986 |        10734415 |                     0 |       6702146 | 2017-02-06 18:00:10.837486+01

 2017-02-06 18:15:43.005814+01 | 1486401343.00581 |                 0 |               3 |                 18884 |                  276 |            1023951 |        305257 |             2993 |        10734415 |                     0 |       6709285 | 2017-02-06 18:00:10.837486+01

 2017-02-06 18:15:44.080121+01 | 1486401344.08012 |                 0 |               3 |                 18884 |                  276 |            1023951 |        305857 |             2999 |        10734415 |                     0 |       6715397 | 2017-02-06 18:00:10.837486+01

 2017-02-06 18:15:45.161592+01 | 1486401345.16159 |                 0 |               3 |                 18884 |                  276 |            1023951 |        306357 |             3004 |        10734415 |                     0 |       6720097 | 2017-02-06 18:00:10.837486+01

 2017-02-06 18:15:46.254629+01 | 1486401346.25463 |                 0 |               3 |                 18884 |                  276 |            1023951 |        306857 |             3009 |        10734415 |                     0 |       6724767 | 2017-02-06 18:00:10.837486+01

 2017-02-06 18:15:47.340974+01 | 1486401347.34097 |                 0 |               3 |                 18884 |                  276 |            1023951 |        307457 |             3015 |        10734415 |                     0 |       6730905 | 2017-02-06 18:00:10.837486+01

 2017-02-06 18:15:48.424272+01 | 1486401348.42427 |                 0 |               3 |                 18884 |                  276 |            1023951 |        307957 |             3020 |        10734415 |                     0 |       6735832 | 2017-02-06 18:00:10.837486+01

 2017-02-06 18:15:49.494995+01 | 1486401349.495 |                 0 |               3 |                 18884 |                  276 |            1023951 |        308457 |             3025 |        10734415 |                     0 |       6740736 | 2017-02-06 18:00:10.837486+01

 2017-02-06 18:15:50.5805+01 | 1486401350.5805 |                 0 |               3 |                 18884 |                  276 |            1023951 |        309057 |             3031 |        10734415 |                     0 |       6746301 | 2017-02-06 18:00:10.837486+01

 2017-02-06 18:15:51.652199+01 | 1486401351.6522 |                 0 |               3 |                 18884 |                  276 |            1023951 |        309557 |             3036 |        10734415 |                     0 |       6750676 | 2017-02-06 18:00:10.837486+01

 2017-02-06 18:15:52.729078+01 | 1486401352.72908 |                 0 |               3 |                 18884 |                  276 |            1023951 |        310057 |             3041 |        10734415 |                     0 |       6755862 | 2017-02-06 18:00:10.837486+01

 2017-02-06 18:15:53.806016+01 | 1486401353.80602 |                 0 |               3 |                 18884 |                  276 |            1023951 |        310657 |             3047 |        10734415 |                     0 |       6762280 | 2017-02-06 18:00:10.837486+01

 2017-02-06 18:15:54.892159+01 | 1486401354.89216 |                 0 |               3 |                 18884 |                  276 |            1023951 |        311157 |             3052 |        10734415 |                     0 |       6767279 | 2017-02-06 18:00:10.837486+01

 2017-02-06 18:15:55.976075+01 | 1486401355.97607 |                 0 |               3 |                 18884 |                  276 |            1023951 |        311657 |             3057 |        10734415 |                     0 |       6772135 | 2017-02-06 18:00:10.837486+01

 2017-02-06 18:15:57.061933+01 | 1486401357.06193 |                 0 |               3 |                 18884 |                  276 |            1023951 |        312257 |             3063 |        10734415 |                     0 |       6778265 | 2017-02-06 18:00:10.837486+01

 2017-02-06 18:15:58.141882+01 | 1486401358.14188 |                 0 |               3 |                 18884 |                  276 |            1023951 |        312757 |             3068 |        10734415 |                     0 |       6783265 | 2017-02-06 18:00:10.837486+01

 2017-02-06 18:15:59.22665+01 | 1486401359.22665 |                 0 |               3 |                 18884 |                  276 |            1023951 |        313257 |             3073 |        10734415 |                     0 |       6788310 | 2017-02-06 18:00:10.837486+01

 2017-02-06 18:16:00.319833+01 | 1486401360.31983 |                 0 |               3 |                 18884 |                  276 |            1023951 |        313857 |             3079 |        10734415 |                     0 |       6794266 | 2017-02-06 18:00:10.837486+01

 2017-02-06 18:16:01.400087+01 | 1486401361.40009 |                 0 |               3 |                 18884 |                  276 |            1023951 |        314357 |             3084 |        10734415 |                     0 |       6799327 | 2017-02-06 18:00:10.837486+01

 2017-02-06 18:16:02.477338+01 | 1486401362.47734 |                 0 |               3 |                 18884 |                  276 |            1023951 |        314957 |             3090 |        10734415 |                     0 |       6805296 | 2017-02-06 18:00:10.837486+01

 2017-02-06 18:16:03.555284+01 | 1486401363.55528 |                 0 |               3 |                 18884 |                  276 |            1023951 |        315457 |             3095 |        10734415 |                     0 |       6810294 | 2017-02-06 18:00:10.837486+01

 2017-02-06 18:16:04.632015+01 | 1486401364.63201 |                 0 |               3 |                 18884 |                  276 |            1023951 |        315957 |             3100 |        10734415 |                     0 |       6815520 | 2017-02-06 18:00:10.837486+01

 2017-02-06 18:16:05.723864+01 | 1486401365.72386 |                 0 |               3 |                 18884 |                  276 |            1023951 |        316557 |             3106 |        10734415 |                     0 |       6821739 | 2017-02-06 18:00:10.837486+01

 2017-02-06 18:16:06.809615+01 | 1486401366.80961 |                 0 |               3 |                 18884 |                  276 |            1023951 |        317057 |             3111 |        10734415 |                     0 |       6826606 | 2017-02-06 18:00:10.837486+01

 2017-02-06 18:16:07.898033+01 | 1486401367.89803 |                 0 |               3 |                 18884 |                  276 |            1023951 |        317557 |             3116 |        10734415 |                     0 |       6831683 | 2017-02-06 18:00:10.837486+01

 2017-02-06 18:16:08.980923+01 | 1486401368.98092 |                 0 |               3 |                 18884 |                  276 |            1023951 |        318157 |             3122 |        10734415 |                     0 |       6837625 | 2017-02-06 18:00:10.837486+01

 2017-02-06 18:16:10.07432+01 | 1486401370.07432 |                 0 |               3 |                 18884 |                  276 |            1023951 |        318657 |             3127 |        10734415 |                     0 |       6842357 | 2017-02-06 18:00:10.837486+01

 2017-02-06 18:16:11.167613+01 | 1486401371.16761 |                 0 |               3 |                 18884 |                  276 |            1023951 |        319157 |             3132 |        10734415 |                     0 |       6846837 | 2017-02-06 18:00:10.837486+01

 2017-02-06 18:16:12.258577+01 | 1486401372.25858 |                 0 |               3 |                 18884 |                  276 |            1023951 |        319757 |             3138 |        10734415 |                     0 |       6852989 | 2017-02-06 18:00:10.837486+01

 2017-02-06 18:16:13.335148+01 | 1486401373.33515 |                 0 |               3 |                 18884 |                  276 |            1023951 |        320257 |             3143 |        10734415 |                     0 |       6857595 | 2017-02-06 18:00:10.837486+01

 2017-02-06 18:16:14.425376+01 | 1486401374.42538 |                 0 |               3 |                 18884 |                  276 |            1023951 |        320857 |             3149 |        10734415 |                     0 |       6863040 | 2017-02-06 18:00:10.837486+01

 2017-02-06 18:16:15.521807+01 | 1486401375.52181 |                 0 |               3 |                 18884 |                  276 |            1023951 |        321357 |             3154 |        10734415 |                     0 |       6867148 | 2017-02-06 18:00:10.837486+01

 2017-02-06 18:16:16.617278+01 | 1486401376.61728 |                 0 |               3 |                 18884 |                  276 |            1023951 |        321857 |             3159 |        10734415 |                     0 |       6871343 | 2017-02-06 18:00:10.837486+01

 2017-02-06 18:16:17.707362+01 | 1486401377.70736 |                 0 |               3 |                 18884 |                  276 |            1023951 |        322457 |             3165 |        10734415 |                     0 |       6875726 | 2017-02-06 18:00:10.837486+01

 2017-02-06 18:16:18.801475+01 | 1486401378.80148 |                 0 |               3 |                 18884 |                  276 |            1023951 |        322957 |             3170 |        10734415 |                     0 |       6879721 | 2017-02-06 18:00:10.837486+01

 2017-02-06 18:16:19.884621+01 | 1486401379.88462 |                 0 |               3 |                 18884 |                  276 |            1023951 |        323557 |             3176 |        10734415 |                     0 |       6884152 | 2017-02-06 18:00:10.837486+01

 2017-02-06 18:16:20.969188+01 | 1486401380.96919 |                 0 |               3 |                 18884 |                  276 |            1023951 |        324057 |             3181 |        10734415 |                     0 |       6888144 | 2017-02-06 18:00:10.837486+01

 2017-02-06 18:16:22.047521+01 | 1486401382.04752 |                 0 |               3 |                 18884 |                  276 |            1023951 |        324557 |             3186 |        10734415 |                     0 |       6891763 | 2017-02-06 18:00:10.837486+01

 2017-02-06 18:16:23.137118+01 | 1486401383.13712 |                 0 |               3 |                 18884 |                  276 |            1023951 |        325157 |             3192 |        10734415 |                     0 |       6896786 | 2017-02-06 18:00:10.837486+01

 2017-02-06 18:16:24.229087+01 | 1486401384.22909 |                 0 |               3 |                 18884 |                  276 |            1023951 |        325657 |             3197 |        10734415 |                     0 |       6900743 | 2017-02-06 18:00:10.837486+01

 2017-02-06 18:16:25.316421+01 | 1486401385.31642 |                 0 |               3 |                 18884 |                  276 |            1023951 |        326257 |             3203 |        10734415 |                     0 |       6905398 | 2017-02-06 18:00:10.837486+01

 2017-02-06 18:16:26.396591+01 | 1486401386.39659 |                 0 |               3 |                 18884 |                  276 |            1023951 |        326757 |             3208 |        10734415 |                     0 |       6909505 | 2017-02-06 18:00:10.837486+01

 2017-02-06 18:16:27.480755+01 | 1486401387.48076 |                 0 |               3 |                 18884 |                  276 |            1023951 |        327257 |             3213 |        10734415 |                     0 |       6913508 | 2017-02-06 18:00:10.837486+01

 2017-02-06 18:16:28.571036+01 | 1486401388.57104 |                 0 |               3 |                 18884 |                  276 |            1023951 |        327857 |             3219 |        10734415 |                     0 |       6917613 | 2017-02-06 18:00:10.837486+01

 2017-02-06 18:16:29.657581+01 | 1486401389.65758 |                 0 |               3 |                 18884 |                  276 |            1023951 |        328357 |             3224 |        10734415 |                     0 |       6921715 | 2017-02-06 18:00:10.837486+01

 2017-02-06 18:16:30.75198+01 | 1486401390.75198 |                 0 |               3 |                 18884 |                  276 |            1023951 |        328857 |             3229 |        10734415 |                     0 |       6926216 | 2017-02-06 18:00:10.837486+01

 2017-02-06 18:16:31.830697+01 | 1486401391.8307 |                 0 |               3 |                 18884 |                  276 |            1023951 |        329457 |             3235 |        10734415 |                     0 |       6931907 | 2017-02-06 18:00:10.837486+01

 2017-02-06 18:16:32.925387+01 | 1486401392.92539 |                 0 |               3 |                 18884 |                  276 |            1023951 |        329957 |             3240 |        10734415 |                     0 |       6936669 | 2017-02-06 18:00:10.837486+01

 2017-02-06 18:16:34.012767+01 | 1486401394.01277 |                 0 |               3 |                 18884 |                  276 |            1023951 |        330557 |             3246 |        10734415 |                     0 |       6942818 | 2017-02-06 18:00:10.837486+01

 2017-02-06 18:16:35.088245+01 | 1486401395.08824 |                 0 |               3 |                 18884 |                  276 |            1023951 |        331057 |             3251 |        10734415 |                     0 |       6946961 | 2017-02-06 18:00:10.837486+01

 2017-02-06 18:16:36.175458+01 | 1486401396.17546 |                 0 |               3 |                 18884 |                  276 |            1023951 |        331557 |             3256 |        10734415 |                     0 |       6951776 | 2017-02-06 18:00:10.837486+01

 2017-02-06 18:16:37.258279+01 | 1486401397.25828 |                 0 |               3 |                 18884 |                  276 |            1023951 |        332157 |             3262 |        10734415 |                     0 |       6957110 | 2017-02-06 18:00:10.837486+01

 2017-02-06 18:16:38.347251+01 | 1486401398.34725 |                 0 |               3 |                 18884 |                  276 |            1023951 |        332657 |             3267 |        10734415 |                     0 |       6961093 | 2017-02-06 18:00:10.837486+01

 2017-02-06 18:16:39.439121+01 | 1486401399.43912 |                 0 |               3 |                 18884 |                  276 |            1023951 |        333157 |             3272 |        10734415 |                     0 |       6965435 | 2017-02-06 18:00:10.837486+01

 2017-02-06 18:16:40.532258+01 | 1486401400.53226 |                 0 |               3 |                 18884 |                  276 |            1023951 |        333757 |             3278 |        10734415 |                     0 |       6970904 | 2017-02-06 18:00:10.837486+01

 2017-02-06 18:16:41.610765+01 | 1486401401.61076 |                 0 |               3 |                 18884 |                  276 |            1023951 |        334257 |             3283 |        10734415 |                     0 |       6975745 | 2017-02-06 18:00:10.837486+01

 2017-02-06 18:16:42.691135+01 | 1486401402.69113 |                 0 |               3 |                 18884 |                  276 |            1023951 |        334857 |             3289 |        10734415 |                     0 |       6982072 | 2017-02-06 18:00:10.837486+01

 2017-02-06 18:16:43.759416+01 | 1486401403.75942 |                 0 |               3 |                 18884 |                  276 |            1023951 |        335357 |             3294 |        10734415 |                     0 |       6986667 | 2017-02-06 18:00:10.837486+01

 2017-02-06 18:16:44.840606+01 | 1486401404.84061 |                 0 |               3 |                 18884 |                  276 |            1023951 |        335857 |             3299 |        10734415 |                     0 |       6991559 | 2017-02-06 18:00:10.837486+01

 2017-02-06 18:16:45.917776+01 | 1486401405.91778 |                 0 |               3 |                 18884 |                  276 |            1023951 |        336457 |             3305 |        10734415 |                     0 |       6997519 | 2017-02-06 18:00:10.837486+01

 2017-02-06 18:16:47.007585+01 | 1486401407.00759 |                 0 |               3 |                 18884 |                  276 |            1023951 |        336957 |             3310 |        10734415 |                     0 |       7001950 | 2017-02-06 18:00:10.837486+01

 2017-02-06 18:16:48.083309+01 | 1486401408.08331 |                 0 |               3 |                 18884 |                  276 |            1023951 |        337457 |             3315 |        10734415 |                     0 |       7006735 | 2017-02-06 18:00:10.837486+01

 2017-02-06 18:16:49.169062+01 | 1486401409.16906 |                 0 |               3 |                 18884 |                  276 |            1023951 |        338057 |             3321 |        10734415 |                     0 |       7012896 | 2017-02-06 18:00:10.837486+01

 2017-02-06 18:16:50.257483+01 | 1486401410.25748 |                 0 |               3 |                 18884 |                  276 |            1023951 |        338557 |             3326 |        10734415 |                     0 |       7017740 | 2017-02-06 18:00:10.837486+01

 2017-02-06 18:16:51.349084+01 | 1486401411.34908 |                 0 |               3 |                 18884 |                  276 |            1023951 |        339057 |             3331 |        10734415 |                     0 |       7022653 | 2017-02-06 18:00:10.837486+01

 2017-02-06 18:16:52.424796+01 | 1486401412.4248 |                 0 |               3 |                 18884 |                  276 |            1023951 |        339657 |             3337 |        10734415 |                     0 |       7028074 | 2017-02-06 18:00:10.837486+01

 2017-02-06 18:16:53.521981+01 | 1486401413.52198 |                 0 |               3 |                 18884 |                  276 |            1023951 |        340157 |             3342 |        10734415 |                     0 |       7033071 | 2017-02-06 18:00:10.837486+01

 2017-02-06 18:16:54.613496+01 | 1486401414.6135 |                 0 |               3 |                 18884 |                  276 |            1023951 |        340757 |             3348 |        10734415 |                     0 |       7039166 | 2017-02-06 18:00:10.837486+01

 2017-02-06 18:16:55.704887+01 | 1486401415.70489 |                 0 |               3 |                 18884 |                  276 |            1023951 |        341257 |             3353 |        10734415 |                     0 |       7043673 | 2017-02-06 18:00:10.837486+01

 2017-02-06 18:16:56.793818+01 | 1486401416.79382 |                 0 |               3 |                 18884 |                  276 |            1023951 |        341757 |             3358 |        10734415 |                     0 |       7048757 | 2017-02-06 18:00:10.837486+01

 2017-02-06 18:16:57.875374+01 | 1486401417.87537 |                 0 |               3 |                 18884 |                  276 |            1023951 |        342357 |             3364 |        10734415 |                     0 |       7054101 | 2017-02-06 18:00:10.837486+01

 2017-02-06 18:16:58.957793+01 | 1486401418.95779 |                 0 |               3 |                 18884 |                  276 |            1023951 |        342857 |             3369 |        10734415 |                     0 |       7059288 | 2017-02-06 18:00:10.837486+01

 2017-02-06 18:17:00.032583+01 | 1486401420.03258 |                 0 |               3 |                 18884 |                  276 |            1023951 |        343357 |             3374 |        10734415 |                     0 |       7064545 | 2017-02-06 18:00:10.837486+01

 2017-02-06 18:17:01.103519+01 | 1486401421.10352 |                 0 |               3 |                 18884 |                  276 |            1023951 |        343957 |             3380 |        10734415 |                     0 |       7070320 | 2017-02-06 18:00:10.837486+01

 2017-02-06 18:17:02.165434+01 | 1486401422.16543 |                 0 |               3 |                 18884 |                  276 |            1023951 |        344457 |             3385 |        10734415 |                     0 |       7075355 | 2017-02-06 18:00:10.837486+01

 2017-02-06 18:17:03.246269+01 | 1486401423.24627 |                 0 |               3 |                 18884 |                  276 |            1023951 |        344957 |             3390 |        10734415 |                     0 |       7079911 | 2017-02-06 18:00:10.837486+01

 2017-02-06 18:17:04.32319+01 | 1486401424.32319 |                 0 |               3 |                 18884 |                  276 |            1023951 |        345557 |             3396 |        10734415 |                     0 |       7085549 | 2017-02-06 18:00:10.837486+01

 2017-02-06 18:17:05.407961+01 | 1486401425.40796 |                 0 |               3 |                 18884 |                  276 |            1023951 |        346057 |             3401 |        10734415 |                     0 |       7090041 | 2017-02-06 18:00:10.837486+01

 2017-02-06 18:17:06.487323+01 | 1486401426.48732 |                 0 |               3 |                 18884 |                  276 |            1023951 |        346557 |             3406 |        10734415 |                     0 |       7094125 | 2017-02-06 18:00:10.837486+01

 2017-02-06 18:17:07.579901+01 | 1486401427.5799 |                 0 |               3 |                 18884 |                  276 |            1023951 |        347157 |             3412 |        10734415 |                     0 |       7099053 | 2017-02-06 18:00:10.837486+01

 2017-02-06 18:17:08.672509+01 | 1486401428.67251 |                 0 |               3 |                 18884 |                  276 |            1023951 |        347657 |             3417 |        10734415 |                     0 |       7103503 | 2017-02-06 18:00:10.837486+01

 2017-02-06 18:17:09.763042+01 | 1486401429.76304 |                 0 |               3 |                 18884 |                  276 |            1023951 |        348257 |             3423 |        10734415 |                     0 |       7108355 | 2017-02-06 18:00:10.837486+01

 2017-02-06 18:17:10.85385+01 | 1486401430.85385 |                 0 |               3 |                 18884 |                  276 |            1023951 |        348757 |             3428 |        10734415 |                     0 |       7112863 | 2017-02-06 18:00:10.837486+01

 2017-02-06 18:17:11.942527+01 | 1486401431.94253 |                 0 |               3 |                 18884 |                  276 |            1023951 |        349257 |             3433 |        10734415 |                     0 |       7117423 | 2017-02-06 18:00:10.837486+01

 2017-02-06 18:17:13.034466+01 | 1486401433.03447 |                 0 |               3 |                 18884 |                  276 |            1023951 |        349857 |             3439 |        10734415 |                     0 |       7122355 | 2017-02-06 18:00:10.837486+01

 2017-02-06 18:17:14.125697+01 | 1486401434.1257 |                 0 |               3 |                 18884 |                  276 |            1023951 |        350357 |             3444 |        10734415 |                     0 |       7126699 | 2017-02-06 18:00:10.837486+01

 2017-02-06 18:17:15.211626+01 | 1486401435.21163 |                 0 |               3 |                 18884 |                  276 |            1023951 |        350957 |             3450 |        10734415 |                     0 |       7131912 | 2017-02-06 18:00:10.837486+01

 2017-02-06 18:17:16.298116+01 | 1486401436.29812 |                 0 |               3 |                 18884 |                  276 |            1023951 |        351457 |             3455 |        10734415 |                     0 |       7135846 | 2017-02-06 18:00:10.837486+01

 2017-02-06 18:17:17.395563+01 | 1486401437.39556 |                 0 |               3 |                 18884 |                  276 |            1023951 |        351957 |             3460 |        10734415 |                     0 |       7140197 | 2017-02-06 18:00:10.837486+01

 2017-02-06 18:17:18.488804+01 | 1486401438.4888 |                 0 |               3 |                 18884 |                  276 |            1023951 |        352557 |             3466 |        10734415 |                     0 |       7145590 | 2017-02-06 18:00:10.837486+01

 2017-02-06 18:17:19.565171+01 | 1486401439.56517 |                 0 |               3 |                 18884 |                  276 |            1023951 |        353057 |             3471 |        10734415 |                     0 |       7150020 | 2017-02-06 18:00:10.837486+01

 2017-02-06 18:17:20.646092+01 | 1486401440.64609 |                 0 |               3 |                 18884 |                  276 |            1023951 |        353557 |             3476 |        10734415 |                     0 |       7154503 | 2017-02-06 18:00:10.837486+01

 2017-02-06 18:17:21.723787+01 | 1486401441.72379 |                 0 |               3 |                 18884 |                  276 |            1023951 |        354157 |             3482 |        10734415 |                     0 |       7160369 | 2017-02-06 18:00:10.837486+01

 2017-02-06 18:17:22.79821+01 | 1486401442.79821 |                 0 |               3 |                 18884 |                  276 |            1023951 |        354657 |             3487 |        10734415 |                     0 |       7165216 | 2017-02-06 18:00:10.837486+01

 2017-02-06 18:17:23.867294+01 | 1486401443.86729 |                 0 |               3 |                 18884 |                  276 |            1023951 |        355157 |             3492 |        10734415 |                     0 |       7170358 | 2017-02-06 18:00:10.837486+01

 2017-02-06 18:17:24.952186+01 | 1486401444.95219 |                 0 |               3 |                 18884 |                  276 |            1023951 |        355757 |             3498 |        10734415 |                     0 |       7175952 | 2017-02-06 18:00:10.837486+01

 2017-02-06 18:17:26.027028+01 | 1486401446.02703 |                 0 |               3 |                 18884 |                  276 |            1023951 |        356257 |             3503 |        10734415 |                     0 |       7181122 | 2017-02-06 18:00:10.837486+01

 2017-02-06 18:17:27.09651+01 | 1486401447.09651 |                 0 |               3 |                 18884 |                  276 |            1023951 |        356757 |             3508 |        10734415 |                     0 |       7185817 | 2017-02-06 18:00:10.837486+01

 2017-02-06 18:17:28.179487+01 | 1486401448.17949 |                 0 |               3 |                 18884 |                  276 |            1023951 |        357357 |             3514 |        10734415 |                     0 |       7192427 | 2017-02-06 18:00:10.837486+01

 2017-02-06 18:17:29.255867+01 | 1486401449.25587 |                 0 |               3 |                 18884 |                  276 |            1023951 |        357857 |             3519 |        10734415 |                     0 |       7197138 | 2017-02-06 18:00:10.837486+01

 2017-02-06 18:17:30.338814+01 | 1486401450.33881 |                 0 |               3 |                 18884 |                  276 |            1023951 |        358357 |             3524 |        10734415 |                     0 |       7202190 | 2017-02-06 18:00:10.837486+01

 2017-02-06 18:17:31.426297+01 | 1486401451.4263 |                 0 |               3 |                 18884 |                  276 |            1023951 |        358957 |             3530 |        10734415 |                     0 |       7208200 | 2017-02-06 18:00:10.837486+01

 2017-02-06 18:17:32.51631+01 | 1486401452.51631 |                 0 |               3 |                 18884 |                  276 |            1023951 |        359457 |             3535 |        10734415 |                     0 |       7213035 | 2017-02-06 18:00:10.837486+01

 2017-02-06 18:17:33.607085+01 | 1486401453.60708 |                 0 |               3 |                 18884 |                  276 |            1023951 |        360057 |             3541 |        10734415 |                     0 |       7219097 | 2017-02-06 18:00:10.837486+01

 2017-02-06 18:17:34.697074+01 | 1486401454.69707 |                 0 |               3 |                 18884 |                  276 |            1023951 |        360557 |             3546 |        10734415 |                     0 |       7224766 | 2017-02-06 18:00:10.837486+01

 2017-02-06 18:17:35.775664+01 | 1486401455.77566 |                 0 |               3 |                 18884 |                  276 |            1023951 |        361057 |             3551 |        10734415 |                     0 |       7229562 | 2017-02-06 18:00:10.837486+01

 2017-02-06 18:17:36.854139+01 | 1486401456.85414 |                 0 |               3 |                 18884 |                  276 |            1023951 |        361657 |             3557 |        10734415 |                     0 |       7235948 | 2017-02-06 18:00:10.837486+01

 2017-02-06 18:17:37.94188+01 | 1486401457.94188 |                 0 |               3 |                 18884 |                  276 |            1023951 |        362157 |             3562 |        10734415 |                     0 |       7240107 | 2017-02-06 18:00:10.837486+01

 2017-02-06 18:17:39.035732+01 | 1486401459.03573 |                 0 |               3 |                 18884 |                  276 |            1023951 |        362657 |             3567 |        10734415 |                     0 |       7244524 | 2017-02-06 18:00:10.837486+01

 2017-02-06 18:17:40.116199+01 | 1486401460.1162 |                 0 |               3 |                 18884 |                  276 |            1023951 |        363257 |             3573 |        10734415 |                     0 |       7249571 | 2017-02-06 18:00:10.837486+01

 2017-02-06 18:17:41.204071+01 | 1486401461.20407 |                 0 |               3 |                 18884 |                  276 |            1023951 |        363757 |             3578 |        10734415 |                     0 |       7254102 | 2017-02-06 18:00:10.837486+01

 2017-02-06 18:17:42.290654+01 | 1486401462.29065 |                 0 |               3 |                 18884 |                  276 |            1023951 |        364357 |             3584 |        10734415 |                     0 |       7259940 | 2017-02-06 18:00:10.837486+01

 2017-02-06 18:17:43.37239+01 | 1486401463.37239 |                 0 |               3 |                 18884 |                  276 |            1023951 |        364857 |             3589 |        10734415 |                     0 |       7265027 | 2017-02-06 18:00:10.837486+01

 2017-02-06 18:17:44.459026+01 | 1486401464.45903 |                 0 |               3 |                 18884 |                  276 |            1023951 |        365357 |             3594 |        11173237 |                     0 |       7269958 | 2017-02-06 18:00:10.837486+01

 2017-02-06 18:17:45.547085+01 | 1486401465.54709 |                 0 |               3 |                 18884 |                  276 |            1023951 |        365957 |             3600 |        11173237 |                     0 |       7275989 | 2017-02-06 18:00:10.837486+01

 2017-02-06 18:17:46.625655+01 | 1486401466.62565 |                 0 |               3 |                 18884 |                  276 |            1023951 |        366457 |             3605 |        11173237 |                     0 |       7281129 | 2017-02-06 18:00:10.837486+01

 2017-02-06 18:17:47.716938+01 | 1486401467.71694 |                 0 |               3 |                 18884 |                  276 |            1023951 |        366957 |             3610 |        11173237 |                     0 |       7286473 | 2017-02-06 18:00:10.837486+01

 2017-02-06 18:17:48.808942+01 | 1486401468.80894 |                 0 |               3 |                 18884 |                  276 |            1023951 |        367557 |             3616 |        11173237 |                     0 |       7292477 | 2017-02-06 18:00:10.837486+01

 2017-02-06 18:17:49.890578+01 | 1486401469.89058 |                 0 |               3 |                 18884 |                  276 |            1023951 |        368057 |             3621 |        11173237 |                     0 |       7297984 | 2017-02-06 18:00:10.837486+01

 2017-02-06 18:17:50.965441+01 | 1486401470.96544 |                 0 |               3 |                 18884 |                  276 |            1023951 |        368657 |             3627 |        11173237 |                     0 |       7303819 | 2017-02-06 18:00:10.837486+01

 2017-02-06 18:17:52.045793+01 | 1486401472.04579 |                 0 |               3 |                 18884 |                  276 |            1023951 |        369157 |             3632 |        11173237 |                     0 |       7309043 | 2017-02-06 18:00:10.837486+01

 2017-02-06 18:17:53.1241+01 | 1486401473.1241 |                 0 |               3 |                 18884 |                  276 |            1023951 |        369657 |             3637 |        11173237 |                     0 |       7314128 | 2017-02-06 18:00:10.837486+01

 2017-02-06 18:17:54.210631+01 | 1486401474.21063 |                 0 |               3 |                 18884 |                  276 |            1023951 |        370257 |             3643 |        11173237 |                     0 |       7320574 | 2017-02-06 18:00:10.837486+01

 2017-02-06 18:17:55.300529+01 | 1486401475.30053 |                 0 |               3 |                 18884 |                  276 |            1023951 |        370757 |             3648 |        11173237 |                     0 |       7325522 | 2017-02-06 18:00:10.837486+01

 2017-02-06 18:17:56.391641+01 | 1486401476.39164 |                 0 |               3 |                 18884 |                  276 |            1023951 |        371257 |             3653 |        11173237 |                     0 |       7330801 | 2017-02-06 18:00:10.837486+01

 2017-02-06 18:17:57.482403+01 | 1486401477.4824 |                 0 |               3 |                 18884 |                  276 |            1023951 |        371857 |             3659 |        11173237 |                     0 |       7336769 | 2017-02-06 18:00:10.837486+01

 2017-02-06 18:17:58.575791+01 | 1486401478.57579 |                 0 |               3 |                 18884 |                  276 |            1023951 |        372357 |             3664 |        11173237 |                     0 |       7342281 | 2017-02-06 18:00:10.837486+01

 2017-02-06 18:17:59.645384+01 | 1486401479.64538 |                 0 |               3 |                 18884 |                  276 |            1023951 |        372957 |             3670 |        11173237 |                     0 |       7348222 | 2017-02-06 18:00:10.837486+01

 2017-02-06 18:18:00.726215+01 | 1486401480.72621 |                 0 |               3 |                 18884 |                  276 |            1023951 |        373457 |             3675 |        11173237 |                     0 |       7352685 | 2017-02-06 18:00:10.837486+01

 2017-02-06 18:18:01.802324+01 | 1486401481.80232 |                 0 |               3 |                 18884 |                  276 |            1023951 |        373957 |             3680 |        11173237 |                     0 |       7356941 | 2017-02-06 18:00:10.837486+01

 2017-02-06 18:18:02.896053+01 | 1486401482.89605 |                 0 |               3 |                 18884 |                  276 |            1023951 |        374557 |             3686 |        11173237 |                     0 |       7362469 | 2017-02-06 18:00:10.837486+01

 2017-02-06 18:18:03.987553+01 | 1486401483.98755 |                 0 |               3 |                 18884 |                  276 |            1023951 |        375057 |             3691 |        11173237 |                     0 |       7367131 | 2017-02-06 18:00:10.837486+01

 2017-02-06 18:18:05.081338+01 | 1486401485.08134 |                 0 |               3 |                 18884 |                  276 |            1023951 |        375557 |             3696 |        11173237 |                     0 |       7372276 | 2017-02-06 18:00:10.837486+01

 2017-02-06 18:18:06.160866+01 | 1486401486.16087 |                 0 |               3 |                 18884 |                  276 |            1023951 |        376157 |             3702 |        11173237 |                     0 |       7378818 | 2017-02-06 18:00:10.837486+01

 2017-02-06 18:18:07.240991+01 | 1486401487.24099 |                 0 |               3 |                 18884 |                  276 |            1023951 |        376657 |             3707 |        11173237 |                     0 |       7383905 | 2017-02-06 18:00:10.837486+01

 2017-02-06 18:18:08.32947+01 | 1486401488.32947 |                 0 |               3 |                 18884 |                  276 |            1023951 |        377257 |             3713 |        11173237 |                     0 |       7389997 | 2017-02-06 18:00:10.837486+01

 2017-02-06 18:18:09.417441+01 | 1486401489.41744 |                 0 |               3 |                 18884 |                  276 |            1023951 |        377757 |             3718 |        11173237 |                     0 |       7395517 | 2017-02-06 18:00:10.837486+01

 2017-02-06 18:18:10.490812+01 | 1486401490.49081 |                 0 |               3 |                 18884 |                  276 |            1023951 |        378257 |             3723 |        11173237 |                     0 |       7400309 | 2017-02-06 18:00:10.837486+01

 2017-02-06 18:18:11.580577+01 | 1486401491.58058 |                 0 |               3 |                 18884 |                  276 |            1023951 |        378857 |             3729 |        11173237 |                     0 |       7406890 | 2017-02-06 18:00:10.837486+01

 2017-02-06 18:18:12.672568+01 | 1486401492.67257 |                 0 |               3 |                 18884 |                  276 |            1023951 |        379357 |             3734 |        11173237 |                     0 |       7412306 | 2017-02-06 18:00:10.837486+01

 2017-02-06 18:18:13.761348+01 | 1486401493.76135 |                 0 |               3 |                 18884 |                  276 |            1023951 |        379857 |             3739 |        11173237 |                     0 |       7417081 | 2017-02-06 18:00:10.837486+01

 2017-02-06 18:18:14.851288+01 | 1486401494.85129 |                 0 |               3 |                 18884 |                  276 |            1023951 |        380457 |             3745 |        11173237 |                     0 |       7422058 | 2017-02-06 18:00:10.837486+01

 2017-02-06 18:18:15.94258+01 | 1486401495.94258 |                 0 |               3 |                 18884 |                  276 |            1023951 |        380957 |             3750 |        11173237 |                     0 |       7426416 | 2017-02-06 18:00:10.837486+01

 2017-02-06 18:18:17.035969+01 | 1486401497.03597 |                 0 |               3 |                 18884 |                  276 |            1023951 |        381557 |             3756 |        11173237 |                     0 |       7431279 | 2017-02-06 18:00:10.837486+01

 2017-02-06 18:18:18.114245+01 | 1486401498.11424 |                 0 |               3 |                 18884 |                  276 |            1023951 |        382057 |             3761 |        11173237 |                     0 |       7435974 | 2017-02-06 18:00:10.837486+01

 2017-02-06 18:18:19.20601+01 | 1486401499.20601 |                 0 |               3 |                 18884 |                  276 |            1023951 |        382557 |             3766 |        11173237 |                     0 |       7440195 | 2017-02-06 18:00:10.837486+01

 2017-02-06 18:18:20.287635+01 | 1486401500.28764 |                 0 |               3 |                 18884 |                  276 |            1023951 |        383157 |             3772 |        11173237 |                     0 |       7445270 | 2017-02-06 18:00:10.837486+01

 2017-02-06 18:18:21.366463+01 | 1486401501.36646 |                 0 |               3 |                 18884 |                  276 |            1023951 |        383657 |             3777 |        11173237 |                     0 |       7449527 | 2017-02-06 18:00:10.837486+01

 2017-02-06 18:18:22.437303+01 | 1486401502.4373 |                 0 |               3 |                 18884 |                  276 |            1023951 |        384157 |             3782 |        11173237 |                     0 |       7454875 | 2017-02-06 18:00:10.837486+01

 2017-02-06 18:18:23.511965+01 | 1486401503.51197 |                 0 |               3 |                 18884 |                  276 |            1023951 |        384757 |             3788 |        11173237 |                     0 |       7461413 | 2017-02-06 18:00:10.837486+01

 2017-02-06 18:18:24.604963+01 | 1486401504.60496 |                 0 |               3 |                 18884 |                  276 |            1023951 |        385257 |             3793 |        11173237 |                     0 |       7466218 | 2017-02-06 18:00:10.837486+01

 2017-02-06 18:18:25.688732+01 | 1486401505.68873 |                 0 |               3 |                 18884 |                  276 |            1023951 |        385857 |             3799 |        11173237 |                     0 |       7472800 | 2017-02-06 18:00:10.837486+01

 2017-02-06 18:18:26.76913+01 | 1486401506.76913 |                 0 |               3 |                 18884 |                  276 |            1023951 |        386357 |             3804 |        11173237 |                     0 |       7477510 | 2017-02-06 18:00:10.837486+01

 2017-02-06 18:18:27.839772+01 | 1486401507.83977 |                 0 |               3 |                 18884 |                  276 |            1023951 |        386857 |             3809 |        11173237 |                     0 |       7482193 | 2017-02-06 18:00:10.837486+01

 2017-02-06 18:18:28.925021+01 | 1486401508.92502 |                 0 |               3 |                 18884 |                  276 |            1023951 |        387457 |             3815 |        11173237 |                     0 |       7488384 | 2017-02-06 18:00:10.837486+01

 2017-02-06 18:18:30.008518+01 | 1486401510.00852 |                 0 |               3 |                 18884 |                  276 |            1023951 |        387957 |             3820 |        11173237 |                     0 |       7493241 | 2017-02-06 18:00:10.837486+01

 2017-02-06 18:18:31.090273+01 | 1486401511.09027 |                 0 |               3 |                 18884 |                  276 |            1023951 |        388457 |             3825 |        11173237 |                     0 |       7497973 | 2017-02-06 18:00:10.837486+01

 2017-02-06 18:18:32.182954+01 | 1486401512.18295 |                 0 |               3 |                 18884 |                  276 |            1023951 |        389057 |             3831 |        11173237 |                     0 |       7503239 | 2017-02-06 18:00:10.837486+01

 2017-02-06 18:18:33.27873+01 | 1486401513.27873 |                 0 |               3 |                 18884 |                  276 |            1023951 |        389557 |             3836 |        11173237 |                     0 |       7507654 | 2017-02-06 18:00:10.837486+01

 2017-02-06 18:18:34.372869+01 | 1486401514.37287 |                 0 |               3 |                 18884 |                  276 |            1023951 |        390057 |             3841 |        11173237 |                     0 |       7511936 | 2017-02-06 18:00:10.837486+01

 2017-02-06 18:18:35.468951+01 | 1486401515.46895 |                 0 |               3 |                 18884 |                  276 |            1023951 |        390657 |             3847 |        11173237 |                     0 |       7517765 | 2017-02-06 18:00:10.837486+01

 2017-02-06 18:18:36.547437+01 | 1486401516.54744 |                 0 |               3 |                 18884 |                  276 |            1023951 |        391157 |             3852 |        11173237 |                     0 |       7522035 | 2017-02-06 18:00:10.837486+01

 2017-02-06 18:18:37.63737+01 | 1486401517.63737 |                 0 |               3 |                 18884 |                  276 |            1023951 |        391757 |             3858 |        11173237 |                     0 |       7527538 | 2017-02-06 18:00:10.837486+01

 2017-02-06 18:18:38.718495+01 | 1486401518.71849 |                 0 |               3 |                 18884 |                  276 |            1023951 |        392257 |             3863 |        11173237 |                     0 |       7532763 | 2017-02-06 18:00:10.837486+01

 2017-02-06 18:18:39.806522+01 | 1486401519.80652 |                 0 |               3 |                 18884 |                  276 |            1023951 |        392757 |             3868 |        11173237 |                     0 |       7537514 | 2017-02-06 18:00:10.837486+01

 2017-02-06 18:18:40.893878+01 | 1486401520.89388 |                 0 |               3 |                 18884 |                  276 |            1023951 |        393357 |             3874 |        11173237 |                     0 |       7544068 | 2017-02-06 18:00:10.837486+01

 2017-02-06 18:18:41.969142+01 | 1486401521.96914 |                 0 |               3 |                 18884 |                  276 |            1023951 |        393757 |             3878 |        11173237 |                     0 |       7548000 | 2017-02-06 18:00:10.837486+01

 2017-02-06 18:18:43.064237+01 | 1486401523.06424 |                 0 |               3 |                 18884 |                  276 |            1023951 |        394457 |             3885 |        11173237 |                     0 |       7555538 | 2017-02-06 18:00:10.837486+01

 2017-02-06 18:18:44.148968+01 | 1486401524.14897 |                 0 |               3 |                 18884 |                  276 |            1023951 |        394957 |             3890 |        11173237 |                     0 |       7560834 | 2017-02-06 18:00:10.837486+01

 2017-02-06 18:18:45.242608+01 | 1486401525.24261 |                 0 |               3 |                 18884 |                  276 |            1023951 |        395457 |             3895 |        11173237 |                     0 |       7566014 | 2017-02-06 18:00:10.837486+01

 2017-02-06 18:18:46.3308+01 | 1486401526.3308 |                 0 |               3 |                 18884 |                  276 |            1023951 |        396057 |             3901 |        11173237 |                     0 |       7572487 | 2017-02-06 18:00:10.837486+01

 2017-02-06 18:18:47.396931+01 | 1486401527.39693 |                 0 |               3 |                 18884 |                  276 |            1023951 |        396557 |             3906 |        11173237 |                     0 |       7577511 | 2017-02-06 18:00:10.837486+01

 2017-02-06 18:18:48.486698+01 | 1486401528.4867 |                 0 |               3 |                 18884 |                  276 |            1023951 |        397057 |             3911 |        11173237 |                     0 |       7583117 | 2017-02-06 18:00:10.837486+01

 2017-02-06 18:18:49.566003+01 | 1486401529.566 |                 0 |               3 |                 18884 |                  276 |            1023951 |        397657 |             3917 |        11173237 |                     0 |       7589232 | 2017-02-06 18:00:10.837486+01

 2017-02-06 18:18:50.646572+01 | 1486401530.64657 |                 0 |               3 |                 18884 |                  276 |            1023951 |        398157 |             3922 |        11173237 |                     0 |       7594409 | 2017-02-06 18:00:10.837486+01

 2017-02-06 18:18:51.728345+01 | 1486401531.72834 |                 0 |               3 |                 18884 |                  276 |            1023951 |        398657 |             3927 |        11173237 |                     0 |       7599819 | 2017-02-06 18:00:10.837486+01

 2017-02-06 18:18:52.804354+01 | 1486401532.80435 |                 0 |               3 |                 18884 |                  276 |            1023951 |        399257 |             3933 |        11173237 |                     0 |       7605962 | 2017-02-06 18:00:10.837486+01

 2017-02-06 18:18:53.876505+01 | 1486401533.8765 |                 0 |               3 |                 18884 |                  276 |            1023951 |        399757 |             3938 |        11173237 |                     0 |       7611303 | 2017-02-06 18:00:10.837486+01

 2017-02-06 18:18:54.955246+01 | 1486401534.95525 |                 0 |               3 |                 18884 |                  276 |            1023951 |        400257 |             3943 |        11173237 |                     0 |       7616261 | 2017-02-06 18:00:10.837486+01

 2017-02-06 18:18:56.026969+01 | 1486401536.02697 |                 0 |               3 |                 18884 |                  276 |            1023951 |        400857 |             3949 |        11173237 |                     0 |       7622305 | 2017-02-06 18:00:10.837486+01

 2017-02-06 18:18:57.111295+01 | 1486401537.11129 |                 0 |               3 |                 18884 |                  276 |            1023951 |        401357 |             3954 |        11173237 |                     0 |       7627507 | 2017-02-06 18:00:10.837486+01

 2017-02-06 18:18:58.187269+01 | 1486401538.18727 |                 0 |               3 |                 18884 |                  276 |            1023951 |        401857 |             3959 |        11173237 |                     0 |       7632693 | 2017-02-06 18:00:10.837486+01

 2017-02-06 18:18:59.266691+01 | 1486401539.26669 |                 0 |               3 |                 18884 |                  276 |            1023951 |        402457 |             3965 |        11173237 |                     0 |       7639279 | 2017-02-06 18:00:10.837486+01

 2017-02-06 18:19:00.351262+01 | 1486401540.35126 |                 0 |               3 |                 18884 |                  276 |            1023951 |        402957 |             3970 |        11173237 |                     0 |       7644351 | 2017-02-06 18:00:10.837486+01

 2017-02-06 18:19:01.446805+01 | 1486401541.44681 |                 0 |               3 |                 18884 |                  276 |            1023951 |        403557 |             3976 |        11173237 |                     0 |       7651108 | 2017-02-06 18:00:10.837486+01

 2017-02-06 18:19:02.535137+01 | 1486401542.53514 |                 0 |               3 |                 18884 |                  276 |            1023951 |        404057 |             3981 |        11173237 |                     0 |       7656725 | 2017-02-06 18:00:10.837486+01

 2017-02-06 18:19:03.628131+01 | 1486401543.62813 |                 0 |               3 |                 18884 |                  276 |            1023951 |        404557 |             3986 |        11173237 |                     0 |       7662034 | 2017-02-06 18:00:10.837486+01

 2017-02-06 18:19:04.704799+01 | 1486401544.7048 |                 0 |               3 |                 18884 |                  276 |            1023951 |        405157 |             3992 |        11173237 |                     0 |       7668643 | 2017-02-06 18:00:10.837486+01

 2017-02-06 18:19:05.793608+01 | 1486401545.79361 |                 0 |               3 |                 18884 |                  276 |            1023951 |        405657 |             3997 |        11173237 |                     0 |       7673793 | 2017-02-06 18:00:10.837486+01

 2017-02-06 18:19:06.865366+01 | 1486401546.86537 |                 0 |               3 |                 18884 |                  276 |            1023951 |        406157 |             4002 |        11173237 |                     0 |       7678857 | 2017-02-06 18:00:10.837486+01

 2017-02-06 18:19:07.94433+01 | 1486401547.94433 |                 0 |               3 |                 18884 |                  276 |            1023951 |        406757 |             4008 |        11173237 |                     0 |       7685201 | 2017-02-06 18:00:10.837486+01

 2017-02-06 18:19:09.032504+01 | 1486401549.0325 |                 0 |               3 |                 18884 |                  276 |            1023951 |        407257 |             4013 |        11173237 |                     0 |       7690554 | 2017-02-06 18:00:10.837486+01

 2017-02-06 18:19:10.117027+01 | 1486401550.11703 |                 0 |               3 |                 18884 |                  276 |            1023951 |        407857 |             4019 |        11655126 |                     0 |       7696506 | 2017-02-06 18:00:10.837486+01

 2017-02-06 18:19:11.191931+01 | 1486401551.19193 |                 0 |               3 |                 18884 |                  276 |            1023951 |        408357 |             4024 |        11655126 |                     0 |       7702036 | 2017-02-06 18:00:10.837486+01

 2017-02-06 18:19:12.280488+01 | 1486401552.28049 |                 0 |               3 |                 18884 |                  276 |            1023951 |        408857 |             4029 |        11655126 |                     0 |       7707208 | 2017-02-06 18:00:10.837486+01

 2017-02-06 18:19:13.373099+01 | 1486401553.3731 |                 0 |               3 |                 18884 |                  276 |            1023951 |        409457 |             4035 |        11655126 |                     0 |       7713772 | 2017-02-06 18:00:10.837486+01

 2017-02-06 18:19:14.448937+01 | 1486401554.44894 |                 0 |               3 |                 18884 |                  276 |            1023951 |        409957 |             4040 |        11655126 |                     0 |       7719219 | 2017-02-06 18:00:10.837486+01

 2017-02-06 18:19:15.530882+01 | 1486401555.53088 |                 0 |               3 |                 18884 |                  276 |            1023951 |        410457 |             4045 |        11655126 |                     0 |       7724012 | 2017-02-06 18:00:10.837486+01

 2017-02-06 18:19:16.600913+01 | 1486401556.60091 |                 0 |               3 |                 18884 |                  276 |            1023951 |        411057 |             4051 |        11655126 |                     0 |       7730793 | 2017-02-06 18:00:10.837486+01

 2017-02-06 18:19:17.67331+01 | 1486401557.67331 |                 0 |               3 |                 18884 |                  276 |            1023951 |        411557 |             4056 |        11655126 |                     0 |       7735843 | 2017-02-06 18:00:10.837486+01

 2017-02-06 18:19:18.748208+01 | 1486401558.74821 |                 0 |               3 |                 18884 |                  276 |            1023951 |        412057 |             4061 |        11655126 |                     0 |       7741467 | 2017-02-06 18:00:10.837486+01

 2017-02-06 18:19:19.835709+01 | 1486401559.83571 |                 0 |               3 |                 18884 |                  276 |            1023951 |        412657 |             4067 |        11655126 |                     0 |       7747291 | 2017-02-06 18:00:10.837486+01

 2017-02-06 18:19:20.922334+01 | 1486401560.92233 |                 0 |               3 |                 18884 |                  276 |            1023951 |        413157 |             4072 |        11655126 |                     0 |       7751309 | 2017-02-06 18:00:10.837486+01

 2017-02-06 18:19:22.006668+01 | 1486401562.00667 |                 0 |               3 |                 18884 |                  276 |            1023951 |        413657 |             4077 |        11655126 |                     0 |       7756146 | 2017-02-06 18:00:10.837486+01

 2017-02-06 18:19:23.086283+01 | 1486401563.08628 |                 0 |               3 |                 18884 |                  276 |            1023951 |        414257 |             4083 |        11655126 |                     0 |       7761079 | 2017-02-06 18:00:10.837486+01

