 2017-02-05 04:55:46.709868+01 | 1486266946.70987 | 3/87A47E00               |           15160606208

 2017-02-05 04:55:47.802225+01 | 1486266947.80223 | 3/9BB2FD78               |           15497100664

 2017-02-05 04:55:48.893063+01 | 1486266948.89306 | 3/A8A894B8               |           15714522296

 2017-02-05 04:55:49.998834+01 | 1486266949.99883 | 3/B33EE780               |           15892146048

 2017-02-05 04:55:51.097006+01 | 1486266951.09701 | 3/BBFFBA00               |           16039000576

 2017-02-05 04:55:52.178191+01 | 1486266952.17819 | 3/C3231588               |           16158758280

 2017-02-05 04:55:53.262313+01 | 1486266953.26231 | 3/C8ED76C0               |           16255907520

 2017-02-05 04:55:54.361905+01 | 1486266954.36191 | 3/CDD64290               |           16338272912

 2017-02-05 04:55:55.454367+01 | 1486266955.45437 | 3/D1CD96F0               |           16404813552

 2017-02-05 04:55:56.544181+01 | 1486266956.54418 | 3/D5262640               |           16460949056

 2017-02-05 04:55:57.631025+01 | 1486266957.63103 | 3/D7FA0630               |           16508388912

 2017-02-05 04:55:58.714821+01 | 1486266958.71482 | 3/DA4FF960               |           16547576160

 2017-02-05 04:55:59.813288+01 | 1486266959.81329 | 3/DC59CEF8               |           16581775096

 2017-02-05 04:56:00.90582+01 | 1486266960.90582 | 3/DE086590               |           16609994128

 2017-02-05 04:56:02.000891+01 | 1486266962.00089 | 3/DF889A20               |           16635173408

 2017-02-05 04:56:03.084594+01 | 1486266963.08459 | 3/E0D4A7F8               |           16656934904

 2017-02-05 04:56:04.182473+01 | 1486266964.18247 | 3/E2028AF0               |           16676719344

 2017-02-05 04:56:05.271064+01 | 1486266965.27106 | 3/E31003C8               |           16694379464

 2017-02-05 04:56:06.362331+01 | 1486266966.36233 | 3/E3F98DD0               |           16709684688

 2017-02-05 04:56:07.450808+01 | 1486266967.45081 | 3/E4D87128               |           16724291880

 2017-02-05 04:56:08.544626+01 | 1486266968.54463 | 3/E5A893B0               |           16737932208

 2017-02-05 04:56:09.626448+01 | 1486266969.62645 | 3/E6722EB0               |           16751144624

 2017-02-05 04:56:10.708475+01 | 1486266970.70848 | 3/E7270750               |           16762996560

 2017-02-05 04:56:11.805824+01 | 1486266971.80582 | 3/E7E07ED0               |           16775151312

 2017-02-05 04:56:12.894486+01 | 1486266972.89449 | 3/E88ED5D8               |           16786576856

 2017-02-05 04:56:13.988016+01 | 1486266973.98802 | 3/E935C268               |           16797516392

 2017-02-05 04:56:15.084598+01 | 1486266975.0846 | 3/E9D7F868               |           16808147048

 2017-02-05 04:56:16.174021+01 | 1486266976.17402 | 3/EA72F5A0               |           16818304416

 2017-02-05 04:56:17.270591+01 | 1486266977.27059 | 3/EB0DA910               |           16828442896

 2017-02-05 04:56:18.361301+01 | 1486266978.3613 | 3/EBA7DF10               |           16838549264

 2017-02-05 04:56:19.45139+01 | 1486266979.45139 | 3/EC3CBB58               |           16848304984

 2017-02-05 04:56:20.534431+01 | 1486266980.53443 | 3/ECD330D0               |           16858165456

 2017-02-05 04:56:21.623386+01 | 1486266981.62339 | 3/ED617B88               |           16867490696

 2017-02-05 04:56:22.705022+01 | 1486266982.70502 | 3/EDEBB960               |           16876550496

 2017-02-05 04:56:23.800267+01 | 1486266983.80027 | 3/EE794048               |           16885825608

 2017-02-05 04:56:24.892807+01 | 1486266984.89281 | 3/EF071C38               |           16895122488

 2017-02-05 04:56:25.978711+01 | 1486266985.97871 | 3/EF933988               |           16904305032

 2017-02-05 04:56:27.066321+01 | 1486266987.06632 | 3/F017E620               |           16912999968

 2017-02-05 04:56:28.160967+01 | 1486266988.16097 | 3/F0A2AE90               |           16922095248

 2017-02-05 04:56:29.251786+01 | 1486266989.25179 | 3/F12FA6E0               |           16931333856

 2017-02-05 04:56:30.343455+01 | 1486266990.34346 | 3/F1B5B560               |           16940119392

 2017-02-05 04:56:31.437537+01 | 1486266991.43754 | 3/F23E1488               |           16949056648

 2017-02-05 04:56:32.520216+01 | 1486266992.52022 | 3/F2C1A440               |           16957678656

 2017-02-05 04:56:33.618447+01 | 1486266993.61845 | 3/F341D4E8               |           16966079720

 2017-02-05 04:56:34.70325+01 | 1486266994.70325 | 3/F3BF3498               |           16974296216

 2017-02-05 04:56:35.796339+01 | 1486266995.79634 | 3/F440BCF0               |           16982785264

 2017-02-05 04:56:36.893644+01 | 1486266996.89364 | 3/F4C60190               |           16991519120

 2017-02-05 04:56:37.992574+01 | 1486266997.99257 | 3/F547B848               |           17000020040

 2017-02-05 04:56:39.073628+01 | 1486266999.07363 | 3/F5CD6678               |           17008780920

 2017-02-05 04:56:40.168598+01 | 1486267000.1686 | 3/F651CF50               |           17017458512

 2017-02-05 04:56:41.259305+01 | 1486267001.25931 | 3/F6D803D0               |           17026253776

 2017-02-05 04:56:42.343352+01 | 1486267002.34335 | 3/F759B2D0               |           17034752720

 2017-02-05 04:56:43.439482+01 | 1486267003.43948 | 3/F7D91FE0               |           17043103712

 2017-02-05 04:56:44.531163+01 | 1486267004.53116 | 3/F8599AA8               |           17051523752

 2017-02-05 04:56:45.629338+01 | 1486267005.62934 | 3/F8DE49A0               |           17060219296

 2017-02-05 04:56:46.714981+01 | 1486267006.71498 | 3/FA67D7B8               |           17086011320

 2017-02-05 04:56:47.815037+01 | 1486267007.81504 | 3/FAF26898               |           17095092376

 2017-02-05 04:56:48.905301+01 | 1486267008.9053 | 3/FC06D860               |           17113208928

 2017-02-05 04:56:50.006459+01 | 1486267010.00646 | 3/FCF2BCC0               |           17128668352

 2017-02-05 04:56:51.107624+01 | 1486267011.10762 | 3/FD7B3A18               |           17137613336

 2017-02-05 04:56:52.201477+01 | 1486267012.20148 | 3/FDFF2DB8               |           17146260920

 2017-02-05 04:56:53.289106+01 | 1486267013.28911 | 3/FE84FBA0               |           17155029920

 2017-02-05 04:56:54.379993+01 | 1486267014.37999 | 3/FF0A4498               |           17163764888

 2017-02-05 04:56:55.463566+01 | 1486267015.46357 | 3/FF8316D8               |           17171683032

 2017-02-05 04:56:56.55366+01 | 1486267016.55366 | 3/FFF4F9A0               |           17179146656

 2017-02-05 04:56:57.64506+01 | 1486267017.64506 | 4/6607E0                 |           17186555872

 2017-02-05 04:56:58.72401+01 | 1486267018.72401 | 4/D17778                 |           17193596792

 2017-02-05 04:56:59.813668+01 | 1486267019.81367 | 4/13C52B0                |           17200599728

 2017-02-05 04:57:00.905913+01 | 1486267020.90591 | 4/1AC6638                |           17207944760

 2017-02-05 04:57:01.990699+01 | 1486267021.9907 | 4/21783E0                |           17214964704

 2017-02-05 04:57:03.088833+01 | 1486267023.08883 | 4/283B1B0                |           17222054320

 2017-02-05 04:57:04.174352+01 | 1486267024.17435 | 4/2ECA068                |           17228931176

 2017-02-05 04:57:05.263059+01 | 1486267025.26306 | 4/357CF78                |           17235955576

 2017-02-05 04:57:06.355549+01 | 1486267026.35555 | 4/3C0AAF0                |           17242827504

 2017-02-05 04:57:07.444503+01 | 1486267027.4445 | 4/429FAF0                |           17249729264

 2017-02-05 04:57:08.541589+01 | 1486267028.54159 | 4/4965550                |           17256830288

 2017-02-05 04:57:09.628325+01 | 1486267029.62832 | 4/500CD58                |           17263807832

 2017-02-05 04:57:10.709025+01 | 1486267030.70902 | 4/56BC0A0                |           17270816928

 2017-02-05 04:57:11.785687+01 | 1486267031.78569 | 4/5D3F5A0                |           17277646240

 2017-02-05 04:57:12.868248+01 | 1486267032.86825 | 4/63E6B70                |           17284623216

 2017-02-05 04:57:13.966517+01 | 1486267033.96652 | 4/6AA43C8                |           17291690952

 2017-02-05 04:57:15.048685+01 | 1486267035.04869 | 4/7154EA0                |           17298706080

 2017-02-05 04:57:16.138013+01 | 1486267036.13801 | 4/78057E0                |           17305720800

 2017-02-05 04:57:17.227863+01 | 1486267037.22786 | 4/7EAFB90                |           17312709520

 2017-02-05 04:57:18.314514+01 | 1486267038.31451 | 4/855AE68                |           17319702120

 2017-02-05 04:57:19.411744+01 | 1486267039.41174 | 4/8BECC38                |           17326591032

 2017-02-05 04:57:20.497884+01 | 1486267040.49788 | 4/92B9DC0                |           17333722560

 2017-02-05 04:57:21.588527+01 | 1486267041.58853 | 4/9956430                |           17340654640

 2017-02-05 04:57:22.681552+01 | 1486267042.68155 | 4/A0251C0                |           17347793344

 2017-02-05 04:57:23.756909+01 | 1486267043.75691 | 4/A6B5A20                |           17354676768

 2017-02-05 04:57:24.835564+01 | 1486267044.83556 | 4/AD62040                |           17361674304

 2017-02-05 04:57:25.92007+01 | 1486267045.92007 | 4/B401250                |           17368617552

 2017-02-05 04:57:27.009249+01 | 1486267047.00925 | 4/BA6FE98                |           17375362712

 2017-02-05 04:57:28.103292+01 | 1486267048.10329 | 4/C133C48                |           17382456392

 2017-02-05 04:57:29.200891+01 | 1486267049.20089 | 4/C801250                |           17389589072

 2017-02-05 04:57:30.288032+01 | 1486267050.28803 | 4/CE8C238                |           17396449848

 2017-02-05 04:57:31.373924+01 | 1486267051.37392 | 4/D54D828                |           17403533352

 2017-02-05 04:57:32.465783+01 | 1486267052.46578 | 4/DC2BC18                |           17410735128

 2017-02-05 04:57:33.569804+01 | 1486267053.5698 | 4/E30AA78                |           17417939576

 2017-02-05 04:57:34.661668+01 | 1486267054.66167 | 4/E9B38B0                |           17424922800

 2017-02-05 04:57:35.739811+01 | 1486267055.73981 | 4/F069690                |           17431959184

 2017-02-05 04:57:36.818822+01 | 1486267056.81882 | 4/F6F5CF8                |           17438825720

 2017-02-05 04:57:37.896783+01 | 1486267057.89678 | 4/FD6C680                |           17445602944

 2017-02-05 04:57:38.989461+01 | 1486267058.98946 | 4/10409030               |           17452535856

 2017-02-05 04:57:40.088344+01 | 1486267060.08834 | 4/10A8C8D8               |           17459366104

 2017-02-05 04:57:41.1802+01 | 1486267061.1802 | 4/1119D180               |           17466773888

 2017-02-05 04:57:42.274609+01 | 1486267062.27461 | 4/11890430               |           17474061360

 2017-02-05 04:57:43.363409+01 | 1486267063.36341 | 4/11F1E068               |           17480933480

 2017-02-05 04:57:44.458213+01 | 1486267064.45821 | 4/125F4668               |           17488103016

 2017-02-05 04:57:45.553179+01 | 1486267065.55318 | 4/12CC4BE8               |           17495247848

 2017-02-05 04:57:46.638727+01 | 1486267066.63873 | 4/1338CFE8               |           17502359528

 2017-02-05 04:57:47.733344+01 | 1486267067.73334 | 4/13A4AC50               |           17509428304

 2017-02-05 04:57:48.811683+01 | 1486267068.81168 | 4/140CD3D0               |           17516254816

 2017-02-05 04:57:49.893383+01 | 1486267069.89338 | 4/14770818               |           17523214360

 2017-02-05 04:57:50.986265+01 | 1486267070.98626 | 4/14E048F0               |           17530112240

 2017-02-05 04:57:52.072055+01 | 1486267072.07206 | 4/1549B3D0               |           17537020880

 2017-02-05 04:57:53.178785+01 | 1486267073.17879 | 4/15B181A0               |           17543823776

 2017-02-05 04:57:54.273626+01 | 1486267074.27363 | 4/161AB7C8               |           17550718920

 2017-02-05 04:57:55.363515+01 | 1486267075.36351 | 4/16839C68               |           17557593192

 2017-02-05 04:57:56.452331+01 | 1486267076.45233 | 4/16ECE728               |           17564493608

 2017-02-05 04:57:57.548855+01 | 1486267077.54886 | 4/1755B630               |           17571362352

 2017-02-05 04:57:58.640158+01 | 1486267078.64016 | 4/17BBDC58               |           17578056792

 2017-02-05 04:57:59.730144+01 | 1486267079.73014 | 4/18260C30               |           17585015856

 2017-02-05 04:58:00.81261+01 | 1486267080.81261 | 4/188FC350               |           17591944016

 2017-02-05 04:58:01.891575+01 | 1486267081.89158 | 4/18F561D0               |           17598603728

 2017-02-05 04:58:02.975227+01 | 1486267082.97523 | 4/195A8FA0               |           17605234592

 2017-02-05 04:58:04.068078+01 | 1486267084.06808 | 4/19C557E8               |           17612232680

 2017-02-05 04:58:05.157792+01 | 1486267085.15779 | 4/1A29C7C8               |           17618814920

 2017-02-05 04:58:06.247046+01 | 1486267086.24705 | 4/1A927608               |           17625675272

 2017-02-05 04:58:07.336296+01 | 1486267087.3363 | 4/1AF9E800               |           17632454656

 2017-02-05 04:58:08.429489+01 | 1486267088.42949 | 4/1B613158               |           17639223640

 2017-02-05 04:58:09.531134+01 | 1486267089.53113 | 4/1BCC65F8               |           17646249464

 2017-02-05 04:58:10.623387+01 | 1486267090.62339 | 4/1C3305A0               |           17652975008

 2017-02-05 04:58:11.709812+01 | 1486267091.70981 | 4/1C9D6938               |           17659947320

 2017-02-05 04:58:12.797608+01 | 1486267092.79761 | 4/1D05B028               |           17666781224

 2017-02-05 04:58:13.882196+01 | 1486267093.8822 | 4/1D6C5DE0               |           17673510368

 2017-02-05 04:58:14.982612+01 | 1486267094.98261 | 4/1DD6C6C0               |           17680484032

 2017-02-05 04:58:16.074782+01 | 1486267096.07478 | 4/1E4269D0               |           17687538128

 2017-02-05 04:58:17.170826+01 | 1486267097.17083 | 4/1EA8A360               |           17694237536

 2017-02-05 04:58:18.268734+01 | 1486267098.26873 | 4/1F109BD0               |           17701051344

 2017-02-05 04:58:19.354522+01 | 1486267099.35452 | 4/1F76F3B8               |           17707758520

 2017-02-05 04:58:20.441438+01 | 1486267100.44144 | 4/1FDBC7D0               |           17714366416

 2017-02-05 04:58:21.536582+01 | 1486267101.53658 | 4/20447250               |           17721225808

 2017-02-05 04:58:22.631848+01 | 1486267102.63185 | 4/20AD0DA0               |           17728081312

 2017-02-05 04:58:23.718442+01 | 1486267103.71844 | 4/21131A40               |           17734769216

 2017-02-05 04:58:24.800658+01 | 1486267104.80066 | 4/21758118               |           17741218072

 2017-02-05 04:58:25.880945+01 | 1486267105.88094 | 4/21D390F8               |           17747382520

 2017-02-05 04:58:26.966062+01 | 1486267106.96606 | 4/2233FC70               |           17753701488

 2017-02-05 04:58:28.063547+01 | 1486267108.06355 | 4/22961868               |           17760131176

 2017-02-05 04:58:29.163053+01 | 1486267109.16305 | 4/22FA7908               |           17766709512

 2017-02-05 04:58:30.254264+01 | 1486267110.25426 | 4/235D85F0               |           17773200880

 2017-02-05 04:58:31.349293+01 | 1486267111.34929 | 4/23BED298               |           17779577496

 2017-02-05 04:58:32.439358+01 | 1486267112.43936 | 4/241F36A8               |           17785894568

 2017-02-05 04:58:33.53326+01 | 1486267113.53326 | 4/247F8490               |           17792205968

 2017-02-05 04:58:34.627941+01 | 1486267114.62794 | 4/24E40B60               |           17798794080

 2017-02-05 04:58:35.716779+01 | 1486267115.71678 | 4/2545CEF8               |           17805201904

 2017-02-05 04:58:36.793465+01 | 1486267116.79346 | 4/25A64A18               |           17811524120

 2017-02-05 04:58:37.868903+01 | 1486267117.8689 | 4/2606B838               |           17817843768

 2017-02-05 04:58:38.945501+01 | 1486267118.9455 | 4/2664CAE8               |           17824008936

 2017-02-05 04:58:40.033827+01 | 1486267120.03383 | 4/26C1D680               |           17830106752

 2017-02-05 04:58:41.11448+01 | 1486267121.11448 | 4/27216E70               |           17836371568

 2017-02-05 04:58:42.207695+01 | 1486267122.2077 | 4/277FAE78               |           17842548344

 2017-02-05 04:58:43.29474+01 | 1486267123.29474 | 4/27DEFEB8               |           17848794808

 2017-02-05 04:58:44.388117+01 | 1486267124.38812 | 4/28422488               |           17855292552

 2017-02-05 04:58:45.483622+01 | 1486267125.48362 | 4/28A87D60               |           17861999968

 2017-02-05 04:58:46.572675+01 | 1486267126.57267 | 4/291240A0               |           17868931232

 2017-02-05 04:58:47.668643+01 | 1486267127.66864 | 4/297BF6F8               |           17875859192

 2017-02-05 04:58:48.750721+01 | 1486267128.75072 | 4/29E80C40               |           17882942528

 2017-02-05 04:58:49.839216+01 | 1486267129.83922 | 4/2A5ED760               |           17890727776

 2017-02-05 04:58:50.918237+01 | 1486267130.91824 | 4/2AD5BDF0               |           17898520048

 2017-02-05 04:58:52.011284+01 | 1486267132.01128 | 4/2B4B6088               |           17906229384

 2017-02-05 04:58:53.106061+01 | 1486267133.10606 | 4/2BC2B320               |           17914049312

 2017-02-05 04:58:54.196917+01 | 1486267134.19692 | 4/2C361600               |           17921611264

 2017-02-05 04:58:55.28727+01 | 1486267135.28727 | 4/2CAABEC8               |           17929256648

 2017-02-05 04:58:56.374757+01 | 1486267136.37476 | 4/2D0CCC60               |           17935682656

 2017-02-05 04:58:57.470088+01 | 1486267137.47009 | 4/2D754B00               |           17942530816

 2017-02-05 04:58:58.560259+01 | 1486267138.56026 | 4/2DD75C28               |           17948957736

 2017-02-05 04:58:59.65689+01 | 1486267139.65689 | 4/2E397EA0               |           17955389088

 2017-02-05 04:59:00.746437+01 | 1486267140.74644 | 4/2E9C35F8               |           17961858552

 2017-02-05 04:59:01.82709+01 | 1486267141.82709 | 4/2EFD4C28               |           17968221224

 2017-02-05 04:59:02.910977+01 | 1486267142.91098 | 4/2F612808               |           17974765576

 2017-02-05 04:59:03.994041+01 | 1486267143.99404 | 4/2FC5FC70               |           17981373552

 2017-02-05 04:59:05.072289+01 | 1486267145.07229 | 4/3027E250               |           17987789392

 2017-02-05 04:59:06.15572+01 | 1486267146.15572 | 4/308C3538               |           17994364216

 2017-02-05 04:59:07.243186+01 | 1486267147.24319 | 4/30F06D68               |           18000932200

 2017-02-05 04:59:08.333583+01 | 1486267148.33358 | 4/315558F8               |           18007546320

 2017-02-05 04:59:09.428502+01 | 1486267149.4285 | 4/31B7B348               |           18013991752

 2017-02-05 04:59:10.517618+01 | 1486267150.51762 | 4/321C9578               |           18020603256

 2017-02-05 04:59:11.606059+01 | 1486267151.60606 | 4/3282BB68               |           18027297640

 2017-02-05 04:59:12.697248+01 | 1486267152.69725 | 4/32E5C990               |           18033789328

 2017-02-05 04:59:13.786431+01 | 1486267153.78643 | 4/33496D58               |           18040319320

 2017-02-05 04:59:14.865562+01 | 1486267154.86556 | 4/33ADD320               |           18046898976

 2017-02-05 04:59:15.940811+01 | 1486267155.94081 | 4/34114F20               |           18053418784

 2017-02-05 04:59:17.030047+01 | 1486267157.03005 | 4/3476D120               |           18060071200

 2017-02-05 04:59:18.120715+01 | 1486267158.12071 | 4/34D90260               |           18066506336

 2017-02-05 04:59:19.216035+01 | 1486267159.21603 | 4/353D5F40               |           18073083712

 2017-02-05 04:59:20.301537+01 | 1486267160.30154 | 4/35A1E8A0               |           18079672480

 2017-02-05 04:59:21.394858+01 | 1486267161.39486 | 4/3607E5A8               |           18086356392

 2017-02-05 04:59:22.488331+01 | 1486267162.48833 | 4/366AE2A0               |           18092843680

 2017-02-05 04:59:23.576767+01 | 1486267163.57677 | 4/36CE2CE8               |           18099350760

 2017-02-05 04:59:24.676177+01 | 1486267164.67618 | 4/373573E0               |           18106119136

 2017-02-05 04:59:25.776654+01 | 1486267165.77665 | 4/379C1270               |           18112844400

 2017-02-05 04:59:26.854121+01 | 1486267166.85412 | 4/37FFB7C0               |           18119374784

 2017-02-05 04:59:27.935616+01 | 1486267167.93562 | 4/38631138               |           18125885752

 2017-02-05 04:59:29.013418+01 | 1486267169.01342 | 4/38C2C1E0               |           18132156896

 2017-02-05 04:59:30.099789+01 | 1486267170.09979 | 4/39254398               |           18138612632

 2017-02-05 04:59:31.197094+01 | 1486267171.19709 | 4/39872BF8               |           18145029112

 2017-02-05 04:59:32.280706+01 | 1486267172.28071 | 4/39E840C0               |           18151391424

 2017-02-05 04:59:33.371519+01 | 1486267173.37152 | 4/3A4A0560               |           18157798752

 2017-02-05 04:59:34.463656+01 | 1486267174.46366 | 4/3AABA350               |           18164196176

 2017-02-05 04:59:35.552639+01 | 1486267175.55264 | 4/3B0E4140               |           18170659136

 2017-02-05 04:59:36.639799+01 | 1486267176.6398 | 4/3B70E138               |           18177122616

 2017-02-05 04:59:37.737408+01 | 1486267177.73741 | 4/3BD3C278               |           18183602808

 2017-02-05 04:59:38.825573+01 | 1486267178.82557 | 4/3C377CF0               |           18190138608

 2017-02-05 04:59:39.901588+01 | 1486267179.90159 | 4/3C961248               |           18196337224

 2017-02-05 04:59:40.967297+01 | 1486267180.9673 | 4/3CF4AF78               |           18202537848

 2017-02-05 04:59:42.048907+01 | 1486267182.04891 | 4/3D5C2988               |           18209319304

 2017-02-05 04:59:43.142059+01 | 1486267183.14206 | 4/3DBAF8B8               |           18215532728

 2017-02-05 04:59:44.233005+01 | 1486267184.23301 | 4/3E1D35B0               |           18221970864

 2017-02-05 04:59:45.32687+01 | 1486267185.32687 | 4/3E7F5220               |           18228400672

 2017-02-05 04:59:46.415088+01 | 1486267186.41509 | 4/3EE20968               |           18234870120

 2017-02-05 04:59:47.507931+01 | 1486267187.50793 | 4/3F468328               |           18241454888

 2017-02-05 04:59:48.597944+01 | 1486267188.59794 | 4/3FABCB28               |           18248092456

 2017-02-05 04:59:49.68128+01 | 1486267189.68128 | 4/400E6FB8               |           18254557112

 2017-02-05 04:59:50.77648+01 | 1486267190.77648 | 4/40762ED8               |           18261356248

 2017-02-05 04:59:51.866951+01 | 1486267191.86695 | 4/40DEC2A0               |           18268209824

 2017-02-05 04:59:52.947664+01 | 1486267192.94766 | 4/41444180               |           18274861440

 2017-02-05 04:59:54.026423+01 | 1486267194.02642 | 4/41AB79E0               |           18281626080

 2017-02-05 04:59:55.108401+01 | 1486267195.1084 | 4/420F5A18               |           18288171544

 2017-02-05 04:59:56.195969+01 | 1486267196.19597 | 4/4274FED8               |           18294832856

 2017-02-05 04:59:57.293868+01 | 1486267197.29387 | 4/42DB7A70               |           18301549168

 2017-02-05 04:59:58.386646+01 | 1486267198.38665 | 4/43401F50               |           18308144976

 2017-02-05 04:59:59.481301+01 | 1486267199.4813 | 4/43A4A9F8               |           18314734072

 2017-02-05 05:00:00.581206+01 | 1486267200.58121 | 4/44049800               |           18321020928

 2017-02-05 05:00:01.679855+01 | 1486267201.67986 | 4/446BDDD8               |           18327789016

 2017-02-05 05:00:02.776742+01 | 1486267202.77674 | 4/44D21AC0               |           18334489280

 2017-02-05 05:00:03.857176+01 | 1486267203.85718 | 4/45332940               |           18340849984

 2017-02-05 05:00:04.935633+01 | 1486267204.93563 | 4/459A0490               |           18347590800

 2017-02-05 05:00:06.013993+01 | 1486267206.01399 | 4/45FFFF80               |           18354274176

 2017-02-05 05:00:07.095044+01 | 1486267207.09504 | 4/4663CA90               |           18360814224

 2017-02-05 05:00:08.188361+01 | 1486267208.18836 | 4/46C70CD0               |           18367319248

 2017-02-05 05:00:09.278318+01 | 1486267209.27832 | 4/4728E828               |           18373732392

 2017-02-05 05:00:10.371424+01 | 1486267210.37142 | 4/478F4CF8               |           18380442872

 2017-02-05 05:00:11.45576+01 | 1486267211.45576 | 4/47F38E18               |           18387013144

 2017-02-05 05:00:12.545651+01 | 1486267212.54565 | 4/485472F0               |           18393363184

 2017-02-05 05:00:13.642341+01 | 1486267213.64234 | 4/48BD4858               |           18400233560

 2017-02-05 05:00:14.729604+01 | 1486267214.7296 | 4/492131E8               |           18406781416

 2017-02-05 05:00:15.825399+01 | 1486267215.8254 | 4/49873740               |           18413467456

 2017-02-05 05:00:16.90941+01 | 1486267216.90941 | 4/49EF0A68               |           18420271720

 2017-02-05 05:00:17.987571+01 | 1486267217.98757 | 4/4A526F08               |           18426785544

 2017-02-05 05:00:19.065683+01 | 1486267219.06568 | 4/4AB88E90               |           18433478288

 2017-02-05 05:00:20.148373+01 | 1486267220.14837 | 4/4B187178               |           18439762296

 2017-02-05 05:00:21.236602+01 | 1486267221.2366 | 4/4B807B90               |           18446580624

 2017-02-05 05:00:22.334769+01 | 1486267222.33477 | 4/4BE41008               |           18453106696

 2017-02-05 05:00:23.432941+01 | 1486267223.43294 | 4/4C46E858               |           18459584600

 2017-02-05 05:00:24.532917+01 | 1486267224.53292 | 4/4CAE4108               |           18466357512

 2017-02-05 05:00:25.622671+01 | 1486267225.62267 | 4/4D12E5C0               |           18472953280

 2017-02-05 05:00:26.711946+01 | 1486267226.71195 | 4/4D776BD8               |           18479541208

 2017-02-05 05:00:27.796526+01 | 1486267227.79653 | 4/4DDDFEF0               |           18486263536

 2017-02-05 05:00:28.884922+01 | 1486267228.88492 | 4/4E404D28               |           18492706088

 2017-02-05 05:00:29.962689+01 | 1486267229.96269 | 4/4EA5F098               |           18499367064

 2017-02-05 05:00:31.045204+01 | 1486267231.0452 | 4/4F05B080               |           18505642112

 2017-02-05 05:00:32.132621+01 | 1486267232.13262 | 4/4F695BC0               |           18512174016

 2017-02-05 05:00:33.225333+01 | 1486267233.22533 | 4/4FCF7120               |           18518864160

 2017-02-05 05:00:34.316127+01 | 1486267234.31613 | 4/503269E8               |           18525350376

 2017-02-05 05:00:35.404976+01 | 1486267235.40498 | 4/50988278               |           18532041336

 2017-02-05 05:00:36.502796+01 | 1486267236.5028 | 4/50FFFF60               |           18538823520

 2017-02-05 05:00:37.595721+01 | 1486267237.59572 | 4/516706A0               |           18545575584

 2017-02-05 05:00:38.685825+01 | 1486267238.68583 | 4/51D1BAD0               |           18552568528

 2017-02-05 05:00:39.779412+01 | 1486267239.77941 | 4/52379520               |           18559243552

 2017-02-05 05:00:40.87283+01 | 1486267240.87283 | 4/52A4E628               |           18566407720

 2017-02-05 05:00:41.958573+01 | 1486267241.95857 | 4/5309B030               |           18573013040

 2017-02-05 05:00:43.037374+01 | 1486267243.03737 | 4/53751B80               |           18580052864

 2017-02-05 05:00:44.136135+01 | 1486267244.13614 | 4/53E37CE8               |           18587286760

 2017-02-05 05:00:45.230017+01 | 1486267245.23002 | 4/54513DF0               |           18594479600

 2017-02-05 05:00:46.324921+01 | 1486267246.32492 | 4/54BE1418               |           18601612312

