 2017-02-06 09:21:45.549817+01 | 1486369305.54982 |                 0 |              28 |                   978 |                    1 |                 67 |          1453 |               11 |         4915856 |                     0 |     869201287 | 2017-02-06 06:57:50.159005+01

 2017-02-06 09:21:46.652634+01 | 1486369306.65263 |                 0 |              29 |                  1009 |                    1 |                 69 |          1453 |               11 |         4915861 |                     0 |     869328142 | 2017-02-06 06:57:50.159005+01

 2017-02-06 09:21:47.744904+01 | 1486369307.7449 |                 0 |              29 |                  1009 |                    1 |                 69 |          1453 |               11 |         4915861 |                     0 |     869432222 | 2017-02-06 06:57:50.159005+01

 2017-02-06 09:21:48.838289+01 | 1486369308.83829 |                 0 |              29 |                  1009 |                    1 |                 69 |          1453 |               11 |         4915861 |                     0 |     869562125 | 2017-02-06 06:57:50.159005+01

 2017-02-06 09:21:49.932418+01 | 1486369309.93242 |                 0 |              29 |                  1009 |                    1 |                 69 |          1453 |               11 |         4915861 |                     0 |     869671500 | 2017-02-06 06:57:50.159005+01

 2017-02-06 09:21:51.025995+01 | 1486369311.026 |                 0 |              29 |                  1009 |                    1 |                 69 |          1454 |               11 |         4915861 |                     0 |     869783735 | 2017-02-06 06:57:50.159005+01

 2017-02-06 09:21:52.123917+01 | 1486369312.12392 |                 0 |              29 |                  1009 |                    1 |                 69 |          1454 |               11 |         4915861 |                     0 |     869916127 | 2017-02-06 06:57:50.159005+01

 2017-02-06 09:21:53.218304+01 | 1486369313.2183 |                 0 |              29 |                  1009 |                    1 |                 69 |          1456 |               11 |         4915861 |                     0 |     870025707 | 2017-02-06 06:57:50.159005+01

 2017-02-06 09:21:54.311957+01 | 1486369314.31196 |                 0 |              29 |                  1009 |                    1 |                 69 |          1456 |               11 |         4915861 |                     0 |     870157963 | 2017-02-06 06:57:50.159005+01

 2017-02-06 09:21:55.395296+01 | 1486369315.3953 |                 0 |              29 |                  1009 |                    1 |                 69 |          1456 |               11 |         4915861 |                     0 |     870271425 | 2017-02-06 06:57:50.159005+01

 2017-02-06 09:21:56.492396+01 | 1486369316.4924 |                 0 |              29 |                  1009 |                    1 |                 69 |          1456 |               11 |         4915861 |                     0 |     870386192 | 2017-02-06 06:57:50.159005+01

 2017-02-06 09:21:57.582074+01 | 1486369317.58207 |                 0 |              29 |                  1009 |                    1 |                 69 |          1456 |               11 |         4915861 |                     0 |     870522345 | 2017-02-06 06:57:50.159005+01

 2017-02-06 09:21:58.667956+01 | 1486369318.66796 |                 0 |              29 |                  1009 |                    1 |                 69 |          1456 |               11 |         4915861 |                     0 |     870634817 | 2017-02-06 06:57:50.159005+01

 2017-02-06 09:21:59.755781+01 | 1486369319.75578 |                 0 |              29 |                  1009 |                    1 |                 69 |          1456 |               11 |         4915861 |                     0 |     870748161 | 2017-02-06 06:57:50.159005+01

 2017-02-06 09:22:00.859369+01 | 1486369320.85937 |                 0 |              29 |                  1009 |                    1 |                 69 |          1457 |               11 |         4915861 |                     0 |     870886360 | 2017-02-06 06:57:50.159005+01

 2017-02-06 09:22:01.95463+01 | 1486369321.95463 |                 0 |              29 |                  1009 |                    1 |                 69 |          1457 |               11 |         4915861 |                     0 |     871001701 | 2017-02-06 06:57:50.159005+01

 2017-02-06 09:22:03.050833+01 | 1486369323.05083 |                 0 |              29 |                  1009 |                    1 |                 69 |          1457 |               11 |         4915861 |                     0 |     871138369 | 2017-02-06 06:57:50.159005+01

 2017-02-06 09:22:04.147033+01 | 1486369324.14703 |                 0 |              29 |                  1009 |                    1 |                 69 |          1457 |               11 |         4915861 |                     0 |     871251729 | 2017-02-06 06:57:50.159005+01

 2017-02-06 09:22:05.250897+01 | 1486369325.2509 |                 0 |              29 |                  1009 |                    1 |                 69 |          1457 |               11 |         4915861 |                     0 |     871366182 | 2017-02-06 06:57:50.159005+01

 2017-02-06 09:22:06.349225+01 | 1486369326.34923 |                 0 |              29 |                  1009 |                    1 |                 69 |          1457 |               11 |         4915861 |                     0 |     871506072 | 2017-02-06 06:57:50.159005+01

 2017-02-06 09:22:07.4419+01 | 1486369327.4419 |                 0 |              29 |                  1009 |                    1 |                 69 |          1457 |               11 |         4915861 |                     0 |     871619272 | 2017-02-06 06:57:50.159005+01

 2017-02-06 09:22:08.546056+01 | 1486369328.54606 |                 0 |              29 |                  1009 |                    1 |                 69 |          1457 |               11 |         4915861 |                     0 |     871758865 | 2017-02-06 06:57:50.159005+01

 2017-02-06 09:22:09.632151+01 | 1486369329.63215 |                 0 |              29 |                  1009 |                    1 |                 69 |          1457 |               11 |         4915861 |                     0 |     871875150 | 2017-02-06 06:57:50.159005+01

 2017-02-06 09:22:10.724584+01 | 1486369330.72458 |                 0 |              29 |                  1009 |                    1 |                 69 |          1457 |               11 |         4915861 |                     0 |     871989900 | 2017-02-06 06:57:50.159005+01

 2017-02-06 09:22:11.812361+01 | 1486369331.81236 |                 0 |              29 |                  1009 |                    1 |                 69 |          1457 |               11 |         4915861 |                     0 |     872130793 | 2017-02-06 06:57:50.159005+01

 2017-02-06 09:22:12.907914+01 | 1486369332.90791 |                 0 |              29 |                  1009 |                    1 |                 69 |          1457 |               11 |         4915861 |                     0 |     872248327 | 2017-02-06 06:57:50.159005+01

 2017-02-06 09:22:14.00075+01 | 1486369334.00075 |                 0 |              29 |                  1009 |                    1 |                 69 |          1457 |               11 |         4915861 |                     0 |     872389278 | 2017-02-06 06:57:50.159005+01

 2017-02-06 09:22:15.101054+01 | 1486369335.10105 |                 0 |              29 |                  1009 |                    1 |                 69 |          1457 |               11 |         4915861 |                     0 |     872507941 | 2017-02-06 06:57:50.159005+01

 2017-02-06 09:22:16.196689+01 | 1486369336.19669 |                 0 |              29 |                  1009 |                    1 |                 69 |          1457 |               11 |         4915861 |                     0 |     872625803 | 2017-02-06 06:57:50.159005+01

 2017-02-06 09:22:17.272715+01 | 1486369337.27272 |                 0 |              29 |                  1009 |                    1 |                 69 |          1457 |               11 |         4915861 |                     0 |     872766205 | 2017-02-06 06:57:50.159005+01

 2017-02-06 09:22:18.361629+01 | 1486369338.36163 |                 0 |              29 |                  1009 |                    1 |                 69 |          1457 |               11 |         4915861 |                     0 |     872880466 | 2017-02-06 06:57:50.159005+01

 2017-02-06 09:22:19.442992+01 | 1486369339.44299 |                 0 |              29 |                  1009 |                    1 |                 69 |          1457 |               11 |         4915861 |                     0 |     872996856 | 2017-02-06 06:57:50.159005+01

 2017-02-06 09:22:20.534822+01 | 1486369340.53482 |                 0 |              29 |                  1009 |                    1 |                 69 |          1457 |               11 |         4915861 |                     0 |     873134166 | 2017-02-06 06:57:50.159005+01

 2017-02-06 09:22:21.635243+01 | 1486369341.63524 |                 0 |              29 |                  1009 |                    1 |                 69 |          1457 |               11 |         4915861 |                     0 |     873253490 | 2017-02-06 06:57:50.159005+01

 2017-02-06 09:22:22.727969+01 | 1486369342.72797 |                 0 |              29 |                  1009 |                    1 |                 69 |          1457 |               11 |         4915861 |                     0 |     873394304 | 2017-02-06 06:57:50.159005+01

 2017-02-06 09:22:23.81498+01 | 1486369343.81498 |                 0 |              29 |                  1009 |                    1 |                 69 |          1457 |               11 |         4915861 |                     0 |     873509215 | 2017-02-06 06:57:50.159005+01

 2017-02-06 09:22:24.906717+01 | 1486369344.90672 |                 0 |              29 |                  1009 |                    1 |                 69 |          1457 |               11 |         4915861 |                     0 |     873626367 | 2017-02-06 06:57:50.159005+01

 2017-02-06 09:22:25.994597+01 | 1486369345.9946 |                 0 |              29 |                  1009 |                    1 |                 69 |          1457 |               11 |         4915861 |                     0 |     873767307 | 2017-02-06 06:57:50.159005+01

 2017-02-06 09:22:27.088397+01 | 1486369347.0884 |                 0 |              29 |                  1009 |                    1 |                 69 |          1457 |               11 |         4915861 |                     0 |     873885487 | 2017-02-06 06:57:50.159005+01

 2017-02-06 09:22:28.182162+01 | 1486369348.18216 |                 0 |              29 |                  1009 |                    1 |                 69 |          1457 |               11 |         4915861 |                     0 |     873999980 | 2017-02-06 06:57:50.159005+01

 2017-02-06 09:22:29.274774+01 | 1486369349.27477 |                 0 |              29 |                  1009 |                    1 |                 69 |          1457 |               11 |         4915861 |                     0 |     874140222 | 2017-02-06 06:57:50.159005+01

 2017-02-06 09:22:30.367549+01 | 1486369350.36755 |                 0 |              29 |                  1009 |                    1 |                 69 |          1457 |               11 |         4915861 |                     0 |     874257581 | 2017-02-06 06:57:50.159005+01

 2017-02-06 09:22:31.458505+01 | 1486369351.4585 |                 0 |              29 |                  1009 |                    1 |                 69 |          1457 |               11 |         4915861 |                     0 |     874400967 | 2017-02-06 06:57:50.159005+01

 2017-02-06 09:22:32.551641+01 | 1486369352.55164 |                 0 |              29 |                  1009 |                    1 |                 69 |          1457 |               11 |         4915861 |                     0 |     874517906 | 2017-02-06 06:57:50.159005+01

 2017-02-06 09:22:33.638729+01 | 1486369353.63873 |                 0 |              29 |                  1009 |                    1 |                 69 |          1457 |               11 |         4915861 |                     0 |     874634955 | 2017-02-06 06:57:50.159005+01

 2017-02-06 09:22:34.731429+01 | 1486369354.73143 |                 0 |              29 |                  1009 |                    1 |                 69 |          1457 |               11 |         4915861 |                     0 |     874776538 | 2017-02-06 06:57:50.159005+01

 2017-02-06 09:22:35.817601+01 | 1486369355.8176 |                 0 |              29 |                  1009 |                    1 |                 69 |          1457 |               11 |         4915861 |                     0 |     874894503 | 2017-02-06 06:57:50.159005+01

 2017-02-06 09:22:36.910472+01 | 1486369356.91047 |                 0 |              29 |                  1009 |                    1 |                 69 |          1457 |               11 |         4915861 |                     0 |     875013546 | 2017-02-06 06:57:50.159005+01

 2017-02-06 09:22:38.007854+01 | 1486369358.00785 |                 0 |              29 |                  1009 |                    1 |                 69 |          1457 |               11 |         4915861 |                     0 |     875156128 | 2017-02-06 06:57:50.159005+01

 2017-02-06 09:22:39.101468+01 | 1486369359.10147 |                 0 |              29 |                  1009 |                    1 |                 69 |          1457 |               11 |         4915861 |                     0 |     875276648 | 2017-02-06 06:57:50.159005+01

 2017-02-06 09:22:40.197512+01 | 1486369360.19751 |                 0 |              29 |                  1009 |                    1 |                 69 |          1457 |               11 |         4915861 |                     0 |     875419592 | 2017-02-06 06:57:50.159005+01

 2017-02-06 09:22:41.29142+01 | 1486369361.29142 |                 0 |              29 |                  1009 |                    1 |                 69 |          1457 |               11 |         4915861 |                     0 |     875539335 | 2017-02-06 06:57:50.159005+01

 2017-02-06 09:22:42.381061+01 | 1486369362.38106 |                 0 |              29 |                  1009 |                    1 |                 69 |          1457 |               11 |         4915861 |                     0 |     875655077 | 2017-02-06 06:57:50.159005+01

 2017-02-06 09:22:43.472757+01 | 1486369363.47276 |                 0 |              29 |                  1009 |                    1 |                 69 |          1457 |               11 |         4915861 |                     0 |     875794972 | 2017-02-06 06:57:50.159005+01

 2017-02-06 09:22:44.556744+01 | 1486369364.55674 |                 0 |              29 |                  1009 |                    1 |                 69 |          1457 |               11 |         4915861 |                     0 |     875912814 | 2017-02-06 06:57:50.159005+01

 2017-02-06 09:22:45.652038+01 | 1486369365.65204 |                 0 |              29 |                  1009 |                    1 |                 69 |          1457 |               11 |         4915861 |                     0 |     876030524 | 2017-02-06 06:57:50.159005+01

 2017-02-06 09:22:46.750026+01 | 1486369366.75003 |                 0 |              29 |                  1009 |                    1 |                 69 |          1457 |               11 |         4915861 |                     0 |     876172448 | 2017-02-06 06:57:50.159005+01

 2017-02-06 09:22:47.84958+01 | 1486369367.84958 |                 0 |              29 |                  1009 |                    1 |                 69 |          1457 |               11 |         4915861 |                     0 |     876291329 | 2017-02-06 06:57:50.159005+01

 2017-02-06 09:22:48.942341+01 | 1486369368.94234 |                 0 |              29 |                  1009 |                    1 |                 69 |          1457 |               11 |         4915861 |                     0 |     876429001 | 2017-02-06 06:57:50.159005+01

 2017-02-06 09:22:50.027912+01 | 1486369370.02791 |                 0 |              29 |                  1009 |                    1 |                 69 |          1457 |               11 |         4915861 |                     0 |     876547546 | 2017-02-06 06:57:50.159005+01

 2017-02-06 09:22:51.120697+01 | 1486369371.1207 |                 0 |              29 |                  1009 |                    1 |                 69 |          1457 |               11 |         4915861 |                     0 |     876666732 | 2017-02-06 06:57:50.159005+01

 2017-02-06 09:22:52.21604+01 | 1486369372.21604 |                 0 |              29 |                  1009 |                    1 |                 69 |          1457 |               11 |         4915861 |                     0 |     876807281 | 2017-02-06 06:57:50.159005+01

 2017-02-06 09:22:53.307179+01 | 1486369373.30718 |                 0 |              29 |                  1009 |                    1 |                 69 |          1457 |               11 |         4915861 |                     0 |     876925832 | 2017-02-06 06:57:50.159005+01

 2017-02-06 09:22:54.397515+01 | 1486369374.39752 |                 0 |              29 |                  1009 |                    1 |                 69 |          1457 |               11 |         4915861 |                     0 |     877067421 | 2017-02-06 06:57:50.159005+01

 2017-02-06 09:22:55.491665+01 | 1486369375.49166 |                 0 |              29 |                  1009 |                    1 |                 69 |          1457 |               11 |         4915861 |                     0 |     877186860 | 2017-02-06 06:57:50.159005+01

 2017-02-06 09:22:56.581805+01 | 1486369376.5818 |                 0 |              29 |                  1009 |                    1 |                 69 |          1457 |               11 |         4915861 |                     0 |     877301268 | 2017-02-06 06:57:50.159005+01

 2017-02-06 09:22:57.683234+01 | 1486369377.68323 |                 0 |              29 |                  1009 |                    1 |                 69 |          1457 |               11 |         4915861 |                     0 |     877444950 | 2017-02-06 06:57:50.159005+01

 2017-02-06 09:22:58.767487+01 | 1486369378.76749 |                 0 |              29 |                  1009 |                    1 |                 69 |          1457 |               11 |         4915861 |                     0 |     877558668 | 2017-02-06 06:57:50.159005+01

 2017-02-06 09:22:59.863107+01 | 1486369379.86311 |                 0 |              29 |                  1009 |                    1 |                 69 |          1457 |               11 |         4915861 |                     0 |     877674791 | 2017-02-06 06:57:50.159005+01

 2017-02-06 09:23:00.951682+01 | 1486369380.95168 |                 0 |              29 |                  1009 |                    1 |                 69 |          1457 |               11 |         4915861 |                     0 |     877818014 | 2017-02-06 06:57:50.159005+01

 2017-02-06 09:23:02.049317+01 | 1486369382.04932 |                 0 |              29 |                  1009 |                    1 |                 69 |          1457 |               11 |         4915861 |                     0 |     877936690 | 2017-02-06 06:57:50.159005+01

 2017-02-06 09:23:03.145928+01 | 1486369383.14593 |                 0 |              29 |                  1009 |                    1 |                 69 |          1457 |               11 |         4915861 |                     0 |     878077550 | 2017-02-06 06:57:50.159005+01

 2017-02-06 09:23:04.237097+01 | 1486369384.2371 |                 0 |              29 |                  1009 |                    1 |                 69 |          1457 |               11 |         4915861 |                     0 |     878199247 | 2017-02-06 06:57:50.159005+01

 2017-02-06 09:23:05.338863+01 | 1486369385.33886 |                 0 |              29 |                  1009 |                    1 |                 69 |          1457 |               11 |         4915861 |                     0 |     878318259 | 2017-02-06 06:57:50.159005+01

 2017-02-06 09:23:06.433901+01 | 1486369386.4339 |                 0 |              29 |                  1009 |                    1 |                 69 |          1457 |               11 |         4915861 |                     0 |     878461925 | 2017-02-06 06:57:50.159005+01

 2017-02-06 09:23:07.531549+01 | 1486369387.53155 |                 0 |              29 |                  1009 |                    1 |                 69 |          1457 |               11 |         4915861 |                     0 |     878582680 | 2017-02-06 06:57:50.159005+01

 2017-02-06 09:23:08.624167+01 | 1486369388.62417 |                 0 |              29 |                  1009 |                    1 |                 69 |          1457 |               11 |         4915861 |                     0 |     878726854 | 2017-02-06 06:57:50.159005+01

 2017-02-06 09:23:09.714719+01 | 1486369389.71472 |                 0 |              29 |                  1009 |                    1 |                 69 |          1457 |               11 |         4915861 |                     0 |     878843471 | 2017-02-06 06:57:50.159005+01

 2017-02-06 09:23:10.805428+01 | 1486369390.80543 |                 0 |              29 |                  1009 |                    1 |                 69 |          1457 |               11 |         4915861 |                     0 |     878961936 | 2017-02-06 06:57:50.159005+01

 2017-02-06 09:23:11.896093+01 | 1486369391.89609 |                 0 |              29 |                  1009 |                    1 |                 69 |          1457 |               11 |         4915861 |                     0 |     879105167 | 2017-02-06 06:57:50.159005+01

 2017-02-06 09:23:12.98683+01 | 1486369392.98683 |                 0 |              29 |                  1009 |                    1 |                 69 |          1457 |               11 |         4915861 |                     0 |     879225656 | 2017-02-06 06:57:50.159005+01

 2017-02-06 09:23:14.077215+01 | 1486369394.07721 |                 0 |              29 |                  1009 |                    1 |                 69 |          1457 |               11 |         4915861 |                     0 |     879344651 | 2017-02-06 06:57:50.159005+01

 2017-02-06 09:23:15.162263+01 | 1486369395.16226 |                 0 |              29 |                  1009 |                    1 |                 69 |          1457 |               11 |         4915861 |                     0 |     879488491 | 2017-02-06 06:57:50.159005+01

 2017-02-06 09:23:16.258906+01 | 1486369396.25891 |                 0 |              29 |                  1009 |                    1 |                 69 |          1457 |               11 |         4915861 |                     0 |     879605739 | 2017-02-06 06:57:50.159005+01

 2017-02-06 09:23:17.352207+01 | 1486369397.35221 |                 0 |              29 |                  1009 |                    1 |                 69 |          1457 |               11 |         4915861 |                     0 |     879745742 | 2017-02-06 06:57:50.159005+01

 2017-02-06 09:23:18.447461+01 | 1486369398.44746 |                 0 |              29 |                  1009 |                    1 |                 69 |          1457 |               11 |         4915861 |                     0 |     879866261 | 2017-02-06 06:57:50.159005+01

 2017-02-06 09:23:19.547387+01 | 1486369399.54739 |                 0 |              29 |                  1009 |                    1 |                 69 |          1457 |               11 |         4915861 |                     0 |     879984174 | 2017-02-06 06:57:50.159005+01

 2017-02-06 09:23:20.641919+01 | 1486369400.64192 |                 0 |              29 |                  1009 |                    1 |                 69 |          1457 |               11 |         4915861 |                     0 |     880129104 | 2017-02-06 06:57:50.159005+01

 2017-02-06 09:23:21.73712+01 | 1486369401.73712 |                 0 |              29 |                  1009 |                    1 |                 69 |          1457 |               11 |         4915861 |                     0 |     880243191 | 2017-02-06 06:57:50.159005+01

 2017-02-06 09:23:22.836994+01 | 1486369402.83699 |                 0 |              29 |                  1009 |                    1 |                 69 |          1457 |               11 |         4915861 |                     0 |     880386801 | 2017-02-06 06:57:50.159005+01

 2017-02-06 09:23:23.923261+01 | 1486369403.92326 |                 0 |              29 |                  1009 |                    1 |                 69 |          1457 |               11 |         4915861 |                     0 |     880503047 | 2017-02-06 06:57:50.159005+01

 2017-02-06 09:23:25.015082+01 | 1486369405.01508 |                 0 |              29 |                  1009 |                    1 |                 69 |          1457 |               11 |         4915861 |                     0 |     880622868 | 2017-02-06 06:57:50.159005+01

 2017-02-06 09:23:26.112706+01 | 1486369406.11271 |                 0 |              29 |                  1009 |                    1 |                 69 |          1457 |               11 |         4915861 |                     0 |     880763161 | 2017-02-06 06:57:50.159005+01

 2017-02-06 09:23:27.212248+01 | 1486369407.21225 |                 0 |              29 |                  1009 |                    1 |                 69 |          1457 |               11 |         4915861 |                     0 |     880882981 | 2017-02-06 06:57:50.159005+01

 2017-02-06 09:23:28.304808+01 | 1486369408.30481 |                 0 |              29 |                  1009 |                    1 |                 69 |          1457 |               11 |         4915861 |                     0 |     881022660 | 2017-02-06 06:57:50.159005+01

 2017-02-06 09:23:29.396683+01 | 1486369409.39668 |                 0 |              29 |                  1009 |                    1 |                 69 |          1457 |               11 |         4915861 |                     0 |     881141484 | 2017-02-06 06:57:50.159005+01

 2017-02-06 09:23:30.489107+01 | 1486369410.48911 |                 0 |              29 |                  1009 |                    1 |                 69 |          1457 |               11 |         4915861 |                     0 |     881257774 | 2017-02-06 06:57:50.159005+01

 2017-02-06 09:23:31.582128+01 | 1486369411.58213 |                 0 |              29 |                  1009 |                    1 |                 69 |          1457 |               11 |         4915861 |                     0 |     881399403 | 2017-02-06 06:57:50.159005+01

 2017-02-06 09:23:32.668939+01 | 1486369412.66894 |                 0 |              29 |                  1009 |                    1 |                 69 |          1457 |               11 |         4915861 |                     0 |     881514681 | 2017-02-06 06:57:50.159005+01

 2017-02-06 09:23:33.756237+01 | 1486369413.75624 |                 0 |              29 |                  1009 |                    1 |                 69 |          1457 |               11 |         4915861 |                     0 |     881633216 | 2017-02-06 06:57:50.159005+01

 2017-02-06 09:23:34.846747+01 | 1486369414.84675 |                 0 |              29 |                  1009 |                    1 |                 69 |          1457 |               11 |         4915861 |                     0 |     881772550 | 2017-02-06 06:57:50.159005+01

 2017-02-06 09:23:35.941221+01 | 1486369415.94122 |                 0 |              29 |                  1009 |                    1 |                 69 |          1457 |               11 |         4915861 |                     0 |     881891957 | 2017-02-06 06:57:50.159005+01

 2017-02-06 09:23:37.036076+01 | 1486369417.03608 |                 0 |              29 |                  1009 |                    1 |                 69 |          1457 |               11 |         4915861 |                     0 |     882007709 | 2017-02-06 06:57:50.159005+01

 2017-02-06 09:23:38.13139+01 | 1486369418.13139 |                 0 |              29 |                  1009 |                    1 |                 69 |          1457 |               11 |         4915861 |                     0 |     882151319 | 2017-02-06 06:57:50.159005+01

 2017-02-06 09:23:39.224105+01 | 1486369419.2241 |                 0 |              29 |                  1009 |                    1 |                 69 |          1457 |               11 |         4915861 |                     0 |     882271004 | 2017-02-06 06:57:50.159005+01

 2017-02-06 09:23:40.315982+01 | 1486369420.31598 |                 0 |              29 |                  1009 |                    1 |                 69 |          1457 |               11 |         4915861 |                     0 |     882412691 | 2017-02-06 06:57:50.159005+01

 2017-02-06 09:23:41.406987+01 | 1486369421.40699 |                 0 |              29 |                  1009 |                    1 |                 69 |          1457 |               11 |         4915861 |                     0 |     882533812 | 2017-02-06 06:57:50.159005+01

 2017-02-06 09:23:42.498069+01 | 1486369422.49807 |                 0 |              29 |                  1009 |                    1 |                 69 |          1457 |               11 |         4915861 |                     0 |     882652135 | 2017-02-06 06:57:50.159005+01

 2017-02-06 09:23:43.600376+01 | 1486369423.60038 |                 0 |              29 |                  1009 |                    1 |                 69 |          1457 |               11 |         4915861 |                     0 |     882794663 | 2017-02-06 06:57:50.159005+01

 2017-02-06 09:23:44.693167+01 | 1486369424.69317 |                 0 |              29 |                  1009 |                    1 |                 69 |          1457 |               11 |         4915861 |                     0 |     882911638 | 2017-02-06 06:57:50.159005+01

 2017-02-06 09:23:45.78838+01 | 1486369425.78838 |                 0 |              29 |                  1009 |                    1 |                 69 |          1457 |               11 |         4915861 |                     0 |     883054914 | 2017-02-06 06:57:50.159005+01

 2017-02-06 09:23:46.884038+01 | 1486369426.88404 |                 0 |              29 |                  1009 |                    1 |                 69 |          1457 |               11 |         4915861 |                     0 |     883174717 | 2017-02-06 06:57:50.159005+01

 2017-02-06 09:23:47.977069+01 | 1486369427.97707 |                 0 |              29 |                  1009 |                    1 |                 69 |          1457 |               11 |         4915861 |                     0 |     883294814 | 2017-02-06 06:57:50.159005+01

 2017-02-06 09:23:49.075493+01 | 1486369429.07549 |                 0 |              29 |                  1009 |                    1 |                 69 |          1457 |               11 |         4915861 |                     0 |     883439290 | 2017-02-06 06:57:50.159005+01

 2017-02-06 09:23:50.167313+01 | 1486369430.16731 |                 0 |              29 |                  1009 |                    1 |                 69 |          1457 |               11 |         4915861 |                     0 |     883558257 | 2017-02-06 06:57:50.159005+01

 2017-02-06 09:23:51.262521+01 | 1486369431.26252 |                 0 |              29 |                  1009 |                    1 |                 69 |          1457 |               11 |         4915861 |                     0 |     883700145 | 2017-02-06 06:57:50.159005+01

 2017-02-06 09:23:52.350102+01 | 1486369432.3501 |                 0 |              29 |                  1009 |                    1 |                 69 |          1457 |               11 |         4915861 |                     0 |     883819508 | 2017-02-06 06:57:50.159005+01

 2017-02-06 09:23:53.44122+01 | 1486369433.44122 |                 0 |              29 |                  1009 |                    1 |                 69 |          1457 |               11 |         4915861 |                     0 |     883938479 | 2017-02-06 06:57:50.159005+01

 2017-02-06 09:23:54.533153+01 | 1486369434.53315 |                 0 |              29 |                  1009 |                    1 |                 69 |          1457 |               11 |         4915861 |                     0 |     884082414 | 2017-02-06 06:57:50.159005+01

 2017-02-06 09:23:55.626878+01 | 1486369435.62688 |                 0 |              29 |                  1009 |                    1 |                 69 |          1457 |               11 |         4915861 |                     0 |     884197726 | 2017-02-06 06:57:50.159005+01

 2017-02-06 09:23:56.722213+01 | 1486369436.72221 |                 0 |              29 |                  1009 |                    1 |                 69 |          1457 |               11 |         4915861 |                     0 |     884316715 | 2017-02-06 06:57:50.159005+01

 2017-02-06 09:23:57.809039+01 | 1486369437.80904 |                 0 |              29 |                  1009 |                    1 |                 69 |          1457 |               11 |         4915861 |                     0 |     884458988 | 2017-02-06 06:57:50.159005+01

 2017-02-06 09:23:58.89568+01 | 1486369438.89568 |                 0 |              29 |                  1009 |                    1 |                 69 |          1457 |               11 |         4915861 |                     0 |     884578778 | 2017-02-06 06:57:50.159005+01

 2017-02-06 09:23:59.98244+01 | 1486369439.98244 |                 0 |              29 |                  1009 |                    1 |                 69 |          1457 |               11 |         4915861 |                     0 |     884717407 | 2017-02-06 06:57:50.159005+01

 2017-02-06 09:24:01.075679+01 | 1486369441.07568 |                 0 |              29 |                  1009 |                    1 |                 69 |          1457 |               11 |         4915861 |                     0 |     884836869 | 2017-02-06 06:57:50.159005+01

 2017-02-06 09:24:02.168236+01 | 1486369442.16824 |                 0 |              29 |                  1009 |                    1 |                 69 |          1457 |               11 |         4915861 |                     0 |     884952893 | 2017-02-06 06:57:50.159005+01

 2017-02-06 09:24:03.266144+01 | 1486369443.26614 |                 0 |              29 |                  1009 |                    1 |                 69 |          1457 |               11 |         4915861 |                     0 |     885097722 | 2017-02-06 06:57:50.159005+01

 2017-02-06 09:24:04.356639+01 | 1486369444.35664 |                 0 |              29 |                  1009 |                    1 |                 69 |          1457 |               11 |         4915861 |                     0 |     885214663 | 2017-02-06 06:57:50.159005+01

 2017-02-06 09:24:05.445388+01 | 1486369445.44539 |                 0 |              29 |                  1009 |                    1 |                 69 |          1457 |               11 |         4915861 |                     0 |     885334352 | 2017-02-06 06:57:50.159005+01

 2017-02-06 09:24:06.534887+01 | 1486369446.53489 |                 0 |              29 |                  1009 |                    1 |                 69 |          1457 |               11 |         4915861 |                     0 |     885475183 | 2017-02-06 06:57:50.159005+01

 2017-02-06 09:24:07.632582+01 | 1486369447.63258 |                 0 |              29 |                  1009 |                    1 |                 69 |          1457 |               11 |         4915861 |                     0 |     885596243 | 2017-02-06 06:57:50.159005+01

 2017-02-06 09:24:08.737456+01 | 1486369448.73746 |                 0 |              29 |                  1009 |                    1 |                 69 |          1457 |               11 |         4915861 |                     0 |     885738505 | 2017-02-06 06:57:50.159005+01

 2017-02-06 09:24:09.832961+01 | 1486369449.83296 |                 0 |              29 |                  1009 |                    1 |                 69 |          1457 |               11 |         4915861 |                     0 |     885857019 | 2017-02-06 06:57:50.159005+01

 2017-02-06 09:24:10.918956+01 | 1486369450.91896 |                 0 |              29 |                  1009 |                    1 |                 69 |          1457 |               11 |         4915861 |                     0 |     885973535 | 2017-02-06 06:57:50.159005+01

 2017-02-06 09:24:12.010143+01 | 1486369452.01014 |                 0 |              29 |                  1009 |                    1 |                 69 |          1457 |               11 |         4915861 |                     0 |     886117847 | 2017-02-06 06:57:50.159005+01

 2017-02-06 09:24:13.098579+01 | 1486369453.09858 |                 0 |              29 |                  1009 |                    1 |                 69 |          1457 |               11 |         4915861 |                     0 |     886228053 | 2017-02-06 06:57:50.159005+01

 2017-02-06 09:24:14.192455+01 | 1486369454.19246 |                 0 |              29 |                  1009 |                    1 |                 69 |          1457 |               11 |         4915861 |                     0 |     886346831 | 2017-02-06 06:57:50.159005+01

 2017-02-06 09:24:15.287551+01 | 1486369455.28755 |                 0 |              29 |                  1009 |                    1 |                 69 |          1457 |               11 |         4915861 |                     0 |     886490649 | 2017-02-06 06:57:50.159005+01

 2017-02-06 09:24:16.385434+01 | 1486369456.38543 |                 0 |              29 |                  1009 |                    1 |                 69 |          1457 |               11 |         4915861 |                     0 |     886606019 | 2017-02-06 06:57:50.159005+01

 2017-02-06 09:24:17.474001+01 | 1486369457.474 |                 0 |              29 |                  1009 |                    1 |                 69 |          1457 |               11 |         4915861 |                     0 |     886744062 | 2017-02-06 06:57:50.159005+01

 2017-02-06 09:24:18.556491+01 | 1486369458.55649 |                 0 |              29 |                  1009 |                    1 |                 69 |          1457 |               11 |         4915861 |                     0 |     886859597 | 2017-02-06 06:57:50.159005+01

 2017-02-06 09:24:19.639456+01 | 1486369459.63946 |                 0 |              29 |                  1009 |                    1 |                 69 |          1457 |               11 |         4915861 |                     0 |     886976145 | 2017-02-06 06:57:50.159005+01

 2017-02-06 09:24:20.739725+01 | 1486369460.73973 |                 0 |              29 |                  1009 |                    1 |                 69 |          1457 |               11 |         4915861 |                     0 |     887121539 | 2017-02-06 06:57:50.159005+01

 2017-02-06 09:24:21.831068+01 | 1486369461.83107 |                 0 |              29 |                  1009 |                    1 |                 69 |          1457 |               11 |         4915861 |                     0 |     887242756 | 2017-02-06 06:57:50.159005+01

 2017-02-06 09:24:22.925518+01 | 1486369462.92552 |                 0 |              29 |                  1009 |                    1 |                 69 |          1457 |               11 |         4915861 |                     0 |     887357617 | 2017-02-06 06:57:50.159005+01

 2017-02-06 09:24:24.017553+01 | 1486369464.01755 |                 0 |              29 |                  1009 |                    1 |                 69 |          1457 |               11 |         4915861 |                     0 |     887501848 | 2017-02-06 06:57:50.159005+01

 2017-02-06 09:24:25.109985+01 | 1486369465.10999 |                 0 |              29 |                  1009 |                    1 |                 69 |          1457 |               11 |         4915861 |                     0 |     887622342 | 2017-02-06 06:57:50.159005+01

 2017-02-06 09:24:26.191931+01 | 1486369466.19193 |                 0 |              29 |                  1009 |                    1 |                 69 |          1457 |               11 |         4915861 |                     0 |     887768409 | 2017-02-06 06:57:50.159005+01

 2017-02-06 09:24:27.289407+01 | 1486369467.28941 |                 0 |              29 |                  1009 |                    1 |                 69 |          1457 |               11 |         4915861 |                     0 |     887881325 | 2017-02-06 06:57:50.159005+01

 2017-02-06 09:24:28.383673+01 | 1486369468.38367 |                 0 |              29 |                  1009 |                    1 |                 69 |          1457 |               11 |         4915861 |                     0 |     887999910 | 2017-02-06 06:57:50.159005+01

 2017-02-06 09:24:29.482085+01 | 1486369469.48208 |                 0 |              29 |                  1009 |                    1 |                 69 |          1457 |               11 |         4915861 |                     0 |     888138990 | 2017-02-06 06:57:50.159005+01

 2017-02-06 09:24:30.575643+01 | 1486369470.57564 |                 0 |              29 |                  1009 |                    1 |                 69 |          1457 |               11 |         4915861 |                     0 |     888256667 | 2017-02-06 06:57:50.159005+01

 2017-02-06 09:24:31.667084+01 | 1486369471.66708 |                 0 |              29 |                  1009 |                    1 |                 69 |          1457 |               11 |         4915861 |                     0 |     888398730 | 2017-02-06 06:57:50.159005+01

 2017-02-06 09:24:32.763887+01 | 1486369472.76389 |                 0 |              29 |                  1009 |                    1 |                 69 |          1457 |               11 |         4915861 |                     0 |     888516677 | 2017-02-06 06:57:50.159005+01

 2017-02-06 09:24:33.857239+01 | 1486369473.85724 |                 0 |              29 |                  1009 |                    1 |                 69 |          1457 |               11 |         4915861 |                     0 |     888635649 | 2017-02-06 06:57:50.159005+01

 2017-02-06 09:24:34.952186+01 | 1486369474.95219 |                 0 |              29 |                  1009 |                    1 |                 69 |          1457 |               11 |         4915861 |                     0 |     888775155 | 2017-02-06 06:57:50.159005+01

 2017-02-06 09:24:36.040225+01 | 1486369476.04023 |                 0 |              29 |                  1009 |                    1 |                 69 |          1457 |               11 |         4915861 |                     0 |     888894351 | 2017-02-06 06:57:50.159005+01

 2017-02-06 09:24:37.136812+01 | 1486369477.13681 |                 0 |              29 |                  1009 |                    1 |                 69 |          1457 |               11 |         4915861 |                     0 |     889011855 | 2017-02-06 06:57:50.159005+01

 2017-02-06 09:24:38.231908+01 | 1486369478.23191 |                 0 |              29 |                  1009 |                    1 |                 69 |          1457 |               11 |         4915861 |                     0 |     889153703 | 2017-02-06 06:57:50.159005+01

 2017-02-06 09:24:39.326013+01 | 1486369479.32601 |                 0 |              29 |                  1009 |                    1 |                 69 |          1457 |               11 |         4915861 |                     0 |     889272190 | 2017-02-06 06:57:50.159005+01

 2017-02-06 09:24:40.41832+01 | 1486369480.41832 |                 0 |              29 |                  1009 |                    1 |                 69 |          1457 |               11 |         4915861 |                     0 |     889417387 | 2017-02-06 06:57:50.159005+01

 2017-02-06 09:24:41.516287+01 | 1486369481.51629 |                 0 |              29 |                  1009 |                    1 |                 69 |          1457 |               11 |         4915861 |                     0 |     889536332 | 2017-02-06 06:57:50.159005+01

 2017-02-06 09:24:42.610401+01 | 1486369482.6104 |                 0 |              29 |                  1009 |                    1 |                 69 |          1457 |               11 |         4915861 |                     0 |     889653929 | 2017-02-06 06:57:50.159005+01

 2017-02-06 09:24:43.695628+01 | 1486369483.69563 |                 0 |              29 |                  1009 |                    1 |                 69 |          1457 |               11 |         4915861 |                     0 |     889795756 | 2017-02-06 06:57:50.159005+01

 2017-02-06 09:24:44.787055+01 | 1486369484.78706 |                 0 |              29 |                  1009 |                    1 |                 69 |          1457 |               11 |         4915861 |                     0 |     889914438 | 2017-02-06 06:57:50.159005+01

 2017-02-06 09:24:45.8764+01 | 1486369485.8764 |                 0 |              29 |                  1009 |                    1 |                 69 |          1457 |               11 |         4915861 |                     0 |     890057219 | 2017-02-06 06:57:50.159005+01

 2017-02-06 09:24:46.971945+01 | 1486369486.97195 |                 0 |              29 |                  1009 |                    1 |                 69 |          1457 |               11 |         4915861 |                     0 |     890177294 | 2017-02-06 06:57:50.159005+01

 2017-02-06 09:24:48.067094+01 | 1486369488.06709 |                 0 |              29 |                  1009 |                    1 |                 69 |          1457 |               11 |         4915861 |                     0 |     890296234 | 2017-02-06 06:57:50.159005+01

 2017-02-06 09:24:49.150066+01 | 1486369489.15007 |                 0 |              29 |                  1009 |                    1 |                 69 |          1457 |               11 |         4915861 |                     0 |     890441308 | 2017-02-06 06:57:50.159005+01

 2017-02-06 09:24:50.250021+01 | 1486369490.25002 |                 0 |              29 |                  1009 |                    1 |                 69 |          1457 |               11 |         4915861 |                     0 |     890563333 | 2017-02-06 06:57:50.159005+01

 2017-02-06 09:24:51.342289+01 | 1486369491.34229 |                 0 |              29 |                  1009 |                    1 |                 69 |          1457 |               11 |         4915861 |                     0 |     890684477 | 2017-02-06 06:57:50.159005+01

 2017-02-06 09:24:52.436422+01 | 1486369492.43642 |                 0 |              29 |                  1009 |                    1 |                 69 |          1457 |               11 |         4915861 |                     0 |     890822656 | 2017-02-06 06:57:50.159005+01

 2017-02-06 09:24:53.530308+01 | 1486369493.53031 |                 0 |              29 |                  1009 |                    1 |                 69 |          1457 |               11 |         4915861 |                     0 |     890942239 | 2017-02-06 06:57:50.159005+01

 2017-02-06 09:24:54.623206+01 | 1486369494.62321 |                 0 |              29 |                  1009 |                    1 |                 69 |          1457 |               11 |         4915861 |                     0 |     891082540 | 2017-02-06 06:57:50.159005+01

 2017-02-06 09:24:55.711104+01 | 1486369495.7111 |                 0 |              29 |                  1009 |                    1 |                 69 |          1457 |               11 |         4915861 |                     0 |     891203173 | 2017-02-06 06:57:50.159005+01

 2017-02-06 09:24:56.803048+01 | 1486369496.80305 |                 0 |              29 |                  1009 |                    1 |                 69 |          1457 |               11 |         4915861 |                     0 |     891322979 | 2017-02-06 06:57:50.159005+01

 2017-02-06 09:24:57.89134+01 | 1486369497.89134 |                 0 |              29 |                  1009 |                    1 |                 69 |          1457 |               11 |         4915861 |                     0 |     891466220 | 2017-02-06 06:57:50.159005+01

 2017-02-06 09:24:58.987213+01 | 1486369498.98721 |                 0 |              29 |                  1009 |                    1 |                 69 |          1457 |               11 |         4915861 |                     0 |     891587234 | 2017-02-06 06:57:50.159005+01

 2017-02-06 09:25:00.0849+01 | 1486369500.0849 |                 0 |              29 |                  1009 |                    1 |                 69 |          1457 |               11 |         4915861 |                     0 |     891707203 | 2017-02-06 06:57:50.159005+01

 2017-02-06 09:25:01.180017+01 | 1486369501.18002 |                 0 |              29 |                  1009 |                    1 |                 69 |          1457 |               11 |         4915861 |                     0 |     891848623 | 2017-02-06 06:57:50.159005+01

 2017-02-06 09:25:02.276117+01 | 1486369502.27612 |                 0 |              29 |                  1009 |                    1 |                 69 |          1457 |               11 |         4915861 |                     0 |     891964352 | 2017-02-06 06:57:50.159005+01

 2017-02-06 09:25:03.375362+01 | 1486369503.37536 |                 0 |              29 |                  1009 |                    1 |                 69 |          1457 |               11 |         4915861 |                     0 |     892108022 | 2017-02-06 06:57:50.159005+01

 2017-02-06 09:25:04.466749+01 | 1486369504.46675 |                 0 |              29 |                  1009 |                    1 |                 69 |          1457 |               11 |         4915861 |                     0 |     892227356 | 2017-02-06 06:57:50.159005+01

 2017-02-06 09:25:05.556714+01 | 1486369505.55671 |                 0 |              29 |                  1009 |                    1 |                 69 |          1457 |               11 |         4915861 |                     0 |     892342600 | 2017-02-06 06:57:50.159005+01

 2017-02-06 09:25:06.650729+01 | 1486369506.65073 |                 0 |              29 |                  1009 |                    1 |                 69 |          1457 |               11 |         4915861 |                     0 |     892487795 | 2017-02-06 06:57:50.159005+01

 2017-02-06 09:25:07.740624+01 | 1486369507.74062 |                 0 |              29 |                  1009 |                    1 |                 69 |          1457 |               11 |         4915861 |                     0 |     892609365 | 2017-02-06 06:57:50.159005+01

 2017-02-06 09:25:08.82918+01 | 1486369508.82918 |                 0 |              29 |                  1009 |                    1 |                 69 |          1457 |               11 |         4915861 |                     0 |     892750768 | 2017-02-06 06:57:50.159005+01

 2017-02-06 09:25:09.920006+01 | 1486369509.92001 |                 0 |              29 |                  1009 |                    1 |                 69 |          1457 |               11 |         4915861 |                     0 |     892869412 | 2017-02-06 06:57:50.159005+01

 2017-02-06 09:25:11.006443+01 | 1486369511.00644 |                 0 |              29 |                  1009 |                    1 |                 69 |          1457 |               11 |         4915861 |                     0 |     892987562 | 2017-02-06 06:57:50.159005+01

 2017-02-06 09:25:12.100294+01 | 1486369512.10029 |                 0 |              29 |                  1009 |                    1 |                 69 |          1457 |               11 |         4915861 |                     0 |     893127152 | 2017-02-06 06:57:50.159005+01

 2017-02-06 09:25:13.196291+01 | 1486369513.19629 |                 0 |              29 |                  1009 |                    1 |                 69 |          1457 |               11 |         4915861 |                     0 |     893244412 | 2017-02-06 06:57:50.159005+01

 2017-02-06 09:25:14.292168+01 | 1486369514.29217 |                 0 |              29 |                  1009 |                    1 |                 69 |          1457 |               11 |         4915861 |                     0 |     893363992 | 2017-02-06 06:57:50.159005+01

 2017-02-06 09:25:15.382939+01 | 1486369515.38294 |                 0 |              29 |                  1009 |                    1 |                 69 |          1457 |               11 |         4915861 |                     0 |     893507175 | 2017-02-06 06:57:50.159005+01

 2017-02-06 09:25:16.468477+01 | 1486369516.46848 |                 0 |              29 |                  1009 |                    1 |                 69 |          1457 |               11 |         4915861 |                     0 |     893624355 | 2017-02-06 06:57:50.159005+01

 2017-02-06 09:25:17.564797+01 | 1486369517.5648 |                 0 |              29 |                  1009 |                    1 |                 69 |          1457 |               11 |         4915861 |                     0 |     893743631 | 2017-02-06 06:57:50.159005+01

 2017-02-06 09:25:18.66618+01 | 1486369518.66618 |                 0 |              29 |                  1009 |                    1 |                 69 |          1457 |               11 |         4915861 |                     0 |     893886076 | 2017-02-06 06:57:50.159005+01

 2017-02-06 09:25:19.755044+01 | 1486369519.75504 |                 0 |              29 |                  1009 |                    1 |                 69 |          1457 |               11 |         4915861 |                     0 |     894005094 | 2017-02-06 06:57:50.159005+01

 2017-02-06 09:25:20.85119+01 | 1486369520.85119 |                 0 |              29 |                  1009 |                    1 |                 69 |          1457 |               11 |         4915861 |                     0 |     894148272 | 2017-02-06 06:57:50.159005+01

 2017-02-06 09:25:21.942304+01 | 1486369521.9423 |                 0 |              29 |                  1009 |                    1 |                 69 |          1457 |               11 |         4915861 |                     0 |     894262797 | 2017-02-06 06:57:50.159005+01

 2017-02-06 09:25:23.039815+01 | 1486369523.03981 |                 0 |              29 |                  1009 |                    1 |                 69 |          1457 |               11 |         4915861 |                     0 |     894383610 | 2017-02-06 06:57:50.159005+01

 2017-02-06 09:25:24.131051+01 | 1486369524.13105 |                 0 |              29 |                  1009 |                    1 |                 69 |          1457 |               11 |         4915861 |                     0 |     894526621 | 2017-02-06 06:57:50.159005+01

 2017-02-06 09:25:25.226816+01 | 1486369525.22682 |                 0 |              29 |                  1009 |                    1 |                 69 |          1457 |               11 |         4915861 |                     0 |     894646073 | 2017-02-06 06:57:50.159005+01

 2017-02-06 09:25:26.321142+01 | 1486369526.32114 |                 0 |              29 |                  1009 |                    1 |                 69 |          1457 |               11 |         4915861 |                     0 |     894784477 | 2017-02-06 06:57:50.159005+01

 2017-02-06 09:25:27.411736+01 | 1486369527.41174 |                 0 |              29 |                  1009 |                    1 |                 69 |          1457 |               11 |         4915861 |                     0 |     894902877 | 2017-02-06 06:57:50.159005+01

 2017-02-06 09:25:28.508264+01 | 1486369528.50826 |                 0 |              29 |                  1009 |                    1 |                 69 |          1457 |               11 |         4915861 |                     0 |     895019926 | 2017-02-06 06:57:50.159005+01

 2017-02-06 09:25:29.598362+01 | 1486369529.59836 |                 0 |              29 |                  1009 |                    1 |                 69 |          1457 |               11 |         4915861 |                     0 |     895159234 | 2017-02-06 06:57:50.159005+01

 2017-02-06 09:25:30.694969+01 | 1486369530.69497 |                 0 |              29 |                  1009 |                    1 |                 69 |          1457 |               11 |         4915861 |                     0 |     895277838 | 2017-02-06 06:57:50.159005+01

 2017-02-06 09:25:31.784558+01 | 1486369531.78456 |                 0 |              29 |                  1009 |                    1 |                 69 |          1457 |               11 |         4915861 |                     0 |     895419865 | 2017-02-06 06:57:50.159005+01

 2017-02-06 09:25:32.880733+01 | 1486369532.88073 |                 0 |              29 |                  1009 |                    1 |                 69 |          1457 |               11 |         4915861 |                     0 |     895538708 | 2017-02-06 06:57:50.159005+01

 2017-02-06 09:25:33.976903+01 | 1486369533.9769 |                 0 |              29 |                  1009 |                    1 |                 69 |          1457 |               11 |         4915861 |                     0 |     895658736 | 2017-02-06 06:57:50.159005+01

 2017-02-06 09:25:35.060965+01 | 1486369535.06097 |                 0 |              29 |                  1009 |                    1 |                 69 |          1457 |               11 |         4915861 |                     0 |     895803665 | 2017-02-06 06:57:50.159005+01

 2017-02-06 09:25:36.1398+01 | 1486369536.1398 |                 0 |              29 |                  1009 |                    1 |                 69 |          1457 |               11 |         4915861 |                     0 |     895921901 | 2017-02-06 06:57:50.159005+01

 2017-02-06 09:25:37.236311+01 | 1486369537.23631 |                 0 |              29 |                  1009 |                    1 |                 69 |          1457 |               11 |         4915861 |                     0 |     896034182 | 2017-02-06 06:57:50.159005+01

 2017-02-06 09:25:38.331616+01 | 1486369538.33162 |                 0 |              29 |                  1009 |                    1 |                 69 |          1457 |               11 |         4915861 |                     0 |     896175698 | 2017-02-06 06:57:50.159005+01

 2017-02-06 09:25:39.428854+01 | 1486369539.42885 |                 0 |              29 |                  1009 |                    1 |                 69 |          1457 |               11 |         4915861 |                     0 |     896292307 | 2017-02-06 06:57:50.159005+01

 2017-02-06 09:25:40.520304+01 | 1486369540.5203 |                 0 |              29 |                  1009 |                    1 |                 69 |          1457 |               11 |         4915861 |                     0 |     896437361 | 2017-02-06 06:57:50.159005+01

 2017-02-06 09:25:41.619884+01 | 1486369541.61988 |                 0 |              29 |                  1009 |                    1 |                 69 |          1457 |               11 |         4915861 |                     0 |     896555325 | 2017-02-06 06:57:50.159005+01

 2017-02-06 09:25:42.7101+01 | 1486369542.7101 |                 0 |              29 |                  1009 |                    1 |                 69 |          1457 |               11 |         4915861 |                     0 |     896674389 | 2017-02-06 06:57:50.159005+01

 2017-02-06 09:25:43.802978+01 | 1486369543.80298 |                 0 |              29 |                  1009 |                    1 |                 69 |          1457 |               11 |         4915861 |                     0 |     896817470 | 2017-02-06 06:57:50.159005+01

 2017-02-06 09:25:44.896412+01 | 1486369544.89641 |                 0 |              29 |                  1009 |                    1 |                 69 |          1457 |               11 |         4915861 |                     0 |     896937712 | 2017-02-06 06:57:50.159005+01

 2017-02-06 09:25:45.989515+01 | 1486369545.98952 |                 0 |              29 |                  1009 |                    1 |                 69 |          1457 |               11 |         4915861 |                     0 |     897054619 | 2017-02-06 06:57:50.159005+01

 2017-02-06 09:25:47.08009+01 | 1486369547.08009 |                 0 |              29 |                  1009 |                    1 |                 69 |          1457 |               11 |         4915861 |                     0 |     897195797 | 2017-02-06 06:57:50.159005+01

 2017-02-06 09:25:48.173879+01 | 1486369548.17388 |                 0 |              29 |                  1009 |                    1 |                 69 |          1457 |               11 |         4915861 |                     0 |     897315191 | 2017-02-06 06:57:50.159005+01

 2017-02-06 09:25:49.268754+01 | 1486369549.26875 |                 0 |              29 |                  1009 |                    1 |                 69 |          1457 |               11 |         4915861 |                     0 |     897458553 | 2017-02-06 06:57:50.159005+01

 2017-02-06 09:25:50.367799+01 | 1486369550.3678 |                 0 |              29 |                  1009 |                    1 |                 69 |          1457 |               11 |         4915861 |                     0 |     897578642 | 2017-02-06 06:57:50.159005+01

 2017-02-06 09:25:51.455646+01 | 1486369551.45565 |                 0 |              29 |                  1009 |                    1 |                 69 |          1457 |               11 |         4915861 |                     0 |     897696985 | 2017-02-06 06:57:50.159005+01

 2017-02-06 09:25:52.548741+01 | 1486369552.54874 |                 0 |              29 |                  1009 |                    1 |                 69 |          1457 |               11 |         4915861 |                     0 |     897840698 | 2017-02-06 06:57:50.159005+01

 2017-02-06 09:25:53.644654+01 | 1486369553.64465 |                 0 |              29 |                  1009 |                    1 |                 69 |          1457 |               11 |         4915861 |                     0 |     897960202 | 2017-02-06 06:57:50.159005+01

 2017-02-06 09:25:54.745854+01 | 1486369554.74585 |                 0 |              29 |                  1009 |                    1 |                 69 |          1457 |               11 |         4915861 |                     0 |     898103750 | 2017-02-06 06:57:50.159005+01

 2017-02-06 09:25:55.835335+01 | 1486369555.83534 |                 0 |              29 |                  1009 |                    1 |                 69 |          1457 |               11 |         4915861 |                     0 |     898222891 | 2017-02-06 06:57:50.159005+01

 2017-02-06 09:25:56.930724+01 | 1486369556.93072 |                 0 |              29 |                  1009 |                    1 |                 69 |          1457 |               11 |         4915861 |                     0 |     898342524 | 2017-02-06 06:57:50.159005+01

 2017-02-06 09:25:58.024743+01 | 1486369558.02474 |                 0 |              29 |                  1009 |                    1 |                 69 |          1457 |               11 |         4915861 |                     0 |     898487666 | 2017-02-06 06:57:50.159005+01

 2017-02-06 09:25:59.118387+01 | 1486369559.11839 |                 0 |              29 |                  1009 |                    1 |                 69 |          1457 |               11 |         4915861 |                     0 |     898605043 | 2017-02-06 06:57:50.159005+01

 2017-02-06 09:26:00.215308+01 | 1486369560.21531 |                 0 |              29 |                  1009 |                    1 |                 69 |          1457 |               11 |         4915861 |                     0 |     898722702 | 2017-02-06 06:57:50.159005+01

 2017-02-06 09:26:01.306759+01 | 1486369561.30676 |                 0 |              29 |                  1009 |                    1 |                 69 |          1457 |               11 |         4915861 |                     0 |     898868753 | 2017-02-06 06:57:50.159005+01

 2017-02-06 09:26:02.401273+01 | 1486369562.40127 |                 0 |              29 |                  1009 |                    1 |                 69 |          1457 |               11 |         4915861 |                     0 |     898988793 | 2017-02-06 06:57:50.159005+01

 2017-02-06 09:26:03.493189+01 | 1486369563.49319 |                 0 |              29 |                  1009 |                    1 |                 69 |          1457 |               11 |         4915861 |                     0 |     899133106 | 2017-02-06 06:57:50.159005+01

 2017-02-06 09:26:04.593923+01 | 1486369564.59392 |                 0 |              29 |                  1009 |                    1 |                 69 |          1457 |               11 |         4915861 |                     0 |     899250371 | 2017-02-06 06:57:50.159005+01

 2017-02-06 09:26:05.69075+01 | 1486369565.69075 |                 0 |              29 |                  1009 |                    1 |                 69 |          1457 |               11 |         4915861 |                     0 |     899370282 | 2017-02-06 06:57:50.159005+01

 2017-02-06 09:26:06.784167+01 | 1486369566.78417 |                 0 |              29 |                  1009 |                    1 |                 69 |          1457 |               11 |         4915861 |                     0 |     899512768 | 2017-02-06 06:57:50.159005+01

 2017-02-06 09:26:07.883144+01 | 1486369567.88314 |                 0 |              29 |                  1009 |                    1 |                 69 |          1457 |               11 |         4915861 |                     0 |     899631598 | 2017-02-06 06:57:50.159005+01

 2017-02-06 09:26:08.985966+01 | 1486369568.98597 |                 0 |              29 |                  1009 |                    1 |                 69 |          1457 |               11 |         4915861 |                     0 |     899774422 | 2017-02-06 06:57:50.159005+01

 2017-02-06 09:26:10.069793+01 | 1486369570.06979 |                 0 |              29 |                  1009 |                    1 |                 69 |          1457 |               11 |         4915861 |                     0 |     899893220 | 2017-02-06 06:57:50.159005+01

 2017-02-06 09:26:11.155888+01 | 1486369571.15589 |                 0 |              29 |                  1009 |                    1 |                 69 |          1457 |               11 |         4915861 |                     0 |     900008645 | 2017-02-06 06:57:50.159005+01

 2017-02-06 09:26:12.254044+01 | 1486369572.25404 |                 0 |              29 |                  1009 |                    1 |                 69 |          1457 |               11 |         4915861 |                     0 |     900151174 | 2017-02-06 06:57:50.159005+01

 2017-02-06 09:26:13.338207+01 | 1486369573.33821 |                 0 |              29 |                  1009 |                    1 |                 69 |          1457 |               11 |         4915861 |                     0 |     900274088 | 2017-02-06 06:57:50.159005+01

 2017-02-06 09:26:14.432149+01 | 1486369574.43215 |                 0 |              29 |                  1009 |                    1 |                 69 |          1457 |               11 |         4915861 |                     0 |     900416242 | 2017-02-06 06:57:50.159005+01

 2017-02-06 09:26:15.529502+01 | 1486369575.5295 |                 0 |              29 |                  1009 |                    1 |                 69 |          1457 |               11 |         4915861 |                     0 |     900534675 | 2017-02-06 06:57:50.159005+01

 2017-02-06 09:26:16.622263+01 | 1486369576.62226 |                 0 |              29 |                  1009 |                    1 |                 69 |          1457 |               11 |         4915861 |                     0 |     900652826 | 2017-02-06 06:57:50.159005+01

 2017-02-06 09:26:17.709767+01 | 1486369577.70977 |                 0 |              29 |                  1009 |                    1 |                 69 |          1457 |               11 |         4915861 |                     0 |     900795762 | 2017-02-06 06:57:50.159005+01

 2017-02-06 09:26:18.806018+01 | 1486369578.80602 |                 0 |              29 |                  1009 |                    1 |                 69 |          1457 |               11 |         4915861 |                     0 |     900915597 | 2017-02-06 06:57:50.159005+01

 2017-02-06 09:26:19.897081+01 | 1486369579.89708 |                 0 |              29 |                  1009 |                    1 |                 69 |          1457 |               11 |         4915861 |                     0 |     901034244 | 2017-02-06 06:57:50.159005+01

 2017-02-06 09:26:20.985351+01 | 1486369580.98535 |                 0 |              29 |                  1009 |                    1 |                 69 |          1457 |               11 |         4915861 |                     0 |     901176517 | 2017-02-06 06:57:50.159005+01

 2017-02-06 09:26:22.076055+01 | 1486369582.07606 |                 0 |              29 |                  1009 |                    1 |                 69 |          1457 |               11 |         4915861 |                     0 |     901293360 | 2017-02-06 06:57:50.159005+01

 2017-02-06 09:26:23.168915+01 | 1486369583.16892 |                 0 |              29 |                  1009 |                    1 |                 69 |          1457 |               11 |         4915861 |                     0 |     901435251 | 2017-02-06 06:57:50.159005+01

 2017-02-06 09:26:24.259244+01 | 1486369584.25924 |                 0 |              29 |                  1009 |                    1 |                 69 |          1457 |               11 |         4915861 |                     0 |     901555143 | 2017-02-06 06:57:50.159005+01

 2017-02-06 09:26:25.36761+01 | 1486369585.36761 |                 0 |              29 |                  1009 |                    1 |                 69 |          1457 |               11 |         4915861 |                     0 |     901673230 | 2017-02-06 06:57:50.159005+01

 2017-02-06 09:26:26.455666+01 | 1486369586.45567 |                 0 |              29 |                  1009 |                    1 |                 69 |          1457 |               11 |         4915861 |                     0 |     901813033 | 2017-02-06 06:57:50.159005+01

 2017-02-06 09:26:27.543468+01 | 1486369587.54347 |                 0 |              29 |                  1009 |                    1 |                 69 |          1457 |               11 |         4915861 |                     0 |     901932295 | 2017-02-06 06:57:50.159005+01

 2017-02-06 09:26:28.642203+01 | 1486369588.6422 |                 0 |              29 |                  1009 |                    1 |                 69 |          1457 |               11 |         4915861 |                     0 |     902052659 | 2017-02-06 06:57:50.159005+01

 2017-02-06 09:26:29.736137+01 | 1486369589.73614 |                 0 |              29 |                  1009 |                    1 |                 69 |          1457 |               11 |         4915861 |                     0 |     902196343 | 2017-02-06 06:57:50.159005+01

 2017-02-06 09:26:30.829731+01 | 1486369590.82973 |                 0 |              29 |                  1009 |                    1 |                 69 |          1457 |               11 |         4915861 |                     0 |     902315261 | 2017-02-06 06:57:50.159005+01

 2017-02-06 09:26:31.926397+01 | 1486369591.9264 |                 0 |              29 |                  1009 |                    1 |                 69 |          1457 |               11 |         4915861 |                     0 |     902457503 | 2017-02-06 06:57:50.159005+01

 2017-02-06 09:26:33.021948+01 | 1486369593.02195 |                 0 |              29 |                  1009 |                    1 |                 69 |          1457 |               11 |         4915861 |                     0 |     902576739 | 2017-02-06 06:57:50.159005+01

 2017-02-06 09:26:34.121343+01 | 1486369594.12134 |                 0 |              29 |                  1009 |                    1 |                 69 |          1457 |               11 |         4915861 |                     0 |     902694134 | 2017-02-06 06:57:50.159005+01

 2017-02-06 09:26:35.216418+01 | 1486369595.21642 |                 0 |              29 |                  1009 |                    1 |                 69 |          1457 |               11 |         4915861 |                     0 |     902837191 | 2017-02-06 06:57:50.159005+01

 2017-02-06 09:26:36.306512+01 | 1486369596.30651 |                 0 |              29 |                  1009 |                    1 |                 69 |          1457 |               11 |         4915861 |                     0 |     902957181 | 2017-02-06 06:57:50.159005+01

 2017-02-06 09:26:37.402273+01 | 1486369597.40227 |                 0 |              29 |                  1009 |                    1 |                 69 |          1457 |               11 |         4915861 |                     0 |     903100885 | 2017-02-06 06:57:50.159005+01

 2017-02-06 09:26:38.498333+01 | 1486369598.49833 |                 0 |              29 |                  1009 |                    1 |                 69 |          1457 |               11 |         4915861 |                     0 |     903220351 | 2017-02-06 06:57:50.159005+01

 2017-02-06 09:26:39.592277+01 | 1486369599.59228 |                 0 |              29 |                  1009 |                    1 |                 69 |          1457 |               11 |         4915861 |                     0 |     903339400 | 2017-02-06 06:57:50.159005+01

 2017-02-06 09:26:40.68815+01 | 1486369600.68815 |                 0 |              29 |                  1009 |                    1 |                 69 |          1457 |               11 |         4915861 |                     0 |     903480754 | 2017-02-06 06:57:50.159005+01

 2017-02-06 09:26:41.778597+01 | 1486369601.7786 |                 0 |              29 |                  1009 |                    1 |                 69 |          1457 |               11 |         4915861 |                     0 |     903599760 | 2017-02-06 06:57:50.159005+01

 2017-02-06 09:26:42.868237+01 | 1486369602.86824 |                 0 |              29 |                  1009 |                    1 |                 69 |          1457 |               11 |         4915861 |                     0 |     903741471 | 2017-02-06 06:57:50.159005+01

 2017-02-06 09:26:43.957246+01 | 1486369603.95725 |                 0 |              29 |                  1009 |                    1 |                 69 |          1457 |               11 |         4915861 |                     0 |     903861583 | 2017-02-06 06:57:50.159005+01

 2017-02-06 09:26:45.052594+01 | 1486369605.05259 |                 0 |              29 |                  1009 |                    1 |                 69 |          1457 |               11 |         4915861 |                     0 |     903978698 | 2017-02-06 06:57:50.159005+01

