 2017-02-06 09:21:45.476897+01 | 1486369305.4769 | 3/1B46678                |           12913501816

 2017-02-06 09:21:46.57081+01 | 1486369306.57081 | 3/1B46678                |           12913501816

 2017-02-06 09:21:47.675971+01 | 1486369307.67597 | 3/1B46678                |           12913501816

 2017-02-06 09:21:48.763728+01 | 1486369308.76373 | 3/1B46678                |           12913501816

 2017-02-06 09:21:49.857258+01 | 1486369309.85726 | 3/1B46678                |           12913501816

 2017-02-06 09:21:50.954535+01 | 1486369310.95454 | 3/1B46678                |           12913501816

 2017-02-06 09:21:52.044472+01 | 1486369312.04447 | 3/1B46678                |           12913501816

 2017-02-06 09:21:53.141951+01 | 1486369313.14195 | 3/1B46678                |           12913501816

 2017-02-06 09:21:54.238724+01 | 1486369314.23872 | 3/1B46678                |           12913501816

 2017-02-06 09:21:55.328912+01 | 1486369315.32891 | 3/1B46678                |           12913501816

 2017-02-06 09:21:56.414206+01 | 1486369316.41421 | 3/1B46678                |           12913501816

 2017-02-06 09:21:57.510049+01 | 1486369317.51005 | 3/1B46678                |           12913501816

 2017-02-06 09:21:58.599229+01 | 1486369318.59923 | 3/1B46678                |           12913501816

 2017-02-06 09:21:59.68119+01 | 1486369319.68119 | 3/1B46678                |           12913501816

 2017-02-06 09:22:00.776237+01 | 1486369320.77624 | 3/1B466B0                |           12913501872

 2017-02-06 09:22:01.878921+01 | 1486369321.87892 | 3/1B466B0                |           12913501872

 2017-02-06 09:22:02.972727+01 | 1486369322.97273 | 3/1B466B0                |           12913501872

 2017-02-06 09:22:04.073156+01 | 1486369324.07316 | 3/1B466B0                |           12913501872

 2017-02-06 09:22:05.166637+01 | 1486369325.16664 | 3/1B466B0                |           12913501872

 2017-02-06 09:22:06.268588+01 | 1486369326.26859 | 3/1B466B0                |           12913501872

 2017-02-06 09:22:07.366917+01 | 1486369327.36692 | 3/1B466B0                |           12913501872

 2017-02-06 09:22:08.461278+01 | 1486369328.46128 | 3/1B466B0                |           12913501872

 2017-02-06 09:22:09.562602+01 | 1486369329.5626 | 3/1B466B0                |           12913501872

 2017-02-06 09:22:10.648409+01 | 1486369330.64841 | 3/1B466B0                |           12913501872

 2017-02-06 09:22:11.741244+01 | 1486369331.74124 | 3/1B466B0                |           12913501872

 2017-02-06 09:22:12.831575+01 | 1486369332.83157 | 3/1B466B0                |           12913501872

 2017-02-06 09:22:13.927547+01 | 1486369333.92755 | 3/1B466B0                |           12913501872

 2017-02-06 09:22:15.020208+01 | 1486369335.02021 | 3/1B466B0                |           12913501872

 2017-02-06 09:22:16.119634+01 | 1486369336.11963 | 3/1B466B0                |           12913501872

 2017-02-06 09:22:17.214738+01 | 1486369337.21474 | 3/1B466B0                |           12913501872

 2017-02-06 09:22:18.288404+01 | 1486369338.2884 | 3/1B466B0                |           12913501872

 2017-02-06 09:22:19.378274+01 | 1486369339.37827 | 3/1B466B0                |           12913501872

 2017-02-06 09:22:20.461237+01 | 1486369340.46124 | 3/1B466B0                |           12913501872

 2017-02-06 09:22:21.55458+01 | 1486369341.55458 | 3/1B466B0                |           12913501872

 2017-02-06 09:22:22.654792+01 | 1486369342.65479 | 3/1B466B0                |           12913501872

 2017-02-06 09:22:23.747923+01 | 1486369343.74792 | 3/1B466B0                |           12913501872

 2017-02-06 09:22:24.830239+01 | 1486369344.83024 | 3/1B466B0                |           12913501872

 2017-02-06 09:22:25.923759+01 | 1486369345.92376 | 3/1B466B0                |           12913501872

 2017-02-06 09:22:27.013079+01 | 1486369347.01308 | 3/1B466B0                |           12913501872

 2017-02-06 09:22:28.10658+01 | 1486369348.10658 | 3/1B466B0                |           12913501872

 2017-02-06 09:22:29.198291+01 | 1486369349.19829 | 3/1B466B0                |           12913501872

 2017-02-06 09:22:30.29345+01 | 1486369350.29345 | 3/1B466B0                |           12913501872

 2017-02-06 09:22:31.384881+01 | 1486369351.38488 | 3/1B466B0                |           12913501872

 2017-02-06 09:22:32.476254+01 | 1486369352.47625 | 3/1B466B0                |           12913501872

 2017-02-06 09:22:33.56749+01 | 1486369353.56749 | 3/1B466B0                |           12913501872

 2017-02-06 09:22:34.658268+01 | 1486369354.65827 | 3/1B466B0                |           12913501872

 2017-02-06 09:22:35.747311+01 | 1486369355.74731 | 3/1B466B0                |           12913501872

 2017-02-06 09:22:36.836111+01 | 1486369356.83611 | 3/1B466B0                |           12913501872

 2017-02-06 09:22:37.928332+01 | 1486369357.92833 | 3/1B466B0                |           12913501872

 2017-02-06 09:22:39.024681+01 | 1486369359.02468 | 3/1B466B0                |           12913501872

 2017-02-06 09:22:40.120121+01 | 1486369360.12012 | 3/1B466B0                |           12913501872

 2017-02-06 09:22:41.218297+01 | 1486369361.2183 | 3/1B466B0                |           12913501872

 2017-02-06 09:22:42.309254+01 | 1486369362.30925 | 3/1B466B0                |           12913501872

 2017-02-06 09:22:43.39855+01 | 1486369363.39855 | 3/1B466B0                |           12913501872

 2017-02-06 09:22:44.488432+01 | 1486369364.48843 | 3/1B466B0                |           12913501872

 2017-02-06 09:22:45.576266+01 | 1486369365.57627 | 3/1B466B0                |           12913501872

 2017-02-06 09:22:46.674631+01 | 1486369366.67463 | 3/1B466B0                |           12913501872

 2017-02-06 09:22:47.766465+01 | 1486369367.76646 | 3/1B466B0                |           12913501872

 2017-02-06 09:22:48.868959+01 | 1486369368.86896 | 3/1B466B0                |           12913501872

 2017-02-06 09:22:49.957813+01 | 1486369369.95781 | 3/1B466B0                |           12913501872

 2017-02-06 09:22:51.04691+01 | 1486369371.04691 | 3/1B466B0                |           12913501872

 2017-02-06 09:22:52.139058+01 | 1486369372.13906 | 3/1B466B0                |           12913501872

 2017-02-06 09:22:53.235387+01 | 1486369373.23539 | 3/1B466B0                |           12913501872

 2017-02-06 09:22:54.324882+01 | 1486369374.32488 | 3/1B466B0                |           12913501872

 2017-02-06 09:22:55.41532+01 | 1486369375.41532 | 3/1B466B0                |           12913501872

 2017-02-06 09:22:56.505248+01 | 1486369376.50525 | 3/1B466B0                |           12913501872

 2017-02-06 09:22:57.601443+01 | 1486369377.60144 | 3/1B466B0                |           12913501872

 2017-02-06 09:22:58.70126+01 | 1486369378.70126 | 3/1B466B0                |           12913501872

 2017-02-06 09:22:59.787537+01 | 1486369379.78754 | 3/1B466B0                |           12913501872

 2017-02-06 09:23:00.878219+01 | 1486369380.87822 | 3/1B466B0                |           12913501872

 2017-02-06 09:23:01.970188+01 | 1486369381.97019 | 3/1B466B0                |           12913501872

 2017-02-06 09:23:03.06751+01 | 1486369383.06751 | 3/1B466B0                |           12913501872

 2017-02-06 09:23:04.163297+01 | 1486369384.1633 | 3/1B466B0                |           12913501872

 2017-02-06 09:23:05.25874+01 | 1486369385.25874 | 3/1B466B0                |           12913501872

 2017-02-06 09:23:06.358423+01 | 1486369386.35842 | 3/1B466B0                |           12913501872

 2017-02-06 09:23:07.453802+01 | 1486369387.4538 | 3/1B466B0                |           12913501872

 2017-02-06 09:23:08.551633+01 | 1486369388.55163 | 3/1B466B0                |           12913501872

 2017-02-06 09:23:09.64077+01 | 1486369389.64077 | 3/1B466B0                |           12913501872

 2017-02-06 09:23:10.733574+01 | 1486369390.73357 | 3/1B466B0                |           12913501872

 2017-02-06 09:23:11.824423+01 | 1486369391.82442 | 3/1B466B0                |           12913501872

 2017-02-06 09:23:12.914274+01 | 1486369392.91427 | 3/1B466B0                |           12913501872

 2017-02-06 09:23:14.003637+01 | 1486369394.00364 | 3/1B466B0                |           12913501872

 2017-02-06 09:23:15.093989+01 | 1486369395.09399 | 3/1B466B0                |           12913501872

 2017-02-06 09:23:16.181722+01 | 1486369396.18172 | 3/1B466B0                |           12913501872

 2017-02-06 09:23:17.277475+01 | 1486369397.27748 | 3/1B466B0                |           12913501872

 2017-02-06 09:23:18.368479+01 | 1486369398.36848 | 3/1B466B0                |           12913501872

 2017-02-06 09:23:19.469619+01 | 1486369399.46962 | 3/1B466B0                |           12913501872

 2017-02-06 09:23:20.568963+01 | 1486369400.56896 | 3/1B466B0                |           12913501872

 2017-02-06 09:23:21.659629+01 | 1486369401.65963 | 3/1B466B0                |           12913501872

 2017-02-06 09:23:22.76169+01 | 1486369402.76169 | 3/1B466B0                |           12913501872

 2017-02-06 09:23:23.860173+01 | 1486369403.86017 | 3/1B466B0                |           12913501872

 2017-02-06 09:23:24.943616+01 | 1486369404.94362 | 3/1B466B0                |           12913501872

 2017-02-06 09:23:26.034193+01 | 1486369406.03419 | 3/1B466B0                |           12913501872

 2017-02-06 09:23:27.130661+01 | 1486369407.13066 | 3/1B466B0                |           12913501872

 2017-02-06 09:23:28.230782+01 | 1486369408.23078 | 3/1B466B0                |           12913501872

 2017-02-06 09:23:29.324281+01 | 1486369409.32428 | 3/1B466B0                |           12913501872

 2017-02-06 09:23:30.414903+01 | 1486369410.4149 | 3/1B466B0                |           12913501872

 2017-02-06 09:23:31.506852+01 | 1486369411.50685 | 3/1B466B0                |           12913501872

 2017-02-06 09:23:32.601601+01 | 1486369412.6016 | 3/1B466B0                |           12913501872

 2017-02-06 09:23:33.68705+01 | 1486369413.68705 | 3/1B466B0                |           12913501872

 2017-02-06 09:23:34.772403+01 | 1486369414.7724 | 3/1B466B0                |           12913501872

 2017-02-06 09:23:35.865644+01 | 1486369415.86564 | 3/1B466B0                |           12913501872

 2017-02-06 09:23:36.957782+01 | 1486369416.95778 | 3/1B466B0                |           12913501872

 2017-02-06 09:23:38.053875+01 | 1486369418.05387 | 3/1B466B0                |           12913501872

 2017-02-06 09:23:39.152166+01 | 1486369419.15217 | 3/1B466B0                |           12913501872

 2017-02-06 09:23:40.243098+01 | 1486369420.2431 | 3/1B466B0                |           12913501872

 2017-02-06 09:23:41.332354+01 | 1486369421.33235 | 3/1B466B0                |           12913501872

 2017-02-06 09:23:42.4214+01 | 1486369422.4214 | 3/1B466B0                |           12913501872

 2017-02-06 09:23:43.519331+01 | 1486369423.51933 | 3/1B466B0                |           12913501872

 2017-02-06 09:23:44.61923+01 | 1486369424.61923 | 3/1B466B0                |           12913501872

 2017-02-06 09:23:45.711005+01 | 1486369425.711 | 3/1B466B0                |           12913501872

 2017-02-06 09:23:46.807137+01 | 1486369426.80714 | 3/1B466B0                |           12913501872

 2017-02-06 09:23:47.903791+01 | 1486369427.90379 | 3/1B466B0                |           12913501872

 2017-02-06 09:23:49.000167+01 | 1486369429.00017 | 3/1B466B0                |           12913501872

 2017-02-06 09:23:50.09373+01 | 1486369430.09373 | 3/1B466B0                |           12913501872

 2017-02-06 09:23:51.184441+01 | 1486369431.18444 | 3/1B466B0                |           12913501872

 2017-02-06 09:23:52.276771+01 | 1486369432.27677 | 3/1B466B0                |           12913501872

 2017-02-06 09:23:53.368603+01 | 1486369433.3686 | 3/1B466B0                |           12913501872

 2017-02-06 09:23:54.459249+01 | 1486369434.45925 | 3/1B466B0                |           12913501872

 2017-02-06 09:23:55.553891+01 | 1486369435.55389 | 3/1B466B0                |           12913501872

 2017-02-06 09:23:56.645514+01 | 1486369436.64551 | 3/1B466B0                |           12913501872

 2017-02-06 09:23:57.740105+01 | 1486369437.7401 | 3/1B466B0                |           12913501872

 2017-02-06 09:23:58.826184+01 | 1486369438.82618 | 3/1B466B0                |           12913501872

 2017-02-06 09:23:59.912009+01 | 1486369439.91201 | 3/1B466B0                |           12913501872

 2017-02-06 09:24:00.999969+01 | 1486369440.99997 | 3/1B466B0                |           12913501872

 2017-02-06 09:24:02.093373+01 | 1486369442.09337 | 3/1B466B0                |           12913501872

 2017-02-06 09:24:03.187108+01 | 1486369443.18711 | 3/1B466B0                |           12913501872

 2017-02-06 09:24:04.284701+01 | 1486369444.2847 | 3/1B466B0                |           12913501872

 2017-02-06 09:24:05.374178+01 | 1486369445.37418 | 3/1B466B0                |           12913501872

 2017-02-06 09:24:06.460445+01 | 1486369446.46044 | 3/1B466B0                |           12913501872

 2017-02-06 09:24:07.555957+01 | 1486369447.55596 | 3/1B466B0                |           12913501872

 2017-02-06 09:24:08.650994+01 | 1486369448.65099 | 3/1B466B0                |           12913501872

 2017-02-06 09:24:09.755613+01 | 1486369449.75561 | 3/1B466B0                |           12913501872

 2017-02-06 09:24:10.852476+01 | 1486369450.85248 | 3/1B466B0                |           12913501872

 2017-02-06 09:24:11.937988+01 | 1486369451.93799 | 3/1B466B0                |           12913501872

 2017-02-06 09:24:13.028702+01 | 1486369453.0287 | 3/1B466B0                |           12913501872

 2017-02-06 09:24:14.120003+01 | 1486369454.12 | 3/1B466B0                |           12913501872

 2017-02-06 09:24:15.209549+01 | 1486369455.20955 | 3/1B466B0                |           12913501872

 2017-02-06 09:24:16.310046+01 | 1486369456.31005 | 3/1B466B0                |           12913501872

 2017-02-06 09:24:17.403003+01 | 1486369457.403 | 3/1B466B0                |           12913501872

 2017-02-06 09:24:18.489201+01 | 1486369458.4892 | 3/1B466B0                |           12913501872

 2017-02-06 09:24:19.572791+01 | 1486369459.57279 | 3/1B466B0                |           12913501872

 2017-02-06 09:24:20.658602+01 | 1486369460.6586 | 3/1B466B0                |           12913501872

 2017-02-06 09:24:21.757808+01 | 1486369461.75781 | 3/1B466B0                |           12913501872

 2017-02-06 09:24:22.850155+01 | 1486369462.85016 | 3/1B466B0                |           12913501872

 2017-02-06 09:24:23.943174+01 | 1486369463.94317 | 3/1B466B0                |           12913501872

 2017-02-06 09:24:25.038368+01 | 1486369465.03837 | 3/1B466B0                |           12913501872

 2017-02-06 09:24:26.126572+01 | 1486369466.12657 | 3/1B466B0                |           12913501872

 2017-02-06 09:24:27.210428+01 | 1486369467.21043 | 3/1B466B0                |           12913501872

 2017-02-06 09:24:28.307635+01 | 1486369468.30764 | 3/1B466B0                |           12913501872

 2017-02-06 09:24:29.40411+01 | 1486369469.40411 | 3/1B466B0                |           12913501872

 2017-02-06 09:24:30.500672+01 | 1486369470.50067 | 3/1B466B0                |           12913501872

 2017-02-06 09:24:31.593471+01 | 1486369471.59347 | 3/1B466B0                |           12913501872

 2017-02-06 09:24:32.683989+01 | 1486369472.68399 | 3/1B466B0                |           12913501872

 2017-02-06 09:24:33.783174+01 | 1486369473.78317 | 3/1B466B0                |           12913501872

 2017-02-06 09:24:34.876045+01 | 1486369474.87604 | 3/1B466B0                |           12913501872

 2017-02-06 09:24:35.969887+01 | 1486369475.96989 | 3/1B466B0                |           12913501872

 2017-02-06 09:24:37.059116+01 | 1486369477.05912 | 3/1B466B0                |           12913501872

 2017-02-06 09:24:38.154255+01 | 1486369478.15425 | 3/1B466B0                |           12913501872

 2017-02-06 09:24:39.252142+01 | 1486369479.25214 | 3/1B466B0                |           12913501872

 2017-02-06 09:24:40.340905+01 | 1486369480.3409 | 3/1B466B0                |           12913501872

 2017-02-06 09:24:41.439401+01 | 1486369481.4394 | 3/1B466B0                |           12913501872

 2017-02-06 09:24:42.534077+01 | 1486369482.53408 | 3/1B466B0                |           12913501872

 2017-02-06 09:24:43.629633+01 | 1486369483.62963 | 3/1B466B0                |           12913501872

 2017-02-06 09:24:44.713313+01 | 1486369484.71331 | 3/1B466B0                |           12913501872

 2017-02-06 09:24:45.806462+01 | 1486369485.80646 | 3/1B466B0                |           12913501872

 2017-02-06 09:24:46.895158+01 | 1486369486.89516 | 3/1B466B0                |           12913501872

 2017-02-06 09:24:47.990749+01 | 1486369487.99075 | 3/1B466B0                |           12913501872

 2017-02-06 09:24:49.082968+01 | 1486369489.08297 | 3/1B466B0                |           12913501872

 2017-02-06 09:24:50.171337+01 | 1486369490.17134 | 3/1B466B0                |           12913501872

 2017-02-06 09:24:51.26596+01 | 1486369491.26596 | 3/1B466B0                |           12913501872

 2017-02-06 09:24:52.358034+01 | 1486369492.35803 | 3/1B466B0                |           12913501872

 2017-02-06 09:24:53.453822+01 | 1486369493.45382 | 3/1B466B0                |           12913501872

 2017-02-06 09:24:54.546334+01 | 1486369494.54633 | 3/1B466B0                |           12913501872

 2017-02-06 09:24:55.64013+01 | 1486369495.64013 | 3/1B466B0                |           12913501872

 2017-02-06 09:24:56.727855+01 | 1486369496.72785 | 3/1B466B0                |           12913501872

 2017-02-06 09:24:57.820851+01 | 1486369497.82085 | 3/1B466B0                |           12913501872

 2017-02-06 09:24:58.910209+01 | 1486369498.91021 | 3/1B466B0                |           12913501872

 2017-02-06 09:25:00.00641+01 | 1486369500.00641 | 3/1B466B0                |           12913501872

 2017-02-06 09:25:01.10651+01 | 1486369501.10651 | 3/1B466B0                |           12913501872

 2017-02-06 09:25:02.198571+01 | 1486369502.19857 | 3/1B466B0                |           12913501872

 2017-02-06 09:25:03.293545+01 | 1486369503.29355 | 3/1B466B0                |           12913501872

 2017-02-06 09:25:04.396824+01 | 1486369504.39682 | 3/1B466B0                |           12913501872

 2017-02-06 09:25:05.484892+01 | 1486369505.48489 | 3/1B466B0                |           12913501872

 2017-02-06 09:25:06.577708+01 | 1486369506.57771 | 3/1B466B0                |           12913501872

 2017-02-06 09:25:07.669986+01 | 1486369507.66999 | 3/1B466B0                |           12913501872

 2017-02-06 09:25:08.75808+01 | 1486369508.75808 | 3/1B466B0                |           12913501872

 2017-02-06 09:25:09.8455+01 | 1486369509.8455 | 3/1B466B0                |           12913501872

 2017-02-06 09:25:10.937632+01 | 1486369510.93763 | 3/1B466B0                |           12913501872

 2017-02-06 09:25:12.027281+01 | 1486369512.02728 | 3/1B466B0                |           12913501872

 2017-02-06 09:25:13.118317+01 | 1486369513.11832 | 3/1B466B0                |           12913501872

 2017-02-06 09:25:14.214859+01 | 1486369514.21486 | 3/1B466B0                |           12913501872

 2017-02-06 09:25:15.308653+01 | 1486369515.30865 | 3/1B466B0                |           12913501872

 2017-02-06 09:25:16.400095+01 | 1486369516.40009 | 3/1B466B0                |           12913501872

 2017-02-06 09:25:17.487075+01 | 1486369517.48708 | 3/1B466B0                |           12913501872

 2017-02-06 09:25:18.585032+01 | 1486369518.58503 | 3/1B466B0                |           12913501872

 2017-02-06 09:25:19.682265+01 | 1486369519.68227 | 3/1B466B0                |           12913501872

 2017-02-06 09:25:20.774302+01 | 1486369520.7743 | 3/1B466B0                |           12913501872

 2017-02-06 09:25:21.870677+01 | 1486369521.87068 | 3/1B466B0                |           12913501872

 2017-02-06 09:25:22.959876+01 | 1486369522.95988 | 3/1B466B0                |           12913501872

 2017-02-06 09:25:24.057685+01 | 1486369524.05768 | 3/1B466B0                |           12913501872

 2017-02-06 09:25:25.150216+01 | 1486369525.15022 | 3/1B466B0                |           12913501872

 2017-02-06 09:25:26.247067+01 | 1486369526.24707 | 3/1B466B0                |           12913501872

 2017-02-06 09:25:27.338373+01 | 1486369527.33837 | 3/1B466B0                |           12913501872

 2017-02-06 09:25:28.430482+01 | 1486369528.43048 | 3/1B466B0                |           12913501872

 2017-02-06 09:25:29.527275+01 | 1486369529.52728 | 3/1B466B0                |           12913501872

 2017-02-06 09:25:30.618641+01 | 1486369530.61864 | 3/1B466B0                |           12913501872

 2017-02-06 09:25:31.712762+01 | 1486369531.71276 | 3/1B466B0                |           12913501872

 2017-02-06 09:25:32.80255+01 | 1486369532.80255 | 3/1B466B0                |           12913501872

 2017-02-06 09:25:33.899877+01 | 1486369533.89988 | 3/1B466B0                |           12913501872

 2017-02-06 09:25:34.996961+01 | 1486369534.99696 | 3/1B466B0                |           12913501872

 2017-02-06 09:25:36.077644+01 | 1486369536.07764 | 3/1B466B0                |           12913501872

 2017-02-06 09:25:37.158953+01 | 1486369537.15895 | 3/1B466B0                |           12913501872

 2017-02-06 09:25:38.254342+01 | 1486369538.25434 | 3/1B466B0                |           12913501872

 2017-02-06 09:25:39.351189+01 | 1486369539.35119 | 3/1B466B0                |           12913501872

 2017-02-06 09:25:40.445449+01 | 1486369540.44545 | 3/1B466B0                |           12913501872

 2017-02-06 09:25:41.540043+01 | 1486369541.54004 | 3/1B466B0                |           12913501872

 2017-02-06 09:25:42.640624+01 | 1486369542.64062 | 3/1B466B0                |           12913501872

 2017-02-06 09:25:43.727052+01 | 1486369543.72705 | 3/1B466B0                |           12913501872

 2017-02-06 09:25:44.820289+01 | 1486369544.82029 | 3/1B466B0                |           12913501872

 2017-02-06 09:25:45.912884+01 | 1486369545.91288 | 3/1B466B0                |           12913501872

 2017-02-06 09:25:47.005279+01 | 1486369547.00528 | 3/1B466B0                |           12913501872

 2017-02-06 09:25:48.099778+01 | 1486369548.09978 | 3/1B466B0                |           12913501872

 2017-02-06 09:25:49.192497+01 | 1486369549.1925 | 3/1B466B0                |           12913501872

 2017-02-06 09:25:50.286648+01 | 1486369550.28665 | 3/1B466B0                |           12913501872

 2017-02-06 09:25:51.385095+01 | 1486369551.38509 | 3/1B466B0                |           12913501872

 2017-02-06 09:25:52.474192+01 | 1486369552.47419 | 3/1B466B0                |           12913501872

 2017-02-06 09:25:53.565766+01 | 1486369553.56577 | 3/1B466B0                |           12913501872

 2017-02-06 09:25:54.664985+01 | 1486369554.66498 | 3/1B466B0                |           12913501872

 2017-02-06 09:25:55.764193+01 | 1486369555.76419 | 3/1B466B0                |           12913501872

 2017-02-06 09:25:56.855333+01 | 1486369556.85533 | 3/1B466B0                |           12913501872

 2017-02-06 09:25:57.952259+01 | 1486369557.95226 | 3/1B466B0                |           12913501872

 2017-02-06 09:25:59.043756+01 | 1486369559.04376 | 3/1B466B0                |           12913501872

 2017-02-06 09:26:00.135224+01 | 1486369560.13522 | 3/1B466B0                |           12913501872

 2017-02-06 09:26:01.23468+01 | 1486369561.23468 | 3/1B466B0                |           12913501872

 2017-02-06 09:26:02.324165+01 | 1486369562.32417 | 3/1B466B0                |           12913501872

 2017-02-06 09:26:03.4195+01 | 1486369563.4195 | 3/1B466B0                |           12913501872

 2017-02-06 09:26:04.512329+01 | 1486369564.51233 | 3/1B466B0                |           12913501872

 2017-02-06 09:26:05.611784+01 | 1486369565.61178 | 3/1B466B0                |           12913501872

 2017-02-06 09:26:06.712675+01 | 1486369566.71268 | 3/1B466B0                |           12913501872

 2017-02-06 09:26:07.80362+01 | 1486369567.80362 | 3/1B466B0                |           12913501872

 2017-02-06 09:26:08.90492+01 | 1486369568.90492 | 3/1B466B0                |           12913501872

 2017-02-06 09:26:10.006909+01 | 1486369570.00691 | 3/1B466B0                |           12913501872

 2017-02-06 09:26:11.086152+01 | 1486369571.08615 | 3/1B466B0                |           12913501872

 2017-02-06 09:26:12.174099+01 | 1486369572.1741 | 3/1B466B0                |           12913501872

 2017-02-06 09:26:13.270682+01 | 1486369573.27068 | 3/1B466B0                |           12913501872

 2017-02-06 09:26:14.356346+01 | 1486369574.35635 | 3/1B466B0                |           12913501872

 2017-02-06 09:26:15.449651+01 | 1486369575.44965 | 3/1B466B0                |           12913501872

 2017-02-06 09:26:16.547175+01 | 1486369576.54717 | 3/1B466B0                |           12913501872

 2017-02-06 09:26:17.642231+01 | 1486369577.64223 | 3/1B466B0                |           12913501872

 2017-02-06 09:26:18.727417+01 | 1486369578.72742 | 3/1B466B0                |           12913501872

 2017-02-06 09:26:19.825894+01 | 1486369579.82589 | 3/1B466B0                |           12913501872

 2017-02-06 09:26:20.912903+01 | 1486369580.9129 | 3/1B466B0                |           12913501872

 2017-02-06 09:26:22.001942+01 | 1486369582.00194 | 3/1B466B0                |           12913501872

 2017-02-06 09:26:23.096491+01 | 1486369583.09649 | 3/1B466B0                |           12913501872

 2017-02-06 09:26:24.186134+01 | 1486369584.18613 | 3/1B466B0                |           12913501872

 2017-02-06 09:26:25.277529+01 | 1486369585.27753 | 3/1B466B0                |           12913501872

 2017-02-06 09:26:26.387092+01 | 1486369586.38709 | 3/1B466B0                |           12913501872

 2017-02-06 09:26:27.473916+01 | 1486369587.47392 | 3/1B466B0                |           12913501872

 2017-02-06 09:26:28.563728+01 | 1486369588.56373 | 3/1B466B0                |           12913501872

 2017-02-06 09:26:29.659638+01 | 1486369589.65964 | 3/1B466B0                |           12913501872

 2017-02-06 09:26:30.755488+01 | 1486369590.75549 | 3/1B466B0                |           12913501872

 2017-02-06 09:26:31.846232+01 | 1486369591.84623 | 3/1B466B0                |           12913501872

 2017-02-06 09:26:32.946127+01 | 1486369592.94613 | 3/1B466B0                |           12913501872

 2017-02-06 09:26:34.040222+01 | 1486369594.04022 | 3/1B466B0                |           12913501872

 2017-02-06 09:26:35.141755+01 | 1486369595.14176 | 3/1B466B0                |           12913501872

 2017-02-06 09:26:36.234982+01 | 1486369596.23498 | 3/1B466B0                |           12913501872

 2017-02-06 09:26:37.326519+01 | 1486369597.32652 | 3/1B466B0                |           12913501872

 2017-02-06 09:26:38.422616+01 | 1486369598.42262 | 3/1B466B0                |           12913501872

 2017-02-06 09:26:39.516522+01 | 1486369599.51652 | 3/1B466B0                |           12913501872

 2017-02-06 09:26:40.612085+01 | 1486369600.61209 | 3/1B466B0                |           12913501872

 2017-02-06 09:26:41.704343+01 | 1486369601.70434 | 3/1B466B0                |           12913501872

 2017-02-06 09:26:42.794361+01 | 1486369602.79436 | 3/1B466B0                |           12913501872

 2017-02-06 09:26:43.886082+01 | 1486369603.88608 | 3/1B466B0                |           12913501872

 2017-02-06 09:26:44.973468+01 | 1486369604.97347 | 3/1B466B0                |           12913501872

