 2017-02-05 13:38:45.829769+01 | 1486298325.82977 | 1E/556B5EA0              |          130282118816

 2017-02-05 13:38:46.926208+01 | 1486298326.92621 | 1E/67064638              |          130577483320

 2017-02-05 13:38:48.008215+01 | 1486298328.00821 | 1E/7A333238              |          130899194424

 2017-02-05 13:38:49.096212+01 | 1486298329.09621 | 1E/8BB47970              |          131192879472

 2017-02-05 13:38:50.17836+01 | 1486298330.17836 | 1E/9C80EA10              |          131474713104

 2017-02-05 13:38:51.262245+01 | 1486298331.26224 | 1E/AB7EC790              |          131726231440

 2017-02-05 13:38:52.342528+01 | 1486298332.34253 | 1E/B92AB938              |          131955603768

 2017-02-05 13:38:53.419382+01 | 1486298333.41938 | 1E/C567CF58              |          132160933720

 2017-02-05 13:38:54.498408+01 | 1486298334.49841 | 1E/D04C9F98              |          132343701400

 2017-02-05 13:38:55.581651+01 | 1486298335.58165 | 1E/DBB4F598              |          132535088536

 2017-02-05 13:38:56.660876+01 | 1486298336.66088 | 1E/E49A0928              |          132684319016

 2017-02-05 13:38:57.736166+01 | 1486298337.73617 | 1E/EE9FB898              |          132852463768

 2017-02-05 13:38:58.814093+01 | 1486298338.81409 | 1E/F7979D38              |          133002927416

 2017-02-05 13:38:59.895097+01 | 1486298339.8951 | 1F/BC63D0                |          133156332496

 2017-02-05 13:39:00.974588+01 | 1486298340.97459 | 1F/9E3ACB8               |          133309902008

 2017-02-05 13:39:02.051943+01 | 1486298342.05194 | 1F/125C8EE8              |          133452041960

 2017-02-05 13:39:03.132368+01 | 1486298343.13237 | 1F/1A8F9948              |          133589604680

 2017-02-05 13:39:04.20518+01 | 1486298344.20518 | 1F/2267AA70              |          133721205360

 2017-02-05 13:39:05.287198+01 | 1486298345.2872 | 1F/2A063050              |          133849034832

 2017-02-05 13:39:06.366886+01 | 1486298346.36689 | 1F/3143C9A8              |          133970512296

 2017-02-05 13:39:07.450303+01 | 1486298347.4503 | 1F/38262FE0              |          134086012896

 2017-02-05 13:39:08.526365+01 | 1486298348.52637 | 1F/3E24A810              |          134186575888

 2017-02-05 13:39:09.603174+01 | 1486298349.60317 | 1F/4491C4B0              |          134294389936

 2017-02-05 13:39:10.683374+01 | 1486298350.68337 | 1F/4A72C118              |          134393020696

 2017-02-05 13:39:11.759433+01 | 1486298351.75943 | 1F/50442500              |          134490629376

 2017-02-05 13:39:12.836834+01 | 1486298352.83683 | 1F/561B0F00              |          134588600064

 2017-02-05 13:39:13.9027+01 | 1486298353.9027 | 1F/5B6B5378              |          134677746552

 2017-02-05 13:39:14.976319+01 | 1486298354.97632 | 1F/60E52E78              |          134769618552

 2017-02-05 13:39:16.050965+01 | 1486298356.05097 | 1F/66483FA8              |          134859997096

 2017-02-05 13:39:17.130036+01 | 1486298357.13004 | 1F/6B7F0A70              |          134947474032

 2017-02-05 13:39:18.208138+01 | 1486298358.20814 | 1F/70956370              |          135032824688

 2017-02-05 13:39:19.283101+01 | 1486298359.2831 | 1F/74FC2920              |          135106668832

 2017-02-05 13:39:20.366399+01 | 1486298360.3664 | 1F/79D612E8              |          135188058856

 2017-02-05 13:39:21.442432+01 | 1486298361.44243 | 1F/7E80B068              |          135266349160

 2017-02-05 13:39:22.516382+01 | 1486298362.51638 | 1F/831E9A30              |          135343807024

 2017-02-05 13:39:23.593938+01 | 1486298363.59394 | 1F/87A37800              |          135419623424

 2017-02-05 13:39:24.665109+01 | 1486298364.66511 | 1F/8BF15938              |          135491836216

 2017-02-05 13:39:25.747397+01 | 1486298365.7474 | 1F/9070DCA8              |          135567301800

 2017-02-05 13:39:26.824405+01 | 1486298366.8244 | 1F/948A3680              |          135636072064

 2017-02-05 13:39:27.911471+01 | 1486298367.91147 | 1F/9835C700              |          135697647360

 2017-02-05 13:39:28.992935+01 | 1486298368.99293 | 1F/9BFBCA90              |          135760956048

 2017-02-05 13:39:30.064786+01 | 1486298370.06479 | 1F/9F2C1E70              |          135814454896

 2017-02-05 13:39:31.139992+01 | 1486298371.13999 | 1F/A2CC7E58              |          135875296856

 2017-02-05 13:39:32.217806+01 | 1486298372.21781 | 1F/A6753F68              |          135936687976

 2017-02-05 13:39:33.296121+01 | 1486298373.29612 | 1F/AA1F6768              |          135998170984

 2017-02-05 13:39:34.370531+01 | 1486298374.37053 | 1F/AE1D1390              |          136065127312

 2017-02-05 13:39:35.44513+01 | 1486298375.44513 | 1F/B1BE63F8              |          136126030840

 2017-02-05 13:39:36.525948+01 | 1486298376.52595 | 1F/B5A55978              |          136191498616

 2017-02-05 13:39:37.603991+01 | 1486298377.60399 | 1F/B985A740              |          136256530240

 2017-02-05 13:39:38.684143+01 | 1486298378.68414 | 1F/BD4DEDC0              |          136319987136

 2017-02-05 13:39:39.762621+01 | 1486298379.76262 | 1F/C0A89DB0              |          136376262064

 2017-02-05 13:39:40.837389+01 | 1486298380.83739 | 1F/C44DFBB0              |          136437431216

 2017-02-05 13:39:41.913155+01 | 1486298381.91316 | 1F/C77D4458              |          136490861656

 2017-02-05 13:39:42.989938+01 | 1486298382.98994 | 1F/CAF937D0              |          136549316560

 2017-02-05 13:39:44.06885+01 | 1486298384.06885 | 1F/CE8E5040              |          136609419328

 2017-02-05 13:39:45.149873+01 | 1486298385.14987 | 1F/D1FB7A38              |          136666905144

 2017-02-05 13:39:46.227233+01 | 1486298386.22723 | 1F/D55E3D60              |          136723709280

 2017-02-05 13:39:47.30149+01 | 1486298387.30149 | 1F/D8DF0EF8              |          136782483192

 2017-02-05 13:39:48.375625+01 | 1486298388.37562 | 1F/DC481CB0              |          136839699632

 2017-02-05 13:39:49.452934+01 | 1486298389.45293 | 1F/DF57F248              |          136891069000

 2017-02-05 13:39:50.526241+01 | 1486298390.52624 | 1F/E2779880              |          136943474816

 2017-02-05 13:39:51.600825+01 | 1486298391.60083 | 1F/E5B72C38              |          136997973048

 2017-02-05 13:39:52.679451+01 | 1486298392.67945 | 1F/E8E82BC0              |          137051515840

 2017-02-05 13:39:53.755957+01 | 1486298393.75596 | 1F/EC27BF68              |          137106014056

 2017-02-05 13:39:54.831638+01 | 1486298394.83164 | 1F/EF556B78              |          137159338872

 2017-02-05 13:39:55.90857+01 | 1486298395.90857 | 1F/F28EDAF8              |          137213434616

 2017-02-05 13:39:56.9888+01 | 1486298396.9888 | 1F/F5BC1A68              |          137266731624

 2017-02-05 13:39:58.068902+01 | 1486298398.0689 | 1F/F8E053C8              |          137319437256

 2017-02-05 13:39:59.141669+01 | 1486298399.14167 | 1F/FBA93F58              |          137366159192

 2017-02-05 13:40:00.216371+01 | 1486298400.21637 | 1F/FEC0B250              |          137418027600

 2017-02-05 13:40:01.299082+01 | 1486298401.29908 | 20/1BD78D8               |          137468147928

 2017-02-05 13:40:02.378643+01 | 1486298402.37864 | 20/474D630               |          137513719344

 2017-02-05 13:40:03.445039+01 | 1486298403.44504 | 20/6EA6AD0               |          137554979536

 2017-02-05 13:40:04.519168+01 | 1486298404.51917 | 20/9057E10               |          137590308368

 2017-02-05 13:40:05.59769+01 | 1486298405.59769 | 20/B1B0C58               |          137625275480

 2017-02-05 13:40:06.676332+01 | 1486298406.67633 | 20/D330C68               |          137660402792

 2017-02-05 13:40:07.754487+01 | 1486298407.75449 | 20/F365378               |          137694172024

 2017-02-05 13:40:08.836757+01 | 1486298408.83676 | 20/112DBF18              |          137727164184

 2017-02-05 13:40:09.914554+01 | 1486298409.91455 | 20/1322AA28              |          137759992360

 2017-02-05 13:40:10.991311+01 | 1486298410.99131 | 20/151F0000              |          137793306624

 2017-02-05 13:40:12.067491+01 | 1486298412.06749 | 20/17169F90              |          137826312080

 2017-02-05 13:40:13.138549+01 | 1486298413.13855 | 20/191963B8              |          137860047800

 2017-02-05 13:40:14.220181+01 | 1486298414.22018 | 20/1B27FD18              |          137894559000

 2017-02-05 13:40:15.290155+01 | 1486298415.29015 | 20/1D0EF600              |          137926473216

 2017-02-05 13:40:16.365524+01 | 1486298416.36552 | 20/1F06CB68              |          137959492456

 2017-02-05 13:40:17.440227+01 | 1486298417.44023 | 20/20E91D10              |          137991101712

 2017-02-05 13:40:18.513887+01 | 1486298418.51389 | 20/22B23A88              |          138021059208

 2017-02-05 13:40:19.590278+01 | 1486298419.59028 | 20/24647FE0              |          138049519584

 2017-02-05 13:40:20.665767+01 | 1486298420.66577 | 20/26109A78              |          138077575800

 2017-02-05 13:40:21.740951+01 | 1486298421.74095 | 20/27D78790              |          138107389840

 2017-02-05 13:40:22.821019+01 | 1486298422.82102 | 20/29CAE838              |          138140117048

 2017-02-05 13:40:23.899222+01 | 1486298423.89922 | 20/2BC73178              |          138173428088

 2017-02-05 13:40:24.977415+01 | 1486298424.97742 | 20/2DB45340              |          138205745984

 2017-02-05 13:40:26.052993+01 | 1486298426.05299 | 20/2F80B960              |          138235918688

 2017-02-05 13:40:27.13036+01 | 1486298427.13036 | 20/315F3FD8              |          138267279320

 2017-02-05 13:40:28.203323+01 | 1486298428.20332 | 20/338FF390              |          138304025488

 2017-02-05 13:40:29.279545+01 | 1486298429.27955 | 20/364D8EE8              |          138350005992

 2017-02-05 13:40:30.356366+01 | 1486298430.35637 | 20/39B756C0              |          138407270080

 2017-02-05 13:40:31.433194+01 | 1486298431.43319 | 20/3D6C6AC0              |          138469468864

 2017-02-05 13:40:32.506664+01 | 1486298432.50666 | 20/410EC5E8              |          138530440680

 2017-02-05 13:40:33.576886+01 | 1486298433.57689 | 20/430647D8              |          138563438552

 2017-02-05 13:40:34.658975+01 | 1486298434.65897 | 20/44E08F08              |          138594520840

 2017-02-05 13:40:35.736595+01 | 1486298435.73659 | 20/46B9C738              |          138625533752

 2017-02-05 13:40:36.810203+01 | 1486298436.8102 | 20/489094A8              |          138656388264

 2017-02-05 13:40:37.885074+01 | 1486298437.88507 | 20/4A6D4AE8              |          138687630056

 2017-02-05 13:40:38.962433+01 | 1486298438.96243 | 20/4C452930              |          138718554416

 2017-02-05 13:40:40.034733+01 | 1486298440.03473 | 20/4E18CDD8              |          138749201880

 2017-02-05 13:40:41.114235+01 | 1486298441.11423 | 20/4FE3FE18              |          138779295256

 2017-02-05 13:40:42.18981+01 | 1486298442.18981 | 20/51C62768              |          138810894184

 2017-02-05 13:40:43.26663+01 | 1486298443.26663 | 20/539F5470              |          138841904240

 2017-02-05 13:40:44.340669+01 | 1486298444.34067 | 20/55323288              |          138868306568

 2017-02-05 13:40:45.413725+01 | 1486298445.41372 | 20/56B9BDB8              |          138893966776

 2017-02-05 13:40:46.488943+01 | 1486298446.48894 | 20/582A4630              |          138918118960

 2017-02-05 13:40:47.565895+01 | 1486298447.5659 | 20/59995FD8              |          138942177240

 2017-02-05 13:40:48.642618+01 | 1486298448.64262 | 20/5B06E200              |          138966131200

 2017-02-05 13:40:49.719337+01 | 1486298449.71934 | 20/5C759090              |          138990162064

 2017-02-05 13:40:50.789529+01 | 1486298450.78953 | 20/5DD6D2A0              |          139013313184

 2017-02-05 13:40:51.866246+01 | 1486298451.86625 | 20/5F42D150              |          139037167952

 2017-02-05 13:40:52.948198+01 | 1486298452.9482 | 20/60E8C1C0              |          139064820160

 2017-02-05 13:40:54.025987+01 | 1486298454.02599 | 20/62A71AB8              |          139094071992

 2017-02-05 13:40:55.101193+01 | 1486298455.10119 | 20/644E22E8              |          139121795816

 2017-02-05 13:40:56.176074+01 | 1486298456.17607 | 20/66073E10              |          139150704144

 2017-02-05 13:40:57.251641+01 | 1486298457.25164 | 20/67B9AA48              |          139179174472

 2017-02-05 13:40:58.327383+01 | 1486298458.32738 | 20/69548950              |          139206101328

 2017-02-05 13:40:59.401755+01 | 1486298459.40176 | 20/6AEDAD88              |          139232914824

 2017-02-05 13:41:00.483181+01 | 1486298460.48318 | 20/6C6F3B38              |          139258182456

 2017-02-05 13:41:01.559514+01 | 1486298461.55951 | 20/6E181BE0              |          139286027232

 2017-02-05 13:41:02.636783+01 | 1486298462.63678 | 20/6FB89978              |          139313322360

 2017-02-05 13:41:03.716823+01 | 1486298463.71682 | 20/714E17F0              |          139339896816

 2017-02-05 13:41:04.794052+01 | 1486298464.79405 | 20/72DFE7D0              |          139366229968

 2017-02-05 13:41:05.874566+01 | 1486298465.87457 | 20/748D0D40              |          139394354496

 2017-02-05 13:41:06.951172+01 | 1486298466.95117 | 20/761A6D98              |          139420396952

 2017-02-05 13:41:08.030647+01 | 1486298468.03065 | 20/77991520              |          139445474592

 2017-02-05 13:41:09.104859+01 | 1486298469.10486 | 20/790424C8              |          139469268168

 2017-02-05 13:41:10.184903+01 | 1486298470.1849 | 20/7A8284B8              |          139494327480

 2017-02-05 13:41:11.256495+01 | 1486298471.25649 | 20/7C0D5930              |          139520203056

 2017-02-05 13:41:12.333725+01 | 1486298472.33372 | 20/7D839AD8              |          139544730328

 2017-02-05 13:41:13.408166+01 | 1486298473.40817 | 20/7F16C088              |          139571150984

 2017-02-05 13:41:14.484431+01 | 1486298474.48443 | 20/809BE180              |          139596652928

 2017-02-05 13:41:15.563303+01 | 1486298475.5633 | 20/8227D1A8              |          139622601128

 2017-02-05 13:41:16.640637+01 | 1486298476.64064 | 20/83B6C4F8              |          139648746744

 2017-02-05 13:41:17.717278+01 | 1486298477.71728 | 20/853C72C0              |          139674284736

 2017-02-05 13:41:18.792854+01 | 1486298478.79285 | 20/86C8B330              |          139700253488

 2017-02-05 13:41:19.869853+01 | 1486298479.86985 | 20/8850C600              |          139725948416

 2017-02-05 13:41:20.945758+01 | 1486298480.94576 | 20/89E0CCE0              |          139752164576

 2017-02-05 13:41:22.023324+01 | 1486298482.02332 | 20/8B62A870              |          139777452144

 2017-02-05 13:41:23.096367+01 | 1486298483.09637 | 20/8CCF3B10              |          139801344784

 2017-02-05 13:41:24.17119+01 | 1486298484.17119 | 20/8E500B58              |          139826563928

 2017-02-05 13:41:25.252313+01 | 1486298485.25231 | 20/8FD5DB50              |          139852110672

 2017-02-05 13:41:26.331963+01 | 1486298486.33196 | 20/914A4AE0              |          139876518624

 2017-02-05 13:41:27.41118+01 | 1486298487.41118 | 20/92C8E1A8              |          139901591976

 2017-02-05 13:41:28.482329+01 | 1486298488.48233 | 20/9467BA88              |          139928779400

 2017-02-05 13:41:29.562485+01 | 1486298489.56248 | 20/95DF4CE0              |          139953392864

 2017-02-05 13:41:30.638712+01 | 1486298490.63871 | 20/974C64B0              |          139977319600

 2017-02-05 13:41:31.712283+01 | 1486298491.71228 | 20/98D45428              |          140003005480

 2017-02-05 13:41:32.791747+01 | 1486298492.79175 | 20/9A56E590              |          140028339600

 2017-02-05 13:41:33.870472+01 | 1486298493.87047 | 20/9BE6FB08              |          140054559496

 2017-02-05 13:41:34.95007+01 | 1486298494.95007 | 20/9D8383A0              |          140081595296

 2017-02-05 13:41:36.0325+01 | 1486298496.0325 | 20/9F173C40              |          140108053568

 2017-02-05 13:41:37.109495+01 | 1486298497.10949 | 20/A0CD8108              |          140136775944

 2017-02-05 13:41:38.186812+01 | 1486298498.18681 | 20/A26CC868              |          140163991656

 2017-02-05 13:41:39.26862+01 | 1486298499.26862 | 20/A4106878              |          140191492216

 2017-02-05 13:41:40.336927+01 | 1486298500.33693 | 20/A5BA0848              |          140219385928

 2017-02-05 13:41:41.410102+01 | 1486298501.4101 | 20/A75F1A18              |          140246981144

 2017-02-05 13:41:42.484392+01 | 1486298502.48439 | 20/A900D980              |          140274358656

 2017-02-05 13:41:43.555575+01 | 1486298503.55557 | 20/AAAD8FA8              |          140302454696

 2017-02-05 13:41:44.634145+01 | 1486298504.63415 | 20/AC4515F8              |          140329162232

 2017-02-05 13:41:45.712528+01 | 1486298505.71253 | 20/ADF09E48              |          140357181000

 2017-02-05 13:41:46.788995+01 | 1486298506.789 | 20/AF9A2AE8              |          140385069800

 2017-02-05 13:41:47.861576+01 | 1486298507.86158 | 20/B13DFE18              |          140412583448

 2017-02-05 13:41:48.94088+01 | 1486298508.94088 | 20/B2E7A5E8              |          140440479208

 2017-02-05 13:41:50.021224+01 | 1486298510.02122 | 20/B4A2B3B8              |          140469515192

 2017-02-05 13:41:51.097615+01 | 1486298511.09762 | 20/B65925C8              |          140498249160

 2017-02-05 13:41:52.17714+01 | 1486298512.17714 | 20/B7F66D78              |          140525333880

 2017-02-05 13:41:53.252915+01 | 1486298513.25291 | 20/B9A47BF0              |          140553518064

 2017-02-05 13:41:54.332053+01 | 1486298514.33205 | 20/BB521DD8              |          140581674456

 2017-02-05 13:41:55.406136+01 | 1486298515.40614 | 20/BD06E158              |          140610298200

 2017-02-05 13:41:56.476981+01 | 1486298516.47698 | 20/BECEEFC0              |          140640186304

 2017-02-05 13:41:57.556024+01 | 1486298517.55602 | 20/C0BC5410              |          140672521232

 2017-02-05 13:41:58.635663+01 | 1486298518.63566 | 20/C2AB05B8              |          140704941496

 2017-02-05 13:41:59.715389+01 | 1486298519.71539 | 20/C482DC68              |          140735863912

 2017-02-05 13:42:00.800701+01 | 1486298520.8007 | 20/C6691BC8              |          140767730632

 2017-02-05 13:42:01.869625+01 | 1486298521.86963 | 20/C8219F68              |          140796600168

 2017-02-05 13:42:02.951039+01 | 1486298522.95104 | 20/C9FE9B58              |          140827859800

 2017-02-05 13:42:04.030726+01 | 1486298524.03073 | 20/CBD5B7E0              |          140858734560

 2017-02-05 13:42:05.112011+01 | 1486298525.11201 | 20/CDB894E0              |          140890379488

 2017-02-05 13:42:06.190543+01 | 1486298526.19054 | 20/CF901EB0              |          140921282224

 2017-02-05 13:42:07.269366+01 | 1486298527.26937 | 20/D16C49D0              |          140952488400

 2017-02-05 13:42:08.34358+01 | 1486298528.34358 | 20/D3580510              |          140984714512

 2017-02-05 13:42:09.417907+01 | 1486298529.41791 | 20/D52AC028              |          141015302184

 2017-02-05 13:42:10.49021+01 | 1486298530.49021 | 20/D6FFBFE0              |          141046038496

 2017-02-05 13:42:11.562614+01 | 1486298531.56261 | 20/D8E57A58              |          141077871192

 2017-02-05 13:42:12.645076+01 | 1486298532.64508 | 20/DAC17070              |          141109063792

 2017-02-05 13:42:13.722885+01 | 1486298533.72288 | 20/DC9F5360              |          141140382560

 2017-02-05 13:42:14.798865+01 | 1486298534.79887 | 20/DE731990              |          141171038608

 2017-02-05 13:42:15.875476+01 | 1486298535.87548 | 20/E0385890              |          141200742544

 2017-02-05 13:42:16.950568+01 | 1486298536.95057 | 20/E1DB2410              |          141228188688

 2017-02-05 13:42:18.026145+01 | 1486298538.02614 | 20/E3A8E570              |          141258450288

 2017-02-05 13:42:19.110513+01 | 1486298539.11051 | 20/E57C5600              |          141289084416

 2017-02-05 13:42:20.18569+01 | 1486298540.18569 | 20/E752FB48              |          141319928648

 2017-02-05 13:42:21.263579+01 | 1486298541.26358 | 20/E9249B70              |          141350443888

 2017-02-05 13:42:22.340163+01 | 1486298542.34016 | 20/EAE2D6A8              |          141379688104

 2017-02-05 13:42:23.414749+01 | 1486298543.41475 | 20/ECA8F708              |          141409449736

 2017-02-05 13:42:24.489977+01 | 1486298544.48998 | 20/EE7E59E0              |          141440211424

 2017-02-05 13:42:25.566002+01 | 1486298545.566 | 20/F04D0940              |          141470533952

 2017-02-05 13:42:26.642489+01 | 1486298546.64249 | 20/F1D7F630              |          141496415792

 2017-02-05 13:42:27.717795+01 | 1486298547.71779 | 20/F3801AB0              |          141524212400

 2017-02-05 13:42:28.793946+01 | 1486298548.79395 | 20/F51C4F30              |          141551226672

 2017-02-05 13:42:29.870014+01 | 1486298549.87001 | 20/F6DC3350              |          141580579664

 2017-02-05 13:42:30.946809+01 | 1486298550.94681 | 20/F8A4B090              |          141610496144

 2017-02-05 13:42:32.031922+01 | 1486298552.03192 | 20/FA59C8F8              |          141639141624

 2017-02-05 13:42:33.112095+01 | 1486298553.1121 | 20/FC1072B8              |          141667889848

 2017-02-05 13:42:34.188388+01 | 1486298554.18839 | 20/FDD5B2C8              |          141697594056

 2017-02-05 13:42:35.270713+01 | 1486298555.27071 | 20/FF6D8BA8              |          141724322728

 2017-02-05 13:42:36.348398+01 | 1486298556.3484 | 21/13D3868               |          141754710120

 2017-02-05 13:42:37.422683+01 | 1486298557.42268 | 21/30801C0               |          141784777152

 2017-02-05 13:42:38.503744+01 | 1486298558.50374 | 21/4CC3A98               |          141814413976

 2017-02-05 13:42:39.582976+01 | 1486298559.58298 | 21/67FA020               |          141842948128

 2017-02-05 13:42:40.658326+01 | 1486298560.65833 | 21/8434B18               |          141872548632

 2017-02-05 13:42:41.734551+01 | 1486298561.73455 | 21/9FE3CA8               |          141901577384

 2017-02-05 13:42:42.814388+01 | 1486298562.81439 | 21/BB79870               |          141930502256

 2017-02-05 13:42:43.891965+01 | 1486298563.89196 | 21/D6ED440               |          141959287872

 2017-02-05 13:42:44.971365+01 | 1486298564.97136 | 21/F359B28               |          141989092136

 2017-02-05 13:42:46.044893+01 | 1486298566.04489 | 21/10F76E70              |          142018571888

 2017-02-05 13:42:47.121803+01 | 1486298567.1218 | 21/12C181D8              |          142048592344

 2017-02-05 13:42:48.192106+01 | 1486298568.19211 | 21/1469ABF0              |          142076390384

 2017-02-05 13:42:49.272865+01 | 1486298569.27287 | 21/162254B8              |          142105269432

 2017-02-05 13:42:50.351651+01 | 1486298570.35165 | 21/17E878E8              |          142135032040

 2017-02-05 13:42:51.4319+01 | 1486298571.4319 | 21/198156F0              |          142161827568

 2017-02-05 13:42:52.506889+01 | 1486298572.50689 | 21/1B3B9AC0              |          142190811840

 2017-02-05 13:42:53.582293+01 | 1486298573.58229 | 21/1CED0EA8              |          142219218600

 2017-02-05 13:42:54.65518+01 | 1486298574.65518 | 21/1E8F7040              |          142246637632

 2017-02-05 13:42:55.73704+01 | 1486298575.73704 | 21/20387BE8              |          142274493416

 2017-02-05 13:42:56.815177+01 | 1486298576.81518 | 21/21E03C30              |          142302264368

 2017-02-05 13:42:57.89132+01 | 1486298577.89132 | 21/2395C640              |          142330938944

 2017-02-05 13:42:58.973383+01 | 1486298578.97338 | 21/25226508              |          142356931848

 2017-02-05 13:43:00.057645+01 | 1486298580.05765 | 21/26BEEF00              |          142383968000

 2017-02-05 13:43:01.141649+01 | 1486298581.14165 | 21/28310C00              |          142408223744

 2017-02-05 13:43:02.217346+01 | 1486298582.21735 | 21/29AB2E80              |          142433005184

 2017-02-05 13:43:03.294103+01 | 1486298583.2941 | 21/2B2001D8              |          142457438680

 2017-02-05 13:43:04.368613+01 | 1486298584.36861 | 21/2C8B19A0              |          142481234336

 2017-02-05 13:43:05.447736+01 | 1486298585.44774 | 21/2E05BE68              |          142506049128

 2017-02-05 13:43:06.523221+01 | 1486298586.52322 | 21/2F7F7A00              |          142530804224

 2017-02-05 13:43:07.600838+01 | 1486298587.60084 | 21/30C58878              |          142552172664

 2017-02-05 13:43:08.677532+01 | 1486298588.67753 | 21/3234CD40              |          142576241984

 2017-02-05 13:43:09.753222+01 | 1486298589.75322 | 21/33AAC6F0              |          142600750832

 2017-02-05 13:43:10.828529+01 | 1486298590.82853 | 21/351E9B80              |          142625119104

 2017-02-05 13:43:11.906874+01 | 1486298591.90687 | 21/368F7C28              |          142649293864

 2017-02-05 13:43:12.985599+01 | 1486298592.9856 | 21/37D24840              |          142670448704

 2017-02-05 13:43:14.063175+01 | 1486298594.06317 | 21/393C8938              |          142694189368

 2017-02-05 13:43:15.138425+01 | 1486298595.13843 | 21/3AA544D8              |          142717830360

 2017-02-05 13:43:16.218812+01 | 1486298596.21881 | 21/3C292070              |          142743249008

 2017-02-05 13:43:17.295759+01 | 1486298597.29576 | 21/3D928208              |          142766932488

 2017-02-05 13:43:18.369727+01 | 1486298598.36973 | 21/3EF117D8              |          142789908440

 2017-02-05 13:43:19.447768+01 | 1486298599.44777 | 21/402C5EE0              |          142810570464

 2017-02-05 13:43:20.525952+01 | 1486298600.52595 | 21/41A12528              |          142835000616

 2017-02-05 13:43:21.601627+01 | 1486298601.60163 | 21/4305F210              |          142858383888

 2017-02-05 13:43:22.680006+01 | 1486298602.68001 | 21/445281F8              |          142880178680

 2017-02-05 13:43:23.754669+01 | 1486298603.75467 | 21/459A4E70              |          142901661296

 2017-02-05 13:43:24.833108+01 | 1486298604.83311 | 21/46DECDB8              |          142922927544

 2017-02-05 13:43:25.91002+01 | 1486298605.91002 | 21/482AE188              |          142944690568

 2017-02-05 13:43:26.979999+01 | 1486298606.98 | 21/494E1728              |          142963775272

 2017-02-05 13:43:28.054327+01 | 1486298608.05433 | 21/4A780248              |          142983299656

 2017-02-05 13:43:29.130597+01 | 1486298609.1306 | 21/4BBF22F8              |          143004738296

 2017-02-05 13:43:30.203+01 | 1486298610.203 | 21/4D2DC648              |          143028766280

 2017-02-05 13:43:31.279415+01 | 1486298611.27941 | 21/4EA62550              |          143053432144

 2017-02-05 13:43:32.350903+01 | 1486298612.3509 | 21/4FFE4878              |          143075985528

 2017-02-05 13:43:33.429161+01 | 1486298613.42916 | 21/517033C0              |          143100228544

 2017-02-05 13:43:34.511453+01 | 1486298614.51145 | 21/52DF7CF0              |          143124298992

 2017-02-05 13:43:35.588243+01 | 1486298615.58824 | 21/5420BAA8              |          143145351848

 2017-02-05 13:43:36.664805+01 | 1486298616.6648 | 21/55988688              |          143169980040

 2017-02-05 13:43:37.744342+01 | 1486298617.74434 | 21/5719F188              |          143195238792

 2017-02-05 13:43:38.821566+01 | 1486298618.82157 | 21/58929FD0              |          143219924944

 2017-02-05 13:43:39.898808+01 | 1486298619.89881 | 21/5A03FAA0              |          143244130976

 2017-02-05 13:43:40.976582+01 | 1486298620.97658 | 21/5B66AFD0              |          143267377104

 2017-02-05 13:43:42.054924+01 | 1486298622.05492 | 21/5CAB1590              |          143288636816

 2017-02-05 13:43:43.131357+01 | 1486298623.13136 | 21/5DCCBA78              |          143307618936

 2017-02-05 13:43:44.204853+01 | 1486298624.20485 | 21/5F410C40              |          143332019264

 2017-02-05 13:43:45.281057+01 | 1486298625.28106 | 21/60B34508              |          143356282120

