 2017-02-04 04:20:51.770785+01 | 1486178451.77079 | F/BFA4B1C8               |           67639751112

 2017-02-04 04:20:52.855768+01 | 1486178452.85577 | F/CAC27D28               |           67826253096

 2017-02-04 04:20:53.939499+01 | 1486178453.9395 | F/D6A7A768               |           68025821032

 2017-02-04 04:20:55.032818+01 | 1486178455.03282 | F/E191F060               |           68208947296

 2017-02-04 04:20:56.12748+01 | 1486178456.12748 | F/ECA9D120               |           68395061536

 2017-02-04 04:20:57.218356+01 | 1486178457.21836 | F/F6C3DCA0               |           68564540576

 2017-02-04 04:20:58.300103+01 | 1486178458.3001 | F/FEB43170               |           68697731440

 2017-02-04 04:20:59.382877+01 | 1486178459.38288 | 10/5A68000               |           68814274560

 2017-02-04 04:21:00.472297+01 | 1486178460.4723 | 10/BB0C8D8               |           68915611864

 2017-02-04 04:21:01.559673+01 | 1486178461.55967 | 10/10EDD7B0              |           69003499440

 2017-02-04 04:21:02.647611+01 | 1486178462.64761 | 10/1552A350              |           69077214032

 2017-02-04 04:21:03.731276+01 | 1486178463.73128 | 10/18DE2988              |           69136689544

 2017-02-04 04:21:04.81244+01 | 1486178464.81244 | 10/1BF9CAE0              |           69188831968

 2017-02-04 04:21:05.892945+01 | 1486178465.89295 | 10/1EC24C78              |           69235526776

 2017-02-04 04:21:06.984871+01 | 1486178466.98487 | 10/21241E90              |           69275491984

 2017-02-04 04:21:08.069261+01 | 1486178468.06926 | 10/233DBD30              |           69310725424

 2017-02-04 04:21:09.166875+01 | 1486178469.16687 | 10/25232050              |           69342535760

 2017-02-04 04:21:10.255911+01 | 1486178470.25591 | 10/26E89B88              |           69372255112

 2017-02-04 04:21:11.343825+01 | 1486178471.34383 | 10/289E5190              |           69400940944

 2017-02-04 04:21:12.435053+01 | 1486178472.43505 | 10/2A4BD8F8              |           69429090552

 2017-02-04 04:21:13.531001+01 | 1486178473.531 | 10/2BF219B8              |           69456763320

 2017-02-04 04:21:14.620382+01 | 1486178474.62038 | 10/2D7B7320              |           69482541856

 2017-02-04 04:21:15.705862+01 | 1486178475.70586 | 10/2F022C68              |           69508148328

 2017-02-04 04:21:16.784697+01 | 1486178476.7847 | 10/307B35F0              |           69532857840

 2017-02-04 04:21:17.862762+01 | 1486178477.86276 | 10/31E72AB0              |           69556710064

 2017-02-04 04:21:18.9542+01 | 1486178478.9542 | 10/333E4AC8              |           69579197128

 2017-02-04 04:21:20.050399+01 | 1486178480.0504 | 10/34A77C68              |           69602868328

 2017-02-04 04:21:21.139566+01 | 1486178481.13957 | 10/3610BFC8              |           69626544072

 2017-02-04 04:21:22.230601+01 | 1486178482.2306 | 10/37737EE8              |           69649792744

 2017-02-04 04:21:23.327899+01 | 1486178483.3279 | 10/38D766F8              |           69673117432

 2017-02-04 04:21:24.421991+01 | 1486178484.42199 | 10/3A548B20              |           69698095904

 2017-02-04 04:21:25.516178+01 | 1486178485.51618 | 10/3BA64F68              |           69720231784

 2017-02-04 04:21:26.610115+01 | 1486178486.61012 | 10/3D0075C8              |           69742917064

 2017-02-04 04:21:27.700097+01 | 1486178487.7001 | 10/3E5E00A0              |           69765824672

 2017-02-04 04:21:28.776851+01 | 1486178488.77685 | 10/3FB65DF8              |           69788392952

 2017-02-04 04:21:29.86742+01 | 1486178489.86742 | 10/4102CE40              |           69810179648

 2017-02-04 04:21:30.950166+01 | 1486178490.95017 | 10/425C8C50              |           69832838224

 2017-02-04 04:21:32.036091+01 | 1486178492.03609 | 10/439838A8              |           69853526184

 2017-02-04 04:21:33.129019+01 | 1486178493.12902 | 10/459A5928              |           69887220008

 2017-02-04 04:21:34.218784+01 | 1486178494.21878 | 10/47531D88              |           69916106120

 2017-02-04 04:21:35.307491+01 | 1486178495.30749 | 10/49180140              |           69945786688

 2017-02-04 04:21:36.398902+01 | 1486178496.3989 | 10/4A8A1260              |           69970039392

 2017-02-04 04:21:37.487322+01 | 1486178497.48732 | 10/4BDFC4F8              |           69992432888

 2017-02-04 04:21:38.574039+01 | 1486178498.57404 | 10/4D2C66C8              |           70014232264

 2017-02-04 04:21:39.666337+01 | 1486178499.66634 | 10/4E7A05F0              |           70036096496

 2017-02-04 04:21:40.754199+01 | 1486178500.7542 | 10/4FBEDA58              |           70057384536

 2017-02-04 04:21:41.836609+01 | 1486178501.83661 | 10/50F351D8              |           70077600216

 2017-02-04 04:21:42.921663+01 | 1486178502.92166 | 10/522AD1D0              |           70098014672

 2017-02-04 04:21:44.013275+01 | 1486178504.01327 | 10/53506968              |           70117255528

 2017-02-04 04:21:45.098542+01 | 1486178505.09854 | 10/548BCCF8              |           70137924856

 2017-02-04 04:21:46.193007+01 | 1486178506.19301 | 10/55C5A550              |           70158493008

 2017-02-04 04:21:47.279411+01 | 1486178507.27941 | 10/56F86780              |           70178596736

 2017-02-04 04:21:48.366921+01 | 1486178508.36692 | 10/582F4570              |           70198969712

 2017-02-04 04:21:49.461143+01 | 1486178509.46114 | 10/596A1890              |           70219602064

 2017-02-04 04:21:50.554554+01 | 1486178510.55455 | 10/5AA83870              |           70240450672

 2017-02-04 04:21:51.640794+01 | 1486178511.64079 | 10/5BD51E28              |           70260170280

 2017-02-04 04:21:52.732875+01 | 1486178512.73288 | 10/5D10AC50              |           70280850512

 2017-02-04 04:21:53.819625+01 | 1486178513.81962 | 10/5E4B8FB0              |           70301487024

 2017-02-04 04:21:54.901974+01 | 1486178514.90197 | 10/5F8010F8              |           70321705208

 2017-02-04 04:21:55.979348+01 | 1486178515.97935 | 10/60B2D4D8              |           70341809368

 2017-02-04 04:21:57.062183+01 | 1486178517.06218 | 10/61E11890              |           70361618576

 2017-02-04 04:21:58.149923+01 | 1486178518.14992 | 10/63139FD8              |           70381707224

 2017-02-04 04:21:59.240957+01 | 1486178519.24096 | 10/64394AA0              |           70400952992

 2017-02-04 04:22:00.327165+01 | 1486178520.32716 | 10/656B6C08              |           70421015560

 2017-02-04 04:22:01.416708+01 | 1486178521.41671 | 10/66846750              |           70439429968

 2017-02-04 04:22:02.510487+01 | 1486178522.51049 | 10/67B35360              |           70459282272

 2017-02-04 04:22:03.597158+01 | 1486178523.59716 | 10/68E7F840              |           70479509568

 2017-02-04 04:22:04.687134+01 | 1486178524.68713 | 10/6A212E88              |           70500036232

 2017-02-04 04:22:05.772988+01 | 1486178525.77299 | 10/6B48F040              |           70519418944

 2017-02-04 04:22:06.852317+01 | 1486178526.85232 | 10/6C7859C8              |           70539303368

 2017-02-04 04:22:07.939293+01 | 1486178527.93929 | 10/6D9CAA00              |           70558460416

 2017-02-04 04:22:09.016694+01 | 1486178529.01669 | 10/6EC6FCA8              |           70578011304

 2017-02-04 04:22:10.097162+01 | 1486178530.09716 | 10/6FF370D8              |           70597701848

 2017-02-04 04:22:11.185236+01 | 1486178531.18524 | 10/7127BF58              |           70617907032

 2017-02-04 04:22:12.273576+01 | 1486178532.27358 | 10/724ABAE8              |           70636976872

 2017-02-04 04:22:13.369621+01 | 1486178533.36962 | 10/737A2F08              |           70656864008

 2017-02-04 04:22:14.457362+01 | 1486178534.45736 | 10/74A1B7C8              |           70676232136

 2017-02-04 04:22:15.549127+01 | 1486178535.54913 | 10/75D21CC0              |           70696180928

 2017-02-04 04:22:16.640194+01 | 1486178536.64019 | 10/76FF1F28              |           70715907880

 2017-02-04 04:22:17.722598+01 | 1486178537.7226 | 10/78200EC8              |           70734843592

 2017-02-04 04:22:18.804076+01 | 1486178538.80408 | 10/79470D18              |           70754176280

 2017-02-04 04:22:19.887291+01 | 1486178539.88729 | 10/7A66F518              |           70773044504

 2017-02-04 04:22:20.967253+01 | 1486178540.96725 | 10/7B909A08              |           70792550920

 2017-02-04 04:22:22.050212+01 | 1486178542.05021 | 10/7CB44248              |           70811664968

 2017-02-04 04:22:23.132623+01 | 1486178543.13262 | 10/7DD928B8              |           70830860472

 2017-02-04 04:22:24.21642+01 | 1486178544.21642 | 10/7F0BA0D8              |           70850945240

 2017-02-04 04:22:25.307296+01 | 1486178545.3073 | 10/80269BE0              |           70869490656

 2017-02-04 04:22:26.39346+01 | 1486178546.39346 | 10/81363E60              |           70887292512

 2017-02-04 04:22:27.485886+01 | 1486178547.48589 | 10/8246A1A8              |           70905143720

 2017-02-04 04:22:28.56718+01 | 1486178548.56718 | 10/8364CC48              |           70923897928

 2017-02-04 04:22:29.641128+01 | 1486178549.64113 | 10/8492F890              |           70943701136

 2017-02-04 04:22:30.734728+01 | 1486178550.73473 | 10/85C1F7F0              |           70963558384

 2017-02-04 04:22:31.818141+01 | 1486178551.81814 | 10/86C71218              |           70980669976

 2017-02-04 04:22:32.898961+01 | 1486178552.89896 | 10/87DB4A98              |           70998772376

 2017-02-04 04:22:33.979924+01 | 1486178553.97992 | 10/88F736C0              |           71017379520

 2017-02-04 04:22:35.05769+01 | 1486178555.05769 | 10/8A1086B0              |           71035815600

 2017-02-04 04:22:36.149357+01 | 1486178556.14936 | 10/8B1FB250              |           71053587024

 2017-02-04 04:22:37.240333+01 | 1486178557.24033 | 10/8C23EF10              |           71070641936

 2017-02-04 04:22:38.334395+01 | 1486178558.33439 | 10/8D2F1D08              |           71088151816

 2017-02-04 04:22:39.428898+01 | 1486178559.4289 | 10/8E5462B8              |           71107371704

 2017-02-04 04:22:40.518781+01 | 1486178560.51878 | 10/8F9AE488              |           71128769672

 2017-02-04 04:22:41.612378+01 | 1486178561.61238 | 10/90D03AF8              |           71149042424

 2017-02-04 04:22:42.7036+01 | 1486178562.7036 | 10/9201ABA8              |           71169059752

 2017-02-04 04:22:43.798855+01 | 1486178563.79886 | 10/9326D2D8              |           71188271832

 2017-02-04 04:22:44.884932+01 | 1486178564.88493 | 10/94582E70              |           71208283760

 2017-02-04 04:22:45.965829+01 | 1486178565.96583 | 10/9575ED00              |           71227010304

 2017-02-04 04:22:47.048751+01 | 1486178567.04875 | 10/969B9460              |           71246255200

 2017-02-04 04:22:48.133626+01 | 1486178568.13363 | 10/97BF33E8              |           71265367016

 2017-02-04 04:22:49.225512+01 | 1486178569.22551 | 10/98D768D8              |           71283730648

 2017-02-04 04:22:50.321242+01 | 1486178570.32124 | 10/99FA58B8              |           71302797496

 2017-02-04 04:22:51.410858+01 | 1486178571.41086 | 10/9B2ABB30              |           71322745648

 2017-02-04 04:22:52.492755+01 | 1486178572.49275 | 10/9C5767D8              |           71342450648

 2017-02-04 04:22:53.583222+01 | 1486178573.58322 | 10/9D7D6C00              |           71361719296

 2017-02-04 04:22:54.678023+01 | 1486178574.67802 | 10/9EAF7650              |           71381775952

 2017-02-04 04:22:55.769607+01 | 1486178575.76961 | 10/9FE2C850              |           71401916496

 2017-02-04 04:22:56.857073+01 | 1486178576.85707 | 10/A117C5D0              |           71422166480

 2017-02-04 04:22:57.942652+01 | 1486178577.94265 | 10/A2325B28              |           71440685864

 2017-02-04 04:22:59.025557+01 | 1486178579.02556 | 10/A35A3BD0              |           71460076496

 2017-02-04 04:23:00.104691+01 | 1486178580.10469 | 10/A47D2DE0              |           71479143904

 2017-02-04 04:23:01.192893+01 | 1486178581.19289 | 10/A5AB1968              |           71498930536

 2017-02-04 04:23:02.280448+01 | 1486178582.28045 | 10/A6D723F8              |           71518594040

 2017-02-04 04:23:03.371579+01 | 1486178583.37158 | 10/A8080400              |           71538574336

 2017-02-04 04:23:04.46398+01 | 1486178584.46398 | 10/A94032D0              |           71559033552

 2017-02-04 04:23:05.549967+01 | 1486178585.54997 | 10/AA7D1530              |           71579800880

 2017-02-04 04:23:06.633764+01 | 1486178586.63376 | 10/ABAF37D8              |           71599863768

 2017-02-04 04:23:07.711872+01 | 1486178587.71187 | 10/ACE81950              |           71620368720

 2017-02-04 04:23:08.805154+01 | 1486178588.80515 | 10/AE1A9F20              |           71640456992

 2017-02-04 04:23:09.881322+01 | 1486178589.88132 | 10/AF4F0348              |           71660667720

 2017-02-04 04:23:10.963358+01 | 1486178590.96336 | 10/B07C2DF8              |           71680404984

 2017-02-04 04:23:12.04461+01 | 1486178592.04461 | 10/B1AC6BF8              |           71700343800

 2017-02-04 04:23:13.12654+01 | 1486178593.12654 | 10/B2D6B3C0              |           71719891904

 2017-02-04 04:23:14.21229+01 | 1486178594.21229 | 10/B40D4470              |           71740245104

 2017-02-04 04:23:15.297504+01 | 1486178595.2975 | 10/B540B798              |           71760394136

 2017-02-04 04:23:16.386985+01 | 1486178596.38699 | 10/B6716D58              |           71780363608

 2017-02-04 04:23:17.486703+01 | 1486178597.4867 | 10/B7AF6BD8              |           71801203672

 2017-02-04 04:23:18.576869+01 | 1486178598.57687 | 10/B8E42D80              |           71821438336

 2017-02-04 04:23:19.660616+01 | 1486178599.66062 | 10/BA1B1880              |           71841814656

 2017-02-04 04:23:20.753941+01 | 1486178600.75394 | 10/BB467EA8              |           71861436072

 2017-02-04 04:23:21.843611+01 | 1486178601.84361 | 10/BC6EC178              |           71880851832

 2017-02-04 04:23:22.927013+01 | 1486178602.92701 | 10/BD9E2320              |           71900734240

 2017-02-04 04:23:24.009799+01 | 1486178604.0098 | 10/BED73D88              |           71921253768

 2017-02-04 04:23:25.088141+01 | 1486178605.08814 | 10/C019F7D8              |           71942404056

 2017-02-04 04:23:26.16993+01 | 1486178606.16993 | 10/C1535C18              |           71962942488

 2017-02-04 04:23:27.261362+01 | 1486178607.26136 | 10/C280EBB0              |           71982705584

 2017-02-04 04:23:28.346426+01 | 1486178608.34643 | 10/C3B5CB98              |           72002947992

 2017-02-04 04:23:29.433425+01 | 1486178609.43342 | 10/C4E86D90              |           72023043472

 2017-02-04 04:23:30.523557+01 | 1486178610.52356 | 10/C60FF7E8              |           72042412008

 2017-02-04 04:23:31.611794+01 | 1486178611.61179 | 10/C7481B40              |           72062868288

 2017-02-04 04:23:32.702148+01 | 1486178612.70215 | 10/C8829F68              |           72083480424

 2017-02-04 04:23:33.795986+01 | 1486178613.79599 | 10/C9A6E4F8              |           72102634744

 2017-02-04 04:23:34.878405+01 | 1486178614.87841 | 10/CAE51FC8              |           72123490248

 2017-02-04 04:23:35.961896+01 | 1486178615.9619 | 10/CC2492E8              |           72144425704

 2017-02-04 04:23:37.045432+01 | 1486178617.04543 | 10/CD59DA80              |           72164694656

 2017-02-04 04:23:38.129954+01 | 1486178618.12995 | 10/CE9022A8              |           72185029288

 2017-02-04 04:23:39.200561+01 | 1486178619.20056 | 10/CFB9F2B0              |           72204546736

 2017-02-04 04:23:40.290988+01 | 1486178620.29099 | 10/D0EA9830              |           72224512048

 2017-02-04 04:23:41.376181+01 | 1486178621.37618 | 10/D2285768              |           72245335912

 2017-02-04 04:23:42.467692+01 | 1486178622.46769 | 10/D35280C0              |           72264876224

 2017-02-04 04:23:43.559009+01 | 1486178623.55901 | 10/D4829450              |           72284804176

 2017-02-04 04:23:44.653292+01 | 1486178624.65329 | 10/D5BAAF80              |           72305258368

 2017-02-04 04:23:45.751813+01 | 1486178625.75181 | 10/D6F023C0              |           72325538752

 2017-02-04 04:23:46.83547+01 | 1486178626.83547 | 10/D81BC5E8              |           72345175528

 2017-02-04 04:23:47.916417+01 | 1486178627.91642 | 10/D94473B0              |           72364618672

 2017-02-04 04:23:48.996172+01 | 1486178628.99617 | 10/DA75E828              |           72384636968

 2017-02-04 04:23:50.081133+01 | 1486178630.08113 | 10/DBA2F1E8              |           72404365800

 2017-02-04 04:23:51.159817+01 | 1486178631.15982 | 10/DCD7BB70              |           72424602480

 2017-02-04 04:23:52.248562+01 | 1486178632.24856 | 10/DE05ECD0              |           72444406992

 2017-02-04 04:23:53.34088+01 | 1486178633.34088 | 10/DF2B52C8              |           72463635144

 2017-02-04 04:23:54.437517+01 | 1486178634.43752 | 10/E0542530              |           72483087664

 2017-02-04 04:23:55.530635+01 | 1486178635.53064 | 10/E17FA600              |           72502715904

 2017-02-04 04:23:56.628207+01 | 1486178636.62821 | 10/E2B48A18              |           72522959384

 2017-02-04 04:23:57.714585+01 | 1486178637.71459 | 10/E3E28A70              |           72542751344

 2017-02-04 04:23:58.811726+01 | 1486178638.81173 | 10/E51180C0              |           72562606272

 2017-02-04 04:23:59.906288+01 | 1486178639.90629 | 10/E63F68F0              |           72582392048

 2017-02-04 04:24:00.989592+01 | 1486178640.98959 | 10/E7767598              |           72602776984

 2017-02-04 04:24:02.07445+01 | 1486178642.07445 | 10/E8935E68              |           72621448808

 2017-02-04 04:24:03.162646+01 | 1486178643.16265 | 10/E9BB8B60              |           72640858976

 2017-02-04 04:24:04.246506+01 | 1486178644.24651 | 10/EADE2230              |           72659903024

 2017-02-04 04:24:05.341154+01 | 1486178645.34115 | 10/EC0A7718              |           72679585560

 2017-02-04 04:24:06.426262+01 | 1486178646.42626 | 10/ED33DF20              |           72699076384

 2017-02-04 04:24:07.510062+01 | 1486178647.51006 | 10/EE57A760              |           72718198624

 2017-02-04 04:24:08.601434+01 | 1486178648.60143 | 10/EF79B248              |           72737206856

 2017-02-04 04:24:09.684814+01 | 1486178649.68481 | 10/F0A0B608              |           72756540936

 2017-02-04 04:24:10.775101+01 | 1486178650.7751 | 10/F1D31808              |           72776620040

 2017-02-04 04:24:11.870293+01 | 1486178651.87029 | 10/F30C8D30              |           72797162800

 2017-02-04 04:24:12.950234+01 | 1486178652.95023 | 10/F431AF10              |           72816373520

 2017-02-04 04:24:14.026154+01 | 1486178654.02615 | 10/F56E6520              |           72837129504

 2017-02-04 04:24:15.106186+01 | 1486178655.10619 | 10/F6A45490              |           72857441424

 2017-02-04 04:24:16.186197+01 | 1486178656.1862 | 10/F7D87DE0              |           72877637088

 2017-02-04 04:24:17.277128+01 | 1486178657.27713 | 10/F9040D90              |           72897269136

 2017-02-04 04:24:18.366146+01 | 1486178658.36615 | 10/FA3BCEA0              |           72917700256

 2017-02-04 04:24:19.458355+01 | 1486178659.45835 | 10/FB5D9E28              |           72936693288

 2017-02-04 04:24:20.545665+01 | 1486178660.54567 | 10/FC89B500              |           72956359936

 2017-02-04 04:24:21.639289+01 | 1486178661.63929 | 10/FDBD2220              |           72976507424

 2017-02-04 04:24:22.725072+01 | 1486178662.72507 | 10/FEF43028              |           72996892712

 2017-02-04 04:24:23.814767+01 | 1486178663.81477 | 11/1E0730                |           73016411952

 2017-02-04 04:24:24.890533+01 | 1486178664.89053 | 11/1476370               |           73035899760

 2017-02-04 04:24:25.975323+01 | 1486178665.97532 | 11/2735B18               |           73055558424

 2017-02-04 04:24:27.054467+01 | 1486178667.05447 | 11/39B95F0               |           73074972144

 2017-02-04 04:24:28.132428+01 | 1486178668.13243 | 11/4CEA088               |           73095094408

 2017-02-04 04:24:29.211993+01 | 1486178669.21199 | 11/6067020               |           73115529248

 2017-02-04 04:24:30.295812+01 | 1486178670.29581 | 11/748FD98               |           73136668056

 2017-02-04 04:24:31.388246+01 | 1486178671.38825 | 11/87E54D0               |           73156941008

 2017-02-04 04:24:32.470837+01 | 1486178672.47084 | 11/9B2D830               |           73177159728

 2017-02-04 04:24:33.5587+01 | 1486178673.5587 | 11/AE405B8               |           73197159864

 2017-02-04 04:24:34.657778+01 | 1486178674.65778 | 11/BF87CD8               |           73215278296

 2017-02-04 04:24:35.74994+01 | 1486178675.74994 | 11/D2BA140               |           73235407168

 2017-02-04 04:24:36.836342+01 | 1486178676.83634 | 11/E528A58               |           73254734424

 2017-02-04 04:24:37.927791+01 | 1486178677.92779 | 11/F804BC0               |           73274510272

 2017-02-04 04:24:39.01333+01 | 1486178679.01333 | 11/10B11B30              |           73294486320

 2017-02-04 04:24:40.094146+01 | 1486178680.09415 | 11/11E6BEA8              |           73314778792

 2017-02-04 04:24:41.174406+01 | 1486178681.17441 | 11/13246380              |           73335595904

 2017-02-04 04:24:42.256182+01 | 1486178682.25618 | 11/145A1068              |           73355890792

 2017-02-04 04:24:43.345018+01 | 1486178683.34502 | 11/15970CA0              |           73376664736

 2017-02-04 04:24:44.424322+01 | 1486178684.42432 | 11/16A910E0              |           73394622688

 2017-02-04 04:24:45.516309+01 | 1486178685.51631 | 11/17E4EC00              |           73415322624

 2017-02-04 04:24:46.599235+01 | 1486178686.59924 | 11/19105808              |           73434945544

 2017-02-04 04:24:47.692853+01 | 1486178687.69285 | 11/1A313CF0              |           73453878512

 2017-02-04 04:24:48.781627+01 | 1486178688.78163 | 11/1B5CF668              |           73473521256

 2017-02-04 04:24:49.870318+01 | 1486178689.87032 | 11/1C8FDC38              |           73493634104

 2017-02-04 04:24:50.953413+01 | 1486178690.95341 | 11/1DC00B00              |           73513569024

 2017-02-04 04:24:52.039145+01 | 1486178692.03914 | 11/1EED2900              |           73533303040

 2017-02-04 04:24:53.118655+01 | 1486178693.11865 | 11/2018BB60              |           73552935776

 2017-02-04 04:24:54.200214+01 | 1486178694.20021 | 11/214CD258              |           73573126744

 2017-02-04 04:24:55.284741+01 | 1486178695.28474 | 11/227723B0              |           73592677296

 2017-02-04 04:24:56.379558+01 | 1486178696.37956 | 11/239FF890              |           73612130448

 2017-02-04 04:24:57.474064+01 | 1486178697.47406 | 11/24D7CAC0              |           73632565952

 2017-02-04 04:24:58.563446+01 | 1486178698.56345 | 11/2600ECC0              |           73652038848

 2017-02-04 04:24:59.658315+01 | 1486178699.65831 | 11/272488A8              |           73671149736

 2017-02-04 04:25:00.742396+01 | 1486178700.7424 | 11/2850BFF8              |           73690824696

 2017-02-04 04:25:01.835154+01 | 1486178701.83515 | 11/2976C1A8              |           73710092712

 2017-02-04 04:25:02.923485+01 | 1486178702.92349 | 11/2AA12B80              |           73729649536

 2017-02-04 04:25:04.007416+01 | 1486178704.00742 | 11/2BBC1B80              |           73748192128

 2017-02-04 04:25:05.085707+01 | 1486178705.08571 | 11/2CDB8728              |           73767028520

 2017-02-04 04:25:06.158898+01 | 1486178706.1589 | 11/2DE64ED0              |           73784512208

 2017-02-04 04:25:07.240059+01 | 1486178707.24006 | 11/2F057BC8              |           73803332552

 2017-02-04 04:25:08.329475+01 | 1486178708.32947 | 11/30329018              |           73823064088

 2017-02-04 04:25:09.411702+01 | 1486178709.4117 | 11/3165CC78              |           73843199096

 2017-02-04 04:25:10.505415+01 | 1486178710.50541 | 11/328DCE10              |           73862598160

 2017-02-04 04:25:11.609656+01 | 1486178711.60966 | 11/33B730D0              |           73882087632

 2017-02-04 04:25:12.695353+01 | 1486178712.69535 | 11/34E71320              |           73902002976

 2017-02-04 04:25:13.787398+01 | 1486178713.7874 | 11/3619E5C8              |           73922110920

 2017-02-04 04:25:14.876058+01 | 1486178714.87606 | 11/3746A788              |           73941821320

 2017-02-04 04:25:15.962544+01 | 1486178715.96254 | 11/38654A18              |           73960606232

 2017-02-04 04:25:17.047209+01 | 1486178717.04721 | 11/39843550              |           73979409744

 2017-02-04 04:25:18.122779+01 | 1486178718.12278 | 11/3AACCB18              |           73998846744

 2017-02-04 04:25:19.20932+01 | 1486178719.20932 | 11/3BDA8D68              |           74018622824

 2017-02-04 04:25:20.289766+01 | 1486178720.28977 | 11/3CFF4430              |           74037806128

 2017-02-04 04:25:21.382183+01 | 1486178721.38218 | 11/3E2C59D8              |           74057538008

 2017-02-04 04:25:22.469015+01 | 1486178722.46901 | 11/3F555130              |           74076999984

 2017-02-04 04:25:23.556761+01 | 1486178723.55676 | 11/40809D70              |           74096614768

 2017-02-04 04:25:24.632953+01 | 1486178724.63295 | 11/41A84EC0              |           74115993280

 2017-02-04 04:25:25.720738+01 | 1486178725.72074 | 11/42B3F9B8              |           74133535160

 2017-02-04 04:25:26.817669+01 | 1486178726.81767 | 11/43C791D8              |           74151596504

 2017-02-04 04:25:27.909629+01 | 1486178727.90963 | 11/44F2D9D8              |           74171210200

 2017-02-04 04:25:28.992038+01 | 1486178728.99204 | 11/46225FB8              |           74191101880

 2017-02-04 04:25:30.065684+01 | 1486178730.06568 | 11/4757C770              |           74211379056

 2017-02-04 04:25:31.150949+01 | 1486178731.15095 | 11/4883A0D8              |           74231029976

 2017-02-04 04:25:32.231236+01 | 1486178732.23124 | 11/49A3FC28              |           74249927720

 2017-02-04 04:25:33.317247+01 | 1486178733.31725 | 11/4AC1AEF8              |           74268651256

 2017-02-04 04:25:34.403756+01 | 1486178734.40376 | 11/4BDBB240              |           74287133248

 2017-02-04 04:25:35.496867+01 | 1486178735.49687 | 11/4CF7CF58              |           74305752920

 2017-02-04 04:25:36.588288+01 | 1486178736.58829 | 11/4E0A3240              |           74323735104

 2017-02-04 04:25:37.677581+01 | 1486178737.67758 | 11/4F34DC08              |           74343308296

 2017-02-04 04:25:38.771318+01 | 1486178738.77132 | 11/5051D228              |           74361983528

 2017-02-04 04:25:39.860631+01 | 1486178739.86063 | 11/51824EA0              |           74381938336

 2017-02-04 04:25:40.945432+01 | 1486178740.94543 | 11/52BD9348              |           74402599752

 2017-02-04 04:25:42.03196+01 | 1486178742.03196 | 11/53EE9990              |           74422589840

 2017-02-04 04:25:43.116511+01 | 1486178743.11651 | 11/5514C7C8              |           74441869256

 2017-02-04 04:25:44.187815+01 | 1486178744.18781 | 11/56292A88              |           74459982472

 2017-02-04 04:25:45.272628+01 | 1486178745.27263 | 11/57292D40              |           74476760384

 2017-02-04 04:25:46.35744+01 | 1486178746.35744 | 11/58356170              |           74494337392

 2017-02-04 04:25:47.4405+01 | 1486178747.4405 | 11/593FBFC8              |           74511794120

 2017-02-04 04:25:48.530418+01 | 1486178748.53042 | 11/5A532508              |           74529842440

 2017-02-04 04:25:49.620745+01 | 1486178749.62074 | 11/5B5ECCA0              |           74547383456

 2017-02-04 04:25:50.71103+01 | 1486178750.71103 | 11/5C6DD7A0              |           74565146528

 2017-02-04 04:25:51.797023+01 | 1486178751.79702 | 11/5D726AC0              |           74582223552

