 2017-02-06 04:27:17.217054+01 | 1486351637.21705 | 0/4E37FE40               |            1312292416

 2017-02-06 04:27:18.300148+01 | 1486351638.30015 | 0/4E37FE40               |            1312292416

 2017-02-06 04:27:19.386185+01 | 1486351639.38618 | 0/4E37FE40               |            1312292416

 2017-02-06 04:27:20.481053+01 | 1486351640.48105 | 0/4E37FE40               |            1312292416

 2017-02-06 04:27:21.575821+01 | 1486351641.57582 | 0/4E37FE40               |            1312292416

 2017-02-06 04:27:22.659038+01 | 1486351642.65904 | 0/4E37FE40               |            1312292416

 2017-02-06 04:27:23.734157+01 | 1486351643.73416 | 0/4E37FE78               |            1312292472

 2017-02-06 04:27:24.816794+01 | 1486351644.81679 | 0/4E37FE78               |            1312292472

 2017-02-06 04:27:25.904961+01 | 1486351645.90496 | 0/4E37FE78               |            1312292472

 2017-02-06 04:27:26.989044+01 | 1486351646.98904 | 0/4E37FE78               |            1312292472

 2017-02-06 04:27:28.066727+01 | 1486351648.06673 | 0/4E37FE78               |            1312292472

 2017-02-06 04:27:29.140772+01 | 1486351649.14077 | 0/4E37FE78               |            1312292472

 2017-02-06 04:27:30.212047+01 | 1486351650.21205 | 0/4E37FE78               |            1312292472

 2017-02-06 04:27:31.282938+01 | 1486351651.28294 | 0/4E37FE78               |            1312292472

 2017-02-06 04:27:32.356669+01 | 1486351652.35667 | 0/4E37FE78               |            1312292472

 2017-02-06 04:27:33.441695+01 | 1486351653.44169 | 0/4E37FE78               |            1312292472

 2017-02-06 04:27:34.524453+01 | 1486351654.52445 | 0/4E37FE78               |            1312292472

 2017-02-06 04:27:35.60552+01 | 1486351655.60552 | 0/4E37FE78               |            1312292472

 2017-02-06 04:27:36.689323+01 | 1486351656.68932 | 0/4E37FE78               |            1312292472

 2017-02-06 04:27:37.767005+01 | 1486351657.767 | 0/4E37FE78               |            1312292472

 2017-02-06 04:27:38.84929+01 | 1486351658.84929 | 0/4E37FE78               |            1312292472

 2017-02-06 04:27:39.929587+01 | 1486351659.92959 | 0/4E37FE78               |            1312292472

 2017-02-06 04:27:41.007365+01 | 1486351661.00736 | 0/4E37FE78               |            1312292472

 2017-02-06 04:27:42.089715+01 | 1486351662.08972 | 0/4E37FE78               |            1312292472

 2017-02-06 04:27:43.183771+01 | 1486351663.18377 | 0/4E37FE78               |            1312292472

 2017-02-06 04:27:44.2589+01 | 1486351664.2589 | 0/4E37FE78               |            1312292472

 2017-02-06 04:27:45.330909+01 | 1486351665.33091 | 0/4E37FE78               |            1312292472

 2017-02-06 04:27:46.421294+01 | 1486351666.42129 | 0/4E37FE78               |            1312292472

 2017-02-06 04:27:47.502017+01 | 1486351667.50202 | 0/4E37FE78               |            1312292472

 2017-02-06 04:27:48.583228+01 | 1486351668.58323 | 0/4E37FE78               |            1312292472

 2017-02-06 04:27:49.663291+01 | 1486351669.66329 | 0/4E37FE78               |            1312292472

 2017-02-06 04:27:50.746425+01 | 1486351670.74642 | 0/4E37FE78               |            1312292472

 2017-02-06 04:27:51.835323+01 | 1486351671.83532 | 0/4E37FE78               |            1312292472

 2017-02-06 04:27:52.92242+01 | 1486351672.92242 | 0/4E37FE78               |            1312292472

 2017-02-06 04:27:53.993588+01 | 1486351673.99359 | 0/4E37FE78               |            1312292472

 2017-02-06 04:27:55.069223+01 | 1486351675.06922 | 0/4E37FE78               |            1312292472

 2017-02-06 04:27:56.157234+01 | 1486351676.15723 | 0/4E37FE78               |            1312292472

 2017-02-06 04:27:57.240784+01 | 1486351677.24078 | 0/4E37FE78               |            1312292472

 2017-02-06 04:27:58.317208+01 | 1486351678.31721 | 0/4E37FE78               |            1312292472

 2017-02-06 04:27:59.398149+01 | 1486351679.39815 | 0/4E37FE78               |            1312292472

 2017-02-06 04:28:00.48164+01 | 1486351680.48164 | 0/4E37FE78               |            1312292472

 2017-02-06 04:28:01.570804+01 | 1486351681.5708 | 0/4E37FE78               |            1312292472

 2017-02-06 04:28:02.6495+01 | 1486351682.6495 | 0/4E37FE78               |            1312292472

 2017-02-06 04:28:03.723126+01 | 1486351683.72313 | 0/4E37FE78               |            1312292472

 2017-02-06 04:28:04.798897+01 | 1486351684.7989 | 0/4E37FE78               |            1312292472

 2017-02-06 04:28:05.883869+01 | 1486351685.88387 | 0/4E37FE78               |            1312292472

 2017-02-06 04:28:06.969108+01 | 1486351686.96911 | 0/4E37FE78               |            1312292472

 2017-02-06 04:28:08.039074+01 | 1486351688.03907 | 0/4E37FE78               |            1312292472

 2017-02-06 04:28:09.117547+01 | 1486351689.11755 | 0/4E37FE78               |            1312292472

 2017-02-06 04:28:10.196317+01 | 1486351690.19632 | 0/4E37FE78               |            1312292472

 2017-02-06 04:28:11.268241+01 | 1486351691.26824 | 0/4E37FE78               |            1312292472

 2017-02-06 04:28:12.348131+01 | 1486351692.34813 | 0/4E37FE78               |            1312292472

 2017-02-06 04:28:13.430157+01 | 1486351693.43016 | 0/4E37FE78               |            1312292472

 2017-02-06 04:28:14.504626+01 | 1486351694.50463 | 0/4E37FE78               |            1312292472

 2017-02-06 04:28:15.57715+01 | 1486351695.57715 | 0/4E37FE78               |            1312292472

 2017-02-06 04:28:16.649447+01 | 1486351696.64945 | 0/4E37FE78               |            1312292472

 2017-02-06 04:28:17.729068+01 | 1486351697.72907 | 0/4E37FE78               |            1312292472

 2017-02-06 04:28:18.819167+01 | 1486351698.81917 | 0/4E37FE78               |            1312292472

 2017-02-06 04:28:19.895357+01 | 1486351699.89536 | 0/4E37FE78               |            1312292472

 2017-02-06 04:28:20.987641+01 | 1486351700.98764 | 0/4E37FE78               |            1312292472

 2017-02-06 04:28:22.075368+01 | 1486351702.07537 | 0/4E37FE78               |            1312292472

 2017-02-06 04:28:23.158564+01 | 1486351703.15856 | 0/4E37FE78               |            1312292472

 2017-02-06 04:28:24.241011+01 | 1486351704.24101 | 0/4E37FE78               |            1312292472

 2017-02-06 04:28:25.30639+01 | 1486351705.30639 | 0/4E37FE78               |            1312292472

 2017-02-06 04:28:26.394898+01 | 1486351706.3949 | 0/4E37FE78               |            1312292472

 2017-02-06 04:28:27.477294+01 | 1486351707.47729 | 0/4E37FE78               |            1312292472

 2017-02-06 04:28:28.549512+01 | 1486351708.54951 | 0/4E37FE78               |            1312292472

 2017-02-06 04:28:29.627126+01 | 1486351709.62713 | 0/4E37FE78               |            1312292472

 2017-02-06 04:28:30.703875+01 | 1486351710.70388 | 0/4E37FE78               |            1312292472

 2017-02-06 04:28:31.78547+01 | 1486351711.78547 | 0/4E37FE78               |            1312292472

 2017-02-06 04:28:32.876586+01 | 1486351712.87659 | 0/4E37FE78               |            1312292472

 2017-02-06 04:28:33.968576+01 | 1486351713.96858 | 0/4E37FE78               |            1312292472

 2017-02-06 04:28:35.046678+01 | 1486351715.04668 | 0/4E37FE78               |            1312292472

 2017-02-06 04:28:36.12988+01 | 1486351716.12988 | 0/4E37FE78               |            1312292472

 2017-02-06 04:28:37.213183+01 | 1486351717.21318 | 0/4E37FE78               |            1312292472

 2017-02-06 04:28:38.29121+01 | 1486351718.29121 | 0/4E37FE78               |            1312292472

 2017-02-06 04:28:39.371603+01 | 1486351719.3716 | 0/4E37FE78               |            1312292472

 2017-02-06 04:28:40.448754+01 | 1486351720.44875 | 0/4E37FE78               |            1312292472

 2017-02-06 04:28:41.528508+01 | 1486351721.52851 | 0/4E37FE78               |            1312292472

 2017-02-06 04:28:42.607163+01 | 1486351722.60716 | 0/4E37FE78               |            1312292472

 2017-02-06 04:28:43.678874+01 | 1486351723.67887 | 0/4E37FE78               |            1312292472

 2017-02-06 04:28:44.758596+01 | 1486351724.7586 | 0/4E37FE78               |            1312292472

 2017-02-06 04:28:45.830388+01 | 1486351725.83039 | 0/4E37FE78               |            1312292472

 2017-02-06 04:28:46.907277+01 | 1486351726.90728 | 0/4E37FE78               |            1312292472

 2017-02-06 04:28:47.993651+01 | 1486351727.99365 | 0/4E37FE78               |            1312292472

 2017-02-06 04:28:49.079276+01 | 1486351729.07928 | 0/4E37FE78               |            1312292472

 2017-02-06 04:28:50.163509+01 | 1486351730.16351 | 0/4E37FE78               |            1312292472

 2017-02-06 04:28:51.251567+01 | 1486351731.25157 | 0/4E37FE78               |            1312292472

 2017-02-06 04:28:52.334962+01 | 1486351732.33496 | 0/4E37FE78               |            1312292472

 2017-02-06 04:28:53.419961+01 | 1486351733.41996 | 0/4E37FE78               |            1312292472

 2017-02-06 04:28:54.505574+01 | 1486351734.50557 | 0/4E37FE78               |            1312292472

 2017-02-06 04:28:55.577226+01 | 1486351735.57723 | 0/4E37FE78               |            1312292472

 2017-02-06 04:28:56.651827+01 | 1486351736.65183 | 0/4E37FE78               |            1312292472

 2017-02-06 04:28:57.727851+01 | 1486351737.72785 | 0/4E37FE78               |            1312292472

 2017-02-06 04:28:58.809891+01 | 1486351738.80989 | 0/4E37FE78               |            1312292472

 2017-02-06 04:28:59.889947+01 | 1486351739.88995 | 0/4E37FE78               |            1312292472

 2017-02-06 04:29:00.979683+01 | 1486351740.97968 | 0/4E37FE78               |            1312292472

 2017-02-06 04:29:02.065209+01 | 1486351742.06521 | 0/4E37FE78               |            1312292472

 2017-02-06 04:29:03.140121+01 | 1486351743.14012 | 0/4E37FE78               |            1312292472

 2017-02-06 04:29:04.229344+01 | 1486351744.22934 | 0/4E37FE78               |            1312292472

 2017-02-06 04:29:05.320371+01 | 1486351745.32037 | 0/4E37FE78               |            1312292472

 2017-02-06 04:29:06.391729+01 | 1486351746.39173 | 0/4E37FE78               |            1312292472

 2017-02-06 04:29:07.474772+01 | 1486351747.47477 | 0/4E37FE78               |            1312292472

 2017-02-06 04:29:08.563637+01 | 1486351748.56364 | 0/4E37FE78               |            1312292472

 2017-02-06 04:29:09.648134+01 | 1486351749.64813 | 0/4E37FE78               |            1312292472

 2017-02-06 04:29:10.726761+01 | 1486351750.72676 | 0/4E37FE78               |            1312292472

 2017-02-06 04:29:11.814109+01 | 1486351751.81411 | 0/4E37FE78               |            1312292472

 2017-02-06 04:29:12.895558+01 | 1486351752.89556 | 0/4E37FE78               |            1312292472

 2017-02-06 04:29:13.973758+01 | 1486351753.97376 | 0/4E37FE78               |            1312292472

 2017-02-06 04:29:15.053493+01 | 1486351755.05349 | 0/4E37FE78               |            1312292472

 2017-02-06 04:29:16.137489+01 | 1486351756.13749 | 0/4E37FE78               |            1312292472

 2017-02-06 04:29:17.213172+01 | 1486351757.21317 | 0/4E37FE78               |            1312292472

 2017-02-06 04:29:18.288295+01 | 1486351758.2883 | 0/4E37FE78               |            1312292472

 2017-02-06 04:29:19.366015+01 | 1486351759.36601 | 0/4E37FE78               |            1312292472

 2017-02-06 04:29:20.450958+01 | 1486351760.45096 | 0/4E37FE78               |            1312292472

 2017-02-06 04:29:21.528226+01 | 1486351761.52823 | 0/4E37FE78               |            1312292472

 2017-02-06 04:29:22.6085+01 | 1486351762.6085 | 0/4E37FE78               |            1312292472

 2017-02-06 04:29:23.67287+01 | 1486351763.67287 | 0/4E37FE78               |            1312292472

 2017-02-06 04:29:24.755534+01 | 1486351764.75553 | 0/4E37FE78               |            1312292472

 2017-02-06 04:29:25.842128+01 | 1486351765.84213 | 0/4E37FE78               |            1312292472

 2017-02-06 04:29:26.917371+01 | 1486351766.91737 | 0/4E37FE78               |            1312292472

 2017-02-06 04:29:28.000896+01 | 1486351768.0009 | 0/4E37FE78               |            1312292472

 2017-02-06 04:29:29.076171+01 | 1486351769.07617 | 0/4E37FE78               |            1312292472

 2017-02-06 04:29:30.162637+01 | 1486351770.16264 | 0/4E37FE78               |            1312292472

 2017-02-06 04:29:31.244417+01 | 1486351771.24442 | 0/4E37FE78               |            1312292472

 2017-02-06 04:29:32.332313+01 | 1486351772.33231 | 0/4E37FE78               |            1312292472

 2017-02-06 04:29:33.399029+01 | 1486351773.39903 | 0/4E37FE78               |            1312292472

 2017-02-06 04:29:34.481396+01 | 1486351774.4814 | 0/4E37FE78               |            1312292472

 2017-02-06 04:29:35.558218+01 | 1486351775.55822 | 0/4E37FE78               |            1312292472

 2017-02-06 04:29:36.623938+01 | 1486351776.62394 | 0/4E37FE78               |            1312292472

 2017-02-06 04:29:37.709666+01 | 1486351777.70967 | 0/4E37FE78               |            1312292472

 2017-02-06 04:29:38.801934+01 | 1486351778.80193 | 0/4E37FE78               |            1312292472

 2017-02-06 04:29:39.879492+01 | 1486351779.87949 | 0/4E37FE78               |            1312292472

 2017-02-06 04:29:40.963045+01 | 1486351780.96304 | 0/4E37FE78               |            1312292472

 2017-02-06 04:29:42.04661+01 | 1486351782.04661 | 0/4E37FE78               |            1312292472

 2017-02-06 04:29:43.132023+01 | 1486351783.13202 | 0/4E37FE78               |            1312292472

 2017-02-06 04:29:44.206528+01 | 1486351784.20653 | 0/4E37FE78               |            1312292472

 2017-02-06 04:29:45.3004+01 | 1486351785.3004 | 0/4E37FE78               |            1312292472

 2017-02-06 04:29:46.369643+01 | 1486351786.36964 | 0/4E37FE78               |            1312292472

 2017-02-06 04:29:47.44977+01 | 1486351787.44977 | 0/4E37FE78               |            1312292472

 2017-02-06 04:29:48.525185+01 | 1486351788.52519 | 0/4E37FE78               |            1312292472

 2017-02-06 04:29:49.603743+01 | 1486351789.60374 | 0/4E37FE78               |            1312292472

 2017-02-06 04:29:50.684528+01 | 1486351790.68453 | 0/4E37FE78               |            1312292472

 2017-02-06 04:29:51.771011+01 | 1486351791.77101 | 0/4E37FE78               |            1312292472

 2017-02-06 04:29:52.841161+01 | 1486351792.84116 | 0/4E37FE78               |            1312292472

 2017-02-06 04:29:53.915596+01 | 1486351793.9156 | 0/4E37FE78               |            1312292472

 2017-02-06 04:29:54.99154+01 | 1486351794.99154 | 0/4E37FE78               |            1312292472

 2017-02-06 04:29:56.079609+01 | 1486351796.07961 | 0/4E37FE78               |            1312292472

 2017-02-06 04:29:57.150862+01 | 1486351797.15086 | 0/4E37FE78               |            1312292472

 2017-02-06 04:29:58.229541+01 | 1486351798.22954 | 0/4E37FE78               |            1312292472

 2017-02-06 04:29:59.318209+01 | 1486351799.31821 | 0/4E37FE78               |            1312292472

 2017-02-06 04:30:00.393772+01 | 1486351800.39377 | 0/4E37FE78               |            1312292472

 2017-02-06 04:30:01.477556+01 | 1486351801.47756 | 0/4E37FE78               |            1312292472

 2017-02-06 04:30:02.558335+01 | 1486351802.55834 | 0/4E37FE78               |            1312292472

 2017-02-06 04:30:03.644067+01 | 1486351803.64407 | 0/4E37FE78               |            1312292472

 2017-02-06 04:30:04.717352+01 | 1486351804.71735 | 0/4E37FE78               |            1312292472

 2017-02-06 04:30:05.796074+01 | 1486351805.79607 | 0/4E37FE78               |            1312292472

 2017-02-06 04:30:06.874268+01 | 1486351806.87427 | 0/4E37FE78               |            1312292472

 2017-02-06 04:30:07.954631+01 | 1486351807.95463 | 0/4E37FE78               |            1312292472

 2017-02-06 04:30:09.029629+01 | 1486351809.02963 | 0/4E37FE78               |            1312292472

 2017-02-06 04:30:10.115829+01 | 1486351810.11583 | 0/4E37FE78               |            1312292472

 2017-02-06 04:30:11.194838+01 | 1486351811.19484 | 0/4E37FE78               |            1312292472

 2017-02-06 04:30:12.279381+01 | 1486351812.27938 | 0/4E37FE78               |            1312292472

 2017-02-06 04:30:13.354057+01 | 1486351813.35406 | 0/4E37FE78               |            1312292472

 2017-02-06 04:30:14.440298+01 | 1486351814.4403 | 0/4E37FE78               |            1312292472

 2017-02-06 04:30:15.521795+01 | 1486351815.5218 | 0/4E37FE78               |            1312292472

 2017-02-06 04:30:16.589816+01 | 1486351816.58982 | 0/4E37FE78               |            1312292472

 2017-02-06 04:30:17.675091+01 | 1486351817.67509 | 0/4E37FE78               |            1312292472

 2017-02-06 04:30:18.749879+01 | 1486351818.74988 | 0/4E37FE78               |            1312292472

 2017-02-06 04:30:19.826249+01 | 1486351819.82625 | 0/4E37FE78               |            1312292472

 2017-02-06 04:30:20.9056+01 | 1486351820.9056 | 0/4E37FE78               |            1312292472

 2017-02-06 04:30:21.97851+01 | 1486351821.97851 | 0/4E37FE78               |            1312292472

 2017-02-06 04:30:23.063349+01 | 1486351823.06335 | 0/4E37FE78               |            1312292472

 2017-02-06 04:30:24.140883+01 | 1486351824.14088 | 0/4E37FE78               |            1312292472

 2017-02-06 04:30:25.223303+01 | 1486351825.2233 | 0/4E37FE78               |            1312292472

 2017-02-06 04:30:26.30074+01 | 1486351826.30074 | 0/4E37FE78               |            1312292472

 2017-02-06 04:30:27.384086+01 | 1486351827.38409 | 0/4E37FE78               |            1312292472

 2017-02-06 04:30:28.464621+01 | 1486351828.46462 | 0/4E37FE78               |            1312292472

 2017-02-06 04:30:29.535884+01 | 1486351829.53588 | 0/4E37FE78               |            1312292472

 2017-02-06 04:30:30.622146+01 | 1486351830.62215 | 0/4E37FE78               |            1312292472

 2017-02-06 04:30:31.704924+01 | 1486351831.70492 | 0/4E37FE78               |            1312292472

 2017-02-06 04:30:32.781694+01 | 1486351832.78169 | 0/4E37FE78               |            1312292472

 2017-02-06 04:30:33.855292+01 | 1486351833.85529 | 0/4E37FE78               |            1312292472

 2017-02-06 04:30:34.940638+01 | 1486351834.94064 | 0/4E37FE78               |            1312292472

 2017-02-06 04:30:36.023376+01 | 1486351836.02338 | 0/4E37FE78               |            1312292472

 2017-02-06 04:30:37.109467+01 | 1486351837.10947 | 0/4E37FE78               |            1312292472

 2017-02-06 04:30:38.190835+01 | 1486351838.19083 | 0/4E37FE78               |            1312292472

 2017-02-06 04:30:39.275581+01 | 1486351839.27558 | 0/4E37FE78               |            1312292472

 2017-02-06 04:30:40.361591+01 | 1486351840.36159 | 0/4E37FE78               |            1312292472

 2017-02-06 04:30:41.432233+01 | 1486351841.43223 | 0/4E37FE78               |            1312292472

 2017-02-06 04:30:42.522729+01 | 1486351842.52273 | 0/4E37FE78               |            1312292472

 2017-02-06 04:30:43.602248+01 | 1486351843.60225 | 0/4E37FE78               |            1312292472

 2017-02-06 04:30:44.686987+01 | 1486351844.68699 | 0/4E37FE78               |            1312292472

 2017-02-06 04:30:45.768565+01 | 1486351845.76856 | 0/4E37FE78               |            1312292472

 2017-02-06 04:30:46.845838+01 | 1486351846.84584 | 0/4E37FE78               |            1312292472

 2017-02-06 04:30:47.919886+01 | 1486351847.91989 | 0/4E37FE78               |            1312292472

 2017-02-06 04:30:48.998238+01 | 1486351848.99824 | 0/4E37FE78               |            1312292472

 2017-02-06 04:30:50.081336+01 | 1486351850.08134 | 0/4E37FE78               |            1312292472

 2017-02-06 04:30:51.16254+01 | 1486351851.16254 | 0/4E37FE78               |            1312292472

 2017-02-06 04:30:52.247339+01 | 1486351852.24734 | 0/4E37FE78               |            1312292472

 2017-02-06 04:30:53.330815+01 | 1486351853.33082 | 0/4E37FE78               |            1312292472

 2017-02-06 04:30:54.402704+01 | 1486351854.4027 | 0/4E37FE78               |            1312292472

 2017-02-06 04:30:55.475673+01 | 1486351855.47567 | 0/4E37FE78               |            1312292472

 2017-02-06 04:30:56.567135+01 | 1486351856.56714 | 0/4E37FE78               |            1312292472

 2017-02-06 04:30:57.65663+01 | 1486351857.65663 | 0/4E37FE78               |            1312292472

 2017-02-06 04:30:58.740793+01 | 1486351858.74079 | 0/4E37FE78               |            1312292472

 2017-02-06 04:30:59.814119+01 | 1486351859.81412 | 0/4E37FE78               |            1312292472

 2017-02-06 04:31:00.881549+01 | 1486351860.88155 | 0/4E37FE78               |            1312292472

 2017-02-06 04:31:01.962223+01 | 1486351861.96222 | 0/4E37FE78               |            1312292472

 2017-02-06 04:31:03.04732+01 | 1486351863.04732 | 0/4E37FE78               |            1312292472

 2017-02-06 04:31:04.132996+01 | 1486351864.133 | 0/4E37FE78               |            1312292472

 2017-02-06 04:31:05.222636+01 | 1486351865.22264 | 0/4E37FE78               |            1312292472

 2017-02-06 04:31:06.304069+01 | 1486351866.30407 | 0/4E37FE78               |            1312292472

 2017-02-06 04:31:07.385018+01 | 1486351867.38502 | 0/4E37FE78               |            1312292472

 2017-02-06 04:31:08.463925+01 | 1486351868.46392 | 0/4E37FE78               |            1312292472

 2017-02-06 04:31:09.540627+01 | 1486351869.54063 | 0/4E37FE78               |            1312292472

 2017-02-06 04:31:10.623979+01 | 1486351870.62398 | 0/4E37FE78               |            1312292472

 2017-02-06 04:31:11.705291+01 | 1486351871.70529 | 0/4E37FE78               |            1312292472

 2017-02-06 04:31:12.791314+01 | 1486351872.79131 | 0/4E37FE78               |            1312292472

 2017-02-06 04:31:13.859562+01 | 1486351873.85956 | 0/4E37FE78               |            1312292472

 2017-02-06 04:31:14.944385+01 | 1486351874.94439 | 0/4E37FE78               |            1312292472

 2017-02-06 04:31:16.019077+01 | 1486351876.01908 | 0/4E37FE78               |            1312292472

 2017-02-06 04:31:17.103043+01 | 1486351877.10304 | 0/4E37FE78               |            1312292472

 2017-02-06 04:31:18.177996+01 | 1486351878.178 | 0/4E37FE78               |            1312292472

 2017-02-06 04:31:19.271382+01 | 1486351879.27138 | 0/4E37FE78               |            1312292472

 2017-02-06 04:31:20.342015+01 | 1486351880.34202 | 0/4E37FE78               |            1312292472

 2017-02-06 04:31:21.416233+01 | 1486351881.41623 | 0/4E37FE78               |            1312292472

 2017-02-06 04:31:22.497697+01 | 1486351882.4977 | 0/4E37FE78               |            1312292472

 2017-02-06 04:31:23.576589+01 | 1486351883.57659 | 0/4E37FE78               |            1312292472

 2017-02-06 04:31:24.66207+01 | 1486351884.66207 | 0/4E37FE78               |            1312292472

 2017-02-06 04:31:25.737472+01 | 1486351885.73747 | 0/4E37FE78               |            1312292472

 2017-02-06 04:31:26.817897+01 | 1486351886.8179 | 0/4E37FE78               |            1312292472

 2017-02-06 04:31:27.900694+01 | 1486351887.90069 | 0/4E37FE78               |            1312292472

 2017-02-06 04:31:28.981934+01 | 1486351888.98193 | 0/4E37FE78               |            1312292472

 2017-02-06 04:31:30.057446+01 | 1486351890.05745 | 0/4E37FE78               |            1312292472

 2017-02-06 04:31:31.138367+01 | 1486351891.13837 | 0/4E37FE78               |            1312292472

 2017-02-06 04:31:32.22227+01 | 1486351892.22227 | 0/4E37FE78               |            1312292472

 2017-02-06 04:31:33.3074+01 | 1486351893.3074 | 0/4E37FE78               |            1312292472

 2017-02-06 04:31:34.398946+01 | 1486351894.39895 | 0/4E37FE78               |            1312292472

 2017-02-06 04:31:35.483869+01 | 1486351895.48387 | 0/4E37FE78               |            1312292472

 2017-02-06 04:31:36.570834+01 | 1486351896.57083 | 0/4E37FE78               |            1312292472

 2017-02-06 04:31:37.647652+01 | 1486351897.64765 | 0/4E37FE78               |            1312292472

 2017-02-06 04:31:38.730012+01 | 1486351898.73001 | 0/4E37FE78               |            1312292472

 2017-02-06 04:31:39.806854+01 | 1486351899.80685 | 0/4E37FE78               |            1312292472

 2017-02-06 04:31:40.891217+01 | 1486351900.89122 | 0/4E37FE78               |            1312292472

 2017-02-06 04:31:41.96856+01 | 1486351901.96856 | 0/4E37FE78               |            1312292472

 2017-02-06 04:31:43.044322+01 | 1486351903.04432 | 0/4E37FE78               |            1312292472

 2017-02-06 04:31:44.118802+01 | 1486351904.1188 | 0/4E37FE78               |            1312292472

 2017-02-06 04:31:45.19278+01 | 1486351905.19278 | 0/4E37FE78               |            1312292472

 2017-02-06 04:31:46.2624+01 | 1486351906.2624 | 0/4E37FE78               |            1312292472

 2017-02-06 04:31:47.33842+01 | 1486351907.33842 | 0/4E37FE78               |            1312292472

 2017-02-06 04:31:48.4235+01 | 1486351908.4235 | 0/4E37FE78               |            1312292472

 2017-02-06 04:31:49.497467+01 | 1486351909.49747 | 0/4E37FE78               |            1312292472

 2017-02-06 04:31:50.575636+01 | 1486351910.57564 | 0/4E37FE78               |            1312292472

 2017-02-06 04:31:51.657199+01 | 1486351911.6572 | 0/4E37FE78               |            1312292472

 2017-02-06 04:31:52.741446+01 | 1486351912.74145 | 0/4E37FE78               |            1312292472

 2017-02-06 04:31:53.824539+01 | 1486351913.82454 | 0/4E37FE78               |            1312292472

 2017-02-06 04:31:54.910721+01 | 1486351914.91072 | 0/4E37FE78               |            1312292472

 2017-02-06 04:31:55.98564+01 | 1486351915.98564 | 0/4E37FE78               |            1312292472

 2017-02-06 04:31:57.059553+01 | 1486351917.05955 | 0/4E37FE78               |            1312292472

 2017-02-06 04:31:58.138571+01 | 1486351918.13857 | 0/4E37FE78               |            1312292472

 2017-02-06 04:31:59.2177+01 | 1486351919.2177 | 0/4E37FE78               |            1312292472

 2017-02-06 04:32:00.294612+01 | 1486351920.29461 | 0/4E37FE78               |            1312292472

 2017-02-06 04:32:01.374999+01 | 1486351921.375 | 0/4E37FE78               |            1312292472

 2017-02-06 04:32:02.452214+01 | 1486351922.45221 | 0/4E37FE78               |            1312292472

 2017-02-06 04:32:03.527109+01 | 1486351923.52711 | 0/4E37FE78               |            1312292472

 2017-02-06 04:32:04.617834+01 | 1486351924.61783 | 0/4E37FE78               |            1312292472

 2017-02-06 04:32:05.698263+01 | 1486351925.69826 | 0/4E37FE78               |            1312292472

 2017-02-06 04:32:06.774094+01 | 1486351926.77409 | 0/4E37FE78               |            1312292472

 2017-02-06 04:32:07.854931+01 | 1486351927.85493 | 0/4E37FE78               |            1312292472

 2017-02-06 04:32:08.929043+01 | 1486351928.92904 | 0/4E37FE78               |            1312292472

 2017-02-06 04:32:10.008471+01 | 1486351930.00847 | 0/4E37FE78               |            1312292472

 2017-02-06 04:32:11.079441+01 | 1486351931.07944 | 0/4E37FE78               |            1312292472

 2017-02-06 04:32:12.169934+01 | 1486351932.16993 | 0/4E37FE78               |            1312292472

 2017-02-06 04:32:13.25759+01 | 1486351933.25759 | 0/4E37FE78               |            1312292472

 2017-02-06 04:32:14.331337+01 | 1486351934.33134 | 0/4E37FE78               |            1312292472

 2017-02-06 04:32:15.404636+01 | 1486351935.40464 | 0/4E37FE78               |            1312292472

 2017-02-06 04:32:16.485594+01 | 1486351936.48559 | 0/4E37FE78               |            1312292472

