 2017-02-03 14:01:27.909878+01 | 1486126887.90988 | pgbench_branches_pkey |            40960
 2017-02-03 14:01:27.909878+01 | 1486126887.90988 | pgbench_tellers_pkey  |           245760
 2017-02-03 14:01:27.909878+01 | 1486126887.90988 | pgbench_accounts_pkey |       2246197248

 2017-02-03 14:01:29.042325+01 | 1486126889.04233 | pgbench_branches_pkey |            40960
 2017-02-03 14:01:29.042325+01 | 1486126889.04233 | pgbench_tellers_pkey  |           245760
 2017-02-03 14:01:29.042325+01 | 1486126889.04233 | pgbench_accounts_pkey |       2246197248

 2017-02-03 14:01:30.157512+01 | 1486126890.15751 | pgbench_branches_pkey |            40960
 2017-02-03 14:01:30.157512+01 | 1486126890.15751 | pgbench_tellers_pkey  |           245760
 2017-02-03 14:01:30.157512+01 | 1486126890.15751 | pgbench_accounts_pkey |       2246197248

 2017-02-03 14:01:31.270041+01 | 1486126891.27004 | pgbench_branches_pkey |            40960
 2017-02-03 14:01:31.270041+01 | 1486126891.27004 | pgbench_tellers_pkey  |           245760
 2017-02-03 14:01:31.270041+01 | 1486126891.27004 | pgbench_accounts_pkey |       2246197248

 2017-02-03 14:01:32.386162+01 | 1486126892.38616 | pgbench_branches_pkey |            40960
 2017-02-03 14:01:32.386162+01 | 1486126892.38616 | pgbench_tellers_pkey  |           245760
 2017-02-03 14:01:32.386162+01 | 1486126892.38616 | pgbench_accounts_pkey |       2246197248

 2017-02-03 14:01:33.512696+01 | 1486126893.5127 | pgbench_branches_pkey |            40960
 2017-02-03 14:01:33.512696+01 | 1486126893.5127 | pgbench_tellers_pkey  |           245760
 2017-02-03 14:01:33.512696+01 | 1486126893.5127 | pgbench_accounts_pkey |       2246197248

 2017-02-03 14:01:34.663587+01 | 1486126894.66359 | pgbench_branches_pkey |            40960
 2017-02-03 14:01:34.663587+01 | 1486126894.66359 | pgbench_tellers_pkey  |           245760
 2017-02-03 14:01:34.663587+01 | 1486126894.66359 | pgbench_accounts_pkey |       2246197248

 2017-02-03 14:01:35.787165+01 | 1486126895.78716 | pgbench_branches_pkey |            40960
 2017-02-03 14:01:35.787165+01 | 1486126895.78716 | pgbench_tellers_pkey  |           245760
 2017-02-03 14:01:35.787165+01 | 1486126895.78716 | pgbench_accounts_pkey |       2246197248

 2017-02-03 14:01:36.915393+01 | 1486126896.91539 | pgbench_branches_pkey |            40960
 2017-02-03 14:01:36.915393+01 | 1486126896.91539 | pgbench_tellers_pkey  |           245760
 2017-02-03 14:01:36.915393+01 | 1486126896.91539 | pgbench_accounts_pkey |       2246197248

 2017-02-03 14:01:38.022552+01 | 1486126898.02255 | pgbench_branches_pkey |            40960
 2017-02-03 14:01:38.022552+01 | 1486126898.02255 | pgbench_tellers_pkey  |           245760
 2017-02-03 14:01:38.022552+01 | 1486126898.02255 | pgbench_accounts_pkey |       2246197248

 2017-02-03 14:01:39.161652+01 | 1486126899.16165 | pgbench_branches_pkey |            40960
 2017-02-03 14:01:39.161652+01 | 1486126899.16165 | pgbench_tellers_pkey  |           245760
 2017-02-03 14:01:39.161652+01 | 1486126899.16165 | pgbench_accounts_pkey |       2246197248

 2017-02-03 14:01:40.319154+01 | 1486126900.31915 | pgbench_branches_pkey |            40960
 2017-02-03 14:01:40.319154+01 | 1486126900.31915 | pgbench_tellers_pkey  |           245760
 2017-02-03 14:01:40.319154+01 | 1486126900.31915 | pgbench_accounts_pkey |       2246197248

 2017-02-03 14:01:41.487186+01 | 1486126901.48719 | pgbench_branches_pkey |            40960
 2017-02-03 14:01:41.487186+01 | 1486126901.48719 | pgbench_tellers_pkey  |           245760
 2017-02-03 14:01:41.487186+01 | 1486126901.48719 | pgbench_accounts_pkey |       2246197248

 2017-02-03 14:01:42.610404+01 | 1486126902.6104 | pgbench_branches_pkey |            40960
 2017-02-03 14:01:42.610404+01 | 1486126902.6104 | pgbench_tellers_pkey  |           245760
 2017-02-03 14:01:42.610404+01 | 1486126902.6104 | pgbench_accounts_pkey |       2246197248

 2017-02-03 14:01:43.728507+01 | 1486126903.72851 | pgbench_branches_pkey |            40960
 2017-02-03 14:01:43.728507+01 | 1486126903.72851 | pgbench_tellers_pkey  |           245760
 2017-02-03 14:01:43.728507+01 | 1486126903.72851 | pgbench_accounts_pkey |       2246197248

 2017-02-03 14:01:44.849501+01 | 1486126904.8495 | pgbench_branches_pkey |            40960
 2017-02-03 14:01:44.849501+01 | 1486126904.8495 | pgbench_tellers_pkey  |           245760
 2017-02-03 14:01:44.849501+01 | 1486126904.8495 | pgbench_accounts_pkey |       2246197248

 2017-02-03 14:01:45.954898+01 | 1486126905.9549 | pgbench_branches_pkey |            40960
 2017-02-03 14:01:45.954898+01 | 1486126905.9549 | pgbench_tellers_pkey  |           245760
 2017-02-03 14:01:45.954898+01 | 1486126905.9549 | pgbench_accounts_pkey |       2246197248

 2017-02-03 14:01:47.066745+01 | 1486126907.06675 | pgbench_branches_pkey |            40960
 2017-02-03 14:01:47.066745+01 | 1486126907.06675 | pgbench_tellers_pkey  |           245760
 2017-02-03 14:01:47.066745+01 | 1486126907.06675 | pgbench_accounts_pkey |       2246197248

 2017-02-03 14:01:48.185029+01 | 1486126908.18503 | pgbench_branches_pkey |            40960
 2017-02-03 14:01:48.185029+01 | 1486126908.18503 | pgbench_tellers_pkey  |           245760
 2017-02-03 14:01:48.185029+01 | 1486126908.18503 | pgbench_accounts_pkey |       2246197248

 2017-02-03 14:01:49.320417+01 | 1486126909.32042 | pgbench_branches_pkey |            40960
 2017-02-03 14:01:49.320417+01 | 1486126909.32042 | pgbench_tellers_pkey  |           245760
 2017-02-03 14:01:49.320417+01 | 1486126909.32042 | pgbench_accounts_pkey |       2246197248

 2017-02-03 14:01:50.443973+01 | 1486126910.44397 | pgbench_branches_pkey |            40960
 2017-02-03 14:01:50.443973+01 | 1486126910.44397 | pgbench_tellers_pkey  |           245760
 2017-02-03 14:01:50.443973+01 | 1486126910.44397 | pgbench_accounts_pkey |       2246197248

 2017-02-03 14:01:51.58208+01 | 1486126911.58208 | pgbench_branches_pkey |            40960
 2017-02-03 14:01:51.58208+01 | 1486126911.58208 | pgbench_tellers_pkey  |           245760
 2017-02-03 14:01:51.58208+01 | 1486126911.58208 | pgbench_accounts_pkey |       2246197248

 2017-02-03 14:01:52.705325+01 | 1486126912.70532 | pgbench_branches_pkey |            40960
 2017-02-03 14:01:52.705325+01 | 1486126912.70532 | pgbench_tellers_pkey  |           245760
 2017-02-03 14:01:52.705325+01 | 1486126912.70532 | pgbench_accounts_pkey |       2246197248

 2017-02-03 14:01:53.829731+01 | 1486126913.82973 | pgbench_branches_pkey |            40960
 2017-02-03 14:01:53.829731+01 | 1486126913.82973 | pgbench_tellers_pkey  |           245760
 2017-02-03 14:01:53.829731+01 | 1486126913.82973 | pgbench_accounts_pkey |       2246197248

 2017-02-03 14:01:54.948654+01 | 1486126914.94865 | pgbench_branches_pkey |            40960
 2017-02-03 14:01:54.948654+01 | 1486126914.94865 | pgbench_tellers_pkey  |           245760
 2017-02-03 14:01:54.948654+01 | 1486126914.94865 | pgbench_accounts_pkey |       2246197248

 2017-02-03 14:01:56.087434+01 | 1486126916.08743 | pgbench_branches_pkey |            40960
 2017-02-03 14:01:56.087434+01 | 1486126916.08743 | pgbench_tellers_pkey  |           245760
 2017-02-03 14:01:56.087434+01 | 1486126916.08743 | pgbench_accounts_pkey |       2246197248

 2017-02-03 14:01:57.210024+01 | 1486126917.21002 | pgbench_branches_pkey |            40960
 2017-02-03 14:01:57.210024+01 | 1486126917.21002 | pgbench_tellers_pkey  |           245760
 2017-02-03 14:01:57.210024+01 | 1486126917.21002 | pgbench_accounts_pkey |       2246197248

 2017-02-03 14:01:58.342581+01 | 1486126918.34258 | pgbench_branches_pkey |            40960
 2017-02-03 14:01:58.342581+01 | 1486126918.34258 | pgbench_tellers_pkey  |           245760
 2017-02-03 14:01:58.342581+01 | 1486126918.34258 | pgbench_accounts_pkey |       2246197248

 2017-02-03 14:01:59.495362+01 | 1486126919.49536 | pgbench_branches_pkey |            40960
 2017-02-03 14:01:59.495362+01 | 1486126919.49536 | pgbench_tellers_pkey  |           245760
 2017-02-03 14:01:59.495362+01 | 1486126919.49536 | pgbench_accounts_pkey |       2246197248

 2017-02-03 14:02:00.604022+01 | 1486126920.60402 | pgbench_branches_pkey |            40960
 2017-02-03 14:02:00.604022+01 | 1486126920.60402 | pgbench_tellers_pkey  |           245760
 2017-02-03 14:02:00.604022+01 | 1486126920.60402 | pgbench_accounts_pkey |       2246197248

 2017-02-03 14:02:01.719285+01 | 1486126921.71929 | pgbench_branches_pkey |            40960
 2017-02-03 14:02:01.719285+01 | 1486126921.71929 | pgbench_tellers_pkey  |           245760
 2017-02-03 14:02:01.719285+01 | 1486126921.71929 | pgbench_accounts_pkey |       2246197248

 2017-02-03 14:02:02.855375+01 | 1486126922.85538 | pgbench_branches_pkey |            40960
 2017-02-03 14:02:02.855375+01 | 1486126922.85538 | pgbench_tellers_pkey  |           245760
 2017-02-03 14:02:02.855375+01 | 1486126922.85538 | pgbench_accounts_pkey |       2246197248

 2017-02-03 14:02:04.00837+01 | 1486126924.00837 | pgbench_branches_pkey |            40960
 2017-02-03 14:02:04.00837+01 | 1486126924.00837 | pgbench_tellers_pkey  |           245760
 2017-02-03 14:02:04.00837+01 | 1486126924.00837 | pgbench_accounts_pkey |       2246197248

 2017-02-03 14:02:05.136536+01 | 1486126925.13654 | pgbench_branches_pkey |            40960
 2017-02-03 14:02:05.136536+01 | 1486126925.13654 | pgbench_tellers_pkey  |           245760
 2017-02-03 14:02:05.136536+01 | 1486126925.13654 | pgbench_accounts_pkey |       2246197248

 2017-02-03 14:02:06.27692+01 | 1486126926.27692 | pgbench_branches_pkey |            40960
 2017-02-03 14:02:06.27692+01 | 1486126926.27692 | pgbench_tellers_pkey  |           245760
 2017-02-03 14:02:06.27692+01 | 1486126926.27692 | pgbench_accounts_pkey |       2246197248

 2017-02-03 14:02:07.401802+01 | 1486126927.4018 | pgbench_branches_pkey |            40960
 2017-02-03 14:02:07.401802+01 | 1486126927.4018 | pgbench_tellers_pkey  |           245760
 2017-02-03 14:02:07.401802+01 | 1486126927.4018 | pgbench_accounts_pkey |       2246197248

 2017-02-03 14:02:08.516589+01 | 1486126928.51659 | pgbench_branches_pkey |            40960
 2017-02-03 14:02:08.516589+01 | 1486126928.51659 | pgbench_tellers_pkey  |           245760
 2017-02-03 14:02:08.516589+01 | 1486126928.51659 | pgbench_accounts_pkey |       2246197248

 2017-02-03 14:02:09.647694+01 | 1486126929.64769 | pgbench_branches_pkey |            40960
 2017-02-03 14:02:09.647694+01 | 1486126929.64769 | pgbench_tellers_pkey  |           245760
 2017-02-03 14:02:09.647694+01 | 1486126929.64769 | pgbench_accounts_pkey |       2246197248

 2017-02-03 14:02:10.749162+01 | 1486126930.74916 | pgbench_branches_pkey |            40960
 2017-02-03 14:02:10.749162+01 | 1486126930.74916 | pgbench_tellers_pkey  |           245760
 2017-02-03 14:02:10.749162+01 | 1486126930.74916 | pgbench_accounts_pkey |       2246197248

 2017-02-03 14:02:11.872207+01 | 1486126931.87221 | pgbench_branches_pkey |            40960
 2017-02-03 14:02:11.872207+01 | 1486126931.87221 | pgbench_tellers_pkey  |           245760
 2017-02-03 14:02:11.872207+01 | 1486126931.87221 | pgbench_accounts_pkey |       2246197248

 2017-02-03 14:02:13.012228+01 | 1486126933.01223 | pgbench_branches_pkey |            40960
 2017-02-03 14:02:13.012228+01 | 1486126933.01223 | pgbench_tellers_pkey  |           245760
 2017-02-03 14:02:13.012228+01 | 1486126933.01223 | pgbench_accounts_pkey |       2246197248

 2017-02-03 14:02:14.154526+01 | 1486126934.15453 | pgbench_branches_pkey |            40960
 2017-02-03 14:02:14.154526+01 | 1486126934.15453 | pgbench_tellers_pkey  |           245760
 2017-02-03 14:02:14.154526+01 | 1486126934.15453 | pgbench_accounts_pkey |       2246197248

 2017-02-03 14:02:15.272709+01 | 1486126935.27271 | pgbench_branches_pkey |            40960
 2017-02-03 14:02:15.272709+01 | 1486126935.27271 | pgbench_tellers_pkey  |           245760
 2017-02-03 14:02:15.272709+01 | 1486126935.27271 | pgbench_accounts_pkey |       2246197248

 2017-02-03 14:02:16.388319+01 | 1486126936.38832 | pgbench_branches_pkey |            40960
 2017-02-03 14:02:16.388319+01 | 1486126936.38832 | pgbench_tellers_pkey  |           245760
 2017-02-03 14:02:16.388319+01 | 1486126936.38832 | pgbench_accounts_pkey |       2246197248

 2017-02-03 14:02:17.503538+01 | 1486126937.50354 | pgbench_branches_pkey |            40960
 2017-02-03 14:02:17.503538+01 | 1486126937.50354 | pgbench_tellers_pkey  |           245760
 2017-02-03 14:02:17.503538+01 | 1486126937.50354 | pgbench_accounts_pkey |       2246197248

 2017-02-03 14:02:18.632984+01 | 1486126938.63298 | pgbench_branches_pkey |            40960
 2017-02-03 14:02:18.632984+01 | 1486126938.63298 | pgbench_tellers_pkey  |           245760
 2017-02-03 14:02:18.632984+01 | 1486126938.63298 | pgbench_accounts_pkey |       2246197248

 2017-02-03 14:02:19.745692+01 | 1486126939.74569 | pgbench_branches_pkey |            40960
 2017-02-03 14:02:19.745692+01 | 1486126939.74569 | pgbench_tellers_pkey  |           245760
 2017-02-03 14:02:19.745692+01 | 1486126939.74569 | pgbench_accounts_pkey |       2246197248

 2017-02-03 14:02:20.867779+01 | 1486126940.86778 | pgbench_branches_pkey |            40960
 2017-02-03 14:02:20.867779+01 | 1486126940.86778 | pgbench_tellers_pkey  |           245760
 2017-02-03 14:02:20.867779+01 | 1486126940.86778 | pgbench_accounts_pkey |       2246197248

 2017-02-03 14:02:22.012258+01 | 1486126942.01226 | pgbench_branches_pkey |            40960
 2017-02-03 14:02:22.012258+01 | 1486126942.01226 | pgbench_tellers_pkey  |           245760
 2017-02-03 14:02:22.012258+01 | 1486126942.01226 | pgbench_accounts_pkey |       2246197248

 2017-02-03 14:02:23.158869+01 | 1486126943.15887 | pgbench_branches_pkey |            40960
 2017-02-03 14:02:23.158869+01 | 1486126943.15887 | pgbench_tellers_pkey  |           245760
 2017-02-03 14:02:23.158869+01 | 1486126943.15887 | pgbench_accounts_pkey |       2246197248

 2017-02-03 14:02:24.274468+01 | 1486126944.27447 | pgbench_branches_pkey |            40960
 2017-02-03 14:02:24.274468+01 | 1486126944.27447 | pgbench_tellers_pkey  |           245760
 2017-02-03 14:02:24.274468+01 | 1486126944.27447 | pgbench_accounts_pkey |       2246197248

 2017-02-03 14:02:25.41318+01 | 1486126945.41318 | pgbench_branches_pkey |            40960
 2017-02-03 14:02:25.41318+01 | 1486126945.41318 | pgbench_tellers_pkey  |           245760
 2017-02-03 14:02:25.41318+01 | 1486126945.41318 | pgbench_accounts_pkey |       2246197248

 2017-02-03 14:02:26.525294+01 | 1486126946.52529 | pgbench_branches_pkey |            40960
 2017-02-03 14:02:26.525294+01 | 1486126946.52529 | pgbench_tellers_pkey  |           245760
 2017-02-03 14:02:26.525294+01 | 1486126946.52529 | pgbench_accounts_pkey |       2246197248

 2017-02-03 14:02:27.636281+01 | 1486126947.63628 | pgbench_branches_pkey |            40960
 2017-02-03 14:02:27.636281+01 | 1486126947.63628 | pgbench_tellers_pkey  |           245760
 2017-02-03 14:02:27.636281+01 | 1486126947.63628 | pgbench_accounts_pkey |       2246197248

 2017-02-03 14:02:28.780826+01 | 1486126948.78083 | pgbench_branches_pkey |            40960
 2017-02-03 14:02:28.780826+01 | 1486126948.78083 | pgbench_tellers_pkey  |           245760
 2017-02-03 14:02:28.780826+01 | 1486126948.78083 | pgbench_accounts_pkey |       2246197248

 2017-02-03 14:02:29.908562+01 | 1486126949.90856 | pgbench_branches_pkey |            40960
 2017-02-03 14:02:29.908562+01 | 1486126949.90856 | pgbench_tellers_pkey  |           245760
 2017-02-03 14:02:29.908562+01 | 1486126949.90856 | pgbench_accounts_pkey |       2246197248

 2017-02-03 14:02:31.034519+01 | 1486126951.03452 | pgbench_branches_pkey |            40960
 2017-02-03 14:02:31.034519+01 | 1486126951.03452 | pgbench_tellers_pkey  |           245760
 2017-02-03 14:02:31.034519+01 | 1486126951.03452 | pgbench_accounts_pkey |       2246197248

 2017-02-03 14:02:32.167208+01 | 1486126952.16721 | pgbench_branches_pkey |            40960
 2017-02-03 14:02:32.167208+01 | 1486126952.16721 | pgbench_tellers_pkey  |           245760
 2017-02-03 14:02:32.167208+01 | 1486126952.16721 | pgbench_accounts_pkey |       2246197248

 2017-02-03 14:02:33.316613+01 | 1486126953.31661 | pgbench_branches_pkey |            40960
 2017-02-03 14:02:33.316613+01 | 1486126953.31661 | pgbench_tellers_pkey  |           245760
 2017-02-03 14:02:33.316613+01 | 1486126953.31661 | pgbench_accounts_pkey |       2246197248

 2017-02-03 14:02:34.421061+01 | 1486126954.42106 | pgbench_branches_pkey |            40960
 2017-02-03 14:02:34.421061+01 | 1486126954.42106 | pgbench_tellers_pkey  |           245760
 2017-02-03 14:02:34.421061+01 | 1486126954.42106 | pgbench_accounts_pkey |       2246197248

 2017-02-03 14:02:35.575029+01 | 1486126955.57503 | pgbench_branches_pkey |            40960
 2017-02-03 14:02:35.575029+01 | 1486126955.57503 | pgbench_tellers_pkey  |           245760
 2017-02-03 14:02:35.575029+01 | 1486126955.57503 | pgbench_accounts_pkey |       2246197248

 2017-02-03 14:02:36.685789+01 | 1486126956.68579 | pgbench_branches_pkey |            40960
 2017-02-03 14:02:36.685789+01 | 1486126956.68579 | pgbench_tellers_pkey  |           245760
 2017-02-03 14:02:36.685789+01 | 1486126956.68579 | pgbench_accounts_pkey |       2246197248

 2017-02-03 14:02:37.822283+01 | 1486126957.82228 | pgbench_branches_pkey |            40960
 2017-02-03 14:02:37.822283+01 | 1486126957.82228 | pgbench_tellers_pkey  |           245760
 2017-02-03 14:02:37.822283+01 | 1486126957.82228 | pgbench_accounts_pkey |       2246197248

 2017-02-03 14:02:38.932807+01 | 1486126958.93281 | pgbench_branches_pkey |            40960
 2017-02-03 14:02:38.932807+01 | 1486126958.93281 | pgbench_tellers_pkey  |           245760
 2017-02-03 14:02:38.932807+01 | 1486126958.93281 | pgbench_accounts_pkey |       2246197248

 2017-02-03 14:02:40.069764+01 | 1486126960.06976 | pgbench_branches_pkey |            40960
 2017-02-03 14:02:40.069764+01 | 1486126960.06976 | pgbench_tellers_pkey  |           245760
 2017-02-03 14:02:40.069764+01 | 1486126960.06976 | pgbench_accounts_pkey |       2246197248

 2017-02-03 14:02:41.191437+01 | 1486126961.19144 | pgbench_branches_pkey |            40960
 2017-02-03 14:02:41.191437+01 | 1486126961.19144 | pgbench_tellers_pkey  |           245760
 2017-02-03 14:02:41.191437+01 | 1486126961.19144 | pgbench_accounts_pkey |       2246197248

 2017-02-03 14:02:42.351509+01 | 1486126962.35151 | pgbench_branches_pkey |            40960
 2017-02-03 14:02:42.351509+01 | 1486126962.35151 | pgbench_tellers_pkey  |           245760
 2017-02-03 14:02:42.351509+01 | 1486126962.35151 | pgbench_accounts_pkey |       2246197248

 2017-02-03 14:02:43.477253+01 | 1486126963.47725 | pgbench_branches_pkey |            40960
 2017-02-03 14:02:43.477253+01 | 1486126963.47725 | pgbench_tellers_pkey  |           245760
 2017-02-03 14:02:43.477253+01 | 1486126963.47725 | pgbench_accounts_pkey |       2246197248

 2017-02-03 14:02:44.617536+01 | 1486126964.61754 | pgbench_branches_pkey |            40960
 2017-02-03 14:02:44.617536+01 | 1486126964.61754 | pgbench_tellers_pkey  |           245760
 2017-02-03 14:02:44.617536+01 | 1486126964.61754 | pgbench_accounts_pkey |       2246197248

 2017-02-03 14:02:45.763162+01 | 1486126965.76316 | pgbench_branches_pkey |            40960
 2017-02-03 14:02:45.763162+01 | 1486126965.76316 | pgbench_tellers_pkey  |           245760
 2017-02-03 14:02:45.763162+01 | 1486126965.76316 | pgbench_accounts_pkey |       2246197248

 2017-02-03 14:02:46.887958+01 | 1486126966.88796 | pgbench_branches_pkey |            40960
 2017-02-03 14:02:46.887958+01 | 1486126966.88796 | pgbench_tellers_pkey  |           245760
 2017-02-03 14:02:46.887958+01 | 1486126966.88796 | pgbench_accounts_pkey |       2246197248

 2017-02-03 14:02:47.988472+01 | 1486126967.98847 | pgbench_branches_pkey |            40960
 2017-02-03 14:02:47.988472+01 | 1486126967.98847 | pgbench_tellers_pkey  |           245760
 2017-02-03 14:02:47.988472+01 | 1486126967.98847 | pgbench_accounts_pkey |       2246197248

 2017-02-03 14:02:49.133404+01 | 1486126969.1334 | pgbench_branches_pkey |            40960
 2017-02-03 14:02:49.133404+01 | 1486126969.1334 | pgbench_tellers_pkey  |           245760
 2017-02-03 14:02:49.133404+01 | 1486126969.1334 | pgbench_accounts_pkey |       2246197248

 2017-02-03 14:02:50.272535+01 | 1486126970.27254 | pgbench_branches_pkey |            40960
 2017-02-03 14:02:50.272535+01 | 1486126970.27254 | pgbench_tellers_pkey  |           245760
 2017-02-03 14:02:50.272535+01 | 1486126970.27254 | pgbench_accounts_pkey |       2246197248

 2017-02-03 14:02:51.415648+01 | 1486126971.41565 | pgbench_branches_pkey |            40960
 2017-02-03 14:02:51.415648+01 | 1486126971.41565 | pgbench_tellers_pkey  |           245760
 2017-02-03 14:02:51.415648+01 | 1486126971.41565 | pgbench_accounts_pkey |       2246197248

 2017-02-03 14:02:52.55556+01 | 1486126972.55556 | pgbench_branches_pkey |            40960
 2017-02-03 14:02:52.55556+01 | 1486126972.55556 | pgbench_tellers_pkey  |           245760
 2017-02-03 14:02:52.55556+01 | 1486126972.55556 | pgbench_accounts_pkey |       2246197248

 2017-02-03 14:02:53.668173+01 | 1486126973.66817 | pgbench_branches_pkey |            40960
 2017-02-03 14:02:53.668173+01 | 1486126973.66817 | pgbench_tellers_pkey  |           245760
 2017-02-03 14:02:53.668173+01 | 1486126973.66817 | pgbench_accounts_pkey |       2246197248

 2017-02-03 14:02:54.780786+01 | 1486126974.78079 | pgbench_branches_pkey |            40960
 2017-02-03 14:02:54.780786+01 | 1486126974.78079 | pgbench_tellers_pkey  |           245760
 2017-02-03 14:02:54.780786+01 | 1486126974.78079 | pgbench_accounts_pkey |       2246197248

 2017-02-03 14:02:55.893521+01 | 1486126975.89352 | pgbench_branches_pkey |            40960
 2017-02-03 14:02:55.893521+01 | 1486126975.89352 | pgbench_tellers_pkey  |           245760
 2017-02-03 14:02:55.893521+01 | 1486126975.89352 | pgbench_accounts_pkey |       2246197248

 2017-02-03 14:02:57.01067+01 | 1486126977.01067 | pgbench_branches_pkey |            40960
 2017-02-03 14:02:57.01067+01 | 1486126977.01067 | pgbench_tellers_pkey  |           245760
 2017-02-03 14:02:57.01067+01 | 1486126977.01067 | pgbench_accounts_pkey |       2246197248

 2017-02-03 14:02:58.142858+01 | 1486126978.14286 | pgbench_branches_pkey |            40960
 2017-02-03 14:02:58.142858+01 | 1486126978.14286 | pgbench_tellers_pkey  |           245760
 2017-02-03 14:02:58.142858+01 | 1486126978.14286 | pgbench_accounts_pkey |       2246197248

 2017-02-03 14:02:59.255167+01 | 1486126979.25517 | pgbench_branches_pkey |            40960
 2017-02-03 14:02:59.255167+01 | 1486126979.25517 | pgbench_tellers_pkey  |           245760
 2017-02-03 14:02:59.255167+01 | 1486126979.25517 | pgbench_accounts_pkey |       2246197248

 2017-02-03 14:03:00.366899+01 | 1486126980.3669 | pgbench_branches_pkey |            40960
 2017-02-03 14:03:00.366899+01 | 1486126980.3669 | pgbench_tellers_pkey  |           245760
 2017-02-03 14:03:00.366899+01 | 1486126980.3669 | pgbench_accounts_pkey |       2246197248

 2017-02-03 14:03:01.474541+01 | 1486126981.47454 | pgbench_branches_pkey |            40960
 2017-02-03 14:03:01.474541+01 | 1486126981.47454 | pgbench_tellers_pkey  |           245760
 2017-02-03 14:03:01.474541+01 | 1486126981.47454 | pgbench_accounts_pkey |       2246197248

 2017-02-03 14:03:02.618278+01 | 1486126982.61828 | pgbench_branches_pkey |            40960
 2017-02-03 14:03:02.618278+01 | 1486126982.61828 | pgbench_tellers_pkey  |           245760
 2017-02-03 14:03:02.618278+01 | 1486126982.61828 | pgbench_accounts_pkey |       2246197248

 2017-02-03 14:03:03.747951+01 | 1486126983.74795 | pgbench_branches_pkey |            40960
 2017-02-03 14:03:03.747951+01 | 1486126983.74795 | pgbench_tellers_pkey  |           245760
 2017-02-03 14:03:03.747951+01 | 1486126983.74795 | pgbench_accounts_pkey |       2246197248

 2017-02-03 14:03:04.883159+01 | 1486126984.88316 | pgbench_branches_pkey |            40960
 2017-02-03 14:03:04.883159+01 | 1486126984.88316 | pgbench_tellers_pkey  |           245760
 2017-02-03 14:03:04.883159+01 | 1486126984.88316 | pgbench_accounts_pkey |       2246197248

 2017-02-03 14:03:06.006546+01 | 1486126986.00655 | pgbench_branches_pkey |            40960
 2017-02-03 14:03:06.006546+01 | 1486126986.00655 | pgbench_tellers_pkey  |           245760
 2017-02-03 14:03:06.006546+01 | 1486126986.00655 | pgbench_accounts_pkey |       2246197248

 2017-02-03 14:03:07.159549+01 | 1486126987.15955 | pgbench_branches_pkey |            40960
 2017-02-03 14:03:07.159549+01 | 1486126987.15955 | pgbench_tellers_pkey  |           245760
 2017-02-03 14:03:07.159549+01 | 1486126987.15955 | pgbench_accounts_pkey |       2246197248

 2017-02-03 14:03:08.278344+01 | 1486126988.27834 | pgbench_branches_pkey |            40960
 2017-02-03 14:03:08.278344+01 | 1486126988.27834 | pgbench_tellers_pkey  |           245760
 2017-02-03 14:03:08.278344+01 | 1486126988.27834 | pgbench_accounts_pkey |       2246197248

 2017-02-03 14:03:09.387139+01 | 1486126989.38714 | pgbench_branches_pkey |            40960
 2017-02-03 14:03:09.387139+01 | 1486126989.38714 | pgbench_tellers_pkey  |           245760
 2017-02-03 14:03:09.387139+01 | 1486126989.38714 | pgbench_accounts_pkey |       2246197248

 2017-02-03 14:03:10.513059+01 | 1486126990.51306 | pgbench_branches_pkey |            40960
 2017-02-03 14:03:10.513059+01 | 1486126990.51306 | pgbench_tellers_pkey  |           245760
 2017-02-03 14:03:10.513059+01 | 1486126990.51306 | pgbench_accounts_pkey |       2246197248

 2017-02-03 14:03:11.62914+01 | 1486126991.62914 | pgbench_branches_pkey |            40960
 2017-02-03 14:03:11.62914+01 | 1486126991.62914 | pgbench_tellers_pkey  |           245760
 2017-02-03 14:03:11.62914+01 | 1486126991.62914 | pgbench_accounts_pkey |       2246197248

 2017-02-03 14:03:12.783405+01 | 1486126992.78341 | pgbench_branches_pkey |            40960
 2017-02-03 14:03:12.783405+01 | 1486126992.78341 | pgbench_tellers_pkey  |           245760
 2017-02-03 14:03:12.783405+01 | 1486126992.78341 | pgbench_accounts_pkey |       2246197248

 2017-02-03 14:03:13.899802+01 | 1486126993.8998 | pgbench_branches_pkey |            40960
 2017-02-03 14:03:13.899802+01 | 1486126993.8998 | pgbench_tellers_pkey  |           245760
 2017-02-03 14:03:13.899802+01 | 1486126993.8998 | pgbench_accounts_pkey |       2246197248

 2017-02-03 14:03:15.052252+01 | 1486126995.05225 | pgbench_branches_pkey |            40960
 2017-02-03 14:03:15.052252+01 | 1486126995.05225 | pgbench_tellers_pkey  |           245760
 2017-02-03 14:03:15.052252+01 | 1486126995.05225 | pgbench_accounts_pkey |       2246197248

 2017-02-03 14:03:16.158906+01 | 1486126996.15891 | pgbench_branches_pkey |            40960
 2017-02-03 14:03:16.158906+01 | 1486126996.15891 | pgbench_tellers_pkey  |           245760
 2017-02-03 14:03:16.158906+01 | 1486126996.15891 | pgbench_accounts_pkey |       2246197248

 2017-02-03 14:03:17.284575+01 | 1486126997.28457 | pgbench_branches_pkey |            40960
 2017-02-03 14:03:17.284575+01 | 1486126997.28457 | pgbench_tellers_pkey  |           245760
 2017-02-03 14:03:17.284575+01 | 1486126997.28457 | pgbench_accounts_pkey |       2246197248

 2017-02-03 14:03:18.404559+01 | 1486126998.40456 | pgbench_branches_pkey |            40960
 2017-02-03 14:03:18.404559+01 | 1486126998.40456 | pgbench_tellers_pkey  |           245760
 2017-02-03 14:03:18.404559+01 | 1486126998.40456 | pgbench_accounts_pkey |       2246197248

 2017-02-03 14:03:19.544513+01 | 1486126999.54451 | pgbench_branches_pkey |            40960
 2017-02-03 14:03:19.544513+01 | 1486126999.54451 | pgbench_tellers_pkey  |           245760
 2017-02-03 14:03:19.544513+01 | 1486126999.54451 | pgbench_accounts_pkey |       2246197248

 2017-02-03 14:03:20.690206+01 | 1486127000.69021 | pgbench_branches_pkey |            40960
 2017-02-03 14:03:20.690206+01 | 1486127000.69021 | pgbench_tellers_pkey  |           245760
 2017-02-03 14:03:20.690206+01 | 1486127000.69021 | pgbench_accounts_pkey |       2246197248

 2017-02-03 14:03:21.832333+01 | 1486127001.83233 | pgbench_branches_pkey |            40960
 2017-02-03 14:03:21.832333+01 | 1486127001.83233 | pgbench_tellers_pkey  |           245760
 2017-02-03 14:03:21.832333+01 | 1486127001.83233 | pgbench_accounts_pkey |       2246197248

 2017-02-03 14:03:22.965662+01 | 1486127002.96566 | pgbench_branches_pkey |            40960
 2017-02-03 14:03:22.965662+01 | 1486127002.96566 | pgbench_tellers_pkey  |           245760
 2017-02-03 14:03:22.965662+01 | 1486127002.96566 | pgbench_accounts_pkey |       2246197248

 2017-02-03 14:03:24.108939+01 | 1486127004.10894 | pgbench_branches_pkey |            40960
 2017-02-03 14:03:24.108939+01 | 1486127004.10894 | pgbench_tellers_pkey  |           245760
 2017-02-03 14:03:24.108939+01 | 1486127004.10894 | pgbench_accounts_pkey |       2246197248

 2017-02-03 14:03:25.242763+01 | 1486127005.24276 | pgbench_branches_pkey |            40960
 2017-02-03 14:03:25.242763+01 | 1486127005.24276 | pgbench_tellers_pkey  |           245760
 2017-02-03 14:03:25.242763+01 | 1486127005.24276 | pgbench_accounts_pkey |       2246197248

 2017-02-03 14:03:26.363364+01 | 1486127006.36336 | pgbench_branches_pkey |            40960
 2017-02-03 14:03:26.363364+01 | 1486127006.36336 | pgbench_tellers_pkey  |           245760
 2017-02-03 14:03:26.363364+01 | 1486127006.36336 | pgbench_accounts_pkey |       2246197248

 2017-02-03 14:03:27.499315+01 | 1486127007.49932 | pgbench_branches_pkey |            40960
 2017-02-03 14:03:27.499315+01 | 1486127007.49932 | pgbench_tellers_pkey  |           245760
 2017-02-03 14:03:27.499315+01 | 1486127007.49932 | pgbench_accounts_pkey |       2246197248

 2017-02-03 14:03:28.615481+01 | 1486127008.61548 | pgbench_branches_pkey |            40960
 2017-02-03 14:03:28.615481+01 | 1486127008.61548 | pgbench_tellers_pkey  |           245760
 2017-02-03 14:03:28.615481+01 | 1486127008.61548 | pgbench_accounts_pkey |       2246197248

 2017-02-03 14:03:29.745187+01 | 1486127009.74519 | pgbench_branches_pkey |            40960
 2017-02-03 14:03:29.745187+01 | 1486127009.74519 | pgbench_tellers_pkey  |           245760
 2017-02-03 14:03:29.745187+01 | 1486127009.74519 | pgbench_accounts_pkey |       2246197248

 2017-02-03 14:03:30.872607+01 | 1486127010.87261 | pgbench_branches_pkey |            40960
 2017-02-03 14:03:30.872607+01 | 1486127010.87261 | pgbench_tellers_pkey  |           245760
 2017-02-03 14:03:30.872607+01 | 1486127010.87261 | pgbench_accounts_pkey |       2246197248

 2017-02-03 14:03:31.980556+01 | 1486127011.98056 | pgbench_branches_pkey |            40960
 2017-02-03 14:03:31.980556+01 | 1486127011.98056 | pgbench_tellers_pkey  |           245760
 2017-02-03 14:03:31.980556+01 | 1486127011.98056 | pgbench_accounts_pkey |       2246197248

 2017-02-03 14:03:33.109375+01 | 1486127013.10938 | pgbench_branches_pkey |            40960
 2017-02-03 14:03:33.109375+01 | 1486127013.10938 | pgbench_tellers_pkey  |           245760
 2017-02-03 14:03:33.109375+01 | 1486127013.10938 | pgbench_accounts_pkey |       2246197248

 2017-02-03 14:03:34.211012+01 | 1486127014.21101 | pgbench_branches_pkey |            40960
 2017-02-03 14:03:34.211012+01 | 1486127014.21101 | pgbench_tellers_pkey  |           245760
 2017-02-03 14:03:34.211012+01 | 1486127014.21101 | pgbench_accounts_pkey |       2246197248

 2017-02-03 14:03:35.329591+01 | 1486127015.32959 | pgbench_branches_pkey |            40960
 2017-02-03 14:03:35.329591+01 | 1486127015.32959 | pgbench_tellers_pkey  |           245760
 2017-02-03 14:03:35.329591+01 | 1486127015.32959 | pgbench_accounts_pkey |       2246197248

 2017-02-03 14:03:36.463959+01 | 1486127016.46396 | pgbench_branches_pkey |            40960
 2017-02-03 14:03:36.463959+01 | 1486127016.46396 | pgbench_tellers_pkey  |           245760
 2017-02-03 14:03:36.463959+01 | 1486127016.46396 | pgbench_accounts_pkey |       2246197248

 2017-02-03 14:03:37.591423+01 | 1486127017.59142 | pgbench_branches_pkey |            40960
 2017-02-03 14:03:37.591423+01 | 1486127017.59142 | pgbench_tellers_pkey  |           245760
 2017-02-03 14:03:37.591423+01 | 1486127017.59142 | pgbench_accounts_pkey |       2246197248

 2017-02-03 14:03:38.701595+01 | 1486127018.7016 | pgbench_branches_pkey |            40960
 2017-02-03 14:03:38.701595+01 | 1486127018.7016 | pgbench_tellers_pkey  |           245760
 2017-02-03 14:03:38.701595+01 | 1486127018.7016 | pgbench_accounts_pkey |       2246197248

 2017-02-03 14:03:39.824107+01 | 1486127019.82411 | pgbench_branches_pkey |            40960
 2017-02-03 14:03:39.824107+01 | 1486127019.82411 | pgbench_tellers_pkey  |           245760
 2017-02-03 14:03:39.824107+01 | 1486127019.82411 | pgbench_accounts_pkey |       2246197248

 2017-02-03 14:03:40.961112+01 | 1486127020.96111 | pgbench_branches_pkey |            40960
 2017-02-03 14:03:40.961112+01 | 1486127020.96111 | pgbench_tellers_pkey  |           245760
 2017-02-03 14:03:40.961112+01 | 1486127020.96111 | pgbench_accounts_pkey |       2246197248

 2017-02-03 14:03:42.089442+01 | 1486127022.08944 | pgbench_branches_pkey |            40960
 2017-02-03 14:03:42.089442+01 | 1486127022.08944 | pgbench_tellers_pkey  |           245760
 2017-02-03 14:03:42.089442+01 | 1486127022.08944 | pgbench_accounts_pkey |       2246197248

 2017-02-03 14:03:43.205004+01 | 1486127023.205 | pgbench_branches_pkey |            40960
 2017-02-03 14:03:43.205004+01 | 1486127023.205 | pgbench_tellers_pkey  |           245760
 2017-02-03 14:03:43.205004+01 | 1486127023.205 | pgbench_accounts_pkey |       2246197248

 2017-02-03 14:03:44.337349+01 | 1486127024.33735 | pgbench_branches_pkey |            40960
 2017-02-03 14:03:44.337349+01 | 1486127024.33735 | pgbench_tellers_pkey  |           245760
 2017-02-03 14:03:44.337349+01 | 1486127024.33735 | pgbench_accounts_pkey |       2246197248

 2017-02-03 14:03:45.47219+01 | 1486127025.47219 | pgbench_branches_pkey |            40960
 2017-02-03 14:03:45.47219+01 | 1486127025.47219 | pgbench_tellers_pkey  |           245760
 2017-02-03 14:03:45.47219+01 | 1486127025.47219 | pgbench_accounts_pkey |       2246197248

 2017-02-03 14:03:46.595914+01 | 1486127026.59591 | pgbench_branches_pkey |            40960
 2017-02-03 14:03:46.595914+01 | 1486127026.59591 | pgbench_tellers_pkey  |           245760
 2017-02-03 14:03:46.595914+01 | 1486127026.59591 | pgbench_accounts_pkey |       2246197248

 2017-02-03 14:03:47.744211+01 | 1486127027.74421 | pgbench_branches_pkey |            40960
 2017-02-03 14:03:47.744211+01 | 1486127027.74421 | pgbench_tellers_pkey  |           245760
 2017-02-03 14:03:47.744211+01 | 1486127027.74421 | pgbench_accounts_pkey |       2246197248

 2017-02-03 14:03:48.856355+01 | 1486127028.85635 | pgbench_branches_pkey |            40960
 2017-02-03 14:03:48.856355+01 | 1486127028.85635 | pgbench_tellers_pkey  |           245760
 2017-02-03 14:03:48.856355+01 | 1486127028.85635 | pgbench_accounts_pkey |       2246197248

 2017-02-03 14:03:49.97601+01 | 1486127029.97601 | pgbench_branches_pkey |            40960
 2017-02-03 14:03:49.97601+01 | 1486127029.97601 | pgbench_tellers_pkey  |           245760
 2017-02-03 14:03:49.97601+01 | 1486127029.97601 | pgbench_accounts_pkey |       2246197248

 2017-02-03 14:03:51.079682+01 | 1486127031.07968 | pgbench_branches_pkey |            40960
 2017-02-03 14:03:51.079682+01 | 1486127031.07968 | pgbench_tellers_pkey  |           245760
 2017-02-03 14:03:51.079682+01 | 1486127031.07968 | pgbench_accounts_pkey |       2246197248

 2017-02-03 14:03:52.209196+01 | 1486127032.2092 | pgbench_branches_pkey |            40960
 2017-02-03 14:03:52.209196+01 | 1486127032.2092 | pgbench_tellers_pkey  |           245760
 2017-02-03 14:03:52.209196+01 | 1486127032.2092 | pgbench_accounts_pkey |       2246197248

 2017-02-03 14:03:53.352816+01 | 1486127033.35282 | pgbench_branches_pkey |            40960
 2017-02-03 14:03:53.352816+01 | 1486127033.35282 | pgbench_tellers_pkey  |           245760
 2017-02-03 14:03:53.352816+01 | 1486127033.35282 | pgbench_accounts_pkey |       2246197248

 2017-02-03 14:03:54.474796+01 | 1486127034.4748 | pgbench_branches_pkey |            40960
 2017-02-03 14:03:54.474796+01 | 1486127034.4748 | pgbench_tellers_pkey  |           245760
 2017-02-03 14:03:54.474796+01 | 1486127034.4748 | pgbench_accounts_pkey |       2246197248

 2017-02-03 14:03:55.639247+01 | 1486127035.63925 | pgbench_branches_pkey |            40960
 2017-02-03 14:03:55.639247+01 | 1486127035.63925 | pgbench_tellers_pkey  |           245760
 2017-02-03 14:03:55.639247+01 | 1486127035.63925 | pgbench_accounts_pkey |       2246197248

 2017-02-03 14:03:56.765419+01 | 1486127036.76542 | pgbench_branches_pkey |            40960
 2017-02-03 14:03:56.765419+01 | 1486127036.76542 | pgbench_tellers_pkey  |           245760
 2017-02-03 14:03:56.765419+01 | 1486127036.76542 | pgbench_accounts_pkey |       2246197248

 2017-02-03 14:03:57.902288+01 | 1486127037.90229 | pgbench_branches_pkey |            40960
 2017-02-03 14:03:57.902288+01 | 1486127037.90229 | pgbench_tellers_pkey  |           245760
 2017-02-03 14:03:57.902288+01 | 1486127037.90229 | pgbench_accounts_pkey |       2246197248

 2017-02-03 14:03:59.016197+01 | 1486127039.0162 | pgbench_branches_pkey |            40960
 2017-02-03 14:03:59.016197+01 | 1486127039.0162 | pgbench_tellers_pkey  |           245760
 2017-02-03 14:03:59.016197+01 | 1486127039.0162 | pgbench_accounts_pkey |       2246197248

 2017-02-03 14:04:00.124676+01 | 1486127040.12468 | pgbench_branches_pkey |            40960
 2017-02-03 14:04:00.124676+01 | 1486127040.12468 | pgbench_tellers_pkey  |           245760
 2017-02-03 14:04:00.124676+01 | 1486127040.12468 | pgbench_accounts_pkey |       2246197248

 2017-02-03 14:04:01.256745+01 | 1486127041.25675 | pgbench_branches_pkey |            40960
 2017-02-03 14:04:01.256745+01 | 1486127041.25675 | pgbench_tellers_pkey  |           245760
 2017-02-03 14:04:01.256745+01 | 1486127041.25675 | pgbench_accounts_pkey |       2246197248

 2017-02-03 14:04:02.370256+01 | 1486127042.37026 | pgbench_branches_pkey |            40960
 2017-02-03 14:04:02.370256+01 | 1486127042.37026 | pgbench_tellers_pkey  |           245760
 2017-02-03 14:04:02.370256+01 | 1486127042.37026 | pgbench_accounts_pkey |       2246197248

 2017-02-03 14:04:03.538017+01 | 1486127043.53802 | pgbench_branches_pkey |            40960
 2017-02-03 14:04:03.538017+01 | 1486127043.53802 | pgbench_tellers_pkey  |           245760
 2017-02-03 14:04:03.538017+01 | 1486127043.53802 | pgbench_accounts_pkey |       2246197248

 2017-02-03 14:04:04.681749+01 | 1486127044.68175 | pgbench_branches_pkey |            40960
 2017-02-03 14:04:04.681749+01 | 1486127044.68175 | pgbench_tellers_pkey  |           245760
 2017-02-03 14:04:04.681749+01 | 1486127044.68175 | pgbench_accounts_pkey |       2246197248

 2017-02-03 14:04:05.804241+01 | 1486127045.80424 | pgbench_branches_pkey |            40960
 2017-02-03 14:04:05.804241+01 | 1486127045.80424 | pgbench_tellers_pkey  |           245760
 2017-02-03 14:04:05.804241+01 | 1486127045.80424 | pgbench_accounts_pkey |       2246197248

 2017-02-03 14:04:06.976017+01 | 1486127046.97602 | pgbench_branches_pkey |            40960
 2017-02-03 14:04:06.976017+01 | 1486127046.97602 | pgbench_tellers_pkey  |           245760
 2017-02-03 14:04:06.976017+01 | 1486127046.97602 | pgbench_accounts_pkey |       2246197248

 2017-02-03 14:04:08.129666+01 | 1486127048.12967 | pgbench_branches_pkey |            40960
 2017-02-03 14:04:08.129666+01 | 1486127048.12967 | pgbench_tellers_pkey  |           245760
 2017-02-03 14:04:08.129666+01 | 1486127048.12967 | pgbench_accounts_pkey |       2246197248

 2017-02-03 14:04:09.263011+01 | 1486127049.26301 | pgbench_branches_pkey |            40960
 2017-02-03 14:04:09.263011+01 | 1486127049.26301 | pgbench_tellers_pkey  |           245760
 2017-02-03 14:04:09.263011+01 | 1486127049.26301 | pgbench_accounts_pkey |       2246197248

 2017-02-03 14:04:10.395707+01 | 1486127050.39571 | pgbench_branches_pkey |            40960
 2017-02-03 14:04:10.395707+01 | 1486127050.39571 | pgbench_tellers_pkey  |           245760
 2017-02-03 14:04:10.395707+01 | 1486127050.39571 | pgbench_accounts_pkey |       2246197248

 2017-02-03 14:04:11.540658+01 | 1486127051.54066 | pgbench_branches_pkey |            40960
 2017-02-03 14:04:11.540658+01 | 1486127051.54066 | pgbench_tellers_pkey  |           245760
 2017-02-03 14:04:11.540658+01 | 1486127051.54066 | pgbench_accounts_pkey |       2246197248

 2017-02-03 14:04:12.673887+01 | 1486127052.67389 | pgbench_branches_pkey |            40960
 2017-02-03 14:04:12.673887+01 | 1486127052.67389 | pgbench_tellers_pkey  |           245760
 2017-02-03 14:04:12.673887+01 | 1486127052.67389 | pgbench_accounts_pkey |       2246197248

 2017-02-03 14:04:13.785028+01 | 1486127053.78503 | pgbench_branches_pkey |            40960
 2017-02-03 14:04:13.785028+01 | 1486127053.78503 | pgbench_tellers_pkey  |           245760
 2017-02-03 14:04:13.785028+01 | 1486127053.78503 | pgbench_accounts_pkey |       2246197248

 2017-02-03 14:04:14.897895+01 | 1486127054.8979 | pgbench_branches_pkey |            40960
 2017-02-03 14:04:14.897895+01 | 1486127054.8979 | pgbench_tellers_pkey  |           245760
 2017-02-03 14:04:14.897895+01 | 1486127054.8979 | pgbench_accounts_pkey |       2246197248

 2017-02-03 14:04:16.051068+01 | 1486127056.05107 | pgbench_branches_pkey |            40960
 2017-02-03 14:04:16.051068+01 | 1486127056.05107 | pgbench_tellers_pkey  |           245760
 2017-02-03 14:04:16.051068+01 | 1486127056.05107 | pgbench_accounts_pkey |       2246197248

 2017-02-03 14:04:17.203905+01 | 1486127057.20391 | pgbench_branches_pkey |            40960
 2017-02-03 14:04:17.203905+01 | 1486127057.20391 | pgbench_tellers_pkey  |           245760
 2017-02-03 14:04:17.203905+01 | 1486127057.20391 | pgbench_accounts_pkey |       2246197248

 2017-02-03 14:04:18.335799+01 | 1486127058.3358 | pgbench_branches_pkey |            40960
 2017-02-03 14:04:18.335799+01 | 1486127058.3358 | pgbench_tellers_pkey  |           245760
 2017-02-03 14:04:18.335799+01 | 1486127058.3358 | pgbench_accounts_pkey |       2246197248

 2017-02-03 14:04:19.453064+01 | 1486127059.45306 | pgbench_branches_pkey |            40960
 2017-02-03 14:04:19.453064+01 | 1486127059.45306 | pgbench_tellers_pkey  |           245760
 2017-02-03 14:04:19.453064+01 | 1486127059.45306 | pgbench_accounts_pkey |       2246197248

 2017-02-03 14:04:20.578255+01 | 1486127060.57825 | pgbench_branches_pkey |            40960
 2017-02-03 14:04:20.578255+01 | 1486127060.57825 | pgbench_tellers_pkey  |           245760
 2017-02-03 14:04:20.578255+01 | 1486127060.57825 | pgbench_accounts_pkey |       2246197248

 2017-02-03 14:04:21.708883+01 | 1486127061.70888 | pgbench_branches_pkey |            40960
 2017-02-03 14:04:21.708883+01 | 1486127061.70888 | pgbench_tellers_pkey  |           245760
 2017-02-03 14:04:21.708883+01 | 1486127061.70888 | pgbench_accounts_pkey |       2246197248

 2017-02-03 14:04:22.828099+01 | 1486127062.8281 | pgbench_branches_pkey |            40960
 2017-02-03 14:04:22.828099+01 | 1486127062.8281 | pgbench_tellers_pkey  |           245760
 2017-02-03 14:04:22.828099+01 | 1486127062.8281 | pgbench_accounts_pkey |       2246197248

 2017-02-03 14:04:23.952447+01 | 1486127063.95245 | pgbench_branches_pkey |            40960
 2017-02-03 14:04:23.952447+01 | 1486127063.95245 | pgbench_tellers_pkey  |           245760
 2017-02-03 14:04:23.952447+01 | 1486127063.95245 | pgbench_accounts_pkey |       2246197248

 2017-02-03 14:04:25.12555+01 | 1486127065.12555 | pgbench_branches_pkey |            40960
 2017-02-03 14:04:25.12555+01 | 1486127065.12555 | pgbench_tellers_pkey  |           245760
 2017-02-03 14:04:25.12555+01 | 1486127065.12555 | pgbench_accounts_pkey |       2246197248

 2017-02-03 14:04:26.237794+01 | 1486127066.23779 | pgbench_branches_pkey |            40960
 2017-02-03 14:04:26.237794+01 | 1486127066.23779 | pgbench_tellers_pkey  |           245760
 2017-02-03 14:04:26.237794+01 | 1486127066.23779 | pgbench_accounts_pkey |       2246197248

 2017-02-03 14:04:27.359003+01 | 1486127067.359 | pgbench_branches_pkey |            40960
 2017-02-03 14:04:27.359003+01 | 1486127067.359 | pgbench_tellers_pkey  |           245760
 2017-02-03 14:04:27.359003+01 | 1486127067.359 | pgbench_accounts_pkey |       2246197248

 2017-02-03 14:04:28.489578+01 | 1486127068.48958 | pgbench_branches_pkey |            40960
 2017-02-03 14:04:28.489578+01 | 1486127068.48958 | pgbench_tellers_pkey  |           245760
 2017-02-03 14:04:28.489578+01 | 1486127068.48958 | pgbench_accounts_pkey |       2246197248

 2017-02-03 14:04:29.601091+01 | 1486127069.60109 | pgbench_branches_pkey |            40960
 2017-02-03 14:04:29.601091+01 | 1486127069.60109 | pgbench_tellers_pkey  |           245760
 2017-02-03 14:04:29.601091+01 | 1486127069.60109 | pgbench_accounts_pkey |       2246197248

 2017-02-03 14:04:30.695194+01 | 1486127070.69519 | pgbench_branches_pkey |            40960
 2017-02-03 14:04:30.695194+01 | 1486127070.69519 | pgbench_tellers_pkey  |           245760
 2017-02-03 14:04:30.695194+01 | 1486127070.69519 | pgbench_accounts_pkey |       2246197248

 2017-02-03 14:04:31.849289+01 | 1486127071.84929 | pgbench_branches_pkey |            40960
 2017-02-03 14:04:31.849289+01 | 1486127071.84929 | pgbench_tellers_pkey  |           245760
 2017-02-03 14:04:31.849289+01 | 1486127071.84929 | pgbench_accounts_pkey |       2246197248

 2017-02-03 14:04:32.971136+01 | 1486127072.97114 | pgbench_branches_pkey |            40960
 2017-02-03 14:04:32.971136+01 | 1486127072.97114 | pgbench_tellers_pkey  |           245760
 2017-02-03 14:04:32.971136+01 | 1486127072.97114 | pgbench_accounts_pkey |       2246197248

 2017-02-03 14:04:34.095536+01 | 1486127074.09554 | pgbench_branches_pkey |            40960
 2017-02-03 14:04:34.095536+01 | 1486127074.09554 | pgbench_tellers_pkey  |           245760
 2017-02-03 14:04:34.095536+01 | 1486127074.09554 | pgbench_accounts_pkey |       2246197248

 2017-02-03 14:04:35.197964+01 | 1486127075.19796 | pgbench_branches_pkey |            40960
 2017-02-03 14:04:35.197964+01 | 1486127075.19796 | pgbench_tellers_pkey  |           245760
 2017-02-03 14:04:35.197964+01 | 1486127075.19796 | pgbench_accounts_pkey |       2246197248

 2017-02-03 14:04:36.338195+01 | 1486127076.3382 | pgbench_branches_pkey |            40960
 2017-02-03 14:04:36.338195+01 | 1486127076.3382 | pgbench_tellers_pkey  |           245760
 2017-02-03 14:04:36.338195+01 | 1486127076.3382 | pgbench_accounts_pkey |       2246197248

 2017-02-03 14:04:37.453038+01 | 1486127077.45304 | pgbench_branches_pkey |            40960
 2017-02-03 14:04:37.453038+01 | 1486127077.45304 | pgbench_tellers_pkey  |           245760
 2017-02-03 14:04:37.453038+01 | 1486127077.45304 | pgbench_accounts_pkey |       2246197248

 2017-02-03 14:04:38.593702+01 | 1486127078.5937 | pgbench_branches_pkey |            40960
 2017-02-03 14:04:38.593702+01 | 1486127078.5937 | pgbench_tellers_pkey  |           245760
 2017-02-03 14:04:38.593702+01 | 1486127078.5937 | pgbench_accounts_pkey |       2246197248

 2017-02-03 14:04:39.69544+01 | 1486127079.69544 | pgbench_branches_pkey |            40960
 2017-02-03 14:04:39.69544+01 | 1486127079.69544 | pgbench_tellers_pkey  |           245760
 2017-02-03 14:04:39.69544+01 | 1486127079.69544 | pgbench_accounts_pkey |       2246197248

 2017-02-03 14:04:40.835079+01 | 1486127080.83508 | pgbench_branches_pkey |            40960
 2017-02-03 14:04:40.835079+01 | 1486127080.83508 | pgbench_tellers_pkey  |           245760
 2017-02-03 14:04:40.835079+01 | 1486127080.83508 | pgbench_accounts_pkey |       2246197248

 2017-02-03 14:04:41.966999+01 | 1486127081.967 | pgbench_branches_pkey |            40960
 2017-02-03 14:04:41.966999+01 | 1486127081.967 | pgbench_tellers_pkey  |           245760
 2017-02-03 14:04:41.966999+01 | 1486127081.967 | pgbench_accounts_pkey |       2246197248

 2017-02-03 14:04:43.098012+01 | 1486127083.09801 | pgbench_branches_pkey |            40960
 2017-02-03 14:04:43.098012+01 | 1486127083.09801 | pgbench_tellers_pkey  |           245760
 2017-02-03 14:04:43.098012+01 | 1486127083.09801 | pgbench_accounts_pkey |       2246197248

 2017-02-03 14:04:44.242484+01 | 1486127084.24248 | pgbench_branches_pkey |            40960
 2017-02-03 14:04:44.242484+01 | 1486127084.24248 | pgbench_tellers_pkey  |           245760
 2017-02-03 14:04:44.242484+01 | 1486127084.24248 | pgbench_accounts_pkey |       2246197248

 2017-02-03 14:04:45.374221+01 | 1486127085.37422 | pgbench_branches_pkey |            40960
 2017-02-03 14:04:45.374221+01 | 1486127085.37422 | pgbench_tellers_pkey  |           245760
 2017-02-03 14:04:45.374221+01 | 1486127085.37422 | pgbench_accounts_pkey |       2246197248

 2017-02-03 14:04:46.528418+01 | 1486127086.52842 | pgbench_branches_pkey |            40960
 2017-02-03 14:04:46.528418+01 | 1486127086.52842 | pgbench_tellers_pkey  |           245760
 2017-02-03 14:04:46.528418+01 | 1486127086.52842 | pgbench_accounts_pkey |       2246197248

 2017-02-03 14:04:47.646426+01 | 1486127087.64643 | pgbench_branches_pkey |            40960
 2017-02-03 14:04:47.646426+01 | 1486127087.64643 | pgbench_tellers_pkey  |           245760
 2017-02-03 14:04:47.646426+01 | 1486127087.64643 | pgbench_accounts_pkey |       2246197248

 2017-02-03 14:04:48.772427+01 | 1486127088.77243 | pgbench_branches_pkey |            40960
 2017-02-03 14:04:48.772427+01 | 1486127088.77243 | pgbench_tellers_pkey  |           245760
 2017-02-03 14:04:48.772427+01 | 1486127088.77243 | pgbench_accounts_pkey |       2246197248

 2017-02-03 14:04:49.939337+01 | 1486127089.93934 | pgbench_branches_pkey |            40960
 2017-02-03 14:04:49.939337+01 | 1486127089.93934 | pgbench_tellers_pkey  |           245760
 2017-02-03 14:04:49.939337+01 | 1486127089.93934 | pgbench_accounts_pkey |       2246197248

 2017-02-03 14:04:51.058954+01 | 1486127091.05895 | pgbench_branches_pkey |            40960
 2017-02-03 14:04:51.058954+01 | 1486127091.05895 | pgbench_tellers_pkey  |           245760
 2017-02-03 14:04:51.058954+01 | 1486127091.05895 | pgbench_accounts_pkey |       2246197248

 2017-02-03 14:04:52.189874+01 | 1486127092.18987 | pgbench_branches_pkey |            40960
 2017-02-03 14:04:52.189874+01 | 1486127092.18987 | pgbench_tellers_pkey  |           245760
 2017-02-03 14:04:52.189874+01 | 1486127092.18987 | pgbench_accounts_pkey |       2246197248

 2017-02-03 14:04:53.315926+01 | 1486127093.31593 | pgbench_branches_pkey |            40960
 2017-02-03 14:04:53.315926+01 | 1486127093.31593 | pgbench_tellers_pkey  |           245760
 2017-02-03 14:04:53.315926+01 | 1486127093.31593 | pgbench_accounts_pkey |       2246197248

 2017-02-03 14:04:54.444646+01 | 1486127094.44465 | pgbench_branches_pkey |            40960
 2017-02-03 14:04:54.444646+01 | 1486127094.44465 | pgbench_tellers_pkey  |           245760
 2017-02-03 14:04:54.444646+01 | 1486127094.44465 | pgbench_accounts_pkey |       2246197248

 2017-02-03 14:04:55.579798+01 | 1486127095.5798 | pgbench_branches_pkey |            40960
 2017-02-03 14:04:55.579798+01 | 1486127095.5798 | pgbench_tellers_pkey  |           245760
 2017-02-03 14:04:55.579798+01 | 1486127095.5798 | pgbench_accounts_pkey |       2246197248

 2017-02-03 14:04:56.729519+01 | 1486127096.72952 | pgbench_branches_pkey |            40960
 2017-02-03 14:04:56.729519+01 | 1486127096.72952 | pgbench_tellers_pkey  |           245760
 2017-02-03 14:04:56.729519+01 | 1486127096.72952 | pgbench_accounts_pkey |       2246197248

 2017-02-03 14:04:57.849463+01 | 1486127097.84946 | pgbench_branches_pkey |            40960
 2017-02-03 14:04:57.849463+01 | 1486127097.84946 | pgbench_tellers_pkey  |           245760
 2017-02-03 14:04:57.849463+01 | 1486127097.84946 | pgbench_accounts_pkey |       2246197248

 2017-02-03 14:04:58.977086+01 | 1486127098.97709 | pgbench_branches_pkey |            40960
 2017-02-03 14:04:58.977086+01 | 1486127098.97709 | pgbench_tellers_pkey  |           245760
 2017-02-03 14:04:58.977086+01 | 1486127098.97709 | pgbench_accounts_pkey |       2246197248

 2017-02-03 14:05:00.113081+01 | 1486127100.11308 | pgbench_branches_pkey |            40960
 2017-02-03 14:05:00.113081+01 | 1486127100.11308 | pgbench_tellers_pkey  |           245760
 2017-02-03 14:05:00.113081+01 | 1486127100.11308 | pgbench_accounts_pkey |       2246197248

 2017-02-03 14:05:01.222452+01 | 1486127101.22245 | pgbench_branches_pkey |            40960
 2017-02-03 14:05:01.222452+01 | 1486127101.22245 | pgbench_tellers_pkey  |           245760
 2017-02-03 14:05:01.222452+01 | 1486127101.22245 | pgbench_accounts_pkey |       2246197248

 2017-02-03 14:05:02.33914+01 | 1486127102.33914 | pgbench_branches_pkey |            40960
 2017-02-03 14:05:02.33914+01 | 1486127102.33914 | pgbench_tellers_pkey  |           245760
 2017-02-03 14:05:02.33914+01 | 1486127102.33914 | pgbench_accounts_pkey |       2246197248

 2017-02-03 14:05:03.483956+01 | 1486127103.48396 | pgbench_branches_pkey |            40960
 2017-02-03 14:05:03.483956+01 | 1486127103.48396 | pgbench_tellers_pkey  |           245760
 2017-02-03 14:05:03.483956+01 | 1486127103.48396 | pgbench_accounts_pkey |       2246197248

 2017-02-03 14:05:04.616454+01 | 1486127104.61645 | pgbench_branches_pkey |            40960
 2017-02-03 14:05:04.616454+01 | 1486127104.61645 | pgbench_tellers_pkey  |           245760
 2017-02-03 14:05:04.616454+01 | 1486127104.61645 | pgbench_accounts_pkey |       2246197248

 2017-02-03 14:05:05.762281+01 | 1486127105.76228 | pgbench_branches_pkey |            40960
 2017-02-03 14:05:05.762281+01 | 1486127105.76228 | pgbench_tellers_pkey  |           245760
 2017-02-03 14:05:05.762281+01 | 1486127105.76228 | pgbench_accounts_pkey |       2246197248

 2017-02-03 14:05:06.915587+01 | 1486127106.91559 | pgbench_branches_pkey |            40960
 2017-02-03 14:05:06.915587+01 | 1486127106.91559 | pgbench_tellers_pkey  |           245760
 2017-02-03 14:05:06.915587+01 | 1486127106.91559 | pgbench_accounts_pkey |       2246197248

 2017-02-03 14:05:08.061314+01 | 1486127108.06131 | pgbench_branches_pkey |            40960
 2017-02-03 14:05:08.061314+01 | 1486127108.06131 | pgbench_tellers_pkey  |           245760
 2017-02-03 14:05:08.061314+01 | 1486127108.06131 | pgbench_accounts_pkey |       2246197248

 2017-02-03 14:05:09.187917+01 | 1486127109.18792 | pgbench_branches_pkey |            40960
 2017-02-03 14:05:09.187917+01 | 1486127109.18792 | pgbench_tellers_pkey  |           245760
 2017-02-03 14:05:09.187917+01 | 1486127109.18792 | pgbench_accounts_pkey |       2246197248

 2017-02-03 14:05:10.322137+01 | 1486127110.32214 | pgbench_branches_pkey |            40960
 2017-02-03 14:05:10.322137+01 | 1486127110.32214 | pgbench_tellers_pkey  |           245760
 2017-02-03 14:05:10.322137+01 | 1486127110.32214 | pgbench_accounts_pkey |       2246197248

 2017-02-03 14:05:11.443983+01 | 1486127111.44398 | pgbench_branches_pkey |            40960
 2017-02-03 14:05:11.443983+01 | 1486127111.44398 | pgbench_tellers_pkey  |           245760
 2017-02-03 14:05:11.443983+01 | 1486127111.44398 | pgbench_accounts_pkey |       2246197248

 2017-02-03 14:05:12.56186+01 | 1486127112.56186 | pgbench_branches_pkey |            40960
 2017-02-03 14:05:12.56186+01 | 1486127112.56186 | pgbench_tellers_pkey  |           245760
 2017-02-03 14:05:12.56186+01 | 1486127112.56186 | pgbench_accounts_pkey |       2246197248

 2017-02-03 14:05:13.696877+01 | 1486127113.69688 | pgbench_branches_pkey |            40960
 2017-02-03 14:05:13.696877+01 | 1486127113.69688 | pgbench_tellers_pkey  |           245760
 2017-02-03 14:05:13.696877+01 | 1486127113.69688 | pgbench_accounts_pkey |       2246197248

 2017-02-03 14:05:14.859744+01 | 1486127114.85974 | pgbench_branches_pkey |            40960
 2017-02-03 14:05:14.859744+01 | 1486127114.85974 | pgbench_tellers_pkey  |           245760
 2017-02-03 14:05:14.859744+01 | 1486127114.85974 | pgbench_accounts_pkey |       2246197248

 2017-02-03 14:05:15.990889+01 | 1486127115.99089 | pgbench_branches_pkey |            40960
 2017-02-03 14:05:15.990889+01 | 1486127115.99089 | pgbench_tellers_pkey  |           245760
 2017-02-03 14:05:15.990889+01 | 1486127115.99089 | pgbench_accounts_pkey |       2246197248

 2017-02-03 14:05:17.106484+01 | 1486127117.10648 | pgbench_branches_pkey |            40960
 2017-02-03 14:05:17.106484+01 | 1486127117.10648 | pgbench_tellers_pkey  |           245760
 2017-02-03 14:05:17.106484+01 | 1486127117.10648 | pgbench_accounts_pkey |       2246197248

 2017-02-03 14:05:18.23053+01 | 1486127118.23053 | pgbench_branches_pkey |            40960
 2017-02-03 14:05:18.23053+01 | 1486127118.23053 | pgbench_tellers_pkey  |           245760
 2017-02-03 14:05:18.23053+01 | 1486127118.23053 | pgbench_accounts_pkey |       2246197248

 2017-02-03 14:05:19.35763+01 | 1486127119.35763 | pgbench_branches_pkey |            40960
 2017-02-03 14:05:19.35763+01 | 1486127119.35763 | pgbench_tellers_pkey  |           245760
 2017-02-03 14:05:19.35763+01 | 1486127119.35763 | pgbench_accounts_pkey |       2246197248

 2017-02-03 14:05:20.477467+01 | 1486127120.47747 | pgbench_branches_pkey |            40960
 2017-02-03 14:05:20.477467+01 | 1486127120.47747 | pgbench_tellers_pkey  |           245760
 2017-02-03 14:05:20.477467+01 | 1486127120.47747 | pgbench_accounts_pkey |       2246197248

 2017-02-03 14:05:21.610946+01 | 1486127121.61095 | pgbench_branches_pkey |            40960
 2017-02-03 14:05:21.610946+01 | 1486127121.61095 | pgbench_tellers_pkey  |           245760
 2017-02-03 14:05:21.610946+01 | 1486127121.61095 | pgbench_accounts_pkey |       2246197248

 2017-02-03 14:05:22.734144+01 | 1486127122.73414 | pgbench_branches_pkey |            40960
 2017-02-03 14:05:22.734144+01 | 1486127122.73414 | pgbench_tellers_pkey  |           245760
 2017-02-03 14:05:22.734144+01 | 1486127122.73414 | pgbench_accounts_pkey |       2246197248

 2017-02-03 14:05:23.884521+01 | 1486127123.88452 | pgbench_branches_pkey |            40960
 2017-02-03 14:05:23.884521+01 | 1486127123.88452 | pgbench_tellers_pkey  |           245760
 2017-02-03 14:05:23.884521+01 | 1486127123.88452 | pgbench_accounts_pkey |       2246197248

 2017-02-03 14:05:25.015834+01 | 1486127125.01583 | pgbench_branches_pkey |            40960
 2017-02-03 14:05:25.015834+01 | 1486127125.01583 | pgbench_tellers_pkey  |           245760
 2017-02-03 14:05:25.015834+01 | 1486127125.01583 | pgbench_accounts_pkey |       2246197248

 2017-02-03 14:05:26.141272+01 | 1486127126.14127 | pgbench_branches_pkey |            40960
 2017-02-03 14:05:26.141272+01 | 1486127126.14127 | pgbench_tellers_pkey  |           245760
 2017-02-03 14:05:26.141272+01 | 1486127126.14127 | pgbench_accounts_pkey |       2246197248

 2017-02-03 14:05:27.296339+01 | 1486127127.29634 | pgbench_branches_pkey |            40960
 2017-02-03 14:05:27.296339+01 | 1486127127.29634 | pgbench_tellers_pkey  |           245760
 2017-02-03 14:05:27.296339+01 | 1486127127.29634 | pgbench_accounts_pkey |       2246197248

 2017-02-03 14:05:28.448949+01 | 1486127128.44895 | pgbench_branches_pkey |            40960
 2017-02-03 14:05:28.448949+01 | 1486127128.44895 | pgbench_tellers_pkey  |           245760
 2017-02-03 14:05:28.448949+01 | 1486127128.44895 | pgbench_accounts_pkey |       2246197248

 2017-02-03 14:05:29.561632+01 | 1486127129.56163 | pgbench_branches_pkey |            40960
 2017-02-03 14:05:29.561632+01 | 1486127129.56163 | pgbench_tellers_pkey  |           245760
 2017-02-03 14:05:29.561632+01 | 1486127129.56163 | pgbench_accounts_pkey |       2246197248

 2017-02-03 14:05:30.704147+01 | 1486127130.70415 | pgbench_branches_pkey |            40960
 2017-02-03 14:05:30.704147+01 | 1486127130.70415 | pgbench_tellers_pkey  |           245760
 2017-02-03 14:05:30.704147+01 | 1486127130.70415 | pgbench_accounts_pkey |       2246197248

 2017-02-03 14:05:31.83317+01 | 1486127131.83317 | pgbench_branches_pkey |            40960
 2017-02-03 14:05:31.83317+01 | 1486127131.83317 | pgbench_tellers_pkey  |           245760
 2017-02-03 14:05:31.83317+01 | 1486127131.83317 | pgbench_accounts_pkey |       2246197248

 2017-02-03 14:05:32.944991+01 | 1486127132.94499 | pgbench_branches_pkey |            40960
 2017-02-03 14:05:32.944991+01 | 1486127132.94499 | pgbench_tellers_pkey  |           245760
 2017-02-03 14:05:32.944991+01 | 1486127132.94499 | pgbench_accounts_pkey |       2246197248

 2017-02-03 14:05:34.070539+01 | 1486127134.07054 | pgbench_branches_pkey |            40960
 2017-02-03 14:05:34.070539+01 | 1486127134.07054 | pgbench_tellers_pkey  |           245760
 2017-02-03 14:05:34.070539+01 | 1486127134.07054 | pgbench_accounts_pkey |       2246197248

 2017-02-03 14:05:35.219522+01 | 1486127135.21952 | pgbench_branches_pkey |            40960
 2017-02-03 14:05:35.219522+01 | 1486127135.21952 | pgbench_tellers_pkey  |           245760
 2017-02-03 14:05:35.219522+01 | 1486127135.21952 | pgbench_accounts_pkey |       2246197248

 2017-02-03 14:05:36.336027+01 | 1486127136.33603 | pgbench_branches_pkey |            40960
 2017-02-03 14:05:36.336027+01 | 1486127136.33603 | pgbench_tellers_pkey  |           245760
 2017-02-03 14:05:36.336027+01 | 1486127136.33603 | pgbench_accounts_pkey |       2246197248

 2017-02-03 14:05:37.473731+01 | 1486127137.47373 | pgbench_branches_pkey |            40960
 2017-02-03 14:05:37.473731+01 | 1486127137.47373 | pgbench_tellers_pkey  |           245760
 2017-02-03 14:05:37.473731+01 | 1486127137.47373 | pgbench_accounts_pkey |       2246197248

 2017-02-03 14:05:38.632851+01 | 1486127138.63285 | pgbench_branches_pkey |            40960
 2017-02-03 14:05:38.632851+01 | 1486127138.63285 | pgbench_tellers_pkey  |           245760
 2017-02-03 14:05:38.632851+01 | 1486127138.63285 | pgbench_accounts_pkey |       2246197248

 2017-02-03 14:05:39.769649+01 | 1486127139.76965 | pgbench_branches_pkey |            40960
 2017-02-03 14:05:39.769649+01 | 1486127139.76965 | pgbench_tellers_pkey  |           245760
 2017-02-03 14:05:39.769649+01 | 1486127139.76965 | pgbench_accounts_pkey |       2246197248

 2017-02-03 14:05:40.893632+01 | 1486127140.89363 | pgbench_branches_pkey |            40960
 2017-02-03 14:05:40.893632+01 | 1486127140.89363 | pgbench_tellers_pkey  |           245760
 2017-02-03 14:05:40.893632+01 | 1486127140.89363 | pgbench_accounts_pkey |       2246197248

 2017-02-03 14:05:42.033896+01 | 1486127142.0339 | pgbench_branches_pkey |            40960
 2017-02-03 14:05:42.033896+01 | 1486127142.0339 | pgbench_tellers_pkey  |           245760
 2017-02-03 14:05:42.033896+01 | 1486127142.0339 | pgbench_accounts_pkey |       2246197248

 2017-02-03 14:05:43.175534+01 | 1486127143.17553 | pgbench_branches_pkey |            40960
 2017-02-03 14:05:43.175534+01 | 1486127143.17553 | pgbench_tellers_pkey  |           245760
 2017-02-03 14:05:43.175534+01 | 1486127143.17553 | pgbench_accounts_pkey |       2246197248

 2017-02-03 14:05:44.308374+01 | 1486127144.30837 | pgbench_branches_pkey |            40960
 2017-02-03 14:05:44.308374+01 | 1486127144.30837 | pgbench_tellers_pkey  |           245760
 2017-02-03 14:05:44.308374+01 | 1486127144.30837 | pgbench_accounts_pkey |       2246197248

 2017-02-03 14:05:45.417214+01 | 1486127145.41721 | pgbench_branches_pkey |            40960
 2017-02-03 14:05:45.417214+01 | 1486127145.41721 | pgbench_tellers_pkey  |           245760
 2017-02-03 14:05:45.417214+01 | 1486127145.41721 | pgbench_accounts_pkey |       2246197248

 2017-02-03 14:05:46.532318+01 | 1486127146.53232 | pgbench_branches_pkey |            40960
 2017-02-03 14:05:46.532318+01 | 1486127146.53232 | pgbench_tellers_pkey  |           245760
 2017-02-03 14:05:46.532318+01 | 1486127146.53232 | pgbench_accounts_pkey |       2246197248

 2017-02-03 14:05:47.671564+01 | 1486127147.67156 | pgbench_branches_pkey |            40960
 2017-02-03 14:05:47.671564+01 | 1486127147.67156 | pgbench_tellers_pkey  |           245760
 2017-02-03 14:05:47.671564+01 | 1486127147.67156 | pgbench_accounts_pkey |       2246197248

 2017-02-03 14:05:48.793482+01 | 1486127148.79348 | pgbench_branches_pkey |            40960
 2017-02-03 14:05:48.793482+01 | 1486127148.79348 | pgbench_tellers_pkey  |           245760
 2017-02-03 14:05:48.793482+01 | 1486127148.79348 | pgbench_accounts_pkey |       2246197248

 2017-02-03 14:05:49.904205+01 | 1486127149.90421 | pgbench_branches_pkey |            40960
 2017-02-03 14:05:49.904205+01 | 1486127149.90421 | pgbench_tellers_pkey  |           245760
 2017-02-03 14:05:49.904205+01 | 1486127149.90421 | pgbench_accounts_pkey |       2246197248

 2017-02-03 14:05:51.021607+01 | 1486127151.02161 | pgbench_branches_pkey |            40960
 2017-02-03 14:05:51.021607+01 | 1486127151.02161 | pgbench_tellers_pkey  |           245760
 2017-02-03 14:05:51.021607+01 | 1486127151.02161 | pgbench_accounts_pkey |       2246197248

 2017-02-03 14:05:52.15765+01 | 1486127152.15765 | pgbench_branches_pkey |            40960
 2017-02-03 14:05:52.15765+01 | 1486127152.15765 | pgbench_tellers_pkey  |           245760
 2017-02-03 14:05:52.15765+01 | 1486127152.15765 | pgbench_accounts_pkey |       2246197248

 2017-02-03 14:05:53.296984+01 | 1486127153.29698 | pgbench_branches_pkey |            40960
 2017-02-03 14:05:53.296984+01 | 1486127153.29698 | pgbench_tellers_pkey  |           245760
 2017-02-03 14:05:53.296984+01 | 1486127153.29698 | pgbench_accounts_pkey |       2246197248

 2017-02-03 14:05:54.417268+01 | 1486127154.41727 | pgbench_branches_pkey |            40960
 2017-02-03 14:05:54.417268+01 | 1486127154.41727 | pgbench_tellers_pkey  |           245760
 2017-02-03 14:05:54.417268+01 | 1486127154.41727 | pgbench_accounts_pkey |       2246197248

 2017-02-03 14:05:55.531284+01 | 1486127155.53128 | pgbench_branches_pkey |            40960
 2017-02-03 14:05:55.531284+01 | 1486127155.53128 | pgbench_tellers_pkey  |           245760
 2017-02-03 14:05:55.531284+01 | 1486127155.53128 | pgbench_accounts_pkey |       2246197248

 2017-02-03 14:05:56.666036+01 | 1486127156.66604 | pgbench_branches_pkey |            40960
 2017-02-03 14:05:56.666036+01 | 1486127156.66604 | pgbench_tellers_pkey  |           245760
 2017-02-03 14:05:56.666036+01 | 1486127156.66604 | pgbench_accounts_pkey |       2246197248

 2017-02-03 14:05:57.807342+01 | 1486127157.80734 | pgbench_branches_pkey |            40960
 2017-02-03 14:05:57.807342+01 | 1486127157.80734 | pgbench_tellers_pkey  |           245760
 2017-02-03 14:05:57.807342+01 | 1486127157.80734 | pgbench_accounts_pkey |       2246197248

 2017-02-03 14:05:58.931066+01 | 1486127158.93107 | pgbench_branches_pkey |            40960
 2017-02-03 14:05:58.931066+01 | 1486127158.93107 | pgbench_tellers_pkey  |           245760
 2017-02-03 14:05:58.931066+01 | 1486127158.93107 | pgbench_accounts_pkey |       2246197248

 2017-02-03 14:06:00.071888+01 | 1486127160.07189 | pgbench_branches_pkey |            40960
 2017-02-03 14:06:00.071888+01 | 1486127160.07189 | pgbench_tellers_pkey  |           245760
 2017-02-03 14:06:00.071888+01 | 1486127160.07189 | pgbench_accounts_pkey |       2246197248

 2017-02-03 14:06:01.186608+01 | 1486127161.18661 | pgbench_branches_pkey |            40960
 2017-02-03 14:06:01.186608+01 | 1486127161.18661 | pgbench_tellers_pkey  |           245760
 2017-02-03 14:06:01.186608+01 | 1486127161.18661 | pgbench_accounts_pkey |       2246197248

 2017-02-03 14:06:02.34659+01 | 1486127162.34659 | pgbench_branches_pkey |            40960
 2017-02-03 14:06:02.34659+01 | 1486127162.34659 | pgbench_tellers_pkey  |           245760
 2017-02-03 14:06:02.34659+01 | 1486127162.34659 | pgbench_accounts_pkey |       2246197248

 2017-02-03 14:06:03.442536+01 | 1486127163.44254 | pgbench_branches_pkey |            40960
 2017-02-03 14:06:03.442536+01 | 1486127163.44254 | pgbench_tellers_pkey  |           245760
 2017-02-03 14:06:03.442536+01 | 1486127163.44254 | pgbench_accounts_pkey |       2246197248

 2017-02-03 14:06:04.541516+01 | 1486127164.54152 | pgbench_branches_pkey |            40960
 2017-02-03 14:06:04.541516+01 | 1486127164.54152 | pgbench_tellers_pkey  |           245760
 2017-02-03 14:06:04.541516+01 | 1486127164.54152 | pgbench_accounts_pkey |       2246197248

 2017-02-03 14:06:05.659616+01 | 1486127165.65962 | pgbench_branches_pkey |            40960
 2017-02-03 14:06:05.659616+01 | 1486127165.65962 | pgbench_tellers_pkey  |           245760
 2017-02-03 14:06:05.659616+01 | 1486127165.65962 | pgbench_accounts_pkey |       2246197248

 2017-02-03 14:06:06.773351+01 | 1486127166.77335 | pgbench_branches_pkey |            40960
 2017-02-03 14:06:06.773351+01 | 1486127166.77335 | pgbench_tellers_pkey  |           245760
 2017-02-03 14:06:06.773351+01 | 1486127166.77335 | pgbench_accounts_pkey |       2246197248

 2017-02-03 14:06:07.901732+01 | 1486127167.90173 | pgbench_branches_pkey |            40960
 2017-02-03 14:06:07.901732+01 | 1486127167.90173 | pgbench_tellers_pkey  |           245760
 2017-02-03 14:06:07.901732+01 | 1486127167.90173 | pgbench_accounts_pkey |       2246197248

 2017-02-03 14:06:09.015296+01 | 1486127169.0153 | pgbench_branches_pkey |            40960
 2017-02-03 14:06:09.015296+01 | 1486127169.0153 | pgbench_tellers_pkey  |           245760
 2017-02-03 14:06:09.015296+01 | 1486127169.0153 | pgbench_accounts_pkey |       2246197248

 2017-02-03 14:06:10.161541+01 | 1486127170.16154 | pgbench_branches_pkey |            40960
 2017-02-03 14:06:10.161541+01 | 1486127170.16154 | pgbench_tellers_pkey  |           245760
 2017-02-03 14:06:10.161541+01 | 1486127170.16154 | pgbench_accounts_pkey |       2246197248

 2017-02-03 14:06:11.286586+01 | 1486127171.28659 | pgbench_branches_pkey |            40960
 2017-02-03 14:06:11.286586+01 | 1486127171.28659 | pgbench_tellers_pkey  |           245760
 2017-02-03 14:06:11.286586+01 | 1486127171.28659 | pgbench_accounts_pkey |       2246197248

 2017-02-03 14:06:12.419159+01 | 1486127172.41916 | pgbench_branches_pkey |            40960
 2017-02-03 14:06:12.419159+01 | 1486127172.41916 | pgbench_tellers_pkey  |           245760
 2017-02-03 14:06:12.419159+01 | 1486127172.41916 | pgbench_accounts_pkey |       2246197248

 2017-02-03 14:06:13.554718+01 | 1486127173.55472 | pgbench_branches_pkey |            40960
 2017-02-03 14:06:13.554718+01 | 1486127173.55472 | pgbench_tellers_pkey  |           245760
 2017-02-03 14:06:13.554718+01 | 1486127173.55472 | pgbench_accounts_pkey |       2246197248

 2017-02-03 14:06:14.683194+01 | 1486127174.68319 | pgbench_branches_pkey |            40960
 2017-02-03 14:06:14.683194+01 | 1486127174.68319 | pgbench_tellers_pkey  |           245760
 2017-02-03 14:06:14.683194+01 | 1486127174.68319 | pgbench_accounts_pkey |       2246197248

 2017-02-03 14:06:15.816053+01 | 1486127175.81605 | pgbench_branches_pkey |            40960
 2017-02-03 14:06:15.816053+01 | 1486127175.81605 | pgbench_tellers_pkey  |           245760
 2017-02-03 14:06:15.816053+01 | 1486127175.81605 | pgbench_accounts_pkey |       2246197248

 2017-02-03 14:06:16.927902+01 | 1486127176.9279 | pgbench_branches_pkey |            40960
 2017-02-03 14:06:16.927902+01 | 1486127176.9279 | pgbench_tellers_pkey  |           245760
 2017-02-03 14:06:16.927902+01 | 1486127176.9279 | pgbench_accounts_pkey |       2246197248

 2017-02-03 14:06:18.068171+01 | 1486127178.06817 | pgbench_branches_pkey |            40960
 2017-02-03 14:06:18.068171+01 | 1486127178.06817 | pgbench_tellers_pkey  |           245760
 2017-02-03 14:06:18.068171+01 | 1486127178.06817 | pgbench_accounts_pkey |       2246197248

 2017-02-03 14:06:19.216693+01 | 1486127179.21669 | pgbench_branches_pkey |            40960
 2017-02-03 14:06:19.216693+01 | 1486127179.21669 | pgbench_tellers_pkey  |           245760
 2017-02-03 14:06:19.216693+01 | 1486127179.21669 | pgbench_accounts_pkey |       2246197248

 2017-02-03 14:06:20.344892+01 | 1486127180.34489 | pgbench_branches_pkey |            40960
 2017-02-03 14:06:20.344892+01 | 1486127180.34489 | pgbench_tellers_pkey  |           245760
 2017-02-03 14:06:20.344892+01 | 1486127180.34489 | pgbench_accounts_pkey |       2246197248

 2017-02-03 14:06:21.473958+01 | 1486127181.47396 | pgbench_branches_pkey |            40960
 2017-02-03 14:06:21.473958+01 | 1486127181.47396 | pgbench_tellers_pkey  |           245760
 2017-02-03 14:06:21.473958+01 | 1486127181.47396 | pgbench_accounts_pkey |       2246197248

 2017-02-03 14:06:22.59669+01 | 1486127182.59669 | pgbench_branches_pkey |            40960
 2017-02-03 14:06:22.59669+01 | 1486127182.59669 | pgbench_tellers_pkey  |           245760
 2017-02-03 14:06:22.59669+01 | 1486127182.59669 | pgbench_accounts_pkey |       2246197248

 2017-02-03 14:06:23.737605+01 | 1486127183.73761 | pgbench_branches_pkey |            40960
 2017-02-03 14:06:23.737605+01 | 1486127183.73761 | pgbench_tellers_pkey  |           245760
 2017-02-03 14:06:23.737605+01 | 1486127183.73761 | pgbench_accounts_pkey |       2246197248

 2017-02-03 14:06:24.856523+01 | 1486127184.85652 | pgbench_branches_pkey |            40960
 2017-02-03 14:06:24.856523+01 | 1486127184.85652 | pgbench_tellers_pkey  |           245760
 2017-02-03 14:06:24.856523+01 | 1486127184.85652 | pgbench_accounts_pkey |       2246197248

 2017-02-03 14:06:25.970945+01 | 1486127185.97094 | pgbench_branches_pkey |            40960
 2017-02-03 14:06:25.970945+01 | 1486127185.97094 | pgbench_tellers_pkey  |           245760
 2017-02-03 14:06:25.970945+01 | 1486127185.97094 | pgbench_accounts_pkey |       2246197248

 2017-02-03 14:06:27.104599+01 | 1486127187.1046 | pgbench_branches_pkey |            40960
 2017-02-03 14:06:27.104599+01 | 1486127187.1046 | pgbench_tellers_pkey  |           245760
 2017-02-03 14:06:27.104599+01 | 1486127187.1046 | pgbench_accounts_pkey |       2246197248

