 2017-02-05 20:09:08.39137+01 | 1486321748.39137 |                 0 |              23 |                234124 |                 4461 |           20208168 |       2167420 |            20454 |        13490794 |                     0 |       9091206 | 2017-02-05 18:10:53.010055+01

 2017-02-05 20:09:09.473381+01 | 1486321749.47338 |                 0 |              23 |                234124 |                 4461 |           20208168 |       2167420 |            20454 |        13490794 |                     0 |       9092627 | 2017-02-05 18:10:53.010055+01

 2017-02-05 20:09:10.554181+01 | 1486321750.55418 |                 0 |              23 |                234124 |                 4461 |           20208168 |       2167420 |            20454 |        13490794 |                     0 |       9094461 | 2017-02-05 18:10:53.010055+01

 2017-02-05 20:09:11.636759+01 | 1486321751.63676 |                 0 |              23 |                234124 |                 4461 |           20208168 |       2167420 |            20454 |        13490794 |                     0 |       9095989 | 2017-02-05 18:10:53.010055+01

 2017-02-05 20:09:12.719625+01 | 1486321752.71962 |                 0 |              23 |                234124 |                 4461 |           20208168 |       2167420 |            20454 |        13490794 |                     0 |       9097697 | 2017-02-05 18:10:53.010055+01

 2017-02-05 20:09:13.778738+01 | 1486321753.77874 |                 0 |              23 |                234124 |                 4461 |           20208168 |       2167420 |            20454 |        13490794 |                     0 |       9099524 | 2017-02-05 18:10:53.010055+01

 2017-02-05 20:09:14.853062+01 | 1486321754.85306 |                 0 |              23 |                234124 |                 4461 |           20208168 |       2167420 |            20454 |        13490794 |                     0 |       9101127 | 2017-02-05 18:10:53.010055+01

 2017-02-05 20:09:15.926541+01 | 1486321755.92654 |                 0 |              23 |                234124 |                 4461 |           20208168 |       2167420 |            20454 |        13490794 |                     0 |       9102790 | 2017-02-05 18:10:53.010055+01

 2017-02-05 20:09:17.006052+01 | 1486321757.00605 |                 0 |              23 |                234124 |                 4461 |           20208168 |       2167420 |            20454 |        13490794 |                     0 |       9104465 | 2017-02-05 18:10:53.010055+01

 2017-02-05 20:09:18.082671+01 | 1486321758.08267 |                 0 |              23 |                234124 |                 4461 |           20208168 |       2167420 |            20454 |        13490794 |                     0 |       9105899 | 2017-02-05 18:10:53.010055+01

 2017-02-05 20:09:19.156449+01 | 1486321759.15645 |                 0 |              23 |                234124 |                 4461 |           20208168 |       2167420 |            20454 |        13490794 |                     0 |       9107273 | 2017-02-05 18:10:53.010055+01

 2017-02-05 20:09:20.229908+01 | 1486321760.22991 |                 0 |              23 |                234124 |                 4461 |           20208168 |       2167420 |            20454 |        13490794 |                     0 |       9108969 | 2017-02-05 18:10:53.010055+01

 2017-02-05 20:09:21.304255+01 | 1486321761.30426 |                 0 |              23 |                234124 |                 4461 |           20208168 |       2167420 |            20454 |        13490794 |                     0 |       9110564 | 2017-02-05 18:10:53.010055+01

 2017-02-05 20:09:22.381501+01 | 1486321762.3815 |                 0 |              23 |                234124 |                 4461 |           20208168 |       2167420 |            20454 |        13490794 |                     0 |       9112195 | 2017-02-05 18:10:53.010055+01

 2017-02-05 20:09:23.455896+01 | 1486321763.4559 |                 0 |              23 |                234124 |                 4461 |           20208168 |       2167420 |            20454 |        13490794 |                     0 |       9113609 | 2017-02-05 18:10:53.010055+01

 2017-02-05 20:09:24.530335+01 | 1486321764.53033 |                 0 |              23 |                234124 |                 4461 |           20208168 |       2167420 |            20454 |        13490794 |                     0 |       9115070 | 2017-02-05 18:10:53.010055+01

 2017-02-05 20:09:25.61277+01 | 1486321765.61277 |                 0 |              23 |                234124 |                 4461 |           20208168 |       2167420 |            20454 |        13490794 |                     0 |       9116907 | 2017-02-05 18:10:53.010055+01

 2017-02-05 20:09:26.693729+01 | 1486321766.69373 |                 0 |              23 |                234124 |                 4461 |           20208168 |       2167420 |            20454 |        13490794 |                     0 |       9118416 | 2017-02-05 18:10:53.010055+01

 2017-02-05 20:09:27.768685+01 | 1486321767.76869 |                 0 |              23 |                234124 |                 4461 |           20208168 |       2167420 |            20454 |        13490794 |                     0 |       9119911 | 2017-02-05 18:10:53.010055+01

 2017-02-05 20:09:28.852396+01 | 1486321768.8524 |                 0 |              23 |                234124 |                 4461 |           20208168 |       2167420 |            20454 |        13490794 |                     0 |       9121469 | 2017-02-05 18:10:53.010055+01

 2017-02-05 20:09:29.929307+01 | 1486321769.92931 |                 0 |              23 |                234124 |                 4461 |           20208168 |       2167420 |            20454 |        13490794 |                     0 |       9122964 | 2017-02-05 18:10:53.010055+01

 2017-02-05 20:09:31.005117+01 | 1486321771.00512 |                 0 |              23 |                234124 |                 4461 |           20208168 |       2167420 |            20454 |        13490794 |                     0 |       9124717 | 2017-02-05 18:10:53.010055+01

 2017-02-05 20:09:32.081326+01 | 1486321772.08133 |                 0 |              23 |                234124 |                 4461 |           20208168 |       2167420 |            20454 |        13490794 |                     0 |       9126094 | 2017-02-05 18:10:53.010055+01

 2017-02-05 20:09:33.161748+01 | 1486321773.16175 |                 0 |              23 |                234124 |                 4461 |           20208168 |       2167420 |            20454 |        13490794 |                     0 |       9127513 | 2017-02-05 18:10:53.010055+01

 2017-02-05 20:09:34.235111+01 | 1486321774.23511 |                 0 |              23 |                234124 |                 4461 |           20208168 |       2167420 |            20454 |        13490794 |                     0 |       9129185 | 2017-02-05 18:10:53.010055+01

 2017-02-05 20:09:35.309693+01 | 1486321775.30969 |                 0 |              23 |                234124 |                 4461 |           20208168 |       2167420 |            20454 |        13490794 |                     0 |       9130654 | 2017-02-05 18:10:53.010055+01

 2017-02-05 20:09:36.387636+01 | 1486321776.38764 |                 0 |              23 |                234124 |                 4461 |           20208168 |       2167420 |            20454 |        13490794 |                     0 |       9131979 | 2017-02-05 18:10:53.010055+01

 2017-02-05 20:09:37.468997+01 | 1486321777.469 |                 0 |              23 |                234124 |                 4461 |           20208168 |       2167420 |            20454 |        13490794 |                     0 |       9133632 | 2017-02-05 18:10:53.010055+01

 2017-02-05 20:09:38.545463+01 | 1486321778.54546 |                 0 |              23 |                234124 |                 4461 |           20208168 |       2167420 |            20454 |        13490794 |                     0 |       9134895 | 2017-02-05 18:10:53.010055+01

 2017-02-05 20:09:39.620581+01 | 1486321779.62058 |                 0 |              23 |                234124 |                 4461 |           20208168 |       2167420 |            20454 |        13490794 |                     0 |       9136238 | 2017-02-05 18:10:53.010055+01

 2017-02-05 20:09:40.693516+01 | 1486321780.69352 |                 0 |              23 |                234124 |                 4461 |           20208168 |       2167420 |            20454 |        13490794 |                     0 |       9137177 | 2017-02-05 18:10:53.010055+01

 2017-02-05 20:09:41.778495+01 | 1486321781.7785 |                 0 |              23 |                234124 |                 4461 |           20208168 |       2167420 |            20454 |        13490794 |                     0 |       9138366 | 2017-02-05 18:10:53.010055+01

 2017-02-05 20:09:42.857327+01 | 1486321782.85733 |                 0 |              23 |                234124 |                 4461 |           20208168 |       2167420 |            20454 |        13490794 |                     0 |       9139853 | 2017-02-05 18:10:53.010055+01

 2017-02-05 20:09:43.936251+01 | 1486321783.93625 |                 0 |              23 |                234124 |                 4461 |           20208168 |       2167420 |            20454 |        13490794 |                     0 |       9140985 | 2017-02-05 18:10:53.010055+01

 2017-02-05 20:09:45.010422+01 | 1486321785.01042 |                 0 |              23 |                234124 |                 4461 |           20208168 |       2167420 |            20454 |        13490794 |                     0 |       9142351 | 2017-02-05 18:10:53.010055+01

 2017-02-05 20:09:46.082835+01 | 1486321786.08283 |                 0 |              23 |                234124 |                 4461 |           20208168 |       2167420 |            20454 |        13490794 |                     0 |       9143438 | 2017-02-05 18:10:53.010055+01

 2017-02-05 20:09:47.167522+01 | 1486321787.16752 |                 0 |              23 |                234124 |                 4461 |           20208168 |       2167426 |            20454 |        13490794 |                     0 |       9144999 | 2017-02-05 18:10:53.010055+01

 2017-02-05 20:09:48.246286+01 | 1486321788.24629 |                 0 |              23 |                234124 |                 4461 |           20208168 |       2167439 |            20454 |        13490794 |                     0 |       9146574 | 2017-02-05 18:10:53.010055+01

 2017-02-05 20:09:49.324693+01 | 1486321789.32469 |                 0 |              23 |                234124 |                 4461 |           20208168 |       2167453 |            20454 |        13490794 |                     0 |       9147896 | 2017-02-05 18:10:53.010055+01

 2017-02-05 20:09:50.399571+01 | 1486321790.39957 |                 0 |              23 |                234124 |                 4461 |           20208168 |       2167470 |            20454 |        13490794 |                     0 |       9149216 | 2017-02-05 18:10:53.010055+01

 2017-02-05 20:09:51.473022+01 | 1486321791.47302 |                 0 |              23 |                234124 |                 4461 |           20208168 |       2167492 |            20454 |        13490794 |                     0 |       9151022 | 2017-02-05 18:10:53.010055+01

 2017-02-05 20:09:52.532101+01 | 1486321792.5321 |                 0 |              23 |                234124 |                 4461 |           20208168 |       2167511 |            20454 |        13490794 |                     0 |       9152028 | 2017-02-05 18:10:53.010055+01

 2017-02-05 20:09:53.608052+01 | 1486321793.60805 |                 0 |              23 |                234124 |                 4461 |           20208168 |       2167535 |            20454 |        13490794 |                     0 |       9153454 | 2017-02-05 18:10:53.010055+01

 2017-02-05 20:09:54.687504+01 | 1486321794.6875 |                 0 |              23 |                234124 |                 4461 |           20208168 |       2167559 |            20454 |        13490794 |                     0 |       9154993 | 2017-02-05 18:10:53.010055+01

 2017-02-05 20:09:55.759179+01 | 1486321795.75918 |                 0 |              23 |                234124 |                 4461 |           20208168 |       2167576 |            20454 |        13490794 |                     0 |       9156218 | 2017-02-05 18:10:53.010055+01

 2017-02-05 20:09:56.832559+01 | 1486321796.83256 |                 0 |              23 |                234124 |                 4461 |           20208168 |       2167589 |            20454 |        13490794 |                     0 |       9157538 | 2017-02-05 18:10:53.010055+01

 2017-02-05 20:09:57.908002+01 | 1486321797.908 |                 0 |              23 |                234124 |                 4461 |           20208168 |       2167613 |            20454 |        13490794 |                     0 |       9158644 | 2017-02-05 18:10:53.010055+01

 2017-02-05 20:09:58.990011+01 | 1486321798.99001 |                 0 |              23 |                234124 |                 4461 |           20208168 |       2167628 |            20454 |        13490794 |                     0 |       9159731 | 2017-02-05 18:10:53.010055+01

 2017-02-05 20:10:00.066713+01 | 1486321800.06671 |                 0 |              23 |                234124 |                 4461 |           20208168 |       2167649 |            20454 |        13490794 |                     0 |       9161157 | 2017-02-05 18:10:53.010055+01

 2017-02-05 20:10:01.141221+01 | 1486321801.14122 |                 0 |              23 |                234124 |                 4461 |           20208168 |       2167670 |            20454 |        13490794 |                     0 |       9162479 | 2017-02-05 18:10:53.010055+01

 2017-02-05 20:10:02.224171+01 | 1486321802.22417 |                 0 |              23 |                234124 |                 4461 |           20208168 |       2167684 |            20454 |        13490794 |                     0 |       9163486 | 2017-02-05 18:10:53.010055+01

 2017-02-05 20:10:03.29711+01 | 1486321803.29711 |                 0 |              23 |                234124 |                 4461 |           20208168 |       2167702 |            20454 |        13490794 |                     0 |       9164770 | 2017-02-05 18:10:53.010055+01

 2017-02-05 20:10:04.381878+01 | 1486321804.38188 |                 0 |              23 |                234124 |                 4461 |           20208168 |       2167719 |            20454 |        13490794 |                     0 |       9165852 | 2017-02-05 18:10:53.010055+01

 2017-02-05 20:10:05.457707+01 | 1486321805.45771 |                 0 |              23 |                234124 |                 4461 |           20208168 |       2167743 |            20454 |        13490794 |                     0 |       9167282 | 2017-02-05 18:10:53.010055+01

 2017-02-05 20:10:06.536334+01 | 1486321806.53633 |                 0 |              23 |                234124 |                 4461 |           20208168 |       2167755 |            20454 |        13490794 |                     0 |       9168241 | 2017-02-05 18:10:53.010055+01

 2017-02-05 20:10:07.612625+01 | 1486321807.61262 |                 0 |              23 |                234124 |                 4461 |           20208168 |       2167766 |            20454 |        13490794 |                     0 |       9169564 | 2017-02-05 18:10:53.010055+01

 2017-02-05 20:10:08.686294+01 | 1486321808.68629 |                 0 |              23 |                234124 |                 4461 |           20208168 |       2167791 |            20454 |        13490794 |                     0 |       9171119 | 2017-02-05 18:10:53.010055+01

 2017-02-05 20:10:09.75944+01 | 1486321809.75944 |                 0 |              23 |                234124 |                 4461 |           20208168 |       2167808 |            20454 |        13490794 |                     0 |       9172498 | 2017-02-05 18:10:53.010055+01

 2017-02-05 20:10:10.840252+01 | 1486321810.84025 |                 0 |              23 |                234124 |                 4461 |           20208168 |       2167838 |            20454 |        13490794 |                     0 |       9173834 | 2017-02-05 18:10:53.010055+01

 2017-02-05 20:10:11.915758+01 | 1486321811.91576 |                 0 |              23 |                234124 |                 4461 |           20208168 |       2167868 |            20454 |        13490794 |                     0 |       9175329 | 2017-02-05 18:10:53.010055+01

 2017-02-05 20:10:12.988877+01 | 1486321812.98888 |                 0 |              23 |                234124 |                 4461 |           20208168 |       2167885 |            20454 |        13490794 |                     0 |       9176678 | 2017-02-05 18:10:53.010055+01

 2017-02-05 20:10:14.063273+01 | 1486321814.06327 |                 0 |              23 |                234124 |                 4461 |           20208168 |       2167909 |            20454 |        13490794 |                     0 |       9178096 | 2017-02-05 18:10:53.010055+01

 2017-02-05 20:10:15.135583+01 | 1486321815.13558 |                 0 |              23 |                234124 |                 4461 |           20208168 |       2167934 |            20454 |        13490794 |                     0 |       9179760 | 2017-02-05 18:10:53.010055+01

 2017-02-05 20:10:16.212815+01 | 1486321816.21282 |                 0 |              23 |                234124 |                 4461 |           20208168 |       2167949 |            20454 |        13490794 |                     0 |       9181077 | 2017-02-05 18:10:53.010055+01

 2017-02-05 20:10:17.288897+01 | 1486321817.2889 |                 0 |              23 |                234124 |                 4461 |           20208168 |       2167971 |            20454 |        13490794 |                     0 |       9182878 | 2017-02-05 18:10:53.010055+01

 2017-02-05 20:10:18.365429+01 | 1486321818.36543 |                 0 |              23 |                234124 |                 4461 |           20208168 |       2167985 |            20454 |        13490794 |                     0 |       9184077 | 2017-02-05 18:10:53.010055+01

 2017-02-05 20:10:19.438785+01 | 1486321819.43879 |                 0 |              23 |                234124 |                 4461 |           20208168 |       2167999 |            20454 |        13490794 |                     0 |       9185444 | 2017-02-05 18:10:53.010055+01

 2017-02-05 20:10:20.526779+01 | 1486321820.52678 |                 0 |              23 |                234124 |                 4461 |           20208168 |       2168022 |            20454 |        13490794 |                     0 |       9187129 | 2017-02-05 18:10:53.010055+01

 2017-02-05 20:10:21.603872+01 | 1486321821.60387 |                 0 |              23 |                234124 |                 4461 |           20208168 |       2168058 |            20454 |        13490794 |                     0 |       9188469 | 2017-02-05 18:10:53.010055+01

 2017-02-05 20:10:22.674294+01 | 1486321822.67429 |                 0 |              23 |                234124 |                 4461 |           20208168 |       2168071 |            20454 |        13490794 |                     0 |       9189638 | 2017-02-05 18:10:53.010055+01

 2017-02-05 20:10:23.749599+01 | 1486321823.7496 |                 0 |              23 |                234124 |                 4461 |           20208168 |       2168096 |            20454 |        13490794 |                     0 |       9191315 | 2017-02-05 18:10:53.010055+01

 2017-02-05 20:10:24.828104+01 | 1486321824.8281 |                 0 |              23 |                234124 |                 4461 |           20208168 |       2168117 |            20454 |        13490794 |                     0 |       9192581 | 2017-02-05 18:10:53.010055+01

 2017-02-05 20:10:25.899793+01 | 1486321825.89979 |                 0 |              23 |                234124 |                 4461 |           20208168 |       2168147 |            20454 |        13490794 |                     0 |       9193943 | 2017-02-05 18:10:53.010055+01

 2017-02-05 20:10:26.971111+01 | 1486321826.97111 |                 0 |              23 |                234124 |                 4461 |           20208168 |       2168176 |            20454 |        13490794 |                     0 |       9195579 | 2017-02-05 18:10:53.010055+01

 2017-02-05 20:10:28.044954+01 | 1486321828.04495 |                 0 |              23 |                234124 |                 4461 |           20208168 |       2168202 |            20454 |        13490794 |                     0 |       9196988 | 2017-02-05 18:10:53.010055+01

 2017-02-05 20:10:29.120992+01 | 1486321829.12099 |                 0 |              23 |                234124 |                 4461 |           20208168 |       2168239 |            20454 |        13490794 |                     0 |       9198708 | 2017-02-05 18:10:53.010055+01

 2017-02-05 20:10:30.19552+01 | 1486321830.19552 |                 0 |              23 |                234124 |                 4461 |           20208168 |       2168257 |            20454 |        13490794 |                     0 |       9200117 | 2017-02-05 18:10:53.010055+01

 2017-02-05 20:10:31.267747+01 | 1486321831.26775 |                 0 |              23 |                234124 |                 4461 |           20208168 |       2168294 |            20454 |        13490794 |                     0 |       9201502 | 2017-02-05 18:10:53.010055+01

 2017-02-05 20:10:32.343283+01 | 1486321832.34328 |                 0 |              23 |                234124 |                 4461 |           20208168 |       2168312 |            20454 |        13490794 |                     0 |       9203081 | 2017-02-05 18:10:53.010055+01

 2017-02-05 20:10:33.419124+01 | 1486321833.41912 |                 0 |              23 |                234124 |                 4461 |           20208168 |       2168337 |            20454 |        13490794 |                     0 |       9204417 | 2017-02-05 18:10:53.010055+01

 2017-02-05 20:10:34.494696+01 | 1486321834.4947 |                 0 |              23 |                234124 |                 4461 |           20208168 |       2168668 |            20455 |        13490794 |                     0 |       9205775 | 2017-02-05 18:10:53.010055+01

 2017-02-05 20:10:35.566643+01 | 1486321835.56664 |                 0 |              23 |                234124 |                 4461 |           20208168 |       2169223 |            20460 |        13490794 |                     0 |       9207318 | 2017-02-05 18:10:53.010055+01

 2017-02-05 20:10:36.654201+01 | 1486321836.6542 |                 0 |              23 |                234124 |                 4461 |           20208168 |       2169723 |            20465 |        13490794 |                     0 |       9208594 | 2017-02-05 18:10:53.010055+01

 2017-02-05 20:10:37.73043+01 | 1486321837.73043 |                 0 |              23 |                234124 |                 4461 |           20208168 |       2170223 |            20470 |        13490794 |                     0 |       9209915 | 2017-02-05 18:10:53.010055+01

 2017-02-05 20:10:38.818956+01 | 1486321838.81896 |                 0 |              23 |                234124 |                 4461 |           20208168 |       2170823 |            20476 |        13490794 |                     0 |       9211485 | 2017-02-05 18:10:53.010055+01

 2017-02-05 20:10:39.895127+01 | 1486321839.89513 |                 0 |              23 |                234124 |                 4461 |           20208168 |       2171323 |            20481 |        13490794 |                     0 |       9212854 | 2017-02-05 18:10:53.010055+01

 2017-02-05 20:10:40.970189+01 | 1486321840.97019 |                 0 |              23 |                234124 |                 4461 |           20208168 |       2171823 |            20486 |        13490794 |                     0 |       9214354 | 2017-02-05 18:10:53.010055+01

 2017-02-05 20:10:42.048148+01 | 1486321842.04815 |                 0 |              23 |                234124 |                 4461 |           20208168 |       2172423 |            20492 |        13490794 |                     0 |       9215831 | 2017-02-05 18:10:53.010055+01

 2017-02-05 20:10:43.129726+01 | 1486321843.12973 |                 0 |              23 |                234124 |                 4461 |           20208168 |       2172923 |            20497 |        13490794 |                     0 |       9217190 | 2017-02-05 18:10:53.010055+01

 2017-02-05 20:10:44.203995+01 | 1486321844.20399 |                 0 |              23 |                234124 |                 4461 |           20208168 |       2173423 |            20502 |        13490794 |                     0 |       9218355 | 2017-02-05 18:10:53.010055+01

 2017-02-05 20:10:45.279311+01 | 1486321845.27931 |                 0 |              23 |                234124 |                 4461 |           20208168 |       2174023 |            20508 |        13490794 |                     0 |       9220006 | 2017-02-05 18:10:53.010055+01

 2017-02-05 20:10:46.3563+01 | 1486321846.3563 |                 0 |              23 |                234124 |                 4461 |           20208168 |       2174523 |            20513 |        13490794 |                     0 |       9221404 | 2017-02-05 18:10:53.010055+01

 2017-02-05 20:10:47.442994+01 | 1486321847.44299 |                 0 |              23 |                234124 |                 4461 |           20208168 |       2175023 |            20518 |        13490794 |                     0 |       9222700 | 2017-02-05 18:10:53.010055+01

 2017-02-05 20:10:48.522484+01 | 1486321848.52248 |                 0 |              23 |                234124 |                 4461 |           20208168 |       2175623 |            20524 |        13490794 |                     0 |       9224299 | 2017-02-05 18:10:53.010055+01

 2017-02-05 20:10:49.595136+01 | 1486321849.59514 |                 0 |              23 |                234124 |                 4461 |           20208168 |       2176123 |            20529 |        13490794 |                     0 |       9225689 | 2017-02-05 18:10:53.010055+01

 2017-02-05 20:10:50.672423+01 | 1486321850.67242 |                 0 |              23 |                234124 |                 4461 |           20208168 |       2176623 |            20534 |        13490794 |                     0 |       9227017 | 2017-02-05 18:10:53.010055+01

 2017-02-05 20:10:51.752543+01 | 1486321851.75254 |                 0 |              23 |                234124 |                 4461 |           20208168 |       2177223 |            20540 |        13490794 |                     0 |       9228712 | 2017-02-05 18:10:53.010055+01

 2017-02-05 20:10:52.830958+01 | 1486321852.83096 |                 0 |              23 |                234124 |                 4461 |           20208168 |       2177723 |            20545 |        13490794 |                     0 |       9230084 | 2017-02-05 18:10:53.010055+01

 2017-02-05 20:10:53.908195+01 | 1486321853.9082 |                 0 |              23 |                234124 |                 4461 |           20208168 |       2178223 |            20550 |        13490794 |                     0 |       9231404 | 2017-02-05 18:10:53.010055+01

 2017-02-05 20:10:54.989218+01 | 1486321854.98922 |                 0 |              23 |                234124 |                 4461 |           20208168 |       2178823 |            20556 |        13490794 |                     0 |       9233078 | 2017-02-05 18:10:53.010055+01

 2017-02-05 20:10:56.063167+01 | 1486321856.06317 |                 0 |              23 |                234124 |                 4461 |           20208168 |       2179323 |            20561 |        13490794 |                     0 |       9234369 | 2017-02-05 18:10:53.010055+01

 2017-02-05 20:10:57.135222+01 | 1486321857.13522 |                 0 |              23 |                234124 |                 4461 |           20208168 |       2179923 |            20567 |        13490794 |                     0 |       9235990 | 2017-02-05 18:10:53.010055+01

 2017-02-05 20:10:58.212954+01 | 1486321858.21295 |                 0 |              23 |                234124 |                 4461 |           20208168 |       2180423 |            20572 |        13490794 |                     0 |       9237431 | 2017-02-05 18:10:53.010055+01

 2017-02-05 20:10:59.287768+01 | 1486321859.28777 |                 0 |              23 |                234124 |                 4461 |           20208168 |       2180923 |            20577 |        13490794 |                     0 |       9238906 | 2017-02-05 18:10:53.010055+01

 2017-02-05 20:11:00.365401+01 | 1486321860.3654 |                 0 |              23 |                234124 |                 4461 |           20208168 |       2181423 |            20582 |        13490794 |                     0 |       9240283 | 2017-02-05 18:10:53.010055+01

 2017-02-05 20:11:01.453144+01 | 1486321861.45314 |                 0 |              23 |                234124 |                 4461 |           20208168 |       2182023 |            20588 |        13490794 |                     0 |       9241900 | 2017-02-05 18:10:53.010055+01

 2017-02-05 20:11:02.531188+01 | 1486321862.53119 |                 0 |              23 |                234124 |                 4461 |           20208168 |       2182523 |            20593 |        13490794 |                     0 |       9243148 | 2017-02-05 18:10:53.010055+01

 2017-02-05 20:11:03.6143+01 | 1486321863.6143 |                 0 |              23 |                234124 |                 4461 |           20208168 |       2183123 |            20599 |        13490794 |                     0 |       9244820 | 2017-02-05 18:10:53.010055+01

 2017-02-05 20:11:04.690174+01 | 1486321864.69017 |                 0 |              23 |                234124 |                 4461 |           20208168 |       2183623 |            20604 |        13490794 |                     0 |       9246071 | 2017-02-05 18:10:53.010055+01

 2017-02-05 20:11:05.768116+01 | 1486321865.76812 |                 0 |              23 |                234124 |                 4461 |           20208168 |       2184123 |            20609 |        13490794 |                     0 |       9247386 | 2017-02-05 18:10:53.010055+01

 2017-02-05 20:11:06.844728+01 | 1486321866.84473 |                 0 |              23 |                234124 |                 4461 |           20208168 |       2184723 |            20615 |        13490794 |                     0 |       9248957 | 2017-02-05 18:10:53.010055+01

 2017-02-05 20:11:07.91931+01 | 1486321867.91931 |                 0 |              23 |                234124 |                 4461 |           20208168 |       2185223 |            20620 |        13490794 |                     0 |       9250405 | 2017-02-05 18:10:53.010055+01

 2017-02-05 20:11:08.994887+01 | 1486321868.99489 |                 0 |              23 |                234124 |                 4461 |           20208168 |       2185723 |            20625 |        13490794 |                     0 |       9251830 | 2017-02-05 18:10:53.010055+01

 2017-02-05 20:11:10.065662+01 | 1486321870.06566 |                 0 |              23 |                234124 |                 4461 |           20208168 |       2186323 |            20631 |        13490794 |                     0 |       9253510 | 2017-02-05 18:10:53.010055+01

 2017-02-05 20:11:11.15183+01 | 1486321871.15183 |                 0 |              23 |                234124 |                 4461 |           20208168 |       2186823 |            20636 |        13490794 |                     0 |       9254858 | 2017-02-05 18:10:53.010055+01

 2017-02-05 20:11:12.232879+01 | 1486321872.23288 |                 0 |              23 |                234124 |                 4461 |           20208168 |       2187323 |            20641 |        13490794 |                     0 |       9256198 | 2017-02-05 18:10:53.010055+01

 2017-02-05 20:11:13.310376+01 | 1486321873.31038 |                 0 |              23 |                234124 |                 4461 |           20208168 |       2187923 |            20647 |        13490794 |                     0 |       9257791 | 2017-02-05 18:10:53.010055+01

 2017-02-05 20:11:14.389339+01 | 1486321874.38934 |                 0 |              23 |                234124 |                 4461 |           20208168 |       2188423 |            20652 |        13490794 |                     0 |       9259095 | 2017-02-05 18:10:53.010055+01

 2017-02-05 20:11:15.471799+01 | 1486321875.4718 |                 0 |              23 |                234124 |                 4461 |           20208168 |       2188923 |            20657 |        13490794 |                     0 |       9260410 | 2017-02-05 18:10:53.010055+01

 2017-02-05 20:11:16.54562+01 | 1486321876.54562 |                 0 |              23 |                234124 |                 4461 |           20208168 |       2189523 |            20663 |        13490794 |                     0 |       9261998 | 2017-02-05 18:10:53.010055+01

 2017-02-05 20:11:17.620592+01 | 1486321877.62059 |                 0 |              23 |                234124 |                 4461 |           20208168 |       2190023 |            20668 |        13490794 |                     0 |       9263334 | 2017-02-05 18:10:53.010055+01

 2017-02-05 20:11:18.698699+01 | 1486321878.6987 |                 0 |              23 |                234124 |                 4461 |           20208168 |       2190523 |            20673 |        13490794 |                     0 |       9264643 | 2017-02-05 18:10:53.010055+01

 2017-02-05 20:11:19.773675+01 | 1486321879.77367 |                 0 |              23 |                234124 |                 4461 |           20208168 |       2191123 |            20679 |        13490794 |                     0 |       9266349 | 2017-02-05 18:10:53.010055+01

 2017-02-05 20:11:20.848105+01 | 1486321880.8481 |                 0 |              23 |                234124 |                 4461 |           20208168 |       2191623 |            20684 |        13490794 |                     0 |       9267675 | 2017-02-05 18:10:53.010055+01

 2017-02-05 20:11:21.924614+01 | 1486321881.92461 |                 0 |              23 |                234124 |                 4461 |           20208168 |       2192123 |            20689 |        13490794 |                     0 |       9269078 | 2017-02-05 18:10:53.010055+01

 2017-02-05 20:11:22.997506+01 | 1486321882.99751 |                 0 |              23 |                234124 |                 4461 |           20208168 |       2192723 |            20695 |        13490794 |                     0 |       9270703 | 2017-02-05 18:10:53.010055+01

 2017-02-05 20:11:24.075548+01 | 1486321884.07555 |                 0 |              23 |                234124 |                 4461 |           20208168 |       2193223 |            20700 |        13490794 |                     0 |       9272062 | 2017-02-05 18:10:53.010055+01

 2017-02-05 20:11:25.150659+01 | 1486321885.15066 |                 0 |              23 |                234124 |                 4461 |           20208168 |       2193723 |            20705 |        13490794 |                     0 |       9273519 | 2017-02-05 18:10:53.010055+01

 2017-02-05 20:11:26.226945+01 | 1486321886.22694 |                 0 |              23 |                234124 |                 4461 |           20208168 |       2194323 |            20711 |        13490794 |                     0 |       9275120 | 2017-02-05 18:10:53.010055+01

 2017-02-05 20:11:27.30423+01 | 1486321887.30423 |                 0 |              23 |                234124 |                 4461 |           20208168 |       2194823 |            20716 |        13490794 |                     0 |       9276286 | 2017-02-05 18:10:53.010055+01

 2017-02-05 20:11:28.376741+01 | 1486321888.37674 |                 0 |              23 |                234124 |                 4461 |           20208168 |       2195323 |            20721 |        13490794 |                     0 |       9277563 | 2017-02-05 18:10:53.010055+01

 2017-02-05 20:11:29.453322+01 | 1486321889.45332 |                 0 |              23 |                234124 |                 4461 |           20208168 |       2195923 |            20727 |        13490794 |                     0 |       9279359 | 2017-02-05 18:10:53.010055+01

 2017-02-05 20:11:30.533607+01 | 1486321890.53361 |                 0 |              23 |                234124 |                 4461 |           20208168 |       2196423 |            20732 |        13490794 |                     0 |       9280467 | 2017-02-05 18:10:53.010055+01

 2017-02-05 20:11:31.614131+01 | 1486321891.61413 |                 0 |              23 |                234124 |                 4461 |           20208168 |       2196923 |            20737 |        13490794 |                     0 |       9281899 | 2017-02-05 18:10:53.010055+01

 2017-02-05 20:11:32.689594+01 | 1486321892.68959 |                 0 |              23 |                234124 |                 4461 |           20208168 |       2197523 |            20743 |        13490794 |                     0 |       9283309 | 2017-02-05 18:10:53.010055+01

 2017-02-05 20:11:33.761688+01 | 1486321893.76169 |                 0 |              23 |                234124 |                 4461 |           20208168 |       2198023 |            20748 |        13490794 |                     0 |       9284838 | 2017-02-05 18:10:53.010055+01

 2017-02-05 20:11:34.833984+01 | 1486321894.83398 |                 0 |              23 |                234124 |                 4461 |           20208168 |       2198523 |            20753 |        13490794 |                     0 |       9286120 | 2017-02-05 18:10:53.010055+01

 2017-02-05 20:11:35.903972+01 | 1486321895.90397 |                 0 |              23 |                234124 |                 4461 |           20208168 |       2199123 |            20759 |        13490794 |                     0 |       9287797 | 2017-02-05 18:10:53.010055+01

 2017-02-05 20:11:36.97839+01 | 1486321896.97839 |                 0 |              23 |                234124 |                 4461 |           20208168 |       2199623 |            20764 |        13490794 |                     0 |       9288999 | 2017-02-05 18:10:53.010055+01

 2017-02-05 20:11:38.054045+01 | 1486321898.05404 |                 0 |              23 |                234124 |                 4461 |           20208168 |       2200123 |            20769 |        13490794 |                     0 |       9290489 | 2017-02-05 18:10:53.010055+01

 2017-02-05 20:11:39.12626+01 | 1486321899.12626 |                 0 |              23 |                234124 |                 4461 |           20208168 |       2200623 |            20774 |        13490794 |                     0 |       9291689 | 2017-02-05 18:10:53.010055+01

 2017-02-05 20:11:40.200941+01 | 1486321900.20094 |                 0 |              23 |                234124 |                 4461 |           20208168 |       2201223 |            20780 |        13490794 |                     0 |       9293335 | 2017-02-05 18:10:53.010055+01

 2017-02-05 20:11:41.272885+01 | 1486321901.27289 |                 0 |              23 |                234124 |                 4461 |           20208168 |       2201723 |            20785 |        13490794 |                     0 |       9294754 | 2017-02-05 18:10:53.010055+01

 2017-02-05 20:11:42.35108+01 | 1486321902.35108 |                 0 |              23 |                234124 |                 4461 |           20208168 |       2202223 |            20790 |        13490794 |                     0 |       9296036 | 2017-02-05 18:10:53.010055+01

 2017-02-05 20:11:43.424329+01 | 1486321903.42433 |                 0 |              23 |                234124 |                 4461 |           20208168 |       2202823 |            20796 |        13490794 |                     0 |       9297733 | 2017-02-05 18:10:53.010055+01

 2017-02-05 20:11:44.498729+01 | 1486321904.49873 |                 0 |              23 |                234124 |                 4461 |           20208168 |       2203323 |            20801 |        13490794 |                     0 |       9299126 | 2017-02-05 18:10:53.010055+01

 2017-02-05 20:11:45.573208+01 | 1486321905.57321 |                 0 |              23 |                234124 |                 4461 |           20208168 |       2203823 |            20806 |        13490794 |                     0 |       9300472 | 2017-02-05 18:10:53.010055+01

 2017-02-05 20:11:46.654152+01 | 1486321906.65415 |                 0 |              23 |                234124 |                 4461 |           20208168 |       2204423 |            20812 |        13490794 |                     0 |       9302098 | 2017-02-05 18:10:53.010055+01

 2017-02-05 20:11:47.731456+01 | 1486321907.73146 |                 0 |              23 |                234124 |                 4461 |           20208168 |       2204923 |            20817 |        13490794 |                     0 |       9303487 | 2017-02-05 18:10:53.010055+01

 2017-02-05 20:11:48.81045+01 | 1486321908.81045 |                 0 |              23 |                234124 |                 4461 |           20208168 |       2205423 |            20822 |        13490794 |                     0 |       9304552 | 2017-02-05 18:10:53.010055+01

 2017-02-05 20:11:49.889276+01 | 1486321909.88928 |                 0 |              23 |                234124 |                 4461 |           20208168 |       2206023 |            20828 |        13490794 |                     0 |       9306131 | 2017-02-05 18:10:53.010055+01

 2017-02-05 20:11:50.961665+01 | 1486321910.96166 |                 0 |              23 |                234124 |                 4461 |           20208168 |       2206523 |            20833 |        13490794 |                     0 |       9307175 | 2017-02-05 18:10:53.010055+01

 2017-02-05 20:11:52.045243+01 | 1486321912.04524 |                 0 |              23 |                234124 |                 4461 |           20208168 |       2207023 |            20838 |        13490794 |                     0 |       9308506 | 2017-02-05 18:10:53.010055+01

 2017-02-05 20:11:53.123175+01 | 1486321913.12317 |                 0 |              23 |                234124 |                 4461 |           20208168 |       2207623 |            20844 |        13490794 |                     0 |       9310181 | 2017-02-05 18:10:53.010055+01

 2017-02-05 20:11:54.200125+01 | 1486321914.20012 |                 0 |              23 |                234124 |                 4461 |           20208168 |       2208123 |            20849 |        13490794 |                     0 |       9311343 | 2017-02-05 18:10:53.010055+01

 2017-02-05 20:11:55.274251+01 | 1486321915.27425 |                 0 |              23 |                234124 |                 4461 |           20208168 |       2208623 |            20854 |        13490794 |                     0 |       9312718 | 2017-02-05 18:10:53.010055+01

 2017-02-05 20:11:56.350815+01 | 1486321916.35082 |                 0 |              23 |                234124 |                 4461 |           20208168 |       2209223 |            20860 |        13490794 |                     0 |       9314319 | 2017-02-05 18:10:53.010055+01

 2017-02-05 20:11:57.426074+01 | 1486321917.42607 |                 0 |              23 |                234124 |                 4461 |           20208168 |       2209723 |            20865 |        13490794 |                     0 |       9315688 | 2017-02-05 18:10:53.010055+01

 2017-02-05 20:11:58.502518+01 | 1486321918.50252 |                 0 |              23 |                234124 |                 4461 |           20208168 |       2210223 |            20870 |        13490794 |                     0 |       9316941 | 2017-02-05 18:10:53.010055+01

 2017-02-05 20:11:59.580615+01 | 1486321919.58062 |                 0 |              23 |                234124 |                 4461 |           20208168 |       2210823 |            20876 |        13490794 |                     0 |       9318669 | 2017-02-05 18:10:53.010055+01

 2017-02-05 20:12:00.654323+01 | 1486321920.65432 |                 0 |              23 |                234124 |                 4461 |           20208168 |       2211323 |            20881 |        13490794 |                     0 |       9320008 | 2017-02-05 18:10:53.010055+01

 2017-02-05 20:12:01.726518+01 | 1486321921.72652 |                 0 |              23 |                234124 |                 4461 |           20208168 |       2211823 |            20886 |        13490794 |                     0 |       9321396 | 2017-02-05 18:10:53.010055+01

 2017-02-05 20:12:02.799454+01 | 1486321922.79945 |                 0 |              23 |                234124 |                 4461 |           20208168 |       2212423 |            20892 |        13490794 |                     0 |       9322829 | 2017-02-05 18:10:53.010055+01

 2017-02-05 20:12:03.871804+01 | 1486321923.8718 |                 0 |              23 |                234124 |                 4461 |           20208168 |       2212923 |            20897 |        13490794 |                     0 |       9324176 | 2017-02-05 18:10:53.010055+01

 2017-02-05 20:12:04.949283+01 | 1486321924.94928 |                 0 |              23 |                234124 |                 4461 |           20208168 |       2213423 |            20902 |        13490794 |                     0 |       9325429 | 2017-02-05 18:10:53.010055+01

 2017-02-05 20:12:06.023866+01 | 1486321926.02387 |                 0 |              23 |                234124 |                 4461 |           20208168 |       2214023 |            20908 |        13490794 |                     0 |       9327076 | 2017-02-05 18:10:53.010055+01

 2017-02-05 20:12:07.104764+01 | 1486321927.10476 |                 0 |              23 |                234124 |                 4461 |           20208168 |       2214523 |            20913 |        13490794 |                     0 |       9328421 | 2017-02-05 18:10:53.010055+01

 2017-02-05 20:12:08.181695+01 | 1486321928.18169 |                 0 |              23 |                234124 |                 4461 |           20208168 |       2215023 |            20918 |        13490794 |                     0 |       9329671 | 2017-02-05 18:10:53.010055+01

 2017-02-05 20:12:09.266538+01 | 1486321929.26654 |                 0 |              23 |                234124 |                 4461 |           20208168 |       2215623 |            20924 |        13490794 |                     0 |       9331097 | 2017-02-05 18:10:53.010055+01

 2017-02-05 20:12:10.343213+01 | 1486321930.34321 |                 0 |              23 |                234124 |                 4461 |           20208168 |       2216123 |            20929 |        13490794 |                     0 |       9332379 | 2017-02-05 18:10:53.010055+01

 2017-02-05 20:12:11.418294+01 | 1486321931.41829 |                 0 |              23 |                234124 |                 4461 |           20208168 |       2216623 |            20934 |        13490794 |                     0 |       9333708 | 2017-02-05 18:10:53.010055+01

 2017-02-05 20:12:12.498813+01 | 1486321932.49881 |                 0 |              23 |                234124 |                 4461 |           20208168 |       2217223 |            20940 |        13490794 |                     0 |       9335396 | 2017-02-05 18:10:53.010055+01

 2017-02-05 20:12:13.573704+01 | 1486321933.5737 |                 0 |              23 |                234124 |                 4461 |           20208168 |       2217723 |            20945 |        13490794 |                     0 |       9336485 | 2017-02-05 18:10:53.010055+01

 2017-02-05 20:12:14.651941+01 | 1486321934.65194 |                 0 |              23 |                234124 |                 4461 |           20208168 |       2218223 |            20950 |        13490794 |                     0 |       9337869 | 2017-02-05 18:10:53.010055+01

 2017-02-05 20:12:15.722848+01 | 1486321935.72285 |                 0 |              23 |                234124 |                 4461 |           20208168 |       2218823 |            20956 |        13490794 |                     0 |       9339502 | 2017-02-05 18:10:53.010055+01

 2017-02-05 20:12:16.797932+01 | 1486321936.79793 |                 0 |              23 |                234124 |                 4461 |           20208168 |       2219323 |            20961 |        13490794 |                     0 |       9340891 | 2017-02-05 18:10:53.010055+01

 2017-02-05 20:12:17.877837+01 | 1486321937.87784 |                 0 |              23 |                234124 |                 4461 |           20208168 |       2219823 |            20966 |        13490794 |                     0 |       9342164 | 2017-02-05 18:10:53.010055+01

 2017-02-05 20:12:18.955038+01 | 1486321938.95504 |                 0 |              23 |                234124 |                 4461 |           20208168 |       2220423 |            20972 |        13490794 |                     0 |       9343656 | 2017-02-05 18:10:53.010055+01

 2017-02-05 20:12:20.036963+01 | 1486321940.03696 |                 0 |              23 |                234124 |                 4461 |           20208168 |       2220923 |            20977 |        13490794 |                     0 |       9344945 | 2017-02-05 18:10:53.010055+01

 2017-02-05 20:12:21.10942+01 | 1486321941.10942 |                 0 |              23 |                234124 |                 4461 |           20208168 |       2221423 |            20982 |        13490794 |                     0 |       9346242 | 2017-02-05 18:10:53.010055+01

 2017-02-05 20:12:22.183263+01 | 1486321942.18326 |                 0 |              23 |                234124 |                 4461 |           20208168 |       2222023 |            20988 |        13490794 |                     0 |       9347822 | 2017-02-05 18:10:53.010055+01

 2017-02-05 20:12:23.264761+01 | 1486321943.26476 |                 0 |              23 |                234124 |                 4461 |           20208168 |       2222523 |            20993 |        13490794 |                     0 |       9349109 | 2017-02-05 18:10:53.010055+01

 2017-02-05 20:12:24.341177+01 | 1486321944.34118 |                 0 |              23 |                234124 |                 4461 |           20208168 |       2223123 |            20999 |        13490794 |                     0 |       9350524 | 2017-02-05 18:10:53.010055+01

 2017-02-05 20:12:25.420502+01 | 1486321945.4205 |                 0 |              23 |                234124 |                 4461 |           20208168 |       2223623 |            21004 |        13490794 |                     0 |       9351835 | 2017-02-05 18:10:53.010055+01

 2017-02-05 20:12:26.501423+01 | 1486321946.50142 |                 0 |              23 |                234124 |                 4461 |           20208168 |       2224123 |            21009 |        13490794 |                     0 |       9353025 | 2017-02-05 18:10:53.010055+01

 2017-02-05 20:12:27.573273+01 | 1486321947.57327 |                 0 |              23 |                234124 |                 4461 |           20208168 |       2224723 |            21015 |        13490794 |                     0 |       9354481 | 2017-02-05 18:10:53.010055+01

 2017-02-05 20:12:28.650643+01 | 1486321948.65064 |                 0 |              23 |                234124 |                 4461 |           20208168 |       2225223 |            21020 |        13490794 |                     0 |       9355807 | 2017-02-05 18:10:53.010055+01

 2017-02-05 20:12:29.722225+01 | 1486321949.72222 |                 0 |              23 |                234124 |                 4461 |           20208168 |       2225723 |            21025 |        13490794 |                     0 |       9356868 | 2017-02-05 18:10:53.010055+01

 2017-02-05 20:12:30.79621+01 | 1486321950.79621 |                 0 |              23 |                234124 |                 4461 |           20208168 |       2226223 |            21030 |        13490794 |                     0 |       9358064 | 2017-02-05 18:10:53.010055+01

 2017-02-05 20:12:31.867632+01 | 1486321951.86763 |                 0 |              23 |                234124 |                 4461 |           20208168 |       2226823 |            21036 |        13490794 |                     0 |       9359388 | 2017-02-05 18:10:53.010055+01

 2017-02-05 20:12:32.943376+01 | 1486321952.94338 |                 0 |              23 |                234124 |                 4461 |           20208168 |       2227323 |            21041 |        13490794 |                     0 |       9360410 | 2017-02-05 18:10:53.010055+01

 2017-02-05 20:12:34.030246+01 | 1486321954.03025 |                 0 |              23 |                234124 |                 4461 |           20208168 |       2227823 |            21046 |        13490794 |                     0 |       9361171 | 2017-02-05 18:10:53.010055+01

 2017-02-05 20:12:35.104056+01 | 1486321955.10406 |                 0 |              23 |                234124 |                 4461 |           20208168 |       2228423 |            21052 |        13490794 |                     0 |       9362331 | 2017-02-05 18:10:53.010055+01

 2017-02-05 20:12:36.183398+01 | 1486321956.1834 |                 0 |              23 |                234124 |                 4461 |           20208168 |       2228923 |            21057 |        13490794 |                     0 |       9363245 | 2017-02-05 18:10:53.010055+01

 2017-02-05 20:12:37.261916+01 | 1486321957.26192 |                 0 |              23 |                234124 |                 4461 |           20208168 |       2229423 |            21062 |        13490794 |                     0 |       9364488 | 2017-02-05 18:10:53.010055+01

 2017-02-05 20:12:38.333318+01 | 1486321958.33332 |                 0 |              23 |                234124 |                 4461 |           20208168 |       2230023 |            21068 |        13490794 |                     0 |       9365408 | 2017-02-05 18:10:53.010055+01

 2017-02-05 20:12:39.406189+01 | 1486321959.40619 |                 0 |              23 |                234124 |                 4461 |           20208168 |       2230523 |            21073 |        13490794 |                     0 |       9366346 | 2017-02-05 18:10:53.010055+01

 2017-02-05 20:12:40.480276+01 | 1486321960.48028 |                 0 |              23 |                234124 |                 4461 |           20208168 |       2231023 |            21078 |        13490794 |                     0 |       9367326 | 2017-02-05 18:10:53.010055+01

 2017-02-05 20:12:41.555541+01 | 1486321961.55554 |                 0 |              23 |                234124 |                 4461 |           20208168 |       2231623 |            21084 |        13490794 |                     0 |       9368494 | 2017-02-05 18:10:53.010055+01

 2017-02-05 20:12:42.637045+01 | 1486321962.63704 |                 0 |              23 |                234124 |                 4461 |           20208168 |       2232123 |            21089 |        13490794 |                     0 |       9369416 | 2017-02-05 18:10:53.010055+01

 2017-02-05 20:12:43.71167+01 | 1486321963.71167 |                 0 |              23 |                234124 |                 4461 |           20208168 |       2232623 |            21094 |        13490794 |                     0 |       9370421 | 2017-02-05 18:10:53.010055+01

 2017-02-05 20:12:44.798514+01 | 1486321964.79851 |                 0 |              23 |                234124 |                 4461 |           20208168 |       2233223 |            21100 |        13490794 |                     0 |       9371897 | 2017-02-05 18:10:53.010055+01

 2017-02-05 20:12:45.884043+01 | 1486321965.88404 |                 0 |              23 |                234124 |                 4461 |           20208168 |       2233723 |            21105 |        13490794 |                     0 |       9372815 | 2017-02-05 18:10:53.010055+01

 2017-02-05 20:12:46.962304+01 | 1486321966.9623 |                 0 |              23 |                234124 |                 4461 |           20208168 |       2234223 |            21110 |        13490794 |                     0 |       9374277 | 2017-02-05 18:10:53.010055+01

 2017-02-05 20:12:48.037908+01 | 1486321968.03791 |                 0 |              23 |                234124 |                 4461 |           20208168 |       2234823 |            21116 |        13490794 |                     0 |       9375543 | 2017-02-05 18:10:53.010055+01

 2017-02-05 20:12:49.110075+01 | 1486321969.11007 |                 0 |              23 |                234124 |                 4461 |           20208168 |       2235323 |            21121 |        13490794 |                     0 |       9376812 | 2017-02-05 18:10:53.010055+01

 2017-02-05 20:12:50.184302+01 | 1486321970.1843 |                 0 |              23 |                234124 |                 4461 |           20208168 |       2235823 |            21126 |        13490794 |                     0 |       9378038 | 2017-02-05 18:10:53.010055+01

 2017-02-05 20:12:51.258743+01 | 1486321971.25874 |                 0 |              23 |                234124 |                 4461 |           20208168 |       2236423 |            21132 |        13490794 |                     0 |       9379726 | 2017-02-05 18:10:53.010055+01

 2017-02-05 20:12:52.332678+01 | 1486321972.33268 |                 0 |              23 |                234124 |                 4461 |           20208168 |       2236923 |            21137 |        13490794 |                     0 |       9381016 | 2017-02-05 18:10:53.010055+01

 2017-02-05 20:12:53.402719+01 | 1486321973.40272 |                 0 |              23 |                234124 |                 4461 |           20208168 |       2237423 |            21142 |        13490794 |                     0 |       9382420 | 2017-02-05 18:10:53.010055+01

 2017-02-05 20:12:54.476791+01 | 1486321974.47679 |                 0 |              23 |                234124 |                 4461 |           20208168 |       2238023 |            21148 |        13490794 |                     0 |       9383986 | 2017-02-05 18:10:53.010055+01

 2017-02-05 20:12:55.552019+01 | 1486321975.55202 |                 0 |              23 |                234124 |                 4461 |           20208168 |       2238523 |            21153 |        13490794 |                     0 |       9385125 | 2017-02-05 18:10:53.010055+01

 2017-02-05 20:12:56.622281+01 | 1486321976.62228 |                 0 |              23 |                234124 |                 4461 |           20208168 |       2239023 |            21158 |        13490794 |                     0 |       9386313 | 2017-02-05 18:10:53.010055+01

 2017-02-05 20:12:57.702266+01 | 1486321977.70227 |                 0 |              23 |                234124 |                 4461 |           20208168 |       2239623 |            21164 |        13490794 |                     0 |       9387464 | 2017-02-05 18:10:53.010055+01

 2017-02-05 20:12:58.775668+01 | 1486321978.77567 |                 0 |              23 |                234124 |                 4461 |           20208168 |       2240123 |            21169 |        13490794 |                     0 |       9388644 | 2017-02-05 18:10:53.010055+01

 2017-02-05 20:12:59.848163+01 | 1486321979.84816 |                 0 |              23 |                234124 |                 4461 |           20208168 |       2240623 |            21174 |        13490794 |                     0 |       9389566 | 2017-02-05 18:10:53.010055+01

 2017-02-05 20:13:00.926859+01 | 1486321980.92686 |                 0 |              23 |                234124 |                 4461 |           20208168 |       2241223 |            21180 |        13490794 |                     0 |       9390870 | 2017-02-05 18:10:53.010055+01

 2017-02-05 20:13:02.00078+01 | 1486321982.00078 |                 0 |              23 |                234124 |                 4461 |           20208168 |       2241723 |            21185 |        13490794 |                     0 |       9392215 | 2017-02-05 18:10:53.010055+01

 2017-02-05 20:13:03.077426+01 | 1486321983.07743 |                 0 |              23 |                234124 |                 4461 |           20208168 |       2242223 |            21190 |        13490794 |                     0 |       9393446 | 2017-02-05 18:10:53.010055+01

 2017-02-05 20:13:04.163255+01 | 1486321984.16325 |                 0 |              23 |                234124 |                 4461 |           20208168 |       2242823 |            21196 |        13490794 |                     0 |       9394984 | 2017-02-05 18:10:53.010055+01

 2017-02-05 20:13:05.239476+01 | 1486321985.23948 |                 0 |              23 |                234124 |                 4461 |           20208168 |       2243323 |            21201 |        13490794 |                     0 |       9396332 | 2017-02-05 18:10:53.010055+01

 2017-02-05 20:13:06.314802+01 | 1486321986.3148 |                 0 |              23 |                234124 |                 4461 |           20208168 |       2243823 |            21206 |        13490794 |                     0 |       9397716 | 2017-02-05 18:10:53.010055+01

 2017-02-05 20:13:07.395545+01 | 1486321987.39555 |                 0 |              23 |                234124 |                 4461 |           20208168 |       2244423 |            21212 |        13490794 |                     0 |       9399138 | 2017-02-05 18:10:53.010055+01

 2017-02-05 20:13:08.474681+01 | 1486321988.47468 |                 0 |              23 |                234124 |                 4461 |           20208168 |       2244923 |            21217 |        13490794 |                     0 |       9400480 | 2017-02-05 18:10:53.010055+01

 2017-02-05 20:13:09.548068+01 | 1486321989.54807 |                 0 |              23 |                234124 |                 4461 |           20208168 |       2245423 |            21222 |        13490794 |                     0 |       9401945 | 2017-02-05 18:10:53.010055+01

 2017-02-05 20:13:10.621231+01 | 1486321990.62123 |                 0 |              23 |                234124 |                 4461 |           20208168 |       2246023 |            21228 |        13490794 |                     0 |       9403481 | 2017-02-05 18:10:53.010055+01

 2017-02-05 20:13:11.703851+01 | 1486321991.70385 |                 0 |              23 |                234124 |                 4461 |           20208168 |       2246523 |            21233 |        13490794 |                     0 |       9404756 | 2017-02-05 18:10:53.010055+01

 2017-02-05 20:13:12.779398+01 | 1486321992.7794 |                 0 |              23 |                234124 |                 4461 |           20208168 |       2247023 |            21238 |        13490794 |                     0 |       9405973 | 2017-02-05 18:10:53.010055+01

 2017-02-05 20:13:13.865528+01 | 1486321993.86553 |                 0 |              23 |                234124 |                 4461 |           20208168 |       2247623 |            21244 |        13490794 |                     0 |       9407695 | 2017-02-05 18:10:53.010055+01

 2017-02-05 20:13:14.935322+01 | 1486321994.93532 |                 0 |              23 |                234124 |                 4461 |           20208168 |       2248123 |            21249 |        13490794 |                     0 |       9408903 | 2017-02-05 18:10:53.010055+01

 2017-02-05 20:13:16.01404+01 | 1486321996.01404 |                 0 |              23 |                234124 |                 4461 |           20208168 |       2248623 |            21254 |        13490794 |                     0 |       9410090 | 2017-02-05 18:10:53.010055+01

 2017-02-05 20:13:17.088043+01 | 1486321997.08804 |                 0 |              23 |                234124 |                 4461 |           20208168 |       2249223 |            21260 |        13490794 |                     0 |       9411584 | 2017-02-05 18:10:53.010055+01

 2017-02-05 20:13:18.163421+01 | 1486321998.16342 |                 0 |              23 |                234124 |                 4461 |           20208168 |       2249723 |            21265 |        13490794 |                     0 |       9412900 | 2017-02-05 18:10:53.010055+01

 2017-02-05 20:13:19.23703+01 | 1486321999.23703 |                 0 |              23 |                234124 |                 4461 |           20208168 |       2250223 |            21270 |        13490794 |                     0 |       9414235 | 2017-02-05 18:10:53.010055+01

 2017-02-05 20:13:20.316368+01 | 1486322000.31637 |                 0 |              23 |                234124 |                 4461 |           20208168 |       2250823 |            21276 |        13490794 |                     0 |       9415866 | 2017-02-05 18:10:53.010055+01

 2017-02-05 20:13:21.392386+01 | 1486322001.39239 |                 0 |              23 |                234124 |                 4461 |           20208168 |       2251323 |            21281 |        13490794 |                     0 |       9416930 | 2017-02-05 18:10:53.010055+01

 2017-02-05 20:13:22.465682+01 | 1486322002.46568 |                 0 |              23 |                234124 |                 4461 |           20208168 |       2251823 |            21286 |        13490794 |                     0 |       9418087 | 2017-02-05 18:10:53.010055+01

 2017-02-05 20:13:23.542495+01 | 1486322003.5425 |                 0 |              23 |                234124 |                 4461 |           20208168 |       2252423 |            21292 |        13490794 |                     0 |       9419607 | 2017-02-05 18:10:53.010055+01

 2017-02-05 20:13:24.616451+01 | 1486322004.61645 |                 0 |              23 |                234124 |                 4461 |           20208168 |       2252923 |            21297 |        13490794 |                     0 |       9420944 | 2017-02-05 18:10:53.010055+01

 2017-02-05 20:13:25.688543+01 | 1486322005.68854 |                 0 |              23 |                234124 |                 4461 |           20208168 |       2253423 |            21302 |        13490794 |                     0 |       9422389 | 2017-02-05 18:10:53.010055+01

 2017-02-05 20:13:26.763396+01 | 1486322006.7634 |                 0 |              23 |                234124 |                 4461 |           20208168 |       2254023 |            21308 |        13490794 |                     0 |       9424039 | 2017-02-05 18:10:53.010055+01

 2017-02-05 20:13:27.839811+01 | 1486322007.83981 |                 0 |              23 |                234124 |                 4461 |           20208168 |       2254523 |            21313 |        13490794 |                     0 |       9425325 | 2017-02-05 18:10:53.010055+01

 2017-02-05 20:13:28.917066+01 | 1486322008.91707 |                 0 |              23 |                234124 |                 4461 |           20208168 |       2255023 |            21318 |        13490794 |                     0 |       9426473 | 2017-02-05 18:10:53.010055+01

 2017-02-05 20:13:29.988086+01 | 1486322009.98809 |                 0 |              23 |                234124 |                 4461 |           20208168 |       2255623 |            21324 |        13490794 |                     0 |       9428197 | 2017-02-05 18:10:53.010055+01

 2017-02-05 20:13:31.061258+01 | 1486322011.06126 |                 0 |              23 |                234124 |                 4461 |           20208168 |       2256123 |            21329 |        13490794 |                     0 |       9429486 | 2017-02-05 18:10:53.010055+01

 2017-02-05 20:13:32.135099+01 | 1486322012.1351 |                 0 |              23 |                234124 |                 4461 |           20208168 |       2256623 |            21334 |        13490794 |                     0 |       9430753 | 2017-02-05 18:10:53.010055+01

 2017-02-05 20:13:33.211405+01 | 1486322013.21141 |                 0 |              23 |                234124 |                 4461 |           20208168 |       2257223 |            21340 |        13490794 |                     0 |       9432409 | 2017-02-05 18:10:53.010055+01

 2017-02-05 20:13:34.280263+01 | 1486322014.28026 |                 0 |              23 |                234124 |                 4461 |           20208168 |       2257723 |            21345 |        13490794 |                     0 |       9433760 | 2017-02-05 18:10:53.010055+01

 2017-02-05 20:13:35.357461+01 | 1486322015.35746 |                 0 |              23 |                234124 |                 4461 |           20208168 |       2258223 |            21350 |        13490794 |                     0 |       9434894 | 2017-02-05 18:10:53.010055+01

 2017-02-05 20:13:36.432578+01 | 1486322016.43258 |                 0 |              23 |                234124 |                 4461 |           20208168 |       2258823 |            21356 |        13490794 |                     0 |       9436448 | 2017-02-05 18:10:53.010055+01

 2017-02-05 20:13:37.504462+01 | 1486322017.50446 |                 0 |              23 |                234124 |                 4461 |           20208168 |       2259323 |            21361 |        13490794 |                     0 |       9437633 | 2017-02-05 18:10:53.010055+01

 2017-02-05 20:13:38.575506+01 | 1486322018.57551 |                 0 |              23 |                234124 |                 4461 |           20208168 |       2259823 |            21366 |        13490794 |                     0 |       9439099 | 2017-02-05 18:10:53.010055+01

 2017-02-05 20:13:39.652042+01 | 1486322019.65204 |                 0 |              23 |                234124 |                 4461 |           20208168 |       2260423 |            21372 |        13490794 |                     0 |       9440787 | 2017-02-05 18:10:53.010055+01

 2017-02-05 20:13:40.731793+01 | 1486322020.73179 |                 0 |              23 |                234124 |                 4461 |           20208168 |       2260923 |            21377 |        13490794 |                     0 |       9441877 | 2017-02-05 18:10:53.010055+01

 2017-02-05 20:13:41.81163+01 | 1486322021.81163 |                 0 |              23 |                234124 |                 4461 |           20208168 |       2261423 |            21382 |        13490794 |                     0 |       9443277 | 2017-02-05 18:10:53.010055+01

 2017-02-05 20:13:42.891087+01 | 1486322022.89109 |                 0 |              23 |                234124 |                 4461 |           20208168 |       2262023 |            21388 |        13490794 |                     0 |       9444889 | 2017-02-05 18:10:53.010055+01

 2017-02-05 20:13:43.976237+01 | 1486322023.97624 |                 0 |              23 |                234124 |                 4461 |           20208168 |       2262523 |            21393 |        13490794 |                     0 |       9446236 | 2017-02-05 18:10:53.010055+01

 2017-02-05 20:13:45.056151+01 | 1486322025.05615 |                 0 |              23 |                234124 |                 4461 |           20208168 |       2263023 |            21398 |        13490794 |                     0 |       9447624 | 2017-02-05 18:10:53.010055+01

 2017-02-05 20:13:46.125921+01 | 1486322026.12592 |                 0 |              23 |                234124 |                 4461 |           20208168 |       2263523 |            21403 |        13490794 |                     0 |       9448806 | 2017-02-05 18:10:53.010055+01

 2017-02-05 20:13:47.199341+01 | 1486322027.19934 |                 0 |              23 |                234124 |                 4461 |           20208168 |       2264123 |            21409 |        13490794 |                     0 |       9450462 | 2017-02-05 18:10:53.010055+01

 2017-02-05 20:13:48.275916+01 | 1486322028.27592 |                 0 |              23 |                234124 |                 4461 |           20208168 |       2264623 |            21414 |        13490794 |                     0 |       9451920 | 2017-02-05 18:10:53.010055+01

 2017-02-05 20:13:49.356985+01 | 1486322029.35699 |                 0 |              23 |                234124 |                 4461 |           20208168 |       2265223 |            21420 |        13490794 |                     0 |       9453630 | 2017-02-05 18:10:53.010055+01

 2017-02-05 20:13:50.431689+01 | 1486322030.43169 |                 0 |              23 |                234124 |                 4461 |           20208168 |       2265723 |            21425 |        13490794 |                     0 |       9454769 | 2017-02-05 18:10:53.010055+01

 2017-02-05 20:13:51.505977+01 | 1486322031.50598 |                 0 |              23 |                234124 |                 4461 |           20208168 |       2266223 |            21430 |        13490794 |                     0 |       9456171 | 2017-02-05 18:10:53.010055+01

 2017-02-05 20:13:52.582617+01 | 1486322032.58262 |                 0 |              23 |                234124 |                 4461 |           20208168 |       2266823 |            21436 |        13490794 |                     0 |       9457978 | 2017-02-05 18:10:53.010055+01

 2017-02-05 20:13:53.654447+01 | 1486322033.65445 |                 0 |              23 |                234124 |                 4461 |           20208168 |       2267323 |            21441 |        13490794 |                     0 |       9459185 | 2017-02-05 18:10:53.010055+01

 2017-02-05 20:13:54.72765+01 | 1486322034.72765 |                 0 |              23 |                234124 |                 4461 |           20208168 |       2267823 |            21446 |        13490794 |                     0 |       9460633 | 2017-02-05 18:10:53.010055+01

 2017-02-05 20:13:55.800818+01 | 1486322035.80082 |                 0 |              23 |                234124 |                 4461 |           20208168 |       2268423 |            21452 |        13490794 |                     0 |       9462366 | 2017-02-05 18:10:53.010055+01

 2017-02-05 20:13:56.875074+01 | 1486322036.87507 |                 0 |              23 |                234124 |                 4461 |           20208168 |       2268923 |            21457 |        13490794 |                     0 |       9463769 | 2017-02-05 18:10:53.010055+01

 2017-02-05 20:13:57.952601+01 | 1486322037.9526 |                 0 |              23 |                234124 |                 4461 |           20208168 |       2269423 |            21462 |        13490794 |                     0 |       9465206 | 2017-02-05 18:10:53.010055+01

 2017-02-05 20:13:59.030357+01 | 1486322039.03036 |                 0 |              23 |                234124 |                 4461 |           20208168 |       2270023 |            21468 |        13490794 |                     0 |       9466831 | 2017-02-05 18:10:53.010055+01

 2017-02-05 20:14:00.102902+01 | 1486322040.1029 |                 0 |              23 |                234124 |                 4461 |           20208168 |       2270523 |            21473 |        13490794 |                     0 |       9468347 | 2017-02-05 18:10:53.010055+01

 2017-02-05 20:14:01.1949+01 | 1486322041.1949 |                 0 |              23 |                234124 |                 4461 |           20208168 |       2271023 |            21478 |        13490794 |                     0 |       9469588 | 2017-02-05 18:10:53.010055+01

 2017-02-05 20:14:02.267284+01 | 1486322042.26728 |                 0 |              23 |                234124 |                 4461 |           20208168 |       2271623 |            21484 |        13490794 |                     0 |       9471254 | 2017-02-05 18:10:53.010055+01

 2017-02-05 20:14:03.35015+01 | 1486322043.35015 |                 0 |              23 |                234124 |                 4461 |           20208168 |       2272123 |            21489 |        13490794 |                     0 |       9472557 | 2017-02-05 18:10:53.010055+01

 2017-02-05 20:14:04.42714+01 | 1486322044.42714 |                 0 |              23 |                234124 |                 4461 |           20208168 |       2272623 |            21494 |        13490794 |                     0 |       9473945 | 2017-02-05 18:10:53.010055+01

 2017-02-05 20:14:05.505235+01 | 1486322045.50523 |                 0 |              23 |                234124 |                 4461 |           20208168 |       2273223 |            21500 |        13490794 |                     0 |       9475507 | 2017-02-05 18:10:53.010055+01

 2017-02-05 20:14:06.5762+01 | 1486322046.5762 |                 0 |              23 |                234124 |                 4461 |           20208168 |       2273723 |            21505 |        13490794 |                     0 |       9476966 | 2017-02-05 18:10:53.010055+01

 2017-02-05 20:14:07.651176+01 | 1486322047.65118 |                 0 |              23 |                234124 |                 4461 |           20208168 |       2274223 |            21510 |        13490794 |                     0 |       9478380 | 2017-02-05 18:10:53.010055+01

