 2017-02-05 20:09:08.371779+01 | 1486321748.37178 | pgbench_accounts |      13712957440
 2017-02-05 20:09:08.371779+01 | 1486321748.37178 | pgbench_tellers  |           450560
 2017-02-05 20:09:08.371779+01 | 1486321748.37178 | pgbench_history  |           516096
 2017-02-05 20:09:08.371779+01 | 1486321748.37178 | pgbench_branches |            40960

 2017-02-05 20:09:09.461326+01 | 1486321749.46133 | pgbench_accounts |      13712957440
 2017-02-05 20:09:09.461326+01 | 1486321749.46133 | pgbench_tellers  |           450560
 2017-02-05 20:09:09.461326+01 | 1486321749.46133 | pgbench_history  |          2015232
 2017-02-05 20:09:09.461326+01 | 1486321749.46133 | pgbench_branches |            40960

 2017-02-05 20:09:10.538892+01 | 1486321750.53889 | pgbench_accounts |      13712957440
 2017-02-05 20:09:10.538892+01 | 1486321750.53889 | pgbench_tellers  |           450560
 2017-02-05 20:09:10.538892+01 | 1486321750.53889 | pgbench_history  |          4218880
 2017-02-05 20:09:10.538892+01 | 1486321750.53889 | pgbench_branches |            40960

 2017-02-05 20:09:11.619235+01 | 1486321751.61924 | pgbench_accounts |      13712957440
 2017-02-05 20:09:11.619235+01 | 1486321751.61924 | pgbench_tellers  |           450560
 2017-02-05 20:09:11.619235+01 | 1486321751.61924 | pgbench_history  |          6258688
 2017-02-05 20:09:11.619235+01 | 1486321751.61924 | pgbench_branches |            40960

 2017-02-05 20:09:12.701798+01 | 1486321752.7018 | pgbench_accounts |      13712957440
 2017-02-05 20:09:12.701798+01 | 1486321752.7018 | pgbench_tellers  |           450560
 2017-02-05 20:09:12.701798+01 | 1486321752.7018 | pgbench_history  |          8273920
 2017-02-05 20:09:12.701798+01 | 1486321752.7018 | pgbench_branches |            40960

 2017-02-05 20:09:13.765246+01 | 1486321753.76525 | pgbench_accounts |      13712957440
 2017-02-05 20:09:13.765246+01 | 1486321753.76525 | pgbench_tellers  |           450560
 2017-02-05 20:09:13.765246+01 | 1486321753.76525 | pgbench_history  |         11304960
 2017-02-05 20:09:13.765246+01 | 1486321753.76525 | pgbench_branches |            40960

 2017-02-05 20:09:14.83993+01 | 1486321754.83993 | pgbench_accounts |      13712957440
 2017-02-05 20:09:14.83993+01 | 1486321754.83993 | pgbench_tellers  |           450560
 2017-02-05 20:09:14.83993+01 | 1486321754.83993 | pgbench_history  |         12967936
 2017-02-05 20:09:14.83993+01 | 1486321754.83993 | pgbench_branches |            40960

 2017-02-05 20:09:15.911435+01 | 1486321755.91143 | pgbench_accounts |      13712957440
 2017-02-05 20:09:15.911435+01 | 1486321755.91143 | pgbench_tellers  |           450560
 2017-02-05 20:09:15.911435+01 | 1486321755.91143 | pgbench_history  |         16015360
 2017-02-05 20:09:15.911435+01 | 1486321755.91143 | pgbench_branches |            40960

 2017-02-05 20:09:16.990311+01 | 1486321756.99031 | pgbench_accounts |      13712957440
 2017-02-05 20:09:16.990311+01 | 1486321756.99031 | pgbench_tellers  |           450560
 2017-02-05 20:09:16.990311+01 | 1486321756.99031 | pgbench_history  |         18243584
 2017-02-05 20:09:16.990311+01 | 1486321756.99031 | pgbench_branches |            40960

 2017-02-05 20:09:18.068569+01 | 1486321758.06857 | pgbench_accounts |      13712957440
 2017-02-05 20:09:18.068569+01 | 1486321758.06857 | pgbench_tellers  |           450560
 2017-02-05 20:09:18.068569+01 | 1486321758.06857 | pgbench_history  |         20119552
 2017-02-05 20:09:18.068569+01 | 1486321758.06857 | pgbench_branches |            40960

 2017-02-05 20:09:19.143722+01 | 1486321759.14372 | pgbench_accounts |      13712957440
 2017-02-05 20:09:19.143722+01 | 1486321759.14372 | pgbench_tellers  |           450560
 2017-02-05 20:09:19.143722+01 | 1486321759.14372 | pgbench_history  |         23887872
 2017-02-05 20:09:19.143722+01 | 1486321759.14372 | pgbench_branches |            40960

 2017-02-05 20:09:20.213495+01 | 1486321760.2135 | pgbench_accounts |      13712957440
 2017-02-05 20:09:20.213495+01 | 1486321760.2135 | pgbench_tellers  |           450560
 2017-02-05 20:09:20.213495+01 | 1486321760.2135 | pgbench_history  |         25083904
 2017-02-05 20:09:20.213495+01 | 1486321760.2135 | pgbench_branches |            40960

 2017-02-05 20:09:21.289622+01 | 1486321761.28962 | pgbench_accounts |      13712957440
 2017-02-05 20:09:21.289622+01 | 1486321761.28962 | pgbench_tellers  |           450560
 2017-02-05 20:09:21.289622+01 | 1486321761.28962 | pgbench_history  |         27623424
 2017-02-05 20:09:21.289622+01 | 1486321761.28962 | pgbench_branches |            40960

 2017-02-05 20:09:22.366061+01 | 1486321762.36606 | pgbench_accounts |      13712957440
 2017-02-05 20:09:22.366061+01 | 1486321762.36606 | pgbench_tellers  |           450560
 2017-02-05 20:09:22.366061+01 | 1486321762.36606 | pgbench_history  |         30130176
 2017-02-05 20:09:22.366061+01 | 1486321762.36606 | pgbench_branches |            40960

 2017-02-05 20:09:23.441625+01 | 1486321763.44163 | pgbench_accounts |      13712957440
 2017-02-05 20:09:23.441625+01 | 1486321763.44163 | pgbench_tellers  |           450560
 2017-02-05 20:09:23.441625+01 | 1486321763.44163 | pgbench_history  |         32530432
 2017-02-05 20:09:23.441625+01 | 1486321763.44163 | pgbench_branches |            40960

 2017-02-05 20:09:24.518148+01 | 1486321764.51815 | pgbench_accounts |      13712957440
 2017-02-05 20:09:24.518148+01 | 1486321764.51815 | pgbench_tellers  |           450560
 2017-02-05 20:09:24.518148+01 | 1486321764.51815 | pgbench_history  |         34619392
 2017-02-05 20:09:24.518148+01 | 1486321764.51815 | pgbench_branches |            40960

 2017-02-05 20:09:25.599218+01 | 1486321765.59922 | pgbench_accounts |      13712957440
 2017-02-05 20:09:25.599218+01 | 1486321765.59922 | pgbench_tellers  |           450560
 2017-02-05 20:09:25.599218+01 | 1486321765.59922 | pgbench_history  |         37478400
 2017-02-05 20:09:25.599218+01 | 1486321765.59922 | pgbench_branches |            40960

 2017-02-05 20:09:26.676518+01 | 1486321766.67652 | pgbench_accounts |      13712957440
 2017-02-05 20:09:26.676518+01 | 1486321766.67652 | pgbench_tellers  |           450560
 2017-02-05 20:09:26.676518+01 | 1486321766.67652 | pgbench_history  |         39821312
 2017-02-05 20:09:26.676518+01 | 1486321766.67652 | pgbench_branches |            40960

 2017-02-05 20:09:27.753584+01 | 1486321767.75358 | pgbench_accounts |      13712957440
 2017-02-05 20:09:27.753584+01 | 1486321767.75358 | pgbench_tellers  |           450560
 2017-02-05 20:09:27.753584+01 | 1486321767.75358 | pgbench_history  |         42688512
 2017-02-05 20:09:27.753584+01 | 1486321767.75358 | pgbench_branches |            40960

 2017-02-05 20:09:28.837352+01 | 1486321768.83735 | pgbench_accounts |      13712957440
 2017-02-05 20:09:28.837352+01 | 1486321768.83735 | pgbench_tellers  |           450560
 2017-02-05 20:09:28.837352+01 | 1486321768.83735 | pgbench_history  |         44433408
 2017-02-05 20:09:28.837352+01 | 1486321768.83735 | pgbench_branches |            40960

 2017-02-05 20:09:29.914571+01 | 1486321769.91457 | pgbench_accounts |      13712957440
 2017-02-05 20:09:29.914571+01 | 1486321769.91457 | pgbench_tellers  |           450560
 2017-02-05 20:09:29.914571+01 | 1486321769.91457 | pgbench_history  |         47177728
 2017-02-05 20:09:29.914571+01 | 1486321769.91457 | pgbench_branches |            40960

 2017-02-05 20:09:30.990757+01 | 1486321770.99076 | pgbench_accounts |      13712957440
 2017-02-05 20:09:30.990757+01 | 1486321770.99076 | pgbench_tellers  |           450560
 2017-02-05 20:09:30.990757+01 | 1486321770.99076 | pgbench_history  |         49717248
 2017-02-05 20:09:30.990757+01 | 1486321770.99076 | pgbench_branches |            40960

 2017-02-05 20:09:32.066711+01 | 1486321772.06671 | pgbench_accounts |      13712957440
 2017-02-05 20:09:32.066711+01 | 1486321772.06671 | pgbench_tellers  |           450560
 2017-02-05 20:09:32.066711+01 | 1486321772.06671 | pgbench_history  |         52133888
 2017-02-05 20:09:32.066711+01 | 1486321772.06671 | pgbench_branches |            40960

 2017-02-05 20:09:33.148851+01 | 1486321773.14885 | pgbench_accounts |      13712957440
 2017-02-05 20:09:33.148851+01 | 1486321773.14885 | pgbench_tellers  |           450560
 2017-02-05 20:09:33.148851+01 | 1486321773.14885 | pgbench_history  |         55705600
 2017-02-05 20:09:33.148851+01 | 1486321773.14885 | pgbench_branches |            40960

 2017-02-05 20:09:34.22032+01 | 1486321774.22032 | pgbench_accounts |      13712957440
 2017-02-05 20:09:34.22032+01 | 1486321774.22032 | pgbench_tellers  |           450560
 2017-02-05 20:09:34.22032+01 | 1486321774.22032 | pgbench_history  |         57262080
 2017-02-05 20:09:34.22032+01 | 1486321774.22032 | pgbench_branches |            40960

 2017-02-05 20:09:35.293901+01 | 1486321775.2939 | pgbench_accounts |      13712957440
 2017-02-05 20:09:35.293901+01 | 1486321775.2939 | pgbench_tellers  |           450560
 2017-02-05 20:09:35.293901+01 | 1486321775.2939 | pgbench_history  |         59604992
 2017-02-05 20:09:35.293901+01 | 1486321775.2939 | pgbench_branches |            40960

 2017-02-05 20:09:36.374018+01 | 1486321776.37402 | pgbench_accounts |      13712957440
 2017-02-05 20:09:36.374018+01 | 1486321776.37402 | pgbench_tellers  |           450560
 2017-02-05 20:09:36.374018+01 | 1486321776.37402 | pgbench_history  |         62300160
 2017-02-05 20:09:36.374018+01 | 1486321776.37402 | pgbench_branches |            40960

 2017-02-05 20:09:37.452753+01 | 1486321777.45275 | pgbench_accounts |      13712957440
 2017-02-05 20:09:37.452753+01 | 1486321777.45275 | pgbench_tellers  |           450560
 2017-02-05 20:09:37.452753+01 | 1486321777.45275 | pgbench_history  |         64241664
 2017-02-05 20:09:37.452753+01 | 1486321777.45275 | pgbench_branches |            40960

 2017-02-05 20:09:38.530519+01 | 1486321778.53052 | pgbench_accounts |      13712957440
 2017-02-05 20:09:38.530519+01 | 1486321778.53052 | pgbench_tellers  |           450560
 2017-02-05 20:09:38.530519+01 | 1486321778.53052 | pgbench_history  |         66445312
 2017-02-05 20:09:38.530519+01 | 1486321778.53052 | pgbench_branches |            40960

 2017-02-05 20:09:39.605148+01 | 1486321779.60515 | pgbench_accounts |      13712957440
 2017-02-05 20:09:39.605148+01 | 1486321779.60515 | pgbench_tellers  |           450560
 2017-02-05 20:09:39.605148+01 | 1486321779.60515 | pgbench_history  |         68485120
 2017-02-05 20:09:39.605148+01 | 1486321779.60515 | pgbench_branches |            40960

 2017-02-05 20:09:40.678983+01 | 1486321780.67898 | pgbench_accounts |      13712957440
 2017-02-05 20:09:40.678983+01 | 1486321780.67898 | pgbench_tellers  |           450560
 2017-02-05 20:09:40.678983+01 | 1486321780.67898 | pgbench_history  |         70230016
 2017-02-05 20:09:40.678983+01 | 1486321780.67898 | pgbench_branches |            40960

 2017-02-05 20:09:41.762236+01 | 1486321781.76224 | pgbench_accounts |      13712957440
 2017-02-05 20:09:41.762236+01 | 1486321781.76224 | pgbench_tellers  |           450560
 2017-02-05 20:09:41.762236+01 | 1486321781.76224 | pgbench_history  |         72810496
 2017-02-05 20:09:41.762236+01 | 1486321781.76224 | pgbench_branches |            40960

 2017-02-05 20:09:42.841914+01 | 1486321782.84191 | pgbench_accounts |      13712957440
 2017-02-05 20:09:42.841914+01 | 1486321782.84191 | pgbench_tellers  |           450560
 2017-02-05 20:09:42.841914+01 | 1486321782.84191 | pgbench_history  |         75481088
 2017-02-05 20:09:42.841914+01 | 1486321782.84191 | pgbench_branches |            40960

 2017-02-05 20:09:43.921688+01 | 1486321783.92169 | pgbench_accounts |      13712957440
 2017-02-05 20:09:43.921688+01 | 1486321783.92169 | pgbench_tellers  |           450560
 2017-02-05 20:09:43.921688+01 | 1486321783.92169 | pgbench_history  |         77144064
 2017-02-05 20:09:43.921688+01 | 1486321783.92169 | pgbench_branches |            40960

 2017-02-05 20:09:44.998051+01 | 1486321784.99805 | pgbench_accounts |      13712957440
 2017-02-05 20:09:44.998051+01 | 1486321784.99805 | pgbench_tellers  |           450560
 2017-02-05 20:09:44.998051+01 | 1486321784.99805 | pgbench_history  |         78995456
 2017-02-05 20:09:44.998051+01 | 1486321784.99805 | pgbench_branches |            40960

 2017-02-05 20:09:46.068491+01 | 1486321786.06849 | pgbench_accounts |      13712957440
 2017-02-05 20:09:46.068491+01 | 1486321786.06849 | pgbench_tellers  |           450560
 2017-02-05 20:09:46.068491+01 | 1486321786.06849 | pgbench_history  |         81526784
 2017-02-05 20:09:46.068491+01 | 1486321786.06849 | pgbench_branches |            40960

 2017-02-05 20:09:47.150537+01 | 1486321787.15054 | pgbench_accounts |      13712957440
 2017-02-05 20:09:47.150537+01 | 1486321787.15054 | pgbench_tellers  |           450560
 2017-02-05 20:09:47.150537+01 | 1486321787.15054 | pgbench_history  |         83910656
 2017-02-05 20:09:47.150537+01 | 1486321787.15054 | pgbench_branches |            40960

 2017-02-05 20:09:48.230882+01 | 1486321788.23088 | pgbench_accounts |      13712957440
 2017-02-05 20:09:48.230882+01 | 1486321788.23088 | pgbench_tellers  |           450560
 2017-02-05 20:09:48.230882+01 | 1486321788.23088 | pgbench_history  |         86114304
 2017-02-05 20:09:48.230882+01 | 1486321788.23088 | pgbench_branches |            40960

 2017-02-05 20:09:49.310732+01 | 1486321789.31073 | pgbench_accounts |      13712957440
 2017-02-05 20:09:49.310732+01 | 1486321789.31073 | pgbench_tellers  |           450560
 2017-02-05 20:09:49.310732+01 | 1486321789.31073 | pgbench_history  |         88727552
 2017-02-05 20:09:49.310732+01 | 1486321789.31073 | pgbench_branches |            40960

 2017-02-05 20:09:50.384431+01 | 1486321790.38443 | pgbench_accounts |      13712957440
 2017-02-05 20:09:50.384431+01 | 1486321790.38443 | pgbench_tellers  |           450560
 2017-02-05 20:09:50.384431+01 | 1486321790.38443 | pgbench_history  |         91267072
 2017-02-05 20:09:50.384431+01 | 1486321790.38443 | pgbench_branches |            40960

 2017-02-05 20:09:51.458526+01 | 1486321791.45853 | pgbench_accounts |      13712957440
 2017-02-05 20:09:51.458526+01 | 1486321791.45853 | pgbench_tellers  |           450560
 2017-02-05 20:09:51.458526+01 | 1486321791.45853 | pgbench_history  |         94011392
 2017-02-05 20:09:51.458526+01 | 1486321791.45853 | pgbench_branches |            40960

 2017-02-05 20:09:52.515154+01 | 1486321792.51515 | pgbench_accounts |      13712957440
 2017-02-05 20:09:52.515154+01 | 1486321792.51515 | pgbench_tellers  |           450560
 2017-02-05 20:09:52.515154+01 | 1486321792.51515 | pgbench_history  |         96075776
 2017-02-05 20:09:52.515154+01 | 1486321792.51515 | pgbench_branches |            40960

 2017-02-05 20:09:53.593491+01 | 1486321793.59349 | pgbench_accounts |      13712957440
 2017-02-05 20:09:53.593491+01 | 1486321793.59349 | pgbench_tellers  |           450560
 2017-02-05 20:09:53.593491+01 | 1486321793.59349 | pgbench_history  |         98631680
 2017-02-05 20:09:53.593491+01 | 1486321793.59349 | pgbench_branches |            40960

 2017-02-05 20:09:54.671355+01 | 1486321794.67136 | pgbench_accounts |      13712957440
 2017-02-05 20:09:54.671355+01 | 1486321794.67136 | pgbench_tellers  |           450560
 2017-02-05 20:09:54.671355+01 | 1486321794.67136 | pgbench_history  |        100343808
 2017-02-05 20:09:54.671355+01 | 1486321794.67136 | pgbench_branches |            40960

 2017-02-05 20:09:55.74663+01 | 1486321795.74663 | pgbench_accounts |      13712957440
 2017-02-05 20:09:55.74663+01 | 1486321795.74663 | pgbench_tellers  |           450560
 2017-02-05 20:09:55.74663+01 | 1486321795.74663 | pgbench_history  |        102408192
 2017-02-05 20:09:55.74663+01 | 1486321795.74663 | pgbench_branches |            40960

 2017-02-05 20:09:56.820094+01 | 1486321796.82009 | pgbench_accounts |      13712957440
 2017-02-05 20:09:56.820094+01 | 1486321796.82009 | pgbench_tellers  |           450560
 2017-02-05 20:09:56.820094+01 | 1486321796.82009 | pgbench_history  |        104890368
 2017-02-05 20:09:56.820094+01 | 1486321796.82009 | pgbench_branches |            40960

 2017-02-05 20:09:57.894784+01 | 1486321797.89478 | pgbench_accounts |      13712957440
 2017-02-05 20:09:57.894784+01 | 1486321797.89478 | pgbench_tellers  |           450560
 2017-02-05 20:09:57.894784+01 | 1486321797.89478 | pgbench_history  |        106627072
 2017-02-05 20:09:57.894784+01 | 1486321797.89478 | pgbench_branches |            40960

 2017-02-05 20:09:58.974042+01 | 1486321798.97404 | pgbench_accounts |      13712957440
 2017-02-05 20:09:58.974042+01 | 1486321798.97404 | pgbench_tellers  |           450560
 2017-02-05 20:09:58.974042+01 | 1486321798.97404 | pgbench_history  |        109322240
 2017-02-05 20:09:58.974042+01 | 1486321798.97404 | pgbench_branches |            40960

 2017-02-05 20:10:00.052826+01 | 1486321800.05283 | pgbench_accounts |      13712957440
 2017-02-05 20:10:00.052826+01 | 1486321800.05283 | pgbench_tellers  |           450560
 2017-02-05 20:10:00.052826+01 | 1486321800.05283 | pgbench_history  |        110985216
 2017-02-05 20:10:00.052826+01 | 1486321800.05283 | pgbench_branches |            40960

 2017-02-05 20:10:01.12765+01 | 1486321801.12765 | pgbench_accounts |      13712957440
 2017-02-05 20:10:01.12765+01 | 1486321801.12765 | pgbench_tellers  |           450560
 2017-02-05 20:10:01.12765+01 | 1486321801.12765 | pgbench_history  |        114360320
 2017-02-05 20:10:01.12765+01 | 1486321801.12765 | pgbench_branches |            40960

 2017-02-05 20:10:02.208887+01 | 1486321802.20889 | pgbench_accounts |      13712957440
 2017-02-05 20:10:02.208887+01 | 1486321802.20889 | pgbench_tellers  |           450560
 2017-02-05 20:10:02.208887+01 | 1486321802.20889 | pgbench_history  |        115204096
 2017-02-05 20:10:02.208887+01 | 1486321802.20889 | pgbench_branches |            40960

 2017-02-05 20:10:03.282907+01 | 1486321803.28291 | pgbench_accounts |      13712957440
 2017-02-05 20:10:03.282907+01 | 1486321803.28291 | pgbench_tellers  |           450560
 2017-02-05 20:10:03.282907+01 | 1486321803.28291 | pgbench_history  |        117383168
 2017-02-05 20:10:03.282907+01 | 1486321803.28291 | pgbench_branches |            40960

 2017-02-05 20:10:04.366866+01 | 1486321804.36687 | pgbench_accounts |      13712957440
 2017-02-05 20:10:04.366866+01 | 1486321804.36687 | pgbench_tellers  |           450560
 2017-02-05 20:10:04.366866+01 | 1486321804.36687 | pgbench_history  |        119087104
 2017-02-05 20:10:04.366866+01 | 1486321804.36687 | pgbench_branches |            40960

 2017-02-05 20:10:05.443989+01 | 1486321805.44399 | pgbench_accounts |      13712957440
 2017-02-05 20:10:05.443989+01 | 1486321805.44399 | pgbench_tellers  |           450560
 2017-02-05 20:10:05.443989+01 | 1486321805.44399 | pgbench_history  |        121954304
 2017-02-05 20:10:05.443989+01 | 1486321805.44399 | pgbench_branches |            40960

 2017-02-05 20:10:06.522538+01 | 1486321806.52254 | pgbench_accounts |      13712957440
 2017-02-05 20:10:06.522538+01 | 1486321806.52254 | pgbench_tellers  |           450560
 2017-02-05 20:10:06.522538+01 | 1486321806.52254 | pgbench_history  |        123527168
 2017-02-05 20:10:06.522538+01 | 1486321806.52254 | pgbench_branches |            40960

 2017-02-05 20:10:07.597966+01 | 1486321807.59797 | pgbench_accounts |      13712957440
 2017-02-05 20:10:07.597966+01 | 1486321807.59797 | pgbench_tellers  |           450560
 2017-02-05 20:10:07.597966+01 | 1486321807.59797 | pgbench_history  |        125730816
 2017-02-05 20:10:07.597966+01 | 1486321807.59797 | pgbench_branches |            40960

 2017-02-05 20:10:08.671089+01 | 1486321808.67109 | pgbench_accounts |      13712957440
 2017-02-05 20:10:08.671089+01 | 1486321808.67109 | pgbench_tellers  |           450560
 2017-02-05 20:10:08.671089+01 | 1486321808.67109 | pgbench_history  |        128016384
 2017-02-05 20:10:08.671089+01 | 1486321808.67109 | pgbench_branches |            40960

 2017-02-05 20:10:09.746853+01 | 1486321809.74685 | pgbench_accounts |      13712957440
 2017-02-05 20:10:09.746853+01 | 1486321809.74685 | pgbench_tellers  |           450560
 2017-02-05 20:10:09.746853+01 | 1486321809.74685 | pgbench_history  |        130457600
 2017-02-05 20:10:09.746853+01 | 1486321809.74685 | pgbench_branches |            40960

 2017-02-05 20:10:10.825529+01 | 1486321810.82553 | pgbench_accounts |      13712957440
 2017-02-05 20:10:10.825529+01 | 1486321810.82553 | pgbench_tellers  |           450560
 2017-02-05 20:10:10.825529+01 | 1486321810.82553 | pgbench_history  |        132882432
 2017-02-05 20:10:10.825529+01 | 1486321810.82553 | pgbench_branches |            40960

 2017-02-05 20:10:11.899942+01 | 1486321811.89994 | pgbench_accounts |      13712957440
 2017-02-05 20:10:11.899942+01 | 1486321811.89994 | pgbench_tellers  |           450560
 2017-02-05 20:10:11.899942+01 | 1486321811.89994 | pgbench_history  |        135151616
 2017-02-05 20:10:11.899942+01 | 1486321811.89994 | pgbench_branches |            40960

 2017-02-05 20:10:12.976804+01 | 1486321812.9768 | pgbench_accounts |      13712957440
 2017-02-05 20:10:12.976804+01 | 1486321812.9768 | pgbench_tellers  |           450560
 2017-02-05 20:10:12.976804+01 | 1486321812.9768 | pgbench_history  |        138387456
 2017-02-05 20:10:12.976804+01 | 1486321812.9768 | pgbench_branches |            40960

 2017-02-05 20:10:14.047708+01 | 1486321814.04771 | pgbench_accounts |      13712957440
 2017-02-05 20:10:14.047708+01 | 1486321814.04771 | pgbench_tellers  |           450560
 2017-02-05 20:10:14.047708+01 | 1486321814.04771 | pgbench_history  |        141393920
 2017-02-05 20:10:14.047708+01 | 1486321814.04771 | pgbench_branches |            40960

 2017-02-05 20:10:15.122235+01 | 1486321815.12224 | pgbench_accounts |      13712957440
 2017-02-05 20:10:15.122235+01 | 1486321815.12224 | pgbench_tellers  |           450560
 2017-02-05 20:10:15.122235+01 | 1486321815.12224 | pgbench_history  |        143081472
 2017-02-05 20:10:15.122235+01 | 1486321815.12224 | pgbench_branches |            40960

 2017-02-05 20:10:16.199495+01 | 1486321816.1995 | pgbench_accounts |      13712957440
 2017-02-05 20:10:16.199495+01 | 1486321816.1995 | pgbench_tellers  |           450560
 2017-02-05 20:10:16.199495+01 | 1486321816.1995 | pgbench_history  |        145940480
 2017-02-05 20:10:16.199495+01 | 1486321816.1995 | pgbench_branches |            40960

 2017-02-05 20:10:17.273666+01 | 1486321817.27367 | pgbench_accounts |      13712957440
 2017-02-05 20:10:17.273666+01 | 1486321817.27367 | pgbench_tellers  |           450560
 2017-02-05 20:10:17.273666+01 | 1486321817.27367 | pgbench_history  |        148447232
 2017-02-05 20:10:17.273666+01 | 1486321817.27367 | pgbench_branches |            40960

 2017-02-05 20:10:18.351127+01 | 1486321818.35113 | pgbench_accounts |      13712957440
 2017-02-05 20:10:18.351127+01 | 1486321818.35113 | pgbench_tellers  |           450560
 2017-02-05 20:10:18.351127+01 | 1486321818.35113 | pgbench_history  |        150323200
 2017-02-05 20:10:18.351127+01 | 1486321818.35113 | pgbench_branches |            40960

 2017-02-05 20:10:19.423104+01 | 1486321819.4231 | pgbench_accounts |      13712957440
 2017-02-05 20:10:19.423104+01 | 1486321819.4231 | pgbench_tellers  |           450560
 2017-02-05 20:10:19.423104+01 | 1486321819.4231 | pgbench_history  |        152387584
 2017-02-05 20:10:19.423104+01 | 1486321819.4231 | pgbench_branches |            40960

 2017-02-05 20:10:20.510629+01 | 1486321820.51063 | pgbench_accounts |      13712957440
 2017-02-05 20:10:20.510629+01 | 1486321820.51063 | pgbench_tellers  |           450560
 2017-02-05 20:10:20.510629+01 | 1486321820.51063 | pgbench_history  |        155443200
 2017-02-05 20:10:20.510629+01 | 1486321820.51063 | pgbench_branches |            40960

 2017-02-05 20:10:21.586402+01 | 1486321821.5864 | pgbench_accounts |      13712957440
 2017-02-05 20:10:21.586402+01 | 1486321821.5864 | pgbench_tellers  |           450560
 2017-02-05 20:10:21.586402+01 | 1486321821.5864 | pgbench_history  |        157810688
 2017-02-05 20:10:21.586402+01 | 1486321821.5864 | pgbench_branches |            40960

 2017-02-05 20:10:22.661425+01 | 1486321822.66143 | pgbench_accounts |      13712957440
 2017-02-05 20:10:22.661425+01 | 1486321822.66143 | pgbench_tellers  |           450560
 2017-02-05 20:10:22.661425+01 | 1486321822.66143 | pgbench_history  |        159498240
 2017-02-05 20:10:22.661425+01 | 1486321822.66143 | pgbench_branches |            40960

 2017-02-05 20:10:23.734155+01 | 1486321823.73415 | pgbench_accounts |      13712957440
 2017-02-05 20:10:23.734155+01 | 1486321823.73415 | pgbench_tellers  |           450560
 2017-02-05 20:10:23.734155+01 | 1486321823.73415 | pgbench_history  |        162357248
 2017-02-05 20:10:23.734155+01 | 1486321823.73415 | pgbench_branches |            40960

 2017-02-05 20:10:24.813117+01 | 1486321824.81312 | pgbench_accounts |      13712957440
 2017-02-05 20:10:24.813117+01 | 1486321824.81312 | pgbench_tellers  |           450560
 2017-02-05 20:10:24.813117+01 | 1486321824.81312 | pgbench_history  |        164585472
 2017-02-05 20:10:24.813117+01 | 1486321824.81312 | pgbench_branches |            40960

 2017-02-05 20:10:25.882785+01 | 1486321825.88279 | pgbench_accounts |      13712957440
 2017-02-05 20:10:25.882785+01 | 1486321825.88279 | pgbench_tellers  |           450560
 2017-02-05 20:10:25.882785+01 | 1486321825.88279 | pgbench_history  |        167010304
 2017-02-05 20:10:25.882785+01 | 1486321825.88279 | pgbench_branches |            40960

 2017-02-05 20:10:26.95859+01 | 1486321826.95859 | pgbench_accounts |      13712957440
 2017-02-05 20:10:26.95859+01 | 1486321826.95859 | pgbench_tellers  |           450560
 2017-02-05 20:10:26.95859+01 | 1486321826.95859 | pgbench_history  |        170721280
 2017-02-05 20:10:26.95859+01 | 1486321826.95859 | pgbench_branches |            40960

 2017-02-05 20:10:28.030824+01 | 1486321828.03082 | pgbench_accounts |      13712957440
 2017-02-05 20:10:28.030824+01 | 1486321828.03082 | pgbench_tellers  |           450560
 2017-02-05 20:10:28.030824+01 | 1486321828.03082 | pgbench_history  |        171917312
 2017-02-05 20:10:28.030824+01 | 1486321828.03082 | pgbench_branches |            40960

 2017-02-05 20:10:29.107491+01 | 1486321829.10749 | pgbench_accounts |      13712957440
 2017-02-05 20:10:29.107491+01 | 1486321829.10749 | pgbench_tellers  |           450560
 2017-02-05 20:10:29.107491+01 | 1486321829.10749 | pgbench_history  |        175013888
 2017-02-05 20:10:29.107491+01 | 1486321829.10749 | pgbench_branches |            40960

 2017-02-05 20:10:30.180856+01 | 1486321830.18086 | pgbench_accounts |      13712957440
 2017-02-05 20:10:30.180856+01 | 1486321830.18086 | pgbench_tellers  |           450560
 2017-02-05 20:10:30.180856+01 | 1486321830.18086 | pgbench_history  |        177381376
 2017-02-05 20:10:30.180856+01 | 1486321830.18086 | pgbench_branches |            40960

 2017-02-05 20:10:31.252288+01 | 1486321831.25229 | pgbench_accounts |      13712957440
 2017-02-05 20:10:31.252288+01 | 1486321831.25229 | pgbench_tellers  |           450560
 2017-02-05 20:10:31.252288+01 | 1486321831.25229 | pgbench_history  |        179945472
 2017-02-05 20:10:31.252288+01 | 1486321831.25229 | pgbench_branches |            40960

 2017-02-05 20:10:32.32984+01 | 1486321832.32984 | pgbench_accounts |      13712957440
 2017-02-05 20:10:32.32984+01 | 1486321832.32984 | pgbench_tellers  |           450560
 2017-02-05 20:10:32.32984+01 | 1486321832.32984 | pgbench_history  |        182501376
 2017-02-05 20:10:32.32984+01 | 1486321832.32984 | pgbench_branches |            40960

 2017-02-05 20:10:33.405458+01 | 1486321833.40546 | pgbench_accounts |      13712957440
 2017-02-05 20:10:33.405458+01 | 1486321833.40546 | pgbench_tellers  |           450560
 2017-02-05 20:10:33.405458+01 | 1486321833.40546 | pgbench_history  |        184705024
 2017-02-05 20:10:33.405458+01 | 1486321833.40546 | pgbench_branches |            40960

 2017-02-05 20:10:34.48083+01 | 1486321834.48083 | pgbench_accounts |      13712957440
 2017-02-05 20:10:34.48083+01 | 1486321834.48083 | pgbench_tellers  |           450560
 2017-02-05 20:10:34.48083+01 | 1486321834.48083 | pgbench_history  |        187187200
 2017-02-05 20:10:34.48083+01 | 1486321834.48083 | pgbench_branches |            40960

 2017-02-05 20:10:35.553703+01 | 1486321835.5537 | pgbench_accounts |      13712957440
 2017-02-05 20:10:35.553703+01 | 1486321835.5537 | pgbench_tellers  |           450560
 2017-02-05 20:10:35.553703+01 | 1486321835.5537 | pgbench_history  |        189554688
 2017-02-05 20:10:35.553703+01 | 1486321835.5537 | pgbench_branches |            40960

 2017-02-05 20:10:36.636656+01 | 1486321836.63666 | pgbench_accounts |      13712957440
 2017-02-05 20:10:36.636656+01 | 1486321836.63666 | pgbench_tellers  |           450560
 2017-02-05 20:10:36.636656+01 | 1486321836.63666 | pgbench_history  |        191733760
 2017-02-05 20:10:36.636656+01 | 1486321836.63666 | pgbench_branches |            40960

 2017-02-05 20:10:37.715924+01 | 1486321837.71592 | pgbench_accounts |      13712957440
 2017-02-05 20:10:37.715924+01 | 1486321837.71592 | pgbench_tellers  |           450560
 2017-02-05 20:10:37.715924+01 | 1486321837.71592 | pgbench_history  |        194805760
 2017-02-05 20:10:37.715924+01 | 1486321837.71592 | pgbench_branches |            40960

 2017-02-05 20:10:38.800874+01 | 1486321838.80087 | pgbench_accounts |      13712957440
 2017-02-05 20:10:38.800874+01 | 1486321838.80087 | pgbench_tellers  |           450560
 2017-02-05 20:10:38.800874+01 | 1486321838.80087 | pgbench_history  |        196542464
 2017-02-05 20:10:38.800874+01 | 1486321838.80087 | pgbench_branches |            40960

 2017-02-05 20:10:39.878286+01 | 1486321839.87829 | pgbench_accounts |      13712957440
 2017-02-05 20:10:39.878286+01 | 1486321839.87829 | pgbench_tellers  |           450560
 2017-02-05 20:10:39.878286+01 | 1486321839.87829 | pgbench_history  |        198967296
 2017-02-05 20:10:39.878286+01 | 1486321839.87829 | pgbench_branches |            40960

 2017-02-05 20:10:40.9553+01 | 1486321840.9553 | pgbench_accounts |      13712957440
 2017-02-05 20:10:40.9553+01 | 1486321840.9553 | pgbench_tellers  |           450560
 2017-02-05 20:10:40.9553+01 | 1486321840.9553 | pgbench_history  |        201383936
 2017-02-05 20:10:40.9553+01 | 1486321840.9553 | pgbench_branches |            40960

 2017-02-05 20:10:42.032437+01 | 1486321842.03244 | pgbench_accounts |      13712957440
 2017-02-05 20:10:42.032437+01 | 1486321842.03244 | pgbench_tellers  |           450560
 2017-02-05 20:10:42.032437+01 | 1486321842.03244 | pgbench_history  |        203792384
 2017-02-05 20:10:42.032437+01 | 1486321842.03244 | pgbench_branches |            40960

 2017-02-05 20:10:43.112479+01 | 1486321843.11248 | pgbench_accounts |      13712957440
 2017-02-05 20:10:43.112479+01 | 1486321843.11248 | pgbench_tellers  |           450560
 2017-02-05 20:10:43.112479+01 | 1486321843.11248 | pgbench_history  |        206848000
 2017-02-05 20:10:43.112479+01 | 1486321843.11248 | pgbench_branches |            40960

 2017-02-05 20:10:44.187183+01 | 1486321844.18718 | pgbench_accounts |      13712957440
 2017-02-05 20:10:44.187183+01 | 1486321844.18718 | pgbench_tellers  |           450560
 2017-02-05 20:10:44.187183+01 | 1486321844.18718 | pgbench_history  |        209092608
 2017-02-05 20:10:44.187183+01 | 1486321844.18718 | pgbench_branches |            40960

 2017-02-05 20:10:45.26687+01 | 1486321845.26687 | pgbench_accounts |      13712957440
 2017-02-05 20:10:45.26687+01 | 1486321845.26687 | pgbench_tellers  |           450560
 2017-02-05 20:10:45.26687+01 | 1486321845.26687 | pgbench_history  |        211353600
 2017-02-05 20:10:45.26687+01 | 1486321845.26687 | pgbench_branches |            40960

 2017-02-05 20:10:46.34109+01 | 1486321846.34109 | pgbench_accounts |      13712957440
 2017-02-05 20:10:46.34109+01 | 1486321846.34109 | pgbench_tellers  |           450560
 2017-02-05 20:10:46.34109+01 | 1486321846.34109 | pgbench_history  |        213753856
 2017-02-05 20:10:46.34109+01 | 1486321846.34109 | pgbench_branches |            40960

 2017-02-05 20:10:47.429633+01 | 1486321847.42963 | pgbench_accounts |      13712957440
 2017-02-05 20:10:47.429633+01 | 1486321847.42963 | pgbench_tellers  |           450560
 2017-02-05 20:10:47.429633+01 | 1486321847.42963 | pgbench_history  |        216170496
 2017-02-05 20:10:47.429633+01 | 1486321847.42963 | pgbench_branches |            40960

 2017-02-05 20:10:48.508432+01 | 1486321848.50843 | pgbench_accounts |      13712957440
 2017-02-05 20:10:48.508432+01 | 1486321848.50843 | pgbench_tellers  |           450560
 2017-02-05 20:10:48.508432+01 | 1486321848.50843 | pgbench_history  |        218570752
 2017-02-05 20:10:48.508432+01 | 1486321848.50843 | pgbench_branches |            40960

 2017-02-05 20:10:49.579544+01 | 1486321849.57954 | pgbench_accounts |      13712957440
 2017-02-05 20:10:49.579544+01 | 1486321849.57954 | pgbench_tellers  |           450560
 2017-02-05 20:10:49.579544+01 | 1486321849.57954 | pgbench_history  |        220774400
 2017-02-05 20:10:49.579544+01 | 1486321849.57954 | pgbench_branches |            40960

 2017-02-05 20:10:50.656497+01 | 1486321850.6565 | pgbench_accounts |      13712957440
 2017-02-05 20:10:50.656497+01 | 1486321850.6565 | pgbench_tellers  |           450560
 2017-02-05 20:10:50.656497+01 | 1486321850.6565 | pgbench_history  |        224321536
 2017-02-05 20:10:50.656497+01 | 1486321850.6565 | pgbench_branches |            40960

 2017-02-05 20:10:51.737714+01 | 1486321851.73771 | pgbench_accounts |      13712957440
 2017-02-05 20:10:51.737714+01 | 1486321851.73771 | pgbench_tellers  |           450560
 2017-02-05 20:10:51.737714+01 | 1486321851.73771 | pgbench_history  |        226074624
 2017-02-05 20:10:51.737714+01 | 1486321851.73771 | pgbench_branches |            40960

 2017-02-05 20:10:52.817239+01 | 1486321852.81724 | pgbench_accounts |      13712957440
 2017-02-05 20:10:52.817239+01 | 1486321852.81724 | pgbench_tellers  |           450560
 2017-02-05 20:10:52.817239+01 | 1486321852.81724 | pgbench_history  |        228605952
 2017-02-05 20:10:52.817239+01 | 1486321852.81724 | pgbench_branches |            40960

 2017-02-05 20:10:53.892752+01 | 1486321853.89275 | pgbench_accounts |      13712957440
 2017-02-05 20:10:53.892752+01 | 1486321853.89275 | pgbench_tellers  |           450560
 2017-02-05 20:10:53.892752+01 | 1486321853.89275 | pgbench_history  |        230686720
 2017-02-05 20:10:53.892752+01 | 1486321853.89275 | pgbench_branches |            40960

 2017-02-05 20:10:54.971751+01 | 1486321854.97175 | pgbench_accounts |      13712957440
 2017-02-05 20:10:54.971751+01 | 1486321854.97175 | pgbench_tellers  |           450560
 2017-02-05 20:10:54.971751+01 | 1486321854.97175 | pgbench_history  |        233406464
 2017-02-05 20:10:54.971751+01 | 1486321854.97175 | pgbench_branches |            40960

 2017-02-05 20:10:56.051007+01 | 1486321856.05101 | pgbench_accounts |      13712957440
 2017-02-05 20:10:56.051007+01 | 1486321856.05101 | pgbench_tellers  |           450560
 2017-02-05 20:10:56.051007+01 | 1486321856.05101 | pgbench_history  |        235798528
 2017-02-05 20:10:56.051007+01 | 1486321856.05101 | pgbench_branches |            40960

 2017-02-05 20:10:57.119712+01 | 1486321857.11971 | pgbench_accounts |      13712957440
 2017-02-05 20:10:57.119712+01 | 1486321857.11971 | pgbench_tellers  |           450560
 2017-02-05 20:10:57.119712+01 | 1486321857.11971 | pgbench_history  |        238247936
 2017-02-05 20:10:57.119712+01 | 1486321857.11971 | pgbench_branches |            40960

 2017-02-05 20:10:58.198732+01 | 1486321858.19873 | pgbench_accounts |      13712957440
 2017-02-05 20:10:58.198732+01 | 1486321858.19873 | pgbench_tellers  |           450560
 2017-02-05 20:10:58.198732+01 | 1486321858.19873 | pgbench_history  |        240951296
 2017-02-05 20:10:58.198732+01 | 1486321858.19873 | pgbench_branches |            40960

 2017-02-05 20:10:59.273332+01 | 1486321859.27333 | pgbench_accounts |      13712957440
 2017-02-05 20:10:59.273332+01 | 1486321859.27333 | pgbench_tellers  |           450560
 2017-02-05 20:10:59.273332+01 | 1486321859.27333 | pgbench_history  |        243212288
 2017-02-05 20:10:59.273332+01 | 1486321859.27333 | pgbench_branches |            40960

 2017-02-05 20:11:00.351442+01 | 1486321860.35144 | pgbench_accounts |      13712957440
 2017-02-05 20:11:00.351442+01 | 1486321860.35144 | pgbench_tellers  |           450560
 2017-02-05 20:11:00.351442+01 | 1486321860.35144 | pgbench_history  |        245637120
 2017-02-05 20:11:00.351442+01 | 1486321860.35144 | pgbench_branches |            40960

 2017-02-05 20:11:01.435041+01 | 1486321861.43504 | pgbench_accounts |      13712957440
 2017-02-05 20:11:01.435041+01 | 1486321861.43504 | pgbench_tellers  |           450560
 2017-02-05 20:11:01.435041+01 | 1486321861.43504 | pgbench_history  |        248193024
 2017-02-05 20:11:01.435041+01 | 1486321861.43504 | pgbench_branches |            40960

 2017-02-05 20:11:02.515305+01 | 1486321862.51531 | pgbench_accounts |      13712957440
 2017-02-05 20:11:02.515305+01 | 1486321862.51531 | pgbench_tellers  |           450560
 2017-02-05 20:11:02.515305+01 | 1486321862.51531 | pgbench_history  |        250863616
 2017-02-05 20:11:02.515305+01 | 1486321862.51531 | pgbench_branches |            40960

 2017-02-05 20:11:03.598934+01 | 1486321863.59893 | pgbench_accounts |      13712957440
 2017-02-05 20:11:03.598934+01 | 1486321863.59893 | pgbench_tellers  |           450560
 2017-02-05 20:11:03.598934+01 | 1486321863.59893 | pgbench_history  |        253231104
 2017-02-05 20:11:03.598934+01 | 1486321863.59893 | pgbench_branches |            40960

 2017-02-05 20:11:04.674534+01 | 1486321864.67453 | pgbench_accounts |      13712957440
 2017-02-05 20:11:04.674534+01 | 1486321864.67453 | pgbench_tellers  |           450560
 2017-02-05 20:11:04.674534+01 | 1486321864.67453 | pgbench_history  |        255795200
 2017-02-05 20:11:04.674534+01 | 1486321864.67453 | pgbench_branches |            40960

 2017-02-05 20:11:05.753015+01 | 1486321865.75302 | pgbench_accounts |      13712957440
 2017-02-05 20:11:05.753015+01 | 1486321865.75302 | pgbench_tellers  |           450560
 2017-02-05 20:11:05.753015+01 | 1486321865.75302 | pgbench_history  |        258490368
 2017-02-05 20:11:05.753015+01 | 1486321865.75302 | pgbench_branches |            40960

 2017-02-05 20:11:06.831403+01 | 1486321866.8314 | pgbench_accounts |      13712957440
 2017-02-05 20:11:06.831403+01 | 1486321866.8314 | pgbench_tellers  |           450560
 2017-02-05 20:11:06.831403+01 | 1486321866.8314 | pgbench_history  |        260014080
 2017-02-05 20:11:06.831403+01 | 1486321866.8314 | pgbench_branches |            40960

 2017-02-05 20:11:07.90401+01 | 1486321867.90401 | pgbench_accounts |      13712957440
 2017-02-05 20:11:07.90401+01 | 1486321867.90401 | pgbench_tellers  |           450560
 2017-02-05 20:11:07.90401+01 | 1486321867.90401 | pgbench_history  |        262709248
 2017-02-05 20:11:07.90401+01 | 1486321867.90401 | pgbench_branches |            40960

 2017-02-05 20:11:08.979075+01 | 1486321868.97907 | pgbench_accounts |      13712957440
 2017-02-05 20:11:08.979075+01 | 1486321868.97907 | pgbench_tellers  |           450560
 2017-02-05 20:11:08.979075+01 | 1486321868.97907 | pgbench_history  |        264945664
 2017-02-05 20:11:08.979075+01 | 1486321868.97907 | pgbench_branches |            40960

 2017-02-05 20:11:10.051766+01 | 1486321870.05177 | pgbench_accounts |      13712957440
 2017-02-05 20:11:10.051766+01 | 1486321870.05177 | pgbench_tellers  |           450560
 2017-02-05 20:11:10.051766+01 | 1486321870.05177 | pgbench_history  |        267968512
 2017-02-05 20:11:10.051766+01 | 1486321870.05177 | pgbench_branches |            40960

 2017-02-05 20:11:11.136987+01 | 1486321871.13699 | pgbench_accounts |      13712957440
 2017-02-05 20:11:11.136987+01 | 1486321871.13699 | pgbench_tellers  |           450560
 2017-02-05 20:11:11.136987+01 | 1486321871.13699 | pgbench_history  |        269844480
 2017-02-05 20:11:11.136987+01 | 1486321871.13699 | pgbench_branches |            40960

 2017-02-05 20:11:12.217488+01 | 1486321872.21749 | pgbench_accounts |      13712957440
 2017-02-05 20:11:12.217488+01 | 1486321872.21749 | pgbench_tellers  |           450560
 2017-02-05 20:11:12.217488+01 | 1486321872.21749 | pgbench_history  |        272703488
 2017-02-05 20:11:12.217488+01 | 1486321872.21749 | pgbench_branches |            40960

 2017-02-05 20:11:13.294515+01 | 1486321873.29451 | pgbench_accounts |      13712957440
 2017-02-05 20:11:13.294515+01 | 1486321873.29451 | pgbench_tellers  |           450560
 2017-02-05 20:11:13.294515+01 | 1486321873.29451 | pgbench_history  |        275161088
 2017-02-05 20:11:13.294515+01 | 1486321873.29451 | pgbench_branches |            40960

 2017-02-05 20:11:14.376945+01 | 1486321874.37695 | pgbench_accounts |      13712957440
 2017-02-05 20:11:14.376945+01 | 1486321874.37695 | pgbench_tellers  |           450560
 2017-02-05 20:11:14.376945+01 | 1486321874.37695 | pgbench_history  |        277184512
 2017-02-05 20:11:14.376945+01 | 1486321874.37695 | pgbench_branches |            40960

 2017-02-05 20:11:15.457839+01 | 1486321875.45784 | pgbench_accounts |      13712957440
 2017-02-05 20:11:15.457839+01 | 1486321875.45784 | pgbench_tellers  |           450560
 2017-02-05 20:11:15.457839+01 | 1486321875.45784 | pgbench_history  |        279552000
 2017-02-05 20:11:15.457839+01 | 1486321875.45784 | pgbench_branches |            40960

 2017-02-05 20:11:16.531144+01 | 1486321876.53114 | pgbench_accounts |      13712957440
 2017-02-05 20:11:16.531144+01 | 1486321876.53114 | pgbench_tellers  |           450560
 2017-02-05 20:11:16.531144+01 | 1486321876.53114 | pgbench_history  |        282271744
 2017-02-05 20:11:16.531144+01 | 1486321876.53114 | pgbench_branches |            40960

 2017-02-05 20:11:17.60627+01 | 1486321877.60627 | pgbench_accounts |      13712957440
 2017-02-05 20:11:17.60627+01 | 1486321877.60627 | pgbench_tellers  |           450560
 2017-02-05 20:11:17.60627+01 | 1486321877.60627 | pgbench_history  |        284647424
 2017-02-05 20:11:17.60627+01 | 1486321877.60627 | pgbench_branches |            40960

 2017-02-05 20:11:18.684684+01 | 1486321878.68468 | pgbench_accounts |      13712957440
 2017-02-05 20:11:18.684684+01 | 1486321878.68468 | pgbench_tellers  |           450560
 2017-02-05 20:11:18.684684+01 | 1486321878.68468 | pgbench_history  |        287178752
 2017-02-05 20:11:18.684684+01 | 1486321878.68468 | pgbench_branches |            40960

 2017-02-05 20:11:19.758995+01 | 1486321879.759 | pgbench_accounts |      13712957440
 2017-02-05 20:11:19.758995+01 | 1486321879.759 | pgbench_tellers  |           450560
 2017-02-05 20:11:19.758995+01 | 1486321879.759 | pgbench_history  |        289382400
 2017-02-05 20:11:19.758995+01 | 1486321879.759 | pgbench_branches |            40960

 2017-02-05 20:11:20.832009+01 | 1486321880.83201 | pgbench_accounts |      13712957440
 2017-02-05 20:11:20.832009+01 | 1486321880.83201 | pgbench_tellers  |           450560
 2017-02-05 20:11:20.832009+01 | 1486321880.83201 | pgbench_history  |        291938304
 2017-02-05 20:11:20.832009+01 | 1486321880.83201 | pgbench_branches |            40960

 2017-02-05 20:11:21.909545+01 | 1486321881.90954 | pgbench_accounts |      13712957440
 2017-02-05 20:11:21.909545+01 | 1486321881.90954 | pgbench_tellers  |           450560
 2017-02-05 20:11:21.909545+01 | 1486321881.90954 | pgbench_history  |        295370752
 2017-02-05 20:11:21.909545+01 | 1486321881.90954 | pgbench_branches |            40960

 2017-02-05 20:11:22.982573+01 | 1486321882.98257 | pgbench_accounts |      13712957440
 2017-02-05 20:11:22.982573+01 | 1486321882.98257 | pgbench_tellers  |           450560
 2017-02-05 20:11:22.982573+01 | 1486321882.98257 | pgbench_history  |        296542208
 2017-02-05 20:11:22.982573+01 | 1486321882.98257 | pgbench_branches |            40960

 2017-02-05 20:11:24.060113+01 | 1486321884.06011 | pgbench_accounts |      13712957440
 2017-02-05 20:11:24.060113+01 | 1486321884.06011 | pgbench_tellers  |           450560
 2017-02-05 20:11:24.060113+01 | 1486321884.06011 | pgbench_history  |        299098112
 2017-02-05 20:11:24.060113+01 | 1486321884.06011 | pgbench_branches |            40960

 2017-02-05 20:11:25.138115+01 | 1486321885.13811 | pgbench_accounts |      13712957440
 2017-02-05 20:11:25.138115+01 | 1486321885.13811 | pgbench_tellers  |           450560
 2017-02-05 20:11:25.138115+01 | 1486321885.13811 | pgbench_history  |        301981696
 2017-02-05 20:11:25.138115+01 | 1486321885.13811 | pgbench_branches |            40960

 2017-02-05 20:11:26.211992+01 | 1486321886.21199 | pgbench_accounts |      13712957440
 2017-02-05 20:11:26.211992+01 | 1486321886.21199 | pgbench_tellers  |           450560
 2017-02-05 20:11:26.211992+01 | 1486321886.21199 | pgbench_history  |        304865280
 2017-02-05 20:11:26.211992+01 | 1486321886.21199 | pgbench_branches |            40960

 2017-02-05 20:11:27.289965+01 | 1486321887.28996 | pgbench_accounts |      13712957440
 2017-02-05 20:11:27.289965+01 | 1486321887.28996 | pgbench_tellers  |           450560
 2017-02-05 20:11:27.289965+01 | 1486321887.28996 | pgbench_history  |        306552832
 2017-02-05 20:11:27.289965+01 | 1486321887.28996 | pgbench_branches |            40960

 2017-02-05 20:11:28.362581+01 | 1486321888.36258 | pgbench_accounts |      13712957440
 2017-02-05 20:11:28.362581+01 | 1486321888.36258 | pgbench_tellers  |           450560
 2017-02-05 20:11:28.362581+01 | 1486321888.36258 | pgbench_history  |        309157888
 2017-02-05 20:11:28.362581+01 | 1486321888.36258 | pgbench_branches |            40960

 2017-02-05 20:11:29.438674+01 | 1486321889.43867 | pgbench_accounts |      13712957440
 2017-02-05 20:11:29.438674+01 | 1486321889.43867 | pgbench_tellers  |           450560
 2017-02-05 20:11:29.438674+01 | 1486321889.43867 | pgbench_history  |        312713216
 2017-02-05 20:11:29.438674+01 | 1486321889.43867 | pgbench_branches |            40960

 2017-02-05 20:11:30.516268+01 | 1486321890.51627 | pgbench_accounts |      13712957440
 2017-02-05 20:11:30.516268+01 | 1486321890.51627 | pgbench_tellers  |           450560
 2017-02-05 20:11:30.516268+01 | 1486321890.51627 | pgbench_history  |        313393152
 2017-02-05 20:11:30.516268+01 | 1486321890.51627 | pgbench_branches |            40960

 2017-02-05 20:11:31.598978+01 | 1486321891.59898 | pgbench_accounts |      13712957440
 2017-02-05 20:11:31.598978+01 | 1486321891.59898 | pgbench_tellers  |           450560
 2017-02-05 20:11:31.598978+01 | 1486321891.59898 | pgbench_history  |        316260352
 2017-02-05 20:11:31.598978+01 | 1486321891.59898 | pgbench_branches |            40960

 2017-02-05 20:11:32.674688+01 | 1486321892.67469 | pgbench_accounts |      13712957440
 2017-02-05 20:11:32.674688+01 | 1486321892.67469 | pgbench_tellers  |           450560
 2017-02-05 20:11:32.674688+01 | 1486321892.67469 | pgbench_history  |        318660608
 2017-02-05 20:11:32.674688+01 | 1486321892.67469 | pgbench_branches |            40960

 2017-02-05 20:11:33.748977+01 | 1486321893.74898 | pgbench_accounts |      13712957440
 2017-02-05 20:11:33.748977+01 | 1486321893.74898 | pgbench_tellers  |           450560
 2017-02-05 20:11:33.748977+01 | 1486321893.74898 | pgbench_history  |        321191936
 2017-02-05 20:11:33.748977+01 | 1486321893.74898 | pgbench_branches |            40960

 2017-02-05 20:11:34.821265+01 | 1486321894.82126 | pgbench_accounts |      13712957440
 2017-02-05 20:11:34.821265+01 | 1486321894.82126 | pgbench_tellers  |           450560
 2017-02-05 20:11:34.821265+01 | 1486321894.82126 | pgbench_history  |        323403776
 2017-02-05 20:11:34.821265+01 | 1486321894.82126 | pgbench_branches |            40960

 2017-02-05 20:11:35.890285+01 | 1486321895.89029 | pgbench_accounts |      13712957440
 2017-02-05 20:11:35.890285+01 | 1486321895.89029 | pgbench_tellers  |           450560
 2017-02-05 20:11:35.890285+01 | 1486321895.89029 | pgbench_history  |        325607424
 2017-02-05 20:11:35.890285+01 | 1486321895.89029 | pgbench_branches |            40960

 2017-02-05 20:11:36.963478+01 | 1486321896.96348 | pgbench_accounts |      13712957440
 2017-02-05 20:11:36.963478+01 | 1486321896.96348 | pgbench_tellers  |           450560
 2017-02-05 20:11:36.963478+01 | 1486321896.96348 | pgbench_history  |        327671808
 2017-02-05 20:11:36.963478+01 | 1486321896.96348 | pgbench_branches |            40960

 2017-02-05 20:11:38.038957+01 | 1486321898.03896 | pgbench_accounts |      13712957440
 2017-02-05 20:11:38.038957+01 | 1486321898.03896 | pgbench_tellers  |           450560
 2017-02-05 20:11:38.038957+01 | 1486321898.03896 | pgbench_history  |        331071488
 2017-02-05 20:11:38.038957+01 | 1486321898.03896 | pgbench_branches |            40960

 2017-02-05 20:11:39.111578+01 | 1486321899.11158 | pgbench_accounts |      13712957440
 2017-02-05 20:11:39.111578+01 | 1486321899.11158 | pgbench_tellers  |           450560
 2017-02-05 20:11:39.111578+01 | 1486321899.11158 | pgbench_history  |        332931072
 2017-02-05 20:11:39.111578+01 | 1486321899.11158 | pgbench_branches |            40960

 2017-02-05 20:11:40.184855+01 | 1486321900.18485 | pgbench_accounts |      13712957440
 2017-02-05 20:11:40.184855+01 | 1486321900.18485 | pgbench_tellers  |           450560
 2017-02-05 20:11:40.184855+01 | 1486321900.18485 | pgbench_history  |        335159296
 2017-02-05 20:11:40.184855+01 | 1486321900.18485 | pgbench_branches |            40960

 2017-02-05 20:11:41.260451+01 | 1486321901.26045 | pgbench_accounts |      13712957440
 2017-02-05 20:11:41.260451+01 | 1486321901.26045 | pgbench_tellers  |           450560
 2017-02-05 20:11:41.260451+01 | 1486321901.26045 | pgbench_history  |        337690624
 2017-02-05 20:11:41.260451+01 | 1486321901.26045 | pgbench_branches |            40960

 2017-02-05 20:11:42.333939+01 | 1486321902.33394 | pgbench_accounts |      13712957440
 2017-02-05 20:11:42.333939+01 | 1486321902.33394 | pgbench_tellers  |           450560
 2017-02-05 20:11:42.333939+01 | 1486321902.33394 | pgbench_history  |        339918848
 2017-02-05 20:11:42.333939+01 | 1486321902.33394 | pgbench_branches |            40960

 2017-02-05 20:11:43.411749+01 | 1486321903.41175 | pgbench_accounts |      13712957440
 2017-02-05 20:11:43.411749+01 | 1486321903.41175 | pgbench_tellers  |           450560
 2017-02-05 20:11:43.411749+01 | 1486321903.41175 | pgbench_history  |        342884352
 2017-02-05 20:11:43.411749+01 | 1486321903.41175 | pgbench_branches |            40960

 2017-02-05 20:11:44.486154+01 | 1486321904.48615 | pgbench_accounts |      13712957440
 2017-02-05 20:11:44.486154+01 | 1486321904.48615 | pgbench_tellers  |           450560
 2017-02-05 20:11:44.486154+01 | 1486321904.48615 | pgbench_history  |        345088000
 2017-02-05 20:11:44.486154+01 | 1486321904.48615 | pgbench_branches |            40960

 2017-02-05 20:11:45.557653+01 | 1486321905.55765 | pgbench_accounts |      13712957440
 2017-02-05 20:11:45.557653+01 | 1486321905.55765 | pgbench_tellers  |           450560
 2017-02-05 20:11:45.557653+01 | 1486321905.55765 | pgbench_history  |        347807744
 2017-02-05 20:11:45.557653+01 | 1486321905.55765 | pgbench_branches |            40960

 2017-02-05 20:11:46.638025+01 | 1486321906.63803 | pgbench_accounts |      13712957440
 2017-02-05 20:11:46.638025+01 | 1486321906.63803 | pgbench_tellers  |           450560
 2017-02-05 20:11:46.638025+01 | 1486321906.63803 | pgbench_history  |        350044160
 2017-02-05 20:11:46.638025+01 | 1486321906.63803 | pgbench_branches |            40960

 2017-02-05 20:11:47.714126+01 | 1486321907.71413 | pgbench_accounts |      13712957440
 2017-02-05 20:11:47.714126+01 | 1486321907.71413 | pgbench_tellers  |           450560
 2017-02-05 20:11:47.714126+01 | 1486321907.71413 | pgbench_history  |        352976896
 2017-02-05 20:11:47.714126+01 | 1486321907.71413 | pgbench_branches |            40960

 2017-02-05 20:11:48.794897+01 | 1486321908.7949 | pgbench_accounts |      13712957440
 2017-02-05 20:11:48.794897+01 | 1486321908.7949 | pgbench_tellers  |           450560
 2017-02-05 20:11:48.794897+01 | 1486321908.7949 | pgbench_history  |        354533376
 2017-02-05 20:11:48.794897+01 | 1486321908.7949 | pgbench_branches |            40960

 2017-02-05 20:11:49.873409+01 | 1486321909.87341 | pgbench_accounts |      13712957440
 2017-02-05 20:11:49.873409+01 | 1486321909.87341 | pgbench_tellers  |           450560
 2017-02-05 20:11:49.873409+01 | 1486321909.87341 | pgbench_history  |        356761600
 2017-02-05 20:11:49.873409+01 | 1486321909.87341 | pgbench_branches |            40960

 2017-02-05 20:11:50.947472+01 | 1486321910.94747 | pgbench_accounts |      13712957440
 2017-02-05 20:11:50.947472+01 | 1486321910.94747 | pgbench_tellers  |           450560
 2017-02-05 20:11:50.947472+01 | 1486321910.94747 | pgbench_history  |        358801408
 2017-02-05 20:11:50.947472+01 | 1486321910.94747 | pgbench_branches |            40960

 2017-02-05 20:11:52.031461+01 | 1486321912.03146 | pgbench_accounts |      13712957440
 2017-02-05 20:11:52.031461+01 | 1486321912.03146 | pgbench_tellers  |           450560
 2017-02-05 20:11:52.031461+01 | 1486321912.03146 | pgbench_history  |        361496576
 2017-02-05 20:11:52.031461+01 | 1486321912.03146 | pgbench_branches |            40960

 2017-02-05 20:11:53.109074+01 | 1486321913.10907 | pgbench_accounts |      13712957440
 2017-02-05 20:11:53.109074+01 | 1486321913.10907 | pgbench_tellers  |           450560
 2017-02-05 20:11:53.109074+01 | 1486321913.10907 | pgbench_history  |        364380160
 2017-02-05 20:11:53.109074+01 | 1486321913.10907 | pgbench_branches |            40960

 2017-02-05 20:11:54.184153+01 | 1486321914.18415 | pgbench_accounts |      13712957440
 2017-02-05 20:11:54.184153+01 | 1486321914.18415 | pgbench_tellers  |           450560
 2017-02-05 20:11:54.184153+01 | 1486321914.18415 | pgbench_history  |        366723072
 2017-02-05 20:11:54.184153+01 | 1486321914.18415 | pgbench_branches |            40960

 2017-02-05 20:11:55.260012+01 | 1486321915.26001 | pgbench_accounts |      13712957440
 2017-02-05 20:11:55.260012+01 | 1486321915.26001 | pgbench_tellers  |           450560
 2017-02-05 20:11:55.260012+01 | 1486321915.26001 | pgbench_history  |        368467968
 2017-02-05 20:11:55.260012+01 | 1486321915.26001 | pgbench_branches |            40960

 2017-02-05 20:11:56.336368+01 | 1486321916.33637 | pgbench_accounts |      13712957440
 2017-02-05 20:11:56.336368+01 | 1486321916.33637 | pgbench_tellers  |           450560
 2017-02-05 20:11:56.336368+01 | 1486321916.33637 | pgbench_history  |        371679232
 2017-02-05 20:11:56.336368+01 | 1486321916.33637 | pgbench_branches |            40960

 2017-02-05 20:11:57.413954+01 | 1486321917.41395 | pgbench_accounts |      13712957440
 2017-02-05 20:11:57.413954+01 | 1486321917.41395 | pgbench_tellers  |           450560
 2017-02-05 20:11:57.413954+01 | 1486321917.41395 | pgbench_history  |        373415936
 2017-02-05 20:11:57.413954+01 | 1486321917.41395 | pgbench_branches |            40960

 2017-02-05 20:11:58.489135+01 | 1486321918.48914 | pgbench_accounts |      13712957440
 2017-02-05 20:11:58.489135+01 | 1486321918.48914 | pgbench_tellers  |           450560
 2017-02-05 20:11:58.489135+01 | 1486321918.48914 | pgbench_history  |        377421824
 2017-02-05 20:11:58.489135+01 | 1486321918.48914 | pgbench_branches |            40960

 2017-02-05 20:11:59.56467+01 | 1486321919.56467 | pgbench_accounts |      13712957440
 2017-02-05 20:11:59.56467+01 | 1486321919.56467 | pgbench_tellers  |           450560
 2017-02-05 20:11:59.56467+01 | 1486321919.56467 | pgbench_history  |        378265600
 2017-02-05 20:11:59.56467+01 | 1486321919.56467 | pgbench_branches |            40960

 2017-02-05 20:12:00.639267+01 | 1486321920.63927 | pgbench_accounts |      13712957440
 2017-02-05 20:12:00.639267+01 | 1486321920.63927 | pgbench_tellers  |           450560
 2017-02-05 20:12:00.639267+01 | 1486321920.63927 | pgbench_history  |        381493248
 2017-02-05 20:12:00.639267+01 | 1486321920.63927 | pgbench_branches |            40960

 2017-02-05 20:12:01.711781+01 | 1486321921.71178 | pgbench_accounts |      13712957440
 2017-02-05 20:12:01.711781+01 | 1486321921.71178 | pgbench_tellers  |           450560
 2017-02-05 20:12:01.711781+01 | 1486321921.71178 | pgbench_history  |        383606784
 2017-02-05 20:12:01.711781+01 | 1486321921.71178 | pgbench_branches |            40960

 2017-02-05 20:12:02.786429+01 | 1486321922.78643 | pgbench_accounts |      13712957440
 2017-02-05 20:12:02.786429+01 | 1486321922.78643 | pgbench_tellers  |           450560
 2017-02-05 20:12:02.786429+01 | 1486321922.78643 | pgbench_history  |        386113536
 2017-02-05 20:12:02.786429+01 | 1486321922.78643 | pgbench_branches |            40960

 2017-02-05 20:12:03.855653+01 | 1486321923.85565 | pgbench_accounts |      13712957440
 2017-02-05 20:12:03.855653+01 | 1486321923.85565 | pgbench_tellers  |           450560
 2017-02-05 20:12:03.855653+01 | 1486321923.85565 | pgbench_history  |        388169728
 2017-02-05 20:12:03.855653+01 | 1486321923.85565 | pgbench_branches |            40960

 2017-02-05 20:12:04.936009+01 | 1486321924.93601 | pgbench_accounts |      13712957440
 2017-02-05 20:12:04.936009+01 | 1486321924.93601 | pgbench_tellers  |           450560
 2017-02-05 20:12:04.936009+01 | 1486321924.93601 | pgbench_history  |        390512640
 2017-02-05 20:12:04.936009+01 | 1486321924.93601 | pgbench_branches |            40960

 2017-02-05 20:12:06.009798+01 | 1486321926.0098 | pgbench_accounts |      13712957440
 2017-02-05 20:12:06.009798+01 | 1486321926.0098 | pgbench_tellers  |           450560
 2017-02-05 20:12:06.009798+01 | 1486321926.0098 | pgbench_history  |        392740864
 2017-02-05 20:12:06.009798+01 | 1486321926.0098 | pgbench_branches |            40960

 2017-02-05 20:12:07.091867+01 | 1486321927.09187 | pgbench_accounts |      13712957440
 2017-02-05 20:12:07.091867+01 | 1486321927.09187 | pgbench_tellers  |           450560
 2017-02-05 20:12:07.091867+01 | 1486321927.09187 | pgbench_history  |        395173888
 2017-02-05 20:12:07.091867+01 | 1486321927.09187 | pgbench_branches |            40960

 2017-02-05 20:12:08.166073+01 | 1486321928.16607 | pgbench_accounts |      13712957440
 2017-02-05 20:12:08.166073+01 | 1486321928.16607 | pgbench_tellers  |           450560
 2017-02-05 20:12:08.166073+01 | 1486321928.16607 | pgbench_history  |        397713408
 2017-02-05 20:12:08.166073+01 | 1486321928.16607 | pgbench_branches |            40960

 2017-02-05 20:12:09.250726+01 | 1486321929.25073 | pgbench_accounts |      13712957440
 2017-02-05 20:12:09.250726+01 | 1486321929.25073 | pgbench_tellers  |           450560
 2017-02-05 20:12:09.250726+01 | 1486321929.25073 | pgbench_history  |        401063936
 2017-02-05 20:12:09.250726+01 | 1486321929.25073 | pgbench_branches |            40960

 2017-02-05 20:12:10.327071+01 | 1486321930.32707 | pgbench_accounts |      13712957440
 2017-02-05 20:12:10.327071+01 | 1486321930.32707 | pgbench_tellers  |           450560
 2017-02-05 20:12:10.327071+01 | 1486321930.32707 | pgbench_history  |        403406848
 2017-02-05 20:12:10.327071+01 | 1486321930.32707 | pgbench_branches |            40960

 2017-02-05 20:12:11.404268+01 | 1486321931.40427 | pgbench_accounts |      13712957440
 2017-02-05 20:12:11.404268+01 | 1486321931.40427 | pgbench_tellers  |           450560
 2017-02-05 20:12:11.404268+01 | 1486321931.40427 | pgbench_history  |        404955136
 2017-02-05 20:12:11.404268+01 | 1486321931.40427 | pgbench_branches |            40960

 2017-02-05 20:12:12.483487+01 | 1486321932.48349 | pgbench_accounts |      13712957440
 2017-02-05 20:12:12.483487+01 | 1486321932.48349 | pgbench_tellers  |           450560
 2017-02-05 20:12:12.483487+01 | 1486321932.48349 | pgbench_history  |        407535616
 2017-02-05 20:12:12.483487+01 | 1486321932.48349 | pgbench_branches |            40960

 2017-02-05 20:12:13.557252+01 | 1486321933.55725 | pgbench_accounts |      13712957440
 2017-02-05 20:12:13.557252+01 | 1486321933.55725 | pgbench_tellers  |           450560
 2017-02-05 20:12:13.557252+01 | 1486321933.55725 | pgbench_history  |        409419776
 2017-02-05 20:12:13.557252+01 | 1486321933.55725 | pgbench_branches |            40960

 2017-02-05 20:12:14.637761+01 | 1486321934.63776 | pgbench_accounts |      13712957440
 2017-02-05 20:12:14.637761+01 | 1486321934.63776 | pgbench_tellers  |           450560
 2017-02-05 20:12:14.637761+01 | 1486321934.63776 | pgbench_history  |        411508736
 2017-02-05 20:12:14.637761+01 | 1486321934.63776 | pgbench_branches |            40960

 2017-02-05 20:12:15.708352+01 | 1486321935.70835 | pgbench_accounts |      13712957440
 2017-02-05 20:12:15.708352+01 | 1486321935.70835 | pgbench_tellers  |           450560
 2017-02-05 20:12:15.708352+01 | 1486321935.70835 | pgbench_history  |        414334976
 2017-02-05 20:12:15.708352+01 | 1486321935.70835 | pgbench_branches |            40960

 2017-02-05 20:12:16.782928+01 | 1486321936.78293 | pgbench_accounts |      13712957440
 2017-02-05 20:12:16.782928+01 | 1486321936.78293 | pgbench_tellers  |           450560
 2017-02-05 20:12:16.782928+01 | 1486321936.78293 | pgbench_history  |        416890880
 2017-02-05 20:12:16.782928+01 | 1486321936.78293 | pgbench_branches |            40960

 2017-02-05 20:12:17.860986+01 | 1486321937.86099 | pgbench_accounts |      13712957440
 2017-02-05 20:12:17.860986+01 | 1486321937.86099 | pgbench_tellers  |           450560
 2017-02-05 20:12:17.860986+01 | 1486321937.86099 | pgbench_history  |        419446784
 2017-02-05 20:12:17.860986+01 | 1486321937.86099 | pgbench_branches |            40960

 2017-02-05 20:12:18.941885+01 | 1486321938.94188 | pgbench_accounts |      13712957440
 2017-02-05 20:12:18.941885+01 | 1486321938.94188 | pgbench_tellers  |           450560
 2017-02-05 20:12:18.941885+01 | 1486321938.94188 | pgbench_history  |        421347328
 2017-02-05 20:12:18.941885+01 | 1486321938.94188 | pgbench_branches |            40960

 2017-02-05 20:12:20.023873+01 | 1486321940.02387 | pgbench_accounts |      13712957440
 2017-02-05 20:12:20.023873+01 | 1486321940.02387 | pgbench_tellers  |           450560
 2017-02-05 20:12:20.023873+01 | 1486321940.02387 | pgbench_history  |        423903232
 2017-02-05 20:12:20.023873+01 | 1486321940.02387 | pgbench_branches |            40960

 2017-02-05 20:12:21.093919+01 | 1486321941.09392 | pgbench_accounts |      13712957440
 2017-02-05 20:12:21.093919+01 | 1486321941.09392 | pgbench_tellers  |           450560
 2017-02-05 20:12:21.093919+01 | 1486321941.09392 | pgbench_history  |        426950656
 2017-02-05 20:12:21.093919+01 | 1486321941.09392 | pgbench_branches |            40960

 2017-02-05 20:12:22.167766+01 | 1486321942.16777 | pgbench_accounts |      13712957440
 2017-02-05 20:12:22.167766+01 | 1486321942.16777 | pgbench_tellers  |           450560
 2017-02-05 20:12:22.167766+01 | 1486321942.16777 | pgbench_history  |        428638208
 2017-02-05 20:12:22.167766+01 | 1486321942.16777 | pgbench_branches |            40960

 2017-02-05 20:12:23.247481+01 | 1486321943.24748 | pgbench_accounts |      13712957440
 2017-02-05 20:12:23.247481+01 | 1486321943.24748 | pgbench_tellers  |           450560
 2017-02-05 20:12:23.247481+01 | 1486321943.24748 | pgbench_history  |        430825472
 2017-02-05 20:12:23.247481+01 | 1486321943.24748 | pgbench_branches |            40960

 2017-02-05 20:12:24.32643+01 | 1486321944.32643 | pgbench_accounts |      13712957440
 2017-02-05 20:12:24.32643+01 | 1486321944.32643 | pgbench_tellers  |           450560
 2017-02-05 20:12:24.32643+01 | 1486321944.32643 | pgbench_history  |        433602560
 2017-02-05 20:12:24.32643+01 | 1486321944.32643 | pgbench_branches |            40960

 2017-02-05 20:12:25.40321+01 | 1486321945.40321 | pgbench_accounts |      13712957440
 2017-02-05 20:12:25.40321+01 | 1486321945.40321 | pgbench_tellers  |           450560
 2017-02-05 20:12:25.40321+01 | 1486321945.40321 | pgbench_history  |        436035584
 2017-02-05 20:12:25.40321+01 | 1486321945.40321 | pgbench_branches |            40960

 2017-02-05 20:12:26.486463+01 | 1486321946.48646 | pgbench_accounts |      13712957440
 2017-02-05 20:12:26.486463+01 | 1486321946.48646 | pgbench_tellers  |           450560
 2017-02-05 20:12:26.486463+01 | 1486321946.48646 | pgbench_history  |        437911552
 2017-02-05 20:12:26.486463+01 | 1486321946.48646 | pgbench_branches |            40960

 2017-02-05 20:12:27.560567+01 | 1486321947.56057 | pgbench_accounts |      13712957440
 2017-02-05 20:12:27.560567+01 | 1486321947.56057 | pgbench_tellers  |           450560
 2017-02-05 20:12:27.560567+01 | 1486321947.56057 | pgbench_history  |        440287232
 2017-02-05 20:12:27.560567+01 | 1486321947.56057 | pgbench_branches |            40960

 2017-02-05 20:12:28.632756+01 | 1486321948.63276 | pgbench_accounts |      13712957440
 2017-02-05 20:12:28.632756+01 | 1486321948.63276 | pgbench_tellers  |           450560
 2017-02-05 20:12:28.632756+01 | 1486321948.63276 | pgbench_history  |        442703872
 2017-02-05 20:12:28.632756+01 | 1486321948.63276 | pgbench_branches |            40960

 2017-02-05 20:12:29.708947+01 | 1486321949.70895 | pgbench_accounts |      13712957440
 2017-02-05 20:12:29.708947+01 | 1486321949.70895 | pgbench_tellers  |           450560
 2017-02-05 20:12:29.708947+01 | 1486321949.70895 | pgbench_history  |        445259776
 2017-02-05 20:12:29.708947+01 | 1486321949.70895 | pgbench_branches |            40960

 2017-02-05 20:12:30.780833+01 | 1486321950.78083 | pgbench_accounts |      13712957440
 2017-02-05 20:12:30.780833+01 | 1486321950.78083 | pgbench_tellers  |           450560
 2017-02-05 20:12:30.780833+01 | 1486321950.78083 | pgbench_history  |        446619648
 2017-02-05 20:12:30.780833+01 | 1486321950.78083 | pgbench_branches |            40960

 2017-02-05 20:12:31.855019+01 | 1486321951.85502 | pgbench_accounts |      13712957440
 2017-02-05 20:12:31.855019+01 | 1486321951.85502 | pgbench_tellers  |           450560
 2017-02-05 20:12:31.855019+01 | 1486321951.85502 | pgbench_history  |        448659456
 2017-02-05 20:12:31.855019+01 | 1486321951.85502 | pgbench_branches |            40960

 2017-02-05 20:12:32.928292+01 | 1486321952.92829 | pgbench_accounts |      13712957440
 2017-02-05 20:12:32.928292+01 | 1486321952.92829 | pgbench_tellers  |           450560
 2017-02-05 20:12:32.928292+01 | 1486321952.92829 | pgbench_history  |        450732032
 2017-02-05 20:12:32.928292+01 | 1486321952.92829 | pgbench_branches |            40960

 2017-02-05 20:12:34.01642+01 | 1486321954.01642 | pgbench_accounts |      13712957440
 2017-02-05 20:12:34.01642+01 | 1486321954.01642 | pgbench_tellers  |           450560
 2017-02-05 20:12:34.01642+01 | 1486321954.01642 | pgbench_history  |        452124672
 2017-02-05 20:12:34.01642+01 | 1486321954.01642 | pgbench_branches |            40960

 2017-02-05 20:12:35.088634+01 | 1486321955.08863 | pgbench_accounts |      13712957440
 2017-02-05 20:12:35.088634+01 | 1486321955.08863 | pgbench_tellers  |           450560
 2017-02-05 20:12:35.088634+01 | 1486321955.08863 | pgbench_history  |        454000640
 2017-02-05 20:12:35.088634+01 | 1486321955.08863 | pgbench_branches |            40960

 2017-02-05 20:12:36.169048+01 | 1486321956.16905 | pgbench_accounts |      13712957440
 2017-02-05 20:12:36.169048+01 | 1486321956.16905 | pgbench_tellers  |           450560
 2017-02-05 20:12:36.169048+01 | 1486321956.16905 | pgbench_history  |        455712768
 2017-02-05 20:12:36.169048+01 | 1486321956.16905 | pgbench_branches |            40960

 2017-02-05 20:12:37.247758+01 | 1486321957.24776 | pgbench_accounts |      13712957440
 2017-02-05 20:12:37.247758+01 | 1486321957.24776 | pgbench_tellers  |           450560
 2017-02-05 20:12:37.247758+01 | 1486321957.24776 | pgbench_history  |        459177984
 2017-02-05 20:12:37.247758+01 | 1486321957.24776 | pgbench_branches |            40960

 2017-02-05 20:12:38.319018+01 | 1486321958.31902 | pgbench_accounts |      13712957440
 2017-02-05 20:12:38.319018+01 | 1486321958.31902 | pgbench_tellers  |           450560
 2017-02-05 20:12:38.319018+01 | 1486321958.31902 | pgbench_history  |        459177984
 2017-02-05 20:12:38.319018+01 | 1486321958.31902 | pgbench_branches |            40960

 2017-02-05 20:12:39.392077+01 | 1486321959.39208 | pgbench_accounts |      13712957440
 2017-02-05 20:12:39.392077+01 | 1486321959.39208 | pgbench_tellers  |           450560
 2017-02-05 20:12:39.392077+01 | 1486321959.39208 | pgbench_history  |        461717504
 2017-02-05 20:12:39.392077+01 | 1486321959.39208 | pgbench_branches |            40960

 2017-02-05 20:12:40.465445+01 | 1486321960.46545 | pgbench_accounts |      13712957440
 2017-02-05 20:12:40.465445+01 | 1486321960.46545 | pgbench_tellers  |           450560
 2017-02-05 20:12:40.465445+01 | 1486321960.46545 | pgbench_history  |        462749696
 2017-02-05 20:12:40.465445+01 | 1486321960.46545 | pgbench_branches |            40960

 2017-02-05 20:12:41.540306+01 | 1486321961.54031 | pgbench_accounts |      13712957440
 2017-02-05 20:12:41.540306+01 | 1486321961.54031 | pgbench_tellers  |           450560
 2017-02-05 20:12:41.540306+01 | 1486321961.54031 | pgbench_history  |        464986112
 2017-02-05 20:12:41.540306+01 | 1486321961.54031 | pgbench_branches |            40960

 2017-02-05 20:12:42.620383+01 | 1486321962.62038 | pgbench_accounts |      13712957440
 2017-02-05 20:12:42.620383+01 | 1486321962.62038 | pgbench_tellers  |           450560
 2017-02-05 20:12:42.620383+01 | 1486321962.62038 | pgbench_history  |        466714624
 2017-02-05 20:12:42.620383+01 | 1486321962.62038 | pgbench_branches |            40960

 2017-02-05 20:12:43.699409+01 | 1486321963.69941 | pgbench_accounts |      13712957440
 2017-02-05 20:12:43.699409+01 | 1486321963.69941 | pgbench_tellers  |           450560
 2017-02-05 20:12:43.699409+01 | 1486321963.69941 | pgbench_history  |        468238336
 2017-02-05 20:12:43.699409+01 | 1486321963.69941 | pgbench_branches |            40960

 2017-02-05 20:12:44.779601+01 | 1486321964.7796 | pgbench_accounts |      13712957440
 2017-02-05 20:12:44.779601+01 | 1486321964.7796 | pgbench_tellers  |           450560
 2017-02-05 20:12:44.779601+01 | 1486321964.7796 | pgbench_history  |        470990848
 2017-02-05 20:12:44.779601+01 | 1486321964.7796 | pgbench_branches |            40960

 2017-02-05 20:12:45.866768+01 | 1486321965.86677 | pgbench_accounts |      13712957440
 2017-02-05 20:12:45.866768+01 | 1486321965.86677 | pgbench_tellers  |           450560
 2017-02-05 20:12:45.866768+01 | 1486321965.86677 | pgbench_history  |        475824128
 2017-02-05 20:12:45.866768+01 | 1486321965.86677 | pgbench_branches |            40960

 2017-02-05 20:12:46.946707+01 | 1486321966.94671 | pgbench_accounts |      13712957440
 2017-02-05 20:12:46.946707+01 | 1486321966.94671 | pgbench_tellers  |           450560
 2017-02-05 20:12:46.946707+01 | 1486321966.94671 | pgbench_history  |        475824128
 2017-02-05 20:12:46.946707+01 | 1486321966.94671 | pgbench_branches |            40960

 2017-02-05 20:12:48.023287+01 | 1486321968.02329 | pgbench_accounts |      13712957440
 2017-02-05 20:12:48.023287+01 | 1486321968.02329 | pgbench_tellers  |           450560
 2017-02-05 20:12:48.023287+01 | 1486321968.02329 | pgbench_history  |        476897280
 2017-02-05 20:12:48.023287+01 | 1486321968.02329 | pgbench_branches |            40960

 2017-02-05 20:12:49.096175+01 | 1486321969.09617 | pgbench_accounts |      13712957440
 2017-02-05 20:12:49.096175+01 | 1486321969.09617 | pgbench_tellers  |           450560
 2017-02-05 20:12:49.096175+01 | 1486321969.09617 | pgbench_history  |        479264768
 2017-02-05 20:12:49.096175+01 | 1486321969.09617 | pgbench_branches |            40960

 2017-02-05 20:12:50.167754+01 | 1486321970.16775 | pgbench_accounts |      13712957440
 2017-02-05 20:12:50.167754+01 | 1486321970.16775 | pgbench_tellers  |           450560
 2017-02-05 20:12:50.167754+01 | 1486321970.16775 | pgbench_history  |        482541568
 2017-02-05 20:12:50.167754+01 | 1486321970.16775 | pgbench_branches |            40960

 2017-02-05 20:12:51.244087+01 | 1486321971.24409 | pgbench_accounts |      13712957440
 2017-02-05 20:12:51.244087+01 | 1486321971.24409 | pgbench_tellers  |           450560
 2017-02-05 20:12:51.244087+01 | 1486321971.24409 | pgbench_history  |        484556800
 2017-02-05 20:12:51.244087+01 | 1486321971.24409 | pgbench_branches |            40960

 2017-02-05 20:12:52.317415+01 | 1486321972.31741 | pgbench_accounts |      13712957440
 2017-02-05 20:12:52.317415+01 | 1486321972.31741 | pgbench_tellers  |           450560
 2017-02-05 20:12:52.317415+01 | 1486321972.31741 | pgbench_history  |        486785024
 2017-02-05 20:12:52.317415+01 | 1486321972.31741 | pgbench_branches |            40960

 2017-02-05 20:12:53.390223+01 | 1486321973.39022 | pgbench_accounts |      13712957440
 2017-02-05 20:12:53.390223+01 | 1486321973.39022 | pgbench_tellers  |           450560
 2017-02-05 20:12:53.390223+01 | 1486321973.39022 | pgbench_history  |        489152512
 2017-02-05 20:12:53.390223+01 | 1486321973.39022 | pgbench_branches |            40960

 2017-02-05 20:12:54.463116+01 | 1486321974.46312 | pgbench_accounts |      13712957440
 2017-02-05 20:12:54.463116+01 | 1486321974.46312 | pgbench_tellers  |           450560
 2017-02-05 20:12:54.463116+01 | 1486321974.46312 | pgbench_history  |        492527616
 2017-02-05 20:12:54.463116+01 | 1486321974.46312 | pgbench_branches |            40960

 2017-02-05 20:12:55.537821+01 | 1486321975.53782 | pgbench_accounts |      13712957440
 2017-02-05 20:12:55.537821+01 | 1486321975.53782 | pgbench_tellers  |           450560
 2017-02-05 20:12:55.537821+01 | 1486321975.53782 | pgbench_history  |        493559808
 2017-02-05 20:12:55.537821+01 | 1486321975.53782 | pgbench_branches |            40960

 2017-02-05 20:12:56.607679+01 | 1486321976.60768 | pgbench_accounts |      13712957440
 2017-02-05 20:12:56.607679+01 | 1486321976.60768 | pgbench_tellers  |           450560
 2017-02-05 20:12:56.607679+01 | 1486321976.60768 | pgbench_history  |        495960064
 2017-02-05 20:12:56.607679+01 | 1486321976.60768 | pgbench_branches |            40960

 2017-02-05 20:12:57.687972+01 | 1486321977.68797 | pgbench_accounts |      13712957440
 2017-02-05 20:12:57.687972+01 | 1486321977.68797 | pgbench_tellers  |           450560
 2017-02-05 20:12:57.687972+01 | 1486321977.68797 | pgbench_history  |        497999872
 2017-02-05 20:12:57.687972+01 | 1486321977.68797 | pgbench_branches |            40960

 2017-02-05 20:12:58.761783+01 | 1486321978.76178 | pgbench_accounts |      13712957440
 2017-02-05 20:12:58.761783+01 | 1486321978.76178 | pgbench_tellers  |           450560
 2017-02-05 20:12:58.761783+01 | 1486321978.76178 | pgbench_history  |        500342784
 2017-02-05 20:12:58.761783+01 | 1486321978.76178 | pgbench_branches |            40960

 2017-02-05 20:12:59.833291+01 | 1486321979.83329 | pgbench_accounts |      13712957440
 2017-02-05 20:12:59.833291+01 | 1486321979.83329 | pgbench_tellers  |           450560
 2017-02-05 20:12:59.833291+01 | 1486321979.83329 | pgbench_history  |        501358592
 2017-02-05 20:12:59.833291+01 | 1486321979.83329 | pgbench_branches |            40960

 2017-02-05 20:13:00.910804+01 | 1486321980.9108 | pgbench_accounts |      13712957440
 2017-02-05 20:13:00.910804+01 | 1486321980.9108 | pgbench_tellers  |           450560
 2017-02-05 20:13:00.910804+01 | 1486321980.9108 | pgbench_history  |        503447552
 2017-02-05 20:13:00.910804+01 | 1486321980.9108 | pgbench_branches |            40960

 2017-02-05 20:13:01.98503+01 | 1486321981.98503 | pgbench_accounts |      13712957440
 2017-02-05 20:13:01.98503+01 | 1486321981.98503 | pgbench_tellers  |           450560
 2017-02-05 20:13:01.98503+01 | 1486321981.98503 | pgbench_history  |        506281984
 2017-02-05 20:13:01.98503+01 | 1486321981.98503 | pgbench_branches |            40960

 2017-02-05 20:13:03.061926+01 | 1486321983.06193 | pgbench_accounts |      13712957440
 2017-02-05 20:13:03.061926+01 | 1486321983.06193 | pgbench_tellers  |           450560
 2017-02-05 20:13:03.061926+01 | 1486321983.06193 | pgbench_history  |        508157952
 2017-02-05 20:13:03.061926+01 | 1486321983.06193 | pgbench_branches |            40960

 2017-02-05 20:13:04.149462+01 | 1486321984.14946 | pgbench_accounts |      13712957440
 2017-02-05 20:13:04.149462+01 | 1486321984.14946 | pgbench_tellers  |           450560
 2017-02-05 20:13:04.149462+01 | 1486321984.14946 | pgbench_history  |        510361600
 2017-02-05 20:13:04.149462+01 | 1486321984.14946 | pgbench_branches |            40960

 2017-02-05 20:13:05.22459+01 | 1486321985.22459 | pgbench_accounts |      13712957440
 2017-02-05 20:13:05.22459+01 | 1486321985.22459 | pgbench_tellers  |           450560
 2017-02-05 20:13:05.22459+01 | 1486321985.22459 | pgbench_history  |        513114112
 2017-02-05 20:13:05.22459+01 | 1486321985.22459 | pgbench_branches |            40960

 2017-02-05 20:13:06.301438+01 | 1486321986.30144 | pgbench_accounts |      13712957440
 2017-02-05 20:13:06.301438+01 | 1486321986.30144 | pgbench_tellers  |           450560
 2017-02-05 20:13:06.301438+01 | 1486321986.30144 | pgbench_history  |        515457024
 2017-02-05 20:13:06.301438+01 | 1486321986.30144 | pgbench_branches |            40960

 2017-02-05 20:13:07.382226+01 | 1486321987.38223 | pgbench_accounts |      13712957440
 2017-02-05 20:13:07.382226+01 | 1486321987.38223 | pgbench_tellers  |           450560
 2017-02-05 20:13:07.382226+01 | 1486321987.38223 | pgbench_history  |        517718016
 2017-02-05 20:13:07.382226+01 | 1486321987.38223 | pgbench_branches |            40960

 2017-02-05 20:13:08.461438+01 | 1486321988.46144 | pgbench_accounts |      13712957440
 2017-02-05 20:13:08.461438+01 | 1486321988.46144 | pgbench_tellers  |           450560
 2017-02-05 20:13:08.461438+01 | 1486321988.46144 | pgbench_history  |        520085504
 2017-02-05 20:13:08.461438+01 | 1486321988.46144 | pgbench_branches |            40960

 2017-02-05 20:13:09.53599+01 | 1486321989.53599 | pgbench_accounts |      13712957440
 2017-02-05 20:13:09.53599+01 | 1486321989.53599 | pgbench_tellers  |           450560
 2017-02-05 20:13:09.53599+01 | 1486321989.53599 | pgbench_history  |        522854400
 2017-02-05 20:13:09.53599+01 | 1486321989.53599 | pgbench_branches |            40960

 2017-02-05 20:13:10.60669+01 | 1486321990.60669 | pgbench_accounts |      13712957440
 2017-02-05 20:13:10.60669+01 | 1486321990.60669 | pgbench_tellers  |           450560
 2017-02-05 20:13:10.60669+01 | 1486321990.60669 | pgbench_history  |        525230080
 2017-02-05 20:13:10.60669+01 | 1486321990.60669 | pgbench_branches |            40960

 2017-02-05 20:13:11.686793+01 | 1486321991.68679 | pgbench_accounts |      13712957440
 2017-02-05 20:13:11.686793+01 | 1486321991.68679 | pgbench_tellers  |           450560
 2017-02-05 20:13:11.686793+01 | 1486321991.68679 | pgbench_history  |        527802368
 2017-02-05 20:13:11.686793+01 | 1486321991.68679 | pgbench_branches |            40960

 2017-02-05 20:13:12.764528+01 | 1486321992.76453 | pgbench_accounts |      13712957440
 2017-02-05 20:13:12.764528+01 | 1486321992.76453 | pgbench_tellers  |           450560
 2017-02-05 20:13:12.764528+01 | 1486321992.76453 | pgbench_history  |        529678336
 2017-02-05 20:13:12.764528+01 | 1486321992.76453 | pgbench_branches |            40960

 2017-02-05 20:13:13.852996+01 | 1486321993.853 | pgbench_accounts |      13712957440
 2017-02-05 20:13:13.852996+01 | 1486321993.853 | pgbench_tellers  |           450560
 2017-02-05 20:13:13.852996+01 | 1486321993.853 | pgbench_history  |        532545536
 2017-02-05 20:13:13.852996+01 | 1486321993.853 | pgbench_branches |            40960

 2017-02-05 20:13:14.920571+01 | 1486321994.92057 | pgbench_accounts |      13712957440
 2017-02-05 20:13:14.920571+01 | 1486321994.92057 | pgbench_tellers  |           450560
 2017-02-05 20:13:14.920571+01 | 1486321994.92057 | pgbench_history  |        534585344
 2017-02-05 20:13:14.920571+01 | 1486321994.92057 | pgbench_branches |            40960

 2017-02-05 20:13:15.999033+01 | 1486321995.99903 | pgbench_accounts |      13712957440
 2017-02-05 20:13:15.999033+01 | 1486321995.99903 | pgbench_tellers  |           450560
 2017-02-05 20:13:15.999033+01 | 1486321995.99903 | pgbench_history  |        536412160
 2017-02-05 20:13:15.999033+01 | 1486321995.99903 | pgbench_branches |            40960

 2017-02-05 20:13:17.073646+01 | 1486321997.07365 | pgbench_accounts |      13712957440
 2017-02-05 20:13:17.073646+01 | 1486321997.07365 | pgbench_tellers  |           450560
 2017-02-05 20:13:17.073646+01 | 1486321997.07365 | pgbench_history  |        538976256
 2017-02-05 20:13:17.073646+01 | 1486321997.07365 | pgbench_branches |            40960

 2017-02-05 20:13:18.148065+01 | 1486321998.14807 | pgbench_accounts |      13712957440
 2017-02-05 20:13:18.148065+01 | 1486321998.14807 | pgbench_tellers  |           450560
 2017-02-05 20:13:18.148065+01 | 1486321998.14807 | pgbench_history  |        541392896
 2017-02-05 20:13:18.148065+01 | 1486321998.14807 | pgbench_branches |            40960

 2017-02-05 20:13:19.22279+01 | 1486321999.22279 | pgbench_accounts |      13712957440
 2017-02-05 20:13:19.22279+01 | 1486321999.22279 | pgbench_tellers  |           450560
 2017-02-05 20:13:19.22279+01 | 1486321999.22279 | pgbench_history  |        544284672
 2017-02-05 20:13:19.22279+01 | 1486321999.22279 | pgbench_branches |            40960

 2017-02-05 20:13:20.299384+01 | 1486322000.29938 | pgbench_accounts |      13712957440
 2017-02-05 20:13:20.299384+01 | 1486322000.29938 | pgbench_tellers  |           450560
 2017-02-05 20:13:20.299384+01 | 1486322000.29938 | pgbench_history  |        546324480
 2017-02-05 20:13:20.299384+01 | 1486322000.29938 | pgbench_branches |            40960

 2017-02-05 20:13:21.376576+01 | 1486322001.37658 | pgbench_accounts |      13712957440
 2017-02-05 20:13:21.376576+01 | 1486322001.37658 | pgbench_tellers  |           450560
 2017-02-05 20:13:21.376576+01 | 1486322001.37658 | pgbench_history  |        548364288
 2017-02-05 20:13:21.376576+01 | 1486322001.37658 | pgbench_branches |            40960

 2017-02-05 20:13:22.45211+01 | 1486322002.45211 | pgbench_accounts |      13712957440
 2017-02-05 20:13:22.45211+01 | 1486322002.45211 | pgbench_tellers  |           450560
 2017-02-05 20:13:22.45211+01 | 1486322002.45211 | pgbench_history  |        550920192
 2017-02-05 20:13:22.45211+01 | 1486322002.45211 | pgbench_branches |            40960

 2017-02-05 20:13:23.526782+01 | 1486322003.52678 | pgbench_accounts |      13712957440
 2017-02-05 20:13:23.526782+01 | 1486322003.52678 | pgbench_tellers  |           450560
 2017-02-05 20:13:23.526782+01 | 1486322003.52678 | pgbench_history  |        552935424
 2017-02-05 20:13:23.526782+01 | 1486322003.52678 | pgbench_branches |            40960

 2017-02-05 20:13:24.602128+01 | 1486322004.60213 | pgbench_accounts |      13712957440
 2017-02-05 20:13:24.602128+01 | 1486322004.60213 | pgbench_tellers  |           450560
 2017-02-05 20:13:24.602128+01 | 1486322004.60213 | pgbench_history  |        554786816
 2017-02-05 20:13:24.602128+01 | 1486322004.60213 | pgbench_branches |            40960

 2017-02-05 20:13:25.676681+01 | 1486322005.67668 | pgbench_accounts |      13712957440
 2017-02-05 20:13:25.676681+01 | 1486322005.67668 | pgbench_tellers  |           450560
 2017-02-05 20:13:25.676681+01 | 1486322005.67668 | pgbench_history  |        557342720
 2017-02-05 20:13:25.676681+01 | 1486322005.67668 | pgbench_branches |            40960

 2017-02-05 20:13:26.748553+01 | 1486322006.74855 | pgbench_accounts |      13712957440
 2017-02-05 20:13:26.748553+01 | 1486322006.74855 | pgbench_tellers  |           450560
 2017-02-05 20:13:26.748553+01 | 1486322006.74855 | pgbench_history  |        560504832
 2017-02-05 20:13:26.748553+01 | 1486322006.74855 | pgbench_branches |            40960

 2017-02-05 20:13:27.826095+01 | 1486322007.8261 | pgbench_accounts |      13712957440
 2017-02-05 20:13:27.826095+01 | 1486322007.8261 | pgbench_tellers  |           450560
 2017-02-05 20:13:27.826095+01 | 1486322007.8261 | pgbench_history  |        562528256
 2017-02-05 20:13:27.826095+01 | 1486322007.8261 | pgbench_branches |            40960

 2017-02-05 20:13:28.901979+01 | 1486322008.90198 | pgbench_accounts |      13712957440
 2017-02-05 20:13:28.901979+01 | 1486322008.90198 | pgbench_tellers  |           450560
 2017-02-05 20:13:28.901979+01 | 1486322008.90198 | pgbench_history  |        564568064
 2017-02-05 20:13:28.901979+01 | 1486322008.90198 | pgbench_branches |            40960

 2017-02-05 20:13:29.972593+01 | 1486322009.97259 | pgbench_accounts |      13712957440
 2017-02-05 20:13:29.972593+01 | 1486322009.97259 | pgbench_tellers  |           450560
 2017-02-05 20:13:29.972593+01 | 1486322009.97259 | pgbench_history  |        567148544
 2017-02-05 20:13:29.972593+01 | 1486322009.97259 | pgbench_branches |            40960

 2017-02-05 20:13:31.04812+01 | 1486322011.04812 | pgbench_accounts |      13712957440
 2017-02-05 20:13:31.04812+01 | 1486322011.04812 | pgbench_tellers  |           450560
 2017-02-05 20:13:31.04812+01 | 1486322011.04812 | pgbench_history  |        570032128
 2017-02-05 20:13:31.04812+01 | 1486322011.04812 | pgbench_branches |            40960

 2017-02-05 20:13:32.122134+01 | 1486322012.12213 | pgbench_accounts |      13712957440
 2017-02-05 20:13:32.122134+01 | 1486322012.12213 | pgbench_tellers  |           450560
 2017-02-05 20:13:32.122134+01 | 1486322012.12213 | pgbench_history  |        571531264
 2017-02-05 20:13:32.122134+01 | 1486322012.12213 | pgbench_branches |            40960

 2017-02-05 20:13:33.196446+01 | 1486322013.19645 | pgbench_accounts |      13712957440
 2017-02-05 20:13:33.196446+01 | 1486322013.19645 | pgbench_tellers  |           450560
 2017-02-05 20:13:33.196446+01 | 1486322013.19645 | pgbench_history  |        574095360
 2017-02-05 20:13:33.196446+01 | 1486322013.19645 | pgbench_branches |            40960

 2017-02-05 20:13:34.268162+01 | 1486322014.26816 | pgbench_accounts |      13712957440
 2017-02-05 20:13:34.268162+01 | 1486322014.26816 | pgbench_tellers  |           450560
 2017-02-05 20:13:34.268162+01 | 1486322014.26816 | pgbench_history  |        576626688
 2017-02-05 20:13:34.268162+01 | 1486322014.26816 | pgbench_branches |            40960

 2017-02-05 20:13:35.342644+01 | 1486322015.34264 | pgbench_accounts |      13712957440
 2017-02-05 20:13:35.342644+01 | 1486322015.34264 | pgbench_tellers  |           450560
 2017-02-05 20:13:35.342644+01 | 1486322015.34264 | pgbench_history  |        578666496
 2017-02-05 20:13:35.342644+01 | 1486322015.34264 | pgbench_branches |            40960

 2017-02-05 20:13:36.419419+01 | 1486322016.41942 | pgbench_accounts |      13712957440
 2017-02-05 20:13:36.419419+01 | 1486322016.41942 | pgbench_tellers  |           450560
 2017-02-05 20:13:36.419419+01 | 1486322016.41942 | pgbench_history  |        581058560
 2017-02-05 20:13:36.419419+01 | 1486322016.41942 | pgbench_branches |            40960

 2017-02-05 20:13:37.491618+01 | 1486322017.49162 | pgbench_accounts |      13712957440
 2017-02-05 20:13:37.491618+01 | 1486322017.49162 | pgbench_tellers  |           450560
 2017-02-05 20:13:37.491618+01 | 1486322017.49162 | pgbench_history  |        583294976
 2017-02-05 20:13:37.491618+01 | 1486322017.49162 | pgbench_branches |            40960

 2017-02-05 20:13:38.563592+01 | 1486322018.56359 | pgbench_accounts |      13712957440
 2017-02-05 20:13:38.563592+01 | 1486322018.56359 | pgbench_tellers  |           450560
 2017-02-05 20:13:38.563592+01 | 1486322018.56359 | pgbench_history  |        585826304
 2017-02-05 20:13:38.563592+01 | 1486322018.56359 | pgbench_branches |            40960

 2017-02-05 20:13:39.636448+01 | 1486322019.63645 | pgbench_accounts |      13712957440
 2017-02-05 20:13:39.636448+01 | 1486322019.63645 | pgbench_tellers  |           450560
 2017-02-05 20:13:39.636448+01 | 1486322019.63645 | pgbench_history  |        588701696
 2017-02-05 20:13:39.636448+01 | 1486322019.63645 | pgbench_branches |            40960

 2017-02-05 20:13:40.715792+01 | 1486322020.71579 | pgbench_accounts |      13712957440
 2017-02-05 20:13:40.715792+01 | 1486322020.71579 | pgbench_tellers  |           450560
 2017-02-05 20:13:40.715792+01 | 1486322020.71579 | pgbench_history  |        590413824
 2017-02-05 20:13:40.715792+01 | 1486322020.71579 | pgbench_branches |            40960

 2017-02-05 20:13:41.799404+01 | 1486322021.7994 | pgbench_accounts |      13712957440
 2017-02-05 20:13:41.799404+01 | 1486322021.7994 | pgbench_tellers  |           450560
 2017-02-05 20:13:41.799404+01 | 1486322021.7994 | pgbench_history  |        592805888
 2017-02-05 20:13:41.799404+01 | 1486322021.7994 | pgbench_branches |            40960

 2017-02-05 20:13:42.874217+01 | 1486322022.87422 | pgbench_accounts |      13712957440
 2017-02-05 20:13:42.874217+01 | 1486322022.87422 | pgbench_tellers  |           450560
 2017-02-05 20:13:42.874217+01 | 1486322022.87422 | pgbench_history  |        595361792
 2017-02-05 20:13:42.874217+01 | 1486322022.87422 | pgbench_branches |            40960

 2017-02-05 20:13:43.96331+01 | 1486322023.96331 | pgbench_accounts |      13712957440
 2017-02-05 20:13:43.96331+01 | 1486322023.96331 | pgbench_tellers  |           450560
 2017-02-05 20:13:43.96331+01 | 1486322023.96331 | pgbench_history  |        597377024
 2017-02-05 20:13:43.96331+01 | 1486322023.96331 | pgbench_branches |            40960

 2017-02-05 20:13:45.04223+01 | 1486322025.04223 | pgbench_accounts |      13712957440
 2017-02-05 20:13:45.04223+01 | 1486322025.04223 | pgbench_tellers  |           450560
 2017-02-05 20:13:45.04223+01 | 1486322025.04223 | pgbench_history  |        600080384
 2017-02-05 20:13:45.04223+01 | 1486322025.04223 | pgbench_branches |            40960

 2017-02-05 20:13:46.110074+01 | 1486322026.11007 | pgbench_accounts |      13712957440
 2017-02-05 20:13:46.110074+01 | 1486322026.11007 | pgbench_tellers  |           450560
 2017-02-05 20:13:46.110074+01 | 1486322026.11007 | pgbench_history  |        601792512
 2017-02-05 20:13:46.110074+01 | 1486322026.11007 | pgbench_branches |            40960

 2017-02-05 20:13:47.1835+01 | 1486322027.1835 | pgbench_accounts |      13712957440
 2017-02-05 20:13:47.1835+01 | 1486322027.1835 | pgbench_tellers  |           450560
 2017-02-05 20:13:47.1835+01 | 1486322027.1835 | pgbench_history  |        604209152
 2017-02-05 20:13:47.1835+01 | 1486322027.1835 | pgbench_branches |            40960

 2017-02-05 20:13:48.262249+01 | 1486322028.26225 | pgbench_accounts |      13712957440
 2017-02-05 20:13:48.262249+01 | 1486322028.26225 | pgbench_tellers  |           450560
 2017-02-05 20:13:48.262249+01 | 1486322028.26225 | pgbench_history  |        606961664
 2017-02-05 20:13:48.262249+01 | 1486322028.26225 | pgbench_branches |            40960

 2017-02-05 20:13:49.339963+01 | 1486322029.33996 | pgbench_accounts |      13712957440
 2017-02-05 20:13:49.339963+01 | 1486322029.33996 | pgbench_tellers  |           450560
 2017-02-05 20:13:49.339963+01 | 1486322029.33996 | pgbench_history  |        609492992
 2017-02-05 20:13:49.339963+01 | 1486322029.33996 | pgbench_branches |            40960

 2017-02-05 20:13:50.417404+01 | 1486322030.4174 | pgbench_accounts |      13712957440
 2017-02-05 20:13:50.417404+01 | 1486322030.4174 | pgbench_tellers  |           450560
 2017-02-05 20:13:50.417404+01 | 1486322030.4174 | pgbench_history  |        611368960
 2017-02-05 20:13:50.417404+01 | 1486322030.4174 | pgbench_branches |            40960

 2017-02-05 20:13:51.491186+01 | 1486322031.49119 | pgbench_accounts |      13712957440
 2017-02-05 20:13:51.491186+01 | 1486322031.49119 | pgbench_tellers  |           450560
 2017-02-05 20:13:51.491186+01 | 1486322031.49119 | pgbench_history  |        613933056
 2017-02-05 20:13:51.491186+01 | 1486322031.49119 | pgbench_branches |            40960

 2017-02-05 20:13:52.566629+01 | 1486322032.56663 | pgbench_accounts |      13712957440
 2017-02-05 20:13:52.566629+01 | 1486322032.56663 | pgbench_tellers  |           450560
 2017-02-05 20:13:52.566629+01 | 1486322032.56663 | pgbench_history  |        617283584
 2017-02-05 20:13:52.566629+01 | 1486322032.56663 | pgbench_branches |            40960

 2017-02-05 20:13:53.638752+01 | 1486322033.63875 | pgbench_accounts |      13712957440
 2017-02-05 20:13:53.638752+01 | 1486322033.63875 | pgbench_tellers  |           450560
 2017-02-05 20:13:53.638752+01 | 1486322033.63875 | pgbench_history  |        618643456
 2017-02-05 20:13:53.638752+01 | 1486322033.63875 | pgbench_branches |            40960

 2017-02-05 20:13:54.712154+01 | 1486322034.71215 | pgbench_accounts |      13712957440
 2017-02-05 20:13:54.712154+01 | 1486322034.71215 | pgbench_tellers  |           450560
 2017-02-05 20:13:54.712154+01 | 1486322034.71215 | pgbench_history  |        621551616
 2017-02-05 20:13:54.712154+01 | 1486322034.71215 | pgbench_branches |            40960

 2017-02-05 20:13:55.788109+01 | 1486322035.78811 | pgbench_accounts |      13712957440
 2017-02-05 20:13:55.788109+01 | 1486322035.78811 | pgbench_tellers  |           450560
 2017-02-05 20:13:55.788109+01 | 1486322035.78811 | pgbench_history  |        623616000
 2017-02-05 20:13:55.788109+01 | 1486322035.78811 | pgbench_branches |            40960

 2017-02-05 20:13:56.861126+01 | 1486322036.86113 | pgbench_accounts |      13712957440
 2017-02-05 20:13:56.861126+01 | 1486322036.86113 | pgbench_tellers  |           450560
 2017-02-05 20:13:56.861126+01 | 1486322036.86113 | pgbench_history  |        626499584
 2017-02-05 20:13:56.861126+01 | 1486322036.86113 | pgbench_branches |            40960

 2017-02-05 20:13:57.938041+01 | 1486322037.93804 | pgbench_accounts |      13712957440
 2017-02-05 20:13:57.938041+01 | 1486322037.93804 | pgbench_tellers  |           450560
 2017-02-05 20:13:57.938041+01 | 1486322037.93804 | pgbench_history  |        628211712
 2017-02-05 20:13:57.938041+01 | 1486322037.93804 | pgbench_branches |            40960

 2017-02-05 20:13:59.016146+01 | 1486322039.01615 | pgbench_accounts |      13712957440
 2017-02-05 20:13:59.016146+01 | 1486322039.01615 | pgbench_tellers  |           450560
 2017-02-05 20:13:59.016146+01 | 1486322039.01615 | pgbench_history  |        630956032
 2017-02-05 20:13:59.016146+01 | 1486322039.01615 | pgbench_branches |            40960

 2017-02-05 20:14:00.090532+01 | 1486322040.09053 | pgbench_accounts |      13712957440
 2017-02-05 20:14:00.090532+01 | 1486322040.09053 | pgbench_tellers  |           450560
 2017-02-05 20:14:00.090532+01 | 1486322040.09053 | pgbench_history  |        633839616
 2017-02-05 20:14:00.090532+01 | 1486322040.09053 | pgbench_branches |            40960

 2017-02-05 20:14:01.173615+01 | 1486322041.17361 | pgbench_accounts |      13712957440
 2017-02-05 20:14:01.173615+01 | 1486322041.17361 | pgbench_tellers  |           450560
 2017-02-05 20:14:01.173615+01 | 1486322041.17361 | pgbench_history  |        635502592
 2017-02-05 20:14:01.173615+01 | 1486322041.17361 | pgbench_branches |            40960

 2017-02-05 20:14:02.253953+01 | 1486322042.25395 | pgbench_accounts |      13712957440
 2017-02-05 20:14:02.253953+01 | 1486322042.25395 | pgbench_tellers  |           450560
 2017-02-05 20:14:02.253953+01 | 1486322042.25395 | pgbench_history  |        638279680
 2017-02-05 20:14:02.253953+01 | 1486322042.25395 | pgbench_branches |            40960

 2017-02-05 20:14:03.334228+01 | 1486322043.33423 | pgbench_accounts |      13712957440
 2017-02-05 20:14:03.334228+01 | 1486322043.33423 | pgbench_tellers  |           450560
 2017-02-05 20:14:03.334228+01 | 1486322043.33423 | pgbench_history  |        640188416
 2017-02-05 20:14:03.334228+01 | 1486322043.33423 | pgbench_branches |            40960

 2017-02-05 20:14:04.41277+01 | 1486322044.41277 | pgbench_accounts |      13712957440
 2017-02-05 20:14:04.41277+01 | 1486322044.41277 | pgbench_tellers  |           450560
 2017-02-05 20:14:04.41277+01 | 1486322044.41277 | pgbench_history  |        642629632
 2017-02-05 20:14:04.41277+01 | 1486322044.41277 | pgbench_branches |            40960

 2017-02-05 20:14:05.492289+01 | 1486322045.49229 | pgbench_accounts |      13712957440
 2017-02-05 20:14:05.492289+01 | 1486322045.49229 | pgbench_tellers  |           450560
 2017-02-05 20:14:05.492289+01 | 1486322045.49229 | pgbench_history  |        644890624
 2017-02-05 20:14:05.492289+01 | 1486322045.49229 | pgbench_branches |            40960

 2017-02-05 20:14:06.564241+01 | 1486322046.56424 | pgbench_accounts |      13712957440
 2017-02-05 20:14:06.564241+01 | 1486322046.56424 | pgbench_tellers  |           450560
 2017-02-05 20:14:06.564241+01 | 1486322046.56424 | pgbench_history  |        647987200
 2017-02-05 20:14:06.564241+01 | 1486322046.56424 | pgbench_branches |            40960

 2017-02-05 20:14:07.638058+01 | 1486322047.63806 | pgbench_accounts |      13712957440
 2017-02-05 20:14:07.638058+01 | 1486322047.63806 | pgbench_tellers  |           450560
 2017-02-05 20:14:07.638058+01 | 1486322047.63806 | pgbench_history  |        650002432
 2017-02-05 20:14:07.638058+01 | 1486322047.63806 | pgbench_branches |            40960

