 2017-02-04 15:38:05.828715+01 | 1486219085.82872 | pgbench_accounts |      13649707008
 2017-02-04 15:38:05.828715+01 | 1486219085.82872 | pgbench_tellers  |         10543104
 2017-02-04 15:38:05.828715+01 | 1486219085.82872 | pgbench_history  |                0
 2017-02-04 15:38:05.828715+01 | 1486219085.82872 | pgbench_branches |          8495104

 2017-02-04 15:38:06.921793+01 | 1486219086.92179 | pgbench_accounts |      13650059264
 2017-02-04 15:38:06.921793+01 | 1486219086.92179 | pgbench_tellers  |         10543104
 2017-02-04 15:38:06.921793+01 | 1486219086.92179 | pgbench_history  |          1531904
 2017-02-04 15:38:06.921793+01 | 1486219086.92179 | pgbench_branches |          8495104

 2017-02-04 15:38:07.996207+01 | 1486219087.99621 | pgbench_accounts |      13650059264
 2017-02-04 15:38:07.996207+01 | 1486219087.99621 | pgbench_tellers  |         10543104
 2017-02-04 15:38:07.996207+01 | 1486219087.99621 | pgbench_history  |          3686400
 2017-02-04 15:38:07.996207+01 | 1486219087.99621 | pgbench_branches |          8495104

 2017-02-04 15:38:09.086124+01 | 1486219089.08612 | pgbench_accounts |      13650059264
 2017-02-04 15:38:09.086124+01 | 1486219089.08612 | pgbench_tellers  |         10543104
 2017-02-04 15:38:09.086124+01 | 1486219089.08612 | pgbench_history  |          5087232
 2017-02-04 15:38:09.086124+01 | 1486219089.08612 | pgbench_branches |          8495104

 2017-02-04 15:38:10.164521+01 | 1486219090.16452 | pgbench_accounts |      13650059264
 2017-02-04 15:38:10.164521+01 | 1486219090.16452 | pgbench_tellers  |         10543104
 2017-02-04 15:38:10.164521+01 | 1486219090.16452 | pgbench_history  |          7987200
 2017-02-04 15:38:10.164521+01 | 1486219090.16452 | pgbench_branches |          8495104

 2017-02-04 15:38:11.246689+01 | 1486219091.24669 | pgbench_accounts |      13650059264
 2017-02-04 15:38:11.246689+01 | 1486219091.24669 | pgbench_tellers  |         10543104
 2017-02-04 15:38:11.246689+01 | 1486219091.24669 | pgbench_history  |          9183232
 2017-02-04 15:38:11.246689+01 | 1486219091.24669 | pgbench_branches |          8495104

 2017-02-04 15:38:12.330812+01 | 1486219092.33081 | pgbench_accounts |      13650149376
 2017-02-04 15:38:12.330812+01 | 1486219092.33081 | pgbench_tellers  |         10543104
 2017-02-04 15:38:12.330812+01 | 1486219092.33081 | pgbench_history  |         11042816
 2017-02-04 15:38:12.330812+01 | 1486219092.33081 | pgbench_branches |          8495104

 2017-02-04 15:38:13.411987+01 | 1486219093.41199 | pgbench_accounts |      13650501632
 2017-02-04 15:38:13.411987+01 | 1486219093.41199 | pgbench_tellers  |         10543104
 2017-02-04 15:38:13.411987+01 | 1486219093.41199 | pgbench_history  |         13410304
 2017-02-04 15:38:13.411987+01 | 1486219093.41199 | pgbench_branches |          8495104

 2017-02-04 15:38:14.498072+01 | 1486219094.49807 | pgbench_accounts |      13650518016
 2017-02-04 15:38:14.498072+01 | 1486219094.49807 | pgbench_tellers  |         10543104
 2017-02-04 15:38:14.498072+01 | 1486219094.49807 | pgbench_history  |         16105472
 2017-02-04 15:38:14.498072+01 | 1486219094.49807 | pgbench_branches |          8495104

 2017-02-04 15:38:15.585377+01 | 1486219095.58538 | pgbench_accounts |      13650534400
 2017-02-04 15:38:15.585377+01 | 1486219095.58538 | pgbench_tellers  |         10543104
 2017-02-04 15:38:15.585377+01 | 1486219095.58538 | pgbench_history  |         17694720
 2017-02-04 15:38:15.585377+01 | 1486219095.58538 | pgbench_branches |          8495104

 2017-02-04 15:38:16.678856+01 | 1486219096.67886 | pgbench_accounts |      13650558976
 2017-02-04 15:38:16.678856+01 | 1486219096.67886 | pgbench_tellers  |         10543104
 2017-02-04 15:38:16.678856+01 | 1486219096.67886 | pgbench_history  |         20226048
 2017-02-04 15:38:16.678856+01 | 1486219096.67886 | pgbench_branches |          8495104

 2017-02-04 15:38:17.758933+01 | 1486219097.75893 | pgbench_accounts |      13650575360
 2017-02-04 15:38:17.758933+01 | 1486219097.75893 | pgbench_tellers  |         10543104
 2017-02-04 15:38:17.758933+01 | 1486219097.75893 | pgbench_history  |         23453696
 2017-02-04 15:38:17.758933+01 | 1486219097.75893 | pgbench_branches |          8495104

 2017-02-04 15:38:18.836183+01 | 1486219098.83618 | pgbench_accounts |      13650575360
 2017-02-04 15:38:18.836183+01 | 1486219098.83618 | pgbench_tellers  |         10543104
 2017-02-04 15:38:18.836183+01 | 1486219098.83618 | pgbench_history  |         26124288
 2017-02-04 15:38:18.836183+01 | 1486219098.83618 | pgbench_branches |          8495104

 2017-02-04 15:38:19.9106+01 | 1486219099.9106 | pgbench_accounts |      13650575360
 2017-02-04 15:38:19.9106+01 | 1486219099.9106 | pgbench_tellers  |         10543104
 2017-02-04 15:38:19.9106+01 | 1486219099.9106 | pgbench_history  |         28442624
 2017-02-04 15:38:19.9106+01 | 1486219099.9106 | pgbench_branches |          8495104

 2017-02-04 15:38:20.993351+01 | 1486219100.99335 | pgbench_accounts |      13650575360
 2017-02-04 15:38:20.993351+01 | 1486219100.99335 | pgbench_tellers  |         10543104
 2017-02-04 15:38:20.993351+01 | 1486219100.99335 | pgbench_history  |         29663232
 2017-02-04 15:38:20.993351+01 | 1486219100.99335 | pgbench_branches |          8495104

 2017-02-04 15:38:22.087836+01 | 1486219102.08784 | pgbench_accounts |      13650575360
 2017-02-04 15:38:22.087836+01 | 1486219102.08784 | pgbench_tellers  |         10543104
 2017-02-04 15:38:22.087836+01 | 1486219102.08784 | pgbench_history  |         32194560
 2017-02-04 15:38:22.087836+01 | 1486219102.08784 | pgbench_branches |          8495104

 2017-02-04 15:38:23.173572+01 | 1486219103.17357 | pgbench_accounts |      13650575360
 2017-02-04 15:38:23.173572+01 | 1486219103.17357 | pgbench_tellers  |         10543104
 2017-02-04 15:38:23.173572+01 | 1486219103.17357 | pgbench_history  |         35749888
 2017-02-04 15:38:23.173572+01 | 1486219103.17357 | pgbench_branches |          8495104

 2017-02-04 15:38:24.257634+01 | 1486219104.25763 | pgbench_accounts |      13650575360
 2017-02-04 15:38:24.257634+01 | 1486219104.25763 | pgbench_tellers  |         10543104
 2017-02-04 15:38:24.257634+01 | 1486219104.25763 | pgbench_history  |         36782080
 2017-02-04 15:38:24.257634+01 | 1486219104.25763 | pgbench_branches |          8495104

 2017-02-04 15:38:25.33939+01 | 1486219105.33939 | pgbench_accounts |      13650575360
 2017-02-04 15:38:25.33939+01 | 1486219105.33939 | pgbench_tellers  |         10543104
 2017-02-04 15:38:25.33939+01 | 1486219105.33939 | pgbench_history  |         39313408
 2017-02-04 15:38:25.33939+01 | 1486219105.33939 | pgbench_branches |          8495104

 2017-02-04 15:38:26.431939+01 | 1486219106.43194 | pgbench_accounts |      13650575360
 2017-02-04 15:38:26.431939+01 | 1486219106.43194 | pgbench_tellers  |         10543104
 2017-02-04 15:38:26.431939+01 | 1486219106.43194 | pgbench_history  |         42639360
 2017-02-04 15:38:26.431939+01 | 1486219106.43194 | pgbench_branches |          8495104

 2017-02-04 15:38:27.517079+01 | 1486219107.51708 | pgbench_accounts |      13650575360
 2017-02-04 15:38:27.517079+01 | 1486219107.51708 | pgbench_tellers  |         10543104
 2017-02-04 15:38:27.517079+01 | 1486219107.51708 | pgbench_history  |         44138496
 2017-02-04 15:38:27.517079+01 | 1486219107.51708 | pgbench_branches |          8495104

 2017-02-04 15:38:28.606148+01 | 1486219108.60615 | pgbench_accounts |      13650575360
 2017-02-04 15:38:28.606148+01 | 1486219108.60615 | pgbench_tellers  |         10543104
 2017-02-04 15:38:28.606148+01 | 1486219108.60615 | pgbench_history  |         46530560
 2017-02-04 15:38:28.606148+01 | 1486219108.60615 | pgbench_branches |          8495104

 2017-02-04 15:38:29.689606+01 | 1486219109.68961 | pgbench_accounts |      13650575360
 2017-02-04 15:38:29.689606+01 | 1486219109.68961 | pgbench_tellers  |         10543104
 2017-02-04 15:38:29.689606+01 | 1486219109.68961 | pgbench_history  |         49225728
 2017-02-04 15:38:29.689606+01 | 1486219109.68961 | pgbench_branches |          8495104

 2017-02-04 15:38:30.770086+01 | 1486219110.77009 | pgbench_accounts |      13650575360
 2017-02-04 15:38:30.770086+01 | 1486219110.77009 | pgbench_tellers  |         10543104
 2017-02-04 15:38:30.770086+01 | 1486219110.77009 | pgbench_history  |         52281344
 2017-02-04 15:38:30.770086+01 | 1486219110.77009 | pgbench_branches |          8495104

 2017-02-04 15:38:31.84538+01 | 1486219111.84538 | pgbench_accounts |      13650575360
 2017-02-04 15:38:31.84538+01 | 1486219111.84538 | pgbench_tellers  |         10543104
 2017-02-04 15:38:31.84538+01 | 1486219111.84538 | pgbench_history  |         54763520
 2017-02-04 15:38:31.84538+01 | 1486219111.84538 | pgbench_branches |          8495104

 2017-02-04 15:38:32.92168+01 | 1486219112.92168 | pgbench_accounts |      13650575360
 2017-02-04 15:38:32.92168+01 | 1486219112.92168 | pgbench_tellers  |         10543104
 2017-02-04 15:38:32.92168+01 | 1486219112.92168 | pgbench_history  |         56942592
 2017-02-04 15:38:32.92168+01 | 1486219112.92168 | pgbench_branches |          8495104

 2017-02-04 15:38:34.000289+01 | 1486219114.00029 | pgbench_accounts |      13650575360
 2017-02-04 15:38:34.000289+01 | 1486219114.00029 | pgbench_tellers  |         10543104
 2017-02-04 15:38:34.000289+01 | 1486219114.00029 | pgbench_history  |         59834368
 2017-02-04 15:38:34.000289+01 | 1486219114.00029 | pgbench_branches |          8495104

 2017-02-04 15:38:35.087398+01 | 1486219115.0874 | pgbench_accounts |      13650575360
 2017-02-04 15:38:35.087398+01 | 1486219115.0874 | pgbench_tellers  |         10543104
 2017-02-04 15:38:35.087398+01 | 1486219115.0874 | pgbench_history  |         61874176
 2017-02-04 15:38:35.087398+01 | 1486219115.0874 | pgbench_branches |          8495104

 2017-02-04 15:38:36.175839+01 | 1486219116.17584 | pgbench_accounts |      13650575360
 2017-02-04 15:38:36.175839+01 | 1486219116.17584 | pgbench_tellers  |         10543104
 2017-02-04 15:38:36.175839+01 | 1486219116.17584 | pgbench_history  |         65232896
 2017-02-04 15:38:36.175839+01 | 1486219116.17584 | pgbench_branches |          8495104

 2017-02-04 15:38:37.270671+01 | 1486219117.27067 | pgbench_accounts |      13650575360
 2017-02-04 15:38:37.270671+01 | 1486219117.27067 | pgbench_tellers  |         10543104
 2017-02-04 15:38:37.270671+01 | 1486219117.27067 | pgbench_history  |         67272704
 2017-02-04 15:38:37.270671+01 | 1486219117.27067 | pgbench_branches |          8495104

 2017-02-04 15:38:38.34818+01 | 1486219118.34818 | pgbench_accounts |      13650575360
 2017-02-04 15:38:38.34818+01 | 1486219118.34818 | pgbench_tellers  |         10543104
 2017-02-04 15:38:38.34818+01 | 1486219118.34818 | pgbench_history  |         70270976
 2017-02-04 15:38:38.34818+01 | 1486219118.34818 | pgbench_branches |          8495104

 2017-02-04 15:38:39.436453+01 | 1486219119.43645 | pgbench_accounts |      13650575360
 2017-02-04 15:38:39.436453+01 | 1486219119.43645 | pgbench_tellers  |         10543104
 2017-02-04 15:38:39.436453+01 | 1486219119.43645 | pgbench_history  |         72212480
 2017-02-04 15:38:39.436453+01 | 1486219119.43645 | pgbench_branches |          8495104

 2017-02-04 15:38:40.519136+01 | 1486219120.51914 | pgbench_accounts |      13650575360
 2017-02-04 15:38:40.519136+01 | 1486219120.51914 | pgbench_tellers  |         10543104
 2017-02-04 15:38:40.519136+01 | 1486219120.51914 | pgbench_history  |         75235328
 2017-02-04 15:38:40.519136+01 | 1486219120.51914 | pgbench_branches |          8495104

 2017-02-04 15:38:41.620497+01 | 1486219121.6205 | pgbench_accounts |      13650575360
 2017-02-04 15:38:41.620497+01 | 1486219121.6205 | pgbench_tellers  |         10543104
 2017-02-04 15:38:41.620497+01 | 1486219121.6205 | pgbench_history  |         77766656
 2017-02-04 15:38:41.620497+01 | 1486219121.6205 | pgbench_branches |          8495104

 2017-02-04 15:38:42.71787+01 | 1486219122.71787 | pgbench_accounts |      13650575360
 2017-02-04 15:38:42.71787+01 | 1486219122.71787 | pgbench_tellers  |         10543104
 2017-02-04 15:38:42.71787+01 | 1486219122.71787 | pgbench_history  |         79814656
 2017-02-04 15:38:42.71787+01 | 1486219122.71787 | pgbench_branches |          8495104

 2017-02-04 15:38:43.796136+01 | 1486219123.79614 | pgbench_accounts |      13650575360
 2017-02-04 15:38:43.796136+01 | 1486219123.79614 | pgbench_tellers  |         12042240
 2017-02-04 15:38:43.796136+01 | 1486219123.79614 | pgbench_history  |         81739776
 2017-02-04 15:38:43.796136+01 | 1486219123.79614 | pgbench_branches |          8495104

 2017-02-04 15:38:44.877087+01 | 1486219124.87709 | pgbench_accounts |      13650575360
 2017-02-04 15:38:44.877087+01 | 1486219124.87709 | pgbench_tellers  |         12910592
 2017-02-04 15:38:44.877087+01 | 1486219124.87709 | pgbench_history  |         84041728
 2017-02-04 15:38:44.877087+01 | 1486219124.87709 | pgbench_branches |         10043392

 2017-02-04 15:38:45.959029+01 | 1486219125.95903 | pgbench_accounts |      13650575360
 2017-02-04 15:38:45.959029+01 | 1486219125.95903 | pgbench_tellers  |         14630912
 2017-02-04 15:38:45.959029+01 | 1486219125.95903 | pgbench_history  |         85999616
 2017-02-04 15:38:45.959029+01 | 1486219125.95903 | pgbench_branches |         11403264

 2017-02-04 15:38:47.045171+01 | 1486219127.04517 | pgbench_accounts |      13650575360
 2017-02-04 15:38:47.045171+01 | 1486219127.04517 | pgbench_tellers  |         15532032
 2017-02-04 15:38:47.045171+01 | 1486219127.04517 | pgbench_history  |         89022464
 2017-02-04 15:38:47.045171+01 | 1486219127.04517 | pgbench_branches |         12926976

 2017-02-04 15:38:48.138037+01 | 1486219128.13804 | pgbench_accounts |      13650575360
 2017-02-04 15:38:48.138037+01 | 1486219128.13804 | pgbench_tellers  |         15532032
 2017-02-04 15:38:48.138037+01 | 1486219128.13804 | pgbench_history  |         91693056
 2017-02-04 15:38:48.138037+01 | 1486219128.13804 | pgbench_branches |         12926976

 2017-02-04 15:38:49.225642+01 | 1486219129.22564 | pgbench_accounts |      13650575360
 2017-02-04 15:38:49.225642+01 | 1486219129.22564 | pgbench_tellers  |         15532032
 2017-02-04 15:38:49.225642+01 | 1486219129.22564 | pgbench_history  |         93405184
 2017-02-04 15:38:49.225642+01 | 1486219129.22564 | pgbench_branches |         12926976

 2017-02-04 15:38:50.305653+01 | 1486219130.30565 | pgbench_accounts |      13650575360
 2017-02-04 15:38:50.305653+01 | 1486219130.30565 | pgbench_tellers  |         15532032
 2017-02-04 15:38:50.305653+01 | 1486219130.30565 | pgbench_history  |         96100352
 2017-02-04 15:38:50.305653+01 | 1486219130.30565 | pgbench_branches |         12926976

 2017-02-04 15:38:51.390731+01 | 1486219131.39073 | pgbench_accounts |      13650575360
 2017-02-04 15:38:51.390731+01 | 1486219131.39073 | pgbench_tellers  |         15532032
 2017-02-04 15:38:51.390731+01 | 1486219131.39073 | pgbench_history  |         99639296
 2017-02-04 15:38:51.390731+01 | 1486219131.39073 | pgbench_branches |         12926976

 2017-02-04 15:38:52.482775+01 | 1486219132.48277 | pgbench_accounts |      13650575360
 2017-02-04 15:38:52.482775+01 | 1486219132.48277 | pgbench_tellers  |         15532032
 2017-02-04 15:38:52.482775+01 | 1486219132.48277 | pgbench_history  |        101982208
 2017-02-04 15:38:52.482775+01 | 1486219132.48277 | pgbench_branches |         12926976

 2017-02-04 15:38:53.562289+01 | 1486219133.56229 | pgbench_accounts |      13650575360
 2017-02-04 15:38:53.562289+01 | 1486219133.56229 | pgbench_tellers  |         15532032
 2017-02-04 15:38:53.562289+01 | 1486219133.56229 | pgbench_history  |        103727104
 2017-02-04 15:38:53.562289+01 | 1486219133.56229 | pgbench_branches |         12926976

 2017-02-04 15:38:54.64673+01 | 1486219134.64673 | pgbench_accounts |      13650575360
 2017-02-04 15:38:54.64673+01 | 1486219134.64673 | pgbench_tellers  |         15532032
 2017-02-04 15:38:54.64673+01 | 1486219134.64673 | pgbench_history  |        106749952
 2017-02-04 15:38:54.64673+01 | 1486219134.64673 | pgbench_branches |         12926976

 2017-02-04 15:38:55.739058+01 | 1486219135.73906 | pgbench_accounts |      13650575360
 2017-02-04 15:38:55.739058+01 | 1486219135.73906 | pgbench_tellers  |         15532032
 2017-02-04 15:38:55.739058+01 | 1486219135.73906 | pgbench_history  |        109256704
 2017-02-04 15:38:55.739058+01 | 1486219135.73906 | pgbench_branches |         12926976

 2017-02-04 15:38:56.815815+01 | 1486219136.81581 | pgbench_accounts |      13650575360
 2017-02-04 15:38:56.815815+01 | 1486219136.81581 | pgbench_tellers  |         15532032
 2017-02-04 15:38:56.815815+01 | 1486219136.81581 | pgbench_history  |        111788032
 2017-02-04 15:38:56.815815+01 | 1486219136.81581 | pgbench_branches |         12926976

 2017-02-04 15:38:57.894459+01 | 1486219137.89446 | pgbench_accounts |      13650575360
 2017-02-04 15:38:57.894459+01 | 1486219137.89446 | pgbench_tellers  |         15532032
 2017-02-04 15:38:57.894459+01 | 1486219137.89446 | pgbench_history  |        114319360
 2017-02-04 15:38:57.894459+01 | 1486219137.89446 | pgbench_branches |         12926976

 2017-02-04 15:38:58.982795+01 | 1486219138.9828 | pgbench_accounts |      13650575360
 2017-02-04 15:38:58.982795+01 | 1486219138.9828 | pgbench_tellers  |         15532032
 2017-02-04 15:38:58.982795+01 | 1486219138.9828 | pgbench_history  |        116056064
 2017-02-04 15:38:58.982795+01 | 1486219138.9828 | pgbench_branches |         12926976

 2017-02-04 15:39:00.071091+01 | 1486219140.07109 | pgbench_accounts |      13650575360
 2017-02-04 15:39:00.071091+01 | 1486219140.07109 | pgbench_tellers  |         15532032
 2017-02-04 15:39:00.071091+01 | 1486219140.07109 | pgbench_history  |        117915648
 2017-02-04 15:39:00.071091+01 | 1486219140.07109 | pgbench_branches |         12926976

 2017-02-04 15:39:01.146337+01 | 1486219141.14634 | pgbench_accounts |      13650575360
 2017-02-04 15:39:01.146337+01 | 1486219141.14634 | pgbench_tellers  |         15532032
 2017-02-04 15:39:01.146337+01 | 1486219141.14634 | pgbench_history  |        121102336
 2017-02-04 15:39:01.146337+01 | 1486219141.14634 | pgbench_branches |         12926976

 2017-02-04 15:39:02.223421+01 | 1486219142.22342 | pgbench_accounts |      13650575360
 2017-02-04 15:39:02.223421+01 | 1486219142.22342 | pgbench_tellers  |         15532032
 2017-02-04 15:39:02.223421+01 | 1486219142.22342 | pgbench_history  |        122765312
 2017-02-04 15:39:02.223421+01 | 1486219142.22342 | pgbench_branches |         12926976

 2017-02-04 15:39:03.304457+01 | 1486219143.30446 | pgbench_accounts |      13650575360
 2017-02-04 15:39:03.304457+01 | 1486219143.30446 | pgbench_tellers  |         15532032
 2017-02-04 15:39:03.304457+01 | 1486219143.30446 | pgbench_history  |        124977152
 2017-02-04 15:39:03.304457+01 | 1486219143.30446 | pgbench_branches |         12926976

 2017-02-04 15:39:04.390191+01 | 1486219144.39019 | pgbench_accounts |      13650575360
 2017-02-04 15:39:04.390191+01 | 1486219144.39019 | pgbench_tellers  |         15532032
 2017-02-04 15:39:04.390191+01 | 1486219144.39019 | pgbench_history  |        126689280
 2017-02-04 15:39:04.390191+01 | 1486219144.39019 | pgbench_branches |         12926976

 2017-02-04 15:39:05.474888+01 | 1486219145.47489 | pgbench_accounts |      13650575360
 2017-02-04 15:39:05.474888+01 | 1486219145.47489 | pgbench_tellers  |         15532032
 2017-02-04 15:39:05.474888+01 | 1486219145.47489 | pgbench_history  |        129605632
 2017-02-04 15:39:05.474888+01 | 1486219145.47489 | pgbench_branches |         12926976

 2017-02-04 15:39:06.562937+01 | 1486219146.56294 | pgbench_accounts |      13650575360
 2017-02-04 15:39:06.562937+01 | 1486219146.56294 | pgbench_tellers  |         15532032
 2017-02-04 15:39:06.562937+01 | 1486219146.56294 | pgbench_history  |        132087808
 2017-02-04 15:39:06.562937+01 | 1486219146.56294 | pgbench_branches |         12926976

 2017-02-04 15:39:07.645633+01 | 1486219147.64563 | pgbench_accounts |      13650575360
 2017-02-04 15:39:07.645633+01 | 1486219147.64563 | pgbench_tellers  |         15532032
 2017-02-04 15:39:07.645633+01 | 1486219147.64563 | pgbench_history  |        133750784
 2017-02-04 15:39:07.645633+01 | 1486219147.64563 | pgbench_branches |         12926976

 2017-02-04 15:39:08.727068+01 | 1486219148.72707 | pgbench_accounts |      13650575360
 2017-02-04 15:39:08.727068+01 | 1486219148.72707 | pgbench_tellers  |         15532032
 2017-02-04 15:39:08.727068+01 | 1486219148.72707 | pgbench_history  |        136585216
 2017-02-04 15:39:08.727068+01 | 1486219148.72707 | pgbench_branches |         12926976

 2017-02-04 15:39:09.800754+01 | 1486219149.80075 | pgbench_accounts |      13650575360
 2017-02-04 15:39:09.800754+01 | 1486219149.80075 | pgbench_tellers  |         15532032
 2017-02-04 15:39:09.800754+01 | 1486219149.80075 | pgbench_history  |        138092544
 2017-02-04 15:39:09.800754+01 | 1486219149.80075 | pgbench_branches |         12926976

 2017-02-04 15:39:10.874733+01 | 1486219150.87473 | pgbench_accounts |      13650575360
 2017-02-04 15:39:10.874733+01 | 1486219150.87473 | pgbench_tellers  |         15532032
 2017-02-04 15:39:10.874733+01 | 1486219150.87473 | pgbench_history  |        140787712
 2017-02-04 15:39:10.874733+01 | 1486219150.87473 | pgbench_branches |         12926976

 2017-02-04 15:39:11.958515+01 | 1486219151.95851 | pgbench_accounts |      13650575360
 2017-02-04 15:39:11.958515+01 | 1486219151.95851 | pgbench_tellers  |         15532032
 2017-02-04 15:39:11.958515+01 | 1486219151.95851 | pgbench_history  |        143556608
 2017-02-04 15:39:11.958515+01 | 1486219151.95851 | pgbench_branches |         12926976

 2017-02-04 15:39:13.032974+01 | 1486219153.03297 | pgbench_accounts |      13650575360
 2017-02-04 15:39:13.032974+01 | 1486219153.03297 | pgbench_tellers  |         15532032
 2017-02-04 15:39:13.032974+01 | 1486219153.03297 | pgbench_history  |        146415616
 2017-02-04 15:39:13.032974+01 | 1486219153.03297 | pgbench_branches |         12926976

 2017-02-04 15:39:14.117578+01 | 1486219154.11758 | pgbench_accounts |      13650575360
 2017-02-04 15:39:14.117578+01 | 1486219154.11758 | pgbench_tellers  |         15532032
 2017-02-04 15:39:14.117578+01 | 1486219154.11758 | pgbench_history  |        150241280
 2017-02-04 15:39:14.117578+01 | 1486219154.11758 | pgbench_branches |         12926976

 2017-02-04 15:39:15.20923+01 | 1486219155.20923 | pgbench_accounts |      13650575360
 2017-02-04 15:39:15.20923+01 | 1486219155.20923 | pgbench_tellers  |         15532032
 2017-02-04 15:39:15.20923+01 | 1486219155.20923 | pgbench_history  |        151601152
 2017-02-04 15:39:15.20923+01 | 1486219155.20923 | pgbench_branches |         12926976

 2017-02-04 15:39:16.309552+01 | 1486219156.30955 | pgbench_accounts |      13650575360
 2017-02-04 15:39:16.309552+01 | 1486219156.30955 | pgbench_tellers  |         15532032
 2017-02-04 15:39:16.309552+01 | 1486219156.30955 | pgbench_history  |        154189824
 2017-02-04 15:39:16.309552+01 | 1486219156.30955 | pgbench_branches |         12926976

 2017-02-04 15:39:17.399349+01 | 1486219157.39935 | pgbench_accounts |      13650575360
 2017-02-04 15:39:17.399349+01 | 1486219157.39935 | pgbench_tellers  |         15532032
 2017-02-04 15:39:17.399349+01 | 1486219157.39935 | pgbench_history  |        156590080
 2017-02-04 15:39:17.399349+01 | 1486219157.39935 | pgbench_branches |         12926976

 2017-02-04 15:39:18.486475+01 | 1486219158.48647 | pgbench_accounts |      13650575360
 2017-02-04 15:39:18.486475+01 | 1486219158.48647 | pgbench_tellers  |         15532032
 2017-02-04 15:39:18.486475+01 | 1486219158.48647 | pgbench_history  |        158965760
 2017-02-04 15:39:18.486475+01 | 1486219158.48647 | pgbench_branches |         12926976

 2017-02-04 15:39:19.567343+01 | 1486219159.56734 | pgbench_accounts |      13650575360
 2017-02-04 15:39:19.567343+01 | 1486219159.56734 | pgbench_tellers  |         15532032
 2017-02-04 15:39:19.567343+01 | 1486219159.56734 | pgbench_history  |        162062336
 2017-02-04 15:39:19.567343+01 | 1486219159.56734 | pgbench_branches |         12926976

 2017-02-04 15:39:20.658706+01 | 1486219160.65871 | pgbench_accounts |      13650575360
 2017-02-04 15:39:20.658706+01 | 1486219160.65871 | pgbench_tellers  |         15532032
 2017-02-04 15:39:20.658706+01 | 1486219160.65871 | pgbench_history  |        164380672
 2017-02-04 15:39:20.658706+01 | 1486219160.65871 | pgbench_branches |         12926976

 2017-02-04 15:39:21.747884+01 | 1486219161.74788 | pgbench_accounts |      13650575360
 2017-02-04 15:39:21.747884+01 | 1486219161.74788 | pgbench_tellers  |         15532032
 2017-02-04 15:39:21.747884+01 | 1486219161.74788 | pgbench_history  |        168058880
 2017-02-04 15:39:21.747884+01 | 1486219161.74788 | pgbench_branches |         12926976

 2017-02-04 15:39:22.823599+01 | 1486219162.8236 | pgbench_accounts |      13650575360
 2017-02-04 15:39:22.823599+01 | 1486219162.8236 | pgbench_tellers  |         15532032
 2017-02-04 15:39:22.823599+01 | 1486219162.8236 | pgbench_history  |        169582592
 2017-02-04 15:39:22.823599+01 | 1486219162.8236 | pgbench_branches |         12926976

 2017-02-04 15:39:23.9035+01 | 1486219163.9035 | pgbench_accounts |      13650575360
 2017-02-04 15:39:23.9035+01 | 1486219163.9035 | pgbench_tellers  |         15532032
 2017-02-04 15:39:23.9035+01 | 1486219163.9035 | pgbench_history  |        172441600
 2017-02-04 15:39:23.9035+01 | 1486219163.9035 | pgbench_branches |         12926976

 2017-02-04 15:39:24.980794+01 | 1486219164.98079 | pgbench_accounts |      13650575360
 2017-02-04 15:39:24.980794+01 | 1486219164.98079 | pgbench_tellers  |         15532032
 2017-02-04 15:39:24.980794+01 | 1486219164.98079 | pgbench_history  |        174866432
 2017-02-04 15:39:24.980794+01 | 1486219164.98079 | pgbench_branches |         12926976

 2017-02-04 15:39:26.054943+01 | 1486219166.05494 | pgbench_accounts |      13650575360
 2017-02-04 15:39:26.054943+01 | 1486219166.05494 | pgbench_tellers  |         15532032
 2017-02-04 15:39:26.054943+01 | 1486219166.05494 | pgbench_history  |        177594368
 2017-02-04 15:39:26.054943+01 | 1486219166.05494 | pgbench_branches |         12926976

 2017-02-04 15:39:27.136968+01 | 1486219167.13697 | pgbench_accounts |      13650575360
 2017-02-04 15:39:27.136968+01 | 1486219167.13697 | pgbench_tellers  |         15532032
 2017-02-04 15:39:27.136968+01 | 1486219167.13697 | pgbench_history  |        180477952
 2017-02-04 15:39:27.136968+01 | 1486219167.13697 | pgbench_branches |         12926976

 2017-02-04 15:39:28.224611+01 | 1486219168.22461 | pgbench_accounts |      13650575360
 2017-02-04 15:39:28.224611+01 | 1486219168.22461 | pgbench_tellers  |         15532032
 2017-02-04 15:39:28.224611+01 | 1486219168.22461 | pgbench_history  |        184385536
 2017-02-04 15:39:28.224611+01 | 1486219168.22461 | pgbench_branches |         12926976

 2017-02-04 15:39:29.310341+01 | 1486219169.31034 | pgbench_accounts |      13650575360
 2017-02-04 15:39:29.310341+01 | 1486219169.31034 | pgbench_tellers  |         15532032
 2017-02-04 15:39:29.310341+01 | 1486219169.31034 | pgbench_history  |        185262080
 2017-02-04 15:39:29.310341+01 | 1486219169.31034 | pgbench_branches |         12926976

 2017-02-04 15:39:30.398784+01 | 1486219170.39878 | pgbench_accounts |      13650575360
 2017-02-04 15:39:30.398784+01 | 1486219170.39878 | pgbench_tellers  |         15532032
 2017-02-04 15:39:30.398784+01 | 1486219170.39878 | pgbench_history  |        188145664
 2017-02-04 15:39:30.398784+01 | 1486219170.39878 | pgbench_branches |         12926976

 2017-02-04 15:39:31.479908+01 | 1486219171.47991 | pgbench_accounts |      13650575360
 2017-02-04 15:39:31.479908+01 | 1486219171.47991 | pgbench_tellers  |         15532032
 2017-02-04 15:39:31.479908+01 | 1486219171.47991 | pgbench_history  |        191356928
 2017-02-04 15:39:31.479908+01 | 1486219171.47991 | pgbench_branches |         12926976

 2017-02-04 15:39:32.567319+01 | 1486219172.56732 | pgbench_accounts |      13650575360
 2017-02-04 15:39:32.567319+01 | 1486219172.56732 | pgbench_tellers  |         15532032
 2017-02-04 15:39:32.567319+01 | 1486219172.56732 | pgbench_history  |        193601536
 2017-02-04 15:39:32.567319+01 | 1486219172.56732 | pgbench_branches |         12926976

 2017-02-04 15:39:33.649884+01 | 1486219173.64988 | pgbench_accounts |      13650575360
 2017-02-04 15:39:33.649884+01 | 1486219173.64988 | pgbench_tellers  |         15532032
 2017-02-04 15:39:33.649884+01 | 1486219173.64988 | pgbench_history  |        196272128
 2017-02-04 15:39:33.649884+01 | 1486219173.64988 | pgbench_branches |         12926976

 2017-02-04 15:39:34.736228+01 | 1486219174.73623 | pgbench_accounts |      13650575360
 2017-02-04 15:39:34.736228+01 | 1486219174.73623 | pgbench_tellers  |         15532032
 2017-02-04 15:39:34.736228+01 | 1486219174.73623 | pgbench_history  |        199335936
 2017-02-04 15:39:34.736228+01 | 1486219174.73623 | pgbench_branches |         12926976

 2017-02-04 15:39:35.818152+01 | 1486219175.81815 | pgbench_accounts |      13650575360
 2017-02-04 15:39:35.818152+01 | 1486219175.81815 | pgbench_tellers  |         15532032
 2017-02-04 15:39:35.818152+01 | 1486219175.81815 | pgbench_history  |        201703424
 2017-02-04 15:39:35.818152+01 | 1486219175.81815 | pgbench_branches |         12926976

 2017-02-04 15:39:36.897913+01 | 1486219176.89791 | pgbench_accounts |      13650575360
 2017-02-04 15:39:36.897913+01 | 1486219176.89791 | pgbench_tellers  |         15532032
 2017-02-04 15:39:36.897913+01 | 1486219176.89791 | pgbench_history  |        204259328
 2017-02-04 15:39:36.897913+01 | 1486219176.89791 | pgbench_branches |         12926976

 2017-02-04 15:39:37.975147+01 | 1486219177.97515 | pgbench_accounts |      13650575360
 2017-02-04 15:39:37.975147+01 | 1486219177.97515 | pgbench_tellers  |         15532032
 2017-02-04 15:39:37.975147+01 | 1486219177.97515 | pgbench_history  |        207306752
 2017-02-04 15:39:37.975147+01 | 1486219177.97515 | pgbench_branches |         12926976

 2017-02-04 15:39:39.04148+01 | 1486219179.04148 | pgbench_accounts |      13650575360
 2017-02-04 15:39:39.04148+01 | 1486219179.04148 | pgbench_tellers  |         15532032
 2017-02-04 15:39:39.04148+01 | 1486219179.04148 | pgbench_history  |        209551360
 2017-02-04 15:39:39.04148+01 | 1486219179.04148 | pgbench_branches |         12926976

 2017-02-04 15:39:40.128881+01 | 1486219180.12888 | pgbench_accounts |      13650575360
 2017-02-04 15:39:40.128881+01 | 1486219180.12888 | pgbench_tellers  |         15532032
 2017-02-04 15:39:40.128881+01 | 1486219180.12888 | pgbench_history  |        211410944
 2017-02-04 15:39:40.128881+01 | 1486219180.12888 | pgbench_branches |         12926976

 2017-02-04 15:39:41.209018+01 | 1486219181.20902 | pgbench_accounts |      13650575360
 2017-02-04 15:39:41.209018+01 | 1486219181.20902 | pgbench_tellers  |         15532032
 2017-02-04 15:39:41.209018+01 | 1486219181.20902 | pgbench_history  |        214458368
 2017-02-04 15:39:41.209018+01 | 1486219181.20902 | pgbench_branches |         12926976

 2017-02-04 15:39:42.299998+01 | 1486219182.3 | pgbench_accounts |      13650575360
 2017-02-04 15:39:42.299998+01 | 1486219182.3 | pgbench_tellers  |         15532032
 2017-02-04 15:39:42.299998+01 | 1486219182.3 | pgbench_history  |        216522752
 2017-02-04 15:39:42.299998+01 | 1486219182.3 | pgbench_branches |         12926976

 2017-02-04 15:39:43.38516+01 | 1486219183.38516 | pgbench_accounts |      13650575360
 2017-02-04 15:39:43.38516+01 | 1486219183.38516 | pgbench_tellers  |         15532032
 2017-02-04 15:39:43.38516+01 | 1486219183.38516 | pgbench_history  |        219447296
 2017-02-04 15:39:43.38516+01 | 1486219183.38516 | pgbench_branches |         12926976

 2017-02-04 15:39:44.478628+01 | 1486219184.47863 | pgbench_accounts |      13650575360
 2017-02-04 15:39:44.478628+01 | 1486219184.47863 | pgbench_tellers  |         15532032
 2017-02-04 15:39:44.478628+01 | 1486219184.47863 | pgbench_history  |        221659136
 2017-02-04 15:39:44.478628+01 | 1486219184.47863 | pgbench_branches |         12926976

 2017-02-04 15:39:45.567233+01 | 1486219185.56723 | pgbench_accounts |      13650575360
 2017-02-04 15:39:45.567233+01 | 1486219185.56723 | pgbench_tellers  |         15532032
 2017-02-04 15:39:45.567233+01 | 1486219185.56723 | pgbench_history  |        224034816
 2017-02-04 15:39:45.567233+01 | 1486219185.56723 | pgbench_branches |         12926976

 2017-02-04 15:39:46.653942+01 | 1486219186.65394 | pgbench_accounts |      13650575360
 2017-02-04 15:39:46.653942+01 | 1486219186.65394 | pgbench_tellers  |         15532032
 2017-02-04 15:39:46.653942+01 | 1486219186.65394 | pgbench_history  |        226754560
 2017-02-04 15:39:46.653942+01 | 1486219186.65394 | pgbench_branches |         12926976

 2017-02-04 15:39:47.740688+01 | 1486219187.74069 | pgbench_accounts |      13650575360
 2017-02-04 15:39:47.740688+01 | 1486219187.74069 | pgbench_tellers  |         15532032
 2017-02-04 15:39:47.740688+01 | 1486219187.74069 | pgbench_history  |        229474304
 2017-02-04 15:39:47.740688+01 | 1486219187.74069 | pgbench_branches |         12926976

 2017-02-04 15:39:48.827021+01 | 1486219188.82702 | pgbench_accounts |      13650575360
 2017-02-04 15:39:48.827021+01 | 1486219188.82702 | pgbench_tellers  |         15532032
 2017-02-04 15:39:48.827021+01 | 1486219188.82702 | pgbench_history  |        231866368
 2017-02-04 15:39:48.827021+01 | 1486219188.82702 | pgbench_branches |         12926976

 2017-02-04 15:39:49.907849+01 | 1486219189.90785 | pgbench_accounts |      13650575360
 2017-02-04 15:39:49.907849+01 | 1486219189.90785 | pgbench_tellers  |         15532032
 2017-02-04 15:39:49.907849+01 | 1486219189.90785 | pgbench_history  |        235872256
 2017-02-04 15:39:49.907849+01 | 1486219189.90785 | pgbench_branches |         12926976

 2017-02-04 15:39:50.992708+01 | 1486219190.99271 | pgbench_accounts |      13650575360
 2017-02-04 15:39:50.992708+01 | 1486219190.99271 | pgbench_tellers  |         15532032
 2017-02-04 15:39:50.992708+01 | 1486219190.99271 | pgbench_history  |        237559808
 2017-02-04 15:39:50.992708+01 | 1486219190.99271 | pgbench_branches |         12926976

 2017-02-04 15:39:52.069974+01 | 1486219192.06997 | pgbench_accounts |      13650575360
 2017-02-04 15:39:52.069974+01 | 1486219192.06997 | pgbench_tellers  |         15532032
 2017-02-04 15:39:52.069974+01 | 1486219192.06997 | pgbench_history  |        239935488
 2017-02-04 15:39:52.069974+01 | 1486219192.06997 | pgbench_branches |         12926976

 2017-02-04 15:39:53.158182+01 | 1486219193.15818 | pgbench_accounts |      13650575360
 2017-02-04 15:39:53.158182+01 | 1486219193.15818 | pgbench_tellers  |         15532032
 2017-02-04 15:39:53.158182+01 | 1486219193.15818 | pgbench_history  |        242819072
 2017-02-04 15:39:53.158182+01 | 1486219193.15818 | pgbench_branches |         12926976

 2017-02-04 15:39:54.248533+01 | 1486219194.24853 | pgbench_accounts |      13650575360
 2017-02-04 15:39:54.248533+01 | 1486219194.24853 | pgbench_tellers  |         15532032
 2017-02-04 15:39:54.248533+01 | 1486219194.24853 | pgbench_history  |        245678080
 2017-02-04 15:39:54.248533+01 | 1486219194.24853 | pgbench_branches |         12926976

 2017-02-04 15:39:55.335623+01 | 1486219195.33562 | pgbench_accounts |      13650575360
 2017-02-04 15:39:55.335623+01 | 1486219195.33562 | pgbench_tellers  |         15532032
 2017-02-04 15:39:55.335623+01 | 1486219195.33562 | pgbench_history  |        248201216
 2017-02-04 15:39:55.335623+01 | 1486219195.33562 | pgbench_branches |         12926976

 2017-02-04 15:39:56.425566+01 | 1486219196.42557 | pgbench_accounts |      13650575360
 2017-02-04 15:39:56.425566+01 | 1486219196.42557 | pgbench_tellers  |         15532032
 2017-02-04 15:39:56.425566+01 | 1486219196.42557 | pgbench_history  |        250757120
 2017-02-04 15:39:56.425566+01 | 1486219196.42557 | pgbench_branches |         12926976

 2017-02-04 15:39:57.512972+01 | 1486219197.51297 | pgbench_accounts |      13650575360
 2017-02-04 15:39:57.512972+01 | 1486219197.51297 | pgbench_tellers  |         15532032
 2017-02-04 15:39:57.512972+01 | 1486219197.51297 | pgbench_history  |        253263872
 2017-02-04 15:39:57.512972+01 | 1486219197.51297 | pgbench_branches |         12926976

 2017-02-04 15:39:58.595023+01 | 1486219198.59502 | pgbench_accounts |      13650575360
 2017-02-04 15:39:58.595023+01 | 1486219198.59502 | pgbench_tellers  |         15532032
 2017-02-04 15:39:58.595023+01 | 1486219198.59502 | pgbench_history  |        255631360
 2017-02-04 15:39:58.595023+01 | 1486219198.59502 | pgbench_branches |         12926976

 2017-02-04 15:39:59.688164+01 | 1486219199.68816 | pgbench_accounts |      13650575360
 2017-02-04 15:39:59.688164+01 | 1486219199.68816 | pgbench_tellers  |         15532032
 2017-02-04 15:39:59.688164+01 | 1486219199.68816 | pgbench_history  |        257835008
 2017-02-04 15:39:59.688164+01 | 1486219199.68816 | pgbench_branches |         12926976

 2017-02-04 15:40:00.76975+01 | 1486219200.76975 | pgbench_accounts |      13650575360
 2017-02-04 15:40:00.76975+01 | 1486219200.76975 | pgbench_tellers  |         15532032
 2017-02-04 15:40:00.76975+01 | 1486219200.76975 | pgbench_history  |        260374528
 2017-02-04 15:40:00.76975+01 | 1486219200.76975 | pgbench_branches |         12926976

 2017-02-04 15:40:01.848804+01 | 1486219201.8488 | pgbench_accounts |      13650575360
 2017-02-04 15:40:01.848804+01 | 1486219201.8488 | pgbench_tellers  |         15532032
 2017-02-04 15:40:01.848804+01 | 1486219201.8488 | pgbench_history  |        262873088
 2017-02-04 15:40:01.848804+01 | 1486219201.8488 | pgbench_branches |         12926976

 2017-02-04 15:40:02.926444+01 | 1486219202.92644 | pgbench_accounts |      13650575360
 2017-02-04 15:40:02.926444+01 | 1486219202.92644 | pgbench_tellers  |         15532032
 2017-02-04 15:40:02.926444+01 | 1486219202.92644 | pgbench_history  |        264839168
 2017-02-04 15:40:02.926444+01 | 1486219202.92644 | pgbench_branches |         12926976

 2017-02-04 15:40:04.002776+01 | 1486219204.00278 | pgbench_accounts |      13650575360
 2017-02-04 15:40:04.002776+01 | 1486219204.00278 | pgbench_tellers  |         15532032
 2017-02-04 15:40:04.002776+01 | 1486219204.00278 | pgbench_history  |        267206656
 2017-02-04 15:40:04.002776+01 | 1486219204.00278 | pgbench_branches |         12926976

 2017-02-04 15:40:05.080312+01 | 1486219205.08031 | pgbench_accounts |      13650575360
 2017-02-04 15:40:05.080312+01 | 1486219205.08031 | pgbench_tellers  |         15532032
 2017-02-04 15:40:05.080312+01 | 1486219205.08031 | pgbench_history  |        271212544
 2017-02-04 15:40:05.080312+01 | 1486219205.08031 | pgbench_branches |         12926976

 2017-02-04 15:40:06.164638+01 | 1486219206.16464 | pgbench_accounts |      13650575360
 2017-02-04 15:40:06.164638+01 | 1486219206.16464 | pgbench_tellers  |         15532032
 2017-02-04 15:40:06.164638+01 | 1486219206.16464 | pgbench_history  |        272572416
 2017-02-04 15:40:06.164638+01 | 1486219206.16464 | pgbench_branches |         12926976

 2017-02-04 15:40:07.255114+01 | 1486219207.25511 | pgbench_accounts |      13650575360
 2017-02-04 15:40:07.255114+01 | 1486219207.25511 | pgbench_tellers  |         15532032
 2017-02-04 15:40:07.255114+01 | 1486219207.25511 | pgbench_history  |        275316736
 2017-02-04 15:40:07.255114+01 | 1486219207.25511 | pgbench_branches |         12926976

 2017-02-04 15:40:08.343872+01 | 1486219208.34387 | pgbench_accounts |      13650575360
 2017-02-04 15:40:08.343872+01 | 1486219208.34387 | pgbench_tellers  |         15532032
 2017-02-04 15:40:08.343872+01 | 1486219208.34387 | pgbench_history  |        278011904
 2017-02-04 15:40:08.343872+01 | 1486219208.34387 | pgbench_branches |         12926976

 2017-02-04 15:40:09.431511+01 | 1486219209.43151 | pgbench_accounts |      13650575360
 2017-02-04 15:40:09.431511+01 | 1486219209.43151 | pgbench_tellers  |         15532032
 2017-02-04 15:40:09.431511+01 | 1486219209.43151 | pgbench_history  |        280870912
 2017-02-04 15:40:09.431511+01 | 1486219209.43151 | pgbench_branches |         12926976

 2017-02-04 15:40:10.515012+01 | 1486219210.51501 | pgbench_accounts |      13650575360
 2017-02-04 15:40:10.515012+01 | 1486219210.51501 | pgbench_tellers  |         15532032
 2017-02-04 15:40:10.515012+01 | 1486219210.51501 | pgbench_history  |        283328512
 2017-02-04 15:40:10.515012+01 | 1486219210.51501 | pgbench_branches |         12926976

 2017-02-04 15:40:11.597924+01 | 1486219211.59792 | pgbench_accounts |      13650575360
 2017-02-04 15:40:11.597924+01 | 1486219211.59792 | pgbench_tellers  |         15532032
 2017-02-04 15:40:11.597924+01 | 1486219211.59792 | pgbench_history  |        286048256
 2017-02-04 15:40:11.597924+01 | 1486219211.59792 | pgbench_branches |         12926976

 2017-02-04 15:40:12.687462+01 | 1486219212.68746 | pgbench_accounts |      13650575360
 2017-02-04 15:40:12.687462+01 | 1486219212.68746 | pgbench_tellers  |         15532032
 2017-02-04 15:40:12.687462+01 | 1486219212.68746 | pgbench_history  |        288227328
 2017-02-04 15:40:12.687462+01 | 1486219212.68746 | pgbench_branches |         12926976

 2017-02-04 15:40:13.777893+01 | 1486219213.77789 | pgbench_accounts |      13650575360
 2017-02-04 15:40:13.777893+01 | 1486219213.77789 | pgbench_tellers  |         15532032
 2017-02-04 15:40:13.777893+01 | 1486219213.77789 | pgbench_history  |        290971648
 2017-02-04 15:40:13.777893+01 | 1486219213.77789 | pgbench_branches |         12926976

 2017-02-04 15:40:14.863543+01 | 1486219214.86354 | pgbench_accounts |      13650575360
 2017-02-04 15:40:14.863543+01 | 1486219214.86354 | pgbench_tellers  |         15532032
 2017-02-04 15:40:14.863543+01 | 1486219214.86354 | pgbench_history  |        293691392
 2017-02-04 15:40:14.863543+01 | 1486219214.86354 | pgbench_branches |         12926976

 2017-02-04 15:40:15.938139+01 | 1486219215.93814 | pgbench_accounts |      13650575360
 2017-02-04 15:40:15.938139+01 | 1486219215.93814 | pgbench_tellers  |         15532032
 2017-02-04 15:40:15.938139+01 | 1486219215.93814 | pgbench_history  |        296435712
 2017-02-04 15:40:15.938139+01 | 1486219215.93814 | pgbench_branches |         12926976

 2017-02-04 15:40:17.015141+01 | 1486219217.01514 | pgbench_accounts |      13650575360
 2017-02-04 15:40:17.015141+01 | 1486219217.01514 | pgbench_tellers  |         15532032
 2017-02-04 15:40:17.015141+01 | 1486219217.01514 | pgbench_history  |        298639360
 2017-02-04 15:40:17.015141+01 | 1486219217.01514 | pgbench_branches |         12926976

 2017-02-04 15:40:18.093107+01 | 1486219218.09311 | pgbench_accounts |      13650575360
 2017-02-04 15:40:18.093107+01 | 1486219218.09311 | pgbench_tellers  |         15532032
 2017-02-04 15:40:18.093107+01 | 1486219218.09311 | pgbench_history  |        301383680
 2017-02-04 15:40:18.093107+01 | 1486219218.09311 | pgbench_branches |         12926976

 2017-02-04 15:40:19.174859+01 | 1486219219.17486 | pgbench_accounts |      13650575360
 2017-02-04 15:40:19.174859+01 | 1486219219.17486 | pgbench_tellers  |         15532032
 2017-02-04 15:40:19.174859+01 | 1486219219.17486 | pgbench_history  |        304291840
 2017-02-04 15:40:19.174859+01 | 1486219219.17486 | pgbench_branches |         12926976

 2017-02-04 15:40:20.264352+01 | 1486219220.26435 | pgbench_accounts |      13650575360
 2017-02-04 15:40:20.264352+01 | 1486219220.26435 | pgbench_tellers  |         15532032
 2017-02-04 15:40:20.264352+01 | 1486219220.26435 | pgbench_history  |        307150848
 2017-02-04 15:40:20.264352+01 | 1486219220.26435 | pgbench_branches |         12926976

 2017-02-04 15:40:21.360849+01 | 1486219221.36085 | pgbench_accounts |      13650575360
 2017-02-04 15:40:21.360849+01 | 1486219221.36085 | pgbench_tellers  |         15532032
 2017-02-04 15:40:21.360849+01 | 1486219221.36085 | pgbench_history  |        309141504
 2017-02-04 15:40:21.360849+01 | 1486219221.36085 | pgbench_branches |         12926976

 2017-02-04 15:40:22.446876+01 | 1486219222.44688 | pgbench_accounts |      13650575360
 2017-02-04 15:40:22.446876+01 | 1486219222.44688 | pgbench_tellers  |         15532032
 2017-02-04 15:40:22.446876+01 | 1486219222.44688 | pgbench_history  |        311885824
 2017-02-04 15:40:22.446876+01 | 1486219222.44688 | pgbench_branches |         12926976

 2017-02-04 15:40:23.536088+01 | 1486219223.53609 | pgbench_accounts |      13650575360
 2017-02-04 15:40:23.536088+01 | 1486219223.53609 | pgbench_tellers  |         15532032
 2017-02-04 15:40:23.536088+01 | 1486219223.53609 | pgbench_history  |        315760640
 2017-02-04 15:40:23.536088+01 | 1486219223.53609 | pgbench_branches |         12926976

 2017-02-04 15:40:24.617963+01 | 1486219224.61796 | pgbench_accounts |      13650575360
 2017-02-04 15:40:24.617963+01 | 1486219224.61796 | pgbench_tellers  |         15532032
 2017-02-04 15:40:24.617963+01 | 1486219224.61796 | pgbench_history  |        317177856
 2017-02-04 15:40:24.617963+01 | 1486219224.61796 | pgbench_branches |         12926976

 2017-02-04 15:40:25.704267+01 | 1486219225.70427 | pgbench_accounts |      13650575360
 2017-02-04 15:40:25.704267+01 | 1486219225.70427 | pgbench_tellers  |         15532032
 2017-02-04 15:40:25.704267+01 | 1486219225.70427 | pgbench_history  |        319569920
 2017-02-04 15:40:25.704267+01 | 1486219225.70427 | pgbench_branches |         12926976

 2017-02-04 15:40:26.781388+01 | 1486219226.78139 | pgbench_accounts |      13650575360
 2017-02-04 15:40:26.781388+01 | 1486219226.78139 | pgbench_tellers  |         15532032
 2017-02-04 15:40:26.781388+01 | 1486219226.78139 | pgbench_history  |        321634304
 2017-02-04 15:40:26.781388+01 | 1486219226.78139 | pgbench_branches |         12926976

 2017-02-04 15:40:27.859048+01 | 1486219227.85905 | pgbench_accounts |      13650575360
 2017-02-04 15:40:27.859048+01 | 1486219227.85905 | pgbench_tellers  |         15532032
 2017-02-04 15:40:27.859048+01 | 1486219227.85905 | pgbench_history  |        325402624
 2017-02-04 15:40:27.859048+01 | 1486219227.85905 | pgbench_branches |         12926976

 2017-02-04 15:40:28.935167+01 | 1486219228.93517 | pgbench_accounts |      13650575360
 2017-02-04 15:40:28.935167+01 | 1486219228.93517 | pgbench_tellers  |         15532032
 2017-02-04 15:40:28.935167+01 | 1486219228.93517 | pgbench_history  |        326795264
 2017-02-04 15:40:28.935167+01 | 1486219228.93517 | pgbench_branches |         12926976

 2017-02-04 15:40:30.013291+01 | 1486219230.01329 | pgbench_accounts |      13650575360
 2017-02-04 15:40:30.013291+01 | 1486219230.01329 | pgbench_tellers  |         15532032
 2017-02-04 15:40:30.013291+01 | 1486219230.01329 | pgbench_history  |        329850880
 2017-02-04 15:40:30.013291+01 | 1486219230.01329 | pgbench_branches |         12926976

 2017-02-04 15:40:31.088004+01 | 1486219231.088 | pgbench_accounts |      13650575360
 2017-02-04 15:40:31.088004+01 | 1486219231.088 | pgbench_tellers  |         15532032
 2017-02-04 15:40:31.088004+01 | 1486219231.088 | pgbench_history  |        331055104
 2017-02-04 15:40:31.088004+01 | 1486219231.088 | pgbench_branches |         12926976

 2017-02-04 15:40:32.16865+01 | 1486219232.16865 | pgbench_accounts |      13650575360
 2017-02-04 15:40:32.16865+01 | 1486219232.16865 | pgbench_tellers  |         15532032
 2017-02-04 15:40:32.16865+01 | 1486219232.16865 | pgbench_history  |        333766656
 2017-02-04 15:40:32.16865+01 | 1486219232.16865 | pgbench_branches |         12926976

 2017-02-04 15:40:33.250634+01 | 1486219233.25063 | pgbench_accounts |      13650575360
 2017-02-04 15:40:33.250634+01 | 1486219233.25063 | pgbench_tellers  |         15532032
 2017-02-04 15:40:33.250634+01 | 1486219233.25063 | pgbench_history  |        336601088
 2017-02-04 15:40:33.250634+01 | 1486219233.25063 | pgbench_branches |         12926976

 2017-02-04 15:40:34.33062+01 | 1486219234.33062 | pgbench_accounts |      13650575360
 2017-02-04 15:40:34.33062+01 | 1486219234.33062 | pgbench_tellers  |         15532032
 2017-02-04 15:40:34.33062+01 | 1486219234.33062 | pgbench_history  |        337960960
 2017-02-04 15:40:34.33062+01 | 1486219234.33062 | pgbench_branches |         12926976

 2017-02-04 15:40:35.420399+01 | 1486219235.4204 | pgbench_accounts |      13650575360
 2017-02-04 15:40:35.420399+01 | 1486219235.4204 | pgbench_tellers  |         15532032
 2017-02-04 15:40:35.420399+01 | 1486219235.4204 | pgbench_history  |        340828160
 2017-02-04 15:40:35.420399+01 | 1486219235.4204 | pgbench_branches |         12926976

 2017-02-04 15:40:36.503495+01 | 1486219236.50349 | pgbench_accounts |      13650575360
 2017-02-04 15:40:36.503495+01 | 1486219236.50349 | pgbench_tellers  |         15532032
 2017-02-04 15:40:36.503495+01 | 1486219236.50349 | pgbench_history  |        343384064
 2017-02-04 15:40:36.503495+01 | 1486219236.50349 | pgbench_branches |         12926976

 2017-02-04 15:40:37.584534+01 | 1486219237.58453 | pgbench_accounts |      13650575360
 2017-02-04 15:40:37.584534+01 | 1486219237.58453 | pgbench_tellers  |         15532032
 2017-02-04 15:40:37.584534+01 | 1486219237.58453 | pgbench_history  |        345923584
 2017-02-04 15:40:37.584534+01 | 1486219237.58453 | pgbench_branches |         12926976

 2017-02-04 15:40:38.654834+01 | 1486219238.65483 | pgbench_accounts |      13650575360
 2017-02-04 15:40:38.654834+01 | 1486219238.65483 | pgbench_tellers  |         15532032
 2017-02-04 15:40:38.654834+01 | 1486219238.65483 | pgbench_history  |        348151808
 2017-02-04 15:40:38.654834+01 | 1486219238.65483 | pgbench_branches |         12926976

 2017-02-04 15:40:39.735047+01 | 1486219239.73505 | pgbench_accounts |      13650575360
 2017-02-04 15:40:39.735047+01 | 1486219239.73505 | pgbench_tellers  |         15532032
 2017-02-04 15:40:39.735047+01 | 1486219239.73505 | pgbench_history  |        349659136
 2017-02-04 15:40:39.735047+01 | 1486219239.73505 | pgbench_branches |         12926976

 2017-02-04 15:40:40.828329+01 | 1486219240.82833 | pgbench_accounts |      13650575360
 2017-02-04 15:40:40.828329+01 | 1486219240.82833 | pgbench_tellers  |         15532032
 2017-02-04 15:40:40.828329+01 | 1486219240.82833 | pgbench_history  |        351379456
 2017-02-04 15:40:40.828329+01 | 1486219240.82833 | pgbench_branches |         12926976

 2017-02-04 15:40:41.914405+01 | 1486219241.91441 | pgbench_accounts |      13650575360
 2017-02-04 15:40:41.914405+01 | 1486219241.91441 | pgbench_tellers  |         15532032
 2017-02-04 15:40:41.914405+01 | 1486219241.91441 | pgbench_history  |        354615296
 2017-02-04 15:40:41.914405+01 | 1486219241.91441 | pgbench_branches |         12926976

 2017-02-04 15:40:42.995126+01 | 1486219242.99513 | pgbench_accounts |      13650575360
 2017-02-04 15:40:42.995126+01 | 1486219242.99513 | pgbench_tellers  |         15532032
 2017-02-04 15:40:42.995126+01 | 1486219242.99513 | pgbench_history  |        356843520
 2017-02-04 15:40:42.995126+01 | 1486219242.99513 | pgbench_branches |         12926976

 2017-02-04 15:40:44.074639+01 | 1486219244.07464 | pgbench_accounts |      13650575360
 2017-02-04 15:40:44.074639+01 | 1486219244.07464 | pgbench_tellers  |         15532032
 2017-02-04 15:40:44.074639+01 | 1486219244.07464 | pgbench_history  |        359866368
 2017-02-04 15:40:44.074639+01 | 1486219244.07464 | pgbench_branches |         12926976

 2017-02-04 15:40:45.148559+01 | 1486219245.14856 | pgbench_accounts |      13650575360
 2017-02-04 15:40:45.148559+01 | 1486219245.14856 | pgbench_tellers  |         15532032
 2017-02-04 15:40:45.148559+01 | 1486219245.14856 | pgbench_history  |        362561536
 2017-02-04 15:40:45.148559+01 | 1486219245.14856 | pgbench_branches |         12926976

 2017-02-04 15:40:46.227341+01 | 1486219246.22734 | pgbench_accounts |      13650575360
 2017-02-04 15:40:46.227341+01 | 1486219246.22734 | pgbench_tellers  |         15532032
 2017-02-04 15:40:46.227341+01 | 1486219246.22734 | pgbench_history  |        365256704
 2017-02-04 15:40:46.227341+01 | 1486219246.22734 | pgbench_branches |         12926976

 2017-02-04 15:40:47.314976+01 | 1486219247.31498 | pgbench_accounts |      13650575360
 2017-02-04 15:40:47.314976+01 | 1486219247.31498 | pgbench_tellers  |         15532032
 2017-02-04 15:40:47.314976+01 | 1486219247.31498 | pgbench_history  |        367812608
 2017-02-04 15:40:47.314976+01 | 1486219247.31498 | pgbench_branches |         12926976

 2017-02-04 15:40:48.406325+01 | 1486219248.40633 | pgbench_accounts |      13650771968
 2017-02-04 15:40:48.406325+01 | 1486219248.40633 | pgbench_tellers  |         15532032
 2017-02-04 15:40:48.406325+01 | 1486219248.40633 | pgbench_history  |        370376704
 2017-02-04 15:40:48.406325+01 | 1486219248.40633 | pgbench_branches |         12926976

 2017-02-04 15:40:49.480617+01 | 1486219249.48062 | pgbench_accounts |      13650771968
 2017-02-04 15:40:49.480617+01 | 1486219249.48062 | pgbench_tellers  |         15532032
 2017-02-04 15:40:49.480617+01 | 1486219249.48062 | pgbench_history  |        372629504
 2017-02-04 15:40:49.480617+01 | 1486219249.48062 | pgbench_branches |         12926976

 2017-02-04 15:40:50.559988+01 | 1486219250.55999 | pgbench_accounts |      13651255296
 2017-02-04 15:40:50.559988+01 | 1486219250.55999 | pgbench_tellers  |         15532032
 2017-02-04 15:40:50.559988+01 | 1486219250.55999 | pgbench_history  |        375357440
 2017-02-04 15:40:50.559988+01 | 1486219250.55999 | pgbench_branches |         12926976

 2017-02-04 15:40:51.642673+01 | 1486219251.64267 | pgbench_accounts |      13651255296
 2017-02-04 15:40:51.642673+01 | 1486219251.64267 | pgbench_tellers  |         15532032
 2017-02-04 15:40:51.642673+01 | 1486219251.64267 | pgbench_history  |        377372672
 2017-02-04 15:40:51.642673+01 | 1486219251.64267 | pgbench_branches |         12926976

 2017-02-04 15:40:52.727916+01 | 1486219252.72792 | pgbench_accounts |      13651255296
 2017-02-04 15:40:52.727916+01 | 1486219252.72792 | pgbench_tellers  |         15532032
 2017-02-04 15:40:52.727916+01 | 1486219252.72792 | pgbench_history  |        383303680
 2017-02-04 15:40:52.727916+01 | 1486219252.72792 | pgbench_branches |         12926976

 2017-02-04 15:40:53.812139+01 | 1486219253.81214 | pgbench_accounts |      13651255296
 2017-02-04 15:40:53.812139+01 | 1486219253.81214 | pgbench_tellers  |         15532032
 2017-02-04 15:40:53.812139+01 | 1486219253.81214 | pgbench_history  |        383303680
 2017-02-04 15:40:53.812139+01 | 1486219253.81214 | pgbench_branches |         12926976

 2017-02-04 15:40:54.893682+01 | 1486219254.89368 | pgbench_accounts |      13651255296
 2017-02-04 15:40:54.893682+01 | 1486219254.89368 | pgbench_tellers  |         15532032
 2017-02-04 15:40:54.893682+01 | 1486219254.89368 | pgbench_history  |        385179648
 2017-02-04 15:40:54.893682+01 | 1486219254.89368 | pgbench_branches |         12926976

 2017-02-04 15:40:55.971606+01 | 1486219255.97161 | pgbench_accounts |      13651615744
 2017-02-04 15:40:55.971606+01 | 1486219255.97161 | pgbench_tellers  |         15532032
 2017-02-04 15:40:55.971606+01 | 1486219255.97161 | pgbench_history  |        388038656
 2017-02-04 15:40:55.971606+01 | 1486219255.97161 | pgbench_branches |         12926976

 2017-02-04 15:40:57.04923+01 | 1486219257.04923 | pgbench_accounts |      13651755008
 2017-02-04 15:40:57.04923+01 | 1486219257.04923 | pgbench_tellers  |         15532032
 2017-02-04 15:40:57.04923+01 | 1486219257.04923 | pgbench_history  |        390733824
 2017-02-04 15:40:57.04923+01 | 1486219257.04923 | pgbench_branches |         12926976

 2017-02-04 15:40:58.123935+01 | 1486219258.12393 | pgbench_accounts |      13651779584
 2017-02-04 15:40:58.123935+01 | 1486219258.12393 | pgbench_tellers  |         15532032
 2017-02-04 15:40:58.123935+01 | 1486219258.12393 | pgbench_history  |        392888320
 2017-02-04 15:40:58.123935+01 | 1486219258.12393 | pgbench_branches |         12926976

 2017-02-04 15:40:59.198019+01 | 1486219259.19802 | pgbench_accounts |      13651779584
 2017-02-04 15:40:59.198019+01 | 1486219259.19802 | pgbench_tellers  |         15532032
 2017-02-04 15:40:59.198019+01 | 1486219259.19802 | pgbench_history  |        395976704
 2017-02-04 15:40:59.198019+01 | 1486219259.19802 | pgbench_branches |         12926976

 2017-02-04 15:41:00.278889+01 | 1486219260.27889 | pgbench_accounts |      13651787776
 2017-02-04 15:41:00.278889+01 | 1486219260.27889 | pgbench_tellers  |         15532032
 2017-02-04 15:41:00.278889+01 | 1486219260.27889 | pgbench_history  |        398344192
 2017-02-04 15:41:00.278889+01 | 1486219260.27889 | pgbench_branches |         12926976

 2017-02-04 15:41:01.372834+01 | 1486219261.37283 | pgbench_accounts |      13651902464
 2017-02-04 15:41:01.372834+01 | 1486219261.37283 | pgbench_tellers  |         15532032
 2017-02-04 15:41:01.372834+01 | 1486219261.37283 | pgbench_history  |        400875520
 2017-02-04 15:41:01.372834+01 | 1486219261.37283 | pgbench_branches |         12926976

 2017-02-04 15:41:02.461504+01 | 1486219262.4615 | pgbench_accounts |      13652148224
 2017-02-04 15:41:02.461504+01 | 1486219262.4615 | pgbench_tellers  |         15532032
 2017-02-04 15:41:02.461504+01 | 1486219262.4615 | pgbench_history  |        403406848
 2017-02-04 15:41:02.461504+01 | 1486219262.4615 | pgbench_branches |         12926976

 2017-02-04 15:41:03.547526+01 | 1486219263.54753 | pgbench_accounts |      13652271104
 2017-02-04 15:41:03.547526+01 | 1486219263.54753 | pgbench_tellers  |         15532032
 2017-02-04 15:41:03.547526+01 | 1486219263.54753 | pgbench_history  |        406781952
 2017-02-04 15:41:03.547526+01 | 1486219263.54753 | pgbench_branches |         12926976

 2017-02-04 15:41:04.63216+01 | 1486219264.63216 | pgbench_accounts |      13652295680
 2017-02-04 15:41:04.63216+01 | 1486219264.63216 | pgbench_tellers  |         15532032
 2017-02-04 15:41:04.63216+01 | 1486219264.63216 | pgbench_history  |        408846336
 2017-02-04 15:41:04.63216+01 | 1486219264.63216 | pgbench_branches |         12926976

 2017-02-04 15:41:05.723998+01 | 1486219265.724 | pgbench_accounts |      13652303872
 2017-02-04 15:41:05.723998+01 | 1486219265.724 | pgbench_tellers  |         15532032
 2017-02-04 15:41:05.723998+01 | 1486219265.724 | pgbench_history  |        411115520
 2017-02-04 15:41:05.723998+01 | 1486219265.724 | pgbench_branches |         12926976

 2017-02-04 15:41:06.805935+01 | 1486219266.80593 | pgbench_accounts |      13652344832
 2017-02-04 15:41:06.805935+01 | 1486219266.80593 | pgbench_tellers  |         15532032
 2017-02-04 15:41:06.805935+01 | 1486219266.80593 | pgbench_history  |        414236672
 2017-02-04 15:41:06.805935+01 | 1486219266.80593 | pgbench_branches |         12926976

 2017-02-04 15:41:07.890974+01 | 1486219267.89097 | pgbench_accounts |      13652508672
 2017-02-04 15:41:07.890974+01 | 1486219267.89097 | pgbench_tellers  |         15532032
 2017-02-04 15:41:07.890974+01 | 1486219267.89097 | pgbench_history  |        416661504
 2017-02-04 15:41:07.890974+01 | 1486219267.89097 | pgbench_branches |         12926976

 2017-02-04 15:41:08.970658+01 | 1486219268.97066 | pgbench_accounts |      13652639744
 2017-02-04 15:41:08.970658+01 | 1486219268.97066 | pgbench_tellers  |         15532032
 2017-02-04 15:41:08.970658+01 | 1486219268.97066 | pgbench_history  |        419028992
 2017-02-04 15:41:08.970658+01 | 1486219268.97066 | pgbench_branches |         12926976

 2017-02-04 15:41:10.049332+01 | 1486219270.04933 | pgbench_accounts |      13652746240
 2017-02-04 15:41:10.049332+01 | 1486219270.04933 | pgbench_tellers  |         15532032
 2017-02-04 15:41:10.049332+01 | 1486219270.04933 | pgbench_history  |        421601280
 2017-02-04 15:41:10.049332+01 | 1486219270.04933 | pgbench_branches |         12926976

 2017-02-04 15:41:11.129532+01 | 1486219271.12953 | pgbench_accounts |      13652811776
 2017-02-04 15:41:11.129532+01 | 1486219271.12953 | pgbench_tellers  |         15532032
 2017-02-04 15:41:11.129532+01 | 1486219271.12953 | pgbench_history  |        424321024
 2017-02-04 15:41:11.129532+01 | 1486219271.12953 | pgbench_branches |         12926976

 2017-02-04 15:41:12.205816+01 | 1486219272.20582 | pgbench_accounts |      13652844544
 2017-02-04 15:41:12.205816+01 | 1486219272.20582 | pgbench_tellers  |         15532032
 2017-02-04 15:41:12.205816+01 | 1486219272.20582 | pgbench_history  |        427040768
 2017-02-04 15:41:12.205816+01 | 1486219272.20582 | pgbench_branches |         12926976

 2017-02-04 15:41:13.283645+01 | 1486219273.28364 | pgbench_accounts |      13652893696
 2017-02-04 15:41:13.283645+01 | 1486219273.28364 | pgbench_tellers  |         15532032
 2017-02-04 15:41:13.283645+01 | 1486219273.28364 | pgbench_history  |        429432832
 2017-02-04 15:41:13.283645+01 | 1486219273.28364 | pgbench_branches |         12926976

 2017-02-04 15:41:14.375631+01 | 1486219274.37563 | pgbench_accounts |      13652983808
 2017-02-04 15:41:14.375631+01 | 1486219274.37563 | pgbench_tellers  |         15532032
 2017-02-04 15:41:14.375631+01 | 1486219274.37563 | pgbench_history  |        432013312
 2017-02-04 15:41:14.375631+01 | 1486219274.37563 | pgbench_branches |         12926976

 2017-02-04 15:41:15.457928+01 | 1486219275.45793 | pgbench_accounts |      13653221376
 2017-02-04 15:41:15.457928+01 | 1486219275.45793 | pgbench_tellers  |         15532032
 2017-02-04 15:41:15.457928+01 | 1486219275.45793 | pgbench_history  |        437248000
 2017-02-04 15:41:15.457928+01 | 1486219275.45793 | pgbench_branches |         12926976

 2017-02-04 15:41:16.539803+01 | 1486219276.5398 | pgbench_accounts |      13653221376
 2017-02-04 15:41:16.539803+01 | 1486219276.5398 | pgbench_tellers  |         15532032
 2017-02-04 15:41:16.539803+01 | 1486219276.5398 | pgbench_history  |        437248000
 2017-02-04 15:41:16.539803+01 | 1486219276.5398 | pgbench_branches |         12926976

 2017-02-04 15:41:17.625698+01 | 1486219277.6257 | pgbench_accounts |      13653221376
 2017-02-04 15:41:17.625698+01 | 1486219277.6257 | pgbench_tellers  |         15532032
 2017-02-04 15:41:17.625698+01 | 1486219277.6257 | pgbench_history  |        439836672
 2017-02-04 15:41:17.625698+01 | 1486219277.6257 | pgbench_branches |         12926976

 2017-02-04 15:41:18.710131+01 | 1486219278.71013 | pgbench_accounts |      13653221376
 2017-02-04 15:41:18.710131+01 | 1486219278.71013 | pgbench_tellers  |         15532032
 2017-02-04 15:41:18.710131+01 | 1486219278.71013 | pgbench_history  |        443211776
 2017-02-04 15:41:18.710131+01 | 1486219278.71013 | pgbench_branches |         12926976

 2017-02-04 15:41:19.796608+01 | 1486219279.79661 | pgbench_accounts |      13653221376
 2017-02-04 15:41:19.796608+01 | 1486219279.79661 | pgbench_tellers  |         15532032
 2017-02-04 15:41:19.796608+01 | 1486219279.79661 | pgbench_history  |        445390848
 2017-02-04 15:41:19.796608+01 | 1486219279.79661 | pgbench_branches |         12926976

 2017-02-04 15:41:20.881556+01 | 1486219280.88156 | pgbench_accounts |      13653532672
 2017-02-04 15:41:20.881556+01 | 1486219280.88156 | pgbench_tellers  |         15532032
 2017-02-04 15:41:20.881556+01 | 1486219280.88156 | pgbench_history  |        447897600
 2017-02-04 15:41:20.881556+01 | 1486219280.88156 | pgbench_branches |         12926976

 2017-02-04 15:41:21.955332+01 | 1486219281.95533 | pgbench_accounts |      13653532672
 2017-02-04 15:41:21.955332+01 | 1486219281.95533 | pgbench_tellers  |         15532032
 2017-02-04 15:41:21.955332+01 | 1486219281.95533 | pgbench_history  |        450101248
 2017-02-04 15:41:21.955332+01 | 1486219281.95533 | pgbench_branches |         12926976

 2017-02-04 15:41:23.036113+01 | 1486219283.03611 | pgbench_accounts |      13653532672
 2017-02-04 15:41:23.036113+01 | 1486219283.03611 | pgbench_tellers  |         15532032
 2017-02-04 15:41:23.036113+01 | 1486219283.03611 | pgbench_history  |        452796416
 2017-02-04 15:41:23.036113+01 | 1486219283.03611 | pgbench_branches |         12926976

 2017-02-04 15:41:24.119022+01 | 1486219284.11902 | pgbench_accounts |      13653835776
 2017-02-04 15:41:24.119022+01 | 1486219284.11902 | pgbench_tellers  |         15532032
 2017-02-04 15:41:24.119022+01 | 1486219284.11902 | pgbench_history  |        455663616
 2017-02-04 15:41:24.119022+01 | 1486219284.11902 | pgbench_branches |         12926976

 2017-02-04 15:41:25.19673+01 | 1486219285.19673 | pgbench_accounts |      13653917696
 2017-02-04 15:41:25.19673+01 | 1486219285.19673 | pgbench_tellers  |         15532032
 2017-02-04 15:41:25.19673+01 | 1486219285.19673 | pgbench_history  |        458194944
 2017-02-04 15:41:25.19673+01 | 1486219285.19673 | pgbench_branches |         12926976

 2017-02-04 15:41:26.271652+01 | 1486219286.27165 | pgbench_accounts |      13653950464
 2017-02-04 15:41:26.271652+01 | 1486219286.27165 | pgbench_tellers  |         15532032
 2017-02-04 15:41:26.271652+01 | 1486219286.27165 | pgbench_history  |        460234752
 2017-02-04 15:41:26.271652+01 | 1486219286.27165 | pgbench_branches |         12926976

 2017-02-04 15:41:27.35613+01 | 1486219287.35613 | pgbench_accounts |      13653983232
 2017-02-04 15:41:27.35613+01 | 1486219287.35613 | pgbench_tellers  |         15532032
 2017-02-04 15:41:27.35613+01 | 1486219287.35613 | pgbench_history  |        462798848
 2017-02-04 15:41:27.35613+01 | 1486219287.35613 | pgbench_branches |         12926976

 2017-02-04 15:41:28.441272+01 | 1486219288.44127 | pgbench_accounts |      13654048768
 2017-02-04 15:41:28.441272+01 | 1486219288.44127 | pgbench_tellers  |         15532032
 2017-02-04 15:41:28.441272+01 | 1486219288.44127 | pgbench_history  |        465141760
 2017-02-04 15:41:28.441272+01 | 1486219288.44127 | pgbench_branches |         12926976

 2017-02-04 15:41:29.534759+01 | 1486219289.53476 | pgbench_accounts |      13654073344
 2017-02-04 15:41:29.534759+01 | 1486219289.53476 | pgbench_tellers  |         15532032
 2017-02-04 15:41:29.534759+01 | 1486219289.53476 | pgbench_history  |        467673088
 2017-02-04 15:41:29.534759+01 | 1486219289.53476 | pgbench_branches |         12926976

 2017-02-04 15:41:30.615255+01 | 1486219290.61526 | pgbench_accounts |      13654138880
 2017-02-04 15:41:30.615255+01 | 1486219290.61526 | pgbench_tellers  |         15532032
 2017-02-04 15:41:30.615255+01 | 1486219290.61526 | pgbench_history  |        470728704
 2017-02-04 15:41:30.615255+01 | 1486219290.61526 | pgbench_branches |         12926976

 2017-02-04 15:41:31.704069+01 | 1486219291.70407 | pgbench_accounts |      13654343680
 2017-02-04 15:41:31.704069+01 | 1486219291.70407 | pgbench_tellers  |         15532032
 2017-02-04 15:41:31.704069+01 | 1486219291.70407 | pgbench_history  |        473374720
 2017-02-04 15:41:31.704069+01 | 1486219291.70407 | pgbench_branches |         12926976

 2017-02-04 15:41:32.788327+01 | 1486219292.78833 | pgbench_accounts |      13654441984
 2017-02-04 15:41:32.788327+01 | 1486219292.78833 | pgbench_tellers  |         15532032
 2017-02-04 15:41:32.788327+01 | 1486219292.78833 | pgbench_history  |        475742208
 2017-02-04 15:41:32.788327+01 | 1486219292.78833 | pgbench_branches |         12926976

 2017-02-04 15:41:33.881178+01 | 1486219293.88118 | pgbench_accounts |      13654515712
 2017-02-04 15:41:33.881178+01 | 1486219293.88118 | pgbench_tellers  |         15532032
 2017-02-04 15:41:33.881178+01 | 1486219293.88118 | pgbench_history  |        479117312
 2017-02-04 15:41:33.881178+01 | 1486219293.88118 | pgbench_branches |         12926976

 2017-02-04 15:41:34.953666+01 | 1486219294.95367 | pgbench_accounts |      13654540288
 2017-02-04 15:41:34.953666+01 | 1486219294.95367 | pgbench_tellers  |         15532032
 2017-02-04 15:41:34.953666+01 | 1486219294.95367 | pgbench_history  |        480854016
 2017-02-04 15:41:34.953666+01 | 1486219294.95367 | pgbench_branches |         12926976

 2017-02-04 15:41:36.033282+01 | 1486219296.03328 | pgbench_accounts |      13654581248
 2017-02-04 15:41:36.033282+01 | 1486219296.03328 | pgbench_tellers  |         15532032
 2017-02-04 15:41:36.033282+01 | 1486219296.03328 | pgbench_history  |        486055936
 2017-02-04 15:41:36.033282+01 | 1486219296.03328 | pgbench_branches |         12926976

 2017-02-04 15:41:37.11935+01 | 1486219297.11935 | pgbench_accounts |      13654614016
 2017-02-04 15:41:37.11935+01 | 1486219297.11935 | pgbench_tellers  |         15532032
 2017-02-04 15:41:37.11935+01 | 1486219297.11935 | pgbench_history  |        486055936
 2017-02-04 15:41:37.11935+01 | 1486219297.11935 | pgbench_branches |         12926976

 2017-02-04 15:41:38.195799+01 | 1486219298.1958 | pgbench_accounts |      13654761472
 2017-02-04 15:41:38.195799+01 | 1486219298.1958 | pgbench_tellers  |         15532032
 2017-02-04 15:41:38.195799+01 | 1486219298.1958 | pgbench_history  |        488284160
 2017-02-04 15:41:38.195799+01 | 1486219298.1958 | pgbench_branches |         12926976

 2017-02-04 15:41:39.275875+01 | 1486219299.27588 | pgbench_accounts |      13654917120
 2017-02-04 15:41:39.275875+01 | 1486219299.27588 | pgbench_tellers  |         15532032
 2017-02-04 15:41:39.275875+01 | 1486219299.27588 | pgbench_history  |        492675072
 2017-02-04 15:41:39.275875+01 | 1486219299.27588 | pgbench_branches |         12926976

 2017-02-04 15:41:40.359885+01 | 1486219300.35988 | pgbench_accounts |      13655351296
 2017-02-04 15:41:40.359885+01 | 1486219300.35988 | pgbench_tellers  |         15532032
 2017-02-04 15:41:40.359885+01 | 1486219300.35988 | pgbench_history  |        493682688
 2017-02-04 15:41:40.359885+01 | 1486219300.35988 | pgbench_branches |         12926976

 2017-02-04 15:41:41.442761+01 | 1486219301.44276 | pgbench_accounts |      13655711744
 2017-02-04 15:41:41.442761+01 | 1486219301.44276 | pgbench_tellers  |         15532032
 2017-02-04 15:41:41.442761+01 | 1486219301.44276 | pgbench_history  |        496074752
 2017-02-04 15:41:41.442761+01 | 1486219301.44276 | pgbench_branches |         12926976

 2017-02-04 15:41:42.524329+01 | 1486219302.52433 | pgbench_accounts |      13655810048
 2017-02-04 15:41:42.524329+01 | 1486219302.52433 | pgbench_tellers  |         15532032
 2017-02-04 15:41:42.524329+01 | 1486219302.52433 | pgbench_history  |        498302976
 2017-02-04 15:41:42.524329+01 | 1486219302.52433 | pgbench_branches |         12926976

 2017-02-04 15:41:43.609232+01 | 1486219303.60923 | pgbench_accounts |      13655900160
 2017-02-04 15:41:43.609232+01 | 1486219303.60923 | pgbench_tellers  |         15532032
 2017-02-04 15:41:43.609232+01 | 1486219303.60923 | pgbench_history  |        501850112
 2017-02-04 15:41:43.609232+01 | 1486219303.60923 | pgbench_branches |         12926976

 2017-02-04 15:41:44.703111+01 | 1486219304.70311 | pgbench_accounts |      13655973888
 2017-02-04 15:41:44.703111+01 | 1486219304.70311 | pgbench_tellers  |         15532032
 2017-02-04 15:41:44.703111+01 | 1486219304.70311 | pgbench_history  |        503734272
 2017-02-04 15:41:44.703111+01 | 1486219304.70311 | pgbench_branches |         12926976

 2017-02-04 15:41:45.783244+01 | 1486219305.78324 | pgbench_accounts |      13656072192
 2017-02-04 15:41:45.783244+01 | 1486219305.78324 | pgbench_tellers  |         15532032
 2017-02-04 15:41:45.783244+01 | 1486219305.78324 | pgbench_history  |        506126336
 2017-02-04 15:41:45.783244+01 | 1486219305.78324 | pgbench_branches |         12926976

 2017-02-04 15:41:46.859986+01 | 1486219306.85999 | pgbench_accounts |      13656088576
 2017-02-04 15:41:46.859986+01 | 1486219306.85999 | pgbench_tellers  |         15532032
 2017-02-04 15:41:46.859986+01 | 1486219306.85999 | pgbench_history  |        509009920
 2017-02-04 15:41:46.859986+01 | 1486219306.85999 | pgbench_branches |         12926976

 2017-02-04 15:41:47.946502+01 | 1486219307.9465 | pgbench_accounts |      13656170496
 2017-02-04 15:41:47.946502+01 | 1486219307.9465 | pgbench_tellers  |         15532032
 2017-02-04 15:41:47.946502+01 | 1486219307.9465 | pgbench_history  |        511401984
 2017-02-04 15:41:47.946502+01 | 1486219307.9465 | pgbench_branches |         12926976

 2017-02-04 15:41:49.022671+01 | 1486219309.02267 | pgbench_accounts |      13656219648
 2017-02-04 15:41:49.022671+01 | 1486219309.02267 | pgbench_tellers  |         15532032
 2017-02-04 15:41:49.022671+01 | 1486219309.02267 | pgbench_history  |        513253376
 2017-02-04 15:41:49.022671+01 | 1486219309.02267 | pgbench_branches |         12926976

 2017-02-04 15:41:50.103108+01 | 1486219310.10311 | pgbench_accounts |      13656317952
 2017-02-04 15:41:50.103108+01 | 1486219310.10311 | pgbench_tellers  |         15532032
 2017-02-04 15:41:50.103108+01 | 1486219310.10311 | pgbench_history  |        515268608
 2017-02-04 15:41:50.103108+01 | 1486219310.10311 | pgbench_branches |         12926976

 2017-02-04 15:41:51.177957+01 | 1486219311.17796 | pgbench_accounts |      13656350720
 2017-02-04 15:41:51.177957+01 | 1486219311.17796 | pgbench_tellers  |         15532032
 2017-02-04 15:41:51.177957+01 | 1486219311.17796 | pgbench_history  |        517636096
 2017-02-04 15:41:51.177957+01 | 1486219311.17796 | pgbench_branches |         12926976

 2017-02-04 15:41:52.257638+01 | 1486219312.25764 | pgbench_accounts |      13656440832
 2017-02-04 15:41:52.257638+01 | 1486219312.25764 | pgbench_tellers  |         15532032
 2017-02-04 15:41:52.257638+01 | 1486219312.25764 | pgbench_history  |        519987200
 2017-02-04 15:41:52.257638+01 | 1486219312.25764 | pgbench_branches |         12926976

 2017-02-04 15:41:53.335601+01 | 1486219313.3356 | pgbench_accounts |      13656522752
 2017-02-04 15:41:53.335601+01 | 1486219313.3356 | pgbench_tellers  |         15532032
 2017-02-04 15:41:53.335601+01 | 1486219313.3356 | pgbench_history  |        522002432
 2017-02-04 15:41:53.335601+01 | 1486219313.3356 | pgbench_branches |         12926976

 2017-02-04 15:41:54.419654+01 | 1486219314.41965 | pgbench_accounts |      13656580096
 2017-02-04 15:41:54.419654+01 | 1486219314.41965 | pgbench_tellers  |         15532032
 2017-02-04 15:41:54.419654+01 | 1486219314.41965 | pgbench_history  |        525377536
 2017-02-04 15:41:54.419654+01 | 1486219314.41965 | pgbench_branches |         12926976

 2017-02-04 15:41:55.507739+01 | 1486219315.50774 | pgbench_accounts |      13656637440
 2017-02-04 15:41:55.507739+01 | 1486219315.50774 | pgbench_tellers  |         15532032
 2017-02-04 15:41:55.507739+01 | 1486219315.50774 | pgbench_history  |        530817024
 2017-02-04 15:41:55.507739+01 | 1486219315.50774 | pgbench_branches |         12926976

 2017-02-04 15:41:56.596927+01 | 1486219316.59693 | pgbench_accounts |      13656719360
 2017-02-04 15:41:56.596927+01 | 1486219316.59693 | pgbench_tellers  |         15532032
 2017-02-04 15:41:56.596927+01 | 1486219316.59693 | pgbench_history  |        530817024
 2017-02-04 15:41:56.596927+01 | 1486219316.59693 | pgbench_branches |         12926976

 2017-02-04 15:41:57.67969+01 | 1486219317.67969 | pgbench_accounts |      13656825856
 2017-02-04 15:41:57.67969+01 | 1486219317.67969 | pgbench_tellers  |         15532032
 2017-02-04 15:41:57.67969+01 | 1486219317.67969 | pgbench_history  |        531988480
 2017-02-04 15:41:57.67969+01 | 1486219317.67969 | pgbench_branches |         12926976

 2017-02-04 15:41:58.770697+01 | 1486219318.7707 | pgbench_accounts |      13656891392
 2017-02-04 15:41:58.770697+01 | 1486219318.7707 | pgbench_tellers  |         15532032
 2017-02-04 15:41:58.770697+01 | 1486219318.7707 | pgbench_history  |        534872064
 2017-02-04 15:41:58.770697+01 | 1486219318.7707 | pgbench_branches |         12926976

 2017-02-04 15:41:59.860228+01 | 1486219319.86023 | pgbench_accounts |      13656948736
 2017-02-04 15:41:59.860228+01 | 1486219319.86023 | pgbench_tellers  |         15532032
 2017-02-04 15:41:59.860228+01 | 1486219319.86023 | pgbench_history  |        537591808
 2017-02-04 15:41:59.860228+01 | 1486219319.86023 | pgbench_branches |         12926976

 2017-02-04 15:42:00.93867+01 | 1486219320.93867 | pgbench_accounts |      13656997888
 2017-02-04 15:42:00.93867+01 | 1486219320.93867 | pgbench_tellers  |         15532032
 2017-02-04 15:42:00.93867+01 | 1486219320.93867 | pgbench_history  |        539860992
 2017-02-04 15:42:00.93867+01 | 1486219320.93867 | pgbench_branches |         12926976

 2017-02-04 15:42:02.016533+01 | 1486219322.01653 | pgbench_accounts |      13657038848
 2017-02-04 15:42:02.016533+01 | 1486219322.01653 | pgbench_tellers  |         15532032
 2017-02-04 15:42:02.016533+01 | 1486219322.01653 | pgbench_history  |        542744576
 2017-02-04 15:42:02.016533+01 | 1486219322.01653 | pgbench_branches |         12926976

 2017-02-04 15:42:03.093535+01 | 1486219323.09353 | pgbench_accounts |      13657186304
 2017-02-04 15:42:03.093535+01 | 1486219323.09353 | pgbench_tellers  |         15532032
 2017-02-04 15:42:03.093535+01 | 1486219323.09353 | pgbench_history  |        546562048
 2017-02-04 15:42:03.093535+01 | 1486219323.09353 | pgbench_branches |         12926976

 2017-02-04 15:42:04.173666+01 | 1486219324.17367 | pgbench_accounts |      13657243648
 2017-02-04 15:42:04.173666+01 | 1486219324.17367 | pgbench_tellers  |         15532032
 2017-02-04 15:42:04.173666+01 | 1486219324.17367 | pgbench_history  |        548388864
 2017-02-04 15:42:04.173666+01 | 1486219324.17367 | pgbench_branches |         12926976

 2017-02-04 15:42:05.251415+01 | 1486219325.25142 | pgbench_accounts |      13657309184
 2017-02-04 15:42:05.251415+01 | 1486219325.25142 | pgbench_tellers  |         15532032
 2017-02-04 15:42:05.251415+01 | 1486219325.25142 | pgbench_history  |        549896192
 2017-02-04 15:42:05.251415+01 | 1486219325.25142 | pgbench_branches |         12926976

 2017-02-04 15:42:06.330449+01 | 1486219326.33045 | pgbench_accounts |      13657399296
 2017-02-04 15:42:06.330449+01 | 1486219326.33045 | pgbench_tellers  |         15532032
 2017-02-04 15:42:06.330449+01 | 1486219326.33045 | pgbench_history  |        552779776
 2017-02-04 15:42:06.330449+01 | 1486219326.33045 | pgbench_branches |         12926976

 2017-02-04 15:42:07.420328+01 | 1486219327.42033 | pgbench_accounts |      13657464832
 2017-02-04 15:42:07.420328+01 | 1486219327.42033 | pgbench_tellers  |         15532032
 2017-02-04 15:42:07.420328+01 | 1486219327.42033 | pgbench_history  |        555286528
 2017-02-04 15:42:07.420328+01 | 1486219327.42033 | pgbench_branches |         12926976

 2017-02-04 15:42:08.51025+01 | 1486219328.51025 | pgbench_accounts |      13657505792
 2017-02-04 15:42:08.51025+01 | 1486219328.51025 | pgbench_tellers  |         15532032
 2017-02-04 15:42:08.51025+01 | 1486219328.51025 | pgbench_history  |        557678592
 2017-02-04 15:42:08.51025+01 | 1486219328.51025 | pgbench_branches |         12926976

 2017-02-04 15:42:09.585269+01 | 1486219329.58527 | pgbench_accounts |      13657554944
 2017-02-04 15:42:09.585269+01 | 1486219329.58527 | pgbench_tellers  |         15532032
 2017-02-04 15:42:09.585269+01 | 1486219329.58527 | pgbench_history  |        560029696
 2017-02-04 15:42:09.585269+01 | 1486219329.58527 | pgbench_branches |         12926976

 2017-02-04 15:42:10.66259+01 | 1486219330.66259 | pgbench_accounts |      13657661440
 2017-02-04 15:42:10.66259+01 | 1486219330.66259 | pgbench_tellers  |         15532032
 2017-02-04 15:42:10.66259+01 | 1486219330.66259 | pgbench_history  |        562995200
 2017-02-04 15:42:10.66259+01 | 1486219330.66259 | pgbench_branches |         12926976

 2017-02-04 15:42:11.752748+01 | 1486219331.75275 | pgbench_accounts |      13657718784
 2017-02-04 15:42:11.752748+01 | 1486219331.75275 | pgbench_tellers  |         15532032
 2017-02-04 15:42:11.752748+01 | 1486219331.75275 | pgbench_history  |        565223424
 2017-02-04 15:42:11.752748+01 | 1486219331.75275 | pgbench_branches |         12926976

 2017-02-04 15:42:12.833796+01 | 1486219332.8338 | pgbench_accounts |      13657784320
 2017-02-04 15:42:12.833796+01 | 1486219332.8338 | pgbench_tellers  |         15532032
 2017-02-04 15:42:12.833796+01 | 1486219332.8338 | pgbench_history  |        568115200
 2017-02-04 15:42:12.833796+01 | 1486219332.8338 | pgbench_branches |         12926976

 2017-02-04 15:42:13.919227+01 | 1486219333.91923 | pgbench_accounts |      13657907200
 2017-02-04 15:42:13.919227+01 | 1486219333.91923 | pgbench_tellers  |         15532032
 2017-02-04 15:42:13.919227+01 | 1486219333.91923 | pgbench_history  |        570318848
 2017-02-04 15:42:13.919227+01 | 1486219333.91923 | pgbench_branches |         12926976

 2017-02-04 15:42:15.005004+01 | 1486219335.005 | pgbench_accounts |      13657964544
 2017-02-04 15:42:15.005004+01 | 1486219335.005 | pgbench_tellers  |         15532032
 2017-02-04 15:42:15.005004+01 | 1486219335.005 | pgbench_history  |        573693952
 2017-02-04 15:42:15.005004+01 | 1486219335.005 | pgbench_branches |         12926976

 2017-02-04 15:42:16.084545+01 | 1486219336.08454 | pgbench_accounts |      13658030080
 2017-02-04 15:42:16.084545+01 | 1486219336.08454 | pgbench_tellers  |         15532032
 2017-02-04 15:42:16.084545+01 | 1486219336.08454 | pgbench_history  |        576036864
 2017-02-04 15:42:16.084545+01 | 1486219336.08454 | pgbench_branches |         12926976

 2017-02-04 15:42:17.161808+01 | 1486219337.16181 | pgbench_accounts |      13658112000
 2017-02-04 15:42:17.161808+01 | 1486219337.16181 | pgbench_tellers  |         15532032
 2017-02-04 15:42:17.161808+01 | 1486219337.16181 | pgbench_history  |        578101248
 2017-02-04 15:42:17.161808+01 | 1486219337.16181 | pgbench_branches |         12926976

 2017-02-04 15:42:18.240754+01 | 1486219338.24075 | pgbench_accounts |      13658169344
 2017-02-04 15:42:18.240754+01 | 1486219338.24075 | pgbench_tellers  |         15532032
 2017-02-04 15:42:18.240754+01 | 1486219338.24075 | pgbench_history  |        580468736
 2017-02-04 15:42:18.240754+01 | 1486219338.24075 | pgbench_branches |         12926976

 2017-02-04 15:42:19.316278+01 | 1486219339.31628 | pgbench_accounts |      13658210304
 2017-02-04 15:42:19.316278+01 | 1486219339.31628 | pgbench_tellers  |         15532032
 2017-02-04 15:42:19.316278+01 | 1486219339.31628 | pgbench_history  |        583049216
 2017-02-04 15:42:19.316278+01 | 1486219339.31628 | pgbench_branches |         12926976

 2017-02-04 15:42:20.400726+01 | 1486219340.40073 | pgbench_accounts |      13658308608
 2017-02-04 15:42:20.400726+01 | 1486219340.40073 | pgbench_tellers  |         15532032
 2017-02-04 15:42:20.400726+01 | 1486219340.40073 | pgbench_history  |        586588160
 2017-02-04 15:42:20.400726+01 | 1486219340.40073 | pgbench_branches |         12926976

 2017-02-04 15:42:21.489262+01 | 1486219341.48926 | pgbench_accounts |      13658365952
 2017-02-04 15:42:21.489262+01 | 1486219341.48926 | pgbench_tellers  |         15532032
 2017-02-04 15:42:21.489262+01 | 1486219341.48926 | pgbench_history  |        589119488
 2017-02-04 15:42:21.489262+01 | 1486219341.48926 | pgbench_branches |         12926976

 2017-02-04 15:42:22.575925+01 | 1486219342.57593 | pgbench_accounts |      13658431488
 2017-02-04 15:42:22.575925+01 | 1486219342.57593 | pgbench_tellers  |         15532032
 2017-02-04 15:42:22.575925+01 | 1486219342.57593 | pgbench_history  |        591159296
 2017-02-04 15:42:22.575925+01 | 1486219342.57593 | pgbench_branches |         12926976

 2017-02-04 15:42:23.662271+01 | 1486219343.66227 | pgbench_accounts |      13658521600
 2017-02-04 15:42:23.662271+01 | 1486219343.66227 | pgbench_tellers  |         15532032
 2017-02-04 15:42:23.662271+01 | 1486219343.66227 | pgbench_history  |        593854464
 2017-02-04 15:42:23.662271+01 | 1486219343.66227 | pgbench_branches |         12926976

 2017-02-04 15:42:24.746366+01 | 1486219344.74637 | pgbench_accounts |      13658587136
 2017-02-04 15:42:24.746366+01 | 1486219344.74637 | pgbench_tellers  |         15532032
 2017-02-04 15:42:24.746366+01 | 1486219344.74637 | pgbench_history  |        596172800
 2017-02-04 15:42:24.746366+01 | 1486219344.74637 | pgbench_branches |         12926976

 2017-02-04 15:42:25.832142+01 | 1486219345.83214 | pgbench_accounts |      13658636288
 2017-02-04 15:42:25.832142+01 | 1486219345.83214 | pgbench_tellers  |         15532032
 2017-02-04 15:42:25.832142+01 | 1486219345.83214 | pgbench_history  |        598401024
 2017-02-04 15:42:25.832142+01 | 1486219345.83214 | pgbench_branches |         12926976

 2017-02-04 15:42:26.913522+01 | 1486219346.91352 | pgbench_accounts |      13658685440
 2017-02-04 15:42:26.913522+01 | 1486219346.91352 | pgbench_tellers  |         15532032
 2017-02-04 15:42:26.913522+01 | 1486219346.91352 | pgbench_history  |        600768512
 2017-02-04 15:42:26.913522+01 | 1486219346.91352 | pgbench_branches |         12926976

 2017-02-04 15:42:28.005849+01 | 1486219348.00585 | pgbench_accounts |      13658718208
 2017-02-04 15:42:28.005849+01 | 1486219348.00585 | pgbench_tellers  |         15532032
 2017-02-04 15:42:28.005849+01 | 1486219348.00585 | pgbench_history  |        603299840
 2017-02-04 15:42:28.005849+01 | 1486219348.00585 | pgbench_branches |         12926976

 2017-02-04 15:42:29.083677+01 | 1486219349.08368 | pgbench_accounts |      13658816512
 2017-02-04 15:42:29.083677+01 | 1486219349.08368 | pgbench_tellers  |         15532032
 2017-02-04 15:42:29.083677+01 | 1486219349.08368 | pgbench_history  |        605151232
 2017-02-04 15:42:29.083677+01 | 1486219349.08368 | pgbench_branches |         12926976

 2017-02-04 15:42:30.162298+01 | 1486219350.1623 | pgbench_accounts |      13658857472
 2017-02-04 15:42:30.162298+01 | 1486219350.1623 | pgbench_tellers  |         15532032
 2017-02-04 15:42:30.162298+01 | 1486219350.1623 | pgbench_history  |        608034816
 2017-02-04 15:42:30.162298+01 | 1486219350.1623 | pgbench_branches |         12926976

 2017-02-04 15:42:31.237747+01 | 1486219351.23775 | pgbench_accounts |      13658955776
 2017-02-04 15:42:31.237747+01 | 1486219351.23775 | pgbench_tellers  |         15532032
 2017-02-04 15:42:31.237747+01 | 1486219351.23775 | pgbench_history  |        610050048
 2017-02-04 15:42:31.237747+01 | 1486219351.23775 | pgbench_branches |         12926976

 2017-02-04 15:42:32.31229+01 | 1486219352.31229 | pgbench_accounts |      13659013120
 2017-02-04 15:42:32.31229+01 | 1486219352.31229 | pgbench_tellers  |         15532032
 2017-02-04 15:42:32.31229+01 | 1486219352.31229 | pgbench_history  |        612458496
 2017-02-04 15:42:32.31229+01 | 1486219352.31229 | pgbench_branches |         12926976

 2017-02-04 15:42:33.39296+01 | 1486219353.39296 | pgbench_accounts |      13659062272
 2017-02-04 15:42:33.39296+01 | 1486219353.39296 | pgbench_tellers  |         15532032
 2017-02-04 15:42:33.39296+01 | 1486219353.39296 | pgbench_history  |        614146048
 2017-02-04 15:42:33.39296+01 | 1486219353.39296 | pgbench_branches |         12926976

 2017-02-04 15:42:34.473737+01 | 1486219354.47374 | pgbench_accounts |      13659086848
 2017-02-04 15:42:34.473737+01 | 1486219354.47374 | pgbench_tellers  |         15532032
 2017-02-04 15:42:34.473737+01 | 1486219354.47374 | pgbench_history  |        615997440
 2017-02-04 15:42:34.473737+01 | 1486219354.47374 | pgbench_branches |         12926976

 2017-02-04 15:42:35.560056+01 | 1486219355.56006 | pgbench_accounts |      13659168768
 2017-02-04 15:42:35.560056+01 | 1486219355.56006 | pgbench_tellers  |         15532032
 2017-02-04 15:42:35.560056+01 | 1486219355.56006 | pgbench_history  |        618856448
 2017-02-04 15:42:35.560056+01 | 1486219355.56006 | pgbench_branches |         12926976

 2017-02-04 15:42:36.641222+01 | 1486219356.64122 | pgbench_accounts |      13659242496
 2017-02-04 15:42:36.641222+01 | 1486219356.64122 | pgbench_tellers  |         15532032
 2017-02-04 15:42:36.641222+01 | 1486219356.64122 | pgbench_history  |        621436928
 2017-02-04 15:42:36.641222+01 | 1486219356.64122 | pgbench_branches |         12926976

 2017-02-04 15:42:37.727961+01 | 1486219357.72796 | pgbench_accounts |      13659299840
 2017-02-04 15:42:37.727961+01 | 1486219357.72796 | pgbench_tellers  |         15532032
 2017-02-04 15:42:37.727961+01 | 1486219357.72796 | pgbench_history  |        623943680
 2017-02-04 15:42:37.727961+01 | 1486219357.72796 | pgbench_branches |         12926976

 2017-02-04 15:42:38.800793+01 | 1486219358.80079 | pgbench_accounts |      13659398144
 2017-02-04 15:42:38.800793+01 | 1486219358.80079 | pgbench_tellers  |         15532032
 2017-02-04 15:42:38.800793+01 | 1486219358.80079 | pgbench_history  |        626851840
 2017-02-04 15:42:38.800793+01 | 1486219358.80079 | pgbench_branches |         12926976

 2017-02-04 15:42:39.891142+01 | 1486219359.89114 | pgbench_accounts |      13659652096
 2017-02-04 15:42:39.891142+01 | 1486219359.89114 | pgbench_tellers  |         15532032
 2017-02-04 15:42:39.891142+01 | 1486219359.89114 | pgbench_history  |        629710848
 2017-02-04 15:42:39.891142+01 | 1486219359.89114 | pgbench_branches |         12926976

 2017-02-04 15:42:40.987185+01 | 1486219360.98719 | pgbench_accounts |      13660340224
 2017-02-04 15:42:40.987185+01 | 1486219360.98719 | pgbench_tellers  |         15532032
 2017-02-04 15:42:40.987185+01 | 1486219360.98719 | pgbench_history  |        632266752
 2017-02-04 15:42:40.987185+01 | 1486219360.98719 | pgbench_branches |         12926976

 2017-02-04 15:42:42.065491+01 | 1486219362.06549 | pgbench_accounts |      13660774400
 2017-02-04 15:42:42.065491+01 | 1486219362.06549 | pgbench_tellers  |         15532032
 2017-02-04 15:42:42.065491+01 | 1486219362.06549 | pgbench_history  |        633954304
 2017-02-04 15:42:42.065491+01 | 1486219362.06549 | pgbench_branches |         12926976

 2017-02-04 15:42:43.143438+01 | 1486219363.14344 | pgbench_accounts |      13660774400
 2017-02-04 15:42:43.143438+01 | 1486219363.14344 | pgbench_tellers  |         15532032
 2017-02-04 15:42:43.143438+01 | 1486219363.14344 | pgbench_history  |        636387328
 2017-02-04 15:42:43.143438+01 | 1486219363.14344 | pgbench_branches |         12926976

 2017-02-04 15:42:44.218242+01 | 1486219364.21824 | pgbench_accounts |      13660774400
 2017-02-04 15:42:44.218242+01 | 1486219364.21824 | pgbench_tellers  |         15532032
 2017-02-04 15:42:44.218242+01 | 1486219364.21824 | pgbench_history  |        638926848
 2017-02-04 15:42:44.218242+01 | 1486219364.21824 | pgbench_branches |         12926976

 2017-02-04 15:42:45.298056+01 | 1486219365.29806 | pgbench_accounts |      13661011968
 2017-02-04 15:42:45.298056+01 | 1486219365.29806 | pgbench_tellers  |         15532032
 2017-02-04 15:42:45.298056+01 | 1486219365.29806 | pgbench_history  |        642326528
 2017-02-04 15:42:45.298056+01 | 1486219365.29806 | pgbench_branches |         12926976

 2017-02-04 15:42:46.375452+01 | 1486219366.37545 | pgbench_accounts |      13661011968
 2017-02-04 15:42:46.375452+01 | 1486219366.37545 | pgbench_tellers  |         15532032
 2017-02-04 15:42:46.375452+01 | 1486219366.37545 | pgbench_history  |        646144000
 2017-02-04 15:42:46.375452+01 | 1486219366.37545 | pgbench_branches |         12926976

 2017-02-04 15:42:47.455482+01 | 1486219367.45548 | pgbench_accounts |      13661011968
 2017-02-04 15:42:47.455482+01 | 1486219367.45548 | pgbench_tellers  |         15532032
 2017-02-04 15:42:47.455482+01 | 1486219367.45548 | pgbench_history  |        647315456
 2017-02-04 15:42:47.455482+01 | 1486219367.45548 | pgbench_branches |         12926976

 2017-02-04 15:42:48.546143+01 | 1486219368.54614 | pgbench_accounts |      13661216768
 2017-02-04 15:42:48.546143+01 | 1486219368.54614 | pgbench_tellers  |         15532032
 2017-02-04 15:42:48.546143+01 | 1486219368.54614 | pgbench_history  |        651182080
 2017-02-04 15:42:48.546143+01 | 1486219368.54614 | pgbench_branches |         12926976

 2017-02-04 15:42:49.630998+01 | 1486219369.631 | pgbench_accounts |      13661216768
 2017-02-04 15:42:49.630998+01 | 1486219369.631 | pgbench_tellers  |         15532032
 2017-02-04 15:42:49.630998+01 | 1486219369.631 | pgbench_history  |        652214272
 2017-02-04 15:42:49.630998+01 | 1486219369.631 | pgbench_branches |         12926976

 2017-02-04 15:42:50.715276+01 | 1486219370.71528 | pgbench_accounts |      13661216768
 2017-02-04 15:42:50.715276+01 | 1486219370.71528 | pgbench_tellers  |         15532032
 2017-02-04 15:42:50.715276+01 | 1486219370.71528 | pgbench_history  |        654565376
 2017-02-04 15:42:50.715276+01 | 1486219370.71528 | pgbench_branches |         12926976

 2017-02-04 15:42:51.798356+01 | 1486219371.79836 | pgbench_accounts |      13661216768
 2017-02-04 15:42:51.798356+01 | 1486219371.79836 | pgbench_tellers  |         15532032
 2017-02-04 15:42:51.798356+01 | 1486219371.79836 | pgbench_history  |        658792448
 2017-02-04 15:42:51.798356+01 | 1486219371.79836 | pgbench_branches |         12926976

 2017-02-04 15:42:52.878531+01 | 1486219372.87853 | pgbench_accounts |      13661659136
 2017-02-04 15:42:52.878531+01 | 1486219372.87853 | pgbench_tellers  |         15532032
 2017-02-04 15:42:52.878531+01 | 1486219372.87853 | pgbench_history  |        659832832
 2017-02-04 15:42:52.878531+01 | 1486219372.87853 | pgbench_branches |         12926976

 2017-02-04 15:42:53.976421+01 | 1486219373.97642 | pgbench_accounts |      13661675520
 2017-02-04 15:42:53.976421+01 | 1486219373.97642 | pgbench_tellers  |         15532032
 2017-02-04 15:42:53.976421+01 | 1486219373.97642 | pgbench_history  |        662036480
 2017-02-04 15:42:53.976421+01 | 1486219373.97642 | pgbench_branches |         12926976

 2017-02-04 15:42:55.057546+01 | 1486219375.05755 | pgbench_accounts |      13661708288
 2017-02-04 15:42:55.057546+01 | 1486219375.05755 | pgbench_tellers  |         15532032
 2017-02-04 15:42:55.057546+01 | 1486219375.05755 | pgbench_history  |        666206208
 2017-02-04 15:42:55.057546+01 | 1486219375.05755 | pgbench_branches |         12926976

 2017-02-04 15:42:56.134668+01 | 1486219376.13467 | pgbench_accounts |      13661708288
 2017-02-04 15:42:56.134668+01 | 1486219376.13467 | pgbench_tellers  |         15532032
 2017-02-04 15:42:56.134668+01 | 1486219376.13467 | pgbench_history  |        666886144
 2017-02-04 15:42:56.134668+01 | 1486219376.13467 | pgbench_branches |         12926976

 2017-02-04 15:42:57.216173+01 | 1486219377.21617 | pgbench_accounts |      13661724672
 2017-02-04 15:42:57.216173+01 | 1486219377.21617 | pgbench_tellers  |         15532032
 2017-02-04 15:42:57.216173+01 | 1486219377.21617 | pgbench_history  |        670449664
 2017-02-04 15:42:57.216173+01 | 1486219377.21617 | pgbench_branches |         12926976

 2017-02-04 15:42:58.292048+01 | 1486219378.29205 | pgbench_accounts |      13661732864
 2017-02-04 15:42:58.292048+01 | 1486219378.29205 | pgbench_tellers  |         15532032
 2017-02-04 15:42:58.292048+01 | 1486219378.29205 | pgbench_history  |        672604160
 2017-02-04 15:42:58.292048+01 | 1486219378.29205 | pgbench_branches |         12926976

 2017-02-04 15:42:59.371675+01 | 1486219379.37168 | pgbench_accounts |      13661757440
 2017-02-04 15:42:59.371675+01 | 1486219379.37168 | pgbench_tellers  |         15532032
 2017-02-04 15:42:59.371675+01 | 1486219379.37168 | pgbench_history  |        674971648
 2017-02-04 15:42:59.371675+01 | 1486219379.37168 | pgbench_branches |         12926976

 2017-02-04 15:43:00.450172+01 | 1486219380.45017 | pgbench_accounts |      13661872128
 2017-02-04 15:43:00.450172+01 | 1486219380.45017 | pgbench_tellers  |         15532032
 2017-02-04 15:43:00.450172+01 | 1486219380.45017 | pgbench_history  |        677666816
 2017-02-04 15:43:00.450172+01 | 1486219380.45017 | pgbench_branches |         12926976

 2017-02-04 15:43:01.537502+01 | 1486219381.5375 | pgbench_accounts |      13662052352
 2017-02-04 15:43:01.537502+01 | 1486219381.5375 | pgbench_tellers  |         15532032
 2017-02-04 15:43:01.537502+01 | 1486219381.5375 | pgbench_history  |        680247296
 2017-02-04 15:43:01.537502+01 | 1486219381.5375 | pgbench_branches |         12926976

 2017-02-04 15:43:02.626467+01 | 1486219382.62647 | pgbench_accounts |      13662134272
 2017-02-04 15:43:02.626467+01 | 1486219382.62647 | pgbench_tellers  |         15532032
 2017-02-04 15:43:02.626467+01 | 1486219382.62647 | pgbench_history  |        682803200
 2017-02-04 15:43:02.626467+01 | 1486219382.62647 | pgbench_branches |         12926976

 2017-02-04 15:43:03.704638+01 | 1486219383.70464 | pgbench_accounts |      13662191616
 2017-02-04 15:43:03.704638+01 | 1486219383.70464 | pgbench_tellers  |         15532032
 2017-02-04 15:43:03.704638+01 | 1486219383.70464 | pgbench_history  |        684843008
 2017-02-04 15:43:03.704638+01 | 1486219383.70464 | pgbench_branches |         12926976

 2017-02-04 15:43:04.787983+01 | 1486219384.78798 | pgbench_accounts |      13662224384
 2017-02-04 15:43:04.787983+01 | 1486219384.78798 | pgbench_tellers  |         15532032
 2017-02-04 15:43:04.787983+01 | 1486219384.78798 | pgbench_history  |        687595520
 2017-02-04 15:43:04.787983+01 | 1486219384.78798 | pgbench_branches |         12926976

 2017-02-04 15:43:05.876626+01 | 1486219385.87663 | pgbench_accounts |      13662224384
 2017-02-04 15:43:05.876626+01 | 1486219385.87663 | pgbench_tellers  |         15532032
 2017-02-04 15:43:05.876626+01 | 1486219385.87663 | pgbench_history  |        689995776
 2017-02-04 15:43:05.876626+01 | 1486219385.87663 | pgbench_branches |         12926976

