 2017-02-06 15:28:22.036749+01 | 1486391302.03675 |                 0 |               3 |                  2375 |                  102 |             276738 |             0 |                0 |          573143 |                     0 |        277222 | 2017-02-06 15:17:53.646417+01

 2017-02-06 15:28:23.125772+01 | 1486391303.12577 |                 0 |               3 |                  2375 |                  102 |             276738 |             0 |                0 |          573143 |                     0 |        277291 | 2017-02-06 15:17:53.646417+01

 2017-02-06 15:28:24.195035+01 | 1486391304.19503 |                 0 |               3 |                  2375 |                  102 |             276738 |             0 |                0 |          573143 |                     0 |        277337 | 2017-02-06 15:17:53.646417+01

 2017-02-06 15:28:25.271554+01 | 1486391305.27155 |                 0 |               3 |                  2375 |                  102 |             276738 |             0 |                0 |          573143 |                     0 |        277434 | 2017-02-06 15:17:53.646417+01

 2017-02-06 15:28:26.363944+01 | 1486391306.36394 |                 0 |               3 |                  2375 |                  102 |             276738 |             0 |                0 |          573143 |                     0 |        277478 | 2017-02-06 15:17:53.646417+01

 2017-02-06 15:28:27.459348+01 | 1486391307.45935 |                 0 |               3 |                  2375 |                  102 |             276738 |             0 |                0 |          573143 |                     0 |        277527 | 2017-02-06 15:17:53.646417+01

 2017-02-06 15:28:28.528115+01 | 1486391308.52812 |                 0 |               3 |                  2375 |                  102 |             276738 |             0 |                0 |          573143 |                     0 |        277581 | 2017-02-06 15:17:53.646417+01

 2017-02-06 15:28:29.60336+01 | 1486391309.60336 |                 0 |               3 |                  2375 |                  102 |             276738 |             0 |                0 |          573143 |                     0 |        277661 | 2017-02-06 15:17:53.646417+01

 2017-02-06 15:28:30.690486+01 | 1486391310.69049 |                 0 |               3 |                  2375 |                  102 |             276738 |             0 |                0 |          573143 |                     0 |        277705 | 2017-02-06 15:17:53.646417+01

 2017-02-06 15:28:31.765697+01 | 1486391311.7657 |                 0 |               3 |                  2375 |                  102 |             276738 |             0 |                0 |          573143 |                     0 |        277749 | 2017-02-06 15:17:53.646417+01

 2017-02-06 15:28:32.858098+01 | 1486391312.8581 |                 0 |               3 |                  2375 |                  102 |             276738 |             0 |                0 |          573143 |                     0 |        277815 | 2017-02-06 15:17:53.646417+01

 2017-02-06 15:28:33.945014+01 | 1486391313.94501 |                 0 |               3 |                  2375 |                  102 |             276738 |             0 |                0 |          573143 |                     0 |        277908 | 2017-02-06 15:17:53.646417+01

 2017-02-06 15:28:35.028117+01 | 1486391315.02812 |                 0 |               3 |                  2375 |                  102 |             276738 |             0 |                0 |          573143 |                     0 |        277954 | 2017-02-06 15:17:53.646417+01

 2017-02-06 15:28:36.102026+01 | 1486391316.10203 |                 0 |               3 |                  2375 |                  102 |             276738 |             0 |                0 |          573143 |                     0 |        278021 | 2017-02-06 15:17:53.646417+01

 2017-02-06 15:28:37.191958+01 | 1486391317.19196 |                 0 |               3 |                  2375 |                  102 |             276738 |             0 |                0 |          573143 |                     0 |        278096 | 2017-02-06 15:17:53.646417+01

 2017-02-06 15:28:38.276777+01 | 1486391318.27678 |                 0 |               3 |                  2375 |                  102 |             276738 |             0 |                0 |          573143 |                     0 |        278147 | 2017-02-06 15:17:53.646417+01

 2017-02-06 15:28:39.3646+01 | 1486391319.3646 |                 0 |               3 |                  2375 |                  102 |             276738 |             0 |                0 |          573143 |                     0 |        278219 | 2017-02-06 15:17:53.646417+01

 2017-02-06 15:28:40.459092+01 | 1486391320.45909 |                 0 |               3 |                  2375 |                  102 |             276738 |             0 |                0 |          573143 |                     0 |        278274 | 2017-02-06 15:17:53.646417+01

 2017-02-06 15:28:41.548255+01 | 1486391321.54825 |                 0 |               3 |                  2375 |                  102 |             276738 |             0 |                0 |          573143 |                     0 |        278360 | 2017-02-06 15:17:53.646417+01

 2017-02-06 15:28:42.627523+01 | 1486391322.62752 |                 0 |               3 |                  2375 |                  102 |             276738 |             0 |                0 |          573143 |                     0 |        278427 | 2017-02-06 15:17:53.646417+01

 2017-02-06 15:28:43.696835+01 | 1486391323.69684 |                 0 |               3 |                  2375 |                  102 |             276738 |             0 |                0 |          573143 |                     0 |        278482 | 2017-02-06 15:17:53.646417+01

 2017-02-06 15:28:44.778158+01 | 1486391324.77816 |                 0 |               3 |                  2375 |                  102 |             276738 |             0 |                0 |          573143 |                     0 |        278544 | 2017-02-06 15:17:53.646417+01

 2017-02-06 15:28:45.848306+01 | 1486391325.84831 |                 0 |               3 |                  2375 |                  102 |             276738 |             0 |                0 |          573143 |                     0 |        278619 | 2017-02-06 15:17:53.646417+01

 2017-02-06 15:28:46.933218+01 | 1486391326.93322 |                 0 |               3 |                  2375 |                  102 |             276738 |             0 |                0 |          573143 |                     0 |        278683 | 2017-02-06 15:17:53.646417+01

 2017-02-06 15:28:48.01905+01 | 1486391328.01905 |                 0 |               3 |                  2375 |                  102 |             276738 |             0 |                0 |          573143 |                     0 |        278745 | 2017-02-06 15:17:53.646417+01

 2017-02-06 15:28:49.09913+01 | 1486391329.09913 |                 0 |               3 |                  2375 |                  102 |             276738 |             0 |                0 |          573143 |                     0 |        278819 | 2017-02-06 15:17:53.646417+01

 2017-02-06 15:28:50.186941+01 | 1486391330.18694 |                 0 |               3 |                  2375 |                  102 |             276738 |             0 |                0 |          573143 |                     0 |        278887 | 2017-02-06 15:17:53.646417+01

 2017-02-06 15:28:51.269608+01 | 1486391331.26961 |                 0 |               3 |                  2375 |                  102 |             276738 |             0 |                0 |          573143 |                     0 |        278964 | 2017-02-06 15:17:53.646417+01

 2017-02-06 15:28:52.354147+01 | 1486391332.35415 |                 0 |               3 |                  2375 |                  102 |             276738 |             0 |                0 |          573143 |                     0 |        279028 | 2017-02-06 15:17:53.646417+01

 2017-02-06 15:28:53.422674+01 | 1486391333.42267 |                 0 |               3 |                  2375 |                  102 |             276738 |             0 |                0 |          573143 |                     0 |        279093 | 2017-02-06 15:17:53.646417+01

 2017-02-06 15:28:54.492881+01 | 1486391334.49288 |                 0 |               3 |                  2375 |                  102 |             276738 |             0 |                0 |          573143 |                     0 |        279170 | 2017-02-06 15:17:53.646417+01

 2017-02-06 15:28:55.567062+01 | 1486391335.56706 |                 0 |               3 |                  2375 |                  102 |             276738 |             0 |                0 |          573143 |                     0 |        279238 | 2017-02-06 15:17:53.646417+01

 2017-02-06 15:28:56.635992+01 | 1486391336.63599 |                 0 |               3 |                  2375 |                  102 |             276738 |             0 |                0 |          573143 |                     0 |        279311 | 2017-02-06 15:17:53.646417+01

 2017-02-06 15:28:57.721195+01 | 1486391337.72119 |                 0 |               3 |                  2375 |                  102 |             276738 |             0 |                0 |          573143 |                     0 |        279375 | 2017-02-06 15:17:53.646417+01

 2017-02-06 15:28:58.802207+01 | 1486391338.80221 |                 0 |               3 |                  2375 |                  102 |             276738 |             0 |                0 |          573143 |                     0 |        279439 | 2017-02-06 15:17:53.646417+01

 2017-02-06 15:28:59.885741+01 | 1486391339.88574 |                 0 |               3 |                  2375 |                  102 |             276738 |             0 |                0 |          573143 |                     0 |        279517 | 2017-02-06 15:17:53.646417+01

 2017-02-06 15:29:00.963052+01 | 1486391340.96305 |                 0 |               3 |                  2375 |                  102 |             276738 |             0 |                0 |          573143 |                     0 |        279582 | 2017-02-06 15:17:53.646417+01

 2017-02-06 15:29:02.031583+01 | 1486391342.03158 |                 0 |               3 |                  2375 |                  102 |             276738 |             0 |                0 |          573143 |                     0 |        279647 | 2017-02-06 15:17:53.646417+01

 2017-02-06 15:29:03.104902+01 | 1486391343.1049 |                 0 |               3 |                  2375 |                  102 |             276738 |             0 |                0 |          573143 |                     0 |        279699 | 2017-02-06 15:17:53.646417+01

 2017-02-06 15:29:04.175268+01 | 1486391344.17527 |                 0 |               3 |                  2375 |                  102 |             276738 |             0 |                0 |          573143 |                     0 |        279805 | 2017-02-06 15:17:53.646417+01

 2017-02-06 15:29:05.253581+01 | 1486391345.25358 |                 0 |               3 |                  2375 |                  102 |             276738 |             0 |                0 |          573143 |                     0 |        279864 | 2017-02-06 15:17:53.646417+01

 2017-02-06 15:29:06.342418+01 | 1486391346.34242 |                 0 |               3 |                  2375 |                  102 |             276738 |             0 |                0 |          573143 |                     0 |        279959 | 2017-02-06 15:17:53.646417+01

 2017-02-06 15:29:07.425959+01 | 1486391347.42596 |                 0 |               3 |                  2375 |                  102 |             276738 |             0 |                0 |          573143 |                     0 |        280046 | 2017-02-06 15:17:53.646417+01

 2017-02-06 15:29:08.497059+01 | 1486391348.49706 |                 0 |               3 |                  2375 |                  102 |             276738 |             0 |                0 |          573143 |                     0 |        280109 | 2017-02-06 15:17:53.646417+01

 2017-02-06 15:29:09.573925+01 | 1486391349.57393 |                 0 |               3 |                  2375 |                  102 |             276738 |             0 |                0 |          573143 |                     0 |        280133 | 2017-02-06 15:17:53.646417+01

 2017-02-06 15:29:10.637073+01 | 1486391350.63707 |                 0 |               3 |                  2375 |                  102 |             276738 |             0 |                0 |          573143 |                     0 |        280197 | 2017-02-06 15:17:53.646417+01

 2017-02-06 15:29:11.710517+01 | 1486391351.71052 |                 0 |               3 |                  2375 |                  102 |             276738 |             0 |                0 |          573143 |                     0 |        280254 | 2017-02-06 15:17:53.646417+01

 2017-02-06 15:29:12.793345+01 | 1486391352.79334 |                 0 |               3 |                  2375 |                  102 |             276738 |             0 |                0 |          573143 |                     0 |        280368 | 2017-02-06 15:17:53.646417+01

 2017-02-06 15:29:13.876819+01 | 1486391353.87682 |                 0 |               3 |                  2375 |                  102 |             276738 |             0 |                0 |          573143 |                     0 |        280395 | 2017-02-06 15:17:53.646417+01

 2017-02-06 15:29:14.959416+01 | 1486391354.95942 |                 0 |               3 |                  2375 |                  102 |             276738 |             0 |                0 |          573143 |                     0 |        280470 | 2017-02-06 15:17:53.646417+01

 2017-02-06 15:29:16.046746+01 | 1486391356.04675 |                 0 |               3 |                  2375 |                  102 |             276738 |             0 |                0 |          573143 |                     0 |        280521 | 2017-02-06 15:17:53.646417+01

 2017-02-06 15:29:17.139022+01 | 1486391357.13902 |                 0 |               3 |                  2375 |                  102 |             276738 |             0 |                0 |          573143 |                     0 |        280587 | 2017-02-06 15:17:53.646417+01

 2017-02-06 15:29:18.230646+01 | 1486391358.23065 |                 0 |               3 |                  2375 |                  102 |             276738 |             0 |                0 |          573143 |                     0 |        280615 | 2017-02-06 15:17:53.646417+01

 2017-02-06 15:29:19.309223+01 | 1486391359.30922 |                 0 |               3 |                  2375 |                  102 |             276738 |             0 |                0 |          573143 |                     0 |        280701 | 2017-02-06 15:17:53.646417+01

 2017-02-06 15:29:20.396159+01 | 1486391360.39616 |                 0 |               3 |                  2375 |                  102 |             276738 |             0 |                0 |          573143 |                     0 |        280766 | 2017-02-06 15:17:53.646417+01

 2017-02-06 15:29:21.473161+01 | 1486391361.47316 |                 0 |               3 |                  2375 |                  102 |             276738 |             0 |                0 |          573143 |                     0 |        280809 | 2017-02-06 15:17:53.646417+01

 2017-02-06 15:29:22.565381+01 | 1486391362.56538 |                 0 |               3 |                  2375 |                  102 |             276738 |             0 |                0 |          573143 |                     0 |        280890 | 2017-02-06 15:17:53.646417+01

 2017-02-06 15:29:23.649394+01 | 1486391363.64939 |                 0 |               3 |                  2375 |                  102 |             276738 |             0 |                0 |          573143 |                     0 |        280959 | 2017-02-06 15:17:53.646417+01

 2017-02-06 15:29:24.725351+01 | 1486391364.72535 |                 0 |               3 |                  2375 |                  102 |             276738 |             0 |                0 |          573143 |                     0 |        281052 | 2017-02-06 15:17:53.646417+01

 2017-02-06 15:29:25.818888+01 | 1486391365.81889 |                 0 |               3 |                  2375 |                  102 |             276738 |             0 |                0 |          573143 |                     0 |        281131 | 2017-02-06 15:17:53.646417+01

 2017-02-06 15:29:26.892208+01 | 1486391366.89221 |                 0 |               3 |                  2375 |                  102 |             276738 |             0 |                0 |          573143 |                     0 |        281224 | 2017-02-06 15:17:53.646417+01

 2017-02-06 15:29:27.977964+01 | 1486391367.97796 |                 0 |               3 |                  2375 |                  102 |             276738 |             0 |                0 |          573143 |                     0 |        281271 | 2017-02-06 15:17:53.646417+01

 2017-02-06 15:29:29.063743+01 | 1486391369.06374 |                 0 |               3 |                  2375 |                  102 |             276738 |             0 |                0 |          573143 |                     0 |        281337 | 2017-02-06 15:17:53.646417+01

 2017-02-06 15:29:30.145943+01 | 1486391370.14594 |                 0 |               3 |                  2375 |                  102 |             276738 |             0 |                0 |          573143 |                     0 |        281400 | 2017-02-06 15:17:53.646417+01

 2017-02-06 15:29:31.226236+01 | 1486391371.22624 |                 0 |               3 |                  2375 |                  102 |             276738 |             0 |                0 |          573143 |                     0 |        281515 | 2017-02-06 15:17:53.646417+01

 2017-02-06 15:29:32.316748+01 | 1486391372.31675 |                 0 |               3 |                  2375 |                  102 |             276738 |             0 |                0 |          573143 |                     0 |        281538 | 2017-02-06 15:17:53.646417+01

 2017-02-06 15:29:33.409019+01 | 1486391373.40902 |                 0 |               3 |                  2375 |                  102 |             276738 |             0 |                0 |          573143 |                     0 |        281615 | 2017-02-06 15:17:53.646417+01

 2017-02-06 15:29:34.488129+01 | 1486391374.48813 |                 0 |               3 |                  2375 |                  102 |             276738 |             0 |                0 |          573143 |                     0 |        281615 | 2017-02-06 15:17:53.646417+01

 2017-02-06 15:29:35.572216+01 | 1486391375.57222 |                 0 |               3 |                  2375 |                  102 |             276738 |             0 |                0 |          573143 |                     0 |        281734 | 2017-02-06 15:17:53.646417+01

 2017-02-06 15:29:36.662306+01 | 1486391376.66231 |                 0 |               3 |                  2375 |                  102 |             276738 |             0 |                0 |          573143 |                     0 |        281785 | 2017-02-06 15:17:53.646417+01

 2017-02-06 15:29:37.751108+01 | 1486391377.75111 |                 0 |               3 |                  2375 |                  102 |             276738 |             0 |                0 |          573143 |                     0 |        281868 | 2017-02-06 15:17:53.646417+01

 2017-02-06 15:29:38.832863+01 | 1486391378.83286 |                 0 |               3 |                  2375 |                  102 |             276738 |             0 |                0 |          573143 |                     0 |        281912 | 2017-02-06 15:17:53.646417+01

 2017-02-06 15:29:39.917109+01 | 1486391379.91711 |                 0 |               3 |                  2375 |                  102 |             276738 |             0 |                0 |          573143 |                     0 |        281981 | 2017-02-06 15:17:53.646417+01

 2017-02-06 15:29:40.997973+01 | 1486391380.99797 |                 0 |               3 |                  2375 |                  102 |             276738 |             0 |                0 |          573143 |                     0 |        282079 | 2017-02-06 15:17:53.646417+01

 2017-02-06 15:29:42.064594+01 | 1486391382.06459 |                 0 |               3 |                  2375 |                  102 |             276738 |             0 |                0 |          573143 |                     0 |        282173 | 2017-02-06 15:17:53.646417+01

 2017-02-06 15:29:43.155885+01 | 1486391383.15588 |                 0 |               3 |                  2375 |                  102 |             276738 |             0 |                0 |          573143 |                     0 |        282220 | 2017-02-06 15:17:53.646417+01

 2017-02-06 15:29:44.249029+01 | 1486391384.24903 |                 0 |               3 |                  2375 |                  102 |             276738 |             0 |                0 |          573143 |                     0 |        282314 | 2017-02-06 15:17:53.646417+01

 2017-02-06 15:29:45.337373+01 | 1486391385.33737 |                 0 |               3 |                  2375 |                  102 |             276738 |             0 |                0 |          573143 |                     0 |        282371 | 2017-02-06 15:17:53.646417+01

 2017-02-06 15:29:46.423539+01 | 1486391386.42354 |                 0 |               3 |                  2375 |                  102 |             276738 |             0 |                0 |          573143 |                     0 |        282443 | 2017-02-06 15:17:53.646417+01

 2017-02-06 15:29:47.510861+01 | 1486391387.51086 |                 0 |               3 |                  2375 |                  102 |             276738 |             0 |                0 |          573143 |                     0 |        282531 | 2017-02-06 15:17:53.646417+01

 2017-02-06 15:29:48.595131+01 | 1486391388.59513 |                 0 |               3 |                  2375 |                  102 |             276738 |             0 |                0 |          573143 |                     0 |        282597 | 2017-02-06 15:17:53.646417+01

 2017-02-06 15:29:49.680551+01 | 1486391389.68055 |                 0 |               3 |                  2375 |                  102 |             276738 |             0 |                0 |          573143 |                     0 |        282681 | 2017-02-06 15:17:53.646417+01

 2017-02-06 15:29:50.771979+01 | 1486391390.77198 |                 0 |               3 |                  2375 |                  102 |             276738 |             0 |                0 |          573143 |                     0 |        282747 | 2017-02-06 15:17:53.646417+01

 2017-02-06 15:29:51.862105+01 | 1486391391.8621 |                 0 |               3 |                  2375 |                  102 |             276738 |             0 |                0 |          573143 |                     0 |        282832 | 2017-02-06 15:17:53.646417+01

 2017-02-06 15:29:52.947606+01 | 1486391392.94761 |                 0 |               3 |                  2375 |                  102 |             276738 |             0 |                0 |          573143 |                     0 |        282904 | 2017-02-06 15:17:53.646417+01

 2017-02-06 15:29:54.018183+01 | 1486391394.01818 |                 0 |               3 |                  2375 |                  102 |             276738 |             0 |                0 |          573143 |                     0 |        282971 | 2017-02-06 15:17:53.646417+01

 2017-02-06 15:29:55.10296+01 | 1486391395.10296 |                 0 |               3 |                  2375 |                  102 |             276738 |             0 |                0 |          573143 |                     0 |        283053 | 2017-02-06 15:17:53.646417+01

 2017-02-06 15:29:56.190532+01 | 1486391396.19053 |                 0 |               3 |                  2375 |                  102 |             276738 |             0 |                0 |          573143 |                     0 |        283123 | 2017-02-06 15:17:53.646417+01

 2017-02-06 15:29:57.278919+01 | 1486391397.27892 |                 0 |               3 |                  2375 |                  102 |             276738 |             0 |                0 |          573143 |                     0 |        283204 | 2017-02-06 15:17:53.646417+01

 2017-02-06 15:29:58.35556+01 | 1486391398.35556 |                 0 |               3 |                  2375 |                  102 |             276738 |             0 |                0 |          573143 |                     0 |        283277 | 2017-02-06 15:17:53.646417+01

 2017-02-06 15:29:59.432975+01 | 1486391399.43298 |                 0 |               3 |                  2375 |                  102 |             276738 |             0 |                0 |          573143 |                     0 |        283347 | 2017-02-06 15:17:53.646417+01

 2017-02-06 15:30:00.526837+01 | 1486391400.52684 |                 0 |               3 |                  2375 |                  102 |             276738 |             0 |                0 |          573143 |                     0 |        283430 | 2017-02-06 15:17:53.646417+01

 2017-02-06 15:30:01.606714+01 | 1486391401.60671 |                 0 |               3 |                  2375 |                  102 |             276738 |             0 |                0 |          573143 |                     0 |        283498 | 2017-02-06 15:17:53.646417+01

 2017-02-06 15:30:02.694126+01 | 1486391402.69413 |                 0 |               3 |                  2375 |                  102 |             276738 |             0 |                0 |          573143 |                     0 |        283595 | 2017-02-06 15:17:53.646417+01

 2017-02-06 15:30:03.782064+01 | 1486391403.78206 |                 0 |               3 |                  2375 |                  102 |             276738 |             0 |                0 |          573143 |                     0 |        283668 | 2017-02-06 15:17:53.646417+01

 2017-02-06 15:30:04.870425+01 | 1486391404.87042 |                 0 |               3 |                  2375 |                  102 |             276738 |             0 |                0 |          573143 |                     0 |        283762 | 2017-02-06 15:17:53.646417+01

 2017-02-06 15:30:05.9513+01 | 1486391405.9513 |                 0 |               3 |                  2375 |                  102 |             276738 |             0 |                0 |          573143 |                     0 |        283813 | 2017-02-06 15:17:53.646417+01

 2017-02-06 15:30:07.040119+01 | 1486391407.04012 |                 0 |               3 |                  2375 |                  102 |             276738 |             0 |                0 |          573143 |                     0 |        283883 | 2017-02-06 15:17:53.646417+01

 2017-02-06 15:30:08.128772+01 | 1486391408.12877 |                 0 |               3 |                  2375 |                  102 |             276738 |             0 |                0 |          573143 |                     0 |        283950 | 2017-02-06 15:17:53.646417+01

 2017-02-06 15:30:09.197761+01 | 1486391409.19776 |                 0 |               3 |                  2375 |                  102 |             276738 |             0 |                0 |          573143 |                     0 |        284081 | 2017-02-06 15:17:53.646417+01

 2017-02-06 15:30:10.269687+01 | 1486391410.26969 |                 0 |               3 |                  2375 |                  102 |             276738 |             0 |                0 |          573143 |                     0 |        284145 | 2017-02-06 15:17:53.646417+01

 2017-02-06 15:30:11.337692+01 | 1486391411.33769 |                 0 |               3 |                  2375 |                  102 |             276738 |             0 |                0 |          573143 |                     0 |        284212 | 2017-02-06 15:17:53.646417+01

 2017-02-06 15:30:12.4272+01 | 1486391412.4272 |                 0 |               3 |                  2375 |                  102 |             276738 |             0 |                0 |          573143 |                     0 |        284252 | 2017-02-06 15:17:53.646417+01

 2017-02-06 15:30:13.523183+01 | 1486391413.52318 |                 0 |               3 |                  2375 |                  102 |             276738 |             0 |                0 |          573143 |                     0 |        284363 | 2017-02-06 15:17:53.646417+01

 2017-02-06 15:30:14.599208+01 | 1486391414.59921 |                 0 |               3 |                  2375 |                  102 |             276738 |             0 |                0 |          573143 |                     0 |        284413 | 2017-02-06 15:17:53.646417+01

 2017-02-06 15:30:15.667701+01 | 1486391415.6677 |                 0 |               3 |                  2375 |                  102 |             276738 |             0 |                0 |          573143 |                     0 |        284477 | 2017-02-06 15:17:53.646417+01

 2017-02-06 15:30:16.733699+01 | 1486391416.7337 |                 0 |               3 |                  2375 |                  102 |             276738 |             0 |                0 |          573143 |                     0 |        284544 | 2017-02-06 15:17:53.646417+01

 2017-02-06 15:30:17.813093+01 | 1486391417.81309 |                 0 |               3 |                  2375 |                  102 |             276738 |             0 |                0 |          573143 |                     0 |        284633 | 2017-02-06 15:17:53.646417+01

 2017-02-06 15:30:18.900247+01 | 1486391418.90025 |                 0 |               3 |                  2375 |                  102 |             276738 |             0 |                0 |          573143 |                     0 |        284725 | 2017-02-06 15:17:53.646417+01

 2017-02-06 15:30:19.966573+01 | 1486391419.96657 |                 0 |               3 |                  2375 |                  102 |             276738 |             0 |                0 |          573143 |                     0 |        284772 | 2017-02-06 15:17:53.646417+01

 2017-02-06 15:30:21.056443+01 | 1486391421.05644 |                 0 |               3 |                  2375 |                  102 |             276738 |             0 |                0 |          573143 |                     0 |        284853 | 2017-02-06 15:17:53.646417+01

 2017-02-06 15:30:22.131235+01 | 1486391422.13123 |                 0 |               3 |                  2375 |                  102 |             276738 |             0 |                0 |          573143 |                     0 |        284954 | 2017-02-06 15:17:53.646417+01

 2017-02-06 15:30:23.206532+01 | 1486391423.20653 |                 0 |               3 |                  2375 |                  102 |             276738 |             0 |                0 |          573143 |                     0 |        285017 | 2017-02-06 15:17:53.646417+01

 2017-02-06 15:30:24.276365+01 | 1486391424.27637 |                 0 |               3 |                  2375 |                  102 |             276738 |             0 |                0 |          573143 |                     0 |        285049 | 2017-02-06 15:17:53.646417+01

 2017-02-06 15:30:25.356624+01 | 1486391425.35662 |                 0 |               3 |                  2375 |                  102 |             276738 |             0 |                0 |          573143 |                     0 |        285138 | 2017-02-06 15:17:53.646417+01

 2017-02-06 15:30:26.435402+01 | 1486391426.4354 |                 0 |               3 |                  2375 |                  102 |             276738 |             0 |                0 |          573143 |                     0 |        285250 | 2017-02-06 15:17:53.646417+01

 2017-02-06 15:30:27.503509+01 | 1486391427.50351 |                 0 |               3 |                  2375 |                  102 |             276738 |             0 |                0 |          573143 |                     0 |        285250 | 2017-02-06 15:17:53.646417+01

 2017-02-06 15:30:28.578385+01 | 1486391428.57839 |                 0 |               3 |                  2375 |                  102 |             276738 |             0 |                0 |          573143 |                     0 |        285357 | 2017-02-06 15:17:53.646417+01

 2017-02-06 15:30:29.668306+01 | 1486391429.66831 |                 0 |               3 |                  2375 |                  102 |             276738 |             0 |                0 |          573143 |                     0 |        285445 | 2017-02-06 15:17:53.646417+01

 2017-02-06 15:30:30.760708+01 | 1486391430.76071 |                 0 |               3 |                  2375 |                  102 |             276738 |             0 |                0 |          573143 |                     0 |        285515 | 2017-02-06 15:17:53.646417+01

 2017-02-06 15:30:31.836312+01 | 1486391431.83631 |                 0 |               3 |                  2375 |                  102 |             276738 |             0 |                0 |          573143 |                     0 |        285602 | 2017-02-06 15:17:53.646417+01

 2017-02-06 15:30:32.907963+01 | 1486391432.90796 |                 0 |               3 |                  2375 |                  102 |             276738 |             0 |                0 |          573143 |                     0 |        285668 | 2017-02-06 15:17:53.646417+01

 2017-02-06 15:30:33.991638+01 | 1486391433.99164 |                 0 |               3 |                  2375 |                  102 |             276738 |             0 |                0 |          573143 |                     0 |        285714 | 2017-02-06 15:17:53.646417+01

 2017-02-06 15:30:35.059989+01 | 1486391435.05999 |                 0 |               3 |                  2375 |                  102 |             276738 |             0 |                0 |          573143 |                     0 |        285832 | 2017-02-06 15:17:53.646417+01

 2017-02-06 15:30:36.137795+01 | 1486391436.13779 |                 0 |               3 |                  2375 |                  102 |             276738 |             0 |                0 |          573143 |                     0 |        285876 | 2017-02-06 15:17:53.646417+01

 2017-02-06 15:30:37.207865+01 | 1486391437.20786 |                 0 |               3 |                  2375 |                  102 |             276738 |             0 |                0 |          573143 |                     0 |        285979 | 2017-02-06 15:17:53.646417+01

 2017-02-06 15:30:38.281564+01 | 1486391438.28156 |                 0 |               3 |                  2375 |                  102 |             276738 |             0 |                0 |          573143 |                     0 |        286053 | 2017-02-06 15:17:53.646417+01

 2017-02-06 15:30:39.359691+01 | 1486391439.35969 |                 0 |               3 |                  2375 |                  102 |             276738 |             0 |                0 |          573143 |                     0 |        286053 | 2017-02-06 15:17:53.646417+01

 2017-02-06 15:30:40.440594+01 | 1486391440.44059 |                 0 |               3 |                  2375 |                  102 |             276738 |             0 |                0 |          573143 |                     0 |        286240 | 2017-02-06 15:17:53.646417+01

 2017-02-06 15:30:41.536395+01 | 1486391441.5364 |                 0 |               3 |                  2375 |                  102 |             276738 |             0 |                0 |          573143 |                     0 |        286283 | 2017-02-06 15:17:53.646417+01

 2017-02-06 15:30:42.622067+01 | 1486391442.62207 |                 0 |               3 |                  2375 |                  102 |             276738 |             0 |                0 |          573143 |                     0 |        286331 | 2017-02-06 15:17:53.646417+01

 2017-02-06 15:30:43.691881+01 | 1486391443.69188 |                 0 |               3 |                  2375 |                  102 |             276738 |             0 |                0 |          573143 |                     0 |        286466 | 2017-02-06 15:17:53.646417+01

 2017-02-06 15:30:44.769889+01 | 1486391444.76989 |                 0 |               3 |                  2375 |                  102 |             276738 |             0 |                0 |          573143 |                     0 |        286490 | 2017-02-06 15:17:53.646417+01

 2017-02-06 15:30:45.849947+01 | 1486391445.84995 |                 0 |               3 |                  2375 |                  102 |             276738 |             0 |                0 |          573143 |                     0 |        286560 | 2017-02-06 15:17:53.646417+01

 2017-02-06 15:30:46.937645+01 | 1486391446.93764 |                 0 |               3 |                  2375 |                  102 |             276738 |             0 |                0 |          573143 |                     0 |        286627 | 2017-02-06 15:17:53.646417+01

 2017-02-06 15:30:48.022363+01 | 1486391448.02236 |                 0 |               3 |                  2375 |                  102 |             276738 |             0 |                0 |          573143 |                     0 |        286720 | 2017-02-06 15:17:53.646417+01

 2017-02-06 15:30:49.102864+01 | 1486391449.10286 |                 0 |               3 |                  2375 |                  102 |             276738 |             0 |                0 |          573143 |                     0 |        286774 | 2017-02-06 15:17:53.646417+01

 2017-02-06 15:30:50.178957+01 | 1486391450.17896 |                 0 |               3 |                  2375 |                  102 |             276738 |             0 |                0 |          573143 |                     0 |        286860 | 2017-02-06 15:17:53.646417+01

 2017-02-06 15:30:51.254528+01 | 1486391451.25453 |                 0 |               3 |                  2375 |                  102 |             276738 |             0 |                0 |          573143 |                     0 |        287013 | 2017-02-06 15:17:53.646417+01

 2017-02-06 15:30:52.323008+01 | 1486391452.32301 |                 0 |               3 |                  2375 |                  102 |             276738 |             0 |                0 |          573143 |                     0 |        287013 | 2017-02-06 15:17:53.646417+01

 2017-02-06 15:30:53.394781+01 | 1486391453.39478 |                 0 |               3 |                  2375 |                  102 |             276738 |             0 |                0 |          573143 |                     0 |        287060 | 2017-02-06 15:17:53.646417+01

 2017-02-06 15:30:54.473181+01 | 1486391454.47318 |                 0 |               3 |                  2375 |                  102 |             276738 |             0 |                0 |          573143 |                     0 |        287141 | 2017-02-06 15:17:53.646417+01

 2017-02-06 15:30:55.548968+01 | 1486391455.54897 |                 0 |               3 |                  2375 |                  102 |             276738 |             0 |                0 |          573143 |                     0 |        287208 | 2017-02-06 15:17:53.646417+01

 2017-02-06 15:30:56.62917+01 | 1486391456.62917 |                 0 |               3 |                  2375 |                  102 |             276738 |             0 |                0 |          573143 |                     0 |        287291 | 2017-02-06 15:17:53.646417+01

 2017-02-06 15:30:57.714441+01 | 1486391457.71444 |                 0 |               3 |                  2375 |                  102 |             276738 |             0 |                0 |          573143 |                     0 |        287359 | 2017-02-06 15:17:53.646417+01

 2017-02-06 15:30:58.790148+01 | 1486391458.79015 |                 0 |               3 |                  2375 |                  102 |             276738 |             0 |                0 |          573143 |                     0 |        287428 | 2017-02-06 15:17:53.646417+01

 2017-02-06 15:30:59.8731+01 | 1486391459.8731 |                 0 |               3 |                  2375 |                  102 |             276738 |             0 |                0 |          573143 |                     0 |        287508 | 2017-02-06 15:17:53.646417+01

 2017-02-06 15:31:00.941917+01 | 1486391460.94192 |                 0 |               3 |                  2375 |                  102 |             276738 |             0 |                0 |          573143 |                     0 |        287578 | 2017-02-06 15:17:53.646417+01

 2017-02-06 15:31:02.022766+01 | 1486391462.02277 |                 0 |               3 |                  2375 |                  102 |             276738 |             0 |                0 |          573143 |                     0 |        287659 | 2017-02-06 15:17:53.646417+01

 2017-02-06 15:31:03.097687+01 | 1486391463.09769 |                 0 |               3 |                  2375 |                  102 |             276738 |             0 |                0 |          573143 |                     0 |        287723 | 2017-02-06 15:17:53.646417+01

 2017-02-06 15:31:04.173147+01 | 1486391464.17315 |                 0 |               3 |                  2375 |                  102 |             276738 |             0 |                0 |          573143 |                     0 |        287794 | 2017-02-06 15:17:53.646417+01

 2017-02-06 15:31:05.244715+01 | 1486391465.24471 |                 0 |               3 |                  2375 |                  102 |             276738 |             0 |                0 |          573143 |                     0 |        287878 | 2017-02-06 15:17:53.646417+01

 2017-02-06 15:31:06.318153+01 | 1486391466.31815 |                 0 |               3 |                  2375 |                  102 |             276738 |             0 |                0 |          573143 |                     0 |        287946 | 2017-02-06 15:17:53.646417+01

 2017-02-06 15:31:07.389568+01 | 1486391467.38957 |                 0 |               3 |                  2375 |                  102 |             276738 |             0 |                0 |          573143 |                     0 |        288012 | 2017-02-06 15:17:53.646417+01

 2017-02-06 15:31:08.464227+01 | 1486391468.46423 |                 0 |               3 |                  2375 |                  102 |             276738 |             0 |                0 |          573143 |                     0 |        288094 | 2017-02-06 15:17:53.646417+01

 2017-02-06 15:31:09.546125+01 | 1486391469.54612 |                 0 |               3 |                  2375 |                  102 |             276738 |             0 |                0 |          573143 |                     0 |        288161 | 2017-02-06 15:17:53.646417+01

 2017-02-06 15:31:10.619925+01 | 1486391470.61993 |                 0 |               3 |                  2375 |                  102 |             276738 |             0 |                0 |          573143 |                     0 |        288243 | 2017-02-06 15:17:53.646417+01

 2017-02-06 15:31:11.691559+01 | 1486391471.69156 |                 0 |               3 |                  2375 |                  102 |             276738 |             0 |                0 |          573143 |                     0 |        288334 | 2017-02-06 15:17:53.646417+01

 2017-02-06 15:31:12.764576+01 | 1486391472.76458 |                 0 |               3 |                  2375 |                  102 |             276738 |             0 |                0 |          573143 |                     0 |        288384 | 2017-02-06 15:17:53.646417+01

 2017-02-06 15:31:13.85362+01 | 1486391473.85362 |                 0 |               3 |                  2375 |                  102 |             276738 |             0 |                0 |          573143 |                     0 |        288459 | 2017-02-06 15:17:53.646417+01

 2017-02-06 15:31:14.946721+01 | 1486391474.94672 |                 0 |               3 |                  2375 |                  102 |             276738 |             0 |                0 |          573143 |                     0 |        288523 | 2017-02-06 15:17:53.646417+01

 2017-02-06 15:31:16.018718+01 | 1486391476.01872 |                 0 |               3 |                  2375 |                  102 |             276738 |             0 |                0 |          573143 |                     0 |        288584 | 2017-02-06 15:17:53.646417+01

 2017-02-06 15:31:17.084286+01 | 1486391477.08429 |                 0 |               3 |                  2375 |                  102 |             276738 |             0 |                0 |          573143 |                     0 |        288699 | 2017-02-06 15:17:53.646417+01

 2017-02-06 15:31:18.167306+01 | 1486391478.16731 |                 0 |               3 |                  2375 |                  102 |             276738 |             0 |                0 |          573143 |                     0 |        288744 | 2017-02-06 15:17:53.646417+01

 2017-02-06 15:31:19.249436+01 | 1486391479.24944 |                 0 |               3 |                  2375 |                  102 |             276738 |             0 |                0 |          573143 |                     0 |        288827 | 2017-02-06 15:17:53.646417+01

 2017-02-06 15:31:20.319549+01 | 1486391480.31955 |                 0 |               3 |                  2375 |                  102 |             276738 |             0 |                0 |          573143 |                     0 |        288916 | 2017-02-06 15:17:53.646417+01

 2017-02-06 15:31:21.406406+01 | 1486391481.40641 |                 0 |               3 |                  2375 |                  102 |             276738 |             0 |                0 |          573143 |                     0 |        288916 | 2017-02-06 15:17:53.646417+01

 2017-02-06 15:31:22.487091+01 | 1486391482.48709 |                 0 |               3 |                  2375 |                  102 |             276738 |             0 |                0 |          573143 |                     0 |        289027 | 2017-02-06 15:17:53.646417+01

 2017-02-06 15:31:23.56358+01 | 1486391483.56358 |                 0 |               3 |                  2375 |                  102 |             276738 |             0 |                0 |          573143 |                     0 |        289113 | 2017-02-06 15:17:53.646417+01

 2017-02-06 15:31:24.642869+01 | 1486391484.64287 |                 0 |               3 |                  2375 |                  102 |             276738 |             0 |                0 |          573143 |                     0 |        289208 | 2017-02-06 15:17:53.646417+01

 2017-02-06 15:31:25.721563+01 | 1486391485.72156 |                 0 |               3 |                  2375 |                  102 |             276738 |             0 |                0 |          573143 |                     0 |        289257 | 2017-02-06 15:17:53.646417+01

 2017-02-06 15:31:26.799169+01 | 1486391486.79917 |                 0 |               3 |                  2375 |                  102 |             276738 |             0 |                0 |          573143 |                     0 |        289324 | 2017-02-06 15:17:53.646417+01

 2017-02-06 15:31:27.887725+01 | 1486391487.88773 |                 0 |               3 |                  2375 |                  102 |             276738 |             0 |                0 |          573143 |                     0 |        289390 | 2017-02-06 15:17:53.646417+01

 2017-02-06 15:31:28.970919+01 | 1486391488.97092 |                 0 |               3 |                  2375 |                  102 |             276738 |             0 |                0 |          573143 |                     0 |        289476 | 2017-02-06 15:17:53.646417+01

 2017-02-06 15:31:30.04967+01 | 1486391490.04967 |                 0 |               3 |                  2375 |                  102 |             276738 |             0 |                0 |          573143 |                     0 |        289544 | 2017-02-06 15:17:53.646417+01

 2017-02-06 15:31:31.132397+01 | 1486391491.1324 |                 0 |               3 |                  2375 |                  102 |             276738 |             0 |                0 |          573143 |                     0 |        289626 | 2017-02-06 15:17:53.646417+01

 2017-02-06 15:31:32.202286+01 | 1486391492.20229 |                 0 |               3 |                  2375 |                  102 |             276738 |             0 |                0 |          573143 |                     0 |        289696 | 2017-02-06 15:17:53.646417+01

 2017-02-06 15:31:33.270322+01 | 1486391493.27032 |                 0 |               3 |                  2375 |                  102 |             276738 |             0 |                0 |          573143 |                     0 |        289764 | 2017-02-06 15:17:53.646417+01

 2017-02-06 15:31:34.348061+01 | 1486391494.34806 |                 0 |               3 |                  2375 |                  102 |             276738 |             0 |                0 |          573143 |                     0 |        289850 | 2017-02-06 15:17:53.646417+01

 2017-02-06 15:31:35.431094+01 | 1486391495.43109 |                 0 |               3 |                  2375 |                  102 |             276738 |             0 |                0 |          573143 |                     0 |        289921 | 2017-02-06 15:17:53.646417+01

 2017-02-06 15:31:36.485194+01 | 1486391496.48519 |                 0 |               3 |                  2375 |                  102 |             276738 |             0 |                0 |          573143 |                     0 |        289972 | 2017-02-06 15:17:53.646417+01

 2017-02-06 15:31:37.56535+01 | 1486391497.56535 |                 0 |               3 |                  2375 |                  102 |             276738 |             0 |                0 |          573143 |                     0 |        290072 | 2017-02-06 15:17:53.646417+01

 2017-02-06 15:31:38.656462+01 | 1486391498.65646 |                 0 |               3 |                  2375 |                  102 |             276738 |             0 |                0 |          573143 |                     0 |        290140 | 2017-02-06 15:17:53.646417+01

 2017-02-06 15:31:39.731754+01 | 1486391499.73175 |                 0 |               3 |                  2375 |                  102 |             276738 |             0 |                0 |          573143 |                     0 |        290221 | 2017-02-06 15:17:53.646417+01

 2017-02-06 15:31:40.804883+01 | 1486391500.80488 |                 0 |               3 |                  2375 |                  102 |             276738 |             0 |                0 |          573143 |                     0 |        290290 | 2017-02-06 15:17:53.646417+01

 2017-02-06 15:31:41.892077+01 | 1486391501.89208 |                 0 |               3 |                  2375 |                  102 |             276738 |             0 |                0 |          573143 |                     0 |        290357 | 2017-02-06 15:17:53.646417+01

 2017-02-06 15:31:42.973094+01 | 1486391502.97309 |                 0 |               3 |                  2375 |                  102 |             276738 |             0 |                0 |          573143 |                     0 |        290439 | 2017-02-06 15:17:53.646417+01

 2017-02-06 15:31:44.051654+01 | 1486391504.05165 |                 0 |               3 |                  2375 |                  102 |             276738 |             0 |                0 |          573143 |                     0 |        290503 | 2017-02-06 15:17:53.646417+01

 2017-02-06 15:31:45.125069+01 | 1486391505.12507 |                 0 |               3 |                  2375 |                  102 |             276738 |             0 |                0 |          573143 |                     0 |        290584 | 2017-02-06 15:17:53.646417+01

 2017-02-06 15:31:46.208691+01 | 1486391506.20869 |                 0 |               3 |                  2375 |                  102 |             276738 |             0 |                0 |          573143 |                     0 |        290655 | 2017-02-06 15:17:53.646417+01

 2017-02-06 15:31:47.26973+01 | 1486391507.26973 |                 0 |               3 |                  2375 |                  102 |             276738 |             0 |                0 |          573143 |                     0 |        290700 | 2017-02-06 15:17:53.646417+01

 2017-02-06 15:31:48.341237+01 | 1486391508.34124 |                 0 |               3 |                  2375 |                  102 |             276738 |             0 |                0 |          573143 |                     0 |        290810 | 2017-02-06 15:17:53.646417+01

 2017-02-06 15:31:49.422737+01 | 1486391509.42274 |                 0 |               3 |                  2375 |                  102 |             276738 |             0 |                0 |          573143 |                     0 |        290876 | 2017-02-06 15:17:53.646417+01

 2017-02-06 15:31:50.492996+01 | 1486391510.493 |                 0 |               3 |                  2375 |                  102 |             276738 |             0 |                0 |          573143 |                     0 |        290942 | 2017-02-06 15:17:53.646417+01

 2017-02-06 15:31:51.577054+01 | 1486391511.57705 |                 0 |               3 |                  2375 |                  102 |             276738 |             0 |                0 |          573143 |                     0 |        291016 | 2017-02-06 15:17:53.646417+01

 2017-02-06 15:31:52.662924+01 | 1486391512.66292 |                 0 |               3 |                  2375 |                  102 |             276738 |             0 |                0 |          573143 |                     0 |        291100 | 2017-02-06 15:17:53.646417+01

 2017-02-06 15:31:53.728128+01 | 1486391513.72813 |                 0 |               3 |                  2375 |                  102 |             276738 |             0 |                0 |          573143 |                     0 |        291167 | 2017-02-06 15:17:53.646417+01

 2017-02-06 15:31:54.799881+01 | 1486391514.79988 |                 0 |               3 |                  2375 |                  102 |             276738 |             0 |                0 |          573143 |                     0 |        291234 | 2017-02-06 15:17:53.646417+01

 2017-02-06 15:31:55.878174+01 | 1486391515.87817 |                 0 |               3 |                  2375 |                  102 |             276738 |             0 |                0 |          573143 |                     0 |        291311 | 2017-02-06 15:17:53.646417+01

 2017-02-06 15:31:56.971522+01 | 1486391516.97152 |                 0 |               3 |                  2375 |                  102 |             276738 |             0 |                0 |          573143 |                     0 |        291377 | 2017-02-06 15:17:53.646417+01

 2017-02-06 15:31:58.048054+01 | 1486391518.04805 |                 0 |               3 |                  2375 |                  102 |             276738 |             0 |                0 |          573143 |                     0 |        291464 | 2017-02-06 15:17:53.646417+01

 2017-02-06 15:31:59.132433+01 | 1486391519.13243 |                 0 |               3 |                  2375 |                  102 |             276738 |             0 |                0 |          573143 |                     0 |        291527 | 2017-02-06 15:17:53.646417+01

 2017-02-06 15:32:00.215535+01 | 1486391520.21553 |                 0 |               3 |                  2375 |                  102 |             276738 |             0 |                0 |          573143 |                     0 |        291592 | 2017-02-06 15:17:53.646417+01

 2017-02-06 15:32:01.304247+01 | 1486391521.30425 |                 0 |               3 |                  2375 |                  102 |             276738 |             0 |                0 |          573143 |                     0 |        291675 | 2017-02-06 15:17:53.646417+01

 2017-02-06 15:32:02.393427+01 | 1486391522.39343 |                 0 |               3 |                  2375 |                  102 |             276738 |             0 |                0 |          573143 |                     0 |        291740 | 2017-02-06 15:17:53.646417+01

 2017-02-06 15:32:03.470879+01 | 1486391523.47088 |                 0 |               3 |                  2375 |                  102 |             276738 |             0 |                0 |          573143 |                     0 |        291820 | 2017-02-06 15:17:53.646417+01

 2017-02-06 15:32:04.555973+01 | 1486391524.55597 |                 0 |               3 |                  2375 |                  102 |             276738 |             0 |                0 |          573143 |                     0 |        291886 | 2017-02-06 15:17:53.646417+01

 2017-02-06 15:32:05.643321+01 | 1486391525.64332 |                 0 |               3 |                  2375 |                  102 |             276738 |             0 |                0 |          573143 |                     0 |        291953 | 2017-02-06 15:17:53.646417+01

 2017-02-06 15:32:06.732131+01 | 1486391526.73213 |                 0 |               3 |                  2375 |                  102 |             276738 |             0 |                0 |          573143 |                     0 |        292030 | 2017-02-06 15:17:53.646417+01

 2017-02-06 15:32:07.824765+01 | 1486391527.82476 |                 0 |               3 |                  2375 |                  102 |             276738 |             0 |                0 |          573143 |                     0 |        292099 | 2017-02-06 15:17:53.646417+01

 2017-02-06 15:32:08.915484+01 | 1486391528.91548 |                 0 |               3 |                  2375 |                  102 |             276738 |             0 |                0 |          573143 |                     0 |        292182 | 2017-02-06 15:17:53.646417+01

 2017-02-06 15:32:09.993596+01 | 1486391529.9936 |                 0 |               3 |                  2375 |                  102 |             276738 |             0 |                0 |          573143 |                     0 |        292246 | 2017-02-06 15:17:53.646417+01

 2017-02-06 15:32:11.063342+01 | 1486391531.06334 |                 0 |               3 |                  2375 |                  102 |             276738 |             0 |                0 |          573143 |                     0 |        292331 | 2017-02-06 15:17:53.646417+01

 2017-02-06 15:32:12.154708+01 | 1486391532.15471 |                 0 |               3 |                  2375 |                  102 |             276738 |             0 |                0 |          573143 |                     0 |        292395 | 2017-02-06 15:17:53.646417+01

 2017-02-06 15:32:13.242949+01 | 1486391533.24295 |                 0 |               3 |                  2375 |                  102 |             276738 |             0 |                0 |          573143 |                     0 |        292461 | 2017-02-06 15:17:53.646417+01

 2017-02-06 15:32:14.317336+01 | 1486391534.31734 |                 0 |               3 |                  2375 |                  102 |             276738 |             0 |                0 |          573143 |                     0 |        292541 | 2017-02-06 15:17:53.646417+01

 2017-02-06 15:32:15.391692+01 | 1486391535.39169 |                 0 |               3 |                  2375 |                  102 |             276738 |             0 |                0 |          573143 |                     0 |        292608 | 2017-02-06 15:17:53.646417+01

 2017-02-06 15:32:16.479394+01 | 1486391536.47939 |                 0 |               3 |                  2375 |                  102 |             276738 |             0 |                0 |          573143 |                     0 |        292688 | 2017-02-06 15:17:53.646417+01

 2017-02-06 15:32:17.573361+01 | 1486391537.57336 |                 0 |               3 |                  2375 |                  102 |             276738 |             0 |                0 |          573143 |                     0 |        292752 | 2017-02-06 15:17:53.646417+01

 2017-02-06 15:32:18.663455+01 | 1486391538.66346 |                 0 |               3 |                  2375 |                  102 |             276738 |             0 |                0 |          573143 |                     0 |        292820 | 2017-02-06 15:17:53.646417+01

 2017-02-06 15:32:19.753426+01 | 1486391539.75343 |                 0 |               3 |                  2375 |                  102 |             276738 |             0 |                0 |          573143 |                     0 |        292900 | 2017-02-06 15:17:53.646417+01

 2017-02-06 15:32:20.829773+01 | 1486391540.82977 |                 0 |               3 |                  2375 |                  102 |             276738 |             0 |                0 |          573143 |                     0 |        292964 | 2017-02-06 15:17:53.646417+01

 2017-02-06 15:32:21.900986+01 | 1486391541.90099 |                 0 |               3 |                  2375 |                  102 |             276738 |             0 |                0 |          573143 |                     0 |        293041 | 2017-02-06 15:17:53.646417+01

 2017-02-06 15:32:22.991161+01 | 1486391542.99116 |                 0 |               3 |                  2375 |                  102 |             276738 |             0 |                0 |          573143 |                     0 |        293143 | 2017-02-06 15:17:53.646417+01

 2017-02-06 15:32:24.076595+01 | 1486391544.0766 |                 0 |               3 |                  2375 |                  102 |             276738 |             0 |                0 |          573143 |                     0 |        293195 | 2017-02-06 15:17:53.646417+01

 2017-02-06 15:32:25.164709+01 | 1486391545.16471 |                 0 |               3 |                  2375 |                  102 |             276738 |             0 |                0 |          573143 |                     0 |        293268 | 2017-02-06 15:17:53.646417+01

 2017-02-06 15:32:26.253247+01 | 1486391546.25325 |                 0 |               3 |                  2375 |                  102 |             276738 |             0 |                0 |          573143 |                     0 |        293347 | 2017-02-06 15:17:53.646417+01

 2017-02-06 15:32:27.331436+01 | 1486391547.33144 |                 0 |               3 |                  2375 |                  102 |             276738 |             0 |                0 |          573143 |                     0 |        293419 | 2017-02-06 15:17:53.646417+01

 2017-02-06 15:32:28.40936+01 | 1486391548.40936 |                 0 |               3 |                  2375 |                  102 |             276738 |             0 |                0 |          573143 |                     0 |        293482 | 2017-02-06 15:17:53.646417+01

 2017-02-06 15:32:29.48598+01 | 1486391549.48598 |                 0 |               3 |                  2375 |                  102 |             276738 |             0 |                0 |          573143 |                     0 |        293546 | 2017-02-06 15:17:53.646417+01

 2017-02-06 15:32:30.554241+01 | 1486391550.55424 |                 0 |               3 |                  2375 |                  102 |             276738 |             0 |                0 |          573143 |                     0 |        293617 | 2017-02-06 15:17:53.646417+01

 2017-02-06 15:32:31.633721+01 | 1486391551.63372 |                 0 |               3 |                  2375 |                  102 |             276738 |             0 |                0 |          573143 |                     0 |        293689 | 2017-02-06 15:17:53.646417+01

 2017-02-06 15:32:32.704643+01 | 1486391552.70464 |                 0 |               3 |                  2375 |                  102 |             276738 |             0 |                0 |          573143 |                     0 |        293768 | 2017-02-06 15:17:53.646417+01

 2017-02-06 15:32:33.777254+01 | 1486391553.77725 |                 0 |               3 |                  2375 |                  102 |             276738 |             0 |                0 |          573143 |                     0 |        293838 | 2017-02-06 15:17:53.646417+01

 2017-02-06 15:32:34.86029+01 | 1486391554.86029 |                 0 |               3 |                  2375 |                  102 |             276738 |             0 |                0 |          573143 |                     0 |        293918 | 2017-02-06 15:17:53.646417+01

 2017-02-06 15:32:35.935521+01 | 1486391555.93552 |                 0 |               3 |                  2375 |                  102 |             276738 |             0 |                0 |          573143 |                     0 |        293984 | 2017-02-06 15:17:53.646417+01

 2017-02-06 15:32:37.00933+01 | 1486391557.00933 |                 0 |               3 |                  2375 |                  102 |             276738 |             0 |                0 |          573143 |                     0 |        294056 | 2017-02-06 15:17:53.646417+01

 2017-02-06 15:32:38.102756+01 | 1486391558.10276 |                 0 |               3 |                  2375 |                  102 |             276738 |             0 |                0 |          573143 |                     0 |        294122 | 2017-02-06 15:17:53.646417+01

 2017-02-06 15:32:39.188266+01 | 1486391559.18827 |                 0 |               3 |                  2375 |                  102 |             276738 |             0 |                0 |          573143 |                     0 |        294208 | 2017-02-06 15:17:53.646417+01

 2017-02-06 15:32:40.258695+01 | 1486391560.25869 |                 0 |               3 |                  2375 |                  102 |             276738 |             0 |                0 |          573143 |                     0 |        294271 | 2017-02-06 15:17:53.646417+01

 2017-02-06 15:32:41.331991+01 | 1486391561.33199 |                 0 |               3 |                  2375 |                  102 |             276738 |             0 |                0 |          573143 |                     0 |        294316 | 2017-02-06 15:17:53.646417+01

 2017-02-06 15:32:42.398612+01 | 1486391562.39861 |                 0 |               3 |                  2375 |                  102 |             276738 |             0 |                0 |          573143 |                     0 |        294423 | 2017-02-06 15:17:53.646417+01

 2017-02-06 15:32:43.487139+01 | 1486391563.48714 |                 0 |               3 |                  2375 |                  102 |             276738 |             0 |                0 |          573143 |                     0 |        294475 | 2017-02-06 15:17:53.646417+01

 2017-02-06 15:32:44.55478+01 | 1486391564.55478 |                 0 |               3 |                  2375 |                  102 |             276738 |             0 |                0 |          573143 |                     0 |        294522 | 2017-02-06 15:17:53.646417+01

 2017-02-06 15:32:45.629268+01 | 1486391565.62927 |                 0 |               3 |                  2375 |                  102 |             276738 |             0 |                0 |          573143 |                     0 |        294635 | 2017-02-06 15:17:53.646417+01

 2017-02-06 15:32:46.707043+01 | 1486391566.70704 |                 0 |               3 |                  2375 |                  102 |             276738 |             0 |                0 |          573143 |                     0 |        294658 | 2017-02-06 15:17:53.646417+01

 2017-02-06 15:32:47.781368+01 | 1486391567.78137 |                 0 |               3 |                  2375 |                  102 |             276738 |             0 |                0 |          573143 |                     0 |        294694 | 2017-02-06 15:17:53.646417+01

 2017-02-06 15:32:48.856521+01 | 1486391568.85652 |                 0 |               3 |                  2375 |                  102 |             276738 |             0 |                0 |          573143 |                     0 |        294803 | 2017-02-06 15:17:53.646417+01

 2017-02-06 15:32:49.950702+01 | 1486391569.9507 |                 0 |               3 |                  2375 |                  102 |             276738 |             0 |                0 |          573143 |                     0 |        294833 | 2017-02-06 15:17:53.646417+01

 2017-02-06 15:32:51.039746+01 | 1486391571.03975 |                 0 |               3 |                  2375 |                  102 |             276738 |             0 |                0 |          573143 |                     0 |        294945 | 2017-02-06 15:17:53.646417+01

 2017-02-06 15:32:52.114401+01 | 1486391572.1144 |                 0 |               3 |                  2375 |                  102 |             276738 |             0 |                0 |          573143 |                     0 |        294974 | 2017-02-06 15:17:53.646417+01

 2017-02-06 15:32:53.199931+01 | 1486391573.19993 |                 0 |               3 |                  2375 |                  102 |             276738 |             0 |                0 |          573143 |                     0 |        295041 | 2017-02-06 15:17:53.646417+01

 2017-02-06 15:32:54.283974+01 | 1486391574.28397 |                 0 |               3 |                  2375 |                  102 |             276738 |             0 |                0 |          573143 |                     0 |        295124 | 2017-02-06 15:17:53.646417+01

 2017-02-06 15:32:55.358325+01 | 1486391575.35833 |                 0 |               3 |                  2375 |                  102 |             276738 |             0 |                0 |          573143 |                     0 |        295193 | 2017-02-06 15:17:53.646417+01

 2017-02-06 15:32:56.450447+01 | 1486391576.45045 |                 0 |               3 |                  2375 |                  102 |             276738 |             0 |                0 |          573143 |                     0 |        295276 | 2017-02-06 15:17:53.646417+01

 2017-02-06 15:32:57.528649+01 | 1486391577.52865 |                 0 |               3 |                  2375 |                  102 |             276738 |             0 |                0 |          573143 |                     0 |        295345 | 2017-02-06 15:17:53.646417+01

 2017-02-06 15:32:58.615074+01 | 1486391578.61507 |                 0 |               3 |                  2375 |                  102 |             276738 |             0 |                0 |          573143 |                     0 |        295415 | 2017-02-06 15:17:53.646417+01

 2017-02-06 15:32:59.692712+01 | 1486391579.69271 |                 0 |               3 |                  2375 |                  102 |             276738 |             0 |                0 |          573143 |                     0 |        295496 | 2017-02-06 15:17:53.646417+01

 2017-02-06 15:33:00.773623+01 | 1486391580.77362 |                 0 |               3 |                  2375 |                  102 |             276738 |             0 |                0 |          573143 |                     0 |        295561 | 2017-02-06 15:17:53.646417+01

 2017-02-06 15:33:01.859324+01 | 1486391581.85932 |                 0 |               3 |                  2375 |                  102 |             276738 |             0 |                0 |          573143 |                     0 |        295664 | 2017-02-06 15:17:53.646417+01

 2017-02-06 15:33:02.943687+01 | 1486391582.94369 |                 0 |               3 |                  2375 |                  102 |             276738 |             0 |                0 |          573143 |                     0 |        295754 | 2017-02-06 15:17:53.646417+01

 2017-02-06 15:33:04.034215+01 | 1486391584.03421 |                 0 |               3 |                  2375 |                  102 |             276738 |             0 |                0 |          573143 |                     0 |        295800 | 2017-02-06 15:17:53.646417+01

 2017-02-06 15:33:05.114873+01 | 1486391585.11487 |                 0 |               3 |                  2375 |                  102 |             276738 |             0 |                0 |          573143 |                     0 |        295847 | 2017-02-06 15:17:53.646417+01

 2017-02-06 15:33:06.201833+01 | 1486391586.20183 |                 0 |               3 |                  2375 |                  102 |             276738 |             0 |                0 |          573143 |                     0 |        295934 | 2017-02-06 15:17:53.646417+01

 2017-02-06 15:33:07.291193+01 | 1486391587.29119 |                 0 |               3 |                  2375 |                  102 |             276738 |             0 |                0 |          573143 |                     0 |        295959 | 2017-02-06 15:17:53.646417+01

 2017-02-06 15:33:08.369126+01 | 1486391588.36913 |                 0 |               3 |                  2375 |                  102 |             276738 |             0 |                0 |          573143 |                     0 |        296056 | 2017-02-06 15:17:53.646417+01

 2017-02-06 15:33:09.464948+01 | 1486391589.46495 |                 0 |               3 |                  2375 |                  102 |             276738 |             0 |                0 |          573143 |                     0 |        296171 | 2017-02-06 15:17:53.646417+01

 2017-02-06 15:33:10.542655+01 | 1486391590.54265 |                 0 |               3 |                  2375 |                  102 |             276738 |             0 |                0 |          573143 |                     0 |        296202 | 2017-02-06 15:17:53.646417+01

 2017-02-06 15:33:11.616692+01 | 1486391591.61669 |                 0 |               3 |                  2375 |                  102 |             276738 |             0 |                0 |          573143 |                     0 |        296264 | 2017-02-06 15:17:53.646417+01

 2017-02-06 15:33:12.689911+01 | 1486391592.68991 |                 0 |               3 |                  2375 |                  102 |             276738 |             0 |                0 |          573143 |                     0 |        296322 | 2017-02-06 15:17:53.646417+01

 2017-02-06 15:33:13.774955+01 | 1486391593.77496 |                 0 |               3 |                  2375 |                  102 |             276738 |             0 |                0 |          573143 |                     0 |        296397 | 2017-02-06 15:17:53.646417+01

 2017-02-06 15:33:14.859641+01 | 1486391594.85964 |                 0 |               3 |                  2375 |                  102 |             276738 |             0 |                0 |          573143 |                     0 |        296456 | 2017-02-06 15:17:53.646417+01

 2017-02-06 15:33:15.943835+01 | 1486391595.94384 |                 0 |               3 |                  2375 |                  102 |             276738 |             0 |                0 |          573143 |                     0 |        296521 | 2017-02-06 15:17:53.646417+01

 2017-02-06 15:33:17.0345+01 | 1486391597.0345 |                 0 |               3 |                  2375 |                  102 |             276738 |             0 |                0 |          573143 |                     0 |        296587 | 2017-02-06 15:17:53.646417+01

 2017-02-06 15:33:18.117084+01 | 1486391598.11708 |                 0 |               3 |                  2375 |                  102 |             276738 |             0 |                0 |          573143 |                     0 |        296678 | 2017-02-06 15:17:53.646417+01

 2017-02-06 15:33:19.208974+01 | 1486391599.20897 |                 0 |               3 |                  2375 |                  102 |             276738 |             0 |                0 |          573143 |                     0 |        296770 | 2017-02-06 15:17:53.646417+01

 2017-02-06 15:33:20.296529+01 | 1486391600.29653 |                 0 |               3 |                  2375 |                  102 |             276738 |             0 |                0 |          573143 |                     0 |        296799 | 2017-02-06 15:17:53.646417+01

 2017-02-06 15:33:21.38883+01 | 1486391601.38883 |                 0 |               3 |                  2375 |                  102 |             276738 |             0 |                0 |          573143 |                     0 |        296873 | 2017-02-06 15:17:53.646417+01

