 2017-02-06 08:36:43.993648+01 | 1486366603.99365 | 3/1B0B590                |           12913259920

 2017-02-06 08:36:45.132961+01 | 1486366605.13296 | 3/1B0B590                |           12913259920

 2017-02-06 08:36:46.265451+01 | 1486366606.26545 | 3/1B0B590                |           12913259920

 2017-02-06 08:36:47.437173+01 | 1486366607.43717 | 3/1B0B590                |           12913259920

 2017-02-06 08:36:48.589432+01 | 1486366608.58943 | 3/1B0B590                |           12913259920

 2017-02-06 08:36:49.747449+01 | 1486366609.74745 | 3/1B0B590                |           12913259920

 2017-02-06 08:36:50.868764+01 | 1486366610.86876 | 3/1B0B590                |           12913259920

 2017-02-06 08:36:52.006871+01 | 1486366612.00687 | 3/1B0B590                |           12913259920

 2017-02-06 08:36:53.166965+01 | 1486366613.16697 | 3/1B0B590                |           12913259920

 2017-02-06 08:36:54.324679+01 | 1486366614.32468 | 3/1B0B590                |           12913259920

 2017-02-06 08:36:55.477014+01 | 1486366615.47701 | 3/1B0B590                |           12913259920

 2017-02-06 08:36:56.644731+01 | 1486366616.64473 | 3/1B0B590                |           12913259920

 2017-02-06 08:36:57.808759+01 | 1486366617.80876 | 3/1B0B590                |           12913259920

 2017-02-06 08:36:58.967397+01 | 1486366618.9674 | 3/1B0B590                |           12913259920

 2017-02-06 08:37:00.120924+01 | 1486366620.12092 | 3/1B0B590                |           12913259920

 2017-02-06 08:37:01.288696+01 | 1486366621.2887 | 3/1B0B590                |           12913259920

 2017-02-06 08:37:02.446239+01 | 1486366622.44624 | 3/1B0B590                |           12913259920

 2017-02-06 08:37:03.590144+01 | 1486366623.59014 | 3/1B0B590                |           12913259920

 2017-02-06 08:37:04.737248+01 | 1486366624.73725 | 3/1B0B590                |           12913259920

 2017-02-06 08:37:05.899824+01 | 1486366625.89982 | 3/1B0B590                |           12913259920

 2017-02-06 08:37:07.060601+01 | 1486366627.0606 | 3/1B0B590                |           12913259920

 2017-02-06 08:37:08.254459+01 | 1486366628.25446 | 3/1B0B590                |           12913259920

 2017-02-06 08:37:09.408512+01 | 1486366629.40851 | 3/1B0B590                |           12913259920

 2017-02-06 08:37:10.570824+01 | 1486366630.57082 | 3/1B0B590                |           12913259920

 2017-02-06 08:37:11.732618+01 | 1486366631.73262 | 3/1B0B590                |           12913259920

 2017-02-06 08:37:12.901682+01 | 1486366632.90168 | 3/1B0B590                |           12913259920

 2017-02-06 08:37:14.070499+01 | 1486366634.0705 | 3/1B0B590                |           12913259920

 2017-02-06 08:37:15.20989+01 | 1486366635.20989 | 3/1B0B590                |           12913259920

 2017-02-06 08:37:16.373963+01 | 1486366636.37396 | 3/1B0B590                |           12913259920

 2017-02-06 08:37:17.516597+01 | 1486366637.5166 | 3/1B0B590                |           12913259920

 2017-02-06 08:37:18.685122+01 | 1486366638.68512 | 3/1B0B590                |           12913259920

 2017-02-06 08:37:19.817562+01 | 1486366639.81756 | 3/1B0B590                |           12913259920

 2017-02-06 08:37:20.974908+01 | 1486366640.97491 | 3/1B0B590                |           12913259920

 2017-02-06 08:37:22.113441+01 | 1486366642.11344 | 3/1B0B590                |           12913259920

 2017-02-06 08:37:23.273714+01 | 1486366643.27371 | 3/1B0B590                |           12913259920

 2017-02-06 08:37:24.384667+01 | 1486366644.38467 | 3/1B0B590                |           12913259920

 2017-02-06 08:37:25.538779+01 | 1486366645.53878 | 3/1B0B590                |           12913259920

 2017-02-06 08:37:26.677396+01 | 1486366646.6774 | 3/1B0B590                |           12913259920

 2017-02-06 08:37:27.80122+01 | 1486366647.80122 | 3/1B0B590                |           12913259920

 2017-02-06 08:37:28.994397+01 | 1486366648.9944 | 3/1B0B590                |           12913259920

 2017-02-06 08:37:30.157049+01 | 1486366650.15705 | 3/1B0B590                |           12913259920

 2017-02-06 08:37:31.310558+01 | 1486366651.31056 | 3/1B0B590                |           12913259920

 2017-02-06 08:37:32.465431+01 | 1486366652.46543 | 3/1B0B590                |           12913259920

 2017-02-06 08:37:33.634173+01 | 1486366653.63417 | 3/1B0B590                |           12913259920

 2017-02-06 08:37:34.78242+01 | 1486366654.78242 | 3/1B0B590                |           12913259920

 2017-02-06 08:37:35.950084+01 | 1486366655.95008 | 3/1B0B590                |           12913259920

 2017-02-06 08:37:37.126143+01 | 1486366657.12614 | 3/1B0B590                |           12913259920

 2017-02-06 08:37:38.280395+01 | 1486366658.2804 | 3/1B0B590                |           12913259920

 2017-02-06 08:37:39.406432+01 | 1486366659.40643 | 3/1B0B590                |           12913259920

 2017-02-06 08:37:40.560912+01 | 1486366660.56091 | 3/1B0B590                |           12913259920

 2017-02-06 08:37:41.681636+01 | 1486366661.68164 | 3/1B0B590                |           12913259920

 2017-02-06 08:37:42.869303+01 | 1486366662.8693 | 3/1B0B590                |           12913259920

 2017-02-06 08:37:43.994355+01 | 1486366663.99435 | 3/1B0B590                |           12913259920

 2017-02-06 08:37:45.152313+01 | 1486366665.15231 | 3/1B0B590                |           12913259920

 2017-02-06 08:37:46.297005+01 | 1486366666.297 | 3/1B0B590                |           12913259920

 2017-02-06 08:37:47.472202+01 | 1486366667.4722 | 3/1B0B590                |           12913259920

 2017-02-06 08:37:48.655335+01 | 1486366668.65533 | 3/1B0B590                |           12913259920

 2017-02-06 08:37:49.785144+01 | 1486366669.78514 | 3/1B0B590                |           12913259920

 2017-02-06 08:37:50.945204+01 | 1486366670.9452 | 3/1B0B590                |           12913259920

 2017-02-06 08:37:52.113975+01 | 1486366672.11398 | 3/1B0B590                |           12913259920

 2017-02-06 08:37:53.265633+01 | 1486366673.26563 | 3/1B0B590                |           12913259920

 2017-02-06 08:37:54.439497+01 | 1486366674.4395 | 3/1B0B590                |           12913259920

 2017-02-06 08:37:55.59438+01 | 1486366675.59438 | 3/1B0B590                |           12913259920

 2017-02-06 08:37:56.735571+01 | 1486366676.73557 | 3/1B0B590                |           12913259920

 2017-02-06 08:37:57.853341+01 | 1486366677.85334 | 3/1B0B590                |           12913259920

 2017-02-06 08:37:59.00105+01 | 1486366679.00105 | 3/1B0B590                |           12913259920

 2017-02-06 08:38:00.144164+01 | 1486366680.14416 | 3/1B0B590                |           12913259920

 2017-02-06 08:38:01.299203+01 | 1486366681.2992 | 3/1B0B590                |           12913259920

 2017-02-06 08:38:02.442895+01 | 1486366682.44289 | 3/1B0B590                |           12913259920

 2017-02-06 08:38:03.589991+01 | 1486366683.58999 | 3/1B0B590                |           12913259920

 2017-02-06 08:38:04.747918+01 | 1486366684.74792 | 3/1B0B590                |           12913259920

 2017-02-06 08:38:05.912787+01 | 1486366685.91279 | 3/1B0B590                |           12913259920

 2017-02-06 08:38:07.081462+01 | 1486366687.08146 | 3/1B0B590                |           12913259920

 2017-02-06 08:38:08.229673+01 | 1486366688.22967 | 3/1B0B590                |           12913259920

 2017-02-06 08:38:09.407333+01 | 1486366689.40733 | 3/1B0B590                |           12913259920

 2017-02-06 08:38:10.559011+01 | 1486366690.55901 | 3/1B0B590                |           12913259920

 2017-02-06 08:38:11.70048+01 | 1486366691.70048 | 3/1B0B590                |           12913259920

 2017-02-06 08:38:12.858826+01 | 1486366692.85883 | 3/1B0B590                |           12913259920

 2017-02-06 08:38:14.023464+01 | 1486366694.02346 | 3/1B0B590                |           12913259920

 2017-02-06 08:38:15.173983+01 | 1486366695.17398 | 3/1B0B590                |           12913259920

 2017-02-06 08:38:16.301133+01 | 1486366696.30113 | 3/1B0B590                |           12913259920

 2017-02-06 08:38:17.489556+01 | 1486366697.48956 | 3/1B0B590                |           12913259920

 2017-02-06 08:38:18.632119+01 | 1486366698.63212 | 3/1B0B590                |           12913259920

 2017-02-06 08:38:19.776158+01 | 1486366699.77616 | 3/1B0B590                |           12913259920

 2017-02-06 08:38:20.904635+01 | 1486366700.90463 | 3/1B0B590                |           12913259920

 2017-02-06 08:38:22.057653+01 | 1486366702.05765 | 3/1B0B590                |           12913259920

 2017-02-06 08:38:23.22054+01 | 1486366703.22054 | 3/1B0B590                |           12913259920

 2017-02-06 08:38:24.356017+01 | 1486366704.35602 | 3/1B0B590                |           12913259920

 2017-02-06 08:38:25.510882+01 | 1486366705.51088 | 3/1B0B590                |           12913259920

 2017-02-06 08:38:26.672453+01 | 1486366706.67245 | 3/1B0B590                |           12913259920

 2017-02-06 08:38:27.820266+01 | 1486366707.82027 | 3/1B0B590                |           12913259920

 2017-02-06 08:38:28.968004+01 | 1486366708.968 | 3/1B0B590                |           12913259920

 2017-02-06 08:38:30.144937+01 | 1486366710.14494 | 3/1B0B590                |           12913259920

 2017-02-06 08:38:31.281872+01 | 1486366711.28187 | 3/1B0B590                |           12913259920

 2017-02-06 08:38:32.430202+01 | 1486366712.4302 | 3/1B0B590                |           12913259920

 2017-02-06 08:38:33.62789+01 | 1486366713.62789 | 3/1B0B590                |           12913259920

 2017-02-06 08:38:34.763733+01 | 1486366714.76373 | 3/1B0B590                |           12913259920

 2017-02-06 08:38:35.924444+01 | 1486366715.92444 | 3/1B0B590                |           12913259920

 2017-02-06 08:38:37.069425+01 | 1486366717.06943 | 3/1B0B590                |           12913259920

 2017-02-06 08:38:38.21557+01 | 1486366718.21557 | 3/1B0B590                |           12913259920

 2017-02-06 08:38:39.379423+01 | 1486366719.37942 | 3/1B0B590                |           12913259920

 2017-02-06 08:38:40.541182+01 | 1486366720.54118 | 3/1B0B590                |           12913259920

 2017-02-06 08:38:41.671514+01 | 1486366721.67151 | 3/1B0B590                |           12913259920

 2017-02-06 08:38:42.829099+01 | 1486366722.8291 | 3/1B0B590                |           12913259920

 2017-02-06 08:38:43.995765+01 | 1486366723.99576 | 3/1B0B590                |           12913259920

 2017-02-06 08:38:45.152549+01 | 1486366725.15255 | 3/1B0B590                |           12913259920

 2017-02-06 08:38:46.299051+01 | 1486366726.29905 | 3/1B0B590                |           12913259920

 2017-02-06 08:38:47.43756+01 | 1486366727.43756 | 3/1B0B590                |           12913259920

 2017-02-06 08:38:48.610613+01 | 1486366728.61061 | 3/1B0B590                |           12913259920

 2017-02-06 08:38:49.767284+01 | 1486366729.76728 | 3/1B0B590                |           12913259920

 2017-02-06 08:38:50.919731+01 | 1486366730.91973 | 3/1B0B590                |           12913259920

 2017-02-06 08:38:52.048104+01 | 1486366732.0481 | 3/1B0B590                |           12913259920

 2017-02-06 08:38:53.20108+01 | 1486366733.20108 | 3/1B0B590                |           12913259920

 2017-02-06 08:38:54.333189+01 | 1486366734.33319 | 3/1B0B590                |           12913259920

 2017-02-06 08:38:55.455537+01 | 1486366735.45554 | 3/1B0B590                |           12913259920

 2017-02-06 08:38:56.617988+01 | 1486366736.61799 | 3/1B0B590                |           12913259920

 2017-02-06 08:38:57.796977+01 | 1486366737.79698 | 3/1B0B590                |           12913259920

 2017-02-06 08:38:58.948051+01 | 1486366738.94805 | 3/1B0B590                |           12913259920

 2017-02-06 08:39:00.088636+01 | 1486366740.08864 | 3/1B0B590                |           12913259920

 2017-02-06 08:39:01.220908+01 | 1486366741.22091 | 3/1B0B590                |           12913259920

 2017-02-06 08:39:02.368098+01 | 1486366742.3681 | 3/1B0B590                |           12913259920

 2017-02-06 08:39:03.517622+01 | 1486366743.51762 | 3/1B0B590                |           12913259920

 2017-02-06 08:39:04.656131+01 | 1486366744.65613 | 3/1B0B590                |           12913259920

 2017-02-06 08:39:05.783146+01 | 1486366745.78315 | 3/1B0B590                |           12913259920

 2017-02-06 08:39:06.937299+01 | 1486366746.9373 | 3/1B0B590                |           12913259920

 2017-02-06 08:39:08.086079+01 | 1486366748.08608 | 3/1B0B590                |           12913259920

 2017-02-06 08:39:09.229092+01 | 1486366749.22909 | 3/1B0B590                |           12913259920

 2017-02-06 08:39:10.339648+01 | 1486366750.33965 | 3/1B0B590                |           12913259920

 2017-02-06 08:39:11.4983+01 | 1486366751.4983 | 3/1B0B590                |           12913259920

 2017-02-06 08:39:12.640802+01 | 1486366752.6408 | 3/1B0B590                |           12913259920

 2017-02-06 08:39:13.810414+01 | 1486366753.81041 | 3/1B0B590                |           12913259920

 2017-02-06 08:39:14.958538+01 | 1486366754.95854 | 3/1B0B590                |           12913259920

 2017-02-06 08:39:16.083669+01 | 1486366756.08367 | 3/1B0B590                |           12913259920

 2017-02-06 08:39:17.255961+01 | 1486366757.25596 | 3/1B0B590                |           12913259920

 2017-02-06 08:39:18.417869+01 | 1486366758.41787 | 3/1B0B590                |           12913259920

 2017-02-06 08:39:19.570626+01 | 1486366759.57063 | 3/1B0B590                |           12913259920

 2017-02-06 08:39:20.711776+01 | 1486366760.71178 | 3/1B0B590                |           12913259920

 2017-02-06 08:39:21.874811+01 | 1486366761.87481 | 3/1B0B590                |           12913259920

 2017-02-06 08:39:23.062908+01 | 1486366763.06291 | 3/1B0B590                |           12913259920

 2017-02-06 08:39:24.240963+01 | 1486366764.24096 | 3/1B0B590                |           12913259920

 2017-02-06 08:39:25.379218+01 | 1486366765.37922 | 3/1B0B590                |           12913259920

 2017-02-06 08:39:26.516627+01 | 1486366766.51663 | 3/1B0B590                |           12913259920

 2017-02-06 08:39:27.668889+01 | 1486366767.66889 | 3/1B0B590                |           12913259920

 2017-02-06 08:39:28.833127+01 | 1486366768.83313 | 3/1B0B590                |           12913259920

 2017-02-06 08:39:29.988634+01 | 1486366769.98863 | 3/1B0B590                |           12913259920

 2017-02-06 08:39:31.167251+01 | 1486366771.16725 | 3/1B0B590                |           12913259920

 2017-02-06 08:39:32.278132+01 | 1486366772.27813 | 3/1B0B590                |           12913259920

 2017-02-06 08:39:33.419244+01 | 1486366773.41924 | 3/1B0B590                |           12913259920

 2017-02-06 08:39:34.595445+01 | 1486366774.59544 | 3/1B0B590                |           12913259920

 2017-02-06 08:39:35.762953+01 | 1486366775.76295 | 3/1B0B590                |           12913259920

 2017-02-06 08:39:36.896423+01 | 1486366776.89642 | 3/1B0B590                |           12913259920

 2017-02-06 08:39:38.044324+01 | 1486366778.04432 | 3/1B0B590                |           12913259920

 2017-02-06 08:39:39.22527+01 | 1486366779.22527 | 3/1B0B590                |           12913259920

 2017-02-06 08:39:40.3809+01 | 1486366780.3809 | 3/1B0B590                |           12913259920

 2017-02-06 08:39:41.507555+01 | 1486366781.50756 | 3/1B0B590                |           12913259920

 2017-02-06 08:39:42.625808+01 | 1486366782.62581 | 3/1B0B590                |           12913259920

 2017-02-06 08:39:43.778213+01 | 1486366783.77821 | 3/1B0B590                |           12913259920

 2017-02-06 08:39:44.903485+01 | 1486366784.90349 | 3/1B0B590                |           12913259920

 2017-02-06 08:39:46.044331+01 | 1486366786.04433 | 3/1B0B590                |           12913259920

 2017-02-06 08:39:47.206575+01 | 1486366787.20657 | 3/1B0B590                |           12913259920

 2017-02-06 08:39:48.396636+01 | 1486366788.39664 | 3/1B0B590                |           12913259920

 2017-02-06 08:39:49.544522+01 | 1486366789.54452 | 3/1B0B590                |           12913259920

 2017-02-06 08:39:50.689587+01 | 1486366790.68959 | 3/1B0B590                |           12913259920

 2017-02-06 08:39:51.822312+01 | 1486366791.82231 | 3/1B0B590                |           12913259920

 2017-02-06 08:39:52.993717+01 | 1486366792.99372 | 3/1B0B590                |           12913259920

 2017-02-06 08:39:54.122617+01 | 1486366794.12262 | 3/1B0B590                |           12913259920

 2017-02-06 08:39:55.253636+01 | 1486366795.25364 | 3/1B0B590                |           12913259920

 2017-02-06 08:39:56.376151+01 | 1486366796.37615 | 3/1B0B590                |           12913259920

 2017-02-06 08:39:57.539724+01 | 1486366797.53972 | 3/1B0B590                |           12913259920

 2017-02-06 08:39:58.684263+01 | 1486366798.68426 | 3/1B0B590                |           12913259920

 2017-02-06 08:39:59.860557+01 | 1486366799.86056 | 3/1B0B590                |           12913259920

 2017-02-06 08:40:00.997415+01 | 1486366800.99742 | 3/1B0B590                |           12913259920

 2017-02-06 08:40:02.151831+01 | 1486366802.15183 | 3/1B0B590                |           12913259920

 2017-02-06 08:40:03.33245+01 | 1486366803.33245 | 3/1B0B590                |           12913259920

 2017-02-06 08:40:04.493831+01 | 1486366804.49383 | 3/1B0B590                |           12913259920

 2017-02-06 08:40:05.67276+01 | 1486366805.67276 | 3/1B0B590                |           12913259920

 2017-02-06 08:40:06.862824+01 | 1486366806.86282 | 3/1B0B590                |           12913259920

 2017-02-06 08:40:08.014953+01 | 1486366808.01495 | 3/1B0B590                |           12913259920

 2017-02-06 08:40:09.166994+01 | 1486366809.16699 | 3/1B0B590                |           12913259920

 2017-02-06 08:40:10.316361+01 | 1486366810.31636 | 3/1B0B590                |           12913259920

 2017-02-06 08:40:11.460171+01 | 1486366811.46017 | 3/1B0B590                |           12913259920

 2017-02-06 08:40:12.622927+01 | 1486366812.62293 | 3/1B0B590                |           12913259920

 2017-02-06 08:40:13.771421+01 | 1486366813.77142 | 3/1B0B590                |           12913259920

 2017-02-06 08:40:14.924265+01 | 1486366814.92426 | 3/1B0B590                |           12913259920

 2017-02-06 08:40:16.094702+01 | 1486366816.0947 | 3/1B0B590                |           12913259920

 2017-02-06 08:40:17.287172+01 | 1486366817.28717 | 3/1B0B590                |           12913259920

 2017-02-06 08:40:18.416672+01 | 1486366818.41667 | 3/1B0B590                |           12913259920

 2017-02-06 08:40:19.593749+01 | 1486366819.59375 | 3/1B0B590                |           12913259920

 2017-02-06 08:40:20.729933+01 | 1486366820.72993 | 3/1B0B590                |           12913259920

 2017-02-06 08:40:21.873079+01 | 1486366821.87308 | 3/1B0B590                |           12913259920

 2017-02-06 08:40:23.023515+01 | 1486366823.02351 | 3/1B0B590                |           12913259920

 2017-02-06 08:40:24.19995+01 | 1486366824.19995 | 3/1B0B590                |           12913259920

 2017-02-06 08:40:25.333995+01 | 1486366825.334 | 3/1B0B590                |           12913259920

 2017-02-06 08:40:26.493644+01 | 1486366826.49364 | 3/1B0B590                |           12913259920

 2017-02-06 08:40:27.60933+01 | 1486366827.60933 | 3/1B0B590                |           12913259920

 2017-02-06 08:40:28.765116+01 | 1486366828.76512 | 3/1B0B590                |           12913259920

 2017-02-06 08:40:29.926201+01 | 1486366829.9262 | 3/1B0B590                |           12913259920

 2017-02-06 08:40:31.092474+01 | 1486366831.09247 | 3/1B0B590                |           12913259920

 2017-02-06 08:40:32.270974+01 | 1486366832.27097 | 3/1B0B590                |           12913259920

 2017-02-06 08:40:33.41366+01 | 1486366833.41366 | 3/1B0B590                |           12913259920

 2017-02-06 08:40:34.557865+01 | 1486366834.55786 | 3/1B0B590                |           12913259920

 2017-02-06 08:40:35.714748+01 | 1486366835.71475 | 3/1B0B590                |           12913259920

 2017-02-06 08:40:36.844961+01 | 1486366836.84496 | 3/1B0B590                |           12913259920

 2017-02-06 08:40:38.012267+01 | 1486366838.01227 | 3/1B0B590                |           12913259920

 2017-02-06 08:40:39.120678+01 | 1486366839.12068 | 3/1B0B590                |           12913259920

 2017-02-06 08:40:40.262716+01 | 1486366840.26272 | 3/1B0B590                |           12913259920

 2017-02-06 08:40:41.437297+01 | 1486366841.4373 | 3/1B0B590                |           12913259920

 2017-02-06 08:40:42.6359+01 | 1486366842.6359 | 3/1B0B590                |           12913259920

 2017-02-06 08:40:43.774773+01 | 1486366843.77477 | 3/1B0B590                |           12913259920

 2017-02-06 08:40:44.933051+01 | 1486366844.93305 | 3/1B0B590                |           12913259920

 2017-02-06 08:40:46.113276+01 | 1486366846.11328 | 3/1B0B590                |           12913259920

 2017-02-06 08:40:47.267074+01 | 1486366847.26707 | 3/1B0B590                |           12913259920

 2017-02-06 08:40:48.418607+01 | 1486366848.41861 | 3/1B0B590                |           12913259920

 2017-02-06 08:40:49.56595+01 | 1486366849.56595 | 3/1B0B590                |           12913259920

 2017-02-06 08:40:50.721974+01 | 1486366850.72197 | 3/1B0B590                |           12913259920

 2017-02-06 08:40:51.896703+01 | 1486366851.8967 | 3/1B0B590                |           12913259920

 2017-02-06 08:40:53.067884+01 | 1486366853.06788 | 3/1B0B590                |           12913259920

 2017-02-06 08:40:54.213833+01 | 1486366854.21383 | 3/1B0B590                |           12913259920

 2017-02-06 08:40:55.344997+01 | 1486366855.345 | 3/1B0B590                |           12913259920

 2017-02-06 08:40:56.494552+01 | 1486366856.49455 | 3/1B0B590                |           12913259920

 2017-02-06 08:40:57.651715+01 | 1486366857.65172 | 3/1B0B590                |           12913259920

 2017-02-06 08:40:58.82377+01 | 1486366858.82377 | 3/1B0B590                |           12913259920

 2017-02-06 08:40:59.974332+01 | 1486366859.97433 | 3/1B0B590                |           12913259920

 2017-02-06 08:41:01.136144+01 | 1486366861.13614 | 3/1B0B590                |           12913259920

 2017-02-06 08:41:02.284818+01 | 1486366862.28482 | 3/1B0B590                |           12913259920

 2017-02-06 08:41:03.443265+01 | 1486366863.44326 | 3/1B0B590                |           12913259920

 2017-02-06 08:41:04.597472+01 | 1486366864.59747 | 3/1B0B590                |           12913259920

 2017-02-06 08:41:05.792377+01 | 1486366865.79238 | 3/1B0B590                |           12913259920

 2017-02-06 08:41:06.963403+01 | 1486366866.9634 | 3/1B0B590                |           12913259920

 2017-02-06 08:41:08.117864+01 | 1486366868.11786 | 3/1B0B590                |           12913259920

 2017-02-06 08:41:09.27012+01 | 1486366869.27012 | 3/1B0B590                |           12913259920

 2017-02-06 08:41:10.434056+01 | 1486366870.43406 | 3/1B0B590                |           12913259920

 2017-02-06 08:41:11.56371+01 | 1486366871.56371 | 3/1B0B590                |           12913259920

 2017-02-06 08:41:12.71808+01 | 1486366872.71808 | 3/1B0B590                |           12913259920

 2017-02-06 08:41:13.860133+01 | 1486366873.86013 | 3/1B0B590                |           12913259920

 2017-02-06 08:41:15.040001+01 | 1486366875.04 | 3/1B0B590                |           12913259920

 2017-02-06 08:41:16.187266+01 | 1486366876.18727 | 3/1B0B590                |           12913259920

 2017-02-06 08:41:17.323436+01 | 1486366877.32344 | 3/1B0B590                |           12913259920

 2017-02-06 08:41:18.486411+01 | 1486366878.48641 | 3/1B0B590                |           12913259920

 2017-02-06 08:41:19.653072+01 | 1486366879.65307 | 3/1B0B590                |           12913259920

 2017-02-06 08:41:20.782887+01 | 1486366880.78289 | 3/1B0B590                |           12913259920

 2017-02-06 08:41:21.940154+01 | 1486366881.94015 | 3/1B0B590                |           12913259920

 2017-02-06 08:41:23.077067+01 | 1486366883.07707 | 3/1B0B590                |           12913259920

 2017-02-06 08:41:24.252133+01 | 1486366884.25213 | 3/1B0B590                |           12913259920

 2017-02-06 08:41:25.406634+01 | 1486366885.40663 | 3/1B0B590                |           12913259920

 2017-02-06 08:41:26.573954+01 | 1486366886.57395 | 3/1B0B590                |           12913259920

 2017-02-06 08:41:27.716538+01 | 1486366887.71654 | 3/1B0B590                |           12913259920

 2017-02-06 08:41:28.858232+01 | 1486366888.85823 | 3/1B0B590                |           12913259920

 2017-02-06 08:41:30.010664+01 | 1486366890.01066 | 3/1B0B590                |           12913259920

 2017-02-06 08:41:31.167568+01 | 1486366891.16757 | 3/1B0B590                |           12913259920

 2017-02-06 08:41:32.289487+01 | 1486366892.28949 | 3/1B0B590                |           12913259920

 2017-02-06 08:41:33.434266+01 | 1486366893.43427 | 3/1B0B590                |           12913259920

 2017-02-06 08:41:34.559563+01 | 1486366894.55956 | 3/1B0B590                |           12913259920

 2017-02-06 08:41:35.733299+01 | 1486366895.7333 | 3/1B0B590                |           12913259920

 2017-02-06 08:41:36.882681+01 | 1486366896.88268 | 3/1B0B590                |           12913259920

 2017-02-06 08:41:38.024821+01 | 1486366898.02482 | 3/1B0B590                |           12913259920

 2017-02-06 08:41:39.181897+01 | 1486366899.1819 | 3/1B0B590                |           12913259920

 2017-02-06 08:41:40.326751+01 | 1486366900.32675 | 3/1B0B590                |           12913259920

 2017-02-06 08:41:41.47786+01 | 1486366901.47786 | 3/1B0B590                |           12913259920

 2017-02-06 08:41:42.636772+01 | 1486366902.63677 | 3/1B0B590                |           12913259920

