 2017-02-03 11:47:07.071027+01 | 1486118827.07103 | pgbench_branches_pkey |            16384
 2017-02-03 11:47:07.071027+01 | 1486118827.07103 | pgbench_tellers_pkey  |            40960
 2017-02-03 11:47:07.071027+01 | 1486118827.07103 | pgbench_accounts_pkey |        224641024

 2017-02-03 11:47:08.157015+01 | 1486118828.15702 | pgbench_branches_pkey |            16384
 2017-02-03 11:47:08.157015+01 | 1486118828.15702 | pgbench_tellers_pkey  |            40960
 2017-02-03 11:47:08.157015+01 | 1486118828.15702 | pgbench_accounts_pkey |        224641024

 2017-02-03 11:47:09.242119+01 | 1486118829.24212 | pgbench_branches_pkey |            16384
 2017-02-03 11:47:09.242119+01 | 1486118829.24212 | pgbench_tellers_pkey  |            40960
 2017-02-03 11:47:09.242119+01 | 1486118829.24212 | pgbench_accounts_pkey |        224641024

 2017-02-03 11:47:10.336278+01 | 1486118830.33628 | pgbench_branches_pkey |            16384
 2017-02-03 11:47:10.336278+01 | 1486118830.33628 | pgbench_tellers_pkey  |            40960
 2017-02-03 11:47:10.336278+01 | 1486118830.33628 | pgbench_accounts_pkey |        224641024

 2017-02-03 11:47:11.423612+01 | 1486118831.42361 | pgbench_branches_pkey |            16384
 2017-02-03 11:47:11.423612+01 | 1486118831.42361 | pgbench_tellers_pkey  |            40960
 2017-02-03 11:47:11.423612+01 | 1486118831.42361 | pgbench_accounts_pkey |        224641024

 2017-02-03 11:47:12.529093+01 | 1486118832.52909 | pgbench_branches_pkey |            16384
 2017-02-03 11:47:12.529093+01 | 1486118832.52909 | pgbench_tellers_pkey  |            40960
 2017-02-03 11:47:12.529093+01 | 1486118832.52909 | pgbench_accounts_pkey |        224641024

 2017-02-03 11:47:13.622563+01 | 1486118833.62256 | pgbench_branches_pkey |            16384
 2017-02-03 11:47:13.622563+01 | 1486118833.62256 | pgbench_tellers_pkey  |            40960
 2017-02-03 11:47:13.622563+01 | 1486118833.62256 | pgbench_accounts_pkey |        224641024

 2017-02-03 11:47:14.737927+01 | 1486118834.73793 | pgbench_branches_pkey |            16384
 2017-02-03 11:47:14.737927+01 | 1486118834.73793 | pgbench_tellers_pkey  |            40960
 2017-02-03 11:47:14.737927+01 | 1486118834.73793 | pgbench_accounts_pkey |        224641024

 2017-02-03 11:47:15.868245+01 | 1486118835.86824 | pgbench_branches_pkey |            16384
 2017-02-03 11:47:15.868245+01 | 1486118835.86824 | pgbench_tellers_pkey  |            40960
 2017-02-03 11:47:15.868245+01 | 1486118835.86824 | pgbench_accounts_pkey |        224641024

 2017-02-03 11:47:16.982734+01 | 1486118836.98273 | pgbench_branches_pkey |            16384
 2017-02-03 11:47:16.982734+01 | 1486118836.98273 | pgbench_tellers_pkey  |            40960
 2017-02-03 11:47:16.982734+01 | 1486118836.98273 | pgbench_accounts_pkey |        224641024

 2017-02-03 11:47:18.071291+01 | 1486118838.07129 | pgbench_branches_pkey |            16384
 2017-02-03 11:47:18.071291+01 | 1486118838.07129 | pgbench_tellers_pkey  |            40960
 2017-02-03 11:47:18.071291+01 | 1486118838.07129 | pgbench_accounts_pkey |        224641024

 2017-02-03 11:47:19.1672+01 | 1486118839.1672 | pgbench_branches_pkey |            16384
 2017-02-03 11:47:19.1672+01 | 1486118839.1672 | pgbench_tellers_pkey  |            40960
 2017-02-03 11:47:19.1672+01 | 1486118839.1672 | pgbench_accounts_pkey |        224641024

 2017-02-03 11:47:20.257256+01 | 1486118840.25726 | pgbench_branches_pkey |            16384
 2017-02-03 11:47:20.257256+01 | 1486118840.25726 | pgbench_tellers_pkey  |            40960
 2017-02-03 11:47:20.257256+01 | 1486118840.25726 | pgbench_accounts_pkey |        224641024

 2017-02-03 11:47:21.349473+01 | 1486118841.34947 | pgbench_branches_pkey |            16384
 2017-02-03 11:47:21.349473+01 | 1486118841.34947 | pgbench_tellers_pkey  |            40960
 2017-02-03 11:47:21.349473+01 | 1486118841.34947 | pgbench_accounts_pkey |        224641024

 2017-02-03 11:47:22.439072+01 | 1486118842.43907 | pgbench_branches_pkey |            16384
 2017-02-03 11:47:22.439072+01 | 1486118842.43907 | pgbench_tellers_pkey  |            40960
 2017-02-03 11:47:22.439072+01 | 1486118842.43907 | pgbench_accounts_pkey |        224641024

 2017-02-03 11:47:23.535506+01 | 1486118843.53551 | pgbench_branches_pkey |            16384
 2017-02-03 11:47:23.535506+01 | 1486118843.53551 | pgbench_tellers_pkey  |            40960
 2017-02-03 11:47:23.535506+01 | 1486118843.53551 | pgbench_accounts_pkey |        224641024

 2017-02-03 11:47:24.637048+01 | 1486118844.63705 | pgbench_branches_pkey |            16384
 2017-02-03 11:47:24.637048+01 | 1486118844.63705 | pgbench_tellers_pkey  |            40960
 2017-02-03 11:47:24.637048+01 | 1486118844.63705 | pgbench_accounts_pkey |        224641024

 2017-02-03 11:47:25.738747+01 | 1486118845.73875 | pgbench_branches_pkey |            16384
 2017-02-03 11:47:25.738747+01 | 1486118845.73875 | pgbench_tellers_pkey  |            40960
 2017-02-03 11:47:25.738747+01 | 1486118845.73875 | pgbench_accounts_pkey |        224641024

 2017-02-03 11:47:26.83721+01 | 1486118846.83721 | pgbench_branches_pkey |            16384
 2017-02-03 11:47:26.83721+01 | 1486118846.83721 | pgbench_tellers_pkey  |            40960
 2017-02-03 11:47:26.83721+01 | 1486118846.83721 | pgbench_accounts_pkey |        224641024

 2017-02-03 11:47:27.943295+01 | 1486118847.9433 | pgbench_branches_pkey |            16384
 2017-02-03 11:47:27.943295+01 | 1486118847.9433 | pgbench_tellers_pkey  |            40960
 2017-02-03 11:47:27.943295+01 | 1486118847.9433 | pgbench_accounts_pkey |        224641024

 2017-02-03 11:47:29.055992+01 | 1486118849.05599 | pgbench_branches_pkey |            16384
 2017-02-03 11:47:29.055992+01 | 1486118849.05599 | pgbench_tellers_pkey  |            40960
 2017-02-03 11:47:29.055992+01 | 1486118849.05599 | pgbench_accounts_pkey |        224641024

 2017-02-03 11:47:30.150901+01 | 1486118850.1509 | pgbench_branches_pkey |            16384
 2017-02-03 11:47:30.150901+01 | 1486118850.1509 | pgbench_tellers_pkey  |            40960
 2017-02-03 11:47:30.150901+01 | 1486118850.1509 | pgbench_accounts_pkey |        224641024

 2017-02-03 11:47:31.237936+01 | 1486118851.23794 | pgbench_branches_pkey |            16384
 2017-02-03 11:47:31.237936+01 | 1486118851.23794 | pgbench_tellers_pkey  |            40960
 2017-02-03 11:47:31.237936+01 | 1486118851.23794 | pgbench_accounts_pkey |        224641024

 2017-02-03 11:47:32.324299+01 | 1486118852.3243 | pgbench_branches_pkey |            16384
 2017-02-03 11:47:32.324299+01 | 1486118852.3243 | pgbench_tellers_pkey  |            40960
 2017-02-03 11:47:32.324299+01 | 1486118852.3243 | pgbench_accounts_pkey |        224641024

 2017-02-03 11:47:33.416487+01 | 1486118853.41649 | pgbench_branches_pkey |            16384
 2017-02-03 11:47:33.416487+01 | 1486118853.41649 | pgbench_tellers_pkey  |            40960
 2017-02-03 11:47:33.416487+01 | 1486118853.41649 | pgbench_accounts_pkey |        224641024

 2017-02-03 11:47:34.507687+01 | 1486118854.50769 | pgbench_branches_pkey |            16384
 2017-02-03 11:47:34.507687+01 | 1486118854.50769 | pgbench_tellers_pkey  |            40960
 2017-02-03 11:47:34.507687+01 | 1486118854.50769 | pgbench_accounts_pkey |        224641024

 2017-02-03 11:47:35.594766+01 | 1486118855.59477 | pgbench_branches_pkey |            16384
 2017-02-03 11:47:35.594766+01 | 1486118855.59477 | pgbench_tellers_pkey  |            40960
 2017-02-03 11:47:35.594766+01 | 1486118855.59477 | pgbench_accounts_pkey |        224641024

 2017-02-03 11:47:36.694198+01 | 1486118856.6942 | pgbench_branches_pkey |            16384
 2017-02-03 11:47:36.694198+01 | 1486118856.6942 | pgbench_tellers_pkey  |            40960
 2017-02-03 11:47:36.694198+01 | 1486118856.6942 | pgbench_accounts_pkey |        224641024

 2017-02-03 11:47:37.793647+01 | 1486118857.79365 | pgbench_branches_pkey |            16384
 2017-02-03 11:47:37.793647+01 | 1486118857.79365 | pgbench_tellers_pkey  |            40960
 2017-02-03 11:47:37.793647+01 | 1486118857.79365 | pgbench_accounts_pkey |        224641024

 2017-02-03 11:47:38.891739+01 | 1486118858.89174 | pgbench_branches_pkey |            16384
 2017-02-03 11:47:38.891739+01 | 1486118858.89174 | pgbench_tellers_pkey  |            40960
 2017-02-03 11:47:38.891739+01 | 1486118858.89174 | pgbench_accounts_pkey |        224641024

 2017-02-03 11:47:40.011114+01 | 1486118860.01111 | pgbench_branches_pkey |            16384
 2017-02-03 11:47:40.011114+01 | 1486118860.01111 | pgbench_tellers_pkey  |            40960
 2017-02-03 11:47:40.011114+01 | 1486118860.01111 | pgbench_accounts_pkey |        224641024

 2017-02-03 11:47:41.108468+01 | 1486118861.10847 | pgbench_branches_pkey |            16384
 2017-02-03 11:47:41.108468+01 | 1486118861.10847 | pgbench_tellers_pkey  |            40960
 2017-02-03 11:47:41.108468+01 | 1486118861.10847 | pgbench_accounts_pkey |        224641024

 2017-02-03 11:47:42.196678+01 | 1486118862.19668 | pgbench_branches_pkey |            16384
 2017-02-03 11:47:42.196678+01 | 1486118862.19668 | pgbench_tellers_pkey  |            40960
 2017-02-03 11:47:42.196678+01 | 1486118862.19668 | pgbench_accounts_pkey |        224641024

 2017-02-03 11:47:43.287726+01 | 1486118863.28773 | pgbench_branches_pkey |            16384
 2017-02-03 11:47:43.287726+01 | 1486118863.28773 | pgbench_tellers_pkey  |            40960
 2017-02-03 11:47:43.287726+01 | 1486118863.28773 | pgbench_accounts_pkey |        224641024

 2017-02-03 11:47:44.376853+01 | 1486118864.37685 | pgbench_branches_pkey |            16384
 2017-02-03 11:47:44.376853+01 | 1486118864.37685 | pgbench_tellers_pkey  |            40960
 2017-02-03 11:47:44.376853+01 | 1486118864.37685 | pgbench_accounts_pkey |        224641024

 2017-02-03 11:47:45.465143+01 | 1486118865.46514 | pgbench_branches_pkey |            16384
 2017-02-03 11:47:45.465143+01 | 1486118865.46514 | pgbench_tellers_pkey  |            40960
 2017-02-03 11:47:45.465143+01 | 1486118865.46514 | pgbench_accounts_pkey |        224641024

 2017-02-03 11:47:46.560438+01 | 1486118866.56044 | pgbench_branches_pkey |            16384
 2017-02-03 11:47:46.560438+01 | 1486118866.56044 | pgbench_tellers_pkey  |            40960
 2017-02-03 11:47:46.560438+01 | 1486118866.56044 | pgbench_accounts_pkey |        224641024

 2017-02-03 11:47:47.66424+01 | 1486118867.66424 | pgbench_branches_pkey |            16384
 2017-02-03 11:47:47.66424+01 | 1486118867.66424 | pgbench_tellers_pkey  |            40960
 2017-02-03 11:47:47.66424+01 | 1486118867.66424 | pgbench_accounts_pkey |        224641024

 2017-02-03 11:47:48.779642+01 | 1486118868.77964 | pgbench_branches_pkey |            16384
 2017-02-03 11:47:48.779642+01 | 1486118868.77964 | pgbench_tellers_pkey  |            40960
 2017-02-03 11:47:48.779642+01 | 1486118868.77964 | pgbench_accounts_pkey |        224641024

 2017-02-03 11:47:49.881987+01 | 1486118869.88199 | pgbench_branches_pkey |            16384
 2017-02-03 11:47:49.881987+01 | 1486118869.88199 | pgbench_tellers_pkey  |            40960
 2017-02-03 11:47:49.881987+01 | 1486118869.88199 | pgbench_accounts_pkey |        224641024

 2017-02-03 11:47:50.996448+01 | 1486118870.99645 | pgbench_branches_pkey |            16384
 2017-02-03 11:47:50.996448+01 | 1486118870.99645 | pgbench_tellers_pkey  |            40960
 2017-02-03 11:47:50.996448+01 | 1486118870.99645 | pgbench_accounts_pkey |        224641024

 2017-02-03 11:47:52.116979+01 | 1486118872.11698 | pgbench_branches_pkey |            16384
 2017-02-03 11:47:52.116979+01 | 1486118872.11698 | pgbench_tellers_pkey  |            40960
 2017-02-03 11:47:52.116979+01 | 1486118872.11698 | pgbench_accounts_pkey |        224641024

 2017-02-03 11:47:53.225986+01 | 1486118873.22599 | pgbench_branches_pkey |            16384
 2017-02-03 11:47:53.225986+01 | 1486118873.22599 | pgbench_tellers_pkey  |            40960
 2017-02-03 11:47:53.225986+01 | 1486118873.22599 | pgbench_accounts_pkey |        224641024

 2017-02-03 11:47:54.323895+01 | 1486118874.32389 | pgbench_branches_pkey |            16384
 2017-02-03 11:47:54.323895+01 | 1486118874.32389 | pgbench_tellers_pkey  |            40960
 2017-02-03 11:47:54.323895+01 | 1486118874.32389 | pgbench_accounts_pkey |        224641024

 2017-02-03 11:47:55.415361+01 | 1486118875.41536 | pgbench_branches_pkey |            16384
 2017-02-03 11:47:55.415361+01 | 1486118875.41536 | pgbench_tellers_pkey  |            40960
 2017-02-03 11:47:55.415361+01 | 1486118875.41536 | pgbench_accounts_pkey |        224641024

 2017-02-03 11:47:56.501817+01 | 1486118876.50182 | pgbench_branches_pkey |            16384
 2017-02-03 11:47:56.501817+01 | 1486118876.50182 | pgbench_tellers_pkey  |            40960
 2017-02-03 11:47:56.501817+01 | 1486118876.50182 | pgbench_accounts_pkey |        224641024

 2017-02-03 11:47:57.597222+01 | 1486118877.59722 | pgbench_branches_pkey |            16384
 2017-02-03 11:47:57.597222+01 | 1486118877.59722 | pgbench_tellers_pkey  |            40960
 2017-02-03 11:47:57.597222+01 | 1486118877.59722 | pgbench_accounts_pkey |        224641024

 2017-02-03 11:47:58.685988+01 | 1486118878.68599 | pgbench_branches_pkey |            16384
 2017-02-03 11:47:58.685988+01 | 1486118878.68599 | pgbench_tellers_pkey  |            40960
 2017-02-03 11:47:58.685988+01 | 1486118878.68599 | pgbench_accounts_pkey |        224641024

 2017-02-03 11:47:59.779424+01 | 1486118879.77942 | pgbench_branches_pkey |            16384
 2017-02-03 11:47:59.779424+01 | 1486118879.77942 | pgbench_tellers_pkey  |            40960
 2017-02-03 11:47:59.779424+01 | 1486118879.77942 | pgbench_accounts_pkey |        224641024

 2017-02-03 11:48:00.881124+01 | 1486118880.88112 | pgbench_branches_pkey |            16384
 2017-02-03 11:48:00.881124+01 | 1486118880.88112 | pgbench_tellers_pkey  |            40960
 2017-02-03 11:48:00.881124+01 | 1486118880.88112 | pgbench_accounts_pkey |        224641024

 2017-02-03 11:48:01.977563+01 | 1486118881.97756 | pgbench_branches_pkey |            16384
 2017-02-03 11:48:01.977563+01 | 1486118881.97756 | pgbench_tellers_pkey  |            40960
 2017-02-03 11:48:01.977563+01 | 1486118881.97756 | pgbench_accounts_pkey |        224641024

 2017-02-03 11:48:03.102539+01 | 1486118883.10254 | pgbench_branches_pkey |            16384
 2017-02-03 11:48:03.102539+01 | 1486118883.10254 | pgbench_tellers_pkey  |            40960
 2017-02-03 11:48:03.102539+01 | 1486118883.10254 | pgbench_accounts_pkey |        224641024

 2017-02-03 11:48:04.217565+01 | 1486118884.21757 | pgbench_branches_pkey |            16384
 2017-02-03 11:48:04.217565+01 | 1486118884.21757 | pgbench_tellers_pkey  |            40960
 2017-02-03 11:48:04.217565+01 | 1486118884.21757 | pgbench_accounts_pkey |        224641024

 2017-02-03 11:48:05.309077+01 | 1486118885.30908 | pgbench_branches_pkey |            16384
 2017-02-03 11:48:05.309077+01 | 1486118885.30908 | pgbench_tellers_pkey  |            40960
 2017-02-03 11:48:05.309077+01 | 1486118885.30908 | pgbench_accounts_pkey |        224641024

 2017-02-03 11:48:06.397527+01 | 1486118886.39753 | pgbench_branches_pkey |            16384
 2017-02-03 11:48:06.397527+01 | 1486118886.39753 | pgbench_tellers_pkey  |            40960
 2017-02-03 11:48:06.397527+01 | 1486118886.39753 | pgbench_accounts_pkey |        224641024

 2017-02-03 11:48:07.479018+01 | 1486118887.47902 | pgbench_branches_pkey |            16384
 2017-02-03 11:48:07.479018+01 | 1486118887.47902 | pgbench_tellers_pkey  |            40960
 2017-02-03 11:48:07.479018+01 | 1486118887.47902 | pgbench_accounts_pkey |        224641024

 2017-02-03 11:48:08.566624+01 | 1486118888.56662 | pgbench_branches_pkey |            16384
 2017-02-03 11:48:08.566624+01 | 1486118888.56662 | pgbench_tellers_pkey  |            40960
 2017-02-03 11:48:08.566624+01 | 1486118888.56662 | pgbench_accounts_pkey |        224641024

 2017-02-03 11:48:09.661418+01 | 1486118889.66142 | pgbench_branches_pkey |            16384
 2017-02-03 11:48:09.661418+01 | 1486118889.66142 | pgbench_tellers_pkey  |            40960
 2017-02-03 11:48:09.661418+01 | 1486118889.66142 | pgbench_accounts_pkey |        224641024

 2017-02-03 11:48:10.770961+01 | 1486118890.77096 | pgbench_branches_pkey |            16384
 2017-02-03 11:48:10.770961+01 | 1486118890.77096 | pgbench_tellers_pkey  |            40960
 2017-02-03 11:48:10.770961+01 | 1486118890.77096 | pgbench_accounts_pkey |        224641024

 2017-02-03 11:48:11.867733+01 | 1486118891.86773 | pgbench_branches_pkey |            16384
 2017-02-03 11:48:11.867733+01 | 1486118891.86773 | pgbench_tellers_pkey  |            40960
 2017-02-03 11:48:11.867733+01 | 1486118891.86773 | pgbench_accounts_pkey |        224641024

 2017-02-03 11:48:12.970506+01 | 1486118892.97051 | pgbench_branches_pkey |            16384
 2017-02-03 11:48:12.970506+01 | 1486118892.97051 | pgbench_tellers_pkey  |            40960
 2017-02-03 11:48:12.970506+01 | 1486118892.97051 | pgbench_accounts_pkey |        224641024

 2017-02-03 11:48:14.108431+01 | 1486118894.10843 | pgbench_branches_pkey |            16384
 2017-02-03 11:48:14.108431+01 | 1486118894.10843 | pgbench_tellers_pkey  |            40960
 2017-02-03 11:48:14.108431+01 | 1486118894.10843 | pgbench_accounts_pkey |        224641024

 2017-02-03 11:48:15.247627+01 | 1486118895.24763 | pgbench_branches_pkey |            16384
 2017-02-03 11:48:15.247627+01 | 1486118895.24763 | pgbench_tellers_pkey  |            40960
 2017-02-03 11:48:15.247627+01 | 1486118895.24763 | pgbench_accounts_pkey |        224641024

 2017-02-03 11:48:16.34983+01 | 1486118896.34983 | pgbench_branches_pkey |            16384
 2017-02-03 11:48:16.34983+01 | 1486118896.34983 | pgbench_tellers_pkey  |            40960
 2017-02-03 11:48:16.34983+01 | 1486118896.34983 | pgbench_accounts_pkey |        224641024

 2017-02-03 11:48:17.449875+01 | 1486118897.44988 | pgbench_branches_pkey |            16384
 2017-02-03 11:48:17.449875+01 | 1486118897.44988 | pgbench_tellers_pkey  |            40960
 2017-02-03 11:48:17.449875+01 | 1486118897.44988 | pgbench_accounts_pkey |        224641024

 2017-02-03 11:48:18.541786+01 | 1486118898.54179 | pgbench_branches_pkey |            16384
 2017-02-03 11:48:18.541786+01 | 1486118898.54179 | pgbench_tellers_pkey  |            40960
 2017-02-03 11:48:18.541786+01 | 1486118898.54179 | pgbench_accounts_pkey |        224641024

 2017-02-03 11:48:19.635838+01 | 1486118899.63584 | pgbench_branches_pkey |            16384
 2017-02-03 11:48:19.635838+01 | 1486118899.63584 | pgbench_tellers_pkey  |            40960
 2017-02-03 11:48:19.635838+01 | 1486118899.63584 | pgbench_accounts_pkey |        224641024

 2017-02-03 11:48:20.723685+01 | 1486118900.72369 | pgbench_branches_pkey |            16384
 2017-02-03 11:48:20.723685+01 | 1486118900.72369 | pgbench_tellers_pkey  |            40960
 2017-02-03 11:48:20.723685+01 | 1486118900.72369 | pgbench_accounts_pkey |        224641024

 2017-02-03 11:48:21.818042+01 | 1486118901.81804 | pgbench_branches_pkey |            16384
 2017-02-03 11:48:21.818042+01 | 1486118901.81804 | pgbench_tellers_pkey  |            40960
 2017-02-03 11:48:21.818042+01 | 1486118901.81804 | pgbench_accounts_pkey |        224641024

 2017-02-03 11:48:22.918128+01 | 1486118902.91813 | pgbench_branches_pkey |            16384
 2017-02-03 11:48:22.918128+01 | 1486118902.91813 | pgbench_tellers_pkey  |            40960
 2017-02-03 11:48:22.918128+01 | 1486118902.91813 | pgbench_accounts_pkey |        224641024

 2017-02-03 11:48:24.04273+01 | 1486118904.04273 | pgbench_branches_pkey |            16384
 2017-02-03 11:48:24.04273+01 | 1486118904.04273 | pgbench_tellers_pkey  |            40960
 2017-02-03 11:48:24.04273+01 | 1486118904.04273 | pgbench_accounts_pkey |        224641024

 2017-02-03 11:48:25.195099+01 | 1486118905.1951 | pgbench_branches_pkey |            16384
 2017-02-03 11:48:25.195099+01 | 1486118905.1951 | pgbench_tellers_pkey  |            40960
 2017-02-03 11:48:25.195099+01 | 1486118905.1951 | pgbench_accounts_pkey |        224641024

 2017-02-03 11:48:26.311067+01 | 1486118906.31107 | pgbench_branches_pkey |            16384
 2017-02-03 11:48:26.311067+01 | 1486118906.31107 | pgbench_tellers_pkey  |            40960
 2017-02-03 11:48:26.311067+01 | 1486118906.31107 | pgbench_accounts_pkey |        224641024

 2017-02-03 11:48:27.399088+01 | 1486118907.39909 | pgbench_branches_pkey |            16384
 2017-02-03 11:48:27.399088+01 | 1486118907.39909 | pgbench_tellers_pkey  |            40960
 2017-02-03 11:48:27.399088+01 | 1486118907.39909 | pgbench_accounts_pkey |        224641024

 2017-02-03 11:48:28.483275+01 | 1486118908.48327 | pgbench_branches_pkey |            16384
 2017-02-03 11:48:28.483275+01 | 1486118908.48327 | pgbench_tellers_pkey  |            40960
 2017-02-03 11:48:28.483275+01 | 1486118908.48327 | pgbench_accounts_pkey |        224641024

 2017-02-03 11:48:29.571163+01 | 1486118909.57116 | pgbench_branches_pkey |            16384
 2017-02-03 11:48:29.571163+01 | 1486118909.57116 | pgbench_tellers_pkey  |            40960
 2017-02-03 11:48:29.571163+01 | 1486118909.57116 | pgbench_accounts_pkey |        224641024

 2017-02-03 11:48:30.666249+01 | 1486118910.66625 | pgbench_branches_pkey |            16384
 2017-02-03 11:48:30.666249+01 | 1486118910.66625 | pgbench_tellers_pkey  |            40960
 2017-02-03 11:48:30.666249+01 | 1486118910.66625 | pgbench_accounts_pkey |        224641024

 2017-02-03 11:48:31.759621+01 | 1486118911.75962 | pgbench_branches_pkey |            16384
 2017-02-03 11:48:31.759621+01 | 1486118911.75962 | pgbench_tellers_pkey  |            40960
 2017-02-03 11:48:31.759621+01 | 1486118911.75962 | pgbench_accounts_pkey |        224641024

 2017-02-03 11:48:32.851216+01 | 1486118912.85122 | pgbench_branches_pkey |            16384
 2017-02-03 11:48:32.851216+01 | 1486118912.85122 | pgbench_tellers_pkey  |            40960
 2017-02-03 11:48:32.851216+01 | 1486118912.85122 | pgbench_accounts_pkey |        224641024

 2017-02-03 11:48:33.944364+01 | 1486118913.94436 | pgbench_branches_pkey |            16384
 2017-02-03 11:48:33.944364+01 | 1486118913.94436 | pgbench_tellers_pkey  |            40960
 2017-02-03 11:48:33.944364+01 | 1486118913.94436 | pgbench_accounts_pkey |        224641024

 2017-02-03 11:48:35.05442+01 | 1486118915.05442 | pgbench_branches_pkey |            16384
 2017-02-03 11:48:35.05442+01 | 1486118915.05442 | pgbench_tellers_pkey  |            40960
 2017-02-03 11:48:35.05442+01 | 1486118915.05442 | pgbench_accounts_pkey |        224641024

 2017-02-03 11:48:36.189472+01 | 1486118916.18947 | pgbench_branches_pkey |            16384
 2017-02-03 11:48:36.189472+01 | 1486118916.18947 | pgbench_tellers_pkey  |            40960
 2017-02-03 11:48:36.189472+01 | 1486118916.18947 | pgbench_accounts_pkey |        224641024

 2017-02-03 11:48:37.30113+01 | 1486118917.30113 | pgbench_branches_pkey |            16384
 2017-02-03 11:48:37.30113+01 | 1486118917.30113 | pgbench_tellers_pkey  |            40960
 2017-02-03 11:48:37.30113+01 | 1486118917.30113 | pgbench_accounts_pkey |        224641024

 2017-02-03 11:48:38.410772+01 | 1486118918.41077 | pgbench_branches_pkey |            16384
 2017-02-03 11:48:38.410772+01 | 1486118918.41077 | pgbench_tellers_pkey  |            40960
 2017-02-03 11:48:38.410772+01 | 1486118918.41077 | pgbench_accounts_pkey |        224641024

 2017-02-03 11:48:39.495981+01 | 1486118919.49598 | pgbench_branches_pkey |            16384
 2017-02-03 11:48:39.495981+01 | 1486118919.49598 | pgbench_tellers_pkey  |            40960
 2017-02-03 11:48:39.495981+01 | 1486118919.49598 | pgbench_accounts_pkey |        224641024

 2017-02-03 11:48:40.579889+01 | 1486118920.57989 | pgbench_branches_pkey |            16384
 2017-02-03 11:48:40.579889+01 | 1486118920.57989 | pgbench_tellers_pkey  |            40960
 2017-02-03 11:48:40.579889+01 | 1486118920.57989 | pgbench_accounts_pkey |        224641024

 2017-02-03 11:48:41.667586+01 | 1486118921.66759 | pgbench_branches_pkey |            16384
 2017-02-03 11:48:41.667586+01 | 1486118921.66759 | pgbench_tellers_pkey  |            40960
 2017-02-03 11:48:41.667586+01 | 1486118921.66759 | pgbench_accounts_pkey |        224641024

 2017-02-03 11:48:42.761042+01 | 1486118922.76104 | pgbench_branches_pkey |            16384
 2017-02-03 11:48:42.761042+01 | 1486118922.76104 | pgbench_tellers_pkey  |            40960
 2017-02-03 11:48:42.761042+01 | 1486118922.76104 | pgbench_accounts_pkey |        224641024

 2017-02-03 11:48:43.852971+01 | 1486118923.85297 | pgbench_branches_pkey |            16384
 2017-02-03 11:48:43.852971+01 | 1486118923.85297 | pgbench_tellers_pkey  |            40960
 2017-02-03 11:48:43.852971+01 | 1486118923.85297 | pgbench_accounts_pkey |        224641024

 2017-02-03 11:48:44.940926+01 | 1486118924.94093 | pgbench_branches_pkey |            16384
 2017-02-03 11:48:44.940926+01 | 1486118924.94093 | pgbench_tellers_pkey  |            40960
 2017-02-03 11:48:44.940926+01 | 1486118924.94093 | pgbench_accounts_pkey |        224641024

 2017-02-03 11:48:46.052373+01 | 1486118926.05237 | pgbench_branches_pkey |            16384
 2017-02-03 11:48:46.052373+01 | 1486118926.05237 | pgbench_tellers_pkey  |            40960
 2017-02-03 11:48:46.052373+01 | 1486118926.05237 | pgbench_accounts_pkey |        224641024

 2017-02-03 11:48:47.180921+01 | 1486118927.18092 | pgbench_branches_pkey |            16384
 2017-02-03 11:48:47.180921+01 | 1486118927.18092 | pgbench_tellers_pkey  |            40960
 2017-02-03 11:48:47.180921+01 | 1486118927.18092 | pgbench_accounts_pkey |        224641024

 2017-02-03 11:48:48.324604+01 | 1486118928.3246 | pgbench_branches_pkey |            16384
 2017-02-03 11:48:48.324604+01 | 1486118928.3246 | pgbench_tellers_pkey  |            40960
 2017-02-03 11:48:48.324604+01 | 1486118928.3246 | pgbench_accounts_pkey |        224641024

 2017-02-03 11:48:49.437264+01 | 1486118929.43726 | pgbench_branches_pkey |            16384
 2017-02-03 11:48:49.437264+01 | 1486118929.43726 | pgbench_tellers_pkey  |            40960
 2017-02-03 11:48:49.437264+01 | 1486118929.43726 | pgbench_accounts_pkey |        224641024

 2017-02-03 11:48:50.525535+01 | 1486118930.52554 | pgbench_branches_pkey |            16384
 2017-02-03 11:48:50.525535+01 | 1486118930.52554 | pgbench_tellers_pkey  |            40960
 2017-02-03 11:48:50.525535+01 | 1486118930.52554 | pgbench_accounts_pkey |        224641024

 2017-02-03 11:48:51.612986+01 | 1486118931.61299 | pgbench_branches_pkey |            16384
 2017-02-03 11:48:51.612986+01 | 1486118931.61299 | pgbench_tellers_pkey  |            40960
 2017-02-03 11:48:51.612986+01 | 1486118931.61299 | pgbench_accounts_pkey |        224641024

 2017-02-03 11:48:52.70134+01 | 1486118932.70134 | pgbench_branches_pkey |            16384
 2017-02-03 11:48:52.70134+01 | 1486118932.70134 | pgbench_tellers_pkey  |            40960
 2017-02-03 11:48:52.70134+01 | 1486118932.70134 | pgbench_accounts_pkey |        224641024

 2017-02-03 11:48:53.799974+01 | 1486118933.79997 | pgbench_branches_pkey |            16384
 2017-02-03 11:48:53.799974+01 | 1486118933.79997 | pgbench_tellers_pkey  |            40960
 2017-02-03 11:48:53.799974+01 | 1486118933.79997 | pgbench_accounts_pkey |        224641024

 2017-02-03 11:48:54.898073+01 | 1486118934.89807 | pgbench_branches_pkey |            16384
 2017-02-03 11:48:54.898073+01 | 1486118934.89807 | pgbench_tellers_pkey  |            40960
 2017-02-03 11:48:54.898073+01 | 1486118934.89807 | pgbench_accounts_pkey |        224641024

 2017-02-03 11:48:56.025377+01 | 1486118936.02538 | pgbench_branches_pkey |            16384
 2017-02-03 11:48:56.025377+01 | 1486118936.02538 | pgbench_tellers_pkey  |            40960
 2017-02-03 11:48:56.025377+01 | 1486118936.02538 | pgbench_accounts_pkey |        224641024

 2017-02-03 11:48:57.16098+01 | 1486118937.16098 | pgbench_branches_pkey |            16384
 2017-02-03 11:48:57.16098+01 | 1486118937.16098 | pgbench_tellers_pkey  |            40960
 2017-02-03 11:48:57.16098+01 | 1486118937.16098 | pgbench_accounts_pkey |        224641024

 2017-02-03 11:48:58.281002+01 | 1486118938.281 | pgbench_branches_pkey |            16384
 2017-02-03 11:48:58.281002+01 | 1486118938.281 | pgbench_tellers_pkey  |            40960
 2017-02-03 11:48:58.281002+01 | 1486118938.281 | pgbench_accounts_pkey |        224641024

 2017-02-03 11:48:59.382766+01 | 1486118939.38277 | pgbench_branches_pkey |            16384
 2017-02-03 11:48:59.382766+01 | 1486118939.38277 | pgbench_tellers_pkey  |            40960
 2017-02-03 11:48:59.382766+01 | 1486118939.38277 | pgbench_accounts_pkey |        224641024

 2017-02-03 11:49:00.490081+01 | 1486118940.49008 | pgbench_branches_pkey |            16384
 2017-02-03 11:49:00.490081+01 | 1486118940.49008 | pgbench_tellers_pkey  |            40960
 2017-02-03 11:49:00.490081+01 | 1486118940.49008 | pgbench_accounts_pkey |        224641024

 2017-02-03 11:49:01.571528+01 | 1486118941.57153 | pgbench_branches_pkey |            16384
 2017-02-03 11:49:01.571528+01 | 1486118941.57153 | pgbench_tellers_pkey  |            40960
 2017-02-03 11:49:01.571528+01 | 1486118941.57153 | pgbench_accounts_pkey |        224641024

 2017-02-03 11:49:02.652765+01 | 1486118942.65277 | pgbench_branches_pkey |            16384
 2017-02-03 11:49:02.652765+01 | 1486118942.65277 | pgbench_tellers_pkey  |            40960
 2017-02-03 11:49:02.652765+01 | 1486118942.65277 | pgbench_accounts_pkey |        224641024

 2017-02-03 11:49:03.743388+01 | 1486118943.74339 | pgbench_branches_pkey |            16384
 2017-02-03 11:49:03.743388+01 | 1486118943.74339 | pgbench_tellers_pkey  |            40960
 2017-02-03 11:49:03.743388+01 | 1486118943.74339 | pgbench_accounts_pkey |        224641024

 2017-02-03 11:49:04.834115+01 | 1486118944.83412 | pgbench_branches_pkey |            16384
 2017-02-03 11:49:04.834115+01 | 1486118944.83412 | pgbench_tellers_pkey  |            40960
 2017-02-03 11:49:04.834115+01 | 1486118944.83412 | pgbench_accounts_pkey |        224641024

 2017-02-03 11:49:05.923966+01 | 1486118945.92397 | pgbench_branches_pkey |            16384
 2017-02-03 11:49:05.923966+01 | 1486118945.92397 | pgbench_tellers_pkey  |            40960
 2017-02-03 11:49:05.923966+01 | 1486118945.92397 | pgbench_accounts_pkey |        224641024

 2017-02-03 11:49:07.020034+01 | 1486118947.02003 | pgbench_branches_pkey |            16384
 2017-02-03 11:49:07.020034+01 | 1486118947.02003 | pgbench_tellers_pkey  |            40960
 2017-02-03 11:49:07.020034+01 | 1486118947.02003 | pgbench_accounts_pkey |        224641024

 2017-02-03 11:49:08.14469+01 | 1486118948.14469 | pgbench_branches_pkey |            16384
 2017-02-03 11:49:08.14469+01 | 1486118948.14469 | pgbench_tellers_pkey  |            40960
 2017-02-03 11:49:08.14469+01 | 1486118948.14469 | pgbench_accounts_pkey |        224641024

 2017-02-03 11:49:09.264118+01 | 1486118949.26412 | pgbench_branches_pkey |            16384
 2017-02-03 11:49:09.264118+01 | 1486118949.26412 | pgbench_tellers_pkey  |            40960
 2017-02-03 11:49:09.264118+01 | 1486118949.26412 | pgbench_accounts_pkey |        224641024

 2017-02-03 11:49:10.366831+01 | 1486118950.36683 | pgbench_branches_pkey |            16384
 2017-02-03 11:49:10.366831+01 | 1486118950.36683 | pgbench_tellers_pkey  |            40960
 2017-02-03 11:49:10.366831+01 | 1486118950.36683 | pgbench_accounts_pkey |        224641024

 2017-02-03 11:49:11.478132+01 | 1486118951.47813 | pgbench_branches_pkey |            16384
 2017-02-03 11:49:11.478132+01 | 1486118951.47813 | pgbench_tellers_pkey  |            40960
 2017-02-03 11:49:11.478132+01 | 1486118951.47813 | pgbench_accounts_pkey |        224641024

 2017-02-03 11:49:12.568576+01 | 1486118952.56858 | pgbench_branches_pkey |            16384
 2017-02-03 11:49:12.568576+01 | 1486118952.56858 | pgbench_tellers_pkey  |            40960
 2017-02-03 11:49:12.568576+01 | 1486118952.56858 | pgbench_accounts_pkey |        224641024

 2017-02-03 11:49:13.65489+01 | 1486118953.65489 | pgbench_branches_pkey |            16384
 2017-02-03 11:49:13.65489+01 | 1486118953.65489 | pgbench_tellers_pkey  |            40960
 2017-02-03 11:49:13.65489+01 | 1486118953.65489 | pgbench_accounts_pkey |        224641024

 2017-02-03 11:49:14.746799+01 | 1486118954.7468 | pgbench_branches_pkey |            16384
 2017-02-03 11:49:14.746799+01 | 1486118954.7468 | pgbench_tellers_pkey  |            40960
 2017-02-03 11:49:14.746799+01 | 1486118954.7468 | pgbench_accounts_pkey |        224641024

 2017-02-03 11:49:15.833107+01 | 1486118955.83311 | pgbench_branches_pkey |            16384
 2017-02-03 11:49:15.833107+01 | 1486118955.83311 | pgbench_tellers_pkey  |            40960
 2017-02-03 11:49:15.833107+01 | 1486118955.83311 | pgbench_accounts_pkey |        224641024

 2017-02-03 11:49:16.93728+01 | 1486118956.93728 | pgbench_branches_pkey |            16384
 2017-02-03 11:49:16.93728+01 | 1486118956.93728 | pgbench_tellers_pkey  |            40960
 2017-02-03 11:49:16.93728+01 | 1486118956.93728 | pgbench_accounts_pkey |        224641024

 2017-02-03 11:49:18.03427+01 | 1486118958.03427 | pgbench_branches_pkey |            16384
 2017-02-03 11:49:18.03427+01 | 1486118958.03427 | pgbench_tellers_pkey  |            40960
 2017-02-03 11:49:18.03427+01 | 1486118958.03427 | pgbench_accounts_pkey |        224641024

 2017-02-03 11:49:19.136752+01 | 1486118959.13675 | pgbench_branches_pkey |            16384
 2017-02-03 11:49:19.136752+01 | 1486118959.13675 | pgbench_tellers_pkey  |            40960
 2017-02-03 11:49:19.136752+01 | 1486118959.13675 | pgbench_accounts_pkey |        224641024

 2017-02-03 11:49:20.257975+01 | 1486118960.25798 | pgbench_branches_pkey |            16384
 2017-02-03 11:49:20.257975+01 | 1486118960.25798 | pgbench_tellers_pkey  |            40960
 2017-02-03 11:49:20.257975+01 | 1486118960.25798 | pgbench_accounts_pkey |        224641024

 2017-02-03 11:49:21.378365+01 | 1486118961.37837 | pgbench_branches_pkey |            16384
 2017-02-03 11:49:21.378365+01 | 1486118961.37837 | pgbench_tellers_pkey  |            40960
 2017-02-03 11:49:21.378365+01 | 1486118961.37837 | pgbench_accounts_pkey |        224641024

 2017-02-03 11:49:22.488186+01 | 1486118962.48819 | pgbench_branches_pkey |            16384
 2017-02-03 11:49:22.488186+01 | 1486118962.48819 | pgbench_tellers_pkey  |            40960
 2017-02-03 11:49:22.488186+01 | 1486118962.48819 | pgbench_accounts_pkey |        224641024

 2017-02-03 11:49:23.583234+01 | 1486118963.58323 | pgbench_branches_pkey |            16384
 2017-02-03 11:49:23.583234+01 | 1486118963.58323 | pgbench_tellers_pkey  |            40960
 2017-02-03 11:49:23.583234+01 | 1486118963.58323 | pgbench_accounts_pkey |        224641024

 2017-02-03 11:49:24.672949+01 | 1486118964.67295 | pgbench_branches_pkey |            16384
 2017-02-03 11:49:24.672949+01 | 1486118964.67295 | pgbench_tellers_pkey  |            40960
 2017-02-03 11:49:24.672949+01 | 1486118964.67295 | pgbench_accounts_pkey |        224641024

 2017-02-03 11:49:25.757367+01 | 1486118965.75737 | pgbench_branches_pkey |            16384
 2017-02-03 11:49:25.757367+01 | 1486118965.75737 | pgbench_tellers_pkey  |            40960
 2017-02-03 11:49:25.757367+01 | 1486118965.75737 | pgbench_accounts_pkey |        224641024

 2017-02-03 11:49:26.848601+01 | 1486118966.8486 | pgbench_branches_pkey |            16384
 2017-02-03 11:49:26.848601+01 | 1486118966.8486 | pgbench_tellers_pkey  |            40960
 2017-02-03 11:49:26.848601+01 | 1486118966.8486 | pgbench_accounts_pkey |        224641024

 2017-02-03 11:49:27.942815+01 | 1486118967.94282 | pgbench_branches_pkey |            16384
 2017-02-03 11:49:27.942815+01 | 1486118967.94282 | pgbench_tellers_pkey  |            40960
 2017-02-03 11:49:27.942815+01 | 1486118967.94282 | pgbench_accounts_pkey |        224641024

 2017-02-03 11:49:29.05112+01 | 1486118969.05112 | pgbench_branches_pkey |            16384
 2017-02-03 11:49:29.05112+01 | 1486118969.05112 | pgbench_tellers_pkey  |            40960
 2017-02-03 11:49:29.05112+01 | 1486118969.05112 | pgbench_accounts_pkey |        224641024

 2017-02-03 11:49:30.151792+01 | 1486118970.15179 | pgbench_branches_pkey |            16384
 2017-02-03 11:49:30.151792+01 | 1486118970.15179 | pgbench_tellers_pkey  |            40960
 2017-02-03 11:49:30.151792+01 | 1486118970.15179 | pgbench_accounts_pkey |        224641024

 2017-02-03 11:49:31.254606+01 | 1486118971.25461 | pgbench_branches_pkey |            16384
 2017-02-03 11:49:31.254606+01 | 1486118971.25461 | pgbench_tellers_pkey  |            40960
 2017-02-03 11:49:31.254606+01 | 1486118971.25461 | pgbench_accounts_pkey |        224641024

 2017-02-03 11:49:32.362259+01 | 1486118972.36226 | pgbench_branches_pkey |            16384
 2017-02-03 11:49:32.362259+01 | 1486118972.36226 | pgbench_tellers_pkey  |            40960
 2017-02-03 11:49:32.362259+01 | 1486118972.36226 | pgbench_accounts_pkey |        224641024

 2017-02-03 11:49:33.469933+01 | 1486118973.46993 | pgbench_branches_pkey |            16384
 2017-02-03 11:49:33.469933+01 | 1486118973.46993 | pgbench_tellers_pkey  |            40960
 2017-02-03 11:49:33.469933+01 | 1486118973.46993 | pgbench_accounts_pkey |        224641024

 2017-02-03 11:49:34.563572+01 | 1486118974.56357 | pgbench_branches_pkey |            16384
 2017-02-03 11:49:34.563572+01 | 1486118974.56357 | pgbench_tellers_pkey  |            40960
 2017-02-03 11:49:34.563572+01 | 1486118974.56357 | pgbench_accounts_pkey |        224641024

 2017-02-03 11:49:35.658739+01 | 1486118975.65874 | pgbench_branches_pkey |            16384
 2017-02-03 11:49:35.658739+01 | 1486118975.65874 | pgbench_tellers_pkey  |            40960
 2017-02-03 11:49:35.658739+01 | 1486118975.65874 | pgbench_accounts_pkey |        224641024

 2017-02-03 11:49:36.748069+01 | 1486118976.74807 | pgbench_branches_pkey |            16384
 2017-02-03 11:49:36.748069+01 | 1486118976.74807 | pgbench_tellers_pkey  |            40960
 2017-02-03 11:49:36.748069+01 | 1486118976.74807 | pgbench_accounts_pkey |        224641024

 2017-02-03 11:49:37.838257+01 | 1486118977.83826 | pgbench_branches_pkey |            16384
 2017-02-03 11:49:37.838257+01 | 1486118977.83826 | pgbench_tellers_pkey  |            40960
 2017-02-03 11:49:37.838257+01 | 1486118977.83826 | pgbench_accounts_pkey |        224641024

 2017-02-03 11:49:38.920532+01 | 1486118978.92053 | pgbench_branches_pkey |            16384
 2017-02-03 11:49:38.920532+01 | 1486118978.92053 | pgbench_tellers_pkey  |            40960
 2017-02-03 11:49:38.920532+01 | 1486118978.92053 | pgbench_accounts_pkey |        224641024

 2017-02-03 11:49:40.01142+01 | 1486118980.01142 | pgbench_branches_pkey |            16384
 2017-02-03 11:49:40.01142+01 | 1486118980.01142 | pgbench_tellers_pkey  |            40960
 2017-02-03 11:49:40.01142+01 | 1486118980.01142 | pgbench_accounts_pkey |        224641024

 2017-02-03 11:49:41.103052+01 | 1486118981.10305 | pgbench_branches_pkey |            16384
 2017-02-03 11:49:41.103052+01 | 1486118981.10305 | pgbench_tellers_pkey  |            40960
 2017-02-03 11:49:41.103052+01 | 1486118981.10305 | pgbench_accounts_pkey |        224641024

 2017-02-03 11:49:42.203955+01 | 1486118982.20395 | pgbench_branches_pkey |            16384
 2017-02-03 11:49:42.203955+01 | 1486118982.20395 | pgbench_tellers_pkey  |            40960
 2017-02-03 11:49:42.203955+01 | 1486118982.20395 | pgbench_accounts_pkey |        224641024

 2017-02-03 11:49:43.313567+01 | 1486118983.31357 | pgbench_branches_pkey |            16384
 2017-02-03 11:49:43.313567+01 | 1486118983.31357 | pgbench_tellers_pkey  |            40960
 2017-02-03 11:49:43.313567+01 | 1486118983.31357 | pgbench_accounts_pkey |        224641024

 2017-02-03 11:49:44.415623+01 | 1486118984.41562 | pgbench_branches_pkey |            16384
 2017-02-03 11:49:44.415623+01 | 1486118984.41562 | pgbench_tellers_pkey  |            40960
 2017-02-03 11:49:44.415623+01 | 1486118984.41562 | pgbench_accounts_pkey |        224641024

 2017-02-03 11:49:45.534386+01 | 1486118985.53439 | pgbench_branches_pkey |            16384
 2017-02-03 11:49:45.534386+01 | 1486118985.53439 | pgbench_tellers_pkey  |            40960
 2017-02-03 11:49:45.534386+01 | 1486118985.53439 | pgbench_accounts_pkey |        224641024

 2017-02-03 11:49:46.640999+01 | 1486118986.641 | pgbench_branches_pkey |            16384
 2017-02-03 11:49:46.640999+01 | 1486118986.641 | pgbench_tellers_pkey  |            40960
 2017-02-03 11:49:46.640999+01 | 1486118986.641 | pgbench_accounts_pkey |        224641024

 2017-02-03 11:49:47.738947+01 | 1486118987.73895 | pgbench_branches_pkey |            16384
 2017-02-03 11:49:47.738947+01 | 1486118987.73895 | pgbench_tellers_pkey  |            40960
 2017-02-03 11:49:47.738947+01 | 1486118987.73895 | pgbench_accounts_pkey |        224641024

 2017-02-03 11:49:48.825412+01 | 1486118988.82541 | pgbench_branches_pkey |            16384
 2017-02-03 11:49:48.825412+01 | 1486118988.82541 | pgbench_tellers_pkey  |            40960
 2017-02-03 11:49:48.825412+01 | 1486118988.82541 | pgbench_accounts_pkey |        224641024

 2017-02-03 11:49:49.912865+01 | 1486118989.91286 | pgbench_branches_pkey |            16384
 2017-02-03 11:49:49.912865+01 | 1486118989.91286 | pgbench_tellers_pkey  |            40960
 2017-02-03 11:49:49.912865+01 | 1486118989.91286 | pgbench_accounts_pkey |        224641024

 2017-02-03 11:49:50.997947+01 | 1486118990.99795 | pgbench_branches_pkey |            16384
 2017-02-03 11:49:50.997947+01 | 1486118990.99795 | pgbench_tellers_pkey  |            40960
 2017-02-03 11:49:50.997947+01 | 1486118990.99795 | pgbench_accounts_pkey |        224641024

 2017-02-03 11:49:52.084796+01 | 1486118992.0848 | pgbench_branches_pkey |            16384
 2017-02-03 11:49:52.084796+01 | 1486118992.0848 | pgbench_tellers_pkey  |            40960
 2017-02-03 11:49:52.084796+01 | 1486118992.0848 | pgbench_accounts_pkey |        224641024

 2017-02-03 11:49:53.175608+01 | 1486118993.17561 | pgbench_branches_pkey |            16384
 2017-02-03 11:49:53.175608+01 | 1486118993.17561 | pgbench_tellers_pkey  |            40960
 2017-02-03 11:49:53.175608+01 | 1486118993.17561 | pgbench_accounts_pkey |        224641024

 2017-02-03 11:49:54.280085+01 | 1486118994.28009 | pgbench_branches_pkey |            16384
 2017-02-03 11:49:54.280085+01 | 1486118994.28009 | pgbench_tellers_pkey  |            40960
 2017-02-03 11:49:54.280085+01 | 1486118994.28009 | pgbench_accounts_pkey |        224641024

 2017-02-03 11:49:55.383777+01 | 1486118995.38378 | pgbench_branches_pkey |            16384
 2017-02-03 11:49:55.383777+01 | 1486118995.38378 | pgbench_tellers_pkey  |            40960
 2017-02-03 11:49:55.383777+01 | 1486118995.38378 | pgbench_accounts_pkey |        224641024

 2017-02-03 11:49:56.473149+01 | 1486118996.47315 | pgbench_branches_pkey |            16384
 2017-02-03 11:49:56.473149+01 | 1486118996.47315 | pgbench_tellers_pkey  |            40960
 2017-02-03 11:49:56.473149+01 | 1486118996.47315 | pgbench_accounts_pkey |        224641024

 2017-02-03 11:49:57.589148+01 | 1486118997.58915 | pgbench_branches_pkey |            16384
 2017-02-03 11:49:57.589148+01 | 1486118997.58915 | pgbench_tellers_pkey  |            40960
 2017-02-03 11:49:57.589148+01 | 1486118997.58915 | pgbench_accounts_pkey |        224641024

 2017-02-03 11:49:58.70013+01 | 1486118998.70013 | pgbench_branches_pkey |            16384
 2017-02-03 11:49:58.70013+01 | 1486118998.70013 | pgbench_tellers_pkey  |            40960
 2017-02-03 11:49:58.70013+01 | 1486118998.70013 | pgbench_accounts_pkey |        224641024

 2017-02-03 11:49:59.791402+01 | 1486118999.7914 | pgbench_branches_pkey |            16384
 2017-02-03 11:49:59.791402+01 | 1486118999.7914 | pgbench_tellers_pkey  |            40960
 2017-02-03 11:49:59.791402+01 | 1486118999.7914 | pgbench_accounts_pkey |        224641024

 2017-02-03 11:50:00.883989+01 | 1486119000.88399 | pgbench_branches_pkey |            16384
 2017-02-03 11:50:00.883989+01 | 1486119000.88399 | pgbench_tellers_pkey  |            40960
 2017-02-03 11:50:00.883989+01 | 1486119000.88399 | pgbench_accounts_pkey |        224641024

 2017-02-03 11:50:01.97889+01 | 1486119001.97889 | pgbench_branches_pkey |            16384
 2017-02-03 11:50:01.97889+01 | 1486119001.97889 | pgbench_tellers_pkey  |            40960
 2017-02-03 11:50:01.97889+01 | 1486119001.97889 | pgbench_accounts_pkey |        224641024

 2017-02-03 11:50:03.070476+01 | 1486119003.07048 | pgbench_branches_pkey |            16384
 2017-02-03 11:50:03.070476+01 | 1486119003.07048 | pgbench_tellers_pkey  |            40960
 2017-02-03 11:50:03.070476+01 | 1486119003.07048 | pgbench_accounts_pkey |        224641024

 2017-02-03 11:50:04.154774+01 | 1486119004.15477 | pgbench_branches_pkey |            16384
 2017-02-03 11:50:04.154774+01 | 1486119004.15477 | pgbench_tellers_pkey  |            40960
 2017-02-03 11:50:04.154774+01 | 1486119004.15477 | pgbench_accounts_pkey |        224641024

 2017-02-03 11:50:05.265231+01 | 1486119005.26523 | pgbench_branches_pkey |            16384
 2017-02-03 11:50:05.265231+01 | 1486119005.26523 | pgbench_tellers_pkey  |            40960
 2017-02-03 11:50:05.265231+01 | 1486119005.26523 | pgbench_accounts_pkey |        224641024

 2017-02-03 11:50:06.35693+01 | 1486119006.35693 | pgbench_branches_pkey |            16384
 2017-02-03 11:50:06.35693+01 | 1486119006.35693 | pgbench_tellers_pkey  |            40960
 2017-02-03 11:50:06.35693+01 | 1486119006.35693 | pgbench_accounts_pkey |        224641024

 2017-02-03 11:50:07.480947+01 | 1486119007.48095 | pgbench_branches_pkey |            16384
 2017-02-03 11:50:07.480947+01 | 1486119007.48095 | pgbench_tellers_pkey  |            40960
 2017-02-03 11:50:07.480947+01 | 1486119007.48095 | pgbench_accounts_pkey |        224641024

 2017-02-03 11:50:08.576264+01 | 1486119008.57626 | pgbench_branches_pkey |            16384
 2017-02-03 11:50:08.576264+01 | 1486119008.57626 | pgbench_tellers_pkey  |            40960
 2017-02-03 11:50:08.576264+01 | 1486119008.57626 | pgbench_accounts_pkey |        224641024

 2017-02-03 11:50:09.687747+01 | 1486119009.68775 | pgbench_branches_pkey |            16384
 2017-02-03 11:50:09.687747+01 | 1486119009.68775 | pgbench_tellers_pkey  |            40960
 2017-02-03 11:50:09.687747+01 | 1486119009.68775 | pgbench_accounts_pkey |        224641024

 2017-02-03 11:50:10.780118+01 | 1486119010.78012 | pgbench_branches_pkey |            16384
 2017-02-03 11:50:10.780118+01 | 1486119010.78012 | pgbench_tellers_pkey  |            40960
 2017-02-03 11:50:10.780118+01 | 1486119010.78012 | pgbench_accounts_pkey |        224641024

 2017-02-03 11:50:11.861955+01 | 1486119011.86195 | pgbench_branches_pkey |            16384
 2017-02-03 11:50:11.861955+01 | 1486119011.86195 | pgbench_tellers_pkey  |            40960
 2017-02-03 11:50:11.861955+01 | 1486119011.86195 | pgbench_accounts_pkey |        224641024

 2017-02-03 11:50:12.95005+01 | 1486119012.95005 | pgbench_branches_pkey |            16384
 2017-02-03 11:50:12.95005+01 | 1486119012.95005 | pgbench_tellers_pkey  |            40960
 2017-02-03 11:50:12.95005+01 | 1486119012.95005 | pgbench_accounts_pkey |        224641024

 2017-02-03 11:50:14.043064+01 | 1486119014.04306 | pgbench_branches_pkey |            16384
 2017-02-03 11:50:14.043064+01 | 1486119014.04306 | pgbench_tellers_pkey  |            40960
 2017-02-03 11:50:14.043064+01 | 1486119014.04306 | pgbench_accounts_pkey |        224641024

 2017-02-03 11:50:15.127321+01 | 1486119015.12732 | pgbench_branches_pkey |            16384
 2017-02-03 11:50:15.127321+01 | 1486119015.12732 | pgbench_tellers_pkey  |            40960
 2017-02-03 11:50:15.127321+01 | 1486119015.12732 | pgbench_accounts_pkey |        224641024

 2017-02-03 11:50:16.231818+01 | 1486119016.23182 | pgbench_branches_pkey |            16384
 2017-02-03 11:50:16.231818+01 | 1486119016.23182 | pgbench_tellers_pkey  |            40960
 2017-02-03 11:50:16.231818+01 | 1486119016.23182 | pgbench_accounts_pkey |        224641024

 2017-02-03 11:50:17.325065+01 | 1486119017.32506 | pgbench_branches_pkey |            16384
 2017-02-03 11:50:17.325065+01 | 1486119017.32506 | pgbench_tellers_pkey  |            40960
 2017-02-03 11:50:17.325065+01 | 1486119017.32506 | pgbench_accounts_pkey |        224641024

 2017-02-03 11:50:18.415814+01 | 1486119018.41581 | pgbench_branches_pkey |            16384
 2017-02-03 11:50:18.415814+01 | 1486119018.41581 | pgbench_tellers_pkey  |            40960
 2017-02-03 11:50:18.415814+01 | 1486119018.41581 | pgbench_accounts_pkey |        224641024

 2017-02-03 11:50:19.505819+01 | 1486119019.50582 | pgbench_branches_pkey |            16384
 2017-02-03 11:50:19.505819+01 | 1486119019.50582 | pgbench_tellers_pkey  |            40960
 2017-02-03 11:50:19.505819+01 | 1486119019.50582 | pgbench_accounts_pkey |        224641024

 2017-02-03 11:50:20.622538+01 | 1486119020.62254 | pgbench_branches_pkey |            16384
 2017-02-03 11:50:20.622538+01 | 1486119020.62254 | pgbench_tellers_pkey  |            40960
 2017-02-03 11:50:20.622538+01 | 1486119020.62254 | pgbench_accounts_pkey |        224641024

 2017-02-03 11:50:21.728064+01 | 1486119021.72806 | pgbench_branches_pkey |            16384
 2017-02-03 11:50:21.728064+01 | 1486119021.72806 | pgbench_tellers_pkey  |            40960
 2017-02-03 11:50:21.728064+01 | 1486119021.72806 | pgbench_accounts_pkey |        224641024

 2017-02-03 11:50:22.82402+01 | 1486119022.82402 | pgbench_branches_pkey |            16384
 2017-02-03 11:50:22.82402+01 | 1486119022.82402 | pgbench_tellers_pkey  |            40960
 2017-02-03 11:50:22.82402+01 | 1486119022.82402 | pgbench_accounts_pkey |        224641024

 2017-02-03 11:50:23.915893+01 | 1486119023.91589 | pgbench_branches_pkey |            16384
 2017-02-03 11:50:23.915893+01 | 1486119023.91589 | pgbench_tellers_pkey  |            40960
 2017-02-03 11:50:23.915893+01 | 1486119023.91589 | pgbench_accounts_pkey |        224641024

 2017-02-03 11:50:25.005489+01 | 1486119025.00549 | pgbench_branches_pkey |            16384
 2017-02-03 11:50:25.005489+01 | 1486119025.00549 | pgbench_tellers_pkey  |            40960
 2017-02-03 11:50:25.005489+01 | 1486119025.00549 | pgbench_accounts_pkey |        224641024

 2017-02-03 11:50:26.106995+01 | 1486119026.107 | pgbench_branches_pkey |            16384
 2017-02-03 11:50:26.106995+01 | 1486119026.107 | pgbench_tellers_pkey  |            40960
 2017-02-03 11:50:26.106995+01 | 1486119026.107 | pgbench_accounts_pkey |        224641024

 2017-02-03 11:50:27.198964+01 | 1486119027.19896 | pgbench_branches_pkey |            16384
 2017-02-03 11:50:27.198964+01 | 1486119027.19896 | pgbench_tellers_pkey  |            40960
 2017-02-03 11:50:27.198964+01 | 1486119027.19896 | pgbench_accounts_pkey |        224641024

 2017-02-03 11:50:28.296128+01 | 1486119028.29613 | pgbench_branches_pkey |            16384
 2017-02-03 11:50:28.296128+01 | 1486119028.29613 | pgbench_tellers_pkey  |            40960
 2017-02-03 11:50:28.296128+01 | 1486119028.29613 | pgbench_accounts_pkey |        224641024

 2017-02-03 11:50:29.396158+01 | 1486119029.39616 | pgbench_branches_pkey |            16384
 2017-02-03 11:50:29.396158+01 | 1486119029.39616 | pgbench_tellers_pkey  |            40960
 2017-02-03 11:50:29.396158+01 | 1486119029.39616 | pgbench_accounts_pkey |        224641024

 2017-02-03 11:50:30.49195+01 | 1486119030.49195 | pgbench_branches_pkey |            16384
 2017-02-03 11:50:30.49195+01 | 1486119030.49195 | pgbench_tellers_pkey  |            40960
 2017-02-03 11:50:30.49195+01 | 1486119030.49195 | pgbench_accounts_pkey |        224641024

 2017-02-03 11:50:31.630782+01 | 1486119031.63078 | pgbench_branches_pkey |            16384
 2017-02-03 11:50:31.630782+01 | 1486119031.63078 | pgbench_tellers_pkey  |            40960
 2017-02-03 11:50:31.630782+01 | 1486119031.63078 | pgbench_accounts_pkey |        224641024

 2017-02-03 11:50:32.746125+01 | 1486119032.74612 | pgbench_branches_pkey |            16384
 2017-02-03 11:50:32.746125+01 | 1486119032.74612 | pgbench_tellers_pkey  |            40960
 2017-02-03 11:50:32.746125+01 | 1486119032.74612 | pgbench_accounts_pkey |        224641024

 2017-02-03 11:50:33.844094+01 | 1486119033.84409 | pgbench_branches_pkey |            16384
 2017-02-03 11:50:33.844094+01 | 1486119033.84409 | pgbench_tellers_pkey  |            40960
 2017-02-03 11:50:33.844094+01 | 1486119033.84409 | pgbench_accounts_pkey |        224641024

 2017-02-03 11:50:34.93195+01 | 1486119034.93195 | pgbench_branches_pkey |            16384
 2017-02-03 11:50:34.93195+01 | 1486119034.93195 | pgbench_tellers_pkey  |            40960
 2017-02-03 11:50:34.93195+01 | 1486119034.93195 | pgbench_accounts_pkey |        224641024

 2017-02-03 11:50:36.025953+01 | 1486119036.02595 | pgbench_branches_pkey |            16384
 2017-02-03 11:50:36.025953+01 | 1486119036.02595 | pgbench_tellers_pkey  |            40960
 2017-02-03 11:50:36.025953+01 | 1486119036.02595 | pgbench_accounts_pkey |        224641024

 2017-02-03 11:50:37.119116+01 | 1486119037.11912 | pgbench_branches_pkey |            16384
 2017-02-03 11:50:37.119116+01 | 1486119037.11912 | pgbench_tellers_pkey  |            40960
 2017-02-03 11:50:37.119116+01 | 1486119037.11912 | pgbench_accounts_pkey |        224641024

 2017-02-03 11:50:38.21009+01 | 1486119038.21009 | pgbench_branches_pkey |            16384
 2017-02-03 11:50:38.21009+01 | 1486119038.21009 | pgbench_tellers_pkey  |            40960
 2017-02-03 11:50:38.21009+01 | 1486119038.21009 | pgbench_accounts_pkey |        224641024

 2017-02-03 11:50:39.29367+01 | 1486119039.29367 | pgbench_branches_pkey |            16384
 2017-02-03 11:50:39.29367+01 | 1486119039.29367 | pgbench_tellers_pkey  |            40960
 2017-02-03 11:50:39.29367+01 | 1486119039.29367 | pgbench_accounts_pkey |        224641024

 2017-02-03 11:50:40.379197+01 | 1486119040.3792 | pgbench_branches_pkey |            16384
 2017-02-03 11:50:40.379197+01 | 1486119040.3792 | pgbench_tellers_pkey  |            40960
 2017-02-03 11:50:40.379197+01 | 1486119040.3792 | pgbench_accounts_pkey |        224641024

 2017-02-03 11:50:41.466997+01 | 1486119041.467 | pgbench_branches_pkey |            16384
 2017-02-03 11:50:41.466997+01 | 1486119041.467 | pgbench_tellers_pkey  |            40960
 2017-02-03 11:50:41.466997+01 | 1486119041.467 | pgbench_accounts_pkey |        224641024

 2017-02-03 11:50:42.560084+01 | 1486119042.56008 | pgbench_branches_pkey |            16384
 2017-02-03 11:50:42.560084+01 | 1486119042.56008 | pgbench_tellers_pkey  |            40960
 2017-02-03 11:50:42.560084+01 | 1486119042.56008 | pgbench_accounts_pkey |        224641024

 2017-02-03 11:50:43.667936+01 | 1486119043.66794 | pgbench_branches_pkey |            16384
 2017-02-03 11:50:43.667936+01 | 1486119043.66794 | pgbench_tellers_pkey  |            40960
 2017-02-03 11:50:43.667936+01 | 1486119043.66794 | pgbench_accounts_pkey |        224641024

 2017-02-03 11:50:44.799965+01 | 1486119044.79996 | pgbench_branches_pkey |            16384
 2017-02-03 11:50:44.799965+01 | 1486119044.79996 | pgbench_tellers_pkey  |            40960
 2017-02-03 11:50:44.799965+01 | 1486119044.79996 | pgbench_accounts_pkey |        224641024

 2017-02-03 11:50:45.893731+01 | 1486119045.89373 | pgbench_branches_pkey |            16384
 2017-02-03 11:50:45.893731+01 | 1486119045.89373 | pgbench_tellers_pkey  |            40960
 2017-02-03 11:50:45.893731+01 | 1486119045.89373 | pgbench_accounts_pkey |        224641024

 2017-02-03 11:50:46.986118+01 | 1486119046.98612 | pgbench_branches_pkey |            16384
 2017-02-03 11:50:46.986118+01 | 1486119046.98612 | pgbench_tellers_pkey  |            40960
 2017-02-03 11:50:46.986118+01 | 1486119046.98612 | pgbench_accounts_pkey |        224641024

 2017-02-03 11:50:48.082529+01 | 1486119048.08253 | pgbench_branches_pkey |            16384
 2017-02-03 11:50:48.082529+01 | 1486119048.08253 | pgbench_tellers_pkey  |            40960
 2017-02-03 11:50:48.082529+01 | 1486119048.08253 | pgbench_accounts_pkey |        224641024

 2017-02-03 11:50:49.176944+01 | 1486119049.17694 | pgbench_branches_pkey |            16384
 2017-02-03 11:50:49.176944+01 | 1486119049.17694 | pgbench_tellers_pkey  |            40960
 2017-02-03 11:50:49.176944+01 | 1486119049.17694 | pgbench_accounts_pkey |        224641024

 2017-02-03 11:50:50.267539+01 | 1486119050.26754 | pgbench_branches_pkey |            16384
 2017-02-03 11:50:50.267539+01 | 1486119050.26754 | pgbench_tellers_pkey  |            40960
 2017-02-03 11:50:50.267539+01 | 1486119050.26754 | pgbench_accounts_pkey |        224641024

 2017-02-03 11:50:51.369951+01 | 1486119051.36995 | pgbench_branches_pkey |            16384
 2017-02-03 11:50:51.369951+01 | 1486119051.36995 | pgbench_tellers_pkey  |            40960
 2017-02-03 11:50:51.369951+01 | 1486119051.36995 | pgbench_accounts_pkey |        224641024

 2017-02-03 11:50:52.482335+01 | 1486119052.48234 | pgbench_branches_pkey |            16384
 2017-02-03 11:50:52.482335+01 | 1486119052.48234 | pgbench_tellers_pkey  |            40960
 2017-02-03 11:50:52.482335+01 | 1486119052.48234 | pgbench_accounts_pkey |        224641024

 2017-02-03 11:50:53.603322+01 | 1486119053.60332 | pgbench_branches_pkey |            16384
 2017-02-03 11:50:53.603322+01 | 1486119053.60332 | pgbench_tellers_pkey  |            40960
 2017-02-03 11:50:53.603322+01 | 1486119053.60332 | pgbench_accounts_pkey |        224641024

 2017-02-03 11:50:54.712116+01 | 1486119054.71212 | pgbench_branches_pkey |            16384
 2017-02-03 11:50:54.712116+01 | 1486119054.71212 | pgbench_tellers_pkey  |            40960
 2017-02-03 11:50:54.712116+01 | 1486119054.71212 | pgbench_accounts_pkey |        224641024

 2017-02-03 11:50:55.855914+01 | 1486119055.85591 | pgbench_branches_pkey |            16384
 2017-02-03 11:50:55.855914+01 | 1486119055.85591 | pgbench_tellers_pkey  |            40960
 2017-02-03 11:50:55.855914+01 | 1486119055.85591 | pgbench_accounts_pkey |        224641024

 2017-02-03 11:50:56.953542+01 | 1486119056.95354 | pgbench_branches_pkey |            16384
 2017-02-03 11:50:56.953542+01 | 1486119056.95354 | pgbench_tellers_pkey  |            40960
 2017-02-03 11:50:56.953542+01 | 1486119056.95354 | pgbench_accounts_pkey |        224641024

 2017-02-03 11:50:58.045284+01 | 1486119058.04528 | pgbench_branches_pkey |            16384
 2017-02-03 11:50:58.045284+01 | 1486119058.04528 | pgbench_tellers_pkey  |            40960
 2017-02-03 11:50:58.045284+01 | 1486119058.04528 | pgbench_accounts_pkey |        224641024

 2017-02-03 11:50:59.140908+01 | 1486119059.14091 | pgbench_branches_pkey |            16384
 2017-02-03 11:50:59.140908+01 | 1486119059.14091 | pgbench_tellers_pkey  |            40960
 2017-02-03 11:50:59.140908+01 | 1486119059.14091 | pgbench_accounts_pkey |        224641024

 2017-02-03 11:51:00.22958+01 | 1486119060.22958 | pgbench_branches_pkey |            16384
 2017-02-03 11:51:00.22958+01 | 1486119060.22958 | pgbench_tellers_pkey  |            40960
 2017-02-03 11:51:00.22958+01 | 1486119060.22958 | pgbench_accounts_pkey |        224641024

 2017-02-03 11:51:01.324944+01 | 1486119061.32494 | pgbench_branches_pkey |            16384
 2017-02-03 11:51:01.324944+01 | 1486119061.32494 | pgbench_tellers_pkey  |            40960
 2017-02-03 11:51:01.324944+01 | 1486119061.32494 | pgbench_accounts_pkey |        224641024

 2017-02-03 11:51:02.420516+01 | 1486119062.42052 | pgbench_branches_pkey |            16384
 2017-02-03 11:51:02.420516+01 | 1486119062.42052 | pgbench_tellers_pkey  |            40960
 2017-02-03 11:51:02.420516+01 | 1486119062.42052 | pgbench_accounts_pkey |        224641024

 2017-02-03 11:51:03.521043+01 | 1486119063.52104 | pgbench_branches_pkey |            16384
 2017-02-03 11:51:03.521043+01 | 1486119063.52104 | pgbench_tellers_pkey  |            40960
 2017-02-03 11:51:03.521043+01 | 1486119063.52104 | pgbench_accounts_pkey |        224641024

 2017-02-03 11:51:04.629201+01 | 1486119064.6292 | pgbench_branches_pkey |            16384
 2017-02-03 11:51:04.629201+01 | 1486119064.6292 | pgbench_tellers_pkey  |            40960
 2017-02-03 11:51:04.629201+01 | 1486119064.6292 | pgbench_accounts_pkey |        224641024

 2017-02-03 11:51:05.752375+01 | 1486119065.75237 | pgbench_branches_pkey |            16384
 2017-02-03 11:51:05.752375+01 | 1486119065.75237 | pgbench_tellers_pkey  |            40960
 2017-02-03 11:51:05.752375+01 | 1486119065.75237 | pgbench_accounts_pkey |        224641024

 2017-02-03 11:51:06.867537+01 | 1486119066.86754 | pgbench_branches_pkey |            16384
 2017-02-03 11:51:06.867537+01 | 1486119066.86754 | pgbench_tellers_pkey  |            40960
 2017-02-03 11:51:06.867537+01 | 1486119066.86754 | pgbench_accounts_pkey |        224641024

 2017-02-03 11:51:07.966318+01 | 1486119067.96632 | pgbench_branches_pkey |            16384
 2017-02-03 11:51:07.966318+01 | 1486119067.96632 | pgbench_tellers_pkey  |            40960
 2017-02-03 11:51:07.966318+01 | 1486119067.96632 | pgbench_accounts_pkey |        224641024

 2017-02-03 11:51:09.057241+01 | 1486119069.05724 | pgbench_branches_pkey |            16384
 2017-02-03 11:51:09.057241+01 | 1486119069.05724 | pgbench_tellers_pkey  |            40960
 2017-02-03 11:51:09.057241+01 | 1486119069.05724 | pgbench_accounts_pkey |        224641024

 2017-02-03 11:51:10.145294+01 | 1486119070.14529 | pgbench_branches_pkey |            16384
 2017-02-03 11:51:10.145294+01 | 1486119070.14529 | pgbench_tellers_pkey  |            40960
 2017-02-03 11:51:10.145294+01 | 1486119070.14529 | pgbench_accounts_pkey |        224641024

 2017-02-03 11:51:11.232701+01 | 1486119071.2327 | pgbench_branches_pkey |            16384
 2017-02-03 11:51:11.232701+01 | 1486119071.2327 | pgbench_tellers_pkey  |            40960
 2017-02-03 11:51:11.232701+01 | 1486119071.2327 | pgbench_accounts_pkey |        224641024

 2017-02-03 11:51:12.323972+01 | 1486119072.32397 | pgbench_branches_pkey |            16384
 2017-02-03 11:51:12.323972+01 | 1486119072.32397 | pgbench_tellers_pkey  |            40960
 2017-02-03 11:51:12.323972+01 | 1486119072.32397 | pgbench_accounts_pkey |        224641024

 2017-02-03 11:51:13.421169+01 | 1486119073.42117 | pgbench_branches_pkey |            16384
 2017-02-03 11:51:13.421169+01 | 1486119073.42117 | pgbench_tellers_pkey  |            40960
 2017-02-03 11:51:13.421169+01 | 1486119073.42117 | pgbench_accounts_pkey |        224641024

 2017-02-03 11:51:14.517184+01 | 1486119074.51718 | pgbench_branches_pkey |            16384
 2017-02-03 11:51:14.517184+01 | 1486119074.51718 | pgbench_tellers_pkey  |            40960
 2017-02-03 11:51:14.517184+01 | 1486119074.51718 | pgbench_accounts_pkey |        224641024

 2017-02-03 11:51:15.609484+01 | 1486119075.60948 | pgbench_branches_pkey |            16384
 2017-02-03 11:51:15.609484+01 | 1486119075.60948 | pgbench_tellers_pkey  |            40960
 2017-02-03 11:51:15.609484+01 | 1486119075.60948 | pgbench_accounts_pkey |        224641024

 2017-02-03 11:51:16.739749+01 | 1486119076.73975 | pgbench_branches_pkey |            16384
 2017-02-03 11:51:16.739749+01 | 1486119076.73975 | pgbench_tellers_pkey  |            40960
 2017-02-03 11:51:16.739749+01 | 1486119076.73975 | pgbench_accounts_pkey |        224641024

 2017-02-03 11:51:17.850669+01 | 1486119077.85067 | pgbench_branches_pkey |            16384
 2017-02-03 11:51:17.850669+01 | 1486119077.85067 | pgbench_tellers_pkey  |            40960
 2017-02-03 11:51:17.850669+01 | 1486119077.85067 | pgbench_accounts_pkey |        224641024

 2017-02-03 11:51:18.974761+01 | 1486119078.97476 | pgbench_branches_pkey |            16384
 2017-02-03 11:51:18.974761+01 | 1486119078.97476 | pgbench_tellers_pkey  |            40960
 2017-02-03 11:51:18.974761+01 | 1486119078.97476 | pgbench_accounts_pkey |        224641024

 2017-02-03 11:51:20.06773+01 | 1486119080.06773 | pgbench_branches_pkey |            16384
 2017-02-03 11:51:20.06773+01 | 1486119080.06773 | pgbench_tellers_pkey  |            40960
 2017-02-03 11:51:20.06773+01 | 1486119080.06773 | pgbench_accounts_pkey |        224641024

 2017-02-03 11:51:21.15819+01 | 1486119081.15819 | pgbench_branches_pkey |            16384
 2017-02-03 11:51:21.15819+01 | 1486119081.15819 | pgbench_tellers_pkey  |            40960
 2017-02-03 11:51:21.15819+01 | 1486119081.15819 | pgbench_accounts_pkey |        224641024

 2017-02-03 11:51:22.246674+01 | 1486119082.24667 | pgbench_branches_pkey |            16384
 2017-02-03 11:51:22.246674+01 | 1486119082.24667 | pgbench_tellers_pkey  |            40960
 2017-02-03 11:51:22.246674+01 | 1486119082.24667 | pgbench_accounts_pkey |        224641024

 2017-02-03 11:51:23.338832+01 | 1486119083.33883 | pgbench_branches_pkey |            16384
 2017-02-03 11:51:23.338832+01 | 1486119083.33883 | pgbench_tellers_pkey  |            40960
 2017-02-03 11:51:23.338832+01 | 1486119083.33883 | pgbench_accounts_pkey |        224641024

 2017-02-03 11:51:24.442059+01 | 1486119084.44206 | pgbench_branches_pkey |            16384
 2017-02-03 11:51:24.442059+01 | 1486119084.44206 | pgbench_tellers_pkey  |            40960
 2017-02-03 11:51:24.442059+01 | 1486119084.44206 | pgbench_accounts_pkey |        224641024

 2017-02-03 11:51:25.543306+01 | 1486119085.54331 | pgbench_branches_pkey |            16384
 2017-02-03 11:51:25.543306+01 | 1486119085.54331 | pgbench_tellers_pkey  |            40960
 2017-02-03 11:51:25.543306+01 | 1486119085.54331 | pgbench_accounts_pkey |        224641024

 2017-02-03 11:51:26.66594+01 | 1486119086.66594 | pgbench_branches_pkey |            16384
 2017-02-03 11:51:26.66594+01 | 1486119086.66594 | pgbench_tellers_pkey  |            40960
 2017-02-03 11:51:26.66594+01 | 1486119086.66594 | pgbench_accounts_pkey |        224641024

 2017-02-03 11:51:27.782181+01 | 1486119087.78218 | pgbench_branches_pkey |            16384
 2017-02-03 11:51:27.782181+01 | 1486119087.78218 | pgbench_tellers_pkey  |            40960
 2017-02-03 11:51:27.782181+01 | 1486119087.78218 | pgbench_accounts_pkey |        224641024

 2017-02-03 11:51:28.904963+01 | 1486119088.90496 | pgbench_branches_pkey |            16384
 2017-02-03 11:51:28.904963+01 | 1486119088.90496 | pgbench_tellers_pkey  |            40960
 2017-02-03 11:51:28.904963+01 | 1486119088.90496 | pgbench_accounts_pkey |        224641024

 2017-02-03 11:51:30.004223+01 | 1486119090.00422 | pgbench_branches_pkey |            16384
 2017-02-03 11:51:30.004223+01 | 1486119090.00422 | pgbench_tellers_pkey  |            40960
 2017-02-03 11:51:30.004223+01 | 1486119090.00422 | pgbench_accounts_pkey |        224641024

 2017-02-03 11:51:31.099794+01 | 1486119091.09979 | pgbench_branches_pkey |            16384
 2017-02-03 11:51:31.099794+01 | 1486119091.09979 | pgbench_tellers_pkey  |            40960
 2017-02-03 11:51:31.099794+01 | 1486119091.09979 | pgbench_accounts_pkey |        224641024

 2017-02-03 11:51:32.190383+01 | 1486119092.19038 | pgbench_branches_pkey |            16384
 2017-02-03 11:51:32.190383+01 | 1486119092.19038 | pgbench_tellers_pkey  |            40960
 2017-02-03 11:51:32.190383+01 | 1486119092.19038 | pgbench_accounts_pkey |        224641024

 2017-02-03 11:51:33.283006+01 | 1486119093.28301 | pgbench_branches_pkey |            16384
 2017-02-03 11:51:33.283006+01 | 1486119093.28301 | pgbench_tellers_pkey  |            40960
 2017-02-03 11:51:33.283006+01 | 1486119093.28301 | pgbench_accounts_pkey |        224641024

 2017-02-03 11:51:34.375982+01 | 1486119094.37598 | pgbench_branches_pkey |            16384
 2017-02-03 11:51:34.375982+01 | 1486119094.37598 | pgbench_tellers_pkey  |            40960
 2017-02-03 11:51:34.375982+01 | 1486119094.37598 | pgbench_accounts_pkey |        224641024

 2017-02-03 11:51:35.475607+01 | 1486119095.47561 | pgbench_branches_pkey |            16384
 2017-02-03 11:51:35.475607+01 | 1486119095.47561 | pgbench_tellers_pkey  |            40960
 2017-02-03 11:51:35.475607+01 | 1486119095.47561 | pgbench_accounts_pkey |        224641024

 2017-02-03 11:51:36.565746+01 | 1486119096.56575 | pgbench_branches_pkey |            16384
 2017-02-03 11:51:36.565746+01 | 1486119096.56575 | pgbench_tellers_pkey  |            40960
 2017-02-03 11:51:36.565746+01 | 1486119096.56575 | pgbench_accounts_pkey |        224641024

 2017-02-03 11:51:37.676239+01 | 1486119097.67624 | pgbench_branches_pkey |            16384
 2017-02-03 11:51:37.676239+01 | 1486119097.67624 | pgbench_tellers_pkey  |            40960
 2017-02-03 11:51:37.676239+01 | 1486119097.67624 | pgbench_accounts_pkey |        224641024

 2017-02-03 11:51:38.799933+01 | 1486119098.79993 | pgbench_branches_pkey |            16384
 2017-02-03 11:51:38.799933+01 | 1486119098.79993 | pgbench_tellers_pkey  |            40960
 2017-02-03 11:51:38.799933+01 | 1486119098.79993 | pgbench_accounts_pkey |        224641024

 2017-02-03 11:51:39.913689+01 | 1486119099.91369 | pgbench_branches_pkey |            16384
 2017-02-03 11:51:39.913689+01 | 1486119099.91369 | pgbench_tellers_pkey  |            40960
 2017-02-03 11:51:39.913689+01 | 1486119099.91369 | pgbench_accounts_pkey |        224641024

 2017-02-03 11:51:41.048632+01 | 1486119101.04863 | pgbench_branches_pkey |            16384
 2017-02-03 11:51:41.048632+01 | 1486119101.04863 | pgbench_tellers_pkey  |            40960
 2017-02-03 11:51:41.048632+01 | 1486119101.04863 | pgbench_accounts_pkey |        224641024

 2017-02-03 11:51:42.140405+01 | 1486119102.1404 | pgbench_branches_pkey |            16384
 2017-02-03 11:51:42.140405+01 | 1486119102.1404 | pgbench_tellers_pkey  |            40960
 2017-02-03 11:51:42.140405+01 | 1486119102.1404 | pgbench_accounts_pkey |        224641024

 2017-02-03 11:51:43.240029+01 | 1486119103.24003 | pgbench_branches_pkey |            16384
 2017-02-03 11:51:43.240029+01 | 1486119103.24003 | pgbench_tellers_pkey  |            40960
 2017-02-03 11:51:43.240029+01 | 1486119103.24003 | pgbench_accounts_pkey |        224641024

 2017-02-03 11:51:44.331032+01 | 1486119104.33103 | pgbench_branches_pkey |            16384
 2017-02-03 11:51:44.331032+01 | 1486119104.33103 | pgbench_tellers_pkey  |            40960
 2017-02-03 11:51:44.331032+01 | 1486119104.33103 | pgbench_accounts_pkey |        224641024

 2017-02-03 11:51:45.427014+01 | 1486119105.42701 | pgbench_branches_pkey |            16384
 2017-02-03 11:51:45.427014+01 | 1486119105.42701 | pgbench_tellers_pkey  |            40960
 2017-02-03 11:51:45.427014+01 | 1486119105.42701 | pgbench_accounts_pkey |        224641024

 2017-02-03 11:51:46.528015+01 | 1486119106.52801 | pgbench_branches_pkey |            16384
 2017-02-03 11:51:46.528015+01 | 1486119106.52801 | pgbench_tellers_pkey  |            40960
 2017-02-03 11:51:46.528015+01 | 1486119106.52801 | pgbench_accounts_pkey |        224641024

 2017-02-03 11:51:47.628234+01 | 1486119107.62823 | pgbench_branches_pkey |            16384
 2017-02-03 11:51:47.628234+01 | 1486119107.62823 | pgbench_tellers_pkey  |            40960
 2017-02-03 11:51:47.628234+01 | 1486119107.62823 | pgbench_accounts_pkey |        224641024

 2017-02-03 11:51:48.732378+01 | 1486119108.73238 | pgbench_branches_pkey |            16384
 2017-02-03 11:51:48.732378+01 | 1486119108.73238 | pgbench_tellers_pkey  |            40960
 2017-02-03 11:51:48.732378+01 | 1486119108.73238 | pgbench_accounts_pkey |        224641024

 2017-02-03 11:51:49.82728+01 | 1486119109.82728 | pgbench_branches_pkey |            16384
 2017-02-03 11:51:49.82728+01 | 1486119109.82728 | pgbench_tellers_pkey  |            40960
 2017-02-03 11:51:49.82728+01 | 1486119109.82728 | pgbench_accounts_pkey |        224641024

 2017-02-03 11:51:50.931761+01 | 1486119110.93176 | pgbench_branches_pkey |            16384
 2017-02-03 11:51:50.931761+01 | 1486119110.93176 | pgbench_tellers_pkey  |            40960
 2017-02-03 11:51:50.931761+01 | 1486119110.93176 | pgbench_accounts_pkey |        224641024

 2017-02-03 11:51:52.035008+01 | 1486119112.03501 | pgbench_branches_pkey |            16384
 2017-02-03 11:51:52.035008+01 | 1486119112.03501 | pgbench_tellers_pkey  |            40960
 2017-02-03 11:51:52.035008+01 | 1486119112.03501 | pgbench_accounts_pkey |        224641024

 2017-02-03 11:51:53.143077+01 | 1486119113.14308 | pgbench_branches_pkey |            16384
 2017-02-03 11:51:53.143077+01 | 1486119113.14308 | pgbench_tellers_pkey  |            40960
 2017-02-03 11:51:53.143077+01 | 1486119113.14308 | pgbench_accounts_pkey |        224641024

 2017-02-03 11:51:54.239004+01 | 1486119114.239 | pgbench_branches_pkey |            16384
 2017-02-03 11:51:54.239004+01 | 1486119114.239 | pgbench_tellers_pkey  |            40960
 2017-02-03 11:51:54.239004+01 | 1486119114.239 | pgbench_accounts_pkey |        224641024

 2017-02-03 11:51:55.32482+01 | 1486119115.32482 | pgbench_branches_pkey |            16384
 2017-02-03 11:51:55.32482+01 | 1486119115.32482 | pgbench_tellers_pkey  |            40960
 2017-02-03 11:51:55.32482+01 | 1486119115.32482 | pgbench_accounts_pkey |        224641024

 2017-02-03 11:51:56.407547+01 | 1486119116.40755 | pgbench_branches_pkey |            16384
 2017-02-03 11:51:56.407547+01 | 1486119116.40755 | pgbench_tellers_pkey  |            40960
 2017-02-03 11:51:56.407547+01 | 1486119116.40755 | pgbench_accounts_pkey |        224641024

 2017-02-03 11:51:57.496047+01 | 1486119117.49605 | pgbench_branches_pkey |            16384
 2017-02-03 11:51:57.496047+01 | 1486119117.49605 | pgbench_tellers_pkey  |            40960
 2017-02-03 11:51:57.496047+01 | 1486119117.49605 | pgbench_accounts_pkey |        224641024

 2017-02-03 11:51:58.593907+01 | 1486119118.59391 | pgbench_branches_pkey |            16384
 2017-02-03 11:51:58.593907+01 | 1486119118.59391 | pgbench_tellers_pkey  |            40960
 2017-02-03 11:51:58.593907+01 | 1486119118.59391 | pgbench_accounts_pkey |        224641024

 2017-02-03 11:51:59.69062+01 | 1486119119.69062 | pgbench_branches_pkey |            16384
 2017-02-03 11:51:59.69062+01 | 1486119119.69062 | pgbench_tellers_pkey  |            40960
 2017-02-03 11:51:59.69062+01 | 1486119119.69062 | pgbench_accounts_pkey |        224641024

 2017-02-03 11:52:00.781836+01 | 1486119120.78184 | pgbench_branches_pkey |            16384
 2017-02-03 11:52:00.781836+01 | 1486119120.78184 | pgbench_tellers_pkey  |            40960
 2017-02-03 11:52:00.781836+01 | 1486119120.78184 | pgbench_accounts_pkey |        224641024

 2017-02-03 11:52:01.885985+01 | 1486119121.88598 | pgbench_branches_pkey |            16384
 2017-02-03 11:52:01.885985+01 | 1486119121.88598 | pgbench_tellers_pkey  |            40960
 2017-02-03 11:52:01.885985+01 | 1486119121.88598 | pgbench_accounts_pkey |        224641024

 2017-02-03 11:52:03.0352+01 | 1486119123.0352 | pgbench_branches_pkey |            16384
 2017-02-03 11:52:03.0352+01 | 1486119123.0352 | pgbench_tellers_pkey  |            40960
 2017-02-03 11:52:03.0352+01 | 1486119123.0352 | pgbench_accounts_pkey |        224641024

 2017-02-03 11:52:04.136171+01 | 1486119124.13617 | pgbench_branches_pkey |            16384
 2017-02-03 11:52:04.136171+01 | 1486119124.13617 | pgbench_tellers_pkey  |            40960
 2017-02-03 11:52:04.136171+01 | 1486119124.13617 | pgbench_accounts_pkey |        224641024

 2017-02-03 11:52:05.228452+01 | 1486119125.22845 | pgbench_branches_pkey |            16384
 2017-02-03 11:52:05.228452+01 | 1486119125.22845 | pgbench_tellers_pkey  |            40960
 2017-02-03 11:52:05.228452+01 | 1486119125.22845 | pgbench_accounts_pkey |        224641024

 2017-02-03 11:52:06.314087+01 | 1486119126.31409 | pgbench_branches_pkey |            16384
 2017-02-03 11:52:06.314087+01 | 1486119126.31409 | pgbench_tellers_pkey  |            40960
 2017-02-03 11:52:06.314087+01 | 1486119126.31409 | pgbench_accounts_pkey |        224641024

