 2017-02-04 22:39:06.309657+01 | 1486244346.30966 | pgbench_accounts |      13696090112
 2017-02-04 22:39:06.309657+01 | 1486244346.30966 | pgbench_tellers  |         14262272
 2017-02-04 22:39:06.309657+01 | 1486244346.30966 | pgbench_history  |                0
 2017-02-04 22:39:06.309657+01 | 1486244346.30966 | pgbench_branches |         12009472

 2017-02-04 22:39:07.400525+01 | 1486244347.40053 | pgbench_accounts |      13696090112
 2017-02-04 22:39:07.400525+01 | 1486244347.40053 | pgbench_tellers  |         14262272
 2017-02-04 22:39:07.400525+01 | 1486244347.40053 | pgbench_history  |          1687552
 2017-02-04 22:39:07.400525+01 | 1486244347.40053 | pgbench_branches |         12009472

 2017-02-04 22:39:08.481934+01 | 1486244348.48193 | pgbench_accounts |      13696090112
 2017-02-04 22:39:08.481934+01 | 1486244348.48193 | pgbench_tellers  |         14262272
 2017-02-04 22:39:08.481934+01 | 1486244348.48193 | pgbench_history  |          3563520
 2017-02-04 22:39:08.481934+01 | 1486244348.48193 | pgbench_branches |         12009472

 2017-02-04 22:39:09.564599+01 | 1486244349.5646 | pgbench_accounts |      13696090112
 2017-02-04 22:39:09.564599+01 | 1486244349.5646 | pgbench_tellers  |         14262272
 2017-02-04 22:39:09.564599+01 | 1486244349.5646 | pgbench_history  |          5611520
 2017-02-04 22:39:09.564599+01 | 1486244349.5646 | pgbench_branches |         12009472

 2017-02-04 22:39:10.640379+01 | 1486244350.64038 | pgbench_accounts |      13696090112
 2017-02-04 22:39:10.640379+01 | 1486244350.64038 | pgbench_tellers  |         14262272
 2017-02-04 22:39:10.640379+01 | 1486244350.64038 | pgbench_history  |          7012352
 2017-02-04 22:39:10.640379+01 | 1486244350.64038 | pgbench_branches |         12009472

 2017-02-04 22:39:11.723011+01 | 1486244351.72301 | pgbench_accounts |      13696090112
 2017-02-04 22:39:11.723011+01 | 1486244351.72301 | pgbench_tellers  |         14262272
 2017-02-04 22:39:11.723011+01 | 1486244351.72301 | pgbench_history  |          9003008
 2017-02-04 22:39:11.723011+01 | 1486244351.72301 | pgbench_branches |         12009472

 2017-02-04 22:39:12.799513+01 | 1486244352.79951 | pgbench_accounts |      13696090112
 2017-02-04 22:39:12.799513+01 | 1486244352.79951 | pgbench_tellers  |         14262272
 2017-02-04 22:39:12.799513+01 | 1486244352.79951 | pgbench_history  |         10362880
 2017-02-04 22:39:12.799513+01 | 1486244352.79951 | pgbench_branches |         12009472

 2017-02-04 22:39:13.879452+01 | 1486244353.87945 | pgbench_accounts |      13696090112
 2017-02-04 22:39:13.879452+01 | 1486244353.87945 | pgbench_tellers  |         14262272
 2017-02-04 22:39:13.879452+01 | 1486244353.87945 | pgbench_history  |         12050432
 2017-02-04 22:39:13.879452+01 | 1486244353.87945 | pgbench_branches |         12009472

 2017-02-04 22:39:14.954179+01 | 1486244354.95418 | pgbench_accounts |      13696090112
 2017-02-04 22:39:14.954179+01 | 1486244354.95418 | pgbench_tellers  |         14262272
 2017-02-04 22:39:14.954179+01 | 1486244354.95418 | pgbench_history  |         14426112
 2017-02-04 22:39:14.954179+01 | 1486244354.95418 | pgbench_branches |         12009472

 2017-02-04 22:39:16.041033+01 | 1486244356.04103 | pgbench_accounts |      13696090112
 2017-02-04 22:39:16.041033+01 | 1486244356.04103 | pgbench_tellers  |         14262272
 2017-02-04 22:39:16.041033+01 | 1486244356.04103 | pgbench_history  |         15458304
 2017-02-04 22:39:16.041033+01 | 1486244356.04103 | pgbench_branches |         12009472

 2017-02-04 22:39:17.12304+01 | 1486244357.12304 | pgbench_accounts |      13696090112
 2017-02-04 22:39:17.12304+01 | 1486244357.12304 | pgbench_tellers  |         14262272
 2017-02-04 22:39:17.12304+01 | 1486244357.12304 | pgbench_history  |         17121280
 2017-02-04 22:39:17.12304+01 | 1486244357.12304 | pgbench_branches |         12009472

 2017-02-04 22:39:18.20514+01 | 1486244358.20514 | pgbench_accounts |      13696090112
 2017-02-04 22:39:18.20514+01 | 1486244358.20514 | pgbench_tellers  |         14262272
 2017-02-04 22:39:18.20514+01 | 1486244358.20514 | pgbench_history  |         19513344
 2017-02-04 22:39:18.20514+01 | 1486244358.20514 | pgbench_branches |         12009472

 2017-02-04 22:39:19.286864+01 | 1486244359.28686 | pgbench_accounts |      13696090112
 2017-02-04 22:39:19.286864+01 | 1486244359.28686 | pgbench_tellers  |         14262272
 2017-02-04 22:39:19.286864+01 | 1486244359.28686 | pgbench_history  |         21413888
 2017-02-04 22:39:19.286864+01 | 1486244359.28686 | pgbench_branches |         12009472

 2017-02-04 22:39:20.363289+01 | 1486244360.36329 | pgbench_accounts |      13696090112
 2017-02-04 22:39:20.363289+01 | 1486244360.36329 | pgbench_tellers  |         14262272
 2017-02-04 22:39:20.363289+01 | 1486244360.36329 | pgbench_history  |         24444928
 2017-02-04 22:39:20.363289+01 | 1486244360.36329 | pgbench_branches |         12009472

 2017-02-04 22:39:21.441591+01 | 1486244361.44159 | pgbench_accounts |      13696090112
 2017-02-04 22:39:21.441591+01 | 1486244361.44159 | pgbench_tellers  |         14262272
 2017-02-04 22:39:21.441591+01 | 1486244361.44159 | pgbench_history  |         25346048
 2017-02-04 22:39:21.441591+01 | 1486244361.44159 | pgbench_branches |         12009472

 2017-02-04 22:39:22.52172+01 | 1486244362.52172 | pgbench_accounts |      13696090112
 2017-02-04 22:39:22.52172+01 | 1486244362.52172 | pgbench_tellers  |         14262272
 2017-02-04 22:39:22.52172+01 | 1486244362.52172 | pgbench_history  |         27713536
 2017-02-04 22:39:22.52172+01 | 1486244362.52172 | pgbench_branches |         12009472

 2017-02-04 22:39:23.598226+01 | 1486244363.59823 | pgbench_accounts |      13696090112
 2017-02-04 22:39:23.598226+01 | 1486244363.59823 | pgbench_tellers  |         14262272
 2017-02-04 22:39:23.598226+01 | 1486244363.59823 | pgbench_history  |         29278208
 2017-02-04 22:39:23.598226+01 | 1486244363.59823 | pgbench_branches |         12009472

 2017-02-04 22:39:24.681951+01 | 1486244364.68195 | pgbench_accounts |      13696090112
 2017-02-04 22:39:24.681951+01 | 1486244364.68195 | pgbench_tellers  |         14262272
 2017-02-04 22:39:24.681951+01 | 1486244364.68195 | pgbench_history  |         31342592
 2017-02-04 22:39:24.681951+01 | 1486244364.68195 | pgbench_branches |         12009472

 2017-02-04 22:39:25.767016+01 | 1486244365.76702 | pgbench_accounts |      13696090112
 2017-02-04 22:39:25.767016+01 | 1486244365.76702 | pgbench_tellers  |         14262272
 2017-02-04 22:39:25.767016+01 | 1486244365.76702 | pgbench_history  |         34103296
 2017-02-04 22:39:25.767016+01 | 1486244365.76702 | pgbench_branches |         12009472

 2017-02-04 22:39:26.841377+01 | 1486244366.84138 | pgbench_accounts |      13696090112
 2017-02-04 22:39:26.841377+01 | 1486244366.84138 | pgbench_tellers  |         14262272
 2017-02-04 22:39:26.841377+01 | 1486244366.84138 | pgbench_history  |         35987456
 2017-02-04 22:39:26.841377+01 | 1486244366.84138 | pgbench_branches |         12009472

 2017-02-04 22:39:27.92121+01 | 1486244367.92121 | pgbench_accounts |      13696090112
 2017-02-04 22:39:27.92121+01 | 1486244367.92121 | pgbench_tellers  |         14262272
 2017-02-04 22:39:27.92121+01 | 1486244367.92121 | pgbench_history  |         37847040
 2017-02-04 22:39:27.92121+01 | 1486244367.92121 | pgbench_branches |         12009472

 2017-02-04 22:39:28.995656+01 | 1486244368.99566 | pgbench_accounts |      13696090112
 2017-02-04 22:39:28.995656+01 | 1486244368.99566 | pgbench_tellers  |         14262272
 2017-02-04 22:39:28.995656+01 | 1486244368.99566 | pgbench_history  |         39534592
 2017-02-04 22:39:28.995656+01 | 1486244368.99566 | pgbench_branches |         12009472

 2017-02-04 22:39:30.071803+01 | 1486244370.0718 | pgbench_accounts |      13696090112
 2017-02-04 22:39:30.071803+01 | 1486244370.0718 | pgbench_tellers  |         14262272
 2017-02-04 22:39:30.071803+01 | 1486244370.0718 | pgbench_history  |         41902080
 2017-02-04 22:39:30.071803+01 | 1486244370.0718 | pgbench_branches |         12009472

 2017-02-04 22:39:31.153326+01 | 1486244371.15333 | pgbench_accounts |      13696090112
 2017-02-04 22:39:31.153326+01 | 1486244371.15333 | pgbench_tellers  |         14262272
 2017-02-04 22:39:31.153326+01 | 1486244371.15333 | pgbench_history  |         44056576
 2017-02-04 22:39:31.153326+01 | 1486244371.15333 | pgbench_branches |         12009472

 2017-02-04 22:39:32.229738+01 | 1486244372.22974 | pgbench_accounts |      13696090112
 2017-02-04 22:39:32.229738+01 | 1486244372.22974 | pgbench_tellers  |         14262272
 2017-02-04 22:39:32.229738+01 | 1486244372.22974 | pgbench_history  |         46260224
 2017-02-04 22:39:32.229738+01 | 1486244372.22974 | pgbench_branches |         12009472

 2017-02-04 22:39:33.313938+01 | 1486244373.31394 | pgbench_accounts |      13696090112
 2017-02-04 22:39:33.313938+01 | 1486244373.31394 | pgbench_tellers  |         14262272
 2017-02-04 22:39:33.313938+01 | 1486244373.31394 | pgbench_history  |         49283072
 2017-02-04 22:39:33.313938+01 | 1486244373.31394 | pgbench_branches |         12009472

 2017-02-04 22:39:34.394101+01 | 1486244374.3941 | pgbench_accounts |      13696090112
 2017-02-04 22:39:34.394101+01 | 1486244374.3941 | pgbench_tellers  |         14262272
 2017-02-04 22:39:34.394101+01 | 1486244374.3941 | pgbench_history  |         51159040
 2017-02-04 22:39:34.394101+01 | 1486244374.3941 | pgbench_branches |         12009472

 2017-02-04 22:39:35.475173+01 | 1486244375.47517 | pgbench_accounts |      13696090112
 2017-02-04 22:39:35.475173+01 | 1486244375.47517 | pgbench_tellers  |         14262272
 2017-02-04 22:39:35.475173+01 | 1486244375.47517 | pgbench_history  |         55525376
 2017-02-04 22:39:35.475173+01 | 1486244375.47517 | pgbench_branches |         12009472

 2017-02-04 22:39:36.552262+01 | 1486244376.55226 | pgbench_accounts |      13696090112
 2017-02-04 22:39:36.552262+01 | 1486244376.55226 | pgbench_tellers  |         14262272
 2017-02-04 22:39:36.552262+01 | 1486244376.55226 | pgbench_history  |         55525376
 2017-02-04 22:39:36.552262+01 | 1486244376.55226 | pgbench_branches |         12009472

 2017-02-04 22:39:37.630865+01 | 1486244377.63087 | pgbench_accounts |      13696090112
 2017-02-04 22:39:37.630865+01 | 1486244377.63087 | pgbench_tellers  |         14262272
 2017-02-04 22:39:37.630865+01 | 1486244377.63087 | pgbench_history  |         57868288
 2017-02-04 22:39:37.630865+01 | 1486244377.63087 | pgbench_branches |         12009472

 2017-02-04 22:39:38.706689+01 | 1486244378.70669 | pgbench_accounts |      13696090112
 2017-02-04 22:39:38.706689+01 | 1486244378.70669 | pgbench_tellers  |         14262272
 2017-02-04 22:39:38.706689+01 | 1486244378.70669 | pgbench_history  |         59744256
 2017-02-04 22:39:38.706689+01 | 1486244378.70669 | pgbench_branches |         12009472

 2017-02-04 22:39:39.78599+01 | 1486244379.78599 | pgbench_accounts |      13696090112
 2017-02-04 22:39:39.78599+01 | 1486244379.78599 | pgbench_tellers  |         14262272
 2017-02-04 22:39:39.78599+01 | 1486244379.78599 | pgbench_history  |         64577536
 2017-02-04 22:39:39.78599+01 | 1486244379.78599 | pgbench_branches |         12009472

 2017-02-04 22:39:40.864694+01 | 1486244380.86469 | pgbench_accounts |      13696090112
 2017-02-04 22:39:40.864694+01 | 1486244380.86469 | pgbench_tellers  |         14262272
 2017-02-04 22:39:40.864694+01 | 1486244380.86469 | pgbench_history  |         64577536
 2017-02-04 22:39:40.864694+01 | 1486244380.86469 | pgbench_branches |         12009472

 2017-02-04 22:39:41.940678+01 | 1486244381.94068 | pgbench_accounts |      13696090112
 2017-02-04 22:39:41.940678+01 | 1486244381.94068 | pgbench_tellers  |         14262272
 2017-02-04 22:39:41.940678+01 | 1486244381.94068 | pgbench_history  |         66592768
 2017-02-04 22:39:41.940678+01 | 1486244381.94068 | pgbench_branches |         12009472

 2017-02-04 22:39:43.016768+01 | 1486244383.01677 | pgbench_accounts |      13696090112
 2017-02-04 22:39:43.016768+01 | 1486244383.01677 | pgbench_tellers  |         14262272
 2017-02-04 22:39:43.016768+01 | 1486244383.01677 | pgbench_history  |         68796416
 2017-02-04 22:39:43.016768+01 | 1486244383.01677 | pgbench_branches |         12009472

 2017-02-04 22:39:44.097731+01 | 1486244384.09773 | pgbench_accounts |      13696090112
 2017-02-04 22:39:44.097731+01 | 1486244384.09773 | pgbench_tellers  |         14262272
 2017-02-04 22:39:44.097731+01 | 1486244384.09773 | pgbench_history  |         71000064
 2017-02-04 22:39:44.097731+01 | 1486244384.09773 | pgbench_branches |         12009472

 2017-02-04 22:39:45.173179+01 | 1486244385.17318 | pgbench_accounts |      13696090112
 2017-02-04 22:39:45.173179+01 | 1486244385.17318 | pgbench_tellers  |         14262272
 2017-02-04 22:39:45.173179+01 | 1486244385.17318 | pgbench_history  |         72417280
 2017-02-04 22:39:45.173179+01 | 1486244385.17318 | pgbench_branches |         12009472

 2017-02-04 22:39:46.249936+01 | 1486244386.24994 | pgbench_accounts |      13696090112
 2017-02-04 22:39:46.249936+01 | 1486244386.24994 | pgbench_tellers  |         14262272
 2017-02-04 22:39:46.249936+01 | 1486244386.24994 | pgbench_history  |         76177408
 2017-02-04 22:39:46.249936+01 | 1486244386.24994 | pgbench_branches |         12009472

 2017-02-04 22:39:47.328245+01 | 1486244387.32824 | pgbench_accounts |      13696090112
 2017-02-04 22:39:47.328245+01 | 1486244387.32824 | pgbench_tellers  |         14262272
 2017-02-04 22:39:47.328245+01 | 1486244387.32824 | pgbench_history  |         77185024
 2017-02-04 22:39:47.328245+01 | 1486244387.32824 | pgbench_branches |         12009472

 2017-02-04 22:39:48.407894+01 | 1486244388.40789 | pgbench_accounts |      13696090112
 2017-02-04 22:39:48.407894+01 | 1486244388.40789 | pgbench_tellers  |         14262272
 2017-02-04 22:39:48.407894+01 | 1486244388.40789 | pgbench_history  |         78897152
 2017-02-04 22:39:48.407894+01 | 1486244388.40789 | pgbench_branches |         12009472

 2017-02-04 22:39:49.483908+01 | 1486244389.48391 | pgbench_accounts |      13696090112
 2017-02-04 22:39:49.483908+01 | 1486244389.48391 | pgbench_tellers  |         14262272
 2017-02-04 22:39:49.483908+01 | 1486244389.48391 | pgbench_history  |         81920000
 2017-02-04 22:39:49.483908+01 | 1486244389.48391 | pgbench_branches |         12009472

 2017-02-04 22:39:50.563641+01 | 1486244390.56364 | pgbench_accounts |      13696090112
 2017-02-04 22:39:50.563641+01 | 1486244390.56364 | pgbench_tellers  |         14262272
 2017-02-04 22:39:50.563641+01 | 1486244390.56364 | pgbench_history  |         83271680
 2017-02-04 22:39:50.563641+01 | 1486244390.56364 | pgbench_branches |         12009472

 2017-02-04 22:39:51.641247+01 | 1486244391.64125 | pgbench_accounts |      13696090112
 2017-02-04 22:39:51.641247+01 | 1486244391.64125 | pgbench_tellers  |         14262272
 2017-02-04 22:39:51.641247+01 | 1486244391.64125 | pgbench_history  |         85966848
 2017-02-04 22:39:51.641247+01 | 1486244391.64125 | pgbench_branches |         12009472

 2017-02-04 22:39:52.720501+01 | 1486244392.7205 | pgbench_accounts |      13696090112
 2017-02-04 22:39:52.720501+01 | 1486244392.7205 | pgbench_tellers  |         14262272
 2017-02-04 22:39:52.720501+01 | 1486244392.7205 | pgbench_history  |         88039424
 2017-02-04 22:39:52.720501+01 | 1486244392.7205 | pgbench_branches |         12009472

 2017-02-04 22:39:53.800972+01 | 1486244393.80097 | pgbench_accounts |      13696090112
 2017-02-04 22:39:53.800972+01 | 1486244393.80097 | pgbench_tellers  |         14262272
 2017-02-04 22:39:53.800972+01 | 1486244393.80097 | pgbench_history  |         90030080
 2017-02-04 22:39:53.800972+01 | 1486244393.80097 | pgbench_branches |         12009472

 2017-02-04 22:39:54.880367+01 | 1486244394.88037 | pgbench_accounts |      13696090112
 2017-02-04 22:39:54.880367+01 | 1486244394.88037 | pgbench_tellers  |         14262272
 2017-02-04 22:39:54.880367+01 | 1486244394.88037 | pgbench_history  |         91881472
 2017-02-04 22:39:54.880367+01 | 1486244394.88037 | pgbench_branches |         12009472

 2017-02-04 22:39:55.960803+01 | 1486244395.9608 | pgbench_accounts |      13696090112
 2017-02-04 22:39:55.960803+01 | 1486244395.9608 | pgbench_tellers  |         14262272
 2017-02-04 22:39:55.960803+01 | 1486244395.9608 | pgbench_history  |         94109696
 2017-02-04 22:39:55.960803+01 | 1486244395.9608 | pgbench_branches |         12009472

 2017-02-04 22:39:57.03692+01 | 1486244397.03692 | pgbench_accounts |      13696090112
 2017-02-04 22:39:57.03692+01 | 1486244397.03692 | pgbench_tellers  |         14262272
 2017-02-04 22:39:57.03692+01 | 1486244397.03692 | pgbench_history  |         96321536
 2017-02-04 22:39:57.03692+01 | 1486244397.03692 | pgbench_branches |         12009472

 2017-02-04 22:39:58.115183+01 | 1486244398.11518 | pgbench_accounts |      13696090112
 2017-02-04 22:39:58.115183+01 | 1486244398.11518 | pgbench_tellers  |         14262272
 2017-02-04 22:39:58.115183+01 | 1486244398.11518 | pgbench_history  |         99180544
 2017-02-04 22:39:58.115183+01 | 1486244398.11518 | pgbench_branches |         12009472

 2017-02-04 22:39:59.192755+01 | 1486244399.19275 | pgbench_accounts |      13696090112
 2017-02-04 22:39:59.192755+01 | 1486244399.19275 | pgbench_tellers  |         14262272
 2017-02-04 22:39:59.192755+01 | 1486244399.19275 | pgbench_history  |        100728832
 2017-02-04 22:39:59.192755+01 | 1486244399.19275 | pgbench_branches |         12009472

 2017-02-04 22:40:00.2703+01 | 1486244400.2703 | pgbench_accounts |      13696090112
 2017-02-04 22:40:00.2703+01 | 1486244400.2703 | pgbench_tellers  |         14262272
 2017-02-04 22:40:00.2703+01 | 1486244400.2703 | pgbench_history  |        102940672
 2017-02-04 22:40:00.2703+01 | 1486244400.2703 | pgbench_branches |         12009472

 2017-02-04 22:40:01.349379+01 | 1486244401.34938 | pgbench_accounts |      13696090112
 2017-02-04 22:40:01.349379+01 | 1486244401.34938 | pgbench_tellers  |         14262272
 2017-02-04 22:40:01.349379+01 | 1486244401.34938 | pgbench_history  |        105332736
 2017-02-04 22:40:01.349379+01 | 1486244401.34938 | pgbench_branches |         12009472

 2017-02-04 22:40:02.429186+01 | 1486244402.42919 | pgbench_accounts |      13696090112
 2017-02-04 22:40:02.429186+01 | 1486244402.42919 | pgbench_tellers  |         14262272
 2017-02-04 22:40:02.429186+01 | 1486244402.42919 | pgbench_history  |        107053056
 2017-02-04 22:40:02.429186+01 | 1486244402.42919 | pgbench_branches |         12009472

 2017-02-04 22:40:03.508046+01 | 1486244403.50805 | pgbench_accounts |      13696090112
 2017-02-04 22:40:03.508046+01 | 1486244403.50805 | pgbench_tellers  |         14262272
 2017-02-04 22:40:03.508046+01 | 1486244403.50805 | pgbench_history  |        109936640
 2017-02-04 22:40:03.508046+01 | 1486244403.50805 | pgbench_branches |         12009472

 2017-02-04 22:40:04.586136+01 | 1486244404.58614 | pgbench_accounts |      13696090112
 2017-02-04 22:40:04.586136+01 | 1486244404.58614 | pgbench_tellers  |         14262272
 2017-02-04 22:40:04.586136+01 | 1486244404.58614 | pgbench_history  |        111812608
 2017-02-04 22:40:04.586136+01 | 1486244404.58614 | pgbench_branches |         12009472

 2017-02-04 22:40:05.673396+01 | 1486244405.6734 | pgbench_accounts |      13696090112
 2017-02-04 22:40:05.673396+01 | 1486244405.6734 | pgbench_tellers  |         14262272
 2017-02-04 22:40:05.673396+01 | 1486244405.6734 | pgbench_history  |        113991680
 2017-02-04 22:40:05.673396+01 | 1486244405.6734 | pgbench_branches |         12009472

 2017-02-04 22:40:06.753555+01 | 1486244406.75356 | pgbench_accounts |      13696090112
 2017-02-04 22:40:06.753555+01 | 1486244406.75356 | pgbench_tellers  |         14262272
 2017-02-04 22:40:06.753555+01 | 1486244406.75356 | pgbench_history  |        116236288
 2017-02-04 22:40:06.753555+01 | 1486244406.75356 | pgbench_branches |         12009472

 2017-02-04 22:40:07.832711+01 | 1486244407.83271 | pgbench_accounts |      13696090112
 2017-02-04 22:40:07.832711+01 | 1486244407.83271 | pgbench_tellers  |         14262272
 2017-02-04 22:40:07.832711+01 | 1486244407.83271 | pgbench_history  |        118792192
 2017-02-04 22:40:07.832711+01 | 1486244407.83271 | pgbench_branches |         12009472

 2017-02-04 22:40:08.912657+01 | 1486244408.91266 | pgbench_accounts |      13696090112
 2017-02-04 22:40:08.912657+01 | 1486244408.91266 | pgbench_tellers  |         14262272
 2017-02-04 22:40:08.912657+01 | 1486244408.91266 | pgbench_history  |        120315904
 2017-02-04 22:40:08.912657+01 | 1486244408.91266 | pgbench_branches |         12009472

 2017-02-04 22:40:09.990378+01 | 1486244409.99038 | pgbench_accounts |      13696090112
 2017-02-04 22:40:09.990378+01 | 1486244409.99038 | pgbench_tellers  |         14262272
 2017-02-04 22:40:09.990378+01 | 1486244409.99038 | pgbench_history  |        123011072
 2017-02-04 22:40:09.990378+01 | 1486244409.99038 | pgbench_branches |         12009472

 2017-02-04 22:40:11.068291+01 | 1486244411.06829 | pgbench_accounts |      13696090112
 2017-02-04 22:40:11.068291+01 | 1486244411.06829 | pgbench_tellers  |         14262272
 2017-02-04 22:40:11.068291+01 | 1486244411.06829 | pgbench_history  |        125763584
 2017-02-04 22:40:11.068291+01 | 1486244411.06829 | pgbench_branches |         12009472

 2017-02-04 22:40:12.145867+01 | 1486244412.14587 | pgbench_accounts |      13696090112
 2017-02-04 22:40:12.145867+01 | 1486244412.14587 | pgbench_tellers  |         14262272
 2017-02-04 22:40:12.145867+01 | 1486244412.14587 | pgbench_history  |        127803392
 2017-02-04 22:40:12.145867+01 | 1486244412.14587 | pgbench_branches |         12009472

 2017-02-04 22:40:13.223473+01 | 1486244413.22347 | pgbench_accounts |      13696090112
 2017-02-04 22:40:13.223473+01 | 1486244413.22347 | pgbench_tellers  |         14262272
 2017-02-04 22:40:13.223473+01 | 1486244413.22347 | pgbench_history  |        129654784
 2017-02-04 22:40:13.223473+01 | 1486244413.22347 | pgbench_branches |         12009472

 2017-02-04 22:40:14.299259+01 | 1486244414.29926 | pgbench_accounts |      13696090112
 2017-02-04 22:40:14.299259+01 | 1486244414.29926 | pgbench_tellers  |         14262272
 2017-02-04 22:40:14.299259+01 | 1486244414.29926 | pgbench_history  |        133873664
 2017-02-04 22:40:14.299259+01 | 1486244414.29926 | pgbench_branches |         12009472

 2017-02-04 22:40:15.377229+01 | 1486244415.37723 | pgbench_accounts |      13696090112
 2017-02-04 22:40:15.377229+01 | 1486244415.37723 | pgbench_tellers  |         14262272
 2017-02-04 22:40:15.377229+01 | 1486244415.37723 | pgbench_history  |        133873664
 2017-02-04 22:40:15.377229+01 | 1486244415.37723 | pgbench_branches |         12009472

 2017-02-04 22:40:16.458546+01 | 1486244416.45855 | pgbench_accounts |      13696090112
 2017-02-04 22:40:16.458546+01 | 1486244416.45855 | pgbench_tellers  |         14262272
 2017-02-04 22:40:16.458546+01 | 1486244416.45855 | pgbench_history  |        137388032
 2017-02-04 22:40:16.458546+01 | 1486244416.45855 | pgbench_branches |         12009472

 2017-02-04 22:40:17.541502+01 | 1486244417.5415 | pgbench_accounts |      13696090112
 2017-02-04 22:40:17.541502+01 | 1486244417.5415 | pgbench_tellers  |         14262272
 2017-02-04 22:40:17.541502+01 | 1486244417.5415 | pgbench_history  |        138747904
 2017-02-04 22:40:17.541502+01 | 1486244417.5415 | pgbench_branches |         12009472

 2017-02-04 22:40:18.627486+01 | 1486244418.62749 | pgbench_accounts |      13696090112
 2017-02-04 22:40:18.627486+01 | 1486244418.62749 | pgbench_tellers  |         14262272
 2017-02-04 22:40:18.627486+01 | 1486244418.62749 | pgbench_history  |        140795904
 2017-02-04 22:40:18.627486+01 | 1486244418.62749 | pgbench_branches |         12009472

 2017-02-04 22:40:19.706455+01 | 1486244419.70645 | pgbench_accounts |      13696090112
 2017-02-04 22:40:19.706455+01 | 1486244419.70645 | pgbench_tellers  |         14262272
 2017-02-04 22:40:19.706455+01 | 1486244419.70645 | pgbench_history  |        142999552
 2017-02-04 22:40:19.706455+01 | 1486244419.70645 | pgbench_branches |         12009472

 2017-02-04 22:40:20.787939+01 | 1486244420.78794 | pgbench_accounts |      13696090112
 2017-02-04 22:40:20.787939+01 | 1486244420.78794 | pgbench_tellers  |         14262272
 2017-02-04 22:40:20.787939+01 | 1486244420.78794 | pgbench_history  |        145391616
 2017-02-04 22:40:20.787939+01 | 1486244420.78794 | pgbench_branches |         12009472

 2017-02-04 22:40:21.871078+01 | 1486244421.87108 | pgbench_accounts |      13696090112
 2017-02-04 22:40:21.871078+01 | 1486244421.87108 | pgbench_tellers  |         14262272
 2017-02-04 22:40:21.871078+01 | 1486244421.87108 | pgbench_history  |        148422656
 2017-02-04 22:40:21.871078+01 | 1486244421.87108 | pgbench_branches |         12009472

 2017-02-04 22:40:22.953284+01 | 1486244422.95328 | pgbench_accounts |      13696090112
 2017-02-04 22:40:22.953284+01 | 1486244422.95328 | pgbench_tellers  |         14262272
 2017-02-04 22:40:22.953284+01 | 1486244422.95328 | pgbench_history  |        150142976
 2017-02-04 22:40:22.953284+01 | 1486244422.95328 | pgbench_branches |         12009472

 2017-02-04 22:40:24.035334+01 | 1486244424.03533 | pgbench_accounts |      13696090112
 2017-02-04 22:40:24.035334+01 | 1486244424.03533 | pgbench_tellers  |         14262272
 2017-02-04 22:40:24.035334+01 | 1486244424.03533 | pgbench_history  |        152182784
 2017-02-04 22:40:24.035334+01 | 1486244424.03533 | pgbench_branches |         12009472

 2017-02-04 22:40:25.112224+01 | 1486244425.11222 | pgbench_accounts |      13696090112
 2017-02-04 22:40:25.112224+01 | 1486244425.11222 | pgbench_tellers  |         14262272
 2017-02-04 22:40:25.112224+01 | 1486244425.11222 | pgbench_history  |        154525696
 2017-02-04 22:40:25.112224+01 | 1486244425.11222 | pgbench_branches |         12009472

 2017-02-04 22:40:26.198642+01 | 1486244426.19864 | pgbench_accounts |      13696090112
 2017-02-04 22:40:26.198642+01 | 1486244426.19864 | pgbench_tellers  |         14262272
 2017-02-04 22:40:26.198642+01 | 1486244426.19864 | pgbench_history  |        156844032
 2017-02-04 22:40:26.198642+01 | 1486244426.19864 | pgbench_branches |         12009472

 2017-02-04 22:40:27.268454+01 | 1486244427.26845 | pgbench_accounts |      13696090112
 2017-02-04 22:40:27.268454+01 | 1486244427.26845 | pgbench_tellers  |         14262272
 2017-02-04 22:40:27.268454+01 | 1486244427.26845 | pgbench_history  |        158728192
 2017-02-04 22:40:27.268454+01 | 1486244427.26845 | pgbench_branches |         12009472

 2017-02-04 22:40:28.345815+01 | 1486244428.34581 | pgbench_accounts |      13696090112
 2017-02-04 22:40:28.345815+01 | 1486244428.34581 | pgbench_tellers  |         14262272
 2017-02-04 22:40:28.345815+01 | 1486244428.34581 | pgbench_history  |        161759232
 2017-02-04 22:40:28.345815+01 | 1486244428.34581 | pgbench_branches |         12009472

 2017-02-04 22:40:29.419726+01 | 1486244429.41973 | pgbench_accounts |      13696090112
 2017-02-04 22:40:29.419726+01 | 1486244429.41973 | pgbench_tellers  |         14262272
 2017-02-04 22:40:29.419726+01 | 1486244429.41973 | pgbench_history  |        162791424
 2017-02-04 22:40:29.419726+01 | 1486244429.41973 | pgbench_branches |         12009472

 2017-02-04 22:40:30.495674+01 | 1486244430.49567 | pgbench_accounts |      13696090112
 2017-02-04 22:40:30.495674+01 | 1486244430.49567 | pgbench_tellers  |         14262272
 2017-02-04 22:40:30.495674+01 | 1486244430.49567 | pgbench_history  |        164642816
 2017-02-04 22:40:30.495674+01 | 1486244430.49567 | pgbench_branches |         12009472

 2017-02-04 22:40:31.573839+01 | 1486244431.57384 | pgbench_accounts |      13696090112
 2017-02-04 22:40:31.573839+01 | 1486244431.57384 | pgbench_tellers  |         14262272
 2017-02-04 22:40:31.573839+01 | 1486244431.57384 | pgbench_history  |        167854080
 2017-02-04 22:40:31.573839+01 | 1486244431.57384 | pgbench_branches |         12009472

 2017-02-04 22:40:32.649909+01 | 1486244432.64991 | pgbench_accounts |      13696090112
 2017-02-04 22:40:32.649909+01 | 1486244432.64991 | pgbench_tellers  |         14262272
 2017-02-04 22:40:32.649909+01 | 1486244432.64991 | pgbench_history  |        168869888
 2017-02-04 22:40:32.649909+01 | 1486244432.64991 | pgbench_branches |         12009472

 2017-02-04 22:40:33.730878+01 | 1486244433.73088 | pgbench_accounts |      13696090112
 2017-02-04 22:40:33.730878+01 | 1486244433.73088 | pgbench_tellers  |         14262272
 2017-02-04 22:40:33.730878+01 | 1486244433.73088 | pgbench_history  |        171098112
 2017-02-04 22:40:33.730878+01 | 1486244433.73088 | pgbench_branches |         12009472

 2017-02-04 22:40:34.814652+01 | 1486244434.81465 | pgbench_accounts |      13696090112
 2017-02-04 22:40:34.814652+01 | 1486244434.81465 | pgbench_tellers  |         14262272
 2017-02-04 22:40:34.814652+01 | 1486244434.81465 | pgbench_history  |        173629440
 2017-02-04 22:40:34.814652+01 | 1486244434.81465 | pgbench_branches |         12009472

 2017-02-04 22:40:35.889649+01 | 1486244435.88965 | pgbench_accounts |      13696090112
 2017-02-04 22:40:35.889649+01 | 1486244435.88965 | pgbench_tellers  |         14262272
 2017-02-04 22:40:35.889649+01 | 1486244435.88965 | pgbench_history  |        175316992
 2017-02-04 22:40:35.889649+01 | 1486244435.88965 | pgbench_branches |         12009472

 2017-02-04 22:40:36.96846+01 | 1486244436.96846 | pgbench_accounts |      13696090112
 2017-02-04 22:40:36.96846+01 | 1486244436.96846 | pgbench_tellers  |         14262272
 2017-02-04 22:40:36.96846+01 | 1486244436.96846 | pgbench_history  |        177029120
 2017-02-04 22:40:36.96846+01 | 1486244436.96846 | pgbench_branches |         12009472

 2017-02-04 22:40:38.057573+01 | 1486244438.05757 | pgbench_accounts |      13696090112
 2017-02-04 22:40:38.057573+01 | 1486244438.05757 | pgbench_tellers  |         14262272
 2017-02-04 22:40:38.057573+01 | 1486244438.05757 | pgbench_history  |        179617792
 2017-02-04 22:40:38.057573+01 | 1486244438.05757 | pgbench_branches |         12009472

 2017-02-04 22:40:39.130997+01 | 1486244439.131 | pgbench_accounts |      13696090112
 2017-02-04 22:40:39.130997+01 | 1486244439.131 | pgbench_tellers  |         14262272
 2017-02-04 22:40:39.130997+01 | 1486244439.131 | pgbench_history  |        181870592
 2017-02-04 22:40:39.130997+01 | 1486244439.131 | pgbench_branches |         12009472

 2017-02-04 22:40:40.211295+01 | 1486244440.21129 | pgbench_accounts |      13696090112
 2017-02-04 22:40:40.211295+01 | 1486244440.21129 | pgbench_tellers  |         14262272
 2017-02-04 22:40:40.211295+01 | 1486244440.21129 | pgbench_history  |        183984128
 2017-02-04 22:40:40.211295+01 | 1486244440.21129 | pgbench_branches |         12009472

 2017-02-04 22:40:41.292541+01 | 1486244441.29254 | pgbench_accounts |      13696090112
 2017-02-04 22:40:41.292541+01 | 1486244441.29254 | pgbench_tellers  |         14262272
 2017-02-04 22:40:41.292541+01 | 1486244441.29254 | pgbench_history  |        185712640
 2017-02-04 22:40:41.292541+01 | 1486244441.29254 | pgbench_branches |         12009472

 2017-02-04 22:40:42.374088+01 | 1486244442.37409 | pgbench_accounts |      13696090112
 2017-02-04 22:40:42.374088+01 | 1486244442.37409 | pgbench_tellers  |         14262272
 2017-02-04 22:40:42.374088+01 | 1486244442.37409 | pgbench_history  |        188465152
 2017-02-04 22:40:42.374088+01 | 1486244442.37409 | pgbench_branches |         12009472

 2017-02-04 22:40:43.451994+01 | 1486244443.45199 | pgbench_accounts |      13696090112
 2017-02-04 22:40:43.451994+01 | 1486244443.45199 | pgbench_tellers  |         14262272
 2017-02-04 22:40:43.451994+01 | 1486244443.45199 | pgbench_history  |        190062592
 2017-02-04 22:40:43.451994+01 | 1486244443.45199 | pgbench_branches |         12009472

 2017-02-04 22:40:44.533653+01 | 1486244444.53365 | pgbench_accounts |      13696090112
 2017-02-04 22:40:44.533653+01 | 1486244444.53365 | pgbench_tellers  |         14262272
 2017-02-04 22:40:44.533653+01 | 1486244444.53365 | pgbench_history  |        193626112
 2017-02-04 22:40:44.533653+01 | 1486244444.53365 | pgbench_branches |         12009472

 2017-02-04 22:40:45.613635+01 | 1486244445.61364 | pgbench_accounts |      13696090112
 2017-02-04 22:40:45.613635+01 | 1486244445.61364 | pgbench_tellers  |         14262272
 2017-02-04 22:40:45.613635+01 | 1486244445.61364 | pgbench_history  |        194494464
 2017-02-04 22:40:45.613635+01 | 1486244445.61364 | pgbench_branches |         12009472

 2017-02-04 22:40:46.693183+01 | 1486244446.69318 | pgbench_accounts |      13696090112
 2017-02-04 22:40:46.693183+01 | 1486244446.69318 | pgbench_tellers  |         14262272
 2017-02-04 22:40:46.693183+01 | 1486244446.69318 | pgbench_history  |        197713920
 2017-02-04 22:40:46.693183+01 | 1486244446.69318 | pgbench_branches |         12009472

 2017-02-04 22:40:47.770505+01 | 1486244447.7705 | pgbench_accounts |      13696090112
 2017-02-04 22:40:47.770505+01 | 1486244447.7705 | pgbench_tellers  |         14262272
 2017-02-04 22:40:47.770505+01 | 1486244447.7705 | pgbench_history  |        199753728
 2017-02-04 22:40:47.770505+01 | 1486244447.7705 | pgbench_branches |         12009472

 2017-02-04 22:40:48.849179+01 | 1486244448.84918 | pgbench_accounts |      13696090112
 2017-02-04 22:40:48.849179+01 | 1486244448.84918 | pgbench_tellers  |         14262272
 2017-02-04 22:40:48.849179+01 | 1486244448.84918 | pgbench_history  |        201777152
 2017-02-04 22:40:48.849179+01 | 1486244448.84918 | pgbench_branches |         12009472

 2017-02-04 22:40:49.934077+01 | 1486244449.93408 | pgbench_accounts |      13696090112
 2017-02-04 22:40:49.934077+01 | 1486244449.93408 | pgbench_tellers  |         14262272
 2017-02-04 22:40:49.934077+01 | 1486244449.93408 | pgbench_history  |        203841536
 2017-02-04 22:40:49.934077+01 | 1486244449.93408 | pgbench_branches |         12009472

 2017-02-04 22:40:51.015058+01 | 1486244451.01506 | pgbench_accounts |      13696090112
 2017-02-04 22:40:51.015058+01 | 1486244451.01506 | pgbench_tellers  |         14262272
 2017-02-04 22:40:51.015058+01 | 1486244451.01506 | pgbench_history  |        206422016
 2017-02-04 22:40:51.015058+01 | 1486244451.01506 | pgbench_branches |         12009472

 2017-02-04 22:40:52.094208+01 | 1486244452.09421 | pgbench_accounts |      13696090112
 2017-02-04 22:40:52.094208+01 | 1486244452.09421 | pgbench_tellers  |         14262272
 2017-02-04 22:40:52.094208+01 | 1486244452.09421 | pgbench_history  |        209608704
 2017-02-04 22:40:52.094208+01 | 1486244452.09421 | pgbench_branches |         12009472

 2017-02-04 22:40:53.169919+01 | 1486244453.16992 | pgbench_accounts |      13696090112
 2017-02-04 22:40:53.169919+01 | 1486244453.16992 | pgbench_tellers  |         14262272
 2017-02-04 22:40:53.169919+01 | 1486244453.16992 | pgbench_history  |        210616320
 2017-02-04 22:40:53.169919+01 | 1486244453.16992 | pgbench_branches |         12009472

 2017-02-04 22:40:54.25308+01 | 1486244454.25308 | pgbench_accounts |      13696090112
 2017-02-04 22:40:54.25308+01 | 1486244454.25308 | pgbench_tellers  |         14262272
 2017-02-04 22:40:54.25308+01 | 1486244454.25308 | pgbench_history  |        212844544
 2017-02-04 22:40:54.25308+01 | 1486244454.25308 | pgbench_branches |         12009472

 2017-02-04 22:40:55.332709+01 | 1486244455.33271 | pgbench_accounts |      13696090112
 2017-02-04 22:40:55.332709+01 | 1486244455.33271 | pgbench_tellers  |         14262272
 2017-02-04 22:40:55.332709+01 | 1486244455.33271 | pgbench_history  |        215072768
 2017-02-04 22:40:55.332709+01 | 1486244455.33271 | pgbench_branches |         12009472

 2017-02-04 22:40:56.41181+01 | 1486244456.41181 | pgbench_accounts |      13696090112
 2017-02-04 22:40:56.41181+01 | 1486244456.41181 | pgbench_tellers  |         14262272
 2017-02-04 22:40:56.41181+01 | 1486244456.41181 | pgbench_history  |        217612288
 2017-02-04 22:40:56.41181+01 | 1486244456.41181 | pgbench_branches |         12009472

 2017-02-04 22:40:57.488921+01 | 1486244457.48892 | pgbench_accounts |      13696090112
 2017-02-04 22:40:57.488921+01 | 1486244457.48892 | pgbench_tellers  |         14262272
 2017-02-04 22:40:57.488921+01 | 1486244457.48892 | pgbench_history  |        219758592
 2017-02-04 22:40:57.488921+01 | 1486244457.48892 | pgbench_branches |         12009472

 2017-02-04 22:40:58.568471+01 | 1486244458.56847 | pgbench_accounts |      13696090112
 2017-02-04 22:40:58.568471+01 | 1486244458.56847 | pgbench_tellers  |         14262272
 2017-02-04 22:40:58.568471+01 | 1486244458.56847 | pgbench_history  |        221986816
 2017-02-04 22:40:58.568471+01 | 1486244458.56847 | pgbench_branches |         12009472

 2017-02-04 22:40:59.65229+01 | 1486244459.65229 | pgbench_accounts |      13696090112
 2017-02-04 22:40:59.65229+01 | 1486244459.65229 | pgbench_tellers  |         14262272
 2017-02-04 22:40:59.65229+01 | 1486244459.65229 | pgbench_history  |        224493568
 2017-02-04 22:40:59.65229+01 | 1486244459.65229 | pgbench_branches |         12009472

 2017-02-04 22:41:00.731246+01 | 1486244460.73125 | pgbench_accounts |      13696090112
 2017-02-04 22:41:00.731246+01 | 1486244460.73125 | pgbench_tellers  |         14262272
 2017-02-04 22:41:00.731246+01 | 1486244460.73125 | pgbench_history  |        226205696
 2017-02-04 22:41:00.731246+01 | 1486244460.73125 | pgbench_branches |         12009472

 2017-02-04 22:41:01.813432+01 | 1486244461.81343 | pgbench_accounts |      13696090112
 2017-02-04 22:41:01.813432+01 | 1486244461.81343 | pgbench_tellers  |         14262272
 2017-02-04 22:41:01.813432+01 | 1486244461.81343 | pgbench_history  |        228622336
 2017-02-04 22:41:01.813432+01 | 1486244461.81343 | pgbench_branches |         12009472

 2017-02-04 22:41:02.889417+01 | 1486244462.88942 | pgbench_accounts |      13696090112
 2017-02-04 22:41:02.889417+01 | 1486244462.88942 | pgbench_tellers  |         14262272
 2017-02-04 22:41:02.889417+01 | 1486244462.88942 | pgbench_history  |        230744064
 2017-02-04 22:41:02.889417+01 | 1486244462.88942 | pgbench_branches |         12009472

 2017-02-04 22:41:03.968055+01 | 1486244463.96806 | pgbench_accounts |      13696090112
 2017-02-04 22:41:03.968055+01 | 1486244463.96806 | pgbench_tellers  |         14262272
 2017-02-04 22:41:03.968055+01 | 1486244463.96806 | pgbench_history  |        233283584
 2017-02-04 22:41:03.968055+01 | 1486244463.96806 | pgbench_branches |         12009472

 2017-02-04 22:41:05.041876+01 | 1486244465.04188 | pgbench_accounts |      13696090112
 2017-02-04 22:41:05.041876+01 | 1486244465.04188 | pgbench_tellers  |         14262272
 2017-02-04 22:41:05.041876+01 | 1486244465.04188 | pgbench_history  |        234348544
 2017-02-04 22:41:05.041876+01 | 1486244465.04188 | pgbench_branches |         12009472

 2017-02-04 22:41:06.124812+01 | 1486244466.12481 | pgbench_accounts |      13696090112
 2017-02-04 22:41:06.124812+01 | 1486244466.12481 | pgbench_tellers  |         14262272
 2017-02-04 22:41:06.124812+01 | 1486244466.12481 | pgbench_history  |        236208128
 2017-02-04 22:41:06.124812+01 | 1486244466.12481 | pgbench_branches |         12009472

 2017-02-04 22:41:07.203868+01 | 1486244467.20387 | pgbench_accounts |      13696090112
 2017-02-04 22:41:07.203868+01 | 1486244467.20387 | pgbench_tellers  |         14262272
 2017-02-04 22:41:07.203868+01 | 1486244467.20387 | pgbench_history  |        238551040
 2017-02-04 22:41:07.203868+01 | 1486244467.20387 | pgbench_branches |         12009472

 2017-02-04 22:41:08.281728+01 | 1486244468.28173 | pgbench_accounts |      13696090112
 2017-02-04 22:41:08.281728+01 | 1486244468.28173 | pgbench_tellers  |         14262272
 2017-02-04 22:41:08.281728+01 | 1486244468.28173 | pgbench_history  |        240451584
 2017-02-04 22:41:08.281728+01 | 1486244468.28173 | pgbench_branches |         12009472

 2017-02-04 22:41:09.356985+01 | 1486244469.35699 | pgbench_accounts |      13696090112
 2017-02-04 22:41:09.356985+01 | 1486244469.35699 | pgbench_tellers  |         14262272
 2017-02-04 22:41:09.356985+01 | 1486244469.35699 | pgbench_history  |        242819072
 2017-02-04 22:41:09.356985+01 | 1486244469.35699 | pgbench_branches |         12009472

 2017-02-04 22:41:10.434565+01 | 1486244470.43457 | pgbench_accounts |      13696090112
 2017-02-04 22:41:10.434565+01 | 1486244470.43457 | pgbench_tellers  |         14262272
 2017-02-04 22:41:10.434565+01 | 1486244470.43457 | pgbench_history  |        244842496
 2017-02-04 22:41:10.434565+01 | 1486244470.43457 | pgbench_branches |         12009472

 2017-02-04 22:41:11.513609+01 | 1486244471.51361 | pgbench_accounts |      13696090112
 2017-02-04 22:41:11.513609+01 | 1486244471.51361 | pgbench_tellers  |         14262272
 2017-02-04 22:41:11.513609+01 | 1486244471.51361 | pgbench_history  |        246890496
 2017-02-04 22:41:11.513609+01 | 1486244471.51361 | pgbench_branches |         12009472

 2017-02-04 22:41:12.590352+01 | 1486244472.59035 | pgbench_accounts |      13696090112
 2017-02-04 22:41:12.590352+01 | 1486244472.59035 | pgbench_tellers  |         14262272
 2017-02-04 22:41:12.590352+01 | 1486244472.59035 | pgbench_history  |        249282560
 2017-02-04 22:41:12.590352+01 | 1486244472.59035 | pgbench_branches |         12009472

 2017-02-04 22:41:13.667495+01 | 1486244473.6675 | pgbench_accounts |      13696090112
 2017-02-04 22:41:13.667495+01 | 1486244473.6675 | pgbench_tellers  |         14262272
 2017-02-04 22:41:13.667495+01 | 1486244473.6675 | pgbench_history  |        251494400
 2017-02-04 22:41:13.667495+01 | 1486244473.6675 | pgbench_branches |         12009472

 2017-02-04 22:41:14.751138+01 | 1486244474.75114 | pgbench_accounts |      13696090112
 2017-02-04 22:41:14.751138+01 | 1486244474.75114 | pgbench_tellers  |         14262272
 2017-02-04 22:41:14.751138+01 | 1486244474.75114 | pgbench_history  |        253100032
 2017-02-04 22:41:14.751138+01 | 1486244474.75114 | pgbench_branches |         12009472

 2017-02-04 22:41:15.82789+01 | 1486244475.82789 | pgbench_accounts |      13696090112
 2017-02-04 22:41:15.82789+01 | 1486244475.82789 | pgbench_tellers  |         14262272
 2017-02-04 22:41:15.82789+01 | 1486244475.82789 | pgbench_history  |        255344640
 2017-02-04 22:41:15.82789+01 | 1486244475.82789 | pgbench_branches |         12009472

 2017-02-04 22:41:16.904184+01 | 1486244476.90418 | pgbench_accounts |      13696090112
 2017-02-04 22:41:16.904184+01 | 1486244476.90418 | pgbench_tellers  |         14262272
 2017-02-04 22:41:16.904184+01 | 1486244476.90418 | pgbench_history  |        257064960
 2017-02-04 22:41:16.904184+01 | 1486244476.90418 | pgbench_branches |         12009472

 2017-02-04 22:41:17.987874+01 | 1486244477.98787 | pgbench_accounts |      13696090112
 2017-02-04 22:41:17.987874+01 | 1486244477.98787 | pgbench_tellers  |         14262272
 2017-02-04 22:41:17.987874+01 | 1486244477.98787 | pgbench_history  |        259112960
 2017-02-04 22:41:17.987874+01 | 1486244477.98787 | pgbench_branches |         12009472

 2017-02-04 22:41:19.071687+01 | 1486244479.07169 | pgbench_accounts |      13696090112
 2017-02-04 22:41:19.071687+01 | 1486244479.07169 | pgbench_tellers  |         14262272
 2017-02-04 22:41:19.071687+01 | 1486244479.07169 | pgbench_history  |        261341184
 2017-02-04 22:41:19.071687+01 | 1486244479.07169 | pgbench_branches |         12009472

 2017-02-04 22:41:20.156452+01 | 1486244480.15645 | pgbench_accounts |      13696090112
 2017-02-04 22:41:20.156452+01 | 1486244480.15645 | pgbench_tellers  |         14262272
 2017-02-04 22:41:20.156452+01 | 1486244480.15645 | pgbench_history  |        262889472
 2017-02-04 22:41:20.156452+01 | 1486244480.15645 | pgbench_branches |         12009472

 2017-02-04 22:41:21.241674+01 | 1486244481.24167 | pgbench_accounts |      13696090112
 2017-02-04 22:41:21.241674+01 | 1486244481.24167 | pgbench_tellers  |         14262272
 2017-02-04 22:41:21.241674+01 | 1486244481.24167 | pgbench_history  |        264609792
 2017-02-04 22:41:21.241674+01 | 1486244481.24167 | pgbench_branches |         12009472

 2017-02-04 22:41:22.320891+01 | 1486244482.32089 | pgbench_accounts |      13696090112
 2017-02-04 22:41:22.320891+01 | 1486244482.32089 | pgbench_tellers  |         14262272
 2017-02-04 22:41:22.320891+01 | 1486244482.32089 | pgbench_history  |        267165696
 2017-02-04 22:41:22.320891+01 | 1486244482.32089 | pgbench_branches |         12009472

 2017-02-04 22:41:23.39431+01 | 1486244483.39431 | pgbench_accounts |      13696090112
 2017-02-04 22:41:23.39431+01 | 1486244483.39431 | pgbench_tellers  |         14262272
 2017-02-04 22:41:23.39431+01 | 1486244483.39431 | pgbench_history  |        269279232
 2017-02-04 22:41:23.39431+01 | 1486244483.39431 | pgbench_branches |         12009472

 2017-02-04 22:41:24.473437+01 | 1486244484.47344 | pgbench_accounts |      13696090112
 2017-02-04 22:41:24.473437+01 | 1486244484.47344 | pgbench_tellers  |         14262272
 2017-02-04 22:41:24.473437+01 | 1486244484.47344 | pgbench_history  |        271491072
 2017-02-04 22:41:24.473437+01 | 1486244484.47344 | pgbench_branches |         12009472

 2017-02-04 22:41:25.552909+01 | 1486244485.55291 | pgbench_accounts |      13696090112
 2017-02-04 22:41:25.552909+01 | 1486244485.55291 | pgbench_tellers  |         14262272
 2017-02-04 22:41:25.552909+01 | 1486244485.55291 | pgbench_history  |        273702912
 2017-02-04 22:41:25.552909+01 | 1486244485.55291 | pgbench_branches |         12009472

 2017-02-04 22:41:26.623491+01 | 1486244486.62349 | pgbench_accounts |      13696090112
 2017-02-04 22:41:26.623491+01 | 1486244486.62349 | pgbench_tellers  |         14262272
 2017-02-04 22:41:26.623491+01 | 1486244486.62349 | pgbench_history  |        275939328
 2017-02-04 22:41:26.623491+01 | 1486244486.62349 | pgbench_branches |         12009472

 2017-02-04 22:41:27.702477+01 | 1486244487.70248 | pgbench_accounts |      13696090112
 2017-02-04 22:41:27.702477+01 | 1486244487.70248 | pgbench_tellers  |         14262272
 2017-02-04 22:41:27.702477+01 | 1486244487.70248 | pgbench_history  |        278798336
 2017-02-04 22:41:27.702477+01 | 1486244487.70248 | pgbench_branches |         12009472

 2017-02-04 22:41:28.789718+01 | 1486244488.78972 | pgbench_accounts |      13696090112
 2017-02-04 22:41:28.789718+01 | 1486244488.78972 | pgbench_tellers  |         14262272
 2017-02-04 22:41:28.789718+01 | 1486244488.78972 | pgbench_history  |        280838144
 2017-02-04 22:41:28.789718+01 | 1486244488.78972 | pgbench_branches |         12009472

 2017-02-04 22:41:29.869593+01 | 1486244489.86959 | pgbench_accounts |      13696090112
 2017-02-04 22:41:29.869593+01 | 1486244489.86959 | pgbench_tellers  |         14262272
 2017-02-04 22:41:29.869593+01 | 1486244489.86959 | pgbench_history  |        285147136
 2017-02-04 22:41:29.869593+01 | 1486244489.86959 | pgbench_branches |         12009472

 2017-02-04 22:41:30.945048+01 | 1486244490.94505 | pgbench_accounts |      13696090112
 2017-02-04 22:41:30.945048+01 | 1486244490.94505 | pgbench_tellers  |         14262272
 2017-02-04 22:41:30.945048+01 | 1486244490.94505 | pgbench_history  |        285147136
 2017-02-04 22:41:30.945048+01 | 1486244490.94505 | pgbench_branches |         12009472

 2017-02-04 22:41:32.023486+01 | 1486244492.02349 | pgbench_accounts |      13696090112
 2017-02-04 22:41:32.023486+01 | 1486244492.02349 | pgbench_tellers  |         14262272
 2017-02-04 22:41:32.023486+01 | 1486244492.02349 | pgbench_history  |        288219136
 2017-02-04 22:41:32.023486+01 | 1486244492.02349 | pgbench_branches |         12009472

 2017-02-04 22:41:33.105081+01 | 1486244493.10508 | pgbench_accounts |      13696090112
 2017-02-04 22:41:33.105081+01 | 1486244493.10508 | pgbench_tellers  |         14262272
 2017-02-04 22:41:33.105081+01 | 1486244493.10508 | pgbench_history  |        289554432
 2017-02-04 22:41:33.105081+01 | 1486244493.10508 | pgbench_branches |         12009472

 2017-02-04 22:41:34.184479+01 | 1486244494.18448 | pgbench_accounts |      13696090112
 2017-02-04 22:41:34.184479+01 | 1486244494.18448 | pgbench_tellers  |         14262272
 2017-02-04 22:41:34.184479+01 | 1486244494.18448 | pgbench_history  |        292085760
 2017-02-04 22:41:34.184479+01 | 1486244494.18448 | pgbench_branches |         12009472

 2017-02-04 22:41:35.264646+01 | 1486244495.26465 | pgbench_accounts |      13696090112
 2017-02-04 22:41:35.264646+01 | 1486244495.26465 | pgbench_tellers  |         14262272
 2017-02-04 22:41:35.264646+01 | 1486244495.26465 | pgbench_history  |        294289408
 2017-02-04 22:41:35.264646+01 | 1486244495.26465 | pgbench_branches |         12009472

 2017-02-04 22:41:36.339671+01 | 1486244496.33967 | pgbench_accounts |      13696090112
 2017-02-04 22:41:36.339671+01 | 1486244496.33967 | pgbench_tellers  |         14262272
 2017-02-04 22:41:36.339671+01 | 1486244496.33967 | pgbench_history  |        296140800
 2017-02-04 22:41:36.339671+01 | 1486244496.33967 | pgbench_branches |         12009472

 2017-02-04 22:41:37.416021+01 | 1486244497.41602 | pgbench_accounts |      13696090112
 2017-02-04 22:41:37.416021+01 | 1486244497.41602 | pgbench_tellers  |         14262272
 2017-02-04 22:41:37.416021+01 | 1486244497.41602 | pgbench_history  |        300965888
 2017-02-04 22:41:37.416021+01 | 1486244497.41602 | pgbench_branches |         12009472

 2017-02-04 22:41:38.493762+01 | 1486244498.49376 | pgbench_accounts |      13696090112
 2017-02-04 22:41:38.493762+01 | 1486244498.49376 | pgbench_tellers  |         14262272
 2017-02-04 22:41:38.493762+01 | 1486244498.49376 | pgbench_history  |        300965888
 2017-02-04 22:41:38.493762+01 | 1486244498.49376 | pgbench_branches |         12009472

 2017-02-04 22:41:39.570364+01 | 1486244499.57036 | pgbench_accounts |      13696090112
 2017-02-04 22:41:39.570364+01 | 1486244499.57036 | pgbench_tellers  |         14262272
 2017-02-04 22:41:39.570364+01 | 1486244499.57036 | pgbench_history  |        304504832
 2017-02-04 22:41:39.570364+01 | 1486244499.57036 | pgbench_branches |         12009472

 2017-02-04 22:41:40.648145+01 | 1486244500.64814 | pgbench_accounts |      13696090112
 2017-02-04 22:41:40.648145+01 | 1486244500.64814 | pgbench_tellers  |         14262272
 2017-02-04 22:41:40.648145+01 | 1486244500.64814 | pgbench_history  |        305676288
 2017-02-04 22:41:40.648145+01 | 1486244500.64814 | pgbench_branches |         12009472

 2017-02-04 22:41:41.730988+01 | 1486244501.73099 | pgbench_accounts |      13696090112
 2017-02-04 22:41:41.730988+01 | 1486244501.73099 | pgbench_tellers  |         14262272
 2017-02-04 22:41:41.730988+01 | 1486244501.73099 | pgbench_history  |        307576832
 2017-02-04 22:41:41.730988+01 | 1486244501.73099 | pgbench_branches |         12009472

 2017-02-04 22:41:42.804907+01 | 1486244502.80491 | pgbench_accounts |      13696090112
 2017-02-04 22:41:42.804907+01 | 1486244502.80491 | pgbench_tellers  |         14262272
 2017-02-04 22:41:42.804907+01 | 1486244502.80491 | pgbench_history  |        310763520
 2017-02-04 22:41:42.804907+01 | 1486244502.80491 | pgbench_branches |         12009472

 2017-02-04 22:41:43.888354+01 | 1486244503.88835 | pgbench_accounts |      13696090112
 2017-02-04 22:41:43.888354+01 | 1486244503.88835 | pgbench_tellers  |         14262272
 2017-02-04 22:41:43.888354+01 | 1486244503.88835 | pgbench_history  |        312590336
 2017-02-04 22:41:43.888354+01 | 1486244503.88835 | pgbench_branches |         12009472

 2017-02-04 22:41:44.961248+01 | 1486244504.96125 | pgbench_accounts |      13696090112
 2017-02-04 22:41:44.961248+01 | 1486244504.96125 | pgbench_tellers  |         14262272
 2017-02-04 22:41:44.961248+01 | 1486244504.96125 | pgbench_history  |        314015744
 2017-02-04 22:41:44.961248+01 | 1486244504.96125 | pgbench_branches |         12009472

 2017-02-04 22:41:46.049046+01 | 1486244506.04905 | pgbench_accounts |      13696090112
 2017-02-04 22:41:46.049046+01 | 1486244506.04905 | pgbench_tellers  |         14262272
 2017-02-04 22:41:46.049046+01 | 1486244506.04905 | pgbench_history  |        317071360
 2017-02-04 22:41:46.049046+01 | 1486244506.04905 | pgbench_branches |         12009472

 2017-02-04 22:41:47.129854+01 | 1486244507.12985 | pgbench_accounts |      13696090112
 2017-02-04 22:41:47.129854+01 | 1486244507.12985 | pgbench_tellers  |         14262272
 2017-02-04 22:41:47.129854+01 | 1486244507.12985 | pgbench_history  |        319250432
 2017-02-04 22:41:47.129854+01 | 1486244507.12985 | pgbench_branches |         12009472

 2017-02-04 22:41:48.207773+01 | 1486244508.20777 | pgbench_accounts |      13696090112
 2017-02-04 22:41:48.207773+01 | 1486244508.20777 | pgbench_tellers  |         14262272
 2017-02-04 22:41:48.207773+01 | 1486244508.20777 | pgbench_history  |        323403776
 2017-02-04 22:41:48.207773+01 | 1486244508.20777 | pgbench_branches |         12009472

 2017-02-04 22:41:49.282456+01 | 1486244509.28246 | pgbench_accounts |      13696090112
 2017-02-04 22:41:49.282456+01 | 1486244509.28246 | pgbench_tellers  |         14262272
 2017-02-04 22:41:49.282456+01 | 1486244509.28246 | pgbench_history  |        323403776
 2017-02-04 22:41:49.282456+01 | 1486244509.28246 | pgbench_branches |         12009472

 2017-02-04 22:41:50.35665+01 | 1486244510.35665 | pgbench_accounts |      13696090112
 2017-02-04 22:41:50.35665+01 | 1486244510.35665 | pgbench_tellers  |         14262272
 2017-02-04 22:41:50.35665+01 | 1486244510.35665 | pgbench_history  |        326131712
 2017-02-04 22:41:50.35665+01 | 1486244510.35665 | pgbench_branches |         12009472

 2017-02-04 22:41:51.432505+01 | 1486244511.4325 | pgbench_accounts |      13696090112
 2017-02-04 22:41:51.432505+01 | 1486244511.4325 | pgbench_tellers  |         14262272
 2017-02-04 22:41:51.432505+01 | 1486244511.4325 | pgbench_history  |        327630848
 2017-02-04 22:41:51.432505+01 | 1486244511.4325 | pgbench_branches |         12009472

 2017-02-04 22:41:52.506485+01 | 1486244512.50648 | pgbench_accounts |      13696090112
 2017-02-04 22:41:52.506485+01 | 1486244512.50648 | pgbench_tellers  |         14262272
 2017-02-04 22:41:52.506485+01 | 1486244512.50648 | pgbench_history  |        330678272
 2017-02-04 22:41:52.506485+01 | 1486244512.50648 | pgbench_branches |         12009472

 2017-02-04 22:41:53.581624+01 | 1486244513.58162 | pgbench_accounts |      13696090112
 2017-02-04 22:41:53.581624+01 | 1486244513.58162 | pgbench_tellers  |         14262272
 2017-02-04 22:41:53.581624+01 | 1486244513.58162 | pgbench_history  |        332390400
 2017-02-04 22:41:53.581624+01 | 1486244513.58162 | pgbench_branches |         12009472

 2017-02-04 22:41:54.662125+01 | 1486244514.66213 | pgbench_accounts |      13696090112
 2017-02-04 22:41:54.662125+01 | 1486244514.66213 | pgbench_tellers  |         14262272
 2017-02-04 22:41:54.662125+01 | 1486244514.66213 | pgbench_history  |        334733312
 2017-02-04 22:41:54.662125+01 | 1486244514.66213 | pgbench_branches |         12009472

 2017-02-04 22:41:55.746429+01 | 1486244515.74643 | pgbench_accounts |      13696090112
 2017-02-04 22:41:55.746429+01 | 1486244515.74643 | pgbench_tellers  |         14262272
 2017-02-04 22:41:55.746429+01 | 1486244515.74643 | pgbench_history  |        337567744
 2017-02-04 22:41:55.746429+01 | 1486244515.74643 | pgbench_branches |         12009472

 2017-02-04 22:41:56.826093+01 | 1486244516.82609 | pgbench_accounts |      13696090112
 2017-02-04 22:41:56.826093+01 | 1486244516.82609 | pgbench_tellers  |         14262272
 2017-02-04 22:41:56.826093+01 | 1486244516.82609 | pgbench_history  |        338763776
 2017-02-04 22:41:56.826093+01 | 1486244516.82609 | pgbench_branches |         12009472

 2017-02-04 22:41:57.905337+01 | 1486244517.90534 | pgbench_accounts |      13696090112
 2017-02-04 22:41:57.905337+01 | 1486244517.90534 | pgbench_tellers  |         14262272
 2017-02-04 22:41:57.905337+01 | 1486244517.90534 | pgbench_history  |        342147072
 2017-02-04 22:41:57.905337+01 | 1486244517.90534 | pgbench_branches |         12009472

 2017-02-04 22:41:58.986947+01 | 1486244518.98695 | pgbench_accounts |      13696090112
 2017-02-04 22:41:58.986947+01 | 1486244518.98695 | pgbench_tellers  |         14262272
 2017-02-04 22:41:58.986947+01 | 1486244518.98695 | pgbench_history  |        344023040
 2017-02-04 22:41:58.986947+01 | 1486244518.98695 | pgbench_branches |         12009472

 2017-02-04 22:42:00.069712+01 | 1486244520.06971 | pgbench_accounts |      13696090112
 2017-02-04 22:42:00.069712+01 | 1486244520.06971 | pgbench_tellers  |         14262272
 2017-02-04 22:42:00.069712+01 | 1486244520.06971 | pgbench_history  |        345874432
 2017-02-04 22:42:00.069712+01 | 1486244520.06971 | pgbench_branches |         12009472

 2017-02-04 22:42:01.151781+01 | 1486244521.15178 | pgbench_accounts |      13696090112
 2017-02-04 22:42:01.151781+01 | 1486244521.15178 | pgbench_tellers  |         14262272
 2017-02-04 22:42:01.151781+01 | 1486244521.15178 | pgbench_history  |        347987968
 2017-02-04 22:42:01.151781+01 | 1486244521.15178 | pgbench_branches |         12009472

 2017-02-04 22:42:02.228313+01 | 1486244522.22831 | pgbench_accounts |      13696090112
 2017-02-04 22:42:02.228313+01 | 1486244522.22831 | pgbench_tellers  |         14262272
 2017-02-04 22:42:02.228313+01 | 1486244522.22831 | pgbench_history  |        350388224
 2017-02-04 22:42:02.228313+01 | 1486244522.22831 | pgbench_branches |         12009472

 2017-02-04 22:42:03.30191+01 | 1486244523.30191 | pgbench_accounts |      13696090112
 2017-02-04 22:42:03.30191+01 | 1486244523.30191 | pgbench_tellers  |         14262272
 2017-02-04 22:42:03.30191+01 | 1486244523.30191 | pgbench_history  |        352755712
 2017-02-04 22:42:03.30191+01 | 1486244523.30191 | pgbench_branches |         12009472

 2017-02-04 22:42:04.378641+01 | 1486244524.37864 | pgbench_accounts |      13696090112
 2017-02-04 22:42:04.378641+01 | 1486244524.37864 | pgbench_tellers  |         14262272
 2017-02-04 22:42:04.378641+01 | 1486244524.37864 | pgbench_history  |        354959360
 2017-02-04 22:42:04.378641+01 | 1486244524.37864 | pgbench_branches |         12009472

 2017-02-04 22:42:05.455537+01 | 1486244525.45554 | pgbench_accounts |      13696090112
 2017-02-04 22:42:05.455537+01 | 1486244525.45554 | pgbench_tellers  |         14262272
 2017-02-04 22:42:05.455537+01 | 1486244525.45554 | pgbench_history  |        356835328
 2017-02-04 22:42:05.455537+01 | 1486244525.45554 | pgbench_branches |         12009472

 2017-02-04 22:42:06.52854+01 | 1486244526.52854 | pgbench_accounts |      13696090112
 2017-02-04 22:42:06.52854+01 | 1486244526.52854 | pgbench_tellers  |         14262272
 2017-02-04 22:42:06.52854+01 | 1486244526.52854 | pgbench_history  |        359063552
 2017-02-04 22:42:06.52854+01 | 1486244526.52854 | pgbench_branches |         12009472

 2017-02-04 22:42:07.612665+01 | 1486244527.61266 | pgbench_accounts |      13696090112
 2017-02-04 22:42:07.612665+01 | 1486244527.61266 | pgbench_tellers  |         14262272
 2017-02-04 22:42:07.612665+01 | 1486244527.61266 | pgbench_history  |        361775104
 2017-02-04 22:42:07.612665+01 | 1486244527.61266 | pgbench_branches |         12009472

 2017-02-04 22:42:08.702466+01 | 1486244528.70247 | pgbench_accounts |      13696090112
 2017-02-04 22:42:08.702466+01 | 1486244528.70247 | pgbench_tellers  |         14262272
 2017-02-04 22:42:08.702466+01 | 1486244528.70247 | pgbench_history  |        363651072
 2017-02-04 22:42:08.702466+01 | 1486244528.70247 | pgbench_branches |         12009472

 2017-02-04 22:42:09.785097+01 | 1486244529.7851 | pgbench_accounts |      13696090112
 2017-02-04 22:42:09.785097+01 | 1486244529.7851 | pgbench_tellers  |         14262272
 2017-02-04 22:42:09.785097+01 | 1486244529.7851 | pgbench_history  |        366354432
 2017-02-04 22:42:09.785097+01 | 1486244529.7851 | pgbench_branches |         12009472

 2017-02-04 22:42:10.865351+01 | 1486244530.86535 | pgbench_accounts |      13696090112
 2017-02-04 22:42:10.865351+01 | 1486244530.86535 | pgbench_tellers  |         14262272
 2017-02-04 22:42:10.865351+01 | 1486244530.86535 | pgbench_history  |        368254976
 2017-02-04 22:42:10.865351+01 | 1486244530.86535 | pgbench_branches |         12009472

 2017-02-04 22:42:11.940006+01 | 1486244531.94001 | pgbench_accounts |      13696090112
 2017-02-04 22:42:11.940006+01 | 1486244531.94001 | pgbench_tellers  |         14262272
 2017-02-04 22:42:11.940006+01 | 1486244531.94001 | pgbench_history  |        370327552
 2017-02-04 22:42:11.940006+01 | 1486244531.94001 | pgbench_branches |         12009472

 2017-02-04 22:42:13.017553+01 | 1486244533.01755 | pgbench_accounts |      13696090112
 2017-02-04 22:42:13.017553+01 | 1486244533.01755 | pgbench_tellers  |         14262272
 2017-02-04 22:42:13.017553+01 | 1486244533.01755 | pgbench_history  |        372555776
 2017-02-04 22:42:13.017553+01 | 1486244533.01755 | pgbench_branches |         12009472

 2017-02-04 22:42:14.101152+01 | 1486244534.10115 | pgbench_accounts |      13696090112
 2017-02-04 22:42:14.101152+01 | 1486244534.10115 | pgbench_tellers  |         14262272
 2017-02-04 22:42:14.101152+01 | 1486244534.10115 | pgbench_history  |        375185408
 2017-02-04 22:42:14.101152+01 | 1486244534.10115 | pgbench_branches |         12009472

 2017-02-04 22:42:15.184966+01 | 1486244535.18497 | pgbench_accounts |      13696090112
 2017-02-04 22:42:15.184966+01 | 1486244535.18497 | pgbench_tellers  |         14262272
 2017-02-04 22:42:15.184966+01 | 1486244535.18497 | pgbench_history  |        377249792
 2017-02-04 22:42:15.184966+01 | 1486244535.18497 | pgbench_branches |         12009472

 2017-02-04 22:42:16.265944+01 | 1486244536.26594 | pgbench_accounts |      13696090112
 2017-02-04 22:42:16.265944+01 | 1486244536.26594 | pgbench_tellers  |         14262272
 2017-02-04 22:42:16.265944+01 | 1486244536.26594 | pgbench_history  |        380665856
 2017-02-04 22:42:16.265944+01 | 1486244536.26594 | pgbench_branches |         12009472

 2017-02-04 22:42:17.342277+01 | 1486244537.34228 | pgbench_accounts |      13696090112
 2017-02-04 22:42:17.342277+01 | 1486244537.34228 | pgbench_tellers  |         14262272
 2017-02-04 22:42:17.342277+01 | 1486244537.34228 | pgbench_history  |        381181952
 2017-02-04 22:42:17.342277+01 | 1486244537.34228 | pgbench_branches |         12009472

 2017-02-04 22:42:18.417747+01 | 1486244538.41775 | pgbench_accounts |      13696090112
 2017-02-04 22:42:18.417747+01 | 1486244538.41775 | pgbench_tellers  |         14262272
 2017-02-04 22:42:18.417747+01 | 1486244538.41775 | pgbench_history  |        383713280
 2017-02-04 22:42:18.417747+01 | 1486244538.41775 | pgbench_branches |         12009472

 2017-02-04 22:42:19.497627+01 | 1486244539.49763 | pgbench_accounts |      13696090112
 2017-02-04 22:42:19.497627+01 | 1486244539.49763 | pgbench_tellers  |         14262272
 2017-02-04 22:42:19.497627+01 | 1486244539.49763 | pgbench_history  |        385851392
 2017-02-04 22:42:19.497627+01 | 1486244539.49763 | pgbench_branches |         12009472

 2017-02-04 22:42:20.572161+01 | 1486244540.57216 | pgbench_accounts |      13696090112
 2017-02-04 22:42:20.572161+01 | 1486244540.57216 | pgbench_tellers  |         14262272
 2017-02-04 22:42:20.572161+01 | 1486244540.57216 | pgbench_history  |        387702784
 2017-02-04 22:42:20.572161+01 | 1486244540.57216 | pgbench_branches |         12009472

 2017-02-04 22:42:21.653738+01 | 1486244541.65374 | pgbench_accounts |      13696090112
 2017-02-04 22:42:21.653738+01 | 1486244541.65374 | pgbench_tellers  |         14262272
 2017-02-04 22:42:21.653738+01 | 1486244541.65374 | pgbench_history  |        390594560
 2017-02-04 22:42:21.653738+01 | 1486244541.65374 | pgbench_branches |         12009472

 2017-02-04 22:42:22.727019+01 | 1486244542.72702 | pgbench_accounts |      13696090112
 2017-02-04 22:42:22.727019+01 | 1486244542.72702 | pgbench_tellers  |         14262272
 2017-02-04 22:42:22.727019+01 | 1486244542.72702 | pgbench_history  |        391979008
 2017-02-04 22:42:22.727019+01 | 1486244542.72702 | pgbench_branches |         12009472

 2017-02-04 22:42:23.807422+01 | 1486244543.80742 | pgbench_accounts |      13696090112
 2017-02-04 22:42:23.807422+01 | 1486244543.80742 | pgbench_tellers  |         14262272
 2017-02-04 22:42:23.807422+01 | 1486244543.80742 | pgbench_history  |        393805824
 2017-02-04 22:42:23.807422+01 | 1486244543.80742 | pgbench_branches |         12009472

 2017-02-04 22:42:24.893555+01 | 1486244544.89355 | pgbench_accounts |      13696090112
 2017-02-04 22:42:24.893555+01 | 1486244544.89355 | pgbench_tellers  |         14262272
 2017-02-04 22:42:24.893555+01 | 1486244544.89355 | pgbench_history  |        395984896
 2017-02-04 22:42:24.893555+01 | 1486244544.89355 | pgbench_branches |         12009472

 2017-02-04 22:42:25.97433+01 | 1486244545.97433 | pgbench_accounts |      13696090112
 2017-02-04 22:42:25.97433+01 | 1486244545.97433 | pgbench_tellers  |         14262272
 2017-02-04 22:42:25.97433+01 | 1486244545.97433 | pgbench_history  |        397746176
 2017-02-04 22:42:25.97433+01 | 1486244545.97433 | pgbench_branches |         12009472

 2017-02-04 22:42:27.040653+01 | 1486244547.04065 | pgbench_accounts |      13696090112
 2017-02-04 22:42:27.040653+01 | 1486244547.04065 | pgbench_tellers  |         14262272
 2017-02-04 22:42:27.040653+01 | 1486244547.04065 | pgbench_history  |        400932864
 2017-02-04 22:42:27.040653+01 | 1486244547.04065 | pgbench_branches |         12009472

 2017-02-04 22:42:28.122986+01 | 1486244548.12299 | pgbench_accounts |      13696090112
 2017-02-04 22:42:28.122986+01 | 1486244548.12299 | pgbench_tellers  |         14262272
 2017-02-04 22:42:28.122986+01 | 1486244548.12299 | pgbench_history  |        401612800
 2017-02-04 22:42:28.122986+01 | 1486244548.12299 | pgbench_branches |         12009472

 2017-02-04 22:42:29.209246+01 | 1486244549.20925 | pgbench_accounts |      13696090112
 2017-02-04 22:42:29.209246+01 | 1486244549.20925 | pgbench_tellers  |         14262272
 2017-02-04 22:42:29.209246+01 | 1486244549.20925 | pgbench_history  |        404480000
 2017-02-04 22:42:29.209246+01 | 1486244549.20925 | pgbench_branches |         12009472

 2017-02-04 22:42:30.294259+01 | 1486244550.29426 | pgbench_accounts |      13696090112
 2017-02-04 22:42:30.294259+01 | 1486244550.29426 | pgbench_tellers  |         14262272
 2017-02-04 22:42:30.294259+01 | 1486244550.29426 | pgbench_history  |        405839872
 2017-02-04 22:42:30.294259+01 | 1486244550.29426 | pgbench_branches |         12009472

 2017-02-04 22:42:31.374908+01 | 1486244551.37491 | pgbench_accounts |      13696090112
 2017-02-04 22:42:31.374908+01 | 1486244551.37491 | pgbench_tellers  |         14262272
 2017-02-04 22:42:31.374908+01 | 1486244551.37491 | pgbench_history  |        407863296
 2017-02-04 22:42:31.374908+01 | 1486244551.37491 | pgbench_branches |         12009472

 2017-02-04 22:42:32.453435+01 | 1486244552.45343 | pgbench_accounts |      13696090112
 2017-02-04 22:42:32.453435+01 | 1486244552.45343 | pgbench_tellers  |         14262272
 2017-02-04 22:42:32.453435+01 | 1486244552.45343 | pgbench_history  |        410607616
 2017-02-04 22:42:32.453435+01 | 1486244552.45343 | pgbench_branches |         12009472

 2017-02-04 22:42:33.533091+01 | 1486244553.53309 | pgbench_accounts |      13696090112
 2017-02-04 22:42:33.533091+01 | 1486244553.53309 | pgbench_tellers  |         14262272
 2017-02-04 22:42:33.533091+01 | 1486244553.53309 | pgbench_history  |        412655616
 2017-02-04 22:42:33.533091+01 | 1486244553.53309 | pgbench_branches |         12009472

 2017-02-04 22:42:34.610602+01 | 1486244554.6106 | pgbench_accounts |      13696090112
 2017-02-04 22:42:34.610602+01 | 1486244554.6106 | pgbench_tellers  |         14262272
 2017-02-04 22:42:34.610602+01 | 1486244554.6106 | pgbench_history  |        414834688
 2017-02-04 22:42:34.610602+01 | 1486244554.6106 | pgbench_branches |         12009472

 2017-02-04 22:42:35.695303+01 | 1486244555.6953 | pgbench_accounts |      13696090112
 2017-02-04 22:42:35.695303+01 | 1486244555.6953 | pgbench_tellers  |         14262272
 2017-02-04 22:42:35.695303+01 | 1486244555.6953 | pgbench_history  |        416718848
 2017-02-04 22:42:35.695303+01 | 1486244555.6953 | pgbench_branches |         12009472

 2017-02-04 22:42:36.772553+01 | 1486244556.77255 | pgbench_accounts |      13696090112
 2017-02-04 22:42:36.772553+01 | 1486244556.77255 | pgbench_tellers  |         14262272
 2017-02-04 22:42:36.772553+01 | 1486244556.77255 | pgbench_history  |        419577856
 2017-02-04 22:42:36.772553+01 | 1486244556.77255 | pgbench_branches |         12009472

 2017-02-04 22:42:37.846016+01 | 1486244557.84602 | pgbench_accounts |      13696090112
 2017-02-04 22:42:37.846016+01 | 1486244557.84602 | pgbench_tellers  |         14262272
 2017-02-04 22:42:37.846016+01 | 1486244557.84602 | pgbench_history  |        422268928
 2017-02-04 22:42:37.846016+01 | 1486244557.84602 | pgbench_branches |         12009472

 2017-02-04 22:42:38.925644+01 | 1486244558.92564 | pgbench_accounts |      13696090112
 2017-02-04 22:42:38.925644+01 | 1486244558.92564 | pgbench_tellers  |         14262272
 2017-02-04 22:42:38.925644+01 | 1486244558.92564 | pgbench_history  |        423501824
 2017-02-04 22:42:38.925644+01 | 1486244558.92564 | pgbench_branches |         12009472

 2017-02-04 22:42:40.00553+01 | 1486244560.00553 | pgbench_accounts |      13696090112
 2017-02-04 22:42:40.00553+01 | 1486244560.00553 | pgbench_tellers  |         14262272
 2017-02-04 22:42:40.00553+01 | 1486244560.00553 | pgbench_history  |        425730048
 2017-02-04 22:42:40.00553+01 | 1486244560.00553 | pgbench_branches |         12009472

 2017-02-04 22:42:41.084523+01 | 1486244561.08452 | pgbench_accounts |      13696090112
 2017-02-04 22:42:41.084523+01 | 1486244561.08452 | pgbench_tellers  |         14262272
 2017-02-04 22:42:41.084523+01 | 1486244561.08452 | pgbench_history  |        428261376
 2017-02-04 22:42:41.084523+01 | 1486244561.08452 | pgbench_branches |         12009472

 2017-02-04 22:42:42.166668+01 | 1486244562.16667 | pgbench_accounts |      13696090112
 2017-02-04 22:42:42.166668+01 | 1486244562.16667 | pgbench_tellers  |         14262272
 2017-02-04 22:42:42.166668+01 | 1486244562.16667 | pgbench_history  |        430153728
 2017-02-04 22:42:42.166668+01 | 1486244562.16667 | pgbench_branches |         12009472

 2017-02-04 22:42:43.24571+01 | 1486244563.24571 | pgbench_accounts |      13696090112
 2017-02-04 22:42:43.24571+01 | 1486244563.24571 | pgbench_tellers  |         14262272
 2017-02-04 22:42:43.24571+01 | 1486244563.24571 | pgbench_history  |        432521216
 2017-02-04 22:42:43.24571+01 | 1486244563.24571 | pgbench_branches |         12009472

 2017-02-04 22:42:44.327391+01 | 1486244564.32739 | pgbench_accounts |      13696090112
 2017-02-04 22:42:44.327391+01 | 1486244564.32739 | pgbench_tellers  |         14262272
 2017-02-04 22:42:44.327391+01 | 1486244564.32739 | pgbench_history  |        434561024
 2017-02-04 22:42:44.327391+01 | 1486244564.32739 | pgbench_branches |         12009472

 2017-02-04 22:42:45.4067+01 | 1486244565.4067 | pgbench_accounts |      13696090112
 2017-02-04 22:42:45.4067+01 | 1486244565.4067 | pgbench_tellers  |         14262272
 2017-02-04 22:42:45.4067+01 | 1486244565.4067 | pgbench_history  |        437911552
 2017-02-04 22:42:45.4067+01 | 1486244565.4067 | pgbench_branches |         12009472

 2017-02-04 22:42:46.480849+01 | 1486244566.48085 | pgbench_accounts |      13696090112
 2017-02-04 22:42:46.480849+01 | 1486244566.48085 | pgbench_tellers  |         14262272
 2017-02-04 22:42:46.480849+01 | 1486244566.48085 | pgbench_history  |        439304192
 2017-02-04 22:42:46.480849+01 | 1486244566.48085 | pgbench_branches |         12009472

 2017-02-04 22:42:47.558851+01 | 1486244567.55885 | pgbench_accounts |      13696090112
 2017-02-04 22:42:47.558851+01 | 1486244567.55885 | pgbench_tellers  |         14262272
 2017-02-04 22:42:47.558851+01 | 1486244567.55885 | pgbench_history  |        441393152
 2017-02-04 22:42:47.558851+01 | 1486244567.55885 | pgbench_branches |         12009472

 2017-02-04 22:42:48.636373+01 | 1486244568.63637 | pgbench_accounts |      13696090112
 2017-02-04 22:42:48.636373+01 | 1486244568.63637 | pgbench_tellers  |         14262272
 2017-02-04 22:42:48.636373+01 | 1486244568.63637 | pgbench_history  |        444416000
 2017-02-04 22:42:48.636373+01 | 1486244568.63637 | pgbench_branches |         12009472

 2017-02-04 22:42:49.717599+01 | 1486244569.7176 | pgbench_accounts |      13696090112
 2017-02-04 22:42:49.717599+01 | 1486244569.7176 | pgbench_tellers  |         14262272
 2017-02-04 22:42:49.717599+01 | 1486244569.7176 | pgbench_history  |        445775872
 2017-02-04 22:42:49.717599+01 | 1486244569.7176 | pgbench_branches |         12009472

 2017-02-04 22:42:50.795821+01 | 1486244570.79582 | pgbench_accounts |      13696090112
 2017-02-04 22:42:50.795821+01 | 1486244570.79582 | pgbench_tellers  |         14262272
 2017-02-04 22:42:50.795821+01 | 1486244570.79582 | pgbench_history  |        448806912
 2017-02-04 22:42:50.795821+01 | 1486244570.79582 | pgbench_branches |         12009472

 2017-02-04 22:42:51.875833+01 | 1486244571.87583 | pgbench_accounts |      13696090112
 2017-02-04 22:42:51.875833+01 | 1486244571.87583 | pgbench_tellers  |         14262272
 2017-02-04 22:42:51.875833+01 | 1486244571.87583 | pgbench_history  |        450682880
 2017-02-04 22:42:51.875833+01 | 1486244571.87583 | pgbench_branches |         12009472

 2017-02-04 22:42:52.959001+01 | 1486244572.959 | pgbench_accounts |      13696090112
 2017-02-04 22:42:52.959001+01 | 1486244572.959 | pgbench_tellers  |         14262272
 2017-02-04 22:42:52.959001+01 | 1486244572.959 | pgbench_history  |        453402624
 2017-02-04 22:42:52.959001+01 | 1486244572.959 | pgbench_branches |         12009472

 2017-02-04 22:42:54.039045+01 | 1486244574.03905 | pgbench_accounts |      13696090112
 2017-02-04 22:42:54.039045+01 | 1486244574.03905 | pgbench_tellers  |         14262272
 2017-02-04 22:42:54.039045+01 | 1486244574.03905 | pgbench_history  |        454975488
 2017-02-04 22:42:54.039045+01 | 1486244574.03905 | pgbench_branches |         12009472

 2017-02-04 22:42:55.121705+01 | 1486244575.12171 | pgbench_accounts |      13696090112
 2017-02-04 22:42:55.121705+01 | 1486244575.12171 | pgbench_tellers  |         14262272
 2017-02-04 22:42:55.121705+01 | 1486244575.12171 | pgbench_history  |        457703424
 2017-02-04 22:42:55.121705+01 | 1486244575.12171 | pgbench_branches |         12009472

 2017-02-04 22:42:56.204535+01 | 1486244576.20454 | pgbench_accounts |      13696090112
 2017-02-04 22:42:56.204535+01 | 1486244576.20454 | pgbench_tellers  |         14262272
 2017-02-04 22:42:56.204535+01 | 1486244576.20454 | pgbench_history  |        459751424
 2017-02-04 22:42:56.204535+01 | 1486244576.20454 | pgbench_branches |         12009472

 2017-02-04 22:42:57.292819+01 | 1486244577.29282 | pgbench_accounts |      13696090112
 2017-02-04 22:42:57.292819+01 | 1486244577.29282 | pgbench_tellers  |         14262272
 2017-02-04 22:42:57.292819+01 | 1486244577.29282 | pgbench_history  |        461602816
 2017-02-04 22:42:57.292819+01 | 1486244577.29282 | pgbench_branches |         12009472

 2017-02-04 22:42:58.378796+01 | 1486244578.3788 | pgbench_accounts |      13696090112
 2017-02-04 22:42:58.378796+01 | 1486244578.3788 | pgbench_tellers  |         14262272
 2017-02-04 22:42:58.378796+01 | 1486244578.3788 | pgbench_history  |        465141760
 2017-02-04 22:42:58.378796+01 | 1486244578.3788 | pgbench_branches |         12009472

 2017-02-04 22:42:59.457141+01 | 1486244579.45714 | pgbench_accounts |      13696090112
 2017-02-04 22:42:59.457141+01 | 1486244579.45714 | pgbench_tellers  |         14262272
 2017-02-04 22:42:59.457141+01 | 1486244579.45714 | pgbench_history  |        466337792
 2017-02-04 22:42:59.457141+01 | 1486244579.45714 | pgbench_branches |         12009472

 2017-02-04 22:43:00.533702+01 | 1486244580.5337 | pgbench_accounts |      13696090112
 2017-02-04 22:43:00.533702+01 | 1486244580.5337 | pgbench_tellers  |         14262272
 2017-02-04 22:43:00.533702+01 | 1486244580.5337 | pgbench_history  |        468566016
 2017-02-04 22:43:00.533702+01 | 1486244580.5337 | pgbench_branches |         12009472

 2017-02-04 22:43:01.611156+01 | 1486244581.61116 | pgbench_accounts |      13696090112
 2017-02-04 22:43:01.611156+01 | 1486244581.61116 | pgbench_tellers  |         14262272
 2017-02-04 22:43:01.611156+01 | 1486244581.61116 | pgbench_history  |        470933504
 2017-02-04 22:43:01.611156+01 | 1486244581.61116 | pgbench_branches |         12009472

 2017-02-04 22:43:02.685808+01 | 1486244582.68581 | pgbench_accounts |      13696090112
 2017-02-04 22:43:02.685808+01 | 1486244582.68581 | pgbench_tellers  |         14262272
 2017-02-04 22:43:02.685808+01 | 1486244582.68581 | pgbench_history  |        473186304
 2017-02-04 22:43:02.685808+01 | 1486244582.68581 | pgbench_branches |         12009472

 2017-02-04 22:43:03.769562+01 | 1486244583.76956 | pgbench_accounts |      13696090112
 2017-02-04 22:43:03.769562+01 | 1486244583.76956 | pgbench_tellers  |         14262272
 2017-02-04 22:43:03.769562+01 | 1486244583.76956 | pgbench_history  |        475037696
 2017-02-04 22:43:03.769562+01 | 1486244583.76956 | pgbench_branches |         12009472

 2017-02-04 22:43:04.848989+01 | 1486244584.84899 | pgbench_accounts |      13696090112
 2017-02-04 22:43:04.848989+01 | 1486244584.84899 | pgbench_tellers  |         14262272
 2017-02-04 22:43:04.848989+01 | 1486244584.84899 | pgbench_history  |        477298688
 2017-02-04 22:43:04.848989+01 | 1486244584.84899 | pgbench_branches |         12009472

 2017-02-04 22:43:05.934348+01 | 1486244585.93435 | pgbench_accounts |      13696090112
 2017-02-04 22:43:05.934348+01 | 1486244585.93435 | pgbench_tellers  |         14262272
 2017-02-04 22:43:05.934348+01 | 1486244585.93435 | pgbench_history  |        480354304
 2017-02-04 22:43:05.934348+01 | 1486244585.93435 | pgbench_branches |         12009472

 2017-02-04 22:43:07.008669+01 | 1486244587.00867 | pgbench_accounts |      13696090112
 2017-02-04 22:43:07.008669+01 | 1486244587.00867 | pgbench_tellers  |         14262272
 2017-02-04 22:43:07.008669+01 | 1486244587.00867 | pgbench_history  |        482394112
 2017-02-04 22:43:07.008669+01 | 1486244587.00867 | pgbench_branches |         12009472

 2017-02-04 22:43:08.089203+01 | 1486244588.0892 | pgbench_accounts |      13696090112
 2017-02-04 22:43:08.089203+01 | 1486244588.0892 | pgbench_tellers  |         14262272
 2017-02-04 22:43:08.089203+01 | 1486244588.0892 | pgbench_history  |        484966400
 2017-02-04 22:43:08.089203+01 | 1486244588.0892 | pgbench_branches |         12009472

 2017-02-04 22:43:09.17378+01 | 1486244589.17378 | pgbench_accounts |      13696090112
 2017-02-04 22:43:09.17378+01 | 1486244589.17378 | pgbench_tellers  |         14262272
 2017-02-04 22:43:09.17378+01 | 1486244589.17378 | pgbench_history  |        486400000
 2017-02-04 22:43:09.17378+01 | 1486244589.17378 | pgbench_branches |         12009472

 2017-02-04 22:43:10.250389+01 | 1486244590.25039 | pgbench_accounts |      13696090112
 2017-02-04 22:43:10.250389+01 | 1486244590.25039 | pgbench_tellers  |         14262272
 2017-02-04 22:43:10.250389+01 | 1486244590.25039 | pgbench_history  |        488308736
 2017-02-04 22:43:10.250389+01 | 1486244590.25039 | pgbench_branches |         12009472

 2017-02-04 22:43:11.328915+01 | 1486244591.32892 | pgbench_accounts |      13696090112
 2017-02-04 22:43:11.328915+01 | 1486244591.32892 | pgbench_tellers  |         14262272
 2017-02-04 22:43:11.328915+01 | 1486244591.32892 | pgbench_history  |        490708992
 2017-02-04 22:43:11.328915+01 | 1486244591.32892 | pgbench_branches |         12009472

 2017-02-04 22:43:12.405033+01 | 1486244592.40503 | pgbench_accounts |      13696090112
 2017-02-04 22:43:12.405033+01 | 1486244592.40503 | pgbench_tellers  |         14262272
 2017-02-04 22:43:12.405033+01 | 1486244592.40503 | pgbench_history  |        492929024
 2017-02-04 22:43:12.405033+01 | 1486244592.40503 | pgbench_branches |         12009472

 2017-02-04 22:43:13.481533+01 | 1486244593.48153 | pgbench_accounts |      13696090112
 2017-02-04 22:43:13.481533+01 | 1486244593.48153 | pgbench_tellers  |         14262272
 2017-02-04 22:43:13.481533+01 | 1486244593.48153 | pgbench_history  |        495738880
 2017-02-04 22:43:13.481533+01 | 1486244593.48153 | pgbench_branches |         12009472

 2017-02-04 22:43:14.561381+01 | 1486244594.56138 | pgbench_accounts |      13696090112
 2017-02-04 22:43:14.561381+01 | 1486244594.56138 | pgbench_tellers  |         14262272
 2017-02-04 22:43:14.561381+01 | 1486244594.56138 | pgbench_history  |        497164288
 2017-02-04 22:43:14.561381+01 | 1486244594.56138 | pgbench_branches |         12009472

 2017-02-04 22:43:15.641442+01 | 1486244595.64144 | pgbench_accounts |      13696090112
 2017-02-04 22:43:15.641442+01 | 1486244595.64144 | pgbench_tellers  |         14262272
 2017-02-04 22:43:15.641442+01 | 1486244595.64144 | pgbench_history  |        499433472
 2017-02-04 22:43:15.641442+01 | 1486244595.64144 | pgbench_branches |         12009472

 2017-02-04 22:43:16.718995+01 | 1486244596.719 | pgbench_accounts |      13696090112
 2017-02-04 22:43:16.718995+01 | 1486244596.719 | pgbench_tellers  |         14262272
 2017-02-04 22:43:16.718995+01 | 1486244596.719 | pgbench_history  |        501956608
 2017-02-04 22:43:16.718995+01 | 1486244596.719 | pgbench_branches |         12009472

 2017-02-04 22:43:17.79997+01 | 1486244597.79997 | pgbench_accounts |      13696090112
 2017-02-04 22:43:17.79997+01 | 1486244597.79997 | pgbench_tellers  |         14262272
 2017-02-04 22:43:17.79997+01 | 1486244597.79997 | pgbench_history  |        504659968
 2017-02-04 22:43:17.79997+01 | 1486244597.79997 | pgbench_branches |         12009472

 2017-02-04 22:43:18.881505+01 | 1486244598.88151 | pgbench_accounts |      13696090112
 2017-02-04 22:43:18.881505+01 | 1486244598.88151 | pgbench_tellers  |         14262272
 2017-02-04 22:43:18.881505+01 | 1486244598.88151 | pgbench_history  |        506544128
 2017-02-04 22:43:18.881505+01 | 1486244598.88151 | pgbench_branches |         12009472

 2017-02-04 22:43:19.964034+01 | 1486244599.96403 | pgbench_accounts |      13696090112
 2017-02-04 22:43:19.964034+01 | 1486244599.96403 | pgbench_tellers  |         14262272
 2017-02-04 22:43:19.964034+01 | 1486244599.96403 | pgbench_history  |        508698624
 2017-02-04 22:43:19.964034+01 | 1486244599.96403 | pgbench_branches |         12009472

 2017-02-04 22:43:21.045057+01 | 1486244601.04506 | pgbench_accounts |      13696090112
 2017-02-04 22:43:21.045057+01 | 1486244601.04506 | pgbench_tellers  |         14262272
 2017-02-04 22:43:21.045057+01 | 1486244601.04506 | pgbench_history  |        511746048
 2017-02-04 22:43:21.045057+01 | 1486244601.04506 | pgbench_branches |         12009472

 2017-02-04 22:43:22.123836+01 | 1486244602.12384 | pgbench_accounts |      13696090112
 2017-02-04 22:43:22.123836+01 | 1486244602.12384 | pgbench_tellers  |         14262272
 2017-02-04 22:43:22.123836+01 | 1486244602.12384 | pgbench_history  |        513269760
 2017-02-04 22:43:22.123836+01 | 1486244602.12384 | pgbench_branches |         12009472

 2017-02-04 22:43:23.209884+01 | 1486244603.20988 | pgbench_accounts |      13696090112
 2017-02-04 22:43:23.209884+01 | 1486244603.20988 | pgbench_tellers  |         14262272
 2017-02-04 22:43:23.209884+01 | 1486244603.20988 | pgbench_history  |        515448832
 2017-02-04 22:43:23.209884+01 | 1486244603.20988 | pgbench_branches |         12009472

 2017-02-04 22:43:24.286786+01 | 1486244604.28679 | pgbench_accounts |      13696090112
 2017-02-04 22:43:24.286786+01 | 1486244604.28679 | pgbench_tellers  |         14262272
 2017-02-04 22:43:24.286786+01 | 1486244604.28679 | pgbench_history  |        518144000
 2017-02-04 22:43:24.286786+01 | 1486244604.28679 | pgbench_branches |         12009472

 2017-02-04 22:43:25.362498+01 | 1486244605.3625 | pgbench_accounts |      13696090112
 2017-02-04 22:43:25.362498+01 | 1486244605.3625 | pgbench_tellers  |         14262272
 2017-02-04 22:43:25.362498+01 | 1486244605.3625 | pgbench_history  |        520208384
 2017-02-04 22:43:25.362498+01 | 1486244605.3625 | pgbench_branches |         12009472

 2017-02-04 22:43:26.445639+01 | 1486244606.44564 | pgbench_accounts |      13696090112
 2017-02-04 22:43:26.445639+01 | 1486244606.44564 | pgbench_tellers  |         14262272
 2017-02-04 22:43:26.445639+01 | 1486244606.44564 | pgbench_history  |        522272768
 2017-02-04 22:43:26.445639+01 | 1486244606.44564 | pgbench_branches |         12009472

 2017-02-04 22:43:27.510124+01 | 1486244607.51012 | pgbench_accounts |      13696090112
 2017-02-04 22:43:27.510124+01 | 1486244607.51012 | pgbench_tellers  |         14262272
 2017-02-04 22:43:27.510124+01 | 1486244607.51012 | pgbench_history  |        524779520
 2017-02-04 22:43:27.510124+01 | 1486244607.51012 | pgbench_branches |         12009472

 2017-02-04 22:43:28.595981+01 | 1486244608.59598 | pgbench_accounts |      13696090112
 2017-02-04 22:43:28.595981+01 | 1486244608.59598 | pgbench_tellers  |         14262272
 2017-02-04 22:43:28.595981+01 | 1486244608.59598 | pgbench_history  |        526630912
 2017-02-04 22:43:28.595981+01 | 1486244608.59598 | pgbench_branches |         12009472

 2017-02-04 22:43:29.677966+01 | 1486244609.67797 | pgbench_accounts |      13696090112
 2017-02-04 22:43:29.677966+01 | 1486244609.67797 | pgbench_tellers  |         14262272
 2017-02-04 22:43:29.677966+01 | 1486244609.67797 | pgbench_history  |        528875520
 2017-02-04 22:43:29.677966+01 | 1486244609.67797 | pgbench_branches |         12009472

 2017-02-04 22:43:30.760269+01 | 1486244610.76027 | pgbench_accounts |      13696090112
 2017-02-04 22:43:30.760269+01 | 1486244610.76027 | pgbench_tellers  |         14262272
 2017-02-04 22:43:30.760269+01 | 1486244610.76027 | pgbench_history  |        531382272
 2017-02-04 22:43:30.760269+01 | 1486244610.76027 | pgbench_branches |         12009472

 2017-02-04 22:43:31.843071+01 | 1486244611.84307 | pgbench_accounts |      13696090112
 2017-02-04 22:43:31.843071+01 | 1486244611.84307 | pgbench_tellers  |         14262272
 2017-02-04 22:43:31.843071+01 | 1486244611.84307 | pgbench_history  |        532938752
 2017-02-04 22:43:31.843071+01 | 1486244611.84307 | pgbench_branches |         12009472

 2017-02-04 22:43:32.928793+01 | 1486244612.92879 | pgbench_accounts |      13696090112
 2017-02-04 22:43:32.928793+01 | 1486244612.92879 | pgbench_tellers  |         14262272
 2017-02-04 22:43:32.928793+01 | 1486244612.92879 | pgbench_history  |        535584768
 2017-02-04 22:43:32.928793+01 | 1486244612.92879 | pgbench_branches |         12009472

 2017-02-04 22:43:34.013384+01 | 1486244614.01338 | pgbench_accounts |      13696090112
 2017-02-04 22:43:34.013384+01 | 1486244614.01338 | pgbench_tellers  |         14262272
 2017-02-04 22:43:34.013384+01 | 1486244614.01338 | pgbench_history  |        537436160
 2017-02-04 22:43:34.013384+01 | 1486244614.01338 | pgbench_branches |         12009472

 2017-02-04 22:43:35.095268+01 | 1486244615.09527 | pgbench_accounts |      13696090112
 2017-02-04 22:43:35.095268+01 | 1486244615.09527 | pgbench_tellers  |         14262272
 2017-02-04 22:43:35.095268+01 | 1486244615.09527 | pgbench_history  |        539566080
 2017-02-04 22:43:35.095268+01 | 1486244615.09527 | pgbench_branches |         12009472

 2017-02-04 22:43:36.170082+01 | 1486244616.17008 | pgbench_accounts |      13696090112
 2017-02-04 22:43:36.170082+01 | 1486244616.17008 | pgbench_tellers  |         14262272
 2017-02-04 22:43:36.170082+01 | 1486244616.17008 | pgbench_history  |        541818880
 2017-02-04 22:43:36.170082+01 | 1486244616.17008 | pgbench_branches |         12009472

 2017-02-04 22:43:37.256658+01 | 1486244617.25666 | pgbench_accounts |      13696090112
 2017-02-04 22:43:37.256658+01 | 1486244617.25666 | pgbench_tellers  |         14262272
 2017-02-04 22:43:37.256658+01 | 1486244617.25666 | pgbench_history  |        544202752
 2017-02-04 22:43:37.256658+01 | 1486244617.25666 | pgbench_branches |         12009472

 2017-02-04 22:43:38.338048+01 | 1486244618.33805 | pgbench_accounts |      13696090112
 2017-02-04 22:43:38.338048+01 | 1486244618.33805 | pgbench_tellers  |         14262272
 2017-02-04 22:43:38.338048+01 | 1486244618.33805 | pgbench_history  |        546357248
 2017-02-04 22:43:38.338048+01 | 1486244618.33805 | pgbench_branches |         12009472

 2017-02-04 22:43:39.413793+01 | 1486244619.41379 | pgbench_accounts |      13696090112
 2017-02-04 22:43:39.413793+01 | 1486244619.41379 | pgbench_tellers  |         14262272
 2017-02-04 22:43:39.413793+01 | 1486244619.41379 | pgbench_history  |        548864000
 2017-02-04 22:43:39.413793+01 | 1486244619.41379 | pgbench_branches |         12009472

 2017-02-04 22:43:40.491192+01 | 1486244620.49119 | pgbench_accounts |      13696090112
 2017-02-04 22:43:40.491192+01 | 1486244620.49119 | pgbench_tellers  |         14262272
 2017-02-04 22:43:40.491192+01 | 1486244620.49119 | pgbench_history  |        550903808
 2017-02-04 22:43:40.491192+01 | 1486244620.49119 | pgbench_branches |         12009472

 2017-02-04 22:43:41.565546+01 | 1486244621.56555 | pgbench_accounts |      13696090112
 2017-02-04 22:43:41.565546+01 | 1486244621.56555 | pgbench_tellers  |         14262272
 2017-02-04 22:43:41.565546+01 | 1486244621.56555 | pgbench_history  |        552951808
 2017-02-04 22:43:41.565546+01 | 1486244621.56555 | pgbench_branches |         12009472

 2017-02-04 22:43:42.639354+01 | 1486244622.63935 | pgbench_accounts |      13696090112
 2017-02-04 22:43:42.639354+01 | 1486244622.63935 | pgbench_tellers  |         14262272
 2017-02-04 22:43:42.639354+01 | 1486244622.63935 | pgbench_history  |        555868160
 2017-02-04 22:43:42.639354+01 | 1486244622.63935 | pgbench_branches |         12009472

 2017-02-04 22:43:43.718557+01 | 1486244623.71856 | pgbench_accounts |      13696090112
 2017-02-04 22:43:43.718557+01 | 1486244623.71856 | pgbench_tellers  |         14262272
 2017-02-04 22:43:43.718557+01 | 1486244623.71856 | pgbench_history  |        557244416
 2017-02-04 22:43:43.718557+01 | 1486244623.71856 | pgbench_branches |         12009472

 2017-02-04 22:43:44.794924+01 | 1486244624.79492 | pgbench_accounts |      13696090112
 2017-02-04 22:43:44.794924+01 | 1486244624.79492 | pgbench_tellers  |         14262272
 2017-02-04 22:43:44.794924+01 | 1486244624.79492 | pgbench_history  |        558931968
 2017-02-04 22:43:44.794924+01 | 1486244624.79492 | pgbench_branches |         12009472

 2017-02-04 22:43:45.86805+01 | 1486244625.86805 | pgbench_accounts |      13696090112
 2017-02-04 22:43:45.86805+01 | 1486244625.86805 | pgbench_tellers  |         14262272
 2017-02-04 22:43:45.86805+01 | 1486244625.86805 | pgbench_history  |        560783360
 2017-02-04 22:43:45.86805+01 | 1486244625.86805 | pgbench_branches |         12009472

 2017-02-04 22:43:46.950631+01 | 1486244626.95063 | pgbench_accounts |      13696090112
 2017-02-04 22:43:46.950631+01 | 1486244626.95063 | pgbench_tellers  |         14262272
 2017-02-04 22:43:46.950631+01 | 1486244626.95063 | pgbench_history  |        563224576
 2017-02-04 22:43:46.950631+01 | 1486244626.95063 | pgbench_branches |         12009472

 2017-02-04 22:43:48.033859+01 | 1486244628.03386 | pgbench_accounts |      13696090112
 2017-02-04 22:43:48.033859+01 | 1486244628.03386 | pgbench_tellers  |         14262272
 2017-02-04 22:43:48.033859+01 | 1486244628.03386 | pgbench_history  |        565264384
 2017-02-04 22:43:48.033859+01 | 1486244628.03386 | pgbench_branches |         12009472

 2017-02-04 22:43:49.116405+01 | 1486244629.11641 | pgbench_accounts |      13696090112
 2017-02-04 22:43:49.116405+01 | 1486244629.11641 | pgbench_tellers  |         14262272
 2017-02-04 22:43:49.116405+01 | 1486244629.11641 | pgbench_history  |        566812672
 2017-02-04 22:43:49.116405+01 | 1486244629.11641 | pgbench_branches |         12009472

 2017-02-04 22:43:50.19214+01 | 1486244630.19214 | pgbench_accounts |      13696090112
 2017-02-04 22:43:50.19214+01 | 1486244630.19214 | pgbench_tellers  |         14262272
 2017-02-04 22:43:50.19214+01 | 1486244630.19214 | pgbench_history  |        568852480
 2017-02-04 22:43:50.19214+01 | 1486244630.19214 | pgbench_branches |         12009472

 2017-02-04 22:43:51.272231+01 | 1486244631.27223 | pgbench_accounts |      13696090112
 2017-02-04 22:43:51.272231+01 | 1486244631.27223 | pgbench_tellers  |         14262272
 2017-02-04 22:43:51.272231+01 | 1486244631.27223 | pgbench_history  |        570892288
 2017-02-04 22:43:51.272231+01 | 1486244631.27223 | pgbench_branches |         12009472

 2017-02-04 22:43:52.354112+01 | 1486244632.35411 | pgbench_accounts |      13696090112
 2017-02-04 22:43:52.354112+01 | 1486244632.35411 | pgbench_tellers  |         14262272
 2017-02-04 22:43:52.354112+01 | 1486244632.35411 | pgbench_history  |        573472768
 2017-02-04 22:43:52.354112+01 | 1486244632.35411 | pgbench_branches |         12009472

 2017-02-04 22:43:53.438308+01 | 1486244633.43831 | pgbench_accounts |      13696090112
 2017-02-04 22:43:53.438308+01 | 1486244633.43831 | pgbench_tellers  |         14262272
 2017-02-04 22:43:53.438308+01 | 1486244633.43831 | pgbench_history  |        575029248
 2017-02-04 22:43:53.438308+01 | 1486244633.43831 | pgbench_branches |         12009472

 2017-02-04 22:43:54.519164+01 | 1486244634.51916 | pgbench_accounts |      13696090112
 2017-02-04 22:43:54.519164+01 | 1486244634.51916 | pgbench_tellers  |         14262272
 2017-02-04 22:43:54.519164+01 | 1486244634.51916 | pgbench_history  |        577077248
 2017-02-04 22:43:54.519164+01 | 1486244634.51916 | pgbench_branches |         12009472

 2017-02-04 22:43:55.59991+01 | 1486244635.59991 | pgbench_accounts |      13696090112
 2017-02-04 22:43:55.59991+01 | 1486244635.59991 | pgbench_tellers  |         14262272
 2017-02-04 22:43:55.59991+01 | 1486244635.59991 | pgbench_history  |        578928640
 2017-02-04 22:43:55.59991+01 | 1486244635.59991 | pgbench_branches |         12009472

 2017-02-04 22:43:56.676324+01 | 1486244636.67632 | pgbench_accounts |      13696090112
 2017-02-04 22:43:56.676324+01 | 1486244636.67632 | pgbench_tellers  |         14262272
 2017-02-04 22:43:56.676324+01 | 1486244636.67632 | pgbench_history  |        581296128
 2017-02-04 22:43:56.676324+01 | 1486244636.67632 | pgbench_branches |         12009472

 2017-02-04 22:43:57.749899+01 | 1486244637.7499 | pgbench_accounts |      13696090112
 2017-02-04 22:43:57.749899+01 | 1486244637.7499 | pgbench_tellers  |         14262272
 2017-02-04 22:43:57.749899+01 | 1486244637.7499 | pgbench_history  |        585891840
 2017-02-04 22:43:57.749899+01 | 1486244637.7499 | pgbench_branches |         12009472

 2017-02-04 22:43:58.830638+01 | 1486244638.83064 | pgbench_accounts |      13696090112
 2017-02-04 22:43:58.830638+01 | 1486244638.83064 | pgbench_tellers  |         14262272
 2017-02-04 22:43:58.830638+01 | 1486244638.83064 | pgbench_history  |        585891840
 2017-02-04 22:43:58.830638+01 | 1486244638.83064 | pgbench_branches |         12009472

 2017-02-04 22:43:59.913916+01 | 1486244639.91392 | pgbench_accounts |      13696090112
 2017-02-04 22:43:59.913916+01 | 1486244639.91392 | pgbench_tellers  |         14262272
 2017-02-04 22:43:59.913916+01 | 1486244639.91392 | pgbench_history  |        587227136
 2017-02-04 22:43:59.913916+01 | 1486244639.91392 | pgbench_branches |         12009472

 2017-02-04 22:44:00.998168+01 | 1486244640.99817 | pgbench_accounts |      13696090112
 2017-02-04 22:44:00.998168+01 | 1486244640.99817 | pgbench_tellers  |         14262272
 2017-02-04 22:44:00.998168+01 | 1486244640.99817 | pgbench_history  |        588808192
 2017-02-04 22:44:00.998168+01 | 1486244640.99817 | pgbench_branches |         12009472

 2017-02-04 22:44:02.07424+01 | 1486244642.07424 | pgbench_accounts |      13696090112
 2017-02-04 22:44:02.07424+01 | 1486244642.07424 | pgbench_tellers  |         14262272
 2017-02-04 22:44:02.07424+01 | 1486244642.07424 | pgbench_history  |        590831616
 2017-02-04 22:44:02.07424+01 | 1486244642.07424 | pgbench_branches |         12009472

 2017-02-04 22:44:03.154066+01 | 1486244643.15407 | pgbench_accounts |      13696090112
 2017-02-04 22:44:03.154066+01 | 1486244643.15407 | pgbench_tellers  |         14262272
 2017-02-04 22:44:03.154066+01 | 1486244643.15407 | pgbench_history  |        592707584
 2017-02-04 22:44:03.154066+01 | 1486244643.15407 | pgbench_branches |         12009472

 2017-02-04 22:44:04.233995+01 | 1486244644.23399 | pgbench_accounts |      13696090112
 2017-02-04 22:44:04.233995+01 | 1486244644.23399 | pgbench_tellers  |         14262272
 2017-02-04 22:44:04.233995+01 | 1486244644.23399 | pgbench_history  |        595238912
 2017-02-04 22:44:04.233995+01 | 1486244644.23399 | pgbench_branches |         12009472

 2017-02-04 22:44:05.311818+01 | 1486244645.31182 | pgbench_accounts |      13696090112
 2017-02-04 22:44:05.311818+01 | 1486244645.31182 | pgbench_tellers  |         14262272
 2017-02-04 22:44:05.311818+01 | 1486244645.31182 | pgbench_history  |        597057536
 2017-02-04 22:44:05.311818+01 | 1486244645.31182 | pgbench_branches |         12009472

