 2017-02-03 18:37:50.140053+01 | 1486143470.14005 | 0/4E421560               |            1312953696

 2017-02-03 18:37:51.217668+01 | 1486143471.21767 | 0/4E421560               |            1312953696

 2017-02-03 18:37:52.307874+01 | 1486143472.30787 | 0/4E421560               |            1312953696

 2017-02-03 18:37:53.410899+01 | 1486143473.4109 | 0/4E421560               |            1312953696

 2017-02-03 18:37:54.502909+01 | 1486143474.50291 | 0/4E421560               |            1312953696

 2017-02-03 18:37:55.593838+01 | 1486143475.59384 | 0/4E421560               |            1312953696

 2017-02-03 18:37:56.700519+01 | 1486143476.70052 | 0/4E421560               |            1312953696

 2017-02-03 18:37:57.794825+01 | 1486143477.79483 | 0/4E421560               |            1312953696

 2017-02-03 18:37:58.886068+01 | 1486143478.88607 | 0/4E421598               |            1312953752

 2017-02-03 18:37:59.988173+01 | 1486143479.98817 | 0/4E421598               |            1312953752

 2017-02-03 18:38:01.081768+01 | 1486143481.08177 | 0/4E421598               |            1312953752

 2017-02-03 18:38:02.177364+01 | 1486143482.17736 | 0/4E421598               |            1312953752

 2017-02-03 18:38:03.269318+01 | 1486143483.26932 | 0/4E421598               |            1312953752

 2017-02-03 18:38:04.37035+01 | 1486143484.37035 | 0/4E421598               |            1312953752

 2017-02-03 18:38:05.456829+01 | 1486143485.45683 | 0/4E421598               |            1312953752

 2017-02-03 18:38:06.541715+01 | 1486143486.54171 | 0/4E421598               |            1312953752

 2017-02-03 18:38:07.624309+01 | 1486143487.62431 | 0/4E421598               |            1312953752

 2017-02-03 18:38:08.707792+01 | 1486143488.70779 | 0/4E421598               |            1312953752

 2017-02-03 18:38:09.802911+01 | 1486143489.80291 | 0/4E421598               |            1312953752

 2017-02-03 18:38:10.897498+01 | 1486143490.8975 | 0/4E421598               |            1312953752

 2017-02-03 18:38:11.989856+01 | 1486143491.98986 | 0/4E421598               |            1312953752

 2017-02-03 18:38:13.082549+01 | 1486143493.08255 | 0/4E421598               |            1312953752

 2017-02-03 18:38:14.180059+01 | 1486143494.18006 | 0/4E421598               |            1312953752

 2017-02-03 18:38:15.272582+01 | 1486143495.27258 | 0/4E421598               |            1312953752

 2017-02-03 18:38:16.37124+01 | 1486143496.37124 | 0/4E421598               |            1312953752

 2017-02-03 18:38:17.457978+01 | 1486143497.45798 | 0/4E421598               |            1312953752

 2017-02-03 18:38:18.539755+01 | 1486143498.53976 | 0/4E421598               |            1312953752

 2017-02-03 18:38:19.623418+01 | 1486143499.62342 | 0/4E421598               |            1312953752

 2017-02-03 18:38:20.709172+01 | 1486143500.70917 | 0/4E421598               |            1312953752

 2017-02-03 18:38:21.810859+01 | 1486143501.81086 | 0/4E421598               |            1312953752

 2017-02-03 18:38:22.913852+01 | 1486143502.91385 | 0/4E421598               |            1312953752

 2017-02-03 18:38:23.996055+01 | 1486143503.99605 | 0/4E421598               |            1312953752

 2017-02-03 18:38:25.102132+01 | 1486143505.10213 | 0/4E421598               |            1312953752

 2017-02-03 18:38:26.190097+01 | 1486143506.1901 | 0/4E421598               |            1312953752

 2017-02-03 18:38:27.282131+01 | 1486143507.28213 | 0/4E421598               |            1312953752

 2017-02-03 18:38:28.38915+01 | 1486143508.38915 | 0/4E421598               |            1312953752

 2017-02-03 18:38:29.471974+01 | 1486143509.47197 | 0/4E421598               |            1312953752

 2017-02-03 18:38:30.548539+01 | 1486143510.54854 | 0/4E421598               |            1312953752

 2017-02-03 18:38:31.639199+01 | 1486143511.6392 | 0/4E421598               |            1312953752

 2017-02-03 18:38:32.717307+01 | 1486143512.71731 | 0/4E421598               |            1312953752

 2017-02-03 18:38:33.814644+01 | 1486143513.81464 | 0/4E421598               |            1312953752

 2017-02-03 18:38:34.906755+01 | 1486143514.90675 | 0/4E421598               |            1312953752

 2017-02-03 18:38:36.005415+01 | 1486143516.00541 | 0/4E421598               |            1312953752

 2017-02-03 18:38:37.096896+01 | 1486143517.0969 | 0/4E421598               |            1312953752

 2017-02-03 18:38:38.186414+01 | 1486143518.18641 | 0/4E421598               |            1312953752

 2017-02-03 18:38:39.278372+01 | 1486143519.27837 | 0/4E421598               |            1312953752

 2017-02-03 18:38:40.365302+01 | 1486143520.3653 | 0/4E421598               |            1312953752

 2017-02-03 18:38:41.454504+01 | 1486143521.4545 | 0/4E421598               |            1312953752

 2017-02-03 18:38:42.539672+01 | 1486143522.53967 | 0/4E421598               |            1312953752

 2017-02-03 18:38:43.626675+01 | 1486143523.62667 | 0/4E421598               |            1312953752

 2017-02-03 18:38:44.714105+01 | 1486143524.7141 | 0/4E421598               |            1312953752

 2017-02-03 18:38:45.816407+01 | 1486143525.81641 | 0/4E421598               |            1312953752

 2017-02-03 18:38:46.907801+01 | 1486143526.9078 | 0/4E421598               |            1312953752

 2017-02-03 18:38:47.999426+01 | 1486143527.99943 | 0/4E421598               |            1312953752

 2017-02-03 18:38:49.087915+01 | 1486143529.08791 | 0/4E421598               |            1312953752

 2017-02-03 18:38:50.196277+01 | 1486143530.19628 | 0/4E421598               |            1312953752

 2017-02-03 18:38:51.289719+01 | 1486143531.28972 | 0/4E421598               |            1312953752

 2017-02-03 18:38:52.383902+01 | 1486143532.3839 | 0/4E421598               |            1312953752

 2017-02-03 18:38:53.473192+01 | 1486143533.47319 | 0/4E421598               |            1312953752

 2017-02-03 18:38:54.560921+01 | 1486143534.56092 | 0/4E421598               |            1312953752

 2017-02-03 18:38:55.637367+01 | 1486143535.63737 | 0/4E421598               |            1312953752

 2017-02-03 18:38:56.728735+01 | 1486143536.72873 | 0/4E421598               |            1312953752

 2017-02-03 18:38:57.82405+01 | 1486143537.82405 | 0/4E421598               |            1312953752

 2017-02-03 18:38:58.915897+01 | 1486143538.9159 | 0/4E421598               |            1312953752

 2017-02-03 18:39:00.009391+01 | 1486143540.00939 | 0/4E421598               |            1312953752

 2017-02-03 18:39:01.105966+01 | 1486143541.10597 | 0/4E421598               |            1312953752

 2017-02-03 18:39:02.1999+01 | 1486143542.1999 | 0/4E421598               |            1312953752

 2017-02-03 18:39:03.289154+01 | 1486143543.28915 | 0/4E421598               |            1312953752

 2017-02-03 18:39:04.388742+01 | 1486143544.38874 | 0/4E421598               |            1312953752

 2017-02-03 18:39:05.478159+01 | 1486143545.47816 | 0/4E421598               |            1312953752

 2017-02-03 18:39:06.568091+01 | 1486143546.56809 | 0/4E421598               |            1312953752

 2017-02-03 18:39:07.645052+01 | 1486143547.64505 | 0/4E421598               |            1312953752

 2017-02-03 18:39:08.736053+01 | 1486143548.73605 | 0/4E421598               |            1312953752

 2017-02-03 18:39:09.821056+01 | 1486143549.82106 | 0/4E421598               |            1312953752

 2017-02-03 18:39:10.912896+01 | 1486143550.9129 | 0/4E421598               |            1312953752

 2017-02-03 18:39:12.010472+01 | 1486143552.01047 | 0/4E421598               |            1312953752

 2017-02-03 18:39:13.105746+01 | 1486143553.10575 | 0/4E421598               |            1312953752

 2017-02-03 18:39:14.205886+01 | 1486143554.20589 | 0/4E421598               |            1312953752

 2017-02-03 18:39:15.295234+01 | 1486143555.29523 | 0/4E421598               |            1312953752

 2017-02-03 18:39:16.384967+01 | 1486143556.38497 | 0/4E421598               |            1312953752

 2017-02-03 18:39:17.482509+01 | 1486143557.48251 | 0/4E421598               |            1312953752

 2017-02-03 18:39:18.55985+01 | 1486143558.55985 | 0/4E421598               |            1312953752

 2017-02-03 18:39:19.640281+01 | 1486143559.64028 | 0/4E421598               |            1312953752

 2017-02-03 18:39:20.724768+01 | 1486143560.72477 | 0/4E421598               |            1312953752

 2017-02-03 18:39:21.804158+01 | 1486143561.80416 | 0/4E421598               |            1312953752

 2017-02-03 18:39:22.897069+01 | 1486143562.89707 | 0/4E421598               |            1312953752

 2017-02-03 18:39:23.989793+01 | 1486143563.98979 | 0/4E421598               |            1312953752

 2017-02-03 18:39:25.080342+01 | 1486143565.08034 | 0/4E421598               |            1312953752

 2017-02-03 18:39:26.189674+01 | 1486143566.18967 | 0/4E421598               |            1312953752

 2017-02-03 18:39:27.289975+01 | 1486143567.28997 | 0/4E421598               |            1312953752

 2017-02-03 18:39:28.390169+01 | 1486143568.39017 | 0/4E421598               |            1312953752

 2017-02-03 18:39:29.492284+01 | 1486143569.49228 | 0/4E421598               |            1312953752

 2017-02-03 18:39:30.57729+01 | 1486143570.57729 | 0/4E421598               |            1312953752

 2017-02-03 18:39:31.660252+01 | 1486143571.66025 | 0/4E421598               |            1312953752

 2017-02-03 18:39:32.745125+01 | 1486143572.74513 | 0/4E421598               |            1312953752

 2017-02-03 18:39:33.835712+01 | 1486143573.83571 | 0/4E421598               |            1312953752

 2017-02-03 18:39:34.92176+01 | 1486143574.92176 | 0/4E421598               |            1312953752

 2017-02-03 18:39:36.011211+01 | 1486143576.01121 | 0/4E421598               |            1312953752

 2017-02-03 18:39:37.112751+01 | 1486143577.11275 | 0/4E421598               |            1312953752

 2017-02-03 18:39:38.211088+01 | 1486143578.21109 | 0/4E421598               |            1312953752

 2017-02-03 18:39:39.307032+01 | 1486143579.30703 | 0/4E421598               |            1312953752

 2017-02-03 18:39:40.419591+01 | 1486143580.41959 | 0/4E421598               |            1312953752

 2017-02-03 18:39:41.512088+01 | 1486143581.51209 | 0/4E421598               |            1312953752

 2017-02-03 18:39:42.597591+01 | 1486143582.59759 | 0/4E421598               |            1312953752

 2017-02-03 18:39:43.685719+01 | 1486143583.68572 | 0/4E421598               |            1312953752

 2017-02-03 18:39:44.76742+01 | 1486143584.76742 | 0/4E421598               |            1312953752

 2017-02-03 18:39:45.853069+01 | 1486143585.85307 | 0/4E421598               |            1312953752

 2017-02-03 18:39:46.942676+01 | 1486143586.94268 | 0/4E421598               |            1312953752

 2017-02-03 18:39:48.037831+01 | 1486143588.03783 | 0/4E421598               |            1312953752

 2017-02-03 18:39:49.144348+01 | 1486143589.14435 | 0/4E421598               |            1312953752

 2017-02-03 18:39:50.237141+01 | 1486143590.23714 | 0/4E421598               |            1312953752

 2017-02-03 18:39:51.350309+01 | 1486143591.35031 | 0/4E421598               |            1312953752

 2017-02-03 18:39:52.450395+01 | 1486143592.4504 | 0/4E421598               |            1312953752

 2017-02-03 18:39:53.543142+01 | 1486143593.54314 | 0/4E421598               |            1312953752

 2017-02-03 18:39:54.628107+01 | 1486143594.62811 | 0/4E421598               |            1312953752

 2017-02-03 18:39:55.723204+01 | 1486143595.7232 | 0/4E421598               |            1312953752

 2017-02-03 18:39:56.806175+01 | 1486143596.80617 | 0/4E421598               |            1312953752

 2017-02-03 18:39:57.89761+01 | 1486143597.89761 | 0/4E421598               |            1312953752

 2017-02-03 18:39:58.984431+01 | 1486143598.98443 | 0/4E421598               |            1312953752

 2017-02-03 18:40:00.069542+01 | 1486143600.06954 | 0/4E421598               |            1312953752

 2017-02-03 18:40:01.169547+01 | 1486143601.16955 | 0/4E421598               |            1312953752

 2017-02-03 18:40:02.274695+01 | 1486143602.27469 | 0/4E421598               |            1312953752

 2017-02-03 18:40:03.373006+01 | 1486143603.37301 | 0/4E421598               |            1312953752

 2017-02-03 18:40:04.468751+01 | 1486143604.46875 | 0/4E421598               |            1312953752

 2017-02-03 18:40:05.569612+01 | 1486143605.56961 | 0/4E421598               |            1312953752

 2017-02-03 18:40:06.651019+01 | 1486143606.65102 | 0/4E421598               |            1312953752

 2017-02-03 18:40:07.734387+01 | 1486143607.73439 | 0/4E421598               |            1312953752

 2017-02-03 18:40:08.81608+01 | 1486143608.81608 | 0/4E421598               |            1312953752

 2017-02-03 18:40:09.909998+01 | 1486143609.91 | 0/4E421598               |            1312953752

 2017-02-03 18:40:11.00583+01 | 1486143611.00583 | 0/4E421598               |            1312953752

 2017-02-03 18:40:12.092824+01 | 1486143612.09282 | 0/4E421598               |            1312953752

 2017-02-03 18:40:13.198359+01 | 1486143613.19836 | 0/4E421598               |            1312953752

 2017-02-03 18:40:14.294498+01 | 1486143614.2945 | 0/4E421598               |            1312953752

 2017-02-03 18:40:15.39059+01 | 1486143615.39059 | 0/4E421598               |            1312953752

 2017-02-03 18:40:16.490133+01 | 1486143616.49013 | 0/4E421598               |            1312953752

 2017-02-03 18:40:17.578436+01 | 1486143617.57844 | 0/4E421598               |            1312953752

 2017-02-03 18:40:18.661522+01 | 1486143618.66152 | 0/4E421598               |            1312953752

 2017-02-03 18:40:19.745575+01 | 1486143619.74557 | 0/4E421598               |            1312953752

 2017-02-03 18:40:20.829704+01 | 1486143620.8297 | 0/4E421598               |            1312953752

 2017-02-03 18:40:21.919525+01 | 1486143621.91952 | 0/4E421598               |            1312953752

 2017-02-03 18:40:23.014408+01 | 1486143623.01441 | 0/4E421598               |            1312953752

 2017-02-03 18:40:24.107011+01 | 1486143624.10701 | 0/4E421598               |            1312953752

 2017-02-03 18:40:25.201817+01 | 1486143625.20182 | 0/4E421598               |            1312953752

 2017-02-03 18:40:26.295125+01 | 1486143626.29513 | 0/4E421598               |            1312953752

 2017-02-03 18:40:27.392079+01 | 1486143627.39208 | 0/4E421598               |            1312953752

 2017-02-03 18:40:28.481012+01 | 1486143628.48101 | 0/4E421598               |            1312953752

 2017-02-03 18:40:29.567542+01 | 1486143629.56754 | 0/4E421598               |            1312953752

 2017-02-03 18:40:30.650442+01 | 1486143630.65044 | 0/4E421598               |            1312953752

 2017-02-03 18:40:31.737479+01 | 1486143631.73748 | 0/4E421598               |            1312953752

 2017-02-03 18:40:32.820567+01 | 1486143632.82057 | 0/4E421598               |            1312953752

 2017-02-03 18:40:33.904305+01 | 1486143633.9043 | 0/4E421598               |            1312953752

 2017-02-03 18:40:34.982987+01 | 1486143634.98299 | 0/4E421598               |            1312953752

 2017-02-03 18:40:36.075359+01 | 1486143636.07536 | 0/4E421598               |            1312953752

 2017-02-03 18:40:37.179035+01 | 1486143637.17903 | 0/4E421598               |            1312953752

 2017-02-03 18:40:38.276074+01 | 1486143638.27607 | 0/4E421598               |            1312953752

 2017-02-03 18:40:39.372985+01 | 1486143639.37298 | 0/4E421598               |            1312953752

 2017-02-03 18:40:40.471643+01 | 1486143640.47164 | 0/4E421598               |            1312953752

 2017-02-03 18:40:41.568973+01 | 1486143641.56897 | 0/4E421598               |            1312953752

 2017-02-03 18:40:42.659358+01 | 1486143642.65936 | 0/4E421598               |            1312953752

 2017-02-03 18:40:43.739762+01 | 1486143643.73976 | 0/4E421598               |            1312953752

 2017-02-03 18:40:44.82695+01 | 1486143644.82695 | 0/4E421598               |            1312953752

 2017-02-03 18:40:45.91754+01 | 1486143645.91754 | 0/4E421598               |            1312953752

 2017-02-03 18:40:47.002431+01 | 1486143647.00243 | 0/4E421598               |            1312953752

 2017-02-03 18:40:48.088965+01 | 1486143648.08896 | 0/4E421598               |            1312953752

 2017-02-03 18:40:49.186858+01 | 1486143649.18686 | 0/4E421598               |            1312953752

 2017-02-03 18:40:50.283869+01 | 1486143650.28387 | 0/4E421598               |            1312953752

 2017-02-03 18:40:51.379029+01 | 1486143651.37903 | 0/4E421598               |            1312953752

 2017-02-03 18:40:52.473787+01 | 1486143652.47379 | 0/4E421598               |            1312953752

 2017-02-03 18:40:53.566913+01 | 1486143653.56691 | 0/4E421598               |            1312953752

 2017-02-03 18:40:54.654544+01 | 1486143654.65454 | 0/4E421598               |            1312953752

 2017-02-03 18:40:55.729749+01 | 1486143655.72975 | 0/4E421598               |            1312953752

 2017-02-03 18:40:56.809459+01 | 1486143656.80946 | 0/4E421598               |            1312953752

 2017-02-03 18:40:57.89376+01 | 1486143657.89376 | 0/4E421598               |            1312953752

 2017-02-03 18:40:58.97278+01 | 1486143658.97278 | 0/4E421598               |            1312953752

 2017-02-03 18:41:00.059536+01 | 1486143660.05954 | 0/4E421598               |            1312953752

 2017-02-03 18:41:01.14846+01 | 1486143661.14846 | 0/4E421598               |            1312953752

 2017-02-03 18:41:02.24334+01 | 1486143662.24334 | 0/4E421598               |            1312953752

 2017-02-03 18:41:03.338031+01 | 1486143663.33803 | 0/4E421598               |            1312953752

 2017-02-03 18:41:04.432325+01 | 1486143664.43232 | 0/4E421598               |            1312953752

 2017-02-03 18:41:05.525052+01 | 1486143665.52505 | 0/4E421598               |            1312953752

 2017-02-03 18:41:06.628191+01 | 1486143666.62819 | 0/4E421598               |            1312953752

 2017-02-03 18:41:07.710636+01 | 1486143667.71064 | 0/4E421598               |            1312953752

 2017-02-03 18:41:08.792009+01 | 1486143668.79201 | 0/4E421598               |            1312953752

 2017-02-03 18:41:09.878768+01 | 1486143669.87877 | 0/4E421598               |            1312953752

 2017-02-03 18:41:10.965722+01 | 1486143670.96572 | 0/4E421598               |            1312953752

 2017-02-03 18:41:12.047346+01 | 1486143672.04735 | 0/4E421598               |            1312953752

 2017-02-03 18:41:13.133113+01 | 1486143673.13311 | 0/4E421598               |            1312953752

 2017-02-03 18:41:14.219588+01 | 1486143674.21959 | 0/4E421598               |            1312953752

 2017-02-03 18:41:15.305805+01 | 1486143675.3058 | 0/4E421598               |            1312953752

 2017-02-03 18:41:16.392667+01 | 1486143676.39267 | 0/4E421598               |            1312953752

 2017-02-03 18:41:17.48089+01 | 1486143677.48089 | 0/4E421598               |            1312953752

 2017-02-03 18:41:18.577026+01 | 1486143678.57703 | 0/4E421598               |            1312953752

 2017-02-03 18:41:19.672498+01 | 1486143679.6725 | 0/4E421598               |            1312953752

 2017-02-03 18:41:20.753496+01 | 1486143680.7535 | 0/4E421598               |            1312953752

 2017-02-03 18:41:21.831186+01 | 1486143681.83119 | 0/4E421598               |            1312953752

 2017-02-03 18:41:22.918766+01 | 1486143682.91877 | 0/4E421598               |            1312953752

 2017-02-03 18:41:23.999465+01 | 1486143683.99946 | 0/4E421598               |            1312953752

 2017-02-03 18:41:25.08365+01 | 1486143685.08365 | 0/4E421598               |            1312953752

 2017-02-03 18:41:26.177347+01 | 1486143686.17735 | 0/4E421598               |            1312953752

 2017-02-03 18:41:27.273127+01 | 1486143687.27313 | 0/4E421598               |            1312953752

 2017-02-03 18:41:28.370905+01 | 1486143688.3709 | 0/4E421598               |            1312953752

 2017-02-03 18:41:29.476353+01 | 1486143689.47635 | 0/4E421598               |            1312953752

 2017-02-03 18:41:30.577819+01 | 1486143690.57782 | 0/4E421598               |            1312953752

 2017-02-03 18:41:31.674816+01 | 1486143691.67482 | 0/4E421598               |            1312953752

 2017-02-03 18:41:32.76881+01 | 1486143692.76881 | 0/4E421598               |            1312953752

 2017-02-03 18:41:33.84607+01 | 1486143693.84607 | 0/4E421598               |            1312953752

 2017-02-03 18:41:34.925975+01 | 1486143694.92598 | 0/4E421598               |            1312953752

 2017-02-03 18:41:36.007355+01 | 1486143696.00735 | 0/4E421598               |            1312953752

 2017-02-03 18:41:37.097052+01 | 1486143697.09705 | 0/4E421598               |            1312953752

 2017-02-03 18:41:38.194911+01 | 1486143698.19491 | 0/4E421598               |            1312953752

 2017-02-03 18:41:39.278074+01 | 1486143699.27807 | 0/4E421598               |            1312953752

 2017-02-03 18:41:40.368437+01 | 1486143700.36844 | 0/4E421598               |            1312953752

 2017-02-03 18:41:41.461068+01 | 1486143701.46107 | 0/4E421598               |            1312953752

 2017-02-03 18:41:42.552144+01 | 1486143702.55214 | 0/4E421598               |            1312953752

 2017-02-03 18:41:43.646139+01 | 1486143703.64614 | 0/4E421598               |            1312953752

 2017-02-03 18:41:44.727583+01 | 1486143704.72758 | 0/4E421598               |            1312953752

 2017-02-03 18:41:45.809326+01 | 1486143705.80933 | 0/4E421598               |            1312953752

 2017-02-03 18:41:46.894105+01 | 1486143706.8941 | 0/4E421598               |            1312953752

 2017-02-03 18:41:47.976026+01 | 1486143707.97603 | 0/4E421598               |            1312953752

 2017-02-03 18:41:49.058585+01 | 1486143709.05858 | 0/4E421598               |            1312953752

 2017-02-03 18:41:50.147307+01 | 1486143710.14731 | 0/4E421598               |            1312953752

 2017-02-03 18:41:51.241125+01 | 1486143711.24113 | 0/4E421598               |            1312953752

 2017-02-03 18:41:52.328238+01 | 1486143712.32824 | 0/4E421598               |            1312953752

 2017-02-03 18:41:53.414106+01 | 1486143713.41411 | 0/4E421598               |            1312953752

 2017-02-03 18:41:54.513198+01 | 1486143714.5132 | 0/4E421598               |            1312953752

 2017-02-03 18:41:55.606377+01 | 1486143715.60638 | 0/4E421598               |            1312953752

 2017-02-03 18:41:56.698523+01 | 1486143716.69852 | 0/4E421598               |            1312953752

 2017-02-03 18:41:57.783823+01 | 1486143717.78382 | 0/4E421598               |            1312953752

 2017-02-03 18:41:58.865888+01 | 1486143718.86589 | 0/4E421598               |            1312953752

 2017-02-03 18:41:59.943178+01 | 1486143719.94318 | 0/4E421598               |            1312953752

 2017-02-03 18:42:01.025276+01 | 1486143721.02528 | 0/4E421598               |            1312953752

 2017-02-03 18:42:02.115099+01 | 1486143722.1151 | 0/4E421598               |            1312953752

 2017-02-03 18:42:03.223754+01 | 1486143723.22375 | 0/4E421598               |            1312953752

 2017-02-03 18:42:04.307116+01 | 1486143724.30712 | 0/4E421598               |            1312953752

 2017-02-03 18:42:05.404342+01 | 1486143725.40434 | 0/4E421598               |            1312953752

 2017-02-03 18:42:06.499591+01 | 1486143726.49959 | 0/4E421598               |            1312953752

 2017-02-03 18:42:07.593023+01 | 1486143727.59302 | 0/4E421598               |            1312953752

 2017-02-03 18:42:08.688243+01 | 1486143728.68824 | 0/4E421598               |            1312953752

 2017-02-03 18:42:09.774577+01 | 1486143729.77458 | 0/4E421598               |            1312953752

 2017-02-03 18:42:10.855193+01 | 1486143730.85519 | 0/4E421598               |            1312953752

 2017-02-03 18:42:11.933681+01 | 1486143731.93368 | 0/4E421598               |            1312953752

 2017-02-03 18:42:13.024423+01 | 1486143733.02442 | 0/4E421598               |            1312953752

 2017-02-03 18:42:14.108437+01 | 1486143734.10844 | 0/4E421598               |            1312953752

 2017-02-03 18:42:15.192766+01 | 1486143735.19277 | 0/4E421598               |            1312953752

 2017-02-03 18:42:16.290195+01 | 1486143736.29019 | 0/4E421598               |            1312953752

 2017-02-03 18:42:17.375249+01 | 1486143737.37525 | 0/4E421598               |            1312953752

 2017-02-03 18:42:18.468731+01 | 1486143738.46873 | 0/4E421598               |            1312953752

 2017-02-03 18:42:19.555229+01 | 1486143739.55523 | 0/4E421598               |            1312953752

 2017-02-03 18:42:20.646307+01 | 1486143740.64631 | 0/4E421598               |            1312953752

 2017-02-03 18:42:21.74279+01 | 1486143741.74279 | 0/4E421598               |            1312953752

 2017-02-03 18:42:22.828919+01 | 1486143742.82892 | 0/4E421598               |            1312953752

 2017-02-03 18:42:23.909775+01 | 1486143743.90978 | 0/4E421598               |            1312953752

 2017-02-03 18:42:24.995143+01 | 1486143744.99514 | 0/4E421598               |            1312953752

 2017-02-03 18:42:26.075224+01 | 1486143746.07522 | 0/4E421598               |            1312953752

 2017-02-03 18:42:27.16503+01 | 1486143747.16503 | 0/4E421598               |            1312953752

 2017-02-03 18:42:28.251325+01 | 1486143748.25132 | 0/4E421598               |            1312953752

 2017-02-03 18:42:29.344684+01 | 1486143749.34468 | 0/4E421598               |            1312953752

 2017-02-03 18:42:30.42737+01 | 1486143750.42737 | 0/4E421598               |            1312953752

 2017-02-03 18:42:31.531552+01 | 1486143751.53155 | 0/4E421598               |            1312953752

 2017-02-03 18:42:32.617208+01 | 1486143752.61721 | 0/4E421598               |            1312953752

 2017-02-03 18:42:33.713079+01 | 1486143753.71308 | 0/4E421598               |            1312953752

 2017-02-03 18:42:34.801689+01 | 1486143754.80169 | 0/4E421598               |            1312953752

 2017-02-03 18:42:35.884557+01 | 1486143755.88456 | 0/4E421598               |            1312953752

 2017-02-03 18:42:36.96761+01 | 1486143756.96761 | 0/4E421598               |            1312953752

 2017-02-03 18:42:38.045473+01 | 1486143758.04547 | 0/4E421598               |            1312953752

 2017-02-03 18:42:39.131972+01 | 1486143759.13197 | 0/4E421598               |            1312953752

 2017-02-03 18:42:40.221464+01 | 1486143760.22146 | 0/4E421598               |            1312953752

 2017-02-03 18:42:41.314485+01 | 1486143761.31449 | 0/4E421598               |            1312953752

 2017-02-03 18:42:42.414352+01 | 1486143762.41435 | 0/4E421598               |            1312953752

 2017-02-03 18:42:43.512084+01 | 1486143763.51208 | 0/4E421598               |            1312953752

 2017-02-03 18:42:44.598149+01 | 1486143764.59815 | 0/4E421598               |            1312953752

 2017-02-03 18:42:45.692597+01 | 1486143765.6926 | 0/4E421598               |            1312953752

 2017-02-03 18:42:46.785906+01 | 1486143766.78591 | 0/4E421598               |            1312953752

 2017-02-03 18:42:47.862923+01 | 1486143767.86292 | 0/4E421598               |            1312953752

 2017-02-03 18:42:48.941981+01 | 1486143768.94198 | 0/4E421598               |            1312953752

 2017-02-03 18:42:50.023009+01 | 1486143770.02301 | 0/4E421598               |            1312953752

