 2017-02-05 05:31:00.46685+01 | 1486269060.46685 | pgbench_branches_pkey |            16384
 2017-02-05 05:31:00.46685+01 | 1486269060.46685 | pgbench_tellers_pkey  |            40960
 2017-02-05 05:31:00.46685+01 | 1486269060.46685 | pgbench_accounts_pkey |        224641024

 2017-02-05 05:31:01.580572+01 | 1486269061.58057 | pgbench_branches_pkey |            16384
 2017-02-05 05:31:01.580572+01 | 1486269061.58057 | pgbench_tellers_pkey  |            40960
 2017-02-05 05:31:01.580572+01 | 1486269061.58057 | pgbench_accounts_pkey |        224641024

 2017-02-05 05:31:02.686033+01 | 1486269062.68603 | pgbench_branches_pkey |            16384
 2017-02-05 05:31:02.686033+01 | 1486269062.68603 | pgbench_tellers_pkey  |            40960
 2017-02-05 05:31:02.686033+01 | 1486269062.68603 | pgbench_accounts_pkey |        224641024

 2017-02-05 05:31:03.788729+01 | 1486269063.78873 | pgbench_branches_pkey |            16384
 2017-02-05 05:31:03.788729+01 | 1486269063.78873 | pgbench_tellers_pkey  |            40960
 2017-02-05 05:31:03.788729+01 | 1486269063.78873 | pgbench_accounts_pkey |        224641024

 2017-02-05 05:31:04.898588+01 | 1486269064.89859 | pgbench_branches_pkey |            16384
 2017-02-05 05:31:04.898588+01 | 1486269064.89859 | pgbench_tellers_pkey  |            40960
 2017-02-05 05:31:04.898588+01 | 1486269064.89859 | pgbench_accounts_pkey |        224641024

 2017-02-05 05:31:06.007704+01 | 1486269066.0077 | pgbench_branches_pkey |            16384
 2017-02-05 05:31:06.007704+01 | 1486269066.0077 | pgbench_tellers_pkey  |            40960
 2017-02-05 05:31:06.007704+01 | 1486269066.0077 | pgbench_accounts_pkey |        224641024

 2017-02-05 05:31:07.135583+01 | 1486269067.13558 | pgbench_branches_pkey |            16384
 2017-02-05 05:31:07.135583+01 | 1486269067.13558 | pgbench_tellers_pkey  |            40960
 2017-02-05 05:31:07.135583+01 | 1486269067.13558 | pgbench_accounts_pkey |        224641024

 2017-02-05 05:31:08.247286+01 | 1486269068.24729 | pgbench_branches_pkey |            16384
 2017-02-05 05:31:08.247286+01 | 1486269068.24729 | pgbench_tellers_pkey  |            40960
 2017-02-05 05:31:08.247286+01 | 1486269068.24729 | pgbench_accounts_pkey |        224641024

 2017-02-05 05:31:09.33388+01 | 1486269069.33388 | pgbench_branches_pkey |            16384
 2017-02-05 05:31:09.33388+01 | 1486269069.33388 | pgbench_tellers_pkey  |            40960
 2017-02-05 05:31:09.33388+01 | 1486269069.33388 | pgbench_accounts_pkey |        224641024

 2017-02-05 05:31:10.429245+01 | 1486269070.42924 | pgbench_branches_pkey |            16384
 2017-02-05 05:31:10.429245+01 | 1486269070.42924 | pgbench_tellers_pkey  |            40960
 2017-02-05 05:31:10.429245+01 | 1486269070.42924 | pgbench_accounts_pkey |        224641024

 2017-02-05 05:31:11.53458+01 | 1486269071.53458 | pgbench_branches_pkey |            16384
 2017-02-05 05:31:11.53458+01 | 1486269071.53458 | pgbench_tellers_pkey  |            40960
 2017-02-05 05:31:11.53458+01 | 1486269071.53458 | pgbench_accounts_pkey |        224641024

 2017-02-05 05:31:12.640369+01 | 1486269072.64037 | pgbench_branches_pkey |            16384
 2017-02-05 05:31:12.640369+01 | 1486269072.64037 | pgbench_tellers_pkey  |            40960
 2017-02-05 05:31:12.640369+01 | 1486269072.64037 | pgbench_accounts_pkey |        224641024

 2017-02-05 05:31:13.742891+01 | 1486269073.74289 | pgbench_branches_pkey |            16384
 2017-02-05 05:31:13.742891+01 | 1486269073.74289 | pgbench_tellers_pkey  |            40960
 2017-02-05 05:31:13.742891+01 | 1486269073.74289 | pgbench_accounts_pkey |        224641024

 2017-02-05 05:31:14.851356+01 | 1486269074.85136 | pgbench_branches_pkey |            16384
 2017-02-05 05:31:14.851356+01 | 1486269074.85136 | pgbench_tellers_pkey  |            40960
 2017-02-05 05:31:14.851356+01 | 1486269074.85136 | pgbench_accounts_pkey |        224641024

 2017-02-05 05:31:15.968286+01 | 1486269075.96829 | pgbench_branches_pkey |            16384
 2017-02-05 05:31:15.968286+01 | 1486269075.96829 | pgbench_tellers_pkey  |            40960
 2017-02-05 05:31:15.968286+01 | 1486269075.96829 | pgbench_accounts_pkey |        224641024

 2017-02-05 05:31:17.064623+01 | 1486269077.06462 | pgbench_branches_pkey |            16384
 2017-02-05 05:31:17.064623+01 | 1486269077.06462 | pgbench_tellers_pkey  |            40960
 2017-02-05 05:31:17.064623+01 | 1486269077.06462 | pgbench_accounts_pkey |        224641024

 2017-02-05 05:31:18.168879+01 | 1486269078.16888 | pgbench_branches_pkey |            16384
 2017-02-05 05:31:18.168879+01 | 1486269078.16888 | pgbench_tellers_pkey  |            40960
 2017-02-05 05:31:18.168879+01 | 1486269078.16888 | pgbench_accounts_pkey |        224641024

 2017-02-05 05:31:19.273173+01 | 1486269079.27317 | pgbench_branches_pkey |            16384
 2017-02-05 05:31:19.273173+01 | 1486269079.27317 | pgbench_tellers_pkey  |            40960
 2017-02-05 05:31:19.273173+01 | 1486269079.27317 | pgbench_accounts_pkey |        224641024

 2017-02-05 05:31:20.360911+01 | 1486269080.36091 | pgbench_branches_pkey |            16384
 2017-02-05 05:31:20.360911+01 | 1486269080.36091 | pgbench_tellers_pkey  |            40960
 2017-02-05 05:31:20.360911+01 | 1486269080.36091 | pgbench_accounts_pkey |        224641024

 2017-02-05 05:31:21.462702+01 | 1486269081.4627 | pgbench_branches_pkey |            16384
 2017-02-05 05:31:21.462702+01 | 1486269081.4627 | pgbench_tellers_pkey  |            40960
 2017-02-05 05:31:21.462702+01 | 1486269081.4627 | pgbench_accounts_pkey |        224641024

 2017-02-05 05:31:22.56346+01 | 1486269082.56346 | pgbench_branches_pkey |            16384
 2017-02-05 05:31:22.56346+01 | 1486269082.56346 | pgbench_tellers_pkey  |            40960
 2017-02-05 05:31:22.56346+01 | 1486269082.56346 | pgbench_accounts_pkey |        224641024

 2017-02-05 05:31:23.666074+01 | 1486269083.66607 | pgbench_branches_pkey |            16384
 2017-02-05 05:31:23.666074+01 | 1486269083.66607 | pgbench_tellers_pkey  |            40960
 2017-02-05 05:31:23.666074+01 | 1486269083.66607 | pgbench_accounts_pkey |        224641024

 2017-02-05 05:31:24.76704+01 | 1486269084.76704 | pgbench_branches_pkey |            16384
 2017-02-05 05:31:24.76704+01 | 1486269084.76704 | pgbench_tellers_pkey  |            40960
 2017-02-05 05:31:24.76704+01 | 1486269084.76704 | pgbench_accounts_pkey |        224641024

 2017-02-05 05:31:25.867654+01 | 1486269085.86765 | pgbench_branches_pkey |            16384
 2017-02-05 05:31:25.867654+01 | 1486269085.86765 | pgbench_tellers_pkey  |            40960
 2017-02-05 05:31:25.867654+01 | 1486269085.86765 | pgbench_accounts_pkey |        224641024

 2017-02-05 05:31:26.984915+01 | 1486269086.98492 | pgbench_branches_pkey |            16384
 2017-02-05 05:31:26.984915+01 | 1486269086.98492 | pgbench_tellers_pkey  |            40960
 2017-02-05 05:31:26.984915+01 | 1486269086.98492 | pgbench_accounts_pkey |        224641024

 2017-02-05 05:31:28.082959+01 | 1486269088.08296 | pgbench_branches_pkey |            16384
 2017-02-05 05:31:28.082959+01 | 1486269088.08296 | pgbench_tellers_pkey  |            40960
 2017-02-05 05:31:28.082959+01 | 1486269088.08296 | pgbench_accounts_pkey |        224641024

 2017-02-05 05:31:29.189181+01 | 1486269089.18918 | pgbench_branches_pkey |            16384
 2017-02-05 05:31:29.189181+01 | 1486269089.18918 | pgbench_tellers_pkey  |            40960
 2017-02-05 05:31:29.189181+01 | 1486269089.18918 | pgbench_accounts_pkey |        224641024

 2017-02-05 05:31:30.29402+01 | 1486269090.29402 | pgbench_branches_pkey |            16384
 2017-02-05 05:31:30.29402+01 | 1486269090.29402 | pgbench_tellers_pkey  |            40960
 2017-02-05 05:31:30.29402+01 | 1486269090.29402 | pgbench_accounts_pkey |        224641024

 2017-02-05 05:31:31.383438+01 | 1486269091.38344 | pgbench_branches_pkey |            16384
 2017-02-05 05:31:31.383438+01 | 1486269091.38344 | pgbench_tellers_pkey  |            40960
 2017-02-05 05:31:31.383438+01 | 1486269091.38344 | pgbench_accounts_pkey |        224641024

 2017-02-05 05:31:32.477397+01 | 1486269092.4774 | pgbench_branches_pkey |            16384
 2017-02-05 05:31:32.477397+01 | 1486269092.4774 | pgbench_tellers_pkey  |            40960
 2017-02-05 05:31:32.477397+01 | 1486269092.4774 | pgbench_accounts_pkey |        224641024

 2017-02-05 05:31:33.581826+01 | 1486269093.58183 | pgbench_branches_pkey |            16384
 2017-02-05 05:31:33.581826+01 | 1486269093.58183 | pgbench_tellers_pkey  |            40960
 2017-02-05 05:31:33.581826+01 | 1486269093.58183 | pgbench_accounts_pkey |        224641024

 2017-02-05 05:31:34.686324+01 | 1486269094.68632 | pgbench_branches_pkey |            16384
 2017-02-05 05:31:34.686324+01 | 1486269094.68632 | pgbench_tellers_pkey  |            40960
 2017-02-05 05:31:34.686324+01 | 1486269094.68632 | pgbench_accounts_pkey |        224641024

 2017-02-05 05:31:35.791784+01 | 1486269095.79178 | pgbench_branches_pkey |            16384
 2017-02-05 05:31:35.791784+01 | 1486269095.79178 | pgbench_tellers_pkey  |            40960
 2017-02-05 05:31:35.791784+01 | 1486269095.79178 | pgbench_accounts_pkey |        224641024

 2017-02-05 05:31:36.890544+01 | 1486269096.89054 | pgbench_branches_pkey |            16384
 2017-02-05 05:31:36.890544+01 | 1486269096.89054 | pgbench_tellers_pkey  |            40960
 2017-02-05 05:31:36.890544+01 | 1486269096.89054 | pgbench_accounts_pkey |        224641024

 2017-02-05 05:31:37.98705+01 | 1486269097.98705 | pgbench_branches_pkey |            16384
 2017-02-05 05:31:37.98705+01 | 1486269097.98705 | pgbench_tellers_pkey  |            40960
 2017-02-05 05:31:37.98705+01 | 1486269097.98705 | pgbench_accounts_pkey |        224641024

 2017-02-05 05:31:39.084697+01 | 1486269099.0847 | pgbench_branches_pkey |            16384
 2017-02-05 05:31:39.084697+01 | 1486269099.0847 | pgbench_tellers_pkey  |            40960
 2017-02-05 05:31:39.084697+01 | 1486269099.0847 | pgbench_accounts_pkey |        224641024

 2017-02-05 05:31:40.18936+01 | 1486269100.18936 | pgbench_branches_pkey |            16384
 2017-02-05 05:31:40.18936+01 | 1486269100.18936 | pgbench_tellers_pkey  |            40960
 2017-02-05 05:31:40.18936+01 | 1486269100.18936 | pgbench_accounts_pkey |        224641024

 2017-02-05 05:31:41.305864+01 | 1486269101.30586 | pgbench_branches_pkey |            16384
 2017-02-05 05:31:41.305864+01 | 1486269101.30586 | pgbench_tellers_pkey  |            40960
 2017-02-05 05:31:41.305864+01 | 1486269101.30586 | pgbench_accounts_pkey |        224641024

 2017-02-05 05:31:42.396738+01 | 1486269102.39674 | pgbench_branches_pkey |            16384
 2017-02-05 05:31:42.396738+01 | 1486269102.39674 | pgbench_tellers_pkey  |            40960
 2017-02-05 05:31:42.396738+01 | 1486269102.39674 | pgbench_accounts_pkey |        224641024

 2017-02-05 05:31:43.498343+01 | 1486269103.49834 | pgbench_branches_pkey |            16384
 2017-02-05 05:31:43.498343+01 | 1486269103.49834 | pgbench_tellers_pkey  |            40960
 2017-02-05 05:31:43.498343+01 | 1486269103.49834 | pgbench_accounts_pkey |        224641024

 2017-02-05 05:31:44.59617+01 | 1486269104.59617 | pgbench_branches_pkey |            16384
 2017-02-05 05:31:44.59617+01 | 1486269104.59617 | pgbench_tellers_pkey  |            40960
 2017-02-05 05:31:44.59617+01 | 1486269104.59617 | pgbench_accounts_pkey |        224641024

 2017-02-05 05:31:45.690204+01 | 1486269105.6902 | pgbench_branches_pkey |            16384
 2017-02-05 05:31:45.690204+01 | 1486269105.6902 | pgbench_tellers_pkey  |            40960
 2017-02-05 05:31:45.690204+01 | 1486269105.6902 | pgbench_accounts_pkey |        224641024

 2017-02-05 05:31:46.790151+01 | 1486269106.79015 | pgbench_branches_pkey |            16384
 2017-02-05 05:31:46.790151+01 | 1486269106.79015 | pgbench_tellers_pkey  |            40960
 2017-02-05 05:31:46.790151+01 | 1486269106.79015 | pgbench_accounts_pkey |        224641024

 2017-02-05 05:31:47.899976+01 | 1486269107.89998 | pgbench_branches_pkey |            16384
 2017-02-05 05:31:47.899976+01 | 1486269107.89998 | pgbench_tellers_pkey  |            40960
 2017-02-05 05:31:47.899976+01 | 1486269107.89998 | pgbench_accounts_pkey |        224641024

 2017-02-05 05:31:48.992811+01 | 1486269108.99281 | pgbench_branches_pkey |            16384
 2017-02-05 05:31:48.992811+01 | 1486269108.99281 | pgbench_tellers_pkey  |            40960
 2017-02-05 05:31:48.992811+01 | 1486269108.99281 | pgbench_accounts_pkey |        224641024

 2017-02-05 05:31:50.096675+01 | 1486269110.09667 | pgbench_branches_pkey |            16384
 2017-02-05 05:31:50.096675+01 | 1486269110.09667 | pgbench_tellers_pkey  |            40960
 2017-02-05 05:31:50.096675+01 | 1486269110.09667 | pgbench_accounts_pkey |        224641024

 2017-02-05 05:31:51.202056+01 | 1486269111.20206 | pgbench_branches_pkey |            16384
 2017-02-05 05:31:51.202056+01 | 1486269111.20206 | pgbench_tellers_pkey  |            40960
 2017-02-05 05:31:51.202056+01 | 1486269111.20206 | pgbench_accounts_pkey |        224641024

 2017-02-05 05:31:52.308536+01 | 1486269112.30854 | pgbench_branches_pkey |            16384
 2017-02-05 05:31:52.308536+01 | 1486269112.30854 | pgbench_tellers_pkey  |            40960
 2017-02-05 05:31:52.308536+01 | 1486269112.30854 | pgbench_accounts_pkey |        224641024

 2017-02-05 05:31:53.398104+01 | 1486269113.3981 | pgbench_branches_pkey |            16384
 2017-02-05 05:31:53.398104+01 | 1486269113.3981 | pgbench_tellers_pkey  |            40960
 2017-02-05 05:31:53.398104+01 | 1486269113.3981 | pgbench_accounts_pkey |        224641024

 2017-02-05 05:31:54.492709+01 | 1486269114.49271 | pgbench_branches_pkey |            16384
 2017-02-05 05:31:54.492709+01 | 1486269114.49271 | pgbench_tellers_pkey  |            40960
 2017-02-05 05:31:54.492709+01 | 1486269114.49271 | pgbench_accounts_pkey |        224641024

 2017-02-05 05:31:55.598708+01 | 1486269115.59871 | pgbench_branches_pkey |            16384
 2017-02-05 05:31:55.598708+01 | 1486269115.59871 | pgbench_tellers_pkey  |            40960
 2017-02-05 05:31:55.598708+01 | 1486269115.59871 | pgbench_accounts_pkey |        224641024

 2017-02-05 05:31:56.713764+01 | 1486269116.71376 | pgbench_branches_pkey |            16384
 2017-02-05 05:31:56.713764+01 | 1486269116.71376 | pgbench_tellers_pkey  |            40960
 2017-02-05 05:31:56.713764+01 | 1486269116.71376 | pgbench_accounts_pkey |        224641024

 2017-02-05 05:31:57.830897+01 | 1486269117.8309 | pgbench_branches_pkey |            16384
 2017-02-05 05:31:57.830897+01 | 1486269117.8309 | pgbench_tellers_pkey  |            40960
 2017-02-05 05:31:57.830897+01 | 1486269117.8309 | pgbench_accounts_pkey |        224641024

 2017-02-05 05:31:58.940724+01 | 1486269118.94072 | pgbench_branches_pkey |            16384
 2017-02-05 05:31:58.940724+01 | 1486269118.94072 | pgbench_tellers_pkey  |            40960
 2017-02-05 05:31:58.940724+01 | 1486269118.94072 | pgbench_accounts_pkey |        224641024

 2017-02-05 05:32:00.053561+01 | 1486269120.05356 | pgbench_branches_pkey |            16384
 2017-02-05 05:32:00.053561+01 | 1486269120.05356 | pgbench_tellers_pkey  |            40960
 2017-02-05 05:32:00.053561+01 | 1486269120.05356 | pgbench_accounts_pkey |        224641024

 2017-02-05 05:32:01.166433+01 | 1486269121.16643 | pgbench_branches_pkey |            16384
 2017-02-05 05:32:01.166433+01 | 1486269121.16643 | pgbench_tellers_pkey  |            40960
 2017-02-05 05:32:01.166433+01 | 1486269121.16643 | pgbench_accounts_pkey |        224641024

 2017-02-05 05:32:02.275742+01 | 1486269122.27574 | pgbench_branches_pkey |            16384
 2017-02-05 05:32:02.275742+01 | 1486269122.27574 | pgbench_tellers_pkey  |            40960
 2017-02-05 05:32:02.275742+01 | 1486269122.27574 | pgbench_accounts_pkey |        224641024

 2017-02-05 05:32:03.367622+01 | 1486269123.36762 | pgbench_branches_pkey |            16384
 2017-02-05 05:32:03.367622+01 | 1486269123.36762 | pgbench_tellers_pkey  |            40960
 2017-02-05 05:32:03.367622+01 | 1486269123.36762 | pgbench_accounts_pkey |        224641024

 2017-02-05 05:32:04.463947+01 | 1486269124.46395 | pgbench_branches_pkey |            16384
 2017-02-05 05:32:04.463947+01 | 1486269124.46395 | pgbench_tellers_pkey  |            40960
 2017-02-05 05:32:04.463947+01 | 1486269124.46395 | pgbench_accounts_pkey |        224641024

 2017-02-05 05:32:05.565185+01 | 1486269125.56519 | pgbench_branches_pkey |            16384
 2017-02-05 05:32:05.565185+01 | 1486269125.56519 | pgbench_tellers_pkey  |            40960
 2017-02-05 05:32:05.565185+01 | 1486269125.56519 | pgbench_accounts_pkey |        224641024

 2017-02-05 05:32:06.666038+01 | 1486269126.66604 | pgbench_branches_pkey |            16384
 2017-02-05 05:32:06.666038+01 | 1486269126.66604 | pgbench_tellers_pkey  |            40960
 2017-02-05 05:32:06.666038+01 | 1486269126.66604 | pgbench_accounts_pkey |        224641024

 2017-02-05 05:32:07.770952+01 | 1486269127.77095 | pgbench_branches_pkey |            16384
 2017-02-05 05:32:07.770952+01 | 1486269127.77095 | pgbench_tellers_pkey  |            40960
 2017-02-05 05:32:07.770952+01 | 1486269127.77095 | pgbench_accounts_pkey |        224641024

 2017-02-05 05:32:08.861801+01 | 1486269128.8618 | pgbench_branches_pkey |            16384
 2017-02-05 05:32:08.861801+01 | 1486269128.8618 | pgbench_tellers_pkey  |            40960
 2017-02-05 05:32:08.861801+01 | 1486269128.8618 | pgbench_accounts_pkey |        224641024

 2017-02-05 05:32:09.966091+01 | 1486269129.96609 | pgbench_branches_pkey |            16384
 2017-02-05 05:32:09.966091+01 | 1486269129.96609 | pgbench_tellers_pkey  |            40960
 2017-02-05 05:32:09.966091+01 | 1486269129.96609 | pgbench_accounts_pkey |        224641024

 2017-02-05 05:32:11.062978+01 | 1486269131.06298 | pgbench_branches_pkey |            16384
 2017-02-05 05:32:11.062978+01 | 1486269131.06298 | pgbench_tellers_pkey  |            40960
 2017-02-05 05:32:11.062978+01 | 1486269131.06298 | pgbench_accounts_pkey |        224641024

 2017-02-05 05:32:12.159065+01 | 1486269132.15907 | pgbench_branches_pkey |            16384
 2017-02-05 05:32:12.159065+01 | 1486269132.15907 | pgbench_tellers_pkey  |            40960
 2017-02-05 05:32:12.159065+01 | 1486269132.15907 | pgbench_accounts_pkey |        224641024

 2017-02-05 05:32:13.257301+01 | 1486269133.2573 | pgbench_branches_pkey |            16384
 2017-02-05 05:32:13.257301+01 | 1486269133.2573 | pgbench_tellers_pkey  |            40960
 2017-02-05 05:32:13.257301+01 | 1486269133.2573 | pgbench_accounts_pkey |        224641024

 2017-02-05 05:32:14.358725+01 | 1486269134.35873 | pgbench_branches_pkey |            16384
 2017-02-05 05:32:14.358725+01 | 1486269134.35873 | pgbench_tellers_pkey  |            40960
 2017-02-05 05:32:14.358725+01 | 1486269134.35873 | pgbench_accounts_pkey |        224641024

 2017-02-05 05:32:15.442615+01 | 1486269135.44262 | pgbench_branches_pkey |            16384
 2017-02-05 05:32:15.442615+01 | 1486269135.44262 | pgbench_tellers_pkey  |            40960
 2017-02-05 05:32:15.442615+01 | 1486269135.44262 | pgbench_accounts_pkey |        224641024

 2017-02-05 05:32:16.533163+01 | 1486269136.53316 | pgbench_branches_pkey |            16384
 2017-02-05 05:32:16.533163+01 | 1486269136.53316 | pgbench_tellers_pkey  |            40960
 2017-02-05 05:32:16.533163+01 | 1486269136.53316 | pgbench_accounts_pkey |        224641024

 2017-02-05 05:32:17.643981+01 | 1486269137.64398 | pgbench_branches_pkey |            16384
 2017-02-05 05:32:17.643981+01 | 1486269137.64398 | pgbench_tellers_pkey  |            40960
 2017-02-05 05:32:17.643981+01 | 1486269137.64398 | pgbench_accounts_pkey |        224641024

 2017-02-05 05:32:18.744765+01 | 1486269138.74477 | pgbench_branches_pkey |            16384
 2017-02-05 05:32:18.744765+01 | 1486269138.74477 | pgbench_tellers_pkey  |            40960
 2017-02-05 05:32:18.744765+01 | 1486269138.74477 | pgbench_accounts_pkey |        224641024

 2017-02-05 05:32:19.843534+01 | 1486269139.84353 | pgbench_branches_pkey |            16384
 2017-02-05 05:32:19.843534+01 | 1486269139.84353 | pgbench_tellers_pkey  |            40960
 2017-02-05 05:32:19.843534+01 | 1486269139.84353 | pgbench_accounts_pkey |        224641024

 2017-02-05 05:32:20.940714+01 | 1486269140.94071 | pgbench_branches_pkey |            16384
 2017-02-05 05:32:20.940714+01 | 1486269140.94071 | pgbench_tellers_pkey  |            40960
 2017-02-05 05:32:20.940714+01 | 1486269140.94071 | pgbench_accounts_pkey |        224641024

 2017-02-05 05:32:22.03174+01 | 1486269142.03174 | pgbench_branches_pkey |            16384
 2017-02-05 05:32:22.03174+01 | 1486269142.03174 | pgbench_tellers_pkey  |            40960
 2017-02-05 05:32:22.03174+01 | 1486269142.03174 | pgbench_accounts_pkey |        224641024

 2017-02-05 05:32:23.132905+01 | 1486269143.13291 | pgbench_branches_pkey |            16384
 2017-02-05 05:32:23.132905+01 | 1486269143.13291 | pgbench_tellers_pkey  |            40960
 2017-02-05 05:32:23.132905+01 | 1486269143.13291 | pgbench_accounts_pkey |        224641024

 2017-02-05 05:32:24.231792+01 | 1486269144.23179 | pgbench_branches_pkey |            16384
 2017-02-05 05:32:24.231792+01 | 1486269144.23179 | pgbench_tellers_pkey  |            40960
 2017-02-05 05:32:24.231792+01 | 1486269144.23179 | pgbench_accounts_pkey |        224641024

 2017-02-05 05:32:25.332502+01 | 1486269145.3325 | pgbench_branches_pkey |            16384
 2017-02-05 05:32:25.332502+01 | 1486269145.3325 | pgbench_tellers_pkey  |            40960
 2017-02-05 05:32:25.332502+01 | 1486269145.3325 | pgbench_accounts_pkey |        224641024

 2017-02-05 05:32:26.425254+01 | 1486269146.42525 | pgbench_branches_pkey |            16384
 2017-02-05 05:32:26.425254+01 | 1486269146.42525 | pgbench_tellers_pkey  |            40960
 2017-02-05 05:32:26.425254+01 | 1486269146.42525 | pgbench_accounts_pkey |        224641024

 2017-02-05 05:32:27.516933+01 | 1486269147.51693 | pgbench_branches_pkey |            16384
 2017-02-05 05:32:27.516933+01 | 1486269147.51693 | pgbench_tellers_pkey  |            40960
 2017-02-05 05:32:27.516933+01 | 1486269147.51693 | pgbench_accounts_pkey |        224641024

 2017-02-05 05:32:28.617359+01 | 1486269148.61736 | pgbench_branches_pkey |            16384
 2017-02-05 05:32:28.617359+01 | 1486269148.61736 | pgbench_tellers_pkey  |            40960
 2017-02-05 05:32:28.617359+01 | 1486269148.61736 | pgbench_accounts_pkey |        224641024

 2017-02-05 05:32:29.716979+01 | 1486269149.71698 | pgbench_branches_pkey |            16384
 2017-02-05 05:32:29.716979+01 | 1486269149.71698 | pgbench_tellers_pkey  |            40960
 2017-02-05 05:32:29.716979+01 | 1486269149.71698 | pgbench_accounts_pkey |        224641024

 2017-02-05 05:32:30.816799+01 | 1486269150.8168 | pgbench_branches_pkey |            16384
 2017-02-05 05:32:30.816799+01 | 1486269150.8168 | pgbench_tellers_pkey  |            40960
 2017-02-05 05:32:30.816799+01 | 1486269150.8168 | pgbench_accounts_pkey |        224641024

 2017-02-05 05:32:31.919285+01 | 1486269151.91929 | pgbench_branches_pkey |            16384
 2017-02-05 05:32:31.919285+01 | 1486269151.91929 | pgbench_tellers_pkey  |            40960
 2017-02-05 05:32:31.919285+01 | 1486269151.91929 | pgbench_accounts_pkey |        224641024

 2017-02-05 05:32:33.014573+01 | 1486269153.01457 | pgbench_branches_pkey |            16384
 2017-02-05 05:32:33.014573+01 | 1486269153.01457 | pgbench_tellers_pkey  |            40960
 2017-02-05 05:32:33.014573+01 | 1486269153.01457 | pgbench_accounts_pkey |        224641024

 2017-02-05 05:32:34.112519+01 | 1486269154.11252 | pgbench_branches_pkey |            16384
 2017-02-05 05:32:34.112519+01 | 1486269154.11252 | pgbench_tellers_pkey  |            40960
 2017-02-05 05:32:34.112519+01 | 1486269154.11252 | pgbench_accounts_pkey |        224641024

 2017-02-05 05:32:35.221983+01 | 1486269155.22198 | pgbench_branches_pkey |            16384
 2017-02-05 05:32:35.221983+01 | 1486269155.22198 | pgbench_tellers_pkey  |            40960
 2017-02-05 05:32:35.221983+01 | 1486269155.22198 | pgbench_accounts_pkey |        224641024

 2017-02-05 05:32:36.32109+01 | 1486269156.32109 | pgbench_branches_pkey |            16384
 2017-02-05 05:32:36.32109+01 | 1486269156.32109 | pgbench_tellers_pkey  |            40960
 2017-02-05 05:32:36.32109+01 | 1486269156.32109 | pgbench_accounts_pkey |        224641024

 2017-02-05 05:32:37.416703+01 | 1486269157.4167 | pgbench_branches_pkey |            16384
 2017-02-05 05:32:37.416703+01 | 1486269157.4167 | pgbench_tellers_pkey  |            40960
 2017-02-05 05:32:37.416703+01 | 1486269157.4167 | pgbench_accounts_pkey |        224641024

 2017-02-05 05:32:38.504701+01 | 1486269158.5047 | pgbench_branches_pkey |            16384
 2017-02-05 05:32:38.504701+01 | 1486269158.5047 | pgbench_tellers_pkey  |            40960
 2017-02-05 05:32:38.504701+01 | 1486269158.5047 | pgbench_accounts_pkey |        224641024

 2017-02-05 05:32:39.596689+01 | 1486269159.59669 | pgbench_branches_pkey |            16384
 2017-02-05 05:32:39.596689+01 | 1486269159.59669 | pgbench_tellers_pkey  |            40960
 2017-02-05 05:32:39.596689+01 | 1486269159.59669 | pgbench_accounts_pkey |        224641024

 2017-02-05 05:32:40.687936+01 | 1486269160.68794 | pgbench_branches_pkey |            16384
 2017-02-05 05:32:40.687936+01 | 1486269160.68794 | pgbench_tellers_pkey  |            40960
 2017-02-05 05:32:40.687936+01 | 1486269160.68794 | pgbench_accounts_pkey |        224641024

 2017-02-05 05:32:41.787561+01 | 1486269161.78756 | pgbench_branches_pkey |            16384
 2017-02-05 05:32:41.787561+01 | 1486269161.78756 | pgbench_tellers_pkey  |            40960
 2017-02-05 05:32:41.787561+01 | 1486269161.78756 | pgbench_accounts_pkey |        224641024

 2017-02-05 05:32:42.885832+01 | 1486269162.88583 | pgbench_branches_pkey |            16384
 2017-02-05 05:32:42.885832+01 | 1486269162.88583 | pgbench_tellers_pkey  |            40960
 2017-02-05 05:32:42.885832+01 | 1486269162.88583 | pgbench_accounts_pkey |        224641024

 2017-02-05 05:32:43.979126+01 | 1486269163.97913 | pgbench_branches_pkey |            16384
 2017-02-05 05:32:43.979126+01 | 1486269163.97913 | pgbench_tellers_pkey  |            40960
 2017-02-05 05:32:43.979126+01 | 1486269163.97913 | pgbench_accounts_pkey |        224641024

 2017-02-05 05:32:45.071503+01 | 1486269165.0715 | pgbench_branches_pkey |            16384
 2017-02-05 05:32:45.071503+01 | 1486269165.0715 | pgbench_tellers_pkey  |            40960
 2017-02-05 05:32:45.071503+01 | 1486269165.0715 | pgbench_accounts_pkey |        224641024

 2017-02-05 05:32:46.175035+01 | 1486269166.17503 | pgbench_branches_pkey |            16384
 2017-02-05 05:32:46.175035+01 | 1486269166.17503 | pgbench_tellers_pkey  |            40960
 2017-02-05 05:32:46.175035+01 | 1486269166.17503 | pgbench_accounts_pkey |        224641024

 2017-02-05 05:32:47.307502+01 | 1486269167.3075 | pgbench_branches_pkey |            16384
 2017-02-05 05:32:47.307502+01 | 1486269167.3075 | pgbench_tellers_pkey  |            40960
 2017-02-05 05:32:47.307502+01 | 1486269167.3075 | pgbench_accounts_pkey |        224641024

 2017-02-05 05:32:48.403173+01 | 1486269168.40317 | pgbench_branches_pkey |            16384
 2017-02-05 05:32:48.403173+01 | 1486269168.40317 | pgbench_tellers_pkey  |            40960
 2017-02-05 05:32:48.403173+01 | 1486269168.40317 | pgbench_accounts_pkey |        224641024

 2017-02-05 05:32:49.498189+01 | 1486269169.49819 | pgbench_branches_pkey |            16384
 2017-02-05 05:32:49.498189+01 | 1486269169.49819 | pgbench_tellers_pkey  |            40960
 2017-02-05 05:32:49.498189+01 | 1486269169.49819 | pgbench_accounts_pkey |        224641024

 2017-02-05 05:32:50.588164+01 | 1486269170.58816 | pgbench_branches_pkey |            16384
 2017-02-05 05:32:50.588164+01 | 1486269170.58816 | pgbench_tellers_pkey  |            40960
 2017-02-05 05:32:50.588164+01 | 1486269170.58816 | pgbench_accounts_pkey |        224641024

 2017-02-05 05:32:51.684297+01 | 1486269171.6843 | pgbench_branches_pkey |            16384
 2017-02-05 05:32:51.684297+01 | 1486269171.6843 | pgbench_tellers_pkey  |            40960
 2017-02-05 05:32:51.684297+01 | 1486269171.6843 | pgbench_accounts_pkey |        224641024

 2017-02-05 05:32:52.799447+01 | 1486269172.79945 | pgbench_branches_pkey |            16384
 2017-02-05 05:32:52.799447+01 | 1486269172.79945 | pgbench_tellers_pkey  |            40960
 2017-02-05 05:32:52.799447+01 | 1486269172.79945 | pgbench_accounts_pkey |        224641024

 2017-02-05 05:32:53.908002+01 | 1486269173.908 | pgbench_branches_pkey |            16384
 2017-02-05 05:32:53.908002+01 | 1486269173.908 | pgbench_tellers_pkey  |            40960
 2017-02-05 05:32:53.908002+01 | 1486269173.908 | pgbench_accounts_pkey |        224641024

 2017-02-05 05:32:55.013978+01 | 1486269175.01398 | pgbench_branches_pkey |            16384
 2017-02-05 05:32:55.013978+01 | 1486269175.01398 | pgbench_tellers_pkey  |            40960
 2017-02-05 05:32:55.013978+01 | 1486269175.01398 | pgbench_accounts_pkey |        224641024

 2017-02-05 05:32:56.125594+01 | 1486269176.12559 | pgbench_branches_pkey |            16384
 2017-02-05 05:32:56.125594+01 | 1486269176.12559 | pgbench_tellers_pkey  |            40960
 2017-02-05 05:32:56.125594+01 | 1486269176.12559 | pgbench_accounts_pkey |        224641024

 2017-02-05 05:32:57.231223+01 | 1486269177.23122 | pgbench_branches_pkey |            16384
 2017-02-05 05:32:57.231223+01 | 1486269177.23122 | pgbench_tellers_pkey  |            40960
 2017-02-05 05:32:57.231223+01 | 1486269177.23122 | pgbench_accounts_pkey |        224641024

 2017-02-05 05:32:58.335571+01 | 1486269178.33557 | pgbench_branches_pkey |            16384
 2017-02-05 05:32:58.335571+01 | 1486269178.33557 | pgbench_tellers_pkey  |            40960
 2017-02-05 05:32:58.335571+01 | 1486269178.33557 | pgbench_accounts_pkey |        224641024

 2017-02-05 05:32:59.432454+01 | 1486269179.43245 | pgbench_branches_pkey |            16384
 2017-02-05 05:32:59.432454+01 | 1486269179.43245 | pgbench_tellers_pkey  |            40960
 2017-02-05 05:32:59.432454+01 | 1486269179.43245 | pgbench_accounts_pkey |        224641024

 2017-02-05 05:33:00.520972+01 | 1486269180.52097 | pgbench_branches_pkey |            16384
 2017-02-05 05:33:00.520972+01 | 1486269180.52097 | pgbench_tellers_pkey  |            40960
 2017-02-05 05:33:00.520972+01 | 1486269180.52097 | pgbench_accounts_pkey |        224641024

 2017-02-05 05:33:01.611734+01 | 1486269181.61173 | pgbench_branches_pkey |            16384
 2017-02-05 05:33:01.611734+01 | 1486269181.61173 | pgbench_tellers_pkey  |            40960
 2017-02-05 05:33:01.611734+01 | 1486269181.61173 | pgbench_accounts_pkey |        224641024

 2017-02-05 05:33:02.704543+01 | 1486269182.70454 | pgbench_branches_pkey |            16384
 2017-02-05 05:33:02.704543+01 | 1486269182.70454 | pgbench_tellers_pkey  |            40960
 2017-02-05 05:33:02.704543+01 | 1486269182.70454 | pgbench_accounts_pkey |        224641024

 2017-02-05 05:33:03.806222+01 | 1486269183.80622 | pgbench_branches_pkey |            16384
 2017-02-05 05:33:03.806222+01 | 1486269183.80622 | pgbench_tellers_pkey  |            40960
 2017-02-05 05:33:03.806222+01 | 1486269183.80622 | pgbench_accounts_pkey |        224641024

 2017-02-05 05:33:04.901665+01 | 1486269184.90166 | pgbench_branches_pkey |            16384
 2017-02-05 05:33:04.901665+01 | 1486269184.90166 | pgbench_tellers_pkey  |            40960
 2017-02-05 05:33:04.901665+01 | 1486269184.90166 | pgbench_accounts_pkey |        224641024

 2017-02-05 05:33:06.001109+01 | 1486269186.00111 | pgbench_branches_pkey |            16384
 2017-02-05 05:33:06.001109+01 | 1486269186.00111 | pgbench_tellers_pkey  |            40960
 2017-02-05 05:33:06.001109+01 | 1486269186.00111 | pgbench_accounts_pkey |        224641024

 2017-02-05 05:33:07.105358+01 | 1486269187.10536 | pgbench_branches_pkey |            16384
 2017-02-05 05:33:07.105358+01 | 1486269187.10536 | pgbench_tellers_pkey  |            40960
 2017-02-05 05:33:07.105358+01 | 1486269187.10536 | pgbench_accounts_pkey |        224641024

 2017-02-05 05:33:08.215039+01 | 1486269188.21504 | pgbench_branches_pkey |            16384
 2017-02-05 05:33:08.215039+01 | 1486269188.21504 | pgbench_tellers_pkey  |            40960
 2017-02-05 05:33:08.215039+01 | 1486269188.21504 | pgbench_accounts_pkey |        224641024

 2017-02-05 05:33:09.311911+01 | 1486269189.31191 | pgbench_branches_pkey |            16384
 2017-02-05 05:33:09.311911+01 | 1486269189.31191 | pgbench_tellers_pkey  |            40960
 2017-02-05 05:33:09.311911+01 | 1486269189.31191 | pgbench_accounts_pkey |        224641024

 2017-02-05 05:33:10.415932+01 | 1486269190.41593 | pgbench_branches_pkey |            16384
 2017-02-05 05:33:10.415932+01 | 1486269190.41593 | pgbench_tellers_pkey  |            40960
 2017-02-05 05:33:10.415932+01 | 1486269190.41593 | pgbench_accounts_pkey |        224641024

 2017-02-05 05:33:11.509751+01 | 1486269191.50975 | pgbench_branches_pkey |            16384
 2017-02-05 05:33:11.509751+01 | 1486269191.50975 | pgbench_tellers_pkey  |            40960
 2017-02-05 05:33:11.509751+01 | 1486269191.50975 | pgbench_accounts_pkey |        224641024

 2017-02-05 05:33:12.598079+01 | 1486269192.59808 | pgbench_branches_pkey |            16384
 2017-02-05 05:33:12.598079+01 | 1486269192.59808 | pgbench_tellers_pkey  |            40960
 2017-02-05 05:33:12.598079+01 | 1486269192.59808 | pgbench_accounts_pkey |        224641024

 2017-02-05 05:33:13.692885+01 | 1486269193.69288 | pgbench_branches_pkey |            16384
 2017-02-05 05:33:13.692885+01 | 1486269193.69288 | pgbench_tellers_pkey  |            40960
 2017-02-05 05:33:13.692885+01 | 1486269193.69288 | pgbench_accounts_pkey |        224641024

 2017-02-05 05:33:14.79466+01 | 1486269194.79466 | pgbench_branches_pkey |            16384
 2017-02-05 05:33:14.79466+01 | 1486269194.79466 | pgbench_tellers_pkey  |            40960
 2017-02-05 05:33:14.79466+01 | 1486269194.79466 | pgbench_accounts_pkey |        224641024

 2017-02-05 05:33:15.899744+01 | 1486269195.89974 | pgbench_branches_pkey |            16384
 2017-02-05 05:33:15.899744+01 | 1486269195.89974 | pgbench_tellers_pkey  |            40960
 2017-02-05 05:33:15.899744+01 | 1486269195.89974 | pgbench_accounts_pkey |        224641024

 2017-02-05 05:33:17.012647+01 | 1486269197.01265 | pgbench_branches_pkey |            16384
 2017-02-05 05:33:17.012647+01 | 1486269197.01265 | pgbench_tellers_pkey  |            40960
 2017-02-05 05:33:17.012647+01 | 1486269197.01265 | pgbench_accounts_pkey |        224641024

 2017-02-05 05:33:18.111425+01 | 1486269198.11142 | pgbench_branches_pkey |            16384
 2017-02-05 05:33:18.111425+01 | 1486269198.11142 | pgbench_tellers_pkey  |            40960
 2017-02-05 05:33:18.111425+01 | 1486269198.11142 | pgbench_accounts_pkey |        224641024

 2017-02-05 05:33:19.209879+01 | 1486269199.20988 | pgbench_branches_pkey |            16384
 2017-02-05 05:33:19.209879+01 | 1486269199.20988 | pgbench_tellers_pkey  |            40960
 2017-02-05 05:33:19.209879+01 | 1486269199.20988 | pgbench_accounts_pkey |        224641024

 2017-02-05 05:33:20.311013+01 | 1486269200.31101 | pgbench_branches_pkey |            16384
 2017-02-05 05:33:20.311013+01 | 1486269200.31101 | pgbench_tellers_pkey  |            40960
 2017-02-05 05:33:20.311013+01 | 1486269200.31101 | pgbench_accounts_pkey |        224641024

 2017-02-05 05:33:21.416794+01 | 1486269201.41679 | pgbench_branches_pkey |            16384
 2017-02-05 05:33:21.416794+01 | 1486269201.41679 | pgbench_tellers_pkey  |            40960
 2017-02-05 05:33:21.416794+01 | 1486269201.41679 | pgbench_accounts_pkey |        224641024

 2017-02-05 05:33:22.50606+01 | 1486269202.50606 | pgbench_branches_pkey |            16384
 2017-02-05 05:33:22.50606+01 | 1486269202.50606 | pgbench_tellers_pkey  |            40960
 2017-02-05 05:33:22.50606+01 | 1486269202.50606 | pgbench_accounts_pkey |        224641024

 2017-02-05 05:33:23.60513+01 | 1486269203.60513 | pgbench_branches_pkey |            16384
 2017-02-05 05:33:23.60513+01 | 1486269203.60513 | pgbench_tellers_pkey  |            40960
 2017-02-05 05:33:23.60513+01 | 1486269203.60513 | pgbench_accounts_pkey |        224641024

 2017-02-05 05:33:24.702168+01 | 1486269204.70217 | pgbench_branches_pkey |            16384
 2017-02-05 05:33:24.702168+01 | 1486269204.70217 | pgbench_tellers_pkey  |            40960
 2017-02-05 05:33:24.702168+01 | 1486269204.70217 | pgbench_accounts_pkey |        224641024

 2017-02-05 05:33:25.80972+01 | 1486269205.80972 | pgbench_branches_pkey |            16384
 2017-02-05 05:33:25.80972+01 | 1486269205.80972 | pgbench_tellers_pkey  |            40960
 2017-02-05 05:33:25.80972+01 | 1486269205.80972 | pgbench_accounts_pkey |        224641024

 2017-02-05 05:33:26.908937+01 | 1486269206.90894 | pgbench_branches_pkey |            16384
 2017-02-05 05:33:26.908937+01 | 1486269206.90894 | pgbench_tellers_pkey  |            40960
 2017-02-05 05:33:26.908937+01 | 1486269206.90894 | pgbench_accounts_pkey |        224641024

 2017-02-05 05:33:28.003234+01 | 1486269208.00323 | pgbench_branches_pkey |            16384
 2017-02-05 05:33:28.003234+01 | 1486269208.00323 | pgbench_tellers_pkey  |            40960
 2017-02-05 05:33:28.003234+01 | 1486269208.00323 | pgbench_accounts_pkey |        224641024

 2017-02-05 05:33:29.100984+01 | 1486269209.10098 | pgbench_branches_pkey |            16384
 2017-02-05 05:33:29.100984+01 | 1486269209.10098 | pgbench_tellers_pkey  |            40960
 2017-02-05 05:33:29.100984+01 | 1486269209.10098 | pgbench_accounts_pkey |        224641024

 2017-02-05 05:33:30.208905+01 | 1486269210.2089 | pgbench_branches_pkey |            16384
 2017-02-05 05:33:30.208905+01 | 1486269210.2089 | pgbench_tellers_pkey  |            40960
 2017-02-05 05:33:30.208905+01 | 1486269210.2089 | pgbench_accounts_pkey |        224641024

 2017-02-05 05:33:31.309191+01 | 1486269211.30919 | pgbench_branches_pkey |            16384
 2017-02-05 05:33:31.309191+01 | 1486269211.30919 | pgbench_tellers_pkey  |            40960
 2017-02-05 05:33:31.309191+01 | 1486269211.30919 | pgbench_accounts_pkey |        224641024

 2017-02-05 05:33:32.410216+01 | 1486269212.41022 | pgbench_branches_pkey |            16384
 2017-02-05 05:33:32.410216+01 | 1486269212.41022 | pgbench_tellers_pkey  |            40960
 2017-02-05 05:33:32.410216+01 | 1486269212.41022 | pgbench_accounts_pkey |        224641024

 2017-02-05 05:33:33.503332+01 | 1486269213.50333 | pgbench_branches_pkey |            16384
 2017-02-05 05:33:33.503332+01 | 1486269213.50333 | pgbench_tellers_pkey  |            40960
 2017-02-05 05:33:33.503332+01 | 1486269213.50333 | pgbench_accounts_pkey |        224641024

 2017-02-05 05:33:34.602107+01 | 1486269214.60211 | pgbench_branches_pkey |            16384
 2017-02-05 05:33:34.602107+01 | 1486269214.60211 | pgbench_tellers_pkey  |            40960
 2017-02-05 05:33:34.602107+01 | 1486269214.60211 | pgbench_accounts_pkey |        224641024

 2017-02-05 05:33:35.696321+01 | 1486269215.69632 | pgbench_branches_pkey |            16384
 2017-02-05 05:33:35.696321+01 | 1486269215.69632 | pgbench_tellers_pkey  |            40960
 2017-02-05 05:33:35.696321+01 | 1486269215.69632 | pgbench_accounts_pkey |        224641024

 2017-02-05 05:33:36.784986+01 | 1486269216.78499 | pgbench_branches_pkey |            16384
 2017-02-05 05:33:36.784986+01 | 1486269216.78499 | pgbench_tellers_pkey  |            40960
 2017-02-05 05:33:36.784986+01 | 1486269216.78499 | pgbench_accounts_pkey |        224641024

 2017-02-05 05:33:37.888401+01 | 1486269217.8884 | pgbench_branches_pkey |            16384
 2017-02-05 05:33:37.888401+01 | 1486269217.8884 | pgbench_tellers_pkey  |            40960
 2017-02-05 05:33:37.888401+01 | 1486269217.8884 | pgbench_accounts_pkey |        224641024

 2017-02-05 05:33:38.99949+01 | 1486269218.99949 | pgbench_branches_pkey |            16384
 2017-02-05 05:33:38.99949+01 | 1486269218.99949 | pgbench_tellers_pkey  |            40960
 2017-02-05 05:33:38.99949+01 | 1486269218.99949 | pgbench_accounts_pkey |        224641024

 2017-02-05 05:33:40.101358+01 | 1486269220.10136 | pgbench_branches_pkey |            16384
 2017-02-05 05:33:40.101358+01 | 1486269220.10136 | pgbench_tellers_pkey  |            40960
 2017-02-05 05:33:40.101358+01 | 1486269220.10136 | pgbench_accounts_pkey |        224641024

 2017-02-05 05:33:41.195185+01 | 1486269221.19518 | pgbench_branches_pkey |            16384
 2017-02-05 05:33:41.195185+01 | 1486269221.19518 | pgbench_tellers_pkey  |            40960
 2017-02-05 05:33:41.195185+01 | 1486269221.19518 | pgbench_accounts_pkey |        224641024

 2017-02-05 05:33:42.303289+01 | 1486269222.30329 | pgbench_branches_pkey |            16384
 2017-02-05 05:33:42.303289+01 | 1486269222.30329 | pgbench_tellers_pkey  |            40960
 2017-02-05 05:33:42.303289+01 | 1486269222.30329 | pgbench_accounts_pkey |        224641024

 2017-02-05 05:33:43.406617+01 | 1486269223.40662 | pgbench_branches_pkey |            16384
 2017-02-05 05:33:43.406617+01 | 1486269223.40662 | pgbench_tellers_pkey  |            40960
 2017-02-05 05:33:43.406617+01 | 1486269223.40662 | pgbench_accounts_pkey |        224641024

 2017-02-05 05:33:44.494456+01 | 1486269224.49446 | pgbench_branches_pkey |            16384
 2017-02-05 05:33:44.494456+01 | 1486269224.49446 | pgbench_tellers_pkey  |            40960
 2017-02-05 05:33:44.494456+01 | 1486269224.49446 | pgbench_accounts_pkey |        224641024

 2017-02-05 05:33:45.585838+01 | 1486269225.58584 | pgbench_branches_pkey |            16384
 2017-02-05 05:33:45.585838+01 | 1486269225.58584 | pgbench_tellers_pkey  |            40960
 2017-02-05 05:33:45.585838+01 | 1486269225.58584 | pgbench_accounts_pkey |        224641024

 2017-02-05 05:33:46.673334+01 | 1486269226.67333 | pgbench_branches_pkey |            16384
 2017-02-05 05:33:46.673334+01 | 1486269226.67333 | pgbench_tellers_pkey  |            40960
 2017-02-05 05:33:46.673334+01 | 1486269226.67333 | pgbench_accounts_pkey |        224641024

 2017-02-05 05:33:47.775959+01 | 1486269227.77596 | pgbench_branches_pkey |            16384
 2017-02-05 05:33:47.775959+01 | 1486269227.77596 | pgbench_tellers_pkey  |            40960
 2017-02-05 05:33:47.775959+01 | 1486269227.77596 | pgbench_accounts_pkey |        224641024

 2017-02-05 05:33:48.87991+01 | 1486269228.87991 | pgbench_branches_pkey |            16384
 2017-02-05 05:33:48.87991+01 | 1486269228.87991 | pgbench_tellers_pkey  |            40960
 2017-02-05 05:33:48.87991+01 | 1486269228.87991 | pgbench_accounts_pkey |        224641024

 2017-02-05 05:33:49.975694+01 | 1486269229.97569 | pgbench_branches_pkey |            16384
 2017-02-05 05:33:49.975694+01 | 1486269229.97569 | pgbench_tellers_pkey  |            40960
 2017-02-05 05:33:49.975694+01 | 1486269229.97569 | pgbench_accounts_pkey |        224641024

 2017-02-05 05:33:51.081733+01 | 1486269231.08173 | pgbench_branches_pkey |            16384
 2017-02-05 05:33:51.081733+01 | 1486269231.08173 | pgbench_tellers_pkey  |            40960
 2017-02-05 05:33:51.081733+01 | 1486269231.08173 | pgbench_accounts_pkey |        224641024

 2017-02-05 05:33:52.184637+01 | 1486269232.18464 | pgbench_branches_pkey |            16384
 2017-02-05 05:33:52.184637+01 | 1486269232.18464 | pgbench_tellers_pkey  |            40960
 2017-02-05 05:33:52.184637+01 | 1486269232.18464 | pgbench_accounts_pkey |        224641024

 2017-02-05 05:33:53.283951+01 | 1486269233.28395 | pgbench_branches_pkey |            16384
 2017-02-05 05:33:53.283951+01 | 1486269233.28395 | pgbench_tellers_pkey  |            40960
 2017-02-05 05:33:53.283951+01 | 1486269233.28395 | pgbench_accounts_pkey |        224641024

 2017-02-05 05:33:54.392415+01 | 1486269234.39242 | pgbench_branches_pkey |            16384
 2017-02-05 05:33:54.392415+01 | 1486269234.39242 | pgbench_tellers_pkey  |            40960
 2017-02-05 05:33:54.392415+01 | 1486269234.39242 | pgbench_accounts_pkey |        224641024

 2017-02-05 05:33:55.485311+01 | 1486269235.48531 | pgbench_branches_pkey |            16384
 2017-02-05 05:33:55.485311+01 | 1486269235.48531 | pgbench_tellers_pkey  |            40960
 2017-02-05 05:33:55.485311+01 | 1486269235.48531 | pgbench_accounts_pkey |        224641024

 2017-02-05 05:33:56.579547+01 | 1486269236.57955 | pgbench_branches_pkey |            16384
 2017-02-05 05:33:56.579547+01 | 1486269236.57955 | pgbench_tellers_pkey  |            40960
 2017-02-05 05:33:56.579547+01 | 1486269236.57955 | pgbench_accounts_pkey |        224641024

 2017-02-05 05:33:57.676501+01 | 1486269237.6765 | pgbench_branches_pkey |            16384
 2017-02-05 05:33:57.676501+01 | 1486269237.6765 | pgbench_tellers_pkey  |            40960
 2017-02-05 05:33:57.676501+01 | 1486269237.6765 | pgbench_accounts_pkey |        224641024

 2017-02-05 05:33:58.771195+01 | 1486269238.77119 | pgbench_branches_pkey |            16384
 2017-02-05 05:33:58.771195+01 | 1486269238.77119 | pgbench_tellers_pkey  |            40960
 2017-02-05 05:33:58.771195+01 | 1486269238.77119 | pgbench_accounts_pkey |        224641024

 2017-02-05 05:33:59.856729+01 | 1486269239.85673 | pgbench_branches_pkey |            16384
 2017-02-05 05:33:59.856729+01 | 1486269239.85673 | pgbench_tellers_pkey  |            40960
 2017-02-05 05:33:59.856729+01 | 1486269239.85673 | pgbench_accounts_pkey |        224641024

 2017-02-05 05:34:00.952358+01 | 1486269240.95236 | pgbench_branches_pkey |            16384
 2017-02-05 05:34:00.952358+01 | 1486269240.95236 | pgbench_tellers_pkey  |            40960
 2017-02-05 05:34:00.952358+01 | 1486269240.95236 | pgbench_accounts_pkey |        224641024

 2017-02-05 05:34:02.037528+01 | 1486269242.03753 | pgbench_branches_pkey |            16384
 2017-02-05 05:34:02.037528+01 | 1486269242.03753 | pgbench_tellers_pkey  |            40960
 2017-02-05 05:34:02.037528+01 | 1486269242.03753 | pgbench_accounts_pkey |        224641024

 2017-02-05 05:34:03.139666+01 | 1486269243.13967 | pgbench_branches_pkey |            16384
 2017-02-05 05:34:03.139666+01 | 1486269243.13967 | pgbench_tellers_pkey  |            40960
 2017-02-05 05:34:03.139666+01 | 1486269243.13967 | pgbench_accounts_pkey |        224641024

 2017-02-05 05:34:04.252518+01 | 1486269244.25252 | pgbench_branches_pkey |            16384
 2017-02-05 05:34:04.252518+01 | 1486269244.25252 | pgbench_tellers_pkey  |            40960
 2017-02-05 05:34:04.252518+01 | 1486269244.25252 | pgbench_accounts_pkey |        224641024

 2017-02-05 05:34:05.363008+01 | 1486269245.36301 | pgbench_branches_pkey |            16384
 2017-02-05 05:34:05.363008+01 | 1486269245.36301 | pgbench_tellers_pkey  |            40960
 2017-02-05 05:34:05.363008+01 | 1486269245.36301 | pgbench_accounts_pkey |        224641024

 2017-02-05 05:34:06.468589+01 | 1486269246.46859 | pgbench_branches_pkey |            16384
 2017-02-05 05:34:06.468589+01 | 1486269246.46859 | pgbench_tellers_pkey  |            40960
 2017-02-05 05:34:06.468589+01 | 1486269246.46859 | pgbench_accounts_pkey |        224641024

 2017-02-05 05:34:07.558229+01 | 1486269247.55823 | pgbench_branches_pkey |            16384
 2017-02-05 05:34:07.558229+01 | 1486269247.55823 | pgbench_tellers_pkey  |            40960
 2017-02-05 05:34:07.558229+01 | 1486269247.55823 | pgbench_accounts_pkey |        224641024

 2017-02-05 05:34:08.659224+01 | 1486269248.65922 | pgbench_branches_pkey |            16384
 2017-02-05 05:34:08.659224+01 | 1486269248.65922 | pgbench_tellers_pkey  |            40960
 2017-02-05 05:34:08.659224+01 | 1486269248.65922 | pgbench_accounts_pkey |        224641024

 2017-02-05 05:34:09.749722+01 | 1486269249.74972 | pgbench_branches_pkey |            16384
 2017-02-05 05:34:09.749722+01 | 1486269249.74972 | pgbench_tellers_pkey  |            40960
 2017-02-05 05:34:09.749722+01 | 1486269249.74972 | pgbench_accounts_pkey |        224641024

 2017-02-05 05:34:10.856769+01 | 1486269250.85677 | pgbench_branches_pkey |            16384
 2017-02-05 05:34:10.856769+01 | 1486269250.85677 | pgbench_tellers_pkey  |            40960
 2017-02-05 05:34:10.856769+01 | 1486269250.85677 | pgbench_accounts_pkey |        224641024

 2017-02-05 05:34:11.958412+01 | 1486269251.95841 | pgbench_branches_pkey |            16384
 2017-02-05 05:34:11.958412+01 | 1486269251.95841 | pgbench_tellers_pkey  |            40960
 2017-02-05 05:34:11.958412+01 | 1486269251.95841 | pgbench_accounts_pkey |        224641024

 2017-02-05 05:34:13.050387+01 | 1486269253.05039 | pgbench_branches_pkey |            16384
 2017-02-05 05:34:13.050387+01 | 1486269253.05039 | pgbench_tellers_pkey  |            40960
 2017-02-05 05:34:13.050387+01 | 1486269253.05039 | pgbench_accounts_pkey |        224641024

 2017-02-05 05:34:14.145448+01 | 1486269254.14545 | pgbench_branches_pkey |            16384
 2017-02-05 05:34:14.145448+01 | 1486269254.14545 | pgbench_tellers_pkey  |            40960
 2017-02-05 05:34:14.145448+01 | 1486269254.14545 | pgbench_accounts_pkey |        224641024

 2017-02-05 05:34:15.255055+01 | 1486269255.25505 | pgbench_branches_pkey |            16384
 2017-02-05 05:34:15.255055+01 | 1486269255.25505 | pgbench_tellers_pkey  |            40960
 2017-02-05 05:34:15.255055+01 | 1486269255.25505 | pgbench_accounts_pkey |        224641024

 2017-02-05 05:34:16.356271+01 | 1486269256.35627 | pgbench_branches_pkey |            16384
 2017-02-05 05:34:16.356271+01 | 1486269256.35627 | pgbench_tellers_pkey  |            40960
 2017-02-05 05:34:16.356271+01 | 1486269256.35627 | pgbench_accounts_pkey |        224641024

 2017-02-05 05:34:17.464961+01 | 1486269257.46496 | pgbench_branches_pkey |            16384
 2017-02-05 05:34:17.464961+01 | 1486269257.46496 | pgbench_tellers_pkey  |            40960
 2017-02-05 05:34:17.464961+01 | 1486269257.46496 | pgbench_accounts_pkey |        224641024

 2017-02-05 05:34:18.553993+01 | 1486269258.55399 | pgbench_branches_pkey |            16384
 2017-02-05 05:34:18.553993+01 | 1486269258.55399 | pgbench_tellers_pkey  |            40960
 2017-02-05 05:34:18.553993+01 | 1486269258.55399 | pgbench_accounts_pkey |        224641024

 2017-02-05 05:34:19.645306+01 | 1486269259.64531 | pgbench_branches_pkey |            16384
 2017-02-05 05:34:19.645306+01 | 1486269259.64531 | pgbench_tellers_pkey  |            40960
 2017-02-05 05:34:19.645306+01 | 1486269259.64531 | pgbench_accounts_pkey |        224641024

 2017-02-05 05:34:20.746288+01 | 1486269260.74629 | pgbench_branches_pkey |            16384
 2017-02-05 05:34:20.746288+01 | 1486269260.74629 | pgbench_tellers_pkey  |            40960
 2017-02-05 05:34:20.746288+01 | 1486269260.74629 | pgbench_accounts_pkey |        224641024

 2017-02-05 05:34:21.844808+01 | 1486269261.84481 | pgbench_branches_pkey |            16384
 2017-02-05 05:34:21.844808+01 | 1486269261.84481 | pgbench_tellers_pkey  |            40960
 2017-02-05 05:34:21.844808+01 | 1486269261.84481 | pgbench_accounts_pkey |        224641024

 2017-02-05 05:34:22.942408+01 | 1486269262.94241 | pgbench_branches_pkey |            16384
 2017-02-05 05:34:22.942408+01 | 1486269262.94241 | pgbench_tellers_pkey  |            40960
 2017-02-05 05:34:22.942408+01 | 1486269262.94241 | pgbench_accounts_pkey |        224641024

 2017-02-05 05:34:24.039068+01 | 1486269264.03907 | pgbench_branches_pkey |            16384
 2017-02-05 05:34:24.039068+01 | 1486269264.03907 | pgbench_tellers_pkey  |            40960
 2017-02-05 05:34:24.039068+01 | 1486269264.03907 | pgbench_accounts_pkey |        224641024

 2017-02-05 05:34:25.144567+01 | 1486269265.14457 | pgbench_branches_pkey |            16384
 2017-02-05 05:34:25.144567+01 | 1486269265.14457 | pgbench_tellers_pkey  |            40960
 2017-02-05 05:34:25.144567+01 | 1486269265.14457 | pgbench_accounts_pkey |        224641024

 2017-02-05 05:34:26.266529+01 | 1486269266.26653 | pgbench_branches_pkey |            16384
 2017-02-05 05:34:26.266529+01 | 1486269266.26653 | pgbench_tellers_pkey  |            40960
 2017-02-05 05:34:26.266529+01 | 1486269266.26653 | pgbench_accounts_pkey |        224641024

 2017-02-05 05:34:27.360375+01 | 1486269267.36037 | pgbench_branches_pkey |            16384
 2017-02-05 05:34:27.360375+01 | 1486269267.36037 | pgbench_tellers_pkey  |            40960
 2017-02-05 05:34:27.360375+01 | 1486269267.36037 | pgbench_accounts_pkey |        224641024

 2017-02-05 05:34:28.471115+01 | 1486269268.47112 | pgbench_branches_pkey |            16384
 2017-02-05 05:34:28.471115+01 | 1486269268.47112 | pgbench_tellers_pkey  |            40960
 2017-02-05 05:34:28.471115+01 | 1486269268.47112 | pgbench_accounts_pkey |        224641024

 2017-02-05 05:34:29.565758+01 | 1486269269.56576 | pgbench_branches_pkey |            16384
 2017-02-05 05:34:29.565758+01 | 1486269269.56576 | pgbench_tellers_pkey  |            40960
 2017-02-05 05:34:29.565758+01 | 1486269269.56576 | pgbench_accounts_pkey |        224641024

 2017-02-05 05:34:30.656007+01 | 1486269270.65601 | pgbench_branches_pkey |            16384
 2017-02-05 05:34:30.656007+01 | 1486269270.65601 | pgbench_tellers_pkey  |            40960
 2017-02-05 05:34:30.656007+01 | 1486269270.65601 | pgbench_accounts_pkey |        224641024

 2017-02-05 05:34:31.750355+01 | 1486269271.75036 | pgbench_branches_pkey |            16384
 2017-02-05 05:34:31.750355+01 | 1486269271.75036 | pgbench_tellers_pkey  |            40960
 2017-02-05 05:34:31.750355+01 | 1486269271.75036 | pgbench_accounts_pkey |        224641024

 2017-02-05 05:34:32.843898+01 | 1486269272.8439 | pgbench_branches_pkey |            16384
 2017-02-05 05:34:32.843898+01 | 1486269272.8439 | pgbench_tellers_pkey  |            40960
 2017-02-05 05:34:32.843898+01 | 1486269272.8439 | pgbench_accounts_pkey |        224641024

 2017-02-05 05:34:33.952568+01 | 1486269273.95257 | pgbench_branches_pkey |            16384
 2017-02-05 05:34:33.952568+01 | 1486269273.95257 | pgbench_tellers_pkey  |            40960
 2017-02-05 05:34:33.952568+01 | 1486269273.95257 | pgbench_accounts_pkey |        224641024

 2017-02-05 05:34:35.055328+01 | 1486269275.05533 | pgbench_branches_pkey |            16384
 2017-02-05 05:34:35.055328+01 | 1486269275.05533 | pgbench_tellers_pkey  |            40960
 2017-02-05 05:34:35.055328+01 | 1486269275.05533 | pgbench_accounts_pkey |        224641024

 2017-02-05 05:34:36.152389+01 | 1486269276.15239 | pgbench_branches_pkey |            16384
 2017-02-05 05:34:36.152389+01 | 1486269276.15239 | pgbench_tellers_pkey  |            40960
 2017-02-05 05:34:36.152389+01 | 1486269276.15239 | pgbench_accounts_pkey |        224641024

 2017-02-05 05:34:37.255337+01 | 1486269277.25534 | pgbench_branches_pkey |            16384
 2017-02-05 05:34:37.255337+01 | 1486269277.25534 | pgbench_tellers_pkey  |            40960
 2017-02-05 05:34:37.255337+01 | 1486269277.25534 | pgbench_accounts_pkey |        224641024

 2017-02-05 05:34:38.35948+01 | 1486269278.35948 | pgbench_branches_pkey |            16384
 2017-02-05 05:34:38.35948+01 | 1486269278.35948 | pgbench_tellers_pkey  |            40960
 2017-02-05 05:34:38.35948+01 | 1486269278.35948 | pgbench_accounts_pkey |        224641024

 2017-02-05 05:34:39.455699+01 | 1486269279.4557 | pgbench_branches_pkey |            16384
 2017-02-05 05:34:39.455699+01 | 1486269279.4557 | pgbench_tellers_pkey  |            40960
 2017-02-05 05:34:39.455699+01 | 1486269279.4557 | pgbench_accounts_pkey |        224641024

 2017-02-05 05:34:40.556248+01 | 1486269280.55625 | pgbench_branches_pkey |            16384
 2017-02-05 05:34:40.556248+01 | 1486269280.55625 | pgbench_tellers_pkey  |            40960
 2017-02-05 05:34:40.556248+01 | 1486269280.55625 | pgbench_accounts_pkey |        224641024

 2017-02-05 05:34:41.669513+01 | 1486269281.66951 | pgbench_branches_pkey |            16384
 2017-02-05 05:34:41.669513+01 | 1486269281.66951 | pgbench_tellers_pkey  |            40960
 2017-02-05 05:34:41.669513+01 | 1486269281.66951 | pgbench_accounts_pkey |        224641024

 2017-02-05 05:34:42.766868+01 | 1486269282.76687 | pgbench_branches_pkey |            16384
 2017-02-05 05:34:42.766868+01 | 1486269282.76687 | pgbench_tellers_pkey  |            40960
 2017-02-05 05:34:42.766868+01 | 1486269282.76687 | pgbench_accounts_pkey |        224641024

 2017-02-05 05:34:43.862632+01 | 1486269283.86263 | pgbench_branches_pkey |            16384
 2017-02-05 05:34:43.862632+01 | 1486269283.86263 | pgbench_tellers_pkey  |            40960
 2017-02-05 05:34:43.862632+01 | 1486269283.86263 | pgbench_accounts_pkey |        224641024

 2017-02-05 05:34:44.968156+01 | 1486269284.96816 | pgbench_branches_pkey |            16384
 2017-02-05 05:34:44.968156+01 | 1486269284.96816 | pgbench_tellers_pkey  |            40960
 2017-02-05 05:34:44.968156+01 | 1486269284.96816 | pgbench_accounts_pkey |        224641024

 2017-02-05 05:34:46.069193+01 | 1486269286.06919 | pgbench_branches_pkey |            16384
 2017-02-05 05:34:46.069193+01 | 1486269286.06919 | pgbench_tellers_pkey  |            40960
 2017-02-05 05:34:46.069193+01 | 1486269286.06919 | pgbench_accounts_pkey |        224641024

 2017-02-05 05:34:47.182705+01 | 1486269287.1827 | pgbench_branches_pkey |            16384
 2017-02-05 05:34:47.182705+01 | 1486269287.1827 | pgbench_tellers_pkey  |            40960
 2017-02-05 05:34:47.182705+01 | 1486269287.1827 | pgbench_accounts_pkey |        224641024

 2017-02-05 05:34:48.27974+01 | 1486269288.27974 | pgbench_branches_pkey |            16384
 2017-02-05 05:34:48.27974+01 | 1486269288.27974 | pgbench_tellers_pkey  |            40960
 2017-02-05 05:34:48.27974+01 | 1486269288.27974 | pgbench_accounts_pkey |        224641024

 2017-02-05 05:34:49.367307+01 | 1486269289.36731 | pgbench_branches_pkey |            16384
 2017-02-05 05:34:49.367307+01 | 1486269289.36731 | pgbench_tellers_pkey  |            40960
 2017-02-05 05:34:49.367307+01 | 1486269289.36731 | pgbench_accounts_pkey |        224641024

 2017-02-05 05:34:50.475965+01 | 1486269290.47597 | pgbench_branches_pkey |            16384
 2017-02-05 05:34:50.475965+01 | 1486269290.47597 | pgbench_tellers_pkey  |            40960
 2017-02-05 05:34:50.475965+01 | 1486269290.47597 | pgbench_accounts_pkey |        224641024

 2017-02-05 05:34:51.56861+01 | 1486269291.56861 | pgbench_branches_pkey |            16384
 2017-02-05 05:34:51.56861+01 | 1486269291.56861 | pgbench_tellers_pkey  |            40960
 2017-02-05 05:34:51.56861+01 | 1486269291.56861 | pgbench_accounts_pkey |        224641024

 2017-02-05 05:34:52.662534+01 | 1486269292.66253 | pgbench_branches_pkey |            16384
 2017-02-05 05:34:52.662534+01 | 1486269292.66253 | pgbench_tellers_pkey  |            40960
 2017-02-05 05:34:52.662534+01 | 1486269292.66253 | pgbench_accounts_pkey |        224641024

 2017-02-05 05:34:53.764418+01 | 1486269293.76442 | pgbench_branches_pkey |            16384
 2017-02-05 05:34:53.764418+01 | 1486269293.76442 | pgbench_tellers_pkey  |            40960
 2017-02-05 05:34:53.764418+01 | 1486269293.76442 | pgbench_accounts_pkey |        224641024

 2017-02-05 05:34:54.873729+01 | 1486269294.87373 | pgbench_branches_pkey |            16384
 2017-02-05 05:34:54.873729+01 | 1486269294.87373 | pgbench_tellers_pkey  |            40960
 2017-02-05 05:34:54.873729+01 | 1486269294.87373 | pgbench_accounts_pkey |        224641024

 2017-02-05 05:34:55.974635+01 | 1486269295.97463 | pgbench_branches_pkey |            16384
 2017-02-05 05:34:55.974635+01 | 1486269295.97463 | pgbench_tellers_pkey  |            40960
 2017-02-05 05:34:55.974635+01 | 1486269295.97463 | pgbench_accounts_pkey |        224641024

 2017-02-05 05:34:57.079895+01 | 1486269297.0799 | pgbench_branches_pkey |            16384
 2017-02-05 05:34:57.079895+01 | 1486269297.0799 | pgbench_tellers_pkey  |            40960
 2017-02-05 05:34:57.079895+01 | 1486269297.0799 | pgbench_accounts_pkey |        224641024

 2017-02-05 05:34:58.181456+01 | 1486269298.18146 | pgbench_branches_pkey |            16384
 2017-02-05 05:34:58.181456+01 | 1486269298.18146 | pgbench_tellers_pkey  |            40960
 2017-02-05 05:34:58.181456+01 | 1486269298.18146 | pgbench_accounts_pkey |        224641024

 2017-02-05 05:34:59.286628+01 | 1486269299.28663 | pgbench_branches_pkey |            16384
 2017-02-05 05:34:59.286628+01 | 1486269299.28663 | pgbench_tellers_pkey  |            40960
 2017-02-05 05:34:59.286628+01 | 1486269299.28663 | pgbench_accounts_pkey |        224641024

 2017-02-05 05:35:00.38568+01 | 1486269300.38568 | pgbench_branches_pkey |            16384
 2017-02-05 05:35:00.38568+01 | 1486269300.38568 | pgbench_tellers_pkey  |            40960
 2017-02-05 05:35:00.38568+01 | 1486269300.38568 | pgbench_accounts_pkey |        224641024

 2017-02-05 05:35:01.483706+01 | 1486269301.48371 | pgbench_branches_pkey |            16384
 2017-02-05 05:35:01.483706+01 | 1486269301.48371 | pgbench_tellers_pkey  |            40960
 2017-02-05 05:35:01.483706+01 | 1486269301.48371 | pgbench_accounts_pkey |        224641024

 2017-02-05 05:35:02.584989+01 | 1486269302.58499 | pgbench_branches_pkey |            16384
 2017-02-05 05:35:02.584989+01 | 1486269302.58499 | pgbench_tellers_pkey  |            40960
 2017-02-05 05:35:02.584989+01 | 1486269302.58499 | pgbench_accounts_pkey |        224641024

 2017-02-05 05:35:03.677605+01 | 1486269303.6776 | pgbench_branches_pkey |            16384
 2017-02-05 05:35:03.677605+01 | 1486269303.6776 | pgbench_tellers_pkey  |            40960
 2017-02-05 05:35:03.677605+01 | 1486269303.6776 | pgbench_accounts_pkey |        224641024

 2017-02-05 05:35:04.769365+01 | 1486269304.76937 | pgbench_branches_pkey |            16384
 2017-02-05 05:35:04.769365+01 | 1486269304.76937 | pgbench_tellers_pkey  |            40960
 2017-02-05 05:35:04.769365+01 | 1486269304.76937 | pgbench_accounts_pkey |        224641024

 2017-02-05 05:35:05.868223+01 | 1486269305.86822 | pgbench_branches_pkey |            16384
 2017-02-05 05:35:05.868223+01 | 1486269305.86822 | pgbench_tellers_pkey  |            40960
 2017-02-05 05:35:05.868223+01 | 1486269305.86822 | pgbench_accounts_pkey |        224641024

 2017-02-05 05:35:06.968677+01 | 1486269306.96868 | pgbench_branches_pkey |            16384
 2017-02-05 05:35:06.968677+01 | 1486269306.96868 | pgbench_tellers_pkey  |            40960
 2017-02-05 05:35:06.968677+01 | 1486269306.96868 | pgbench_accounts_pkey |        224641024

 2017-02-05 05:35:08.068078+01 | 1486269308.06808 | pgbench_branches_pkey |            16384
 2017-02-05 05:35:08.068078+01 | 1486269308.06808 | pgbench_tellers_pkey  |            40960
 2017-02-05 05:35:08.068078+01 | 1486269308.06808 | pgbench_accounts_pkey |        224641024

 2017-02-05 05:35:09.174562+01 | 1486269309.17456 | pgbench_branches_pkey |            16384
 2017-02-05 05:35:09.174562+01 | 1486269309.17456 | pgbench_tellers_pkey  |            40960
 2017-02-05 05:35:09.174562+01 | 1486269309.17456 | pgbench_accounts_pkey |        224641024

 2017-02-05 05:35:10.278692+01 | 1486269310.27869 | pgbench_branches_pkey |            16384
 2017-02-05 05:35:10.278692+01 | 1486269310.27869 | pgbench_tellers_pkey  |            40960
 2017-02-05 05:35:10.278692+01 | 1486269310.27869 | pgbench_accounts_pkey |        224641024

 2017-02-05 05:35:11.373129+01 | 1486269311.37313 | pgbench_branches_pkey |            16384
 2017-02-05 05:35:11.373129+01 | 1486269311.37313 | pgbench_tellers_pkey  |            40960
 2017-02-05 05:35:11.373129+01 | 1486269311.37313 | pgbench_accounts_pkey |        224641024

 2017-02-05 05:35:12.469197+01 | 1486269312.4692 | pgbench_branches_pkey |            16384
 2017-02-05 05:35:12.469197+01 | 1486269312.4692 | pgbench_tellers_pkey  |            40960
 2017-02-05 05:35:12.469197+01 | 1486269312.4692 | pgbench_accounts_pkey |        224641024

 2017-02-05 05:35:13.569807+01 | 1486269313.56981 | pgbench_branches_pkey |            16384
 2017-02-05 05:35:13.569807+01 | 1486269313.56981 | pgbench_tellers_pkey  |            40960
 2017-02-05 05:35:13.569807+01 | 1486269313.56981 | pgbench_accounts_pkey |        224641024

 2017-02-05 05:35:14.666803+01 | 1486269314.6668 | pgbench_branches_pkey |            16384
 2017-02-05 05:35:14.666803+01 | 1486269314.6668 | pgbench_tellers_pkey  |            40960
 2017-02-05 05:35:14.666803+01 | 1486269314.6668 | pgbench_accounts_pkey |        224641024

 2017-02-05 05:35:15.767607+01 | 1486269315.76761 | pgbench_branches_pkey |            16384
 2017-02-05 05:35:15.767607+01 | 1486269315.76761 | pgbench_tellers_pkey  |            40960
 2017-02-05 05:35:15.767607+01 | 1486269315.76761 | pgbench_accounts_pkey |        224641024

 2017-02-05 05:35:16.869304+01 | 1486269316.8693 | pgbench_branches_pkey |            16384
 2017-02-05 05:35:16.869304+01 | 1486269316.8693 | pgbench_tellers_pkey  |            40960
 2017-02-05 05:35:16.869304+01 | 1486269316.8693 | pgbench_accounts_pkey |        224641024

 2017-02-05 05:35:17.960728+01 | 1486269317.96073 | pgbench_branches_pkey |            16384
 2017-02-05 05:35:17.960728+01 | 1486269317.96073 | pgbench_tellers_pkey  |            40960
 2017-02-05 05:35:17.960728+01 | 1486269317.96073 | pgbench_accounts_pkey |        224641024

 2017-02-05 05:35:19.065158+01 | 1486269319.06516 | pgbench_branches_pkey |            16384
 2017-02-05 05:35:19.065158+01 | 1486269319.06516 | pgbench_tellers_pkey  |            40960
 2017-02-05 05:35:19.065158+01 | 1486269319.06516 | pgbench_accounts_pkey |        224641024

 2017-02-05 05:35:20.15969+01 | 1486269320.15969 | pgbench_branches_pkey |            16384
 2017-02-05 05:35:20.15969+01 | 1486269320.15969 | pgbench_tellers_pkey  |            40960
 2017-02-05 05:35:20.15969+01 | 1486269320.15969 | pgbench_accounts_pkey |        224641024

 2017-02-05 05:35:21.249346+01 | 1486269321.24935 | pgbench_branches_pkey |            16384
 2017-02-05 05:35:21.249346+01 | 1486269321.24935 | pgbench_tellers_pkey  |            40960
 2017-02-05 05:35:21.249346+01 | 1486269321.24935 | pgbench_accounts_pkey |        224641024

 2017-02-05 05:35:22.354542+01 | 1486269322.35454 | pgbench_branches_pkey |            16384
 2017-02-05 05:35:22.354542+01 | 1486269322.35454 | pgbench_tellers_pkey  |            40960
 2017-02-05 05:35:22.354542+01 | 1486269322.35454 | pgbench_accounts_pkey |        224641024

 2017-02-05 05:35:23.455857+01 | 1486269323.45586 | pgbench_branches_pkey |            16384
 2017-02-05 05:35:23.455857+01 | 1486269323.45586 | pgbench_tellers_pkey  |            40960
 2017-02-05 05:35:23.455857+01 | 1486269323.45586 | pgbench_accounts_pkey |        224641024

 2017-02-05 05:35:24.542818+01 | 1486269324.54282 | pgbench_branches_pkey |            16384
 2017-02-05 05:35:24.542818+01 | 1486269324.54282 | pgbench_tellers_pkey  |            40960
 2017-02-05 05:35:24.542818+01 | 1486269324.54282 | pgbench_accounts_pkey |        224641024

 2017-02-05 05:35:25.631598+01 | 1486269325.6316 | pgbench_branches_pkey |            16384
 2017-02-05 05:35:25.631598+01 | 1486269325.6316 | pgbench_tellers_pkey  |            40960
 2017-02-05 05:35:25.631598+01 | 1486269325.6316 | pgbench_accounts_pkey |        224641024

 2017-02-05 05:35:26.723576+01 | 1486269326.72358 | pgbench_branches_pkey |            16384
 2017-02-05 05:35:26.723576+01 | 1486269326.72358 | pgbench_tellers_pkey  |            40960
 2017-02-05 05:35:26.723576+01 | 1486269326.72358 | pgbench_accounts_pkey |        224641024

 2017-02-05 05:35:27.813075+01 | 1486269327.81308 | pgbench_branches_pkey |            16384
 2017-02-05 05:35:27.813075+01 | 1486269327.81308 | pgbench_tellers_pkey  |            40960
 2017-02-05 05:35:27.813075+01 | 1486269327.81308 | pgbench_accounts_pkey |        224641024

 2017-02-05 05:35:28.919243+01 | 1486269328.91924 | pgbench_branches_pkey |            16384
 2017-02-05 05:35:28.919243+01 | 1486269328.91924 | pgbench_tellers_pkey  |            40960
 2017-02-05 05:35:28.919243+01 | 1486269328.91924 | pgbench_accounts_pkey |        224641024

 2017-02-05 05:35:30.020156+01 | 1486269330.02016 | pgbench_branches_pkey |            16384
 2017-02-05 05:35:30.020156+01 | 1486269330.02016 | pgbench_tellers_pkey  |            40960
 2017-02-05 05:35:30.020156+01 | 1486269330.02016 | pgbench_accounts_pkey |        224641024

 2017-02-05 05:35:31.117519+01 | 1486269331.11752 | pgbench_branches_pkey |            16384
 2017-02-05 05:35:31.117519+01 | 1486269331.11752 | pgbench_tellers_pkey  |            40960
 2017-02-05 05:35:31.117519+01 | 1486269331.11752 | pgbench_accounts_pkey |        224641024

 2017-02-05 05:35:32.223447+01 | 1486269332.22345 | pgbench_branches_pkey |            16384
 2017-02-05 05:35:32.223447+01 | 1486269332.22345 | pgbench_tellers_pkey  |            40960
 2017-02-05 05:35:32.223447+01 | 1486269332.22345 | pgbench_accounts_pkey |        224641024

 2017-02-05 05:35:33.332705+01 | 1486269333.33271 | pgbench_branches_pkey |            16384
 2017-02-05 05:35:33.332705+01 | 1486269333.33271 | pgbench_tellers_pkey  |            40960
 2017-02-05 05:35:33.332705+01 | 1486269333.33271 | pgbench_accounts_pkey |        224641024

 2017-02-05 05:35:34.445099+01 | 1486269334.4451 | pgbench_branches_pkey |            16384
 2017-02-05 05:35:34.445099+01 | 1486269334.4451 | pgbench_tellers_pkey  |            40960
 2017-02-05 05:35:34.445099+01 | 1486269334.4451 | pgbench_accounts_pkey |        224641024

 2017-02-05 05:35:35.547644+01 | 1486269335.54764 | pgbench_branches_pkey |            16384
 2017-02-05 05:35:35.547644+01 | 1486269335.54764 | pgbench_tellers_pkey  |            40960
 2017-02-05 05:35:35.547644+01 | 1486269335.54764 | pgbench_accounts_pkey |        224641024

 2017-02-05 05:35:36.637931+01 | 1486269336.63793 | pgbench_branches_pkey |            16384
 2017-02-05 05:35:36.637931+01 | 1486269336.63793 | pgbench_tellers_pkey  |            40960
 2017-02-05 05:35:36.637931+01 | 1486269336.63793 | pgbench_accounts_pkey |        224641024

 2017-02-05 05:35:37.728037+01 | 1486269337.72804 | pgbench_branches_pkey |            16384
 2017-02-05 05:35:37.728037+01 | 1486269337.72804 | pgbench_tellers_pkey  |            40960
 2017-02-05 05:35:37.728037+01 | 1486269337.72804 | pgbench_accounts_pkey |        224641024

 2017-02-05 05:35:38.82528+01 | 1486269338.82528 | pgbench_branches_pkey |            16384
 2017-02-05 05:35:38.82528+01 | 1486269338.82528 | pgbench_tellers_pkey  |            40960
 2017-02-05 05:35:38.82528+01 | 1486269338.82528 | pgbench_accounts_pkey |        224641024

 2017-02-05 05:35:39.919539+01 | 1486269339.91954 | pgbench_branches_pkey |            16384
 2017-02-05 05:35:39.919539+01 | 1486269339.91954 | pgbench_tellers_pkey  |            40960
 2017-02-05 05:35:39.919539+01 | 1486269339.91954 | pgbench_accounts_pkey |        224641024

 2017-02-05 05:35:41.005471+01 | 1486269341.00547 | pgbench_branches_pkey |            16384
 2017-02-05 05:35:41.005471+01 | 1486269341.00547 | pgbench_tellers_pkey  |            40960
 2017-02-05 05:35:41.005471+01 | 1486269341.00547 | pgbench_accounts_pkey |        224641024

 2017-02-05 05:35:42.104414+01 | 1486269342.10441 | pgbench_branches_pkey |            16384
 2017-02-05 05:35:42.104414+01 | 1486269342.10441 | pgbench_tellers_pkey  |            40960
 2017-02-05 05:35:42.104414+01 | 1486269342.10441 | pgbench_accounts_pkey |        224641024

 2017-02-05 05:35:43.20381+01 | 1486269343.20381 | pgbench_branches_pkey |            16384
 2017-02-05 05:35:43.20381+01 | 1486269343.20381 | pgbench_tellers_pkey  |            40960
 2017-02-05 05:35:43.20381+01 | 1486269343.20381 | pgbench_accounts_pkey |        224641024

 2017-02-05 05:35:44.314618+01 | 1486269344.31462 | pgbench_branches_pkey |            16384
 2017-02-05 05:35:44.314618+01 | 1486269344.31462 | pgbench_tellers_pkey  |            40960
 2017-02-05 05:35:44.314618+01 | 1486269344.31462 | pgbench_accounts_pkey |        224641024

 2017-02-05 05:35:45.405874+01 | 1486269345.40587 | pgbench_branches_pkey |            16384
 2017-02-05 05:35:45.405874+01 | 1486269345.40587 | pgbench_tellers_pkey  |            40960
 2017-02-05 05:35:45.405874+01 | 1486269345.40587 | pgbench_accounts_pkey |        224641024

 2017-02-05 05:35:46.519032+01 | 1486269346.51903 | pgbench_branches_pkey |            16384
 2017-02-05 05:35:46.519032+01 | 1486269346.51903 | pgbench_tellers_pkey  |            40960
 2017-02-05 05:35:46.519032+01 | 1486269346.51903 | pgbench_accounts_pkey |        224641024

 2017-02-05 05:35:47.620827+01 | 1486269347.62083 | pgbench_branches_pkey |            16384
 2017-02-05 05:35:47.620827+01 | 1486269347.62083 | pgbench_tellers_pkey  |            40960
 2017-02-05 05:35:47.620827+01 | 1486269347.62083 | pgbench_accounts_pkey |        224641024

 2017-02-05 05:35:48.712107+01 | 1486269348.71211 | pgbench_branches_pkey |            16384
 2017-02-05 05:35:48.712107+01 | 1486269348.71211 | pgbench_tellers_pkey  |            40960
 2017-02-05 05:35:48.712107+01 | 1486269348.71211 | pgbench_accounts_pkey |        224641024

 2017-02-05 05:35:49.817883+01 | 1486269349.81788 | pgbench_branches_pkey |            16384
 2017-02-05 05:35:49.817883+01 | 1486269349.81788 | pgbench_tellers_pkey  |            40960
 2017-02-05 05:35:49.817883+01 | 1486269349.81788 | pgbench_accounts_pkey |        224641024

 2017-02-05 05:35:50.9095+01 | 1486269350.9095 | pgbench_branches_pkey |            16384
 2017-02-05 05:35:50.9095+01 | 1486269350.9095 | pgbench_tellers_pkey  |            40960
 2017-02-05 05:35:50.9095+01 | 1486269350.9095 | pgbench_accounts_pkey |        224641024

 2017-02-05 05:35:52.022661+01 | 1486269352.02266 | pgbench_branches_pkey |            16384
 2017-02-05 05:35:52.022661+01 | 1486269352.02266 | pgbench_tellers_pkey  |            40960
 2017-02-05 05:35:52.022661+01 | 1486269352.02266 | pgbench_accounts_pkey |        224641024

 2017-02-05 05:35:53.123331+01 | 1486269353.12333 | pgbench_branches_pkey |            16384
 2017-02-05 05:35:53.123331+01 | 1486269353.12333 | pgbench_tellers_pkey  |            40960
 2017-02-05 05:35:53.123331+01 | 1486269353.12333 | pgbench_accounts_pkey |        224641024

 2017-02-05 05:35:54.234596+01 | 1486269354.2346 | pgbench_branches_pkey |            16384
 2017-02-05 05:35:54.234596+01 | 1486269354.2346 | pgbench_tellers_pkey  |            40960
 2017-02-05 05:35:54.234596+01 | 1486269354.2346 | pgbench_accounts_pkey |        224641024

 2017-02-05 05:35:55.331505+01 | 1486269355.33151 | pgbench_branches_pkey |            16384
 2017-02-05 05:35:55.331505+01 | 1486269355.33151 | pgbench_tellers_pkey  |            40960
 2017-02-05 05:35:55.331505+01 | 1486269355.33151 | pgbench_accounts_pkey |        224641024

 2017-02-05 05:35:56.435708+01 | 1486269356.43571 | pgbench_branches_pkey |            16384
 2017-02-05 05:35:56.435708+01 | 1486269356.43571 | pgbench_tellers_pkey  |            40960
 2017-02-05 05:35:56.435708+01 | 1486269356.43571 | pgbench_accounts_pkey |        224641024

 2017-02-05 05:35:57.538156+01 | 1486269357.53816 | pgbench_branches_pkey |            16384
 2017-02-05 05:35:57.538156+01 | 1486269357.53816 | pgbench_tellers_pkey  |            40960
 2017-02-05 05:35:57.538156+01 | 1486269357.53816 | pgbench_accounts_pkey |        224641024

 2017-02-05 05:35:58.640574+01 | 1486269358.64057 | pgbench_branches_pkey |            16384
 2017-02-05 05:35:58.640574+01 | 1486269358.64057 | pgbench_tellers_pkey  |            40960
 2017-02-05 05:35:58.640574+01 | 1486269358.64057 | pgbench_accounts_pkey |        224641024

 2017-02-05 05:35:59.744685+01 | 1486269359.74468 | pgbench_branches_pkey |            16384
 2017-02-05 05:35:59.744685+01 | 1486269359.74468 | pgbench_tellers_pkey  |            40960
 2017-02-05 05:35:59.744685+01 | 1486269359.74468 | pgbench_accounts_pkey |        224641024

