 2017-02-04 20:39:39.152011+01 | 1486237179.15201 | pgbench_branches_pkey |          1294336
 2017-02-04 20:39:39.152011+01 | 1486237179.15201 | pgbench_tellers_pkey  |          3629056
 2017-02-04 20:39:39.152011+01 | 1486237179.15201 | pgbench_accounts_pkey |       2246197248

 2017-02-04 20:39:40.230803+01 | 1486237180.2308 | pgbench_branches_pkey |          1294336
 2017-02-04 20:39:40.230803+01 | 1486237180.2308 | pgbench_tellers_pkey  |          3629056
 2017-02-04 20:39:40.230803+01 | 1486237180.2308 | pgbench_accounts_pkey |       2246197248

 2017-02-04 20:39:41.31629+01 | 1486237181.31629 | pgbench_branches_pkey |          1294336
 2017-02-04 20:39:41.31629+01 | 1486237181.31629 | pgbench_tellers_pkey  |          3629056
 2017-02-04 20:39:41.31629+01 | 1486237181.31629 | pgbench_accounts_pkey |       2246197248

 2017-02-04 20:39:42.395312+01 | 1486237182.39531 | pgbench_branches_pkey |          1294336
 2017-02-04 20:39:42.395312+01 | 1486237182.39531 | pgbench_tellers_pkey  |          3629056
 2017-02-04 20:39:42.395312+01 | 1486237182.39531 | pgbench_accounts_pkey |       2246197248

 2017-02-04 20:39:43.487223+01 | 1486237183.48722 | pgbench_branches_pkey |          1294336
 2017-02-04 20:39:43.487223+01 | 1486237183.48722 | pgbench_tellers_pkey  |          3629056
 2017-02-04 20:39:43.487223+01 | 1486237183.48722 | pgbench_accounts_pkey |       2246197248

 2017-02-04 20:39:44.569028+01 | 1486237184.56903 | pgbench_branches_pkey |          1294336
 2017-02-04 20:39:44.569028+01 | 1486237184.56903 | pgbench_tellers_pkey  |          3629056
 2017-02-04 20:39:44.569028+01 | 1486237184.56903 | pgbench_accounts_pkey |       2246197248

 2017-02-04 20:39:45.648726+01 | 1486237185.64873 | pgbench_branches_pkey |          1294336
 2017-02-04 20:39:45.648726+01 | 1486237185.64873 | pgbench_tellers_pkey  |          3629056
 2017-02-04 20:39:45.648726+01 | 1486237185.64873 | pgbench_accounts_pkey |       2246197248

 2017-02-04 20:39:46.727489+01 | 1486237186.72749 | pgbench_branches_pkey |          1294336
 2017-02-04 20:39:46.727489+01 | 1486237186.72749 | pgbench_tellers_pkey  |          3629056
 2017-02-04 20:39:46.727489+01 | 1486237186.72749 | pgbench_accounts_pkey |       2246197248

 2017-02-04 20:39:47.813717+01 | 1486237187.81372 | pgbench_branches_pkey |          1294336
 2017-02-04 20:39:47.813717+01 | 1486237187.81372 | pgbench_tellers_pkey  |          3629056
 2017-02-04 20:39:47.813717+01 | 1486237187.81372 | pgbench_accounts_pkey |       2246197248

 2017-02-04 20:39:48.902536+01 | 1486237188.90254 | pgbench_branches_pkey |          1294336
 2017-02-04 20:39:48.902536+01 | 1486237188.90254 | pgbench_tellers_pkey  |          3629056
 2017-02-04 20:39:48.902536+01 | 1486237188.90254 | pgbench_accounts_pkey |       2246197248

 2017-02-04 20:39:49.984731+01 | 1486237189.98473 | pgbench_branches_pkey |          1294336
 2017-02-04 20:39:49.984731+01 | 1486237189.98473 | pgbench_tellers_pkey  |          3629056
 2017-02-04 20:39:49.984731+01 | 1486237189.98473 | pgbench_accounts_pkey |       2246197248

 2017-02-04 20:39:51.065391+01 | 1486237191.06539 | pgbench_branches_pkey |          1294336
 2017-02-04 20:39:51.065391+01 | 1486237191.06539 | pgbench_tellers_pkey  |          3629056
 2017-02-04 20:39:51.065391+01 | 1486237191.06539 | pgbench_accounts_pkey |       2246197248

 2017-02-04 20:39:52.143739+01 | 1486237192.14374 | pgbench_branches_pkey |          1294336
 2017-02-04 20:39:52.143739+01 | 1486237192.14374 | pgbench_tellers_pkey  |          3629056
 2017-02-04 20:39:52.143739+01 | 1486237192.14374 | pgbench_accounts_pkey |       2246197248

 2017-02-04 20:39:53.223264+01 | 1486237193.22326 | pgbench_branches_pkey |          1294336
 2017-02-04 20:39:53.223264+01 | 1486237193.22326 | pgbench_tellers_pkey  |          3629056
 2017-02-04 20:39:53.223264+01 | 1486237193.22326 | pgbench_accounts_pkey |       2246197248

 2017-02-04 20:39:54.305196+01 | 1486237194.3052 | pgbench_branches_pkey |          1294336
 2017-02-04 20:39:54.305196+01 | 1486237194.3052 | pgbench_tellers_pkey  |          3629056
 2017-02-04 20:39:54.305196+01 | 1486237194.3052 | pgbench_accounts_pkey |       2246197248

 2017-02-04 20:39:55.388724+01 | 1486237195.38872 | pgbench_branches_pkey |          1294336
 2017-02-04 20:39:55.388724+01 | 1486237195.38872 | pgbench_tellers_pkey  |          3629056
 2017-02-04 20:39:55.388724+01 | 1486237195.38872 | pgbench_accounts_pkey |       2246197248

 2017-02-04 20:39:56.48501+01 | 1486237196.48501 | pgbench_branches_pkey |          1294336
 2017-02-04 20:39:56.48501+01 | 1486237196.48501 | pgbench_tellers_pkey  |          3629056
 2017-02-04 20:39:56.48501+01 | 1486237196.48501 | pgbench_accounts_pkey |       2246197248

 2017-02-04 20:39:57.57488+01 | 1486237197.57488 | pgbench_branches_pkey |          1294336
 2017-02-04 20:39:57.57488+01 | 1486237197.57488 | pgbench_tellers_pkey  |          3629056
 2017-02-04 20:39:57.57488+01 | 1486237197.57488 | pgbench_accounts_pkey |       2246197248

 2017-02-04 20:39:58.665316+01 | 1486237198.66532 | pgbench_branches_pkey |          1294336
 2017-02-04 20:39:58.665316+01 | 1486237198.66532 | pgbench_tellers_pkey  |          3629056
 2017-02-04 20:39:58.665316+01 | 1486237198.66532 | pgbench_accounts_pkey |       2246197248

 2017-02-04 20:39:59.754262+01 | 1486237199.75426 | pgbench_branches_pkey |          1294336
 2017-02-04 20:39:59.754262+01 | 1486237199.75426 | pgbench_tellers_pkey  |          3629056
 2017-02-04 20:39:59.754262+01 | 1486237199.75426 | pgbench_accounts_pkey |       2246197248

 2017-02-04 20:40:00.839989+01 | 1486237200.83999 | pgbench_branches_pkey |          1294336
 2017-02-04 20:40:00.839989+01 | 1486237200.83999 | pgbench_tellers_pkey  |          3629056
 2017-02-04 20:40:00.839989+01 | 1486237200.83999 | pgbench_accounts_pkey |       2246197248

 2017-02-04 20:40:01.928131+01 | 1486237201.92813 | pgbench_branches_pkey |          1294336
 2017-02-04 20:40:01.928131+01 | 1486237201.92813 | pgbench_tellers_pkey  |          3629056
 2017-02-04 20:40:01.928131+01 | 1486237201.92813 | pgbench_accounts_pkey |       2246197248

 2017-02-04 20:40:03.014033+01 | 1486237203.01403 | pgbench_branches_pkey |          1294336
 2017-02-04 20:40:03.014033+01 | 1486237203.01403 | pgbench_tellers_pkey  |          3629056
 2017-02-04 20:40:03.014033+01 | 1486237203.01403 | pgbench_accounts_pkey |       2246197248

 2017-02-04 20:40:04.09017+01 | 1486237204.09017 | pgbench_branches_pkey |          1294336
 2017-02-04 20:40:04.09017+01 | 1486237204.09017 | pgbench_tellers_pkey  |          3629056
 2017-02-04 20:40:04.09017+01 | 1486237204.09017 | pgbench_accounts_pkey |       2246197248

 2017-02-04 20:40:05.170735+01 | 1486237205.17073 | pgbench_branches_pkey |          1294336
 2017-02-04 20:40:05.170735+01 | 1486237205.17073 | pgbench_tellers_pkey  |          3629056
 2017-02-04 20:40:05.170735+01 | 1486237205.17073 | pgbench_accounts_pkey |       2246197248

 2017-02-04 20:40:06.250693+01 | 1486237206.25069 | pgbench_branches_pkey |          1294336
 2017-02-04 20:40:06.250693+01 | 1486237206.25069 | pgbench_tellers_pkey  |          3629056
 2017-02-04 20:40:06.250693+01 | 1486237206.25069 | pgbench_accounts_pkey |       2246197248

 2017-02-04 20:40:07.334305+01 | 1486237207.33431 | pgbench_branches_pkey |          1294336
 2017-02-04 20:40:07.334305+01 | 1486237207.33431 | pgbench_tellers_pkey  |          3629056
 2017-02-04 20:40:07.334305+01 | 1486237207.33431 | pgbench_accounts_pkey |       2246197248

 2017-02-04 20:40:08.420677+01 | 1486237208.42068 | pgbench_branches_pkey |          1294336
 2017-02-04 20:40:08.420677+01 | 1486237208.42068 | pgbench_tellers_pkey  |          3629056
 2017-02-04 20:40:08.420677+01 | 1486237208.42068 | pgbench_accounts_pkey |       2246197248

 2017-02-04 20:40:09.505833+01 | 1486237209.50583 | pgbench_branches_pkey |          1294336
 2017-02-04 20:40:09.505833+01 | 1486237209.50583 | pgbench_tellers_pkey  |          3629056
 2017-02-04 20:40:09.505833+01 | 1486237209.50583 | pgbench_accounts_pkey |       2246197248

 2017-02-04 20:40:10.598989+01 | 1486237210.59899 | pgbench_branches_pkey |          1294336
 2017-02-04 20:40:10.598989+01 | 1486237210.59899 | pgbench_tellers_pkey  |          3629056
 2017-02-04 20:40:10.598989+01 | 1486237210.59899 | pgbench_accounts_pkey |       2246197248

 2017-02-04 20:40:11.686762+01 | 1486237211.68676 | pgbench_branches_pkey |          1294336
 2017-02-04 20:40:11.686762+01 | 1486237211.68676 | pgbench_tellers_pkey  |          3629056
 2017-02-04 20:40:11.686762+01 | 1486237211.68676 | pgbench_accounts_pkey |       2246197248

 2017-02-04 20:40:12.772717+01 | 1486237212.77272 | pgbench_branches_pkey |          1294336
 2017-02-04 20:40:12.772717+01 | 1486237212.77272 | pgbench_tellers_pkey  |          3629056
 2017-02-04 20:40:12.772717+01 | 1486237212.77272 | pgbench_accounts_pkey |       2246197248

 2017-02-04 20:40:13.866792+01 | 1486237213.86679 | pgbench_branches_pkey |          1294336
 2017-02-04 20:40:13.866792+01 | 1486237213.86679 | pgbench_tellers_pkey  |          3629056
 2017-02-04 20:40:13.866792+01 | 1486237213.86679 | pgbench_accounts_pkey |       2246197248

 2017-02-04 20:40:14.95793+01 | 1486237214.95793 | pgbench_branches_pkey |          1294336
 2017-02-04 20:40:14.95793+01 | 1486237214.95793 | pgbench_tellers_pkey  |          3629056
 2017-02-04 20:40:14.95793+01 | 1486237214.95793 | pgbench_accounts_pkey |       2246197248

 2017-02-04 20:40:16.042881+01 | 1486237216.04288 | pgbench_branches_pkey |          1294336
 2017-02-04 20:40:16.042881+01 | 1486237216.04288 | pgbench_tellers_pkey  |          3629056
 2017-02-04 20:40:16.042881+01 | 1486237216.04288 | pgbench_accounts_pkey |       2246197248

 2017-02-04 20:40:17.123667+01 | 1486237217.12367 | pgbench_branches_pkey |          1294336
 2017-02-04 20:40:17.123667+01 | 1486237217.12367 | pgbench_tellers_pkey  |          3629056
 2017-02-04 20:40:17.123667+01 | 1486237217.12367 | pgbench_accounts_pkey |       2246197248

 2017-02-04 20:40:18.207073+01 | 1486237218.20707 | pgbench_branches_pkey |          1294336
 2017-02-04 20:40:18.207073+01 | 1486237218.20707 | pgbench_tellers_pkey  |          3629056
 2017-02-04 20:40:18.207073+01 | 1486237218.20707 | pgbench_accounts_pkey |       2246197248

 2017-02-04 20:40:19.286004+01 | 1486237219.286 | pgbench_branches_pkey |          1294336
 2017-02-04 20:40:19.286004+01 | 1486237219.286 | pgbench_tellers_pkey  |          3629056
 2017-02-04 20:40:19.286004+01 | 1486237219.286 | pgbench_accounts_pkey |       2246197248

 2017-02-04 20:40:20.364137+01 | 1486237220.36414 | pgbench_branches_pkey |          1294336
 2017-02-04 20:40:20.364137+01 | 1486237220.36414 | pgbench_tellers_pkey  |          3629056
 2017-02-04 20:40:20.364137+01 | 1486237220.36414 | pgbench_accounts_pkey |       2246197248

 2017-02-04 20:40:21.446648+01 | 1486237221.44665 | pgbench_branches_pkey |          1294336
 2017-02-04 20:40:21.446648+01 | 1486237221.44665 | pgbench_tellers_pkey  |          3629056
 2017-02-04 20:40:21.446648+01 | 1486237221.44665 | pgbench_accounts_pkey |       2246197248

 2017-02-04 20:40:22.537229+01 | 1486237222.53723 | pgbench_branches_pkey |          1294336
 2017-02-04 20:40:22.537229+01 | 1486237222.53723 | pgbench_tellers_pkey  |          3629056
 2017-02-04 20:40:22.537229+01 | 1486237222.53723 | pgbench_accounts_pkey |       2246197248

 2017-02-04 20:40:23.631983+01 | 1486237223.63198 | pgbench_branches_pkey |          1294336
 2017-02-04 20:40:23.631983+01 | 1486237223.63198 | pgbench_tellers_pkey  |          3629056
 2017-02-04 20:40:23.631983+01 | 1486237223.63198 | pgbench_accounts_pkey |       2246197248

 2017-02-04 20:40:24.718771+01 | 1486237224.71877 | pgbench_branches_pkey |          1294336
 2017-02-04 20:40:24.718771+01 | 1486237224.71877 | pgbench_tellers_pkey  |          3629056
 2017-02-04 20:40:24.718771+01 | 1486237224.71877 | pgbench_accounts_pkey |       2246197248

 2017-02-04 20:40:25.802573+01 | 1486237225.80257 | pgbench_branches_pkey |          1294336
 2017-02-04 20:40:25.802573+01 | 1486237225.80257 | pgbench_tellers_pkey  |          3629056
 2017-02-04 20:40:25.802573+01 | 1486237225.80257 | pgbench_accounts_pkey |       2246197248

 2017-02-04 20:40:26.891653+01 | 1486237226.89165 | pgbench_branches_pkey |          1294336
 2017-02-04 20:40:26.891653+01 | 1486237226.89165 | pgbench_tellers_pkey  |          3629056
 2017-02-04 20:40:26.891653+01 | 1486237226.89165 | pgbench_accounts_pkey |       2246197248

 2017-02-04 20:40:27.972637+01 | 1486237227.97264 | pgbench_branches_pkey |          1294336
 2017-02-04 20:40:27.972637+01 | 1486237227.97264 | pgbench_tellers_pkey  |          3629056
 2017-02-04 20:40:27.972637+01 | 1486237227.97264 | pgbench_accounts_pkey |       2246197248

 2017-02-04 20:40:29.058518+01 | 1486237229.05852 | pgbench_branches_pkey |          1294336
 2017-02-04 20:40:29.058518+01 | 1486237229.05852 | pgbench_tellers_pkey  |          3629056
 2017-02-04 20:40:29.058518+01 | 1486237229.05852 | pgbench_accounts_pkey |       2246197248

 2017-02-04 20:40:30.138831+01 | 1486237230.13883 | pgbench_branches_pkey |          1294336
 2017-02-04 20:40:30.138831+01 | 1486237230.13883 | pgbench_tellers_pkey  |          3629056
 2017-02-04 20:40:30.138831+01 | 1486237230.13883 | pgbench_accounts_pkey |       2246197248

 2017-02-04 20:40:31.217861+01 | 1486237231.21786 | pgbench_branches_pkey |          1294336
 2017-02-04 20:40:31.217861+01 | 1486237231.21786 | pgbench_tellers_pkey  |          3629056
 2017-02-04 20:40:31.217861+01 | 1486237231.21786 | pgbench_accounts_pkey |       2246197248

 2017-02-04 20:40:32.295241+01 | 1486237232.29524 | pgbench_branches_pkey |          1294336
 2017-02-04 20:40:32.295241+01 | 1486237232.29524 | pgbench_tellers_pkey  |          3629056
 2017-02-04 20:40:32.295241+01 | 1486237232.29524 | pgbench_accounts_pkey |       2246197248

 2017-02-04 20:40:33.379556+01 | 1486237233.37956 | pgbench_branches_pkey |          1294336
 2017-02-04 20:40:33.379556+01 | 1486237233.37956 | pgbench_tellers_pkey  |          3629056
 2017-02-04 20:40:33.379556+01 | 1486237233.37956 | pgbench_accounts_pkey |       2246197248

 2017-02-04 20:40:34.464222+01 | 1486237234.46422 | pgbench_branches_pkey |          1294336
 2017-02-04 20:40:34.464222+01 | 1486237234.46422 | pgbench_tellers_pkey  |          3629056
 2017-02-04 20:40:34.464222+01 | 1486237234.46422 | pgbench_accounts_pkey |       2246197248

 2017-02-04 20:40:35.553996+01 | 1486237235.554 | pgbench_branches_pkey |          1294336
 2017-02-04 20:40:35.553996+01 | 1486237235.554 | pgbench_tellers_pkey  |          3629056
 2017-02-04 20:40:35.553996+01 | 1486237235.554 | pgbench_accounts_pkey |       2246197248

 2017-02-04 20:40:36.650743+01 | 1486237236.65074 | pgbench_branches_pkey |          1294336
 2017-02-04 20:40:36.650743+01 | 1486237236.65074 | pgbench_tellers_pkey  |          3629056
 2017-02-04 20:40:36.650743+01 | 1486237236.65074 | pgbench_accounts_pkey |       2246197248

 2017-02-04 20:40:37.734417+01 | 1486237237.73442 | pgbench_branches_pkey |          1294336
 2017-02-04 20:40:37.734417+01 | 1486237237.73442 | pgbench_tellers_pkey  |          3629056
 2017-02-04 20:40:37.734417+01 | 1486237237.73442 | pgbench_accounts_pkey |       2246197248

 2017-02-04 20:40:38.822093+01 | 1486237238.82209 | pgbench_branches_pkey |          1294336
 2017-02-04 20:40:38.822093+01 | 1486237238.82209 | pgbench_tellers_pkey  |          3629056
 2017-02-04 20:40:38.822093+01 | 1486237238.82209 | pgbench_accounts_pkey |       2246197248

 2017-02-04 20:40:39.907219+01 | 1486237239.90722 | pgbench_branches_pkey |          1294336
 2017-02-04 20:40:39.907219+01 | 1486237239.90722 | pgbench_tellers_pkey  |          3629056
 2017-02-04 20:40:39.907219+01 | 1486237239.90722 | pgbench_accounts_pkey |       2246197248

 2017-02-04 20:40:41.004431+01 | 1486237241.00443 | pgbench_branches_pkey |          1294336
 2017-02-04 20:40:41.004431+01 | 1486237241.00443 | pgbench_tellers_pkey  |          3629056
 2017-02-04 20:40:41.004431+01 | 1486237241.00443 | pgbench_accounts_pkey |       2246197248

 2017-02-04 20:40:42.0887+01 | 1486237242.0887 | pgbench_branches_pkey |          1294336
 2017-02-04 20:40:42.0887+01 | 1486237242.0887 | pgbench_tellers_pkey  |          3629056
 2017-02-04 20:40:42.0887+01 | 1486237242.0887 | pgbench_accounts_pkey |       2246197248

 2017-02-04 20:40:43.167643+01 | 1486237243.16764 | pgbench_branches_pkey |          1294336
 2017-02-04 20:40:43.167643+01 | 1486237243.16764 | pgbench_tellers_pkey  |          3629056
 2017-02-04 20:40:43.167643+01 | 1486237243.16764 | pgbench_accounts_pkey |       2246197248

 2017-02-04 20:40:44.24732+01 | 1486237244.24732 | pgbench_branches_pkey |          1294336
 2017-02-04 20:40:44.24732+01 | 1486237244.24732 | pgbench_tellers_pkey  |          3629056
 2017-02-04 20:40:44.24732+01 | 1486237244.24732 | pgbench_accounts_pkey |       2246197248

 2017-02-04 20:40:45.32668+01 | 1486237245.32668 | pgbench_branches_pkey |          1294336
 2017-02-04 20:40:45.32668+01 | 1486237245.32668 | pgbench_tellers_pkey  |          3629056
 2017-02-04 20:40:45.32668+01 | 1486237245.32668 | pgbench_accounts_pkey |       2246197248

 2017-02-04 20:40:46.415266+01 | 1486237246.41527 | pgbench_branches_pkey |          1294336
 2017-02-04 20:40:46.415266+01 | 1486237246.41527 | pgbench_tellers_pkey  |          3629056
 2017-02-04 20:40:46.415266+01 | 1486237246.41527 | pgbench_accounts_pkey |       2246197248

 2017-02-04 20:40:47.507708+01 | 1486237247.50771 | pgbench_branches_pkey |          1294336
 2017-02-04 20:40:47.507708+01 | 1486237247.50771 | pgbench_tellers_pkey  |          3629056
 2017-02-04 20:40:47.507708+01 | 1486237247.50771 | pgbench_accounts_pkey |       2246197248

 2017-02-04 20:40:48.6027+01 | 1486237248.6027 | pgbench_branches_pkey |          1294336
 2017-02-04 20:40:48.6027+01 | 1486237248.6027 | pgbench_tellers_pkey  |          3629056
 2017-02-04 20:40:48.6027+01 | 1486237248.6027 | pgbench_accounts_pkey |       2246197248

 2017-02-04 20:40:49.687945+01 | 1486237249.68794 | pgbench_branches_pkey |          1294336
 2017-02-04 20:40:49.687945+01 | 1486237249.68794 | pgbench_tellers_pkey  |          3629056
 2017-02-04 20:40:49.687945+01 | 1486237249.68794 | pgbench_accounts_pkey |       2246197248

 2017-02-04 20:40:50.774303+01 | 1486237250.7743 | pgbench_branches_pkey |          1294336
 2017-02-04 20:40:50.774303+01 | 1486237250.7743 | pgbench_tellers_pkey  |          3629056
 2017-02-04 20:40:50.774303+01 | 1486237250.7743 | pgbench_accounts_pkey |       2246197248

 2017-02-04 20:40:51.864561+01 | 1486237251.86456 | pgbench_branches_pkey |          1294336
 2017-02-04 20:40:51.864561+01 | 1486237251.86456 | pgbench_tellers_pkey  |          3629056
 2017-02-04 20:40:51.864561+01 | 1486237251.86456 | pgbench_accounts_pkey |       2246197248

 2017-02-04 20:40:52.956242+01 | 1486237252.95624 | pgbench_branches_pkey |          1294336
 2017-02-04 20:40:52.956242+01 | 1486237252.95624 | pgbench_tellers_pkey  |          3629056
 2017-02-04 20:40:52.956242+01 | 1486237252.95624 | pgbench_accounts_pkey |       2246197248

 2017-02-04 20:40:54.03982+01 | 1486237254.03982 | pgbench_branches_pkey |          1294336
 2017-02-04 20:40:54.03982+01 | 1486237254.03982 | pgbench_tellers_pkey  |          3629056
 2017-02-04 20:40:54.03982+01 | 1486237254.03982 | pgbench_accounts_pkey |       2246197248

 2017-02-04 20:40:55.119389+01 | 1486237255.11939 | pgbench_branches_pkey |          1294336
 2017-02-04 20:40:55.119389+01 | 1486237255.11939 | pgbench_tellers_pkey  |          3629056
 2017-02-04 20:40:55.119389+01 | 1486237255.11939 | pgbench_accounts_pkey |       2246197248

 2017-02-04 20:40:56.20368+01 | 1486237256.20368 | pgbench_branches_pkey |          1294336
 2017-02-04 20:40:56.20368+01 | 1486237256.20368 | pgbench_tellers_pkey  |          3629056
 2017-02-04 20:40:56.20368+01 | 1486237256.20368 | pgbench_accounts_pkey |       2246197248

 2017-02-04 20:40:57.28851+01 | 1486237257.28851 | pgbench_branches_pkey |          1294336
 2017-02-04 20:40:57.28851+01 | 1486237257.28851 | pgbench_tellers_pkey  |          3629056
 2017-02-04 20:40:57.28851+01 | 1486237257.28851 | pgbench_accounts_pkey |       2246197248

 2017-02-04 20:40:58.368875+01 | 1486237258.36888 | pgbench_branches_pkey |          1294336
 2017-02-04 20:40:58.368875+01 | 1486237258.36888 | pgbench_tellers_pkey  |          3629056
 2017-02-04 20:40:58.368875+01 | 1486237258.36888 | pgbench_accounts_pkey |       2246197248

 2017-02-04 20:40:59.459574+01 | 1486237259.45957 | pgbench_branches_pkey |          1294336
 2017-02-04 20:40:59.459574+01 | 1486237259.45957 | pgbench_tellers_pkey  |          3629056
 2017-02-04 20:40:59.459574+01 | 1486237259.45957 | pgbench_accounts_pkey |       2246197248

 2017-02-04 20:41:00.540827+01 | 1486237260.54083 | pgbench_branches_pkey |          1294336
 2017-02-04 20:41:00.540827+01 | 1486237260.54083 | pgbench_tellers_pkey  |          3629056
 2017-02-04 20:41:00.540827+01 | 1486237260.54083 | pgbench_accounts_pkey |       2246197248

 2017-02-04 20:41:01.641126+01 | 1486237261.64113 | pgbench_branches_pkey |          1294336
 2017-02-04 20:41:01.641126+01 | 1486237261.64113 | pgbench_tellers_pkey  |          3629056
 2017-02-04 20:41:01.641126+01 | 1486237261.64113 | pgbench_accounts_pkey |       2246197248

 2017-02-04 20:41:02.729424+01 | 1486237262.72942 | pgbench_branches_pkey |          1294336
 2017-02-04 20:41:02.729424+01 | 1486237262.72942 | pgbench_tellers_pkey  |          3629056
 2017-02-04 20:41:02.729424+01 | 1486237262.72942 | pgbench_accounts_pkey |       2246197248

 2017-02-04 20:41:03.8116+01 | 1486237263.8116 | pgbench_branches_pkey |          1294336
 2017-02-04 20:41:03.8116+01 | 1486237263.8116 | pgbench_tellers_pkey  |          3629056
 2017-02-04 20:41:03.8116+01 | 1486237263.8116 | pgbench_accounts_pkey |       2246197248

 2017-02-04 20:41:04.897512+01 | 1486237264.89751 | pgbench_branches_pkey |          1294336
 2017-02-04 20:41:04.897512+01 | 1486237264.89751 | pgbench_tellers_pkey  |          3629056
 2017-02-04 20:41:04.897512+01 | 1486237264.89751 | pgbench_accounts_pkey |       2246197248

 2017-02-04 20:41:05.986717+01 | 1486237265.98672 | pgbench_branches_pkey |          1294336
 2017-02-04 20:41:05.986717+01 | 1486237265.98672 | pgbench_tellers_pkey  |          3629056
 2017-02-04 20:41:05.986717+01 | 1486237265.98672 | pgbench_accounts_pkey |       2246197248

 2017-02-04 20:41:07.075112+01 | 1486237267.07511 | pgbench_branches_pkey |          1294336
 2017-02-04 20:41:07.075112+01 | 1486237267.07511 | pgbench_tellers_pkey  |          3629056
 2017-02-04 20:41:07.075112+01 | 1486237267.07511 | pgbench_accounts_pkey |       2246197248

 2017-02-04 20:41:08.156485+01 | 1486237268.15649 | pgbench_branches_pkey |          1294336
 2017-02-04 20:41:08.156485+01 | 1486237268.15649 | pgbench_tellers_pkey  |          3629056
 2017-02-04 20:41:08.156485+01 | 1486237268.15649 | pgbench_accounts_pkey |       2246197248

 2017-02-04 20:41:09.238184+01 | 1486237269.23818 | pgbench_branches_pkey |          1294336
 2017-02-04 20:41:09.238184+01 | 1486237269.23818 | pgbench_tellers_pkey  |          3629056
 2017-02-04 20:41:09.238184+01 | 1486237269.23818 | pgbench_accounts_pkey |       2246197248

 2017-02-04 20:41:10.321328+01 | 1486237270.32133 | pgbench_branches_pkey |          1294336
 2017-02-04 20:41:10.321328+01 | 1486237270.32133 | pgbench_tellers_pkey  |          3629056
 2017-02-04 20:41:10.321328+01 | 1486237270.32133 | pgbench_accounts_pkey |       2246197248

 2017-02-04 20:41:11.401914+01 | 1486237271.40191 | pgbench_branches_pkey |          1294336
 2017-02-04 20:41:11.401914+01 | 1486237271.40191 | pgbench_tellers_pkey  |          3629056
 2017-02-04 20:41:11.401914+01 | 1486237271.40191 | pgbench_accounts_pkey |       2246197248

 2017-02-04 20:41:12.485242+01 | 1486237272.48524 | pgbench_branches_pkey |          1294336
 2017-02-04 20:41:12.485242+01 | 1486237272.48524 | pgbench_tellers_pkey  |          3629056
 2017-02-04 20:41:12.485242+01 | 1486237272.48524 | pgbench_accounts_pkey |       2246197248

 2017-02-04 20:41:13.575205+01 | 1486237273.57521 | pgbench_branches_pkey |          1294336
 2017-02-04 20:41:13.575205+01 | 1486237273.57521 | pgbench_tellers_pkey  |          3629056
 2017-02-04 20:41:13.575205+01 | 1486237273.57521 | pgbench_accounts_pkey |       2246197248

 2017-02-04 20:41:14.663004+01 | 1486237274.663 | pgbench_branches_pkey |          1294336
 2017-02-04 20:41:14.663004+01 | 1486237274.663 | pgbench_tellers_pkey  |          3629056
 2017-02-04 20:41:14.663004+01 | 1486237274.663 | pgbench_accounts_pkey |       2246197248

 2017-02-04 20:41:15.748475+01 | 1486237275.74848 | pgbench_branches_pkey |          1294336
 2017-02-04 20:41:15.748475+01 | 1486237275.74848 | pgbench_tellers_pkey  |          3629056
 2017-02-04 20:41:15.748475+01 | 1486237275.74848 | pgbench_accounts_pkey |       2246197248

 2017-02-04 20:41:16.843351+01 | 1486237276.84335 | pgbench_branches_pkey |          1294336
 2017-02-04 20:41:16.843351+01 | 1486237276.84335 | pgbench_tellers_pkey  |          3629056
 2017-02-04 20:41:16.843351+01 | 1486237276.84335 | pgbench_accounts_pkey |       2246197248

 2017-02-04 20:41:17.933678+01 | 1486237277.93368 | pgbench_branches_pkey |          1294336
 2017-02-04 20:41:17.933678+01 | 1486237277.93368 | pgbench_tellers_pkey  |          3629056
 2017-02-04 20:41:17.933678+01 | 1486237277.93368 | pgbench_accounts_pkey |       2246197248

 2017-02-04 20:41:19.018154+01 | 1486237279.01815 | pgbench_branches_pkey |          1294336
 2017-02-04 20:41:19.018154+01 | 1486237279.01815 | pgbench_tellers_pkey  |          3629056
 2017-02-04 20:41:19.018154+01 | 1486237279.01815 | pgbench_accounts_pkey |       2246197248

 2017-02-04 20:41:20.100576+01 | 1486237280.10058 | pgbench_branches_pkey |          1294336
 2017-02-04 20:41:20.100576+01 | 1486237280.10058 | pgbench_tellers_pkey  |          3629056
 2017-02-04 20:41:20.100576+01 | 1486237280.10058 | pgbench_accounts_pkey |       2246197248

 2017-02-04 20:41:21.183937+01 | 1486237281.18394 | pgbench_branches_pkey |          1294336
 2017-02-04 20:41:21.183937+01 | 1486237281.18394 | pgbench_tellers_pkey  |          3629056
 2017-02-04 20:41:21.183937+01 | 1486237281.18394 | pgbench_accounts_pkey |       2246197248

 2017-02-04 20:41:22.267794+01 | 1486237282.26779 | pgbench_branches_pkey |          1294336
 2017-02-04 20:41:22.267794+01 | 1486237282.26779 | pgbench_tellers_pkey  |          3629056
 2017-02-04 20:41:22.267794+01 | 1486237282.26779 | pgbench_accounts_pkey |       2246197248

 2017-02-04 20:41:23.351776+01 | 1486237283.35178 | pgbench_branches_pkey |          1294336
 2017-02-04 20:41:23.351776+01 | 1486237283.35178 | pgbench_tellers_pkey  |          3629056
 2017-02-04 20:41:23.351776+01 | 1486237283.35178 | pgbench_accounts_pkey |       2246197248

 2017-02-04 20:41:24.436349+01 | 1486237284.43635 | pgbench_branches_pkey |          1294336
 2017-02-04 20:41:24.436349+01 | 1486237284.43635 | pgbench_tellers_pkey  |          3629056
 2017-02-04 20:41:24.436349+01 | 1486237284.43635 | pgbench_accounts_pkey |       2246197248

 2017-02-04 20:41:25.527039+01 | 1486237285.52704 | pgbench_branches_pkey |          1294336
 2017-02-04 20:41:25.527039+01 | 1486237285.52704 | pgbench_tellers_pkey  |          3629056
 2017-02-04 20:41:25.527039+01 | 1486237285.52704 | pgbench_accounts_pkey |       2246197248

 2017-02-04 20:41:26.613306+01 | 1486237286.61331 | pgbench_branches_pkey |          1294336
 2017-02-04 20:41:26.613306+01 | 1486237286.61331 | pgbench_tellers_pkey  |          3629056
 2017-02-04 20:41:26.613306+01 | 1486237286.61331 | pgbench_accounts_pkey |       2246197248

 2017-02-04 20:41:27.701447+01 | 1486237287.70145 | pgbench_branches_pkey |          1294336
 2017-02-04 20:41:27.701447+01 | 1486237287.70145 | pgbench_tellers_pkey  |          3629056
 2017-02-04 20:41:27.701447+01 | 1486237287.70145 | pgbench_accounts_pkey |       2246197248

 2017-02-04 20:41:28.786714+01 | 1486237288.78671 | pgbench_branches_pkey |          1294336
 2017-02-04 20:41:28.786714+01 | 1486237288.78671 | pgbench_tellers_pkey  |          3629056
 2017-02-04 20:41:28.786714+01 | 1486237288.78671 | pgbench_accounts_pkey |       2246197248

 2017-02-04 20:41:29.879217+01 | 1486237289.87922 | pgbench_branches_pkey |          1294336
 2017-02-04 20:41:29.879217+01 | 1486237289.87922 | pgbench_tellers_pkey  |          3629056
 2017-02-04 20:41:29.879217+01 | 1486237289.87922 | pgbench_accounts_pkey |       2246197248

 2017-02-04 20:41:30.963549+01 | 1486237290.96355 | pgbench_branches_pkey |          1294336
 2017-02-04 20:41:30.963549+01 | 1486237290.96355 | pgbench_tellers_pkey  |          3629056
 2017-02-04 20:41:30.963549+01 | 1486237290.96355 | pgbench_accounts_pkey |       2246197248

 2017-02-04 20:41:32.054461+01 | 1486237292.05446 | pgbench_branches_pkey |          1294336
 2017-02-04 20:41:32.054461+01 | 1486237292.05446 | pgbench_tellers_pkey  |          3629056
 2017-02-04 20:41:32.054461+01 | 1486237292.05446 | pgbench_accounts_pkey |       2246197248

 2017-02-04 20:41:33.134107+01 | 1486237293.13411 | pgbench_branches_pkey |          1294336
 2017-02-04 20:41:33.134107+01 | 1486237293.13411 | pgbench_tellers_pkey  |          3629056
 2017-02-04 20:41:33.134107+01 | 1486237293.13411 | pgbench_accounts_pkey |       2246197248

 2017-02-04 20:41:34.214457+01 | 1486237294.21446 | pgbench_branches_pkey |          1294336
 2017-02-04 20:41:34.214457+01 | 1486237294.21446 | pgbench_tellers_pkey  |          3629056
 2017-02-04 20:41:34.214457+01 | 1486237294.21446 | pgbench_accounts_pkey |       2246197248

 2017-02-04 20:41:35.290152+01 | 1486237295.29015 | pgbench_branches_pkey |          1294336
 2017-02-04 20:41:35.290152+01 | 1486237295.29015 | pgbench_tellers_pkey  |          3629056
 2017-02-04 20:41:35.290152+01 | 1486237295.29015 | pgbench_accounts_pkey |       2246197248

 2017-02-04 20:41:36.372601+01 | 1486237296.3726 | pgbench_branches_pkey |          1294336
 2017-02-04 20:41:36.372601+01 | 1486237296.3726 | pgbench_tellers_pkey  |          3629056
 2017-02-04 20:41:36.372601+01 | 1486237296.3726 | pgbench_accounts_pkey |       2246197248

 2017-02-04 20:41:37.455145+01 | 1486237297.45514 | pgbench_branches_pkey |          1294336
 2017-02-04 20:41:37.455145+01 | 1486237297.45514 | pgbench_tellers_pkey  |          3629056
 2017-02-04 20:41:37.455145+01 | 1486237297.45514 | pgbench_accounts_pkey |       2246197248

 2017-02-04 20:41:38.542902+01 | 1486237298.5429 | pgbench_branches_pkey |          1294336
 2017-02-04 20:41:38.542902+01 | 1486237298.5429 | pgbench_tellers_pkey  |          3629056
 2017-02-04 20:41:38.542902+01 | 1486237298.5429 | pgbench_accounts_pkey |       2246197248

 2017-02-04 20:41:39.627591+01 | 1486237299.62759 | pgbench_branches_pkey |          1294336
 2017-02-04 20:41:39.627591+01 | 1486237299.62759 | pgbench_tellers_pkey  |          3629056
 2017-02-04 20:41:39.627591+01 | 1486237299.62759 | pgbench_accounts_pkey |       2246197248

 2017-02-04 20:41:40.717613+01 | 1486237300.71761 | pgbench_branches_pkey |          1294336
 2017-02-04 20:41:40.717613+01 | 1486237300.71761 | pgbench_tellers_pkey  |          3629056
 2017-02-04 20:41:40.717613+01 | 1486237300.71761 | pgbench_accounts_pkey |       2246197248

 2017-02-04 20:41:41.811583+01 | 1486237301.81158 | pgbench_branches_pkey |          1294336
 2017-02-04 20:41:41.811583+01 | 1486237301.81158 | pgbench_tellers_pkey  |          3629056
 2017-02-04 20:41:41.811583+01 | 1486237301.81158 | pgbench_accounts_pkey |       2246197248

 2017-02-04 20:41:42.898835+01 | 1486237302.89883 | pgbench_branches_pkey |          1294336
 2017-02-04 20:41:42.898835+01 | 1486237302.89883 | pgbench_tellers_pkey  |          3629056
 2017-02-04 20:41:42.898835+01 | 1486237302.89883 | pgbench_accounts_pkey |       2246197248

 2017-02-04 20:41:43.988172+01 | 1486237303.98817 | pgbench_branches_pkey |          1294336
 2017-02-04 20:41:43.988172+01 | 1486237303.98817 | pgbench_tellers_pkey  |          3629056
 2017-02-04 20:41:43.988172+01 | 1486237303.98817 | pgbench_accounts_pkey |       2246197248

 2017-02-04 20:41:45.08078+01 | 1486237305.08078 | pgbench_branches_pkey |          1294336
 2017-02-04 20:41:45.08078+01 | 1486237305.08078 | pgbench_tellers_pkey  |          3629056
 2017-02-04 20:41:45.08078+01 | 1486237305.08078 | pgbench_accounts_pkey |       2246197248

 2017-02-04 20:41:46.166242+01 | 1486237306.16624 | pgbench_branches_pkey |          1294336
 2017-02-04 20:41:46.166242+01 | 1486237306.16624 | pgbench_tellers_pkey  |          3629056
 2017-02-04 20:41:46.166242+01 | 1486237306.16624 | pgbench_accounts_pkey |       2246197248

 2017-02-04 20:41:47.245075+01 | 1486237307.24507 | pgbench_branches_pkey |          1294336
 2017-02-04 20:41:47.245075+01 | 1486237307.24507 | pgbench_tellers_pkey  |          3629056
 2017-02-04 20:41:47.245075+01 | 1486237307.24507 | pgbench_accounts_pkey |       2246197248

 2017-02-04 20:41:48.322234+01 | 1486237308.32223 | pgbench_branches_pkey |          1294336
 2017-02-04 20:41:48.322234+01 | 1486237308.32223 | pgbench_tellers_pkey  |          3629056
 2017-02-04 20:41:48.322234+01 | 1486237308.32223 | pgbench_accounts_pkey |       2246197248

 2017-02-04 20:41:49.402657+01 | 1486237309.40266 | pgbench_branches_pkey |          1294336
 2017-02-04 20:41:49.402657+01 | 1486237309.40266 | pgbench_tellers_pkey  |          3629056
 2017-02-04 20:41:49.402657+01 | 1486237309.40266 | pgbench_accounts_pkey |       2246197248

 2017-02-04 20:41:50.486613+01 | 1486237310.48661 | pgbench_branches_pkey |          1294336
 2017-02-04 20:41:50.486613+01 | 1486237310.48661 | pgbench_tellers_pkey  |          3629056
 2017-02-04 20:41:50.486613+01 | 1486237310.48661 | pgbench_accounts_pkey |       2246197248

 2017-02-04 20:41:51.566615+01 | 1486237311.56662 | pgbench_branches_pkey |          1294336
 2017-02-04 20:41:51.566615+01 | 1486237311.56662 | pgbench_tellers_pkey  |          3629056
 2017-02-04 20:41:51.566615+01 | 1486237311.56662 | pgbench_accounts_pkey |       2246197248

 2017-02-04 20:41:52.651882+01 | 1486237312.65188 | pgbench_branches_pkey |          1294336
 2017-02-04 20:41:52.651882+01 | 1486237312.65188 | pgbench_tellers_pkey  |          3629056
 2017-02-04 20:41:52.651882+01 | 1486237312.65188 | pgbench_accounts_pkey |       2246197248

 2017-02-04 20:41:53.7428+01 | 1486237313.7428 | pgbench_branches_pkey |          1294336
 2017-02-04 20:41:53.7428+01 | 1486237313.7428 | pgbench_tellers_pkey  |          3629056
 2017-02-04 20:41:53.7428+01 | 1486237313.7428 | pgbench_accounts_pkey |       2246197248

 2017-02-04 20:41:54.823318+01 | 1486237314.82332 | pgbench_branches_pkey |          1294336
 2017-02-04 20:41:54.823318+01 | 1486237314.82332 | pgbench_tellers_pkey  |          3629056
 2017-02-04 20:41:54.823318+01 | 1486237314.82332 | pgbench_accounts_pkey |       2246197248

 2017-02-04 20:41:55.91376+01 | 1486237315.91376 | pgbench_branches_pkey |          1294336
 2017-02-04 20:41:55.91376+01 | 1486237315.91376 | pgbench_tellers_pkey  |          3629056
 2017-02-04 20:41:55.91376+01 | 1486237315.91376 | pgbench_accounts_pkey |       2246197248

 2017-02-04 20:41:57.004217+01 | 1486237317.00422 | pgbench_branches_pkey |          1294336
 2017-02-04 20:41:57.004217+01 | 1486237317.00422 | pgbench_tellers_pkey  |          3629056
 2017-02-04 20:41:57.004217+01 | 1486237317.00422 | pgbench_accounts_pkey |       2246197248

 2017-02-04 20:41:58.092594+01 | 1486237318.09259 | pgbench_branches_pkey |          1294336
 2017-02-04 20:41:58.092594+01 | 1486237318.09259 | pgbench_tellers_pkey  |          3629056
 2017-02-04 20:41:58.092594+01 | 1486237318.09259 | pgbench_accounts_pkey |       2246197248

 2017-02-04 20:41:59.183754+01 | 1486237319.18375 | pgbench_branches_pkey |          1294336
 2017-02-04 20:41:59.183754+01 | 1486237319.18375 | pgbench_tellers_pkey  |          3629056
 2017-02-04 20:41:59.183754+01 | 1486237319.18375 | pgbench_accounts_pkey |       2246197248

 2017-02-04 20:42:00.264662+01 | 1486237320.26466 | pgbench_branches_pkey |          1294336
 2017-02-04 20:42:00.264662+01 | 1486237320.26466 | pgbench_tellers_pkey  |          3629056
 2017-02-04 20:42:00.264662+01 | 1486237320.26466 | pgbench_accounts_pkey |       2246197248

 2017-02-04 20:42:01.344834+01 | 1486237321.34483 | pgbench_branches_pkey |          1294336
 2017-02-04 20:42:01.344834+01 | 1486237321.34483 | pgbench_tellers_pkey  |          3629056
 2017-02-04 20:42:01.344834+01 | 1486237321.34483 | pgbench_accounts_pkey |       2246197248

 2017-02-04 20:42:02.428463+01 | 1486237322.42846 | pgbench_branches_pkey |          1294336
 2017-02-04 20:42:02.428463+01 | 1486237322.42846 | pgbench_tellers_pkey  |          3629056
 2017-02-04 20:42:02.428463+01 | 1486237322.42846 | pgbench_accounts_pkey |       2246197248

 2017-02-04 20:42:03.520865+01 | 1486237323.52086 | pgbench_branches_pkey |          1294336
 2017-02-04 20:42:03.520865+01 | 1486237323.52086 | pgbench_tellers_pkey  |          3629056
 2017-02-04 20:42:03.520865+01 | 1486237323.52086 | pgbench_accounts_pkey |       2246197248

 2017-02-04 20:42:04.604025+01 | 1486237324.60402 | pgbench_branches_pkey |          1294336
 2017-02-04 20:42:04.604025+01 | 1486237324.60402 | pgbench_tellers_pkey  |          3629056
 2017-02-04 20:42:04.604025+01 | 1486237324.60402 | pgbench_accounts_pkey |       2246197248

 2017-02-04 20:42:05.698062+01 | 1486237325.69806 | pgbench_branches_pkey |          1294336
 2017-02-04 20:42:05.698062+01 | 1486237325.69806 | pgbench_tellers_pkey  |          3629056
 2017-02-04 20:42:05.698062+01 | 1486237325.69806 | pgbench_accounts_pkey |       2246197248

 2017-02-04 20:42:06.784857+01 | 1486237326.78486 | pgbench_branches_pkey |          1294336
 2017-02-04 20:42:06.784857+01 | 1486237326.78486 | pgbench_tellers_pkey  |          3629056
 2017-02-04 20:42:06.784857+01 | 1486237326.78486 | pgbench_accounts_pkey |       2246197248

 2017-02-04 20:42:07.871737+01 | 1486237327.87174 | pgbench_branches_pkey |          1294336
 2017-02-04 20:42:07.871737+01 | 1486237327.87174 | pgbench_tellers_pkey  |          3629056
 2017-02-04 20:42:07.871737+01 | 1486237327.87174 | pgbench_accounts_pkey |       2246197248

 2017-02-04 20:42:08.96375+01 | 1486237328.96375 | pgbench_branches_pkey |          1294336
 2017-02-04 20:42:08.96375+01 | 1486237328.96375 | pgbench_tellers_pkey  |          3629056
 2017-02-04 20:42:08.96375+01 | 1486237328.96375 | pgbench_accounts_pkey |       2246197248

 2017-02-04 20:42:10.058099+01 | 1486237330.0581 | pgbench_branches_pkey |          1294336
 2017-02-04 20:42:10.058099+01 | 1486237330.0581 | pgbench_tellers_pkey  |          3629056
 2017-02-04 20:42:10.058099+01 | 1486237330.0581 | pgbench_accounts_pkey |       2246197248

 2017-02-04 20:42:11.139528+01 | 1486237331.13953 | pgbench_branches_pkey |          1294336
 2017-02-04 20:42:11.139528+01 | 1486237331.13953 | pgbench_tellers_pkey  |          3629056
 2017-02-04 20:42:11.139528+01 | 1486237331.13953 | pgbench_accounts_pkey |       2246197248

 2017-02-04 20:42:12.221879+01 | 1486237332.22188 | pgbench_branches_pkey |          1294336
 2017-02-04 20:42:12.221879+01 | 1486237332.22188 | pgbench_tellers_pkey  |          3629056
 2017-02-04 20:42:12.221879+01 | 1486237332.22188 | pgbench_accounts_pkey |       2246197248

 2017-02-04 20:42:13.300665+01 | 1486237333.30066 | pgbench_branches_pkey |          1294336
 2017-02-04 20:42:13.300665+01 | 1486237333.30066 | pgbench_tellers_pkey  |          3629056
 2017-02-04 20:42:13.300665+01 | 1486237333.30066 | pgbench_accounts_pkey |       2246197248

 2017-02-04 20:42:14.3765+01 | 1486237334.3765 | pgbench_branches_pkey |          1294336
 2017-02-04 20:42:14.3765+01 | 1486237334.3765 | pgbench_tellers_pkey  |          3629056
 2017-02-04 20:42:14.3765+01 | 1486237334.3765 | pgbench_accounts_pkey |       2246197248

 2017-02-04 20:42:15.456883+01 | 1486237335.45688 | pgbench_branches_pkey |          1294336
 2017-02-04 20:42:15.456883+01 | 1486237335.45688 | pgbench_tellers_pkey  |          3629056
 2017-02-04 20:42:15.456883+01 | 1486237335.45688 | pgbench_accounts_pkey |       2246197248

 2017-02-04 20:42:16.536808+01 | 1486237336.53681 | pgbench_branches_pkey |          1294336
 2017-02-04 20:42:16.536808+01 | 1486237336.53681 | pgbench_tellers_pkey  |          3629056
 2017-02-04 20:42:16.536808+01 | 1486237336.53681 | pgbench_accounts_pkey |       2246197248

 2017-02-04 20:42:17.623808+01 | 1486237337.62381 | pgbench_branches_pkey |          1294336
 2017-02-04 20:42:17.623808+01 | 1486237337.62381 | pgbench_tellers_pkey  |          3629056
 2017-02-04 20:42:17.623808+01 | 1486237337.62381 | pgbench_accounts_pkey |       2246197248

 2017-02-04 20:42:18.720973+01 | 1486237338.72097 | pgbench_branches_pkey |          1294336
 2017-02-04 20:42:18.720973+01 | 1486237338.72097 | pgbench_tellers_pkey  |          3629056
 2017-02-04 20:42:18.720973+01 | 1486237338.72097 | pgbench_accounts_pkey |       2246197248

 2017-02-04 20:42:19.815539+01 | 1486237339.81554 | pgbench_branches_pkey |          1294336
 2017-02-04 20:42:19.815539+01 | 1486237339.81554 | pgbench_tellers_pkey  |          3629056
 2017-02-04 20:42:19.815539+01 | 1486237339.81554 | pgbench_accounts_pkey |       2246197248

 2017-02-04 20:42:20.902879+01 | 1486237340.90288 | pgbench_branches_pkey |          1294336
 2017-02-04 20:42:20.902879+01 | 1486237340.90288 | pgbench_tellers_pkey  |          3629056
 2017-02-04 20:42:20.902879+01 | 1486237340.90288 | pgbench_accounts_pkey |       2246197248

 2017-02-04 20:42:21.997+01 | 1486237341.997 | pgbench_branches_pkey |          1294336
 2017-02-04 20:42:21.997+01 | 1486237341.997 | pgbench_tellers_pkey  |          3629056
 2017-02-04 20:42:21.997+01 | 1486237341.997 | pgbench_accounts_pkey |       2246197248

 2017-02-04 20:42:23.083425+01 | 1486237343.08343 | pgbench_branches_pkey |          1294336
 2017-02-04 20:42:23.083425+01 | 1486237343.08343 | pgbench_tellers_pkey  |          3629056
 2017-02-04 20:42:23.083425+01 | 1486237343.08343 | pgbench_accounts_pkey |       2246197248

 2017-02-04 20:42:24.159491+01 | 1486237344.15949 | pgbench_branches_pkey |          1294336
 2017-02-04 20:42:24.159491+01 | 1486237344.15949 | pgbench_tellers_pkey  |          3629056
 2017-02-04 20:42:24.159491+01 | 1486237344.15949 | pgbench_accounts_pkey |       2246197248

 2017-02-04 20:42:25.241211+01 | 1486237345.24121 | pgbench_branches_pkey |          1294336
 2017-02-04 20:42:25.241211+01 | 1486237345.24121 | pgbench_tellers_pkey  |          3629056
 2017-02-04 20:42:25.241211+01 | 1486237345.24121 | pgbench_accounts_pkey |       2246197248

 2017-02-04 20:42:26.321558+01 | 1486237346.32156 | pgbench_branches_pkey |          1294336
 2017-02-04 20:42:26.321558+01 | 1486237346.32156 | pgbench_tellers_pkey  |          3629056
 2017-02-04 20:42:26.321558+01 | 1486237346.32156 | pgbench_accounts_pkey |       2246197248

 2017-02-04 20:42:27.402801+01 | 1486237347.4028 | pgbench_branches_pkey |          1294336
 2017-02-04 20:42:27.402801+01 | 1486237347.4028 | pgbench_tellers_pkey  |          3629056
 2017-02-04 20:42:27.402801+01 | 1486237347.4028 | pgbench_accounts_pkey |       2246197248

 2017-02-04 20:42:28.481566+01 | 1486237348.48157 | pgbench_branches_pkey |          1294336
 2017-02-04 20:42:28.481566+01 | 1486237348.48157 | pgbench_tellers_pkey  |          3629056
 2017-02-04 20:42:28.481566+01 | 1486237348.48157 | pgbench_accounts_pkey |       2246197248

 2017-02-04 20:42:29.567682+01 | 1486237349.56768 | pgbench_branches_pkey |          1294336
 2017-02-04 20:42:29.567682+01 | 1486237349.56768 | pgbench_tellers_pkey  |          3629056
 2017-02-04 20:42:29.567682+01 | 1486237349.56768 | pgbench_accounts_pkey |       2246197248

 2017-02-04 20:42:30.66116+01 | 1486237350.66116 | pgbench_branches_pkey |          1294336
 2017-02-04 20:42:30.66116+01 | 1486237350.66116 | pgbench_tellers_pkey  |          3629056
 2017-02-04 20:42:30.66116+01 | 1486237350.66116 | pgbench_accounts_pkey |       2246197248

 2017-02-04 20:42:31.744119+01 | 1486237351.74412 | pgbench_branches_pkey |          1294336
 2017-02-04 20:42:31.744119+01 | 1486237351.74412 | pgbench_tellers_pkey  |          3629056
 2017-02-04 20:42:31.744119+01 | 1486237351.74412 | pgbench_accounts_pkey |       2246197248

 2017-02-04 20:42:32.826587+01 | 1486237352.82659 | pgbench_branches_pkey |          1294336
 2017-02-04 20:42:32.826587+01 | 1486237352.82659 | pgbench_tellers_pkey  |          3629056
 2017-02-04 20:42:32.826587+01 | 1486237352.82659 | pgbench_accounts_pkey |       2246197248

 2017-02-04 20:42:33.920472+01 | 1486237353.92047 | pgbench_branches_pkey |          1294336
 2017-02-04 20:42:33.920472+01 | 1486237353.92047 | pgbench_tellers_pkey  |          3629056
 2017-02-04 20:42:33.920472+01 | 1486237353.92047 | pgbench_accounts_pkey |       2246197248

 2017-02-04 20:42:35.01788+01 | 1486237355.01788 | pgbench_branches_pkey |          1294336
 2017-02-04 20:42:35.01788+01 | 1486237355.01788 | pgbench_tellers_pkey  |          3629056
 2017-02-04 20:42:35.01788+01 | 1486237355.01788 | pgbench_accounts_pkey |       2246197248

 2017-02-04 20:42:36.113545+01 | 1486237356.11354 | pgbench_branches_pkey |          1294336
 2017-02-04 20:42:36.113545+01 | 1486237356.11354 | pgbench_tellers_pkey  |          3629056
 2017-02-04 20:42:36.113545+01 | 1486237356.11354 | pgbench_accounts_pkey |       2246197248

 2017-02-04 20:42:37.197614+01 | 1486237357.19761 | pgbench_branches_pkey |          1294336
 2017-02-04 20:42:37.197614+01 | 1486237357.19761 | pgbench_tellers_pkey  |          3629056
 2017-02-04 20:42:37.197614+01 | 1486237357.19761 | pgbench_accounts_pkey |       2246197248

 2017-02-04 20:42:38.282052+01 | 1486237358.28205 | pgbench_branches_pkey |          1294336
 2017-02-04 20:42:38.282052+01 | 1486237358.28205 | pgbench_tellers_pkey  |          3629056
 2017-02-04 20:42:38.282052+01 | 1486237358.28205 | pgbench_accounts_pkey |       2246197248

 2017-02-04 20:42:39.366183+01 | 1486237359.36618 | pgbench_branches_pkey |          1294336
 2017-02-04 20:42:39.366183+01 | 1486237359.36618 | pgbench_tellers_pkey  |          3629056
 2017-02-04 20:42:39.366183+01 | 1486237359.36618 | pgbench_accounts_pkey |       2246197248

 2017-02-04 20:42:40.449042+01 | 1486237360.44904 | pgbench_branches_pkey |          1294336
 2017-02-04 20:42:40.449042+01 | 1486237360.44904 | pgbench_tellers_pkey  |          3629056
 2017-02-04 20:42:40.449042+01 | 1486237360.44904 | pgbench_accounts_pkey |       2246197248

 2017-02-04 20:42:41.53088+01 | 1486237361.53088 | pgbench_branches_pkey |          1294336
 2017-02-04 20:42:41.53088+01 | 1486237361.53088 | pgbench_tellers_pkey  |          3629056
 2017-02-04 20:42:41.53088+01 | 1486237361.53088 | pgbench_accounts_pkey |       2246197248

 2017-02-04 20:42:42.623769+01 | 1486237362.62377 | pgbench_branches_pkey |          1294336
 2017-02-04 20:42:42.623769+01 | 1486237362.62377 | pgbench_tellers_pkey  |          3629056
 2017-02-04 20:42:42.623769+01 | 1486237362.62377 | pgbench_accounts_pkey |       2246197248

 2017-02-04 20:42:43.714818+01 | 1486237363.71482 | pgbench_branches_pkey |          1294336
 2017-02-04 20:42:43.714818+01 | 1486237363.71482 | pgbench_tellers_pkey  |          3629056
 2017-02-04 20:42:43.714818+01 | 1486237363.71482 | pgbench_accounts_pkey |       2246197248

 2017-02-04 20:42:44.806688+01 | 1486237364.80669 | pgbench_branches_pkey |          1294336
 2017-02-04 20:42:44.806688+01 | 1486237364.80669 | pgbench_tellers_pkey  |          3629056
 2017-02-04 20:42:44.806688+01 | 1486237364.80669 | pgbench_accounts_pkey |       2246197248

 2017-02-04 20:42:45.888875+01 | 1486237365.88888 | pgbench_branches_pkey |          1294336
 2017-02-04 20:42:45.888875+01 | 1486237365.88888 | pgbench_tellers_pkey  |          3629056
 2017-02-04 20:42:45.888875+01 | 1486237365.88888 | pgbench_accounts_pkey |       2246197248

 2017-02-04 20:42:46.975549+01 | 1486237366.97555 | pgbench_branches_pkey |          1294336
 2017-02-04 20:42:46.975549+01 | 1486237366.97555 | pgbench_tellers_pkey  |          3629056
 2017-02-04 20:42:46.975549+01 | 1486237366.97555 | pgbench_accounts_pkey |       2246197248

 2017-02-04 20:42:48.065496+01 | 1486237368.0655 | pgbench_branches_pkey |          1294336
 2017-02-04 20:42:48.065496+01 | 1486237368.0655 | pgbench_tellers_pkey  |          3629056
 2017-02-04 20:42:48.065496+01 | 1486237368.0655 | pgbench_accounts_pkey |       2246197248

 2017-02-04 20:42:49.155073+01 | 1486237369.15507 | pgbench_branches_pkey |          1294336
 2017-02-04 20:42:49.155073+01 | 1486237369.15507 | pgbench_tellers_pkey  |          3629056
 2017-02-04 20:42:49.155073+01 | 1486237369.15507 | pgbench_accounts_pkey |       2246197248

 2017-02-04 20:42:50.245423+01 | 1486237370.24542 | pgbench_branches_pkey |          1294336
 2017-02-04 20:42:50.245423+01 | 1486237370.24542 | pgbench_tellers_pkey  |          3629056
 2017-02-04 20:42:50.245423+01 | 1486237370.24542 | pgbench_accounts_pkey |       2246197248

 2017-02-04 20:42:51.3258+01 | 1486237371.3258 | pgbench_branches_pkey |          1294336
 2017-02-04 20:42:51.3258+01 | 1486237371.3258 | pgbench_tellers_pkey  |          3629056
 2017-02-04 20:42:51.3258+01 | 1486237371.3258 | pgbench_accounts_pkey |       2246197248

 2017-02-04 20:42:52.406339+01 | 1486237372.40634 | pgbench_branches_pkey |          1294336
 2017-02-04 20:42:52.406339+01 | 1486237372.40634 | pgbench_tellers_pkey  |          3629056
 2017-02-04 20:42:52.406339+01 | 1486237372.40634 | pgbench_accounts_pkey |       2246197248

 2017-02-04 20:42:53.485966+01 | 1486237373.48597 | pgbench_branches_pkey |          1294336
 2017-02-04 20:42:53.485966+01 | 1486237373.48597 | pgbench_tellers_pkey  |          3629056
 2017-02-04 20:42:53.485966+01 | 1486237373.48597 | pgbench_accounts_pkey |       2246197248

 2017-02-04 20:42:54.569007+01 | 1486237374.56901 | pgbench_branches_pkey |          1294336
 2017-02-04 20:42:54.569007+01 | 1486237374.56901 | pgbench_tellers_pkey  |          3629056
 2017-02-04 20:42:54.569007+01 | 1486237374.56901 | pgbench_accounts_pkey |       2246197248

 2017-02-04 20:42:55.669674+01 | 1486237375.66967 | pgbench_branches_pkey |          1294336
 2017-02-04 20:42:55.669674+01 | 1486237375.66967 | pgbench_tellers_pkey  |          3629056
 2017-02-04 20:42:55.669674+01 | 1486237375.66967 | pgbench_accounts_pkey |       2246197248

 2017-02-04 20:42:56.76058+01 | 1486237376.76058 | pgbench_branches_pkey |          1294336
 2017-02-04 20:42:56.76058+01 | 1486237376.76058 | pgbench_tellers_pkey  |          3629056
 2017-02-04 20:42:56.76058+01 | 1486237376.76058 | pgbench_accounts_pkey |       2246197248

 2017-02-04 20:42:57.846491+01 | 1486237377.84649 | pgbench_branches_pkey |          1294336
 2017-02-04 20:42:57.846491+01 | 1486237377.84649 | pgbench_tellers_pkey  |          3629056
 2017-02-04 20:42:57.846491+01 | 1486237377.84649 | pgbench_accounts_pkey |       2246197248

 2017-02-04 20:42:58.931857+01 | 1486237378.93186 | pgbench_branches_pkey |          1294336
 2017-02-04 20:42:58.931857+01 | 1486237378.93186 | pgbench_tellers_pkey  |          3629056
 2017-02-04 20:42:58.931857+01 | 1486237378.93186 | pgbench_accounts_pkey |       2246197248

 2017-02-04 20:43:00.02355+01 | 1486237380.02355 | pgbench_branches_pkey |          1294336
 2017-02-04 20:43:00.02355+01 | 1486237380.02355 | pgbench_tellers_pkey  |          3629056
 2017-02-04 20:43:00.02355+01 | 1486237380.02355 | pgbench_accounts_pkey |       2246197248

 2017-02-04 20:43:01.113353+01 | 1486237381.11335 | pgbench_branches_pkey |          1294336
 2017-02-04 20:43:01.113353+01 | 1486237381.11335 | pgbench_tellers_pkey  |          3629056
 2017-02-04 20:43:01.113353+01 | 1486237381.11335 | pgbench_accounts_pkey |       2246197248

 2017-02-04 20:43:02.201561+01 | 1486237382.20156 | pgbench_branches_pkey |          1294336
 2017-02-04 20:43:02.201561+01 | 1486237382.20156 | pgbench_tellers_pkey  |          3629056
 2017-02-04 20:43:02.201561+01 | 1486237382.20156 | pgbench_accounts_pkey |       2246197248

 2017-02-04 20:43:03.27986+01 | 1486237383.27986 | pgbench_branches_pkey |          1294336
 2017-02-04 20:43:03.27986+01 | 1486237383.27986 | pgbench_tellers_pkey  |          3629056
 2017-02-04 20:43:03.27986+01 | 1486237383.27986 | pgbench_accounts_pkey |       2246197248

 2017-02-04 20:43:04.36554+01 | 1486237384.36554 | pgbench_branches_pkey |          1294336
 2017-02-04 20:43:04.36554+01 | 1486237384.36554 | pgbench_tellers_pkey  |          3629056
 2017-02-04 20:43:04.36554+01 | 1486237384.36554 | pgbench_accounts_pkey |       2246197248

 2017-02-04 20:43:05.445608+01 | 1486237385.44561 | pgbench_branches_pkey |          1294336
 2017-02-04 20:43:05.445608+01 | 1486237385.44561 | pgbench_tellers_pkey  |          3629056
 2017-02-04 20:43:05.445608+01 | 1486237385.44561 | pgbench_accounts_pkey |       2246197248

 2017-02-04 20:43:06.528606+01 | 1486237386.52861 | pgbench_branches_pkey |          1294336
 2017-02-04 20:43:06.528606+01 | 1486237386.52861 | pgbench_tellers_pkey  |          3629056
 2017-02-04 20:43:06.528606+01 | 1486237386.52861 | pgbench_accounts_pkey |       2246197248

 2017-02-04 20:43:07.611699+01 | 1486237387.6117 | pgbench_branches_pkey |          1294336
 2017-02-04 20:43:07.611699+01 | 1486237387.6117 | pgbench_tellers_pkey  |          3629056
 2017-02-04 20:43:07.611699+01 | 1486237387.6117 | pgbench_accounts_pkey |       2246197248

 2017-02-04 20:43:08.700513+01 | 1486237388.70051 | pgbench_branches_pkey |          1294336
 2017-02-04 20:43:08.700513+01 | 1486237388.70051 | pgbench_tellers_pkey  |          3629056
 2017-02-04 20:43:08.700513+01 | 1486237388.70051 | pgbench_accounts_pkey |       2246197248

 2017-02-04 20:43:09.789401+01 | 1486237389.7894 | pgbench_branches_pkey |          1294336
 2017-02-04 20:43:09.789401+01 | 1486237389.7894 | pgbench_tellers_pkey  |          3629056
 2017-02-04 20:43:09.789401+01 | 1486237389.7894 | pgbench_accounts_pkey |       2246197248

 2017-02-04 20:43:10.877272+01 | 1486237390.87727 | pgbench_branches_pkey |          1294336
 2017-02-04 20:43:10.877272+01 | 1486237390.87727 | pgbench_tellers_pkey  |          3629056
 2017-02-04 20:43:10.877272+01 | 1486237390.87727 | pgbench_accounts_pkey |       2246197248

 2017-02-04 20:43:11.96236+01 | 1486237391.96236 | pgbench_branches_pkey |          1294336
 2017-02-04 20:43:11.96236+01 | 1486237391.96236 | pgbench_tellers_pkey  |          3629056
 2017-02-04 20:43:11.96236+01 | 1486237391.96236 | pgbench_accounts_pkey |       2246197248

 2017-02-04 20:43:13.056623+01 | 1486237393.05662 | pgbench_branches_pkey |          1294336
 2017-02-04 20:43:13.056623+01 | 1486237393.05662 | pgbench_tellers_pkey  |          3629056
 2017-02-04 20:43:13.056623+01 | 1486237393.05662 | pgbench_accounts_pkey |       2246197248

 2017-02-04 20:43:14.143342+01 | 1486237394.14334 | pgbench_branches_pkey |          1294336
 2017-02-04 20:43:14.143342+01 | 1486237394.14334 | pgbench_tellers_pkey  |          3629056
 2017-02-04 20:43:14.143342+01 | 1486237394.14334 | pgbench_accounts_pkey |       2246197248

 2017-02-04 20:43:15.22967+01 | 1486237395.22967 | pgbench_branches_pkey |          1294336
 2017-02-04 20:43:15.22967+01 | 1486237395.22967 | pgbench_tellers_pkey  |          3629056
 2017-02-04 20:43:15.22967+01 | 1486237395.22967 | pgbench_accounts_pkey |       2246197248

 2017-02-04 20:43:16.30876+01 | 1486237396.30876 | pgbench_branches_pkey |          1294336
 2017-02-04 20:43:16.30876+01 | 1486237396.30876 | pgbench_tellers_pkey  |          3629056
 2017-02-04 20:43:16.30876+01 | 1486237396.30876 | pgbench_accounts_pkey |       2246197248

 2017-02-04 20:43:17.386429+01 | 1486237397.38643 | pgbench_branches_pkey |          1294336
 2017-02-04 20:43:17.386429+01 | 1486237397.38643 | pgbench_tellers_pkey  |          3629056
 2017-02-04 20:43:17.386429+01 | 1486237397.38643 | pgbench_accounts_pkey |       2246197248

 2017-02-04 20:43:18.462067+01 | 1486237398.46207 | pgbench_branches_pkey |          1294336
 2017-02-04 20:43:18.462067+01 | 1486237398.46207 | pgbench_tellers_pkey  |          3629056
 2017-02-04 20:43:18.462067+01 | 1486237398.46207 | pgbench_accounts_pkey |       2246197248

 2017-02-04 20:43:19.535497+01 | 1486237399.5355 | pgbench_branches_pkey |          1294336
 2017-02-04 20:43:19.535497+01 | 1486237399.5355 | pgbench_tellers_pkey  |          3629056
 2017-02-04 20:43:19.535497+01 | 1486237399.5355 | pgbench_accounts_pkey |       2246197248

 2017-02-04 20:43:20.62593+01 | 1486237400.62593 | pgbench_branches_pkey |          1294336
 2017-02-04 20:43:20.62593+01 | 1486237400.62593 | pgbench_tellers_pkey  |          3629056
 2017-02-04 20:43:20.62593+01 | 1486237400.62593 | pgbench_accounts_pkey |       2246197248

 2017-02-04 20:43:21.716014+01 | 1486237401.71601 | pgbench_branches_pkey |          1294336
 2017-02-04 20:43:21.716014+01 | 1486237401.71601 | pgbench_tellers_pkey  |          3629056
 2017-02-04 20:43:21.716014+01 | 1486237401.71601 | pgbench_accounts_pkey |       2246197248

 2017-02-04 20:43:22.801992+01 | 1486237402.80199 | pgbench_branches_pkey |          1294336
 2017-02-04 20:43:22.801992+01 | 1486237402.80199 | pgbench_tellers_pkey  |          3629056
 2017-02-04 20:43:22.801992+01 | 1486237402.80199 | pgbench_accounts_pkey |       2246197248

 2017-02-04 20:43:23.884581+01 | 1486237403.88458 | pgbench_branches_pkey |          1294336
 2017-02-04 20:43:23.884581+01 | 1486237403.88458 | pgbench_tellers_pkey  |          3629056
 2017-02-04 20:43:23.884581+01 | 1486237403.88458 | pgbench_accounts_pkey |       2246197248

 2017-02-04 20:43:24.973092+01 | 1486237404.97309 | pgbench_branches_pkey |          1294336
 2017-02-04 20:43:24.973092+01 | 1486237404.97309 | pgbench_tellers_pkey  |          3629056
 2017-02-04 20:43:24.973092+01 | 1486237404.97309 | pgbench_accounts_pkey |       2246197248

 2017-02-04 20:43:26.065347+01 | 1486237406.06535 | pgbench_branches_pkey |          1294336
 2017-02-04 20:43:26.065347+01 | 1486237406.06535 | pgbench_tellers_pkey  |          3629056
 2017-02-04 20:43:26.065347+01 | 1486237406.06535 | pgbench_accounts_pkey |       2246197248

 2017-02-04 20:43:27.157215+01 | 1486237407.15722 | pgbench_branches_pkey |          1294336
 2017-02-04 20:43:27.157215+01 | 1486237407.15722 | pgbench_tellers_pkey  |          3629056
 2017-02-04 20:43:27.157215+01 | 1486237407.15722 | pgbench_accounts_pkey |       2246197248

 2017-02-04 20:43:28.24753+01 | 1486237408.24753 | pgbench_branches_pkey |          1294336
 2017-02-04 20:43:28.24753+01 | 1486237408.24753 | pgbench_tellers_pkey  |          3629056
 2017-02-04 20:43:28.24753+01 | 1486237408.24753 | pgbench_accounts_pkey |       2246197248

 2017-02-04 20:43:29.332231+01 | 1486237409.33223 | pgbench_branches_pkey |          1294336
 2017-02-04 20:43:29.332231+01 | 1486237409.33223 | pgbench_tellers_pkey  |          3629056
 2017-02-04 20:43:29.332231+01 | 1486237409.33223 | pgbench_accounts_pkey |       2246197248

 2017-02-04 20:43:30.42012+01 | 1486237410.42012 | pgbench_branches_pkey |          1294336
 2017-02-04 20:43:30.42012+01 | 1486237410.42012 | pgbench_tellers_pkey  |          3629056
 2017-02-04 20:43:30.42012+01 | 1486237410.42012 | pgbench_accounts_pkey |       2246197248

 2017-02-04 20:43:31.501721+01 | 1486237411.50172 | pgbench_branches_pkey |          1294336
 2017-02-04 20:43:31.501721+01 | 1486237411.50172 | pgbench_tellers_pkey  |          3629056
 2017-02-04 20:43:31.501721+01 | 1486237411.50172 | pgbench_accounts_pkey |       2246197248

 2017-02-04 20:43:32.578778+01 | 1486237412.57878 | pgbench_branches_pkey |          1294336
 2017-02-04 20:43:32.578778+01 | 1486237412.57878 | pgbench_tellers_pkey  |          3629056
 2017-02-04 20:43:32.578778+01 | 1486237412.57878 | pgbench_accounts_pkey |       2246197248

 2017-02-04 20:43:33.667752+01 | 1486237413.66775 | pgbench_branches_pkey |          1294336
 2017-02-04 20:43:33.667752+01 | 1486237413.66775 | pgbench_tellers_pkey  |          3629056
 2017-02-04 20:43:33.667752+01 | 1486237413.66775 | pgbench_accounts_pkey |       2246197248

 2017-02-04 20:43:34.757977+01 | 1486237414.75798 | pgbench_branches_pkey |          1294336
 2017-02-04 20:43:34.757977+01 | 1486237414.75798 | pgbench_tellers_pkey  |          3629056
 2017-02-04 20:43:34.757977+01 | 1486237414.75798 | pgbench_accounts_pkey |       2246197248

 2017-02-04 20:43:35.845693+01 | 1486237415.84569 | pgbench_branches_pkey |          1294336
 2017-02-04 20:43:35.845693+01 | 1486237415.84569 | pgbench_tellers_pkey  |          3629056
 2017-02-04 20:43:35.845693+01 | 1486237415.84569 | pgbench_accounts_pkey |       2246197248

 2017-02-04 20:43:36.941334+01 | 1486237416.94133 | pgbench_branches_pkey |          1294336
 2017-02-04 20:43:36.941334+01 | 1486237416.94133 | pgbench_tellers_pkey  |          3629056
 2017-02-04 20:43:36.941334+01 | 1486237416.94133 | pgbench_accounts_pkey |       2246197248

 2017-02-04 20:43:38.025514+01 | 1486237418.02551 | pgbench_branches_pkey |          1294336
 2017-02-04 20:43:38.025514+01 | 1486237418.02551 | pgbench_tellers_pkey  |          3629056
 2017-02-04 20:43:38.025514+01 | 1486237418.02551 | pgbench_accounts_pkey |       2246197248

 2017-02-04 20:43:39.11885+01 | 1486237419.11885 | pgbench_branches_pkey |          1294336
 2017-02-04 20:43:39.11885+01 | 1486237419.11885 | pgbench_tellers_pkey  |          3629056
 2017-02-04 20:43:39.11885+01 | 1486237419.11885 | pgbench_accounts_pkey |       2246197248

 2017-02-04 20:43:40.20693+01 | 1486237420.20693 | pgbench_branches_pkey |          1294336
 2017-02-04 20:43:40.20693+01 | 1486237420.20693 | pgbench_tellers_pkey  |          3629056
 2017-02-04 20:43:40.20693+01 | 1486237420.20693 | pgbench_accounts_pkey |       2246197248

 2017-02-04 20:43:41.290361+01 | 1486237421.29036 | pgbench_branches_pkey |          1294336
 2017-02-04 20:43:41.290361+01 | 1486237421.29036 | pgbench_tellers_pkey  |          3629056
 2017-02-04 20:43:41.290361+01 | 1486237421.29036 | pgbench_accounts_pkey |       2246197248

 2017-02-04 20:43:42.370384+01 | 1486237422.37038 | pgbench_branches_pkey |          1294336
 2017-02-04 20:43:42.370384+01 | 1486237422.37038 | pgbench_tellers_pkey  |          3629056
 2017-02-04 20:43:42.370384+01 | 1486237422.37038 | pgbench_accounts_pkey |       2246197248

 2017-02-04 20:43:43.448216+01 | 1486237423.44822 | pgbench_branches_pkey |          1294336
 2017-02-04 20:43:43.448216+01 | 1486237423.44822 | pgbench_tellers_pkey  |          3629056
 2017-02-04 20:43:43.448216+01 | 1486237423.44822 | pgbench_accounts_pkey |       2246197248

 2017-02-04 20:43:44.525976+01 | 1486237424.52598 | pgbench_branches_pkey |          1294336
 2017-02-04 20:43:44.525976+01 | 1486237424.52598 | pgbench_tellers_pkey  |          3629056
 2017-02-04 20:43:44.525976+01 | 1486237424.52598 | pgbench_accounts_pkey |       2246197248

 2017-02-04 20:43:45.609751+01 | 1486237425.60975 | pgbench_branches_pkey |          1294336
 2017-02-04 20:43:45.609751+01 | 1486237425.60975 | pgbench_tellers_pkey  |          3629056
 2017-02-04 20:43:45.609751+01 | 1486237425.60975 | pgbench_accounts_pkey |       2246197248

 2017-02-04 20:43:46.701192+01 | 1486237426.70119 | pgbench_branches_pkey |          1294336
 2017-02-04 20:43:46.701192+01 | 1486237426.70119 | pgbench_tellers_pkey  |          3629056
 2017-02-04 20:43:46.701192+01 | 1486237426.70119 | pgbench_accounts_pkey |       2246197248

 2017-02-04 20:43:47.784923+01 | 1486237427.78492 | pgbench_branches_pkey |          1294336
 2017-02-04 20:43:47.784923+01 | 1486237427.78492 | pgbench_tellers_pkey  |          3629056
 2017-02-04 20:43:47.784923+01 | 1486237427.78492 | pgbench_accounts_pkey |       2246197248

 2017-02-04 20:43:48.872851+01 | 1486237428.87285 | pgbench_branches_pkey |          1294336
 2017-02-04 20:43:48.872851+01 | 1486237428.87285 | pgbench_tellers_pkey  |          3629056
 2017-02-04 20:43:48.872851+01 | 1486237428.87285 | pgbench_accounts_pkey |       2246197248

 2017-02-04 20:43:49.956339+01 | 1486237429.95634 | pgbench_branches_pkey |          1294336
 2017-02-04 20:43:49.956339+01 | 1486237429.95634 | pgbench_tellers_pkey  |          3629056
 2017-02-04 20:43:49.956339+01 | 1486237429.95634 | pgbench_accounts_pkey |       2246197248

 2017-02-04 20:43:51.043425+01 | 1486237431.04343 | pgbench_branches_pkey |          1294336
 2017-02-04 20:43:51.043425+01 | 1486237431.04343 | pgbench_tellers_pkey  |          3629056
 2017-02-04 20:43:51.043425+01 | 1486237431.04343 | pgbench_accounts_pkey |       2246197248

 2017-02-04 20:43:52.13465+01 | 1486237432.13465 | pgbench_branches_pkey |          1294336
 2017-02-04 20:43:52.13465+01 | 1486237432.13465 | pgbench_tellers_pkey  |          3629056
 2017-02-04 20:43:52.13465+01 | 1486237432.13465 | pgbench_accounts_pkey |       2246197248

 2017-02-04 20:43:53.220099+01 | 1486237433.2201 | pgbench_branches_pkey |          1294336
 2017-02-04 20:43:53.220099+01 | 1486237433.2201 | pgbench_tellers_pkey  |          3629056
 2017-02-04 20:43:53.220099+01 | 1486237433.2201 | pgbench_accounts_pkey |       2246197248

 2017-02-04 20:43:54.308686+01 | 1486237434.30869 | pgbench_branches_pkey |          1294336
 2017-02-04 20:43:54.308686+01 | 1486237434.30869 | pgbench_tellers_pkey  |          3629056
 2017-02-04 20:43:54.308686+01 | 1486237434.30869 | pgbench_accounts_pkey |       2246197248

 2017-02-04 20:43:55.392062+01 | 1486237435.39206 | pgbench_branches_pkey |          1294336
 2017-02-04 20:43:55.392062+01 | 1486237435.39206 | pgbench_tellers_pkey  |          3629056
 2017-02-04 20:43:55.392062+01 | 1486237435.39206 | pgbench_accounts_pkey |       2246197248

 2017-02-04 20:43:56.475863+01 | 1486237436.47586 | pgbench_branches_pkey |          1294336
 2017-02-04 20:43:56.475863+01 | 1486237436.47586 | pgbench_tellers_pkey  |          3629056
 2017-02-04 20:43:56.475863+01 | 1486237436.47586 | pgbench_accounts_pkey |       2246197248

 2017-02-04 20:43:57.558748+01 | 1486237437.55875 | pgbench_branches_pkey |          1294336
 2017-02-04 20:43:57.558748+01 | 1486237437.55875 | pgbench_tellers_pkey  |          3629056
 2017-02-04 20:43:57.558748+01 | 1486237437.55875 | pgbench_accounts_pkey |       2246197248

 2017-02-04 20:43:58.641064+01 | 1486237438.64106 | pgbench_branches_pkey |          1294336
 2017-02-04 20:43:58.641064+01 | 1486237438.64106 | pgbench_tellers_pkey  |          3629056
 2017-02-04 20:43:58.641064+01 | 1486237438.64106 | pgbench_accounts_pkey |       2246197248

 2017-02-04 20:43:59.72811+01 | 1486237439.72811 | pgbench_branches_pkey |          1294336
 2017-02-04 20:43:59.72811+01 | 1486237439.72811 | pgbench_tellers_pkey  |          3629056
 2017-02-04 20:43:59.72811+01 | 1486237439.72811 | pgbench_accounts_pkey |       2246197248

 2017-02-04 20:44:00.815142+01 | 1486237440.81514 | pgbench_branches_pkey |          1294336
 2017-02-04 20:44:00.815142+01 | 1486237440.81514 | pgbench_tellers_pkey  |          3629056
 2017-02-04 20:44:00.815142+01 | 1486237440.81514 | pgbench_accounts_pkey |       2246197248

 2017-02-04 20:44:01.905247+01 | 1486237441.90525 | pgbench_branches_pkey |          1294336
 2017-02-04 20:44:01.905247+01 | 1486237441.90525 | pgbench_tellers_pkey  |          3629056
 2017-02-04 20:44:01.905247+01 | 1486237441.90525 | pgbench_accounts_pkey |       2246197248

 2017-02-04 20:44:02.991624+01 | 1486237442.99162 | pgbench_branches_pkey |          1294336
 2017-02-04 20:44:02.991624+01 | 1486237442.99162 | pgbench_tellers_pkey  |          3629056
 2017-02-04 20:44:02.991624+01 | 1486237442.99162 | pgbench_accounts_pkey |       2246197248

 2017-02-04 20:44:04.080279+01 | 1486237444.08028 | pgbench_branches_pkey |          1294336
 2017-02-04 20:44:04.080279+01 | 1486237444.08028 | pgbench_tellers_pkey  |          3629056
 2017-02-04 20:44:04.080279+01 | 1486237444.08028 | pgbench_accounts_pkey |       2246197248

 2017-02-04 20:44:05.170716+01 | 1486237445.17072 | pgbench_branches_pkey |          1294336
 2017-02-04 20:44:05.170716+01 | 1486237445.17072 | pgbench_tellers_pkey  |          3629056
 2017-02-04 20:44:05.170716+01 | 1486237445.17072 | pgbench_accounts_pkey |       2246197248

 2017-02-04 20:44:06.259343+01 | 1486237446.25934 | pgbench_branches_pkey |          1294336
 2017-02-04 20:44:06.259343+01 | 1486237446.25934 | pgbench_tellers_pkey  |          3629056
 2017-02-04 20:44:06.259343+01 | 1486237446.25934 | pgbench_accounts_pkey |       2246197248

 2017-02-04 20:44:07.338267+01 | 1486237447.33827 | pgbench_branches_pkey |          1294336
 2017-02-04 20:44:07.338267+01 | 1486237447.33827 | pgbench_tellers_pkey  |          3629056
 2017-02-04 20:44:07.338267+01 | 1486237447.33827 | pgbench_accounts_pkey |       2246197248

 2017-02-04 20:44:08.414297+01 | 1486237448.4143 | pgbench_branches_pkey |          1294336
 2017-02-04 20:44:08.414297+01 | 1486237448.4143 | pgbench_tellers_pkey  |          3629056
 2017-02-04 20:44:08.414297+01 | 1486237448.4143 | pgbench_accounts_pkey |       2246197248

 2017-02-04 20:44:09.49235+01 | 1486237449.49235 | pgbench_branches_pkey |          1294336
 2017-02-04 20:44:09.49235+01 | 1486237449.49235 | pgbench_tellers_pkey  |          3629056
 2017-02-04 20:44:09.49235+01 | 1486237449.49235 | pgbench_accounts_pkey |       2246197248

 2017-02-04 20:44:10.571996+01 | 1486237450.572 | pgbench_branches_pkey |          1294336
 2017-02-04 20:44:10.571996+01 | 1486237450.572 | pgbench_tellers_pkey  |          3629056
 2017-02-04 20:44:10.571996+01 | 1486237450.572 | pgbench_accounts_pkey |       2246197248

 2017-02-04 20:44:11.65501+01 | 1486237451.65501 | pgbench_branches_pkey |          1294336
 2017-02-04 20:44:11.65501+01 | 1486237451.65501 | pgbench_tellers_pkey  |          3629056
 2017-02-04 20:44:11.65501+01 | 1486237451.65501 | pgbench_accounts_pkey |       2246197248

 2017-02-04 20:44:12.7419+01 | 1486237452.7419 | pgbench_branches_pkey |          1294336
 2017-02-04 20:44:12.7419+01 | 1486237452.7419 | pgbench_tellers_pkey  |          3629056
 2017-02-04 20:44:12.7419+01 | 1486237452.7419 | pgbench_accounts_pkey |       2246197248

 2017-02-04 20:44:13.829198+01 | 1486237453.8292 | pgbench_branches_pkey |          1294336
 2017-02-04 20:44:13.829198+01 | 1486237453.8292 | pgbench_tellers_pkey  |          3629056
 2017-02-04 20:44:13.829198+01 | 1486237453.8292 | pgbench_accounts_pkey |       2246197248

 2017-02-04 20:44:14.915425+01 | 1486237454.91543 | pgbench_branches_pkey |          1294336
 2017-02-04 20:44:14.915425+01 | 1486237454.91543 | pgbench_tellers_pkey  |          3629056
 2017-02-04 20:44:14.915425+01 | 1486237454.91543 | pgbench_accounts_pkey |       2246197248

 2017-02-04 20:44:16.013438+01 | 1486237456.01344 | pgbench_branches_pkey |          1294336
 2017-02-04 20:44:16.013438+01 | 1486237456.01344 | pgbench_tellers_pkey  |          3629056
 2017-02-04 20:44:16.013438+01 | 1486237456.01344 | pgbench_accounts_pkey |       2246197248

 2017-02-04 20:44:17.104339+01 | 1486237457.10434 | pgbench_branches_pkey |          1294336
 2017-02-04 20:44:17.104339+01 | 1486237457.10434 | pgbench_tellers_pkey  |          3629056
 2017-02-04 20:44:17.104339+01 | 1486237457.10434 | pgbench_accounts_pkey |       2246197248

 2017-02-04 20:44:18.188003+01 | 1486237458.188 | pgbench_branches_pkey |          1294336
 2017-02-04 20:44:18.188003+01 | 1486237458.188 | pgbench_tellers_pkey  |          3629056
 2017-02-04 20:44:18.188003+01 | 1486237458.188 | pgbench_accounts_pkey |       2246197248

 2017-02-04 20:44:19.273215+01 | 1486237459.27322 | pgbench_branches_pkey |          1294336
 2017-02-04 20:44:19.273215+01 | 1486237459.27322 | pgbench_tellers_pkey  |          3629056
 2017-02-04 20:44:19.273215+01 | 1486237459.27322 | pgbench_accounts_pkey |       2246197248

 2017-02-04 20:44:20.354268+01 | 1486237460.35427 | pgbench_branches_pkey |          1294336
 2017-02-04 20:44:20.354268+01 | 1486237460.35427 | pgbench_tellers_pkey  |          3629056
 2017-02-04 20:44:20.354268+01 | 1486237460.35427 | pgbench_accounts_pkey |       2246197248

 2017-02-04 20:44:21.435698+01 | 1486237461.4357 | pgbench_branches_pkey |          1294336
 2017-02-04 20:44:21.435698+01 | 1486237461.4357 | pgbench_tellers_pkey  |          3629056
 2017-02-04 20:44:21.435698+01 | 1486237461.4357 | pgbench_accounts_pkey |       2246197248

 2017-02-04 20:44:22.51761+01 | 1486237462.51761 | pgbench_branches_pkey |          1294336
 2017-02-04 20:44:22.51761+01 | 1486237462.51761 | pgbench_tellers_pkey  |          3629056
 2017-02-04 20:44:22.51761+01 | 1486237462.51761 | pgbench_accounts_pkey |       2246197248

 2017-02-04 20:44:23.597726+01 | 1486237463.59773 | pgbench_branches_pkey |          1294336
 2017-02-04 20:44:23.597726+01 | 1486237463.59773 | pgbench_tellers_pkey  |          3629056
 2017-02-04 20:44:23.597726+01 | 1486237463.59773 | pgbench_accounts_pkey |       2246197248

 2017-02-04 20:44:24.68003+01 | 1486237464.68003 | pgbench_branches_pkey |          1294336
 2017-02-04 20:44:24.68003+01 | 1486237464.68003 | pgbench_tellers_pkey  |          3629056
 2017-02-04 20:44:24.68003+01 | 1486237464.68003 | pgbench_accounts_pkey |       2246197248

 2017-02-04 20:44:25.771747+01 | 1486237465.77175 | pgbench_branches_pkey |          1294336
 2017-02-04 20:44:25.771747+01 | 1486237465.77175 | pgbench_tellers_pkey  |          3629056
 2017-02-04 20:44:25.771747+01 | 1486237465.77175 | pgbench_accounts_pkey |       2246197248

 2017-02-04 20:44:26.85976+01 | 1486237466.85976 | pgbench_branches_pkey |          1294336
 2017-02-04 20:44:26.85976+01 | 1486237466.85976 | pgbench_tellers_pkey  |          3629056
 2017-02-04 20:44:26.85976+01 | 1486237466.85976 | pgbench_accounts_pkey |       2246197248

 2017-02-04 20:44:27.941319+01 | 1486237467.94132 | pgbench_branches_pkey |          1294336
 2017-02-04 20:44:27.941319+01 | 1486237467.94132 | pgbench_tellers_pkey  |          3629056
 2017-02-04 20:44:27.941319+01 | 1486237467.94132 | pgbench_accounts_pkey |       2246197248

 2017-02-04 20:44:29.028791+01 | 1486237469.02879 | pgbench_branches_pkey |          1294336
 2017-02-04 20:44:29.028791+01 | 1486237469.02879 | pgbench_tellers_pkey  |          3629056
 2017-02-04 20:44:29.028791+01 | 1486237469.02879 | pgbench_accounts_pkey |       2246197248

 2017-02-04 20:44:30.1198+01 | 1486237470.1198 | pgbench_branches_pkey |          1294336
 2017-02-04 20:44:30.1198+01 | 1486237470.1198 | pgbench_tellers_pkey  |          3629056
 2017-02-04 20:44:30.1198+01 | 1486237470.1198 | pgbench_accounts_pkey |       2246197248

 2017-02-04 20:44:31.221972+01 | 1486237471.22197 | pgbench_branches_pkey |          1294336
 2017-02-04 20:44:31.221972+01 | 1486237471.22197 | pgbench_tellers_pkey  |          3629056
 2017-02-04 20:44:31.221972+01 | 1486237471.22197 | pgbench_accounts_pkey |       2246197248

 2017-02-04 20:44:32.307507+01 | 1486237472.30751 | pgbench_branches_pkey |          1294336
 2017-02-04 20:44:32.307507+01 | 1486237472.30751 | pgbench_tellers_pkey  |          3629056
 2017-02-04 20:44:32.307507+01 | 1486237472.30751 | pgbench_accounts_pkey |       2246197248

 2017-02-04 20:44:33.387242+01 | 1486237473.38724 | pgbench_branches_pkey |          1294336
 2017-02-04 20:44:33.387242+01 | 1486237473.38724 | pgbench_tellers_pkey  |          3629056
 2017-02-04 20:44:33.387242+01 | 1486237473.38724 | pgbench_accounts_pkey |       2246197248

 2017-02-04 20:44:34.468599+01 | 1486237474.4686 | pgbench_branches_pkey |          1294336
 2017-02-04 20:44:34.468599+01 | 1486237474.4686 | pgbench_tellers_pkey  |          3629056
 2017-02-04 20:44:34.468599+01 | 1486237474.4686 | pgbench_accounts_pkey |       2246197248

 2017-02-04 20:44:35.545923+01 | 1486237475.54592 | pgbench_branches_pkey |          1294336
 2017-02-04 20:44:35.545923+01 | 1486237475.54592 | pgbench_tellers_pkey  |          3629056
 2017-02-04 20:44:35.545923+01 | 1486237475.54592 | pgbench_accounts_pkey |       2246197248

 2017-02-04 20:44:36.617398+01 | 1486237476.6174 | pgbench_branches_pkey |          1294336
 2017-02-04 20:44:36.617398+01 | 1486237476.6174 | pgbench_tellers_pkey  |          3629056
 2017-02-04 20:44:36.617398+01 | 1486237476.6174 | pgbench_accounts_pkey |       2246197248

 2017-02-04 20:44:37.706685+01 | 1486237477.70669 | pgbench_branches_pkey |          1294336
 2017-02-04 20:44:37.706685+01 | 1486237477.70669 | pgbench_tellers_pkey  |          3629056
 2017-02-04 20:44:37.706685+01 | 1486237477.70669 | pgbench_accounts_pkey |       2246197248

 2017-02-04 20:44:38.795499+01 | 1486237478.7955 | pgbench_branches_pkey |          1294336
 2017-02-04 20:44:38.795499+01 | 1486237478.7955 | pgbench_tellers_pkey  |          3629056
 2017-02-04 20:44:38.795499+01 | 1486237478.7955 | pgbench_accounts_pkey |       2246197248

