 2017-02-03 11:12:05.820902+01 | 1486116725.8209 | 0/4E38FAD0               |            1312357072

 2017-02-03 11:12:06.897921+01 | 1486116726.89792 | 0/4E38FAD0               |            1312357072

 2017-02-03 11:12:07.977607+01 | 1486116727.97761 | 0/4E38FAD0               |            1312357072

 2017-02-03 11:12:09.066577+01 | 1486116729.06658 | 0/4E38FAD0               |            1312357072

 2017-02-03 11:12:10.161503+01 | 1486116730.1615 | 0/4E38FB08               |            1312357128

 2017-02-03 11:12:11.264227+01 | 1486116731.26423 | 0/4E38FB08               |            1312357128

 2017-02-03 11:12:12.362441+01 | 1486116732.36244 | 0/4E38FB08               |            1312357128

 2017-02-03 11:12:13.461483+01 | 1486116733.46148 | 0/4E38FB08               |            1312357128

 2017-02-03 11:12:14.56388+01 | 1486116734.56388 | 0/4E38FB08               |            1312357128

 2017-02-03 11:12:15.664248+01 | 1486116735.66425 | 0/4E38FB08               |            1312357128

 2017-02-03 11:12:16.764683+01 | 1486116736.76468 | 0/4E38FB08               |            1312357128

 2017-02-03 11:12:17.852955+01 | 1486116737.85296 | 0/4E38FB08               |            1312357128

 2017-02-03 11:12:18.944025+01 | 1486116738.94403 | 0/4E38FB08               |            1312357128

 2017-02-03 11:12:20.034833+01 | 1486116740.03483 | 0/4E38FB08               |            1312357128

 2017-02-03 11:12:21.121011+01 | 1486116741.12101 | 0/4E38FB08               |            1312357128

 2017-02-03 11:12:22.214464+01 | 1486116742.21446 | 0/4E38FB08               |            1312357128

 2017-02-03 11:12:23.312418+01 | 1486116743.31242 | 0/4E38FB08               |            1312357128

 2017-02-03 11:12:24.411115+01 | 1486116744.41111 | 0/4E38FB08               |            1312357128

 2017-02-03 11:12:25.510079+01 | 1486116745.51008 | 0/4E38FB08               |            1312357128

 2017-02-03 11:12:26.598991+01 | 1486116746.59899 | 0/4E38FB08               |            1312357128

 2017-02-03 11:12:27.707334+01 | 1486116747.70733 | 0/4E38FB08               |            1312357128

 2017-02-03 11:12:28.804579+01 | 1486116748.80458 | 0/4E38FB08               |            1312357128

 2017-02-03 11:12:29.881826+01 | 1486116749.88183 | 0/4E38FB08               |            1312357128

 2017-02-03 11:12:30.970912+01 | 1486116750.97091 | 0/4E38FB08               |            1312357128

 2017-02-03 11:12:32.05701+01 | 1486116752.05701 | 0/4E38FB08               |            1312357128

 2017-02-03 11:12:33.144873+01 | 1486116753.14487 | 0/4E38FB08               |            1312357128

 2017-02-03 11:12:34.227751+01 | 1486116754.22775 | 0/4E38FB08               |            1312357128

 2017-02-03 11:12:35.31731+01 | 1486116755.31731 | 0/4E38FB08               |            1312357128

 2017-02-03 11:12:36.402077+01 | 1486116756.40208 | 0/4E38FB08               |            1312357128

 2017-02-03 11:12:37.497129+01 | 1486116757.49713 | 0/4E38FB08               |            1312357128

 2017-02-03 11:12:38.598062+01 | 1486116758.59806 | 0/4E38FB08               |            1312357128

 2017-02-03 11:12:39.694331+01 | 1486116759.69433 | 0/4E38FB08               |            1312357128

 2017-02-03 11:12:40.798303+01 | 1486116760.7983 | 0/4E38FB08               |            1312357128

 2017-02-03 11:12:41.894005+01 | 1486116761.89401 | 0/4E38FB08               |            1312357128

 2017-02-03 11:12:42.986205+01 | 1486116762.98621 | 0/4E38FB08               |            1312357128

 2017-02-03 11:12:44.077605+01 | 1486116764.07761 | 0/4E38FB08               |            1312357128

 2017-02-03 11:12:45.173165+01 | 1486116765.17317 | 0/4E38FB08               |            1312357128

 2017-02-03 11:12:46.262591+01 | 1486116766.26259 | 0/4E38FB08               |            1312357128

 2017-02-03 11:12:47.352382+01 | 1486116767.35238 | 0/4E38FB08               |            1312357128

 2017-02-03 11:12:48.447395+01 | 1486116768.4474 | 0/4E38FB08               |            1312357128

 2017-02-03 11:12:49.546696+01 | 1486116769.5467 | 0/4E38FB08               |            1312357128

 2017-02-03 11:12:50.639925+01 | 1486116770.63993 | 0/4E38FB08               |            1312357128

 2017-02-03 11:12:51.739412+01 | 1486116771.73941 | 0/4E38FB08               |            1312357128

 2017-02-03 11:12:52.843534+01 | 1486116772.84353 | 0/4E38FB08               |            1312357128

 2017-02-03 11:12:53.927318+01 | 1486116773.92732 | 0/4E38FB08               |            1312357128

 2017-02-03 11:12:55.018121+01 | 1486116775.01812 | 0/4E38FB08               |            1312357128

 2017-02-03 11:12:56.113047+01 | 1486116776.11305 | 0/4E38FB08               |            1312357128

 2017-02-03 11:12:57.194605+01 | 1486116777.19461 | 0/4E38FB08               |            1312357128

 2017-02-03 11:12:58.290593+01 | 1486116778.29059 | 0/4E38FB08               |            1312357128

 2017-02-03 11:12:59.385543+01 | 1486116779.38554 | 0/4E38FB08               |            1312357128

 2017-02-03 11:13:00.488814+01 | 1486116780.48881 | 0/4E38FB08               |            1312357128

 2017-02-03 11:13:01.591659+01 | 1486116781.59166 | 0/4E38FB08               |            1312357128

 2017-02-03 11:13:02.690756+01 | 1486116782.69076 | 0/4E38FB08               |            1312357128

 2017-02-03 11:13:03.789262+01 | 1486116783.78926 | 0/4E38FB08               |            1312357128

 2017-02-03 11:13:04.887518+01 | 1486116784.88752 | 0/4E38FB08               |            1312357128

 2017-02-03 11:13:05.971529+01 | 1486116785.97153 | 0/4E38FB08               |            1312357128

 2017-02-03 11:13:07.05823+01 | 1486116787.05823 | 0/4E38FB08               |            1312357128

 2017-02-03 11:13:08.138294+01 | 1486116788.13829 | 0/4E38FB08               |            1312357128

 2017-02-03 11:13:09.22443+01 | 1486116789.22443 | 0/4E38FB08               |            1312357128

 2017-02-03 11:13:10.322594+01 | 1486116790.32259 | 0/4E38FB08               |            1312357128

 2017-02-03 11:13:11.415046+01 | 1486116791.41505 | 0/4E38FB08               |            1312357128

 2017-02-03 11:13:12.518096+01 | 1486116792.5181 | 0/4E38FB08               |            1312357128

 2017-02-03 11:13:13.618999+01 | 1486116793.619 | 0/4E38FB08               |            1312357128

 2017-02-03 11:13:14.721917+01 | 1486116794.72192 | 0/4E38FB08               |            1312357128

 2017-02-03 11:13:15.82734+01 | 1486116795.82734 | 0/4E38FB08               |            1312357128

 2017-02-03 11:13:16.920084+01 | 1486116796.92008 | 0/4E38FB08               |            1312357128

 2017-02-03 11:13:18.004248+01 | 1486116798.00425 | 0/4E38FB08               |            1312357128

 2017-02-03 11:13:19.085254+01 | 1486116799.08525 | 0/4E38FB08               |            1312357128

 2017-02-03 11:13:20.168026+01 | 1486116800.16803 | 0/4E38FB08               |            1312357128

 2017-02-03 11:13:21.254135+01 | 1486116801.25413 | 0/4E38FB08               |            1312357128

 2017-02-03 11:13:22.348446+01 | 1486116802.34845 | 0/4E38FB08               |            1312357128

 2017-02-03 11:13:23.436511+01 | 1486116803.43651 | 0/4E38FB08               |            1312357128

 2017-02-03 11:13:24.52546+01 | 1486116804.52546 | 0/4E38FB08               |            1312357128

 2017-02-03 11:13:25.634601+01 | 1486116805.6346 | 0/4E38FB08               |            1312357128

 2017-02-03 11:13:26.733929+01 | 1486116806.73393 | 0/4E38FB08               |            1312357128

 2017-02-03 11:13:27.841474+01 | 1486116807.84147 | 0/4E38FB08               |            1312357128

 2017-02-03 11:13:28.934771+01 | 1486116808.93477 | 0/4E38FB08               |            1312357128

 2017-02-03 11:13:30.014487+01 | 1486116810.01449 | 0/4E38FB08               |            1312357128

 2017-02-03 11:13:31.098276+01 | 1486116811.09828 | 0/4E38FB08               |            1312357128

 2017-02-03 11:13:32.183647+01 | 1486116812.18365 | 0/4E38FB08               |            1312357128

 2017-02-03 11:13:33.271368+01 | 1486116813.27137 | 0/4E38FB08               |            1312357128

 2017-02-03 11:13:34.368355+01 | 1486116814.36836 | 0/4E38FB08               |            1312357128

 2017-02-03 11:13:35.462288+01 | 1486116815.46229 | 0/4E38FB08               |            1312357128

 2017-02-03 11:13:36.552757+01 | 1486116816.55276 | 0/4E38FB08               |            1312357128

 2017-02-03 11:13:37.645955+01 | 1486116817.64596 | 0/4E38FB08               |            1312357128

 2017-02-03 11:13:38.742487+01 | 1486116818.74249 | 0/4E38FB08               |            1312357128

 2017-02-03 11:13:39.840146+01 | 1486116819.84015 | 0/4E38FB08               |            1312357128

 2017-02-03 11:13:40.930052+01 | 1486116820.93005 | 0/4E38FB08               |            1312357128

 2017-02-03 11:13:42.016304+01 | 1486116822.0163 | 0/4E38FB08               |            1312357128

 2017-02-03 11:13:43.100023+01 | 1486116823.10002 | 0/4E38FB08               |            1312357128

 2017-02-03 11:13:44.184951+01 | 1486116824.18495 | 0/4E38FB08               |            1312357128

 2017-02-03 11:13:45.272087+01 | 1486116825.27209 | 0/4E38FB08               |            1312357128

 2017-02-03 11:13:46.359851+01 | 1486116826.35985 | 0/4E38FB08               |            1312357128

 2017-02-03 11:13:47.464211+01 | 1486116827.46421 | 0/4E38FB08               |            1312357128

 2017-02-03 11:13:48.553671+01 | 1486116828.55367 | 0/4E38FB08               |            1312357128

 2017-02-03 11:13:49.652469+01 | 1486116829.65247 | 0/4E38FB08               |            1312357128

 2017-02-03 11:13:50.747656+01 | 1486116830.74766 | 0/4E38FB08               |            1312357128

 2017-02-03 11:13:51.858741+01 | 1486116831.85874 | 0/4E38FB08               |            1312357128

 2017-02-03 11:13:52.955603+01 | 1486116832.9556 | 0/4E38FB08               |            1312357128

 2017-02-03 11:13:54.041779+01 | 1486116834.04178 | 0/4E38FB08               |            1312357128

 2017-02-03 11:13:55.130348+01 | 1486116835.13035 | 0/4E38FB08               |            1312357128

 2017-02-03 11:13:56.219418+01 | 1486116836.21942 | 0/4E38FB08               |            1312357128

 2017-02-03 11:13:57.307822+01 | 1486116837.30782 | 0/4E38FB08               |            1312357128

 2017-02-03 11:13:58.402102+01 | 1486116838.4021 | 0/4E38FB08               |            1312357128

 2017-02-03 11:13:59.500054+01 | 1486116839.50005 | 0/4E38FB08               |            1312357128

 2017-02-03 11:14:00.601075+01 | 1486116840.60107 | 0/4E38FB08               |            1312357128

 2017-02-03 11:14:01.695583+01 | 1486116841.69558 | 0/4E38FB08               |            1312357128

 2017-02-03 11:14:02.799672+01 | 1486116842.79967 | 0/4E38FB08               |            1312357128

 2017-02-03 11:14:03.894868+01 | 1486116843.89487 | 0/4E38FB08               |            1312357128

 2017-02-03 11:14:04.986469+01 | 1486116844.98647 | 0/4E38FB08               |            1312357128

 2017-02-03 11:14:06.071503+01 | 1486116846.0715 | 0/4E38FB08               |            1312357128

 2017-02-03 11:14:07.161774+01 | 1486116847.16177 | 0/4E38FB08               |            1312357128

 2017-02-03 11:14:08.243803+01 | 1486116848.2438 | 0/4E38FB08               |            1312357128

 2017-02-03 11:14:09.330091+01 | 1486116849.33009 | 0/4E38FB08               |            1312357128

 2017-02-03 11:14:10.417578+01 | 1486116850.41758 | 0/4E38FB08               |            1312357128

 2017-02-03 11:14:11.508598+01 | 1486116851.5086 | 0/4E38FB08               |            1312357128

 2017-02-03 11:14:12.605501+01 | 1486116852.6055 | 0/4E38FB08               |            1312357128

 2017-02-03 11:14:13.71736+01 | 1486116853.71736 | 0/4E38FB08               |            1312357128

 2017-02-03 11:14:14.821821+01 | 1486116854.82182 | 0/4E38FB08               |            1312357128

 2017-02-03 11:14:15.934807+01 | 1486116855.93481 | 0/4E38FB08               |            1312357128

 2017-02-03 11:14:17.017704+01 | 1486116857.0177 | 0/4E38FB08               |            1312357128

 2017-02-03 11:14:18.104719+01 | 1486116858.10472 | 0/4E38FB08               |            1312357128

 2017-02-03 11:14:19.195251+01 | 1486116859.19525 | 0/4E38FB08               |            1312357128

 2017-02-03 11:14:20.283836+01 | 1486116860.28384 | 0/4E38FB08               |            1312357128

 2017-02-03 11:14:21.37589+01 | 1486116861.37589 | 0/4E38FB08               |            1312357128

 2017-02-03 11:14:22.469416+01 | 1486116862.46942 | 0/4E38FB08               |            1312357128

 2017-02-03 11:14:23.577267+01 | 1486116863.57727 | 0/4E38FB08               |            1312357128

 2017-02-03 11:14:24.676619+01 | 1486116864.67662 | 0/4E38FB08               |            1312357128

 2017-02-03 11:14:25.771242+01 | 1486116865.77124 | 0/4E38FB08               |            1312357128

 2017-02-03 11:14:26.866697+01 | 1486116866.8667 | 0/4E38FB08               |            1312357128

 2017-02-03 11:14:27.968896+01 | 1486116867.9689 | 0/4E38FB08               |            1312357128

 2017-02-03 11:14:29.053229+01 | 1486116869.05323 | 0/4E38FB08               |            1312357128

 2017-02-03 11:14:30.141056+01 | 1486116870.14106 | 0/4E38FB08               |            1312357128

 2017-02-03 11:14:31.222897+01 | 1486116871.2229 | 0/4E38FB08               |            1312357128

 2017-02-03 11:14:32.309676+01 | 1486116872.30968 | 0/4E38FB08               |            1312357128

 2017-02-03 11:14:33.406661+01 | 1486116873.40666 | 0/4E38FB08               |            1312357128

 2017-02-03 11:14:34.506125+01 | 1486116874.50612 | 0/4E38FB08               |            1312357128

 2017-02-03 11:14:35.597908+01 | 1486116875.59791 | 0/4E38FB08               |            1312357128

 2017-02-03 11:14:36.698802+01 | 1486116876.6988 | 0/4E38FB08               |            1312357128

 2017-02-03 11:14:37.802186+01 | 1486116877.80219 | 0/4E38FB08               |            1312357128

 2017-02-03 11:14:38.91106+01 | 1486116878.91106 | 0/4E38FB08               |            1312357128

 2017-02-03 11:14:40.009748+01 | 1486116880.00975 | 0/4E38FB08               |            1312357128

 2017-02-03 11:14:41.098021+01 | 1486116881.09802 | 0/4E38FB08               |            1312357128

 2017-02-03 11:14:42.18234+01 | 1486116882.18234 | 0/4E38FB08               |            1312357128

 2017-02-03 11:14:43.265176+01 | 1486116883.26518 | 0/4E38FB08               |            1312357128

 2017-02-03 11:14:44.361577+01 | 1486116884.36158 | 0/4E38FB08               |            1312357128

 2017-02-03 11:14:45.452293+01 | 1486116885.45229 | 0/4E38FB08               |            1312357128

 2017-02-03 11:14:46.546661+01 | 1486116886.54666 | 0/4E38FB08               |            1312357128

 2017-02-03 11:14:47.658183+01 | 1486116887.65818 | 0/4E38FB08               |            1312357128

 2017-02-03 11:14:48.762125+01 | 1486116888.76213 | 0/4E38FB08               |            1312357128

 2017-02-03 11:14:49.859548+01 | 1486116889.85955 | 0/4E38FB08               |            1312357128

 2017-02-03 11:14:50.963864+01 | 1486116890.96386 | 0/4E38FB08               |            1312357128

 2017-02-03 11:14:52.058331+01 | 1486116892.05833 | 0/4E38FB08               |            1312357128

 2017-02-03 11:14:53.143776+01 | 1486116893.14378 | 0/4E38FB08               |            1312357128

 2017-02-03 11:14:54.227293+01 | 1486116894.22729 | 0/4E38FB08               |            1312357128

 2017-02-03 11:14:55.317818+01 | 1486116895.31782 | 0/4E38FB08               |            1312357128

 2017-02-03 11:14:56.419528+01 | 1486116896.41953 | 0/4E38FB08               |            1312357128

 2017-02-03 11:14:57.517324+01 | 1486116897.51732 | 0/4E38FB08               |            1312357128

 2017-02-03 11:14:58.610695+01 | 1486116898.61069 | 0/4E38FB08               |            1312357128

 2017-02-03 11:14:59.702064+01 | 1486116899.70206 | 0/4E38FB08               |            1312357128

 2017-02-03 11:15:00.806144+01 | 1486116900.80614 | 0/4E38FB08               |            1312357128

 2017-02-03 11:15:01.89755+01 | 1486116901.89755 | 0/4E38FB08               |            1312357128

 2017-02-03 11:15:03.003361+01 | 1486116903.00336 | 0/4E38FB08               |            1312357128

 2017-02-03 11:15:04.095623+01 | 1486116904.09562 | 0/4E38FB08               |            1312357128

 2017-02-03 11:15:05.181735+01 | 1486116905.18174 | 0/4E38FB08               |            1312357128

 2017-02-03 11:15:06.272772+01 | 1486116906.27277 | 0/4E38FB08               |            1312357128

 2017-02-03 11:15:07.365507+01 | 1486116907.36551 | 0/4E38FB08               |            1312357128

 2017-02-03 11:15:08.460621+01 | 1486116908.46062 | 0/4E38FB08               |            1312357128

 2017-02-03 11:15:09.558105+01 | 1486116909.5581 | 0/4E38FB08               |            1312357128

 2017-02-03 11:15:10.662057+01 | 1486116910.66206 | 0/4E38FB08               |            1312357128

 2017-02-03 11:15:11.792293+01 | 1486116911.79229 | 0/4E38FB08               |            1312357128

 2017-02-03 11:15:12.903753+01 | 1486116912.90375 | 0/4E38FB08               |            1312357128

 2017-02-03 11:15:14.005033+01 | 1486116914.00503 | 0/4E38FB08               |            1312357128

 2017-02-03 11:15:15.093273+01 | 1486116915.09327 | 0/4E38FB08               |            1312357128

 2017-02-03 11:15:16.175129+01 | 1486116916.17513 | 0/4E38FB08               |            1312357128

 2017-02-03 11:15:17.263706+01 | 1486116917.26371 | 0/4E38FB08               |            1312357128

 2017-02-03 11:15:18.356713+01 | 1486116918.35671 | 0/4E38FB08               |            1312357128

 2017-02-03 11:15:19.443801+01 | 1486116919.4438 | 0/4E38FB08               |            1312357128

 2017-02-03 11:15:20.536436+01 | 1486116920.53644 | 0/4E38FB08               |            1312357128

 2017-02-03 11:15:21.635146+01 | 1486116921.63515 | 0/4E38FB08               |            1312357128

 2017-02-03 11:15:22.742182+01 | 1486116922.74218 | 0/4E38FB08               |            1312357128

 2017-02-03 11:15:23.86199+01 | 1486116923.86199 | 0/4E38FB08               |            1312357128

 2017-02-03 11:15:24.960179+01 | 1486116924.96018 | 0/4E38FB08               |            1312357128

 2017-02-03 11:15:26.055036+01 | 1486116926.05504 | 0/4E38FB08               |            1312357128

 2017-02-03 11:15:27.142598+01 | 1486116927.1426 | 0/4E38FB08               |            1312357128

 2017-02-03 11:15:28.228241+01 | 1486116928.22824 | 0/4E38FB08               |            1312357128

 2017-02-03 11:15:29.31934+01 | 1486116929.31934 | 0/4E38FB08               |            1312357128

 2017-02-03 11:15:30.404491+01 | 1486116930.40449 | 0/4E38FB08               |            1312357128

 2017-02-03 11:15:31.497275+01 | 1486116931.49728 | 0/4E38FB08               |            1312357128

 2017-02-03 11:15:32.585167+01 | 1486116932.58517 | 0/4E38FB08               |            1312357128

 2017-02-03 11:15:33.686328+01 | 1486116933.68633 | 0/4E38FB08               |            1312357128

 2017-02-03 11:15:34.78455+01 | 1486116934.78455 | 0/4E38FB08               |            1312357128

 2017-02-03 11:15:35.885296+01 | 1486116935.8853 | 0/4E38FB08               |            1312357128

 2017-02-03 11:15:36.979197+01 | 1486116936.9792 | 0/4E38FB08               |            1312357128

 2017-02-03 11:15:38.08202+01 | 1486116938.08202 | 0/4E38FB08               |            1312357128

 2017-02-03 11:15:39.171342+01 | 1486116939.17134 | 0/4E38FB08               |            1312357128

 2017-02-03 11:15:40.256832+01 | 1486116940.25683 | 0/4E38FB08               |            1312357128

 2017-02-03 11:15:41.351913+01 | 1486116941.35191 | 0/4E38FB08               |            1312357128

 2017-02-03 11:15:42.442838+01 | 1486116942.44284 | 0/4E38FB08               |            1312357128

 2017-02-03 11:15:43.532268+01 | 1486116943.53227 | 0/4E38FB08               |            1312357128

 2017-02-03 11:15:44.640537+01 | 1486116944.64054 | 0/4E38FB08               |            1312357128

 2017-02-03 11:15:45.734806+01 | 1486116945.73481 | 0/4E38FB08               |            1312357128

 2017-02-03 11:15:46.844397+01 | 1486116946.8444 | 0/4E38FB08               |            1312357128

 2017-02-03 11:15:47.943778+01 | 1486116947.94378 | 0/4E38FB08               |            1312357128

 2017-02-03 11:15:49.065188+01 | 1486116949.06519 | 0/4E38FB08               |            1312357128

 2017-02-03 11:15:50.157087+01 | 1486116950.15709 | 0/4E38FB08               |            1312357128

 2017-02-03 11:15:51.242951+01 | 1486116951.24295 | 0/4E38FB08               |            1312357128

 2017-02-03 11:15:52.330234+01 | 1486116952.33023 | 0/4E38FB08               |            1312357128

 2017-02-03 11:15:53.429249+01 | 1486116953.42925 | 0/4E38FB08               |            1312357128

 2017-02-03 11:15:54.52579+01 | 1486116954.52579 | 0/4E38FB08               |            1312357128

 2017-02-03 11:15:55.633264+01 | 1486116955.63326 | 0/4E38FB08               |            1312357128

 2017-02-03 11:15:56.725295+01 | 1486116956.7253 | 0/4E38FB08               |            1312357128

 2017-02-03 11:15:57.821777+01 | 1486116957.82178 | 0/4E38FB08               |            1312357128

 2017-02-03 11:15:58.927169+01 | 1486116958.92717 | 0/4E38FB08               |            1312357128

 2017-02-03 11:16:00.043382+01 | 1486116960.04338 | 0/4E38FB08               |            1312357128

 2017-02-03 11:16:01.134942+01 | 1486116961.13494 | 0/4E38FB08               |            1312357128

 2017-02-03 11:16:02.22351+01 | 1486116962.22351 | 0/4E38FB08               |            1312357128

 2017-02-03 11:16:03.315329+01 | 1486116963.31533 | 0/4E38FB08               |            1312357128

 2017-02-03 11:16:04.404514+01 | 1486116964.40451 | 0/4E38FB08               |            1312357128

 2017-02-03 11:16:05.503202+01 | 1486116965.5032 | 0/4E38FB08               |            1312357128

 2017-02-03 11:16:06.59541+01 | 1486116966.59541 | 0/4E38FB08               |            1312357128

 2017-02-03 11:16:07.692498+01 | 1486116967.6925 | 0/4E38FB08               |            1312357128

 2017-02-03 11:16:08.796837+01 | 1486116968.79684 | 0/4E38FB08               |            1312357128

 2017-02-03 11:16:09.901112+01 | 1486116969.90111 | 0/4E38FB08               |            1312357128

 2017-02-03 11:16:11.004369+01 | 1486116971.00437 | 0/4E38FB08               |            1312357128

 2017-02-03 11:16:12.096424+01 | 1486116972.09642 | 0/4E38FB08               |            1312357128

 2017-02-03 11:16:13.186625+01 | 1486116973.18663 | 0/4E38FB08               |            1312357128

 2017-02-03 11:16:14.272508+01 | 1486116974.27251 | 0/4E38FB08               |            1312357128

 2017-02-03 11:16:15.354798+01 | 1486116975.3548 | 0/4E38FB08               |            1312357128

 2017-02-03 11:16:16.443528+01 | 1486116976.44353 | 0/4E38FB08               |            1312357128

 2017-02-03 11:16:17.538483+01 | 1486116977.53848 | 0/4E38FB08               |            1312357128

 2017-02-03 11:16:18.640618+01 | 1486116978.64062 | 0/4E38FB08               |            1312357128

 2017-02-03 11:16:19.734681+01 | 1486116979.73468 | 0/4E38FB08               |            1312357128

 2017-02-03 11:16:20.834662+01 | 1486116980.83466 | 0/4E38FB08               |            1312357128

 2017-02-03 11:16:21.931602+01 | 1486116981.9316 | 0/4E38FB08               |            1312357128

 2017-02-03 11:16:23.06412+01 | 1486116983.06412 | 0/4E38FB08               |            1312357128

 2017-02-03 11:16:24.16365+01 | 1486116984.16365 | 0/4E38FB08               |            1312357128

 2017-02-03 11:16:25.259322+01 | 1486116985.25932 | 0/4E38FB08               |            1312357128

 2017-02-03 11:16:26.350258+01 | 1486116986.35026 | 0/4E38FB08               |            1312357128

 2017-02-03 11:16:27.439336+01 | 1486116987.43934 | 0/4E38FB08               |            1312357128

 2017-02-03 11:16:28.526105+01 | 1486116988.5261 | 0/4E38FB08               |            1312357128

 2017-02-03 11:16:29.63713+01 | 1486116989.63713 | 0/4E38FB08               |            1312357128

 2017-02-03 11:16:30.733651+01 | 1486116990.73365 | 0/4E38FB08               |            1312357128

 2017-02-03 11:16:31.833666+01 | 1486116991.83367 | 0/4E38FB08               |            1312357128

 2017-02-03 11:16:32.934405+01 | 1486116992.93441 | 0/4E38FB08               |            1312357128

 2017-02-03 11:16:34.034174+01 | 1486116994.03417 | 0/4E38FB08               |            1312357128

 2017-02-03 11:16:35.146103+01 | 1486116995.1461 | 0/4E38FB08               |            1312357128

 2017-02-03 11:16:36.23227+01 | 1486116996.23227 | 0/4E38FB08               |            1312357128

 2017-02-03 11:16:37.31141+01 | 1486116997.31141 | 0/4E38FB08               |            1312357128

 2017-02-03 11:16:38.390969+01 | 1486116998.39097 | 0/4E38FB08               |            1312357128

 2017-02-03 11:16:39.482635+01 | 1486116999.48264 | 0/4E38FB08               |            1312357128

 2017-02-03 11:16:40.578407+01 | 1486117000.57841 | 0/4E38FB08               |            1312357128

 2017-02-03 11:16:41.67798+01 | 1486117001.67798 | 0/4E38FB08               |            1312357128

 2017-02-03 11:16:42.772469+01 | 1486117002.77247 | 0/4E38FB08               |            1312357128

 2017-02-03 11:16:43.871164+01 | 1486117003.87116 | 0/4E38FB08               |            1312357128

 2017-02-03 11:16:44.986209+01 | 1486117004.98621 | 0/4E38FB08               |            1312357128

 2017-02-03 11:16:46.098783+01 | 1486117006.09878 | 0/4E38FB08               |            1312357128

 2017-02-03 11:16:47.199354+01 | 1486117007.19935 | 0/4E38FB08               |            1312357128

 2017-02-03 11:16:48.287716+01 | 1486117008.28772 | 0/4E38FB08               |            1312357128

 2017-02-03 11:16:49.383111+01 | 1486117009.38311 | 0/4E38FB08               |            1312357128

 2017-02-03 11:16:50.472987+01 | 1486117010.47299 | 0/4E38FB08               |            1312357128

 2017-02-03 11:16:51.558225+01 | 1486117011.55822 | 0/4E38FB08               |            1312357128

 2017-02-03 11:16:52.648499+01 | 1486117012.6485 | 0/4E38FB08               |            1312357128

 2017-02-03 11:16:53.739108+01 | 1486117013.73911 | 0/4E38FB08               |            1312357128

 2017-02-03 11:16:54.852748+01 | 1486117014.85275 | 0/4E38FB08               |            1312357128

 2017-02-03 11:16:55.952943+01 | 1486117015.95294 | 0/4E38FB08               |            1312357128

 2017-02-03 11:16:57.057796+01 | 1486117017.0578 | 0/4E38FB08               |            1312357128

 2017-02-03 11:16:58.162187+01 | 1486117018.16219 | 0/4E38FB08               |            1312357128

 2017-02-03 11:16:59.251136+01 | 1486117019.25114 | 0/4E38FB08               |            1312357128

 2017-02-03 11:17:00.335996+01 | 1486117020.336 | 0/4E38FB08               |            1312357128

 2017-02-03 11:17:01.423454+01 | 1486117021.42345 | 0/4E38FB08               |            1312357128

 2017-02-03 11:17:02.50885+01 | 1486117022.50885 | 0/4E38FB08               |            1312357128

 2017-02-03 11:17:03.602946+01 | 1486117023.60295 | 0/4E38FB08               |            1312357128

 2017-02-03 11:17:04.69755+01 | 1486117024.69755 | 0/4E38FB08               |            1312357128

