 2017-02-06 05:37:19.380335+01 | 1486355839.38034 | pgbench_accounts |       1342955520
 2017-02-06 05:37:19.380335+01 | 1486355839.38034 | pgbench_tellers  |            49152
 2017-02-06 05:37:19.380335+01 | 1486355839.38034 | pgbench_history  |                0
 2017-02-06 05:37:19.380335+01 | 1486355839.38034 | pgbench_branches |             8192

 2017-02-06 05:37:20.466217+01 | 1486355840.46622 | pgbench_accounts |       1342955520
 2017-02-06 05:37:20.466217+01 | 1486355840.46622 | pgbench_tellers  |            49152
 2017-02-06 05:37:20.466217+01 | 1486355840.46622 | pgbench_history  |                0
 2017-02-06 05:37:20.466217+01 | 1486355840.46622 | pgbench_branches |             8192

 2017-02-06 05:37:21.554141+01 | 1486355841.55414 | pgbench_accounts |       1342955520
 2017-02-06 05:37:21.554141+01 | 1486355841.55414 | pgbench_tellers  |            49152
 2017-02-06 05:37:21.554141+01 | 1486355841.55414 | pgbench_history  |                0
 2017-02-06 05:37:21.554141+01 | 1486355841.55414 | pgbench_branches |             8192

 2017-02-06 05:37:22.641573+01 | 1486355842.64157 | pgbench_accounts |       1342955520
 2017-02-06 05:37:22.641573+01 | 1486355842.64157 | pgbench_tellers  |            49152
 2017-02-06 05:37:22.641573+01 | 1486355842.64157 | pgbench_history  |                0
 2017-02-06 05:37:22.641573+01 | 1486355842.64157 | pgbench_branches |             8192

 2017-02-06 05:37:23.728274+01 | 1486355843.72827 | pgbench_accounts |       1342955520
 2017-02-06 05:37:23.728274+01 | 1486355843.72827 | pgbench_tellers  |            49152
 2017-02-06 05:37:23.728274+01 | 1486355843.72827 | pgbench_history  |                0
 2017-02-06 05:37:23.728274+01 | 1486355843.72827 | pgbench_branches |             8192

 2017-02-06 05:37:24.801543+01 | 1486355844.80154 | pgbench_accounts |       1342955520
 2017-02-06 05:37:24.801543+01 | 1486355844.80154 | pgbench_tellers  |            49152
 2017-02-06 05:37:24.801543+01 | 1486355844.80154 | pgbench_history  |                0
 2017-02-06 05:37:24.801543+01 | 1486355844.80154 | pgbench_branches |             8192

 2017-02-06 05:37:25.889203+01 | 1486355845.8892 | pgbench_accounts |       1342955520
 2017-02-06 05:37:25.889203+01 | 1486355845.8892 | pgbench_tellers  |            49152
 2017-02-06 05:37:25.889203+01 | 1486355845.8892 | pgbench_history  |                0
 2017-02-06 05:37:25.889203+01 | 1486355845.8892 | pgbench_branches |             8192

 2017-02-06 05:37:26.978099+01 | 1486355846.9781 | pgbench_accounts |       1342955520
 2017-02-06 05:37:26.978099+01 | 1486355846.9781 | pgbench_tellers  |            49152
 2017-02-06 05:37:26.978099+01 | 1486355846.9781 | pgbench_history  |                0
 2017-02-06 05:37:26.978099+01 | 1486355846.9781 | pgbench_branches |             8192

 2017-02-06 05:37:28.063793+01 | 1486355848.06379 | pgbench_accounts |       1342955520
 2017-02-06 05:37:28.063793+01 | 1486355848.06379 | pgbench_tellers  |            49152
 2017-02-06 05:37:28.063793+01 | 1486355848.06379 | pgbench_history  |                0
 2017-02-06 05:37:28.063793+01 | 1486355848.06379 | pgbench_branches |             8192

 2017-02-06 05:37:29.154062+01 | 1486355849.15406 | pgbench_accounts |       1342955520
 2017-02-06 05:37:29.154062+01 | 1486355849.15406 | pgbench_tellers  |            49152
 2017-02-06 05:37:29.154062+01 | 1486355849.15406 | pgbench_history  |                0
 2017-02-06 05:37:29.154062+01 | 1486355849.15406 | pgbench_branches |             8192

 2017-02-06 05:37:30.240783+01 | 1486355850.24078 | pgbench_accounts |       1342955520
 2017-02-06 05:37:30.240783+01 | 1486355850.24078 | pgbench_tellers  |            49152
 2017-02-06 05:37:30.240783+01 | 1486355850.24078 | pgbench_history  |                0
 2017-02-06 05:37:30.240783+01 | 1486355850.24078 | pgbench_branches |             8192

 2017-02-06 05:37:31.329115+01 | 1486355851.32911 | pgbench_accounts |       1342955520
 2017-02-06 05:37:31.329115+01 | 1486355851.32911 | pgbench_tellers  |            49152
 2017-02-06 05:37:31.329115+01 | 1486355851.32911 | pgbench_history  |                0
 2017-02-06 05:37:31.329115+01 | 1486355851.32911 | pgbench_branches |             8192

 2017-02-06 05:37:32.415286+01 | 1486355852.41529 | pgbench_accounts |       1342955520
 2017-02-06 05:37:32.415286+01 | 1486355852.41529 | pgbench_tellers  |            49152
 2017-02-06 05:37:32.415286+01 | 1486355852.41529 | pgbench_history  |                0
 2017-02-06 05:37:32.415286+01 | 1486355852.41529 | pgbench_branches |             8192

 2017-02-06 05:37:33.505034+01 | 1486355853.50503 | pgbench_accounts |       1342955520
 2017-02-06 05:37:33.505034+01 | 1486355853.50503 | pgbench_tellers  |            49152
 2017-02-06 05:37:33.505034+01 | 1486355853.50503 | pgbench_history  |                0
 2017-02-06 05:37:33.505034+01 | 1486355853.50503 | pgbench_branches |             8192

 2017-02-06 05:37:34.594654+01 | 1486355854.59465 | pgbench_accounts |       1342955520
 2017-02-06 05:37:34.594654+01 | 1486355854.59465 | pgbench_tellers  |            49152
 2017-02-06 05:37:34.594654+01 | 1486355854.59465 | pgbench_history  |                0
 2017-02-06 05:37:34.594654+01 | 1486355854.59465 | pgbench_branches |             8192

 2017-02-06 05:37:35.679298+01 | 1486355855.6793 | pgbench_accounts |       1342955520
 2017-02-06 05:37:35.679298+01 | 1486355855.6793 | pgbench_tellers  |            49152
 2017-02-06 05:37:35.679298+01 | 1486355855.6793 | pgbench_history  |                0
 2017-02-06 05:37:35.679298+01 | 1486355855.6793 | pgbench_branches |             8192

 2017-02-06 05:37:36.764185+01 | 1486355856.76418 | pgbench_accounts |       1342955520
 2017-02-06 05:37:36.764185+01 | 1486355856.76418 | pgbench_tellers  |            49152
 2017-02-06 05:37:36.764185+01 | 1486355856.76418 | pgbench_history  |                0
 2017-02-06 05:37:36.764185+01 | 1486355856.76418 | pgbench_branches |             8192

 2017-02-06 05:37:37.853597+01 | 1486355857.8536 | pgbench_accounts |       1342955520
 2017-02-06 05:37:37.853597+01 | 1486355857.8536 | pgbench_tellers  |            49152
 2017-02-06 05:37:37.853597+01 | 1486355857.8536 | pgbench_history  |                0
 2017-02-06 05:37:37.853597+01 | 1486355857.8536 | pgbench_branches |             8192

 2017-02-06 05:37:38.943071+01 | 1486355858.94307 | pgbench_accounts |       1342955520
 2017-02-06 05:37:38.943071+01 | 1486355858.94307 | pgbench_tellers  |            49152
 2017-02-06 05:37:38.943071+01 | 1486355858.94307 | pgbench_history  |                0
 2017-02-06 05:37:38.943071+01 | 1486355858.94307 | pgbench_branches |             8192

 2017-02-06 05:37:40.033089+01 | 1486355860.03309 | pgbench_accounts |       1342955520
 2017-02-06 05:37:40.033089+01 | 1486355860.03309 | pgbench_tellers  |            49152
 2017-02-06 05:37:40.033089+01 | 1486355860.03309 | pgbench_history  |                0
 2017-02-06 05:37:40.033089+01 | 1486355860.03309 | pgbench_branches |             8192

 2017-02-06 05:37:41.115424+01 | 1486355861.11542 | pgbench_accounts |       1342955520
 2017-02-06 05:37:41.115424+01 | 1486355861.11542 | pgbench_tellers  |            49152
 2017-02-06 05:37:41.115424+01 | 1486355861.11542 | pgbench_history  |                0
 2017-02-06 05:37:41.115424+01 | 1486355861.11542 | pgbench_branches |             8192

 2017-02-06 05:37:42.202917+01 | 1486355862.20292 | pgbench_accounts |       1342955520
 2017-02-06 05:37:42.202917+01 | 1486355862.20292 | pgbench_tellers  |            49152
 2017-02-06 05:37:42.202917+01 | 1486355862.20292 | pgbench_history  |                0
 2017-02-06 05:37:42.202917+01 | 1486355862.20292 | pgbench_branches |             8192

 2017-02-06 05:37:43.288204+01 | 1486355863.2882 | pgbench_accounts |       1342955520
 2017-02-06 05:37:43.288204+01 | 1486355863.2882 | pgbench_tellers  |            49152
 2017-02-06 05:37:43.288204+01 | 1486355863.2882 | pgbench_history  |                0
 2017-02-06 05:37:43.288204+01 | 1486355863.2882 | pgbench_branches |             8192

 2017-02-06 05:37:44.387355+01 | 1486355864.38736 | pgbench_accounts |       1342955520
 2017-02-06 05:37:44.387355+01 | 1486355864.38736 | pgbench_tellers  |            49152
 2017-02-06 05:37:44.387355+01 | 1486355864.38736 | pgbench_history  |                0
 2017-02-06 05:37:44.387355+01 | 1486355864.38736 | pgbench_branches |             8192

 2017-02-06 05:37:45.477074+01 | 1486355865.47707 | pgbench_accounts |       1342955520
 2017-02-06 05:37:45.477074+01 | 1486355865.47707 | pgbench_tellers  |            49152
 2017-02-06 05:37:45.477074+01 | 1486355865.47707 | pgbench_history  |                0
 2017-02-06 05:37:45.477074+01 | 1486355865.47707 | pgbench_branches |             8192

 2017-02-06 05:37:46.566437+01 | 1486355866.56644 | pgbench_accounts |       1342955520
 2017-02-06 05:37:46.566437+01 | 1486355866.56644 | pgbench_tellers  |            49152
 2017-02-06 05:37:46.566437+01 | 1486355866.56644 | pgbench_history  |                0
 2017-02-06 05:37:46.566437+01 | 1486355866.56644 | pgbench_branches |             8192

 2017-02-06 05:37:47.652109+01 | 1486355867.65211 | pgbench_accounts |       1342955520
 2017-02-06 05:37:47.652109+01 | 1486355867.65211 | pgbench_tellers  |            49152
 2017-02-06 05:37:47.652109+01 | 1486355867.65211 | pgbench_history  |                0
 2017-02-06 05:37:47.652109+01 | 1486355867.65211 | pgbench_branches |             8192

 2017-02-06 05:37:48.744607+01 | 1486355868.74461 | pgbench_accounts |       1342955520
 2017-02-06 05:37:48.744607+01 | 1486355868.74461 | pgbench_tellers  |            49152
 2017-02-06 05:37:48.744607+01 | 1486355868.74461 | pgbench_history  |                0
 2017-02-06 05:37:48.744607+01 | 1486355868.74461 | pgbench_branches |             8192

 2017-02-06 05:37:49.83287+01 | 1486355869.83287 | pgbench_accounts |       1342955520
 2017-02-06 05:37:49.83287+01 | 1486355869.83287 | pgbench_tellers  |            49152
 2017-02-06 05:37:49.83287+01 | 1486355869.83287 | pgbench_history  |                0
 2017-02-06 05:37:49.83287+01 | 1486355869.83287 | pgbench_branches |             8192

 2017-02-06 05:37:50.921903+01 | 1486355870.9219 | pgbench_accounts |       1342955520
 2017-02-06 05:37:50.921903+01 | 1486355870.9219 | pgbench_tellers  |            49152
 2017-02-06 05:37:50.921903+01 | 1486355870.9219 | pgbench_history  |                0
 2017-02-06 05:37:50.921903+01 | 1486355870.9219 | pgbench_branches |             8192

 2017-02-06 05:37:52.007875+01 | 1486355872.00787 | pgbench_accounts |       1342955520
 2017-02-06 05:37:52.007875+01 | 1486355872.00787 | pgbench_tellers  |            49152
 2017-02-06 05:37:52.007875+01 | 1486355872.00787 | pgbench_history  |                0
 2017-02-06 05:37:52.007875+01 | 1486355872.00787 | pgbench_branches |             8192

 2017-02-06 05:37:53.096082+01 | 1486355873.09608 | pgbench_accounts |       1342955520
 2017-02-06 05:37:53.096082+01 | 1486355873.09608 | pgbench_tellers  |            49152
 2017-02-06 05:37:53.096082+01 | 1486355873.09608 | pgbench_history  |                0
 2017-02-06 05:37:53.096082+01 | 1486355873.09608 | pgbench_branches |             8192

 2017-02-06 05:37:54.182239+01 | 1486355874.18224 | pgbench_accounts |       1342955520
 2017-02-06 05:37:54.182239+01 | 1486355874.18224 | pgbench_tellers  |            49152
 2017-02-06 05:37:54.182239+01 | 1486355874.18224 | pgbench_history  |                0
 2017-02-06 05:37:54.182239+01 | 1486355874.18224 | pgbench_branches |             8192

 2017-02-06 05:37:55.263938+01 | 1486355875.26394 | pgbench_accounts |       1342955520
 2017-02-06 05:37:55.263938+01 | 1486355875.26394 | pgbench_tellers  |            49152
 2017-02-06 05:37:55.263938+01 | 1486355875.26394 | pgbench_history  |                0
 2017-02-06 05:37:55.263938+01 | 1486355875.26394 | pgbench_branches |             8192

 2017-02-06 05:37:56.345273+01 | 1486355876.34527 | pgbench_accounts |       1342955520
 2017-02-06 05:37:56.345273+01 | 1486355876.34527 | pgbench_tellers  |            49152
 2017-02-06 05:37:56.345273+01 | 1486355876.34527 | pgbench_history  |                0
 2017-02-06 05:37:56.345273+01 | 1486355876.34527 | pgbench_branches |             8192

 2017-02-06 05:37:57.430628+01 | 1486355877.43063 | pgbench_accounts |       1342955520
 2017-02-06 05:37:57.430628+01 | 1486355877.43063 | pgbench_tellers  |            49152
 2017-02-06 05:37:57.430628+01 | 1486355877.43063 | pgbench_history  |                0
 2017-02-06 05:37:57.430628+01 | 1486355877.43063 | pgbench_branches |             8192

 2017-02-06 05:37:58.518593+01 | 1486355878.51859 | pgbench_accounts |       1342955520
 2017-02-06 05:37:58.518593+01 | 1486355878.51859 | pgbench_tellers  |            49152
 2017-02-06 05:37:58.518593+01 | 1486355878.51859 | pgbench_history  |                0
 2017-02-06 05:37:58.518593+01 | 1486355878.51859 | pgbench_branches |             8192

 2017-02-06 05:37:59.605272+01 | 1486355879.60527 | pgbench_accounts |       1342955520
 2017-02-06 05:37:59.605272+01 | 1486355879.60527 | pgbench_tellers  |            49152
 2017-02-06 05:37:59.605272+01 | 1486355879.60527 | pgbench_history  |                0
 2017-02-06 05:37:59.605272+01 | 1486355879.60527 | pgbench_branches |             8192

 2017-02-06 05:38:00.693069+01 | 1486355880.69307 | pgbench_accounts |       1342955520
 2017-02-06 05:38:00.693069+01 | 1486355880.69307 | pgbench_tellers  |            49152
 2017-02-06 05:38:00.693069+01 | 1486355880.69307 | pgbench_history  |                0
 2017-02-06 05:38:00.693069+01 | 1486355880.69307 | pgbench_branches |             8192

 2017-02-06 05:38:01.783638+01 | 1486355881.78364 | pgbench_accounts |       1342955520
 2017-02-06 05:38:01.783638+01 | 1486355881.78364 | pgbench_tellers  |            49152
 2017-02-06 05:38:01.783638+01 | 1486355881.78364 | pgbench_history  |                0
 2017-02-06 05:38:01.783638+01 | 1486355881.78364 | pgbench_branches |             8192

 2017-02-06 05:38:02.873664+01 | 1486355882.87366 | pgbench_accounts |       1342955520
 2017-02-06 05:38:02.873664+01 | 1486355882.87366 | pgbench_tellers  |            49152
 2017-02-06 05:38:02.873664+01 | 1486355882.87366 | pgbench_history  |                0
 2017-02-06 05:38:02.873664+01 | 1486355882.87366 | pgbench_branches |             8192

 2017-02-06 05:38:03.958221+01 | 1486355883.95822 | pgbench_accounts |       1342955520
 2017-02-06 05:38:03.958221+01 | 1486355883.95822 | pgbench_tellers  |            49152
 2017-02-06 05:38:03.958221+01 | 1486355883.95822 | pgbench_history  |                0
 2017-02-06 05:38:03.958221+01 | 1486355883.95822 | pgbench_branches |             8192

 2017-02-06 05:38:05.046964+01 | 1486355885.04696 | pgbench_accounts |       1342955520
 2017-02-06 05:38:05.046964+01 | 1486355885.04696 | pgbench_tellers  |            49152
 2017-02-06 05:38:05.046964+01 | 1486355885.04696 | pgbench_history  |                0
 2017-02-06 05:38:05.046964+01 | 1486355885.04696 | pgbench_branches |             8192

 2017-02-06 05:38:06.132885+01 | 1486355886.13288 | pgbench_accounts |       1342955520
 2017-02-06 05:38:06.132885+01 | 1486355886.13288 | pgbench_tellers  |            49152
 2017-02-06 05:38:06.132885+01 | 1486355886.13288 | pgbench_history  |                0
 2017-02-06 05:38:06.132885+01 | 1486355886.13288 | pgbench_branches |             8192

 2017-02-06 05:38:07.215763+01 | 1486355887.21576 | pgbench_accounts |       1342955520
 2017-02-06 05:38:07.215763+01 | 1486355887.21576 | pgbench_tellers  |            49152
 2017-02-06 05:38:07.215763+01 | 1486355887.21576 | pgbench_history  |                0
 2017-02-06 05:38:07.215763+01 | 1486355887.21576 | pgbench_branches |             8192

 2017-02-06 05:38:08.302828+01 | 1486355888.30283 | pgbench_accounts |       1342955520
 2017-02-06 05:38:08.302828+01 | 1486355888.30283 | pgbench_tellers  |            49152
 2017-02-06 05:38:08.302828+01 | 1486355888.30283 | pgbench_history  |                0
 2017-02-06 05:38:08.302828+01 | 1486355888.30283 | pgbench_branches |             8192

 2017-02-06 05:38:09.392399+01 | 1486355889.3924 | pgbench_accounts |       1342955520
 2017-02-06 05:38:09.392399+01 | 1486355889.3924 | pgbench_tellers  |            49152
 2017-02-06 05:38:09.392399+01 | 1486355889.3924 | pgbench_history  |                0
 2017-02-06 05:38:09.392399+01 | 1486355889.3924 | pgbench_branches |             8192

 2017-02-06 05:38:10.481127+01 | 1486355890.48113 | pgbench_accounts |       1342955520
 2017-02-06 05:38:10.481127+01 | 1486355890.48113 | pgbench_tellers  |            49152
 2017-02-06 05:38:10.481127+01 | 1486355890.48113 | pgbench_history  |                0
 2017-02-06 05:38:10.481127+01 | 1486355890.48113 | pgbench_branches |             8192

 2017-02-06 05:38:11.568984+01 | 1486355891.56898 | pgbench_accounts |       1342955520
 2017-02-06 05:38:11.568984+01 | 1486355891.56898 | pgbench_tellers  |            49152
 2017-02-06 05:38:11.568984+01 | 1486355891.56898 | pgbench_history  |                0
 2017-02-06 05:38:11.568984+01 | 1486355891.56898 | pgbench_branches |             8192

 2017-02-06 05:38:12.656399+01 | 1486355892.6564 | pgbench_accounts |       1342955520
 2017-02-06 05:38:12.656399+01 | 1486355892.6564 | pgbench_tellers  |            49152
 2017-02-06 05:38:12.656399+01 | 1486355892.6564 | pgbench_history  |                0
 2017-02-06 05:38:12.656399+01 | 1486355892.6564 | pgbench_branches |             8192

 2017-02-06 05:38:13.744011+01 | 1486355893.74401 | pgbench_accounts |       1342955520
 2017-02-06 05:38:13.744011+01 | 1486355893.74401 | pgbench_tellers  |            49152
 2017-02-06 05:38:13.744011+01 | 1486355893.74401 | pgbench_history  |                0
 2017-02-06 05:38:13.744011+01 | 1486355893.74401 | pgbench_branches |             8192

 2017-02-06 05:38:14.827171+01 | 1486355894.82717 | pgbench_accounts |       1342955520
 2017-02-06 05:38:14.827171+01 | 1486355894.82717 | pgbench_tellers  |            49152
 2017-02-06 05:38:14.827171+01 | 1486355894.82717 | pgbench_history  |                0
 2017-02-06 05:38:14.827171+01 | 1486355894.82717 | pgbench_branches |             8192

 2017-02-06 05:38:15.914111+01 | 1486355895.91411 | pgbench_accounts |       1342955520
 2017-02-06 05:38:15.914111+01 | 1486355895.91411 | pgbench_tellers  |            49152
 2017-02-06 05:38:15.914111+01 | 1486355895.91411 | pgbench_history  |                0
 2017-02-06 05:38:15.914111+01 | 1486355895.91411 | pgbench_branches |             8192

 2017-02-06 05:38:17.000013+01 | 1486355897.00001 | pgbench_accounts |       1342955520
 2017-02-06 05:38:17.000013+01 | 1486355897.00001 | pgbench_tellers  |            49152
 2017-02-06 05:38:17.000013+01 | 1486355897.00001 | pgbench_history  |                0
 2017-02-06 05:38:17.000013+01 | 1486355897.00001 | pgbench_branches |             8192

 2017-02-06 05:38:18.089908+01 | 1486355898.08991 | pgbench_accounts |       1342955520
 2017-02-06 05:38:18.089908+01 | 1486355898.08991 | pgbench_tellers  |            49152
 2017-02-06 05:38:18.089908+01 | 1486355898.08991 | pgbench_history  |                0
 2017-02-06 05:38:18.089908+01 | 1486355898.08991 | pgbench_branches |             8192

 2017-02-06 05:38:19.173839+01 | 1486355899.17384 | pgbench_accounts |       1342955520
 2017-02-06 05:38:19.173839+01 | 1486355899.17384 | pgbench_tellers  |            49152
 2017-02-06 05:38:19.173839+01 | 1486355899.17384 | pgbench_history  |                0
 2017-02-06 05:38:19.173839+01 | 1486355899.17384 | pgbench_branches |             8192

 2017-02-06 05:38:20.258219+01 | 1486355900.25822 | pgbench_accounts |       1342955520
 2017-02-06 05:38:20.258219+01 | 1486355900.25822 | pgbench_tellers  |            49152
 2017-02-06 05:38:20.258219+01 | 1486355900.25822 | pgbench_history  |                0
 2017-02-06 05:38:20.258219+01 | 1486355900.25822 | pgbench_branches |             8192

 2017-02-06 05:38:21.341565+01 | 1486355901.34156 | pgbench_accounts |       1342955520
 2017-02-06 05:38:21.341565+01 | 1486355901.34156 | pgbench_tellers  |            49152
 2017-02-06 05:38:21.341565+01 | 1486355901.34156 | pgbench_history  |                0
 2017-02-06 05:38:21.341565+01 | 1486355901.34156 | pgbench_branches |             8192

 2017-02-06 05:38:22.431516+01 | 1486355902.43152 | pgbench_accounts |       1342955520
 2017-02-06 05:38:22.431516+01 | 1486355902.43152 | pgbench_tellers  |            49152
 2017-02-06 05:38:22.431516+01 | 1486355902.43152 | pgbench_history  |                0
 2017-02-06 05:38:22.431516+01 | 1486355902.43152 | pgbench_branches |             8192

 2017-02-06 05:38:23.516526+01 | 1486355903.51653 | pgbench_accounts |       1342955520
 2017-02-06 05:38:23.516526+01 | 1486355903.51653 | pgbench_tellers  |            49152
 2017-02-06 05:38:23.516526+01 | 1486355903.51653 | pgbench_history  |                0
 2017-02-06 05:38:23.516526+01 | 1486355903.51653 | pgbench_branches |             8192

 2017-02-06 05:38:24.595607+01 | 1486355904.59561 | pgbench_accounts |       1342955520
 2017-02-06 05:38:24.595607+01 | 1486355904.59561 | pgbench_tellers  |            49152
 2017-02-06 05:38:24.595607+01 | 1486355904.59561 | pgbench_history  |                0
 2017-02-06 05:38:24.595607+01 | 1486355904.59561 | pgbench_branches |             8192

 2017-02-06 05:38:25.685924+01 | 1486355905.68592 | pgbench_accounts |       1342955520
 2017-02-06 05:38:25.685924+01 | 1486355905.68592 | pgbench_tellers  |            49152
 2017-02-06 05:38:25.685924+01 | 1486355905.68592 | pgbench_history  |                0
 2017-02-06 05:38:25.685924+01 | 1486355905.68592 | pgbench_branches |             8192

 2017-02-06 05:38:26.774664+01 | 1486355906.77466 | pgbench_accounts |       1342955520
 2017-02-06 05:38:26.774664+01 | 1486355906.77466 | pgbench_tellers  |            49152
 2017-02-06 05:38:26.774664+01 | 1486355906.77466 | pgbench_history  |                0
 2017-02-06 05:38:26.774664+01 | 1486355906.77466 | pgbench_branches |             8192

 2017-02-06 05:38:27.863434+01 | 1486355907.86343 | pgbench_accounts |       1342955520
 2017-02-06 05:38:27.863434+01 | 1486355907.86343 | pgbench_tellers  |            49152
 2017-02-06 05:38:27.863434+01 | 1486355907.86343 | pgbench_history  |                0
 2017-02-06 05:38:27.863434+01 | 1486355907.86343 | pgbench_branches |             8192

 2017-02-06 05:38:28.946806+01 | 1486355908.94681 | pgbench_accounts |       1342955520
 2017-02-06 05:38:28.946806+01 | 1486355908.94681 | pgbench_tellers  |            49152
 2017-02-06 05:38:28.946806+01 | 1486355908.94681 | pgbench_history  |                0
 2017-02-06 05:38:28.946806+01 | 1486355908.94681 | pgbench_branches |             8192

 2017-02-06 05:38:30.030818+01 | 1486355910.03082 | pgbench_accounts |       1342955520
 2017-02-06 05:38:30.030818+01 | 1486355910.03082 | pgbench_tellers  |            49152
 2017-02-06 05:38:30.030818+01 | 1486355910.03082 | pgbench_history  |                0
 2017-02-06 05:38:30.030818+01 | 1486355910.03082 | pgbench_branches |             8192

 2017-02-06 05:38:31.11437+01 | 1486355911.11437 | pgbench_accounts |       1342955520
 2017-02-06 05:38:31.11437+01 | 1486355911.11437 | pgbench_tellers  |            49152
 2017-02-06 05:38:31.11437+01 | 1486355911.11437 | pgbench_history  |                0
 2017-02-06 05:38:31.11437+01 | 1486355911.11437 | pgbench_branches |             8192

 2017-02-06 05:38:32.205443+01 | 1486355912.20544 | pgbench_accounts |       1342955520
 2017-02-06 05:38:32.205443+01 | 1486355912.20544 | pgbench_tellers  |            49152
 2017-02-06 05:38:32.205443+01 | 1486355912.20544 | pgbench_history  |                0
 2017-02-06 05:38:32.205443+01 | 1486355912.20544 | pgbench_branches |             8192

 2017-02-06 05:38:33.28817+01 | 1486355913.28817 | pgbench_accounts |       1342955520
 2017-02-06 05:38:33.28817+01 | 1486355913.28817 | pgbench_tellers  |            49152
 2017-02-06 05:38:33.28817+01 | 1486355913.28817 | pgbench_history  |                0
 2017-02-06 05:38:33.28817+01 | 1486355913.28817 | pgbench_branches |             8192

 2017-02-06 05:38:34.376263+01 | 1486355914.37626 | pgbench_accounts |       1342955520
 2017-02-06 05:38:34.376263+01 | 1486355914.37626 | pgbench_tellers  |            49152
 2017-02-06 05:38:34.376263+01 | 1486355914.37626 | pgbench_history  |                0
 2017-02-06 05:38:34.376263+01 | 1486355914.37626 | pgbench_branches |             8192

 2017-02-06 05:38:35.462372+01 | 1486355915.46237 | pgbench_accounts |       1342955520
 2017-02-06 05:38:35.462372+01 | 1486355915.46237 | pgbench_tellers  |            49152
 2017-02-06 05:38:35.462372+01 | 1486355915.46237 | pgbench_history  |                0
 2017-02-06 05:38:35.462372+01 | 1486355915.46237 | pgbench_branches |             8192

 2017-02-06 05:38:36.546993+01 | 1486355916.54699 | pgbench_accounts |       1342955520
 2017-02-06 05:38:36.546993+01 | 1486355916.54699 | pgbench_tellers  |            49152
 2017-02-06 05:38:36.546993+01 | 1486355916.54699 | pgbench_history  |                0
 2017-02-06 05:38:36.546993+01 | 1486355916.54699 | pgbench_branches |             8192

 2017-02-06 05:38:37.637476+01 | 1486355917.63748 | pgbench_accounts |       1342955520
 2017-02-06 05:38:37.637476+01 | 1486355917.63748 | pgbench_tellers  |            49152
 2017-02-06 05:38:37.637476+01 | 1486355917.63748 | pgbench_history  |                0
 2017-02-06 05:38:37.637476+01 | 1486355917.63748 | pgbench_branches |             8192

 2017-02-06 05:38:38.729943+01 | 1486355918.72994 | pgbench_accounts |       1342955520
 2017-02-06 05:38:38.729943+01 | 1486355918.72994 | pgbench_tellers  |            49152
 2017-02-06 05:38:38.729943+01 | 1486355918.72994 | pgbench_history  |                0
 2017-02-06 05:38:38.729943+01 | 1486355918.72994 | pgbench_branches |             8192

 2017-02-06 05:38:39.821393+01 | 1486355919.82139 | pgbench_accounts |       1342955520
 2017-02-06 05:38:39.821393+01 | 1486355919.82139 | pgbench_tellers  |            49152
 2017-02-06 05:38:39.821393+01 | 1486355919.82139 | pgbench_history  |                0
 2017-02-06 05:38:39.821393+01 | 1486355919.82139 | pgbench_branches |             8192

 2017-02-06 05:38:40.911608+01 | 1486355920.91161 | pgbench_accounts |       1342955520
 2017-02-06 05:38:40.911608+01 | 1486355920.91161 | pgbench_tellers  |            49152
 2017-02-06 05:38:40.911608+01 | 1486355920.91161 | pgbench_history  |                0
 2017-02-06 05:38:40.911608+01 | 1486355920.91161 | pgbench_branches |             8192

 2017-02-06 05:38:41.996513+01 | 1486355921.99651 | pgbench_accounts |       1342955520
 2017-02-06 05:38:41.996513+01 | 1486355921.99651 | pgbench_tellers  |            49152
 2017-02-06 05:38:41.996513+01 | 1486355921.99651 | pgbench_history  |                0
 2017-02-06 05:38:41.996513+01 | 1486355921.99651 | pgbench_branches |             8192

 2017-02-06 05:38:43.084433+01 | 1486355923.08443 | pgbench_accounts |       1342955520
 2017-02-06 05:38:43.084433+01 | 1486355923.08443 | pgbench_tellers  |            49152
 2017-02-06 05:38:43.084433+01 | 1486355923.08443 | pgbench_history  |                0
 2017-02-06 05:38:43.084433+01 | 1486355923.08443 | pgbench_branches |             8192

 2017-02-06 05:38:44.172259+01 | 1486355924.17226 | pgbench_accounts |       1342955520
 2017-02-06 05:38:44.172259+01 | 1486355924.17226 | pgbench_tellers  |            49152
 2017-02-06 05:38:44.172259+01 | 1486355924.17226 | pgbench_history  |                0
 2017-02-06 05:38:44.172259+01 | 1486355924.17226 | pgbench_branches |             8192

 2017-02-06 05:38:45.259532+01 | 1486355925.25953 | pgbench_accounts |       1342955520
 2017-02-06 05:38:45.259532+01 | 1486355925.25953 | pgbench_tellers  |            49152
 2017-02-06 05:38:45.259532+01 | 1486355925.25953 | pgbench_history  |                0
 2017-02-06 05:38:45.259532+01 | 1486355925.25953 | pgbench_branches |             8192

 2017-02-06 05:38:46.344558+01 | 1486355926.34456 | pgbench_accounts |       1342955520
 2017-02-06 05:38:46.344558+01 | 1486355926.34456 | pgbench_tellers  |            49152
 2017-02-06 05:38:46.344558+01 | 1486355926.34456 | pgbench_history  |                0
 2017-02-06 05:38:46.344558+01 | 1486355926.34456 | pgbench_branches |             8192

 2017-02-06 05:38:47.431441+01 | 1486355927.43144 | pgbench_accounts |       1342955520
 2017-02-06 05:38:47.431441+01 | 1486355927.43144 | pgbench_tellers  |            49152
 2017-02-06 05:38:47.431441+01 | 1486355927.43144 | pgbench_history  |                0
 2017-02-06 05:38:47.431441+01 | 1486355927.43144 | pgbench_branches |             8192

 2017-02-06 05:38:48.52047+01 | 1486355928.52047 | pgbench_accounts |       1342955520
 2017-02-06 05:38:48.52047+01 | 1486355928.52047 | pgbench_tellers  |            49152
 2017-02-06 05:38:48.52047+01 | 1486355928.52047 | pgbench_history  |                0
 2017-02-06 05:38:48.52047+01 | 1486355928.52047 | pgbench_branches |             8192

 2017-02-06 05:38:49.604927+01 | 1486355929.60493 | pgbench_accounts |       1342955520
 2017-02-06 05:38:49.604927+01 | 1486355929.60493 | pgbench_tellers  |            49152
 2017-02-06 05:38:49.604927+01 | 1486355929.60493 | pgbench_history  |                0
 2017-02-06 05:38:49.604927+01 | 1486355929.60493 | pgbench_branches |             8192

 2017-02-06 05:38:50.692236+01 | 1486355930.69224 | pgbench_accounts |       1342955520
 2017-02-06 05:38:50.692236+01 | 1486355930.69224 | pgbench_tellers  |            49152
 2017-02-06 05:38:50.692236+01 | 1486355930.69224 | pgbench_history  |                0
 2017-02-06 05:38:50.692236+01 | 1486355930.69224 | pgbench_branches |             8192

 2017-02-06 05:38:51.771412+01 | 1486355931.77141 | pgbench_accounts |       1342955520
 2017-02-06 05:38:51.771412+01 | 1486355931.77141 | pgbench_tellers  |            49152
 2017-02-06 05:38:51.771412+01 | 1486355931.77141 | pgbench_history  |                0
 2017-02-06 05:38:51.771412+01 | 1486355931.77141 | pgbench_branches |             8192

 2017-02-06 05:38:52.865338+01 | 1486355932.86534 | pgbench_accounts |       1342955520
 2017-02-06 05:38:52.865338+01 | 1486355932.86534 | pgbench_tellers  |            49152
 2017-02-06 05:38:52.865338+01 | 1486355932.86534 | pgbench_history  |                0
 2017-02-06 05:38:52.865338+01 | 1486355932.86534 | pgbench_branches |             8192

 2017-02-06 05:38:53.95229+01 | 1486355933.95229 | pgbench_accounts |       1342955520
 2017-02-06 05:38:53.95229+01 | 1486355933.95229 | pgbench_tellers  |            49152
 2017-02-06 05:38:53.95229+01 | 1486355933.95229 | pgbench_history  |                0
 2017-02-06 05:38:53.95229+01 | 1486355933.95229 | pgbench_branches |             8192

 2017-02-06 05:38:55.036366+01 | 1486355935.03637 | pgbench_accounts |       1342955520
 2017-02-06 05:38:55.036366+01 | 1486355935.03637 | pgbench_tellers  |            49152
 2017-02-06 05:38:55.036366+01 | 1486355935.03637 | pgbench_history  |                0
 2017-02-06 05:38:55.036366+01 | 1486355935.03637 | pgbench_branches |             8192

 2017-02-06 05:38:56.117822+01 | 1486355936.11782 | pgbench_accounts |       1342955520
 2017-02-06 05:38:56.117822+01 | 1486355936.11782 | pgbench_tellers  |            49152
 2017-02-06 05:38:56.117822+01 | 1486355936.11782 | pgbench_history  |                0
 2017-02-06 05:38:56.117822+01 | 1486355936.11782 | pgbench_branches |             8192

 2017-02-06 05:38:57.202631+01 | 1486355937.20263 | pgbench_accounts |       1342955520
 2017-02-06 05:38:57.202631+01 | 1486355937.20263 | pgbench_tellers  |            49152
 2017-02-06 05:38:57.202631+01 | 1486355937.20263 | pgbench_history  |                0
 2017-02-06 05:38:57.202631+01 | 1486355937.20263 | pgbench_branches |             8192

 2017-02-06 05:38:58.289862+01 | 1486355938.28986 | pgbench_accounts |       1342955520
 2017-02-06 05:38:58.289862+01 | 1486355938.28986 | pgbench_tellers  |            49152
 2017-02-06 05:38:58.289862+01 | 1486355938.28986 | pgbench_history  |                0
 2017-02-06 05:38:58.289862+01 | 1486355938.28986 | pgbench_branches |             8192

 2017-02-06 05:38:59.373195+01 | 1486355939.37319 | pgbench_accounts |       1342955520
 2017-02-06 05:38:59.373195+01 | 1486355939.37319 | pgbench_tellers  |            49152
 2017-02-06 05:38:59.373195+01 | 1486355939.37319 | pgbench_history  |                0
 2017-02-06 05:38:59.373195+01 | 1486355939.37319 | pgbench_branches |             8192

 2017-02-06 05:39:00.452739+01 | 1486355940.45274 | pgbench_accounts |       1342955520
 2017-02-06 05:39:00.452739+01 | 1486355940.45274 | pgbench_tellers  |            49152
 2017-02-06 05:39:00.452739+01 | 1486355940.45274 | pgbench_history  |                0
 2017-02-06 05:39:00.452739+01 | 1486355940.45274 | pgbench_branches |             8192

 2017-02-06 05:39:01.540706+01 | 1486355941.54071 | pgbench_accounts |       1342955520
 2017-02-06 05:39:01.540706+01 | 1486355941.54071 | pgbench_tellers  |            49152
 2017-02-06 05:39:01.540706+01 | 1486355941.54071 | pgbench_history  |                0
 2017-02-06 05:39:01.540706+01 | 1486355941.54071 | pgbench_branches |             8192

 2017-02-06 05:39:02.629955+01 | 1486355942.62996 | pgbench_accounts |       1342955520
 2017-02-06 05:39:02.629955+01 | 1486355942.62996 | pgbench_tellers  |            49152
 2017-02-06 05:39:02.629955+01 | 1486355942.62996 | pgbench_history  |                0
 2017-02-06 05:39:02.629955+01 | 1486355942.62996 | pgbench_branches |             8192

 2017-02-06 05:39:03.712944+01 | 1486355943.71294 | pgbench_accounts |       1342955520
 2017-02-06 05:39:03.712944+01 | 1486355943.71294 | pgbench_tellers  |            49152
 2017-02-06 05:39:03.712944+01 | 1486355943.71294 | pgbench_history  |                0
 2017-02-06 05:39:03.712944+01 | 1486355943.71294 | pgbench_branches |             8192

 2017-02-06 05:39:04.79766+01 | 1486355944.79766 | pgbench_accounts |       1342955520
 2017-02-06 05:39:04.79766+01 | 1486355944.79766 | pgbench_tellers  |            49152
 2017-02-06 05:39:04.79766+01 | 1486355944.79766 | pgbench_history  |                0
 2017-02-06 05:39:04.79766+01 | 1486355944.79766 | pgbench_branches |             8192

 2017-02-06 05:39:05.884166+01 | 1486355945.88417 | pgbench_accounts |       1342955520
 2017-02-06 05:39:05.884166+01 | 1486355945.88417 | pgbench_tellers  |            49152
 2017-02-06 05:39:05.884166+01 | 1486355945.88417 | pgbench_history  |                0
 2017-02-06 05:39:05.884166+01 | 1486355945.88417 | pgbench_branches |             8192

 2017-02-06 05:39:06.97215+01 | 1486355946.97215 | pgbench_accounts |       1342955520
 2017-02-06 05:39:06.97215+01 | 1486355946.97215 | pgbench_tellers  |            49152
 2017-02-06 05:39:06.97215+01 | 1486355946.97215 | pgbench_history  |                0
 2017-02-06 05:39:06.97215+01 | 1486355946.97215 | pgbench_branches |             8192

 2017-02-06 05:39:08.056159+01 | 1486355948.05616 | pgbench_accounts |       1342955520
 2017-02-06 05:39:08.056159+01 | 1486355948.05616 | pgbench_tellers  |            49152
 2017-02-06 05:39:08.056159+01 | 1486355948.05616 | pgbench_history  |                0
 2017-02-06 05:39:08.056159+01 | 1486355948.05616 | pgbench_branches |             8192

 2017-02-06 05:39:09.139366+01 | 1486355949.13937 | pgbench_accounts |       1342955520
 2017-02-06 05:39:09.139366+01 | 1486355949.13937 | pgbench_tellers  |            49152
 2017-02-06 05:39:09.139366+01 | 1486355949.13937 | pgbench_history  |                0
 2017-02-06 05:39:09.139366+01 | 1486355949.13937 | pgbench_branches |             8192

 2017-02-06 05:39:10.230344+01 | 1486355950.23034 | pgbench_accounts |       1342955520
 2017-02-06 05:39:10.230344+01 | 1486355950.23034 | pgbench_tellers  |            49152
 2017-02-06 05:39:10.230344+01 | 1486355950.23034 | pgbench_history  |                0
 2017-02-06 05:39:10.230344+01 | 1486355950.23034 | pgbench_branches |             8192

 2017-02-06 05:39:11.314624+01 | 1486355951.31462 | pgbench_accounts |       1342955520
 2017-02-06 05:39:11.314624+01 | 1486355951.31462 | pgbench_tellers  |            49152
 2017-02-06 05:39:11.314624+01 | 1486355951.31462 | pgbench_history  |                0
 2017-02-06 05:39:11.314624+01 | 1486355951.31462 | pgbench_branches |             8192

 2017-02-06 05:39:12.395437+01 | 1486355952.39544 | pgbench_accounts |       1342955520
 2017-02-06 05:39:12.395437+01 | 1486355952.39544 | pgbench_tellers  |            49152
 2017-02-06 05:39:12.395437+01 | 1486355952.39544 | pgbench_history  |                0
 2017-02-06 05:39:12.395437+01 | 1486355952.39544 | pgbench_branches |             8192

 2017-02-06 05:39:13.481984+01 | 1486355953.48198 | pgbench_accounts |       1342955520
 2017-02-06 05:39:13.481984+01 | 1486355953.48198 | pgbench_tellers  |            49152
 2017-02-06 05:39:13.481984+01 | 1486355953.48198 | pgbench_history  |                0
 2017-02-06 05:39:13.481984+01 | 1486355953.48198 | pgbench_branches |             8192

 2017-02-06 05:39:14.569008+01 | 1486355954.56901 | pgbench_accounts |       1342955520
 2017-02-06 05:39:14.569008+01 | 1486355954.56901 | pgbench_tellers  |            49152
 2017-02-06 05:39:14.569008+01 | 1486355954.56901 | pgbench_history  |                0
 2017-02-06 05:39:14.569008+01 | 1486355954.56901 | pgbench_branches |             8192

 2017-02-06 05:39:15.661286+01 | 1486355955.66129 | pgbench_accounts |       1342955520
 2017-02-06 05:39:15.661286+01 | 1486355955.66129 | pgbench_tellers  |            49152
 2017-02-06 05:39:15.661286+01 | 1486355955.66129 | pgbench_history  |                0
 2017-02-06 05:39:15.661286+01 | 1486355955.66129 | pgbench_branches |             8192

 2017-02-06 05:39:16.749721+01 | 1486355956.74972 | pgbench_accounts |       1342955520
 2017-02-06 05:39:16.749721+01 | 1486355956.74972 | pgbench_tellers  |            49152
 2017-02-06 05:39:16.749721+01 | 1486355956.74972 | pgbench_history  |                0
 2017-02-06 05:39:16.749721+01 | 1486355956.74972 | pgbench_branches |             8192

 2017-02-06 05:39:17.837336+01 | 1486355957.83734 | pgbench_accounts |       1342955520
 2017-02-06 05:39:17.837336+01 | 1486355957.83734 | pgbench_tellers  |            49152
 2017-02-06 05:39:17.837336+01 | 1486355957.83734 | pgbench_history  |                0
 2017-02-06 05:39:17.837336+01 | 1486355957.83734 | pgbench_branches |             8192

 2017-02-06 05:39:18.928244+01 | 1486355958.92824 | pgbench_accounts |       1342955520
 2017-02-06 05:39:18.928244+01 | 1486355958.92824 | pgbench_tellers  |            49152
 2017-02-06 05:39:18.928244+01 | 1486355958.92824 | pgbench_history  |                0
 2017-02-06 05:39:18.928244+01 | 1486355958.92824 | pgbench_branches |             8192

 2017-02-06 05:39:20.01801+01 | 1486355960.01801 | pgbench_accounts |       1342955520
 2017-02-06 05:39:20.01801+01 | 1486355960.01801 | pgbench_tellers  |            49152
 2017-02-06 05:39:20.01801+01 | 1486355960.01801 | pgbench_history  |                0
 2017-02-06 05:39:20.01801+01 | 1486355960.01801 | pgbench_branches |             8192

 2017-02-06 05:39:21.099036+01 | 1486355961.09904 | pgbench_accounts |       1342955520
 2017-02-06 05:39:21.099036+01 | 1486355961.09904 | pgbench_tellers  |            49152
 2017-02-06 05:39:21.099036+01 | 1486355961.09904 | pgbench_history  |                0
 2017-02-06 05:39:21.099036+01 | 1486355961.09904 | pgbench_branches |             8192

 2017-02-06 05:39:22.182911+01 | 1486355962.18291 | pgbench_accounts |       1342955520
 2017-02-06 05:39:22.182911+01 | 1486355962.18291 | pgbench_tellers  |            49152
 2017-02-06 05:39:22.182911+01 | 1486355962.18291 | pgbench_history  |                0
 2017-02-06 05:39:22.182911+01 | 1486355962.18291 | pgbench_branches |             8192

 2017-02-06 05:39:23.275888+01 | 1486355963.27589 | pgbench_accounts |       1342955520
 2017-02-06 05:39:23.275888+01 | 1486355963.27589 | pgbench_tellers  |            49152
 2017-02-06 05:39:23.275888+01 | 1486355963.27589 | pgbench_history  |                0
 2017-02-06 05:39:23.275888+01 | 1486355963.27589 | pgbench_branches |             8192

 2017-02-06 05:39:24.371463+01 | 1486355964.37146 | pgbench_accounts |       1342955520
 2017-02-06 05:39:24.371463+01 | 1486355964.37146 | pgbench_tellers  |            49152
 2017-02-06 05:39:24.371463+01 | 1486355964.37146 | pgbench_history  |                0
 2017-02-06 05:39:24.371463+01 | 1486355964.37146 | pgbench_branches |             8192

 2017-02-06 05:39:25.462068+01 | 1486355965.46207 | pgbench_accounts |       1342955520
 2017-02-06 05:39:25.462068+01 | 1486355965.46207 | pgbench_tellers  |            49152
 2017-02-06 05:39:25.462068+01 | 1486355965.46207 | pgbench_history  |                0
 2017-02-06 05:39:25.462068+01 | 1486355965.46207 | pgbench_branches |             8192

 2017-02-06 05:39:26.548934+01 | 1486355966.54893 | pgbench_accounts |       1342955520
 2017-02-06 05:39:26.548934+01 | 1486355966.54893 | pgbench_tellers  |            49152
 2017-02-06 05:39:26.548934+01 | 1486355966.54893 | pgbench_history  |                0
 2017-02-06 05:39:26.548934+01 | 1486355966.54893 | pgbench_branches |             8192

 2017-02-06 05:39:27.634217+01 | 1486355967.63422 | pgbench_accounts |       1342955520
 2017-02-06 05:39:27.634217+01 | 1486355967.63422 | pgbench_tellers  |            49152
 2017-02-06 05:39:27.634217+01 | 1486355967.63422 | pgbench_history  |                0
 2017-02-06 05:39:27.634217+01 | 1486355967.63422 | pgbench_branches |             8192

 2017-02-06 05:39:28.722081+01 | 1486355968.72208 | pgbench_accounts |       1342955520
 2017-02-06 05:39:28.722081+01 | 1486355968.72208 | pgbench_tellers  |            49152
 2017-02-06 05:39:28.722081+01 | 1486355968.72208 | pgbench_history  |                0
 2017-02-06 05:39:28.722081+01 | 1486355968.72208 | pgbench_branches |             8192

 2017-02-06 05:39:29.811981+01 | 1486355969.81198 | pgbench_accounts |       1342955520
 2017-02-06 05:39:29.811981+01 | 1486355969.81198 | pgbench_tellers  |            49152
 2017-02-06 05:39:29.811981+01 | 1486355969.81198 | pgbench_history  |                0
 2017-02-06 05:39:29.811981+01 | 1486355969.81198 | pgbench_branches |             8192

 2017-02-06 05:39:30.90532+01 | 1486355970.90532 | pgbench_accounts |       1342955520
 2017-02-06 05:39:30.90532+01 | 1486355970.90532 | pgbench_tellers  |            49152
 2017-02-06 05:39:30.90532+01 | 1486355970.90532 | pgbench_history  |                0
 2017-02-06 05:39:30.90532+01 | 1486355970.90532 | pgbench_branches |             8192

 2017-02-06 05:39:31.995559+01 | 1486355971.99556 | pgbench_accounts |       1342955520
 2017-02-06 05:39:31.995559+01 | 1486355971.99556 | pgbench_tellers  |            49152
 2017-02-06 05:39:31.995559+01 | 1486355971.99556 | pgbench_history  |                0
 2017-02-06 05:39:31.995559+01 | 1486355971.99556 | pgbench_branches |             8192

 2017-02-06 05:39:33.076741+01 | 1486355973.07674 | pgbench_accounts |       1342955520
 2017-02-06 05:39:33.076741+01 | 1486355973.07674 | pgbench_tellers  |            49152
 2017-02-06 05:39:33.076741+01 | 1486355973.07674 | pgbench_history  |                0
 2017-02-06 05:39:33.076741+01 | 1486355973.07674 | pgbench_branches |             8192

 2017-02-06 05:39:34.163454+01 | 1486355974.16345 | pgbench_accounts |       1342955520
 2017-02-06 05:39:34.163454+01 | 1486355974.16345 | pgbench_tellers  |            49152
 2017-02-06 05:39:34.163454+01 | 1486355974.16345 | pgbench_history  |                0
 2017-02-06 05:39:34.163454+01 | 1486355974.16345 | pgbench_branches |             8192

 2017-02-06 05:39:35.248036+01 | 1486355975.24804 | pgbench_accounts |       1342955520
 2017-02-06 05:39:35.248036+01 | 1486355975.24804 | pgbench_tellers  |            49152
 2017-02-06 05:39:35.248036+01 | 1486355975.24804 | pgbench_history  |                0
 2017-02-06 05:39:35.248036+01 | 1486355975.24804 | pgbench_branches |             8192

 2017-02-06 05:39:36.331919+01 | 1486355976.33192 | pgbench_accounts |       1342955520
 2017-02-06 05:39:36.331919+01 | 1486355976.33192 | pgbench_tellers  |            49152
 2017-02-06 05:39:36.331919+01 | 1486355976.33192 | pgbench_history  |                0
 2017-02-06 05:39:36.331919+01 | 1486355976.33192 | pgbench_branches |             8192

 2017-02-06 05:39:37.413567+01 | 1486355977.41357 | pgbench_accounts |       1342955520
 2017-02-06 05:39:37.413567+01 | 1486355977.41357 | pgbench_tellers  |            49152
 2017-02-06 05:39:37.413567+01 | 1486355977.41357 | pgbench_history  |                0
 2017-02-06 05:39:37.413567+01 | 1486355977.41357 | pgbench_branches |             8192

 2017-02-06 05:39:38.497698+01 | 1486355978.4977 | pgbench_accounts |       1342955520
 2017-02-06 05:39:38.497698+01 | 1486355978.4977 | pgbench_tellers  |            49152
 2017-02-06 05:39:38.497698+01 | 1486355978.4977 | pgbench_history  |                0
 2017-02-06 05:39:38.497698+01 | 1486355978.4977 | pgbench_branches |             8192

 2017-02-06 05:39:39.579461+01 | 1486355979.57946 | pgbench_accounts |       1342955520
 2017-02-06 05:39:39.579461+01 | 1486355979.57946 | pgbench_tellers  |            49152
 2017-02-06 05:39:39.579461+01 | 1486355979.57946 | pgbench_history  |                0
 2017-02-06 05:39:39.579461+01 | 1486355979.57946 | pgbench_branches |             8192

 2017-02-06 05:39:40.673955+01 | 1486355980.67395 | pgbench_accounts |       1342955520
 2017-02-06 05:39:40.673955+01 | 1486355980.67395 | pgbench_tellers  |            49152
 2017-02-06 05:39:40.673955+01 | 1486355980.67395 | pgbench_history  |                0
 2017-02-06 05:39:40.673955+01 | 1486355980.67395 | pgbench_branches |             8192

 2017-02-06 05:39:41.758536+01 | 1486355981.75854 | pgbench_accounts |       1342955520
 2017-02-06 05:39:41.758536+01 | 1486355981.75854 | pgbench_tellers  |            49152
 2017-02-06 05:39:41.758536+01 | 1486355981.75854 | pgbench_history  |                0
 2017-02-06 05:39:41.758536+01 | 1486355981.75854 | pgbench_branches |             8192

 2017-02-06 05:39:42.842459+01 | 1486355982.84246 | pgbench_accounts |       1342955520
 2017-02-06 05:39:42.842459+01 | 1486355982.84246 | pgbench_tellers  |            49152
 2017-02-06 05:39:42.842459+01 | 1486355982.84246 | pgbench_history  |                0
 2017-02-06 05:39:42.842459+01 | 1486355982.84246 | pgbench_branches |             8192

 2017-02-06 05:39:43.926229+01 | 1486355983.92623 | pgbench_accounts |       1342955520
 2017-02-06 05:39:43.926229+01 | 1486355983.92623 | pgbench_tellers  |            49152
 2017-02-06 05:39:43.926229+01 | 1486355983.92623 | pgbench_history  |                0
 2017-02-06 05:39:43.926229+01 | 1486355983.92623 | pgbench_branches |             8192

 2017-02-06 05:39:45.017507+01 | 1486355985.01751 | pgbench_accounts |       1342955520
 2017-02-06 05:39:45.017507+01 | 1486355985.01751 | pgbench_tellers  |            49152
 2017-02-06 05:39:45.017507+01 | 1486355985.01751 | pgbench_history  |                0
 2017-02-06 05:39:45.017507+01 | 1486355985.01751 | pgbench_branches |             8192

 2017-02-06 05:39:46.099011+01 | 1486355986.09901 | pgbench_accounts |       1342955520
 2017-02-06 05:39:46.099011+01 | 1486355986.09901 | pgbench_tellers  |            49152
 2017-02-06 05:39:46.099011+01 | 1486355986.09901 | pgbench_history  |                0
 2017-02-06 05:39:46.099011+01 | 1486355986.09901 | pgbench_branches |             8192

 2017-02-06 05:39:47.180847+01 | 1486355987.18085 | pgbench_accounts |       1342955520
 2017-02-06 05:39:47.180847+01 | 1486355987.18085 | pgbench_tellers  |            49152
 2017-02-06 05:39:47.180847+01 | 1486355987.18085 | pgbench_history  |                0
 2017-02-06 05:39:47.180847+01 | 1486355987.18085 | pgbench_branches |             8192

 2017-02-06 05:39:48.264178+01 | 1486355988.26418 | pgbench_accounts |       1342955520
 2017-02-06 05:39:48.264178+01 | 1486355988.26418 | pgbench_tellers  |            49152
 2017-02-06 05:39:48.264178+01 | 1486355988.26418 | pgbench_history  |                0
 2017-02-06 05:39:48.264178+01 | 1486355988.26418 | pgbench_branches |             8192

 2017-02-06 05:39:49.35469+01 | 1486355989.35469 | pgbench_accounts |       1342955520
 2017-02-06 05:39:49.35469+01 | 1486355989.35469 | pgbench_tellers  |            49152
 2017-02-06 05:39:49.35469+01 | 1486355989.35469 | pgbench_history  |                0
 2017-02-06 05:39:49.35469+01 | 1486355989.35469 | pgbench_branches |             8192

 2017-02-06 05:39:50.436649+01 | 1486355990.43665 | pgbench_accounts |       1342955520
 2017-02-06 05:39:50.436649+01 | 1486355990.43665 | pgbench_tellers  |            49152
 2017-02-06 05:39:50.436649+01 | 1486355990.43665 | pgbench_history  |                0
 2017-02-06 05:39:50.436649+01 | 1486355990.43665 | pgbench_branches |             8192

 2017-02-06 05:39:51.52565+01 | 1486355991.52565 | pgbench_accounts |       1342955520
 2017-02-06 05:39:51.52565+01 | 1486355991.52565 | pgbench_tellers  |            49152
 2017-02-06 05:39:51.52565+01 | 1486355991.52565 | pgbench_history  |                0
 2017-02-06 05:39:51.52565+01 | 1486355991.52565 | pgbench_branches |             8192

 2017-02-06 05:39:52.614779+01 | 1486355992.61478 | pgbench_accounts |       1342955520
 2017-02-06 05:39:52.614779+01 | 1486355992.61478 | pgbench_tellers  |            49152
 2017-02-06 05:39:52.614779+01 | 1486355992.61478 | pgbench_history  |                0
 2017-02-06 05:39:52.614779+01 | 1486355992.61478 | pgbench_branches |             8192

 2017-02-06 05:39:53.709109+01 | 1486355993.70911 | pgbench_accounts |       1342955520
 2017-02-06 05:39:53.709109+01 | 1486355993.70911 | pgbench_tellers  |            49152
 2017-02-06 05:39:53.709109+01 | 1486355993.70911 | pgbench_history  |                0
 2017-02-06 05:39:53.709109+01 | 1486355993.70911 | pgbench_branches |             8192

 2017-02-06 05:39:54.803159+01 | 1486355994.80316 | pgbench_accounts |       1342955520
 2017-02-06 05:39:54.803159+01 | 1486355994.80316 | pgbench_tellers  |            49152
 2017-02-06 05:39:54.803159+01 | 1486355994.80316 | pgbench_history  |                0
 2017-02-06 05:39:54.803159+01 | 1486355994.80316 | pgbench_branches |             8192

 2017-02-06 05:39:55.88768+01 | 1486355995.88768 | pgbench_accounts |       1342955520
 2017-02-06 05:39:55.88768+01 | 1486355995.88768 | pgbench_tellers  |            49152
 2017-02-06 05:39:55.88768+01 | 1486355995.88768 | pgbench_history  |                0
 2017-02-06 05:39:55.88768+01 | 1486355995.88768 | pgbench_branches |             8192

 2017-02-06 05:39:56.963791+01 | 1486355996.96379 | pgbench_accounts |       1342955520
 2017-02-06 05:39:56.963791+01 | 1486355996.96379 | pgbench_tellers  |            49152
 2017-02-06 05:39:56.963791+01 | 1486355996.96379 | pgbench_history  |                0
 2017-02-06 05:39:56.963791+01 | 1486355996.96379 | pgbench_branches |             8192

 2017-02-06 05:39:58.046076+01 | 1486355998.04608 | pgbench_accounts |       1342955520
 2017-02-06 05:39:58.046076+01 | 1486355998.04608 | pgbench_tellers  |            49152
 2017-02-06 05:39:58.046076+01 | 1486355998.04608 | pgbench_history  |                0
 2017-02-06 05:39:58.046076+01 | 1486355998.04608 | pgbench_branches |             8192

 2017-02-06 05:39:59.13538+01 | 1486355999.13538 | pgbench_accounts |       1342955520
 2017-02-06 05:39:59.13538+01 | 1486355999.13538 | pgbench_tellers  |            49152
 2017-02-06 05:39:59.13538+01 | 1486355999.13538 | pgbench_history  |                0
 2017-02-06 05:39:59.13538+01 | 1486355999.13538 | pgbench_branches |             8192

 2017-02-06 05:40:00.215639+01 | 1486356000.21564 | pgbench_accounts |       1342955520
 2017-02-06 05:40:00.215639+01 | 1486356000.21564 | pgbench_tellers  |            49152
 2017-02-06 05:40:00.215639+01 | 1486356000.21564 | pgbench_history  |                0
 2017-02-06 05:40:00.215639+01 | 1486356000.21564 | pgbench_branches |             8192

 2017-02-06 05:40:01.307938+01 | 1486356001.30794 | pgbench_accounts |       1342955520
 2017-02-06 05:40:01.307938+01 | 1486356001.30794 | pgbench_tellers  |            49152
 2017-02-06 05:40:01.307938+01 | 1486356001.30794 | pgbench_history  |                0
 2017-02-06 05:40:01.307938+01 | 1486356001.30794 | pgbench_branches |             8192

 2017-02-06 05:40:02.388271+01 | 1486356002.38827 | pgbench_accounts |       1342955520
 2017-02-06 05:40:02.388271+01 | 1486356002.38827 | pgbench_tellers  |            49152
 2017-02-06 05:40:02.388271+01 | 1486356002.38827 | pgbench_history  |                0
 2017-02-06 05:40:02.388271+01 | 1486356002.38827 | pgbench_branches |             8192

 2017-02-06 05:40:03.478736+01 | 1486356003.47874 | pgbench_accounts |       1342955520
 2017-02-06 05:40:03.478736+01 | 1486356003.47874 | pgbench_tellers  |            49152
 2017-02-06 05:40:03.478736+01 | 1486356003.47874 | pgbench_history  |                0
 2017-02-06 05:40:03.478736+01 | 1486356003.47874 | pgbench_branches |             8192

 2017-02-06 05:40:04.56507+01 | 1486356004.56507 | pgbench_accounts |       1342955520
 2017-02-06 05:40:04.56507+01 | 1486356004.56507 | pgbench_tellers  |            49152
 2017-02-06 05:40:04.56507+01 | 1486356004.56507 | pgbench_history  |                0
 2017-02-06 05:40:04.56507+01 | 1486356004.56507 | pgbench_branches |             8192

 2017-02-06 05:40:05.657402+01 | 1486356005.6574 | pgbench_accounts |       1342955520
 2017-02-06 05:40:05.657402+01 | 1486356005.6574 | pgbench_tellers  |            49152
 2017-02-06 05:40:05.657402+01 | 1486356005.6574 | pgbench_history  |                0
 2017-02-06 05:40:05.657402+01 | 1486356005.6574 | pgbench_branches |             8192

 2017-02-06 05:40:06.74715+01 | 1486356006.74715 | pgbench_accounts |       1342955520
 2017-02-06 05:40:06.74715+01 | 1486356006.74715 | pgbench_tellers  |            49152
 2017-02-06 05:40:06.74715+01 | 1486356006.74715 | pgbench_history  |                0
 2017-02-06 05:40:06.74715+01 | 1486356006.74715 | pgbench_branches |             8192

 2017-02-06 05:40:07.837817+01 | 1486356007.83782 | pgbench_accounts |       1342955520
 2017-02-06 05:40:07.837817+01 | 1486356007.83782 | pgbench_tellers  |            49152
 2017-02-06 05:40:07.837817+01 | 1486356007.83782 | pgbench_history  |                0
 2017-02-06 05:40:07.837817+01 | 1486356007.83782 | pgbench_branches |             8192

 2017-02-06 05:40:08.919078+01 | 1486356008.91908 | pgbench_accounts |       1342955520
 2017-02-06 05:40:08.919078+01 | 1486356008.91908 | pgbench_tellers  |            49152
 2017-02-06 05:40:08.919078+01 | 1486356008.91908 | pgbench_history  |                0
 2017-02-06 05:40:08.919078+01 | 1486356008.91908 | pgbench_branches |             8192

 2017-02-06 05:40:10.015498+01 | 1486356010.0155 | pgbench_accounts |       1342955520
 2017-02-06 05:40:10.015498+01 | 1486356010.0155 | pgbench_tellers  |            49152
 2017-02-06 05:40:10.015498+01 | 1486356010.0155 | pgbench_history  |                0
 2017-02-06 05:40:10.015498+01 | 1486356010.0155 | pgbench_branches |             8192

 2017-02-06 05:40:11.10627+01 | 1486356011.10627 | pgbench_accounts |       1342955520
 2017-02-06 05:40:11.10627+01 | 1486356011.10627 | pgbench_tellers  |            49152
 2017-02-06 05:40:11.10627+01 | 1486356011.10627 | pgbench_history  |                0
 2017-02-06 05:40:11.10627+01 | 1486356011.10627 | pgbench_branches |             8192

 2017-02-06 05:40:12.196878+01 | 1486356012.19688 | pgbench_accounts |       1342955520
 2017-02-06 05:40:12.196878+01 | 1486356012.19688 | pgbench_tellers  |            49152
 2017-02-06 05:40:12.196878+01 | 1486356012.19688 | pgbench_history  |                0
 2017-02-06 05:40:12.196878+01 | 1486356012.19688 | pgbench_branches |             8192

 2017-02-06 05:40:13.288727+01 | 1486356013.28873 | pgbench_accounts |       1342955520
 2017-02-06 05:40:13.288727+01 | 1486356013.28873 | pgbench_tellers  |            49152
 2017-02-06 05:40:13.288727+01 | 1486356013.28873 | pgbench_history  |                0
 2017-02-06 05:40:13.288727+01 | 1486356013.28873 | pgbench_branches |             8192

 2017-02-06 05:40:14.378229+01 | 1486356014.37823 | pgbench_accounts |       1342955520
 2017-02-06 05:40:14.378229+01 | 1486356014.37823 | pgbench_tellers  |            49152
 2017-02-06 05:40:14.378229+01 | 1486356014.37823 | pgbench_history  |                0
 2017-02-06 05:40:14.378229+01 | 1486356014.37823 | pgbench_branches |             8192

 2017-02-06 05:40:15.464528+01 | 1486356015.46453 | pgbench_accounts |       1342955520
 2017-02-06 05:40:15.464528+01 | 1486356015.46453 | pgbench_tellers  |            49152
 2017-02-06 05:40:15.464528+01 | 1486356015.46453 | pgbench_history  |                0
 2017-02-06 05:40:15.464528+01 | 1486356015.46453 | pgbench_branches |             8192

 2017-02-06 05:40:16.551595+01 | 1486356016.55159 | pgbench_accounts |       1342955520
 2017-02-06 05:40:16.551595+01 | 1486356016.55159 | pgbench_tellers  |            49152
 2017-02-06 05:40:16.551595+01 | 1486356016.55159 | pgbench_history  |                0
 2017-02-06 05:40:16.551595+01 | 1486356016.55159 | pgbench_branches |             8192

 2017-02-06 05:40:17.632235+01 | 1486356017.63224 | pgbench_accounts |       1342955520
 2017-02-06 05:40:17.632235+01 | 1486356017.63224 | pgbench_tellers  |            49152
 2017-02-06 05:40:17.632235+01 | 1486356017.63224 | pgbench_history  |                0
 2017-02-06 05:40:17.632235+01 | 1486356017.63224 | pgbench_branches |             8192

 2017-02-06 05:40:18.718542+01 | 1486356018.71854 | pgbench_accounts |       1342955520
 2017-02-06 05:40:18.718542+01 | 1486356018.71854 | pgbench_tellers  |            49152
 2017-02-06 05:40:18.718542+01 | 1486356018.71854 | pgbench_history  |                0
 2017-02-06 05:40:18.718542+01 | 1486356018.71854 | pgbench_branches |             8192

 2017-02-06 05:40:19.800852+01 | 1486356019.80085 | pgbench_accounts |       1342955520
 2017-02-06 05:40:19.800852+01 | 1486356019.80085 | pgbench_tellers  |            49152
 2017-02-06 05:40:19.800852+01 | 1486356019.80085 | pgbench_history  |                0
 2017-02-06 05:40:19.800852+01 | 1486356019.80085 | pgbench_branches |             8192

 2017-02-06 05:40:20.897519+01 | 1486356020.89752 | pgbench_accounts |       1342955520
 2017-02-06 05:40:20.897519+01 | 1486356020.89752 | pgbench_tellers  |            49152
 2017-02-06 05:40:20.897519+01 | 1486356020.89752 | pgbench_history  |                0
 2017-02-06 05:40:20.897519+01 | 1486356020.89752 | pgbench_branches |             8192

 2017-02-06 05:40:21.990636+01 | 1486356021.99064 | pgbench_accounts |       1342955520
 2017-02-06 05:40:21.990636+01 | 1486356021.99064 | pgbench_tellers  |            49152
 2017-02-06 05:40:21.990636+01 | 1486356021.99064 | pgbench_history  |                0
 2017-02-06 05:40:21.990636+01 | 1486356021.99064 | pgbench_branches |             8192

 2017-02-06 05:40:23.089837+01 | 1486356023.08984 | pgbench_accounts |       1342955520
 2017-02-06 05:40:23.089837+01 | 1486356023.08984 | pgbench_tellers  |            49152
 2017-02-06 05:40:23.089837+01 | 1486356023.08984 | pgbench_history  |                0
 2017-02-06 05:40:23.089837+01 | 1486356023.08984 | pgbench_branches |             8192

 2017-02-06 05:40:24.176293+01 | 1486356024.17629 | pgbench_accounts |       1342955520
 2017-02-06 05:40:24.176293+01 | 1486356024.17629 | pgbench_tellers  |            49152
 2017-02-06 05:40:24.176293+01 | 1486356024.17629 | pgbench_history  |                0
 2017-02-06 05:40:24.176293+01 | 1486356024.17629 | pgbench_branches |             8192

 2017-02-06 05:40:25.265992+01 | 1486356025.26599 | pgbench_accounts |       1342955520
 2017-02-06 05:40:25.265992+01 | 1486356025.26599 | pgbench_tellers  |            49152
 2017-02-06 05:40:25.265992+01 | 1486356025.26599 | pgbench_history  |                0
 2017-02-06 05:40:25.265992+01 | 1486356025.26599 | pgbench_branches |             8192

 2017-02-06 05:40:26.34605+01 | 1486356026.34605 | pgbench_accounts |       1342955520
 2017-02-06 05:40:26.34605+01 | 1486356026.34605 | pgbench_tellers  |            49152
 2017-02-06 05:40:26.34605+01 | 1486356026.34605 | pgbench_history  |                0
 2017-02-06 05:40:26.34605+01 | 1486356026.34605 | pgbench_branches |             8192

 2017-02-06 05:40:27.435269+01 | 1486356027.43527 | pgbench_accounts |       1342955520
 2017-02-06 05:40:27.435269+01 | 1486356027.43527 | pgbench_tellers  |            49152
 2017-02-06 05:40:27.435269+01 | 1486356027.43527 | pgbench_history  |                0
 2017-02-06 05:40:27.435269+01 | 1486356027.43527 | pgbench_branches |             8192

 2017-02-06 05:40:28.522189+01 | 1486356028.52219 | pgbench_accounts |       1342955520
 2017-02-06 05:40:28.522189+01 | 1486356028.52219 | pgbench_tellers  |            49152
 2017-02-06 05:40:28.522189+01 | 1486356028.52219 | pgbench_history  |                0
 2017-02-06 05:40:28.522189+01 | 1486356028.52219 | pgbench_branches |             8192

 2017-02-06 05:40:29.614399+01 | 1486356029.6144 | pgbench_accounts |       1342955520
 2017-02-06 05:40:29.614399+01 | 1486356029.6144 | pgbench_tellers  |            49152
 2017-02-06 05:40:29.614399+01 | 1486356029.6144 | pgbench_history  |                0
 2017-02-06 05:40:29.614399+01 | 1486356029.6144 | pgbench_branches |             8192

 2017-02-06 05:40:30.70484+01 | 1486356030.70484 | pgbench_accounts |       1342955520
 2017-02-06 05:40:30.70484+01 | 1486356030.70484 | pgbench_tellers  |            49152
 2017-02-06 05:40:30.70484+01 | 1486356030.70484 | pgbench_history  |                0
 2017-02-06 05:40:30.70484+01 | 1486356030.70484 | pgbench_branches |             8192

 2017-02-06 05:40:31.785677+01 | 1486356031.78568 | pgbench_accounts |       1342955520
 2017-02-06 05:40:31.785677+01 | 1486356031.78568 | pgbench_tellers  |            49152
 2017-02-06 05:40:31.785677+01 | 1486356031.78568 | pgbench_history  |                0
 2017-02-06 05:40:31.785677+01 | 1486356031.78568 | pgbench_branches |             8192

 2017-02-06 05:40:32.877934+01 | 1486356032.87793 | pgbench_accounts |       1342955520
 2017-02-06 05:40:32.877934+01 | 1486356032.87793 | pgbench_tellers  |            49152
 2017-02-06 05:40:32.877934+01 | 1486356032.87793 | pgbench_history  |                0
 2017-02-06 05:40:32.877934+01 | 1486356032.87793 | pgbench_branches |             8192

 2017-02-06 05:40:33.965949+01 | 1486356033.96595 | pgbench_accounts |       1342955520
 2017-02-06 05:40:33.965949+01 | 1486356033.96595 | pgbench_tellers  |            49152
 2017-02-06 05:40:33.965949+01 | 1486356033.96595 | pgbench_history  |                0
 2017-02-06 05:40:33.965949+01 | 1486356033.96595 | pgbench_branches |             8192

 2017-02-06 05:40:35.050509+01 | 1486356035.05051 | pgbench_accounts |       1342955520
 2017-02-06 05:40:35.050509+01 | 1486356035.05051 | pgbench_tellers  |            49152
 2017-02-06 05:40:35.050509+01 | 1486356035.05051 | pgbench_history  |                0
 2017-02-06 05:40:35.050509+01 | 1486356035.05051 | pgbench_branches |             8192

 2017-02-06 05:40:36.135461+01 | 1486356036.13546 | pgbench_accounts |       1342955520
 2017-02-06 05:40:36.135461+01 | 1486356036.13546 | pgbench_tellers  |            49152
 2017-02-06 05:40:36.135461+01 | 1486356036.13546 | pgbench_history  |                0
 2017-02-06 05:40:36.135461+01 | 1486356036.13546 | pgbench_branches |             8192

 2017-02-06 05:40:37.221795+01 | 1486356037.2218 | pgbench_accounts |       1342955520
 2017-02-06 05:40:37.221795+01 | 1486356037.2218 | pgbench_tellers  |            49152
 2017-02-06 05:40:37.221795+01 | 1486356037.2218 | pgbench_history  |                0
 2017-02-06 05:40:37.221795+01 | 1486356037.2218 | pgbench_branches |             8192

 2017-02-06 05:40:38.313354+01 | 1486356038.31335 | pgbench_accounts |       1342955520
 2017-02-06 05:40:38.313354+01 | 1486356038.31335 | pgbench_tellers  |            49152
 2017-02-06 05:40:38.313354+01 | 1486356038.31335 | pgbench_history  |                0
 2017-02-06 05:40:38.313354+01 | 1486356038.31335 | pgbench_branches |             8192

 2017-02-06 05:40:39.403431+01 | 1486356039.40343 | pgbench_accounts |       1342955520
 2017-02-06 05:40:39.403431+01 | 1486356039.40343 | pgbench_tellers  |            49152
 2017-02-06 05:40:39.403431+01 | 1486356039.40343 | pgbench_history  |                0
 2017-02-06 05:40:39.403431+01 | 1486356039.40343 | pgbench_branches |             8192

 2017-02-06 05:40:40.488162+01 | 1486356040.48816 | pgbench_accounts |       1342955520
 2017-02-06 05:40:40.488162+01 | 1486356040.48816 | pgbench_tellers  |            49152
 2017-02-06 05:40:40.488162+01 | 1486356040.48816 | pgbench_history  |                0
 2017-02-06 05:40:40.488162+01 | 1486356040.48816 | pgbench_branches |             8192

 2017-02-06 05:40:41.572138+01 | 1486356041.57214 | pgbench_accounts |       1342955520
 2017-02-06 05:40:41.572138+01 | 1486356041.57214 | pgbench_tellers  |            49152
 2017-02-06 05:40:41.572138+01 | 1486356041.57214 | pgbench_history  |                0
 2017-02-06 05:40:41.572138+01 | 1486356041.57214 | pgbench_branches |             8192

 2017-02-06 05:40:42.658803+01 | 1486356042.6588 | pgbench_accounts |       1342955520
 2017-02-06 05:40:42.658803+01 | 1486356042.6588 | pgbench_tellers  |            49152
 2017-02-06 05:40:42.658803+01 | 1486356042.6588 | pgbench_history  |                0
 2017-02-06 05:40:42.658803+01 | 1486356042.6588 | pgbench_branches |             8192

 2017-02-06 05:40:43.745592+01 | 1486356043.74559 | pgbench_accounts |       1342955520
 2017-02-06 05:40:43.745592+01 | 1486356043.74559 | pgbench_tellers  |            49152
 2017-02-06 05:40:43.745592+01 | 1486356043.74559 | pgbench_history  |                0
 2017-02-06 05:40:43.745592+01 | 1486356043.74559 | pgbench_branches |             8192

 2017-02-06 05:40:44.84039+01 | 1486356044.84039 | pgbench_accounts |       1342955520
 2017-02-06 05:40:44.84039+01 | 1486356044.84039 | pgbench_tellers  |            49152
 2017-02-06 05:40:44.84039+01 | 1486356044.84039 | pgbench_history  |                0
 2017-02-06 05:40:44.84039+01 | 1486356044.84039 | pgbench_branches |             8192

 2017-02-06 05:40:45.931993+01 | 1486356045.93199 | pgbench_accounts |       1342955520
 2017-02-06 05:40:45.931993+01 | 1486356045.93199 | pgbench_tellers  |            49152
 2017-02-06 05:40:45.931993+01 | 1486356045.93199 | pgbench_history  |                0
 2017-02-06 05:40:45.931993+01 | 1486356045.93199 | pgbench_branches |             8192

 2017-02-06 05:40:47.018027+01 | 1486356047.01803 | pgbench_accounts |       1342955520
 2017-02-06 05:40:47.018027+01 | 1486356047.01803 | pgbench_tellers  |            49152
 2017-02-06 05:40:47.018027+01 | 1486356047.01803 | pgbench_history  |                0
 2017-02-06 05:40:47.018027+01 | 1486356047.01803 | pgbench_branches |             8192

 2017-02-06 05:40:48.106177+01 | 1486356048.10618 | pgbench_accounts |       1342955520
 2017-02-06 05:40:48.106177+01 | 1486356048.10618 | pgbench_tellers  |            49152
 2017-02-06 05:40:48.106177+01 | 1486356048.10618 | pgbench_history  |                0
 2017-02-06 05:40:48.106177+01 | 1486356048.10618 | pgbench_branches |             8192

 2017-02-06 05:40:49.197391+01 | 1486356049.19739 | pgbench_accounts |       1342955520
 2017-02-06 05:40:49.197391+01 | 1486356049.19739 | pgbench_tellers  |            49152
 2017-02-06 05:40:49.197391+01 | 1486356049.19739 | pgbench_history  |                0
 2017-02-06 05:40:49.197391+01 | 1486356049.19739 | pgbench_branches |             8192

 2017-02-06 05:40:50.283112+01 | 1486356050.28311 | pgbench_accounts |       1342955520
 2017-02-06 05:40:50.283112+01 | 1486356050.28311 | pgbench_tellers  |            49152
 2017-02-06 05:40:50.283112+01 | 1486356050.28311 | pgbench_history  |                0
 2017-02-06 05:40:50.283112+01 | 1486356050.28311 | pgbench_branches |             8192

 2017-02-06 05:40:51.374042+01 | 1486356051.37404 | pgbench_accounts |       1342955520
 2017-02-06 05:40:51.374042+01 | 1486356051.37404 | pgbench_tellers  |            49152
 2017-02-06 05:40:51.374042+01 | 1486356051.37404 | pgbench_history  |                0
 2017-02-06 05:40:51.374042+01 | 1486356051.37404 | pgbench_branches |             8192

 2017-02-06 05:40:52.456066+01 | 1486356052.45607 | pgbench_accounts |       1342955520
 2017-02-06 05:40:52.456066+01 | 1486356052.45607 | pgbench_tellers  |            49152
 2017-02-06 05:40:52.456066+01 | 1486356052.45607 | pgbench_history  |                0
 2017-02-06 05:40:52.456066+01 | 1486356052.45607 | pgbench_branches |             8192

 2017-02-06 05:40:53.535336+01 | 1486356053.53534 | pgbench_accounts |       1342955520
 2017-02-06 05:40:53.535336+01 | 1486356053.53534 | pgbench_tellers  |            49152
 2017-02-06 05:40:53.535336+01 | 1486356053.53534 | pgbench_history  |                0
 2017-02-06 05:40:53.535336+01 | 1486356053.53534 | pgbench_branches |             8192

 2017-02-06 05:40:54.62123+01 | 1486356054.62123 | pgbench_accounts |       1342955520
 2017-02-06 05:40:54.62123+01 | 1486356054.62123 | pgbench_tellers  |            49152
 2017-02-06 05:40:54.62123+01 | 1486356054.62123 | pgbench_history  |                0
 2017-02-06 05:40:54.62123+01 | 1486356054.62123 | pgbench_branches |             8192

 2017-02-06 05:40:55.710226+01 | 1486356055.71023 | pgbench_accounts |       1342955520
 2017-02-06 05:40:55.710226+01 | 1486356055.71023 | pgbench_tellers  |            49152
 2017-02-06 05:40:55.710226+01 | 1486356055.71023 | pgbench_history  |                0
 2017-02-06 05:40:55.710226+01 | 1486356055.71023 | pgbench_branches |             8192

 2017-02-06 05:40:56.792273+01 | 1486356056.79227 | pgbench_accounts |       1342955520
 2017-02-06 05:40:56.792273+01 | 1486356056.79227 | pgbench_tellers  |            49152
 2017-02-06 05:40:56.792273+01 | 1486356056.79227 | pgbench_history  |                0
 2017-02-06 05:40:56.792273+01 | 1486356056.79227 | pgbench_branches |             8192

 2017-02-06 05:40:57.877717+01 | 1486356057.87772 | pgbench_accounts |       1342955520
 2017-02-06 05:40:57.877717+01 | 1486356057.87772 | pgbench_tellers  |            49152
 2017-02-06 05:40:57.877717+01 | 1486356057.87772 | pgbench_history  |                0
 2017-02-06 05:40:57.877717+01 | 1486356057.87772 | pgbench_branches |             8192

 2017-02-06 05:40:58.968949+01 | 1486356058.96895 | pgbench_accounts |       1342955520
 2017-02-06 05:40:58.968949+01 | 1486356058.96895 | pgbench_tellers  |            49152
 2017-02-06 05:40:58.968949+01 | 1486356058.96895 | pgbench_history  |                0
 2017-02-06 05:40:58.968949+01 | 1486356058.96895 | pgbench_branches |             8192

 2017-02-06 05:41:00.053536+01 | 1486356060.05354 | pgbench_accounts |       1342955520
 2017-02-06 05:41:00.053536+01 | 1486356060.05354 | pgbench_tellers  |            49152
 2017-02-06 05:41:00.053536+01 | 1486356060.05354 | pgbench_history  |                0
 2017-02-06 05:41:00.053536+01 | 1486356060.05354 | pgbench_branches |             8192

 2017-02-06 05:41:01.14251+01 | 1486356061.14251 | pgbench_accounts |       1342955520
 2017-02-06 05:41:01.14251+01 | 1486356061.14251 | pgbench_tellers  |            49152
 2017-02-06 05:41:01.14251+01 | 1486356061.14251 | pgbench_history  |                0
 2017-02-06 05:41:01.14251+01 | 1486356061.14251 | pgbench_branches |             8192

 2017-02-06 05:41:02.234614+01 | 1486356062.23461 | pgbench_accounts |       1342955520
 2017-02-06 05:41:02.234614+01 | 1486356062.23461 | pgbench_tellers  |            49152
 2017-02-06 05:41:02.234614+01 | 1486356062.23461 | pgbench_history  |                0
 2017-02-06 05:41:02.234614+01 | 1486356062.23461 | pgbench_branches |             8192

 2017-02-06 05:41:03.319653+01 | 1486356063.31965 | pgbench_accounts |       1342955520
 2017-02-06 05:41:03.319653+01 | 1486356063.31965 | pgbench_tellers  |            49152
 2017-02-06 05:41:03.319653+01 | 1486356063.31965 | pgbench_history  |                0
 2017-02-06 05:41:03.319653+01 | 1486356063.31965 | pgbench_branches |             8192

 2017-02-06 05:41:04.410208+01 | 1486356064.41021 | pgbench_accounts |       1342955520
 2017-02-06 05:41:04.410208+01 | 1486356064.41021 | pgbench_tellers  |            49152
 2017-02-06 05:41:04.410208+01 | 1486356064.41021 | pgbench_history  |                0
 2017-02-06 05:41:04.410208+01 | 1486356064.41021 | pgbench_branches |             8192

 2017-02-06 05:41:05.494135+01 | 1486356065.49413 | pgbench_accounts |       1342955520
 2017-02-06 05:41:05.494135+01 | 1486356065.49413 | pgbench_tellers  |            49152
 2017-02-06 05:41:05.494135+01 | 1486356065.49413 | pgbench_history  |                0
 2017-02-06 05:41:05.494135+01 | 1486356065.49413 | pgbench_branches |             8192

 2017-02-06 05:41:06.58515+01 | 1486356066.58515 | pgbench_accounts |       1342955520
 2017-02-06 05:41:06.58515+01 | 1486356066.58515 | pgbench_tellers  |            49152
 2017-02-06 05:41:06.58515+01 | 1486356066.58515 | pgbench_history  |                0
 2017-02-06 05:41:06.58515+01 | 1486356066.58515 | pgbench_branches |             8192

 2017-02-06 05:41:07.667012+01 | 1486356067.66701 | pgbench_accounts |       1342955520
 2017-02-06 05:41:07.667012+01 | 1486356067.66701 | pgbench_tellers  |            49152
 2017-02-06 05:41:07.667012+01 | 1486356067.66701 | pgbench_history  |                0
 2017-02-06 05:41:07.667012+01 | 1486356067.66701 | pgbench_branches |             8192

 2017-02-06 05:41:08.754941+01 | 1486356068.75494 | pgbench_accounts |       1342955520
 2017-02-06 05:41:08.754941+01 | 1486356068.75494 | pgbench_tellers  |            49152
 2017-02-06 05:41:08.754941+01 | 1486356068.75494 | pgbench_history  |                0
 2017-02-06 05:41:08.754941+01 | 1486356068.75494 | pgbench_branches |             8192

 2017-02-06 05:41:09.841089+01 | 1486356069.84109 | pgbench_accounts |       1342955520
 2017-02-06 05:41:09.841089+01 | 1486356069.84109 | pgbench_tellers  |            49152
 2017-02-06 05:41:09.841089+01 | 1486356069.84109 | pgbench_history  |                0
 2017-02-06 05:41:09.841089+01 | 1486356069.84109 | pgbench_branches |             8192

 2017-02-06 05:41:10.929395+01 | 1486356070.92939 | pgbench_accounts |       1342955520
 2017-02-06 05:41:10.929395+01 | 1486356070.92939 | pgbench_tellers  |            49152
 2017-02-06 05:41:10.929395+01 | 1486356070.92939 | pgbench_history  |                0
 2017-02-06 05:41:10.929395+01 | 1486356070.92939 | pgbench_branches |             8192

 2017-02-06 05:41:12.013356+01 | 1486356072.01336 | pgbench_accounts |       1342955520
 2017-02-06 05:41:12.013356+01 | 1486356072.01336 | pgbench_tellers  |            49152
 2017-02-06 05:41:12.013356+01 | 1486356072.01336 | pgbench_history  |                0
 2017-02-06 05:41:12.013356+01 | 1486356072.01336 | pgbench_branches |             8192

 2017-02-06 05:41:13.108059+01 | 1486356073.10806 | pgbench_accounts |       1342955520
 2017-02-06 05:41:13.108059+01 | 1486356073.10806 | pgbench_tellers  |            49152
 2017-02-06 05:41:13.108059+01 | 1486356073.10806 | pgbench_history  |                0
 2017-02-06 05:41:13.108059+01 | 1486356073.10806 | pgbench_branches |             8192

 2017-02-06 05:41:14.192549+01 | 1486356074.19255 | pgbench_accounts |       1342955520
 2017-02-06 05:41:14.192549+01 | 1486356074.19255 | pgbench_tellers  |            49152
 2017-02-06 05:41:14.192549+01 | 1486356074.19255 | pgbench_history  |                0
 2017-02-06 05:41:14.192549+01 | 1486356074.19255 | pgbench_branches |             8192

 2017-02-06 05:41:15.282144+01 | 1486356075.28214 | pgbench_accounts |       1342955520
 2017-02-06 05:41:15.282144+01 | 1486356075.28214 | pgbench_tellers  |            49152
 2017-02-06 05:41:15.282144+01 | 1486356075.28214 | pgbench_history  |                0
 2017-02-06 05:41:15.282144+01 | 1486356075.28214 | pgbench_branches |             8192

 2017-02-06 05:41:16.37303+01 | 1486356076.37303 | pgbench_accounts |       1342955520
 2017-02-06 05:41:16.37303+01 | 1486356076.37303 | pgbench_tellers  |            49152
 2017-02-06 05:41:16.37303+01 | 1486356076.37303 | pgbench_history  |                0
 2017-02-06 05:41:16.37303+01 | 1486356076.37303 | pgbench_branches |             8192

 2017-02-06 05:41:17.456919+01 | 1486356077.45692 | pgbench_accounts |       1342955520
 2017-02-06 05:41:17.456919+01 | 1486356077.45692 | pgbench_tellers  |            49152
 2017-02-06 05:41:17.456919+01 | 1486356077.45692 | pgbench_history  |                0
 2017-02-06 05:41:17.456919+01 | 1486356077.45692 | pgbench_branches |             8192

 2017-02-06 05:41:18.545136+01 | 1486356078.54514 | pgbench_accounts |       1342955520
 2017-02-06 05:41:18.545136+01 | 1486356078.54514 | pgbench_tellers  |            49152
 2017-02-06 05:41:18.545136+01 | 1486356078.54514 | pgbench_history  |                0
 2017-02-06 05:41:18.545136+01 | 1486356078.54514 | pgbench_branches |             8192

 2017-02-06 05:41:19.63253+01 | 1486356079.63253 | pgbench_accounts |       1342955520
 2017-02-06 05:41:19.63253+01 | 1486356079.63253 | pgbench_tellers  |            49152
 2017-02-06 05:41:19.63253+01 | 1486356079.63253 | pgbench_history  |                0
 2017-02-06 05:41:19.63253+01 | 1486356079.63253 | pgbench_branches |             8192

 2017-02-06 05:41:20.718914+01 | 1486356080.71891 | pgbench_accounts |       1342955520
 2017-02-06 05:41:20.718914+01 | 1486356080.71891 | pgbench_tellers  |            49152
 2017-02-06 05:41:20.718914+01 | 1486356080.71891 | pgbench_history  |                0
 2017-02-06 05:41:20.718914+01 | 1486356080.71891 | pgbench_branches |             8192

 2017-02-06 05:41:21.809523+01 | 1486356081.80952 | pgbench_accounts |       1342955520
 2017-02-06 05:41:21.809523+01 | 1486356081.80952 | pgbench_tellers  |            49152
 2017-02-06 05:41:21.809523+01 | 1486356081.80952 | pgbench_history  |                0
 2017-02-06 05:41:21.809523+01 | 1486356081.80952 | pgbench_branches |             8192

 2017-02-06 05:41:22.894498+01 | 1486356082.8945 | pgbench_accounts |       1342955520
 2017-02-06 05:41:22.894498+01 | 1486356082.8945 | pgbench_tellers  |            49152
 2017-02-06 05:41:22.894498+01 | 1486356082.8945 | pgbench_history  |                0
 2017-02-06 05:41:22.894498+01 | 1486356082.8945 | pgbench_branches |             8192

 2017-02-06 05:41:23.982215+01 | 1486356083.98221 | pgbench_accounts |       1342955520
 2017-02-06 05:41:23.982215+01 | 1486356083.98221 | pgbench_tellers  |            49152
 2017-02-06 05:41:23.982215+01 | 1486356083.98221 | pgbench_history  |                0
 2017-02-06 05:41:23.982215+01 | 1486356083.98221 | pgbench_branches |             8192

 2017-02-06 05:41:25.054305+01 | 1486356085.05431 | pgbench_accounts |       1342955520
 2017-02-06 05:41:25.054305+01 | 1486356085.05431 | pgbench_tellers  |            49152
 2017-02-06 05:41:25.054305+01 | 1486356085.05431 | pgbench_history  |                0
 2017-02-06 05:41:25.054305+01 | 1486356085.05431 | pgbench_branches |             8192

 2017-02-06 05:41:26.140984+01 | 1486356086.14098 | pgbench_accounts |       1342955520
 2017-02-06 05:41:26.140984+01 | 1486356086.14098 | pgbench_tellers  |            49152
 2017-02-06 05:41:26.140984+01 | 1486356086.14098 | pgbench_history  |                0
 2017-02-06 05:41:26.140984+01 | 1486356086.14098 | pgbench_branches |             8192

 2017-02-06 05:41:27.226957+01 | 1486356087.22696 | pgbench_accounts |       1342955520
 2017-02-06 05:41:27.226957+01 | 1486356087.22696 | pgbench_tellers  |            49152
 2017-02-06 05:41:27.226957+01 | 1486356087.22696 | pgbench_history  |                0
 2017-02-06 05:41:27.226957+01 | 1486356087.22696 | pgbench_branches |             8192

 2017-02-06 05:41:28.318712+01 | 1486356088.31871 | pgbench_accounts |       1342955520
 2017-02-06 05:41:28.318712+01 | 1486356088.31871 | pgbench_tellers  |            49152
 2017-02-06 05:41:28.318712+01 | 1486356088.31871 | pgbench_history  |                0
 2017-02-06 05:41:28.318712+01 | 1486356088.31871 | pgbench_branches |             8192

 2017-02-06 05:41:29.410486+01 | 1486356089.41049 | pgbench_accounts |       1342955520
 2017-02-06 05:41:29.410486+01 | 1486356089.41049 | pgbench_tellers  |            49152
 2017-02-06 05:41:29.410486+01 | 1486356089.41049 | pgbench_history  |                0
 2017-02-06 05:41:29.410486+01 | 1486356089.41049 | pgbench_branches |             8192

 2017-02-06 05:41:30.499708+01 | 1486356090.49971 | pgbench_accounts |       1342955520
 2017-02-06 05:41:30.499708+01 | 1486356090.49971 | pgbench_tellers  |            49152
 2017-02-06 05:41:30.499708+01 | 1486356090.49971 | pgbench_history  |                0
 2017-02-06 05:41:30.499708+01 | 1486356090.49971 | pgbench_branches |             8192

 2017-02-06 05:41:31.584673+01 | 1486356091.58467 | pgbench_accounts |       1342955520
 2017-02-06 05:41:31.584673+01 | 1486356091.58467 | pgbench_tellers  |            49152
 2017-02-06 05:41:31.584673+01 | 1486356091.58467 | pgbench_history  |                0
 2017-02-06 05:41:31.584673+01 | 1486356091.58467 | pgbench_branches |             8192

 2017-02-06 05:41:32.666213+01 | 1486356092.66621 | pgbench_accounts |       1342955520
 2017-02-06 05:41:32.666213+01 | 1486356092.66621 | pgbench_tellers  |            49152
 2017-02-06 05:41:32.666213+01 | 1486356092.66621 | pgbench_history  |                0
 2017-02-06 05:41:32.666213+01 | 1486356092.66621 | pgbench_branches |             8192

 2017-02-06 05:41:33.7549+01 | 1486356093.7549 | pgbench_accounts |       1342955520
 2017-02-06 05:41:33.7549+01 | 1486356093.7549 | pgbench_tellers  |            49152
 2017-02-06 05:41:33.7549+01 | 1486356093.7549 | pgbench_history  |                0
 2017-02-06 05:41:33.7549+01 | 1486356093.7549 | pgbench_branches |             8192

 2017-02-06 05:41:34.841037+01 | 1486356094.84104 | pgbench_accounts |       1342955520
 2017-02-06 05:41:34.841037+01 | 1486356094.84104 | pgbench_tellers  |            49152
 2017-02-06 05:41:34.841037+01 | 1486356094.84104 | pgbench_history  |                0
 2017-02-06 05:41:34.841037+01 | 1486356094.84104 | pgbench_branches |             8192

 2017-02-06 05:41:35.930871+01 | 1486356095.93087 | pgbench_accounts |       1342955520
 2017-02-06 05:41:35.930871+01 | 1486356095.93087 | pgbench_tellers  |            49152
 2017-02-06 05:41:35.930871+01 | 1486356095.93087 | pgbench_history  |                0
 2017-02-06 05:41:35.930871+01 | 1486356095.93087 | pgbench_branches |             8192

 2017-02-06 05:41:37.019948+01 | 1486356097.01995 | pgbench_accounts |       1342955520
 2017-02-06 05:41:37.019948+01 | 1486356097.01995 | pgbench_tellers  |            49152
 2017-02-06 05:41:37.019948+01 | 1486356097.01995 | pgbench_history  |                0
 2017-02-06 05:41:37.019948+01 | 1486356097.01995 | pgbench_branches |             8192

 2017-02-06 05:41:38.100626+01 | 1486356098.10063 | pgbench_accounts |       1342955520
 2017-02-06 05:41:38.100626+01 | 1486356098.10063 | pgbench_tellers  |            49152
 2017-02-06 05:41:38.100626+01 | 1486356098.10063 | pgbench_history  |                0
 2017-02-06 05:41:38.100626+01 | 1486356098.10063 | pgbench_branches |             8192

 2017-02-06 05:41:39.185761+01 | 1486356099.18576 | pgbench_accounts |       1342955520
 2017-02-06 05:41:39.185761+01 | 1486356099.18576 | pgbench_tellers  |            49152
 2017-02-06 05:41:39.185761+01 | 1486356099.18576 | pgbench_history  |                0
 2017-02-06 05:41:39.185761+01 | 1486356099.18576 | pgbench_branches |             8192

 2017-02-06 05:41:40.275116+01 | 1486356100.27512 | pgbench_accounts |       1342955520
 2017-02-06 05:41:40.275116+01 | 1486356100.27512 | pgbench_tellers  |            49152
 2017-02-06 05:41:40.275116+01 | 1486356100.27512 | pgbench_history  |                0
 2017-02-06 05:41:40.275116+01 | 1486356100.27512 | pgbench_branches |             8192

 2017-02-06 05:41:41.364832+01 | 1486356101.36483 | pgbench_accounts |       1342955520
 2017-02-06 05:41:41.364832+01 | 1486356101.36483 | pgbench_tellers  |            49152
 2017-02-06 05:41:41.364832+01 | 1486356101.36483 | pgbench_history  |                0
 2017-02-06 05:41:41.364832+01 | 1486356101.36483 | pgbench_branches |             8192

 2017-02-06 05:41:42.451922+01 | 1486356102.45192 | pgbench_accounts |       1342955520
 2017-02-06 05:41:42.451922+01 | 1486356102.45192 | pgbench_tellers  |            49152
 2017-02-06 05:41:42.451922+01 | 1486356102.45192 | pgbench_history  |                0
 2017-02-06 05:41:42.451922+01 | 1486356102.45192 | pgbench_branches |             8192

 2017-02-06 05:41:43.538164+01 | 1486356103.53816 | pgbench_accounts |       1342955520
 2017-02-06 05:41:43.538164+01 | 1486356103.53816 | pgbench_tellers  |            49152
 2017-02-06 05:41:43.538164+01 | 1486356103.53816 | pgbench_history  |                0
 2017-02-06 05:41:43.538164+01 | 1486356103.53816 | pgbench_branches |             8192

 2017-02-06 05:41:44.61854+01 | 1486356104.61854 | pgbench_accounts |       1342955520
 2017-02-06 05:41:44.61854+01 | 1486356104.61854 | pgbench_tellers  |            49152
 2017-02-06 05:41:44.61854+01 | 1486356104.61854 | pgbench_history  |                0
 2017-02-06 05:41:44.61854+01 | 1486356104.61854 | pgbench_branches |             8192

 2017-02-06 05:41:45.704275+01 | 1486356105.70427 | pgbench_accounts |       1342955520
 2017-02-06 05:41:45.704275+01 | 1486356105.70427 | pgbench_tellers  |            49152
 2017-02-06 05:41:45.704275+01 | 1486356105.70427 | pgbench_history  |                0
 2017-02-06 05:41:45.704275+01 | 1486356105.70427 | pgbench_branches |             8192

 2017-02-06 05:41:46.786669+01 | 1486356106.78667 | pgbench_accounts |       1342955520
 2017-02-06 05:41:46.786669+01 | 1486356106.78667 | pgbench_tellers  |            49152
 2017-02-06 05:41:46.786669+01 | 1486356106.78667 | pgbench_history  |                0
 2017-02-06 05:41:46.786669+01 | 1486356106.78667 | pgbench_branches |             8192

 2017-02-06 05:41:47.872236+01 | 1486356107.87224 | pgbench_accounts |       1342955520
 2017-02-06 05:41:47.872236+01 | 1486356107.87224 | pgbench_tellers  |            49152
 2017-02-06 05:41:47.872236+01 | 1486356107.87224 | pgbench_history  |                0
 2017-02-06 05:41:47.872236+01 | 1486356107.87224 | pgbench_branches |             8192

 2017-02-06 05:41:48.959165+01 | 1486356108.95917 | pgbench_accounts |       1342955520
 2017-02-06 05:41:48.959165+01 | 1486356108.95917 | pgbench_tellers  |            49152
 2017-02-06 05:41:48.959165+01 | 1486356108.95917 | pgbench_history  |                0
 2017-02-06 05:41:48.959165+01 | 1486356108.95917 | pgbench_branches |             8192

 2017-02-06 05:41:50.044801+01 | 1486356110.0448 | pgbench_accounts |       1342955520
 2017-02-06 05:41:50.044801+01 | 1486356110.0448 | pgbench_tellers  |            49152
 2017-02-06 05:41:50.044801+01 | 1486356110.0448 | pgbench_history  |                0
 2017-02-06 05:41:50.044801+01 | 1486356110.0448 | pgbench_branches |             8192

 2017-02-06 05:41:51.133912+01 | 1486356111.13391 | pgbench_accounts |       1342955520
 2017-02-06 05:41:51.133912+01 | 1486356111.13391 | pgbench_tellers  |            49152
 2017-02-06 05:41:51.133912+01 | 1486356111.13391 | pgbench_history  |                0
 2017-02-06 05:41:51.133912+01 | 1486356111.13391 | pgbench_branches |             8192

 2017-02-06 05:41:52.221425+01 | 1486356112.22143 | pgbench_accounts |       1342955520
 2017-02-06 05:41:52.221425+01 | 1486356112.22143 | pgbench_tellers  |            49152
 2017-02-06 05:41:52.221425+01 | 1486356112.22143 | pgbench_history  |                0
 2017-02-06 05:41:52.221425+01 | 1486356112.22143 | pgbench_branches |             8192

 2017-02-06 05:41:53.318556+01 | 1486356113.31856 | pgbench_accounts |       1342955520
 2017-02-06 05:41:53.318556+01 | 1486356113.31856 | pgbench_tellers  |            49152
 2017-02-06 05:41:53.318556+01 | 1486356113.31856 | pgbench_history  |                0
 2017-02-06 05:41:53.318556+01 | 1486356113.31856 | pgbench_branches |             8192

 2017-02-06 05:41:54.402048+01 | 1486356114.40205 | pgbench_accounts |       1342955520
 2017-02-06 05:41:54.402048+01 | 1486356114.40205 | pgbench_tellers  |            49152
 2017-02-06 05:41:54.402048+01 | 1486356114.40205 | pgbench_history  |                0
 2017-02-06 05:41:54.402048+01 | 1486356114.40205 | pgbench_branches |             8192

 2017-02-06 05:41:55.490092+01 | 1486356115.49009 | pgbench_accounts |       1342955520
 2017-02-06 05:41:55.490092+01 | 1486356115.49009 | pgbench_tellers  |            49152
 2017-02-06 05:41:55.490092+01 | 1486356115.49009 | pgbench_history  |                0
 2017-02-06 05:41:55.490092+01 | 1486356115.49009 | pgbench_branches |             8192

 2017-02-06 05:41:56.584285+01 | 1486356116.58429 | pgbench_accounts |       1342955520
 2017-02-06 05:41:56.584285+01 | 1486356116.58429 | pgbench_tellers  |            49152
 2017-02-06 05:41:56.584285+01 | 1486356116.58429 | pgbench_history  |                0
 2017-02-06 05:41:56.584285+01 | 1486356116.58429 | pgbench_branches |             8192

 2017-02-06 05:41:57.673567+01 | 1486356117.67357 | pgbench_accounts |       1342955520
 2017-02-06 05:41:57.673567+01 | 1486356117.67357 | pgbench_tellers  |            49152
 2017-02-06 05:41:57.673567+01 | 1486356117.67357 | pgbench_history  |                0
 2017-02-06 05:41:57.673567+01 | 1486356117.67357 | pgbench_branches |             8192

 2017-02-06 05:41:58.76408+01 | 1486356118.76408 | pgbench_accounts |       1342955520
 2017-02-06 05:41:58.76408+01 | 1486356118.76408 | pgbench_tellers  |            49152
 2017-02-06 05:41:58.76408+01 | 1486356118.76408 | pgbench_history  |                0
 2017-02-06 05:41:58.76408+01 | 1486356118.76408 | pgbench_branches |             8192

 2017-02-06 05:41:59.851679+01 | 1486356119.85168 | pgbench_accounts |       1342955520
 2017-02-06 05:41:59.851679+01 | 1486356119.85168 | pgbench_tellers  |            49152
 2017-02-06 05:41:59.851679+01 | 1486356119.85168 | pgbench_history  |                0
 2017-02-06 05:41:59.851679+01 | 1486356119.85168 | pgbench_branches |             8192

 2017-02-06 05:42:00.934642+01 | 1486356120.93464 | pgbench_accounts |       1342955520
 2017-02-06 05:42:00.934642+01 | 1486356120.93464 | pgbench_tellers  |            49152
 2017-02-06 05:42:00.934642+01 | 1486356120.93464 | pgbench_history  |                0
 2017-02-06 05:42:00.934642+01 | 1486356120.93464 | pgbench_branches |             8192

 2017-02-06 05:42:02.018829+01 | 1486356122.01883 | pgbench_accounts |       1342955520
 2017-02-06 05:42:02.018829+01 | 1486356122.01883 | pgbench_tellers  |            49152
 2017-02-06 05:42:02.018829+01 | 1486356122.01883 | pgbench_history  |                0
 2017-02-06 05:42:02.018829+01 | 1486356122.01883 | pgbench_branches |             8192

 2017-02-06 05:42:03.109339+01 | 1486356123.10934 | pgbench_accounts |       1342955520
 2017-02-06 05:42:03.109339+01 | 1486356123.10934 | pgbench_tellers  |            49152
 2017-02-06 05:42:03.109339+01 | 1486356123.10934 | pgbench_history  |                0
 2017-02-06 05:42:03.109339+01 | 1486356123.10934 | pgbench_branches |             8192

 2017-02-06 05:42:04.20041+01 | 1486356124.20041 | pgbench_accounts |       1342955520
 2017-02-06 05:42:04.20041+01 | 1486356124.20041 | pgbench_tellers  |            49152
 2017-02-06 05:42:04.20041+01 | 1486356124.20041 | pgbench_history  |                0
 2017-02-06 05:42:04.20041+01 | 1486356124.20041 | pgbench_branches |             8192

 2017-02-06 05:42:05.288265+01 | 1486356125.28826 | pgbench_accounts |       1342955520
 2017-02-06 05:42:05.288265+01 | 1486356125.28826 | pgbench_tellers  |            49152
 2017-02-06 05:42:05.288265+01 | 1486356125.28826 | pgbench_history  |                0
 2017-02-06 05:42:05.288265+01 | 1486356125.28826 | pgbench_branches |             8192

 2017-02-06 05:42:06.376396+01 | 1486356126.3764 | pgbench_accounts |       1342955520
 2017-02-06 05:42:06.376396+01 | 1486356126.3764 | pgbench_tellers  |            49152
 2017-02-06 05:42:06.376396+01 | 1486356126.3764 | pgbench_history  |                0
 2017-02-06 05:42:06.376396+01 | 1486356126.3764 | pgbench_branches |             8192

 2017-02-06 05:42:07.46513+01 | 1486356127.46513 | pgbench_accounts |       1342955520
 2017-02-06 05:42:07.46513+01 | 1486356127.46513 | pgbench_tellers  |            49152
 2017-02-06 05:42:07.46513+01 | 1486356127.46513 | pgbench_history  |                0
 2017-02-06 05:42:07.46513+01 | 1486356127.46513 | pgbench_branches |             8192

 2017-02-06 05:42:08.547664+01 | 1486356128.54766 | pgbench_accounts |       1342955520
 2017-02-06 05:42:08.547664+01 | 1486356128.54766 | pgbench_tellers  |            49152
 2017-02-06 05:42:08.547664+01 | 1486356128.54766 | pgbench_history  |                0
 2017-02-06 05:42:08.547664+01 | 1486356128.54766 | pgbench_branches |             8192

 2017-02-06 05:42:09.639807+01 | 1486356129.63981 | pgbench_accounts |       1342955520
 2017-02-06 05:42:09.639807+01 | 1486356129.63981 | pgbench_tellers  |            49152
 2017-02-06 05:42:09.639807+01 | 1486356129.63981 | pgbench_history  |                0
 2017-02-06 05:42:09.639807+01 | 1486356129.63981 | pgbench_branches |             8192

 2017-02-06 05:42:10.722124+01 | 1486356130.72212 | pgbench_accounts |       1342955520
 2017-02-06 05:42:10.722124+01 | 1486356130.72212 | pgbench_tellers  |            49152
 2017-02-06 05:42:10.722124+01 | 1486356130.72212 | pgbench_history  |                0
 2017-02-06 05:42:10.722124+01 | 1486356130.72212 | pgbench_branches |             8192

 2017-02-06 05:42:11.80786+01 | 1486356131.80786 | pgbench_accounts |       1342955520
 2017-02-06 05:42:11.80786+01 | 1486356131.80786 | pgbench_tellers  |            49152
 2017-02-06 05:42:11.80786+01 | 1486356131.80786 | pgbench_history  |                0
 2017-02-06 05:42:11.80786+01 | 1486356131.80786 | pgbench_branches |             8192

 2017-02-06 05:42:12.894181+01 | 1486356132.89418 | pgbench_accounts |       1342955520
 2017-02-06 05:42:12.894181+01 | 1486356132.89418 | pgbench_tellers  |            49152
 2017-02-06 05:42:12.894181+01 | 1486356132.89418 | pgbench_history  |                0
 2017-02-06 05:42:12.894181+01 | 1486356132.89418 | pgbench_branches |             8192

 2017-02-06 05:42:13.975934+01 | 1486356133.97593 | pgbench_accounts |       1342955520
 2017-02-06 05:42:13.975934+01 | 1486356133.97593 | pgbench_tellers  |            49152
 2017-02-06 05:42:13.975934+01 | 1486356133.97593 | pgbench_history  |                0
 2017-02-06 05:42:13.975934+01 | 1486356133.97593 | pgbench_branches |             8192

 2017-02-06 05:42:15.063878+01 | 1486356135.06388 | pgbench_accounts |       1342955520
 2017-02-06 05:42:15.063878+01 | 1486356135.06388 | pgbench_tellers  |            49152
 2017-02-06 05:42:15.063878+01 | 1486356135.06388 | pgbench_history  |                0
 2017-02-06 05:42:15.063878+01 | 1486356135.06388 | pgbench_branches |             8192

 2017-02-06 05:42:16.154647+01 | 1486356136.15465 | pgbench_accounts |       1342955520
 2017-02-06 05:42:16.154647+01 | 1486356136.15465 | pgbench_tellers  |            49152
 2017-02-06 05:42:16.154647+01 | 1486356136.15465 | pgbench_history  |                0
 2017-02-06 05:42:16.154647+01 | 1486356136.15465 | pgbench_branches |             8192

 2017-02-06 05:42:17.240285+01 | 1486356137.24028 | pgbench_accounts |       1342955520
 2017-02-06 05:42:17.240285+01 | 1486356137.24028 | pgbench_tellers  |            49152
 2017-02-06 05:42:17.240285+01 | 1486356137.24028 | pgbench_history  |                0
 2017-02-06 05:42:17.240285+01 | 1486356137.24028 | pgbench_branches |             8192

 2017-02-06 05:42:18.320317+01 | 1486356138.32032 | pgbench_accounts |       1342955520
 2017-02-06 05:42:18.320317+01 | 1486356138.32032 | pgbench_tellers  |            49152
 2017-02-06 05:42:18.320317+01 | 1486356138.32032 | pgbench_history  |                0
 2017-02-06 05:42:18.320317+01 | 1486356138.32032 | pgbench_branches |             8192

