 2017-02-03 18:32:50.061013+01 | 1486143170.06101 | pgbench_branches_pkey |            16384
 2017-02-03 18:32:50.061013+01 | 1486143170.06101 | pgbench_tellers_pkey  |            40960
 2017-02-03 18:32:50.061013+01 | 1486143170.06101 | pgbench_accounts_pkey |        224641024

 2017-02-03 18:32:51.147351+01 | 1486143171.14735 | pgbench_branches_pkey |            16384
 2017-02-03 18:32:51.147351+01 | 1486143171.14735 | pgbench_tellers_pkey  |            40960
 2017-02-03 18:32:51.147351+01 | 1486143171.14735 | pgbench_accounts_pkey |        224641024

 2017-02-03 18:32:52.238652+01 | 1486143172.23865 | pgbench_branches_pkey |            16384
 2017-02-03 18:32:52.238652+01 | 1486143172.23865 | pgbench_tellers_pkey  |            40960
 2017-02-03 18:32:52.238652+01 | 1486143172.23865 | pgbench_accounts_pkey |        224641024

 2017-02-03 18:32:53.331856+01 | 1486143173.33186 | pgbench_branches_pkey |            16384
 2017-02-03 18:32:53.331856+01 | 1486143173.33186 | pgbench_tellers_pkey  |            40960
 2017-02-03 18:32:53.331856+01 | 1486143173.33186 | pgbench_accounts_pkey |        224641024

 2017-02-03 18:32:54.414774+01 | 1486143174.41477 | pgbench_branches_pkey |            16384
 2017-02-03 18:32:54.414774+01 | 1486143174.41477 | pgbench_tellers_pkey  |            40960
 2017-02-03 18:32:54.414774+01 | 1486143174.41477 | pgbench_accounts_pkey |        224641024

 2017-02-03 18:32:55.49869+01 | 1486143175.49869 | pgbench_branches_pkey |            16384
 2017-02-03 18:32:55.49869+01 | 1486143175.49869 | pgbench_tellers_pkey  |            40960
 2017-02-03 18:32:55.49869+01 | 1486143175.49869 | pgbench_accounts_pkey |        224641024

 2017-02-03 18:32:56.579226+01 | 1486143176.57923 | pgbench_branches_pkey |            16384
 2017-02-03 18:32:56.579226+01 | 1486143176.57923 | pgbench_tellers_pkey  |            40960
 2017-02-03 18:32:56.579226+01 | 1486143176.57923 | pgbench_accounts_pkey |        224641024

 2017-02-03 18:32:57.660186+01 | 1486143177.66019 | pgbench_branches_pkey |            16384
 2017-02-03 18:32:57.660186+01 | 1486143177.66019 | pgbench_tellers_pkey  |            40960
 2017-02-03 18:32:57.660186+01 | 1486143177.66019 | pgbench_accounts_pkey |        224641024

 2017-02-03 18:32:58.750428+01 | 1486143178.75043 | pgbench_branches_pkey |            16384
 2017-02-03 18:32:58.750428+01 | 1486143178.75043 | pgbench_tellers_pkey  |            40960
 2017-02-03 18:32:58.750428+01 | 1486143178.75043 | pgbench_accounts_pkey |        224641024

 2017-02-03 18:32:59.838697+01 | 1486143179.8387 | pgbench_branches_pkey |            16384
 2017-02-03 18:32:59.838697+01 | 1486143179.8387 | pgbench_tellers_pkey  |            40960
 2017-02-03 18:32:59.838697+01 | 1486143179.8387 | pgbench_accounts_pkey |        224641024

 2017-02-03 18:33:00.931909+01 | 1486143180.93191 | pgbench_branches_pkey |            16384
 2017-02-03 18:33:00.931909+01 | 1486143180.93191 | pgbench_tellers_pkey  |            40960
 2017-02-03 18:33:00.931909+01 | 1486143180.93191 | pgbench_accounts_pkey |        224641024

 2017-02-03 18:33:02.021343+01 | 1486143182.02134 | pgbench_branches_pkey |            16384
 2017-02-03 18:33:02.021343+01 | 1486143182.02134 | pgbench_tellers_pkey  |            40960
 2017-02-03 18:33:02.021343+01 | 1486143182.02134 | pgbench_accounts_pkey |        224641024

 2017-02-03 18:33:03.107777+01 | 1486143183.10778 | pgbench_branches_pkey |            16384
 2017-02-03 18:33:03.107777+01 | 1486143183.10778 | pgbench_tellers_pkey  |            40960
 2017-02-03 18:33:03.107777+01 | 1486143183.10778 | pgbench_accounts_pkey |        224641024

 2017-02-03 18:33:04.193916+01 | 1486143184.19392 | pgbench_branches_pkey |            16384
 2017-02-03 18:33:04.193916+01 | 1486143184.19392 | pgbench_tellers_pkey  |            40960
 2017-02-03 18:33:04.193916+01 | 1486143184.19392 | pgbench_accounts_pkey |        224641024

 2017-02-03 18:33:05.283155+01 | 1486143185.28315 | pgbench_branches_pkey |            16384
 2017-02-03 18:33:05.283155+01 | 1486143185.28315 | pgbench_tellers_pkey  |            40960
 2017-02-03 18:33:05.283155+01 | 1486143185.28315 | pgbench_accounts_pkey |        224641024

 2017-02-03 18:33:06.371637+01 | 1486143186.37164 | pgbench_branches_pkey |            16384
 2017-02-03 18:33:06.371637+01 | 1486143186.37164 | pgbench_tellers_pkey  |            40960
 2017-02-03 18:33:06.371637+01 | 1486143186.37164 | pgbench_accounts_pkey |        224641024

 2017-02-03 18:33:07.453787+01 | 1486143187.45379 | pgbench_branches_pkey |            16384
 2017-02-03 18:33:07.453787+01 | 1486143187.45379 | pgbench_tellers_pkey  |            40960
 2017-02-03 18:33:07.453787+01 | 1486143187.45379 | pgbench_accounts_pkey |        224641024

 2017-02-03 18:33:08.537245+01 | 1486143188.53725 | pgbench_branches_pkey |            16384
 2017-02-03 18:33:08.537245+01 | 1486143188.53725 | pgbench_tellers_pkey  |            40960
 2017-02-03 18:33:08.537245+01 | 1486143188.53725 | pgbench_accounts_pkey |        224641024

 2017-02-03 18:33:09.622097+01 | 1486143189.6221 | pgbench_branches_pkey |            16384
 2017-02-03 18:33:09.622097+01 | 1486143189.6221 | pgbench_tellers_pkey  |            40960
 2017-02-03 18:33:09.622097+01 | 1486143189.6221 | pgbench_accounts_pkey |        224641024

 2017-02-03 18:33:10.713404+01 | 1486143190.7134 | pgbench_branches_pkey |            16384
 2017-02-03 18:33:10.713404+01 | 1486143190.7134 | pgbench_tellers_pkey  |            40960
 2017-02-03 18:33:10.713404+01 | 1486143190.7134 | pgbench_accounts_pkey |        224641024

 2017-02-03 18:33:11.807243+01 | 1486143191.80724 | pgbench_branches_pkey |            16384
 2017-02-03 18:33:11.807243+01 | 1486143191.80724 | pgbench_tellers_pkey  |            40960
 2017-02-03 18:33:11.807243+01 | 1486143191.80724 | pgbench_accounts_pkey |        224641024

 2017-02-03 18:33:12.89092+01 | 1486143192.89092 | pgbench_branches_pkey |            16384
 2017-02-03 18:33:12.89092+01 | 1486143192.89092 | pgbench_tellers_pkey  |            40960
 2017-02-03 18:33:12.89092+01 | 1486143192.89092 | pgbench_accounts_pkey |        224641024

 2017-02-03 18:33:13.970329+01 | 1486143193.97033 | pgbench_branches_pkey |            16384
 2017-02-03 18:33:13.970329+01 | 1486143193.97033 | pgbench_tellers_pkey  |            40960
 2017-02-03 18:33:13.970329+01 | 1486143193.97033 | pgbench_accounts_pkey |        224641024

 2017-02-03 18:33:15.05993+01 | 1486143195.05993 | pgbench_branches_pkey |            16384
 2017-02-03 18:33:15.05993+01 | 1486143195.05993 | pgbench_tellers_pkey  |            40960
 2017-02-03 18:33:15.05993+01 | 1486143195.05993 | pgbench_accounts_pkey |        224641024

 2017-02-03 18:33:16.148233+01 | 1486143196.14823 | pgbench_branches_pkey |            16384
 2017-02-03 18:33:16.148233+01 | 1486143196.14823 | pgbench_tellers_pkey  |            40960
 2017-02-03 18:33:16.148233+01 | 1486143196.14823 | pgbench_accounts_pkey |        224641024

 2017-02-03 18:33:17.22965+01 | 1486143197.22965 | pgbench_branches_pkey |            16384
 2017-02-03 18:33:17.22965+01 | 1486143197.22965 | pgbench_tellers_pkey  |            40960
 2017-02-03 18:33:17.22965+01 | 1486143197.22965 | pgbench_accounts_pkey |        224641024

 2017-02-03 18:33:18.312975+01 | 1486143198.31297 | pgbench_branches_pkey |            16384
 2017-02-03 18:33:18.312975+01 | 1486143198.31297 | pgbench_tellers_pkey  |            40960
 2017-02-03 18:33:18.312975+01 | 1486143198.31297 | pgbench_accounts_pkey |        224641024

 2017-02-03 18:33:19.404272+01 | 1486143199.40427 | pgbench_branches_pkey |            16384
 2017-02-03 18:33:19.404272+01 | 1486143199.40427 | pgbench_tellers_pkey  |            40960
 2017-02-03 18:33:19.404272+01 | 1486143199.40427 | pgbench_accounts_pkey |        224641024

 2017-02-03 18:33:20.49299+01 | 1486143200.49299 | pgbench_branches_pkey |            16384
 2017-02-03 18:33:20.49299+01 | 1486143200.49299 | pgbench_tellers_pkey  |            40960
 2017-02-03 18:33:20.49299+01 | 1486143200.49299 | pgbench_accounts_pkey |        224641024

 2017-02-03 18:33:21.576135+01 | 1486143201.57613 | pgbench_branches_pkey |            16384
 2017-02-03 18:33:21.576135+01 | 1486143201.57613 | pgbench_tellers_pkey  |            40960
 2017-02-03 18:33:21.576135+01 | 1486143201.57613 | pgbench_accounts_pkey |        224641024

 2017-02-03 18:33:22.659006+01 | 1486143202.65901 | pgbench_branches_pkey |            16384
 2017-02-03 18:33:22.659006+01 | 1486143202.65901 | pgbench_tellers_pkey  |            40960
 2017-02-03 18:33:22.659006+01 | 1486143202.65901 | pgbench_accounts_pkey |        224641024

 2017-02-03 18:33:23.742107+01 | 1486143203.74211 | pgbench_branches_pkey |            16384
 2017-02-03 18:33:23.742107+01 | 1486143203.74211 | pgbench_tellers_pkey  |            40960
 2017-02-03 18:33:23.742107+01 | 1486143203.74211 | pgbench_accounts_pkey |        224641024

 2017-02-03 18:33:24.829136+01 | 1486143204.82914 | pgbench_branches_pkey |            16384
 2017-02-03 18:33:24.829136+01 | 1486143204.82914 | pgbench_tellers_pkey  |            40960
 2017-02-03 18:33:24.829136+01 | 1486143204.82914 | pgbench_accounts_pkey |        224641024

 2017-02-03 18:33:25.920116+01 | 1486143205.92012 | pgbench_branches_pkey |            16384
 2017-02-03 18:33:25.920116+01 | 1486143205.92012 | pgbench_tellers_pkey  |            40960
 2017-02-03 18:33:25.920116+01 | 1486143205.92012 | pgbench_accounts_pkey |        224641024

 2017-02-03 18:33:27.00754+01 | 1486143207.00754 | pgbench_branches_pkey |            16384
 2017-02-03 18:33:27.00754+01 | 1486143207.00754 | pgbench_tellers_pkey  |            40960
 2017-02-03 18:33:27.00754+01 | 1486143207.00754 | pgbench_accounts_pkey |        224641024

 2017-02-03 18:33:28.092268+01 | 1486143208.09227 | pgbench_branches_pkey |            16384
 2017-02-03 18:33:28.092268+01 | 1486143208.09227 | pgbench_tellers_pkey  |            40960
 2017-02-03 18:33:28.092268+01 | 1486143208.09227 | pgbench_accounts_pkey |        224641024

 2017-02-03 18:33:29.181611+01 | 1486143209.18161 | pgbench_branches_pkey |            16384
 2017-02-03 18:33:29.181611+01 | 1486143209.18161 | pgbench_tellers_pkey  |            40960
 2017-02-03 18:33:29.181611+01 | 1486143209.18161 | pgbench_accounts_pkey |        224641024

 2017-02-03 18:33:30.267083+01 | 1486143210.26708 | pgbench_branches_pkey |            16384
 2017-02-03 18:33:30.267083+01 | 1486143210.26708 | pgbench_tellers_pkey  |            40960
 2017-02-03 18:33:30.267083+01 | 1486143210.26708 | pgbench_accounts_pkey |        224641024

 2017-02-03 18:33:31.35235+01 | 1486143211.35235 | pgbench_branches_pkey |            16384
 2017-02-03 18:33:31.35235+01 | 1486143211.35235 | pgbench_tellers_pkey  |            40960
 2017-02-03 18:33:31.35235+01 | 1486143211.35235 | pgbench_accounts_pkey |        224641024

 2017-02-03 18:33:32.43257+01 | 1486143212.43257 | pgbench_branches_pkey |            16384
 2017-02-03 18:33:32.43257+01 | 1486143212.43257 | pgbench_tellers_pkey  |            40960
 2017-02-03 18:33:32.43257+01 | 1486143212.43257 | pgbench_accounts_pkey |        224641024

 2017-02-03 18:33:33.520614+01 | 1486143213.52061 | pgbench_branches_pkey |            16384
 2017-02-03 18:33:33.520614+01 | 1486143213.52061 | pgbench_tellers_pkey  |            40960
 2017-02-03 18:33:33.520614+01 | 1486143213.52061 | pgbench_accounts_pkey |        224641024

 2017-02-03 18:33:34.602499+01 | 1486143214.6025 | pgbench_branches_pkey |            16384
 2017-02-03 18:33:34.602499+01 | 1486143214.6025 | pgbench_tellers_pkey  |            40960
 2017-02-03 18:33:34.602499+01 | 1486143214.6025 | pgbench_accounts_pkey |        224641024

 2017-02-03 18:33:35.685032+01 | 1486143215.68503 | pgbench_branches_pkey |            16384
 2017-02-03 18:33:35.685032+01 | 1486143215.68503 | pgbench_tellers_pkey  |            40960
 2017-02-03 18:33:35.685032+01 | 1486143215.68503 | pgbench_accounts_pkey |        224641024

 2017-02-03 18:33:36.769383+01 | 1486143216.76938 | pgbench_branches_pkey |            16384
 2017-02-03 18:33:36.769383+01 | 1486143216.76938 | pgbench_tellers_pkey  |            40960
 2017-02-03 18:33:36.769383+01 | 1486143216.76938 | pgbench_accounts_pkey |        224641024

 2017-02-03 18:33:37.858305+01 | 1486143217.8583 | pgbench_branches_pkey |            16384
 2017-02-03 18:33:37.858305+01 | 1486143217.8583 | pgbench_tellers_pkey  |            40960
 2017-02-03 18:33:37.858305+01 | 1486143217.8583 | pgbench_accounts_pkey |        224641024

 2017-02-03 18:33:38.943713+01 | 1486143218.94371 | pgbench_branches_pkey |            16384
 2017-02-03 18:33:38.943713+01 | 1486143218.94371 | pgbench_tellers_pkey  |            40960
 2017-02-03 18:33:38.943713+01 | 1486143218.94371 | pgbench_accounts_pkey |        224641024

 2017-02-03 18:33:40.028212+01 | 1486143220.02821 | pgbench_branches_pkey |            16384
 2017-02-03 18:33:40.028212+01 | 1486143220.02821 | pgbench_tellers_pkey  |            40960
 2017-02-03 18:33:40.028212+01 | 1486143220.02821 | pgbench_accounts_pkey |        224641024

 2017-02-03 18:33:41.1161+01 | 1486143221.1161 | pgbench_branches_pkey |            16384
 2017-02-03 18:33:41.1161+01 | 1486143221.1161 | pgbench_tellers_pkey  |            40960
 2017-02-03 18:33:41.1161+01 | 1486143221.1161 | pgbench_accounts_pkey |        224641024

 2017-02-03 18:33:42.20971+01 | 1486143222.20971 | pgbench_branches_pkey |            16384
 2017-02-03 18:33:42.20971+01 | 1486143222.20971 | pgbench_tellers_pkey  |            40960
 2017-02-03 18:33:42.20971+01 | 1486143222.20971 | pgbench_accounts_pkey |        224641024

 2017-02-03 18:33:43.297624+01 | 1486143223.29762 | pgbench_branches_pkey |            16384
 2017-02-03 18:33:43.297624+01 | 1486143223.29762 | pgbench_tellers_pkey  |            40960
 2017-02-03 18:33:43.297624+01 | 1486143223.29762 | pgbench_accounts_pkey |        224641024

 2017-02-03 18:33:44.384764+01 | 1486143224.38476 | pgbench_branches_pkey |            16384
 2017-02-03 18:33:44.384764+01 | 1486143224.38476 | pgbench_tellers_pkey  |            40960
 2017-02-03 18:33:44.384764+01 | 1486143224.38476 | pgbench_accounts_pkey |        224641024

 2017-02-03 18:33:45.466678+01 | 1486143225.46668 | pgbench_branches_pkey |            16384
 2017-02-03 18:33:45.466678+01 | 1486143225.46668 | pgbench_tellers_pkey  |            40960
 2017-02-03 18:33:45.466678+01 | 1486143225.46668 | pgbench_accounts_pkey |        224641024

 2017-02-03 18:33:46.553902+01 | 1486143226.5539 | pgbench_branches_pkey |            16384
 2017-02-03 18:33:46.553902+01 | 1486143226.5539 | pgbench_tellers_pkey  |            40960
 2017-02-03 18:33:46.553902+01 | 1486143226.5539 | pgbench_accounts_pkey |        224641024

 2017-02-03 18:33:47.643072+01 | 1486143227.64307 | pgbench_branches_pkey |            16384
 2017-02-03 18:33:47.643072+01 | 1486143227.64307 | pgbench_tellers_pkey  |            40960
 2017-02-03 18:33:47.643072+01 | 1486143227.64307 | pgbench_accounts_pkey |        224641024

 2017-02-03 18:33:48.720559+01 | 1486143228.72056 | pgbench_branches_pkey |            16384
 2017-02-03 18:33:48.720559+01 | 1486143228.72056 | pgbench_tellers_pkey  |            40960
 2017-02-03 18:33:48.720559+01 | 1486143228.72056 | pgbench_accounts_pkey |        224641024

 2017-02-03 18:33:49.80946+01 | 1486143229.80946 | pgbench_branches_pkey |            16384
 2017-02-03 18:33:49.80946+01 | 1486143229.80946 | pgbench_tellers_pkey  |            40960
 2017-02-03 18:33:49.80946+01 | 1486143229.80946 | pgbench_accounts_pkey |        224641024

 2017-02-03 18:33:50.901968+01 | 1486143230.90197 | pgbench_branches_pkey |            16384
 2017-02-03 18:33:50.901968+01 | 1486143230.90197 | pgbench_tellers_pkey  |            40960
 2017-02-03 18:33:50.901968+01 | 1486143230.90197 | pgbench_accounts_pkey |        224641024

 2017-02-03 18:33:51.985711+01 | 1486143231.98571 | pgbench_branches_pkey |            16384
 2017-02-03 18:33:51.985711+01 | 1486143231.98571 | pgbench_tellers_pkey  |            40960
 2017-02-03 18:33:51.985711+01 | 1486143231.98571 | pgbench_accounts_pkey |        224641024

 2017-02-03 18:33:53.073582+01 | 1486143233.07358 | pgbench_branches_pkey |            16384
 2017-02-03 18:33:53.073582+01 | 1486143233.07358 | pgbench_tellers_pkey  |            40960
 2017-02-03 18:33:53.073582+01 | 1486143233.07358 | pgbench_accounts_pkey |        224641024

 2017-02-03 18:33:54.16228+01 | 1486143234.16228 | pgbench_branches_pkey |            16384
 2017-02-03 18:33:54.16228+01 | 1486143234.16228 | pgbench_tellers_pkey  |            40960
 2017-02-03 18:33:54.16228+01 | 1486143234.16228 | pgbench_accounts_pkey |        224641024

 2017-02-03 18:33:55.233221+01 | 1486143235.23322 | pgbench_branches_pkey |            16384
 2017-02-03 18:33:55.233221+01 | 1486143235.23322 | pgbench_tellers_pkey  |            40960
 2017-02-03 18:33:55.233221+01 | 1486143235.23322 | pgbench_accounts_pkey |        224641024

 2017-02-03 18:33:56.327109+01 | 1486143236.32711 | pgbench_branches_pkey |            16384
 2017-02-03 18:33:56.327109+01 | 1486143236.32711 | pgbench_tellers_pkey  |            40960
 2017-02-03 18:33:56.327109+01 | 1486143236.32711 | pgbench_accounts_pkey |        224641024

 2017-02-03 18:33:57.414043+01 | 1486143237.41404 | pgbench_branches_pkey |            16384
 2017-02-03 18:33:57.414043+01 | 1486143237.41404 | pgbench_tellers_pkey  |            40960
 2017-02-03 18:33:57.414043+01 | 1486143237.41404 | pgbench_accounts_pkey |        224641024

 2017-02-03 18:33:58.501443+01 | 1486143238.50144 | pgbench_branches_pkey |            16384
 2017-02-03 18:33:58.501443+01 | 1486143238.50144 | pgbench_tellers_pkey  |            40960
 2017-02-03 18:33:58.501443+01 | 1486143238.50144 | pgbench_accounts_pkey |        224641024

 2017-02-03 18:33:59.582368+01 | 1486143239.58237 | pgbench_branches_pkey |            16384
 2017-02-03 18:33:59.582368+01 | 1486143239.58237 | pgbench_tellers_pkey  |            40960
 2017-02-03 18:33:59.582368+01 | 1486143239.58237 | pgbench_accounts_pkey |        224641024

 2017-02-03 18:34:00.663104+01 | 1486143240.6631 | pgbench_branches_pkey |            16384
 2017-02-03 18:34:00.663104+01 | 1486143240.6631 | pgbench_tellers_pkey  |            40960
 2017-02-03 18:34:00.663104+01 | 1486143240.6631 | pgbench_accounts_pkey |        224641024

 2017-02-03 18:34:01.755818+01 | 1486143241.75582 | pgbench_branches_pkey |            16384
 2017-02-03 18:34:01.755818+01 | 1486143241.75582 | pgbench_tellers_pkey  |            40960
 2017-02-03 18:34:01.755818+01 | 1486143241.75582 | pgbench_accounts_pkey |        224641024

 2017-02-03 18:34:02.839238+01 | 1486143242.83924 | pgbench_branches_pkey |            16384
 2017-02-03 18:34:02.839238+01 | 1486143242.83924 | pgbench_tellers_pkey  |            40960
 2017-02-03 18:34:02.839238+01 | 1486143242.83924 | pgbench_accounts_pkey |        224641024

 2017-02-03 18:34:03.924205+01 | 1486143243.92421 | pgbench_branches_pkey |            16384
 2017-02-03 18:34:03.924205+01 | 1486143243.92421 | pgbench_tellers_pkey  |            40960
 2017-02-03 18:34:03.924205+01 | 1486143243.92421 | pgbench_accounts_pkey |        224641024

 2017-02-03 18:34:05.009915+01 | 1486143245.00992 | pgbench_branches_pkey |            16384
 2017-02-03 18:34:05.009915+01 | 1486143245.00992 | pgbench_tellers_pkey  |            40960
 2017-02-03 18:34:05.009915+01 | 1486143245.00992 | pgbench_accounts_pkey |        224641024

 2017-02-03 18:34:06.096966+01 | 1486143246.09697 | pgbench_branches_pkey |            16384
 2017-02-03 18:34:06.096966+01 | 1486143246.09697 | pgbench_tellers_pkey  |            40960
 2017-02-03 18:34:06.096966+01 | 1486143246.09697 | pgbench_accounts_pkey |        224641024

 2017-02-03 18:34:07.184324+01 | 1486143247.18432 | pgbench_branches_pkey |            16384
 2017-02-03 18:34:07.184324+01 | 1486143247.18432 | pgbench_tellers_pkey  |            40960
 2017-02-03 18:34:07.184324+01 | 1486143247.18432 | pgbench_accounts_pkey |        224641024

 2017-02-03 18:34:08.274089+01 | 1486143248.27409 | pgbench_branches_pkey |            16384
 2017-02-03 18:34:08.274089+01 | 1486143248.27409 | pgbench_tellers_pkey  |            40960
 2017-02-03 18:34:08.274089+01 | 1486143248.27409 | pgbench_accounts_pkey |        224641024

 2017-02-03 18:34:09.364371+01 | 1486143249.36437 | pgbench_branches_pkey |            16384
 2017-02-03 18:34:09.364371+01 | 1486143249.36437 | pgbench_tellers_pkey  |            40960
 2017-02-03 18:34:09.364371+01 | 1486143249.36437 | pgbench_accounts_pkey |        224641024

 2017-02-03 18:34:10.448555+01 | 1486143250.44855 | pgbench_branches_pkey |            16384
 2017-02-03 18:34:10.448555+01 | 1486143250.44855 | pgbench_tellers_pkey  |            40960
 2017-02-03 18:34:10.448555+01 | 1486143250.44855 | pgbench_accounts_pkey |        224641024

 2017-02-03 18:34:11.536839+01 | 1486143251.53684 | pgbench_branches_pkey |            16384
 2017-02-03 18:34:11.536839+01 | 1486143251.53684 | pgbench_tellers_pkey  |            40960
 2017-02-03 18:34:11.536839+01 | 1486143251.53684 | pgbench_accounts_pkey |        224641024

 2017-02-03 18:34:12.619341+01 | 1486143252.61934 | pgbench_branches_pkey |            16384
 2017-02-03 18:34:12.619341+01 | 1486143252.61934 | pgbench_tellers_pkey  |            40960
 2017-02-03 18:34:12.619341+01 | 1486143252.61934 | pgbench_accounts_pkey |        224641024

 2017-02-03 18:34:13.705596+01 | 1486143253.7056 | pgbench_branches_pkey |            16384
 2017-02-03 18:34:13.705596+01 | 1486143253.7056 | pgbench_tellers_pkey  |            40960
 2017-02-03 18:34:13.705596+01 | 1486143253.7056 | pgbench_accounts_pkey |        224641024

 2017-02-03 18:34:14.793564+01 | 1486143254.79356 | pgbench_branches_pkey |            16384
 2017-02-03 18:34:14.793564+01 | 1486143254.79356 | pgbench_tellers_pkey  |            40960
 2017-02-03 18:34:14.793564+01 | 1486143254.79356 | pgbench_accounts_pkey |        224641024

 2017-02-03 18:34:15.881982+01 | 1486143255.88198 | pgbench_branches_pkey |            16384
 2017-02-03 18:34:15.881982+01 | 1486143255.88198 | pgbench_tellers_pkey  |            40960
 2017-02-03 18:34:15.881982+01 | 1486143255.88198 | pgbench_accounts_pkey |        224641024

 2017-02-03 18:34:16.964413+01 | 1486143256.96441 | pgbench_branches_pkey |            16384
 2017-02-03 18:34:16.964413+01 | 1486143256.96441 | pgbench_tellers_pkey  |            40960
 2017-02-03 18:34:16.964413+01 | 1486143256.96441 | pgbench_accounts_pkey |        224641024

 2017-02-03 18:34:18.053744+01 | 1486143258.05374 | pgbench_branches_pkey |            16384
 2017-02-03 18:34:18.053744+01 | 1486143258.05374 | pgbench_tellers_pkey  |            40960
 2017-02-03 18:34:18.053744+01 | 1486143258.05374 | pgbench_accounts_pkey |        224641024

 2017-02-03 18:34:19.137+01 | 1486143259.137 | pgbench_branches_pkey |            16384
 2017-02-03 18:34:19.137+01 | 1486143259.137 | pgbench_tellers_pkey  |            40960
 2017-02-03 18:34:19.137+01 | 1486143259.137 | pgbench_accounts_pkey |        224641024

 2017-02-03 18:34:20.22368+01 | 1486143260.22368 | pgbench_branches_pkey |            16384
 2017-02-03 18:34:20.22368+01 | 1486143260.22368 | pgbench_tellers_pkey  |            40960
 2017-02-03 18:34:20.22368+01 | 1486143260.22368 | pgbench_accounts_pkey |        224641024

 2017-02-03 18:34:21.307998+01 | 1486143261.308 | pgbench_branches_pkey |            16384
 2017-02-03 18:34:21.307998+01 | 1486143261.308 | pgbench_tellers_pkey  |            40960
 2017-02-03 18:34:21.307998+01 | 1486143261.308 | pgbench_accounts_pkey |        224641024

 2017-02-03 18:34:22.392404+01 | 1486143262.3924 | pgbench_branches_pkey |            16384
 2017-02-03 18:34:22.392404+01 | 1486143262.3924 | pgbench_tellers_pkey  |            40960
 2017-02-03 18:34:22.392404+01 | 1486143262.3924 | pgbench_accounts_pkey |        224641024

 2017-02-03 18:34:23.471951+01 | 1486143263.47195 | pgbench_branches_pkey |            16384
 2017-02-03 18:34:23.471951+01 | 1486143263.47195 | pgbench_tellers_pkey  |            40960
 2017-02-03 18:34:23.471951+01 | 1486143263.47195 | pgbench_accounts_pkey |        224641024

 2017-02-03 18:34:24.553369+01 | 1486143264.55337 | pgbench_branches_pkey |            16384
 2017-02-03 18:34:24.553369+01 | 1486143264.55337 | pgbench_tellers_pkey  |            40960
 2017-02-03 18:34:24.553369+01 | 1486143264.55337 | pgbench_accounts_pkey |        224641024

 2017-02-03 18:34:25.635679+01 | 1486143265.63568 | pgbench_branches_pkey |            16384
 2017-02-03 18:34:25.635679+01 | 1486143265.63568 | pgbench_tellers_pkey  |            40960
 2017-02-03 18:34:25.635679+01 | 1486143265.63568 | pgbench_accounts_pkey |        224641024

 2017-02-03 18:34:26.721089+01 | 1486143266.72109 | pgbench_branches_pkey |            16384
 2017-02-03 18:34:26.721089+01 | 1486143266.72109 | pgbench_tellers_pkey  |            40960
 2017-02-03 18:34:26.721089+01 | 1486143266.72109 | pgbench_accounts_pkey |        224641024

 2017-02-03 18:34:27.810672+01 | 1486143267.81067 | pgbench_branches_pkey |            16384
 2017-02-03 18:34:27.810672+01 | 1486143267.81067 | pgbench_tellers_pkey  |            40960
 2017-02-03 18:34:27.810672+01 | 1486143267.81067 | pgbench_accounts_pkey |        224641024

 2017-02-03 18:34:28.900602+01 | 1486143268.9006 | pgbench_branches_pkey |            16384
 2017-02-03 18:34:28.900602+01 | 1486143268.9006 | pgbench_tellers_pkey  |            40960
 2017-02-03 18:34:28.900602+01 | 1486143268.9006 | pgbench_accounts_pkey |        224641024

 2017-02-03 18:34:29.990547+01 | 1486143269.99055 | pgbench_branches_pkey |            16384
 2017-02-03 18:34:29.990547+01 | 1486143269.99055 | pgbench_tellers_pkey  |            40960
 2017-02-03 18:34:29.990547+01 | 1486143269.99055 | pgbench_accounts_pkey |        224641024

 2017-02-03 18:34:31.077452+01 | 1486143271.07745 | pgbench_branches_pkey |            16384
 2017-02-03 18:34:31.077452+01 | 1486143271.07745 | pgbench_tellers_pkey  |            40960
 2017-02-03 18:34:31.077452+01 | 1486143271.07745 | pgbench_accounts_pkey |        224641024

 2017-02-03 18:34:32.161306+01 | 1486143272.16131 | pgbench_branches_pkey |            16384
 2017-02-03 18:34:32.161306+01 | 1486143272.16131 | pgbench_tellers_pkey  |            40960
 2017-02-03 18:34:32.161306+01 | 1486143272.16131 | pgbench_accounts_pkey |        224641024

 2017-02-03 18:34:33.25122+01 | 1486143273.25122 | pgbench_branches_pkey |            16384
 2017-02-03 18:34:33.25122+01 | 1486143273.25122 | pgbench_tellers_pkey  |            40960
 2017-02-03 18:34:33.25122+01 | 1486143273.25122 | pgbench_accounts_pkey |        224641024

 2017-02-03 18:34:34.33778+01 | 1486143274.33778 | pgbench_branches_pkey |            16384
 2017-02-03 18:34:34.33778+01 | 1486143274.33778 | pgbench_tellers_pkey  |            40960
 2017-02-03 18:34:34.33778+01 | 1486143274.33778 | pgbench_accounts_pkey |        224641024

 2017-02-03 18:34:35.422116+01 | 1486143275.42212 | pgbench_branches_pkey |            16384
 2017-02-03 18:34:35.422116+01 | 1486143275.42212 | pgbench_tellers_pkey  |            40960
 2017-02-03 18:34:35.422116+01 | 1486143275.42212 | pgbench_accounts_pkey |        224641024

 2017-02-03 18:34:36.504491+01 | 1486143276.50449 | pgbench_branches_pkey |            16384
 2017-02-03 18:34:36.504491+01 | 1486143276.50449 | pgbench_tellers_pkey  |            40960
 2017-02-03 18:34:36.504491+01 | 1486143276.50449 | pgbench_accounts_pkey |        224641024

 2017-02-03 18:34:37.589167+01 | 1486143277.58917 | pgbench_branches_pkey |            16384
 2017-02-03 18:34:37.589167+01 | 1486143277.58917 | pgbench_tellers_pkey  |            40960
 2017-02-03 18:34:37.589167+01 | 1486143277.58917 | pgbench_accounts_pkey |        224641024

 2017-02-03 18:34:38.679067+01 | 1486143278.67907 | pgbench_branches_pkey |            16384
 2017-02-03 18:34:38.679067+01 | 1486143278.67907 | pgbench_tellers_pkey  |            40960
 2017-02-03 18:34:38.679067+01 | 1486143278.67907 | pgbench_accounts_pkey |        224641024

 2017-02-03 18:34:39.766303+01 | 1486143279.7663 | pgbench_branches_pkey |            16384
 2017-02-03 18:34:39.766303+01 | 1486143279.7663 | pgbench_tellers_pkey  |            40960
 2017-02-03 18:34:39.766303+01 | 1486143279.7663 | pgbench_accounts_pkey |        224641024

 2017-02-03 18:34:40.859323+01 | 1486143280.85932 | pgbench_branches_pkey |            16384
 2017-02-03 18:34:40.859323+01 | 1486143280.85932 | pgbench_tellers_pkey  |            40960
 2017-02-03 18:34:40.859323+01 | 1486143280.85932 | pgbench_accounts_pkey |        224641024

 2017-02-03 18:34:41.947758+01 | 1486143281.94776 | pgbench_branches_pkey |            16384
 2017-02-03 18:34:41.947758+01 | 1486143281.94776 | pgbench_tellers_pkey  |            40960
 2017-02-03 18:34:41.947758+01 | 1486143281.94776 | pgbench_accounts_pkey |        224641024

 2017-02-03 18:34:43.039214+01 | 1486143283.03921 | pgbench_branches_pkey |            16384
 2017-02-03 18:34:43.039214+01 | 1486143283.03921 | pgbench_tellers_pkey  |            40960
 2017-02-03 18:34:43.039214+01 | 1486143283.03921 | pgbench_accounts_pkey |        224641024

 2017-02-03 18:34:44.121148+01 | 1486143284.12115 | pgbench_branches_pkey |            16384
 2017-02-03 18:34:44.121148+01 | 1486143284.12115 | pgbench_tellers_pkey  |            40960
 2017-02-03 18:34:44.121148+01 | 1486143284.12115 | pgbench_accounts_pkey |        224641024

 2017-02-03 18:34:45.206143+01 | 1486143285.20614 | pgbench_branches_pkey |            16384
 2017-02-03 18:34:45.206143+01 | 1486143285.20614 | pgbench_tellers_pkey  |            40960
 2017-02-03 18:34:45.206143+01 | 1486143285.20614 | pgbench_accounts_pkey |        224641024

 2017-02-03 18:34:46.293362+01 | 1486143286.29336 | pgbench_branches_pkey |            16384
 2017-02-03 18:34:46.293362+01 | 1486143286.29336 | pgbench_tellers_pkey  |            40960
 2017-02-03 18:34:46.293362+01 | 1486143286.29336 | pgbench_accounts_pkey |        224641024

 2017-02-03 18:34:47.375951+01 | 1486143287.37595 | pgbench_branches_pkey |            16384
 2017-02-03 18:34:47.375951+01 | 1486143287.37595 | pgbench_tellers_pkey  |            40960
 2017-02-03 18:34:47.375951+01 | 1486143287.37595 | pgbench_accounts_pkey |        224641024

 2017-02-03 18:34:48.460282+01 | 1486143288.46028 | pgbench_branches_pkey |            16384
 2017-02-03 18:34:48.460282+01 | 1486143288.46028 | pgbench_tellers_pkey  |            40960
 2017-02-03 18:34:48.460282+01 | 1486143288.46028 | pgbench_accounts_pkey |        224641024

 2017-02-03 18:34:49.541253+01 | 1486143289.54125 | pgbench_branches_pkey |            16384
 2017-02-03 18:34:49.541253+01 | 1486143289.54125 | pgbench_tellers_pkey  |            40960
 2017-02-03 18:34:49.541253+01 | 1486143289.54125 | pgbench_accounts_pkey |        224641024

 2017-02-03 18:34:50.624695+01 | 1486143290.6247 | pgbench_branches_pkey |            16384
 2017-02-03 18:34:50.624695+01 | 1486143290.6247 | pgbench_tellers_pkey  |            40960
 2017-02-03 18:34:50.624695+01 | 1486143290.6247 | pgbench_accounts_pkey |        224641024

 2017-02-03 18:34:51.712775+01 | 1486143291.71277 | pgbench_branches_pkey |            16384
 2017-02-03 18:34:51.712775+01 | 1486143291.71277 | pgbench_tellers_pkey  |            40960
 2017-02-03 18:34:51.712775+01 | 1486143291.71277 | pgbench_accounts_pkey |        224641024

 2017-02-03 18:34:52.804868+01 | 1486143292.80487 | pgbench_branches_pkey |            16384
 2017-02-03 18:34:52.804868+01 | 1486143292.80487 | pgbench_tellers_pkey  |            40960
 2017-02-03 18:34:52.804868+01 | 1486143292.80487 | pgbench_accounts_pkey |        224641024

 2017-02-03 18:34:53.886964+01 | 1486143293.88696 | pgbench_branches_pkey |            16384
 2017-02-03 18:34:53.886964+01 | 1486143293.88696 | pgbench_tellers_pkey  |            40960
 2017-02-03 18:34:53.886964+01 | 1486143293.88696 | pgbench_accounts_pkey |        224641024

 2017-02-03 18:34:54.965462+01 | 1486143294.96546 | pgbench_branches_pkey |            16384
 2017-02-03 18:34:54.965462+01 | 1486143294.96546 | pgbench_tellers_pkey  |            40960
 2017-02-03 18:34:54.965462+01 | 1486143294.96546 | pgbench_accounts_pkey |        224641024

 2017-02-03 18:34:56.050789+01 | 1486143296.05079 | pgbench_branches_pkey |            16384
 2017-02-03 18:34:56.050789+01 | 1486143296.05079 | pgbench_tellers_pkey  |            40960
 2017-02-03 18:34:56.050789+01 | 1486143296.05079 | pgbench_accounts_pkey |        224641024

 2017-02-03 18:34:57.139198+01 | 1486143297.1392 | pgbench_branches_pkey |            16384
 2017-02-03 18:34:57.139198+01 | 1486143297.1392 | pgbench_tellers_pkey  |            40960
 2017-02-03 18:34:57.139198+01 | 1486143297.1392 | pgbench_accounts_pkey |        224641024

 2017-02-03 18:34:58.231038+01 | 1486143298.23104 | pgbench_branches_pkey |            16384
 2017-02-03 18:34:58.231038+01 | 1486143298.23104 | pgbench_tellers_pkey  |            40960
 2017-02-03 18:34:58.231038+01 | 1486143298.23104 | pgbench_accounts_pkey |        224641024

 2017-02-03 18:34:59.324014+01 | 1486143299.32401 | pgbench_branches_pkey |            16384
 2017-02-03 18:34:59.324014+01 | 1486143299.32401 | pgbench_tellers_pkey  |            40960
 2017-02-03 18:34:59.324014+01 | 1486143299.32401 | pgbench_accounts_pkey |        224641024

 2017-02-03 18:35:00.406907+01 | 1486143300.40691 | pgbench_branches_pkey |            16384
 2017-02-03 18:35:00.406907+01 | 1486143300.40691 | pgbench_tellers_pkey  |            40960
 2017-02-03 18:35:00.406907+01 | 1486143300.40691 | pgbench_accounts_pkey |        224641024

 2017-02-03 18:35:01.494803+01 | 1486143301.4948 | pgbench_branches_pkey |            16384
 2017-02-03 18:35:01.494803+01 | 1486143301.4948 | pgbench_tellers_pkey  |            40960
 2017-02-03 18:35:01.494803+01 | 1486143301.4948 | pgbench_accounts_pkey |        224641024

 2017-02-03 18:35:02.584609+01 | 1486143302.58461 | pgbench_branches_pkey |            16384
 2017-02-03 18:35:02.584609+01 | 1486143302.58461 | pgbench_tellers_pkey  |            40960
 2017-02-03 18:35:02.584609+01 | 1486143302.58461 | pgbench_accounts_pkey |        224641024

 2017-02-03 18:35:03.671111+01 | 1486143303.67111 | pgbench_branches_pkey |            16384
 2017-02-03 18:35:03.671111+01 | 1486143303.67111 | pgbench_tellers_pkey  |            40960
 2017-02-03 18:35:03.671111+01 | 1486143303.67111 | pgbench_accounts_pkey |        224641024

 2017-02-03 18:35:04.752028+01 | 1486143304.75203 | pgbench_branches_pkey |            16384
 2017-02-03 18:35:04.752028+01 | 1486143304.75203 | pgbench_tellers_pkey  |            40960
 2017-02-03 18:35:04.752028+01 | 1486143304.75203 | pgbench_accounts_pkey |        224641024

 2017-02-03 18:35:05.837889+01 | 1486143305.83789 | pgbench_branches_pkey |            16384
 2017-02-03 18:35:05.837889+01 | 1486143305.83789 | pgbench_tellers_pkey  |            40960
 2017-02-03 18:35:05.837889+01 | 1486143305.83789 | pgbench_accounts_pkey |        224641024

 2017-02-03 18:35:06.922204+01 | 1486143306.9222 | pgbench_branches_pkey |            16384
 2017-02-03 18:35:06.922204+01 | 1486143306.9222 | pgbench_tellers_pkey  |            40960
 2017-02-03 18:35:06.922204+01 | 1486143306.9222 | pgbench_accounts_pkey |        224641024

 2017-02-03 18:35:08.011825+01 | 1486143308.01183 | pgbench_branches_pkey |            16384
 2017-02-03 18:35:08.011825+01 | 1486143308.01183 | pgbench_tellers_pkey  |            40960
 2017-02-03 18:35:08.011825+01 | 1486143308.01183 | pgbench_accounts_pkey |        224641024

 2017-02-03 18:35:09.095762+01 | 1486143309.09576 | pgbench_branches_pkey |            16384
 2017-02-03 18:35:09.095762+01 | 1486143309.09576 | pgbench_tellers_pkey  |            40960
 2017-02-03 18:35:09.095762+01 | 1486143309.09576 | pgbench_accounts_pkey |        224641024

 2017-02-03 18:35:10.183912+01 | 1486143310.18391 | pgbench_branches_pkey |            16384
 2017-02-03 18:35:10.183912+01 | 1486143310.18391 | pgbench_tellers_pkey  |            40960
 2017-02-03 18:35:10.183912+01 | 1486143310.18391 | pgbench_accounts_pkey |        224641024

 2017-02-03 18:35:11.273307+01 | 1486143311.27331 | pgbench_branches_pkey |            16384
 2017-02-03 18:35:11.273307+01 | 1486143311.27331 | pgbench_tellers_pkey  |            40960
 2017-02-03 18:35:11.273307+01 | 1486143311.27331 | pgbench_accounts_pkey |        224641024

 2017-02-03 18:35:12.356924+01 | 1486143312.35692 | pgbench_branches_pkey |            16384
 2017-02-03 18:35:12.356924+01 | 1486143312.35692 | pgbench_tellers_pkey  |            40960
 2017-02-03 18:35:12.356924+01 | 1486143312.35692 | pgbench_accounts_pkey |        224641024

 2017-02-03 18:35:13.445889+01 | 1486143313.44589 | pgbench_branches_pkey |            16384
 2017-02-03 18:35:13.445889+01 | 1486143313.44589 | pgbench_tellers_pkey  |            40960
 2017-02-03 18:35:13.445889+01 | 1486143313.44589 | pgbench_accounts_pkey |        224641024

 2017-02-03 18:35:14.536009+01 | 1486143314.53601 | pgbench_branches_pkey |            16384
 2017-02-03 18:35:14.536009+01 | 1486143314.53601 | pgbench_tellers_pkey  |            40960
 2017-02-03 18:35:14.536009+01 | 1486143314.53601 | pgbench_accounts_pkey |        224641024

 2017-02-03 18:35:15.618302+01 | 1486143315.6183 | pgbench_branches_pkey |            16384
 2017-02-03 18:35:15.618302+01 | 1486143315.6183 | pgbench_tellers_pkey  |            40960
 2017-02-03 18:35:15.618302+01 | 1486143315.6183 | pgbench_accounts_pkey |        224641024

 2017-02-03 18:35:16.706743+01 | 1486143316.70674 | pgbench_branches_pkey |            16384
 2017-02-03 18:35:16.706743+01 | 1486143316.70674 | pgbench_tellers_pkey  |            40960
 2017-02-03 18:35:16.706743+01 | 1486143316.70674 | pgbench_accounts_pkey |        224641024

 2017-02-03 18:35:17.791378+01 | 1486143317.79138 | pgbench_branches_pkey |            16384
 2017-02-03 18:35:17.791378+01 | 1486143317.79138 | pgbench_tellers_pkey  |            40960
 2017-02-03 18:35:17.791378+01 | 1486143317.79138 | pgbench_accounts_pkey |        224641024

 2017-02-03 18:35:18.878719+01 | 1486143318.87872 | pgbench_branches_pkey |            16384
 2017-02-03 18:35:18.878719+01 | 1486143318.87872 | pgbench_tellers_pkey  |            40960
 2017-02-03 18:35:18.878719+01 | 1486143318.87872 | pgbench_accounts_pkey |        224641024

 2017-02-03 18:35:19.965346+01 | 1486143319.96535 | pgbench_branches_pkey |            16384
 2017-02-03 18:35:19.965346+01 | 1486143319.96535 | pgbench_tellers_pkey  |            40960
 2017-02-03 18:35:19.965346+01 | 1486143319.96535 | pgbench_accounts_pkey |        224641024

 2017-02-03 18:35:21.054168+01 | 1486143321.05417 | pgbench_branches_pkey |            16384
 2017-02-03 18:35:21.054168+01 | 1486143321.05417 | pgbench_tellers_pkey  |            40960
 2017-02-03 18:35:21.054168+01 | 1486143321.05417 | pgbench_accounts_pkey |        224641024

 2017-02-03 18:35:22.137637+01 | 1486143322.13764 | pgbench_branches_pkey |            16384
 2017-02-03 18:35:22.137637+01 | 1486143322.13764 | pgbench_tellers_pkey  |            40960
 2017-02-03 18:35:22.137637+01 | 1486143322.13764 | pgbench_accounts_pkey |        224641024

 2017-02-03 18:35:23.222778+01 | 1486143323.22278 | pgbench_branches_pkey |            16384
 2017-02-03 18:35:23.222778+01 | 1486143323.22278 | pgbench_tellers_pkey  |            40960
 2017-02-03 18:35:23.222778+01 | 1486143323.22278 | pgbench_accounts_pkey |        224641024

 2017-02-03 18:35:24.311499+01 | 1486143324.3115 | pgbench_branches_pkey |            16384
 2017-02-03 18:35:24.311499+01 | 1486143324.3115 | pgbench_tellers_pkey  |            40960
 2017-02-03 18:35:24.311499+01 | 1486143324.3115 | pgbench_accounts_pkey |        224641024

 2017-02-03 18:35:25.393003+01 | 1486143325.393 | pgbench_branches_pkey |            16384
 2017-02-03 18:35:25.393003+01 | 1486143325.393 | pgbench_tellers_pkey  |            40960
 2017-02-03 18:35:25.393003+01 | 1486143325.393 | pgbench_accounts_pkey |        224641024

 2017-02-03 18:35:26.480677+01 | 1486143326.48068 | pgbench_branches_pkey |            16384
 2017-02-03 18:35:26.480677+01 | 1486143326.48068 | pgbench_tellers_pkey  |            40960
 2017-02-03 18:35:26.480677+01 | 1486143326.48068 | pgbench_accounts_pkey |        224641024

 2017-02-03 18:35:27.562468+01 | 1486143327.56247 | pgbench_branches_pkey |            16384
 2017-02-03 18:35:27.562468+01 | 1486143327.56247 | pgbench_tellers_pkey  |            40960
 2017-02-03 18:35:27.562468+01 | 1486143327.56247 | pgbench_accounts_pkey |        224641024

 2017-02-03 18:35:28.644467+01 | 1486143328.64447 | pgbench_branches_pkey |            16384
 2017-02-03 18:35:28.644467+01 | 1486143328.64447 | pgbench_tellers_pkey  |            40960
 2017-02-03 18:35:28.644467+01 | 1486143328.64447 | pgbench_accounts_pkey |        224641024

 2017-02-03 18:35:29.730954+01 | 1486143329.73095 | pgbench_branches_pkey |            16384
 2017-02-03 18:35:29.730954+01 | 1486143329.73095 | pgbench_tellers_pkey  |            40960
 2017-02-03 18:35:29.730954+01 | 1486143329.73095 | pgbench_accounts_pkey |        224641024

 2017-02-03 18:35:30.81395+01 | 1486143330.81395 | pgbench_branches_pkey |            16384
 2017-02-03 18:35:30.81395+01 | 1486143330.81395 | pgbench_tellers_pkey  |            40960
 2017-02-03 18:35:30.81395+01 | 1486143330.81395 | pgbench_accounts_pkey |        224641024

 2017-02-03 18:35:31.899416+01 | 1486143331.89942 | pgbench_branches_pkey |            16384
 2017-02-03 18:35:31.899416+01 | 1486143331.89942 | pgbench_tellers_pkey  |            40960
 2017-02-03 18:35:31.899416+01 | 1486143331.89942 | pgbench_accounts_pkey |        224641024

 2017-02-03 18:35:32.989064+01 | 1486143332.98906 | pgbench_branches_pkey |            16384
 2017-02-03 18:35:32.989064+01 | 1486143332.98906 | pgbench_tellers_pkey  |            40960
 2017-02-03 18:35:32.989064+01 | 1486143332.98906 | pgbench_accounts_pkey |        224641024

 2017-02-03 18:35:34.075602+01 | 1486143334.0756 | pgbench_branches_pkey |            16384
 2017-02-03 18:35:34.075602+01 | 1486143334.0756 | pgbench_tellers_pkey  |            40960
 2017-02-03 18:35:34.075602+01 | 1486143334.0756 | pgbench_accounts_pkey |        224641024

 2017-02-03 18:35:35.164049+01 | 1486143335.16405 | pgbench_branches_pkey |            16384
 2017-02-03 18:35:35.164049+01 | 1486143335.16405 | pgbench_tellers_pkey  |            40960
 2017-02-03 18:35:35.164049+01 | 1486143335.16405 | pgbench_accounts_pkey |        224641024

 2017-02-03 18:35:36.249621+01 | 1486143336.24962 | pgbench_branches_pkey |            16384
 2017-02-03 18:35:36.249621+01 | 1486143336.24962 | pgbench_tellers_pkey  |            40960
 2017-02-03 18:35:36.249621+01 | 1486143336.24962 | pgbench_accounts_pkey |        224641024

 2017-02-03 18:35:37.33855+01 | 1486143337.33855 | pgbench_branches_pkey |            16384
 2017-02-03 18:35:37.33855+01 | 1486143337.33855 | pgbench_tellers_pkey  |            40960
 2017-02-03 18:35:37.33855+01 | 1486143337.33855 | pgbench_accounts_pkey |        224641024

 2017-02-03 18:35:38.421861+01 | 1486143338.42186 | pgbench_branches_pkey |            16384
 2017-02-03 18:35:38.421861+01 | 1486143338.42186 | pgbench_tellers_pkey  |            40960
 2017-02-03 18:35:38.421861+01 | 1486143338.42186 | pgbench_accounts_pkey |        224641024

 2017-02-03 18:35:39.509898+01 | 1486143339.5099 | pgbench_branches_pkey |            16384
 2017-02-03 18:35:39.509898+01 | 1486143339.5099 | pgbench_tellers_pkey  |            40960
 2017-02-03 18:35:39.509898+01 | 1486143339.5099 | pgbench_accounts_pkey |        224641024

 2017-02-03 18:35:40.595107+01 | 1486143340.59511 | pgbench_branches_pkey |            16384
 2017-02-03 18:35:40.595107+01 | 1486143340.59511 | pgbench_tellers_pkey  |            40960
 2017-02-03 18:35:40.595107+01 | 1486143340.59511 | pgbench_accounts_pkey |        224641024

 2017-02-03 18:35:41.683936+01 | 1486143341.68394 | pgbench_branches_pkey |            16384
 2017-02-03 18:35:41.683936+01 | 1486143341.68394 | pgbench_tellers_pkey  |            40960
 2017-02-03 18:35:41.683936+01 | 1486143341.68394 | pgbench_accounts_pkey |        224641024

 2017-02-03 18:35:42.765065+01 | 1486143342.76506 | pgbench_branches_pkey |            16384
 2017-02-03 18:35:42.765065+01 | 1486143342.76506 | pgbench_tellers_pkey  |            40960
 2017-02-03 18:35:42.765065+01 | 1486143342.76506 | pgbench_accounts_pkey |        224641024

 2017-02-03 18:35:43.851537+01 | 1486143343.85154 | pgbench_branches_pkey |            16384
 2017-02-03 18:35:43.851537+01 | 1486143343.85154 | pgbench_tellers_pkey  |            40960
 2017-02-03 18:35:43.851537+01 | 1486143343.85154 | pgbench_accounts_pkey |        224641024

 2017-02-03 18:35:44.935357+01 | 1486143344.93536 | pgbench_branches_pkey |            16384
 2017-02-03 18:35:44.935357+01 | 1486143344.93536 | pgbench_tellers_pkey  |            40960
 2017-02-03 18:35:44.935357+01 | 1486143344.93536 | pgbench_accounts_pkey |        224641024

 2017-02-03 18:35:46.026673+01 | 1486143346.02667 | pgbench_branches_pkey |            16384
 2017-02-03 18:35:46.026673+01 | 1486143346.02667 | pgbench_tellers_pkey  |            40960
 2017-02-03 18:35:46.026673+01 | 1486143346.02667 | pgbench_accounts_pkey |        224641024

 2017-02-03 18:35:47.110404+01 | 1486143347.1104 | pgbench_branches_pkey |            16384
 2017-02-03 18:35:47.110404+01 | 1486143347.1104 | pgbench_tellers_pkey  |            40960
 2017-02-03 18:35:47.110404+01 | 1486143347.1104 | pgbench_accounts_pkey |        224641024

 2017-02-03 18:35:48.200436+01 | 1486143348.20044 | pgbench_branches_pkey |            16384
 2017-02-03 18:35:48.200436+01 | 1486143348.20044 | pgbench_tellers_pkey  |            40960
 2017-02-03 18:35:48.200436+01 | 1486143348.20044 | pgbench_accounts_pkey |        224641024

 2017-02-03 18:35:49.281253+01 | 1486143349.28125 | pgbench_branches_pkey |            16384
 2017-02-03 18:35:49.281253+01 | 1486143349.28125 | pgbench_tellers_pkey  |            40960
 2017-02-03 18:35:49.281253+01 | 1486143349.28125 | pgbench_accounts_pkey |        224641024

 2017-02-03 18:35:50.370771+01 | 1486143350.37077 | pgbench_branches_pkey |            16384
 2017-02-03 18:35:50.370771+01 | 1486143350.37077 | pgbench_tellers_pkey  |            40960
 2017-02-03 18:35:50.370771+01 | 1486143350.37077 | pgbench_accounts_pkey |        224641024

 2017-02-03 18:35:51.453217+01 | 1486143351.45322 | pgbench_branches_pkey |            16384
 2017-02-03 18:35:51.453217+01 | 1486143351.45322 | pgbench_tellers_pkey  |            40960
 2017-02-03 18:35:51.453217+01 | 1486143351.45322 | pgbench_accounts_pkey |        224641024

 2017-02-03 18:35:52.538251+01 | 1486143352.53825 | pgbench_branches_pkey |            16384
 2017-02-03 18:35:52.538251+01 | 1486143352.53825 | pgbench_tellers_pkey  |            40960
 2017-02-03 18:35:52.538251+01 | 1486143352.53825 | pgbench_accounts_pkey |        224641024

 2017-02-03 18:35:53.62169+01 | 1486143353.62169 | pgbench_branches_pkey |            16384
 2017-02-03 18:35:53.62169+01 | 1486143353.62169 | pgbench_tellers_pkey  |            40960
 2017-02-03 18:35:53.62169+01 | 1486143353.62169 | pgbench_accounts_pkey |        224641024

 2017-02-03 18:35:54.705517+01 | 1486143354.70552 | pgbench_branches_pkey |            16384
 2017-02-03 18:35:54.705517+01 | 1486143354.70552 | pgbench_tellers_pkey  |            40960
 2017-02-03 18:35:54.705517+01 | 1486143354.70552 | pgbench_accounts_pkey |        224641024

 2017-02-03 18:35:55.784062+01 | 1486143355.78406 | pgbench_branches_pkey |            16384
 2017-02-03 18:35:55.784062+01 | 1486143355.78406 | pgbench_tellers_pkey  |            40960
 2017-02-03 18:35:55.784062+01 | 1486143355.78406 | pgbench_accounts_pkey |        224641024

 2017-02-03 18:35:56.864772+01 | 1486143356.86477 | pgbench_branches_pkey |            16384
 2017-02-03 18:35:56.864772+01 | 1486143356.86477 | pgbench_tellers_pkey  |            40960
 2017-02-03 18:35:56.864772+01 | 1486143356.86477 | pgbench_accounts_pkey |        224641024

 2017-02-03 18:35:57.951903+01 | 1486143357.9519 | pgbench_branches_pkey |            16384
 2017-02-03 18:35:57.951903+01 | 1486143357.9519 | pgbench_tellers_pkey  |            40960
 2017-02-03 18:35:57.951903+01 | 1486143357.9519 | pgbench_accounts_pkey |        224641024

 2017-02-03 18:35:59.03709+01 | 1486143359.03709 | pgbench_branches_pkey |            16384
 2017-02-03 18:35:59.03709+01 | 1486143359.03709 | pgbench_tellers_pkey  |            40960
 2017-02-03 18:35:59.03709+01 | 1486143359.03709 | pgbench_accounts_pkey |        224641024

 2017-02-03 18:36:00.125091+01 | 1486143360.12509 | pgbench_branches_pkey |            16384
 2017-02-03 18:36:00.125091+01 | 1486143360.12509 | pgbench_tellers_pkey  |            40960
 2017-02-03 18:36:00.125091+01 | 1486143360.12509 | pgbench_accounts_pkey |        224641024

 2017-02-03 18:36:01.209634+01 | 1486143361.20963 | pgbench_branches_pkey |            16384
 2017-02-03 18:36:01.209634+01 | 1486143361.20963 | pgbench_tellers_pkey  |            40960
 2017-02-03 18:36:01.209634+01 | 1486143361.20963 | pgbench_accounts_pkey |        224641024

 2017-02-03 18:36:02.297051+01 | 1486143362.29705 | pgbench_branches_pkey |            16384
 2017-02-03 18:36:02.297051+01 | 1486143362.29705 | pgbench_tellers_pkey  |            40960
 2017-02-03 18:36:02.297051+01 | 1486143362.29705 | pgbench_accounts_pkey |        224641024

 2017-02-03 18:36:03.387284+01 | 1486143363.38728 | pgbench_branches_pkey |            16384
 2017-02-03 18:36:03.387284+01 | 1486143363.38728 | pgbench_tellers_pkey  |            40960
 2017-02-03 18:36:03.387284+01 | 1486143363.38728 | pgbench_accounts_pkey |        224641024

 2017-02-03 18:36:04.475928+01 | 1486143364.47593 | pgbench_branches_pkey |            16384
 2017-02-03 18:36:04.475928+01 | 1486143364.47593 | pgbench_tellers_pkey  |            40960
 2017-02-03 18:36:04.475928+01 | 1486143364.47593 | pgbench_accounts_pkey |        224641024

 2017-02-03 18:36:05.567637+01 | 1486143365.56764 | pgbench_branches_pkey |            16384
 2017-02-03 18:36:05.567637+01 | 1486143365.56764 | pgbench_tellers_pkey  |            40960
 2017-02-03 18:36:05.567637+01 | 1486143365.56764 | pgbench_accounts_pkey |        224641024

 2017-02-03 18:36:06.652364+01 | 1486143366.65236 | pgbench_branches_pkey |            16384
 2017-02-03 18:36:06.652364+01 | 1486143366.65236 | pgbench_tellers_pkey  |            40960
 2017-02-03 18:36:06.652364+01 | 1486143366.65236 | pgbench_accounts_pkey |        224641024

 2017-02-03 18:36:07.732211+01 | 1486143367.73221 | pgbench_branches_pkey |            16384
 2017-02-03 18:36:07.732211+01 | 1486143367.73221 | pgbench_tellers_pkey  |            40960
 2017-02-03 18:36:07.732211+01 | 1486143367.73221 | pgbench_accounts_pkey |        224641024

 2017-02-03 18:36:08.817011+01 | 1486143368.81701 | pgbench_branches_pkey |            16384
 2017-02-03 18:36:08.817011+01 | 1486143368.81701 | pgbench_tellers_pkey  |            40960
 2017-02-03 18:36:08.817011+01 | 1486143368.81701 | pgbench_accounts_pkey |        224641024

 2017-02-03 18:36:09.905482+01 | 1486143369.90548 | pgbench_branches_pkey |            16384
 2017-02-03 18:36:09.905482+01 | 1486143369.90548 | pgbench_tellers_pkey  |            40960
 2017-02-03 18:36:09.905482+01 | 1486143369.90548 | pgbench_accounts_pkey |        224641024

 2017-02-03 18:36:10.987536+01 | 1486143370.98754 | pgbench_branches_pkey |            16384
 2017-02-03 18:36:10.987536+01 | 1486143370.98754 | pgbench_tellers_pkey  |            40960
 2017-02-03 18:36:10.987536+01 | 1486143370.98754 | pgbench_accounts_pkey |        224641024

 2017-02-03 18:36:12.075095+01 | 1486143372.07509 | pgbench_branches_pkey |            16384
 2017-02-03 18:36:12.075095+01 | 1486143372.07509 | pgbench_tellers_pkey  |            40960
 2017-02-03 18:36:12.075095+01 | 1486143372.07509 | pgbench_accounts_pkey |        224641024

 2017-02-03 18:36:13.160142+01 | 1486143373.16014 | pgbench_branches_pkey |            16384
 2017-02-03 18:36:13.160142+01 | 1486143373.16014 | pgbench_tellers_pkey  |            40960
 2017-02-03 18:36:13.160142+01 | 1486143373.16014 | pgbench_accounts_pkey |        224641024

 2017-02-03 18:36:14.247145+01 | 1486143374.24714 | pgbench_branches_pkey |            16384
 2017-02-03 18:36:14.247145+01 | 1486143374.24714 | pgbench_tellers_pkey  |            40960
 2017-02-03 18:36:14.247145+01 | 1486143374.24714 | pgbench_accounts_pkey |        224641024

 2017-02-03 18:36:15.333244+01 | 1486143375.33324 | pgbench_branches_pkey |            16384
 2017-02-03 18:36:15.333244+01 | 1486143375.33324 | pgbench_tellers_pkey  |            40960
 2017-02-03 18:36:15.333244+01 | 1486143375.33324 | pgbench_accounts_pkey |        224641024

 2017-02-03 18:36:16.415648+01 | 1486143376.41565 | pgbench_branches_pkey |            16384
 2017-02-03 18:36:16.415648+01 | 1486143376.41565 | pgbench_tellers_pkey  |            40960
 2017-02-03 18:36:16.415648+01 | 1486143376.41565 | pgbench_accounts_pkey |        224641024

 2017-02-03 18:36:17.500736+01 | 1486143377.50074 | pgbench_branches_pkey |            16384
 2017-02-03 18:36:17.500736+01 | 1486143377.50074 | pgbench_tellers_pkey  |            40960
 2017-02-03 18:36:17.500736+01 | 1486143377.50074 | pgbench_accounts_pkey |        224641024

 2017-02-03 18:36:18.582549+01 | 1486143378.58255 | pgbench_branches_pkey |            16384
 2017-02-03 18:36:18.582549+01 | 1486143378.58255 | pgbench_tellers_pkey  |            40960
 2017-02-03 18:36:18.582549+01 | 1486143378.58255 | pgbench_accounts_pkey |        224641024

 2017-02-03 18:36:19.670906+01 | 1486143379.67091 | pgbench_branches_pkey |            16384
 2017-02-03 18:36:19.670906+01 | 1486143379.67091 | pgbench_tellers_pkey  |            40960
 2017-02-03 18:36:19.670906+01 | 1486143379.67091 | pgbench_accounts_pkey |        224641024

 2017-02-03 18:36:20.759931+01 | 1486143380.75993 | pgbench_branches_pkey |            16384
 2017-02-03 18:36:20.759931+01 | 1486143380.75993 | pgbench_tellers_pkey  |            40960
 2017-02-03 18:36:20.759931+01 | 1486143380.75993 | pgbench_accounts_pkey |        224641024

 2017-02-03 18:36:21.848797+01 | 1486143381.8488 | pgbench_branches_pkey |            16384
 2017-02-03 18:36:21.848797+01 | 1486143381.8488 | pgbench_tellers_pkey  |            40960
 2017-02-03 18:36:21.848797+01 | 1486143381.8488 | pgbench_accounts_pkey |        224641024

 2017-02-03 18:36:22.936234+01 | 1486143382.93623 | pgbench_branches_pkey |            16384
 2017-02-03 18:36:22.936234+01 | 1486143382.93623 | pgbench_tellers_pkey  |            40960
 2017-02-03 18:36:22.936234+01 | 1486143382.93623 | pgbench_accounts_pkey |        224641024

 2017-02-03 18:36:24.025051+01 | 1486143384.02505 | pgbench_branches_pkey |            16384
 2017-02-03 18:36:24.025051+01 | 1486143384.02505 | pgbench_tellers_pkey  |            40960
 2017-02-03 18:36:24.025051+01 | 1486143384.02505 | pgbench_accounts_pkey |        224641024

 2017-02-03 18:36:25.110991+01 | 1486143385.11099 | pgbench_branches_pkey |            16384
 2017-02-03 18:36:25.110991+01 | 1486143385.11099 | pgbench_tellers_pkey  |            40960
 2017-02-03 18:36:25.110991+01 | 1486143385.11099 | pgbench_accounts_pkey |        224641024

 2017-02-03 18:36:26.199635+01 | 1486143386.19964 | pgbench_branches_pkey |            16384
 2017-02-03 18:36:26.199635+01 | 1486143386.19964 | pgbench_tellers_pkey  |            40960
 2017-02-03 18:36:26.199635+01 | 1486143386.19964 | pgbench_accounts_pkey |        224641024

 2017-02-03 18:36:27.28099+01 | 1486143387.28099 | pgbench_branches_pkey |            16384
 2017-02-03 18:36:27.28099+01 | 1486143387.28099 | pgbench_tellers_pkey  |            40960
 2017-02-03 18:36:27.28099+01 | 1486143387.28099 | pgbench_accounts_pkey |        224641024

 2017-02-03 18:36:28.362801+01 | 1486143388.3628 | pgbench_branches_pkey |            16384
 2017-02-03 18:36:28.362801+01 | 1486143388.3628 | pgbench_tellers_pkey  |            40960
 2017-02-03 18:36:28.362801+01 | 1486143388.3628 | pgbench_accounts_pkey |        224641024

 2017-02-03 18:36:29.449987+01 | 1486143389.44999 | pgbench_branches_pkey |            16384
 2017-02-03 18:36:29.449987+01 | 1486143389.44999 | pgbench_tellers_pkey  |            40960
 2017-02-03 18:36:29.449987+01 | 1486143389.44999 | pgbench_accounts_pkey |        224641024

 2017-02-03 18:36:30.534071+01 | 1486143390.53407 | pgbench_branches_pkey |            16384
 2017-02-03 18:36:30.534071+01 | 1486143390.53407 | pgbench_tellers_pkey  |            40960
 2017-02-03 18:36:30.534071+01 | 1486143390.53407 | pgbench_accounts_pkey |        224641024

 2017-02-03 18:36:31.619535+01 | 1486143391.61953 | pgbench_branches_pkey |            16384
 2017-02-03 18:36:31.619535+01 | 1486143391.61953 | pgbench_tellers_pkey  |            40960
 2017-02-03 18:36:31.619535+01 | 1486143391.61953 | pgbench_accounts_pkey |        224641024

 2017-02-03 18:36:32.704411+01 | 1486143392.70441 | pgbench_branches_pkey |            16384
 2017-02-03 18:36:32.704411+01 | 1486143392.70441 | pgbench_tellers_pkey  |            40960
 2017-02-03 18:36:32.704411+01 | 1486143392.70441 | pgbench_accounts_pkey |        224641024

 2017-02-03 18:36:33.789092+01 | 1486143393.78909 | pgbench_branches_pkey |            16384
 2017-02-03 18:36:33.789092+01 | 1486143393.78909 | pgbench_tellers_pkey  |            40960
 2017-02-03 18:36:33.789092+01 | 1486143393.78909 | pgbench_accounts_pkey |        224641024

 2017-02-03 18:36:34.87623+01 | 1486143394.87623 | pgbench_branches_pkey |            16384
 2017-02-03 18:36:34.87623+01 | 1486143394.87623 | pgbench_tellers_pkey  |            40960
 2017-02-03 18:36:34.87623+01 | 1486143394.87623 | pgbench_accounts_pkey |        224641024

 2017-02-03 18:36:35.96198+01 | 1486143395.96198 | pgbench_branches_pkey |            16384
 2017-02-03 18:36:35.96198+01 | 1486143395.96198 | pgbench_tellers_pkey  |            40960
 2017-02-03 18:36:35.96198+01 | 1486143395.96198 | pgbench_accounts_pkey |        224641024

 2017-02-03 18:36:37.049951+01 | 1486143397.04995 | pgbench_branches_pkey |            16384
 2017-02-03 18:36:37.049951+01 | 1486143397.04995 | pgbench_tellers_pkey  |            40960
 2017-02-03 18:36:37.049951+01 | 1486143397.04995 | pgbench_accounts_pkey |        224641024

 2017-02-03 18:36:38.144243+01 | 1486143398.14424 | pgbench_branches_pkey |            16384
 2017-02-03 18:36:38.144243+01 | 1486143398.14424 | pgbench_tellers_pkey  |            40960
 2017-02-03 18:36:38.144243+01 | 1486143398.14424 | pgbench_accounts_pkey |        224641024

 2017-02-03 18:36:39.232265+01 | 1486143399.23226 | pgbench_branches_pkey |            16384
 2017-02-03 18:36:39.232265+01 | 1486143399.23226 | pgbench_tellers_pkey  |            40960
 2017-02-03 18:36:39.232265+01 | 1486143399.23226 | pgbench_accounts_pkey |        224641024

 2017-02-03 18:36:40.315001+01 | 1486143400.315 | pgbench_branches_pkey |            16384
 2017-02-03 18:36:40.315001+01 | 1486143400.315 | pgbench_tellers_pkey  |            40960
 2017-02-03 18:36:40.315001+01 | 1486143400.315 | pgbench_accounts_pkey |        224641024

 2017-02-03 18:36:41.399198+01 | 1486143401.3992 | pgbench_branches_pkey |            16384
 2017-02-03 18:36:41.399198+01 | 1486143401.3992 | pgbench_tellers_pkey  |            40960
 2017-02-03 18:36:41.399198+01 | 1486143401.3992 | pgbench_accounts_pkey |        224641024

 2017-02-03 18:36:42.487231+01 | 1486143402.48723 | pgbench_branches_pkey |            16384
 2017-02-03 18:36:42.487231+01 | 1486143402.48723 | pgbench_tellers_pkey  |            40960
 2017-02-03 18:36:42.487231+01 | 1486143402.48723 | pgbench_accounts_pkey |        224641024

 2017-02-03 18:36:43.570693+01 | 1486143403.57069 | pgbench_branches_pkey |            16384
 2017-02-03 18:36:43.570693+01 | 1486143403.57069 | pgbench_tellers_pkey  |            40960
 2017-02-03 18:36:43.570693+01 | 1486143403.57069 | pgbench_accounts_pkey |        224641024

 2017-02-03 18:36:44.660093+01 | 1486143404.66009 | pgbench_branches_pkey |            16384
 2017-02-03 18:36:44.660093+01 | 1486143404.66009 | pgbench_tellers_pkey  |            40960
 2017-02-03 18:36:44.660093+01 | 1486143404.66009 | pgbench_accounts_pkey |        224641024

 2017-02-03 18:36:45.740325+01 | 1486143405.74032 | pgbench_branches_pkey |            16384
 2017-02-03 18:36:45.740325+01 | 1486143405.74032 | pgbench_tellers_pkey  |            40960
 2017-02-03 18:36:45.740325+01 | 1486143405.74032 | pgbench_accounts_pkey |        224641024

 2017-02-03 18:36:46.830934+01 | 1486143406.83093 | pgbench_branches_pkey |            16384
 2017-02-03 18:36:46.830934+01 | 1486143406.83093 | pgbench_tellers_pkey  |            40960
 2017-02-03 18:36:46.830934+01 | 1486143406.83093 | pgbench_accounts_pkey |        224641024

 2017-02-03 18:36:47.911877+01 | 1486143407.91188 | pgbench_branches_pkey |            16384
 2017-02-03 18:36:47.911877+01 | 1486143407.91188 | pgbench_tellers_pkey  |            40960
 2017-02-03 18:36:47.911877+01 | 1486143407.91188 | pgbench_accounts_pkey |        224641024

 2017-02-03 18:36:49.000341+01 | 1486143409.00034 | pgbench_branches_pkey |            16384
 2017-02-03 18:36:49.000341+01 | 1486143409.00034 | pgbench_tellers_pkey  |            40960
 2017-02-03 18:36:49.000341+01 | 1486143409.00034 | pgbench_accounts_pkey |        224641024

 2017-02-03 18:36:50.080386+01 | 1486143410.08039 | pgbench_branches_pkey |            16384
 2017-02-03 18:36:50.080386+01 | 1486143410.08039 | pgbench_tellers_pkey  |            40960
 2017-02-03 18:36:50.080386+01 | 1486143410.08039 | pgbench_accounts_pkey |        224641024

 2017-02-03 18:36:51.169344+01 | 1486143411.16934 | pgbench_branches_pkey |            16384
 2017-02-03 18:36:51.169344+01 | 1486143411.16934 | pgbench_tellers_pkey  |            40960
 2017-02-03 18:36:51.169344+01 | 1486143411.16934 | pgbench_accounts_pkey |        224641024

 2017-02-03 18:36:52.254537+01 | 1486143412.25454 | pgbench_branches_pkey |            16384
 2017-02-03 18:36:52.254537+01 | 1486143412.25454 | pgbench_tellers_pkey  |            40960
 2017-02-03 18:36:52.254537+01 | 1486143412.25454 | pgbench_accounts_pkey |        224641024

 2017-02-03 18:36:53.337468+01 | 1486143413.33747 | pgbench_branches_pkey |            16384
 2017-02-03 18:36:53.337468+01 | 1486143413.33747 | pgbench_tellers_pkey  |            40960
 2017-02-03 18:36:53.337468+01 | 1486143413.33747 | pgbench_accounts_pkey |        224641024

 2017-02-03 18:36:54.421732+01 | 1486143414.42173 | pgbench_branches_pkey |            16384
 2017-02-03 18:36:54.421732+01 | 1486143414.42173 | pgbench_tellers_pkey  |            40960
 2017-02-03 18:36:54.421732+01 | 1486143414.42173 | pgbench_accounts_pkey |        224641024

 2017-02-03 18:36:55.511382+01 | 1486143415.51138 | pgbench_branches_pkey |            16384
 2017-02-03 18:36:55.511382+01 | 1486143415.51138 | pgbench_tellers_pkey  |            40960
 2017-02-03 18:36:55.511382+01 | 1486143415.51138 | pgbench_accounts_pkey |        224641024

 2017-02-03 18:36:56.599747+01 | 1486143416.59975 | pgbench_branches_pkey |            16384
 2017-02-03 18:36:56.599747+01 | 1486143416.59975 | pgbench_tellers_pkey  |            40960
 2017-02-03 18:36:56.599747+01 | 1486143416.59975 | pgbench_accounts_pkey |        224641024

 2017-02-03 18:36:57.680724+01 | 1486143417.68072 | pgbench_branches_pkey |            16384
 2017-02-03 18:36:57.680724+01 | 1486143417.68072 | pgbench_tellers_pkey  |            40960
 2017-02-03 18:36:57.680724+01 | 1486143417.68072 | pgbench_accounts_pkey |        224641024

 2017-02-03 18:36:58.765233+01 | 1486143418.76523 | pgbench_branches_pkey |            16384
 2017-02-03 18:36:58.765233+01 | 1486143418.76523 | pgbench_tellers_pkey  |            40960
 2017-02-03 18:36:58.765233+01 | 1486143418.76523 | pgbench_accounts_pkey |        224641024

 2017-02-03 18:36:59.854019+01 | 1486143419.85402 | pgbench_branches_pkey |            16384
 2017-02-03 18:36:59.854019+01 | 1486143419.85402 | pgbench_tellers_pkey  |            40960
 2017-02-03 18:36:59.854019+01 | 1486143419.85402 | pgbench_accounts_pkey |        224641024

 2017-02-03 18:37:00.941227+01 | 1486143420.94123 | pgbench_branches_pkey |            16384
 2017-02-03 18:37:00.941227+01 | 1486143420.94123 | pgbench_tellers_pkey  |            40960
 2017-02-03 18:37:00.941227+01 | 1486143420.94123 | pgbench_accounts_pkey |        224641024

 2017-02-03 18:37:02.031009+01 | 1486143422.03101 | pgbench_branches_pkey |            16384
 2017-02-03 18:37:02.031009+01 | 1486143422.03101 | pgbench_tellers_pkey  |            40960
 2017-02-03 18:37:02.031009+01 | 1486143422.03101 | pgbench_accounts_pkey |        224641024

 2017-02-03 18:37:03.121669+01 | 1486143423.12167 | pgbench_branches_pkey |            16384
 2017-02-03 18:37:03.121669+01 | 1486143423.12167 | pgbench_tellers_pkey  |            40960
 2017-02-03 18:37:03.121669+01 | 1486143423.12167 | pgbench_accounts_pkey |        224641024

 2017-02-03 18:37:04.207126+01 | 1486143424.20713 | pgbench_branches_pkey |            16384
 2017-02-03 18:37:04.207126+01 | 1486143424.20713 | pgbench_tellers_pkey  |            40960
 2017-02-03 18:37:04.207126+01 | 1486143424.20713 | pgbench_accounts_pkey |        224641024

 2017-02-03 18:37:05.291578+01 | 1486143425.29158 | pgbench_branches_pkey |            16384
 2017-02-03 18:37:05.291578+01 | 1486143425.29158 | pgbench_tellers_pkey  |            40960
 2017-02-03 18:37:05.291578+01 | 1486143425.29158 | pgbench_accounts_pkey |        224641024

 2017-02-03 18:37:06.387479+01 | 1486143426.38748 | pgbench_branches_pkey |            16384
 2017-02-03 18:37:06.387479+01 | 1486143426.38748 | pgbench_tellers_pkey  |            40960
 2017-02-03 18:37:06.387479+01 | 1486143426.38748 | pgbench_accounts_pkey |        224641024

 2017-02-03 18:37:07.473252+01 | 1486143427.47325 | pgbench_branches_pkey |            16384
 2017-02-03 18:37:07.473252+01 | 1486143427.47325 | pgbench_tellers_pkey  |            40960
 2017-02-03 18:37:07.473252+01 | 1486143427.47325 | pgbench_accounts_pkey |        224641024

 2017-02-03 18:37:08.565075+01 | 1486143428.56507 | pgbench_branches_pkey |            16384
 2017-02-03 18:37:08.565075+01 | 1486143428.56507 | pgbench_tellers_pkey  |            40960
 2017-02-03 18:37:08.565075+01 | 1486143428.56507 | pgbench_accounts_pkey |        224641024

 2017-02-03 18:37:09.650215+01 | 1486143429.65021 | pgbench_branches_pkey |            16384
 2017-02-03 18:37:09.650215+01 | 1486143429.65021 | pgbench_tellers_pkey  |            40960
 2017-02-03 18:37:09.650215+01 | 1486143429.65021 | pgbench_accounts_pkey |        224641024

 2017-02-03 18:37:10.738697+01 | 1486143430.7387 | pgbench_branches_pkey |            16384
 2017-02-03 18:37:10.738697+01 | 1486143430.7387 | pgbench_tellers_pkey  |            40960
 2017-02-03 18:37:10.738697+01 | 1486143430.7387 | pgbench_accounts_pkey |        224641024

 2017-02-03 18:37:11.823611+01 | 1486143431.82361 | pgbench_branches_pkey |            16384
 2017-02-03 18:37:11.823611+01 | 1486143431.82361 | pgbench_tellers_pkey  |            40960
 2017-02-03 18:37:11.823611+01 | 1486143431.82361 | pgbench_accounts_pkey |        224641024

 2017-02-03 18:37:12.912967+01 | 1486143432.91297 | pgbench_branches_pkey |            16384
 2017-02-03 18:37:12.912967+01 | 1486143432.91297 | pgbench_tellers_pkey  |            40960
 2017-02-03 18:37:12.912967+01 | 1486143432.91297 | pgbench_accounts_pkey |        224641024

 2017-02-03 18:37:13.998184+01 | 1486143433.99818 | pgbench_branches_pkey |            16384
 2017-02-03 18:37:13.998184+01 | 1486143433.99818 | pgbench_tellers_pkey  |            40960
 2017-02-03 18:37:13.998184+01 | 1486143433.99818 | pgbench_accounts_pkey |        224641024

 2017-02-03 18:37:15.090379+01 | 1486143435.09038 | pgbench_branches_pkey |            16384
 2017-02-03 18:37:15.090379+01 | 1486143435.09038 | pgbench_tellers_pkey  |            40960
 2017-02-03 18:37:15.090379+01 | 1486143435.09038 | pgbench_accounts_pkey |        224641024

 2017-02-03 18:37:16.179982+01 | 1486143436.17998 | pgbench_branches_pkey |            16384
 2017-02-03 18:37:16.179982+01 | 1486143436.17998 | pgbench_tellers_pkey  |            40960
 2017-02-03 18:37:16.179982+01 | 1486143436.17998 | pgbench_accounts_pkey |        224641024

 2017-02-03 18:37:17.265522+01 | 1486143437.26552 | pgbench_branches_pkey |            16384
 2017-02-03 18:37:17.265522+01 | 1486143437.26552 | pgbench_tellers_pkey  |            40960
 2017-02-03 18:37:17.265522+01 | 1486143437.26552 | pgbench_accounts_pkey |        224641024

 2017-02-03 18:37:18.344023+01 | 1486143438.34402 | pgbench_branches_pkey |            16384
 2017-02-03 18:37:18.344023+01 | 1486143438.34402 | pgbench_tellers_pkey  |            40960
 2017-02-03 18:37:18.344023+01 | 1486143438.34402 | pgbench_accounts_pkey |        224641024

 2017-02-03 18:37:19.429556+01 | 1486143439.42956 | pgbench_branches_pkey |            16384
 2017-02-03 18:37:19.429556+01 | 1486143439.42956 | pgbench_tellers_pkey  |            40960
 2017-02-03 18:37:19.429556+01 | 1486143439.42956 | pgbench_accounts_pkey |        224641024

 2017-02-03 18:37:20.516528+01 | 1486143440.51653 | pgbench_branches_pkey |            16384
 2017-02-03 18:37:20.516528+01 | 1486143440.51653 | pgbench_tellers_pkey  |            40960
 2017-02-03 18:37:20.516528+01 | 1486143440.51653 | pgbench_accounts_pkey |        224641024

 2017-02-03 18:37:21.608355+01 | 1486143441.60836 | pgbench_branches_pkey |            16384
 2017-02-03 18:37:21.608355+01 | 1486143441.60836 | pgbench_tellers_pkey  |            40960
 2017-02-03 18:37:21.608355+01 | 1486143441.60836 | pgbench_accounts_pkey |        224641024

 2017-02-03 18:37:22.700786+01 | 1486143442.70079 | pgbench_branches_pkey |            16384
 2017-02-03 18:37:22.700786+01 | 1486143442.70079 | pgbench_tellers_pkey  |            40960
 2017-02-03 18:37:22.700786+01 | 1486143442.70079 | pgbench_accounts_pkey |        224641024

 2017-02-03 18:37:23.78981+01 | 1486143443.78981 | pgbench_branches_pkey |            16384
 2017-02-03 18:37:23.78981+01 | 1486143443.78981 | pgbench_tellers_pkey  |            40960
 2017-02-03 18:37:23.78981+01 | 1486143443.78981 | pgbench_accounts_pkey |        224641024

 2017-02-03 18:37:24.882659+01 | 1486143444.88266 | pgbench_branches_pkey |            16384
 2017-02-03 18:37:24.882659+01 | 1486143444.88266 | pgbench_tellers_pkey  |            40960
 2017-02-03 18:37:24.882659+01 | 1486143444.88266 | pgbench_accounts_pkey |        224641024

 2017-02-03 18:37:25.967074+01 | 1486143445.96707 | pgbench_branches_pkey |            16384
 2017-02-03 18:37:25.967074+01 | 1486143445.96707 | pgbench_tellers_pkey  |            40960
 2017-02-03 18:37:25.967074+01 | 1486143445.96707 | pgbench_accounts_pkey |        224641024

 2017-02-03 18:37:27.058687+01 | 1486143447.05869 | pgbench_branches_pkey |            16384
 2017-02-03 18:37:27.058687+01 | 1486143447.05869 | pgbench_tellers_pkey  |            40960
 2017-02-03 18:37:27.058687+01 | 1486143447.05869 | pgbench_accounts_pkey |        224641024

 2017-02-03 18:37:28.143528+01 | 1486143448.14353 | pgbench_branches_pkey |            16384
 2017-02-03 18:37:28.143528+01 | 1486143448.14353 | pgbench_tellers_pkey  |            40960
 2017-02-03 18:37:28.143528+01 | 1486143448.14353 | pgbench_accounts_pkey |        224641024

 2017-02-03 18:37:29.229198+01 | 1486143449.2292 | pgbench_branches_pkey |            16384
 2017-02-03 18:37:29.229198+01 | 1486143449.2292 | pgbench_tellers_pkey  |            40960
 2017-02-03 18:37:29.229198+01 | 1486143449.2292 | pgbench_accounts_pkey |        224641024

 2017-02-03 18:37:30.320931+01 | 1486143450.32093 | pgbench_branches_pkey |            16384
 2017-02-03 18:37:30.320931+01 | 1486143450.32093 | pgbench_tellers_pkey  |            40960
 2017-02-03 18:37:30.320931+01 | 1486143450.32093 | pgbench_accounts_pkey |        224641024

 2017-02-03 18:37:31.4017+01 | 1486143451.4017 | pgbench_branches_pkey |            16384
 2017-02-03 18:37:31.4017+01 | 1486143451.4017 | pgbench_tellers_pkey  |            40960
 2017-02-03 18:37:31.4017+01 | 1486143451.4017 | pgbench_accounts_pkey |        224641024

 2017-02-03 18:37:32.487429+01 | 1486143452.48743 | pgbench_branches_pkey |            16384
 2017-02-03 18:37:32.487429+01 | 1486143452.48743 | pgbench_tellers_pkey  |            40960
 2017-02-03 18:37:32.487429+01 | 1486143452.48743 | pgbench_accounts_pkey |        224641024

 2017-02-03 18:37:33.57093+01 | 1486143453.57093 | pgbench_branches_pkey |            16384
 2017-02-03 18:37:33.57093+01 | 1486143453.57093 | pgbench_tellers_pkey  |            40960
 2017-02-03 18:37:33.57093+01 | 1486143453.57093 | pgbench_accounts_pkey |        224641024

 2017-02-03 18:37:34.656883+01 | 1486143454.65688 | pgbench_branches_pkey |            16384
 2017-02-03 18:37:34.656883+01 | 1486143454.65688 | pgbench_tellers_pkey  |            40960
 2017-02-03 18:37:34.656883+01 | 1486143454.65688 | pgbench_accounts_pkey |        224641024

 2017-02-03 18:37:35.742946+01 | 1486143455.74295 | pgbench_branches_pkey |            16384
 2017-02-03 18:37:35.742946+01 | 1486143455.74295 | pgbench_tellers_pkey  |            40960
 2017-02-03 18:37:35.742946+01 | 1486143455.74295 | pgbench_accounts_pkey |        224641024

 2017-02-03 18:37:36.824637+01 | 1486143456.82464 | pgbench_branches_pkey |            16384
 2017-02-03 18:37:36.824637+01 | 1486143456.82464 | pgbench_tellers_pkey  |            40960
 2017-02-03 18:37:36.824637+01 | 1486143456.82464 | pgbench_accounts_pkey |        224641024

 2017-02-03 18:37:37.914952+01 | 1486143457.91495 | pgbench_branches_pkey |            16384
 2017-02-03 18:37:37.914952+01 | 1486143457.91495 | pgbench_tellers_pkey  |            40960
 2017-02-03 18:37:37.914952+01 | 1486143457.91495 | pgbench_accounts_pkey |        224641024

 2017-02-03 18:37:39.004141+01 | 1486143459.00414 | pgbench_branches_pkey |            16384
 2017-02-03 18:37:39.004141+01 | 1486143459.00414 | pgbench_tellers_pkey  |            40960
 2017-02-03 18:37:39.004141+01 | 1486143459.00414 | pgbench_accounts_pkey |        224641024

 2017-02-03 18:37:40.095095+01 | 1486143460.09509 | pgbench_branches_pkey |            16384
 2017-02-03 18:37:40.095095+01 | 1486143460.09509 | pgbench_tellers_pkey  |            40960
 2017-02-03 18:37:40.095095+01 | 1486143460.09509 | pgbench_accounts_pkey |        224641024

 2017-02-03 18:37:41.180507+01 | 1486143461.18051 | pgbench_branches_pkey |            16384
 2017-02-03 18:37:41.180507+01 | 1486143461.18051 | pgbench_tellers_pkey  |            40960
 2017-02-03 18:37:41.180507+01 | 1486143461.18051 | pgbench_accounts_pkey |        224641024

 2017-02-03 18:37:42.26544+01 | 1486143462.26544 | pgbench_branches_pkey |            16384
 2017-02-03 18:37:42.26544+01 | 1486143462.26544 | pgbench_tellers_pkey  |            40960
 2017-02-03 18:37:42.26544+01 | 1486143462.26544 | pgbench_accounts_pkey |        224641024

 2017-02-03 18:37:43.361762+01 | 1486143463.36176 | pgbench_branches_pkey |            16384
 2017-02-03 18:37:43.361762+01 | 1486143463.36176 | pgbench_tellers_pkey  |            40960
 2017-02-03 18:37:43.361762+01 | 1486143463.36176 | pgbench_accounts_pkey |        224641024

 2017-02-03 18:37:44.451578+01 | 1486143464.45158 | pgbench_branches_pkey |            16384
 2017-02-03 18:37:44.451578+01 | 1486143464.45158 | pgbench_tellers_pkey  |            40960
 2017-02-03 18:37:44.451578+01 | 1486143464.45158 | pgbench_accounts_pkey |        224641024

 2017-02-03 18:37:45.539864+01 | 1486143465.53986 | pgbench_branches_pkey |            16384
 2017-02-03 18:37:45.539864+01 | 1486143465.53986 | pgbench_tellers_pkey  |            40960
 2017-02-03 18:37:45.539864+01 | 1486143465.53986 | pgbench_accounts_pkey |        224641024

 2017-02-03 18:37:46.631714+01 | 1486143466.63171 | pgbench_branches_pkey |            16384
 2017-02-03 18:37:46.631714+01 | 1486143466.63171 | pgbench_tellers_pkey  |            40960
 2017-02-03 18:37:46.631714+01 | 1486143466.63171 | pgbench_accounts_pkey |        224641024

 2017-02-03 18:37:47.717403+01 | 1486143467.7174 | pgbench_branches_pkey |            16384
 2017-02-03 18:37:47.717403+01 | 1486143467.7174 | pgbench_tellers_pkey  |            40960
 2017-02-03 18:37:47.717403+01 | 1486143467.7174 | pgbench_accounts_pkey |        224641024

 2017-02-03 18:37:48.808015+01 | 1486143468.80802 | pgbench_branches_pkey |            16384
 2017-02-03 18:37:48.808015+01 | 1486143468.80802 | pgbench_tellers_pkey  |            40960
 2017-02-03 18:37:48.808015+01 | 1486143468.80802 | pgbench_accounts_pkey |        224641024

 2017-02-03 18:37:49.892638+01 | 1486143469.89264 | pgbench_branches_pkey |            16384
 2017-02-03 18:37:49.892638+01 | 1486143469.89264 | pgbench_tellers_pkey  |            40960
 2017-02-03 18:37:49.892638+01 | 1486143469.89264 | pgbench_accounts_pkey |        224641024

