 2017-02-05 07:21:17.657167+01 | 1486275677.65717 | pgbench_accounts |      13651542016
 2017-02-05 07:21:17.657167+01 | 1486275677.65717 | pgbench_tellers  |           450560
 2017-02-05 07:21:17.657167+01 | 1486275677.65717 | pgbench_history  |                0
 2017-02-05 07:21:17.657167+01 | 1486275677.65717 | pgbench_branches |            40960

 2017-02-05 07:21:18.747771+01 | 1486275678.74777 | pgbench_accounts |      13651542016
 2017-02-05 07:21:18.747771+01 | 1486275678.74777 | pgbench_tellers  |           450560
 2017-02-05 07:21:18.747771+01 | 1486275678.74777 | pgbench_history  |                0
 2017-02-05 07:21:18.747771+01 | 1486275678.74777 | pgbench_branches |            40960

 2017-02-05 07:21:19.839434+01 | 1486275679.83943 | pgbench_accounts |      13651607552
 2017-02-05 07:21:19.839434+01 | 1486275679.83943 | pgbench_tellers  |           450560
 2017-02-05 07:21:19.839434+01 | 1486275679.83943 | pgbench_history  |                0
 2017-02-05 07:21:19.839434+01 | 1486275679.83943 | pgbench_branches |            40960

 2017-02-05 07:21:20.925492+01 | 1486275680.92549 | pgbench_accounts |      13651607552
 2017-02-05 07:21:20.925492+01 | 1486275680.92549 | pgbench_tellers  |           450560
 2017-02-05 07:21:20.925492+01 | 1486275680.92549 | pgbench_history  |                0
 2017-02-05 07:21:20.925492+01 | 1486275680.92549 | pgbench_branches |            40960

 2017-02-05 07:21:22.012778+01 | 1486275682.01278 | pgbench_accounts |      13651607552
 2017-02-05 07:21:22.012778+01 | 1486275682.01278 | pgbench_tellers  |           450560
 2017-02-05 07:21:22.012778+01 | 1486275682.01278 | pgbench_history  |                0
 2017-02-05 07:21:22.012778+01 | 1486275682.01278 | pgbench_branches |            40960

 2017-02-05 07:21:23.099581+01 | 1486275683.09958 | pgbench_accounts |      13651607552
 2017-02-05 07:21:23.099581+01 | 1486275683.09958 | pgbench_tellers  |           450560
 2017-02-05 07:21:23.099581+01 | 1486275683.09958 | pgbench_history  |                0
 2017-02-05 07:21:23.099581+01 | 1486275683.09958 | pgbench_branches |            40960

 2017-02-05 07:21:24.198697+01 | 1486275684.1987 | pgbench_accounts |      13651607552
 2017-02-05 07:21:24.198697+01 | 1486275684.1987 | pgbench_tellers  |           450560
 2017-02-05 07:21:24.198697+01 | 1486275684.1987 | pgbench_history  |                0
 2017-02-05 07:21:24.198697+01 | 1486275684.1987 | pgbench_branches |            40960

 2017-02-05 07:21:25.296734+01 | 1486275685.29673 | pgbench_accounts |      13651623936
 2017-02-05 07:21:25.296734+01 | 1486275685.29673 | pgbench_tellers  |           450560
 2017-02-05 07:21:25.296734+01 | 1486275685.29673 | pgbench_history  |                0
 2017-02-05 07:21:25.296734+01 | 1486275685.29673 | pgbench_branches |            40960

 2017-02-05 07:21:26.389941+01 | 1486275686.38994 | pgbench_accounts |      13651640320
 2017-02-05 07:21:26.389941+01 | 1486275686.38994 | pgbench_tellers  |           450560
 2017-02-05 07:21:26.389941+01 | 1486275686.38994 | pgbench_history  |                0
 2017-02-05 07:21:26.389941+01 | 1486275686.38994 | pgbench_branches |            40960

 2017-02-05 07:21:27.483858+01 | 1486275687.48386 | pgbench_accounts |      13651664896
 2017-02-05 07:21:27.483858+01 | 1486275687.48386 | pgbench_tellers  |           450560
 2017-02-05 07:21:27.483858+01 | 1486275687.48386 | pgbench_history  |                0
 2017-02-05 07:21:27.483858+01 | 1486275687.48386 | pgbench_branches |            40960

 2017-02-05 07:21:28.575145+01 | 1486275688.57515 | pgbench_accounts |      13651673088
 2017-02-05 07:21:28.575145+01 | 1486275688.57515 | pgbench_tellers  |           450560
 2017-02-05 07:21:28.575145+01 | 1486275688.57515 | pgbench_history  |                0
 2017-02-05 07:21:28.575145+01 | 1486275688.57515 | pgbench_branches |            40960

 2017-02-05 07:21:29.658148+01 | 1486275689.65815 | pgbench_accounts |      13651673088
 2017-02-05 07:21:29.658148+01 | 1486275689.65815 | pgbench_tellers  |           450560
 2017-02-05 07:21:29.658148+01 | 1486275689.65815 | pgbench_history  |                0
 2017-02-05 07:21:29.658148+01 | 1486275689.65815 | pgbench_branches |            40960

 2017-02-05 07:21:30.737493+01 | 1486275690.73749 | pgbench_accounts |      13651673088
 2017-02-05 07:21:30.737493+01 | 1486275690.73749 | pgbench_tellers  |           450560
 2017-02-05 07:21:30.737493+01 | 1486275690.73749 | pgbench_history  |                0
 2017-02-05 07:21:30.737493+01 | 1486275690.73749 | pgbench_branches |            40960

 2017-02-05 07:21:31.82177+01 | 1486275691.82177 | pgbench_accounts |      13651681280
 2017-02-05 07:21:31.82177+01 | 1486275691.82177 | pgbench_tellers  |           450560
 2017-02-05 07:21:31.82177+01 | 1486275691.82177 | pgbench_history  |                0
 2017-02-05 07:21:31.82177+01 | 1486275691.82177 | pgbench_branches |            40960

 2017-02-05 07:21:32.892472+01 | 1486275692.89247 | pgbench_accounts |      13651681280
 2017-02-05 07:21:32.892472+01 | 1486275692.89247 | pgbench_tellers  |           450560
 2017-02-05 07:21:32.892472+01 | 1486275692.89247 | pgbench_history  |                0
 2017-02-05 07:21:32.892472+01 | 1486275692.89247 | pgbench_branches |            40960

 2017-02-05 07:21:33.982629+01 | 1486275693.98263 | pgbench_accounts |      13651714048
 2017-02-05 07:21:33.982629+01 | 1486275693.98263 | pgbench_tellers  |           450560
 2017-02-05 07:21:33.982629+01 | 1486275693.98263 | pgbench_history  |                0
 2017-02-05 07:21:33.982629+01 | 1486275693.98263 | pgbench_branches |            40960

 2017-02-05 07:21:35.07109+01 | 1486275695.07109 | pgbench_accounts |      13651714048
 2017-02-05 07:21:35.07109+01 | 1486275695.07109 | pgbench_tellers  |           450560
 2017-02-05 07:21:35.07109+01 | 1486275695.07109 | pgbench_history  |                0
 2017-02-05 07:21:35.07109+01 | 1486275695.07109 | pgbench_branches |            40960

 2017-02-05 07:21:36.141248+01 | 1486275696.14125 | pgbench_accounts |      13651738624
 2017-02-05 07:21:36.141248+01 | 1486275696.14125 | pgbench_tellers  |           450560
 2017-02-05 07:21:36.141248+01 | 1486275696.14125 | pgbench_history  |                0
 2017-02-05 07:21:36.141248+01 | 1486275696.14125 | pgbench_branches |            40960

 2017-02-05 07:21:37.220019+01 | 1486275697.22002 | pgbench_accounts |      13651738624
 2017-02-05 07:21:37.220019+01 | 1486275697.22002 | pgbench_tellers  |           450560
 2017-02-05 07:21:37.220019+01 | 1486275697.22002 | pgbench_history  |                0
 2017-02-05 07:21:37.220019+01 | 1486275697.22002 | pgbench_branches |            40960

 2017-02-05 07:21:38.314317+01 | 1486275698.31432 | pgbench_accounts |      13651746816
 2017-02-05 07:21:38.314317+01 | 1486275698.31432 | pgbench_tellers  |           450560
 2017-02-05 07:21:38.314317+01 | 1486275698.31432 | pgbench_history  |                0
 2017-02-05 07:21:38.314317+01 | 1486275698.31432 | pgbench_branches |            40960

 2017-02-05 07:21:39.396983+01 | 1486275699.39698 | pgbench_accounts |      13651755008
 2017-02-05 07:21:39.396983+01 | 1486275699.39698 | pgbench_tellers  |           450560
 2017-02-05 07:21:39.396983+01 | 1486275699.39698 | pgbench_history  |                0
 2017-02-05 07:21:39.396983+01 | 1486275699.39698 | pgbench_branches |            40960

 2017-02-05 07:21:40.482874+01 | 1486275700.48287 | pgbench_accounts |      13651763200
 2017-02-05 07:21:40.482874+01 | 1486275700.48287 | pgbench_tellers  |           450560
 2017-02-05 07:21:40.482874+01 | 1486275700.48287 | pgbench_history  |                0
 2017-02-05 07:21:40.482874+01 | 1486275700.48287 | pgbench_branches |            40960

 2017-02-05 07:21:41.571921+01 | 1486275701.57192 | pgbench_accounts |      13651779584
 2017-02-05 07:21:41.571921+01 | 1486275701.57192 | pgbench_tellers  |           450560
 2017-02-05 07:21:41.571921+01 | 1486275701.57192 | pgbench_history  |                0
 2017-02-05 07:21:41.571921+01 | 1486275701.57192 | pgbench_branches |            40960

 2017-02-05 07:21:42.664535+01 | 1486275702.66454 | pgbench_accounts |      13651795968
 2017-02-05 07:21:42.664535+01 | 1486275702.66454 | pgbench_tellers  |           450560
 2017-02-05 07:21:42.664535+01 | 1486275702.66454 | pgbench_history  |                0
 2017-02-05 07:21:42.664535+01 | 1486275702.66454 | pgbench_branches |            40960

 2017-02-05 07:21:43.750084+01 | 1486275703.75008 | pgbench_accounts |      13651804160
 2017-02-05 07:21:43.750084+01 | 1486275703.75008 | pgbench_tellers  |           450560
 2017-02-05 07:21:43.750084+01 | 1486275703.75008 | pgbench_history  |                0
 2017-02-05 07:21:43.750084+01 | 1486275703.75008 | pgbench_branches |            40960

 2017-02-05 07:21:44.842116+01 | 1486275704.84212 | pgbench_accounts |      13651804160
 2017-02-05 07:21:44.842116+01 | 1486275704.84212 | pgbench_tellers  |           450560
 2017-02-05 07:21:44.842116+01 | 1486275704.84212 | pgbench_history  |                0
 2017-02-05 07:21:44.842116+01 | 1486275704.84212 | pgbench_branches |            40960

 2017-02-05 07:21:45.939401+01 | 1486275705.9394 | pgbench_accounts |      13651812352
 2017-02-05 07:21:45.939401+01 | 1486275705.9394 | pgbench_tellers  |           450560
 2017-02-05 07:21:45.939401+01 | 1486275705.9394 | pgbench_history  |                0
 2017-02-05 07:21:45.939401+01 | 1486275705.9394 | pgbench_branches |            40960

 2017-02-05 07:21:47.025724+01 | 1486275707.02572 | pgbench_accounts |      13651812352
 2017-02-05 07:21:47.025724+01 | 1486275707.02572 | pgbench_tellers  |           450560
 2017-02-05 07:21:47.025724+01 | 1486275707.02572 | pgbench_history  |                0
 2017-02-05 07:21:47.025724+01 | 1486275707.02572 | pgbench_branches |            40960

 2017-02-05 07:21:48.101947+01 | 1486275708.10195 | pgbench_accounts |      13651820544
 2017-02-05 07:21:48.101947+01 | 1486275708.10195 | pgbench_tellers  |           450560
 2017-02-05 07:21:48.101947+01 | 1486275708.10195 | pgbench_history  |                0
 2017-02-05 07:21:48.101947+01 | 1486275708.10195 | pgbench_branches |            40960

 2017-02-05 07:21:49.179589+01 | 1486275709.17959 | pgbench_accounts |      13651828736
 2017-02-05 07:21:49.179589+01 | 1486275709.17959 | pgbench_tellers  |           450560
 2017-02-05 07:21:49.179589+01 | 1486275709.17959 | pgbench_history  |                0
 2017-02-05 07:21:49.179589+01 | 1486275709.17959 | pgbench_branches |            40960

 2017-02-05 07:21:50.264202+01 | 1486275710.2642 | pgbench_accounts |      13651836928
 2017-02-05 07:21:50.264202+01 | 1486275710.2642 | pgbench_tellers  |           450560
 2017-02-05 07:21:50.264202+01 | 1486275710.2642 | pgbench_history  |                0
 2017-02-05 07:21:50.264202+01 | 1486275710.2642 | pgbench_branches |            40960

 2017-02-05 07:21:51.340448+01 | 1486275711.34045 | pgbench_accounts |      13651845120
 2017-02-05 07:21:51.340448+01 | 1486275711.34045 | pgbench_tellers  |           450560
 2017-02-05 07:21:51.340448+01 | 1486275711.34045 | pgbench_history  |                0
 2017-02-05 07:21:51.340448+01 | 1486275711.34045 | pgbench_branches |            40960

 2017-02-05 07:21:52.429648+01 | 1486275712.42965 | pgbench_accounts |      13651861504
 2017-02-05 07:21:52.429648+01 | 1486275712.42965 | pgbench_tellers  |           450560
 2017-02-05 07:21:52.429648+01 | 1486275712.42965 | pgbench_history  |                0
 2017-02-05 07:21:52.429648+01 | 1486275712.42965 | pgbench_branches |            40960

 2017-02-05 07:21:53.521705+01 | 1486275713.5217 | pgbench_accounts |      13651861504
 2017-02-05 07:21:53.521705+01 | 1486275713.5217 | pgbench_tellers  |           450560
 2017-02-05 07:21:53.521705+01 | 1486275713.5217 | pgbench_history  |                0
 2017-02-05 07:21:53.521705+01 | 1486275713.5217 | pgbench_branches |            40960

 2017-02-05 07:21:54.616175+01 | 1486275714.61617 | pgbench_accounts |      13651869696
 2017-02-05 07:21:54.616175+01 | 1486275714.61617 | pgbench_tellers  |           450560
 2017-02-05 07:21:54.616175+01 | 1486275714.61617 | pgbench_history  |                0
 2017-02-05 07:21:54.616175+01 | 1486275714.61617 | pgbench_branches |            40960

 2017-02-05 07:21:55.707638+01 | 1486275715.70764 | pgbench_accounts |      13651886080
 2017-02-05 07:21:55.707638+01 | 1486275715.70764 | pgbench_tellers  |           450560
 2017-02-05 07:21:55.707638+01 | 1486275715.70764 | pgbench_history  |                0
 2017-02-05 07:21:55.707638+01 | 1486275715.70764 | pgbench_branches |            40960

 2017-02-05 07:21:56.792478+01 | 1486275716.79248 | pgbench_accounts |      13651886080
 2017-02-05 07:21:56.792478+01 | 1486275716.79248 | pgbench_tellers  |           450560
 2017-02-05 07:21:56.792478+01 | 1486275716.79248 | pgbench_history  |                0
 2017-02-05 07:21:56.792478+01 | 1486275716.79248 | pgbench_branches |            40960

 2017-02-05 07:21:57.875603+01 | 1486275717.8756 | pgbench_accounts |      13651894272
 2017-02-05 07:21:57.875603+01 | 1486275717.8756 | pgbench_tellers  |           450560
 2017-02-05 07:21:57.875603+01 | 1486275717.8756 | pgbench_history  |                0
 2017-02-05 07:21:57.875603+01 | 1486275717.8756 | pgbench_branches |            40960

 2017-02-05 07:21:58.955505+01 | 1486275718.9555 | pgbench_accounts |      13651902464
 2017-02-05 07:21:58.955505+01 | 1486275718.9555 | pgbench_tellers  |           450560
 2017-02-05 07:21:58.955505+01 | 1486275718.9555 | pgbench_history  |                0
 2017-02-05 07:21:58.955505+01 | 1486275718.9555 | pgbench_branches |            40960

 2017-02-05 07:22:00.050109+01 | 1486275720.05011 | pgbench_accounts |      13651902464
 2017-02-05 07:22:00.050109+01 | 1486275720.05011 | pgbench_tellers  |           450560
 2017-02-05 07:22:00.050109+01 | 1486275720.05011 | pgbench_history  |                0
 2017-02-05 07:22:00.050109+01 | 1486275720.05011 | pgbench_branches |            40960

 2017-02-05 07:22:01.134266+01 | 1486275721.13427 | pgbench_accounts |      13651902464
 2017-02-05 07:22:01.134266+01 | 1486275721.13427 | pgbench_tellers  |           450560
 2017-02-05 07:22:01.134266+01 | 1486275721.13427 | pgbench_history  |                0
 2017-02-05 07:22:01.134266+01 | 1486275721.13427 | pgbench_branches |            40960

 2017-02-05 07:22:02.221343+01 | 1486275722.22134 | pgbench_accounts |      13651918848
 2017-02-05 07:22:02.221343+01 | 1486275722.22134 | pgbench_tellers  |           450560
 2017-02-05 07:22:02.221343+01 | 1486275722.22134 | pgbench_history  |                0
 2017-02-05 07:22:02.221343+01 | 1486275722.22134 | pgbench_branches |            40960

 2017-02-05 07:22:03.307786+01 | 1486275723.30779 | pgbench_accounts |      13651927040
 2017-02-05 07:22:03.307786+01 | 1486275723.30779 | pgbench_tellers  |           450560
 2017-02-05 07:22:03.307786+01 | 1486275723.30779 | pgbench_history  |                0
 2017-02-05 07:22:03.307786+01 | 1486275723.30779 | pgbench_branches |            40960

 2017-02-05 07:22:04.390809+01 | 1486275724.39081 | pgbench_accounts |      13651927040
 2017-02-05 07:22:04.390809+01 | 1486275724.39081 | pgbench_tellers  |           450560
 2017-02-05 07:22:04.390809+01 | 1486275724.39081 | pgbench_history  |                0
 2017-02-05 07:22:04.390809+01 | 1486275724.39081 | pgbench_branches |            40960

 2017-02-05 07:22:05.463062+01 | 1486275725.46306 | pgbench_accounts |      13651935232
 2017-02-05 07:22:05.463062+01 | 1486275725.46306 | pgbench_tellers  |           450560
 2017-02-05 07:22:05.463062+01 | 1486275725.46306 | pgbench_history  |                0
 2017-02-05 07:22:05.463062+01 | 1486275725.46306 | pgbench_branches |            40960

 2017-02-05 07:22:06.551959+01 | 1486275726.55196 | pgbench_accounts |      13651943424
 2017-02-05 07:22:06.551959+01 | 1486275726.55196 | pgbench_tellers  |           450560
 2017-02-05 07:22:06.551959+01 | 1486275726.55196 | pgbench_history  |                0
 2017-02-05 07:22:06.551959+01 | 1486275726.55196 | pgbench_branches |            40960

 2017-02-05 07:22:07.627233+01 | 1486275727.62723 | pgbench_accounts |      13651959808
 2017-02-05 07:22:07.627233+01 | 1486275727.62723 | pgbench_tellers  |           450560
 2017-02-05 07:22:07.627233+01 | 1486275727.62723 | pgbench_history  |                0
 2017-02-05 07:22:07.627233+01 | 1486275727.62723 | pgbench_branches |            40960

 2017-02-05 07:22:08.70638+01 | 1486275728.70638 | pgbench_accounts |      13651968000
 2017-02-05 07:22:08.70638+01 | 1486275728.70638 | pgbench_tellers  |           450560
 2017-02-05 07:22:08.70638+01 | 1486275728.70638 | pgbench_history  |                0
 2017-02-05 07:22:08.70638+01 | 1486275728.70638 | pgbench_branches |            40960

 2017-02-05 07:22:09.800278+01 | 1486275729.80028 | pgbench_accounts |      13651968000
 2017-02-05 07:22:09.800278+01 | 1486275729.80028 | pgbench_tellers  |           450560
 2017-02-05 07:22:09.800278+01 | 1486275729.80028 | pgbench_history  |                0
 2017-02-05 07:22:09.800278+01 | 1486275729.80028 | pgbench_branches |            40960

 2017-02-05 07:22:10.887459+01 | 1486275730.88746 | pgbench_accounts |      13651976192
 2017-02-05 07:22:10.887459+01 | 1486275730.88746 | pgbench_tellers  |           450560
 2017-02-05 07:22:10.887459+01 | 1486275730.88746 | pgbench_history  |                0
 2017-02-05 07:22:10.887459+01 | 1486275730.88746 | pgbench_branches |            40960

 2017-02-05 07:22:11.965848+01 | 1486275731.96585 | pgbench_accounts |      13651984384
 2017-02-05 07:22:11.965848+01 | 1486275731.96585 | pgbench_tellers  |           450560
 2017-02-05 07:22:11.965848+01 | 1486275731.96585 | pgbench_history  |                0
 2017-02-05 07:22:11.965848+01 | 1486275731.96585 | pgbench_branches |            40960

 2017-02-05 07:22:13.050612+01 | 1486275733.05061 | pgbench_accounts |      13651984384
 2017-02-05 07:22:13.050612+01 | 1486275733.05061 | pgbench_tellers  |           450560
 2017-02-05 07:22:13.050612+01 | 1486275733.05061 | pgbench_history  |                0
 2017-02-05 07:22:13.050612+01 | 1486275733.05061 | pgbench_branches |            40960

 2017-02-05 07:22:14.133149+01 | 1486275734.13315 | pgbench_accounts |      13652000768
 2017-02-05 07:22:14.133149+01 | 1486275734.13315 | pgbench_tellers  |           450560
 2017-02-05 07:22:14.133149+01 | 1486275734.13315 | pgbench_history  |                0
 2017-02-05 07:22:14.133149+01 | 1486275734.13315 | pgbench_branches |            40960

 2017-02-05 07:22:15.214339+01 | 1486275735.21434 | pgbench_accounts |      13652000768
 2017-02-05 07:22:15.214339+01 | 1486275735.21434 | pgbench_tellers  |           450560
 2017-02-05 07:22:15.214339+01 | 1486275735.21434 | pgbench_history  |                0
 2017-02-05 07:22:15.214339+01 | 1486275735.21434 | pgbench_branches |            40960

 2017-02-05 07:22:16.296484+01 | 1486275736.29648 | pgbench_accounts |      13652017152
 2017-02-05 07:22:16.296484+01 | 1486275736.29648 | pgbench_tellers  |           450560
 2017-02-05 07:22:16.296484+01 | 1486275736.29648 | pgbench_history  |                0
 2017-02-05 07:22:16.296484+01 | 1486275736.29648 | pgbench_branches |            40960

 2017-02-05 07:22:17.380247+01 | 1486275737.38025 | pgbench_accounts |      13652025344
 2017-02-05 07:22:17.380247+01 | 1486275737.38025 | pgbench_tellers  |           450560
 2017-02-05 07:22:17.380247+01 | 1486275737.38025 | pgbench_history  |                0
 2017-02-05 07:22:17.380247+01 | 1486275737.38025 | pgbench_branches |            40960

 2017-02-05 07:22:18.468237+01 | 1486275738.46824 | pgbench_accounts |      13652025344
 2017-02-05 07:22:18.468237+01 | 1486275738.46824 | pgbench_tellers  |           450560
 2017-02-05 07:22:18.468237+01 | 1486275738.46824 | pgbench_history  |                0
 2017-02-05 07:22:18.468237+01 | 1486275738.46824 | pgbench_branches |            40960

 2017-02-05 07:22:19.553044+01 | 1486275739.55304 | pgbench_accounts |      13652033536
 2017-02-05 07:22:19.553044+01 | 1486275739.55304 | pgbench_tellers  |           450560
 2017-02-05 07:22:19.553044+01 | 1486275739.55304 | pgbench_history  |                0
 2017-02-05 07:22:19.553044+01 | 1486275739.55304 | pgbench_branches |            40960

 2017-02-05 07:22:20.633352+01 | 1486275740.63335 | pgbench_accounts |      13652033536
 2017-02-05 07:22:20.633352+01 | 1486275740.63335 | pgbench_tellers  |           450560
 2017-02-05 07:22:20.633352+01 | 1486275740.63335 | pgbench_history  |                0
 2017-02-05 07:22:20.633352+01 | 1486275740.63335 | pgbench_branches |            40960

 2017-02-05 07:22:21.731089+01 | 1486275741.73109 | pgbench_accounts |      13652041728
 2017-02-05 07:22:21.731089+01 | 1486275741.73109 | pgbench_tellers  |           450560
 2017-02-05 07:22:21.731089+01 | 1486275741.73109 | pgbench_history  |                0
 2017-02-05 07:22:21.731089+01 | 1486275741.73109 | pgbench_branches |            40960

 2017-02-05 07:22:22.821639+01 | 1486275742.82164 | pgbench_accounts |      13652041728
 2017-02-05 07:22:22.821639+01 | 1486275742.82164 | pgbench_tellers  |           450560
 2017-02-05 07:22:22.821639+01 | 1486275742.82164 | pgbench_history  |                0
 2017-02-05 07:22:22.821639+01 | 1486275742.82164 | pgbench_branches |            40960

 2017-02-05 07:22:23.894776+01 | 1486275743.89478 | pgbench_accounts |      13652049920
 2017-02-05 07:22:23.894776+01 | 1486275743.89478 | pgbench_tellers  |           450560
 2017-02-05 07:22:23.894776+01 | 1486275743.89478 | pgbench_history  |                0
 2017-02-05 07:22:23.894776+01 | 1486275743.89478 | pgbench_branches |            40960

 2017-02-05 07:22:24.980508+01 | 1486275744.98051 | pgbench_accounts |      13652058112
 2017-02-05 07:22:24.980508+01 | 1486275744.98051 | pgbench_tellers  |           450560
 2017-02-05 07:22:24.980508+01 | 1486275744.98051 | pgbench_history  |                0
 2017-02-05 07:22:24.980508+01 | 1486275744.98051 | pgbench_branches |            40960

 2017-02-05 07:22:26.068123+01 | 1486275746.06812 | pgbench_accounts |      13652074496
 2017-02-05 07:22:26.068123+01 | 1486275746.06812 | pgbench_tellers  |           450560
 2017-02-05 07:22:26.068123+01 | 1486275746.06812 | pgbench_history  |                0
 2017-02-05 07:22:26.068123+01 | 1486275746.06812 | pgbench_branches |            40960

 2017-02-05 07:22:27.15834+01 | 1486275747.15834 | pgbench_accounts |      13652090880
 2017-02-05 07:22:27.15834+01 | 1486275747.15834 | pgbench_tellers  |           450560
 2017-02-05 07:22:27.15834+01 | 1486275747.15834 | pgbench_history  |                0
 2017-02-05 07:22:27.15834+01 | 1486275747.15834 | pgbench_branches |            40960

 2017-02-05 07:22:28.237904+01 | 1486275748.2379 | pgbench_accounts |      13652090880
 2017-02-05 07:22:28.237904+01 | 1486275748.2379 | pgbench_tellers  |           450560
 2017-02-05 07:22:28.237904+01 | 1486275748.2379 | pgbench_history  |                0
 2017-02-05 07:22:28.237904+01 | 1486275748.2379 | pgbench_branches |            40960

 2017-02-05 07:22:29.318234+01 | 1486275749.31823 | pgbench_accounts |      13652099072
 2017-02-05 07:22:29.318234+01 | 1486275749.31823 | pgbench_tellers  |           450560
 2017-02-05 07:22:29.318234+01 | 1486275749.31823 | pgbench_history  |                0
 2017-02-05 07:22:29.318234+01 | 1486275749.31823 | pgbench_branches |            40960

 2017-02-05 07:22:30.402975+01 | 1486275750.40298 | pgbench_accounts |      13652099072
 2017-02-05 07:22:30.402975+01 | 1486275750.40298 | pgbench_tellers  |           450560
 2017-02-05 07:22:30.402975+01 | 1486275750.40298 | pgbench_history  |                0
 2017-02-05 07:22:30.402975+01 | 1486275750.40298 | pgbench_branches |            40960

 2017-02-05 07:22:31.477258+01 | 1486275751.47726 | pgbench_accounts |      13652099072
 2017-02-05 07:22:31.477258+01 | 1486275751.47726 | pgbench_tellers  |           450560
 2017-02-05 07:22:31.477258+01 | 1486275751.47726 | pgbench_history  |                0
 2017-02-05 07:22:31.477258+01 | 1486275751.47726 | pgbench_branches |            40960

 2017-02-05 07:22:32.56089+01 | 1486275752.56089 | pgbench_accounts |      13652107264
 2017-02-05 07:22:32.56089+01 | 1486275752.56089 | pgbench_tellers  |           450560
 2017-02-05 07:22:32.56089+01 | 1486275752.56089 | pgbench_history  |                0
 2017-02-05 07:22:32.56089+01 | 1486275752.56089 | pgbench_branches |            40960

 2017-02-05 07:22:33.650096+01 | 1486275753.6501 | pgbench_accounts |      13652115456
 2017-02-05 07:22:33.650096+01 | 1486275753.6501 | pgbench_tellers  |           450560
 2017-02-05 07:22:33.650096+01 | 1486275753.6501 | pgbench_history  |                0
 2017-02-05 07:22:33.650096+01 | 1486275753.6501 | pgbench_branches |            40960

 2017-02-05 07:22:34.725276+01 | 1486275754.72528 | pgbench_accounts |      13652123648
 2017-02-05 07:22:34.725276+01 | 1486275754.72528 | pgbench_tellers  |           450560
 2017-02-05 07:22:34.725276+01 | 1486275754.72528 | pgbench_history  |                0
 2017-02-05 07:22:34.725276+01 | 1486275754.72528 | pgbench_branches |            40960

 2017-02-05 07:22:35.811763+01 | 1486275755.81176 | pgbench_accounts |      13652131840
 2017-02-05 07:22:35.811763+01 | 1486275755.81176 | pgbench_tellers  |           450560
 2017-02-05 07:22:35.811763+01 | 1486275755.81176 | pgbench_history  |                0
 2017-02-05 07:22:35.811763+01 | 1486275755.81176 | pgbench_branches |            40960

 2017-02-05 07:22:36.878987+01 | 1486275756.87899 | pgbench_accounts |      13652140032
 2017-02-05 07:22:36.878987+01 | 1486275756.87899 | pgbench_tellers  |           450560
 2017-02-05 07:22:36.878987+01 | 1486275756.87899 | pgbench_history  |                0
 2017-02-05 07:22:36.878987+01 | 1486275756.87899 | pgbench_branches |            40960

 2017-02-05 07:22:37.965713+01 | 1486275757.96571 | pgbench_accounts |      13652156416
 2017-02-05 07:22:37.965713+01 | 1486275757.96571 | pgbench_tellers  |           450560
 2017-02-05 07:22:37.965713+01 | 1486275757.96571 | pgbench_history  |                0
 2017-02-05 07:22:37.965713+01 | 1486275757.96571 | pgbench_branches |            40960

 2017-02-05 07:22:39.044137+01 | 1486275759.04414 | pgbench_accounts |      13652156416
 2017-02-05 07:22:39.044137+01 | 1486275759.04414 | pgbench_tellers  |           450560
 2017-02-05 07:22:39.044137+01 | 1486275759.04414 | pgbench_history  |                0
 2017-02-05 07:22:39.044137+01 | 1486275759.04414 | pgbench_branches |            40960

 2017-02-05 07:22:40.131788+01 | 1486275760.13179 | pgbench_accounts |      13652156416
 2017-02-05 07:22:40.131788+01 | 1486275760.13179 | pgbench_tellers  |           450560
 2017-02-05 07:22:40.131788+01 | 1486275760.13179 | pgbench_history  |                0
 2017-02-05 07:22:40.131788+01 | 1486275760.13179 | pgbench_branches |            40960

 2017-02-05 07:22:41.221432+01 | 1486275761.22143 | pgbench_accounts |      13652172800
 2017-02-05 07:22:41.221432+01 | 1486275761.22143 | pgbench_tellers  |           450560
 2017-02-05 07:22:41.221432+01 | 1486275761.22143 | pgbench_history  |                0
 2017-02-05 07:22:41.221432+01 | 1486275761.22143 | pgbench_branches |            40960

 2017-02-05 07:22:42.310301+01 | 1486275762.3103 | pgbench_accounts |      13652172800
 2017-02-05 07:22:42.310301+01 | 1486275762.3103 | pgbench_tellers  |           450560
 2017-02-05 07:22:42.310301+01 | 1486275762.3103 | pgbench_history  |                0
 2017-02-05 07:22:42.310301+01 | 1486275762.3103 | pgbench_branches |            40960

 2017-02-05 07:22:43.398852+01 | 1486275763.39885 | pgbench_accounts |      13652197376
 2017-02-05 07:22:43.398852+01 | 1486275763.39885 | pgbench_tellers  |           450560
 2017-02-05 07:22:43.398852+01 | 1486275763.39885 | pgbench_history  |                0
 2017-02-05 07:22:43.398852+01 | 1486275763.39885 | pgbench_branches |            40960

 2017-02-05 07:22:44.474516+01 | 1486275764.47452 | pgbench_accounts |      13652205568
 2017-02-05 07:22:44.474516+01 | 1486275764.47452 | pgbench_tellers  |           450560
 2017-02-05 07:22:44.474516+01 | 1486275764.47452 | pgbench_history  |                0
 2017-02-05 07:22:44.474516+01 | 1486275764.47452 | pgbench_branches |            40960

 2017-02-05 07:22:45.559792+01 | 1486275765.55979 | pgbench_accounts |      13652205568
 2017-02-05 07:22:45.559792+01 | 1486275765.55979 | pgbench_tellers  |           450560
 2017-02-05 07:22:45.559792+01 | 1486275765.55979 | pgbench_history  |                0
 2017-02-05 07:22:45.559792+01 | 1486275765.55979 | pgbench_branches |            40960

 2017-02-05 07:22:46.645142+01 | 1486275766.64514 | pgbench_accounts |      13652205568
 2017-02-05 07:22:46.645142+01 | 1486275766.64514 | pgbench_tellers  |           450560
 2017-02-05 07:22:46.645142+01 | 1486275766.64514 | pgbench_history  |                0
 2017-02-05 07:22:46.645142+01 | 1486275766.64514 | pgbench_branches |            40960

 2017-02-05 07:22:47.717782+01 | 1486275767.71778 | pgbench_accounts |      13652221952
 2017-02-05 07:22:47.717782+01 | 1486275767.71778 | pgbench_tellers  |           450560
 2017-02-05 07:22:47.717782+01 | 1486275767.71778 | pgbench_history  |                0
 2017-02-05 07:22:47.717782+01 | 1486275767.71778 | pgbench_branches |            40960

 2017-02-05 07:22:48.809183+01 | 1486275768.80918 | pgbench_accounts |      13652221952
 2017-02-05 07:22:48.809183+01 | 1486275768.80918 | pgbench_tellers  |           450560
 2017-02-05 07:22:48.809183+01 | 1486275768.80918 | pgbench_history  |                0
 2017-02-05 07:22:48.809183+01 | 1486275768.80918 | pgbench_branches |            40960

 2017-02-05 07:22:49.901642+01 | 1486275769.90164 | pgbench_accounts |      13652230144
 2017-02-05 07:22:49.901642+01 | 1486275769.90164 | pgbench_tellers  |           450560
 2017-02-05 07:22:49.901642+01 | 1486275769.90164 | pgbench_history  |                0
 2017-02-05 07:22:49.901642+01 | 1486275769.90164 | pgbench_branches |            40960

 2017-02-05 07:22:50.982253+01 | 1486275770.98225 | pgbench_accounts |      13652246528
 2017-02-05 07:22:50.982253+01 | 1486275770.98225 | pgbench_tellers  |           450560
 2017-02-05 07:22:50.982253+01 | 1486275770.98225 | pgbench_history  |                0
 2017-02-05 07:22:50.982253+01 | 1486275770.98225 | pgbench_branches |            40960

 2017-02-05 07:22:52.066603+01 | 1486275772.0666 | pgbench_accounts |      13652271104
 2017-02-05 07:22:52.066603+01 | 1486275772.0666 | pgbench_tellers  |           450560
 2017-02-05 07:22:52.066603+01 | 1486275772.0666 | pgbench_history  |                0
 2017-02-05 07:22:52.066603+01 | 1486275772.0666 | pgbench_branches |            40960

 2017-02-05 07:22:53.149131+01 | 1486275773.14913 | pgbench_accounts |      13652271104
 2017-02-05 07:22:53.149131+01 | 1486275773.14913 | pgbench_tellers  |           450560
 2017-02-05 07:22:53.149131+01 | 1486275773.14913 | pgbench_history  |                0
 2017-02-05 07:22:53.149131+01 | 1486275773.14913 | pgbench_branches |            40960

 2017-02-05 07:22:54.223314+01 | 1486275774.22331 | pgbench_accounts |      13652271104
 2017-02-05 07:22:54.223314+01 | 1486275774.22331 | pgbench_tellers  |           450560
 2017-02-05 07:22:54.223314+01 | 1486275774.22331 | pgbench_history  |                0
 2017-02-05 07:22:54.223314+01 | 1486275774.22331 | pgbench_branches |            40960

 2017-02-05 07:22:55.312203+01 | 1486275775.3122 | pgbench_accounts |      13652271104
 2017-02-05 07:22:55.312203+01 | 1486275775.3122 | pgbench_tellers  |           450560
 2017-02-05 07:22:55.312203+01 | 1486275775.3122 | pgbench_history  |                0
 2017-02-05 07:22:55.312203+01 | 1486275775.3122 | pgbench_branches |            40960

 2017-02-05 07:22:56.400095+01 | 1486275776.40009 | pgbench_accounts |      13652271104
 2017-02-05 07:22:56.400095+01 | 1486275776.40009 | pgbench_tellers  |           450560
 2017-02-05 07:22:56.400095+01 | 1486275776.40009 | pgbench_history  |                0
 2017-02-05 07:22:56.400095+01 | 1486275776.40009 | pgbench_branches |            40960

 2017-02-05 07:22:57.474202+01 | 1486275777.4742 | pgbench_accounts |      13652279296
 2017-02-05 07:22:57.474202+01 | 1486275777.4742 | pgbench_tellers  |           450560
 2017-02-05 07:22:57.474202+01 | 1486275777.4742 | pgbench_history  |                0
 2017-02-05 07:22:57.474202+01 | 1486275777.4742 | pgbench_branches |            40960

 2017-02-05 07:22:58.559468+01 | 1486275778.55947 | pgbench_accounts |      13652303872
 2017-02-05 07:22:58.559468+01 | 1486275778.55947 | pgbench_tellers  |           450560
 2017-02-05 07:22:58.559468+01 | 1486275778.55947 | pgbench_history  |                0
 2017-02-05 07:22:58.559468+01 | 1486275778.55947 | pgbench_branches |            40960

 2017-02-05 07:22:59.63245+01 | 1486275779.63245 | pgbench_accounts |      13652320256
 2017-02-05 07:22:59.63245+01 | 1486275779.63245 | pgbench_tellers  |           450560
 2017-02-05 07:22:59.63245+01 | 1486275779.63245 | pgbench_history  |                0
 2017-02-05 07:22:59.63245+01 | 1486275779.63245 | pgbench_branches |            40960

 2017-02-05 07:23:00.714599+01 | 1486275780.7146 | pgbench_accounts |      13652336640
 2017-02-05 07:23:00.714599+01 | 1486275780.7146 | pgbench_tellers  |           450560
 2017-02-05 07:23:00.714599+01 | 1486275780.7146 | pgbench_history  |                0
 2017-02-05 07:23:00.714599+01 | 1486275780.7146 | pgbench_branches |            40960

 2017-02-05 07:23:01.799717+01 | 1486275781.79972 | pgbench_accounts |      13652336640
 2017-02-05 07:23:01.799717+01 | 1486275781.79972 | pgbench_tellers  |           450560
 2017-02-05 07:23:01.799717+01 | 1486275781.79972 | pgbench_history  |                0
 2017-02-05 07:23:01.799717+01 | 1486275781.79972 | pgbench_branches |            40960

 2017-02-05 07:23:02.876008+01 | 1486275782.87601 | pgbench_accounts |      13652336640
 2017-02-05 07:23:02.876008+01 | 1486275782.87601 | pgbench_tellers  |           450560
 2017-02-05 07:23:02.876008+01 | 1486275782.87601 | pgbench_history  |                0
 2017-02-05 07:23:02.876008+01 | 1486275782.87601 | pgbench_branches |            40960

 2017-02-05 07:23:03.954341+01 | 1486275783.95434 | pgbench_accounts |      13652344832
 2017-02-05 07:23:03.954341+01 | 1486275783.95434 | pgbench_tellers  |           450560
 2017-02-05 07:23:03.954341+01 | 1486275783.95434 | pgbench_history  |                0
 2017-02-05 07:23:03.954341+01 | 1486275783.95434 | pgbench_branches |            40960

 2017-02-05 07:23:05.043047+01 | 1486275785.04305 | pgbench_accounts |      13652344832
 2017-02-05 07:23:05.043047+01 | 1486275785.04305 | pgbench_tellers  |           450560
 2017-02-05 07:23:05.043047+01 | 1486275785.04305 | pgbench_history  |                0
 2017-02-05 07:23:05.043047+01 | 1486275785.04305 | pgbench_branches |            40960

 2017-02-05 07:23:06.125464+01 | 1486275786.12546 | pgbench_accounts |      13652361216
 2017-02-05 07:23:06.125464+01 | 1486275786.12546 | pgbench_tellers  |           450560
 2017-02-05 07:23:06.125464+01 | 1486275786.12546 | pgbench_history  |                0
 2017-02-05 07:23:06.125464+01 | 1486275786.12546 | pgbench_branches |            40960

 2017-02-05 07:23:07.212211+01 | 1486275787.21221 | pgbench_accounts |      13652385792
 2017-02-05 07:23:07.212211+01 | 1486275787.21221 | pgbench_tellers  |           450560
 2017-02-05 07:23:07.212211+01 | 1486275787.21221 | pgbench_history  |                0
 2017-02-05 07:23:07.212211+01 | 1486275787.21221 | pgbench_branches |            40960

 2017-02-05 07:23:08.295553+01 | 1486275788.29555 | pgbench_accounts |      13652393984
 2017-02-05 07:23:08.295553+01 | 1486275788.29555 | pgbench_tellers  |           450560
 2017-02-05 07:23:08.295553+01 | 1486275788.29555 | pgbench_history  |                0
 2017-02-05 07:23:08.295553+01 | 1486275788.29555 | pgbench_branches |            40960

 2017-02-05 07:23:09.381732+01 | 1486275789.38173 | pgbench_accounts |      13652393984
 2017-02-05 07:23:09.381732+01 | 1486275789.38173 | pgbench_tellers  |           450560
 2017-02-05 07:23:09.381732+01 | 1486275789.38173 | pgbench_history  |                0
 2017-02-05 07:23:09.381732+01 | 1486275789.38173 | pgbench_branches |            40960

 2017-02-05 07:23:10.475528+01 | 1486275790.47553 | pgbench_accounts |      13652393984
 2017-02-05 07:23:10.475528+01 | 1486275790.47553 | pgbench_tellers  |           450560
 2017-02-05 07:23:10.475528+01 | 1486275790.47553 | pgbench_history  |                0
 2017-02-05 07:23:10.475528+01 | 1486275790.47553 | pgbench_branches |            40960

 2017-02-05 07:23:11.565196+01 | 1486275791.5652 | pgbench_accounts |      13652402176
 2017-02-05 07:23:11.565196+01 | 1486275791.5652 | pgbench_tellers  |           450560
 2017-02-05 07:23:11.565196+01 | 1486275791.5652 | pgbench_history  |                0
 2017-02-05 07:23:11.565196+01 | 1486275791.5652 | pgbench_branches |            40960

 2017-02-05 07:23:12.65208+01 | 1486275792.65208 | pgbench_accounts |      13652410368
 2017-02-05 07:23:12.65208+01 | 1486275792.65208 | pgbench_tellers  |           450560
 2017-02-05 07:23:12.65208+01 | 1486275792.65208 | pgbench_history  |                0
 2017-02-05 07:23:12.65208+01 | 1486275792.65208 | pgbench_branches |            40960

 2017-02-05 07:23:13.739224+01 | 1486275793.73922 | pgbench_accounts |      13652410368
 2017-02-05 07:23:13.739224+01 | 1486275793.73922 | pgbench_tellers  |           450560
 2017-02-05 07:23:13.739224+01 | 1486275793.73922 | pgbench_history  |                0
 2017-02-05 07:23:13.739224+01 | 1486275793.73922 | pgbench_branches |            40960

 2017-02-05 07:23:14.824407+01 | 1486275794.82441 | pgbench_accounts |      13652418560
 2017-02-05 07:23:14.824407+01 | 1486275794.82441 | pgbench_tellers  |           450560
 2017-02-05 07:23:14.824407+01 | 1486275794.82441 | pgbench_history  |                0
 2017-02-05 07:23:14.824407+01 | 1486275794.82441 | pgbench_branches |            40960

 2017-02-05 07:23:15.915646+01 | 1486275795.91565 | pgbench_accounts |      13652434944
 2017-02-05 07:23:15.915646+01 | 1486275795.91565 | pgbench_tellers  |           450560
 2017-02-05 07:23:15.915646+01 | 1486275795.91565 | pgbench_history  |                0
 2017-02-05 07:23:15.915646+01 | 1486275795.91565 | pgbench_branches |            40960

 2017-02-05 07:23:17.007905+01 | 1486275797.00791 | pgbench_accounts |      13652443136
 2017-02-05 07:23:17.007905+01 | 1486275797.00791 | pgbench_tellers  |           450560
 2017-02-05 07:23:17.007905+01 | 1486275797.00791 | pgbench_history  |                0
 2017-02-05 07:23:17.007905+01 | 1486275797.00791 | pgbench_branches |            40960

 2017-02-05 07:23:18.094097+01 | 1486275798.0941 | pgbench_accounts |      13652459520
 2017-02-05 07:23:18.094097+01 | 1486275798.0941 | pgbench_tellers  |           450560
 2017-02-05 07:23:18.094097+01 | 1486275798.0941 | pgbench_history  |                0
 2017-02-05 07:23:18.094097+01 | 1486275798.0941 | pgbench_branches |            40960

 2017-02-05 07:23:19.17727+01 | 1486275799.17727 | pgbench_accounts |      13652459520
 2017-02-05 07:23:19.17727+01 | 1486275799.17727 | pgbench_tellers  |           450560
 2017-02-05 07:23:19.17727+01 | 1486275799.17727 | pgbench_history  |                0
 2017-02-05 07:23:19.17727+01 | 1486275799.17727 | pgbench_branches |            40960

 2017-02-05 07:23:20.258757+01 | 1486275800.25876 | pgbench_accounts |      13652467712
 2017-02-05 07:23:20.258757+01 | 1486275800.25876 | pgbench_tellers  |           450560
 2017-02-05 07:23:20.258757+01 | 1486275800.25876 | pgbench_history  |                0
 2017-02-05 07:23:20.258757+01 | 1486275800.25876 | pgbench_branches |            40960

 2017-02-05 07:23:21.337976+01 | 1486275801.33798 | pgbench_accounts |      13652467712
 2017-02-05 07:23:21.337976+01 | 1486275801.33798 | pgbench_tellers  |           450560
 2017-02-05 07:23:21.337976+01 | 1486275801.33798 | pgbench_history  |                0
 2017-02-05 07:23:21.337976+01 | 1486275801.33798 | pgbench_branches |            40960

 2017-02-05 07:23:22.425688+01 | 1486275802.42569 | pgbench_accounts |      13652467712
 2017-02-05 07:23:22.425688+01 | 1486275802.42569 | pgbench_tellers  |           450560
 2017-02-05 07:23:22.425688+01 | 1486275802.42569 | pgbench_history  |                0
 2017-02-05 07:23:22.425688+01 | 1486275802.42569 | pgbench_branches |            40960

 2017-02-05 07:23:23.517597+01 | 1486275803.5176 | pgbench_accounts |      13652484096
 2017-02-05 07:23:23.517597+01 | 1486275803.5176 | pgbench_tellers  |           450560
 2017-02-05 07:23:23.517597+01 | 1486275803.5176 | pgbench_history  |                0
 2017-02-05 07:23:23.517597+01 | 1486275803.5176 | pgbench_branches |            40960

 2017-02-05 07:23:24.611234+01 | 1486275804.61123 | pgbench_accounts |      13652508672
 2017-02-05 07:23:24.611234+01 | 1486275804.61123 | pgbench_tellers  |           450560
 2017-02-05 07:23:24.611234+01 | 1486275804.61123 | pgbench_history  |                0
 2017-02-05 07:23:24.611234+01 | 1486275804.61123 | pgbench_branches |            40960

 2017-02-05 07:23:25.709279+01 | 1486275805.70928 | pgbench_accounts |      13652508672
 2017-02-05 07:23:25.709279+01 | 1486275805.70928 | pgbench_tellers  |           450560
 2017-02-05 07:23:25.709279+01 | 1486275805.70928 | pgbench_history  |                0
 2017-02-05 07:23:25.709279+01 | 1486275805.70928 | pgbench_branches |            40960

 2017-02-05 07:23:26.79818+01 | 1486275806.79818 | pgbench_accounts |      13652516864
 2017-02-05 07:23:26.79818+01 | 1486275806.79818 | pgbench_tellers  |           450560
 2017-02-05 07:23:26.79818+01 | 1486275806.79818 | pgbench_history  |                0
 2017-02-05 07:23:26.79818+01 | 1486275806.79818 | pgbench_branches |            40960

 2017-02-05 07:23:27.884913+01 | 1486275807.88491 | pgbench_accounts |      13652533248
 2017-02-05 07:23:27.884913+01 | 1486275807.88491 | pgbench_tellers  |           450560
 2017-02-05 07:23:27.884913+01 | 1486275807.88491 | pgbench_history  |                0
 2017-02-05 07:23:27.884913+01 | 1486275807.88491 | pgbench_branches |            40960

 2017-02-05 07:23:28.964648+01 | 1486275808.96465 | pgbench_accounts |      13652533248
 2017-02-05 07:23:28.964648+01 | 1486275808.96465 | pgbench_tellers  |           450560
 2017-02-05 07:23:28.964648+01 | 1486275808.96465 | pgbench_history  |                0
 2017-02-05 07:23:28.964648+01 | 1486275808.96465 | pgbench_branches |            40960

 2017-02-05 07:23:30.042252+01 | 1486275810.04225 | pgbench_accounts |      13652533248
 2017-02-05 07:23:30.042252+01 | 1486275810.04225 | pgbench_tellers  |           450560
 2017-02-05 07:23:30.042252+01 | 1486275810.04225 | pgbench_history  |                0
 2017-02-05 07:23:30.042252+01 | 1486275810.04225 | pgbench_branches |            40960

 2017-02-05 07:23:31.128034+01 | 1486275811.12803 | pgbench_accounts |      13652533248
 2017-02-05 07:23:31.128034+01 | 1486275811.12803 | pgbench_tellers  |           450560
 2017-02-05 07:23:31.128034+01 | 1486275811.12803 | pgbench_history  |                0
 2017-02-05 07:23:31.128034+01 | 1486275811.12803 | pgbench_branches |            40960

 2017-02-05 07:23:32.218205+01 | 1486275812.2182 | pgbench_accounts |      13652541440
 2017-02-05 07:23:32.218205+01 | 1486275812.2182 | pgbench_tellers  |           450560
 2017-02-05 07:23:32.218205+01 | 1486275812.2182 | pgbench_history  |                0
 2017-02-05 07:23:32.218205+01 | 1486275812.2182 | pgbench_branches |            40960

 2017-02-05 07:23:33.307911+01 | 1486275813.30791 | pgbench_accounts |      13652549632
 2017-02-05 07:23:33.307911+01 | 1486275813.30791 | pgbench_tellers  |           450560
 2017-02-05 07:23:33.307911+01 | 1486275813.30791 | pgbench_history  |                0
 2017-02-05 07:23:33.307911+01 | 1486275813.30791 | pgbench_branches |            40960

 2017-02-05 07:23:34.391467+01 | 1486275814.39147 | pgbench_accounts |      13652574208
 2017-02-05 07:23:34.391467+01 | 1486275814.39147 | pgbench_tellers  |           450560
 2017-02-05 07:23:34.391467+01 | 1486275814.39147 | pgbench_history  |                0
 2017-02-05 07:23:34.391467+01 | 1486275814.39147 | pgbench_branches |            40960

 2017-02-05 07:23:35.471582+01 | 1486275815.47158 | pgbench_accounts |      13652574208
 2017-02-05 07:23:35.471582+01 | 1486275815.47158 | pgbench_tellers  |           450560
 2017-02-05 07:23:35.471582+01 | 1486275815.47158 | pgbench_history  |                0
 2017-02-05 07:23:35.471582+01 | 1486275815.47158 | pgbench_branches |            40960

 2017-02-05 07:23:36.557362+01 | 1486275816.55736 | pgbench_accounts |      13652590592
 2017-02-05 07:23:36.557362+01 | 1486275816.55736 | pgbench_tellers  |           450560
 2017-02-05 07:23:36.557362+01 | 1486275816.55736 | pgbench_history  |                0
 2017-02-05 07:23:36.557362+01 | 1486275816.55736 | pgbench_branches |            40960

 2017-02-05 07:23:37.638259+01 | 1486275817.63826 | pgbench_accounts |      13652590592
 2017-02-05 07:23:37.638259+01 | 1486275817.63826 | pgbench_tellers  |           450560
 2017-02-05 07:23:37.638259+01 | 1486275817.63826 | pgbench_history  |                0
 2017-02-05 07:23:37.638259+01 | 1486275817.63826 | pgbench_branches |            40960

 2017-02-05 07:23:38.716971+01 | 1486275818.71697 | pgbench_accounts |      13652598784
 2017-02-05 07:23:38.716971+01 | 1486275818.71697 | pgbench_tellers  |           450560
 2017-02-05 07:23:38.716971+01 | 1486275818.71697 | pgbench_history  |                0
 2017-02-05 07:23:38.716971+01 | 1486275818.71697 | pgbench_branches |            40960

 2017-02-05 07:23:39.803671+01 | 1486275819.80367 | pgbench_accounts |      13652598784
 2017-02-05 07:23:39.803671+01 | 1486275819.80367 | pgbench_tellers  |           450560
 2017-02-05 07:23:39.803671+01 | 1486275819.80367 | pgbench_history  |                0
 2017-02-05 07:23:39.803671+01 | 1486275819.80367 | pgbench_branches |            40960

 2017-02-05 07:23:40.88563+01 | 1486275820.88563 | pgbench_accounts |      13652606976
 2017-02-05 07:23:40.88563+01 | 1486275820.88563 | pgbench_tellers  |           450560
 2017-02-05 07:23:40.88563+01 | 1486275820.88563 | pgbench_history  |                0
 2017-02-05 07:23:40.88563+01 | 1486275820.88563 | pgbench_branches |            40960

 2017-02-05 07:23:41.971515+01 | 1486275821.97151 | pgbench_accounts |      13652606976
 2017-02-05 07:23:41.971515+01 | 1486275821.97151 | pgbench_tellers  |           450560
 2017-02-05 07:23:41.971515+01 | 1486275821.97151 | pgbench_history  |                0
 2017-02-05 07:23:41.971515+01 | 1486275821.97151 | pgbench_branches |            40960

 2017-02-05 07:23:43.057687+01 | 1486275823.05769 | pgbench_accounts |      13652631552
 2017-02-05 07:23:43.057687+01 | 1486275823.05769 | pgbench_tellers  |           450560
 2017-02-05 07:23:43.057687+01 | 1486275823.05769 | pgbench_history  |                0
 2017-02-05 07:23:43.057687+01 | 1486275823.05769 | pgbench_branches |            40960

 2017-02-05 07:23:44.139027+01 | 1486275824.13903 | pgbench_accounts |      13652639744
 2017-02-05 07:23:44.139027+01 | 1486275824.13903 | pgbench_tellers  |           450560
 2017-02-05 07:23:44.139027+01 | 1486275824.13903 | pgbench_history  |                0
 2017-02-05 07:23:44.139027+01 | 1486275824.13903 | pgbench_branches |            40960

 2017-02-05 07:23:45.223141+01 | 1486275825.22314 | pgbench_accounts |      13652639744
 2017-02-05 07:23:45.223141+01 | 1486275825.22314 | pgbench_tellers  |           450560
 2017-02-05 07:23:45.223141+01 | 1486275825.22314 | pgbench_history  |                0
 2017-02-05 07:23:45.223141+01 | 1486275825.22314 | pgbench_branches |            40960

 2017-02-05 07:23:46.305702+01 | 1486275826.3057 | pgbench_accounts |      13652639744
 2017-02-05 07:23:46.305702+01 | 1486275826.3057 | pgbench_tellers  |           450560
 2017-02-05 07:23:46.305702+01 | 1486275826.3057 | pgbench_history  |                0
 2017-02-05 07:23:46.305702+01 | 1486275826.3057 | pgbench_branches |            40960

 2017-02-05 07:23:47.387262+01 | 1486275827.38726 | pgbench_accounts |      13652656128
 2017-02-05 07:23:47.387262+01 | 1486275827.38726 | pgbench_tellers  |           450560
 2017-02-05 07:23:47.387262+01 | 1486275827.38726 | pgbench_history  |                0
 2017-02-05 07:23:47.387262+01 | 1486275827.38726 | pgbench_branches |            40960

 2017-02-05 07:23:48.45491+01 | 1486275828.45491 | pgbench_accounts |      13652664320
 2017-02-05 07:23:48.45491+01 | 1486275828.45491 | pgbench_tellers  |           450560
 2017-02-05 07:23:48.45491+01 | 1486275828.45491 | pgbench_history  |                0
 2017-02-05 07:23:48.45491+01 | 1486275828.45491 | pgbench_branches |            40960

 2017-02-05 07:23:49.541461+01 | 1486275829.54146 | pgbench_accounts |      13652664320
 2017-02-05 07:23:49.541461+01 | 1486275829.54146 | pgbench_tellers  |           450560
 2017-02-05 07:23:49.541461+01 | 1486275829.54146 | pgbench_history  |                0
 2017-02-05 07:23:49.541461+01 | 1486275829.54146 | pgbench_branches |            40960

 2017-02-05 07:23:50.61947+01 | 1486275830.61947 | pgbench_accounts |      13652664320
 2017-02-05 07:23:50.61947+01 | 1486275830.61947 | pgbench_tellers  |           450560
 2017-02-05 07:23:50.61947+01 | 1486275830.61947 | pgbench_history  |                0
 2017-02-05 07:23:50.61947+01 | 1486275830.61947 | pgbench_branches |            40960

 2017-02-05 07:23:51.704318+01 | 1486275831.70432 | pgbench_accounts |      13652680704
 2017-02-05 07:23:51.704318+01 | 1486275831.70432 | pgbench_tellers  |           450560
 2017-02-05 07:23:51.704318+01 | 1486275831.70432 | pgbench_history  |                0
 2017-02-05 07:23:51.704318+01 | 1486275831.70432 | pgbench_branches |            40960

 2017-02-05 07:23:52.788511+01 | 1486275832.78851 | pgbench_accounts |      13652688896
 2017-02-05 07:23:52.788511+01 | 1486275832.78851 | pgbench_tellers  |           450560
 2017-02-05 07:23:52.788511+01 | 1486275832.78851 | pgbench_history  |                0
 2017-02-05 07:23:52.788511+01 | 1486275832.78851 | pgbench_branches |            40960

 2017-02-05 07:23:53.871266+01 | 1486275833.87127 | pgbench_accounts |      13652697088
 2017-02-05 07:23:53.871266+01 | 1486275833.87127 | pgbench_tellers  |           450560
 2017-02-05 07:23:53.871266+01 | 1486275833.87127 | pgbench_history  |                0
 2017-02-05 07:23:53.871266+01 | 1486275833.87127 | pgbench_branches |            40960

 2017-02-05 07:23:54.963325+01 | 1486275834.96333 | pgbench_accounts |      13652705280
 2017-02-05 07:23:54.963325+01 | 1486275834.96333 | pgbench_tellers  |           450560
 2017-02-05 07:23:54.963325+01 | 1486275834.96333 | pgbench_history  |                0
 2017-02-05 07:23:54.963325+01 | 1486275834.96333 | pgbench_branches |            40960

 2017-02-05 07:23:56.043135+01 | 1486275836.04313 | pgbench_accounts |      13652705280
 2017-02-05 07:23:56.043135+01 | 1486275836.04313 | pgbench_tellers  |           450560
 2017-02-05 07:23:56.043135+01 | 1486275836.04313 | pgbench_history  |                0
 2017-02-05 07:23:56.043135+01 | 1486275836.04313 | pgbench_branches |            40960

 2017-02-05 07:23:57.121492+01 | 1486275837.12149 | pgbench_accounts |      13652705280
 2017-02-05 07:23:57.121492+01 | 1486275837.12149 | pgbench_tellers  |           450560
 2017-02-05 07:23:57.121492+01 | 1486275837.12149 | pgbench_history  |                0
 2017-02-05 07:23:57.121492+01 | 1486275837.12149 | pgbench_branches |            40960

 2017-02-05 07:23:58.207042+01 | 1486275838.20704 | pgbench_accounts |      13652729856
 2017-02-05 07:23:58.207042+01 | 1486275838.20704 | pgbench_tellers  |           450560
 2017-02-05 07:23:58.207042+01 | 1486275838.20704 | pgbench_history  |                0
 2017-02-05 07:23:58.207042+01 | 1486275838.20704 | pgbench_branches |            40960

 2017-02-05 07:23:59.295199+01 | 1486275839.2952 | pgbench_accounts |      13652729856
 2017-02-05 07:23:59.295199+01 | 1486275839.2952 | pgbench_tellers  |           450560
 2017-02-05 07:23:59.295199+01 | 1486275839.2952 | pgbench_history  |                0
 2017-02-05 07:23:59.295199+01 | 1486275839.2952 | pgbench_branches |            40960

 2017-02-05 07:24:00.371754+01 | 1486275840.37175 | pgbench_accounts |      13652738048
 2017-02-05 07:24:00.371754+01 | 1486275840.37175 | pgbench_tellers  |           450560
 2017-02-05 07:24:00.371754+01 | 1486275840.37175 | pgbench_history  |                0
 2017-02-05 07:24:00.371754+01 | 1486275840.37175 | pgbench_branches |            40960

 2017-02-05 07:24:01.445926+01 | 1486275841.44593 | pgbench_accounts |      13652738048
 2017-02-05 07:24:01.445926+01 | 1486275841.44593 | pgbench_tellers  |           450560
 2017-02-05 07:24:01.445926+01 | 1486275841.44593 | pgbench_history  |                0
 2017-02-05 07:24:01.445926+01 | 1486275841.44593 | pgbench_branches |            40960

 2017-02-05 07:24:02.52726+01 | 1486275842.52726 | pgbench_accounts |      13652738048
 2017-02-05 07:24:02.52726+01 | 1486275842.52726 | pgbench_tellers  |           450560
 2017-02-05 07:24:02.52726+01 | 1486275842.52726 | pgbench_history  |                0
 2017-02-05 07:24:02.52726+01 | 1486275842.52726 | pgbench_branches |            40960

 2017-02-05 07:24:03.619516+01 | 1486275843.61952 | pgbench_accounts |      13652754432
 2017-02-05 07:24:03.619516+01 | 1486275843.61952 | pgbench_tellers  |           450560
 2017-02-05 07:24:03.619516+01 | 1486275843.61952 | pgbench_history  |                0
 2017-02-05 07:24:03.619516+01 | 1486275843.61952 | pgbench_branches |            40960

 2017-02-05 07:24:04.702225+01 | 1486275844.70222 | pgbench_accounts |      13652762624
 2017-02-05 07:24:04.702225+01 | 1486275844.70222 | pgbench_tellers  |           450560
 2017-02-05 07:24:04.702225+01 | 1486275844.70222 | pgbench_history  |                0
 2017-02-05 07:24:04.702225+01 | 1486275844.70222 | pgbench_branches |            40960

 2017-02-05 07:24:05.780643+01 | 1486275845.78064 | pgbench_accounts |      13652770816
 2017-02-05 07:24:05.780643+01 | 1486275845.78064 | pgbench_tellers  |           450560
 2017-02-05 07:24:05.780643+01 | 1486275845.78064 | pgbench_history  |                0
 2017-02-05 07:24:05.780643+01 | 1486275845.78064 | pgbench_branches |            40960

 2017-02-05 07:24:06.859106+01 | 1486275846.85911 | pgbench_accounts |      13652770816
 2017-02-05 07:24:06.859106+01 | 1486275846.85911 | pgbench_tellers  |           450560
 2017-02-05 07:24:06.859106+01 | 1486275846.85911 | pgbench_history  |                0
 2017-02-05 07:24:06.859106+01 | 1486275846.85911 | pgbench_branches |            40960

 2017-02-05 07:24:07.931506+01 | 1486275847.93151 | pgbench_accounts |      13652770816
 2017-02-05 07:24:07.931506+01 | 1486275847.93151 | pgbench_tellers  |           450560
 2017-02-05 07:24:07.931506+01 | 1486275847.93151 | pgbench_history  |                0
 2017-02-05 07:24:07.931506+01 | 1486275847.93151 | pgbench_branches |            40960

 2017-02-05 07:24:09.018312+01 | 1486275849.01831 | pgbench_accounts |      13652770816
 2017-02-05 07:24:09.018312+01 | 1486275849.01831 | pgbench_tellers  |           450560
 2017-02-05 07:24:09.018312+01 | 1486275849.01831 | pgbench_history  |                0
 2017-02-05 07:24:09.018312+01 | 1486275849.01831 | pgbench_branches |            40960

 2017-02-05 07:24:10.10682+01 | 1486275850.10682 | pgbench_accounts |      13652779008
 2017-02-05 07:24:10.10682+01 | 1486275850.10682 | pgbench_tellers  |           450560
 2017-02-05 07:24:10.10682+01 | 1486275850.10682 | pgbench_history  |                0
 2017-02-05 07:24:10.10682+01 | 1486275850.10682 | pgbench_branches |            40960

 2017-02-05 07:24:11.188648+01 | 1486275851.18865 | pgbench_accounts |      13652795392
 2017-02-05 07:24:11.188648+01 | 1486275851.18865 | pgbench_tellers  |           450560
 2017-02-05 07:24:11.188648+01 | 1486275851.18865 | pgbench_history  |                0
 2017-02-05 07:24:11.188648+01 | 1486275851.18865 | pgbench_branches |            40960

 2017-02-05 07:24:12.267678+01 | 1486275852.26768 | pgbench_accounts |      13652795392
 2017-02-05 07:24:12.267678+01 | 1486275852.26768 | pgbench_tellers  |           450560
 2017-02-05 07:24:12.267678+01 | 1486275852.26768 | pgbench_history  |                0
 2017-02-05 07:24:12.267678+01 | 1486275852.26768 | pgbench_branches |            40960

 2017-02-05 07:24:13.353528+01 | 1486275853.35353 | pgbench_accounts |      13652803584
 2017-02-05 07:24:13.353528+01 | 1486275853.35353 | pgbench_tellers  |           450560
 2017-02-05 07:24:13.353528+01 | 1486275853.35353 | pgbench_history  |                0
 2017-02-05 07:24:13.353528+01 | 1486275853.35353 | pgbench_branches |            40960

 2017-02-05 07:24:14.433483+01 | 1486275854.43348 | pgbench_accounts |      13652803584
 2017-02-05 07:24:14.433483+01 | 1486275854.43348 | pgbench_tellers  |           450560
 2017-02-05 07:24:14.433483+01 | 1486275854.43348 | pgbench_history  |                0
 2017-02-05 07:24:14.433483+01 | 1486275854.43348 | pgbench_branches |            40960

 2017-02-05 07:24:15.514723+01 | 1486275855.51472 | pgbench_accounts |      13652803584
 2017-02-05 07:24:15.514723+01 | 1486275855.51472 | pgbench_tellers  |           450560
 2017-02-05 07:24:15.514723+01 | 1486275855.51472 | pgbench_history  |                0
 2017-02-05 07:24:15.514723+01 | 1486275855.51472 | pgbench_branches |            40960

 2017-02-05 07:24:16.601557+01 | 1486275856.60156 | pgbench_accounts |      13652803584
 2017-02-05 07:24:16.601557+01 | 1486275856.60156 | pgbench_tellers  |           450560
 2017-02-05 07:24:16.601557+01 | 1486275856.60156 | pgbench_history  |                0
 2017-02-05 07:24:16.601557+01 | 1486275856.60156 | pgbench_branches |            40960

 2017-02-05 07:24:17.6888+01 | 1486275857.6888 | pgbench_accounts |      13652811776
 2017-02-05 07:24:17.6888+01 | 1486275857.6888 | pgbench_tellers  |           450560
 2017-02-05 07:24:17.6888+01 | 1486275857.6888 | pgbench_history  |                0
 2017-02-05 07:24:17.6888+01 | 1486275857.6888 | pgbench_branches |            40960

 2017-02-05 07:24:18.774734+01 | 1486275858.77473 | pgbench_accounts |      13652828160
 2017-02-05 07:24:18.774734+01 | 1486275858.77473 | pgbench_tellers  |           450560
 2017-02-05 07:24:18.774734+01 | 1486275858.77473 | pgbench_history  |                0
 2017-02-05 07:24:18.774734+01 | 1486275858.77473 | pgbench_branches |            40960

 2017-02-05 07:24:19.861986+01 | 1486275859.86199 | pgbench_accounts |      13652844544
 2017-02-05 07:24:19.861986+01 | 1486275859.86199 | pgbench_tellers  |           450560
 2017-02-05 07:24:19.861986+01 | 1486275859.86199 | pgbench_history  |                0
 2017-02-05 07:24:19.861986+01 | 1486275859.86199 | pgbench_branches |            40960

 2017-02-05 07:24:20.944577+01 | 1486275860.94458 | pgbench_accounts |      13652844544
 2017-02-05 07:24:20.944577+01 | 1486275860.94458 | pgbench_tellers  |           450560
 2017-02-05 07:24:20.944577+01 | 1486275860.94458 | pgbench_history  |                0
 2017-02-05 07:24:20.944577+01 | 1486275860.94458 | pgbench_branches |            40960

 2017-02-05 07:24:22.030169+01 | 1486275862.03017 | pgbench_accounts |      13652852736
 2017-02-05 07:24:22.030169+01 | 1486275862.03017 | pgbench_tellers  |           450560
 2017-02-05 07:24:22.030169+01 | 1486275862.03017 | pgbench_history  |                0
 2017-02-05 07:24:22.030169+01 | 1486275862.03017 | pgbench_branches |            40960

 2017-02-05 07:24:23.113809+01 | 1486275863.11381 | pgbench_accounts |      13652852736
 2017-02-05 07:24:23.113809+01 | 1486275863.11381 | pgbench_tellers  |           450560
 2017-02-05 07:24:23.113809+01 | 1486275863.11381 | pgbench_history  |                0
 2017-02-05 07:24:23.113809+01 | 1486275863.11381 | pgbench_branches |            40960

 2017-02-05 07:24:24.188543+01 | 1486275864.18854 | pgbench_accounts |      13652852736
 2017-02-05 07:24:24.188543+01 | 1486275864.18854 | pgbench_tellers  |           450560
 2017-02-05 07:24:24.188543+01 | 1486275864.18854 | pgbench_history  |                0
 2017-02-05 07:24:24.188543+01 | 1486275864.18854 | pgbench_branches |            40960

 2017-02-05 07:24:25.267086+01 | 1486275865.26709 | pgbench_accounts |      13652860928
 2017-02-05 07:24:25.267086+01 | 1486275865.26709 | pgbench_tellers  |           450560
 2017-02-05 07:24:25.267086+01 | 1486275865.26709 | pgbench_history  |                0
 2017-02-05 07:24:25.267086+01 | 1486275865.26709 | pgbench_branches |            40960

 2017-02-05 07:24:26.348603+01 | 1486275866.3486 | pgbench_accounts |      13652860928
 2017-02-05 07:24:26.348603+01 | 1486275866.3486 | pgbench_tellers  |           450560
 2017-02-05 07:24:26.348603+01 | 1486275866.3486 | pgbench_history  |                0
 2017-02-05 07:24:26.348603+01 | 1486275866.3486 | pgbench_branches |            40960

 2017-02-05 07:24:27.429201+01 | 1486275867.4292 | pgbench_accounts |      13652869120
 2017-02-05 07:24:27.429201+01 | 1486275867.4292 | pgbench_tellers  |           450560
 2017-02-05 07:24:27.429201+01 | 1486275867.4292 | pgbench_history  |                0
 2017-02-05 07:24:27.429201+01 | 1486275867.4292 | pgbench_branches |            40960

 2017-02-05 07:24:28.514193+01 | 1486275868.51419 | pgbench_accounts |      13652877312
 2017-02-05 07:24:28.514193+01 | 1486275868.51419 | pgbench_tellers  |           450560
 2017-02-05 07:24:28.514193+01 | 1486275868.51419 | pgbench_history  |                0
 2017-02-05 07:24:28.514193+01 | 1486275868.51419 | pgbench_branches |            40960

 2017-02-05 07:24:29.600417+01 | 1486275869.60042 | pgbench_accounts |      13652885504
 2017-02-05 07:24:29.600417+01 | 1486275869.60042 | pgbench_tellers  |           450560
 2017-02-05 07:24:29.600417+01 | 1486275869.60042 | pgbench_history  |                0
 2017-02-05 07:24:29.600417+01 | 1486275869.60042 | pgbench_branches |            40960

 2017-02-05 07:24:30.685252+01 | 1486275870.68525 | pgbench_accounts |      13652893696
 2017-02-05 07:24:30.685252+01 | 1486275870.68525 | pgbench_tellers  |           450560
 2017-02-05 07:24:30.685252+01 | 1486275870.68525 | pgbench_history  |                0
 2017-02-05 07:24:30.685252+01 | 1486275870.68525 | pgbench_branches |            40960

 2017-02-05 07:24:31.759135+01 | 1486275871.75914 | pgbench_accounts |      13652893696
 2017-02-05 07:24:31.759135+01 | 1486275871.75914 | pgbench_tellers  |           450560
 2017-02-05 07:24:31.759135+01 | 1486275871.75914 | pgbench_history  |                0
 2017-02-05 07:24:31.759135+01 | 1486275871.75914 | pgbench_branches |            40960

 2017-02-05 07:24:32.834475+01 | 1486275872.83448 | pgbench_accounts |      13652893696
 2017-02-05 07:24:32.834475+01 | 1486275872.83448 | pgbench_tellers  |           450560
 2017-02-05 07:24:32.834475+01 | 1486275872.83448 | pgbench_history  |                0
 2017-02-05 07:24:32.834475+01 | 1486275872.83448 | pgbench_branches |            40960

 2017-02-05 07:24:33.911331+01 | 1486275873.91133 | pgbench_accounts |      13652901888
 2017-02-05 07:24:33.911331+01 | 1486275873.91133 | pgbench_tellers  |           450560
 2017-02-05 07:24:33.911331+01 | 1486275873.91133 | pgbench_history  |                0
 2017-02-05 07:24:33.911331+01 | 1486275873.91133 | pgbench_branches |            40960

 2017-02-05 07:24:34.993296+01 | 1486275874.9933 | pgbench_accounts |      13652910080
 2017-02-05 07:24:34.993296+01 | 1486275874.9933 | pgbench_tellers  |           450560
 2017-02-05 07:24:34.993296+01 | 1486275874.9933 | pgbench_history  |                0
 2017-02-05 07:24:34.993296+01 | 1486275874.9933 | pgbench_branches |            40960

 2017-02-05 07:24:36.069263+01 | 1486275876.06926 | pgbench_accounts |      13652926464
 2017-02-05 07:24:36.069263+01 | 1486275876.06926 | pgbench_tellers  |           450560
 2017-02-05 07:24:36.069263+01 | 1486275876.06926 | pgbench_history  |                0
 2017-02-05 07:24:36.069263+01 | 1486275876.06926 | pgbench_branches |            40960

 2017-02-05 07:24:37.156573+01 | 1486275877.15657 | pgbench_accounts |      13652926464
 2017-02-05 07:24:37.156573+01 | 1486275877.15657 | pgbench_tellers  |           450560
 2017-02-05 07:24:37.156573+01 | 1486275877.15657 | pgbench_history  |                0
 2017-02-05 07:24:37.156573+01 | 1486275877.15657 | pgbench_branches |            40960

 2017-02-05 07:24:38.232968+01 | 1486275878.23297 | pgbench_accounts |      13652926464
 2017-02-05 07:24:38.232968+01 | 1486275878.23297 | pgbench_tellers  |           450560
 2017-02-05 07:24:38.232968+01 | 1486275878.23297 | pgbench_history  |                0
 2017-02-05 07:24:38.232968+01 | 1486275878.23297 | pgbench_branches |            40960

 2017-02-05 07:24:39.315468+01 | 1486275879.31547 | pgbench_accounts |      13652934656
 2017-02-05 07:24:39.315468+01 | 1486275879.31547 | pgbench_tellers  |           450560
 2017-02-05 07:24:39.315468+01 | 1486275879.31547 | pgbench_history  |                0
 2017-02-05 07:24:39.315468+01 | 1486275879.31547 | pgbench_branches |            40960

 2017-02-05 07:24:40.396596+01 | 1486275880.3966 | pgbench_accounts |      13652942848
 2017-02-05 07:24:40.396596+01 | 1486275880.3966 | pgbench_tellers  |           450560
 2017-02-05 07:24:40.396596+01 | 1486275880.3966 | pgbench_history  |                0
 2017-02-05 07:24:40.396596+01 | 1486275880.3966 | pgbench_branches |            40960

 2017-02-05 07:24:41.475152+01 | 1486275881.47515 | pgbench_accounts |      13652951040
 2017-02-05 07:24:41.475152+01 | 1486275881.47515 | pgbench_tellers  |           450560
 2017-02-05 07:24:41.475152+01 | 1486275881.47515 | pgbench_history  |                0
 2017-02-05 07:24:41.475152+01 | 1486275881.47515 | pgbench_branches |            40960

 2017-02-05 07:24:42.550604+01 | 1486275882.5506 | pgbench_accounts |      13652951040
 2017-02-05 07:24:42.550604+01 | 1486275882.5506 | pgbench_tellers  |           450560
 2017-02-05 07:24:42.550604+01 | 1486275882.5506 | pgbench_history  |                0
 2017-02-05 07:24:42.550604+01 | 1486275882.5506 | pgbench_branches |            40960

 2017-02-05 07:24:43.629754+01 | 1486275883.62975 | pgbench_accounts |      13652959232
 2017-02-05 07:24:43.629754+01 | 1486275883.62975 | pgbench_tellers  |           450560
 2017-02-05 07:24:43.629754+01 | 1486275883.62975 | pgbench_history  |                0
 2017-02-05 07:24:43.629754+01 | 1486275883.62975 | pgbench_branches |            40960

 2017-02-05 07:24:44.70856+01 | 1486275884.70856 | pgbench_accounts |      13652959232
 2017-02-05 07:24:44.70856+01 | 1486275884.70856 | pgbench_tellers  |           450560
 2017-02-05 07:24:44.70856+01 | 1486275884.70856 | pgbench_history  |                0
 2017-02-05 07:24:44.70856+01 | 1486275884.70856 | pgbench_branches |            40960

 2017-02-05 07:24:45.788256+01 | 1486275885.78826 | pgbench_accounts |      13652959232
 2017-02-05 07:24:45.788256+01 | 1486275885.78826 | pgbench_tellers  |           450560
 2017-02-05 07:24:45.788256+01 | 1486275885.78826 | pgbench_history  |                0
 2017-02-05 07:24:45.788256+01 | 1486275885.78826 | pgbench_branches |            40960

 2017-02-05 07:24:46.877027+01 | 1486275886.87703 | pgbench_accounts |      13652959232
 2017-02-05 07:24:46.877027+01 | 1486275886.87703 | pgbench_tellers  |           450560
 2017-02-05 07:24:46.877027+01 | 1486275886.87703 | pgbench_history  |                0
 2017-02-05 07:24:46.877027+01 | 1486275886.87703 | pgbench_branches |            40960

 2017-02-05 07:24:47.953434+01 | 1486275887.95343 | pgbench_accounts |      13652959232
 2017-02-05 07:24:47.953434+01 | 1486275887.95343 | pgbench_tellers  |           450560
 2017-02-05 07:24:47.953434+01 | 1486275887.95343 | pgbench_history  |                0
 2017-02-05 07:24:47.953434+01 | 1486275887.95343 | pgbench_branches |            40960

 2017-02-05 07:24:49.025953+01 | 1486275889.02595 | pgbench_accounts |      13652967424
 2017-02-05 07:24:49.025953+01 | 1486275889.02595 | pgbench_tellers  |           450560
 2017-02-05 07:24:49.025953+01 | 1486275889.02595 | pgbench_history  |                0
 2017-02-05 07:24:49.025953+01 | 1486275889.02595 | pgbench_branches |            40960

 2017-02-05 07:24:50.101234+01 | 1486275890.10123 | pgbench_accounts |      13652975616
 2017-02-05 07:24:50.101234+01 | 1486275890.10123 | pgbench_tellers  |           450560
 2017-02-05 07:24:50.101234+01 | 1486275890.10123 | pgbench_history  |                0
 2017-02-05 07:24:50.101234+01 | 1486275890.10123 | pgbench_branches |            40960

 2017-02-05 07:24:51.188919+01 | 1486275891.18892 | pgbench_accounts |      13652983808
 2017-02-05 07:24:51.188919+01 | 1486275891.18892 | pgbench_tellers  |           450560
 2017-02-05 07:24:51.188919+01 | 1486275891.18892 | pgbench_history  |                0
 2017-02-05 07:24:51.188919+01 | 1486275891.18892 | pgbench_branches |            40960

 2017-02-05 07:24:52.264291+01 | 1486275892.26429 | pgbench_accounts |      13652992000
 2017-02-05 07:24:52.264291+01 | 1486275892.26429 | pgbench_tellers  |           450560
 2017-02-05 07:24:52.264291+01 | 1486275892.26429 | pgbench_history  |                0
 2017-02-05 07:24:52.264291+01 | 1486275892.26429 | pgbench_branches |            40960

 2017-02-05 07:24:53.346941+01 | 1486275893.34694 | pgbench_accounts |      13652992000
 2017-02-05 07:24:53.346941+01 | 1486275893.34694 | pgbench_tellers  |           450560
 2017-02-05 07:24:53.346941+01 | 1486275893.34694 | pgbench_history  |                0
 2017-02-05 07:24:53.346941+01 | 1486275893.34694 | pgbench_branches |            40960

 2017-02-05 07:24:54.421399+01 | 1486275894.4214 | pgbench_accounts |      13653008384
 2017-02-05 07:24:54.421399+01 | 1486275894.4214 | pgbench_tellers  |           450560
 2017-02-05 07:24:54.421399+01 | 1486275894.4214 | pgbench_history  |                0
 2017-02-05 07:24:54.421399+01 | 1486275894.4214 | pgbench_branches |            40960

 2017-02-05 07:24:55.507171+01 | 1486275895.50717 | pgbench_accounts |      13653008384
 2017-02-05 07:24:55.507171+01 | 1486275895.50717 | pgbench_tellers  |           450560
 2017-02-05 07:24:55.507171+01 | 1486275895.50717 | pgbench_history  |                0
 2017-02-05 07:24:55.507171+01 | 1486275895.50717 | pgbench_branches |            40960

 2017-02-05 07:24:56.581967+01 | 1486275896.58197 | pgbench_accounts |      13653008384
 2017-02-05 07:24:56.581967+01 | 1486275896.58197 | pgbench_tellers  |           450560
 2017-02-05 07:24:56.581967+01 | 1486275896.58197 | pgbench_history  |                0
 2017-02-05 07:24:56.581967+01 | 1486275896.58197 | pgbench_branches |            40960

 2017-02-05 07:24:57.664761+01 | 1486275897.66476 | pgbench_accounts |      13653016576
 2017-02-05 07:24:57.664761+01 | 1486275897.66476 | pgbench_tellers  |           450560
 2017-02-05 07:24:57.664761+01 | 1486275897.66476 | pgbench_history  |                0
 2017-02-05 07:24:57.664761+01 | 1486275897.66476 | pgbench_branches |            40960

 2017-02-05 07:24:58.753908+01 | 1486275898.75391 | pgbench_accounts |      13653016576
 2017-02-05 07:24:58.753908+01 | 1486275898.75391 | pgbench_tellers  |           450560
 2017-02-05 07:24:58.753908+01 | 1486275898.75391 | pgbench_history  |                0
 2017-02-05 07:24:58.753908+01 | 1486275898.75391 | pgbench_branches |            40960

 2017-02-05 07:24:59.841394+01 | 1486275899.84139 | pgbench_accounts |      13653024768
 2017-02-05 07:24:59.841394+01 | 1486275899.84139 | pgbench_tellers  |           450560
 2017-02-05 07:24:59.841394+01 | 1486275899.84139 | pgbench_history  |                0
 2017-02-05 07:24:59.841394+01 | 1486275899.84139 | pgbench_branches |            40960

 2017-02-05 07:25:00.93089+01 | 1486275900.93089 | pgbench_accounts |      13653024768
 2017-02-05 07:25:00.93089+01 | 1486275900.93089 | pgbench_tellers  |           450560
 2017-02-05 07:25:00.93089+01 | 1486275900.93089 | pgbench_history  |                0
 2017-02-05 07:25:00.93089+01 | 1486275900.93089 | pgbench_branches |            40960

 2017-02-05 07:25:02.017569+01 | 1486275902.01757 | pgbench_accounts |      13653024768
 2017-02-05 07:25:02.017569+01 | 1486275902.01757 | pgbench_tellers  |           450560
 2017-02-05 07:25:02.017569+01 | 1486275902.01757 | pgbench_history  |                0
 2017-02-05 07:25:02.017569+01 | 1486275902.01757 | pgbench_branches |            40960

 2017-02-05 07:25:03.106382+01 | 1486275903.10638 | pgbench_accounts |      13653024768
 2017-02-05 07:25:03.106382+01 | 1486275903.10638 | pgbench_tellers  |           450560
 2017-02-05 07:25:03.106382+01 | 1486275903.10638 | pgbench_history  |                0
 2017-02-05 07:25:03.106382+01 | 1486275903.10638 | pgbench_branches |            40960

 2017-02-05 07:25:04.197502+01 | 1486275904.1975 | pgbench_accounts |      13653032960
 2017-02-05 07:25:04.197502+01 | 1486275904.1975 | pgbench_tellers  |           450560
 2017-02-05 07:25:04.197502+01 | 1486275904.1975 | pgbench_history  |                0
 2017-02-05 07:25:04.197502+01 | 1486275904.1975 | pgbench_branches |            40960

 2017-02-05 07:25:05.286398+01 | 1486275905.2864 | pgbench_accounts |      13653049344
 2017-02-05 07:25:05.286398+01 | 1486275905.2864 | pgbench_tellers  |           450560
 2017-02-05 07:25:05.286398+01 | 1486275905.2864 | pgbench_history  |                0
 2017-02-05 07:25:05.286398+01 | 1486275905.2864 | pgbench_branches |            40960

 2017-02-05 07:25:06.365384+01 | 1486275906.36538 | pgbench_accounts |      13653049344
 2017-02-05 07:25:06.365384+01 | 1486275906.36538 | pgbench_tellers  |           450560
 2017-02-05 07:25:06.365384+01 | 1486275906.36538 | pgbench_history  |                0
 2017-02-05 07:25:06.365384+01 | 1486275906.36538 | pgbench_branches |            40960

 2017-02-05 07:25:07.44559+01 | 1486275907.44559 | pgbench_accounts |      13653057536
 2017-02-05 07:25:07.44559+01 | 1486275907.44559 | pgbench_tellers  |           450560
 2017-02-05 07:25:07.44559+01 | 1486275907.44559 | pgbench_history  |                0
 2017-02-05 07:25:07.44559+01 | 1486275907.44559 | pgbench_branches |            40960

 2017-02-05 07:25:08.524378+01 | 1486275908.52438 | pgbench_accounts |      13653057536
 2017-02-05 07:25:08.524378+01 | 1486275908.52438 | pgbench_tellers  |           450560
 2017-02-05 07:25:08.524378+01 | 1486275908.52438 | pgbench_history  |                0
 2017-02-05 07:25:08.524378+01 | 1486275908.52438 | pgbench_branches |            40960

 2017-02-05 07:25:09.602826+01 | 1486275909.60283 | pgbench_accounts |      13653065728
 2017-02-05 07:25:09.602826+01 | 1486275909.60283 | pgbench_tellers  |           450560
 2017-02-05 07:25:09.602826+01 | 1486275909.60283 | pgbench_history  |                0
 2017-02-05 07:25:09.602826+01 | 1486275909.60283 | pgbench_branches |            40960

 2017-02-05 07:25:10.680224+01 | 1486275910.68022 | pgbench_accounts |      13653065728
 2017-02-05 07:25:10.680224+01 | 1486275910.68022 | pgbench_tellers  |           450560
 2017-02-05 07:25:10.680224+01 | 1486275910.68022 | pgbench_history  |                0
 2017-02-05 07:25:10.680224+01 | 1486275910.68022 | pgbench_branches |            40960

 2017-02-05 07:25:11.768113+01 | 1486275911.76811 | pgbench_accounts |      13653082112
 2017-02-05 07:25:11.768113+01 | 1486275911.76811 | pgbench_tellers  |           450560
 2017-02-05 07:25:11.768113+01 | 1486275911.76811 | pgbench_history  |                0
 2017-02-05 07:25:11.768113+01 | 1486275911.76811 | pgbench_branches |            40960

 2017-02-05 07:25:12.860574+01 | 1486275912.86057 | pgbench_accounts |      13653082112
 2017-02-05 07:25:12.860574+01 | 1486275912.86057 | pgbench_tellers  |           450560
 2017-02-05 07:25:12.860574+01 | 1486275912.86057 | pgbench_history  |                0
 2017-02-05 07:25:12.860574+01 | 1486275912.86057 | pgbench_branches |            40960

 2017-02-05 07:25:13.942549+01 | 1486275913.94255 | pgbench_accounts |      13653082112
 2017-02-05 07:25:13.942549+01 | 1486275913.94255 | pgbench_tellers  |           450560
 2017-02-05 07:25:13.942549+01 | 1486275913.94255 | pgbench_history  |                0
 2017-02-05 07:25:13.942549+01 | 1486275913.94255 | pgbench_branches |            40960

 2017-02-05 07:25:15.020591+01 | 1486275915.02059 | pgbench_accounts |      13653090304
 2017-02-05 07:25:15.020591+01 | 1486275915.02059 | pgbench_tellers  |           450560
 2017-02-05 07:25:15.020591+01 | 1486275915.02059 | pgbench_history  |                0
 2017-02-05 07:25:15.020591+01 | 1486275915.02059 | pgbench_branches |            40960

 2017-02-05 07:25:16.104376+01 | 1486275916.10438 | pgbench_accounts |      13653090304
 2017-02-05 07:25:16.104376+01 | 1486275916.10438 | pgbench_tellers  |           450560
 2017-02-05 07:25:16.104376+01 | 1486275916.10438 | pgbench_history  |                0
 2017-02-05 07:25:16.104376+01 | 1486275916.10438 | pgbench_branches |            40960

 2017-02-05 07:25:17.186771+01 | 1486275917.18677 | pgbench_accounts |      13653090304
 2017-02-05 07:25:17.186771+01 | 1486275917.18677 | pgbench_tellers  |           450560
 2017-02-05 07:25:17.186771+01 | 1486275917.18677 | pgbench_history  |                0
 2017-02-05 07:25:17.186771+01 | 1486275917.18677 | pgbench_branches |            40960

 2017-02-05 07:25:18.265575+01 | 1486275918.26557 | pgbench_accounts |      13653090304
 2017-02-05 07:25:18.265575+01 | 1486275918.26557 | pgbench_tellers  |           450560
 2017-02-05 07:25:18.265575+01 | 1486275918.26557 | pgbench_history  |                0
 2017-02-05 07:25:18.265575+01 | 1486275918.26557 | pgbench_branches |            40960

 2017-02-05 07:25:19.341907+01 | 1486275919.34191 | pgbench_accounts |      13653090304
 2017-02-05 07:25:19.341907+01 | 1486275919.34191 | pgbench_tellers  |           450560
 2017-02-05 07:25:19.341907+01 | 1486275919.34191 | pgbench_history  |                0
 2017-02-05 07:25:19.341907+01 | 1486275919.34191 | pgbench_branches |            40960

 2017-02-05 07:25:20.428823+01 | 1486275920.42882 | pgbench_accounts |      13653090304
 2017-02-05 07:25:20.428823+01 | 1486275920.42882 | pgbench_tellers  |           450560
 2017-02-05 07:25:20.428823+01 | 1486275920.42882 | pgbench_history  |                0
 2017-02-05 07:25:20.428823+01 | 1486275920.42882 | pgbench_branches |            40960

 2017-02-05 07:25:21.507569+01 | 1486275921.50757 | pgbench_accounts |      13653106688
 2017-02-05 07:25:21.507569+01 | 1486275921.50757 | pgbench_tellers  |           450560
 2017-02-05 07:25:21.507569+01 | 1486275921.50757 | pgbench_history  |                0
 2017-02-05 07:25:21.507569+01 | 1486275921.50757 | pgbench_branches |            40960

 2017-02-05 07:25:22.590205+01 | 1486275922.5902 | pgbench_accounts |      13653106688
 2017-02-05 07:25:22.590205+01 | 1486275922.5902 | pgbench_tellers  |           450560
 2017-02-05 07:25:22.590205+01 | 1486275922.5902 | pgbench_history  |                0
 2017-02-05 07:25:22.590205+01 | 1486275922.5902 | pgbench_branches |            40960

 2017-02-05 07:25:23.671425+01 | 1486275923.67143 | pgbench_accounts |      13653114880
 2017-02-05 07:25:23.671425+01 | 1486275923.67143 | pgbench_tellers  |           450560
 2017-02-05 07:25:23.671425+01 | 1486275923.67143 | pgbench_history  |                0
 2017-02-05 07:25:23.671425+01 | 1486275923.67143 | pgbench_branches |            40960

 2017-02-05 07:25:24.754814+01 | 1486275924.75481 | pgbench_accounts |      13653123072
 2017-02-05 07:25:24.754814+01 | 1486275924.75481 | pgbench_tellers  |           450560
 2017-02-05 07:25:24.754814+01 | 1486275924.75481 | pgbench_history  |                0
 2017-02-05 07:25:24.754814+01 | 1486275924.75481 | pgbench_branches |            40960

 2017-02-05 07:25:25.835914+01 | 1486275925.83591 | pgbench_accounts |      13653123072
 2017-02-05 07:25:25.835914+01 | 1486275925.83591 | pgbench_tellers  |           450560
 2017-02-05 07:25:25.835914+01 | 1486275925.83591 | pgbench_history  |                0
 2017-02-05 07:25:25.835914+01 | 1486275925.83591 | pgbench_branches |            40960

 2017-02-05 07:25:26.917012+01 | 1486275926.91701 | pgbench_accounts |      13653131264
 2017-02-05 07:25:26.917012+01 | 1486275926.91701 | pgbench_tellers  |           450560
 2017-02-05 07:25:26.917012+01 | 1486275926.91701 | pgbench_history  |                0
 2017-02-05 07:25:26.917012+01 | 1486275926.91701 | pgbench_branches |            40960

 2017-02-05 07:25:27.992524+01 | 1486275927.99252 | pgbench_accounts |      13653139456
 2017-02-05 07:25:27.992524+01 | 1486275927.99252 | pgbench_tellers  |           450560
 2017-02-05 07:25:27.992524+01 | 1486275927.99252 | pgbench_history  |                0
 2017-02-05 07:25:27.992524+01 | 1486275927.99252 | pgbench_branches |            40960

 2017-02-05 07:25:29.076807+01 | 1486275929.07681 | pgbench_accounts |      13653139456
 2017-02-05 07:25:29.076807+01 | 1486275929.07681 | pgbench_tellers  |           450560
 2017-02-05 07:25:29.076807+01 | 1486275929.07681 | pgbench_history  |                0
 2017-02-05 07:25:29.076807+01 | 1486275929.07681 | pgbench_branches |            40960

 2017-02-05 07:25:30.164553+01 | 1486275930.16455 | pgbench_accounts |      13653155840
 2017-02-05 07:25:30.164553+01 | 1486275930.16455 | pgbench_tellers  |           450560
 2017-02-05 07:25:30.164553+01 | 1486275930.16455 | pgbench_history  |                0
 2017-02-05 07:25:30.164553+01 | 1486275930.16455 | pgbench_branches |            40960

 2017-02-05 07:25:31.2445+01 | 1486275931.2445 | pgbench_accounts |      13653155840
 2017-02-05 07:25:31.2445+01 | 1486275931.2445 | pgbench_tellers  |           450560
 2017-02-05 07:25:31.2445+01 | 1486275931.2445 | pgbench_history  |                0
 2017-02-05 07:25:31.2445+01 | 1486275931.2445 | pgbench_branches |            40960

 2017-02-05 07:25:32.328019+01 | 1486275932.32802 | pgbench_accounts |      13653155840
 2017-02-05 07:25:32.328019+01 | 1486275932.32802 | pgbench_tellers  |           450560
 2017-02-05 07:25:32.328019+01 | 1486275932.32802 | pgbench_history  |                0
 2017-02-05 07:25:32.328019+01 | 1486275932.32802 | pgbench_branches |            40960

 2017-02-05 07:25:33.412947+01 | 1486275933.41295 | pgbench_accounts |      13653155840
 2017-02-05 07:25:33.412947+01 | 1486275933.41295 | pgbench_tellers  |           450560
 2017-02-05 07:25:33.412947+01 | 1486275933.41295 | pgbench_history  |                0
 2017-02-05 07:25:33.412947+01 | 1486275933.41295 | pgbench_branches |            40960

 2017-02-05 07:25:34.483374+01 | 1486275934.48337 | pgbench_accounts |      13653155840
 2017-02-05 07:25:34.483374+01 | 1486275934.48337 | pgbench_tellers  |           450560
 2017-02-05 07:25:34.483374+01 | 1486275934.48337 | pgbench_history  |                0
 2017-02-05 07:25:34.483374+01 | 1486275934.48337 | pgbench_branches |            40960

 2017-02-05 07:25:35.557775+01 | 1486275935.55778 | pgbench_accounts |      13653164032
 2017-02-05 07:25:35.557775+01 | 1486275935.55778 | pgbench_tellers  |           450560
 2017-02-05 07:25:35.557775+01 | 1486275935.55778 | pgbench_history  |                0
 2017-02-05 07:25:35.557775+01 | 1486275935.55778 | pgbench_branches |            40960

 2017-02-05 07:25:36.638915+01 | 1486275936.63892 | pgbench_accounts |      13653172224
 2017-02-05 07:25:36.638915+01 | 1486275936.63892 | pgbench_tellers  |           450560
 2017-02-05 07:25:36.638915+01 | 1486275936.63892 | pgbench_history  |                0
 2017-02-05 07:25:36.638915+01 | 1486275936.63892 | pgbench_branches |            40960

 2017-02-05 07:25:37.716574+01 | 1486275937.71657 | pgbench_accounts |      13653172224
 2017-02-05 07:25:37.716574+01 | 1486275937.71657 | pgbench_tellers  |           450560
 2017-02-05 07:25:37.716574+01 | 1486275937.71657 | pgbench_history  |                0
 2017-02-05 07:25:37.716574+01 | 1486275937.71657 | pgbench_branches |            40960

 2017-02-05 07:25:38.793466+01 | 1486275938.79347 | pgbench_accounts |      13653172224
 2017-02-05 07:25:38.793466+01 | 1486275938.79347 | pgbench_tellers  |           450560
 2017-02-05 07:25:38.793466+01 | 1486275938.79347 | pgbench_history  |                0
 2017-02-05 07:25:38.793466+01 | 1486275938.79347 | pgbench_branches |            40960

 2017-02-05 07:25:39.872916+01 | 1486275939.87292 | pgbench_accounts |      13653188608
 2017-02-05 07:25:39.872916+01 | 1486275939.87292 | pgbench_tellers  |           450560
 2017-02-05 07:25:39.872916+01 | 1486275939.87292 | pgbench_history  |                0
 2017-02-05 07:25:39.872916+01 | 1486275939.87292 | pgbench_branches |            40960

 2017-02-05 07:25:40.962836+01 | 1486275940.96284 | pgbench_accounts |      13653196800
 2017-02-05 07:25:40.962836+01 | 1486275940.96284 | pgbench_tellers  |           450560
 2017-02-05 07:25:40.962836+01 | 1486275940.96284 | pgbench_history  |                0
 2017-02-05 07:25:40.962836+01 | 1486275940.96284 | pgbench_branches |            40960

 2017-02-05 07:25:42.053469+01 | 1486275942.05347 | pgbench_accounts |      13653196800
 2017-02-05 07:25:42.053469+01 | 1486275942.05347 | pgbench_tellers  |           450560
 2017-02-05 07:25:42.053469+01 | 1486275942.05347 | pgbench_history  |                0
 2017-02-05 07:25:42.053469+01 | 1486275942.05347 | pgbench_branches |            40960

 2017-02-05 07:25:43.125212+01 | 1486275943.12521 | pgbench_accounts |      13653204992
 2017-02-05 07:25:43.125212+01 | 1486275943.12521 | pgbench_tellers  |           450560
 2017-02-05 07:25:43.125212+01 | 1486275943.12521 | pgbench_history  |                0
 2017-02-05 07:25:43.125212+01 | 1486275943.12521 | pgbench_branches |            40960

 2017-02-05 07:25:44.209235+01 | 1486275944.20923 | pgbench_accounts |      13653213184
 2017-02-05 07:25:44.209235+01 | 1486275944.20923 | pgbench_tellers  |           450560
 2017-02-05 07:25:44.209235+01 | 1486275944.20923 | pgbench_history  |                0
 2017-02-05 07:25:44.209235+01 | 1486275944.20923 | pgbench_branches |            40960

 2017-02-05 07:25:45.286769+01 | 1486275945.28677 | pgbench_accounts |      13653213184
 2017-02-05 07:25:45.286769+01 | 1486275945.28677 | pgbench_tellers  |           450560
 2017-02-05 07:25:45.286769+01 | 1486275945.28677 | pgbench_history  |                0
 2017-02-05 07:25:45.286769+01 | 1486275945.28677 | pgbench_branches |            40960

 2017-02-05 07:25:46.368636+01 | 1486275946.36864 | pgbench_accounts |      13653221376
 2017-02-05 07:25:46.368636+01 | 1486275946.36864 | pgbench_tellers  |           450560
 2017-02-05 07:25:46.368636+01 | 1486275946.36864 | pgbench_history  |                0
 2017-02-05 07:25:46.368636+01 | 1486275946.36864 | pgbench_branches |            40960

 2017-02-05 07:25:47.447871+01 | 1486275947.44787 | pgbench_accounts |      13653221376
 2017-02-05 07:25:47.447871+01 | 1486275947.44787 | pgbench_tellers  |           450560
 2017-02-05 07:25:47.447871+01 | 1486275947.44787 | pgbench_history  |                0
 2017-02-05 07:25:47.447871+01 | 1486275947.44787 | pgbench_branches |            40960

 2017-02-05 07:25:48.514407+01 | 1486275948.51441 | pgbench_accounts |      13653221376
 2017-02-05 07:25:48.514407+01 | 1486275948.51441 | pgbench_tellers  |           450560
 2017-02-05 07:25:48.514407+01 | 1486275948.51441 | pgbench_history  |                0
 2017-02-05 07:25:48.514407+01 | 1486275948.51441 | pgbench_branches |            40960

 2017-02-05 07:25:49.597333+01 | 1486275949.59733 | pgbench_accounts |      13653229568
 2017-02-05 07:25:49.597333+01 | 1486275949.59733 | pgbench_tellers  |           450560
 2017-02-05 07:25:49.597333+01 | 1486275949.59733 | pgbench_history  |                0
 2017-02-05 07:25:49.597333+01 | 1486275949.59733 | pgbench_branches |            40960

 2017-02-05 07:25:50.683411+01 | 1486275950.68341 | pgbench_accounts |      13653229568
 2017-02-05 07:25:50.683411+01 | 1486275950.68341 | pgbench_tellers  |           450560
 2017-02-05 07:25:50.683411+01 | 1486275950.68341 | pgbench_history  |                0
 2017-02-05 07:25:50.683411+01 | 1486275950.68341 | pgbench_branches |            40960

 2017-02-05 07:25:51.758426+01 | 1486275951.75843 | pgbench_accounts |      13653237760
 2017-02-05 07:25:51.758426+01 | 1486275951.75843 | pgbench_tellers  |           450560
 2017-02-05 07:25:51.758426+01 | 1486275951.75843 | pgbench_history  |                0
 2017-02-05 07:25:51.758426+01 | 1486275951.75843 | pgbench_branches |            40960

 2017-02-05 07:25:52.836432+01 | 1486275952.83643 | pgbench_accounts |      13653237760
 2017-02-05 07:25:52.836432+01 | 1486275952.83643 | pgbench_tellers  |           450560
 2017-02-05 07:25:52.836432+01 | 1486275952.83643 | pgbench_history  |                0
 2017-02-05 07:25:52.836432+01 | 1486275952.83643 | pgbench_branches |            40960

 2017-02-05 07:25:53.919243+01 | 1486275953.91924 | pgbench_accounts |      13653237760
 2017-02-05 07:25:53.919243+01 | 1486275953.91924 | pgbench_tellers  |           450560
 2017-02-05 07:25:53.919243+01 | 1486275953.91924 | pgbench_history  |                0
 2017-02-05 07:25:53.919243+01 | 1486275953.91924 | pgbench_branches |            40960

 2017-02-05 07:25:55.002144+01 | 1486275955.00214 | pgbench_accounts |      13653254144
 2017-02-05 07:25:55.002144+01 | 1486275955.00214 | pgbench_tellers  |           450560
 2017-02-05 07:25:55.002144+01 | 1486275955.00214 | pgbench_history  |                0
 2017-02-05 07:25:55.002144+01 | 1486275955.00214 | pgbench_branches |            40960

 2017-02-05 07:25:56.085914+01 | 1486275956.08591 | pgbench_accounts |      13653254144
 2017-02-05 07:25:56.085914+01 | 1486275956.08591 | pgbench_tellers  |           450560
 2017-02-05 07:25:56.085914+01 | 1486275956.08591 | pgbench_history  |                0
 2017-02-05 07:25:56.085914+01 | 1486275956.08591 | pgbench_branches |            40960

 2017-02-05 07:25:57.17479+01 | 1486275957.17479 | pgbench_accounts |      13653254144
 2017-02-05 07:25:57.17479+01 | 1486275957.17479 | pgbench_tellers  |           450560
 2017-02-05 07:25:57.17479+01 | 1486275957.17479 | pgbench_history  |                0
 2017-02-05 07:25:57.17479+01 | 1486275957.17479 | pgbench_branches |            40960

 2017-02-05 07:25:58.248893+01 | 1486275958.24889 | pgbench_accounts |      13653270528
 2017-02-05 07:25:58.248893+01 | 1486275958.24889 | pgbench_tellers  |           450560
 2017-02-05 07:25:58.248893+01 | 1486275958.24889 | pgbench_history  |                0
 2017-02-05 07:25:58.248893+01 | 1486275958.24889 | pgbench_branches |            40960

 2017-02-05 07:25:59.328819+01 | 1486275959.32882 | pgbench_accounts |      13653270528
 2017-02-05 07:25:59.328819+01 | 1486275959.32882 | pgbench_tellers  |           450560
 2017-02-05 07:25:59.328819+01 | 1486275959.32882 | pgbench_history  |                0
 2017-02-05 07:25:59.328819+01 | 1486275959.32882 | pgbench_branches |            40960

 2017-02-05 07:26:00.408137+01 | 1486275960.40814 | pgbench_accounts |      13653278720
 2017-02-05 07:26:00.408137+01 | 1486275960.40814 | pgbench_tellers  |           450560
 2017-02-05 07:26:00.408137+01 | 1486275960.40814 | pgbench_history  |                0
 2017-02-05 07:26:00.408137+01 | 1486275960.40814 | pgbench_branches |            40960

 2017-02-05 07:26:01.485923+01 | 1486275961.48592 | pgbench_accounts |      13653278720
 2017-02-05 07:26:01.485923+01 | 1486275961.48592 | pgbench_tellers  |           450560
 2017-02-05 07:26:01.485923+01 | 1486275961.48592 | pgbench_history  |                0
 2017-02-05 07:26:01.485923+01 | 1486275961.48592 | pgbench_branches |            40960

 2017-02-05 07:26:02.567105+01 | 1486275962.56711 | pgbench_accounts |      13653286912
 2017-02-05 07:26:02.567105+01 | 1486275962.56711 | pgbench_tellers  |           450560
 2017-02-05 07:26:02.567105+01 | 1486275962.56711 | pgbench_history  |                0
 2017-02-05 07:26:02.567105+01 | 1486275962.56711 | pgbench_branches |            40960

 2017-02-05 07:26:03.654862+01 | 1486275963.65486 | pgbench_accounts |      13653286912
 2017-02-05 07:26:03.654862+01 | 1486275963.65486 | pgbench_tellers  |           450560
 2017-02-05 07:26:03.654862+01 | 1486275963.65486 | pgbench_history  |                0
 2017-02-05 07:26:03.654862+01 | 1486275963.65486 | pgbench_branches |            40960

 2017-02-05 07:26:04.736234+01 | 1486275964.73623 | pgbench_accounts |      13653295104
 2017-02-05 07:26:04.736234+01 | 1486275964.73623 | pgbench_tellers  |           450560
 2017-02-05 07:26:04.736234+01 | 1486275964.73623 | pgbench_history  |                0
 2017-02-05 07:26:04.736234+01 | 1486275964.73623 | pgbench_branches |            40960

 2017-02-05 07:26:05.824156+01 | 1486275965.82416 | pgbench_accounts |      13653295104
 2017-02-05 07:26:05.824156+01 | 1486275965.82416 | pgbench_tellers  |           450560
 2017-02-05 07:26:05.824156+01 | 1486275965.82416 | pgbench_history  |                0
 2017-02-05 07:26:05.824156+01 | 1486275965.82416 | pgbench_branches |            40960

 2017-02-05 07:26:06.919414+01 | 1486275966.91941 | pgbench_accounts |      13653295104
 2017-02-05 07:26:06.919414+01 | 1486275966.91941 | pgbench_tellers  |           450560
 2017-02-05 07:26:06.919414+01 | 1486275966.91941 | pgbench_history  |                0
 2017-02-05 07:26:06.919414+01 | 1486275966.91941 | pgbench_branches |            40960

 2017-02-05 07:26:08.004962+01 | 1486275968.00496 | pgbench_accounts |      13653303296
 2017-02-05 07:26:08.004962+01 | 1486275968.00496 | pgbench_tellers  |           450560
 2017-02-05 07:26:08.004962+01 | 1486275968.00496 | pgbench_history  |                0
 2017-02-05 07:26:08.004962+01 | 1486275968.00496 | pgbench_branches |            40960

 2017-02-05 07:26:09.080415+01 | 1486275969.08042 | pgbench_accounts |      13653303296
 2017-02-05 07:26:09.080415+01 | 1486275969.08042 | pgbench_tellers  |           450560
 2017-02-05 07:26:09.080415+01 | 1486275969.08042 | pgbench_history  |                0
 2017-02-05 07:26:09.080415+01 | 1486275969.08042 | pgbench_branches |            40960

 2017-02-05 07:26:10.155486+01 | 1486275970.15549 | pgbench_accounts |      13653303296
 2017-02-05 07:26:10.155486+01 | 1486275970.15549 | pgbench_tellers  |           450560
 2017-02-05 07:26:10.155486+01 | 1486275970.15549 | pgbench_history  |                0
 2017-02-05 07:26:10.155486+01 | 1486275970.15549 | pgbench_branches |            40960

 2017-02-05 07:26:11.233509+01 | 1486275971.23351 | pgbench_accounts |      13653303296
 2017-02-05 07:26:11.233509+01 | 1486275971.23351 | pgbench_tellers  |           450560
 2017-02-05 07:26:11.233509+01 | 1486275971.23351 | pgbench_history  |                0
 2017-02-05 07:26:11.233509+01 | 1486275971.23351 | pgbench_branches |            40960

 2017-02-05 07:26:12.307106+01 | 1486275972.30711 | pgbench_accounts |      13653303296
 2017-02-05 07:26:12.307106+01 | 1486275972.30711 | pgbench_tellers  |           450560
 2017-02-05 07:26:12.307106+01 | 1486275972.30711 | pgbench_history  |                0
 2017-02-05 07:26:12.307106+01 | 1486275972.30711 | pgbench_branches |            40960

 2017-02-05 07:26:13.394727+01 | 1486275973.39473 | pgbench_accounts |      13653311488
 2017-02-05 07:26:13.394727+01 | 1486275973.39473 | pgbench_tellers  |           450560
 2017-02-05 07:26:13.394727+01 | 1486275973.39473 | pgbench_history  |                0
 2017-02-05 07:26:13.394727+01 | 1486275973.39473 | pgbench_branches |            40960

 2017-02-05 07:26:14.479174+01 | 1486275974.47917 | pgbench_accounts |      13653311488
 2017-02-05 07:26:14.479174+01 | 1486275974.47917 | pgbench_tellers  |           450560
 2017-02-05 07:26:14.479174+01 | 1486275974.47917 | pgbench_history  |                0
 2017-02-05 07:26:14.479174+01 | 1486275974.47917 | pgbench_branches |            40960

 2017-02-05 07:26:15.561064+01 | 1486275975.56106 | pgbench_accounts |      13653327872
 2017-02-05 07:26:15.561064+01 | 1486275975.56106 | pgbench_tellers  |           450560
 2017-02-05 07:26:15.561064+01 | 1486275975.56106 | pgbench_history  |                0
 2017-02-05 07:26:15.561064+01 | 1486275975.56106 | pgbench_branches |            40960

 2017-02-05 07:26:16.63856+01 | 1486275976.63856 | pgbench_accounts |      13653336064
 2017-02-05 07:26:16.63856+01 | 1486275976.63856 | pgbench_tellers  |           450560
 2017-02-05 07:26:16.63856+01 | 1486275976.63856 | pgbench_history  |                0
 2017-02-05 07:26:16.63856+01 | 1486275976.63856 | pgbench_branches |            40960

