 2017-02-04 14:01:21.626885+01 | 1486213281.62688 | 1F/9BD6DD8               |          133307395544

 2017-02-04 14:01:22.711972+01 | 1486213282.71197 | 1F/111291C0              |          133430415808

 2017-02-04 14:01:23.798917+01 | 1486213283.79892 | 1F/176AA6F0              |          133536851696

 2017-02-04 14:01:24.888853+01 | 1486213284.88885 | 1F/1C5061B0              |          133619016112

 2017-02-04 14:01:25.972997+01 | 1486213285.973 | 1F/20869800              |          133689677824

 2017-02-04 14:01:27.066812+01 | 1486213287.06681 | 1F/24009B40              |          133748005696

 2017-02-04 14:01:28.138627+01 | 1486213288.13863 | 1F/26AC3DB0              |          133792808368

 2017-02-04 14:01:29.212594+01 | 1486213289.21259 | 1F/2914DDE0              |          133833219552

 2017-02-04 14:01:30.29435+01 | 1486213290.29435 | 1F/2B3C8908              |          133869373704

 2017-02-04 14:01:31.373979+01 | 1486213291.37398 | 1F/2D11EDB0              |          133900135856

 2017-02-04 14:01:32.462009+01 | 1486213292.46201 | 1F/2EC7E800              |          133928839168

 2017-02-04 14:01:33.547585+01 | 1486213293.54759 | 1F/3065E5D0              |          133955970512

 2017-02-04 14:01:34.62659+01 | 1486213294.62659 | 1F/320D4268              |          133983715944

 2017-02-04 14:01:35.702444+01 | 1486213295.70244 | 1F/339DAC68              |          134009957480

 2017-02-04 14:01:36.774076+01 | 1486213296.77408 | 1F/3590FAF8              |          134042680056

 2017-02-04 14:01:37.863693+01 | 1486213297.86369 | 1F/379983E8              |          134076793832

 2017-02-04 14:01:38.945735+01 | 1486213298.94573 | 1F/398C5330              |          134109483824

 2017-02-04 14:01:40.019823+01 | 1486213300.01982 | 1F/3B72B208              |          134141358600

 2017-02-04 14:01:41.090285+01 | 1486213301.09029 | 1F/3D4E23E8              |          134172517352

 2017-02-04 14:01:42.166675+01 | 1486213302.16668 | 1F/3F2D4C08              |          134203919368

 2017-02-04 14:01:43.237356+01 | 1486213303.23736 | 1F/41095958              |          134235117912

 2017-02-04 14:01:44.309429+01 | 1486213304.30943 | 1F/42CEDB50              |          134264838992

 2017-02-04 14:01:45.391229+01 | 1486213305.39123 | 1F/448C9668              |          134294050408

 2017-02-04 14:01:46.470166+01 | 1486213306.47017 | 1F/46456680              |          134322939520

 2017-02-04 14:01:47.545586+01 | 1486213307.54559 | 1F/47F63EA8              |          134351306408

 2017-02-04 14:01:48.614765+01 | 1486213308.61476 | 1F/499BFD68              |          134378945896

 2017-02-04 14:01:49.690493+01 | 1486213309.69049 | 1F/4B408F28              |          134406508328

 2017-02-04 14:01:50.757497+01 | 1486213310.7575 | 1F/4CDC7C50              |          134433504336

 2017-02-04 14:01:51.844867+01 | 1486213311.84487 | 1F/4E789940              |          134460512576

 2017-02-04 14:01:52.926003+01 | 1486213312.926 | 1F/501129B8              |          134487288248

 2017-02-04 14:01:54.010909+01 | 1486213314.01091 | 1F/519DEC40              |          134513290304

 2017-02-04 14:01:55.091801+01 | 1486213315.0918 | 1F/530827B0              |          134537029552

 2017-02-04 14:01:56.16668+01 | 1486213316.16668 | 1F/5447C188              |          134557974920

 2017-02-04 14:01:57.243152+01 | 1486213317.24315 | 1F/556C1BB8              |          134577134520

 2017-02-04 14:01:58.324031+01 | 1486213318.32403 | 1F/566EB9C8              |          134594083272

 2017-02-04 14:01:59.408333+01 | 1486213319.40833 | 1F/574FF420              |          134608843808

 2017-02-04 14:02:00.49309+01 | 1486213320.49309 | 1F/581DDE40              |          134622338624

 2017-02-04 14:02:01.570373+01 | 1486213321.57037 | 1F/593BE928              |          134641084712

 2017-02-04 14:02:02.649162+01 | 1486213322.64916 | 1F/5A757DE0              |          134661643744

 2017-02-04 14:02:03.733839+01 | 1486213323.73384 | 1F/5B7E0EE0              |          134678974176

 2017-02-04 14:02:04.805953+01 | 1486213324.80595 | 1F/5C40BDF8              |          134691732984

 2017-02-04 14:02:05.880212+01 | 1486213325.88021 | 1F/5CC99520              |          134700700960

 2017-02-04 14:02:06.970502+01 | 1486213326.9705 | 1F/5DF146C8              |          134720079560

 2017-02-04 14:02:08.040876+01 | 1486213328.04088 | 1F/5EF3D6B0              |          134737024688

 2017-02-04 14:02:09.118614+01 | 1486213329.11861 | 1F/5F719C68              |          134745267304

 2017-02-04 14:02:10.196512+01 | 1486213330.19651 | 1F/5FE78120              |          134752993568

 2017-02-04 14:02:11.271536+01 | 1486213331.27154 | 1F/6063B5C0              |          134761133504

 2017-02-04 14:02:12.35919+01 | 1486213332.35919 | 1F/60D8B418              |          134768800792

 2017-02-04 14:02:13.441048+01 | 1486213333.44105 | 1F/6151E180              |          134776742272

 2017-02-04 14:02:14.523324+01 | 1486213334.52332 | 1F/61C98128              |          134784581928

 2017-02-04 14:02:15.596217+01 | 1486213335.59622 | 1F/623AD900              |          134792009984

 2017-02-04 14:02:16.672192+01 | 1486213336.67219 | 1F/62AD8A10              |          134799526416

 2017-02-04 14:02:17.750128+01 | 1486213337.75013 | 1F/63216B80              |          134807120768

 2017-02-04 14:02:18.830037+01 | 1486213338.83004 | 1F/639291A0              |          134814536096

 2017-02-04 14:02:19.909189+01 | 1486213339.90919 | 1F/6402BAF8              |          134821886712

 2017-02-04 14:02:20.990246+01 | 1486213340.99025 | 1F/64781B58              |          134829579096

 2017-02-04 14:02:22.082442+01 | 1486213342.08244 | 1F/64EA6D80              |          134837071232

 2017-02-04 14:02:23.155299+01 | 1486213343.1553 | 1F/655BF810              |          134844512272

 2017-02-04 14:02:24.229983+01 | 1486213344.22998 | 1F/65D09170              |          134852153712

 2017-02-04 14:02:25.319608+01 | 1486213345.31961 | 1F/664573F0              |          134859813872

 2017-02-04 14:02:26.409421+01 | 1486213346.40942 | 1F/66B9B498              |          134867432600

 2017-02-04 14:02:27.478547+01 | 1486213347.47855 | 1F/6726F430              |          134874592304

 2017-02-04 14:02:28.557449+01 | 1486213348.55745 | 1F/67985EF8              |          134882025208

 2017-02-04 14:02:29.641134+01 | 1486213349.64113 | 1F/6809E208              |          134889464328

 2017-02-04 14:02:30.716584+01 | 1486213350.71658 | 1F/6878E998              |          134896740760

 2017-02-04 14:02:31.793753+01 | 1486213351.79375 | 1F/68EDE538              |          134904407352

 2017-02-04 14:02:32.865007+01 | 1486213352.86501 | 1F/695AAFD8              |          134911537112

 2017-02-04 14:02:33.944608+01 | 1486213353.94461 | 1F/69CD75B0              |          134919058864

 2017-02-04 14:02:35.018566+01 | 1486213355.01857 | 1F/6A5A7178              |          134928298360

 2017-02-04 14:02:36.105708+01 | 1486213356.10571 | 1F/6AE10BD8              |          134937119704

 2017-02-04 14:02:37.182695+01 | 1486213357.18269 | 1F/6B6E6388              |          134946382728

 2017-02-04 14:02:38.2613+01 | 1486213358.2613 | 1F/6C00F3F0              |          134955987952

 2017-02-04 14:02:39.348979+01 | 1486213359.34898 | 1F/6C9C8160              |          134966182240

 2017-02-04 14:02:40.432745+01 | 1486213360.43274 | 1F/6D3E7168              |          134976794984

 2017-02-04 14:02:41.504147+01 | 1486213361.50415 | 1F/6DCA4B58              |          134985960280

 2017-02-04 14:02:42.585732+01 | 1486213362.58573 | 1F/6E3CD808              |          134993467400

 2017-02-04 14:02:43.66342+01 | 1486213363.66342 | 1F/6EADADA0              |          135000862112

 2017-02-04 14:02:44.745873+01 | 1486213364.74587 | 1F/6F296F00              |          135008972544

 2017-02-04 14:02:45.820761+01 | 1486213365.82076 | 1F/6F996BB8              |          135016311736

 2017-02-04 14:02:46.896423+01 | 1486213366.89642 | 1F/6FFFC288              |          135023018632

 2017-02-04 14:02:47.971304+01 | 1486213367.9713 | 1F/706B2498              |          135030056088

 2017-02-04 14:02:49.049402+01 | 1486213369.0494 | 1F/70DA99A8              |          135037360552

 2017-02-04 14:02:50.131675+01 | 1486213370.13168 | 1F/714880B0              |          135044563120

 2017-02-04 14:02:51.205379+01 | 1486213371.20538 | 1F/71B10AD8              |          135051414232

 2017-02-04 14:02:52.286737+01 | 1486213372.28674 | 1F/721D29B8              |          135058500024

 2017-02-04 14:02:53.364353+01 | 1486213373.36435 | 1F/7285DE90              |          135065362064

 2017-02-04 14:02:54.44565+01 | 1486213374.44565 | 1F/72EEA6F0              |          135072229104

 2017-02-04 14:02:55.527869+01 | 1486213375.52787 | 1F/7358DDA8              |          135079189928

 2017-02-04 14:02:56.616109+01 | 1486213376.61611 | 1F/73C315B8              |          135086151096

 2017-02-04 14:02:57.691377+01 | 1486213377.69138 | 1F/742DF348              |          135093154632

 2017-02-04 14:02:58.771147+01 | 1486213378.77115 | 1F/7494B080              |          135099887744

 2017-02-04 14:02:59.855001+01 | 1486213379.855 | 1F/7501D250              |          135107039824

 2017-02-04 14:03:00.929794+01 | 1486213380.92979 | 1F/756B7C50              |          135113964624

 2017-02-04 14:03:02.01411+01 | 1486213382.01411 | 1F/75D6D1C0              |          135120998848

 2017-02-04 14:03:03.091822+01 | 1486213383.09182 | 1F/763B6A28              |          135127591464

 2017-02-04 14:03:04.16509+01 | 1486213384.16509 | 1F/76A3C3A0              |          135134430112

 2017-02-04 14:03:05.251865+01 | 1486213385.25186 | 1F/770CC630              |          135141312048

 2017-02-04 14:03:06.339134+01 | 1486213386.33913 | 1F/777596D8              |          135148181208

 2017-02-04 14:03:07.415762+01 | 1486213387.41576 | 1F/77DE9A20              |          135155063328

 2017-02-04 14:03:08.495788+01 | 1486213388.49579 | 1F/784CDE18              |          135162289688

 2017-02-04 14:03:09.573651+01 | 1486213389.57365 | 1F/78B480B8              |          135169081528

 2017-02-04 14:03:10.654822+01 | 1486213390.65482 | 1F/791E8D40              |          135176031552

 2017-02-04 14:03:11.727185+01 | 1486213391.72719 | 1F/79886990              |          135182969232

 2017-02-04 14:03:12.81483+01 | 1486213392.81483 | 1F/79F5EAB0              |          135190146248

 2017-02-04 14:03:13.893755+01 | 1486213393.89375 | 1F/7A5D9828              |          135196940328

 2017-02-04 14:03:14.976794+01 | 1486213394.97679 | 1F/7AC401B8              |          135203652024

 2017-02-04 14:03:16.058676+01 | 1486213396.05868 | 1F/7B2D2FD0              |          135210545104

 2017-02-04 14:03:17.139339+01 | 1486213397.13934 | 1F/7B947FF0              |          135217315824

 2017-02-04 14:03:18.219512+01 | 1486213398.21951 | 1F/7BFF8258              |          135224328792

 2017-02-04 14:03:19.305576+01 | 1486213399.30558 | 1F/7C687D80              |          135231208832

 2017-02-04 14:03:20.380921+01 | 1486213400.38092 | 1F/7CCFF538              |          135237989688

 2017-02-04 14:03:21.457243+01 | 1486213401.45724 | 1F/7D372C18              |          135244753944

 2017-02-04 14:03:22.53956+01 | 1486213402.53956 | 1F/7D9EE5B0              |          135251551664

 2017-02-04 14:03:23.612883+01 | 1486213403.61288 | 1F/7E0893E8              |          135258477544

 2017-02-04 14:03:24.687239+01 | 1486213404.68724 | 1F/7E729818              |          135265425432

 2017-02-04 14:03:25.768029+01 | 1486213405.76803 | 1F/7ED80730              |          135272073008

 2017-02-04 14:03:26.851594+01 | 1486213406.85159 | 1F/7F42C160              |          135279067488

 2017-02-04 14:03:27.944443+01 | 1486213407.94444 | 1F/7FAF8600              |          135286195712

 2017-02-04 14:03:29.027963+01 | 1486213409.02796 | 1F/801ED9A0              |          135293491616

 2017-02-04 14:03:30.117214+01 | 1486213410.11721 | 1F/809334C0              |          135301117120

 2017-02-04 14:03:31.184784+01 | 1486213411.18478 | 1F/81031F08              |          135308451592

 2017-02-04 14:03:32.261384+01 | 1486213412.26138 | 1F/8163D8E8              |          135314790632

 2017-02-04 14:03:33.346756+01 | 1486213413.34676 | 1F/81CB1A88              |          135321557640

 2017-02-04 14:03:34.420443+01 | 1486213414.42044 | 1F/82335548              |          135328388424

 2017-02-04 14:03:35.502433+01 | 1486213415.50243 | 1F/82A3DA60              |          135335762528

 2017-02-04 14:03:36.589298+01 | 1486213416.5893 | 1F/830E1190              |          135342723472

 2017-02-04 14:03:37.665979+01 | 1486213417.66598 | 1F/8373C7A0              |          135349389216

 2017-02-04 14:03:38.74213+01 | 1486213418.74213 | 1F/83D8EEC0              |          135356018368

 2017-02-04 14:03:39.816189+01 | 1486213419.81619 | 1F/84424AF0              |          135362923248

 2017-02-04 14:03:40.892934+01 | 1486213420.89293 | 1F/84B38AB0              |          135370345136

 2017-02-04 14:03:41.974788+01 | 1486213421.97479 | 1F/852324E8              |          135377659112

 2017-02-04 14:03:43.046249+01 | 1486213423.04625 | 1F/859241D0              |          135384941008

 2017-02-04 14:03:44.127533+01 | 1486213424.12753 | 1F/8600F2A0              |          135392195232

 2017-02-04 14:03:45.209324+01 | 1486213425.20932 | 1F/866B5A58              |          135399168600

 2017-02-04 14:03:46.294796+01 | 1486213426.2948 | 1F/86D67810              |          135406188560

 2017-02-04 14:03:47.373561+01 | 1486213427.37356 | 1F/8741E610              |          135413229072

 2017-02-04 14:03:48.448691+01 | 1486213428.44869 | 1F/87A77A88              |          135419886216

 2017-02-04 14:03:49.525954+01 | 1486213429.52595 | 1F/88111378              |          135426806648

 2017-02-04 14:03:50.609949+01 | 1486213430.60995 | 1F/887D32E8              |          135433892584

 2017-02-04 14:03:51.687598+01 | 1486213431.6876 | 1F/88E891B0              |          135440929200

 2017-02-04 14:03:52.770686+01 | 1486213432.77069 | 1F/894F2C38              |          135447653432

 2017-02-04 14:03:53.85378+01 | 1486213433.85378 | 1F/89B9B0B0              |          135454634160

 2017-02-04 14:03:54.934513+01 | 1486213434.93451 | 1F/8A1E7A18              |          135461239320

 2017-02-04 14:03:56.011023+01 | 1486213436.01102 | 1F/8A8548D8              |          135467976920

 2017-02-04 14:03:57.081413+01 | 1486213437.08141 | 1F/8AF10C78              |          135475039352

 2017-02-04 14:03:58.160973+01 | 1486213438.16097 | 1F/8B5BB0D8              |          135482028248

 2017-02-04 14:03:59.237667+01 | 1486213439.23767 | 1F/8BC767D0              |          135489087440

 2017-02-04 14:04:00.309023+01 | 1486213440.30902 | 1F/8C332C18              |          135496150040

 2017-02-04 14:04:01.398977+01 | 1486213441.39898 | 1F/8C957560              |          135502591328

 2017-02-04 14:04:02.474365+01 | 1486213442.47436 | 1F/8CFC1310              |          135509316368

 2017-02-04 14:04:03.556703+01 | 1486213443.5567 | 1F/8D666688              |          135516284552

 2017-02-04 14:04:04.633771+01 | 1486213444.63377 | 1F/8DCF6460              |          135523165280

 2017-02-04 14:04:05.718338+01 | 1486213445.71834 | 1F/8E352980              |          135529834880

 2017-02-04 14:04:06.79452+01 | 1486213446.79452 | 1F/8EA06A78              |          135536863864

 2017-02-04 14:04:07.866901+01 | 1486213447.8669 | 1F/8F07F928              |          135543650600

 2017-02-04 14:04:08.946405+01 | 1486213448.9464 | 1F/8F7466A8              |          135550756520

 2017-02-04 14:04:10.032265+01 | 1486213450.03226 | 1F/8FDC52B0              |          135557567152

 2017-02-04 14:04:11.112415+01 | 1486213451.11242 | 1F/90434D78              |          135564316024

 2017-02-04 14:04:12.19256+01 | 1486213452.19256 | 1F/90ACDB80              |          135571233664

 2017-02-04 14:04:13.266858+01 | 1486213453.26686 | 1F/9118A730              |          135578298160

 2017-02-04 14:04:14.355644+01 | 1486213454.35564 | 1F/9186F1B8              |          135585526200

 2017-02-04 14:04:15.43437+01 | 1486213455.43437 | 1F/91F69358              |          135592842072

 2017-02-04 14:04:16.508996+01 | 1486213456.509 | 1F/92611EF0              |          135599824624

 2017-02-04 14:04:17.582894+01 | 1486213457.58289 | 1F/92D142A8              |          135607173800

 2017-02-04 14:04:18.671533+01 | 1486213458.67153 | 1F/9332F6E0              |          135613576928

 2017-02-04 14:04:19.754821+01 | 1486213459.75482 | 1F/939DBD58              |          135620574552

 2017-02-04 14:04:20.832551+01 | 1486213460.83255 | 1F/940B6368              |          135627760488

 2017-02-04 14:04:21.908022+01 | 1486213461.90802 | 1F/9478EB50              |          135634938704

 2017-02-04 14:04:22.98812+01 | 1486213462.98812 | 1F/94E69D10              |          135642127632

 2017-02-04 14:04:24.071664+01 | 1486213464.07166 | 1F/9554EB50              |          135649356624

 2017-02-04 14:04:25.151118+01 | 1486213465.15112 | 1F/95C8B3D8              |          135656944600

 2017-02-04 14:04:26.22743+01 | 1486213466.22743 | 1F/963435F8              |          135663990264

 2017-02-04 14:04:27.303365+01 | 1486213467.30336 | 1F/96A19060              |          135671156832

 2017-02-04 14:04:28.398113+01 | 1486213468.39811 | 1F/970EC3A0              |          135678313376

 2017-02-04 14:04:29.476485+01 | 1486213469.47649 | 1F/976F4398              |          135684637592

 2017-02-04 14:04:30.552763+01 | 1486213470.55276 | 1F/97DA3FB8              |          135691648952

 2017-02-04 14:04:31.64251+01 | 1486213471.64251 | 1F/9845EDD8              |          135698705880

 2017-02-04 14:04:32.712827+01 | 1486213472.71283 | 1F/98B2A2B8              |          135705830072

 2017-02-04 14:04:33.790419+01 | 1486213473.79042 | 1F/99222120              |          135713136928

 2017-02-04 14:04:34.871686+01 | 1486213474.87169 | 1F/99A875A0              |          135721940384

 2017-02-04 14:04:35.943819+01 | 1486213475.94382 | 1F/9A2AD410              |          135730484240

 2017-02-04 14:04:37.035503+01 | 1486213477.0355 | 1F/9ABCC4E8              |          135740048616

 2017-02-04 14:04:38.123097+01 | 1486213478.1231 | 1F/9B53A878              |          135749937272

 2017-02-04 14:04:39.200587+01 | 1486213479.20059 | 1F/9BEC3870              |          135759935600

 2017-02-04 14:04:40.286945+01 | 1486213480.28695 | 1F/9C917520              |          135770765136

 2017-02-04 14:04:41.361549+01 | 1486213481.36155 | 1F/9D2623E8              |          135780508648

 2017-02-04 14:04:42.442142+01 | 1486213482.44214 | 1F/9D997310              |          135788065552

 2017-02-04 14:04:43.512793+01 | 1486213483.51279 | 1F/9E092EA0              |          135795388064

 2017-02-04 14:04:44.584249+01 | 1486213484.58425 | 1F/9E796298              |          135802741400

 2017-02-04 14:04:45.664618+01 | 1486213485.66462 | 1F/9EF51310              |          135810847504

 2017-02-04 14:04:46.727375+01 | 1486213486.72738 | 1F/9F5A57E0              |          135817484256

 2017-02-04 14:04:47.801357+01 | 1486213487.80136 | 1F/9FC3B948              |          135824390472

 2017-02-04 14:04:48.881013+01 | 1486213488.88101 | 1F/A02C5588              |          135831246216

 2017-02-04 14:04:49.957005+01 | 1486213489.95701 | 1F/A09472B0              |          135838069424

 2017-02-04 14:04:51.047534+01 | 1486213491.04753 | 1F/A0F862C8              |          135844618952

 2017-02-04 14:04:52.127944+01 | 1486213492.12794 | 1F/A1590120              |          135850950944

 2017-02-04 14:04:53.20124+01 | 1486213493.20124 | 1F/A1C03720              |          135857714976

 2017-02-04 14:04:54.289662+01 | 1486213494.28966 | 1F/A22B8548              |          135864747336

 2017-02-04 14:04:55.36726+01 | 1486213495.36726 | 1F/A295F810              |          135871723536

 2017-02-04 14:04:56.440296+01 | 1486213496.4403 | 1F/A3006878              |          135878699128

 2017-02-04 14:04:57.516042+01 | 1486213497.51604 | 1F/A35EE640              |          135884891712

 2017-02-04 14:04:58.598689+01 | 1486213498.59869 | 1F/A3C2BB50              |          135891434320

 2017-02-04 14:04:59.669498+01 | 1486213499.6695 | 1F/A4256E50              |          135897902672

 2017-02-04 14:05:00.762769+01 | 1486213500.76277 | 1F/A48EFCA0              |          135904820384

 2017-02-04 14:05:01.83258+01 | 1486213501.83258 | 1F/A4F65428              |          135911593000

 2017-02-04 14:05:02.917601+01 | 1486213502.9176 | 1F/A55BFD28              |          135918255400

 2017-02-04 14:05:03.995305+01 | 1486213503.99531 | 1F/A5C8B150              |          135925379408

 2017-02-04 14:05:05.073157+01 | 1486213505.07316 | 1F/A632FA18              |          135932344856

 2017-02-04 14:05:06.158448+01 | 1486213506.15845 | 1F/A69CB630              |          135939274288

 2017-02-04 14:05:07.234371+01 | 1486213507.23437 | 1F/A701AF20              |          135945891616

 2017-02-04 14:05:08.311813+01 | 1486213508.31181 | 1F/A7687378              |          135952626552

 2017-02-04 14:05:09.394385+01 | 1486213509.39439 | 1F/A7D0C040              |          135959461952

 2017-02-04 14:05:10.482434+01 | 1486213510.48243 | 1F/A83A4278              |          135966376568

 2017-02-04 14:05:11.560962+01 | 1486213511.56096 | 1F/A8A253C8              |          135973196744

 2017-02-04 14:05:12.637908+01 | 1486213512.63791 | 1F/A905A0D8              |          135979704536

 2017-02-04 14:05:13.729701+01 | 1486213513.7297 | 1F/A96594C8              |          135985992904

 2017-02-04 14:05:14.817058+01 | 1486213514.81706 | 1F/A9CF1678              |          135992907384

 2017-02-04 14:05:15.902261+01 | 1486213515.90226 | 1F/AA3AB1A0              |          135999959456

 2017-02-04 14:05:16.981677+01 | 1486213516.98168 | 1F/AAA55BC0              |          136006949824

 2017-02-04 14:05:18.05705+01 | 1486213518.05705 | 1F/AB0CE938              |          136013736248

 2017-02-04 14:05:19.130828+01 | 1486213519.13083 | 1F/AB750DC0              |          136020561344

 2017-02-04 14:05:20.203654+01 | 1486213520.20365 | 1F/ABDB4B58              |          136027261784

 2017-02-04 14:05:21.280058+01 | 1486213521.28006 | 1F/AC450710              |          136034191120

 2017-02-04 14:05:22.358609+01 | 1486213522.35861 | 1F/ACABB7C8              |          136040921032

 2017-02-04 14:05:23.445284+01 | 1486213523.44528 | 1F/AD139A50              |          136047729232

 2017-02-04 14:05:24.532052+01 | 1486213524.53205 | 1F/AD7C0280              |          136054571648

 2017-02-04 14:05:25.616667+01 | 1486213525.61667 | 1F/ADE56E88              |          136061480584

 2017-02-04 14:05:26.700682+01 | 1486213526.70068 | 1F/AE4FAD58              |          136068443480

 2017-02-04 14:05:27.782675+01 | 1486213527.78268 | 1F/AEB8EB68              |          136075340648

 2017-02-04 14:05:28.863898+01 | 1486213528.8639 | 1F/AF20C548              |          136082146632

 2017-02-04 14:05:29.950002+01 | 1486213529.95 | 1F/AF8BEEC0              |          136089169600

 2017-02-04 14:05:31.033676+01 | 1486213531.03368 | 1F/AFF4EAE0              |          136096049888

 2017-02-04 14:05:32.116217+01 | 1486213532.11622 | 1F/B05ECA78              |          136102988408

 2017-02-04 14:05:33.190965+01 | 1486213533.19096 | 1F/B0CB68B0              |          136110106800

 2017-02-04 14:05:34.270993+01 | 1486213534.27099 | 1F/B13156D8              |          136116786904

 2017-02-04 14:05:35.342311+01 | 1486213535.34231 | 1F/B19B8D48              |          136123747656

 2017-02-04 14:05:36.431206+01 | 1486213536.43121 | 1F/B20B9E68              |          136131092072

 2017-02-04 14:05:37.512661+01 | 1486213537.51266 | 1F/B2741DB8              |          136137940408

 2017-02-04 14:05:38.595508+01 | 1486213538.59551 | 1F/B2DB8980              |          136144718208

 2017-02-04 14:05:39.684715+01 | 1486213539.68472 | 1F/B3414680              |          136151385728

 2017-02-04 14:05:40.771719+01 | 1486213540.77172 | 1F/B3A78D88              |          136158088584

 2017-02-04 14:05:41.849086+01 | 1486213541.84909 | 1F/B40FD4A8              |          136164922536

 2017-02-04 14:05:42.924033+01 | 1486213542.92403 | 1F/B4776800              |          136171710464

 2017-02-04 14:05:44.011788+01 | 1486213544.01179 | 1F/B4DAE5F8              |          136178230776

 2017-02-04 14:05:45.101867+01 | 1486213545.10187 | 1F/B53F6B78              |          136184818552

 2017-02-04 14:05:46.184996+01 | 1486213546.185 | 1F/B5A36E90              |          136191372944

 2017-02-04 14:05:47.275537+01 | 1486213547.27554 | 1F/B6087170              |          136197992816

 2017-02-04 14:05:48.350188+01 | 1486213548.35019 | 1F/B66E0BC8              |          136204651464

 2017-02-04 14:05:49.439761+01 | 1486213549.43976 | 1F/B6D50FF8              |          136211402744

 2017-02-04 14:05:50.528989+01 | 1486213550.52899 | 1F/B73C3C50              |          136218164304

 2017-02-04 14:05:51.615135+01 | 1486213551.61513 | 1F/B7A33528              |          136224912680

 2017-02-04 14:05:52.689187+01 | 1486213552.68919 | 1F/B8095E00              |          136231607808

 2017-02-04 14:05:53.763298+01 | 1486213553.7633 | 1F/B8702560              |          136238343520

 2017-02-04 14:05:54.840591+01 | 1486213554.84059 | 1F/B8D6A1D0              |          136245060048

 2017-02-04 14:05:55.917685+01 | 1486213555.91769 | 1F/B93EC220              |          136251884064

 2017-02-04 14:05:56.988432+01 | 1486213556.98843 | 1F/B9A23050              |          136258400336

 2017-02-04 14:05:58.068307+01 | 1486213558.06831 | 1F/BA05F210              |          136264938000

 2017-02-04 14:05:59.144195+01 | 1486213559.1442 | 1F/BA6C1558              |          136271631704

 2017-02-04 14:06:00.224853+01 | 1486213560.22485 | 1F/BAD4E6B8              |          136278501048

 2017-02-04 14:06:01.312726+01 | 1486213561.31273 | 1F/BB3D4520              |          136285340960

 2017-02-04 14:06:02.402401+01 | 1486213562.4024 | 1F/BBA5A6D0              |          136292181712

 2017-02-04 14:06:03.492451+01 | 1486213563.49245 | 1F/BC119310              |          136299254544

 2017-02-04 14:06:04.571383+01 | 1486213564.57138 | 1F/BC7C6540              |          136306255168

 2017-02-04 14:06:05.661169+01 | 1486213565.66117 | 1F/BCEA3890              |          136313452688

 2017-02-04 14:06:06.741143+01 | 1486213566.74114 | 1F/BD53C6A0              |          136320370336

 2017-02-04 14:06:07.816781+01 | 1486213567.81678 | 1F/BDBEA2D8              |          136327373528

 2017-02-04 14:06:08.890216+01 | 1486213568.89022 | 1F/BE250B38              |          136334084920

 2017-02-04 14:06:09.970274+01 | 1486213569.97027 | 1F/BE8DA928              |          136340941096

 2017-02-04 14:06:11.052641+01 | 1486213571.05264 | 1F/BEF81E40              |          136347917888

 2017-02-04 14:06:12.141976+01 | 1486213572.14198 | 1F/BF64DE58              |          136355044952

 2017-02-04 14:06:13.221879+01 | 1486213573.22188 | 1F/BFCFB3B0              |          136362046384

 2017-02-04 14:06:14.303414+01 | 1486213574.30341 | 1F/C0379B10              |          136368855824

 2017-02-04 14:06:15.390931+01 | 1486213575.39093 | 1F/C0A2D340              |          136375882560

 2017-02-04 14:06:16.471292+01 | 1486213576.47129 | 1F/C109B6C0              |          136382625472

 2017-02-04 14:06:17.549267+01 | 1486213577.54927 | 1F/C17172B8              |          136389423800

 2017-02-04 14:06:18.619194+01 | 1486213578.61919 | 1F/C1D6A6C8              |          136396056264

 2017-02-04 14:06:19.699677+01 | 1486213579.69968 | 1F/C23E3B98              |          136402844568

 2017-02-04 14:06:20.781174+01 | 1486213580.78117 | 1F/C2A93C28              |          136409857064

