 2017-02-04 19:59:13.12524+01 | 1486234753.12524 | pgbench_accounts |       1381203968
 2017-02-04 19:59:13.12524+01 | 1486234753.12524 | pgbench_tellers  |          4235264
 2017-02-04 19:59:13.12524+01 | 1486234753.12524 | pgbench_history  |                0
 2017-02-04 19:59:13.12524+01 | 1486234753.12524 | pgbench_branches |          2310144

 2017-02-04 19:59:14.224616+01 | 1486234754.22462 | pgbench_accounts |       1381203968
 2017-02-04 19:59:14.224616+01 | 1486234754.22462 | pgbench_tellers  |          4235264
 2017-02-04 19:59:14.224616+01 | 1486234754.22462 | pgbench_history  |          1425408
 2017-02-04 19:59:14.224616+01 | 1486234754.22462 | pgbench_branches |          2310144

 2017-02-04 19:59:15.319276+01 | 1486234755.31928 | pgbench_accounts |       1381203968
 2017-02-04 19:59:15.319276+01 | 1486234755.31928 | pgbench_tellers  |          4235264
 2017-02-04 19:59:15.319276+01 | 1486234755.31928 | pgbench_history  |          5382144
 2017-02-04 19:59:15.319276+01 | 1486234755.31928 | pgbench_branches |          2310144

 2017-02-04 19:59:16.419728+01 | 1486234756.41973 | pgbench_accounts |       1381203968
 2017-02-04 19:59:16.419728+01 | 1486234756.41973 | pgbench_tellers  |          4235264
 2017-02-04 19:59:16.419728+01 | 1486234756.41973 | pgbench_history  |          5382144
 2017-02-04 19:59:16.419728+01 | 1486234756.41973 | pgbench_branches |          2310144

 2017-02-04 19:59:17.505679+01 | 1486234757.50568 | pgbench_accounts |       1381203968
 2017-02-04 19:59:17.505679+01 | 1486234757.50568 | pgbench_tellers  |          4235264
 2017-02-04 19:59:17.505679+01 | 1486234757.50568 | pgbench_history  |          7397376
 2017-02-04 19:59:17.505679+01 | 1486234757.50568 | pgbench_branches |          2310144

 2017-02-04 19:59:18.594519+01 | 1486234758.59452 | pgbench_accounts |       1381203968
 2017-02-04 19:59:18.594519+01 | 1486234758.59452 | pgbench_tellers  |          4235264
 2017-02-04 19:59:18.594519+01 | 1486234758.59452 | pgbench_history  |          9986048
 2017-02-04 19:59:18.594519+01 | 1486234758.59452 | pgbench_branches |          2310144

 2017-02-04 19:59:19.679191+01 | 1486234759.67919 | pgbench_accounts |       1381203968
 2017-02-04 19:59:19.679191+01 | 1486234759.67919 | pgbench_tellers  |          4235264
 2017-02-04 19:59:19.679191+01 | 1486234759.67919 | pgbench_history  |         12541952
 2017-02-04 19:59:19.679191+01 | 1486234759.67919 | pgbench_branches |          2310144

 2017-02-04 19:59:20.759685+01 | 1486234760.75969 | pgbench_accounts |       1381203968
 2017-02-04 19:59:20.759685+01 | 1486234760.75969 | pgbench_tellers  |          4235264
 2017-02-04 19:59:20.759685+01 | 1486234760.75969 | pgbench_history  |         14909440
 2017-02-04 19:59:20.759685+01 | 1486234760.75969 | pgbench_branches |          2310144

 2017-02-04 19:59:21.852122+01 | 1486234761.85212 | pgbench_accounts |       1381203968
 2017-02-04 19:59:21.852122+01 | 1486234761.85212 | pgbench_tellers  |          4235264
 2017-02-04 19:59:21.852122+01 | 1486234761.85212 | pgbench_history  |         16809984
 2017-02-04 19:59:21.852122+01 | 1486234761.85212 | pgbench_branches |          2310144

 2017-02-04 19:59:22.937751+01 | 1486234762.93775 | pgbench_accounts |       1381203968
 2017-02-04 19:59:22.937751+01 | 1486234762.93775 | pgbench_tellers  |          4235264
 2017-02-04 19:59:22.937751+01 | 1486234762.93775 | pgbench_history  |         19374080
 2017-02-04 19:59:22.937751+01 | 1486234762.93775 | pgbench_branches |          2310144

 2017-02-04 19:59:24.021608+01 | 1486234764.02161 | pgbench_accounts |       1381203968
 2017-02-04 19:59:24.021608+01 | 1486234764.02161 | pgbench_tellers  |          4235264
 2017-02-04 19:59:24.021608+01 | 1486234764.02161 | pgbench_history  |         24248320
 2017-02-04 19:59:24.021608+01 | 1486234764.02161 | pgbench_branches |          2310144

 2017-02-04 19:59:25.098851+01 | 1486234765.09885 | pgbench_accounts |       1381203968
 2017-02-04 19:59:25.098851+01 | 1486234765.09885 | pgbench_tellers  |          4235264
 2017-02-04 19:59:25.098851+01 | 1486234765.09885 | pgbench_history  |         24248320
 2017-02-04 19:59:25.098851+01 | 1486234765.09885 | pgbench_branches |          2310144

 2017-02-04 19:59:26.174359+01 | 1486234766.17436 | pgbench_accounts |       1381203968
 2017-02-04 19:59:26.174359+01 | 1486234766.17436 | pgbench_tellers  |          4235264
 2017-02-04 19:59:26.174359+01 | 1486234766.17436 | pgbench_history  |         26566656
 2017-02-04 19:59:26.174359+01 | 1486234766.17436 | pgbench_branches |          2310144

 2017-02-04 19:59:27.264621+01 | 1486234767.26462 | pgbench_accounts |       1381203968
 2017-02-04 19:59:27.264621+01 | 1486234767.26462 | pgbench_tellers  |          4235264
 2017-02-04 19:59:27.264621+01 | 1486234767.26462 | pgbench_history  |         28934144
 2017-02-04 19:59:27.264621+01 | 1486234767.26462 | pgbench_branches |          2310144

 2017-02-04 19:59:28.362304+01 | 1486234768.3623 | pgbench_accounts |       1381203968
 2017-02-04 19:59:28.362304+01 | 1486234768.3623 | pgbench_tellers  |          4235264
 2017-02-04 19:59:28.362304+01 | 1486234768.3623 | pgbench_history  |         31440896
 2017-02-04 19:59:28.362304+01 | 1486234768.3623 | pgbench_branches |          2310144

 2017-02-04 19:59:29.455128+01 | 1486234769.45513 | pgbench_accounts |       1381203968
 2017-02-04 19:59:29.455128+01 | 1486234769.45513 | pgbench_tellers  |          4235264
 2017-02-04 19:59:29.455128+01 | 1486234769.45513 | pgbench_history  |         34578432
 2017-02-04 19:59:29.455128+01 | 1486234769.45513 | pgbench_branches |          2310144

 2017-02-04 19:59:30.545194+01 | 1486234770.54519 | pgbench_accounts |       1381203968
 2017-02-04 19:59:30.545194+01 | 1486234770.54519 | pgbench_tellers  |          4235264
 2017-02-04 19:59:30.545194+01 | 1486234770.54519 | pgbench_history  |         36241408
 2017-02-04 19:59:30.545194+01 | 1486234770.54519 | pgbench_branches |          2310144

 2017-02-04 19:59:31.630383+01 | 1486234771.63038 | pgbench_accounts |       1381203968
 2017-02-04 19:59:31.630383+01 | 1486234771.63038 | pgbench_tellers  |          4235264
 2017-02-04 19:59:31.630383+01 | 1486234771.63038 | pgbench_history  |         38469632
 2017-02-04 19:59:31.630383+01 | 1486234771.63038 | pgbench_branches |          2310144

 2017-02-04 19:59:32.717539+01 | 1486234772.71754 | pgbench_accounts |       1381203968
 2017-02-04 19:59:32.717539+01 | 1486234772.71754 | pgbench_tellers  |          4235264
 2017-02-04 19:59:32.717539+01 | 1486234772.71754 | pgbench_history  |         40951808
 2017-02-04 19:59:32.717539+01 | 1486234772.71754 | pgbench_branches |          2310144

 2017-02-04 19:59:33.811064+01 | 1486234773.81106 | pgbench_accounts |       1381203968
 2017-02-04 19:59:33.811064+01 | 1486234773.81106 | pgbench_tellers  |          4235264
 2017-02-04 19:59:33.811064+01 | 1486234773.81106 | pgbench_history  |         43999232
 2017-02-04 19:59:33.811064+01 | 1486234773.81106 | pgbench_branches |          2310144

 2017-02-04 19:59:34.898924+01 | 1486234774.89892 | pgbench_accounts |       1381203968
 2017-02-04 19:59:34.898924+01 | 1486234774.89892 | pgbench_tellers  |          4235264
 2017-02-04 19:59:34.898924+01 | 1486234774.89892 | pgbench_history  |         46202880
 2017-02-04 19:59:34.898924+01 | 1486234774.89892 | pgbench_branches |          2310144

 2017-02-04 19:59:36.002934+01 | 1486234776.00293 | pgbench_accounts |       1381203968
 2017-02-04 19:59:36.002934+01 | 1486234776.00293 | pgbench_tellers  |          4235264
 2017-02-04 19:59:36.002934+01 | 1486234776.00293 | pgbench_history  |         49061888
 2017-02-04 19:59:36.002934+01 | 1486234776.00293 | pgbench_branches |          2310144

 2017-02-04 19:59:37.085681+01 | 1486234777.08568 | pgbench_accounts |       1381203968
 2017-02-04 19:59:37.085681+01 | 1486234777.08568 | pgbench_tellers  |          4235264
 2017-02-04 19:59:37.085681+01 | 1486234777.08568 | pgbench_history  |         50774016
 2017-02-04 19:59:37.085681+01 | 1486234777.08568 | pgbench_branches |          2310144

 2017-02-04 19:59:38.164313+01 | 1486234778.16431 | pgbench_accounts |       1381203968
 2017-02-04 19:59:38.164313+01 | 1486234778.16431 | pgbench_tellers  |          4235264
 2017-02-04 19:59:38.164313+01 | 1486234778.16431 | pgbench_history  |         53256192
 2017-02-04 19:59:38.164313+01 | 1486234778.16431 | pgbench_branches |          2310144

 2017-02-04 19:59:39.244269+01 | 1486234779.24427 | pgbench_accounts |       1381203968
 2017-02-04 19:59:39.244269+01 | 1486234779.24427 | pgbench_tellers  |          4235264
 2017-02-04 19:59:39.244269+01 | 1486234779.24427 | pgbench_history  |         55812096
 2017-02-04 19:59:39.244269+01 | 1486234779.24427 | pgbench_branches |          2310144

 2017-02-04 19:59:40.333192+01 | 1486234780.33319 | pgbench_accounts |       1381203968
 2017-02-04 19:59:40.333192+01 | 1486234780.33319 | pgbench_tellers  |          4235264
 2017-02-04 19:59:40.333192+01 | 1486234780.33319 | pgbench_history  |         59138048
 2017-02-04 19:59:40.333192+01 | 1486234780.33319 | pgbench_branches |          2310144

 2017-02-04 19:59:41.427492+01 | 1486234781.42749 | pgbench_accounts |       1381203968
 2017-02-04 19:59:41.427492+01 | 1486234781.42749 | pgbench_tellers  |          4235264
 2017-02-04 19:59:41.427492+01 | 1486234781.42749 | pgbench_history  |         60661760
 2017-02-04 19:59:41.427492+01 | 1486234781.42749 | pgbench_branches |          2310144

 2017-02-04 19:59:42.513123+01 | 1486234782.51312 | pgbench_accounts |       1381203968
 2017-02-04 19:59:42.513123+01 | 1486234782.51312 | pgbench_tellers  |          4235264
 2017-02-04 19:59:42.513123+01 | 1486234782.51312 | pgbench_history  |         63528960
 2017-02-04 19:59:42.513123+01 | 1486234782.51312 | pgbench_branches |          2310144

 2017-02-04 19:59:43.606232+01 | 1486234783.60623 | pgbench_accounts |       1381203968
 2017-02-04 19:59:43.606232+01 | 1486234783.60623 | pgbench_tellers  |          4235264
 2017-02-04 19:59:43.606232+01 | 1486234783.60623 | pgbench_history  |         65052672
 2017-02-04 19:59:43.606232+01 | 1486234783.60623 | pgbench_branches |          2310144

 2017-02-04 19:59:44.698678+01 | 1486234784.69868 | pgbench_accounts |       1381203968
 2017-02-04 19:59:44.698678+01 | 1486234784.69868 | pgbench_tellers  |          4235264
 2017-02-04 19:59:44.698678+01 | 1486234784.69868 | pgbench_history  |         67420160
 2017-02-04 19:59:44.698678+01 | 1486234784.69868 | pgbench_branches |          2310144

 2017-02-04 19:59:45.792861+01 | 1486234785.79286 | pgbench_accounts |       1381720064
 2017-02-04 19:59:45.792861+01 | 1486234785.79286 | pgbench_tellers  |          4235264
 2017-02-04 19:59:45.792861+01 | 1486234785.79286 | pgbench_history  |         70279168
 2017-02-04 19:59:45.792861+01 | 1486234785.79286 | pgbench_branches |          2310144

 2017-02-04 19:59:46.887396+01 | 1486234786.8874 | pgbench_accounts |       1381859328
 2017-02-04 19:59:46.887396+01 | 1486234786.8874 | pgbench_tellers  |          4235264
 2017-02-04 19:59:46.887396+01 | 1486234786.8874 | pgbench_history  |         72138752
 2017-02-04 19:59:46.887396+01 | 1486234786.8874 | pgbench_branches |          2310144

 2017-02-04 19:59:47.979128+01 | 1486234787.97913 | pgbench_accounts |       1381859328
 2017-02-04 19:59:47.979128+01 | 1486234787.97913 | pgbench_tellers  |          4235264
 2017-02-04 19:59:47.979128+01 | 1486234787.97913 | pgbench_history  |         75833344
 2017-02-04 19:59:47.979128+01 | 1486234787.97913 | pgbench_branches |          2310144

 2017-02-04 19:59:49.05977+01 | 1486234789.05977 | pgbench_accounts |       1381859328
 2017-02-04 19:59:49.05977+01 | 1486234789.05977 | pgbench_tellers  |          4235264
 2017-02-04 19:59:49.05977+01 | 1486234789.05977 | pgbench_history  |         77856768
 2017-02-04 19:59:49.05977+01 | 1486234789.05977 | pgbench_branches |          2310144

 2017-02-04 19:59:50.142644+01 | 1486234790.14264 | pgbench_accounts |       1381859328
 2017-02-04 19:59:50.142644+01 | 1486234790.14264 | pgbench_tellers  |          4235264
 2017-02-04 19:59:50.142644+01 | 1486234790.14264 | pgbench_history  |         79380480
 2017-02-04 19:59:50.142644+01 | 1486234790.14264 | pgbench_branches |          2310144

 2017-02-04 19:59:51.228147+01 | 1486234791.22815 | pgbench_accounts |       1381859328
 2017-02-04 19:59:51.228147+01 | 1486234791.22815 | pgbench_tellers  |          4235264
 2017-02-04 19:59:51.228147+01 | 1486234791.22815 | pgbench_history  |         82436096
 2017-02-04 19:59:51.228147+01 | 1486234791.22815 | pgbench_branches |          2310144

 2017-02-04 19:59:52.319611+01 | 1486234792.31961 | pgbench_accounts |       1381859328
 2017-02-04 19:59:52.319611+01 | 1486234792.31961 | pgbench_tellers  |          4235264
 2017-02-04 19:59:52.319611+01 | 1486234792.31961 | pgbench_history  |         85082112
 2017-02-04 19:59:52.319611+01 | 1486234792.31961 | pgbench_branches |          2310144

 2017-02-04 19:59:53.409969+01 | 1486234793.40997 | pgbench_accounts |       1381859328
 2017-02-04 19:59:53.409969+01 | 1486234793.40997 | pgbench_tellers  |          4235264
 2017-02-04 19:59:53.409969+01 | 1486234793.40997 | pgbench_history  |         86417408
 2017-02-04 19:59:53.409969+01 | 1486234793.40997 | pgbench_branches |          2310144

 2017-02-04 19:59:54.500262+01 | 1486234794.50026 | pgbench_accounts |       1381859328
 2017-02-04 19:59:54.500262+01 | 1486234794.50026 | pgbench_tellers  |          4235264
 2017-02-04 19:59:54.500262+01 | 1486234794.50026 | pgbench_history  |         88768512
 2017-02-04 19:59:54.500262+01 | 1486234794.50026 | pgbench_branches |          2310144

 2017-02-04 19:59:55.588531+01 | 1486234795.58853 | pgbench_accounts |       1381859328
 2017-02-04 19:59:55.588531+01 | 1486234795.58853 | pgbench_tellers  |          4235264
 2017-02-04 19:59:55.588531+01 | 1486234795.58853 | pgbench_history  |         91791360
 2017-02-04 19:59:55.588531+01 | 1486234795.58853 | pgbench_branches |          2310144

 2017-02-04 19:59:56.677606+01 | 1486234796.67761 | pgbench_accounts |       1381859328
 2017-02-04 19:59:56.677606+01 | 1486234796.67761 | pgbench_tellers  |          4235264
 2017-02-04 19:59:56.677606+01 | 1486234796.67761 | pgbench_history  |         94461952
 2017-02-04 19:59:56.677606+01 | 1486234796.67761 | pgbench_branches |          2310144

 2017-02-04 19:59:57.763267+01 | 1486234797.76327 | pgbench_accounts |       1381859328
 2017-02-04 19:59:57.763267+01 | 1486234797.76327 | pgbench_tellers  |          4235264
 2017-02-04 19:59:57.763267+01 | 1486234797.76327 | pgbench_history  |         95985664
 2017-02-04 19:59:57.763267+01 | 1486234797.76327 | pgbench_branches |          2310144

 2017-02-04 19:59:58.857231+01 | 1486234798.85723 | pgbench_accounts |       1381859328
 2017-02-04 19:59:58.857231+01 | 1486234798.85723 | pgbench_tellers  |          4235264
 2017-02-04 19:59:58.857231+01 | 1486234798.85723 | pgbench_history  |         98689024
 2017-02-04 19:59:58.857231+01 | 1486234798.85723 | pgbench_branches |          2310144

 2017-02-04 19:59:59.954974+01 | 1486234799.95497 | pgbench_accounts |       1381859328
 2017-02-04 19:59:59.954974+01 | 1486234799.95497 | pgbench_tellers  |          4235264
 2017-02-04 19:59:59.954974+01 | 1486234799.95497 | pgbench_history  |        101228544
 2017-02-04 19:59:59.954974+01 | 1486234799.95497 | pgbench_branches |          2310144

 2017-02-04 20:00:01.042354+01 | 1486234801.04235 | pgbench_accounts |       1381859328
 2017-02-04 20:00:01.042354+01 | 1486234801.04235 | pgbench_tellers  |          4235264
 2017-02-04 20:00:01.042354+01 | 1486234801.04235 | pgbench_history  |        103571456
 2017-02-04 20:00:01.042354+01 | 1486234801.04235 | pgbench_branches |          2310144

 2017-02-04 20:00:02.119701+01 | 1486234802.1197 | pgbench_accounts |       1381859328
 2017-02-04 20:00:02.119701+01 | 1486234802.1197 | pgbench_tellers  |          4235264
 2017-02-04 20:00:02.119701+01 | 1486234802.1197 | pgbench_history  |        107741184
 2017-02-04 20:00:02.119701+01 | 1486234802.1197 | pgbench_branches |          2310144

 2017-02-04 20:00:03.204696+01 | 1486234803.2047 | pgbench_accounts |       1381859328
 2017-02-04 20:00:03.204696+01 | 1486234803.2047 | pgbench_tellers  |          4235264
 2017-02-04 20:00:03.204696+01 | 1486234803.2047 | pgbench_history  |        109076480
 2017-02-04 20:00:03.204696+01 | 1486234803.2047 | pgbench_branches |          2310144

 2017-02-04 20:00:04.288255+01 | 1486234804.28825 | pgbench_accounts |       1381859328
 2017-02-04 20:00:04.288255+01 | 1486234804.28825 | pgbench_tellers  |          4235264
 2017-02-04 20:00:04.288255+01 | 1486234804.28825 | pgbench_history  |        111394816
 2017-02-04 20:00:04.288255+01 | 1486234804.28825 | pgbench_branches |          2310144

 2017-02-04 20:00:05.379026+01 | 1486234805.37903 | pgbench_accounts |       1381859328
 2017-02-04 20:00:05.379026+01 | 1486234805.37903 | pgbench_tellers  |          4235264
 2017-02-04 20:00:05.379026+01 | 1486234805.37903 | pgbench_history  |        113573888
 2017-02-04 20:00:05.379026+01 | 1486234805.37903 | pgbench_branches |          2310144

 2017-02-04 20:00:06.468948+01 | 1486234806.46895 | pgbench_accounts |       1381859328
 2017-02-04 20:00:06.468948+01 | 1486234806.46895 | pgbench_tellers  |          4235264
 2017-02-04 20:00:06.468948+01 | 1486234806.46895 | pgbench_history  |        115589120
 2017-02-04 20:00:06.468948+01 | 1486234806.46895 | pgbench_branches |          2310144

 2017-02-04 20:00:07.557919+01 | 1486234807.55792 | pgbench_accounts |       1381859328
 2017-02-04 20:00:07.557919+01 | 1486234807.55792 | pgbench_tellers  |          4235264
 2017-02-04 20:00:07.557919+01 | 1486234807.55792 | pgbench_history  |        118120448
 2017-02-04 20:00:07.557919+01 | 1486234807.55792 | pgbench_branches |          2310144

 2017-02-04 20:00:08.650403+01 | 1486234808.6504 | pgbench_accounts |       1381859328
 2017-02-04 20:00:08.650403+01 | 1486234808.6504 | pgbench_tellers  |          4235264
 2017-02-04 20:00:08.650403+01 | 1486234808.6504 | pgbench_history  |        120954880
 2017-02-04 20:00:08.650403+01 | 1486234808.6504 | pgbench_branches |          2310144

 2017-02-04 20:00:09.743266+01 | 1486234809.74327 | pgbench_accounts |       1381859328
 2017-02-04 20:00:09.743266+01 | 1486234809.74327 | pgbench_tellers  |          4235264
 2017-02-04 20:00:09.743266+01 | 1486234809.74327 | pgbench_history  |        122830848
 2017-02-04 20:00:09.743266+01 | 1486234809.74327 | pgbench_branches |          2310144

 2017-02-04 20:00:10.81735+01 | 1486234810.81735 | pgbench_accounts |       1381859328
 2017-02-04 20:00:10.81735+01 | 1486234810.81735 | pgbench_tellers  |          4235264
 2017-02-04 20:00:10.81735+01 | 1486234810.81735 | pgbench_history  |        125853696
 2017-02-04 20:00:10.81735+01 | 1486234810.81735 | pgbench_branches |          2310144

 2017-02-04 20:00:11.924587+01 | 1486234811.92459 | pgbench_accounts |       1381859328
 2017-02-04 20:00:11.924587+01 | 1486234811.92459 | pgbench_tellers  |          4235264
 2017-02-04 20:00:11.924587+01 | 1486234811.92459 | pgbench_history  |        127729664
 2017-02-04 20:00:11.924587+01 | 1486234811.92459 | pgbench_branches |          2310144

 2017-02-04 20:00:13.018076+01 | 1486234813.01808 | pgbench_accounts |       1381859328
 2017-02-04 20:00:13.018076+01 | 1486234813.01808 | pgbench_tellers  |          4235264
 2017-02-04 20:00:13.018076+01 | 1486234813.01808 | pgbench_history  |        134078464
 2017-02-04 20:00:13.018076+01 | 1486234813.01808 | pgbench_branches |          2310144

 2017-02-04 20:00:14.096508+01 | 1486234814.09651 | pgbench_accounts |       1381859328
 2017-02-04 20:00:14.096508+01 | 1486234814.09651 | pgbench_tellers  |          4235264
 2017-02-04 20:00:14.096508+01 | 1486234814.09651 | pgbench_history  |        134078464
 2017-02-04 20:00:14.096508+01 | 1486234814.09651 | pgbench_branches |          2310144

 2017-02-04 20:00:15.185968+01 | 1486234815.18597 | pgbench_accounts |       1381859328
 2017-02-04 20:00:15.185968+01 | 1486234815.18597 | pgbench_tellers  |          4235264
 2017-02-04 20:00:15.185968+01 | 1486234815.18597 | pgbench_history  |        135135232
 2017-02-04 20:00:15.185968+01 | 1486234815.18597 | pgbench_branches |          2310144

 2017-02-04 20:00:16.26968+01 | 1486234816.26968 | pgbench_accounts |       1381859328
 2017-02-04 20:00:16.26968+01 | 1486234816.26968 | pgbench_tellers  |          4235264
 2017-02-04 20:00:16.26968+01 | 1486234816.26968 | pgbench_history  |        137527296
 2017-02-04 20:00:16.26968+01 | 1486234816.26968 | pgbench_branches |          2310144

 2017-02-04 20:00:17.364285+01 | 1486234817.36428 | pgbench_accounts |       1381859328
 2017-02-04 20:00:17.364285+01 | 1486234817.36428 | pgbench_tellers  |          4235264
 2017-02-04 20:00:17.364285+01 | 1486234817.36428 | pgbench_history  |        140197888
 2017-02-04 20:00:17.364285+01 | 1486234817.36428 | pgbench_branches |          2310144

 2017-02-04 20:00:18.455238+01 | 1486234818.45524 | pgbench_accounts |       1381859328
 2017-02-04 20:00:18.455238+01 | 1486234818.45524 | pgbench_tellers  |          4235264
 2017-02-04 20:00:18.455238+01 | 1486234818.45524 | pgbench_history  |        142049280
 2017-02-04 20:00:18.455238+01 | 1486234818.45524 | pgbench_branches |          2310144

 2017-02-04 20:00:19.546628+01 | 1486234819.54663 | pgbench_accounts |       1381859328
 2017-02-04 20:00:19.546628+01 | 1486234819.54663 | pgbench_tellers  |          4235264
 2017-02-04 20:00:19.546628+01 | 1486234819.54663 | pgbench_history  |        144719872
 2017-02-04 20:00:19.546628+01 | 1486234819.54663 | pgbench_branches |          2310144

 2017-02-04 20:00:20.63885+01 | 1486234820.63885 | pgbench_accounts |       1381859328
 2017-02-04 20:00:20.63885+01 | 1486234820.63885 | pgbench_tellers  |          4235264
 2017-02-04 20:00:20.63885+01 | 1486234820.63885 | pgbench_history  |        147742720
 2017-02-04 20:00:20.63885+01 | 1486234820.63885 | pgbench_branches |          2310144

 2017-02-04 20:00:21.726679+01 | 1486234821.72668 | pgbench_accounts |       1381859328
 2017-02-04 20:00:21.726679+01 | 1486234821.72668 | pgbench_tellers  |          4235264
 2017-02-04 20:00:21.726679+01 | 1486234821.72668 | pgbench_history  |        150249472
 2017-02-04 20:00:21.726679+01 | 1486234821.72668 | pgbench_branches |          2310144

 2017-02-04 20:00:22.814741+01 | 1486234822.81474 | pgbench_accounts |       1381859328
 2017-02-04 20:00:22.814741+01 | 1486234822.81474 | pgbench_tellers  |          4235264
 2017-02-04 20:00:22.814741+01 | 1486234822.81474 | pgbench_history  |        151920640
 2017-02-04 20:00:22.814741+01 | 1486234822.81474 | pgbench_branches |          2310144

 2017-02-04 20:00:23.907247+01 | 1486234823.90725 | pgbench_accounts |       1381859328
 2017-02-04 20:00:23.907247+01 | 1486234823.90725 | pgbench_tellers  |          4235264
 2017-02-04 20:00:23.907247+01 | 1486234823.90725 | pgbench_history  |        154124288
 2017-02-04 20:00:23.907247+01 | 1486234823.90725 | pgbench_branches |          2310144

 2017-02-04 20:00:25.001914+01 | 1486234825.00191 | pgbench_accounts |       1381859328
 2017-02-04 20:00:25.001914+01 | 1486234825.00191 | pgbench_tellers  |          4235264
 2017-02-04 20:00:25.001914+01 | 1486234825.00191 | pgbench_history  |        156868608
 2017-02-04 20:00:25.001914+01 | 1486234825.00191 | pgbench_branches |          2310144

 2017-02-04 20:00:26.085432+01 | 1486234826.08543 | pgbench_accounts |       1381859328
 2017-02-04 20:00:26.085432+01 | 1486234826.08543 | pgbench_tellers  |          4235264
 2017-02-04 20:00:26.085432+01 | 1486234826.08543 | pgbench_history  |        159072256
 2017-02-04 20:00:26.085432+01 | 1486234826.08543 | pgbench_branches |          2310144

 2017-02-04 20:00:27.163813+01 | 1486234827.16381 | pgbench_accounts |       1381859328
 2017-02-04 20:00:27.163813+01 | 1486234827.16381 | pgbench_tellers  |          4235264
 2017-02-04 20:00:27.163813+01 | 1486234827.16381 | pgbench_history  |        161415168
 2017-02-04 20:00:27.163813+01 | 1486234827.16381 | pgbench_branches |          2310144

 2017-02-04 20:00:28.245602+01 | 1486234828.2456 | pgbench_accounts |       1381859328
 2017-02-04 20:00:28.245602+01 | 1486234828.2456 | pgbench_tellers  |          4235264
 2017-02-04 20:00:28.245602+01 | 1486234828.2456 | pgbench_history  |        163995648
 2017-02-04 20:00:28.245602+01 | 1486234828.2456 | pgbench_branches |          2310144

 2017-02-04 20:00:29.33288+01 | 1486234829.33288 | pgbench_accounts |       1381859328
 2017-02-04 20:00:29.33288+01 | 1486234829.33288 | pgbench_tellers  |          4235264
 2017-02-04 20:00:29.33288+01 | 1486234829.33288 | pgbench_history  |        166371328
 2017-02-04 20:00:29.33288+01 | 1486234829.33288 | pgbench_branches |          2310144

 2017-02-04 20:00:30.435648+01 | 1486234830.43565 | pgbench_accounts |       1381859328
 2017-02-04 20:00:30.435648+01 | 1486234830.43565 | pgbench_tellers  |          4235264
 2017-02-04 20:00:30.435648+01 | 1486234830.43565 | pgbench_history  |        168574976
 2017-02-04 20:00:30.435648+01 | 1486234830.43565 | pgbench_branches |          2310144

 2017-02-04 20:00:31.522988+01 | 1486234831.52299 | pgbench_accounts |       1381859328
 2017-02-04 20:00:31.522988+01 | 1486234831.52299 | pgbench_tellers  |          4235264
 2017-02-04 20:00:31.522988+01 | 1486234831.52299 | pgbench_history  |        171458560
 2017-02-04 20:00:31.522988+01 | 1486234831.52299 | pgbench_branches |          2310144

 2017-02-04 20:00:32.610454+01 | 1486234832.61045 | pgbench_accounts |       1381859328
 2017-02-04 20:00:32.610454+01 | 1486234832.61045 | pgbench_tellers  |          4235264
 2017-02-04 20:00:32.610454+01 | 1486234832.61045 | pgbench_history  |        174317568
 2017-02-04 20:00:32.610454+01 | 1486234832.61045 | pgbench_branches |          2310144

 2017-02-04 20:00:33.712768+01 | 1486234833.71277 | pgbench_accounts |       1381859328
 2017-02-04 20:00:33.712768+01 | 1486234833.71277 | pgbench_tellers  |          4235264
 2017-02-04 20:00:33.712768+01 | 1486234833.71277 | pgbench_history  |        175874048
 2017-02-04 20:00:33.712768+01 | 1486234833.71277 | pgbench_branches |          2310144

 2017-02-04 20:00:34.80083+01 | 1486234834.80083 | pgbench_accounts |       1381859328
 2017-02-04 20:00:34.80083+01 | 1486234834.80083 | pgbench_tellers  |          4235264
 2017-02-04 20:00:34.80083+01 | 1486234834.80083 | pgbench_history  |        178429952
 2017-02-04 20:00:34.80083+01 | 1486234834.80083 | pgbench_branches |          2310144

 2017-02-04 20:00:35.896739+01 | 1486234835.89674 | pgbench_accounts |       1381859328
 2017-02-04 20:00:35.896739+01 | 1486234835.89674 | pgbench_tellers  |          4235264
 2017-02-04 20:00:35.896739+01 | 1486234835.89674 | pgbench_history  |        181149696
 2017-02-04 20:00:35.896739+01 | 1486234835.89674 | pgbench_branches |          2310144

 2017-02-04 20:00:36.989328+01 | 1486234836.98933 | pgbench_accounts |       1381859328
 2017-02-04 20:00:36.989328+01 | 1486234836.98933 | pgbench_tellers  |          4235264
 2017-02-04 20:00:36.989328+01 | 1486234836.98933 | pgbench_history  |        183164928
 2017-02-04 20:00:36.989328+01 | 1486234836.98933 | pgbench_branches |          2310144

 2017-02-04 20:00:38.078525+01 | 1486234838.07853 | pgbench_accounts |       1381859328
 2017-02-04 20:00:38.078525+01 | 1486234838.07853 | pgbench_tellers  |          4235264
 2017-02-04 20:00:38.078525+01 | 1486234838.07853 | pgbench_history  |        185704448
 2017-02-04 20:00:38.078525+01 | 1486234838.07853 | pgbench_branches |          2310144

 2017-02-04 20:00:39.159185+01 | 1486234839.15918 | pgbench_accounts |       1381859328
 2017-02-04 20:00:39.159185+01 | 1486234839.15918 | pgbench_tellers  |          4235264
 2017-02-04 20:00:39.159185+01 | 1486234839.15918 | pgbench_history  |        187932672
 2017-02-04 20:00:39.159185+01 | 1486234839.15918 | pgbench_branches |          2310144

 2017-02-04 20:00:40.23782+01 | 1486234840.23782 | pgbench_accounts |       1381859328
 2017-02-04 20:00:40.23782+01 | 1486234840.23782 | pgbench_tellers  |          4235264
 2017-02-04 20:00:40.23782+01 | 1486234840.23782 | pgbench_history  |        191143936
 2017-02-04 20:00:40.23782+01 | 1486234840.23782 | pgbench_branches |          2310144

 2017-02-04 20:00:41.319045+01 | 1486234841.31905 | pgbench_accounts |       1381859328
 2017-02-04 20:00:41.319045+01 | 1486234841.31905 | pgbench_tellers  |          4235264
 2017-02-04 20:00:41.319045+01 | 1486234841.31905 | pgbench_history  |        194469888
 2017-02-04 20:00:41.319045+01 | 1486234841.31905 | pgbench_branches |          2310144

 2017-02-04 20:00:42.412423+01 | 1486234842.41242 | pgbench_accounts |       1381859328
 2017-02-04 20:00:42.412423+01 | 1486234842.41242 | pgbench_tellers  |          4235264
 2017-02-04 20:00:42.412423+01 | 1486234842.41242 | pgbench_history  |        195313664
 2017-02-04 20:00:42.412423+01 | 1486234842.41242 | pgbench_branches |          2310144

 2017-02-04 20:00:43.505318+01 | 1486234843.50532 | pgbench_accounts |       1381859328
 2017-02-04 20:00:43.505318+01 | 1486234843.50532 | pgbench_tellers  |          4235264
 2017-02-04 20:00:43.505318+01 | 1486234843.50532 | pgbench_history  |        197558272
 2017-02-04 20:00:43.505318+01 | 1486234843.50532 | pgbench_branches |          2310144

 2017-02-04 20:00:44.597758+01 | 1486234844.59776 | pgbench_accounts |       1381859328
 2017-02-04 20:00:44.597758+01 | 1486234844.59776 | pgbench_tellers  |          4235264
 2017-02-04 20:00:44.597758+01 | 1486234844.59776 | pgbench_history  |        200556544
 2017-02-04 20:00:44.597758+01 | 1486234844.59776 | pgbench_branches |          2310144

 2017-02-04 20:00:45.687644+01 | 1486234845.68764 | pgbench_accounts |       1381859328
 2017-02-04 20:00:45.687644+01 | 1486234845.68764 | pgbench_tellers  |          4235264
 2017-02-04 20:00:45.687644+01 | 1486234845.68764 | pgbench_history  |        203259904
 2017-02-04 20:00:45.687644+01 | 1486234845.68764 | pgbench_branches |          2310144

 2017-02-04 20:00:46.774748+01 | 1486234846.77475 | pgbench_accounts |       1381859328
 2017-02-04 20:00:46.774748+01 | 1486234846.77475 | pgbench_tellers  |          4235264
 2017-02-04 20:00:46.774748+01 | 1486234846.77475 | pgbench_history  |        204840960
 2017-02-04 20:00:46.774748+01 | 1486234846.77475 | pgbench_branches |          2310144

 2017-02-04 20:00:47.857689+01 | 1486234847.85769 | pgbench_accounts |       1381859328
 2017-02-04 20:00:47.857689+01 | 1486234847.85769 | pgbench_tellers  |          4235264
 2017-02-04 20:00:47.857689+01 | 1486234847.85769 | pgbench_history  |        209502208
 2017-02-04 20:00:47.857689+01 | 1486234847.85769 | pgbench_branches |          2310144

 2017-02-04 20:00:48.950045+01 | 1486234848.95005 | pgbench_accounts |       1381859328
 2017-02-04 20:00:48.950045+01 | 1486234848.95005 | pgbench_tellers  |          4235264
 2017-02-04 20:00:48.950045+01 | 1486234848.95005 | pgbench_history  |        209502208
 2017-02-04 20:00:48.950045+01 | 1486234848.95005 | pgbench_branches |          2310144

 2017-02-04 20:00:50.036346+01 | 1486234850.03635 | pgbench_accounts |       1381859328
 2017-02-04 20:00:50.036346+01 | 1486234850.03635 | pgbench_tellers  |          4235264
 2017-02-04 20:00:50.036346+01 | 1486234850.03635 | pgbench_history  |        212688896
 2017-02-04 20:00:50.036346+01 | 1486234850.03635 | pgbench_branches |          2310144

 2017-02-04 20:00:51.118396+01 | 1486234851.1184 | pgbench_accounts |       1381859328
 2017-02-04 20:00:51.118396+01 | 1486234851.1184 | pgbench_tellers  |          4235264
 2017-02-04 20:00:51.118396+01 | 1486234851.1184 | pgbench_history  |        214073344
 2017-02-04 20:00:51.118396+01 | 1486234851.1184 | pgbench_branches |          2310144

 2017-02-04 20:00:52.197766+01 | 1486234852.19777 | pgbench_accounts |       1381859328
 2017-02-04 20:00:52.197766+01 | 1486234852.19777 | pgbench_tellers  |          4235264
 2017-02-04 20:00:52.197766+01 | 1486234852.19777 | pgbench_history  |        216793088
 2017-02-04 20:00:52.197766+01 | 1486234852.19777 | pgbench_branches |          2310144

 2017-02-04 20:00:53.277146+01 | 1486234853.27715 | pgbench_accounts |       1381859328
 2017-02-04 20:00:53.277146+01 | 1486234853.27715 | pgbench_tellers  |          4235264
 2017-02-04 20:00:53.277146+01 | 1486234853.27715 | pgbench_history  |        219791360
 2017-02-04 20:00:53.277146+01 | 1486234853.27715 | pgbench_branches |          2310144

 2017-02-04 20:00:54.362998+01 | 1486234854.363 | pgbench_accounts |       1381859328
 2017-02-04 20:00:54.362998+01 | 1486234854.363 | pgbench_tellers  |          4235264
 2017-02-04 20:00:54.362998+01 | 1486234854.363 | pgbench_history  |        223141888
 2017-02-04 20:00:54.362998+01 | 1486234854.363 | pgbench_branches |          2310144

 2017-02-04 20:00:55.44709+01 | 1486234855.44709 | pgbench_accounts |       1381859328
 2017-02-04 20:00:55.44709+01 | 1486234855.44709 | pgbench_tellers  |          4235264
 2017-02-04 20:00:55.44709+01 | 1486234855.44709 | pgbench_history  |        224313344
 2017-02-04 20:00:55.44709+01 | 1486234855.44709 | pgbench_branches |          2310144

 2017-02-04 20:00:56.543827+01 | 1486234856.54383 | pgbench_accounts |       1381859328
 2017-02-04 20:00:56.543827+01 | 1486234856.54383 | pgbench_tellers  |          4235264
 2017-02-04 20:00:56.543827+01 | 1486234856.54383 | pgbench_history  |        226869248
 2017-02-04 20:00:56.543827+01 | 1486234856.54383 | pgbench_branches |          2310144

 2017-02-04 20:00:57.636782+01 | 1486234857.63678 | pgbench_accounts |       1381859328
 2017-02-04 20:00:57.636782+01 | 1486234857.63678 | pgbench_tellers  |          4235264
 2017-02-04 20:00:57.636782+01 | 1486234857.63678 | pgbench_history  |        230686720
 2017-02-04 20:00:57.636782+01 | 1486234857.63678 | pgbench_branches |          2310144

 2017-02-04 20:00:58.733809+01 | 1486234858.73381 | pgbench_accounts |       1381859328
 2017-02-04 20:00:58.733809+01 | 1486234858.73381 | pgbench_tellers  |          4235264
 2017-02-04 20:00:58.733809+01 | 1486234858.73381 | pgbench_history  |        231530496
 2017-02-04 20:00:58.733809+01 | 1486234858.73381 | pgbench_branches |          2310144

 2017-02-04 20:00:59.831044+01 | 1486234859.83104 | pgbench_accounts |       1381859328
 2017-02-04 20:00:59.831044+01 | 1486234859.83104 | pgbench_tellers  |          4235264
 2017-02-04 20:00:59.831044+01 | 1486234859.83104 | pgbench_history  |        233545728
 2017-02-04 20:00:59.831044+01 | 1486234859.83104 | pgbench_branches |          2310144

 2017-02-04 20:01:00.92844+01 | 1486234860.92844 | pgbench_accounts |       1381859328
 2017-02-04 20:01:00.92844+01 | 1486234860.92844 | pgbench_tellers  |          4235264
 2017-02-04 20:01:00.92844+01 | 1486234860.92844 | pgbench_history  |        235888640
 2017-02-04 20:01:00.92844+01 | 1486234860.92844 | pgbench_branches |          2310144

 2017-02-04 20:01:02.0204+01 | 1486234862.0204 | pgbench_accounts |       1381859328
 2017-02-04 20:01:02.0204+01 | 1486234862.0204 | pgbench_tellers  |          4235264
 2017-02-04 20:01:02.0204+01 | 1486234862.0204 | pgbench_history  |        239067136
 2017-02-04 20:01:02.0204+01 | 1486234862.0204 | pgbench_branches |          2310144

 2017-02-04 20:01:03.111239+01 | 1486234863.11124 | pgbench_accounts |       1381859328
 2017-02-04 20:01:03.111239+01 | 1486234863.11124 | pgbench_tellers  |          4235264
 2017-02-04 20:01:03.111239+01 | 1486234863.11124 | pgbench_history  |        241713152
 2017-02-04 20:01:03.111239+01 | 1486234863.11124 | pgbench_branches |          2310144

 2017-02-04 20:01:04.190445+01 | 1486234864.19044 | pgbench_accounts |       1381859328
 2017-02-04 20:01:04.190445+01 | 1486234864.19044 | pgbench_tellers  |          4235264
 2017-02-04 20:01:04.190445+01 | 1486234864.19044 | pgbench_history  |        243073024
 2017-02-04 20:01:04.190445+01 | 1486234864.19044 | pgbench_branches |          2310144

 2017-02-04 20:01:05.26865+01 | 1486234865.26865 | pgbench_accounts |       1381859328
 2017-02-04 20:01:05.26865+01 | 1486234865.26865 | pgbench_tellers  |          4235264
 2017-02-04 20:01:05.26865+01 | 1486234865.26865 | pgbench_history  |        245768192
 2017-02-04 20:01:05.26865+01 | 1486234865.26865 | pgbench_branches |          2310144

 2017-02-04 20:01:06.358912+01 | 1486234866.35891 | pgbench_accounts |       1381859328
 2017-02-04 20:01:06.358912+01 | 1486234866.35891 | pgbench_tellers  |          4235264
 2017-02-04 20:01:06.358912+01 | 1486234866.35891 | pgbench_history  |        248299520
 2017-02-04 20:01:06.358912+01 | 1486234866.35891 | pgbench_branches |          2310144

 2017-02-04 20:01:07.446872+01 | 1486234867.44687 | pgbench_accounts |       1381859328
 2017-02-04 20:01:07.446872+01 | 1486234867.44687 | pgbench_tellers  |          4235264
 2017-02-04 20:01:07.446872+01 | 1486234867.44687 | pgbench_history  |        250290176
 2017-02-04 20:01:07.446872+01 | 1486234867.44687 | pgbench_branches |          2310144

 2017-02-04 20:01:08.534781+01 | 1486234868.53478 | pgbench_accounts |       1381859328
 2017-02-04 20:01:08.534781+01 | 1486234868.53478 | pgbench_tellers  |          4235264
 2017-02-04 20:01:08.534781+01 | 1486234868.53478 | pgbench_history  |        253640704
 2017-02-04 20:01:08.534781+01 | 1486234868.53478 | pgbench_branches |          2310144

 2017-02-04 20:01:09.625544+01 | 1486234869.62554 | pgbench_accounts |       1381859328
 2017-02-04 20:01:09.625544+01 | 1486234869.62554 | pgbench_tellers  |          4235264
 2017-02-04 20:01:09.625544+01 | 1486234869.62554 | pgbench_history  |        255827968
 2017-02-04 20:01:09.625544+01 | 1486234869.62554 | pgbench_branches |          2310144

 2017-02-04 20:01:10.708468+01 | 1486234870.70847 | pgbench_accounts |       1381859328
 2017-02-04 20:01:10.708468+01 | 1486234870.70847 | pgbench_tellers  |          4235264
 2017-02-04 20:01:10.708468+01 | 1486234870.70847 | pgbench_history  |        257515520
 2017-02-04 20:01:10.708468+01 | 1486234870.70847 | pgbench_branches |          2310144

 2017-02-04 20:01:11.802973+01 | 1486234871.80297 | pgbench_accounts |       1381859328
 2017-02-04 20:01:11.802973+01 | 1486234871.80297 | pgbench_tellers  |          4235264
 2017-02-04 20:01:11.802973+01 | 1486234871.80297 | pgbench_history  |        261029888
 2017-02-04 20:01:11.802973+01 | 1486234871.80297 | pgbench_branches |          2310144

 2017-02-04 20:01:12.887197+01 | 1486234872.8872 | pgbench_accounts |       1381859328
 2017-02-04 20:01:12.887197+01 | 1486234872.8872 | pgbench_tellers  |          4235264
 2017-02-04 20:01:12.887197+01 | 1486234872.8872 | pgbench_history  |        262553600
 2017-02-04 20:01:12.887197+01 | 1486234872.8872 | pgbench_branches |          2310144

 2017-02-04 20:01:13.978489+01 | 1486234873.97849 | pgbench_accounts |       1381859328
 2017-02-04 20:01:13.978489+01 | 1486234873.97849 | pgbench_tellers  |          4235264
 2017-02-04 20:01:13.978489+01 | 1486234873.97849 | pgbench_history  |        265134080
 2017-02-04 20:01:13.978489+01 | 1486234873.97849 | pgbench_branches |          2310144

 2017-02-04 20:01:15.065008+01 | 1486234875.06501 | pgbench_accounts |       1381859328
 2017-02-04 20:01:15.065008+01 | 1486234875.06501 | pgbench_tellers  |          4235264
 2017-02-04 20:01:15.065008+01 | 1486234875.06501 | pgbench_history  |        266854400
 2017-02-04 20:01:15.065008+01 | 1486234875.06501 | pgbench_branches |          2310144

 2017-02-04 20:01:16.151668+01 | 1486234876.15167 | pgbench_accounts |       1381859328
 2017-02-04 20:01:16.151668+01 | 1486234876.15167 | pgbench_tellers  |          4235264
 2017-02-04 20:01:16.151668+01 | 1486234876.15167 | pgbench_history  |        269221888
 2017-02-04 20:01:16.151668+01 | 1486234876.15167 | pgbench_branches |          2310144

 2017-02-04 20:01:17.239039+01 | 1486234877.23904 | pgbench_accounts |       1381859328
 2017-02-04 20:01:17.239039+01 | 1486234877.23904 | pgbench_tellers  |          4235264
 2017-02-04 20:01:17.239039+01 | 1486234877.23904 | pgbench_history  |        272736256
 2017-02-04 20:01:17.239039+01 | 1486234877.23904 | pgbench_branches |          2310144

 2017-02-04 20:01:18.32084+01 | 1486234878.32084 | pgbench_accounts |       1381859328
 2017-02-04 20:01:18.32084+01 | 1486234878.32084 | pgbench_tellers  |          4235264
 2017-02-04 20:01:18.32084+01 | 1486234878.32084 | pgbench_history  |        274448384
 2017-02-04 20:01:18.32084+01 | 1486234878.32084 | pgbench_branches |          2310144

 2017-02-04 20:01:19.404173+01 | 1486234879.40417 | pgbench_accounts |       1381859328
 2017-02-04 20:01:19.404173+01 | 1486234879.40417 | pgbench_tellers  |          4235264
 2017-02-04 20:01:19.404173+01 | 1486234879.40417 | pgbench_history  |        276463616
 2017-02-04 20:01:19.404173+01 | 1486234879.40417 | pgbench_branches |          2310144

 2017-02-04 20:01:20.499787+01 | 1486234880.49979 | pgbench_accounts |       1381859328
 2017-02-04 20:01:20.499787+01 | 1486234880.49979 | pgbench_tellers  |          4235264
 2017-02-04 20:01:20.499787+01 | 1486234880.49979 | pgbench_history  |        278724608
 2017-02-04 20:01:20.499787+01 | 1486234880.49979 | pgbench_branches |          2310144

 2017-02-04 20:01:21.588276+01 | 1486234881.58828 | pgbench_accounts |       1381859328
 2017-02-04 20:01:21.588276+01 | 1486234881.58828 | pgbench_tellers  |          4235264
 2017-02-04 20:01:21.588276+01 | 1486234881.58828 | pgbench_history  |        281092096
 2017-02-04 20:01:21.588276+01 | 1486234881.58828 | pgbench_branches |          2310144

 2017-02-04 20:01:22.6822+01 | 1486234882.6822 | pgbench_accounts |       1381859328
 2017-02-04 20:01:22.6822+01 | 1486234882.6822 | pgbench_tellers  |          4235264
 2017-02-04 20:01:22.6822+01 | 1486234882.6822 | pgbench_history  |        283951104
 2017-02-04 20:01:22.6822+01 | 1486234882.6822 | pgbench_branches |          2310144

 2017-02-04 20:01:23.774961+01 | 1486234883.77496 | pgbench_accounts |       1381859328
 2017-02-04 20:01:23.774961+01 | 1486234883.77496 | pgbench_tellers  |          4235264
 2017-02-04 20:01:23.774961+01 | 1486234883.77496 | pgbench_history  |        285990912
 2017-02-04 20:01:23.774961+01 | 1486234883.77496 | pgbench_branches |          2310144

 2017-02-04 20:01:24.868673+01 | 1486234884.86867 | pgbench_accounts |       1381859328
 2017-02-04 20:01:24.868673+01 | 1486234884.86867 | pgbench_tellers  |          4235264
 2017-02-04 20:01:24.868673+01 | 1486234884.86867 | pgbench_history  |        288366592
 2017-02-04 20:01:24.868673+01 | 1486234884.86867 | pgbench_branches |          2310144

 2017-02-04 20:01:25.967982+01 | 1486234885.96798 | pgbench_accounts |       1381859328
 2017-02-04 20:01:25.967982+01 | 1486234885.96798 | pgbench_tellers  |          4235264
 2017-02-04 20:01:25.967982+01 | 1486234885.96798 | pgbench_history  |        290250752
 2017-02-04 20:01:25.967982+01 | 1486234885.96798 | pgbench_branches |          2662400

 2017-02-04 20:01:27.059877+01 | 1486234887.05988 | pgbench_accounts |       1381859328
 2017-02-04 20:01:27.059877+01 | 1486234887.05988 | pgbench_tellers  |          4235264
 2017-02-04 20:01:27.059877+01 | 1486234887.05988 | pgbench_history  |        292945920
 2017-02-04 20:01:27.059877+01 | 1486234887.05988 | pgbench_branches |          2662400

 2017-02-04 20:01:28.146405+01 | 1486234888.1464 | pgbench_accounts |       1381859328
 2017-02-04 20:01:28.146405+01 | 1486234888.1464 | pgbench_tellers  |          4235264
 2017-02-04 20:01:28.146405+01 | 1486234888.1464 | pgbench_history  |        294797312
 2017-02-04 20:01:28.146405+01 | 1486234888.1464 | pgbench_branches |          2662400

 2017-02-04 20:01:29.233556+01 | 1486234889.23356 | pgbench_accounts |       1381859328
 2017-02-04 20:01:29.233556+01 | 1486234889.23356 | pgbench_tellers  |          4235264
 2017-02-04 20:01:29.233556+01 | 1486234889.23356 | pgbench_history  |        298123264
 2017-02-04 20:01:29.233556+01 | 1486234889.23356 | pgbench_branches |          2662400

 2017-02-04 20:01:30.320548+01 | 1486234890.32055 | pgbench_accounts |       1381859328
 2017-02-04 20:01:30.320548+01 | 1486234890.32055 | pgbench_tellers  |          4235264
 2017-02-04 20:01:30.320548+01 | 1486234890.32055 | pgbench_history  |        299835392
 2017-02-04 20:01:30.320548+01 | 1486234890.32055 | pgbench_branches |          2662400

 2017-02-04 20:01:31.399684+01 | 1486234891.39968 | pgbench_accounts |       1381859328
 2017-02-04 20:01:31.399684+01 | 1486234891.39968 | pgbench_tellers  |          4235264
 2017-02-04 20:01:31.399684+01 | 1486234891.39968 | pgbench_history  |        302997504
 2017-02-04 20:01:31.399684+01 | 1486234891.39968 | pgbench_branches |          2662400

 2017-02-04 20:01:32.48922+01 | 1486234892.48922 | pgbench_accounts |       1381859328
 2017-02-04 20:01:32.48922+01 | 1486234892.48922 | pgbench_tellers  |          4235264
 2017-02-04 20:01:32.48922+01 | 1486234892.48922 | pgbench_history  |        307216384
 2017-02-04 20:01:32.48922+01 | 1486234892.48922 | pgbench_branches |          2662400

 2017-02-04 20:01:33.582608+01 | 1486234893.58261 | pgbench_accounts |       1381859328
 2017-02-04 20:01:33.582608+01 | 1486234893.58261 | pgbench_tellers  |          4235264
 2017-02-04 20:01:33.582608+01 | 1486234893.58261 | pgbench_history  |        307216384
 2017-02-04 20:01:33.582608+01 | 1486234893.58261 | pgbench_branches |          2662400

 2017-02-04 20:01:34.670101+01 | 1486234894.6701 | pgbench_accounts |       1381859328
 2017-02-04 20:01:34.670101+01 | 1486234894.6701 | pgbench_tellers  |          4235264
 2017-02-04 20:01:34.670101+01 | 1486234894.6701 | pgbench_history  |        309862400
 2017-02-04 20:01:34.670101+01 | 1486234894.6701 | pgbench_branches |          2662400

 2017-02-04 20:01:35.764568+01 | 1486234895.76457 | pgbench_accounts |       1381859328
 2017-02-04 20:01:35.764568+01 | 1486234895.76457 | pgbench_tellers  |          4235264
 2017-02-04 20:01:35.764568+01 | 1486234895.76457 | pgbench_history  |        311713792
 2017-02-04 20:01:35.764568+01 | 1486234895.76457 | pgbench_branches |          2662400

 2017-02-04 20:01:36.856715+01 | 1486234896.85671 | pgbench_accounts |       1381859328
 2017-02-04 20:01:36.856715+01 | 1486234896.85671 | pgbench_tellers  |          4235264
 2017-02-04 20:01:36.856715+01 | 1486234896.85671 | pgbench_history  |        314056704
 2017-02-04 20:01:36.856715+01 | 1486234896.85671 | pgbench_branches |          2662400

 2017-02-04 20:01:37.948537+01 | 1486234897.94854 | pgbench_accounts |       1381859328
 2017-02-04 20:01:37.948537+01 | 1486234897.94854 | pgbench_tellers  |          4235264
 2017-02-04 20:01:37.948537+01 | 1486234897.94854 | pgbench_history  |        316538880
 2017-02-04 20:01:37.948537+01 | 1486234897.94854 | pgbench_branches |          2662400

 2017-02-04 20:01:39.045235+01 | 1486234899.04523 | pgbench_accounts |       1381859328
 2017-02-04 20:01:39.045235+01 | 1486234899.04523 | pgbench_tellers  |          4235264
 2017-02-04 20:01:39.045235+01 | 1486234899.04523 | pgbench_history  |        319070208
 2017-02-04 20:01:39.045235+01 | 1486234899.04523 | pgbench_branches |          2662400

 2017-02-04 20:01:40.130958+01 | 1486234900.13096 | pgbench_accounts |       1381859328
 2017-02-04 20:01:40.130958+01 | 1486234900.13096 | pgbench_tellers  |          4235264
 2017-02-04 20:01:40.130958+01 | 1486234900.13096 | pgbench_history  |        321323008
 2017-02-04 20:01:40.130958+01 | 1486234900.13096 | pgbench_branches |          2662400

 2017-02-04 20:01:41.21567+01 | 1486234901.21567 | pgbench_accounts |       1381859328
 2017-02-04 20:01:41.21567+01 | 1486234901.21567 | pgbench_tellers  |          4235264
 2017-02-04 20:01:41.21567+01 | 1486234901.21567 | pgbench_history  |        324018176
 2017-02-04 20:01:41.21567+01 | 1486234901.21567 | pgbench_branches |          2662400

 2017-02-04 20:01:42.295192+01 | 1486234902.29519 | pgbench_accounts |       1381859328
 2017-02-04 20:01:42.295192+01 | 1486234902.29519 | pgbench_tellers  |          4235264
 2017-02-04 20:01:42.295192+01 | 1486234902.29519 | pgbench_history  |        325541888
 2017-02-04 20:01:42.295192+01 | 1486234902.29519 | pgbench_branches |          2662400

 2017-02-04 20:01:43.379224+01 | 1486234903.37922 | pgbench_accounts |       1381859328
 2017-02-04 20:01:43.379224+01 | 1486234903.37922 | pgbench_tellers  |          4235264
 2017-02-04 20:01:43.379224+01 | 1486234903.37922 | pgbench_history  |        327909376
 2017-02-04 20:01:43.379224+01 | 1486234903.37922 | pgbench_branches |          2662400

 2017-02-04 20:01:44.467829+01 | 1486234904.46783 | pgbench_accounts |       1381859328
 2017-02-04 20:01:44.467829+01 | 1486234904.46783 | pgbench_tellers  |          4235264
 2017-02-04 20:01:44.467829+01 | 1486234904.46783 | pgbench_history  |        329949184
 2017-02-04 20:01:44.467829+01 | 1486234904.46783 | pgbench_branches |          2662400

 2017-02-04 20:01:45.556268+01 | 1486234905.55627 | pgbench_accounts |       1381859328
 2017-02-04 20:01:45.556268+01 | 1486234905.55627 | pgbench_tellers  |          4235264
 2017-02-04 20:01:45.556268+01 | 1486234905.55627 | pgbench_history  |        332349440
 2017-02-04 20:01:45.556268+01 | 1486234905.55627 | pgbench_branches |          2662400

 2017-02-04 20:01:46.643988+01 | 1486234906.64399 | pgbench_accounts |       1381859328
 2017-02-04 20:01:46.643988+01 | 1486234906.64399 | pgbench_tellers  |          4235264
 2017-02-04 20:01:46.643988+01 | 1486234906.64399 | pgbench_history  |        334561280
 2017-02-04 20:01:46.643988+01 | 1486234906.64399 | pgbench_branches |          2662400

 2017-02-04 20:01:47.729754+01 | 1486234907.72975 | pgbench_accounts |       1381859328
 2017-02-04 20:01:47.729754+01 | 1486234907.72975 | pgbench_tellers  |          4235264
 2017-02-04 20:01:47.729754+01 | 1486234907.72975 | pgbench_history  |        336928768
 2017-02-04 20:01:47.729754+01 | 1486234907.72975 | pgbench_branches |          2662400

 2017-02-04 20:01:48.81841+01 | 1486234908.81841 | pgbench_accounts |       1381859328
 2017-02-04 20:01:48.81841+01 | 1486234908.81841 | pgbench_tellers  |          4235264
 2017-02-04 20:01:48.81841+01 | 1486234908.81841 | pgbench_history  |        338821120
 2017-02-04 20:01:48.81841+01 | 1486234908.81841 | pgbench_branches |          2662400

 2017-02-04 20:01:49.91633+01 | 1486234909.91633 | pgbench_accounts |       1381859328
 2017-02-04 20:01:49.91633+01 | 1486234909.91633 | pgbench_tellers  |          4235264
 2017-02-04 20:01:49.91633+01 | 1486234909.91633 | pgbench_history  |        341352448
 2017-02-04 20:01:49.91633+01 | 1486234909.91633 | pgbench_branches |          2662400

 2017-02-04 20:01:50.987483+01 | 1486234910.98748 | pgbench_accounts |       1381859328
 2017-02-04 20:01:50.987483+01 | 1486234910.98748 | pgbench_tellers  |          4235264
 2017-02-04 20:01:50.987483+01 | 1486234910.98748 | pgbench_history  |        343064576
 2017-02-04 20:01:50.987483+01 | 1486234910.98748 | pgbench_branches |          2662400

 2017-02-04 20:01:52.071449+01 | 1486234912.07145 | pgbench_accounts |       1381859328
 2017-02-04 20:01:52.071449+01 | 1486234912.07145 | pgbench_tellers  |          4235264
 2017-02-04 20:01:52.071449+01 | 1486234912.07145 | pgbench_history  |        345268224
 2017-02-04 20:01:52.071449+01 | 1486234912.07145 | pgbench_branches |          2662400

 2017-02-04 20:01:53.160997+01 | 1486234913.161 | pgbench_accounts |       1381859328
 2017-02-04 20:01:53.160997+01 | 1486234913.161 | pgbench_tellers  |          4235264
 2017-02-04 20:01:53.160997+01 | 1486234913.161 | pgbench_history  |        347799552
 2017-02-04 20:01:53.160997+01 | 1486234913.161 | pgbench_branches |          2662400

 2017-02-04 20:01:54.242975+01 | 1486234914.24297 | pgbench_accounts |       1381859328
 2017-02-04 20:01:54.242975+01 | 1486234914.24297 | pgbench_tellers  |          4235264
 2017-02-04 20:01:54.242975+01 | 1486234914.24297 | pgbench_history  |        349978624
 2017-02-04 20:01:54.242975+01 | 1486234914.24297 | pgbench_branches |          2662400

 2017-02-04 20:01:55.324123+01 | 1486234915.32412 | pgbench_accounts |       1381859328
 2017-02-04 20:01:55.324123+01 | 1486234915.32412 | pgbench_tellers  |          4235264
 2017-02-04 20:01:55.324123+01 | 1486234915.32412 | pgbench_history  |        352698368
 2017-02-04 20:01:55.324123+01 | 1486234915.32412 | pgbench_branches |          2662400

 2017-02-04 20:01:56.406039+01 | 1486234916.40604 | pgbench_accounts |       1381859328
 2017-02-04 20:01:56.406039+01 | 1486234916.40604 | pgbench_tellers  |          4235264
 2017-02-04 20:01:56.406039+01 | 1486234916.40604 | pgbench_history  |        354058240
 2017-02-04 20:01:56.406039+01 | 1486234916.40604 | pgbench_branches |          2662400

 2017-02-04 20:01:57.500219+01 | 1486234917.50022 | pgbench_accounts |       1381859328
 2017-02-04 20:01:57.500219+01 | 1486234917.50022 | pgbench_tellers  |          4235264
 2017-02-04 20:01:57.500219+01 | 1486234917.50022 | pgbench_history  |        356237312
 2017-02-04 20:01:57.500219+01 | 1486234917.50022 | pgbench_branches |          2662400

 2017-02-04 20:01:58.584898+01 | 1486234918.5849 | pgbench_accounts |       1381859328
 2017-02-04 20:01:58.584898+01 | 1486234918.5849 | pgbench_tellers  |          4235264
 2017-02-04 20:01:58.584898+01 | 1486234918.5849 | pgbench_history  |        359235584
 2017-02-04 20:01:58.584898+01 | 1486234918.5849 | pgbench_branches |          2662400

 2017-02-04 20:01:59.67565+01 | 1486234919.67565 | pgbench_accounts |       1381859328
 2017-02-04 20:01:59.67565+01 | 1486234919.67565 | pgbench_tellers  |          4235264
 2017-02-04 20:01:59.67565+01 | 1486234919.67565 | pgbench_history  |        361111552
 2017-02-04 20:01:59.67565+01 | 1486234919.67565 | pgbench_branches |          2662400

 2017-02-04 20:02:00.762301+01 | 1486234920.7623 | pgbench_accounts |       1381859328
 2017-02-04 20:02:00.762301+01 | 1486234920.7623 | pgbench_tellers  |          4235264
 2017-02-04 20:02:00.762301+01 | 1486234920.7623 | pgbench_history  |        362987520
 2017-02-04 20:02:00.762301+01 | 1486234920.7623 | pgbench_branches |          2662400

 2017-02-04 20:02:01.84882+01 | 1486234921.84882 | pgbench_accounts |       1381859328
 2017-02-04 20:02:01.84882+01 | 1486234921.84882 | pgbench_tellers  |          4235264
 2017-02-04 20:02:01.84882+01 | 1486234921.84882 | pgbench_history  |        365002752
 2017-02-04 20:02:01.84882+01 | 1486234921.84882 | pgbench_branches |          2662400

 2017-02-04 20:02:02.940087+01 | 1486234922.94009 | pgbench_accounts |       1381859328
 2017-02-04 20:02:02.940087+01 | 1486234922.94009 | pgbench_tellers  |          4235264
 2017-02-04 20:02:02.940087+01 | 1486234922.94009 | pgbench_history  |        367181824
 2017-02-04 20:02:02.940087+01 | 1486234922.94009 | pgbench_branches |          2662400

 2017-02-04 20:02:04.02963+01 | 1486234924.02963 | pgbench_accounts |       1381859328
 2017-02-04 20:02:04.02963+01 | 1486234924.02963 | pgbench_tellers  |          4235264
 2017-02-04 20:02:04.02963+01 | 1486234924.02963 | pgbench_history  |        369958912
 2017-02-04 20:02:04.02963+01 | 1486234924.02963 | pgbench_branches |          2662400

 2017-02-04 20:02:05.110438+01 | 1486234925.11044 | pgbench_accounts |       1381859328
 2017-02-04 20:02:05.110438+01 | 1486234925.11044 | pgbench_tellers  |          4235264
 2017-02-04 20:02:05.110438+01 | 1486234925.11044 | pgbench_history  |        372195328
 2017-02-04 20:02:05.110438+01 | 1486234925.11044 | pgbench_branches |          2662400

 2017-02-04 20:02:06.190475+01 | 1486234926.19047 | pgbench_accounts |       1381859328
 2017-02-04 20:02:06.190475+01 | 1486234926.19047 | pgbench_tellers  |          4235264
 2017-02-04 20:02:06.190475+01 | 1486234926.19047 | pgbench_history  |        374890496
 2017-02-04 20:02:06.190475+01 | 1486234926.19047 | pgbench_branches |          2662400

 2017-02-04 20:02:07.271358+01 | 1486234927.27136 | pgbench_accounts |       1381859328
 2017-02-04 20:02:07.271358+01 | 1486234927.27136 | pgbench_tellers  |          4235264
 2017-02-04 20:02:07.271358+01 | 1486234927.27136 | pgbench_history  |        378847232
 2017-02-04 20:02:07.271358+01 | 1486234927.27136 | pgbench_branches |          2662400

 2017-02-04 20:02:08.362388+01 | 1486234928.36239 | pgbench_accounts |       1381859328
 2017-02-04 20:02:08.362388+01 | 1486234928.36239 | pgbench_tellers  |          4235264
 2017-02-04 20:02:08.362388+01 | 1486234928.36239 | pgbench_history  |        379207680
 2017-02-04 20:02:08.362388+01 | 1486234928.36239 | pgbench_branches |          2662400

 2017-02-04 20:02:09.441357+01 | 1486234929.44136 | pgbench_accounts |       1381859328
 2017-02-04 20:02:09.441357+01 | 1486234929.44136 | pgbench_tellers  |          4235264
 2017-02-04 20:02:09.441357+01 | 1486234929.44136 | pgbench_history  |        381796352
 2017-02-04 20:02:09.441357+01 | 1486234929.44136 | pgbench_branches |          2662400

 2017-02-04 20:02:10.51816+01 | 1486234930.51816 | pgbench_accounts |       1381859328
 2017-02-04 20:02:10.51816+01 | 1486234930.51816 | pgbench_tellers  |          4235264
 2017-02-04 20:02:10.51816+01 | 1486234930.51816 | pgbench_history  |        384868352
 2017-02-04 20:02:10.51816+01 | 1486234930.51816 | pgbench_branches |          2662400

 2017-02-04 20:02:11.603171+01 | 1486234931.60317 | pgbench_accounts |       1381859328
 2017-02-04 20:02:11.603171+01 | 1486234931.60317 | pgbench_tellers  |          4235264
 2017-02-04 20:02:11.603171+01 | 1486234931.60317 | pgbench_history  |        386392064
 2017-02-04 20:02:11.603171+01 | 1486234931.60317 | pgbench_branches |          2662400

 2017-02-04 20:02:12.691074+01 | 1486234932.69107 | pgbench_accounts |       1381859328
 2017-02-04 20:02:12.691074+01 | 1486234932.69107 | pgbench_tellers  |          4235264
 2017-02-04 20:02:12.691074+01 | 1486234932.69107 | pgbench_history  |        389464064
 2017-02-04 20:02:12.691074+01 | 1486234932.69107 | pgbench_branches |          2662400

 2017-02-04 20:02:13.780883+01 | 1486234933.78088 | pgbench_accounts |       1381859328
 2017-02-04 20:02:13.780883+01 | 1486234933.78088 | pgbench_tellers  |          4235264
 2017-02-04 20:02:13.780883+01 | 1486234933.78088 | pgbench_history  |        391970816
 2017-02-04 20:02:13.780883+01 | 1486234933.78088 | pgbench_branches |          2662400

 2017-02-04 20:02:14.867985+01 | 1486234934.86799 | pgbench_accounts |       1381859328
 2017-02-04 20:02:14.867985+01 | 1486234934.86799 | pgbench_tellers  |          4235264
 2017-02-04 20:02:14.867985+01 | 1486234934.86799 | pgbench_history  |        394289152
 2017-02-04 20:02:14.867985+01 | 1486234934.86799 | pgbench_branches |          2662400

 2017-02-04 20:02:15.961211+01 | 1486234935.96121 | pgbench_accounts |       1381859328
 2017-02-04 20:02:15.961211+01 | 1486234935.96121 | pgbench_tellers  |          4235264
 2017-02-04 20:02:15.961211+01 | 1486234935.96121 | pgbench_history  |        396304384
 2017-02-04 20:02:15.961211+01 | 1486234935.96121 | pgbench_branches |          2662400

 2017-02-04 20:02:17.050982+01 | 1486234937.05098 | pgbench_accounts |       1381859328
 2017-02-04 20:02:17.050982+01 | 1486234937.05098 | pgbench_tellers  |          4235264
 2017-02-04 20:02:17.050982+01 | 1486234937.05098 | pgbench_history  |        399466496
 2017-02-04 20:02:17.050982+01 | 1486234937.05098 | pgbench_branches |          2662400

 2017-02-04 20:02:18.13756+01 | 1486234938.13756 | pgbench_accounts |       1381859328
 2017-02-04 20:02:18.13756+01 | 1486234938.13756 | pgbench_tellers  |          4235264
 2017-02-04 20:02:18.13756+01 | 1486234938.13756 | pgbench_history  |        401014784
 2017-02-04 20:02:18.13756+01 | 1486234938.13756 | pgbench_branches |          2662400

 2017-02-04 20:02:19.217283+01 | 1486234939.21728 | pgbench_accounts |       1381859328
 2017-02-04 20:02:19.217283+01 | 1486234939.21728 | pgbench_tellers  |          4235264
 2017-02-04 20:02:19.217283+01 | 1486234939.21728 | pgbench_history  |        404570112
 2017-02-04 20:02:19.217283+01 | 1486234939.21728 | pgbench_branches |          2662400

 2017-02-04 20:02:20.308632+01 | 1486234940.30863 | pgbench_accounts |       1381859328
 2017-02-04 20:02:20.308632+01 | 1486234940.30863 | pgbench_tellers  |          4235264
 2017-02-04 20:02:20.308632+01 | 1486234940.30863 | pgbench_history  |        406069248
 2017-02-04 20:02:20.308632+01 | 1486234940.30863 | pgbench_branches |          2662400

 2017-02-04 20:02:21.392679+01 | 1486234941.39268 | pgbench_accounts |       1381859328
 2017-02-04 20:02:21.392679+01 | 1486234941.39268 | pgbench_tellers  |          4235264
 2017-02-04 20:02:21.392679+01 | 1486234941.39268 | pgbench_history  |        408248320
 2017-02-04 20:02:21.392679+01 | 1486234941.39268 | pgbench_branches |          2662400

 2017-02-04 20:02:22.476263+01 | 1486234942.47626 | pgbench_accounts |       1381859328
 2017-02-04 20:02:22.476263+01 | 1486234942.47626 | pgbench_tellers  |          4235264
 2017-02-04 20:02:22.476263+01 | 1486234942.47626 | pgbench_history  |        410148864
 2017-02-04 20:02:22.476263+01 | 1486234942.47626 | pgbench_branches |          2662400

 2017-02-04 20:02:23.56498+01 | 1486234943.56498 | pgbench_accounts |       1381859328
 2017-02-04 20:02:23.56498+01 | 1486234943.56498 | pgbench_tellers  |          4235264
 2017-02-04 20:02:23.56498+01 | 1486234943.56498 | pgbench_history  |        415047680
 2017-02-04 20:02:23.56498+01 | 1486234943.56498 | pgbench_branches |          2662400

 2017-02-04 20:02:24.649321+01 | 1486234944.64932 | pgbench_accounts |       1381859328
 2017-02-04 20:02:24.649321+01 | 1486234944.64932 | pgbench_tellers  |          4235264
 2017-02-04 20:02:24.649321+01 | 1486234944.64932 | pgbench_history  |        415047680
 2017-02-04 20:02:24.649321+01 | 1486234944.64932 | pgbench_branches |          2662400

 2017-02-04 20:02:25.742691+01 | 1486234945.74269 | pgbench_accounts |       1381859328
 2017-02-04 20:02:25.742691+01 | 1486234945.74269 | pgbench_tellers  |          4235264
 2017-02-04 20:02:25.742691+01 | 1486234945.74269 | pgbench_history  |        417226752
 2017-02-04 20:02:25.742691+01 | 1486234945.74269 | pgbench_branches |          2662400

 2017-02-04 20:02:26.833344+01 | 1486234946.83334 | pgbench_accounts |       1381859328
 2017-02-04 20:02:26.833344+01 | 1486234946.83334 | pgbench_tellers  |          4235264
 2017-02-04 20:02:26.833344+01 | 1486234946.83334 | pgbench_history  |        418914304
 2017-02-04 20:02:26.833344+01 | 1486234946.83334 | pgbench_branches |          2662400

 2017-02-04 20:02:27.921974+01 | 1486234947.92197 | pgbench_accounts |       1381859328
 2017-02-04 20:02:27.921974+01 | 1486234947.92197 | pgbench_tellers  |          4235264
 2017-02-04 20:02:27.921974+01 | 1486234947.92197 | pgbench_history  |        421453824
 2017-02-04 20:02:27.921974+01 | 1486234947.92197 | pgbench_branches |          2662400

 2017-02-04 20:02:29.010926+01 | 1486234949.01093 | pgbench_accounts |       1381859328
 2017-02-04 20:02:29.010926+01 | 1486234949.01093 | pgbench_tellers  |          4235264
 2017-02-04 20:02:29.010926+01 | 1486234949.01093 | pgbench_history  |        424181760
 2017-02-04 20:02:29.010926+01 | 1486234949.01093 | pgbench_branches |          2662400

 2017-02-04 20:02:30.105445+01 | 1486234950.10544 | pgbench_accounts |       1381859328
 2017-02-04 20:02:30.105445+01 | 1486234950.10544 | pgbench_tellers  |          4235264
 2017-02-04 20:02:30.105445+01 | 1486234950.10544 | pgbench_history  |        426688512
 2017-02-04 20:02:30.105445+01 | 1486234950.10544 | pgbench_branches |          2662400

 2017-02-04 20:02:31.194723+01 | 1486234951.19472 | pgbench_accounts |       1381859328
 2017-02-04 20:02:31.194723+01 | 1486234951.19472 | pgbench_tellers  |          4235264
 2017-02-04 20:02:31.194723+01 | 1486234951.19472 | pgbench_history  |        428539904
 2017-02-04 20:02:31.194723+01 | 1486234951.19472 | pgbench_branches |          2662400

 2017-02-04 20:02:32.274446+01 | 1486234952.27445 | pgbench_accounts |       1381859328
 2017-02-04 20:02:32.274446+01 | 1486234952.27445 | pgbench_tellers  |          4235264
 2017-02-04 20:02:32.274446+01 | 1486234952.27445 | pgbench_history  |        430931968
 2017-02-04 20:02:32.274446+01 | 1486234952.27445 | pgbench_branches |          2662400

 2017-02-04 20:02:33.353024+01 | 1486234953.35302 | pgbench_accounts |       1381859328
 2017-02-04 20:02:33.353024+01 | 1486234953.35302 | pgbench_tellers  |          4235264
 2017-02-04 20:02:33.353024+01 | 1486234953.35302 | pgbench_history  |        433487872
 2017-02-04 20:02:33.353024+01 | 1486234953.35302 | pgbench_branches |          2662400

 2017-02-04 20:02:34.43704+01 | 1486234954.43704 | pgbench_accounts |       1381859328
 2017-02-04 20:02:34.43704+01 | 1486234954.43704 | pgbench_tellers  |          4235264
 2017-02-04 20:02:34.43704+01 | 1486234954.43704 | pgbench_history  |        435363840
 2017-02-04 20:02:34.43704+01 | 1486234954.43704 | pgbench_branches |          2662400

 2017-02-04 20:02:35.526504+01 | 1486234955.5265 | pgbench_accounts |       1381859328
 2017-02-04 20:02:35.526504+01 | 1486234955.5265 | pgbench_tellers  |          4235264
 2017-02-04 20:02:35.526504+01 | 1486234955.5265 | pgbench_history  |        437780480
 2017-02-04 20:02:35.526504+01 | 1486234955.5265 | pgbench_branches |          2662400

 2017-02-04 20:02:36.622159+01 | 1486234956.62216 | pgbench_accounts |       1381859328
 2017-02-04 20:02:36.622159+01 | 1486234956.62216 | pgbench_tellers  |          4235264
 2017-02-04 20:02:36.622159+01 | 1486234956.62216 | pgbench_history  |        441016320
 2017-02-04 20:02:36.622159+01 | 1486234956.62216 | pgbench_branches |          2662400

 2017-02-04 20:02:37.714214+01 | 1486234957.71421 | pgbench_accounts |       1381859328
 2017-02-04 20:02:37.714214+01 | 1486234957.71421 | pgbench_tellers  |          4235264
 2017-02-04 20:02:37.714214+01 | 1486234957.71421 | pgbench_history  |        442703872
 2017-02-04 20:02:37.714214+01 | 1486234957.71421 | pgbench_branches |          2662400

 2017-02-04 20:02:38.806058+01 | 1486234958.80606 | pgbench_accounts |       1381859328
 2017-02-04 20:02:38.806058+01 | 1486234958.80606 | pgbench_tellers  |          4235264
 2017-02-04 20:02:38.806058+01 | 1486234958.80606 | pgbench_history  |        445595648
 2017-02-04 20:02:38.806058+01 | 1486234958.80606 | pgbench_branches |          2662400

 2017-02-04 20:02:39.896485+01 | 1486234959.89649 | pgbench_accounts |       1381859328
 2017-02-04 20:02:39.896485+01 | 1486234959.89649 | pgbench_tellers  |          4235264
 2017-02-04 20:02:39.896485+01 | 1486234959.89649 | pgbench_history  |        447979520
 2017-02-04 20:02:39.896485+01 | 1486234959.89649 | pgbench_branches |          2662400

 2017-02-04 20:02:40.993527+01 | 1486234960.99353 | pgbench_accounts |       1381859328
 2017-02-04 20:02:40.993527+01 | 1486234960.99353 | pgbench_tellers  |          4235264
 2017-02-04 20:02:40.993527+01 | 1486234960.99353 | pgbench_history  |        450019328
 2017-02-04 20:02:40.993527+01 | 1486234960.99353 | pgbench_branches |          2662400

 2017-02-04 20:02:42.076872+01 | 1486234962.07687 | pgbench_accounts |       1381859328
 2017-02-04 20:02:42.076872+01 | 1486234962.07687 | pgbench_tellers  |          4235264
 2017-02-04 20:02:42.076872+01 | 1486234962.07687 | pgbench_history  |        452878336
 2017-02-04 20:02:42.076872+01 | 1486234962.07687 | pgbench_branches |          2662400

 2017-02-04 20:02:43.167586+01 | 1486234963.16759 | pgbench_accounts |       1381859328
 2017-02-04 20:02:43.167586+01 | 1486234963.16759 | pgbench_tellers  |          4235264
 2017-02-04 20:02:43.167586+01 | 1486234963.16759 | pgbench_history  |        454631424
 2017-02-04 20:02:43.167586+01 | 1486234963.16759 | pgbench_branches |          2662400

 2017-02-04 20:02:44.254295+01 | 1486234964.2543 | pgbench_accounts |       1381859328
 2017-02-04 20:02:44.254295+01 | 1486234964.2543 | pgbench_tellers  |          4235264
 2017-02-04 20:02:44.254295+01 | 1486234964.2543 | pgbench_history  |        458006528
 2017-02-04 20:02:44.254295+01 | 1486234964.2543 | pgbench_branches |          2662400

 2017-02-04 20:02:45.340682+01 | 1486234965.34068 | pgbench_accounts |       1381859328
 2017-02-04 20:02:45.340682+01 | 1486234965.34068 | pgbench_tellers  |          4235264
 2017-02-04 20:02:45.340682+01 | 1486234965.34068 | pgbench_history  |        459505664
 2017-02-04 20:02:45.340682+01 | 1486234965.34068 | pgbench_branches |          2662400

 2017-02-04 20:02:46.420066+01 | 1486234966.42007 | pgbench_accounts |       1381859328
 2017-02-04 20:02:46.420066+01 | 1486234966.42007 | pgbench_tellers  |          4235264
 2017-02-04 20:02:46.420066+01 | 1486234966.42007 | pgbench_history  |        462200832
 2017-02-04 20:02:46.420066+01 | 1486234966.42007 | pgbench_branches |          2662400

 2017-02-04 20:02:47.504362+01 | 1486234967.50436 | pgbench_accounts |       1381859328
 2017-02-04 20:02:47.504362+01 | 1486234967.50436 | pgbench_tellers  |          4235264
 2017-02-04 20:02:47.504362+01 | 1486234967.50436 | pgbench_history  |        464404480
 2017-02-04 20:02:47.504362+01 | 1486234967.50436 | pgbench_branches |          2662400

 2017-02-04 20:02:48.595633+01 | 1486234968.59563 | pgbench_accounts |       1381859328
 2017-02-04 20:02:48.595633+01 | 1486234968.59563 | pgbench_tellers  |          4235264
 2017-02-04 20:02:48.595633+01 | 1486234968.59563 | pgbench_history  |        466444288
 2017-02-04 20:02:48.595633+01 | 1486234968.59563 | pgbench_branches |          2662400

 2017-02-04 20:02:49.686636+01 | 1486234969.68664 | pgbench_accounts |       1381859328
 2017-02-04 20:02:49.686636+01 | 1486234969.68664 | pgbench_tellers  |          4235264
 2017-02-04 20:02:49.686636+01 | 1486234969.68664 | pgbench_history  |        469483520
 2017-02-04 20:02:49.686636+01 | 1486234969.68664 | pgbench_branches |          2662400

 2017-02-04 20:02:50.774186+01 | 1486234970.77419 | pgbench_accounts |       1381859328
 2017-02-04 20:02:50.774186+01 | 1486234970.77419 | pgbench_tellers  |          4235264
 2017-02-04 20:02:50.774186+01 | 1486234970.77419 | pgbench_history  |        474382336
 2017-02-04 20:02:50.774186+01 | 1486234970.77419 | pgbench_branches |          2662400

 2017-02-04 20:02:51.879635+01 | 1486234971.87964 | pgbench_accounts |       1381859328
 2017-02-04 20:02:51.879635+01 | 1486234971.87964 | pgbench_tellers  |          4235264
 2017-02-04 20:02:51.879635+01 | 1486234971.87964 | pgbench_history  |        474382336
 2017-02-04 20:02:51.879635+01 | 1486234971.87964 | pgbench_branches |          2662400

 2017-02-04 20:02:52.970905+01 | 1486234972.97091 | pgbench_accounts |       1381859328
 2017-02-04 20:02:52.970905+01 | 1486234972.97091 | pgbench_tellers  |          4235264
 2017-02-04 20:02:52.970905+01 | 1486234972.97091 | pgbench_history  |        476102656
 2017-02-04 20:02:52.970905+01 | 1486234972.97091 | pgbench_branches |          2662400

 2017-02-04 20:02:54.069898+01 | 1486234974.0699 | pgbench_accounts |       1381859328
 2017-02-04 20:02:54.069898+01 | 1486234974.0699 | pgbench_tellers  |          4235264
 2017-02-04 20:02:54.069898+01 | 1486234974.0699 | pgbench_history  |        478494720
 2017-02-04 20:02:54.069898+01 | 1486234974.0699 | pgbench_branches |          2662400

 2017-02-04 20:02:55.163458+01 | 1486234975.16346 | pgbench_accounts |       1381859328
 2017-02-04 20:02:55.163458+01 | 1486234975.16346 | pgbench_tellers  |          4235264
 2017-02-04 20:02:55.163458+01 | 1486234975.16346 | pgbench_history  |        481165312
 2017-02-04 20:02:55.163458+01 | 1486234975.16346 | pgbench_branches |          2662400

 2017-02-04 20:02:56.246092+01 | 1486234976.24609 | pgbench_accounts |       1381859328
 2017-02-04 20:02:56.246092+01 | 1486234976.24609 | pgbench_tellers  |          4235264
 2017-02-04 20:02:56.246092+01 | 1486234976.24609 | pgbench_history  |        484515840
 2017-02-04 20:02:56.246092+01 | 1486234976.24609 | pgbench_branches |          2662400

 2017-02-04 20:02:57.330591+01 | 1486234977.33059 | pgbench_accounts |       1381859328
 2017-02-04 20:02:57.330591+01 | 1486234977.33059 | pgbench_tellers  |          4235264
 2017-02-04 20:02:57.330591+01 | 1486234977.33059 | pgbench_history  |        485548032
 2017-02-04 20:02:57.330591+01 | 1486234977.33059 | pgbench_branches |          2662400

 2017-02-04 20:02:58.411071+01 | 1486234978.41107 | pgbench_accounts |       1381859328
 2017-02-04 20:02:58.411071+01 | 1486234978.41107 | pgbench_tellers  |          4235264
 2017-02-04 20:02:58.411071+01 | 1486234978.41107 | pgbench_history  |        488054784
 2017-02-04 20:02:58.411071+01 | 1486234978.41107 | pgbench_branches |          2662400

 2017-02-04 20:02:59.493885+01 | 1486234979.49389 | pgbench_accounts |       1381859328
 2017-02-04 20:02:59.493885+01 | 1486234979.49389 | pgbench_tellers  |          4235264
 2017-02-04 20:02:59.493885+01 | 1486234979.49389 | pgbench_history  |        491216896
 2017-02-04 20:02:59.493885+01 | 1486234979.49389 | pgbench_branches |          2662400

 2017-02-04 20:03:00.5811+01 | 1486234980.5811 | pgbench_accounts |       1381859328
 2017-02-04 20:03:00.5811+01 | 1486234980.5811 | pgbench_tellers  |          4235264
 2017-02-04 20:03:00.5811+01 | 1486234980.5811 | pgbench_history  |        493232128
 2017-02-04 20:03:00.5811+01 | 1486234980.5811 | pgbench_branches |          2662400

 2017-02-04 20:03:01.670676+01 | 1486234981.67068 | pgbench_accounts |       1381859328
 2017-02-04 20:03:01.670676+01 | 1486234981.67068 | pgbench_tellers  |          4235264
 2017-02-04 20:03:01.670676+01 | 1486234981.67068 | pgbench_history  |        497377280
 2017-02-04 20:03:01.670676+01 | 1486234981.67068 | pgbench_branches |          2662400

 2017-02-04 20:03:02.760784+01 | 1486234982.76078 | pgbench_accounts |       1381859328
 2017-02-04 20:03:02.760784+01 | 1486234982.76078 | pgbench_tellers  |          4235264
 2017-02-04 20:03:02.760784+01 | 1486234982.76078 | pgbench_history  |        497377280
 2017-02-04 20:03:02.760784+01 | 1486234982.76078 | pgbench_branches |          2662400

 2017-02-04 20:03:03.85978+01 | 1486234983.85978 | pgbench_accounts |       1381859328
 2017-02-04 20:03:03.85978+01 | 1486234983.85978 | pgbench_tellers  |          4235264
 2017-02-04 20:03:03.85978+01 | 1486234983.85978 | pgbench_history  |        499908608
 2017-02-04 20:03:03.85978+01 | 1486234983.85978 | pgbench_branches |          2662400

 2017-02-04 20:03:04.952449+01 | 1486234984.95245 | pgbench_accounts |       1381859328
 2017-02-04 20:03:04.952449+01 | 1486234984.95245 | pgbench_tellers  |          4235264
 2017-02-04 20:03:04.952449+01 | 1486234984.95245 | pgbench_history  |        502276096
 2017-02-04 20:03:04.952449+01 | 1486234984.95245 | pgbench_branches |          2662400

 2017-02-04 20:03:06.04287+01 | 1486234986.04287 | pgbench_accounts |       1381859328
 2017-02-04 20:03:06.04287+01 | 1486234986.04287 | pgbench_tellers  |          4235264
 2017-02-04 20:03:06.04287+01 | 1486234986.04287 | pgbench_history  |        504127488
 2017-02-04 20:03:06.04287+01 | 1486234986.04287 | pgbench_branches |          2662400

 2017-02-04 20:03:07.133721+01 | 1486234987.13372 | pgbench_accounts |       1381859328
 2017-02-04 20:03:07.133721+01 | 1486234987.13372 | pgbench_tellers  |          4235264
 2017-02-04 20:03:07.133721+01 | 1486234987.13372 | pgbench_history  |        507125760
 2017-02-04 20:03:07.133721+01 | 1486234987.13372 | pgbench_branches |          2662400

 2017-02-04 20:03:08.221935+01 | 1486234988.22194 | pgbench_accounts |       1381859328
 2017-02-04 20:03:08.221935+01 | 1486234988.22194 | pgbench_tellers  |          4235264
 2017-02-04 20:03:08.221935+01 | 1486234988.22194 | pgbench_history  |        509190144
 2017-02-04 20:03:08.221935+01 | 1486234988.22194 | pgbench_branches |          2662400

 2017-02-04 20:03:09.303671+01 | 1486234989.30367 | pgbench_accounts |       1381859328
 2017-02-04 20:03:09.303671+01 | 1486234989.30367 | pgbench_tellers  |          4235264
 2017-02-04 20:03:09.303671+01 | 1486234989.30367 | pgbench_history  |        513171456
 2017-02-04 20:03:09.303671+01 | 1486234989.30367 | pgbench_branches |          2662400

 2017-02-04 20:03:10.378724+01 | 1486234990.37872 | pgbench_accounts |       1381859328
 2017-02-04 20:03:10.378724+01 | 1486234990.37872 | pgbench_tellers  |          4235264
 2017-02-04 20:03:10.378724+01 | 1486234990.37872 | pgbench_history  |        515489792
 2017-02-04 20:03:10.378724+01 | 1486234990.37872 | pgbench_branches |          2662400

 2017-02-04 20:03:11.465318+01 | 1486234991.46532 | pgbench_accounts |       1381859328
 2017-02-04 20:03:11.465318+01 | 1486234991.46532 | pgbench_tellers  |          4235264
 2017-02-04 20:03:11.465318+01 | 1486234991.46532 | pgbench_history  |        516005888
 2017-02-04 20:03:11.465318+01 | 1486234991.46532 | pgbench_branches |          2662400

 2017-02-04 20:03:12.555681+01 | 1486234992.55568 | pgbench_accounts |       1381859328
 2017-02-04 20:03:12.555681+01 | 1486234992.55568 | pgbench_tellers  |          4235264
 2017-02-04 20:03:12.555681+01 | 1486234992.55568 | pgbench_history  |        518725632
 2017-02-04 20:03:12.555681+01 | 1486234992.55568 | pgbench_branches |          2662400

 2017-02-04 20:03:13.647122+01 | 1486234993.64712 | pgbench_accounts |       1381859328
 2017-02-04 20:03:13.647122+01 | 1486234993.64712 | pgbench_tellers  |          4235264
 2017-02-04 20:03:13.647122+01 | 1486234993.64712 | pgbench_history  |        521093120
 2017-02-04 20:03:13.647122+01 | 1486234993.64712 | pgbench_branches |          2662400

 2017-02-04 20:03:14.738542+01 | 1486234994.73854 | pgbench_accounts |       1381859328
 2017-02-04 20:03:14.738542+01 | 1486234994.73854 | pgbench_tellers  |          4235264
 2017-02-04 20:03:14.738542+01 | 1486234994.73854 | pgbench_history  |        524554240
 2017-02-04 20:03:14.738542+01 | 1486234994.73854 | pgbench_branches |          2662400

 2017-02-04 20:03:15.827443+01 | 1486234995.82744 | pgbench_accounts |       1381859328
 2017-02-04 20:03:15.827443+01 | 1486234995.82744 | pgbench_tellers  |          4235264
 2017-02-04 20:03:15.827443+01 | 1486234995.82744 | pgbench_history  |        525615104
 2017-02-04 20:03:15.827443+01 | 1486234995.82744 | pgbench_branches |          2662400

 2017-02-04 20:03:16.92438+01 | 1486234996.92438 | pgbench_accounts |       1381859328
 2017-02-04 20:03:16.92438+01 | 1486234996.92438 | pgbench_tellers  |          4235264
 2017-02-04 20:03:16.92438+01 | 1486234996.92438 | pgbench_history  |        528121856
 2017-02-04 20:03:16.92438+01 | 1486234996.92438 | pgbench_branches |          2662400

 2017-02-04 20:03:18.003219+01 | 1486234998.00322 | pgbench_accounts |       1381859328
 2017-02-04 20:03:18.003219+01 | 1486234998.00322 | pgbench_tellers  |          4235264
 2017-02-04 20:03:18.003219+01 | 1486234998.00322 | pgbench_history  |        530702336
 2017-02-04 20:03:18.003219+01 | 1486234998.00322 | pgbench_branches |          2662400

 2017-02-04 20:03:19.097568+01 | 1486234999.09757 | pgbench_accounts |       1381859328
 2017-02-04 20:03:19.097568+01 | 1486234999.09757 | pgbench_tellers  |          4235264
 2017-02-04 20:03:19.097568+01 | 1486234999.09757 | pgbench_history  |        533536768
 2017-02-04 20:03:19.097568+01 | 1486234999.09757 | pgbench_branches |          2662400

 2017-02-04 20:03:20.195079+01 | 1486235000.19508 | pgbench_accounts |       1381859328
 2017-02-04 20:03:20.195079+01 | 1486235000.19508 | pgbench_tellers  |          4235264
 2017-02-04 20:03:20.195079+01 | 1486235000.19508 | pgbench_history  |        535060480
 2017-02-04 20:03:20.195079+01 | 1486235000.19508 | pgbench_branches |          2662400

 2017-02-04 20:03:21.278602+01 | 1486235001.2786 | pgbench_accounts |       1381859328
 2017-02-04 20:03:21.278602+01 | 1486235001.2786 | pgbench_tellers  |          4235264
 2017-02-04 20:03:21.278602+01 | 1486235001.2786 | pgbench_history  |        538263552
 2017-02-04 20:03:21.278602+01 | 1486235001.2786 | pgbench_branches |          2662400

 2017-02-04 20:03:22.361758+01 | 1486235002.36176 | pgbench_accounts |       1381859328
 2017-02-04 20:03:22.361758+01 | 1486235002.36176 | pgbench_tellers  |          4235264
 2017-02-04 20:03:22.361758+01 | 1486235002.36176 | pgbench_history  |        539762688
 2017-02-04 20:03:22.361758+01 | 1486235002.36176 | pgbench_branches |          2662400

 2017-02-04 20:03:23.446145+01 | 1486235003.44615 | pgbench_accounts |       1381859328
 2017-02-04 20:03:23.446145+01 | 1486235003.44615 | pgbench_tellers  |          4235264
 2017-02-04 20:03:23.446145+01 | 1486235003.44615 | pgbench_history  |        542924800
 2017-02-04 20:03:23.446145+01 | 1486235003.44615 | pgbench_branches |          2662400

 2017-02-04 20:03:24.520106+01 | 1486235004.52011 | pgbench_accounts |       1381859328
 2017-02-04 20:03:24.520106+01 | 1486235004.52011 | pgbench_tellers  |          4235264
 2017-02-04 20:03:24.520106+01 | 1486235004.52011 | pgbench_history  |        545595392
 2017-02-04 20:03:24.520106+01 | 1486235004.52011 | pgbench_branches |          2662400

 2017-02-04 20:03:25.608898+01 | 1486235005.6089 | pgbench_accounts |       1381859328
 2017-02-04 20:03:25.608898+01 | 1486235005.6089 | pgbench_tellers  |          4235264
 2017-02-04 20:03:25.608898+01 | 1486235005.6089 | pgbench_history  |        546275328
 2017-02-04 20:03:25.608898+01 | 1486235005.6089 | pgbench_branches |          2662400

 2017-02-04 20:03:26.686302+01 | 1486235006.6863 | pgbench_accounts |       1381859328
 2017-02-04 20:03:26.686302+01 | 1486235006.6863 | pgbench_tellers  |          4235264
 2017-02-04 20:03:26.686302+01 | 1486235006.6863 | pgbench_history  |        549322752
 2017-02-04 20:03:26.686302+01 | 1486235006.6863 | pgbench_branches |          2662400

 2017-02-04 20:03:27.77288+01 | 1486235007.77288 | pgbench_accounts |       1381859328
 2017-02-04 20:03:27.77288+01 | 1486235007.77288 | pgbench_tellers  |          4235264
 2017-02-04 20:03:27.77288+01 | 1486235007.77288 | pgbench_history  |        550846464
 2017-02-04 20:03:27.77288+01 | 1486235007.77288 | pgbench_branches |          2662400

 2017-02-04 20:03:28.861097+01 | 1486235008.8611 | pgbench_accounts |       1381859328
 2017-02-04 20:03:28.861097+01 | 1486235008.8611 | pgbench_tellers  |          4235264
 2017-02-04 20:03:28.861097+01 | 1486235008.8611 | pgbench_history  |        554827776
 2017-02-04 20:03:28.861097+01 | 1486235008.8611 | pgbench_branches |          2662400

 2017-02-04 20:03:29.949674+01 | 1486235009.94967 | pgbench_accounts |       1381859328
 2017-02-04 20:03:29.949674+01 | 1486235009.94967 | pgbench_tellers  |          4235264
 2017-02-04 20:03:29.949674+01 | 1486235009.94967 | pgbench_history  |        556867584
 2017-02-04 20:03:29.949674+01 | 1486235009.94967 | pgbench_branches |          2662400

 2017-02-04 20:03:31.035809+01 | 1486235011.03581 | pgbench_accounts |       1381859328
 2017-02-04 20:03:31.035809+01 | 1486235011.03581 | pgbench_tellers  |          4235264
 2017-02-04 20:03:31.035809+01 | 1486235011.03581 | pgbench_history  |        558718976
 2017-02-04 20:03:31.035809+01 | 1486235011.03581 | pgbench_branches |          2662400

 2017-02-04 20:03:32.123683+01 | 1486235012.12368 | pgbench_accounts |       1381859328
 2017-02-04 20:03:32.123683+01 | 1486235012.12368 | pgbench_tellers  |          4235264
 2017-02-04 20:03:32.123683+01 | 1486235012.12368 | pgbench_history  |        560947200
 2017-02-04 20:03:32.123683+01 | 1486235012.12368 | pgbench_branches |          2662400

 2017-02-04 20:03:33.211172+01 | 1486235013.21117 | pgbench_accounts |       1381859328
 2017-02-04 20:03:33.211172+01 | 1486235013.21117 | pgbench_tellers  |          4235264
 2017-02-04 20:03:33.211172+01 | 1486235013.21117 | pgbench_history  |        563757056
 2017-02-04 20:03:33.211172+01 | 1486235013.21117 | pgbench_branches |          2662400

 2017-02-04 20:03:34.288178+01 | 1486235014.28818 | pgbench_accounts |       1381859328
 2017-02-04 20:03:34.288178+01 | 1486235014.28818 | pgbench_tellers  |          4235264
 2017-02-04 20:03:34.288178+01 | 1486235014.28818 | pgbench_history  |        566165504
 2017-02-04 20:03:34.288178+01 | 1486235014.28818 | pgbench_branches |          2662400

 2017-02-04 20:03:35.370805+01 | 1486235015.37081 | pgbench_accounts |       1381859328
 2017-02-04 20:03:35.370805+01 | 1486235015.37081 | pgbench_tellers  |          4235264
 2017-02-04 20:03:35.370805+01 | 1486235015.37081 | pgbench_history  |        568377344
 2017-02-04 20:03:35.370805+01 | 1486235015.37081 | pgbench_branches |          2662400

 2017-02-04 20:03:36.449493+01 | 1486235016.44949 | pgbench_accounts |       1381859328
 2017-02-04 20:03:36.449493+01 | 1486235016.44949 | pgbench_tellers  |          4235264
 2017-02-04 20:03:36.449493+01 | 1486235016.44949 | pgbench_history  |        570613760
 2017-02-04 20:03:36.449493+01 | 1486235016.44949 | pgbench_branches |          2662400

 2017-02-04 20:03:37.528983+01 | 1486235017.52898 | pgbench_accounts |       1381859328
 2017-02-04 20:03:37.528983+01 | 1486235017.52898 | pgbench_tellers  |          4235264
 2017-02-04 20:03:37.528983+01 | 1486235017.52898 | pgbench_history  |        572653568
 2017-02-04 20:03:37.528983+01 | 1486235017.52898 | pgbench_branches |          2662400

 2017-02-04 20:03:38.607823+01 | 1486235018.60782 | pgbench_accounts |       1381859328
 2017-02-04 20:03:38.607823+01 | 1486235018.60782 | pgbench_tellers  |          4235264
 2017-02-04 20:03:38.607823+01 | 1486235018.60782 | pgbench_history  |        576667648
 2017-02-04 20:03:38.607823+01 | 1486235018.60782 | pgbench_branches |          2662400

 2017-02-04 20:03:39.699518+01 | 1486235019.69952 | pgbench_accounts |       1381859328
 2017-02-04 20:03:39.699518+01 | 1486235019.69952 | pgbench_tellers  |          4235264
 2017-02-04 20:03:39.699518+01 | 1486235019.69952 | pgbench_history  |        578002944
 2017-02-04 20:03:39.699518+01 | 1486235019.69952 | pgbench_branches |          2662400

 2017-02-04 20:03:40.789273+01 | 1486235020.78927 | pgbench_accounts |       1381859328
 2017-02-04 20:03:40.789273+01 | 1486235020.78927 | pgbench_tellers  |          4235264
 2017-02-04 20:03:40.789273+01 | 1486235020.78927 | pgbench_history  |        579854336
 2017-02-04 20:03:40.789273+01 | 1486235020.78927 | pgbench_branches |          2662400

 2017-02-04 20:03:41.888124+01 | 1486235021.88812 | pgbench_accounts |       1381859328
 2017-02-04 20:03:41.888124+01 | 1486235021.88812 | pgbench_tellers  |          4235264
 2017-02-04 20:03:41.888124+01 | 1486235021.88812 | pgbench_history  |        582746112
 2017-02-04 20:03:41.888124+01 | 1486235021.88812 | pgbench_branches |          2662400

 2017-02-04 20:03:42.98259+01 | 1486235022.98259 | pgbench_accounts |       1381859328
 2017-02-04 20:03:42.98259+01 | 1486235022.98259 | pgbench_tellers  |          4235264
 2017-02-04 20:03:42.98259+01 | 1486235022.98259 | pgbench_history  |        584654848
 2017-02-04 20:03:42.98259+01 | 1486235022.98259 | pgbench_branches |          2662400

 2017-02-04 20:03:44.077191+01 | 1486235024.07719 | pgbench_accounts |       1381859328
 2017-02-04 20:03:44.077191+01 | 1486235024.07719 | pgbench_tellers  |          4235264
 2017-02-04 20:03:44.077191+01 | 1486235024.07719 | pgbench_history  |        586883072
 2017-02-04 20:03:44.077191+01 | 1486235024.07719 | pgbench_branches |          2662400

 2017-02-04 20:03:45.163563+01 | 1486235025.16356 | pgbench_accounts |       1381859328
 2017-02-04 20:03:45.163563+01 | 1486235025.16356 | pgbench_tellers  |          4235264
 2017-02-04 20:03:45.163563+01 | 1486235025.16356 | pgbench_history  |        590446592
 2017-02-04 20:03:45.163563+01 | 1486235025.16356 | pgbench_branches |          2662400

 2017-02-04 20:03:46.255338+01 | 1486235026.25534 | pgbench_accounts |       1381859328
 2017-02-04 20:03:46.255338+01 | 1486235026.25534 | pgbench_tellers  |          4235264
 2017-02-04 20:03:46.255338+01 | 1486235026.25534 | pgbench_history  |        592297984
 2017-02-04 20:03:46.255338+01 | 1486235026.25534 | pgbench_branches |          2662400

 2017-02-04 20:03:47.338363+01 | 1486235027.33836 | pgbench_accounts |       1381859328
 2017-02-04 20:03:47.338363+01 | 1486235027.33836 | pgbench_tellers  |          4235264
 2017-02-04 20:03:47.338363+01 | 1486235027.33836 | pgbench_history  |        594493440
 2017-02-04 20:03:47.338363+01 | 1486235027.33836 | pgbench_branches |          2662400

 2017-02-04 20:03:48.420212+01 | 1486235028.42021 | pgbench_accounts |       1381859328
 2017-02-04 20:03:48.420212+01 | 1486235028.42021 | pgbench_tellers  |          4235264
 2017-02-04 20:03:48.420212+01 | 1486235028.42021 | pgbench_history  |        596672512
 2017-02-04 20:03:48.420212+01 | 1486235028.42021 | pgbench_branches |          2662400

 2017-02-04 20:03:49.508717+01 | 1486235029.50872 | pgbench_accounts |       1381859328
 2017-02-04 20:03:49.508717+01 | 1486235029.50872 | pgbench_tellers  |          4235264
 2017-02-04 20:03:49.508717+01 | 1486235029.50872 | pgbench_history  |        600514560
 2017-02-04 20:03:49.508717+01 | 1486235029.50872 | pgbench_branches |          2662400

 2017-02-04 20:03:50.593493+01 | 1486235030.59349 | pgbench_accounts |       1381859328
 2017-02-04 20:03:50.593493+01 | 1486235030.59349 | pgbench_tellers  |          4235264
 2017-02-04 20:03:50.593493+01 | 1486235030.59349 | pgbench_history  |        601546752
 2017-02-04 20:03:50.593493+01 | 1486235030.59349 | pgbench_branches |          2662400

 2017-02-04 20:03:51.671256+01 | 1486235031.67126 | pgbench_accounts |       1381859328
 2017-02-04 20:03:51.671256+01 | 1486235031.67126 | pgbench_tellers  |          4235264
 2017-02-04 20:03:51.671256+01 | 1486235031.67126 | pgbench_history  |        603750400
 2017-02-04 20:03:51.671256+01 | 1486235031.67126 | pgbench_branches |          2662400

 2017-02-04 20:03:52.763994+01 | 1486235032.76399 | pgbench_accounts |       1381859328
 2017-02-04 20:03:52.763994+01 | 1486235032.76399 | pgbench_tellers  |          4235264
 2017-02-04 20:03:52.763994+01 | 1486235032.76399 | pgbench_history  |        606117888
 2017-02-04 20:03:52.763994+01 | 1486235032.76399 | pgbench_branches |          2662400

 2017-02-04 20:03:53.847168+01 | 1486235033.84717 | pgbench_accounts |       1381859328
 2017-02-04 20:03:53.847168+01 | 1486235033.84717 | pgbench_tellers  |          4235264
 2017-02-04 20:03:53.847168+01 | 1486235033.84717 | pgbench_history  |        608346112
 2017-02-04 20:03:53.847168+01 | 1486235033.84717 | pgbench_branches |          2662400

 2017-02-04 20:03:54.930201+01 | 1486235034.9302 | pgbench_accounts |       1381859328
 2017-02-04 20:03:54.930201+01 | 1486235034.9302 | pgbench_tellers  |          4235264
 2017-02-04 20:03:54.930201+01 | 1486235034.9302 | pgbench_history  |        610852864
 2017-02-04 20:03:54.930201+01 | 1486235034.9302 | pgbench_branches |          2662400

 2017-02-04 20:03:56.024075+01 | 1486235036.02408 | pgbench_accounts |       1381859328
 2017-02-04 20:03:56.024075+01 | 1486235036.02408 | pgbench_tellers  |          4235264
 2017-02-04 20:03:56.024075+01 | 1486235036.02408 | pgbench_history  |        613720064
 2017-02-04 20:03:56.024075+01 | 1486235036.02408 | pgbench_branches |          2662400

 2017-02-04 20:03:57.108894+01 | 1486235037.10889 | pgbench_accounts |       1381859328
 2017-02-04 20:03:57.108894+01 | 1486235037.10889 | pgbench_tellers  |          4235264
 2017-02-04 20:03:57.108894+01 | 1486235037.10889 | pgbench_history  |        615735296
 2017-02-04 20:03:57.108894+01 | 1486235037.10889 | pgbench_branches |          2662400

 2017-02-04 20:03:58.197557+01 | 1486235038.19756 | pgbench_accounts |       1381859328
 2017-02-04 20:03:58.197557+01 | 1486235038.19756 | pgbench_tellers  |          4235264
 2017-02-04 20:03:58.197557+01 | 1486235038.19756 | pgbench_history  |        618078208
 2017-02-04 20:03:58.197557+01 | 1486235038.19756 | pgbench_branches |          2662400

 2017-02-04 20:03:59.28534+01 | 1486235039.28534 | pgbench_accounts |       1381859328
 2017-02-04 20:03:59.28534+01 | 1486235039.28534 | pgbench_tellers  |          4235264
 2017-02-04 20:03:59.28534+01 | 1486235039.28534 | pgbench_history  |        620855296
 2017-02-04 20:03:59.28534+01 | 1486235039.28534 | pgbench_branches |          2662400

 2017-02-04 20:04:00.362645+01 | 1486235040.36264 | pgbench_accounts |       1381859328
 2017-02-04 20:04:00.362645+01 | 1486235040.36264 | pgbench_tellers  |          4235264
 2017-02-04 20:04:00.362645+01 | 1486235040.36264 | pgbench_history  |        624558080
 2017-02-04 20:04:00.362645+01 | 1486235040.36264 | pgbench_branches |          2662400

 2017-02-04 20:04:01.441477+01 | 1486235041.44148 | pgbench_accounts |       1381859328
 2017-02-04 20:04:01.441477+01 | 1486235041.44148 | pgbench_tellers  |          4235264
 2017-02-04 20:04:01.441477+01 | 1486235041.44148 | pgbench_history  |        625565696
 2017-02-04 20:04:01.441477+01 | 1486235041.44148 | pgbench_branches |          2662400

 2017-02-04 20:04:02.522505+01 | 1486235042.52251 | pgbench_accounts |       1381859328
 2017-02-04 20:04:02.522505+01 | 1486235042.52251 | pgbench_tellers  |          4235264
 2017-02-04 20:04:02.522505+01 | 1486235042.52251 | pgbench_history  |        628121600
 2017-02-04 20:04:02.522505+01 | 1486235042.52251 | pgbench_branches |          2662400

 2017-02-04 20:04:03.60144+01 | 1486235043.60144 | pgbench_accounts |       1381859328
 2017-02-04 20:04:03.60144+01 | 1486235043.60144 | pgbench_tellers  |          4235264
 2017-02-04 20:04:03.60144+01 | 1486235043.60144 | pgbench_history  |        630136832
 2017-02-04 20:04:03.60144+01 | 1486235043.60144 | pgbench_branches |          2662400

 2017-02-04 20:04:04.676704+01 | 1486235044.6767 | pgbench_accounts |       1381859328
 2017-02-04 20:04:04.676704+01 | 1486235044.6767 | pgbench_tellers  |          4235264
 2017-02-04 20:04:04.676704+01 | 1486235044.6767 | pgbench_history  |        632643584
 2017-02-04 20:04:04.676704+01 | 1486235044.6767 | pgbench_branches |          2662400

 2017-02-04 20:04:05.765354+01 | 1486235045.76535 | pgbench_accounts |       1381859328
 2017-02-04 20:04:05.765354+01 | 1486235045.76535 | pgbench_tellers  |          4235264
 2017-02-04 20:04:05.765354+01 | 1486235045.76535 | pgbench_history  |        638099456
 2017-02-04 20:04:05.765354+01 | 1486235045.76535 | pgbench_branches |          2662400

 2017-02-04 20:04:06.8568+01 | 1486235046.8568 | pgbench_accounts |       1381859328
 2017-02-04 20:04:06.8568+01 | 1486235046.8568 | pgbench_tellers  |          4235264
 2017-02-04 20:04:06.8568+01 | 1486235046.8568 | pgbench_history  |        638099456
 2017-02-04 20:04:06.8568+01 | 1486235046.8568 | pgbench_branches |          2662400

 2017-02-04 20:04:07.938181+01 | 1486235047.93818 | pgbench_accounts |       1381859328
 2017-02-04 20:04:07.938181+01 | 1486235047.93818 | pgbench_tellers  |          4235264
 2017-02-04 20:04:07.938181+01 | 1486235047.93818 | pgbench_history  |        639483904
 2017-02-04 20:04:07.938181+01 | 1486235047.93818 | pgbench_branches |          2662400

 2017-02-04 20:04:09.024422+01 | 1486235049.02442 | pgbench_accounts |       1381859328
 2017-02-04 20:04:09.024422+01 | 1486235049.02442 | pgbench_tellers  |          4235264
 2017-02-04 20:04:09.024422+01 | 1486235049.02442 | pgbench_history  |        641908736
 2017-02-04 20:04:09.024422+01 | 1486235049.02442 | pgbench_branches |          2662400

 2017-02-04 20:04:10.121633+01 | 1486235050.12163 | pgbench_accounts |       1381859328
 2017-02-04 20:04:10.121633+01 | 1486235050.12163 | pgbench_tellers  |          4235264
 2017-02-04 20:04:10.121633+01 | 1486235050.12163 | pgbench_history  |        646406144
 2017-02-04 20:04:10.121633+01 | 1486235050.12163 | pgbench_branches |          2662400

 2017-02-04 20:04:11.214684+01 | 1486235051.21468 | pgbench_accounts |       1381859328
 2017-02-04 20:04:11.214684+01 | 1486235051.21468 | pgbench_tellers  |          4235264
 2017-02-04 20:04:11.214684+01 | 1486235051.21468 | pgbench_history  |        647577600
 2017-02-04 20:04:11.214684+01 | 1486235051.21468 | pgbench_branches |          2662400

 2017-02-04 20:04:12.301403+01 | 1486235052.3014 | pgbench_accounts |       1381859328
 2017-02-04 20:04:12.301403+01 | 1486235052.3014 | pgbench_tellers  |          4235264
 2017-02-04 20:04:12.301403+01 | 1486235052.3014 | pgbench_history  |        649101312
 2017-02-04 20:04:12.301403+01 | 1486235052.3014 | pgbench_branches |          2662400

