 2017-02-04 08:24:25.724935+01 | 1486193065.72494 |                 0 |              28 |                447523 |                 7565 |           23609660 |       3944517 |            38789 |       105264048 |                     0 |     107990103 | 2017-02-04 05:57:18.141517+01

 2017-02-04 08:24:26.80621+01 | 1486193066.80621 |                 0 |              28 |                447523 |                 7565 |           23609660 |       3944517 |            38789 |       105264048 |                     0 |     107999847 | 2017-02-04 05:57:18.141517+01

 2017-02-04 08:24:27.888712+01 | 1486193067.88871 |                 0 |              28 |                447523 |                 7565 |           23609660 |       3944517 |            38789 |       105264048 |                     0 |     108011067 | 2017-02-04 05:57:18.141517+01

 2017-02-04 08:24:28.969955+01 | 1486193068.96995 |                 0 |              28 |                447523 |                 7565 |           23609660 |       3944517 |            38789 |       105264048 |                     0 |     108024450 | 2017-02-04 05:57:18.141517+01

 2017-02-04 08:24:30.048182+01 | 1486193070.04818 |                 0 |              28 |                447523 |                 7565 |           23609660 |       3944517 |            38789 |       105264048 |                     0 |     108035974 | 2017-02-04 05:57:18.141517+01

 2017-02-04 08:24:31.129366+01 | 1486193071.12937 |                 0 |              28 |                447523 |                 7565 |           23609660 |       3944517 |            38789 |       105264048 |                     0 |     108049256 | 2017-02-04 05:57:18.141517+01

 2017-02-04 08:24:32.206284+01 | 1486193072.20628 |                 0 |              28 |                447523 |                 7565 |           23609660 |       3944517 |            38789 |       105264048 |                     0 |     108061416 | 2017-02-04 05:57:18.141517+01

 2017-02-04 08:24:33.285254+01 | 1486193073.28525 |                 0 |              28 |                447523 |                 7565 |           23609660 |       3944517 |            38789 |       105264048 |                     0 |     108073087 | 2017-02-04 05:57:18.141517+01

 2017-02-04 08:24:34.365246+01 | 1486193074.36525 |                 0 |              28 |                447523 |                 7565 |           23609660 |       3944517 |            38789 |       105264048 |                     0 |     108086906 | 2017-02-04 05:57:18.141517+01

 2017-02-04 08:24:35.443614+01 | 1486193075.44361 |                 0 |              28 |                447523 |                 7565 |           23609660 |       3944517 |            38789 |       105264048 |                     0 |     108098877 | 2017-02-04 05:57:18.141517+01

 2017-02-04 08:24:36.528048+01 | 1486193076.52805 |                 0 |              28 |                447523 |                 7565 |           23609660 |       3944517 |            38789 |       105264048 |                     0 |     108110577 | 2017-02-04 05:57:18.141517+01

 2017-02-04 08:24:37.60773+01 | 1486193077.60773 |                 0 |              28 |                447523 |                 7565 |           23609660 |       3944517 |            38789 |       105264048 |                     0 |     108124450 | 2017-02-04 05:57:18.141517+01

 2017-02-04 08:24:38.696711+01 | 1486193078.69671 |                 0 |              28 |                447523 |                 7565 |           23609660 |       3944517 |            38789 |       105264048 |                     0 |     108135716 | 2017-02-04 05:57:18.141517+01

 2017-02-04 08:24:39.780177+01 | 1486193079.78018 |                 0 |              28 |                447523 |                 7565 |           23609660 |       3944574 |            38789 |       105264048 |                     0 |     108148994 | 2017-02-04 05:57:18.141517+01

 2017-02-04 08:24:40.857975+01 | 1486193080.85798 |                 0 |              28 |                447523 |                 7565 |           23609660 |       3944640 |            38789 |       105264048 |                     0 |     108159214 | 2017-02-04 05:57:18.141517+01

 2017-02-04 08:24:41.938753+01 | 1486193081.93875 |                 0 |              28 |                447523 |                 7565 |           23609660 |       3944689 |            38789 |       105264048 |                     0 |     108169939 | 2017-02-04 05:57:18.141517+01

 2017-02-04 08:24:43.010492+01 | 1486193083.01049 |                 0 |              28 |                447523 |                 7565 |           23609660 |       3944757 |            38789 |       105264048 |                     0 |     108183651 | 2017-02-04 05:57:18.141517+01

 2017-02-04 08:24:44.103537+01 | 1486193084.10354 |                 0 |              28 |                447523 |                 7565 |           23609660 |       3944809 |            38789 |       105264048 |                     0 |     108194055 | 2017-02-04 05:57:18.141517+01

 2017-02-04 08:24:45.180179+01 | 1486193085.18018 |                 0 |              28 |                447523 |                 7565 |           23609660 |       3944888 |            38789 |       105264048 |                     0 |     108208359 | 2017-02-04 05:57:18.141517+01

 2017-02-04 08:24:46.259072+01 | 1486193086.25907 |                 0 |              28 |                447523 |                 7565 |           23609660 |       3944984 |            38789 |       105264048 |                     0 |     108220590 | 2017-02-04 05:57:18.141517+01

 2017-02-04 08:24:47.337047+01 | 1486193087.33705 |                 0 |              28 |                447523 |                 7565 |           23609660 |       3945072 |            38789 |       105264048 |                     0 |     108230590 | 2017-02-04 05:57:18.141517+01

 2017-02-04 08:24:48.420399+01 | 1486193088.4204 |                 0 |              28 |                447523 |                 7565 |           23609660 |       3945226 |            38789 |       105264048 |                     0 |     108244447 | 2017-02-04 05:57:18.141517+01

 2017-02-04 08:24:49.503941+01 | 1486193089.50394 |                 0 |              28 |                447523 |                 7565 |           23609660 |       3945351 |            38789 |       105264048 |                     0 |     108256192 | 2017-02-04 05:57:18.141517+01

 2017-02-04 08:24:50.584609+01 | 1486193090.58461 |                 0 |              28 |                447523 |                 7565 |           23609660 |       3945487 |            38789 |       105264048 |                     0 |     108267970 | 2017-02-04 05:57:18.141517+01

 2017-02-04 08:24:51.659586+01 | 1486193091.65959 |                 0 |              28 |                447523 |                 7565 |           23609660 |       3945657 |            38789 |       105264048 |                     0 |     108282343 | 2017-02-04 05:57:18.141517+01

 2017-02-04 08:24:52.723946+01 | 1486193092.72395 |                 0 |              28 |                447523 |                 7565 |           23609660 |       3945765 |            38789 |       105264048 |                     0 |     108289389 | 2017-02-04 05:57:18.141517+01

 2017-02-04 08:24:53.799637+01 | 1486193093.79964 |                 0 |              28 |                447523 |                 7565 |           23609660 |       3946045 |            38789 |       105264048 |                     0 |     108305764 | 2017-02-04 05:57:18.141517+01

 2017-02-04 08:24:54.87923+01 | 1486193094.87923 |                 0 |              28 |                447523 |                 7565 |           23609660 |       3946282 |            38789 |       105264048 |                     0 |     108320009 | 2017-02-04 05:57:18.141517+01

 2017-02-04 08:24:55.960779+01 | 1486193095.96078 |                 0 |              28 |                447523 |                 7565 |           23609660 |       3946720 |            38793 |       105264048 |                     0 |     108331721 | 2017-02-04 05:57:18.141517+01

 2017-02-04 08:24:57.044251+01 | 1486193097.04425 |                 0 |              28 |                447523 |                 7565 |           23609660 |       3947220 |            38798 |       105264048 |                     0 |     108342128 | 2017-02-04 05:57:18.141517+01

 2017-02-04 08:24:58.120651+01 | 1486193098.12065 |                 0 |              28 |                447523 |                 7565 |           23609660 |       3947820 |            38804 |       105264048 |                     0 |     108355774 | 2017-02-04 05:57:18.141517+01

 2017-02-04 08:24:59.201642+01 | 1486193099.20164 |                 0 |              28 |                447523 |                 7565 |           23609660 |       3948320 |            38809 |       105264048 |                     0 |     108367822 | 2017-02-04 05:57:18.141517+01

 2017-02-04 08:25:00.27818+01 | 1486193100.27818 |                 0 |              28 |                447523 |                 7565 |           23609660 |       3948820 |            38814 |       105264048 |                     0 |     108380286 | 2017-02-04 05:57:18.141517+01

 2017-02-04 08:25:01.354246+01 | 1486193101.35425 |                 0 |              28 |                447523 |                 7565 |           23609660 |       3949420 |            38820 |       105264048 |                     0 |     108395283 | 2017-02-04 05:57:18.141517+01

 2017-02-04 08:25:02.427395+01 | 1486193102.4274 |                 0 |              28 |                447523 |                 7565 |           23609660 |       3949920 |            38825 |       105264048 |                     0 |     108406549 | 2017-02-04 05:57:18.141517+01

 2017-02-04 08:25:03.515567+01 | 1486193103.51557 |                 0 |              28 |                447523 |                 7565 |           23609660 |       3950420 |            38830 |       105264048 |                     0 |     108418382 | 2017-02-04 05:57:18.141517+01

 2017-02-04 08:25:04.592713+01 | 1486193104.59271 |                 0 |              28 |                447523 |                 7565 |           23609660 |       3951020 |            38836 |       105264048 |                     0 |     108433258 | 2017-02-04 05:57:18.141517+01

 2017-02-04 08:25:05.671307+01 | 1486193105.67131 |                 0 |              28 |                447523 |                 7565 |           23609660 |       3951520 |            38841 |       105264048 |                     0 |     108445348 | 2017-02-04 05:57:18.141517+01

 2017-02-04 08:25:06.742334+01 | 1486193106.74233 |                 0 |              28 |                447523 |                 7565 |           23609660 |       3952020 |            38846 |       105264048 |                     0 |     108456710 | 2017-02-04 05:57:18.141517+01

 2017-02-04 08:25:07.812957+01 | 1486193107.81296 |                 0 |              28 |                447523 |                 7565 |           23609660 |       3952620 |            38852 |       105264048 |                     0 |     108471951 | 2017-02-04 05:57:18.141517+01

 2017-02-04 08:25:08.895335+01 | 1486193108.89533 |                 0 |              28 |                447523 |                 7565 |           23609660 |       3953120 |            38857 |       105264048 |                     0 |     108483947 | 2017-02-04 05:57:18.141517+01

 2017-02-04 08:25:09.978473+01 | 1486193109.97847 |                 0 |              28 |                447523 |                 7565 |           23609660 |       3953620 |            38862 |       105264048 |                     0 |     108496361 | 2017-02-04 05:57:18.141517+01

 2017-02-04 08:25:11.065749+01 | 1486193111.06575 |                 0 |              28 |                447523 |                 7565 |           23609660 |       3954220 |            38868 |       105264048 |                     0 |     108508351 | 2017-02-04 05:57:18.141517+01

 2017-02-04 08:25:12.146294+01 | 1486193112.14629 |                 0 |              28 |                447523 |                 7565 |           23609660 |       3954720 |            38873 |       105264048 |                     0 |     108516116 | 2017-02-04 05:57:18.141517+01

 2017-02-04 08:25:13.224796+01 | 1486193113.2248 |                 0 |              28 |                447523 |                 7565 |           23609660 |       3955320 |            38879 |       105264048 |                     0 |     108526913 | 2017-02-04 05:57:18.141517+01

 2017-02-04 08:25:14.309473+01 | 1486193114.30947 |                 0 |              28 |                447523 |                 7565 |           23609660 |       3955820 |            38884 |       105264048 |                     0 |     108535398 | 2017-02-04 05:57:18.141517+01

 2017-02-04 08:25:15.390449+01 | 1486193115.39045 |                 0 |              28 |                447523 |                 7565 |           23609660 |       3956320 |            38889 |       105264048 |                     0 |     108544409 | 2017-02-04 05:57:18.141517+01

 2017-02-04 08:25:16.470211+01 | 1486193116.47021 |                 0 |              28 |                447523 |                 7565 |           23609660 |       3956920 |            38895 |       105264048 |                     0 |     108554267 | 2017-02-04 05:57:18.141517+01

 2017-02-04 08:25:17.56037+01 | 1486193117.56037 |                 0 |              28 |                447523 |                 7565 |           23609660 |       3957420 |            38900 |       105264048 |                     0 |     108564985 | 2017-02-04 05:57:18.141517+01

 2017-02-04 08:25:18.650072+01 | 1486193118.65007 |                 0 |              28 |                447523 |                 7565 |           23609660 |       3957920 |            38905 |       105264048 |                     0 |     108575045 | 2017-02-04 05:57:18.141517+01

 2017-02-04 08:25:19.728682+01 | 1486193119.72868 |                 0 |              28 |                447523 |                 7565 |           23609660 |       3958520 |            38911 |       105264048 |                     0 |     108587608 | 2017-02-04 05:57:18.141517+01

 2017-02-04 08:25:20.81512+01 | 1486193120.81512 |                 0 |              28 |                447523 |                 7565 |           23609660 |       3959020 |            38916 |       105264048 |                     0 |     108598151 | 2017-02-04 05:57:18.141517+01

 2017-02-04 08:25:21.894674+01 | 1486193121.89467 |                 0 |              28 |                447523 |                 7565 |           23609660 |       3959520 |            38921 |       105264048 |                     0 |     108608584 | 2017-02-04 05:57:18.141517+01

 2017-02-04 08:25:22.975428+01 | 1486193122.97543 |                 0 |              28 |                447523 |                 7565 |           23609660 |       3960120 |            38927 |       105264048 |                     0 |     108621405 | 2017-02-04 05:57:18.141517+01

 2017-02-04 08:25:24.05203+01 | 1486193124.05203 |                 0 |              28 |                447523 |                 7565 |           23609660 |       3960620 |            38932 |       105264048 |                     0 |     108633170 | 2017-02-04 05:57:18.141517+01

 2017-02-04 08:25:25.127004+01 | 1486193125.127 |                 0 |              28 |                447523 |                 7565 |           23609660 |       3961120 |            38937 |       105264048 |                     0 |     108644009 | 2017-02-04 05:57:18.141517+01

 2017-02-04 08:25:26.215105+01 | 1486193126.21511 |                 0 |              28 |                447523 |                 7565 |           23609660 |       3961720 |            38943 |       105264048 |                     0 |     108656933 | 2017-02-04 05:57:18.141517+01

 2017-02-04 08:25:27.292031+01 | 1486193127.29203 |                 0 |              28 |                447523 |                 7565 |           23609660 |       3962220 |            38948 |       105264048 |                     0 |     108667616 | 2017-02-04 05:57:18.141517+01

 2017-02-04 08:25:28.370195+01 | 1486193128.37019 |                 0 |              28 |                447523 |                 7565 |           23609660 |       3962820 |            38954 |       105264048 |                     0 |     108680082 | 2017-02-04 05:57:18.141517+01

 2017-02-04 08:25:29.463618+01 | 1486193129.46362 |                 0 |              28 |                447523 |                 7565 |           23609660 |       3963320 |            38959 |       105264048 |                     0 |     108691336 | 2017-02-04 05:57:18.141517+01

 2017-02-04 08:25:30.540161+01 | 1486193130.54016 |                 0 |              28 |                447523 |                 7565 |           23609660 |       3963820 |            38964 |       105264048 |                     0 |     108701397 | 2017-02-04 05:57:18.141517+01

 2017-02-04 08:25:31.620044+01 | 1486193131.62004 |                 0 |              28 |                447523 |                 7565 |           23609660 |       3964420 |            38970 |       105264048 |                     0 |     108713913 | 2017-02-04 05:57:18.141517+01

 2017-02-04 08:25:32.689763+01 | 1486193132.68976 |                 0 |              28 |                447523 |                 7565 |           23609660 |       3964920 |            38975 |       105264048 |                     0 |     108724618 | 2017-02-04 05:57:18.141517+01

 2017-02-04 08:25:33.765247+01 | 1486193133.76525 |                 0 |              28 |                447523 |                 7565 |           23609660 |       3965420 |            38980 |       105264048 |                     0 |     108735266 | 2017-02-04 05:57:18.141517+01

 2017-02-04 08:25:34.8464+01 | 1486193134.8464 |                 0 |              28 |                447523 |                 7565 |           23609660 |       3966020 |            38986 |       105264048 |                     0 |     108747818 | 2017-02-04 05:57:18.141517+01

 2017-02-04 08:25:35.920943+01 | 1486193135.92094 |                 0 |              28 |                447523 |                 7565 |           23609660 |       3966520 |            38991 |       105264048 |                     0 |     108757736 | 2017-02-04 05:57:18.141517+01

 2017-02-04 08:25:36.998203+01 | 1486193136.9982 |                 0 |              28 |                447523 |                 7565 |           23609660 |       3967020 |            38996 |       105264048 |                     0 |     108768705 | 2017-02-04 05:57:18.141517+01

 2017-02-04 08:25:38.078956+01 | 1486193138.07896 |                 0 |              28 |                447523 |                 7565 |           23609660 |       3967620 |            39002 |       105264048 |                     0 |     108781181 | 2017-02-04 05:57:18.141517+01

 2017-02-04 08:25:39.158272+01 | 1486193139.15827 |                 0 |              28 |                447523 |                 7565 |           23609660 |       3968120 |            39007 |       105264048 |                     0 |     108792208 | 2017-02-04 05:57:18.141517+01

 2017-02-04 08:25:40.236807+01 | 1486193140.23681 |                 0 |              28 |                447523 |                 7565 |           23609660 |       3968620 |            39012 |       105264048 |                     0 |     108802217 | 2017-02-04 05:57:18.141517+01

 2017-02-04 08:25:41.313527+01 | 1486193141.31353 |                 0 |              28 |                447523 |                 7565 |           23609660 |       3969220 |            39018 |       105264048 |                     0 |     108814578 | 2017-02-04 05:57:18.141517+01

 2017-02-04 08:25:42.402786+01 | 1486193142.40279 |                 0 |              28 |                447523 |                 7565 |           23609660 |       3969720 |            39023 |       105264048 |                     0 |     108824941 | 2017-02-04 05:57:18.141517+01

 2017-02-04 08:25:43.483264+01 | 1486193143.48326 |                 0 |              28 |                447523 |                 7565 |           23609660 |       3970220 |            39028 |       105264048 |                     0 |     108835058 | 2017-02-04 05:57:18.141517+01

 2017-02-04 08:25:44.559863+01 | 1486193144.55986 |                 0 |              28 |                447523 |                 7565 |           23609660 |       3970820 |            39034 |       105264048 |                     0 |     108848378 | 2017-02-04 05:57:18.141517+01

 2017-02-04 08:25:45.636955+01 | 1486193145.63696 |                 0 |              28 |                447523 |                 7565 |           23609660 |       3971320 |            39039 |       105264048 |                     0 |     108858367 | 2017-02-04 05:57:18.141517+01

 2017-02-04 08:25:46.712878+01 | 1486193146.71288 |                 0 |              28 |                447523 |                 7565 |           23609660 |       3971820 |            39044 |       105264048 |                     0 |     108868869 | 2017-02-04 05:57:18.141517+01

 2017-02-04 08:25:47.792552+01 | 1486193147.79255 |                 0 |              28 |                447523 |                 7565 |           23609660 |       3972420 |            39050 |       105264048 |                     0 |     108880790 | 2017-02-04 05:57:18.141517+01

 2017-02-04 08:25:48.874874+01 | 1486193148.87487 |                 0 |              28 |                447523 |                 7565 |           23609660 |       3972920 |            39055 |       105264048 |                     0 |     108891316 | 2017-02-04 05:57:18.141517+01

 2017-02-04 08:25:49.950974+01 | 1486193149.95097 |                 0 |              28 |                447523 |                 7565 |           23609660 |       3973420 |            39060 |       105264048 |                     0 |     108901457 | 2017-02-04 05:57:18.141517+01

 2017-02-04 08:25:51.032037+01 | 1486193151.03204 |                 0 |              28 |                447523 |                 7565 |           23609660 |       3974020 |            39066 |       105264048 |                     0 |     108910596 | 2017-02-04 05:57:18.141517+01

 2017-02-04 08:25:52.109768+01 | 1486193152.10977 |                 0 |              28 |                447523 |                 7565 |           23609660 |       3974520 |            39071 |       105264048 |                     0 |     108920448 | 2017-02-04 05:57:18.141517+01

 2017-02-04 08:25:53.189515+01 | 1486193153.18952 |                 0 |              28 |                447523 |                 7565 |           23609660 |       3975020 |            39076 |       105264048 |                     0 |     108930723 | 2017-02-04 05:57:18.141517+01

 2017-02-04 08:25:54.259395+01 | 1486193154.25939 |                 0 |              28 |                447523 |                 7565 |           23609660 |       3975620 |            39082 |       105264048 |                     0 |     108943277 | 2017-02-04 05:57:18.141517+01

 2017-02-04 08:25:55.32975+01 | 1486193155.32975 |                 0 |              28 |                447523 |                 7565 |           23609660 |       3975920 |            39085 |       105264048 |                     0 |     108948796 | 2017-02-04 05:57:18.141517+01

 2017-02-04 08:25:56.418613+01 | 1486193156.41861 |                 0 |              28 |                447523 |                 7565 |           23609660 |       3976620 |            39092 |       105264048 |                     0 |     108963535 | 2017-02-04 05:57:18.141517+01

 2017-02-04 08:25:57.504079+01 | 1486193157.50408 |                 0 |              28 |                447523 |                 7565 |           23609660 |       3977220 |            39098 |       105264048 |                     0 |     108976362 | 2017-02-04 05:57:18.141517+01

 2017-02-04 08:25:58.578927+01 | 1486193158.57893 |                 0 |              28 |                447523 |                 7565 |           23609660 |       3977720 |            39103 |       105755433 |                     0 |     108986919 | 2017-02-04 05:57:18.141517+01

 2017-02-04 08:25:59.653055+01 | 1486193159.65305 |                 0 |              28 |                447523 |                 7565 |           23609660 |       3978220 |            39108 |       105755433 |                     0 |     108997648 | 2017-02-04 05:57:18.141517+01

 2017-02-04 08:26:00.73369+01 | 1486193160.73369 |                 0 |              28 |                447523 |                 7565 |           23609660 |       3978820 |            39114 |       105755433 |                     0 |     109010216 | 2017-02-04 05:57:18.141517+01

 2017-02-04 08:26:01.818717+01 | 1486193161.81872 |                 0 |              28 |                447523 |                 7565 |           23609660 |       3979320 |            39119 |       105755433 |                     0 |     109020530 | 2017-02-04 05:57:18.141517+01

 2017-02-04 08:26:02.901263+01 | 1486193162.90126 |                 0 |              28 |                447523 |                 7565 |           23609660 |       3979820 |            39124 |       105755433 |                     0 |     109031076 | 2017-02-04 05:57:18.141517+01

 2017-02-04 08:26:03.984934+01 | 1486193163.98493 |                 0 |              28 |                447523 |                 7565 |           23609660 |       3980420 |            39130 |       105755433 |                     0 |     109042717 | 2017-02-04 05:57:18.141517+01

 2017-02-04 08:26:05.067886+01 | 1486193165.06789 |                 0 |              28 |                447523 |                 7565 |           23609660 |       3980920 |            39135 |       105755433 |                     0 |     109053185 | 2017-02-04 05:57:18.141517+01

 2017-02-04 08:26:06.158105+01 | 1486193166.1581 |                 0 |              28 |                447523 |                 7565 |           23609660 |       3981520 |            39141 |       105755433 |                     0 |     109065727 | 2017-02-04 05:57:18.141517+01

 2017-02-04 08:26:07.235735+01 | 1486193167.23573 |                 0 |              28 |                447523 |                 7565 |           23609660 |       3982020 |            39146 |       105755433 |                     0 |     109075656 | 2017-02-04 05:57:18.141517+01

 2017-02-04 08:26:08.312133+01 | 1486193168.31213 |                 0 |              28 |                447523 |                 7565 |           23609660 |       3982520 |            39151 |       105755433 |                     0 |     109085811 | 2017-02-04 05:57:18.141517+01

 2017-02-04 08:26:09.398687+01 | 1486193169.39869 |                 0 |              28 |                447523 |                 7565 |           23609660 |       3983120 |            39157 |       105755433 |                     0 |     109099227 | 2017-02-04 05:57:18.141517+01

 2017-02-04 08:26:10.47592+01 | 1486193170.47592 |                 0 |              28 |                447523 |                 7565 |           23609660 |       3983620 |            39162 |       105755433 |                     0 |     109109203 | 2017-02-04 05:57:18.141517+01

 2017-02-04 08:26:11.55389+01 | 1486193171.55389 |                 0 |              28 |                447523 |                 7565 |           23609660 |       3984120 |            39167 |       105755433 |                     0 |     109120315 | 2017-02-04 05:57:18.141517+01

 2017-02-04 08:26:12.641808+01 | 1486193172.64181 |                 0 |              28 |                447523 |                 7565 |           23609660 |       3984720 |            39173 |       105755433 |                     0 |     109131438 | 2017-02-04 05:57:18.141517+01

 2017-02-04 08:26:13.715451+01 | 1486193173.71545 |                 0 |              28 |                447523 |                 7565 |           23609660 |       3985220 |            39178 |       105755433 |                     0 |     109142016 | 2017-02-04 05:57:18.141517+01

 2017-02-04 08:26:14.78949+01 | 1486193174.78949 |                 0 |              28 |                447523 |                 7565 |           23609660 |       3985720 |            39183 |       105755433 |                     0 |     109150389 | 2017-02-04 05:57:18.141517+01

 2017-02-04 08:26:15.87492+01 | 1486193175.87492 |                 0 |              28 |                447523 |                 7565 |           23609660 |       3986320 |            39189 |       105755433 |                     0 |     109159068 | 2017-02-04 05:57:18.141517+01

 2017-02-04 08:26:16.961989+01 | 1486193176.96199 |                 0 |              28 |                447523 |                 7565 |           23609660 |       3986820 |            39194 |       105755433 |                     0 |     109167313 | 2017-02-04 05:57:18.141517+01

 2017-02-04 08:26:18.044689+01 | 1486193178.04469 |                 0 |              28 |                447523 |                 7565 |           23609660 |       3987320 |            39199 |       105755433 |                     0 |     109178125 | 2017-02-04 05:57:18.141517+01

 2017-02-04 08:26:19.125054+01 | 1486193179.12505 |                 0 |              28 |                447523 |                 7565 |           23609660 |       3987920 |            39205 |       105755433 |                     0 |     109189818 | 2017-02-04 05:57:18.141517+01

 2017-02-04 08:26:20.206659+01 | 1486193180.20666 |                 0 |              28 |                447523 |                 7565 |           23609660 |       3988420 |            39210 |       105755433 |                     0 |     109199512 | 2017-02-04 05:57:18.141517+01

 2017-02-04 08:26:21.286177+01 | 1486193181.28618 |                 0 |              28 |                447523 |                 7565 |           23609660 |       3989020 |            39216 |       105755433 |                     0 |     109211749 | 2017-02-04 05:57:18.141517+01

 2017-02-04 08:26:22.364522+01 | 1486193182.36452 |                 0 |              28 |                447523 |                 7565 |           23609660 |       3989520 |            39221 |       105755433 |                     0 |     109220829 | 2017-02-04 05:57:18.141517+01

 2017-02-04 08:26:23.439393+01 | 1486193183.43939 |                 0 |              28 |                447523 |                 7565 |           23609660 |       3990020 |            39226 |       105755433 |                     0 |     109230214 | 2017-02-04 05:57:18.141517+01

 2017-02-04 08:26:24.515744+01 | 1486193184.51574 |                 0 |              28 |                447523 |                 7565 |           23609660 |       3990620 |            39232 |       105755433 |                     0 |     109242861 | 2017-02-04 05:57:18.141517+01

 2017-02-04 08:26:25.590143+01 | 1486193185.59014 |                 0 |              28 |                447523 |                 7565 |           23609660 |       3991120 |            39237 |       105755433 |                     0 |     109253241 | 2017-02-04 05:57:18.141517+01

 2017-02-04 08:26:26.677577+01 | 1486193186.67758 |                 0 |              28 |                447523 |                 7565 |           23609660 |       3991620 |            39242 |       105755433 |                     0 |     109263488 | 2017-02-04 05:57:18.141517+01

 2017-02-04 08:26:27.760683+01 | 1486193187.76068 |                 0 |              28 |                447523 |                 7565 |           23609660 |       3992220 |            39248 |       105755433 |                     0 |     109275208 | 2017-02-04 05:57:18.141517+01

 2017-02-04 08:26:28.842225+01 | 1486193188.84223 |                 0 |              28 |                447523 |                 7565 |           23609660 |       3992720 |            39253 |       105755433 |                     0 |     109285862 | 2017-02-04 05:57:18.141517+01

 2017-02-04 08:26:29.925115+01 | 1486193189.92512 |                 0 |              28 |                447523 |                 7565 |           23609660 |       3993220 |            39258 |       105755433 |                     0 |     109295754 | 2017-02-04 05:57:18.141517+01

 2017-02-04 08:26:31.00214+01 | 1486193191.00214 |                 0 |              28 |                447523 |                 7565 |           23609660 |       3993820 |            39264 |       105755433 |                     0 |     109308383 | 2017-02-04 05:57:18.141517+01

 2017-02-04 08:26:32.080571+01 | 1486193192.08057 |                 0 |              28 |                447523 |                 7565 |           23609660 |       3994320 |            39269 |       105755433 |                     0 |     109318079 | 2017-02-04 05:57:18.141517+01

 2017-02-04 08:26:33.161299+01 | 1486193193.1613 |                 0 |              28 |                447523 |                 7565 |           23609660 |       3994820 |            39274 |       105755433 |                     0 |     109329525 | 2017-02-04 05:57:18.141517+01

 2017-02-04 08:26:34.236429+01 | 1486193194.23643 |                 0 |              28 |                447523 |                 7565 |           23609660 |       3995420 |            39280 |       105755433 |                     0 |     109340773 | 2017-02-04 05:57:18.141517+01

 2017-02-04 08:26:35.314519+01 | 1486193195.31452 |                 0 |              28 |                447523 |                 7565 |           23609660 |       3995920 |            39285 |       105755433 |                     0 |     109351828 | 2017-02-04 05:57:18.141517+01

 2017-02-04 08:26:36.397966+01 | 1486193196.39797 |                 0 |              28 |                447523 |                 7565 |           23609660 |       3996420 |            39290 |       105755433 |                     0 |     109361939 | 2017-02-04 05:57:18.141517+01

 2017-02-04 08:26:37.478017+01 | 1486193197.47802 |                 0 |              28 |                447523 |                 7565 |           23609660 |       3997020 |            39296 |       105755433 |                     0 |     109374234 | 2017-02-04 05:57:18.141517+01

 2017-02-04 08:26:38.557397+01 | 1486193198.5574 |                 0 |              28 |                447523 |                 7565 |           23609660 |       3997520 |            39301 |       105755433 |                     0 |     109384936 | 2017-02-04 05:57:18.141517+01

 2017-02-04 08:26:39.642774+01 | 1486193199.64277 |                 0 |              28 |                447523 |                 7565 |           23609660 |       3998020 |            39306 |       105755433 |                     0 |     109394693 | 2017-02-04 05:57:18.141517+01

 2017-02-04 08:26:40.727326+01 | 1486193200.72733 |                 0 |              28 |                447523 |                 7565 |           23609660 |       3998620 |            39312 |       105755433 |                     0 |     109407339 | 2017-02-04 05:57:18.141517+01

 2017-02-04 08:26:41.82204+01 | 1486193201.82204 |                 0 |              28 |                447523 |                 7565 |           23609660 |       3999120 |            39317 |       105755433 |                     0 |     109417368 | 2017-02-04 05:57:18.141517+01

 2017-02-04 08:26:42.895131+01 | 1486193202.89513 |                 0 |              28 |                447523 |                 7565 |           23609660 |       3999720 |            39323 |       105755433 |                     0 |     109430095 | 2017-02-04 05:57:18.141517+01

 2017-02-04 08:26:43.97951+01 | 1486193203.97951 |                 0 |              28 |                447523 |                 7565 |           23609660 |       4000220 |            39328 |       105755433 |                     0 |     109440190 | 2017-02-04 05:57:18.141517+01

 2017-02-04 08:26:45.06488+01 | 1486193205.06488 |                 0 |              28 |                447523 |                 7565 |           23609660 |       4000720 |            39333 |       105755433 |                     0 |     109451143 | 2017-02-04 05:57:18.141517+01

 2017-02-04 08:26:46.137019+01 | 1486193206.13702 |                 0 |              28 |                447523 |                 7565 |           23609660 |       4001320 |            39339 |       105755433 |                     0 |     109463708 | 2017-02-04 05:57:18.141517+01

 2017-02-04 08:26:47.216108+01 | 1486193207.21611 |                 0 |              28 |                447523 |                 7565 |           23609660 |       4001820 |            39344 |       105755433 |                     0 |     109474487 | 2017-02-04 05:57:18.141517+01

 2017-02-04 08:26:48.293596+01 | 1486193208.2936 |                 0 |              28 |                447523 |                 7565 |           23609660 |       4002320 |            39349 |       105755433 |                     0 |     109484707 | 2017-02-04 05:57:18.141517+01

 2017-02-04 08:26:49.372829+01 | 1486193209.37283 |                 0 |              28 |                447523 |                 7565 |           23609660 |       4002920 |            39355 |       105755433 |                     0 |     109496984 | 2017-02-04 05:57:18.141517+01

 2017-02-04 08:26:50.451599+01 | 1486193210.4516 |                 0 |              28 |                447523 |                 7565 |           23609660 |       4003420 |            39360 |       106254023 |                     0 |     109507059 | 2017-02-04 05:57:18.141517+01

 2017-02-04 08:26:51.537218+01 | 1486193211.53722 |                 0 |              28 |                447523 |                 7565 |           23609660 |       4003920 |            39365 |       106254023 |                     0 |     109517134 | 2017-02-04 05:57:18.141517+01

 2017-02-04 08:26:52.606827+01 | 1486193212.60683 |                 0 |              28 |                447523 |                 7565 |           23609660 |       4004420 |            39370 |       106254023 |                     0 |     109527092 | 2017-02-04 05:57:18.141517+01

 2017-02-04 08:26:53.68575+01 | 1486193213.68575 |                 0 |              28 |                447523 |                 7565 |           23609660 |       4005020 |            39376 |       106254023 |                     0 |     109539352 | 2017-02-04 05:57:18.141517+01

 2017-02-04 08:26:54.761323+01 | 1486193214.76132 |                 0 |              28 |                447523 |                 7565 |           23609660 |       4005520 |            39381 |       106254023 |                     0 |     109549688 | 2017-02-04 05:57:18.141517+01

 2017-02-04 08:26:55.843806+01 | 1486193215.84381 |                 0 |              28 |                447523 |                 7565 |           23609660 |       4006120 |            39387 |       106254023 |                     0 |     109562388 | 2017-02-04 05:57:18.141517+01

 2017-02-04 08:26:56.920778+01 | 1486193216.92078 |                 0 |              28 |                447523 |                 7565 |           23609660 |       4006620 |            39392 |       106254023 |                     0 |     109572498 | 2017-02-04 05:57:18.141517+01

 2017-02-04 08:26:57.997704+01 | 1486193217.9977 |                 0 |              28 |                447523 |                 7565 |           23609660 |       4007120 |            39397 |       106254023 |                     0 |     109583229 | 2017-02-04 05:57:18.141517+01

 2017-02-04 08:26:59.072698+01 | 1486193219.0727 |                 0 |              28 |                447523 |                 7565 |           23609660 |       4007720 |            39403 |       106254023 |                     0 |     109596006 | 2017-02-04 05:57:18.141517+01

 2017-02-04 08:27:00.159512+01 | 1486193220.15951 |                 0 |              28 |                447523 |                 7565 |           23609660 |       4008220 |            39408 |       106254023 |                     0 |     109606281 | 2017-02-04 05:57:18.141517+01

 2017-02-04 08:27:01.232548+01 | 1486193221.23255 |                 0 |              28 |                447523 |                 7565 |           23609660 |       4008720 |            39413 |       106254023 |                     0 |     109616983 | 2017-02-04 05:57:18.141517+01

 2017-02-04 08:27:02.308805+01 | 1486193222.3088 |                 0 |              28 |                447523 |                 7565 |           23609660 |       4009320 |            39419 |       106254023 |                     0 |     109630328 | 2017-02-04 05:57:18.141517+01

 2017-02-04 08:27:03.391299+01 | 1486193223.3913 |                 0 |              28 |                447523 |                 7565 |           23609660 |       4009820 |            39424 |       106254023 |                     0 |     109641119 | 2017-02-04 05:57:18.141517+01

 2017-02-04 08:27:04.477594+01 | 1486193224.47759 |                 0 |              28 |                447523 |                 7565 |           23609660 |       4010320 |            39429 |       106254023 |                     0 |     109651392 | 2017-02-04 05:57:18.141517+01

 2017-02-04 08:27:05.555729+01 | 1486193225.55573 |                 0 |              28 |                447523 |                 7565 |           23609660 |       4010920 |            39435 |       106254023 |                     0 |     109663701 | 2017-02-04 05:57:18.141517+01

 2017-02-04 08:27:06.64155+01 | 1486193226.64155 |                 0 |              28 |                447523 |                 7565 |           23609660 |       4011420 |            39440 |       106254023 |                     0 |     109673984 | 2017-02-04 05:57:18.141517+01

 2017-02-04 08:27:07.721348+01 | 1486193227.72135 |                 0 |              28 |                447523 |                 7565 |           23609660 |       4011920 |            39445 |       106254023 |                     0 |     109683943 | 2017-02-04 05:57:18.141517+01

 2017-02-04 08:27:08.807969+01 | 1486193228.80797 |                 0 |              28 |                447523 |                 7565 |           23609660 |       4012520 |            39451 |       106254023 |                     0 |     109695340 | 2017-02-04 05:57:18.141517+01

 2017-02-04 08:27:09.899872+01 | 1486193229.89987 |                 0 |              28 |                447523 |                 7565 |           23609660 |       4013020 |            39456 |       106254023 |                     0 |     109704103 | 2017-02-04 05:57:18.141517+01

 2017-02-04 08:27:10.993716+01 | 1486193230.99372 |                 0 |              28 |                447523 |                 7565 |           23609660 |       4013620 |            39462 |       106254023 |                     0 |     109713239 | 2017-02-04 05:57:18.141517+01

 2017-02-04 08:27:12.077398+01 | 1486193232.0774 |                 0 |              28 |                447523 |                 7565 |           23609660 |       4014120 |            39467 |       106254023 |                     0 |     109719792 | 2017-02-04 05:57:18.141517+01

 2017-02-04 08:27:13.155465+01 | 1486193233.15546 |                 0 |              28 |                447523 |                 7565 |           23609660 |       4014620 |            39472 |       106254023 |                     0 |     109727211 | 2017-02-04 05:57:18.141517+01

 2017-02-04 08:27:14.229654+01 | 1486193234.22965 |                 0 |              28 |                447523 |                 7565 |           23609660 |       4015220 |            39478 |       106254023 |                     0 |     109736918 | 2017-02-04 05:57:18.141517+01

 2017-02-04 08:27:15.316386+01 | 1486193235.31639 |                 0 |              28 |                447523 |                 7565 |           23609660 |       4015720 |            39483 |       106254023 |                     0 |     109746195 | 2017-02-04 05:57:18.141517+01

 2017-02-04 08:27:16.392117+01 | 1486193236.39212 |                 0 |              28 |                447523 |                 7565 |           23609660 |       4016220 |            39488 |       106254023 |                     0 |     109756050 | 2017-02-04 05:57:18.141517+01

 2017-02-04 08:27:17.475437+01 | 1486193237.47544 |                 0 |              28 |                447523 |                 7565 |           23609660 |       4016820 |            39494 |       106254023 |                     0 |     109768722 | 2017-02-04 05:57:18.141517+01

 2017-02-04 08:27:18.563273+01 | 1486193238.56327 |                 0 |              28 |                447523 |                 7565 |           23609660 |       4017320 |            39499 |       106254023 |                     0 |     109778792 | 2017-02-04 05:57:18.141517+01

 2017-02-04 08:27:19.643079+01 | 1486193239.64308 |                 0 |              28 |                447523 |                 7565 |           23609660 |       4017920 |            39505 |       106254023 |                     0 |     109791244 | 2017-02-04 05:57:18.141517+01

 2017-02-04 08:27:20.717287+01 | 1486193240.71729 |                 0 |              28 |                447523 |                 7565 |           23609660 |       4018420 |            39510 |       106254023 |                     0 |     109801419 | 2017-02-04 05:57:18.141517+01

 2017-02-04 08:27:21.797043+01 | 1486193241.79704 |                 0 |              28 |                447523 |                 7565 |           23609660 |       4018920 |            39515 |       106254023 |                     0 |     109811681 | 2017-02-04 05:57:18.141517+01

 2017-02-04 08:27:22.876338+01 | 1486193242.87634 |                 0 |              28 |                447523 |                 7565 |           23609660 |       4019520 |            39521 |       106254023 |                     0 |     109824412 | 2017-02-04 05:57:18.141517+01

 2017-02-04 08:27:23.963084+01 | 1486193243.96308 |                 0 |              28 |                447523 |                 7565 |           23609660 |       4020020 |            39526 |       106254023 |                     0 |     109833951 | 2017-02-04 05:57:18.141517+01

 2017-02-04 08:27:25.052253+01 | 1486193245.05225 |                 0 |              28 |                447523 |                 7565 |           23609660 |       4020520 |            39531 |       106254023 |                     0 |     109844480 | 2017-02-04 05:57:18.141517+01

 2017-02-04 08:27:26.130535+01 | 1486193246.13053 |                 0 |              28 |                447523 |                 7565 |           23609660 |       4021120 |            39537 |       106254023 |                     0 |     109855709 | 2017-02-04 05:57:18.141517+01

 2017-02-04 08:27:27.213688+01 | 1486193247.21369 |                 0 |              28 |                447523 |                 7565 |           23609660 |       4021620 |            39542 |       106254023 |                     0 |     109866722 | 2017-02-04 05:57:18.141517+01

 2017-02-04 08:27:28.292678+01 | 1486193248.29268 |                 0 |              28 |                447523 |                 7565 |           23609660 |       4022120 |            39547 |       106254023 |                     0 |     109876838 | 2017-02-04 05:57:18.141517+01

 2017-02-04 08:27:29.37097+01 | 1486193249.37097 |                 0 |              28 |                447523 |                 7565 |           23609660 |       4022720 |            39553 |       106254023 |                     0 |     109889587 | 2017-02-04 05:57:18.141517+01

 2017-02-04 08:27:30.44411+01 | 1486193250.44411 |                 0 |              28 |                447523 |                 7565 |           23609660 |       4023220 |            39558 |       106254023 |                     0 |     109898889 | 2017-02-04 05:57:18.141517+01

 2017-02-04 08:27:31.529951+01 | 1486193251.52995 |                 0 |              28 |                447523 |                 7565 |           23609660 |       4023720 |            39563 |       106254023 |                     0 |     109909322 | 2017-02-04 05:57:18.141517+01

 2017-02-04 08:27:32.619489+01 | 1486193252.61949 |                 0 |              28 |                447523 |                 7565 |           23609660 |       4024320 |            39569 |       106254023 |                     0 |     109921770 | 2017-02-04 05:57:18.141517+01

 2017-02-04 08:27:33.709837+01 | 1486193253.70984 |                 0 |              28 |                447523 |                 7565 |           23609660 |       4024820 |            39574 |       106254023 |                     0 |     109932480 | 2017-02-04 05:57:18.141517+01

 2017-02-04 08:27:34.788478+01 | 1486193254.78848 |                 0 |              28 |                447523 |                 7565 |           23609660 |       4025420 |            39580 |       106254023 |                     0 |     109944743 | 2017-02-04 05:57:18.141517+01

 2017-02-04 08:27:35.869879+01 | 1486193255.86988 |                 0 |              28 |                447523 |                 7565 |           23609660 |       4025920 |            39585 |       106254023 |                     0 |     109953695 | 2017-02-04 05:57:18.141517+01

 2017-02-04 08:27:36.954242+01 | 1486193256.95424 |                 0 |              28 |                447523 |                 7565 |           23609660 |       4026420 |            39590 |       106254023 |                     0 |     109964454 | 2017-02-04 05:57:18.141517+01

 2017-02-04 08:27:38.032338+01 | 1486193258.03234 |                 0 |              28 |                447523 |                 7565 |           23609660 |       4027020 |            39596 |       106754911 |                     0 |     109976690 | 2017-02-04 05:57:18.141517+01

 2017-02-04 08:27:39.114628+01 | 1486193259.11463 |                 0 |              28 |                447523 |                 7565 |           23609660 |       4027520 |            39601 |       106754911 |                     0 |     109987210 | 2017-02-04 05:57:18.141517+01

 2017-02-04 08:27:40.199112+01 | 1486193260.19911 |                 0 |              28 |                447523 |                 7565 |           23609660 |       4028020 |            39606 |       106754911 |                     0 |     109997398 | 2017-02-04 05:57:18.141517+01

 2017-02-04 08:27:41.281711+01 | 1486193261.28171 |                 0 |              28 |                447523 |                 7565 |           23609660 |       4028620 |            39612 |       106754911 |                     0 |     110010275 | 2017-02-04 05:57:18.141517+01

 2017-02-04 08:27:42.361963+01 | 1486193262.36196 |                 0 |              28 |                447523 |                 7565 |           23609660 |       4029120 |            39617 |       106754911 |                     0 |     110020470 | 2017-02-04 05:57:18.141517+01

 2017-02-04 08:27:43.439286+01 | 1486193263.43929 |                 0 |              28 |                447523 |                 7565 |           23609660 |       4029620 |            39622 |       106754911 |                     0 |     110030978 | 2017-02-04 05:57:18.141517+01

 2017-02-04 08:27:44.513197+01 | 1486193264.5132 |                 0 |              28 |                447523 |                 7565 |           23609660 |       4030220 |            39628 |       106754911 |                     0 |     110043337 | 2017-02-04 05:57:18.141517+01

 2017-02-04 08:27:45.599522+01 | 1486193265.59952 |                 0 |              28 |                447523 |                 7565 |           23609660 |       4030720 |            39633 |       106754911 |                     0 |     110053407 | 2017-02-04 05:57:18.141517+01

 2017-02-04 08:27:46.684213+01 | 1486193266.68421 |                 0 |              28 |                447523 |                 7565 |           23609660 |       4031220 |            39638 |       106754911 |                     0 |     110064161 | 2017-02-04 05:57:18.141517+01

 2017-02-04 08:27:47.767964+01 | 1486193267.76796 |                 0 |              28 |                447523 |                 7565 |           23609660 |       4031820 |            39644 |       106754911 |                     0 |     110075243 | 2017-02-04 05:57:18.141517+01

 2017-02-04 08:27:48.847771+01 | 1486193268.84777 |                 0 |              28 |                447523 |                 7565 |           23609660 |       4032320 |            39649 |       106754911 |                     0 |     110085920 | 2017-02-04 05:57:18.141517+01

 2017-02-04 08:27:49.928651+01 | 1486193269.92865 |                 0 |              28 |                447523 |                 7565 |           23609660 |       4032920 |            39655 |       106754911 |                     0 |     110098512 | 2017-02-04 05:57:18.141517+01

 2017-02-04 08:27:51.011793+01 | 1486193271.01179 |                 0 |              28 |                447523 |                 7565 |           23609660 |       4033420 |            39660 |       106754911 |                     0 |     110108786 | 2017-02-04 05:57:18.141517+01

 2017-02-04 08:27:52.097674+01 | 1486193272.09767 |                 0 |              28 |                447523 |                 7565 |           23609660 |       4033920 |            39665 |       106754911 |                     0 |     110118757 | 2017-02-04 05:57:18.141517+01

 2017-02-04 08:27:53.198002+01 | 1486193273.198 |                 0 |              28 |                447523 |                 7565 |           23609660 |       4034520 |            39671 |       106754911 |                     0 |     110130897 | 2017-02-04 05:57:18.141517+01

 2017-02-04 08:27:54.29129+01 | 1486193274.29129 |                 0 |              28 |                447523 |                 7565 |           23609660 |       4035020 |            39676 |       106754911 |                     0 |     110141192 | 2017-02-04 05:57:18.141517+01

 2017-02-04 08:27:55.359207+01 | 1486193275.35921 |                 0 |              28 |                447523 |                 7565 |           23609660 |       4035420 |            39680 |       106754911 |                     0 |     110149740 | 2017-02-04 05:57:18.141517+01

 2017-02-04 08:27:56.439782+01 | 1486193276.43978 |                 0 |              28 |                447523 |                 7565 |           23609660 |       4036120 |            39687 |       106754911 |                     0 |     110164561 | 2017-02-04 05:57:18.141517+01

 2017-02-04 08:27:57.513419+01 | 1486193277.51342 |                 0 |              28 |                447523 |                 7565 |           23609660 |       4036620 |            39692 |       106754911 |                     0 |     110175013 | 2017-02-04 05:57:18.141517+01

 2017-02-04 08:27:58.596179+01 | 1486193278.59618 |                 0 |              28 |                447523 |                 7565 |           23609660 |       4037120 |            39697 |       106754911 |                     0 |     110185215 | 2017-02-04 05:57:18.141517+01

 2017-02-04 08:27:59.672526+01 | 1486193279.67253 |                 0 |              28 |                447523 |                 7565 |           23609660 |       4037720 |            39703 |       106754911 |                     0 |     110197662 | 2017-02-04 05:57:18.141517+01

 2017-02-04 08:28:00.75239+01 | 1486193280.75239 |                 0 |              28 |                447523 |                 7565 |           23609660 |       4038220 |            39708 |       106754911 |                     0 |     110208267 | 2017-02-04 05:57:18.141517+01

 2017-02-04 08:28:01.836631+01 | 1486193281.83663 |                 0 |              28 |                447523 |                 7565 |           23609660 |       4038720 |            39713 |       106754911 |                     0 |     110218280 | 2017-02-04 05:57:18.141517+01

 2017-02-04 08:28:02.912893+01 | 1486193282.91289 |                 0 |              28 |                447523 |                 7565 |           23609660 |       4039320 |            39719 |       106754911 |                     0 |     110230186 | 2017-02-04 05:57:18.141517+01

 2017-02-04 08:28:03.994338+01 | 1486193283.99434 |                 0 |              28 |                447523 |                 7565 |           23609660 |       4039820 |            39724 |       106754911 |                     0 |     110240608 | 2017-02-04 05:57:18.141517+01

 2017-02-04 08:28:05.076428+01 | 1486193285.07643 |                 0 |              28 |                447523 |                 7565 |           23609660 |       4040420 |            39730 |       106754911 |                     0 |     110253724 | 2017-02-04 05:57:18.141517+01

 2017-02-04 08:28:06.155736+01 | 1486193286.15574 |                 0 |              28 |                447523 |                 7565 |           23609660 |       4040920 |            39735 |       106754911 |                     0 |     110264311 | 2017-02-04 05:57:18.141517+01

 2017-02-04 08:28:07.234867+01 | 1486193287.23487 |                 0 |              28 |                447523 |                 7565 |           23609660 |       4041420 |            39740 |       106754911 |                     0 |     110274823 | 2017-02-04 05:57:18.141517+01

 2017-02-04 08:28:08.321694+01 | 1486193288.32169 |                 0 |              28 |                447523 |                 7565 |           23609660 |       4042020 |            39746 |       106754911 |                     0 |     110286895 | 2017-02-04 05:57:18.141517+01

 2017-02-04 08:28:09.405524+01 | 1486193289.40552 |                 0 |              28 |                447523 |                 7565 |           23609660 |       4042520 |            39751 |       106754911 |                     0 |     110297564 | 2017-02-04 05:57:18.141517+01

 2017-02-04 08:28:10.488313+01 | 1486193290.48831 |                 0 |              28 |                447523 |                 7565 |           23609660 |       4043020 |            39756 |       106754911 |                     0 |     110307169 | 2017-02-04 05:57:18.141517+01

 2017-02-04 08:28:11.563603+01 | 1486193291.5636 |                 0 |              28 |                447523 |                 7565 |           23609660 |       4043620 |            39762 |       106754911 |                     0 |     110318515 | 2017-02-04 05:57:18.141517+01

 2017-02-04 08:28:12.64889+01 | 1486193292.64889 |                 0 |              28 |                447523 |                 7565 |           23609660 |       4044120 |            39767 |       106754911 |                     0 |     110330163 | 2017-02-04 05:57:18.141517+01

 2017-02-04 08:28:13.727898+01 | 1486193293.7279 |                 0 |              28 |                447523 |                 7565 |           23609660 |       4044620 |            39772 |       106754911 |                     0 |     110340182 | 2017-02-04 05:57:18.141517+01

 2017-02-04 08:28:14.809442+01 | 1486193294.80944 |                 0 |              28 |                447523 |                 7565 |           23609660 |       4045220 |            39778 |       106754911 |                     0 |     110353011 | 2017-02-04 05:57:18.141517+01

 2017-02-04 08:28:15.897242+01 | 1486193295.89724 |                 0 |              28 |                447523 |                 7565 |           23609660 |       4045720 |            39783 |       106754911 |                     0 |     110362507 | 2017-02-04 05:57:18.141517+01

 2017-02-04 08:28:16.975549+01 | 1486193296.97555 |                 0 |              28 |                447523 |                 7565 |           23609660 |       4046220 |            39788 |       106754911 |                     0 |     110372983 | 2017-02-04 05:57:18.141517+01

 2017-02-04 08:28:18.06159+01 | 1486193298.06159 |                 0 |              28 |                447523 |                 7565 |           23609660 |       4046820 |            39794 |       106754911 |                     0 |     110385192 | 2017-02-04 05:57:18.141517+01

 2017-02-04 08:28:19.149615+01 | 1486193299.14962 |                 0 |              28 |                447523 |                 7565 |           23609660 |       4047320 |            39799 |       106754911 |                     0 |     110395391 | 2017-02-04 05:57:18.141517+01

 2017-02-04 08:28:20.223018+01 | 1486193300.22302 |                 0 |              28 |                447523 |                 7565 |           23609660 |       4047920 |            39805 |       106754911 |                     0 |     110408386 | 2017-02-04 05:57:18.141517+01

 2017-02-04 08:28:21.299213+01 | 1486193301.29921 |                 0 |              28 |                447523 |                 7565 |           23609660 |       4048420 |            39810 |       106754911 |                     0 |     110418882 | 2017-02-04 05:57:18.141517+01

 2017-02-04 08:28:22.369367+01 | 1486193302.36937 |                 0 |              28 |                447523 |                 7565 |           23609660 |       4048920 |            39815 |       107256901 |                     0 |     110429423 | 2017-02-04 05:57:18.141517+01

 2017-02-04 08:28:23.452767+01 | 1486193303.45277 |                 0 |              28 |                447523 |                 7565 |           23609660 |       4049520 |            39821 |       107256901 |                     0 |     110440958 | 2017-02-04 05:57:18.141517+01

 2017-02-04 08:28:24.537998+01 | 1486193304.538 |                 0 |              28 |                447523 |                 7565 |           23609660 |       4050020 |            39826 |       107256901 |                     0 |     110451396 | 2017-02-04 05:57:18.141517+01

 2017-02-04 08:28:25.614312+01 | 1486193305.61431 |                 0 |              28 |                447523 |                 7565 |           23609660 |       4050520 |            39831 |       107256901 |                     0 |     110461643 | 2017-02-04 05:57:18.141517+01

 2017-02-04 08:28:26.695893+01 | 1486193306.69589 |                 0 |              28 |                447523 |                 7565 |           23609660 |       4051120 |            39837 |       107256901 |                     0 |     110474684 | 2017-02-04 05:57:18.141517+01

 2017-02-04 08:28:27.7787+01 | 1486193307.7787 |                 0 |              28 |                447523 |                 7565 |           23609660 |       4051620 |            39842 |       107256901 |                     0 |     110484824 | 2017-02-04 05:57:18.141517+01

 2017-02-04 08:28:28.86736+01 | 1486193308.86736 |                 0 |              28 |                447523 |                 7565 |           23609660 |       4052120 |            39847 |       107256901 |                     0 |     110495026 | 2017-02-04 05:57:18.141517+01

 2017-02-04 08:28:29.944776+01 | 1486193309.94478 |                 0 |              28 |                447523 |                 7565 |           23609660 |       4052720 |            39853 |       107256901 |                     0 |     110507833 | 2017-02-04 05:57:18.141517+01

 2017-02-04 08:28:31.025017+01 | 1486193311.02502 |                 0 |              28 |                447523 |                 7565 |           23609660 |       4053220 |            39858 |       107256901 |                     0 |     110518241 | 2017-02-04 05:57:18.141517+01

 2017-02-04 08:28:32.10537+01 | 1486193312.10537 |                 0 |              28 |                447523 |                 7565 |           23609660 |       4053720 |            39863 |       107256901 |                     0 |     110528598 | 2017-02-04 05:57:18.141517+01

 2017-02-04 08:28:33.180549+01 | 1486193313.18055 |                 0 |              28 |                447523 |                 7565 |           23609660 |       4054320 |            39869 |       107256901 |                     0 |     110540202 | 2017-02-04 05:57:18.141517+01

 2017-02-04 08:28:34.26555+01 | 1486193314.26555 |                 0 |              28 |                447523 |                 7565 |           23609660 |       4054820 |            39874 |       107256901 |                     0 |     110551385 | 2017-02-04 05:57:18.141517+01

 2017-02-04 08:28:35.341359+01 | 1486193315.34136 |                 0 |              28 |                447523 |                 7565 |           23609660 |       4055320 |            39879 |       107256901 |                     0 |     110560671 | 2017-02-04 05:57:18.141517+01

 2017-02-04 08:28:36.419756+01 | 1486193316.41976 |                 0 |              28 |                447523 |                 7565 |           23609660 |       4055920 |            39885 |       107256901 |                     0 |     110573830 | 2017-02-04 05:57:18.141517+01

 2017-02-04 08:28:37.49654+01 | 1486193317.49654 |                 0 |              28 |                447523 |                 7565 |           23609660 |       4056420 |            39890 |       107256901 |                     0 |     110584306 | 2017-02-04 05:57:18.141517+01

 2017-02-04 08:28:38.586118+01 | 1486193318.58612 |                 0 |              28 |                447523 |                 7565 |           23609660 |       4056920 |            39895 |       107256901 |                     0 |     110594922 | 2017-02-04 05:57:18.141517+01

 2017-02-04 08:28:39.66369+01 | 1486193319.66369 |                 0 |              28 |                447523 |                 7565 |           23609660 |       4057520 |            39901 |       107256901 |                     0 |     110607209 | 2017-02-04 05:57:18.141517+01

 2017-02-04 08:28:40.747348+01 | 1486193320.74735 |                 0 |              28 |                447523 |                 7565 |           23609660 |       4058020 |            39906 |       107256901 |                     0 |     110617774 | 2017-02-04 05:57:18.141517+01

 2017-02-04 08:28:41.823817+01 | 1486193321.82382 |                 0 |              28 |                447523 |                 7565 |           23609660 |       4058620 |            39912 |       107256901 |                     0 |     110630267 | 2017-02-04 05:57:18.141517+01

 2017-02-04 08:28:42.902333+01 | 1486193322.90233 |                 0 |              28 |                447523 |                 7565 |           23609660 |       4059120 |            39917 |       107256901 |                     0 |     110639988 | 2017-02-04 05:57:18.141517+01

 2017-02-04 08:28:43.990109+01 | 1486193323.99011 |                 0 |              28 |                447523 |                 7565 |           23609660 |       4059620 |            39922 |       107256901 |                     0 |     110650509 | 2017-02-04 05:57:18.141517+01

 2017-02-04 08:28:45.073041+01 | 1486193325.07304 |                 0 |              28 |                447523 |                 7565 |           23609660 |       4060220 |            39928 |       107256901 |                     0 |     110661708 | 2017-02-04 05:57:18.141517+01

 2017-02-04 08:28:46.153106+01 | 1486193326.15311 |                 0 |              28 |                447523 |                 7565 |           23609660 |       4060720 |            39933 |       107256901 |                     0 |     110671584 | 2017-02-04 05:57:18.141517+01

 2017-02-04 08:28:47.2359+01 | 1486193327.2359 |                 0 |              28 |                447523 |                 7565 |           23609660 |       4061220 |            39938 |       107256901 |                     0 |     110681666 | 2017-02-04 05:57:18.141517+01

 2017-02-04 08:28:48.314108+01 | 1486193328.31411 |                 0 |              28 |                447523 |                 7565 |           23609660 |       4061820 |            39944 |       107256901 |                     0 |     110694470 | 2017-02-04 05:57:18.141517+01

 2017-02-04 08:28:49.39598+01 | 1486193329.39598 |                 0 |              28 |                447523 |                 7565 |           23609660 |       4062320 |            39949 |       107256901 |                     0 |     110704756 | 2017-02-04 05:57:18.141517+01

 2017-02-04 08:28:50.47909+01 | 1486193330.47909 |                 0 |              28 |                447523 |                 7565 |           23609660 |       4062820 |            39954 |       107256901 |                     0 |     110714982 | 2017-02-04 05:57:18.141517+01

 2017-02-04 08:28:51.557864+01 | 1486193331.55786 |                 0 |              28 |                447523 |                 7565 |           23609660 |       4063420 |            39960 |       107256901 |                     0 |     110727231 | 2017-02-04 05:57:18.141517+01

 2017-02-04 08:28:52.637013+01 | 1486193332.63701 |                 0 |              28 |                447523 |                 7565 |           23609660 |       4063920 |            39965 |       107256901 |                     0 |     110737437 | 2017-02-04 05:57:18.141517+01

 2017-02-04 08:28:53.716335+01 | 1486193333.71634 |                 0 |              28 |                447523 |                 7565 |           23609660 |       4064420 |            39970 |       107256901 |                     0 |     110747929 | 2017-02-04 05:57:18.141517+01

 2017-02-04 08:28:54.790173+01 | 1486193334.79017 |                 0 |              28 |                447523 |                 7565 |           23609660 |       4065020 |            39976 |       107256901 |                     0 |     110760507 | 2017-02-04 05:57:18.141517+01

 2017-02-04 08:28:55.872535+01 | 1486193335.87253 |                 0 |              28 |                447523 |                 7565 |           23609660 |       4065520 |            39981 |       107256901 |                     0 |     110770791 | 2017-02-04 05:57:18.141517+01

 2017-02-04 08:28:56.955937+01 | 1486193336.95594 |                 0 |              28 |                447523 |                 7565 |           23609660 |       4066020 |            39986 |       107256901 |                     0 |     110780997 | 2017-02-04 05:57:18.141517+01

 2017-02-04 08:28:58.034787+01 | 1486193338.03479 |                 0 |              28 |                447523 |                 7565 |           23609660 |       4066620 |            39992 |       107256901 |                     0 |     110793251 | 2017-02-04 05:57:18.141517+01

 2017-02-04 08:28:59.122828+01 | 1486193339.12283 |                 0 |              28 |                447523 |                 7565 |           23609660 |       4067120 |            39997 |       107256901 |                     0 |     110802453 | 2017-02-04 05:57:18.141517+01

 2017-02-04 08:29:00.201907+01 | 1486193340.20191 |                 0 |              28 |                447523 |                 7565 |           23609660 |       4067620 |            40002 |       107256901 |                     0 |     110813050 | 2017-02-04 05:57:18.141517+01

 2017-02-04 08:29:01.283231+01 | 1486193341.28323 |                 0 |              28 |                447523 |                 7565 |           23609660 |       4068220 |            40008 |       107256901 |                     0 |     110824577 | 2017-02-04 05:57:18.141517+01

 2017-02-04 08:29:02.361483+01 | 1486193342.36148 |                 0 |              28 |                447523 |                 7565 |           23609660 |       4068720 |            40013 |       107256901 |                     0 |     110835301 | 2017-02-04 05:57:18.141517+01

 2017-02-04 08:29:03.445451+01 | 1486193343.44545 |                 0 |              28 |                447523 |                 7565 |           23609660 |       4069320 |            40019 |       107256901 |                     0 |     110846294 | 2017-02-04 05:57:18.141517+01

 2017-02-04 08:29:04.519904+01 | 1486193344.5199 |                 0 |              28 |                447523 |                 7565 |           23609660 |       4069820 |            40024 |       107256901 |                     0 |     110856796 | 2017-02-04 05:57:18.141517+01

 2017-02-04 08:29:05.612397+01 | 1486193345.6124 |                 0 |              28 |                447523 |                 7565 |           23609660 |       4070320 |            40029 |       107256901 |                     0 |     110867121 | 2017-02-04 05:57:18.141517+01

 2017-02-04 08:29:06.689601+01 | 1486193346.6896 |                 0 |              28 |                447523 |                 7565 |           23609660 |       4070920 |            40035 |       107256901 |                     0 |     110879581 | 2017-02-04 05:57:18.141517+01

 2017-02-04 08:29:07.768018+01 | 1486193347.76802 |                 0 |              28 |                447523 |                 7565 |           23609660 |       4071420 |            40040 |       107758691 |                     0 |     110889820 | 2017-02-04 05:57:18.141517+01

 2017-02-04 08:29:08.849831+01 | 1486193348.84983 |                 0 |              28 |                447523 |                 7565 |           23609660 |       4071920 |            40045 |       107758691 |                     0 |     110900145 | 2017-02-04 05:57:18.141517+01

 2017-02-04 08:29:09.932117+01 | 1486193349.93212 |                 0 |              28 |                447523 |                 7565 |           23609660 |       4072520 |            40051 |       107758691 |                     0 |     110912407 | 2017-02-04 05:57:18.141517+01

 2017-02-04 08:29:11.015325+01 | 1486193351.01533 |                 0 |              28 |                447523 |                 7565 |           23609660 |       4073020 |            40056 |       107758691 |                     0 |     110922812 | 2017-02-04 05:57:18.141517+01

 2017-02-04 08:29:12.090421+01 | 1486193352.09042 |                 0 |              28 |                447523 |                 7565 |           23609660 |       4073520 |            40061 |       107758691 |                     0 |     110931450 | 2017-02-04 05:57:18.141517+01

 2017-02-04 08:29:13.172366+01 | 1486193353.17237 |                 0 |              28 |                447523 |                 7565 |           23609660 |       4074120 |            40067 |       107758691 |                     0 |     110942066 | 2017-02-04 05:57:18.141517+01

 2017-02-04 08:29:14.258099+01 | 1486193354.2581 |                 0 |              28 |                447523 |                 7565 |           23609660 |       4074620 |            40072 |       107758691 |                     0 |     110949693 | 2017-02-04 05:57:18.141517+01

 2017-02-04 08:29:15.335849+01 | 1486193355.33585 |                 0 |              28 |                447523 |                 7565 |           23609660 |       4075120 |            40077 |       107758691 |                     0 |     110957630 | 2017-02-04 05:57:18.141517+01

 2017-02-04 08:29:16.416762+01 | 1486193356.41676 |                 0 |              28 |                447523 |                 7565 |           23609660 |       4075720 |            40083 |       107758691 |                     0 |     110967443 | 2017-02-04 05:57:18.141517+01

 2017-02-04 08:29:17.495078+01 | 1486193357.49508 |                 0 |              28 |                447523 |                 7565 |           23609660 |       4076220 |            40088 |       107758691 |                     0 |     110975255 | 2017-02-04 05:57:18.141517+01

 2017-02-04 08:29:18.570948+01 | 1486193358.57095 |                 0 |              28 |                447523 |                 7565 |           23609660 |       4076720 |            40093 |       107758691 |                     0 |     110983552 | 2017-02-04 05:57:18.141517+01

 2017-02-04 08:29:19.646367+01 | 1486193359.64637 |                 0 |              28 |                447523 |                 7565 |           23609660 |       4077320 |            40099 |       107758691 |                     0 |     110994504 | 2017-02-04 05:57:18.141517+01

 2017-02-04 08:29:20.730901+01 | 1486193360.7309 |                 0 |              28 |                447523 |                 7565 |           23609660 |       4077820 |            40104 |       107758691 |                     0 |     111002244 | 2017-02-04 05:57:18.141517+01

 2017-02-04 08:29:21.817346+01 | 1486193361.81735 |                 0 |              28 |                447523 |                 7565 |           23609660 |       4078420 |            40110 |       107758691 |                     0 |     111013182 | 2017-02-04 05:57:18.141517+01

 2017-02-04 08:29:22.894755+01 | 1486193362.89475 |                 0 |              28 |                447523 |                 7565 |           23609660 |       4078920 |            40115 |       107758691 |                     0 |     111021953 | 2017-02-04 05:57:18.141517+01

 2017-02-04 08:29:23.975347+01 | 1486193363.97535 |                 0 |              28 |                447523 |                 7565 |           23609660 |       4079420 |            40120 |       107758691 |                     0 |     111031770 | 2017-02-04 05:57:18.141517+01

 2017-02-04 08:29:25.056771+01 | 1486193365.05677 |                 0 |              28 |                447523 |                 7565 |           23609660 |       4080020 |            40126 |       107758691 |                     0 |     111044898 | 2017-02-04 05:57:18.141517+01

