 2017-02-03 18:57:03.126192+01 | 1486144623.12619 | 3/1AA34D0                |           12912833744

 2017-02-03 18:57:04.204393+01 | 1486144624.20439 | 3/1AA34D0                |           12912833744

 2017-02-03 18:57:05.294208+01 | 1486144625.29421 | 3/1AA34D0                |           12912833744

 2017-02-03 18:57:06.377401+01 | 1486144626.3774 | 3/1AA34D0                |           12912833744

 2017-02-03 18:57:07.460825+01 | 1486144627.46082 | 3/1AA34D0                |           12912833744

 2017-02-03 18:57:08.543429+01 | 1486144628.54343 | 3/1AA34D0                |           12912833744

 2017-02-03 18:57:09.633259+01 | 1486144629.63326 | 3/1AA34D0                |           12912833744

 2017-02-03 18:57:10.726208+01 | 1486144630.72621 | 3/1AA34D0                |           12912833744

 2017-02-03 18:57:11.817077+01 | 1486144631.81708 | 3/1AA3508                |           12912833800

 2017-02-03 18:57:12.91172+01 | 1486144632.91172 | 3/1AA3508                |           12912833800

 2017-02-03 18:57:14.001126+01 | 1486144634.00113 | 3/1AA3508                |           12912833800

 2017-02-03 18:57:15.092041+01 | 1486144635.09204 | 3/1AA3508                |           12912833800

 2017-02-03 18:57:16.18445+01 | 1486144636.18445 | 3/1AA3508                |           12912833800

 2017-02-03 18:57:17.271971+01 | 1486144637.27197 | 3/1AA3508                |           12912833800

 2017-02-03 18:57:18.355667+01 | 1486144638.35567 | 3/1AA3508                |           12912833800

 2017-02-03 18:57:19.449932+01 | 1486144639.44993 | 3/1AA3508                |           12912833800

 2017-02-03 18:57:20.537847+01 | 1486144640.53785 | 3/1AA3508                |           12912833800

 2017-02-03 18:57:21.626464+01 | 1486144641.62646 | 3/1AA3508                |           12912833800

 2017-02-03 18:57:22.714678+01 | 1486144642.71468 | 3/1AA3508                |           12912833800

 2017-02-03 18:57:23.803699+01 | 1486144643.8037 | 3/1AA3508                |           12912833800

 2017-02-03 18:57:24.89551+01 | 1486144644.89551 | 3/1AA3508                |           12912833800

 2017-02-03 18:57:25.98327+01 | 1486144645.98327 | 3/1AA3508                |           12912833800

 2017-02-03 18:57:27.07761+01 | 1486144647.07761 | 3/1AA3508                |           12912833800

 2017-02-03 18:57:28.171198+01 | 1486144648.1712 | 3/1AA3508                |           12912833800

 2017-02-03 18:57:29.257215+01 | 1486144649.25722 | 3/1AA3508                |           12912833800

 2017-02-03 18:57:30.342595+01 | 1486144650.3426 | 3/1AA3508                |           12912833800

 2017-02-03 18:57:31.436968+01 | 1486144651.43697 | 3/1AA3508                |           12912833800

 2017-02-03 18:57:32.527271+01 | 1486144652.52727 | 3/1AA3508                |           12912833800

 2017-02-03 18:57:33.624107+01 | 1486144653.62411 | 3/1AA3508                |           12912833800

 2017-02-03 18:57:34.719142+01 | 1486144654.71914 | 3/1AA3508                |           12912833800

 2017-02-03 18:57:35.808018+01 | 1486144655.80802 | 3/1AA3508                |           12912833800

 2017-02-03 18:57:36.894354+01 | 1486144656.89435 | 3/1AA3508                |           12912833800

 2017-02-03 18:57:37.985005+01 | 1486144657.985 | 3/1AA3508                |           12912833800

 2017-02-03 18:57:39.074848+01 | 1486144659.07485 | 3/1AA3508                |           12912833800

 2017-02-03 18:57:40.163542+01 | 1486144660.16354 | 3/1AA3508                |           12912833800

 2017-02-03 18:57:41.256989+01 | 1486144661.25699 | 3/1AA3508                |           12912833800

 2017-02-03 18:57:42.351516+01 | 1486144662.35152 | 3/1AA3508                |           12912833800

 2017-02-03 18:57:43.441086+01 | 1486144663.44109 | 3/1AA3508                |           12912833800

 2017-02-03 18:57:44.533885+01 | 1486144664.53389 | 3/1AA3508                |           12912833800

 2017-02-03 18:57:45.627643+01 | 1486144665.62764 | 3/1AA3508                |           12912833800

 2017-02-03 18:57:46.725275+01 | 1486144666.72528 | 3/1AA3508                |           12912833800

 2017-02-03 18:57:47.817405+01 | 1486144667.8174 | 3/1AA3508                |           12912833800

 2017-02-03 18:57:48.908406+01 | 1486144668.90841 | 3/1AA3508                |           12912833800

 2017-02-03 18:57:50.007033+01 | 1486144670.00703 | 3/1AA3508                |           12912833800

 2017-02-03 18:57:51.099479+01 | 1486144671.09948 | 3/1AA3508                |           12912833800

 2017-02-03 18:57:52.183548+01 | 1486144672.18355 | 3/1AA3508                |           12912833800

 2017-02-03 18:57:53.271762+01 | 1486144673.27176 | 3/1AA3508                |           12912833800

 2017-02-03 18:57:54.35503+01 | 1486144674.35503 | 3/1AA3508                |           12912833800

 2017-02-03 18:57:55.441799+01 | 1486144675.4418 | 3/1AA3508                |           12912833800

 2017-02-03 18:57:56.533746+01 | 1486144676.53375 | 3/1AA3508                |           12912833800

 2017-02-03 18:57:57.62195+01 | 1486144677.62195 | 3/1AA3508                |           12912833800

 2017-02-03 18:57:58.712374+01 | 1486144678.71237 | 3/1AA3508                |           12912833800

 2017-02-03 18:57:59.801931+01 | 1486144679.80193 | 3/1AA3508                |           12912833800

 2017-02-03 18:58:00.893996+01 | 1486144680.894 | 3/1AA3508                |           12912833800

 2017-02-03 18:58:01.985052+01 | 1486144681.98505 | 3/1AA3508                |           12912833800

 2017-02-03 18:58:03.074559+01 | 1486144683.07456 | 3/1AA3508                |           12912833800

 2017-02-03 18:58:04.167597+01 | 1486144684.1676 | 3/1AA3508                |           12912833800

 2017-02-03 18:58:05.256755+01 | 1486144685.25676 | 3/1AA3508                |           12912833800

 2017-02-03 18:58:06.351861+01 | 1486144686.35186 | 3/1AA3508                |           12912833800

 2017-02-03 18:58:07.436949+01 | 1486144687.43695 | 3/1AA3508                |           12912833800

 2017-02-03 18:58:08.534291+01 | 1486144688.53429 | 3/1AA3508                |           12912833800

 2017-02-03 18:58:09.626354+01 | 1486144689.62635 | 3/1AA3508                |           12912833800

 2017-02-03 18:58:10.71855+01 | 1486144690.71855 | 3/1AA3508                |           12912833800

 2017-02-03 18:58:11.814456+01 | 1486144691.81446 | 3/1AA3508                |           12912833800

 2017-02-03 18:58:12.905656+01 | 1486144692.90566 | 3/1AA3508                |           12912833800

 2017-02-03 18:58:13.998464+01 | 1486144693.99846 | 3/1AA3508                |           12912833800

 2017-02-03 18:58:15.098588+01 | 1486144695.09859 | 3/1AA3508                |           12912833800

 2017-02-03 18:58:16.189552+01 | 1486144696.18955 | 3/1AA3508                |           12912833800

 2017-02-03 18:58:17.279165+01 | 1486144697.27917 | 3/1AA3508                |           12912833800

 2017-02-03 18:58:18.370179+01 | 1486144698.37018 | 3/1AA3508                |           12912833800

 2017-02-03 18:58:19.455706+01 | 1486144699.45571 | 3/1AA3508                |           12912833800

 2017-02-03 18:58:20.549783+01 | 1486144700.54978 | 3/1AA3508                |           12912833800

 2017-02-03 18:58:21.639276+01 | 1486144701.63928 | 3/1AA3508                |           12912833800

 2017-02-03 18:58:22.73544+01 | 1486144702.73544 | 3/1AA3508                |           12912833800

 2017-02-03 18:58:23.825039+01 | 1486144703.82504 | 3/1AA3508                |           12912833800

 2017-02-03 18:58:24.908261+01 | 1486144704.90826 | 3/1AA3508                |           12912833800

 2017-02-03 18:58:26.005538+01 | 1486144706.00554 | 3/1AA3508                |           12912833800

 2017-02-03 18:58:27.089107+01 | 1486144707.08911 | 3/1AA3508                |           12912833800

 2017-02-03 18:58:28.180262+01 | 1486144708.18026 | 3/1AA3508                |           12912833800

 2017-02-03 18:58:29.276815+01 | 1486144709.27681 | 3/1AA3508                |           12912833800

 2017-02-03 18:58:30.366856+01 | 1486144710.36686 | 3/1AA3508                |           12912833800

 2017-02-03 18:58:31.454199+01 | 1486144711.4542 | 3/1AA3508                |           12912833800

 2017-02-03 18:58:32.547955+01 | 1486144712.54796 | 3/1AA3508                |           12912833800

 2017-02-03 18:58:33.635496+01 | 1486144713.6355 | 3/1AA3508                |           12912833800

 2017-02-03 18:58:34.724745+01 | 1486144714.72475 | 3/1AA3508                |           12912833800

 2017-02-03 18:58:35.814569+01 | 1486144715.81457 | 3/1AA3508                |           12912833800

 2017-02-03 18:58:36.909833+01 | 1486144716.90983 | 3/1AA3508                |           12912833800

 2017-02-03 18:58:37.996692+01 | 1486144717.99669 | 3/1AA3508                |           12912833800

 2017-02-03 18:58:39.092372+01 | 1486144719.09237 | 3/1AA3508                |           12912833800

 2017-02-03 18:58:40.186006+01 | 1486144720.18601 | 3/1AA3508                |           12912833800

 2017-02-03 18:58:41.287276+01 | 1486144721.28728 | 3/1AA3508                |           12912833800

 2017-02-03 18:58:42.377547+01 | 1486144722.37755 | 3/1AA3508                |           12912833800

 2017-02-03 18:58:43.468986+01 | 1486144723.46899 | 3/1AA3508                |           12912833800

 2017-02-03 18:58:44.558914+01 | 1486144724.55891 | 3/1AA3508                |           12912833800

 2017-02-03 18:58:45.654582+01 | 1486144725.65458 | 3/1AA3508                |           12912833800

 2017-02-03 18:58:46.751128+01 | 1486144726.75113 | 3/1AA3508                |           12912833800

 2017-02-03 18:58:47.85495+01 | 1486144727.85495 | 3/1AA3508                |           12912833800

 2017-02-03 18:58:48.94538+01 | 1486144728.94538 | 3/1AA3508                |           12912833800

 2017-02-03 18:58:50.033863+01 | 1486144730.03386 | 3/1AA3508                |           12912833800

 2017-02-03 18:58:51.122666+01 | 1486144731.12267 | 3/1AA3508                |           12912833800

 2017-02-03 18:58:52.210469+01 | 1486144732.21047 | 3/1AA3508                |           12912833800

 2017-02-03 18:58:53.297641+01 | 1486144733.29764 | 3/1AA3508                |           12912833800

 2017-02-03 18:58:54.399443+01 | 1486144734.39944 | 3/1AA3508                |           12912833800

 2017-02-03 18:58:55.48682+01 | 1486144735.48682 | 3/1AA3508                |           12912833800

 2017-02-03 18:58:56.579992+01 | 1486144736.57999 | 3/1AA3508                |           12912833800

 2017-02-03 18:58:57.677014+01 | 1486144737.67701 | 3/1AA3508                |           12912833800

 2017-02-03 18:58:58.773465+01 | 1486144738.77346 | 3/1AA3508                |           12912833800

 2017-02-03 18:58:59.865463+01 | 1486144739.86546 | 3/1AA3508                |           12912833800

 2017-02-03 18:59:00.954175+01 | 1486144740.95417 | 3/1AA3508                |           12912833800

 2017-02-03 18:59:02.043536+01 | 1486144742.04354 | 3/1AA3508                |           12912833800

 2017-02-03 18:59:03.137445+01 | 1486144743.13744 | 3/1AA3508                |           12912833800

 2017-02-03 18:59:04.231855+01 | 1486144744.23185 | 3/1AA3508                |           12912833800

 2017-02-03 18:59:05.32259+01 | 1486144745.32259 | 3/1AA3508                |           12912833800

 2017-02-03 18:59:06.415759+01 | 1486144746.41576 | 3/1AA3508                |           12912833800

 2017-02-03 18:59:07.50946+01 | 1486144747.50946 | 3/1AA3508                |           12912833800

 2017-02-03 18:59:08.604739+01 | 1486144748.60474 | 3/1AA3508                |           12912833800

 2017-02-03 18:59:09.691798+01 | 1486144749.6918 | 3/1AA3508                |           12912833800

 2017-02-03 18:59:10.781254+01 | 1486144750.78125 | 3/1AA3508                |           12912833800

 2017-02-03 18:59:11.869454+01 | 1486144751.86945 | 3/1AA3508                |           12912833800

 2017-02-03 18:59:12.957629+01 | 1486144752.95763 | 3/1AA3508                |           12912833800

 2017-02-03 18:59:14.057763+01 | 1486144754.05776 | 3/1AA3508                |           12912833800

 2017-02-03 18:59:15.148434+01 | 1486144755.14843 | 3/1AA3508                |           12912833800

 2017-02-03 18:59:16.236576+01 | 1486144756.23658 | 3/1AA3508                |           12912833800

 2017-02-03 18:59:17.320513+01 | 1486144757.32051 | 3/1AA3508                |           12912833800

 2017-02-03 18:59:18.405229+01 | 1486144758.40523 | 3/1AA3508                |           12912833800

 2017-02-03 18:59:19.489158+01 | 1486144759.48916 | 3/1AA3508                |           12912833800

 2017-02-03 18:59:20.580587+01 | 1486144760.58059 | 3/1AA3508                |           12912833800

 2017-02-03 18:59:21.671438+01 | 1486144761.67144 | 3/1AA3508                |           12912833800

 2017-02-03 18:59:22.765366+01 | 1486144762.76537 | 3/1AA3508                |           12912833800

 2017-02-03 18:59:23.853731+01 | 1486144763.85373 | 3/1AA3508                |           12912833800

 2017-02-03 18:59:24.939042+01 | 1486144764.93904 | 3/1AA3508                |           12912833800

 2017-02-03 18:59:26.025762+01 | 1486144766.02576 | 3/1AA3508                |           12912833800

 2017-02-03 18:59:27.121423+01 | 1486144767.12142 | 3/1AA3508                |           12912833800

 2017-02-03 18:59:28.22443+01 | 1486144768.22443 | 3/1AA3508                |           12912833800

 2017-02-03 18:59:29.322581+01 | 1486144769.32258 | 3/1AA3508                |           12912833800

 2017-02-03 18:59:30.415477+01 | 1486144770.41548 | 3/1AA3508                |           12912833800

 2017-02-03 18:59:31.508466+01 | 1486144771.50847 | 3/1AA3508                |           12912833800

 2017-02-03 18:59:32.597638+01 | 1486144772.59764 | 3/1AA3508                |           12912833800

 2017-02-03 18:59:33.680445+01 | 1486144773.68044 | 3/1AA3508                |           12912833800

 2017-02-03 18:59:34.773074+01 | 1486144774.77307 | 3/1AA3508                |           12912833800

 2017-02-03 18:59:35.868951+01 | 1486144775.86895 | 3/1AA3508                |           12912833800

 2017-02-03 18:59:36.964136+01 | 1486144776.96414 | 3/1AA3508                |           12912833800

 2017-02-03 18:59:38.054785+01 | 1486144778.05479 | 3/1AA3508                |           12912833800

 2017-02-03 18:59:39.140587+01 | 1486144779.14059 | 3/1AA3508                |           12912833800

 2017-02-03 18:59:40.227231+01 | 1486144780.22723 | 3/1AA3508                |           12912833800

 2017-02-03 18:59:41.321466+01 | 1486144781.32147 | 3/1AA3508                |           12912833800

 2017-02-03 18:59:42.413301+01 | 1486144782.4133 | 3/1AA3508                |           12912833800

 2017-02-03 18:59:43.511244+01 | 1486144783.51124 | 3/1AA3508                |           12912833800

 2017-02-03 18:59:44.592585+01 | 1486144784.59259 | 3/1AA3508                |           12912833800

 2017-02-03 18:59:45.677238+01 | 1486144785.67724 | 3/1AA3508                |           12912833800

 2017-02-03 18:59:46.761383+01 | 1486144786.76138 | 3/1AA3508                |           12912833800

 2017-02-03 18:59:47.852179+01 | 1486144787.85218 | 3/1AA3508                |           12912833800

 2017-02-03 18:59:48.946971+01 | 1486144788.94697 | 3/1AA3508                |           12912833800

 2017-02-03 18:59:50.03561+01 | 1486144790.03561 | 3/1AA3508                |           12912833800

 2017-02-03 18:59:51.119658+01 | 1486144791.11966 | 3/1AA3508                |           12912833800

 2017-02-03 18:59:52.220725+01 | 1486144792.22073 | 3/1AA3508                |           12912833800

 2017-02-03 18:59:53.304331+01 | 1486144793.30433 | 3/1AA3508                |           12912833800

 2017-02-03 18:59:54.391104+01 | 1486144794.3911 | 3/1AA3508                |           12912833800

 2017-02-03 18:59:55.480363+01 | 1486144795.48036 | 3/1AA3508                |           12912833800

 2017-02-03 18:59:56.576879+01 | 1486144796.57688 | 3/1AA3508                |           12912833800

 2017-02-03 18:59:57.668892+01 | 1486144797.66889 | 3/1AA3508                |           12912833800

 2017-02-03 18:59:58.760393+01 | 1486144798.76039 | 3/1AA3508                |           12912833800

 2017-02-03 18:59:59.849439+01 | 1486144799.84944 | 3/1AA3508                |           12912833800

 2017-02-03 19:00:00.93609+01 | 1486144800.93609 | 3/1AA3508                |           12912833800

 2017-02-03 19:00:02.025852+01 | 1486144802.02585 | 3/1AA3508                |           12912833800

 2017-02-03 19:00:03.115215+01 | 1486144803.11522 | 3/1AA3508                |           12912833800

 2017-02-03 19:00:04.204935+01 | 1486144804.20494 | 3/1AA3508                |           12912833800

 2017-02-03 19:00:05.299802+01 | 1486144805.2998 | 3/1AA3508                |           12912833800

 2017-02-03 19:00:06.398598+01 | 1486144806.3986 | 3/1AA3508                |           12912833800

 2017-02-03 19:00:07.488837+01 | 1486144807.48884 | 3/1AA3508                |           12912833800

 2017-02-03 19:00:08.58089+01 | 1486144808.58089 | 3/1AA3508                |           12912833800

 2017-02-03 19:00:09.679243+01 | 1486144809.67924 | 3/1AA3508                |           12912833800

 2017-02-03 19:00:10.782034+01 | 1486144810.78203 | 3/1AA3508                |           12912833800

 2017-02-03 19:00:11.877765+01 | 1486144811.87776 | 3/1AA3508                |           12912833800

 2017-02-03 19:00:12.969437+01 | 1486144812.96944 | 3/1AA3508                |           12912833800

 2017-02-03 19:00:14.065756+01 | 1486144814.06576 | 3/1AA3508                |           12912833800

 2017-02-03 19:00:15.150709+01 | 1486144815.15071 | 3/1AA3508                |           12912833800

 2017-02-03 19:00:16.242733+01 | 1486144816.24273 | 3/1AA3508                |           12912833800

 2017-02-03 19:00:17.333057+01 | 1486144817.33306 | 3/1AA3508                |           12912833800

 2017-02-03 19:00:18.420786+01 | 1486144818.42079 | 3/1AA3508                |           12912833800

 2017-02-03 19:00:19.510882+01 | 1486144819.51088 | 3/1AA3508                |           12912833800

 2017-02-03 19:00:20.597103+01 | 1486144820.5971 | 3/1AA3508                |           12912833800

 2017-02-03 19:00:21.688184+01 | 1486144821.68818 | 3/1AA3508                |           12912833800

 2017-02-03 19:00:22.773229+01 | 1486144822.77323 | 3/1AA3508                |           12912833800

 2017-02-03 19:00:23.866192+01 | 1486144823.86619 | 3/1AA3508                |           12912833800

 2017-02-03 19:00:24.960471+01 | 1486144824.96047 | 3/1AA3508                |           12912833800

 2017-02-03 19:00:26.041284+01 | 1486144826.04128 | 3/1AA3508                |           12912833800

 2017-02-03 19:00:27.124724+01 | 1486144827.12472 | 3/1AA3508                |           12912833800

 2017-02-03 19:00:28.217342+01 | 1486144828.21734 | 3/1AA3508                |           12912833800

 2017-02-03 19:00:29.311213+01 | 1486144829.31121 | 3/1AA3508                |           12912833800

 2017-02-03 19:00:30.402234+01 | 1486144830.40223 | 3/1AA3508                |           12912833800

 2017-02-03 19:00:31.498169+01 | 1486144831.49817 | 3/1AA3508                |           12912833800

 2017-02-03 19:00:32.587628+01 | 1486144832.58763 | 3/1AA3508                |           12912833800

 2017-02-03 19:00:33.681598+01 | 1486144833.6816 | 3/1AA3508                |           12912833800

 2017-02-03 19:00:34.770943+01 | 1486144834.77094 | 3/1AA3508                |           12912833800

 2017-02-03 19:00:35.871046+01 | 1486144835.87105 | 3/1AA3508                |           12912833800

 2017-02-03 19:00:36.951887+01 | 1486144836.95189 | 3/1AA3508                |           12912833800

 2017-02-03 19:00:38.040428+01 | 1486144838.04043 | 3/1AA3508                |           12912833800

 2017-02-03 19:00:39.132933+01 | 1486144839.13293 | 3/1AA3508                |           12912833800

 2017-02-03 19:00:40.231676+01 | 1486144840.23168 | 3/1AA3508                |           12912833800

 2017-02-03 19:00:41.319593+01 | 1486144841.31959 | 3/1AA3508                |           12912833800

 2017-02-03 19:00:42.402012+01 | 1486144842.40201 | 3/1AA3508                |           12912833800

 2017-02-03 19:00:43.49224+01 | 1486144843.49224 | 3/1AA3508                |           12912833800

 2017-02-03 19:00:44.585224+01 | 1486144844.58522 | 3/1AA3508                |           12912833800

 2017-02-03 19:00:45.678947+01 | 1486144845.67895 | 3/1AA3508                |           12912833800

 2017-02-03 19:00:46.764317+01 | 1486144846.76432 | 3/1AA3508                |           12912833800

 2017-02-03 19:00:47.858986+01 | 1486144847.85899 | 3/1AA3508                |           12912833800

 2017-02-03 19:00:48.948899+01 | 1486144848.9489 | 3/1AA3508                |           12912833800

 2017-02-03 19:00:50.04177+01 | 1486144850.04177 | 3/1AA3508                |           12912833800

 2017-02-03 19:00:51.134003+01 | 1486144851.134 | 3/1AA3508                |           12912833800

 2017-02-03 19:00:52.220171+01 | 1486144852.22017 | 3/1AA3508                |           12912833800

 2017-02-03 19:00:53.316687+01 | 1486144853.31669 | 3/1AA3508                |           12912833800

 2017-02-03 19:00:54.406796+01 | 1486144854.4068 | 3/1AA3508                |           12912833800

 2017-02-03 19:00:55.487976+01 | 1486144855.48798 | 3/1AA3508                |           12912833800

 2017-02-03 19:00:56.586885+01 | 1486144856.58688 | 3/1AA3508                |           12912833800

 2017-02-03 19:00:57.675113+01 | 1486144857.67511 | 3/1AA3508                |           12912833800

 2017-02-03 19:00:58.760789+01 | 1486144858.76079 | 3/1AA3508                |           12912833800

 2017-02-03 19:00:59.85175+01 | 1486144859.85175 | 3/1AA3508                |           12912833800

 2017-02-03 19:01:00.945206+01 | 1486144860.94521 | 3/1AA3508                |           12912833800

 2017-02-03 19:01:02.040869+01 | 1486144862.04087 | 3/1AA3508                |           12912833800

 2017-02-03 19:01:03.125076+01 | 1486144863.12508 | 3/1AA3508                |           12912833800

 2017-02-03 19:01:04.220237+01 | 1486144864.22024 | 3/1AA3508                |           12912833800

 2017-02-03 19:01:05.313251+01 | 1486144865.31325 | 3/1AA3508                |           12912833800

 2017-02-03 19:01:06.414568+01 | 1486144866.41457 | 3/1AA3508                |           12912833800

 2017-02-03 19:01:07.512002+01 | 1486144867.512 | 3/1AA3508                |           12912833800

 2017-02-03 19:01:08.609041+01 | 1486144868.60904 | 3/1AA3508                |           12912833800

 2017-02-03 19:01:09.7072+01 | 1486144869.7072 | 3/1AA3508                |           12912833800

 2017-02-03 19:01:10.799836+01 | 1486144870.79984 | 3/1AA3508                |           12912833800

 2017-02-03 19:01:11.908033+01 | 1486144871.90803 | 3/1AA3508                |           12912833800

 2017-02-03 19:01:12.995607+01 | 1486144872.99561 | 3/1AA3508                |           12912833800

 2017-02-03 19:01:14.088895+01 | 1486144874.0889 | 3/1AA3508                |           12912833800

 2017-02-03 19:01:15.180287+01 | 1486144875.18029 | 3/1AA3508                |           12912833800

 2017-02-03 19:01:16.27118+01 | 1486144876.27118 | 3/1AA3508                |           12912833800

 2017-02-03 19:01:17.357879+01 | 1486144877.35788 | 3/1AA3508                |           12912833800

 2017-02-03 19:01:18.450287+01 | 1486144878.45029 | 3/1AA3508                |           12912833800

 2017-02-03 19:01:19.543438+01 | 1486144879.54344 | 3/1AA3508                |           12912833800

 2017-02-03 19:01:20.635702+01 | 1486144880.6357 | 3/1AA3508                |           12912833800

 2017-02-03 19:01:21.729451+01 | 1486144881.72945 | 3/1AA3508                |           12912833800

 2017-02-03 19:01:22.815888+01 | 1486144882.81589 | 3/1AA3508                |           12912833800

 2017-02-03 19:01:23.903619+01 | 1486144883.90362 | 3/1AA3508                |           12912833800

 2017-02-03 19:01:25.000237+01 | 1486144885.00024 | 3/1AA3508                |           12912833800

 2017-02-03 19:01:26.095815+01 | 1486144886.09581 | 3/1AA3508                |           12912833800

 2017-02-03 19:01:27.18896+01 | 1486144887.18896 | 3/1AA3508                |           12912833800

 2017-02-03 19:01:28.278599+01 | 1486144888.2786 | 3/1AA3508                |           12912833800

 2017-02-03 19:01:29.368218+01 | 1486144889.36822 | 3/1AA3508                |           12912833800

 2017-02-03 19:01:30.465395+01 | 1486144890.46539 | 3/1AA3508                |           12912833800

 2017-02-03 19:01:31.561582+01 | 1486144891.56158 | 3/1AA3508                |           12912833800

 2017-02-03 19:01:32.648787+01 | 1486144892.64879 | 3/1AA3508                |           12912833800

 2017-02-03 19:01:33.737331+01 | 1486144893.73733 | 3/1AA3508                |           12912833800

 2017-02-03 19:01:34.834421+01 | 1486144894.83442 | 3/1AA3508                |           12912833800

 2017-02-03 19:01:35.933187+01 | 1486144895.93319 | 3/1AA3508                |           12912833800

 2017-02-03 19:01:37.018767+01 | 1486144897.01877 | 3/1AA3508                |           12912833800

 2017-02-03 19:01:38.107614+01 | 1486144898.10761 | 3/1AA3508                |           12912833800

 2017-02-03 19:01:39.194514+01 | 1486144899.19451 | 3/1AA3508                |           12912833800

 2017-02-03 19:01:40.274784+01 | 1486144900.27478 | 3/1AA3508                |           12912833800

 2017-02-03 19:01:41.361042+01 | 1486144901.36104 | 3/1AA3508                |           12912833800

 2017-02-03 19:01:42.45376+01 | 1486144902.45376 | 3/1AA3508                |           12912833800

 2017-02-03 19:01:43.53981+01 | 1486144903.53981 | 3/1AA3508                |           12912833800

 2017-02-03 19:01:44.633293+01 | 1486144904.63329 | 3/1AA3508                |           12912833800

 2017-02-03 19:01:45.724649+01 | 1486144905.72465 | 3/1AA3508                |           12912833800

 2017-02-03 19:01:46.816662+01 | 1486144906.81666 | 3/1AA3508                |           12912833800

 2017-02-03 19:01:47.907934+01 | 1486144907.90793 | 3/1AA3508                |           12912833800

 2017-02-03 19:01:48.994604+01 | 1486144908.9946 | 3/1AA3508                |           12912833800

 2017-02-03 19:01:50.08359+01 | 1486144910.08359 | 3/1AA3508                |           12912833800

 2017-02-03 19:01:51.180773+01 | 1486144911.18077 | 3/1AA3508                |           12912833800

 2017-02-03 19:01:52.264252+01 | 1486144912.26425 | 3/1AA3508                |           12912833800

 2017-02-03 19:01:53.353774+01 | 1486144913.35377 | 3/1AA3508                |           12912833800

 2017-02-03 19:01:54.444331+01 | 1486144914.44433 | 3/1AA3508                |           12912833800

 2017-02-03 19:01:55.529522+01 | 1486144915.52952 | 3/1AA3508                |           12912833800

 2017-02-03 19:01:56.624066+01 | 1486144916.62407 | 3/1AA3508                |           12912833800

 2017-02-03 19:01:57.716404+01 | 1486144917.7164 | 3/1AA3508                |           12912833800

 2017-02-03 19:01:58.805119+01 | 1486144918.80512 | 3/1AA3508                |           12912833800

 2017-02-03 19:01:59.895622+01 | 1486144919.89562 | 3/1AA3508                |           12912833800

 2017-02-03 19:02:00.984982+01 | 1486144920.98498 | 3/1AA3508                |           12912833800

 2017-02-03 19:02:02.069304+01 | 1486144922.0693 | 3/1AA3508                |           12912833800

 2017-02-03 19:02:03.15821+01 | 1486144923.15821 | 3/1AA3508                |           12912833800

 2017-02-03 19:02:04.253449+01 | 1486144924.25345 | 3/1AA3508                |           12912833800

 2017-02-03 19:02:05.338307+01 | 1486144925.33831 | 3/1AA3508                |           12912833800

 2017-02-03 19:02:06.433751+01 | 1486144926.43375 | 3/1AA3508                |           12912833800

 2017-02-03 19:02:07.526826+01 | 1486144927.52683 | 3/1AA3508                |           12912833800

 2017-02-03 19:02:08.623937+01 | 1486144928.62394 | 3/1AA3508                |           12912833800

 2017-02-03 19:02:09.719628+01 | 1486144929.71963 | 3/1AA3508                |           12912833800

 2017-02-03 19:02:10.811559+01 | 1486144930.81156 | 3/1AA3508                |           12912833800

 2017-02-03 19:02:11.909662+01 | 1486144931.90966 | 3/1AA3508                |           12912833800

 2017-02-03 19:02:13.000468+01 | 1486144933.00047 | 3/1AA3508                |           12912833800

 2017-02-03 19:02:14.093201+01 | 1486144934.0932 | 3/1AA3508                |           12912833800

 2017-02-03 19:02:15.189603+01 | 1486144935.1896 | 3/1AA3508                |           12912833800

 2017-02-03 19:02:16.282753+01 | 1486144936.28275 | 3/1AA3508                |           12912833800

 2017-02-03 19:02:17.373933+01 | 1486144937.37393 | 3/1AA3508                |           12912833800

 2017-02-03 19:02:18.474024+01 | 1486144938.47402 | 3/1AA3508                |           12912833800

 2017-02-03 19:02:19.566621+01 | 1486144939.56662 | 3/1AA3508                |           12912833800

 2017-02-03 19:02:20.659577+01 | 1486144940.65958 | 3/1AA3508                |           12912833800

 2017-02-03 19:02:21.754654+01 | 1486144941.75465 | 3/1AA3508                |           12912833800

 2017-02-03 19:02:22.844906+01 | 1486144942.84491 | 3/1AA3508                |           12912833800

 2017-02-03 19:02:23.935013+01 | 1486144943.93501 | 3/1AA3508                |           12912833800

 2017-02-03 19:02:25.022911+01 | 1486144945.02291 | 3/1AA3508                |           12912833800

 2017-02-03 19:02:26.11413+01 | 1486144946.11413 | 3/1AA3508                |           12912833800

 2017-02-03 19:02:27.200797+01 | 1486144947.2008 | 3/1AA3508                |           12912833800

 2017-02-03 19:02:28.29345+01 | 1486144948.29345 | 3/1AA3508                |           12912833800

 2017-02-03 19:02:29.379043+01 | 1486144949.37904 | 3/1AA3508                |           12912833800

 2017-02-03 19:02:30.471883+01 | 1486144950.47188 | 3/1AA3508                |           12912833800

 2017-02-03 19:02:31.560878+01 | 1486144951.56088 | 3/1AA3508                |           12912833800

 2017-02-03 19:02:32.649807+01 | 1486144952.64981 | 3/1AA3508                |           12912833800

 2017-02-03 19:02:33.745762+01 | 1486144953.74576 | 3/1AA3508                |           12912833800

 2017-02-03 19:02:34.832601+01 | 1486144954.8326 | 3/1AA3508                |           12912833800

 2017-02-03 19:02:35.926896+01 | 1486144955.9269 | 3/1AA3508                |           12912833800

 2017-02-03 19:02:37.011992+01 | 1486144957.01199 | 3/1AA3508                |           12912833800

 2017-02-03 19:02:38.102644+01 | 1486144958.10264 | 3/1AA3508                |           12912833800

 2017-02-03 19:02:39.193212+01 | 1486144959.19321 | 3/1AA3508                |           12912833800

 2017-02-03 19:02:40.282428+01 | 1486144960.28243 | 3/1AA3508                |           12912833800

 2017-02-03 19:02:41.366721+01 | 1486144961.36672 | 3/1AA3508                |           12912833800

 2017-02-03 19:02:42.463818+01 | 1486144962.46382 | 3/1AA3508                |           12912833800

 2017-02-03 19:02:43.559919+01 | 1486144963.55992 | 3/1AA3508                |           12912833800

 2017-02-03 19:02:44.64932+01 | 1486144964.64932 | 3/1AA3508                |           12912833800

 2017-02-03 19:02:45.747039+01 | 1486144965.74704 | 3/1AA3508                |           12912833800

 2017-02-03 19:02:46.840896+01 | 1486144966.8409 | 3/1AA3508                |           12912833800

 2017-02-03 19:02:47.93387+01 | 1486144967.93387 | 3/1AA3508                |           12912833800

 2017-02-03 19:02:49.020188+01 | 1486144969.02019 | 3/1AA3508                |           12912833800

 2017-02-03 19:02:50.119214+01 | 1486144970.11921 | 3/1AA3508                |           12912833800

 2017-02-03 19:02:51.207944+01 | 1486144971.20794 | 3/1AA3508                |           12912833800

 2017-02-03 19:02:52.29628+01 | 1486144972.29628 | 3/1AA3508                |           12912833800

 2017-02-03 19:02:53.3834+01 | 1486144973.3834 | 3/1AA3508                |           12912833800

 2017-02-03 19:02:54.482078+01 | 1486144974.48208 | 3/1AA3508                |           12912833800

 2017-02-03 19:02:55.569178+01 | 1486144975.56918 | 3/1AA3508                |           12912833800

 2017-02-03 19:02:56.660729+01 | 1486144976.66073 | 3/1AA3508                |           12912833800

 2017-02-03 19:02:57.765263+01 | 1486144977.76526 | 3/1AA3508                |           12912833800

 2017-02-03 19:02:58.857527+01 | 1486144978.85753 | 3/1AA3508                |           12912833800

 2017-02-03 19:02:59.942822+01 | 1486144979.94282 | 3/1AA3508                |           12912833800

 2017-02-03 19:03:01.027732+01 | 1486144981.02773 | 3/1AA3508                |           12912833800

 2017-02-03 19:03:02.115378+01 | 1486144982.11538 | 3/1AA3508                |           12912833800

 2017-02-03 19:03:03.205031+01 | 1486144983.20503 | 3/1AA3508                |           12912833800

 2017-02-03 19:03:04.296361+01 | 1486144984.29636 | 3/1AA3508                |           12912833800

 2017-02-03 19:03:05.383595+01 | 1486144985.38359 | 3/1AA3508                |           12912833800

 2017-02-03 19:03:06.4755+01 | 1486144986.4755 | 3/1AA3508                |           12912833800

 2017-02-03 19:03:07.560504+01 | 1486144987.5605 | 3/1AA3508                |           12912833800

 2017-02-03 19:03:08.660741+01 | 1486144988.66074 | 3/1AA3508                |           12912833800

 2017-02-03 19:03:09.750239+01 | 1486144989.75024 | 3/1AA3508                |           12912833800

 2017-02-03 19:03:10.846175+01 | 1486144990.84617 | 3/1AA3508                |           12912833800

 2017-02-03 19:03:11.934466+01 | 1486144991.93447 | 3/1AA3508                |           12912833800

 2017-02-03 19:03:13.0154+01 | 1486144993.0154 | 3/1AA3508                |           12912833800

 2017-02-03 19:03:14.100955+01 | 1486144994.10096 | 3/1AA3508                |           12912833800

 2017-02-03 19:03:15.193631+01 | 1486144995.19363 | 3/1AA3508                |           12912833800

 2017-02-03 19:03:16.288511+01 | 1486144996.28851 | 3/1AA3508                |           12912833800

 2017-02-03 19:03:17.381+01 | 1486144997.381 | 3/1AA3508                |           12912833800

 2017-02-03 19:03:18.476929+01 | 1486144998.47693 | 3/1AA3508                |           12912833800

 2017-02-03 19:03:19.565831+01 | 1486144999.56583 | 3/1AA3508                |           12912833800

 2017-02-03 19:03:20.659755+01 | 1486145000.65975 | 3/1AA3508                |           12912833800

 2017-02-03 19:03:21.746031+01 | 1486145001.74603 | 3/1AA3508                |           12912833800

 2017-02-03 19:03:22.831046+01 | 1486145002.83105 | 3/1AA3508                |           12912833800

 2017-02-03 19:03:23.91858+01 | 1486145003.91858 | 3/1AA3508                |           12912833800

 2017-02-03 19:03:25.008159+01 | 1486145005.00816 | 3/1AA3508                |           12912833800

 2017-02-03 19:03:26.102232+01 | 1486145006.10223 | 3/1AA3508                |           12912833800

 2017-02-03 19:03:27.193108+01 | 1486145007.19311 | 3/1AA3508                |           12912833800

 2017-02-03 19:03:28.286903+01 | 1486145008.2869 | 3/1AA3508                |           12912833800

 2017-02-03 19:03:29.378656+01 | 1486145009.37866 | 3/1AA3508                |           12912833800

 2017-02-03 19:03:30.465201+01 | 1486145010.4652 | 3/1AA3508                |           12912833800

 2017-02-03 19:03:31.559743+01 | 1486145011.55974 | 3/1AA3508                |           12912833800

 2017-02-03 19:03:32.651102+01 | 1486145012.6511 | 3/1AA3508                |           12912833800

 2017-02-03 19:03:33.746984+01 | 1486145013.74698 | 3/1AA3508                |           12912833800

 2017-02-03 19:03:34.836851+01 | 1486145014.83685 | 3/1AA3508                |           12912833800

 2017-02-03 19:03:35.94226+01 | 1486145015.94226 | 3/1AA3508                |           12912833800

 2017-02-03 19:03:37.03589+01 | 1486145017.03589 | 3/1AA3508                |           12912833800

 2017-02-03 19:03:38.138121+01 | 1486145018.13812 | 3/1AA3508                |           12912833800

 2017-02-03 19:03:39.228562+01 | 1486145019.22856 | 3/1AA3508                |           12912833800

 2017-02-03 19:03:40.309021+01 | 1486145020.30902 | 3/1AA3508                |           12912833800

 2017-02-03 19:03:41.400798+01 | 1486145021.4008 | 3/1AA3508                |           12912833800

 2017-02-03 19:03:42.490934+01 | 1486145022.49093 | 3/1AA3508                |           12912833800

 2017-02-03 19:03:43.583412+01 | 1486145023.58341 | 3/1AA3508                |           12912833800

 2017-02-03 19:03:44.672257+01 | 1486145024.67226 | 3/1AA3508                |           12912833800

 2017-02-03 19:03:45.763311+01 | 1486145025.76331 | 3/1AA3508                |           12912833800

 2017-02-03 19:03:46.854805+01 | 1486145026.8548 | 3/1AA3508                |           12912833800

 2017-02-03 19:03:47.944921+01 | 1486145027.94492 | 3/1AA3508                |           12912833800

 2017-02-03 19:03:49.041091+01 | 1486145029.04109 | 3/1AA3508                |           12912833800

 2017-02-03 19:03:50.131206+01 | 1486145030.13121 | 3/1AA3508                |           12912833800

 2017-02-03 19:03:51.216913+01 | 1486145031.21691 | 3/1AA3508                |           12912833800

 2017-02-03 19:03:52.309047+01 | 1486145032.30905 | 3/1AA3508                |           12912833800

 2017-02-03 19:03:53.406326+01 | 1486145033.40633 | 3/1AA3508                |           12912833800

 2017-02-03 19:03:54.498824+01 | 1486145034.49882 | 3/1AA3508                |           12912833800

 2017-02-03 19:03:55.585719+01 | 1486145035.58572 | 3/1AA3508                |           12912833800

 2017-02-03 19:03:56.670638+01 | 1486145036.67064 | 3/1AA3508                |           12912833800

 2017-02-03 19:03:57.756685+01 | 1486145037.75669 | 3/1AA3508                |           12912833800

 2017-02-03 19:03:58.839336+01 | 1486145038.83934 | 3/1AA3508                |           12912833800

 2017-02-03 19:03:59.932658+01 | 1486145039.93266 | 3/1AA3508                |           12912833800

 2017-02-03 19:04:01.025234+01 | 1486145041.02523 | 3/1AA3508                |           12912833800

 2017-02-03 19:04:02.118429+01 | 1486145042.11843 | 3/1AA3508                |           12912833800

 2017-02-03 19:04:03.207+01 | 1486145043.207 | 3/1AA3508                |           12912833800

 2017-02-03 19:04:04.294905+01 | 1486145044.2949 | 3/1AA3508                |           12912833800

 2017-02-03 19:04:05.389929+01 | 1486145045.38993 | 3/1AA3508                |           12912833800

 2017-02-03 19:04:06.482344+01 | 1486145046.48234 | 3/1AA3508                |           12912833800

 2017-02-03 19:04:07.570517+01 | 1486145047.57052 | 3/1AA3508                |           12912833800

 2017-02-03 19:04:08.661271+01 | 1486145048.66127 | 3/1AA3508                |           12912833800

 2017-02-03 19:04:09.741959+01 | 1486145049.74196 | 3/1AA3508                |           12912833800

 2017-02-03 19:04:10.828653+01 | 1486145050.82865 | 3/1AA3508                |           12912833800

 2017-02-03 19:04:11.909857+01 | 1486145051.90986 | 3/1AA3508                |           12912833800

 2017-02-03 19:04:13.008824+01 | 1486145053.00882 | 3/1AA3508                |           12912833800

 2017-02-03 19:04:14.092232+01 | 1486145054.09223 | 3/1AA3508                |           12912833800

 2017-02-03 19:04:15.174478+01 | 1486145055.17448 | 3/1AA3508                |           12912833800

 2017-02-03 19:04:16.264971+01 | 1486145056.26497 | 3/1AA3508                |           12912833800

 2017-02-03 19:04:17.350275+01 | 1486145057.35028 | 3/1AA3508                |           12912833800

 2017-02-03 19:04:18.44336+01 | 1486145058.44336 | 3/1AA3508                |           12912833800

 2017-02-03 19:04:19.537506+01 | 1486145059.53751 | 3/1AA3508                |           12912833800

 2017-02-03 19:04:20.629296+01 | 1486145060.6293 | 3/1AA3508                |           12912833800

 2017-02-03 19:04:21.719742+01 | 1486145061.71974 | 3/1AA3508                |           12912833800

 2017-02-03 19:04:22.808966+01 | 1486145062.80897 | 3/1AA3508                |           12912833800

 2017-02-03 19:04:23.899727+01 | 1486145063.89973 | 3/1AA3508                |           12912833800

 2017-02-03 19:04:25.0024+01 | 1486145065.0024 | 3/1AA3508                |           12912833800

 2017-02-03 19:04:26.099007+01 | 1486145066.09901 | 3/1AA3508                |           12912833800

 2017-02-03 19:04:27.191501+01 | 1486145067.1915 | 3/1AA3508                |           12912833800

 2017-02-03 19:04:28.285658+01 | 1486145068.28566 | 3/1AA3508                |           12912833800

 2017-02-03 19:04:29.374324+01 | 1486145069.37432 | 3/1AA3508                |           12912833800

 2017-02-03 19:04:30.462851+01 | 1486145070.46285 | 3/1AA3508                |           12912833800

 2017-02-03 19:04:31.550123+01 | 1486145071.55012 | 3/1AA3508                |           12912833800

 2017-02-03 19:04:32.644036+01 | 1486145072.64404 | 3/1AA3508                |           12912833800

 2017-02-03 19:04:33.733636+01 | 1486145073.73364 | 3/1AA3508                |           12912833800

 2017-02-03 19:04:34.824399+01 | 1486145074.8244 | 3/1AA3508                |           12912833800

 2017-02-03 19:04:35.918483+01 | 1486145075.91848 | 3/1AA3508                |           12912833800

 2017-02-03 19:04:37.012873+01 | 1486145077.01287 | 3/1AA3508                |           12912833800

 2017-02-03 19:04:38.10305+01 | 1486145078.10305 | 3/1AA3508                |           12912833800

 2017-02-03 19:04:39.186828+01 | 1486145079.18683 | 3/1AA3508                |           12912833800

 2017-02-03 19:04:40.280704+01 | 1486145080.2807 | 3/1AA3508                |           12912833800

 2017-02-03 19:04:41.376954+01 | 1486145081.37695 | 3/1AA3508                |           12912833800

 2017-02-03 19:04:42.461867+01 | 1486145082.46187 | 3/1AA3508                |           12912833800

 2017-02-03 19:04:43.542228+01 | 1486145083.54223 | 3/1AA3508                |           12912833800

 2017-02-03 19:04:44.63457+01 | 1486145084.63457 | 3/1AA3508                |           12912833800

 2017-02-03 19:04:45.718794+01 | 1486145085.71879 | 3/1AA3508                |           12912833800

 2017-02-03 19:04:46.802555+01 | 1486145086.80256 | 3/1AA3508                |           12912833800

 2017-02-03 19:04:47.897914+01 | 1486145087.89791 | 3/1AA3508                |           12912833800

 2017-02-03 19:04:48.990589+01 | 1486145088.99059 | 3/1AA3508                |           12912833800

 2017-02-03 19:04:50.087436+01 | 1486145090.08744 | 3/1AA3508                |           12912833800

 2017-02-03 19:04:51.17127+01 | 1486145091.17127 | 3/1AA3508                |           12912833800

 2017-02-03 19:04:52.262878+01 | 1486145092.26288 | 3/1AA3508                |           12912833800

 2017-02-03 19:04:53.359378+01 | 1486145093.35938 | 3/1AA3508                |           12912833800

 2017-02-03 19:04:54.443441+01 | 1486145094.44344 | 3/1AA3508                |           12912833800

 2017-02-03 19:04:55.532759+01 | 1486145095.53276 | 3/1AA3508                |           12912833800

 2017-02-03 19:04:56.626496+01 | 1486145096.6265 | 3/1AA3508                |           12912833800

 2017-02-03 19:04:57.713348+01 | 1486145097.71335 | 3/1AA3508                |           12912833800

 2017-02-03 19:04:58.798836+01 | 1486145098.79884 | 3/1AA3508                |           12912833800

 2017-02-03 19:04:59.889106+01 | 1486145099.88911 | 3/1AA3508                |           12912833800

 2017-02-03 19:05:00.978373+01 | 1486145100.97837 | 3/1AA3508                |           12912833800

 2017-02-03 19:05:02.078026+01 | 1486145102.07803 | 3/1AA3508                |           12912833800

 2017-02-03 19:05:03.169428+01 | 1486145103.16943 | 3/1AA3508                |           12912833800

 2017-02-03 19:05:04.255521+01 | 1486145104.25552 | 3/1AA3508                |           12912833800

 2017-02-03 19:05:05.347127+01 | 1486145105.34713 | 3/1AA3508                |           12912833800

 2017-02-03 19:05:06.432659+01 | 1486145106.43266 | 3/1AA3508                |           12912833800

 2017-02-03 19:05:07.536439+01 | 1486145107.53644 | 3/1AA3508                |           12912833800

 2017-02-03 19:05:08.637466+01 | 1486145108.63747 | 3/1AA3508                |           12912833800

 2017-02-03 19:05:09.730879+01 | 1486145109.73088 | 3/1AA3508                |           12912833800

 2017-02-03 19:05:10.815004+01 | 1486145110.815 | 3/1AA3508                |           12912833800

 2017-02-03 19:05:11.909075+01 | 1486145111.90908 | 3/1AA3508                |           12912833800

 2017-02-03 19:05:12.996889+01 | 1486145112.99689 | 3/1AA3508                |           12912833800

 2017-02-03 19:05:14.089947+01 | 1486145114.08995 | 3/1AA3508                |           12912833800

 2017-02-03 19:05:15.184392+01 | 1486145115.18439 | 3/1AA3508                |           12912833800

 2017-02-03 19:05:16.278951+01 | 1486145116.27895 | 3/1AA3508                |           12912833800

 2017-02-03 19:05:17.375559+01 | 1486145117.37556 | 3/1AA3508                |           12912833800

 2017-02-03 19:05:18.460087+01 | 1486145118.46009 | 3/1AA3508                |           12912833800

 2017-02-03 19:05:19.547879+01 | 1486145119.54788 | 3/1AA3508                |           12912833800

 2017-02-03 19:05:20.631267+01 | 1486145120.63127 | 3/1AA3508                |           12912833800

 2017-02-03 19:05:21.732005+01 | 1486145121.732 | 3/1AA3508                |           12912833800

 2017-02-03 19:05:22.826909+01 | 1486145122.82691 | 3/1AA3508                |           12912833800

 2017-02-03 19:05:23.91288+01 | 1486145123.91288 | 3/1AA3508                |           12912833800

 2017-02-03 19:05:25.003772+01 | 1486145125.00377 | 3/1AA3508                |           12912833800

 2017-02-03 19:05:26.093738+01 | 1486145126.09374 | 3/1AA3508                |           12912833800

 2017-02-03 19:05:27.174403+01 | 1486145127.1744 | 3/1AA3508                |           12912833800

 2017-02-03 19:05:28.265415+01 | 1486145128.26541 | 3/1AA3508                |           12912833800

 2017-02-03 19:05:29.360138+01 | 1486145129.36014 | 3/1AA3508                |           12912833800

 2017-02-03 19:05:30.443304+01 | 1486145130.4433 | 3/1AA3508                |           12912833800

 2017-02-03 19:05:31.531119+01 | 1486145131.53112 | 3/1AA3508                |           12912833800

 2017-02-03 19:05:32.628267+01 | 1486145132.62827 | 3/1AA3508                |           12912833800

 2017-02-03 19:05:33.722072+01 | 1486145133.72207 | 3/1AA3508                |           12912833800

 2017-02-03 19:05:34.813714+01 | 1486145134.81371 | 3/1AA3508                |           12912833800

 2017-02-03 19:05:35.905305+01 | 1486145135.9053 | 3/1AA3508                |           12912833800

 2017-02-03 19:05:37.005396+01 | 1486145137.0054 | 3/1AA3508                |           12912833800

 2017-02-03 19:05:38.098464+01 | 1486145138.09846 | 3/1AA3508                |           12912833800

 2017-02-03 19:05:39.187761+01 | 1486145139.18776 | 3/1AA3508                |           12912833800

 2017-02-03 19:05:40.278661+01 | 1486145140.27866 | 3/1AA3508                |           12912833800

 2017-02-03 19:05:41.375749+01 | 1486145141.37575 | 3/1AA3508                |           12912833800

 2017-02-03 19:05:42.465453+01 | 1486145142.46545 | 3/1AA3508                |           12912833800

 2017-02-03 19:05:43.541508+01 | 1486145143.54151 | 3/1AA3508                |           12912833800

 2017-02-03 19:05:44.635115+01 | 1486145144.63511 | 3/1AA3508                |           12912833800

 2017-02-03 19:05:45.727014+01 | 1486145145.72701 | 3/1AA3508                |           12912833800

 2017-02-03 19:05:46.823475+01 | 1486145146.82347 | 3/1AA3508                |           12912833800

 2017-02-03 19:05:47.908069+01 | 1486145147.90807 | 3/1AA3508                |           12912833800

 2017-02-03 19:05:49.00494+01 | 1486145149.00494 | 3/1AA3508                |           12912833800

 2017-02-03 19:05:50.101039+01 | 1486145150.10104 | 3/1AA3508                |           12912833800

 2017-02-03 19:05:51.185986+01 | 1486145151.18599 | 3/1AA3508                |           12912833800

 2017-02-03 19:05:52.277747+01 | 1486145152.27775 | 3/1AA3508                |           12912833800

 2017-02-03 19:05:53.374054+01 | 1486145153.37405 | 3/1AA3508                |           12912833800

 2017-02-03 19:05:54.458349+01 | 1486145154.45835 | 3/1AA3508                |           12912833800

 2017-02-03 19:05:55.554264+01 | 1486145155.55426 | 3/1AA3508                |           12912833800

 2017-02-03 19:05:56.640118+01 | 1486145156.64012 | 3/1AA3508                |           12912833800

 2017-02-03 19:05:57.727795+01 | 1486145157.72779 | 3/1AA3508                |           12912833800

 2017-02-03 19:05:58.825274+01 | 1486145158.82527 | 3/1AA3508                |           12912833800

 2017-02-03 19:05:59.906765+01 | 1486145159.90676 | 3/1AA3508                |           12912833800

 2017-02-03 19:06:01.000944+01 | 1486145161.00094 | 3/1AA3508                |           12912833800

 2017-02-03 19:06:02.092635+01 | 1486145162.09263 | 3/1AA3508                |           12912833800

 2017-02-03 19:06:03.177926+01 | 1486145163.17793 | 3/1AA3508                |           12912833800

 2017-02-03 19:06:04.271559+01 | 1486145164.27156 | 3/1AA3508                |           12912833800

 2017-02-03 19:06:05.366509+01 | 1486145165.36651 | 3/1AA3508                |           12912833800

 2017-02-03 19:06:06.455604+01 | 1486145166.4556 | 3/1AA3508                |           12912833800

 2017-02-03 19:06:07.551504+01 | 1486145167.5515 | 3/1AA3508                |           12912833800

 2017-02-03 19:06:08.634421+01 | 1486145168.63442 | 3/1AA3508                |           12912833800

 2017-02-03 19:06:09.724909+01 | 1486145169.72491 | 3/1AA3508                |           12912833800

 2017-02-03 19:06:10.816805+01 | 1486145170.8168 | 3/1AA3508                |           12912833800

 2017-02-03 19:06:11.907211+01 | 1486145171.90721 | 3/1AA3508                |           12912833800

 2017-02-03 19:06:12.998581+01 | 1486145172.99858 | 3/1AA3508                |           12912833800

 2017-02-03 19:06:14.09365+01 | 1486145174.09365 | 3/1AA3508                |           12912833800

 2017-02-03 19:06:15.184725+01 | 1486145175.18473 | 3/1AA3508                |           12912833800

 2017-02-03 19:06:16.276278+01 | 1486145176.27628 | 3/1AA3508                |           12912833800

 2017-02-03 19:06:17.365759+01 | 1486145177.36576 | 3/1AA3508                |           12912833800

 2017-02-03 19:06:18.458356+01 | 1486145178.45836 | 3/1AA3508                |           12912833800

 2017-02-03 19:06:19.559551+01 | 1486145179.55955 | 3/1AA3508                |           12912833800

 2017-02-03 19:06:20.654517+01 | 1486145180.65452 | 3/1AA3508                |           12912833800

 2017-02-03 19:06:21.747062+01 | 1486145181.74706 | 3/1AA3508                |           12912833800

 2017-02-03 19:06:22.837066+01 | 1486145182.83707 | 3/1AA3508                |           12912833800

 2017-02-03 19:06:23.926925+01 | 1486145183.92692 | 3/1AA3508                |           12912833800

 2017-02-03 19:06:25.02087+01 | 1486145185.02087 | 3/1AA3508                |           12912833800

 2017-02-03 19:06:26.110249+01 | 1486145186.11025 | 3/1AA3508                |           12912833800

 2017-02-03 19:06:27.192339+01 | 1486145187.19234 | 3/1AA3508                |           12912833800

 2017-02-03 19:06:28.281029+01 | 1486145188.28103 | 3/1AA3508                |           12912833800

 2017-02-03 19:06:29.368602+01 | 1486145189.3686 | 3/1AA3508                |           12912833800

 2017-02-03 19:06:30.457104+01 | 1486145190.4571 | 3/1AA3508                |           12912833800

 2017-02-03 19:06:31.551637+01 | 1486145191.55164 | 3/1AA3508                |           12912833800

 2017-02-03 19:06:32.643181+01 | 1486145192.64318 | 3/1AA3508                |           12912833800

 2017-02-03 19:06:33.731381+01 | 1486145193.73138 | 3/1AA3508                |           12912833800

 2017-02-03 19:06:34.825165+01 | 1486145194.82517 | 3/1AA3508                |           12912833800

 2017-02-03 19:06:35.918211+01 | 1486145195.91821 | 3/1AA3508                |           12912833800

 2017-02-03 19:06:37.003641+01 | 1486145197.00364 | 3/1AA3508                |           12912833800

 2017-02-03 19:06:38.085459+01 | 1486145198.08546 | 3/1AA3508                |           12912833800

 2017-02-03 19:06:39.182246+01 | 1486145199.18225 | 3/1AA3508                |           12912833800

 2017-02-03 19:06:40.269354+01 | 1486145200.26935 | 3/1AA3508                |           12912833800

 2017-02-03 19:06:41.346403+01 | 1486145201.3464 | 3/1AA3508                |           12912833800

 2017-02-03 19:06:42.448151+01 | 1486145202.44815 | 3/1AA3508                |           12912833800

 2017-02-03 19:06:43.538994+01 | 1486145203.53899 | 3/1AA3508                |           12912833800

 2017-02-03 19:06:44.631178+01 | 1486145204.63118 | 3/1AA3508                |           12912833800

 2017-02-03 19:06:45.731237+01 | 1486145205.73124 | 3/1AA3508                |           12912833800

 2017-02-03 19:06:46.816446+01 | 1486145206.81645 | 3/1AA3508                |           12912833800

 2017-02-03 19:06:47.907038+01 | 1486145207.90704 | 3/1AA3508                |           12912833800

 2017-02-03 19:06:48.993473+01 | 1486145208.99347 | 3/1AA3508                |           12912833800

 2017-02-03 19:06:50.077266+01 | 1486145210.07727 | 3/1AA3508                |           12912833800

 2017-02-03 19:06:51.163986+01 | 1486145211.16399 | 3/1AA3508                |           12912833800

 2017-02-03 19:06:52.262954+01 | 1486145212.26295 | 3/1AA3508                |           12912833800

 2017-02-03 19:06:53.353876+01 | 1486145213.35388 | 3/1AA3508                |           12912833800

 2017-02-03 19:06:54.440536+01 | 1486145214.44054 | 3/1AA3508                |           12912833800

 2017-02-03 19:06:55.53261+01 | 1486145215.53261 | 3/1AA3508                |           12912833800

 2017-02-03 19:06:56.620746+01 | 1486145216.62075 | 3/1AA3508                |           12912833800

 2017-02-03 19:06:57.720069+01 | 1486145217.72007 | 3/1AA3508                |           12912833800

 2017-02-03 19:06:58.812195+01 | 1486145218.8122 | 3/1AA3508                |           12912833800

 2017-02-03 19:06:59.902885+01 | 1486145219.90288 | 3/1AA3508                |           12912833800

 2017-02-03 19:07:00.990382+01 | 1486145220.99038 | 3/1AA3508                |           12912833800

 2017-02-03 19:07:02.071953+01 | 1486145222.07195 | 3/1AA3508                |           12912833800

