 2017-02-06 06:47:21.794402+01 | 1486360041.7944 |                 0 |              31 |                   978 |                   33 |               2327 |             0 |                0 |          487923 |                     0 |        191848 | 2017-02-06 04:16:52.110245+01

 2017-02-06 06:47:22.879954+01 | 1486360042.87995 |                 0 |              31 |                   978 |                   33 |               2327 |             0 |                0 |          487923 |                     0 |        191848 | 2017-02-06 04:16:52.110245+01

 2017-02-06 06:47:23.96586+01 | 1486360043.96586 |                 0 |              31 |                   978 |                   33 |               2327 |             0 |                0 |          487923 |                     0 |        191848 | 2017-02-06 04:16:52.110245+01

 2017-02-06 06:47:25.051792+01 | 1486360045.05179 |                 0 |              31 |                   978 |                   33 |               2327 |             0 |                0 |          487923 |                     0 |        191848 | 2017-02-06 04:16:52.110245+01

 2017-02-06 06:47:26.140791+01 | 1486360046.14079 |                 0 |              31 |                   978 |                   33 |               2327 |             0 |                0 |          487923 |                     0 |        191848 | 2017-02-06 04:16:52.110245+01

 2017-02-06 06:47:27.237209+01 | 1486360047.23721 |                 0 |              31 |                   978 |                   33 |               2327 |             0 |                0 |          487923 |                     0 |        191848 | 2017-02-06 04:16:52.110245+01

 2017-02-06 06:47:28.34626+01 | 1486360048.34626 |                 0 |              31 |                   978 |                   33 |               2327 |             0 |                0 |          487923 |                     0 |        191848 | 2017-02-06 04:16:52.110245+01

 2017-02-06 06:47:29.444009+01 | 1486360049.44401 |                 0 |              31 |                   978 |                   33 |               2327 |             0 |                0 |          487923 |                     0 |        191848 | 2017-02-06 04:16:52.110245+01

 2017-02-06 06:47:30.532742+01 | 1486360050.53274 |                 0 |              31 |                   978 |                   33 |               2327 |             0 |                0 |          487923 |                     0 |        191848 | 2017-02-06 04:16:52.110245+01

 2017-02-06 06:47:31.627231+01 | 1486360051.62723 |                 0 |              31 |                   978 |                   33 |               2327 |             0 |                0 |          487923 |                     0 |        191848 | 2017-02-06 04:16:52.110245+01

 2017-02-06 06:47:32.727644+01 | 1486360052.72764 |                 0 |              31 |                   978 |                   33 |               2327 |             0 |                0 |          487923 |                     0 |        191848 | 2017-02-06 04:16:52.110245+01

 2017-02-06 06:47:33.818138+01 | 1486360053.81814 |                 0 |              31 |                   978 |                   33 |               2327 |             0 |                0 |          487923 |                     0 |        191848 | 2017-02-06 04:16:52.110245+01

 2017-02-06 06:47:34.909518+01 | 1486360054.90952 |                 0 |              31 |                   978 |                   33 |               2327 |             0 |                0 |          487923 |                     0 |        191848 | 2017-02-06 04:16:52.110245+01

 2017-02-06 06:47:36.001915+01 | 1486360056.00191 |                 0 |              31 |                   978 |                   33 |               2327 |             0 |                0 |          487923 |                     0 |        191848 | 2017-02-06 04:16:52.110245+01

 2017-02-06 06:47:37.09413+01 | 1486360057.09413 |                 0 |              31 |                   978 |                   33 |               2327 |             0 |                0 |          487923 |                     0 |        191848 | 2017-02-06 04:16:52.110245+01

 2017-02-06 06:47:38.19013+01 | 1486360058.19013 |                 0 |              31 |                   978 |                   33 |               2327 |             0 |                0 |          487923 |                     0 |        191848 | 2017-02-06 04:16:52.110245+01

 2017-02-06 06:47:39.292072+01 | 1486360059.29207 |                 0 |              31 |                   978 |                   33 |               2327 |             0 |                0 |          487923 |                     0 |        191848 | 2017-02-06 04:16:52.110245+01

 2017-02-06 06:47:40.385888+01 | 1486360060.38589 |                 0 |              31 |                   978 |                   33 |               2327 |             0 |                0 |          487923 |                     0 |        191848 | 2017-02-06 04:16:52.110245+01

 2017-02-06 06:47:41.489973+01 | 1486360061.48997 |                 0 |              31 |                   978 |                   33 |               2327 |             0 |                0 |          487923 |                     0 |        191848 | 2017-02-06 04:16:52.110245+01

 2017-02-06 06:47:42.582243+01 | 1486360062.58224 |                 0 |              31 |                   978 |                   33 |               2327 |             0 |                0 |          487923 |                     0 |        191848 | 2017-02-06 04:16:52.110245+01

 2017-02-06 06:47:43.685485+01 | 1486360063.68548 |                 0 |              31 |                   978 |                   33 |               2327 |             0 |                0 |          487923 |                     0 |        191848 | 2017-02-06 04:16:52.110245+01

 2017-02-06 06:47:44.792177+01 | 1486360064.79218 |                 0 |              31 |                   978 |                   33 |               2327 |             0 |                0 |          487923 |                     0 |        191848 | 2017-02-06 04:16:52.110245+01

 2017-02-06 06:47:45.881722+01 | 1486360065.88172 |                 0 |              31 |                   978 |                   33 |               2327 |             0 |                0 |          487923 |                     0 |        191848 | 2017-02-06 04:16:52.110245+01

 2017-02-06 06:47:46.989201+01 | 1486360066.9892 |                 0 |              31 |                   978 |                   33 |               2327 |             0 |                0 |          487923 |                     0 |        191848 | 2017-02-06 04:16:52.110245+01

 2017-02-06 06:47:48.083906+01 | 1486360068.08391 |                 0 |              31 |                   978 |                   33 |               2327 |             0 |                0 |          487923 |                     0 |        191848 | 2017-02-06 04:16:52.110245+01

 2017-02-06 06:47:49.174375+01 | 1486360069.17438 |                 0 |              31 |                   978 |                   33 |               2327 |             0 |                0 |          487923 |                     0 |        191848 | 2017-02-06 04:16:52.110245+01

 2017-02-06 06:47:50.276364+01 | 1486360070.27636 |                 0 |              31 |                   978 |                   33 |               2327 |             0 |                0 |          487923 |                     0 |        191848 | 2017-02-06 04:16:52.110245+01

 2017-02-06 06:47:51.379933+01 | 1486360071.37993 |                 0 |              31 |                   978 |                   33 |               2327 |             0 |                0 |          487923 |                     0 |        191848 | 2017-02-06 04:16:52.110245+01

 2017-02-06 06:47:52.470414+01 | 1486360072.47041 |                 0 |              31 |                   978 |                   33 |               2327 |             0 |                0 |          487923 |                     0 |        191848 | 2017-02-06 04:16:52.110245+01

 2017-02-06 06:47:53.558289+01 | 1486360073.55829 |                 0 |              31 |                   978 |                   33 |               2327 |             0 |                0 |          487923 |                     0 |        191848 | 2017-02-06 04:16:52.110245+01

 2017-02-06 06:47:54.648909+01 | 1486360074.64891 |                 0 |              31 |                   978 |                   33 |               2327 |             0 |                0 |          487923 |                     0 |        191848 | 2017-02-06 04:16:52.110245+01

 2017-02-06 06:47:55.763891+01 | 1486360075.76389 |                 0 |              31 |                   978 |                   33 |               2327 |             0 |                0 |          487923 |                     0 |        191848 | 2017-02-06 04:16:52.110245+01

 2017-02-06 06:47:56.857734+01 | 1486360076.85773 |                 0 |              31 |                   978 |                   33 |               2327 |             0 |                0 |          487923 |                     0 |        191848 | 2017-02-06 04:16:52.110245+01

 2017-02-06 06:47:57.946582+01 | 1486360077.94658 |                 0 |              31 |                   978 |                   33 |               2327 |             0 |                0 |          487923 |                     0 |        191848 | 2017-02-06 04:16:52.110245+01

 2017-02-06 06:47:59.042195+01 | 1486360079.0422 |                 0 |              31 |                   978 |                   33 |               2327 |             0 |                0 |          487923 |                     0 |        191848 | 2017-02-06 04:16:52.110245+01

 2017-02-06 06:48:00.138324+01 | 1486360080.13832 |                 0 |              31 |                   978 |                   33 |               2327 |             0 |                0 |          487923 |                     0 |        191848 | 2017-02-06 04:16:52.110245+01

 2017-02-06 06:48:01.231157+01 | 1486360081.23116 |                 0 |              31 |                   978 |                   33 |               2327 |             0 |                0 |          487923 |                     0 |        191848 | 2017-02-06 04:16:52.110245+01

 2017-02-06 06:48:02.335706+01 | 1486360082.33571 |                 0 |              31 |                   978 |                   33 |               2327 |             0 |                0 |          487923 |                     0 |        191848 | 2017-02-06 04:16:52.110245+01

 2017-02-06 06:48:03.4351+01 | 1486360083.4351 |                 0 |              31 |                   978 |                   33 |               2327 |             0 |                0 |          487923 |                     0 |        191848 | 2017-02-06 04:16:52.110245+01

 2017-02-06 06:48:04.546202+01 | 1486360084.5462 |                 0 |              31 |                   978 |                   33 |               2327 |             0 |                0 |          487923 |                     0 |        191848 | 2017-02-06 04:16:52.110245+01

 2017-02-06 06:48:05.647244+01 | 1486360085.64724 |                 0 |              31 |                   978 |                   33 |               2327 |             0 |                0 |          487923 |                     0 |        191848 | 2017-02-06 04:16:52.110245+01

 2017-02-06 06:48:06.765782+01 | 1486360086.76578 |                 0 |              31 |                   978 |                   33 |               2327 |             0 |                0 |          487923 |                     0 |        191848 | 2017-02-06 04:16:52.110245+01

 2017-02-06 06:48:07.853204+01 | 1486360087.8532 |                 0 |              31 |                   978 |                   33 |               2327 |             0 |                0 |          487923 |                     0 |        191848 | 2017-02-06 04:16:52.110245+01

 2017-02-06 06:48:08.938674+01 | 1486360088.93867 |                 0 |              31 |                   978 |                   33 |               2327 |             0 |                0 |          487923 |                     0 |        191848 | 2017-02-06 04:16:52.110245+01

 2017-02-06 06:48:10.025388+01 | 1486360090.02539 |                 0 |              31 |                   978 |                   33 |               2327 |             0 |                0 |          487923 |                     0 |        191848 | 2017-02-06 04:16:52.110245+01

 2017-02-06 06:48:11.120702+01 | 1486360091.1207 |                 0 |              31 |                   978 |                   33 |               2327 |             0 |                0 |          487923 |                     0 |        191848 | 2017-02-06 04:16:52.110245+01

 2017-02-06 06:48:12.231516+01 | 1486360092.23152 |                 0 |              31 |                   978 |                   33 |               2327 |             0 |                0 |          487923 |                     0 |        191848 | 2017-02-06 04:16:52.110245+01

 2017-02-06 06:48:13.330312+01 | 1486360093.33031 |                 0 |              31 |                   978 |                   33 |               2327 |             0 |                0 |          487923 |                     0 |        191848 | 2017-02-06 04:16:52.110245+01

 2017-02-06 06:48:14.436831+01 | 1486360094.43683 |                 0 |              31 |                   978 |                   33 |               2327 |             0 |                0 |          487923 |                     0 |        191848 | 2017-02-06 04:16:52.110245+01

 2017-02-06 06:48:15.527334+01 | 1486360095.52733 |                 0 |              31 |                   978 |                   33 |               2327 |             0 |                0 |          487923 |                     0 |        191848 | 2017-02-06 04:16:52.110245+01

 2017-02-06 06:48:16.624656+01 | 1486360096.62466 |                 0 |              31 |                   978 |                   33 |               2327 |             0 |                0 |          487923 |                     0 |        191848 | 2017-02-06 04:16:52.110245+01

 2017-02-06 06:48:17.732088+01 | 1486360097.73209 |                 0 |              31 |                   978 |                   33 |               2327 |             0 |                0 |          487923 |                     0 |        191848 | 2017-02-06 04:16:52.110245+01

 2017-02-06 06:48:18.843733+01 | 1486360098.84373 |                 0 |              31 |                   978 |                   33 |               2327 |             0 |                0 |          487923 |                     0 |        191848 | 2017-02-06 04:16:52.110245+01

 2017-02-06 06:48:19.929426+01 | 1486360099.92943 |                 0 |              31 |                   978 |                   33 |               2327 |             0 |                0 |          487923 |                     0 |        191848 | 2017-02-06 04:16:52.110245+01

 2017-02-06 06:48:21.014041+01 | 1486360101.01404 |                 0 |              31 |                   978 |                   33 |               2327 |             0 |                0 |          487923 |                     0 |        191848 | 2017-02-06 04:16:52.110245+01

 2017-02-06 06:48:22.103436+01 | 1486360102.10344 |                 0 |              31 |                   978 |                   33 |               2327 |             0 |                0 |          487923 |                     0 |        191848 | 2017-02-06 04:16:52.110245+01

 2017-02-06 06:48:23.193028+01 | 1486360103.19303 |                 0 |              31 |                   978 |                   33 |               2327 |             0 |                0 |          487923 |                     0 |        191848 | 2017-02-06 04:16:52.110245+01

 2017-02-06 06:48:24.299055+01 | 1486360104.29906 |                 0 |              31 |                   978 |                   33 |               2327 |             0 |                0 |          487923 |                     0 |        191848 | 2017-02-06 04:16:52.110245+01

 2017-02-06 06:48:25.395185+01 | 1486360105.39518 |                 0 |              31 |                   978 |                   33 |               2327 |             0 |                0 |          487923 |                     0 |        191848 | 2017-02-06 04:16:52.110245+01

 2017-02-06 06:48:26.494173+01 | 1486360106.49417 |                 0 |              31 |                   978 |                   33 |               2327 |             0 |                0 |          487923 |                     0 |        191848 | 2017-02-06 04:16:52.110245+01

 2017-02-06 06:48:27.614512+01 | 1486360107.61451 |                 0 |              31 |                   978 |                   33 |               2327 |             0 |                0 |          487923 |                     0 |        191848 | 2017-02-06 04:16:52.110245+01

 2017-02-06 06:48:28.719945+01 | 1486360108.71994 |                 0 |              31 |                   978 |                   33 |               2327 |             0 |                0 |          487923 |                     0 |        191848 | 2017-02-06 04:16:52.110245+01

 2017-02-06 06:48:29.826001+01 | 1486360109.826 |                 0 |              31 |                   978 |                   33 |               2327 |             0 |                0 |          487923 |                     0 |        191848 | 2017-02-06 04:16:52.110245+01

 2017-02-06 06:48:30.930278+01 | 1486360110.93028 |                 0 |              31 |                   978 |                   33 |               2327 |             0 |                0 |          487923 |                     0 |        191848 | 2017-02-06 04:16:52.110245+01

 2017-02-06 06:48:32.015548+01 | 1486360112.01555 |                 0 |              31 |                   978 |                   33 |               2327 |             0 |                0 |          487923 |                     0 |        191848 | 2017-02-06 04:16:52.110245+01

 2017-02-06 06:48:33.095392+01 | 1486360113.09539 |                 0 |              31 |                   978 |                   33 |               2327 |             0 |                0 |          487923 |                     0 |        191848 | 2017-02-06 04:16:52.110245+01

 2017-02-06 06:48:34.182034+01 | 1486360114.18203 |                 0 |              31 |                   978 |                   33 |               2327 |             0 |                0 |          487923 |                     0 |        191848 | 2017-02-06 04:16:52.110245+01

 2017-02-06 06:48:35.283111+01 | 1486360115.28311 |                 0 |              31 |                   978 |                   33 |               2327 |             0 |                0 |          487923 |                     0 |        191848 | 2017-02-06 04:16:52.110245+01

 2017-02-06 06:48:36.384018+01 | 1486360116.38402 |                 0 |              31 |                   978 |                   33 |               2327 |             0 |                0 |          487923 |                     0 |        191848 | 2017-02-06 04:16:52.110245+01

 2017-02-06 06:48:37.473199+01 | 1486360117.4732 |                 0 |              31 |                   978 |                   33 |               2327 |             0 |                0 |          487923 |                     0 |        191848 | 2017-02-06 04:16:52.110245+01

 2017-02-06 06:48:38.561096+01 | 1486360118.5611 |                 0 |              31 |                   978 |                   33 |               2327 |             0 |                0 |          487923 |                     0 |        191848 | 2017-02-06 04:16:52.110245+01

 2017-02-06 06:48:39.676047+01 | 1486360119.67605 |                 0 |              31 |                   978 |                   33 |               2327 |             0 |                0 |          487923 |                     0 |        191848 | 2017-02-06 04:16:52.110245+01

 2017-02-06 06:48:40.776925+01 | 1486360120.77693 |                 0 |              31 |                   978 |                   33 |               2327 |             0 |                0 |          487923 |                     0 |        191848 | 2017-02-06 04:16:52.110245+01

 2017-02-06 06:48:41.885055+01 | 1486360121.88506 |                 0 |              31 |                   978 |                   33 |               2327 |             0 |                0 |          487923 |                     0 |        191848 | 2017-02-06 04:16:52.110245+01

 2017-02-06 06:48:42.981673+01 | 1486360122.98167 |                 0 |              31 |                   978 |                   33 |               2327 |             0 |                0 |          487923 |                     0 |        191848 | 2017-02-06 04:16:52.110245+01

 2017-02-06 06:48:44.077932+01 | 1486360124.07793 |                 0 |              31 |                   978 |                   33 |               2327 |             0 |                0 |          487923 |                     0 |        191848 | 2017-02-06 04:16:52.110245+01

 2017-02-06 06:48:45.174229+01 | 1486360125.17423 |                 0 |              31 |                   978 |                   33 |               2327 |             0 |                0 |          487923 |                     0 |        191848 | 2017-02-06 04:16:52.110245+01

 2017-02-06 06:48:46.26912+01 | 1486360126.26912 |                 0 |              31 |                   978 |                   33 |               2327 |             0 |                0 |          487923 |                     0 |        191848 | 2017-02-06 04:16:52.110245+01

 2017-02-06 06:48:47.368963+01 | 1486360127.36896 |                 0 |              31 |                   978 |                   33 |               2327 |             0 |                0 |          487923 |                     0 |        191848 | 2017-02-06 04:16:52.110245+01

 2017-02-06 06:48:48.474187+01 | 1486360128.47419 |                 0 |              31 |                   978 |                   33 |               2327 |             0 |                0 |          487923 |                     0 |        191848 | 2017-02-06 04:16:52.110245+01

 2017-02-06 06:48:49.572931+01 | 1486360129.57293 |                 0 |              31 |                   978 |                   33 |               2327 |             0 |                0 |          487923 |                     0 |        191848 | 2017-02-06 04:16:52.110245+01

 2017-02-06 06:48:50.673294+01 | 1486360130.67329 |                 0 |              31 |                   978 |                   33 |               2327 |             0 |                0 |          487923 |                     0 |        191848 | 2017-02-06 04:16:52.110245+01

 2017-02-06 06:48:51.76765+01 | 1486360131.76765 |                 0 |              31 |                   978 |                   33 |               2327 |             0 |                0 |          487923 |                     0 |        191848 | 2017-02-06 04:16:52.110245+01

 2017-02-06 06:48:52.868851+01 | 1486360132.86885 |                 0 |              31 |                   978 |                   33 |               2327 |             0 |                0 |          487923 |                     0 |        191848 | 2017-02-06 04:16:52.110245+01

 2017-02-06 06:48:53.964009+01 | 1486360133.96401 |                 0 |              31 |                   978 |                   33 |               2327 |             0 |                0 |          487923 |                     0 |        191848 | 2017-02-06 04:16:52.110245+01

 2017-02-06 06:48:55.054076+01 | 1486360135.05408 |                 0 |              31 |                   978 |                   33 |               2327 |             0 |                0 |          487923 |                     0 |        191848 | 2017-02-06 04:16:52.110245+01

 2017-02-06 06:48:56.136136+01 | 1486360136.13614 |                 0 |              31 |                   978 |                   33 |               2327 |             0 |                0 |          487923 |                     0 |        191848 | 2017-02-06 04:16:52.110245+01

 2017-02-06 06:48:57.22927+01 | 1486360137.22927 |                 0 |              31 |                   978 |                   33 |               2327 |             0 |                0 |          487923 |                     0 |        191848 | 2017-02-06 04:16:52.110245+01

 2017-02-06 06:48:58.323114+01 | 1486360138.32311 |                 0 |              31 |                   978 |                   33 |               2327 |             0 |                0 |          487923 |                     0 |        191848 | 2017-02-06 04:16:52.110245+01

 2017-02-06 06:48:59.416702+01 | 1486360139.4167 |                 0 |              31 |                   978 |                   33 |               2327 |             0 |                0 |          487923 |                     0 |        191848 | 2017-02-06 04:16:52.110245+01

 2017-02-06 06:49:00.531+01 | 1486360140.531 |                 0 |              31 |                   978 |                   33 |               2327 |             0 |                0 |          487923 |                     0 |        191848 | 2017-02-06 04:16:52.110245+01

 2017-02-06 06:49:01.633389+01 | 1486360141.63339 |                 0 |              31 |                   978 |                   33 |               2327 |             0 |                0 |          487923 |                     0 |        191848 | 2017-02-06 04:16:52.110245+01

 2017-02-06 06:49:02.733868+01 | 1486360142.73387 |                 0 |              31 |                   978 |                   33 |               2327 |             0 |                0 |          487923 |                     0 |        191848 | 2017-02-06 04:16:52.110245+01

 2017-02-06 06:49:03.854209+01 | 1486360143.85421 |                 0 |              31 |                   978 |                   33 |               2327 |             0 |                0 |          487923 |                     0 |        191848 | 2017-02-06 04:16:52.110245+01

 2017-02-06 06:49:04.956673+01 | 1486360144.95667 |                 0 |              31 |                   978 |                   33 |               2327 |             0 |                0 |          487923 |                     0 |        191848 | 2017-02-06 04:16:52.110245+01

 2017-02-06 06:49:06.054717+01 | 1486360146.05472 |                 0 |              31 |                   978 |                   33 |               2327 |             0 |                0 |          487923 |                     0 |        191848 | 2017-02-06 04:16:52.110245+01

 2017-02-06 06:49:07.140878+01 | 1486360147.14088 |                 0 |              31 |                   978 |                   33 |               2327 |             0 |                0 |          487923 |                     0 |        191848 | 2017-02-06 04:16:52.110245+01

 2017-02-06 06:49:08.230578+01 | 1486360148.23058 |                 0 |              31 |                   978 |                   33 |               2327 |             0 |                0 |          487923 |                     0 |        191848 | 2017-02-06 04:16:52.110245+01

 2017-02-06 06:49:09.330232+01 | 1486360149.33023 |                 0 |              31 |                   978 |                   33 |               2327 |             0 |                0 |          487923 |                     0 |        191848 | 2017-02-06 04:16:52.110245+01

 2017-02-06 06:49:10.41687+01 | 1486360150.41687 |                 0 |              31 |                   978 |                   33 |               2327 |             0 |                0 |          487923 |                     0 |        191848 | 2017-02-06 04:16:52.110245+01

 2017-02-06 06:49:11.509582+01 | 1486360151.50958 |                 0 |              31 |                   978 |                   33 |               2327 |             0 |                0 |          487923 |                     0 |        191848 | 2017-02-06 04:16:52.110245+01

 2017-02-06 06:49:12.592713+01 | 1486360152.59271 |                 0 |              31 |                   978 |                   33 |               2327 |             0 |                0 |          487923 |                     0 |        191848 | 2017-02-06 04:16:52.110245+01

 2017-02-06 06:49:13.694003+01 | 1486360153.694 |                 0 |              31 |                   978 |                   33 |               2327 |             0 |                0 |          487923 |                     0 |        191848 | 2017-02-06 04:16:52.110245+01

 2017-02-06 06:49:14.793931+01 | 1486360154.79393 |                 0 |              31 |                   978 |                   33 |               2327 |             0 |                0 |          487923 |                     0 |        191848 | 2017-02-06 04:16:52.110245+01

 2017-02-06 06:49:15.882718+01 | 1486360155.88272 |                 0 |              31 |                   978 |                   33 |               2327 |             0 |                0 |          487923 |                     0 |        191848 | 2017-02-06 04:16:52.110245+01

 2017-02-06 06:49:16.981109+01 | 1486360156.98111 |                 0 |              31 |                   978 |                   33 |               2327 |             0 |                0 |          487923 |                     0 |        191848 | 2017-02-06 04:16:52.110245+01

 2017-02-06 06:49:18.079963+01 | 1486360158.07996 |                 0 |              31 |                   978 |                   33 |               2327 |             0 |                0 |          487923 |                     0 |        191848 | 2017-02-06 04:16:52.110245+01

 2017-02-06 06:49:19.168162+01 | 1486360159.16816 |                 0 |              31 |                   978 |                   33 |               2327 |             0 |                0 |          487923 |                     0 |        191848 | 2017-02-06 04:16:52.110245+01

 2017-02-06 06:49:20.266017+01 | 1486360160.26602 |                 0 |              31 |                   978 |                   33 |               2327 |             0 |                0 |          487923 |                     0 |        191848 | 2017-02-06 04:16:52.110245+01

 2017-02-06 06:49:21.362057+01 | 1486360161.36206 |                 0 |              31 |                   978 |                   33 |               2327 |             0 |                0 |          487923 |                     0 |        191848 | 2017-02-06 04:16:52.110245+01

 2017-02-06 06:49:22.451207+01 | 1486360162.45121 |                 0 |              31 |                   978 |                   33 |               2327 |             0 |                0 |          487923 |                     0 |        191848 | 2017-02-06 04:16:52.110245+01

 2017-02-06 06:49:23.547713+01 | 1486360163.54771 |                 0 |              31 |                   978 |                   33 |               2327 |             0 |                0 |          487923 |                     0 |        191848 | 2017-02-06 04:16:52.110245+01

 2017-02-06 06:49:24.649291+01 | 1486360164.64929 |                 0 |              31 |                   978 |                   33 |               2327 |             0 |                0 |          487923 |                     0 |        191848 | 2017-02-06 04:16:52.110245+01

 2017-02-06 06:49:25.741754+01 | 1486360165.74175 |                 0 |              31 |                   978 |                   33 |               2327 |             0 |                0 |          487923 |                     0 |        191848 | 2017-02-06 04:16:52.110245+01

 2017-02-06 06:49:26.825533+01 | 1486360166.82553 |                 0 |              31 |                   978 |                   33 |               2327 |             0 |                0 |          487923 |                     0 |        191848 | 2017-02-06 04:16:52.110245+01

 2017-02-06 06:49:27.942923+01 | 1486360167.94292 |                 0 |              31 |                   978 |                   33 |               2327 |             0 |                0 |          487923 |                     0 |        191848 | 2017-02-06 04:16:52.110245+01

 2017-02-06 06:49:29.048341+01 | 1486360169.04834 |                 0 |              31 |                   978 |                   33 |               2327 |             0 |                0 |          487923 |                     0 |        191848 | 2017-02-06 04:16:52.110245+01

 2017-02-06 06:49:30.141969+01 | 1486360170.14197 |                 0 |              31 |                   978 |                   33 |               2327 |             0 |                0 |          487923 |                     0 |        191848 | 2017-02-06 04:16:52.110245+01

 2017-02-06 06:49:31.224389+01 | 1486360171.22439 |                 0 |              31 |                   978 |                   33 |               2327 |             0 |                0 |          487923 |                     0 |        191848 | 2017-02-06 04:16:52.110245+01

 2017-02-06 06:49:32.313001+01 | 1486360172.313 |                 0 |              31 |                   978 |                   33 |               2327 |             0 |                0 |          487923 |                     0 |        191848 | 2017-02-06 04:16:52.110245+01

 2017-02-06 06:49:33.404886+01 | 1486360173.40489 |                 0 |              31 |                   978 |                   33 |               2327 |             0 |                0 |          487923 |                     0 |        191848 | 2017-02-06 04:16:52.110245+01

 2017-02-06 06:49:34.507144+01 | 1486360174.50714 |                 0 |              31 |                   978 |                   33 |               2327 |             0 |                0 |          487923 |                     0 |        191848 | 2017-02-06 04:16:52.110245+01

 2017-02-06 06:49:35.607554+01 | 1486360175.60755 |                 0 |              31 |                   978 |                   33 |               2327 |             0 |                0 |          487923 |                     0 |        191848 | 2017-02-06 04:16:52.110245+01

 2017-02-06 06:49:36.704623+01 | 1486360176.70462 |                 0 |              31 |                   978 |                   33 |               2327 |             0 |                0 |          487923 |                     0 |        191848 | 2017-02-06 04:16:52.110245+01

 2017-02-06 06:49:37.803116+01 | 1486360177.80312 |                 0 |              31 |                   978 |                   33 |               2327 |             0 |                0 |          487923 |                     0 |        191848 | 2017-02-06 04:16:52.110245+01

 2017-02-06 06:49:38.909524+01 | 1486360178.90952 |                 0 |              31 |                   978 |                   33 |               2327 |             0 |                0 |          487923 |                     0 |        191848 | 2017-02-06 04:16:52.110245+01

 2017-02-06 06:49:40.012974+01 | 1486360180.01297 |                 0 |              31 |                   978 |                   33 |               2327 |             0 |                0 |          487923 |                     0 |        191848 | 2017-02-06 04:16:52.110245+01

 2017-02-06 06:49:41.117531+01 | 1486360181.11753 |                 0 |              31 |                   978 |                   33 |               2327 |             0 |                0 |          487923 |                     0 |        191848 | 2017-02-06 04:16:52.110245+01

 2017-02-06 06:49:42.19948+01 | 1486360182.19948 |                 0 |              31 |                   978 |                   33 |               2327 |             0 |                0 |          487923 |                     0 |        191848 | 2017-02-06 04:16:52.110245+01

 2017-02-06 06:49:43.286149+01 | 1486360183.28615 |                 0 |              31 |                   978 |                   33 |               2327 |             0 |                0 |          487923 |                     0 |        191848 | 2017-02-06 04:16:52.110245+01

 2017-02-06 06:49:44.382022+01 | 1486360184.38202 |                 0 |              31 |                   978 |                   33 |               2327 |             0 |                0 |          487923 |                     0 |        191848 | 2017-02-06 04:16:52.110245+01

 2017-02-06 06:49:45.480328+01 | 1486360185.48033 |                 0 |              31 |                   978 |                   33 |               2327 |             0 |                0 |          487923 |                     0 |        191848 | 2017-02-06 04:16:52.110245+01

 2017-02-06 06:49:46.582474+01 | 1486360186.58247 |                 0 |              31 |                   978 |                   33 |               2327 |             0 |                0 |          487923 |                     0 |        191848 | 2017-02-06 04:16:52.110245+01

 2017-02-06 06:49:47.684071+01 | 1486360187.68407 |                 0 |              31 |                   978 |                   33 |               2327 |             0 |                0 |          487923 |                     0 |        191848 | 2017-02-06 04:16:52.110245+01

 2017-02-06 06:49:48.770989+01 | 1486360188.77099 |                 0 |              31 |                   978 |                   33 |               2327 |             0 |                0 |          487923 |                     0 |        191848 | 2017-02-06 04:16:52.110245+01

 2017-02-06 06:49:49.87608+01 | 1486360189.87608 |                 0 |              31 |                   978 |                   33 |               2327 |             0 |                0 |          487923 |                     0 |        191848 | 2017-02-06 04:16:52.110245+01

 2017-02-06 06:49:50.975988+01 | 1486360190.97599 |                 0 |              31 |                   978 |                   33 |               2327 |             0 |                0 |          487923 |                     0 |        191848 | 2017-02-06 04:16:52.110245+01

 2017-02-06 06:49:52.091617+01 | 1486360192.09162 |                 0 |              31 |                   978 |                   33 |               2327 |             0 |                0 |          487923 |                     0 |        191848 | 2017-02-06 04:16:52.110245+01

 2017-02-06 06:49:53.197218+01 | 1486360193.19722 |                 0 |              31 |                   978 |                   33 |               2327 |             0 |                0 |          487923 |                     0 |        191848 | 2017-02-06 04:16:52.110245+01

 2017-02-06 06:49:54.284232+01 | 1486360194.28423 |                 0 |              31 |                   978 |                   33 |               2327 |             0 |                0 |          487923 |                     0 |        191848 | 2017-02-06 04:16:52.110245+01

 2017-02-06 06:49:55.377243+01 | 1486360195.37724 |                 0 |              31 |                   978 |                   33 |               2327 |             0 |                0 |          487923 |                     0 |        191848 | 2017-02-06 04:16:52.110245+01

 2017-02-06 06:49:56.463062+01 | 1486360196.46306 |                 0 |              31 |                   978 |                   33 |               2327 |             0 |                0 |          487923 |                     0 |        191848 | 2017-02-06 04:16:52.110245+01

 2017-02-06 06:49:57.549413+01 | 1486360197.54941 |                 0 |              31 |                   978 |                   33 |               2327 |             0 |                0 |          487923 |                     0 |        191848 | 2017-02-06 04:16:52.110245+01

 2017-02-06 06:49:58.653392+01 | 1486360198.65339 |                 0 |              31 |                   978 |                   33 |               2327 |             0 |                0 |          487923 |                     0 |        191848 | 2017-02-06 04:16:52.110245+01

 2017-02-06 06:49:59.742383+01 | 1486360199.74238 |                 0 |              31 |                   978 |                   33 |               2327 |             0 |                0 |          487923 |                     0 |        191848 | 2017-02-06 04:16:52.110245+01

 2017-02-06 06:50:00.846666+01 | 1486360200.84667 |                 0 |              31 |                   978 |                   33 |               2327 |             0 |                0 |          487923 |                     0 |        191848 | 2017-02-06 04:16:52.110245+01

 2017-02-06 06:50:01.956612+01 | 1486360201.95661 |                 0 |              31 |                   978 |                   33 |               2327 |             0 |                0 |          487923 |                     0 |        191848 | 2017-02-06 04:16:52.110245+01

 2017-02-06 06:50:03.087104+01 | 1486360203.0871 |                 0 |              31 |                   978 |                   33 |               2327 |             0 |                0 |          487923 |                     0 |        191848 | 2017-02-06 04:16:52.110245+01

 2017-02-06 06:50:04.194383+01 | 1486360204.19438 |                 0 |              31 |                   978 |                   33 |               2327 |             0 |                0 |          487923 |                     0 |        191848 | 2017-02-06 04:16:52.110245+01

 2017-02-06 06:50:05.281289+01 | 1486360205.28129 |                 0 |              31 |                   978 |                   33 |               2327 |             0 |                0 |          487923 |                     0 |        191848 | 2017-02-06 04:16:52.110245+01

 2017-02-06 06:50:06.374956+01 | 1486360206.37496 |                 0 |              31 |                   978 |                   33 |               2327 |             0 |                0 |          487923 |                     0 |        191848 | 2017-02-06 04:16:52.110245+01

 2017-02-06 06:50:07.485228+01 | 1486360207.48523 |                 0 |              31 |                   978 |                   33 |               2327 |             0 |                0 |          487923 |                     0 |        191848 | 2017-02-06 04:16:52.110245+01

 2017-02-06 06:50:08.583261+01 | 1486360208.58326 |                 0 |              31 |                   978 |                   33 |               2327 |             0 |                0 |          487923 |                     0 |        191848 | 2017-02-06 04:16:52.110245+01

 2017-02-06 06:50:09.666272+01 | 1486360209.66627 |                 0 |              31 |                   978 |                   33 |               2327 |             0 |                0 |          487923 |                     0 |        191848 | 2017-02-06 04:16:52.110245+01

 2017-02-06 06:50:10.77785+01 | 1486360210.77785 |                 0 |              31 |                   978 |                   33 |               2327 |             0 |                0 |          487923 |                     0 |        191848 | 2017-02-06 04:16:52.110245+01

 2017-02-06 06:50:11.880923+01 | 1486360211.88092 |                 0 |              31 |                   978 |                   33 |               2327 |             0 |                0 |          487923 |                     0 |        191848 | 2017-02-06 04:16:52.110245+01

 2017-02-06 06:50:12.986036+01 | 1486360212.98604 |                 0 |              31 |                   978 |                   33 |               2327 |             0 |                0 |          487923 |                     0 |        191848 | 2017-02-06 04:16:52.110245+01

 2017-02-06 06:50:14.073033+01 | 1486360214.07303 |                 0 |              31 |                   978 |                   33 |               2327 |             0 |                0 |          487923 |                     0 |        191848 | 2017-02-06 04:16:52.110245+01

 2017-02-06 06:50:15.170967+01 | 1486360215.17097 |                 0 |              31 |                   978 |                   33 |               2327 |             0 |                0 |          487923 |                     0 |        191848 | 2017-02-06 04:16:52.110245+01

 2017-02-06 06:50:16.268567+01 | 1486360216.26857 |                 0 |              31 |                   978 |                   33 |               2327 |             0 |                0 |          487923 |                     0 |        191848 | 2017-02-06 04:16:52.110245+01

 2017-02-06 06:50:17.36312+01 | 1486360217.36312 |                 0 |              31 |                   978 |                   33 |               2327 |             0 |                0 |          487923 |                     0 |        191848 | 2017-02-06 04:16:52.110245+01

 2017-02-06 06:50:18.454491+01 | 1486360218.45449 |                 0 |              31 |                   978 |                   33 |               2327 |             0 |                0 |          487923 |                     0 |        191848 | 2017-02-06 04:16:52.110245+01

 2017-02-06 06:50:19.546595+01 | 1486360219.5466 |                 0 |              31 |                   978 |                   33 |               2327 |             0 |                0 |          487923 |                     0 |        191848 | 2017-02-06 04:16:52.110245+01

 2017-02-06 06:50:20.636171+01 | 1486360220.63617 |                 0 |              31 |                   978 |                   33 |               2327 |             0 |                0 |          487923 |                     0 |        191848 | 2017-02-06 04:16:52.110245+01

 2017-02-06 06:50:21.733949+01 | 1486360221.73395 |                 0 |              31 |                   978 |                   33 |               2327 |             0 |                0 |          487923 |                     0 |        191848 | 2017-02-06 04:16:52.110245+01

 2017-02-06 06:50:22.828221+01 | 1486360222.82822 |                 0 |              31 |                   978 |                   33 |               2327 |             0 |                0 |          487923 |                     0 |        191848 | 2017-02-06 04:16:52.110245+01

 2017-02-06 06:50:23.929502+01 | 1486360223.9295 |                 0 |              31 |                   978 |                   33 |               2327 |             0 |                0 |          487923 |                     0 |        191848 | 2017-02-06 04:16:52.110245+01

 2017-02-06 06:50:25.023737+01 | 1486360225.02374 |                 0 |              31 |                   978 |                   33 |               2327 |             0 |                0 |          487923 |                     0 |        191848 | 2017-02-06 04:16:52.110245+01

 2017-02-06 06:50:26.114557+01 | 1486360226.11456 |                 0 |              31 |                   978 |                   33 |               2327 |             0 |                0 |          487923 |                     0 |        191848 | 2017-02-06 04:16:52.110245+01

 2017-02-06 06:50:27.215651+01 | 1486360227.21565 |                 0 |              31 |                   978 |                   33 |               2327 |             0 |                0 |          487923 |                     0 |        191848 | 2017-02-06 04:16:52.110245+01

 2017-02-06 06:50:28.306628+01 | 1486360228.30663 |                 0 |              31 |                   978 |                   33 |               2327 |             0 |                0 |          487923 |                     0 |        191848 | 2017-02-06 04:16:52.110245+01

 2017-02-06 06:50:29.399834+01 | 1486360229.39983 |                 0 |              31 |                   978 |                   33 |               2327 |             0 |                0 |          487923 |                     0 |        191848 | 2017-02-06 04:16:52.110245+01

 2017-02-06 06:50:30.493384+01 | 1486360230.49338 |                 0 |              31 |                   978 |                   33 |               2327 |             0 |                0 |          487923 |                     0 |        191848 | 2017-02-06 04:16:52.110245+01

 2017-02-06 06:50:31.590369+01 | 1486360231.59037 |                 0 |              31 |                   978 |                   33 |               2327 |             0 |                0 |          487923 |                     0 |        191848 | 2017-02-06 04:16:52.110245+01

 2017-02-06 06:50:32.690949+01 | 1486360232.69095 |                 0 |              31 |                   978 |                   33 |               2327 |             0 |                0 |          487923 |                     0 |        191848 | 2017-02-06 04:16:52.110245+01

 2017-02-06 06:50:33.78266+01 | 1486360233.78266 |                 0 |              31 |                   978 |                   33 |               2327 |             0 |                0 |          487923 |                     0 |        191848 | 2017-02-06 04:16:52.110245+01

 2017-02-06 06:50:34.877061+01 | 1486360234.87706 |                 0 |              31 |                   978 |                   33 |               2327 |             0 |                0 |          487923 |                     0 |        191848 | 2017-02-06 04:16:52.110245+01

 2017-02-06 06:50:35.968314+01 | 1486360235.96831 |                 0 |              31 |                   978 |                   33 |               2327 |             0 |                0 |          487923 |                     0 |        191848 | 2017-02-06 04:16:52.110245+01

 2017-02-06 06:50:37.07733+01 | 1486360237.07733 |                 0 |              31 |                   978 |                   33 |               2327 |             0 |                0 |          487923 |                     0 |        191848 | 2017-02-06 04:16:52.110245+01

 2017-02-06 06:50:38.179249+01 | 1486360238.17925 |                 0 |              31 |                   978 |                   33 |               2327 |             0 |                0 |          487923 |                     0 |        191848 | 2017-02-06 04:16:52.110245+01

 2017-02-06 06:50:39.281115+01 | 1486360239.28112 |                 0 |              31 |                   978 |                   33 |               2327 |             0 |                0 |          487923 |                     0 |        191848 | 2017-02-06 04:16:52.110245+01

 2017-02-06 06:50:40.385095+01 | 1486360240.38509 |                 0 |              31 |                   978 |                   33 |               2327 |             0 |                0 |          487923 |                     0 |        191848 | 2017-02-06 04:16:52.110245+01

 2017-02-06 06:50:41.471931+01 | 1486360241.47193 |                 0 |              31 |                   978 |                   33 |               2327 |             0 |                0 |          487923 |                     0 |        191848 | 2017-02-06 04:16:52.110245+01

 2017-02-06 06:50:42.565165+01 | 1486360242.56517 |                 0 |              31 |                   978 |                   33 |               2327 |             0 |                0 |          487923 |                     0 |        191848 | 2017-02-06 04:16:52.110245+01

 2017-02-06 06:50:43.658632+01 | 1486360243.65863 |                 0 |              31 |                   978 |                   33 |               2327 |             0 |                0 |          487923 |                     0 |        191848 | 2017-02-06 04:16:52.110245+01

 2017-02-06 06:50:44.745799+01 | 1486360244.7458 |                 0 |              31 |                   978 |                   33 |               2327 |             0 |                0 |          487923 |                     0 |        191848 | 2017-02-06 04:16:52.110245+01

 2017-02-06 06:50:45.850157+01 | 1486360245.85016 |                 0 |              31 |                   978 |                   33 |               2327 |             0 |                0 |          487923 |                     0 |        191848 | 2017-02-06 04:16:52.110245+01

 2017-02-06 06:50:46.946188+01 | 1486360246.94619 |                 0 |              31 |                   978 |                   33 |               2327 |             0 |                0 |          487923 |                     0 |        191848 | 2017-02-06 04:16:52.110245+01

 2017-02-06 06:50:48.057641+01 | 1486360248.05764 |                 0 |              31 |                   978 |                   33 |               2327 |             0 |                0 |          487923 |                     0 |        191848 | 2017-02-06 04:16:52.110245+01

 2017-02-06 06:50:49.154752+01 | 1486360249.15475 |                 0 |              31 |                   978 |                   33 |               2327 |             0 |                0 |          487923 |                     0 |        191848 | 2017-02-06 04:16:52.110245+01

 2017-02-06 06:50:50.259593+01 | 1486360250.25959 |                 0 |              31 |                   978 |                   33 |               2327 |             0 |                0 |          487923 |                     0 |        191848 | 2017-02-06 04:16:52.110245+01

 2017-02-06 06:50:51.363462+01 | 1486360251.36346 |                 0 |              31 |                   978 |                   33 |               2327 |             0 |                0 |          487923 |                     0 |        191848 | 2017-02-06 04:16:52.110245+01

 2017-02-06 06:50:52.453574+01 | 1486360252.45357 |                 0 |              31 |                   978 |                   33 |               2327 |             0 |                0 |          487923 |                     0 |        191848 | 2017-02-06 04:16:52.110245+01

 2017-02-06 06:50:53.551522+01 | 1486360253.55152 |                 0 |              31 |                   978 |                   33 |               2327 |             0 |                0 |          487923 |                     0 |        191848 | 2017-02-06 04:16:52.110245+01

 2017-02-06 06:50:54.64102+01 | 1486360254.64102 |                 0 |              31 |                   978 |                   33 |               2327 |             0 |                0 |          487923 |                     0 |        191848 | 2017-02-06 04:16:52.110245+01

 2017-02-06 06:50:55.730965+01 | 1486360255.73096 |                 0 |              31 |                   978 |                   33 |               2327 |             0 |                0 |          487923 |                     0 |        191848 | 2017-02-06 04:16:52.110245+01

 2017-02-06 06:50:56.828063+01 | 1486360256.82806 |                 0 |              31 |                   978 |                   33 |               2327 |             0 |                0 |          487923 |                     0 |        191848 | 2017-02-06 04:16:52.110245+01

 2017-02-06 06:50:57.925946+01 | 1486360257.92595 |                 0 |              31 |                   978 |                   33 |               2327 |             0 |                0 |          487923 |                     0 |        191848 | 2017-02-06 04:16:52.110245+01

 2017-02-06 06:50:59.026128+01 | 1486360259.02613 |                 0 |              31 |                   978 |                   33 |               2327 |             0 |                0 |          487923 |                     0 |        191848 | 2017-02-06 04:16:52.110245+01

 2017-02-06 06:51:00.117238+01 | 1486360260.11724 |                 0 |              31 |                   978 |                   33 |               2327 |             0 |                0 |          487923 |                     0 |        191848 | 2017-02-06 04:16:52.110245+01

 2017-02-06 06:51:01.210698+01 | 1486360261.2107 |                 0 |              31 |                   978 |                   33 |               2327 |             0 |                0 |          487923 |                     0 |        191848 | 2017-02-06 04:16:52.110245+01

 2017-02-06 06:51:02.313268+01 | 1486360262.31327 |                 0 |              31 |                   978 |                   33 |               2327 |             0 |                0 |          487923 |                     0 |        191848 | 2017-02-06 04:16:52.110245+01

 2017-02-06 06:51:03.418949+01 | 1486360263.41895 |                 0 |              31 |                   978 |                   33 |               2327 |             0 |                0 |          487923 |                     0 |        191848 | 2017-02-06 04:16:52.110245+01

 2017-02-06 06:51:04.514094+01 | 1486360264.51409 |                 0 |              31 |                   978 |                   33 |               2327 |             0 |                0 |          487923 |                     0 |        191848 | 2017-02-06 04:16:52.110245+01

 2017-02-06 06:51:05.60676+01 | 1486360265.60676 |                 0 |              31 |                   978 |                   33 |               2327 |             0 |                0 |          487923 |                     0 |        191848 | 2017-02-06 04:16:52.110245+01

 2017-02-06 06:51:06.705512+01 | 1486360266.70551 |                 0 |              31 |                   978 |                   33 |               2327 |             0 |                0 |          487923 |                     0 |        191848 | 2017-02-06 04:16:52.110245+01

 2017-02-06 06:51:07.792869+01 | 1486360267.79287 |                 0 |              31 |                   978 |                   33 |               2327 |             0 |                0 |          487923 |                     0 |        191848 | 2017-02-06 04:16:52.110245+01

 2017-02-06 06:51:08.892906+01 | 1486360268.89291 |                 0 |              31 |                   978 |                   33 |               2327 |             0 |                0 |          487923 |                     0 |        191848 | 2017-02-06 04:16:52.110245+01

 2017-02-06 06:51:09.983586+01 | 1486360269.98359 |                 0 |              31 |                   978 |                   33 |               2327 |             0 |                0 |          487923 |                     0 |        191848 | 2017-02-06 04:16:52.110245+01

 2017-02-06 06:51:11.087893+01 | 1486360271.08789 |                 0 |              31 |                   978 |                   33 |               2327 |             0 |                0 |          487923 |                     0 |        191848 | 2017-02-06 04:16:52.110245+01

 2017-02-06 06:51:12.180771+01 | 1486360272.18077 |                 0 |              31 |                   978 |                   33 |               2327 |             0 |                0 |          487923 |                     0 |        191848 | 2017-02-06 04:16:52.110245+01

 2017-02-06 06:51:13.275933+01 | 1486360273.27593 |                 0 |              31 |                   978 |                   33 |               2327 |             0 |                0 |          487923 |                     0 |        191848 | 2017-02-06 04:16:52.110245+01

 2017-02-06 06:51:14.389043+01 | 1486360274.38904 |                 0 |              31 |                   978 |                   33 |               2327 |             0 |                0 |          487923 |                     0 |        191848 | 2017-02-06 04:16:52.110245+01

 2017-02-06 06:51:15.478885+01 | 1486360275.47888 |                 0 |              31 |                   978 |                   33 |               2327 |             0 |                0 |          487923 |                     0 |        191848 | 2017-02-06 04:16:52.110245+01

 2017-02-06 06:51:16.566198+01 | 1486360276.5662 |                 0 |              31 |                   978 |                   33 |               2327 |             0 |                0 |          487923 |                     0 |        191848 | 2017-02-06 04:16:52.110245+01

 2017-02-06 06:51:17.666586+01 | 1486360277.66659 |                 0 |              31 |                   978 |                   33 |               2327 |             0 |                0 |          487923 |                     0 |        191848 | 2017-02-06 04:16:52.110245+01

 2017-02-06 06:51:18.761185+01 | 1486360278.76118 |                 0 |              31 |                   978 |                   33 |               2327 |             0 |                0 |          487923 |                     0 |        191848 | 2017-02-06 04:16:52.110245+01

 2017-02-06 06:51:19.857135+01 | 1486360279.85714 |                 0 |              31 |                   978 |                   33 |               2327 |             0 |                0 |          487923 |                     0 |        191848 | 2017-02-06 04:16:52.110245+01

 2017-02-06 06:51:20.946209+01 | 1486360280.94621 |                 0 |              31 |                   978 |                   33 |               2327 |             0 |                0 |          487923 |                     0 |        191848 | 2017-02-06 04:16:52.110245+01

 2017-02-06 06:51:22.050955+01 | 1486360282.05096 |                 0 |              31 |                   978 |                   33 |               2327 |             0 |                0 |          487923 |                     0 |        191848 | 2017-02-06 04:16:52.110245+01

 2017-02-06 06:51:23.145242+01 | 1486360283.14524 |                 0 |              31 |                   978 |                   33 |               2327 |             0 |                0 |          487923 |                     0 |        191848 | 2017-02-06 04:16:52.110245+01

 2017-02-06 06:51:24.244942+01 | 1486360284.24494 |                 0 |              31 |                   978 |                   33 |               2327 |             0 |                0 |          487923 |                     0 |        191848 | 2017-02-06 04:16:52.110245+01

 2017-02-06 06:51:25.339295+01 | 1486360285.33929 |                 0 |              31 |                   978 |                   33 |               2327 |             0 |                0 |          487923 |                     0 |        191848 | 2017-02-06 04:16:52.110245+01

 2017-02-06 06:51:26.438195+01 | 1486360286.43819 |                 0 |              31 |                   978 |                   33 |               2327 |             0 |                0 |          487923 |                     0 |        191848 | 2017-02-06 04:16:52.110245+01

 2017-02-06 06:51:27.525732+01 | 1486360287.52573 |                 0 |              31 |                   978 |                   33 |               2327 |             0 |                0 |          487923 |                     0 |        191848 | 2017-02-06 04:16:52.110245+01

 2017-02-06 06:51:28.610123+01 | 1486360288.61012 |                 0 |              31 |                   978 |                   33 |               2327 |             0 |                0 |          487923 |                     0 |        191848 | 2017-02-06 04:16:52.110245+01

 2017-02-06 06:51:29.696788+01 | 1486360289.69679 |                 0 |              31 |                   978 |                   33 |               2327 |             0 |                0 |          487923 |                     0 |        191848 | 2017-02-06 04:16:52.110245+01

 2017-02-06 06:51:30.782593+01 | 1486360290.78259 |                 0 |              31 |                   978 |                   33 |               2327 |             0 |                0 |          487923 |                     0 |        191848 | 2017-02-06 04:16:52.110245+01

 2017-02-06 06:51:31.873885+01 | 1486360291.87388 |                 0 |              31 |                   978 |                   33 |               2327 |             0 |                0 |          487923 |                     0 |        191848 | 2017-02-06 04:16:52.110245+01

 2017-02-06 06:51:32.959594+01 | 1486360292.95959 |                 0 |              31 |                   978 |                   33 |               2327 |             0 |                0 |          487923 |                     0 |        191848 | 2017-02-06 04:16:52.110245+01

 2017-02-06 06:51:34.063412+01 | 1486360294.06341 |                 0 |              31 |                   978 |                   33 |               2327 |             0 |                0 |          487923 |                     0 |        191848 | 2017-02-06 04:16:52.110245+01

 2017-02-06 06:51:35.172773+01 | 1486360295.17277 |                 0 |              31 |                   978 |                   33 |               2327 |             0 |                0 |          487923 |                     0 |        191848 | 2017-02-06 04:16:52.110245+01

 2017-02-06 06:51:36.263239+01 | 1486360296.26324 |                 0 |              31 |                   978 |                   33 |               2327 |             0 |                0 |          487923 |                     0 |        191848 | 2017-02-06 04:16:52.110245+01

 2017-02-06 06:51:37.358467+01 | 1486360297.35847 |                 0 |              31 |                   978 |                   33 |               2327 |             0 |                0 |          487923 |                     0 |        191848 | 2017-02-06 04:16:52.110245+01

 2017-02-06 06:51:38.476905+01 | 1486360298.47691 |                 0 |              31 |                   978 |                   33 |               2327 |             0 |                0 |          487923 |                     0 |        191848 | 2017-02-06 04:16:52.110245+01

 2017-02-06 06:51:39.572471+01 | 1486360299.57247 |                 0 |              31 |                   978 |                   33 |               2327 |             0 |                0 |          487923 |                     0 |        191848 | 2017-02-06 04:16:52.110245+01

 2017-02-06 06:51:40.661477+01 | 1486360300.66148 |                 0 |              31 |                   978 |                   33 |               2327 |             0 |                0 |          487923 |                     0 |        191848 | 2017-02-06 04:16:52.110245+01

 2017-02-06 06:51:41.748276+01 | 1486360301.74828 |                 0 |              31 |                   978 |                   33 |               2327 |             0 |                0 |          487923 |                     0 |        191848 | 2017-02-06 04:16:52.110245+01

 2017-02-06 06:51:42.839835+01 | 1486360302.83983 |                 0 |              31 |                   978 |                   33 |               2327 |             0 |                0 |          487923 |                     0 |        191848 | 2017-02-06 04:16:52.110245+01

 2017-02-06 06:51:43.945179+01 | 1486360303.94518 |                 0 |              31 |                   978 |                   33 |               2327 |             0 |                0 |          487923 |                     0 |        191848 | 2017-02-06 04:16:52.110245+01

 2017-02-06 06:51:45.036275+01 | 1486360305.03627 |                 0 |              31 |                   978 |                   33 |               2327 |             0 |                0 |          487923 |                     0 |        191848 | 2017-02-06 04:16:52.110245+01

 2017-02-06 06:51:46.142625+01 | 1486360306.14263 |                 0 |              31 |                   978 |                   33 |               2327 |             0 |                0 |          487923 |                     0 |        191848 | 2017-02-06 04:16:52.110245+01

 2017-02-06 06:51:47.252101+01 | 1486360307.2521 |                 0 |              31 |                   978 |                   33 |               2327 |             0 |                0 |          487923 |                     0 |        191848 | 2017-02-06 04:16:52.110245+01

 2017-02-06 06:51:48.364632+01 | 1486360308.36463 |                 0 |              31 |                   978 |                   33 |               2327 |             0 |                0 |          487923 |                     0 |        191848 | 2017-02-06 04:16:52.110245+01

 2017-02-06 06:51:49.459864+01 | 1486360309.45986 |                 0 |              31 |                   978 |                   33 |               2327 |             0 |                0 |          487923 |                     0 |        191848 | 2017-02-06 04:16:52.110245+01

 2017-02-06 06:51:50.556947+01 | 1486360310.55695 |                 0 |              31 |                   978 |                   33 |               2327 |             0 |                0 |          487923 |                     0 |        191848 | 2017-02-06 04:16:52.110245+01

 2017-02-06 06:51:51.635998+01 | 1486360311.636 |                 0 |              31 |                   978 |                   33 |               2327 |             0 |                0 |          487923 |                     0 |        191848 | 2017-02-06 04:16:52.110245+01

 2017-02-06 06:51:52.728674+01 | 1486360312.72867 |                 0 |              31 |                   978 |                   33 |               2327 |             0 |                0 |          487923 |                     0 |        191848 | 2017-02-06 04:16:52.110245+01

 2017-02-06 06:51:53.819116+01 | 1486360313.81912 |                 0 |              31 |                   978 |                   33 |               2327 |             0 |                0 |          487923 |                     0 |        191848 | 2017-02-06 04:16:52.110245+01

 2017-02-06 06:51:54.912775+01 | 1486360314.91278 |                 0 |              31 |                   978 |                   33 |               2327 |             0 |                0 |          487923 |                     0 |        191848 | 2017-02-06 04:16:52.110245+01

 2017-02-06 06:51:56.007359+01 | 1486360316.00736 |                 0 |              31 |                   978 |                   33 |               2327 |             0 |                0 |          487923 |                     0 |        191848 | 2017-02-06 04:16:52.110245+01

 2017-02-06 06:51:57.104917+01 | 1486360317.10492 |                 0 |              31 |                   978 |                   33 |               2327 |             0 |                0 |          487923 |                     0 |        191848 | 2017-02-06 04:16:52.110245+01

 2017-02-06 06:51:58.210297+01 | 1486360318.2103 |                 0 |              31 |                   978 |                   33 |               2327 |             0 |                0 |          487923 |                     0 |        191848 | 2017-02-06 04:16:52.110245+01

 2017-02-06 06:51:59.300576+01 | 1486360319.30058 |                 0 |              31 |                   978 |                   33 |               2327 |             0 |                0 |          487923 |                     0 |        191848 | 2017-02-06 04:16:52.110245+01

 2017-02-06 06:52:00.401802+01 | 1486360320.4018 |                 0 |              31 |                   978 |                   33 |               2327 |             0 |                0 |          487923 |                     0 |        191848 | 2017-02-06 04:16:52.110245+01

 2017-02-06 06:52:01.508123+01 | 1486360321.50812 |                 0 |              31 |                   978 |                   33 |               2327 |             0 |                0 |          487923 |                     0 |        191848 | 2017-02-06 04:16:52.110245+01

 2017-02-06 06:52:02.609233+01 | 1486360322.60923 |                 0 |              31 |                   978 |                   33 |               2327 |             0 |                0 |          487923 |                     0 |        191848 | 2017-02-06 04:16:52.110245+01

 2017-02-06 06:52:03.698152+01 | 1486360323.69815 |                 0 |              31 |                   978 |                   33 |               2327 |             0 |                0 |          487923 |                     0 |        191848 | 2017-02-06 04:16:52.110245+01

 2017-02-06 06:52:04.778143+01 | 1486360324.77814 |                 0 |              31 |                   978 |                   33 |               2327 |             0 |                0 |          487923 |                     0 |        191848 | 2017-02-06 04:16:52.110245+01

 2017-02-06 06:52:05.871799+01 | 1486360325.8718 |                 0 |              31 |                   978 |                   33 |               2327 |             0 |                0 |          487923 |                     0 |        191848 | 2017-02-06 04:16:52.110245+01

 2017-02-06 06:52:06.969874+01 | 1486360326.96987 |                 0 |              31 |                   978 |                   33 |               2327 |             0 |                0 |          487923 |                     0 |        191848 | 2017-02-06 04:16:52.110245+01

 2017-02-06 06:52:08.066075+01 | 1486360328.06608 |                 0 |              31 |                   978 |                   33 |               2327 |             0 |                0 |          487923 |                     0 |        191848 | 2017-02-06 04:16:52.110245+01

 2017-02-06 06:52:09.163412+01 | 1486360329.16341 |                 0 |              31 |                   978 |                   33 |               2327 |             0 |                0 |          487923 |                     0 |        191848 | 2017-02-06 04:16:52.110245+01

 2017-02-06 06:52:10.260657+01 | 1486360330.26066 |                 0 |              31 |                   978 |                   33 |               2327 |             0 |                0 |          487923 |                     0 |        191848 | 2017-02-06 04:16:52.110245+01

 2017-02-06 06:52:11.364074+01 | 1486360331.36407 |                 0 |              31 |                   978 |                   33 |               2327 |             0 |                0 |          487923 |                     0 |        191848 | 2017-02-06 04:16:52.110245+01

 2017-02-06 06:52:12.481801+01 | 1486360332.4818 |                 0 |              31 |                   978 |                   33 |               2327 |             0 |                0 |          487923 |                     0 |        191848 | 2017-02-06 04:16:52.110245+01

 2017-02-06 06:52:13.582562+01 | 1486360333.58256 |                 0 |              31 |                   978 |                   33 |               2327 |             0 |                0 |          487923 |                     0 |        191848 | 2017-02-06 04:16:52.110245+01

 2017-02-06 06:52:14.67797+01 | 1486360334.67797 |                 0 |              31 |                   978 |                   33 |               2327 |             0 |                0 |          487923 |                     0 |        191848 | 2017-02-06 04:16:52.110245+01

 2017-02-06 06:52:15.761898+01 | 1486360335.7619 |                 0 |              31 |                   978 |                   33 |               2327 |             0 |                0 |          487923 |                     0 |        191848 | 2017-02-06 04:16:52.110245+01

 2017-02-06 06:52:16.846201+01 | 1486360336.8462 |                 0 |              31 |                   978 |                   33 |               2327 |             0 |                0 |          487923 |                     0 |        191848 | 2017-02-06 04:16:52.110245+01

 2017-02-06 06:52:17.942085+01 | 1486360337.94209 |                 0 |              31 |                   978 |                   33 |               2327 |             0 |                0 |          487923 |                     0 |        191848 | 2017-02-06 04:16:52.110245+01

 2017-02-06 06:52:19.0397+01 | 1486360339.0397 |                 0 |              31 |                   978 |                   33 |               2327 |             0 |                0 |          487923 |                     0 |        191848 | 2017-02-06 04:16:52.110245+01

 2017-02-06 06:52:20.140075+01 | 1486360340.14007 |                 0 |              31 |                   978 |                   33 |               2327 |             0 |                0 |          487923 |                     0 |        191848 | 2017-02-06 04:16:52.110245+01

 2017-02-06 06:52:21.238835+01 | 1486360341.23884 |                 0 |              31 |                   978 |                   33 |               2327 |             0 |                0 |          487923 |                     0 |        191848 | 2017-02-06 04:16:52.110245+01

