 2017-02-05 19:48:16.266363+01 | 1486320496.26636 | pgbench_accounts |      13712957440
 2017-02-05 19:48:16.266363+01 | 1486320496.26636 | pgbench_tellers  |           450560
 2017-02-05 19:48:16.266363+01 | 1486320496.26636 | pgbench_history  |                0
 2017-02-05 19:48:16.266363+01 | 1486320496.26636 | pgbench_branches |            40960

 2017-02-05 19:48:17.357629+01 | 1486320497.35763 | pgbench_accounts |      13712957440
 2017-02-05 19:48:17.357629+01 | 1486320497.35763 | pgbench_tellers  |           450560
 2017-02-05 19:48:17.357629+01 | 1486320497.35763 | pgbench_history  |          2211840
 2017-02-05 19:48:17.357629+01 | 1486320497.35763 | pgbench_branches |            40960

 2017-02-05 19:48:18.434101+01 | 1486320498.4341 | pgbench_accounts |      13712957440
 2017-02-05 19:48:18.434101+01 | 1486320498.4341 | pgbench_tellers  |           450560
 2017-02-05 19:48:18.434101+01 | 1486320498.4341 | pgbench_history  |          4546560
 2017-02-05 19:48:18.434101+01 | 1486320498.4341 | pgbench_branches |            40960

 2017-02-05 19:48:19.520864+01 | 1486320499.52086 | pgbench_accounts |      13712957440
 2017-02-05 19:48:19.520864+01 | 1486320499.52086 | pgbench_tellers  |           450560
 2017-02-05 19:48:19.520864+01 | 1486320499.52086 | pgbench_history  |          8364032
 2017-02-05 19:48:19.520864+01 | 1486320499.52086 | pgbench_branches |            40960

 2017-02-05 19:48:20.602361+01 | 1486320500.60236 | pgbench_accounts |      13712957440
 2017-02-05 19:48:20.602361+01 | 1486320500.60236 | pgbench_tellers  |           450560
 2017-02-05 19:48:20.602361+01 | 1486320500.60236 | pgbench_history  |         10518528
 2017-02-05 19:48:20.602361+01 | 1486320500.60236 | pgbench_branches |            40960

 2017-02-05 19:48:21.68844+01 | 1486320501.68844 | pgbench_accounts |      13712957440
 2017-02-05 19:48:21.68844+01 | 1486320501.68844 | pgbench_tellers  |           450560
 2017-02-05 19:48:21.68844+01 | 1486320501.68844 | pgbench_history  |         12836864
 2017-02-05 19:48:21.68844+01 | 1486320501.68844 | pgbench_branches |            40960

 2017-02-05 19:48:22.767798+01 | 1486320502.7678 | pgbench_accounts |      13712957440
 2017-02-05 19:48:22.767798+01 | 1486320502.7678 | pgbench_tellers  |           450560
 2017-02-05 19:48:22.767798+01 | 1486320502.7678 | pgbench_history  |         15679488
 2017-02-05 19:48:22.767798+01 | 1486320502.7678 | pgbench_branches |            40960

 2017-02-05 19:48:23.849083+01 | 1486320503.84908 | pgbench_accounts |      13712957440
 2017-02-05 19:48:23.849083+01 | 1486320503.84908 | pgbench_tellers  |           450560
 2017-02-05 19:48:23.849083+01 | 1486320503.84908 | pgbench_history  |         17743872
 2017-02-05 19:48:23.849083+01 | 1486320503.84908 | pgbench_branches |            40960

 2017-02-05 19:48:24.929105+01 | 1486320504.92911 | pgbench_accounts |      13712957440
 2017-02-05 19:48:24.929105+01 | 1486320504.92911 | pgbench_tellers  |           450560
 2017-02-05 19:48:24.929105+01 | 1486320504.92911 | pgbench_history  |         21422080
 2017-02-05 19:48:24.929105+01 | 1486320504.92911 | pgbench_branches |            40960

 2017-02-05 19:48:26.017484+01 | 1486320506.01748 | pgbench_accounts |      13712957440
 2017-02-05 19:48:26.017484+01 | 1486320506.01748 | pgbench_tellers  |           450560
 2017-02-05 19:48:26.017484+01 | 1486320506.01748 | pgbench_history  |         22970368
 2017-02-05 19:48:26.017484+01 | 1486320506.01748 | pgbench_branches |            40960

 2017-02-05 19:48:27.098983+01 | 1486320507.09898 | pgbench_accounts |      13712957440
 2017-02-05 19:48:27.098983+01 | 1486320507.09898 | pgbench_tellers  |           450560
 2017-02-05 19:48:27.098983+01 | 1486320507.09898 | pgbench_history  |         26296320
 2017-02-05 19:48:27.098983+01 | 1486320507.09898 | pgbench_branches |            40960

 2017-02-05 19:48:28.174944+01 | 1486320508.17494 | pgbench_accounts |      13712957440
 2017-02-05 19:48:28.174944+01 | 1486320508.17494 | pgbench_tellers  |           450560
 2017-02-05 19:48:28.174944+01 | 1486320508.17494 | pgbench_history  |         28499968
 2017-02-05 19:48:28.174944+01 | 1486320508.17494 | pgbench_branches |            40960

 2017-02-05 19:48:29.254491+01 | 1486320509.25449 | pgbench_accounts |      13712957440
 2017-02-05 19:48:29.254491+01 | 1486320509.25449 | pgbench_tellers  |           450560
 2017-02-05 19:48:29.254491+01 | 1486320509.25449 | pgbench_history  |         31522816
 2017-02-05 19:48:29.254491+01 | 1486320509.25449 | pgbench_branches |            40960

 2017-02-05 19:48:30.334401+01 | 1486320510.3344 | pgbench_accounts |      13712957440
 2017-02-05 19:48:30.334401+01 | 1486320510.3344 | pgbench_tellers  |           450560
 2017-02-05 19:48:30.334401+01 | 1486320510.3344 | pgbench_history  |         34553856
 2017-02-05 19:48:30.334401+01 | 1486320510.3344 | pgbench_branches |            40960

 2017-02-05 19:48:31.413614+01 | 1486320511.41361 | pgbench_accounts |      13712957440
 2017-02-05 19:48:31.413614+01 | 1486320511.41361 | pgbench_tellers  |           450560
 2017-02-05 19:48:31.413614+01 | 1486320511.41361 | pgbench_history  |         37789696
 2017-02-05 19:48:31.413614+01 | 1486320511.41361 | pgbench_branches |            40960

 2017-02-05 19:48:32.49538+01 | 1486320512.49538 | pgbench_accounts |      13712957440
 2017-02-05 19:48:32.49538+01 | 1486320512.49538 | pgbench_tellers  |           450560
 2017-02-05 19:48:32.49538+01 | 1486320512.49538 | pgbench_history  |         40509440
 2017-02-05 19:48:32.49538+01 | 1486320512.49538 | pgbench_branches |            40960

 2017-02-05 19:48:33.572479+01 | 1486320513.57248 | pgbench_accounts |      13712957440
 2017-02-05 19:48:33.572479+01 | 1486320513.57248 | pgbench_tellers  |           450560
 2017-02-05 19:48:33.572479+01 | 1486320513.57248 | pgbench_history  |         44490752
 2017-02-05 19:48:33.572479+01 | 1486320513.57248 | pgbench_branches |            40960

 2017-02-05 19:48:34.653615+01 | 1486320514.65361 | pgbench_accounts |      13712957440
 2017-02-05 19:48:34.653615+01 | 1486320514.65361 | pgbench_tellers  |           450560
 2017-02-05 19:48:34.653615+01 | 1486320514.65361 | pgbench_history  |         47702016
 2017-02-05 19:48:34.653615+01 | 1486320514.65361 | pgbench_branches |            40960

 2017-02-05 19:48:35.730204+01 | 1486320515.7302 | pgbench_accounts |      13712957440
 2017-02-05 19:48:35.730204+01 | 1486320515.7302 | pgbench_tellers  |           450560
 2017-02-05 19:48:35.730204+01 | 1486320515.7302 | pgbench_history  |         50372608
 2017-02-05 19:48:35.730204+01 | 1486320515.7302 | pgbench_branches |            40960

 2017-02-05 19:48:36.812633+01 | 1486320516.81263 | pgbench_accounts |      13712957440
 2017-02-05 19:48:36.812633+01 | 1486320516.81263 | pgbench_tellers  |           450560
 2017-02-05 19:48:36.812633+01 | 1486320516.81263 | pgbench_history  |         54681600
 2017-02-05 19:48:36.812633+01 | 1486320516.81263 | pgbench_branches |            40960

 2017-02-05 19:48:37.896002+01 | 1486320517.896 | pgbench_accounts |      13712957440
 2017-02-05 19:48:37.896002+01 | 1486320517.896 | pgbench_tellers  |           450560
 2017-02-05 19:48:37.896002+01 | 1486320517.896 | pgbench_history  |         56696832
 2017-02-05 19:48:37.896002+01 | 1486320517.896 | pgbench_branches |            40960

 2017-02-05 19:48:38.972796+01 | 1486320518.9728 | pgbench_accounts |      13712957440
 2017-02-05 19:48:38.972796+01 | 1486320518.9728 | pgbench_tellers  |           450560
 2017-02-05 19:48:38.972796+01 | 1486320518.9728 | pgbench_history  |         59768832
 2017-02-05 19:48:38.972796+01 | 1486320518.9728 | pgbench_branches |            40960

 2017-02-05 19:48:40.048024+01 | 1486320520.04802 | pgbench_accounts |      13712957440
 2017-02-05 19:48:40.048024+01 | 1486320520.04802 | pgbench_tellers  |           450560
 2017-02-05 19:48:40.048024+01 | 1486320520.04802 | pgbench_history  |         63307776
 2017-02-05 19:48:40.048024+01 | 1486320520.04802 | pgbench_branches |            40960

 2017-02-05 19:48:41.125734+01 | 1486320521.12573 | pgbench_accounts |      13712957440
 2017-02-05 19:48:41.125734+01 | 1486320521.12573 | pgbench_tellers  |           450560
 2017-02-05 19:48:41.125734+01 | 1486320521.12573 | pgbench_history  |         67502080
 2017-02-05 19:48:41.125734+01 | 1486320521.12573 | pgbench_branches |            40960

 2017-02-05 19:48:42.208788+01 | 1486320522.20879 | pgbench_accounts |      13712957440
 2017-02-05 19:48:42.208788+01 | 1486320522.20879 | pgbench_tellers  |           450560
 2017-02-05 19:48:42.208788+01 | 1486320522.20879 | pgbench_history  |         69328896
 2017-02-05 19:48:42.208788+01 | 1486320522.20879 | pgbench_branches |            40960

 2017-02-05 19:48:43.289867+01 | 1486320523.28987 | pgbench_accounts |      13712957440
 2017-02-05 19:48:43.289867+01 | 1486320523.28987 | pgbench_tellers  |           450560
 2017-02-05 19:48:43.289867+01 | 1486320523.28987 | pgbench_history  |         73310208
 2017-02-05 19:48:43.289867+01 | 1486320523.28987 | pgbench_branches |            40960

 2017-02-05 19:48:44.367925+01 | 1486320524.36792 | pgbench_accounts |      13712957440
 2017-02-05 19:48:44.367925+01 | 1486320524.36792 | pgbench_tellers  |           450560
 2017-02-05 19:48:44.367925+01 | 1486320524.36792 | pgbench_history  |         75677696
 2017-02-05 19:48:44.367925+01 | 1486320524.36792 | pgbench_branches |            40960

 2017-02-05 19:48:45.448096+01 | 1486320525.4481 | pgbench_accounts |      13712957440
 2017-02-05 19:48:45.448096+01 | 1486320525.4481 | pgbench_tellers  |           450560
 2017-02-05 19:48:45.448096+01 | 1486320525.4481 | pgbench_history  |         78888960
 2017-02-05 19:48:45.448096+01 | 1486320525.4481 | pgbench_branches |            40960

 2017-02-05 19:48:46.531616+01 | 1486320526.53162 | pgbench_accounts |      13712957440
 2017-02-05 19:48:46.531616+01 | 1486320526.53162 | pgbench_tellers  |           450560
 2017-02-05 19:48:46.531616+01 | 1486320526.53162 | pgbench_history  |         82239488
 2017-02-05 19:48:46.531616+01 | 1486320526.53162 | pgbench_branches |            40960

 2017-02-05 19:48:47.609381+01 | 1486320527.60938 | pgbench_accounts |      13712957440
 2017-02-05 19:48:47.609381+01 | 1486320527.60938 | pgbench_tellers  |           450560
 2017-02-05 19:48:47.609381+01 | 1486320527.60938 | pgbench_history  |         85893120
 2017-02-05 19:48:47.609381+01 | 1486320527.60938 | pgbench_branches |            40960

 2017-02-05 19:48:48.685403+01 | 1486320528.6854 | pgbench_accounts |      13712957440
 2017-02-05 19:48:48.685403+01 | 1486320528.6854 | pgbench_tellers  |           450560
 2017-02-05 19:48:48.685403+01 | 1486320528.6854 | pgbench_history  |         88080384
 2017-02-05 19:48:48.685403+01 | 1486320528.6854 | pgbench_branches |            40960

 2017-02-05 19:48:49.771331+01 | 1486320529.77133 | pgbench_accounts |      13712957440
 2017-02-05 19:48:49.771331+01 | 1486320529.77133 | pgbench_tellers  |           450560
 2017-02-05 19:48:49.771331+01 | 1486320529.77133 | pgbench_history  |         92413952
 2017-02-05 19:48:49.771331+01 | 1486320529.77133 | pgbench_branches |            40960

 2017-02-05 19:48:50.856901+01 | 1486320530.8569 | pgbench_accounts |      13712957440
 2017-02-05 19:48:50.856901+01 | 1486320530.8569 | pgbench_tellers  |           450560
 2017-02-05 19:48:50.856901+01 | 1486320530.8569 | pgbench_history  |         94101504
 2017-02-05 19:48:50.856901+01 | 1486320530.8569 | pgbench_branches |            40960

 2017-02-05 19:48:51.951747+01 | 1486320531.95175 | pgbench_accounts |      13712957440
 2017-02-05 19:48:51.951747+01 | 1486320531.95175 | pgbench_tellers  |           450560
 2017-02-05 19:48:51.951747+01 | 1486320531.95175 | pgbench_history  |         97918976
 2017-02-05 19:48:51.951747+01 | 1486320531.95175 | pgbench_branches |            40960

 2017-02-05 19:48:53.038836+01 | 1486320533.03884 | pgbench_accounts |      13712957440
 2017-02-05 19:48:53.038836+01 | 1486320533.03884 | pgbench_tellers  |           450560
 2017-02-05 19:48:53.038836+01 | 1486320533.03884 | pgbench_history  |         99606528
 2017-02-05 19:48:53.038836+01 | 1486320533.03884 | pgbench_branches |            40960

 2017-02-05 19:48:54.118571+01 | 1486320534.11857 | pgbench_accounts |      13712957440
 2017-02-05 19:48:54.118571+01 | 1486320534.11857 | pgbench_tellers  |           450560
 2017-02-05 19:48:54.118571+01 | 1486320534.11857 | pgbench_history  |        103612416
 2017-02-05 19:48:54.118571+01 | 1486320534.11857 | pgbench_branches |            40960

 2017-02-05 19:48:55.201906+01 | 1486320535.20191 | pgbench_accounts |      13712957440
 2017-02-05 19:48:55.201906+01 | 1486320535.20191 | pgbench_tellers  |           450560
 2017-02-05 19:48:55.201906+01 | 1486320535.20191 | pgbench_history  |        106143744
 2017-02-05 19:48:55.201906+01 | 1486320535.20191 | pgbench_branches |            40960

 2017-02-05 19:48:56.277336+01 | 1486320536.27734 | pgbench_accounts |      13712957440
 2017-02-05 19:48:56.277336+01 | 1486320536.27734 | pgbench_tellers  |           450560
 2017-02-05 19:48:56.277336+01 | 1486320536.27734 | pgbench_history  |        110395392
 2017-02-05 19:48:56.277336+01 | 1486320536.27734 | pgbench_branches |            40960

 2017-02-05 19:48:57.371686+01 | 1486320537.37169 | pgbench_accounts |      13712957440
 2017-02-05 19:48:57.371686+01 | 1486320537.37169 | pgbench_tellers  |           450560
 2017-02-05 19:48:57.371686+01 | 1486320537.37169 | pgbench_history  |        114073600
 2017-02-05 19:48:57.371686+01 | 1486320537.37169 | pgbench_branches |            40960

 2017-02-05 19:48:58.457273+01 | 1486320538.45727 | pgbench_accounts |      13712957440
 2017-02-05 19:48:58.457273+01 | 1486320538.45727 | pgbench_tellers  |           450560
 2017-02-05 19:48:58.457273+01 | 1486320538.45727 | pgbench_history  |        116391936
 2017-02-05 19:48:58.457273+01 | 1486320538.45727 | pgbench_branches |            40960

 2017-02-05 19:48:59.535413+01 | 1486320539.53541 | pgbench_accounts |      13712957440
 2017-02-05 19:48:59.535413+01 | 1486320539.53541 | pgbench_tellers  |           450560
 2017-02-05 19:48:59.535413+01 | 1486320539.53541 | pgbench_history  |        119414784
 2017-02-05 19:48:59.535413+01 | 1486320539.53541 | pgbench_branches |            40960

 2017-02-05 19:49:00.601041+01 | 1486320540.60104 | pgbench_accounts |      13712957440
 2017-02-05 19:49:00.601041+01 | 1486320540.60104 | pgbench_tellers  |           450560
 2017-02-05 19:49:00.601041+01 | 1486320540.60104 | pgbench_history  |        122437632
 2017-02-05 19:49:00.601041+01 | 1486320540.60104 | pgbench_branches |            40960

 2017-02-05 19:49:01.690094+01 | 1486320541.69009 | pgbench_accounts |      13712957440
 2017-02-05 19:49:01.690094+01 | 1486320541.69009 | pgbench_tellers  |           450560
 2017-02-05 19:49:01.690094+01 | 1486320541.69009 | pgbench_history  |        125509632
 2017-02-05 19:49:01.690094+01 | 1486320541.69009 | pgbench_branches |            40960

 2017-02-05 19:49:02.769121+01 | 1486320542.76912 | pgbench_accounts |      13712957440
 2017-02-05 19:49:02.769121+01 | 1486320542.76912 | pgbench_tellers  |           450560
 2017-02-05 19:49:02.769121+01 | 1486320542.76912 | pgbench_history  |        129867776
 2017-02-05 19:49:02.769121+01 | 1486320542.76912 | pgbench_branches |            40960

 2017-02-05 19:49:03.848982+01 | 1486320543.84898 | pgbench_accounts |      13712957440
 2017-02-05 19:49:03.848982+01 | 1486320543.84898 | pgbench_tellers  |           450560
 2017-02-05 19:49:03.848982+01 | 1486320543.84898 | pgbench_history  |        133332992
 2017-02-05 19:49:03.848982+01 | 1486320543.84898 | pgbench_branches |            40960

 2017-02-05 19:49:04.935533+01 | 1486320544.93553 | pgbench_accounts |      13712957440
 2017-02-05 19:49:04.935533+01 | 1486320544.93553 | pgbench_tellers  |           450560
 2017-02-05 19:49:04.935533+01 | 1486320544.93553 | pgbench_history  |        135487488
 2017-02-05 19:49:04.935533+01 | 1486320544.93553 | pgbench_branches |            40960

 2017-02-05 19:49:06.015061+01 | 1486320546.01506 | pgbench_accounts |      13712957440
 2017-02-05 19:49:06.015061+01 | 1486320546.01506 | pgbench_tellers  |           450560
 2017-02-05 19:49:06.015061+01 | 1486320546.01506 | pgbench_history  |        140009472
 2017-02-05 19:49:06.015061+01 | 1486320546.01506 | pgbench_branches |            40960

 2017-02-05 19:49:07.098192+01 | 1486320547.09819 | pgbench_accounts |      13712957440
 2017-02-05 19:49:07.098192+01 | 1486320547.09819 | pgbench_tellers  |           450560
 2017-02-05 19:49:07.098192+01 | 1486320547.09819 | pgbench_history  |        142704640
 2017-02-05 19:49:07.098192+01 | 1486320547.09819 | pgbench_branches |            40960

 2017-02-05 19:49:08.181322+01 | 1486320548.18132 | pgbench_accounts |      13712957440
 2017-02-05 19:49:08.181322+01 | 1486320548.18132 | pgbench_tellers  |           450560
 2017-02-05 19:49:08.181322+01 | 1486320548.18132 | pgbench_history  |        146235392
 2017-02-05 19:49:08.181322+01 | 1486320548.18132 | pgbench_branches |            40960

 2017-02-05 19:49:09.257922+01 | 1486320549.25792 | pgbench_accounts |      13712957440
 2017-02-05 19:49:09.257922+01 | 1486320549.25792 | pgbench_tellers  |           450560
 2017-02-05 19:49:09.257922+01 | 1486320549.25792 | pgbench_history  |        149397504
 2017-02-05 19:49:09.257922+01 | 1486320549.25792 | pgbench_branches |            40960

 2017-02-05 19:49:10.331945+01 | 1486320550.33194 | pgbench_accounts |      13712957440
 2017-02-05 19:49:10.331945+01 | 1486320550.33194 | pgbench_tellers  |           450560
 2017-02-05 19:49:10.331945+01 | 1486320550.33194 | pgbench_history  |        152584192
 2017-02-05 19:49:10.331945+01 | 1486320550.33194 | pgbench_branches |            40960

 2017-02-05 19:49:11.411765+01 | 1486320551.41177 | pgbench_accounts |      13712957440
 2017-02-05 19:49:11.411765+01 | 1486320551.41177 | pgbench_tellers  |           450560
 2017-02-05 19:49:11.411765+01 | 1486320551.41177 | pgbench_history  |        156729344
 2017-02-05 19:49:11.411765+01 | 1486320551.41177 | pgbench_branches |            40960

 2017-02-05 19:49:12.486774+01 | 1486320552.48677 | pgbench_accounts |      13712957440
 2017-02-05 19:49:12.486774+01 | 1486320552.48677 | pgbench_tellers  |           450560
 2017-02-05 19:49:12.486774+01 | 1486320552.48677 | pgbench_history  |        159399936
 2017-02-05 19:49:12.486774+01 | 1486320552.48677 | pgbench_branches |            40960

 2017-02-05 19:49:13.567694+01 | 1486320553.56769 | pgbench_accounts |      13712957440
 2017-02-05 19:49:13.567694+01 | 1486320553.56769 | pgbench_tellers  |           450560
 2017-02-05 19:49:13.567694+01 | 1486320553.56769 | pgbench_history  |        163266560
 2017-02-05 19:49:13.567694+01 | 1486320553.56769 | pgbench_branches |            40960

 2017-02-05 19:49:14.64909+01 | 1486320554.64909 | pgbench_accounts |      13712957440
 2017-02-05 19:49:14.64909+01 | 1486320554.64909 | pgbench_tellers  |           450560
 2017-02-05 19:49:14.64909+01 | 1486320554.64909 | pgbench_history  |        166666240
 2017-02-05 19:49:14.64909+01 | 1486320554.64909 | pgbench_branches |            40960

 2017-02-05 19:49:15.736698+01 | 1486320555.7367 | pgbench_accounts |      13712957440
 2017-02-05 19:49:15.736698+01 | 1486320555.7367 | pgbench_tellers  |           450560
 2017-02-05 19:49:15.736698+01 | 1486320555.7367 | pgbench_history  |        169664512
 2017-02-05 19:49:15.736698+01 | 1486320555.7367 | pgbench_branches |            40960

 2017-02-05 19:49:16.823833+01 | 1486320556.82383 | pgbench_accounts |      13712957440
 2017-02-05 19:49:16.823833+01 | 1486320556.82383 | pgbench_tellers  |           450560
 2017-02-05 19:49:16.823833+01 | 1486320556.82383 | pgbench_history  |        172548096
 2017-02-05 19:49:16.823833+01 | 1486320556.82383 | pgbench_branches |            40960

 2017-02-05 19:49:17.896881+01 | 1486320557.89688 | pgbench_accounts |      13712957440
 2017-02-05 19:49:17.896881+01 | 1486320557.89688 | pgbench_tellers  |           450560
 2017-02-05 19:49:17.896881+01 | 1486320557.89688 | pgbench_history  |        176578560
 2017-02-05 19:49:17.896881+01 | 1486320557.89688 | pgbench_branches |            40960

 2017-02-05 19:49:18.978674+01 | 1486320558.97867 | pgbench_accounts |      13712957440
 2017-02-05 19:49:18.978674+01 | 1486320558.97867 | pgbench_tellers  |           450560
 2017-02-05 19:49:18.978674+01 | 1486320558.97867 | pgbench_history  |        179298304
 2017-02-05 19:49:18.978674+01 | 1486320558.97867 | pgbench_branches |            40960

 2017-02-05 19:49:20.06434+01 | 1486320560.06434 | pgbench_accounts |      13712957440
 2017-02-05 19:49:20.06434+01 | 1486320560.06434 | pgbench_tellers  |           450560
 2017-02-05 19:49:20.06434+01 | 1486320560.06434 | pgbench_history  |        184147968
 2017-02-05 19:49:20.06434+01 | 1486320560.06434 | pgbench_branches |            40960

 2017-02-05 19:49:21.140029+01 | 1486320561.14003 | pgbench_accounts |      13712957440
 2017-02-05 19:49:21.140029+01 | 1486320561.14003 | pgbench_tellers  |           450560
 2017-02-05 19:49:21.140029+01 | 1486320561.14003 | pgbench_history  |        186327040
 2017-02-05 19:49:21.140029+01 | 1486320561.14003 | pgbench_branches |            40960

 2017-02-05 19:49:22.218972+01 | 1486320562.21897 | pgbench_accounts |      13712957440
 2017-02-05 19:49:22.218972+01 | 1486320562.21897 | pgbench_tellers  |           450560
 2017-02-05 19:49:22.218972+01 | 1486320562.21897 | pgbench_history  |        191995904
 2017-02-05 19:49:22.218972+01 | 1486320562.21897 | pgbench_branches |            40960

 2017-02-05 19:49:23.295454+01 | 1486320563.29545 | pgbench_accounts |      13712957440
 2017-02-05 19:49:23.295454+01 | 1486320563.29545 | pgbench_tellers  |           450560
 2017-02-05 19:49:23.295454+01 | 1486320563.29545 | pgbench_history  |        193167360
 2017-02-05 19:49:23.295454+01 | 1486320563.29545 | pgbench_branches |            40960

 2017-02-05 19:49:24.369627+01 | 1486320564.36963 | pgbench_accounts |      13712957440
 2017-02-05 19:49:24.369627+01 | 1486320564.36963 | pgbench_tellers  |           450560
 2017-02-05 19:49:24.369627+01 | 1486320564.36963 | pgbench_history  |        196378624
 2017-02-05 19:49:24.369627+01 | 1486320564.36963 | pgbench_branches |            40960

 2017-02-05 19:49:25.447342+01 | 1486320565.44734 | pgbench_accounts |      13712957440
 2017-02-05 19:49:25.447342+01 | 1486320565.44734 | pgbench_tellers  |           450560
 2017-02-05 19:49:25.447342+01 | 1486320565.44734 | pgbench_history  |        199778304
 2017-02-05 19:49:25.447342+01 | 1486320565.44734 | pgbench_branches |            40960

 2017-02-05 19:49:26.536794+01 | 1486320566.53679 | pgbench_accounts |      13712957440
 2017-02-05 19:49:26.536794+01 | 1486320566.53679 | pgbench_tellers  |           450560
 2017-02-05 19:49:26.536794+01 | 1486320566.53679 | pgbench_history  |        203481088
 2017-02-05 19:49:26.536794+01 | 1486320566.53679 | pgbench_branches |            40960

 2017-02-05 19:49:27.620074+01 | 1486320567.62007 | pgbench_accounts |      13712957440
 2017-02-05 19:49:27.620074+01 | 1486320567.62007 | pgbench_tellers  |           450560
 2017-02-05 19:49:27.620074+01 | 1486320567.62007 | pgbench_history  |        208379904
 2017-02-05 19:49:27.620074+01 | 1486320567.62007 | pgbench_branches |            40960

 2017-02-05 19:49:28.707716+01 | 1486320568.70772 | pgbench_accounts |      13712957440
 2017-02-05 19:49:28.707716+01 | 1486320568.70772 | pgbench_tellers  |           450560
 2017-02-05 19:49:28.707716+01 | 1486320568.70772 | pgbench_history  |        209928192
 2017-02-05 19:49:28.707716+01 | 1486320568.70772 | pgbench_branches |            40960

 2017-02-05 19:49:29.788251+01 | 1486320569.78825 | pgbench_accounts |      13712957440
 2017-02-05 19:49:29.788251+01 | 1486320569.78825 | pgbench_tellers  |           450560
 2017-02-05 19:49:29.788251+01 | 1486320569.78825 | pgbench_history  |        214237184
 2017-02-05 19:49:29.788251+01 | 1486320569.78825 | pgbench_branches |            40960

 2017-02-05 19:49:30.875036+01 | 1486320570.87504 | pgbench_accounts |      13712957440
 2017-02-05 19:49:30.875036+01 | 1486320570.87504 | pgbench_tellers  |           450560
 2017-02-05 19:49:30.875036+01 | 1486320570.87504 | pgbench_history  |        220823552
 2017-02-05 19:49:30.875036+01 | 1486320570.87504 | pgbench_branches |            40960

 2017-02-05 19:49:31.962359+01 | 1486320571.96236 | pgbench_accounts |      13712957440
 2017-02-05 19:49:31.962359+01 | 1486320571.96236 | pgbench_tellers  |           450560
 2017-02-05 19:49:31.962359+01 | 1486320571.96236 | pgbench_history  |        220823552
 2017-02-05 19:49:31.962359+01 | 1486320571.96236 | pgbench_branches |            40960

 2017-02-05 19:49:33.042428+01 | 1486320573.04243 | pgbench_accounts |      13712957440
 2017-02-05 19:49:33.042428+01 | 1486320573.04243 | pgbench_tellers  |           450560
 2017-02-05 19:49:33.042428+01 | 1486320573.04243 | pgbench_history  |        225042432
 2017-02-05 19:49:33.042428+01 | 1486320573.04243 | pgbench_branches |            40960

 2017-02-05 19:49:34.123057+01 | 1486320574.12306 | pgbench_accounts |      13712957440
 2017-02-05 19:49:34.123057+01 | 1486320574.12306 | pgbench_tellers  |           450560
 2017-02-05 19:49:34.123057+01 | 1486320574.12306 | pgbench_history  |        227418112
 2017-02-05 19:49:34.123057+01 | 1486320574.12306 | pgbench_branches |            40960

 2017-02-05 19:49:35.208012+01 | 1486320575.20801 | pgbench_accounts |      13712957440
 2017-02-05 19:49:35.208012+01 | 1486320575.20801 | pgbench_tellers  |           450560
 2017-02-05 19:49:35.208012+01 | 1486320575.20801 | pgbench_history  |        231800832
 2017-02-05 19:49:35.208012+01 | 1486320575.20801 | pgbench_branches |            40960

 2017-02-05 19:49:36.28471+01 | 1486320576.28471 | pgbench_accounts |      13712957440
 2017-02-05 19:49:36.28471+01 | 1486320576.28471 | pgbench_tellers  |           450560
 2017-02-05 19:49:36.28471+01 | 1486320576.28471 | pgbench_history  |        234856448
 2017-02-05 19:49:36.28471+01 | 1486320576.28471 | pgbench_branches |            40960

 2017-02-05 19:49:37.363441+01 | 1486320577.36344 | pgbench_accounts |      13712957440
 2017-02-05 19:49:37.363441+01 | 1486320577.36344 | pgbench_tellers  |           450560
 2017-02-05 19:49:37.363441+01 | 1486320577.36344 | pgbench_history  |        237748224
 2017-02-05 19:49:37.363441+01 | 1486320577.36344 | pgbench_branches |            40960

 2017-02-05 19:49:38.44328+01 | 1486320578.44328 | pgbench_accounts |      13712957440
 2017-02-05 19:49:38.44328+01 | 1486320578.44328 | pgbench_tellers  |           450560
 2017-02-05 19:49:38.44328+01 | 1486320578.44328 | pgbench_history  |        241270784
 2017-02-05 19:49:38.44328+01 | 1486320578.44328 | pgbench_branches |            40960

 2017-02-05 19:49:39.526024+01 | 1486320579.52602 | pgbench_accounts |      13712957440
 2017-02-05 19:49:39.526024+01 | 1486320579.52602 | pgbench_tellers  |           450560
 2017-02-05 19:49:39.526024+01 | 1486320579.52602 | pgbench_history  |        245112832
 2017-02-05 19:49:39.526024+01 | 1486320579.52602 | pgbench_branches |            40960

 2017-02-05 19:49:40.607965+01 | 1486320580.60796 | pgbench_accounts |      13712957440
 2017-02-05 19:49:40.607965+01 | 1486320580.60796 | pgbench_tellers  |           450560
 2017-02-05 19:49:40.607965+01 | 1486320580.60796 | pgbench_history  |        249634816
 2017-02-05 19:49:40.607965+01 | 1486320580.60796 | pgbench_branches |            40960

 2017-02-05 19:49:41.690287+01 | 1486320581.69029 | pgbench_accounts |      13712957440
 2017-02-05 19:49:41.690287+01 | 1486320581.69029 | pgbench_tellers  |           450560
 2017-02-05 19:49:41.690287+01 | 1486320581.69029 | pgbench_history  |        251813888
 2017-02-05 19:49:41.690287+01 | 1486320581.69029 | pgbench_branches |            40960

 2017-02-05 19:49:42.77087+01 | 1486320582.77087 | pgbench_accounts |      13712957440
 2017-02-05 19:49:42.77087+01 | 1486320582.77087 | pgbench_tellers  |           450560
 2017-02-05 19:49:42.77087+01 | 1486320582.77087 | pgbench_history  |        255377408
 2017-02-05 19:49:42.77087+01 | 1486320582.77087 | pgbench_branches |            40960

 2017-02-05 19:49:43.851695+01 | 1486320583.8517 | pgbench_accounts |      13712957440
 2017-02-05 19:49:43.851695+01 | 1486320583.8517 | pgbench_tellers  |           450560
 2017-02-05 19:49:43.851695+01 | 1486320583.8517 | pgbench_history  |        259579904
 2017-02-05 19:49:43.851695+01 | 1486320583.8517 | pgbench_branches |            40960

 2017-02-05 19:49:44.933634+01 | 1486320584.93363 | pgbench_accounts |      13712957440
 2017-02-05 19:49:44.933634+01 | 1486320584.93363 | pgbench_tellers  |           450560
 2017-02-05 19:49:44.933634+01 | 1486320584.93363 | pgbench_history  |        261947392
 2017-02-05 19:49:44.933634+01 | 1486320584.93363 | pgbench_branches |            40960

 2017-02-05 19:49:46.018134+01 | 1486320586.01813 | pgbench_accounts |      13712957440
 2017-02-05 19:49:46.018134+01 | 1486320586.01813 | pgbench_tellers  |           450560
 2017-02-05 19:49:46.018134+01 | 1486320586.01813 | pgbench_history  |        266002432
 2017-02-05 19:49:46.018134+01 | 1486320586.01813 | pgbench_branches |            40960

 2017-02-05 19:49:47.09487+01 | 1486320587.09487 | pgbench_accounts |      13712957440
 2017-02-05 19:49:47.09487+01 | 1486320587.09487 | pgbench_tellers  |           450560
 2017-02-05 19:49:47.09487+01 | 1486320587.09487 | pgbench_history  |        269541376
 2017-02-05 19:49:47.09487+01 | 1486320587.09487 | pgbench_branches |            40960

 2017-02-05 19:49:48.176643+01 | 1486320588.17664 | pgbench_accounts |      13712957440
 2017-02-05 19:49:48.176643+01 | 1486320588.17664 | pgbench_tellers  |           450560
 2017-02-05 19:49:48.176643+01 | 1486320588.17664 | pgbench_history  |        274546688
 2017-02-05 19:49:48.176643+01 | 1486320588.17664 | pgbench_branches |            40960

 2017-02-05 19:49:49.258426+01 | 1486320589.25843 | pgbench_accounts |      13712957440
 2017-02-05 19:49:49.258426+01 | 1486320589.25843 | pgbench_tellers  |           450560
 2017-02-05 19:49:49.258426+01 | 1486320589.25843 | pgbench_history  |        275718144
 2017-02-05 19:49:49.258426+01 | 1486320589.25843 | pgbench_branches |            40960

 2017-02-05 19:49:50.335166+01 | 1486320590.33517 | pgbench_accounts |      13712957440
 2017-02-05 19:49:50.335166+01 | 1486320590.33517 | pgbench_tellers  |           450560
 2017-02-05 19:49:50.335166+01 | 1486320590.33517 | pgbench_history  |        280076288
 2017-02-05 19:49:50.335166+01 | 1486320590.33517 | pgbench_branches |            40960

 2017-02-05 19:49:51.419652+01 | 1486320591.41965 | pgbench_accounts |      13712957440
 2017-02-05 19:49:51.419652+01 | 1486320591.41965 | pgbench_tellers  |           450560
 2017-02-05 19:49:51.419652+01 | 1486320591.41965 | pgbench_history  |        282935296
 2017-02-05 19:49:51.419652+01 | 1486320591.41965 | pgbench_branches |            40960

 2017-02-05 19:49:52.498534+01 | 1486320592.49853 | pgbench_accounts |      13712957440
 2017-02-05 19:49:52.498534+01 | 1486320592.49853 | pgbench_tellers  |           450560
 2017-02-05 19:49:52.498534+01 | 1486320592.49853 | pgbench_history  |        287744000
 2017-02-05 19:49:52.498534+01 | 1486320592.49853 | pgbench_branches |            40960

 2017-02-05 19:49:53.576181+01 | 1486320593.57618 | pgbench_accounts |      13712957440
 2017-02-05 19:49:53.576181+01 | 1486320593.57618 | pgbench_tellers  |           450560
 2017-02-05 19:49:53.576181+01 | 1486320593.57618 | pgbench_history  |        289759232
 2017-02-05 19:49:53.576181+01 | 1486320593.57618 | pgbench_branches |            40960

 2017-02-05 19:49:54.654024+01 | 1486320594.65402 | pgbench_accounts |      13712957440
 2017-02-05 19:49:54.654024+01 | 1486320594.65402 | pgbench_tellers  |           450560
 2017-02-05 19:49:54.654024+01 | 1486320594.65402 | pgbench_history  |        293470208
 2017-02-05 19:49:54.654024+01 | 1486320594.65402 | pgbench_branches |            40960

 2017-02-05 19:49:55.736378+01 | 1486320595.73638 | pgbench_accounts |      13712957440
 2017-02-05 19:49:55.736378+01 | 1486320595.73638 | pgbench_tellers  |           450560
 2017-02-05 19:49:55.736378+01 | 1486320595.73638 | pgbench_history  |        296034304
 2017-02-05 19:49:55.736378+01 | 1486320595.73638 | pgbench_branches |            40960

 2017-02-05 19:49:56.820129+01 | 1486320596.82013 | pgbench_accounts |      13712957440
 2017-02-05 19:49:56.820129+01 | 1486320596.82013 | pgbench_tellers  |           450560
 2017-02-05 19:49:56.820129+01 | 1486320596.82013 | pgbench_history  |        302456832
 2017-02-05 19:49:56.820129+01 | 1486320596.82013 | pgbench_branches |            40960

 2017-02-05 19:49:57.900335+01 | 1486320597.90034 | pgbench_accounts |      13712957440
 2017-02-05 19:49:57.900335+01 | 1486320597.90034 | pgbench_tellers  |           450560
 2017-02-05 19:49:57.900335+01 | 1486320597.90034 | pgbench_history  |        302972928
 2017-02-05 19:49:57.900335+01 | 1486320597.90034 | pgbench_branches |            40960

 2017-02-05 19:49:58.985001+01 | 1486320598.985 | pgbench_accounts |      13712957440
 2017-02-05 19:49:58.985001+01 | 1486320598.985 | pgbench_tellers  |           450560
 2017-02-05 19:49:58.985001+01 | 1486320598.985 | pgbench_history  |        306331648
 2017-02-05 19:49:58.985001+01 | 1486320598.985 | pgbench_branches |            40960

 2017-02-05 19:50:00.064962+01 | 1486320600.06496 | pgbench_accounts |      13712957440
 2017-02-05 19:50:00.064962+01 | 1486320600.06496 | pgbench_tellers  |           450560
 2017-02-05 19:50:00.064962+01 | 1486320600.06496 | pgbench_history  |        309551104
 2017-02-05 19:50:00.064962+01 | 1486320600.06496 | pgbench_branches |            40960

 2017-02-05 19:50:01.146322+01 | 1486320601.14632 | pgbench_accounts |      13712957440
 2017-02-05 19:50:01.146322+01 | 1486320601.14632 | pgbench_tellers  |           450560
 2017-02-05 19:50:01.146322+01 | 1486320601.14632 | pgbench_history  |        314212352
 2017-02-05 19:50:01.146322+01 | 1486320601.14632 | pgbench_branches |            40960

 2017-02-05 19:50:02.225449+01 | 1486320602.22545 | pgbench_accounts |      13712957440
 2017-02-05 19:50:02.225449+01 | 1486320602.22545 | pgbench_tellers  |           450560
 2017-02-05 19:50:02.225449+01 | 1486320602.22545 | pgbench_history  |        316555264
 2017-02-05 19:50:02.225449+01 | 1486320602.22545 | pgbench_branches |            40960

 2017-02-05 19:50:03.302265+01 | 1486320603.30226 | pgbench_accounts |      13712957440
 2017-02-05 19:50:03.302265+01 | 1486320603.30226 | pgbench_tellers  |           450560
 2017-02-05 19:50:03.302265+01 | 1486320603.30226 | pgbench_history  |        320757760
 2017-02-05 19:50:03.302265+01 | 1486320603.30226 | pgbench_branches |            40960

 2017-02-05 19:50:04.377633+01 | 1486320604.37763 | pgbench_accounts |      13712957440
 2017-02-05 19:50:04.377633+01 | 1486320604.37763 | pgbench_tellers  |           450560
 2017-02-05 19:50:04.377633+01 | 1486320604.37763 | pgbench_history  |        323592192
 2017-02-05 19:50:04.377633+01 | 1486320604.37763 | pgbench_branches |            40960

 2017-02-05 19:50:05.454957+01 | 1486320605.45496 | pgbench_accounts |      13712957440
 2017-02-05 19:50:05.454957+01 | 1486320605.45496 | pgbench_tellers  |           450560
 2017-02-05 19:50:05.454957+01 | 1486320605.45496 | pgbench_history  |        327409664
 2017-02-05 19:50:05.454957+01 | 1486320605.45496 | pgbench_branches |            40960

 2017-02-05 19:50:06.535615+01 | 1486320606.53561 | pgbench_accounts |      13712957440
 2017-02-05 19:50:06.535615+01 | 1486320606.53561 | pgbench_tellers  |           450560
 2017-02-05 19:50:06.535615+01 | 1486320606.53561 | pgbench_history  |        331087872
 2017-02-05 19:50:06.535615+01 | 1486320606.53561 | pgbench_branches |            40960

 2017-02-05 19:50:07.619859+01 | 1486320607.61986 | pgbench_accounts |      13712957440
 2017-02-05 19:50:07.619859+01 | 1486320607.61986 | pgbench_tellers  |           450560
 2017-02-05 19:50:07.619859+01 | 1486320607.61986 | pgbench_history  |        333455360
 2017-02-05 19:50:07.619859+01 | 1486320607.61986 | pgbench_branches |            40960

 2017-02-05 19:50:08.710156+01 | 1486320608.71016 | pgbench_accounts |      13712957440
 2017-02-05 19:50:08.710156+01 | 1486320608.71016 | pgbench_tellers  |           450560
 2017-02-05 19:50:08.710156+01 | 1486320608.71016 | pgbench_history  |        337158144
 2017-02-05 19:50:08.710156+01 | 1486320608.71016 | pgbench_branches |            40960

 2017-02-05 19:50:09.793944+01 | 1486320609.79394 | pgbench_accounts |      13712957440
 2017-02-05 19:50:09.793944+01 | 1486320609.79394 | pgbench_tellers  |           450560
 2017-02-05 19:50:09.793944+01 | 1486320609.79394 | pgbench_history  |        341000192
 2017-02-05 19:50:09.793944+01 | 1486320609.79394 | pgbench_branches |            40960

 2017-02-05 19:50:10.882976+01 | 1486320610.88298 | pgbench_accounts |      13712957440
 2017-02-05 19:50:10.882976+01 | 1486320610.88298 | pgbench_tellers  |           450560
 2017-02-05 19:50:10.882976+01 | 1486320610.88298 | pgbench_history  |        344162304
 2017-02-05 19:50:10.882976+01 | 1486320610.88298 | pgbench_branches |            40960

 2017-02-05 19:50:11.965777+01 | 1486320611.96578 | pgbench_accounts |      13712957440
 2017-02-05 19:50:11.965777+01 | 1486320611.96578 | pgbench_tellers  |           450560
 2017-02-05 19:50:11.965777+01 | 1486320611.96578 | pgbench_history  |        347185152
 2017-02-05 19:50:11.965777+01 | 1486320611.96578 | pgbench_branches |            40960

 2017-02-05 19:50:13.050494+01 | 1486320613.05049 | pgbench_accounts |      13712957440
 2017-02-05 19:50:13.050494+01 | 1486320613.05049 | pgbench_tellers  |           450560
 2017-02-05 19:50:13.050494+01 | 1486320613.05049 | pgbench_history  |        351166464
 2017-02-05 19:50:13.050494+01 | 1486320613.05049 | pgbench_branches |            40960

 2017-02-05 19:50:14.133592+01 | 1486320614.13359 | pgbench_accounts |      13712957440
 2017-02-05 19:50:14.133592+01 | 1486320614.13359 | pgbench_tellers  |           450560
 2017-02-05 19:50:14.133592+01 | 1486320614.13359 | pgbench_history  |        355016704
 2017-02-05 19:50:14.133592+01 | 1486320614.13359 | pgbench_branches |            40960

 2017-02-05 19:50:15.217916+01 | 1486320615.21792 | pgbench_accounts |      13712957440
 2017-02-05 19:50:15.217916+01 | 1486320615.21792 | pgbench_tellers  |           450560
 2017-02-05 19:50:15.217916+01 | 1486320615.21792 | pgbench_history  |        359817216
 2017-02-05 19:50:15.217916+01 | 1486320615.21792 | pgbench_branches |            40960

 2017-02-05 19:50:16.297565+01 | 1486320616.29756 | pgbench_accounts |      13712957440
 2017-02-05 19:50:16.297565+01 | 1486320616.29756 | pgbench_tellers  |           450560
 2017-02-05 19:50:16.297565+01 | 1486320616.29756 | pgbench_history  |        363118592
 2017-02-05 19:50:16.297565+01 | 1486320616.29756 | pgbench_branches |            40960

 2017-02-05 19:50:17.374157+01 | 1486320617.37416 | pgbench_accounts |      13712957440
 2017-02-05 19:50:17.374157+01 | 1486320617.37416 | pgbench_tellers  |           450560
 2017-02-05 19:50:17.374157+01 | 1486320617.37416 | pgbench_history  |        365436928
 2017-02-05 19:50:17.374157+01 | 1486320617.37416 | pgbench_branches |            40960

 2017-02-05 19:50:18.44993+01 | 1486320618.44993 | pgbench_accounts |      13712957440
 2017-02-05 19:50:18.44993+01 | 1486320618.44993 | pgbench_tellers  |           450560
 2017-02-05 19:50:18.44993+01 | 1486320618.44993 | pgbench_history  |        367976448
 2017-02-05 19:50:18.44993+01 | 1486320618.44993 | pgbench_branches |            40960

 2017-02-05 19:50:19.53328+01 | 1486320619.53328 | pgbench_accounts |      13712957440
 2017-02-05 19:50:19.53328+01 | 1486320619.53328 | pgbench_tellers  |           450560
 2017-02-05 19:50:19.53328+01 | 1486320619.53328 | pgbench_history  |        370786304
 2017-02-05 19:50:19.53328+01 | 1486320619.53328 | pgbench_branches |            40960

 2017-02-05 19:50:20.624948+01 | 1486320620.62495 | pgbench_accounts |      13712957440
 2017-02-05 19:50:20.624948+01 | 1486320620.62495 | pgbench_tellers  |           450560
 2017-02-05 19:50:20.624948+01 | 1486320620.62495 | pgbench_history  |        373809152
 2017-02-05 19:50:20.624948+01 | 1486320620.62495 | pgbench_branches |            40960

 2017-02-05 19:50:21.704536+01 | 1486320621.70454 | pgbench_accounts |      13712957440
 2017-02-05 19:50:21.704536+01 | 1486320621.70454 | pgbench_tellers  |           450560
 2017-02-05 19:50:21.704536+01 | 1486320621.70454 | pgbench_history  |        377298944
 2017-02-05 19:50:21.704536+01 | 1486320621.70454 | pgbench_branches |            40960

 2017-02-05 19:50:22.788907+01 | 1486320622.78891 | pgbench_accounts |      13712957440
 2017-02-05 19:50:22.788907+01 | 1486320622.78891 | pgbench_tellers  |           450560
 2017-02-05 19:50:22.788907+01 | 1486320622.78891 | pgbench_history  |        380977152
 2017-02-05 19:50:22.788907+01 | 1486320622.78891 | pgbench_branches |            40960

 2017-02-05 19:50:23.870943+01 | 1486320623.87094 | pgbench_accounts |      13712957440
 2017-02-05 19:50:23.870943+01 | 1486320623.87094 | pgbench_tellers  |           450560
 2017-02-05 19:50:23.870943+01 | 1486320623.87094 | pgbench_history  |        384212992
 2017-02-05 19:50:23.870943+01 | 1486320623.87094 | pgbench_branches |            40960

 2017-02-05 19:50:24.950354+01 | 1486320624.95035 | pgbench_accounts |      13712957440
 2017-02-05 19:50:24.950354+01 | 1486320624.95035 | pgbench_tellers  |           450560
 2017-02-05 19:50:24.950354+01 | 1486320624.95035 | pgbench_history  |        388898816
 2017-02-05 19:50:24.950354+01 | 1486320624.95035 | pgbench_branches |            40960

 2017-02-05 19:50:26.034385+01 | 1486320626.03438 | pgbench_accounts |      13712957440
 2017-02-05 19:50:26.034385+01 | 1486320626.03438 | pgbench_tellers  |           450560
 2017-02-05 19:50:26.034385+01 | 1486320626.03438 | pgbench_history  |        391053312
 2017-02-05 19:50:26.034385+01 | 1486320626.03438 | pgbench_branches |            40960

 2017-02-05 19:50:27.115421+01 | 1486320627.11542 | pgbench_accounts |      13712957440
 2017-02-05 19:50:27.115421+01 | 1486320627.11542 | pgbench_tellers  |           450560
 2017-02-05 19:50:27.115421+01 | 1486320627.11542 | pgbench_history  |        395083776
 2017-02-05 19:50:27.115421+01 | 1486320627.11542 | pgbench_branches |            40960

 2017-02-05 19:50:28.197018+01 | 1486320628.19702 | pgbench_accounts |      13712957440
 2017-02-05 19:50:28.197018+01 | 1486320628.19702 | pgbench_tellers  |           450560
 2017-02-05 19:50:28.197018+01 | 1486320628.19702 | pgbench_history  |        400613376
 2017-02-05 19:50:28.197018+01 | 1486320628.19702 | pgbench_branches |            40960

 2017-02-05 19:50:29.273027+01 | 1486320629.27303 | pgbench_accounts |      13712957440
 2017-02-05 19:50:29.273027+01 | 1486320629.27303 | pgbench_tellers  |           450560
 2017-02-05 19:50:29.273027+01 | 1486320629.27303 | pgbench_history  |        401784832
 2017-02-05 19:50:29.273027+01 | 1486320629.27303 | pgbench_branches |            40960

 2017-02-05 19:50:30.345869+01 | 1486320630.34587 | pgbench_accounts |      13712957440
 2017-02-05 19:50:30.345869+01 | 1486320630.34587 | pgbench_tellers  |           450560
 2017-02-05 19:50:30.345869+01 | 1486320630.34587 | pgbench_history  |        404480000
 2017-02-05 19:50:30.345869+01 | 1486320630.34587 | pgbench_branches |            40960

 2017-02-05 19:50:31.430131+01 | 1486320631.43013 | pgbench_accounts |      13712957440
 2017-02-05 19:50:31.430131+01 | 1486320631.43013 | pgbench_tellers  |           450560
 2017-02-05 19:50:31.430131+01 | 1486320631.43013 | pgbench_history  |        409640960
 2017-02-05 19:50:31.430131+01 | 1486320631.43013 | pgbench_branches |            40960

 2017-02-05 19:50:32.513797+01 | 1486320632.5138 | pgbench_accounts |      13712957440
 2017-02-05 19:50:32.513797+01 | 1486320632.5138 | pgbench_tellers  |           450560
 2017-02-05 19:50:32.513797+01 | 1486320632.5138 | pgbench_history  |        411492352
 2017-02-05 19:50:32.513797+01 | 1486320632.5138 | pgbench_branches |            40960

 2017-02-05 19:50:33.604277+01 | 1486320633.60428 | pgbench_accounts |      13712957440
 2017-02-05 19:50:33.604277+01 | 1486320633.60428 | pgbench_tellers  |           450560
 2017-02-05 19:50:33.604277+01 | 1486320633.60428 | pgbench_history  |        415965184
 2017-02-05 19:50:33.604277+01 | 1486320633.60428 | pgbench_branches |            40960

 2017-02-05 19:50:34.687451+01 | 1486320634.68745 | pgbench_accounts |      13712957440
 2017-02-05 19:50:34.687451+01 | 1486320634.68745 | pgbench_tellers  |           450560
 2017-02-05 19:50:34.687451+01 | 1486320634.68745 | pgbench_history  |        417652736
 2017-02-05 19:50:34.687451+01 | 1486320634.68745 | pgbench_branches |            40960

 2017-02-05 19:50:35.771131+01 | 1486320635.77113 | pgbench_accounts |      13712957440
 2017-02-05 19:50:35.771131+01 | 1486320635.77113 | pgbench_tellers  |           450560
 2017-02-05 19:50:35.771131+01 | 1486320635.77113 | pgbench_history  |        420462592
 2017-02-05 19:50:35.771131+01 | 1486320635.77113 | pgbench_branches |            40960

 2017-02-05 19:50:36.862613+01 | 1486320636.86261 | pgbench_accounts |      13712957440
 2017-02-05 19:50:36.862613+01 | 1486320636.86261 | pgbench_tellers  |           450560
 2017-02-05 19:50:36.862613+01 | 1486320636.86261 | pgbench_history  |        422674432
 2017-02-05 19:50:36.862613+01 | 1486320636.86261 | pgbench_branches |            40960

 2017-02-05 19:50:37.942269+01 | 1486320637.94227 | pgbench_accounts |      13712957440
 2017-02-05 19:50:37.942269+01 | 1486320637.94227 | pgbench_tellers  |           450560
 2017-02-05 19:50:37.942269+01 | 1486320637.94227 | pgbench_history  |        426377216
 2017-02-05 19:50:37.942269+01 | 1486320637.94227 | pgbench_branches |            40960

 2017-02-05 19:50:39.021982+01 | 1486320639.02198 | pgbench_accounts |      13712957440
 2017-02-05 19:50:39.021982+01 | 1486320639.02198 | pgbench_tellers  |           450560
 2017-02-05 19:50:39.021982+01 | 1486320639.02198 | pgbench_history  |        430292992
 2017-02-05 19:50:39.021982+01 | 1486320639.02198 | pgbench_branches |            40960

 2017-02-05 19:50:40.104732+01 | 1486320640.10473 | pgbench_accounts |      13712957440
 2017-02-05 19:50:40.104732+01 | 1486320640.10473 | pgbench_tellers  |           450560
 2017-02-05 19:50:40.104732+01 | 1486320640.10473 | pgbench_history  |        433012736
 2017-02-05 19:50:40.104732+01 | 1486320640.10473 | pgbench_branches |            40960

 2017-02-05 19:50:41.187577+01 | 1486320641.18758 | pgbench_accounts |      13712957440
 2017-02-05 19:50:41.187577+01 | 1486320641.18758 | pgbench_tellers  |           450560
 2017-02-05 19:50:41.187577+01 | 1486320641.18758 | pgbench_history  |        436830208
 2017-02-05 19:50:41.187577+01 | 1486320641.18758 | pgbench_branches |            40960

 2017-02-05 19:50:42.270953+01 | 1486320642.27095 | pgbench_accounts |      13712957440
 2017-02-05 19:50:42.270953+01 | 1486320642.27095 | pgbench_tellers  |           450560
 2017-02-05 19:50:42.270953+01 | 1486320642.27095 | pgbench_history  |        440999936
 2017-02-05 19:50:42.270953+01 | 1486320642.27095 | pgbench_branches |            40960

 2017-02-05 19:50:43.350697+01 | 1486320643.3507 | pgbench_accounts |      13712957440
 2017-02-05 19:50:43.350697+01 | 1486320643.3507 | pgbench_tellers  |           450560
 2017-02-05 19:50:43.350697+01 | 1486320643.3507 | pgbench_history  |        443539456
 2017-02-05 19:50:43.350697+01 | 1486320643.3507 | pgbench_branches |            40960

 2017-02-05 19:50:44.430714+01 | 1486320644.43071 | pgbench_accounts |      13712957440
 2017-02-05 19:50:44.430714+01 | 1486320644.43071 | pgbench_tellers  |           450560
 2017-02-05 19:50:44.430714+01 | 1486320644.43071 | pgbench_history  |        446750720
 2017-02-05 19:50:44.430714+01 | 1486320644.43071 | pgbench_branches |            40960

 2017-02-05 19:50:45.507817+01 | 1486320645.50782 | pgbench_accounts |      13712957440
 2017-02-05 19:50:45.507817+01 | 1486320645.50782 | pgbench_tellers  |           450560
 2017-02-05 19:50:45.507817+01 | 1486320645.50782 | pgbench_history  |        450314240
 2017-02-05 19:50:45.507817+01 | 1486320645.50782 | pgbench_branches |            40960

 2017-02-05 19:50:46.585611+01 | 1486320646.58561 | pgbench_accounts |      13712957440
 2017-02-05 19:50:46.585611+01 | 1486320646.58561 | pgbench_tellers  |           450560
 2017-02-05 19:50:46.585611+01 | 1486320646.58561 | pgbench_history  |        454131712
 2017-02-05 19:50:46.585611+01 | 1486320646.58561 | pgbench_branches |            40960

 2017-02-05 19:50:47.670215+01 | 1486320647.67021 | pgbench_accounts |      13712957440
 2017-02-05 19:50:47.670215+01 | 1486320647.67021 | pgbench_tellers  |           450560
 2017-02-05 19:50:47.670215+01 | 1486320647.67021 | pgbench_history  |        457129984
 2017-02-05 19:50:47.670215+01 | 1486320647.67021 | pgbench_branches |            40960

 2017-02-05 19:50:48.750939+01 | 1486320648.75094 | pgbench_accounts |      13712957440
 2017-02-05 19:50:48.750939+01 | 1486320648.75094 | pgbench_tellers  |           450560
 2017-02-05 19:50:48.750939+01 | 1486320648.75094 | pgbench_history  |        460357632
 2017-02-05 19:50:48.750939+01 | 1486320648.75094 | pgbench_branches |            40960

 2017-02-05 19:50:49.836073+01 | 1486320649.83607 | pgbench_accounts |      13712957440
 2017-02-05 19:50:49.836073+01 | 1486320649.83607 | pgbench_tellers  |           450560
 2017-02-05 19:50:49.836073+01 | 1486320649.83607 | pgbench_history  |        464084992
 2017-02-05 19:50:49.836073+01 | 1486320649.83607 | pgbench_branches |            40960

 2017-02-05 19:50:50.919564+01 | 1486320650.91956 | pgbench_accounts |      13712957440
 2017-02-05 19:50:50.919564+01 | 1486320650.91956 | pgbench_tellers  |           450560
 2017-02-05 19:50:50.919564+01 | 1486320650.91956 | pgbench_history  |        469475328
 2017-02-05 19:50:50.919564+01 | 1486320650.91956 | pgbench_branches |            40960

 2017-02-05 19:50:52.002562+01 | 1486320652.00256 | pgbench_accounts |      13712957440
 2017-02-05 19:50:52.002562+01 | 1486320652.00256 | pgbench_tellers  |           450560
 2017-02-05 19:50:52.002562+01 | 1486320652.00256 | pgbench_history  |        470974464
 2017-02-05 19:50:52.002562+01 | 1486320652.00256 | pgbench_branches |            40960

 2017-02-05 19:50:53.087666+01 | 1486320653.08767 | pgbench_accounts |      13712957440
 2017-02-05 19:50:53.087666+01 | 1486320653.08767 | pgbench_tellers  |           450560
 2017-02-05 19:50:53.087666+01 | 1486320653.08767 | pgbench_history  |        474349568
 2017-02-05 19:50:53.087666+01 | 1486320653.08767 | pgbench_branches |            40960

 2017-02-05 19:50:54.174051+01 | 1486320654.17405 | pgbench_accounts |      13712957440
 2017-02-05 19:50:54.174051+01 | 1486320654.17405 | pgbench_tellers  |           450560
 2017-02-05 19:50:54.174051+01 | 1486320654.17405 | pgbench_history  |        478167040
 2017-02-05 19:50:54.174051+01 | 1486320654.17405 | pgbench_branches |            40960

 2017-02-05 19:50:55.259211+01 | 1486320655.25921 | pgbench_accounts |      13712957440
 2017-02-05 19:50:55.259211+01 | 1486320655.25921 | pgbench_tellers  |           450560
 2017-02-05 19:50:55.259211+01 | 1486320655.25921 | pgbench_history  |        481378304
 2017-02-05 19:50:55.259211+01 | 1486320655.25921 | pgbench_branches |            40960

 2017-02-05 19:50:56.335669+01 | 1486320656.33567 | pgbench_accounts |      13712957440
 2017-02-05 19:50:56.335669+01 | 1486320656.33567 | pgbench_tellers  |           450560
 2017-02-05 19:50:56.335669+01 | 1486320656.33567 | pgbench_history  |        485761024
 2017-02-05 19:50:56.335669+01 | 1486320656.33567 | pgbench_branches |            40960

 2017-02-05 19:50:57.414731+01 | 1486320657.41473 | pgbench_accounts |      13712957440
 2017-02-05 19:50:57.414731+01 | 1486320657.41473 | pgbench_tellers  |           450560
 2017-02-05 19:50:57.414731+01 | 1486320657.41473 | pgbench_history  |        487915520
 2017-02-05 19:50:57.414731+01 | 1486320657.41473 | pgbench_branches |            40960

 2017-02-05 19:50:58.491685+01 | 1486320658.49168 | pgbench_accounts |      13712957440
 2017-02-05 19:50:58.491685+01 | 1486320658.49168 | pgbench_tellers  |           450560
 2017-02-05 19:50:58.491685+01 | 1486320658.49168 | pgbench_history  |        492060672
 2017-02-05 19:50:58.491685+01 | 1486320658.49168 | pgbench_branches |            40960

 2017-02-05 19:50:59.564989+01 | 1486320659.56499 | pgbench_accounts |      13712957440
 2017-02-05 19:50:59.564989+01 | 1486320659.56499 | pgbench_tellers  |           450560
 2017-02-05 19:50:59.564989+01 | 1486320659.56499 | pgbench_history  |        495222784
 2017-02-05 19:50:59.564989+01 | 1486320659.56499 | pgbench_branches |            40960

 2017-02-05 19:51:00.624873+01 | 1486320660.62487 | pgbench_accounts |      13712957440
 2017-02-05 19:51:00.624873+01 | 1486320660.62487 | pgbench_tellers  |           450560
 2017-02-05 19:51:00.624873+01 | 1486320660.62487 | pgbench_history  |        498548736
 2017-02-05 19:51:00.624873+01 | 1486320660.62487 | pgbench_branches |            40960

 2017-02-05 19:51:01.705989+01 | 1486320661.70599 | pgbench_accounts |      13712957440
 2017-02-05 19:51:01.705989+01 | 1486320661.70599 | pgbench_tellers  |           450560
 2017-02-05 19:51:01.705989+01 | 1486320661.70599 | pgbench_history  |        500916224
 2017-02-05 19:51:01.705989+01 | 1486320661.70599 | pgbench_branches |            40960

 2017-02-05 19:51:02.800319+01 | 1486320662.80032 | pgbench_accounts |      13712957440
 2017-02-05 19:51:02.800319+01 | 1486320662.80032 | pgbench_tellers  |           450560
 2017-02-05 19:51:02.800319+01 | 1486320662.80032 | pgbench_history  |        504569856
 2017-02-05 19:51:02.800319+01 | 1486320662.80032 | pgbench_branches |            40960

 2017-02-05 19:51:03.894873+01 | 1486320663.89487 | pgbench_accounts |      13712957440
 2017-02-05 19:51:03.894873+01 | 1486320663.89487 | pgbench_tellers  |           450560
 2017-02-05 19:51:03.894873+01 | 1486320663.89487 | pgbench_history  |        509722624
 2017-02-05 19:51:03.894873+01 | 1486320663.89487 | pgbench_branches |            40960

 2017-02-05 19:51:04.972314+01 | 1486320664.97231 | pgbench_accounts |      13712957440
 2017-02-05 19:51:04.972314+01 | 1486320664.97231 | pgbench_tellers  |           450560
 2017-02-05 19:51:04.972314+01 | 1486320664.97231 | pgbench_history  |        514547712
 2017-02-05 19:51:04.972314+01 | 1486320664.97231 | pgbench_branches |            40960

 2017-02-05 19:51:06.052553+01 | 1486320666.05255 | pgbench_accounts |      13712957440
 2017-02-05 19:51:06.052553+01 | 1486320666.05255 | pgbench_tellers  |           450560
 2017-02-05 19:51:06.052553+01 | 1486320666.05255 | pgbench_history  |        514547712
 2017-02-05 19:51:06.052553+01 | 1486320666.05255 | pgbench_branches |            40960

 2017-02-05 19:51:07.133474+01 | 1486320667.13347 | pgbench_accounts |      13712957440
 2017-02-05 19:51:07.133474+01 | 1486320667.13347 | pgbench_tellers  |           450560
 2017-02-05 19:51:07.133474+01 | 1486320667.13347 | pgbench_history  |        518553600
 2017-02-05 19:51:07.133474+01 | 1486320667.13347 | pgbench_branches |            40960

 2017-02-05 19:51:08.221371+01 | 1486320668.22137 | pgbench_accounts |      13712957440
 2017-02-05 19:51:08.221371+01 | 1486320668.22137 | pgbench_tellers  |           450560
 2017-02-05 19:51:08.221371+01 | 1486320668.22137 | pgbench_history  |        521576448
 2017-02-05 19:51:08.221371+01 | 1486320668.22137 | pgbench_branches |            40960

 2017-02-05 19:51:09.305215+01 | 1486320669.30521 | pgbench_accounts |      13712957440
 2017-02-05 19:51:09.305215+01 | 1486320669.30521 | pgbench_tellers  |           450560
 2017-02-05 19:51:09.305215+01 | 1486320669.30521 | pgbench_history  |        524763136
 2017-02-05 19:51:09.305215+01 | 1486320669.30521 | pgbench_branches |            40960

 2017-02-05 19:51:10.381608+01 | 1486320670.38161 | pgbench_accounts |      13712957440
 2017-02-05 19:51:10.381608+01 | 1486320670.38161 | pgbench_tellers  |           450560
 2017-02-05 19:51:10.381608+01 | 1486320670.38161 | pgbench_history  |        528605184
 2017-02-05 19:51:10.381608+01 | 1486320670.38161 | pgbench_branches |            40960

 2017-02-05 19:51:11.459979+01 | 1486320671.45998 | pgbench_accounts |      13712957440
 2017-02-05 19:51:11.459979+01 | 1486320671.45998 | pgbench_tellers  |           450560
 2017-02-05 19:51:11.459979+01 | 1486320671.45998 | pgbench_history  |        531603456
 2017-02-05 19:51:11.459979+01 | 1486320671.45998 | pgbench_branches |            40960

 2017-02-05 19:51:12.535074+01 | 1486320672.53507 | pgbench_accounts |      13712957440
 2017-02-05 19:51:12.535074+01 | 1486320672.53507 | pgbench_tellers  |           450560
 2017-02-05 19:51:12.535074+01 | 1486320672.53507 | pgbench_history  |        535445504
 2017-02-05 19:51:12.535074+01 | 1486320672.53507 | pgbench_branches |            40960

 2017-02-05 19:51:13.614468+01 | 1486320673.61447 | pgbench_accounts |      13712957440
 2017-02-05 19:51:13.614468+01 | 1486320673.61447 | pgbench_tellers  |           450560
 2017-02-05 19:51:13.614468+01 | 1486320673.61447 | pgbench_history  |        540573696
 2017-02-05 19:51:13.614468+01 | 1486320673.61447 | pgbench_branches |            40960

 2017-02-05 19:51:14.691779+01 | 1486320674.69178 | pgbench_accounts |      13712957440
 2017-02-05 19:51:14.691779+01 | 1486320674.69178 | pgbench_tellers  |           450560
 2017-02-05 19:51:14.691779+01 | 1486320674.69178 | pgbench_history  |        541417472
 2017-02-05 19:51:14.691779+01 | 1486320674.69178 | pgbench_branches |            40960

 2017-02-05 19:51:15.774024+01 | 1486320675.77402 | pgbench_accounts |      13712957440
 2017-02-05 19:51:15.774024+01 | 1486320675.77402 | pgbench_tellers  |           450560
 2017-02-05 19:51:15.774024+01 | 1486320675.77402 | pgbench_history  |        545259520
 2017-02-05 19:51:15.774024+01 | 1486320675.77402 | pgbench_branches |            40960

 2017-02-05 19:51:16.856952+01 | 1486320676.85695 | pgbench_accounts |      13712957440
 2017-02-05 19:51:16.856952+01 | 1486320676.85695 | pgbench_tellers  |           450560
 2017-02-05 19:51:16.856952+01 | 1486320676.85695 | pgbench_history  |        547962880
 2017-02-05 19:51:16.856952+01 | 1486320676.85695 | pgbench_branches |            40960

 2017-02-05 19:51:17.934934+01 | 1486320677.93493 | pgbench_accounts |      13712957440
 2017-02-05 19:51:17.934934+01 | 1486320677.93493 | pgbench_tellers  |           450560
 2017-02-05 19:51:17.934934+01 | 1486320677.93493 | pgbench_history  |        554713088
 2017-02-05 19:51:17.934934+01 | 1486320677.93493 | pgbench_branches |            40960

 2017-02-05 19:51:19.018295+01 | 1486320679.0183 | pgbench_accounts |      13712957440
 2017-02-05 19:51:19.018295+01 | 1486320679.0183 | pgbench_tellers  |           450560
 2017-02-05 19:51:19.018295+01 | 1486320679.0183 | pgbench_history  |        555884544
 2017-02-05 19:51:19.018295+01 | 1486320679.0183 | pgbench_branches |            40960

 2017-02-05 19:51:20.098436+01 | 1486320680.09844 | pgbench_accounts |      13712957440
 2017-02-05 19:51:20.098436+01 | 1486320680.09844 | pgbench_tellers  |           450560
 2017-02-05 19:51:20.098436+01 | 1486320680.09844 | pgbench_history  |        558768128
 2017-02-05 19:51:20.098436+01 | 1486320680.09844 | pgbench_branches |            40960

 2017-02-05 19:51:21.166601+01 | 1486320681.1666 | pgbench_accounts |      13712957440
 2017-02-05 19:51:21.166601+01 | 1486320681.1666 | pgbench_tellers  |           450560
 2017-02-05 19:51:21.166601+01 | 1486320681.1666 | pgbench_history  |        561627136
 2017-02-05 19:51:21.166601+01 | 1486320681.1666 | pgbench_branches |            40960

 2017-02-05 19:51:22.243708+01 | 1486320682.24371 | pgbench_accounts |      13712957440
 2017-02-05 19:51:22.243708+01 | 1486320682.24371 | pgbench_tellers  |           450560
 2017-02-05 19:51:22.243708+01 | 1486320682.24371 | pgbench_history  |        567607296
 2017-02-05 19:51:22.243708+01 | 1486320682.24371 | pgbench_branches |            40960

 2017-02-05 19:51:23.324247+01 | 1486320683.32425 | pgbench_accounts |      13712957440
 2017-02-05 19:51:23.324247+01 | 1486320683.32425 | pgbench_tellers  |           450560
 2017-02-05 19:51:23.324247+01 | 1486320683.32425 | pgbench_history  |        568311808
 2017-02-05 19:51:23.324247+01 | 1486320683.32425 | pgbench_branches |            40960

 2017-02-05 19:51:24.401896+01 | 1486320684.4019 | pgbench_accounts |      13712957440
 2017-02-05 19:51:24.401896+01 | 1486320684.4019 | pgbench_tellers  |           450560
 2017-02-05 19:51:24.401896+01 | 1486320684.4019 | pgbench_history  |        571334656
 2017-02-05 19:51:24.401896+01 | 1486320684.4019 | pgbench_branches |            40960

 2017-02-05 19:51:25.476762+01 | 1486320685.47676 | pgbench_accounts |      13712957440
 2017-02-05 19:51:25.476762+01 | 1486320685.47676 | pgbench_tellers  |           450560
 2017-02-05 19:51:25.476762+01 | 1486320685.47676 | pgbench_history  |        575324160
 2017-02-05 19:51:25.476762+01 | 1486320685.47676 | pgbench_branches |            40960

 2017-02-05 19:51:26.554334+01 | 1486320686.55433 | pgbench_accounts |      13712957440
 2017-02-05 19:51:26.554334+01 | 1486320686.55433 | pgbench_tellers  |           450560
 2017-02-05 19:51:26.554334+01 | 1486320686.55433 | pgbench_history  |        579026944
 2017-02-05 19:51:26.554334+01 | 1486320686.55433 | pgbench_branches |            40960

 2017-02-05 19:51:27.651477+01 | 1486320687.65148 | pgbench_accounts |      13712957440
 2017-02-05 19:51:27.651477+01 | 1486320687.65148 | pgbench_tellers  |           450560
 2017-02-05 19:51:27.651477+01 | 1486320687.65148 | pgbench_history  |        582189056
 2017-02-05 19:51:27.651477+01 | 1486320687.65148 | pgbench_branches |            40960

 2017-02-05 19:51:28.731972+01 | 1486320688.73197 | pgbench_accounts |      13712957440
 2017-02-05 19:51:28.731972+01 | 1486320688.73197 | pgbench_tellers  |           450560
 2017-02-05 19:51:28.731972+01 | 1486320688.73197 | pgbench_history  |        585048064
 2017-02-05 19:51:28.731972+01 | 1486320688.73197 | pgbench_branches |            40960

 2017-02-05 19:51:29.817821+01 | 1486320689.81782 | pgbench_accounts |      13712957440
 2017-02-05 19:51:29.817821+01 | 1486320689.81782 | pgbench_tellers  |           450560
 2017-02-05 19:51:29.817821+01 | 1486320689.81782 | pgbench_history  |        588750848
 2017-02-05 19:51:29.817821+01 | 1486320689.81782 | pgbench_branches |            40960

 2017-02-05 19:51:30.910738+01 | 1486320690.91074 | pgbench_accounts |      13712957440
 2017-02-05 19:51:30.910738+01 | 1486320690.91074 | pgbench_tellers  |           450560
 2017-02-05 19:51:30.910738+01 | 1486320690.91074 | pgbench_history  |        592289792
 2017-02-05 19:51:30.910738+01 | 1486320690.91074 | pgbench_branches |            40960

 2017-02-05 19:51:31.999539+01 | 1486320691.99954 | pgbench_accounts |      13712957440
 2017-02-05 19:51:31.999539+01 | 1486320691.99954 | pgbench_tellers  |           450560
 2017-02-05 19:51:31.999539+01 | 1486320691.99954 | pgbench_history  |        595337216
 2017-02-05 19:51:31.999539+01 | 1486320691.99954 | pgbench_branches |            40960

 2017-02-05 19:51:33.079044+01 | 1486320693.07904 | pgbench_accounts |      13712957440
 2017-02-05 19:51:33.079044+01 | 1486320693.07904 | pgbench_tellers  |           450560
 2017-02-05 19:51:33.079044+01 | 1486320693.07904 | pgbench_history  |        598523904
 2017-02-05 19:51:33.079044+01 | 1486320693.07904 | pgbench_branches |            40960

 2017-02-05 19:51:34.163643+01 | 1486320694.16364 | pgbench_accounts |      13712957440
 2017-02-05 19:51:34.163643+01 | 1486320694.16364 | pgbench_tellers  |           450560
 2017-02-05 19:51:34.163643+01 | 1486320694.16364 | pgbench_history  |        602038272
 2017-02-05 19:51:34.163643+01 | 1486320694.16364 | pgbench_branches |            40960

 2017-02-05 19:51:35.244985+01 | 1486320695.24499 | pgbench_accounts |      13712957440
 2017-02-05 19:51:35.244985+01 | 1486320695.24499 | pgbench_tellers  |           450560
 2017-02-05 19:51:35.244985+01 | 1486320695.24499 | pgbench_history  |        605069312
 2017-02-05 19:51:35.244985+01 | 1486320695.24499 | pgbench_branches |            40960

 2017-02-05 19:51:36.328609+01 | 1486320696.32861 | pgbench_accounts |      13712957440
 2017-02-05 19:51:36.328609+01 | 1486320696.32861 | pgbench_tellers  |           450560
 2017-02-05 19:51:36.328609+01 | 1486320696.32861 | pgbench_history  |        608935936
 2017-02-05 19:51:36.328609+01 | 1486320696.32861 | pgbench_branches |            40960

 2017-02-05 19:51:37.404663+01 | 1486320697.40466 | pgbench_accounts |      13712957440
 2017-02-05 19:51:37.404663+01 | 1486320697.40466 | pgbench_tellers  |           450560
 2017-02-05 19:51:37.404663+01 | 1486320697.40466 | pgbench_history  |        611467264
 2017-02-05 19:51:37.404663+01 | 1486320697.40466 | pgbench_branches |            40960

 2017-02-05 19:51:38.481179+01 | 1486320698.48118 | pgbench_accounts |      13712957440
 2017-02-05 19:51:38.481179+01 | 1486320698.48118 | pgbench_tellers  |           450560
 2017-02-05 19:51:38.481179+01 | 1486320698.48118 | pgbench_history  |        614137856
 2017-02-05 19:51:38.481179+01 | 1486320698.48118 | pgbench_branches |            40960

 2017-02-05 19:51:39.554917+01 | 1486320699.55492 | pgbench_accounts |      13712957440
 2017-02-05 19:51:39.554917+01 | 1486320699.55492 | pgbench_tellers  |           450560
 2017-02-05 19:51:39.554917+01 | 1486320699.55492 | pgbench_history  |        617005056
 2017-02-05 19:51:39.554917+01 | 1486320699.55492 | pgbench_branches |            40960

 2017-02-05 19:51:40.632688+01 | 1486320700.63269 | pgbench_accounts |      13712957440
 2017-02-05 19:51:40.632688+01 | 1486320700.63269 | pgbench_tellers  |           450560
 2017-02-05 19:51:40.632688+01 | 1486320700.63269 | pgbench_history  |        619716608
 2017-02-05 19:51:40.632688+01 | 1486320700.63269 | pgbench_branches |            40960

 2017-02-05 19:51:41.712444+01 | 1486320701.71244 | pgbench_accounts |      13712957440
 2017-02-05 19:51:41.712444+01 | 1486320701.71244 | pgbench_tellers  |           450560
 2017-02-05 19:51:41.712444+01 | 1486320701.71244 | pgbench_history  |        624402432
 2017-02-05 19:51:41.712444+01 | 1486320701.71244 | pgbench_branches |            40960

 2017-02-05 19:51:42.797453+01 | 1486320702.79745 | pgbench_accounts |      13712957440
 2017-02-05 19:51:42.797453+01 | 1486320702.79745 | pgbench_tellers  |           450560
 2017-02-05 19:51:42.797453+01 | 1486320702.79745 | pgbench_history  |        625762304
 2017-02-05 19:51:42.797453+01 | 1486320702.79745 | pgbench_branches |            40960

 2017-02-05 19:51:43.881029+01 | 1486320703.88103 | pgbench_accounts |      13712957440
 2017-02-05 19:51:43.881029+01 | 1486320703.88103 | pgbench_tellers  |           450560
 2017-02-05 19:51:43.881029+01 | 1486320703.88103 | pgbench_history  |        629932032
 2017-02-05 19:51:43.881029+01 | 1486320703.88103 | pgbench_branches |            40960

 2017-02-05 19:51:44.961884+01 | 1486320704.96188 | pgbench_accounts |      13712957440
 2017-02-05 19:51:44.961884+01 | 1486320704.96188 | pgbench_tellers  |           450560
 2017-02-05 19:51:44.961884+01 | 1486320704.96188 | pgbench_history  |        632627200
 2017-02-05 19:51:44.961884+01 | 1486320704.96188 | pgbench_branches |            40960

 2017-02-05 19:51:46.051382+01 | 1486320706.05138 | pgbench_accounts |      13712957440
 2017-02-05 19:51:46.051382+01 | 1486320706.05138 | pgbench_tellers  |           450560
 2017-02-05 19:51:46.051382+01 | 1486320706.05138 | pgbench_history  |        634863616
 2017-02-05 19:51:46.051382+01 | 1486320706.05138 | pgbench_branches |            40960

 2017-02-05 19:51:47.132239+01 | 1486320707.13224 | pgbench_accounts |      13712957440
 2017-02-05 19:51:47.132239+01 | 1486320707.13224 | pgbench_tellers  |           450560
 2017-02-05 19:51:47.132239+01 | 1486320707.13224 | pgbench_history  |        637730816
 2017-02-05 19:51:47.132239+01 | 1486320707.13224 | pgbench_branches |            40960

 2017-02-05 19:51:48.210827+01 | 1486320708.21083 | pgbench_accounts |      13712957440
 2017-02-05 19:51:48.210827+01 | 1486320708.21083 | pgbench_tellers  |           450560
 2017-02-05 19:51:48.210827+01 | 1486320708.21083 | pgbench_history  |        641409024
 2017-02-05 19:51:48.210827+01 | 1486320708.21083 | pgbench_branches |            40960

 2017-02-05 19:51:49.294163+01 | 1486320709.29416 | pgbench_accounts |      13712957440
 2017-02-05 19:51:49.294163+01 | 1486320709.29416 | pgbench_tellers  |           450560
 2017-02-05 19:51:49.294163+01 | 1486320709.29416 | pgbench_history  |        643588096
 2017-02-05 19:51:49.294163+01 | 1486320709.29416 | pgbench_branches |            40960

 2017-02-05 19:51:50.371345+01 | 1486320710.37135 | pgbench_accounts |      13712957440
 2017-02-05 19:51:50.371345+01 | 1486320710.37135 | pgbench_tellers  |           450560
 2017-02-05 19:51:50.371345+01 | 1486320710.37135 | pgbench_history  |        645464064
 2017-02-05 19:51:50.371345+01 | 1486320710.37135 | pgbench_branches |            40960

 2017-02-05 19:51:51.446432+01 | 1486320711.44643 | pgbench_accounts |      13712957440
 2017-02-05 19:51:51.446432+01 | 1486320711.44643 | pgbench_tellers  |           450560
 2017-02-05 19:51:51.446432+01 | 1486320711.44643 | pgbench_history  |        649117696
 2017-02-05 19:51:51.446432+01 | 1486320711.44643 | pgbench_branches |            40960

 2017-02-05 19:51:52.519855+01 | 1486320712.51986 | pgbench_accounts |      13712957440
 2017-02-05 19:51:52.519855+01 | 1486320712.51986 | pgbench_tellers  |           450560
 2017-02-05 19:51:52.519855+01 | 1486320712.51986 | pgbench_history  |        654696448
 2017-02-05 19:51:52.519855+01 | 1486320712.51986 | pgbench_branches |            40960

 2017-02-05 19:51:53.600486+01 | 1486320713.60049 | pgbench_accounts |      13712957440
 2017-02-05 19:51:53.600486+01 | 1486320713.60049 | pgbench_tellers  |           450560
 2017-02-05 19:51:53.600486+01 | 1486320713.60049 | pgbench_history  |        656359424
 2017-02-05 19:51:53.600486+01 | 1486320713.60049 | pgbench_branches |            40960

 2017-02-05 19:51:54.675987+01 | 1486320714.67599 | pgbench_accounts |      13712957440
 2017-02-05 19:51:54.675987+01 | 1486320714.67599 | pgbench_tellers  |           450560
 2017-02-05 19:51:54.675987+01 | 1486320714.67599 | pgbench_history  |        658726912
 2017-02-05 19:51:54.675987+01 | 1486320714.67599 | pgbench_branches |            40960

 2017-02-05 19:51:55.754926+01 | 1486320715.75493 | pgbench_accounts |      13712957440
 2017-02-05 19:51:55.754926+01 | 1486320715.75493 | pgbench_tellers  |           450560
 2017-02-05 19:51:55.754926+01 | 1486320715.75493 | pgbench_history  |        661889024
 2017-02-05 19:51:55.754926+01 | 1486320715.75493 | pgbench_branches |            40960

 2017-02-05 19:51:56.832276+01 | 1486320716.83228 | pgbench_accounts |      13712957440
 2017-02-05 19:51:56.832276+01 | 1486320716.83228 | pgbench_tellers  |           450560
 2017-02-05 19:51:56.832276+01 | 1486320716.83228 | pgbench_history  |        666583040
 2017-02-05 19:51:56.832276+01 | 1486320716.83228 | pgbench_branches |            40960

 2017-02-05 19:51:57.912793+01 | 1486320717.91279 | pgbench_accounts |      13712957440
 2017-02-05 19:51:57.912793+01 | 1486320717.91279 | pgbench_tellers  |           450560
 2017-02-05 19:51:57.912793+01 | 1486320717.91279 | pgbench_history  |        668246016
 2017-02-05 19:51:57.912793+01 | 1486320717.91279 | pgbench_branches |            40960

 2017-02-05 19:51:58.994157+01 | 1486320718.99416 | pgbench_accounts |      13712957440
 2017-02-05 19:51:58.994157+01 | 1486320718.99416 | pgbench_tellers  |           450560
 2017-02-05 19:51:58.994157+01 | 1486320718.99416 | pgbench_history  |        671596544
 2017-02-05 19:51:58.994157+01 | 1486320718.99416 | pgbench_branches |            40960

 2017-02-05 19:52:00.080543+01 | 1486320720.08054 | pgbench_accounts |      13712957440
 2017-02-05 19:52:00.080543+01 | 1486320720.08054 | pgbench_tellers  |           450560
 2017-02-05 19:52:00.080543+01 | 1486320720.08054 | pgbench_history  |        675602432
 2017-02-05 19:52:00.080543+01 | 1486320720.08054 | pgbench_branches |            40960

 2017-02-05 19:52:01.16482+01 | 1486320721.16482 | pgbench_accounts |      13712957440
 2017-02-05 19:52:01.16482+01 | 1486320721.16482 | pgbench_tellers  |           450560
 2017-02-05 19:52:01.16482+01 | 1486320721.16482 | pgbench_history  |        679444480
 2017-02-05 19:52:01.16482+01 | 1486320721.16482 | pgbench_branches |            40960

 2017-02-05 19:52:02.254135+01 | 1486320722.25413 | pgbench_accounts |      13712957440
 2017-02-05 19:52:02.254135+01 | 1486320722.25413 | pgbench_tellers  |           450560
 2017-02-05 19:52:02.254135+01 | 1486320722.25413 | pgbench_history  |        683311104
 2017-02-05 19:52:02.254135+01 | 1486320722.25413 | pgbench_branches |            40960

 2017-02-05 19:52:03.343227+01 | 1486320723.34323 | pgbench_accounts |      13712957440
 2017-02-05 19:52:03.343227+01 | 1486320723.34323 | pgbench_tellers  |           450560
 2017-02-05 19:52:03.343227+01 | 1486320723.34323 | pgbench_history  |        685817856
 2017-02-05 19:52:03.343227+01 | 1486320723.34323 | pgbench_branches |            40960

 2017-02-05 19:52:04.418268+01 | 1486320724.41827 | pgbench_accounts |      13712957440
 2017-02-05 19:52:04.418268+01 | 1486320724.41827 | pgbench_tellers  |           450560
 2017-02-05 19:52:04.418268+01 | 1486320724.41827 | pgbench_history  |        689307648
 2017-02-05 19:52:04.418268+01 | 1486320724.41827 | pgbench_branches |            40960

 2017-02-05 19:52:05.492276+01 | 1486320725.49228 | pgbench_accounts |      13712957440
 2017-02-05 19:52:05.492276+01 | 1486320725.49228 | pgbench_tellers  |           450560
 2017-02-05 19:52:05.492276+01 | 1486320725.49228 | pgbench_history  |        692166656
 2017-02-05 19:52:05.492276+01 | 1486320725.49228 | pgbench_branches |            40960

 2017-02-05 19:52:06.562574+01 | 1486320726.56257 | pgbench_accounts |      13712957440
 2017-02-05 19:52:06.562574+01 | 1486320726.56257 | pgbench_tellers  |           450560
 2017-02-05 19:52:06.562574+01 | 1486320726.56257 | pgbench_history  |        695705600
 2017-02-05 19:52:06.562574+01 | 1486320726.56257 | pgbench_branches |            40960

 2017-02-05 19:52:07.642285+01 | 1486320727.64229 | pgbench_accounts |      13712957440
 2017-02-05 19:52:07.642285+01 | 1486320727.64229 | pgbench_tellers  |           450560
 2017-02-05 19:52:07.642285+01 | 1486320727.64229 | pgbench_history  |        699383808
 2017-02-05 19:52:07.642285+01 | 1486320727.64229 | pgbench_branches |            40960

 2017-02-05 19:52:08.724878+01 | 1486320728.72488 | pgbench_accounts |      13712957440
 2017-02-05 19:52:08.724878+01 | 1486320728.72488 | pgbench_tellers  |           450560
 2017-02-05 19:52:08.724878+01 | 1486320728.72488 | pgbench_history  |        705150976
 2017-02-05 19:52:08.724878+01 | 1486320728.72488 | pgbench_branches |            40960

 2017-02-05 19:52:09.806825+01 | 1486320729.80682 | pgbench_accounts |      13712957440
 2017-02-05 19:52:09.806825+01 | 1486320729.80682 | pgbench_tellers  |           450560
 2017-02-05 19:52:09.806825+01 | 1486320729.80682 | pgbench_history  |        705150976
 2017-02-05 19:52:09.806825+01 | 1486320729.80682 | pgbench_branches |            40960

 2017-02-05 19:52:10.890242+01 | 1486320730.89024 | pgbench_accounts |      13712957440
 2017-02-05 19:52:10.890242+01 | 1486320730.89024 | pgbench_tellers  |           450560
 2017-02-05 19:52:10.890242+01 | 1486320730.89024 | pgbench_history  |        709484544
 2017-02-05 19:52:10.890242+01 | 1486320730.89024 | pgbench_branches |            40960

 2017-02-05 19:52:11.97954+01 | 1486320731.97954 | pgbench_accounts |      13712957440
 2017-02-05 19:52:11.97954+01 | 1486320731.97954 | pgbench_tellers  |           450560
 2017-02-05 19:52:11.97954+01 | 1486320731.97954 | pgbench_history  |        711663616
 2017-02-05 19:52:11.97954+01 | 1486320731.97954 | pgbench_branches |            40960

 2017-02-05 19:52:13.063372+01 | 1486320733.06337 | pgbench_accounts |      13712957440
 2017-02-05 19:52:13.063372+01 | 1486320733.06337 | pgbench_tellers  |           450560
 2017-02-05 19:52:13.063372+01 | 1486320733.06337 | pgbench_history  |        716021760
 2017-02-05 19:52:13.063372+01 | 1486320733.06337 | pgbench_branches |            40960

 2017-02-05 19:52:14.144+01 | 1486320734.144 | pgbench_accounts |      13712957440
 2017-02-05 19:52:14.144+01 | 1486320734.144 | pgbench_tellers  |           450560
 2017-02-05 19:52:14.144+01 | 1486320734.144 | pgbench_history  |        719863808
 2017-02-05 19:52:14.144+01 | 1486320734.144 | pgbench_branches |            40960

 2017-02-05 19:52:15.223575+01 | 1486320735.22358 | pgbench_accounts |      13712957440
 2017-02-05 19:52:15.223575+01 | 1486320735.22358 | pgbench_tellers  |           450560
 2017-02-05 19:52:15.223575+01 | 1486320735.22358 | pgbench_history  |        722042880
 2017-02-05 19:52:15.223575+01 | 1486320735.22358 | pgbench_branches |            40960

 2017-02-05 19:52:16.297798+01 | 1486320736.2978 | pgbench_accounts |      13712957440
 2017-02-05 19:52:16.297798+01 | 1486320736.2978 | pgbench_tellers  |           450560
 2017-02-05 19:52:16.297798+01 | 1486320736.2978 | pgbench_history  |        726917120
 2017-02-05 19:52:16.297798+01 | 1486320736.2978 | pgbench_branches |            40960

 2017-02-05 19:52:17.372509+01 | 1486320737.37251 | pgbench_accounts |      13712957440
 2017-02-05 19:52:17.372509+01 | 1486320737.37251 | pgbench_tellers  |           450560
 2017-02-05 19:52:17.372509+01 | 1486320737.37251 | pgbench_history  |        729612288
 2017-02-05 19:52:17.372509+01 | 1486320737.37251 | pgbench_branches |            40960

 2017-02-05 19:52:18.455545+01 | 1486320738.45554 | pgbench_accounts |      13712957440
 2017-02-05 19:52:18.455545+01 | 1486320738.45554 | pgbench_tellers  |           450560
 2017-02-05 19:52:18.455545+01 | 1486320738.45554 | pgbench_history  |        732610560
 2017-02-05 19:52:18.455545+01 | 1486320738.45554 | pgbench_branches |            40960

 2017-02-05 19:52:19.532394+01 | 1486320739.53239 | pgbench_accounts |      13712957440
 2017-02-05 19:52:19.532394+01 | 1486320739.53239 | pgbench_tellers  |           450560
 2017-02-05 19:52:19.532394+01 | 1486320739.53239 | pgbench_history  |        734978048
 2017-02-05 19:52:19.532394+01 | 1486320739.53239 | pgbench_branches |            40960

 2017-02-05 19:52:20.616677+01 | 1486320740.61668 | pgbench_accounts |      13712957440
 2017-02-05 19:52:20.616677+01 | 1486320740.61668 | pgbench_tellers  |           450560
 2017-02-05 19:52:20.616677+01 | 1486320740.61668 | pgbench_history  |        738304000
 2017-02-05 19:52:20.616677+01 | 1486320740.61668 | pgbench_branches |            40960

 2017-02-05 19:52:21.696377+01 | 1486320741.69638 | pgbench_accounts |      13712957440
 2017-02-05 19:52:21.696377+01 | 1486320741.69638 | pgbench_tellers  |           450560
 2017-02-05 19:52:21.696377+01 | 1486320741.69638 | pgbench_history  |        742203392
 2017-02-05 19:52:21.696377+01 | 1486320741.69638 | pgbench_branches |            40960

 2017-02-05 19:52:22.77423+01 | 1486320742.77423 | pgbench_accounts |      13712957440
 2017-02-05 19:52:22.77423+01 | 1486320742.77423 | pgbench_tellers  |           450560
 2017-02-05 19:52:22.77423+01 | 1486320742.77423 | pgbench_history  |        745390080
 2017-02-05 19:52:22.77423+01 | 1486320742.77423 | pgbench_branches |            40960

 2017-02-05 19:52:23.857945+01 | 1486320743.85794 | pgbench_accounts |      13712957440
 2017-02-05 19:52:23.857945+01 | 1486320743.85794 | pgbench_tellers  |           450560
 2017-02-05 19:52:23.857945+01 | 1486320743.85794 | pgbench_history  |        748576768
 2017-02-05 19:52:23.857945+01 | 1486320743.85794 | pgbench_branches |            40960

 2017-02-05 19:52:24.939954+01 | 1486320744.93995 | pgbench_accounts |      13712957440
 2017-02-05 19:52:24.939954+01 | 1486320744.93995 | pgbench_tellers  |           450560
 2017-02-05 19:52:24.939954+01 | 1486320744.93995 | pgbench_history  |        752091136
 2017-02-05 19:52:24.939954+01 | 1486320744.93995 | pgbench_branches |            40960

 2017-02-05 19:52:26.022529+01 | 1486320746.02253 | pgbench_accounts |      13712957440
 2017-02-05 19:52:26.022529+01 | 1486320746.02253 | pgbench_tellers  |           450560
 2017-02-05 19:52:26.022529+01 | 1486320746.02253 | pgbench_history  |        754950144
 2017-02-05 19:52:26.022529+01 | 1486320746.02253 | pgbench_branches |            40960

 2017-02-05 19:52:27.105144+01 | 1486320747.10514 | pgbench_accounts |      13712957440
 2017-02-05 19:52:27.105144+01 | 1486320747.10514 | pgbench_tellers  |           450560
 2017-02-05 19:52:27.105144+01 | 1486320747.10514 | pgbench_history  |        758349824
 2017-02-05 19:52:27.105144+01 | 1486320747.10514 | pgbench_branches |            40960

 2017-02-05 19:52:28.195305+01 | 1486320748.19531 | pgbench_accounts |      13712957440
 2017-02-05 19:52:28.195305+01 | 1486320748.19531 | pgbench_tellers  |           450560
 2017-02-05 19:52:28.195305+01 | 1486320748.19531 | pgbench_history  |        762265600
 2017-02-05 19:52:28.195305+01 | 1486320748.19531 | pgbench_branches |            40960

 2017-02-05 19:52:29.28611+01 | 1486320749.28611 | pgbench_accounts |      13712957440
 2017-02-05 19:52:29.28611+01 | 1486320749.28611 | pgbench_tellers  |           450560
 2017-02-05 19:52:29.28611+01 | 1486320749.28611 | pgbench_history  |        766484480
 2017-02-05 19:52:29.28611+01 | 1486320749.28611 | pgbench_branches |            40960

 2017-02-05 19:52:30.369797+01 | 1486320750.3698 | pgbench_accounts |      13712957440
 2017-02-05 19:52:30.369797+01 | 1486320750.3698 | pgbench_tellers  |           450560
 2017-02-05 19:52:30.369797+01 | 1486320750.3698 | pgbench_history  |        768475136
 2017-02-05 19:52:30.369797+01 | 1486320750.3698 | pgbench_branches |            40960

 2017-02-05 19:52:31.443007+01 | 1486320751.44301 | pgbench_accounts |      13712957440
 2017-02-05 19:52:31.443007+01 | 1486320751.44301 | pgbench_tellers  |           450560
 2017-02-05 19:52:31.443007+01 | 1486320751.44301 | pgbench_history  |        771448832
 2017-02-05 19:52:31.443007+01 | 1486320751.44301 | pgbench_branches |            40960

 2017-02-05 19:52:32.514765+01 | 1486320752.51477 | pgbench_accounts |      13712957440
 2017-02-05 19:52:32.514765+01 | 1486320752.51477 | pgbench_tellers  |           450560
 2017-02-05 19:52:32.514765+01 | 1486320752.51477 | pgbench_history  |        774643712
 2017-02-05 19:52:32.514765+01 | 1486320752.51477 | pgbench_branches |            40960

 2017-02-05 19:52:33.586034+01 | 1486320753.58603 | pgbench_accounts |      13712957440
 2017-02-05 19:52:33.586034+01 | 1486320753.58603 | pgbench_tellers  |           450560
 2017-02-05 19:52:33.586034+01 | 1486320753.58603 | pgbench_history  |        777175040
 2017-02-05 19:52:33.586034+01 | 1486320753.58603 | pgbench_branches |            40960

 2017-02-05 19:52:34.661105+01 | 1486320754.6611 | pgbench_accounts |      13712957440
 2017-02-05 19:52:34.661105+01 | 1486320754.6611 | pgbench_tellers  |           450560
 2017-02-05 19:52:34.661105+01 | 1486320754.6611 | pgbench_history  |        780222464
 2017-02-05 19:52:34.661105+01 | 1486320754.6611 | pgbench_branches |            40960

 2017-02-05 19:52:35.737539+01 | 1486320755.73754 | pgbench_accounts |      13712957440
 2017-02-05 19:52:35.737539+01 | 1486320755.73754 | pgbench_tellers  |           450560
 2017-02-05 19:52:35.737539+01 | 1486320755.73754 | pgbench_history  |        783130624
 2017-02-05 19:52:35.737539+01 | 1486320755.73754 | pgbench_branches |            40960

 2017-02-05 19:52:36.815313+01 | 1486320756.81531 | pgbench_accounts |      13712957440
 2017-02-05 19:52:36.815313+01 | 1486320756.81531 | pgbench_tellers  |           450560
 2017-02-05 19:52:36.815313+01 | 1486320756.81531 | pgbench_history  |        786677760
 2017-02-05 19:52:36.815313+01 | 1486320756.81531 | pgbench_branches |            40960

 2017-02-05 19:52:37.890415+01 | 1486320757.89041 | pgbench_accounts |      13712957440
 2017-02-05 19:52:37.890415+01 | 1486320757.89041 | pgbench_tellers  |           450560
 2017-02-05 19:52:37.890415+01 | 1486320757.89041 | pgbench_history  |        789372928
 2017-02-05 19:52:37.890415+01 | 1486320757.89041 | pgbench_branches |            40960

 2017-02-05 19:52:38.972462+01 | 1486320758.97246 | pgbench_accounts |      13712957440
 2017-02-05 19:52:38.972462+01 | 1486320758.97246 | pgbench_tellers  |           450560
 2017-02-05 19:52:38.972462+01 | 1486320758.97246 | pgbench_history  |        792748032
 2017-02-05 19:52:38.972462+01 | 1486320758.97246 | pgbench_branches |            40960

 2017-02-05 19:52:40.059586+01 | 1486320760.05959 | pgbench_accounts |      13712957440
 2017-02-05 19:52:40.059586+01 | 1486320760.05959 | pgbench_tellers  |           450560
 2017-02-05 19:52:40.059586+01 | 1486320760.05959 | pgbench_history  |        797769728
 2017-02-05 19:52:40.059586+01 | 1486320760.05959 | pgbench_branches |            40960

 2017-02-05 19:52:41.147741+01 | 1486320761.14774 | pgbench_accounts |      13712957440
 2017-02-05 19:52:41.147741+01 | 1486320761.14774 | pgbench_tellers  |           450560
 2017-02-05 19:52:41.147741+01 | 1486320761.14774 | pgbench_history  |        802504704
 2017-02-05 19:52:41.147741+01 | 1486320761.14774 | pgbench_branches |            40960

 2017-02-05 19:52:42.225731+01 | 1486320762.22573 | pgbench_accounts |      13712957440
 2017-02-05 19:52:42.225731+01 | 1486320762.22573 | pgbench_tellers  |           450560
 2017-02-05 19:52:42.225731+01 | 1486320762.22573 | pgbench_history  |        802504704
 2017-02-05 19:52:42.225731+01 | 1486320762.22573 | pgbench_branches |            40960

 2017-02-05 19:52:43.318028+01 | 1486320763.31803 | pgbench_accounts |      13712957440
 2017-02-05 19:52:43.318028+01 | 1486320763.31803 | pgbench_tellers  |           450560
 2017-02-05 19:52:43.318028+01 | 1486320763.31803 | pgbench_history  |        806043648
 2017-02-05 19:52:43.318028+01 | 1486320763.31803 | pgbench_branches |            40960

 2017-02-05 19:52:44.398797+01 | 1486320764.3988 | pgbench_accounts |      13712957440
 2017-02-05 19:52:44.398797+01 | 1486320764.3988 | pgbench_tellers  |           450560
 2017-02-05 19:52:44.398797+01 | 1486320764.3988 | pgbench_history  |        809115648
 2017-02-05 19:52:44.398797+01 | 1486320764.3988 | pgbench_branches |            40960

 2017-02-05 19:52:45.474253+01 | 1486320765.47425 | pgbench_accounts |      13712957440
 2017-02-05 19:52:45.474253+01 | 1486320765.47425 | pgbench_tellers  |           450560
 2017-02-05 19:52:45.474253+01 | 1486320765.47425 | pgbench_history  |        813449216
 2017-02-05 19:52:45.474253+01 | 1486320765.47425 | pgbench_branches |            40960

 2017-02-05 19:52:46.547465+01 | 1486320766.54747 | pgbench_accounts |      13712957440
 2017-02-05 19:52:46.547465+01 | 1486320766.54747 | pgbench_tellers  |           450560
 2017-02-05 19:52:46.547465+01 | 1486320766.54747 | pgbench_history  |        816832512
 2017-02-05 19:52:46.547465+01 | 1486320766.54747 | pgbench_branches |            40960

 2017-02-05 19:52:47.626698+01 | 1486320767.6267 | pgbench_accounts |      13712957440
 2017-02-05 19:52:47.626698+01 | 1486320767.6267 | pgbench_tellers  |           450560
 2017-02-05 19:52:47.626698+01 | 1486320767.6267 | pgbench_history  |        819175424
 2017-02-05 19:52:47.626698+01 | 1486320767.6267 | pgbench_branches |            40960

 2017-02-05 19:52:48.705067+01 | 1486320768.70507 | pgbench_accounts |      13712957440
 2017-02-05 19:52:48.705067+01 | 1486320768.70507 | pgbench_tellers  |           450560
 2017-02-05 19:52:48.705067+01 | 1486320768.70507 | pgbench_history  |        823091200
 2017-02-05 19:52:48.705067+01 | 1486320768.70507 | pgbench_branches |            40960

 2017-02-05 19:52:49.778797+01 | 1486320769.7788 | pgbench_accounts |      13712957440
 2017-02-05 19:52:49.778797+01 | 1486320769.7788 | pgbench_tellers  |           450560
 2017-02-05 19:52:49.778797+01 | 1486320769.7788 | pgbench_history  |        826777600
 2017-02-05 19:52:49.778797+01 | 1486320769.7788 | pgbench_branches |            40960

 2017-02-05 19:52:50.856413+01 | 1486320770.85641 | pgbench_accounts |      13712957440
 2017-02-05 19:52:50.856413+01 | 1486320770.85641 | pgbench_tellers  |           450560
 2017-02-05 19:52:50.856413+01 | 1486320770.85641 | pgbench_history  |        832684032
 2017-02-05 19:52:50.856413+01 | 1486320770.85641 | pgbench_branches |            40960

 2017-02-05 19:52:51.942279+01 | 1486320771.94228 | pgbench_accounts |      13712957440
 2017-02-05 19:52:51.942279+01 | 1486320771.94228 | pgbench_tellers  |           450560
 2017-02-05 19:52:51.942279+01 | 1486320771.94228 | pgbench_history  |        832684032
 2017-02-05 19:52:51.942279+01 | 1486320771.94228 | pgbench_branches |            40960

 2017-02-05 19:52:53.023796+01 | 1486320773.0238 | pgbench_accounts |      13712957440
 2017-02-05 19:52:53.023796+01 | 1486320773.0238 | pgbench_tellers  |           450560
 2017-02-05 19:52:53.023796+01 | 1486320773.0238 | pgbench_history  |        835215360
 2017-02-05 19:52:53.023796+01 | 1486320773.0238 | pgbench_branches |            40960

 2017-02-05 19:52:54.10433+01 | 1486320774.10433 | pgbench_accounts |      13712957440
 2017-02-05 19:52:54.10433+01 | 1486320774.10433 | pgbench_tellers  |           450560
 2017-02-05 19:52:54.10433+01 | 1486320774.10433 | pgbench_history  |        838516736
 2017-02-05 19:52:54.10433+01 | 1486320774.10433 | pgbench_branches |            40960

 2017-02-05 19:52:55.189698+01 | 1486320775.1897 | pgbench_accounts |      13712957440
 2017-02-05 19:52:55.189698+01 | 1486320775.1897 | pgbench_tellers  |           450560
 2017-02-05 19:52:55.189698+01 | 1486320775.1897 | pgbench_history  |        842850304
 2017-02-05 19:52:55.189698+01 | 1486320775.1897 | pgbench_branches |            40960

 2017-02-05 19:52:56.272697+01 | 1486320776.2727 | pgbench_accounts |      13712957440
 2017-02-05 19:52:56.272697+01 | 1486320776.2727 | pgbench_tellers  |           450560
 2017-02-05 19:52:56.272697+01 | 1486320776.2727 | pgbench_history  |        846364672
 2017-02-05 19:52:56.272697+01 | 1486320776.2727 | pgbench_branches |            40960

 2017-02-05 19:52:57.361553+01 | 1486320777.36155 | pgbench_accounts |      13712957440
 2017-02-05 19:52:57.361553+01 | 1486320777.36155 | pgbench_tellers  |           450560
 2017-02-05 19:52:57.361553+01 | 1486320777.36155 | pgbench_history  |        849059840
 2017-02-05 19:52:57.361553+01 | 1486320777.36155 | pgbench_branches |            40960

 2017-02-05 19:52:58.44252+01 | 1486320778.44252 | pgbench_accounts |      13712957440
 2017-02-05 19:52:58.44252+01 | 1486320778.44252 | pgbench_tellers  |           450560
 2017-02-05 19:52:58.44252+01 | 1486320778.44252 | pgbench_history  |        853254144
 2017-02-05 19:52:58.44252+01 | 1486320778.44252 | pgbench_branches |            40960

 2017-02-05 19:52:59.519651+01 | 1486320779.51965 | pgbench_accounts |      13712957440
 2017-02-05 19:52:59.519651+01 | 1486320779.51965 | pgbench_tellers  |           450560
 2017-02-05 19:52:59.519651+01 | 1486320779.51965 | pgbench_history  |        855621632
 2017-02-05 19:52:59.519651+01 | 1486320779.51965 | pgbench_branches |            40960

 2017-02-05 19:53:00.597257+01 | 1486320780.59726 | pgbench_accounts |      13712957440
 2017-02-05 19:53:00.597257+01 | 1486320780.59726 | pgbench_tellers  |           450560
 2017-02-05 19:53:00.597257+01 | 1486320780.59726 | pgbench_history  |        862044160
 2017-02-05 19:53:00.597257+01 | 1486320780.59726 | pgbench_branches |            40960

 2017-02-05 19:53:01.67506+01 | 1486320781.67506 | pgbench_accounts |      13712957440
 2017-02-05 19:53:01.67506+01 | 1486320781.67506 | pgbench_tellers  |           450560
 2017-02-05 19:53:01.67506+01 | 1486320781.67506 | pgbench_history  |        862044160
 2017-02-05 19:53:01.67506+01 | 1486320781.67506 | pgbench_branches |            40960

 2017-02-05 19:53:02.753654+01 | 1486320782.75365 | pgbench_accounts |      13712957440
 2017-02-05 19:53:02.753654+01 | 1486320782.75365 | pgbench_tellers  |           450560
 2017-02-05 19:53:02.753654+01 | 1486320782.75365 | pgbench_history  |        866615296
 2017-02-05 19:53:02.753654+01 | 1486320782.75365 | pgbench_branches |            40960

 2017-02-05 19:53:03.831196+01 | 1486320783.8312 | pgbench_accounts |      13712957440
 2017-02-05 19:53:03.831196+01 | 1486320783.8312 | pgbench_tellers  |           450560
 2017-02-05 19:53:03.831196+01 | 1486320783.8312 | pgbench_history  |        871931904
 2017-02-05 19:53:03.831196+01 | 1486320783.8312 | pgbench_branches |            40960

 2017-02-05 19:53:04.92017+01 | 1486320784.92017 | pgbench_accounts |      13712957440
 2017-02-05 19:53:04.92017+01 | 1486320784.92017 | pgbench_tellers  |           450560
 2017-02-05 19:53:04.92017+01 | 1486320784.92017 | pgbench_history  |        871931904
 2017-02-05 19:53:04.92017+01 | 1486320784.92017 | pgbench_branches |            40960

 2017-02-05 19:53:05.999496+01 | 1486320785.9995 | pgbench_accounts |      13712957440
 2017-02-05 19:53:05.999496+01 | 1486320785.9995 | pgbench_tellers  |           450560
 2017-02-05 19:53:05.999496+01 | 1486320785.9995 | pgbench_history  |        875659264
 2017-02-05 19:53:05.999496+01 | 1486320785.9995 | pgbench_branches |            40960

 2017-02-05 19:53:07.083859+01 | 1486320787.08386 | pgbench_accounts |      13712957440
 2017-02-05 19:53:07.083859+01 | 1486320787.08386 | pgbench_tellers  |           450560
 2017-02-05 19:53:07.083859+01 | 1486320787.08386 | pgbench_history  |        878870528
 2017-02-05 19:53:07.083859+01 | 1486320787.08386 | pgbench_branches |            40960

 2017-02-05 19:53:08.166587+01 | 1486320788.16659 | pgbench_accounts |      13712957440
 2017-02-05 19:53:08.166587+01 | 1486320788.16659 | pgbench_tellers  |           450560
 2017-02-05 19:53:08.166587+01 | 1486320788.16659 | pgbench_history  |        882745344
 2017-02-05 19:53:08.166587+01 | 1486320788.16659 | pgbench_branches |            40960

 2017-02-05 19:53:09.241881+01 | 1486320789.24188 | pgbench_accounts |      13712957440
 2017-02-05 19:53:09.241881+01 | 1486320789.24188 | pgbench_tellers  |           450560
 2017-02-05 19:53:09.241881+01 | 1486320789.24188 | pgbench_history  |        885907456
 2017-02-05 19:53:09.241881+01 | 1486320789.24188 | pgbench_branches |            40960

 2017-02-05 19:53:10.316503+01 | 1486320790.3165 | pgbench_accounts |      13712957440
 2017-02-05 19:53:10.316503+01 | 1486320790.3165 | pgbench_tellers  |           450560
 2017-02-05 19:53:10.316503+01 | 1486320790.3165 | pgbench_history  |        889446400
 2017-02-05 19:53:10.316503+01 | 1486320790.3165 | pgbench_branches |            40960

 2017-02-05 19:53:11.393885+01 | 1486320791.39388 | pgbench_accounts |      13712957440
 2017-02-05 19:53:11.393885+01 | 1486320791.39388 | pgbench_tellers  |           450560
 2017-02-05 19:53:11.393885+01 | 1486320791.39388 | pgbench_history  |        892772352
 2017-02-05 19:53:11.393885+01 | 1486320791.39388 | pgbench_branches |            40960

 2017-02-05 19:53:12.473802+01 | 1486320792.4738 | pgbench_accounts |      13712957440
 2017-02-05 19:53:12.473802+01 | 1486320792.4738 | pgbench_tellers  |           450560
 2017-02-05 19:53:12.473802+01 | 1486320792.4738 | pgbench_history  |        895328256
 2017-02-05 19:53:12.473802+01 | 1486320792.4738 | pgbench_branches |            40960

 2017-02-05 19:53:13.551711+01 | 1486320793.55171 | pgbench_accounts |      13712957440
 2017-02-05 19:53:13.551711+01 | 1486320793.55171 | pgbench_tellers  |           450560
 2017-02-05 19:53:13.551711+01 | 1486320793.55171 | pgbench_history  |        899145728
 2017-02-05 19:53:13.551711+01 | 1486320793.55171 | pgbench_branches |            40960

 2017-02-05 19:53:14.630431+01 | 1486320794.63043 | pgbench_accounts |      13712957440
 2017-02-05 19:53:14.630431+01 | 1486320794.63043 | pgbench_tellers  |           450560
 2017-02-05 19:53:14.630431+01 | 1486320794.63043 | pgbench_history  |        902643712
 2017-02-05 19:53:14.630431+01 | 1486320794.63043 | pgbench_branches |            40960

 2017-02-05 19:53:15.700108+01 | 1486320795.70011 | pgbench_accounts |      13712957440
 2017-02-05 19:53:15.700108+01 | 1486320795.70011 | pgbench_tellers  |           450560
 2017-02-05 19:53:15.700108+01 | 1486320795.70011 | pgbench_history  |        903323648
 2017-02-05 19:53:15.700108+01 | 1486320795.70011 | pgbench_branches |            40960

