 2017-02-04 04:15:48.929067+01 | 1486178148.92907 | E/35D7D418               |           61032879128

 2017-02-04 04:15:50.021581+01 | 1486178150.02158 | E/40F1C0B0               |           61219127472

 2017-02-04 04:15:51.103473+01 | 1486178151.10347 | E/4D0D2000               |           61422247936

 2017-02-04 04:15:52.190177+01 | 1486178152.19018 | E/575A5110               |           61595078928

 2017-02-04 04:15:53.285563+01 | 1486178153.28556 | E/609AB488               |           61750293640

 2017-02-04 04:15:54.369352+01 | 1486178154.36935 | E/697F7AA0               |           61899504288

 2017-02-04 04:15:55.454972+01 | 1486178155.45497 | E/71EB7C40               |           62040800320

 2017-02-04 04:15:56.536353+01 | 1486178156.53635 | E/7980B458               |           62168020056

 2017-02-04 04:15:57.613454+01 | 1486178157.61345 | E/7F81A150               |           62268744016

 2017-02-04 04:15:58.695651+01 | 1486178158.69565 | E/84BDD870               |           62356576368

 2017-02-04 04:15:59.773647+01 | 1486178159.77365 | E/892FAB78               |           62431144824

 2017-02-04 04:16:00.853715+01 | 1486178160.85371 | E/8CE3C2B0               |           62493278896

 2017-02-04 04:16:01.933452+01 | 1486178161.93345 | E/900D7AE8               |           62546344680

 2017-02-04 04:16:03.009559+01 | 1486178163.00956 | E/92BD9D70               |           62591442288

 2017-02-04 04:16:04.094272+01 | 1486178164.09427 | E/95378FB0               |           62632988592

 2017-02-04 04:16:05.178687+01 | 1486178165.17869 | E/97662F48               |           62669598536

 2017-02-04 04:16:06.272081+01 | 1486178166.27208 | E/997AAA60               |           62704495200

 2017-02-04 04:16:07.352075+01 | 1486178167.35208 | E/9B433E40               |           62734417472

 2017-02-04 04:16:08.438732+01 | 1486178168.43873 | E/9CEF9BB8               |           62762490808

 2017-02-04 04:16:09.523145+01 | 1486178169.52314 | E/9E92FEE8               |           62789975784

 2017-02-04 04:16:10.605612+01 | 1486178170.60561 | E/A01CB8F0               |           62815779056

 2017-02-04 04:16:11.695368+01 | 1486178171.69537 | E/A19BD740               |           62840887104

 2017-02-04 04:16:12.778654+01 | 1486178172.77865 | E/A302DFA0               |           62864416672

 2017-02-04 04:16:13.858727+01 | 1486178173.85873 | E/A4731138               |           62888546616

 2017-02-04 04:16:14.934561+01 | 1486178174.93456 | E/A5CE6130               |           62911308080

 2017-02-04 04:16:16.014888+01 | 1486178176.01489 | E/A71B2210               |           62933115408

 2017-02-04 04:16:17.0974+01 | 1486178177.0974 | E/A85F8528               |           62954374440

 2017-02-04 04:16:18.185679+01 | 1486178178.18568 | E/A9B0D220               |           62976479776

 2017-02-04 04:16:19.266605+01 | 1486178179.2666 | E/AAFCF880               |           62998247552

 2017-02-04 04:16:20.354408+01 | 1486178180.35441 | E/AC48A8B8               |           63019985080

 2017-02-04 04:16:21.441542+01 | 1486178181.44154 | E/AD93BA78               |           63041682040

 2017-02-04 04:16:22.524765+01 | 1486178182.52477 | E/AED72620               |           63062877728

 2017-02-04 04:16:23.611563+01 | 1486178183.61156 | E/B0051F30               |           63082667824

 2017-02-04 04:16:24.685158+01 | 1486178184.68516 | E/B156B7F8               |           63104792568

 2017-02-04 04:16:25.768661+01 | 1486178185.76866 | E/B2A84CB0               |           63126916272

 2017-02-04 04:16:26.857386+01 | 1486178186.85739 | E/B3F1B828               |           63148505128

 2017-02-04 04:16:27.934757+01 | 1486178187.93476 | E/B524E4E8               |           63168636136

 2017-02-04 04:16:29.01908+01 | 1486178189.01908 | E/B6418550               |           63187289424

 2017-02-04 04:16:30.10605+01 | 1486178190.10605 | E/B7624248               |           63206212168

 2017-02-04 04:16:31.190672+01 | 1486178191.19067 | E/B8805540               |           63224960320

 2017-02-04 04:16:32.280696+01 | 1486178192.2807 | E/B9C76C10               |           63246396432

 2017-02-04 04:16:33.359645+01 | 1486178193.35964 | E/BB4E2068               |           63272001640

 2017-02-04 04:16:34.445371+01 | 1486178194.44537 | E/BCE7C468               |           63298847848

 2017-02-04 04:16:35.520295+01 | 1486178195.52029 | E/BE4D1A98               |           63322266264

 2017-02-04 04:16:36.60636+01 | 1486178196.60636 | E/BF7A39F0               |           63342000624

 2017-02-04 04:16:37.684168+01 | 1486178197.68417 | E/C0AB65C8               |           63362000328

 2017-02-04 04:16:38.767549+01 | 1486178198.76755 | E/C1DC9BF0               |           63382002672

 2017-02-04 04:16:39.846761+01 | 1486178199.84676 | E/C2F23640               |           63400195648

 2017-02-04 04:16:40.92953+01 | 1486178200.92953 | E/C3F8EDD0               |           63417413072

 2017-02-04 04:16:42.021131+01 | 1486178202.02113 | E/C51623C8               |           63436104648

 2017-02-04 04:16:43.100663+01 | 1486178203.10066 | E/C63B6B98               |           63455325080

 2017-02-04 04:16:44.186303+01 | 1486178204.1863 | E/C7566648               |           63473870408

 2017-02-04 04:16:45.270465+01 | 1486178205.27046 | E/C878E840               |           63492909120

 2017-02-04 04:16:46.358078+01 | 1486178206.35808 | E/C9A3CA20               |           63512496672

 2017-02-04 04:16:47.444235+01 | 1486178207.44424 | E/CABDB770               |           63530973040

 2017-02-04 04:16:48.525337+01 | 1486178208.52534 | E/CBD63400               |           63549355008

 2017-02-04 04:16:49.60444+01 | 1486178209.60444 | E/CCD98A38               |           63566350904

 2017-02-04 04:16:50.683834+01 | 1486178210.68383 | E/CDE4E2F8               |           63583871736

 2017-02-04 04:16:51.769201+01 | 1486178211.7692 | E/CEF1D078               |           63601496184

 2017-02-04 04:16:52.851085+01 | 1486178212.85108 | E/D0079E58               |           63619702360

 2017-02-04 04:16:53.927544+01 | 1486178213.92754 | E/D0F7E1D8               |           63635448280

 2017-02-04 04:16:55.007634+01 | 1486178215.00763 | E/D207C938               |           63653267768

 2017-02-04 04:16:56.083138+01 | 1486178216.08314 | E/D312F4C0               |           63670777024

 2017-02-04 04:16:57.168641+01 | 1486178217.16864 | E/D41F0F50               |           63688347472

 2017-02-04 04:16:58.253352+01 | 1486178218.25335 | E/D527D8B8               |           63705700536

 2017-02-04 04:16:59.334007+01 | 1486178219.33401 | E/D64065A8               |           63724086696

 2017-02-04 04:17:00.416116+01 | 1486178220.41612 | E/D75944F8               |           63742493944

 2017-02-04 04:17:01.502271+01 | 1486178221.50227 | E/D87D6C28               |           63761640488

 2017-02-04 04:17:02.586636+01 | 1486178222.58664 | E/D99C4C30               |           63780442712

 2017-02-04 04:17:03.674288+01 | 1486178223.67429 | E/DAC3C670               |           63799805552

 2017-02-04 04:17:04.768665+01 | 1486178224.76867 | E/DBE8DC48               |           63819013192

 2017-02-04 04:17:05.849305+01 | 1486178225.8493 | E/DD1314C0               |           63838557376

 2017-02-04 04:17:06.929725+01 | 1486178226.92972 | E/DE3409B8               |           63857494456

 2017-02-04 04:17:08.009602+01 | 1486178228.0096 | E/DF56F138               |           63876559160

 2017-02-04 04:17:09.090392+01 | 1486178229.09039 | E/E07A0BF8               |           63895636984

 2017-02-04 04:17:10.166289+01 | 1486178230.16629 | E/E19C5BD8               |           63914662872

 2017-02-04 04:17:11.256148+01 | 1486178231.25615 | E/E2C40BD0               |           63934041040

 2017-02-04 04:17:12.339224+01 | 1486178232.33922 | E/E3D97470               |           63952221296

 2017-02-04 04:17:13.438832+01 | 1486178233.43883 | E/E502FE50               |           63971720784

 2017-02-04 04:17:14.52293+01 | 1486178234.52293 | E/E62DDF80               |           63991308160

 2017-02-04 04:17:15.606996+01 | 1486178235.607 | E/E745C550               |           64009651536

 2017-02-04 04:17:16.691851+01 | 1486178236.69185 | E/E86B8050               |           64028901456

 2017-02-04 04:17:17.773201+01 | 1486178237.7732 | E/E98FCFC8               |           64048058312

 2017-02-04 04:17:18.853358+01 | 1486178238.85336 | E/EAACD868               |           64066738280

 2017-02-04 04:17:19.936826+01 | 1486178239.93683 | E/EBD8A040               |           64086384704

 2017-02-04 04:17:21.010778+01 | 1486178241.01078 | E/ECF52228               |           64105030184

 2017-02-04 04:17:22.088235+01 | 1486178242.08823 | E/EE1D6C50               |           64124447824

 2017-02-04 04:17:23.165229+01 | 1486178243.16523 | E/EF3C9220               |           64143266336

 2017-02-04 04:17:24.245785+01 | 1486178244.24578 | E/F06EB530               |           64163329328

 2017-02-04 04:17:25.332093+01 | 1486178245.33209 | E/F18F0DB8               |           64182226360

 2017-02-04 04:17:26.417237+01 | 1486178246.41724 | E/F2B83940               |           64201701696

 2017-02-04 04:17:27.499637+01 | 1486178247.49964 | E/F3E47168               |           64221376872

 2017-02-04 04:17:28.587092+01 | 1486178248.58709 | E/F5060C20               |           64240356384

 2017-02-04 04:17:29.674793+01 | 1486178249.67479 | E/F6308068               |           64259915880

 2017-02-04 04:17:30.765516+01 | 1486178250.76552 | E/F74DD208               |           64278614536

 2017-02-04 04:17:31.853791+01 | 1486178251.85379 | E/F86DAFE0               |           64297480160

 2017-02-04 04:17:32.930353+01 | 1486178252.93035 | E/F98FD578               |           64316495224

 2017-02-04 04:17:34.012536+01 | 1486178254.01254 | E/FAAA2AF0               |           64334998256

 2017-02-04 04:17:35.097159+01 | 1486178255.09716 | E/FBD71F80               |           64354721664

 2017-02-04 04:17:36.189927+01 | 1486178256.18993 | E/FD006398               |           64374203288

 2017-02-04 04:17:37.279012+01 | 1486178257.27901 | E/FE3BAC68               |           64394865768

 2017-02-04 04:17:38.353354+01 | 1486178258.35335 | E/FF64BD20               |           64414334240

 2017-02-04 04:17:39.44498+01 | 1486178259.44498 | F/89EE60                 |           64433548896

 2017-02-04 04:17:40.530727+01 | 1486178260.53073 | F/1A6B950                |           64452213072

 2017-02-04 04:17:41.613527+01 | 1486178261.61353 | F/2BACA70                |           64470305392

 2017-02-04 04:17:42.707426+01 | 1486178262.70743 | F/3DA5CF0                |           64489151728

 2017-02-04 04:17:43.789864+01 | 1486178263.78986 | F/4FDED30                |           64508259632

 2017-02-04 04:17:44.868729+01 | 1486178264.86873 | F/6143B10                |           64526498576

 2017-02-04 04:17:45.953987+01 | 1486178265.95399 | F/71ED548                |           64543970632

 2017-02-04 04:17:47.03832+01 | 1486178267.03832 | F/8304CF8                |           64561892600

 2017-02-04 04:17:48.119224+01 | 1486178268.11922 | F/94232C0                |           64579842752

 2017-02-04 04:17:49.197945+01 | 1486178269.19795 | F/A571650                |           64597988944

 2017-02-04 04:17:50.284681+01 | 1486178270.28468 | F/B7647D0                |           64616810448

 2017-02-04 04:17:51.364637+01 | 1486178271.36464 | F/C93C340                |           64635519808

 2017-02-04 04:17:52.450091+01 | 1486178272.45009 | F/DB37B40                |           64654375744

 2017-02-04 04:17:53.537834+01 | 1486178273.53783 | F/ED9B478                |           64673657976

 2017-02-04 04:17:54.627213+01 | 1486178274.62721 | F/FF74DC0                |           64692374976

 2017-02-04 04:17:55.709504+01 | 1486178275.7095 | F/11026548               |           64709879112

 2017-02-04 04:17:56.790878+01 | 1486178276.79088 | F/121FF3D8               |           64728593368

 2017-02-04 04:17:57.871913+01 | 1486178277.87191 | F/133E2820               |           64747350048

 2017-02-04 04:17:58.958297+01 | 1486178278.9583 | F/145D74B0               |           64766178480

 2017-02-04 04:18:00.038942+01 | 1486178280.03894 | F/15823D30               |           64785366320

 2017-02-04 04:18:01.120823+01 | 1486178281.12082 | F/1699FBF8               |           64803699704

 2017-02-04 04:18:02.205464+01 | 1486178282.20546 | F/17BA0C20               |           64822578208

 2017-02-04 04:18:03.291321+01 | 1486178283.29132 | F/18DC79F0               |           64841611760

 2017-02-04 04:18:04.372177+01 | 1486178284.37218 | F/19F53450               |           64860009552

 2017-02-04 04:18:05.457979+01 | 1486178285.45798 | F/1B15BB80               |           64878918528

 2017-02-04 04:18:06.541398+01 | 1486178286.5414 | F/1C33B350               |           64897659728

 2017-02-04 04:18:07.619282+01 | 1486178287.61928 | F/1D510F70               |           64916361072

 2017-02-04 04:18:08.704181+01 | 1486178288.70418 | F/1E698E08               |           64934743560

 2017-02-04 04:18:09.786869+01 | 1486178289.78687 | F/1F94A2E0               |           64954344160

 2017-02-04 04:18:10.871147+01 | 1486178290.87115 | F/20BA68B8               |           64973596856

 2017-02-04 04:18:11.962024+01 | 1486178291.96202 | F/21D151D8               |           64991875544

 2017-02-04 04:18:13.04194+01 | 1486178293.04194 | F/22F39600               |           65010898432

 2017-02-04 04:18:14.119943+01 | 1486178294.11994 | F/2411D958               |           65029658968

 2017-02-04 04:18:15.198447+01 | 1486178295.19845 | F/253548C8               |           65048758472

 2017-02-04 04:18:16.279713+01 | 1486178296.27971 | F/2649A2D8               |           65066869464

 2017-02-04 04:18:17.364661+01 | 1486178297.36466 | F/27665648               |           65085527624

 2017-02-04 04:18:18.451279+01 | 1486178298.45128 | F/288CB8C0               |           65104820416

 2017-02-04 04:18:19.533237+01 | 1486178299.53324 | F/29A76DB0               |           65123347888

 2017-02-04 04:18:20.620011+01 | 1486178300.62001 | F/2AC7C530               |           65142244656

 2017-02-04 04:18:21.70619+01 | 1486178301.70619 | F/2BE48728               |           65160906536

 2017-02-04 04:18:22.793042+01 | 1486178302.79304 | F/2CF524F0               |           65178772720

 2017-02-04 04:18:23.885093+01 | 1486178303.88509 | F/2E24BD30               |           65198669104

 2017-02-04 04:18:24.967824+01 | 1486178304.96782 | F/2F57BAD8               |           65218788056

 2017-02-04 04:18:26.051405+01 | 1486178306.0514 | F/306C85B8               |           65236927928

 2017-02-04 04:18:27.130162+01 | 1486178307.13016 | F/31912C78               |           65256107128

 2017-02-04 04:18:28.205076+01 | 1486178308.20508 | F/32ABB900               |           65274624256

 2017-02-04 04:18:29.295603+01 | 1486178309.2956 | F/33C2FBC8               |           65292925896

 2017-02-04 04:18:30.381434+01 | 1486178310.38143 | F/34EB8140               |           65312358720

 2017-02-04 04:18:31.464654+01 | 1486178311.46465 | F/360C6418               |           65331291160

 2017-02-04 04:18:32.550529+01 | 1486178312.55053 | F/371EB720               |           65349269280

 2017-02-04 04:18:33.640729+01 | 1486178313.64073 | F/384130D0               |           65368305872

 2017-02-04 04:18:34.730898+01 | 1486178314.7309 | F/39653F78               |           65387446136

 2017-02-04 04:18:35.827516+01 | 1486178315.82752 | F/3A98C8B0               |           65407600816

 2017-02-04 04:18:36.911666+01 | 1486178316.91167 | F/3BC6AD88               |           65427385736

 2017-02-04 04:18:38.003532+01 | 1486178318.00353 | F/3CEFC0B0               |           65446854832

 2017-02-04 04:18:39.086393+01 | 1486178319.08639 | F/3E0707F8               |           65465157624

 2017-02-04 04:18:40.167093+01 | 1486178320.16709 | F/3F2121C8               |           65483645384

 2017-02-04 04:18:41.250663+01 | 1486178321.25066 | F/404106B8               |           65502512824

 2017-02-04 04:18:42.335741+01 | 1486178322.33574 | F/415C0DF0               |           65521061360

 2017-02-04 04:18:43.417171+01 | 1486178323.41717 | F/42727708               |           65539307272

 2017-02-04 04:18:44.502727+01 | 1486178324.50273 | F/439027E8               |           65558030312

 2017-02-04 04:18:45.592445+01 | 1486178325.59244 | F/44B049A0               |           65576913312

 2017-02-04 04:18:46.676153+01 | 1486178326.67615 | F/45CBBF20               |           65595490080

 2017-02-04 04:18:47.765413+01 | 1486178327.76541 | F/46F17A28               |           65614740008

 2017-02-04 04:18:48.84692+01 | 1486178328.84692 | F/480DDF18               |           65633378072

 2017-02-04 04:18:49.930817+01 | 1486178329.93082 | F/4928CBA8               |           65651919784

 2017-02-04 04:18:51.012826+01 | 1486178331.01283 | F/4A409920               |           65670256928

 2017-02-04 04:18:52.089214+01 | 1486178332.08921 | F/4B6031D0               |           65689104848

 2017-02-04 04:18:53.172289+01 | 1486178333.17229 | F/4C754B40               |           65707264832

 2017-02-04 04:18:54.253824+01 | 1486178334.25382 | F/4D7F6198               |           65724703128

 2017-02-04 04:18:55.343445+01 | 1486178335.34345 | F/4E96D6E8               |           65743017704

 2017-02-04 04:18:56.43307+01 | 1486178336.43307 | F/4FB7DF70               |           65761959792

 2017-02-04 04:18:57.513944+01 | 1486178337.51394 | F/50BF6528               |           65779229992

 2017-02-04 04:18:58.599082+01 | 1486178338.59908 | F/51DEF210               |           65798074896

 2017-02-04 04:18:59.684716+01 | 1486178339.68472 | F/52FA2DC0               |           65816636864

 2017-02-04 04:19:00.769315+01 | 1486178340.76932 | F/54118DB0               |           65834945968

 2017-02-04 04:19:01.852648+01 | 1486178341.85265 | F/552F26A8               |           65853662888

 2017-02-04 04:19:02.939242+01 | 1486178342.93924 | F/564AA290               |           65872241296

 2017-02-04 04:19:04.016529+01 | 1486178344.01653 | F/57649B50               |           65890720592

 2017-02-04 04:19:05.095677+01 | 1486178345.09568 | F/5884F448               |           65909617736

 2017-02-04 04:19:06.176405+01 | 1486178346.1764 | F/599B2400               |           65927848960

 2017-02-04 04:19:07.256819+01 | 1486178347.25682 | F/5ABA3658               |           65946662488

 2017-02-04 04:19:08.334445+01 | 1486178348.33444 | F/5BCD42B8               |           65964688056

 2017-02-04 04:19:09.417253+01 | 1486178349.41725 | F/5CEA68B0               |           65983375536

 2017-02-04 04:19:10.492428+01 | 1486178350.49243 | F/5DFA68A8               |           66001201320

 2017-02-04 04:19:11.576449+01 | 1486178351.57645 | F/5F1793A0               |           66019890080

 2017-02-04 04:19:12.660576+01 | 1486178352.66058 | F/6029DF18               |           66037866264

 2017-02-04 04:19:13.748364+01 | 1486178353.74836 | F/614C2898               |           66056890520

 2017-02-04 04:19:14.836449+01 | 1486178354.83645 | F/6265B400               |           66075341824

 2017-02-04 04:19:15.92115+01 | 1486178355.92115 | F/63800890               |           66093844624

 2017-02-04 04:19:17.006972+01 | 1486178357.00697 | F/649724A8               |           66112136360

 2017-02-04 04:19:18.079683+01 | 1486178358.07968 | F/65AF5CF8               |           66130500856

 2017-02-04 04:19:19.156629+01 | 1486178359.15663 | F/66C0D7D8               |           66148423640

 2017-02-04 04:19:20.23391+01 | 1486178360.23391 | F/67DB8AA0               |           66166950560

 2017-02-04 04:19:21.315257+01 | 1486178361.31526 | F/68F0C648               |           66185119304

 2017-02-04 04:19:22.398384+01 | 1486178362.39838 | F/6A0DB010               |           66203791376

 2017-02-04 04:19:23.48899+01 | 1486178363.48899 | F/6B22CEF0               |           66221952752

 2017-02-04 04:19:24.570034+01 | 1486178364.57003 | F/6C53D220               |           66241942048

 2017-02-04 04:19:25.654496+01 | 1486178365.6545 | F/6D6F6390               |           66260525968

 2017-02-04 04:19:26.733508+01 | 1486178366.73351 | F/6E6CCF68               |           66277134184

 2017-02-04 04:19:27.81294+01 | 1486178367.81294 | F/6F4B78C8               |           66291726536

 2017-02-04 04:19:28.893001+01 | 1486178368.893 | F/70362FA8               |           66307108776

 2017-02-04 04:19:29.975257+01 | 1486178369.97526 | F/7124E458               |           66322752600

 2017-02-04 04:19:31.052499+01 | 1486178371.0525 | F/7215F930               |           66338552112

 2017-02-04 04:19:32.129502+01 | 1486178372.1295 | F/73052F30               |           66354229040

 2017-02-04 04:19:33.207272+01 | 1486178373.20727 | F/73F31368               |           66369819496

 2017-02-04 04:19:34.289299+01 | 1486178374.2893 | F/74E04230               |           66385363504

 2017-02-04 04:19:35.366868+01 | 1486178375.36687 | F/75DB9998               |           66401835416

 2017-02-04 04:19:36.4659+01 | 1486178376.4659 | F/76E2D498               |           66419086488

 2017-02-04 04:19:37.551008+01 | 1486178377.55101 | F/77C13FC0               |           66433662912

 2017-02-04 04:19:38.621836+01 | 1486178378.62184 | F/7898D120               |           66447790368

 2017-02-04 04:19:39.706504+01 | 1486178379.7065 | F/7991C608               |           66464105992

 2017-02-04 04:19:40.785216+01 | 1486178380.78522 | F/7AAD35E0               |           66482681312

 2017-02-04 04:19:41.874748+01 | 1486178381.87475 | F/7BCBDA40               |           66501466688

 2017-02-04 04:19:42.957321+01 | 1486178382.95732 | F/7CE84E58               |           66520108632

 2017-02-04 04:19:44.042846+01 | 1486178384.04285 | F/7E0B3228               |           66539172392

 2017-02-04 04:19:45.125983+01 | 1486178385.12598 | F/7F22BAF0               |           66557491952

 2017-02-04 04:19:46.206144+01 | 1486178386.20614 | F/80323B60               |           66575285088

 2017-02-04 04:19:47.286318+01 | 1486178387.28632 | F/814D0DE8               |           66593820136

 2017-02-04 04:19:48.368706+01 | 1486178388.36871 | F/8266B540               |           66612278592

 2017-02-04 04:19:49.455905+01 | 1486178389.4559 | F/836C3168               |           66629415272

 2017-02-04 04:19:50.534819+01 | 1486178390.53482 | F/84848768               |           66647787368

 2017-02-04 04:19:51.623091+01 | 1486178391.62309 | F/85906988               |           66665343368

 2017-02-04 04:19:52.71455+01 | 1486178392.71455 | F/86B05470               |           66684212336

 2017-02-04 04:19:53.798965+01 | 1486178393.79896 | F/87C83428               |           66702554152

 2017-02-04 04:19:54.888695+01 | 1486178394.8887 | F/88DE7160               |           66720788832

 2017-02-04 04:19:55.978366+01 | 1486178395.97837 | F/89F2D610               |           66738902544

 2017-02-04 04:19:57.068969+01 | 1486178397.06897 | F/8B135AB8               |           66757810872

 2017-02-04 04:19:58.146257+01 | 1486178398.14626 | F/8C1A5B68               |           66775047016

 2017-02-04 04:19:59.232698+01 | 1486178399.2327 | F/8D2818D0               |           66792724688

 2017-02-04 04:20:00.305449+01 | 1486178400.30545 | F/8E2F3778               |           66809968504

 2017-02-04 04:20:01.377884+01 | 1486178401.37788 | F/8F40D208               |           66827899400

 2017-02-04 04:20:02.45689+01 | 1486178402.45689 | F/905FCE40               |           66846707264

 2017-02-04 04:20:03.539932+01 | 1486178403.53993 | F/917F24D8               |           66865538264

 2017-02-04 04:20:04.629852+01 | 1486178404.62985 | F/92938208               |           66883650056

 2017-02-04 04:20:05.712517+01 | 1486178405.71252 | F/93A76B98               |           66901732248

 2017-02-04 04:20:06.794876+01 | 1486178406.79488 | F/94C09470               |           66920158320

 2017-02-04 04:20:07.881808+01 | 1486178407.88181 | F/95D320C8               |           66938151112

 2017-02-04 04:20:08.975448+01 | 1486178408.97545 | F/96E67FD8               |           66956197848

 2017-02-04 04:20:10.061189+01 | 1486178410.06119 | F/980356F8               |           66974865144

 2017-02-04 04:20:11.142401+01 | 1486178411.1424 | F/99163718               |           66992879384

 2017-02-04 04:20:12.221694+01 | 1486178412.22169 | F/9A264A60               |           67010710112

 2017-02-04 04:20:13.30917+01 | 1486178413.30917 | F/9B37E3F8               |           67028640760

 2017-02-04 04:20:14.387782+01 | 1486178414.38778 | F/9C530E78               |           67047198328

 2017-02-04 04:20:15.466007+01 | 1486178415.46601 | F/9D6DA390               |           67065717648

 2017-02-04 04:20:16.549469+01 | 1486178416.54947 | F/9E803D20               |           67083713824

 2017-02-04 04:20:17.637441+01 | 1486178417.63744 | F/9F8EAA38               |           67101436472

 2017-02-04 04:20:18.72369+01 | 1486178418.72369 | F/A0A9B290               |           67119985296

 2017-02-04 04:20:19.814942+01 | 1486178419.81494 | F/A1BC7600               |           67137992192

 2017-02-04 04:20:20.901425+01 | 1486178420.90142 | F/A2D10EA0               |           67156119200

 2017-02-04 04:20:21.9852+01 | 1486178421.9852 | F/A3F09D98               |           67174964632

 2017-02-04 04:20:23.072353+01 | 1486178423.07235 | F/A5077DC0               |           67193241024

 2017-02-04 04:20:24.160697+01 | 1486178424.1607 | F/A6235108               |           67211841800

 2017-02-04 04:20:25.235801+01 | 1486178425.2358 | F/A73707F0               |           67229911024

 2017-02-04 04:20:26.311717+01 | 1486178426.31172 | F/A84D4D28               |           67248147752

 2017-02-04 04:20:27.389253+01 | 1486178427.38925 | F/A9677C28               |           67266640936

 2017-02-04 04:20:28.470854+01 | 1486178428.47085 | F/AA72CD40               |           67284159808

 2017-02-04 04:20:29.54296+01 | 1486178429.54296 | F/AB986C10               |           67303402512

 2017-02-04 04:20:30.623313+01 | 1486178430.62331 | F/ACBA2478               |           67322389624

 2017-02-04 04:20:31.713114+01 | 1486178431.71311 | F/ADD4C910               |           67340912912

 2017-02-04 04:20:32.793645+01 | 1486178432.79364 | F/AEED75D8               |           67359307224

 2017-02-04 04:20:33.87942+01 | 1486178433.87942 | F/B0148548               |           67378644296

 2017-02-04 04:20:34.961732+01 | 1486178434.96173 | F/B1369568               |           67397653864

 2017-02-04 04:20:36.048519+01 | 1486178436.04852 | F/B2417A10               |           67415144976

 2017-02-04 04:20:37.13352+01 | 1486178437.13352 | F/B368CF60               |           67434499936

 2017-02-04 04:20:38.212374+01 | 1486178438.21237 | F/B4809E80               |           67452837504

 2017-02-04 04:20:39.292471+01 | 1486178439.29247 | F/B5A06B90               |           67471698832

 2017-02-04 04:20:40.377064+01 | 1486178440.37706 | F/B6CCB018               |           67491377176

 2017-02-04 04:20:41.454327+01 | 1486178441.45433 | F/B8077670               |           67512006256

 2017-02-04 04:20:42.539079+01 | 1486178442.53908 | F/B922B310               |           67530568464

 2017-02-04 04:20:43.613822+01 | 1486178443.61382 | F/BA1B2728               |           67546851112

 2017-02-04 04:20:44.699219+01 | 1486178444.69922 | F/BB388378               |           67565552504

 2017-02-04 04:20:45.784683+01 | 1486178445.78468 | F/BC53CB80               |           67584117632

 2017-02-04 04:20:46.874806+01 | 1486178446.87481 | F/BD6E0930               |           67602614576

 2017-02-04 04:20:47.958529+01 | 1486178447.95853 | F/BE838428               |           67620799528

