 2017-02-06 20:47:30.794214+01 | 1486410450.79421 | pgbench_branches_pkey |          1327104
 2017-02-06 20:47:30.794214+01 | 1486410450.79421 | pgbench_tellers_pkey  |          4734976
 2017-02-06 20:47:30.794214+01 | 1486410450.79421 | pgbench_accounts_pkey |       2246197248

 2017-02-06 20:47:31.88051+01 | 1486410451.88051 | pgbench_branches_pkey |          1327104
 2017-02-06 20:47:31.88051+01 | 1486410451.88051 | pgbench_tellers_pkey  |          4734976
 2017-02-06 20:47:31.88051+01 | 1486410451.88051 | pgbench_accounts_pkey |       2246197248

 2017-02-06 20:47:32.968318+01 | 1486410452.96832 | pgbench_branches_pkey |          1327104
 2017-02-06 20:47:32.968318+01 | 1486410452.96832 | pgbench_tellers_pkey  |          4734976
 2017-02-06 20:47:32.968318+01 | 1486410452.96832 | pgbench_accounts_pkey |       2246197248

 2017-02-06 20:47:34.063919+01 | 1486410454.06392 | pgbench_branches_pkey |          1327104
 2017-02-06 20:47:34.063919+01 | 1486410454.06392 | pgbench_tellers_pkey  |          4734976
 2017-02-06 20:47:34.063919+01 | 1486410454.06392 | pgbench_accounts_pkey |       2246197248

 2017-02-06 20:47:35.152698+01 | 1486410455.1527 | pgbench_branches_pkey |          1327104
 2017-02-06 20:47:35.152698+01 | 1486410455.1527 | pgbench_tellers_pkey  |          4734976
 2017-02-06 20:47:35.152698+01 | 1486410455.1527 | pgbench_accounts_pkey |       2246197248

 2017-02-06 20:47:36.238455+01 | 1486410456.23846 | pgbench_branches_pkey |          1327104
 2017-02-06 20:47:36.238455+01 | 1486410456.23846 | pgbench_tellers_pkey  |          4734976
 2017-02-06 20:47:36.238455+01 | 1486410456.23846 | pgbench_accounts_pkey |       2246197248

 2017-02-06 20:47:37.322813+01 | 1486410457.32281 | pgbench_branches_pkey |          1327104
 2017-02-06 20:47:37.322813+01 | 1486410457.32281 | pgbench_tellers_pkey  |          4734976
 2017-02-06 20:47:37.322813+01 | 1486410457.32281 | pgbench_accounts_pkey |       2246197248

 2017-02-06 20:47:38.41702+01 | 1486410458.41702 | pgbench_branches_pkey |          1327104
 2017-02-06 20:47:38.41702+01 | 1486410458.41702 | pgbench_tellers_pkey  |          4734976
 2017-02-06 20:47:38.41702+01 | 1486410458.41702 | pgbench_accounts_pkey |       2246197248

 2017-02-06 20:47:39.516486+01 | 1486410459.51649 | pgbench_branches_pkey |          1327104
 2017-02-06 20:47:39.516486+01 | 1486410459.51649 | pgbench_tellers_pkey  |          4734976
 2017-02-06 20:47:39.516486+01 | 1486410459.51649 | pgbench_accounts_pkey |       2246197248

 2017-02-06 20:47:40.613873+01 | 1486410460.61387 | pgbench_branches_pkey |          1327104
 2017-02-06 20:47:40.613873+01 | 1486410460.61387 | pgbench_tellers_pkey  |          4734976
 2017-02-06 20:47:40.613873+01 | 1486410460.61387 | pgbench_accounts_pkey |       2246197248

 2017-02-06 20:47:41.704347+01 | 1486410461.70435 | pgbench_branches_pkey |          1327104
 2017-02-06 20:47:41.704347+01 | 1486410461.70435 | pgbench_tellers_pkey  |          4734976
 2017-02-06 20:47:41.704347+01 | 1486410461.70435 | pgbench_accounts_pkey |       2246197248

 2017-02-06 20:47:42.798853+01 | 1486410462.79885 | pgbench_branches_pkey |          1327104
 2017-02-06 20:47:42.798853+01 | 1486410462.79885 | pgbench_tellers_pkey  |          4734976
 2017-02-06 20:47:42.798853+01 | 1486410462.79885 | pgbench_accounts_pkey |       2246197248

 2017-02-06 20:47:43.881892+01 | 1486410463.88189 | pgbench_branches_pkey |          1327104
 2017-02-06 20:47:43.881892+01 | 1486410463.88189 | pgbench_tellers_pkey  |          4734976
 2017-02-06 20:47:43.881892+01 | 1486410463.88189 | pgbench_accounts_pkey |       2246197248

 2017-02-06 20:47:44.979281+01 | 1486410464.97928 | pgbench_branches_pkey |          1327104
 2017-02-06 20:47:44.979281+01 | 1486410464.97928 | pgbench_tellers_pkey  |          4734976
 2017-02-06 20:47:44.979281+01 | 1486410464.97928 | pgbench_accounts_pkey |       2246197248

 2017-02-06 20:47:46.068338+01 | 1486410466.06834 | pgbench_branches_pkey |          1327104
 2017-02-06 20:47:46.068338+01 | 1486410466.06834 | pgbench_tellers_pkey  |          4734976
 2017-02-06 20:47:46.068338+01 | 1486410466.06834 | pgbench_accounts_pkey |       2246197248

 2017-02-06 20:47:47.179153+01 | 1486410467.17915 | pgbench_branches_pkey |          1327104
 2017-02-06 20:47:47.179153+01 | 1486410467.17915 | pgbench_tellers_pkey  |          4734976
 2017-02-06 20:47:47.179153+01 | 1486410467.17915 | pgbench_accounts_pkey |       2246197248

 2017-02-06 20:47:48.27807+01 | 1486410468.27807 | pgbench_branches_pkey |          1327104
 2017-02-06 20:47:48.27807+01 | 1486410468.27807 | pgbench_tellers_pkey  |          4734976
 2017-02-06 20:47:48.27807+01 | 1486410468.27807 | pgbench_accounts_pkey |       2246197248

 2017-02-06 20:47:49.362685+01 | 1486410469.36268 | pgbench_branches_pkey |          1327104
 2017-02-06 20:47:49.362685+01 | 1486410469.36268 | pgbench_tellers_pkey  |          4734976
 2017-02-06 20:47:49.362685+01 | 1486410469.36268 | pgbench_accounts_pkey |       2246197248

 2017-02-06 20:47:50.46873+01 | 1486410470.46873 | pgbench_branches_pkey |          1327104
 2017-02-06 20:47:50.46873+01 | 1486410470.46873 | pgbench_tellers_pkey  |          4734976
 2017-02-06 20:47:50.46873+01 | 1486410470.46873 | pgbench_accounts_pkey |       2246197248

 2017-02-06 20:47:51.561953+01 | 1486410471.56195 | pgbench_branches_pkey |          1327104
 2017-02-06 20:47:51.561953+01 | 1486410471.56195 | pgbench_tellers_pkey  |          4734976
 2017-02-06 20:47:51.561953+01 | 1486410471.56195 | pgbench_accounts_pkey |       2246197248

 2017-02-06 20:47:52.645323+01 | 1486410472.64532 | pgbench_branches_pkey |          1327104
 2017-02-06 20:47:52.645323+01 | 1486410472.64532 | pgbench_tellers_pkey  |          4734976
 2017-02-06 20:47:52.645323+01 | 1486410472.64532 | pgbench_accounts_pkey |       2246197248

 2017-02-06 20:47:53.723311+01 | 1486410473.72331 | pgbench_branches_pkey |          1327104
 2017-02-06 20:47:53.723311+01 | 1486410473.72331 | pgbench_tellers_pkey  |          4734976
 2017-02-06 20:47:53.723311+01 | 1486410473.72331 | pgbench_accounts_pkey |       2246197248

 2017-02-06 20:47:54.810908+01 | 1486410474.81091 | pgbench_branches_pkey |          1327104
 2017-02-06 20:47:54.810908+01 | 1486410474.81091 | pgbench_tellers_pkey  |          4734976
 2017-02-06 20:47:54.810908+01 | 1486410474.81091 | pgbench_accounts_pkey |       2246197248

 2017-02-06 20:47:55.902916+01 | 1486410475.90292 | pgbench_branches_pkey |          1327104
 2017-02-06 20:47:55.902916+01 | 1486410475.90292 | pgbench_tellers_pkey  |          4734976
 2017-02-06 20:47:55.902916+01 | 1486410475.90292 | pgbench_accounts_pkey |       2246197248

 2017-02-06 20:47:56.992536+01 | 1486410476.99254 | pgbench_branches_pkey |          1327104
 2017-02-06 20:47:56.992536+01 | 1486410476.99254 | pgbench_tellers_pkey  |          4734976
 2017-02-06 20:47:56.992536+01 | 1486410476.99254 | pgbench_accounts_pkey |       2246197248

 2017-02-06 20:47:58.090607+01 | 1486410478.09061 | pgbench_branches_pkey |          1327104
 2017-02-06 20:47:58.090607+01 | 1486410478.09061 | pgbench_tellers_pkey  |          4734976
 2017-02-06 20:47:58.090607+01 | 1486410478.09061 | pgbench_accounts_pkey |       2246197248

 2017-02-06 20:47:59.186069+01 | 1486410479.18607 | pgbench_branches_pkey |          1327104
 2017-02-06 20:47:59.186069+01 | 1486410479.18607 | pgbench_tellers_pkey  |          4734976
 2017-02-06 20:47:59.186069+01 | 1486410479.18607 | pgbench_accounts_pkey |       2246197248

 2017-02-06 20:48:00.290298+01 | 1486410480.2903 | pgbench_branches_pkey |          1327104
 2017-02-06 20:48:00.290298+01 | 1486410480.2903 | pgbench_tellers_pkey  |          4734976
 2017-02-06 20:48:00.290298+01 | 1486410480.2903 | pgbench_accounts_pkey |       2246197248

 2017-02-06 20:48:01.38007+01 | 1486410481.38007 | pgbench_branches_pkey |          1327104
 2017-02-06 20:48:01.38007+01 | 1486410481.38007 | pgbench_tellers_pkey  |          4734976
 2017-02-06 20:48:01.38007+01 | 1486410481.38007 | pgbench_accounts_pkey |       2246197248

 2017-02-06 20:48:02.475012+01 | 1486410482.47501 | pgbench_branches_pkey |          1327104
 2017-02-06 20:48:02.475012+01 | 1486410482.47501 | pgbench_tellers_pkey  |          4734976
 2017-02-06 20:48:02.475012+01 | 1486410482.47501 | pgbench_accounts_pkey |       2246197248

 2017-02-06 20:48:03.581473+01 | 1486410483.58147 | pgbench_branches_pkey |          1327104
 2017-02-06 20:48:03.581473+01 | 1486410483.58147 | pgbench_tellers_pkey  |          4734976
 2017-02-06 20:48:03.581473+01 | 1486410483.58147 | pgbench_accounts_pkey |       2246197248

 2017-02-06 20:48:04.68046+01 | 1486410484.68046 | pgbench_branches_pkey |          1327104
 2017-02-06 20:48:04.68046+01 | 1486410484.68046 | pgbench_tellers_pkey  |          4734976
 2017-02-06 20:48:04.68046+01 | 1486410484.68046 | pgbench_accounts_pkey |       2246197248

 2017-02-06 20:48:05.758902+01 | 1486410485.7589 | pgbench_branches_pkey |          1327104
 2017-02-06 20:48:05.758902+01 | 1486410485.7589 | pgbench_tellers_pkey  |          4734976
 2017-02-06 20:48:05.758902+01 | 1486410485.7589 | pgbench_accounts_pkey |       2246197248

 2017-02-06 20:48:06.845381+01 | 1486410486.84538 | pgbench_branches_pkey |          1327104
 2017-02-06 20:48:06.845381+01 | 1486410486.84538 | pgbench_tellers_pkey  |          4734976
 2017-02-06 20:48:06.845381+01 | 1486410486.84538 | pgbench_accounts_pkey |       2246197248

 2017-02-06 20:48:07.92565+01 | 1486410487.92565 | pgbench_branches_pkey |          1327104
 2017-02-06 20:48:07.92565+01 | 1486410487.92565 | pgbench_tellers_pkey  |          4734976
 2017-02-06 20:48:07.92565+01 | 1486410487.92565 | pgbench_accounts_pkey |       2246197248

 2017-02-06 20:48:09.020537+01 | 1486410489.02054 | pgbench_branches_pkey |          1327104
 2017-02-06 20:48:09.020537+01 | 1486410489.02054 | pgbench_tellers_pkey  |          4734976
 2017-02-06 20:48:09.020537+01 | 1486410489.02054 | pgbench_accounts_pkey |       2246197248

 2017-02-06 20:48:10.130706+01 | 1486410490.13071 | pgbench_branches_pkey |          1327104
 2017-02-06 20:48:10.130706+01 | 1486410490.13071 | pgbench_tellers_pkey  |          4734976
 2017-02-06 20:48:10.130706+01 | 1486410490.13071 | pgbench_accounts_pkey |       2246197248

 2017-02-06 20:48:11.236519+01 | 1486410491.23652 | pgbench_branches_pkey |          1327104
 2017-02-06 20:48:11.236519+01 | 1486410491.23652 | pgbench_tellers_pkey  |          4734976
 2017-02-06 20:48:11.236519+01 | 1486410491.23652 | pgbench_accounts_pkey |       2246197248

 2017-02-06 20:48:12.340558+01 | 1486410492.34056 | pgbench_branches_pkey |          1327104
 2017-02-06 20:48:12.340558+01 | 1486410492.34056 | pgbench_tellers_pkey  |          4734976
 2017-02-06 20:48:12.340558+01 | 1486410492.34056 | pgbench_accounts_pkey |       2246197248

 2017-02-06 20:48:13.449093+01 | 1486410493.44909 | pgbench_branches_pkey |          1327104
 2017-02-06 20:48:13.449093+01 | 1486410493.44909 | pgbench_tellers_pkey  |          4734976
 2017-02-06 20:48:13.449093+01 | 1486410493.44909 | pgbench_accounts_pkey |       2246197248

 2017-02-06 20:48:14.56468+01 | 1486410494.56468 | pgbench_branches_pkey |          1327104
 2017-02-06 20:48:14.56468+01 | 1486410494.56468 | pgbench_tellers_pkey  |          4734976
 2017-02-06 20:48:14.56468+01 | 1486410494.56468 | pgbench_accounts_pkey |       2246197248

 2017-02-06 20:48:15.663476+01 | 1486410495.66348 | pgbench_branches_pkey |          1327104
 2017-02-06 20:48:15.663476+01 | 1486410495.66348 | pgbench_tellers_pkey  |          4734976
 2017-02-06 20:48:15.663476+01 | 1486410495.66348 | pgbench_accounts_pkey |       2246197248

 2017-02-06 20:48:16.757966+01 | 1486410496.75797 | pgbench_branches_pkey |          1327104
 2017-02-06 20:48:16.757966+01 | 1486410496.75797 | pgbench_tellers_pkey  |          4734976
 2017-02-06 20:48:16.757966+01 | 1486410496.75797 | pgbench_accounts_pkey |       2246197248

 2017-02-06 20:48:17.843013+01 | 1486410497.84301 | pgbench_branches_pkey |          1327104
 2017-02-06 20:48:17.843013+01 | 1486410497.84301 | pgbench_tellers_pkey  |          4734976
 2017-02-06 20:48:17.843013+01 | 1486410497.84301 | pgbench_accounts_pkey |       2246197248

 2017-02-06 20:48:18.927365+01 | 1486410498.92737 | pgbench_branches_pkey |          1327104
 2017-02-06 20:48:18.927365+01 | 1486410498.92737 | pgbench_tellers_pkey  |          4734976
 2017-02-06 20:48:18.927365+01 | 1486410498.92737 | pgbench_accounts_pkey |       2246197248

 2017-02-06 20:48:20.005661+01 | 1486410500.00566 | pgbench_branches_pkey |          1327104
 2017-02-06 20:48:20.005661+01 | 1486410500.00566 | pgbench_tellers_pkey  |          4734976
 2017-02-06 20:48:20.005661+01 | 1486410500.00566 | pgbench_accounts_pkey |       2246197248

 2017-02-06 20:48:21.078182+01 | 1486410501.07818 | pgbench_branches_pkey |          1327104
 2017-02-06 20:48:21.078182+01 | 1486410501.07818 | pgbench_tellers_pkey  |          4734976
 2017-02-06 20:48:21.078182+01 | 1486410501.07818 | pgbench_accounts_pkey |       2246197248

 2017-02-06 20:48:22.179779+01 | 1486410502.17978 | pgbench_branches_pkey |          1327104
 2017-02-06 20:48:22.179779+01 | 1486410502.17978 | pgbench_tellers_pkey  |          4734976
 2017-02-06 20:48:22.179779+01 | 1486410502.17978 | pgbench_accounts_pkey |       2246197248

 2017-02-06 20:48:23.274403+01 | 1486410503.2744 | pgbench_branches_pkey |          1327104
 2017-02-06 20:48:23.274403+01 | 1486410503.2744 | pgbench_tellers_pkey  |          4734976
 2017-02-06 20:48:23.274403+01 | 1486410503.2744 | pgbench_accounts_pkey |       2246197248

 2017-02-06 20:48:24.353066+01 | 1486410504.35307 | pgbench_branches_pkey |          1327104
 2017-02-06 20:48:24.353066+01 | 1486410504.35307 | pgbench_tellers_pkey  |          4734976
 2017-02-06 20:48:24.353066+01 | 1486410504.35307 | pgbench_accounts_pkey |       2246197248

 2017-02-06 20:48:25.447517+01 | 1486410505.44752 | pgbench_branches_pkey |          1327104
 2017-02-06 20:48:25.447517+01 | 1486410505.44752 | pgbench_tellers_pkey  |          4734976
 2017-02-06 20:48:25.447517+01 | 1486410505.44752 | pgbench_accounts_pkey |       2246197248

 2017-02-06 20:48:26.547219+01 | 1486410506.54722 | pgbench_branches_pkey |          1327104
 2017-02-06 20:48:26.547219+01 | 1486410506.54722 | pgbench_tellers_pkey  |          4734976
 2017-02-06 20:48:26.547219+01 | 1486410506.54722 | pgbench_accounts_pkey |       2246197248

 2017-02-06 20:48:27.646928+01 | 1486410507.64693 | pgbench_branches_pkey |          1327104
 2017-02-06 20:48:27.646928+01 | 1486410507.64693 | pgbench_tellers_pkey  |          4734976
 2017-02-06 20:48:27.646928+01 | 1486410507.64693 | pgbench_accounts_pkey |       2246197248

 2017-02-06 20:48:28.739033+01 | 1486410508.73903 | pgbench_branches_pkey |          1327104
 2017-02-06 20:48:28.739033+01 | 1486410508.73903 | pgbench_tellers_pkey  |          4734976
 2017-02-06 20:48:28.739033+01 | 1486410508.73903 | pgbench_accounts_pkey |       2246197248

 2017-02-06 20:48:29.824966+01 | 1486410509.82497 | pgbench_branches_pkey |          1327104
 2017-02-06 20:48:29.824966+01 | 1486410509.82497 | pgbench_tellers_pkey  |          4734976
 2017-02-06 20:48:29.824966+01 | 1486410509.82497 | pgbench_accounts_pkey |       2246197248

 2017-02-06 20:48:30.91076+01 | 1486410510.91076 | pgbench_branches_pkey |          1327104
 2017-02-06 20:48:30.91076+01 | 1486410510.91076 | pgbench_tellers_pkey  |          4734976
 2017-02-06 20:48:30.91076+01 | 1486410510.91076 | pgbench_accounts_pkey |       2246197248

 2017-02-06 20:48:31.984166+01 | 1486410511.98417 | pgbench_branches_pkey |          1327104
 2017-02-06 20:48:31.984166+01 | 1486410511.98417 | pgbench_tellers_pkey  |          4734976
 2017-02-06 20:48:31.984166+01 | 1486410511.98417 | pgbench_accounts_pkey |       2246197248

 2017-02-06 20:48:33.067502+01 | 1486410513.0675 | pgbench_branches_pkey |          1327104
 2017-02-06 20:48:33.067502+01 | 1486410513.0675 | pgbench_tellers_pkey  |          4734976
 2017-02-06 20:48:33.067502+01 | 1486410513.0675 | pgbench_accounts_pkey |       2246197248

 2017-02-06 20:48:34.173274+01 | 1486410514.17327 | pgbench_branches_pkey |          1327104
 2017-02-06 20:48:34.173274+01 | 1486410514.17327 | pgbench_tellers_pkey  |          4734976
 2017-02-06 20:48:34.173274+01 | 1486410514.17327 | pgbench_accounts_pkey |       2246197248

 2017-02-06 20:48:35.247677+01 | 1486410515.24768 | pgbench_branches_pkey |          1327104
 2017-02-06 20:48:35.247677+01 | 1486410515.24768 | pgbench_tellers_pkey  |          4734976
 2017-02-06 20:48:35.247677+01 | 1486410515.24768 | pgbench_accounts_pkey |       2246197248

 2017-02-06 20:48:36.33452+01 | 1486410516.33452 | pgbench_branches_pkey |          1327104
 2017-02-06 20:48:36.33452+01 | 1486410516.33452 | pgbench_tellers_pkey  |          4734976
 2017-02-06 20:48:36.33452+01 | 1486410516.33452 | pgbench_accounts_pkey |       2246197248

 2017-02-06 20:48:37.450713+01 | 1486410517.45071 | pgbench_branches_pkey |          1327104
 2017-02-06 20:48:37.450713+01 | 1486410517.45071 | pgbench_tellers_pkey  |          4734976
 2017-02-06 20:48:37.450713+01 | 1486410517.45071 | pgbench_accounts_pkey |       2246197248

 2017-02-06 20:48:38.571791+01 | 1486410518.57179 | pgbench_branches_pkey |          1327104
 2017-02-06 20:48:38.571791+01 | 1486410518.57179 | pgbench_tellers_pkey  |          4734976
 2017-02-06 20:48:38.571791+01 | 1486410518.57179 | pgbench_accounts_pkey |       2246197248

 2017-02-06 20:48:39.666198+01 | 1486410519.6662 | pgbench_branches_pkey |          1327104
 2017-02-06 20:48:39.666198+01 | 1486410519.6662 | pgbench_tellers_pkey  |          4734976
 2017-02-06 20:48:39.666198+01 | 1486410519.6662 | pgbench_accounts_pkey |       2246197248

 2017-02-06 20:48:40.755645+01 | 1486410520.75565 | pgbench_branches_pkey |          1327104
 2017-02-06 20:48:40.755645+01 | 1486410520.75565 | pgbench_tellers_pkey  |          4734976
 2017-02-06 20:48:40.755645+01 | 1486410520.75565 | pgbench_accounts_pkey |       2246197248

 2017-02-06 20:48:41.837044+01 | 1486410521.83704 | pgbench_branches_pkey |          1327104
 2017-02-06 20:48:41.837044+01 | 1486410521.83704 | pgbench_tellers_pkey  |          4734976
 2017-02-06 20:48:41.837044+01 | 1486410521.83704 | pgbench_accounts_pkey |       2246197248

 2017-02-06 20:48:42.93066+01 | 1486410522.93066 | pgbench_branches_pkey |          1327104
 2017-02-06 20:48:42.93066+01 | 1486410522.93066 | pgbench_tellers_pkey  |          4734976
 2017-02-06 20:48:42.93066+01 | 1486410522.93066 | pgbench_accounts_pkey |       2246197248

 2017-02-06 20:48:44.027406+01 | 1486410524.02741 | pgbench_branches_pkey |          1327104
 2017-02-06 20:48:44.027406+01 | 1486410524.02741 | pgbench_tellers_pkey  |          4734976
 2017-02-06 20:48:44.027406+01 | 1486410524.02741 | pgbench_accounts_pkey |       2246197248

 2017-02-06 20:48:45.108871+01 | 1486410525.10887 | pgbench_branches_pkey |          1327104
 2017-02-06 20:48:45.108871+01 | 1486410525.10887 | pgbench_tellers_pkey  |          4734976
 2017-02-06 20:48:45.108871+01 | 1486410525.10887 | pgbench_accounts_pkey |       2246197248

 2017-02-06 20:48:46.194422+01 | 1486410526.19442 | pgbench_branches_pkey |          1327104
 2017-02-06 20:48:46.194422+01 | 1486410526.19442 | pgbench_tellers_pkey  |          4734976
 2017-02-06 20:48:46.194422+01 | 1486410526.19442 | pgbench_accounts_pkey |       2246197248

 2017-02-06 20:48:47.250894+01 | 1486410527.25089 | pgbench_branches_pkey |          1327104
 2017-02-06 20:48:47.250894+01 | 1486410527.25089 | pgbench_tellers_pkey  |          4734976
 2017-02-06 20:48:47.250894+01 | 1486410527.25089 | pgbench_accounts_pkey |       2246197248

 2017-02-06 20:48:48.350924+01 | 1486410528.35092 | pgbench_branches_pkey |          1327104
 2017-02-06 20:48:48.350924+01 | 1486410528.35092 | pgbench_tellers_pkey  |          4734976
 2017-02-06 20:48:48.350924+01 | 1486410528.35092 | pgbench_accounts_pkey |       2246197248

 2017-02-06 20:48:49.440384+01 | 1486410529.44038 | pgbench_branches_pkey |          1327104
 2017-02-06 20:48:49.440384+01 | 1486410529.44038 | pgbench_tellers_pkey  |          4734976
 2017-02-06 20:48:49.440384+01 | 1486410529.44038 | pgbench_accounts_pkey |       2246197248

 2017-02-06 20:48:50.546312+01 | 1486410530.54631 | pgbench_branches_pkey |          1327104
 2017-02-06 20:48:50.546312+01 | 1486410530.54631 | pgbench_tellers_pkey  |          4734976
 2017-02-06 20:48:50.546312+01 | 1486410530.54631 | pgbench_accounts_pkey |       2246197248

 2017-02-06 20:48:51.645269+01 | 1486410531.64527 | pgbench_branches_pkey |          1327104
 2017-02-06 20:48:51.645269+01 | 1486410531.64527 | pgbench_tellers_pkey  |          4734976
 2017-02-06 20:48:51.645269+01 | 1486410531.64527 | pgbench_accounts_pkey |       2246197248

 2017-02-06 20:48:52.749599+01 | 1486410532.7496 | pgbench_branches_pkey |          1327104
 2017-02-06 20:48:52.749599+01 | 1486410532.7496 | pgbench_tellers_pkey  |          4734976
 2017-02-06 20:48:52.749599+01 | 1486410532.7496 | pgbench_accounts_pkey |       2246197248

 2017-02-06 20:48:53.834777+01 | 1486410533.83478 | pgbench_branches_pkey |          1327104
 2017-02-06 20:48:53.834777+01 | 1486410533.83478 | pgbench_tellers_pkey  |          4734976
 2017-02-06 20:48:53.834777+01 | 1486410533.83478 | pgbench_accounts_pkey |       2246197248

 2017-02-06 20:48:54.917926+01 | 1486410534.91793 | pgbench_branches_pkey |          1327104
 2017-02-06 20:48:54.917926+01 | 1486410534.91793 | pgbench_tellers_pkey  |          4734976
 2017-02-06 20:48:54.917926+01 | 1486410534.91793 | pgbench_accounts_pkey |       2246197248

 2017-02-06 20:48:56.005502+01 | 1486410536.0055 | pgbench_branches_pkey |          1327104
 2017-02-06 20:48:56.005502+01 | 1486410536.0055 | pgbench_tellers_pkey  |          4734976
 2017-02-06 20:48:56.005502+01 | 1486410536.0055 | pgbench_accounts_pkey |       2246197248

 2017-02-06 20:48:57.090588+01 | 1486410537.09059 | pgbench_branches_pkey |          1327104
 2017-02-06 20:48:57.090588+01 | 1486410537.09059 | pgbench_tellers_pkey  |          4734976
 2017-02-06 20:48:57.090588+01 | 1486410537.09059 | pgbench_accounts_pkey |       2246197248

 2017-02-06 20:48:58.1778+01 | 1486410538.1778 | pgbench_branches_pkey |          1327104
 2017-02-06 20:48:58.1778+01 | 1486410538.1778 | pgbench_tellers_pkey  |          4734976
 2017-02-06 20:48:58.1778+01 | 1486410538.1778 | pgbench_accounts_pkey |       2246197248

 2017-02-06 20:48:59.272863+01 | 1486410539.27286 | pgbench_branches_pkey |          1327104
 2017-02-06 20:48:59.272863+01 | 1486410539.27286 | pgbench_tellers_pkey  |          4734976
 2017-02-06 20:48:59.272863+01 | 1486410539.27286 | pgbench_accounts_pkey |       2246197248

 2017-02-06 20:49:00.367799+01 | 1486410540.3678 | pgbench_branches_pkey |          1327104
 2017-02-06 20:49:00.367799+01 | 1486410540.3678 | pgbench_tellers_pkey  |          4734976
 2017-02-06 20:49:00.367799+01 | 1486410540.3678 | pgbench_accounts_pkey |       2246197248

 2017-02-06 20:49:01.456945+01 | 1486410541.45694 | pgbench_branches_pkey |          1327104
 2017-02-06 20:49:01.456945+01 | 1486410541.45694 | pgbench_tellers_pkey  |          4734976
 2017-02-06 20:49:01.456945+01 | 1486410541.45694 | pgbench_accounts_pkey |       2246197248

 2017-02-06 20:49:02.549646+01 | 1486410542.54965 | pgbench_branches_pkey |          1327104
 2017-02-06 20:49:02.549646+01 | 1486410542.54965 | pgbench_tellers_pkey  |          4734976
 2017-02-06 20:49:02.549646+01 | 1486410542.54965 | pgbench_accounts_pkey |       2246197248

 2017-02-06 20:49:03.63457+01 | 1486410543.63457 | pgbench_branches_pkey |          1327104
 2017-02-06 20:49:03.63457+01 | 1486410543.63457 | pgbench_tellers_pkey  |          4734976
 2017-02-06 20:49:03.63457+01 | 1486410543.63457 | pgbench_accounts_pkey |       2246197248

 2017-02-06 20:49:04.732509+01 | 1486410544.73251 | pgbench_branches_pkey |          1327104
 2017-02-06 20:49:04.732509+01 | 1486410544.73251 | pgbench_tellers_pkey  |          4734976
 2017-02-06 20:49:04.732509+01 | 1486410544.73251 | pgbench_accounts_pkey |       2246197248

 2017-02-06 20:49:05.821375+01 | 1486410545.82137 | pgbench_branches_pkey |          1327104
 2017-02-06 20:49:05.821375+01 | 1486410545.82137 | pgbench_tellers_pkey  |          4734976
 2017-02-06 20:49:05.821375+01 | 1486410545.82137 | pgbench_accounts_pkey |       2246197248

 2017-02-06 20:49:06.904732+01 | 1486410546.90473 | pgbench_branches_pkey |          1327104
 2017-02-06 20:49:06.904732+01 | 1486410546.90473 | pgbench_tellers_pkey  |          4734976
 2017-02-06 20:49:06.904732+01 | 1486410546.90473 | pgbench_accounts_pkey |       2246197248

 2017-02-06 20:49:07.990771+01 | 1486410547.99077 | pgbench_branches_pkey |          1327104
 2017-02-06 20:49:07.990771+01 | 1486410547.99077 | pgbench_tellers_pkey  |          4734976
 2017-02-06 20:49:07.990771+01 | 1486410547.99077 | pgbench_accounts_pkey |       2246197248

 2017-02-06 20:49:09.089078+01 | 1486410549.08908 | pgbench_branches_pkey |          1327104
 2017-02-06 20:49:09.089078+01 | 1486410549.08908 | pgbench_tellers_pkey  |          4734976
 2017-02-06 20:49:09.089078+01 | 1486410549.08908 | pgbench_accounts_pkey |       2246197248

 2017-02-06 20:49:10.195013+01 | 1486410550.19501 | pgbench_branches_pkey |          1327104
 2017-02-06 20:49:10.195013+01 | 1486410550.19501 | pgbench_tellers_pkey  |          4734976
 2017-02-06 20:49:10.195013+01 | 1486410550.19501 | pgbench_accounts_pkey |       2246197248

 2017-02-06 20:49:11.300984+01 | 1486410551.30098 | pgbench_branches_pkey |          1327104
 2017-02-06 20:49:11.300984+01 | 1486410551.30098 | pgbench_tellers_pkey  |          4734976
 2017-02-06 20:49:11.300984+01 | 1486410551.30098 | pgbench_accounts_pkey |       2246197248

 2017-02-06 20:49:12.395346+01 | 1486410552.39535 | pgbench_branches_pkey |          1327104
 2017-02-06 20:49:12.395346+01 | 1486410552.39535 | pgbench_tellers_pkey  |          4734976
 2017-02-06 20:49:12.395346+01 | 1486410552.39535 | pgbench_accounts_pkey |       2246197248

 2017-02-06 20:49:13.491748+01 | 1486410553.49175 | pgbench_branches_pkey |          1327104
 2017-02-06 20:49:13.491748+01 | 1486410553.49175 | pgbench_tellers_pkey  |          4734976
 2017-02-06 20:49:13.491748+01 | 1486410553.49175 | pgbench_accounts_pkey |       2246197248

 2017-02-06 20:49:14.590755+01 | 1486410554.59075 | pgbench_branches_pkey |          1327104
 2017-02-06 20:49:14.590755+01 | 1486410554.59075 | pgbench_tellers_pkey  |          4734976
 2017-02-06 20:49:14.590755+01 | 1486410554.59075 | pgbench_accounts_pkey |       2246197248

 2017-02-06 20:49:15.680932+01 | 1486410555.68093 | pgbench_branches_pkey |          1327104
 2017-02-06 20:49:15.680932+01 | 1486410555.68093 | pgbench_tellers_pkey  |          4734976
 2017-02-06 20:49:15.680932+01 | 1486410555.68093 | pgbench_accounts_pkey |       2246197248

 2017-02-06 20:49:16.769133+01 | 1486410556.76913 | pgbench_branches_pkey |          1327104
 2017-02-06 20:49:16.769133+01 | 1486410556.76913 | pgbench_tellers_pkey  |          4734976
 2017-02-06 20:49:16.769133+01 | 1486410556.76913 | pgbench_accounts_pkey |       2246197248

 2017-02-06 20:49:17.863019+01 | 1486410557.86302 | pgbench_branches_pkey |          1327104
 2017-02-06 20:49:17.863019+01 | 1486410557.86302 | pgbench_tellers_pkey  |          4734976
 2017-02-06 20:49:17.863019+01 | 1486410557.86302 | pgbench_accounts_pkey |       2246197248

 2017-02-06 20:49:18.957183+01 | 1486410558.95718 | pgbench_branches_pkey |          1327104
 2017-02-06 20:49:18.957183+01 | 1486410558.95718 | pgbench_tellers_pkey  |          4734976
 2017-02-06 20:49:18.957183+01 | 1486410558.95718 | pgbench_accounts_pkey |       2246197248

 2017-02-06 20:49:20.04768+01 | 1486410560.04768 | pgbench_branches_pkey |          1327104
 2017-02-06 20:49:20.04768+01 | 1486410560.04768 | pgbench_tellers_pkey  |          4734976
 2017-02-06 20:49:20.04768+01 | 1486410560.04768 | pgbench_accounts_pkey |       2246197248

 2017-02-06 20:49:21.144614+01 | 1486410561.14461 | pgbench_branches_pkey |          1327104
 2017-02-06 20:49:21.144614+01 | 1486410561.14461 | pgbench_tellers_pkey  |          4734976
 2017-02-06 20:49:21.144614+01 | 1486410561.14461 | pgbench_accounts_pkey |       2246197248

 2017-02-06 20:49:22.240946+01 | 1486410562.24095 | pgbench_branches_pkey |          1327104
 2017-02-06 20:49:22.240946+01 | 1486410562.24095 | pgbench_tellers_pkey  |          4734976
 2017-02-06 20:49:22.240946+01 | 1486410562.24095 | pgbench_accounts_pkey |       2246197248

 2017-02-06 20:49:23.333713+01 | 1486410563.33371 | pgbench_branches_pkey |          1327104
 2017-02-06 20:49:23.333713+01 | 1486410563.33371 | pgbench_tellers_pkey  |          4734976
 2017-02-06 20:49:23.333713+01 | 1486410563.33371 | pgbench_accounts_pkey |       2246197248

 2017-02-06 20:49:24.425438+01 | 1486410564.42544 | pgbench_branches_pkey |          1327104
 2017-02-06 20:49:24.425438+01 | 1486410564.42544 | pgbench_tellers_pkey  |          4734976
 2017-02-06 20:49:24.425438+01 | 1486410564.42544 | pgbench_accounts_pkey |       2246197248

 2017-02-06 20:49:25.506272+01 | 1486410565.50627 | pgbench_branches_pkey |          1327104
 2017-02-06 20:49:25.506272+01 | 1486410565.50627 | pgbench_tellers_pkey  |          4734976
 2017-02-06 20:49:25.506272+01 | 1486410565.50627 | pgbench_accounts_pkey |       2246197248

 2017-02-06 20:49:26.603729+01 | 1486410566.60373 | pgbench_branches_pkey |          1327104
 2017-02-06 20:49:26.603729+01 | 1486410566.60373 | pgbench_tellers_pkey  |          4734976
 2017-02-06 20:49:26.603729+01 | 1486410566.60373 | pgbench_accounts_pkey |       2246197248

 2017-02-06 20:49:27.710985+01 | 1486410567.71098 | pgbench_branches_pkey |          1327104
 2017-02-06 20:49:27.710985+01 | 1486410567.71098 | pgbench_tellers_pkey  |          4734976
 2017-02-06 20:49:27.710985+01 | 1486410567.71098 | pgbench_accounts_pkey |       2246197248

 2017-02-06 20:49:28.817734+01 | 1486410568.81773 | pgbench_branches_pkey |          1327104
 2017-02-06 20:49:28.817734+01 | 1486410568.81773 | pgbench_tellers_pkey  |          4734976
 2017-02-06 20:49:28.817734+01 | 1486410568.81773 | pgbench_accounts_pkey |       2246197248

 2017-02-06 20:49:29.906337+01 | 1486410569.90634 | pgbench_branches_pkey |          1327104
 2017-02-06 20:49:29.906337+01 | 1486410569.90634 | pgbench_tellers_pkey  |          4734976
 2017-02-06 20:49:29.906337+01 | 1486410569.90634 | pgbench_accounts_pkey |       2246197248

 2017-02-06 20:49:31.0061+01 | 1486410571.0061 | pgbench_branches_pkey |          1327104
 2017-02-06 20:49:31.0061+01 | 1486410571.0061 | pgbench_tellers_pkey  |          4734976
 2017-02-06 20:49:31.0061+01 | 1486410571.0061 | pgbench_accounts_pkey |       2246197248

 2017-02-06 20:49:32.098817+01 | 1486410572.09882 | pgbench_branches_pkey |          1327104
 2017-02-06 20:49:32.098817+01 | 1486410572.09882 | pgbench_tellers_pkey  |          4734976
 2017-02-06 20:49:32.098817+01 | 1486410572.09882 | pgbench_accounts_pkey |       2246197248

 2017-02-06 20:49:33.177907+01 | 1486410573.17791 | pgbench_branches_pkey |          1327104
 2017-02-06 20:49:33.177907+01 | 1486410573.17791 | pgbench_tellers_pkey  |          4734976
 2017-02-06 20:49:33.177907+01 | 1486410573.17791 | pgbench_accounts_pkey |       2246197248

 2017-02-06 20:49:34.273554+01 | 1486410574.27355 | pgbench_branches_pkey |          1327104
 2017-02-06 20:49:34.273554+01 | 1486410574.27355 | pgbench_tellers_pkey  |          4734976
 2017-02-06 20:49:34.273554+01 | 1486410574.27355 | pgbench_accounts_pkey |       2246197248

 2017-02-06 20:49:35.370297+01 | 1486410575.3703 | pgbench_branches_pkey |          1327104
 2017-02-06 20:49:35.370297+01 | 1486410575.3703 | pgbench_tellers_pkey  |          4734976
 2017-02-06 20:49:35.370297+01 | 1486410575.3703 | pgbench_accounts_pkey |       2246197248

 2017-02-06 20:49:36.450498+01 | 1486410576.4505 | pgbench_branches_pkey |          1327104
 2017-02-06 20:49:36.450498+01 | 1486410576.4505 | pgbench_tellers_pkey  |          4734976
 2017-02-06 20:49:36.450498+01 | 1486410576.4505 | pgbench_accounts_pkey |       2246197248

 2017-02-06 20:49:37.528911+01 | 1486410577.52891 | pgbench_branches_pkey |          1327104
 2017-02-06 20:49:37.528911+01 | 1486410577.52891 | pgbench_tellers_pkey  |          4734976
 2017-02-06 20:49:37.528911+01 | 1486410577.52891 | pgbench_accounts_pkey |       2246197248

 2017-02-06 20:49:38.621075+01 | 1486410578.62107 | pgbench_branches_pkey |          1327104
 2017-02-06 20:49:38.621075+01 | 1486410578.62107 | pgbench_tellers_pkey  |          4734976
 2017-02-06 20:49:38.621075+01 | 1486410578.62107 | pgbench_accounts_pkey |       2246197248

 2017-02-06 20:49:39.708856+01 | 1486410579.70886 | pgbench_branches_pkey |          1327104
 2017-02-06 20:49:39.708856+01 | 1486410579.70886 | pgbench_tellers_pkey  |          4734976
 2017-02-06 20:49:39.708856+01 | 1486410579.70886 | pgbench_accounts_pkey |       2246197248

 2017-02-06 20:49:40.802463+01 | 1486410580.80246 | pgbench_branches_pkey |          1327104
 2017-02-06 20:49:40.802463+01 | 1486410580.80246 | pgbench_tellers_pkey  |          4734976
 2017-02-06 20:49:40.802463+01 | 1486410580.80246 | pgbench_accounts_pkey |       2246197248

 2017-02-06 20:49:41.89714+01 | 1486410581.89714 | pgbench_branches_pkey |          1327104
 2017-02-06 20:49:41.89714+01 | 1486410581.89714 | pgbench_tellers_pkey  |          4734976
 2017-02-06 20:49:41.89714+01 | 1486410581.89714 | pgbench_accounts_pkey |       2246197248

 2017-02-06 20:49:42.987311+01 | 1486410582.98731 | pgbench_branches_pkey |          1327104
 2017-02-06 20:49:42.987311+01 | 1486410582.98731 | pgbench_tellers_pkey  |          4734976
 2017-02-06 20:49:42.987311+01 | 1486410582.98731 | pgbench_accounts_pkey |       2246197248

 2017-02-06 20:49:44.076381+01 | 1486410584.07638 | pgbench_branches_pkey |          1327104
 2017-02-06 20:49:44.076381+01 | 1486410584.07638 | pgbench_tellers_pkey  |          4734976
 2017-02-06 20:49:44.076381+01 | 1486410584.07638 | pgbench_accounts_pkey |       2246197248

 2017-02-06 20:49:45.16157+01 | 1486410585.16157 | pgbench_branches_pkey |          1327104
 2017-02-06 20:49:45.16157+01 | 1486410585.16157 | pgbench_tellers_pkey  |          4734976
 2017-02-06 20:49:45.16157+01 | 1486410585.16157 | pgbench_accounts_pkey |       2246197248

 2017-02-06 20:49:46.257103+01 | 1486410586.2571 | pgbench_branches_pkey |          1327104
 2017-02-06 20:49:46.257103+01 | 1486410586.2571 | pgbench_tellers_pkey  |          4734976
 2017-02-06 20:49:46.257103+01 | 1486410586.2571 | pgbench_accounts_pkey |       2246197248

 2017-02-06 20:49:47.341094+01 | 1486410587.34109 | pgbench_branches_pkey |          1327104
 2017-02-06 20:49:47.341094+01 | 1486410587.34109 | pgbench_tellers_pkey  |          4734976
 2017-02-06 20:49:47.341094+01 | 1486410587.34109 | pgbench_accounts_pkey |       2246197248

 2017-02-06 20:49:48.437511+01 | 1486410588.43751 | pgbench_branches_pkey |          1327104
 2017-02-06 20:49:48.437511+01 | 1486410588.43751 | pgbench_tellers_pkey  |          4734976
 2017-02-06 20:49:48.437511+01 | 1486410588.43751 | pgbench_accounts_pkey |       2246197248

 2017-02-06 20:49:49.539317+01 | 1486410589.53932 | pgbench_branches_pkey |          1327104
 2017-02-06 20:49:49.539317+01 | 1486410589.53932 | pgbench_tellers_pkey  |          4734976
 2017-02-06 20:49:49.539317+01 | 1486410589.53932 | pgbench_accounts_pkey |       2246197248

 2017-02-06 20:49:50.632634+01 | 1486410590.63263 | pgbench_branches_pkey |          1327104
 2017-02-06 20:49:50.632634+01 | 1486410590.63263 | pgbench_tellers_pkey  |          4734976
 2017-02-06 20:49:50.632634+01 | 1486410590.63263 | pgbench_accounts_pkey |       2246197248

 2017-02-06 20:49:51.72875+01 | 1486410591.72875 | pgbench_branches_pkey |          1327104
 2017-02-06 20:49:51.72875+01 | 1486410591.72875 | pgbench_tellers_pkey  |          4734976
 2017-02-06 20:49:51.72875+01 | 1486410591.72875 | pgbench_accounts_pkey |       2246197248

 2017-02-06 20:49:52.826353+01 | 1486410592.82635 | pgbench_branches_pkey |          1327104
 2017-02-06 20:49:52.826353+01 | 1486410592.82635 | pgbench_tellers_pkey  |          4734976
 2017-02-06 20:49:52.826353+01 | 1486410592.82635 | pgbench_accounts_pkey |       2246197248

 2017-02-06 20:49:53.928737+01 | 1486410593.92874 | pgbench_branches_pkey |          1327104
 2017-02-06 20:49:53.928737+01 | 1486410593.92874 | pgbench_tellers_pkey  |          4734976
 2017-02-06 20:49:53.928737+01 | 1486410593.92874 | pgbench_accounts_pkey |       2246197248

 2017-02-06 20:49:55.012808+01 | 1486410595.01281 | pgbench_branches_pkey |          1327104
 2017-02-06 20:49:55.012808+01 | 1486410595.01281 | pgbench_tellers_pkey  |          4734976
 2017-02-06 20:49:55.012808+01 | 1486410595.01281 | pgbench_accounts_pkey |       2246197248

 2017-02-06 20:49:56.098263+01 | 1486410596.09826 | pgbench_branches_pkey |          1327104
 2017-02-06 20:49:56.098263+01 | 1486410596.09826 | pgbench_tellers_pkey  |          4734976
 2017-02-06 20:49:56.098263+01 | 1486410596.09826 | pgbench_accounts_pkey |       2246197248

 2017-02-06 20:49:57.192582+01 | 1486410597.19258 | pgbench_branches_pkey |          1327104
 2017-02-06 20:49:57.192582+01 | 1486410597.19258 | pgbench_tellers_pkey  |          4734976
 2017-02-06 20:49:57.192582+01 | 1486410597.19258 | pgbench_accounts_pkey |       2246197248

 2017-02-06 20:49:58.287102+01 | 1486410598.2871 | pgbench_branches_pkey |          1327104
 2017-02-06 20:49:58.287102+01 | 1486410598.2871 | pgbench_tellers_pkey  |          4734976
 2017-02-06 20:49:58.287102+01 | 1486410598.2871 | pgbench_accounts_pkey |       2246197248

 2017-02-06 20:49:59.378862+01 | 1486410599.37886 | pgbench_branches_pkey |          1327104
 2017-02-06 20:49:59.378862+01 | 1486410599.37886 | pgbench_tellers_pkey  |          4734976
 2017-02-06 20:49:59.378862+01 | 1486410599.37886 | pgbench_accounts_pkey |       2246197248

 2017-02-06 20:50:00.479188+01 | 1486410600.47919 | pgbench_branches_pkey |          1327104
 2017-02-06 20:50:00.479188+01 | 1486410600.47919 | pgbench_tellers_pkey  |          4734976
 2017-02-06 20:50:00.479188+01 | 1486410600.47919 | pgbench_accounts_pkey |       2246197248

 2017-02-06 20:50:01.574632+01 | 1486410601.57463 | pgbench_branches_pkey |          1327104
 2017-02-06 20:50:01.574632+01 | 1486410601.57463 | pgbench_tellers_pkey  |          4734976
 2017-02-06 20:50:01.574632+01 | 1486410601.57463 | pgbench_accounts_pkey |       2246197248

 2017-02-06 20:50:02.651225+01 | 1486410602.65123 | pgbench_branches_pkey |          1327104
 2017-02-06 20:50:02.651225+01 | 1486410602.65123 | pgbench_tellers_pkey  |          4734976
 2017-02-06 20:50:02.651225+01 | 1486410602.65123 | pgbench_accounts_pkey |       2246197248

 2017-02-06 20:50:03.739393+01 | 1486410603.73939 | pgbench_branches_pkey |          1327104
 2017-02-06 20:50:03.739393+01 | 1486410603.73939 | pgbench_tellers_pkey  |          4734976
 2017-02-06 20:50:03.739393+01 | 1486410603.73939 | pgbench_accounts_pkey |       2246197248

 2017-02-06 20:50:04.822595+01 | 1486410604.82259 | pgbench_branches_pkey |          1327104
 2017-02-06 20:50:04.822595+01 | 1486410604.82259 | pgbench_tellers_pkey  |          4734976
 2017-02-06 20:50:04.822595+01 | 1486410604.82259 | pgbench_accounts_pkey |       2246197248

 2017-02-06 20:50:05.915661+01 | 1486410605.91566 | pgbench_branches_pkey |          1327104
 2017-02-06 20:50:05.915661+01 | 1486410605.91566 | pgbench_tellers_pkey  |          4734976
 2017-02-06 20:50:05.915661+01 | 1486410605.91566 | pgbench_accounts_pkey |       2246197248

 2017-02-06 20:50:07.025945+01 | 1486410607.02594 | pgbench_branches_pkey |          1327104
 2017-02-06 20:50:07.025945+01 | 1486410607.02594 | pgbench_tellers_pkey  |          4734976
 2017-02-06 20:50:07.025945+01 | 1486410607.02594 | pgbench_accounts_pkey |       2246197248

 2017-02-06 20:50:08.129513+01 | 1486410608.12951 | pgbench_branches_pkey |          1327104
 2017-02-06 20:50:08.129513+01 | 1486410608.12951 | pgbench_tellers_pkey  |          4734976
 2017-02-06 20:50:08.129513+01 | 1486410608.12951 | pgbench_accounts_pkey |       2246197248

 2017-02-06 20:50:09.230708+01 | 1486410609.23071 | pgbench_branches_pkey |          1327104
 2017-02-06 20:50:09.230708+01 | 1486410609.23071 | pgbench_tellers_pkey  |          4734976
 2017-02-06 20:50:09.230708+01 | 1486410609.23071 | pgbench_accounts_pkey |       2246197248

 2017-02-06 20:50:10.324165+01 | 1486410610.32417 | pgbench_branches_pkey |          1327104
 2017-02-06 20:50:10.324165+01 | 1486410610.32417 | pgbench_tellers_pkey  |          4734976
 2017-02-06 20:50:10.324165+01 | 1486410610.32417 | pgbench_accounts_pkey |       2246197248

 2017-02-06 20:50:11.437621+01 | 1486410611.43762 | pgbench_branches_pkey |          1327104
 2017-02-06 20:50:11.437621+01 | 1486410611.43762 | pgbench_tellers_pkey  |          4734976
 2017-02-06 20:50:11.437621+01 | 1486410611.43762 | pgbench_accounts_pkey |       2246197248

 2017-02-06 20:50:12.532679+01 | 1486410612.53268 | pgbench_branches_pkey |          1327104
 2017-02-06 20:50:12.532679+01 | 1486410612.53268 | pgbench_tellers_pkey  |          4734976
 2017-02-06 20:50:12.532679+01 | 1486410612.53268 | pgbench_accounts_pkey |       2246197248

 2017-02-06 20:50:13.640811+01 | 1486410613.64081 | pgbench_branches_pkey |          1327104
 2017-02-06 20:50:13.640811+01 | 1486410613.64081 | pgbench_tellers_pkey  |          4734976
 2017-02-06 20:50:13.640811+01 | 1486410613.64081 | pgbench_accounts_pkey |       2246197248

 2017-02-06 20:50:14.761267+01 | 1486410614.76127 | pgbench_branches_pkey |          1327104
 2017-02-06 20:50:14.761267+01 | 1486410614.76127 | pgbench_tellers_pkey  |          4734976
 2017-02-06 20:50:14.761267+01 | 1486410614.76127 | pgbench_accounts_pkey |       2246197248

 2017-02-06 20:50:15.858691+01 | 1486410615.85869 | pgbench_branches_pkey |          1327104
 2017-02-06 20:50:15.858691+01 | 1486410615.85869 | pgbench_tellers_pkey  |          4734976
 2017-02-06 20:50:15.858691+01 | 1486410615.85869 | pgbench_accounts_pkey |       2246197248

 2017-02-06 20:50:16.959166+01 | 1486410616.95917 | pgbench_branches_pkey |          1327104
 2017-02-06 20:50:16.959166+01 | 1486410616.95917 | pgbench_tellers_pkey  |          4734976
 2017-02-06 20:50:16.959166+01 | 1486410616.95917 | pgbench_accounts_pkey |       2246197248

 2017-02-06 20:50:18.05694+01 | 1486410618.05694 | pgbench_branches_pkey |          1327104
 2017-02-06 20:50:18.05694+01 | 1486410618.05694 | pgbench_tellers_pkey  |          4734976
 2017-02-06 20:50:18.05694+01 | 1486410618.05694 | pgbench_accounts_pkey |       2246197248

 2017-02-06 20:50:19.161608+01 | 1486410619.16161 | pgbench_branches_pkey |          1327104
 2017-02-06 20:50:19.161608+01 | 1486410619.16161 | pgbench_tellers_pkey  |          4734976
 2017-02-06 20:50:19.161608+01 | 1486410619.16161 | pgbench_accounts_pkey |       2246197248

 2017-02-06 20:50:20.249126+01 | 1486410620.24913 | pgbench_branches_pkey |          1327104
 2017-02-06 20:50:20.249126+01 | 1486410620.24913 | pgbench_tellers_pkey  |          4734976
 2017-02-06 20:50:20.249126+01 | 1486410620.24913 | pgbench_accounts_pkey |       2246197248

 2017-02-06 20:50:21.342351+01 | 1486410621.34235 | pgbench_branches_pkey |          1327104
 2017-02-06 20:50:21.342351+01 | 1486410621.34235 | pgbench_tellers_pkey  |          4734976
 2017-02-06 20:50:21.342351+01 | 1486410621.34235 | pgbench_accounts_pkey |       2246197248

 2017-02-06 20:50:22.437866+01 | 1486410622.43787 | pgbench_branches_pkey |          1327104
 2017-02-06 20:50:22.437866+01 | 1486410622.43787 | pgbench_tellers_pkey  |          4734976
 2017-02-06 20:50:22.437866+01 | 1486410622.43787 | pgbench_accounts_pkey |       2246197248

 2017-02-06 20:50:23.542235+01 | 1486410623.54223 | pgbench_branches_pkey |          1327104
 2017-02-06 20:50:23.542235+01 | 1486410623.54223 | pgbench_tellers_pkey  |          4734976
 2017-02-06 20:50:23.542235+01 | 1486410623.54223 | pgbench_accounts_pkey |       2246197248

 2017-02-06 20:50:24.617105+01 | 1486410624.61711 | pgbench_branches_pkey |          1327104
 2017-02-06 20:50:24.617105+01 | 1486410624.61711 | pgbench_tellers_pkey  |          4734976
 2017-02-06 20:50:24.617105+01 | 1486410624.61711 | pgbench_accounts_pkey |       2246197248

 2017-02-06 20:50:25.695726+01 | 1486410625.69573 | pgbench_branches_pkey |          1327104
 2017-02-06 20:50:25.695726+01 | 1486410625.69573 | pgbench_tellers_pkey  |          4734976
 2017-02-06 20:50:25.695726+01 | 1486410625.69573 | pgbench_accounts_pkey |       2246197248

 2017-02-06 20:50:26.797914+01 | 1486410626.79791 | pgbench_branches_pkey |          1327104
 2017-02-06 20:50:26.797914+01 | 1486410626.79791 | pgbench_tellers_pkey  |          4734976
 2017-02-06 20:50:26.797914+01 | 1486410626.79791 | pgbench_accounts_pkey |       2246197248

 2017-02-06 20:50:27.900292+01 | 1486410627.90029 | pgbench_branches_pkey |          1327104
 2017-02-06 20:50:27.900292+01 | 1486410627.90029 | pgbench_tellers_pkey  |          4734976
 2017-02-06 20:50:27.900292+01 | 1486410627.90029 | pgbench_accounts_pkey |       2246197248

 2017-02-06 20:50:29.008472+01 | 1486410629.00847 | pgbench_branches_pkey |          1327104
 2017-02-06 20:50:29.008472+01 | 1486410629.00847 | pgbench_tellers_pkey  |          4734976
 2017-02-06 20:50:29.008472+01 | 1486410629.00847 | pgbench_accounts_pkey |       2246197248

 2017-02-06 20:50:30.108155+01 | 1486410630.10816 | pgbench_branches_pkey |          1327104
 2017-02-06 20:50:30.108155+01 | 1486410630.10816 | pgbench_tellers_pkey  |          4734976
 2017-02-06 20:50:30.108155+01 | 1486410630.10816 | pgbench_accounts_pkey |       2246197248

 2017-02-06 20:50:31.209115+01 | 1486410631.20912 | pgbench_branches_pkey |          1327104
 2017-02-06 20:50:31.209115+01 | 1486410631.20912 | pgbench_tellers_pkey  |          4734976
 2017-02-06 20:50:31.209115+01 | 1486410631.20912 | pgbench_accounts_pkey |       2246197248

 2017-02-06 20:50:32.310271+01 | 1486410632.31027 | pgbench_branches_pkey |          1327104
 2017-02-06 20:50:32.310271+01 | 1486410632.31027 | pgbench_tellers_pkey  |          4734976
 2017-02-06 20:50:32.310271+01 | 1486410632.31027 | pgbench_accounts_pkey |       2246197248

 2017-02-06 20:50:33.399143+01 | 1486410633.39914 | pgbench_branches_pkey |          1327104
 2017-02-06 20:50:33.399143+01 | 1486410633.39914 | pgbench_tellers_pkey  |          4734976
 2017-02-06 20:50:33.399143+01 | 1486410633.39914 | pgbench_accounts_pkey |       2246197248

 2017-02-06 20:50:34.47441+01 | 1486410634.47441 | pgbench_branches_pkey |          1327104
 2017-02-06 20:50:34.47441+01 | 1486410634.47441 | pgbench_tellers_pkey  |          4734976
 2017-02-06 20:50:34.47441+01 | 1486410634.47441 | pgbench_accounts_pkey |       2246197248

 2017-02-06 20:50:35.560967+01 | 1486410635.56097 | pgbench_branches_pkey |          1327104
 2017-02-06 20:50:35.560967+01 | 1486410635.56097 | pgbench_tellers_pkey  |          4734976
 2017-02-06 20:50:35.560967+01 | 1486410635.56097 | pgbench_accounts_pkey |       2246197248

 2017-02-06 20:50:36.631147+01 | 1486410636.63115 | pgbench_branches_pkey |          1327104
 2017-02-06 20:50:36.631147+01 | 1486410636.63115 | pgbench_tellers_pkey  |          4734976
 2017-02-06 20:50:36.631147+01 | 1486410636.63115 | pgbench_accounts_pkey |       2246197248

 2017-02-06 20:50:37.716556+01 | 1486410637.71656 | pgbench_branches_pkey |          1327104
 2017-02-06 20:50:37.716556+01 | 1486410637.71656 | pgbench_tellers_pkey  |          4734976
 2017-02-06 20:50:37.716556+01 | 1486410637.71656 | pgbench_accounts_pkey |       2246197248

 2017-02-06 20:50:38.829171+01 | 1486410638.82917 | pgbench_branches_pkey |          1327104
 2017-02-06 20:50:38.829171+01 | 1486410638.82917 | pgbench_tellers_pkey  |          4734976
 2017-02-06 20:50:38.829171+01 | 1486410638.82917 | pgbench_accounts_pkey |       2246197248

 2017-02-06 20:50:39.932413+01 | 1486410639.93241 | pgbench_branches_pkey |          1327104
 2017-02-06 20:50:39.932413+01 | 1486410639.93241 | pgbench_tellers_pkey  |          4734976
 2017-02-06 20:50:39.932413+01 | 1486410639.93241 | pgbench_accounts_pkey |       2246197248

 2017-02-06 20:50:41.030994+01 | 1486410641.03099 | pgbench_branches_pkey |          1327104
 2017-02-06 20:50:41.030994+01 | 1486410641.03099 | pgbench_tellers_pkey  |          4734976
 2017-02-06 20:50:41.030994+01 | 1486410641.03099 | pgbench_accounts_pkey |       2246197248

 2017-02-06 20:50:42.12842+01 | 1486410642.12842 | pgbench_branches_pkey |          1327104
 2017-02-06 20:50:42.12842+01 | 1486410642.12842 | pgbench_tellers_pkey  |          4734976
 2017-02-06 20:50:42.12842+01 | 1486410642.12842 | pgbench_accounts_pkey |       2246197248

 2017-02-06 20:50:43.228849+01 | 1486410643.22885 | pgbench_branches_pkey |          1327104
 2017-02-06 20:50:43.228849+01 | 1486410643.22885 | pgbench_tellers_pkey  |          4734976
 2017-02-06 20:50:43.228849+01 | 1486410643.22885 | pgbench_accounts_pkey |       2246197248

 2017-02-06 20:50:44.330755+01 | 1486410644.33075 | pgbench_branches_pkey |          1327104
 2017-02-06 20:50:44.330755+01 | 1486410644.33075 | pgbench_tellers_pkey  |          4734976
 2017-02-06 20:50:44.330755+01 | 1486410644.33075 | pgbench_accounts_pkey |       2246197248

 2017-02-06 20:50:45.409809+01 | 1486410645.40981 | pgbench_branches_pkey |          1327104
 2017-02-06 20:50:45.409809+01 | 1486410645.40981 | pgbench_tellers_pkey  |          4734976
 2017-02-06 20:50:45.409809+01 | 1486410645.40981 | pgbench_accounts_pkey |       2246197248

 2017-02-06 20:50:46.503694+01 | 1486410646.50369 | pgbench_branches_pkey |          1327104
 2017-02-06 20:50:46.503694+01 | 1486410646.50369 | pgbench_tellers_pkey  |          4734976
 2017-02-06 20:50:46.503694+01 | 1486410646.50369 | pgbench_accounts_pkey |       2246197248

 2017-02-06 20:50:47.582373+01 | 1486410647.58237 | pgbench_branches_pkey |          1327104
 2017-02-06 20:50:47.582373+01 | 1486410647.58237 | pgbench_tellers_pkey  |          4734976
 2017-02-06 20:50:47.582373+01 | 1486410647.58237 | pgbench_accounts_pkey |       2246197248

 2017-02-06 20:50:48.697766+01 | 1486410648.69777 | pgbench_branches_pkey |          1327104
 2017-02-06 20:50:48.697766+01 | 1486410648.69777 | pgbench_tellers_pkey  |          4734976
 2017-02-06 20:50:48.697766+01 | 1486410648.69777 | pgbench_accounts_pkey |       2246197248

 2017-02-06 20:50:49.79029+01 | 1486410649.79029 | pgbench_branches_pkey |          1327104
 2017-02-06 20:50:49.79029+01 | 1486410649.79029 | pgbench_tellers_pkey  |          4734976
 2017-02-06 20:50:49.79029+01 | 1486410649.79029 | pgbench_accounts_pkey |       2246197248

 2017-02-06 20:50:50.869304+01 | 1486410650.8693 | pgbench_branches_pkey |          1327104
 2017-02-06 20:50:50.869304+01 | 1486410650.8693 | pgbench_tellers_pkey  |          4734976
 2017-02-06 20:50:50.869304+01 | 1486410650.8693 | pgbench_accounts_pkey |       2246197248

 2017-02-06 20:50:51.956644+01 | 1486410651.95664 | pgbench_branches_pkey |          1327104
 2017-02-06 20:50:51.956644+01 | 1486410651.95664 | pgbench_tellers_pkey  |          4734976
 2017-02-06 20:50:51.956644+01 | 1486410651.95664 | pgbench_accounts_pkey |       2246197248

 2017-02-06 20:50:53.028962+01 | 1486410653.02896 | pgbench_branches_pkey |          1327104
 2017-02-06 20:50:53.028962+01 | 1486410653.02896 | pgbench_tellers_pkey  |          4734976
 2017-02-06 20:50:53.028962+01 | 1486410653.02896 | pgbench_accounts_pkey |       2246197248

 2017-02-06 20:50:54.119826+01 | 1486410654.11983 | pgbench_branches_pkey |          1327104
 2017-02-06 20:50:54.119826+01 | 1486410654.11983 | pgbench_tellers_pkey  |          4734976
 2017-02-06 20:50:54.119826+01 | 1486410654.11983 | pgbench_accounts_pkey |       2246197248

 2017-02-06 20:50:55.222811+01 | 1486410655.22281 | pgbench_branches_pkey |          1327104
 2017-02-06 20:50:55.222811+01 | 1486410655.22281 | pgbench_tellers_pkey  |          4734976
 2017-02-06 20:50:55.222811+01 | 1486410655.22281 | pgbench_accounts_pkey |       2246197248

 2017-02-06 20:50:56.31972+01 | 1486410656.31972 | pgbench_branches_pkey |          1327104
 2017-02-06 20:50:56.31972+01 | 1486410656.31972 | pgbench_tellers_pkey  |          4734976
 2017-02-06 20:50:56.31972+01 | 1486410656.31972 | pgbench_accounts_pkey |       2246197248

 2017-02-06 20:50:57.407971+01 | 1486410657.40797 | pgbench_branches_pkey |          1327104
 2017-02-06 20:50:57.407971+01 | 1486410657.40797 | pgbench_tellers_pkey  |          4734976
 2017-02-06 20:50:57.407971+01 | 1486410657.40797 | pgbench_accounts_pkey |       2246197248

 2017-02-06 20:50:58.51246+01 | 1486410658.51246 | pgbench_branches_pkey |          1327104
 2017-02-06 20:50:58.51246+01 | 1486410658.51246 | pgbench_tellers_pkey  |          4734976
 2017-02-06 20:50:58.51246+01 | 1486410658.51246 | pgbench_accounts_pkey |       2246197248

 2017-02-06 20:50:59.619767+01 | 1486410659.61977 | pgbench_branches_pkey |          1327104
 2017-02-06 20:50:59.619767+01 | 1486410659.61977 | pgbench_tellers_pkey  |          4734976
 2017-02-06 20:50:59.619767+01 | 1486410659.61977 | pgbench_accounts_pkey |       2246197248

 2017-02-06 20:51:00.700005+01 | 1486410660.70001 | pgbench_branches_pkey |          1327104
 2017-02-06 20:51:00.700005+01 | 1486410660.70001 | pgbench_tellers_pkey  |          4734976
 2017-02-06 20:51:00.700005+01 | 1486410660.70001 | pgbench_accounts_pkey |       2246197248

 2017-02-06 20:51:01.791068+01 | 1486410661.79107 | pgbench_branches_pkey |          1327104
 2017-02-06 20:51:01.791068+01 | 1486410661.79107 | pgbench_tellers_pkey  |          4734976
 2017-02-06 20:51:01.791068+01 | 1486410661.79107 | pgbench_accounts_pkey |       2246197248

 2017-02-06 20:51:02.892248+01 | 1486410662.89225 | pgbench_branches_pkey |          1327104
 2017-02-06 20:51:02.892248+01 | 1486410662.89225 | pgbench_tellers_pkey  |          4734976
 2017-02-06 20:51:02.892248+01 | 1486410662.89225 | pgbench_accounts_pkey |       2246197248

 2017-02-06 20:51:04.001896+01 | 1486410664.0019 | pgbench_branches_pkey |          1327104
 2017-02-06 20:51:04.001896+01 | 1486410664.0019 | pgbench_tellers_pkey  |          4734976
 2017-02-06 20:51:04.001896+01 | 1486410664.0019 | pgbench_accounts_pkey |       2246197248

 2017-02-06 20:51:05.113365+01 | 1486410665.11336 | pgbench_branches_pkey |          1327104
 2017-02-06 20:51:05.113365+01 | 1486410665.11336 | pgbench_tellers_pkey  |          4734976
 2017-02-06 20:51:05.113365+01 | 1486410665.11336 | pgbench_accounts_pkey |       2246197248

 2017-02-06 20:51:06.222509+01 | 1486410666.22251 | pgbench_branches_pkey |          1327104
 2017-02-06 20:51:06.222509+01 | 1486410666.22251 | pgbench_tellers_pkey  |          4734976
 2017-02-06 20:51:06.222509+01 | 1486410666.22251 | pgbench_accounts_pkey |       2246197248

 2017-02-06 20:51:07.336545+01 | 1486410667.33654 | pgbench_branches_pkey |          1327104
 2017-02-06 20:51:07.336545+01 | 1486410667.33654 | pgbench_tellers_pkey  |          4743168
 2017-02-06 20:51:07.336545+01 | 1486410667.33654 | pgbench_accounts_pkey |       2246197248

 2017-02-06 20:51:08.436761+01 | 1486410668.43676 | pgbench_branches_pkey |          1327104
 2017-02-06 20:51:08.436761+01 | 1486410668.43676 | pgbench_tellers_pkey  |          4743168
 2017-02-06 20:51:08.436761+01 | 1486410668.43676 | pgbench_accounts_pkey |       2246197248

 2017-02-06 20:51:09.527493+01 | 1486410669.52749 | pgbench_branches_pkey |          1327104
 2017-02-06 20:51:09.527493+01 | 1486410669.52749 | pgbench_tellers_pkey  |          4743168
 2017-02-06 20:51:09.527493+01 | 1486410669.52749 | pgbench_accounts_pkey |       2246197248

 2017-02-06 20:51:10.627767+01 | 1486410670.62777 | pgbench_branches_pkey |          1327104
 2017-02-06 20:51:10.627767+01 | 1486410670.62777 | pgbench_tellers_pkey  |          4743168
 2017-02-06 20:51:10.627767+01 | 1486410670.62777 | pgbench_accounts_pkey |       2246197248

 2017-02-06 20:51:11.730208+01 | 1486410671.73021 | pgbench_branches_pkey |          1327104
 2017-02-06 20:51:11.730208+01 | 1486410671.73021 | pgbench_tellers_pkey  |          4743168
 2017-02-06 20:51:11.730208+01 | 1486410671.73021 | pgbench_accounts_pkey |       2246197248

 2017-02-06 20:51:12.838551+01 | 1486410672.83855 | pgbench_branches_pkey |          1327104
 2017-02-06 20:51:12.838551+01 | 1486410672.83855 | pgbench_tellers_pkey  |          4743168
 2017-02-06 20:51:12.838551+01 | 1486410672.83855 | pgbench_accounts_pkey |       2246197248

 2017-02-06 20:51:13.930928+01 | 1486410673.93093 | pgbench_branches_pkey |          1327104
 2017-02-06 20:51:13.930928+01 | 1486410673.93093 | pgbench_tellers_pkey  |          4743168
 2017-02-06 20:51:13.930928+01 | 1486410673.93093 | pgbench_accounts_pkey |       2246197248

 2017-02-06 20:51:15.029001+01 | 1486410675.029 | pgbench_branches_pkey |          1327104
 2017-02-06 20:51:15.029001+01 | 1486410675.029 | pgbench_tellers_pkey  |          4743168
 2017-02-06 20:51:15.029001+01 | 1486410675.029 | pgbench_accounts_pkey |       2246197248

 2017-02-06 20:51:16.127892+01 | 1486410676.12789 | pgbench_branches_pkey |          1327104
 2017-02-06 20:51:16.127892+01 | 1486410676.12789 | pgbench_tellers_pkey  |          4743168
 2017-02-06 20:51:16.127892+01 | 1486410676.12789 | pgbench_accounts_pkey |       2246197248

 2017-02-06 20:51:17.23485+01 | 1486410677.23485 | pgbench_branches_pkey |          1327104
 2017-02-06 20:51:17.23485+01 | 1486410677.23485 | pgbench_tellers_pkey  |          4743168
 2017-02-06 20:51:17.23485+01 | 1486410677.23485 | pgbench_accounts_pkey |       2246197248

 2017-02-06 20:51:18.341628+01 | 1486410678.34163 | pgbench_branches_pkey |          1327104
 2017-02-06 20:51:18.341628+01 | 1486410678.34163 | pgbench_tellers_pkey  |          4743168
 2017-02-06 20:51:18.341628+01 | 1486410678.34163 | pgbench_accounts_pkey |       2246197248

 2017-02-06 20:51:19.436895+01 | 1486410679.43689 | pgbench_branches_pkey |          1327104
 2017-02-06 20:51:19.436895+01 | 1486410679.43689 | pgbench_tellers_pkey  |          4743168
 2017-02-06 20:51:19.436895+01 | 1486410679.43689 | pgbench_accounts_pkey |       2246197248

 2017-02-06 20:51:20.502793+01 | 1486410680.50279 | pgbench_branches_pkey |          1327104
 2017-02-06 20:51:20.502793+01 | 1486410680.50279 | pgbench_tellers_pkey  |          4743168
 2017-02-06 20:51:20.502793+01 | 1486410680.50279 | pgbench_accounts_pkey |       2246197248

 2017-02-06 20:51:21.571028+01 | 1486410681.57103 | pgbench_branches_pkey |          1327104
 2017-02-06 20:51:21.571028+01 | 1486410681.57103 | pgbench_tellers_pkey  |          4743168
 2017-02-06 20:51:21.571028+01 | 1486410681.57103 | pgbench_accounts_pkey |       2246197248

 2017-02-06 20:51:22.660446+01 | 1486410682.66045 | pgbench_branches_pkey |          1327104
 2017-02-06 20:51:22.660446+01 | 1486410682.66045 | pgbench_tellers_pkey  |          4743168
 2017-02-06 20:51:22.660446+01 | 1486410682.66045 | pgbench_accounts_pkey |       2246197248

 2017-02-06 20:51:23.756069+01 | 1486410683.75607 | pgbench_branches_pkey |          1327104
 2017-02-06 20:51:23.756069+01 | 1486410683.75607 | pgbench_tellers_pkey  |          4743168
 2017-02-06 20:51:23.756069+01 | 1486410683.75607 | pgbench_accounts_pkey |       2246197248

 2017-02-06 20:51:24.846486+01 | 1486410684.84649 | pgbench_branches_pkey |          1327104
 2017-02-06 20:51:24.846486+01 | 1486410684.84649 | pgbench_tellers_pkey  |          4743168
 2017-02-06 20:51:24.846486+01 | 1486410684.84649 | pgbench_accounts_pkey |       2246197248

 2017-02-06 20:51:25.95054+01 | 1486410685.95054 | pgbench_branches_pkey |          1327104
 2017-02-06 20:51:25.95054+01 | 1486410685.95054 | pgbench_tellers_pkey  |          4743168
 2017-02-06 20:51:25.95054+01 | 1486410685.95054 | pgbench_accounts_pkey |       2246197248

 2017-02-06 20:51:27.038322+01 | 1486410687.03832 | pgbench_branches_pkey |          1327104
 2017-02-06 20:51:27.038322+01 | 1486410687.03832 | pgbench_tellers_pkey  |          4743168
 2017-02-06 20:51:27.038322+01 | 1486410687.03832 | pgbench_accounts_pkey |       2246197248

 2017-02-06 20:51:28.145765+01 | 1486410688.14577 | pgbench_branches_pkey |          1327104
 2017-02-06 20:51:28.145765+01 | 1486410688.14577 | pgbench_tellers_pkey  |          4743168
 2017-02-06 20:51:28.145765+01 | 1486410688.14577 | pgbench_accounts_pkey |       2246197248

 2017-02-06 20:51:29.237276+01 | 1486410689.23728 | pgbench_branches_pkey |          1327104
 2017-02-06 20:51:29.237276+01 | 1486410689.23728 | pgbench_tellers_pkey  |          4743168
 2017-02-06 20:51:29.237276+01 | 1486410689.23728 | pgbench_accounts_pkey |       2246197248

 2017-02-06 20:51:30.334103+01 | 1486410690.3341 | pgbench_branches_pkey |          1327104
 2017-02-06 20:51:30.334103+01 | 1486410690.3341 | pgbench_tellers_pkey  |          4743168
 2017-02-06 20:51:30.334103+01 | 1486410690.3341 | pgbench_accounts_pkey |       2246197248

 2017-02-06 20:51:31.426695+01 | 1486410691.4267 | pgbench_branches_pkey |          1327104
 2017-02-06 20:51:31.426695+01 | 1486410691.4267 | pgbench_tellers_pkey  |          4743168
 2017-02-06 20:51:31.426695+01 | 1486410691.4267 | pgbench_accounts_pkey |       2246197248

 2017-02-06 20:51:32.519311+01 | 1486410692.51931 | pgbench_branches_pkey |          1327104
 2017-02-06 20:51:32.519311+01 | 1486410692.51931 | pgbench_tellers_pkey  |          4743168
 2017-02-06 20:51:32.519311+01 | 1486410692.51931 | pgbench_accounts_pkey |       2246197248

 2017-02-06 20:51:33.6144+01 | 1486410693.6144 | pgbench_branches_pkey |          1327104
 2017-02-06 20:51:33.6144+01 | 1486410693.6144 | pgbench_tellers_pkey  |          4743168
 2017-02-06 20:51:33.6144+01 | 1486410693.6144 | pgbench_accounts_pkey |       2246197248

 2017-02-06 20:51:34.699304+01 | 1486410694.6993 | pgbench_branches_pkey |          1327104
 2017-02-06 20:51:34.699304+01 | 1486410694.6993 | pgbench_tellers_pkey  |          4743168
 2017-02-06 20:51:34.699304+01 | 1486410694.6993 | pgbench_accounts_pkey |       2246197248

 2017-02-06 20:51:35.785358+01 | 1486410695.78536 | pgbench_branches_pkey |          1327104
 2017-02-06 20:51:35.785358+01 | 1486410695.78536 | pgbench_tellers_pkey  |          4743168
 2017-02-06 20:51:35.785358+01 | 1486410695.78536 | pgbench_accounts_pkey |       2246197248

 2017-02-06 20:51:36.876804+01 | 1486410696.8768 | pgbench_branches_pkey |          1327104
 2017-02-06 20:51:36.876804+01 | 1486410696.8768 | pgbench_tellers_pkey  |          4743168
 2017-02-06 20:51:36.876804+01 | 1486410696.8768 | pgbench_accounts_pkey |       2246197248

 2017-02-06 20:51:37.968782+01 | 1486410697.96878 | pgbench_branches_pkey |          1327104
 2017-02-06 20:51:37.968782+01 | 1486410697.96878 | pgbench_tellers_pkey  |          4743168
 2017-02-06 20:51:37.968782+01 | 1486410697.96878 | pgbench_accounts_pkey |       2246197248

 2017-02-06 20:51:39.075146+01 | 1486410699.07515 | pgbench_branches_pkey |          1327104
 2017-02-06 20:51:39.075146+01 | 1486410699.07515 | pgbench_tellers_pkey  |          4743168
 2017-02-06 20:51:39.075146+01 | 1486410699.07515 | pgbench_accounts_pkey |       2246197248

 2017-02-06 20:51:40.159558+01 | 1486410700.15956 | pgbench_branches_pkey |          1327104
 2017-02-06 20:51:40.159558+01 | 1486410700.15956 | pgbench_tellers_pkey  |          4743168
 2017-02-06 20:51:40.159558+01 | 1486410700.15956 | pgbench_accounts_pkey |       2246197248

 2017-02-06 20:51:41.254229+01 | 1486410701.25423 | pgbench_branches_pkey |          1327104
 2017-02-06 20:51:41.254229+01 | 1486410701.25423 | pgbench_tellers_pkey  |          4743168
 2017-02-06 20:51:41.254229+01 | 1486410701.25423 | pgbench_accounts_pkey |       2246197248

 2017-02-06 20:51:42.359286+01 | 1486410702.35929 | pgbench_branches_pkey |          1327104
 2017-02-06 20:51:42.359286+01 | 1486410702.35929 | pgbench_tellers_pkey  |          4743168
 2017-02-06 20:51:42.359286+01 | 1486410702.35929 | pgbench_accounts_pkey |       2246197248

 2017-02-06 20:51:43.448749+01 | 1486410703.44875 | pgbench_branches_pkey |          1327104
 2017-02-06 20:51:43.448749+01 | 1486410703.44875 | pgbench_tellers_pkey  |          4743168
 2017-02-06 20:51:43.448749+01 | 1486410703.44875 | pgbench_accounts_pkey |       2246197248

 2017-02-06 20:51:44.543345+01 | 1486410704.54334 | pgbench_branches_pkey |          1327104
 2017-02-06 20:51:44.543345+01 | 1486410704.54334 | pgbench_tellers_pkey  |          4743168
 2017-02-06 20:51:44.543345+01 | 1486410704.54334 | pgbench_accounts_pkey |       2246197248

 2017-02-06 20:51:45.617499+01 | 1486410705.6175 | pgbench_branches_pkey |          1327104
 2017-02-06 20:51:45.617499+01 | 1486410705.6175 | pgbench_tellers_pkey  |          4743168
 2017-02-06 20:51:45.617499+01 | 1486410705.6175 | pgbench_accounts_pkey |       2246197248

 2017-02-06 20:51:46.708994+01 | 1486410706.70899 | pgbench_branches_pkey |          1327104
 2017-02-06 20:51:46.708994+01 | 1486410706.70899 | pgbench_tellers_pkey  |          4743168
 2017-02-06 20:51:46.708994+01 | 1486410706.70899 | pgbench_accounts_pkey |       2246197248

 2017-02-06 20:51:47.806556+01 | 1486410707.80656 | pgbench_branches_pkey |          1327104
 2017-02-06 20:51:47.806556+01 | 1486410707.80656 | pgbench_tellers_pkey  |          4743168
 2017-02-06 20:51:47.806556+01 | 1486410707.80656 | pgbench_accounts_pkey |       2246197248

 2017-02-06 20:51:48.903064+01 | 1486410708.90306 | pgbench_branches_pkey |          1327104
 2017-02-06 20:51:48.903064+01 | 1486410708.90306 | pgbench_tellers_pkey  |          4743168
 2017-02-06 20:51:48.903064+01 | 1486410708.90306 | pgbench_accounts_pkey |       2246197248

 2017-02-06 20:51:49.994033+01 | 1486410709.99403 | pgbench_branches_pkey |          1327104
 2017-02-06 20:51:49.994033+01 | 1486410709.99403 | pgbench_tellers_pkey  |          4743168
 2017-02-06 20:51:49.994033+01 | 1486410709.99403 | pgbench_accounts_pkey |       2246197248

 2017-02-06 20:51:51.083523+01 | 1486410711.08352 | pgbench_branches_pkey |          1327104
 2017-02-06 20:51:51.083523+01 | 1486410711.08352 | pgbench_tellers_pkey  |          4743168
 2017-02-06 20:51:51.083523+01 | 1486410711.08352 | pgbench_accounts_pkey |       2246197248

 2017-02-06 20:51:52.169558+01 | 1486410712.16956 | pgbench_branches_pkey |          1327104
 2017-02-06 20:51:52.169558+01 | 1486410712.16956 | pgbench_tellers_pkey  |          4743168
 2017-02-06 20:51:52.169558+01 | 1486410712.16956 | pgbench_accounts_pkey |       2246197248

 2017-02-06 20:51:53.259567+01 | 1486410713.25957 | pgbench_branches_pkey |          1327104
 2017-02-06 20:51:53.259567+01 | 1486410713.25957 | pgbench_tellers_pkey  |          4743168
 2017-02-06 20:51:53.259567+01 | 1486410713.25957 | pgbench_accounts_pkey |       2246197248

 2017-02-06 20:51:54.354753+01 | 1486410714.35475 | pgbench_branches_pkey |          1327104
 2017-02-06 20:51:54.354753+01 | 1486410714.35475 | pgbench_tellers_pkey  |          4743168
 2017-02-06 20:51:54.354753+01 | 1486410714.35475 | pgbench_accounts_pkey |       2246197248

 2017-02-06 20:51:55.427122+01 | 1486410715.42712 | pgbench_branches_pkey |          1327104
 2017-02-06 20:51:55.427122+01 | 1486410715.42712 | pgbench_tellers_pkey  |          4743168
 2017-02-06 20:51:55.427122+01 | 1486410715.42712 | pgbench_accounts_pkey |       2246197248

 2017-02-06 20:51:56.532695+01 | 1486410716.5327 | pgbench_branches_pkey |          1327104
 2017-02-06 20:51:56.532695+01 | 1486410716.5327 | pgbench_tellers_pkey  |          4743168
 2017-02-06 20:51:56.532695+01 | 1486410716.5327 | pgbench_accounts_pkey |       2246197248

 2017-02-06 20:51:57.609142+01 | 1486410717.60914 | pgbench_branches_pkey |          1327104
 2017-02-06 20:51:57.609142+01 | 1486410717.60914 | pgbench_tellers_pkey  |          4743168
 2017-02-06 20:51:57.609142+01 | 1486410717.60914 | pgbench_accounts_pkey |       2246197248

 2017-02-06 20:51:58.710666+01 | 1486410718.71067 | pgbench_branches_pkey |          1327104
 2017-02-06 20:51:58.710666+01 | 1486410718.71067 | pgbench_tellers_pkey  |          4743168
 2017-02-06 20:51:58.710666+01 | 1486410718.71067 | pgbench_accounts_pkey |       2246197248

 2017-02-06 20:51:59.816128+01 | 1486410719.81613 | pgbench_branches_pkey |          1327104
 2017-02-06 20:51:59.816128+01 | 1486410719.81613 | pgbench_tellers_pkey  |          4743168
 2017-02-06 20:51:59.816128+01 | 1486410719.81613 | pgbench_accounts_pkey |       2246197248

 2017-02-06 20:52:00.921344+01 | 1486410720.92134 | pgbench_branches_pkey |          1327104
 2017-02-06 20:52:00.921344+01 | 1486410720.92134 | pgbench_tellers_pkey  |          4743168
 2017-02-06 20:52:00.921344+01 | 1486410720.92134 | pgbench_accounts_pkey |       2246197248

 2017-02-06 20:52:02.031763+01 | 1486410722.03176 | pgbench_branches_pkey |          1327104
 2017-02-06 20:52:02.031763+01 | 1486410722.03176 | pgbench_tellers_pkey  |          4743168
 2017-02-06 20:52:02.031763+01 | 1486410722.03176 | pgbench_accounts_pkey |       2246197248

 2017-02-06 20:52:03.140129+01 | 1486410723.14013 | pgbench_branches_pkey |          1327104
 2017-02-06 20:52:03.140129+01 | 1486410723.14013 | pgbench_tellers_pkey  |          4743168
 2017-02-06 20:52:03.140129+01 | 1486410723.14013 | pgbench_accounts_pkey |       2246197248

 2017-02-06 20:52:04.249858+01 | 1486410724.24986 | pgbench_branches_pkey |          1327104
 2017-02-06 20:52:04.249858+01 | 1486410724.24986 | pgbench_tellers_pkey  |          4743168
 2017-02-06 20:52:04.249858+01 | 1486410724.24986 | pgbench_accounts_pkey |       2246197248

 2017-02-06 20:52:05.347125+01 | 1486410725.34713 | pgbench_branches_pkey |          1327104
 2017-02-06 20:52:05.347125+01 | 1486410725.34713 | pgbench_tellers_pkey  |          4743168
 2017-02-06 20:52:05.347125+01 | 1486410725.34713 | pgbench_accounts_pkey |       2246197248

 2017-02-06 20:52:06.437269+01 | 1486410726.43727 | pgbench_branches_pkey |          1327104
 2017-02-06 20:52:06.437269+01 | 1486410726.43727 | pgbench_tellers_pkey  |          4743168
 2017-02-06 20:52:06.437269+01 | 1486410726.43727 | pgbench_accounts_pkey |       2246197248

 2017-02-06 20:52:07.527899+01 | 1486410727.5279 | pgbench_branches_pkey |          1327104
 2017-02-06 20:52:07.527899+01 | 1486410727.5279 | pgbench_tellers_pkey  |          4743168
 2017-02-06 20:52:07.527899+01 | 1486410727.5279 | pgbench_accounts_pkey |       2246197248

 2017-02-06 20:52:08.616847+01 | 1486410728.61685 | pgbench_branches_pkey |          1327104
 2017-02-06 20:52:08.616847+01 | 1486410728.61685 | pgbench_tellers_pkey  |          4743168
 2017-02-06 20:52:08.616847+01 | 1486410728.61685 | pgbench_accounts_pkey |       2246197248

 2017-02-06 20:52:09.724896+01 | 1486410729.7249 | pgbench_branches_pkey |          1327104
 2017-02-06 20:52:09.724896+01 | 1486410729.7249 | pgbench_tellers_pkey  |          4743168
 2017-02-06 20:52:09.724896+01 | 1486410729.7249 | pgbench_accounts_pkey |       2246197248

 2017-02-06 20:52:10.824171+01 | 1486410730.82417 | pgbench_branches_pkey |          1327104
 2017-02-06 20:52:10.824171+01 | 1486410730.82417 | pgbench_tellers_pkey  |          4743168
 2017-02-06 20:52:10.824171+01 | 1486410730.82417 | pgbench_accounts_pkey |       2246197248

 2017-02-06 20:52:11.918998+01 | 1486410731.919 | pgbench_branches_pkey |          1327104
 2017-02-06 20:52:11.918998+01 | 1486410731.919 | pgbench_tellers_pkey  |          4743168
 2017-02-06 20:52:11.918998+01 | 1486410731.919 | pgbench_accounts_pkey |       2246197248

 2017-02-06 20:52:13.014702+01 | 1486410733.0147 | pgbench_branches_pkey |          1327104
 2017-02-06 20:52:13.014702+01 | 1486410733.0147 | pgbench_tellers_pkey  |          4743168
 2017-02-06 20:52:13.014702+01 | 1486410733.0147 | pgbench_accounts_pkey |       2246197248

 2017-02-06 20:52:14.118135+01 | 1486410734.11813 | pgbench_branches_pkey |          1327104
 2017-02-06 20:52:14.118135+01 | 1486410734.11813 | pgbench_tellers_pkey  |          4743168
 2017-02-06 20:52:14.118135+01 | 1486410734.11813 | pgbench_accounts_pkey |       2246197248

 2017-02-06 20:52:15.236628+01 | 1486410735.23663 | pgbench_branches_pkey |          1327104
 2017-02-06 20:52:15.236628+01 | 1486410735.23663 | pgbench_tellers_pkey  |          4743168
 2017-02-06 20:52:15.236628+01 | 1486410735.23663 | pgbench_accounts_pkey |       2246197248

 2017-02-06 20:52:16.344744+01 | 1486410736.34474 | pgbench_branches_pkey |          1327104
 2017-02-06 20:52:16.344744+01 | 1486410736.34474 | pgbench_tellers_pkey  |          4743168
 2017-02-06 20:52:16.344744+01 | 1486410736.34474 | pgbench_accounts_pkey |       2246197248

 2017-02-06 20:52:17.45937+01 | 1486410737.45937 | pgbench_branches_pkey |          1327104
 2017-02-06 20:52:17.45937+01 | 1486410737.45937 | pgbench_tellers_pkey  |          4743168
 2017-02-06 20:52:17.45937+01 | 1486410737.45937 | pgbench_accounts_pkey |       2246197248

 2017-02-06 20:52:18.556359+01 | 1486410738.55636 | pgbench_branches_pkey |          1327104
 2017-02-06 20:52:18.556359+01 | 1486410738.55636 | pgbench_tellers_pkey  |          4743168
 2017-02-06 20:52:18.556359+01 | 1486410738.55636 | pgbench_accounts_pkey |       2246197248

 2017-02-06 20:52:19.658222+01 | 1486410739.65822 | pgbench_branches_pkey |          1327104
 2017-02-06 20:52:19.658222+01 | 1486410739.65822 | pgbench_tellers_pkey  |          4743168
 2017-02-06 20:52:19.658222+01 | 1486410739.65822 | pgbench_accounts_pkey |       2246197248

 2017-02-06 20:52:20.732522+01 | 1486410740.73252 | pgbench_branches_pkey |          1327104
 2017-02-06 20:52:20.732522+01 | 1486410740.73252 | pgbench_tellers_pkey  |          4743168
 2017-02-06 20:52:20.732522+01 | 1486410740.73252 | pgbench_accounts_pkey |       2246197248

 2017-02-06 20:52:21.828156+01 | 1486410741.82816 | pgbench_branches_pkey |          1327104
 2017-02-06 20:52:21.828156+01 | 1486410741.82816 | pgbench_tellers_pkey  |          4743168
 2017-02-06 20:52:21.828156+01 | 1486410741.82816 | pgbench_accounts_pkey |       2246197248

 2017-02-06 20:52:22.89851+01 | 1486410742.89851 | pgbench_branches_pkey |          1327104
 2017-02-06 20:52:22.89851+01 | 1486410742.89851 | pgbench_tellers_pkey  |          4743168
 2017-02-06 20:52:22.89851+01 | 1486410742.89851 | pgbench_accounts_pkey |       2246197248

 2017-02-06 20:52:23.984726+01 | 1486410743.98473 | pgbench_branches_pkey |          1327104
 2017-02-06 20:52:23.984726+01 | 1486410743.98473 | pgbench_tellers_pkey  |          4743168
 2017-02-06 20:52:23.984726+01 | 1486410743.98473 | pgbench_accounts_pkey |       2246197248

 2017-02-06 20:52:25.102006+01 | 1486410745.10201 | pgbench_branches_pkey |          1327104
 2017-02-06 20:52:25.102006+01 | 1486410745.10201 | pgbench_tellers_pkey  |          4743168
 2017-02-06 20:52:25.102006+01 | 1486410745.10201 | pgbench_accounts_pkey |       2246197248

 2017-02-06 20:52:26.180543+01 | 1486410746.18054 | pgbench_branches_pkey |          1327104
 2017-02-06 20:52:26.180543+01 | 1486410746.18054 | pgbench_tellers_pkey  |          4743168
 2017-02-06 20:52:26.180543+01 | 1486410746.18054 | pgbench_accounts_pkey |       2246197248

 2017-02-06 20:52:27.269668+01 | 1486410747.26967 | pgbench_branches_pkey |          1327104
 2017-02-06 20:52:27.269668+01 | 1486410747.26967 | pgbench_tellers_pkey  |          4743168
 2017-02-06 20:52:27.269668+01 | 1486410747.26967 | pgbench_accounts_pkey |       2246197248

 2017-02-06 20:52:28.354193+01 | 1486410748.35419 | pgbench_branches_pkey |          1327104
 2017-02-06 20:52:28.354193+01 | 1486410748.35419 | pgbench_tellers_pkey  |          4743168
 2017-02-06 20:52:28.354193+01 | 1486410748.35419 | pgbench_accounts_pkey |       2246197248

 2017-02-06 20:52:29.43499+01 | 1486410749.43499 | pgbench_branches_pkey |          1327104
 2017-02-06 20:52:29.43499+01 | 1486410749.43499 | pgbench_tellers_pkey  |          4743168
 2017-02-06 20:52:29.43499+01 | 1486410749.43499 | pgbench_accounts_pkey |       2246197248

 2017-02-06 20:52:30.50857+01 | 1486410750.50857 | pgbench_branches_pkey |          1327104
 2017-02-06 20:52:30.50857+01 | 1486410750.50857 | pgbench_tellers_pkey  |          4743168
 2017-02-06 20:52:30.50857+01 | 1486410750.50857 | pgbench_accounts_pkey |       2246197248

