 2017-02-04 17:38:02.9049+01 | 1486226282.9049 | 2/C8590A68               |           11951213160

 2017-02-04 17:38:03.991529+01 | 1486226283.99153 | 2/D1AD8F68               |           12107747176

 2017-02-04 17:38:05.076322+01 | 1486226285.07632 | 2/D7F8F9A0               |           12213352864

 2017-02-04 17:38:06.158075+01 | 1486226286.15808 | 2/DCCE3230               |           12294435376

 2017-02-04 17:38:07.240423+01 | 1486226287.24042 | 2/E0D60718               |           12362057496

 2017-02-04 17:38:08.317595+01 | 1486226288.3176 | 2/E43AE688               |           12418999944

 2017-02-04 17:38:09.396546+01 | 1486226289.39655 | 2/E75A4648               |           12471387720

 2017-02-04 17:38:10.478919+01 | 1486226290.47892 | 2/EA4294F0               |           12520166640

 2017-02-04 17:38:11.552589+01 | 1486226291.55259 | 2/ED0B6658               |           12566881880

 2017-02-04 17:38:12.628259+01 | 1486226292.62826 | 2/EF9C29A0               |           12609923488

 2017-02-04 17:38:13.70528+01 | 1486226293.70528 | 2/F21FA598               |           12652094872

 2017-02-04 17:38:14.78285+01 | 1486226294.78285 | 2/F4807F70               |           12691996528

 2017-02-04 17:38:15.856689+01 | 1486226295.85669 | 2/F6D59B00               |           12731128576

 2017-02-04 17:38:16.93997+01 | 1486226296.93997 | 2/F917A800               |           12769011712

 2017-02-04 17:38:18.014891+01 | 1486226298.01489 | 2/FB3A84D8               |           12804850904

 2017-02-04 17:38:19.094131+01 | 1486226299.09413 | 2/FD53C218               |           12840059416

 2017-02-04 17:38:20.175469+01 | 1486226300.17547 | 2/FF611858               |           12874487896

 2017-02-04 17:38:21.2505+01 | 1486226301.2505 | 3/1543E70                |           12907200112

 2017-02-04 17:38:22.331553+01 | 1486226302.33155 | 3/34B5C88                |           12940172424

 2017-02-04 17:38:23.411499+01 | 1486226303.4115 | 3/5236F70                |           12971110256

 2017-02-04 17:38:24.48646+01 | 1486226304.48646 | 3/6EDB9D0                |           13001144784

 2017-02-04 17:38:25.563111+01 | 1486226305.56311 | 3/8A2A710                |           13029779216

 2017-02-04 17:38:26.638731+01 | 1486226306.63873 | 3/A551FC8                |           13058252744

 2017-02-04 17:38:27.715888+01 | 1486226307.71589 | 3/BA7EBB0                |           13080456112

 2017-02-04 17:38:28.788673+01 | 1486226308.78867 | 3/CD6FED8                |           13100318424

 2017-02-04 17:38:29.862446+01 | 1486226309.86245 | 3/E240960                |           13122144608

 2017-02-04 17:38:30.93726+01 | 1486226310.93726 | 3/F812808                |           13145024520

 2017-02-04 17:38:32.012672+01 | 1486226312.01267 | 3/108E3938               |           13162658104

 2017-02-04 17:38:33.082635+01 | 1486226313.08263 | 3/118C7348               |           13179319112

 2017-02-04 17:38:34.162729+01 | 1486226314.16273 | 3/131A3AB8               |           13205387960

 2017-02-04 17:38:35.23588+01 | 1486226315.23588 | 3/14AA88C8               |           13231622344

 2017-02-04 17:38:36.314729+01 | 1486226316.31473 | 3/1648F898               |           13258782872

 2017-02-04 17:38:37.399257+01 | 1486226317.39926 | 3/17B33190               |           13282521488

 2017-02-04 17:38:38.48205+01 | 1486226318.48205 | 3/18869818               |           13296375832

 2017-02-04 17:38:39.565052+01 | 1486226319.56505 | 3/196589B0               |           13310986672

 2017-02-04 17:38:40.639907+01 | 1486226320.63991 | 3/1A96A4E0               |           13330982112

 2017-02-04 17:38:41.721103+01 | 1486226321.7211 | 3/1B3FFDF8               |           13342080504

 2017-02-04 17:38:42.799593+01 | 1486226322.79959 | 3/1BE1D9D0               |           13352688080

 2017-02-04 17:38:43.875751+01 | 1486226323.87575 | 3/1C8AE370               |           13363766128

 2017-02-04 17:38:44.949799+01 | 1486226324.9498 | 3/1D2F7ED8               |           13374553816

 2017-02-04 17:38:46.026432+01 | 1486226326.02643 | 3/1DDBC340               |           13385843520

 2017-02-04 17:38:47.101472+01 | 1486226327.10147 | 3/1E88E5D8               |           13397190104

 2017-02-04 17:38:48.176364+01 | 1486226328.17636 | 3/1F2EDE90               |           13408067216

 2017-02-04 17:38:49.246836+01 | 1486226329.24684 | 3/1FD88548               |           13419185480

 2017-02-04 17:38:50.325416+01 | 1486226330.32542 | 3/208361B0               |           13430383024

 2017-02-04 17:38:51.404304+01 | 1486226331.4043 | 3/21329CF8               |           13441867000

 2017-02-04 17:38:52.482718+01 | 1486226332.48272 | 3/21DF8470               |           13453198448

 2017-02-04 17:38:53.557247+01 | 1486226333.55725 | 3/22830120               |           13463912736

 2017-02-04 17:38:54.640976+01 | 1486226334.64098 | 3/232F4EC8               |           13475204808

 2017-02-04 17:38:55.707164+01 | 1486226335.70716 | 3/23DB5268               |           13486477928

 2017-02-04 17:38:56.786472+01 | 1486226336.78647 | 3/247A5C48               |           13496900680

 2017-02-04 17:38:57.863964+01 | 1486226337.86396 | 3/25250030               |           13508083760

 2017-02-04 17:38:58.951589+01 | 1486226338.95159 | 3/25CA7678               |           13518927480

 2017-02-04 17:39:00.040836+01 | 1486226340.04084 | 3/267785F8               |           13530269176

 2017-02-04 17:39:01.126499+01 | 1486226341.1265 | 3/27214FD0               |           13541396432

 2017-02-04 17:39:02.206962+01 | 1486226342.20696 | 3/27CC8790               |           13552617360

 2017-02-04 17:39:03.283825+01 | 1486226343.28382 | 3/2871CE80               |           13563448960

 2017-02-04 17:39:04.349089+01 | 1486226344.34909 | 3/292D2FB0               |           13575729072

 2017-02-04 17:39:05.417513+01 | 1486226345.41751 | 3/29D1A4A0               |           13586506912

 2017-02-04 17:39:06.495814+01 | 1486226346.49581 | 3/2A7CF790               |           13597734800

 2017-02-04 17:39:07.567892+01 | 1486226347.56789 | 3/2B22A1C0               |           13608591808

 2017-02-04 17:39:08.646065+01 | 1486226348.64606 | 3/2BC5CB48               |           13619284808

 2017-02-04 17:39:09.728167+01 | 1486226349.72817 | 3/2C683690               |           13629929104

 2017-02-04 17:39:10.801138+01 | 1486226350.80114 | 3/2D0C54B0               |           13640684720

 2017-02-04 17:39:11.87926+01 | 1486226351.87926 | 3/2DB4D388               |           13651727240

 2017-02-04 17:39:12.953872+01 | 1486226352.95387 | 3/2E564B78               |           13662309240

 2017-02-04 17:39:14.030496+01 | 1486226354.0305 | 3/2EF8AEC8               |           13672951496

 2017-02-04 17:39:15.108121+01 | 1486226355.10812 | 3/2F9E5040               |           13683806272

 2017-02-04 17:39:16.181616+01 | 1486226356.18162 | 3/304319B8               |           13694605752

 2017-02-04 17:39:17.265665+01 | 1486226357.26567 | 3/30E6F5B0               |           13705344432

 2017-02-04 17:39:18.35227+01 | 1486226358.35227 | 3/318D7720               |           13716256544

 2017-02-04 17:39:19.432572+01 | 1486226359.43257 | 3/3232EA58               |           13727099480

 2017-02-04 17:39:20.506098+01 | 1486226360.5061 | 3/32D38988               |           13737625992

 2017-02-04 17:39:21.587064+01 | 1486226361.58706 | 3/33756288               |           13748232840

 2017-02-04 17:39:22.669058+01 | 1486226362.66906 | 3/341B2590               |           13759096208

 2017-02-04 17:39:23.751789+01 | 1486226363.75179 | 3/34BD20D0               |           13769711824

 2017-02-04 17:39:24.832547+01 | 1486226364.83255 | 3/3567A948               |           13780887880

 2017-02-04 17:39:25.914183+01 | 1486226365.91418 | 3/360EB878               |           13791836280

 2017-02-04 17:39:27.000335+01 | 1486226367.00033 | 3/36ADE170               |           13802266992

 2017-02-04 17:39:28.077172+01 | 1486226368.07717 | 3/3751FEA0               |           13813022368

 2017-02-04 17:39:29.152631+01 | 1486226369.15263 | 3/37F4A290               |           13823681168

 2017-02-04 17:39:30.227933+01 | 1486226370.22793 | 3/389A5918               |           13834541336

 2017-02-04 17:39:31.303337+01 | 1486226371.30334 | 3/393BD810               |           13845125136

 2017-02-04 17:39:32.382039+01 | 1486226372.38204 | 3/39E184C8               |           13855982792

 2017-02-04 17:39:33.459272+01 | 1486226373.45927 | 3/3A7F0C60               |           13866306656

 2017-02-04 17:39:34.533637+01 | 1486226374.53364 | 3/3B1C89C8               |           13876627912

 2017-02-04 17:39:35.613061+01 | 1486226375.61306 | 3/3BBCACB0               |           13887122608

 2017-02-04 17:39:36.690278+01 | 1486226376.69028 | 3/3C5B4590               |           13897516432

 2017-02-04 17:39:37.770424+01 | 1486226377.77042 | 3/3CFC74D0               |           13908079824

 2017-02-04 17:39:38.844524+01 | 1486226378.84452 | 3/3D9A2838               |           13918414904

 2017-02-04 17:39:39.917797+01 | 1486226379.9178 | 3/3E36AC78               |           13928672376

 2017-02-04 17:39:41.008639+01 | 1486226381.00864 | 3/3ED69318               |           13939151640

 2017-02-04 17:39:42.083724+01 | 1486226382.08372 | 3/3F792760               |           13949806432

 2017-02-04 17:39:43.166529+01 | 1486226383.16653 | 3/40244BD0               |           13961022416

 2017-02-04 17:39:44.253063+01 | 1486226384.25306 | 3/40CF0C20               |           13972212768

 2017-02-04 17:39:45.330508+01 | 1486226385.33051 | 3/4173D068               |           13983010920

 2017-02-04 17:39:46.407267+01 | 1486226386.40727 | 3/4212BE30               |           13993426480

 2017-02-04 17:39:47.48442+01 | 1486226387.48442 | 3/42AF5470               |           14003688560

 2017-02-04 17:39:48.556388+01 | 1486226388.55639 | 3/434F1970               |           14014159216

 2017-02-04 17:39:49.637783+01 | 1486226389.63778 | 3/43ECEB60               |           14024502112

 2017-02-04 17:39:50.715582+01 | 1486226390.71558 | 3/448ECDC0               |           14035111360

 2017-02-04 17:39:51.79081+01 | 1486226391.79081 | 3/452B1300               |           14045352704

 2017-02-04 17:39:52.867972+01 | 1486226392.86797 | 3/45C6EFA8               |           14055567272

 2017-02-04 17:39:53.939819+01 | 1486226393.93982 | 3/466CB330               |           14066430768

 2017-02-04 17:39:55.019442+01 | 1486226395.01944 | 3/4708AA60               |           14076652128

 2017-02-04 17:39:56.099717+01 | 1486226396.09972 | 3/47AD5478               |           14087443576

 2017-02-04 17:39:57.18504+01 | 1486226397.18504 | 3/4844C9B0               |           14097369520

 2017-02-04 17:39:58.256596+01 | 1486226398.2566 | 3/48DCD0E0               |           14107332832

 2017-02-04 17:39:59.344361+01 | 1486226399.34436 | 3/497EBB20               |           14117944096

 2017-02-04 17:40:00.424756+01 | 1486226400.42476 | 3/4A195108               |           14128075016

 2017-02-04 17:40:01.503788+01 | 1486226401.50379 | 3/4AB50148               |           14138278216

 2017-02-04 17:40:02.585029+01 | 1486226402.58503 | 3/4B51E0E8               |           14148559080

 2017-02-04 17:40:03.664078+01 | 1486226403.66408 | 3/4BFAD9D0               |           14159632848

 2017-02-04 17:40:04.733277+01 | 1486226404.73328 | 3/4CA83F90               |           14170996624

 2017-02-04 17:40:05.812342+01 | 1486226405.81234 | 3/4D5AF4D0               |           14182708432

 2017-02-04 17:40:06.898703+01 | 1486226406.8987 | 3/4E144A78               |           14194854520

 2017-02-04 17:40:07.973959+01 | 1486226407.97396 | 3/4ECB2130               |           14206837040

 2017-02-04 17:40:09.05072+01 | 1486226409.05072 | 3/4F776500               |           14218126592

 2017-02-04 17:40:10.134815+01 | 1486226410.13481 | 3/50128728               |           14228293416

 2017-02-04 17:40:11.212271+01 | 1486226411.21227 | 3/50B0B840               |           14238660672

 2017-02-04 17:40:12.299687+01 | 1486226412.29969 | 3/5158BD60               |           14249672032

 2017-02-04 17:40:13.371416+01 | 1486226413.37142 | 3/51FBD1B8               |           14260359608

 2017-02-04 17:40:14.443871+01 | 1486226414.44387 | 3/52B713D0               |           14272631760

 2017-02-04 17:40:15.514641+01 | 1486226415.51464 | 3/5371ADB8               |           14284860856

 2017-02-04 17:40:16.593588+01 | 1486226416.59359 | 3/541C21C0               |           14296031680

 2017-02-04 17:40:17.664225+01 | 1486226417.66423 | 3/54C414A0               |           14307038368

 2017-02-04 17:40:18.736339+01 | 1486226418.73634 | 3/555DB300               |           14317105920

 2017-02-04 17:40:19.814627+01 | 1486226419.81463 | 3/55FB5378               |           14327436152

 2017-02-04 17:40:20.888003+01 | 1486226420.888 | 3/56972A50               |           14337649232

 2017-02-04 17:40:21.9759+01 | 1486226421.9759 | 3/573208B0               |           14347798704

 2017-02-04 17:40:23.050765+01 | 1486226423.05077 | 3/57C9A3B8               |           14357734328

 2017-02-04 17:40:24.12613+01 | 1486226424.12613 | 3/58675160               |           14368067936

 2017-02-04 17:40:25.196452+01 | 1486226425.19645 | 3/5904E880               |           14378395776

 2017-02-04 17:40:26.274139+01 | 1486226426.27414 | 3/59A1E680               |           14388684416

 2017-02-04 17:40:27.362515+01 | 1486226427.36251 | 3/5A3B01B0               |           14398718384

 2017-02-04 17:40:28.451891+01 | 1486226428.45189 | 3/5AD2ECD0               |           14408674512

 2017-02-04 17:40:29.525224+01 | 1486226429.52522 | 3/5B685E70               |           14418468464

 2017-02-04 17:40:30.599218+01 | 1486226430.59922 | 3/5C08EF48               |           14428991304

 2017-02-04 17:40:31.675167+01 | 1486226431.67517 | 3/5CA3FF60               |           14439153504

 2017-02-04 17:40:32.761187+01 | 1486226432.76119 | 3/5D3CF4A8               |           14449177768

 2017-02-04 17:40:33.843416+01 | 1486226433.84342 | 3/5DD7FC40               |           14459337792

 2017-02-04 17:40:34.919764+01 | 1486226434.91976 | 3/5E71CBE0               |           14469417952

 2017-02-04 17:40:36.015306+01 | 1486226436.01531 | 3/5F0C5498               |           14479545496

 2017-02-04 17:40:37.095334+01 | 1486226437.09533 | 3/5FA93FE8               |           14489829352

 2017-02-04 17:40:38.167688+01 | 1486226438.16769 | 3/603F5318               |           14499664664

 2017-02-04 17:40:39.253069+01 | 1486226439.25307 | 3/60D65058               |           14509559896

 2017-02-04 17:40:40.327226+01 | 1486226440.32723 | 3/6173A610               |           14519870992

 2017-02-04 17:40:41.404283+01 | 1486226441.40428 | 3/620E69D0               |           14530013648

 2017-02-04 17:40:42.480094+01 | 1486226442.48009 | 3/62A9D020               |           14540197920

 2017-02-04 17:40:43.553364+01 | 1486226443.55336 | 3/634CE700               |           14550886144

 2017-02-04 17:40:44.627654+01 | 1486226444.62765 | 3/63EB4910               |           14561265936

 2017-02-04 17:40:45.701903+01 | 1486226445.7019 | 3/647E4B20               |           14570900256

 2017-02-04 17:40:46.77935+01 | 1486226446.77935 | 3/651F4FA8               |           14581452712

 2017-02-04 17:40:47.856103+01 | 1486226447.8561 | 3/65BDC1B8               |           14591836600

 2017-02-04 17:40:48.933265+01 | 1486226448.93326 | 3/6653B5E0               |           14601663968

 2017-02-04 17:40:50.008243+01 | 1486226450.00824 | 3/66E99638               |           14611486264

 2017-02-04 17:40:51.091711+01 | 1486226451.09171 | 3/6783C6A0               |           14621591200

 2017-02-04 17:40:52.167917+01 | 1486226452.16792 | 3/681A1A70               |           14631443056

 2017-02-04 17:40:53.25032+01 | 1486226453.25032 | 3/68B5A8D0               |           14641637584

 2017-02-04 17:40:54.328811+01 | 1486226454.32881 | 3/69523828               |           14651897896

 2017-02-04 17:40:55.407017+01 | 1486226455.40702 | 3/69E88CE0               |           14661749984

 2017-02-04 17:40:56.481589+01 | 1486226456.48159 | 3/6A83ADE0               |           14671916512

 2017-02-04 17:40:57.554711+01 | 1486226457.55471 | 3/6B198E48               |           14681738824

 2017-02-04 17:40:58.632535+01 | 1486226458.63253 | 3/6BABA658               |           14691314448

 2017-02-04 17:40:59.706146+01 | 1486226459.70615 | 3/6C4A64B8               |           14701716664

 2017-02-04 17:41:00.790307+01 | 1486226460.79031 | 3/6CE9F6B0               |           14712174256

 2017-02-04 17:41:01.868704+01 | 1486226461.8687 | 3/6D86C4B0               |           14722450608

 2017-02-04 17:41:02.951625+01 | 1486226462.95163 | 3/6E228528               |           14732657960

 2017-02-04 17:41:04.027355+01 | 1486226464.02735 | 3/6EC55D68               |           14743330152

 2017-02-04 17:41:05.104096+01 | 1486226465.1041 | 3/6F722990               |           14754654608

 2017-02-04 17:41:06.183459+01 | 1486226466.18346 | 3/70249100               |           14766346496

 2017-02-04 17:41:07.262985+01 | 1486226467.26298 | 3/70D449C8               |           14777862600

 2017-02-04 17:41:08.344838+01 | 1486226468.34484 | 3/7175BC70               |           14788443248

 2017-02-04 17:41:09.427557+01 | 1486226469.42756 | 3/72123730               |           14798698288

 2017-02-04 17:41:10.503787+01 | 1486226470.50379 | 3/72A92C28               |           14808591400

 2017-02-04 17:41:11.585307+01 | 1486226471.58531 | 3/73411988               |           14818548104

 2017-02-04 17:41:12.66801+01 | 1486226472.66801 | 3/73E7DB58               |           14829476696

 2017-02-04 17:41:13.753338+01 | 1486226473.75334 | 3/749FA248               |           14841520712

 2017-02-04 17:41:14.841867+01 | 1486226474.84187 | 3/75489120               |           14852591904

 2017-02-04 17:41:15.907701+01 | 1486226475.9077 | 3/75F502D0               |           14863893200

 2017-02-04 17:41:16.996321+01 | 1486226476.99632 | 3/76924CC8               |           14874201288

 2017-02-04 17:41:18.07191+01 | 1486226478.07191 | 3/77277310               |           14883975952

 2017-02-04 17:41:19.160151+01 | 1486226479.16015 | 3/77BECBB0               |           14893894576

 2017-02-04 17:41:20.235032+01 | 1486226480.23503 | 3/785C4340               |           14904214336

 2017-02-04 17:41:21.324133+01 | 1486226481.32413 | 3/78FE25A0               |           14914823584

 2017-02-04 17:41:22.40135+01 | 1486226482.40135 | 3/799899B0               |           14924945840

 2017-02-04 17:41:23.481377+01 | 1486226483.48138 | 3/7A385150               |           14935413072

 2017-02-04 17:41:24.55629+01 | 1486226484.55629 | 3/7AD1E740               |           14945478464

 2017-02-04 17:41:25.63704+01 | 1486226485.63704 | 3/7B680740               |           14955317056

 2017-02-04 17:41:26.711043+01 | 1486226486.71104 | 3/7C0B2990               |           14966008208

 2017-02-04 17:41:27.796263+01 | 1486226487.79626 | 3/7CA90F48               |           14976356168

 2017-02-04 17:41:28.871954+01 | 1486226488.87195 | 3/7D481808               |           14986778632

 2017-02-04 17:41:29.947305+01 | 1486226489.9473 | 3/7DE6D4D8               |           14997181656

 2017-02-04 17:41:31.021315+01 | 1486226491.02132 | 3/7E82BEF0               |           15007399664

 2017-02-04 17:41:32.094305+01 | 1486226492.09431 | 3/7F26E648               |           15018157640

 2017-02-04 17:41:33.173606+01 | 1486226493.17361 | 3/7FC3DFE8               |           15028445160

 2017-02-04 17:41:34.248727+01 | 1486226494.24873 | 3/80653360               |           15039017824

 2017-02-04 17:41:35.322467+01 | 1486226495.32247 | 3/80FE0B08               |           15049034504

 2017-02-04 17:41:36.403531+01 | 1486226496.40353 | 3/819A53C8               |           15059276744

 2017-02-04 17:41:37.487946+01 | 1486226497.48795 | 3/8235F050               |           15069474896

 2017-02-04 17:41:38.579316+01 | 1486226498.57932 | 3/82D3D8A0               |           15079823520

 2017-02-04 17:41:39.654756+01 | 1486226499.65476 | 3/836FF5B8               |           15090054584

 2017-02-04 17:41:40.738895+01 | 1486226500.73889 | 3/840B2C88               |           15100226696

 2017-02-04 17:41:41.814766+01 | 1486226501.81477 | 3/84A8A028               |           15110545448

 2017-02-04 17:41:42.899815+01 | 1486226502.89982 | 3/854CA160               |           15121293664

 2017-02-04 17:41:43.98454+01 | 1486226503.98454 | 3/85E24080               |           15131099264

 2017-02-04 17:41:45.071968+01 | 1486226505.07197 | 3/867D0318               |           15141241624

 2017-02-04 17:41:46.153965+01 | 1486226506.15396 | 3/87191B28               |           15151471400

 2017-02-04 17:41:47.228342+01 | 1486226507.22834 | 3/87B48780               |           15161657216

 2017-02-04 17:41:48.310468+01 | 1486226508.31047 | 3/88551D88               |           15172181384

 2017-02-04 17:41:49.384481+01 | 1486226509.38448 | 3/88F1D170               |           15182451056

 2017-02-04 17:41:50.46506+01 | 1486226510.46506 | 3/89911060               |           15192887392

 2017-02-04 17:41:51.539645+01 | 1486226511.53964 | 3/8A2C3678               |           15203055224

 2017-02-04 17:41:52.621296+01 | 1486226512.6213 | 3/8AC68DC8               |           15213170120

 2017-02-04 17:41:53.703774+01 | 1486226513.70377 | 3/8B6095E8               |           15223264744

 2017-02-04 17:41:54.781659+01 | 1486226514.78166 | 3/8BFAC0A8               |           15233368232

 2017-02-04 17:41:55.860509+01 | 1486226515.86051 | 3/8C97CF68               |           15243661160

 2017-02-04 17:41:56.938266+01 | 1486226516.93827 | 3/8D325618               |           15253788184

 2017-02-04 17:41:58.021778+01 | 1486226518.02178 | 3/8DD4DC38               |           15264439352

 2017-02-04 17:41:59.102489+01 | 1486226519.10249 | 3/8E718D38               |           15274708280

 2017-02-04 17:42:00.179909+01 | 1486226520.17991 | 3/8F0CDA60               |           15284886112

 2017-02-04 17:42:01.257915+01 | 1486226521.25792 | 3/8FADB2A8               |           15295427240

 2017-02-04 17:42:02.333227+01 | 1486226522.33323 | 3/9048DAA8               |           15305595560

 2017-02-04 17:42:03.409784+01 | 1486226523.40978 | 3/90E85A08               |           15316048392

 2017-02-04 17:42:04.471323+01 | 1486226524.47132 | 3/91979C18               |           15327534104

 2017-02-04 17:42:05.552052+01 | 1486226525.55205 | 3/924957B0               |           15339182000

 2017-02-04 17:42:06.632835+01 | 1486226526.63283 | 3/92FD9948               |           15350995272

 2017-02-04 17:42:07.715397+01 | 1486226527.7154 | 3/93AFD888               |           15362676872

 2017-02-04 17:42:08.795535+01 | 1486226528.79554 | 3/9454B5C8               |           15373481416

 2017-02-04 17:42:09.867087+01 | 1486226529.86709 | 3/94F5C7B8               |           15384037304

 2017-02-04 17:42:10.943576+01 | 1486226530.94358 | 3/959C2E30               |           15394942512

 2017-02-04 17:42:12.014622+01 | 1486226532.01462 | 3/963C8C08               |           15405452296

 2017-02-04 17:42:13.083938+01 | 1486226533.08394 | 3/96EB5E00               |           15416909312

 2017-02-04 17:42:14.159743+01 | 1486226534.15974 | 3/979AE078               |           15428411512

 2017-02-04 17:42:15.24527+01 | 1486226535.24527 | 3/98428A48               |           15439399496

 2017-02-04 17:42:16.31745+01 | 1486226536.31745 | 3/98E7FC80               |           15450242176

 2017-02-04 17:42:17.396884+01 | 1486226537.39688 | 3/998046E0               |           15460222688

 2017-02-04 17:42:18.475827+01 | 1486226538.47583 | 3/9A19B030               |           15470276656

 2017-02-04 17:42:19.562764+01 | 1486226539.56276 | 3/9AB555A0               |           15480477088

 2017-02-04 17:42:20.630897+01 | 1486226540.6309 | 3/9B54E6F8               |           15490934520

 2017-02-04 17:42:21.710819+01 | 1486226541.71082 | 3/9BF47E38               |           15501393464

 2017-02-04 17:42:22.791157+01 | 1486226542.79116 | 3/9C8DEF50               |           15511449424

 2017-02-04 17:42:23.877514+01 | 1486226543.87751 | 3/9D270EB8               |           15521484472

 2017-02-04 17:42:24.95692+01 | 1486226544.95692 | 3/9DBC0390               |           15531246480

 2017-02-04 17:42:26.032327+01 | 1486226546.03233 | 3/9E58A9D0               |           15541512656

 2017-02-04 17:42:27.111643+01 | 1486226547.11164 | 3/9EFBD6F0               |           15552206576

 2017-02-04 17:42:28.191548+01 | 1486226548.19155 | 3/9F969C48               |           15562349640

 2017-02-04 17:42:29.271571+01 | 1486226549.27157 | 3/A0365500               |           15572817152

 2017-02-04 17:42:30.349749+01 | 1486226550.34975 | 3/A0D422D8               |           15583159000

 2017-02-04 17:42:31.426037+01 | 1486226551.42604 | 3/A1710C20               |           15593442336

 2017-02-04 17:42:32.500216+01 | 1486226552.50022 | 3/A20E75C0               |           15603758528

 2017-02-04 17:42:33.582702+01 | 1486226553.5827 | 3/A2ACD6E0               |           15614138080

 2017-02-04 17:42:34.658669+01 | 1486226554.65867 | 3/A340A7F8               |           15623825400

 2017-02-04 17:42:35.734167+01 | 1486226555.73417 | 3/A3D8F708               |           15633807112

 2017-02-04 17:42:36.811119+01 | 1486226556.81112 | 3/A471EA28               |           15643830824

 2017-02-04 17:42:37.89065+01 | 1486226557.89065 | 3/A50B9B98               |           15653903256

 2017-02-04 17:42:38.974748+01 | 1486226558.97475 | 3/A5A5D2B0               |           15664009904

 2017-02-04 17:42:40.054474+01 | 1486226560.05447 | 3/A63E0480               |           15673984128

 2017-02-04 17:42:41.134168+01 | 1486226561.13417 | 3/A6D9C708               |           15684192008

 2017-02-04 17:42:42.217439+01 | 1486226562.21744 | 3/A774DE80               |           15694356096

 2017-02-04 17:42:43.294062+01 | 1486226563.29406 | 3/A80FF8C8               |           15704520904

 2017-02-04 17:42:44.38289+01 | 1486226564.38289 | 3/A8AD0760               |           15714813792

 2017-02-04 17:42:45.458717+01 | 1486226565.45872 | 3/A940BB10               |           15724493584

 2017-02-04 17:42:46.533713+01 | 1486226566.53371 | 3/A9DDE990               |           15734794640

 2017-02-04 17:42:47.614463+01 | 1486226567.61446 | 3/AA7A7BD8               |           15745055704

 2017-02-04 17:42:48.693278+01 | 1486226568.69328 | 3/AB13E668               |           15755109992

 2017-02-04 17:42:49.778747+01 | 1486226569.77875 | 3/ABB220A0               |           15765479584

 2017-02-04 17:42:50.860282+01 | 1486226570.86028 | 3/AC4E4D48               |           15775714632

 2017-02-04 17:42:51.934653+01 | 1486226571.93465 | 3/ACE98E00               |           15785889280

 2017-02-04 17:42:53.014058+01 | 1486226573.01406 | 3/AD858628               |           15796110888

 2017-02-04 17:42:54.08923+01 | 1486226574.08923 | 3/AE229B70               |           15806405488

 2017-02-04 17:42:55.163706+01 | 1486226575.16371 | 3/AEBD4340               |           15816540992

 2017-02-04 17:42:56.239856+01 | 1486226576.23986 | 3/AF539940               |           15826393408

 2017-02-04 17:42:57.314146+01 | 1486226577.31415 | 3/AFEC73F0               |           15836410864

 2017-02-04 17:42:58.394877+01 | 1486226578.39488 | 3/B084BCA8               |           15846390952

 2017-02-04 17:42:59.471989+01 | 1486226579.47199 | 3/B121D308               |           15856685832

 2017-02-04 17:43:00.556398+01 | 1486226580.5564 | 3/B1BE9CF8               |           15866961144

 2017-02-04 17:43:01.632123+01 | 1486226581.63212 | 3/B2568DE8               |           15876918760

 2017-02-04 17:43:02.704454+01 | 1486226582.70445 | 3/B2F3FE00               |           15887236608

