 2017-02-04 17:06:19.846427+01 | 1486224379.84643 | pgbench_branches_pkey |          1294336
 2017-02-04 17:06:19.846427+01 | 1486224379.84643 | pgbench_tellers_pkey  |          4841472
 2017-02-04 17:06:19.846427+01 | 1486224379.84643 | pgbench_accounts_pkey |       2246197248

 2017-02-04 17:06:20.927661+01 | 1486224380.92766 | pgbench_branches_pkey |          1294336
 2017-02-04 17:06:20.927661+01 | 1486224380.92766 | pgbench_tellers_pkey  |          4841472
 2017-02-04 17:06:20.927661+01 | 1486224380.92766 | pgbench_accounts_pkey |       2246197248

 2017-02-04 17:06:22.01051+01 | 1486224382.01051 | pgbench_branches_pkey |          1294336
 2017-02-04 17:06:22.01051+01 | 1486224382.01051 | pgbench_tellers_pkey  |          4841472
 2017-02-04 17:06:22.01051+01 | 1486224382.01051 | pgbench_accounts_pkey |       2246197248

 2017-02-04 17:06:23.0942+01 | 1486224383.0942 | pgbench_branches_pkey |          1294336
 2017-02-04 17:06:23.0942+01 | 1486224383.0942 | pgbench_tellers_pkey  |          4841472
 2017-02-04 17:06:23.0942+01 | 1486224383.0942 | pgbench_accounts_pkey |       2246197248

 2017-02-04 17:06:24.180189+01 | 1486224384.18019 | pgbench_branches_pkey |          1294336
 2017-02-04 17:06:24.180189+01 | 1486224384.18019 | pgbench_tellers_pkey  |          4841472
 2017-02-04 17:06:24.180189+01 | 1486224384.18019 | pgbench_accounts_pkey |       2246197248

 2017-02-04 17:06:25.254817+01 | 1486224385.25482 | pgbench_branches_pkey |          1294336
 2017-02-04 17:06:25.254817+01 | 1486224385.25482 | pgbench_tellers_pkey  |          4841472
 2017-02-04 17:06:25.254817+01 | 1486224385.25482 | pgbench_accounts_pkey |       2246197248

 2017-02-04 17:06:26.327681+01 | 1486224386.32768 | pgbench_branches_pkey |          1294336
 2017-02-04 17:06:26.327681+01 | 1486224386.32768 | pgbench_tellers_pkey  |          4841472
 2017-02-04 17:06:26.327681+01 | 1486224386.32768 | pgbench_accounts_pkey |       2246197248

 2017-02-04 17:06:27.412457+01 | 1486224387.41246 | pgbench_branches_pkey |          1294336
 2017-02-04 17:06:27.412457+01 | 1486224387.41246 | pgbench_tellers_pkey  |          4841472
 2017-02-04 17:06:27.412457+01 | 1486224387.41246 | pgbench_accounts_pkey |       2246197248

 2017-02-04 17:06:28.490638+01 | 1486224388.49064 | pgbench_branches_pkey |          1294336
 2017-02-04 17:06:28.490638+01 | 1486224388.49064 | pgbench_tellers_pkey  |          4841472
 2017-02-04 17:06:28.490638+01 | 1486224388.49064 | pgbench_accounts_pkey |       2246197248

 2017-02-04 17:06:29.573385+01 | 1486224389.57339 | pgbench_branches_pkey |          1294336
 2017-02-04 17:06:29.573385+01 | 1486224389.57339 | pgbench_tellers_pkey  |          4841472
 2017-02-04 17:06:29.573385+01 | 1486224389.57339 | pgbench_accounts_pkey |       2246197248

 2017-02-04 17:06:30.656223+01 | 1486224390.65622 | pgbench_branches_pkey |          1294336
 2017-02-04 17:06:30.656223+01 | 1486224390.65622 | pgbench_tellers_pkey  |          4841472
 2017-02-04 17:06:30.656223+01 | 1486224390.65622 | pgbench_accounts_pkey |       2246197248

 2017-02-04 17:06:31.736176+01 | 1486224391.73618 | pgbench_branches_pkey |          1294336
 2017-02-04 17:06:31.736176+01 | 1486224391.73618 | pgbench_tellers_pkey  |          4841472
 2017-02-04 17:06:31.736176+01 | 1486224391.73618 | pgbench_accounts_pkey |       2246197248

 2017-02-04 17:06:32.816766+01 | 1486224392.81677 | pgbench_branches_pkey |          1294336
 2017-02-04 17:06:32.816766+01 | 1486224392.81677 | pgbench_tellers_pkey  |          4841472
 2017-02-04 17:06:32.816766+01 | 1486224392.81677 | pgbench_accounts_pkey |       2246197248

 2017-02-04 17:06:33.897874+01 | 1486224393.89787 | pgbench_branches_pkey |          1294336
 2017-02-04 17:06:33.897874+01 | 1486224393.89787 | pgbench_tellers_pkey  |          4841472
 2017-02-04 17:06:33.897874+01 | 1486224393.89787 | pgbench_accounts_pkey |       2246197248

 2017-02-04 17:06:34.977553+01 | 1486224394.97755 | pgbench_branches_pkey |          1294336
 2017-02-04 17:06:34.977553+01 | 1486224394.97755 | pgbench_tellers_pkey  |          4841472
 2017-02-04 17:06:34.977553+01 | 1486224394.97755 | pgbench_accounts_pkey |       2246197248

 2017-02-04 17:06:36.055241+01 | 1486224396.05524 | pgbench_branches_pkey |          1294336
 2017-02-04 17:06:36.055241+01 | 1486224396.05524 | pgbench_tellers_pkey  |          4841472
 2017-02-04 17:06:36.055241+01 | 1486224396.05524 | pgbench_accounts_pkey |       2246197248

 2017-02-04 17:06:37.138284+01 | 1486224397.13828 | pgbench_branches_pkey |          1294336
 2017-02-04 17:06:37.138284+01 | 1486224397.13828 | pgbench_tellers_pkey  |          4841472
 2017-02-04 17:06:37.138284+01 | 1486224397.13828 | pgbench_accounts_pkey |       2246197248

 2017-02-04 17:06:38.214781+01 | 1486224398.21478 | pgbench_branches_pkey |          1294336
 2017-02-04 17:06:38.214781+01 | 1486224398.21478 | pgbench_tellers_pkey  |          4841472
 2017-02-04 17:06:38.214781+01 | 1486224398.21478 | pgbench_accounts_pkey |       2246197248

 2017-02-04 17:06:39.291799+01 | 1486224399.2918 | pgbench_branches_pkey |          1294336
 2017-02-04 17:06:39.291799+01 | 1486224399.2918 | pgbench_tellers_pkey  |          4841472
 2017-02-04 17:06:39.291799+01 | 1486224399.2918 | pgbench_accounts_pkey |       2246197248

 2017-02-04 17:06:40.36797+01 | 1486224400.36797 | pgbench_branches_pkey |          1294336
 2017-02-04 17:06:40.36797+01 | 1486224400.36797 | pgbench_tellers_pkey  |          4841472
 2017-02-04 17:06:40.36797+01 | 1486224400.36797 | pgbench_accounts_pkey |       2246197248

 2017-02-04 17:06:41.446391+01 | 1486224401.44639 | pgbench_branches_pkey |          1294336
 2017-02-04 17:06:41.446391+01 | 1486224401.44639 | pgbench_tellers_pkey  |          4841472
 2017-02-04 17:06:41.446391+01 | 1486224401.44639 | pgbench_accounts_pkey |       2246197248

 2017-02-04 17:06:42.527059+01 | 1486224402.52706 | pgbench_branches_pkey |          1294336
 2017-02-04 17:06:42.527059+01 | 1486224402.52706 | pgbench_tellers_pkey  |          4841472
 2017-02-04 17:06:42.527059+01 | 1486224402.52706 | pgbench_accounts_pkey |       2246197248

 2017-02-04 17:06:43.605688+01 | 1486224403.60569 | pgbench_branches_pkey |          1294336
 2017-02-04 17:06:43.605688+01 | 1486224403.60569 | pgbench_tellers_pkey  |          4841472
 2017-02-04 17:06:43.605688+01 | 1486224403.60569 | pgbench_accounts_pkey |       2246197248

 2017-02-04 17:06:44.683485+01 | 1486224404.68349 | pgbench_branches_pkey |          1294336
 2017-02-04 17:06:44.683485+01 | 1486224404.68349 | pgbench_tellers_pkey  |          4841472
 2017-02-04 17:06:44.683485+01 | 1486224404.68349 | pgbench_accounts_pkey |       2246197248

 2017-02-04 17:06:45.769049+01 | 1486224405.76905 | pgbench_branches_pkey |          1294336
 2017-02-04 17:06:45.769049+01 | 1486224405.76905 | pgbench_tellers_pkey  |          4841472
 2017-02-04 17:06:45.769049+01 | 1486224405.76905 | pgbench_accounts_pkey |       2246197248

 2017-02-04 17:06:46.847195+01 | 1486224406.84719 | pgbench_branches_pkey |          1294336
 2017-02-04 17:06:46.847195+01 | 1486224406.84719 | pgbench_tellers_pkey  |          4841472
 2017-02-04 17:06:46.847195+01 | 1486224406.84719 | pgbench_accounts_pkey |       2246197248

 2017-02-04 17:06:47.922736+01 | 1486224407.92274 | pgbench_branches_pkey |          1294336
 2017-02-04 17:06:47.922736+01 | 1486224407.92274 | pgbench_tellers_pkey  |          4841472
 2017-02-04 17:06:47.922736+01 | 1486224407.92274 | pgbench_accounts_pkey |       2246197248

 2017-02-04 17:06:48.999853+01 | 1486224408.99985 | pgbench_branches_pkey |          1294336
 2017-02-04 17:06:48.999853+01 | 1486224408.99985 | pgbench_tellers_pkey  |          4841472
 2017-02-04 17:06:48.999853+01 | 1486224408.99985 | pgbench_accounts_pkey |       2246197248

 2017-02-04 17:06:50.071871+01 | 1486224410.07187 | pgbench_branches_pkey |          1294336
 2017-02-04 17:06:50.071871+01 | 1486224410.07187 | pgbench_tellers_pkey  |          4841472
 2017-02-04 17:06:50.071871+01 | 1486224410.07187 | pgbench_accounts_pkey |       2246197248

 2017-02-04 17:06:51.14813+01 | 1486224411.14813 | pgbench_branches_pkey |          1294336
 2017-02-04 17:06:51.14813+01 | 1486224411.14813 | pgbench_tellers_pkey  |          4841472
 2017-02-04 17:06:51.14813+01 | 1486224411.14813 | pgbench_accounts_pkey |       2246197248

 2017-02-04 17:06:52.229315+01 | 1486224412.22932 | pgbench_branches_pkey |          1294336
 2017-02-04 17:06:52.229315+01 | 1486224412.22932 | pgbench_tellers_pkey  |          4841472
 2017-02-04 17:06:52.229315+01 | 1486224412.22932 | pgbench_accounts_pkey |       2246197248

 2017-02-04 17:06:53.305589+01 | 1486224413.30559 | pgbench_branches_pkey |          1294336
 2017-02-04 17:06:53.305589+01 | 1486224413.30559 | pgbench_tellers_pkey  |          4841472
 2017-02-04 17:06:53.305589+01 | 1486224413.30559 | pgbench_accounts_pkey |       2246197248

 2017-02-04 17:06:54.385287+01 | 1486224414.38529 | pgbench_branches_pkey |          1294336
 2017-02-04 17:06:54.385287+01 | 1486224414.38529 | pgbench_tellers_pkey  |          4841472
 2017-02-04 17:06:54.385287+01 | 1486224414.38529 | pgbench_accounts_pkey |       2246197248

 2017-02-04 17:06:55.464839+01 | 1486224415.46484 | pgbench_branches_pkey |          1294336
 2017-02-04 17:06:55.464839+01 | 1486224415.46484 | pgbench_tellers_pkey  |          4841472
 2017-02-04 17:06:55.464839+01 | 1486224415.46484 | pgbench_accounts_pkey |       2246197248

 2017-02-04 17:06:56.548775+01 | 1486224416.54877 | pgbench_branches_pkey |          1294336
 2017-02-04 17:06:56.548775+01 | 1486224416.54877 | pgbench_tellers_pkey  |          4841472
 2017-02-04 17:06:56.548775+01 | 1486224416.54877 | pgbench_accounts_pkey |       2246197248

 2017-02-04 17:06:57.623899+01 | 1486224417.6239 | pgbench_branches_pkey |          1294336
 2017-02-04 17:06:57.623899+01 | 1486224417.6239 | pgbench_tellers_pkey  |          4841472
 2017-02-04 17:06:57.623899+01 | 1486224417.6239 | pgbench_accounts_pkey |       2246197248

 2017-02-04 17:06:58.696708+01 | 1486224418.69671 | pgbench_branches_pkey |          1294336
 2017-02-04 17:06:58.696708+01 | 1486224418.69671 | pgbench_tellers_pkey  |          4841472
 2017-02-04 17:06:58.696708+01 | 1486224418.69671 | pgbench_accounts_pkey |       2246197248

 2017-02-04 17:06:59.768379+01 | 1486224419.76838 | pgbench_branches_pkey |          1294336
 2017-02-04 17:06:59.768379+01 | 1486224419.76838 | pgbench_tellers_pkey  |          4841472
 2017-02-04 17:06:59.768379+01 | 1486224419.76838 | pgbench_accounts_pkey |       2246197248

 2017-02-04 17:07:00.857472+01 | 1486224420.85747 | pgbench_branches_pkey |          1294336
 2017-02-04 17:07:00.857472+01 | 1486224420.85747 | pgbench_tellers_pkey  |          4841472
 2017-02-04 17:07:00.857472+01 | 1486224420.85747 | pgbench_accounts_pkey |       2246197248

 2017-02-04 17:07:01.941453+01 | 1486224421.94145 | pgbench_branches_pkey |          1294336
 2017-02-04 17:07:01.941453+01 | 1486224421.94145 | pgbench_tellers_pkey  |          4841472
 2017-02-04 17:07:01.941453+01 | 1486224421.94145 | pgbench_accounts_pkey |       2246197248

 2017-02-04 17:07:03.02495+01 | 1486224423.02495 | pgbench_branches_pkey |          1294336
 2017-02-04 17:07:03.02495+01 | 1486224423.02495 | pgbench_tellers_pkey  |          4841472
 2017-02-04 17:07:03.02495+01 | 1486224423.02495 | pgbench_accounts_pkey |       2246197248

 2017-02-04 17:07:04.105467+01 | 1486224424.10547 | pgbench_branches_pkey |          1294336
 2017-02-04 17:07:04.105467+01 | 1486224424.10547 | pgbench_tellers_pkey  |          4841472
 2017-02-04 17:07:04.105467+01 | 1486224424.10547 | pgbench_accounts_pkey |       2246197248

 2017-02-04 17:07:05.190439+01 | 1486224425.19044 | pgbench_branches_pkey |          1294336
 2017-02-04 17:07:05.190439+01 | 1486224425.19044 | pgbench_tellers_pkey  |          4841472
 2017-02-04 17:07:05.190439+01 | 1486224425.19044 | pgbench_accounts_pkey |       2246197248

 2017-02-04 17:07:06.272768+01 | 1486224426.27277 | pgbench_branches_pkey |          1294336
 2017-02-04 17:07:06.272768+01 | 1486224426.27277 | pgbench_tellers_pkey  |          4841472
 2017-02-04 17:07:06.272768+01 | 1486224426.27277 | pgbench_accounts_pkey |       2246197248

 2017-02-04 17:07:07.349538+01 | 1486224427.34954 | pgbench_branches_pkey |          1294336
 2017-02-04 17:07:07.349538+01 | 1486224427.34954 | pgbench_tellers_pkey  |          4841472
 2017-02-04 17:07:07.349538+01 | 1486224427.34954 | pgbench_accounts_pkey |       2246197248

 2017-02-04 17:07:08.42967+01 | 1486224428.42967 | pgbench_branches_pkey |          1294336
 2017-02-04 17:07:08.42967+01 | 1486224428.42967 | pgbench_tellers_pkey  |          4841472
 2017-02-04 17:07:08.42967+01 | 1486224428.42967 | pgbench_accounts_pkey |       2246197248

 2017-02-04 17:07:09.509324+01 | 1486224429.50932 | pgbench_branches_pkey |          1294336
 2017-02-04 17:07:09.509324+01 | 1486224429.50932 | pgbench_tellers_pkey  |          4841472
 2017-02-04 17:07:09.509324+01 | 1486224429.50932 | pgbench_accounts_pkey |       2246197248

 2017-02-04 17:07:10.594252+01 | 1486224430.59425 | pgbench_branches_pkey |          1294336
 2017-02-04 17:07:10.594252+01 | 1486224430.59425 | pgbench_tellers_pkey  |          4841472
 2017-02-04 17:07:10.594252+01 | 1486224430.59425 | pgbench_accounts_pkey |       2246197248

 2017-02-04 17:07:11.672688+01 | 1486224431.67269 | pgbench_branches_pkey |          1294336
 2017-02-04 17:07:11.672688+01 | 1486224431.67269 | pgbench_tellers_pkey  |          4841472
 2017-02-04 17:07:11.672688+01 | 1486224431.67269 | pgbench_accounts_pkey |       2246197248

 2017-02-04 17:07:12.754328+01 | 1486224432.75433 | pgbench_branches_pkey |          1294336
 2017-02-04 17:07:12.754328+01 | 1486224432.75433 | pgbench_tellers_pkey  |          4841472
 2017-02-04 17:07:12.754328+01 | 1486224432.75433 | pgbench_accounts_pkey |       2246197248

 2017-02-04 17:07:13.833946+01 | 1486224433.83395 | pgbench_branches_pkey |          1294336
 2017-02-04 17:07:13.833946+01 | 1486224433.83395 | pgbench_tellers_pkey  |          4841472
 2017-02-04 17:07:13.833946+01 | 1486224433.83395 | pgbench_accounts_pkey |       2246197248

 2017-02-04 17:07:14.923868+01 | 1486224434.92387 | pgbench_branches_pkey |          1294336
 2017-02-04 17:07:14.923868+01 | 1486224434.92387 | pgbench_tellers_pkey  |          4841472
 2017-02-04 17:07:14.923868+01 | 1486224434.92387 | pgbench_accounts_pkey |       2246197248

 2017-02-04 17:07:16.000166+01 | 1486224436.00017 | pgbench_branches_pkey |          1294336
 2017-02-04 17:07:16.000166+01 | 1486224436.00017 | pgbench_tellers_pkey  |          4841472
 2017-02-04 17:07:16.000166+01 | 1486224436.00017 | pgbench_accounts_pkey |       2246197248

 2017-02-04 17:07:17.089175+01 | 1486224437.08917 | pgbench_branches_pkey |          1294336
 2017-02-04 17:07:17.089175+01 | 1486224437.08917 | pgbench_tellers_pkey  |          4841472
 2017-02-04 17:07:17.089175+01 | 1486224437.08917 | pgbench_accounts_pkey |       2246197248

 2017-02-04 17:07:18.169644+01 | 1486224438.16964 | pgbench_branches_pkey |          1294336
 2017-02-04 17:07:18.169644+01 | 1486224438.16964 | pgbench_tellers_pkey  |          4841472
 2017-02-04 17:07:18.169644+01 | 1486224438.16964 | pgbench_accounts_pkey |       2246197248

 2017-02-04 17:07:19.257751+01 | 1486224439.25775 | pgbench_branches_pkey |          1294336
 2017-02-04 17:07:19.257751+01 | 1486224439.25775 | pgbench_tellers_pkey  |          4841472
 2017-02-04 17:07:19.257751+01 | 1486224439.25775 | pgbench_accounts_pkey |       2246197248

 2017-02-04 17:07:20.334765+01 | 1486224440.33476 | pgbench_branches_pkey |          1294336
 2017-02-04 17:07:20.334765+01 | 1486224440.33476 | pgbench_tellers_pkey  |          4841472
 2017-02-04 17:07:20.334765+01 | 1486224440.33476 | pgbench_accounts_pkey |       2246197248

 2017-02-04 17:07:21.413519+01 | 1486224441.41352 | pgbench_branches_pkey |          1294336
 2017-02-04 17:07:21.413519+01 | 1486224441.41352 | pgbench_tellers_pkey  |          4841472
 2017-02-04 17:07:21.413519+01 | 1486224441.41352 | pgbench_accounts_pkey |       2246197248

 2017-02-04 17:07:22.496164+01 | 1486224442.49616 | pgbench_branches_pkey |          1294336
 2017-02-04 17:07:22.496164+01 | 1486224442.49616 | pgbench_tellers_pkey  |          4841472
 2017-02-04 17:07:22.496164+01 | 1486224442.49616 | pgbench_accounts_pkey |       2246197248

 2017-02-04 17:07:23.577464+01 | 1486224443.57746 | pgbench_branches_pkey |          1294336
 2017-02-04 17:07:23.577464+01 | 1486224443.57746 | pgbench_tellers_pkey  |          4841472
 2017-02-04 17:07:23.577464+01 | 1486224443.57746 | pgbench_accounts_pkey |       2246197248

 2017-02-04 17:07:24.655877+01 | 1486224444.65588 | pgbench_branches_pkey |          1294336
 2017-02-04 17:07:24.655877+01 | 1486224444.65588 | pgbench_tellers_pkey  |          4841472
 2017-02-04 17:07:24.655877+01 | 1486224444.65588 | pgbench_accounts_pkey |       2246197248

 2017-02-04 17:07:25.734397+01 | 1486224445.7344 | pgbench_branches_pkey |          1294336
 2017-02-04 17:07:25.734397+01 | 1486224445.7344 | pgbench_tellers_pkey  |          4841472
 2017-02-04 17:07:25.734397+01 | 1486224445.7344 | pgbench_accounts_pkey |       2246197248

 2017-02-04 17:07:26.814076+01 | 1486224446.81408 | pgbench_branches_pkey |          1294336
 2017-02-04 17:07:26.814076+01 | 1486224446.81408 | pgbench_tellers_pkey  |          4841472
 2017-02-04 17:07:26.814076+01 | 1486224446.81408 | pgbench_accounts_pkey |       2246197248

 2017-02-04 17:07:27.900111+01 | 1486224447.90011 | pgbench_branches_pkey |          1294336
 2017-02-04 17:07:27.900111+01 | 1486224447.90011 | pgbench_tellers_pkey  |          4841472
 2017-02-04 17:07:27.900111+01 | 1486224447.90011 | pgbench_accounts_pkey |       2246197248

 2017-02-04 17:07:28.980214+01 | 1486224448.98021 | pgbench_branches_pkey |          1294336
 2017-02-04 17:07:28.980214+01 | 1486224448.98021 | pgbench_tellers_pkey  |          4841472
 2017-02-04 17:07:28.980214+01 | 1486224448.98021 | pgbench_accounts_pkey |       2246197248

 2017-02-04 17:07:30.054523+01 | 1486224450.05452 | pgbench_branches_pkey |          1294336
 2017-02-04 17:07:30.054523+01 | 1486224450.05452 | pgbench_tellers_pkey  |          4841472
 2017-02-04 17:07:30.054523+01 | 1486224450.05452 | pgbench_accounts_pkey |       2246197248

 2017-02-04 17:07:31.130981+01 | 1486224451.13098 | pgbench_branches_pkey |          1294336
 2017-02-04 17:07:31.130981+01 | 1486224451.13098 | pgbench_tellers_pkey  |          4841472
 2017-02-04 17:07:31.130981+01 | 1486224451.13098 | pgbench_accounts_pkey |       2246197248

 2017-02-04 17:07:32.21177+01 | 1486224452.21177 | pgbench_branches_pkey |          1294336
 2017-02-04 17:07:32.21177+01 | 1486224452.21177 | pgbench_tellers_pkey  |          4841472
 2017-02-04 17:07:32.21177+01 | 1486224452.21177 | pgbench_accounts_pkey |       2246197248

 2017-02-04 17:07:33.290357+01 | 1486224453.29036 | pgbench_branches_pkey |          1294336
 2017-02-04 17:07:33.290357+01 | 1486224453.29036 | pgbench_tellers_pkey  |          4841472
 2017-02-04 17:07:33.290357+01 | 1486224453.29036 | pgbench_accounts_pkey |       2246197248

 2017-02-04 17:07:34.377525+01 | 1486224454.37753 | pgbench_branches_pkey |          1294336
 2017-02-04 17:07:34.377525+01 | 1486224454.37753 | pgbench_tellers_pkey  |          4841472
 2017-02-04 17:07:34.377525+01 | 1486224454.37753 | pgbench_accounts_pkey |       2246197248

 2017-02-04 17:07:35.456882+01 | 1486224455.45688 | pgbench_branches_pkey |          1294336
 2017-02-04 17:07:35.456882+01 | 1486224455.45688 | pgbench_tellers_pkey  |          4841472
 2017-02-04 17:07:35.456882+01 | 1486224455.45688 | pgbench_accounts_pkey |       2246197248

 2017-02-04 17:07:36.536727+01 | 1486224456.53673 | pgbench_branches_pkey |          1294336
 2017-02-04 17:07:36.536727+01 | 1486224456.53673 | pgbench_tellers_pkey  |          4841472
 2017-02-04 17:07:36.536727+01 | 1486224456.53673 | pgbench_accounts_pkey |       2246197248

 2017-02-04 17:07:37.618739+01 | 1486224457.61874 | pgbench_branches_pkey |          1294336
 2017-02-04 17:07:37.618739+01 | 1486224457.61874 | pgbench_tellers_pkey  |          4841472
 2017-02-04 17:07:37.618739+01 | 1486224457.61874 | pgbench_accounts_pkey |       2246197248

 2017-02-04 17:07:38.699862+01 | 1486224458.69986 | pgbench_branches_pkey |          1294336
 2017-02-04 17:07:38.699862+01 | 1486224458.69986 | pgbench_tellers_pkey  |          4841472
 2017-02-04 17:07:38.699862+01 | 1486224458.69986 | pgbench_accounts_pkey |       2246197248

 2017-02-04 17:07:39.780838+01 | 1486224459.78084 | pgbench_branches_pkey |          1294336
 2017-02-04 17:07:39.780838+01 | 1486224459.78084 | pgbench_tellers_pkey  |          4841472
 2017-02-04 17:07:39.780838+01 | 1486224459.78084 | pgbench_accounts_pkey |       2246197248

 2017-02-04 17:07:40.857973+01 | 1486224460.85797 | pgbench_branches_pkey |          1294336
 2017-02-04 17:07:40.857973+01 | 1486224460.85797 | pgbench_tellers_pkey  |          4841472
 2017-02-04 17:07:40.857973+01 | 1486224460.85797 | pgbench_accounts_pkey |       2246197248

 2017-02-04 17:07:41.934308+01 | 1486224461.93431 | pgbench_branches_pkey |          1294336
 2017-02-04 17:07:41.934308+01 | 1486224461.93431 | pgbench_tellers_pkey  |          4841472
 2017-02-04 17:07:41.934308+01 | 1486224461.93431 | pgbench_accounts_pkey |       2246197248

 2017-02-04 17:07:43.015379+01 | 1486224463.01538 | pgbench_branches_pkey |          1294336
 2017-02-04 17:07:43.015379+01 | 1486224463.01538 | pgbench_tellers_pkey  |          4841472
 2017-02-04 17:07:43.015379+01 | 1486224463.01538 | pgbench_accounts_pkey |       2246197248

 2017-02-04 17:07:44.094592+01 | 1486224464.09459 | pgbench_branches_pkey |          1294336
 2017-02-04 17:07:44.094592+01 | 1486224464.09459 | pgbench_tellers_pkey  |          4841472
 2017-02-04 17:07:44.094592+01 | 1486224464.09459 | pgbench_accounts_pkey |       2246197248

 2017-02-04 17:07:45.168966+01 | 1486224465.16897 | pgbench_branches_pkey |          1294336
 2017-02-04 17:07:45.168966+01 | 1486224465.16897 | pgbench_tellers_pkey  |          4841472
 2017-02-04 17:07:45.168966+01 | 1486224465.16897 | pgbench_accounts_pkey |       2246197248

 2017-02-04 17:07:46.24158+01 | 1486224466.24158 | pgbench_branches_pkey |          1294336
 2017-02-04 17:07:46.24158+01 | 1486224466.24158 | pgbench_tellers_pkey  |          4841472
 2017-02-04 17:07:46.24158+01 | 1486224466.24158 | pgbench_accounts_pkey |       2246197248

 2017-02-04 17:07:47.318304+01 | 1486224467.3183 | pgbench_branches_pkey |          1294336
 2017-02-04 17:07:47.318304+01 | 1486224467.3183 | pgbench_tellers_pkey  |          4841472
 2017-02-04 17:07:47.318304+01 | 1486224467.3183 | pgbench_accounts_pkey |       2246197248

 2017-02-04 17:07:48.397825+01 | 1486224468.39783 | pgbench_branches_pkey |          1294336
 2017-02-04 17:07:48.397825+01 | 1486224468.39783 | pgbench_tellers_pkey  |          4841472
 2017-02-04 17:07:48.397825+01 | 1486224468.39783 | pgbench_accounts_pkey |       2246197248

 2017-02-04 17:07:49.481128+01 | 1486224469.48113 | pgbench_branches_pkey |          1294336
 2017-02-04 17:07:49.481128+01 | 1486224469.48113 | pgbench_tellers_pkey  |          4841472
 2017-02-04 17:07:49.481128+01 | 1486224469.48113 | pgbench_accounts_pkey |       2246197248

 2017-02-04 17:07:50.560085+01 | 1486224470.56009 | pgbench_branches_pkey |          1294336
 2017-02-04 17:07:50.560085+01 | 1486224470.56009 | pgbench_tellers_pkey  |          4841472
 2017-02-04 17:07:50.560085+01 | 1486224470.56009 | pgbench_accounts_pkey |       2246197248

 2017-02-04 17:07:51.64157+01 | 1486224471.64157 | pgbench_branches_pkey |          1294336
 2017-02-04 17:07:51.64157+01 | 1486224471.64157 | pgbench_tellers_pkey  |          4841472
 2017-02-04 17:07:51.64157+01 | 1486224471.64157 | pgbench_accounts_pkey |       2246197248

 2017-02-04 17:07:52.718015+01 | 1486224472.71801 | pgbench_branches_pkey |          1294336
 2017-02-04 17:07:52.718015+01 | 1486224472.71801 | pgbench_tellers_pkey  |          4841472
 2017-02-04 17:07:52.718015+01 | 1486224472.71801 | pgbench_accounts_pkey |       2246197248

 2017-02-04 17:07:53.801355+01 | 1486224473.80135 | pgbench_branches_pkey |          1294336
 2017-02-04 17:07:53.801355+01 | 1486224473.80135 | pgbench_tellers_pkey  |          4841472
 2017-02-04 17:07:53.801355+01 | 1486224473.80135 | pgbench_accounts_pkey |       2246197248

 2017-02-04 17:07:54.876741+01 | 1486224474.87674 | pgbench_branches_pkey |          1294336
 2017-02-04 17:07:54.876741+01 | 1486224474.87674 | pgbench_tellers_pkey  |          4841472
 2017-02-04 17:07:54.876741+01 | 1486224474.87674 | pgbench_accounts_pkey |       2246197248

 2017-02-04 17:07:55.96054+01 | 1486224475.96054 | pgbench_branches_pkey |          1294336
 2017-02-04 17:07:55.96054+01 | 1486224475.96054 | pgbench_tellers_pkey  |          4841472
 2017-02-04 17:07:55.96054+01 | 1486224475.96054 | pgbench_accounts_pkey |       2246197248

 2017-02-04 17:07:57.036703+01 | 1486224477.0367 | pgbench_branches_pkey |          1294336
 2017-02-04 17:07:57.036703+01 | 1486224477.0367 | pgbench_tellers_pkey  |          4841472
 2017-02-04 17:07:57.036703+01 | 1486224477.0367 | pgbench_accounts_pkey |       2246197248

 2017-02-04 17:07:58.113097+01 | 1486224478.1131 | pgbench_branches_pkey |          1294336
 2017-02-04 17:07:58.113097+01 | 1486224478.1131 | pgbench_tellers_pkey  |          4841472
 2017-02-04 17:07:58.113097+01 | 1486224478.1131 | pgbench_accounts_pkey |       2246197248

 2017-02-04 17:07:59.194317+01 | 1486224479.19432 | pgbench_branches_pkey |          1294336
 2017-02-04 17:07:59.194317+01 | 1486224479.19432 | pgbench_tellers_pkey  |          4841472
 2017-02-04 17:07:59.194317+01 | 1486224479.19432 | pgbench_accounts_pkey |       2246197248

 2017-02-04 17:08:00.263217+01 | 1486224480.26322 | pgbench_branches_pkey |          1294336
 2017-02-04 17:08:00.263217+01 | 1486224480.26322 | pgbench_tellers_pkey  |          4841472
 2017-02-04 17:08:00.263217+01 | 1486224480.26322 | pgbench_accounts_pkey |       2246197248

 2017-02-04 17:08:01.350798+01 | 1486224481.3508 | pgbench_branches_pkey |          1294336
 2017-02-04 17:08:01.350798+01 | 1486224481.3508 | pgbench_tellers_pkey  |          4841472
 2017-02-04 17:08:01.350798+01 | 1486224481.3508 | pgbench_accounts_pkey |       2246197248

 2017-02-04 17:08:02.428687+01 | 1486224482.42869 | pgbench_branches_pkey |          1294336
 2017-02-04 17:08:02.428687+01 | 1486224482.42869 | pgbench_tellers_pkey  |          4841472
 2017-02-04 17:08:02.428687+01 | 1486224482.42869 | pgbench_accounts_pkey |       2246197248

 2017-02-04 17:08:03.504634+01 | 1486224483.50463 | pgbench_branches_pkey |          1294336
 2017-02-04 17:08:03.504634+01 | 1486224483.50463 | pgbench_tellers_pkey  |          4841472
 2017-02-04 17:08:03.504634+01 | 1486224483.50463 | pgbench_accounts_pkey |       2246197248

 2017-02-04 17:08:04.587279+01 | 1486224484.58728 | pgbench_branches_pkey |          1294336
 2017-02-04 17:08:04.587279+01 | 1486224484.58728 | pgbench_tellers_pkey  |          4841472
 2017-02-04 17:08:04.587279+01 | 1486224484.58728 | pgbench_accounts_pkey |       2246197248

 2017-02-04 17:08:05.668586+01 | 1486224485.66859 | pgbench_branches_pkey |          1294336
 2017-02-04 17:08:05.668586+01 | 1486224485.66859 | pgbench_tellers_pkey  |          4841472
 2017-02-04 17:08:05.668586+01 | 1486224485.66859 | pgbench_accounts_pkey |       2246197248

 2017-02-04 17:08:06.744637+01 | 1486224486.74464 | pgbench_branches_pkey |          1294336
 2017-02-04 17:08:06.744637+01 | 1486224486.74464 | pgbench_tellers_pkey  |          4841472
 2017-02-04 17:08:06.744637+01 | 1486224486.74464 | pgbench_accounts_pkey |       2246197248

 2017-02-04 17:08:07.82474+01 | 1486224487.82474 | pgbench_branches_pkey |          1294336
 2017-02-04 17:08:07.82474+01 | 1486224487.82474 | pgbench_tellers_pkey  |          4841472
 2017-02-04 17:08:07.82474+01 | 1486224487.82474 | pgbench_accounts_pkey |       2246197248

 2017-02-04 17:08:08.905782+01 | 1486224488.90578 | pgbench_branches_pkey |          1294336
 2017-02-04 17:08:08.905782+01 | 1486224488.90578 | pgbench_tellers_pkey  |          4841472
 2017-02-04 17:08:08.905782+01 | 1486224488.90578 | pgbench_accounts_pkey |       2246197248

 2017-02-04 17:08:09.985581+01 | 1486224489.98558 | pgbench_branches_pkey |          1294336
 2017-02-04 17:08:09.985581+01 | 1486224489.98558 | pgbench_tellers_pkey  |          4841472
 2017-02-04 17:08:09.985581+01 | 1486224489.98558 | pgbench_accounts_pkey |       2246197248

 2017-02-04 17:08:11.068273+01 | 1486224491.06827 | pgbench_branches_pkey |          1294336
 2017-02-04 17:08:11.068273+01 | 1486224491.06827 | pgbench_tellers_pkey  |          4841472
 2017-02-04 17:08:11.068273+01 | 1486224491.06827 | pgbench_accounts_pkey |       2246197248

 2017-02-04 17:08:12.14234+01 | 1486224492.14234 | pgbench_branches_pkey |          1294336
 2017-02-04 17:08:12.14234+01 | 1486224492.14234 | pgbench_tellers_pkey  |          4841472
 2017-02-04 17:08:12.14234+01 | 1486224492.14234 | pgbench_accounts_pkey |       2246197248

 2017-02-04 17:08:13.224002+01 | 1486224493.224 | pgbench_branches_pkey |          1294336
 2017-02-04 17:08:13.224002+01 | 1486224493.224 | pgbench_tellers_pkey  |          4841472
 2017-02-04 17:08:13.224002+01 | 1486224493.224 | pgbench_accounts_pkey |       2246197248

 2017-02-04 17:08:14.303503+01 | 1486224494.3035 | pgbench_branches_pkey |          1294336
 2017-02-04 17:08:14.303503+01 | 1486224494.3035 | pgbench_tellers_pkey  |          4841472
 2017-02-04 17:08:14.303503+01 | 1486224494.3035 | pgbench_accounts_pkey |       2246197248

 2017-02-04 17:08:15.383405+01 | 1486224495.3834 | pgbench_branches_pkey |          1294336
 2017-02-04 17:08:15.383405+01 | 1486224495.3834 | pgbench_tellers_pkey  |          4841472
 2017-02-04 17:08:15.383405+01 | 1486224495.3834 | pgbench_accounts_pkey |       2246197248

 2017-02-04 17:08:16.460511+01 | 1486224496.46051 | pgbench_branches_pkey |          1294336
 2017-02-04 17:08:16.460511+01 | 1486224496.46051 | pgbench_tellers_pkey  |          4841472
 2017-02-04 17:08:16.460511+01 | 1486224496.46051 | pgbench_accounts_pkey |       2246197248

 2017-02-04 17:08:17.538383+01 | 1486224497.53838 | pgbench_branches_pkey |          1294336
 2017-02-04 17:08:17.538383+01 | 1486224497.53838 | pgbench_tellers_pkey  |          4841472
 2017-02-04 17:08:17.538383+01 | 1486224497.53838 | pgbench_accounts_pkey |       2246197248

 2017-02-04 17:08:18.618878+01 | 1486224498.61888 | pgbench_branches_pkey |          1294336
 2017-02-04 17:08:18.618878+01 | 1486224498.61888 | pgbench_tellers_pkey  |          4841472
 2017-02-04 17:08:18.618878+01 | 1486224498.61888 | pgbench_accounts_pkey |       2246197248

 2017-02-04 17:08:19.698962+01 | 1486224499.69896 | pgbench_branches_pkey |          1294336
 2017-02-04 17:08:19.698962+01 | 1486224499.69896 | pgbench_tellers_pkey  |          4841472
 2017-02-04 17:08:19.698962+01 | 1486224499.69896 | pgbench_accounts_pkey |       2246197248

 2017-02-04 17:08:20.775269+01 | 1486224500.77527 | pgbench_branches_pkey |          1294336
 2017-02-04 17:08:20.775269+01 | 1486224500.77527 | pgbench_tellers_pkey  |          4841472
 2017-02-04 17:08:20.775269+01 | 1486224500.77527 | pgbench_accounts_pkey |       2246197248

 2017-02-04 17:08:21.853011+01 | 1486224501.85301 | pgbench_branches_pkey |          1294336
 2017-02-04 17:08:21.853011+01 | 1486224501.85301 | pgbench_tellers_pkey  |          4841472
 2017-02-04 17:08:21.853011+01 | 1486224501.85301 | pgbench_accounts_pkey |       2246197248

 2017-02-04 17:08:22.929745+01 | 1486224502.92974 | pgbench_branches_pkey |          1294336
 2017-02-04 17:08:22.929745+01 | 1486224502.92974 | pgbench_tellers_pkey  |          4841472
 2017-02-04 17:08:22.929745+01 | 1486224502.92974 | pgbench_accounts_pkey |       2246197248

 2017-02-04 17:08:24.008953+01 | 1486224504.00895 | pgbench_branches_pkey |          1294336
 2017-02-04 17:08:24.008953+01 | 1486224504.00895 | pgbench_tellers_pkey  |          4841472
 2017-02-04 17:08:24.008953+01 | 1486224504.00895 | pgbench_accounts_pkey |       2246197248

 2017-02-04 17:08:25.089567+01 | 1486224505.08957 | pgbench_branches_pkey |          1294336
 2017-02-04 17:08:25.089567+01 | 1486224505.08957 | pgbench_tellers_pkey  |          4841472
 2017-02-04 17:08:25.089567+01 | 1486224505.08957 | pgbench_accounts_pkey |       2246197248

 2017-02-04 17:08:26.170253+01 | 1486224506.17025 | pgbench_branches_pkey |          1294336
 2017-02-04 17:08:26.170253+01 | 1486224506.17025 | pgbench_tellers_pkey  |          4841472
 2017-02-04 17:08:26.170253+01 | 1486224506.17025 | pgbench_accounts_pkey |       2246197248

 2017-02-04 17:08:27.24809+01 | 1486224507.24809 | pgbench_branches_pkey |          1294336
 2017-02-04 17:08:27.24809+01 | 1486224507.24809 | pgbench_tellers_pkey  |          4841472
 2017-02-04 17:08:27.24809+01 | 1486224507.24809 | pgbench_accounts_pkey |       2246197248

 2017-02-04 17:08:28.323132+01 | 1486224508.32313 | pgbench_branches_pkey |          1294336
 2017-02-04 17:08:28.323132+01 | 1486224508.32313 | pgbench_tellers_pkey  |          4841472
 2017-02-04 17:08:28.323132+01 | 1486224508.32313 | pgbench_accounts_pkey |       2246197248

 2017-02-04 17:08:29.403207+01 | 1486224509.40321 | pgbench_branches_pkey |          1294336
 2017-02-04 17:08:29.403207+01 | 1486224509.40321 | pgbench_tellers_pkey  |          4841472
 2017-02-04 17:08:29.403207+01 | 1486224509.40321 | pgbench_accounts_pkey |       2246197248

 2017-02-04 17:08:30.487129+01 | 1486224510.48713 | pgbench_branches_pkey |          1294336
 2017-02-04 17:08:30.487129+01 | 1486224510.48713 | pgbench_tellers_pkey  |          4841472
 2017-02-04 17:08:30.487129+01 | 1486224510.48713 | pgbench_accounts_pkey |       2246197248

 2017-02-04 17:08:31.567174+01 | 1486224511.56717 | pgbench_branches_pkey |          1294336
 2017-02-04 17:08:31.567174+01 | 1486224511.56717 | pgbench_tellers_pkey  |          4841472
 2017-02-04 17:08:31.567174+01 | 1486224511.56717 | pgbench_accounts_pkey |       2246197248

 2017-02-04 17:08:32.647996+01 | 1486224512.648 | pgbench_branches_pkey |          1294336
 2017-02-04 17:08:32.647996+01 | 1486224512.648 | pgbench_tellers_pkey  |          4841472
 2017-02-04 17:08:32.647996+01 | 1486224512.648 | pgbench_accounts_pkey |       2246197248

 2017-02-04 17:08:33.724769+01 | 1486224513.72477 | pgbench_branches_pkey |          1294336
 2017-02-04 17:08:33.724769+01 | 1486224513.72477 | pgbench_tellers_pkey  |          4841472
 2017-02-04 17:08:33.724769+01 | 1486224513.72477 | pgbench_accounts_pkey |       2246197248

 2017-02-04 17:08:34.802791+01 | 1486224514.80279 | pgbench_branches_pkey |          1294336
 2017-02-04 17:08:34.802791+01 | 1486224514.80279 | pgbench_tellers_pkey  |          4841472
 2017-02-04 17:08:34.802791+01 | 1486224514.80279 | pgbench_accounts_pkey |       2246197248

 2017-02-04 17:08:35.878249+01 | 1486224515.87825 | pgbench_branches_pkey |          1294336
 2017-02-04 17:08:35.878249+01 | 1486224515.87825 | pgbench_tellers_pkey  |          4841472
 2017-02-04 17:08:35.878249+01 | 1486224515.87825 | pgbench_accounts_pkey |       2246197248

 2017-02-04 17:08:36.961764+01 | 1486224516.96176 | pgbench_branches_pkey |          1294336
 2017-02-04 17:08:36.961764+01 | 1486224516.96176 | pgbench_tellers_pkey  |          4841472
 2017-02-04 17:08:36.961764+01 | 1486224516.96176 | pgbench_accounts_pkey |       2246197248

 2017-02-04 17:08:38.041494+01 | 1486224518.04149 | pgbench_branches_pkey |          1294336
 2017-02-04 17:08:38.041494+01 | 1486224518.04149 | pgbench_tellers_pkey  |          4841472
 2017-02-04 17:08:38.041494+01 | 1486224518.04149 | pgbench_accounts_pkey |       2246197248

 2017-02-04 17:08:39.120177+01 | 1486224519.12018 | pgbench_branches_pkey |          1294336
 2017-02-04 17:08:39.120177+01 | 1486224519.12018 | pgbench_tellers_pkey  |          4841472
 2017-02-04 17:08:39.120177+01 | 1486224519.12018 | pgbench_accounts_pkey |       2246197248

 2017-02-04 17:08:40.195729+01 | 1486224520.19573 | pgbench_branches_pkey |          1294336
 2017-02-04 17:08:40.195729+01 | 1486224520.19573 | pgbench_tellers_pkey  |          4841472
 2017-02-04 17:08:40.195729+01 | 1486224520.19573 | pgbench_accounts_pkey |       2246197248

 2017-02-04 17:08:41.270027+01 | 1486224521.27003 | pgbench_branches_pkey |          1294336
 2017-02-04 17:08:41.270027+01 | 1486224521.27003 | pgbench_tellers_pkey  |          4841472
 2017-02-04 17:08:41.270027+01 | 1486224521.27003 | pgbench_accounts_pkey |       2246197248

 2017-02-04 17:08:42.349599+01 | 1486224522.3496 | pgbench_branches_pkey |          1294336
 2017-02-04 17:08:42.349599+01 | 1486224522.3496 | pgbench_tellers_pkey  |          4841472
 2017-02-04 17:08:42.349599+01 | 1486224522.3496 | pgbench_accounts_pkey |       2246197248

 2017-02-04 17:08:43.416099+01 | 1486224523.4161 | pgbench_branches_pkey |          1294336
 2017-02-04 17:08:43.416099+01 | 1486224523.4161 | pgbench_tellers_pkey  |          4841472
 2017-02-04 17:08:43.416099+01 | 1486224523.4161 | pgbench_accounts_pkey |       2246197248

 2017-02-04 17:08:44.491895+01 | 1486224524.49189 | pgbench_branches_pkey |          1294336
 2017-02-04 17:08:44.491895+01 | 1486224524.49189 | pgbench_tellers_pkey  |          4841472
 2017-02-04 17:08:44.491895+01 | 1486224524.49189 | pgbench_accounts_pkey |       2246197248

 2017-02-04 17:08:45.567406+01 | 1486224525.56741 | pgbench_branches_pkey |          1294336
 2017-02-04 17:08:45.567406+01 | 1486224525.56741 | pgbench_tellers_pkey  |          4841472
 2017-02-04 17:08:45.567406+01 | 1486224525.56741 | pgbench_accounts_pkey |       2246197248

 2017-02-04 17:08:46.650234+01 | 1486224526.65023 | pgbench_branches_pkey |          1294336
 2017-02-04 17:08:46.650234+01 | 1486224526.65023 | pgbench_tellers_pkey  |          4841472
 2017-02-04 17:08:46.650234+01 | 1486224526.65023 | pgbench_accounts_pkey |       2246197248

 2017-02-04 17:08:47.733939+01 | 1486224527.73394 | pgbench_branches_pkey |          1294336
 2017-02-04 17:08:47.733939+01 | 1486224527.73394 | pgbench_tellers_pkey  |          4841472
 2017-02-04 17:08:47.733939+01 | 1486224527.73394 | pgbench_accounts_pkey |       2246197248

 2017-02-04 17:08:48.812296+01 | 1486224528.8123 | pgbench_branches_pkey |          1294336
 2017-02-04 17:08:48.812296+01 | 1486224528.8123 | pgbench_tellers_pkey  |          4841472
 2017-02-04 17:08:48.812296+01 | 1486224528.8123 | pgbench_accounts_pkey |       2246197248

 2017-02-04 17:08:49.889566+01 | 1486224529.88957 | pgbench_branches_pkey |          1294336
 2017-02-04 17:08:49.889566+01 | 1486224529.88957 | pgbench_tellers_pkey  |          4841472
 2017-02-04 17:08:49.889566+01 | 1486224529.88957 | pgbench_accounts_pkey |       2246197248

 2017-02-04 17:08:50.96699+01 | 1486224530.96699 | pgbench_branches_pkey |          1294336
 2017-02-04 17:08:50.96699+01 | 1486224530.96699 | pgbench_tellers_pkey  |          4841472
 2017-02-04 17:08:50.96699+01 | 1486224530.96699 | pgbench_accounts_pkey |       2246197248

 2017-02-04 17:08:52.040424+01 | 1486224532.04042 | pgbench_branches_pkey |          1294336
 2017-02-04 17:08:52.040424+01 | 1486224532.04042 | pgbench_tellers_pkey  |          4841472
 2017-02-04 17:08:52.040424+01 | 1486224532.04042 | pgbench_accounts_pkey |       2246197248

 2017-02-04 17:08:53.128827+01 | 1486224533.12883 | pgbench_branches_pkey |          1294336
 2017-02-04 17:08:53.128827+01 | 1486224533.12883 | pgbench_tellers_pkey  |          4841472
 2017-02-04 17:08:53.128827+01 | 1486224533.12883 | pgbench_accounts_pkey |       2246197248

 2017-02-04 17:08:54.21335+01 | 1486224534.21335 | pgbench_branches_pkey |          1294336
 2017-02-04 17:08:54.21335+01 | 1486224534.21335 | pgbench_tellers_pkey  |          4841472
 2017-02-04 17:08:54.21335+01 | 1486224534.21335 | pgbench_accounts_pkey |       2246197248

 2017-02-04 17:08:55.292788+01 | 1486224535.29279 | pgbench_branches_pkey |          1294336
 2017-02-04 17:08:55.292788+01 | 1486224535.29279 | pgbench_tellers_pkey  |          4841472
 2017-02-04 17:08:55.292788+01 | 1486224535.29279 | pgbench_accounts_pkey |       2246197248

 2017-02-04 17:08:56.371098+01 | 1486224536.3711 | pgbench_branches_pkey |          1294336
 2017-02-04 17:08:56.371098+01 | 1486224536.3711 | pgbench_tellers_pkey  |          4841472
 2017-02-04 17:08:56.371098+01 | 1486224536.3711 | pgbench_accounts_pkey |       2246197248

 2017-02-04 17:08:57.444787+01 | 1486224537.44479 | pgbench_branches_pkey |          1294336
 2017-02-04 17:08:57.444787+01 | 1486224537.44479 | pgbench_tellers_pkey  |          4841472
 2017-02-04 17:08:57.444787+01 | 1486224537.44479 | pgbench_accounts_pkey |       2246197248

 2017-02-04 17:08:58.530579+01 | 1486224538.53058 | pgbench_branches_pkey |          1294336
 2017-02-04 17:08:58.530579+01 | 1486224538.53058 | pgbench_tellers_pkey  |          4841472
 2017-02-04 17:08:58.530579+01 | 1486224538.53058 | pgbench_accounts_pkey |       2246197248

 2017-02-04 17:08:59.609971+01 | 1486224539.60997 | pgbench_branches_pkey |          1294336
 2017-02-04 17:08:59.609971+01 | 1486224539.60997 | pgbench_tellers_pkey  |          4841472
 2017-02-04 17:08:59.609971+01 | 1486224539.60997 | pgbench_accounts_pkey |       2246197248

 2017-02-04 17:09:00.677041+01 | 1486224540.67704 | pgbench_branches_pkey |          1294336
 2017-02-04 17:09:00.677041+01 | 1486224540.67704 | pgbench_tellers_pkey  |          4841472
 2017-02-04 17:09:00.677041+01 | 1486224540.67704 | pgbench_accounts_pkey |       2246197248

 2017-02-04 17:09:01.767593+01 | 1486224541.76759 | pgbench_branches_pkey |          1294336
 2017-02-04 17:09:01.767593+01 | 1486224541.76759 | pgbench_tellers_pkey  |          4841472
 2017-02-04 17:09:01.767593+01 | 1486224541.76759 | pgbench_accounts_pkey |       2246197248

 2017-02-04 17:09:02.844149+01 | 1486224542.84415 | pgbench_branches_pkey |          1294336
 2017-02-04 17:09:02.844149+01 | 1486224542.84415 | pgbench_tellers_pkey  |          4841472
 2017-02-04 17:09:02.844149+01 | 1486224542.84415 | pgbench_accounts_pkey |       2246197248

 2017-02-04 17:09:03.917502+01 | 1486224543.9175 | pgbench_branches_pkey |          1294336
 2017-02-04 17:09:03.917502+01 | 1486224543.9175 | pgbench_tellers_pkey  |          4841472
 2017-02-04 17:09:03.917502+01 | 1486224543.9175 | pgbench_accounts_pkey |       2246197248

 2017-02-04 17:09:04.994322+01 | 1486224544.99432 | pgbench_branches_pkey |          1294336
 2017-02-04 17:09:04.994322+01 | 1486224544.99432 | pgbench_tellers_pkey  |          4841472
 2017-02-04 17:09:04.994322+01 | 1486224544.99432 | pgbench_accounts_pkey |       2246197248

 2017-02-04 17:09:06.070309+01 | 1486224546.07031 | pgbench_branches_pkey |          1294336
 2017-02-04 17:09:06.070309+01 | 1486224546.07031 | pgbench_tellers_pkey  |          4841472
 2017-02-04 17:09:06.070309+01 | 1486224546.07031 | pgbench_accounts_pkey |       2246197248

 2017-02-04 17:09:07.145345+01 | 1486224547.14534 | pgbench_branches_pkey |          1294336
 2017-02-04 17:09:07.145345+01 | 1486224547.14534 | pgbench_tellers_pkey  |          4841472
 2017-02-04 17:09:07.145345+01 | 1486224547.14534 | pgbench_accounts_pkey |       2246197248

 2017-02-04 17:09:08.223426+01 | 1486224548.22343 | pgbench_branches_pkey |          1294336
 2017-02-04 17:09:08.223426+01 | 1486224548.22343 | pgbench_tellers_pkey  |          4841472
 2017-02-04 17:09:08.223426+01 | 1486224548.22343 | pgbench_accounts_pkey |       2246197248

 2017-02-04 17:09:09.300571+01 | 1486224549.30057 | pgbench_branches_pkey |          1294336
 2017-02-04 17:09:09.300571+01 | 1486224549.30057 | pgbench_tellers_pkey  |          4841472
 2017-02-04 17:09:09.300571+01 | 1486224549.30057 | pgbench_accounts_pkey |       2246197248

 2017-02-04 17:09:10.378074+01 | 1486224550.37807 | pgbench_branches_pkey |          1294336
 2017-02-04 17:09:10.378074+01 | 1486224550.37807 | pgbench_tellers_pkey  |          4841472
 2017-02-04 17:09:10.378074+01 | 1486224550.37807 | pgbench_accounts_pkey |       2246197248

 2017-02-04 17:09:11.4569+01 | 1486224551.4569 | pgbench_branches_pkey |          1294336
 2017-02-04 17:09:11.4569+01 | 1486224551.4569 | pgbench_tellers_pkey  |          4841472
 2017-02-04 17:09:11.4569+01 | 1486224551.4569 | pgbench_accounts_pkey |       2246197248

 2017-02-04 17:09:12.534466+01 | 1486224552.53447 | pgbench_branches_pkey |          1294336
 2017-02-04 17:09:12.534466+01 | 1486224552.53447 | pgbench_tellers_pkey  |          4841472
 2017-02-04 17:09:12.534466+01 | 1486224552.53447 | pgbench_accounts_pkey |       2246197248

 2017-02-04 17:09:13.61419+01 | 1486224553.61419 | pgbench_branches_pkey |          1294336
 2017-02-04 17:09:13.61419+01 | 1486224553.61419 | pgbench_tellers_pkey  |          4841472
 2017-02-04 17:09:13.61419+01 | 1486224553.61419 | pgbench_accounts_pkey |       2246197248

 2017-02-04 17:09:14.705445+01 | 1486224554.70545 | pgbench_branches_pkey |          1294336
 2017-02-04 17:09:14.705445+01 | 1486224554.70545 | pgbench_tellers_pkey  |          4841472
 2017-02-04 17:09:14.705445+01 | 1486224554.70545 | pgbench_accounts_pkey |       2246197248

 2017-02-04 17:09:15.781554+01 | 1486224555.78155 | pgbench_branches_pkey |          1294336
 2017-02-04 17:09:15.781554+01 | 1486224555.78155 | pgbench_tellers_pkey  |          4841472
 2017-02-04 17:09:15.781554+01 | 1486224555.78155 | pgbench_accounts_pkey |       2246197248

 2017-02-04 17:09:16.863918+01 | 1486224556.86392 | pgbench_branches_pkey |          1294336
 2017-02-04 17:09:16.863918+01 | 1486224556.86392 | pgbench_tellers_pkey  |          4841472
 2017-02-04 17:09:16.863918+01 | 1486224556.86392 | pgbench_accounts_pkey |       2246197248

 2017-02-04 17:09:17.938539+01 | 1486224557.93854 | pgbench_branches_pkey |          1294336
 2017-02-04 17:09:17.938539+01 | 1486224557.93854 | pgbench_tellers_pkey  |          4841472
 2017-02-04 17:09:17.938539+01 | 1486224557.93854 | pgbench_accounts_pkey |       2246197248

 2017-02-04 17:09:19.010769+01 | 1486224559.01077 | pgbench_branches_pkey |          1294336
 2017-02-04 17:09:19.010769+01 | 1486224559.01077 | pgbench_tellers_pkey  |          4841472
 2017-02-04 17:09:19.010769+01 | 1486224559.01077 | pgbench_accounts_pkey |       2246197248

 2017-02-04 17:09:20.089261+01 | 1486224560.08926 | pgbench_branches_pkey |          1294336
 2017-02-04 17:09:20.089261+01 | 1486224560.08926 | pgbench_tellers_pkey  |          4841472
 2017-02-04 17:09:20.089261+01 | 1486224560.08926 | pgbench_accounts_pkey |       2246197248

 2017-02-04 17:09:21.168058+01 | 1486224561.16806 | pgbench_branches_pkey |          1294336
 2017-02-04 17:09:21.168058+01 | 1486224561.16806 | pgbench_tellers_pkey  |          4841472
 2017-02-04 17:09:21.168058+01 | 1486224561.16806 | pgbench_accounts_pkey |       2246197248

 2017-02-04 17:09:22.243944+01 | 1486224562.24394 | pgbench_branches_pkey |          1294336
 2017-02-04 17:09:22.243944+01 | 1486224562.24394 | pgbench_tellers_pkey  |          4841472
 2017-02-04 17:09:22.243944+01 | 1486224562.24394 | pgbench_accounts_pkey |       2246197248

 2017-02-04 17:09:23.321005+01 | 1486224563.32101 | pgbench_branches_pkey |          1294336
 2017-02-04 17:09:23.321005+01 | 1486224563.32101 | pgbench_tellers_pkey  |          4841472
 2017-02-04 17:09:23.321005+01 | 1486224563.32101 | pgbench_accounts_pkey |       2246197248

 2017-02-04 17:09:24.398809+01 | 1486224564.39881 | pgbench_branches_pkey |          1294336
 2017-02-04 17:09:24.398809+01 | 1486224564.39881 | pgbench_tellers_pkey  |          4841472
 2017-02-04 17:09:24.398809+01 | 1486224564.39881 | pgbench_accounts_pkey |       2246197248

 2017-02-04 17:09:25.481362+01 | 1486224565.48136 | pgbench_branches_pkey |          1294336
 2017-02-04 17:09:25.481362+01 | 1486224565.48136 | pgbench_tellers_pkey  |          4841472
 2017-02-04 17:09:25.481362+01 | 1486224565.48136 | pgbench_accounts_pkey |       2246197248

 2017-02-04 17:09:26.561049+01 | 1486224566.56105 | pgbench_branches_pkey |          1294336
 2017-02-04 17:09:26.561049+01 | 1486224566.56105 | pgbench_tellers_pkey  |          4841472
 2017-02-04 17:09:26.561049+01 | 1486224566.56105 | pgbench_accounts_pkey |       2246197248

 2017-02-04 17:09:27.639975+01 | 1486224567.63998 | pgbench_branches_pkey |          1294336
 2017-02-04 17:09:27.639975+01 | 1486224567.63998 | pgbench_tellers_pkey  |          4841472
 2017-02-04 17:09:27.639975+01 | 1486224567.63998 | pgbench_accounts_pkey |       2246197248

 2017-02-04 17:09:28.719802+01 | 1486224568.7198 | pgbench_branches_pkey |          1294336
 2017-02-04 17:09:28.719802+01 | 1486224568.7198 | pgbench_tellers_pkey  |          4841472
 2017-02-04 17:09:28.719802+01 | 1486224568.7198 | pgbench_accounts_pkey |       2246197248

 2017-02-04 17:09:29.798929+01 | 1486224569.79893 | pgbench_branches_pkey |          1294336
 2017-02-04 17:09:29.798929+01 | 1486224569.79893 | pgbench_tellers_pkey  |          4841472
 2017-02-04 17:09:29.798929+01 | 1486224569.79893 | pgbench_accounts_pkey |       2246197248

 2017-02-04 17:09:30.880434+01 | 1486224570.88043 | pgbench_branches_pkey |          1294336
 2017-02-04 17:09:30.880434+01 | 1486224570.88043 | pgbench_tellers_pkey  |          4841472
 2017-02-04 17:09:30.880434+01 | 1486224570.88043 | pgbench_accounts_pkey |       2246197248

 2017-02-04 17:09:31.956932+01 | 1486224571.95693 | pgbench_branches_pkey |          1294336
 2017-02-04 17:09:31.956932+01 | 1486224571.95693 | pgbench_tellers_pkey  |          4841472
 2017-02-04 17:09:31.956932+01 | 1486224571.95693 | pgbench_accounts_pkey |       2246197248

 2017-02-04 17:09:33.035684+01 | 1486224573.03568 | pgbench_branches_pkey |          1294336
 2017-02-04 17:09:33.035684+01 | 1486224573.03568 | pgbench_tellers_pkey  |          4841472
 2017-02-04 17:09:33.035684+01 | 1486224573.03568 | pgbench_accounts_pkey |       2246197248

 2017-02-04 17:09:34.112588+01 | 1486224574.11259 | pgbench_branches_pkey |          1294336
 2017-02-04 17:09:34.112588+01 | 1486224574.11259 | pgbench_tellers_pkey  |          4841472
 2017-02-04 17:09:34.112588+01 | 1486224574.11259 | pgbench_accounts_pkey |       2246197248

 2017-02-04 17:09:35.196951+01 | 1486224575.19695 | pgbench_branches_pkey |          1294336
 2017-02-04 17:09:35.196951+01 | 1486224575.19695 | pgbench_tellers_pkey  |          4841472
 2017-02-04 17:09:35.196951+01 | 1486224575.19695 | pgbench_accounts_pkey |       2246197248

 2017-02-04 17:09:36.279011+01 | 1486224576.27901 | pgbench_branches_pkey |          1294336
 2017-02-04 17:09:36.279011+01 | 1486224576.27901 | pgbench_tellers_pkey  |          4841472
 2017-02-04 17:09:36.279011+01 | 1486224576.27901 | pgbench_accounts_pkey |       2246197248

 2017-02-04 17:09:37.359518+01 | 1486224577.35952 | pgbench_branches_pkey |          1294336
 2017-02-04 17:09:37.359518+01 | 1486224577.35952 | pgbench_tellers_pkey  |          4841472
 2017-02-04 17:09:37.359518+01 | 1486224577.35952 | pgbench_accounts_pkey |       2246197248

 2017-02-04 17:09:38.440682+01 | 1486224578.44068 | pgbench_branches_pkey |          1294336
 2017-02-04 17:09:38.440682+01 | 1486224578.44068 | pgbench_tellers_pkey  |          4841472
 2017-02-04 17:09:38.440682+01 | 1486224578.44068 | pgbench_accounts_pkey |       2246197248

 2017-02-04 17:09:39.521643+01 | 1486224579.52164 | pgbench_branches_pkey |          1294336
 2017-02-04 17:09:39.521643+01 | 1486224579.52164 | pgbench_tellers_pkey  |          4841472
 2017-02-04 17:09:39.521643+01 | 1486224579.52164 | pgbench_accounts_pkey |       2246197248

 2017-02-04 17:09:40.605815+01 | 1486224580.60581 | pgbench_branches_pkey |          1294336
 2017-02-04 17:09:40.605815+01 | 1486224580.60581 | pgbench_tellers_pkey  |          4841472
 2017-02-04 17:09:40.605815+01 | 1486224580.60581 | pgbench_accounts_pkey |       2246197248

 2017-02-04 17:09:41.685643+01 | 1486224581.68564 | pgbench_branches_pkey |          1294336
 2017-02-04 17:09:41.685643+01 | 1486224581.68564 | pgbench_tellers_pkey  |          4841472
 2017-02-04 17:09:41.685643+01 | 1486224581.68564 | pgbench_accounts_pkey |       2246197248

 2017-02-04 17:09:42.765665+01 | 1486224582.76567 | pgbench_branches_pkey |          1294336
 2017-02-04 17:09:42.765665+01 | 1486224582.76567 | pgbench_tellers_pkey  |          4841472
 2017-02-04 17:09:42.765665+01 | 1486224582.76567 | pgbench_accounts_pkey |       2246197248

 2017-02-04 17:09:43.843019+01 | 1486224583.84302 | pgbench_branches_pkey |          1294336
 2017-02-04 17:09:43.843019+01 | 1486224583.84302 | pgbench_tellers_pkey  |          4841472
 2017-02-04 17:09:43.843019+01 | 1486224583.84302 | pgbench_accounts_pkey |       2246197248

 2017-02-04 17:09:44.920165+01 | 1486224584.92017 | pgbench_branches_pkey |          1294336
 2017-02-04 17:09:44.920165+01 | 1486224584.92017 | pgbench_tellers_pkey  |          4841472
 2017-02-04 17:09:44.920165+01 | 1486224584.92017 | pgbench_accounts_pkey |       2246197248

 2017-02-04 17:09:45.996387+01 | 1486224585.99639 | pgbench_branches_pkey |          1294336
 2017-02-04 17:09:45.996387+01 | 1486224585.99639 | pgbench_tellers_pkey  |          4841472
 2017-02-04 17:09:45.996387+01 | 1486224585.99639 | pgbench_accounts_pkey |       2246197248

 2017-02-04 17:09:47.07455+01 | 1486224587.07455 | pgbench_branches_pkey |          1294336
 2017-02-04 17:09:47.07455+01 | 1486224587.07455 | pgbench_tellers_pkey  |          4841472
 2017-02-04 17:09:47.07455+01 | 1486224587.07455 | pgbench_accounts_pkey |       2246197248

 2017-02-04 17:09:48.151045+01 | 1486224588.15105 | pgbench_branches_pkey |          1294336
 2017-02-04 17:09:48.151045+01 | 1486224588.15105 | pgbench_tellers_pkey  |          4841472
 2017-02-04 17:09:48.151045+01 | 1486224588.15105 | pgbench_accounts_pkey |       2246197248

 2017-02-04 17:09:49.236383+01 | 1486224589.23638 | pgbench_branches_pkey |          1294336
 2017-02-04 17:09:49.236383+01 | 1486224589.23638 | pgbench_tellers_pkey  |          4841472
 2017-02-04 17:09:49.236383+01 | 1486224589.23638 | pgbench_accounts_pkey |       2246197248

 2017-02-04 17:09:50.316577+01 | 1486224590.31658 | pgbench_branches_pkey |          1294336
 2017-02-04 17:09:50.316577+01 | 1486224590.31658 | pgbench_tellers_pkey  |          4841472
 2017-02-04 17:09:50.316577+01 | 1486224590.31658 | pgbench_accounts_pkey |       2246197248

 2017-02-04 17:09:51.398137+01 | 1486224591.39814 | pgbench_branches_pkey |          1294336
 2017-02-04 17:09:51.398137+01 | 1486224591.39814 | pgbench_tellers_pkey  |          4841472
 2017-02-04 17:09:51.398137+01 | 1486224591.39814 | pgbench_accounts_pkey |       2246197248

 2017-02-04 17:09:52.477749+01 | 1486224592.47775 | pgbench_branches_pkey |          1294336
 2017-02-04 17:09:52.477749+01 | 1486224592.47775 | pgbench_tellers_pkey  |          4841472
 2017-02-04 17:09:52.477749+01 | 1486224592.47775 | pgbench_accounts_pkey |       2246197248

 2017-02-04 17:09:53.561318+01 | 1486224593.56132 | pgbench_branches_pkey |          1294336
 2017-02-04 17:09:53.561318+01 | 1486224593.56132 | pgbench_tellers_pkey  |          4841472
 2017-02-04 17:09:53.561318+01 | 1486224593.56132 | pgbench_accounts_pkey |       2246197248

 2017-02-04 17:09:54.64126+01 | 1486224594.64126 | pgbench_branches_pkey |          1294336
 2017-02-04 17:09:54.64126+01 | 1486224594.64126 | pgbench_tellers_pkey  |          4841472
 2017-02-04 17:09:54.64126+01 | 1486224594.64126 | pgbench_accounts_pkey |       2246197248

 2017-02-04 17:09:55.719661+01 | 1486224595.71966 | pgbench_branches_pkey |          1294336
 2017-02-04 17:09:55.719661+01 | 1486224595.71966 | pgbench_tellers_pkey  |          4841472
 2017-02-04 17:09:55.719661+01 | 1486224595.71966 | pgbench_accounts_pkey |       2246197248

 2017-02-04 17:09:56.802097+01 | 1486224596.8021 | pgbench_branches_pkey |          1294336
 2017-02-04 17:09:56.802097+01 | 1486224596.8021 | pgbench_tellers_pkey  |          4841472
 2017-02-04 17:09:56.802097+01 | 1486224596.8021 | pgbench_accounts_pkey |       2246197248

 2017-02-04 17:09:57.895429+01 | 1486224597.89543 | pgbench_branches_pkey |          1294336
 2017-02-04 17:09:57.895429+01 | 1486224597.89543 | pgbench_tellers_pkey  |          4841472
 2017-02-04 17:09:57.895429+01 | 1486224597.89543 | pgbench_accounts_pkey |       2246197248

 2017-02-04 17:09:58.980155+01 | 1486224598.98015 | pgbench_branches_pkey |          1294336
 2017-02-04 17:09:58.980155+01 | 1486224598.98015 | pgbench_tellers_pkey  |          4841472
 2017-02-04 17:09:58.980155+01 | 1486224598.98015 | pgbench_accounts_pkey |       2246197248

 2017-02-04 17:10:00.047015+01 | 1486224600.04701 | pgbench_branches_pkey |          1294336
 2017-02-04 17:10:00.047015+01 | 1486224600.04701 | pgbench_tellers_pkey  |          4841472
 2017-02-04 17:10:00.047015+01 | 1486224600.04701 | pgbench_accounts_pkey |       2246197248

 2017-02-04 17:10:01.131179+01 | 1486224601.13118 | pgbench_branches_pkey |          1294336
 2017-02-04 17:10:01.131179+01 | 1486224601.13118 | pgbench_tellers_pkey  |          4841472
 2017-02-04 17:10:01.131179+01 | 1486224601.13118 | pgbench_accounts_pkey |       2246197248

 2017-02-04 17:10:02.21765+01 | 1486224602.21765 | pgbench_branches_pkey |          1294336
 2017-02-04 17:10:02.21765+01 | 1486224602.21765 | pgbench_tellers_pkey  |          4841472
 2017-02-04 17:10:02.21765+01 | 1486224602.21765 | pgbench_accounts_pkey |       2246197248

 2017-02-04 17:10:03.30273+01 | 1486224603.30273 | pgbench_branches_pkey |          1294336
 2017-02-04 17:10:03.30273+01 | 1486224603.30273 | pgbench_tellers_pkey  |          4841472
 2017-02-04 17:10:03.30273+01 | 1486224603.30273 | pgbench_accounts_pkey |       2246197248

 2017-02-04 17:10:04.38258+01 | 1486224604.38258 | pgbench_branches_pkey |          1294336
 2017-02-04 17:10:04.38258+01 | 1486224604.38258 | pgbench_tellers_pkey  |          4841472
 2017-02-04 17:10:04.38258+01 | 1486224604.38258 | pgbench_accounts_pkey |       2246197248

 2017-02-04 17:10:05.455838+01 | 1486224605.45584 | pgbench_branches_pkey |          1294336
 2017-02-04 17:10:05.455838+01 | 1486224605.45584 | pgbench_tellers_pkey  |          4841472
 2017-02-04 17:10:05.455838+01 | 1486224605.45584 | pgbench_accounts_pkey |       2246197248

 2017-02-04 17:10:06.533032+01 | 1486224606.53303 | pgbench_branches_pkey |          1294336
 2017-02-04 17:10:06.533032+01 | 1486224606.53303 | pgbench_tellers_pkey  |          4841472
 2017-02-04 17:10:06.533032+01 | 1486224606.53303 | pgbench_accounts_pkey |       2246197248

 2017-02-04 17:10:07.608505+01 | 1486224607.60851 | pgbench_branches_pkey |          1294336
 2017-02-04 17:10:07.608505+01 | 1486224607.60851 | pgbench_tellers_pkey  |          4841472
 2017-02-04 17:10:07.608505+01 | 1486224607.60851 | pgbench_accounts_pkey |       2246197248

 2017-02-04 17:10:08.68881+01 | 1486224608.68881 | pgbench_branches_pkey |          1294336
 2017-02-04 17:10:08.68881+01 | 1486224608.68881 | pgbench_tellers_pkey  |          4841472
 2017-02-04 17:10:08.68881+01 | 1486224608.68881 | pgbench_accounts_pkey |       2246197248

 2017-02-04 17:10:09.76623+01 | 1486224609.76623 | pgbench_branches_pkey |          1294336
 2017-02-04 17:10:09.76623+01 | 1486224609.76623 | pgbench_tellers_pkey  |          4841472
 2017-02-04 17:10:09.76623+01 | 1486224609.76623 | pgbench_accounts_pkey |       2246197248

 2017-02-04 17:10:10.849042+01 | 1486224610.84904 | pgbench_branches_pkey |          1294336
 2017-02-04 17:10:10.849042+01 | 1486224610.84904 | pgbench_tellers_pkey  |          4841472
 2017-02-04 17:10:10.849042+01 | 1486224610.84904 | pgbench_accounts_pkey |       2246197248

 2017-02-04 17:10:11.933337+01 | 1486224611.93334 | pgbench_branches_pkey |          1294336
 2017-02-04 17:10:11.933337+01 | 1486224611.93334 | pgbench_tellers_pkey  |          4841472
 2017-02-04 17:10:11.933337+01 | 1486224611.93334 | pgbench_accounts_pkey |       2246197248

 2017-02-04 17:10:13.016572+01 | 1486224613.01657 | pgbench_branches_pkey |          1294336
 2017-02-04 17:10:13.016572+01 | 1486224613.01657 | pgbench_tellers_pkey  |          4841472
 2017-02-04 17:10:13.016572+01 | 1486224613.01657 | pgbench_accounts_pkey |       2246197248

 2017-02-04 17:10:14.097239+01 | 1486224614.09724 | pgbench_branches_pkey |          1294336
 2017-02-04 17:10:14.097239+01 | 1486224614.09724 | pgbench_tellers_pkey  |          4841472
 2017-02-04 17:10:14.097239+01 | 1486224614.09724 | pgbench_accounts_pkey |       2246197248

 2017-02-04 17:10:15.17635+01 | 1486224615.17635 | pgbench_branches_pkey |          1294336
 2017-02-04 17:10:15.17635+01 | 1486224615.17635 | pgbench_tellers_pkey  |          4841472
 2017-02-04 17:10:15.17635+01 | 1486224615.17635 | pgbench_accounts_pkey |       2246197248

 2017-02-04 17:10:16.2592+01 | 1486224616.2592 | pgbench_branches_pkey |          1294336
 2017-02-04 17:10:16.2592+01 | 1486224616.2592 | pgbench_tellers_pkey  |          4841472
 2017-02-04 17:10:16.2592+01 | 1486224616.2592 | pgbench_accounts_pkey |       2246197248

 2017-02-04 17:10:17.338478+01 | 1486224617.33848 | pgbench_branches_pkey |          1294336
 2017-02-04 17:10:17.338478+01 | 1486224617.33848 | pgbench_tellers_pkey  |          4841472
 2017-02-04 17:10:17.338478+01 | 1486224617.33848 | pgbench_accounts_pkey |       2246197248

 2017-02-04 17:10:18.417096+01 | 1486224618.4171 | pgbench_branches_pkey |          1294336
 2017-02-04 17:10:18.417096+01 | 1486224618.4171 | pgbench_tellers_pkey  |          4841472
 2017-02-04 17:10:18.417096+01 | 1486224618.4171 | pgbench_accounts_pkey |       2246197248

 2017-02-04 17:10:19.496898+01 | 1486224619.4969 | pgbench_branches_pkey |          1294336
 2017-02-04 17:10:19.496898+01 | 1486224619.4969 | pgbench_tellers_pkey  |          4841472
 2017-02-04 17:10:19.496898+01 | 1486224619.4969 | pgbench_accounts_pkey |       2246197248

 2017-02-04 17:10:20.576893+01 | 1486224620.57689 | pgbench_branches_pkey |          1294336
 2017-02-04 17:10:20.576893+01 | 1486224620.57689 | pgbench_tellers_pkey  |          4841472
 2017-02-04 17:10:20.576893+01 | 1486224620.57689 | pgbench_accounts_pkey |       2246197248

 2017-02-04 17:10:21.656104+01 | 1486224621.6561 | pgbench_branches_pkey |          1294336
 2017-02-04 17:10:21.656104+01 | 1486224621.6561 | pgbench_tellers_pkey  |          4841472
 2017-02-04 17:10:21.656104+01 | 1486224621.6561 | pgbench_accounts_pkey |       2246197248

 2017-02-04 17:10:22.731931+01 | 1486224622.73193 | pgbench_branches_pkey |          1294336
 2017-02-04 17:10:22.731931+01 | 1486224622.73193 | pgbench_tellers_pkey  |          4841472
 2017-02-04 17:10:22.731931+01 | 1486224622.73193 | pgbench_accounts_pkey |       2246197248

 2017-02-04 17:10:23.80679+01 | 1486224623.80679 | pgbench_branches_pkey |          1294336
 2017-02-04 17:10:23.80679+01 | 1486224623.80679 | pgbench_tellers_pkey  |          4841472
 2017-02-04 17:10:23.80679+01 | 1486224623.80679 | pgbench_accounts_pkey |       2246197248

 2017-02-04 17:10:24.89408+01 | 1486224624.89408 | pgbench_branches_pkey |          1294336
 2017-02-04 17:10:24.89408+01 | 1486224624.89408 | pgbench_tellers_pkey  |          4841472
 2017-02-04 17:10:24.89408+01 | 1486224624.89408 | pgbench_accounts_pkey |       2246197248

 2017-02-04 17:10:25.972672+01 | 1486224625.97267 | pgbench_branches_pkey |          1294336
 2017-02-04 17:10:25.972672+01 | 1486224625.97267 | pgbench_tellers_pkey  |          4841472
 2017-02-04 17:10:25.972672+01 | 1486224625.97267 | pgbench_accounts_pkey |       2246197248

 2017-02-04 17:10:27.045696+01 | 1486224627.0457 | pgbench_branches_pkey |          1294336
 2017-02-04 17:10:27.045696+01 | 1486224627.0457 | pgbench_tellers_pkey  |          4841472
 2017-02-04 17:10:27.045696+01 | 1486224627.0457 | pgbench_accounts_pkey |       2246197248

 2017-02-04 17:10:28.124152+01 | 1486224628.12415 | pgbench_branches_pkey |          1294336
 2017-02-04 17:10:28.124152+01 | 1486224628.12415 | pgbench_tellers_pkey  |          4841472
 2017-02-04 17:10:28.124152+01 | 1486224628.12415 | pgbench_accounts_pkey |       2246197248

 2017-02-04 17:10:29.203095+01 | 1486224629.20309 | pgbench_branches_pkey |          1294336
 2017-02-04 17:10:29.203095+01 | 1486224629.20309 | pgbench_tellers_pkey  |          4841472
 2017-02-04 17:10:29.203095+01 | 1486224629.20309 | pgbench_accounts_pkey |       2246197248

 2017-02-04 17:10:30.282684+01 | 1486224630.28268 | pgbench_branches_pkey |          1294336
 2017-02-04 17:10:30.282684+01 | 1486224630.28268 | pgbench_tellers_pkey  |          4841472
 2017-02-04 17:10:30.282684+01 | 1486224630.28268 | pgbench_accounts_pkey |       2246197248

 2017-02-04 17:10:31.365101+01 | 1486224631.3651 | pgbench_branches_pkey |          1294336
 2017-02-04 17:10:31.365101+01 | 1486224631.3651 | pgbench_tellers_pkey  |          4841472
 2017-02-04 17:10:31.365101+01 | 1486224631.3651 | pgbench_accounts_pkey |       2246197248

 2017-02-04 17:10:32.442939+01 | 1486224632.44294 | pgbench_branches_pkey |          1294336
 2017-02-04 17:10:32.442939+01 | 1486224632.44294 | pgbench_tellers_pkey  |          4841472
 2017-02-04 17:10:32.442939+01 | 1486224632.44294 | pgbench_accounts_pkey |       2246197248

 2017-02-04 17:10:33.528794+01 | 1486224633.52879 | pgbench_branches_pkey |          1294336
 2017-02-04 17:10:33.528794+01 | 1486224633.52879 | pgbench_tellers_pkey  |          4841472
 2017-02-04 17:10:33.528794+01 | 1486224633.52879 | pgbench_accounts_pkey |       2246197248

 2017-02-04 17:10:34.611974+01 | 1486224634.61197 | pgbench_branches_pkey |          1294336
 2017-02-04 17:10:34.611974+01 | 1486224634.61197 | pgbench_tellers_pkey  |          4841472
 2017-02-04 17:10:34.611974+01 | 1486224634.61197 | pgbench_accounts_pkey |       2246197248

 2017-02-04 17:10:35.693065+01 | 1486224635.69306 | pgbench_branches_pkey |          1294336
 2017-02-04 17:10:35.693065+01 | 1486224635.69306 | pgbench_tellers_pkey  |          4841472
 2017-02-04 17:10:35.693065+01 | 1486224635.69306 | pgbench_accounts_pkey |       2246197248

 2017-02-04 17:10:36.776862+01 | 1486224636.77686 | pgbench_branches_pkey |          1294336
 2017-02-04 17:10:36.776862+01 | 1486224636.77686 | pgbench_tellers_pkey  |          4841472
 2017-02-04 17:10:36.776862+01 | 1486224636.77686 | pgbench_accounts_pkey |       2246197248

 2017-02-04 17:10:37.857536+01 | 1486224637.85754 | pgbench_branches_pkey |          1294336
 2017-02-04 17:10:37.857536+01 | 1486224637.85754 | pgbench_tellers_pkey  |          4841472
 2017-02-04 17:10:37.857536+01 | 1486224637.85754 | pgbench_accounts_pkey |       2246197248

 2017-02-04 17:10:38.938863+01 | 1486224638.93886 | pgbench_branches_pkey |          1294336
 2017-02-04 17:10:38.938863+01 | 1486224638.93886 | pgbench_tellers_pkey  |          4841472
 2017-02-04 17:10:38.938863+01 | 1486224638.93886 | pgbench_accounts_pkey |       2246197248

 2017-02-04 17:10:40.016642+01 | 1486224640.01664 | pgbench_branches_pkey |          1294336
 2017-02-04 17:10:40.016642+01 | 1486224640.01664 | pgbench_tellers_pkey  |          4841472
 2017-02-04 17:10:40.016642+01 | 1486224640.01664 | pgbench_accounts_pkey |       2246197248

 2017-02-04 17:10:41.091799+01 | 1486224641.0918 | pgbench_branches_pkey |          1294336
 2017-02-04 17:10:41.091799+01 | 1486224641.0918 | pgbench_tellers_pkey  |          4841472
 2017-02-04 17:10:41.091799+01 | 1486224641.0918 | pgbench_accounts_pkey |       2246197248

 2017-02-04 17:10:42.174085+01 | 1486224642.17408 | pgbench_branches_pkey |          1294336
 2017-02-04 17:10:42.174085+01 | 1486224642.17408 | pgbench_tellers_pkey  |          4841472
 2017-02-04 17:10:42.174085+01 | 1486224642.17408 | pgbench_accounts_pkey |       2246197248

 2017-02-04 17:10:43.25077+01 | 1486224643.25077 | pgbench_branches_pkey |          1294336
 2017-02-04 17:10:43.25077+01 | 1486224643.25077 | pgbench_tellers_pkey  |          4841472
 2017-02-04 17:10:43.25077+01 | 1486224643.25077 | pgbench_accounts_pkey |       2246197248

 2017-02-04 17:10:44.333114+01 | 1486224644.33311 | pgbench_branches_pkey |          1294336
 2017-02-04 17:10:44.333114+01 | 1486224644.33311 | pgbench_tellers_pkey  |          4841472
 2017-02-04 17:10:44.333114+01 | 1486224644.33311 | pgbench_accounts_pkey |       2246197248

 2017-02-04 17:10:45.426698+01 | 1486224645.4267 | pgbench_branches_pkey |          1294336
 2017-02-04 17:10:45.426698+01 | 1486224645.4267 | pgbench_tellers_pkey  |          4841472
 2017-02-04 17:10:45.426698+01 | 1486224645.4267 | pgbench_accounts_pkey |       2246197248

 2017-02-04 17:10:46.504321+01 | 1486224646.50432 | pgbench_branches_pkey |          1294336
 2017-02-04 17:10:46.504321+01 | 1486224646.50432 | pgbench_tellers_pkey  |          4841472
 2017-02-04 17:10:46.504321+01 | 1486224646.50432 | pgbench_accounts_pkey |       2246197248

 2017-02-04 17:10:47.585011+01 | 1486224647.58501 | pgbench_branches_pkey |          1294336
 2017-02-04 17:10:47.585011+01 | 1486224647.58501 | pgbench_tellers_pkey  |          4841472
 2017-02-04 17:10:47.585011+01 | 1486224647.58501 | pgbench_accounts_pkey |       2246197248

 2017-02-04 17:10:48.665712+01 | 1486224648.66571 | pgbench_branches_pkey |          1294336
 2017-02-04 17:10:48.665712+01 | 1486224648.66571 | pgbench_tellers_pkey  |          4841472
 2017-02-04 17:10:48.665712+01 | 1486224648.66571 | pgbench_accounts_pkey |       2246197248

 2017-02-04 17:10:49.744231+01 | 1486224649.74423 | pgbench_branches_pkey |          1294336
 2017-02-04 17:10:49.744231+01 | 1486224649.74423 | pgbench_tellers_pkey  |          4841472
 2017-02-04 17:10:49.744231+01 | 1486224649.74423 | pgbench_accounts_pkey |       2246197248

 2017-02-04 17:10:50.820341+01 | 1486224650.82034 | pgbench_branches_pkey |          1294336
 2017-02-04 17:10:50.820341+01 | 1486224650.82034 | pgbench_tellers_pkey  |          4841472
 2017-02-04 17:10:50.820341+01 | 1486224650.82034 | pgbench_accounts_pkey |       2246197248

 2017-02-04 17:10:51.901131+01 | 1486224651.90113 | pgbench_branches_pkey |          1294336
 2017-02-04 17:10:51.901131+01 | 1486224651.90113 | pgbench_tellers_pkey  |          4841472
 2017-02-04 17:10:51.901131+01 | 1486224651.90113 | pgbench_accounts_pkey |       2246197248

 2017-02-04 17:10:52.976482+01 | 1486224652.97648 | pgbench_branches_pkey |          1294336
 2017-02-04 17:10:52.976482+01 | 1486224652.97648 | pgbench_tellers_pkey  |          4841472
 2017-02-04 17:10:52.976482+01 | 1486224652.97648 | pgbench_accounts_pkey |       2246197248

 2017-02-04 17:10:54.054467+01 | 1486224654.05447 | pgbench_branches_pkey |          1294336
 2017-02-04 17:10:54.054467+01 | 1486224654.05447 | pgbench_tellers_pkey  |          4841472
 2017-02-04 17:10:54.054467+01 | 1486224654.05447 | pgbench_accounts_pkey |       2246197248

 2017-02-04 17:10:55.128273+01 | 1486224655.12827 | pgbench_branches_pkey |          1294336
 2017-02-04 17:10:55.128273+01 | 1486224655.12827 | pgbench_tellers_pkey  |          4841472
 2017-02-04 17:10:55.128273+01 | 1486224655.12827 | pgbench_accounts_pkey |       2246197248

 2017-02-04 17:10:56.213809+01 | 1486224656.21381 | pgbench_branches_pkey |          1294336
 2017-02-04 17:10:56.213809+01 | 1486224656.21381 | pgbench_tellers_pkey  |          4841472
 2017-02-04 17:10:56.213809+01 | 1486224656.21381 | pgbench_accounts_pkey |       2246197248

 2017-02-04 17:10:57.297273+01 | 1486224657.29727 | pgbench_branches_pkey |          1294336
 2017-02-04 17:10:57.297273+01 | 1486224657.29727 | pgbench_tellers_pkey  |          4841472
 2017-02-04 17:10:57.297273+01 | 1486224657.29727 | pgbench_accounts_pkey |       2246197248

 2017-02-04 17:10:58.378985+01 | 1486224658.37898 | pgbench_branches_pkey |          1294336
 2017-02-04 17:10:58.378985+01 | 1486224658.37898 | pgbench_tellers_pkey  |          4841472
 2017-02-04 17:10:58.378985+01 | 1486224658.37898 | pgbench_accounts_pkey |       2246197248

 2017-02-04 17:10:59.469539+01 | 1486224659.46954 | pgbench_branches_pkey |          1294336
 2017-02-04 17:10:59.469539+01 | 1486224659.46954 | pgbench_tellers_pkey  |          4841472
 2017-02-04 17:10:59.469539+01 | 1486224659.46954 | pgbench_accounts_pkey |       2246197248

 2017-02-04 17:11:00.537089+01 | 1486224660.53709 | pgbench_branches_pkey |          1294336
 2017-02-04 17:11:00.537089+01 | 1486224660.53709 | pgbench_tellers_pkey  |          4841472
 2017-02-04 17:11:00.537089+01 | 1486224660.53709 | pgbench_accounts_pkey |       2246197248

 2017-02-04 17:11:01.62468+01 | 1486224661.62468 | pgbench_branches_pkey |          1294336
 2017-02-04 17:11:01.62468+01 | 1486224661.62468 | pgbench_tellers_pkey  |          4841472
 2017-02-04 17:11:01.62468+01 | 1486224661.62468 | pgbench_accounts_pkey |       2246197248

 2017-02-04 17:11:02.704694+01 | 1486224662.70469 | pgbench_branches_pkey |          1294336
 2017-02-04 17:11:02.704694+01 | 1486224662.70469 | pgbench_tellers_pkey  |          4841472
 2017-02-04 17:11:02.704694+01 | 1486224662.70469 | pgbench_accounts_pkey |       2246197248

 2017-02-04 17:11:03.784615+01 | 1486224663.78462 | pgbench_branches_pkey |          1294336
 2017-02-04 17:11:03.784615+01 | 1486224663.78462 | pgbench_tellers_pkey  |          4841472
 2017-02-04 17:11:03.784615+01 | 1486224663.78462 | pgbench_accounts_pkey |       2246197248

 2017-02-04 17:11:04.854385+01 | 1486224664.85438 | pgbench_branches_pkey |          1294336
 2017-02-04 17:11:04.854385+01 | 1486224664.85438 | pgbench_tellers_pkey  |          4841472
 2017-02-04 17:11:04.854385+01 | 1486224664.85438 | pgbench_accounts_pkey |       2246197248

 2017-02-04 17:11:05.929015+01 | 1486224665.92901 | pgbench_branches_pkey |          1294336
 2017-02-04 17:11:05.929015+01 | 1486224665.92901 | pgbench_tellers_pkey  |          4841472
 2017-02-04 17:11:05.929015+01 | 1486224665.92901 | pgbench_accounts_pkey |       2246197248

 2017-02-04 17:11:07.005162+01 | 1486224667.00516 | pgbench_branches_pkey |          1294336
 2017-02-04 17:11:07.005162+01 | 1486224667.00516 | pgbench_tellers_pkey  |          4841472
 2017-02-04 17:11:07.005162+01 | 1486224667.00516 | pgbench_accounts_pkey |       2246197248

 2017-02-04 17:11:08.082757+01 | 1486224668.08276 | pgbench_branches_pkey |          1294336
 2017-02-04 17:11:08.082757+01 | 1486224668.08276 | pgbench_tellers_pkey  |          4841472
 2017-02-04 17:11:08.082757+01 | 1486224668.08276 | pgbench_accounts_pkey |       2246197248

 2017-02-04 17:11:09.166523+01 | 1486224669.16652 | pgbench_branches_pkey |          1294336
 2017-02-04 17:11:09.166523+01 | 1486224669.16652 | pgbench_tellers_pkey  |          4841472
 2017-02-04 17:11:09.166523+01 | 1486224669.16652 | pgbench_accounts_pkey |       2246197248

 2017-02-04 17:11:10.24991+01 | 1486224670.24991 | pgbench_branches_pkey |          1294336
 2017-02-04 17:11:10.24991+01 | 1486224670.24991 | pgbench_tellers_pkey  |          4841472
 2017-02-04 17:11:10.24991+01 | 1486224670.24991 | pgbench_accounts_pkey |       2246197248

 2017-02-04 17:11:11.326456+01 | 1486224671.32646 | pgbench_branches_pkey |          1294336
 2017-02-04 17:11:11.326456+01 | 1486224671.32646 | pgbench_tellers_pkey  |          4841472
 2017-02-04 17:11:11.326456+01 | 1486224671.32646 | pgbench_accounts_pkey |       2246197248

 2017-02-04 17:11:12.403067+01 | 1486224672.40307 | pgbench_branches_pkey |          1294336
 2017-02-04 17:11:12.403067+01 | 1486224672.40307 | pgbench_tellers_pkey  |          4841472
 2017-02-04 17:11:12.403067+01 | 1486224672.40307 | pgbench_accounts_pkey |       2246197248

 2017-02-04 17:11:13.489483+01 | 1486224673.48948 | pgbench_branches_pkey |          1294336
 2017-02-04 17:11:13.489483+01 | 1486224673.48948 | pgbench_tellers_pkey  |          4841472
 2017-02-04 17:11:13.489483+01 | 1486224673.48948 | pgbench_accounts_pkey |       2246197248

 2017-02-04 17:11:14.571958+01 | 1486224674.57196 | pgbench_branches_pkey |          1294336
 2017-02-04 17:11:14.571958+01 | 1486224674.57196 | pgbench_tellers_pkey  |          4841472
 2017-02-04 17:11:14.571958+01 | 1486224674.57196 | pgbench_accounts_pkey |       2246197248

 2017-02-04 17:11:15.648779+01 | 1486224675.64878 | pgbench_branches_pkey |          1294336
 2017-02-04 17:11:15.648779+01 | 1486224675.64878 | pgbench_tellers_pkey  |          4841472
 2017-02-04 17:11:15.648779+01 | 1486224675.64878 | pgbench_accounts_pkey |       2246197248

 2017-02-04 17:11:16.727278+01 | 1486224676.72728 | pgbench_branches_pkey |          1294336
 2017-02-04 17:11:16.727278+01 | 1486224676.72728 | pgbench_tellers_pkey  |          4841472
 2017-02-04 17:11:16.727278+01 | 1486224676.72728 | pgbench_accounts_pkey |       2246197248

 2017-02-04 17:11:17.803627+01 | 1486224677.80363 | pgbench_branches_pkey |          1294336
 2017-02-04 17:11:17.803627+01 | 1486224677.80363 | pgbench_tellers_pkey  |          4841472
 2017-02-04 17:11:17.803627+01 | 1486224677.80363 | pgbench_accounts_pkey |       2246197248

 2017-02-04 17:11:18.883479+01 | 1486224678.88348 | pgbench_branches_pkey |          1294336
 2017-02-04 17:11:18.883479+01 | 1486224678.88348 | pgbench_tellers_pkey  |          4841472
 2017-02-04 17:11:18.883479+01 | 1486224678.88348 | pgbench_accounts_pkey |       2246197248

