 2017-02-03 23:59:27.397354+01 | 1486162767.39735 | pgbench_accounts |       1396621312
 2017-02-03 23:59:27.397354+01 | 1486162767.39735 | pgbench_tellers  |          5980160
 2017-02-03 23:59:27.397354+01 | 1486162767.39735 | pgbench_history  |          1171456
 2017-02-03 23:59:27.397354+01 | 1486162767.39735 | pgbench_branches |          1286144

 2017-02-03 23:59:28.495306+01 | 1486162768.49531 | pgbench_accounts |       1396621312
 2017-02-03 23:59:28.495306+01 | 1486162768.49531 | pgbench_tellers  |          5980160
 2017-02-03 23:59:28.495306+01 | 1486162768.49531 | pgbench_history  |          1712128
 2017-02-03 23:59:28.495306+01 | 1486162768.49531 | pgbench_branches |          1286144

 2017-02-03 23:59:29.576901+01 | 1486162769.5769 | pgbench_accounts |       1396621312
 2017-02-03 23:59:29.576901+01 | 1486162769.5769 | pgbench_tellers  |          5980160
 2017-02-03 23:59:29.576901+01 | 1486162769.5769 | pgbench_history  |          3129344
 2017-02-03 23:59:29.576901+01 | 1486162769.5769 | pgbench_branches |          1286144

 2017-02-03 23:59:30.654447+01 | 1486162770.65445 | pgbench_accounts |       1396621312
 2017-02-03 23:59:30.654447+01 | 1486162770.65445 | pgbench_tellers  |          5980160
 2017-02-03 23:59:30.654447+01 | 1486162770.65445 | pgbench_history  |          4702208
 2017-02-03 23:59:30.654447+01 | 1486162770.65445 | pgbench_branches |          1286144

 2017-02-03 23:59:31.735406+01 | 1486162771.73541 | pgbench_accounts |       1396621312
 2017-02-03 23:59:31.735406+01 | 1486162771.73541 | pgbench_tellers  |          5980160
 2017-02-03 23:59:31.735406+01 | 1486162771.73541 | pgbench_history  |          7544832
 2017-02-03 23:59:31.735406+01 | 1486162771.73541 | pgbench_branches |          1286144

 2017-02-03 23:59:32.818015+01 | 1486162772.81802 | pgbench_accounts |       1396621312
 2017-02-03 23:59:32.818015+01 | 1486162772.81802 | pgbench_tellers  |          5980160
 2017-02-03 23:59:32.818015+01 | 1486162772.81802 | pgbench_history  |          8716288
 2017-02-03 23:59:32.818015+01 | 1486162772.81802 | pgbench_branches |          1286144

 2017-02-03 23:59:33.895358+01 | 1486162773.89536 | pgbench_accounts |       1396621312
 2017-02-03 23:59:33.895358+01 | 1486162773.89536 | pgbench_tellers  |          5980160
 2017-02-03 23:59:33.895358+01 | 1486162773.89536 | pgbench_history  |         10436608
 2017-02-03 23:59:33.895358+01 | 1486162773.89536 | pgbench_branches |          1286144

 2017-02-03 23:59:34.972069+01 | 1486162774.97207 | pgbench_accounts |       1396621312
 2017-02-03 23:59:34.972069+01 | 1486162774.97207 | pgbench_tellers  |          5980160
 2017-02-03 23:59:34.972069+01 | 1486162774.97207 | pgbench_history  |         12148736
 2017-02-03 23:59:34.972069+01 | 1486162774.97207 | pgbench_branches |          1286144

 2017-02-03 23:59:36.055174+01 | 1486162776.05517 | pgbench_accounts |       1396621312
 2017-02-03 23:59:36.055174+01 | 1486162776.05517 | pgbench_tellers  |          5980160
 2017-02-03 23:59:36.055174+01 | 1486162776.05517 | pgbench_history  |         13508608
 2017-02-03 23:59:36.055174+01 | 1486162776.05517 | pgbench_branches |          1286144

 2017-02-03 23:59:37.131829+01 | 1486162777.13183 | pgbench_accounts |       1396621312
 2017-02-03 23:59:37.131829+01 | 1486162777.13183 | pgbench_tellers  |          5980160
 2017-02-03 23:59:37.131829+01 | 1486162777.13183 | pgbench_history  |         15040512
 2017-02-03 23:59:37.131829+01 | 1486162777.13183 | pgbench_branches |          1286144

 2017-02-03 23:59:38.209443+01 | 1486162778.20944 | pgbench_accounts |       1396621312
 2017-02-03 23:59:38.209443+01 | 1486162778.20944 | pgbench_tellers  |          5980160
 2017-02-03 23:59:38.209443+01 | 1486162778.20944 | pgbench_history  |         16973824
 2017-02-03 23:59:38.209443+01 | 1486162778.20944 | pgbench_branches |          1286144

 2017-02-03 23:59:39.288307+01 | 1486162779.28831 | pgbench_accounts |       1396621312
 2017-02-03 23:59:39.288307+01 | 1486162779.28831 | pgbench_tellers  |          5980160
 2017-02-03 23:59:39.288307+01 | 1486162779.28831 | pgbench_history  |         18792448
 2017-02-03 23:59:39.288307+01 | 1486162779.28831 | pgbench_branches |          1286144

 2017-02-03 23:59:40.366774+01 | 1486162780.36677 | pgbench_accounts |       1396621312
 2017-02-03 23:59:40.366774+01 | 1486162780.36677 | pgbench_tellers  |          5980160
 2017-02-03 23:59:40.366774+01 | 1486162780.36677 | pgbench_history  |         20709376
 2017-02-03 23:59:40.366774+01 | 1486162780.36677 | pgbench_branches |          1286144

 2017-02-03 23:59:41.440032+01 | 1486162781.44003 | pgbench_accounts |       1396621312
 2017-02-03 23:59:41.440032+01 | 1486162781.44003 | pgbench_tellers  |          5980160
 2017-02-03 23:59:41.440032+01 | 1486162781.44003 | pgbench_history  |         22405120
 2017-02-03 23:59:41.440032+01 | 1486162781.44003 | pgbench_branches |          1286144

 2017-02-03 23:59:42.518058+01 | 1486162782.51806 | pgbench_accounts |       1396621312
 2017-02-03 23:59:42.518058+01 | 1486162782.51806 | pgbench_tellers  |          5980160
 2017-02-03 23:59:42.518058+01 | 1486162782.51806 | pgbench_history  |         24338432
 2017-02-03 23:59:42.518058+01 | 1486162782.51806 | pgbench_branches |          1286144

 2017-02-03 23:59:43.594511+01 | 1486162783.59451 | pgbench_accounts |       1396621312
 2017-02-03 23:59:43.594511+01 | 1486162783.59451 | pgbench_tellers  |          5980160
 2017-02-03 23:59:43.594511+01 | 1486162783.59451 | pgbench_history  |         26083328
 2017-02-03 23:59:43.594511+01 | 1486162783.59451 | pgbench_branches |          1286144

 2017-02-03 23:59:44.667438+01 | 1486162784.66744 | pgbench_accounts |       1396621312
 2017-02-03 23:59:44.667438+01 | 1486162784.66744 | pgbench_tellers  |          5980160
 2017-02-03 23:59:44.667438+01 | 1486162784.66744 | pgbench_history  |         27860992
 2017-02-03 23:59:44.667438+01 | 1486162784.66744 | pgbench_branches |          1286144

 2017-02-03 23:59:45.740676+01 | 1486162785.74068 | pgbench_accounts |       1396621312
 2017-02-03 23:59:45.740676+01 | 1486162785.74068 | pgbench_tellers  |          5980160
 2017-02-03 23:59:45.740676+01 | 1486162785.74068 | pgbench_history  |         29712384
 2017-02-03 23:59:45.740676+01 | 1486162785.74068 | pgbench_branches |          1286144

 2017-02-03 23:59:46.81398+01 | 1486162786.81398 | pgbench_accounts |       1396621312
 2017-02-03 23:59:46.81398+01 | 1486162786.81398 | pgbench_tellers  |          5980160
 2017-02-03 23:59:46.81398+01 | 1486162786.81398 | pgbench_history  |         31399936
 2017-02-03 23:59:46.81398+01 | 1486162786.81398 | pgbench_branches |          1286144

 2017-02-03 23:59:47.885796+01 | 1486162787.8858 | pgbench_accounts |       1396621312
 2017-02-03 23:59:47.885796+01 | 1486162787.8858 | pgbench_tellers  |          5980160
 2017-02-03 23:59:47.885796+01 | 1486162787.8858 | pgbench_history  |         34676736
 2017-02-03 23:59:47.885796+01 | 1486162787.8858 | pgbench_branches |          1286144

 2017-02-03 23:59:48.963015+01 | 1486162788.96302 | pgbench_accounts |       1396621312
 2017-02-03 23:59:48.963015+01 | 1486162788.96302 | pgbench_tellers  |          5980160
 2017-02-03 23:59:48.963015+01 | 1486162788.96302 | pgbench_history  |         34865152
 2017-02-03 23:59:48.963015+01 | 1486162788.96302 | pgbench_branches |          1286144

 2017-02-03 23:59:50.043448+01 | 1486162790.04345 | pgbench_accounts |       1396621312
 2017-02-03 23:59:50.043448+01 | 1486162790.04345 | pgbench_tellers  |          5980160
 2017-02-03 23:59:50.043448+01 | 1486162790.04345 | pgbench_history  |         36741120
 2017-02-03 23:59:50.043448+01 | 1486162790.04345 | pgbench_branches |          1286144

 2017-02-03 23:59:51.121877+01 | 1486162791.12188 | pgbench_accounts |       1396621312
 2017-02-03 23:59:51.121877+01 | 1486162791.12188 | pgbench_tellers  |          5980160
 2017-02-03 23:59:51.121877+01 | 1486162791.12188 | pgbench_history  |         38240256
 2017-02-03 23:59:51.121877+01 | 1486162791.12188 | pgbench_branches |          1286144

 2017-02-03 23:59:52.19535+01 | 1486162792.19535 | pgbench_accounts |       1396621312
 2017-02-03 23:59:52.19535+01 | 1486162792.19535 | pgbench_tellers  |          5980160
 2017-02-03 23:59:52.19535+01 | 1486162792.19535 | pgbench_history  |         40017920
 2017-02-03 23:59:52.19535+01 | 1486162792.19535 | pgbench_branches |          1286144

 2017-02-03 23:59:53.268458+01 | 1486162793.26846 | pgbench_accounts |       1396621312
 2017-02-03 23:59:53.268458+01 | 1486162793.26846 | pgbench_tellers  |          5980160
 2017-02-03 23:59:53.268458+01 | 1486162793.26846 | pgbench_history  |         41795584
 2017-02-03 23:59:53.268458+01 | 1486162793.26846 | pgbench_branches |          1286144

 2017-02-03 23:59:54.34573+01 | 1486162794.34573 | pgbench_accounts |       1396621312
 2017-02-03 23:59:54.34573+01 | 1486162794.34573 | pgbench_tellers  |          5980160
 2017-02-03 23:59:54.34573+01 | 1486162794.34573 | pgbench_history  |         43835392
 2017-02-03 23:59:54.34573+01 | 1486162794.34573 | pgbench_branches |          1286144

 2017-02-03 23:59:55.411776+01 | 1486162795.41178 | pgbench_accounts |       1396621312
 2017-02-03 23:59:55.411776+01 | 1486162795.41178 | pgbench_tellers  |          5980160
 2017-02-03 23:59:55.411776+01 | 1486162795.41178 | pgbench_history  |         45522944
 2017-02-03 23:59:55.411776+01 | 1486162795.41178 | pgbench_branches |          1286144

 2017-02-03 23:59:56.48935+01 | 1486162796.48935 | pgbench_accounts |       1396621312
 2017-02-03 23:59:56.48935+01 | 1486162796.48935 | pgbench_tellers  |          5980160
 2017-02-03 23:59:56.48935+01 | 1486162796.48935 | pgbench_history  |         47603712
 2017-02-03 23:59:56.48935+01 | 1486162796.48935 | pgbench_branches |          1286144

 2017-02-03 23:59:57.576765+01 | 1486162797.57677 | pgbench_accounts |       1396621312
 2017-02-03 23:59:57.576765+01 | 1486162797.57677 | pgbench_tellers  |          5980160
 2017-02-03 23:59:57.576765+01 | 1486162797.57677 | pgbench_history  |         49012736
 2017-02-03 23:59:57.576765+01 | 1486162797.57677 | pgbench_branches |          1286144

 2017-02-03 23:59:58.649903+01 | 1486162798.6499 | pgbench_accounts |       1396621312
 2017-02-03 23:59:58.649903+01 | 1486162798.6499 | pgbench_tellers  |          5980160
 2017-02-03 23:59:58.649903+01 | 1486162798.6499 | pgbench_history  |         50667520
 2017-02-03 23:59:58.649903+01 | 1486162798.6499 | pgbench_branches |          1286144

 2017-02-03 23:59:59.723785+01 | 1486162799.72378 | pgbench_accounts |       1396621312
 2017-02-03 23:59:59.723785+01 | 1486162799.72378 | pgbench_tellers  |          5980160
 2017-02-03 23:59:59.723785+01 | 1486162799.72378 | pgbench_history  |         52404224
 2017-02-03 23:59:59.723785+01 | 1486162799.72378 | pgbench_branches |          1286144

 2017-02-04 00:00:00.79407+01 | 1486162800.79407 | pgbench_accounts |       1396621312
 2017-02-04 00:00:00.79407+01 | 1486162800.79407 | pgbench_tellers  |          5980160
 2017-02-04 00:00:00.79407+01 | 1486162800.79407 | pgbench_history  |         54353920
 2017-02-04 00:00:00.79407+01 | 1486162800.79407 | pgbench_branches |          1286144

 2017-02-04 00:00:01.866061+01 | 1486162801.86606 | pgbench_accounts |       1396621312
 2017-02-04 00:00:01.866061+01 | 1486162801.86606 | pgbench_tellers  |          5980160
 2017-02-04 00:00:01.866061+01 | 1486162801.86606 | pgbench_history  |         55631872
 2017-02-04 00:00:01.866061+01 | 1486162801.86606 | pgbench_branches |          1286144

 2017-02-04 00:00:02.938819+01 | 1486162802.93882 | pgbench_accounts |       1396621312
 2017-02-04 00:00:02.938819+01 | 1486162802.93882 | pgbench_tellers  |          5980160
 2017-02-04 00:00:02.938819+01 | 1486162802.93882 | pgbench_history  |         57999360
 2017-02-04 00:00:02.938819+01 | 1486162802.93882 | pgbench_branches |          1286144

 2017-02-04 00:00:04.013619+01 | 1486162804.01362 | pgbench_accounts |       1396621312
 2017-02-04 00:00:04.013619+01 | 1486162804.01362 | pgbench_tellers  |          5980160
 2017-02-04 00:00:04.013619+01 | 1486162804.01362 | pgbench_history  |         60219392
 2017-02-04 00:00:04.013619+01 | 1486162804.01362 | pgbench_branches |          1286144

 2017-02-04 00:00:05.08674+01 | 1486162805.08674 | pgbench_accounts |       1396621312
 2017-02-04 00:00:05.08674+01 | 1486162805.08674 | pgbench_tellers  |          5980160
 2017-02-04 00:00:05.08674+01 | 1486162805.08674 | pgbench_history  |         61227008
 2017-02-04 00:00:05.08674+01 | 1486162805.08674 | pgbench_branches |          1286144

 2017-02-04 00:00:06.165292+01 | 1486162806.16529 | pgbench_accounts |       1396621312
 2017-02-04 00:00:06.165292+01 | 1486162806.16529 | pgbench_tellers  |          5980160
 2017-02-04 00:00:06.165292+01 | 1486162806.16529 | pgbench_history  |         63127552
 2017-02-04 00:00:06.165292+01 | 1486162806.16529 | pgbench_branches |          1286144

 2017-02-04 00:00:07.242048+01 | 1486162807.24205 | pgbench_accounts |       1396621312
 2017-02-04 00:00:07.242048+01 | 1486162807.24205 | pgbench_tellers  |          5980160
 2017-02-04 00:00:07.242048+01 | 1486162807.24205 | pgbench_history  |         64978944
 2017-02-04 00:00:07.242048+01 | 1486162807.24205 | pgbench_branches |          1286144

 2017-02-04 00:00:08.318764+01 | 1486162808.31876 | pgbench_accounts |       1396621312
 2017-02-04 00:00:08.318764+01 | 1486162808.31876 | pgbench_tellers  |          5980160
 2017-02-04 00:00:08.318764+01 | 1486162808.31876 | pgbench_history  |         66551808
 2017-02-04 00:00:08.318764+01 | 1486162808.31876 | pgbench_branches |          1286144

 2017-02-04 00:00:09.398921+01 | 1486162809.39892 | pgbench_accounts |       1396621312
 2017-02-04 00:00:09.398921+01 | 1486162809.39892 | pgbench_tellers  |          5980160
 2017-02-04 00:00:09.398921+01 | 1486162809.39892 | pgbench_history  |         69419008
 2017-02-04 00:00:09.398921+01 | 1486162809.39892 | pgbench_branches |          1286144

 2017-02-04 00:00:10.469504+01 | 1486162810.4695 | pgbench_accounts |       1396621312
 2017-02-04 00:00:10.469504+01 | 1486162810.4695 | pgbench_tellers  |          5980160
 2017-02-04 00:00:10.469504+01 | 1486162810.4695 | pgbench_history  |         69771264
 2017-02-04 00:00:10.469504+01 | 1486162810.4695 | pgbench_branches |          1490944

 2017-02-04 00:00:11.543537+01 | 1486162811.54354 | pgbench_accounts |       1396621312
 2017-02-04 00:00:11.543537+01 | 1486162811.54354 | pgbench_tellers  |          5980160
 2017-02-04 00:00:11.543537+01 | 1486162811.54354 | pgbench_history  |         71680000
 2017-02-04 00:00:11.543537+01 | 1486162811.54354 | pgbench_branches |          1490944

 2017-02-04 00:00:12.615451+01 | 1486162812.61545 | pgbench_accounts |       1396621312
 2017-02-04 00:00:12.615451+01 | 1486162812.61545 | pgbench_tellers  |          5980160
 2017-02-04 00:00:12.615451+01 | 1486162812.61545 | pgbench_history  |         73457664
 2017-02-04 00:00:12.615451+01 | 1486162812.61545 | pgbench_branches |          1490944

 2017-02-04 00:00:13.693059+01 | 1486162813.69306 | pgbench_accounts |       1396621312
 2017-02-04 00:00:13.693059+01 | 1486162813.69306 | pgbench_tellers  |          5980160
 2017-02-04 00:00:13.693059+01 | 1486162813.69306 | pgbench_history  |         75046912
 2017-02-04 00:00:13.693059+01 | 1486162813.69306 | pgbench_branches |          1490944

 2017-02-04 00:00:14.765213+01 | 1486162814.76521 | pgbench_accounts |       1396621312
 2017-02-04 00:00:14.765213+01 | 1486162814.76521 | pgbench_tellers  |          5980160
 2017-02-04 00:00:14.765213+01 | 1486162814.76521 | pgbench_history  |         76750848
 2017-02-04 00:00:14.765213+01 | 1486162814.76521 | pgbench_branches |          1490944

 2017-02-04 00:00:15.839474+01 | 1486162815.83947 | pgbench_accounts |       1396621312
 2017-02-04 00:00:15.839474+01 | 1486162815.83947 | pgbench_tellers  |          5980160
 2017-02-04 00:00:15.839474+01 | 1486162815.83947 | pgbench_history  |         78536704
 2017-02-04 00:00:15.839474+01 | 1486162815.83947 | pgbench_branches |          1490944

 2017-02-04 00:00:16.911198+01 | 1486162816.9112 | pgbench_accounts |       1396621312
 2017-02-04 00:00:16.911198+01 | 1486162816.9112 | pgbench_tellers  |          5980160
 2017-02-04 00:00:16.911198+01 | 1486162816.9112 | pgbench_history  |         80781312
 2017-02-04 00:00:16.911198+01 | 1486162816.9112 | pgbench_branches |          1490944

 2017-02-04 00:00:17.988288+01 | 1486162817.98829 | pgbench_accounts |       1396621312
 2017-02-04 00:00:17.988288+01 | 1486162817.98829 | pgbench_tellers  |          5980160
 2017-02-04 00:00:17.988288+01 | 1486162817.98829 | pgbench_history  |         82329600
 2017-02-04 00:00:17.988288+01 | 1486162817.98829 | pgbench_branches |          1490944

 2017-02-04 00:00:19.068012+01 | 1486162819.06801 | pgbench_accounts |       1396621312
 2017-02-04 00:00:19.068012+01 | 1486162819.06801 | pgbench_tellers  |          5980160
 2017-02-04 00:00:19.068012+01 | 1486162819.06801 | pgbench_history  |         83894272
 2017-02-04 00:00:19.068012+01 | 1486162819.06801 | pgbench_branches |          1490944

 2017-02-04 00:00:20.146023+01 | 1486162820.14602 | pgbench_accounts |       1396621312
 2017-02-04 00:00:20.146023+01 | 1486162820.14602 | pgbench_tellers  |          5980160
 2017-02-04 00:00:20.146023+01 | 1486162820.14602 | pgbench_history  |         85319680
 2017-02-04 00:00:20.146023+01 | 1486162820.14602 | pgbench_branches |          1490944

 2017-02-04 00:00:21.228063+01 | 1486162821.22806 | pgbench_accounts |       1396621312
 2017-02-04 00:00:21.228063+01 | 1486162821.22806 | pgbench_tellers  |          5980160
 2017-02-04 00:00:21.228063+01 | 1486162821.22806 | pgbench_history  |         86908928
 2017-02-04 00:00:21.228063+01 | 1486162821.22806 | pgbench_branches |          1490944

 2017-02-04 00:00:22.30381+01 | 1486162822.30381 | pgbench_accounts |       1396621312
 2017-02-04 00:00:22.30381+01 | 1486162822.30381 | pgbench_tellers  |          5980160
 2017-02-04 00:00:22.30381+01 | 1486162822.30381 | pgbench_history  |         88670208
 2017-02-04 00:00:22.30381+01 | 1486162822.30381 | pgbench_branches |          1490944

 2017-02-04 00:00:23.382728+01 | 1486162823.38273 | pgbench_accounts |       1396621312
 2017-02-04 00:00:23.382728+01 | 1486162823.38273 | pgbench_tellers  |          5980160
 2017-02-04 00:00:23.382728+01 | 1486162823.38273 | pgbench_history  |         91004928
 2017-02-04 00:00:23.382728+01 | 1486162823.38273 | pgbench_branches |          1490944

 2017-02-04 00:00:24.45949+01 | 1486162824.45949 | pgbench_accounts |       1396621312
 2017-02-04 00:00:24.45949+01 | 1486162824.45949 | pgbench_tellers  |          5980160
 2017-02-04 00:00:24.45949+01 | 1486162824.45949 | pgbench_history  |         92585984
 2017-02-04 00:00:24.45949+01 | 1486162824.45949 | pgbench_branches |          1490944

 2017-02-04 00:00:25.530185+01 | 1486162825.53018 | pgbench_accounts |       1396621312
 2017-02-04 00:00:25.530185+01 | 1486162825.53018 | pgbench_tellers  |          5980160
 2017-02-04 00:00:25.530185+01 | 1486162825.53018 | pgbench_history  |         93986816
 2017-02-04 00:00:25.530185+01 | 1486162825.53018 | pgbench_branches |          1490944

 2017-02-04 00:00:26.601796+01 | 1486162826.6018 | pgbench_accounts |       1396621312
 2017-02-04 00:00:26.601796+01 | 1486162826.6018 | pgbench_tellers  |          5980160
 2017-02-04 00:00:26.601796+01 | 1486162826.6018 | pgbench_history  |         96518144
 2017-02-04 00:00:26.601796+01 | 1486162826.6018 | pgbench_branches |          1490944

 2017-02-04 00:00:27.678585+01 | 1486162827.67859 | pgbench_accounts |       1396621312
 2017-02-04 00:00:27.678585+01 | 1486162827.67859 | pgbench_tellers  |          5980160
 2017-02-04 00:00:27.678585+01 | 1486162827.67859 | pgbench_history  |         98394112
 2017-02-04 00:00:27.678585+01 | 1486162827.67859 | pgbench_branches |          1490944

 2017-02-04 00:00:28.74882+01 | 1486162828.74882 | pgbench_accounts |       1396621312
 2017-02-04 00:00:28.74882+01 | 1486162828.74882 | pgbench_tellers  |          5980160
 2017-02-04 00:00:28.74882+01 | 1486162828.74882 | pgbench_history  |         99942400
 2017-02-04 00:00:28.74882+01 | 1486162828.74882 | pgbench_branches |          1490944

 2017-02-04 00:00:29.821772+01 | 1486162829.82177 | pgbench_accounts |       1396621312
 2017-02-04 00:00:29.821772+01 | 1486162829.82177 | pgbench_tellers  |          5980160
 2017-02-04 00:00:29.821772+01 | 1486162829.82177 | pgbench_history  |        100990976
 2017-02-04 00:00:29.821772+01 | 1486162829.82177 | pgbench_branches |          1490944

 2017-02-04 00:00:30.897047+01 | 1486162830.89705 | pgbench_accounts |       1396621312
 2017-02-04 00:00:30.897047+01 | 1486162830.89705 | pgbench_tellers  |          5980160
 2017-02-04 00:00:30.897047+01 | 1486162830.89705 | pgbench_history  |        103243776
 2017-02-04 00:00:30.897047+01 | 1486162830.89705 | pgbench_branches |          1490944

 2017-02-04 00:00:31.974898+01 | 1486162831.9749 | pgbench_accounts |       1396621312
 2017-02-04 00:00:31.974898+01 | 1486162831.9749 | pgbench_tellers  |          5980160
 2017-02-04 00:00:31.974898+01 | 1486162831.9749 | pgbench_history  |        104275968
 2017-02-04 00:00:31.974898+01 | 1486162831.9749 | pgbench_branches |          1490944

 2017-02-04 00:00:33.057097+01 | 1486162833.0571 | pgbench_accounts |       1396621312
 2017-02-04 00:00:33.057097+01 | 1486162833.0571 | pgbench_tellers  |          5980160
 2017-02-04 00:00:33.057097+01 | 1486162833.0571 | pgbench_history  |        105988096
 2017-02-04 00:00:33.057097+01 | 1486162833.0571 | pgbench_branches |          1490944

 2017-02-04 00:00:34.134966+01 | 1486162834.13497 | pgbench_accounts |       1396621312
 2017-02-04 00:00:34.134966+01 | 1486162834.13497 | pgbench_tellers  |          5980160
 2017-02-04 00:00:34.134966+01 | 1486162834.13497 | pgbench_history  |        107585536
 2017-02-04 00:00:34.134966+01 | 1486162834.13497 | pgbench_branches |          1490944

 2017-02-04 00:00:35.208566+01 | 1486162835.20857 | pgbench_accounts |       1396621312
 2017-02-04 00:00:35.208566+01 | 1486162835.20857 | pgbench_tellers  |          5980160
 2017-02-04 00:00:35.208566+01 | 1486162835.20857 | pgbench_history  |        109690880
 2017-02-04 00:00:35.208566+01 | 1486162835.20857 | pgbench_branches |          1490944

 2017-02-04 00:00:36.280175+01 | 1486162836.28017 | pgbench_accounts |       1396621312
 2017-02-04 00:00:36.280175+01 | 1486162836.28017 | pgbench_tellers  |          5980160
 2017-02-04 00:00:36.280175+01 | 1486162836.28017 | pgbench_history  |        111099904
 2017-02-04 00:00:36.280175+01 | 1486162836.28017 | pgbench_branches |          1490944

 2017-02-04 00:00:37.350876+01 | 1486162837.35088 | pgbench_accounts |       1396621312
 2017-02-04 00:00:37.350876+01 | 1486162837.35088 | pgbench_tellers  |          5980160
 2017-02-04 00:00:37.350876+01 | 1486162837.35088 | pgbench_history  |        113213440
 2017-02-04 00:00:37.350876+01 | 1486162837.35088 | pgbench_branches |          1490944

 2017-02-04 00:00:38.427928+01 | 1486162838.42793 | pgbench_accounts |       1396621312
 2017-02-04 00:00:38.427928+01 | 1486162838.42793 | pgbench_tellers  |          5980160
 2017-02-04 00:00:38.427928+01 | 1486162838.42793 | pgbench_history  |        115105792
 2017-02-04 00:00:38.427928+01 | 1486162838.42793 | pgbench_branches |          1490944

 2017-02-04 00:00:39.500449+01 | 1486162839.50045 | pgbench_accounts |       1396621312
 2017-02-04 00:00:39.500449+01 | 1486162839.50045 | pgbench_tellers  |          5980160
 2017-02-04 00:00:39.500449+01 | 1486162839.50045 | pgbench_history  |        116465664
 2017-02-04 00:00:39.500449+01 | 1486162839.50045 | pgbench_branches |          1490944

 2017-02-04 00:00:40.571435+01 | 1486162840.57143 | pgbench_accounts |       1396621312
 2017-02-04 00:00:40.571435+01 | 1486162840.57143 | pgbench_tellers  |          5980160
 2017-02-04 00:00:40.571435+01 | 1486162840.57143 | pgbench_history  |        118267904
 2017-02-04 00:00:40.571435+01 | 1486162840.57143 | pgbench_branches |          1490944

 2017-02-04 00:00:41.648476+01 | 1486162841.64848 | pgbench_accounts |       1396621312
 2017-02-04 00:00:41.648476+01 | 1486162841.64848 | pgbench_tellers  |          5980160
 2017-02-04 00:00:41.648476+01 | 1486162841.64848 | pgbench_history  |        119889920
 2017-02-04 00:00:41.648476+01 | 1486162841.64848 | pgbench_branches |          1490944

 2017-02-04 00:00:42.724684+01 | 1486162842.72468 | pgbench_accounts |       1396621312
 2017-02-04 00:00:42.724684+01 | 1486162842.72468 | pgbench_tellers  |          5980160
 2017-02-04 00:00:42.724684+01 | 1486162842.72468 | pgbench_history  |        121462784
 2017-02-04 00:00:42.724684+01 | 1486162842.72468 | pgbench_branches |          1490944

 2017-02-04 00:00:43.797093+01 | 1486162843.79709 | pgbench_accounts |       1396621312
 2017-02-04 00:00:43.797093+01 | 1486162843.79709 | pgbench_tellers  |          5980160
 2017-02-04 00:00:43.797093+01 | 1486162843.79709 | pgbench_history  |        123363328
 2017-02-04 00:00:43.797093+01 | 1486162843.79709 | pgbench_branches |          1490944

 2017-02-04 00:00:44.870106+01 | 1486162844.87011 | pgbench_accounts |       1396621312
 2017-02-04 00:00:44.870106+01 | 1486162844.87011 | pgbench_tellers  |          5980160
 2017-02-04 00:00:44.870106+01 | 1486162844.87011 | pgbench_history  |        125362176
 2017-02-04 00:00:44.870106+01 | 1486162844.87011 | pgbench_branches |          1490944

 2017-02-04 00:00:45.946596+01 | 1486162845.9466 | pgbench_accounts |       1396621312
 2017-02-04 00:00:45.946596+01 | 1486162845.9466 | pgbench_tellers  |          5980160
 2017-02-04 00:00:45.946596+01 | 1486162845.9466 | pgbench_history  |        126926848
 2017-02-04 00:00:45.946596+01 | 1486162845.9466 | pgbench_branches |          1490944

 2017-02-04 00:00:47.018485+01 | 1486162847.01849 | pgbench_accounts |       1396621312
 2017-02-04 00:00:47.018485+01 | 1486162847.01849 | pgbench_tellers  |          5980160
 2017-02-04 00:00:47.018485+01 | 1486162847.01849 | pgbench_history  |        128516096
 2017-02-04 00:00:47.018485+01 | 1486162847.01849 | pgbench_branches |          1490944

 2017-02-04 00:00:48.091729+01 | 1486162848.09173 | pgbench_accounts |       1396621312
 2017-02-04 00:00:48.091729+01 | 1486162848.09173 | pgbench_tellers  |          5980160
 2017-02-04 00:00:48.091729+01 | 1486162848.09173 | pgbench_history  |        130277376
 2017-02-04 00:00:48.091729+01 | 1486162848.09173 | pgbench_branches |          1490944

 2017-02-04 00:00:49.162925+01 | 1486162849.16293 | pgbench_accounts |       1396621312
 2017-02-04 00:00:49.162925+01 | 1486162849.16293 | pgbench_tellers  |          5980160
 2017-02-04 00:00:49.162925+01 | 1486162849.16293 | pgbench_history  |        132268032
 2017-02-04 00:00:49.162925+01 | 1486162849.16293 | pgbench_branches |          1490944

 2017-02-04 00:00:50.237+01 | 1486162850.237 | pgbench_accounts |       1396621312
 2017-02-04 00:00:50.237+01 | 1486162850.237 | pgbench_tellers  |          5980160
 2017-02-04 00:00:50.237+01 | 1486162850.237 | pgbench_history  |        134004736
 2017-02-04 00:00:50.237+01 | 1486162850.237 | pgbench_branches |          1490944

 2017-02-04 00:00:51.314597+01 | 1486162851.3146 | pgbench_accounts |       1396621312
 2017-02-04 00:00:51.314597+01 | 1486162851.3146 | pgbench_tellers  |          5980160
 2017-02-04 00:00:51.314597+01 | 1486162851.3146 | pgbench_history  |        135716864
 2017-02-04 00:00:51.314597+01 | 1486162851.3146 | pgbench_branches |          1490944

 2017-02-04 00:00:52.388861+01 | 1486162852.38886 | pgbench_accounts |       1396621312
 2017-02-04 00:00:52.388861+01 | 1486162852.38886 | pgbench_tellers  |          5980160
 2017-02-04 00:00:52.388861+01 | 1486162852.38886 | pgbench_history  |        137641984
 2017-02-04 00:00:52.388861+01 | 1486162852.38886 | pgbench_branches |          1490944

 2017-02-04 00:00:53.46194+01 | 1486162853.46194 | pgbench_accounts |       1396621312
 2017-02-04 00:00:53.46194+01 | 1486162853.46194 | pgbench_tellers  |          5980160
 2017-02-04 00:00:53.46194+01 | 1486162853.46194 | pgbench_history  |        139526144
 2017-02-04 00:00:53.46194+01 | 1486162853.46194 | pgbench_branches |          1490944

 2017-02-04 00:00:54.539826+01 | 1486162854.53983 | pgbench_accounts |       1396621312
 2017-02-04 00:00:54.539826+01 | 1486162854.53983 | pgbench_tellers  |          5980160
 2017-02-04 00:00:54.539826+01 | 1486162854.53983 | pgbench_history  |        141484032
 2017-02-04 00:00:54.539826+01 | 1486162854.53983 | pgbench_branches |          1490944

 2017-02-04 00:00:55.603085+01 | 1486162855.60309 | pgbench_accounts |       1396621312
 2017-02-04 00:00:55.603085+01 | 1486162855.60309 | pgbench_tellers  |          5980160
 2017-02-04 00:00:55.603085+01 | 1486162855.60309 | pgbench_history  |        142352384
 2017-02-04 00:00:55.603085+01 | 1486162855.60309 | pgbench_branches |          1490944

 2017-02-04 00:00:56.674912+01 | 1486162856.67491 | pgbench_accounts |       1396621312
 2017-02-04 00:00:56.674912+01 | 1486162856.67491 | pgbench_tellers  |          5980160
 2017-02-04 00:00:56.674912+01 | 1486162856.67491 | pgbench_history  |        144097280
 2017-02-04 00:00:56.674912+01 | 1486162856.67491 | pgbench_branches |          1490944

 2017-02-04 00:00:57.751773+01 | 1486162857.75177 | pgbench_accounts |       1396621312
 2017-02-04 00:00:57.751773+01 | 1486162857.75177 | pgbench_tellers  |          5980160
 2017-02-04 00:00:57.751773+01 | 1486162857.75177 | pgbench_history  |        145883136
 2017-02-04 00:00:57.751773+01 | 1486162857.75177 | pgbench_branches |          1490944

 2017-02-04 00:00:58.830812+01 | 1486162858.83081 | pgbench_accounts |       1396621312
 2017-02-04 00:00:58.830812+01 | 1486162858.83081 | pgbench_tellers  |          5980160
 2017-02-04 00:00:58.830812+01 | 1486162858.83081 | pgbench_history  |        147759104
 2017-02-04 00:00:58.830812+01 | 1486162858.83081 | pgbench_branches |          1490944

 2017-02-04 00:00:59.912685+01 | 1486162859.91268 | pgbench_accounts |       1396621312
 2017-02-04 00:00:59.912685+01 | 1486162859.91268 | pgbench_tellers  |          5980160
 2017-02-04 00:00:59.912685+01 | 1486162859.91268 | pgbench_history  |        149684224
 2017-02-04 00:00:59.912685+01 | 1486162859.91268 | pgbench_branches |          1490944

 2017-02-04 00:01:00.990597+01 | 1486162860.9906 | pgbench_accounts |       1396621312
 2017-02-04 00:01:00.990597+01 | 1486162860.9906 | pgbench_tellers  |          5980160
 2017-02-04 00:01:00.990597+01 | 1486162860.9906 | pgbench_history  |        151429120
 2017-02-04 00:01:00.990597+01 | 1486162860.9906 | pgbench_branches |          1490944

 2017-02-04 00:01:02.064107+01 | 1486162862.06411 | pgbench_accounts |       1396621312
 2017-02-04 00:01:02.064107+01 | 1486162862.06411 | pgbench_tellers  |          5980160
 2017-02-04 00:01:02.064107+01 | 1486162862.06411 | pgbench_history  |        153092096
 2017-02-04 00:01:02.064107+01 | 1486162862.06411 | pgbench_branches |          1490944

 2017-02-04 00:01:03.136017+01 | 1486162863.13602 | pgbench_accounts |       1396621312
 2017-02-04 00:01:03.136017+01 | 1486162863.13602 | pgbench_tellers  |          5980160
 2017-02-04 00:01:03.136017+01 | 1486162863.13602 | pgbench_history  |        154779648
 2017-02-04 00:01:03.136017+01 | 1486162863.13602 | pgbench_branches |          1490944

 2017-02-04 00:01:04.206718+01 | 1486162864.20672 | pgbench_accounts |       1396621312
 2017-02-04 00:01:04.206718+01 | 1486162864.20672 | pgbench_tellers  |          5980160
 2017-02-04 00:01:04.206718+01 | 1486162864.20672 | pgbench_history  |        156704768
 2017-02-04 00:01:04.206718+01 | 1486162864.20672 | pgbench_branches |          1490944

 2017-02-04 00:01:05.284768+01 | 1486162865.28477 | pgbench_accounts |       1396621312
 2017-02-04 00:01:05.284768+01 | 1486162865.28477 | pgbench_tellers  |          5980160
 2017-02-04 00:01:05.284768+01 | 1486162865.28477 | pgbench_history  |        158564352
 2017-02-04 00:01:05.284768+01 | 1486162865.28477 | pgbench_branches |          1490944

 2017-02-04 00:01:06.359668+01 | 1486162866.35967 | pgbench_accounts |       1396621312
 2017-02-04 00:01:06.359668+01 | 1486162866.35967 | pgbench_tellers  |          5980160
 2017-02-04 00:01:06.359668+01 | 1486162866.35967 | pgbench_history  |        159965184
 2017-02-04 00:01:06.359668+01 | 1486162866.35967 | pgbench_branches |          1490944

 2017-02-04 00:01:07.435009+01 | 1486162867.43501 | pgbench_accounts |       1396621312
 2017-02-04 00:01:07.435009+01 | 1486162867.43501 | pgbench_tellers  |          5980160
 2017-02-04 00:01:07.435009+01 | 1486162867.43501 | pgbench_history  |        161865728
 2017-02-04 00:01:07.435009+01 | 1486162867.43501 | pgbench_branches |          1490944

 2017-02-04 00:01:08.498306+01 | 1486162868.49831 | pgbench_accounts |       1396621312
 2017-02-04 00:01:08.498306+01 | 1486162868.49831 | pgbench_tellers  |          5980160
 2017-02-04 00:01:08.498306+01 | 1486162868.49831 | pgbench_history  |        163586048
 2017-02-04 00:01:08.498306+01 | 1486162868.49831 | pgbench_branches |          1490944

 2017-02-04 00:01:09.572761+01 | 1486162869.57276 | pgbench_accounts |       1396621312
 2017-02-04 00:01:09.572761+01 | 1486162869.57276 | pgbench_tellers  |          5980160
 2017-02-04 00:01:09.572761+01 | 1486162869.57276 | pgbench_history  |        165625856
 2017-02-04 00:01:09.572761+01 | 1486162869.57276 | pgbench_branches |          1843200

 2017-02-04 00:01:10.644326+01 | 1486162870.64433 | pgbench_accounts |       1396621312
 2017-02-04 00:01:10.644326+01 | 1486162870.64433 | pgbench_tellers  |          5980160
 2017-02-04 00:01:10.644326+01 | 1486162870.64433 | pgbench_history  |        167313408
 2017-02-04 00:01:10.644326+01 | 1486162870.64433 | pgbench_branches |          1843200

 2017-02-04 00:01:11.721623+01 | 1486162871.72162 | pgbench_accounts |       1396621312
 2017-02-04 00:01:11.721623+01 | 1486162871.72162 | pgbench_tellers  |          5980160
 2017-02-04 00:01:11.721623+01 | 1486162871.72162 | pgbench_history  |        169000960
 2017-02-04 00:01:11.721623+01 | 1486162871.72162 | pgbench_branches |          1843200

 2017-02-04 00:01:12.795181+01 | 1486162872.79518 | pgbench_accounts |       1396621312
 2017-02-04 00:01:12.795181+01 | 1486162872.79518 | pgbench_tellers  |          5980160
 2017-02-04 00:01:12.795181+01 | 1486162872.79518 | pgbench_history  |        170557440
 2017-02-04 00:01:12.795181+01 | 1486162872.79518 | pgbench_branches |          1843200

 2017-02-04 00:01:13.878685+01 | 1486162873.87868 | pgbench_accounts |       1396621312
 2017-02-04 00:01:13.878685+01 | 1486162873.87868 | pgbench_tellers  |          5980160
 2017-02-04 00:01:13.878685+01 | 1486162873.87868 | pgbench_history  |        172769280
 2017-02-04 00:01:13.878685+01 | 1486162873.87868 | pgbench_branches |          1843200

 2017-02-04 00:01:14.963558+01 | 1486162874.96356 | pgbench_accounts |       1396621312
 2017-02-04 00:01:14.963558+01 | 1486162874.96356 | pgbench_tellers  |          5980160
 2017-02-04 00:01:14.963558+01 | 1486162874.96356 | pgbench_history  |        174481408
 2017-02-04 00:01:14.963558+01 | 1486162874.96356 | pgbench_branches |          1843200

 2017-02-04 00:01:16.040906+01 | 1486162876.04091 | pgbench_accounts |       1396621312
 2017-02-04 00:01:16.040906+01 | 1486162876.04091 | pgbench_tellers  |          5980160
 2017-02-04 00:01:16.040906+01 | 1486162876.04091 | pgbench_history  |        176054272
 2017-02-04 00:01:16.040906+01 | 1486162876.04091 | pgbench_branches |          1843200

 2017-02-04 00:01:17.116617+01 | 1486162877.11662 | pgbench_accounts |       1396621312
 2017-02-04 00:01:17.116617+01 | 1486162877.11662 | pgbench_tellers  |          5980160
 2017-02-04 00:01:17.116617+01 | 1486162877.11662 | pgbench_history  |        177627136
 2017-02-04 00:01:17.116617+01 | 1486162877.11662 | pgbench_branches |          1843200

 2017-02-04 00:01:18.196709+01 | 1486162878.19671 | pgbench_accounts |       1396621312
 2017-02-04 00:01:18.196709+01 | 1486162878.19671 | pgbench_tellers  |          5980160
 2017-02-04 00:01:18.196709+01 | 1486162878.19671 | pgbench_history  |        179888128
 2017-02-04 00:01:18.196709+01 | 1486162878.19671 | pgbench_branches |          1843200

 2017-02-04 00:01:19.274217+01 | 1486162879.27422 | pgbench_accounts |       1396621312
 2017-02-04 00:01:19.274217+01 | 1486162879.27422 | pgbench_tellers  |          5980160
 2017-02-04 00:01:19.274217+01 | 1486162879.27422 | pgbench_history  |        181387264
 2017-02-04 00:01:19.274217+01 | 1486162879.27422 | pgbench_branches |          1843200

 2017-02-04 00:01:20.346268+01 | 1486162880.34627 | pgbench_accounts |       1396621312
 2017-02-04 00:01:20.346268+01 | 1486162880.34627 | pgbench_tellers  |          5980160
 2017-02-04 00:01:20.346268+01 | 1486162880.34627 | pgbench_history  |        183631872
 2017-02-04 00:01:20.346268+01 | 1486162880.34627 | pgbench_branches |          1843200

 2017-02-04 00:01:21.420761+01 | 1486162881.42076 | pgbench_accounts |       1396621312
 2017-02-04 00:01:21.420761+01 | 1486162881.42076 | pgbench_tellers  |          5980160
 2017-02-04 00:01:21.420761+01 | 1486162881.42076 | pgbench_history  |        184827904
 2017-02-04 00:01:21.420761+01 | 1486162881.42076 | pgbench_branches |          1843200

 2017-02-04 00:01:22.495816+01 | 1486162882.49582 | pgbench_accounts |       1396621312
 2017-02-04 00:01:22.495816+01 | 1486162882.49582 | pgbench_tellers  |          5980160
 2017-02-04 00:01:22.495816+01 | 1486162882.49582 | pgbench_history  |        186589184
 2017-02-04 00:01:22.495816+01 | 1486162882.49582 | pgbench_branches |          1843200

 2017-02-04 00:01:23.571031+01 | 1486162883.57103 | pgbench_accounts |       1396621312
 2017-02-04 00:01:23.571031+01 | 1486162883.57103 | pgbench_tellers  |          5980160
 2017-02-04 00:01:23.571031+01 | 1486162883.57103 | pgbench_history  |        188440576
 2017-02-04 00:01:23.571031+01 | 1486162883.57103 | pgbench_branches |          1843200

 2017-02-04 00:01:24.640757+01 | 1486162884.64076 | pgbench_accounts |       1396621312
 2017-02-04 00:01:24.640757+01 | 1486162884.64076 | pgbench_tellers  |          5980160
 2017-02-04 00:01:24.640757+01 | 1486162884.64076 | pgbench_history  |        190455808
 2017-02-04 00:01:24.640757+01 | 1486162884.64076 | pgbench_branches |          1843200

 2017-02-04 00:01:25.718273+01 | 1486162885.71827 | pgbench_accounts |       1396621312
 2017-02-04 00:01:25.718273+01 | 1486162885.71827 | pgbench_tellers  |          5980160
 2017-02-04 00:01:25.718273+01 | 1486162885.71827 | pgbench_history  |        192364544
 2017-02-04 00:01:25.718273+01 | 1486162885.71827 | pgbench_branches |          1843200

 2017-02-04 00:01:26.79272+01 | 1486162886.79272 | pgbench_accounts |       1396621312
 2017-02-04 00:01:26.79272+01 | 1486162886.79272 | pgbench_tellers  |          5980160
 2017-02-04 00:01:26.79272+01 | 1486162886.79272 | pgbench_history  |        193970176
 2017-02-04 00:01:26.79272+01 | 1486162886.79272 | pgbench_branches |          1843200

 2017-02-04 00:01:27.866508+01 | 1486162887.86651 | pgbench_accounts |       1396621312
 2017-02-04 00:01:27.866508+01 | 1486162887.86651 | pgbench_tellers  |          5980160
 2017-02-04 00:01:27.866508+01 | 1486162887.86651 | pgbench_history  |        196042752
 2017-02-04 00:01:27.866508+01 | 1486162887.86651 | pgbench_branches |          1843200

 2017-02-04 00:01:28.949986+01 | 1486162888.94999 | pgbench_accounts |       1396621312
 2017-02-04 00:01:28.949986+01 | 1486162888.94999 | pgbench_tellers  |          5980160
 2017-02-04 00:01:28.949986+01 | 1486162888.94999 | pgbench_history  |        197320704
 2017-02-04 00:01:28.949986+01 | 1486162888.94999 | pgbench_branches |          1843200

 2017-02-04 00:01:30.026583+01 | 1486162890.02658 | pgbench_accounts |       1396621312
 2017-02-04 00:01:30.026583+01 | 1486162890.02658 | pgbench_tellers  |          5980160
 2017-02-04 00:01:30.026583+01 | 1486162890.02658 | pgbench_history  |        199196672
 2017-02-04 00:01:30.026583+01 | 1486162890.02658 | pgbench_branches |          1843200

 2017-02-04 00:01:31.097517+01 | 1486162891.09752 | pgbench_accounts |       1396621312
 2017-02-04 00:01:31.097517+01 | 1486162891.09752 | pgbench_tellers  |          5980160
 2017-02-04 00:01:31.097517+01 | 1486162891.09752 | pgbench_history  |        200933376
 2017-02-04 00:01:31.097517+01 | 1486162891.09752 | pgbench_branches |          1843200

 2017-02-04 00:01:32.177838+01 | 1486162892.17784 | pgbench_accounts |       1396621312
 2017-02-04 00:01:32.177838+01 | 1486162892.17784 | pgbench_tellers  |          5980160
 2017-02-04 00:01:32.177838+01 | 1486162892.17784 | pgbench_history  |        203849728
 2017-02-04 00:01:32.177838+01 | 1486162892.17784 | pgbench_branches |          1843200

 2017-02-04 00:01:33.24775+01 | 1486162893.24775 | pgbench_accounts |       1396621312
 2017-02-04 00:01:33.24775+01 | 1486162893.24775 | pgbench_tellers  |          5980160
 2017-02-04 00:01:33.24775+01 | 1486162893.24775 | pgbench_history  |        204390400
 2017-02-04 00:01:33.24775+01 | 1486162893.24775 | pgbench_branches |          1843200

 2017-02-04 00:01:34.317635+01 | 1486162894.31764 | pgbench_accounts |       1396621312
 2017-02-04 00:01:34.317635+01 | 1486162894.31764 | pgbench_tellers  |          5980160
 2017-02-04 00:01:34.317635+01 | 1486162894.31764 | pgbench_history  |        206643200
 2017-02-04 00:01:34.317635+01 | 1486162894.31764 | pgbench_branches |          1843200

 2017-02-04 00:01:35.403256+01 | 1486162895.40326 | pgbench_accounts |       1396621312
 2017-02-04 00:01:35.403256+01 | 1486162895.40326 | pgbench_tellers  |          5980160
 2017-02-04 00:01:35.403256+01 | 1486162895.40326 | pgbench_history  |        208142336
 2017-02-04 00:01:35.403256+01 | 1486162895.40326 | pgbench_branches |          1843200

 2017-02-04 00:01:36.474815+01 | 1486162896.47481 | pgbench_accounts |       1396621312
 2017-02-04 00:01:36.474815+01 | 1486162896.47481 | pgbench_tellers  |          5980160
 2017-02-04 00:01:36.474815+01 | 1486162896.47481 | pgbench_history  |        209895424
 2017-02-04 00:01:36.474815+01 | 1486162896.47481 | pgbench_branches |          1843200

 2017-02-04 00:01:37.55038+01 | 1486162897.55038 | pgbench_accounts |       1396621312
 2017-02-04 00:01:37.55038+01 | 1486162897.55038 | pgbench_tellers  |          5980160
 2017-02-04 00:01:37.55038+01 | 1486162897.55038 | pgbench_history  |        211763200
 2017-02-04 00:01:37.55038+01 | 1486162897.55038 | pgbench_branches |          1843200

 2017-02-04 00:01:38.620085+01 | 1486162898.62009 | pgbench_accounts |       1396621312
 2017-02-04 00:01:38.620085+01 | 1486162898.62009 | pgbench_tellers  |          5980160
 2017-02-04 00:01:38.620085+01 | 1486162898.62009 | pgbench_history  |        213655552
 2017-02-04 00:01:38.620085+01 | 1486162898.62009 | pgbench_branches |          1843200

 2017-02-04 00:01:39.693241+01 | 1486162899.69324 | pgbench_accounts |       1396621312
 2017-02-04 00:01:39.693241+01 | 1486162899.69324 | pgbench_tellers  |          5980160
 2017-02-04 00:01:39.693241+01 | 1486162899.69324 | pgbench_history  |        215367680
 2017-02-04 00:01:39.693241+01 | 1486162899.69324 | pgbench_branches |          1843200

 2017-02-04 00:01:40.76515+01 | 1486162900.76515 | pgbench_accounts |       1396621312
 2017-02-04 00:01:40.76515+01 | 1486162900.76515 | pgbench_tellers  |          5980160
 2017-02-04 00:01:40.76515+01 | 1486162900.76515 | pgbench_history  |        217243648
 2017-02-04 00:01:40.76515+01 | 1486162900.76515 | pgbench_branches |          1843200

 2017-02-04 00:01:41.843061+01 | 1486162901.84306 | pgbench_accounts |       1396621312
 2017-02-04 00:01:41.843061+01 | 1486162901.84306 | pgbench_tellers  |          5980160
 2017-02-04 00:01:41.843061+01 | 1486162901.84306 | pgbench_history  |        219316224
 2017-02-04 00:01:41.843061+01 | 1486162901.84306 | pgbench_branches |          1843200

 2017-02-04 00:01:42.916518+01 | 1486162902.91652 | pgbench_accounts |       1396621312
 2017-02-04 00:01:42.916518+01 | 1486162902.91652 | pgbench_tellers  |          5980160
 2017-02-04 00:01:42.916518+01 | 1486162902.91652 | pgbench_history  |        220528640
 2017-02-04 00:01:42.916518+01 | 1486162902.91652 | pgbench_branches |          1843200

 2017-02-04 00:01:43.991063+01 | 1486162903.99106 | pgbench_accounts |       1396621312
 2017-02-04 00:01:43.991063+01 | 1486162903.99106 | pgbench_tellers  |          5980160
 2017-02-04 00:01:43.991063+01 | 1486162903.99106 | pgbench_history  |        222248960
 2017-02-04 00:01:43.991063+01 | 1486162903.99106 | pgbench_branches |          1843200

 2017-02-04 00:01:45.065358+01 | 1486162905.06536 | pgbench_accounts |       1396621312
 2017-02-04 00:01:45.065358+01 | 1486162905.06536 | pgbench_tellers  |          5980160
 2017-02-04 00:01:45.065358+01 | 1486162905.06536 | pgbench_history  |        224346112
 2017-02-04 00:01:45.065358+01 | 1486162905.06536 | pgbench_branches |          1843200

 2017-02-04 00:01:46.133765+01 | 1486162906.13376 | pgbench_accounts |       1396621312
 2017-02-04 00:01:46.133765+01 | 1486162906.13376 | pgbench_tellers  |          5980160
 2017-02-04 00:01:46.133765+01 | 1486162906.13376 | pgbench_history  |        226361344
 2017-02-04 00:01:46.133765+01 | 1486162906.13376 | pgbench_branches |          1843200

 2017-02-04 00:01:47.208727+01 | 1486162907.20873 | pgbench_accounts |       1396621312
 2017-02-04 00:01:47.208727+01 | 1486162907.20873 | pgbench_tellers  |          5980160
 2017-02-04 00:01:47.208727+01 | 1486162907.20873 | pgbench_history  |        228237312
 2017-02-04 00:01:47.208727+01 | 1486162907.20873 | pgbench_branches |          1843200

 2017-02-04 00:01:48.287399+01 | 1486162908.2874 | pgbench_accounts |       1396621312
 2017-02-04 00:01:48.287399+01 | 1486162908.2874 | pgbench_tellers  |          5980160
 2017-02-04 00:01:48.287399+01 | 1486162908.2874 | pgbench_history  |        229785600
 2017-02-04 00:01:48.287399+01 | 1486162908.2874 | pgbench_branches |          1843200

 2017-02-04 00:01:49.360699+01 | 1486162909.3607 | pgbench_accounts |       1396621312
 2017-02-04 00:01:49.360699+01 | 1486162909.3607 | pgbench_tellers  |          5980160
 2017-02-04 00:01:49.360699+01 | 1486162909.3607 | pgbench_history  |        231350272
 2017-02-04 00:01:49.360699+01 | 1486162909.3607 | pgbench_branches |          1843200

 2017-02-04 00:01:50.434133+01 | 1486162910.43413 | pgbench_accounts |       1396621312
 2017-02-04 00:01:50.434133+01 | 1486162910.43413 | pgbench_tellers  |          5980160
 2017-02-04 00:01:50.434133+01 | 1486162910.43413 | pgbench_history  |        233086976
 2017-02-04 00:01:50.434133+01 | 1486162910.43413 | pgbench_branches |          1843200

 2017-02-04 00:01:51.503656+01 | 1486162911.50366 | pgbench_accounts |       1396621312
 2017-02-04 00:01:51.503656+01 | 1486162911.50366 | pgbench_tellers  |          5980160
 2017-02-04 00:01:51.503656+01 | 1486162911.50366 | pgbench_history  |        234774528
 2017-02-04 00:01:51.503656+01 | 1486162911.50366 | pgbench_branches |          1843200

 2017-02-04 00:01:52.577216+01 | 1486162912.57722 | pgbench_accounts |       1396621312
 2017-02-04 00:01:52.577216+01 | 1486162912.57722 | pgbench_tellers  |          5980160
 2017-02-04 00:01:52.577216+01 | 1486162912.57722 | pgbench_history  |        236838912
 2017-02-04 00:01:52.577216+01 | 1486162912.57722 | pgbench_branches |          1843200

 2017-02-04 00:01:53.647643+01 | 1486162913.64764 | pgbench_accounts |       1396621312
 2017-02-04 00:01:53.647643+01 | 1486162913.64764 | pgbench_tellers  |          5980160
 2017-02-04 00:01:53.647643+01 | 1486162913.64764 | pgbench_history  |        238575616
 2017-02-04 00:01:53.647643+01 | 1486162913.64764 | pgbench_branches |          1843200

 2017-02-04 00:01:54.722372+01 | 1486162914.72237 | pgbench_accounts |       1396621312
 2017-02-04 00:01:54.722372+01 | 1486162914.72237 | pgbench_tellers  |          5980160
 2017-02-04 00:01:54.722372+01 | 1486162914.72237 | pgbench_history  |        240312320
 2017-02-04 00:01:54.722372+01 | 1486162914.72237 | pgbench_branches |          1843200

 2017-02-04 00:01:55.792408+01 | 1486162915.79241 | pgbench_accounts |       1396621312
 2017-02-04 00:01:55.792408+01 | 1486162915.79241 | pgbench_tellers  |          5980160
 2017-02-04 00:01:55.792408+01 | 1486162915.79241 | pgbench_history  |        242409472
 2017-02-04 00:01:55.792408+01 | 1486162915.79241 | pgbench_branches |          1843200

 2017-02-04 00:01:56.877683+01 | 1486162916.87768 | pgbench_accounts |       1396621312
 2017-02-04 00:01:56.877683+01 | 1486162916.87768 | pgbench_tellers  |          5980160
 2017-02-04 00:01:56.877683+01 | 1486162916.87768 | pgbench_history  |        244285440
 2017-02-04 00:01:56.877683+01 | 1486162916.87768 | pgbench_branches |          1843200

 2017-02-04 00:01:57.951322+01 | 1486162917.95132 | pgbench_accounts |       1396621312
 2017-02-04 00:01:57.951322+01 | 1486162917.95132 | pgbench_tellers  |          5980160
 2017-02-04 00:01:57.951322+01 | 1486162917.95132 | pgbench_history  |        245809152
 2017-02-04 00:01:57.951322+01 | 1486162917.95132 | pgbench_branches |          1843200

 2017-02-04 00:01:59.025573+01 | 1486162919.02557 | pgbench_accounts |       1396621312
 2017-02-04 00:01:59.025573+01 | 1486162919.02557 | pgbench_tellers  |          5980160
 2017-02-04 00:01:59.025573+01 | 1486162919.02557 | pgbench_history  |        248012800
 2017-02-04 00:01:59.025573+01 | 1486162919.02557 | pgbench_branches |          1843200

 2017-02-04 00:02:00.102039+01 | 1486162920.10204 | pgbench_accounts |       1396621312
 2017-02-04 00:02:00.102039+01 | 1486162920.10204 | pgbench_tellers  |          5980160
 2017-02-04 00:02:00.102039+01 | 1486162920.10204 | pgbench_history  |        249438208
 2017-02-04 00:02:00.102039+01 | 1486162920.10204 | pgbench_branches |          1843200

 2017-02-04 00:02:01.175105+01 | 1486162921.17511 | pgbench_accounts |       1396621312
 2017-02-04 00:02:01.175105+01 | 1486162921.17511 | pgbench_tellers  |          5980160
 2017-02-04 00:02:01.175105+01 | 1486162921.17511 | pgbench_history  |        251043840
 2017-02-04 00:02:01.175105+01 | 1486162921.17511 | pgbench_branches |          1843200

 2017-02-04 00:02:02.259148+01 | 1486162922.25915 | pgbench_accounts |       1396621312
 2017-02-04 00:02:02.259148+01 | 1486162922.25915 | pgbench_tellers  |          5980160
 2017-02-04 00:02:02.259148+01 | 1486162922.25915 | pgbench_history  |        252977152
 2017-02-04 00:02:02.259148+01 | 1486162922.25915 | pgbench_branches |          1843200

 2017-02-04 00:02:03.337175+01 | 1486162923.33717 | pgbench_accounts |       1396621312
 2017-02-04 00:02:03.337175+01 | 1486162923.33717 | pgbench_tellers  |          5980160
 2017-02-04 00:02:03.337175+01 | 1486162923.33717 | pgbench_history  |        255188992
 2017-02-04 00:02:03.337175+01 | 1486162923.33717 | pgbench_branches |          1843200

 2017-02-04 00:02:04.412698+01 | 1486162924.4127 | pgbench_accounts |       1396621312
 2017-02-04 00:02:04.412698+01 | 1486162924.4127 | pgbench_tellers  |          5980160
 2017-02-04 00:02:04.412698+01 | 1486162924.4127 | pgbench_history  |        256417792
 2017-02-04 00:02:04.412698+01 | 1486162924.4127 | pgbench_branches |          1843200

 2017-02-04 00:02:05.493208+01 | 1486162925.49321 | pgbench_accounts |       1396621312
 2017-02-04 00:02:05.493208+01 | 1486162925.49321 | pgbench_tellers  |          5980160
 2017-02-04 00:02:05.493208+01 | 1486162925.49321 | pgbench_history  |        258269184
 2017-02-04 00:02:05.493208+01 | 1486162925.49321 | pgbench_branches |          1843200

 2017-02-04 00:02:06.567657+01 | 1486162926.56766 | pgbench_accounts |       1396621312
 2017-02-04 00:02:06.567657+01 | 1486162926.56766 | pgbench_tellers  |          5980160
 2017-02-04 00:02:06.567657+01 | 1486162926.56766 | pgbench_history  |        260120576
 2017-02-04 00:02:06.567657+01 | 1486162926.56766 | pgbench_branches |          1843200

 2017-02-04 00:02:07.652527+01 | 1486162927.65253 | pgbench_accounts |       1396621312
 2017-02-04 00:02:07.652527+01 | 1486162927.65253 | pgbench_tellers  |          5980160
 2017-02-04 00:02:07.652527+01 | 1486162927.65253 | pgbench_history  |        261677056
 2017-02-04 00:02:07.652527+01 | 1486162927.65253 | pgbench_branches |          1843200

 2017-02-04 00:02:08.721938+01 | 1486162928.72194 | pgbench_accounts |       1396621312
 2017-02-04 00:02:08.721938+01 | 1486162928.72194 | pgbench_tellers  |          5980160
 2017-02-04 00:02:08.721938+01 | 1486162928.72194 | pgbench_history  |        263446528
 2017-02-04 00:02:08.721938+01 | 1486162928.72194 | pgbench_branches |          1843200

 2017-02-04 00:02:09.798123+01 | 1486162929.79812 | pgbench_accounts |       1396621312
 2017-02-04 00:02:09.798123+01 | 1486162929.79812 | pgbench_tellers  |          5980160
 2017-02-04 00:02:09.798123+01 | 1486162929.79812 | pgbench_history  |        266117120
 2017-02-04 00:02:09.798123+01 | 1486162929.79812 | pgbench_branches |          2031616

 2017-02-04 00:02:10.870354+01 | 1486162930.87035 | pgbench_accounts |       1396621312
 2017-02-04 00:02:10.870354+01 | 1486162930.87035 | pgbench_tellers  |          5980160
 2017-02-04 00:02:10.870354+01 | 1486162930.87035 | pgbench_history  |        267124736
 2017-02-04 00:02:10.870354+01 | 1486162930.87035 | pgbench_branches |          2392064

 2017-02-04 00:02:11.948441+01 | 1486162931.94844 | pgbench_accounts |       1396621312
 2017-02-04 00:02:11.948441+01 | 1486162931.94844 | pgbench_tellers  |          5980160
 2017-02-04 00:02:11.948441+01 | 1486162931.94844 | pgbench_history  |        268861440
 2017-02-04 00:02:11.948441+01 | 1486162931.94844 | pgbench_branches |          2392064

 2017-02-04 00:02:13.02207+01 | 1486162933.02207 | pgbench_accounts |       1396621312
 2017-02-04 00:02:13.02207+01 | 1486162933.02207 | pgbench_tellers  |          5980160
 2017-02-04 00:02:13.02207+01 | 1486162933.02207 | pgbench_history  |        270770176
 2017-02-04 00:02:13.02207+01 | 1486162933.02207 | pgbench_branches |          2392064

 2017-02-04 00:02:14.096908+01 | 1486162934.09691 | pgbench_accounts |       1396621312
 2017-02-04 00:02:14.096908+01 | 1486162934.09691 | pgbench_tellers  |          5980160
 2017-02-04 00:02:14.096908+01 | 1486162934.09691 | pgbench_history  |        271990784
 2017-02-04 00:02:14.096908+01 | 1486162934.09691 | pgbench_branches |          2392064

 2017-02-04 00:02:15.171868+01 | 1486162935.17187 | pgbench_accounts |       1396621312
 2017-02-04 00:02:15.171868+01 | 1486162935.17187 | pgbench_tellers  |          5980160
 2017-02-04 00:02:15.171868+01 | 1486162935.17187 | pgbench_history  |        275202048
 2017-02-04 00:02:15.171868+01 | 1486162935.17187 | pgbench_branches |          2392064

 2017-02-04 00:02:16.244693+01 | 1486162936.24469 | pgbench_accounts |       1396621312
 2017-02-04 00:02:16.244693+01 | 1486162936.24469 | pgbench_tellers  |          5980160
 2017-02-04 00:02:16.244693+01 | 1486162936.24469 | pgbench_history  |        276537344
 2017-02-04 00:02:16.244693+01 | 1486162936.24469 | pgbench_branches |          2392064

 2017-02-04 00:02:17.317505+01 | 1486162937.3175 | pgbench_accounts |       1396621312
 2017-02-04 00:02:17.317505+01 | 1486162937.3175 | pgbench_tellers  |          5980160
 2017-02-04 00:02:17.317505+01 | 1486162937.3175 | pgbench_history  |        278036480
 2017-02-04 00:02:17.317505+01 | 1486162937.3175 | pgbench_branches |          2392064

 2017-02-04 00:02:18.386994+01 | 1486162938.38699 | pgbench_accounts |       1396621312
 2017-02-04 00:02:18.386994+01 | 1486162938.38699 | pgbench_tellers  |          5980160
 2017-02-04 00:02:18.386994+01 | 1486162938.38699 | pgbench_history  |        279371776
 2017-02-04 00:02:18.386994+01 | 1486162938.38699 | pgbench_branches |          2392064

 2017-02-04 00:02:19.461694+01 | 1486162939.46169 | pgbench_accounts |       1396621312
 2017-02-04 00:02:19.461694+01 | 1486162939.46169 | pgbench_tellers  |          5980160
 2017-02-04 00:02:19.461694+01 | 1486162939.46169 | pgbench_history  |        281853952
 2017-02-04 00:02:19.461694+01 | 1486162939.46169 | pgbench_branches |          2392064

 2017-02-04 00:02:20.536924+01 | 1486162940.53692 | pgbench_accounts |       1396621312
 2017-02-04 00:02:20.536924+01 | 1486162940.53692 | pgbench_tellers  |          5980160
 2017-02-04 00:02:20.536924+01 | 1486162940.53692 | pgbench_history  |        282722304
 2017-02-04 00:02:20.536924+01 | 1486162940.53692 | pgbench_branches |          2392064

 2017-02-04 00:02:21.612991+01 | 1486162941.61299 | pgbench_accounts |       1396621312
 2017-02-04 00:02:21.612991+01 | 1486162941.61299 | pgbench_tellers  |          5980160
 2017-02-04 00:02:21.612991+01 | 1486162941.61299 | pgbench_history  |        284475392
 2017-02-04 00:02:21.612991+01 | 1486162941.61299 | pgbench_branches |          2392064

 2017-02-04 00:02:22.693407+01 | 1486162942.69341 | pgbench_accounts |       1396621312
 2017-02-04 00:02:22.693407+01 | 1486162942.69341 | pgbench_tellers  |          5980160
 2017-02-04 00:02:22.693407+01 | 1486162942.69341 | pgbench_history  |        286728192
 2017-02-04 00:02:22.693407+01 | 1486162942.69341 | pgbench_branches |          2392064

 2017-02-04 00:02:23.764618+01 | 1486162943.76462 | pgbench_accounts |       1396621312
 2017-02-04 00:02:23.764618+01 | 1486162943.76462 | pgbench_tellers  |          5980160
 2017-02-04 00:02:23.764618+01 | 1486162943.76462 | pgbench_history  |        288112640
 2017-02-04 00:02:23.764618+01 | 1486162943.76462 | pgbench_branches |          2392064

 2017-02-04 00:02:24.840722+01 | 1486162944.84072 | pgbench_accounts |       1396621312
 2017-02-04 00:02:24.840722+01 | 1486162944.84072 | pgbench_tellers  |          5980160
 2017-02-04 00:02:24.840722+01 | 1486162944.84072 | pgbench_history  |        290316288
 2017-02-04 00:02:24.840722+01 | 1486162944.84072 | pgbench_branches |          2392064

 2017-02-04 00:02:25.920883+01 | 1486162945.92088 | pgbench_accounts |       1396621312
 2017-02-04 00:02:25.920883+01 | 1486162945.92088 | pgbench_tellers  |          5980160
 2017-02-04 00:02:25.920883+01 | 1486162945.92088 | pgbench_history  |        291520512
 2017-02-04 00:02:25.920883+01 | 1486162945.92088 | pgbench_branches |          2392064

 2017-02-04 00:02:26.993466+01 | 1486162946.99347 | pgbench_accounts |       1396621312
 2017-02-04 00:02:26.993466+01 | 1486162946.99347 | pgbench_tellers  |          5980160
 2017-02-04 00:02:26.993466+01 | 1486162946.99347 | pgbench_history  |        293445632
 2017-02-04 00:02:26.993466+01 | 1486162946.99347 | pgbench_branches |          2392064

 2017-02-04 00:02:28.070316+01 | 1486162948.07032 | pgbench_accounts |       1396621312
 2017-02-04 00:02:28.070316+01 | 1486162948.07032 | pgbench_tellers  |          5980160
 2017-02-04 00:02:28.070316+01 | 1486162948.07032 | pgbench_history  |        295174144
 2017-02-04 00:02:28.070316+01 | 1486162948.07032 | pgbench_branches |          2392064

 2017-02-04 00:02:29.141394+01 | 1486162949.14139 | pgbench_accounts |       1396621312
 2017-02-04 00:02:29.141394+01 | 1486162949.14139 | pgbench_tellers  |          5980160
 2017-02-04 00:02:29.141394+01 | 1486162949.14139 | pgbench_history  |        296927232
 2017-02-04 00:02:29.141394+01 | 1486162949.14139 | pgbench_branches |          2392064

 2017-02-04 00:02:30.212905+01 | 1486162950.2129 | pgbench_accounts |       1396621312
 2017-02-04 00:02:30.212905+01 | 1486162950.2129 | pgbench_tellers  |          5980160
 2017-02-04 00:02:30.212905+01 | 1486162950.2129 | pgbench_history  |        298475520
 2017-02-04 00:02:30.212905+01 | 1486162950.2129 | pgbench_branches |          2392064

 2017-02-04 00:02:31.29303+01 | 1486162951.29303 | pgbench_accounts |       1396621312
 2017-02-04 00:02:31.29303+01 | 1486162951.29303 | pgbench_tellers  |          5980160
 2017-02-04 00:02:31.29303+01 | 1486162951.29303 | pgbench_history  |        300597248
 2017-02-04 00:02:31.29303+01 | 1486162951.29303 | pgbench_branches |          2392064

 2017-02-04 00:02:32.365491+01 | 1486162952.36549 | pgbench_accounts |       1396621312
 2017-02-04 00:02:32.365491+01 | 1486162952.36549 | pgbench_tellers  |          5980160
 2017-02-04 00:02:32.365491+01 | 1486162952.36549 | pgbench_history  |        302194688
 2017-02-04 00:02:32.365491+01 | 1486162952.36549 | pgbench_branches |          2392064

 2017-02-04 00:02:33.436858+01 | 1486162953.43686 | pgbench_accounts |       1396621312
 2017-02-04 00:02:33.436858+01 | 1486162953.43686 | pgbench_tellers  |          5980160
 2017-02-04 00:02:33.436858+01 | 1486162953.43686 | pgbench_history  |        304103424
 2017-02-04 00:02:33.436858+01 | 1486162953.43686 | pgbench_branches |          2392064

 2017-02-04 00:02:34.507448+01 | 1486162954.50745 | pgbench_accounts |       1396621312
 2017-02-04 00:02:34.507448+01 | 1486162954.50745 | pgbench_tellers  |          5980160
 2017-02-04 00:02:34.507448+01 | 1486162954.50745 | pgbench_history  |        306003968
 2017-02-04 00:02:34.507448+01 | 1486162954.50745 | pgbench_branches |          2392064

 2017-02-04 00:02:35.582903+01 | 1486162955.5829 | pgbench_accounts |       1396621312
 2017-02-04 00:02:35.582903+01 | 1486162955.5829 | pgbench_tellers  |          5980160
 2017-02-04 00:02:35.582903+01 | 1486162955.5829 | pgbench_history  |        307372032
 2017-02-04 00:02:35.582903+01 | 1486162955.5829 | pgbench_branches |          2392064

 2017-02-04 00:02:36.655854+01 | 1486162956.65585 | pgbench_accounts |       1396621312
 2017-02-04 00:02:36.655854+01 | 1486162956.65585 | pgbench_tellers  |          5980160
 2017-02-04 00:02:36.655854+01 | 1486162956.65585 | pgbench_history  |        309313536
 2017-02-04 00:02:36.655854+01 | 1486162956.65585 | pgbench_branches |          2392064

 2017-02-04 00:02:37.730216+01 | 1486162957.73022 | pgbench_accounts |       1396621312
 2017-02-04 00:02:37.730216+01 | 1486162957.73022 | pgbench_tellers  |          5980160
 2017-02-04 00:02:37.730216+01 | 1486162957.73022 | pgbench_history  |        310861824
 2017-02-04 00:02:37.730216+01 | 1486162957.73022 | pgbench_branches |          2392064

 2017-02-04 00:02:38.803197+01 | 1486162958.8032 | pgbench_accounts |       1396621312
 2017-02-04 00:02:38.803197+01 | 1486162958.8032 | pgbench_tellers  |          5980160
 2017-02-04 00:02:38.803197+01 | 1486162958.8032 | pgbench_history  |        312598528
 2017-02-04 00:02:38.803197+01 | 1486162958.8032 | pgbench_branches |          2392064

 2017-02-04 00:02:39.877079+01 | 1486162959.87708 | pgbench_accounts |       1396621312
 2017-02-04 00:02:39.877079+01 | 1486162959.87708 | pgbench_tellers  |          5980160
 2017-02-04 00:02:39.877079+01 | 1486162959.87708 | pgbench_history  |        314499072
 2017-02-04 00:02:39.877079+01 | 1486162959.87708 | pgbench_branches |          2392064

 2017-02-04 00:02:40.954487+01 | 1486162960.95449 | pgbench_accounts |       1396621312
 2017-02-04 00:02:40.954487+01 | 1486162960.95449 | pgbench_tellers  |          5980160
 2017-02-04 00:02:40.954487+01 | 1486162960.95449 | pgbench_history  |        316407808
 2017-02-04 00:02:40.954487+01 | 1486162960.95449 | pgbench_branches |          2392064

 2017-02-04 00:02:42.029201+01 | 1486162962.0292 | pgbench_accounts |       1396621312
 2017-02-04 00:02:42.029201+01 | 1486162962.0292 | pgbench_tellers  |          5980160
 2017-02-04 00:02:42.029201+01 | 1486162962.0292 | pgbench_history  |        318177280
 2017-02-04 00:02:42.029201+01 | 1486162962.0292 | pgbench_branches |          2392064

 2017-02-04 00:02:43.108469+01 | 1486162963.10847 | pgbench_accounts |       1396621312
 2017-02-04 00:02:43.108469+01 | 1486162963.10847 | pgbench_tellers  |          5980160
 2017-02-04 00:02:43.108469+01 | 1486162963.10847 | pgbench_history  |        319750144
 2017-02-04 00:02:43.108469+01 | 1486162963.10847 | pgbench_branches |          2392064

 2017-02-04 00:02:44.186914+01 | 1486162964.18691 | pgbench_accounts |       1396621312
 2017-02-04 00:02:44.186914+01 | 1486162964.18691 | pgbench_tellers  |          5980160
 2017-02-04 00:02:44.186914+01 | 1486162964.18691 | pgbench_history  |        321331200
 2017-02-04 00:02:44.186914+01 | 1486162964.18691 | pgbench_branches |          2392064

 2017-02-04 00:02:45.263096+01 | 1486162965.2631 | pgbench_accounts |       1396621312
 2017-02-04 00:02:45.263096+01 | 1486162965.2631 | pgbench_tellers  |          5980160
 2017-02-04 00:02:45.263096+01 | 1486162965.2631 | pgbench_history  |        323231744
 2017-02-04 00:02:45.263096+01 | 1486162965.2631 | pgbench_branches |          2392064

 2017-02-04 00:02:46.330001+01 | 1486162966.33 | pgbench_accounts |       1396621312
 2017-02-04 00:02:46.330001+01 | 1486162966.33 | pgbench_tellers  |          5980160
 2017-02-04 00:02:46.330001+01 | 1486162966.33 | pgbench_history  |        325410816
 2017-02-04 00:02:46.330001+01 | 1486162966.33 | pgbench_branches |          2392064

 2017-02-04 00:02:47.409153+01 | 1486162967.40915 | pgbench_accounts |       1396621312
 2017-02-04 00:02:47.409153+01 | 1486162967.40915 | pgbench_tellers  |          5980160
 2017-02-04 00:02:47.409153+01 | 1486162967.40915 | pgbench_history  |        326483968
 2017-02-04 00:02:47.409153+01 | 1486162967.40915 | pgbench_branches |          2392064

 2017-02-04 00:02:48.483424+01 | 1486162968.48342 | pgbench_accounts |       1396621312
 2017-02-04 00:02:48.483424+01 | 1486162968.48342 | pgbench_tellers  |          5980160
 2017-02-04 00:02:48.483424+01 | 1486162968.48342 | pgbench_history  |        328245248
 2017-02-04 00:02:48.483424+01 | 1486162968.48342 | pgbench_branches |          2392064

 2017-02-04 00:02:49.55939+01 | 1486162969.55939 | pgbench_accounts |       1396621312
 2017-02-04 00:02:49.55939+01 | 1486162969.55939 | pgbench_tellers  |          5980160
 2017-02-04 00:02:49.55939+01 | 1486162969.55939 | pgbench_history  |        330178560
 2017-02-04 00:02:49.55939+01 | 1486162969.55939 | pgbench_branches |          2392064

 2017-02-04 00:02:50.639459+01 | 1486162970.63946 | pgbench_accounts |       1396621312
 2017-02-04 00:02:50.639459+01 | 1486162970.63946 | pgbench_tellers  |          5980160
 2017-02-04 00:02:50.639459+01 | 1486162970.63946 | pgbench_history  |        331767808
 2017-02-04 00:02:50.639459+01 | 1486162970.63946 | pgbench_branches |          2392064

 2017-02-04 00:02:51.714551+01 | 1486162971.71455 | pgbench_accounts |       1396621312
 2017-02-04 00:02:51.714551+01 | 1486162971.71455 | pgbench_tellers  |          5980160
 2017-02-04 00:02:51.714551+01 | 1486162971.71455 | pgbench_history  |        333832192
 2017-02-04 00:02:51.714551+01 | 1486162971.71455 | pgbench_branches |          2392064

 2017-02-04 00:02:52.790922+01 | 1486162972.79092 | pgbench_accounts |       1396621312
 2017-02-04 00:02:52.790922+01 | 1486162972.79092 | pgbench_tellers  |          5980160
 2017-02-04 00:02:52.790922+01 | 1486162972.79092 | pgbench_history  |        335519744
 2017-02-04 00:02:52.790922+01 | 1486162972.79092 | pgbench_branches |          2392064

 2017-02-04 00:02:53.865866+01 | 1486162973.86587 | pgbench_accounts |       1396621312
 2017-02-04 00:02:53.865866+01 | 1486162973.86587 | pgbench_tellers  |          5980160
 2017-02-04 00:02:53.865866+01 | 1486162973.86587 | pgbench_history  |        337444864
 2017-02-04 00:02:53.865866+01 | 1486162973.86587 | pgbench_branches |          2392064

 2017-02-04 00:02:54.937629+01 | 1486162974.93763 | pgbench_accounts |       1396621312
 2017-02-04 00:02:54.937629+01 | 1486162974.93763 | pgbench_tellers  |          5980160
 2017-02-04 00:02:54.937629+01 | 1486162974.93763 | pgbench_history  |        339320832
 2017-02-04 00:02:54.937629+01 | 1486162974.93763 | pgbench_branches |          2392064

 2017-02-04 00:02:56.015058+01 | 1486162976.01506 | pgbench_accounts |       1396621312
 2017-02-04 00:02:56.015058+01 | 1486162976.01506 | pgbench_tellers  |          5980160
 2017-02-04 00:02:56.015058+01 | 1486162976.01506 | pgbench_history  |        340869120
 2017-02-04 00:02:56.015058+01 | 1486162976.01506 | pgbench_branches |          2392064

 2017-02-04 00:02:57.09157+01 | 1486162977.09157 | pgbench_accounts |       1396621312
 2017-02-04 00:02:57.09157+01 | 1486162977.09157 | pgbench_tellers  |          5980160
 2017-02-04 00:02:57.09157+01 | 1486162977.09157 | pgbench_history  |        342614016
 2017-02-04 00:02:57.09157+01 | 1486162977.09157 | pgbench_branches |          2392064

 2017-02-04 00:02:58.166513+01 | 1486162978.16651 | pgbench_accounts |       1396621312
 2017-02-04 00:02:58.166513+01 | 1486162978.16651 | pgbench_tellers  |          5980160
 2017-02-04 00:02:58.166513+01 | 1486162978.16651 | pgbench_history  |        344891392
 2017-02-04 00:02:58.166513+01 | 1486162978.16651 | pgbench_branches |          2392064

 2017-02-04 00:02:59.247638+01 | 1486162979.24764 | pgbench_accounts |       1396621312
 2017-02-04 00:02:59.247638+01 | 1486162979.24764 | pgbench_tellers  |          5980160
 2017-02-04 00:02:59.247638+01 | 1486162979.24764 | pgbench_history  |        346628096
 2017-02-04 00:02:59.247638+01 | 1486162979.24764 | pgbench_branches |          2392064

 2017-02-04 00:03:00.327593+01 | 1486162980.32759 | pgbench_accounts |       1396621312
 2017-02-04 00:03:00.327593+01 | 1486162980.32759 | pgbench_tellers  |          5980160
 2017-02-04 00:03:00.327593+01 | 1486162980.32759 | pgbench_history  |        348348416
 2017-02-04 00:03:00.327593+01 | 1486162980.32759 | pgbench_branches |          2392064

 2017-02-04 00:03:01.404213+01 | 1486162981.40421 | pgbench_accounts |       1396621312
 2017-02-04 00:03:01.404213+01 | 1486162981.40421 | pgbench_tellers  |          5980160
 2017-02-04 00:03:01.404213+01 | 1486162981.40421 | pgbench_history  |        349872128
 2017-02-04 00:03:01.404213+01 | 1486162981.40421 | pgbench_branches |          2392064

 2017-02-04 00:03:02.485372+01 | 1486162982.48537 | pgbench_accounts |       1396621312
 2017-02-04 00:03:02.485372+01 | 1486162982.48537 | pgbench_tellers  |          5980160
 2017-02-04 00:03:02.485372+01 | 1486162982.48537 | pgbench_history  |        351748096
 2017-02-04 00:03:02.485372+01 | 1486162982.48537 | pgbench_branches |          2392064

 2017-02-04 00:03:03.561288+01 | 1486162983.56129 | pgbench_accounts |       1396621312
 2017-02-04 00:03:03.561288+01 | 1486162983.56129 | pgbench_tellers  |          5980160
 2017-02-04 00:03:03.561288+01 | 1486162983.56129 | pgbench_history  |        353624064
 2017-02-04 00:03:03.561288+01 | 1486162983.56129 | pgbench_branches |          2392064

 2017-02-04 00:03:04.636448+01 | 1486162984.63645 | pgbench_accounts |       1396621312
 2017-02-04 00:03:04.636448+01 | 1486162984.63645 | pgbench_tellers  |          5980160
 2017-02-04 00:03:04.636448+01 | 1486162984.63645 | pgbench_history  |        355500032
 2017-02-04 00:03:04.636448+01 | 1486162984.63645 | pgbench_branches |          2392064

 2017-02-04 00:03:05.706645+01 | 1486162985.70665 | pgbench_accounts |       1396621312
 2017-02-04 00:03:05.706645+01 | 1486162985.70665 | pgbench_tellers  |          5980160
 2017-02-04 00:03:05.706645+01 | 1486162985.70665 | pgbench_history  |        357023744
 2017-02-04 00:03:05.706645+01 | 1486162985.70665 | pgbench_branches |          2392064

 2017-02-04 00:03:06.778424+01 | 1486162986.77842 | pgbench_accounts |       1396621312
 2017-02-04 00:03:06.778424+01 | 1486162986.77842 | pgbench_tellers  |          5980160
 2017-02-04 00:03:06.778424+01 | 1486162986.77842 | pgbench_history  |        358785024
 2017-02-04 00:03:06.778424+01 | 1486162986.77842 | pgbench_branches |          2392064

 2017-02-04 00:03:07.85216+01 | 1486162987.85216 | pgbench_accounts |       1396621312
 2017-02-04 00:03:07.85216+01 | 1486162987.85216 | pgbench_tellers  |          5980160
 2017-02-04 00:03:07.85216+01 | 1486162987.85216 | pgbench_history  |        360357888
 2017-02-04 00:03:07.85216+01 | 1486162987.85216 | pgbench_branches |          2392064

 2017-02-04 00:03:08.921959+01 | 1486162988.92196 | pgbench_accounts |       1396621312
 2017-02-04 00:03:08.921959+01 | 1486162988.92196 | pgbench_tellers  |          5980160
 2017-02-04 00:03:08.921959+01 | 1486162988.92196 | pgbench_history  |        362110976
 2017-02-04 00:03:08.921959+01 | 1486162988.92196 | pgbench_branches |          2392064

 2017-02-04 00:03:09.993005+01 | 1486162989.99301 | pgbench_accounts |       1396621312
 2017-02-04 00:03:09.993005+01 | 1486162989.99301 | pgbench_tellers  |          5980160
 2017-02-04 00:03:09.993005+01 | 1486162989.99301 | pgbench_history  |        363642880
 2017-02-04 00:03:09.993005+01 | 1486162989.99301 | pgbench_branches |          2392064

 2017-02-04 00:03:11.068375+01 | 1486162991.06838 | pgbench_accounts |       1396621312
 2017-02-04 00:03:11.068375+01 | 1486162991.06838 | pgbench_tellers  |          5980160
 2017-02-04 00:03:11.068375+01 | 1486162991.06838 | pgbench_history  |        365920256
 2017-02-04 00:03:11.068375+01 | 1486162991.06838 | pgbench_branches |          2392064

 2017-02-04 00:03:12.144951+01 | 1486162992.14495 | pgbench_accounts |       1396621312
 2017-02-04 00:03:12.144951+01 | 1486162992.14495 | pgbench_tellers  |          5980160
 2017-02-04 00:03:12.144951+01 | 1486162992.14495 | pgbench_history  |        367001600
 2017-02-04 00:03:12.144951+01 | 1486162992.14495 | pgbench_branches |          2392064

 2017-02-04 00:03:13.221249+01 | 1486162993.22125 | pgbench_accounts |       1396621312
 2017-02-04 00:03:13.221249+01 | 1486162993.22125 | pgbench_tellers  |          5980160
 2017-02-04 00:03:13.221249+01 | 1486162993.22125 | pgbench_history  |        368820224
 2017-02-04 00:03:13.221249+01 | 1486162993.22125 | pgbench_branches |          2392064

 2017-02-04 00:03:14.293953+01 | 1486162994.29395 | pgbench_accounts |       1396621312
 2017-02-04 00:03:14.293953+01 | 1486162994.29395 | pgbench_tellers  |          5980160
 2017-02-04 00:03:14.293953+01 | 1486162994.29395 | pgbench_history  |        370442240
 2017-02-04 00:03:14.293953+01 | 1486162994.29395 | pgbench_branches |          2392064

 2017-02-04 00:03:15.3693+01 | 1486162995.3693 | pgbench_accounts |       1396621312
 2017-02-04 00:03:15.3693+01 | 1486162995.3693 | pgbench_tellers  |          5980160
 2017-02-04 00:03:15.3693+01 | 1486162995.3693 | pgbench_history  |        372506624
 2017-02-04 00:03:15.3693+01 | 1486162995.3693 | pgbench_branches |          2392064

 2017-02-04 00:03:16.443224+01 | 1486162996.44322 | pgbench_accounts |       1396621312
 2017-02-04 00:03:16.443224+01 | 1486162996.44322 | pgbench_tellers  |          5980160
 2017-02-04 00:03:16.443224+01 | 1486162996.44322 | pgbench_history  |        374398976
 2017-02-04 00:03:16.443224+01 | 1486162996.44322 | pgbench_branches |          2392064

 2017-02-04 00:03:17.517503+01 | 1486162997.5175 | pgbench_accounts |       1396621312
 2017-02-04 00:03:17.517503+01 | 1486162997.5175 | pgbench_tellers  |          5980160
 2017-02-04 00:03:17.517503+01 | 1486162997.5175 | pgbench_history  |        376438784
 2017-02-04 00:03:17.517503+01 | 1486162997.5175 | pgbench_branches |          2392064

 2017-02-04 00:03:18.589804+01 | 1486162998.5898 | pgbench_accounts |       1396621312
 2017-02-04 00:03:18.589804+01 | 1486162998.5898 | pgbench_tellers  |          5980160
 2017-02-04 00:03:18.589804+01 | 1486162998.5898 | pgbench_history  |        377651200
 2017-02-04 00:03:18.589804+01 | 1486162998.5898 | pgbench_branches |          2392064

 2017-02-04 00:03:19.666559+01 | 1486162999.66656 | pgbench_accounts |       1396621312
 2017-02-04 00:03:19.666559+01 | 1486162999.66656 | pgbench_tellers  |          5980160
 2017-02-04 00:03:19.666559+01 | 1486162999.66656 | pgbench_history  |        379551744
 2017-02-04 00:03:19.666559+01 | 1486162999.66656 | pgbench_branches |          2392064

 2017-02-04 00:03:20.741442+01 | 1486163000.74144 | pgbench_accounts |       1396621312
 2017-02-04 00:03:20.741442+01 | 1486163000.74144 | pgbench_tellers  |          5980160
 2017-02-04 00:03:20.741442+01 | 1486163000.74144 | pgbench_history  |        381427712
 2017-02-04 00:03:20.741442+01 | 1486163000.74144 | pgbench_branches |          2392064

 2017-02-04 00:03:21.815645+01 | 1486163001.81564 | pgbench_accounts |       1396621312
 2017-02-04 00:03:21.815645+01 | 1486163001.81564 | pgbench_tellers  |          5980160
 2017-02-04 00:03:21.815645+01 | 1486163001.81564 | pgbench_history  |        383156224
 2017-02-04 00:03:21.815645+01 | 1486163001.81564 | pgbench_branches |          2392064

 2017-02-04 00:03:22.890556+01 | 1486163002.89056 | pgbench_accounts |       1396621312
 2017-02-04 00:03:22.890556+01 | 1486163002.89056 | pgbench_tellers  |          5980160
 2017-02-04 00:03:22.890556+01 | 1486163002.89056 | pgbench_history  |        384917504
 2017-02-04 00:03:22.890556+01 | 1486163002.89056 | pgbench_branches |          2392064

 2017-02-04 00:03:23.968369+01 | 1486163003.96837 | pgbench_accounts |       1396621312
 2017-02-04 00:03:23.968369+01 | 1486163003.96837 | pgbench_tellers  |          5980160
 2017-02-04 00:03:23.968369+01 | 1486163003.96837 | pgbench_history  |        387334144
 2017-02-04 00:03:23.968369+01 | 1486163003.96837 | pgbench_branches |          2392064

 2017-02-04 00:03:25.039994+01 | 1486163005.03999 | pgbench_accounts |       1396621312
 2017-02-04 00:03:25.039994+01 | 1486163005.03999 | pgbench_tellers  |          5980160
 2017-02-04 00:03:25.039994+01 | 1486163005.03999 | pgbench_history  |        388726784
 2017-02-04 00:03:25.039994+01 | 1486163005.03999 | pgbench_branches |          2392064

 2017-02-04 00:03:26.117804+01 | 1486163006.1178 | pgbench_accounts |       1396621312
 2017-02-04 00:03:26.117804+01 | 1486163006.1178 | pgbench_tellers  |          5980160
 2017-02-04 00:03:26.117804+01 | 1486163006.1178 | pgbench_history  |        390152192
 2017-02-04 00:03:26.117804+01 | 1486163006.1178 | pgbench_branches |          2392064

 2017-02-04 00:03:27.18779+01 | 1486163007.18779 | pgbench_accounts |       1396621312
 2017-02-04 00:03:27.18779+01 | 1486163007.18779 | pgbench_tellers  |          5980160
 2017-02-04 00:03:27.18779+01 | 1486163007.18779 | pgbench_history  |        391979008
 2017-02-04 00:03:27.18779+01 | 1486163007.18779 | pgbench_branches |          2392064

 2017-02-04 00:03:28.261055+01 | 1486163008.26105 | pgbench_accounts |       1396621312
 2017-02-04 00:03:28.261055+01 | 1486163008.26105 | pgbench_tellers  |          5980160
 2017-02-04 00:03:28.261055+01 | 1486163008.26105 | pgbench_history  |        394158080
 2017-02-04 00:03:28.261055+01 | 1486163008.26105 | pgbench_branches |          2392064

 2017-02-04 00:03:29.332021+01 | 1486163009.33202 | pgbench_accounts |       1396621312
 2017-02-04 00:03:29.332021+01 | 1486163009.33202 | pgbench_tellers  |          5980160
 2017-02-04 00:03:29.332021+01 | 1486163009.33202 | pgbench_history  |        395763712
 2017-02-04 00:03:29.332021+01 | 1486163009.33202 | pgbench_branches |          2392064

 2017-02-04 00:03:30.405311+01 | 1486163010.40531 | pgbench_accounts |       1396621312
 2017-02-04 00:03:30.405311+01 | 1486163010.40531 | pgbench_tellers  |          5980160
 2017-02-04 00:03:30.405311+01 | 1486163010.40531 | pgbench_history  |        397320192
 2017-02-04 00:03:30.405311+01 | 1486163010.40531 | pgbench_branches |          2392064

 2017-02-04 00:03:31.486208+01 | 1486163011.48621 | pgbench_accounts |       1396621312
 2017-02-04 00:03:31.486208+01 | 1486163011.48621 | pgbench_tellers  |          5980160
 2017-02-04 00:03:31.486208+01 | 1486163011.48621 | pgbench_history  |        399040512
 2017-02-04 00:03:31.486208+01 | 1486163011.48621 | pgbench_branches |          2392064

 2017-02-04 00:03:32.56347+01 | 1486163012.56347 | pgbench_accounts |       1396621312
 2017-02-04 00:03:32.56347+01 | 1486163012.56347 | pgbench_tellers  |          5980160
 2017-02-04 00:03:32.56347+01 | 1486163012.56347 | pgbench_history  |        400941056
 2017-02-04 00:03:32.56347+01 | 1486163012.56347 | pgbench_branches |          2392064

 2017-02-04 00:03:33.635926+01 | 1486163013.63593 | pgbench_accounts |       1396621312
 2017-02-04 00:03:33.635926+01 | 1486163013.63593 | pgbench_tellers  |          5980160
 2017-02-04 00:03:33.635926+01 | 1486163013.63593 | pgbench_history  |        403357696
 2017-02-04 00:03:33.635926+01 | 1486163013.63593 | pgbench_branches |          2392064

 2017-02-04 00:03:34.710435+01 | 1486163014.71043 | pgbench_accounts |       1396621312
 2017-02-04 00:03:34.710435+01 | 1486163014.71043 | pgbench_tellers  |          5980160
 2017-02-04 00:03:34.710435+01 | 1486163014.71043 | pgbench_history  |        404840448
 2017-02-04 00:03:34.710435+01 | 1486163014.71043 | pgbench_branches |          2392064

 2017-02-04 00:03:35.783776+01 | 1486163015.78378 | pgbench_accounts |       1396621312
 2017-02-04 00:03:35.783776+01 | 1486163015.78378 | pgbench_tellers  |          5980160
 2017-02-04 00:03:35.783776+01 | 1486163015.78378 | pgbench_history  |        406757376
 2017-02-04 00:03:35.783776+01 | 1486163015.78378 | pgbench_branches |          2392064

 2017-02-04 00:03:36.871913+01 | 1486163016.87191 | pgbench_accounts |       1396621312
 2017-02-04 00:03:36.871913+01 | 1486163016.87191 | pgbench_tellers  |          5980160
 2017-02-04 00:03:36.871913+01 | 1486163016.87191 | pgbench_history  |        408477696
 2017-02-04 00:03:36.871913+01 | 1486163016.87191 | pgbench_branches |          2392064

 2017-02-04 00:03:37.943644+01 | 1486163017.94364 | pgbench_accounts |       1396621312
 2017-02-04 00:03:37.943644+01 | 1486163017.94364 | pgbench_tellers  |          5980160
 2017-02-04 00:03:37.943644+01 | 1486163017.94364 | pgbench_history  |        409870336
 2017-02-04 00:03:37.943644+01 | 1486163017.94364 | pgbench_branches |          2392064

 2017-02-04 00:03:39.017925+01 | 1486163019.01793 | pgbench_accounts |       1396621312
 2017-02-04 00:03:39.017925+01 | 1486163019.01793 | pgbench_tellers  |          5980160
 2017-02-04 00:03:39.017925+01 | 1486163019.01793 | pgbench_history  |        411639808
 2017-02-04 00:03:39.017925+01 | 1486163019.01793 | pgbench_branches |          2392064

 2017-02-04 00:03:40.090542+01 | 1486163020.09054 | pgbench_accounts |       1396621312
 2017-02-04 00:03:40.090542+01 | 1486163020.09054 | pgbench_tellers  |          5980160
 2017-02-04 00:03:40.090542+01 | 1486163020.09054 | pgbench_history  |        413868032
 2017-02-04 00:03:40.090542+01 | 1486163020.09054 | pgbench_branches |          2392064

 2017-02-04 00:03:41.162935+01 | 1486163021.16294 | pgbench_accounts |       1396621312
 2017-02-04 00:03:41.162935+01 | 1486163021.16294 | pgbench_tellers  |          5980160
 2017-02-04 00:03:41.162935+01 | 1486163021.16294 | pgbench_history  |        415121408
 2017-02-04 00:03:41.162935+01 | 1486163021.16294 | pgbench_branches |          2392064

 2017-02-04 00:03:42.235558+01 | 1486163022.23556 | pgbench_accounts |       1396621312
 2017-02-04 00:03:42.235558+01 | 1486163022.23556 | pgbench_tellers  |          5980160
 2017-02-04 00:03:42.235558+01 | 1486163022.23556 | pgbench_history  |        416997376
 2017-02-04 00:03:42.235558+01 | 1486163022.23556 | pgbench_branches |          2392064

 2017-02-04 00:03:43.307716+01 | 1486163023.30772 | pgbench_accounts |       1396621312
 2017-02-04 00:03:43.307716+01 | 1486163023.30772 | pgbench_tellers  |          5980160
 2017-02-04 00:03:43.307716+01 | 1486163023.30772 | pgbench_history  |        418897920
 2017-02-04 00:03:43.307716+01 | 1486163023.30772 | pgbench_branches |          2392064

 2017-02-04 00:03:44.389579+01 | 1486163024.38958 | pgbench_accounts |       1396621312
 2017-02-04 00:03:44.389579+01 | 1486163024.38958 | pgbench_tellers  |          5980160
 2017-02-04 00:03:44.389579+01 | 1486163024.38958 | pgbench_history  |        420782080
 2017-02-04 00:03:44.389579+01 | 1486163024.38958 | pgbench_branches |          2392064

 2017-02-04 00:03:45.463095+01 | 1486163025.46309 | pgbench_accounts |       1396621312
 2017-02-04 00:03:45.463095+01 | 1486163025.46309 | pgbench_tellers  |          5980160
 2017-02-04 00:03:45.463095+01 | 1486163025.46309 | pgbench_history  |        422330368
 2017-02-04 00:03:45.463095+01 | 1486163025.46309 | pgbench_branches |          2392064

 2017-02-04 00:03:46.533503+01 | 1486163026.5335 | pgbench_accounts |       1396621312
 2017-02-04 00:03:46.533503+01 | 1486163026.5335 | pgbench_tellers  |          5980160
 2017-02-04 00:03:46.533503+01 | 1486163026.5335 | pgbench_history  |        424091648
 2017-02-04 00:03:46.533503+01 | 1486163026.5335 | pgbench_branches |          2392064

 2017-02-04 00:03:47.617529+01 | 1486163027.61753 | pgbench_accounts |       1396621312
 2017-02-04 00:03:47.617529+01 | 1486163027.61753 | pgbench_tellers  |          5980160
 2017-02-04 00:03:47.617529+01 | 1486163027.61753 | pgbench_history  |        425639936
 2017-02-04 00:03:47.617529+01 | 1486163027.61753 | pgbench_branches |          2392064

 2017-02-04 00:03:48.691433+01 | 1486163028.69143 | pgbench_accounts |       1396621312
 2017-02-04 00:03:48.691433+01 | 1486163028.69143 | pgbench_tellers  |          5980160
 2017-02-04 00:03:48.691433+01 | 1486163028.69143 | pgbench_history  |        427515904
 2017-02-04 00:03:48.691433+01 | 1486163028.69143 | pgbench_branches |          2392064

 2017-02-04 00:03:49.771692+01 | 1486163029.77169 | pgbench_accounts |       1396621312
 2017-02-04 00:03:49.771692+01 | 1486163029.77169 | pgbench_tellers  |          5980160
 2017-02-04 00:03:49.771692+01 | 1486163029.77169 | pgbench_history  |        429228032
 2017-02-04 00:03:49.771692+01 | 1486163029.77169 | pgbench_branches |          2392064

 2017-02-04 00:03:50.839206+01 | 1486163030.83921 | pgbench_accounts |       1396621312
 2017-02-04 00:03:50.839206+01 | 1486163030.83921 | pgbench_tellers  |          5980160
 2017-02-04 00:03:50.839206+01 | 1486163030.83921 | pgbench_history  |        433045504
 2017-02-04 00:03:50.839206+01 | 1486163030.83921 | pgbench_branches |          2392064

 2017-02-04 00:03:51.919069+01 | 1486163031.91907 | pgbench_accounts |       1396621312
 2017-02-04 00:03:51.919069+01 | 1486163031.91907 | pgbench_tellers  |          5980160
 2017-02-04 00:03:51.919069+01 | 1486163031.91907 | pgbench_history  |        433045504
 2017-02-04 00:03:51.919069+01 | 1486163031.91907 | pgbench_branches |          2392064

 2017-02-04 00:03:52.992315+01 | 1486163032.99232 | pgbench_accounts |       1396621312
 2017-02-04 00:03:52.992315+01 | 1486163032.99232 | pgbench_tellers  |          5980160
 2017-02-04 00:03:52.992315+01 | 1486163032.99232 | pgbench_history  |        434896896
 2017-02-04 00:03:52.992315+01 | 1486163032.99232 | pgbench_branches |          2392064

 2017-02-04 00:03:54.06405+01 | 1486163034.06405 | pgbench_accounts |       1396621312
 2017-02-04 00:03:54.06405+01 | 1486163034.06405 | pgbench_tellers  |          5980160
 2017-02-04 00:03:54.06405+01 | 1486163034.06405 | pgbench_history  |        437002240
 2017-02-04 00:03:54.06405+01 | 1486163034.06405 | pgbench_branches |          2392064

 2017-02-04 00:03:55.135698+01 | 1486163035.1357 | pgbench_accounts |       1396621312
 2017-02-04 00:03:55.135698+01 | 1486163035.1357 | pgbench_tellers  |          5980160
 2017-02-04 00:03:55.135698+01 | 1486163035.1357 | pgbench_history  |        438886400
 2017-02-04 00:03:55.135698+01 | 1486163035.1357 | pgbench_branches |          2392064

 2017-02-04 00:03:56.209035+01 | 1486163036.20903 | pgbench_accounts |       1396621312
 2017-02-04 00:03:56.209035+01 | 1486163036.20903 | pgbench_tellers  |          5980160
 2017-02-04 00:03:56.209035+01 | 1486163036.20903 | pgbench_history  |        439943168
 2017-02-04 00:03:56.209035+01 | 1486163036.20903 | pgbench_branches |          2392064

 2017-02-04 00:03:57.285539+01 | 1486163037.28554 | pgbench_accounts |       1396621312
 2017-02-04 00:03:57.285539+01 | 1486163037.28554 | pgbench_tellers  |          5980160
 2017-02-04 00:03:57.285539+01 | 1486163037.28554 | pgbench_history  |        442032128
 2017-02-04 00:03:57.285539+01 | 1486163037.28554 | pgbench_branches |          2392064

 2017-02-04 00:03:58.359815+01 | 1486163038.35981 | pgbench_accounts |       1396621312
 2017-02-04 00:03:58.359815+01 | 1486163038.35981 | pgbench_tellers  |          5980160
 2017-02-04 00:03:58.359815+01 | 1486163038.35981 | pgbench_history  |        443400192
 2017-02-04 00:03:58.359815+01 | 1486163038.35981 | pgbench_branches |          2392064

 2017-02-04 00:03:59.435145+01 | 1486163039.43514 | pgbench_accounts |       1396621312
 2017-02-04 00:03:59.435145+01 | 1486163039.43514 | pgbench_tellers  |          5980160
 2017-02-04 00:03:59.435145+01 | 1486163039.43514 | pgbench_history  |        445276160
 2017-02-04 00:03:59.435145+01 | 1486163039.43514 | pgbench_branches |          2392064

 2017-02-04 00:04:00.49406+01 | 1486163040.49406 | pgbench_accounts |       1396621312
 2017-02-04 00:04:00.49406+01 | 1486163040.49406 | pgbench_tellers  |          5980160
 2017-02-04 00:04:00.49406+01 | 1486163040.49406 | pgbench_history  |        446988288
 2017-02-04 00:04:00.49406+01 | 1486163040.49406 | pgbench_branches |          2392064

 2017-02-04 00:04:01.57952+01 | 1486163041.57952 | pgbench_accounts |       1396621312
 2017-02-04 00:04:01.57952+01 | 1486163041.57952 | pgbench_tellers  |          5980160
 2017-02-04 00:04:01.57952+01 | 1486163041.57952 | pgbench_history  |        449085440
 2017-02-04 00:04:01.57952+01 | 1486163041.57952 | pgbench_branches |          2392064

 2017-02-04 00:04:02.659227+01 | 1486163042.65923 | pgbench_accounts |       1396621312
 2017-02-04 00:04:02.659227+01 | 1486163042.65923 | pgbench_tellers  |          5980160
 2017-02-04 00:04:02.659227+01 | 1486163042.65923 | pgbench_history  |        450469888
 2017-02-04 00:04:02.659227+01 | 1486163042.65923 | pgbench_branches |          2392064

 2017-02-04 00:04:03.754265+01 | 1486163043.75427 | pgbench_accounts |       1396621312
 2017-02-04 00:04:03.754265+01 | 1486163043.75427 | pgbench_tellers  |          5980160
 2017-02-04 00:04:03.754265+01 | 1486163043.75427 | pgbench_history  |        452018176
 2017-02-04 00:04:03.754265+01 | 1486163043.75427 | pgbench_branches |          2392064

 2017-02-04 00:04:04.836418+01 | 1486163044.83642 | pgbench_accounts |       1396621312
 2017-02-04 00:04:04.836418+01 | 1486163044.83642 | pgbench_tellers  |          5980160
 2017-02-04 00:04:04.836418+01 | 1486163044.83642 | pgbench_history  |        454385664
 2017-02-04 00:04:04.836418+01 | 1486163044.83642 | pgbench_branches |          2392064

 2017-02-04 00:04:05.91164+01 | 1486163045.91164 | pgbench_accounts |       1396621312
 2017-02-04 00:04:05.91164+01 | 1486163045.91164 | pgbench_tellers  |          5980160
 2017-02-04 00:04:05.91164+01 | 1486163045.91164 | pgbench_history  |        455557120
 2017-02-04 00:04:05.91164+01 | 1486163045.91164 | pgbench_branches |          2392064

 2017-02-04 00:04:06.984723+01 | 1486163046.98472 | pgbench_accounts |       1396621312
 2017-02-04 00:04:06.984723+01 | 1486163046.98472 | pgbench_tellers  |          5980160
 2017-02-04 00:04:06.984723+01 | 1486163046.98472 | pgbench_history  |        457113600
 2017-02-04 00:04:06.984723+01 | 1486163046.98472 | pgbench_branches |          2392064

 2017-02-04 00:04:08.058805+01 | 1486163048.0588 | pgbench_accounts |       1396621312
 2017-02-04 00:04:08.058805+01 | 1486163048.0588 | pgbench_tellers  |          5980160
 2017-02-04 00:04:08.058805+01 | 1486163048.0588 | pgbench_history  |        458989568
 2017-02-04 00:04:08.058805+01 | 1486163048.0588 | pgbench_branches |          2392064

 2017-02-04 00:04:09.132318+01 | 1486163049.13232 | pgbench_accounts |       1396621312
 2017-02-04 00:04:09.132318+01 | 1486163049.13232 | pgbench_tellers  |          5980160
 2017-02-04 00:04:09.132318+01 | 1486163049.13232 | pgbench_history  |        460914688
 2017-02-04 00:04:09.132318+01 | 1486163049.13232 | pgbench_branches |          2392064

 2017-02-04 00:04:10.209468+01 | 1486163050.20947 | pgbench_accounts |       1396621312
 2017-02-04 00:04:10.209468+01 | 1486163050.20947 | pgbench_tellers  |          5980160
 2017-02-04 00:04:10.209468+01 | 1486163050.20947 | pgbench_history  |        462635008
 2017-02-04 00:04:10.209468+01 | 1486163050.20947 | pgbench_branches |          2392064

 2017-02-04 00:04:11.289891+01 | 1486163051.28989 | pgbench_accounts |       1396621312
 2017-02-04 00:04:11.289891+01 | 1486163051.28989 | pgbench_tellers  |          5980160
 2017-02-04 00:04:11.289891+01 | 1486163051.28989 | pgbench_history  |        465035264
 2017-02-04 00:04:11.289891+01 | 1486163051.28989 | pgbench_branches |          2392064

 2017-02-04 00:04:12.363804+01 | 1486163052.3638 | pgbench_accounts |       1396621312
 2017-02-04 00:04:12.363804+01 | 1486163052.3638 | pgbench_tellers  |          5980160
 2017-02-04 00:04:12.363804+01 | 1486163052.3638 | pgbench_history  |        465903616
 2017-02-04 00:04:12.363804+01 | 1486163052.3638 | pgbench_branches |          2392064

 2017-02-04 00:04:13.438614+01 | 1486163053.43861 | pgbench_accounts |       1396621312
 2017-02-04 00:04:13.438614+01 | 1486163053.43861 | pgbench_tellers  |          5980160
 2017-02-04 00:04:13.438614+01 | 1486163053.43861 | pgbench_history  |        467992576
 2017-02-04 00:04:13.438614+01 | 1486163053.43861 | pgbench_branches |          2392064

 2017-02-04 00:04:14.515008+01 | 1486163054.51501 | pgbench_accounts |       1396621312
 2017-02-04 00:04:14.515008+01 | 1486163054.51501 | pgbench_tellers  |          5980160
 2017-02-04 00:04:14.515008+01 | 1486163054.51501 | pgbench_history  |        469188608
 2017-02-04 00:04:14.515008+01 | 1486163054.51501 | pgbench_branches |          2392064

 2017-02-04 00:04:15.594422+01 | 1486163055.59442 | pgbench_accounts |       1396621312
 2017-02-04 00:04:15.594422+01 | 1486163055.59442 | pgbench_tellers  |          5980160
 2017-02-04 00:04:15.594422+01 | 1486163055.59442 | pgbench_history  |        470949888
 2017-02-04 00:04:15.594422+01 | 1486163055.59442 | pgbench_branches |          2392064

 2017-02-04 00:04:16.666085+01 | 1486163056.66609 | pgbench_accounts |       1396621312
 2017-02-04 00:04:16.666085+01 | 1486163056.66609 | pgbench_tellers  |          5980160
 2017-02-04 00:04:16.666085+01 | 1486163056.66609 | pgbench_history  |        472711168
 2017-02-04 00:04:16.666085+01 | 1486163056.66609 | pgbench_branches |          2392064

 2017-02-04 00:04:17.739029+01 | 1486163057.73903 | pgbench_accounts |       1396621312
 2017-02-04 00:04:17.739029+01 | 1486163057.73903 | pgbench_tellers  |          5980160
 2017-02-04 00:04:17.739029+01 | 1486163057.73903 | pgbench_history  |        474972160
 2017-02-04 00:04:17.739029+01 | 1486163057.73903 | pgbench_branches |          2392064

 2017-02-04 00:04:18.813625+01 | 1486163058.81363 | pgbench_accounts |       1396621312
 2017-02-04 00:04:18.813625+01 | 1486163058.81363 | pgbench_tellers  |          5980160
 2017-02-04 00:04:18.813625+01 | 1486163058.81363 | pgbench_history  |        476528640
 2017-02-04 00:04:18.813625+01 | 1486163058.81363 | pgbench_branches |          2392064

 2017-02-04 00:04:19.888753+01 | 1486163059.88875 | pgbench_accounts |       1396621312
 2017-02-04 00:04:19.888753+01 | 1486163059.88875 | pgbench_tellers  |          5980160
 2017-02-04 00:04:19.888753+01 | 1486163059.88875 | pgbench_history  |        478076928
 2017-02-04 00:04:19.888753+01 | 1486163059.88875 | pgbench_branches |          2392064

 2017-02-04 00:04:20.965325+01 | 1486163060.96533 | pgbench_accounts |       1396621312
 2017-02-04 00:04:20.965325+01 | 1486163060.96533 | pgbench_tellers  |          5980160
 2017-02-04 00:04:20.965325+01 | 1486163060.96533 | pgbench_history  |        479952896
 2017-02-04 00:04:20.965325+01 | 1486163060.96533 | pgbench_branches |          2392064

 2017-02-04 00:04:22.041617+01 | 1486163062.04162 | pgbench_accounts |       1396621312
 2017-02-04 00:04:22.041617+01 | 1486163062.04162 | pgbench_tellers  |          5980160
 2017-02-04 00:04:22.041617+01 | 1486163062.04162 | pgbench_history  |        481501184
 2017-02-04 00:04:22.041617+01 | 1486163062.04162 | pgbench_branches |          2392064

 2017-02-04 00:04:23.111522+01 | 1486163063.11152 | pgbench_accounts |       1396621312
 2017-02-04 00:04:23.111522+01 | 1486163063.11152 | pgbench_tellers  |          5980160
 2017-02-04 00:04:23.111522+01 | 1486163063.11152 | pgbench_history  |        483459072
 2017-02-04 00:04:23.111522+01 | 1486163063.11152 | pgbench_branches |          2392064

 2017-02-04 00:04:24.193546+01 | 1486163064.19355 | pgbench_accounts |       1396621312
 2017-02-04 00:04:24.193546+01 | 1486163064.19355 | pgbench_tellers  |          5980160
 2017-02-04 00:04:24.193546+01 | 1486163064.19355 | pgbench_history  |        485515264
 2017-02-04 00:04:24.193546+01 | 1486163064.19355 | pgbench_branches |          2392064

 2017-02-04 00:04:25.26994+01 | 1486163065.26994 | pgbench_accounts |       1396621312
 2017-02-04 00:04:25.26994+01 | 1486163065.26994 | pgbench_tellers  |          5980160
 2017-02-04 00:04:25.26994+01 | 1486163065.26994 | pgbench_history  |        487088128
 2017-02-04 00:04:25.26994+01 | 1486163065.26994 | pgbench_branches |          2392064

 2017-02-04 00:04:26.345397+01 | 1486163066.3454 | pgbench_accounts |       1396621312
 2017-02-04 00:04:26.345397+01 | 1486163066.3454 | pgbench_tellers  |          5980160
 2017-02-04 00:04:26.345397+01 | 1486163066.3454 | pgbench_history  |        489340928
 2017-02-04 00:04:26.345397+01 | 1486163066.3454 | pgbench_branches |          2392064

