 2017-02-06 16:13:45.900805+01 | 1486394025.9008 |                 0 |              12 |                 21431 |                 1059 |            2353337 |             0 |                0 |          899979 |                     0 |        604012 | 2017-02-06 15:17:53.646417+01

 2017-02-06 16:13:46.999888+01 | 1486394026.99989 |                 0 |              12 |                 21431 |                 1059 |            2353337 |             0 |                0 |          899979 |                     0 |        604127 | 2017-02-06 15:17:53.646417+01

 2017-02-06 16:13:48.083333+01 | 1486394028.08333 |                 0 |              12 |                 21431 |                 1059 |            2353337 |             0 |                0 |          899979 |                     0 |        604214 | 2017-02-06 15:17:53.646417+01

 2017-02-06 16:13:49.176069+01 | 1486394029.17607 |                 0 |              12 |                 21431 |                 1059 |            2353337 |             0 |                0 |          899979 |                     0 |        604323 | 2017-02-06 15:17:53.646417+01

 2017-02-06 16:13:50.258884+01 | 1486394030.25888 |                 0 |              12 |                 21431 |                 1059 |            2353337 |             0 |                0 |          899979 |                     0 |        604501 | 2017-02-06 15:17:53.646417+01

 2017-02-06 16:13:51.337465+01 | 1486394031.33747 |                 0 |              12 |                 21431 |                 1059 |            2353337 |             0 |                0 |          899979 |                     0 |        604611 | 2017-02-06 15:17:53.646417+01

 2017-02-06 16:13:52.412488+01 | 1486394032.41249 |                 0 |              12 |                 21431 |                 1059 |            2353337 |             0 |                0 |          899979 |                     0 |        604843 | 2017-02-06 15:17:53.646417+01

 2017-02-06 16:13:53.493331+01 | 1486394033.49333 |                 0 |              12 |                 21431 |                 1059 |            2353337 |             0 |                0 |          899979 |                     0 |        604946 | 2017-02-06 15:17:53.646417+01

 2017-02-06 16:13:54.567076+01 | 1486394034.56708 |                 0 |              12 |                 21431 |                 1059 |            2353337 |             0 |                0 |          899979 |                     0 |        605076 | 2017-02-06 15:17:53.646417+01

 2017-02-06 16:13:55.642754+01 | 1486394035.64275 |                 0 |              12 |                 21431 |                 1059 |            2353337 |             0 |                0 |          899979 |                     0 |        605245 | 2017-02-06 15:17:53.646417+01

 2017-02-06 16:13:56.716963+01 | 1486394036.71696 |                 0 |              12 |                 21431 |                 1059 |            2353337 |             0 |                0 |          899979 |                     0 |        605353 | 2017-02-06 15:17:53.646417+01

 2017-02-06 16:13:57.787607+01 | 1486394037.78761 |                 0 |              12 |                 21431 |                 1059 |            2353337 |             0 |                0 |          899979 |                     0 |        605500 | 2017-02-06 15:17:53.646417+01

 2017-02-06 16:13:58.860197+01 | 1486394038.8602 |                 0 |              12 |                 21431 |                 1059 |            2353337 |             0 |                0 |          899979 |                     0 |        605629 | 2017-02-06 15:17:53.646417+01

 2017-02-06 16:13:59.941011+01 | 1486394039.94101 |                 0 |              12 |                 21431 |                 1059 |            2353337 |             0 |                0 |          899979 |                     0 |        605779 | 2017-02-06 15:17:53.646417+01

 2017-02-06 16:14:01.019799+01 | 1486394041.0198 |                 0 |              12 |                 21431 |                 1059 |            2353337 |             0 |                0 |          899979 |                     0 |        605927 | 2017-02-06 15:17:53.646417+01

 2017-02-06 16:14:02.098144+01 | 1486394042.09814 |                 0 |              12 |                 21431 |                 1059 |            2353337 |             0 |                0 |          899979 |                     0 |        606093 | 2017-02-06 15:17:53.646417+01

 2017-02-06 16:14:03.172374+01 | 1486394043.17237 |                 0 |              12 |                 21431 |                 1059 |            2353337 |             0 |                0 |          899979 |                     0 |        606202 | 2017-02-06 15:17:53.646417+01

 2017-02-06 16:14:04.241449+01 | 1486394044.24145 |                 0 |              12 |                 21431 |                 1059 |            2353337 |             0 |                0 |          899979 |                     0 |        606373 | 2017-02-06 15:17:53.646417+01

 2017-02-06 16:14:05.316997+01 | 1486394045.317 |                 0 |              12 |                 21431 |                 1059 |            2353337 |             0 |                0 |          899979 |                     0 |        606479 | 2017-02-06 15:17:53.646417+01

 2017-02-06 16:14:06.393262+01 | 1486394046.39326 |                 0 |              12 |                 21431 |                 1059 |            2353337 |             0 |                0 |          899979 |                     0 |        606611 | 2017-02-06 15:17:53.646417+01

 2017-02-06 16:14:07.474012+01 | 1486394047.47401 |                 0 |              12 |                 21431 |                 1059 |            2353337 |             0 |                0 |          899979 |                     0 |        606781 | 2017-02-06 15:17:53.646417+01

 2017-02-06 16:14:08.551473+01 | 1486394048.55147 |                 0 |              12 |                 21431 |                 1059 |            2353337 |             0 |                0 |          899979 |                     0 |        606924 | 2017-02-06 15:17:53.646417+01

 2017-02-06 16:14:09.635223+01 | 1486394049.63522 |                 0 |              12 |                 21431 |                 1059 |            2353337 |             0 |                0 |          899979 |                     0 |        607053 | 2017-02-06 15:17:53.646417+01

 2017-02-06 16:14:10.710582+01 | 1486394050.71058 |                 0 |              12 |                 21431 |                 1059 |            2353337 |             0 |                0 |          899979 |                     0 |        607204 | 2017-02-06 15:17:53.646417+01

 2017-02-06 16:14:11.792187+01 | 1486394051.79219 |                 0 |              12 |                 21431 |                 1059 |            2353337 |             0 |                0 |          899979 |                     0 |        607377 | 2017-02-06 15:17:53.646417+01

 2017-02-06 16:14:12.876501+01 | 1486394052.8765 |                 0 |              12 |                 21431 |                 1059 |            2353337 |             0 |                0 |          899979 |                     0 |        607726 | 2017-02-06 15:17:53.646417+01

 2017-02-06 16:14:13.950389+01 | 1486394053.95039 |                 0 |              12 |                 21431 |                 1059 |            2353337 |             0 |                0 |          899979 |                     0 |        607726 | 2017-02-06 15:17:53.646417+01

 2017-02-06 16:14:15.027592+01 | 1486394055.02759 |                 0 |              12 |                 21431 |                 1059 |            2353337 |             0 |                0 |          899979 |                     0 |        607814 | 2017-02-06 15:17:53.646417+01

 2017-02-06 16:14:16.106374+01 | 1486394056.10637 |                 0 |              12 |                 21431 |                 1059 |            2353337 |             0 |                0 |          899979 |                     0 |        607946 | 2017-02-06 15:17:53.646417+01

 2017-02-06 16:14:17.184363+01 | 1486394057.18436 |                 0 |              12 |                 21431 |                 1059 |            2353337 |             0 |                0 |          899979 |                     0 |        608144 | 2017-02-06 15:17:53.646417+01

 2017-02-06 16:14:18.257331+01 | 1486394058.25733 |                 0 |              12 |                 21431 |                 1059 |            2353337 |             0 |                0 |          899979 |                     0 |        608331 | 2017-02-06 15:17:53.646417+01

 2017-02-06 16:14:19.348158+01 | 1486394059.34816 |                 0 |              12 |                 21431 |                 1059 |            2353337 |             0 |                0 |          899979 |                     0 |        608423 | 2017-02-06 15:17:53.646417+01

 2017-02-06 16:14:20.423371+01 | 1486394060.42337 |                 0 |              12 |                 21431 |                 1059 |            2353337 |             0 |                0 |          899979 |                     0 |        608570 | 2017-02-06 15:17:53.646417+01

 2017-02-06 16:14:21.510514+01 | 1486394061.51051 |                 0 |              12 |                 21431 |                 1059 |            2353337 |             0 |                0 |          899979 |                     0 |        608739 | 2017-02-06 15:17:53.646417+01

 2017-02-06 16:14:22.585922+01 | 1486394062.58592 |                 0 |              12 |                 21431 |                 1059 |            2353337 |             0 |                0 |          899979 |                     0 |        608828 | 2017-02-06 15:17:53.646417+01

 2017-02-06 16:14:23.661338+01 | 1486394063.66134 |                 0 |              12 |                 21431 |                 1059 |            2353337 |             0 |                0 |          899979 |                     0 |        609047 | 2017-02-06 15:17:53.646417+01

 2017-02-06 16:14:24.735966+01 | 1486394064.73597 |                 0 |              12 |                 21431 |                 1059 |            2353337 |             0 |                0 |          899979 |                     0 |        609178 | 2017-02-06 15:17:53.646417+01

 2017-02-06 16:14:25.810057+01 | 1486394065.81006 |                 0 |              12 |                 21431 |                 1059 |            2353337 |             0 |                0 |          899979 |                     0 |        609285 | 2017-02-06 15:17:53.646417+01

 2017-02-06 16:14:26.888678+01 | 1486394066.88868 |                 0 |              12 |                 21431 |                 1059 |            2353337 |             0 |                0 |          899979 |                     0 |        609463 | 2017-02-06 15:17:53.646417+01

 2017-02-06 16:14:27.964661+01 | 1486394067.96466 |                 0 |              12 |                 21431 |                 1059 |            2353337 |             0 |                0 |          899979 |                     0 |        609574 | 2017-02-06 15:17:53.646417+01

 2017-02-06 16:14:29.044563+01 | 1486394069.04456 |                 0 |              12 |                 21431 |                 1059 |            2353337 |             0 |                0 |          899979 |                     0 |        609757 | 2017-02-06 15:17:53.646417+01

 2017-02-06 16:14:30.130547+01 | 1486394070.13055 |                 0 |              12 |                 21431 |                 1059 |            2353337 |             0 |                0 |          899979 |                     0 |        609860 | 2017-02-06 15:17:53.646417+01

 2017-02-06 16:14:31.202864+01 | 1486394071.20286 |                 0 |              12 |                 21431 |                 1059 |            2353337 |             0 |                0 |          899979 |                     0 |        610023 | 2017-02-06 15:17:53.646417+01

 2017-02-06 16:14:32.284684+01 | 1486394072.28468 |                 0 |              12 |                 21431 |                 1059 |            2353337 |             0 |                0 |          899979 |                     0 |        610165 | 2017-02-06 15:17:53.646417+01

 2017-02-06 16:14:33.360544+01 | 1486394073.36054 |                 0 |              12 |                 21431 |                 1059 |            2353337 |             0 |                0 |          899979 |                     0 |        610317 | 2017-02-06 15:17:53.646417+01

 2017-02-06 16:14:34.437153+01 | 1486394074.43715 |                 0 |              12 |                 21431 |                 1059 |            2353337 |             0 |                0 |          899979 |                     0 |        610464 | 2017-02-06 15:17:53.646417+01

 2017-02-06 16:14:35.516359+01 | 1486394075.51636 |                 0 |              12 |                 21431 |                 1059 |            2353337 |             0 |                0 |          899979 |                     0 |        610652 | 2017-02-06 15:17:53.646417+01

 2017-02-06 16:14:36.59268+01 | 1486394076.59268 |                 0 |              12 |                 21431 |                 1059 |            2353337 |             0 |                0 |          899979 |                     0 |        610761 | 2017-02-06 15:17:53.646417+01

 2017-02-06 16:14:37.671251+01 | 1486394077.67125 |                 0 |              12 |                 21431 |                 1059 |            2353337 |             0 |                0 |          899979 |                     0 |        610901 | 2017-02-06 15:17:53.646417+01

 2017-02-06 16:14:38.754191+01 | 1486394078.75419 |                 0 |              12 |                 21431 |                 1059 |            2353337 |             0 |                0 |          899979 |                     0 |        611101 | 2017-02-06 15:17:53.646417+01

 2017-02-06 16:14:39.835942+01 | 1486394079.83594 |                 0 |              12 |                 21431 |                 1059 |            2353337 |             0 |                0 |          899979 |                     0 |        611184 | 2017-02-06 15:17:53.646417+01

 2017-02-06 16:14:40.913274+01 | 1486394080.91327 |                 0 |              12 |                 21431 |                 1059 |            2353337 |             0 |                0 |          899979 |                     0 |        611573 | 2017-02-06 15:17:53.646417+01

 2017-02-06 16:14:41.986802+01 | 1486394081.9868 |                 0 |              12 |                 21431 |                 1059 |            2353337 |             0 |                0 |          899979 |                     0 |        611573 | 2017-02-06 15:17:53.646417+01

 2017-02-06 16:14:43.066392+01 | 1486394083.06639 |                 0 |              12 |                 21431 |                 1059 |            2353337 |             0 |                0 |          899979 |                     0 |        611677 | 2017-02-06 15:17:53.646417+01

 2017-02-06 16:14:44.149706+01 | 1486394084.14971 |                 0 |              12 |                 21431 |                 1059 |            2353337 |             0 |                0 |          899979 |                     0 |        611852 | 2017-02-06 15:17:53.646417+01

 2017-02-06 16:14:45.234709+01 | 1486394085.23471 |                 0 |              12 |                 21431 |                 1059 |            2353337 |             0 |                0 |          899979 |                     0 |        611962 | 2017-02-06 15:17:53.646417+01

 2017-02-06 16:14:46.308433+01 | 1486394086.30843 |                 0 |              12 |                 21431 |                 1059 |            2353337 |             0 |                0 |          899979 |                     0 |        612089 | 2017-02-06 15:17:53.646417+01

 2017-02-06 16:14:47.386512+01 | 1486394087.38651 |                 0 |              12 |                 21431 |                 1059 |            2353337 |             0 |                0 |          899979 |                     0 |        612266 | 2017-02-06 15:17:53.646417+01

 2017-02-06 16:14:48.458208+01 | 1486394088.45821 |                 0 |              12 |                 21431 |                 1059 |            2353337 |             0 |                0 |          899979 |                     0 |        612349 | 2017-02-06 15:17:53.646417+01

 2017-02-06 16:14:49.536886+01 | 1486394089.53689 |                 0 |              12 |                 21431 |                 1059 |            2353337 |             0 |                0 |          899979 |                     0 |        612599 | 2017-02-06 15:17:53.646417+01

 2017-02-06 16:14:50.614546+01 | 1486394090.61455 |                 0 |              12 |                 21431 |                 1059 |            2353337 |             0 |                0 |          899979 |                     0 |        612746 | 2017-02-06 15:17:53.646417+01

 2017-02-06 16:14:51.691648+01 | 1486394091.69165 |                 0 |              12 |                 21431 |                 1059 |            2353337 |             0 |                0 |          899979 |                     0 |        612912 | 2017-02-06 15:17:53.646417+01

 2017-02-06 16:14:52.769407+01 | 1486394092.76941 |                 0 |              12 |                 21431 |                 1059 |            2353337 |             0 |                0 |          899979 |                     0 |        613038 | 2017-02-06 15:17:53.646417+01

 2017-02-06 16:14:53.846575+01 | 1486394093.84658 |                 0 |              12 |                 21431 |                 1059 |            2353337 |             0 |                0 |          899979 |                     0 |        613172 | 2017-02-06 15:17:53.646417+01

 2017-02-06 16:14:54.927096+01 | 1486394094.9271 |                 0 |              12 |                 21431 |                 1059 |            2353337 |             0 |                0 |          899979 |                     0 |        613319 | 2017-02-06 15:17:53.646417+01

 2017-02-06 16:14:56.012533+01 | 1486394096.01253 |                 0 |              12 |                 21431 |                 1059 |            2353337 |             0 |                0 |          899979 |                     0 |        613574 | 2017-02-06 15:17:53.646417+01

 2017-02-06 16:14:57.092234+01 | 1486394097.09223 |                 0 |              12 |                 21431 |                 1059 |            2353337 |             0 |                0 |          899979 |                     0 |        613677 | 2017-02-06 15:17:53.646417+01

 2017-02-06 16:14:58.172416+01 | 1486394098.17242 |                 0 |              12 |                 21431 |                 1059 |            2353337 |             0 |                0 |          899979 |                     0 |        613772 | 2017-02-06 15:17:53.646417+01

 2017-02-06 16:14:59.259693+01 | 1486394099.25969 |                 0 |              12 |                 21431 |                 1059 |            2353337 |             0 |                0 |          899979 |                     0 |        613855 | 2017-02-06 15:17:53.646417+01

 2017-02-06 16:15:00.338156+01 | 1486394100.33816 |                 0 |              12 |                 21431 |                 1059 |            2353337 |             0 |                0 |          899979 |                     0 |        614074 | 2017-02-06 15:17:53.646417+01

 2017-02-06 16:15:01.420159+01 | 1486394101.42016 |                 0 |              12 |                 21431 |                 1059 |            2353337 |             0 |                0 |          899979 |                     0 |        614207 | 2017-02-06 15:17:53.646417+01

 2017-02-06 16:15:02.501183+01 | 1486394102.50118 |                 0 |              12 |                 21431 |                 1059 |            2353337 |             0 |                0 |          899979 |                     0 |        614419 | 2017-02-06 15:17:53.646417+01

 2017-02-06 16:15:03.578888+01 | 1486394103.57889 |                 0 |              12 |                 21431 |                 1059 |            2353337 |             0 |                0 |          899979 |                     0 |        614589 | 2017-02-06 15:17:53.646417+01

 2017-02-06 16:15:04.653969+01 | 1486394104.65397 |                 0 |              12 |                 21431 |                 1059 |            2353337 |             0 |                0 |          899979 |                     0 |        614821 | 2017-02-06 15:17:53.646417+01

 2017-02-06 16:15:05.725148+01 | 1486394105.72515 |                 0 |              12 |                 21431 |                 1059 |            2353337 |             0 |                0 |          899979 |                     0 |        614908 | 2017-02-06 15:17:53.646417+01

 2017-02-06 16:15:06.803327+01 | 1486394106.80333 |                 0 |              12 |                 21431 |                 1059 |            2353337 |             0 |                0 |          899979 |                     0 |        615044 | 2017-02-06 15:17:53.646417+01

 2017-02-06 16:15:07.880772+01 | 1486394107.88077 |                 0 |              12 |                 21431 |                 1059 |            2353337 |             0 |                0 |          899979 |                     0 |        615198 | 2017-02-06 15:17:53.646417+01

 2017-02-06 16:15:08.95748+01 | 1486394108.95748 |                 0 |              12 |                 21431 |                 1059 |            2353337 |             0 |                0 |          899979 |                     0 |        615387 | 2017-02-06 15:17:53.646417+01

 2017-02-06 16:15:10.031964+01 | 1486394110.03196 |                 0 |              12 |                 21431 |                 1059 |            2353337 |             0 |                0 |          899979 |                     0 |        615582 | 2017-02-06 15:17:53.646417+01

 2017-02-06 16:15:11.105486+01 | 1486394111.10549 |                 0 |              12 |                 21431 |                 1059 |            2353337 |             0 |                0 |          899979 |                     0 |        615666 | 2017-02-06 15:17:53.646417+01

 2017-02-06 16:15:12.186416+01 | 1486394112.18642 |                 0 |              12 |                 21431 |                 1059 |            2353337 |             0 |                0 |          899979 |                     0 |        615911 | 2017-02-06 15:17:53.646417+01

 2017-02-06 16:15:13.264996+01 | 1486394113.265 |                 0 |              12 |                 21431 |                 1059 |            2353337 |             0 |                0 |          899979 |                     0 |        615995 | 2017-02-06 15:17:53.646417+01

 2017-02-06 16:15:14.343597+01 | 1486394114.3436 |                 0 |              12 |                 21431 |                 1059 |            2353337 |             0 |                0 |          899979 |                     0 |        616167 | 2017-02-06 15:17:53.646417+01

 2017-02-06 16:15:15.419814+01 | 1486394115.41981 |                 0 |              12 |                 21431 |                 1059 |            2353337 |             0 |                0 |          899979 |                     0 |        616337 | 2017-02-06 15:17:53.646417+01

 2017-02-06 16:15:16.499074+01 | 1486394116.49907 |                 0 |              12 |                 21431 |                 1059 |            2353337 |             0 |                0 |          899979 |                     0 |        616546 | 2017-02-06 15:17:53.646417+01

 2017-02-06 16:15:17.572551+01 | 1486394117.57255 |                 0 |              12 |                 21431 |                 1059 |            2353337 |             0 |                0 |          899979 |                     0 |        616735 | 2017-02-06 15:17:53.646417+01

 2017-02-06 16:15:18.649024+01 | 1486394118.64902 |                 0 |              12 |                 21431 |                 1059 |            2353337 |             0 |                0 |          899979 |                     0 |        616920 | 2017-02-06 15:17:53.646417+01

 2017-02-06 16:15:19.72948+01 | 1486394119.72948 |                 0 |              12 |                 21431 |                 1059 |            2353337 |             0 |                0 |          899979 |                     0 |        616920 | 2017-02-06 15:17:53.646417+01

 2017-02-06 16:15:20.806064+01 | 1486394120.80606 |                 0 |              12 |                 21431 |                 1059 |            2353337 |             0 |                0 |          899979 |                     0 |        617154 | 2017-02-06 15:17:53.646417+01

 2017-02-06 16:15:21.888743+01 | 1486394121.88874 |                 0 |              12 |                 21431 |                 1059 |            2353337 |             0 |                0 |          899979 |                     0 |        617328 | 2017-02-06 15:17:53.646417+01

 2017-02-06 16:15:22.973563+01 | 1486394122.97356 |                 0 |              12 |                 21431 |                 1059 |            2353337 |             0 |                0 |          899979 |                     0 |        617463 | 2017-02-06 15:17:53.646417+01

 2017-02-06 16:15:24.04751+01 | 1486394124.04751 |                 0 |              12 |                 21431 |                 1059 |            2353337 |             0 |                0 |          899979 |                     0 |        617599 | 2017-02-06 15:17:53.646417+01

 2017-02-06 16:15:25.129221+01 | 1486394125.12922 |                 0 |              12 |                 21431 |                 1059 |            2353337 |             0 |                0 |          899979 |                     0 |        617834 | 2017-02-06 15:17:53.646417+01

 2017-02-06 16:15:26.205181+01 | 1486394126.20518 |                 0 |              12 |                 21431 |                 1059 |            2353337 |             0 |                0 |          899979 |                     0 |        617944 | 2017-02-06 15:17:53.646417+01

 2017-02-06 16:15:27.285565+01 | 1486394127.28556 |                 0 |              12 |                 21431 |                 1059 |            2353337 |             0 |                0 |          899979 |                     0 |        618050 | 2017-02-06 15:17:53.646417+01

 2017-02-06 16:15:28.357157+01 | 1486394128.35716 |                 0 |              12 |                 21431 |                 1059 |            2353337 |             0 |                0 |          899979 |                     0 |        618256 | 2017-02-06 15:17:53.646417+01

 2017-02-06 16:15:29.436877+01 | 1486394129.43688 |                 0 |              12 |                 21431 |                 1059 |            2353337 |             0 |                0 |          899979 |                     0 |        618387 | 2017-02-06 15:17:53.646417+01

 2017-02-06 16:15:30.517538+01 | 1486394130.51754 |                 0 |              12 |                 21431 |                 1059 |            2353337 |             0 |                0 |          899979 |                     0 |        618536 | 2017-02-06 15:17:53.646417+01

 2017-02-06 16:15:31.597764+01 | 1486394131.59776 |                 0 |              12 |                 21431 |                 1059 |            2353337 |             0 |                0 |          899979 |                     0 |        618731 | 2017-02-06 15:17:53.646417+01

 2017-02-06 16:15:32.681339+01 | 1486394132.68134 |                 0 |              12 |                 21431 |                 1059 |            2353337 |             0 |                0 |          899979 |                     0 |        618910 | 2017-02-06 15:17:53.646417+01

 2017-02-06 16:15:33.76163+01 | 1486394133.76163 |                 0 |              12 |                 21431 |                 1059 |            2353337 |             0 |                0 |          899979 |                     0 |        619038 | 2017-02-06 15:17:53.646417+01

 2017-02-06 16:15:34.844041+01 | 1486394134.84404 |                 0 |              12 |                 21431 |                 1059 |            2353337 |             0 |                0 |          899979 |                     0 |        619254 | 2017-02-06 15:17:53.646417+01

 2017-02-06 16:15:35.937032+01 | 1486394135.93703 |                 0 |              12 |                 21431 |                 1059 |            2353337 |             0 |                0 |          899979 |                     0 |        619254 | 2017-02-06 15:17:53.646417+01

 2017-02-06 16:15:37.016921+01 | 1486394137.01692 |                 0 |              12 |                 21431 |                 1059 |            2353337 |             0 |                0 |          899979 |                     0 |        619532 | 2017-02-06 15:17:53.646417+01

 2017-02-06 16:15:38.089829+01 | 1486394138.08983 |                 0 |              12 |                 21431 |                 1059 |            2353337 |             0 |                0 |          899979 |                     0 |        619692 | 2017-02-06 15:17:53.646417+01

 2017-02-06 16:15:39.182484+01 | 1486394139.18248 |                 0 |              12 |                 21431 |                 1059 |            2353337 |             0 |                0 |          899979 |                     0 |        619861 | 2017-02-06 15:17:53.646417+01

 2017-02-06 16:15:40.264354+01 | 1486394140.26435 |                 0 |              12 |                 21431 |                 1059 |            2353337 |             0 |                0 |          899979 |                     0 |        620033 | 2017-02-06 15:17:53.646417+01

 2017-02-06 16:15:41.34087+01 | 1486394141.34087 |                 0 |              12 |                 21431 |                 1059 |            2353337 |             0 |                0 |          899979 |                     0 |        620185 | 2017-02-06 15:17:53.646417+01

 2017-02-06 16:15:42.417346+01 | 1486394142.41735 |                 0 |              12 |                 21431 |                 1059 |            2353337 |             0 |                0 |          899979 |                     0 |        620312 | 2017-02-06 15:17:53.646417+01

 2017-02-06 16:15:43.513515+01 | 1486394143.51351 |                 0 |              12 |                 21431 |                 1059 |            2353337 |             0 |                0 |          899979 |                     0 |        620525 | 2017-02-06 15:17:53.646417+01

 2017-02-06 16:15:44.591398+01 | 1486394144.5914 |                 0 |              12 |                 21431 |                 1059 |            2353337 |             0 |                0 |          899979 |                     0 |        620694 | 2017-02-06 15:17:53.646417+01

 2017-02-06 16:15:45.671467+01 | 1486394145.67147 |                 0 |              12 |                 21431 |                 1059 |            2353337 |             0 |                0 |          899979 |                     0 |        620841 | 2017-02-06 15:17:53.646417+01

 2017-02-06 16:15:46.749567+01 | 1486394146.74957 |                 0 |              12 |                 21431 |                 1059 |            2353337 |             0 |                0 |          899979 |                     0 |        621029 | 2017-02-06 15:17:53.646417+01

 2017-02-06 16:15:47.826998+01 | 1486394147.827 |                 0 |              12 |                 21431 |                 1059 |            2353337 |             0 |                0 |          899979 |                     0 |        621200 | 2017-02-06 15:17:53.646417+01

 2017-02-06 16:15:48.902884+01 | 1486394148.90288 |                 0 |              12 |                 21431 |                 1059 |            2353337 |             0 |                0 |          899979 |                     0 |        621336 | 2017-02-06 15:17:53.646417+01

 2017-02-06 16:15:49.980023+01 | 1486394149.98002 |                 0 |              12 |                 21431 |                 1059 |            2353337 |             0 |                0 |          899979 |                     0 |        621496 | 2017-02-06 15:17:53.646417+01

 2017-02-06 16:15:51.063633+01 | 1486394151.06363 |                 0 |              12 |                 21431 |                 1059 |            2353337 |             0 |                0 |          899979 |                     0 |        621647 | 2017-02-06 15:17:53.646417+01

 2017-02-06 16:15:52.139026+01 | 1486394152.13903 |                 0 |              12 |                 21431 |                 1059 |            2353337 |             0 |                0 |          899979 |                     0 |        621822 | 2017-02-06 15:17:53.646417+01

 2017-02-06 16:15:53.218559+01 | 1486394153.21856 |                 0 |              12 |                 21431 |                 1059 |            2353337 |             0 |                0 |          899979 |                     0 |        621957 | 2017-02-06 15:17:53.646417+01

 2017-02-06 16:15:54.295567+01 | 1486394154.29557 |                 0 |              12 |                 21431 |                 1059 |            2353337 |             0 |                0 |          899979 |                     0 |        622085 | 2017-02-06 15:17:53.646417+01

 2017-02-06 16:15:55.370483+01 | 1486394155.37048 |                 0 |              12 |                 21431 |                 1059 |            2353337 |             0 |                0 |          899979 |                     0 |        622234 | 2017-02-06 15:17:53.646417+01

 2017-02-06 16:15:56.448135+01 | 1486394156.44813 |                 0 |              12 |                 21431 |                 1059 |            2353337 |             0 |                0 |          899979 |                     0 |        622531 | 2017-02-06 15:17:53.646417+01

 2017-02-06 16:15:57.524561+01 | 1486394157.52456 |                 0 |              12 |                 21431 |                 1059 |            2353337 |             0 |                0 |          899979 |                     0 |        622656 | 2017-02-06 15:17:53.646417+01

 2017-02-06 16:15:58.597809+01 | 1486394158.59781 |                 0 |              12 |                 21431 |                 1059 |            2353337 |             0 |                0 |          899979 |                     0 |        622742 | 2017-02-06 15:17:53.646417+01

 2017-02-06 16:15:59.675539+01 | 1486394159.67554 |                 0 |              12 |                 21431 |                 1059 |            2353337 |             0 |                0 |          899979 |                     0 |        622921 | 2017-02-06 15:17:53.646417+01

 2017-02-06 16:16:00.760805+01 | 1486394160.7608 |                 0 |              12 |                 21431 |                 1059 |            2353337 |             0 |                0 |          899979 |                     0 |        623091 | 2017-02-06 15:17:53.646417+01

 2017-02-06 16:16:01.844248+01 | 1486394161.84425 |                 0 |              12 |                 21431 |                 1059 |            2353337 |             0 |                0 |          899979 |                     0 |        623209 | 2017-02-06 15:17:53.646417+01

 2017-02-06 16:16:02.924596+01 | 1486394162.9246 |                 0 |              12 |                 21431 |                 1059 |            2353337 |             0 |                0 |          899979 |                     0 |        623348 | 2017-02-06 15:17:53.646417+01

 2017-02-06 16:16:04.004265+01 | 1486394164.00427 |                 0 |              12 |                 21431 |                 1059 |            2353337 |             0 |                0 |          899979 |                     0 |        623574 | 2017-02-06 15:17:53.646417+01

 2017-02-06 16:16:05.087334+01 | 1486394165.08733 |                 0 |              12 |                 21431 |                 1059 |            2353337 |             0 |                0 |          899979 |                     0 |        623725 | 2017-02-06 15:17:53.646417+01

 2017-02-06 16:16:06.1632+01 | 1486394166.1632 |                 0 |              12 |                 21431 |                 1059 |            2353337 |             0 |                0 |          899979 |                     0 |        623831 | 2017-02-06 15:17:53.646417+01

 2017-02-06 16:16:07.240318+01 | 1486394167.24032 |                 0 |              12 |                 21431 |                 1059 |            2353337 |             0 |                0 |          899979 |                     0 |        623958 | 2017-02-06 15:17:53.646417+01

 2017-02-06 16:16:08.324901+01 | 1486394168.3249 |                 0 |              12 |                 21431 |                 1059 |            2353337 |             0 |                0 |          899979 |                     0 |        624151 | 2017-02-06 15:17:53.646417+01

 2017-02-06 16:16:09.401164+01 | 1486394169.40116 |                 0 |              12 |                 21431 |                 1059 |            2353337 |             0 |                0 |          899979 |                     0 |        624325 | 2017-02-06 15:17:53.646417+01

 2017-02-06 16:16:10.481226+01 | 1486394170.48123 |                 0 |              12 |                 21431 |                 1059 |            2353337 |             0 |                0 |          899979 |                     0 |        624481 | 2017-02-06 15:17:53.646417+01

 2017-02-06 16:16:11.565586+01 | 1486394171.56559 |                 0 |              12 |                 21431 |                 1059 |            2353337 |             0 |                0 |          899979 |                     0 |        624585 | 2017-02-06 15:17:53.646417+01

 2017-02-06 16:16:12.649675+01 | 1486394172.64967 |                 0 |              12 |                 21431 |                 1059 |            2353337 |             0 |                0 |          899979 |                     0 |        624823 | 2017-02-06 15:17:53.646417+01

 2017-02-06 16:16:13.729046+01 | 1486394173.72905 |                 0 |              12 |                 21431 |                 1059 |            2353337 |             0 |                0 |          899979 |                     0 |        624953 | 2017-02-06 15:17:53.646417+01

 2017-02-06 16:16:14.811451+01 | 1486394174.81145 |                 0 |              12 |                 21431 |                 1059 |            2353337 |             0 |                0 |          899979 |                     0 |        625125 | 2017-02-06 15:17:53.646417+01

 2017-02-06 16:16:15.891039+01 | 1486394175.89104 |                 0 |              12 |                 21431 |                 1059 |            2353337 |             0 |                0 |          899979 |                     0 |        625271 | 2017-02-06 15:17:53.646417+01

 2017-02-06 16:16:16.972346+01 | 1486394176.97235 |                 0 |              12 |                 21431 |                 1059 |            2353337 |             0 |                0 |          899979 |                     0 |        625462 | 2017-02-06 15:17:53.646417+01

 2017-02-06 16:16:18.051575+01 | 1486394178.05157 |                 0 |              12 |                 21431 |                 1059 |            2353337 |             0 |                0 |          899979 |                     0 |        625625 | 2017-02-06 15:17:53.646417+01

 2017-02-06 16:16:19.132701+01 | 1486394179.1327 |                 0 |              12 |                 21431 |                 1059 |            2353337 |             0 |                0 |          899979 |                     0 |        625777 | 2017-02-06 15:17:53.646417+01

 2017-02-06 16:16:20.213861+01 | 1486394180.21386 |                 0 |              12 |                 21431 |                 1059 |            2353337 |             0 |                0 |          899979 |                     0 |        625933 | 2017-02-06 15:17:53.646417+01

 2017-02-06 16:16:21.291162+01 | 1486394181.29116 |                 0 |              12 |                 21431 |                 1059 |            2353337 |             0 |                0 |          899979 |                     0 |        626063 | 2017-02-06 15:17:53.646417+01

 2017-02-06 16:16:22.367946+01 | 1486394182.36795 |                 0 |              12 |                 21431 |                 1059 |            2353337 |             0 |                0 |          899979 |                     0 |        626260 | 2017-02-06 15:17:53.646417+01

 2017-02-06 16:16:23.442924+01 | 1486394183.44292 |                 0 |              12 |                 21431 |                 1059 |            2353337 |             0 |                0 |          899979 |                     0 |        626416 | 2017-02-06 15:17:53.646417+01

 2017-02-06 16:16:24.519532+01 | 1486394184.51953 |                 0 |              12 |                 21431 |                 1059 |            2353337 |             0 |                0 |          899979 |                     0 |        626577 | 2017-02-06 15:17:53.646417+01

 2017-02-06 16:16:25.590753+01 | 1486394185.59075 |                 0 |              12 |                 21431 |                 1059 |            2353337 |             0 |                0 |          899979 |                     0 |        626660 | 2017-02-06 15:17:53.646417+01

 2017-02-06 16:16:26.668816+01 | 1486394186.66882 |                 0 |              12 |                 21431 |                 1059 |            2353337 |             0 |                0 |          899979 |                     0 |        626958 | 2017-02-06 15:17:53.646417+01

 2017-02-06 16:16:27.751589+01 | 1486394187.75159 |                 0 |              12 |                 21431 |                 1059 |            2353337 |             0 |                0 |          899979 |                     0 |        627149 | 2017-02-06 15:17:53.646417+01

 2017-02-06 16:16:28.832131+01 | 1486394188.83213 |                 0 |              12 |                 21431 |                 1059 |            2353337 |             0 |                0 |          899979 |                     0 |        627232 | 2017-02-06 15:17:53.646417+01

 2017-02-06 16:16:29.910713+01 | 1486394189.91071 |                 0 |              12 |                 21431 |                 1059 |            2353337 |             0 |                0 |          899979 |                     0 |        627444 | 2017-02-06 15:17:53.646417+01

 2017-02-06 16:16:30.988481+01 | 1486394190.98848 |                 0 |              12 |                 21431 |                 1059 |            2353337 |             0 |                0 |          899979 |                     0 |        627651 | 2017-02-06 15:17:53.646417+01

 2017-02-06 16:16:32.070153+01 | 1486394192.07015 |                 0 |              12 |                 21431 |                 1059 |            2353337 |             0 |                0 |          899979 |                     0 |        627694 | 2017-02-06 15:17:53.646417+01

 2017-02-06 16:16:33.144179+01 | 1486394193.14418 |                 0 |              12 |                 21431 |                 1059 |            2353337 |             0 |                0 |          899979 |                     0 |        627890 | 2017-02-06 15:17:53.646417+01

 2017-02-06 16:16:34.221722+01 | 1486394194.22172 |                 0 |              12 |                 21431 |                 1059 |            2353337 |             0 |                0 |          899979 |                     0 |        627973 | 2017-02-06 15:17:53.646417+01

 2017-02-06 16:16:35.301467+01 | 1486394195.30147 |                 0 |              12 |                 21431 |                 1059 |            2353337 |             0 |                0 |          899979 |                     0 |        627973 | 2017-02-06 15:17:53.646417+01

 2017-02-06 16:16:36.378666+01 | 1486394196.37867 |                 0 |              12 |                 21431 |                 1059 |            2353337 |             0 |                0 |          899979 |                     0 |        628368 | 2017-02-06 15:17:53.646417+01

 2017-02-06 16:16:37.464979+01 | 1486394197.46498 |                 0 |              12 |                 21431 |                 1059 |            2353337 |             0 |                0 |          899979 |                     0 |        628501 | 2017-02-06 15:17:53.646417+01

 2017-02-06 16:16:38.545139+01 | 1486394198.54514 |                 0 |              12 |                 21431 |                 1059 |            2353337 |             0 |                0 |          899979 |                     0 |        628645 | 2017-02-06 15:17:53.646417+01

 2017-02-06 16:16:39.618501+01 | 1486394199.6185 |                 0 |              12 |                 21431 |                 1059 |            2353337 |             0 |                0 |          899979 |                     0 |        628927 | 2017-02-06 15:17:53.646417+01

 2017-02-06 16:16:40.697027+01 | 1486394200.69703 |                 0 |              12 |                 21431 |                 1059 |            2353337 |             0 |                0 |          899979 |                     0 |        628970 | 2017-02-06 15:17:53.646417+01

 2017-02-06 16:16:41.777534+01 | 1486394201.77753 |                 0 |              12 |                 21431 |                 1059 |            2353337 |             0 |                0 |          899979 |                     0 |        629164 | 2017-02-06 15:17:53.646417+01

 2017-02-06 16:16:42.856174+01 | 1486394202.85617 |                 0 |              12 |                 21431 |                 1059 |            2353337 |             0 |                0 |          899979 |                     0 |        629270 | 2017-02-06 15:17:53.646417+01

 2017-02-06 16:16:43.933661+01 | 1486394203.93366 |                 0 |              12 |                 21431 |                 1059 |            2353337 |             0 |                0 |          899979 |                     0 |        629556 | 2017-02-06 15:17:53.646417+01

 2017-02-06 16:16:45.013364+01 | 1486394205.01336 |                 0 |              12 |                 21431 |                 1059 |            2353337 |             0 |                0 |          899979 |                     0 |        629662 | 2017-02-06 15:17:53.646417+01

 2017-02-06 16:16:46.086044+01 | 1486394206.08604 |                 0 |              12 |                 21431 |                 1059 |            2353337 |             0 |                0 |          899979 |                     0 |        629831 | 2017-02-06 15:17:53.646417+01

 2017-02-06 16:16:47.164518+01 | 1486394207.16452 |                 0 |              12 |                 21431 |                 1059 |            2353337 |             0 |                0 |          899979 |                     0 |        629921 | 2017-02-06 15:17:53.646417+01

 2017-02-06 16:16:48.246796+01 | 1486394208.2468 |                 0 |              12 |                 21431 |                 1059 |            2353337 |             0 |                0 |          899979 |                     0 |        630053 | 2017-02-06 15:17:53.646417+01

 2017-02-06 16:16:49.323311+01 | 1486394209.32331 |                 0 |              12 |                 21431 |                 1059 |            2353337 |             0 |                0 |          899979 |                     0 |        630282 | 2017-02-06 15:17:53.646417+01

 2017-02-06 16:16:50.408646+01 | 1486394210.40865 |                 0 |              12 |                 21431 |                 1059 |            2353337 |             0 |                0 |          899979 |                     0 |        630410 | 2017-02-06 15:17:53.646417+01

 2017-02-06 16:16:51.506394+01 | 1486394211.50639 |                 0 |              12 |                 21431 |                 1059 |            2353337 |             0 |                0 |          899979 |                     0 |        630636 | 2017-02-06 15:17:53.646417+01

 2017-02-06 16:16:52.581334+01 | 1486394212.58133 |                 0 |              12 |                 21431 |                 1059 |            2353337 |             0 |                0 |          899979 |                     0 |        630999 | 2017-02-06 15:17:53.646417+01

 2017-02-06 16:16:53.655888+01 | 1486394213.65589 |                 0 |              12 |                 21431 |                 1059 |            2353337 |             0 |                0 |          899979 |                     0 |        630999 | 2017-02-06 15:17:53.646417+01

 2017-02-06 16:16:54.739458+01 | 1486394214.73946 |                 0 |              12 |                 21431 |                 1059 |            2353337 |             0 |                0 |          899979 |                     0 |        631148 | 2017-02-06 15:17:53.646417+01

 2017-02-06 16:16:55.816318+01 | 1486394215.81632 |                 0 |              12 |                 21431 |                 1059 |            2353337 |             0 |                0 |          899979 |                     0 |        631252 | 2017-02-06 15:17:53.646417+01

 2017-02-06 16:16:56.896536+01 | 1486394216.89654 |                 0 |              12 |                 21431 |                 1059 |            2353337 |             0 |                0 |          899979 |                     0 |        631441 | 2017-02-06 15:17:53.646417+01

 2017-02-06 16:16:57.968518+01 | 1486394217.96852 |                 0 |              12 |                 21431 |                 1059 |            2353337 |             0 |                0 |          899979 |                     0 |        631545 | 2017-02-06 15:17:53.646417+01

 2017-02-06 16:16:59.051627+01 | 1486394219.05163 |                 0 |              12 |                 21431 |                 1059 |            2353337 |             0 |                0 |          899979 |                     0 |        631801 | 2017-02-06 15:17:53.646417+01

 2017-02-06 16:17:00.127664+01 | 1486394220.12766 |                 0 |              12 |                 21431 |                 1059 |            2353337 |             0 |                0 |          899979 |                     0 |        631801 | 2017-02-06 15:17:53.646417+01

 2017-02-06 16:17:01.210729+01 | 1486394221.21073 |                 0 |              12 |                 21431 |                 1059 |            2353337 |             0 |                0 |          899979 |                     0 |        632090 | 2017-02-06 15:17:53.646417+01

 2017-02-06 16:17:02.298233+01 | 1486394222.29823 |                 0 |              12 |                 21431 |                 1059 |            2353337 |             0 |                0 |          899979 |                     0 |        632216 | 2017-02-06 15:17:53.646417+01

 2017-02-06 16:17:03.371387+01 | 1486394223.37139 |                 0 |              12 |                 21431 |                 1059 |            2353337 |             0 |                0 |          899979 |                     0 |        632429 | 2017-02-06 15:17:53.646417+01

 2017-02-06 16:17:04.445332+01 | 1486394224.44533 |                 0 |              12 |                 21431 |                 1059 |            2353337 |             0 |                0 |          899979 |                     0 |        632561 | 2017-02-06 15:17:53.646417+01

 2017-02-06 16:17:05.51972+01 | 1486394225.51972 |                 0 |              12 |                 21431 |                 1059 |            2353337 |             0 |                0 |          899979 |                     0 |        632844 | 2017-02-06 15:17:53.646417+01

 2017-02-06 16:17:06.59758+01 | 1486394226.59758 |                 0 |              12 |                 21431 |                 1059 |            2353337 |             0 |                0 |          899979 |                     0 |        632950 | 2017-02-06 15:17:53.646417+01

 2017-02-06 16:17:07.675185+01 | 1486394227.67518 |                 0 |              12 |                 21431 |                 1059 |            2353337 |             0 |                0 |          899979 |                     0 |        633061 | 2017-02-06 15:17:53.646417+01

 2017-02-06 16:17:08.75004+01 | 1486394228.75004 |                 0 |              12 |                 21431 |                 1059 |            2353337 |             0 |                0 |          899979 |                     0 |        633193 | 2017-02-06 15:17:53.646417+01

 2017-02-06 16:17:09.831656+01 | 1486394229.83166 |                 0 |              12 |                 21431 |                 1059 |            2353337 |             0 |                0 |          899979 |                     0 |        633419 | 2017-02-06 15:17:53.646417+01

 2017-02-06 16:17:10.90916+01 | 1486394230.90916 |                 0 |              12 |                 21431 |                 1059 |            2353337 |             0 |                0 |          899979 |                     0 |        633566 | 2017-02-06 15:17:53.646417+01

 2017-02-06 16:17:11.982646+01 | 1486394231.98265 |                 0 |              12 |                 21431 |                 1059 |            2353337 |             0 |                0 |          899979 |                     0 |        633715 | 2017-02-06 15:17:53.646417+01

 2017-02-06 16:17:13.054957+01 | 1486394233.05496 |                 0 |              12 |                 21431 |                 1059 |            2353337 |             0 |                0 |          899979 |                     0 |        633895 | 2017-02-06 15:17:53.646417+01

 2017-02-06 16:17:14.13806+01 | 1486394234.13806 |                 0 |              12 |                 21431 |                 1059 |            2353337 |             0 |                0 |          899979 |                     0 |        634148 | 2017-02-06 15:17:53.646417+01

 2017-02-06 16:17:15.220299+01 | 1486394235.2203 |                 0 |              12 |                 21431 |                 1059 |            2353337 |             0 |                0 |          899979 |                     0 |        634149 | 2017-02-06 15:17:53.646417+01

 2017-02-06 16:17:16.308183+01 | 1486394236.30818 |                 0 |              12 |                 21431 |                 1059 |            2353337 |             0 |                0 |          899979 |                     0 |        634319 | 2017-02-06 15:17:53.646417+01

 2017-02-06 16:17:17.385269+01 | 1486394237.38527 |                 0 |              12 |                 21431 |                 1059 |            2353337 |             0 |                0 |          899979 |                     0 |        634791 | 2017-02-06 15:17:53.646417+01

 2017-02-06 16:17:18.460796+01 | 1486394238.4608 |                 0 |              12 |                 21431 |                 1059 |            2353337 |             0 |                0 |          899979 |                     0 |        634791 | 2017-02-06 15:17:53.646417+01

 2017-02-06 16:17:19.536769+01 | 1486394239.53677 |                 0 |              12 |                 21431 |                 1059 |            2353337 |             0 |                0 |          899979 |                     0 |        634792 | 2017-02-06 15:17:53.646417+01

 2017-02-06 16:17:20.621695+01 | 1486394240.6217 |                 0 |              12 |                 21431 |                 1059 |            2353337 |             0 |                0 |          899979 |                     0 |        634875 | 2017-02-06 15:17:53.646417+01

 2017-02-06 16:17:21.703257+01 | 1486394241.70326 |                 0 |              12 |                 21431 |                 1059 |            2353337 |             0 |                0 |          899979 |                     0 |        635102 | 2017-02-06 15:17:53.646417+01

 2017-02-06 16:17:22.781989+01 | 1486394242.78199 |                 0 |              12 |                 21431 |                 1059 |            2353337 |             0 |                0 |          899979 |                     0 |        635257 | 2017-02-06 15:17:53.646417+01

 2017-02-06 16:17:23.861563+01 | 1486394243.86156 |                 0 |              12 |                 21431 |                 1059 |            2353337 |             0 |                0 |          899979 |                     0 |        635389 | 2017-02-06 15:17:53.646417+01

 2017-02-06 16:17:24.941705+01 | 1486394244.9417 |                 0 |              12 |                 21431 |                 1059 |            2353337 |             0 |                0 |          899979 |                     0 |        635624 | 2017-02-06 15:17:53.646417+01

 2017-02-06 16:17:26.02252+01 | 1486394246.02252 |                 0 |              12 |                 21431 |                 1059 |            2353337 |             0 |                0 |          899979 |                     0 |        635624 | 2017-02-06 15:17:53.646417+01

 2017-02-06 16:17:27.100373+01 | 1486394247.10037 |                 0 |              12 |                 21431 |                 1059 |            2353337 |             0 |                0 |          899979 |                     0 |        635874 | 2017-02-06 15:17:53.646417+01

 2017-02-06 16:17:28.176087+01 | 1486394248.17609 |                 0 |              12 |                 21431 |                 1059 |            2353337 |             0 |                0 |          899979 |                     0 |        636066 | 2017-02-06 15:17:53.646417+01

 2017-02-06 16:17:29.256944+01 | 1486394249.25694 |                 0 |              12 |                 21431 |                 1059 |            2353337 |             0 |                0 |          899979 |                     0 |        636220 | 2017-02-06 15:17:53.646417+01

 2017-02-06 16:17:30.333527+01 | 1486394250.33353 |                 0 |              12 |                 21431 |                 1059 |            2353337 |             0 |                0 |          899979 |                     0 |        636395 | 2017-02-06 15:17:53.646417+01

 2017-02-06 16:17:31.40993+01 | 1486394251.40993 |                 0 |              12 |                 21431 |                 1059 |            2353337 |             0 |                0 |          899979 |                     0 |        636567 | 2017-02-06 15:17:53.646417+01

 2017-02-06 16:17:32.494149+01 | 1486394252.49415 |                 0 |              12 |                 21431 |                 1059 |            2353337 |             0 |                0 |          899979 |                     0 |        636726 | 2017-02-06 15:17:53.646417+01

 2017-02-06 16:17:33.571056+01 | 1486394253.57106 |                 0 |              12 |                 21431 |                 1059 |            2353337 |             0 |                0 |          899979 |                     0 |        636982 | 2017-02-06 15:17:53.646417+01

 2017-02-06 16:17:34.654971+01 | 1486394254.65497 |                 0 |              12 |                 21431 |                 1059 |            2353337 |             0 |                0 |          899979 |                     0 |        637025 | 2017-02-06 15:17:53.646417+01

 2017-02-06 16:17:35.727067+01 | 1486394255.72707 |                 0 |              12 |                 21431 |                 1059 |            2353337 |             0 |                0 |          899979 |                     0 |        637189 | 2017-02-06 15:17:53.646417+01

 2017-02-06 16:17:36.808148+01 | 1486394256.80815 |                 0 |              12 |                 21431 |                 1059 |            2353337 |             0 |                0 |          899979 |                     0 |        637436 | 2017-02-06 15:17:53.646417+01

 2017-02-06 16:17:37.872987+01 | 1486394257.87299 |                 0 |              12 |                 21431 |                 1059 |            2353337 |             0 |                0 |          899979 |                     0 |        637502 | 2017-02-06 15:17:53.646417+01

 2017-02-06 16:17:38.947726+01 | 1486394258.94773 |                 0 |              12 |                 21431 |                 1059 |            2353337 |             0 |                0 |          899979 |                     0 |        637674 | 2017-02-06 15:17:53.646417+01

 2017-02-06 16:17:40.024513+01 | 1486394260.02451 |                 0 |              12 |                 21431 |                 1059 |            2353337 |             0 |                0 |          899979 |                     0 |        637846 | 2017-02-06 15:17:53.646417+01

 2017-02-06 16:17:41.10415+01 | 1486394261.10415 |                 0 |              12 |                 21431 |                 1059 |            2353337 |             0 |                0 |          899979 |                     0 |        637950 | 2017-02-06 15:17:53.646417+01

 2017-02-06 16:17:42.179382+01 | 1486394262.17938 |                 0 |              12 |                 21431 |                 1059 |            2353337 |             0 |                0 |          899979 |                     0 |        638118 | 2017-02-06 15:17:53.646417+01

 2017-02-06 16:17:43.266596+01 | 1486394263.2666 |                 0 |              12 |                 21431 |                 1059 |            2353337 |             0 |                0 |          899979 |                     0 |        638290 | 2017-02-06 15:17:53.646417+01

 2017-02-06 16:17:44.348252+01 | 1486394264.34825 |                 0 |              12 |                 21431 |                 1059 |            2353337 |             0 |                0 |          899979 |                     0 |        638596 | 2017-02-06 15:17:53.646417+01

 2017-02-06 16:17:45.423648+01 | 1486394265.42365 |                 0 |              12 |                 21431 |                 1059 |            2353337 |             0 |                0 |          899979 |                     0 |        638597 | 2017-02-06 15:17:53.646417+01

 2017-02-06 16:17:46.500982+01 | 1486394266.50098 |                 0 |              12 |                 21431 |                 1059 |            2353337 |             0 |                0 |          899979 |                     0 |        638762 | 2017-02-06 15:17:53.646417+01

 2017-02-06 16:17:47.577557+01 | 1486394267.57756 |                 0 |              12 |                 21431 |                 1059 |            2353337 |             0 |                0 |          899979 |                     0 |        639015 | 2017-02-06 15:17:53.646417+01

 2017-02-06 16:17:48.657133+01 | 1486394268.65713 |                 0 |              12 |                 21431 |                 1059 |            2353337 |             0 |                0 |          899979 |                     0 |        639158 | 2017-02-06 15:17:53.646417+01

 2017-02-06 16:17:49.738531+01 | 1486394269.73853 |                 0 |              12 |                 21431 |                 1059 |            2353337 |             0 |                0 |          899979 |                     0 |        639324 | 2017-02-06 15:17:53.646417+01

 2017-02-06 16:17:50.81169+01 | 1486394270.81169 |                 0 |              12 |                 21431 |                 1059 |            2353337 |             0 |                0 |          899979 |                     0 |        639454 | 2017-02-06 15:17:53.646417+01

 2017-02-06 16:17:51.889313+01 | 1486394271.88931 |                 0 |              12 |                 21431 |                 1059 |            2353337 |             0 |                0 |          899979 |                     0 |        639582 | 2017-02-06 15:17:53.646417+01

 2017-02-06 16:17:52.978214+01 | 1486394272.97821 |                 0 |              12 |                 21431 |                 1059 |            2353337 |             0 |                0 |          899979 |                     0 |        639777 | 2017-02-06 15:17:53.646417+01

 2017-02-06 16:17:54.055284+01 | 1486394274.05528 |                 0 |              12 |                 21431 |                 1059 |            2353337 |             0 |                0 |          899979 |                     0 |        639880 | 2017-02-06 15:17:53.646417+01

 2017-02-06 16:17:55.136131+01 | 1486394275.13613 |                 0 |              12 |                 21431 |                 1059 |            2353337 |             0 |                0 |          899979 |                     0 |        640051 | 2017-02-06 15:17:53.646417+01

 2017-02-06 16:17:56.213449+01 | 1486394276.21345 |                 0 |              12 |                 21431 |                 1059 |            2353337 |             0 |                0 |          899979 |                     0 |        640257 | 2017-02-06 15:17:53.646417+01

 2017-02-06 16:17:57.292904+01 | 1486394277.2929 |                 0 |              12 |                 21431 |                 1059 |            2353337 |             0 |                0 |          899979 |                     0 |        640361 | 2017-02-06 15:17:53.646417+01

 2017-02-06 16:17:58.371059+01 | 1486394278.37106 |                 0 |              12 |                 21431 |                 1059 |            2353337 |             0 |                0 |          899979 |                     0 |        640514 | 2017-02-06 15:17:53.646417+01

 2017-02-06 16:17:59.448061+01 | 1486394279.44806 |                 0 |              12 |                 21431 |                 1059 |            2353337 |             0 |                0 |          899979 |                     0 |        640671 | 2017-02-06 15:17:53.646417+01

 2017-02-06 16:18:00.523394+01 | 1486394280.52339 |                 0 |              12 |                 21431 |                 1059 |            2353337 |             0 |                0 |          899979 |                     0 |        640795 | 2017-02-06 15:17:53.646417+01

 2017-02-06 16:18:01.599144+01 | 1486394281.59914 |                 0 |              12 |                 21431 |                 1059 |            2353337 |             0 |                0 |          899979 |                     0 |        641007 | 2017-02-06 15:17:53.646417+01

 2017-02-06 16:18:02.676676+01 | 1486394282.67668 |                 0 |              12 |                 21431 |                 1059 |            2353337 |             0 |                0 |          899979 |                     0 |        641137 | 2017-02-06 15:17:53.646417+01

 2017-02-06 16:18:03.752719+01 | 1486394283.75272 |                 0 |              12 |                 21431 |                 1059 |            2353337 |             0 |                0 |          899979 |                     0 |        641287 | 2017-02-06 15:17:53.646417+01

 2017-02-06 16:18:04.833741+01 | 1486394284.83374 |                 0 |              12 |                 21431 |                 1059 |            2353337 |             0 |                0 |          899979 |                     0 |        641476 | 2017-02-06 15:17:53.646417+01

 2017-02-06 16:18:05.906887+01 | 1486394285.90689 |                 0 |              12 |                 21431 |                 1059 |            2353337 |             0 |                0 |          899979 |                     0 |        641627 | 2017-02-06 15:17:53.646417+01

 2017-02-06 16:18:06.978634+01 | 1486394286.97863 |                 0 |              12 |                 21431 |                 1059 |            2353337 |             0 |                0 |          899979 |                     0 |        641783 | 2017-02-06 15:17:53.646417+01

 2017-02-06 16:18:08.062076+01 | 1486394288.06208 |                 0 |              12 |                 21431 |                 1059 |            2353337 |             0 |                0 |          899979 |                     0 |        641914 | 2017-02-06 15:17:53.646417+01

 2017-02-06 16:18:09.141212+01 | 1486394289.14121 |                 0 |              12 |                 21431 |                 1059 |            2353337 |             0 |                0 |          899979 |                     0 |        642083 | 2017-02-06 15:17:53.646417+01

 2017-02-06 16:18:10.225488+01 | 1486394290.22549 |                 0 |              12 |                 21431 |                 1059 |            2353337 |             0 |                0 |          899979 |                     0 |        642193 | 2017-02-06 15:17:53.646417+01

 2017-02-06 16:18:11.31128+01 | 1486394291.31128 |                 0 |              12 |                 21431 |                 1059 |            2353337 |             0 |                0 |          899979 |                     0 |        642446 | 2017-02-06 15:17:53.646417+01

 2017-02-06 16:18:12.398563+01 | 1486394292.39856 |                 0 |              12 |                 21431 |                 1059 |            2353337 |             0 |                0 |          899979 |                     0 |        642512 | 2017-02-06 15:17:53.646417+01

 2017-02-06 16:18:13.484792+01 | 1486394293.48479 |                 0 |              12 |                 21431 |                 1059 |            2353337 |             0 |                0 |          899979 |                     0 |        642707 | 2017-02-06 15:17:53.646417+01

 2017-02-06 16:18:14.566372+01 | 1486394294.56637 |                 0 |              12 |                 21431 |                 1059 |            2353337 |             0 |                0 |          899979 |                     0 |        642884 | 2017-02-06 15:17:53.646417+01

 2017-02-06 16:18:15.6413+01 | 1486394295.6413 |                 0 |              12 |                 21431 |                 1059 |            2353337 |             0 |                0 |          899979 |                     0 |        642990 | 2017-02-06 15:17:53.646417+01

 2017-02-06 16:18:16.718382+01 | 1486394296.71838 |                 0 |              12 |                 21431 |                 1059 |            2353337 |             0 |                0 |          899979 |                     0 |        642990 | 2017-02-06 15:17:53.646417+01

 2017-02-06 16:18:17.801674+01 | 1486394297.80167 |                 0 |              12 |                 21431 |                 1059 |            2353337 |             0 |                0 |          899979 |                     0 |        643385 | 2017-02-06 15:17:53.646417+01

 2017-02-06 16:18:18.876315+01 | 1486394298.87632 |                 0 |              12 |                 21431 |                 1059 |            2353337 |             0 |                0 |          899979 |                     0 |        643513 | 2017-02-06 15:17:53.646417+01

 2017-02-06 16:18:19.948665+01 | 1486394299.94866 |                 0 |              12 |                 21431 |                 1059 |            2353337 |             0 |                0 |          899979 |                     0 |        643662 | 2017-02-06 15:17:53.646417+01

 2017-02-06 16:18:21.025282+01 | 1486394301.02528 |                 0 |              12 |                 21431 |                 1059 |            2353337 |             0 |                0 |          899979 |                     0 |        643876 | 2017-02-06 15:17:53.646417+01

 2017-02-06 16:18:22.105613+01 | 1486394302.10561 |                 0 |              12 |                 21431 |                 1059 |            2353337 |             0 |                0 |          899979 |                     0 |        643979 | 2017-02-06 15:17:53.646417+01

 2017-02-06 16:18:23.1898+01 | 1486394303.1898 |                 0 |              12 |                 21431 |                 1059 |            2353337 |             0 |                0 |          899979 |                     0 |        644103 | 2017-02-06 15:17:53.646417+01

 2017-02-06 16:18:24.261424+01 | 1486394304.26142 |                 0 |              12 |                 21431 |                 1059 |            2353337 |             0 |                0 |          899979 |                     0 |        644282 | 2017-02-06 15:17:53.646417+01

 2017-02-06 16:18:25.333021+01 | 1486394305.33302 |                 0 |              12 |                 21431 |                 1059 |            2353337 |             0 |                0 |          899979 |                     0 |        644370 | 2017-02-06 15:17:53.646417+01

 2017-02-06 16:18:26.414273+01 | 1486394306.41427 |                 0 |              12 |                 21431 |                 1059 |            2353337 |             0 |                0 |          899979 |                     0 |        644629 | 2017-02-06 15:17:53.646417+01

 2017-02-06 16:18:27.492889+01 | 1486394307.49289 |                 0 |              12 |                 21431 |                 1059 |            2353337 |             0 |                0 |          899979 |                     0 |        644737 | 2017-02-06 15:17:53.646417+01

 2017-02-06 16:18:28.57293+01 | 1486394308.57293 |                 0 |              12 |                 21431 |                 1059 |            2353337 |             0 |                0 |          899979 |                     0 |        644935 | 2017-02-06 15:17:53.646417+01

 2017-02-06 16:18:29.653884+01 | 1486394309.65388 |                 0 |              12 |                 21431 |                 1059 |            2353337 |             0 |                0 |          899979 |                     0 |        645068 | 2017-02-06 15:17:53.646417+01

 2017-02-06 16:18:30.723642+01 | 1486394310.72364 |                 0 |              12 |                 21431 |                 1059 |            2353337 |             0 |                0 |          899979 |                     0 |        645151 | 2017-02-06 15:17:53.646417+01

 2017-02-06 16:18:31.801108+01 | 1486394311.80111 |                 0 |              12 |                 21431 |                 1059 |            2353337 |             0 |                0 |          899979 |                     0 |        645394 | 2017-02-06 15:17:53.646417+01

 2017-02-06 16:18:32.882458+01 | 1486394312.88246 |                 0 |              12 |                 21431 |                 1059 |            2353337 |             0 |                0 |          899979 |                     0 |        645548 | 2017-02-06 15:17:53.646417+01

 2017-02-06 16:18:33.956236+01 | 1486394313.95624 |                 0 |              12 |                 21431 |                 1059 |            2353337 |             0 |                0 |          899979 |                     0 |        645700 | 2017-02-06 15:17:53.646417+01

 2017-02-06 16:18:35.042345+01 | 1486394315.04235 |                 0 |              12 |                 21431 |                 1059 |            2353337 |             0 |                0 |          899979 |                     0 |        645833 | 2017-02-06 15:17:53.646417+01

 2017-02-06 16:18:36.126427+01 | 1486394316.12643 |                 0 |              12 |                 21431 |                 1059 |            2353337 |             0 |                0 |          899979 |                     0 |        646029 | 2017-02-06 15:17:53.646417+01

 2017-02-06 16:18:37.207661+01 | 1486394317.20766 |                 0 |              12 |                 21431 |                 1059 |            2353337 |             0 |                0 |          899979 |                     0 |        646204 | 2017-02-06 15:17:53.646417+01

 2017-02-06 16:18:38.28817+01 | 1486394318.28817 |                 0 |              12 |                 21431 |                 1059 |            2353337 |             0 |                0 |          899979 |                     0 |        646374 | 2017-02-06 15:17:53.646417+01

 2017-02-06 16:18:39.369778+01 | 1486394319.36978 |                 0 |              12 |                 21431 |                 1059 |            2353337 |             0 |                0 |          899979 |                     0 |        646546 | 2017-02-06 15:17:53.646417+01

 2017-02-06 16:18:40.452328+01 | 1486394320.45233 |                 0 |              12 |                 21431 |                 1059 |            2353337 |             0 |                0 |          899979 |                     0 |        646732 | 2017-02-06 15:17:53.646417+01

 2017-02-06 16:18:41.530746+01 | 1486394321.53075 |                 0 |              12 |                 21431 |                 1059 |            2353337 |             0 |                0 |          899979 |                     0 |        646872 | 2017-02-06 15:17:53.646417+01

 2017-02-06 16:18:42.614584+01 | 1486394322.61458 |                 0 |              12 |                 21431 |                 1059 |            2353337 |             0 |                0 |          899979 |                     0 |        647066 | 2017-02-06 15:17:53.646417+01

 2017-02-06 16:18:43.701901+01 | 1486394323.7019 |                 0 |              12 |                 21431 |                 1059 |            2353337 |             0 |                0 |          899979 |                     0 |        647260 | 2017-02-06 15:17:53.646417+01

 2017-02-06 16:18:44.787143+01 | 1486394324.78714 |                 0 |              12 |                 21431 |                 1059 |            2353337 |             0 |                0 |          899979 |                     0 |        647365 | 2017-02-06 15:17:53.646417+01

