 2017-02-05 09:08:55.684937+01 | 1486282135.68494 | pgbench_branches_pkey |            40960
 2017-02-05 09:08:55.684937+01 | 1486282135.68494 | pgbench_tellers_pkey  |           245760
 2017-02-05 09:08:55.684937+01 | 1486282135.68494 | pgbench_accounts_pkey |       2246197248

 2017-02-05 09:08:56.778331+01 | 1486282136.77833 | pgbench_branches_pkey |            40960
 2017-02-05 09:08:56.778331+01 | 1486282136.77833 | pgbench_tellers_pkey  |           245760
 2017-02-05 09:08:56.778331+01 | 1486282136.77833 | pgbench_accounts_pkey |       2246197248

 2017-02-05 09:08:57.862288+01 | 1486282137.86229 | pgbench_branches_pkey |            40960
 2017-02-05 09:08:57.862288+01 | 1486282137.86229 | pgbench_tellers_pkey  |           245760
 2017-02-05 09:08:57.862288+01 | 1486282137.86229 | pgbench_accounts_pkey |       2246197248

 2017-02-05 09:08:58.946315+01 | 1486282138.94632 | pgbench_branches_pkey |            40960
 2017-02-05 09:08:58.946315+01 | 1486282138.94632 | pgbench_tellers_pkey  |           245760
 2017-02-05 09:08:58.946315+01 | 1486282138.94632 | pgbench_accounts_pkey |       2246197248

 2017-02-05 09:09:00.030018+01 | 1486282140.03002 | pgbench_branches_pkey |            40960
 2017-02-05 09:09:00.030018+01 | 1486282140.03002 | pgbench_tellers_pkey  |           245760
 2017-02-05 09:09:00.030018+01 | 1486282140.03002 | pgbench_accounts_pkey |       2246197248

 2017-02-05 09:09:01.116725+01 | 1486282141.11672 | pgbench_branches_pkey |            40960
 2017-02-05 09:09:01.116725+01 | 1486282141.11672 | pgbench_tellers_pkey  |           245760
 2017-02-05 09:09:01.116725+01 | 1486282141.11672 | pgbench_accounts_pkey |       2246197248

 2017-02-05 09:09:02.204647+01 | 1486282142.20465 | pgbench_branches_pkey |            40960
 2017-02-05 09:09:02.204647+01 | 1486282142.20465 | pgbench_tellers_pkey  |           245760
 2017-02-05 09:09:02.204647+01 | 1486282142.20465 | pgbench_accounts_pkey |       2246197248

 2017-02-05 09:09:03.293121+01 | 1486282143.29312 | pgbench_branches_pkey |            40960
 2017-02-05 09:09:03.293121+01 | 1486282143.29312 | pgbench_tellers_pkey  |           245760
 2017-02-05 09:09:03.293121+01 | 1486282143.29312 | pgbench_accounts_pkey |       2246197248

 2017-02-05 09:09:04.372935+01 | 1486282144.37294 | pgbench_branches_pkey |            40960
 2017-02-05 09:09:04.372935+01 | 1486282144.37294 | pgbench_tellers_pkey  |           245760
 2017-02-05 09:09:04.372935+01 | 1486282144.37294 | pgbench_accounts_pkey |       2246197248

 2017-02-05 09:09:05.453492+01 | 1486282145.45349 | pgbench_branches_pkey |            40960
 2017-02-05 09:09:05.453492+01 | 1486282145.45349 | pgbench_tellers_pkey  |           245760
 2017-02-05 09:09:05.453492+01 | 1486282145.45349 | pgbench_accounts_pkey |       2246197248

 2017-02-05 09:09:06.541376+01 | 1486282146.54138 | pgbench_branches_pkey |            40960
 2017-02-05 09:09:06.541376+01 | 1486282146.54138 | pgbench_tellers_pkey  |           245760
 2017-02-05 09:09:06.541376+01 | 1486282146.54138 | pgbench_accounts_pkey |       2246197248

 2017-02-05 09:09:07.627728+01 | 1486282147.62773 | pgbench_branches_pkey |            40960
 2017-02-05 09:09:07.627728+01 | 1486282147.62773 | pgbench_tellers_pkey  |           245760
 2017-02-05 09:09:07.627728+01 | 1486282147.62773 | pgbench_accounts_pkey |       2246197248

 2017-02-05 09:09:08.697137+01 | 1486282148.69714 | pgbench_branches_pkey |            40960
 2017-02-05 09:09:08.697137+01 | 1486282148.69714 | pgbench_tellers_pkey  |           245760
 2017-02-05 09:09:08.697137+01 | 1486282148.69714 | pgbench_accounts_pkey |       2246197248

 2017-02-05 09:09:09.761563+01 | 1486282149.76156 | pgbench_branches_pkey |            40960
 2017-02-05 09:09:09.761563+01 | 1486282149.76156 | pgbench_tellers_pkey  |           245760
 2017-02-05 09:09:09.761563+01 | 1486282149.76156 | pgbench_accounts_pkey |       2246197248

 2017-02-05 09:09:10.838873+01 | 1486282150.83887 | pgbench_branches_pkey |            40960
 2017-02-05 09:09:10.838873+01 | 1486282150.83887 | pgbench_tellers_pkey  |           245760
 2017-02-05 09:09:10.838873+01 | 1486282150.83887 | pgbench_accounts_pkey |       2246197248

 2017-02-05 09:09:11.933903+01 | 1486282151.9339 | pgbench_branches_pkey |            40960
 2017-02-05 09:09:11.933903+01 | 1486282151.9339 | pgbench_tellers_pkey  |           245760
 2017-02-05 09:09:11.933903+01 | 1486282151.9339 | pgbench_accounts_pkey |       2246197248

 2017-02-05 09:09:13.017216+01 | 1486282153.01722 | pgbench_branches_pkey |            40960
 2017-02-05 09:09:13.017216+01 | 1486282153.01722 | pgbench_tellers_pkey  |           245760
 2017-02-05 09:09:13.017216+01 | 1486282153.01722 | pgbench_accounts_pkey |       2246197248

 2017-02-05 09:09:14.106972+01 | 1486282154.10697 | pgbench_branches_pkey |            40960
 2017-02-05 09:09:14.106972+01 | 1486282154.10697 | pgbench_tellers_pkey  |           245760
 2017-02-05 09:09:14.106972+01 | 1486282154.10697 | pgbench_accounts_pkey |       2246197248

 2017-02-05 09:09:15.18493+01 | 1486282155.18493 | pgbench_branches_pkey |            40960
 2017-02-05 09:09:15.18493+01 | 1486282155.18493 | pgbench_tellers_pkey  |           245760
 2017-02-05 09:09:15.18493+01 | 1486282155.18493 | pgbench_accounts_pkey |       2246197248

 2017-02-05 09:09:16.267957+01 | 1486282156.26796 | pgbench_branches_pkey |            40960
 2017-02-05 09:09:16.267957+01 | 1486282156.26796 | pgbench_tellers_pkey  |           245760
 2017-02-05 09:09:16.267957+01 | 1486282156.26796 | pgbench_accounts_pkey |       2246197248

 2017-02-05 09:09:17.358089+01 | 1486282157.35809 | pgbench_branches_pkey |            40960
 2017-02-05 09:09:17.358089+01 | 1486282157.35809 | pgbench_tellers_pkey  |           245760
 2017-02-05 09:09:17.358089+01 | 1486282157.35809 | pgbench_accounts_pkey |       2246197248

 2017-02-05 09:09:18.441129+01 | 1486282158.44113 | pgbench_branches_pkey |            40960
 2017-02-05 09:09:18.441129+01 | 1486282158.44113 | pgbench_tellers_pkey  |           245760
 2017-02-05 09:09:18.441129+01 | 1486282158.44113 | pgbench_accounts_pkey |       2246197248

 2017-02-05 09:09:19.519617+01 | 1486282159.51962 | pgbench_branches_pkey |            40960
 2017-02-05 09:09:19.519617+01 | 1486282159.51962 | pgbench_tellers_pkey  |           245760
 2017-02-05 09:09:19.519617+01 | 1486282159.51962 | pgbench_accounts_pkey |       2246197248

 2017-02-05 09:09:20.600397+01 | 1486282160.6004 | pgbench_branches_pkey |            40960
 2017-02-05 09:09:20.600397+01 | 1486282160.6004 | pgbench_tellers_pkey  |           245760
 2017-02-05 09:09:20.600397+01 | 1486282160.6004 | pgbench_accounts_pkey |       2246197248

 2017-02-05 09:09:21.679331+01 | 1486282161.67933 | pgbench_branches_pkey |            40960
 2017-02-05 09:09:21.679331+01 | 1486282161.67933 | pgbench_tellers_pkey  |           245760
 2017-02-05 09:09:21.679331+01 | 1486282161.67933 | pgbench_accounts_pkey |       2246197248

 2017-02-05 09:09:22.776243+01 | 1486282162.77624 | pgbench_branches_pkey |            40960
 2017-02-05 09:09:22.776243+01 | 1486282162.77624 | pgbench_tellers_pkey  |           245760
 2017-02-05 09:09:22.776243+01 | 1486282162.77624 | pgbench_accounts_pkey |       2246197248

 2017-02-05 09:09:23.859257+01 | 1486282163.85926 | pgbench_branches_pkey |            40960
 2017-02-05 09:09:23.859257+01 | 1486282163.85926 | pgbench_tellers_pkey  |           245760
 2017-02-05 09:09:23.859257+01 | 1486282163.85926 | pgbench_accounts_pkey |       2246197248

 2017-02-05 09:09:24.936311+01 | 1486282164.93631 | pgbench_branches_pkey |            40960
 2017-02-05 09:09:24.936311+01 | 1486282164.93631 | pgbench_tellers_pkey  |           245760
 2017-02-05 09:09:24.936311+01 | 1486282164.93631 | pgbench_accounts_pkey |       2246197248

 2017-02-05 09:09:26.023526+01 | 1486282166.02353 | pgbench_branches_pkey |            40960
 2017-02-05 09:09:26.023526+01 | 1486282166.02353 | pgbench_tellers_pkey  |           245760
 2017-02-05 09:09:26.023526+01 | 1486282166.02353 | pgbench_accounts_pkey |       2246197248

 2017-02-05 09:09:27.10669+01 | 1486282167.10669 | pgbench_branches_pkey |            40960
 2017-02-05 09:09:27.10669+01 | 1486282167.10669 | pgbench_tellers_pkey  |           245760
 2017-02-05 09:09:27.10669+01 | 1486282167.10669 | pgbench_accounts_pkey |       2246197248

 2017-02-05 09:09:28.195307+01 | 1486282168.19531 | pgbench_branches_pkey |            40960
 2017-02-05 09:09:28.195307+01 | 1486282168.19531 | pgbench_tellers_pkey  |           245760
 2017-02-05 09:09:28.195307+01 | 1486282168.19531 | pgbench_accounts_pkey |       2246197248

 2017-02-05 09:09:29.272927+01 | 1486282169.27293 | pgbench_branches_pkey |            40960
 2017-02-05 09:09:29.272927+01 | 1486282169.27293 | pgbench_tellers_pkey  |           245760
 2017-02-05 09:09:29.272927+01 | 1486282169.27293 | pgbench_accounts_pkey |       2246197248

 2017-02-05 09:09:30.357364+01 | 1486282170.35736 | pgbench_branches_pkey |            40960
 2017-02-05 09:09:30.357364+01 | 1486282170.35736 | pgbench_tellers_pkey  |           245760
 2017-02-05 09:09:30.357364+01 | 1486282170.35736 | pgbench_accounts_pkey |       2246197248

 2017-02-05 09:09:31.444638+01 | 1486282171.44464 | pgbench_branches_pkey |            40960
 2017-02-05 09:09:31.444638+01 | 1486282171.44464 | pgbench_tellers_pkey  |           245760
 2017-02-05 09:09:31.444638+01 | 1486282171.44464 | pgbench_accounts_pkey |       2246197248

 2017-02-05 09:09:32.53306+01 | 1486282172.53306 | pgbench_branches_pkey |            40960
 2017-02-05 09:09:32.53306+01 | 1486282172.53306 | pgbench_tellers_pkey  |           245760
 2017-02-05 09:09:32.53306+01 | 1486282172.53306 | pgbench_accounts_pkey |       2246197248

 2017-02-05 09:09:33.624434+01 | 1486282173.62443 | pgbench_branches_pkey |            40960
 2017-02-05 09:09:33.624434+01 | 1486282173.62443 | pgbench_tellers_pkey  |           245760
 2017-02-05 09:09:33.624434+01 | 1486282173.62443 | pgbench_accounts_pkey |       2246197248

 2017-02-05 09:09:34.695077+01 | 1486282174.69508 | pgbench_branches_pkey |            40960
 2017-02-05 09:09:34.695077+01 | 1486282174.69508 | pgbench_tellers_pkey  |           245760
 2017-02-05 09:09:34.695077+01 | 1486282174.69508 | pgbench_accounts_pkey |       2246197248

 2017-02-05 09:09:35.779715+01 | 1486282175.77972 | pgbench_branches_pkey |            40960
 2017-02-05 09:09:35.779715+01 | 1486282175.77972 | pgbench_tellers_pkey  |           245760
 2017-02-05 09:09:35.779715+01 | 1486282175.77972 | pgbench_accounts_pkey |       2246197248

 2017-02-05 09:09:36.869672+01 | 1486282176.86967 | pgbench_branches_pkey |            40960
 2017-02-05 09:09:36.869672+01 | 1486282176.86967 | pgbench_tellers_pkey  |           245760
 2017-02-05 09:09:36.869672+01 | 1486282176.86967 | pgbench_accounts_pkey |       2246197248

 2017-02-05 09:09:37.955493+01 | 1486282177.95549 | pgbench_branches_pkey |            40960
 2017-02-05 09:09:37.955493+01 | 1486282177.95549 | pgbench_tellers_pkey  |           245760
 2017-02-05 09:09:37.955493+01 | 1486282177.95549 | pgbench_accounts_pkey |       2246197248

 2017-02-05 09:09:39.051811+01 | 1486282179.05181 | pgbench_branches_pkey |            40960
 2017-02-05 09:09:39.051811+01 | 1486282179.05181 | pgbench_tellers_pkey  |           245760
 2017-02-05 09:09:39.051811+01 | 1486282179.05181 | pgbench_accounts_pkey |       2246197248

 2017-02-05 09:09:40.134756+01 | 1486282180.13476 | pgbench_branches_pkey |            40960
 2017-02-05 09:09:40.134756+01 | 1486282180.13476 | pgbench_tellers_pkey  |           245760
 2017-02-05 09:09:40.134756+01 | 1486282180.13476 | pgbench_accounts_pkey |       2246197248

 2017-02-05 09:09:41.223146+01 | 1486282181.22315 | pgbench_branches_pkey |            40960
 2017-02-05 09:09:41.223146+01 | 1486282181.22315 | pgbench_tellers_pkey  |           245760
 2017-02-05 09:09:41.223146+01 | 1486282181.22315 | pgbench_accounts_pkey |       2246197248

 2017-02-05 09:09:42.306084+01 | 1486282182.30608 | pgbench_branches_pkey |            40960
 2017-02-05 09:09:42.306084+01 | 1486282182.30608 | pgbench_tellers_pkey  |           245760
 2017-02-05 09:09:42.306084+01 | 1486282182.30608 | pgbench_accounts_pkey |       2246197248

 2017-02-05 09:09:43.375525+01 | 1486282183.37552 | pgbench_branches_pkey |            40960
 2017-02-05 09:09:43.375525+01 | 1486282183.37552 | pgbench_tellers_pkey  |           245760
 2017-02-05 09:09:43.375525+01 | 1486282183.37552 | pgbench_accounts_pkey |       2246197248

 2017-02-05 09:09:44.444993+01 | 1486282184.44499 | pgbench_branches_pkey |            40960
 2017-02-05 09:09:44.444993+01 | 1486282184.44499 | pgbench_tellers_pkey  |           245760
 2017-02-05 09:09:44.444993+01 | 1486282184.44499 | pgbench_accounts_pkey |       2246197248

 2017-02-05 09:09:45.523506+01 | 1486282185.52351 | pgbench_branches_pkey |            40960
 2017-02-05 09:09:45.523506+01 | 1486282185.52351 | pgbench_tellers_pkey  |           245760
 2017-02-05 09:09:45.523506+01 | 1486282185.52351 | pgbench_accounts_pkey |       2246197248

 2017-02-05 09:09:46.613005+01 | 1486282186.613 | pgbench_branches_pkey |            40960
 2017-02-05 09:09:46.613005+01 | 1486282186.613 | pgbench_tellers_pkey  |           245760
 2017-02-05 09:09:46.613005+01 | 1486282186.613 | pgbench_accounts_pkey |       2246197248

 2017-02-05 09:09:47.695794+01 | 1486282187.69579 | pgbench_branches_pkey |            40960
 2017-02-05 09:09:47.695794+01 | 1486282187.69579 | pgbench_tellers_pkey  |           245760
 2017-02-05 09:09:47.695794+01 | 1486282187.69579 | pgbench_accounts_pkey |       2246197248

 2017-02-05 09:09:48.774813+01 | 1486282188.77481 | pgbench_branches_pkey |            40960
 2017-02-05 09:09:48.774813+01 | 1486282188.77481 | pgbench_tellers_pkey  |           245760
 2017-02-05 09:09:48.774813+01 | 1486282188.77481 | pgbench_accounts_pkey |       2246197248

 2017-02-05 09:09:49.853632+01 | 1486282189.85363 | pgbench_branches_pkey |            40960
 2017-02-05 09:09:49.853632+01 | 1486282189.85363 | pgbench_tellers_pkey  |           245760
 2017-02-05 09:09:49.853632+01 | 1486282189.85363 | pgbench_accounts_pkey |       2246197248

 2017-02-05 09:09:50.924199+01 | 1486282190.9242 | pgbench_branches_pkey |            40960
 2017-02-05 09:09:50.924199+01 | 1486282190.9242 | pgbench_tellers_pkey  |           245760
 2017-02-05 09:09:50.924199+01 | 1486282190.9242 | pgbench_accounts_pkey |       2246197248

 2017-02-05 09:09:52.00375+01 | 1486282192.00375 | pgbench_branches_pkey |            40960
 2017-02-05 09:09:52.00375+01 | 1486282192.00375 | pgbench_tellers_pkey  |           245760
 2017-02-05 09:09:52.00375+01 | 1486282192.00375 | pgbench_accounts_pkey |       2246197248

 2017-02-05 09:09:53.070651+01 | 1486282193.07065 | pgbench_branches_pkey |            40960
 2017-02-05 09:09:53.070651+01 | 1486282193.07065 | pgbench_tellers_pkey  |           245760
 2017-02-05 09:09:53.070651+01 | 1486282193.07065 | pgbench_accounts_pkey |       2246197248

 2017-02-05 09:09:54.160595+01 | 1486282194.16059 | pgbench_branches_pkey |            40960
 2017-02-05 09:09:54.160595+01 | 1486282194.16059 | pgbench_tellers_pkey  |           245760
 2017-02-05 09:09:54.160595+01 | 1486282194.16059 | pgbench_accounts_pkey |       2246197248

 2017-02-05 09:09:55.254368+01 | 1486282195.25437 | pgbench_branches_pkey |            40960
 2017-02-05 09:09:55.254368+01 | 1486282195.25437 | pgbench_tellers_pkey  |           245760
 2017-02-05 09:09:55.254368+01 | 1486282195.25437 | pgbench_accounts_pkey |       2246197248

 2017-02-05 09:09:56.33041+01 | 1486282196.33041 | pgbench_branches_pkey |            40960
 2017-02-05 09:09:56.33041+01 | 1486282196.33041 | pgbench_tellers_pkey  |           245760
 2017-02-05 09:09:56.33041+01 | 1486282196.33041 | pgbench_accounts_pkey |       2246197248

 2017-02-05 09:09:57.417154+01 | 1486282197.41715 | pgbench_branches_pkey |            40960
 2017-02-05 09:09:57.417154+01 | 1486282197.41715 | pgbench_tellers_pkey  |           245760
 2017-02-05 09:09:57.417154+01 | 1486282197.41715 | pgbench_accounts_pkey |       2246197248

 2017-02-05 09:09:58.489208+01 | 1486282198.48921 | pgbench_branches_pkey |            40960
 2017-02-05 09:09:58.489208+01 | 1486282198.48921 | pgbench_tellers_pkey  |           245760
 2017-02-05 09:09:58.489208+01 | 1486282198.48921 | pgbench_accounts_pkey |       2246197248

 2017-02-05 09:09:59.576791+01 | 1486282199.57679 | pgbench_branches_pkey |            40960
 2017-02-05 09:09:59.576791+01 | 1486282199.57679 | pgbench_tellers_pkey  |           245760
 2017-02-05 09:09:59.576791+01 | 1486282199.57679 | pgbench_accounts_pkey |       2246197248

 2017-02-05 09:10:00.644509+01 | 1486282200.64451 | pgbench_branches_pkey |            40960
 2017-02-05 09:10:00.644509+01 | 1486282200.64451 | pgbench_tellers_pkey  |           245760
 2017-02-05 09:10:00.644509+01 | 1486282200.64451 | pgbench_accounts_pkey |       2246197248

 2017-02-05 09:10:01.7284+01 | 1486282201.7284 | pgbench_branches_pkey |            40960
 2017-02-05 09:10:01.7284+01 | 1486282201.7284 | pgbench_tellers_pkey  |           245760
 2017-02-05 09:10:01.7284+01 | 1486282201.7284 | pgbench_accounts_pkey |       2246197248

 2017-02-05 09:10:02.79959+01 | 1486282202.79959 | pgbench_branches_pkey |            40960
 2017-02-05 09:10:02.79959+01 | 1486282202.79959 | pgbench_tellers_pkey  |           245760
 2017-02-05 09:10:02.79959+01 | 1486282202.79959 | pgbench_accounts_pkey |       2246197248

 2017-02-05 09:10:03.881151+01 | 1486282203.88115 | pgbench_branches_pkey |            40960
 2017-02-05 09:10:03.881151+01 | 1486282203.88115 | pgbench_tellers_pkey  |           245760
 2017-02-05 09:10:03.881151+01 | 1486282203.88115 | pgbench_accounts_pkey |       2246197248

 2017-02-05 09:10:04.958954+01 | 1486282204.95895 | pgbench_branches_pkey |            40960
 2017-02-05 09:10:04.958954+01 | 1486282204.95895 | pgbench_tellers_pkey  |           245760
 2017-02-05 09:10:04.958954+01 | 1486282204.95895 | pgbench_accounts_pkey |       2246197248

 2017-02-05 09:10:06.031583+01 | 1486282206.03158 | pgbench_branches_pkey |            40960
 2017-02-05 09:10:06.031583+01 | 1486282206.03158 | pgbench_tellers_pkey  |           245760
 2017-02-05 09:10:06.031583+01 | 1486282206.03158 | pgbench_accounts_pkey |       2246197248

 2017-02-05 09:10:07.107425+01 | 1486282207.10742 | pgbench_branches_pkey |            40960
 2017-02-05 09:10:07.107425+01 | 1486282207.10742 | pgbench_tellers_pkey  |           245760
 2017-02-05 09:10:07.107425+01 | 1486282207.10742 | pgbench_accounts_pkey |       2246197248

 2017-02-05 09:10:08.188089+01 | 1486282208.18809 | pgbench_branches_pkey |            40960
 2017-02-05 09:10:08.188089+01 | 1486282208.18809 | pgbench_tellers_pkey  |           245760
 2017-02-05 09:10:08.188089+01 | 1486282208.18809 | pgbench_accounts_pkey |       2246197248

 2017-02-05 09:10:09.268851+01 | 1486282209.26885 | pgbench_branches_pkey |            40960
 2017-02-05 09:10:09.268851+01 | 1486282209.26885 | pgbench_tellers_pkey  |           245760
 2017-02-05 09:10:09.268851+01 | 1486282209.26885 | pgbench_accounts_pkey |       2246197248

 2017-02-05 09:10:10.362961+01 | 1486282210.36296 | pgbench_branches_pkey |            40960
 2017-02-05 09:10:10.362961+01 | 1486282210.36296 | pgbench_tellers_pkey  |           245760
 2017-02-05 09:10:10.362961+01 | 1486282210.36296 | pgbench_accounts_pkey |       2246197248

 2017-02-05 09:10:11.44977+01 | 1486282211.44977 | pgbench_branches_pkey |            40960
 2017-02-05 09:10:11.44977+01 | 1486282211.44977 | pgbench_tellers_pkey  |           245760
 2017-02-05 09:10:11.44977+01 | 1486282211.44977 | pgbench_accounts_pkey |       2246197248

 2017-02-05 09:10:12.519825+01 | 1486282212.51982 | pgbench_branches_pkey |            40960
 2017-02-05 09:10:12.519825+01 | 1486282212.51982 | pgbench_tellers_pkey  |           245760
 2017-02-05 09:10:12.519825+01 | 1486282212.51982 | pgbench_accounts_pkey |       2246197248

 2017-02-05 09:10:13.584553+01 | 1486282213.58455 | pgbench_branches_pkey |            40960
 2017-02-05 09:10:13.584553+01 | 1486282213.58455 | pgbench_tellers_pkey  |           245760
 2017-02-05 09:10:13.584553+01 | 1486282213.58455 | pgbench_accounts_pkey |       2246197248

 2017-02-05 09:10:14.660347+01 | 1486282214.66035 | pgbench_branches_pkey |            40960
 2017-02-05 09:10:14.660347+01 | 1486282214.66035 | pgbench_tellers_pkey  |           245760
 2017-02-05 09:10:14.660347+01 | 1486282214.66035 | pgbench_accounts_pkey |       2246197248

 2017-02-05 09:10:15.737034+01 | 1486282215.73703 | pgbench_branches_pkey |            40960
 2017-02-05 09:10:15.737034+01 | 1486282215.73703 | pgbench_tellers_pkey  |           245760
 2017-02-05 09:10:15.737034+01 | 1486282215.73703 | pgbench_accounts_pkey |       2246197248

 2017-02-05 09:10:16.821819+01 | 1486282216.82182 | pgbench_branches_pkey |            40960
 2017-02-05 09:10:16.821819+01 | 1486282216.82182 | pgbench_tellers_pkey  |           245760
 2017-02-05 09:10:16.821819+01 | 1486282216.82182 | pgbench_accounts_pkey |       2246197248

 2017-02-05 09:10:17.909906+01 | 1486282217.90991 | pgbench_branches_pkey |            40960
 2017-02-05 09:10:17.909906+01 | 1486282217.90991 | pgbench_tellers_pkey  |           245760
 2017-02-05 09:10:17.909906+01 | 1486282217.90991 | pgbench_accounts_pkey |       2246197248

 2017-02-05 09:10:18.98718+01 | 1486282218.98718 | pgbench_branches_pkey |            40960
 2017-02-05 09:10:18.98718+01 | 1486282218.98718 | pgbench_tellers_pkey  |           245760
 2017-02-05 09:10:18.98718+01 | 1486282218.98718 | pgbench_accounts_pkey |       2246197248

 2017-02-05 09:10:20.081747+01 | 1486282220.08175 | pgbench_branches_pkey |            40960
 2017-02-05 09:10:20.081747+01 | 1486282220.08175 | pgbench_tellers_pkey  |           245760
 2017-02-05 09:10:20.081747+01 | 1486282220.08175 | pgbench_accounts_pkey |       2246197248

 2017-02-05 09:10:21.168201+01 | 1486282221.1682 | pgbench_branches_pkey |            40960
 2017-02-05 09:10:21.168201+01 | 1486282221.1682 | pgbench_tellers_pkey  |           245760
 2017-02-05 09:10:21.168201+01 | 1486282221.1682 | pgbench_accounts_pkey |       2246197248

 2017-02-05 09:10:22.252562+01 | 1486282222.25256 | pgbench_branches_pkey |            40960
 2017-02-05 09:10:22.252562+01 | 1486282222.25256 | pgbench_tellers_pkey  |           245760
 2017-02-05 09:10:22.252562+01 | 1486282222.25256 | pgbench_accounts_pkey |       2246197248

 2017-02-05 09:10:23.35358+01 | 1486282223.35358 | pgbench_branches_pkey |            40960
 2017-02-05 09:10:23.35358+01 | 1486282223.35358 | pgbench_tellers_pkey  |           245760
 2017-02-05 09:10:23.35358+01 | 1486282223.35358 | pgbench_accounts_pkey |       2246197248

 2017-02-05 09:10:24.443517+01 | 1486282224.44352 | pgbench_branches_pkey |            40960
 2017-02-05 09:10:24.443517+01 | 1486282224.44352 | pgbench_tellers_pkey  |           245760
 2017-02-05 09:10:24.443517+01 | 1486282224.44352 | pgbench_accounts_pkey |       2246197248

 2017-02-05 09:10:25.52023+01 | 1486282225.52023 | pgbench_branches_pkey |            40960
 2017-02-05 09:10:25.52023+01 | 1486282225.52023 | pgbench_tellers_pkey  |           245760
 2017-02-05 09:10:25.52023+01 | 1486282225.52023 | pgbench_accounts_pkey |       2246197248

 2017-02-05 09:10:26.606048+01 | 1486282226.60605 | pgbench_branches_pkey |            40960
 2017-02-05 09:10:26.606048+01 | 1486282226.60605 | pgbench_tellers_pkey  |           245760
 2017-02-05 09:10:26.606048+01 | 1486282226.60605 | pgbench_accounts_pkey |       2246197248

 2017-02-05 09:10:27.691969+01 | 1486282227.69197 | pgbench_branches_pkey |            40960
 2017-02-05 09:10:27.691969+01 | 1486282227.69197 | pgbench_tellers_pkey  |           245760
 2017-02-05 09:10:27.691969+01 | 1486282227.69197 | pgbench_accounts_pkey |       2246197248

 2017-02-05 09:10:28.769653+01 | 1486282228.76965 | pgbench_branches_pkey |            40960
 2017-02-05 09:10:28.769653+01 | 1486282228.76965 | pgbench_tellers_pkey  |           245760
 2017-02-05 09:10:28.769653+01 | 1486282228.76965 | pgbench_accounts_pkey |       2246197248

 2017-02-05 09:10:29.858308+01 | 1486282229.85831 | pgbench_branches_pkey |            40960
 2017-02-05 09:10:29.858308+01 | 1486282229.85831 | pgbench_tellers_pkey  |           245760
 2017-02-05 09:10:29.858308+01 | 1486282229.85831 | pgbench_accounts_pkey |       2246197248

 2017-02-05 09:10:30.942234+01 | 1486282230.94223 | pgbench_branches_pkey |            40960
 2017-02-05 09:10:30.942234+01 | 1486282230.94223 | pgbench_tellers_pkey  |           245760
 2017-02-05 09:10:30.942234+01 | 1486282230.94223 | pgbench_accounts_pkey |       2246197248

 2017-02-05 09:10:32.018669+01 | 1486282232.01867 | pgbench_branches_pkey |            40960
 2017-02-05 09:10:32.018669+01 | 1486282232.01867 | pgbench_tellers_pkey  |           245760
 2017-02-05 09:10:32.018669+01 | 1486282232.01867 | pgbench_accounts_pkey |       2246197248

 2017-02-05 09:10:33.089792+01 | 1486282233.08979 | pgbench_branches_pkey |            40960
 2017-02-05 09:10:33.089792+01 | 1486282233.08979 | pgbench_tellers_pkey  |           245760
 2017-02-05 09:10:33.089792+01 | 1486282233.08979 | pgbench_accounts_pkey |       2246197248

 2017-02-05 09:10:34.165581+01 | 1486282234.16558 | pgbench_branches_pkey |            40960
 2017-02-05 09:10:34.165581+01 | 1486282234.16558 | pgbench_tellers_pkey  |           245760
 2017-02-05 09:10:34.165581+01 | 1486282234.16558 | pgbench_accounts_pkey |       2246197248

 2017-02-05 09:10:35.252085+01 | 1486282235.25208 | pgbench_branches_pkey |            40960
 2017-02-05 09:10:35.252085+01 | 1486282235.25208 | pgbench_tellers_pkey  |           245760
 2017-02-05 09:10:35.252085+01 | 1486282235.25208 | pgbench_accounts_pkey |       2246197248

 2017-02-05 09:10:36.336746+01 | 1486282236.33675 | pgbench_branches_pkey |            40960
 2017-02-05 09:10:36.336746+01 | 1486282236.33675 | pgbench_tellers_pkey  |           245760
 2017-02-05 09:10:36.336746+01 | 1486282236.33675 | pgbench_accounts_pkey |       2246197248

 2017-02-05 09:10:37.430166+01 | 1486282237.43017 | pgbench_branches_pkey |            40960
 2017-02-05 09:10:37.430166+01 | 1486282237.43017 | pgbench_tellers_pkey  |           245760
 2017-02-05 09:10:37.430166+01 | 1486282237.43017 | pgbench_accounts_pkey |       2246197248

 2017-02-05 09:10:38.522993+01 | 1486282238.52299 | pgbench_branches_pkey |            40960
 2017-02-05 09:10:38.522993+01 | 1486282238.52299 | pgbench_tellers_pkey  |           245760
 2017-02-05 09:10:38.522993+01 | 1486282238.52299 | pgbench_accounts_pkey |       2246197248

 2017-02-05 09:10:39.609004+01 | 1486282239.609 | pgbench_branches_pkey |            40960
 2017-02-05 09:10:39.609004+01 | 1486282239.609 | pgbench_tellers_pkey  |           245760
 2017-02-05 09:10:39.609004+01 | 1486282239.609 | pgbench_accounts_pkey |       2246197248

 2017-02-05 09:10:40.706341+01 | 1486282240.70634 | pgbench_branches_pkey |            40960
 2017-02-05 09:10:40.706341+01 | 1486282240.70634 | pgbench_tellers_pkey  |           245760
 2017-02-05 09:10:40.706341+01 | 1486282240.70634 | pgbench_accounts_pkey |       2246197248

 2017-02-05 09:10:41.777687+01 | 1486282241.77769 | pgbench_branches_pkey |            40960
 2017-02-05 09:10:41.777687+01 | 1486282241.77769 | pgbench_tellers_pkey  |           245760
 2017-02-05 09:10:41.777687+01 | 1486282241.77769 | pgbench_accounts_pkey |       2246197248

 2017-02-05 09:10:42.861924+01 | 1486282242.86192 | pgbench_branches_pkey |            40960
 2017-02-05 09:10:42.861924+01 | 1486282242.86192 | pgbench_tellers_pkey  |           245760
 2017-02-05 09:10:42.861924+01 | 1486282242.86192 | pgbench_accounts_pkey |       2246197248

 2017-02-05 09:10:43.939013+01 | 1486282243.93901 | pgbench_branches_pkey |            40960
 2017-02-05 09:10:43.939013+01 | 1486282243.93901 | pgbench_tellers_pkey  |           245760
 2017-02-05 09:10:43.939013+01 | 1486282243.93901 | pgbench_accounts_pkey |       2246197248

 2017-02-05 09:10:45.031833+01 | 1486282245.03183 | pgbench_branches_pkey |            40960
 2017-02-05 09:10:45.031833+01 | 1486282245.03183 | pgbench_tellers_pkey  |           245760
 2017-02-05 09:10:45.031833+01 | 1486282245.03183 | pgbench_accounts_pkey |       2246197248

 2017-02-05 09:10:46.114982+01 | 1486282246.11498 | pgbench_branches_pkey |            40960
 2017-02-05 09:10:46.114982+01 | 1486282246.11498 | pgbench_tellers_pkey  |           245760
 2017-02-05 09:10:46.114982+01 | 1486282246.11498 | pgbench_accounts_pkey |       2246197248

 2017-02-05 09:10:47.202821+01 | 1486282247.20282 | pgbench_branches_pkey |            40960
 2017-02-05 09:10:47.202821+01 | 1486282247.20282 | pgbench_tellers_pkey  |           245760
 2017-02-05 09:10:47.202821+01 | 1486282247.20282 | pgbench_accounts_pkey |       2246197248

 2017-02-05 09:10:48.289717+01 | 1486282248.28972 | pgbench_branches_pkey |            40960
 2017-02-05 09:10:48.289717+01 | 1486282248.28972 | pgbench_tellers_pkey  |           245760
 2017-02-05 09:10:48.289717+01 | 1486282248.28972 | pgbench_accounts_pkey |       2246197248

 2017-02-05 09:10:49.376811+01 | 1486282249.37681 | pgbench_branches_pkey |            40960
 2017-02-05 09:10:49.376811+01 | 1486282249.37681 | pgbench_tellers_pkey  |           245760
 2017-02-05 09:10:49.376811+01 | 1486282249.37681 | pgbench_accounts_pkey |       2246197248

 2017-02-05 09:10:50.460993+01 | 1486282250.46099 | pgbench_branches_pkey |            40960
 2017-02-05 09:10:50.460993+01 | 1486282250.46099 | pgbench_tellers_pkey  |           245760
 2017-02-05 09:10:50.460993+01 | 1486282250.46099 | pgbench_accounts_pkey |       2246197248

 2017-02-05 09:10:51.547662+01 | 1486282251.54766 | pgbench_branches_pkey |            40960
 2017-02-05 09:10:51.547662+01 | 1486282251.54766 | pgbench_tellers_pkey  |           245760
 2017-02-05 09:10:51.547662+01 | 1486282251.54766 | pgbench_accounts_pkey |       2246197248

 2017-02-05 09:10:52.624187+01 | 1486282252.62419 | pgbench_branches_pkey |            40960
 2017-02-05 09:10:52.624187+01 | 1486282252.62419 | pgbench_tellers_pkey  |           245760
 2017-02-05 09:10:52.624187+01 | 1486282252.62419 | pgbench_accounts_pkey |       2246197248

 2017-02-05 09:10:53.710318+01 | 1486282253.71032 | pgbench_branches_pkey |            40960
 2017-02-05 09:10:53.710318+01 | 1486282253.71032 | pgbench_tellers_pkey  |           245760
 2017-02-05 09:10:53.710318+01 | 1486282253.71032 | pgbench_accounts_pkey |       2246197248

 2017-02-05 09:10:54.792855+01 | 1486282254.79286 | pgbench_branches_pkey |            40960
 2017-02-05 09:10:54.792855+01 | 1486282254.79286 | pgbench_tellers_pkey  |           245760
 2017-02-05 09:10:54.792855+01 | 1486282254.79286 | pgbench_accounts_pkey |       2246197248

 2017-02-05 09:10:55.889643+01 | 1486282255.88964 | pgbench_branches_pkey |            40960
 2017-02-05 09:10:55.889643+01 | 1486282255.88964 | pgbench_tellers_pkey  |           245760
 2017-02-05 09:10:55.889643+01 | 1486282255.88964 | pgbench_accounts_pkey |       2246197248

 2017-02-05 09:10:56.988806+01 | 1486282256.98881 | pgbench_branches_pkey |            40960
 2017-02-05 09:10:56.988806+01 | 1486282256.98881 | pgbench_tellers_pkey  |           245760
 2017-02-05 09:10:56.988806+01 | 1486282256.98881 | pgbench_accounts_pkey |       2246197248

 2017-02-05 09:10:58.07553+01 | 1486282258.07553 | pgbench_branches_pkey |            40960
 2017-02-05 09:10:58.07553+01 | 1486282258.07553 | pgbench_tellers_pkey  |           245760
 2017-02-05 09:10:58.07553+01 | 1486282258.07553 | pgbench_accounts_pkey |       2246197248

 2017-02-05 09:10:59.161301+01 | 1486282259.1613 | pgbench_branches_pkey |            40960
 2017-02-05 09:10:59.161301+01 | 1486282259.1613 | pgbench_tellers_pkey  |           245760
 2017-02-05 09:10:59.161301+01 | 1486282259.1613 | pgbench_accounts_pkey |       2246197248

 2017-02-05 09:11:00.245239+01 | 1486282260.24524 | pgbench_branches_pkey |            40960
 2017-02-05 09:11:00.245239+01 | 1486282260.24524 | pgbench_tellers_pkey  |           245760
 2017-02-05 09:11:00.245239+01 | 1486282260.24524 | pgbench_accounts_pkey |       2246197248

 2017-02-05 09:11:01.328064+01 | 1486282261.32806 | pgbench_branches_pkey |            40960
 2017-02-05 09:11:01.328064+01 | 1486282261.32806 | pgbench_tellers_pkey  |           245760
 2017-02-05 09:11:01.328064+01 | 1486282261.32806 | pgbench_accounts_pkey |       2246197248

 2017-02-05 09:11:02.423098+01 | 1486282262.4231 | pgbench_branches_pkey |            40960
 2017-02-05 09:11:02.423098+01 | 1486282262.4231 | pgbench_tellers_pkey  |           245760
 2017-02-05 09:11:02.423098+01 | 1486282262.4231 | pgbench_accounts_pkey |       2246197248

 2017-02-05 09:11:03.507414+01 | 1486282263.50741 | pgbench_branches_pkey |            40960
 2017-02-05 09:11:03.507414+01 | 1486282263.50741 | pgbench_tellers_pkey  |           245760
 2017-02-05 09:11:03.507414+01 | 1486282263.50741 | pgbench_accounts_pkey |       2246197248

 2017-02-05 09:11:04.600159+01 | 1486282264.60016 | pgbench_branches_pkey |            40960
 2017-02-05 09:11:04.600159+01 | 1486282264.60016 | pgbench_tellers_pkey  |           245760
 2017-02-05 09:11:04.600159+01 | 1486282264.60016 | pgbench_accounts_pkey |       2246197248

 2017-02-05 09:11:05.672731+01 | 1486282265.67273 | pgbench_branches_pkey |            40960
 2017-02-05 09:11:05.672731+01 | 1486282265.67273 | pgbench_tellers_pkey  |           245760
 2017-02-05 09:11:05.672731+01 | 1486282265.67273 | pgbench_accounts_pkey |       2246197248

 2017-02-05 09:11:06.762078+01 | 1486282266.76208 | pgbench_branches_pkey |            40960
 2017-02-05 09:11:06.762078+01 | 1486282266.76208 | pgbench_tellers_pkey  |           245760
 2017-02-05 09:11:06.762078+01 | 1486282266.76208 | pgbench_accounts_pkey |       2246197248

 2017-02-05 09:11:07.843134+01 | 1486282267.84313 | pgbench_branches_pkey |            40960
 2017-02-05 09:11:07.843134+01 | 1486282267.84313 | pgbench_tellers_pkey  |           245760
 2017-02-05 09:11:07.843134+01 | 1486282267.84313 | pgbench_accounts_pkey |       2246197248

 2017-02-05 09:11:08.915944+01 | 1486282268.91594 | pgbench_branches_pkey |            40960
 2017-02-05 09:11:08.915944+01 | 1486282268.91594 | pgbench_tellers_pkey  |           245760
 2017-02-05 09:11:08.915944+01 | 1486282268.91594 | pgbench_accounts_pkey |       2246197248

 2017-02-05 09:11:09.983358+01 | 1486282269.98336 | pgbench_branches_pkey |            40960
 2017-02-05 09:11:09.983358+01 | 1486282269.98336 | pgbench_tellers_pkey  |           245760
 2017-02-05 09:11:09.983358+01 | 1486282269.98336 | pgbench_accounts_pkey |       2246197248

 2017-02-05 09:11:11.061031+01 | 1486282271.06103 | pgbench_branches_pkey |            40960
 2017-02-05 09:11:11.061031+01 | 1486282271.06103 | pgbench_tellers_pkey  |           245760
 2017-02-05 09:11:11.061031+01 | 1486282271.06103 | pgbench_accounts_pkey |       2246197248

 2017-02-05 09:11:12.137918+01 | 1486282272.13792 | pgbench_branches_pkey |            40960
 2017-02-05 09:11:12.137918+01 | 1486282272.13792 | pgbench_tellers_pkey  |           245760
 2017-02-05 09:11:12.137918+01 | 1486282272.13792 | pgbench_accounts_pkey |       2246197248

 2017-02-05 09:11:13.219601+01 | 1486282273.2196 | pgbench_branches_pkey |            40960
 2017-02-05 09:11:13.219601+01 | 1486282273.2196 | pgbench_tellers_pkey  |           245760
 2017-02-05 09:11:13.219601+01 | 1486282273.2196 | pgbench_accounts_pkey |       2246197248

 2017-02-05 09:11:14.291093+01 | 1486282274.29109 | pgbench_branches_pkey |            40960
 2017-02-05 09:11:14.291093+01 | 1486282274.29109 | pgbench_tellers_pkey  |           245760
 2017-02-05 09:11:14.291093+01 | 1486282274.29109 | pgbench_accounts_pkey |       2246197248

 2017-02-05 09:11:15.380742+01 | 1486282275.38074 | pgbench_branches_pkey |            40960
 2017-02-05 09:11:15.380742+01 | 1486282275.38074 | pgbench_tellers_pkey  |           245760
 2017-02-05 09:11:15.380742+01 | 1486282275.38074 | pgbench_accounts_pkey |       2246197248

 2017-02-05 09:11:16.460215+01 | 1486282276.46022 | pgbench_branches_pkey |            40960
 2017-02-05 09:11:16.460215+01 | 1486282276.46022 | pgbench_tellers_pkey  |           245760
 2017-02-05 09:11:16.460215+01 | 1486282276.46022 | pgbench_accounts_pkey |       2246197248

 2017-02-05 09:11:17.523287+01 | 1486282277.52329 | pgbench_branches_pkey |            40960
 2017-02-05 09:11:17.523287+01 | 1486282277.52329 | pgbench_tellers_pkey  |           245760
 2017-02-05 09:11:17.523287+01 | 1486282277.52329 | pgbench_accounts_pkey |       2246197248

 2017-02-05 09:11:18.604752+01 | 1486282278.60475 | pgbench_branches_pkey |            40960
 2017-02-05 09:11:18.604752+01 | 1486282278.60475 | pgbench_tellers_pkey  |           245760
 2017-02-05 09:11:18.604752+01 | 1486282278.60475 | pgbench_accounts_pkey |       2246197248

 2017-02-05 09:11:19.687162+01 | 1486282279.68716 | pgbench_branches_pkey |            40960
 2017-02-05 09:11:19.687162+01 | 1486282279.68716 | pgbench_tellers_pkey  |           245760
 2017-02-05 09:11:19.687162+01 | 1486282279.68716 | pgbench_accounts_pkey |       2246197248

 2017-02-05 09:11:20.768+01 | 1486282280.768 | pgbench_branches_pkey |            40960
 2017-02-05 09:11:20.768+01 | 1486282280.768 | pgbench_tellers_pkey  |           245760
 2017-02-05 09:11:20.768+01 | 1486282280.768 | pgbench_accounts_pkey |       2246197248

 2017-02-05 09:11:21.84569+01 | 1486282281.84569 | pgbench_branches_pkey |            40960
 2017-02-05 09:11:21.84569+01 | 1486282281.84569 | pgbench_tellers_pkey  |           245760
 2017-02-05 09:11:21.84569+01 | 1486282281.84569 | pgbench_accounts_pkey |       2246197248

 2017-02-05 09:11:22.934358+01 | 1486282282.93436 | pgbench_branches_pkey |            40960
 2017-02-05 09:11:22.934358+01 | 1486282282.93436 | pgbench_tellers_pkey  |           245760
 2017-02-05 09:11:22.934358+01 | 1486282282.93436 | pgbench_accounts_pkey |       2246197248

 2017-02-05 09:11:24.03482+01 | 1486282284.03482 | pgbench_branches_pkey |            40960
 2017-02-05 09:11:24.03482+01 | 1486282284.03482 | pgbench_tellers_pkey  |           245760
 2017-02-05 09:11:24.03482+01 | 1486282284.03482 | pgbench_accounts_pkey |       2246197248

 2017-02-05 09:11:25.129311+01 | 1486282285.12931 | pgbench_branches_pkey |            40960
 2017-02-05 09:11:25.129311+01 | 1486282285.12931 | pgbench_tellers_pkey  |           245760
 2017-02-05 09:11:25.129311+01 | 1486282285.12931 | pgbench_accounts_pkey |       2246197248

 2017-02-05 09:11:26.208668+01 | 1486282286.20867 | pgbench_branches_pkey |            40960
 2017-02-05 09:11:26.208668+01 | 1486282286.20867 | pgbench_tellers_pkey  |           245760
 2017-02-05 09:11:26.208668+01 | 1486282286.20867 | pgbench_accounts_pkey |       2246197248

 2017-02-05 09:11:27.296+01 | 1486282287.296 | pgbench_branches_pkey |            40960
 2017-02-05 09:11:27.296+01 | 1486282287.296 | pgbench_tellers_pkey  |           245760
 2017-02-05 09:11:27.296+01 | 1486282287.296 | pgbench_accounts_pkey |       2246197248

 2017-02-05 09:11:28.378117+01 | 1486282288.37812 | pgbench_branches_pkey |            40960
 2017-02-05 09:11:28.378117+01 | 1486282288.37812 | pgbench_tellers_pkey  |           245760
 2017-02-05 09:11:28.378117+01 | 1486282288.37812 | pgbench_accounts_pkey |       2246197248

 2017-02-05 09:11:29.453583+01 | 1486282289.45358 | pgbench_branches_pkey |            40960
 2017-02-05 09:11:29.453583+01 | 1486282289.45358 | pgbench_tellers_pkey  |           245760
 2017-02-05 09:11:29.453583+01 | 1486282289.45358 | pgbench_accounts_pkey |       2246197248

 2017-02-05 09:11:30.542539+01 | 1486282290.54254 | pgbench_branches_pkey |            40960
 2017-02-05 09:11:30.542539+01 | 1486282290.54254 | pgbench_tellers_pkey  |           245760
 2017-02-05 09:11:30.542539+01 | 1486282290.54254 | pgbench_accounts_pkey |       2246197248

 2017-02-05 09:11:31.614049+01 | 1486282291.61405 | pgbench_branches_pkey |            40960
 2017-02-05 09:11:31.614049+01 | 1486282291.61405 | pgbench_tellers_pkey  |           245760
 2017-02-05 09:11:31.614049+01 | 1486282291.61405 | pgbench_accounts_pkey |       2246197248

 2017-02-05 09:11:32.691816+01 | 1486282292.69182 | pgbench_branches_pkey |            40960
 2017-02-05 09:11:32.691816+01 | 1486282292.69182 | pgbench_tellers_pkey  |           245760
 2017-02-05 09:11:32.691816+01 | 1486282292.69182 | pgbench_accounts_pkey |       2246197248

 2017-02-05 09:11:33.775446+01 | 1486282293.77545 | pgbench_branches_pkey |            40960
 2017-02-05 09:11:33.775446+01 | 1486282293.77545 | pgbench_tellers_pkey  |           245760
 2017-02-05 09:11:33.775446+01 | 1486282293.77545 | pgbench_accounts_pkey |       2246197248

 2017-02-05 09:11:34.858055+01 | 1486282294.85806 | pgbench_branches_pkey |            40960
 2017-02-05 09:11:34.858055+01 | 1486282294.85806 | pgbench_tellers_pkey  |           245760
 2017-02-05 09:11:34.858055+01 | 1486282294.85806 | pgbench_accounts_pkey |       2246197248

 2017-02-05 09:11:35.942967+01 | 1486282295.94297 | pgbench_branches_pkey |            40960
 2017-02-05 09:11:35.942967+01 | 1486282295.94297 | pgbench_tellers_pkey  |           245760
 2017-02-05 09:11:35.942967+01 | 1486282295.94297 | pgbench_accounts_pkey |       2246197248

 2017-02-05 09:11:37.031512+01 | 1486282297.03151 | pgbench_branches_pkey |            40960
 2017-02-05 09:11:37.031512+01 | 1486282297.03151 | pgbench_tellers_pkey  |           245760
 2017-02-05 09:11:37.031512+01 | 1486282297.03151 | pgbench_accounts_pkey |       2246197248

 2017-02-05 09:11:38.123533+01 | 1486282298.12353 | pgbench_branches_pkey |            40960
 2017-02-05 09:11:38.123533+01 | 1486282298.12353 | pgbench_tellers_pkey  |           245760
 2017-02-05 09:11:38.123533+01 | 1486282298.12353 | pgbench_accounts_pkey |       2246197248

 2017-02-05 09:11:39.203407+01 | 1486282299.20341 | pgbench_branches_pkey |            40960
 2017-02-05 09:11:39.203407+01 | 1486282299.20341 | pgbench_tellers_pkey  |           245760
 2017-02-05 09:11:39.203407+01 | 1486282299.20341 | pgbench_accounts_pkey |       2246197248

 2017-02-05 09:11:40.27872+01 | 1486282300.27872 | pgbench_branches_pkey |            40960
 2017-02-05 09:11:40.27872+01 | 1486282300.27872 | pgbench_tellers_pkey  |           245760
 2017-02-05 09:11:40.27872+01 | 1486282300.27872 | pgbench_accounts_pkey |       2246197248

 2017-02-05 09:11:41.365983+01 | 1486282301.36598 | pgbench_branches_pkey |            40960
 2017-02-05 09:11:41.365983+01 | 1486282301.36598 | pgbench_tellers_pkey  |           245760
 2017-02-05 09:11:41.365983+01 | 1486282301.36598 | pgbench_accounts_pkey |       2246197248

 2017-02-05 09:11:42.444938+01 | 1486282302.44494 | pgbench_branches_pkey |            40960
 2017-02-05 09:11:42.444938+01 | 1486282302.44494 | pgbench_tellers_pkey  |           245760
 2017-02-05 09:11:42.444938+01 | 1486282302.44494 | pgbench_accounts_pkey |       2246197248

 2017-02-05 09:11:43.533666+01 | 1486282303.53367 | pgbench_branches_pkey |            40960
 2017-02-05 09:11:43.533666+01 | 1486282303.53367 | pgbench_tellers_pkey  |           245760
 2017-02-05 09:11:43.533666+01 | 1486282303.53367 | pgbench_accounts_pkey |       2246197248

 2017-02-05 09:11:44.611417+01 | 1486282304.61142 | pgbench_branches_pkey |            40960
 2017-02-05 09:11:44.611417+01 | 1486282304.61142 | pgbench_tellers_pkey  |           245760
 2017-02-05 09:11:44.611417+01 | 1486282304.61142 | pgbench_accounts_pkey |       2246197248

 2017-02-05 09:11:45.706983+01 | 1486282305.70698 | pgbench_branches_pkey |            40960
 2017-02-05 09:11:45.706983+01 | 1486282305.70698 | pgbench_tellers_pkey  |           245760
 2017-02-05 09:11:45.706983+01 | 1486282305.70698 | pgbench_accounts_pkey |       2246197248

 2017-02-05 09:11:46.805091+01 | 1486282306.80509 | pgbench_branches_pkey |            40960
 2017-02-05 09:11:46.805091+01 | 1486282306.80509 | pgbench_tellers_pkey  |           245760
 2017-02-05 09:11:46.805091+01 | 1486282306.80509 | pgbench_accounts_pkey |       2246197248

 2017-02-05 09:11:47.897688+01 | 1486282307.89769 | pgbench_branches_pkey |            40960
 2017-02-05 09:11:47.897688+01 | 1486282307.89769 | pgbench_tellers_pkey  |           245760
 2017-02-05 09:11:47.897688+01 | 1486282307.89769 | pgbench_accounts_pkey |       2246197248

 2017-02-05 09:11:48.984035+01 | 1486282308.98404 | pgbench_branches_pkey |            40960
 2017-02-05 09:11:48.984035+01 | 1486282308.98404 | pgbench_tellers_pkey  |           245760
 2017-02-05 09:11:48.984035+01 | 1486282308.98404 | pgbench_accounts_pkey |       2246197248

 2017-02-05 09:11:50.069722+01 | 1486282310.06972 | pgbench_branches_pkey |            40960
 2017-02-05 09:11:50.069722+01 | 1486282310.06972 | pgbench_tellers_pkey  |           245760
 2017-02-05 09:11:50.069722+01 | 1486282310.06972 | pgbench_accounts_pkey |       2246197248

 2017-02-05 09:11:51.152864+01 | 1486282311.15286 | pgbench_branches_pkey |            40960
 2017-02-05 09:11:51.152864+01 | 1486282311.15286 | pgbench_tellers_pkey  |           245760
 2017-02-05 09:11:51.152864+01 | 1486282311.15286 | pgbench_accounts_pkey |       2246197248

 2017-02-05 09:11:52.241575+01 | 1486282312.24158 | pgbench_branches_pkey |            40960
 2017-02-05 09:11:52.241575+01 | 1486282312.24158 | pgbench_tellers_pkey  |           245760
 2017-02-05 09:11:52.241575+01 | 1486282312.24158 | pgbench_accounts_pkey |       2246197248

 2017-02-05 09:11:53.326666+01 | 1486282313.32667 | pgbench_branches_pkey |            40960
 2017-02-05 09:11:53.326666+01 | 1486282313.32667 | pgbench_tellers_pkey  |           245760
 2017-02-05 09:11:53.326666+01 | 1486282313.32667 | pgbench_accounts_pkey |       2246197248

 2017-02-05 09:11:54.414147+01 | 1486282314.41415 | pgbench_branches_pkey |            40960
 2017-02-05 09:11:54.414147+01 | 1486282314.41415 | pgbench_tellers_pkey  |           245760
 2017-02-05 09:11:54.414147+01 | 1486282314.41415 | pgbench_accounts_pkey |       2246197248

 2017-02-05 09:11:55.502296+01 | 1486282315.5023 | pgbench_branches_pkey |            40960
 2017-02-05 09:11:55.502296+01 | 1486282315.5023 | pgbench_tellers_pkey  |           245760
 2017-02-05 09:11:55.502296+01 | 1486282315.5023 | pgbench_accounts_pkey |       2246197248

 2017-02-05 09:11:56.585808+01 | 1486282316.58581 | pgbench_branches_pkey |            40960
 2017-02-05 09:11:56.585808+01 | 1486282316.58581 | pgbench_tellers_pkey  |           245760
 2017-02-05 09:11:56.585808+01 | 1486282316.58581 | pgbench_accounts_pkey |       2246197248

 2017-02-05 09:11:57.674297+01 | 1486282317.6743 | pgbench_branches_pkey |            40960
 2017-02-05 09:11:57.674297+01 | 1486282317.6743 | pgbench_tellers_pkey  |           245760
 2017-02-05 09:11:57.674297+01 | 1486282317.6743 | pgbench_accounts_pkey |       2246197248

 2017-02-05 09:11:58.758256+01 | 1486282318.75826 | pgbench_branches_pkey |            40960
 2017-02-05 09:11:58.758256+01 | 1486282318.75826 | pgbench_tellers_pkey  |           245760
 2017-02-05 09:11:58.758256+01 | 1486282318.75826 | pgbench_accounts_pkey |       2246197248

 2017-02-05 09:11:59.845689+01 | 1486282319.84569 | pgbench_branches_pkey |            40960
 2017-02-05 09:11:59.845689+01 | 1486282319.84569 | pgbench_tellers_pkey  |           245760
 2017-02-05 09:11:59.845689+01 | 1486282319.84569 | pgbench_accounts_pkey |       2246197248

 2017-02-05 09:12:00.940749+01 | 1486282320.94075 | pgbench_branches_pkey |            40960
 2017-02-05 09:12:00.940749+01 | 1486282320.94075 | pgbench_tellers_pkey  |           245760
 2017-02-05 09:12:00.940749+01 | 1486282320.94075 | pgbench_accounts_pkey |       2246197248

 2017-02-05 09:12:02.030418+01 | 1486282322.03042 | pgbench_branches_pkey |            40960
 2017-02-05 09:12:02.030418+01 | 1486282322.03042 | pgbench_tellers_pkey  |           245760
 2017-02-05 09:12:02.030418+01 | 1486282322.03042 | pgbench_accounts_pkey |       2246197248

 2017-02-05 09:12:03.095794+01 | 1486282323.09579 | pgbench_branches_pkey |            40960
 2017-02-05 09:12:03.095794+01 | 1486282323.09579 | pgbench_tellers_pkey  |           245760
 2017-02-05 09:12:03.095794+01 | 1486282323.09579 | pgbench_accounts_pkey |       2246197248

 2017-02-05 09:12:04.18605+01 | 1486282324.18605 | pgbench_branches_pkey |            40960
 2017-02-05 09:12:04.18605+01 | 1486282324.18605 | pgbench_tellers_pkey  |           245760
 2017-02-05 09:12:04.18605+01 | 1486282324.18605 | pgbench_accounts_pkey |       2246197248

 2017-02-05 09:12:05.270412+01 | 1486282325.27041 | pgbench_branches_pkey |            40960
 2017-02-05 09:12:05.270412+01 | 1486282325.27041 | pgbench_tellers_pkey  |           245760
 2017-02-05 09:12:05.270412+01 | 1486282325.27041 | pgbench_accounts_pkey |       2246197248

 2017-02-05 09:12:06.347513+01 | 1486282326.34751 | pgbench_branches_pkey |            40960
 2017-02-05 09:12:06.347513+01 | 1486282326.34751 | pgbench_tellers_pkey  |           245760
 2017-02-05 09:12:06.347513+01 | 1486282326.34751 | pgbench_accounts_pkey |       2246197248

 2017-02-05 09:12:07.43082+01 | 1486282327.43082 | pgbench_branches_pkey |            40960
 2017-02-05 09:12:07.43082+01 | 1486282327.43082 | pgbench_tellers_pkey  |           245760
 2017-02-05 09:12:07.43082+01 | 1486282327.43082 | pgbench_accounts_pkey |       2246197248

 2017-02-05 09:12:08.511221+01 | 1486282328.51122 | pgbench_branches_pkey |            40960
 2017-02-05 09:12:08.511221+01 | 1486282328.51122 | pgbench_tellers_pkey  |           245760
 2017-02-05 09:12:08.511221+01 | 1486282328.51122 | pgbench_accounts_pkey |       2246197248

 2017-02-05 09:12:09.599673+01 | 1486282329.59967 | pgbench_branches_pkey |            40960
 2017-02-05 09:12:09.599673+01 | 1486282329.59967 | pgbench_tellers_pkey  |           245760
 2017-02-05 09:12:09.599673+01 | 1486282329.59967 | pgbench_accounts_pkey |       2246197248

 2017-02-05 09:12:10.690392+01 | 1486282330.69039 | pgbench_branches_pkey |            40960
 2017-02-05 09:12:10.690392+01 | 1486282330.69039 | pgbench_tellers_pkey  |           245760
 2017-02-05 09:12:10.690392+01 | 1486282330.69039 | pgbench_accounts_pkey |       2246197248

 2017-02-05 09:12:11.762335+01 | 1486282331.76234 | pgbench_branches_pkey |            40960
 2017-02-05 09:12:11.762335+01 | 1486282331.76234 | pgbench_tellers_pkey  |           245760
 2017-02-05 09:12:11.762335+01 | 1486282331.76234 | pgbench_accounts_pkey |       2246197248

 2017-02-05 09:12:12.846709+01 | 1486282332.84671 | pgbench_branches_pkey |            40960
 2017-02-05 09:12:12.846709+01 | 1486282332.84671 | pgbench_tellers_pkey  |           245760
 2017-02-05 09:12:12.846709+01 | 1486282332.84671 | pgbench_accounts_pkey |       2246197248

 2017-02-05 09:12:13.931276+01 | 1486282333.93128 | pgbench_branches_pkey |            40960
 2017-02-05 09:12:13.931276+01 | 1486282333.93128 | pgbench_tellers_pkey  |           245760
 2017-02-05 09:12:13.931276+01 | 1486282333.93128 | pgbench_accounts_pkey |       2246197248

 2017-02-05 09:12:15.014733+01 | 1486282335.01473 | pgbench_branches_pkey |            40960
 2017-02-05 09:12:15.014733+01 | 1486282335.01473 | pgbench_tellers_pkey  |           245760
 2017-02-05 09:12:15.014733+01 | 1486282335.01473 | pgbench_accounts_pkey |       2246197248

 2017-02-05 09:12:16.084967+01 | 1486282336.08497 | pgbench_branches_pkey |            40960
 2017-02-05 09:12:16.084967+01 | 1486282336.08497 | pgbench_tellers_pkey  |           245760
 2017-02-05 09:12:16.084967+01 | 1486282336.08497 | pgbench_accounts_pkey |       2246197248

 2017-02-05 09:12:17.17653+01 | 1486282337.17653 | pgbench_branches_pkey |            40960
 2017-02-05 09:12:17.17653+01 | 1486282337.17653 | pgbench_tellers_pkey  |           245760
 2017-02-05 09:12:17.17653+01 | 1486282337.17653 | pgbench_accounts_pkey |       2246197248

 2017-02-05 09:12:18.262716+01 | 1486282338.26272 | pgbench_branches_pkey |            40960
 2017-02-05 09:12:18.262716+01 | 1486282338.26272 | pgbench_tellers_pkey  |           245760
 2017-02-05 09:12:18.262716+01 | 1486282338.26272 | pgbench_accounts_pkey |       2246197248

 2017-02-05 09:12:19.341933+01 | 1486282339.34193 | pgbench_branches_pkey |            40960
 2017-02-05 09:12:19.341933+01 | 1486282339.34193 | pgbench_tellers_pkey  |           245760
 2017-02-05 09:12:19.341933+01 | 1486282339.34193 | pgbench_accounts_pkey |       2246197248

 2017-02-05 09:12:20.427867+01 | 1486282340.42787 | pgbench_branches_pkey |            40960
 2017-02-05 09:12:20.427867+01 | 1486282340.42787 | pgbench_tellers_pkey  |           245760
 2017-02-05 09:12:20.427867+01 | 1486282340.42787 | pgbench_accounts_pkey |       2246197248

 2017-02-05 09:12:21.502333+01 | 1486282341.50233 | pgbench_branches_pkey |            40960
 2017-02-05 09:12:21.502333+01 | 1486282341.50233 | pgbench_tellers_pkey  |           245760
 2017-02-05 09:12:21.502333+01 | 1486282341.50233 | pgbench_accounts_pkey |       2246197248

 2017-02-05 09:12:22.584807+01 | 1486282342.58481 | pgbench_branches_pkey |            40960
 2017-02-05 09:12:22.584807+01 | 1486282342.58481 | pgbench_tellers_pkey  |           245760
 2017-02-05 09:12:22.584807+01 | 1486282342.58481 | pgbench_accounts_pkey |       2246197248

 2017-02-05 09:12:23.662087+01 | 1486282343.66209 | pgbench_branches_pkey |            40960
 2017-02-05 09:12:23.662087+01 | 1486282343.66209 | pgbench_tellers_pkey  |           245760
 2017-02-05 09:12:23.662087+01 | 1486282343.66209 | pgbench_accounts_pkey |       2246197248

 2017-02-05 09:12:24.74692+01 | 1486282344.74692 | pgbench_branches_pkey |            40960
 2017-02-05 09:12:24.74692+01 | 1486282344.74692 | pgbench_tellers_pkey  |           245760
 2017-02-05 09:12:24.74692+01 | 1486282344.74692 | pgbench_accounts_pkey |       2246197248

 2017-02-05 09:12:25.835212+01 | 1486282345.83521 | pgbench_branches_pkey |            40960
 2017-02-05 09:12:25.835212+01 | 1486282345.83521 | pgbench_tellers_pkey  |           245760
 2017-02-05 09:12:25.835212+01 | 1486282345.83521 | pgbench_accounts_pkey |       2246197248

 2017-02-05 09:12:26.923895+01 | 1486282346.92389 | pgbench_branches_pkey |            40960
 2017-02-05 09:12:26.923895+01 | 1486282346.92389 | pgbench_tellers_pkey  |           245760
 2017-02-05 09:12:26.923895+01 | 1486282346.92389 | pgbench_accounts_pkey |       2246197248

 2017-02-05 09:12:28.015835+01 | 1486282348.01584 | pgbench_branches_pkey |            40960
 2017-02-05 09:12:28.015835+01 | 1486282348.01584 | pgbench_tellers_pkey  |           245760
 2017-02-05 09:12:28.015835+01 | 1486282348.01584 | pgbench_accounts_pkey |       2246197248

 2017-02-05 09:12:29.106176+01 | 1486282349.10618 | pgbench_branches_pkey |            40960
 2017-02-05 09:12:29.106176+01 | 1486282349.10618 | pgbench_tellers_pkey  |           245760
 2017-02-05 09:12:29.106176+01 | 1486282349.10618 | pgbench_accounts_pkey |       2246197248

 2017-02-05 09:12:30.184206+01 | 1486282350.18421 | pgbench_branches_pkey |            40960
 2017-02-05 09:12:30.184206+01 | 1486282350.18421 | pgbench_tellers_pkey  |           245760
 2017-02-05 09:12:30.184206+01 | 1486282350.18421 | pgbench_accounts_pkey |       2246197248

 2017-02-05 09:12:31.253801+01 | 1486282351.2538 | pgbench_branches_pkey |            40960
 2017-02-05 09:12:31.253801+01 | 1486282351.2538 | pgbench_tellers_pkey  |           245760
 2017-02-05 09:12:31.253801+01 | 1486282351.2538 | pgbench_accounts_pkey |       2246197248

 2017-02-05 09:12:32.335771+01 | 1486282352.33577 | pgbench_branches_pkey |            40960
 2017-02-05 09:12:32.335771+01 | 1486282352.33577 | pgbench_tellers_pkey  |           245760
 2017-02-05 09:12:32.335771+01 | 1486282352.33577 | pgbench_accounts_pkey |       2246197248

 2017-02-05 09:12:33.406987+01 | 1486282353.40699 | pgbench_branches_pkey |            40960
 2017-02-05 09:12:33.406987+01 | 1486282353.40699 | pgbench_tellers_pkey  |           245760
 2017-02-05 09:12:33.406987+01 | 1486282353.40699 | pgbench_accounts_pkey |       2246197248

 2017-02-05 09:12:34.48171+01 | 1486282354.48171 | pgbench_branches_pkey |            40960
 2017-02-05 09:12:34.48171+01 | 1486282354.48171 | pgbench_tellers_pkey  |           245760
 2017-02-05 09:12:34.48171+01 | 1486282354.48171 | pgbench_accounts_pkey |       2246197248

 2017-02-05 09:12:35.561502+01 | 1486282355.5615 | pgbench_branches_pkey |            40960
 2017-02-05 09:12:35.561502+01 | 1486282355.5615 | pgbench_tellers_pkey  |           245760
 2017-02-05 09:12:35.561502+01 | 1486282355.5615 | pgbench_accounts_pkey |       2246197248

 2017-02-05 09:12:36.638181+01 | 1486282356.63818 | pgbench_branches_pkey |            40960
 2017-02-05 09:12:36.638181+01 | 1486282356.63818 | pgbench_tellers_pkey  |           245760
 2017-02-05 09:12:36.638181+01 | 1486282356.63818 | pgbench_accounts_pkey |       2246197248

 2017-02-05 09:12:37.716205+01 | 1486282357.7162 | pgbench_branches_pkey |            40960
 2017-02-05 09:12:37.716205+01 | 1486282357.7162 | pgbench_tellers_pkey  |           245760
 2017-02-05 09:12:37.716205+01 | 1486282357.7162 | pgbench_accounts_pkey |       2246197248

 2017-02-05 09:12:38.796068+01 | 1486282358.79607 | pgbench_branches_pkey |            40960
 2017-02-05 09:12:38.796068+01 | 1486282358.79607 | pgbench_tellers_pkey  |           245760
 2017-02-05 09:12:38.796068+01 | 1486282358.79607 | pgbench_accounts_pkey |       2246197248

 2017-02-05 09:12:39.859079+01 | 1486282359.85908 | pgbench_branches_pkey |            40960
 2017-02-05 09:12:39.859079+01 | 1486282359.85908 | pgbench_tellers_pkey  |           245760
 2017-02-05 09:12:39.859079+01 | 1486282359.85908 | pgbench_accounts_pkey |       2246197248

 2017-02-05 09:12:40.943567+01 | 1486282360.94357 | pgbench_branches_pkey |            40960
 2017-02-05 09:12:40.943567+01 | 1486282360.94357 | pgbench_tellers_pkey  |           245760
 2017-02-05 09:12:40.943567+01 | 1486282360.94357 | pgbench_accounts_pkey |       2246197248

 2017-02-05 09:12:42.018107+01 | 1486282362.01811 | pgbench_branches_pkey |            40960
 2017-02-05 09:12:42.018107+01 | 1486282362.01811 | pgbench_tellers_pkey  |           245760
 2017-02-05 09:12:42.018107+01 | 1486282362.01811 | pgbench_accounts_pkey |       2246197248

 2017-02-05 09:12:43.097396+01 | 1486282363.0974 | pgbench_branches_pkey |            40960
 2017-02-05 09:12:43.097396+01 | 1486282363.0974 | pgbench_tellers_pkey  |           245760
 2017-02-05 09:12:43.097396+01 | 1486282363.0974 | pgbench_accounts_pkey |       2246197248

 2017-02-05 09:12:44.170738+01 | 1486282364.17074 | pgbench_branches_pkey |            40960
 2017-02-05 09:12:44.170738+01 | 1486282364.17074 | pgbench_tellers_pkey  |           245760
 2017-02-05 09:12:44.170738+01 | 1486282364.17074 | pgbench_accounts_pkey |       2246197248

 2017-02-05 09:12:45.246864+01 | 1486282365.24686 | pgbench_branches_pkey |            40960
 2017-02-05 09:12:45.246864+01 | 1486282365.24686 | pgbench_tellers_pkey  |           245760
 2017-02-05 09:12:45.246864+01 | 1486282365.24686 | pgbench_accounts_pkey |       2246197248

 2017-02-05 09:12:46.333849+01 | 1486282366.33385 | pgbench_branches_pkey |            40960
 2017-02-05 09:12:46.333849+01 | 1486282366.33385 | pgbench_tellers_pkey  |           245760
 2017-02-05 09:12:46.333849+01 | 1486282366.33385 | pgbench_accounts_pkey |       2246197248

 2017-02-05 09:12:47.427144+01 | 1486282367.42714 | pgbench_branches_pkey |            40960
 2017-02-05 09:12:47.427144+01 | 1486282367.42714 | pgbench_tellers_pkey  |           245760
 2017-02-05 09:12:47.427144+01 | 1486282367.42714 | pgbench_accounts_pkey |       2246197248

 2017-02-05 09:12:48.502342+01 | 1486282368.50234 | pgbench_branches_pkey |            40960
 2017-02-05 09:12:48.502342+01 | 1486282368.50234 | pgbench_tellers_pkey  |           245760
 2017-02-05 09:12:48.502342+01 | 1486282368.50234 | pgbench_accounts_pkey |       2246197248

 2017-02-05 09:12:49.585504+01 | 1486282369.5855 | pgbench_branches_pkey |            40960
 2017-02-05 09:12:49.585504+01 | 1486282369.5855 | pgbench_tellers_pkey  |           245760
 2017-02-05 09:12:49.585504+01 | 1486282369.5855 | pgbench_accounts_pkey |       2246197248

 2017-02-05 09:12:50.679556+01 | 1486282370.67956 | pgbench_branches_pkey |            40960
 2017-02-05 09:12:50.679556+01 | 1486282370.67956 | pgbench_tellers_pkey  |           245760
 2017-02-05 09:12:50.679556+01 | 1486282370.67956 | pgbench_accounts_pkey |       2246197248

 2017-02-05 09:12:51.773487+01 | 1486282371.77349 | pgbench_branches_pkey |            40960
 2017-02-05 09:12:51.773487+01 | 1486282371.77349 | pgbench_tellers_pkey  |           245760
 2017-02-05 09:12:51.773487+01 | 1486282371.77349 | pgbench_accounts_pkey |       2246197248

 2017-02-05 09:12:52.866509+01 | 1486282372.86651 | pgbench_branches_pkey |            40960
 2017-02-05 09:12:52.866509+01 | 1486282372.86651 | pgbench_tellers_pkey  |           245760
 2017-02-05 09:12:52.866509+01 | 1486282372.86651 | pgbench_accounts_pkey |       2246197248

 2017-02-05 09:12:53.954036+01 | 1486282373.95404 | pgbench_branches_pkey |            40960
 2017-02-05 09:12:53.954036+01 | 1486282373.95404 | pgbench_tellers_pkey  |           245760
 2017-02-05 09:12:53.954036+01 | 1486282373.95404 | pgbench_accounts_pkey |       2246197248

 2017-02-05 09:12:55.039413+01 | 1486282375.03941 | pgbench_branches_pkey |            40960
 2017-02-05 09:12:55.039413+01 | 1486282375.03941 | pgbench_tellers_pkey  |           245760
 2017-02-05 09:12:55.039413+01 | 1486282375.03941 | pgbench_accounts_pkey |       2246197248

 2017-02-05 09:12:56.10517+01 | 1486282376.10517 | pgbench_branches_pkey |            40960
 2017-02-05 09:12:56.10517+01 | 1486282376.10517 | pgbench_tellers_pkey  |           245760
 2017-02-05 09:12:56.10517+01 | 1486282376.10517 | pgbench_accounts_pkey |       2246197248

 2017-02-05 09:12:57.185468+01 | 1486282377.18547 | pgbench_branches_pkey |            40960
 2017-02-05 09:12:57.185468+01 | 1486282377.18547 | pgbench_tellers_pkey  |           245760
 2017-02-05 09:12:57.185468+01 | 1486282377.18547 | pgbench_accounts_pkey |       2246197248

 2017-02-05 09:12:58.280429+01 | 1486282378.28043 | pgbench_branches_pkey |            40960
 2017-02-05 09:12:58.280429+01 | 1486282378.28043 | pgbench_tellers_pkey  |           245760
 2017-02-05 09:12:58.280429+01 | 1486282378.28043 | pgbench_accounts_pkey |       2246197248

 2017-02-05 09:12:59.381443+01 | 1486282379.38144 | pgbench_branches_pkey |            40960
 2017-02-05 09:12:59.381443+01 | 1486282379.38144 | pgbench_tellers_pkey  |           245760
 2017-02-05 09:12:59.381443+01 | 1486282379.38144 | pgbench_accounts_pkey |       2246197248

 2017-02-05 09:13:00.465828+01 | 1486282380.46583 | pgbench_branches_pkey |            40960
 2017-02-05 09:13:00.465828+01 | 1486282380.46583 | pgbench_tellers_pkey  |           245760
 2017-02-05 09:13:00.465828+01 | 1486282380.46583 | pgbench_accounts_pkey |       2246197248

 2017-02-05 09:13:01.540342+01 | 1486282381.54034 | pgbench_branches_pkey |            40960
 2017-02-05 09:13:01.540342+01 | 1486282381.54034 | pgbench_tellers_pkey  |           245760
 2017-02-05 09:13:01.540342+01 | 1486282381.54034 | pgbench_accounts_pkey |       2246197248

 2017-02-05 09:13:02.620017+01 | 1486282382.62002 | pgbench_branches_pkey |            40960
 2017-02-05 09:13:02.620017+01 | 1486282382.62002 | pgbench_tellers_pkey  |           245760
 2017-02-05 09:13:02.620017+01 | 1486282382.62002 | pgbench_accounts_pkey |       2246197248

 2017-02-05 09:13:03.699732+01 | 1486282383.69973 | pgbench_branches_pkey |            40960
 2017-02-05 09:13:03.699732+01 | 1486282383.69973 | pgbench_tellers_pkey  |           245760
 2017-02-05 09:13:03.699732+01 | 1486282383.69973 | pgbench_accounts_pkey |       2246197248

 2017-02-05 09:13:04.783366+01 | 1486282384.78337 | pgbench_branches_pkey |            40960
 2017-02-05 09:13:04.783366+01 | 1486282384.78337 | pgbench_tellers_pkey  |           245760
 2017-02-05 09:13:04.783366+01 | 1486282384.78337 | pgbench_accounts_pkey |       2246197248

 2017-02-05 09:13:05.870022+01 | 1486282385.87002 | pgbench_branches_pkey |            40960
 2017-02-05 09:13:05.870022+01 | 1486282385.87002 | pgbench_tellers_pkey  |           245760
 2017-02-05 09:13:05.870022+01 | 1486282385.87002 | pgbench_accounts_pkey |       2246197248

 2017-02-05 09:13:06.964876+01 | 1486282386.96488 | pgbench_branches_pkey |            40960
 2017-02-05 09:13:06.964876+01 | 1486282386.96488 | pgbench_tellers_pkey  |           245760
 2017-02-05 09:13:06.964876+01 | 1486282386.96488 | pgbench_accounts_pkey |       2246197248

 2017-02-05 09:13:08.060592+01 | 1486282388.06059 | pgbench_branches_pkey |            40960
 2017-02-05 09:13:08.060592+01 | 1486282388.06059 | pgbench_tellers_pkey  |           245760
 2017-02-05 09:13:08.060592+01 | 1486282388.06059 | pgbench_accounts_pkey |       2246197248

 2017-02-05 09:13:09.13403+01 | 1486282389.13403 | pgbench_branches_pkey |            40960
 2017-02-05 09:13:09.13403+01 | 1486282389.13403 | pgbench_tellers_pkey  |           245760
 2017-02-05 09:13:09.13403+01 | 1486282389.13403 | pgbench_accounts_pkey |       2246197248

 2017-02-05 09:13:10.217006+01 | 1486282390.21701 | pgbench_branches_pkey |            40960
 2017-02-05 09:13:10.217006+01 | 1486282390.21701 | pgbench_tellers_pkey  |           245760
 2017-02-05 09:13:10.217006+01 | 1486282390.21701 | pgbench_accounts_pkey |       2246197248

 2017-02-05 09:13:11.300391+01 | 1486282391.30039 | pgbench_branches_pkey |            40960
 2017-02-05 09:13:11.300391+01 | 1486282391.30039 | pgbench_tellers_pkey  |           245760
 2017-02-05 09:13:11.300391+01 | 1486282391.30039 | pgbench_accounts_pkey |       2246197248

 2017-02-05 09:13:12.38223+01 | 1486282392.38223 | pgbench_branches_pkey |            40960
 2017-02-05 09:13:12.38223+01 | 1486282392.38223 | pgbench_tellers_pkey  |           245760
 2017-02-05 09:13:12.38223+01 | 1486282392.38223 | pgbench_accounts_pkey |       2246197248

 2017-02-05 09:13:13.465009+01 | 1486282393.46501 | pgbench_branches_pkey |            40960
 2017-02-05 09:13:13.465009+01 | 1486282393.46501 | pgbench_tellers_pkey  |           245760
 2017-02-05 09:13:13.465009+01 | 1486282393.46501 | pgbench_accounts_pkey |       2246197248

 2017-02-05 09:13:14.557473+01 | 1486282394.55747 | pgbench_branches_pkey |            40960
 2017-02-05 09:13:14.557473+01 | 1486282394.55747 | pgbench_tellers_pkey  |           245760
 2017-02-05 09:13:14.557473+01 | 1486282394.55747 | pgbench_accounts_pkey |       2246197248

 2017-02-05 09:13:15.640568+01 | 1486282395.64057 | pgbench_branches_pkey |            40960
 2017-02-05 09:13:15.640568+01 | 1486282395.64057 | pgbench_tellers_pkey  |           245760
 2017-02-05 09:13:15.640568+01 | 1486282395.64057 | pgbench_accounts_pkey |       2246197248

 2017-02-05 09:13:16.722653+01 | 1486282396.72265 | pgbench_branches_pkey |            40960
 2017-02-05 09:13:16.722653+01 | 1486282396.72265 | pgbench_tellers_pkey  |           245760
 2017-02-05 09:13:16.722653+01 | 1486282396.72265 | pgbench_accounts_pkey |       2246197248

 2017-02-05 09:13:17.820816+01 | 1486282397.82082 | pgbench_branches_pkey |            40960
 2017-02-05 09:13:17.820816+01 | 1486282397.82082 | pgbench_tellers_pkey  |           245760
 2017-02-05 09:13:17.820816+01 | 1486282397.82082 | pgbench_accounts_pkey |       2246197248

 2017-02-05 09:13:18.906393+01 | 1486282398.90639 | pgbench_branches_pkey |            40960
 2017-02-05 09:13:18.906393+01 | 1486282398.90639 | pgbench_tellers_pkey  |           245760
 2017-02-05 09:13:18.906393+01 | 1486282398.90639 | pgbench_accounts_pkey |       2246197248

 2017-02-05 09:13:19.990646+01 | 1486282399.99065 | pgbench_branches_pkey |            40960
 2017-02-05 09:13:19.990646+01 | 1486282399.99065 | pgbench_tellers_pkey  |           245760
 2017-02-05 09:13:19.990646+01 | 1486282399.99065 | pgbench_accounts_pkey |       2246197248

 2017-02-05 09:13:21.08576+01 | 1486282401.08576 | pgbench_branches_pkey |            40960
 2017-02-05 09:13:21.08576+01 | 1486282401.08576 | pgbench_tellers_pkey  |           245760
 2017-02-05 09:13:21.08576+01 | 1486282401.08576 | pgbench_accounts_pkey |       2246197248

 2017-02-05 09:13:22.179937+01 | 1486282402.17994 | pgbench_branches_pkey |            40960
 2017-02-05 09:13:22.179937+01 | 1486282402.17994 | pgbench_tellers_pkey  |           245760
 2017-02-05 09:13:22.179937+01 | 1486282402.17994 | pgbench_accounts_pkey |       2246197248

 2017-02-05 09:13:23.278495+01 | 1486282403.2785 | pgbench_branches_pkey |            40960
 2017-02-05 09:13:23.278495+01 | 1486282403.2785 | pgbench_tellers_pkey  |           245760
 2017-02-05 09:13:23.278495+01 | 1486282403.2785 | pgbench_accounts_pkey |       2246197248

 2017-02-05 09:13:24.369787+01 | 1486282404.36979 | pgbench_branches_pkey |            40960
 2017-02-05 09:13:24.369787+01 | 1486282404.36979 | pgbench_tellers_pkey  |           245760
 2017-02-05 09:13:24.369787+01 | 1486282404.36979 | pgbench_accounts_pkey |       2246197248

 2017-02-05 09:13:25.447394+01 | 1486282405.44739 | pgbench_branches_pkey |            40960
 2017-02-05 09:13:25.447394+01 | 1486282405.44739 | pgbench_tellers_pkey  |           245760
 2017-02-05 09:13:25.447394+01 | 1486282405.44739 | pgbench_accounts_pkey |       2246197248

 2017-02-05 09:13:26.538981+01 | 1486282406.53898 | pgbench_branches_pkey |            40960
 2017-02-05 09:13:26.538981+01 | 1486282406.53898 | pgbench_tellers_pkey  |           245760
 2017-02-05 09:13:26.538981+01 | 1486282406.53898 | pgbench_accounts_pkey |       2246197248

 2017-02-05 09:13:27.617391+01 | 1486282407.61739 | pgbench_branches_pkey |            40960
 2017-02-05 09:13:27.617391+01 | 1486282407.61739 | pgbench_tellers_pkey  |           245760
 2017-02-05 09:13:27.617391+01 | 1486282407.61739 | pgbench_accounts_pkey |       2246197248

 2017-02-05 09:13:28.698039+01 | 1486282408.69804 | pgbench_branches_pkey |            40960
 2017-02-05 09:13:28.698039+01 | 1486282408.69804 | pgbench_tellers_pkey  |           245760
 2017-02-05 09:13:28.698039+01 | 1486282408.69804 | pgbench_accounts_pkey |       2246197248

 2017-02-05 09:13:29.778538+01 | 1486282409.77854 | pgbench_branches_pkey |            40960
 2017-02-05 09:13:29.778538+01 | 1486282409.77854 | pgbench_tellers_pkey  |           245760
 2017-02-05 09:13:29.778538+01 | 1486282409.77854 | pgbench_accounts_pkey |       2246197248

 2017-02-05 09:13:30.875909+01 | 1486282410.87591 | pgbench_branches_pkey |            40960
 2017-02-05 09:13:30.875909+01 | 1486282410.87591 | pgbench_tellers_pkey  |           245760
 2017-02-05 09:13:30.875909+01 | 1486282410.87591 | pgbench_accounts_pkey |       2246197248

 2017-02-05 09:13:31.959023+01 | 1486282411.95902 | pgbench_branches_pkey |            40960
 2017-02-05 09:13:31.959023+01 | 1486282411.95902 | pgbench_tellers_pkey  |           245760
 2017-02-05 09:13:31.959023+01 | 1486282411.95902 | pgbench_accounts_pkey |       2246197248

 2017-02-05 09:13:33.044048+01 | 1486282413.04405 | pgbench_branches_pkey |            40960
 2017-02-05 09:13:33.044048+01 | 1486282413.04405 | pgbench_tellers_pkey  |           245760
 2017-02-05 09:13:33.044048+01 | 1486282413.04405 | pgbench_accounts_pkey |       2246197248

 2017-02-05 09:13:34.140894+01 | 1486282414.14089 | pgbench_branches_pkey |            40960
 2017-02-05 09:13:34.140894+01 | 1486282414.14089 | pgbench_tellers_pkey  |           245760
 2017-02-05 09:13:34.140894+01 | 1486282414.14089 | pgbench_accounts_pkey |       2246197248

 2017-02-05 09:13:35.219702+01 | 1486282415.2197 | pgbench_branches_pkey |            40960
 2017-02-05 09:13:35.219702+01 | 1486282415.2197 | pgbench_tellers_pkey  |           245760
 2017-02-05 09:13:35.219702+01 | 1486282415.2197 | pgbench_accounts_pkey |       2246197248

 2017-02-05 09:13:36.298619+01 | 1486282416.29862 | pgbench_branches_pkey |            40960
 2017-02-05 09:13:36.298619+01 | 1486282416.29862 | pgbench_tellers_pkey  |           245760
 2017-02-05 09:13:36.298619+01 | 1486282416.29862 | pgbench_accounts_pkey |       2246197248

 2017-02-05 09:13:37.389868+01 | 1486282417.38987 | pgbench_branches_pkey |            40960
 2017-02-05 09:13:37.389868+01 | 1486282417.38987 | pgbench_tellers_pkey  |           245760
 2017-02-05 09:13:37.389868+01 | 1486282417.38987 | pgbench_accounts_pkey |       2246197248

 2017-02-05 09:13:38.464749+01 | 1486282418.46475 | pgbench_branches_pkey |            40960
 2017-02-05 09:13:38.464749+01 | 1486282418.46475 | pgbench_tellers_pkey  |           245760
 2017-02-05 09:13:38.464749+01 | 1486282418.46475 | pgbench_accounts_pkey |       2246197248

 2017-02-05 09:13:39.544006+01 | 1486282419.54401 | pgbench_branches_pkey |            40960
 2017-02-05 09:13:39.544006+01 | 1486282419.54401 | pgbench_tellers_pkey  |           245760
 2017-02-05 09:13:39.544006+01 | 1486282419.54401 | pgbench_accounts_pkey |       2246197248

 2017-02-05 09:13:40.634622+01 | 1486282420.63462 | pgbench_branches_pkey |            40960
 2017-02-05 09:13:40.634622+01 | 1486282420.63462 | pgbench_tellers_pkey  |           245760
 2017-02-05 09:13:40.634622+01 | 1486282420.63462 | pgbench_accounts_pkey |       2246197248

 2017-02-05 09:13:41.707648+01 | 1486282421.70765 | pgbench_branches_pkey |            40960
 2017-02-05 09:13:41.707648+01 | 1486282421.70765 | pgbench_tellers_pkey  |           245760
 2017-02-05 09:13:41.707648+01 | 1486282421.70765 | pgbench_accounts_pkey |       2246197248

 2017-02-05 09:13:42.787583+01 | 1486282422.78758 | pgbench_branches_pkey |            40960
 2017-02-05 09:13:42.787583+01 | 1486282422.78758 | pgbench_tellers_pkey  |           245760
 2017-02-05 09:13:42.787583+01 | 1486282422.78758 | pgbench_accounts_pkey |       2246197248

 2017-02-05 09:13:43.861699+01 | 1486282423.8617 | pgbench_branches_pkey |            40960
 2017-02-05 09:13:43.861699+01 | 1486282423.8617 | pgbench_tellers_pkey  |           245760
 2017-02-05 09:13:43.861699+01 | 1486282423.8617 | pgbench_accounts_pkey |       2246197248

 2017-02-05 09:13:44.949459+01 | 1486282424.94946 | pgbench_branches_pkey |            40960
 2017-02-05 09:13:44.949459+01 | 1486282424.94946 | pgbench_tellers_pkey  |           245760
 2017-02-05 09:13:44.949459+01 | 1486282424.94946 | pgbench_accounts_pkey |       2246197248

 2017-02-05 09:13:46.029017+01 | 1486282426.02902 | pgbench_branches_pkey |            40960
 2017-02-05 09:13:46.029017+01 | 1486282426.02902 | pgbench_tellers_pkey  |           245760
 2017-02-05 09:13:46.029017+01 | 1486282426.02902 | pgbench_accounts_pkey |       2246197248

 2017-02-05 09:13:47.104303+01 | 1486282427.1043 | pgbench_branches_pkey |            40960
 2017-02-05 09:13:47.104303+01 | 1486282427.1043 | pgbench_tellers_pkey  |           245760
 2017-02-05 09:13:47.104303+01 | 1486282427.1043 | pgbench_accounts_pkey |       2246197248

 2017-02-05 09:13:48.190531+01 | 1486282428.19053 | pgbench_branches_pkey |            40960
 2017-02-05 09:13:48.190531+01 | 1486282428.19053 | pgbench_tellers_pkey  |           245760
 2017-02-05 09:13:48.190531+01 | 1486282428.19053 | pgbench_accounts_pkey |       2246197248

 2017-02-05 09:13:49.286335+01 | 1486282429.28633 | pgbench_branches_pkey |            40960
 2017-02-05 09:13:49.286335+01 | 1486282429.28633 | pgbench_tellers_pkey  |           245760
 2017-02-05 09:13:49.286335+01 | 1486282429.28633 | pgbench_accounts_pkey |       2246197248

 2017-02-05 09:13:50.356748+01 | 1486282430.35675 | pgbench_branches_pkey |            40960
 2017-02-05 09:13:50.356748+01 | 1486282430.35675 | pgbench_tellers_pkey  |           245760
 2017-02-05 09:13:50.356748+01 | 1486282430.35675 | pgbench_accounts_pkey |       2246197248

 2017-02-05 09:13:51.430207+01 | 1486282431.43021 | pgbench_branches_pkey |            40960
 2017-02-05 09:13:51.430207+01 | 1486282431.43021 | pgbench_tellers_pkey  |           245760
 2017-02-05 09:13:51.430207+01 | 1486282431.43021 | pgbench_accounts_pkey |       2246197248

 2017-02-05 09:13:52.514022+01 | 1486282432.51402 | pgbench_branches_pkey |            40960
 2017-02-05 09:13:52.514022+01 | 1486282432.51402 | pgbench_tellers_pkey  |           245760
 2017-02-05 09:13:52.514022+01 | 1486282432.51402 | pgbench_accounts_pkey |       2246197248

 2017-02-05 09:13:53.606726+01 | 1486282433.60673 | pgbench_branches_pkey |            40960
 2017-02-05 09:13:53.606726+01 | 1486282433.60673 | pgbench_tellers_pkey  |           245760
 2017-02-05 09:13:53.606726+01 | 1486282433.60673 | pgbench_accounts_pkey |       2246197248

 2017-02-05 09:13:54.682557+01 | 1486282434.68256 | pgbench_branches_pkey |            40960
 2017-02-05 09:13:54.682557+01 | 1486282434.68256 | pgbench_tellers_pkey  |           245760
 2017-02-05 09:13:54.682557+01 | 1486282434.68256 | pgbench_accounts_pkey |       2246197248

