 2017-02-04 00:55:32.580615+01 | 1486166132.58062 |                 0 |               7 |                 83024 |                 1530 |            4538329 |        869200 |             8561 |        24517372 |                     0 |      21185659 | 2017-02-04 00:20:10.334424+01

 2017-02-04 00:55:33.667147+01 | 1486166133.66715 |                 0 |               7 |                 83024 |                 1530 |            4538329 |        869200 |             8561 |        24517372 |                     0 |      21196303 | 2017-02-04 00:20:10.334424+01

 2017-02-04 00:55:34.755609+01 | 1486166134.75561 |                 0 |               7 |                 83024 |                 1530 |            4538329 |        869200 |             8561 |        24517372 |                     0 |      21213245 | 2017-02-04 00:20:10.334424+01

 2017-02-04 00:55:35.843394+01 | 1486166135.84339 |                 0 |               7 |                 83024 |                 1530 |            4538329 |        869200 |             8561 |        24517372 |                     0 |      21229353 | 2017-02-04 00:20:10.334424+01

 2017-02-04 00:55:36.927365+01 | 1486166136.92737 |                 0 |               7 |                 83024 |                 1530 |            4538329 |        869200 |             8561 |        24517372 |                     0 |      21245836 | 2017-02-04 00:20:10.334424+01

 2017-02-04 00:55:38.013724+01 | 1486166138.01372 |                 0 |               7 |                 83024 |                 1530 |            4538329 |        869200 |             8561 |        24517372 |                     0 |      21266768 | 2017-02-04 00:20:10.334424+01

 2017-02-04 00:55:39.099057+01 | 1486166139.09906 |                 0 |               7 |                 83024 |                 1530 |            4538329 |        869200 |             8561 |        24517372 |                     0 |      21285537 | 2017-02-04 00:20:10.334424+01

 2017-02-04 00:55:40.187155+01 | 1486166140.18716 |                 0 |               7 |                 83024 |                 1530 |            4538329 |        869200 |             8561 |        24517372 |                     0 |      21309213 | 2017-02-04 00:20:10.334424+01

 2017-02-04 00:55:41.272671+01 | 1486166141.27267 |                 0 |               7 |                 83024 |                 1530 |            4538329 |        869200 |             8561 |        24517372 |                     0 |      21327783 | 2017-02-04 00:20:10.334424+01

 2017-02-04 00:55:42.35675+01 | 1486166142.35675 |                 0 |               7 |                 83024 |                 1530 |            4538329 |        869200 |             8561 |        24517372 |                     0 |      21346278 | 2017-02-04 00:20:10.334424+01

 2017-02-04 00:55:43.438162+01 | 1486166143.43816 |                 0 |               7 |                 83024 |                 1530 |            4538329 |        869479 |             8561 |        24517372 |                     0 |      21368086 | 2017-02-04 00:20:10.334424+01

 2017-02-04 00:55:44.511824+01 | 1486166144.51182 |                 0 |               7 |                 83024 |                 1530 |            4538329 |        869680 |             8561 |        24517372 |                     0 |      21387286 | 2017-02-04 00:20:10.334424+01

 2017-02-04 00:55:45.591401+01 | 1486166145.5914 |                 0 |               7 |                 83024 |                 1530 |            4538329 |        869873 |             8561 |        24517372 |                     0 |      21404352 | 2017-02-04 00:20:10.334424+01

 2017-02-04 00:55:46.673651+01 | 1486166146.67365 |                 0 |               7 |                 83024 |                 1530 |            4538329 |        870133 |             8561 |        24517372 |                     0 |      21427740 | 2017-02-04 00:20:10.334424+01

 2017-02-04 00:55:47.76195+01 | 1486166147.76195 |                 0 |               7 |                 83024 |                 1530 |            4538329 |        870374 |             8561 |        24517372 |                     0 |      21447192 | 2017-02-04 00:20:10.334424+01

 2017-02-04 00:55:48.85086+01 | 1486166148.85086 |                 0 |               7 |                 83024 |                 1530 |            4538329 |        870675 |             8561 |        24517372 |                     0 |      21469916 | 2017-02-04 00:20:10.334424+01

 2017-02-04 00:55:49.927599+01 | 1486166149.9276 |                 0 |               7 |                 83024 |                 1530 |            4538329 |        870939 |             8561 |        24517372 |                     0 |      21488823 | 2017-02-04 00:20:10.334424+01

 2017-02-04 00:55:51.01494+01 | 1486166151.01494 |                 0 |               7 |                 83024 |                 1530 |            4538329 |        871297 |             8562 |        24517372 |                     0 |      21509138 | 2017-02-04 00:20:10.334424+01

 2017-02-04 00:55:52.095445+01 | 1486166152.09544 |                 0 |               7 |                 83024 |                 1530 |            4538329 |        871897 |             8568 |        24517372 |                     0 |      21532435 | 2017-02-04 00:20:10.334424+01

 2017-02-04 00:55:53.172301+01 | 1486166153.1723 |                 0 |               7 |                 83024 |                 1530 |            4538329 |        872397 |             8573 |        24517372 |                     0 |      21553221 | 2017-02-04 00:20:10.334424+01

 2017-02-04 00:55:54.254089+01 | 1486166154.25409 |                 0 |               7 |                 83024 |                 1530 |            4538329 |        872897 |             8578 |        24517372 |                     0 |      21571745 | 2017-02-04 00:20:10.334424+01

 2017-02-04 00:55:55.333292+01 | 1486166155.33329 |                 0 |               7 |                 83024 |                 1530 |            4538329 |        873497 |             8584 |        24517372 |                     0 |      21595982 | 2017-02-04 00:20:10.334424+01

 2017-02-04 00:55:56.412046+01 | 1486166156.41205 |                 0 |               7 |                 83024 |                 1530 |            4538329 |        873997 |             8589 |        24517372 |                     0 |      21617464 | 2017-02-04 00:20:10.334424+01

 2017-02-04 00:55:57.49422+01 | 1486166157.49422 |                 0 |               7 |                 83024 |                 1530 |            4538329 |        874497 |             8594 |        24517372 |                     0 |      21638235 | 2017-02-04 00:20:10.334424+01

 2017-02-04 00:55:58.578313+01 | 1486166158.57831 |                 0 |               7 |                 83024 |                 1530 |            4538329 |        875097 |             8600 |        24517372 |                     0 |      21662134 | 2017-02-04 00:20:10.334424+01

 2017-02-04 00:55:59.66556+01 | 1486166159.66556 |                 0 |               7 |                 83024 |                 1530 |            4538329 |        875597 |             8605 |        24517372 |                     0 |      21680893 | 2017-02-04 00:20:10.334424+01

 2017-02-04 00:56:00.747027+01 | 1486166160.74703 |                 0 |               7 |                 83024 |                 1530 |            4538329 |        876097 |             8610 |        24517372 |                     0 |      21701033 | 2017-02-04 00:20:10.334424+01

 2017-02-04 00:56:01.826104+01 | 1486166161.8261 |                 0 |               7 |                 83024 |                 1530 |            4538329 |        876697 |             8616 |        24517372 |                     0 |      21722104 | 2017-02-04 00:20:10.334424+01

 2017-02-04 00:56:02.905038+01 | 1486166162.90504 |                 0 |               7 |                 83024 |                 1530 |            4538329 |        877197 |             8621 |        24517372 |                     0 |      21740359 | 2017-02-04 00:20:10.334424+01

 2017-02-04 00:56:03.990886+01 | 1486166163.99089 |                 0 |               7 |                 83024 |                 1530 |            4538329 |        877697 |             8626 |        24517372 |                     0 |      21758528 | 2017-02-04 00:20:10.334424+01

 2017-02-04 00:56:05.075006+01 | 1486166165.07501 |                 0 |               7 |                 83024 |                 1530 |            4538329 |        878297 |             8632 |        24517372 |                     0 |      21777115 | 2017-02-04 00:20:10.334424+01

 2017-02-04 00:56:06.161238+01 | 1486166166.16124 |                 0 |               7 |                 83024 |                 1530 |            4538329 |        878797 |             8637 |        24517372 |                     0 |      21793199 | 2017-02-04 00:20:10.334424+01

 2017-02-04 00:56:07.23961+01 | 1486166167.23961 |                 0 |               7 |                 83024 |                 1530 |            4538329 |        879397 |             8643 |        24517372 |                     0 |      21815468 | 2017-02-04 00:20:10.334424+01

 2017-02-04 00:56:08.298467+01 | 1486166168.29847 |                 0 |               7 |                 83024 |                 1530 |            4538329 |        879897 |             8648 |        24517372 |                     0 |      21831953 | 2017-02-04 00:20:10.334424+01

 2017-02-04 00:56:09.377757+01 | 1486166169.37776 |                 0 |               7 |                 83024 |                 1530 |            4538329 |        880397 |             8653 |        24517372 |                     0 |      21848651 | 2017-02-04 00:20:10.334424+01

 2017-02-04 00:56:10.466787+01 | 1486166170.46679 |                 0 |               7 |                 83024 |                 1530 |            4538329 |        880897 |             8658 |        24517372 |                     0 |      21869411 | 2017-02-04 00:20:10.334424+01

 2017-02-04 00:56:11.54459+01 | 1486166171.54459 |                 0 |               7 |                 83024 |                 1530 |            4538329 |        881497 |             8664 |        24517372 |                     0 |      21890992 | 2017-02-04 00:20:10.334424+01

 2017-02-04 00:56:12.624158+01 | 1486166172.62416 |                 0 |               7 |                 83024 |                 1530 |            4538329 |        881997 |             8669 |        24517372 |                     0 |      21908120 | 2017-02-04 00:20:10.334424+01

 2017-02-04 00:56:13.692232+01 | 1486166173.69223 |                 0 |               7 |                 83024 |                 1530 |            4538329 |        882597 |             8675 |        24517372 |                     0 |      21933111 | 2017-02-04 00:20:10.334424+01

 2017-02-04 00:56:14.767202+01 | 1486166174.7672 |                 0 |               7 |                 83024 |                 1530 |            4538329 |        883097 |             8680 |        24517372 |                     0 |      21951637 | 2017-02-04 00:20:10.334424+01

 2017-02-04 00:56:15.85233+01 | 1486166175.85233 |                 0 |               7 |                 83024 |                 1530 |            4538329 |        883597 |             8685 |        24517372 |                     0 |      21969240 | 2017-02-04 00:20:10.334424+01

 2017-02-04 00:56:16.9338+01 | 1486166176.9338 |                 0 |               7 |                 83024 |                 1530 |            4538329 |        884197 |             8691 |        24517372 |                     0 |      21992371 | 2017-02-04 00:20:10.334424+01

 2017-02-04 00:56:18.018655+01 | 1486166178.01866 |                 0 |               7 |                 83024 |                 1530 |            4538329 |        884697 |             8696 |        24517372 |                     0 |      22009816 | 2017-02-04 00:20:10.334424+01

 2017-02-04 00:56:19.098995+01 | 1486166179.09899 |                 0 |               7 |                 83024 |                 1530 |            4538329 |        885197 |             8701 |        24517372 |                     0 |      22030823 | 2017-02-04 00:20:10.334424+01

 2017-02-04 00:56:20.173976+01 | 1486166180.17398 |                 0 |               7 |                 83024 |                 1530 |            4538329 |        885797 |             8707 |        24517372 |                     0 |      22053052 | 2017-02-04 00:20:10.334424+01

 2017-02-04 00:56:21.256883+01 | 1486166181.25688 |                 0 |               7 |                 83024 |                 1530 |            4538329 |        886297 |             8712 |        24517372 |                     0 |      22071485 | 2017-02-04 00:20:10.334424+01

 2017-02-04 00:56:22.33506+01 | 1486166182.33506 |                 0 |               7 |                 83024 |                 1530 |            4538329 |        886797 |             8717 |        24517372 |                     0 |      22086938 | 2017-02-04 00:20:10.334424+01

 2017-02-04 00:56:23.399465+01 | 1486166183.39947 |                 0 |               7 |                 83024 |                 1530 |            4538329 |        887397 |             8723 |        24517372 |                     0 |      22105346 | 2017-02-04 00:20:10.334424+01

 2017-02-04 00:56:24.466052+01 | 1486166184.46605 |                 0 |               7 |                 83024 |                 1530 |            4538329 |        887897 |             8728 |        24517372 |                     0 |      22119517 | 2017-02-04 00:20:10.334424+01

 2017-02-04 00:56:25.545349+01 | 1486166185.54535 |                 0 |               7 |                 83024 |                 1530 |            4538329 |        888397 |             8733 |        24517372 |                     0 |      22137334 | 2017-02-04 00:20:10.334424+01

 2017-02-04 00:56:26.622784+01 | 1486166186.62278 |                 0 |               7 |                 83024 |                 1530 |            4538329 |        888897 |             8738 |        24517372 |                     0 |      22154707 | 2017-02-04 00:20:10.334424+01

 2017-02-04 00:56:27.710393+01 | 1486166187.71039 |                 0 |               7 |                 83024 |                 1530 |            4538329 |        889497 |             8744 |        25021663 |                     0 |      22177213 | 2017-02-04 00:20:10.334424+01

 2017-02-04 00:56:28.800149+01 | 1486166188.80015 |                 0 |               7 |                 83024 |                 1530 |            4538329 |        889997 |             8749 |        25021663 |                     0 |      22196349 | 2017-02-04 00:20:10.334424+01

 2017-02-04 00:56:29.882713+01 | 1486166189.88271 |                 0 |               7 |                 83024 |                 1530 |            4538329 |        890597 |             8755 |        25021663 |                     0 |      22220191 | 2017-02-04 00:20:10.334424+01

 2017-02-04 00:56:30.96436+01 | 1486166190.96436 |                 0 |               7 |                 83024 |                 1530 |            4538329 |        891097 |             8760 |        25021663 |                     0 |      22240773 | 2017-02-04 00:20:10.334424+01

 2017-02-04 00:56:32.054297+01 | 1486166192.0543 |                 0 |               7 |                 83024 |                 1530 |            4538329 |        891597 |             8765 |        25021663 |                     0 |      22258676 | 2017-02-04 00:20:10.334424+01

 2017-02-04 00:56:33.14573+01 | 1486166193.14573 |                 0 |               7 |                 83024 |                 1530 |            4538329 |        892197 |             8771 |        25021663 |                     0 |      22282221 | 2017-02-04 00:20:10.334424+01

 2017-02-04 00:56:34.240949+01 | 1486166194.24095 |                 0 |               7 |                 83024 |                 1530 |            4538329 |        892697 |             8776 |        25021663 |                     0 |      22302350 | 2017-02-04 00:20:10.334424+01

 2017-02-04 00:56:35.331361+01 | 1486166195.33136 |                 0 |               7 |                 83024 |                 1530 |            4538329 |        893297 |             8782 |        25021663 |                     0 |      22326234 | 2017-02-04 00:20:10.334424+01

 2017-02-04 00:56:36.422531+01 | 1486166196.42253 |                 0 |               7 |                 83024 |                 1530 |            4538329 |        893797 |             8787 |        25021663 |                     0 |      22344401 | 2017-02-04 00:20:10.334424+01

 2017-02-04 00:56:37.508776+01 | 1486166197.50878 |                 0 |               7 |                 83024 |                 1530 |            4538329 |        894297 |             8792 |        25021663 |                     0 |      22365348 | 2017-02-04 00:20:10.334424+01

 2017-02-04 00:56:38.578618+01 | 1486166198.57862 |                 0 |               7 |                 83024 |                 1530 |            4538329 |        894897 |             8798 |        25021663 |                     0 |      22387271 | 2017-02-04 00:20:10.334424+01

 2017-02-04 00:56:39.655423+01 | 1486166199.65542 |                 0 |               7 |                 83024 |                 1530 |            4538329 |        895397 |             8803 |        25021663 |                     0 |      22406832 | 2017-02-04 00:20:10.334424+01

 2017-02-04 00:56:40.731392+01 | 1486166200.73139 |                 0 |               7 |                 83024 |                 1530 |            4538329 |        895897 |             8808 |        25021663 |                     0 |      22424879 | 2017-02-04 00:20:10.334424+01

 2017-02-04 00:56:41.803248+01 | 1486166201.80325 |                 0 |               7 |                 83024 |                 1530 |            4538329 |        896297 |             8812 |        25021663 |                     0 |      22437008 | 2017-02-04 00:20:10.334424+01

 2017-02-04 00:56:42.884588+01 | 1486166202.88459 |                 0 |               7 |                 83024 |                 1530 |            4538329 |        896897 |             8818 |        25021663 |                     0 |      22461361 | 2017-02-04 00:20:10.334424+01

 2017-02-04 00:56:43.969704+01 | 1486166203.9697 |                 0 |               7 |                 83024 |                 1530 |            4538329 |        897497 |             8824 |        25021663 |                     0 |      22482651 | 2017-02-04 00:20:10.334424+01

 2017-02-04 00:56:45.042077+01 | 1486166205.04208 |                 0 |               7 |                 83024 |                 1530 |            4538329 |        898097 |             8830 |        25021663 |                     0 |      22501391 | 2017-02-04 00:20:10.334424+01

 2017-02-04 00:56:46.126965+01 | 1486166206.12697 |                 0 |               7 |                 83024 |                 1530 |            4538329 |        898597 |             8835 |        25021663 |                     0 |      22513700 | 2017-02-04 00:20:10.334424+01

 2017-02-04 00:56:47.197319+01 | 1486166207.19732 |                 0 |               7 |                 83024 |                 1530 |            4538329 |        899097 |             8840 |        25021663 |                     0 |      22528467 | 2017-02-04 00:20:10.334424+01

 2017-02-04 00:56:48.268692+01 | 1486166208.26869 |                 0 |               7 |                 83024 |                 1530 |            4538329 |        899697 |             8846 |        25021663 |                     0 |      22545273 | 2017-02-04 00:20:10.334424+01

 2017-02-04 00:56:49.354231+01 | 1486166209.35423 |                 0 |               7 |                 83024 |                 1530 |            4538329 |        900197 |             8851 |        25021663 |                     0 |      22557398 | 2017-02-04 00:20:10.334424+01

 2017-02-04 00:56:50.427692+01 | 1486166210.42769 |                 0 |               7 |                 83024 |                 1530 |            4538329 |        900697 |             8856 |        25021663 |                     0 |      22571501 | 2017-02-04 00:20:10.334424+01

 2017-02-04 00:56:51.497931+01 | 1486166211.49793 |                 0 |               7 |                 83024 |                 1530 |            4538329 |        901297 |             8862 |        25021663 |                     0 |      22586866 | 2017-02-04 00:20:10.334424+01

 2017-02-04 00:56:52.588607+01 | 1486166212.58861 |                 0 |               7 |                 83024 |                 1530 |            4538329 |        901797 |             8867 |        25021663 |                     0 |      22600260 | 2017-02-04 00:20:10.334424+01

 2017-02-04 00:56:53.670208+01 | 1486166213.67021 |                 0 |               7 |                 83024 |                 1530 |            4538329 |        902297 |             8872 |        25021663 |                     0 |      22613613 | 2017-02-04 00:20:10.334424+01

 2017-02-04 00:56:54.750694+01 | 1486166214.75069 |                 0 |               7 |                 83024 |                 1530 |            4538329 |        902897 |             8878 |        25021663 |                     0 |      22637426 | 2017-02-04 00:20:10.334424+01

 2017-02-04 00:56:55.833243+01 | 1486166215.83324 |                 0 |               7 |                 83024 |                 1530 |            4538329 |        903397 |             8883 |        25531951 |                     0 |      22657965 | 2017-02-04 00:20:10.334424+01

 2017-02-04 00:56:56.922557+01 | 1486166216.92256 |                 0 |               7 |                 83024 |                 1530 |            4538329 |        903897 |             8888 |        25531951 |                     0 |      22676611 | 2017-02-04 00:20:10.334424+01

 2017-02-04 00:56:57.990808+01 | 1486166217.99081 |                 0 |               7 |                 83024 |                 1530 |            4538329 |        904497 |             8894 |        25531951 |                     0 |      22699169 | 2017-02-04 00:20:10.334424+01

 2017-02-04 00:56:59.052641+01 | 1486166219.05264 |                 0 |               7 |                 83024 |                 1530 |            4538329 |        904997 |             8899 |        25531951 |                     0 |      22717347 | 2017-02-04 00:20:10.334424+01

 2017-02-04 00:57:00.137972+01 | 1486166220.13797 |                 0 |               7 |                 83024 |                 1530 |            4538329 |        905497 |             8904 |        25531951 |                     0 |      22734983 | 2017-02-04 00:20:10.334424+01

 2017-02-04 00:57:01.226163+01 | 1486166221.22616 |                 0 |               7 |                 83024 |                 1530 |            4538329 |        906097 |             8910 |        25531951 |                     0 |      22756983 | 2017-02-04 00:20:10.334424+01

 2017-02-04 00:57:02.309273+01 | 1486166222.30927 |                 0 |               7 |                 83024 |                 1530 |            4538329 |        906597 |             8915 |        25531951 |                     0 |      22773985 | 2017-02-04 00:20:10.334424+01

 2017-02-04 00:57:03.400821+01 | 1486166223.40082 |                 0 |               7 |                 83024 |                 1530 |            4538329 |        907097 |             8920 |        25531951 |                     0 |      22793620 | 2017-02-04 00:20:10.334424+01

 2017-02-04 00:57:04.497155+01 | 1486166224.49715 |                 0 |               7 |                 83024 |                 1530 |            4538329 |        907697 |             8926 |        25531951 |                     0 |      22815045 | 2017-02-04 00:20:10.334424+01

 2017-02-04 00:57:05.570136+01 | 1486166225.57014 |                 0 |               7 |                 83024 |                 1530 |            4538329 |        908197 |             8931 |        25531951 |                     0 |      22832373 | 2017-02-04 00:20:10.334424+01

 2017-02-04 00:57:06.64019+01 | 1486166226.64019 |                 0 |               7 |                 83024 |                 1530 |            4538329 |        908797 |             8937 |        25531951 |                     0 |      22852689 | 2017-02-04 00:20:10.334424+01

 2017-02-04 00:57:07.720558+01 | 1486166227.72056 |                 0 |               7 |                 83024 |                 1530 |            4538329 |        909297 |             8942 |        25531951 |                     0 |      22865768 | 2017-02-04 00:20:10.334424+01

 2017-02-04 00:57:08.803366+01 | 1486166228.80337 |                 0 |               7 |                 83024 |                 1530 |            4538329 |        909797 |             8947 |        25531951 |                     0 |      22883438 | 2017-02-04 00:20:10.334424+01

 2017-02-04 00:57:09.881988+01 | 1486166229.88199 |                 0 |               7 |                 83024 |                 1530 |            4538329 |        910397 |             8953 |        25531951 |                     0 |      22905246 | 2017-02-04 00:20:10.334424+01

 2017-02-04 00:57:10.969032+01 | 1486166230.96903 |                 0 |               7 |                 83024 |                 1530 |            4538329 |        910897 |             8958 |        25531951 |                     0 |      22925795 | 2017-02-04 00:20:10.334424+01

 2017-02-04 00:57:12.046875+01 | 1486166232.04688 |                 0 |               7 |                 83024 |                 1530 |            4538329 |        911397 |             8963 |        25531951 |                     0 |      22943396 | 2017-02-04 00:20:10.334424+01

 2017-02-04 00:57:13.128569+01 | 1486166233.12857 |                 0 |               7 |                 83024 |                 1530 |            4538329 |        911997 |             8969 |        25531951 |                     0 |      22964069 | 2017-02-04 00:20:10.334424+01

 2017-02-04 00:57:14.215671+01 | 1486166234.21567 |                 0 |               7 |                 83024 |                 1530 |            4538329 |        912497 |             8974 |        25531951 |                     0 |      22978101 | 2017-02-04 00:20:10.334424+01

 2017-02-04 00:57:15.309642+01 | 1486166235.30964 |                 0 |               7 |                 83024 |                 1530 |            4538329 |        912997 |             8979 |        25531951 |                     0 |      22996337 | 2017-02-04 00:20:10.334424+01

 2017-02-04 00:57:16.396783+01 | 1486166236.39678 |                 0 |               7 |                 83024 |                 1530 |            4538329 |        913597 |             8985 |        25531951 |                     0 |      23017431 | 2017-02-04 00:20:10.334424+01

 2017-02-04 00:57:17.478796+01 | 1486166237.4788 |                 0 |               7 |                 83024 |                 1530 |            4538329 |        914097 |             8990 |        25531951 |                     0 |      23036659 | 2017-02-04 00:20:10.334424+01

 2017-02-04 00:57:18.568438+01 | 1486166238.56844 |                 0 |               7 |                 83024 |                 1530 |            4538329 |        914697 |             8996 |        25531951 |                     0 |      23057412 | 2017-02-04 00:20:10.334424+01

 2017-02-04 00:57:19.648988+01 | 1486166239.64899 |                 0 |               7 |                 83024 |                 1530 |            4538329 |        915197 |             9001 |        25531951 |                     0 |      23073116 | 2017-02-04 00:20:10.334424+01

 2017-02-04 00:57:20.73742+01 | 1486166240.73742 |                 0 |               7 |                 83024 |                 1530 |            4538329 |        915697 |             9006 |        25531951 |                     0 |      23090115 | 2017-02-04 00:20:10.334424+01

 2017-02-04 00:57:21.817069+01 | 1486166241.81707 |                 0 |               7 |                 83024 |                 1530 |            4538329 |        916297 |             9012 |        25531951 |                     0 |      23109456 | 2017-02-04 00:20:10.334424+01

 2017-02-04 00:57:22.896479+01 | 1486166242.89648 |                 0 |               7 |                 83024 |                 1530 |            4538329 |        916797 |             9017 |        25531951 |                     0 |      23126920 | 2017-02-04 00:20:10.334424+01

 2017-02-04 00:57:23.972467+01 | 1486166243.97247 |                 0 |               7 |                 83024 |                 1530 |            4538329 |        917297 |             9022 |        26042542 |                     0 |      23140870 | 2017-02-04 00:20:10.334424+01

 2017-02-04 00:57:25.057444+01 | 1486166245.05744 |                 0 |               7 |                 83024 |                 1530 |            4538329 |        917897 |             9028 |        26042542 |                     0 |      23152147 | 2017-02-04 00:20:10.334424+01

 2017-02-04 00:57:26.137625+01 | 1486166246.13762 |                 0 |               7 |                 83024 |                 1530 |            4538329 |        918397 |             9033 |        26042542 |                     0 |      23165045 | 2017-02-04 00:20:10.334424+01

 2017-02-04 00:57:27.221186+01 | 1486166247.22119 |                 0 |               7 |                 83024 |                 1530 |            4538329 |        918897 |             9038 |        26042542 |                     0 |      23179395 | 2017-02-04 00:20:10.334424+01

 2017-02-04 00:57:28.295075+01 | 1486166248.29507 |                 0 |               7 |                 83024 |                 1530 |            4538329 |        919497 |             9044 |        26042542 |                     0 |      23198687 | 2017-02-04 00:20:10.334424+01

 2017-02-04 00:57:29.376071+01 | 1486166249.37607 |                 0 |               7 |                 83024 |                 1530 |            4538329 |        919997 |             9049 |        26042542 |                     0 |      23210847 | 2017-02-04 00:20:10.334424+01

 2017-02-04 00:57:30.47656+01 | 1486166250.47656 |                 0 |               7 |                 83024 |                 1530 |            4538329 |        920497 |             9054 |        26042542 |                     0 |      23222375 | 2017-02-04 00:20:10.334424+01

 2017-02-04 00:57:31.562748+01 | 1486166251.56275 |                 0 |               7 |                 83024 |                 1530 |            4538329 |        921097 |             9060 |        26042542 |                     0 |      23235903 | 2017-02-04 00:20:10.334424+01

 2017-02-04 00:57:32.632628+01 | 1486166252.63263 |                 0 |               7 |                 83024 |                 1530 |            4538329 |        921597 |             9065 |        26042542 |                     0 |      23253030 | 2017-02-04 00:20:10.334424+01

 2017-02-04 00:57:33.701461+01 | 1486166253.70146 |                 0 |               7 |                 83024 |                 1530 |            4538329 |        922197 |             9071 |        26042542 |                     0 |      23270257 | 2017-02-04 00:20:10.334424+01

 2017-02-04 00:57:34.764493+01 | 1486166254.76449 |                 0 |               7 |                 83024 |                 1530 |            4538329 |        922697 |             9076 |        26042542 |                     0 |      23282107 | 2017-02-04 00:20:10.334424+01

 2017-02-04 00:57:35.831114+01 | 1486166255.83111 |                 0 |               7 |                 83024 |                 1530 |            4538329 |        923197 |             9081 |        26042542 |                     0 |      23293216 | 2017-02-04 00:20:10.334424+01

 2017-02-04 00:57:36.911458+01 | 1486166256.91146 |                 0 |               7 |                 83024 |                 1530 |            4538329 |        923697 |             9086 |        26042542 |                     0 |      23304151 | 2017-02-04 00:20:10.334424+01

 2017-02-04 00:57:38.001013+01 | 1486166258.00101 |                 0 |               7 |                 83024 |                 1530 |            4538329 |        924297 |             9092 |        26042542 |                     0 |      23317626 | 2017-02-04 00:20:10.334424+01

 2017-02-04 00:57:39.096286+01 | 1486166259.09629 |                 0 |               7 |                 83024 |                 1530 |            4538329 |        924797 |             9097 |        26042542 |                     0 |      23329237 | 2017-02-04 00:20:10.334424+01

 2017-02-04 00:57:40.167455+01 | 1486166260.16745 |                 0 |               7 |                 83024 |                 1530 |            4538329 |        925397 |             9103 |        26042542 |                     0 |      23341636 | 2017-02-04 00:20:10.334424+01

 2017-02-04 00:57:41.246215+01 | 1486166261.24622 |                 0 |               7 |                 83024 |                 1530 |            4538329 |        925897 |             9108 |        26042542 |                     0 |      23352599 | 2017-02-04 00:20:10.334424+01

 2017-02-04 00:57:42.317485+01 | 1486166262.31749 |                 0 |               7 |                 83024 |                 1530 |            4538329 |        926297 |             9112 |        26042542 |                     0 |      23362015 | 2017-02-04 00:20:10.334424+01

 2017-02-04 00:57:43.405949+01 | 1486166263.40595 |                 0 |               7 |                 83024 |                 1530 |            4538329 |        926897 |             9118 |        26042542 |                     0 |      23380376 | 2017-02-04 00:20:10.334424+01

 2017-02-04 00:57:44.489853+01 | 1486166264.48985 |                 0 |               7 |                 83024 |                 1530 |            4538329 |        927497 |             9124 |        26042542 |                     0 |      23397422 | 2017-02-04 00:20:10.334424+01

 2017-02-04 00:57:45.579485+01 | 1486166265.57948 |                 0 |               7 |                 83024 |                 1530 |            4538329 |        927997 |             9129 |        26042542 |                     0 |      23413967 | 2017-02-04 00:20:10.334424+01

 2017-02-04 00:57:46.66268+01 | 1486166266.66268 |                 0 |               7 |                 83024 |                 1530 |            4538329 |        928597 |             9135 |        26042542 |                     0 |      23433635 | 2017-02-04 00:20:10.334424+01

 2017-02-04 00:57:47.756305+01 | 1486166267.7563 |                 0 |               7 |                 83024 |                 1530 |            4538329 |        929097 |             9140 |        26042542 |                     0 |      23449557 | 2017-02-04 00:20:10.334424+01

 2017-02-04 00:57:48.841187+01 | 1486166268.84119 |                 0 |               7 |                 83024 |                 1530 |            4538329 |        929597 |             9145 |        26042542 |                     0 |      23467433 | 2017-02-04 00:20:10.334424+01

 2017-02-04 00:57:49.925012+01 | 1486166269.92501 |                 0 |               7 |                 83024 |                 1530 |            4538329 |        930197 |             9151 |        26042542 |                     0 |      23486290 | 2017-02-04 00:20:10.334424+01

 2017-02-04 00:57:51.012195+01 | 1486166271.0122 |                 0 |               7 |                 83024 |                 1530 |            4538329 |        930697 |             9156 |        26042542 |                     0 |      23503241 | 2017-02-04 00:20:10.334424+01

 2017-02-04 00:57:52.087242+01 | 1486166272.08724 |                 0 |               7 |                 83024 |                 1530 |            4538329 |        931197 |             9161 |        26042542 |                     0 |      23521220 | 2017-02-04 00:20:10.334424+01

 2017-02-04 00:57:53.162744+01 | 1486166273.16274 |                 0 |               7 |                 83024 |                 1530 |            4538329 |        931797 |             9167 |        26042542 |                     0 |      23541981 | 2017-02-04 00:20:10.334424+01

 2017-02-04 00:57:54.238738+01 | 1486166274.23874 |                 0 |               7 |                 83024 |                 1530 |            4538329 |        932297 |             9172 |        26042542 |                     0 |      23557691 | 2017-02-04 00:20:10.334424+01

 2017-02-04 00:57:55.323981+01 | 1486166275.32398 |                 0 |               7 |                 83024 |                 1530 |            4538329 |        932797 |             9177 |        26042542 |                     0 |      23576918 | 2017-02-04 00:20:10.334424+01

 2017-02-04 00:57:56.388048+01 | 1486166276.38805 |                 0 |               7 |                 83024 |                 1530 |            4538329 |        933397 |             9183 |        26042542 |                     0 |      23597952 | 2017-02-04 00:20:10.334424+01

 2017-02-04 00:57:57.470384+01 | 1486166277.47038 |                 0 |               7 |                 83024 |                 1530 |            4538329 |        933897 |             9188 |        26550031 |                     0 |      23610514 | 2017-02-04 00:20:10.334424+01

 2017-02-04 00:57:58.556554+01 | 1486166278.55655 |                 0 |               7 |                 83024 |                 1530 |            4538329 |        934397 |             9193 |        26550031 |                     0 |      23622833 | 2017-02-04 00:20:10.334424+01

 2017-02-04 00:57:59.623778+01 | 1486166279.62378 |                 0 |               7 |                 83024 |                 1530 |            4538329 |        934997 |             9199 |        26550031 |                     0 |      23641017 | 2017-02-04 00:20:10.334424+01

 2017-02-04 00:58:00.700649+01 | 1486166280.70065 |                 0 |               7 |                 83024 |                 1530 |            4538329 |        935497 |             9204 |        26550031 |                     0 |      23653528 | 2017-02-04 00:20:10.334424+01

 2017-02-04 00:58:01.789774+01 | 1486166281.78977 |                 0 |               7 |                 83024 |                 1530 |            4538329 |        935997 |             9209 |        26550031 |                     0 |      23669709 | 2017-02-04 00:20:10.334424+01

 2017-02-04 00:58:02.876762+01 | 1486166282.87676 |                 0 |               7 |                 83024 |                 1530 |            4538329 |        936597 |             9215 |        26550031 |                     0 |      23691186 | 2017-02-04 00:20:10.334424+01

 2017-02-04 00:58:03.961796+01 | 1486166283.9618 |                 0 |               7 |                 83024 |                 1530 |            4538329 |        937097 |             9220 |        26550031 |                     0 |      23709934 | 2017-02-04 00:20:10.334424+01

 2017-02-04 00:58:05.048038+01 | 1486166285.04804 |                 0 |               7 |                 83024 |                 1530 |            4538329 |        937697 |             9226 |        26550031 |                     0 |      23730952 | 2017-02-04 00:20:10.334424+01

 2017-02-04 00:58:06.138868+01 | 1486166286.13887 |                 0 |               7 |                 83024 |                 1530 |            4538329 |        938197 |             9231 |        26550031 |                     0 |      23747712 | 2017-02-04 00:20:10.334424+01

 2017-02-04 00:58:07.215175+01 | 1486166287.21517 |                 0 |               7 |                 83024 |                 1530 |            4538329 |        938697 |             9236 |        26550031 |                     0 |      23767279 | 2017-02-04 00:20:10.334424+01

 2017-02-04 00:58:08.305164+01 | 1486166288.30516 |                 0 |               7 |                 83024 |                 1530 |            4538329 |        939297 |             9242 |        26550031 |                     0 |      23788148 | 2017-02-04 00:20:10.334424+01

 2017-02-04 00:58:09.378315+01 | 1486166289.37831 |                 0 |               7 |                 83024 |                 1530 |            4538329 |        939797 |             9247 |        26550031 |                     0 |      23806562 | 2017-02-04 00:20:10.334424+01

 2017-02-04 00:58:10.451911+01 | 1486166290.45191 |                 0 |               7 |                 83024 |                 1530 |            4538329 |        940297 |             9252 |        26550031 |                     0 |      23824342 | 2017-02-04 00:20:10.334424+01

 2017-02-04 00:58:11.533743+01 | 1486166291.53374 |                 0 |               7 |                 83024 |                 1530 |            4538329 |        940897 |             9258 |        26550031 |                     0 |      23845803 | 2017-02-04 00:20:10.334424+01

 2017-02-04 00:58:12.612116+01 | 1486166292.61212 |                 0 |               7 |                 83024 |                 1530 |            4538329 |        941397 |             9263 |        26550031 |                     0 |      23863778 | 2017-02-04 00:20:10.334424+01

 2017-02-04 00:58:13.701716+01 | 1486166293.70172 |                 0 |               7 |                 83024 |                 1530 |            4538329 |        941897 |             9268 |        26550031 |                     0 |      23879903 | 2017-02-04 00:20:10.334424+01

 2017-02-04 00:58:14.787162+01 | 1486166294.78716 |                 0 |               7 |                 83024 |                 1530 |            4538329 |        942497 |             9274 |        26550031 |                     0 |      23902629 | 2017-02-04 00:20:10.334424+01

 2017-02-04 00:58:15.863676+01 | 1486166295.86368 |                 0 |               7 |                 83024 |                 1530 |            4538329 |        942997 |             9279 |        26550031 |                     0 |      23921709 | 2017-02-04 00:20:10.334424+01

 2017-02-04 00:58:16.944606+01 | 1486166296.94461 |                 0 |               7 |                 83024 |                 1530 |            4538329 |        943597 |             9285 |        26550031 |                     0 |      23942946 | 2017-02-04 00:20:10.334424+01

 2017-02-04 00:58:18.021876+01 | 1486166298.02188 |                 0 |               7 |                 83024 |                 1530 |            4538329 |        944097 |             9290 |        26550031 |                     0 |      23962237 | 2017-02-04 00:20:10.334424+01

 2017-02-04 00:58:19.104064+01 | 1486166299.10406 |                 0 |               7 |                 83024 |                 1530 |            4538329 |        944597 |             9295 |        26550031 |                     0 |      23974216 | 2017-02-04 00:20:10.334424+01

 2017-02-04 00:58:20.176822+01 | 1486166300.17682 |                 0 |               7 |                 83024 |                 1530 |            4538329 |        945197 |             9301 |        26550031 |                     0 |      23992726 | 2017-02-04 00:20:10.334424+01

 2017-02-04 00:58:21.25145+01 | 1486166301.25145 |                 0 |               7 |                 83024 |                 1530 |            4538329 |        945697 |             9306 |        26550031 |                     0 |      24007326 | 2017-02-04 00:20:10.334424+01

 2017-02-04 00:58:22.328161+01 | 1486166302.32816 |                 0 |               7 |                 83024 |                 1530 |            4538329 |        946197 |             9311 |        26550031 |                     0 |      24021756 | 2017-02-04 00:20:10.334424+01

 2017-02-04 00:58:23.405118+01 | 1486166303.40512 |                 0 |               7 |                 83024 |                 1530 |            4538329 |        946797 |             9317 |        26550031 |                     0 |      24038347 | 2017-02-04 00:20:10.334424+01

 2017-02-04 00:58:24.476751+01 | 1486166304.47675 |                 0 |               7 |                 83024 |                 1530 |            4538329 |        947297 |             9322 |        26550031 |                     0 |      24052836 | 2017-02-04 00:20:10.334424+01

 2017-02-04 00:58:25.552758+01 | 1486166305.55276 |                 0 |               7 |                 83024 |                 1530 |            4538329 |        947797 |             9327 |        26550031 |                     0 |      24066739 | 2017-02-04 00:20:10.334424+01

 2017-02-04 00:58:26.621499+01 | 1486166306.6215 |                 0 |               7 |                 83024 |                 1530 |            4538329 |        948297 |             9332 |        26550031 |                     0 |      24085167 | 2017-02-04 00:20:10.334424+01

 2017-02-04 00:58:27.696207+01 | 1486166307.69621 |                 0 |               7 |                 83024 |                 1530 |            4538329 |        948897 |             9338 |        26550031 |                     0 |      24105209 | 2017-02-04 00:20:10.334424+01

 2017-02-04 00:58:28.784536+01 | 1486166308.78454 |                 0 |               7 |                 83024 |                 1530 |            4538329 |        949397 |             9343 |        27059020 |                     0 |      24123896 | 2017-02-04 00:20:10.334424+01

 2017-02-04 00:58:29.871218+01 | 1486166309.87122 |                 0 |               7 |                 83024 |                 1530 |            4538329 |        949997 |             9349 |        27059020 |                     0 |      24144732 | 2017-02-04 00:20:10.334424+01

 2017-02-04 00:58:30.940181+01 | 1486166310.94018 |                 0 |               7 |                 83024 |                 1530 |            4538329 |        950497 |             9354 |        27059020 |                     0 |      24162631 | 2017-02-04 00:20:10.334424+01

 2017-02-04 00:58:32.02522+01 | 1486166312.02522 |                 0 |               7 |                 83024 |                 1530 |            4538329 |        950997 |             9359 |        27059020 |                     0 |      24174762 | 2017-02-04 00:20:10.334424+01

 2017-02-04 00:58:33.112251+01 | 1486166313.11225 |                 0 |               7 |                 83024 |                 1530 |            4538329 |        951597 |             9365 |        27059020 |                     0 |      24189574 | 2017-02-04 00:20:10.334424+01

 2017-02-04 00:58:34.185005+01 | 1486166314.185 |                 0 |               7 |                 83024 |                 1530 |            4538329 |        952097 |             9370 |        27059020 |                     0 |      24206726 | 2017-02-04 00:20:10.334424+01

 2017-02-04 00:58:35.265904+01 | 1486166315.2659 |                 0 |               7 |                 83024 |                 1530 |            4538329 |        952597 |             9375 |        27059020 |                     0 |      24219506 | 2017-02-04 00:20:10.334424+01

 2017-02-04 00:58:36.343236+01 | 1486166316.34324 |                 0 |               7 |                 83024 |                 1530 |            4538329 |        953197 |             9381 |        27059020 |                     0 |      24235746 | 2017-02-04 00:20:10.334424+01

 2017-02-04 00:58:37.425706+01 | 1486166317.42571 |                 0 |               7 |                 83024 |                 1530 |            4538329 |        953697 |             9386 |        27059020 |                     0 |      24250078 | 2017-02-04 00:20:10.334424+01

 2017-02-04 00:58:38.508137+01 | 1486166318.50814 |                 0 |               7 |                 83024 |                 1530 |            4538329 |        954197 |             9391 |        27059020 |                     0 |      24261235 | 2017-02-04 00:20:10.334424+01

 2017-02-04 00:58:39.587559+01 | 1486166319.58756 |                 0 |               7 |                 83024 |                 1530 |            4538329 |        954797 |             9397 |        27059020 |                     0 |      24284607 | 2017-02-04 00:20:10.334424+01

 2017-02-04 00:58:40.67313+01 | 1486166320.67313 |                 0 |               7 |                 83024 |                 1530 |            4538329 |        955297 |             9402 |        27059020 |                     0 |      24300823 | 2017-02-04 00:20:10.334424+01

 2017-02-04 00:58:41.74748+01 | 1486166321.74748 |                 0 |               7 |                 83024 |                 1530 |            4538329 |        955697 |             9406 |        27059020 |                     0 |      24317199 | 2017-02-04 00:20:10.334424+01

 2017-02-04 00:58:42.817939+01 | 1486166322.81794 |                 0 |               7 |                 83024 |                 1530 |            4538329 |        956297 |             9412 |        27059020 |                     0 |      24339230 | 2017-02-04 00:20:10.334424+01

 2017-02-04 00:58:43.907022+01 | 1486166323.90702 |                 0 |               7 |                 83024 |                 1530 |            4538329 |        956897 |             9418 |        27059020 |                     0 |      24360680 | 2017-02-04 00:20:10.334424+01

 2017-02-04 00:58:44.994412+01 | 1486166324.99441 |                 0 |               7 |                 83024 |                 1530 |            4538329 |        957397 |             9423 |        27059020 |                     0 |      24376327 | 2017-02-04 00:20:10.334424+01

 2017-02-04 00:58:46.080964+01 | 1486166326.08096 |                 0 |               7 |                 83024 |                 1530 |            4538329 |        957997 |             9429 |        27059020 |                     0 |      24394080 | 2017-02-04 00:20:10.334424+01

 2017-02-04 00:58:47.173048+01 | 1486166327.17305 |                 0 |               7 |                 83024 |                 1530 |            4538329 |        958497 |             9434 |        27059020 |                     0 |      24407228 | 2017-02-04 00:20:10.334424+01

 2017-02-04 00:58:48.24614+01 | 1486166328.24614 |                 0 |               7 |                 83024 |                 1530 |            4538329 |        959097 |             9440 |        27059020 |                     0 |      24425859 | 2017-02-04 00:20:10.334424+01

 2017-02-04 00:58:49.31194+01 | 1486166329.31194 |                 0 |               7 |                 83024 |                 1530 |            4538329 |        959597 |             9445 |        27059020 |                     0 |      24440522 | 2017-02-04 00:20:10.334424+01

 2017-02-04 00:58:50.390829+01 | 1486166330.39083 |                 0 |               7 |                 83024 |                 1530 |            4538329 |        960097 |             9450 |        27059020 |                     0 |      24454866 | 2017-02-04 00:20:10.334424+01

 2017-02-04 00:58:51.474158+01 | 1486166331.47416 |                 0 |               7 |                 83024 |                 1530 |            4538329 |        960697 |             9456 |        27059020 |                     0 |      24476268 | 2017-02-04 00:20:10.334424+01

 2017-02-04 00:58:52.557949+01 | 1486166332.55795 |                 0 |               7 |                 83024 |                 1530 |            4538329 |        961197 |             9461 |        27059020 |                     0 |      24491290 | 2017-02-04 00:20:10.334424+01

 2017-02-04 00:58:53.628667+01 | 1486166333.62867 |                 0 |               7 |                 83024 |                 1530 |            4538329 |        961697 |             9466 |        27059020 |                     0 |      24507674 | 2017-02-04 00:20:10.334424+01

 2017-02-04 00:58:54.714986+01 | 1486166334.71499 |                 0 |               7 |                 83024 |                 1530 |            4538329 |        962297 |             9472 |        27059020 |                     0 |      24529210 | 2017-02-04 00:20:10.334424+01

 2017-02-04 00:58:55.796149+01 | 1486166335.79615 |                 0 |               7 |                 83024 |                 1530 |            4538329 |        962797 |             9477 |        27059020 |                     0 |      24546917 | 2017-02-04 00:20:10.334424+01

 2017-02-04 00:58:56.888064+01 | 1486166336.88806 |                 0 |               7 |                 83024 |                 1530 |            4538329 |        963297 |             9482 |        27059020 |                     0 |      24566365 | 2017-02-04 00:20:10.334424+01

 2017-02-04 00:58:57.962771+01 | 1486166337.96277 |                 0 |               7 |                 83024 |                 1530 |            4538329 |        963897 |             9488 |        27059020 |                     0 |      24589781 | 2017-02-04 00:20:10.334424+01

 2017-02-04 00:58:59.046519+01 | 1486166339.04652 |                 0 |               7 |                 83024 |                 1530 |            4538329 |        964397 |             9493 |        27059020 |                     0 |      24607601 | 2017-02-04 00:20:10.334424+01

 2017-02-04 00:59:00.133566+01 | 1486166340.13357 |                 0 |               7 |                 83024 |                 1530 |            4538329 |        964897 |             9498 |        27059020 |                     0 |      24625406 | 2017-02-04 00:20:10.334424+01

 2017-02-04 00:59:01.207928+01 | 1486166341.20793 |                 0 |               7 |                 83024 |                 1530 |            4538329 |        965497 |             9504 |        27567308 |                     0 |      24647647 | 2017-02-04 00:20:10.334424+01

 2017-02-04 00:59:02.293883+01 | 1486166342.29388 |                 0 |               7 |                 83024 |                 1530 |            4538329 |        965997 |             9509 |        27567308 |                     0 |      24664818 | 2017-02-04 00:20:10.334424+01

 2017-02-04 00:59:03.387648+01 | 1486166343.38765 |                 0 |               7 |                 83024 |                 1530 |            4538329 |        966497 |             9514 |        27567308 |                     0 |      24682192 | 2017-02-04 00:20:10.334424+01

 2017-02-04 00:59:04.478828+01 | 1486166344.47883 |                 0 |               7 |                 83024 |                 1530 |            4538329 |        967097 |             9520 |        27567308 |                     0 |      24704356 | 2017-02-04 00:20:10.334424+01

 2017-02-04 00:59:05.561308+01 | 1486166345.56131 |                 0 |               7 |                 83024 |                 1530 |            4538329 |        967597 |             9525 |        27567308 |                     0 |      24723004 | 2017-02-04 00:20:10.334424+01

 2017-02-04 00:59:06.64665+01 | 1486166346.64665 |                 0 |               7 |                 83024 |                 1530 |            4538329 |        968197 |             9531 |        27567308 |                     0 |      24741890 | 2017-02-04 00:20:10.334424+01

 2017-02-04 00:59:07.728404+01 | 1486166347.7284 |                 0 |               7 |                 83024 |                 1530 |            4538329 |        968697 |             9536 |        27567308 |                     0 |      24758404 | 2017-02-04 00:20:10.334424+01

 2017-02-04 00:59:08.807194+01 | 1486166348.80719 |                 0 |               7 |                 83024 |                 1530 |            4538329 |        969197 |             9541 |        27567308 |                     0 |      24776045 | 2017-02-04 00:20:10.334424+01

 2017-02-04 00:59:09.892079+01 | 1486166349.89208 |                 0 |               7 |                 83024 |                 1530 |            4538329 |        969797 |             9547 |        27567308 |                     0 |      24795490 | 2017-02-04 00:20:10.334424+01

 2017-02-04 00:59:10.973111+01 | 1486166350.97311 |                 0 |               7 |                 83024 |                 1530 |            4538329 |        970297 |             9552 |        27567308 |                     0 |      24812938 | 2017-02-04 00:20:10.334424+01

 2017-02-04 00:59:12.061636+01 | 1486166352.06164 |                 0 |               7 |                 83024 |                 1530 |            4538329 |        970797 |             9557 |        27567308 |                     0 |      24829874 | 2017-02-04 00:20:10.334424+01

 2017-02-04 00:59:13.170877+01 | 1486166353.17088 |                 0 |               7 |                 83024 |                 1530 |            4538329 |        971397 |             9563 |        27567308 |                     0 |      24849134 | 2017-02-04 00:20:10.334424+01

 2017-02-04 00:59:14.25182+01 | 1486166354.25182 |                 0 |               7 |                 83024 |                 1530 |            4538329 |        971897 |             9568 |        27567308 |                     0 |      24866064 | 2017-02-04 00:20:10.334424+01

 2017-02-04 00:59:15.336738+01 | 1486166355.33674 |                 0 |               7 |                 83024 |                 1530 |            4538329 |        972497 |             9574 |        27567308 |                     0 |      24886382 | 2017-02-04 00:20:10.334424+01

 2017-02-04 00:59:16.414938+01 | 1486166356.41494 |                 0 |               7 |                 83024 |                 1530 |            4538329 |        972997 |             9579 |        27567308 |                     0 |      24902059 | 2017-02-04 00:20:10.334424+01

 2017-02-04 00:59:17.496565+01 | 1486166357.49657 |                 0 |               7 |                 83024 |                 1530 |            4538329 |        973497 |             9584 |        27567308 |                     0 |      24919103 | 2017-02-04 00:20:10.334424+01

 2017-02-04 00:59:18.587091+01 | 1486166358.58709 |                 0 |               7 |                 83024 |                 1530 |            4538329 |        974097 |             9590 |        27567308 |                     0 |      24938363 | 2017-02-04 00:20:10.334424+01

 2017-02-04 00:59:19.667076+01 | 1486166359.66708 |                 0 |               7 |                 83024 |                 1530 |            4538329 |        974597 |             9595 |        27567308 |                     0 |      24956162 | 2017-02-04 00:20:10.334424+01

 2017-02-04 00:59:20.753775+01 | 1486166360.75377 |                 0 |               7 |                 83024 |                 1530 |            4538329 |        975097 |             9600 |        27567308 |                     0 |      24971348 | 2017-02-04 00:20:10.334424+01

 2017-02-04 00:59:21.844984+01 | 1486166361.84498 |                 0 |               7 |                 83024 |                 1530 |            4538329 |        975697 |             9606 |        27567308 |                     0 |      24992725 | 2017-02-04 00:20:10.334424+01

 2017-02-04 00:59:22.93205+01 | 1486166362.93205 |                 0 |               7 |                 83024 |                 1530 |            4538329 |        976197 |             9611 |        27567308 |                     0 |      25008228 | 2017-02-04 00:20:10.334424+01

 2017-02-04 00:59:24.000184+01 | 1486166364.00018 |                 0 |               7 |                 83024 |                 1530 |            4538329 |        976797 |             9617 |        27567308 |                     0 |      25029240 | 2017-02-04 00:20:10.334424+01

 2017-02-04 00:59:25.085367+01 | 1486166365.08537 |                 0 |               7 |                 83024 |                 1530 |            4538329 |        977297 |             9622 |        27567308 |                     0 |      25045864 | 2017-02-04 00:20:10.334424+01

 2017-02-04 00:59:26.16794+01 | 1486166366.16794 |                 0 |               7 |                 83024 |                 1530 |            4538329 |        977797 |             9627 |        27567308 |                     0 |      25063072 | 2017-02-04 00:20:10.334424+01

 2017-02-04 00:59:27.255952+01 | 1486166367.25595 |                 0 |               7 |                 83024 |                 1530 |            4538329 |        978397 |             9633 |        27567308 |                     0 |      25084283 | 2017-02-04 00:20:10.334424+01

 2017-02-04 00:59:28.335202+01 | 1486166368.3352 |                 0 |               7 |                 83024 |                 1530 |            4538329 |        978897 |             9638 |        27567308 |                     0 |      25101604 | 2017-02-04 00:20:10.334424+01

 2017-02-04 00:59:29.42702+01 | 1486166369.42702 |                 0 |               7 |                 83024 |                 1530 |            4538329 |        979397 |             9643 |        27567308 |                     0 |      25114383 | 2017-02-04 00:20:10.334424+01

 2017-02-04 00:59:30.511948+01 | 1486166370.51195 |                 0 |               7 |                 83024 |                 1530 |            4538329 |        979997 |             9649 |        27567308 |                     0 |      25129191 | 2017-02-04 00:20:10.334424+01

 2017-02-04 00:59:31.596453+01 | 1486166371.59645 |                 0 |               7 |                 83024 |                 1530 |            4538329 |        980497 |             9654 |        28076297 |                     0 |      25144165 | 2017-02-04 00:20:10.334424+01

 2017-02-04 00:59:32.67098+01 | 1486166372.67098 |                 0 |               7 |                 83024 |                 1530 |            4538329 |        980997 |             9659 |        28076297 |                     0 |      25157330 | 2017-02-04 00:20:10.334424+01

 2017-02-04 00:59:33.761023+01 | 1486166373.76102 |                 0 |               7 |                 83024 |                 1530 |            4538329 |        981597 |             9665 |        28076297 |                     0 |      25173696 | 2017-02-04 00:20:10.334424+01

 2017-02-04 00:59:34.846668+01 | 1486166374.84667 |                 0 |               7 |                 83024 |                 1530 |            4538329 |        982097 |             9670 |        28076297 |                     0 |      25187848 | 2017-02-04 00:20:10.334424+01

 2017-02-04 00:59:35.928596+01 | 1486166375.9286 |                 0 |               7 |                 83024 |                 1530 |            4538329 |        982697 |             9676 |        28076297 |                     0 |      25206805 | 2017-02-04 00:20:10.334424+01

 2017-02-04 00:59:37.015209+01 | 1486166377.01521 |                 0 |               7 |                 83024 |                 1530 |            4538329 |        983197 |             9681 |        28076297 |                     0 |      25221713 | 2017-02-04 00:20:10.334424+01

 2017-02-04 00:59:38.090782+01 | 1486166378.09078 |                 0 |               7 |                 83024 |                 1530 |            4538329 |        983697 |             9686 |        28076297 |                     0 |      25235686 | 2017-02-04 00:20:10.334424+01

 2017-02-04 00:59:39.170695+01 | 1486166379.1707 |                 0 |               7 |                 83024 |                 1530 |            4538329 |        984297 |             9692 |        28076297 |                     0 |      25252112 | 2017-02-04 00:20:10.334424+01

 2017-02-04 00:59:40.248364+01 | 1486166380.24836 |                 0 |               7 |                 83024 |                 1530 |            4538329 |        984797 |             9697 |        28076297 |                     0 |      25265807 | 2017-02-04 00:20:10.334424+01

 2017-02-04 00:59:41.328205+01 | 1486166381.32821 |                 0 |               7 |                 83024 |                 1530 |            4538329 |        985297 |             9702 |        28076297 |                     0 |      25281350 | 2017-02-04 00:20:10.334424+01

 2017-02-04 00:59:42.411074+01 | 1486166382.41107 |                 0 |               7 |                 83024 |                 1530 |            4538329 |        985797 |             9707 |        28076297 |                     0 |      25297050 | 2017-02-04 00:20:10.334424+01

 2017-02-04 00:59:43.501755+01 | 1486166383.50175 |                 0 |               7 |                 83024 |                 1530 |            4538329 |        986397 |             9713 |        28076297 |                     0 |      25315426 | 2017-02-04 00:20:10.334424+01

 2017-02-04 00:59:44.571497+01 | 1486166384.5715 |                 0 |               7 |                 83024 |                 1530 |            4538329 |        986897 |             9718 |        28076297 |                     0 |      25328554 | 2017-02-04 00:20:10.334424+01

 2017-02-04 00:59:45.651573+01 | 1486166385.65157 |                 0 |               7 |                 83024 |                 1530 |            4538329 |        987497 |             9724 |        28076297 |                     0 |      25343858 | 2017-02-04 00:20:10.334424+01

 2017-02-04 00:59:46.715039+01 | 1486166386.71504 |                 0 |               7 |                 83024 |                 1530 |            4538329 |        987997 |             9729 |        28076297 |                     0 |      25355692 | 2017-02-04 00:20:10.334424+01

 2017-02-04 00:59:47.801208+01 | 1486166387.80121 |                 0 |               7 |                 83024 |                 1530 |            4538329 |        988497 |             9734 |        28076297 |                     0 |      25370169 | 2017-02-04 00:20:10.334424+01

 2017-02-04 00:59:48.889701+01 | 1486166388.8897 |                 0 |               7 |                 83024 |                 1530 |            4538329 |        989097 |             9740 |        28076297 |                     0 |      25389437 | 2017-02-04 00:20:10.334424+01

 2017-02-04 00:59:49.977839+01 | 1486166389.97784 |                 0 |               7 |                 83024 |                 1530 |            4538329 |        989597 |             9745 |        28076297 |                     0 |      25405128 | 2017-02-04 00:20:10.334424+01

 2017-02-04 00:59:51.044655+01 | 1486166391.04466 |                 0 |               7 |                 83024 |                 1530 |            4538329 |        990097 |             9750 |        28076297 |                     0 |      25421023 | 2017-02-04 00:20:10.334424+01

 2017-02-04 00:59:52.138208+01 | 1486166392.13821 |                 0 |               7 |                 83024 |                 1530 |            4538329 |        990697 |             9756 |        28076297 |                     0 |      25439273 | 2017-02-04 00:20:10.334424+01

 2017-02-04 00:59:53.227102+01 | 1486166393.2271 |                 0 |               7 |                 83024 |                 1530 |            4538329 |        991197 |             9761 |        28076297 |                     0 |      25453921 | 2017-02-04 00:20:10.334424+01

 2017-02-04 00:59:54.315496+01 | 1486166394.3155 |                 0 |               7 |                 83024 |                 1530 |            4538329 |        991797 |             9767 |        28076297 |                     0 |      25470076 | 2017-02-04 00:20:10.334424+01

 2017-02-04 00:59:55.388178+01 | 1486166395.38818 |                 0 |               7 |                 83024 |                 1530 |            4538329 |        992297 |             9772 |        28076297 |                     0 |      25487656 | 2017-02-04 00:20:10.334424+01

 2017-02-04 00:59:56.468152+01 | 1486166396.46815 |                 0 |               7 |                 83024 |                 1530 |            4538329 |        992797 |             9777 |        28076297 |                     0 |      25502504 | 2017-02-04 00:20:10.334424+01

 2017-02-04 00:59:57.556136+01 | 1486166397.55614 |                 0 |               7 |                 83024 |                 1530 |            4538329 |        993397 |             9783 |        28076297 |                     0 |      25521372 | 2017-02-04 00:20:10.334424+01

 2017-02-04 00:59:58.64198+01 | 1486166398.64198 |                 0 |               7 |                 83024 |                 1530 |            4538329 |        993897 |             9788 |        28076297 |                     0 |      25538032 | 2017-02-04 00:20:10.334424+01

 2017-02-04 00:59:59.723245+01 | 1486166399.72324 |                 0 |               7 |                 83024 |                 1530 |            4538329 |        994397 |             9793 |        28076297 |                     0 |      25551187 | 2017-02-04 00:20:10.334424+01

 2017-02-04 01:00:00.812281+01 | 1486166400.81228 |                 0 |               7 |                 83024 |                 1530 |            4538329 |        994997 |             9799 |        28076297 |                     0 |      25569621 | 2017-02-04 00:20:10.334424+01

 2017-02-04 01:00:01.890169+01 | 1486166401.89017 |                 0 |               7 |                 83024 |                 1530 |            4538329 |        995497 |             9804 |        28076297 |                     0 |      25586319 | 2017-02-04 00:20:10.334424+01

 2017-02-04 01:00:02.974233+01 | 1486166402.97423 |                 0 |               7 |                 83024 |                 1530 |            4538329 |        995997 |             9809 |        28076297 |                     0 |      25605364 | 2017-02-04 00:20:10.334424+01

 2017-02-04 01:00:04.042763+01 | 1486166404.04276 |                 0 |               7 |                 83024 |                 1530 |            4538329 |        996597 |             9815 |        28584585 |                     0 |      25626754 | 2017-02-04 00:20:10.334424+01

 2017-02-04 01:00:05.12916+01 | 1486166405.12916 |                 0 |               7 |                 83024 |                 1530 |            4538329 |        997097 |             9820 |        28584585 |                     0 |      25643427 | 2017-02-04 00:20:10.334424+01

 2017-02-04 01:00:06.2102+01 | 1486166406.2102 |                 0 |               7 |                 83024 |                 1530 |            4538329 |        997697 |             9826 |        28584585 |                     0 |      25664334 | 2017-02-04 00:20:10.334424+01

 2017-02-04 01:00:07.292523+01 | 1486166407.29252 |                 0 |               7 |                 83024 |                 1530 |            4538329 |        998197 |             9831 |        28584585 |                     0 |      25680932 | 2017-02-04 00:20:10.334424+01

 2017-02-04 01:00:08.354696+01 | 1486166408.3547 |                 0 |               7 |                 83024 |                 1530 |            4538329 |        998697 |             9836 |        28584585 |                     0 |      25699156 | 2017-02-04 00:20:10.334424+01

 2017-02-04 01:00:09.437075+01 | 1486166409.43707 |                 0 |               7 |                 83024 |                 1530 |            4538329 |        999197 |             9841 |        28584585 |                     0 |      25715898 | 2017-02-04 00:20:10.334424+01

 2017-02-04 01:00:10.520706+01 | 1486166410.52071 |                 0 |               7 |                 83024 |                 1530 |            4538329 |        999797 |             9847 |        28584585 |                     0 |      25736122 | 2017-02-04 00:20:10.334424+01

 2017-02-04 01:00:11.593717+01 | 1486166411.59372 |                 0 |               7 |                 83024 |                 1530 |            4538329 |       1000297 |             9852 |        28584585 |                     0 |      25752137 | 2017-02-04 00:20:10.334424+01

 2017-02-04 01:00:12.673325+01 | 1486166412.67333 |                 0 |               7 |                 83024 |                 1530 |            4538329 |       1000897 |             9858 |        28584585 |                     0 |      25767248 | 2017-02-04 00:20:10.334424+01

 2017-02-04 01:00:13.760045+01 | 1486166413.76005 |                 0 |               7 |                 83024 |                 1530 |            4538329 |       1001397 |             9863 |        28584585 |                     0 |      25780078 | 2017-02-04 00:20:10.334424+01

 2017-02-04 01:00:14.838656+01 | 1486166414.83866 |                 0 |               7 |                 83024 |                 1530 |            4538329 |       1001897 |             9868 |        28584585 |                     0 |      25793409 | 2017-02-04 00:20:10.334424+01

 2017-02-04 01:00:15.91107+01 | 1486166415.91107 |                 0 |               7 |                 83024 |                 1530 |            4538329 |       1002497 |             9874 |        28584585 |                     0 |      25811731 | 2017-02-04 00:20:10.334424+01

 2017-02-04 01:00:16.989784+01 | 1486166416.98978 |                 0 |               7 |                 83024 |                 1530 |            4538329 |       1002997 |             9879 |        28584585 |                     0 |      25825871 | 2017-02-04 00:20:10.334424+01

 2017-02-04 01:00:18.0837+01 | 1486166418.0837 |                 0 |               7 |                 83024 |                 1530 |            4538329 |       1003497 |             9884 |        28584585 |                     0 |      25843411 | 2017-02-04 00:20:10.334424+01

 2017-02-04 01:00:19.163079+01 | 1486166419.16308 |                 0 |               7 |                 83024 |                 1530 |            4538329 |       1004097 |             9890 |        28584585 |                     0 |      25862882 | 2017-02-04 00:20:10.334424+01

 2017-02-04 01:00:20.24408+01 | 1486166420.24408 |                 0 |               7 |                 83024 |                 1530 |            4538329 |       1004597 |             9895 |        28584585 |                     0 |      25877323 | 2017-02-04 00:20:10.334424+01

 2017-02-04 01:00:21.331429+01 | 1486166421.33143 |                 0 |               7 |                 83024 |                 1530 |            4538329 |       1005097 |             9900 |        28584585 |                     0 |      25895425 | 2017-02-04 00:20:10.334424+01

 2017-02-04 01:00:22.400558+01 | 1486166422.40056 |                 0 |               7 |                 83024 |                 1530 |            4538329 |       1005697 |             9906 |        28584585 |                     0 |      25916246 | 2017-02-04 00:20:10.334424+01

 2017-02-04 01:00:23.477469+01 | 1486166423.47747 |                 0 |               7 |                 83024 |                 1530 |            4538329 |       1006197 |             9911 |        28584585 |                     0 |      25929847 | 2017-02-04 00:20:10.334424+01

 2017-02-04 01:00:24.559294+01 | 1486166424.55929 |                 0 |               7 |                 83024 |                 1530 |            4538329 |       1006697 |             9916 |        28584585 |                     0 |      25943276 | 2017-02-04 00:20:10.334424+01

 2017-02-04 01:00:25.636892+01 | 1486166425.63689 |                 0 |               7 |                 83024 |                 1530 |            4538329 |       1007297 |             9922 |        28584585 |                     0 |      25961466 | 2017-02-04 00:20:10.334424+01

 2017-02-04 01:00:26.727312+01 | 1486166426.72731 |                 0 |               7 |                 83024 |                 1530 |            4538329 |       1007797 |             9927 |        28584585 |                     0 |      25973894 | 2017-02-04 00:20:10.334424+01

 2017-02-04 01:00:27.797597+01 | 1486166427.7976 |                 0 |               7 |                 83024 |                 1530 |            4538329 |       1008297 |             9932 |        28584585 |                     0 |      25988199 | 2017-02-04 00:20:10.334424+01

 2017-02-04 01:00:28.876+01 | 1486166428.876 |                 0 |               7 |                 83024 |                 1530 |            4538329 |       1008897 |             9938 |        28584585 |                     0 |      26004759 | 2017-02-04 00:20:10.334424+01

 2017-02-04 01:00:29.968108+01 | 1486166429.96811 |                 0 |               7 |                 83024 |                 1530 |            4538329 |       1009397 |             9943 |        28584585 |                     0 |      26017949 | 2017-02-04 00:20:10.334424+01

 2017-02-04 01:00:31.054867+01 | 1486166431.05487 |                 0 |               7 |                 83024 |                 1530 |            4538329 |       1009997 |             9949 |        28584585 |                     0 |      26032541 | 2017-02-04 00:20:10.334424+01

 2017-02-04 01:00:32.145969+01 | 1486166432.14597 |                 0 |               7 |                 83024 |                 1530 |            4538329 |       1010497 |             9954 |        28584585 |                     0 |      26046178 | 2017-02-04 00:20:10.334424+01

