 2017-02-06 07:16:40.410739+01 | 1486361800.41074 | 3/1AAE3A0                |           12912878496

 2017-02-06 07:16:41.486665+01 | 1486361801.48667 | 3/1AAE3A0                |           12912878496

 2017-02-06 07:16:42.563012+01 | 1486361802.56301 | 3/1AAE3A0                |           12912878496

 2017-02-06 07:16:43.641456+01 | 1486361803.64146 | 3/1AAE3A0                |           12912878496

 2017-02-06 07:16:44.726776+01 | 1486361804.72678 | 3/1AAE3A0                |           12912878496

 2017-02-06 07:16:45.803262+01 | 1486361805.80326 | 3/1AAE3A0                |           12912878496

 2017-02-06 07:16:46.880743+01 | 1486361806.88074 | 3/1AAE3A0                |           12912878496

 2017-02-06 07:16:47.954495+01 | 1486361807.95449 | 3/1AAE3A0                |           12912878496

 2017-02-06 07:16:49.026932+01 | 1486361809.02693 | 3/1AAE3A0                |           12912878496

 2017-02-06 07:16:50.107579+01 | 1486361810.10758 | 3/1AAE3A0                |           12912878496

 2017-02-06 07:16:51.171396+01 | 1486361811.1714 | 3/1AAE3A0                |           12912878496

 2017-02-06 07:16:52.24048+01 | 1486361812.24048 | 3/1AAE3A0                |           12912878496

 2017-02-06 07:16:53.314161+01 | 1486361813.31416 | 3/1AAE3A0                |           12912878496

 2017-02-06 07:16:54.396248+01 | 1486361814.39625 | 3/1AAE3A0                |           12912878496

 2017-02-06 07:16:55.479558+01 | 1486361815.47956 | 3/1AAE3D8                |           12912878552

 2017-02-06 07:16:56.549804+01 | 1486361816.5498 | 3/1AAE3D8                |           12912878552

 2017-02-06 07:16:57.626546+01 | 1486361817.62655 | 3/1AAE3D8                |           12912878552

 2017-02-06 07:16:58.713537+01 | 1486361818.71354 | 3/1AAE3D8                |           12912878552

 2017-02-06 07:16:59.789345+01 | 1486361819.78935 | 3/1AAE3D8                |           12912878552

 2017-02-06 07:17:00.875141+01 | 1486361820.87514 | 3/1AAE3D8                |           12912878552

 2017-02-06 07:17:01.949773+01 | 1486361821.94977 | 3/1AAE3D8                |           12912878552

 2017-02-06 07:17:03.029539+01 | 1486361823.02954 | 3/1AAE3D8                |           12912878552

 2017-02-06 07:17:04.104304+01 | 1486361824.1043 | 3/1AAE3D8                |           12912878552

 2017-02-06 07:17:05.186594+01 | 1486361825.18659 | 3/1AAE3D8                |           12912878552

 2017-02-06 07:17:06.268374+01 | 1486361826.26837 | 3/1AAE3D8                |           12912878552

 2017-02-06 07:17:07.341934+01 | 1486361827.34193 | 3/1AAE3D8                |           12912878552

 2017-02-06 07:17:08.419608+01 | 1486361828.41961 | 3/1AAE3D8                |           12912878552

 2017-02-06 07:17:09.502231+01 | 1486361829.50223 | 3/1AAE3D8                |           12912878552

 2017-02-06 07:17:10.571875+01 | 1486361830.57188 | 3/1AAE3D8                |           12912878552

 2017-02-06 07:17:11.653944+01 | 1486361831.65394 | 3/1AAE3D8                |           12912878552

 2017-02-06 07:17:12.74034+01 | 1486361832.74034 | 3/1AAE3D8                |           12912878552

 2017-02-06 07:17:13.828823+01 | 1486361833.82882 | 3/1AAE3D8                |           12912878552

 2017-02-06 07:17:14.912222+01 | 1486361834.91222 | 3/1AAE3D8                |           12912878552

 2017-02-06 07:17:15.995259+01 | 1486361835.99526 | 3/1AAE3D8                |           12912878552

 2017-02-06 07:17:17.072629+01 | 1486361837.07263 | 3/1AAE3D8                |           12912878552

 2017-02-06 07:17:18.155228+01 | 1486361838.15523 | 3/1AAE3D8                |           12912878552

 2017-02-06 07:17:19.219714+01 | 1486361839.21971 | 3/1AAE3D8                |           12912878552

 2017-02-06 07:17:20.298541+01 | 1486361840.29854 | 3/1AAE3D8                |           12912878552

 2017-02-06 07:17:21.380637+01 | 1486361841.38064 | 3/1AAE3D8                |           12912878552

 2017-02-06 07:17:22.456401+01 | 1486361842.4564 | 3/1AAE3D8                |           12912878552

 2017-02-06 07:17:23.535304+01 | 1486361843.5353 | 3/1AAE3D8                |           12912878552

 2017-02-06 07:17:24.620308+01 | 1486361844.62031 | 3/1AAE3D8                |           12912878552

 2017-02-06 07:17:25.697116+01 | 1486361845.69712 | 3/1AAE3D8                |           12912878552

 2017-02-06 07:17:26.768669+01 | 1486361846.76867 | 3/1AAE3D8                |           12912878552

 2017-02-06 07:17:27.84626+01 | 1486361847.84626 | 3/1AAE3D8                |           12912878552

 2017-02-06 07:17:28.935534+01 | 1486361848.93553 | 3/1AAE3D8                |           12912878552

 2017-02-06 07:17:30.016487+01 | 1486361850.01649 | 3/1AAE3D8                |           12912878552

 2017-02-06 07:17:31.087726+01 | 1486361851.08773 | 3/1AAE3D8                |           12912878552

 2017-02-06 07:17:32.168334+01 | 1486361852.16833 | 3/1AAE3D8                |           12912878552

 2017-02-06 07:17:33.250295+01 | 1486361853.25029 | 3/1AAE3D8                |           12912878552

 2017-02-06 07:17:34.330746+01 | 1486361854.33075 | 3/1AAE3D8                |           12912878552

 2017-02-06 07:17:35.402881+01 | 1486361855.40288 | 3/1AAE3D8                |           12912878552

 2017-02-06 07:17:36.494145+01 | 1486361856.49414 | 3/1AAE3D8                |           12912878552

 2017-02-06 07:17:37.568893+01 | 1486361857.56889 | 3/1AAE3D8                |           12912878552

 2017-02-06 07:17:38.640383+01 | 1486361858.64038 | 3/1AAE3D8                |           12912878552

 2017-02-06 07:17:39.719724+01 | 1486361859.71972 | 3/1AAE3D8                |           12912878552

 2017-02-06 07:17:40.78997+01 | 1486361860.78997 | 3/1AAE3D8                |           12912878552

 2017-02-06 07:17:41.867238+01 | 1486361861.86724 | 3/1AAE3D8                |           12912878552

 2017-02-06 07:17:42.935941+01 | 1486361862.93594 | 3/1AAE3D8                |           12912878552

 2017-02-06 07:17:44.011479+01 | 1486361864.01148 | 3/1AAE3D8                |           12912878552

 2017-02-06 07:17:45.0889+01 | 1486361865.0889 | 3/1AAE3D8                |           12912878552

 2017-02-06 07:17:46.1678+01 | 1486361866.1678 | 3/1AAE3D8                |           12912878552

 2017-02-06 07:17:47.249285+01 | 1486361867.24928 | 3/1AAE3D8                |           12912878552

 2017-02-06 07:17:48.331687+01 | 1486361868.33169 | 3/1AAE3D8                |           12912878552

 2017-02-06 07:17:49.411386+01 | 1486361869.41139 | 3/1AAE3D8                |           12912878552

 2017-02-06 07:17:50.488625+01 | 1486361870.48863 | 3/1AAE3D8                |           12912878552

 2017-02-06 07:17:51.573786+01 | 1486361871.57379 | 3/1AAE3D8                |           12912878552

 2017-02-06 07:17:52.654573+01 | 1486361872.65457 | 3/1AAE3D8                |           12912878552

 2017-02-06 07:17:53.737327+01 | 1486361873.73733 | 3/1AAE3D8                |           12912878552

 2017-02-06 07:17:54.82198+01 | 1486361874.82198 | 3/1AAE3D8                |           12912878552

 2017-02-06 07:17:55.90479+01 | 1486361875.90479 | 3/1AAE3D8                |           12912878552

 2017-02-06 07:17:56.985289+01 | 1486361876.98529 | 3/1AAE3D8                |           12912878552

 2017-02-06 07:17:58.055682+01 | 1486361878.05568 | 3/1AAE3D8                |           12912878552

 2017-02-06 07:17:59.136405+01 | 1486361879.1364 | 3/1AAE3D8                |           12912878552

 2017-02-06 07:18:00.222178+01 | 1486361880.22218 | 3/1AAE3D8                |           12912878552

 2017-02-06 07:18:01.29888+01 | 1486361881.29888 | 3/1AAE3D8                |           12912878552

 2017-02-06 07:18:02.370225+01 | 1486361882.37022 | 3/1AAE3D8                |           12912878552

 2017-02-06 07:18:03.455027+01 | 1486361883.45503 | 3/1AAE3D8                |           12912878552

 2017-02-06 07:18:04.5394+01 | 1486361884.5394 | 3/1AAE3D8                |           12912878552

 2017-02-06 07:18:05.626548+01 | 1486361885.62655 | 3/1AAE3D8                |           12912878552

 2017-02-06 07:18:06.712586+01 | 1486361886.71259 | 3/1AAE3D8                |           12912878552

 2017-02-06 07:18:07.794789+01 | 1486361887.79479 | 3/1AAE3D8                |           12912878552

 2017-02-06 07:18:08.877001+01 | 1486361888.877 | 3/1AAE3D8                |           12912878552

 2017-02-06 07:18:09.954291+01 | 1486361889.95429 | 3/1AAE3D8                |           12912878552

 2017-02-06 07:18:11.038085+01 | 1486361891.03808 | 3/1AAE3D8                |           12912878552

 2017-02-06 07:18:12.11262+01 | 1486361892.11262 | 3/1AAE3D8                |           12912878552

 2017-02-06 07:18:13.194081+01 | 1486361893.19408 | 3/1AAE3D8                |           12912878552

 2017-02-06 07:18:14.270522+01 | 1486361894.27052 | 3/1AAE3D8                |           12912878552

 2017-02-06 07:18:15.34658+01 | 1486361895.34658 | 3/1AAE3D8                |           12912878552

 2017-02-06 07:18:16.421355+01 | 1486361896.42136 | 3/1AAE3D8                |           12912878552

 2017-02-06 07:18:17.49706+01 | 1486361897.49706 | 3/1AAE3D8                |           12912878552

 2017-02-06 07:18:18.573839+01 | 1486361898.57384 | 3/1AAE3D8                |           12912878552

 2017-02-06 07:18:19.646464+01 | 1486361899.64646 | 3/1AAE3D8                |           12912878552

 2017-02-06 07:18:20.713316+01 | 1486361900.71332 | 3/1AAE3D8                |           12912878552

 2017-02-06 07:18:21.783453+01 | 1486361901.78345 | 3/1AAE3D8                |           12912878552

 2017-02-06 07:18:22.86201+01 | 1486361902.86201 | 3/1AAE3D8                |           12912878552

 2017-02-06 07:18:23.943299+01 | 1486361903.9433 | 3/1AAE3D8                |           12912878552

 2017-02-06 07:18:25.018707+01 | 1486361905.01871 | 3/1AAE3D8                |           12912878552

 2017-02-06 07:18:26.087482+01 | 1486361906.08748 | 3/1AAE3D8                |           12912878552

 2017-02-06 07:18:27.171325+01 | 1486361907.17132 | 3/1AAE3D8                |           12912878552

 2017-02-06 07:18:28.239615+01 | 1486361908.23961 | 3/1AAE3D8                |           12912878552

 2017-02-06 07:18:29.324126+01 | 1486361909.32413 | 3/1AAE3D8                |           12912878552

 2017-02-06 07:18:30.400194+01 | 1486361910.40019 | 3/1AAE3D8                |           12912878552

 2017-02-06 07:18:31.477222+01 | 1486361911.47722 | 3/1AAE3D8                |           12912878552

 2017-02-06 07:18:32.556374+01 | 1486361912.55637 | 3/1AAE3D8                |           12912878552

 2017-02-06 07:18:33.637665+01 | 1486361913.63767 | 3/1AAE3D8                |           12912878552

 2017-02-06 07:18:34.713868+01 | 1486361914.71387 | 3/1AAE3D8                |           12912878552

 2017-02-06 07:18:35.793829+01 | 1486361915.79383 | 3/1AAE3D8                |           12912878552

 2017-02-06 07:18:36.876045+01 | 1486361916.87604 | 3/1AAE3D8                |           12912878552

 2017-02-06 07:18:37.961996+01 | 1486361917.962 | 3/1AAE3D8                |           12912878552

 2017-02-06 07:18:39.038208+01 | 1486361919.03821 | 3/1AAE3D8                |           12912878552

 2017-02-06 07:18:40.112946+01 | 1486361920.11295 | 3/1AAE3D8                |           12912878552

 2017-02-06 07:18:41.20265+01 | 1486361921.20265 | 3/1AAE3D8                |           12912878552

 2017-02-06 07:18:42.278241+01 | 1486361922.27824 | 3/1AAE3D8                |           12912878552

 2017-02-06 07:18:43.355241+01 | 1486361923.35524 | 3/1AAE3D8                |           12912878552

 2017-02-06 07:18:44.436234+01 | 1486361924.43623 | 3/1AAE3D8                |           12912878552

 2017-02-06 07:18:45.503671+01 | 1486361925.50367 | 3/1AAE3D8                |           12912878552

 2017-02-06 07:18:46.586693+01 | 1486361926.58669 | 3/1AAE3D8                |           12912878552

 2017-02-06 07:18:47.665725+01 | 1486361927.66572 | 3/1AAE3D8                |           12912878552

 2017-02-06 07:18:48.744171+01 | 1486361928.74417 | 3/1AAE3D8                |           12912878552

 2017-02-06 07:18:49.831554+01 | 1486361929.83155 | 3/1AAE3D8                |           12912878552

 2017-02-06 07:18:50.908916+01 | 1486361930.90892 | 3/1AAE3D8                |           12912878552

 2017-02-06 07:18:51.987946+01 | 1486361931.98795 | 3/1AAE3D8                |           12912878552

 2017-02-06 07:18:53.065096+01 | 1486361933.0651 | 3/1AAE3D8                |           12912878552

 2017-02-06 07:18:54.139904+01 | 1486361934.1399 | 3/1AAE3D8                |           12912878552

 2017-02-06 07:18:55.209929+01 | 1486361935.20993 | 3/1AAE3D8                |           12912878552

 2017-02-06 07:18:56.296489+01 | 1486361936.29649 | 3/1AAE3D8                |           12912878552

 2017-02-06 07:18:57.377068+01 | 1486361937.37707 | 3/1AAE3D8                |           12912878552

 2017-02-06 07:18:58.462612+01 | 1486361938.46261 | 3/1AAE3D8                |           12912878552

 2017-02-06 07:18:59.543159+01 | 1486361939.54316 | 3/1AAE3D8                |           12912878552

 2017-02-06 07:19:00.628033+01 | 1486361940.62803 | 3/1AAE3D8                |           12912878552

 2017-02-06 07:19:01.703527+01 | 1486361941.70353 | 3/1AAE3D8                |           12912878552

 2017-02-06 07:19:02.781013+01 | 1486361942.78101 | 3/1AAE3D8                |           12912878552

 2017-02-06 07:19:03.868046+01 | 1486361943.86805 | 3/1AAE3D8                |           12912878552

 2017-02-06 07:19:04.939523+01 | 1486361944.93952 | 3/1AAE3D8                |           12912878552

 2017-02-06 07:19:06.01707+01 | 1486361946.01707 | 3/1AAE3D8                |           12912878552

 2017-02-06 07:19:07.093861+01 | 1486361947.09386 | 3/1AAE3D8                |           12912878552

 2017-02-06 07:19:08.163288+01 | 1486361948.16329 | 3/1AAE3D8                |           12912878552

 2017-02-06 07:19:09.24007+01 | 1486361949.24007 | 3/1AAE3D8                |           12912878552

 2017-02-06 07:19:10.319554+01 | 1486361950.31955 | 3/1AAE3D8                |           12912878552

 2017-02-06 07:19:11.4003+01 | 1486361951.4003 | 3/1AAE3D8                |           12912878552

 2017-02-06 07:19:12.480379+01 | 1486361952.48038 | 3/1AAE3D8                |           12912878552

 2017-02-06 07:19:13.557291+01 | 1486361953.55729 | 3/1AAE3D8                |           12912878552

 2017-02-06 07:19:14.624701+01 | 1486361954.6247 | 3/1AAE3D8                |           12912878552

 2017-02-06 07:19:15.710686+01 | 1486361955.71069 | 3/1AAE3D8                |           12912878552

 2017-02-06 07:19:16.793927+01 | 1486361956.79393 | 3/1AAE3D8                |           12912878552

 2017-02-06 07:19:17.8702+01 | 1486361957.8702 | 3/1AAE3D8                |           12912878552

 2017-02-06 07:19:18.947759+01 | 1486361958.94776 | 3/1AAE3D8                |           12912878552

 2017-02-06 07:19:20.019856+01 | 1486361960.01986 | 3/1AAE3D8                |           12912878552

 2017-02-06 07:19:21.093605+01 | 1486361961.09361 | 3/1AAE3D8                |           12912878552

 2017-02-06 07:19:22.154544+01 | 1486361962.15454 | 3/1AAE3D8                |           12912878552

 2017-02-06 07:19:23.230197+01 | 1486361963.2302 | 3/1AAE3D8                |           12912878552

 2017-02-06 07:19:24.308052+01 | 1486361964.30805 | 3/1AAE3D8                |           12912878552

 2017-02-06 07:19:25.379106+01 | 1486361965.37911 | 3/1AAE3D8                |           12912878552

 2017-02-06 07:19:26.453466+01 | 1486361966.45347 | 3/1AAE3D8                |           12912878552

 2017-02-06 07:19:27.531035+01 | 1486361967.53103 | 3/1AAE3D8                |           12912878552

 2017-02-06 07:19:28.612228+01 | 1486361968.61223 | 3/1AAE3D8                |           12912878552

 2017-02-06 07:19:29.695685+01 | 1486361969.69568 | 3/1AAE3D8                |           12912878552

 2017-02-06 07:19:30.764439+01 | 1486361970.76444 | 3/1AAE3D8                |           12912878552

 2017-02-06 07:19:31.845928+01 | 1486361971.84593 | 3/1AAE3D8                |           12912878552

 2017-02-06 07:19:32.914473+01 | 1486361972.91447 | 3/1AAE3D8                |           12912878552

 2017-02-06 07:19:33.992973+01 | 1486361973.99297 | 3/1AAE3D8                |           12912878552

 2017-02-06 07:19:35.071319+01 | 1486361975.07132 | 3/1AAE3D8                |           12912878552

 2017-02-06 07:19:36.151851+01 | 1486361976.15185 | 3/1AAE3D8                |           12912878552

 2017-02-06 07:19:37.241945+01 | 1486361977.24195 | 3/1AAE3D8                |           12912878552

 2017-02-06 07:19:38.326423+01 | 1486361978.32642 | 3/1AAE3D8                |           12912878552

 2017-02-06 07:19:39.393352+01 | 1486361979.39335 | 3/1AAE3D8                |           12912878552

 2017-02-06 07:19:40.465299+01 | 1486361980.4653 | 3/1AAE3D8                |           12912878552

 2017-02-06 07:19:41.542168+01 | 1486361981.54217 | 3/1AAE3D8                |           12912878552

 2017-02-06 07:19:42.618069+01 | 1486361982.61807 | 3/1AAE3D8                |           12912878552

 2017-02-06 07:19:43.696016+01 | 1486361983.69602 | 3/1AAE3D8                |           12912878552

 2017-02-06 07:19:44.768438+01 | 1486361984.76844 | 3/1AAE3D8                |           12912878552

 2017-02-06 07:19:45.843366+01 | 1486361985.84337 | 3/1AAE3D8                |           12912878552

 2017-02-06 07:19:46.919911+01 | 1486361986.91991 | 3/1AAE3D8                |           12912878552

 2017-02-06 07:19:47.994805+01 | 1486361987.99481 | 3/1AAE3D8                |           12912878552

 2017-02-06 07:19:49.07659+01 | 1486361989.07659 | 3/1AAE3D8                |           12912878552

 2017-02-06 07:19:50.154957+01 | 1486361990.15496 | 3/1AAE3D8                |           12912878552

 2017-02-06 07:19:51.234454+01 | 1486361991.23445 | 3/1AAE3D8                |           12912878552

 2017-02-06 07:19:52.313467+01 | 1486361992.31347 | 3/1AAE3D8                |           12912878552

 2017-02-06 07:19:53.394079+01 | 1486361993.39408 | 3/1AAE3D8                |           12912878552

 2017-02-06 07:19:54.469519+01 | 1486361994.46952 | 3/1AAE3D8                |           12912878552

 2017-02-06 07:19:55.544523+01 | 1486361995.54452 | 3/1AAE3D8                |           12912878552

 2017-02-06 07:19:56.625466+01 | 1486361996.62547 | 3/1AAE3D8                |           12912878552

 2017-02-06 07:19:57.700869+01 | 1486361997.70087 | 3/1AAE3D8                |           12912878552

 2017-02-06 07:19:58.779672+01 | 1486361998.77967 | 3/1AAE3D8                |           12912878552

 2017-02-06 07:19:59.854041+01 | 1486361999.85404 | 3/1AAE3D8                |           12912878552

 2017-02-06 07:20:00.93679+01 | 1486362000.93679 | 3/1AAE3D8                |           12912878552

 2017-02-06 07:20:02.027273+01 | 1486362002.02727 | 3/1AAE3D8                |           12912878552

 2017-02-06 07:20:03.103822+01 | 1486362003.10382 | 3/1AAE3D8                |           12912878552

 2017-02-06 07:20:04.187456+01 | 1486362004.18746 | 3/1AAE3D8                |           12912878552

 2017-02-06 07:20:05.270967+01 | 1486362005.27097 | 3/1AAE3D8                |           12912878552

 2017-02-06 07:20:06.338789+01 | 1486362006.33879 | 3/1AAE3D8                |           12912878552

 2017-02-06 07:20:07.425803+01 | 1486362007.4258 | 3/1AAE3D8                |           12912878552

 2017-02-06 07:20:08.50691+01 | 1486362008.50691 | 3/1AAE3D8                |           12912878552

 2017-02-06 07:20:09.580027+01 | 1486362009.58003 | 3/1AAE3D8                |           12912878552

 2017-02-06 07:20:10.649648+01 | 1486362010.64965 | 3/1AAE3D8                |           12912878552

 2017-02-06 07:20:11.725053+01 | 1486362011.72505 | 3/1AAE3D8                |           12912878552

 2017-02-06 07:20:12.799488+01 | 1486362012.79949 | 3/1AAE3D8                |           12912878552

 2017-02-06 07:20:13.875284+01 | 1486362013.87528 | 3/1AAE3D8                |           12912878552

 2017-02-06 07:20:14.946457+01 | 1486362014.94646 | 3/1AAE3D8                |           12912878552

 2017-02-06 07:20:16.018487+01 | 1486362016.01849 | 3/1AAE3D8                |           12912878552

 2017-02-06 07:20:17.100147+01 | 1486362017.10015 | 3/1AAE3D8                |           12912878552

 2017-02-06 07:20:18.178854+01 | 1486362018.17885 | 3/1AAE3D8                |           12912878552

 2017-02-06 07:20:19.248667+01 | 1486362019.24867 | 3/1AAE3D8                |           12912878552

 2017-02-06 07:20:20.31935+01 | 1486362020.31935 | 3/1AAE3D8                |           12912878552

 2017-02-06 07:20:21.404057+01 | 1486362021.40406 | 3/1AAE3D8                |           12912878552

 2017-02-06 07:20:22.490395+01 | 1486362022.4904 | 3/1AAE3D8                |           12912878552

 2017-02-06 07:20:23.556912+01 | 1486362023.55691 | 3/1AAE3D8                |           12912878552

 2017-02-06 07:20:24.633886+01 | 1486362024.63389 | 3/1AAE3D8                |           12912878552

 2017-02-06 07:20:25.714129+01 | 1486362025.71413 | 3/1AAE3D8                |           12912878552

 2017-02-06 07:20:26.793484+01 | 1486362026.79348 | 3/1AAE3D8                |           12912878552

 2017-02-06 07:20:27.860181+01 | 1486362027.86018 | 3/1AAE3D8                |           12912878552

 2017-02-06 07:20:28.92737+01 | 1486362028.92737 | 3/1AAE3D8                |           12912878552

 2017-02-06 07:20:30.000563+01 | 1486362030.00056 | 3/1AAE3D8                |           12912878552

 2017-02-06 07:20:31.083576+01 | 1486362031.08358 | 3/1AAE3D8                |           12912878552

 2017-02-06 07:20:32.159036+01 | 1486362032.15904 | 3/1AAE3D8                |           12912878552

 2017-02-06 07:20:33.246215+01 | 1486362033.24622 | 3/1AAE3D8                |           12912878552

 2017-02-06 07:20:34.330454+01 | 1486362034.33045 | 3/1AAE3D8                |           12912878552

 2017-02-06 07:20:35.408446+01 | 1486362035.40845 | 3/1AAE3D8                |           12912878552

 2017-02-06 07:20:36.491985+01 | 1486362036.49199 | 3/1AAE3D8                |           12912878552

 2017-02-06 07:20:37.582986+01 | 1486362037.58299 | 3/1AAE3D8                |           12912878552

 2017-02-06 07:20:38.666977+01 | 1486362038.66698 | 3/1AAE3D8                |           12912878552

 2017-02-06 07:20:39.752331+01 | 1486362039.75233 | 3/1AAE3D8                |           12912878552

 2017-02-06 07:20:40.832518+01 | 1486362040.83252 | 3/1AAE3D8                |           12912878552

 2017-02-06 07:20:41.910538+01 | 1486362041.91054 | 3/1AAE3D8                |           12912878552

 2017-02-06 07:20:42.985822+01 | 1486362042.98582 | 3/1AAE3D8                |           12912878552

 2017-02-06 07:20:44.066598+01 | 1486362044.0666 | 3/1AAE3D8                |           12912878552

 2017-02-06 07:20:45.147118+01 | 1486362045.14712 | 3/1AAE3D8                |           12912878552

 2017-02-06 07:20:46.221538+01 | 1486362046.22154 | 3/1AAE3D8                |           12912878552

 2017-02-06 07:20:47.293695+01 | 1486362047.29369 | 3/1AAE3D8                |           12912878552

 2017-02-06 07:20:48.366694+01 | 1486362048.36669 | 3/1AAE3D8                |           12912878552

 2017-02-06 07:20:49.443715+01 | 1486362049.44372 | 3/1AAE3D8                |           12912878552

 2017-02-06 07:20:50.523271+01 | 1486362050.52327 | 3/1AAE3D8                |           12912878552

 2017-02-06 07:20:51.601541+01 | 1486362051.60154 | 3/1AAE3D8                |           12912878552

 2017-02-06 07:20:52.684972+01 | 1486362052.68497 | 3/1AAE3D8                |           12912878552

 2017-02-06 07:20:53.772282+01 | 1486362053.77228 | 3/1AAE3D8                |           12912878552

 2017-02-06 07:20:54.850146+01 | 1486362054.85015 | 3/1AAE3D8                |           12912878552

 2017-02-06 07:20:55.937893+01 | 1486362055.93789 | 3/1AAE3D8                |           12912878552

 2017-02-06 07:20:57.017711+01 | 1486362057.01771 | 3/1AAE3D8                |           12912878552

 2017-02-06 07:20:58.086781+01 | 1486362058.08678 | 3/1AAE3D8                |           12912878552

 2017-02-06 07:20:59.166656+01 | 1486362059.16666 | 3/1AAE3D8                |           12912878552

 2017-02-06 07:21:00.249251+01 | 1486362060.24925 | 3/1AAE3D8                |           12912878552

 2017-02-06 07:21:01.325253+01 | 1486362061.32525 | 3/1AAE3D8                |           12912878552

 2017-02-06 07:21:02.405189+01 | 1486362062.40519 | 3/1AAE3D8                |           12912878552

 2017-02-06 07:21:03.477532+01 | 1486362063.47753 | 3/1AAE3D8                |           12912878552

 2017-02-06 07:21:04.554115+01 | 1486362064.55412 | 3/1AAE3D8                |           12912878552

 2017-02-06 07:21:05.628207+01 | 1486362065.62821 | 3/1AAE3D8                |           12912878552

 2017-02-06 07:21:06.704094+01 | 1486362066.70409 | 3/1AAE3D8                |           12912878552

 2017-02-06 07:21:07.776478+01 | 1486362067.77648 | 3/1AAE3D8                |           12912878552

 2017-02-06 07:21:08.861618+01 | 1486362068.86162 | 3/1AAE3D8                |           12912878552

 2017-02-06 07:21:09.936849+01 | 1486362069.93685 | 3/1AAE3D8                |           12912878552

 2017-02-06 07:21:11.015061+01 | 1486362071.01506 | 3/1AAE3D8                |           12912878552

 2017-02-06 07:21:12.097499+01 | 1486362072.0975 | 3/1AAE3D8                |           12912878552

 2017-02-06 07:21:13.179339+01 | 1486362073.17934 | 3/1AAE3D8                |           12912878552

 2017-02-06 07:21:14.259828+01 | 1486362074.25983 | 3/1AAE3D8                |           12912878552

 2017-02-06 07:21:15.333293+01 | 1486362075.33329 | 3/1AAE3D8                |           12912878552

 2017-02-06 07:21:16.414505+01 | 1486362076.41451 | 3/1AAE3D8                |           12912878552

 2017-02-06 07:21:17.490931+01 | 1486362077.49093 | 3/1AAE3D8                |           12912878552

 2017-02-06 07:21:18.568953+01 | 1486362078.56895 | 3/1AAE3D8                |           12912878552

 2017-02-06 07:21:19.635481+01 | 1486362079.63548 | 3/1AAE3D8                |           12912878552

 2017-02-06 07:21:20.714474+01 | 1486362080.71447 | 3/1AAE3D8                |           12912878552

 2017-02-06 07:21:21.795753+01 | 1486362081.79575 | 3/1AAE3D8                |           12912878552

 2017-02-06 07:21:22.877+01 | 1486362082.877 | 3/1AAE3D8                |           12912878552

 2017-02-06 07:21:23.959503+01 | 1486362083.9595 | 3/1AAE3D8                |           12912878552

 2017-02-06 07:21:25.035127+01 | 1486362085.03513 | 3/1AAE3D8                |           12912878552

 2017-02-06 07:21:26.106097+01 | 1486362086.1061 | 3/1AAE3D8                |           12912878552

 2017-02-06 07:21:27.186645+01 | 1486362087.18665 | 3/1AAE3D8                |           12912878552

 2017-02-06 07:21:28.26765+01 | 1486362088.26765 | 3/1AAE3D8                |           12912878552

 2017-02-06 07:21:29.351237+01 | 1486362089.35124 | 3/1AAE3D8                |           12912878552

 2017-02-06 07:21:30.440991+01 | 1486362090.44099 | 3/1AAE3D8                |           12912878552

 2017-02-06 07:21:31.518125+01 | 1486362091.51813 | 3/1AAE3D8                |           12912878552

 2017-02-06 07:21:32.59173+01 | 1486362092.59173 | 3/1AAE3D8                |           12912878552

 2017-02-06 07:21:33.674335+01 | 1486362093.67434 | 3/1AAE3D8                |           12912878552

 2017-02-06 07:21:34.757665+01 | 1486362094.75766 | 3/1AAE3D8                |           12912878552

 2017-02-06 07:21:35.842559+01 | 1486362095.84256 | 3/1AAE3D8                |           12912878552

 2017-02-06 07:21:36.919384+01 | 1486362096.91938 | 3/1AAE3D8                |           12912878552

 2017-02-06 07:21:37.996616+01 | 1486362097.99662 | 3/1AAE3D8                |           12912878552

 2017-02-06 07:21:39.076007+01 | 1486362099.07601 | 3/1AAE3D8                |           12912878552

 2017-02-06 07:21:40.149201+01 | 1486362100.1492 | 3/1AAE3D8                |           12912878552

