 2017-02-06 10:23:01.951268+01 | 1486372981.95127 |                 0 |               9 |                 14581 |                  634 |            1690239 |             0 |                0 |          813702 |                     0 |        517659 | 2017-02-06 09:42:18.893067+01

 2017-02-06 10:23:03.03959+01 | 1486372983.03959 |                 0 |               9 |                 14581 |                  634 |            1690239 |             0 |                0 |          813702 |                     0 |        517812 | 2017-02-06 09:42:18.893067+01

 2017-02-06 10:23:04.115538+01 | 1486372984.11554 |                 0 |               9 |                 14581 |                  634 |            1690239 |             0 |                0 |          813702 |                     0 |        517859 | 2017-02-06 09:42:18.893067+01

 2017-02-06 10:23:05.184707+01 | 1486372985.18471 |                 0 |               9 |                 14581 |                  634 |            1690239 |             0 |                0 |          813702 |                     0 |        517955 | 2017-02-06 09:42:18.893067+01

 2017-02-06 10:23:06.254537+01 | 1486372986.25454 |                 0 |               9 |                 14581 |                  634 |            1690239 |             0 |                0 |          813702 |                     0 |        518038 | 2017-02-06 09:42:18.893067+01

 2017-02-06 10:23:07.323965+01 | 1486372987.32397 |                 0 |               9 |                 14581 |                  634 |            1690239 |             0 |                0 |          813702 |                     0 |        518111 | 2017-02-06 09:42:18.893067+01

 2017-02-06 10:23:08.402137+01 | 1486372988.40214 |                 0 |               9 |                 14581 |                  634 |            1690239 |             0 |                0 |          813702 |                     0 |        518164 | 2017-02-06 09:42:18.893067+01

 2017-02-06 10:23:09.478182+01 | 1486372989.47818 |                 0 |               9 |                 14581 |                  634 |            1690239 |             0 |                0 |          813702 |                     0 |        518265 | 2017-02-06 09:42:18.893067+01

 2017-02-06 10:23:10.551448+01 | 1486372990.55145 |                 0 |               9 |                 14581 |                  634 |            1690239 |             0 |                0 |          813702 |                     0 |        518330 | 2017-02-06 09:42:18.893067+01

 2017-02-06 10:23:11.634906+01 | 1486372991.63491 |                 0 |               9 |                 14581 |                  634 |            1690239 |             0 |                0 |          813702 |                     0 |        518422 | 2017-02-06 09:42:18.893067+01

 2017-02-06 10:23:12.718127+01 | 1486372992.71813 |                 0 |               9 |                 14581 |                  634 |            1690239 |             0 |                0 |          813702 |                     0 |        518501 | 2017-02-06 09:42:18.893067+01

 2017-02-06 10:23:13.793781+01 | 1486372993.79378 |                 0 |               9 |                 14581 |                  634 |            1690239 |             0 |                0 |          813702 |                     0 |        518571 | 2017-02-06 09:42:18.893067+01

 2017-02-06 10:23:14.864137+01 | 1486372994.86414 |                 0 |               9 |                 14581 |                  634 |            1690239 |             0 |                0 |          813702 |                     0 |        518646 | 2017-02-06 09:42:18.893067+01

 2017-02-06 10:23:15.932549+01 | 1486372995.93255 |                 0 |               9 |                 14581 |                  634 |            1690239 |             0 |                0 |          813702 |                     0 |        518713 | 2017-02-06 09:42:18.893067+01

 2017-02-06 10:23:17.002232+01 | 1486372997.00223 |                 0 |               9 |                 14581 |                  634 |            1690239 |             0 |                0 |          813702 |                     0 |        518785 | 2017-02-06 09:42:18.893067+01

 2017-02-06 10:23:18.072219+01 | 1486372998.07222 |                 0 |               9 |                 14581 |                  634 |            1690239 |             0 |                0 |          813702 |                     0 |        518899 | 2017-02-06 09:42:18.893067+01

 2017-02-06 10:23:19.158364+01 | 1486372999.15836 |                 0 |               9 |                 14581 |                  634 |            1690239 |             0 |                0 |          813702 |                     0 |        518967 | 2017-02-06 09:42:18.893067+01

 2017-02-06 10:23:20.231476+01 | 1486373000.23148 |                 0 |               9 |                 14581 |                  634 |            1690239 |             0 |                0 |          813702 |                     0 |        519015 | 2017-02-06 09:42:18.893067+01

 2017-02-06 10:23:21.305304+01 | 1486373001.3053 |                 0 |               9 |                 14581 |                  634 |            1690239 |             0 |                0 |          813702 |                     0 |        519116 | 2017-02-06 09:42:18.893067+01

 2017-02-06 10:23:22.387838+01 | 1486373002.38784 |                 0 |               9 |                 14581 |                  634 |            1690239 |             0 |                0 |          813702 |                     0 |        519161 | 2017-02-06 09:42:18.893067+01

 2017-02-06 10:23:23.456386+01 | 1486373003.45639 |                 0 |               9 |                 14581 |                  634 |            1690239 |             0 |                0 |          813702 |                     0 |        519253 | 2017-02-06 09:42:18.893067+01

 2017-02-06 10:23:24.533478+01 | 1486373004.53348 |                 0 |               9 |                 14581 |                  634 |            1690239 |             0 |                0 |          813702 |                     0 |        519317 | 2017-02-06 09:42:18.893067+01

 2017-02-06 10:23:25.603534+01 | 1486373005.60353 |                 0 |               9 |                 14581 |                  634 |            1690239 |             0 |                0 |          813702 |                     0 |        519389 | 2017-02-06 09:42:18.893067+01

 2017-02-06 10:23:26.670422+01 | 1486373006.67042 |                 0 |               9 |                 14581 |                  634 |            1690239 |             0 |                0 |          813702 |                     0 |        519458 | 2017-02-06 09:42:18.893067+01

 2017-02-06 10:23:27.752456+01 | 1486373007.75246 |                 0 |               9 |                 14581 |                  634 |            1690239 |             0 |                0 |          813702 |                     0 |        519538 | 2017-02-06 09:42:18.893067+01

 2017-02-06 10:23:28.831401+01 | 1486373008.8314 |                 0 |               9 |                 14581 |                  634 |            1690239 |             0 |                0 |          813702 |                     0 |        519608 | 2017-02-06 09:42:18.893067+01

 2017-02-06 10:23:29.910394+01 | 1486373009.91039 |                 0 |               9 |                 14581 |                  634 |            1690239 |             0 |                0 |          813702 |                     0 |        519688 | 2017-02-06 09:42:18.893067+01

 2017-02-06 10:23:30.984879+01 | 1486373010.98488 |                 0 |               9 |                 14581 |                  634 |            1690239 |             0 |                0 |          813702 |                     0 |        519757 | 2017-02-06 09:42:18.893067+01

 2017-02-06 10:23:32.060803+01 | 1486373012.0608 |                 0 |               9 |                 14581 |                  634 |            1690239 |             0 |                0 |          813702 |                     0 |        519828 | 2017-02-06 09:42:18.893067+01

 2017-02-06 10:23:33.146138+01 | 1486373013.14614 |                 0 |               9 |                 14581 |                  634 |            1690239 |             0 |                0 |          813702 |                     0 |        519909 | 2017-02-06 09:42:18.893067+01

 2017-02-06 10:23:34.21476+01 | 1486373014.21476 |                 0 |               9 |                 14581 |                  634 |            1690239 |             0 |                0 |          813702 |                     0 |        519964 | 2017-02-06 09:42:18.893067+01

 2017-02-06 10:23:35.288031+01 | 1486373015.28803 |                 0 |               9 |                 14581 |                  634 |            1690239 |             0 |                0 |          813702 |                     0 |        520052 | 2017-02-06 09:42:18.893067+01

 2017-02-06 10:23:36.358022+01 | 1486373016.35802 |                 0 |               9 |                 14581 |                  634 |            1690239 |             0 |                0 |          813702 |                     0 |        520121 | 2017-02-06 09:42:18.893067+01

 2017-02-06 10:23:37.438755+01 | 1486373017.43876 |                 0 |               9 |                 14581 |                  634 |            1690239 |             0 |                0 |          813702 |                     0 |        520211 | 2017-02-06 09:42:18.893067+01

 2017-02-06 10:23:38.525822+01 | 1486373018.52582 |                 0 |               9 |                 14581 |                  634 |            1690239 |             0 |                0 |          813702 |                     0 |        520264 | 2017-02-06 09:42:18.893067+01

 2017-02-06 10:23:39.599799+01 | 1486373019.5998 |                 0 |               9 |                 14581 |                  634 |            1690239 |             0 |                0 |          813702 |                     0 |        520372 | 2017-02-06 09:42:18.893067+01

 2017-02-06 10:23:40.689034+01 | 1486373020.68903 |                 0 |               9 |                 14581 |                  634 |            1690239 |             0 |                0 |          813702 |                     0 |        520386 | 2017-02-06 09:42:18.893067+01

 2017-02-06 10:23:41.763694+01 | 1486373021.76369 |                 0 |               9 |                 14581 |                  634 |            1690239 |             0 |                0 |          813702 |                     0 |        520509 | 2017-02-06 09:42:18.893067+01

 2017-02-06 10:23:42.848539+01 | 1486373022.84854 |                 0 |               9 |                 14581 |                  634 |            1690239 |             0 |                0 |          813702 |                     0 |        520580 | 2017-02-06 09:42:18.893067+01

 2017-02-06 10:23:43.938629+01 | 1486373023.93863 |                 0 |               9 |                 14581 |                  634 |            1690239 |             0 |                0 |          813702 |                     0 |        520641 | 2017-02-06 09:42:18.893067+01

 2017-02-06 10:23:45.027352+01 | 1486373025.02735 |                 0 |               9 |                 14581 |                  634 |            1690239 |             0 |                0 |          813702 |                     0 |        520713 | 2017-02-06 09:42:18.893067+01

 2017-02-06 10:23:46.105515+01 | 1486373026.10552 |                 0 |               9 |                 14581 |                  634 |            1690239 |             0 |                0 |          813702 |                     0 |        520799 | 2017-02-06 09:42:18.893067+01

 2017-02-06 10:23:47.184935+01 | 1486373027.18494 |                 0 |               9 |                 14581 |                  634 |            1690239 |             0 |                0 |          813702 |                     0 |        520875 | 2017-02-06 09:42:18.893067+01

 2017-02-06 10:23:48.250897+01 | 1486373028.2509 |                 0 |               9 |                 14581 |                  634 |            1690239 |             0 |                0 |          813702 |                     0 |        520945 | 2017-02-06 09:42:18.893067+01

 2017-02-06 10:23:49.336466+01 | 1486373029.33647 |                 0 |               9 |                 14581 |                  634 |            1690239 |             0 |                0 |          813702 |                     0 |        521024 | 2017-02-06 09:42:18.893067+01

 2017-02-06 10:23:50.404248+01 | 1486373030.40425 |                 0 |               9 |                 14581 |                  634 |            1690239 |             0 |                0 |          813702 |                     0 |        521070 | 2017-02-06 09:42:18.893067+01

 2017-02-06 10:23:51.47823+01 | 1486373031.47823 |                 0 |               9 |                 14581 |                  634 |            1690239 |             0 |                0 |          813702 |                     0 |        521168 | 2017-02-06 09:42:18.893067+01

 2017-02-06 10:23:52.560215+01 | 1486373032.56021 |                 0 |               9 |                 14581 |                  634 |            1690239 |             0 |                0 |          813702 |                     0 |        521234 | 2017-02-06 09:42:18.893067+01

 2017-02-06 10:23:53.64764+01 | 1486373033.64764 |                 0 |               9 |                 14581 |                  634 |            1690239 |             0 |                0 |          813702 |                     0 |        521303 | 2017-02-06 09:42:18.893067+01

 2017-02-06 10:23:54.72327+01 | 1486373034.72327 |                 0 |               9 |                 14581 |                  634 |            1690239 |             0 |                0 |          813702 |                     0 |        521382 | 2017-02-06 09:42:18.893067+01

 2017-02-06 10:23:55.806961+01 | 1486373035.80696 |                 0 |               9 |                 14581 |                  634 |            1690239 |             0 |                0 |          813702 |                     0 |        521452 | 2017-02-06 09:42:18.893067+01

 2017-02-06 10:23:56.893056+01 | 1486373036.89306 |                 0 |               9 |                 14581 |                  634 |            1690239 |             0 |                0 |          813702 |                     0 |        521535 | 2017-02-06 09:42:18.893067+01

 2017-02-06 10:23:57.955068+01 | 1486373037.95507 |                 0 |               9 |                 14581 |                  634 |            1690239 |             0 |                0 |          813702 |                     0 |        521606 | 2017-02-06 09:42:18.893067+01

 2017-02-06 10:23:59.030539+01 | 1486373039.03054 |                 0 |               9 |                 14581 |                  634 |            1690239 |             0 |                0 |          813702 |                     0 |        521673 | 2017-02-06 09:42:18.893067+01

 2017-02-06 10:24:00.111158+01 | 1486373040.11116 |                 0 |               9 |                 14581 |                  634 |            1690239 |             0 |                0 |          813702 |                     0 |        521753 | 2017-02-06 09:42:18.893067+01

 2017-02-06 10:24:01.18244+01 | 1486373041.18244 |                 0 |               9 |                 14581 |                  634 |            1690239 |             0 |                0 |          813702 |                     0 |        521822 | 2017-02-06 09:42:18.893067+01

 2017-02-06 10:24:02.262468+01 | 1486373042.26247 |                 0 |               9 |                 14581 |                  634 |            1690239 |             0 |                0 |          813702 |                     0 |        521876 | 2017-02-06 09:42:18.893067+01

 2017-02-06 10:24:03.353084+01 | 1486373043.35308 |                 0 |               9 |                 14581 |                  634 |            1690239 |             0 |                0 |          813702 |                     0 |        522024 | 2017-02-06 09:42:18.893067+01

 2017-02-06 10:24:04.43292+01 | 1486373044.43292 |                 0 |               9 |                 14581 |                  634 |            1690239 |             0 |                0 |          813702 |                     0 |        522070 | 2017-02-06 09:42:18.893067+01

 2017-02-06 10:24:05.50046+01 | 1486373045.50046 |                 0 |               9 |                 14581 |                  634 |            1690239 |             0 |                0 |          813702 |                     0 |        522143 | 2017-02-06 09:42:18.893067+01

 2017-02-06 10:24:06.570465+01 | 1486373046.57047 |                 0 |               9 |                 14581 |                  634 |            1690239 |             0 |                0 |          813702 |                     0 |        522206 | 2017-02-06 09:42:18.893067+01

 2017-02-06 10:24:07.634514+01 | 1486373047.63451 |                 0 |               9 |                 14581 |                  634 |            1690239 |             0 |                0 |          813702 |                     0 |        522250 | 2017-02-06 09:42:18.893067+01

 2017-02-06 10:24:08.703366+01 | 1486373048.70337 |                 0 |               9 |                 14581 |                  634 |            1690239 |             0 |                0 |          813702 |                     0 |        522346 | 2017-02-06 09:42:18.893067+01

 2017-02-06 10:24:09.783239+01 | 1486373049.78324 |                 0 |               9 |                 14581 |                  634 |            1690239 |             0 |                0 |          813702 |                     0 |        522420 | 2017-02-06 09:42:18.893067+01

 2017-02-06 10:24:10.851264+01 | 1486373050.85126 |                 0 |               9 |                 14581 |                  634 |            1690239 |             0 |                0 |          813702 |                     0 |        522484 | 2017-02-06 09:42:18.893067+01

 2017-02-06 10:24:11.918238+01 | 1486373051.91824 |                 0 |               9 |                 14581 |                  634 |            1690239 |             0 |                0 |          813702 |                     0 |        522561 | 2017-02-06 09:42:18.893067+01

 2017-02-06 10:24:12.989574+01 | 1486373052.98957 |                 0 |               9 |                 14581 |                  634 |            1690239 |             0 |                0 |          813702 |                     0 |        522652 | 2017-02-06 09:42:18.893067+01

 2017-02-06 10:24:14.062962+01 | 1486373054.06296 |                 0 |               9 |                 14581 |                  634 |            1690239 |             0 |                0 |          813702 |                     0 |        522744 | 2017-02-06 09:42:18.893067+01

 2017-02-06 10:24:15.153185+01 | 1486373055.15318 |                 0 |               9 |                 14581 |                  634 |            1690239 |             0 |                0 |          813702 |                     0 |        522812 | 2017-02-06 09:42:18.893067+01

 2017-02-06 10:24:16.227806+01 | 1486373056.22781 |                 0 |               9 |                 14581 |                  634 |            1690239 |             0 |                0 |          813702 |                     0 |        522859 | 2017-02-06 09:42:18.893067+01

 2017-02-06 10:24:17.292671+01 | 1486373057.29267 |                 0 |               9 |                 14581 |                  634 |            1690239 |             0 |                0 |          813702 |                     0 |        522937 | 2017-02-06 09:42:18.893067+01

 2017-02-06 10:24:18.370278+01 | 1486373058.37028 |                 0 |               9 |                 14581 |                  634 |            1690239 |             0 |                0 |          813702 |                     0 |        523013 | 2017-02-06 09:42:18.893067+01

 2017-02-06 10:24:19.452756+01 | 1486373059.45276 |                 0 |               9 |                 14581 |                  634 |            1690239 |             0 |                0 |          813702 |                     0 |        523079 | 2017-02-06 09:42:18.893067+01

 2017-02-06 10:24:20.540292+01 | 1486373060.54029 |                 0 |               9 |                 14581 |                  634 |            1690239 |             0 |                0 |          813702 |                     0 |        523147 | 2017-02-06 09:42:18.893067+01

 2017-02-06 10:24:21.623566+01 | 1486373061.62357 |                 0 |               9 |                 14581 |                  634 |            1690239 |             0 |                0 |          813702 |                     0 |        523233 | 2017-02-06 09:42:18.893067+01

 2017-02-06 10:24:22.713673+01 | 1486373062.71367 |                 0 |               9 |                 14581 |                  634 |            1690239 |             0 |                0 |          813702 |                     0 |        523310 | 2017-02-06 09:42:18.893067+01

 2017-02-06 10:24:23.791129+01 | 1486373063.79113 |                 0 |               9 |                 14581 |                  634 |            1690239 |             0 |                0 |          813702 |                     0 |        523385 | 2017-02-06 09:42:18.893067+01

 2017-02-06 10:24:24.866933+01 | 1486373064.86693 |                 0 |               9 |                 14581 |                  634 |            1690239 |             0 |                0 |          813702 |                     0 |        523453 | 2017-02-06 09:42:18.893067+01

 2017-02-06 10:24:25.958953+01 | 1486373065.95895 |                 0 |               9 |                 14581 |                  634 |            1690239 |             0 |                0 |          813702 |                     0 |        523520 | 2017-02-06 09:42:18.893067+01

 2017-02-06 10:24:27.036262+01 | 1486373067.03626 |                 0 |               9 |                 14581 |                  634 |            1690239 |             0 |                0 |          813702 |                     0 |        523612 | 2017-02-06 09:42:18.893067+01

 2017-02-06 10:24:28.110352+01 | 1486373068.11035 |                 0 |               9 |                 14581 |                  634 |            1690239 |             0 |                0 |          813702 |                     0 |        523679 | 2017-02-06 09:42:18.893067+01

 2017-02-06 10:24:29.18933+01 | 1486373069.18933 |                 0 |               9 |                 14581 |                  634 |            1690239 |             0 |                0 |          813702 |                     0 |        523754 | 2017-02-06 09:42:18.893067+01

 2017-02-06 10:24:30.275625+01 | 1486373070.27562 |                 0 |               9 |                 14581 |                  634 |            1690239 |             0 |                0 |          813702 |                     0 |        523849 | 2017-02-06 09:42:18.893067+01

 2017-02-06 10:24:31.348014+01 | 1486373071.34801 |                 0 |               9 |                 14581 |                  634 |            1690239 |             0 |                0 |          813702 |                     0 |        523900 | 2017-02-06 09:42:18.893067+01

 2017-02-06 10:24:32.434355+01 | 1486373072.43436 |                 0 |               9 |                 14581 |                  634 |            1690239 |             0 |                0 |          813702 |                     0 |        523945 | 2017-02-06 09:42:18.893067+01

 2017-02-06 10:24:33.509895+01 | 1486373073.5099 |                 0 |               9 |                 14581 |                  634 |            1690239 |             0 |                0 |          813702 |                     0 |        524067 | 2017-02-06 09:42:18.893067+01

 2017-02-06 10:24:34.586337+01 | 1486373074.58634 |                 0 |               9 |                 14581 |                  634 |            1690239 |             0 |                0 |          813702 |                     0 |        524111 | 2017-02-06 09:42:18.893067+01

 2017-02-06 10:24:35.671093+01 | 1486373075.67109 |                 0 |               9 |                 14581 |                  634 |            1690239 |             0 |                0 |          813702 |                     0 |        524188 | 2017-02-06 09:42:18.893067+01

 2017-02-06 10:24:36.744127+01 | 1486373076.74413 |                 0 |               9 |                 14581 |                  634 |            1690239 |             0 |                0 |          813702 |                     0 |        524257 | 2017-02-06 09:42:18.893067+01

 2017-02-06 10:24:37.824905+01 | 1486373077.8249 |                 0 |               9 |                 14581 |                  634 |            1690239 |             0 |                0 |          813702 |                     0 |        524335 | 2017-02-06 09:42:18.893067+01

 2017-02-06 10:24:38.906509+01 | 1486373078.90651 |                 0 |               9 |                 14581 |                  634 |            1690239 |             0 |                0 |          813702 |                     0 |        524399 | 2017-02-06 09:42:18.893067+01

 2017-02-06 10:24:39.98687+01 | 1486373079.98687 |                 0 |               9 |                 14581 |                  634 |            1690239 |             0 |                0 |          813702 |                     0 |        524471 | 2017-02-06 09:42:18.893067+01

 2017-02-06 10:24:41.066904+01 | 1486373081.0669 |                 0 |               9 |                 14581 |                  634 |            1690239 |             0 |                0 |          813702 |                     0 |        524579 | 2017-02-06 09:42:18.893067+01

 2017-02-06 10:24:42.155894+01 | 1486373082.15589 |                 0 |               9 |                 14581 |                  634 |            1690239 |             0 |                0 |          813702 |                     0 |        524647 | 2017-02-06 09:42:18.893067+01

 2017-02-06 10:24:43.227509+01 | 1486373083.22751 |                 0 |               9 |                 14581 |                  634 |            1690239 |             0 |                0 |          813702 |                     0 |        524679 | 2017-02-06 09:42:18.893067+01

 2017-02-06 10:24:44.29725+01 | 1486373084.29725 |                 0 |               9 |                 14581 |                  634 |            1690239 |             0 |                0 |          813702 |                     0 |        524762 | 2017-02-06 09:42:18.893067+01

 2017-02-06 10:24:45.37286+01 | 1486373085.37286 |                 0 |               9 |                 14581 |                  634 |            1690239 |             0 |                0 |          813702 |                     0 |        524815 | 2017-02-06 09:42:18.893067+01

 2017-02-06 10:24:46.450617+01 | 1486373086.45062 |                 0 |               9 |                 14581 |                  634 |            1690239 |             0 |                0 |          813702 |                     0 |        524874 | 2017-02-06 09:42:18.893067+01

 2017-02-06 10:24:47.534961+01 | 1486373087.53496 |                 0 |               9 |                 14581 |                  634 |            1690239 |             0 |                0 |          813702 |                     0 |        524951 | 2017-02-06 09:42:18.893067+01

 2017-02-06 10:24:48.601971+01 | 1486373088.60197 |                 0 |               9 |                 14581 |                  634 |            1690239 |             0 |                0 |          813702 |                     0 |        525015 | 2017-02-06 09:42:18.893067+01

 2017-02-06 10:24:49.689648+01 | 1486373089.68965 |                 0 |               9 |                 14581 |                  634 |            1690239 |             0 |                0 |          813702 |                     0 |        525071 | 2017-02-06 09:42:18.893067+01

 2017-02-06 10:24:50.773067+01 | 1486373090.77307 |                 0 |               9 |                 14581 |                  634 |            1690239 |             0 |                0 |          813702 |                     0 |        525149 | 2017-02-06 09:42:18.893067+01

 2017-02-06 10:24:51.856646+01 | 1486373091.85665 |                 0 |               9 |                 14581 |                  634 |            1690239 |             0 |                0 |          813702 |                     0 |        525218 | 2017-02-06 09:42:18.893067+01

 2017-02-06 10:24:52.934925+01 | 1486373092.93493 |                 0 |               9 |                 14581 |                  634 |            1690239 |             0 |                0 |          813702 |                     0 |        525302 | 2017-02-06 09:42:18.893067+01

 2017-02-06 10:24:54.015097+01 | 1486373094.0151 |                 0 |               9 |                 14581 |                  634 |            1690239 |             0 |                0 |          813702 |                     0 |        525372 | 2017-02-06 09:42:18.893067+01

 2017-02-06 10:24:55.097087+01 | 1486373095.09709 |                 0 |               9 |                 14581 |                  634 |            1690239 |             0 |                0 |          813702 |                     0 |        525445 | 2017-02-06 09:42:18.893067+01

 2017-02-06 10:24:56.17765+01 | 1486373096.17765 |                 0 |               9 |                 14581 |                  634 |            1690239 |             0 |                0 |          813702 |                     0 |        525527 | 2017-02-06 09:42:18.893067+01

 2017-02-06 10:24:57.250884+01 | 1486373097.25088 |                 0 |               9 |                 14581 |                  634 |            1690239 |             0 |                0 |          813702 |                     0 |        525595 | 2017-02-06 09:42:18.893067+01

 2017-02-06 10:24:58.329354+01 | 1486373098.32935 |                 0 |               9 |                 14581 |                  634 |            1690239 |             0 |                0 |          813702 |                     0 |        525677 | 2017-02-06 09:42:18.893067+01

 2017-02-06 10:24:59.405755+01 | 1486373099.40576 |                 0 |               9 |                 14581 |                  634 |            1690239 |             0 |                0 |          813702 |                     0 |        525746 | 2017-02-06 09:42:18.893067+01

 2017-02-06 10:25:00.478385+01 | 1486373100.47838 |                 0 |               9 |                 14581 |                  634 |            1690239 |             0 |                0 |          813702 |                     0 |        525820 | 2017-02-06 09:42:18.893067+01

 2017-02-06 10:25:01.561408+01 | 1486373101.56141 |                 0 |               9 |                 14581 |                  634 |            1690239 |             0 |                0 |          813702 |                     0 |        525886 | 2017-02-06 09:42:18.893067+01

 2017-02-06 10:25:02.635431+01 | 1486373102.63543 |                 0 |               9 |                 14581 |                  634 |            1690239 |             0 |                0 |          813702 |                     0 |        526002 | 2017-02-06 09:42:18.893067+01

 2017-02-06 10:25:03.719337+01 | 1486373103.71934 |                 0 |               9 |                 14581 |                  634 |            1690239 |             0 |                0 |          813702 |                     0 |        526002 | 2017-02-06 09:42:18.893067+01

 2017-02-06 10:25:04.797603+01 | 1486373104.7976 |                 0 |               9 |                 14581 |                  634 |            1690239 |             0 |                0 |          813702 |                     0 |        526133 | 2017-02-06 09:42:18.893067+01

 2017-02-06 10:25:05.864011+01 | 1486373105.86401 |                 0 |               9 |                 14581 |                  634 |            1690239 |             0 |                0 |          813702 |                     0 |        526204 | 2017-02-06 09:42:18.893067+01

 2017-02-06 10:25:06.932583+01 | 1486373106.93258 |                 0 |               9 |                 14581 |                  634 |            1690239 |             0 |                0 |          813702 |                     0 |        526272 | 2017-02-06 09:42:18.893067+01

 2017-02-06 10:25:08.013626+01 | 1486373108.01363 |                 0 |               9 |                 14581 |                  634 |            1690239 |             0 |                0 |          813702 |                     0 |        526355 | 2017-02-06 09:42:18.893067+01

 2017-02-06 10:25:09.101348+01 | 1486373109.10135 |                 0 |               9 |                 14581 |                  634 |            1690239 |             0 |                0 |          813702 |                     0 |        526425 | 2017-02-06 09:42:18.893067+01

 2017-02-06 10:25:10.176051+01 | 1486373110.17605 |                 0 |               9 |                 14581 |                  634 |            1690239 |             0 |                0 |          813702 |                     0 |        526509 | 2017-02-06 09:42:18.893067+01

 2017-02-06 10:25:11.257579+01 | 1486373111.25758 |                 0 |               9 |                 14581 |                  634 |            1690239 |             0 |                0 |          813702 |                     0 |        526600 | 2017-02-06 09:42:18.893067+01

 2017-02-06 10:25:12.324407+01 | 1486373112.32441 |                 0 |               9 |                 14581 |                  634 |            1690239 |             0 |                0 |          813702 |                     0 |        526647 | 2017-02-06 09:42:18.893067+01

 2017-02-06 10:25:13.403238+01 | 1486373113.40324 |                 0 |               9 |                 14581 |                  634 |            1690239 |             0 |                0 |          813702 |                     0 |        526822 | 2017-02-06 09:42:18.893067+01

 2017-02-06 10:25:14.472253+01 | 1486373114.47225 |                 0 |               9 |                 14581 |                  634 |            1690239 |             0 |                0 |          813702 |                     0 |        526822 | 2017-02-06 09:42:18.893067+01

 2017-02-06 10:25:15.551311+01 | 1486373115.55131 |                 0 |               9 |                 14581 |                  634 |            1690239 |             0 |                0 |          813702 |                     0 |        526886 | 2017-02-06 09:42:18.893067+01

 2017-02-06 10:25:16.623702+01 | 1486373116.6237 |                 0 |               9 |                 14581 |                  634 |            1690239 |             0 |                0 |          813702 |                     0 |        526963 | 2017-02-06 09:42:18.893067+01

 2017-02-06 10:25:17.69444+01 | 1486373117.69444 |                 0 |               9 |                 14581 |                  634 |            1690239 |             0 |                0 |          813702 |                     0 |        527042 | 2017-02-06 09:42:18.893067+01

 2017-02-06 10:25:18.769711+01 | 1486373118.76971 |                 0 |               9 |                 14581 |                  634 |            1690239 |             0 |                0 |          813702 |                     0 |        527085 | 2017-02-06 09:42:18.893067+01

 2017-02-06 10:25:19.847627+01 | 1486373119.84763 |                 0 |               9 |                 14581 |                  634 |            1690239 |             0 |                0 |          813702 |                     0 |        527155 | 2017-02-06 09:42:18.893067+01

 2017-02-06 10:25:20.930512+01 | 1486373120.93051 |                 0 |               9 |                 14581 |                  634 |            1690239 |             0 |                0 |          813702 |                     0 |        527251 | 2017-02-06 09:42:18.893067+01

 2017-02-06 10:25:22.015815+01 | 1486373122.01582 |                 0 |               9 |                 14581 |                  634 |            1690239 |             0 |                0 |          813702 |                     0 |        527343 | 2017-02-06 09:42:18.893067+01

 2017-02-06 10:25:23.097116+01 | 1486373123.09712 |                 0 |               9 |                 14581 |                  634 |            1690239 |             0 |                0 |          813702 |                     0 |        527414 | 2017-02-06 09:42:18.893067+01

 2017-02-06 10:25:24.182375+01 | 1486373124.18237 |                 0 |               9 |                 14581 |                  634 |            1690239 |             0 |                0 |          813702 |                     0 |        527528 | 2017-02-06 09:42:18.893067+01

 2017-02-06 10:25:25.256617+01 | 1486373125.25662 |                 0 |               9 |                 14581 |                  634 |            1690239 |             0 |                0 |          813702 |                     0 |        527560 | 2017-02-06 09:42:18.893067+01

 2017-02-06 10:25:26.338728+01 | 1486373126.33873 |                 0 |               9 |                 14581 |                  634 |            1690239 |             0 |                0 |          813702 |                     0 |        527629 | 2017-02-06 09:42:18.893067+01

 2017-02-06 10:25:27.428548+01 | 1486373127.42855 |                 0 |               9 |                 14581 |                  634 |            1690239 |             0 |                0 |          813702 |                     0 |        527698 | 2017-02-06 09:42:18.893067+01

 2017-02-06 10:25:28.512386+01 | 1486373128.51239 |                 0 |               9 |                 14581 |                  634 |            1690239 |             0 |                0 |          813702 |                     0 |        527786 | 2017-02-06 09:42:18.893067+01

 2017-02-06 10:25:29.5848+01 | 1486373129.5848 |                 0 |               9 |                 14581 |                  634 |            1690239 |             0 |                0 |          813702 |                     0 |        527850 | 2017-02-06 09:42:18.893067+01

 2017-02-06 10:25:30.662397+01 | 1486373130.6624 |                 0 |               9 |                 14581 |                  634 |            1690239 |             0 |                0 |          813702 |                     0 |        527934 | 2017-02-06 09:42:18.893067+01

 2017-02-06 10:25:31.746911+01 | 1486373131.74691 |                 0 |               9 |                 14581 |                  634 |            1690239 |             0 |                0 |          813702 |                     0 |        528002 | 2017-02-06 09:42:18.893067+01

 2017-02-06 10:25:32.821319+01 | 1486373132.82132 |                 0 |               9 |                 14581 |                  634 |            1690239 |             0 |                0 |          813702 |                     0 |        528072 | 2017-02-06 09:42:18.893067+01

 2017-02-06 10:25:33.907629+01 | 1486373133.90763 |                 0 |               9 |                 14581 |                  634 |            1690239 |             0 |                0 |          813702 |                     0 |        528219 | 2017-02-06 09:42:18.893067+01

 2017-02-06 10:25:34.980727+01 | 1486373134.98073 |                 0 |               9 |                 14581 |                  634 |            1690239 |             0 |                0 |          813702 |                     0 |        528220 | 2017-02-06 09:42:18.893067+01

 2017-02-06 10:25:36.074+01 | 1486373136.074 |                 0 |               9 |                 14581 |                  634 |            1690239 |             0 |                0 |          813702 |                     0 |        528312 | 2017-02-06 09:42:18.893067+01

 2017-02-06 10:25:37.167105+01 | 1486373137.1671 |                 0 |               9 |                 14581 |                  634 |            1690239 |             0 |                0 |          813702 |                     0 |        528376 | 2017-02-06 09:42:18.893067+01

 2017-02-06 10:25:38.260713+01 | 1486373138.26071 |                 0 |               9 |                 14581 |                  634 |            1690239 |             0 |                0 |          813702 |                     0 |        528448 | 2017-02-06 09:42:18.893067+01

 2017-02-06 10:25:39.33913+01 | 1486373139.33913 |                 0 |               9 |                 14581 |                  634 |            1690239 |             0 |                0 |          813702 |                     0 |        528530 | 2017-02-06 09:42:18.893067+01

 2017-02-06 10:25:40.419376+01 | 1486373140.41938 |                 0 |               9 |                 14581 |                  634 |            1690239 |             0 |                0 |          813702 |                     0 |        528599 | 2017-02-06 09:42:18.893067+01

 2017-02-06 10:25:41.497304+01 | 1486373141.4973 |                 0 |               9 |                 14581 |                  634 |            1690239 |             0 |                0 |          813702 |                     0 |        528680 | 2017-02-06 09:42:18.893067+01

 2017-02-06 10:25:42.588568+01 | 1486373142.58857 |                 0 |               9 |                 14581 |                  634 |            1690239 |             0 |                0 |          813702 |                     0 |        528746 | 2017-02-06 09:42:18.893067+01

 2017-02-06 10:25:43.676448+01 | 1486373143.67645 |                 0 |               9 |                 14581 |                  634 |            1690239 |             0 |                0 |          813702 |                     0 |        528827 | 2017-02-06 09:42:18.893067+01

 2017-02-06 10:25:44.750348+01 | 1486373144.75035 |                 0 |               9 |                 14581 |                  634 |            1690239 |             0 |                0 |          813702 |                     0 |        528898 | 2017-02-06 09:42:18.893067+01

 2017-02-06 10:25:45.819776+01 | 1486373145.81978 |                 0 |               9 |                 14581 |                  634 |            1690239 |             0 |                0 |          813702 |                     0 |        528970 | 2017-02-06 09:42:18.893067+01

 2017-02-06 10:25:46.897345+01 | 1486373146.89735 |                 0 |               9 |                 14581 |                  634 |            1690239 |             0 |                0 |          813702 |                     0 |        529046 | 2017-02-06 09:42:18.893067+01

 2017-02-06 10:25:47.975434+01 | 1486373147.97543 |                 0 |               9 |                 14581 |                  634 |            1690239 |             0 |                0 |          813702 |                     0 |        529114 | 2017-02-06 09:42:18.893067+01

 2017-02-06 10:25:49.051731+01 | 1486373149.05173 |                 0 |               9 |                 14581 |                  634 |            1690239 |             0 |                0 |          813702 |                     0 |        529270 | 2017-02-06 09:42:18.893067+01

 2017-02-06 10:25:50.125405+01 | 1486373150.12541 |                 0 |               9 |                 14581 |                  634 |            1690239 |             0 |                0 |          813702 |                     0 |        529271 | 2017-02-06 09:42:18.893067+01

 2017-02-06 10:25:51.202325+01 | 1486373151.20233 |                 0 |               9 |                 14581 |                  634 |            1690239 |             0 |                0 |          813702 |                     0 |        529338 | 2017-02-06 09:42:18.893067+01

 2017-02-06 10:25:52.275448+01 | 1486373152.27545 |                 0 |               9 |                 14581 |                  634 |            1690239 |             0 |                0 |          813702 |                     0 |        529408 | 2017-02-06 09:42:18.893067+01

 2017-02-06 10:25:53.358421+01 | 1486373153.35842 |                 0 |               9 |                 14581 |                  634 |            1690239 |             0 |                0 |          813702 |                     0 |        529455 | 2017-02-06 09:42:18.893067+01

 2017-02-06 10:25:54.442425+01 | 1486373154.44243 |                 0 |               9 |                 14581 |                  634 |            1690239 |             0 |                0 |          813702 |                     0 |        529544 | 2017-02-06 09:42:18.893067+01

 2017-02-06 10:25:55.531093+01 | 1486373155.53109 |                 0 |               9 |                 14581 |                  634 |            1690239 |             0 |                0 |          813702 |                     0 |        529645 | 2017-02-06 09:42:18.893067+01

 2017-02-06 10:25:56.619852+01 | 1486373156.61985 |                 0 |               9 |                 14581 |                  634 |            1690239 |             0 |                0 |          813702 |                     0 |        529724 | 2017-02-06 09:42:18.893067+01

 2017-02-06 10:25:57.691669+01 | 1486373157.69167 |                 0 |               9 |                 14581 |                  634 |            1690239 |             0 |                0 |          813702 |                     0 |        529793 | 2017-02-06 09:42:18.893067+01

 2017-02-06 10:25:58.777389+01 | 1486373158.77739 |                 0 |               9 |                 14581 |                  634 |            1690239 |             0 |                0 |          813702 |                     0 |        529866 | 2017-02-06 09:42:18.893067+01

 2017-02-06 10:25:59.855768+01 | 1486373159.85577 |                 0 |               9 |                 14581 |                  634 |            1690239 |             0 |                0 |          813702 |                     0 |        529951 | 2017-02-06 09:42:18.893067+01

 2017-02-06 10:26:00.927909+01 | 1486373160.92791 |                 0 |               9 |                 14581 |                  634 |            1690239 |             0 |                0 |          813702 |                     0 |        530021 | 2017-02-06 09:42:18.893067+01

 2017-02-06 10:26:02.008994+01 | 1486373162.00899 |                 0 |               9 |                 14581 |                  634 |            1690239 |             0 |                0 |          813702 |                     0 |        530090 | 2017-02-06 09:42:18.893067+01

 2017-02-06 10:26:03.086414+01 | 1486373163.08641 |                 0 |               9 |                 14581 |                  634 |            1690239 |             0 |                0 |          813702 |                     0 |        530186 | 2017-02-06 09:42:18.893067+01

 2017-02-06 10:26:04.175772+01 | 1486373164.17577 |                 0 |               9 |                 14581 |                  634 |            1690239 |             0 |                0 |          813702 |                     0 |        530252 | 2017-02-06 09:42:18.893067+01

 2017-02-06 10:26:05.256033+01 | 1486373165.25603 |                 0 |               9 |                 14581 |                  634 |            1690239 |             0 |                0 |          813702 |                     0 |        530341 | 2017-02-06 09:42:18.893067+01

 2017-02-06 10:26:06.319581+01 | 1486373166.31958 |                 0 |               9 |                 14581 |                  634 |            1690239 |             0 |                0 |          813702 |                     0 |        530413 | 2017-02-06 09:42:18.893067+01

 2017-02-06 10:26:07.400602+01 | 1486373167.4006 |                 0 |               9 |                 14581 |                  634 |            1690239 |             0 |                0 |          813702 |                     0 |        530488 | 2017-02-06 09:42:18.893067+01

 2017-02-06 10:26:08.471675+01 | 1486373168.47167 |                 0 |               9 |                 14581 |                  634 |            1690239 |             0 |                0 |          813702 |                     0 |        530541 | 2017-02-06 09:42:18.893067+01

 2017-02-06 10:26:09.54645+01 | 1486373169.54645 |                 0 |               9 |                 14581 |                  634 |            1690239 |             0 |                0 |          813702 |                     0 |        530627 | 2017-02-06 09:42:18.893067+01

 2017-02-06 10:26:10.627524+01 | 1486373170.62752 |                 0 |               9 |                 14581 |                  634 |            1690239 |             0 |                0 |          813702 |                     0 |        530693 | 2017-02-06 09:42:18.893067+01

 2017-02-06 10:26:11.698431+01 | 1486373171.69843 |                 0 |               9 |                 14581 |                  634 |            1690239 |             0 |                0 |          813702 |                     0 |        530779 | 2017-02-06 09:42:18.893067+01

 2017-02-06 10:26:12.770977+01 | 1486373172.77098 |                 0 |               9 |                 14581 |                  634 |            1690239 |             0 |                0 |          813702 |                     0 |        530846 | 2017-02-06 09:42:18.893067+01

 2017-02-06 10:26:13.851905+01 | 1486373173.85191 |                 0 |               9 |                 14581 |                  634 |            1690239 |             0 |                0 |          813702 |                     0 |        530915 | 2017-02-06 09:42:18.893067+01

 2017-02-06 10:26:14.94126+01 | 1486373174.94126 |                 0 |               9 |                 14581 |                  634 |            1690239 |             0 |                0 |          813702 |                     0 |        531033 | 2017-02-06 09:42:18.893067+01

 2017-02-06 10:26:16.005502+01 | 1486373176.0055 |                 0 |               9 |                 14581 |                  634 |            1690239 |             0 |                0 |          813702 |                     0 |        531082 | 2017-02-06 09:42:18.893067+01

 2017-02-06 10:26:17.079333+01 | 1486373177.07933 |                 0 |               9 |                 14581 |                  634 |            1690239 |             0 |                0 |          813702 |                     0 |        531154 | 2017-02-06 09:42:18.893067+01

 2017-02-06 10:26:18.165433+01 | 1486373178.16543 |                 0 |               9 |                 14581 |                  634 |            1690239 |             0 |                0 |          813702 |                     0 |        531226 | 2017-02-06 09:42:18.893067+01

 2017-02-06 10:26:19.246348+01 | 1486373179.24635 |                 0 |               9 |                 14581 |                  634 |            1690239 |             0 |                0 |          813702 |                     0 |        531293 | 2017-02-06 09:42:18.893067+01

 2017-02-06 10:26:20.317507+01 | 1486373180.31751 |                 0 |               9 |                 14581 |                  634 |            1690239 |             0 |                0 |          813702 |                     0 |        531367 | 2017-02-06 09:42:18.893067+01

 2017-02-06 10:26:21.401149+01 | 1486373181.40115 |                 0 |               9 |                 14581 |                  634 |            1690239 |             0 |                0 |          813702 |                     0 |        531465 | 2017-02-06 09:42:18.893067+01

 2017-02-06 10:26:22.470517+01 | 1486373182.47052 |                 0 |               9 |                 14581 |                  634 |            1690239 |             0 |                0 |          813702 |                     0 |        531515 | 2017-02-06 09:42:18.893067+01

 2017-02-06 10:26:23.553078+01 | 1486373183.55308 |                 0 |               9 |                 14581 |                  634 |            1690239 |             0 |                0 |          813702 |                     0 |        531608 | 2017-02-06 09:42:18.893067+01

 2017-02-06 10:26:24.632764+01 | 1486373184.63276 |                 0 |               9 |                 14581 |                  634 |            1690239 |             0 |                0 |          813702 |                     0 |        531701 | 2017-02-06 09:42:18.893067+01

 2017-02-06 10:26:25.70057+01 | 1486373185.70057 |                 0 |               9 |                 14581 |                  634 |            1690239 |             0 |                0 |          813702 |                     0 |        531754 | 2017-02-06 09:42:18.893067+01

 2017-02-06 10:26:26.776551+01 | 1486373186.77655 |                 0 |               9 |                 14581 |                  634 |            1690239 |             0 |                0 |          813702 |                     0 |        531822 | 2017-02-06 09:42:18.893067+01

 2017-02-06 10:26:27.856382+01 | 1486373187.85638 |                 0 |               9 |                 14581 |                  634 |            1690239 |             0 |                0 |          813702 |                     0 |        531895 | 2017-02-06 09:42:18.893067+01

 2017-02-06 10:26:28.930752+01 | 1486373188.93075 |                 0 |               9 |                 14581 |                  634 |            1690239 |             0 |                0 |          813702 |                     0 |        531988 | 2017-02-06 09:42:18.893067+01

 2017-02-06 10:26:30.016726+01 | 1486373190.01673 |                 0 |               9 |                 14581 |                  634 |            1690239 |             0 |                0 |          813702 |                     0 |        531988 | 2017-02-06 09:42:18.893067+01

 2017-02-06 10:26:31.090367+01 | 1486373191.09037 |                 0 |               9 |                 14581 |                  634 |            1690239 |             0 |                0 |          813702 |                     0 |        532141 | 2017-02-06 09:42:18.893067+01

 2017-02-06 10:26:32.164798+01 | 1486373192.1648 |                 0 |               9 |                 14581 |                  634 |            1690239 |             0 |                0 |          813702 |                     0 |        532186 | 2017-02-06 09:42:18.893067+01

 2017-02-06 10:26:33.241333+01 | 1486373193.24133 |                 0 |               9 |                 14581 |                  634 |            1690239 |             0 |                0 |          813702 |                     0 |        532261 | 2017-02-06 09:42:18.893067+01

 2017-02-06 10:26:34.326461+01 | 1486373194.32646 |                 0 |               9 |                 14581 |                  634 |            1690239 |             0 |                0 |          813702 |                     0 |        532340 | 2017-02-06 09:42:18.893067+01

 2017-02-06 10:26:35.405151+01 | 1486373195.40515 |                 0 |               9 |                 14581 |                  634 |            1690239 |             0 |                0 |          813702 |                     0 |        532407 | 2017-02-06 09:42:18.893067+01

 2017-02-06 10:26:36.479825+01 | 1486373196.47983 |                 0 |               9 |                 14581 |                  634 |            1690239 |             0 |                0 |          813702 |                     0 |        532509 | 2017-02-06 09:42:18.893067+01

 2017-02-06 10:26:37.560973+01 | 1486373197.56097 |                 0 |               9 |                 14581 |                  634 |            1690239 |             0 |                0 |          813702 |                     0 |        532559 | 2017-02-06 09:42:18.893067+01

 2017-02-06 10:26:38.653263+01 | 1486373198.65326 |                 0 |               9 |                 14581 |                  634 |            1690239 |             0 |                0 |          813702 |                     0 |        532631 | 2017-02-06 09:42:18.893067+01

 2017-02-06 10:26:39.745632+01 | 1486373199.74563 |                 0 |               9 |                 14581 |                  634 |            1690239 |             0 |                0 |          813702 |                     0 |        532742 | 2017-02-06 09:42:18.893067+01

 2017-02-06 10:26:40.833904+01 | 1486373200.8339 |                 0 |               9 |                 14581 |                  634 |            1690239 |             0 |                0 |          813702 |                     0 |        532810 | 2017-02-06 09:42:18.893067+01

 2017-02-06 10:26:41.923133+01 | 1486373201.92313 |                 0 |               9 |                 14581 |                  634 |            1690239 |             0 |                0 |          813702 |                     0 |        532810 | 2017-02-06 09:42:18.893067+01

 2017-02-06 10:26:43.00391+01 | 1486373203.00391 |                 0 |               9 |                 14581 |                  634 |            1690239 |             0 |                0 |          813702 |                     0 |        532945 | 2017-02-06 09:42:18.893067+01

 2017-02-06 10:26:44.075533+01 | 1486373204.07553 |                 0 |               9 |                 14581 |                  634 |            1690239 |             0 |                0 |          813702 |                     0 |        533011 | 2017-02-06 09:42:18.893067+01

 2017-02-06 10:26:45.150956+01 | 1486373205.15096 |                 0 |               9 |                 14581 |                  634 |            1690239 |             0 |                0 |          813702 |                     0 |        533101 | 2017-02-06 09:42:18.893067+01

 2017-02-06 10:26:46.217768+01 | 1486373206.21777 |                 0 |               9 |                 14581 |                  634 |            1690239 |             0 |                0 |          813702 |                     0 |        533145 | 2017-02-06 09:42:18.893067+01

 2017-02-06 10:26:47.30203+01 | 1486373207.30203 |                 0 |               9 |                 14581 |                  634 |            1690239 |             0 |                0 |          813702 |                     0 |        533237 | 2017-02-06 09:42:18.893067+01

 2017-02-06 10:26:48.374111+01 | 1486373208.37411 |                 0 |               9 |                 14581 |                  634 |            1690239 |             0 |                0 |          813702 |                     0 |        533309 | 2017-02-06 09:42:18.893067+01

 2017-02-06 10:26:49.452708+01 | 1486373209.45271 |                 0 |               9 |                 14581 |                  634 |            1690239 |             0 |                0 |          813702 |                     0 |        533377 | 2017-02-06 09:42:18.893067+01

 2017-02-06 10:26:50.515684+01 | 1486373210.51568 |                 0 |               9 |                 14581 |                  634 |            1690239 |             0 |                0 |          813702 |                     0 |        533430 | 2017-02-06 09:42:18.893067+01

 2017-02-06 10:26:51.589555+01 | 1486373211.58956 |                 0 |               9 |                 14581 |                  634 |            1690239 |             0 |                0 |          813702 |                     0 |        533528 | 2017-02-06 09:42:18.893067+01

 2017-02-06 10:26:52.666731+01 | 1486373212.66673 |                 0 |               9 |                 14581 |                  634 |            1690239 |             0 |                0 |          813702 |                     0 |        533592 | 2017-02-06 09:42:18.893067+01

 2017-02-06 10:26:53.7372+01 | 1486373213.7372 |                 0 |               9 |                 14581 |                  634 |            1690239 |             0 |                0 |          813702 |                     0 |        533661 | 2017-02-06 09:42:18.893067+01

 2017-02-06 10:26:54.825899+01 | 1486373214.8259 |                 0 |               9 |                 14581 |                  634 |            1690239 |             0 |                0 |          813702 |                     0 |        533742 | 2017-02-06 09:42:18.893067+01

 2017-02-06 10:26:55.893016+01 | 1486373215.89302 |                 0 |               9 |                 14581 |                  634 |            1690239 |             0 |                0 |          813702 |                     0 |        533810 | 2017-02-06 09:42:18.893067+01

 2017-02-06 10:26:56.96259+01 | 1486373216.96259 |                 0 |               9 |                 14581 |                  634 |            1690239 |             0 |                0 |          813702 |                     0 |        533891 | 2017-02-06 09:42:18.893067+01

 2017-02-06 10:26:58.039888+01 | 1486373218.03989 |                 0 |               9 |                 14581 |                  634 |            1690239 |             0 |                0 |          813702 |                     0 |        533959 | 2017-02-06 09:42:18.893067+01

 2017-02-06 10:26:59.117115+01 | 1486373219.11712 |                 0 |               9 |                 14581 |                  634 |            1690239 |             0 |                0 |          813702 |                     0 |        534025 | 2017-02-06 09:42:18.893067+01

 2017-02-06 10:27:00.184744+01 | 1486373220.18474 |                 0 |               9 |                 14581 |                  634 |            1690239 |             0 |                0 |          813702 |                     0 |        534110 | 2017-02-06 09:42:18.893067+01

 2017-02-06 10:27:01.256321+01 | 1486373221.25632 |                 0 |               9 |                 14581 |                  634 |            1690239 |             0 |                0 |          813702 |                     0 |        534176 | 2017-02-06 09:42:18.893067+01

 2017-02-06 10:27:02.344819+01 | 1486373222.34482 |                 0 |               9 |                 14581 |                  634 |            1690239 |             0 |                0 |          813702 |                     0 |        534280 | 2017-02-06 09:42:18.893067+01

 2017-02-06 10:27:03.428774+01 | 1486373223.42877 |                 0 |               9 |                 14581 |                  634 |            1690239 |             0 |                0 |          813702 |                     0 |        534328 | 2017-02-06 09:42:18.893067+01

 2017-02-06 10:27:04.505934+01 | 1486373224.50593 |                 0 |               9 |                 14581 |                  634 |            1690239 |             0 |                0 |          813702 |                     0 |        534402 | 2017-02-06 09:42:18.893067+01

 2017-02-06 10:27:05.597192+01 | 1486373225.59719 |                 0 |               9 |                 14581 |                  634 |            1690239 |             0 |                0 |          813702 |                     0 |        534474 | 2017-02-06 09:42:18.893067+01

 2017-02-06 10:27:06.675194+01 | 1486373226.67519 |                 0 |               9 |                 14581 |                  634 |            1690239 |             0 |                0 |          813702 |                     0 |        534547 | 2017-02-06 09:42:18.893067+01

 2017-02-06 10:27:07.752225+01 | 1486373227.75222 |                 0 |               9 |                 14581 |                  634 |            1690239 |             0 |                0 |          813702 |                     0 |        534612 | 2017-02-06 09:42:18.893067+01

 2017-02-06 10:27:08.829537+01 | 1486373228.82954 |                 0 |               9 |                 14581 |                  634 |            1690239 |             0 |                0 |          813702 |                     0 |        534681 | 2017-02-06 09:42:18.893067+01

 2017-02-06 10:27:09.916478+01 | 1486373229.91648 |                 0 |               9 |                 14581 |                  634 |            1690239 |             0 |                0 |          813702 |                     0 |        534753 | 2017-02-06 09:42:18.893067+01

 2017-02-06 10:27:10.99355+01 | 1486373230.99355 |                 0 |               9 |                 14581 |                  634 |            1690239 |             0 |                0 |          813702 |                     0 |        534829 | 2017-02-06 09:42:18.893067+01

 2017-02-06 10:27:12.076546+01 | 1486373232.07655 |                 0 |               9 |                 14581 |                  634 |            1690239 |             0 |                0 |          813702 |                     0 |        534901 | 2017-02-06 09:42:18.893067+01

 2017-02-06 10:27:13.147483+01 | 1486373233.14748 |                 0 |               9 |                 14581 |                  634 |            1690239 |             0 |                0 |          813702 |                     0 |        534973 | 2017-02-06 09:42:18.893067+01

 2017-02-06 10:27:14.235964+01 | 1486373234.23596 |                 0 |               9 |                 14581 |                  634 |            1690239 |             0 |                0 |          813702 |                     0 |        535056 | 2017-02-06 09:42:18.893067+01

 2017-02-06 10:27:15.31452+01 | 1486373235.31452 |                 0 |               9 |                 14581 |                  634 |            1690239 |             0 |                0 |          813702 |                     0 |        535124 | 2017-02-06 09:42:18.893067+01

 2017-02-06 10:27:16.381494+01 | 1486373236.38149 |                 0 |               9 |                 14581 |                  634 |            1690239 |             0 |                0 |          813702 |                     0 |        535210 | 2017-02-06 09:42:18.893067+01

 2017-02-06 10:27:17.450217+01 | 1486373237.45022 |                 0 |               9 |                 14581 |                  634 |            1690239 |             0 |                0 |          813702 |                     0 |        535278 | 2017-02-06 09:42:18.893067+01

 2017-02-06 10:27:18.517744+01 | 1486373238.51774 |                 0 |               9 |                 14581 |                  634 |            1690239 |             0 |                0 |          813702 |                     0 |        535345 | 2017-02-06 09:42:18.893067+01

 2017-02-06 10:27:19.587804+01 | 1486373239.5878 |                 0 |               9 |                 14581 |                  634 |            1690239 |             0 |                0 |          813702 |                     0 |        535417 | 2017-02-06 09:42:18.893067+01

 2017-02-06 10:27:20.652+01 | 1486373240.652 |                 0 |               9 |                 14581 |                  634 |            1690239 |             0 |                0 |          813702 |                     0 |        535499 | 2017-02-06 09:42:18.893067+01

 2017-02-06 10:27:21.727838+01 | 1486373241.72784 |                 0 |               9 |                 14581 |                  634 |            1690239 |             0 |                0 |          813702 |                     0 |        535566 | 2017-02-06 09:42:18.893067+01

 2017-02-06 10:27:22.803194+01 | 1486373242.80319 |                 0 |               9 |                 14581 |                  634 |            1690239 |             0 |                0 |          813702 |                     0 |        535640 | 2017-02-06 09:42:18.893067+01

 2017-02-06 10:27:23.889832+01 | 1486373243.88983 |                 0 |               9 |                 14581 |                  634 |            1690239 |             0 |                0 |          813702 |                     0 |        535732 | 2017-02-06 09:42:18.893067+01

 2017-02-06 10:27:24.962756+01 | 1486373244.96276 |                 0 |               9 |                 14581 |                  634 |            1690239 |             0 |                0 |          813702 |                     0 |        535792 | 2017-02-06 09:42:18.893067+01

 2017-02-06 10:27:26.044267+01 | 1486373246.04427 |                 0 |               9 |                 14581 |                  634 |            1690239 |             0 |                0 |          813702 |                     0 |        535873 | 2017-02-06 09:42:18.893067+01

 2017-02-06 10:27:27.130356+01 | 1486373247.13036 |                 0 |               9 |                 14581 |                  634 |            1690239 |             0 |                0 |          813702 |                     0 |        535938 | 2017-02-06 09:42:18.893067+01

 2017-02-06 10:27:28.197946+01 | 1486373248.19795 |                 0 |               9 |                 14581 |                  634 |            1690239 |             0 |                0 |          813702 |                     0 |        536009 | 2017-02-06 09:42:18.893067+01

 2017-02-06 10:27:29.261308+01 | 1486373249.26131 |                 0 |               9 |                 14581 |                  634 |            1690239 |             0 |                0 |          813702 |                     0 |        536142 | 2017-02-06 09:42:18.893067+01

 2017-02-06 10:27:30.340568+01 | 1486373250.34057 |                 0 |               9 |                 14581 |                  634 |            1690239 |             0 |                0 |          813702 |                     0 |        536165 | 2017-02-06 09:42:18.893067+01

 2017-02-06 10:27:31.402128+01 | 1486373251.40213 |                 0 |               9 |                 14581 |                  634 |            1690239 |             0 |                0 |          813702 |                     0 |        536236 | 2017-02-06 09:42:18.893067+01

 2017-02-06 10:27:32.482951+01 | 1486373252.48295 |                 0 |               9 |                 14581 |                  634 |            1690239 |             0 |                0 |          813702 |                     0 |        536307 | 2017-02-06 09:42:18.893067+01

 2017-02-06 10:27:33.56604+01 | 1486373253.56604 |                 0 |               9 |                 14581 |                  634 |            1690239 |             0 |                0 |          813702 |                     0 |        536387 | 2017-02-06 09:42:18.893067+01

 2017-02-06 10:27:34.637159+01 | 1486373254.63716 |                 0 |               9 |                 14581 |                  634 |            1690239 |             0 |                0 |          813702 |                     0 |        536459 | 2017-02-06 09:42:18.893067+01

 2017-02-06 10:27:35.702443+01 | 1486373255.70244 |                 0 |               9 |                 14581 |                  634 |            1690239 |             0 |                0 |          813702 |                     0 |        536542 | 2017-02-06 09:42:18.893067+01

 2017-02-06 10:27:36.784474+01 | 1486373256.78447 |                 0 |               9 |                 14581 |                  634 |            1690239 |             0 |                0 |          813702 |                     0 |        536612 | 2017-02-06 09:42:18.893067+01

 2017-02-06 10:27:37.864793+01 | 1486373257.86479 |                 0 |               9 |                 14581 |                  634 |            1690239 |             0 |                0 |          813702 |                     0 |        536680 | 2017-02-06 09:42:18.893067+01

 2017-02-06 10:27:38.933027+01 | 1486373258.93303 |                 0 |               9 |                 14581 |                  634 |            1690239 |             0 |                0 |          813702 |                     0 |        536759 | 2017-02-06 09:42:18.893067+01

 2017-02-06 10:27:40.015116+01 | 1486373260.01512 |                 0 |               9 |                 14581 |                  634 |            1690239 |             0 |                0 |          813702 |                     0 |        536829 | 2017-02-06 09:42:18.893067+01

 2017-02-06 10:27:41.099567+01 | 1486373261.09957 |                 0 |               9 |                 14581 |                  634 |            1690239 |             0 |                0 |          813702 |                     0 |        536897 | 2017-02-06 09:42:18.893067+01

 2017-02-06 10:27:42.172097+01 | 1486373262.1721 |                 0 |               9 |                 14581 |                  634 |            1690239 |             0 |                0 |          813702 |                     0 |        536976 | 2017-02-06 09:42:18.893067+01

 2017-02-06 10:27:43.248679+01 | 1486373263.24868 |                 0 |               9 |                 14581 |                  634 |            1690239 |             0 |                0 |          813702 |                     0 |        537044 | 2017-02-06 09:42:18.893067+01

 2017-02-06 10:27:44.334359+01 | 1486373264.33436 |                 0 |               9 |                 14581 |                  634 |            1690239 |             0 |                0 |          813702 |                     0 |        537126 | 2017-02-06 09:42:18.893067+01

 2017-02-06 10:27:45.424002+01 | 1486373265.424 |                 0 |               9 |                 14581 |                  634 |            1690239 |             0 |                0 |          813702 |                     0 |        537196 | 2017-02-06 09:42:18.893067+01

 2017-02-06 10:27:46.504876+01 | 1486373266.50488 |                 0 |               9 |                 14581 |                  634 |            1690239 |             0 |                0 |          813702 |                     0 |        537279 | 2017-02-06 09:42:18.893067+01

 2017-02-06 10:27:47.579179+01 | 1486373267.57918 |                 0 |               9 |                 14581 |                  634 |            1690239 |             0 |                0 |          813702 |                     0 |        537346 | 2017-02-06 09:42:18.893067+01

 2017-02-06 10:27:48.649225+01 | 1486373268.64922 |                 0 |               9 |                 14581 |                  634 |            1690239 |             0 |                0 |          813702 |                     0 |        537417 | 2017-02-06 09:42:18.893067+01

 2017-02-06 10:27:49.736883+01 | 1486373269.73688 |                 0 |               9 |                 14581 |                  634 |            1690239 |             0 |                0 |          813702 |                     0 |        537494 | 2017-02-06 09:42:18.893067+01

 2017-02-06 10:27:50.808601+01 | 1486373270.8086 |                 0 |               9 |                 14581 |                  634 |            1690239 |             0 |                0 |          813702 |                     0 |        537560 | 2017-02-06 09:42:18.893067+01

 2017-02-06 10:27:51.889735+01 | 1486373271.88973 |                 0 |               9 |                 14581 |                  634 |            1690239 |             0 |                0 |          813702 |                     0 |        537625 | 2017-02-06 09:42:18.893067+01

 2017-02-06 10:27:52.9598+01 | 1486373272.9598 |                 0 |               9 |                 14581 |                  634 |            1690239 |             0 |                0 |          813702 |                     0 |        537733 | 2017-02-06 09:42:18.893067+01

 2017-02-06 10:27:54.046359+01 | 1486373274.04636 |                 0 |               9 |                 14581 |                  634 |            1690239 |             0 |                0 |          813702 |                     0 |        537777 | 2017-02-06 09:42:18.893067+01

 2017-02-06 10:27:55.125912+01 | 1486373275.12591 |                 0 |               9 |                 14581 |                  634 |            1690239 |             0 |                0 |          813702 |                     0 |        537852 | 2017-02-06 09:42:18.893067+01

 2017-02-06 10:27:56.209521+01 | 1486373276.20952 |                 0 |               9 |                 14581 |                  634 |            1690239 |             0 |                0 |          813702 |                     0 |        537945 | 2017-02-06 09:42:18.893067+01

 2017-02-06 10:27:57.285032+01 | 1486373277.28503 |                 0 |               9 |                 14581 |                  634 |            1690239 |             0 |                0 |          813702 |                     0 |        538018 | 2017-02-06 09:42:18.893067+01

 2017-02-06 10:27:58.360124+01 | 1486373278.36012 |                 0 |               9 |                 14581 |                  634 |            1690239 |             0 |                0 |          813702 |                     0 |        538109 | 2017-02-06 09:42:18.893067+01

 2017-02-06 10:27:59.43151+01 | 1486373279.43151 |                 0 |               9 |                 14581 |                  634 |            1690239 |             0 |                0 |          813702 |                     0 |        538109 | 2017-02-06 09:42:18.893067+01

 2017-02-06 10:28:00.490641+01 | 1486373280.49064 |                 0 |               9 |                 14581 |                  634 |            1690239 |             0 |                0 |          813702 |                     0 |        538202 | 2017-02-06 09:42:18.893067+01

 2017-02-06 10:28:01.556631+01 | 1486373281.55663 |                 0 |               9 |                 14581 |                  634 |            1690239 |             0 |                0 |          813702 |                     0 |        538298 | 2017-02-06 09:42:18.893067+01

