 2017-02-06 10:23:01.929835+01 | 1486372981.92984 | pgbench_accounts |       1390772224
 2017-02-06 10:23:01.929835+01 | 1486372981.92984 | pgbench_tellers  |          2170880
 2017-02-06 10:23:01.929835+01 | 1486372981.92984 | pgbench_history  |                0
 2017-02-06 10:23:01.929835+01 | 1486372981.92984 | pgbench_branches |          1466368

 2017-02-06 10:23:03.025077+01 | 1486372983.02508 | pgbench_accounts |       1390772224
 2017-02-06 10:23:03.025077+01 | 1486372983.02508 | pgbench_tellers  |          2170880
 2017-02-06 10:23:03.025077+01 | 1486372983.02508 | pgbench_history  |           933888
 2017-02-06 10:23:03.025077+01 | 1486372983.02508 | pgbench_branches |          1466368

 2017-02-06 10:23:04.102032+01 | 1486372984.10203 | pgbench_accounts |       1390772224
 2017-02-06 10:23:04.102032+01 | 1486372984.10203 | pgbench_tellers  |          2170880
 2017-02-06 10:23:04.102032+01 | 1486372984.10203 | pgbench_history  |          1327104
 2017-02-06 10:23:04.102032+01 | 1486372984.10203 | pgbench_branches |          1466368

 2017-02-06 10:23:05.168757+01 | 1486372985.16876 | pgbench_accounts |       1390772224
 2017-02-06 10:23:05.168757+01 | 1486372985.16876 | pgbench_tellers  |          2170880
 2017-02-06 10:23:05.168757+01 | 1486372985.16876 | pgbench_history  |          1908736
 2017-02-06 10:23:05.168757+01 | 1486372985.16876 | pgbench_branches |          1466368

 2017-02-06 10:23:06.24081+01 | 1486372986.24081 | pgbench_accounts |       1390772224
 2017-02-06 10:23:06.24081+01 | 1486372986.24081 | pgbench_tellers  |          2170880
 2017-02-06 10:23:06.24081+01 | 1486372986.24081 | pgbench_history  |          2457600
 2017-02-06 10:23:06.24081+01 | 1486372986.24081 | pgbench_branches |          1466368

 2017-02-06 10:23:07.310512+01 | 1486372987.31051 | pgbench_accounts |       1390772224
 2017-02-06 10:23:07.310512+01 | 1486372987.31051 | pgbench_tellers  |          2170880
 2017-02-06 10:23:07.310512+01 | 1486372987.31051 | pgbench_history  |          3047424
 2017-02-06 10:23:07.310512+01 | 1486372987.31051 | pgbench_branches |          1466368

 2017-02-06 10:23:08.389468+01 | 1486372988.38947 | pgbench_accounts |       1390772224
 2017-02-06 10:23:08.389468+01 | 1486372988.38947 | pgbench_tellers  |          2170880
 2017-02-06 10:23:08.389468+01 | 1486372988.38947 | pgbench_history  |          3850240
 2017-02-06 10:23:08.389468+01 | 1486372988.38947 | pgbench_branches |          1466368

 2017-02-06 10:23:09.465849+01 | 1486372989.46585 | pgbench_accounts |       1390772224
 2017-02-06 10:23:09.465849+01 | 1486372989.46585 | pgbench_tellers  |          2170880
 2017-02-06 10:23:09.465849+01 | 1486372989.46585 | pgbench_history  |          4317184
 2017-02-06 10:23:09.465849+01 | 1486372989.46585 | pgbench_branches |          1466368

 2017-02-06 10:23:10.537334+01 | 1486372990.53733 | pgbench_accounts |       1390772224
 2017-02-06 10:23:10.537334+01 | 1486372990.53733 | pgbench_tellers  |          2170880
 2017-02-06 10:23:10.537334+01 | 1486372990.53733 | pgbench_history  |          4988928
 2017-02-06 10:23:10.537334+01 | 1486372990.53733 | pgbench_branches |          1466368

 2017-02-06 10:23:11.618674+01 | 1486372991.61867 | pgbench_accounts |       1390772224
 2017-02-06 10:23:11.618674+01 | 1486372991.61867 | pgbench_tellers  |          2170880
 2017-02-06 10:23:11.618674+01 | 1486372991.61867 | pgbench_history  |          5545984
 2017-02-06 10:23:11.618674+01 | 1486372991.61867 | pgbench_branches |          1466368

 2017-02-06 10:23:12.702445+01 | 1486372992.70245 | pgbench_accounts |       1390772224
 2017-02-06 10:23:12.702445+01 | 1486372992.70245 | pgbench_tellers  |          2170880
 2017-02-06 10:23:12.702445+01 | 1486372992.70245 | pgbench_history  |          6193152
 2017-02-06 10:23:12.702445+01 | 1486372992.70245 | pgbench_branches |          1466368

 2017-02-06 10:23:13.77909+01 | 1486372993.77909 | pgbench_accounts |       1390772224
 2017-02-06 10:23:13.77909+01 | 1486372993.77909 | pgbench_tellers  |          2170880
 2017-02-06 10:23:13.77909+01 | 1486372993.77909 | pgbench_history  |          6987776
 2017-02-06 10:23:13.77909+01 | 1486372993.77909 | pgbench_branches |          1466368

 2017-02-06 10:23:14.850685+01 | 1486372994.85068 | pgbench_accounts |       1390772224
 2017-02-06 10:23:14.850685+01 | 1486372994.85068 | pgbench_tellers  |          2170880
 2017-02-06 10:23:14.850685+01 | 1486372994.85068 | pgbench_history  |          7446528
 2017-02-06 10:23:14.850685+01 | 1486372994.85068 | pgbench_branches |          1466368

 2017-02-06 10:23:15.918145+01 | 1486372995.91814 | pgbench_accounts |       1390772224
 2017-02-06 10:23:15.918145+01 | 1486372995.91814 | pgbench_tellers  |          2170880
 2017-02-06 10:23:15.918145+01 | 1486372995.91814 | pgbench_history  |          8298496
 2017-02-06 10:23:15.918145+01 | 1486372995.91814 | pgbench_branches |          1466368

 2017-02-06 10:23:16.987528+01 | 1486372996.98753 | pgbench_accounts |       1390772224
 2017-02-06 10:23:16.987528+01 | 1486372996.98753 | pgbench_tellers  |          2170880
 2017-02-06 10:23:16.987528+01 | 1486372996.98753 | pgbench_history  |          8724480
 2017-02-06 10:23:16.987528+01 | 1486372996.98753 | pgbench_branches |          1466368

 2017-02-06 10:23:18.059622+01 | 1486372998.05962 | pgbench_accounts |       1390772224
 2017-02-06 10:23:18.059622+01 | 1486372998.05962 | pgbench_tellers  |          2170880
 2017-02-06 10:23:18.059622+01 | 1486372998.05962 | pgbench_history  |          9453568
 2017-02-06 10:23:18.059622+01 | 1486372998.05962 | pgbench_branches |          1466368

 2017-02-06 10:23:19.140214+01 | 1486372999.14021 | pgbench_accounts |       1390772224
 2017-02-06 10:23:19.140214+01 | 1486372999.14021 | pgbench_tellers  |          2170880
 2017-02-06 10:23:19.140214+01 | 1486372999.14021 | pgbench_history  |         10010624
 2017-02-06 10:23:19.140214+01 | 1486372999.14021 | pgbench_branches |          1466368

 2017-02-06 10:23:20.21747+01 | 1486373000.21747 | pgbench_accounts |       1390772224
 2017-02-06 10:23:20.21747+01 | 1486373000.21747 | pgbench_tellers  |          2170880
 2017-02-06 10:23:20.21747+01 | 1486373000.21747 | pgbench_history  |         10510336
 2017-02-06 10:23:20.21747+01 | 1486373000.21747 | pgbench_branches |          1466368

 2017-02-06 10:23:21.289597+01 | 1486373001.2896 | pgbench_accounts |       1390772224
 2017-02-06 10:23:21.289597+01 | 1486373001.2896 | pgbench_tellers  |          2170880
 2017-02-06 10:23:21.289597+01 | 1486373001.2896 | pgbench_history  |         11231232
 2017-02-06 10:23:21.289597+01 | 1486373001.2896 | pgbench_branches |          1466368

 2017-02-06 10:23:22.374428+01 | 1486373002.37443 | pgbench_accounts |       1390772224
 2017-02-06 10:23:22.374428+01 | 1486373002.37443 | pgbench_tellers  |          2170880
 2017-02-06 10:23:22.374428+01 | 1486373002.37443 | pgbench_history  |         11804672
 2017-02-06 10:23:22.374428+01 | 1486373002.37443 | pgbench_branches |          1466368

 2017-02-06 10:23:23.44389+01 | 1486373003.44389 | pgbench_accounts |       1390772224
 2017-02-06 10:23:23.44389+01 | 1486373003.44389 | pgbench_tellers  |          2170880
 2017-02-06 10:23:23.44389+01 | 1486373003.44389 | pgbench_history  |         12353536
 2017-02-06 10:23:23.44389+01 | 1486373003.44389 | pgbench_branches |          1466368

 2017-02-06 10:23:24.519221+01 | 1486373004.51922 | pgbench_accounts |       1390772224
 2017-02-06 10:23:24.519221+01 | 1486373004.51922 | pgbench_tellers  |          2170880
 2017-02-06 10:23:24.519221+01 | 1486373004.51922 | pgbench_history  |         12943360
 2017-02-06 10:23:24.519221+01 | 1486373004.51922 | pgbench_branches |          1466368

 2017-02-06 10:23:25.588323+01 | 1486373005.58832 | pgbench_accounts |       1390772224
 2017-02-06 10:23:25.588323+01 | 1486373005.58832 | pgbench_tellers  |          2170880
 2017-02-06 10:23:25.588323+01 | 1486373005.58832 | pgbench_history  |         13557760
 2017-02-06 10:23:25.588323+01 | 1486373005.58832 | pgbench_branches |          1466368

 2017-02-06 10:23:26.65494+01 | 1486373006.65494 | pgbench_accounts |       1390772224
 2017-02-06 10:23:26.65494+01 | 1486373006.65494 | pgbench_tellers  |          2170880
 2017-02-06 10:23:26.65494+01 | 1486373006.65494 | pgbench_history  |         14131200
 2017-02-06 10:23:26.65494+01 | 1486373006.65494 | pgbench_branches |          1466368

 2017-02-06 10:23:27.735957+01 | 1486373007.73596 | pgbench_accounts |       1390772224
 2017-02-06 10:23:27.735957+01 | 1486373007.73596 | pgbench_tellers  |          2170880
 2017-02-06 10:23:27.735957+01 | 1486373007.73596 | pgbench_history  |         14745600
 2017-02-06 10:23:27.735957+01 | 1486373007.73596 | pgbench_branches |          1466368

 2017-02-06 10:23:28.817772+01 | 1486373008.81777 | pgbench_accounts |       1390772224
 2017-02-06 10:23:28.817772+01 | 1486373008.81777 | pgbench_tellers  |          2170880
 2017-02-06 10:23:28.817772+01 | 1486373008.81777 | pgbench_history  |         15368192
 2017-02-06 10:23:28.817772+01 | 1486373008.81777 | pgbench_branches |          1466368

 2017-02-06 10:23:29.892314+01 | 1486373009.89231 | pgbench_accounts |       1390772224
 2017-02-06 10:23:29.892314+01 | 1486373009.89231 | pgbench_tellers  |          2170880
 2017-02-06 10:23:29.892314+01 | 1486373009.89231 | pgbench_history  |         15974400
 2017-02-06 10:23:29.892314+01 | 1486373009.89231 | pgbench_branches |          1466368

 2017-02-06 10:23:30.970931+01 | 1486373010.97093 | pgbench_accounts |       1390772224
 2017-02-06 10:23:30.970931+01 | 1486373010.97093 | pgbench_tellers  |          2170880
 2017-02-06 10:23:30.970931+01 | 1486373010.97093 | pgbench_history  |         16572416
 2017-02-06 10:23:30.970931+01 | 1486373010.97093 | pgbench_branches |          1466368

 2017-02-06 10:23:32.046559+01 | 1486373012.04656 | pgbench_accounts |       1390772224
 2017-02-06 10:23:32.046559+01 | 1486373012.04656 | pgbench_tellers  |          2170880
 2017-02-06 10:23:32.046559+01 | 1486373012.04656 | pgbench_history  |         17178624
 2017-02-06 10:23:32.046559+01 | 1486373012.04656 | pgbench_branches |          1466368

 2017-02-06 10:23:33.128924+01 | 1486373013.12892 | pgbench_accounts |       1390772224
 2017-02-06 10:23:33.128924+01 | 1486373013.12892 | pgbench_tellers  |          2170880
 2017-02-06 10:23:33.128924+01 | 1486373013.12892 | pgbench_history  |         17776640
 2017-02-06 10:23:33.128924+01 | 1486373013.12892 | pgbench_branches |          1466368

 2017-02-06 10:23:34.202806+01 | 1486373014.20281 | pgbench_accounts |       1390772224
 2017-02-06 10:23:34.202806+01 | 1486373014.20281 | pgbench_tellers  |          2170880
 2017-02-06 10:23:34.202806+01 | 1486373014.20281 | pgbench_history  |         18538496
 2017-02-06 10:23:34.202806+01 | 1486373014.20281 | pgbench_branches |          1466368

 2017-02-06 10:23:35.274643+01 | 1486373015.27464 | pgbench_accounts |       1390772224
 2017-02-06 10:23:35.274643+01 | 1486373015.27464 | pgbench_tellers  |          2170880
 2017-02-06 10:23:35.274643+01 | 1486373015.27464 | pgbench_history  |         19251200
 2017-02-06 10:23:35.274643+01 | 1486373015.27464 | pgbench_branches |          1466368

 2017-02-06 10:23:36.344797+01 | 1486373016.3448 | pgbench_accounts |       1390772224
 2017-02-06 10:23:36.344797+01 | 1486373016.3448 | pgbench_tellers  |          2170880
 2017-02-06 10:23:36.344797+01 | 1486373016.3448 | pgbench_history  |         19652608
 2017-02-06 10:23:36.344797+01 | 1486373016.3448 | pgbench_branches |          1466368

 2017-02-06 10:23:37.422582+01 | 1486373017.42258 | pgbench_accounts |       1390772224
 2017-02-06 10:23:37.422582+01 | 1486373017.42258 | pgbench_tellers  |          2170880
 2017-02-06 10:23:37.422582+01 | 1486373017.42258 | pgbench_history  |         20201472
 2017-02-06 10:23:37.422582+01 | 1486373017.42258 | pgbench_branches |          1466368

 2017-02-06 10:23:38.506382+01 | 1486373018.50638 | pgbench_accounts |       1390772224
 2017-02-06 10:23:38.506382+01 | 1486373018.50638 | pgbench_tellers  |          2170880
 2017-02-06 10:23:38.506382+01 | 1486373018.50638 | pgbench_history  |         20766720
 2017-02-06 10:23:38.506382+01 | 1486373018.50638 | pgbench_branches |          1466368

 2017-02-06 10:23:39.58432+01 | 1486373019.58432 | pgbench_accounts |       1390772224
 2017-02-06 10:23:39.58432+01 | 1486373019.58432 | pgbench_tellers  |          2170880
 2017-02-06 10:23:39.58432+01 | 1486373019.58432 | pgbench_history  |         21635072
 2017-02-06 10:23:39.58432+01 | 1486373019.58432 | pgbench_branches |          1466368

 2017-02-06 10:23:40.671758+01 | 1486373020.67176 | pgbench_accounts |       1390772224
 2017-02-06 10:23:40.671758+01 | 1486373020.67176 | pgbench_tellers  |          2170880
 2017-02-06 10:23:40.671758+01 | 1486373020.67176 | pgbench_history  |         21987328
 2017-02-06 10:23:40.671758+01 | 1486373020.67176 | pgbench_branches |          1466368

 2017-02-06 10:23:41.749186+01 | 1486373021.74919 | pgbench_accounts |       1390772224
 2017-02-06 10:23:41.749186+01 | 1486373021.74919 | pgbench_tellers  |          2170880
 2017-02-06 10:23:41.749186+01 | 1486373021.74919 | pgbench_history  |         22642688
 2017-02-06 10:23:41.749186+01 | 1486373021.74919 | pgbench_branches |          1466368

 2017-02-06 10:23:42.83235+01 | 1486373022.83235 | pgbench_accounts |       1390772224
 2017-02-06 10:23:42.83235+01 | 1486373022.83235 | pgbench_tellers  |          2170880
 2017-02-06 10:23:42.83235+01 | 1486373022.83235 | pgbench_history  |         23224320
 2017-02-06 10:23:42.83235+01 | 1486373022.83235 | pgbench_branches |          1466368

 2017-02-06 10:23:43.919432+01 | 1486373023.91943 | pgbench_accounts |       1390772224
 2017-02-06 10:23:43.919432+01 | 1486373023.91943 | pgbench_tellers  |          2170880
 2017-02-06 10:23:43.919432+01 | 1486373023.91943 | pgbench_history  |         23805952
 2017-02-06 10:23:43.919432+01 | 1486373023.91943 | pgbench_branches |          1466368

 2017-02-06 10:23:45.010229+01 | 1486373025.01023 | pgbench_accounts |       1390772224
 2017-02-06 10:23:45.010229+01 | 1486373025.01023 | pgbench_tellers  |          2170880
 2017-02-06 10:23:45.010229+01 | 1486373025.01023 | pgbench_history  |         24453120
 2017-02-06 10:23:45.010229+01 | 1486373025.01023 | pgbench_branches |          1466368

 2017-02-06 10:23:46.092424+01 | 1486373026.09242 | pgbench_accounts |       1390772224
 2017-02-06 10:23:46.092424+01 | 1486373026.09242 | pgbench_tellers  |          2170880
 2017-02-06 10:23:46.092424+01 | 1486373026.09242 | pgbench_history  |         25083904
 2017-02-06 10:23:46.092424+01 | 1486373026.09242 | pgbench_branches |          1466368

 2017-02-06 10:23:47.168725+01 | 1486373027.16873 | pgbench_accounts |       1390772224
 2017-02-06 10:23:47.168725+01 | 1486373027.16873 | pgbench_tellers  |          2170880
 2017-02-06 10:23:47.168725+01 | 1486373027.16873 | pgbench_history  |         26009600
 2017-02-06 10:23:47.168725+01 | 1486373027.16873 | pgbench_branches |          1466368

 2017-02-06 10:23:48.239555+01 | 1486373028.23955 | pgbench_accounts |       1390772224
 2017-02-06 10:23:48.239555+01 | 1486373028.23955 | pgbench_tellers  |          2170880
 2017-02-06 10:23:48.239555+01 | 1486373028.23955 | pgbench_history  |         26411008
 2017-02-06 10:23:48.239555+01 | 1486373028.23955 | pgbench_branches |          1466368

 2017-02-06 10:23:49.319981+01 | 1486373029.31998 | pgbench_accounts |       1390772224
 2017-02-06 10:23:49.319981+01 | 1486373029.31998 | pgbench_tellers  |          2170880
 2017-02-06 10:23:49.319981+01 | 1486373029.31998 | pgbench_history  |         26861568
 2017-02-06 10:23:49.319981+01 | 1486373029.31998 | pgbench_branches |          1466368

 2017-02-06 10:23:50.384624+01 | 1486373030.38462 | pgbench_accounts |       1390772224
 2017-02-06 10:23:50.384624+01 | 1486373030.38462 | pgbench_tellers  |          2170880
 2017-02-06 10:23:50.384624+01 | 1486373030.38462 | pgbench_history  |         27590656
 2017-02-06 10:23:50.384624+01 | 1486373030.38462 | pgbench_branches |          1466368

 2017-02-06 10:23:51.467045+01 | 1486373031.46705 | pgbench_accounts |       1390772224
 2017-02-06 10:23:51.467045+01 | 1486373031.46705 | pgbench_tellers  |          2170880
 2017-02-06 10:23:51.467045+01 | 1486373031.46705 | pgbench_history  |         28049408
 2017-02-06 10:23:51.467045+01 | 1486373031.46705 | pgbench_branches |          1466368

 2017-02-06 10:23:52.544208+01 | 1486373032.54421 | pgbench_accounts |       1390772224
 2017-02-06 10:23:52.544208+01 | 1486373032.54421 | pgbench_tellers  |          2170880
 2017-02-06 10:23:52.544208+01 | 1486373032.54421 | pgbench_history  |         28647424
 2017-02-06 10:23:52.544208+01 | 1486373032.54421 | pgbench_branches |          1466368

 2017-02-06 10:23:53.628774+01 | 1486373033.62877 | pgbench_accounts |       1390772224
 2017-02-06 10:23:53.628774+01 | 1486373033.62877 | pgbench_tellers  |          2170880
 2017-02-06 10:23:53.628774+01 | 1486373033.62877 | pgbench_history  |         29245440
 2017-02-06 10:23:53.628774+01 | 1486373033.62877 | pgbench_branches |          1466368

 2017-02-06 10:23:54.707746+01 | 1486373034.70775 | pgbench_accounts |       1390772224
 2017-02-06 10:23:54.707746+01 | 1486373034.70775 | pgbench_tellers  |          2170880
 2017-02-06 10:23:54.707746+01 | 1486373034.70775 | pgbench_history  |         29859840
 2017-02-06 10:23:54.707746+01 | 1486373034.70775 | pgbench_branches |          1466368

 2017-02-06 10:23:55.789825+01 | 1486373035.78982 | pgbench_accounts |       1390772224
 2017-02-06 10:23:55.789825+01 | 1486373035.78982 | pgbench_tellers  |          2170880
 2017-02-06 10:23:55.789825+01 | 1486373035.78982 | pgbench_history  |         30466048
 2017-02-06 10:23:55.789825+01 | 1486373035.78982 | pgbench_branches |          1466368

 2017-02-06 10:23:56.875871+01 | 1486373036.87587 | pgbench_accounts |       1390772224
 2017-02-06 10:23:56.875871+01 | 1486373036.87587 | pgbench_tellers  |          2170880
 2017-02-06 10:23:56.875871+01 | 1486373036.87587 | pgbench_history  |         31072256
 2017-02-06 10:23:56.875871+01 | 1486373036.87587 | pgbench_branches |          1466368

 2017-02-06 10:23:57.944221+01 | 1486373037.94422 | pgbench_accounts |       1390772224
 2017-02-06 10:23:57.944221+01 | 1486373037.94422 | pgbench_tellers  |          2170880
 2017-02-06 10:23:57.944221+01 | 1486373037.94422 | pgbench_history  |         31694848
 2017-02-06 10:23:57.944221+01 | 1486373037.94422 | pgbench_branches |          1466368

 2017-02-06 10:23:59.012211+01 | 1486373039.01221 | pgbench_accounts |       1390772224
 2017-02-06 10:23:59.012211+01 | 1486373039.01221 | pgbench_tellers  |          2170880
 2017-02-06 10:23:59.012211+01 | 1486373039.01221 | pgbench_history  |         32292864
 2017-02-06 10:23:59.012211+01 | 1486373039.01221 | pgbench_branches |          1466368

 2017-02-06 10:24:00.092885+01 | 1486373040.09289 | pgbench_accounts |       1390772224
 2017-02-06 10:24:00.092885+01 | 1486373040.09289 | pgbench_tellers  |          2170880
 2017-02-06 10:24:00.092885+01 | 1486373040.09289 | pgbench_history  |         32874496
 2017-02-06 10:24:00.092885+01 | 1486373040.09289 | pgbench_branches |          1466368

 2017-02-06 10:24:01.171686+01 | 1486373041.17169 | pgbench_accounts |       1390772224
 2017-02-06 10:24:01.171686+01 | 1486373041.17169 | pgbench_tellers  |          2170880
 2017-02-06 10:24:01.171686+01 | 1486373041.17169 | pgbench_history  |         33464320
 2017-02-06 10:24:01.171686+01 | 1486373041.17169 | pgbench_branches |          1466368

 2017-02-06 10:24:02.242576+01 | 1486373042.24258 | pgbench_accounts |       1390772224
 2017-02-06 10:24:02.242576+01 | 1486373042.24258 | pgbench_tellers  |          2170880
 2017-02-06 10:24:02.242576+01 | 1486373042.24258 | pgbench_history  |         34168832
 2017-02-06 10:24:02.242576+01 | 1486373042.24258 | pgbench_branches |          1466368

 2017-02-06 10:24:03.335521+01 | 1486373043.33552 | pgbench_accounts |       1390772224
 2017-02-06 10:24:03.335521+01 | 1486373043.33552 | pgbench_tellers  |          2170880
 2017-02-06 10:24:03.335521+01 | 1486373043.33552 | pgbench_history  |         35045376
 2017-02-06 10:24:03.335521+01 | 1486373043.33552 | pgbench_branches |          1466368

 2017-02-06 10:24:04.418635+01 | 1486373044.41863 | pgbench_accounts |       1390772224
 2017-02-06 10:24:04.418635+01 | 1486373044.41863 | pgbench_tellers  |          2170880
 2017-02-06 10:24:04.418635+01 | 1486373044.41863 | pgbench_history  |         35422208
 2017-02-06 10:24:04.418635+01 | 1486373044.41863 | pgbench_branches |          1466368

 2017-02-06 10:24:05.488872+01 | 1486373045.48887 | pgbench_accounts |       1390772224
 2017-02-06 10:24:05.488872+01 | 1486373045.48887 | pgbench_tellers  |          2170880
 2017-02-06 10:24:05.488872+01 | 1486373045.48887 | pgbench_history  |         36020224
 2017-02-06 10:24:05.488872+01 | 1486373045.48887 | pgbench_branches |          1466368

 2017-02-06 10:24:06.556941+01 | 1486373046.55694 | pgbench_accounts |       1390772224
 2017-02-06 10:24:06.556941+01 | 1486373046.55694 | pgbench_tellers  |          2170880
 2017-02-06 10:24:06.556941+01 | 1486373046.55694 | pgbench_history  |         36536320
 2017-02-06 10:24:06.556941+01 | 1486373046.55694 | pgbench_branches |          1466368

 2017-02-06 10:24:07.622703+01 | 1486373047.6227 | pgbench_accounts |       1390772224
 2017-02-06 10:24:07.622703+01 | 1486373047.6227 | pgbench_tellers  |          2170880
 2017-02-06 10:24:07.622703+01 | 1486373047.6227 | pgbench_history  |         37298176
 2017-02-06 10:24:07.622703+01 | 1486373047.6227 | pgbench_branches |          1466368

 2017-02-06 10:24:08.691226+01 | 1486373048.69123 | pgbench_accounts |       1390772224
 2017-02-06 10:24:08.691226+01 | 1486373048.69123 | pgbench_tellers  |          2170880
 2017-02-06 10:24:08.691226+01 | 1486373048.69123 | pgbench_history  |         37912576
 2017-02-06 10:24:08.691226+01 | 1486373048.69123 | pgbench_branches |          1466368

 2017-02-06 10:24:09.767827+01 | 1486373049.76783 | pgbench_accounts |       1390772224
 2017-02-06 10:24:09.767827+01 | 1486373049.76783 | pgbench_tellers  |          2170880
 2017-02-06 10:24:09.767827+01 | 1486373049.76783 | pgbench_history  |         38805504
 2017-02-06 10:24:09.767827+01 | 1486373049.76783 | pgbench_branches |          1466368

 2017-02-06 10:24:10.83808+01 | 1486373050.83808 | pgbench_accounts |       1390772224
 2017-02-06 10:24:10.83808+01 | 1486373050.83808 | pgbench_tellers  |          2170880
 2017-02-06 10:24:10.83808+01 | 1486373050.83808 | pgbench_history  |         39043072
 2017-02-06 10:24:10.83808+01 | 1486373050.83808 | pgbench_branches |          1466368

 2017-02-06 10:24:11.905342+01 | 1486373051.90534 | pgbench_accounts |       1390772224
 2017-02-06 10:24:11.905342+01 | 1486373051.90534 | pgbench_tellers  |          2170880
 2017-02-06 10:24:11.905342+01 | 1486373051.90534 | pgbench_history  |         39641088
 2017-02-06 10:24:11.905342+01 | 1486373051.90534 | pgbench_branches |          1466368

 2017-02-06 10:24:12.974806+01 | 1486373052.97481 | pgbench_accounts |       1390772224
 2017-02-06 10:24:12.974806+01 | 1486373052.97481 | pgbench_tellers  |          2170880
 2017-02-06 10:24:12.974806+01 | 1486373052.97481 | pgbench_history  |         40189952
 2017-02-06 10:24:12.974806+01 | 1486373052.97481 | pgbench_branches |          1466368

 2017-02-06 10:24:14.05144+01 | 1486373054.05144 | pgbench_accounts |       1390772224
 2017-02-06 10:24:14.05144+01 | 1486373054.05144 | pgbench_tellers  |          2170880
 2017-02-06 10:24:14.05144+01 | 1486373054.05144 | pgbench_history  |         40943616
 2017-02-06 10:24:14.05144+01 | 1486373054.05144 | pgbench_branches |          1466368

 2017-02-06 10:24:15.134683+01 | 1486373055.13468 | pgbench_accounts |       1390772224
 2017-02-06 10:24:15.134683+01 | 1486373055.13468 | pgbench_tellers  |          2170880
 2017-02-06 10:24:15.134683+01 | 1486373055.13468 | pgbench_history  |         41500672
 2017-02-06 10:24:15.134683+01 | 1486373055.13468 | pgbench_branches |          1466368

 2017-02-06 10:24:16.213709+01 | 1486373056.21371 | pgbench_accounts |       1390772224
 2017-02-06 10:24:16.213709+01 | 1486373056.21371 | pgbench_tellers  |          2170880
 2017-02-06 10:24:16.213709+01 | 1486373056.21371 | pgbench_history  |         42090496
 2017-02-06 10:24:16.213709+01 | 1486373056.21371 | pgbench_branches |          1466368

 2017-02-06 10:24:17.281721+01 | 1486373057.28172 | pgbench_accounts |       1390772224
 2017-02-06 10:24:17.281721+01 | 1486373057.28172 | pgbench_tellers  |          2170880
 2017-02-06 10:24:17.281721+01 | 1486373057.28172 | pgbench_history  |         42524672
 2017-02-06 10:24:17.281721+01 | 1486373057.28172 | pgbench_branches |          1466368

 2017-02-06 10:24:18.357167+01 | 1486373058.35717 | pgbench_accounts |       1390772224
 2017-02-06 10:24:18.357167+01 | 1486373058.35717 | pgbench_tellers  |          2170880
 2017-02-06 10:24:18.357167+01 | 1486373058.35717 | pgbench_history  |         43147264
 2017-02-06 10:24:18.357167+01 | 1486373058.35717 | pgbench_branches |          1466368

 2017-02-06 10:24:19.441203+01 | 1486373059.4412 | pgbench_accounts |       1390772224
 2017-02-06 10:24:19.441203+01 | 1486373059.4412 | pgbench_tellers  |          2170880
 2017-02-06 10:24:19.441203+01 | 1486373059.4412 | pgbench_history  |         43892736
 2017-02-06 10:24:19.441203+01 | 1486373059.4412 | pgbench_branches |          1466368

 2017-02-06 10:24:20.521297+01 | 1486373060.5213 | pgbench_accounts |       1390772224
 2017-02-06 10:24:20.521297+01 | 1486373060.5213 | pgbench_tellers  |          2170880
 2017-02-06 10:24:20.521297+01 | 1486373060.5213 | pgbench_history  |         44482560
 2017-02-06 10:24:20.521297+01 | 1486373060.5213 | pgbench_branches |          1466368

 2017-02-06 10:24:21.607221+01 | 1486373061.60722 | pgbench_accounts |       1390772224
 2017-02-06 10:24:21.607221+01 | 1486373061.60722 | pgbench_tellers  |          2170880
 2017-02-06 10:24:21.607221+01 | 1486373061.60722 | pgbench_history  |         44949504
 2017-02-06 10:24:21.607221+01 | 1486373061.60722 | pgbench_branches |          1466368

 2017-02-06 10:24:22.695056+01 | 1486373062.69506 | pgbench_accounts |       1390772224
 2017-02-06 10:24:22.695056+01 | 1486373062.69506 | pgbench_tellers  |          2170880
 2017-02-06 10:24:22.695056+01 | 1486373062.69506 | pgbench_history  |         45580288
 2017-02-06 10:24:22.695056+01 | 1486373062.69506 | pgbench_branches |          1466368

 2017-02-06 10:24:23.776996+01 | 1486373063.777 | pgbench_accounts |       1390772224
 2017-02-06 10:24:23.776996+01 | 1486373063.777 | pgbench_tellers  |          2170880
 2017-02-06 10:24:23.776996+01 | 1486373063.777 | pgbench_history  |         46194688
 2017-02-06 10:24:23.776996+01 | 1486373063.777 | pgbench_branches |          1466368

 2017-02-06 10:24:24.852551+01 | 1486373064.85255 | pgbench_accounts |       1390772224
 2017-02-06 10:24:24.852551+01 | 1486373064.85255 | pgbench_tellers  |          2170880
 2017-02-06 10:24:24.852551+01 | 1486373064.85255 | pgbench_history  |         46948352
 2017-02-06 10:24:24.852551+01 | 1486373064.85255 | pgbench_branches |          1466368

 2017-02-06 10:24:25.939543+01 | 1486373065.93954 | pgbench_accounts |       1390772224
 2017-02-06 10:24:25.939543+01 | 1486373065.93954 | pgbench_tellers  |          2170880
 2017-02-06 10:24:25.939543+01 | 1486373065.93954 | pgbench_history  |         47669248
 2017-02-06 10:24:25.939543+01 | 1486373065.93954 | pgbench_branches |          1466368

 2017-02-06 10:24:27.022802+01 | 1486373067.0228 | pgbench_accounts |       1390772224
 2017-02-06 10:24:27.022802+01 | 1486373067.0228 | pgbench_tellers  |          2170880
 2017-02-06 10:24:27.022802+01 | 1486373067.0228 | pgbench_history  |         48054272
 2017-02-06 10:24:27.022802+01 | 1486373067.0228 | pgbench_branches |          1466368

 2017-02-06 10:24:28.09721+01 | 1486373068.09721 | pgbench_accounts |       1390772224
 2017-02-06 10:24:28.09721+01 | 1486373068.09721 | pgbench_tellers  |          2170880
 2017-02-06 10:24:28.09721+01 | 1486373068.09721 | pgbench_history  |         48603136
 2017-02-06 10:24:28.09721+01 | 1486373068.09721 | pgbench_branches |          1466368

 2017-02-06 10:24:29.175919+01 | 1486373069.17592 | pgbench_accounts |       1390772224
 2017-02-06 10:24:29.175919+01 | 1486373069.17592 | pgbench_tellers  |          2170880
 2017-02-06 10:24:29.175919+01 | 1486373069.17592 | pgbench_history  |         49217536
 2017-02-06 10:24:29.175919+01 | 1486373069.17592 | pgbench_branches |          1466368

 2017-02-06 10:24:30.258712+01 | 1486373070.25871 | pgbench_accounts |       1390772224
 2017-02-06 10:24:30.258712+01 | 1486373070.25871 | pgbench_tellers  |          2170880
 2017-02-06 10:24:30.258712+01 | 1486373070.25871 | pgbench_history  |         49995776
 2017-02-06 10:24:30.258712+01 | 1486373070.25871 | pgbench_branches |          1466368

 2017-02-06 10:24:31.335316+01 | 1486373071.33532 | pgbench_accounts |       1390772224
 2017-02-06 10:24:31.335316+01 | 1486373071.33532 | pgbench_tellers  |          2170880
 2017-02-06 10:24:31.335316+01 | 1486373071.33532 | pgbench_history  |         50413568
 2017-02-06 10:24:31.335316+01 | 1486373071.33532 | pgbench_branches |          1466368

 2017-02-06 10:24:32.41707+01 | 1486373072.41707 | pgbench_accounts |       1390772224
 2017-02-06 10:24:32.41707+01 | 1486373072.41707 | pgbench_tellers  |          2170880
 2017-02-06 10:24:32.41707+01 | 1486373072.41707 | pgbench_history  |         50978816
 2017-02-06 10:24:32.41707+01 | 1486373072.41707 | pgbench_branches |          1466368

 2017-02-06 10:24:33.493281+01 | 1486373073.49328 | pgbench_accounts |       1390772224
 2017-02-06 10:24:33.493281+01 | 1486373073.49328 | pgbench_tellers  |          2170880
 2017-02-06 10:24:33.493281+01 | 1486373073.49328 | pgbench_history  |         51781632
 2017-02-06 10:24:33.493281+01 | 1486373073.49328 | pgbench_branches |          1466368

 2017-02-06 10:24:34.575111+01 | 1486373074.57511 | pgbench_accounts |       1390772224
 2017-02-06 10:24:34.575111+01 | 1486373074.57511 | pgbench_tellers  |          2170880
 2017-02-06 10:24:34.575111+01 | 1486373074.57511 | pgbench_history  |         52207616
 2017-02-06 10:24:34.575111+01 | 1486373074.57511 | pgbench_branches |          1466368

 2017-02-06 10:24:35.656105+01 | 1486373075.65611 | pgbench_accounts |       1390772224
 2017-02-06 10:24:35.656105+01 | 1486373075.65611 | pgbench_tellers  |          2170880
 2017-02-06 10:24:35.656105+01 | 1486373075.65611 | pgbench_history  |         53141504
 2017-02-06 10:24:35.656105+01 | 1486373075.65611 | pgbench_branches |          1466368

 2017-02-06 10:24:36.729107+01 | 1486373076.72911 | pgbench_accounts |       1390772224
 2017-02-06 10:24:36.729107+01 | 1486373076.72911 | pgbench_tellers  |          2170880
 2017-02-06 10:24:36.729107+01 | 1486373076.72911 | pgbench_history  |         53559296
 2017-02-06 10:24:36.729107+01 | 1486373076.72911 | pgbench_branches |          1466368

 2017-02-06 10:24:37.808771+01 | 1486373077.80877 | pgbench_accounts |       1390772224
 2017-02-06 10:24:37.808771+01 | 1486373077.80877 | pgbench_tellers  |          2170880
 2017-02-06 10:24:37.808771+01 | 1486373077.80877 | pgbench_history  |         53977088
 2017-02-06 10:24:37.808771+01 | 1486373077.80877 | pgbench_branches |          1466368

 2017-02-06 10:24:38.891351+01 | 1486373078.89135 | pgbench_accounts |       1390772224
 2017-02-06 10:24:38.891351+01 | 1486373078.89135 | pgbench_tellers  |          2170880
 2017-02-06 10:24:38.891351+01 | 1486373078.89135 | pgbench_history  |         54738944
 2017-02-06 10:24:38.891351+01 | 1486373078.89135 | pgbench_branches |          1466368

 2017-02-06 10:24:39.970555+01 | 1486373079.97056 | pgbench_accounts |       1390772224
 2017-02-06 10:24:39.970555+01 | 1486373079.97056 | pgbench_tellers  |          2170880
 2017-02-06 10:24:39.970555+01 | 1486373079.97056 | pgbench_history  |         55443456
 2017-02-06 10:24:39.970555+01 | 1486373079.97056 | pgbench_branches |          1466368

 2017-02-06 10:24:41.051971+01 | 1486373081.05197 | pgbench_accounts |       1390772224
 2017-02-06 10:24:41.051971+01 | 1486373081.05197 | pgbench_tellers  |          2170880
 2017-02-06 10:24:41.051971+01 | 1486373081.05197 | pgbench_history  |         55975936
 2017-02-06 10:24:41.051971+01 | 1486373081.05197 | pgbench_branches |          1466368

 2017-02-06 10:24:42.136324+01 | 1486373082.13632 | pgbench_accounts |       1390772224
 2017-02-06 10:24:42.136324+01 | 1486373082.13632 | pgbench_tellers  |          2170880
 2017-02-06 10:24:42.136324+01 | 1486373082.13632 | pgbench_history  |         56532992
 2017-02-06 10:24:42.136324+01 | 1486373082.13632 | pgbench_branches |          1466368

 2017-02-06 10:24:43.215581+01 | 1486373083.21558 | pgbench_accounts |       1390772224
 2017-02-06 10:24:43.215581+01 | 1486373083.21558 | pgbench_tellers  |          2170880
 2017-02-06 10:24:43.215581+01 | 1486373083.21558 | pgbench_history  |         56860672
 2017-02-06 10:24:43.215581+01 | 1486373083.21558 | pgbench_branches |          1466368

 2017-02-06 10:24:44.285041+01 | 1486373084.28504 | pgbench_accounts |       1390772224
 2017-02-06 10:24:44.285041+01 | 1486373084.28504 | pgbench_tellers  |          2170880
 2017-02-06 10:24:44.285041+01 | 1486373084.28504 | pgbench_history  |         57475072
 2017-02-06 10:24:44.285041+01 | 1486373084.28504 | pgbench_branches |          1466368

 2017-02-06 10:24:45.362125+01 | 1486373085.36212 | pgbench_accounts |       1390772224
 2017-02-06 10:24:45.362125+01 | 1486373085.36212 | pgbench_tellers  |          2170880
 2017-02-06 10:24:45.362125+01 | 1486373085.36212 | pgbench_history  |         57958400
 2017-02-06 10:24:45.362125+01 | 1486373085.36212 | pgbench_branches |          1466368

 2017-02-06 10:24:46.434851+01 | 1486373086.43485 | pgbench_accounts |       1390772224
 2017-02-06 10:24:46.434851+01 | 1486373086.43485 | pgbench_tellers  |          2170880
 2017-02-06 10:24:46.434851+01 | 1486373086.43485 | pgbench_history  |         58499072
 2017-02-06 10:24:46.434851+01 | 1486373086.43485 | pgbench_branches |          1466368

 2017-02-06 10:24:47.521492+01 | 1486373087.52149 | pgbench_accounts |       1390772224
 2017-02-06 10:24:47.521492+01 | 1486373087.52149 | pgbench_tellers  |          2170880
 2017-02-06 10:24:47.521492+01 | 1486373087.52149 | pgbench_history  |         59080704
 2017-02-06 10:24:47.521492+01 | 1486373087.52149 | pgbench_branches |          1466368

 2017-02-06 10:24:48.590576+01 | 1486373088.59058 | pgbench_accounts |       1390772224
 2017-02-06 10:24:48.590576+01 | 1486373088.59058 | pgbench_tellers  |          2170880
 2017-02-06 10:24:48.590576+01 | 1486373088.59058 | pgbench_history  |         59613184
 2017-02-06 10:24:48.590576+01 | 1486373088.59058 | pgbench_branches |          1466368

 2017-02-06 10:24:49.673518+01 | 1486373089.67352 | pgbench_accounts |       1390772224
 2017-02-06 10:24:49.673518+01 | 1486373089.67352 | pgbench_tellers  |          2170880
 2017-02-06 10:24:49.673518+01 | 1486373089.67352 | pgbench_history  |         60137472
 2017-02-06 10:24:49.673518+01 | 1486373089.67352 | pgbench_branches |          1466368

 2017-02-06 10:24:50.758346+01 | 1486373090.75835 | pgbench_accounts |       1390772224
 2017-02-06 10:24:50.758346+01 | 1486373090.75835 | pgbench_tellers  |          2170880
 2017-02-06 10:24:50.758346+01 | 1486373090.75835 | pgbench_history  |         60710912
 2017-02-06 10:24:50.758346+01 | 1486373090.75835 | pgbench_branches |          1466368

 2017-02-06 10:24:51.843923+01 | 1486373091.84392 | pgbench_accounts |       1390772224
 2017-02-06 10:24:51.843923+01 | 1486373091.84392 | pgbench_tellers  |          2170880
 2017-02-06 10:24:51.843923+01 | 1486373091.84392 | pgbench_history  |         61308928
 2017-02-06 10:24:51.843923+01 | 1486373091.84392 | pgbench_branches |          1466368

 2017-02-06 10:24:52.922462+01 | 1486373092.92246 | pgbench_accounts |       1390772224
 2017-02-06 10:24:52.922462+01 | 1486373092.92246 | pgbench_tellers  |          2170880
 2017-02-06 10:24:52.922462+01 | 1486373092.92246 | pgbench_history  |         61931520
 2017-02-06 10:24:52.922462+01 | 1486373092.92246 | pgbench_branches |          1466368

 2017-02-06 10:24:53.998318+01 | 1486373093.99832 | pgbench_accounts |       1390772224
 2017-02-06 10:24:53.998318+01 | 1486373093.99832 | pgbench_tellers  |          2170880
 2017-02-06 10:24:53.998318+01 | 1486373093.99832 | pgbench_history  |         62554112
 2017-02-06 10:24:53.998318+01 | 1486373093.99832 | pgbench_branches |          1466368

 2017-02-06 10:24:55.079154+01 | 1486373095.07915 | pgbench_accounts |       1390772224
 2017-02-06 10:24:55.079154+01 | 1486373095.07915 | pgbench_tellers  |          2170880
 2017-02-06 10:24:55.079154+01 | 1486373095.07915 | pgbench_history  |         63184896
 2017-02-06 10:24:55.079154+01 | 1486373095.07915 | pgbench_branches |          1466368

 2017-02-06 10:24:56.163471+01 | 1486373096.16347 | pgbench_accounts |       1390772224
 2017-02-06 10:24:56.163471+01 | 1486373096.16347 | pgbench_tellers  |          2170880
 2017-02-06 10:24:56.163471+01 | 1486373096.16347 | pgbench_history  |         63791104
 2017-02-06 10:24:56.163471+01 | 1486373096.16347 | pgbench_branches |          1466368

 2017-02-06 10:24:57.237976+01 | 1486373097.23798 | pgbench_accounts |       1390772224
 2017-02-06 10:24:57.237976+01 | 1486373097.23798 | pgbench_tellers  |          2170880
 2017-02-06 10:24:57.237976+01 | 1486373097.23798 | pgbench_history  |         64397312
 2017-02-06 10:24:57.237976+01 | 1486373097.23798 | pgbench_branches |          1466368

 2017-02-06 10:24:58.31606+01 | 1486373098.31606 | pgbench_accounts |       1390772224
 2017-02-06 10:24:58.31606+01 | 1486373098.31606 | pgbench_tellers  |          2170880
 2017-02-06 10:24:58.31606+01 | 1486373098.31606 | pgbench_history  |         65003520
 2017-02-06 10:24:58.31606+01 | 1486373098.31606 | pgbench_branches |          1466368

 2017-02-06 10:24:59.391033+01 | 1486373099.39103 | pgbench_accounts |       1390772224
 2017-02-06 10:24:59.391033+01 | 1486373099.39103 | pgbench_tellers  |          2170880
 2017-02-06 10:24:59.391033+01 | 1486373099.39103 | pgbench_history  |         65617920
 2017-02-06 10:24:59.391033+01 | 1486373099.39103 | pgbench_branches |          1466368

 2017-02-06 10:25:00.466818+01 | 1486373100.46682 | pgbench_accounts |       1390772224
 2017-02-06 10:25:00.466818+01 | 1486373100.46682 | pgbench_tellers  |          2170880
 2017-02-06 10:25:00.466818+01 | 1486373100.46682 | pgbench_history  |         66256896
 2017-02-06 10:25:00.466818+01 | 1486373100.46682 | pgbench_branches |          1466368

 2017-02-06 10:25:01.539972+01 | 1486373101.53997 | pgbench_accounts |       1390772224
 2017-02-06 10:25:01.539972+01 | 1486373101.53997 | pgbench_tellers  |          2170880
 2017-02-06 10:25:01.539972+01 | 1486373101.53997 | pgbench_history  |         66863104
 2017-02-06 10:25:01.539972+01 | 1486373101.53997 | pgbench_branches |          1466368

 2017-02-06 10:25:02.616787+01 | 1486373102.61679 | pgbench_accounts |       1390772224
 2017-02-06 10:25:02.616787+01 | 1486373102.61679 | pgbench_tellers  |          2170880
 2017-02-06 10:25:02.616787+01 | 1486373102.61679 | pgbench_history  |         67624960
 2017-02-06 10:25:02.616787+01 | 1486373102.61679 | pgbench_branches |          1466368

 2017-02-06 10:25:03.707543+01 | 1486373103.70754 | pgbench_accounts |       1390772224
 2017-02-06 10:25:03.707543+01 | 1486373103.70754 | pgbench_tellers  |          2170880
 2017-02-06 10:25:03.707543+01 | 1486373103.70754 | pgbench_history  |         68304896
 2017-02-06 10:25:03.707543+01 | 1486373103.70754 | pgbench_branches |          1466368

 2017-02-06 10:25:04.784717+01 | 1486373104.78472 | pgbench_accounts |       1390772224
 2017-02-06 10:25:04.784717+01 | 1486373104.78472 | pgbench_tellers  |          2170880
 2017-02-06 10:25:04.784717+01 | 1486373104.78472 | pgbench_history  |         68755456
 2017-02-06 10:25:04.784717+01 | 1486373104.78472 | pgbench_branches |          1466368

 2017-02-06 10:25:05.852855+01 | 1486373105.85285 | pgbench_accounts |       1390772224
 2017-02-06 10:25:05.852855+01 | 1486373105.85285 | pgbench_tellers  |          2170880
 2017-02-06 10:25:05.852855+01 | 1486373105.85285 | pgbench_history  |         69361664
 2017-02-06 10:25:05.852855+01 | 1486373105.85285 | pgbench_branches |          1466368

 2017-02-06 10:25:06.919759+01 | 1486373106.91976 | pgbench_accounts |       1390772224
 2017-02-06 10:25:06.919759+01 | 1486373106.91976 | pgbench_tellers  |          2170880
 2017-02-06 10:25:06.919759+01 | 1486373106.91976 | pgbench_history  |         69951488
 2017-02-06 10:25:06.919759+01 | 1486373106.91976 | pgbench_branches |          1466368

 2017-02-06 10:25:07.996782+01 | 1486373107.99678 | pgbench_accounts |       1390772224
 2017-02-06 10:25:07.996782+01 | 1486373107.99678 | pgbench_tellers  |          2170880
 2017-02-06 10:25:07.996782+01 | 1486373107.99678 | pgbench_history  |         70557696
 2017-02-06 10:25:07.996782+01 | 1486373107.99678 | pgbench_branches |          1466368

 2017-02-06 10:25:09.084266+01 | 1486373109.08427 | pgbench_accounts |       1390772224
 2017-02-06 10:25:09.084266+01 | 1486373109.08427 | pgbench_tellers  |          2170880
 2017-02-06 10:25:09.084266+01 | 1486373109.08427 | pgbench_history  |         71188480
 2017-02-06 10:25:09.084266+01 | 1486373109.08427 | pgbench_branches |          1466368

 2017-02-06 10:25:10.162693+01 | 1486373110.16269 | pgbench_accounts |       1390772224
 2017-02-06 10:25:10.162693+01 | 1486373110.16269 | pgbench_tellers  |          2170880
 2017-02-06 10:25:10.162693+01 | 1486373110.16269 | pgbench_history  |         71819264
 2017-02-06 10:25:10.162693+01 | 1486373110.16269 | pgbench_branches |          1466368

 2017-02-06 10:25:11.241961+01 | 1486373111.24196 | pgbench_accounts |       1390772224
 2017-02-06 10:25:11.241961+01 | 1486373111.24196 | pgbench_tellers  |          2170880
 2017-02-06 10:25:11.241961+01 | 1486373111.24196 | pgbench_history  |         72523776
 2017-02-06 10:25:11.241961+01 | 1486373111.24196 | pgbench_branches |          1466368

 2017-02-06 10:25:12.310955+01 | 1486373112.31096 | pgbench_accounts |       1390772224
 2017-02-06 10:25:12.310955+01 | 1486373112.31096 | pgbench_tellers  |          2170880
 2017-02-06 10:25:12.310955+01 | 1486373112.31096 | pgbench_history  |         73113600
 2017-02-06 10:25:12.310955+01 | 1486373112.31096 | pgbench_branches |          1466368

 2017-02-06 10:25:13.391334+01 | 1486373113.39133 | pgbench_accounts |       1390772224
 2017-02-06 10:25:13.391334+01 | 1486373113.39133 | pgbench_tellers  |          2170880
 2017-02-06 10:25:13.391334+01 | 1486373113.39133 | pgbench_history  |         74342400
 2017-02-06 10:25:13.391334+01 | 1486373113.39133 | pgbench_branches |          1466368

 2017-02-06 10:25:14.458452+01 | 1486373114.45845 | pgbench_accounts |       1390772224
 2017-02-06 10:25:14.458452+01 | 1486373114.45845 | pgbench_tellers  |          2170880
 2017-02-06 10:25:14.458452+01 | 1486373114.45845 | pgbench_history  |         74342400
 2017-02-06 10:25:14.458452+01 | 1486373114.45845 | pgbench_branches |          1466368

 2017-02-06 10:25:15.536241+01 | 1486373115.53624 | pgbench_accounts |       1390772224
 2017-02-06 10:25:15.536241+01 | 1486373115.53624 | pgbench_tellers  |          2170880
 2017-02-06 10:25:15.536241+01 | 1486373115.53624 | pgbench_history  |         75096064
 2017-02-06 10:25:15.536241+01 | 1486373115.53624 | pgbench_branches |          1466368

 2017-02-06 10:25:16.610926+01 | 1486373116.61093 | pgbench_accounts |       1390772224
 2017-02-06 10:25:16.610926+01 | 1486373116.61093 | pgbench_tellers  |          2170880
 2017-02-06 10:25:16.610926+01 | 1486373116.61093 | pgbench_history  |         75497472
 2017-02-06 10:25:16.610926+01 | 1486373116.61093 | pgbench_branches |          1466368

 2017-02-06 10:25:17.682985+01 | 1486373117.68299 | pgbench_accounts |       1390772224
 2017-02-06 10:25:17.682985+01 | 1486373117.68299 | pgbench_tellers  |          2170880
 2017-02-06 10:25:17.682985+01 | 1486373117.68299 | pgbench_history  |         76144640
 2017-02-06 10:25:17.682985+01 | 1486373117.68299 | pgbench_branches |          1466368

 2017-02-06 10:25:18.75682+01 | 1486373118.75682 | pgbench_accounts |       1390772224
 2017-02-06 10:25:18.75682+01 | 1486373118.75682 | pgbench_tellers  |          2170880
 2017-02-06 10:25:18.75682+01 | 1486373118.75682 | pgbench_history  |         76718080
 2017-02-06 10:25:18.75682+01 | 1486373118.75682 | pgbench_branches |          1466368

 2017-02-06 10:25:19.835321+01 | 1486373119.83532 | pgbench_accounts |       1390772224
 2017-02-06 10:25:19.835321+01 | 1486373119.83532 | pgbench_tellers  |          2170880
 2017-02-06 10:25:19.835321+01 | 1486373119.83532 | pgbench_history  |         77479936
 2017-02-06 10:25:19.835321+01 | 1486373119.83532 | pgbench_branches |          1466368

 2017-02-06 10:25:20.915997+01 | 1486373120.916 | pgbench_accounts |       1390772224
 2017-02-06 10:25:20.915997+01 | 1486373120.916 | pgbench_tellers  |          2170880
 2017-02-06 10:25:20.915997+01 | 1486373120.916 | pgbench_history  |         78045184
 2017-02-06 10:25:20.915997+01 | 1486373120.916 | pgbench_branches |          1466368

 2017-02-06 10:25:21.998935+01 | 1486373121.99893 | pgbench_accounts |       1390772224
 2017-02-06 10:25:21.998935+01 | 1486373121.99893 | pgbench_tellers  |          2170880
 2017-02-06 10:25:21.998935+01 | 1486373121.99893 | pgbench_history  |         78610432
 2017-02-06 10:25:21.998935+01 | 1486373121.99893 | pgbench_branches |          1466368

 2017-02-06 10:25:23.084023+01 | 1486373123.08402 | pgbench_accounts |       1390772224
 2017-02-06 10:25:23.084023+01 | 1486373123.08402 | pgbench_tellers  |          2170880
 2017-02-06 10:25:23.084023+01 | 1486373123.08402 | pgbench_history  |         79192064
 2017-02-06 10:25:23.084023+01 | 1486373123.08402 | pgbench_branches |          1466368

 2017-02-06 10:25:24.164283+01 | 1486373124.16428 | pgbench_accounts |       1390772224
 2017-02-06 10:25:24.164283+01 | 1486373124.16428 | pgbench_tellers  |          2170880
 2017-02-06 10:25:24.164283+01 | 1486373124.16428 | pgbench_history  |         80125952
 2017-02-06 10:25:24.164283+01 | 1486373124.16428 | pgbench_branches |          1466368

 2017-02-06 10:25:25.245639+01 | 1486373125.24564 | pgbench_accounts |       1390772224
 2017-02-06 10:25:25.245639+01 | 1486373125.24564 | pgbench_tellers  |          2170880
 2017-02-06 10:25:25.245639+01 | 1486373125.24564 | pgbench_history  |         80445440
 2017-02-06 10:25:25.245639+01 | 1486373125.24564 | pgbench_branches |          1466368

 2017-02-06 10:25:26.324686+01 | 1486373126.32469 | pgbench_accounts |       1390772224
 2017-02-06 10:25:26.324686+01 | 1486373126.32469 | pgbench_tellers  |          2170880
 2017-02-06 10:25:26.324686+01 | 1486373126.32469 | pgbench_history  |         81043456
 2017-02-06 10:25:26.324686+01 | 1486373126.32469 | pgbench_branches |          1466368

 2017-02-06 10:25:27.410489+01 | 1486373127.41049 | pgbench_accounts |       1390772224
 2017-02-06 10:25:27.410489+01 | 1486373127.41049 | pgbench_tellers  |          2170880
 2017-02-06 10:25:27.410489+01 | 1486373127.41049 | pgbench_history  |         81649664
 2017-02-06 10:25:27.410489+01 | 1486373127.41049 | pgbench_branches |          1466368

 2017-02-06 10:25:28.49578+01 | 1486373128.49578 | pgbench_accounts |       1390772224
 2017-02-06 10:25:28.49578+01 | 1486373128.49578 | pgbench_tellers  |          2170880
 2017-02-06 10:25:28.49578+01 | 1486373128.49578 | pgbench_history  |         82305024
 2017-02-06 10:25:28.49578+01 | 1486373128.49578 | pgbench_branches |          1466368

 2017-02-06 10:25:29.570774+01 | 1486373129.57077 | pgbench_accounts |       1390772224
 2017-02-06 10:25:29.570774+01 | 1486373129.57077 | pgbench_tellers  |          2170880
 2017-02-06 10:25:29.570774+01 | 1486373129.57077 | pgbench_history  |         82886656
 2017-02-06 10:25:29.570774+01 | 1486373129.57077 | pgbench_branches |          1466368

 2017-02-06 10:25:30.649022+01 | 1486373130.64902 | pgbench_accounts |       1390772224
 2017-02-06 10:25:30.649022+01 | 1486373130.64902 | pgbench_tellers  |          2170880
 2017-02-06 10:25:30.649022+01 | 1486373130.64902 | pgbench_history  |         83484672
 2017-02-06 10:25:30.649022+01 | 1486373130.64902 | pgbench_branches |          1466368

 2017-02-06 10:25:31.732337+01 | 1486373131.73234 | pgbench_accounts |       1390772224
 2017-02-06 10:25:31.732337+01 | 1486373131.73234 | pgbench_tellers  |          2170880
 2017-02-06 10:25:31.732337+01 | 1486373131.73234 | pgbench_history  |         84107264
 2017-02-06 10:25:31.732337+01 | 1486373131.73234 | pgbench_branches |          1466368

 2017-02-06 10:25:32.802456+01 | 1486373132.80246 | pgbench_accounts |       1390772224
 2017-02-06 10:25:32.802456+01 | 1486373132.80246 | pgbench_tellers  |          2170880
 2017-02-06 10:25:32.802456+01 | 1486373132.80246 | pgbench_history  |         84713472
 2017-02-06 10:25:32.802456+01 | 1486373132.80246 | pgbench_branches |          1466368

 2017-02-06 10:25:33.891969+01 | 1486373133.89197 | pgbench_accounts |       1390772224
 2017-02-06 10:25:33.891969+01 | 1486373133.89197 | pgbench_tellers  |          2170880
 2017-02-06 10:25:33.891969+01 | 1486373133.89197 | pgbench_history  |         85786624
 2017-02-06 10:25:33.891969+01 | 1486373133.89197 | pgbench_branches |          1466368

 2017-02-06 10:25:34.966403+01 | 1486373134.9664 | pgbench_accounts |       1390772224
 2017-02-06 10:25:34.966403+01 | 1486373134.9664 | pgbench_tellers  |          2170880
 2017-02-06 10:25:34.966403+01 | 1486373134.9664 | pgbench_history  |         85975040
 2017-02-06 10:25:34.966403+01 | 1486373134.9664 | pgbench_branches |          1466368

 2017-02-06 10:25:36.054068+01 | 1486373136.05407 | pgbench_accounts |       1390772224
 2017-02-06 10:25:36.054068+01 | 1486373136.05407 | pgbench_tellers  |          2170880
 2017-02-06 10:25:36.054068+01 | 1486373136.05407 | pgbench_history  |         86548480
 2017-02-06 10:25:36.054068+01 | 1486373136.05407 | pgbench_branches |          1466368

 2017-02-06 10:25:37.149379+01 | 1486373137.14938 | pgbench_accounts |       1390772224
 2017-02-06 10:25:37.149379+01 | 1486373137.14938 | pgbench_tellers  |          2170880
 2017-02-06 10:25:37.149379+01 | 1486373137.14938 | pgbench_history  |         87187456
 2017-02-06 10:25:37.149379+01 | 1486373137.14938 | pgbench_branches |          1466368

 2017-02-06 10:25:38.241764+01 | 1486373138.24176 | pgbench_accounts |       1390772224
 2017-02-06 10:25:38.241764+01 | 1486373138.24176 | pgbench_tellers  |          2170880
 2017-02-06 10:25:38.241764+01 | 1486373138.24176 | pgbench_history  |         87793664
 2017-02-06 10:25:38.241764+01 | 1486373138.24176 | pgbench_branches |          1466368

 2017-02-06 10:25:39.327597+01 | 1486373139.3276 | pgbench_accounts |       1390772224
 2017-02-06 10:25:39.327597+01 | 1486373139.3276 | pgbench_tellers  |          2170880
 2017-02-06 10:25:39.327597+01 | 1486373139.3276 | pgbench_history  |         88399872
 2017-02-06 10:25:39.327597+01 | 1486373139.3276 | pgbench_branches |          1466368

 2017-02-06 10:25:40.400743+01 | 1486373140.40074 | pgbench_accounts |       1390772224
 2017-02-06 10:25:40.400743+01 | 1486373140.40074 | pgbench_tellers  |          2170880
 2017-02-06 10:25:40.400743+01 | 1486373140.40074 | pgbench_history  |         89006080
 2017-02-06 10:25:40.400743+01 | 1486373140.40074 | pgbench_branches |          1466368

 2017-02-06 10:25:41.481351+01 | 1486373141.48135 | pgbench_accounts |       1390772224
 2017-02-06 10:25:41.481351+01 | 1486373141.48135 | pgbench_tellers  |          2170880
 2017-02-06 10:25:41.481351+01 | 1486373141.48135 | pgbench_history  |         89612288
 2017-02-06 10:25:41.481351+01 | 1486373141.48135 | pgbench_branches |          1466368

 2017-02-06 10:25:42.570546+01 | 1486373142.57055 | pgbench_accounts |       1390772224
 2017-02-06 10:25:42.570546+01 | 1486373142.57055 | pgbench_tellers  |          2170880
 2017-02-06 10:25:42.570546+01 | 1486373142.57055 | pgbench_history  |         90210304
 2017-02-06 10:25:42.570546+01 | 1486373142.57055 | pgbench_branches |          1466368

 2017-02-06 10:25:43.658527+01 | 1486373143.65853 | pgbench_accounts |       1390772224
 2017-02-06 10:25:43.658527+01 | 1486373143.65853 | pgbench_tellers  |          2170880
 2017-02-06 10:25:43.658527+01 | 1486373143.65853 | pgbench_history  |         91136000
 2017-02-06 10:25:43.658527+01 | 1486373143.65853 | pgbench_branches |          1466368

 2017-02-06 10:25:44.737515+01 | 1486373144.73751 | pgbench_accounts |       1390772224
 2017-02-06 10:25:44.737515+01 | 1486373144.73751 | pgbench_tellers  |          2170880
 2017-02-06 10:25:44.737515+01 | 1486373144.73751 | pgbench_history  |         91553792
 2017-02-06 10:25:44.737515+01 | 1486373144.73751 | pgbench_branches |          1466368

 2017-02-06 10:25:45.807187+01 | 1486373145.80719 | pgbench_accounts |       1390772224
 2017-02-06 10:25:45.807187+01 | 1486373145.80719 | pgbench_tellers  |          2170880
 2017-02-06 10:25:45.807187+01 | 1486373145.80719 | pgbench_history  |         92135424
 2017-02-06 10:25:45.807187+01 | 1486373145.80719 | pgbench_branches |          1466368

 2017-02-06 10:25:46.88576+01 | 1486373146.88576 | pgbench_accounts |       1390772224
 2017-02-06 10:25:46.88576+01 | 1486373146.88576 | pgbench_tellers  |          2170880
 2017-02-06 10:25:46.88576+01 | 1486373146.88576 | pgbench_history  |         92749824
 2017-02-06 10:25:46.88576+01 | 1486373146.88576 | pgbench_branches |          1466368

 2017-02-06 10:25:47.960974+01 | 1486373147.96097 | pgbench_accounts |       1390772224
 2017-02-06 10:25:47.960974+01 | 1486373147.96097 | pgbench_tellers  |          2170880
 2017-02-06 10:25:47.960974+01 | 1486373147.96097 | pgbench_history  |         93331456
 2017-02-06 10:25:47.960974+01 | 1486373147.96097 | pgbench_branches |          1466368

 2017-02-06 10:25:49.033446+01 | 1486373149.03345 | pgbench_accounts |       1390772224
 2017-02-06 10:25:49.033446+01 | 1486373149.03345 | pgbench_tellers  |          2170880
 2017-02-06 10:25:49.033446+01 | 1486373149.03345 | pgbench_history  |         94396416
 2017-02-06 10:25:49.033446+01 | 1486373149.03345 | pgbench_branches |          1466368

 2017-02-06 10:25:50.111434+01 | 1486373150.11143 | pgbench_accounts |       1390772224
 2017-02-06 10:25:50.111434+01 | 1486373150.11143 | pgbench_tellers  |          2170880
 2017-02-06 10:25:50.111434+01 | 1486373150.11143 | pgbench_history  |         94748672
 2017-02-06 10:25:50.111434+01 | 1486373150.11143 | pgbench_branches |          1466368

 2017-02-06 10:25:51.188445+01 | 1486373151.18845 | pgbench_accounts |       1390772224
 2017-02-06 10:25:51.188445+01 | 1486373151.18845 | pgbench_tellers  |          2170880
 2017-02-06 10:25:51.188445+01 | 1486373151.18845 | pgbench_history  |         95297536
 2017-02-06 10:25:51.188445+01 | 1486373151.18845 | pgbench_branches |          1466368

 2017-02-06 10:25:52.262942+01 | 1486373152.26294 | pgbench_accounts |       1390772224
 2017-02-06 10:25:52.262942+01 | 1486373152.26294 | pgbench_tellers  |          2170880
 2017-02-06 10:25:52.262942+01 | 1486373152.26294 | pgbench_history  |         95911936
 2017-02-06 10:25:52.262942+01 | 1486373152.26294 | pgbench_branches |          1466368

 2017-02-06 10:25:53.344509+01 | 1486373153.34451 | pgbench_accounts |       1390772224
 2017-02-06 10:25:53.344509+01 | 1486373153.34451 | pgbench_tellers  |          2170880
 2017-02-06 10:25:53.344509+01 | 1486373153.34451 | pgbench_history  |         96272384
 2017-02-06 10:25:53.344509+01 | 1486373153.34451 | pgbench_branches |          1466368

 2017-02-06 10:25:54.428427+01 | 1486373154.42843 | pgbench_accounts |       1390772224
 2017-02-06 10:25:54.428427+01 | 1486373154.42843 | pgbench_tellers  |          2170880
 2017-02-06 10:25:54.428427+01 | 1486373154.42843 | pgbench_history  |         97247232
 2017-02-06 10:25:54.428427+01 | 1486373154.42843 | pgbench_branches |          1466368

 2017-02-06 10:25:55.514341+01 | 1486373155.51434 | pgbench_accounts |       1390772224
 2017-02-06 10:25:55.514341+01 | 1486373155.51434 | pgbench_tellers  |          2170880
 2017-02-06 10:25:55.514341+01 | 1486373155.51434 | pgbench_history  |         97681408
 2017-02-06 10:25:55.514341+01 | 1486373155.51434 | pgbench_branches |          1466368

 2017-02-06 10:25:56.603981+01 | 1486373156.60398 | pgbench_accounts |       1390772224
 2017-02-06 10:25:56.603981+01 | 1486373156.60398 | pgbench_tellers  |          2170880
 2017-02-06 10:25:56.603981+01 | 1486373156.60398 | pgbench_history  |         98467840
 2017-02-06 10:25:56.603981+01 | 1486373156.60398 | pgbench_branches |          1466368

 2017-02-06 10:25:57.678666+01 | 1486373157.67867 | pgbench_accounts |       1390772224
 2017-02-06 10:25:57.678666+01 | 1486373157.67867 | pgbench_tellers  |          2170880
 2017-02-06 10:25:57.678666+01 | 1486373157.67867 | pgbench_history  |         98893824
 2017-02-06 10:25:57.678666+01 | 1486373157.67867 | pgbench_branches |          1466368

 2017-02-06 10:25:58.761139+01 | 1486373158.76114 | pgbench_accounts |       1390772224
 2017-02-06 10:25:58.761139+01 | 1486373158.76114 | pgbench_tellers  |          2170880
 2017-02-06 10:25:58.761139+01 | 1486373158.76114 | pgbench_history  |         99377152
 2017-02-06 10:25:58.761139+01 | 1486373158.76114 | pgbench_branches |          1466368

 2017-02-06 10:25:59.838994+01 | 1486373159.83899 | pgbench_accounts |       1390772224
 2017-02-06 10:25:59.838994+01 | 1486373159.83899 | pgbench_tellers  |          2170880
 2017-02-06 10:25:59.838994+01 | 1486373159.83899 | pgbench_history  |        100024320
 2017-02-06 10:25:59.838994+01 | 1486373159.83899 | pgbench_branches |          1466368

 2017-02-06 10:26:00.912525+01 | 1486373160.91252 | pgbench_accounts |       1390772224
 2017-02-06 10:26:00.912525+01 | 1486373160.91252 | pgbench_tellers  |          2170880
 2017-02-06 10:26:00.912525+01 | 1486373160.91252 | pgbench_history  |        100630528
 2017-02-06 10:26:00.912525+01 | 1486373160.91252 | pgbench_branches |          1466368

 2017-02-06 10:26:01.995231+01 | 1486373161.99523 | pgbench_accounts |       1390772224
 2017-02-06 10:26:01.995231+01 | 1486373161.99523 | pgbench_tellers  |          2170880
 2017-02-06 10:26:01.995231+01 | 1486373161.99523 | pgbench_history  |        101236736
 2017-02-06 10:26:01.995231+01 | 1486373161.99523 | pgbench_branches |          1466368

 2017-02-06 10:26:03.072282+01 | 1486373163.07228 | pgbench_accounts |       1390772224
 2017-02-06 10:26:03.072282+01 | 1486373163.07228 | pgbench_tellers  |          2170880
 2017-02-06 10:26:03.072282+01 | 1486373163.07228 | pgbench_history  |        101892096
 2017-02-06 10:26:03.072282+01 | 1486373163.07228 | pgbench_branches |          1466368

 2017-02-06 10:26:04.15811+01 | 1486373164.15811 | pgbench_accounts |       1390772224
 2017-02-06 10:26:04.15811+01 | 1486373164.15811 | pgbench_tellers  |          2170880
 2017-02-06 10:26:04.15811+01 | 1486373164.15811 | pgbench_history  |        102621184
 2017-02-06 10:26:04.15811+01 | 1486373164.15811 | pgbench_branches |          1466368

 2017-02-06 10:26:05.239172+01 | 1486373165.23917 | pgbench_accounts |       1390772224
 2017-02-06 10:26:05.239172+01 | 1486373165.23917 | pgbench_tellers  |          2170880
 2017-02-06 10:26:05.239172+01 | 1486373165.23917 | pgbench_history  |        103161856
 2017-02-06 10:26:05.239172+01 | 1486373165.23917 | pgbench_branches |          1466368

 2017-02-06 10:26:06.307605+01 | 1486373166.30761 | pgbench_accounts |       1390772224
 2017-02-06 10:26:06.307605+01 | 1486373166.30761 | pgbench_tellers  |          2170880
 2017-02-06 10:26:06.307605+01 | 1486373166.30761 | pgbench_history  |        103751680
 2017-02-06 10:26:06.307605+01 | 1486373166.30761 | pgbench_branches |          1466368

 2017-02-06 10:26:07.386312+01 | 1486373167.38631 | pgbench_accounts |       1390772224
 2017-02-06 10:26:07.386312+01 | 1486373167.38631 | pgbench_tellers  |          2170880
 2017-02-06 10:26:07.386312+01 | 1486373167.38631 | pgbench_history  |        104366080
 2017-02-06 10:26:07.386312+01 | 1486373167.38631 | pgbench_branches |          1466368

 2017-02-06 10:26:08.457694+01 | 1486373168.45769 | pgbench_accounts |       1390772224
 2017-02-06 10:26:08.457694+01 | 1486373168.45769 | pgbench_tellers  |          2170880
 2017-02-06 10:26:08.457694+01 | 1486373168.45769 | pgbench_history  |        104931328
 2017-02-06 10:26:08.457694+01 | 1486373168.45769 | pgbench_branches |          1466368

 2017-02-06 10:26:09.532909+01 | 1486373169.53291 | pgbench_accounts |       1390772224
 2017-02-06 10:26:09.532909+01 | 1486373169.53291 | pgbench_tellers  |          2170880
 2017-02-06 10:26:09.532909+01 | 1486373169.53291 | pgbench_history  |        105545728
 2017-02-06 10:26:09.532909+01 | 1486373169.53291 | pgbench_branches |          1466368

 2017-02-06 10:26:10.612568+01 | 1486373170.61257 | pgbench_accounts |       1390772224
 2017-02-06 10:26:10.612568+01 | 1486373170.61257 | pgbench_tellers  |          2170880
 2017-02-06 10:26:10.612568+01 | 1486373170.61257 | pgbench_history  |        106168320
 2017-02-06 10:26:10.612568+01 | 1486373170.61257 | pgbench_branches |          1466368

 2017-02-06 10:26:11.68776+01 | 1486373171.68776 | pgbench_accounts |       1390772224
 2017-02-06 10:26:11.68776+01 | 1486373171.68776 | pgbench_tellers  |          2170880
 2017-02-06 10:26:11.68776+01 | 1486373171.68776 | pgbench_history  |        106766336
 2017-02-06 10:26:11.68776+01 | 1486373171.68776 | pgbench_branches |          1466368

 2017-02-06 10:26:12.757399+01 | 1486373172.7574 | pgbench_accounts |       1390772224
 2017-02-06 10:26:12.757399+01 | 1486373172.7574 | pgbench_tellers  |          2170880
 2017-02-06 10:26:12.757399+01 | 1486373172.7574 | pgbench_history  |        107364352
 2017-02-06 10:26:12.757399+01 | 1486373172.7574 | pgbench_branches |          1466368

 2017-02-06 10:26:13.839663+01 | 1486373173.83966 | pgbench_accounts |       1390772224
 2017-02-06 10:26:13.839663+01 | 1486373173.83966 | pgbench_tellers  |          2170880
 2017-02-06 10:26:13.839663+01 | 1486373173.83966 | pgbench_history  |        108093440
 2017-02-06 10:26:13.839663+01 | 1486373173.83966 | pgbench_branches |          1466368

 2017-02-06 10:26:14.923116+01 | 1486373174.92312 | pgbench_accounts |       1390772224
 2017-02-06 10:26:14.923116+01 | 1486373174.92312 | pgbench_tellers  |          2170880
 2017-02-06 10:26:14.923116+01 | 1486373174.92312 | pgbench_history  |        108830720
 2017-02-06 10:26:14.923116+01 | 1486373174.92312 | pgbench_branches |          1466368

 2017-02-06 10:26:15.99479+01 | 1486373175.99479 | pgbench_accounts |       1390772224
 2017-02-06 10:26:15.99479+01 | 1486373175.99479 | pgbench_tellers  |          2170880
 2017-02-06 10:26:15.99479+01 | 1486373175.99479 | pgbench_history  |        109232128
 2017-02-06 10:26:15.99479+01 | 1486373175.99479 | pgbench_branches |          1466368

 2017-02-06 10:26:17.066705+01 | 1486373177.0667 | pgbench_accounts |       1390772224
 2017-02-06 10:26:17.066705+01 | 1486373177.0667 | pgbench_tellers  |          2170880
 2017-02-06 10:26:17.066705+01 | 1486373177.0667 | pgbench_history  |        109821952
 2017-02-06 10:26:17.066705+01 | 1486373177.0667 | pgbench_branches |          1466368

 2017-02-06 10:26:18.147815+01 | 1486373178.14781 | pgbench_accounts |       1390772224
 2017-02-06 10:26:18.147815+01 | 1486373178.14781 | pgbench_tellers  |          2170880
 2017-02-06 10:26:18.147815+01 | 1486373178.14781 | pgbench_history  |        110600192
 2017-02-06 10:26:18.147815+01 | 1486373178.14781 | pgbench_branches |          1466368

 2017-02-06 10:26:19.230808+01 | 1486373179.23081 | pgbench_accounts |       1390772224
 2017-02-06 10:26:19.230808+01 | 1486373179.23081 | pgbench_tellers  |          2170880
 2017-02-06 10:26:19.230808+01 | 1486373179.23081 | pgbench_history  |        111173632
 2017-02-06 10:26:19.230808+01 | 1486373179.23081 | pgbench_branches |          1466368

 2017-02-06 10:26:20.304437+01 | 1486373180.30444 | pgbench_accounts |       1390772224
 2017-02-06 10:26:20.304437+01 | 1486373180.30444 | pgbench_tellers  |          2170880
 2017-02-06 10:26:20.304437+01 | 1486373180.30444 | pgbench_history  |        111755264
 2017-02-06 10:26:20.304437+01 | 1486373180.30444 | pgbench_branches |          1466368

 2017-02-06 10:26:21.38314+01 | 1486373181.38314 | pgbench_accounts |       1390772224
 2017-02-06 10:26:21.38314+01 | 1486373181.38314 | pgbench_tellers  |          2170880
 2017-02-06 10:26:21.38314+01 | 1486373181.38314 | pgbench_history  |        112369664
 2017-02-06 10:26:21.38314+01 | 1486373181.38314 | pgbench_branches |          1466368

 2017-02-06 10:26:22.457672+01 | 1486373182.45767 | pgbench_accounts |       1390772224
 2017-02-06 10:26:22.457672+01 | 1486373182.45767 | pgbench_tellers  |          2170880
 2017-02-06 10:26:22.457672+01 | 1486373182.45767 | pgbench_history  |        112992256
 2017-02-06 10:26:22.457672+01 | 1486373182.45767 | pgbench_branches |          1466368

 2017-02-06 10:26:23.536062+01 | 1486373183.53606 | pgbench_accounts |       1390772224
 2017-02-06 10:26:23.536062+01 | 1486373183.53606 | pgbench_tellers  |          2170880
 2017-02-06 10:26:23.536062+01 | 1486373183.53606 | pgbench_history  |        113541120
 2017-02-06 10:26:23.536062+01 | 1486373183.53606 | pgbench_branches |          1466368

 2017-02-06 10:26:24.616172+01 | 1486373184.61617 | pgbench_accounts |       1390772224
 2017-02-06 10:26:24.616172+01 | 1486373184.61617 | pgbench_tellers  |          2170880
 2017-02-06 10:26:24.616172+01 | 1486373184.61617 | pgbench_history  |        114302976
 2017-02-06 10:26:24.616172+01 | 1486373184.61617 | pgbench_branches |          1466368

 2017-02-06 10:26:25.68955+01 | 1486373185.68955 | pgbench_accounts |       1390772224
 2017-02-06 10:26:25.68955+01 | 1486373185.68955 | pgbench_tellers  |          2170880
 2017-02-06 10:26:25.68955+01 | 1486373185.68955 | pgbench_history  |        114737152
 2017-02-06 10:26:25.68955+01 | 1486373185.68955 | pgbench_branches |          1466368

 2017-02-06 10:26:26.758885+01 | 1486373186.75888 | pgbench_accounts |       1390772224
 2017-02-06 10:26:26.758885+01 | 1486373186.75888 | pgbench_tellers  |          2170880
 2017-02-06 10:26:26.758885+01 | 1486373186.75888 | pgbench_history  |        115507200
 2017-02-06 10:26:26.758885+01 | 1486373186.75888 | pgbench_branches |          1466368

 2017-02-06 10:26:27.844122+01 | 1486373187.84412 | pgbench_accounts |       1390772224
 2017-02-06 10:26:27.844122+01 | 1486373187.84412 | pgbench_tellers  |          2170880
 2017-02-06 10:26:27.844122+01 | 1486373187.84412 | pgbench_history  |        116080640
 2017-02-06 10:26:27.844122+01 | 1486373187.84412 | pgbench_branches |          1466368

 2017-02-06 10:26:28.919444+01 | 1486373188.91944 | pgbench_accounts |       1390772224
 2017-02-06 10:26:28.919444+01 | 1486373188.91944 | pgbench_tellers  |          2170880
 2017-02-06 10:26:28.919444+01 | 1486373188.91944 | pgbench_history  |        116654080
 2017-02-06 10:26:28.919444+01 | 1486373188.91944 | pgbench_branches |          1466368

 2017-02-06 10:26:30.000578+01 | 1486373190.00058 | pgbench_accounts |       1390772224
 2017-02-06 10:26:30.000578+01 | 1486373190.00058 | pgbench_tellers  |          2170880
 2017-02-06 10:26:30.000578+01 | 1486373190.00058 | pgbench_history  |        117170176
 2017-02-06 10:26:30.000578+01 | 1486373190.00058 | pgbench_branches |          1466368

 2017-02-06 10:26:31.07799+01 | 1486373191.07799 | pgbench_accounts |       1390772224
 2017-02-06 10:26:31.07799+01 | 1486373191.07799 | pgbench_tellers  |          2170880
 2017-02-06 10:26:31.07799+01 | 1486373191.07799 | pgbench_history  |        117907456
 2017-02-06 10:26:31.07799+01 | 1486373191.07799 | pgbench_branches |          1466368

 2017-02-06 10:26:32.150085+01 | 1486373192.15008 | pgbench_accounts |       1390772224
 2017-02-06 10:26:32.150085+01 | 1486373192.15008 | pgbench_tellers  |          2170880
 2017-02-06 10:26:32.150085+01 | 1486373192.15008 | pgbench_history  |        118505472
 2017-02-06 10:26:32.150085+01 | 1486373192.15008 | pgbench_branches |          1466368

 2017-02-06 10:26:33.22641+01 | 1486373193.22641 | pgbench_accounts |       1390772224
 2017-02-06 10:26:33.22641+01 | 1486373193.22641 | pgbench_tellers  |          2170880
 2017-02-06 10:26:33.22641+01 | 1486373193.22641 | pgbench_history  |        119078912
 2017-02-06 10:26:33.22641+01 | 1486373193.22641 | pgbench_branches |          1466368

 2017-02-06 10:26:34.311445+01 | 1486373194.31144 | pgbench_accounts |       1390772224
 2017-02-06 10:26:34.311445+01 | 1486373194.31144 | pgbench_tellers  |          2170880
 2017-02-06 10:26:34.311445+01 | 1486373194.31144 | pgbench_history  |        119603200
 2017-02-06 10:26:34.311445+01 | 1486373194.31144 | pgbench_branches |          1466368

 2017-02-06 10:26:35.389029+01 | 1486373195.38903 | pgbench_accounts |       1390772224
 2017-02-06 10:26:35.389029+01 | 1486373195.38903 | pgbench_tellers  |          2170880
 2017-02-06 10:26:35.389029+01 | 1486373195.38903 | pgbench_history  |        120455168
 2017-02-06 10:26:35.389029+01 | 1486373195.38903 | pgbench_branches |          1466368

 2017-02-06 10:26:36.466672+01 | 1486373196.46667 | pgbench_accounts |       1390772224
 2017-02-06 10:26:36.466672+01 | 1486373196.46667 | pgbench_tellers  |          2170880
 2017-02-06 10:26:36.466672+01 | 1486373196.46667 | pgbench_history  |        120922112
 2017-02-06 10:26:36.466672+01 | 1486373196.46667 | pgbench_branches |          1466368

 2017-02-06 10:26:37.545215+01 | 1486373197.54521 | pgbench_accounts |       1390772224
 2017-02-06 10:26:37.545215+01 | 1486373197.54521 | pgbench_tellers  |          2170880
 2017-02-06 10:26:37.545215+01 | 1486373197.54521 | pgbench_history  |        121528320
 2017-02-06 10:26:37.545215+01 | 1486373197.54521 | pgbench_branches |          1466368

 2017-02-06 10:26:38.634188+01 | 1486373198.63419 | pgbench_accounts |       1390772224
 2017-02-06 10:26:38.634188+01 | 1486373198.63419 | pgbench_tellers  |          2170880
 2017-02-06 10:26:38.634188+01 | 1486373198.63419 | pgbench_history  |        122052608
 2017-02-06 10:26:38.634188+01 | 1486373198.63419 | pgbench_branches |          1466368

 2017-02-06 10:26:39.725797+01 | 1486373199.7258 | pgbench_accounts |       1390772224
 2017-02-06 10:26:39.725797+01 | 1486373199.7258 | pgbench_tellers  |          2170880
 2017-02-06 10:26:39.725797+01 | 1486373199.7258 | pgbench_history  |        122830848
 2017-02-06 10:26:39.725797+01 | 1486373199.7258 | pgbench_branches |          1466368

 2017-02-06 10:26:40.816217+01 | 1486373200.81622 | pgbench_accounts |       1390772224
 2017-02-06 10:26:40.816217+01 | 1486373200.81622 | pgbench_tellers  |          2170880
 2017-02-06 10:26:40.816217+01 | 1486373200.81622 | pgbench_history  |        123387904
 2017-02-06 10:26:40.816217+01 | 1486373200.81622 | pgbench_branches |          1466368

 2017-02-06 10:26:41.905696+01 | 1486373201.9057 | pgbench_accounts |       1390772224
 2017-02-06 10:26:41.905696+01 | 1486373201.9057 | pgbench_tellers  |          2170880
 2017-02-06 10:26:41.905696+01 | 1486373201.9057 | pgbench_history  |        124280832
 2017-02-06 10:26:41.905696+01 | 1486373201.9057 | pgbench_branches |          1466368

 2017-02-06 10:26:42.989257+01 | 1486373202.98926 | pgbench_accounts |       1390772224
 2017-02-06 10:26:42.989257+01 | 1486373202.98926 | pgbench_tellers  |          2170880
 2017-02-06 10:26:42.989257+01 | 1486373202.98926 | pgbench_history  |        124674048
 2017-02-06 10:26:42.989257+01 | 1486373202.98926 | pgbench_branches |          1466368

 2017-02-06 10:26:44.059655+01 | 1486373204.05965 | pgbench_accounts |       1390772224
 2017-02-06 10:26:44.059655+01 | 1486373204.05965 | pgbench_tellers  |          2170880
 2017-02-06 10:26:44.059655+01 | 1486373204.05965 | pgbench_history  |        125394944
 2017-02-06 10:26:44.059655+01 | 1486373204.05965 | pgbench_branches |          1466368

 2017-02-06 10:26:45.134019+01 | 1486373205.13402 | pgbench_accounts |       1390772224
 2017-02-06 10:26:45.134019+01 | 1486373205.13402 | pgbench_tellers  |          2170880
 2017-02-06 10:26:45.134019+01 | 1486373205.13402 | pgbench_history  |        125771776
 2017-02-06 10:26:45.134019+01 | 1486373205.13402 | pgbench_branches |          1466368

 2017-02-06 10:26:46.205123+01 | 1486373206.20512 | pgbench_accounts |       1390772224
 2017-02-06 10:26:46.205123+01 | 1486373206.20512 | pgbench_tellers  |          2170880
 2017-02-06 10:26:46.205123+01 | 1486373206.20512 | pgbench_history  |        126361600
 2017-02-06 10:26:46.205123+01 | 1486373206.20512 | pgbench_branches |          1466368

 2017-02-06 10:26:47.287162+01 | 1486373207.28716 | pgbench_accounts |       1390772224
 2017-02-06 10:26:47.287162+01 | 1486373207.28716 | pgbench_tellers  |          2170880
 2017-02-06 10:26:47.287162+01 | 1486373207.28716 | pgbench_history  |        127082496
 2017-02-06 10:26:47.287162+01 | 1486373207.28716 | pgbench_branches |          1466368

 2017-02-06 10:26:48.359657+01 | 1486373208.35966 | pgbench_accounts |       1390772224
 2017-02-06 10:26:48.359657+01 | 1486373208.35966 | pgbench_tellers  |          2170880
 2017-02-06 10:26:48.359657+01 | 1486373208.35966 | pgbench_history  |        127541248
 2017-02-06 10:26:48.359657+01 | 1486373208.35966 | pgbench_branches |          1466368

 2017-02-06 10:26:49.437522+01 | 1486373209.43752 | pgbench_accounts |       1390772224
 2017-02-06 10:26:49.437522+01 | 1486373209.43752 | pgbench_tellers  |          2170880
 2017-02-06 10:26:49.437522+01 | 1486373209.43752 | pgbench_history  |        128270336
 2017-02-06 10:26:49.437522+01 | 1486373209.43752 | pgbench_branches |          1466368

 2017-02-06 10:26:50.501441+01 | 1486373210.50144 | pgbench_accounts |       1390772224
 2017-02-06 10:26:50.501441+01 | 1486373210.50144 | pgbench_tellers  |          2170880
 2017-02-06 10:26:50.501441+01 | 1486373210.50144 | pgbench_history  |        128679936
 2017-02-06 10:26:50.501441+01 | 1486373210.50144 | pgbench_branches |          1466368

 2017-02-06 10:26:51.574849+01 | 1486373211.57485 | pgbench_accounts |       1390772224
 2017-02-06 10:26:51.574849+01 | 1486373211.57485 | pgbench_tellers  |          2170880
 2017-02-06 10:26:51.574849+01 | 1486373211.57485 | pgbench_history  |        129269760
 2017-02-06 10:26:51.574849+01 | 1486373211.57485 | pgbench_branches |          1466368

 2017-02-06 10:26:52.650818+01 | 1486373212.65082 | pgbench_accounts |       1390772224
 2017-02-06 10:26:52.650818+01 | 1486373212.65082 | pgbench_tellers  |          2170880
 2017-02-06 10:26:52.650818+01 | 1486373212.65082 | pgbench_history  |        129875968
 2017-02-06 10:26:52.650818+01 | 1486373212.65082 | pgbench_branches |          1466368

 2017-02-06 10:26:53.723558+01 | 1486373213.72356 | pgbench_accounts |       1390772224
 2017-02-06 10:26:53.723558+01 | 1486373213.72356 | pgbench_tellers  |          2170880
 2017-02-06 10:26:53.723558+01 | 1486373213.72356 | pgbench_history  |        130473984
 2017-02-06 10:26:53.723558+01 | 1486373213.72356 | pgbench_branches |          1466368

 2017-02-06 10:26:54.806792+01 | 1486373214.80679 | pgbench_accounts |       1390772224
 2017-02-06 10:26:54.806792+01 | 1486373214.80679 | pgbench_tellers  |          2170880
 2017-02-06 10:26:54.806792+01 | 1486373214.80679 | pgbench_history  |        131088384
 2017-02-06 10:26:54.806792+01 | 1486373214.80679 | pgbench_branches |          1466368

 2017-02-06 10:26:55.881722+01 | 1486373215.88172 | pgbench_accounts |       1390772224
 2017-02-06 10:26:55.881722+01 | 1486373215.88172 | pgbench_tellers  |          2170880
 2017-02-06 10:26:55.881722+01 | 1486373215.88172 | pgbench_history  |        131678208
 2017-02-06 10:26:55.881722+01 | 1486373215.88172 | pgbench_branches |          1466368

 2017-02-06 10:26:56.950347+01 | 1486373216.95035 | pgbench_accounts |       1390772224
 2017-02-06 10:26:56.950347+01 | 1486373216.95035 | pgbench_tellers  |          2170880
 2017-02-06 10:26:56.950347+01 | 1486373216.95035 | pgbench_history  |        132259840
 2017-02-06 10:26:56.950347+01 | 1486373216.95035 | pgbench_branches |          1466368

 2017-02-06 10:26:58.025377+01 | 1486373218.02538 | pgbench_accounts |       1390772224
 2017-02-06 10:26:58.025377+01 | 1486373218.02538 | pgbench_tellers  |          2170880
 2017-02-06 10:26:58.025377+01 | 1486373218.02538 | pgbench_history  |        132882432
 2017-02-06 10:26:58.025377+01 | 1486373218.02538 | pgbench_branches |          1466368

 2017-02-06 10:26:59.103438+01 | 1486373219.10344 | pgbench_accounts |       1390772224
 2017-02-06 10:26:59.103438+01 | 1486373219.10344 | pgbench_tellers  |          2170880
 2017-02-06 10:26:59.103438+01 | 1486373219.10344 | pgbench_history  |        133464064
 2017-02-06 10:26:59.103438+01 | 1486373219.10344 | pgbench_branches |          1466368

 2017-02-06 10:27:00.170736+01 | 1486373220.17074 | pgbench_accounts |       1390772224
 2017-02-06 10:27:00.170736+01 | 1486373220.17074 | pgbench_tellers  |          2170880
 2017-02-06 10:27:00.170736+01 | 1486373220.17074 | pgbench_history  |        134062080
 2017-02-06 10:27:00.170736+01 | 1486373220.17074 | pgbench_branches |          1466368

 2017-02-06 10:27:01.243623+01 | 1486373221.24362 | pgbench_accounts |       1390772224
 2017-02-06 10:27:01.243623+01 | 1486373221.24362 | pgbench_tellers  |          2170880
 2017-02-06 10:27:01.243623+01 | 1486373221.24362 | pgbench_history  |        134651904
 2017-02-06 10:27:01.243623+01 | 1486373221.24362 | pgbench_branches |          1466368

 2017-02-06 10:27:02.327548+01 | 1486373222.32755 | pgbench_accounts |       1390772224
 2017-02-06 10:27:02.327548+01 | 1486373222.32755 | pgbench_tellers  |          2170880
 2017-02-06 10:27:02.327548+01 | 1486373222.32755 | pgbench_history  |        135421952
 2017-02-06 10:27:02.327548+01 | 1486373222.32755 | pgbench_branches |          1466368

 2017-02-06 10:27:03.414483+01 | 1486373223.41448 | pgbench_accounts |       1390772224
 2017-02-06 10:27:03.414483+01 | 1486373223.41448 | pgbench_tellers  |          2170880
 2017-02-06 10:27:03.414483+01 | 1486373223.41448 | pgbench_history  |        136003584
 2017-02-06 10:27:03.414483+01 | 1486373223.41448 | pgbench_branches |          1466368

 2017-02-06 10:27:04.490746+01 | 1486373224.49075 | pgbench_accounts |       1390772224
 2017-02-06 10:27:04.490746+01 | 1486373224.49075 | pgbench_tellers  |          2170880
 2017-02-06 10:27:04.490746+01 | 1486373224.49075 | pgbench_history  |        136421376
 2017-02-06 10:27:04.490746+01 | 1486373224.49075 | pgbench_branches |          1466368

 2017-02-06 10:27:05.580954+01 | 1486373225.58095 | pgbench_accounts |       1390772224
 2017-02-06 10:27:05.580954+01 | 1486373225.58095 | pgbench_tellers  |          2170880
 2017-02-06 10:27:05.580954+01 | 1486373225.58095 | pgbench_history  |        137207808
 2017-02-06 10:27:05.580954+01 | 1486373225.58095 | pgbench_branches |          1466368

 2017-02-06 10:27:06.657285+01 | 1486373226.65728 | pgbench_accounts |       1390772224
 2017-02-06 10:27:06.657285+01 | 1486373226.65728 | pgbench_tellers  |          2170880
 2017-02-06 10:27:06.657285+01 | 1486373226.65728 | pgbench_history  |        137609216
 2017-02-06 10:27:06.657285+01 | 1486373226.65728 | pgbench_branches |          1466368

 2017-02-06 10:27:07.736855+01 | 1486373227.73686 | pgbench_accounts |       1390772224
 2017-02-06 10:27:07.736855+01 | 1486373227.73686 | pgbench_tellers  |          2170880
 2017-02-06 10:27:07.736855+01 | 1486373227.73686 | pgbench_history  |        138321920
 2017-02-06 10:27:07.736855+01 | 1486373227.73686 | pgbench_branches |          1466368

 2017-02-06 10:27:08.813429+01 | 1486373228.81343 | pgbench_accounts |       1390772224
 2017-02-06 10:27:08.813429+01 | 1486373228.81343 | pgbench_tellers  |          2170880
 2017-02-06 10:27:08.813429+01 | 1486373228.81343 | pgbench_history  |        138887168
 2017-02-06 10:27:08.813429+01 | 1486373228.81343 | pgbench_branches |          1466368

 2017-02-06 10:27:09.897521+01 | 1486373229.89752 | pgbench_accounts |       1390772224
 2017-02-06 10:27:09.897521+01 | 1486373229.89752 | pgbench_tellers  |          2170880
 2017-02-06 10:27:09.897521+01 | 1486373229.89752 | pgbench_history  |        139501568
 2017-02-06 10:27:09.897521+01 | 1486373229.89752 | pgbench_branches |          1466368

 2017-02-06 10:27:10.980628+01 | 1486373230.98063 | pgbench_accounts |       1390772224
 2017-02-06 10:27:10.980628+01 | 1486373230.98063 | pgbench_tellers  |          2170880
 2017-02-06 10:27:10.980628+01 | 1486373230.98063 | pgbench_history  |        140132352
 2017-02-06 10:27:10.980628+01 | 1486373230.98063 | pgbench_branches |          1466368

 2017-02-06 10:27:12.060359+01 | 1486373232.06036 | pgbench_accounts |       1390772224
 2017-02-06 10:27:12.060359+01 | 1486373232.06036 | pgbench_tellers  |          2170880
 2017-02-06 10:27:12.060359+01 | 1486373232.06036 | pgbench_history  |        140730368
 2017-02-06 10:27:12.060359+01 | 1486373232.06036 | pgbench_branches |          1466368

 2017-02-06 10:27:13.133667+01 | 1486373233.13367 | pgbench_accounts |       1390772224
 2017-02-06 10:27:13.133667+01 | 1486373233.13367 | pgbench_tellers  |          2170880
 2017-02-06 10:27:13.133667+01 | 1486373233.13367 | pgbench_history  |        141205504
 2017-02-06 10:27:13.133667+01 | 1486373233.13367 | pgbench_branches |          1466368

 2017-02-06 10:27:14.218144+01 | 1486373234.21814 | pgbench_accounts |       1390772224
 2017-02-06 10:27:14.218144+01 | 1486373234.21814 | pgbench_tellers  |          2170880
 2017-02-06 10:27:14.218144+01 | 1486373234.21814 | pgbench_history  |        141803520
 2017-02-06 10:27:14.218144+01 | 1486373234.21814 | pgbench_branches |          1466368

 2017-02-06 10:27:15.301013+01 | 1486373235.30101 | pgbench_accounts |       1390772224
 2017-02-06 10:27:15.301013+01 | 1486373235.30101 | pgbench_tellers  |          2170880
 2017-02-06 10:27:15.301013+01 | 1486373235.30101 | pgbench_history  |        142442496
 2017-02-06 10:27:15.301013+01 | 1486373235.30101 | pgbench_branches |          1466368

 2017-02-06 10:27:16.370198+01 | 1486373236.3702 | pgbench_accounts |       1390772224
 2017-02-06 10:27:16.370198+01 | 1486373236.3702 | pgbench_tellers  |          2170880
 2017-02-06 10:27:16.370198+01 | 1486373236.3702 | pgbench_history  |        143040512
 2017-02-06 10:27:16.370198+01 | 1486373236.3702 | pgbench_branches |          1466368

 2017-02-06 10:27:17.435817+01 | 1486373237.43582 | pgbench_accounts |       1390772224
 2017-02-06 10:27:17.435817+01 | 1486373237.43582 | pgbench_tellers  |          2170880
 2017-02-06 10:27:17.435817+01 | 1486373237.43582 | pgbench_history  |        143646720
 2017-02-06 10:27:17.435817+01 | 1486373237.43582 | pgbench_branches |          1466368

 2017-02-06 10:27:18.505804+01 | 1486373238.5058 | pgbench_accounts |       1390772224
 2017-02-06 10:27:18.505804+01 | 1486373238.5058 | pgbench_tellers  |          2170880
 2017-02-06 10:27:18.505804+01 | 1486373238.5058 | pgbench_history  |        144252928
 2017-02-06 10:27:18.505804+01 | 1486373238.5058 | pgbench_branches |          1466368

 2017-02-06 10:27:19.571321+01 | 1486373239.57132 | pgbench_accounts |       1390772224
 2017-02-06 10:27:19.571321+01 | 1486373239.57132 | pgbench_tellers  |          2170880
 2017-02-06 10:27:19.571321+01 | 1486373239.57132 | pgbench_history  |        144859136
 2017-02-06 10:27:19.571321+01 | 1486373239.57132 | pgbench_branches |          1466368

 2017-02-06 10:27:20.641782+01 | 1486373240.64178 | pgbench_accounts |       1390772224
 2017-02-06 10:27:20.641782+01 | 1486373240.64178 | pgbench_tellers  |          2170880
 2017-02-06 10:27:20.641782+01 | 1486373240.64178 | pgbench_history  |        145448960
 2017-02-06 10:27:20.641782+01 | 1486373240.64178 | pgbench_branches |          1466368

 2017-02-06 10:27:21.714561+01 | 1486373241.71456 | pgbench_accounts |       1390772224
 2017-02-06 10:27:21.714561+01 | 1486373241.71456 | pgbench_tellers  |          2170880
 2017-02-06 10:27:21.714561+01 | 1486373241.71456 | pgbench_history  |        146210816
 2017-02-06 10:27:21.714561+01 | 1486373241.71456 | pgbench_branches |          1466368

 2017-02-06 10:27:22.786959+01 | 1486373242.78696 | pgbench_accounts |       1390772224
 2017-02-06 10:27:22.786959+01 | 1486373242.78696 | pgbench_tellers  |          2170880
 2017-02-06 10:27:22.786959+01 | 1486373242.78696 | pgbench_history  |        146751488
 2017-02-06 10:27:22.786959+01 | 1486373242.78696 | pgbench_branches |          1466368

 2017-02-06 10:27:23.87295+01 | 1486373243.87295 | pgbench_accounts |       1390772224
 2017-02-06 10:27:23.87295+01 | 1486373243.87295 | pgbench_tellers  |          2170880
 2017-02-06 10:27:23.87295+01 | 1486373243.87295 | pgbench_history  |        147316736
 2017-02-06 10:27:23.87295+01 | 1486373243.87295 | pgbench_branches |          1466368

 2017-02-06 10:27:24.949051+01 | 1486373244.94905 | pgbench_accounts |       1390772224
 2017-02-06 10:27:24.949051+01 | 1486373244.94905 | pgbench_tellers  |          2170880
 2017-02-06 10:27:24.949051+01 | 1486373244.94905 | pgbench_history  |        147931136
 2017-02-06 10:27:24.949051+01 | 1486373244.94905 | pgbench_branches |          1466368

 2017-02-06 10:27:26.03142+01 | 1486373246.03142 | pgbench_accounts |       1390772224
 2017-02-06 10:27:26.03142+01 | 1486373246.03142 | pgbench_tellers  |          2170880
 2017-02-06 10:27:26.03142+01 | 1486373246.03142 | pgbench_history  |        148520960
 2017-02-06 10:27:26.03142+01 | 1486373246.03142 | pgbench_branches |          1466368

 2017-02-06 10:27:27.113126+01 | 1486373247.11313 | pgbench_accounts |       1390772224
 2017-02-06 10:27:27.113126+01 | 1486373247.11313 | pgbench_tellers  |          2170880
 2017-02-06 10:27:27.113126+01 | 1486373247.11313 | pgbench_history  |        149110784
 2017-02-06 10:27:27.113126+01 | 1486373247.11313 | pgbench_branches |          1466368

 2017-02-06 10:27:28.184622+01 | 1486373248.18462 | pgbench_accounts |       1390772224
 2017-02-06 10:27:28.184622+01 | 1486373248.18462 | pgbench_tellers  |          2170880
 2017-02-06 10:27:28.184622+01 | 1486373248.18462 | pgbench_history  |        149725184
 2017-02-06 10:27:28.184622+01 | 1486373248.18462 | pgbench_branches |          1466368

 2017-02-06 10:27:29.250062+01 | 1486373249.25006 | pgbench_accounts |       1390772224
 2017-02-06 10:27:29.250062+01 | 1486373249.25006 | pgbench_tellers  |          2170880
 2017-02-06 10:27:29.250062+01 | 1486373249.25006 | pgbench_history  |        150675456
 2017-02-06 10:27:29.250062+01 | 1486373249.25006 | pgbench_branches |          1466368

 2017-02-06 10:27:30.328153+01 | 1486373250.32815 | pgbench_accounts |       1390772224
 2017-02-06 10:27:30.328153+01 | 1486373250.32815 | pgbench_tellers  |          2170880
 2017-02-06 10:27:30.328153+01 | 1486373250.32815 | pgbench_history  |        151248896
 2017-02-06 10:27:30.328153+01 | 1486373250.32815 | pgbench_branches |          1466368

 2017-02-06 10:27:31.390662+01 | 1486373251.39066 | pgbench_accounts |       1390772224
 2017-02-06 10:27:31.390662+01 | 1486373251.39066 | pgbench_tellers  |          2170880
 2017-02-06 10:27:31.390662+01 | 1486373251.39066 | pgbench_history  |        151568384
 2017-02-06 10:27:31.390662+01 | 1486373251.39066 | pgbench_branches |          1466368

 2017-02-06 10:27:32.468335+01 | 1486373252.46833 | pgbench_accounts |       1390772224
 2017-02-06 10:27:32.468335+01 | 1486373252.46833 | pgbench_tellers  |          2170880
 2017-02-06 10:27:32.468335+01 | 1486373252.46833 | pgbench_history  |        152158208
 2017-02-06 10:27:32.468335+01 | 1486373252.46833 | pgbench_branches |          1466368

 2017-02-06 10:27:33.550552+01 | 1486373253.55055 | pgbench_accounts |       1390772224
 2017-02-06 10:27:33.550552+01 | 1486373253.55055 | pgbench_tellers  |          2170880
 2017-02-06 10:27:33.550552+01 | 1486373253.55055 | pgbench_history  |        152764416
 2017-02-06 10:27:33.550552+01 | 1486373253.55055 | pgbench_branches |          1466368

 2017-02-06 10:27:34.622775+01 | 1486373254.62278 | pgbench_accounts |       1390772224
 2017-02-06 10:27:34.622775+01 | 1486373254.62278 | pgbench_tellers  |          2170880
 2017-02-06 10:27:34.622775+01 | 1486373254.62278 | pgbench_history  |        153370624
 2017-02-06 10:27:34.622775+01 | 1486373254.62278 | pgbench_branches |          1466368

 2017-02-06 10:27:35.691193+01 | 1486373255.69119 | pgbench_accounts |       1390772224
 2017-02-06 10:27:35.691193+01 | 1486373255.69119 | pgbench_tellers  |          2170880
 2017-02-06 10:27:35.691193+01 | 1486373255.69119 | pgbench_history  |        153993216
 2017-02-06 10:27:35.691193+01 | 1486373255.69119 | pgbench_branches |          1466368

 2017-02-06 10:27:36.769487+01 | 1486373256.76949 | pgbench_accounts |       1390772224
 2017-02-06 10:27:36.769487+01 | 1486373256.76949 | pgbench_tellers  |          2170880
 2017-02-06 10:27:36.769487+01 | 1486373256.76949 | pgbench_history  |        154607616
 2017-02-06 10:27:36.769487+01 | 1486373256.76949 | pgbench_branches |          1466368

 2017-02-06 10:27:37.847944+01 | 1486373257.84794 | pgbench_accounts |       1390772224
 2017-02-06 10:27:37.847944+01 | 1486373257.84794 | pgbench_tellers  |          2170880
 2017-02-06 10:27:37.847944+01 | 1486373257.84794 | pgbench_history  |        155205632
 2017-02-06 10:27:37.847944+01 | 1486373257.84794 | pgbench_branches |          1466368

 2017-02-06 10:27:38.918866+01 | 1486373258.91887 | pgbench_accounts |       1390772224
 2017-02-06 10:27:38.918866+01 | 1486373258.91887 | pgbench_tellers  |          2170880
 2017-02-06 10:27:38.918866+01 | 1486373258.91887 | pgbench_history  |        155795456
 2017-02-06 10:27:38.918866+01 | 1486373258.91887 | pgbench_branches |          1466368

 2017-02-06 10:27:39.998043+01 | 1486373259.99804 | pgbench_accounts |       1390772224
 2017-02-06 10:27:39.998043+01 | 1486373259.99804 | pgbench_tellers  |          2170880
 2017-02-06 10:27:39.998043+01 | 1486373259.99804 | pgbench_history  |        156393472
 2017-02-06 10:27:39.998043+01 | 1486373259.99804 | pgbench_branches |          1466368

 2017-02-06 10:27:41.084073+01 | 1486373261.08407 | pgbench_accounts |       1390772224
 2017-02-06 10:27:41.084073+01 | 1486373261.08407 | pgbench_tellers  |          2170880
 2017-02-06 10:27:41.084073+01 | 1486373261.08407 | pgbench_history  |        156991488
 2017-02-06 10:27:41.084073+01 | 1486373261.08407 | pgbench_branches |          1466368

 2017-02-06 10:27:42.159261+01 | 1486373262.15926 | pgbench_accounts |       1390772224
 2017-02-06 10:27:42.159261+01 | 1486373262.15926 | pgbench_tellers  |          2170880
 2017-02-06 10:27:42.159261+01 | 1486373262.15926 | pgbench_history  |        157573120
 2017-02-06 10:27:42.159261+01 | 1486373262.15926 | pgbench_branches |          1466368

 2017-02-06 10:27:43.235729+01 | 1486373263.23573 | pgbench_accounts |       1390772224
 2017-02-06 10:27:43.235729+01 | 1486373263.23573 | pgbench_tellers  |          2170880
 2017-02-06 10:27:43.235729+01 | 1486373263.23573 | pgbench_history  |        158162944
 2017-02-06 10:27:43.235729+01 | 1486373263.23573 | pgbench_branches |          1466368

 2017-02-06 10:27:44.317512+01 | 1486373264.31751 | pgbench_accounts |       1390772224
 2017-02-06 10:27:44.317512+01 | 1486373264.31751 | pgbench_tellers  |          2170880
 2017-02-06 10:27:44.317512+01 | 1486373264.31751 | pgbench_history  |        158777344
 2017-02-06 10:27:44.317512+01 | 1486373264.31751 | pgbench_branches |          1466368

 2017-02-06 10:27:45.407043+01 | 1486373265.40704 | pgbench_accounts |       1390772224
 2017-02-06 10:27:45.407043+01 | 1486373265.40704 | pgbench_tellers  |          2170880
 2017-02-06 10:27:45.407043+01 | 1486373265.40704 | pgbench_history  |        159399936
 2017-02-06 10:27:45.407043+01 | 1486373265.40704 | pgbench_branches |          1466368

 2017-02-06 10:27:46.489027+01 | 1486373266.48903 | pgbench_accounts |       1390772224
 2017-02-06 10:27:46.489027+01 | 1486373266.48903 | pgbench_tellers  |          2170880
 2017-02-06 10:27:46.489027+01 | 1486373266.48903 | pgbench_history  |        160014336
 2017-02-06 10:27:46.489027+01 | 1486373266.48903 | pgbench_branches |          1466368

 2017-02-06 10:27:47.563035+01 | 1486373267.56304 | pgbench_accounts |       1390772224
 2017-02-06 10:27:47.563035+01 | 1486373267.56304 | pgbench_tellers  |          2170880
 2017-02-06 10:27:47.563035+01 | 1486373267.56304 | pgbench_history  |        160604160
 2017-02-06 10:27:47.563035+01 | 1486373267.56304 | pgbench_branches |          1466368

 2017-02-06 10:27:48.637041+01 | 1486373268.63704 | pgbench_accounts |       1390772224
 2017-02-06 10:27:48.637041+01 | 1486373268.63704 | pgbench_tellers  |          2170880
 2017-02-06 10:27:48.637041+01 | 1486373268.63704 | pgbench_history  |        161193984
 2017-02-06 10:27:48.637041+01 | 1486373268.63704 | pgbench_branches |          1466368

 2017-02-06 10:27:49.718698+01 | 1486373269.7187 | pgbench_accounts |       1390772224
 2017-02-06 10:27:49.718698+01 | 1486373269.7187 | pgbench_tellers  |          2170880
 2017-02-06 10:27:49.718698+01 | 1486373269.7187 | pgbench_history  |        161783808
 2017-02-06 10:27:49.718698+01 | 1486373269.7187 | pgbench_branches |          1466368

 2017-02-06 10:27:50.796073+01 | 1486373270.79607 | pgbench_accounts |       1390772224
 2017-02-06 10:27:50.796073+01 | 1486373270.79607 | pgbench_tellers  |          2170880
 2017-02-06 10:27:50.796073+01 | 1486373270.79607 | pgbench_history  |        162357248
 2017-02-06 10:27:50.796073+01 | 1486373270.79607 | pgbench_branches |          1466368

 2017-02-06 10:27:51.875081+01 | 1486373271.87508 | pgbench_accounts |       1390772224
 2017-02-06 10:27:51.875081+01 | 1486373271.87508 | pgbench_tellers  |          2170880
 2017-02-06 10:27:51.875081+01 | 1486373271.87508 | pgbench_history  |        163356672
 2017-02-06 10:27:51.875081+01 | 1486373271.87508 | pgbench_branches |          1466368

 2017-02-06 10:27:52.947028+01 | 1486373272.94703 | pgbench_accounts |       1390772224
 2017-02-06 10:27:52.947028+01 | 1486373272.94703 | pgbench_tellers  |          2170880
 2017-02-06 10:27:52.947028+01 | 1486373272.94703 | pgbench_history  |        163708928
 2017-02-06 10:27:52.947028+01 | 1486373272.94703 | pgbench_branches |          1466368

 2017-02-06 10:27:54.028338+01 | 1486373274.02834 | pgbench_accounts |       1390772224
 2017-02-06 10:27:54.028338+01 | 1486373274.02834 | pgbench_tellers  |          2170880
 2017-02-06 10:27:54.028338+01 | 1486373274.02834 | pgbench_history  |        164249600
 2017-02-06 10:27:54.028338+01 | 1486373274.02834 | pgbench_branches |          1466368

 2017-02-06 10:27:55.111449+01 | 1486373275.11145 | pgbench_accounts |       1390772224
 2017-02-06 10:27:55.111449+01 | 1486373275.11145 | pgbench_tellers  |          2170880
 2017-02-06 10:27:55.111449+01 | 1486373275.11145 | pgbench_history  |        164921344
 2017-02-06 10:27:55.111449+01 | 1486373275.11145 | pgbench_branches |          1466368

 2017-02-06 10:27:56.190607+01 | 1486373276.19061 | pgbench_accounts |       1390772224
 2017-02-06 10:27:56.190607+01 | 1486373276.19061 | pgbench_tellers  |          2170880
 2017-02-06 10:27:56.190607+01 | 1486373276.19061 | pgbench_history  |        165445632
 2017-02-06 10:27:56.190607+01 | 1486373276.19061 | pgbench_branches |          1466368

 2017-02-06 10:27:57.270577+01 | 1486373277.27058 | pgbench_accounts |       1390772224
 2017-02-06 10:27:57.270577+01 | 1486373277.27058 | pgbench_tellers  |          2170880
 2017-02-06 10:27:57.270577+01 | 1486373277.27058 | pgbench_history  |        166043648
 2017-02-06 10:27:57.270577+01 | 1486373277.27058 | pgbench_branches |          1466368

 2017-02-06 10:27:58.34555+01 | 1486373278.34555 | pgbench_accounts |       1390772224
 2017-02-06 10:27:58.34555+01 | 1486373278.34555 | pgbench_tellers  |          2170880
 2017-02-06 10:27:58.34555+01 | 1486373278.34555 | pgbench_history  |        166780928
 2017-02-06 10:27:58.34555+01 | 1486373278.34555 | pgbench_branches |          1466368

 2017-02-06 10:27:59.419194+01 | 1486373279.41919 | pgbench_accounts |       1390772224
 2017-02-06 10:27:59.419194+01 | 1486373279.41919 | pgbench_tellers  |          2170880
 2017-02-06 10:27:59.419194+01 | 1486373279.41919 | pgbench_history  |        167542784
 2017-02-06 10:27:59.419194+01 | 1486373279.41919 | pgbench_branches |          1466368

 2017-02-06 10:28:00.480075+01 | 1486373280.48007 | pgbench_accounts |       1390772224
 2017-02-06 10:28:00.480075+01 | 1486373280.48007 | pgbench_tellers  |          2170880
 2017-02-06 10:28:00.480075+01 | 1486373280.48007 | pgbench_history  |        168099840
 2017-02-06 10:28:00.480075+01 | 1486373280.48007 | pgbench_branches |          1466368

 2017-02-06 10:28:01.543318+01 | 1486373281.54332 | pgbench_accounts |       1390772224
 2017-02-06 10:28:01.543318+01 | 1486373281.54332 | pgbench_tellers  |          2170880
 2017-02-06 10:28:01.543318+01 | 1486373281.54332 | pgbench_history  |        168509440
 2017-02-06 10:28:01.543318+01 | 1486373281.54332 | pgbench_branches |          1466368

