 2017-02-04 21:16:01.114974+01 | 1486239361.11497 | 26/52F138B0              |          164600297648

 2017-02-04 21:16:02.20063+01 | 1486239362.20063 | 26/5ECA6D68              |          164799081832

 2017-02-04 21:16:03.297789+01 | 1486239363.29779 | 26/6D49C5C8              |          165042308552

 2017-02-04 21:16:04.383949+01 | 1486239364.38395 | 26/7D4F9580              |          165311124864

 2017-02-04 21:16:05.471411+01 | 1486239365.47141 | 26/8DED1D60              |          165589884256

 2017-02-04 21:16:06.568603+01 | 1486239366.5686 | 26/9D1C3CA8              |          165844630696

 2017-02-04 21:16:07.663895+01 | 1486239367.66389 | 26/AB53D590              |          166083155344

 2017-02-04 21:16:08.751594+01 | 1486239368.75159 | 26/B9065EB8              |          166312959672

 2017-02-04 21:16:09.84474+01 | 1486239369.84474 | 26/C5B6E0A0              |          166525853856

 2017-02-04 21:16:10.929207+01 | 1486239370.92921 | 26/D170EB28              |          166722595624

 2017-02-04 21:16:12.020067+01 | 1486239372.02007 | 26/DC43B878              |          166904182904

 2017-02-04 21:16:13.099283+01 | 1486239373.09928 | 26/E65B88B8              |          167073515704

 2017-02-04 21:16:14.180705+01 | 1486239374.18071 | 26/EFB2A280              |          167230218880

 2017-02-04 21:16:15.258248+01 | 1486239375.25825 | 26/F84638E0              |          167374108896

 2017-02-04 21:16:16.348032+01 | 1486239376.34803 | 27/1021170               |          167520637296

 2017-02-04 21:16:17.440646+01 | 1486239377.44065 | 27/99F82E8               |          167665173224

 2017-02-04 21:16:18.525669+01 | 1486239378.52567 | 27/112F55C0              |          167792039360

 2017-02-04 21:16:19.609806+01 | 1486239379.60981 | 27/18AEE860              |          167917840480

 2017-02-04 21:16:20.702168+01 | 1486239380.70217 | 27/1F9EF9A0              |          168034236832

 2017-02-04 21:16:21.796766+01 | 1486239381.79677 | 27/26829EB0              |          168149819056

 2017-02-04 21:16:22.892053+01 | 1486239382.89205 | 27/2D63A4A8              |          168265229480

 2017-02-04 21:16:23.990912+01 | 1486239383.99091 | 27/33F91AC8              |          168375687880

 2017-02-04 21:16:25.068658+01 | 1486239385.06866 | 27/3A294880              |          168479508608

 2017-02-04 21:16:26.1506+01 | 1486239386.1506 | 27/4078A5E0              |          168585373152

 2017-02-04 21:16:27.232486+01 | 1486239387.23249 | 27/46613518              |          168684500248

 2017-02-04 21:16:28.313969+01 | 1486239388.31397 | 27/4C473490              |          168783459472

 2017-02-04 21:16:29.412174+01 | 1486239389.41217 | 27/51F4EB30              |          168878730032

 2017-02-04 21:16:30.506642+01 | 1486239390.50664 | 27/573C6A48              |          168967301704

 2017-02-04 21:16:31.598895+01 | 1486239391.5989 | 27/5C923D10              |          169056812304

 2017-02-04 21:16:32.689239+01 | 1486239392.68924 | 27/6193D4D8              |          169140802776

 2017-02-04 21:16:33.776555+01 | 1486239393.77656 | 27/65F2D168              |          169214136680

 2017-02-04 21:16:34.871742+01 | 1486239394.87174 | 27/6AF70F28              |          169298300712

 2017-02-04 21:16:35.961426+01 | 1486239395.96143 | 27/7006DE40              |          169383222848

 2017-02-04 21:16:37.05387+01 | 1486239397.05387 | 27/750F8878              |          169467676792

 2017-02-04 21:16:38.132439+01 | 1486239398.13244 | 27/79DC5150              |          169548206416

 2017-02-04 21:16:39.219548+01 | 1486239399.21955 | 27/7EA00EE0              |          169628143328

 2017-02-04 21:16:40.306256+01 | 1486239400.30626 | 27/838751E0              |          169710408160

 2017-02-04 21:16:41.394191+01 | 1486239401.39419 | 27/88511F08              |          169790742280

 2017-02-04 21:16:42.483568+01 | 1486239402.48357 | 27/8CE59AB8              |          169867582136

 2017-02-04 21:16:43.576167+01 | 1486239403.57617 | 27/916667A8              |          169943132072

 2017-02-04 21:16:44.669897+01 | 1486239404.6699 | 27/95E3E848              |          170018465864

 2017-02-04 21:16:45.765367+01 | 1486239405.76537 | 27/9A36F1F8              |          170091016696

 2017-02-04 21:16:46.872157+01 | 1486239406.87216 | 27/9E8E3708              |          170163844872

 2017-02-04 21:16:47.972097+01 | 1486239407.9721 | 27/A2F06858              |          170237388888

 2017-02-04 21:16:49.056983+01 | 1486239409.05698 | 27/A7213D90              |          170307698064

 2017-02-04 21:16:50.145385+01 | 1486239410.14539 | 27/AB23EB68              |          170374982504

 2017-02-04 21:16:51.223353+01 | 1486239411.22335 | 27/AEF93CD0              |          170439294160

 2017-02-04 21:16:52.303895+01 | 1486239412.30389 | 27/B2C13D00              |          170502733056

 2017-02-04 21:16:53.375373+01 | 1486239413.37537 | 27/B6074D20              |          170557656352

 2017-02-04 21:16:54.465483+01 | 1486239414.46548 | 27/B9CE7130              |          170621038896

 2017-02-04 21:16:55.573063+01 | 1486239415.57306 | 27/BDA5BBE8              |          170685479912

 2017-02-04 21:16:56.662741+01 | 1486239416.66274 | 27/C1921810              |          170751301648

 2017-02-04 21:16:57.762246+01 | 1486239417.76225 | 27/C536C8F8              |          170812426488

 2017-02-04 21:16:58.862087+01 | 1486239418.86209 | 27/C91B4988              |          170877733256

 2017-02-04 21:16:59.959405+01 | 1486239419.9594 | 27/CCF048B8              |          170942023864

 2017-02-04 21:17:01.055115+01 | 1486239421.05511 | 27/D0C0C680              |          171006019200

 2017-02-04 21:17:02.140581+01 | 1486239422.14058 | 27/D4782F98              |          171068370840

 2017-02-04 21:17:03.226191+01 | 1486239423.22619 | 27/D824CA88              |          171130014344

 2017-02-04 21:17:04.307547+01 | 1486239424.30755 | 27/DBE8B3D8              |          171193185240

 2017-02-04 21:17:05.385007+01 | 1486239425.38501 | 27/DF96B8D0              |          171254921424

 2017-02-04 21:17:06.477511+01 | 1486239426.47751 | 27/E32879A8              |          171314805160

 2017-02-04 21:17:07.575752+01 | 1486239427.57575 | 27/E67189D8              |          171369925080

 2017-02-04 21:17:08.680286+01 | 1486239428.68029 | 27/EA0999C0              |          171430222272

 2017-02-04 21:17:09.777689+01 | 1486239429.77769 | 27/ED9C5FB0              |          171490172848

 2017-02-04 21:17:10.881022+01 | 1486239430.88102 | 27/F14D99E8              |          171552119272

 2017-02-04 21:17:11.977657+01 | 1486239431.97766 | 27/F4CFFAF0              |          171610995440

 2017-02-04 21:17:13.070696+01 | 1486239433.0707 | 27/F8578790              |          171670210448

 2017-02-04 21:17:14.156801+01 | 1486239434.1568 | 27/FBD7C930              |          171728947504

 2017-02-04 21:17:15.237662+01 | 1486239435.23766 | 27/FF491EC8              |          171786706632

 2017-02-04 21:17:16.324437+01 | 1486239436.32444 | 28/2A64DF0               |          171843145200

 2017-02-04 21:17:17.404288+01 | 1486239437.40429 | 28/5F400D8               |          171898568920

 2017-02-04 21:17:18.474303+01 | 1486239438.4743 | 28/9174100               |          171951210752

 2017-02-04 21:17:19.573932+01 | 1486239439.57393 | 28/C70D638               |          172007413304

 2017-02-04 21:17:20.668413+01 | 1486239440.66841 | 28/FA7EB98               |          172061354904

 2017-02-04 21:17:21.748237+01 | 1486239441.74824 | 28/132A34F8              |          172120225016

 2017-02-04 21:17:22.843874+01 | 1486239442.84387 | 28/1719DC60              |          172186262624

 2017-02-04 21:17:23.926286+01 | 1486239443.92629 | 28/1A64BE68              |          172241501800

 2017-02-04 21:17:25.020624+01 | 1486239445.02062 | 28/1DAA17A0              |          172296378272

 2017-02-04 21:17:26.108722+01 | 1486239446.10872 | 28/20F72088              |          172351758472

 2017-02-04 21:17:27.195624+01 | 1486239447.19562 | 28/24405560              |          172406887776

 2017-02-04 21:17:28.278672+01 | 1486239448.27867 | 28/2724CC70              |          172455414896

 2017-02-04 21:17:29.362048+01 | 1486239449.36205 | 28/2A548D28              |          172508876072

 2017-02-04 21:17:30.441787+01 | 1486239450.44179 | 28/2D879960              |          172562553184

 2017-02-04 21:17:31.535392+01 | 1486239451.53539 | 28/30C06500              |          172616606976

 2017-02-04 21:17:32.636428+01 | 1486239452.63643 | 28/33ED24D8              |          172669871320

 2017-02-04 21:17:33.729621+01 | 1486239453.72962 | 28/371CF4E8              |          172723336424

 2017-02-04 21:17:34.832111+01 | 1486239454.83211 | 28/3A4C6CB8              |          172776778936

 2017-02-04 21:17:35.927136+01 | 1486239455.92714 | 28/3D655850              |          172828743760

 2017-02-04 21:17:37.027948+01 | 1486239457.02795 | 28/409EACC8              |          172882832584

 2017-02-04 21:17:38.12691+01 | 1486239458.12691 | 28/439B46E8              |          172932941544

 2017-02-04 21:17:39.209005+01 | 1486239459.20901 | 28/469DB218              |          172983431704

 2017-02-04 21:17:40.29265+01 | 1486239460.29265 | 28/498F2508              |          173032809736

 2017-02-04 21:17:41.373552+01 | 1486239461.37355 | 28/4C9ED080              |          173084168320

 2017-02-04 21:17:42.46033+01 | 1486239462.46033 | 28/4FBAB170              |          173136327024

 2017-02-04 21:17:43.550978+01 | 1486239463.55098 | 28/52A1DFF8              |          173185032184

 2017-02-04 21:17:44.65007+01 | 1486239464.65007 | 28/55A7F2E8              |          173235761896

 2017-02-04 21:17:45.750045+01 | 1486239465.75005 | 28/58B68BA0              |          173287050144

 2017-02-04 21:17:46.846041+01 | 1486239466.84604 | 28/5B8E3F90              |          173334740880

 2017-02-04 21:17:47.935755+01 | 1486239467.93576 | 28/5DF520F8              |          173375037688

 2017-02-04 21:17:49.035398+01 | 1486239469.0354 | 28/6074B598              |          173416953240

 2017-02-04 21:17:50.12863+01 | 1486239470.12863 | 28/62ABDF28              |          173454122792

 2017-02-04 21:17:51.212184+01 | 1486239471.21218 | 28/64D697D0              |          173490477008

 2017-02-04 21:17:52.292064+01 | 1486239472.29206 | 28/670E1A58              |          173527669336

 2017-02-04 21:17:53.378381+01 | 1486239473.37838 | 28/6944E138              |          173564813624

 2017-02-04 21:17:54.450774+01 | 1486239474.45077 | 28/6B2C3F48              |          173596753736

 2017-02-04 21:17:55.537132+01 | 1486239475.53713 | 28/6D4AD628              |          173632312872

 2017-02-04 21:17:56.631763+01 | 1486239476.63176 | 28/6F7DE8B8              |          173669214392

 2017-02-04 21:17:57.721326+01 | 1486239477.72133 | 28/719E3F18              |          173704888088

 2017-02-04 21:17:58.820676+01 | 1486239478.82068 | 28/73C8C848              |          173741230152

 2017-02-04 21:17:59.914709+01 | 1486239479.91471 | 28/75F4F458              |          173777679448

 2017-02-04 21:18:01.015944+01 | 1486239481.01594 | 28/7824D878              |          173814372472

 2017-02-04 21:18:02.119562+01 | 1486239482.11956 | 28/7A3D0398              |          173849510808

 2017-02-04 21:18:03.204652+01 | 1486239483.20465 | 28/7C4DF8D0              |          173884176592

 2017-02-04 21:18:04.284283+01 | 1486239484.28428 | 28/7E647780              |          173919205248

 2017-02-04 21:18:05.370856+01 | 1486239485.37086 | 28/806EF3D8              |          173953446872

 2017-02-04 21:18:06.454495+01 | 1486239486.45449 | 28/827FA258              |          173988094552

 2017-02-04 21:18:07.536581+01 | 1486239487.53658 | 28/848F2810              |          174022666256

 2017-02-04 21:18:08.625087+01 | 1486239488.62509 | 28/86A96900              |          174057941248

 2017-02-04 21:18:09.716363+01 | 1486239489.71636 | 28/88BD9888              |          174092818568

 2017-02-04 21:18:10.811144+01 | 1486239490.81114 | 28/8AEDEE28              |          174129540648

 2017-02-04 21:18:11.90344+01 | 1486239491.90344 | 28/8D0F70A8              |          174165291176

 2017-02-04 21:18:12.993303+01 | 1486239492.9933 | 28/8F1B8080              |          174199636096

 2017-02-04 21:18:14.090461+01 | 1486239494.09046 | 28/913ACF50              |          174235242320

 2017-02-04 21:18:15.177402+01 | 1486239495.1774 | 28/9350D6F0              |          174270240496

 2017-02-04 21:18:16.264334+01 | 1486239496.26433 | 28/95669558              |          174305219928

 2017-02-04 21:18:17.353187+01 | 1486239497.35319 | 28/97761BA0              |          174339791776

 2017-02-04 21:18:18.44278+01 | 1486239498.44278 | 28/9985EA88              |          174374382216

 2017-02-04 21:18:19.528593+01 | 1486239499.52859 | 28/9B8125F0              |          174407624176

 2017-02-04 21:18:20.615114+01 | 1486239500.61511 | 28/9D87FF88              |          174441627528

 2017-02-04 21:18:21.698759+01 | 1486239501.69876 | 28/A0002760              |          174483056480

 2017-02-04 21:18:22.799467+01 | 1486239502.79947 | 28/A321CEF0              |          174535593712

 2017-02-04 21:18:23.903792+01 | 1486239503.90379 | 28/A672CD68              |          174591233384

 2017-02-04 21:18:25.004726+01 | 1486239505.00473 | 28/A9A623E8              |          174644929512

 2017-02-04 21:18:26.111568+01 | 1486239506.11157 | 28/AC76D730              |          174692161328

 2017-02-04 21:18:27.199769+01 | 1486239507.19977 | 28/AE9B8480              |          174728119424

 2017-02-04 21:18:28.279593+01 | 1486239508.27959 | 28/B0A89230              |          174762529328

 2017-02-04 21:18:29.357608+01 | 1486239509.35761 | 28/B29F3FE8              |          174795472872

 2017-02-04 21:18:30.440024+01 | 1486239510.44002 | 28/B490FEB0              |          174828093104

 2017-02-04 21:18:31.523208+01 | 1486239511.52321 | 28/B6855050              |          174860882000

 2017-02-04 21:18:32.607018+01 | 1486239512.60702 | 28/B8762798              |          174893442968

 2017-02-04 21:18:33.693097+01 | 1486239513.6931 | 28/BA5581A0              |          174924857760

 2017-02-04 21:18:34.788062+01 | 1486239514.78806 | 28/BC4D2098              |          174957863064

 2017-02-04 21:18:35.885106+01 | 1486239515.88511 | 28/BE435AF8              |          174990777080

 2017-02-04 21:18:36.973137+01 | 1486239516.97314 | 28/C02998D0              |          175022643408

 2017-02-04 21:18:38.06618+01 | 1486239518.06618 | 28/C222E818              |          175055759384

 2017-02-04 21:18:39.157079+01 | 1486239519.15708 | 28/C402EE20              |          175087218208

 2017-02-04 21:18:40.246688+01 | 1486239520.24669 | 28/C6060F08              |          175120977672

 2017-02-04 21:18:41.326678+01 | 1486239521.32668 | 28/C7F1D6B0              |          175153206960

 2017-02-04 21:18:42.412102+01 | 1486239522.4121 | 28/C9EA4420              |          175186265120

 2017-02-04 21:18:43.500855+01 | 1486239523.50085 | 28/CBE003B8              |          175219147704

 2017-02-04 21:18:44.591814+01 | 1486239524.59181 | 28/CDC6B4B8              |          175251043512

 2017-02-04 21:18:45.681213+01 | 1486239525.68121 | 28/CFAA7BF0              |          175282748400

 2017-02-04 21:18:46.777662+01 | 1486239526.77766 | 28/D17E8198              |          175313420696

 2017-02-04 21:18:47.871942+01 | 1486239527.87194 | 28/D3669118              |          175345406232

 2017-02-04 21:18:48.958576+01 | 1486239528.95858 | 28/D53621B8              |          175375786424

 2017-02-04 21:18:50.052762+01 | 1486239530.05276 | 28/D72AFB98              |          175408610200

 2017-02-04 21:18:51.139716+01 | 1486239531.13972 | 28/D912BBD8              |          175440575448

 2017-02-04 21:18:52.220114+01 | 1486239532.22011 | 28/DAF44838              |          175472134200

 2017-02-04 21:18:53.301146+01 | 1486239533.30115 | 28/DCDCDA40              |          175504153152

 2017-02-04 21:18:54.38377+01 | 1486239534.38377 | 28/DEAEF618              |          175534700056

 2017-02-04 21:18:55.462273+01 | 1486239535.46227 | 28/E071FC40              |          175564258368

 2017-02-04 21:18:56.550888+01 | 1486239536.55089 | 28/E24931D8              |          175595139544

 2017-02-04 21:18:57.631662+01 | 1486239537.63166 | 28/E429ED50              |          175626644816

 2017-02-04 21:18:58.723067+01 | 1486239538.72307 | 28/E61345C0              |          175658714560

 2017-02-04 21:18:59.809938+01 | 1486239539.80994 | 28/E7F6E5B0              |          175690409392

 2017-02-04 21:19:00.901502+01 | 1486239540.9015 | 28/E9E6E468              |          175722914920

 2017-02-04 21:19:01.989963+01 | 1486239541.98996 | 28/EBBFC690              |          175753905808

 2017-02-04 21:19:03.078794+01 | 1486239543.07879 | 28/EDA299B0              |          175785548208

 2017-02-04 21:19:04.173122+01 | 1486239544.17312 | 28/EF813018              |          175816912920

 2017-02-04 21:19:05.258772+01 | 1486239545.25877 | 28/F14BF568              |          175846978920

 2017-02-04 21:19:06.345565+01 | 1486239546.34557 | 28/F31EF000              |          175877582848

 2017-02-04 21:19:07.427875+01 | 1486239547.42788 | 28/F4F71C70              |          175908527216

 2017-02-04 21:19:08.506556+01 | 1486239548.50656 | 28/F6B546B8              |          175937767096

 2017-02-04 21:19:09.592659+01 | 1486239549.59266 | 28/F89D5CD0              |          175969754320

 2017-02-04 21:19:10.683169+01 | 1486239550.68317 | 28/FA6131E0              |          175999365600

 2017-02-04 21:19:11.780078+01 | 1486239551.78008 | 28/FC168230              |          176028025392

 2017-02-04 21:19:12.871567+01 | 1486239552.87157 | 28/FDD2C610              |          176057140752

 2017-02-04 21:19:13.973534+01 | 1486239553.97353 | 28/FF819EA8              |          176085376680

 2017-02-04 21:19:15.059916+01 | 1486239555.05992 | 29/112CB50               |          176111668048

 2017-02-04 21:19:16.143634+01 | 1486239556.14363 | 29/2B4D740               |          176139065152

 2017-02-04 21:19:17.223895+01 | 1486239557.2239 | 29/457D418               |          176166523928

 2017-02-04 21:19:18.306204+01 | 1486239558.3062 | 29/5FEAEE0               |          176194236128

 2017-02-04 21:19:19.389772+01 | 1486239559.38977 | 29/7A59B38               |          176221952824

 2017-02-04 21:19:20.471923+01 | 1486239560.47192 | 29/94DB420               |          176249746464

 2017-02-04 21:19:21.555463+01 | 1486239561.55546 | 29/AF5D128               |          176277541160

 2017-02-04 21:19:22.642122+01 | 1486239562.64212 | 29/CD21730               |          176308754224

 2017-02-04 21:19:23.740483+01 | 1486239563.74048 | 29/EBB5748               |          176340817736

 2017-02-04 21:19:24.831461+01 | 1486239564.83146 | 29/10A75C80              |          176373062784

 2017-02-04 21:19:25.924756+01 | 1486239565.92476 | 29/129178F8              |          176405182712

 2017-02-04 21:19:27.024062+01 | 1486239567.02406 | 29/145A7510              |          176435131664

 2017-02-04 21:19:28.109725+01 | 1486239568.10972 | 29/1656F970              |          176468457840

 2017-02-04 21:19:29.204278+01 | 1486239569.20428 | 29/1852EF48              |          176501747528

 2017-02-04 21:19:30.289619+01 | 1486239570.28962 | 29/1A417328              |          176534156072

 2017-02-04 21:19:31.373213+01 | 1486239571.37321 | 29/1C2F2388              |          176566510472

 2017-02-04 21:19:32.460217+01 | 1486239572.46022 | 29/1E1DCC30              |          176598928432

 2017-02-04 21:19:33.549409+01 | 1486239573.54941 | 29/20198490              |          176632202384

 2017-02-04 21:19:34.636987+01 | 1486239574.63699 | 29/220AD880              |          176664795264

 2017-02-04 21:19:35.724051+01 | 1486239575.72405 | 29/23FBB130              |          176697356592

 2017-02-04 21:19:36.826465+01 | 1486239576.82646 | 29/25E4ADD8              |          176729402840

 2017-02-04 21:19:37.920777+01 | 1486239577.92078 | 29/27CA6ED8              |          176761237208

 2017-02-04 21:19:39.007735+01 | 1486239579.00774 | 29/29983480              |          176791499904

 2017-02-04 21:19:40.100973+01 | 1486239580.10097 | 29/2B7A0A68              |          176823077480

 2017-02-04 21:19:41.190301+01 | 1486239581.1903 | 29/2D4F8988              |          176853846408

 2017-02-04 21:19:42.269746+01 | 1486239582.26975 | 29/2F27E068              |          176884801640

 2017-02-04 21:19:43.347957+01 | 1486239583.34796 | 29/30F286E0              |          176914859744

 2017-02-04 21:19:44.430337+01 | 1486239584.43034 | 29/32C596C0              |          176945469120

 2017-02-04 21:19:45.51033+01 | 1486239585.51033 | 29/34821678              |          176974599800

 2017-02-04 21:19:46.593315+01 | 1486239586.59331 | 29/361489D0              |          177000974800

 2017-02-04 21:19:47.676591+01 | 1486239587.67659 | 29/38136DF8              |          177034456568

 2017-02-04 21:19:48.778011+01 | 1486239588.77801 | 29/3A1C82E0              |          177068606176

 2017-02-04 21:19:49.876522+01 | 1486239589.87652 | 29/3C309928              |          177103477032

 2017-02-04 21:19:50.968904+01 | 1486239590.9689 | 29/3E45F008              |          177138429960

 2017-02-04 21:19:52.058185+01 | 1486239592.05819 | 29/40233610              |          177169708560

 2017-02-04 21:19:53.156301+01 | 1486239593.1563 | 29/4237E4A0              |          177204618400

 2017-02-04 21:19:54.256178+01 | 1486239594.25618 | 29/444BF910              |          177239488784

 2017-02-04 21:19:55.336069+01 | 1486239595.33607 | 29/4656E000              |          177273757696

 2017-02-04 21:19:56.415899+01 | 1486239596.4159 | 29/48647390              |          177308201872

 2017-02-04 21:19:57.498795+01 | 1486239597.4988 | 29/4A726FE8              |          177342672872

 2017-02-04 21:19:58.580792+01 | 1486239598.58079 | 29/4C82A240              |          177377288768

 2017-02-04 21:19:59.669228+01 | 1486239599.66923 | 29/4E761F60              |          177410023264

 2017-02-04 21:20:00.752104+01 | 1486239600.7521 | 29/5075EF98              |          177443565464

 2017-02-04 21:20:01.851119+01 | 1486239601.85112 | 29/527F9C78              |          177477753976

 2017-02-04 21:20:02.960327+01 | 1486239602.96033 | 29/54981208              |          177512911368

 2017-02-04 21:20:04.065462+01 | 1486239604.06546 | 29/56A269A8              |          177547143592

 2017-02-04 21:20:05.160543+01 | 1486239605.16054 | 29/58B59950              |          177581955408

 2017-02-04 21:20:06.244547+01 | 1486239606.24455 | 29/5AB13DD0              |          177615224272

 2017-02-04 21:20:07.327157+01 | 1486239607.32716 | 29/5CB7A100              |          177649197312

 2017-02-04 21:20:08.409647+01 | 1486239608.40965 | 29/5EBF6950              |          177683261776

 2017-02-04 21:20:09.498896+01 | 1486239609.4989 | 29/609FF148              |          177714753864

 2017-02-04 21:20:10.58917+01 | 1486239610.58917 | 29/62A86530              |          177748862256

 2017-02-04 21:20:11.676241+01 | 1486239611.67624 | 29/64AE3C78              |          177782799480

 2017-02-04 21:20:12.764582+01 | 1486239612.76458 | 29/66C04D98              |          177817537944

 2017-02-04 21:20:13.855084+01 | 1486239613.85508 | 29/68C0DCA8              |          177851129000

 2017-02-04 21:20:14.953862+01 | 1486239614.95386 | 29/6ABDCE90              |          177884483216

 2017-02-04 21:20:16.04743+01 | 1486239616.04743 | 29/6CBB35A8              |          177917867432

 2017-02-04 21:20:17.147456+01 | 1486239617.14746 | 29/6E92D9E8              |          177948776936

 2017-02-04 21:20:18.235622+01 | 1486239618.23562 | 29/7097FBD8              |          177982667736

 2017-02-04 21:20:19.322103+01 | 1486239619.3221 | 29/728A2F40              |          178015317824

 2017-02-04 21:20:20.401874+01 | 1486239620.40187 | 29/746E9240              |          178047062592

 2017-02-04 21:20:21.476544+01 | 1486239621.47654 | 29/76570CA8              |          178079075496

 2017-02-04 21:20:22.558509+01 | 1486239622.55851 | 29/78617B20              |          178113313568

 2017-02-04 21:20:23.642449+01 | 1486239623.64245 | 29/7A5EB540              |          178146686272

 2017-02-04 21:20:24.727157+01 | 1486239624.72716 | 29/7C566450              |          178179695696

 2017-02-04 21:20:25.807834+01 | 1486239625.80783 | 29/7E574D30              |          178213309744

 2017-02-04 21:20:26.904743+01 | 1486239626.90474 | 29/80151AC8              |          178242525896

 2017-02-04 21:20:27.998121+01 | 1486239627.99812 | 29/8213CD18              |          178275994904

 2017-02-04 21:20:29.102345+01 | 1486239629.10234 | 29/84058608              |          178308613640

 2017-02-04 21:20:30.205683+01 | 1486239630.20568 | 29/85F6D610              |          178341205520

 2017-02-04 21:20:31.29365+01 | 1486239631.29365 | 29/87DAFFA8              |          178372935592

 2017-02-04 21:20:32.377956+01 | 1486239632.37796 | 29/89AA1FA0              |          178403286944

 2017-02-04 21:20:33.460764+01 | 1486239633.46076 | 29/8B89C258              |          178434720344

 2017-02-04 21:20:34.546628+01 | 1486239634.54663 | 29/8D541870              |          178464757872

 2017-02-04 21:20:35.637748+01 | 1486239635.63775 | 29/8EDDE868              |          178490566760

 2017-02-04 21:20:36.726031+01 | 1486239636.72603 | 29/90CE67B8              |          178523105208

 2017-02-04 21:20:37.814631+01 | 1486239637.81463 | 29/92BD39A0              |          178555533728

 2017-02-04 21:20:38.906053+01 | 1486239638.90605 | 29/94BEA818              |          178589181976

 2017-02-04 21:20:40.006472+01 | 1486239640.00647 | 29/96AF34A0              |          178621723808

 2017-02-04 21:20:41.09284+01 | 1486239641.09284 | 29/988632A0              |          178652590752

 2017-02-04 21:20:42.181341+01 | 1486239642.18134 | 29/9A6EAA60              |          178684602976

 2017-02-04 21:20:43.269862+01 | 1486239643.26986 | 29/9C515040              |          178716233792

 2017-02-04 21:20:44.354076+01 | 1486239644.35408 | 29/9E04EB10              |          178744781584

 2017-02-04 21:20:45.443542+01 | 1486239645.44354 | 29/9FE40720              |          178776180512

 2017-02-04 21:20:46.529984+01 | 1486239646.52998 | 29/A1CA8290              |          178808062608

 2017-02-04 21:20:47.616379+01 | 1486239647.61638 | 29/A3B090C0              |          178839916736

 2017-02-04 21:20:48.699864+01 | 1486239648.69986 | 29/A58C4D08              |          178871094536

 2017-02-04 21:20:49.778696+01 | 1486239649.7787 | 29/A7704A38              |          178902813240

 2017-02-04 21:20:50.865103+01 | 1486239650.8651 | 29/A92D00B8              |          178931957944

 2017-02-04 21:20:51.969282+01 | 1486239651.96928 | 29/AB286C68              |          178965212264

 2017-02-04 21:20:53.063472+01 | 1486239653.06347 | 29/AD1341C0              |          178997379520

 2017-02-04 21:20:54.152877+01 | 1486239654.15288 | 29/AEF3DBF0              |          179028876272

 2017-02-04 21:20:55.239495+01 | 1486239655.2395 | 29/B0C0F5E8              |          179059095016

 2017-02-04 21:20:56.332025+01 | 1486239656.33203 | 29/B265BDE8              |          179086671336

 2017-02-04 21:20:57.411835+01 | 1486239657.41183 | 29/B4394B38              |          179117312824

 2017-02-04 21:20:58.496679+01 | 1486239658.49668 | 29/B6130208              |          179148358152

 2017-02-04 21:20:59.580544+01 | 1486239659.58054 | 29/B7C138F8              |          179176552696

 2017-02-04 21:21:00.667622+01 | 1486239660.66762 | 29/B99EC390              |          179207848848

