 2017-02-04 12:20:33.324954+01 | 1486207233.32495 | pgbench_branches_pkey |            57344
 2017-02-04 12:20:33.324954+01 | 1486207233.32495 | pgbench_tellers_pkey  |           245760
 2017-02-04 12:20:33.324954+01 | 1486207233.32495 | pgbench_accounts_pkey |        224641024

 2017-02-04 12:20:34.427688+01 | 1486207234.42769 | pgbench_branches_pkey |            57344
 2017-02-04 12:20:34.427688+01 | 1486207234.42769 | pgbench_tellers_pkey  |           245760
 2017-02-04 12:20:34.427688+01 | 1486207234.42769 | pgbench_accounts_pkey |        224641024

 2017-02-04 12:20:35.523075+01 | 1486207235.52308 | pgbench_branches_pkey |            57344
 2017-02-04 12:20:35.523075+01 | 1486207235.52308 | pgbench_tellers_pkey  |           245760
 2017-02-04 12:20:35.523075+01 | 1486207235.52308 | pgbench_accounts_pkey |        224641024

 2017-02-04 12:20:36.619505+01 | 1486207236.6195 | pgbench_branches_pkey |            57344
 2017-02-04 12:20:36.619505+01 | 1486207236.6195 | pgbench_tellers_pkey  |           245760
 2017-02-04 12:20:36.619505+01 | 1486207236.6195 | pgbench_accounts_pkey |        224641024

 2017-02-04 12:20:37.708377+01 | 1486207237.70838 | pgbench_branches_pkey |            57344
 2017-02-04 12:20:37.708377+01 | 1486207237.70838 | pgbench_tellers_pkey  |           245760
 2017-02-04 12:20:37.708377+01 | 1486207237.70838 | pgbench_accounts_pkey |        224641024

 2017-02-04 12:20:38.79997+01 | 1486207238.79997 | pgbench_branches_pkey |            57344
 2017-02-04 12:20:38.79997+01 | 1486207238.79997 | pgbench_tellers_pkey  |           245760
 2017-02-04 12:20:38.79997+01 | 1486207238.79997 | pgbench_accounts_pkey |        224641024

 2017-02-04 12:20:39.88161+01 | 1486207239.88161 | pgbench_branches_pkey |            57344
 2017-02-04 12:20:39.88161+01 | 1486207239.88161 | pgbench_tellers_pkey  |           245760
 2017-02-04 12:20:39.88161+01 | 1486207239.88161 | pgbench_accounts_pkey |        224641024

 2017-02-04 12:20:40.966672+01 | 1486207240.96667 | pgbench_branches_pkey |            57344
 2017-02-04 12:20:40.966672+01 | 1486207240.96667 | pgbench_tellers_pkey  |           245760
 2017-02-04 12:20:40.966672+01 | 1486207240.96667 | pgbench_accounts_pkey |        224641024

 2017-02-04 12:20:42.048024+01 | 1486207242.04802 | pgbench_branches_pkey |            57344
 2017-02-04 12:20:42.048024+01 | 1486207242.04802 | pgbench_tellers_pkey  |           245760
 2017-02-04 12:20:42.048024+01 | 1486207242.04802 | pgbench_accounts_pkey |        224641024

 2017-02-04 12:20:43.129852+01 | 1486207243.12985 | pgbench_branches_pkey |            57344
 2017-02-04 12:20:43.129852+01 | 1486207243.12985 | pgbench_tellers_pkey  |           245760
 2017-02-04 12:20:43.129852+01 | 1486207243.12985 | pgbench_accounts_pkey |        224641024

 2017-02-04 12:20:44.209382+01 | 1486207244.20938 | pgbench_branches_pkey |            57344
 2017-02-04 12:20:44.209382+01 | 1486207244.20938 | pgbench_tellers_pkey  |           245760
 2017-02-04 12:20:44.209382+01 | 1486207244.20938 | pgbench_accounts_pkey |        224641024

 2017-02-04 12:20:45.282464+01 | 1486207245.28246 | pgbench_branches_pkey |            57344
 2017-02-04 12:20:45.282464+01 | 1486207245.28246 | pgbench_tellers_pkey  |           245760
 2017-02-04 12:20:45.282464+01 | 1486207245.28246 | pgbench_accounts_pkey |        224641024

 2017-02-04 12:20:46.358576+01 | 1486207246.35858 | pgbench_branches_pkey |            57344
 2017-02-04 12:20:46.358576+01 | 1486207246.35858 | pgbench_tellers_pkey  |           245760
 2017-02-04 12:20:46.358576+01 | 1486207246.35858 | pgbench_accounts_pkey |        224641024

 2017-02-04 12:20:47.443772+01 | 1486207247.44377 | pgbench_branches_pkey |            57344
 2017-02-04 12:20:47.443772+01 | 1486207247.44377 | pgbench_tellers_pkey  |           245760
 2017-02-04 12:20:47.443772+01 | 1486207247.44377 | pgbench_accounts_pkey |        224641024

 2017-02-04 12:20:48.525277+01 | 1486207248.52528 | pgbench_branches_pkey |            57344
 2017-02-04 12:20:48.525277+01 | 1486207248.52528 | pgbench_tellers_pkey  |           245760
 2017-02-04 12:20:48.525277+01 | 1486207248.52528 | pgbench_accounts_pkey |        224641024

 2017-02-04 12:20:49.607101+01 | 1486207249.6071 | pgbench_branches_pkey |            57344
 2017-02-04 12:20:49.607101+01 | 1486207249.6071 | pgbench_tellers_pkey  |           245760
 2017-02-04 12:20:49.607101+01 | 1486207249.6071 | pgbench_accounts_pkey |        224641024

 2017-02-04 12:20:50.69735+01 | 1486207250.69735 | pgbench_branches_pkey |            57344
 2017-02-04 12:20:50.69735+01 | 1486207250.69735 | pgbench_tellers_pkey  |           245760
 2017-02-04 12:20:50.69735+01 | 1486207250.69735 | pgbench_accounts_pkey |        224641024

 2017-02-04 12:20:51.781079+01 | 1486207251.78108 | pgbench_branches_pkey |            57344
 2017-02-04 12:20:51.781079+01 | 1486207251.78108 | pgbench_tellers_pkey  |           245760
 2017-02-04 12:20:51.781079+01 | 1486207251.78108 | pgbench_accounts_pkey |        224641024

 2017-02-04 12:20:52.861748+01 | 1486207252.86175 | pgbench_branches_pkey |            57344
 2017-02-04 12:20:52.861748+01 | 1486207252.86175 | pgbench_tellers_pkey  |           245760
 2017-02-04 12:20:52.861748+01 | 1486207252.86175 | pgbench_accounts_pkey |        224641024

 2017-02-04 12:20:53.949681+01 | 1486207253.94968 | pgbench_branches_pkey |            57344
 2017-02-04 12:20:53.949681+01 | 1486207253.94968 | pgbench_tellers_pkey  |           245760
 2017-02-04 12:20:53.949681+01 | 1486207253.94968 | pgbench_accounts_pkey |        224641024

 2017-02-04 12:20:55.042728+01 | 1486207255.04273 | pgbench_branches_pkey |            57344
 2017-02-04 12:20:55.042728+01 | 1486207255.04273 | pgbench_tellers_pkey  |           245760
 2017-02-04 12:20:55.042728+01 | 1486207255.04273 | pgbench_accounts_pkey |        224641024

 2017-02-04 12:20:56.127166+01 | 1486207256.12717 | pgbench_branches_pkey |            57344
 2017-02-04 12:20:56.127166+01 | 1486207256.12717 | pgbench_tellers_pkey  |           245760
 2017-02-04 12:20:56.127166+01 | 1486207256.12717 | pgbench_accounts_pkey |        224641024

 2017-02-04 12:20:57.207893+01 | 1486207257.20789 | pgbench_branches_pkey |            57344
 2017-02-04 12:20:57.207893+01 | 1486207257.20789 | pgbench_tellers_pkey  |           245760
 2017-02-04 12:20:57.207893+01 | 1486207257.20789 | pgbench_accounts_pkey |        224641024

 2017-02-04 12:20:58.287052+01 | 1486207258.28705 | pgbench_branches_pkey |            57344
 2017-02-04 12:20:58.287052+01 | 1486207258.28705 | pgbench_tellers_pkey  |           245760
 2017-02-04 12:20:58.287052+01 | 1486207258.28705 | pgbench_accounts_pkey |        224641024

 2017-02-04 12:20:59.366619+01 | 1486207259.36662 | pgbench_branches_pkey |            57344
 2017-02-04 12:20:59.366619+01 | 1486207259.36662 | pgbench_tellers_pkey  |           245760
 2017-02-04 12:20:59.366619+01 | 1486207259.36662 | pgbench_accounts_pkey |        224641024

 2017-02-04 12:21:00.453582+01 | 1486207260.45358 | pgbench_branches_pkey |            57344
 2017-02-04 12:21:00.453582+01 | 1486207260.45358 | pgbench_tellers_pkey  |           245760
 2017-02-04 12:21:00.453582+01 | 1486207260.45358 | pgbench_accounts_pkey |        224641024

 2017-02-04 12:21:01.547116+01 | 1486207261.54712 | pgbench_branches_pkey |            57344
 2017-02-04 12:21:01.547116+01 | 1486207261.54712 | pgbench_tellers_pkey  |           245760
 2017-02-04 12:21:01.547116+01 | 1486207261.54712 | pgbench_accounts_pkey |        224641024

 2017-02-04 12:21:02.629374+01 | 1486207262.62937 | pgbench_branches_pkey |            57344
 2017-02-04 12:21:02.629374+01 | 1486207262.62937 | pgbench_tellers_pkey  |           245760
 2017-02-04 12:21:02.629374+01 | 1486207262.62937 | pgbench_accounts_pkey |        224641024

 2017-02-04 12:21:03.717322+01 | 1486207263.71732 | pgbench_branches_pkey |            57344
 2017-02-04 12:21:03.717322+01 | 1486207263.71732 | pgbench_tellers_pkey  |           245760
 2017-02-04 12:21:03.717322+01 | 1486207263.71732 | pgbench_accounts_pkey |        224641024

 2017-02-04 12:21:04.805245+01 | 1486207264.80524 | pgbench_branches_pkey |            57344
 2017-02-04 12:21:04.805245+01 | 1486207264.80524 | pgbench_tellers_pkey  |           245760
 2017-02-04 12:21:04.805245+01 | 1486207264.80524 | pgbench_accounts_pkey |        224641024

 2017-02-04 12:21:05.889722+01 | 1486207265.88972 | pgbench_branches_pkey |            57344
 2017-02-04 12:21:05.889722+01 | 1486207265.88972 | pgbench_tellers_pkey  |           245760
 2017-02-04 12:21:05.889722+01 | 1486207265.88972 | pgbench_accounts_pkey |        224641024

 2017-02-04 12:21:06.978098+01 | 1486207266.9781 | pgbench_branches_pkey |            57344
 2017-02-04 12:21:06.978098+01 | 1486207266.9781 | pgbench_tellers_pkey  |           245760
 2017-02-04 12:21:06.978098+01 | 1486207266.9781 | pgbench_accounts_pkey |        224641024

 2017-02-04 12:21:08.067523+01 | 1486207268.06752 | pgbench_branches_pkey |            57344
 2017-02-04 12:21:08.067523+01 | 1486207268.06752 | pgbench_tellers_pkey  |           245760
 2017-02-04 12:21:08.067523+01 | 1486207268.06752 | pgbench_accounts_pkey |        224641024

 2017-02-04 12:21:09.154307+01 | 1486207269.15431 | pgbench_branches_pkey |            57344
 2017-02-04 12:21:09.154307+01 | 1486207269.15431 | pgbench_tellers_pkey  |           245760
 2017-02-04 12:21:09.154307+01 | 1486207269.15431 | pgbench_accounts_pkey |        224641024

 2017-02-04 12:21:10.22503+01 | 1486207270.22503 | pgbench_branches_pkey |            57344
 2017-02-04 12:21:10.22503+01 | 1486207270.22503 | pgbench_tellers_pkey  |           245760
 2017-02-04 12:21:10.22503+01 | 1486207270.22503 | pgbench_accounts_pkey |        224641024

 2017-02-04 12:21:11.304938+01 | 1486207271.30494 | pgbench_branches_pkey |            57344
 2017-02-04 12:21:11.304938+01 | 1486207271.30494 | pgbench_tellers_pkey  |           245760
 2017-02-04 12:21:11.304938+01 | 1486207271.30494 | pgbench_accounts_pkey |        224641024

 2017-02-04 12:21:12.390591+01 | 1486207272.39059 | pgbench_branches_pkey |            57344
 2017-02-04 12:21:12.390591+01 | 1486207272.39059 | pgbench_tellers_pkey  |           245760
 2017-02-04 12:21:12.390591+01 | 1486207272.39059 | pgbench_accounts_pkey |        224641024

 2017-02-04 12:21:13.474481+01 | 1486207273.47448 | pgbench_branches_pkey |            57344
 2017-02-04 12:21:13.474481+01 | 1486207273.47448 | pgbench_tellers_pkey  |           245760
 2017-02-04 12:21:13.474481+01 | 1486207273.47448 | pgbench_accounts_pkey |        224641024

 2017-02-04 12:21:14.56186+01 | 1486207274.56186 | pgbench_branches_pkey |            57344
 2017-02-04 12:21:14.56186+01 | 1486207274.56186 | pgbench_tellers_pkey  |           245760
 2017-02-04 12:21:14.56186+01 | 1486207274.56186 | pgbench_accounts_pkey |        224641024

 2017-02-04 12:21:15.650517+01 | 1486207275.65052 | pgbench_branches_pkey |            57344
 2017-02-04 12:21:15.650517+01 | 1486207275.65052 | pgbench_tellers_pkey  |           245760
 2017-02-04 12:21:15.650517+01 | 1486207275.65052 | pgbench_accounts_pkey |        224641024

 2017-02-04 12:21:16.730415+01 | 1486207276.73042 | pgbench_branches_pkey |            57344
 2017-02-04 12:21:16.730415+01 | 1486207276.73042 | pgbench_tellers_pkey  |           245760
 2017-02-04 12:21:16.730415+01 | 1486207276.73042 | pgbench_accounts_pkey |        224641024

 2017-02-04 12:21:17.815498+01 | 1486207277.8155 | pgbench_branches_pkey |            57344
 2017-02-04 12:21:17.815498+01 | 1486207277.8155 | pgbench_tellers_pkey  |           245760
 2017-02-04 12:21:17.815498+01 | 1486207277.8155 | pgbench_accounts_pkey |        224641024

 2017-02-04 12:21:18.900537+01 | 1486207278.90054 | pgbench_branches_pkey |            57344
 2017-02-04 12:21:18.900537+01 | 1486207278.90054 | pgbench_tellers_pkey  |           245760
 2017-02-04 12:21:18.900537+01 | 1486207278.90054 | pgbench_accounts_pkey |        224641024

 2017-02-04 12:21:19.987395+01 | 1486207279.9874 | pgbench_branches_pkey |            57344
 2017-02-04 12:21:19.987395+01 | 1486207279.9874 | pgbench_tellers_pkey  |           245760
 2017-02-04 12:21:19.987395+01 | 1486207279.9874 | pgbench_accounts_pkey |        224641024

 2017-02-04 12:21:21.068013+01 | 1486207281.06801 | pgbench_branches_pkey |            57344
 2017-02-04 12:21:21.068013+01 | 1486207281.06801 | pgbench_tellers_pkey  |           245760
 2017-02-04 12:21:21.068013+01 | 1486207281.06801 | pgbench_accounts_pkey |        224641024

 2017-02-04 12:21:22.148521+01 | 1486207282.14852 | pgbench_branches_pkey |            57344
 2017-02-04 12:21:22.148521+01 | 1486207282.14852 | pgbench_tellers_pkey  |           245760
 2017-02-04 12:21:22.148521+01 | 1486207282.14852 | pgbench_accounts_pkey |        224641024

 2017-02-04 12:21:23.236333+01 | 1486207283.23633 | pgbench_branches_pkey |            57344
 2017-02-04 12:21:23.236333+01 | 1486207283.23633 | pgbench_tellers_pkey  |           245760
 2017-02-04 12:21:23.236333+01 | 1486207283.23633 | pgbench_accounts_pkey |        224641024

 2017-02-04 12:21:24.318978+01 | 1486207284.31898 | pgbench_branches_pkey |            57344
 2017-02-04 12:21:24.318978+01 | 1486207284.31898 | pgbench_tellers_pkey  |           245760
 2017-02-04 12:21:24.318978+01 | 1486207284.31898 | pgbench_accounts_pkey |        224641024

 2017-02-04 12:21:25.397543+01 | 1486207285.39754 | pgbench_branches_pkey |            57344
 2017-02-04 12:21:25.397543+01 | 1486207285.39754 | pgbench_tellers_pkey  |           245760
 2017-02-04 12:21:25.397543+01 | 1486207285.39754 | pgbench_accounts_pkey |        224641024

 2017-02-04 12:21:26.484014+01 | 1486207286.48401 | pgbench_branches_pkey |            57344
 2017-02-04 12:21:26.484014+01 | 1486207286.48401 | pgbench_tellers_pkey  |           245760
 2017-02-04 12:21:26.484014+01 | 1486207286.48401 | pgbench_accounts_pkey |        224641024

 2017-02-04 12:21:27.556562+01 | 1486207287.55656 | pgbench_branches_pkey |            57344
 2017-02-04 12:21:27.556562+01 | 1486207287.55656 | pgbench_tellers_pkey  |           245760
 2017-02-04 12:21:27.556562+01 | 1486207287.55656 | pgbench_accounts_pkey |        224641024

 2017-02-04 12:21:28.654657+01 | 1486207288.65466 | pgbench_branches_pkey |            57344
 2017-02-04 12:21:28.654657+01 | 1486207288.65466 | pgbench_tellers_pkey  |           245760
 2017-02-04 12:21:28.654657+01 | 1486207288.65466 | pgbench_accounts_pkey |        224641024

 2017-02-04 12:21:29.737357+01 | 1486207289.73736 | pgbench_branches_pkey |            57344
 2017-02-04 12:21:29.737357+01 | 1486207289.73736 | pgbench_tellers_pkey  |           245760
 2017-02-04 12:21:29.737357+01 | 1486207289.73736 | pgbench_accounts_pkey |        224641024

 2017-02-04 12:21:30.819575+01 | 1486207290.81958 | pgbench_branches_pkey |            57344
 2017-02-04 12:21:30.819575+01 | 1486207290.81958 | pgbench_tellers_pkey  |           245760
 2017-02-04 12:21:30.819575+01 | 1486207290.81958 | pgbench_accounts_pkey |        224641024

 2017-02-04 12:21:31.902281+01 | 1486207291.90228 | pgbench_branches_pkey |            57344
 2017-02-04 12:21:31.902281+01 | 1486207291.90228 | pgbench_tellers_pkey  |           245760
 2017-02-04 12:21:31.902281+01 | 1486207291.90228 | pgbench_accounts_pkey |        224641024

 2017-02-04 12:21:32.977425+01 | 1486207292.97743 | pgbench_branches_pkey |            57344
 2017-02-04 12:21:32.977425+01 | 1486207292.97743 | pgbench_tellers_pkey  |           245760
 2017-02-04 12:21:32.977425+01 | 1486207292.97743 | pgbench_accounts_pkey |        224641024

 2017-02-04 12:21:34.064431+01 | 1486207294.06443 | pgbench_branches_pkey |            57344
 2017-02-04 12:21:34.064431+01 | 1486207294.06443 | pgbench_tellers_pkey  |           245760
 2017-02-04 12:21:34.064431+01 | 1486207294.06443 | pgbench_accounts_pkey |        224641024

 2017-02-04 12:21:35.1543+01 | 1486207295.1543 | pgbench_branches_pkey |            57344
 2017-02-04 12:21:35.1543+01 | 1486207295.1543 | pgbench_tellers_pkey  |           245760
 2017-02-04 12:21:35.1543+01 | 1486207295.1543 | pgbench_accounts_pkey |        224641024

 2017-02-04 12:21:36.241918+01 | 1486207296.24192 | pgbench_branches_pkey |            57344
 2017-02-04 12:21:36.241918+01 | 1486207296.24192 | pgbench_tellers_pkey  |           245760
 2017-02-04 12:21:36.241918+01 | 1486207296.24192 | pgbench_accounts_pkey |        224641024

 2017-02-04 12:21:37.323449+01 | 1486207297.32345 | pgbench_branches_pkey |            57344
 2017-02-04 12:21:37.323449+01 | 1486207297.32345 | pgbench_tellers_pkey  |           245760
 2017-02-04 12:21:37.323449+01 | 1486207297.32345 | pgbench_accounts_pkey |        224641024

 2017-02-04 12:21:38.401753+01 | 1486207298.40175 | pgbench_branches_pkey |            57344
 2017-02-04 12:21:38.401753+01 | 1486207298.40175 | pgbench_tellers_pkey  |           245760
 2017-02-04 12:21:38.401753+01 | 1486207298.40175 | pgbench_accounts_pkey |        224641024

 2017-02-04 12:21:39.487717+01 | 1486207299.48772 | pgbench_branches_pkey |            57344
 2017-02-04 12:21:39.487717+01 | 1486207299.48772 | pgbench_tellers_pkey  |           245760
 2017-02-04 12:21:39.487717+01 | 1486207299.48772 | pgbench_accounts_pkey |        224641024

 2017-02-04 12:21:40.573943+01 | 1486207300.57394 | pgbench_branches_pkey |            57344
 2017-02-04 12:21:40.573943+01 | 1486207300.57394 | pgbench_tellers_pkey  |           245760
 2017-02-04 12:21:40.573943+01 | 1486207300.57394 | pgbench_accounts_pkey |        224641024

 2017-02-04 12:21:41.653867+01 | 1486207301.65387 | pgbench_branches_pkey |            57344
 2017-02-04 12:21:41.653867+01 | 1486207301.65387 | pgbench_tellers_pkey  |           245760
 2017-02-04 12:21:41.653867+01 | 1486207301.65387 | pgbench_accounts_pkey |        224641024

 2017-02-04 12:21:42.739121+01 | 1486207302.73912 | pgbench_branches_pkey |            57344
 2017-02-04 12:21:42.739121+01 | 1486207302.73912 | pgbench_tellers_pkey  |           245760
 2017-02-04 12:21:42.739121+01 | 1486207302.73912 | pgbench_accounts_pkey |        224641024

 2017-02-04 12:21:43.824182+01 | 1486207303.82418 | pgbench_branches_pkey |            57344
 2017-02-04 12:21:43.824182+01 | 1486207303.82418 | pgbench_tellers_pkey  |           245760
 2017-02-04 12:21:43.824182+01 | 1486207303.82418 | pgbench_accounts_pkey |        224641024

 2017-02-04 12:21:44.907661+01 | 1486207304.90766 | pgbench_branches_pkey |            57344
 2017-02-04 12:21:44.907661+01 | 1486207304.90766 | pgbench_tellers_pkey  |           245760
 2017-02-04 12:21:44.907661+01 | 1486207304.90766 | pgbench_accounts_pkey |        224641024

 2017-02-04 12:21:45.992869+01 | 1486207305.99287 | pgbench_branches_pkey |            57344
 2017-02-04 12:21:45.992869+01 | 1486207305.99287 | pgbench_tellers_pkey  |           245760
 2017-02-04 12:21:45.992869+01 | 1486207305.99287 | pgbench_accounts_pkey |        224641024

 2017-02-04 12:21:47.080175+01 | 1486207307.08017 | pgbench_branches_pkey |            57344
 2017-02-04 12:21:47.080175+01 | 1486207307.08017 | pgbench_tellers_pkey  |           245760
 2017-02-04 12:21:47.080175+01 | 1486207307.08017 | pgbench_accounts_pkey |        224641024

 2017-02-04 12:21:48.162175+01 | 1486207308.16217 | pgbench_branches_pkey |            57344
 2017-02-04 12:21:48.162175+01 | 1486207308.16217 | pgbench_tellers_pkey  |           245760
 2017-02-04 12:21:48.162175+01 | 1486207308.16217 | pgbench_accounts_pkey |        224641024

 2017-02-04 12:21:49.244126+01 | 1486207309.24413 | pgbench_branches_pkey |            57344
 2017-02-04 12:21:49.244126+01 | 1486207309.24413 | pgbench_tellers_pkey  |           245760
 2017-02-04 12:21:49.244126+01 | 1486207309.24413 | pgbench_accounts_pkey |        224641024

 2017-02-04 12:21:50.324757+01 | 1486207310.32476 | pgbench_branches_pkey |            57344
 2017-02-04 12:21:50.324757+01 | 1486207310.32476 | pgbench_tellers_pkey  |           245760
 2017-02-04 12:21:50.324757+01 | 1486207310.32476 | pgbench_accounts_pkey |        224641024

 2017-02-04 12:21:51.395381+01 | 1486207311.39538 | pgbench_branches_pkey |            57344
 2017-02-04 12:21:51.395381+01 | 1486207311.39538 | pgbench_tellers_pkey  |           245760
 2017-02-04 12:21:51.395381+01 | 1486207311.39538 | pgbench_accounts_pkey |        224641024

 2017-02-04 12:21:52.475508+01 | 1486207312.47551 | pgbench_branches_pkey |            57344
 2017-02-04 12:21:52.475508+01 | 1486207312.47551 | pgbench_tellers_pkey  |           245760
 2017-02-04 12:21:52.475508+01 | 1486207312.47551 | pgbench_accounts_pkey |        224641024

 2017-02-04 12:21:53.566295+01 | 1486207313.56629 | pgbench_branches_pkey |            57344
 2017-02-04 12:21:53.566295+01 | 1486207313.56629 | pgbench_tellers_pkey  |           245760
 2017-02-04 12:21:53.566295+01 | 1486207313.56629 | pgbench_accounts_pkey |        224641024

 2017-02-04 12:21:54.648121+01 | 1486207314.64812 | pgbench_branches_pkey |            57344
 2017-02-04 12:21:54.648121+01 | 1486207314.64812 | pgbench_tellers_pkey  |           245760
 2017-02-04 12:21:54.648121+01 | 1486207314.64812 | pgbench_accounts_pkey |        224641024

 2017-02-04 12:21:55.731225+01 | 1486207315.73123 | pgbench_branches_pkey |            57344
 2017-02-04 12:21:55.731225+01 | 1486207315.73123 | pgbench_tellers_pkey  |           245760
 2017-02-04 12:21:55.731225+01 | 1486207315.73123 | pgbench_accounts_pkey |        224641024

 2017-02-04 12:21:56.813771+01 | 1486207316.81377 | pgbench_branches_pkey |            57344
 2017-02-04 12:21:56.813771+01 | 1486207316.81377 | pgbench_tellers_pkey  |           245760
 2017-02-04 12:21:56.813771+01 | 1486207316.81377 | pgbench_accounts_pkey |        224641024

 2017-02-04 12:21:57.897216+01 | 1486207317.89722 | pgbench_branches_pkey |            57344
 2017-02-04 12:21:57.897216+01 | 1486207317.89722 | pgbench_tellers_pkey  |           245760
 2017-02-04 12:21:57.897216+01 | 1486207317.89722 | pgbench_accounts_pkey |        224641024

 2017-02-04 12:21:58.977626+01 | 1486207318.97763 | pgbench_branches_pkey |            57344
 2017-02-04 12:21:58.977626+01 | 1486207318.97763 | pgbench_tellers_pkey  |           245760
 2017-02-04 12:21:58.977626+01 | 1486207318.97763 | pgbench_accounts_pkey |        224641024

 2017-02-04 12:22:00.069089+01 | 1486207320.06909 | pgbench_branches_pkey |            57344
 2017-02-04 12:22:00.069089+01 | 1486207320.06909 | pgbench_tellers_pkey  |           245760
 2017-02-04 12:22:00.069089+01 | 1486207320.06909 | pgbench_accounts_pkey |        224641024

 2017-02-04 12:22:01.158481+01 | 1486207321.15848 | pgbench_branches_pkey |            57344
 2017-02-04 12:22:01.158481+01 | 1486207321.15848 | pgbench_tellers_pkey  |           245760
 2017-02-04 12:22:01.158481+01 | 1486207321.15848 | pgbench_accounts_pkey |        224641024

 2017-02-04 12:22:02.239436+01 | 1486207322.23944 | pgbench_branches_pkey |            57344
 2017-02-04 12:22:02.239436+01 | 1486207322.23944 | pgbench_tellers_pkey  |           245760
 2017-02-04 12:22:02.239436+01 | 1486207322.23944 | pgbench_accounts_pkey |        224641024

 2017-02-04 12:22:03.316322+01 | 1486207323.31632 | pgbench_branches_pkey |            57344
 2017-02-04 12:22:03.316322+01 | 1486207323.31632 | pgbench_tellers_pkey  |           245760
 2017-02-04 12:22:03.316322+01 | 1486207323.31632 | pgbench_accounts_pkey |        224641024

 2017-02-04 12:22:04.394532+01 | 1486207324.39453 | pgbench_branches_pkey |            57344
 2017-02-04 12:22:04.394532+01 | 1486207324.39453 | pgbench_tellers_pkey  |           245760
 2017-02-04 12:22:04.394532+01 | 1486207324.39453 | pgbench_accounts_pkey |        224641024

 2017-02-04 12:22:05.474267+01 | 1486207325.47427 | pgbench_branches_pkey |            57344
 2017-02-04 12:22:05.474267+01 | 1486207325.47427 | pgbench_tellers_pkey  |           245760
 2017-02-04 12:22:05.474267+01 | 1486207325.47427 | pgbench_accounts_pkey |        224641024

 2017-02-04 12:22:06.558935+01 | 1486207326.55893 | pgbench_branches_pkey |            57344
 2017-02-04 12:22:06.558935+01 | 1486207326.55893 | pgbench_tellers_pkey  |           245760
 2017-02-04 12:22:06.558935+01 | 1486207326.55893 | pgbench_accounts_pkey |        224641024

 2017-02-04 12:22:07.640376+01 | 1486207327.64038 | pgbench_branches_pkey |            57344
 2017-02-04 12:22:07.640376+01 | 1486207327.64038 | pgbench_tellers_pkey  |           245760
 2017-02-04 12:22:07.640376+01 | 1486207327.64038 | pgbench_accounts_pkey |        224641024

 2017-02-04 12:22:08.720317+01 | 1486207328.72032 | pgbench_branches_pkey |            57344
 2017-02-04 12:22:08.720317+01 | 1486207328.72032 | pgbench_tellers_pkey  |           245760
 2017-02-04 12:22:08.720317+01 | 1486207328.72032 | pgbench_accounts_pkey |        224641024

 2017-02-04 12:22:09.808937+01 | 1486207329.80894 | pgbench_branches_pkey |            57344
 2017-02-04 12:22:09.808937+01 | 1486207329.80894 | pgbench_tellers_pkey  |           245760
 2017-02-04 12:22:09.808937+01 | 1486207329.80894 | pgbench_accounts_pkey |        224641024

 2017-02-04 12:22:10.891039+01 | 1486207330.89104 | pgbench_branches_pkey |            57344
 2017-02-04 12:22:10.891039+01 | 1486207330.89104 | pgbench_tellers_pkey  |           245760
 2017-02-04 12:22:10.891039+01 | 1486207330.89104 | pgbench_accounts_pkey |        224641024

 2017-02-04 12:22:11.973379+01 | 1486207331.97338 | pgbench_branches_pkey |            57344
 2017-02-04 12:22:11.973379+01 | 1486207331.97338 | pgbench_tellers_pkey  |           245760
 2017-02-04 12:22:11.973379+01 | 1486207331.97338 | pgbench_accounts_pkey |        224641024

 2017-02-04 12:22:13.059245+01 | 1486207333.05925 | pgbench_branches_pkey |            57344
 2017-02-04 12:22:13.059245+01 | 1486207333.05925 | pgbench_tellers_pkey  |           245760
 2017-02-04 12:22:13.059245+01 | 1486207333.05925 | pgbench_accounts_pkey |        224641024

 2017-02-04 12:22:14.140974+01 | 1486207334.14097 | pgbench_branches_pkey |            57344
 2017-02-04 12:22:14.140974+01 | 1486207334.14097 | pgbench_tellers_pkey  |           245760
 2017-02-04 12:22:14.140974+01 | 1486207334.14097 | pgbench_accounts_pkey |        224641024

 2017-02-04 12:22:15.217399+01 | 1486207335.2174 | pgbench_branches_pkey |            57344
 2017-02-04 12:22:15.217399+01 | 1486207335.2174 | pgbench_tellers_pkey  |           245760
 2017-02-04 12:22:15.217399+01 | 1486207335.2174 | pgbench_accounts_pkey |        224641024

 2017-02-04 12:22:16.300838+01 | 1486207336.30084 | pgbench_branches_pkey |            57344
 2017-02-04 12:22:16.300838+01 | 1486207336.30084 | pgbench_tellers_pkey  |           245760
 2017-02-04 12:22:16.300838+01 | 1486207336.30084 | pgbench_accounts_pkey |        224641024

 2017-02-04 12:22:17.379253+01 | 1486207337.37925 | pgbench_branches_pkey |            57344
 2017-02-04 12:22:17.379253+01 | 1486207337.37925 | pgbench_tellers_pkey  |           245760
 2017-02-04 12:22:17.379253+01 | 1486207337.37925 | pgbench_accounts_pkey |        224641024

 2017-02-04 12:22:18.455336+01 | 1486207338.45534 | pgbench_branches_pkey |            57344
 2017-02-04 12:22:18.455336+01 | 1486207338.45534 | pgbench_tellers_pkey  |           245760
 2017-02-04 12:22:18.455336+01 | 1486207338.45534 | pgbench_accounts_pkey |        224641024

 2017-02-04 12:22:19.539028+01 | 1486207339.53903 | pgbench_branches_pkey |            57344
 2017-02-04 12:22:19.539028+01 | 1486207339.53903 | pgbench_tellers_pkey  |           245760
 2017-02-04 12:22:19.539028+01 | 1486207339.53903 | pgbench_accounts_pkey |        224641024

 2017-02-04 12:22:20.627794+01 | 1486207340.62779 | pgbench_branches_pkey |            57344
 2017-02-04 12:22:20.627794+01 | 1486207340.62779 | pgbench_tellers_pkey  |           245760
 2017-02-04 12:22:20.627794+01 | 1486207340.62779 | pgbench_accounts_pkey |        224641024

 2017-02-04 12:22:21.71039+01 | 1486207341.71039 | pgbench_branches_pkey |            57344
 2017-02-04 12:22:21.71039+01 | 1486207341.71039 | pgbench_tellers_pkey  |           245760
 2017-02-04 12:22:21.71039+01 | 1486207341.71039 | pgbench_accounts_pkey |        224641024

 2017-02-04 12:22:22.789211+01 | 1486207342.78921 | pgbench_branches_pkey |            57344
 2017-02-04 12:22:22.789211+01 | 1486207342.78921 | pgbench_tellers_pkey  |           245760
 2017-02-04 12:22:22.789211+01 | 1486207342.78921 | pgbench_accounts_pkey |        224641024

 2017-02-04 12:22:23.870327+01 | 1486207343.87033 | pgbench_branches_pkey |            57344
 2017-02-04 12:22:23.870327+01 | 1486207343.87033 | pgbench_tellers_pkey  |           245760
 2017-02-04 12:22:23.870327+01 | 1486207343.87033 | pgbench_accounts_pkey |        224641024

 2017-02-04 12:22:24.959092+01 | 1486207344.95909 | pgbench_branches_pkey |            57344
 2017-02-04 12:22:24.959092+01 | 1486207344.95909 | pgbench_tellers_pkey  |           245760
 2017-02-04 12:22:24.959092+01 | 1486207344.95909 | pgbench_accounts_pkey |        224641024

 2017-02-04 12:22:26.046559+01 | 1486207346.04656 | pgbench_branches_pkey |            57344
 2017-02-04 12:22:26.046559+01 | 1486207346.04656 | pgbench_tellers_pkey  |           245760
 2017-02-04 12:22:26.046559+01 | 1486207346.04656 | pgbench_accounts_pkey |        224641024

 2017-02-04 12:22:27.136377+01 | 1486207347.13638 | pgbench_branches_pkey |            57344
 2017-02-04 12:22:27.136377+01 | 1486207347.13638 | pgbench_tellers_pkey  |           245760
 2017-02-04 12:22:27.136377+01 | 1486207347.13638 | pgbench_accounts_pkey |        224641024

 2017-02-04 12:22:28.220729+01 | 1486207348.22073 | pgbench_branches_pkey |            57344
 2017-02-04 12:22:28.220729+01 | 1486207348.22073 | pgbench_tellers_pkey  |           245760
 2017-02-04 12:22:28.220729+01 | 1486207348.22073 | pgbench_accounts_pkey |        224641024

 2017-02-04 12:22:29.298367+01 | 1486207349.29837 | pgbench_branches_pkey |            57344
 2017-02-04 12:22:29.298367+01 | 1486207349.29837 | pgbench_tellers_pkey  |           245760
 2017-02-04 12:22:29.298367+01 | 1486207349.29837 | pgbench_accounts_pkey |        224641024

 2017-02-04 12:22:30.381009+01 | 1486207350.38101 | pgbench_branches_pkey |            57344
 2017-02-04 12:22:30.381009+01 | 1486207350.38101 | pgbench_tellers_pkey  |           245760
 2017-02-04 12:22:30.381009+01 | 1486207350.38101 | pgbench_accounts_pkey |        224641024

 2017-02-04 12:22:31.466515+01 | 1486207351.46652 | pgbench_branches_pkey |            57344
 2017-02-04 12:22:31.466515+01 | 1486207351.46652 | pgbench_tellers_pkey  |           245760
 2017-02-04 12:22:31.466515+01 | 1486207351.46652 | pgbench_accounts_pkey |        224641024

 2017-02-04 12:22:32.545011+01 | 1486207352.54501 | pgbench_branches_pkey |            57344
 2017-02-04 12:22:32.545011+01 | 1486207352.54501 | pgbench_tellers_pkey  |           245760
 2017-02-04 12:22:32.545011+01 | 1486207352.54501 | pgbench_accounts_pkey |        224641024

 2017-02-04 12:22:33.621995+01 | 1486207353.62199 | pgbench_branches_pkey |            57344
 2017-02-04 12:22:33.621995+01 | 1486207353.62199 | pgbench_tellers_pkey  |           245760
 2017-02-04 12:22:33.621995+01 | 1486207353.62199 | pgbench_accounts_pkey |        224641024

 2017-02-04 12:22:34.71476+01 | 1486207354.71476 | pgbench_branches_pkey |            57344
 2017-02-04 12:22:34.71476+01 | 1486207354.71476 | pgbench_tellers_pkey  |           245760
 2017-02-04 12:22:34.71476+01 | 1486207354.71476 | pgbench_accounts_pkey |        224641024

 2017-02-04 12:22:35.797891+01 | 1486207355.79789 | pgbench_branches_pkey |            57344
 2017-02-04 12:22:35.797891+01 | 1486207355.79789 | pgbench_tellers_pkey  |           245760
 2017-02-04 12:22:35.797891+01 | 1486207355.79789 | pgbench_accounts_pkey |        224641024

 2017-02-04 12:22:36.881896+01 | 1486207356.8819 | pgbench_branches_pkey |            57344
 2017-02-04 12:22:36.881896+01 | 1486207356.8819 | pgbench_tellers_pkey  |           245760
 2017-02-04 12:22:36.881896+01 | 1486207356.8819 | pgbench_accounts_pkey |        224641024

 2017-02-04 12:22:37.968042+01 | 1486207357.96804 | pgbench_branches_pkey |            57344
 2017-02-04 12:22:37.968042+01 | 1486207357.96804 | pgbench_tellers_pkey  |           245760
 2017-02-04 12:22:37.968042+01 | 1486207357.96804 | pgbench_accounts_pkey |        224641024

 2017-02-04 12:22:39.05195+01 | 1486207359.05195 | pgbench_branches_pkey |            57344
 2017-02-04 12:22:39.05195+01 | 1486207359.05195 | pgbench_tellers_pkey  |           245760
 2017-02-04 12:22:39.05195+01 | 1486207359.05195 | pgbench_accounts_pkey |        224641024

 2017-02-04 12:22:40.137683+01 | 1486207360.13768 | pgbench_branches_pkey |            57344
 2017-02-04 12:22:40.137683+01 | 1486207360.13768 | pgbench_tellers_pkey  |           245760
 2017-02-04 12:22:40.137683+01 | 1486207360.13768 | pgbench_accounts_pkey |        224641024

 2017-02-04 12:22:41.221312+01 | 1486207361.22131 | pgbench_branches_pkey |            57344
 2017-02-04 12:22:41.221312+01 | 1486207361.22131 | pgbench_tellers_pkey  |           245760
 2017-02-04 12:22:41.221312+01 | 1486207361.22131 | pgbench_accounts_pkey |        224641024

 2017-02-04 12:22:42.306903+01 | 1486207362.3069 | pgbench_branches_pkey |            57344
 2017-02-04 12:22:42.306903+01 | 1486207362.3069 | pgbench_tellers_pkey  |           245760
 2017-02-04 12:22:42.306903+01 | 1486207362.3069 | pgbench_accounts_pkey |        224641024

 2017-02-04 12:22:43.384731+01 | 1486207363.38473 | pgbench_branches_pkey |            57344
 2017-02-04 12:22:43.384731+01 | 1486207363.38473 | pgbench_tellers_pkey  |           245760
 2017-02-04 12:22:43.384731+01 | 1486207363.38473 | pgbench_accounts_pkey |        224641024

 2017-02-04 12:22:44.462481+01 | 1486207364.46248 | pgbench_branches_pkey |            57344
 2017-02-04 12:22:44.462481+01 | 1486207364.46248 | pgbench_tellers_pkey  |           245760
 2017-02-04 12:22:44.462481+01 | 1486207364.46248 | pgbench_accounts_pkey |        224641024

 2017-02-04 12:22:45.536512+01 | 1486207365.53651 | pgbench_branches_pkey |            57344
 2017-02-04 12:22:45.536512+01 | 1486207365.53651 | pgbench_tellers_pkey  |           245760
 2017-02-04 12:22:45.536512+01 | 1486207365.53651 | pgbench_accounts_pkey |        224641024

 2017-02-04 12:22:46.627923+01 | 1486207366.62792 | pgbench_branches_pkey |            57344
 2017-02-04 12:22:46.627923+01 | 1486207366.62792 | pgbench_tellers_pkey  |           245760
 2017-02-04 12:22:46.627923+01 | 1486207366.62792 | pgbench_accounts_pkey |        224641024

 2017-02-04 12:22:47.70842+01 | 1486207367.70842 | pgbench_branches_pkey |            57344
 2017-02-04 12:22:47.70842+01 | 1486207367.70842 | pgbench_tellers_pkey  |           245760
 2017-02-04 12:22:47.70842+01 | 1486207367.70842 | pgbench_accounts_pkey |        224641024

 2017-02-04 12:22:48.789958+01 | 1486207368.78996 | pgbench_branches_pkey |            57344
 2017-02-04 12:22:48.789958+01 | 1486207368.78996 | pgbench_tellers_pkey  |           245760
 2017-02-04 12:22:48.789958+01 | 1486207368.78996 | pgbench_accounts_pkey |        224641024

 2017-02-04 12:22:49.876141+01 | 1486207369.87614 | pgbench_branches_pkey |            57344
 2017-02-04 12:22:49.876141+01 | 1486207369.87614 | pgbench_tellers_pkey  |           245760
 2017-02-04 12:22:49.876141+01 | 1486207369.87614 | pgbench_accounts_pkey |        224641024

 2017-02-04 12:22:50.959238+01 | 1486207370.95924 | pgbench_branches_pkey |            57344
 2017-02-04 12:22:50.959238+01 | 1486207370.95924 | pgbench_tellers_pkey  |           245760
 2017-02-04 12:22:50.959238+01 | 1486207370.95924 | pgbench_accounts_pkey |        224641024

 2017-02-04 12:22:52.044123+01 | 1486207372.04412 | pgbench_branches_pkey |            57344
 2017-02-04 12:22:52.044123+01 | 1486207372.04412 | pgbench_tellers_pkey  |           245760
 2017-02-04 12:22:52.044123+01 | 1486207372.04412 | pgbench_accounts_pkey |        224641024

 2017-02-04 12:22:53.126443+01 | 1486207373.12644 | pgbench_branches_pkey |            57344
 2017-02-04 12:22:53.126443+01 | 1486207373.12644 | pgbench_tellers_pkey  |           245760
 2017-02-04 12:22:53.126443+01 | 1486207373.12644 | pgbench_accounts_pkey |        224641024

 2017-02-04 12:22:54.21043+01 | 1486207374.21043 | pgbench_branches_pkey |            57344
 2017-02-04 12:22:54.21043+01 | 1486207374.21043 | pgbench_tellers_pkey  |           245760
 2017-02-04 12:22:54.21043+01 | 1486207374.21043 | pgbench_accounts_pkey |        224641024

 2017-02-04 12:22:55.302906+01 | 1486207375.30291 | pgbench_branches_pkey |            57344
 2017-02-04 12:22:55.302906+01 | 1486207375.30291 | pgbench_tellers_pkey  |           245760
 2017-02-04 12:22:55.302906+01 | 1486207375.30291 | pgbench_accounts_pkey |        224641024

 2017-02-04 12:22:56.376464+01 | 1486207376.37646 | pgbench_branches_pkey |            57344
 2017-02-04 12:22:56.376464+01 | 1486207376.37646 | pgbench_tellers_pkey  |           245760
 2017-02-04 12:22:56.376464+01 | 1486207376.37646 | pgbench_accounts_pkey |        224641024

 2017-02-04 12:22:57.451309+01 | 1486207377.45131 | pgbench_branches_pkey |            57344
 2017-02-04 12:22:57.451309+01 | 1486207377.45131 | pgbench_tellers_pkey  |           245760
 2017-02-04 12:22:57.451309+01 | 1486207377.45131 | pgbench_accounts_pkey |        224641024

 2017-02-04 12:22:58.536719+01 | 1486207378.53672 | pgbench_branches_pkey |            57344
 2017-02-04 12:22:58.536719+01 | 1486207378.53672 | pgbench_tellers_pkey  |           245760
 2017-02-04 12:22:58.536719+01 | 1486207378.53672 | pgbench_accounts_pkey |        224641024

 2017-02-04 12:22:59.621608+01 | 1486207379.62161 | pgbench_branches_pkey |            57344
 2017-02-04 12:22:59.621608+01 | 1486207379.62161 | pgbench_tellers_pkey  |           245760
 2017-02-04 12:22:59.621608+01 | 1486207379.62161 | pgbench_accounts_pkey |        224641024

 2017-02-04 12:23:00.715214+01 | 1486207380.71521 | pgbench_branches_pkey |            57344
 2017-02-04 12:23:00.715214+01 | 1486207380.71521 | pgbench_tellers_pkey  |           245760
 2017-02-04 12:23:00.715214+01 | 1486207380.71521 | pgbench_accounts_pkey |        224641024

 2017-02-04 12:23:01.80498+01 | 1486207381.80498 | pgbench_branches_pkey |            57344
 2017-02-04 12:23:01.80498+01 | 1486207381.80498 | pgbench_tellers_pkey  |           245760
 2017-02-04 12:23:01.80498+01 | 1486207381.80498 | pgbench_accounts_pkey |        224641024

 2017-02-04 12:23:02.894219+01 | 1486207382.89422 | pgbench_branches_pkey |            57344
 2017-02-04 12:23:02.894219+01 | 1486207382.89422 | pgbench_tellers_pkey  |           245760
 2017-02-04 12:23:02.894219+01 | 1486207382.89422 | pgbench_accounts_pkey |        224641024

 2017-02-04 12:23:03.973252+01 | 1486207383.97325 | pgbench_branches_pkey |            57344
 2017-02-04 12:23:03.973252+01 | 1486207383.97325 | pgbench_tellers_pkey  |           245760
 2017-02-04 12:23:03.973252+01 | 1486207383.97325 | pgbench_accounts_pkey |        224641024

 2017-02-04 12:23:05.070599+01 | 1486207385.0706 | pgbench_branches_pkey |            57344
 2017-02-04 12:23:05.070599+01 | 1486207385.0706 | pgbench_tellers_pkey  |           245760
 2017-02-04 12:23:05.070599+01 | 1486207385.0706 | pgbench_accounts_pkey |        224641024

 2017-02-04 12:23:06.160287+01 | 1486207386.16029 | pgbench_branches_pkey |            57344
 2017-02-04 12:23:06.160287+01 | 1486207386.16029 | pgbench_tellers_pkey  |           245760
 2017-02-04 12:23:06.160287+01 | 1486207386.16029 | pgbench_accounts_pkey |        224641024

 2017-02-04 12:23:07.243336+01 | 1486207387.24334 | pgbench_branches_pkey |            57344
 2017-02-04 12:23:07.243336+01 | 1486207387.24334 | pgbench_tellers_pkey  |           245760
 2017-02-04 12:23:07.243336+01 | 1486207387.24334 | pgbench_accounts_pkey |        224641024

 2017-02-04 12:23:08.330249+01 | 1486207388.33025 | pgbench_branches_pkey |            57344
 2017-02-04 12:23:08.330249+01 | 1486207388.33025 | pgbench_tellers_pkey  |           245760
 2017-02-04 12:23:08.330249+01 | 1486207388.33025 | pgbench_accounts_pkey |        224641024

 2017-02-04 12:23:09.402832+01 | 1486207389.40283 | pgbench_branches_pkey |            57344
 2017-02-04 12:23:09.402832+01 | 1486207389.40283 | pgbench_tellers_pkey  |           245760
 2017-02-04 12:23:09.402832+01 | 1486207389.40283 | pgbench_accounts_pkey |        224641024

 2017-02-04 12:23:10.485725+01 | 1486207390.48572 | pgbench_branches_pkey |            57344
 2017-02-04 12:23:10.485725+01 | 1486207390.48572 | pgbench_tellers_pkey  |           245760
 2017-02-04 12:23:10.485725+01 | 1486207390.48572 | pgbench_accounts_pkey |        224641024

 2017-02-04 12:23:11.566756+01 | 1486207391.56676 | pgbench_branches_pkey |            57344
 2017-02-04 12:23:11.566756+01 | 1486207391.56676 | pgbench_tellers_pkey  |           245760
 2017-02-04 12:23:11.566756+01 | 1486207391.56676 | pgbench_accounts_pkey |        224641024

 2017-02-04 12:23:12.654909+01 | 1486207392.65491 | pgbench_branches_pkey |            57344
 2017-02-04 12:23:12.654909+01 | 1486207392.65491 | pgbench_tellers_pkey  |           245760
 2017-02-04 12:23:12.654909+01 | 1486207392.65491 | pgbench_accounts_pkey |        224641024

 2017-02-04 12:23:13.744645+01 | 1486207393.74465 | pgbench_branches_pkey |            57344
 2017-02-04 12:23:13.744645+01 | 1486207393.74465 | pgbench_tellers_pkey  |           245760
 2017-02-04 12:23:13.744645+01 | 1486207393.74465 | pgbench_accounts_pkey |        224641024

 2017-02-04 12:23:14.826199+01 | 1486207394.8262 | pgbench_branches_pkey |            57344
 2017-02-04 12:23:14.826199+01 | 1486207394.8262 | pgbench_tellers_pkey  |           245760
 2017-02-04 12:23:14.826199+01 | 1486207394.8262 | pgbench_accounts_pkey |        224641024

 2017-02-04 12:23:15.90926+01 | 1486207395.90926 | pgbench_branches_pkey |            57344
 2017-02-04 12:23:15.90926+01 | 1486207395.90926 | pgbench_tellers_pkey  |           245760
 2017-02-04 12:23:15.90926+01 | 1486207395.90926 | pgbench_accounts_pkey |        224641024

 2017-02-04 12:23:16.989823+01 | 1486207396.98982 | pgbench_branches_pkey |            57344
 2017-02-04 12:23:16.989823+01 | 1486207396.98982 | pgbench_tellers_pkey  |           245760
 2017-02-04 12:23:16.989823+01 | 1486207396.98982 | pgbench_accounts_pkey |        224641024

 2017-02-04 12:23:18.080507+01 | 1486207398.08051 | pgbench_branches_pkey |            57344
 2017-02-04 12:23:18.080507+01 | 1486207398.08051 | pgbench_tellers_pkey  |           245760
 2017-02-04 12:23:18.080507+01 | 1486207398.08051 | pgbench_accounts_pkey |        224641024

 2017-02-04 12:23:19.164577+01 | 1486207399.16458 | pgbench_branches_pkey |            57344
 2017-02-04 12:23:19.164577+01 | 1486207399.16458 | pgbench_tellers_pkey  |           245760
 2017-02-04 12:23:19.164577+01 | 1486207399.16458 | pgbench_accounts_pkey |        224641024

 2017-02-04 12:23:20.252217+01 | 1486207400.25222 | pgbench_branches_pkey |            57344
 2017-02-04 12:23:20.252217+01 | 1486207400.25222 | pgbench_tellers_pkey  |           245760
 2017-02-04 12:23:20.252217+01 | 1486207400.25222 | pgbench_accounts_pkey |        224641024

 2017-02-04 12:23:21.334375+01 | 1486207401.33437 | pgbench_branches_pkey |            57344
 2017-02-04 12:23:21.334375+01 | 1486207401.33437 | pgbench_tellers_pkey  |           245760
 2017-02-04 12:23:21.334375+01 | 1486207401.33437 | pgbench_accounts_pkey |        224641024

 2017-02-04 12:23:22.410794+01 | 1486207402.41079 | pgbench_branches_pkey |            57344
 2017-02-04 12:23:22.410794+01 | 1486207402.41079 | pgbench_tellers_pkey  |           245760
 2017-02-04 12:23:22.410794+01 | 1486207402.41079 | pgbench_accounts_pkey |        224641024

 2017-02-04 12:23:23.494691+01 | 1486207403.49469 | pgbench_branches_pkey |            57344
 2017-02-04 12:23:23.494691+01 | 1486207403.49469 | pgbench_tellers_pkey  |           245760
 2017-02-04 12:23:23.494691+01 | 1486207403.49469 | pgbench_accounts_pkey |        224641024

 2017-02-04 12:23:24.577877+01 | 1486207404.57788 | pgbench_branches_pkey |            57344
 2017-02-04 12:23:24.577877+01 | 1486207404.57788 | pgbench_tellers_pkey  |           245760
 2017-02-04 12:23:24.577877+01 | 1486207404.57788 | pgbench_accounts_pkey |        224641024

 2017-02-04 12:23:25.663055+01 | 1486207405.66305 | pgbench_branches_pkey |            57344
 2017-02-04 12:23:25.663055+01 | 1486207405.66305 | pgbench_tellers_pkey  |           245760
 2017-02-04 12:23:25.663055+01 | 1486207405.66305 | pgbench_accounts_pkey |        224641024

 2017-02-04 12:23:26.748956+01 | 1486207406.74896 | pgbench_branches_pkey |            57344
 2017-02-04 12:23:26.748956+01 | 1486207406.74896 | pgbench_tellers_pkey  |           245760
 2017-02-04 12:23:26.748956+01 | 1486207406.74896 | pgbench_accounts_pkey |        224641024

 2017-02-04 12:23:27.825297+01 | 1486207407.8253 | pgbench_branches_pkey |            57344
 2017-02-04 12:23:27.825297+01 | 1486207407.8253 | pgbench_tellers_pkey  |           245760
 2017-02-04 12:23:27.825297+01 | 1486207407.8253 | pgbench_accounts_pkey |        224641024

 2017-02-04 12:23:28.912172+01 | 1486207408.91217 | pgbench_branches_pkey |            57344
 2017-02-04 12:23:28.912172+01 | 1486207408.91217 | pgbench_tellers_pkey  |           245760
 2017-02-04 12:23:28.912172+01 | 1486207408.91217 | pgbench_accounts_pkey |        224641024

 2017-02-04 12:23:29.996495+01 | 1486207409.9965 | pgbench_branches_pkey |            57344
 2017-02-04 12:23:29.996495+01 | 1486207409.9965 | pgbench_tellers_pkey  |           245760
 2017-02-04 12:23:29.996495+01 | 1486207409.9965 | pgbench_accounts_pkey |        224641024

 2017-02-04 12:23:31.083659+01 | 1486207411.08366 | pgbench_branches_pkey |            57344
 2017-02-04 12:23:31.083659+01 | 1486207411.08366 | pgbench_tellers_pkey  |           245760
 2017-02-04 12:23:31.083659+01 | 1486207411.08366 | pgbench_accounts_pkey |        224641024

 2017-02-04 12:23:32.163883+01 | 1486207412.16388 | pgbench_branches_pkey |            57344
 2017-02-04 12:23:32.163883+01 | 1486207412.16388 | pgbench_tellers_pkey  |           245760
 2017-02-04 12:23:32.163883+01 | 1486207412.16388 | pgbench_accounts_pkey |        224641024

 2017-02-04 12:23:33.250303+01 | 1486207413.2503 | pgbench_branches_pkey |            57344
 2017-02-04 12:23:33.250303+01 | 1486207413.2503 | pgbench_tellers_pkey  |           245760
 2017-02-04 12:23:33.250303+01 | 1486207413.2503 | pgbench_accounts_pkey |        224641024

 2017-02-04 12:23:34.336658+01 | 1486207414.33666 | pgbench_branches_pkey |            57344
 2017-02-04 12:23:34.336658+01 | 1486207414.33666 | pgbench_tellers_pkey  |           245760
 2017-02-04 12:23:34.336658+01 | 1486207414.33666 | pgbench_accounts_pkey |        224641024

 2017-02-04 12:23:35.415239+01 | 1486207415.41524 | pgbench_branches_pkey |            57344
 2017-02-04 12:23:35.415239+01 | 1486207415.41524 | pgbench_tellers_pkey  |           245760
 2017-02-04 12:23:35.415239+01 | 1486207415.41524 | pgbench_accounts_pkey |        224641024

 2017-02-04 12:23:36.494576+01 | 1486207416.49458 | pgbench_branches_pkey |            57344
 2017-02-04 12:23:36.494576+01 | 1486207416.49458 | pgbench_tellers_pkey  |           245760
 2017-02-04 12:23:36.494576+01 | 1486207416.49458 | pgbench_accounts_pkey |        224641024

 2017-02-04 12:23:37.571181+01 | 1486207417.57118 | pgbench_branches_pkey |            57344
 2017-02-04 12:23:37.571181+01 | 1486207417.57118 | pgbench_tellers_pkey  |           245760
 2017-02-04 12:23:37.571181+01 | 1486207417.57118 | pgbench_accounts_pkey |        224641024

 2017-02-04 12:23:38.651376+01 | 1486207418.65138 | pgbench_branches_pkey |            57344
 2017-02-04 12:23:38.651376+01 | 1486207418.65138 | pgbench_tellers_pkey  |           245760
 2017-02-04 12:23:38.651376+01 | 1486207418.65138 | pgbench_accounts_pkey |        224641024

 2017-02-04 12:23:39.745024+01 | 1486207419.74502 | pgbench_branches_pkey |            57344
 2017-02-04 12:23:39.745024+01 | 1486207419.74502 | pgbench_tellers_pkey  |           245760
 2017-02-04 12:23:39.745024+01 | 1486207419.74502 | pgbench_accounts_pkey |        224641024

 2017-02-04 12:23:40.823854+01 | 1486207420.82385 | pgbench_branches_pkey |            57344
 2017-02-04 12:23:40.823854+01 | 1486207420.82385 | pgbench_tellers_pkey  |           245760
 2017-02-04 12:23:40.823854+01 | 1486207420.82385 | pgbench_accounts_pkey |        224641024

 2017-02-04 12:23:41.909194+01 | 1486207421.90919 | pgbench_branches_pkey |            57344
 2017-02-04 12:23:41.909194+01 | 1486207421.90919 | pgbench_tellers_pkey  |           245760
 2017-02-04 12:23:41.909194+01 | 1486207421.90919 | pgbench_accounts_pkey |        224641024

 2017-02-04 12:23:42.996312+01 | 1486207422.99631 | pgbench_branches_pkey |            57344
 2017-02-04 12:23:42.996312+01 | 1486207422.99631 | pgbench_tellers_pkey  |           245760
 2017-02-04 12:23:42.996312+01 | 1486207422.99631 | pgbench_accounts_pkey |        224641024

 2017-02-04 12:23:44.081972+01 | 1486207424.08197 | pgbench_branches_pkey |            57344
 2017-02-04 12:23:44.081972+01 | 1486207424.08197 | pgbench_tellers_pkey  |           245760
 2017-02-04 12:23:44.081972+01 | 1486207424.08197 | pgbench_accounts_pkey |        224641024

 2017-02-04 12:23:45.156394+01 | 1486207425.15639 | pgbench_branches_pkey |            57344
 2017-02-04 12:23:45.156394+01 | 1486207425.15639 | pgbench_tellers_pkey  |           245760
 2017-02-04 12:23:45.156394+01 | 1486207425.15639 | pgbench_accounts_pkey |        224641024

 2017-02-04 12:23:46.243366+01 | 1486207426.24337 | pgbench_branches_pkey |            57344
 2017-02-04 12:23:46.243366+01 | 1486207426.24337 | pgbench_tellers_pkey  |           245760
 2017-02-04 12:23:46.243366+01 | 1486207426.24337 | pgbench_accounts_pkey |        224641024

 2017-02-04 12:23:47.318584+01 | 1486207427.31858 | pgbench_branches_pkey |            57344
 2017-02-04 12:23:47.318584+01 | 1486207427.31858 | pgbench_tellers_pkey  |           245760
 2017-02-04 12:23:47.318584+01 | 1486207427.31858 | pgbench_accounts_pkey |        224641024

 2017-02-04 12:23:48.400049+01 | 1486207428.40005 | pgbench_branches_pkey |            57344
 2017-02-04 12:23:48.400049+01 | 1486207428.40005 | pgbench_tellers_pkey  |           245760
 2017-02-04 12:23:48.400049+01 | 1486207428.40005 | pgbench_accounts_pkey |        224641024

 2017-02-04 12:23:49.478924+01 | 1486207429.47892 | pgbench_branches_pkey |            57344
 2017-02-04 12:23:49.478924+01 | 1486207429.47892 | pgbench_tellers_pkey  |           245760
 2017-02-04 12:23:49.478924+01 | 1486207429.47892 | pgbench_accounts_pkey |        224641024

 2017-02-04 12:23:50.556915+01 | 1486207430.55692 | pgbench_branches_pkey |            57344
 2017-02-04 12:23:50.556915+01 | 1486207430.55692 | pgbench_tellers_pkey  |           245760
 2017-02-04 12:23:50.556915+01 | 1486207430.55692 | pgbench_accounts_pkey |        224641024

 2017-02-04 12:23:51.632001+01 | 1486207431.632 | pgbench_branches_pkey |            57344
 2017-02-04 12:23:51.632001+01 | 1486207431.632 | pgbench_tellers_pkey  |           245760
 2017-02-04 12:23:51.632001+01 | 1486207431.632 | pgbench_accounts_pkey |        224641024

 2017-02-04 12:23:52.709904+01 | 1486207432.7099 | pgbench_branches_pkey |            57344
 2017-02-04 12:23:52.709904+01 | 1486207432.7099 | pgbench_tellers_pkey  |           245760
 2017-02-04 12:23:52.709904+01 | 1486207432.7099 | pgbench_accounts_pkey |        224641024

 2017-02-04 12:23:53.797542+01 | 1486207433.79754 | pgbench_branches_pkey |            57344
 2017-02-04 12:23:53.797542+01 | 1486207433.79754 | pgbench_tellers_pkey  |           245760
 2017-02-04 12:23:53.797542+01 | 1486207433.79754 | pgbench_accounts_pkey |        224641024

 2017-02-04 12:23:54.887436+01 | 1486207434.88744 | pgbench_branches_pkey |            57344
 2017-02-04 12:23:54.887436+01 | 1486207434.88744 | pgbench_tellers_pkey  |           245760
 2017-02-04 12:23:54.887436+01 | 1486207434.88744 | pgbench_accounts_pkey |        224641024

 2017-02-04 12:23:55.97113+01 | 1486207435.97113 | pgbench_branches_pkey |            57344
 2017-02-04 12:23:55.97113+01 | 1486207435.97113 | pgbench_tellers_pkey  |           245760
 2017-02-04 12:23:55.97113+01 | 1486207435.97113 | pgbench_accounts_pkey |        224641024

 2017-02-04 12:23:57.052902+01 | 1486207437.0529 | pgbench_branches_pkey |            57344
 2017-02-04 12:23:57.052902+01 | 1486207437.0529 | pgbench_tellers_pkey  |           245760
 2017-02-04 12:23:57.052902+01 | 1486207437.0529 | pgbench_accounts_pkey |        224641024

 2017-02-04 12:23:58.132115+01 | 1486207438.13211 | pgbench_branches_pkey |            57344
 2017-02-04 12:23:58.132115+01 | 1486207438.13211 | pgbench_tellers_pkey  |           245760
 2017-02-04 12:23:58.132115+01 | 1486207438.13211 | pgbench_accounts_pkey |        224641024

 2017-02-04 12:23:59.214257+01 | 1486207439.21426 | pgbench_branches_pkey |            57344
 2017-02-04 12:23:59.214257+01 | 1486207439.21426 | pgbench_tellers_pkey  |           245760
 2017-02-04 12:23:59.214257+01 | 1486207439.21426 | pgbench_accounts_pkey |        224641024

 2017-02-04 12:24:00.300186+01 | 1486207440.30019 | pgbench_branches_pkey |            57344
 2017-02-04 12:24:00.300186+01 | 1486207440.30019 | pgbench_tellers_pkey  |           245760
 2017-02-04 12:24:00.300186+01 | 1486207440.30019 | pgbench_accounts_pkey |        224641024

 2017-02-04 12:24:01.386214+01 | 1486207441.38621 | pgbench_branches_pkey |            57344
 2017-02-04 12:24:01.386214+01 | 1486207441.38621 | pgbench_tellers_pkey  |           245760
 2017-02-04 12:24:01.386214+01 | 1486207441.38621 | pgbench_accounts_pkey |        224641024

 2017-02-04 12:24:02.46988+01 | 1486207442.46988 | pgbench_branches_pkey |            57344
 2017-02-04 12:24:02.46988+01 | 1486207442.46988 | pgbench_tellers_pkey  |           245760
 2017-02-04 12:24:02.46988+01 | 1486207442.46988 | pgbench_accounts_pkey |        224641024

 2017-02-04 12:24:03.550142+01 | 1486207443.55014 | pgbench_branches_pkey |            57344
 2017-02-04 12:24:03.550142+01 | 1486207443.55014 | pgbench_tellers_pkey  |           245760
 2017-02-04 12:24:03.550142+01 | 1486207443.55014 | pgbench_accounts_pkey |        224641024

 2017-02-04 12:24:04.629405+01 | 1486207444.62941 | pgbench_branches_pkey |            57344
 2017-02-04 12:24:04.629405+01 | 1486207444.62941 | pgbench_tellers_pkey  |           245760
 2017-02-04 12:24:04.629405+01 | 1486207444.62941 | pgbench_accounts_pkey |        224641024

 2017-02-04 12:24:05.711026+01 | 1486207445.71103 | pgbench_branches_pkey |            57344
 2017-02-04 12:24:05.711026+01 | 1486207445.71103 | pgbench_tellers_pkey  |           245760
 2017-02-04 12:24:05.711026+01 | 1486207445.71103 | pgbench_accounts_pkey |        224641024

 2017-02-04 12:24:06.791261+01 | 1486207446.79126 | pgbench_branches_pkey |            57344
 2017-02-04 12:24:06.791261+01 | 1486207446.79126 | pgbench_tellers_pkey  |           245760
 2017-02-04 12:24:06.791261+01 | 1486207446.79126 | pgbench_accounts_pkey |        224641024

 2017-02-04 12:24:07.878336+01 | 1486207447.87834 | pgbench_branches_pkey |            57344
 2017-02-04 12:24:07.878336+01 | 1486207447.87834 | pgbench_tellers_pkey  |           245760
 2017-02-04 12:24:07.878336+01 | 1486207447.87834 | pgbench_accounts_pkey |        224641024

 2017-02-04 12:24:08.964212+01 | 1486207448.96421 | pgbench_branches_pkey |            57344
 2017-02-04 12:24:08.964212+01 | 1486207448.96421 | pgbench_tellers_pkey  |           245760
 2017-02-04 12:24:08.964212+01 | 1486207448.96421 | pgbench_accounts_pkey |        224641024

 2017-02-04 12:24:10.052887+01 | 1486207450.05289 | pgbench_branches_pkey |            57344
 2017-02-04 12:24:10.052887+01 | 1486207450.05289 | pgbench_tellers_pkey  |           245760
 2017-02-04 12:24:10.052887+01 | 1486207450.05289 | pgbench_accounts_pkey |        224641024

 2017-02-04 12:24:11.133511+01 | 1486207451.13351 | pgbench_branches_pkey |            57344
 2017-02-04 12:24:11.133511+01 | 1486207451.13351 | pgbench_tellers_pkey  |           245760
 2017-02-04 12:24:11.133511+01 | 1486207451.13351 | pgbench_accounts_pkey |        224641024

 2017-02-04 12:24:12.224348+01 | 1486207452.22435 | pgbench_branches_pkey |            57344
 2017-02-04 12:24:12.224348+01 | 1486207452.22435 | pgbench_tellers_pkey  |           245760
 2017-02-04 12:24:12.224348+01 | 1486207452.22435 | pgbench_accounts_pkey |        224641024

 2017-02-04 12:24:13.306207+01 | 1486207453.30621 | pgbench_branches_pkey |            57344
 2017-02-04 12:24:13.306207+01 | 1486207453.30621 | pgbench_tellers_pkey  |           245760
 2017-02-04 12:24:13.306207+01 | 1486207453.30621 | pgbench_accounts_pkey |        224641024

 2017-02-04 12:24:14.380833+01 | 1486207454.38083 | pgbench_branches_pkey |            57344
 2017-02-04 12:24:14.380833+01 | 1486207454.38083 | pgbench_tellers_pkey  |           245760
 2017-02-04 12:24:14.380833+01 | 1486207454.38083 | pgbench_accounts_pkey |        224641024

 2017-02-04 12:24:15.465917+01 | 1486207455.46592 | pgbench_branches_pkey |            57344
 2017-02-04 12:24:15.465917+01 | 1486207455.46592 | pgbench_tellers_pkey  |           245760
 2017-02-04 12:24:15.465917+01 | 1486207455.46592 | pgbench_accounts_pkey |        224641024

 2017-02-04 12:24:16.54224+01 | 1486207456.54224 | pgbench_branches_pkey |            57344
 2017-02-04 12:24:16.54224+01 | 1486207456.54224 | pgbench_tellers_pkey  |           245760
 2017-02-04 12:24:16.54224+01 | 1486207456.54224 | pgbench_accounts_pkey |        224641024

 2017-02-04 12:24:17.621248+01 | 1486207457.62125 | pgbench_branches_pkey |            57344
 2017-02-04 12:24:17.621248+01 | 1486207457.62125 | pgbench_tellers_pkey  |           245760
 2017-02-04 12:24:17.621248+01 | 1486207457.62125 | pgbench_accounts_pkey |        224641024

 2017-02-04 12:24:18.710464+01 | 1486207458.71046 | pgbench_branches_pkey |            57344
 2017-02-04 12:24:18.710464+01 | 1486207458.71046 | pgbench_tellers_pkey  |           245760
 2017-02-04 12:24:18.710464+01 | 1486207458.71046 | pgbench_accounts_pkey |        224641024

 2017-02-04 12:24:19.798743+01 | 1486207459.79874 | pgbench_branches_pkey |            57344
 2017-02-04 12:24:19.798743+01 | 1486207459.79874 | pgbench_tellers_pkey  |           245760
 2017-02-04 12:24:19.798743+01 | 1486207459.79874 | pgbench_accounts_pkey |        224641024

 2017-02-04 12:24:20.884521+01 | 1486207460.88452 | pgbench_branches_pkey |            57344
 2017-02-04 12:24:20.884521+01 | 1486207460.88452 | pgbench_tellers_pkey  |           245760
 2017-02-04 12:24:20.884521+01 | 1486207460.88452 | pgbench_accounts_pkey |        224641024

 2017-02-04 12:24:21.963407+01 | 1486207461.96341 | pgbench_branches_pkey |            57344
 2017-02-04 12:24:21.963407+01 | 1486207461.96341 | pgbench_tellers_pkey  |           245760
 2017-02-04 12:24:21.963407+01 | 1486207461.96341 | pgbench_accounts_pkey |        224641024

 2017-02-04 12:24:23.05329+01 | 1486207463.05329 | pgbench_branches_pkey |            57344
 2017-02-04 12:24:23.05329+01 | 1486207463.05329 | pgbench_tellers_pkey  |           245760
 2017-02-04 12:24:23.05329+01 | 1486207463.05329 | pgbench_accounts_pkey |        224641024

 2017-02-04 12:24:24.148157+01 | 1486207464.14816 | pgbench_branches_pkey |            57344
 2017-02-04 12:24:24.148157+01 | 1486207464.14816 | pgbench_tellers_pkey  |           245760
 2017-02-04 12:24:24.148157+01 | 1486207464.14816 | pgbench_accounts_pkey |        224641024

 2017-02-04 12:24:25.23656+01 | 1486207465.23656 | pgbench_branches_pkey |            57344
 2017-02-04 12:24:25.23656+01 | 1486207465.23656 | pgbench_tellers_pkey  |           245760
 2017-02-04 12:24:25.23656+01 | 1486207465.23656 | pgbench_accounts_pkey |        224641024

 2017-02-04 12:24:26.31916+01 | 1486207466.31916 | pgbench_branches_pkey |            57344
 2017-02-04 12:24:26.31916+01 | 1486207466.31916 | pgbench_tellers_pkey  |           245760
 2017-02-04 12:24:26.31916+01 | 1486207466.31916 | pgbench_accounts_pkey |        224641024

 2017-02-04 12:24:27.402207+01 | 1486207467.40221 | pgbench_branches_pkey |            57344
 2017-02-04 12:24:27.402207+01 | 1486207467.40221 | pgbench_tellers_pkey  |           245760
 2017-02-04 12:24:27.402207+01 | 1486207467.40221 | pgbench_accounts_pkey |        224641024

 2017-02-04 12:24:28.480321+01 | 1486207468.48032 | pgbench_branches_pkey |            57344
 2017-02-04 12:24:28.480321+01 | 1486207468.48032 | pgbench_tellers_pkey  |           245760
 2017-02-04 12:24:28.480321+01 | 1486207468.48032 | pgbench_accounts_pkey |        224641024

 2017-02-04 12:24:29.563787+01 | 1486207469.56379 | pgbench_branches_pkey |            57344
 2017-02-04 12:24:29.563787+01 | 1486207469.56379 | pgbench_tellers_pkey  |           245760
 2017-02-04 12:24:29.563787+01 | 1486207469.56379 | pgbench_accounts_pkey |        224641024

 2017-02-04 12:24:30.639124+01 | 1486207470.63912 | pgbench_branches_pkey |            57344
 2017-02-04 12:24:30.639124+01 | 1486207470.63912 | pgbench_tellers_pkey  |           245760
 2017-02-04 12:24:30.639124+01 | 1486207470.63912 | pgbench_accounts_pkey |        224641024

 2017-02-04 12:24:31.717197+01 | 1486207471.7172 | pgbench_branches_pkey |            57344
 2017-02-04 12:24:31.717197+01 | 1486207471.7172 | pgbench_tellers_pkey  |           245760
 2017-02-04 12:24:31.717197+01 | 1486207471.7172 | pgbench_accounts_pkey |        224641024

 2017-02-04 12:24:32.797922+01 | 1486207472.79792 | pgbench_branches_pkey |            57344
 2017-02-04 12:24:32.797922+01 | 1486207472.79792 | pgbench_tellers_pkey  |           245760
 2017-02-04 12:24:32.797922+01 | 1486207472.79792 | pgbench_accounts_pkey |        224641024

 2017-02-04 12:24:33.877274+01 | 1486207473.87727 | pgbench_branches_pkey |            57344
 2017-02-04 12:24:33.877274+01 | 1486207473.87727 | pgbench_tellers_pkey  |           245760
 2017-02-04 12:24:33.877274+01 | 1486207473.87727 | pgbench_accounts_pkey |        224641024

 2017-02-04 12:24:34.959324+01 | 1486207474.95932 | pgbench_branches_pkey |            57344
 2017-02-04 12:24:34.959324+01 | 1486207474.95932 | pgbench_tellers_pkey  |           245760
 2017-02-04 12:24:34.959324+01 | 1486207474.95932 | pgbench_accounts_pkey |        224641024

 2017-02-04 12:24:36.039475+01 | 1486207476.03947 | pgbench_branches_pkey |            57344
 2017-02-04 12:24:36.039475+01 | 1486207476.03947 | pgbench_tellers_pkey  |           245760
 2017-02-04 12:24:36.039475+01 | 1486207476.03947 | pgbench_accounts_pkey |        224641024

 2017-02-04 12:24:37.119889+01 | 1486207477.11989 | pgbench_branches_pkey |            57344
 2017-02-04 12:24:37.119889+01 | 1486207477.11989 | pgbench_tellers_pkey  |           245760
 2017-02-04 12:24:37.119889+01 | 1486207477.11989 | pgbench_accounts_pkey |        224641024

 2017-02-04 12:24:38.202584+01 | 1486207478.20258 | pgbench_branches_pkey |            57344
 2017-02-04 12:24:38.202584+01 | 1486207478.20258 | pgbench_tellers_pkey  |           245760
 2017-02-04 12:24:38.202584+01 | 1486207478.20258 | pgbench_accounts_pkey |        224641024

 2017-02-04 12:24:39.283426+01 | 1486207479.28343 | pgbench_branches_pkey |            57344
 2017-02-04 12:24:39.283426+01 | 1486207479.28343 | pgbench_tellers_pkey  |           245760
 2017-02-04 12:24:39.283426+01 | 1486207479.28343 | pgbench_accounts_pkey |        224641024

 2017-02-04 12:24:40.369869+01 | 1486207480.36987 | pgbench_branches_pkey |            57344
 2017-02-04 12:24:40.369869+01 | 1486207480.36987 | pgbench_tellers_pkey  |           245760
 2017-02-04 12:24:40.369869+01 | 1486207480.36987 | pgbench_accounts_pkey |        224641024

 2017-02-04 12:24:41.45074+01 | 1486207481.45074 | pgbench_branches_pkey |            57344
 2017-02-04 12:24:41.45074+01 | 1486207481.45074 | pgbench_tellers_pkey  |           245760
 2017-02-04 12:24:41.45074+01 | 1486207481.45074 | pgbench_accounts_pkey |        224641024

 2017-02-04 12:24:42.529058+01 | 1486207482.52906 | pgbench_branches_pkey |            57344
 2017-02-04 12:24:42.529058+01 | 1486207482.52906 | pgbench_tellers_pkey  |           245760
 2017-02-04 12:24:42.529058+01 | 1486207482.52906 | pgbench_accounts_pkey |        224641024

 2017-02-04 12:24:43.614224+01 | 1486207483.61422 | pgbench_branches_pkey |            57344
 2017-02-04 12:24:43.614224+01 | 1486207483.61422 | pgbench_tellers_pkey  |           245760
 2017-02-04 12:24:43.614224+01 | 1486207483.61422 | pgbench_accounts_pkey |        224641024

 2017-02-04 12:24:44.673133+01 | 1486207484.67313 | pgbench_branches_pkey |            57344
 2017-02-04 12:24:44.673133+01 | 1486207484.67313 | pgbench_tellers_pkey  |           245760
 2017-02-04 12:24:44.673133+01 | 1486207484.67313 | pgbench_accounts_pkey |        224641024

 2017-02-04 12:24:45.759047+01 | 1486207485.75905 | pgbench_branches_pkey |            57344
 2017-02-04 12:24:45.759047+01 | 1486207485.75905 | pgbench_tellers_pkey  |           245760
 2017-02-04 12:24:45.759047+01 | 1486207485.75905 | pgbench_accounts_pkey |        224641024

 2017-02-04 12:24:46.842544+01 | 1486207486.84254 | pgbench_branches_pkey |            57344
 2017-02-04 12:24:46.842544+01 | 1486207486.84254 | pgbench_tellers_pkey  |           245760
 2017-02-04 12:24:46.842544+01 | 1486207486.84254 | pgbench_accounts_pkey |        224641024

 2017-02-04 12:24:47.930963+01 | 1486207487.93096 | pgbench_branches_pkey |            57344
 2017-02-04 12:24:47.930963+01 | 1486207487.93096 | pgbench_tellers_pkey  |           245760
 2017-02-04 12:24:47.930963+01 | 1486207487.93096 | pgbench_accounts_pkey |        224641024

 2017-02-04 12:24:49.010042+01 | 1486207489.01004 | pgbench_branches_pkey |            57344
 2017-02-04 12:24:49.010042+01 | 1486207489.01004 | pgbench_tellers_pkey  |           245760
 2017-02-04 12:24:49.010042+01 | 1486207489.01004 | pgbench_accounts_pkey |        224641024

 2017-02-04 12:24:50.096685+01 | 1486207490.09668 | pgbench_branches_pkey |            57344
 2017-02-04 12:24:50.096685+01 | 1486207490.09668 | pgbench_tellers_pkey  |           245760
 2017-02-04 12:24:50.096685+01 | 1486207490.09668 | pgbench_accounts_pkey |        224641024

 2017-02-04 12:24:51.180365+01 | 1486207491.18037 | pgbench_branches_pkey |            57344
 2017-02-04 12:24:51.180365+01 | 1486207491.18037 | pgbench_tellers_pkey  |           245760
 2017-02-04 12:24:51.180365+01 | 1486207491.18037 | pgbench_accounts_pkey |        224641024

 2017-02-04 12:24:52.265997+01 | 1486207492.266 | pgbench_branches_pkey |            57344
 2017-02-04 12:24:52.265997+01 | 1486207492.266 | pgbench_tellers_pkey  |           245760
 2017-02-04 12:24:52.265997+01 | 1486207492.266 | pgbench_accounts_pkey |        224641024

 2017-02-04 12:24:53.362135+01 | 1486207493.36213 | pgbench_branches_pkey |            57344
 2017-02-04 12:24:53.362135+01 | 1486207493.36213 | pgbench_tellers_pkey  |           245760
 2017-02-04 12:24:53.362135+01 | 1486207493.36213 | pgbench_accounts_pkey |        224641024

 2017-02-04 12:24:54.440912+01 | 1486207494.44091 | pgbench_branches_pkey |            57344
 2017-02-04 12:24:54.440912+01 | 1486207494.44091 | pgbench_tellers_pkey  |           245760
 2017-02-04 12:24:54.440912+01 | 1486207494.44091 | pgbench_accounts_pkey |        224641024

 2017-02-04 12:24:55.519754+01 | 1486207495.51975 | pgbench_branches_pkey |            57344
 2017-02-04 12:24:55.519754+01 | 1486207495.51975 | pgbench_tellers_pkey  |           245760
 2017-02-04 12:24:55.519754+01 | 1486207495.51975 | pgbench_accounts_pkey |        224641024

 2017-02-04 12:24:56.598894+01 | 1486207496.59889 | pgbench_branches_pkey |            57344
 2017-02-04 12:24:56.598894+01 | 1486207496.59889 | pgbench_tellers_pkey  |           245760
 2017-02-04 12:24:56.598894+01 | 1486207496.59889 | pgbench_accounts_pkey |        224641024

 2017-02-04 12:24:57.676498+01 | 1486207497.6765 | pgbench_branches_pkey |            57344
 2017-02-04 12:24:57.676498+01 | 1486207497.6765 | pgbench_tellers_pkey  |           245760
 2017-02-04 12:24:57.676498+01 | 1486207497.6765 | pgbench_accounts_pkey |        224641024

 2017-02-04 12:24:58.763863+01 | 1486207498.76386 | pgbench_branches_pkey |            57344
 2017-02-04 12:24:58.763863+01 | 1486207498.76386 | pgbench_tellers_pkey  |           245760
 2017-02-04 12:24:58.763863+01 | 1486207498.76386 | pgbench_accounts_pkey |        224641024

 2017-02-04 12:24:59.837183+01 | 1486207499.83718 | pgbench_branches_pkey |            57344
 2017-02-04 12:24:59.837183+01 | 1486207499.83718 | pgbench_tellers_pkey  |           245760
 2017-02-04 12:24:59.837183+01 | 1486207499.83718 | pgbench_accounts_pkey |        224641024

 2017-02-04 12:25:00.924281+01 | 1486207500.92428 | pgbench_branches_pkey |            57344
 2017-02-04 12:25:00.924281+01 | 1486207500.92428 | pgbench_tellers_pkey  |           245760
 2017-02-04 12:25:00.924281+01 | 1486207500.92428 | pgbench_accounts_pkey |        224641024

 2017-02-04 12:25:02.011763+01 | 1486207502.01176 | pgbench_branches_pkey |            57344
 2017-02-04 12:25:02.011763+01 | 1486207502.01176 | pgbench_tellers_pkey  |           245760
 2017-02-04 12:25:02.011763+01 | 1486207502.01176 | pgbench_accounts_pkey |        224641024

 2017-02-04 12:25:03.099362+01 | 1486207503.09936 | pgbench_branches_pkey |            57344
 2017-02-04 12:25:03.099362+01 | 1486207503.09936 | pgbench_tellers_pkey  |           245760
 2017-02-04 12:25:03.099362+01 | 1486207503.09936 | pgbench_accounts_pkey |        224641024

 2017-02-04 12:25:04.181389+01 | 1486207504.18139 | pgbench_branches_pkey |            57344
 2017-02-04 12:25:04.181389+01 | 1486207504.18139 | pgbench_tellers_pkey  |           245760
 2017-02-04 12:25:04.181389+01 | 1486207504.18139 | pgbench_accounts_pkey |        224641024

 2017-02-04 12:25:05.262127+01 | 1486207505.26213 | pgbench_branches_pkey |            57344
 2017-02-04 12:25:05.262127+01 | 1486207505.26213 | pgbench_tellers_pkey  |           245760
 2017-02-04 12:25:05.262127+01 | 1486207505.26213 | pgbench_accounts_pkey |        224641024

 2017-02-04 12:25:06.341434+01 | 1486207506.34143 | pgbench_branches_pkey |            57344
 2017-02-04 12:25:06.341434+01 | 1486207506.34143 | pgbench_tellers_pkey  |           245760
 2017-02-04 12:25:06.341434+01 | 1486207506.34143 | pgbench_accounts_pkey |        224641024

 2017-02-04 12:25:07.427619+01 | 1486207507.42762 | pgbench_branches_pkey |            57344
 2017-02-04 12:25:07.427619+01 | 1486207507.42762 | pgbench_tellers_pkey  |           245760
 2017-02-04 12:25:07.427619+01 | 1486207507.42762 | pgbench_accounts_pkey |        224641024

 2017-02-04 12:25:08.504335+01 | 1486207508.50433 | pgbench_branches_pkey |            57344
 2017-02-04 12:25:08.504335+01 | 1486207508.50433 | pgbench_tellers_pkey  |           245760
 2017-02-04 12:25:08.504335+01 | 1486207508.50433 | pgbench_accounts_pkey |        224641024

 2017-02-04 12:25:09.57887+01 | 1486207509.57887 | pgbench_branches_pkey |            57344
 2017-02-04 12:25:09.57887+01 | 1486207509.57887 | pgbench_tellers_pkey  |           245760
 2017-02-04 12:25:09.57887+01 | 1486207509.57887 | pgbench_accounts_pkey |        224641024

 2017-02-04 12:25:10.657838+01 | 1486207510.65784 | pgbench_branches_pkey |            57344
 2017-02-04 12:25:10.657838+01 | 1486207510.65784 | pgbench_tellers_pkey  |           245760
 2017-02-04 12:25:10.657838+01 | 1486207510.65784 | pgbench_accounts_pkey |        224641024

 2017-02-04 12:25:11.733042+01 | 1486207511.73304 | pgbench_branches_pkey |            57344
 2017-02-04 12:25:11.733042+01 | 1486207511.73304 | pgbench_tellers_pkey  |           245760
 2017-02-04 12:25:11.733042+01 | 1486207511.73304 | pgbench_accounts_pkey |        224641024

 2017-02-04 12:25:12.82057+01 | 1486207512.82057 | pgbench_branches_pkey |            57344
 2017-02-04 12:25:12.82057+01 | 1486207512.82057 | pgbench_tellers_pkey  |           245760
 2017-02-04 12:25:12.82057+01 | 1486207512.82057 | pgbench_accounts_pkey |        224641024

 2017-02-04 12:25:13.912564+01 | 1486207513.91256 | pgbench_branches_pkey |            57344
 2017-02-04 12:25:13.912564+01 | 1486207513.91256 | pgbench_tellers_pkey  |           245760
 2017-02-04 12:25:13.912564+01 | 1486207513.91256 | pgbench_accounts_pkey |        224641024

 2017-02-04 12:25:15.007176+01 | 1486207515.00718 | pgbench_branches_pkey |            57344
 2017-02-04 12:25:15.007176+01 | 1486207515.00718 | pgbench_tellers_pkey  |           245760
 2017-02-04 12:25:15.007176+01 | 1486207515.00718 | pgbench_accounts_pkey |        224641024

 2017-02-04 12:25:16.094617+01 | 1486207516.09462 | pgbench_branches_pkey |            57344
 2017-02-04 12:25:16.094617+01 | 1486207516.09462 | pgbench_tellers_pkey  |           245760
 2017-02-04 12:25:16.094617+01 | 1486207516.09462 | pgbench_accounts_pkey |        224641024

 2017-02-04 12:25:17.181071+01 | 1486207517.18107 | pgbench_branches_pkey |            57344
 2017-02-04 12:25:17.181071+01 | 1486207517.18107 | pgbench_tellers_pkey  |           245760
 2017-02-04 12:25:17.181071+01 | 1486207517.18107 | pgbench_accounts_pkey |        224641024

 2017-02-04 12:25:18.267194+01 | 1486207518.26719 | pgbench_branches_pkey |            57344
 2017-02-04 12:25:18.267194+01 | 1486207518.26719 | pgbench_tellers_pkey  |           245760
 2017-02-04 12:25:18.267194+01 | 1486207518.26719 | pgbench_accounts_pkey |        224641024

 2017-02-04 12:25:19.351612+01 | 1486207519.35161 | pgbench_branches_pkey |            57344
 2017-02-04 12:25:19.351612+01 | 1486207519.35161 | pgbench_tellers_pkey  |           245760
 2017-02-04 12:25:19.351612+01 | 1486207519.35161 | pgbench_accounts_pkey |        224641024

 2017-02-04 12:25:20.439025+01 | 1486207520.43902 | pgbench_branches_pkey |            57344
 2017-02-04 12:25:20.439025+01 | 1486207520.43902 | pgbench_tellers_pkey  |           245760
 2017-02-04 12:25:20.439025+01 | 1486207520.43902 | pgbench_accounts_pkey |        224641024

 2017-02-04 12:25:21.518917+01 | 1486207521.51892 | pgbench_branches_pkey |            57344
 2017-02-04 12:25:21.518917+01 | 1486207521.51892 | pgbench_tellers_pkey  |           245760
 2017-02-04 12:25:21.518917+01 | 1486207521.51892 | pgbench_accounts_pkey |        224641024

 2017-02-04 12:25:22.605224+01 | 1486207522.60522 | pgbench_branches_pkey |            57344
 2017-02-04 12:25:22.605224+01 | 1486207522.60522 | pgbench_tellers_pkey  |           245760
 2017-02-04 12:25:22.605224+01 | 1486207522.60522 | pgbench_accounts_pkey |        224641024

 2017-02-04 12:25:23.67085+01 | 1486207523.67085 | pgbench_branches_pkey |            57344
 2017-02-04 12:25:23.67085+01 | 1486207523.67085 | pgbench_tellers_pkey  |           245760
 2017-02-04 12:25:23.67085+01 | 1486207523.67085 | pgbench_accounts_pkey |        224641024

 2017-02-04 12:25:24.750554+01 | 1486207524.75055 | pgbench_branches_pkey |            57344
 2017-02-04 12:25:24.750554+01 | 1486207524.75055 | pgbench_tellers_pkey  |           245760
 2017-02-04 12:25:24.750554+01 | 1486207524.75055 | pgbench_accounts_pkey |        224641024

 2017-02-04 12:25:25.845537+01 | 1486207525.84554 | pgbench_branches_pkey |            57344
 2017-02-04 12:25:25.845537+01 | 1486207525.84554 | pgbench_tellers_pkey  |           245760
 2017-02-04 12:25:25.845537+01 | 1486207525.84554 | pgbench_accounts_pkey |        224641024

 2017-02-04 12:25:26.933712+01 | 1486207526.93371 | pgbench_branches_pkey |            57344
 2017-02-04 12:25:26.933712+01 | 1486207526.93371 | pgbench_tellers_pkey  |           245760
 2017-02-04 12:25:26.933712+01 | 1486207526.93371 | pgbench_accounts_pkey |        224641024

 2017-02-04 12:25:28.009907+01 | 1486207528.00991 | pgbench_branches_pkey |            57344
 2017-02-04 12:25:28.009907+01 | 1486207528.00991 | pgbench_tellers_pkey  |           245760
 2017-02-04 12:25:28.009907+01 | 1486207528.00991 | pgbench_accounts_pkey |        224641024

 2017-02-04 12:25:29.088+01 | 1486207529.088 | pgbench_branches_pkey |            57344
 2017-02-04 12:25:29.088+01 | 1486207529.088 | pgbench_tellers_pkey  |           245760
 2017-02-04 12:25:29.088+01 | 1486207529.088 | pgbench_accounts_pkey |        224641024

 2017-02-04 12:25:30.179478+01 | 1486207530.17948 | pgbench_branches_pkey |            57344
 2017-02-04 12:25:30.179478+01 | 1486207530.17948 | pgbench_tellers_pkey  |           245760
 2017-02-04 12:25:30.179478+01 | 1486207530.17948 | pgbench_accounts_pkey |        224641024

 2017-02-04 12:25:31.268315+01 | 1486207531.26832 | pgbench_branches_pkey |            57344
 2017-02-04 12:25:31.268315+01 | 1486207531.26832 | pgbench_tellers_pkey  |           245760
 2017-02-04 12:25:31.268315+01 | 1486207531.26832 | pgbench_accounts_pkey |        224641024

 2017-02-04 12:25:32.355462+01 | 1486207532.35546 | pgbench_branches_pkey |            57344
 2017-02-04 12:25:32.355462+01 | 1486207532.35546 | pgbench_tellers_pkey  |           245760
 2017-02-04 12:25:32.355462+01 | 1486207532.35546 | pgbench_accounts_pkey |        224641024

