starting vacuum...end.
transaction type: multiple scripts
scaling factor: 1000
query mode: prepared
number of clients: 16
number of threads: 8
duration: 300 s
number of transactions actually processed: 31943158
latency average = 0.150 ms
tps = 106477.048564 (including connections establishing)
tps = 106478.583562 (excluding connections establishing)
SQL script 1: reads.sql
 - weight: 9 (targets 90.0% of total)
 - 28567495 transactions (89.4% of total, tps = 95224.853863)
 - latency average = 0.092 ms
 - latency stddev = 0.049 ms
SQL script 2: writes.sql
 - weight: 1 (targets 10.0% of total)
 - 3184292 transactions (10.0% of total, tps = 10614.292235)
 - latency average = 0.671 ms
 - latency stddev = 2.174 ms
