 2017-02-05 16:44:34.67025+01 | 1486309474.67025 | pgbench_accounts |       1387020288
 2017-02-05 16:44:34.67025+01 | 1486309474.67025 | pgbench_tellers  |            49152
 2017-02-05 16:44:34.67025+01 | 1486309474.67025 | pgbench_history  |           188416
 2017-02-05 16:44:34.67025+01 | 1486309474.67025 | pgbench_branches |             8192

 2017-02-05 16:44:35.764357+01 | 1486309475.76436 | pgbench_accounts |       1387020288
 2017-02-05 16:44:35.764357+01 | 1486309475.76436 | pgbench_tellers  |            49152
 2017-02-05 16:44:35.764357+01 | 1486309475.76436 | pgbench_history  |          1761280
 2017-02-05 16:44:35.764357+01 | 1486309475.76436 | pgbench_branches |             8192

 2017-02-05 16:44:36.857895+01 | 1486309476.85789 | pgbench_accounts |       1387020288
 2017-02-05 16:44:36.857895+01 | 1486309476.85789 | pgbench_tellers  |            49152
 2017-02-05 16:44:36.857895+01 | 1486309476.85789 | pgbench_history  |          3514368
 2017-02-05 16:44:36.857895+01 | 1486309476.85789 | pgbench_branches |             8192

 2017-02-05 16:44:37.952691+01 | 1486309477.95269 | pgbench_accounts |       1387020288
 2017-02-05 16:44:37.952691+01 | 1486309477.95269 | pgbench_tellers  |            49152
 2017-02-05 16:44:37.952691+01 | 1486309477.95269 | pgbench_history  |          5046272
 2017-02-05 16:44:37.952691+01 | 1486309477.95269 | pgbench_branches |             8192

 2017-02-05 16:44:39.052456+01 | 1486309479.05246 | pgbench_accounts |       1387020288
 2017-02-05 16:44:39.052456+01 | 1486309479.05246 | pgbench_tellers  |            49152
 2017-02-05 16:44:39.052456+01 | 1486309479.05246 | pgbench_history  |          6750208
 2017-02-05 16:44:39.052456+01 | 1486309479.05246 | pgbench_branches |             8192

 2017-02-05 16:44:40.132988+01 | 1486309480.13299 | pgbench_accounts |       1387020288
 2017-02-05 16:44:40.132988+01 | 1486309480.13299 | pgbench_tellers  |            49152
 2017-02-05 16:44:40.132988+01 | 1486309480.13299 | pgbench_history  |          8339456
 2017-02-05 16:44:40.132988+01 | 1486309480.13299 | pgbench_branches |             8192

 2017-02-05 16:44:41.219695+01 | 1486309481.2197 | pgbench_accounts |       1387020288
 2017-02-05 16:44:41.219695+01 | 1486309481.2197 | pgbench_tellers  |            49152
 2017-02-05 16:44:41.219695+01 | 1486309481.2197 | pgbench_history  |          9887744
 2017-02-05 16:44:41.219695+01 | 1486309481.2197 | pgbench_branches |             8192

 2017-02-05 16:44:42.311004+01 | 1486309482.311 | pgbench_accounts |       1387020288
 2017-02-05 16:44:42.311004+01 | 1486309482.311 | pgbench_tellers  |            49152
 2017-02-05 16:44:42.311004+01 | 1486309482.311 | pgbench_history  |         11812864
 2017-02-05 16:44:42.311004+01 | 1486309482.311 | pgbench_branches |             8192

 2017-02-05 16:44:43.390128+01 | 1486309483.39013 | pgbench_accounts |       1387020288
 2017-02-05 16:44:43.390128+01 | 1486309483.39013 | pgbench_tellers  |            49152
 2017-02-05 16:44:43.390128+01 | 1486309483.39013 | pgbench_history  |         14000128
 2017-02-05 16:44:43.390128+01 | 1486309483.39013 | pgbench_branches |             8192

 2017-02-05 16:44:44.466771+01 | 1486309484.46677 | pgbench_accounts |       1387020288
 2017-02-05 16:44:44.466771+01 | 1486309484.46677 | pgbench_tellers  |            49152
 2017-02-05 16:44:44.466771+01 | 1486309484.46677 | pgbench_history  |         15523840
 2017-02-05 16:44:44.466771+01 | 1486309484.46677 | pgbench_branches |             8192

 2017-02-05 16:44:45.552217+01 | 1486309485.55222 | pgbench_accounts |       1387020288
 2017-02-05 16:44:45.552217+01 | 1486309485.55222 | pgbench_tellers  |            49152
 2017-02-05 16:44:45.552217+01 | 1486309485.55222 | pgbench_history  |         16392192
 2017-02-05 16:44:45.552217+01 | 1486309485.55222 | pgbench_branches |             8192

 2017-02-05 16:44:46.633531+01 | 1486309486.63353 | pgbench_accounts |       1387020288
 2017-02-05 16:44:46.633531+01 | 1486309486.63353 | pgbench_tellers  |            49152
 2017-02-05 16:44:46.633531+01 | 1486309486.63353 | pgbench_history  |         17940480
 2017-02-05 16:44:46.633531+01 | 1486309486.63353 | pgbench_branches |             8192

 2017-02-05 16:44:47.709155+01 | 1486309487.70916 | pgbench_accounts |       1387020288
 2017-02-05 16:44:47.709155+01 | 1486309487.70916 | pgbench_tellers  |            49152
 2017-02-05 16:44:47.709155+01 | 1486309487.70916 | pgbench_history  |         19701760
 2017-02-05 16:44:47.709155+01 | 1486309487.70916 | pgbench_branches |             8192

 2017-02-05 16:44:48.790508+01 | 1486309488.79051 | pgbench_accounts |       1387020288
 2017-02-05 16:44:48.790508+01 | 1486309488.79051 | pgbench_tellers  |            49152
 2017-02-05 16:44:48.790508+01 | 1486309488.79051 | pgbench_history  |         21299200
 2017-02-05 16:44:48.790508+01 | 1486309488.79051 | pgbench_branches |             8192

 2017-02-05 16:44:49.864665+01 | 1486309489.86467 | pgbench_accounts |       1387020288
 2017-02-05 16:44:49.864665+01 | 1486309489.86467 | pgbench_tellers  |            49152
 2017-02-05 16:44:49.864665+01 | 1486309489.86467 | pgbench_history  |         23199744
 2017-02-05 16:44:49.864665+01 | 1486309489.86467 | pgbench_branches |             8192

 2017-02-05 16:44:50.951813+01 | 1486309490.95181 | pgbench_accounts |       1387020288
 2017-02-05 16:44:50.951813+01 | 1486309490.95181 | pgbench_tellers  |            49152
 2017-02-05 16:44:50.951813+01 | 1486309490.95181 | pgbench_history  |         24748032
 2017-02-05 16:44:50.951813+01 | 1486309490.95181 | pgbench_branches |             8192

 2017-02-05 16:44:52.031693+01 | 1486309492.03169 | pgbench_accounts |       1387020288
 2017-02-05 16:44:52.031693+01 | 1486309492.03169 | pgbench_tellers  |            49152
 2017-02-05 16:44:52.031693+01 | 1486309492.03169 | pgbench_history  |         26116096
 2017-02-05 16:44:52.031693+01 | 1486309492.03169 | pgbench_branches |             8192

 2017-02-05 16:44:53.114562+01 | 1486309493.11456 | pgbench_accounts |       1387020288
 2017-02-05 16:44:53.114562+01 | 1486309493.11456 | pgbench_tellers  |            49152
 2017-02-05 16:44:53.114562+01 | 1486309493.11456 | pgbench_history  |         27697152
 2017-02-05 16:44:53.114562+01 | 1486309493.11456 | pgbench_branches |             8192

 2017-02-05 16:44:54.195491+01 | 1486309494.19549 | pgbench_accounts |       1387020288
 2017-02-05 16:44:54.195491+01 | 1486309494.19549 | pgbench_tellers  |            49152
 2017-02-05 16:44:54.195491+01 | 1486309494.19549 | pgbench_history  |         29220864
 2017-02-05 16:44:54.195491+01 | 1486309494.19549 | pgbench_branches |             8192

 2017-02-05 16:44:55.276628+01 | 1486309495.27663 | pgbench_accounts |       1387020288
 2017-02-05 16:44:55.276628+01 | 1486309495.27663 | pgbench_tellers  |            49152
 2017-02-05 16:44:55.276628+01 | 1486309495.27663 | pgbench_history  |         31121408
 2017-02-05 16:44:55.276628+01 | 1486309495.27663 | pgbench_branches |             8192

 2017-02-05 16:44:56.359244+01 | 1486309496.35924 | pgbench_accounts |       1387020288
 2017-02-05 16:44:56.359244+01 | 1486309496.35924 | pgbench_tellers  |            49152
 2017-02-05 16:44:56.359244+01 | 1486309496.35924 | pgbench_history  |         32669696
 2017-02-05 16:44:56.359244+01 | 1486309496.35924 | pgbench_branches |             8192

 2017-02-05 16:44:57.437994+01 | 1486309497.43799 | pgbench_accounts |       1387020288
 2017-02-05 16:44:57.437994+01 | 1486309497.43799 | pgbench_tellers  |            49152
 2017-02-05 16:44:57.437994+01 | 1486309497.43799 | pgbench_history  |         34029568
 2017-02-05 16:44:57.437994+01 | 1486309497.43799 | pgbench_branches |             8192

 2017-02-05 16:44:58.522473+01 | 1486309498.52247 | pgbench_accounts |       1387020288
 2017-02-05 16:44:58.522473+01 | 1486309498.52247 | pgbench_tellers  |            49152
 2017-02-05 16:44:58.522473+01 | 1486309498.52247 | pgbench_history  |         35397632
 2017-02-05 16:44:58.522473+01 | 1486309498.52247 | pgbench_branches |             8192

 2017-02-05 16:44:59.604981+01 | 1486309499.60498 | pgbench_accounts |       1387020288
 2017-02-05 16:44:59.604981+01 | 1486309499.60498 | pgbench_tellers  |            49152
 2017-02-05 16:44:59.604981+01 | 1486309499.60498 | pgbench_history  |         36945920
 2017-02-05 16:44:59.604981+01 | 1486309499.60498 | pgbench_branches |             8192

 2017-02-05 16:45:00.686256+01 | 1486309500.68626 | pgbench_accounts |       1387020288
 2017-02-05 16:45:00.686256+01 | 1486309500.68626 | pgbench_tellers  |            49152
 2017-02-05 16:45:00.686256+01 | 1486309500.68626 | pgbench_history  |         38871040
 2017-02-05 16:45:00.686256+01 | 1486309500.68626 | pgbench_branches |             8192

 2017-02-05 16:45:01.767882+01 | 1486309501.76788 | pgbench_accounts |       1387020288
 2017-02-05 16:45:01.767882+01 | 1486309501.76788 | pgbench_tellers  |            49152
 2017-02-05 16:45:01.767882+01 | 1486309501.76788 | pgbench_history  |         40288256
 2017-02-05 16:45:01.767882+01 | 1486309501.76788 | pgbench_branches |             8192

 2017-02-05 16:45:02.855212+01 | 1486309502.85521 | pgbench_accounts |       1387020288
 2017-02-05 16:45:02.855212+01 | 1486309502.85521 | pgbench_tellers  |            49152
 2017-02-05 16:45:02.855212+01 | 1486309502.85521 | pgbench_history  |         42491904
 2017-02-05 16:45:02.855212+01 | 1486309502.85521 | pgbench_branches |             8192

 2017-02-05 16:45:03.927267+01 | 1486309503.92727 | pgbench_accounts |       1387020288
 2017-02-05 16:45:03.927267+01 | 1486309503.92727 | pgbench_tellers  |            49152
 2017-02-05 16:45:03.927267+01 | 1486309503.92727 | pgbench_history  |         43851776
 2017-02-05 16:45:03.927267+01 | 1486309503.92727 | pgbench_branches |             8192

 2017-02-05 16:45:05.023457+01 | 1486309505.02346 | pgbench_accounts |       1387020288
 2017-02-05 16:45:05.023457+01 | 1486309505.02346 | pgbench_tellers  |            49152
 2017-02-05 16:45:05.023457+01 | 1486309505.02346 | pgbench_history  |         45236224
 2017-02-05 16:45:05.023457+01 | 1486309505.02346 | pgbench_branches |             8192

 2017-02-05 16:45:06.105813+01 | 1486309506.10581 | pgbench_accounts |       1387020288
 2017-02-05 16:45:06.105813+01 | 1486309506.10581 | pgbench_tellers  |            49152
 2017-02-05 16:45:06.105813+01 | 1486309506.10581 | pgbench_history  |         46465024
 2017-02-05 16:45:06.105813+01 | 1486309506.10581 | pgbench_branches |             8192

 2017-02-05 16:45:07.190082+01 | 1486309507.19008 | pgbench_accounts |       1387020288
 2017-02-05 16:45:07.190082+01 | 1486309507.19008 | pgbench_tellers  |            49152
 2017-02-05 16:45:07.190082+01 | 1486309507.19008 | pgbench_history  |         47988736
 2017-02-05 16:45:07.190082+01 | 1486309507.19008 | pgbench_branches |             8192

 2017-02-05 16:45:08.263245+01 | 1486309508.26325 | pgbench_accounts |       1387020288
 2017-02-05 16:45:08.263245+01 | 1486309508.26325 | pgbench_tellers  |            49152
 2017-02-05 16:45:08.263245+01 | 1486309508.26325 | pgbench_history  |         50028544
 2017-02-05 16:45:08.263245+01 | 1486309508.26325 | pgbench_branches |             8192

 2017-02-05 16:45:09.344149+01 | 1486309509.34415 | pgbench_accounts |       1387020288
 2017-02-05 16:45:09.344149+01 | 1486309509.34415 | pgbench_tellers  |            49152
 2017-02-05 16:45:09.344149+01 | 1486309509.34415 | pgbench_history  |         51388416
 2017-02-05 16:45:09.344149+01 | 1486309509.34415 | pgbench_branches |             8192

 2017-02-05 16:45:10.415713+01 | 1486309510.41571 | pgbench_accounts |       1387020288
 2017-02-05 16:45:10.415713+01 | 1486309510.41571 | pgbench_tellers  |            49152
 2017-02-05 16:45:10.415713+01 | 1486309510.41571 | pgbench_history  |         52428800
 2017-02-05 16:45:10.415713+01 | 1486309510.41571 | pgbench_branches |             8192

 2017-02-05 16:45:11.489496+01 | 1486309511.4895 | pgbench_accounts |       1387020288
 2017-02-05 16:45:11.489496+01 | 1486309511.4895 | pgbench_tellers  |            49152
 2017-02-05 16:45:11.489496+01 | 1486309511.4895 | pgbench_history  |         54173696
 2017-02-05 16:45:11.489496+01 | 1486309511.4895 | pgbench_branches |             8192

 2017-02-05 16:45:12.569285+01 | 1486309512.56928 | pgbench_accounts |       1387020288
 2017-02-05 16:45:12.569285+01 | 1486309512.56928 | pgbench_tellers  |            49152
 2017-02-05 16:45:12.569285+01 | 1486309512.56928 | pgbench_history  |         55607296
 2017-02-05 16:45:12.569285+01 | 1486309512.56928 | pgbench_branches |             8192

 2017-02-05 16:45:13.651048+01 | 1486309513.65105 | pgbench_accounts |       1387020288
 2017-02-05 16:45:13.651048+01 | 1486309513.65105 | pgbench_tellers  |            49152
 2017-02-05 16:45:13.651048+01 | 1486309513.65105 | pgbench_history  |         57491456
 2017-02-05 16:45:13.651048+01 | 1486309513.65105 | pgbench_branches |             8192

 2017-02-05 16:45:14.734385+01 | 1486309514.73439 | pgbench_accounts |       1387020288
 2017-02-05 16:45:14.734385+01 | 1486309514.73439 | pgbench_tellers  |            49152
 2017-02-05 16:45:14.734385+01 | 1486309514.73439 | pgbench_history  |         58662912
 2017-02-05 16:45:14.734385+01 | 1486309514.73439 | pgbench_branches |             8192

 2017-02-05 16:45:15.82074+01 | 1486309515.82074 | pgbench_accounts |       1387020288
 2017-02-05 16:45:15.82074+01 | 1486309515.82074 | pgbench_tellers  |            49152
 2017-02-05 16:45:15.82074+01 | 1486309515.82074 | pgbench_history  |         60514304
 2017-02-05 16:45:15.82074+01 | 1486309515.82074 | pgbench_branches |             8192

 2017-02-05 16:45:16.901292+01 | 1486309516.90129 | pgbench_accounts |       1387020288
 2017-02-05 16:45:16.901292+01 | 1486309516.90129 | pgbench_tellers  |            49152
 2017-02-05 16:45:16.901292+01 | 1486309516.90129 | pgbench_history  |         62423040
 2017-02-05 16:45:16.901292+01 | 1486309516.90129 | pgbench_branches |             8192

 2017-02-05 16:45:17.986025+01 | 1486309517.98603 | pgbench_accounts |       1387020288
 2017-02-05 16:45:17.986025+01 | 1486309517.98603 | pgbench_tellers  |            49152
 2017-02-05 16:45:17.986025+01 | 1486309517.98603 | pgbench_history  |         63455232
 2017-02-05 16:45:17.986025+01 | 1486309517.98603 | pgbench_branches |             8192

 2017-02-05 16:45:19.068163+01 | 1486309519.06816 | pgbench_accounts |       1387020288
 2017-02-05 16:45:19.068163+01 | 1486309519.06816 | pgbench_tellers  |            49152
 2017-02-05 16:45:19.068163+01 | 1486309519.06816 | pgbench_history  |         65175552
 2017-02-05 16:45:19.068163+01 | 1486309519.06816 | pgbench_branches |             8192

 2017-02-05 16:45:20.144505+01 | 1486309520.14451 | pgbench_accounts |       1387020288
 2017-02-05 16:45:20.144505+01 | 1486309520.14451 | pgbench_tellers  |            49152
 2017-02-05 16:45:20.144505+01 | 1486309520.14451 | pgbench_history  |         66543616
 2017-02-05 16:45:20.144505+01 | 1486309520.14451 | pgbench_branches |             8192

 2017-02-05 16:45:21.227851+01 | 1486309521.22785 | pgbench_accounts |       1387020288
 2017-02-05 16:45:21.227851+01 | 1486309521.22785 | pgbench_tellers  |            49152
 2017-02-05 16:45:21.227851+01 | 1486309521.22785 | pgbench_history  |         68263936
 2017-02-05 16:45:21.227851+01 | 1486309521.22785 | pgbench_branches |             8192

 2017-02-05 16:45:22.302987+01 | 1486309522.30299 | pgbench_accounts |       1387020288
 2017-02-05 16:45:22.302987+01 | 1486309522.30299 | pgbench_tellers  |            49152
 2017-02-05 16:45:22.302987+01 | 1486309522.30299 | pgbench_history  |         69623808
 2017-02-05 16:45:22.302987+01 | 1486309522.30299 | pgbench_branches |             8192

 2017-02-05 16:45:23.393819+01 | 1486309523.39382 | pgbench_accounts |       1387020288
 2017-02-05 16:45:23.393819+01 | 1486309523.39382 | pgbench_tellers  |            49152
 2017-02-05 16:45:23.393819+01 | 1486309523.39382 | pgbench_history  |         71860224
 2017-02-05 16:45:23.393819+01 | 1486309523.39382 | pgbench_branches |             8192

 2017-02-05 16:45:24.46514+01 | 1486309524.46514 | pgbench_accounts |       1387020288
 2017-02-05 16:45:24.46514+01 | 1486309524.46514 | pgbench_tellers  |            49152
 2017-02-05 16:45:24.46514+01 | 1486309524.46514 | pgbench_history  |         73039872
 2017-02-05 16:45:24.46514+01 | 1486309524.46514 | pgbench_branches |             8192

 2017-02-05 16:45:25.541964+01 | 1486309525.54196 | pgbench_accounts |       1387020288
 2017-02-05 16:45:25.541964+01 | 1486309525.54196 | pgbench_tellers  |            49152
 2017-02-05 16:45:25.541964+01 | 1486309525.54196 | pgbench_history  |         74260480
 2017-02-05 16:45:25.541964+01 | 1486309525.54196 | pgbench_branches |             8192

 2017-02-05 16:45:26.623515+01 | 1486309526.62351 | pgbench_accounts |       1387020288
 2017-02-05 16:45:26.623515+01 | 1486309526.62351 | pgbench_tellers  |            49152
 2017-02-05 16:45:26.623515+01 | 1486309526.62351 | pgbench_history  |         76464128
 2017-02-05 16:45:26.623515+01 | 1486309526.62351 | pgbench_branches |             8192

 2017-02-05 16:45:27.697125+01 | 1486309527.69712 | pgbench_accounts |       1387020288
 2017-02-05 16:45:27.697125+01 | 1486309527.69712 | pgbench_tellers  |            49152
 2017-02-05 16:45:27.697125+01 | 1486309527.69712 | pgbench_history  |         77635584
 2017-02-05 16:45:27.697125+01 | 1486309527.69712 | pgbench_branches |             8192

 2017-02-05 16:45:28.774242+01 | 1486309528.77424 | pgbench_accounts |       1387020288
 2017-02-05 16:45:28.774242+01 | 1486309528.77424 | pgbench_tellers  |            49152
 2017-02-05 16:45:28.774242+01 | 1486309528.77424 | pgbench_history  |         78831616
 2017-02-05 16:45:28.774242+01 | 1486309528.77424 | pgbench_branches |             8192

 2017-02-05 16:45:29.848574+01 | 1486309529.84857 | pgbench_accounts |       1387020288
 2017-02-05 16:45:29.848574+01 | 1486309529.84857 | pgbench_tellers  |            49152
 2017-02-05 16:45:29.848574+01 | 1486309529.84857 | pgbench_history  |         80519168
 2017-02-05 16:45:29.848574+01 | 1486309529.84857 | pgbench_branches |             8192

 2017-02-05 16:45:30.925595+01 | 1486309530.9256 | pgbench_accounts |       1387020288
 2017-02-05 16:45:30.925595+01 | 1486309530.9256 | pgbench_tellers  |            49152
 2017-02-05 16:45:30.925595+01 | 1486309530.9256 | pgbench_history  |         82886656
 2017-02-05 16:45:30.925595+01 | 1486309530.9256 | pgbench_branches |             8192

 2017-02-05 16:45:32.006196+01 | 1486309532.0062 | pgbench_accounts |       1387020288
 2017-02-05 16:45:32.006196+01 | 1486309532.0062 | pgbench_tellers  |            49152
 2017-02-05 16:45:32.006196+01 | 1486309532.0062 | pgbench_history  |         83566592
 2017-02-05 16:45:32.006196+01 | 1486309532.0062 | pgbench_branches |             8192

 2017-02-05 16:45:33.084157+01 | 1486309533.08416 | pgbench_accounts |       1387020288
 2017-02-05 16:45:33.084157+01 | 1486309533.08416 | pgbench_tellers  |            49152
 2017-02-05 16:45:33.084157+01 | 1486309533.08416 | pgbench_history  |         86261760
 2017-02-05 16:45:33.084157+01 | 1486309533.08416 | pgbench_branches |             8192

 2017-02-05 16:45:34.162553+01 | 1486309534.16255 | pgbench_accounts |       1387020288
 2017-02-05 16:45:34.162553+01 | 1486309534.16255 | pgbench_tellers  |            49152
 2017-02-05 16:45:34.162553+01 | 1486309534.16255 | pgbench_history  |         87760896
 2017-02-05 16:45:34.162553+01 | 1486309534.16255 | pgbench_branches |             8192

 2017-02-05 16:45:35.238981+01 | 1486309535.23898 | pgbench_accounts |       1387020288
 2017-02-05 16:45:35.238981+01 | 1486309535.23898 | pgbench_tellers  |            49152
 2017-02-05 16:45:35.238981+01 | 1486309535.23898 | pgbench_history  |         88440832
 2017-02-05 16:45:35.238981+01 | 1486309535.23898 | pgbench_branches |             8192

 2017-02-05 16:45:36.317438+01 | 1486309536.31744 | pgbench_accounts |       1387020288
 2017-02-05 16:45:36.317438+01 | 1486309536.31744 | pgbench_tellers  |            49152
 2017-02-05 16:45:36.317438+01 | 1486309536.31744 | pgbench_history  |         90005504
 2017-02-05 16:45:36.317438+01 | 1486309536.31744 | pgbench_branches |             8192

 2017-02-05 16:45:37.402936+01 | 1486309537.40294 | pgbench_accounts |       1387020288
 2017-02-05 16:45:37.402936+01 | 1486309537.40294 | pgbench_tellers  |            49152
 2017-02-05 16:45:37.402936+01 | 1486309537.40294 | pgbench_history  |         91389952
 2017-02-05 16:45:37.402936+01 | 1486309537.40294 | pgbench_branches |             8192

 2017-02-05 16:45:38.486131+01 | 1486309538.48613 | pgbench_accounts |       1387020288
 2017-02-05 16:45:38.486131+01 | 1486309538.48613 | pgbench_tellers  |            49152
 2017-02-05 16:45:38.486131+01 | 1486309538.48613 | pgbench_history  |         92962816
 2017-02-05 16:45:38.486131+01 | 1486309538.48613 | pgbench_branches |             8192

 2017-02-05 16:45:39.564573+01 | 1486309539.56457 | pgbench_accounts |       1387020288
 2017-02-05 16:45:39.564573+01 | 1486309539.56457 | pgbench_tellers  |            49152
 2017-02-05 16:45:39.564573+01 | 1486309539.56457 | pgbench_history  |         94543872
 2017-02-05 16:45:39.564573+01 | 1486309539.56457 | pgbench_branches |             8192

 2017-02-05 16:45:40.651779+01 | 1486309540.65178 | pgbench_accounts |       1387020288
 2017-02-05 16:45:40.651779+01 | 1486309540.65178 | pgbench_tellers  |            49152
 2017-02-05 16:45:40.651779+01 | 1486309540.65178 | pgbench_history  |         96083968
 2017-02-05 16:45:40.651779+01 | 1486309540.65178 | pgbench_branches |             8192

 2017-02-05 16:45:41.732512+01 | 1486309541.73251 | pgbench_accounts |       1387020288
 2017-02-05 16:45:41.732512+01 | 1486309541.73251 | pgbench_tellers  |            49152
 2017-02-05 16:45:41.732512+01 | 1486309541.73251 | pgbench_history  |         97771520
 2017-02-05 16:45:41.732512+01 | 1486309541.73251 | pgbench_branches |             8192

 2017-02-05 16:45:42.812327+01 | 1486309542.81233 | pgbench_accounts |       1387020288
 2017-02-05 16:45:42.812327+01 | 1486309542.81233 | pgbench_tellers  |            49152
 2017-02-05 16:45:42.812327+01 | 1486309542.81233 | pgbench_history  |         99131392
 2017-02-05 16:45:42.812327+01 | 1486309542.81233 | pgbench_branches |             8192

 2017-02-05 16:45:43.888626+01 | 1486309543.88863 | pgbench_accounts |       1387020288
 2017-02-05 16:45:43.888626+01 | 1486309543.88863 | pgbench_tellers  |            49152
 2017-02-05 16:45:43.888626+01 | 1486309543.88863 | pgbench_history  |        100843520
 2017-02-05 16:45:43.888626+01 | 1486309543.88863 | pgbench_branches |             8192

 2017-02-05 16:45:44.962683+01 | 1486309544.96268 | pgbench_accounts |       1387020288
 2017-02-05 16:45:44.962683+01 | 1486309544.96268 | pgbench_tellers  |            49152
 2017-02-05 16:45:44.962683+01 | 1486309544.96268 | pgbench_history  |        102236160
 2017-02-05 16:45:44.962683+01 | 1486309544.96268 | pgbench_branches |             8192

 2017-02-05 16:45:46.04331+01 | 1486309546.04331 | pgbench_accounts |       1387020288
 2017-02-05 16:45:46.04331+01 | 1486309546.04331 | pgbench_tellers  |            49152
 2017-02-05 16:45:46.04331+01 | 1486309546.04331 | pgbench_history  |        103997440
 2017-02-05 16:45:46.04331+01 | 1486309546.04331 | pgbench_branches |             8192

 2017-02-05 16:45:47.117869+01 | 1486309547.11787 | pgbench_accounts |       1387020288
 2017-02-05 16:45:47.117869+01 | 1486309547.11787 | pgbench_tellers  |            49152
 2017-02-05 16:45:47.117869+01 | 1486309547.11787 | pgbench_history  |        105758720
 2017-02-05 16:45:47.117869+01 | 1486309547.11787 | pgbench_branches |             8192

 2017-02-05 16:45:48.208927+01 | 1486309548.20893 | pgbench_accounts |       1387020288
 2017-02-05 16:45:48.208927+01 | 1486309548.20893 | pgbench_tellers  |            49152
 2017-02-05 16:45:48.208927+01 | 1486309548.20893 | pgbench_history  |        107315200
 2017-02-05 16:45:48.208927+01 | 1486309548.20893 | pgbench_branches |             8192

 2017-02-05 16:45:49.286579+01 | 1486309549.28658 | pgbench_accounts |       1387020288
 2017-02-05 16:45:49.286579+01 | 1486309549.28658 | pgbench_tellers  |            49152
 2017-02-05 16:45:49.286579+01 | 1486309549.28658 | pgbench_history  |        108740608
 2017-02-05 16:45:49.286579+01 | 1486309549.28658 | pgbench_branches |             8192

 2017-02-05 16:45:50.361892+01 | 1486309550.36189 | pgbench_accounts |       1387020288
 2017-02-05 16:45:50.361892+01 | 1486309550.36189 | pgbench_tellers  |            49152
 2017-02-05 16:45:50.361892+01 | 1486309550.36189 | pgbench_history  |        110821376
 2017-02-05 16:45:50.361892+01 | 1486309550.36189 | pgbench_branches |             8192

 2017-02-05 16:45:51.438073+01 | 1486309551.43807 | pgbench_accounts |       1387020288
 2017-02-05 16:45:51.438073+01 | 1486309551.43807 | pgbench_tellers  |            49152
 2017-02-05 16:45:51.438073+01 | 1486309551.43807 | pgbench_history  |        112214016
 2017-02-05 16:45:51.438073+01 | 1486309551.43807 | pgbench_branches |             8192

 2017-02-05 16:45:52.515338+01 | 1486309552.51534 | pgbench_accounts |       1387020288
 2017-02-05 16:45:52.515338+01 | 1486309552.51534 | pgbench_tellers  |            49152
 2017-02-05 16:45:52.515338+01 | 1486309552.51534 | pgbench_history  |        113639424
 2017-02-05 16:45:52.515338+01 | 1486309552.51534 | pgbench_branches |             8192

 2017-02-05 16:45:53.603021+01 | 1486309553.60302 | pgbench_accounts |       1387020288
 2017-02-05 16:45:53.603021+01 | 1486309553.60302 | pgbench_tellers  |            49152
 2017-02-05 16:45:53.603021+01 | 1486309553.60302 | pgbench_history  |        115359744
 2017-02-05 16:45:53.603021+01 | 1486309553.60302 | pgbench_branches |             8192

 2017-02-05 16:45:54.682478+01 | 1486309554.68248 | pgbench_accounts |       1387020288
 2017-02-05 16:45:54.682478+01 | 1486309554.68248 | pgbench_tellers  |            49152
 2017-02-05 16:45:54.682478+01 | 1486309554.68248 | pgbench_history  |        116719616
 2017-02-05 16:45:54.682478+01 | 1486309554.68248 | pgbench_branches |             8192

 2017-02-05 16:45:55.767776+01 | 1486309555.76778 | pgbench_accounts |       1387020288
 2017-02-05 16:45:55.767776+01 | 1486309555.76778 | pgbench_tellers  |            49152
 2017-02-05 16:45:55.767776+01 | 1486309555.76778 | pgbench_history  |        118292480
 2017-02-05 16:45:55.767776+01 | 1486309555.76778 | pgbench_branches |             8192

 2017-02-05 16:45:56.837282+01 | 1486309556.83728 | pgbench_accounts |       1387020288
 2017-02-05 16:45:56.837282+01 | 1486309556.83728 | pgbench_tellers  |            49152
 2017-02-05 16:45:56.837282+01 | 1486309556.83728 | pgbench_history  |        119685120
 2017-02-05 16:45:56.837282+01 | 1486309556.83728 | pgbench_branches |             8192

 2017-02-05 16:45:57.921287+01 | 1486309557.92129 | pgbench_accounts |       1387020288
 2017-02-05 16:45:57.921287+01 | 1486309557.92129 | pgbench_tellers  |            49152
 2017-02-05 16:45:57.921287+01 | 1486309557.92129 | pgbench_history  |        122413056
 2017-02-05 16:45:57.921287+01 | 1486309557.92129 | pgbench_branches |             8192

 2017-02-05 16:45:59.010271+01 | 1486309559.01027 | pgbench_accounts |       1387020288
 2017-02-05 16:45:59.010271+01 | 1486309559.01027 | pgbench_tellers  |            49152
 2017-02-05 16:45:59.010271+01 | 1486309559.01027 | pgbench_history  |        123133952
 2017-02-05 16:45:59.010271+01 | 1486309559.01027 | pgbench_branches |             8192

 2017-02-05 16:46:00.092616+01 | 1486309560.09262 | pgbench_accounts |       1387020288
 2017-02-05 16:46:00.092616+01 | 1486309560.09262 | pgbench_tellers  |            49152
 2017-02-05 16:46:00.092616+01 | 1486309560.09262 | pgbench_history  |        124526592
 2017-02-05 16:46:00.092616+01 | 1486309560.09262 | pgbench_branches |             8192

 2017-02-05 16:46:01.173491+01 | 1486309561.17349 | pgbench_accounts |       1387020288
 2017-02-05 16:46:01.173491+01 | 1486309561.17349 | pgbench_tellers  |            49152
 2017-02-05 16:46:01.173491+01 | 1486309561.17349 | pgbench_history  |        126255104
 2017-02-05 16:46:01.173491+01 | 1486309561.17349 | pgbench_branches |             8192

 2017-02-05 16:46:02.243522+01 | 1486309562.24352 | pgbench_accounts |       1387020288
 2017-02-05 16:46:02.243522+01 | 1486309562.24352 | pgbench_tellers  |            49152
 2017-02-05 16:46:02.243522+01 | 1486309562.24352 | pgbench_history  |        127942656
 2017-02-05 16:46:02.243522+01 | 1486309562.24352 | pgbench_branches |             8192

 2017-02-05 16:46:03.331182+01 | 1486309563.33118 | pgbench_accounts |       1387020288
 2017-02-05 16:46:03.331182+01 | 1486309563.33118 | pgbench_tellers  |            49152
 2017-02-05 16:46:03.331182+01 | 1486309563.33118 | pgbench_history  |        129310720
 2017-02-05 16:46:03.331182+01 | 1486309563.33118 | pgbench_branches |             8192

 2017-02-05 16:46:04.422804+01 | 1486309564.4228 | pgbench_accounts |       1387020288
 2017-02-05 16:46:04.422804+01 | 1486309564.4228 | pgbench_tellers  |            49152
 2017-02-05 16:46:04.422804+01 | 1486309564.4228 | pgbench_history  |        131022848
 2017-02-05 16:46:04.422804+01 | 1486309564.4228 | pgbench_branches |             8192

 2017-02-05 16:46:05.505056+01 | 1486309565.50506 | pgbench_accounts |       1387020288
 2017-02-05 16:46:05.505056+01 | 1486309565.50506 | pgbench_tellers  |            49152
 2017-02-05 16:46:05.505056+01 | 1486309565.50506 | pgbench_history  |        132595712
 2017-02-05 16:46:05.505056+01 | 1486309565.50506 | pgbench_branches |             8192

 2017-02-05 16:46:06.583807+01 | 1486309566.58381 | pgbench_accounts |       1387020288
 2017-02-05 16:46:06.583807+01 | 1486309566.58381 | pgbench_tellers  |            49152
 2017-02-05 16:46:06.583807+01 | 1486309566.58381 | pgbench_history  |        134471680
 2017-02-05 16:46:06.583807+01 | 1486309566.58381 | pgbench_branches |             8192

 2017-02-05 16:46:07.663459+01 | 1486309567.66346 | pgbench_accounts |       1387020288
 2017-02-05 16:46:07.663459+01 | 1486309567.66346 | pgbench_tellers  |            49152
 2017-02-05 16:46:07.663459+01 | 1486309567.66346 | pgbench_history  |        136544256
 2017-02-05 16:46:07.663459+01 | 1486309567.66346 | pgbench_branches |             8192

 2017-02-05 16:46:08.748007+01 | 1486309568.74801 | pgbench_accounts |       1387020288
 2017-02-05 16:46:08.748007+01 | 1486309568.74801 | pgbench_tellers  |            49152
 2017-02-05 16:46:08.748007+01 | 1486309568.74801 | pgbench_history  |        137256960
 2017-02-05 16:46:08.748007+01 | 1486309568.74801 | pgbench_branches |             8192

 2017-02-05 16:46:09.83027+01 | 1486309569.83027 | pgbench_accounts |       1387020288
 2017-02-05 16:46:09.83027+01 | 1486309569.83027 | pgbench_tellers  |            49152
 2017-02-05 16:46:09.83027+01 | 1486309569.83027 | pgbench_history  |        139649024
 2017-02-05 16:46:09.83027+01 | 1486309569.83027 | pgbench_branches |             8192

 2017-02-05 16:46:10.918197+01 | 1486309570.9182 | pgbench_accounts |       1387020288
 2017-02-05 16:46:10.918197+01 | 1486309570.9182 | pgbench_tellers  |            49152
 2017-02-05 16:46:10.918197+01 | 1486309570.9182 | pgbench_history  |        141008896
 2017-02-05 16:46:10.918197+01 | 1486309570.9182 | pgbench_branches |             8192

 2017-02-05 16:46:12.010864+01 | 1486309572.01086 | pgbench_accounts |       1387020288
 2017-02-05 16:46:12.010864+01 | 1486309572.01086 | pgbench_tellers  |            49152
 2017-02-05 16:46:12.010864+01 | 1486309572.01086 | pgbench_history  |        142213120
 2017-02-05 16:46:12.010864+01 | 1486309572.01086 | pgbench_branches |             8192

 2017-02-05 16:46:13.095584+01 | 1486309573.09558 | pgbench_accounts |       1387020288
 2017-02-05 16:46:13.095584+01 | 1486309573.09558 | pgbench_tellers  |            49152
 2017-02-05 16:46:13.095584+01 | 1486309573.09558 | pgbench_history  |        143941632
 2017-02-05 16:46:13.095584+01 | 1486309573.09558 | pgbench_branches |             8192

 2017-02-05 16:46:14.176893+01 | 1486309574.17689 | pgbench_accounts |       1387020288
 2017-02-05 16:46:14.176893+01 | 1486309574.17689 | pgbench_tellers  |            49152
 2017-02-05 16:46:14.176893+01 | 1486309574.17689 | pgbench_history  |        145506304
 2017-02-05 16:46:14.176893+01 | 1486309574.17689 | pgbench_branches |             8192

 2017-02-05 16:46:15.259513+01 | 1486309575.25951 | pgbench_accounts |       1387020288
 2017-02-05 16:46:15.259513+01 | 1486309575.25951 | pgbench_tellers  |            49152
 2017-02-05 16:46:15.259513+01 | 1486309575.25951 | pgbench_history  |        146743296
 2017-02-05 16:46:15.259513+01 | 1486309575.25951 | pgbench_branches |             8192

 2017-02-05 16:46:16.346026+01 | 1486309576.34603 | pgbench_accounts |       1387020288
 2017-02-05 16:46:16.346026+01 | 1486309576.34603 | pgbench_tellers  |            49152
 2017-02-05 16:46:16.346026+01 | 1486309576.34603 | pgbench_history  |        148791296
 2017-02-05 16:46:16.346026+01 | 1486309576.34603 | pgbench_branches |             8192

 2017-02-05 16:46:17.424095+01 | 1486309577.42409 | pgbench_accounts |       1387020288
 2017-02-05 16:46:17.424095+01 | 1486309577.42409 | pgbench_tellers  |            49152
 2017-02-05 16:46:17.424095+01 | 1486309577.42409 | pgbench_history  |        150183936
 2017-02-05 16:46:17.424095+01 | 1486309577.42409 | pgbench_branches |             8192

 2017-02-05 16:46:18.505539+01 | 1486309578.50554 | pgbench_accounts |       1387020288
 2017-02-05 16:46:18.505539+01 | 1486309578.50554 | pgbench_tellers  |            49152
 2017-02-05 16:46:18.505539+01 | 1486309578.50554 | pgbench_history  |        151756800
 2017-02-05 16:46:18.505539+01 | 1486309578.50554 | pgbench_branches |             8192

 2017-02-05 16:46:19.587155+01 | 1486309579.58716 | pgbench_accounts |       1387020288
 2017-02-05 16:46:19.587155+01 | 1486309579.58716 | pgbench_tellers  |            49152
 2017-02-05 16:46:19.587155+01 | 1486309579.58716 | pgbench_history  |        154779648
 2017-02-05 16:46:19.587155+01 | 1486309579.58716 | pgbench_branches |             8192

 2017-02-05 16:46:20.674415+01 | 1486309580.67442 | pgbench_accounts |       1387020288
 2017-02-05 16:46:20.674415+01 | 1486309580.67442 | pgbench_tellers  |            49152
 2017-02-05 16:46:20.674415+01 | 1486309580.67442 | pgbench_history  |        154779648
 2017-02-05 16:46:20.674415+01 | 1486309580.67442 | pgbench_branches |             8192

 2017-02-05 16:46:21.758403+01 | 1486309581.7584 | pgbench_accounts |       1387020288
 2017-02-05 16:46:21.758403+01 | 1486309581.7584 | pgbench_tellers  |            49152
 2017-02-05 16:46:21.758403+01 | 1486309581.7584 | pgbench_history  |        156336128
 2017-02-05 16:46:21.758403+01 | 1486309581.7584 | pgbench_branches |             8192

 2017-02-05 16:46:22.844984+01 | 1486309582.84498 | pgbench_accounts |       1387020288
 2017-02-05 16:46:22.844984+01 | 1486309582.84498 | pgbench_tellers  |            49152
 2017-02-05 16:46:22.844984+01 | 1486309582.84498 | pgbench_history  |        157876224
 2017-02-05 16:46:22.844984+01 | 1486309582.84498 | pgbench_branches |             8192

 2017-02-05 16:46:23.928194+01 | 1486309583.92819 | pgbench_accounts |       1387020288
 2017-02-05 16:46:23.928194+01 | 1486309583.92819 | pgbench_tellers  |            49152
 2017-02-05 16:46:23.928194+01 | 1486309583.92819 | pgbench_history  |        159776768
 2017-02-05 16:46:23.928194+01 | 1486309583.92819 | pgbench_branches |             8192

 2017-02-05 16:46:25.0088+01 | 1486309585.0088 | pgbench_accounts |       1387020288
 2017-02-05 16:46:25.0088+01 | 1486309585.0088 | pgbench_tellers  |            49152
 2017-02-05 16:46:25.0088+01 | 1486309585.0088 | pgbench_history  |        160997376
 2017-02-05 16:46:25.0088+01 | 1486309585.0088 | pgbench_branches |             8192

 2017-02-05 16:46:26.088235+01 | 1486309586.08823 | pgbench_accounts |       1387020288
 2017-02-05 16:46:26.088235+01 | 1486309586.08823 | pgbench_tellers  |            49152
 2017-02-05 16:46:26.088235+01 | 1486309586.08823 | pgbench_history  |        162709504
 2017-02-05 16:46:26.088235+01 | 1486309586.08823 | pgbench_branches |             8192

 2017-02-05 16:46:27.17591+01 | 1486309587.17591 | pgbench_accounts |       1387020288
 2017-02-05 16:46:27.17591+01 | 1486309587.17591 | pgbench_tellers  |            49152
 2017-02-05 16:46:27.17591+01 | 1486309587.17591 | pgbench_history  |        164265984
 2017-02-05 16:46:27.17591+01 | 1486309587.17591 | pgbench_branches |             8192

 2017-02-05 16:46:28.264281+01 | 1486309588.26428 | pgbench_accounts |       1387020288
 2017-02-05 16:46:28.264281+01 | 1486309588.26428 | pgbench_tellers  |            49152
 2017-02-05 16:46:28.264281+01 | 1486309588.26428 | pgbench_history  |        165994496
 2017-02-05 16:46:28.264281+01 | 1486309588.26428 | pgbench_branches |             8192

 2017-02-05 16:46:29.349063+01 | 1486309589.34906 | pgbench_accounts |       1387020288
 2017-02-05 16:46:29.349063+01 | 1486309589.34906 | pgbench_tellers  |            49152
 2017-02-05 16:46:29.349063+01 | 1486309589.34906 | pgbench_history  |        167714816
 2017-02-05 16:46:29.349063+01 | 1486309589.34906 | pgbench_branches |             8192

 2017-02-05 16:46:30.426161+01 | 1486309590.42616 | pgbench_accounts |       1387020288
 2017-02-05 16:46:30.426161+01 | 1486309590.42616 | pgbench_tellers  |            49152
 2017-02-05 16:46:30.426161+01 | 1486309590.42616 | pgbench_history  |        168984576
 2017-02-05 16:46:30.426161+01 | 1486309590.42616 | pgbench_branches |             8192

 2017-02-05 16:46:31.507603+01 | 1486309591.5076 | pgbench_accounts |       1387020288
 2017-02-05 16:46:31.507603+01 | 1486309591.5076 | pgbench_tellers  |            49152
 2017-02-05 16:46:31.507603+01 | 1486309591.5076 | pgbench_history  |        170508288
 2017-02-05 16:46:31.507603+01 | 1486309591.5076 | pgbench_branches |             8192

 2017-02-05 16:46:32.581559+01 | 1486309592.58156 | pgbench_accounts |       1387020288
 2017-02-05 16:46:32.581559+01 | 1486309592.58156 | pgbench_tellers  |            49152
 2017-02-05 16:46:32.581559+01 | 1486309592.58156 | pgbench_history  |        172032000
 2017-02-05 16:46:32.581559+01 | 1486309592.58156 | pgbench_branches |             8192

 2017-02-05 16:46:33.660166+01 | 1486309593.66017 | pgbench_accounts |       1387020288
 2017-02-05 16:46:33.660166+01 | 1486309593.66017 | pgbench_tellers  |            49152
 2017-02-05 16:46:33.660166+01 | 1486309593.66017 | pgbench_history  |        174137344
 2017-02-05 16:46:33.660166+01 | 1486309593.66017 | pgbench_branches |             8192

 2017-02-05 16:46:34.741799+01 | 1486309594.7418 | pgbench_accounts |       1387020288
 2017-02-05 16:46:34.741799+01 | 1486309594.7418 | pgbench_tellers  |            49152
 2017-02-05 16:46:34.741799+01 | 1486309594.7418 | pgbench_history  |        175357952
 2017-02-05 16:46:34.741799+01 | 1486309594.7418 | pgbench_branches |             8192

 2017-02-05 16:46:35.826713+01 | 1486309595.82671 | pgbench_accounts |       1387020288
 2017-02-05 16:46:35.826713+01 | 1486309595.82671 | pgbench_tellers  |            49152
 2017-02-05 16:46:35.826713+01 | 1486309595.82671 | pgbench_history  |        177414144
 2017-02-05 16:46:35.826713+01 | 1486309595.82671 | pgbench_branches |             8192

 2017-02-05 16:46:36.910913+01 | 1486309596.91091 | pgbench_accounts |       1387020288
 2017-02-05 16:46:36.910913+01 | 1486309596.91091 | pgbench_tellers  |            49152
 2017-02-05 16:46:36.910913+01 | 1486309596.91091 | pgbench_history  |        178446336
 2017-02-05 16:46:36.910913+01 | 1486309596.91091 | pgbench_branches |             8192

 2017-02-05 16:46:37.98911+01 | 1486309597.98911 | pgbench_accounts |       1387020288
 2017-02-05 16:46:37.98911+01 | 1486309597.98911 | pgbench_tellers  |            49152
 2017-02-05 16:46:37.98911+01 | 1486309597.98911 | pgbench_history  |        180338688
 2017-02-05 16:46:37.98911+01 | 1486309597.98911 | pgbench_branches |             8192

 2017-02-05 16:46:39.077021+01 | 1486309599.07702 | pgbench_accounts |       1387020288
 2017-02-05 16:46:39.077021+01 | 1486309599.07702 | pgbench_tellers  |            49152
 2017-02-05 16:46:39.077021+01 | 1486309599.07702 | pgbench_history  |        182034432
 2017-02-05 16:46:39.077021+01 | 1486309599.07702 | pgbench_branches |             8192

 2017-02-05 16:46:40.171656+01 | 1486309600.17166 | pgbench_accounts |       1387020288
 2017-02-05 16:46:40.171656+01 | 1486309600.17166 | pgbench_tellers  |            49152
 2017-02-05 16:46:40.171656+01 | 1486309600.17166 | pgbench_history  |        183050240
 2017-02-05 16:46:40.171656+01 | 1486309600.17166 | pgbench_branches |             8192

 2017-02-05 16:46:41.246297+01 | 1486309601.2463 | pgbench_accounts |       1387020288
 2017-02-05 16:46:41.246297+01 | 1486309601.2463 | pgbench_tellers  |            49152
 2017-02-05 16:46:41.246297+01 | 1486309601.2463 | pgbench_history  |        184786944
 2017-02-05 16:46:41.246297+01 | 1486309601.2463 | pgbench_branches |             8192

 2017-02-05 16:46:42.319999+01 | 1486309602.32 | pgbench_accounts |       1387020288
 2017-02-05 16:46:42.319999+01 | 1486309602.32 | pgbench_tellers  |            49152
 2017-02-05 16:46:42.319999+01 | 1486309602.32 | pgbench_history  |        187015168
 2017-02-05 16:46:42.319999+01 | 1486309602.32 | pgbench_branches |             8192

 2017-02-05 16:46:43.411378+01 | 1486309603.41138 | pgbench_accounts |       1387020288
 2017-02-05 16:46:43.411378+01 | 1486309603.41138 | pgbench_tellers  |            49152
 2017-02-05 16:46:43.411378+01 | 1486309603.41138 | pgbench_history  |        188235776
 2017-02-05 16:46:43.411378+01 | 1486309603.41138 | pgbench_branches |             8192

 2017-02-05 16:46:44.494345+01 | 1486309604.49434 | pgbench_accounts |       1387020288
 2017-02-05 16:46:44.494345+01 | 1486309604.49434 | pgbench_tellers  |            49152
 2017-02-05 16:46:44.494345+01 | 1486309604.49434 | pgbench_history  |        189456384
 2017-02-05 16:46:44.494345+01 | 1486309604.49434 | pgbench_branches |             8192

 2017-02-05 16:46:45.576918+01 | 1486309605.57692 | pgbench_accounts |       1387020288
 2017-02-05 16:46:45.576918+01 | 1486309605.57692 | pgbench_tellers  |            49152
 2017-02-05 16:46:45.576918+01 | 1486309605.57692 | pgbench_history  |        190980096
 2017-02-05 16:46:45.576918+01 | 1486309605.57692 | pgbench_branches |             8192

 2017-02-05 16:46:46.651085+01 | 1486309606.65108 | pgbench_accounts |       1387020288
 2017-02-05 16:46:46.651085+01 | 1486309606.65108 | pgbench_tellers  |            49152
 2017-02-05 16:46:46.651085+01 | 1486309606.65108 | pgbench_history  |        192700416
 2017-02-05 16:46:46.651085+01 | 1486309606.65108 | pgbench_branches |             8192

 2017-02-05 16:46:47.729983+01 | 1486309607.72998 | pgbench_accounts |       1387020288
 2017-02-05 16:46:47.729983+01 | 1486309607.72998 | pgbench_tellers  |            49152
 2017-02-05 16:46:47.729983+01 | 1486309607.72998 | pgbench_history  |        194240512
 2017-02-05 16:46:47.729983+01 | 1486309607.72998 | pgbench_branches |             8192

 2017-02-05 16:46:48.805575+01 | 1486309608.80557 | pgbench_accounts |       1387020288
 2017-02-05 16:46:48.805575+01 | 1486309608.80557 | pgbench_tellers  |            49152
 2017-02-05 16:46:48.805575+01 | 1486309608.80557 | pgbench_history  |        196321280
 2017-02-05 16:46:48.805575+01 | 1486309608.80557 | pgbench_branches |             8192

 2017-02-05 16:46:49.885344+01 | 1486309609.88534 | pgbench_accounts |       1387020288
 2017-02-05 16:46:49.885344+01 | 1486309609.88534 | pgbench_tellers  |            49152
 2017-02-05 16:46:49.885344+01 | 1486309609.88534 | pgbench_history  |        197378048
 2017-02-05 16:46:49.885344+01 | 1486309609.88534 | pgbench_branches |             8192

 2017-02-05 16:46:50.972501+01 | 1486309610.9725 | pgbench_accounts |       1387020288
 2017-02-05 16:46:50.972501+01 | 1486309610.9725 | pgbench_tellers  |            49152
 2017-02-05 16:46:50.972501+01 | 1486309610.9725 | pgbench_history  |        199122944
 2017-02-05 16:46:50.972501+01 | 1486309610.9725 | pgbench_branches |             8192

 2017-02-05 16:46:52.053907+01 | 1486309612.05391 | pgbench_accounts |       1387020288
 2017-02-05 16:46:52.053907+01 | 1486309612.05391 | pgbench_tellers  |            49152
 2017-02-05 16:46:52.053907+01 | 1486309612.05391 | pgbench_history  |        200671232
 2017-02-05 16:46:52.053907+01 | 1486309612.05391 | pgbench_branches |             8192

 2017-02-05 16:46:53.131597+01 | 1486309613.1316 | pgbench_accounts |       1387020288
 2017-02-05 16:46:53.131597+01 | 1486309613.1316 | pgbench_tellers  |            49152
 2017-02-05 16:46:53.131597+01 | 1486309613.1316 | pgbench_history  |        202276864
 2017-02-05 16:46:53.131597+01 | 1486309613.1316 | pgbench_branches |             8192

 2017-02-05 16:46:54.213133+01 | 1486309614.21313 | pgbench_accounts |       1387020288
 2017-02-05 16:46:54.213133+01 | 1486309614.21313 | pgbench_tellers  |            49152
 2017-02-05 16:46:54.213133+01 | 1486309614.21313 | pgbench_history  |        204185600
 2017-02-05 16:46:54.213133+01 | 1486309614.21313 | pgbench_branches |             8192

 2017-02-05 16:46:55.293108+01 | 1486309615.29311 | pgbench_accounts |       1387020288
 2017-02-05 16:46:55.293108+01 | 1486309615.29311 | pgbench_tellers  |            49152
 2017-02-05 16:46:55.293108+01 | 1486309615.29311 | pgbench_history  |        205873152
 2017-02-05 16:46:55.293108+01 | 1486309615.29311 | pgbench_branches |             8192

 2017-02-05 16:46:56.381886+01 | 1486309616.38189 | pgbench_accounts |       1387020288
 2017-02-05 16:46:56.381886+01 | 1486309616.38189 | pgbench_tellers  |            49152
 2017-02-05 16:46:56.381886+01 | 1486309616.38189 | pgbench_history  |        206749696
 2017-02-05 16:46:56.381886+01 | 1486309616.38189 | pgbench_branches |             8192

 2017-02-05 16:46:57.459769+01 | 1486309617.45977 | pgbench_accounts |       1387020288
 2017-02-05 16:46:57.459769+01 | 1486309617.45977 | pgbench_tellers  |            49152
 2017-02-05 16:46:57.459769+01 | 1486309617.45977 | pgbench_history  |        208388096
 2017-02-05 16:46:57.459769+01 | 1486309617.45977 | pgbench_branches |             8192

 2017-02-05 16:46:58.54239+01 | 1486309618.54239 | pgbench_accounts |       1387020288
 2017-02-05 16:46:58.54239+01 | 1486309618.54239 | pgbench_tellers  |            49152
 2017-02-05 16:46:58.54239+01 | 1486309618.54239 | pgbench_history  |        210132992
 2017-02-05 16:46:58.54239+01 | 1486309618.54239 | pgbench_branches |             8192

 2017-02-05 16:46:59.622388+01 | 1486309619.62239 | pgbench_accounts |       1387020288
 2017-02-05 16:46:59.622388+01 | 1486309619.62239 | pgbench_tellers  |            49152
 2017-02-05 16:46:59.622388+01 | 1486309619.62239 | pgbench_history  |        211771392
 2017-02-05 16:46:59.622388+01 | 1486309619.62239 | pgbench_branches |             8192

 2017-02-05 16:47:00.698498+01 | 1486309620.6985 | pgbench_accounts |       1387020288
 2017-02-05 16:47:00.698498+01 | 1486309620.6985 | pgbench_tellers  |            49152
 2017-02-05 16:47:00.698498+01 | 1486309620.6985 | pgbench_history  |        213491712
 2017-02-05 16:47:00.698498+01 | 1486309620.6985 | pgbench_branches |             8192

 2017-02-05 16:47:01.780598+01 | 1486309621.7806 | pgbench_accounts |       1387020288
 2017-02-05 16:47:01.780598+01 | 1486309621.7806 | pgbench_tellers  |            49152
 2017-02-05 16:47:01.780598+01 | 1486309621.7806 | pgbench_history  |        214876160
 2017-02-05 16:47:01.780598+01 | 1486309621.7806 | pgbench_branches |             8192

 2017-02-05 16:47:02.869598+01 | 1486309622.8696 | pgbench_accounts |       1387020288
 2017-02-05 16:47:02.869598+01 | 1486309622.8696 | pgbench_tellers  |            49152
 2017-02-05 16:47:02.869598+01 | 1486309622.8696 | pgbench_history  |        216293376
 2017-02-05 16:47:02.869598+01 | 1486309622.8696 | pgbench_branches |             8192

 2017-02-05 16:47:03.96162+01 | 1486309623.96162 | pgbench_accounts |       1387020288
 2017-02-05 16:47:03.96162+01 | 1486309623.96162 | pgbench_tellers  |            49152
 2017-02-05 16:47:03.96162+01 | 1486309623.96162 | pgbench_history  |        218144768
 2017-02-05 16:47:03.96162+01 | 1486309623.96162 | pgbench_branches |             8192

 2017-02-05 16:47:05.042019+01 | 1486309625.04202 | pgbench_accounts |       1387020288
 2017-02-05 16:47:05.042019+01 | 1486309625.04202 | pgbench_tellers  |            49152
 2017-02-05 16:47:05.042019+01 | 1486309625.04202 | pgbench_history  |        219512832
 2017-02-05 16:47:05.042019+01 | 1486309625.04202 | pgbench_branches |             8192

 2017-02-05 16:47:06.121852+01 | 1486309626.12185 | pgbench_accounts |       1387020288
 2017-02-05 16:47:06.121852+01 | 1486309626.12185 | pgbench_tellers  |            49152
 2017-02-05 16:47:06.121852+01 | 1486309626.12185 | pgbench_history  |        221200384
 2017-02-05 16:47:06.121852+01 | 1486309626.12185 | pgbench_branches |             8192

 2017-02-05 16:47:07.201683+01 | 1486309627.20168 | pgbench_accounts |       1387020288
 2017-02-05 16:47:07.201683+01 | 1486309627.20168 | pgbench_tellers  |            49152
 2017-02-05 16:47:07.201683+01 | 1486309627.20168 | pgbench_history  |        222617600
 2017-02-05 16:47:07.201683+01 | 1486309627.20168 | pgbench_branches |             8192

 2017-02-05 16:47:08.283718+01 | 1486309628.28372 | pgbench_accounts |       1387020288
 2017-02-05 16:47:08.283718+01 | 1486309628.28372 | pgbench_tellers  |            49152
 2017-02-05 16:47:08.283718+01 | 1486309628.28372 | pgbench_history  |        224354304
 2017-02-05 16:47:08.283718+01 | 1486309628.28372 | pgbench_branches |             8192

 2017-02-05 16:47:09.365572+01 | 1486309629.36557 | pgbench_accounts |       1387020288
 2017-02-05 16:47:09.365572+01 | 1486309629.36557 | pgbench_tellers  |            49152
 2017-02-05 16:47:09.365572+01 | 1486309629.36557 | pgbench_history  |        225918976
 2017-02-05 16:47:09.365572+01 | 1486309629.36557 | pgbench_branches |             8192

 2017-02-05 16:47:10.444478+01 | 1486309630.44448 | pgbench_accounts |       1387020288
 2017-02-05 16:47:10.444478+01 | 1486309630.44448 | pgbench_tellers  |            49152
 2017-02-05 16:47:10.444478+01 | 1486309630.44448 | pgbench_history  |        228147200
 2017-02-05 16:47:10.444478+01 | 1486309630.44448 | pgbench_branches |             8192

 2017-02-05 16:47:11.526453+01 | 1486309631.52645 | pgbench_accounts |       1387020288
 2017-02-05 16:47:11.526453+01 | 1486309631.52645 | pgbench_tellers  |            49152
 2017-02-05 16:47:11.526453+01 | 1486309631.52645 | pgbench_history  |        229015552
 2017-02-05 16:47:11.526453+01 | 1486309631.52645 | pgbench_branches |             8192

 2017-02-05 16:47:12.61664+01 | 1486309632.61664 | pgbench_accounts |       1387020288
 2017-02-05 16:47:12.61664+01 | 1486309632.61664 | pgbench_tellers  |            49152
 2017-02-05 16:47:12.61664+01 | 1486309632.61664 | pgbench_history  |        231194624
 2017-02-05 16:47:12.61664+01 | 1486309632.61664 | pgbench_branches |             8192

 2017-02-05 16:47:13.692767+01 | 1486309633.69277 | pgbench_accounts |       1387020288
 2017-02-05 16:47:13.692767+01 | 1486309633.69277 | pgbench_tellers  |            49152
 2017-02-05 16:47:13.692767+01 | 1486309633.69277 | pgbench_history  |        232554496
 2017-02-05 16:47:13.692767+01 | 1486309633.69277 | pgbench_branches |             8192

 2017-02-05 16:47:14.775862+01 | 1486309634.77586 | pgbench_accounts |       1387020288
 2017-02-05 16:47:14.775862+01 | 1486309634.77586 | pgbench_tellers  |            49152
 2017-02-05 16:47:14.775862+01 | 1486309634.77586 | pgbench_history  |        233594880
 2017-02-05 16:47:14.775862+01 | 1486309634.77586 | pgbench_branches |             8192

 2017-02-05 16:47:15.857411+01 | 1486309635.85741 | pgbench_accounts |       1387020288
 2017-02-05 16:47:15.857411+01 | 1486309635.85741 | pgbench_tellers  |            49152
 2017-02-05 16:47:15.857411+01 | 1486309635.85741 | pgbench_history  |        235307008
 2017-02-05 16:47:15.857411+01 | 1486309635.85741 | pgbench_branches |             8192

 2017-02-05 16:47:16.940061+01 | 1486309636.94006 | pgbench_accounts |       1387020288
 2017-02-05 16:47:16.940061+01 | 1486309636.94006 | pgbench_tellers  |            49152
 2017-02-05 16:47:16.940061+01 | 1486309636.94006 | pgbench_history  |        236855296
 2017-02-05 16:47:16.940061+01 | 1486309636.94006 | pgbench_branches |             8192

 2017-02-05 16:47:18.023102+01 | 1486309638.0231 | pgbench_accounts |       1387020288
 2017-02-05 16:47:18.023102+01 | 1486309638.0231 | pgbench_tellers  |            49152
 2017-02-05 16:47:18.023102+01 | 1486309638.0231 | pgbench_history  |        238706688
 2017-02-05 16:47:18.023102+01 | 1486309638.0231 | pgbench_branches |             8192

 2017-02-05 16:47:19.099059+01 | 1486309639.09906 | pgbench_accounts |       1387020288
 2017-02-05 16:47:19.099059+01 | 1486309639.09906 | pgbench_tellers  |            49152
 2017-02-05 16:47:19.099059+01 | 1486309639.09906 | pgbench_history  |        240082944
 2017-02-05 16:47:19.099059+01 | 1486309639.09906 | pgbench_branches |             8192

 2017-02-05 16:47:20.180707+01 | 1486309640.18071 | pgbench_accounts |       1387020288
 2017-02-05 16:47:20.180707+01 | 1486309640.18071 | pgbench_tellers  |            49152
 2017-02-05 16:47:20.180707+01 | 1486309640.18071 | pgbench_history  |        241582080
 2017-02-05 16:47:20.180707+01 | 1486309640.18071 | pgbench_branches |             8192

 2017-02-05 16:47:21.263802+01 | 1486309641.2638 | pgbench_accounts |       1387020288
 2017-02-05 16:47:21.263802+01 | 1486309641.2638 | pgbench_tellers  |            49152
 2017-02-05 16:47:21.263802+01 | 1486309641.2638 | pgbench_history  |        242917376
 2017-02-05 16:47:21.263802+01 | 1486309641.2638 | pgbench_branches |             8192

 2017-02-05 16:47:22.344552+01 | 1486309642.34455 | pgbench_accounts |       1387020288
 2017-02-05 16:47:22.344552+01 | 1486309642.34455 | pgbench_tellers  |            49152
 2017-02-05 16:47:22.344552+01 | 1486309642.34455 | pgbench_history  |        245161984
 2017-02-05 16:47:22.344552+01 | 1486309642.34455 | pgbench_branches |             8192

 2017-02-05 16:47:23.419098+01 | 1486309643.4191 | pgbench_accounts |       1387020288
 2017-02-05 16:47:23.419098+01 | 1486309643.4191 | pgbench_tellers  |            49152
 2017-02-05 16:47:23.419098+01 | 1486309643.4191 | pgbench_history  |        246013952
 2017-02-05 16:47:23.419098+01 | 1486309643.4191 | pgbench_branches |             8192

 2017-02-05 16:47:24.497251+01 | 1486309644.49725 | pgbench_accounts |       1387020288
 2017-02-05 16:47:24.497251+01 | 1486309644.49725 | pgbench_tellers  |            49152
 2017-02-05 16:47:24.497251+01 | 1486309644.49725 | pgbench_history  |        247562240
 2017-02-05 16:47:24.497251+01 | 1486309644.49725 | pgbench_branches |             8192

 2017-02-05 16:47:25.576712+01 | 1486309645.57671 | pgbench_accounts |       1387020288
 2017-02-05 16:47:25.576712+01 | 1486309645.57671 | pgbench_tellers  |            49152
 2017-02-05 16:47:25.576712+01 | 1486309645.57671 | pgbench_history  |        249626624
 2017-02-05 16:47:25.576712+01 | 1486309645.57671 | pgbench_branches |             8192

 2017-02-05 16:47:26.664145+01 | 1486309646.66414 | pgbench_accounts |       1387020288
 2017-02-05 16:47:26.664145+01 | 1486309646.66414 | pgbench_tellers  |            49152
 2017-02-05 16:47:26.664145+01 | 1486309646.66414 | pgbench_history  |        251150336
 2017-02-05 16:47:26.664145+01 | 1486309646.66414 | pgbench_branches |             8192

 2017-02-05 16:47:27.75161+01 | 1486309647.75161 | pgbench_accounts |       1387020288
 2017-02-05 16:47:27.75161+01 | 1486309647.75161 | pgbench_tellers  |            49152
 2017-02-05 16:47:27.75161+01 | 1486309647.75161 | pgbench_history  |        252567552
 2017-02-05 16:47:27.75161+01 | 1486309647.75161 | pgbench_branches |             8192

 2017-02-05 16:47:28.844299+01 | 1486309648.8443 | pgbench_accounts |       1387020288
 2017-02-05 16:47:28.844299+01 | 1486309648.8443 | pgbench_tellers  |            49152
 2017-02-05 16:47:28.844299+01 | 1486309648.8443 | pgbench_history  |        254115840
 2017-02-05 16:47:28.844299+01 | 1486309648.8443 | pgbench_branches |             8192

 2017-02-05 16:47:29.941642+01 | 1486309649.94164 | pgbench_accounts |       1387020288
 2017-02-05 16:47:29.941642+01 | 1486309649.94164 | pgbench_tellers  |            49152
 2017-02-05 16:47:29.941642+01 | 1486309649.94164 | pgbench_history  |        255500288
 2017-02-05 16:47:29.941642+01 | 1486309649.94164 | pgbench_branches |             8192

 2017-02-05 16:47:31.021489+01 | 1486309651.02149 | pgbench_accounts |       1387020288
 2017-02-05 16:47:31.021489+01 | 1486309651.02149 | pgbench_tellers  |            49152
 2017-02-05 16:47:31.021489+01 | 1486309651.02149 | pgbench_history  |        257220608
 2017-02-05 16:47:31.021489+01 | 1486309651.02149 | pgbench_branches |             8192

 2017-02-05 16:47:32.109087+01 | 1486309652.10909 | pgbench_accounts |       1387020288
 2017-02-05 16:47:32.109087+01 | 1486309652.10909 | pgbench_tellers  |            49152
 2017-02-05 16:47:32.109087+01 | 1486309652.10909 | pgbench_history  |        259260416
 2017-02-05 16:47:32.109087+01 | 1486309652.10909 | pgbench_branches |             8192

 2017-02-05 16:47:33.193757+01 | 1486309653.19376 | pgbench_accounts |       1387020288
 2017-02-05 16:47:33.193757+01 | 1486309653.19376 | pgbench_tellers  |            49152
 2017-02-05 16:47:33.193757+01 | 1486309653.19376 | pgbench_history  |        260104192
 2017-02-05 16:47:33.193757+01 | 1486309653.19376 | pgbench_branches |             8192

 2017-02-05 16:47:34.279902+01 | 1486309654.2799 | pgbench_accounts |       1387020288
 2017-02-05 16:47:34.279902+01 | 1486309654.2799 | pgbench_tellers  |            49152
 2017-02-05 16:47:34.279902+01 | 1486309654.2799 | pgbench_history  |        261627904
 2017-02-05 16:47:34.279902+01 | 1486309654.2799 | pgbench_branches |             8192

 2017-02-05 16:47:35.360002+01 | 1486309655.36 | pgbench_accounts |       1387020288
 2017-02-05 16:47:35.360002+01 | 1486309655.36 | pgbench_tellers  |            49152
 2017-02-05 16:47:35.360002+01 | 1486309655.36 | pgbench_history  |        263839744
 2017-02-05 16:47:35.360002+01 | 1486309655.36 | pgbench_branches |             8192

 2017-02-05 16:47:36.440864+01 | 1486309656.44086 | pgbench_accounts |       1387020288
 2017-02-05 16:47:36.440864+01 | 1486309656.44086 | pgbench_tellers  |            49152
 2017-02-05 16:47:36.440864+01 | 1486309656.44086 | pgbench_history  |        264904704
 2017-02-05 16:47:36.440864+01 | 1486309656.44086 | pgbench_branches |             8192

 2017-02-05 16:47:37.522473+01 | 1486309657.52247 | pgbench_accounts |       1387020288
 2017-02-05 16:47:37.522473+01 | 1486309657.52247 | pgbench_tellers  |            49152
 2017-02-05 16:47:37.522473+01 | 1486309657.52247 | pgbench_history  |        266313728
 2017-02-05 16:47:37.522473+01 | 1486309657.52247 | pgbench_branches |             8192

 2017-02-05 16:47:38.603805+01 | 1486309658.60381 | pgbench_accounts |       1387020288
 2017-02-05 16:47:38.603805+01 | 1486309658.60381 | pgbench_tellers  |            49152
 2017-02-05 16:47:38.603805+01 | 1486309658.60381 | pgbench_history  |        268500992
 2017-02-05 16:47:38.603805+01 | 1486309658.60381 | pgbench_branches |             8192

 2017-02-05 16:47:39.694043+01 | 1486309659.69404 | pgbench_accounts |       1387020288
 2017-02-05 16:47:39.694043+01 | 1486309659.69404 | pgbench_tellers  |            49152
 2017-02-05 16:47:39.694043+01 | 1486309659.69404 | pgbench_history  |        269369344
 2017-02-05 16:47:39.694043+01 | 1486309659.69404 | pgbench_branches |             8192

 2017-02-05 16:47:40.770552+01 | 1486309660.77055 | pgbench_accounts |       1387020288
 2017-02-05 16:47:40.770552+01 | 1486309660.77055 | pgbench_tellers  |            49152
 2017-02-05 16:47:40.770552+01 | 1486309660.77055 | pgbench_history  |        271261696
 2017-02-05 16:47:40.770552+01 | 1486309660.77055 | pgbench_branches |             8192

 2017-02-05 16:47:41.85499+01 | 1486309661.85499 | pgbench_accounts |       1387020288
 2017-02-05 16:47:41.85499+01 | 1486309661.85499 | pgbench_tellers  |            49152
 2017-02-05 16:47:41.85499+01 | 1486309661.85499 | pgbench_history  |        272809984
 2017-02-05 16:47:41.85499+01 | 1486309661.85499 | pgbench_branches |             8192

 2017-02-05 16:47:42.931853+01 | 1486309662.93185 | pgbench_accounts |       1387020288
 2017-02-05 16:47:42.931853+01 | 1486309662.93185 | pgbench_tellers  |            49152
 2017-02-05 16:47:42.931853+01 | 1486309662.93185 | pgbench_history  |        275038208
 2017-02-05 16:47:42.931853+01 | 1486309662.93185 | pgbench_branches |             8192

 2017-02-05 16:47:44.013152+01 | 1486309664.01315 | pgbench_accounts |       1387020288
 2017-02-05 16:47:44.013152+01 | 1486309664.01315 | pgbench_tellers  |            49152
 2017-02-05 16:47:44.013152+01 | 1486309664.01315 | pgbench_history  |        276103168
 2017-02-05 16:47:44.013152+01 | 1486309664.01315 | pgbench_branches |             8192

 2017-02-05 16:47:45.09502+01 | 1486309665.09502 | pgbench_accounts |       1387020288
 2017-02-05 16:47:45.09502+01 | 1486309665.09502 | pgbench_tellers  |            49152
 2017-02-05 16:47:45.09502+01 | 1486309665.09502 | pgbench_history  |        277348352
 2017-02-05 16:47:45.09502+01 | 1486309665.09502 | pgbench_branches |             8192

 2017-02-05 16:47:46.177646+01 | 1486309666.17765 | pgbench_accounts |       1387020288
 2017-02-05 16:47:46.177646+01 | 1486309666.17765 | pgbench_tellers  |            49152
 2017-02-05 16:47:46.177646+01 | 1486309666.17765 | pgbench_history  |        279281664
 2017-02-05 16:47:46.177646+01 | 1486309666.17765 | pgbench_branches |             8192

 2017-02-05 16:47:47.256158+01 | 1486309667.25616 | pgbench_accounts |       1387020288
 2017-02-05 16:47:47.256158+01 | 1486309667.25616 | pgbench_tellers  |            49152
 2017-02-05 16:47:47.256158+01 | 1486309667.25616 | pgbench_history  |        280502272
 2017-02-05 16:47:47.256158+01 | 1486309667.25616 | pgbench_branches |             8192

 2017-02-05 16:47:48.336451+01 | 1486309668.33645 | pgbench_accounts |       1387020288
 2017-02-05 16:47:48.336451+01 | 1486309668.33645 | pgbench_tellers  |            49152
 2017-02-05 16:47:48.336451+01 | 1486309668.33645 | pgbench_history  |        282247168
 2017-02-05 16:47:48.336451+01 | 1486309668.33645 | pgbench_branches |             8192

 2017-02-05 16:47:49.424434+01 | 1486309669.42443 | pgbench_accounts |       1387020288
 2017-02-05 16:47:49.424434+01 | 1486309669.42443 | pgbench_tellers  |            49152
 2017-02-05 16:47:49.424434+01 | 1486309669.42443 | pgbench_history  |        283451392
 2017-02-05 16:47:49.424434+01 | 1486309669.42443 | pgbench_branches |             8192

 2017-02-05 16:47:50.517502+01 | 1486309670.5175 | pgbench_accounts |       1387020288
 2017-02-05 16:47:50.517502+01 | 1486309670.5175 | pgbench_tellers  |            49152
 2017-02-05 16:47:50.517502+01 | 1486309670.5175 | pgbench_history  |        285532160
 2017-02-05 16:47:50.517502+01 | 1486309670.5175 | pgbench_branches |             8192

 2017-02-05 16:47:51.592083+01 | 1486309671.59208 | pgbench_accounts |       1387020288
 2017-02-05 16:47:51.592083+01 | 1486309671.59208 | pgbench_tellers  |            49152
 2017-02-05 16:47:51.592083+01 | 1486309671.59208 | pgbench_history  |        286613504
 2017-02-05 16:47:51.592083+01 | 1486309671.59208 | pgbench_branches |             8192

 2017-02-05 16:47:52.675278+01 | 1486309672.67528 | pgbench_accounts |       1387020288
 2017-02-05 16:47:52.675278+01 | 1486309672.67528 | pgbench_tellers  |            49152
 2017-02-05 16:47:52.675278+01 | 1486309672.67528 | pgbench_history  |        288825344
 2017-02-05 16:47:52.675278+01 | 1486309672.67528 | pgbench_branches |             8192

 2017-02-05 16:47:53.755516+01 | 1486309673.75552 | pgbench_accounts |       1387020288
 2017-02-05 16:47:53.755516+01 | 1486309673.75552 | pgbench_tellers  |            49152
 2017-02-05 16:47:53.755516+01 | 1486309673.75552 | pgbench_history  |        290021376
 2017-02-05 16:47:53.755516+01 | 1486309673.75552 | pgbench_branches |             8192

 2017-02-05 16:47:54.83401+01 | 1486309674.83401 | pgbench_accounts |       1387020288
 2017-02-05 16:47:54.83401+01 | 1486309674.83401 | pgbench_tellers  |            49152
 2017-02-05 16:47:54.83401+01 | 1486309674.83401 | pgbench_history  |        291733504
 2017-02-05 16:47:54.83401+01 | 1486309674.83401 | pgbench_branches |             8192

 2017-02-05 16:47:55.919093+01 | 1486309675.91909 | pgbench_accounts |       1387020288
 2017-02-05 16:47:55.919093+01 | 1486309675.91909 | pgbench_tellers  |            49152
 2017-02-05 16:47:55.919093+01 | 1486309675.91909 | pgbench_history  |        293273600
 2017-02-05 16:47:55.919093+01 | 1486309675.91909 | pgbench_branches |             8192

 2017-02-05 16:47:57.009232+01 | 1486309677.00923 | pgbench_accounts |       1387020288
 2017-02-05 16:47:57.009232+01 | 1486309677.00923 | pgbench_tellers  |            49152
 2017-02-05 16:47:57.009232+01 | 1486309677.00923 | pgbench_history  |        295174144
 2017-02-05 16:47:57.009232+01 | 1486309677.00923 | pgbench_branches |             8192

 2017-02-05 16:47:58.095432+01 | 1486309678.09543 | pgbench_accounts |       1387020288
 2017-02-05 16:47:58.095432+01 | 1486309678.09543 | pgbench_tellers  |            49152
 2017-02-05 16:47:58.095432+01 | 1486309678.09543 | pgbench_history  |        296345600
 2017-02-05 16:47:58.095432+01 | 1486309678.09543 | pgbench_branches |             8192

 2017-02-05 16:47:59.171449+01 | 1486309679.17145 | pgbench_accounts |       1387020288
 2017-02-05 16:47:59.171449+01 | 1486309679.17145 | pgbench_tellers  |            49152
 2017-02-05 16:47:59.171449+01 | 1486309679.17145 | pgbench_history  |        297705472
 2017-02-05 16:47:59.171449+01 | 1486309679.17145 | pgbench_branches |             8192

 2017-02-05 16:48:00.251268+01 | 1486309680.25127 | pgbench_accounts |       1387020288
 2017-02-05 16:48:00.251268+01 | 1486309680.25127 | pgbench_tellers  |            49152
 2017-02-05 16:48:00.251268+01 | 1486309680.25127 | pgbench_history  |        299089920
 2017-02-05 16:48:00.251268+01 | 1486309680.25127 | pgbench_branches |             8192

 2017-02-05 16:48:01.331029+01 | 1486309681.33103 | pgbench_accounts |       1387020288
 2017-02-05 16:48:01.331029+01 | 1486309681.33103 | pgbench_tellers  |            49152
 2017-02-05 16:48:01.331029+01 | 1486309681.33103 | pgbench_history  |        300810240
 2017-02-05 16:48:01.331029+01 | 1486309681.33103 | pgbench_branches |             8192

 2017-02-05 16:48:02.398143+01 | 1486309682.39814 | pgbench_accounts |       1387020288
 2017-02-05 16:48:02.398143+01 | 1486309682.39814 | pgbench_tellers  |            49152
 2017-02-05 16:48:02.398143+01 | 1486309682.39814 | pgbench_history  |        302333952
 2017-02-05 16:48:02.398143+01 | 1486309682.39814 | pgbench_branches |             8192

 2017-02-05 16:48:03.485049+01 | 1486309683.48505 | pgbench_accounts |       1387020288
 2017-02-05 16:48:03.485049+01 | 1486309683.48505 | pgbench_tellers  |            49152
 2017-02-05 16:48:03.485049+01 | 1486309683.48505 | pgbench_history  |        303702016
 2017-02-05 16:48:03.485049+01 | 1486309683.48505 | pgbench_branches |             8192

 2017-02-05 16:48:04.567245+01 | 1486309684.56725 | pgbench_accounts |       1387020288
 2017-02-05 16:48:04.567245+01 | 1486309684.56725 | pgbench_tellers  |            49152
 2017-02-05 16:48:04.567245+01 | 1486309684.56725 | pgbench_history  |        305938432
 2017-02-05 16:48:04.567245+01 | 1486309684.56725 | pgbench_branches |             8192

 2017-02-05 16:48:05.655712+01 | 1486309685.65571 | pgbench_accounts |       1387020288
 2017-02-05 16:48:05.655712+01 | 1486309685.65571 | pgbench_tellers  |            49152
 2017-02-05 16:48:05.655712+01 | 1486309685.65571 | pgbench_history  |        307298304
 2017-02-05 16:48:05.655712+01 | 1486309685.65571 | pgbench_branches |             8192

 2017-02-05 16:48:06.739892+01 | 1486309686.73989 | pgbench_accounts |       1387020288
 2017-02-05 16:48:06.739892+01 | 1486309686.73989 | pgbench_tellers  |            49152
 2017-02-05 16:48:06.739892+01 | 1486309686.73989 | pgbench_history  |        309182464
 2017-02-05 16:48:06.739892+01 | 1486309686.73989 | pgbench_branches |             8192

 2017-02-05 16:48:07.817752+01 | 1486309687.81775 | pgbench_accounts |       1387020288
 2017-02-05 16:48:07.817752+01 | 1486309687.81775 | pgbench_tellers  |            49152
 2017-02-05 16:48:07.817752+01 | 1486309687.81775 | pgbench_history  |        310026240
 2017-02-05 16:48:07.817752+01 | 1486309687.81775 | pgbench_branches |             8192

 2017-02-05 16:48:08.896241+01 | 1486309688.89624 | pgbench_accounts |       1387020288
 2017-02-05 16:48:08.896241+01 | 1486309688.89624 | pgbench_tellers  |            49152
 2017-02-05 16:48:08.896241+01 | 1486309688.89624 | pgbench_history  |        311926784
 2017-02-05 16:48:08.896241+01 | 1486309688.89624 | pgbench_branches |             8192

 2017-02-05 16:48:09.974442+01 | 1486309689.97444 | pgbench_accounts |       1387020288
 2017-02-05 16:48:09.974442+01 | 1486309689.97444 | pgbench_tellers  |            49152
 2017-02-05 16:48:09.974442+01 | 1486309689.97444 | pgbench_history  |        313597952
 2017-02-05 16:48:09.974442+01 | 1486309689.97444 | pgbench_branches |             8192

 2017-02-05 16:48:11.04764+01 | 1486309691.04764 | pgbench_accounts |       1387020288
 2017-02-05 16:48:11.04764+01 | 1486309691.04764 | pgbench_tellers  |            49152
 2017-02-05 16:48:11.04764+01 | 1486309691.04764 | pgbench_history  |        314793984
 2017-02-05 16:48:11.04764+01 | 1486309691.04764 | pgbench_branches |             8192

 2017-02-05 16:48:12.119497+01 | 1486309692.1195 | pgbench_accounts |       1387020288
 2017-02-05 16:48:12.119497+01 | 1486309692.1195 | pgbench_tellers  |            49152
 2017-02-05 16:48:12.119497+01 | 1486309692.1195 | pgbench_history  |        316530688
 2017-02-05 16:48:12.119497+01 | 1486309692.1195 | pgbench_branches |             8192

 2017-02-05 16:48:13.213043+01 | 1486309693.21304 | pgbench_accounts |       1387020288
 2017-02-05 16:48:13.213043+01 | 1486309693.21304 | pgbench_tellers  |            49152
 2017-02-05 16:48:13.213043+01 | 1486309693.21304 | pgbench_history  |        317890560
 2017-02-05 16:48:13.213043+01 | 1486309693.21304 | pgbench_branches |             8192

 2017-02-05 16:48:14.296775+01 | 1486309694.29678 | pgbench_accounts |       1387020288
 2017-02-05 16:48:14.296775+01 | 1486309694.29678 | pgbench_tellers  |            49152
 2017-02-05 16:48:14.296775+01 | 1486309694.29678 | pgbench_history  |        319766528
 2017-02-05 16:48:14.296775+01 | 1486309694.29678 | pgbench_branches |             8192

 2017-02-05 16:48:15.371512+01 | 1486309695.37151 | pgbench_accounts |       1387020288
 2017-02-05 16:48:15.371512+01 | 1486309695.37151 | pgbench_tellers  |            49152
 2017-02-05 16:48:15.371512+01 | 1486309695.37151 | pgbench_history  |        321298432
 2017-02-05 16:48:15.371512+01 | 1486309695.37151 | pgbench_branches |             8192

 2017-02-05 16:48:16.455813+01 | 1486309696.45581 | pgbench_accounts |       1387020288
 2017-02-05 16:48:16.455813+01 | 1486309696.45581 | pgbench_tellers  |            49152
 2017-02-05 16:48:16.455813+01 | 1486309696.45581 | pgbench_history  |        322330624
 2017-02-05 16:48:16.455813+01 | 1486309696.45581 | pgbench_branches |             8192

 2017-02-05 16:48:17.526226+01 | 1486309697.52623 | pgbench_accounts |       1387020288
 2017-02-05 16:48:17.526226+01 | 1486309697.52623 | pgbench_tellers  |            49152
 2017-02-05 16:48:17.526226+01 | 1486309697.52623 | pgbench_history  |        323862528
 2017-02-05 16:48:17.526226+01 | 1486309697.52623 | pgbench_branches |             8192

 2017-02-05 16:48:18.602931+01 | 1486309698.60293 | pgbench_accounts |       1387020288
 2017-02-05 16:48:18.602931+01 | 1486309698.60293 | pgbench_tellers  |            49152
 2017-02-05 16:48:18.602931+01 | 1486309698.60293 | pgbench_history  |        325910528
 2017-02-05 16:48:18.602931+01 | 1486309698.60293 | pgbench_branches |             8192

 2017-02-05 16:48:19.687256+01 | 1486309699.68726 | pgbench_accounts |       1387020288
 2017-02-05 16:48:19.687256+01 | 1486309699.68726 | pgbench_tellers  |            49152
 2017-02-05 16:48:19.687256+01 | 1486309699.68726 | pgbench_history  |        327131136
 2017-02-05 16:48:19.687256+01 | 1486309699.68726 | pgbench_branches |             8192

 2017-02-05 16:48:20.769626+01 | 1486309700.76963 | pgbench_accounts |       1387020288
 2017-02-05 16:48:20.769626+01 | 1486309700.76963 | pgbench_tellers  |            49152
 2017-02-05 16:48:20.769626+01 | 1486309700.76963 | pgbench_history  |        328359936
 2017-02-05 16:48:20.769626+01 | 1486309700.76963 | pgbench_branches |             8192

 2017-02-05 16:48:21.848258+01 | 1486309701.84826 | pgbench_accounts |       1387020288
 2017-02-05 16:48:21.848258+01 | 1486309701.84826 | pgbench_tellers  |            49152
 2017-02-05 16:48:21.848258+01 | 1486309701.84826 | pgbench_history  |        330596352
 2017-02-05 16:48:21.848258+01 | 1486309701.84826 | pgbench_branches |             8192

 2017-02-05 16:48:22.934584+01 | 1486309702.93458 | pgbench_accounts |       1387020288
 2017-02-05 16:48:22.934584+01 | 1486309702.93458 | pgbench_tellers  |            49152
 2017-02-05 16:48:22.934584+01 | 1486309702.93458 | pgbench_history  |        331481088
 2017-02-05 16:48:22.934584+01 | 1486309702.93458 | pgbench_branches |             8192

 2017-02-05 16:48:24.003853+01 | 1486309704.00385 | pgbench_accounts |       1387020288
 2017-02-05 16:48:24.003853+01 | 1486309704.00385 | pgbench_tellers  |            49152
 2017-02-05 16:48:24.003853+01 | 1486309704.00385 | pgbench_history  |        333053952
 2017-02-05 16:48:24.003853+01 | 1486309704.00385 | pgbench_branches |             8192

 2017-02-05 16:48:25.077152+01 | 1486309705.07715 | pgbench_accounts |       1387020288
 2017-02-05 16:48:25.077152+01 | 1486309705.07715 | pgbench_tellers  |            49152
 2017-02-05 16:48:25.077152+01 | 1486309705.07715 | pgbench_history  |        334962688
 2017-02-05 16:48:25.077152+01 | 1486309705.07715 | pgbench_branches |             8192

 2017-02-05 16:48:26.155124+01 | 1486309706.15512 | pgbench_accounts |       1387020288
 2017-02-05 16:48:26.155124+01 | 1486309706.15512 | pgbench_tellers  |            49152
 2017-02-05 16:48:26.155124+01 | 1486309706.15512 | pgbench_history  |        336191488
 2017-02-05 16:48:26.155124+01 | 1486309706.15512 | pgbench_branches |             8192

 2017-02-05 16:48:27.232134+01 | 1486309707.23213 | pgbench_accounts |       1387020288
 2017-02-05 16:48:27.232134+01 | 1486309707.23213 | pgbench_tellers  |            49152
 2017-02-05 16:48:27.232134+01 | 1486309707.23213 | pgbench_history  |        338075648
 2017-02-05 16:48:27.232134+01 | 1486309707.23213 | pgbench_branches |             8192

 2017-02-05 16:48:28.31971+01 | 1486309708.31971 | pgbench_accounts |       1387020288
 2017-02-05 16:48:28.31971+01 | 1486309708.31971 | pgbench_tellers  |            49152
 2017-02-05 16:48:28.31971+01 | 1486309708.31971 | pgbench_history  |        340000768
 2017-02-05 16:48:28.31971+01 | 1486309708.31971 | pgbench_branches |             8192

 2017-02-05 16:48:29.39756+01 | 1486309709.39756 | pgbench_accounts |       1387020288
 2017-02-05 16:48:29.39756+01 | 1486309709.39756 | pgbench_tellers  |            49152
 2017-02-05 16:48:29.39756+01 | 1486309709.39756 | pgbench_history  |        341377024
 2017-02-05 16:48:29.39756+01 | 1486309709.39756 | pgbench_branches |             8192

 2017-02-05 16:48:30.486063+01 | 1486309710.48606 | pgbench_accounts |       1387020288
 2017-02-05 16:48:30.486063+01 | 1486309710.48606 | pgbench_tellers  |            49152
 2017-02-05 16:48:30.486063+01 | 1486309710.48606 | pgbench_history  |        343113728
 2017-02-05 16:48:30.486063+01 | 1486309710.48606 | pgbench_branches |             8192

 2017-02-05 16:48:31.566849+01 | 1486309711.56685 | pgbench_accounts |       1387020288
 2017-02-05 16:48:31.566849+01 | 1486309711.56685 | pgbench_tellers  |            49152
 2017-02-05 16:48:31.566849+01 | 1486309711.56685 | pgbench_history  |        344309760
 2017-02-05 16:48:31.566849+01 | 1486309711.56685 | pgbench_branches |             8192

 2017-02-05 16:48:32.637737+01 | 1486309712.63774 | pgbench_accounts |       1387020288
 2017-02-05 16:48:32.637737+01 | 1486309712.63774 | pgbench_tellers  |            49152
 2017-02-05 16:48:32.637737+01 | 1486309712.63774 | pgbench_history  |        345997312
 2017-02-05 16:48:32.637737+01 | 1486309712.63774 | pgbench_branches |             8192

 2017-02-05 16:48:33.722831+01 | 1486309713.72283 | pgbench_accounts |       1387020288
 2017-02-05 16:48:33.722831+01 | 1486309713.72283 | pgbench_tellers  |            49152
 2017-02-05 16:48:33.722831+01 | 1486309713.72283 | pgbench_history  |        346841088
 2017-02-05 16:48:33.722831+01 | 1486309713.72283 | pgbench_branches |             8192

 2017-02-05 16:48:34.803553+01 | 1486309714.80355 | pgbench_accounts |       1387020288
 2017-02-05 16:48:34.803553+01 | 1486309714.80355 | pgbench_tellers  |            49152
 2017-02-05 16:48:34.803553+01 | 1486309714.80355 | pgbench_history  |        348225536
 2017-02-05 16:48:34.803553+01 | 1486309714.80355 | pgbench_branches |             8192

 2017-02-05 16:48:35.877712+01 | 1486309715.87771 | pgbench_accounts |       1387020288
 2017-02-05 16:48:35.877712+01 | 1486309715.87771 | pgbench_tellers  |            49152
 2017-02-05 16:48:35.877712+01 | 1486309715.87771 | pgbench_history  |        350535680
 2017-02-05 16:48:35.877712+01 | 1486309715.87771 | pgbench_branches |             8192

 2017-02-05 16:48:36.956144+01 | 1486309716.95614 | pgbench_accounts |       1387020288
 2017-02-05 16:48:36.956144+01 | 1486309716.95614 | pgbench_tellers  |            49152
 2017-02-05 16:48:36.956144+01 | 1486309716.95614 | pgbench_history  |        351076352
 2017-02-05 16:48:36.956144+01 | 1486309716.95614 | pgbench_branches |             8192

 2017-02-05 16:48:38.036221+01 | 1486309718.03622 | pgbench_accounts |       1387020288
 2017-02-05 16:48:38.036221+01 | 1486309718.03622 | pgbench_tellers  |            49152
 2017-02-05 16:48:38.036221+01 | 1486309718.03622 | pgbench_history  |        353116160
 2017-02-05 16:48:38.036221+01 | 1486309718.03622 | pgbench_branches |             8192

 2017-02-05 16:48:39.108102+01 | 1486309719.1081 | pgbench_accounts |       1387020288
 2017-02-05 16:48:39.108102+01 | 1486309719.1081 | pgbench_tellers  |            49152
 2017-02-05 16:48:39.108102+01 | 1486309719.1081 | pgbench_history  |        354164736
 2017-02-05 16:48:39.108102+01 | 1486309719.1081 | pgbench_branches |             8192

 2017-02-05 16:48:40.195271+01 | 1486309720.19527 | pgbench_accounts |       1387020288
 2017-02-05 16:48:40.195271+01 | 1486309720.19527 | pgbench_tellers  |            49152
 2017-02-05 16:48:40.195271+01 | 1486309720.19527 | pgbench_history  |        355196928
 2017-02-05 16:48:40.195271+01 | 1486309720.19527 | pgbench_branches |             8192

 2017-02-05 16:48:41.27869+01 | 1486309721.27869 | pgbench_accounts |       1387020288
 2017-02-05 16:48:41.27869+01 | 1486309721.27869 | pgbench_tellers  |            49152
 2017-02-05 16:48:41.27869+01 | 1486309721.27869 | pgbench_history  |        356745216
 2017-02-05 16:48:41.27869+01 | 1486309721.27869 | pgbench_branches |             8192

 2017-02-05 16:48:42.361163+01 | 1486309722.36116 | pgbench_accounts |       1387020288
 2017-02-05 16:48:42.361163+01 | 1486309722.36116 | pgbench_tellers  |            49152
 2017-02-05 16:48:42.361163+01 | 1486309722.36116 | pgbench_history  |        357974016
 2017-02-05 16:48:42.361163+01 | 1486309722.36116 | pgbench_branches |             8192

 2017-02-05 16:48:43.440591+01 | 1486309723.44059 | pgbench_accounts |       1387020288
 2017-02-05 16:48:43.440591+01 | 1486309723.44059 | pgbench_tellers  |            49152
 2017-02-05 16:48:43.440591+01 | 1486309723.44059 | pgbench_history  |        359505920
 2017-02-05 16:48:43.440591+01 | 1486309723.44059 | pgbench_branches |             8192

 2017-02-05 16:48:44.526817+01 | 1486309724.52682 | pgbench_accounts |       1387020288
 2017-02-05 16:48:44.526817+01 | 1486309724.52682 | pgbench_tellers  |            49152
 2017-02-05 16:48:44.526817+01 | 1486309724.52682 | pgbench_history  |        360865792
 2017-02-05 16:48:44.526817+01 | 1486309724.52682 | pgbench_branches |             8192

 2017-02-05 16:48:45.617096+01 | 1486309725.6171 | pgbench_accounts |       1387020288
 2017-02-05 16:48:45.617096+01 | 1486309725.6171 | pgbench_tellers  |            49152
 2017-02-05 16:48:45.617096+01 | 1486309725.6171 | pgbench_history  |        362422272
 2017-02-05 16:48:45.617096+01 | 1486309725.6171 | pgbench_branches |             8192

 2017-02-05 16:48:46.699804+01 | 1486309726.6998 | pgbench_accounts |       1387020288
 2017-02-05 16:48:46.699804+01 | 1486309726.6998 | pgbench_tellers  |            49152
 2017-02-05 16:48:46.699804+01 | 1486309726.6998 | pgbench_history  |        363970560
 2017-02-05 16:48:46.699804+01 | 1486309726.6998 | pgbench_branches |             8192

 2017-02-05 16:48:47.772558+01 | 1486309727.77256 | pgbench_accounts |       1387020288
 2017-02-05 16:48:47.772558+01 | 1486309727.77256 | pgbench_tellers  |            49152
 2017-02-05 16:48:47.772558+01 | 1486309727.77256 | pgbench_history  |        365027328
 2017-02-05 16:48:47.772558+01 | 1486309727.77256 | pgbench_branches |             8192

 2017-02-05 16:48:48.84311+01 | 1486309728.84311 | pgbench_accounts |       1387020288
 2017-02-05 16:48:48.84311+01 | 1486309728.84311 | pgbench_tellers  |            49152
 2017-02-05 16:48:48.84311+01 | 1486309728.84311 | pgbench_history  |        366272512
 2017-02-05 16:48:48.84311+01 | 1486309728.84311 | pgbench_branches |             8192

 2017-02-05 16:48:49.91458+01 | 1486309729.91458 | pgbench_accounts |       1387020288
 2017-02-05 16:48:49.91458+01 | 1486309729.91458 | pgbench_tellers  |            49152
 2017-02-05 16:48:49.91458+01 | 1486309729.91458 | pgbench_history  |        368525312
 2017-02-05 16:48:49.91458+01 | 1486309729.91458 | pgbench_branches |             8192

 2017-02-05 16:48:50.996276+01 | 1486309730.99628 | pgbench_accounts |       1387020288
 2017-02-05 16:48:50.996276+01 | 1486309730.99628 | pgbench_tellers  |            49152
 2017-02-05 16:48:50.996276+01 | 1486309730.99628 | pgbench_history  |        369721344
 2017-02-05 16:48:50.996276+01 | 1486309730.99628 | pgbench_branches |             8192

 2017-02-05 16:48:52.074779+01 | 1486309732.07478 | pgbench_accounts |       1387020288
 2017-02-05 16:48:52.074779+01 | 1486309732.07478 | pgbench_tellers  |            49152
 2017-02-05 16:48:52.074779+01 | 1486309732.07478 | pgbench_history  |        371818496
 2017-02-05 16:48:52.074779+01 | 1486309732.07478 | pgbench_branches |             8192

 2017-02-05 16:48:53.15891+01 | 1486309733.15891 | pgbench_accounts |       1387020288
 2017-02-05 16:48:53.15891+01 | 1486309733.15891 | pgbench_tellers  |            49152
 2017-02-05 16:48:53.15891+01 | 1486309733.15891 | pgbench_history  |        373506048
 2017-02-05 16:48:53.15891+01 | 1486309733.15891 | pgbench_branches |             8192

 2017-02-05 16:48:54.239966+01 | 1486309734.23997 | pgbench_accounts |       1387020288
 2017-02-05 16:48:54.239966+01 | 1486309734.23997 | pgbench_tellers  |            49152
 2017-02-05 16:48:54.239966+01 | 1486309734.23997 | pgbench_history  |        374374400
 2017-02-05 16:48:54.239966+01 | 1486309734.23997 | pgbench_branches |             8192

 2017-02-05 16:48:55.326803+01 | 1486309735.3268 | pgbench_accounts |       1387020288
 2017-02-05 16:48:55.326803+01 | 1486309735.3268 | pgbench_tellers  |            49152
 2017-02-05 16:48:55.326803+01 | 1486309735.3268 | pgbench_history  |        375898112
 2017-02-05 16:48:55.326803+01 | 1486309735.3268 | pgbench_branches |             8192

 2017-02-05 16:48:56.410706+01 | 1486309736.41071 | pgbench_accounts |       1387020288
 2017-02-05 16:48:56.410706+01 | 1486309736.41071 | pgbench_tellers  |            49152
 2017-02-05 16:48:56.410706+01 | 1486309736.41071 | pgbench_history  |        377602048
 2017-02-05 16:48:56.410706+01 | 1486309736.41071 | pgbench_branches |             8192

 2017-02-05 16:48:57.492314+01 | 1486309737.49231 | pgbench_accounts |       1387020288
 2017-02-05 16:48:57.492314+01 | 1486309737.49231 | pgbench_tellers  |            49152
 2017-02-05 16:48:57.492314+01 | 1486309737.49231 | pgbench_history  |        379478016
 2017-02-05 16:48:57.492314+01 | 1486309737.49231 | pgbench_branches |             8192

 2017-02-05 16:48:58.573938+01 | 1486309738.57394 | pgbench_accounts |       1387020288
 2017-02-05 16:48:58.573938+01 | 1486309738.57394 | pgbench_tellers  |            49152
 2017-02-05 16:48:58.573938+01 | 1486309738.57394 | pgbench_history  |        380682240
 2017-02-05 16:48:58.573938+01 | 1486309738.57394 | pgbench_branches |             8192

 2017-02-05 16:48:59.659358+01 | 1486309739.65936 | pgbench_accounts |       1387020288
 2017-02-05 16:48:59.659358+01 | 1486309739.65936 | pgbench_tellers  |            49152
 2017-02-05 16:48:59.659358+01 | 1486309739.65936 | pgbench_history  |        382722048
 2017-02-05 16:48:59.659358+01 | 1486309739.65936 | pgbench_branches |             8192

 2017-02-05 16:49:00.738252+01 | 1486309740.73825 | pgbench_accounts |       1387020288
 2017-02-05 16:49:00.738252+01 | 1486309740.73825 | pgbench_tellers  |            49152
 2017-02-05 16:49:00.738252+01 | 1486309740.73825 | pgbench_history  |        383762432
 2017-02-05 16:49:00.738252+01 | 1486309740.73825 | pgbench_branches |             8192

 2017-02-05 16:49:01.816595+01 | 1486309741.8166 | pgbench_accounts |       1387020288
 2017-02-05 16:49:01.816595+01 | 1486309741.8166 | pgbench_tellers  |            49152
 2017-02-05 16:49:01.816595+01 | 1486309741.8166 | pgbench_history  |        385482752
 2017-02-05 16:49:01.816595+01 | 1486309741.8166 | pgbench_branches |             8192

 2017-02-05 16:49:02.896993+01 | 1486309742.89699 | pgbench_accounts |       1387020288
 2017-02-05 16:49:02.896993+01 | 1486309742.89699 | pgbench_tellers  |            49152
 2017-02-05 16:49:02.896993+01 | 1486309742.89699 | pgbench_history  |        387514368
 2017-02-05 16:49:02.896993+01 | 1486309742.89699 | pgbench_branches |             8192

 2017-02-05 16:49:03.981185+01 | 1486309743.98118 | pgbench_accounts |       1387020288
 2017-02-05 16:49:03.981185+01 | 1486309743.98118 | pgbench_tellers  |            49152
 2017-02-05 16:49:03.981185+01 | 1486309743.98118 | pgbench_history  |        388882432
 2017-02-05 16:49:03.981185+01 | 1486309743.98118 | pgbench_branches |             8192

 2017-02-05 16:49:05.059495+01 | 1486309745.05949 | pgbench_accounts |       1387020288
 2017-02-05 16:49:05.059495+01 | 1486309745.05949 | pgbench_tellers  |            49152
 2017-02-05 16:49:05.059495+01 | 1486309745.05949 | pgbench_history  |        390438912
 2017-02-05 16:49:05.059495+01 | 1486309745.05949 | pgbench_branches |             8192

 2017-02-05 16:49:06.143586+01 | 1486309746.14359 | pgbench_accounts |       1387020288
 2017-02-05 16:49:06.143586+01 | 1486309746.14359 | pgbench_tellers  |            49152
 2017-02-05 16:49:06.143586+01 | 1486309746.14359 | pgbench_history  |        392159232
 2017-02-05 16:49:06.143586+01 | 1486309746.14359 | pgbench_branches |             8192

 2017-02-05 16:49:07.219586+01 | 1486309747.21959 | pgbench_accounts |       1387020288
 2017-02-05 16:49:07.219586+01 | 1486309747.21959 | pgbench_tellers  |            49152
 2017-02-05 16:49:07.219586+01 | 1486309747.21959 | pgbench_history  |        393920512
 2017-02-05 16:49:07.219586+01 | 1486309747.21959 | pgbench_branches |             8192

 2017-02-05 16:49:08.307299+01 | 1486309748.3073 | pgbench_accounts |       1387020288
 2017-02-05 16:49:08.307299+01 | 1486309748.3073 | pgbench_tellers  |            49152
 2017-02-05 16:49:08.307299+01 | 1486309748.3073 | pgbench_history  |        395280384
 2017-02-05 16:49:08.307299+01 | 1486309748.3073 | pgbench_branches |             8192

 2017-02-05 16:49:09.391796+01 | 1486309749.3918 | pgbench_accounts |       1387020288
 2017-02-05 16:49:09.391796+01 | 1486309749.3918 | pgbench_tellers  |            49152
 2017-02-05 16:49:09.391796+01 | 1486309749.3918 | pgbench_history  |        397320192
 2017-02-05 16:49:09.391796+01 | 1486309749.3918 | pgbench_branches |             8192

 2017-02-05 16:49:10.467747+01 | 1486309750.46775 | pgbench_accounts |       1387020288
 2017-02-05 16:49:10.467747+01 | 1486309750.46775 | pgbench_tellers  |            49152
 2017-02-05 16:49:10.467747+01 | 1486309750.46775 | pgbench_history  |        398213120
 2017-02-05 16:49:10.467747+01 | 1486309750.46775 | pgbench_branches |             8192

 2017-02-05 16:49:11.548997+01 | 1486309751.549 | pgbench_accounts |       1387020288
 2017-02-05 16:49:11.548997+01 | 1486309751.549 | pgbench_tellers  |            49152
 2017-02-05 16:49:11.548997+01 | 1486309751.549 | pgbench_history  |        400130048
 2017-02-05 16:49:11.548997+01 | 1486309751.549 | pgbench_branches |             8192

 2017-02-05 16:49:12.625292+01 | 1486309752.62529 | pgbench_accounts |       1387020288
 2017-02-05 16:49:12.625292+01 | 1486309752.62529 | pgbench_tellers  |            49152
 2017-02-05 16:49:12.625292+01 | 1486309752.62529 | pgbench_history  |        401383424
 2017-02-05 16:49:12.625292+01 | 1486309752.62529 | pgbench_branches |             8192

 2017-02-05 16:49:13.695481+01 | 1486309753.69548 | pgbench_accounts |       1387020288
 2017-02-05 16:49:13.695481+01 | 1486309753.69548 | pgbench_tellers  |            49152
 2017-02-05 16:49:13.695481+01 | 1486309753.69548 | pgbench_history  |        403611648
 2017-02-05 16:49:13.695481+01 | 1486309753.69548 | pgbench_branches |             8192

 2017-02-05 16:49:14.776754+01 | 1486309754.77675 | pgbench_accounts |       1387020288
 2017-02-05 16:49:14.776754+01 | 1486309754.77675 | pgbench_tellers  |            49152
 2017-02-05 16:49:14.776754+01 | 1486309754.77675 | pgbench_history  |        404316160
 2017-02-05 16:49:14.776754+01 | 1486309754.77675 | pgbench_branches |             8192

 2017-02-05 16:49:15.856863+01 | 1486309755.85686 | pgbench_accounts |       1387020288
 2017-02-05 16:49:15.856863+01 | 1486309755.85686 | pgbench_tellers  |            49152
 2017-02-05 16:49:15.856863+01 | 1486309755.85686 | pgbench_history  |        406167552
 2017-02-05 16:49:15.856863+01 | 1486309755.85686 | pgbench_branches |             8192

 2017-02-05 16:49:16.93744+01 | 1486309756.93744 | pgbench_accounts |       1387020288
 2017-02-05 16:49:16.93744+01 | 1486309756.93744 | pgbench_tellers  |            49152
 2017-02-05 16:49:16.93744+01 | 1486309756.93744 | pgbench_history  |        408190976
 2017-02-05 16:49:16.93744+01 | 1486309756.93744 | pgbench_branches |             8192

 2017-02-05 16:49:18.01788+01 | 1486309758.01788 | pgbench_accounts |       1387020288
 2017-02-05 16:49:18.01788+01 | 1486309758.01788 | pgbench_tellers  |            49152
 2017-02-05 16:49:18.01788+01 | 1486309758.01788 | pgbench_history  |        409411584
 2017-02-05 16:49:18.01788+01 | 1486309758.01788 | pgbench_branches |             8192

 2017-02-05 16:49:19.101266+01 | 1486309759.10127 | pgbench_accounts |       1387020288
 2017-02-05 16:49:19.101266+01 | 1486309759.10127 | pgbench_tellers  |            49152
 2017-02-05 16:49:19.101266+01 | 1486309759.10127 | pgbench_history  |        410992640
 2017-02-05 16:49:19.101266+01 | 1486309759.10127 | pgbench_branches |             8192

 2017-02-05 16:49:20.18979+01 | 1486309760.18979 | pgbench_accounts |       1387020288
 2017-02-05 16:49:20.18979+01 | 1486309760.18979 | pgbench_tellers  |            49152
 2017-02-05 16:49:20.18979+01 | 1486309760.18979 | pgbench_history  |        412409856
 2017-02-05 16:49:20.18979+01 | 1486309760.18979 | pgbench_branches |             8192

 2017-02-05 16:49:21.273099+01 | 1486309761.2731 | pgbench_accounts |       1387020288
 2017-02-05 16:49:21.273099+01 | 1486309761.2731 | pgbench_tellers  |            49152
 2017-02-05 16:49:21.273099+01 | 1486309761.2731 | pgbench_history  |        414097408
 2017-02-05 16:49:21.273099+01 | 1486309761.2731 | pgbench_branches |             8192

 2017-02-05 16:49:22.357778+01 | 1486309762.35778 | pgbench_accounts |       1387020288
 2017-02-05 16:49:22.357778+01 | 1486309762.35778 | pgbench_tellers  |            49152
 2017-02-05 16:49:22.357778+01 | 1486309762.35778 | pgbench_history  |        415694848
 2017-02-05 16:49:22.357778+01 | 1486309762.35778 | pgbench_branches |             8192

 2017-02-05 16:49:23.438501+01 | 1486309763.4385 | pgbench_accounts |       1387020288
 2017-02-05 16:49:23.438501+01 | 1486309763.4385 | pgbench_tellers  |            49152
 2017-02-05 16:49:23.438501+01 | 1486309763.4385 | pgbench_history  |        417120256
 2017-02-05 16:49:23.438501+01 | 1486309763.4385 | pgbench_branches |             8192

 2017-02-05 16:49:24.5232+01 | 1486309764.5232 | pgbench_accounts |       1387020288
 2017-02-05 16:49:24.5232+01 | 1486309764.5232 | pgbench_tellers  |            49152
 2017-02-05 16:49:24.5232+01 | 1486309764.5232 | pgbench_history  |        419020800
 2017-02-05 16:49:24.5232+01 | 1486309764.5232 | pgbench_branches |             8192

 2017-02-05 16:49:25.604727+01 | 1486309765.60473 | pgbench_accounts |       1387020288
 2017-02-05 16:49:25.604727+01 | 1486309765.60473 | pgbench_tellers  |            49152
 2017-02-05 16:49:25.604727+01 | 1486309765.60473 | pgbench_history  |        420904960
 2017-02-05 16:49:25.604727+01 | 1486309765.60473 | pgbench_branches |             8192

 2017-02-05 16:49:26.686442+01 | 1486309766.68644 | pgbench_accounts |       1387020288
 2017-02-05 16:49:26.686442+01 | 1486309766.68644 | pgbench_tellers  |            49152
 2017-02-05 16:49:26.686442+01 | 1486309766.68644 | pgbench_history  |        422428672
 2017-02-05 16:49:26.686442+01 | 1486309766.68644 | pgbench_branches |             8192

 2017-02-05 16:49:27.772773+01 | 1486309767.77277 | pgbench_accounts |       1387020288
 2017-02-05 16:49:27.772773+01 | 1486309767.77277 | pgbench_tellers  |            49152
 2017-02-05 16:49:27.772773+01 | 1486309767.77277 | pgbench_history  |        423477248
 2017-02-05 16:49:27.772773+01 | 1486309767.77277 | pgbench_branches |             8192

 2017-02-05 16:49:28.852149+01 | 1486309768.85215 | pgbench_accounts |       1387020288
 2017-02-05 16:49:28.852149+01 | 1486309768.85215 | pgbench_tellers  |            49152
 2017-02-05 16:49:28.852149+01 | 1486309768.85215 | pgbench_history  |        425377792
 2017-02-05 16:49:28.852149+01 | 1486309768.85215 | pgbench_branches |             8192

 2017-02-05 16:49:29.924487+01 | 1486309769.92449 | pgbench_accounts |       1387020288
 2017-02-05 16:49:29.924487+01 | 1486309769.92449 | pgbench_tellers  |            49152
 2017-02-05 16:49:29.924487+01 | 1486309769.92449 | pgbench_history  |        427393024
 2017-02-05 16:49:29.924487+01 | 1486309769.92449 | pgbench_branches |             8192

 2017-02-05 16:49:31.010087+01 | 1486309771.01009 | pgbench_accounts |       1387020288
 2017-02-05 16:49:31.010087+01 | 1486309771.01009 | pgbench_tellers  |            49152
 2017-02-05 16:49:31.010087+01 | 1486309771.01009 | pgbench_history  |        428285952
 2017-02-05 16:49:31.010087+01 | 1486309771.01009 | pgbench_branches |             8192

 2017-02-05 16:49:32.083021+01 | 1486309772.08302 | pgbench_accounts |       1387020288
 2017-02-05 16:49:32.083021+01 | 1486309772.08302 | pgbench_tellers  |            49152
 2017-02-05 16:49:32.083021+01 | 1486309772.08302 | pgbench_history  |        429809664
 2017-02-05 16:49:32.083021+01 | 1486309772.08302 | pgbench_branches |             8192

 2017-02-05 16:49:33.161708+01 | 1486309773.16171 | pgbench_accounts |       1387020288
 2017-02-05 16:49:33.161708+01 | 1486309773.16171 | pgbench_tellers  |            49152
 2017-02-05 16:49:33.161708+01 | 1486309773.16171 | pgbench_history  |        431734784
 2017-02-05 16:49:33.161708+01 | 1486309773.16171 | pgbench_branches |             8192

 2017-02-05 16:49:34.24094+01 | 1486309774.24094 | pgbench_accounts |       1387020288
 2017-02-05 16:49:34.24094+01 | 1486309774.24094 | pgbench_tellers  |            49152
 2017-02-05 16:49:34.24094+01 | 1486309774.24094 | pgbench_history  |        433119232
 2017-02-05 16:49:34.24094+01 | 1486309774.24094 | pgbench_branches |             8192

