 2017-02-03 20:12:06.274326+01 | 1486149126.27433 | 3/1AF2378                |           12913156984

 2017-02-03 20:12:07.36143+01 | 1486149127.36143 | 3/1AF2378                |           12913156984

 2017-02-03 20:12:08.4311+01 | 1486149128.4311 | 3/1AF2378                |           12913156984

 2017-02-03 20:12:09.505499+01 | 1486149129.5055 | 3/1AF2378                |           12913156984

 2017-02-03 20:12:10.598982+01 | 1486149130.59898 | 3/1AF2378                |           12913156984

 2017-02-03 20:12:11.681085+01 | 1486149131.68109 | 3/1AF2378                |           12913156984

 2017-02-03 20:12:12.767258+01 | 1486149132.76726 | 3/1AF2378                |           12913156984

 2017-02-03 20:12:13.852923+01 | 1486149133.85292 | 3/1AF2378                |           12913156984

 2017-02-03 20:12:14.935995+01 | 1486149134.936 | 3/1AF2378                |           12913156984

 2017-02-03 20:12:16.00656+01 | 1486149136.00656 | 3/1AF2378                |           12913156984

 2017-02-03 20:12:17.087077+01 | 1486149137.08708 | 3/1AF2378                |           12913156984

 2017-02-03 20:12:18.166096+01 | 1486149138.1661 | 3/1AF2378                |           12913156984

 2017-02-03 20:12:19.24409+01 | 1486149139.24409 | 3/1AF2378                |           12913156984

 2017-02-03 20:12:20.314728+01 | 1486149140.31473 | 3/1AF2378                |           12913156984

 2017-02-03 20:12:21.394576+01 | 1486149141.39458 | 3/1AF23B0                |           12913157040

 2017-02-03 20:12:22.47024+01 | 1486149142.47024 | 3/1AF23B0                |           12913157040

 2017-02-03 20:12:23.550617+01 | 1486149143.55062 | 3/1AF23B0                |           12913157040

 2017-02-03 20:12:24.634766+01 | 1486149144.63477 | 3/1AF23B0                |           12913157040

 2017-02-03 20:12:25.709976+01 | 1486149145.70998 | 3/1AF23B0                |           12913157040

 2017-02-03 20:12:26.789943+01 | 1486149146.78994 | 3/1AF23B0                |           12913157040

 2017-02-03 20:12:27.879147+01 | 1486149147.87915 | 3/1AF23B0                |           12913157040

 2017-02-03 20:12:28.961509+01 | 1486149148.96151 | 3/1AF23B0                |           12913157040

 2017-02-03 20:12:30.034464+01 | 1486149150.03446 | 3/1AF23B0                |           12913157040

 2017-02-03 20:12:31.108933+01 | 1486149151.10893 | 3/1AF23B0                |           12913157040

 2017-02-03 20:12:32.184569+01 | 1486149152.18457 | 3/1AF23B0                |           12913157040

 2017-02-03 20:12:33.252603+01 | 1486149153.2526 | 3/1AF23B0                |           12913157040

 2017-02-03 20:12:34.334286+01 | 1486149154.33429 | 3/1AF23B0                |           12913157040

 2017-02-03 20:12:35.408256+01 | 1486149155.40826 | 3/1AF23B0                |           12913157040

 2017-02-03 20:12:36.488916+01 | 1486149156.48892 | 3/1AF23B0                |           12913157040

 2017-02-03 20:12:37.578196+01 | 1486149157.5782 | 3/1AF23B0                |           12913157040

 2017-02-03 20:12:38.661119+01 | 1486149158.66112 | 3/1AF23B0                |           12913157040

 2017-02-03 20:12:39.739205+01 | 1486149159.7392 | 3/1AF23B0                |           12913157040

 2017-02-03 20:12:40.832172+01 | 1486149160.83217 | 3/1AF23B0                |           12913157040

 2017-02-03 20:12:41.90748+01 | 1486149161.90748 | 3/1AF23B0                |           12913157040

 2017-02-03 20:12:42.978123+01 | 1486149162.97812 | 3/1AF23B0                |           12913157040

 2017-02-03 20:12:44.061255+01 | 1486149164.06125 | 3/1AF23B0                |           12913157040

 2017-02-03 20:12:45.13866+01 | 1486149165.13866 | 3/1AF23B0                |           12913157040

 2017-02-03 20:12:46.214073+01 | 1486149166.21407 | 3/1AF23B0                |           12913157040

 2017-02-03 20:12:47.284622+01 | 1486149167.28462 | 3/1AF23B0                |           12913157040

 2017-02-03 20:12:48.364467+01 | 1486149168.36447 | 3/1AF23B0                |           12913157040

 2017-02-03 20:12:49.435555+01 | 1486149169.43555 | 3/1AF23B0                |           12913157040

 2017-02-03 20:12:50.513084+01 | 1486149170.51308 | 3/1AF23B0                |           12913157040

 2017-02-03 20:12:51.58945+01 | 1486149171.58945 | 3/1AF23B0                |           12913157040

 2017-02-03 20:12:52.649607+01 | 1486149172.64961 | 3/1AF23B0                |           12913157040

 2017-02-03 20:12:53.725454+01 | 1486149173.72545 | 3/1AF23B0                |           12913157040

 2017-02-03 20:12:54.801074+01 | 1486149174.80107 | 3/1AF23B0                |           12913157040

 2017-02-03 20:12:55.885745+01 | 1486149175.88575 | 3/1AF23B0                |           12913157040

 2017-02-03 20:12:56.959895+01 | 1486149176.95989 | 3/1AF23B0                |           12913157040

 2017-02-03 20:12:58.033807+01 | 1486149178.03381 | 3/1AF23B0                |           12913157040

 2017-02-03 20:12:59.116598+01 | 1486149179.1166 | 3/1AF23B0                |           12913157040

 2017-02-03 20:13:00.195472+01 | 1486149180.19547 | 3/1AF23B0                |           12913157040

 2017-02-03 20:13:01.283005+01 | 1486149181.283 | 3/1AF23B0                |           12913157040

 2017-02-03 20:13:02.365026+01 | 1486149182.36503 | 3/1AF23B0                |           12913157040

 2017-02-03 20:13:03.443221+01 | 1486149183.44322 | 3/1AF23B0                |           12913157040

 2017-02-03 20:13:04.528234+01 | 1486149184.52823 | 3/1AF23B0                |           12913157040

 2017-02-03 20:13:05.606711+01 | 1486149185.60671 | 3/1AF23B0                |           12913157040

 2017-02-03 20:13:06.690326+01 | 1486149186.69033 | 3/1AF23B0                |           12913157040

 2017-02-03 20:13:07.777008+01 | 1486149187.77701 | 3/1AF23B0                |           12913157040

 2017-02-03 20:13:08.85294+01 | 1486149188.85294 | 3/1AF23B0                |           12913157040

 2017-02-03 20:13:09.9383+01 | 1486149189.9383 | 3/1AF23B0                |           12913157040

 2017-02-03 20:13:11.018655+01 | 1486149191.01866 | 3/1AF23B0                |           12913157040

 2017-02-03 20:13:12.106017+01 | 1486149192.10602 | 3/1AF23B0                |           12913157040

 2017-02-03 20:13:13.179788+01 | 1486149193.17979 | 3/1AF23B0                |           12913157040

 2017-02-03 20:13:14.254525+01 | 1486149194.25452 | 3/1AF23B0                |           12913157040

 2017-02-03 20:13:15.333322+01 | 1486149195.33332 | 3/1AF23B0                |           12913157040

 2017-02-03 20:13:16.419351+01 | 1486149196.41935 | 3/1AF23B0                |           12913157040

 2017-02-03 20:13:17.505522+01 | 1486149197.50552 | 3/1AF23B0                |           12913157040

 2017-02-03 20:13:18.586589+01 | 1486149198.58659 | 3/1AF23B0                |           12913157040

 2017-02-03 20:13:19.668131+01 | 1486149199.66813 | 3/1AF23B0                |           12913157040

 2017-02-03 20:13:20.741647+01 | 1486149200.74165 | 3/1AF23B0                |           12913157040

 2017-02-03 20:13:21.822362+01 | 1486149201.82236 | 3/1AF23B0                |           12913157040

 2017-02-03 20:13:22.897548+01 | 1486149202.89755 | 3/1AF23B0                |           12913157040

 2017-02-03 20:13:23.975359+01 | 1486149203.97536 | 3/1AF23B0                |           12913157040

 2017-02-03 20:13:25.047555+01 | 1486149205.04755 | 3/1AF23B0                |           12913157040

 2017-02-03 20:13:26.120584+01 | 1486149206.12058 | 3/1AF23B0                |           12913157040

 2017-02-03 20:13:27.202288+01 | 1486149207.20229 | 3/1AF23B0                |           12913157040

 2017-02-03 20:13:28.281165+01 | 1486149208.28116 | 3/1AF23B0                |           12913157040

 2017-02-03 20:13:29.361905+01 | 1486149209.36191 | 3/1AF23B0                |           12913157040

 2017-02-03 20:13:30.43854+01 | 1486149210.43854 | 3/1AF23B0                |           12913157040

 2017-02-03 20:13:31.51861+01 | 1486149211.51861 | 3/1AF23B0                |           12913157040

 2017-02-03 20:13:32.596962+01 | 1486149212.59696 | 3/1AF23B0                |           12913157040

 2017-02-03 20:13:33.68407+01 | 1486149213.68407 | 3/1AF23B0                |           12913157040

 2017-02-03 20:13:34.768435+01 | 1486149214.76844 | 3/1AF23B0                |           12913157040

 2017-02-03 20:13:35.834342+01 | 1486149215.83434 | 3/1AF23B0                |           12913157040

 2017-02-03 20:13:36.913728+01 | 1486149216.91373 | 3/1AF23B0                |           12913157040

 2017-02-03 20:13:37.993429+01 | 1486149217.99343 | 3/1AF23B0                |           12913157040

 2017-02-03 20:13:39.074907+01 | 1486149219.07491 | 3/1AF23B0                |           12913157040

 2017-02-03 20:13:40.155963+01 | 1486149220.15596 | 3/1AF23B0                |           12913157040

 2017-02-03 20:13:41.236567+01 | 1486149221.23657 | 3/1AF23B0                |           12913157040

 2017-02-03 20:13:42.315245+01 | 1486149222.31524 | 3/1AF23B0                |           12913157040

 2017-02-03 20:13:43.389116+01 | 1486149223.38912 | 3/1AF23B0                |           12913157040

 2017-02-03 20:13:44.465726+01 | 1486149224.46573 | 3/1AF23B0                |           12913157040

 2017-02-03 20:13:45.542757+01 | 1486149225.54276 | 3/1AF23B0                |           12913157040

 2017-02-03 20:13:46.626668+01 | 1486149226.62667 | 3/1AF23B0                |           12913157040

 2017-02-03 20:13:47.698143+01 | 1486149227.69814 | 3/1AF23B0                |           12913157040

 2017-02-03 20:13:48.776984+01 | 1486149228.77698 | 3/1AF23B0                |           12913157040

 2017-02-03 20:13:49.859121+01 | 1486149229.85912 | 3/1AF23B0                |           12913157040

 2017-02-03 20:13:50.937044+01 | 1486149230.93704 | 3/1AF23B0                |           12913157040

 2017-02-03 20:13:52.026092+01 | 1486149232.02609 | 3/1AF23B0                |           12913157040

 2017-02-03 20:13:53.104338+01 | 1486149233.10434 | 3/1AF23B0                |           12913157040

 2017-02-03 20:13:54.18313+01 | 1486149234.18313 | 3/1AF23B0                |           12913157040

 2017-02-03 20:13:55.256179+01 | 1486149235.25618 | 3/1AF23B0                |           12913157040

 2017-02-03 20:13:56.331317+01 | 1486149236.33132 | 3/1AF23B0                |           12913157040

 2017-02-03 20:13:57.404245+01 | 1486149237.40424 | 3/1AF23B0                |           12913157040

 2017-02-03 20:13:58.48008+01 | 1486149238.48008 | 3/1AF23B0                |           12913157040

 2017-02-03 20:13:59.563112+01 | 1486149239.56311 | 3/1AF23B0                |           12913157040

 2017-02-03 20:14:00.64768+01 | 1486149240.64768 | 3/1AF23B0                |           12913157040

 2017-02-03 20:14:01.725908+01 | 1486149241.72591 | 3/1AF23B0                |           12913157040

 2017-02-03 20:14:02.79656+01 | 1486149242.79656 | 3/1AF23B0                |           12913157040

 2017-02-03 20:14:03.870752+01 | 1486149243.87075 | 3/1AF23B0                |           12913157040

 2017-02-03 20:14:04.937981+01 | 1486149244.93798 | 3/1AF23B0                |           12913157040

 2017-02-03 20:14:06.016985+01 | 1486149246.01698 | 3/1AF23B0                |           12913157040

 2017-02-03 20:14:07.105824+01 | 1486149247.10582 | 3/1AF23B0                |           12913157040

 2017-02-03 20:14:08.181677+01 | 1486149248.18168 | 3/1AF23B0                |           12913157040

 2017-02-03 20:14:09.25229+01 | 1486149249.25229 | 3/1AF23B0                |           12913157040

 2017-02-03 20:14:10.332188+01 | 1486149250.33219 | 3/1AF23B0                |           12913157040

 2017-02-03 20:14:11.406929+01 | 1486149251.40693 | 3/1AF23B0                |           12913157040

 2017-02-03 20:14:12.48241+01 | 1486149252.48241 | 3/1AF23B0                |           12913157040

 2017-02-03 20:14:13.563872+01 | 1486149253.56387 | 3/1AF23B0                |           12913157040

 2017-02-03 20:14:14.640951+01 | 1486149254.64095 | 3/1AF23B0                |           12913157040

 2017-02-03 20:14:15.716535+01 | 1486149255.71654 | 3/1AF23B0                |           12913157040

 2017-02-03 20:14:16.803043+01 | 1486149256.80304 | 3/1AF23B0                |           12913157040

 2017-02-03 20:14:17.87554+01 | 1486149257.87554 | 3/1AF23B0                |           12913157040

 2017-02-03 20:14:18.948125+01 | 1486149258.94812 | 3/1AF23B0                |           12913157040

 2017-02-03 20:14:20.022562+01 | 1486149260.02256 | 3/1AF23B0                |           12913157040

 2017-02-03 20:14:21.108549+01 | 1486149261.10855 | 3/1AF23B0                |           12913157040

 2017-02-03 20:14:22.196306+01 | 1486149262.19631 | 3/1AF23B0                |           12913157040

 2017-02-03 20:14:23.27838+01 | 1486149263.27838 | 3/1AF23B0                |           12913157040

 2017-02-03 20:14:24.352591+01 | 1486149264.35259 | 3/1AF23B0                |           12913157040

 2017-02-03 20:14:25.430942+01 | 1486149265.43094 | 3/1AF23B0                |           12913157040

 2017-02-03 20:14:26.511223+01 | 1486149266.51122 | 3/1AF23B0                |           12913157040

 2017-02-03 20:14:27.58358+01 | 1486149267.58358 | 3/1AF23B0                |           12913157040

 2017-02-03 20:14:28.667379+01 | 1486149268.66738 | 3/1AF23B0                |           12913157040

 2017-02-03 20:14:29.754919+01 | 1486149269.75492 | 3/1AF23B0                |           12913157040

 2017-02-03 20:14:30.821835+01 | 1486149270.82184 | 3/1AF23B0                |           12913157040

 2017-02-03 20:14:31.892476+01 | 1486149271.89248 | 3/1AF23B0                |           12913157040

 2017-02-03 20:14:32.967357+01 | 1486149272.96736 | 3/1AF23B0                |           12913157040

 2017-02-03 20:14:34.034819+01 | 1486149274.03482 | 3/1AF23B0                |           12913157040

 2017-02-03 20:14:35.115244+01 | 1486149275.11524 | 3/1AF23B0                |           12913157040

 2017-02-03 20:14:36.192436+01 | 1486149276.19244 | 3/1AF23B0                |           12913157040

 2017-02-03 20:14:37.27503+01 | 1486149277.27503 | 3/1AF23B0                |           12913157040

 2017-02-03 20:14:38.352422+01 | 1486149278.35242 | 3/1AF23B0                |           12913157040

 2017-02-03 20:14:39.425522+01 | 1486149279.42552 | 3/1AF23B0                |           12913157040

 2017-02-03 20:14:40.506385+01 | 1486149280.50639 | 3/1AF23B0                |           12913157040

 2017-02-03 20:14:41.58633+01 | 1486149281.58633 | 3/1AF23B0                |           12913157040

 2017-02-03 20:14:42.662873+01 | 1486149282.66287 | 3/1AF23B0                |           12913157040

 2017-02-03 20:14:43.735502+01 | 1486149283.7355 | 3/1AF23B0                |           12913157040

 2017-02-03 20:14:44.812447+01 | 1486149284.81245 | 3/1AF23B0                |           12913157040

 2017-02-03 20:14:45.886453+01 | 1486149285.88645 | 3/1AF23B0                |           12913157040

 2017-02-03 20:14:46.978899+01 | 1486149286.9789 | 3/1AF23B0                |           12913157040

 2017-02-03 20:14:48.056406+01 | 1486149288.05641 | 3/1AF23B0                |           12913157040

 2017-02-03 20:14:49.13642+01 | 1486149289.13642 | 3/1AF23B0                |           12913157040

 2017-02-03 20:14:50.218714+01 | 1486149290.21871 | 3/1AF23B0                |           12913157040

 2017-02-03 20:14:51.293139+01 | 1486149291.29314 | 3/1AF23B0                |           12913157040

 2017-02-03 20:14:52.350719+01 | 1486149292.35072 | 3/1AF23B0                |           12913157040

 2017-02-03 20:14:53.432701+01 | 1486149293.4327 | 3/1AF23B0                |           12913157040

 2017-02-03 20:14:54.510061+01 | 1486149294.51006 | 3/1AF23B0                |           12913157040

 2017-02-03 20:14:55.586554+01 | 1486149295.58655 | 3/1AF23B0                |           12913157040

 2017-02-03 20:14:56.669472+01 | 1486149296.66947 | 3/1AF23B0                |           12913157040

 2017-02-03 20:14:57.743981+01 | 1486149297.74398 | 3/1AF23B0                |           12913157040

 2017-02-03 20:14:58.815946+01 | 1486149298.81595 | 3/1AF23B0                |           12913157040

 2017-02-03 20:14:59.897813+01 | 1486149299.89781 | 3/1AF23B0                |           12913157040

 2017-02-03 20:15:00.974532+01 | 1486149300.97453 | 3/1AF23B0                |           12913157040

 2017-02-03 20:15:02.046922+01 | 1486149302.04692 | 3/1AF23B0                |           12913157040

 2017-02-03 20:15:03.126614+01 | 1486149303.12661 | 3/1AF23B0                |           12913157040

 2017-02-03 20:15:04.198357+01 | 1486149304.19836 | 3/1AF23B0                |           12913157040

 2017-02-03 20:15:05.277467+01 | 1486149305.27747 | 3/1AF23B0                |           12913157040

 2017-02-03 20:15:06.364679+01 | 1486149306.36468 | 3/1AF23B0                |           12913157040

 2017-02-03 20:15:07.442517+01 | 1486149307.44252 | 3/1AF23B0                |           12913157040

 2017-02-03 20:15:08.518464+01 | 1486149308.51846 | 3/1AF23B0                |           12913157040

 2017-02-03 20:15:09.600326+01 | 1486149309.60033 | 3/1AF23B0                |           12913157040

 2017-02-03 20:15:10.676089+01 | 1486149310.67609 | 3/1AF23B0                |           12913157040

 2017-02-03 20:15:11.758398+01 | 1486149311.7584 | 3/1AF23B0                |           12913157040

 2017-02-03 20:15:12.843022+01 | 1486149312.84302 | 3/1AF23B0                |           12913157040

 2017-02-03 20:15:13.914654+01 | 1486149313.91465 | 3/1AF23B0                |           12913157040

 2017-02-03 20:15:14.995502+01 | 1486149314.9955 | 3/1AF23B0                |           12913157040

 2017-02-03 20:15:16.076045+01 | 1486149316.07605 | 3/1AF23B0                |           12913157040

 2017-02-03 20:15:17.160735+01 | 1486149317.16073 | 3/1AF23B0                |           12913157040

 2017-02-03 20:15:18.235297+01 | 1486149318.2353 | 3/1AF23B0                |           12913157040

 2017-02-03 20:15:19.319873+01 | 1486149319.31987 | 3/1AF23B0                |           12913157040

 2017-02-03 20:15:20.392419+01 | 1486149320.39242 | 3/1AF23B0                |           12913157040

 2017-02-03 20:15:21.471666+01 | 1486149321.47167 | 3/1AF23B0                |           12913157040

 2017-02-03 20:15:22.549923+01 | 1486149322.54992 | 3/1AF23B0                |           12913157040

 2017-02-03 20:15:23.624348+01 | 1486149323.62435 | 3/1AF23B0                |           12913157040

 2017-02-03 20:15:24.701623+01 | 1486149324.70162 | 3/1AF23B0                |           12913157040

 2017-02-03 20:15:25.77785+01 | 1486149325.77785 | 3/1AF23B0                |           12913157040

 2017-02-03 20:15:26.863863+01 | 1486149326.86386 | 3/1AF23B0                |           12913157040

 2017-02-03 20:15:27.948909+01 | 1486149327.94891 | 3/1AF23B0                |           12913157040

 2017-02-03 20:15:29.023204+01 | 1486149329.0232 | 3/1AF23B0                |           12913157040

 2017-02-03 20:15:30.110116+01 | 1486149330.11012 | 3/1AF23B0                |           12913157040

 2017-02-03 20:15:31.189503+01 | 1486149331.1895 | 3/1AF23B0                |           12913157040

 2017-02-03 20:15:32.268539+01 | 1486149332.26854 | 3/1AF23B0                |           12913157040

 2017-02-03 20:15:33.338314+01 | 1486149333.33831 | 3/1AF23B0                |           12913157040

 2017-02-03 20:15:34.425246+01 | 1486149334.42525 | 3/1AF23B0                |           12913157040

 2017-02-03 20:15:35.507079+01 | 1486149335.50708 | 3/1AF23B0                |           12913157040

 2017-02-03 20:15:36.593279+01 | 1486149336.59328 | 3/1AF23B0                |           12913157040

 2017-02-03 20:15:37.669121+01 | 1486149337.66912 | 3/1AF23B0                |           12913157040

 2017-02-03 20:15:38.749499+01 | 1486149338.7495 | 3/1AF23B0                |           12913157040

 2017-02-03 20:15:39.828402+01 | 1486149339.8284 | 3/1AF23B0                |           12913157040

 2017-02-03 20:15:40.908986+01 | 1486149340.90899 | 3/1AF23B0                |           12913157040

 2017-02-03 20:15:41.987123+01 | 1486149341.98712 | 3/1AF23B0                |           12913157040

 2017-02-03 20:15:43.059131+01 | 1486149343.05913 | 3/1AF23B0                |           12913157040

 2017-02-03 20:15:44.127635+01 | 1486149344.12764 | 3/1AF23B0                |           12913157040

 2017-02-03 20:15:45.211199+01 | 1486149345.2112 | 3/1AF23B0                |           12913157040

 2017-02-03 20:15:46.294488+01 | 1486149346.29449 | 3/1AF23B0                |           12913157040

 2017-02-03 20:15:47.373008+01 | 1486149347.37301 | 3/1AF23B0                |           12913157040

 2017-02-03 20:15:48.445196+01 | 1486149348.4452 | 3/1AF23B0                |           12913157040

 2017-02-03 20:15:49.520847+01 | 1486149349.52085 | 3/1AF23B0                |           12913157040

 2017-02-03 20:15:50.595945+01 | 1486149350.59594 | 3/1AF23B0                |           12913157040

 2017-02-03 20:15:51.677337+01 | 1486149351.67734 | 3/1AF23B0                |           12913157040

 2017-02-03 20:15:52.758087+01 | 1486149352.75809 | 3/1AF23B0                |           12913157040

 2017-02-03 20:15:53.844193+01 | 1486149353.84419 | 3/1AF23B0                |           12913157040

 2017-02-03 20:15:54.938045+01 | 1486149354.93805 | 3/1AF23B0                |           12913157040

 2017-02-03 20:15:56.022354+01 | 1486149356.02235 | 3/1AF23B0                |           12913157040

 2017-02-03 20:15:57.099773+01 | 1486149357.09977 | 3/1AF23B0                |           12913157040

 2017-02-03 20:15:58.183583+01 | 1486149358.18358 | 3/1AF23B0                |           12913157040

 2017-02-03 20:15:59.255218+01 | 1486149359.25522 | 3/1AF23B0                |           12913157040

 2017-02-03 20:16:00.340747+01 | 1486149360.34075 | 3/1AF23B0                |           12913157040

 2017-02-03 20:16:01.410394+01 | 1486149361.41039 | 3/1AF23B0                |           12913157040

 2017-02-03 20:16:02.498427+01 | 1486149362.49843 | 3/1AF23B0                |           12913157040

 2017-02-03 20:16:03.576964+01 | 1486149363.57696 | 3/1AF23B0                |           12913157040

 2017-02-03 20:16:04.659897+01 | 1486149364.6599 | 3/1AF23B0                |           12913157040

 2017-02-03 20:16:05.732435+01 | 1486149365.73243 | 3/1AF23B0                |           12913157040

 2017-02-03 20:16:06.817661+01 | 1486149366.81766 | 3/1AF23B0                |           12913157040

 2017-02-03 20:16:07.902278+01 | 1486149367.90228 | 3/1AF23B0                |           12913157040

 2017-02-03 20:16:08.990962+01 | 1486149368.99096 | 3/1AF23B0                |           12913157040

 2017-02-03 20:16:10.06579+01 | 1486149370.06579 | 3/1AF23B0                |           12913157040

 2017-02-03 20:16:11.150571+01 | 1486149371.15057 | 3/1AF23B0                |           12913157040

 2017-02-03 20:16:12.226703+01 | 1486149372.2267 | 3/1AF23B0                |           12913157040

 2017-02-03 20:16:13.297903+01 | 1486149373.2979 | 3/1AF23B0                |           12913157040

 2017-02-03 20:16:14.374954+01 | 1486149374.37495 | 3/1AF23B0                |           12913157040

 2017-02-03 20:16:15.449583+01 | 1486149375.44958 | 3/1AF23B0                |           12913157040

 2017-02-03 20:16:16.529711+01 | 1486149376.52971 | 3/1AF23B0                |           12913157040

 2017-02-03 20:16:17.603666+01 | 1486149377.60367 | 3/1AF23B0                |           12913157040

 2017-02-03 20:16:18.679279+01 | 1486149378.67928 | 3/1AF23B0                |           12913157040

 2017-02-03 20:16:19.753107+01 | 1486149379.75311 | 3/1AF23B0                |           12913157040

 2017-02-03 20:16:20.827985+01 | 1486149380.82799 | 3/1AF23B0                |           12913157040

 2017-02-03 20:16:21.902988+01 | 1486149381.90299 | 3/1AF23B0                |           12913157040

 2017-02-03 20:16:22.984297+01 | 1486149382.9843 | 3/1AF23B0                |           12913157040

 2017-02-03 20:16:24.056591+01 | 1486149384.05659 | 3/1AF23B0                |           12913157040

 2017-02-03 20:16:25.136409+01 | 1486149385.13641 | 3/1AF23B0                |           12913157040

 2017-02-03 20:16:26.210613+01 | 1486149386.21061 | 3/1AF23B0                |           12913157040

 2017-02-03 20:16:27.290818+01 | 1486149387.29082 | 3/1AF23B0                |           12913157040

 2017-02-03 20:16:28.36621+01 | 1486149388.36621 | 3/1AF23B0                |           12913157040

 2017-02-03 20:16:29.445787+01 | 1486149389.44579 | 3/1AF23B0                |           12913157040

 2017-02-03 20:16:30.52104+01 | 1486149390.52104 | 3/1AF23B0                |           12913157040

 2017-02-03 20:16:31.596286+01 | 1486149391.59629 | 3/1AF23B0                |           12913157040

 2017-02-03 20:16:32.677308+01 | 1486149392.67731 | 3/1AF23B0                |           12913157040

 2017-02-03 20:16:33.750098+01 | 1486149393.7501 | 3/1AF23B0                |           12913157040

 2017-02-03 20:16:34.828776+01 | 1486149394.82878 | 3/1AF23B0                |           12913157040

 2017-02-03 20:16:35.907432+01 | 1486149395.90743 | 3/1AF23B0                |           12913157040

 2017-02-03 20:16:36.987529+01 | 1486149396.98753 | 3/1AF23B0                |           12913157040

 2017-02-03 20:16:38.068176+01 | 1486149398.06818 | 3/1AF23B0                |           12913157040

 2017-02-03 20:16:39.146142+01 | 1486149399.14614 | 3/1AF23B0                |           12913157040

 2017-02-03 20:16:40.222468+01 | 1486149400.22247 | 3/1AF23B0                |           12913157040

 2017-02-03 20:16:41.298875+01 | 1486149401.29888 | 3/1AF23B0                |           12913157040

 2017-02-03 20:16:42.377804+01 | 1486149402.3778 | 3/1AF23B0                |           12913157040

 2017-02-03 20:16:43.459148+01 | 1486149403.45915 | 3/1AF23B0                |           12913157040

 2017-02-03 20:16:44.54024+01 | 1486149404.54024 | 3/1AF23B0                |           12913157040

 2017-02-03 20:16:45.610169+01 | 1486149405.61017 | 3/1AF23B0                |           12913157040

 2017-02-03 20:16:46.69132+01 | 1486149406.69132 | 3/1AF23B0                |           12913157040

 2017-02-03 20:16:47.77397+01 | 1486149407.77397 | 3/1AF23B0                |           12913157040

 2017-02-03 20:16:48.845451+01 | 1486149408.84545 | 3/1AF23B0                |           12913157040

 2017-02-03 20:16:49.930502+01 | 1486149409.9305 | 3/1AF23B0                |           12913157040

 2017-02-03 20:16:51.013248+01 | 1486149411.01325 | 3/1AF23B0                |           12913157040

 2017-02-03 20:16:52.091029+01 | 1486149412.09103 | 3/1AF23B0                |           12913157040

 2017-02-03 20:16:53.171641+01 | 1486149413.17164 | 3/1AF23B0                |           12913157040

 2017-02-03 20:16:54.246886+01 | 1486149414.24689 | 3/1AF23B0                |           12913157040

 2017-02-03 20:16:55.324672+01 | 1486149415.32467 | 3/1AF23B0                |           12913157040

 2017-02-03 20:16:56.409745+01 | 1486149416.40974 | 3/1AF23B0                |           12913157040

 2017-02-03 20:16:57.491539+01 | 1486149417.49154 | 3/1AF23B0                |           12913157040

 2017-02-03 20:16:58.570401+01 | 1486149418.5704 | 3/1AF23B0                |           12913157040

 2017-02-03 20:16:59.640692+01 | 1486149419.64069 | 3/1AF23B0                |           12913157040

 2017-02-03 20:17:00.715296+01 | 1486149420.7153 | 3/1AF23B0                |           12913157040

 2017-02-03 20:17:01.796935+01 | 1486149421.79694 | 3/1AF23B0                |           12913157040

 2017-02-03 20:17:02.881419+01 | 1486149422.88142 | 3/1AF23B0                |           12913157040

 2017-02-03 20:17:03.954098+01 | 1486149423.9541 | 3/1AF23B0                |           12913157040

 2017-02-03 20:17:05.029189+01 | 1486149425.02919 | 3/1AF23B0                |           12913157040

 2017-02-03 20:17:06.101362+01 | 1486149426.10136 | 3/1AF23B0                |           12913157040

