 2017-02-05 09:44:40.301773+01 | 1486284280.30177 | pgbench_accounts |      13878878208
 2017-02-05 09:44:40.301773+01 | 1486284280.30177 | pgbench_tellers  |           450560
 2017-02-05 09:44:40.301773+01 | 1486284280.30177 | pgbench_history  |                0
 2017-02-05 09:44:40.301773+01 | 1486284280.30177 | pgbench_branches |            40960

 2017-02-05 09:44:41.406251+01 | 1486284281.40625 | pgbench_accounts |      13878878208
 2017-02-05 09:44:41.406251+01 | 1486284281.40625 | pgbench_tellers  |           450560
 2017-02-05 09:44:41.406251+01 | 1486284281.40625 | pgbench_history  |                0
 2017-02-05 09:44:41.406251+01 | 1486284281.40625 | pgbench_branches |            40960

 2017-02-05 09:44:42.504461+01 | 1486284282.50446 | pgbench_accounts |      13878878208
 2017-02-05 09:44:42.504461+01 | 1486284282.50446 | pgbench_tellers  |           450560
 2017-02-05 09:44:42.504461+01 | 1486284282.50446 | pgbench_history  |                0
 2017-02-05 09:44:42.504461+01 | 1486284282.50446 | pgbench_branches |            40960

 2017-02-05 09:44:43.607512+01 | 1486284283.60751 | pgbench_accounts |      13878878208
 2017-02-05 09:44:43.607512+01 | 1486284283.60751 | pgbench_tellers  |           450560
 2017-02-05 09:44:43.607512+01 | 1486284283.60751 | pgbench_history  |                0
 2017-02-05 09:44:43.607512+01 | 1486284283.60751 | pgbench_branches |            40960

 2017-02-05 09:44:44.715208+01 | 1486284284.71521 | pgbench_accounts |      13878878208
 2017-02-05 09:44:44.715208+01 | 1486284284.71521 | pgbench_tellers  |           450560
 2017-02-05 09:44:44.715208+01 | 1486284284.71521 | pgbench_history  |                0
 2017-02-05 09:44:44.715208+01 | 1486284284.71521 | pgbench_branches |            40960

 2017-02-05 09:44:45.789132+01 | 1486284285.78913 | pgbench_accounts |      13878878208
 2017-02-05 09:44:45.789132+01 | 1486284285.78913 | pgbench_tellers  |           450560
 2017-02-05 09:44:45.789132+01 | 1486284285.78913 | pgbench_history  |                0
 2017-02-05 09:44:45.789132+01 | 1486284285.78913 | pgbench_branches |            40960

 2017-02-05 09:44:46.866359+01 | 1486284286.86636 | pgbench_accounts |      13878878208
 2017-02-05 09:44:46.866359+01 | 1486284286.86636 | pgbench_tellers  |           450560
 2017-02-05 09:44:46.866359+01 | 1486284286.86636 | pgbench_history  |                0
 2017-02-05 09:44:46.866359+01 | 1486284286.86636 | pgbench_branches |            40960

 2017-02-05 09:44:47.953361+01 | 1486284287.95336 | pgbench_accounts |      13878878208
 2017-02-05 09:44:47.953361+01 | 1486284287.95336 | pgbench_tellers  |           450560
 2017-02-05 09:44:47.953361+01 | 1486284287.95336 | pgbench_history  |                0
 2017-02-05 09:44:47.953361+01 | 1486284287.95336 | pgbench_branches |            40960

 2017-02-05 09:44:49.048259+01 | 1486284289.04826 | pgbench_accounts |      13878878208
 2017-02-05 09:44:49.048259+01 | 1486284289.04826 | pgbench_tellers  |           450560
 2017-02-05 09:44:49.048259+01 | 1486284289.04826 | pgbench_history  |                0
 2017-02-05 09:44:49.048259+01 | 1486284289.04826 | pgbench_branches |            40960

 2017-02-05 09:44:50.128296+01 | 1486284290.1283 | pgbench_accounts |      13878878208
 2017-02-05 09:44:50.128296+01 | 1486284290.1283 | pgbench_tellers  |           450560
 2017-02-05 09:44:50.128296+01 | 1486284290.1283 | pgbench_history  |                0
 2017-02-05 09:44:50.128296+01 | 1486284290.1283 | pgbench_branches |            40960

 2017-02-05 09:44:51.206411+01 | 1486284291.20641 | pgbench_accounts |      13878878208
 2017-02-05 09:44:51.206411+01 | 1486284291.20641 | pgbench_tellers  |           450560
 2017-02-05 09:44:51.206411+01 | 1486284291.20641 | pgbench_history  |                0
 2017-02-05 09:44:51.206411+01 | 1486284291.20641 | pgbench_branches |            40960

 2017-02-05 09:44:52.298803+01 | 1486284292.2988 | pgbench_accounts |      13878878208
 2017-02-05 09:44:52.298803+01 | 1486284292.2988 | pgbench_tellers  |           450560
 2017-02-05 09:44:52.298803+01 | 1486284292.2988 | pgbench_history  |                0
 2017-02-05 09:44:52.298803+01 | 1486284292.2988 | pgbench_branches |            40960

 2017-02-05 09:44:53.401106+01 | 1486284293.40111 | pgbench_accounts |      13878878208
 2017-02-05 09:44:53.401106+01 | 1486284293.40111 | pgbench_tellers  |           450560
 2017-02-05 09:44:53.401106+01 | 1486284293.40111 | pgbench_history  |                0
 2017-02-05 09:44:53.401106+01 | 1486284293.40111 | pgbench_branches |            40960

 2017-02-05 09:44:54.483449+01 | 1486284294.48345 | pgbench_accounts |      13878878208
 2017-02-05 09:44:54.483449+01 | 1486284294.48345 | pgbench_tellers  |           450560
 2017-02-05 09:44:54.483449+01 | 1486284294.48345 | pgbench_history  |                0
 2017-02-05 09:44:54.483449+01 | 1486284294.48345 | pgbench_branches |            40960

 2017-02-05 09:44:55.567892+01 | 1486284295.56789 | pgbench_accounts |      13878878208
 2017-02-05 09:44:55.567892+01 | 1486284295.56789 | pgbench_tellers  |           450560
 2017-02-05 09:44:55.567892+01 | 1486284295.56789 | pgbench_history  |                0
 2017-02-05 09:44:55.567892+01 | 1486284295.56789 | pgbench_branches |            40960

 2017-02-05 09:44:56.666176+01 | 1486284296.66618 | pgbench_accounts |      13878878208
 2017-02-05 09:44:56.666176+01 | 1486284296.66618 | pgbench_tellers  |           450560
 2017-02-05 09:44:56.666176+01 | 1486284296.66618 | pgbench_history  |                0
 2017-02-05 09:44:56.666176+01 | 1486284296.66618 | pgbench_branches |            40960

 2017-02-05 09:44:57.749427+01 | 1486284297.74943 | pgbench_accounts |      13878878208
 2017-02-05 09:44:57.749427+01 | 1486284297.74943 | pgbench_tellers  |           450560
 2017-02-05 09:44:57.749427+01 | 1486284297.74943 | pgbench_history  |                0
 2017-02-05 09:44:57.749427+01 | 1486284297.74943 | pgbench_branches |            40960

 2017-02-05 09:44:58.829235+01 | 1486284298.82924 | pgbench_accounts |      13878878208
 2017-02-05 09:44:58.829235+01 | 1486284298.82924 | pgbench_tellers  |           450560
 2017-02-05 09:44:58.829235+01 | 1486284298.82924 | pgbench_history  |                0
 2017-02-05 09:44:58.829235+01 | 1486284298.82924 | pgbench_branches |            40960

 2017-02-05 09:44:59.920958+01 | 1486284299.92096 | pgbench_accounts |      13878878208
 2017-02-05 09:44:59.920958+01 | 1486284299.92096 | pgbench_tellers  |           450560
 2017-02-05 09:44:59.920958+01 | 1486284299.92096 | pgbench_history  |                0
 2017-02-05 09:44:59.920958+01 | 1486284299.92096 | pgbench_branches |            40960

 2017-02-05 09:45:00.999847+01 | 1486284300.99985 | pgbench_accounts |      13878878208
 2017-02-05 09:45:00.999847+01 | 1486284300.99985 | pgbench_tellers  |           450560
 2017-02-05 09:45:00.999847+01 | 1486284300.99985 | pgbench_history  |                0
 2017-02-05 09:45:00.999847+01 | 1486284300.99985 | pgbench_branches |            40960

 2017-02-05 09:45:02.088442+01 | 1486284302.08844 | pgbench_accounts |      13878878208
 2017-02-05 09:45:02.088442+01 | 1486284302.08844 | pgbench_tellers  |           450560
 2017-02-05 09:45:02.088442+01 | 1486284302.08844 | pgbench_history  |                0
 2017-02-05 09:45:02.088442+01 | 1486284302.08844 | pgbench_branches |            40960

 2017-02-05 09:45:03.184825+01 | 1486284303.18482 | pgbench_accounts |      13878878208
 2017-02-05 09:45:03.184825+01 | 1486284303.18482 | pgbench_tellers  |           450560
 2017-02-05 09:45:03.184825+01 | 1486284303.18482 | pgbench_history  |                0
 2017-02-05 09:45:03.184825+01 | 1486284303.18482 | pgbench_branches |            40960

 2017-02-05 09:45:04.254082+01 | 1486284304.25408 | pgbench_accounts |      13878878208
 2017-02-05 09:45:04.254082+01 | 1486284304.25408 | pgbench_tellers  |           450560
 2017-02-05 09:45:04.254082+01 | 1486284304.25408 | pgbench_history  |                0
 2017-02-05 09:45:04.254082+01 | 1486284304.25408 | pgbench_branches |            40960

 2017-02-05 09:45:05.350257+01 | 1486284305.35026 | pgbench_accounts |      13878878208
 2017-02-05 09:45:05.350257+01 | 1486284305.35026 | pgbench_tellers  |           450560
 2017-02-05 09:45:05.350257+01 | 1486284305.35026 | pgbench_history  |                0
 2017-02-05 09:45:05.350257+01 | 1486284305.35026 | pgbench_branches |            40960

 2017-02-05 09:45:06.460157+01 | 1486284306.46016 | pgbench_accounts |      13878878208
 2017-02-05 09:45:06.460157+01 | 1486284306.46016 | pgbench_tellers  |           450560
 2017-02-05 09:45:06.460157+01 | 1486284306.46016 | pgbench_history  |                0
 2017-02-05 09:45:06.460157+01 | 1486284306.46016 | pgbench_branches |            40960

 2017-02-05 09:45:07.573042+01 | 1486284307.57304 | pgbench_accounts |      13878878208
 2017-02-05 09:45:07.573042+01 | 1486284307.57304 | pgbench_tellers  |           450560
 2017-02-05 09:45:07.573042+01 | 1486284307.57304 | pgbench_history  |                0
 2017-02-05 09:45:07.573042+01 | 1486284307.57304 | pgbench_branches |            40960

 2017-02-05 09:45:08.691928+01 | 1486284308.69193 | pgbench_accounts |      13878878208
 2017-02-05 09:45:08.691928+01 | 1486284308.69193 | pgbench_tellers  |           450560
 2017-02-05 09:45:08.691928+01 | 1486284308.69193 | pgbench_history  |                0
 2017-02-05 09:45:08.691928+01 | 1486284308.69193 | pgbench_branches |            40960

 2017-02-05 09:45:09.76772+01 | 1486284309.76772 | pgbench_accounts |      13878878208
 2017-02-05 09:45:09.76772+01 | 1486284309.76772 | pgbench_tellers  |           450560
 2017-02-05 09:45:09.76772+01 | 1486284309.76772 | pgbench_history  |                0
 2017-02-05 09:45:09.76772+01 | 1486284309.76772 | pgbench_branches |            40960

 2017-02-05 09:45:10.857397+01 | 1486284310.8574 | pgbench_accounts |      13878878208
 2017-02-05 09:45:10.857397+01 | 1486284310.8574 | pgbench_tellers  |           450560
 2017-02-05 09:45:10.857397+01 | 1486284310.8574 | pgbench_history  |                0
 2017-02-05 09:45:10.857397+01 | 1486284310.8574 | pgbench_branches |            40960

 2017-02-05 09:45:11.96409+01 | 1486284311.96409 | pgbench_accounts |      13878878208
 2017-02-05 09:45:11.96409+01 | 1486284311.96409 | pgbench_tellers  |           450560
 2017-02-05 09:45:11.96409+01 | 1486284311.96409 | pgbench_history  |                0
 2017-02-05 09:45:11.96409+01 | 1486284311.96409 | pgbench_branches |            40960

 2017-02-05 09:45:13.061793+01 | 1486284313.06179 | pgbench_accounts |      13878878208
 2017-02-05 09:45:13.061793+01 | 1486284313.06179 | pgbench_tellers  |           450560
 2017-02-05 09:45:13.061793+01 | 1486284313.06179 | pgbench_history  |                0
 2017-02-05 09:45:13.061793+01 | 1486284313.06179 | pgbench_branches |            40960

 2017-02-05 09:45:14.139693+01 | 1486284314.13969 | pgbench_accounts |      13878878208
 2017-02-05 09:45:14.139693+01 | 1486284314.13969 | pgbench_tellers  |           450560
 2017-02-05 09:45:14.139693+01 | 1486284314.13969 | pgbench_history  |                0
 2017-02-05 09:45:14.139693+01 | 1486284314.13969 | pgbench_branches |            40960

 2017-02-05 09:45:15.227062+01 | 1486284315.22706 | pgbench_accounts |      13878878208
 2017-02-05 09:45:15.227062+01 | 1486284315.22706 | pgbench_tellers  |           450560
 2017-02-05 09:45:15.227062+01 | 1486284315.22706 | pgbench_history  |                0
 2017-02-05 09:45:15.227062+01 | 1486284315.22706 | pgbench_branches |            40960

 2017-02-05 09:45:16.30765+01 | 1486284316.30765 | pgbench_accounts |      13878878208
 2017-02-05 09:45:16.30765+01 | 1486284316.30765 | pgbench_tellers  |           450560
 2017-02-05 09:45:16.30765+01 | 1486284316.30765 | pgbench_history  |                0
 2017-02-05 09:45:16.30765+01 | 1486284316.30765 | pgbench_branches |            40960

 2017-02-05 09:45:17.388565+01 | 1486284317.38857 | pgbench_accounts |      13878878208
 2017-02-05 09:45:17.388565+01 | 1486284317.38857 | pgbench_tellers  |           450560
 2017-02-05 09:45:17.388565+01 | 1486284317.38857 | pgbench_history  |                0
 2017-02-05 09:45:17.388565+01 | 1486284317.38857 | pgbench_branches |            40960

 2017-02-05 09:45:18.495523+01 | 1486284318.49552 | pgbench_accounts |      13878878208
 2017-02-05 09:45:18.495523+01 | 1486284318.49552 | pgbench_tellers  |           450560
 2017-02-05 09:45:18.495523+01 | 1486284318.49552 | pgbench_history  |                0
 2017-02-05 09:45:18.495523+01 | 1486284318.49552 | pgbench_branches |            40960

 2017-02-05 09:45:19.585537+01 | 1486284319.58554 | pgbench_accounts |      13878878208
 2017-02-05 09:45:19.585537+01 | 1486284319.58554 | pgbench_tellers  |           450560
 2017-02-05 09:45:19.585537+01 | 1486284319.58554 | pgbench_history  |                0
 2017-02-05 09:45:19.585537+01 | 1486284319.58554 | pgbench_branches |            40960

 2017-02-05 09:45:20.664696+01 | 1486284320.6647 | pgbench_accounts |      13878878208
 2017-02-05 09:45:20.664696+01 | 1486284320.6647 | pgbench_tellers  |           450560
 2017-02-05 09:45:20.664696+01 | 1486284320.6647 | pgbench_history  |                0
 2017-02-05 09:45:20.664696+01 | 1486284320.6647 | pgbench_branches |            40960

 2017-02-05 09:45:21.740012+01 | 1486284321.74001 | pgbench_accounts |      13878878208
 2017-02-05 09:45:21.740012+01 | 1486284321.74001 | pgbench_tellers  |           450560
 2017-02-05 09:45:21.740012+01 | 1486284321.74001 | pgbench_history  |                0
 2017-02-05 09:45:21.740012+01 | 1486284321.74001 | pgbench_branches |            40960

 2017-02-05 09:45:22.833433+01 | 1486284322.83343 | pgbench_accounts |      13878878208
 2017-02-05 09:45:22.833433+01 | 1486284322.83343 | pgbench_tellers  |           450560
 2017-02-05 09:45:22.833433+01 | 1486284322.83343 | pgbench_history  |                0
 2017-02-05 09:45:22.833433+01 | 1486284322.83343 | pgbench_branches |            40960

 2017-02-05 09:45:23.935207+01 | 1486284323.93521 | pgbench_accounts |      13878878208
 2017-02-05 09:45:23.935207+01 | 1486284323.93521 | pgbench_tellers  |           450560
 2017-02-05 09:45:23.935207+01 | 1486284323.93521 | pgbench_history  |                0
 2017-02-05 09:45:23.935207+01 | 1486284323.93521 | pgbench_branches |            40960

 2017-02-05 09:45:25.03118+01 | 1486284325.03118 | pgbench_accounts |      13878878208
 2017-02-05 09:45:25.03118+01 | 1486284325.03118 | pgbench_tellers  |           450560
 2017-02-05 09:45:25.03118+01 | 1486284325.03118 | pgbench_history  |                0
 2017-02-05 09:45:25.03118+01 | 1486284325.03118 | pgbench_branches |            40960

 2017-02-05 09:45:26.128227+01 | 1486284326.12823 | pgbench_accounts |      13878878208
 2017-02-05 09:45:26.128227+01 | 1486284326.12823 | pgbench_tellers  |           450560
 2017-02-05 09:45:26.128227+01 | 1486284326.12823 | pgbench_history  |                0
 2017-02-05 09:45:26.128227+01 | 1486284326.12823 | pgbench_branches |            40960

 2017-02-05 09:45:27.224248+01 | 1486284327.22425 | pgbench_accounts |      13878878208
 2017-02-05 09:45:27.224248+01 | 1486284327.22425 | pgbench_tellers  |           450560
 2017-02-05 09:45:27.224248+01 | 1486284327.22425 | pgbench_history  |                0
 2017-02-05 09:45:27.224248+01 | 1486284327.22425 | pgbench_branches |            40960

 2017-02-05 09:45:28.308036+01 | 1486284328.30804 | pgbench_accounts |      13878878208
 2017-02-05 09:45:28.308036+01 | 1486284328.30804 | pgbench_tellers  |           450560
 2017-02-05 09:45:28.308036+01 | 1486284328.30804 | pgbench_history  |                0
 2017-02-05 09:45:28.308036+01 | 1486284328.30804 | pgbench_branches |            40960

 2017-02-05 09:45:29.394327+01 | 1486284329.39433 | pgbench_accounts |      13878878208
 2017-02-05 09:45:29.394327+01 | 1486284329.39433 | pgbench_tellers  |           450560
 2017-02-05 09:45:29.394327+01 | 1486284329.39433 | pgbench_history  |                0
 2017-02-05 09:45:29.394327+01 | 1486284329.39433 | pgbench_branches |            40960

 2017-02-05 09:45:30.502669+01 | 1486284330.50267 | pgbench_accounts |      13878878208
 2017-02-05 09:45:30.502669+01 | 1486284330.50267 | pgbench_tellers  |           450560
 2017-02-05 09:45:30.502669+01 | 1486284330.50267 | pgbench_history  |                0
 2017-02-05 09:45:30.502669+01 | 1486284330.50267 | pgbench_branches |            40960

 2017-02-05 09:45:31.580994+01 | 1486284331.58099 | pgbench_accounts |      13878878208
 2017-02-05 09:45:31.580994+01 | 1486284331.58099 | pgbench_tellers  |           450560
 2017-02-05 09:45:31.580994+01 | 1486284331.58099 | pgbench_history  |                0
 2017-02-05 09:45:31.580994+01 | 1486284331.58099 | pgbench_branches |            40960

 2017-02-05 09:45:32.647285+01 | 1486284332.64728 | pgbench_accounts |      13878878208
 2017-02-05 09:45:32.647285+01 | 1486284332.64728 | pgbench_tellers  |           450560
 2017-02-05 09:45:32.647285+01 | 1486284332.64728 | pgbench_history  |                0
 2017-02-05 09:45:32.647285+01 | 1486284332.64728 | pgbench_branches |            40960

 2017-02-05 09:45:33.731231+01 | 1486284333.73123 | pgbench_accounts |      13878878208
 2017-02-05 09:45:33.731231+01 | 1486284333.73123 | pgbench_tellers  |           450560
 2017-02-05 09:45:33.731231+01 | 1486284333.73123 | pgbench_history  |                0
 2017-02-05 09:45:33.731231+01 | 1486284333.73123 | pgbench_branches |            40960

 2017-02-05 09:45:34.813613+01 | 1486284334.81361 | pgbench_accounts |      13878878208
 2017-02-05 09:45:34.813613+01 | 1486284334.81361 | pgbench_tellers  |           450560
 2017-02-05 09:45:34.813613+01 | 1486284334.81361 | pgbench_history  |                0
 2017-02-05 09:45:34.813613+01 | 1486284334.81361 | pgbench_branches |            40960

 2017-02-05 09:45:35.892942+01 | 1486284335.89294 | pgbench_accounts |      13878878208
 2017-02-05 09:45:35.892942+01 | 1486284335.89294 | pgbench_tellers  |           450560
 2017-02-05 09:45:35.892942+01 | 1486284335.89294 | pgbench_history  |                0
 2017-02-05 09:45:35.892942+01 | 1486284335.89294 | pgbench_branches |            40960

 2017-02-05 09:45:36.980113+01 | 1486284336.98011 | pgbench_accounts |      13878878208
 2017-02-05 09:45:36.980113+01 | 1486284336.98011 | pgbench_tellers  |           450560
 2017-02-05 09:45:36.980113+01 | 1486284336.98011 | pgbench_history  |                0
 2017-02-05 09:45:36.980113+01 | 1486284336.98011 | pgbench_branches |            40960

 2017-02-05 09:45:38.076913+01 | 1486284338.07691 | pgbench_accounts |      13878878208
 2017-02-05 09:45:38.076913+01 | 1486284338.07691 | pgbench_tellers  |           450560
 2017-02-05 09:45:38.076913+01 | 1486284338.07691 | pgbench_history  |                0
 2017-02-05 09:45:38.076913+01 | 1486284338.07691 | pgbench_branches |            40960

 2017-02-05 09:45:39.18103+01 | 1486284339.18103 | pgbench_accounts |      13878878208
 2017-02-05 09:45:39.18103+01 | 1486284339.18103 | pgbench_tellers  |           450560
 2017-02-05 09:45:39.18103+01 | 1486284339.18103 | pgbench_history  |                0
 2017-02-05 09:45:39.18103+01 | 1486284339.18103 | pgbench_branches |            40960

 2017-02-05 09:45:40.278145+01 | 1486284340.27815 | pgbench_accounts |      13878878208
 2017-02-05 09:45:40.278145+01 | 1486284340.27815 | pgbench_tellers  |           450560
 2017-02-05 09:45:40.278145+01 | 1486284340.27815 | pgbench_history  |                0
 2017-02-05 09:45:40.278145+01 | 1486284340.27815 | pgbench_branches |            40960

 2017-02-05 09:45:41.365165+01 | 1486284341.36516 | pgbench_accounts |      13878878208
 2017-02-05 09:45:41.365165+01 | 1486284341.36516 | pgbench_tellers  |           450560
 2017-02-05 09:45:41.365165+01 | 1486284341.36516 | pgbench_history  |                0
 2017-02-05 09:45:41.365165+01 | 1486284341.36516 | pgbench_branches |            40960

 2017-02-05 09:45:42.447721+01 | 1486284342.44772 | pgbench_accounts |      13878878208
 2017-02-05 09:45:42.447721+01 | 1486284342.44772 | pgbench_tellers  |           450560
 2017-02-05 09:45:42.447721+01 | 1486284342.44772 | pgbench_history  |                0
 2017-02-05 09:45:42.447721+01 | 1486284342.44772 | pgbench_branches |            40960

 2017-02-05 09:45:43.542144+01 | 1486284343.54214 | pgbench_accounts |      13878878208
 2017-02-05 09:45:43.542144+01 | 1486284343.54214 | pgbench_tellers  |           450560
 2017-02-05 09:45:43.542144+01 | 1486284343.54214 | pgbench_history  |                0
 2017-02-05 09:45:43.542144+01 | 1486284343.54214 | pgbench_branches |            40960

 2017-02-05 09:45:44.641415+01 | 1486284344.64142 | pgbench_accounts |      13878878208
 2017-02-05 09:45:44.641415+01 | 1486284344.64142 | pgbench_tellers  |           450560
 2017-02-05 09:45:44.641415+01 | 1486284344.64142 | pgbench_history  |                0
 2017-02-05 09:45:44.641415+01 | 1486284344.64142 | pgbench_branches |            40960

 2017-02-05 09:45:45.715795+01 | 1486284345.7158 | pgbench_accounts |      13878878208
 2017-02-05 09:45:45.715795+01 | 1486284345.7158 | pgbench_tellers  |           450560
 2017-02-05 09:45:45.715795+01 | 1486284345.7158 | pgbench_history  |                0
 2017-02-05 09:45:45.715795+01 | 1486284345.7158 | pgbench_branches |            40960

 2017-02-05 09:45:46.815023+01 | 1486284346.81502 | pgbench_accounts |      13878878208
 2017-02-05 09:45:46.815023+01 | 1486284346.81502 | pgbench_tellers  |           450560
 2017-02-05 09:45:46.815023+01 | 1486284346.81502 | pgbench_history  |                0
 2017-02-05 09:45:46.815023+01 | 1486284346.81502 | pgbench_branches |            40960

 2017-02-05 09:45:47.919699+01 | 1486284347.9197 | pgbench_accounts |      13878878208
 2017-02-05 09:45:47.919699+01 | 1486284347.9197 | pgbench_tellers  |           450560
 2017-02-05 09:45:47.919699+01 | 1486284347.9197 | pgbench_history  |                0
 2017-02-05 09:45:47.919699+01 | 1486284347.9197 | pgbench_branches |            40960

 2017-02-05 09:45:49.008261+01 | 1486284349.00826 | pgbench_accounts |      13878878208
 2017-02-05 09:45:49.008261+01 | 1486284349.00826 | pgbench_tellers  |           450560
 2017-02-05 09:45:49.008261+01 | 1486284349.00826 | pgbench_history  |                0
 2017-02-05 09:45:49.008261+01 | 1486284349.00826 | pgbench_branches |            40960

 2017-02-05 09:45:50.091701+01 | 1486284350.0917 | pgbench_accounts |      13878878208
 2017-02-05 09:45:50.091701+01 | 1486284350.0917 | pgbench_tellers  |           450560
 2017-02-05 09:45:50.091701+01 | 1486284350.0917 | pgbench_history  |                0
 2017-02-05 09:45:50.091701+01 | 1486284350.0917 | pgbench_branches |            40960

 2017-02-05 09:45:51.177683+01 | 1486284351.17768 | pgbench_accounts |      13878878208
 2017-02-05 09:45:51.177683+01 | 1486284351.17768 | pgbench_tellers  |           450560
 2017-02-05 09:45:51.177683+01 | 1486284351.17768 | pgbench_history  |                0
 2017-02-05 09:45:51.177683+01 | 1486284351.17768 | pgbench_branches |            40960

 2017-02-05 09:45:52.265691+01 | 1486284352.26569 | pgbench_accounts |      13878878208
 2017-02-05 09:45:52.265691+01 | 1486284352.26569 | pgbench_tellers  |           450560
 2017-02-05 09:45:52.265691+01 | 1486284352.26569 | pgbench_history  |                0
 2017-02-05 09:45:52.265691+01 | 1486284352.26569 | pgbench_branches |            40960

 2017-02-05 09:45:53.352275+01 | 1486284353.35227 | pgbench_accounts |      13878878208
 2017-02-05 09:45:53.352275+01 | 1486284353.35227 | pgbench_tellers  |           450560
 2017-02-05 09:45:53.352275+01 | 1486284353.35227 | pgbench_history  |                0
 2017-02-05 09:45:53.352275+01 | 1486284353.35227 | pgbench_branches |            40960

 2017-02-05 09:45:54.430902+01 | 1486284354.4309 | pgbench_accounts |      13878878208
 2017-02-05 09:45:54.430902+01 | 1486284354.4309 | pgbench_tellers  |           450560
 2017-02-05 09:45:54.430902+01 | 1486284354.4309 | pgbench_history  |                0
 2017-02-05 09:45:54.430902+01 | 1486284354.4309 | pgbench_branches |            40960

 2017-02-05 09:45:55.503525+01 | 1486284355.50353 | pgbench_accounts |      13878878208
 2017-02-05 09:45:55.503525+01 | 1486284355.50353 | pgbench_tellers  |           450560
 2017-02-05 09:45:55.503525+01 | 1486284355.50353 | pgbench_history  |                0
 2017-02-05 09:45:55.503525+01 | 1486284355.50353 | pgbench_branches |            40960

 2017-02-05 09:45:56.581387+01 | 1486284356.58139 | pgbench_accounts |      13878878208
 2017-02-05 09:45:56.581387+01 | 1486284356.58139 | pgbench_tellers  |           450560
 2017-02-05 09:45:56.581387+01 | 1486284356.58139 | pgbench_history  |                0
 2017-02-05 09:45:56.581387+01 | 1486284356.58139 | pgbench_branches |            40960

 2017-02-05 09:45:57.676126+01 | 1486284357.67613 | pgbench_accounts |      13878878208
 2017-02-05 09:45:57.676126+01 | 1486284357.67613 | pgbench_tellers  |           450560
 2017-02-05 09:45:57.676126+01 | 1486284357.67613 | pgbench_history  |                0
 2017-02-05 09:45:57.676126+01 | 1486284357.67613 | pgbench_branches |            40960

 2017-02-05 09:45:58.754139+01 | 1486284358.75414 | pgbench_accounts |      13878878208
 2017-02-05 09:45:58.754139+01 | 1486284358.75414 | pgbench_tellers  |           450560
 2017-02-05 09:45:58.754139+01 | 1486284358.75414 | pgbench_history  |                0
 2017-02-05 09:45:58.754139+01 | 1486284358.75414 | pgbench_branches |            40960

 2017-02-05 09:45:59.847712+01 | 1486284359.84771 | pgbench_accounts |      13878878208
 2017-02-05 09:45:59.847712+01 | 1486284359.84771 | pgbench_tellers  |           450560
 2017-02-05 09:45:59.847712+01 | 1486284359.84771 | pgbench_history  |                0
 2017-02-05 09:45:59.847712+01 | 1486284359.84771 | pgbench_branches |            40960

 2017-02-05 09:46:00.930191+01 | 1486284360.93019 | pgbench_accounts |      13878878208
 2017-02-05 09:46:00.930191+01 | 1486284360.93019 | pgbench_tellers  |           450560
 2017-02-05 09:46:00.930191+01 | 1486284360.93019 | pgbench_history  |                0
 2017-02-05 09:46:00.930191+01 | 1486284360.93019 | pgbench_branches |            40960

 2017-02-05 09:46:02.015385+01 | 1486284362.01538 | pgbench_accounts |      13878878208
 2017-02-05 09:46:02.015385+01 | 1486284362.01538 | pgbench_tellers  |           450560
 2017-02-05 09:46:02.015385+01 | 1486284362.01538 | pgbench_history  |                0
 2017-02-05 09:46:02.015385+01 | 1486284362.01538 | pgbench_branches |            40960

 2017-02-05 09:46:03.111446+01 | 1486284363.11145 | pgbench_accounts |      13878878208
 2017-02-05 09:46:03.111446+01 | 1486284363.11145 | pgbench_tellers  |           450560
 2017-02-05 09:46:03.111446+01 | 1486284363.11145 | pgbench_history  |                0
 2017-02-05 09:46:03.111446+01 | 1486284363.11145 | pgbench_branches |            40960

 2017-02-05 09:46:04.220812+01 | 1486284364.22081 | pgbench_accounts |      13878878208
 2017-02-05 09:46:04.220812+01 | 1486284364.22081 | pgbench_tellers  |           450560
 2017-02-05 09:46:04.220812+01 | 1486284364.22081 | pgbench_history  |                0
 2017-02-05 09:46:04.220812+01 | 1486284364.22081 | pgbench_branches |            40960

 2017-02-05 09:46:05.300357+01 | 1486284365.30036 | pgbench_accounts |      13878878208
 2017-02-05 09:46:05.300357+01 | 1486284365.30036 | pgbench_tellers  |           450560
 2017-02-05 09:46:05.300357+01 | 1486284365.30036 | pgbench_history  |                0
 2017-02-05 09:46:05.300357+01 | 1486284365.30036 | pgbench_branches |            40960

 2017-02-05 09:46:06.380441+01 | 1486284366.38044 | pgbench_accounts |      13878878208
 2017-02-05 09:46:06.380441+01 | 1486284366.38044 | pgbench_tellers  |           450560
 2017-02-05 09:46:06.380441+01 | 1486284366.38044 | pgbench_history  |                0
 2017-02-05 09:46:06.380441+01 | 1486284366.38044 | pgbench_branches |            40960

 2017-02-05 09:46:07.458162+01 | 1486284367.45816 | pgbench_accounts |      13878878208
 2017-02-05 09:46:07.458162+01 | 1486284367.45816 | pgbench_tellers  |           450560
 2017-02-05 09:46:07.458162+01 | 1486284367.45816 | pgbench_history  |                0
 2017-02-05 09:46:07.458162+01 | 1486284367.45816 | pgbench_branches |            40960

 2017-02-05 09:46:08.534537+01 | 1486284368.53454 | pgbench_accounts |      13878878208
 2017-02-05 09:46:08.534537+01 | 1486284368.53454 | pgbench_tellers  |           450560
 2017-02-05 09:46:08.534537+01 | 1486284368.53454 | pgbench_history  |                0
 2017-02-05 09:46:08.534537+01 | 1486284368.53454 | pgbench_branches |            40960

 2017-02-05 09:46:09.613474+01 | 1486284369.61347 | pgbench_accounts |      13878878208
 2017-02-05 09:46:09.613474+01 | 1486284369.61347 | pgbench_tellers  |           450560
 2017-02-05 09:46:09.613474+01 | 1486284369.61347 | pgbench_history  |                0
 2017-02-05 09:46:09.613474+01 | 1486284369.61347 | pgbench_branches |            40960

 2017-02-05 09:46:10.687134+01 | 1486284370.68713 | pgbench_accounts |      13878878208
 2017-02-05 09:46:10.687134+01 | 1486284370.68713 | pgbench_tellers  |           450560
 2017-02-05 09:46:10.687134+01 | 1486284370.68713 | pgbench_history  |                0
 2017-02-05 09:46:10.687134+01 | 1486284370.68713 | pgbench_branches |            40960

 2017-02-05 09:46:11.77133+01 | 1486284371.77133 | pgbench_accounts |      13878878208
 2017-02-05 09:46:11.77133+01 | 1486284371.77133 | pgbench_tellers  |           450560
 2017-02-05 09:46:11.77133+01 | 1486284371.77133 | pgbench_history  |                0
 2017-02-05 09:46:11.77133+01 | 1486284371.77133 | pgbench_branches |            40960

 2017-02-05 09:46:12.870144+01 | 1486284372.87014 | pgbench_accounts |      13878878208
 2017-02-05 09:46:12.870144+01 | 1486284372.87014 | pgbench_tellers  |           450560
 2017-02-05 09:46:12.870144+01 | 1486284372.87014 | pgbench_history  |                0
 2017-02-05 09:46:12.870144+01 | 1486284372.87014 | pgbench_branches |            40960

 2017-02-05 09:46:13.965782+01 | 1486284373.96578 | pgbench_accounts |      13878878208
 2017-02-05 09:46:13.965782+01 | 1486284373.96578 | pgbench_tellers  |           450560
 2017-02-05 09:46:13.965782+01 | 1486284373.96578 | pgbench_history  |                0
 2017-02-05 09:46:13.965782+01 | 1486284373.96578 | pgbench_branches |            40960

 2017-02-05 09:46:15.061375+01 | 1486284375.06137 | pgbench_accounts |      13878878208
 2017-02-05 09:46:15.061375+01 | 1486284375.06137 | pgbench_tellers  |           450560
 2017-02-05 09:46:15.061375+01 | 1486284375.06137 | pgbench_history  |                0
 2017-02-05 09:46:15.061375+01 | 1486284375.06137 | pgbench_branches |            40960

 2017-02-05 09:46:16.13313+01 | 1486284376.13313 | pgbench_accounts |      13878878208
 2017-02-05 09:46:16.13313+01 | 1486284376.13313 | pgbench_tellers  |           450560
 2017-02-05 09:46:16.13313+01 | 1486284376.13313 | pgbench_history  |                0
 2017-02-05 09:46:16.13313+01 | 1486284376.13313 | pgbench_branches |            40960

 2017-02-05 09:46:17.212553+01 | 1486284377.21255 | pgbench_accounts |      13878878208
 2017-02-05 09:46:17.212553+01 | 1486284377.21255 | pgbench_tellers  |           450560
 2017-02-05 09:46:17.212553+01 | 1486284377.21255 | pgbench_history  |                0
 2017-02-05 09:46:17.212553+01 | 1486284377.21255 | pgbench_branches |            40960

 2017-02-05 09:46:18.292154+01 | 1486284378.29215 | pgbench_accounts |      13878878208
 2017-02-05 09:46:18.292154+01 | 1486284378.29215 | pgbench_tellers  |           450560
 2017-02-05 09:46:18.292154+01 | 1486284378.29215 | pgbench_history  |                0
 2017-02-05 09:46:18.292154+01 | 1486284378.29215 | pgbench_branches |            40960

 2017-02-05 09:46:19.376827+01 | 1486284379.37683 | pgbench_accounts |      13878878208
 2017-02-05 09:46:19.376827+01 | 1486284379.37683 | pgbench_tellers  |           450560
 2017-02-05 09:46:19.376827+01 | 1486284379.37683 | pgbench_history  |                0
 2017-02-05 09:46:19.376827+01 | 1486284379.37683 | pgbench_branches |            40960

 2017-02-05 09:46:20.470494+01 | 1486284380.47049 | pgbench_accounts |      13878878208
 2017-02-05 09:46:20.470494+01 | 1486284380.47049 | pgbench_tellers  |           450560
 2017-02-05 09:46:20.470494+01 | 1486284380.47049 | pgbench_history  |                0
 2017-02-05 09:46:20.470494+01 | 1486284380.47049 | pgbench_branches |            40960

 2017-02-05 09:46:21.555614+01 | 1486284381.55561 | pgbench_accounts |      13878878208
 2017-02-05 09:46:21.555614+01 | 1486284381.55561 | pgbench_tellers  |           450560
 2017-02-05 09:46:21.555614+01 | 1486284381.55561 | pgbench_history  |                0
 2017-02-05 09:46:21.555614+01 | 1486284381.55561 | pgbench_branches |            40960

 2017-02-05 09:46:22.650219+01 | 1486284382.65022 | pgbench_accounts |      13878878208
 2017-02-05 09:46:22.650219+01 | 1486284382.65022 | pgbench_tellers  |           450560
 2017-02-05 09:46:22.650219+01 | 1486284382.65022 | pgbench_history  |                0
 2017-02-05 09:46:22.650219+01 | 1486284382.65022 | pgbench_branches |            40960

 2017-02-05 09:46:23.749921+01 | 1486284383.74992 | pgbench_accounts |      13878878208
 2017-02-05 09:46:23.749921+01 | 1486284383.74992 | pgbench_tellers  |           450560
 2017-02-05 09:46:23.749921+01 | 1486284383.74992 | pgbench_history  |                0
 2017-02-05 09:46:23.749921+01 | 1486284383.74992 | pgbench_branches |            40960

 2017-02-05 09:46:24.840304+01 | 1486284384.8403 | pgbench_accounts |      13878878208
 2017-02-05 09:46:24.840304+01 | 1486284384.8403 | pgbench_tellers  |           450560
 2017-02-05 09:46:24.840304+01 | 1486284384.8403 | pgbench_history  |                0
 2017-02-05 09:46:24.840304+01 | 1486284384.8403 | pgbench_branches |            40960

 2017-02-05 09:46:25.938519+01 | 1486284385.93852 | pgbench_accounts |      13878878208
 2017-02-05 09:46:25.938519+01 | 1486284385.93852 | pgbench_tellers  |           450560
 2017-02-05 09:46:25.938519+01 | 1486284385.93852 | pgbench_history  |                0
 2017-02-05 09:46:25.938519+01 | 1486284385.93852 | pgbench_branches |            40960

 2017-02-05 09:46:27.02291+01 | 1486284387.02291 | pgbench_accounts |      13878878208
 2017-02-05 09:46:27.02291+01 | 1486284387.02291 | pgbench_tellers  |           450560
 2017-02-05 09:46:27.02291+01 | 1486284387.02291 | pgbench_history  |                0
 2017-02-05 09:46:27.02291+01 | 1486284387.02291 | pgbench_branches |            40960

 2017-02-05 09:46:28.110607+01 | 1486284388.11061 | pgbench_accounts |      13878878208
 2017-02-05 09:46:28.110607+01 | 1486284388.11061 | pgbench_tellers  |           450560
 2017-02-05 09:46:28.110607+01 | 1486284388.11061 | pgbench_history  |                0
 2017-02-05 09:46:28.110607+01 | 1486284388.11061 | pgbench_branches |            40960

 2017-02-05 09:46:29.194628+01 | 1486284389.19463 | pgbench_accounts |      13878878208
 2017-02-05 09:46:29.194628+01 | 1486284389.19463 | pgbench_tellers  |           450560
 2017-02-05 09:46:29.194628+01 | 1486284389.19463 | pgbench_history  |                0
 2017-02-05 09:46:29.194628+01 | 1486284389.19463 | pgbench_branches |            40960

 2017-02-05 09:46:30.276188+01 | 1486284390.27619 | pgbench_accounts |      13878878208
 2017-02-05 09:46:30.276188+01 | 1486284390.27619 | pgbench_tellers  |           450560
 2017-02-05 09:46:30.276188+01 | 1486284390.27619 | pgbench_history  |                0
 2017-02-05 09:46:30.276188+01 | 1486284390.27619 | pgbench_branches |            40960

 2017-02-05 09:46:31.355254+01 | 1486284391.35525 | pgbench_accounts |      13878878208
 2017-02-05 09:46:31.355254+01 | 1486284391.35525 | pgbench_tellers  |           450560
 2017-02-05 09:46:31.355254+01 | 1486284391.35525 | pgbench_history  |                0
 2017-02-05 09:46:31.355254+01 | 1486284391.35525 | pgbench_branches |            40960

 2017-02-05 09:46:32.423799+01 | 1486284392.4238 | pgbench_accounts |      13878878208
 2017-02-05 09:46:32.423799+01 | 1486284392.4238 | pgbench_tellers  |           450560
 2017-02-05 09:46:32.423799+01 | 1486284392.4238 | pgbench_history  |                0
 2017-02-05 09:46:32.423799+01 | 1486284392.4238 | pgbench_branches |            40960

 2017-02-05 09:46:33.50444+01 | 1486284393.50444 | pgbench_accounts |      13878878208
 2017-02-05 09:46:33.50444+01 | 1486284393.50444 | pgbench_tellers  |           450560
 2017-02-05 09:46:33.50444+01 | 1486284393.50444 | pgbench_history  |                0
 2017-02-05 09:46:33.50444+01 | 1486284393.50444 | pgbench_branches |            40960

 2017-02-05 09:46:34.598969+01 | 1486284394.59897 | pgbench_accounts |      13878878208
 2017-02-05 09:46:34.598969+01 | 1486284394.59897 | pgbench_tellers  |           450560
 2017-02-05 09:46:34.598969+01 | 1486284394.59897 | pgbench_history  |                0
 2017-02-05 09:46:34.598969+01 | 1486284394.59897 | pgbench_branches |            40960

 2017-02-05 09:46:35.674156+01 | 1486284395.67416 | pgbench_accounts |      13878878208
 2017-02-05 09:46:35.674156+01 | 1486284395.67416 | pgbench_tellers  |           450560
 2017-02-05 09:46:35.674156+01 | 1486284395.67416 | pgbench_history  |                0
 2017-02-05 09:46:35.674156+01 | 1486284395.67416 | pgbench_branches |            40960

 2017-02-05 09:46:36.753587+01 | 1486284396.75359 | pgbench_accounts |      13878878208
 2017-02-05 09:46:36.753587+01 | 1486284396.75359 | pgbench_tellers  |           450560
 2017-02-05 09:46:36.753587+01 | 1486284396.75359 | pgbench_history  |                0
 2017-02-05 09:46:36.753587+01 | 1486284396.75359 | pgbench_branches |            40960

 2017-02-05 09:46:37.845966+01 | 1486284397.84597 | pgbench_accounts |      13878878208
 2017-02-05 09:46:37.845966+01 | 1486284397.84597 | pgbench_tellers  |           450560
 2017-02-05 09:46:37.845966+01 | 1486284397.84597 | pgbench_history  |                0
 2017-02-05 09:46:37.845966+01 | 1486284397.84597 | pgbench_branches |            40960

 2017-02-05 09:46:38.940113+01 | 1486284398.94011 | pgbench_accounts |      13878878208
 2017-02-05 09:46:38.940113+01 | 1486284398.94011 | pgbench_tellers  |           450560
 2017-02-05 09:46:38.940113+01 | 1486284398.94011 | pgbench_history  |                0
 2017-02-05 09:46:38.940113+01 | 1486284398.94011 | pgbench_branches |            40960

 2017-02-05 09:46:40.020899+01 | 1486284400.0209 | pgbench_accounts |      13878878208
 2017-02-05 09:46:40.020899+01 | 1486284400.0209 | pgbench_tellers  |           450560
 2017-02-05 09:46:40.020899+01 | 1486284400.0209 | pgbench_history  |                0
 2017-02-05 09:46:40.020899+01 | 1486284400.0209 | pgbench_branches |            40960

 2017-02-05 09:46:41.093308+01 | 1486284401.09331 | pgbench_accounts |      13878878208
 2017-02-05 09:46:41.093308+01 | 1486284401.09331 | pgbench_tellers  |           450560
 2017-02-05 09:46:41.093308+01 | 1486284401.09331 | pgbench_history  |                0
 2017-02-05 09:46:41.093308+01 | 1486284401.09331 | pgbench_branches |            40960

 2017-02-05 09:46:42.170072+01 | 1486284402.17007 | pgbench_accounts |      13878878208
 2017-02-05 09:46:42.170072+01 | 1486284402.17007 | pgbench_tellers  |           450560
 2017-02-05 09:46:42.170072+01 | 1486284402.17007 | pgbench_history  |                0
 2017-02-05 09:46:42.170072+01 | 1486284402.17007 | pgbench_branches |            40960

 2017-02-05 09:46:43.244167+01 | 1486284403.24417 | pgbench_accounts |      13878878208
 2017-02-05 09:46:43.244167+01 | 1486284403.24417 | pgbench_tellers  |           450560
 2017-02-05 09:46:43.244167+01 | 1486284403.24417 | pgbench_history  |                0
 2017-02-05 09:46:43.244167+01 | 1486284403.24417 | pgbench_branches |            40960

 2017-02-05 09:46:44.316942+01 | 1486284404.31694 | pgbench_accounts |      13878878208
 2017-02-05 09:46:44.316942+01 | 1486284404.31694 | pgbench_tellers  |           450560
 2017-02-05 09:46:44.316942+01 | 1486284404.31694 | pgbench_history  |                0
 2017-02-05 09:46:44.316942+01 | 1486284404.31694 | pgbench_branches |            40960

 2017-02-05 09:46:45.397461+01 | 1486284405.39746 | pgbench_accounts |      13878878208
 2017-02-05 09:46:45.397461+01 | 1486284405.39746 | pgbench_tellers  |           450560
 2017-02-05 09:46:45.397461+01 | 1486284405.39746 | pgbench_history  |                0
 2017-02-05 09:46:45.397461+01 | 1486284405.39746 | pgbench_branches |            40960

 2017-02-05 09:46:46.49182+01 | 1486284406.49182 | pgbench_accounts |      13878878208
 2017-02-05 09:46:46.49182+01 | 1486284406.49182 | pgbench_tellers  |           450560
 2017-02-05 09:46:46.49182+01 | 1486284406.49182 | pgbench_history  |                0
 2017-02-05 09:46:46.49182+01 | 1486284406.49182 | pgbench_branches |            40960

 2017-02-05 09:46:47.590658+01 | 1486284407.59066 | pgbench_accounts |      13878878208
 2017-02-05 09:46:47.590658+01 | 1486284407.59066 | pgbench_tellers  |           450560
 2017-02-05 09:46:47.590658+01 | 1486284407.59066 | pgbench_history  |                0
 2017-02-05 09:46:47.590658+01 | 1486284407.59066 | pgbench_branches |            40960

 2017-02-05 09:46:48.676755+01 | 1486284408.67675 | pgbench_accounts |      13878878208
 2017-02-05 09:46:48.676755+01 | 1486284408.67675 | pgbench_tellers  |           450560
 2017-02-05 09:46:48.676755+01 | 1486284408.67675 | pgbench_history  |                0
 2017-02-05 09:46:48.676755+01 | 1486284408.67675 | pgbench_branches |            40960

 2017-02-05 09:46:49.7617+01 | 1486284409.7617 | pgbench_accounts |      13878878208
 2017-02-05 09:46:49.7617+01 | 1486284409.7617 | pgbench_tellers  |           450560
 2017-02-05 09:46:49.7617+01 | 1486284409.7617 | pgbench_history  |                0
 2017-02-05 09:46:49.7617+01 | 1486284409.7617 | pgbench_branches |            40960

 2017-02-05 09:46:50.841571+01 | 1486284410.84157 | pgbench_accounts |      13878878208
 2017-02-05 09:46:50.841571+01 | 1486284410.84157 | pgbench_tellers  |           450560
 2017-02-05 09:46:50.841571+01 | 1486284410.84157 | pgbench_history  |                0
 2017-02-05 09:46:50.841571+01 | 1486284410.84157 | pgbench_branches |            40960

 2017-02-05 09:46:51.915309+01 | 1486284411.91531 | pgbench_accounts |      13878878208
 2017-02-05 09:46:51.915309+01 | 1486284411.91531 | pgbench_tellers  |           450560
 2017-02-05 09:46:51.915309+01 | 1486284411.91531 | pgbench_history  |                0
 2017-02-05 09:46:51.915309+01 | 1486284411.91531 | pgbench_branches |            40960

 2017-02-05 09:46:52.997447+01 | 1486284412.99745 | pgbench_accounts |      13878878208
 2017-02-05 09:46:52.997447+01 | 1486284412.99745 | pgbench_tellers  |           450560
 2017-02-05 09:46:52.997447+01 | 1486284412.99745 | pgbench_history  |                0
 2017-02-05 09:46:52.997447+01 | 1486284412.99745 | pgbench_branches |            40960

 2017-02-05 09:46:54.089507+01 | 1486284414.08951 | pgbench_accounts |      13878878208
 2017-02-05 09:46:54.089507+01 | 1486284414.08951 | pgbench_tellers  |           450560
 2017-02-05 09:46:54.089507+01 | 1486284414.08951 | pgbench_history  |                0
 2017-02-05 09:46:54.089507+01 | 1486284414.08951 | pgbench_branches |            40960

 2017-02-05 09:46:55.196336+01 | 1486284415.19634 | pgbench_accounts |      13878878208
 2017-02-05 09:46:55.196336+01 | 1486284415.19634 | pgbench_tellers  |           450560
 2017-02-05 09:46:55.196336+01 | 1486284415.19634 | pgbench_history  |                0
 2017-02-05 09:46:55.196336+01 | 1486284415.19634 | pgbench_branches |            40960

 2017-02-05 09:46:56.280666+01 | 1486284416.28067 | pgbench_accounts |      13878878208
 2017-02-05 09:46:56.280666+01 | 1486284416.28067 | pgbench_tellers  |           450560
 2017-02-05 09:46:56.280666+01 | 1486284416.28067 | pgbench_history  |                0
 2017-02-05 09:46:56.280666+01 | 1486284416.28067 | pgbench_branches |            40960

 2017-02-05 09:46:57.367852+01 | 1486284417.36785 | pgbench_accounts |      13878878208
 2017-02-05 09:46:57.367852+01 | 1486284417.36785 | pgbench_tellers  |           450560
 2017-02-05 09:46:57.367852+01 | 1486284417.36785 | pgbench_history  |                0
 2017-02-05 09:46:57.367852+01 | 1486284417.36785 | pgbench_branches |            40960

 2017-02-05 09:46:58.461005+01 | 1486284418.461 | pgbench_accounts |      13878878208
 2017-02-05 09:46:58.461005+01 | 1486284418.461 | pgbench_tellers  |           450560
 2017-02-05 09:46:58.461005+01 | 1486284418.461 | pgbench_history  |                0
 2017-02-05 09:46:58.461005+01 | 1486284418.461 | pgbench_branches |            40960

 2017-02-05 09:46:59.556047+01 | 1486284419.55605 | pgbench_accounts |      13878878208
 2017-02-05 09:46:59.556047+01 | 1486284419.55605 | pgbench_tellers  |           450560
 2017-02-05 09:46:59.556047+01 | 1486284419.55605 | pgbench_history  |                0
 2017-02-05 09:46:59.556047+01 | 1486284419.55605 | pgbench_branches |            40960

 2017-02-05 09:47:00.650882+01 | 1486284420.65088 | pgbench_accounts |      13878878208
 2017-02-05 09:47:00.650882+01 | 1486284420.65088 | pgbench_tellers  |           450560
 2017-02-05 09:47:00.650882+01 | 1486284420.65088 | pgbench_history  |                0
 2017-02-05 09:47:00.650882+01 | 1486284420.65088 | pgbench_branches |            40960

 2017-02-05 09:47:01.746535+01 | 1486284421.74654 | pgbench_accounts |      13878878208
 2017-02-05 09:47:01.746535+01 | 1486284421.74654 | pgbench_tellers  |           450560
 2017-02-05 09:47:01.746535+01 | 1486284421.74654 | pgbench_history  |                0
 2017-02-05 09:47:01.746535+01 | 1486284421.74654 | pgbench_branches |            40960

 2017-02-05 09:47:02.830423+01 | 1486284422.83042 | pgbench_accounts |      13878878208
 2017-02-05 09:47:02.830423+01 | 1486284422.83042 | pgbench_tellers  |           450560
 2017-02-05 09:47:02.830423+01 | 1486284422.83042 | pgbench_history  |                0
 2017-02-05 09:47:02.830423+01 | 1486284422.83042 | pgbench_branches |            40960

 2017-02-05 09:47:03.911939+01 | 1486284423.91194 | pgbench_accounts |      13878878208
 2017-02-05 09:47:03.911939+01 | 1486284423.91194 | pgbench_tellers  |           450560
 2017-02-05 09:47:03.911939+01 | 1486284423.91194 | pgbench_history  |                0
 2017-02-05 09:47:03.911939+01 | 1486284423.91194 | pgbench_branches |            40960

 2017-02-05 09:47:04.99928+01 | 1486284424.99928 | pgbench_accounts |      13878878208
 2017-02-05 09:47:04.99928+01 | 1486284424.99928 | pgbench_tellers  |           450560
 2017-02-05 09:47:04.99928+01 | 1486284424.99928 | pgbench_history  |                0
 2017-02-05 09:47:04.99928+01 | 1486284424.99928 | pgbench_branches |            40960

 2017-02-05 09:47:06.082469+01 | 1486284426.08247 | pgbench_accounts |      13878878208
 2017-02-05 09:47:06.082469+01 | 1486284426.08247 | pgbench_tellers  |           450560
 2017-02-05 09:47:06.082469+01 | 1486284426.08247 | pgbench_history  |                0
 2017-02-05 09:47:06.082469+01 | 1486284426.08247 | pgbench_branches |            40960

 2017-02-05 09:47:07.159107+01 | 1486284427.15911 | pgbench_accounts |      13878878208
 2017-02-05 09:47:07.159107+01 | 1486284427.15911 | pgbench_tellers  |           450560
 2017-02-05 09:47:07.159107+01 | 1486284427.15911 | pgbench_history  |                0
 2017-02-05 09:47:07.159107+01 | 1486284427.15911 | pgbench_branches |            40960

 2017-02-05 09:47:08.236963+01 | 1486284428.23696 | pgbench_accounts |      13878878208
 2017-02-05 09:47:08.236963+01 | 1486284428.23696 | pgbench_tellers  |           450560
 2017-02-05 09:47:08.236963+01 | 1486284428.23696 | pgbench_history  |                0
 2017-02-05 09:47:08.236963+01 | 1486284428.23696 | pgbench_branches |            40960

 2017-02-05 09:47:09.32657+01 | 1486284429.32657 | pgbench_accounts |      13878878208
 2017-02-05 09:47:09.32657+01 | 1486284429.32657 | pgbench_tellers  |           450560
 2017-02-05 09:47:09.32657+01 | 1486284429.32657 | pgbench_history  |                0
 2017-02-05 09:47:09.32657+01 | 1486284429.32657 | pgbench_branches |            40960

 2017-02-05 09:47:10.423507+01 | 1486284430.42351 | pgbench_accounts |      13878878208
 2017-02-05 09:47:10.423507+01 | 1486284430.42351 | pgbench_tellers  |           450560
 2017-02-05 09:47:10.423507+01 | 1486284430.42351 | pgbench_history  |                0
 2017-02-05 09:47:10.423507+01 | 1486284430.42351 | pgbench_branches |            40960

 2017-02-05 09:47:11.504642+01 | 1486284431.50464 | pgbench_accounts |      13878878208
 2017-02-05 09:47:11.504642+01 | 1486284431.50464 | pgbench_tellers  |           450560
 2017-02-05 09:47:11.504642+01 | 1486284431.50464 | pgbench_history  |                0
 2017-02-05 09:47:11.504642+01 | 1486284431.50464 | pgbench_branches |            40960

 2017-02-05 09:47:12.602198+01 | 1486284432.6022 | pgbench_accounts |      13878878208
 2017-02-05 09:47:12.602198+01 | 1486284432.6022 | pgbench_tellers  |           450560
 2017-02-05 09:47:12.602198+01 | 1486284432.6022 | pgbench_history  |                0
 2017-02-05 09:47:12.602198+01 | 1486284432.6022 | pgbench_branches |            40960

 2017-02-05 09:47:13.685734+01 | 1486284433.68573 | pgbench_accounts |      13878878208
 2017-02-05 09:47:13.685734+01 | 1486284433.68573 | pgbench_tellers  |           450560
 2017-02-05 09:47:13.685734+01 | 1486284433.68573 | pgbench_history  |                0
 2017-02-05 09:47:13.685734+01 | 1486284433.68573 | pgbench_branches |            40960

 2017-02-05 09:47:14.781641+01 | 1486284434.78164 | pgbench_accounts |      13878878208
 2017-02-05 09:47:14.781641+01 | 1486284434.78164 | pgbench_tellers  |           450560
 2017-02-05 09:47:14.781641+01 | 1486284434.78164 | pgbench_history  |                0
 2017-02-05 09:47:14.781641+01 | 1486284434.78164 | pgbench_branches |            40960

 2017-02-05 09:47:15.874833+01 | 1486284435.87483 | pgbench_accounts |      13878878208
 2017-02-05 09:47:15.874833+01 | 1486284435.87483 | pgbench_tellers  |           450560
 2017-02-05 09:47:15.874833+01 | 1486284435.87483 | pgbench_history  |                0
 2017-02-05 09:47:15.874833+01 | 1486284435.87483 | pgbench_branches |            40960

 2017-02-05 09:47:16.956347+01 | 1486284436.95635 | pgbench_accounts |      13878878208
 2017-02-05 09:47:16.956347+01 | 1486284436.95635 | pgbench_tellers  |           450560
 2017-02-05 09:47:16.956347+01 | 1486284436.95635 | pgbench_history  |                0
 2017-02-05 09:47:16.956347+01 | 1486284436.95635 | pgbench_branches |            40960

 2017-02-05 09:47:18.052279+01 | 1486284438.05228 | pgbench_accounts |      13878878208
 2017-02-05 09:47:18.052279+01 | 1486284438.05228 | pgbench_tellers  |           450560
 2017-02-05 09:47:18.052279+01 | 1486284438.05228 | pgbench_history  |                0
 2017-02-05 09:47:18.052279+01 | 1486284438.05228 | pgbench_branches |            40960

 2017-02-05 09:47:19.152948+01 | 1486284439.15295 | pgbench_accounts |      13878878208
 2017-02-05 09:47:19.152948+01 | 1486284439.15295 | pgbench_tellers  |           450560
 2017-02-05 09:47:19.152948+01 | 1486284439.15295 | pgbench_history  |                0
 2017-02-05 09:47:19.152948+01 | 1486284439.15295 | pgbench_branches |            40960

 2017-02-05 09:47:20.255555+01 | 1486284440.25555 | pgbench_accounts |      13878878208
 2017-02-05 09:47:20.255555+01 | 1486284440.25555 | pgbench_tellers  |           450560
 2017-02-05 09:47:20.255555+01 | 1486284440.25555 | pgbench_history  |                0
 2017-02-05 09:47:20.255555+01 | 1486284440.25555 | pgbench_branches |            40960

 2017-02-05 09:47:21.359474+01 | 1486284441.35947 | pgbench_accounts |      13878878208
 2017-02-05 09:47:21.359474+01 | 1486284441.35947 | pgbench_tellers  |           450560
 2017-02-05 09:47:21.359474+01 | 1486284441.35947 | pgbench_history  |                0
 2017-02-05 09:47:21.359474+01 | 1486284441.35947 | pgbench_branches |            40960

 2017-02-05 09:47:22.449826+01 | 1486284442.44983 | pgbench_accounts |      13878878208
 2017-02-05 09:47:22.449826+01 | 1486284442.44983 | pgbench_tellers  |           450560
 2017-02-05 09:47:22.449826+01 | 1486284442.44983 | pgbench_history  |                0
 2017-02-05 09:47:22.449826+01 | 1486284442.44983 | pgbench_branches |            40960

 2017-02-05 09:47:23.541135+01 | 1486284443.54114 | pgbench_accounts |      13878878208
 2017-02-05 09:47:23.541135+01 | 1486284443.54114 | pgbench_tellers  |           450560
 2017-02-05 09:47:23.541135+01 | 1486284443.54114 | pgbench_history  |                0
 2017-02-05 09:47:23.541135+01 | 1486284443.54114 | pgbench_branches |            40960

 2017-02-05 09:47:24.61543+01 | 1486284444.61543 | pgbench_accounts |      13878878208
 2017-02-05 09:47:24.61543+01 | 1486284444.61543 | pgbench_tellers  |           450560
 2017-02-05 09:47:24.61543+01 | 1486284444.61543 | pgbench_history  |                0
 2017-02-05 09:47:24.61543+01 | 1486284444.61543 | pgbench_branches |            40960

 2017-02-05 09:47:25.694822+01 | 1486284445.69482 | pgbench_accounts |      13878878208
 2017-02-05 09:47:25.694822+01 | 1486284445.69482 | pgbench_tellers  |           450560
 2017-02-05 09:47:25.694822+01 | 1486284445.69482 | pgbench_history  |                0
 2017-02-05 09:47:25.694822+01 | 1486284445.69482 | pgbench_branches |            40960

 2017-02-05 09:47:26.793648+01 | 1486284446.79365 | pgbench_accounts |      13878878208
 2017-02-05 09:47:26.793648+01 | 1486284446.79365 | pgbench_tellers  |           450560
 2017-02-05 09:47:26.793648+01 | 1486284446.79365 | pgbench_history  |                0
 2017-02-05 09:47:26.793648+01 | 1486284446.79365 | pgbench_branches |            40960

 2017-02-05 09:47:27.87716+01 | 1486284447.87716 | pgbench_accounts |      13878878208
 2017-02-05 09:47:27.87716+01 | 1486284447.87716 | pgbench_tellers  |           450560
 2017-02-05 09:47:27.87716+01 | 1486284447.87716 | pgbench_history  |                0
 2017-02-05 09:47:27.87716+01 | 1486284447.87716 | pgbench_branches |            40960

 2017-02-05 09:47:28.964107+01 | 1486284448.96411 | pgbench_accounts |      13878878208
 2017-02-05 09:47:28.964107+01 | 1486284448.96411 | pgbench_tellers  |           450560
 2017-02-05 09:47:28.964107+01 | 1486284448.96411 | pgbench_history  |                0
 2017-02-05 09:47:28.964107+01 | 1486284448.96411 | pgbench_branches |            40960

 2017-02-05 09:47:30.050007+01 | 1486284450.05001 | pgbench_accounts |      13878878208
 2017-02-05 09:47:30.050007+01 | 1486284450.05001 | pgbench_tellers  |           450560
 2017-02-05 09:47:30.050007+01 | 1486284450.05001 | pgbench_history  |                0
 2017-02-05 09:47:30.050007+01 | 1486284450.05001 | pgbench_branches |            40960

 2017-02-05 09:47:31.158742+01 | 1486284451.15874 | pgbench_accounts |      13878878208
 2017-02-05 09:47:31.158742+01 | 1486284451.15874 | pgbench_tellers  |           450560
 2017-02-05 09:47:31.158742+01 | 1486284451.15874 | pgbench_history  |                0
 2017-02-05 09:47:31.158742+01 | 1486284451.15874 | pgbench_branches |            40960

 2017-02-05 09:47:32.257145+01 | 1486284452.25714 | pgbench_accounts |      13878878208
 2017-02-05 09:47:32.257145+01 | 1486284452.25714 | pgbench_tellers  |           450560
 2017-02-05 09:47:32.257145+01 | 1486284452.25714 | pgbench_history  |                0
 2017-02-05 09:47:32.257145+01 | 1486284452.25714 | pgbench_branches |            40960

 2017-02-05 09:47:33.343031+01 | 1486284453.34303 | pgbench_accounts |      13878878208
 2017-02-05 09:47:33.343031+01 | 1486284453.34303 | pgbench_tellers  |           450560
 2017-02-05 09:47:33.343031+01 | 1486284453.34303 | pgbench_history  |                0
 2017-02-05 09:47:33.343031+01 | 1486284453.34303 | pgbench_branches |            40960

 2017-02-05 09:47:34.426082+01 | 1486284454.42608 | pgbench_accounts |      13878878208
 2017-02-05 09:47:34.426082+01 | 1486284454.42608 | pgbench_tellers  |           450560
 2017-02-05 09:47:34.426082+01 | 1486284454.42608 | pgbench_history  |                0
 2017-02-05 09:47:34.426082+01 | 1486284454.42608 | pgbench_branches |            40960

 2017-02-05 09:47:35.529784+01 | 1486284455.52978 | pgbench_accounts |      13878878208
 2017-02-05 09:47:35.529784+01 | 1486284455.52978 | pgbench_tellers  |           450560
 2017-02-05 09:47:35.529784+01 | 1486284455.52978 | pgbench_history  |                0
 2017-02-05 09:47:35.529784+01 | 1486284455.52978 | pgbench_branches |            40960

 2017-02-05 09:47:36.634214+01 | 1486284456.63421 | pgbench_accounts |      13878878208
 2017-02-05 09:47:36.634214+01 | 1486284456.63421 | pgbench_tellers  |           450560
 2017-02-05 09:47:36.634214+01 | 1486284456.63421 | pgbench_history  |                0
 2017-02-05 09:47:36.634214+01 | 1486284456.63421 | pgbench_branches |            40960

 2017-02-05 09:47:37.737976+01 | 1486284457.73798 | pgbench_accounts |      13878878208
 2017-02-05 09:47:37.737976+01 | 1486284457.73798 | pgbench_tellers  |           450560
 2017-02-05 09:47:37.737976+01 | 1486284457.73798 | pgbench_history  |                0
 2017-02-05 09:47:37.737976+01 | 1486284457.73798 | pgbench_branches |            40960

 2017-02-05 09:47:38.827223+01 | 1486284458.82722 | pgbench_accounts |      13878878208
 2017-02-05 09:47:38.827223+01 | 1486284458.82722 | pgbench_tellers  |           450560
 2017-02-05 09:47:38.827223+01 | 1486284458.82722 | pgbench_history  |                0
 2017-02-05 09:47:38.827223+01 | 1486284458.82722 | pgbench_branches |            40960

 2017-02-05 09:47:39.921833+01 | 1486284459.92183 | pgbench_accounts |      13878878208
 2017-02-05 09:47:39.921833+01 | 1486284459.92183 | pgbench_tellers  |           450560
 2017-02-05 09:47:39.921833+01 | 1486284459.92183 | pgbench_history  |                0
 2017-02-05 09:47:39.921833+01 | 1486284459.92183 | pgbench_branches |            40960

 2017-02-05 09:47:40.988318+01 | 1486284460.98832 | pgbench_accounts |      13878878208
 2017-02-05 09:47:40.988318+01 | 1486284460.98832 | pgbench_tellers  |           450560
 2017-02-05 09:47:40.988318+01 | 1486284460.98832 | pgbench_history  |                0
 2017-02-05 09:47:40.988318+01 | 1486284460.98832 | pgbench_branches |            40960

 2017-02-05 09:47:42.073388+01 | 1486284462.07339 | pgbench_accounts |      13878878208
 2017-02-05 09:47:42.073388+01 | 1486284462.07339 | pgbench_tellers  |           450560
 2017-02-05 09:47:42.073388+01 | 1486284462.07339 | pgbench_history  |                0
 2017-02-05 09:47:42.073388+01 | 1486284462.07339 | pgbench_branches |            40960

 2017-02-05 09:47:43.163381+01 | 1486284463.16338 | pgbench_accounts |      13878878208
 2017-02-05 09:47:43.163381+01 | 1486284463.16338 | pgbench_tellers  |           450560
 2017-02-05 09:47:43.163381+01 | 1486284463.16338 | pgbench_history  |                0
 2017-02-05 09:47:43.163381+01 | 1486284463.16338 | pgbench_branches |            40960

 2017-02-05 09:47:44.275611+01 | 1486284464.27561 | pgbench_accounts |      13878878208
 2017-02-05 09:47:44.275611+01 | 1486284464.27561 | pgbench_tellers  |           450560
 2017-02-05 09:47:44.275611+01 | 1486284464.27561 | pgbench_history  |                0
 2017-02-05 09:47:44.275611+01 | 1486284464.27561 | pgbench_branches |            40960

 2017-02-05 09:47:45.358558+01 | 1486284465.35856 | pgbench_accounts |      13878878208
 2017-02-05 09:47:45.358558+01 | 1486284465.35856 | pgbench_tellers  |           450560
 2017-02-05 09:47:45.358558+01 | 1486284465.35856 | pgbench_history  |                0
 2017-02-05 09:47:45.358558+01 | 1486284465.35856 | pgbench_branches |            40960

 2017-02-05 09:47:46.445368+01 | 1486284466.44537 | pgbench_accounts |      13878878208
 2017-02-05 09:47:46.445368+01 | 1486284466.44537 | pgbench_tellers  |           450560
 2017-02-05 09:47:46.445368+01 | 1486284466.44537 | pgbench_history  |                0
 2017-02-05 09:47:46.445368+01 | 1486284466.44537 | pgbench_branches |            40960

 2017-02-05 09:47:47.54858+01 | 1486284467.54858 | pgbench_accounts |      13878878208
 2017-02-05 09:47:47.54858+01 | 1486284467.54858 | pgbench_tellers  |           450560
 2017-02-05 09:47:47.54858+01 | 1486284467.54858 | pgbench_history  |                0
 2017-02-05 09:47:47.54858+01 | 1486284467.54858 | pgbench_branches |            40960

 2017-02-05 09:47:48.643168+01 | 1486284468.64317 | pgbench_accounts |      13878878208
 2017-02-05 09:47:48.643168+01 | 1486284468.64317 | pgbench_tellers  |           450560
 2017-02-05 09:47:48.643168+01 | 1486284468.64317 | pgbench_history  |                0
 2017-02-05 09:47:48.643168+01 | 1486284468.64317 | pgbench_branches |            40960

 2017-02-05 09:47:49.736534+01 | 1486284469.73653 | pgbench_accounts |      13878878208
 2017-02-05 09:47:49.736534+01 | 1486284469.73653 | pgbench_tellers  |           450560
 2017-02-05 09:47:49.736534+01 | 1486284469.73653 | pgbench_history  |                0
 2017-02-05 09:47:49.736534+01 | 1486284469.73653 | pgbench_branches |            40960

 2017-02-05 09:47:50.834413+01 | 1486284470.83441 | pgbench_accounts |      13878878208
 2017-02-05 09:47:50.834413+01 | 1486284470.83441 | pgbench_tellers  |           450560
 2017-02-05 09:47:50.834413+01 | 1486284470.83441 | pgbench_history  |                0
 2017-02-05 09:47:50.834413+01 | 1486284470.83441 | pgbench_branches |            40960

 2017-02-05 09:47:51.919467+01 | 1486284471.91947 | pgbench_accounts |      13878878208
 2017-02-05 09:47:51.919467+01 | 1486284471.91947 | pgbench_tellers  |           450560
 2017-02-05 09:47:51.919467+01 | 1486284471.91947 | pgbench_history  |                0
 2017-02-05 09:47:51.919467+01 | 1486284471.91947 | pgbench_branches |            40960

 2017-02-05 09:47:52.998291+01 | 1486284472.99829 | pgbench_accounts |      13878878208
 2017-02-05 09:47:52.998291+01 | 1486284472.99829 | pgbench_tellers  |           450560
 2017-02-05 09:47:52.998291+01 | 1486284472.99829 | pgbench_history  |                0
 2017-02-05 09:47:52.998291+01 | 1486284472.99829 | pgbench_branches |            40960

 2017-02-05 09:47:54.079328+01 | 1486284474.07933 | pgbench_accounts |      13878878208
 2017-02-05 09:47:54.079328+01 | 1486284474.07933 | pgbench_tellers  |           450560
 2017-02-05 09:47:54.079328+01 | 1486284474.07933 | pgbench_history  |                0
 2017-02-05 09:47:54.079328+01 | 1486284474.07933 | pgbench_branches |            40960

 2017-02-05 09:47:55.164557+01 | 1486284475.16456 | pgbench_accounts |      13878878208
 2017-02-05 09:47:55.164557+01 | 1486284475.16456 | pgbench_tellers  |           450560
 2017-02-05 09:47:55.164557+01 | 1486284475.16456 | pgbench_history  |                0
 2017-02-05 09:47:55.164557+01 | 1486284475.16456 | pgbench_branches |            40960

 2017-02-05 09:47:56.25497+01 | 1486284476.25497 | pgbench_accounts |      13878878208
 2017-02-05 09:47:56.25497+01 | 1486284476.25497 | pgbench_tellers  |           450560
 2017-02-05 09:47:56.25497+01 | 1486284476.25497 | pgbench_history  |                0
 2017-02-05 09:47:56.25497+01 | 1486284476.25497 | pgbench_branches |            40960

 2017-02-05 09:47:57.351724+01 | 1486284477.35172 | pgbench_accounts |      13878878208
 2017-02-05 09:47:57.351724+01 | 1486284477.35172 | pgbench_tellers  |           450560
 2017-02-05 09:47:57.351724+01 | 1486284477.35172 | pgbench_history  |                0
 2017-02-05 09:47:57.351724+01 | 1486284477.35172 | pgbench_branches |            40960

 2017-02-05 09:47:58.450158+01 | 1486284478.45016 | pgbench_accounts |      13878878208
 2017-02-05 09:47:58.450158+01 | 1486284478.45016 | pgbench_tellers  |           450560
 2017-02-05 09:47:58.450158+01 | 1486284478.45016 | pgbench_history  |                0
 2017-02-05 09:47:58.450158+01 | 1486284478.45016 | pgbench_branches |            40960

 2017-02-05 09:47:59.550552+01 | 1486284479.55055 | pgbench_accounts |      13878878208
 2017-02-05 09:47:59.550552+01 | 1486284479.55055 | pgbench_tellers  |           450560
 2017-02-05 09:47:59.550552+01 | 1486284479.55055 | pgbench_history  |                0
 2017-02-05 09:47:59.550552+01 | 1486284479.55055 | pgbench_branches |            40960

 2017-02-05 09:48:00.65062+01 | 1486284480.65062 | pgbench_accounts |      13878878208
 2017-02-05 09:48:00.65062+01 | 1486284480.65062 | pgbench_tellers  |           450560
 2017-02-05 09:48:00.65062+01 | 1486284480.65062 | pgbench_history  |                0
 2017-02-05 09:48:00.65062+01 | 1486284480.65062 | pgbench_branches |            40960

 2017-02-05 09:48:01.735788+01 | 1486284481.73579 | pgbench_accounts |      13878878208
 2017-02-05 09:48:01.735788+01 | 1486284481.73579 | pgbench_tellers  |           450560
 2017-02-05 09:48:01.735788+01 | 1486284481.73579 | pgbench_history  |                0
 2017-02-05 09:48:01.735788+01 | 1486284481.73579 | pgbench_branches |            40960

 2017-02-05 09:48:02.826685+01 | 1486284482.82668 | pgbench_accounts |      13878878208
 2017-02-05 09:48:02.826685+01 | 1486284482.82668 | pgbench_tellers  |           450560
 2017-02-05 09:48:02.826685+01 | 1486284482.82668 | pgbench_history  |                0
 2017-02-05 09:48:02.826685+01 | 1486284482.82668 | pgbench_branches |            40960

 2017-02-05 09:48:03.913284+01 | 1486284483.91328 | pgbench_accounts |      13878878208
 2017-02-05 09:48:03.913284+01 | 1486284483.91328 | pgbench_tellers  |           450560
 2017-02-05 09:48:03.913284+01 | 1486284483.91328 | pgbench_history  |                0
 2017-02-05 09:48:03.913284+01 | 1486284483.91328 | pgbench_branches |            40960

 2017-02-05 09:48:05.003756+01 | 1486284485.00376 | pgbench_accounts |      13878878208
 2017-02-05 09:48:05.003756+01 | 1486284485.00376 | pgbench_tellers  |           450560
 2017-02-05 09:48:05.003756+01 | 1486284485.00376 | pgbench_history  |                0
 2017-02-05 09:48:05.003756+01 | 1486284485.00376 | pgbench_branches |            40960

 2017-02-05 09:48:06.083693+01 | 1486284486.08369 | pgbench_accounts |      13878878208
 2017-02-05 09:48:06.083693+01 | 1486284486.08369 | pgbench_tellers  |           450560
 2017-02-05 09:48:06.083693+01 | 1486284486.08369 | pgbench_history  |                0
 2017-02-05 09:48:06.083693+01 | 1486284486.08369 | pgbench_branches |            40960

 2017-02-05 09:48:07.168816+01 | 1486284487.16882 | pgbench_accounts |      13878878208
 2017-02-05 09:48:07.168816+01 | 1486284487.16882 | pgbench_tellers  |           450560
 2017-02-05 09:48:07.168816+01 | 1486284487.16882 | pgbench_history  |                0
 2017-02-05 09:48:07.168816+01 | 1486284487.16882 | pgbench_branches |            40960

 2017-02-05 09:48:08.253325+01 | 1486284488.25332 | pgbench_accounts |      13878878208
 2017-02-05 09:48:08.253325+01 | 1486284488.25332 | pgbench_tellers  |           450560
 2017-02-05 09:48:08.253325+01 | 1486284488.25332 | pgbench_history  |                0
 2017-02-05 09:48:08.253325+01 | 1486284488.25332 | pgbench_branches |            40960

 2017-02-05 09:48:09.354005+01 | 1486284489.35401 | pgbench_accounts |      13878878208
 2017-02-05 09:48:09.354005+01 | 1486284489.35401 | pgbench_tellers  |           450560
 2017-02-05 09:48:09.354005+01 | 1486284489.35401 | pgbench_history  |                0
 2017-02-05 09:48:09.354005+01 | 1486284489.35401 | pgbench_branches |            40960

 2017-02-05 09:48:10.435437+01 | 1486284490.43544 | pgbench_accounts |      13878878208
 2017-02-05 09:48:10.435437+01 | 1486284490.43544 | pgbench_tellers  |           450560
 2017-02-05 09:48:10.435437+01 | 1486284490.43544 | pgbench_history  |                0
 2017-02-05 09:48:10.435437+01 | 1486284490.43544 | pgbench_branches |            40960

 2017-02-05 09:48:11.528262+01 | 1486284491.52826 | pgbench_accounts |      13878878208
 2017-02-05 09:48:11.528262+01 | 1486284491.52826 | pgbench_tellers  |           450560
 2017-02-05 09:48:11.528262+01 | 1486284491.52826 | pgbench_history  |                0
 2017-02-05 09:48:11.528262+01 | 1486284491.52826 | pgbench_branches |            40960

 2017-02-05 09:48:12.626263+01 | 1486284492.62626 | pgbench_accounts |      13878878208
 2017-02-05 09:48:12.626263+01 | 1486284492.62626 | pgbench_tellers  |           450560
 2017-02-05 09:48:12.626263+01 | 1486284492.62626 | pgbench_history  |                0
 2017-02-05 09:48:12.626263+01 | 1486284492.62626 | pgbench_branches |            40960

 2017-02-05 09:48:13.712053+01 | 1486284493.71205 | pgbench_accounts |      13878878208
 2017-02-05 09:48:13.712053+01 | 1486284493.71205 | pgbench_tellers  |           450560
 2017-02-05 09:48:13.712053+01 | 1486284493.71205 | pgbench_history  |                0
 2017-02-05 09:48:13.712053+01 | 1486284493.71205 | pgbench_branches |            40960

 2017-02-05 09:48:14.799677+01 | 1486284494.79968 | pgbench_accounts |      13878878208
 2017-02-05 09:48:14.799677+01 | 1486284494.79968 | pgbench_tellers  |           450560
 2017-02-05 09:48:14.799677+01 | 1486284494.79968 | pgbench_history  |                0
 2017-02-05 09:48:14.799677+01 | 1486284494.79968 | pgbench_branches |            40960

 2017-02-05 09:48:15.891809+01 | 1486284495.89181 | pgbench_accounts |      13878878208
 2017-02-05 09:48:15.891809+01 | 1486284495.89181 | pgbench_tellers  |           450560
 2017-02-05 09:48:15.891809+01 | 1486284495.89181 | pgbench_history  |                0
 2017-02-05 09:48:15.891809+01 | 1486284495.89181 | pgbench_branches |            40960

 2017-02-05 09:48:16.987087+01 | 1486284496.98709 | pgbench_accounts |      13878878208
 2017-02-05 09:48:16.987087+01 | 1486284496.98709 | pgbench_tellers  |           450560
 2017-02-05 09:48:16.987087+01 | 1486284496.98709 | pgbench_history  |                0
 2017-02-05 09:48:16.987087+01 | 1486284496.98709 | pgbench_branches |            40960

 2017-02-05 09:48:18.073097+01 | 1486284498.0731 | pgbench_accounts |      13878878208
 2017-02-05 09:48:18.073097+01 | 1486284498.0731 | pgbench_tellers  |           450560
 2017-02-05 09:48:18.073097+01 | 1486284498.0731 | pgbench_history  |                0
 2017-02-05 09:48:18.073097+01 | 1486284498.0731 | pgbench_branches |            40960

 2017-02-05 09:48:19.180708+01 | 1486284499.18071 | pgbench_accounts |      13878878208
 2017-02-05 09:48:19.180708+01 | 1486284499.18071 | pgbench_tellers  |           450560
 2017-02-05 09:48:19.180708+01 | 1486284499.18071 | pgbench_history  |                0
 2017-02-05 09:48:19.180708+01 | 1486284499.18071 | pgbench_branches |            40960

 2017-02-05 09:48:20.275369+01 | 1486284500.27537 | pgbench_accounts |      13878878208
 2017-02-05 09:48:20.275369+01 | 1486284500.27537 | pgbench_tellers  |           450560
 2017-02-05 09:48:20.275369+01 | 1486284500.27537 | pgbench_history  |                0
 2017-02-05 09:48:20.275369+01 | 1486284500.27537 | pgbench_branches |            40960

 2017-02-05 09:48:21.371914+01 | 1486284501.37191 | pgbench_accounts |      13878878208
 2017-02-05 09:48:21.371914+01 | 1486284501.37191 | pgbench_tellers  |           450560
 2017-02-05 09:48:21.371914+01 | 1486284501.37191 | pgbench_history  |                0
 2017-02-05 09:48:21.371914+01 | 1486284501.37191 | pgbench_branches |            40960

 2017-02-05 09:48:22.465242+01 | 1486284502.46524 | pgbench_accounts |      13878878208
 2017-02-05 09:48:22.465242+01 | 1486284502.46524 | pgbench_tellers  |           450560
 2017-02-05 09:48:22.465242+01 | 1486284502.46524 | pgbench_history  |                0
 2017-02-05 09:48:22.465242+01 | 1486284502.46524 | pgbench_branches |            40960

 2017-02-05 09:48:23.567003+01 | 1486284503.567 | pgbench_accounts |      13878878208
 2017-02-05 09:48:23.567003+01 | 1486284503.567 | pgbench_tellers  |           450560
 2017-02-05 09:48:23.567003+01 | 1486284503.567 | pgbench_history  |                0
 2017-02-05 09:48:23.567003+01 | 1486284503.567 | pgbench_branches |            40960

 2017-02-05 09:48:24.646999+01 | 1486284504.647 | pgbench_accounts |      13878878208
 2017-02-05 09:48:24.646999+01 | 1486284504.647 | pgbench_tellers  |           450560
 2017-02-05 09:48:24.646999+01 | 1486284504.647 | pgbench_history  |                0
 2017-02-05 09:48:24.646999+01 | 1486284504.647 | pgbench_branches |            40960

 2017-02-05 09:48:25.72989+01 | 1486284505.72989 | pgbench_accounts |      13878878208
 2017-02-05 09:48:25.72989+01 | 1486284505.72989 | pgbench_tellers  |           450560
 2017-02-05 09:48:25.72989+01 | 1486284505.72989 | pgbench_history  |                0
 2017-02-05 09:48:25.72989+01 | 1486284505.72989 | pgbench_branches |            40960

 2017-02-05 09:48:26.814606+01 | 1486284506.81461 | pgbench_accounts |      13878878208
 2017-02-05 09:48:26.814606+01 | 1486284506.81461 | pgbench_tellers  |           450560
 2017-02-05 09:48:26.814606+01 | 1486284506.81461 | pgbench_history  |                0
 2017-02-05 09:48:26.814606+01 | 1486284506.81461 | pgbench_branches |            40960

 2017-02-05 09:48:27.908466+01 | 1486284507.90847 | pgbench_accounts |      13878878208
 2017-02-05 09:48:27.908466+01 | 1486284507.90847 | pgbench_tellers  |           450560
 2017-02-05 09:48:27.908466+01 | 1486284507.90847 | pgbench_history  |                0
 2017-02-05 09:48:27.908466+01 | 1486284507.90847 | pgbench_branches |            40960

 2017-02-05 09:48:28.986909+01 | 1486284508.98691 | pgbench_accounts |      13878878208
 2017-02-05 09:48:28.986909+01 | 1486284508.98691 | pgbench_tellers  |           450560
 2017-02-05 09:48:28.986909+01 | 1486284508.98691 | pgbench_history  |                0
 2017-02-05 09:48:28.986909+01 | 1486284508.98691 | pgbench_branches |            40960

 2017-02-05 09:48:30.052944+01 | 1486284510.05294 | pgbench_accounts |      13878878208
 2017-02-05 09:48:30.052944+01 | 1486284510.05294 | pgbench_tellers  |           450560
 2017-02-05 09:48:30.052944+01 | 1486284510.05294 | pgbench_history  |                0
 2017-02-05 09:48:30.052944+01 | 1486284510.05294 | pgbench_branches |            40960

 2017-02-05 09:48:31.146166+01 | 1486284511.14617 | pgbench_accounts |      13878878208
 2017-02-05 09:48:31.146166+01 | 1486284511.14617 | pgbench_tellers  |           450560
 2017-02-05 09:48:31.146166+01 | 1486284511.14617 | pgbench_history  |                0
 2017-02-05 09:48:31.146166+01 | 1486284511.14617 | pgbench_branches |            40960

 2017-02-05 09:48:32.228788+01 | 1486284512.22879 | pgbench_accounts |      13878878208
 2017-02-05 09:48:32.228788+01 | 1486284512.22879 | pgbench_tellers  |           450560
 2017-02-05 09:48:32.228788+01 | 1486284512.22879 | pgbench_history  |                0
 2017-02-05 09:48:32.228788+01 | 1486284512.22879 | pgbench_branches |            40960

 2017-02-05 09:48:33.298371+01 | 1486284513.29837 | pgbench_accounts |      13878878208
 2017-02-05 09:48:33.298371+01 | 1486284513.29837 | pgbench_tellers  |           450560
 2017-02-05 09:48:33.298371+01 | 1486284513.29837 | pgbench_history  |                0
 2017-02-05 09:48:33.298371+01 | 1486284513.29837 | pgbench_branches |            40960

 2017-02-05 09:48:34.363595+01 | 1486284514.3636 | pgbench_accounts |      13878878208
 2017-02-05 09:48:34.363595+01 | 1486284514.3636 | pgbench_tellers  |           450560
 2017-02-05 09:48:34.363595+01 | 1486284514.3636 | pgbench_history  |                0
 2017-02-05 09:48:34.363595+01 | 1486284514.3636 | pgbench_branches |            40960

 2017-02-05 09:48:35.446606+01 | 1486284515.44661 | pgbench_accounts |      13878878208
 2017-02-05 09:48:35.446606+01 | 1486284515.44661 | pgbench_tellers  |           450560
 2017-02-05 09:48:35.446606+01 | 1486284515.44661 | pgbench_history  |                0
 2017-02-05 09:48:35.446606+01 | 1486284515.44661 | pgbench_branches |            40960

 2017-02-05 09:48:36.539566+01 | 1486284516.53957 | pgbench_accounts |      13878878208
 2017-02-05 09:48:36.539566+01 | 1486284516.53957 | pgbench_tellers  |           450560
 2017-02-05 09:48:36.539566+01 | 1486284516.53957 | pgbench_history  |                0
 2017-02-05 09:48:36.539566+01 | 1486284516.53957 | pgbench_branches |            40960

 2017-02-05 09:48:37.639168+01 | 1486284517.63917 | pgbench_accounts |      13878878208
 2017-02-05 09:48:37.639168+01 | 1486284517.63917 | pgbench_tellers  |           450560
 2017-02-05 09:48:37.639168+01 | 1486284517.63917 | pgbench_history  |                0
 2017-02-05 09:48:37.639168+01 | 1486284517.63917 | pgbench_branches |            40960

 2017-02-05 09:48:38.751492+01 | 1486284518.75149 | pgbench_accounts |      13878878208
 2017-02-05 09:48:38.751492+01 | 1486284518.75149 | pgbench_tellers  |           450560
 2017-02-05 09:48:38.751492+01 | 1486284518.75149 | pgbench_history  |                0
 2017-02-05 09:48:38.751492+01 | 1486284518.75149 | pgbench_branches |            40960

 2017-02-05 09:48:39.840988+01 | 1486284519.84099 | pgbench_accounts |      13878878208
 2017-02-05 09:48:39.840988+01 | 1486284519.84099 | pgbench_tellers  |           450560
 2017-02-05 09:48:39.840988+01 | 1486284519.84099 | pgbench_history  |                0
 2017-02-05 09:48:39.840988+01 | 1486284519.84099 | pgbench_branches |            40960

 2017-02-05 09:48:40.922881+01 | 1486284520.92288 | pgbench_accounts |      13878878208
 2017-02-05 09:48:40.922881+01 | 1486284520.92288 | pgbench_tellers  |           450560
 2017-02-05 09:48:40.922881+01 | 1486284520.92288 | pgbench_history  |                0
 2017-02-05 09:48:40.922881+01 | 1486284520.92288 | pgbench_branches |            40960

 2017-02-05 09:48:42.012223+01 | 1486284522.01222 | pgbench_accounts |      13878878208
 2017-02-05 09:48:42.012223+01 | 1486284522.01222 | pgbench_tellers  |           450560
 2017-02-05 09:48:42.012223+01 | 1486284522.01222 | pgbench_history  |                0
 2017-02-05 09:48:42.012223+01 | 1486284522.01222 | pgbench_branches |            40960

 2017-02-05 09:48:43.112008+01 | 1486284523.11201 | pgbench_accounts |      13878878208
 2017-02-05 09:48:43.112008+01 | 1486284523.11201 | pgbench_tellers  |           450560
 2017-02-05 09:48:43.112008+01 | 1486284523.11201 | pgbench_history  |                0
 2017-02-05 09:48:43.112008+01 | 1486284523.11201 | pgbench_branches |            40960

 2017-02-05 09:48:44.21192+01 | 1486284524.21192 | pgbench_accounts |      13878878208
 2017-02-05 09:48:44.21192+01 | 1486284524.21192 | pgbench_tellers  |           450560
 2017-02-05 09:48:44.21192+01 | 1486284524.21192 | pgbench_history  |                0
 2017-02-05 09:48:44.21192+01 | 1486284524.21192 | pgbench_branches |            40960

 2017-02-05 09:48:45.289512+01 | 1486284525.28951 | pgbench_accounts |      13878878208
 2017-02-05 09:48:45.289512+01 | 1486284525.28951 | pgbench_tellers  |           450560
 2017-02-05 09:48:45.289512+01 | 1486284525.28951 | pgbench_history  |                0
 2017-02-05 09:48:45.289512+01 | 1486284525.28951 | pgbench_branches |            40960

 2017-02-05 09:48:46.365484+01 | 1486284526.36548 | pgbench_accounts |      13878878208
 2017-02-05 09:48:46.365484+01 | 1486284526.36548 | pgbench_tellers  |           450560
 2017-02-05 09:48:46.365484+01 | 1486284526.36548 | pgbench_history  |                0
 2017-02-05 09:48:46.365484+01 | 1486284526.36548 | pgbench_branches |            40960

 2017-02-05 09:48:47.466312+01 | 1486284527.46631 | pgbench_accounts |      13878878208
 2017-02-05 09:48:47.466312+01 | 1486284527.46631 | pgbench_tellers  |           450560
 2017-02-05 09:48:47.466312+01 | 1486284527.46631 | pgbench_history  |                0
 2017-02-05 09:48:47.466312+01 | 1486284527.46631 | pgbench_branches |            40960

 2017-02-05 09:48:48.554243+01 | 1486284528.55424 | pgbench_accounts |      13878878208
 2017-02-05 09:48:48.554243+01 | 1486284528.55424 | pgbench_tellers  |           450560
 2017-02-05 09:48:48.554243+01 | 1486284528.55424 | pgbench_history  |                0
 2017-02-05 09:48:48.554243+01 | 1486284528.55424 | pgbench_branches |            40960

 2017-02-05 09:48:49.641079+01 | 1486284529.64108 | pgbench_accounts |      13878878208
 2017-02-05 09:48:49.641079+01 | 1486284529.64108 | pgbench_tellers  |           450560
 2017-02-05 09:48:49.641079+01 | 1486284529.64108 | pgbench_history  |                0
 2017-02-05 09:48:49.641079+01 | 1486284529.64108 | pgbench_branches |            40960

 2017-02-05 09:48:50.733567+01 | 1486284530.73357 | pgbench_accounts |      13878878208
 2017-02-05 09:48:50.733567+01 | 1486284530.73357 | pgbench_tellers  |           450560
 2017-02-05 09:48:50.733567+01 | 1486284530.73357 | pgbench_history  |                0
 2017-02-05 09:48:50.733567+01 | 1486284530.73357 | pgbench_branches |            40960

 2017-02-05 09:48:51.833998+01 | 1486284531.834 | pgbench_accounts |      13878878208
 2017-02-05 09:48:51.833998+01 | 1486284531.834 | pgbench_tellers  |           450560
 2017-02-05 09:48:51.833998+01 | 1486284531.834 | pgbench_history  |                0
 2017-02-05 09:48:51.833998+01 | 1486284531.834 | pgbench_branches |            40960

 2017-02-05 09:48:52.941156+01 | 1486284532.94116 | pgbench_accounts |      13878878208
 2017-02-05 09:48:52.941156+01 | 1486284532.94116 | pgbench_tellers  |           450560
 2017-02-05 09:48:52.941156+01 | 1486284532.94116 | pgbench_history  |                0
 2017-02-05 09:48:52.941156+01 | 1486284532.94116 | pgbench_branches |            40960

 2017-02-05 09:48:54.049629+01 | 1486284534.04963 | pgbench_accounts |      13878878208
 2017-02-05 09:48:54.049629+01 | 1486284534.04963 | pgbench_tellers  |           450560
 2017-02-05 09:48:54.049629+01 | 1486284534.04963 | pgbench_history  |                0
 2017-02-05 09:48:54.049629+01 | 1486284534.04963 | pgbench_branches |            40960

 2017-02-05 09:48:55.136009+01 | 1486284535.13601 | pgbench_accounts |      13878878208
 2017-02-05 09:48:55.136009+01 | 1486284535.13601 | pgbench_tellers  |           450560
 2017-02-05 09:48:55.136009+01 | 1486284535.13601 | pgbench_history  |                0
 2017-02-05 09:48:55.136009+01 | 1486284535.13601 | pgbench_branches |            40960

 2017-02-05 09:48:56.227699+01 | 1486284536.2277 | pgbench_accounts |      13878878208
 2017-02-05 09:48:56.227699+01 | 1486284536.2277 | pgbench_tellers  |           450560
 2017-02-05 09:48:56.227699+01 | 1486284536.2277 | pgbench_history  |                0
 2017-02-05 09:48:56.227699+01 | 1486284536.2277 | pgbench_branches |            40960

 2017-02-05 09:48:57.336673+01 | 1486284537.33667 | pgbench_accounts |      13878878208
 2017-02-05 09:48:57.336673+01 | 1486284537.33667 | pgbench_tellers  |           450560
 2017-02-05 09:48:57.336673+01 | 1486284537.33667 | pgbench_history  |                0
 2017-02-05 09:48:57.336673+01 | 1486284537.33667 | pgbench_branches |            40960

 2017-02-05 09:48:58.424661+01 | 1486284538.42466 | pgbench_accounts |      13878878208
 2017-02-05 09:48:58.424661+01 | 1486284538.42466 | pgbench_tellers  |           450560
 2017-02-05 09:48:58.424661+01 | 1486284538.42466 | pgbench_history  |                0
 2017-02-05 09:48:58.424661+01 | 1486284538.42466 | pgbench_branches |            40960

 2017-02-05 09:48:59.505346+01 | 1486284539.50535 | pgbench_accounts |      13878878208
 2017-02-05 09:48:59.505346+01 | 1486284539.50535 | pgbench_tellers  |           450560
 2017-02-05 09:48:59.505346+01 | 1486284539.50535 | pgbench_history  |                0
 2017-02-05 09:48:59.505346+01 | 1486284539.50535 | pgbench_branches |            40960

 2017-02-05 09:49:00.589977+01 | 1486284540.58998 | pgbench_accounts |      13878878208
 2017-02-05 09:49:00.589977+01 | 1486284540.58998 | pgbench_tellers  |           450560
 2017-02-05 09:49:00.589977+01 | 1486284540.58998 | pgbench_history  |                0
 2017-02-05 09:49:00.589977+01 | 1486284540.58998 | pgbench_branches |            40960

 2017-02-05 09:49:01.667707+01 | 1486284541.66771 | pgbench_accounts |      13878878208
 2017-02-05 09:49:01.667707+01 | 1486284541.66771 | pgbench_tellers  |           450560
 2017-02-05 09:49:01.667707+01 | 1486284541.66771 | pgbench_history  |                0
 2017-02-05 09:49:01.667707+01 | 1486284541.66771 | pgbench_branches |            40960

 2017-02-05 09:49:02.73881+01 | 1486284542.73881 | pgbench_accounts |      13878878208
 2017-02-05 09:49:02.73881+01 | 1486284542.73881 | pgbench_tellers  |           450560
 2017-02-05 09:49:02.73881+01 | 1486284542.73881 | pgbench_history  |                0
 2017-02-05 09:49:02.73881+01 | 1486284542.73881 | pgbench_branches |            40960

 2017-02-05 09:49:03.826629+01 | 1486284543.82663 | pgbench_accounts |      13878878208
 2017-02-05 09:49:03.826629+01 | 1486284543.82663 | pgbench_tellers  |           450560
 2017-02-05 09:49:03.826629+01 | 1486284543.82663 | pgbench_history  |                0
 2017-02-05 09:49:03.826629+01 | 1486284543.82663 | pgbench_branches |            40960

 2017-02-05 09:49:04.922917+01 | 1486284544.92292 | pgbench_accounts |      13878878208
 2017-02-05 09:49:04.922917+01 | 1486284544.92292 | pgbench_tellers  |           450560
 2017-02-05 09:49:04.922917+01 | 1486284544.92292 | pgbench_history  |                0
 2017-02-05 09:49:04.922917+01 | 1486284544.92292 | pgbench_branches |            40960

 2017-02-05 09:49:06.019368+01 | 1486284546.01937 | pgbench_accounts |      13878878208
 2017-02-05 09:49:06.019368+01 | 1486284546.01937 | pgbench_tellers  |           450560
 2017-02-05 09:49:06.019368+01 | 1486284546.01937 | pgbench_history  |                0
 2017-02-05 09:49:06.019368+01 | 1486284546.01937 | pgbench_branches |            40960

 2017-02-05 09:49:07.117169+01 | 1486284547.11717 | pgbench_accounts |      13878878208
 2017-02-05 09:49:07.117169+01 | 1486284547.11717 | pgbench_tellers  |           450560
 2017-02-05 09:49:07.117169+01 | 1486284547.11717 | pgbench_history  |                0
 2017-02-05 09:49:07.117169+01 | 1486284547.11717 | pgbench_branches |            40960

 2017-02-05 09:49:08.213855+01 | 1486284548.21386 | pgbench_accounts |      13878878208
 2017-02-05 09:49:08.213855+01 | 1486284548.21386 | pgbench_tellers  |           450560
 2017-02-05 09:49:08.213855+01 | 1486284548.21386 | pgbench_history  |                0
 2017-02-05 09:49:08.213855+01 | 1486284548.21386 | pgbench_branches |            40960

 2017-02-05 09:49:09.304082+01 | 1486284549.30408 | pgbench_accounts |      13878878208
 2017-02-05 09:49:09.304082+01 | 1486284549.30408 | pgbench_tellers  |           450560
 2017-02-05 09:49:09.304082+01 | 1486284549.30408 | pgbench_history  |                0
 2017-02-05 09:49:09.304082+01 | 1486284549.30408 | pgbench_branches |            40960

 2017-02-05 09:49:10.373065+01 | 1486284550.37306 | pgbench_accounts |      13878878208
 2017-02-05 09:49:10.373065+01 | 1486284550.37306 | pgbench_tellers  |           450560
 2017-02-05 09:49:10.373065+01 | 1486284550.37306 | pgbench_history  |                0
 2017-02-05 09:49:10.373065+01 | 1486284550.37306 | pgbench_branches |            40960

 2017-02-05 09:49:11.458167+01 | 1486284551.45817 | pgbench_accounts |      13878878208
 2017-02-05 09:49:11.458167+01 | 1486284551.45817 | pgbench_tellers  |           450560
 2017-02-05 09:49:11.458167+01 | 1486284551.45817 | pgbench_history  |                0
 2017-02-05 09:49:11.458167+01 | 1486284551.45817 | pgbench_branches |            40960

 2017-02-05 09:49:12.544847+01 | 1486284552.54485 | pgbench_accounts |      13878878208
 2017-02-05 09:49:12.544847+01 | 1486284552.54485 | pgbench_tellers  |           450560
 2017-02-05 09:49:12.544847+01 | 1486284552.54485 | pgbench_history  |                0
 2017-02-05 09:49:12.544847+01 | 1486284552.54485 | pgbench_branches |            40960

 2017-02-05 09:49:13.639139+01 | 1486284553.63914 | pgbench_accounts |      13878878208
 2017-02-05 09:49:13.639139+01 | 1486284553.63914 | pgbench_tellers  |           450560
 2017-02-05 09:49:13.639139+01 | 1486284553.63914 | pgbench_history  |                0
 2017-02-05 09:49:13.639139+01 | 1486284553.63914 | pgbench_branches |            40960

 2017-02-05 09:49:14.74266+01 | 1486284554.74266 | pgbench_accounts |      13878878208
 2017-02-05 09:49:14.74266+01 | 1486284554.74266 | pgbench_tellers  |           450560
 2017-02-05 09:49:14.74266+01 | 1486284554.74266 | pgbench_history  |                0
 2017-02-05 09:49:14.74266+01 | 1486284554.74266 | pgbench_branches |            40960

 2017-02-05 09:49:15.829708+01 | 1486284555.82971 | pgbench_accounts |      13878878208
 2017-02-05 09:49:15.829708+01 | 1486284555.82971 | pgbench_tellers  |           450560
 2017-02-05 09:49:15.829708+01 | 1486284555.82971 | pgbench_history  |                0
 2017-02-05 09:49:15.829708+01 | 1486284555.82971 | pgbench_branches |            40960

 2017-02-05 09:49:16.924518+01 | 1486284556.92452 | pgbench_accounts |      13878878208
 2017-02-05 09:49:16.924518+01 | 1486284556.92452 | pgbench_tellers  |           450560
 2017-02-05 09:49:16.924518+01 | 1486284556.92452 | pgbench_history  |                0
 2017-02-05 09:49:16.924518+01 | 1486284556.92452 | pgbench_branches |            40960

 2017-02-05 09:49:17.992191+01 | 1486284557.99219 | pgbench_accounts |      13878878208
 2017-02-05 09:49:17.992191+01 | 1486284557.99219 | pgbench_tellers  |           450560
 2017-02-05 09:49:17.992191+01 | 1486284557.99219 | pgbench_history  |                0
 2017-02-05 09:49:17.992191+01 | 1486284557.99219 | pgbench_branches |            40960

 2017-02-05 09:49:19.063785+01 | 1486284559.06379 | pgbench_accounts |      13878878208
 2017-02-05 09:49:19.063785+01 | 1486284559.06379 | pgbench_tellers  |           450560
 2017-02-05 09:49:19.063785+01 | 1486284559.06379 | pgbench_history  |                0
 2017-02-05 09:49:19.063785+01 | 1486284559.06379 | pgbench_branches |            40960

 2017-02-05 09:49:20.143324+01 | 1486284560.14332 | pgbench_accounts |      13878878208
 2017-02-05 09:49:20.143324+01 | 1486284560.14332 | pgbench_tellers  |           450560
 2017-02-05 09:49:20.143324+01 | 1486284560.14332 | pgbench_history  |                0
 2017-02-05 09:49:20.143324+01 | 1486284560.14332 | pgbench_branches |            40960

 2017-02-05 09:49:21.227753+01 | 1486284561.22775 | pgbench_accounts |      13878878208
 2017-02-05 09:49:21.227753+01 | 1486284561.22775 | pgbench_tellers  |           450560
 2017-02-05 09:49:21.227753+01 | 1486284561.22775 | pgbench_history  |                0
 2017-02-05 09:49:21.227753+01 | 1486284561.22775 | pgbench_branches |            40960

 2017-02-05 09:49:22.325965+01 | 1486284562.32596 | pgbench_accounts |      13878878208
 2017-02-05 09:49:22.325965+01 | 1486284562.32596 | pgbench_tellers  |           450560
 2017-02-05 09:49:22.325965+01 | 1486284562.32596 | pgbench_history  |                0
 2017-02-05 09:49:22.325965+01 | 1486284562.32596 | pgbench_branches |            40960

 2017-02-05 09:49:23.431656+01 | 1486284563.43166 | pgbench_accounts |      13878878208
 2017-02-05 09:49:23.431656+01 | 1486284563.43166 | pgbench_tellers  |           450560
 2017-02-05 09:49:23.431656+01 | 1486284563.43166 | pgbench_history  |                0
 2017-02-05 09:49:23.431656+01 | 1486284563.43166 | pgbench_branches |            40960

 2017-02-05 09:49:24.52327+01 | 1486284564.52327 | pgbench_accounts |      13878878208
 2017-02-05 09:49:24.52327+01 | 1486284564.52327 | pgbench_tellers  |           450560
 2017-02-05 09:49:24.52327+01 | 1486284564.52327 | pgbench_history  |                0
 2017-02-05 09:49:24.52327+01 | 1486284564.52327 | pgbench_branches |            40960

 2017-02-05 09:49:25.613529+01 | 1486284565.61353 | pgbench_accounts |      13878878208
 2017-02-05 09:49:25.613529+01 | 1486284565.61353 | pgbench_tellers  |           450560
 2017-02-05 09:49:25.613529+01 | 1486284565.61353 | pgbench_history  |                0
 2017-02-05 09:49:25.613529+01 | 1486284565.61353 | pgbench_branches |            40960

 2017-02-05 09:49:26.709226+01 | 1486284566.70923 | pgbench_accounts |      13878878208
 2017-02-05 09:49:26.709226+01 | 1486284566.70923 | pgbench_tellers  |           450560
 2017-02-05 09:49:26.709226+01 | 1486284566.70923 | pgbench_history  |                0
 2017-02-05 09:49:26.709226+01 | 1486284566.70923 | pgbench_branches |            40960

 2017-02-05 09:49:27.804117+01 | 1486284567.80412 | pgbench_accounts |      13878878208
 2017-02-05 09:49:27.804117+01 | 1486284567.80412 | pgbench_tellers  |           450560
 2017-02-05 09:49:27.804117+01 | 1486284567.80412 | pgbench_history  |                0
 2017-02-05 09:49:27.804117+01 | 1486284567.80412 | pgbench_branches |            40960

 2017-02-05 09:49:28.882688+01 | 1486284568.88269 | pgbench_accounts |      13878878208
 2017-02-05 09:49:28.882688+01 | 1486284568.88269 | pgbench_tellers  |           450560
 2017-02-05 09:49:28.882688+01 | 1486284568.88269 | pgbench_history  |                0
 2017-02-05 09:49:28.882688+01 | 1486284568.88269 | pgbench_branches |            40960

 2017-02-05 09:49:29.953102+01 | 1486284569.9531 | pgbench_accounts |      13878878208
 2017-02-05 09:49:29.953102+01 | 1486284569.9531 | pgbench_tellers  |           450560
 2017-02-05 09:49:29.953102+01 | 1486284569.9531 | pgbench_history  |                0
 2017-02-05 09:49:29.953102+01 | 1486284569.9531 | pgbench_branches |            40960

 2017-02-05 09:49:31.041702+01 | 1486284571.0417 | pgbench_accounts |      13878878208
 2017-02-05 09:49:31.041702+01 | 1486284571.0417 | pgbench_tellers  |           450560
 2017-02-05 09:49:31.041702+01 | 1486284571.0417 | pgbench_history  |                0
 2017-02-05 09:49:31.041702+01 | 1486284571.0417 | pgbench_branches |            40960

 2017-02-05 09:49:32.124058+01 | 1486284572.12406 | pgbench_accounts |      13878878208
 2017-02-05 09:49:32.124058+01 | 1486284572.12406 | pgbench_tellers  |           450560
 2017-02-05 09:49:32.124058+01 | 1486284572.12406 | pgbench_history  |                0
 2017-02-05 09:49:32.124058+01 | 1486284572.12406 | pgbench_branches |            40960

 2017-02-05 09:49:33.212422+01 | 1486284573.21242 | pgbench_accounts |      13878878208
 2017-02-05 09:49:33.212422+01 | 1486284573.21242 | pgbench_tellers  |           450560
 2017-02-05 09:49:33.212422+01 | 1486284573.21242 | pgbench_history  |                0
 2017-02-05 09:49:33.212422+01 | 1486284573.21242 | pgbench_branches |            40960

 2017-02-05 09:49:34.310054+01 | 1486284574.31005 | pgbench_accounts |      13878878208
 2017-02-05 09:49:34.310054+01 | 1486284574.31005 | pgbench_tellers  |           450560
 2017-02-05 09:49:34.310054+01 | 1486284574.31005 | pgbench_history  |                0
 2017-02-05 09:49:34.310054+01 | 1486284574.31005 | pgbench_branches |            40960

 2017-02-05 09:49:35.398767+01 | 1486284575.39877 | pgbench_accounts |      13878878208
 2017-02-05 09:49:35.398767+01 | 1486284575.39877 | pgbench_tellers  |           450560
 2017-02-05 09:49:35.398767+01 | 1486284575.39877 | pgbench_history  |                0
 2017-02-05 09:49:35.398767+01 | 1486284575.39877 | pgbench_branches |            40960

 2017-02-05 09:49:36.480053+01 | 1486284576.48005 | pgbench_accounts |      13878878208
 2017-02-05 09:49:36.480053+01 | 1486284576.48005 | pgbench_tellers  |           450560
 2017-02-05 09:49:36.480053+01 | 1486284576.48005 | pgbench_history  |                0
 2017-02-05 09:49:36.480053+01 | 1486284576.48005 | pgbench_branches |            40960

 2017-02-05 09:49:37.584997+01 | 1486284577.585 | pgbench_accounts |      13878878208
 2017-02-05 09:49:37.584997+01 | 1486284577.585 | pgbench_tellers  |           450560
 2017-02-05 09:49:37.584997+01 | 1486284577.585 | pgbench_history  |                0
 2017-02-05 09:49:37.584997+01 | 1486284577.585 | pgbench_branches |            40960

 2017-02-05 09:49:38.668718+01 | 1486284578.66872 | pgbench_accounts |      13878878208
 2017-02-05 09:49:38.668718+01 | 1486284578.66872 | pgbench_tellers  |           450560
 2017-02-05 09:49:38.668718+01 | 1486284578.66872 | pgbench_history  |                0
 2017-02-05 09:49:38.668718+01 | 1486284578.66872 | pgbench_branches |            40960

 2017-02-05 09:49:39.75909+01 | 1486284579.75909 | pgbench_accounts |      13878878208
 2017-02-05 09:49:39.75909+01 | 1486284579.75909 | pgbench_tellers  |           450560
 2017-02-05 09:49:39.75909+01 | 1486284579.75909 | pgbench_history  |                0
 2017-02-05 09:49:39.75909+01 | 1486284579.75909 | pgbench_branches |            40960

