 2017-02-05 09:44:40.247404+01 | 1486284280.2474 | 60/6F281E0               |          412433416672

 2017-02-05 09:44:41.339348+01 | 1486284281.33935 | 60/19629998              |          412742752664

 2017-02-05 09:44:42.444172+01 | 1486284282.44417 | 60/2DE0F840              |          413086578752

 2017-02-05 09:44:43.550293+01 | 1486284283.55029 | 60/43F8C188              |          413457236360

 2017-02-05 09:44:44.651497+01 | 1486284284.6515 | 60/5892E860              |          413802883168

 2017-02-05 09:44:45.750991+01 | 1486284285.75099 | 60/69398DD8              |          414082239960

 2017-02-05 09:44:46.827269+01 | 1486284286.82727 | 60/7838BB08              |          414333844232

 2017-02-05 09:44:47.89571+01 | 1486284287.89571 | 60/85351100              |          414551707904

 2017-02-05 09:44:48.993319+01 | 1486284288.99332 | 60/92B98CB8              |          414778494136

 2017-02-05 09:44:50.086912+01 | 1486284290.08691 | 60/9F488848              |          414989191240

 2017-02-05 09:44:51.153737+01 | 1486284291.15374 | 60/AAE11398              |          415183737752

 2017-02-05 09:44:52.239526+01 | 1486284292.23953 | 60/B5E121F8              |          415368290808

 2017-02-05 09:44:53.348188+01 | 1486284293.34819 | 60/C0B7A398              |          415550120856

 2017-02-05 09:44:54.44232+01 | 1486284294.44232 | 60/CBF55BC8              |          415738715080

 2017-02-05 09:44:55.510107+01 | 1486284295.51011 | 60/D625D888              |          415909664904

 2017-02-05 09:44:56.610346+01 | 1486284296.61035 | 60/E083CD88              |          416083594632

 2017-02-05 09:44:57.704606+01 | 1486284297.70461 | 60/EB110950              |          416260622672

 2017-02-05 09:44:58.773342+01 | 1486284298.77334 | 60/F446C958              |          416415140184

 2017-02-05 09:44:59.868605+01 | 1486284299.8686 | 60/FDB5CC68              |          416573410408

 2017-02-05 09:45:00.962723+01 | 1486284300.96272 | 61/7616918               |          416735652120

 2017-02-05 09:45:02.028693+01 | 1486284302.02869 | 61/F920368               |          416873055080

 2017-02-05 09:45:03.127014+01 | 1486284303.12701 | 61/18DA16D8              |          417028773592

 2017-02-05 09:45:04.215372+01 | 1486284304.21537 | 61/21797118              |          417173434648

 2017-02-05 09:45:05.288421+01 | 1486284305.28842 | 61/2A33E6C8              |          417319872200

 2017-02-05 09:45:06.392252+01 | 1486284306.39225 | 61/323FC048              |          417454866504

 2017-02-05 09:45:07.503266+01 | 1486284307.50327 | 61/3A9FDEB0              |          417595383472

 2017-02-05 09:45:08.619995+01 | 1486284308.62 | 61/42984A48              |          417729104456

 2017-02-05 09:45:09.727997+01 | 1486284309.728 | 61/4B1624B8              |          417871570104

 2017-02-05 09:45:10.796903+01 | 1486284310.7969 | 61/52998078              |          417997619320

 2017-02-05 09:45:11.898286+01 | 1486284311.89829 | 61/5A814AF8              |          418130250488

 2017-02-05 09:45:13.000826+01 | 1486284313.00083 | 61/61C941D0              |          418252407248

 2017-02-05 09:45:14.101934+01 | 1486284314.10193 | 61/6962C7F8              |          418379909112

 2017-02-05 09:45:15.165522+01 | 1486284315.16552 | 61/701554A0              |          418492273824

 2017-02-05 09:45:16.258687+01 | 1486284316.25869 | 61/76FBB620              |          418608035360

 2017-02-05 09:45:17.344037+01 | 1486284317.34404 | 61/7E4E5130              |          418730889520

 2017-02-05 09:45:18.431605+01 | 1486284318.43161 | 61/85554C40              |          418848787520

 2017-02-05 09:45:19.522781+01 | 1486284319.52278 | 61/8C120280              |          418961818240

 2017-02-05 09:45:20.624634+01 | 1486284320.62463 | 61/930CC980              |          419078916480

 2017-02-05 09:45:21.690575+01 | 1486284321.69057 | 61/9933BD30              |          419182132528

 2017-02-05 09:45:22.770583+01 | 1486284322.77058 | 61/9F3F1BA8              |          419283540904

 2017-02-05 09:45:23.872093+01 | 1486284323.87209 | 61/A5DCF398              |          419394548632

 2017-02-05 09:45:24.97366+01 | 1486284324.97366 | 61/AC319708              |          419500758792

 2017-02-05 09:45:26.069169+01 | 1486284326.06917 | 61/B2F70500              |          419614360832

 2017-02-05 09:45:27.171544+01 | 1486284327.17154 | 61/B99D2F90              |          419725914000

 2017-02-05 09:45:28.250523+01 | 1486284328.25052 | 61/BFC11D30              |          419828931888

 2017-02-05 09:45:29.339523+01 | 1486284329.33952 | 61/C4993168              |          419910201704

 2017-02-05 09:45:30.432732+01 | 1486284330.43273 | 61/C91B0000              |          419985817600

 2017-02-05 09:45:31.537362+01 | 1486284331.53736 | 61/CE045790              |          420068218768

 2017-02-05 09:45:32.606007+01 | 1486284332.60601 | 61/D2B1B2D8              |          420146688728

 2017-02-05 09:45:33.672169+01 | 1486284333.67217 | 61/D6A72F60              |          420213108576

 2017-02-05 09:45:34.773952+01 | 1486284334.77395 | 61/DB60FE28              |          420292394536

 2017-02-05 09:45:35.840255+01 | 1486284335.84026 | 61/DFF96048              |          420369489992

 2017-02-05 09:45:36.92209+01 | 1486284336.92209 | 61/E549D3A8              |          420458648488

 2017-02-05 09:45:38.019297+01 | 1486284338.0193 | 61/EA7A72E8              |          420545721064

 2017-02-05 09:45:39.120028+01 | 1486284339.12003 | 61/EF9E9E38              |          420631977528

 2017-02-05 09:45:40.220066+01 | 1486284340.22007 | 61/F4CC0488              |          420718838920

 2017-02-05 09:45:41.318313+01 | 1486284341.31831 | 61/FA4AE490              |          420811039888

 2017-02-05 09:45:42.395589+01 | 1486284342.39559 | 61/FF9F8BC8              |          420900473800

 2017-02-05 09:45:43.484471+01 | 1486284343.48447 | 62/49F7B68               |          420984355688

 2017-02-05 09:45:44.581072+01 | 1486284344.58107 | 62/9A40F18               |          421068541720

 2017-02-05 09:45:45.676532+01 | 1486284345.67653 | 62/EC3E800               |          421154514944

 2017-02-05 09:45:46.748699+01 | 1486284346.7487 | 62/13CD08C8              |          421238999240

 2017-02-05 09:45:47.856098+01 | 1486284347.8561 | 62/183BC1C0              |          421313364416

 2017-02-05 09:45:48.959023+01 | 1486284348.95902 | 62/1C0CB6B0              |          421377390256

 2017-02-05 09:45:50.041603+01 | 1486284350.0416 | 62/1FDF1318              |          421441508120

 2017-02-05 09:45:51.118664+01 | 1486284351.11866 | 62/232766E8              |          421496579816

 2017-02-05 09:45:52.217608+01 | 1486284352.21761 | 62/26F9E848              |          421560707144

 2017-02-05 09:45:53.29345+01 | 1486284353.29345 | 62/2A0B5E50              |          421612183120

 2017-02-05 09:45:54.388182+01 | 1486284354.38818 | 62/2DC54B88              |          421674699656

 2017-02-05 09:45:55.458628+01 | 1486284355.45863 | 62/31240820              |          421731239968

 2017-02-05 09:45:56.531069+01 | 1486284356.53107 | 62/34390DF8              |          421782949368

 2017-02-05 09:45:57.622288+01 | 1486284357.62229 | 62/378BBC78              |          421838699640

 2017-02-05 09:45:58.702222+01 | 1486284358.70222 | 62/3AC58A00              |          421892819456

 2017-02-05 09:45:59.791712+01 | 1486284359.79171 | 62/3E7F3B00              |          421955320576

 2017-02-05 09:46:00.889681+01 | 1486284360.88968 | 62/42D4BE30              |          422028033584

 2017-02-05 09:46:01.956374+01 | 1486284361.95637 | 62/46CF17F8              |          422094772216

 2017-02-05 09:46:03.053666+01 | 1486284363.05367 | 62/4B0BC8B0              |          422165858480

 2017-02-05 09:46:04.154355+01 | 1486284364.15436 | 62/4EEFFE50              |          422231146064

 2017-02-05 09:46:05.258187+01 | 1486284365.25819 | 62/5345DD58              |          422303882584

 2017-02-05 09:46:06.328103+01 | 1486284366.3281 | 62/56E03C28              |          422364331048

 2017-02-05 09:46:07.418327+01 | 1486284367.41833 | 62/5AB378B0              |          422428506288

 2017-02-05 09:46:08.489967+01 | 1486284368.48997 | 62/5E279BD0              |          422486449104

 2017-02-05 09:46:09.564109+01 | 1486284369.56411 | 62/60F06C40              |          422533164096

 2017-02-05 09:46:10.645689+01 | 1486284370.64569 | 62/641688B8              |          422585993400

 2017-02-05 09:46:11.712632+01 | 1486284371.71263 | 62/66DDF1A0              |          422632616352

 2017-02-05 09:46:12.812486+01 | 1486284372.81249 | 62/69E5B7B8              |          422683457464

 2017-02-05 09:46:13.909688+01 | 1486284373.90969 | 62/6CAAA848              |          422729918536

 2017-02-05 09:46:15.005727+01 | 1486284375.00573 | 62/6F891760              |          422778050400

 2017-02-05 09:46:16.094473+01 | 1486284376.09447 | 62/7275DC90              |          422827121808

 2017-02-05 09:46:17.159755+01 | 1486284377.15975 | 62/761BA000              |          422888316928

 2017-02-05 09:46:18.243091+01 | 1486284378.24309 | 62/798845A0              |          422945768864

 2017-02-05 09:46:19.32721+01 | 1486284379.32721 | 62/7CD040D8              |          423000817880

 2017-02-05 09:46:20.414577+01 | 1486284380.41458 | 62/8058F2E8              |          423060108008

 2017-02-05 09:46:21.503431+01 | 1486284381.50343 | 62/83C83C70              |          423117732976

 2017-02-05 09:46:22.591237+01 | 1486284382.59124 | 62/86F7F458              |          423171191896

 2017-02-05 09:46:23.687614+01 | 1486284383.68761 | 62/8A3A9DF8              |          423225892344

 2017-02-05 09:46:24.778848+01 | 1486284384.77885 | 62/8D4CFD08              |          423277427976

 2017-02-05 09:46:25.880819+01 | 1486284385.88082 | 62/90968770              |          423332579184

 2017-02-05 09:46:26.976406+01 | 1486284386.97641 | 62/940E7DF8              |          423390772728

 2017-02-05 09:46:28.058087+01 | 1486284388.05809 | 62/97091690              |          423440750224

 2017-02-05 09:46:29.151581+01 | 1486284389.15158 | 62/99F6D4E0              |          423489885408

 2017-02-05 09:46:30.220606+01 | 1486284390.22061 | 62/9C0CA3B8              |          423524869048

 2017-02-05 09:46:31.316411+01 | 1486284391.31641 | 62/9E7F3FC8              |          423565934536

 2017-02-05 09:46:32.382145+01 | 1486284392.38214 | 62/A0E29508              |          423605998856

 2017-02-05 09:46:33.45029+01 | 1486284393.45029 | 62/A30AB6E0              |          423642183392

 2017-02-05 09:46:34.544809+01 | 1486284394.54481 | 62/A55FD2F0              |          423681315568

 2017-02-05 09:46:35.629765+01 | 1486284395.62977 | 62/A7ADB650              |          423719974480

 2017-02-05 09:46:36.700615+01 | 1486284396.70061 | 62/A9D4A8D8              |          423756081368

 2017-02-05 09:46:37.786147+01 | 1486284397.78615 | 62/ABCF9DD8              |          423789305304

 2017-02-05 09:46:38.884009+01 | 1486284398.88401 | 62/AE1BD4B8              |          423827854520

 2017-02-05 09:46:39.980247+01 | 1486284399.98025 | 62/B07822B8              |          423867458232

 2017-02-05 09:46:41.051944+01 | 1486284401.05194 | 62/B29A93F0              |          423903269872

 2017-02-05 09:46:42.120276+01 | 1486284402.12028 | 62/B4C425C8              |          423939548616

 2017-02-05 09:46:43.202632+01 | 1486284403.20263 | 62/B7193B58              |          423978679128

 2017-02-05 09:46:44.271993+01 | 1486284404.27199 | 62/B95FDE70              |          424016862832

 2017-02-05 09:46:45.344236+01 | 1486284405.34424 | 62/BC100CE0              |          424061963488

 2017-02-05 09:46:46.436066+01 | 1486284406.43607 | 62/BE9A4290              |          424104575632

 2017-02-05 09:46:47.53512+01 | 1486284407.53512 | 62/C15B5020              |          424150781984

 2017-02-05 09:46:48.624625+01 | 1486284408.62462 | 62/C41204C8              |          424196310216

 2017-02-05 09:46:49.709533+01 | 1486284409.70953 | 62/C6B7E040              |          424240734272

 2017-02-05 09:46:50.791342+01 | 1486284410.79134 | 62/C8F28BF0              |          424278133744

 2017-02-05 09:46:51.87414+01 | 1486284411.87414 | 62/CB9F78E0              |          424323021024

 2017-02-05 09:46:52.937704+01 | 1486284412.9377 | 62/CE30E818              |          424366106648

 2017-02-05 09:46:54.032098+01 | 1486284414.0321 | 62/D09E3210              |          424406823440

 2017-02-05 09:46:55.133784+01 | 1486284415.13378 | 62/D312C0B8              |          424448016568

 2017-02-05 09:46:56.229802+01 | 1486284416.2298 | 62/D57034B8              |          424487695544

 2017-02-05 09:46:57.311663+01 | 1486284417.31166 | 62/D7C991F8              |          424527106552

 2017-02-05 09:46:58.411633+01 | 1486284418.41163 | 62/DA52D198              |          424569655704

 2017-02-05 09:46:59.493763+01 | 1486284419.49376 | 62/DCA1EF28              |          424608395048

 2017-02-05 09:47:00.595528+01 | 1486284420.59553 | 62/DEC91558              |          424644515160

 2017-02-05 09:47:01.686182+01 | 1486284421.68618 | 62/E11209B0              |          424682850736

 2017-02-05 09:47:02.780678+01 | 1486284422.78068 | 62/E35AE690              |          424721180304

 2017-02-05 09:47:03.860907+01 | 1486284423.86091 | 62/E59AC240              |          424758919744

 2017-02-05 09:47:04.944111+01 | 1486284424.94411 | 62/E79E9FD8              |          424792727512

 2017-02-05 09:47:06.039768+01 | 1486284426.03977 | 62/E9E6BD40              |          424831008064

 2017-02-05 09:47:07.111697+01 | 1486284427.1117 | 62/EC198B30              |          424867892016

 2017-02-05 09:47:08.187783+01 | 1486284428.18778 | 62/EE4584B8              |          424904328376

 2017-02-05 09:47:09.265697+01 | 1486284429.2657 | 62/F051DC18              |          424938691608

 2017-02-05 09:47:10.366162+01 | 1486284430.36616 | 62/F270CF78              |          424974274424

 2017-02-05 09:47:11.463572+01 | 1486284431.46357 | 62/F472B178              |          425007952248

 2017-02-05 09:47:12.550792+01 | 1486284432.55079 | 62/F6867550              |          425042802000

 2017-02-05 09:47:13.631987+01 | 1486284433.63199 | 62/F874C608              |          425075197448

 2017-02-05 09:47:14.720252+01 | 1486284434.72025 | 62/FA740B30              |          425108704048

 2017-02-05 09:47:15.821104+01 | 1486284435.8211 | 62/FC706F28              |          425142021928

 2017-02-05 09:47:16.909045+01 | 1486284436.90904 | 62/FE7A3C48              |          425176218696

 2017-02-05 09:47:17.987578+01 | 1486284437.98758 | 63/56EB98                |          425207458712

 2017-02-05 09:47:19.09206+01 | 1486284439.09206 | 63/2310890               |          425238530192

 2017-02-05 09:47:20.189695+01 | 1486284440.18969 | 63/422BAC0               |          425271147200

 2017-02-05 09:47:21.292595+01 | 1486284441.29259 | 63/5EE2FF0               |          425301258224

 2017-02-05 09:47:22.399459+01 | 1486284442.39946 | 63/7EFF018               |          425334927384

 2017-02-05 09:47:23.485689+01 | 1486284443.48569 | 63/9BF3390               |          425365287824

 2017-02-05 09:47:24.574433+01 | 1486284444.57443 | 63/B9DC240               |          425396650560

 2017-02-05 09:47:25.640075+01 | 1486284445.64007 | 63/D3F9740               |          425424033600

 2017-02-05 09:47:26.730584+01 | 1486284446.73058 | 63/EAD72D8               |          425448010456

 2017-02-05 09:47:27.822008+01 | 1486284447.82201 | 63/100ED3C0              |          425471169472

 2017-02-05 09:47:28.910818+01 | 1486284448.91082 | 63/1178E158              |          425494896984

 2017-02-05 09:47:29.999311+01 | 1486284449.99931 | 63/12CA03C0              |          425516991424

 2017-02-05 09:47:31.085972+01 | 1486284451.08597 | 63/1416B0F0              |          425538793712

 2017-02-05 09:47:32.203234+01 | 1486284452.20323 | 63/15731538              |          425561625912

 2017-02-05 09:47:33.292389+01 | 1486284453.29239 | 63/16D9F010              |          425585143824

 2017-02-05 09:47:34.37218+01 | 1486284454.37218 | 63/1814B230              |          425605771824

 2017-02-05 09:47:35.471401+01 | 1486284455.4714 | 63/19452460              |          425625724000

 2017-02-05 09:47:36.572627+01 | 1486284456.57263 | 63/1AAADBD8              |          425649167320

 2017-02-05 09:47:37.684825+01 | 1486284457.68482 | 63/1C5E4888              |          425677703304

 2017-02-05 09:47:38.766799+01 | 1486284458.7668 | 63/1DF85698              |          425704576664

 2017-02-05 09:47:39.868265+01 | 1486284459.86826 | 63/1F7111E8              |          425729266152

 2017-02-05 09:47:40.953606+01 | 1486284460.95361 | 63/20B4F388              |          425750492040

 2017-02-05 09:47:42.020289+01 | 1486284462.02029 | 63/21DD2EB8              |          425769905848

 2017-02-05 09:47:43.11154+01 | 1486284463.11154 | 63/23127A78              |          425790175864

 2017-02-05 09:47:44.202264+01 | 1486284464.20226 | 63/243FAF90              |          425809915792

 2017-02-05 09:47:45.315038+01 | 1486284465.31504 | 63/257AB058              |          425830559832

 2017-02-05 09:47:46.386042+01 | 1486284466.38604 | 63/26786900              |          425847187712

 2017-02-05 09:47:47.486297+01 | 1486284467.4863 | 63/27880870              |          425864988784

 2017-02-05 09:47:48.589585+01 | 1486284468.58959 | 63/28B29808              |          425884555272

 2017-02-05 09:47:49.692944+01 | 1486284469.69294 | 63/29C4B1B0              |          425902518704

 2017-02-05 09:47:50.775607+01 | 1486284470.77561 | 63/2AF59CA8              |          425922501800

 2017-02-05 09:47:51.863464+01 | 1486284471.86346 | 63/2BED8768              |          425938749288

 2017-02-05 09:47:52.952908+01 | 1486284472.95291 | 63/2CF66710              |          425956108048

 2017-02-05 09:47:54.034103+01 | 1486284474.0341 | 63/2E09CAD0              |          425974155984

 2017-02-05 09:47:55.112923+01 | 1486284475.11292 | 63/2F01B6B0              |          425990403760

 2017-02-05 09:47:56.193284+01 | 1486284476.19328 | 63/30085370              |          426007614320

 2017-02-05 09:47:57.295771+01 | 1486284477.29577 | 63/31105AE0              |          426024917728

 2017-02-05 09:47:58.389456+01 | 1486284478.38946 | 63/322D35E0              |          426043586016

 2017-02-05 09:47:59.490281+01 | 1486284479.49028 | 63/3375CBB8              |          426065120184

 2017-02-05 09:48:00.590677+01 | 1486284480.59068 | 63/34B2F7E0              |          426085906400

 2017-02-05 09:48:01.692143+01 | 1486284481.69214 | 63/360F1F18              |          426108722968

 2017-02-05 09:48:02.765538+01 | 1486284482.76554 | 63/37569560              |          426130183520

 2017-02-05 09:48:03.857688+01 | 1486284483.85769 | 63/38928218              |          426150887960

 2017-02-05 09:48:04.94707+01 | 1486284484.94707 | 63/39BDFED0              |          426170515152

 2017-02-05 09:48:06.039544+01 | 1486284486.03954 | 63/3AEBD080              |          426190295168

 2017-02-05 09:48:07.116168+01 | 1486284487.11617 | 63/3C2BA910              |          426211256592

 2017-02-05 09:48:08.203868+01 | 1486284488.20387 | 63/3D60BDE8              |          426231512552

 2017-02-05 09:48:09.293725+01 | 1486284489.29373 | 63/3E87D458              |          426250851416

 2017-02-05 09:48:10.3937+01 | 1486284490.3937 | 63/3FD03B98              |          426272373656

 2017-02-05 09:48:11.462325+01 | 1486284491.46233 | 63/40F4E048              |          426291552328

 2017-02-05 09:48:12.566897+01 | 1486284492.5669 | 63/42129510              |          426310276368

 2017-02-05 09:48:13.670734+01 | 1486284493.67073 | 63/434AA6F8              |          426330728184

 2017-02-05 09:48:14.739874+01 | 1486284494.73987 | 63/445A11C8              |          426348515784

 2017-02-05 09:48:15.83856+01 | 1486284495.83856 | 63/458A8CB8              |          426368470200

 2017-02-05 09:48:16.930234+01 | 1486284496.93023 | 63/46AD38E8              |          426387519720

 2017-02-05 09:48:18.019465+01 | 1486284498.01946 | 63/47D578D8              |          426406934744

 2017-02-05 09:48:19.112441+01 | 1486284499.11244 | 63/48ED0690              |          426425255568

 2017-02-05 09:48:20.219764+01 | 1486284500.21976 | 63/4A0C1AE0              |          426444069600

 2017-02-05 09:48:21.30931+01 | 1486284501.30931 | 63/4B2DCEF0              |          426463055600

 2017-02-05 09:48:22.408367+01 | 1486284502.40837 | 63/4C4C2248              |          426481820232

 2017-02-05 09:48:23.508434+01 | 1486284503.50843 | 63/4D6F48A0              |          426500901024

 2017-02-05 09:48:24.603787+01 | 1486284504.60379 | 63/4E8FE090              |          426519814288

 2017-02-05 09:48:25.674949+01 | 1486284505.67495 | 63/4FA82928              |          426538182952

 2017-02-05 09:48:26.760961+01 | 1486284506.76096 | 63/50A07400              |          426554455040

 2017-02-05 09:48:27.853217+01 | 1486284507.85322 | 63/519AD870              |          426570864752

 2017-02-05 09:48:28.943255+01 | 1486284508.94325 | 63/529C0658              |          426587719256

 2017-02-05 09:48:30.01076+01 | 1486284510.01076 | 63/535BC330              |          426600284976

 2017-02-05 09:48:31.084034+01 | 1486284511.08403 | 63/54125B20              |          426612251424

 2017-02-05 09:48:32.185054+01 | 1486284512.18505 | 63/54EA0078              |          426626383992

 2017-02-05 09:48:33.255713+01 | 1486284513.25571 | 63/55B6A1C8              |          426639794632

 2017-02-05 09:48:34.326641+01 | 1486284514.32664 | 63/567C0CD8              |          426652732632

 2017-02-05 09:48:35.392977+01 | 1486284515.39298 | 63/572B6820              |          426664224800

 2017-02-05 09:48:36.485014+01 | 1486284516.48501 | 63/57EDEC60              |          426676972640

 2017-02-05 09:48:37.577981+01 | 1486284517.57798 | 63/58DA59E8              |          426692467176

 2017-02-05 09:48:38.683202+01 | 1486284518.6832 | 63/59BFBED8              |          426707500760

 2017-02-05 09:48:39.782085+01 | 1486284519.78208 | 63/5AB63038              |          426723651640

 2017-02-05 09:48:40.890323+01 | 1486284520.89032 | 63/5BA48900              |          426739271936

 2017-02-05 09:48:41.950562+01 | 1486284521.95056 | 63/5C7BD880              |          426753382528

 2017-02-05 09:48:43.05602+01 | 1486284523.05602 | 63/5D5D9868              |          426768177256

 2017-02-05 09:48:44.149576+01 | 1486284524.14958 | 63/5E44D850              |          426783332432

 2017-02-05 09:48:45.248577+01 | 1486284525.24858 | 63/5F2CC9C8              |          426798533064

 2017-02-05 09:48:46.315572+01 | 1486284526.31557 | 63/6004B1E0              |          426812682720

 2017-02-05 09:48:47.406632+01 | 1486284527.40663 | 63/60CDD050              |          426825863248

 2017-02-05 09:48:48.502205+01 | 1486284528.5022 | 63/61B4F098              |          426841010328

 2017-02-05 09:48:49.582904+01 | 1486284529.5829 | 63/627F43E8              |          426854269928

 2017-02-05 09:48:50.675894+01 | 1486284530.67589 | 63/634E3DE0              |          426867834336

 2017-02-05 09:48:51.772465+01 | 1486284531.77246 | 63/6434B980              |          426882939264

 2017-02-05 09:48:52.878378+01 | 1486284532.87838 | 63/6508E578              |          426896844152

 2017-02-05 09:48:53.986601+01 | 1486284533.9866 | 63/65E1D670              |          426911061616

 2017-02-05 09:48:55.08488+01 | 1486284535.08488 | 63/66BB5578              |          426925315448

 2017-02-05 09:48:56.168795+01 | 1486284536.1688 | 63/677E8D80              |          426938109312

 2017-02-05 09:48:57.261273+01 | 1486284537.26127 | 63/6841CB78              |          426950904696

 2017-02-05 09:48:58.378757+01 | 1486284538.37876 | 63/6912FC20              |          426964614176

 2017-02-05 09:48:59.45228+01 | 1486284539.45228 | 63/69DE3690              |          426977932944

 2017-02-05 09:49:00.535529+01 | 1486284540.53553 | 63/6A8B5400              |          426989278208

 2017-02-05 09:49:01.620797+01 | 1486284541.6208 | 63/6B34EC58              |          427000392792

 2017-02-05 09:49:02.699604+01 | 1486284542.6996 | 63/6BF57B68              |          427013012328

 2017-02-05 09:49:03.765622+01 | 1486284543.76562 | 63/6CB118D8              |          427025307864

 2017-02-05 09:49:04.865155+01 | 1486284544.86515 | 63/6D748488              |          427038115304

 2017-02-05 09:49:05.965723+01 | 1486284545.96572 | 63/6E276728              |          427049838376

 2017-02-05 09:49:07.052229+01 | 1486284547.05223 | 63/6EE98570              |          427062560112

 2017-02-05 09:49:08.153582+01 | 1486284548.15358 | 63/6FA3D098              |          427074769048

 2017-02-05 09:49:09.257985+01 | 1486284549.25799 | 63/706F59B0              |          427088107952

 2017-02-05 09:49:10.328367+01 | 1486284550.32837 | 63/71220B28              |          427099818792

 2017-02-05 09:49:11.402871+01 | 1486284551.40287 | 63/71D24CB0              |          427111369904

 2017-02-05 09:49:12.494455+01 | 1486284552.49446 | 63/728D01B0              |          427123605936

 2017-02-05 09:49:13.588403+01 | 1486284553.5884 | 63/73428C30              |          427135503408

 2017-02-05 09:49:14.678478+01 | 1486284554.67848 | 63/73F61DE8              |          427147271656

 2017-02-05 09:49:15.779062+01 | 1486284555.77906 | 63/74B4E1E0              |          427159773664

 2017-02-05 09:49:16.868196+01 | 1486284556.8682 | 63/756A66A8              |          427171669672

 2017-02-05 09:49:17.948672+01 | 1486284557.94867 | 63/75F700A8              |          427180884136

 2017-02-05 09:49:19.017571+01 | 1486284559.01757 | 63/76B03640              |          427193022016

 2017-02-05 09:49:20.094005+01 | 1486284560.09401 | 63/77693308              |          427205145352

 2017-02-05 09:49:21.171672+01 | 1486284561.17167 | 63/781827F8              |          427216611320

 2017-02-05 09:49:22.267413+01 | 1486284562.26741 | 63/78B983A0              |          427227186080

 2017-02-05 09:49:23.368321+01 | 1486284563.36832 | 63/7951F8F8              |          427237177592

 2017-02-05 09:49:24.465896+01 | 1486284564.4659 | 63/7AA1FBA8              |          427259198376

 2017-02-05 09:49:25.557288+01 | 1486284565.55729 | 63/7C2234B8              |          427284378808

 2017-02-05 09:49:26.652881+01 | 1486284566.65288 | 63/7DAC8A60              |          427310221920

 2017-02-05 09:49:27.741754+01 | 1486284567.74175 | 63/7F400650              |          427336664656

 2017-02-05 09:49:28.839576+01 | 1486284568.83958 | 63/80D03660              |          427362891360

 2017-02-05 09:49:29.910142+01 | 1486284569.91014 | 63/8268B8A8              |          427389663400

 2017-02-05 09:49:30.982482+01 | 1486284570.98248 | 63/83FB6978              |          427416054136

 2017-02-05 09:49:32.070266+01 | 1486284572.07027 | 63/859E0D08              |          427443490056

 2017-02-05 09:49:33.148817+01 | 1486284573.14882 | 63/8738CA08              |          427470408200

 2017-02-05 09:49:34.252037+01 | 1486284574.25204 | 63/88E95920              |          427498756384

 2017-02-05 09:49:35.345431+01 | 1486284575.34543 | 63/8AB80450              |          427529077840

 2017-02-05 09:49:36.425536+01 | 1486284576.42554 | 63/8C7567E8              |          427558266856

 2017-02-05 09:49:37.517139+01 | 1486284577.51714 | 63/8E415AC0              |          427588410048

 2017-02-05 09:49:38.62532+01 | 1486284578.62532 | 63/90211CB0              |          427619851440

 2017-02-05 09:49:39.699645+01 | 1486284579.69965 | 63/91F13AC0              |          427650267840

