 2017-02-03 11:22:06.205585+01 | 1486117326.20559 | 0/4E39A808               |            1312401416

 2017-02-03 11:22:07.304178+01 | 1486117327.30418 | 0/4E39A808               |            1312401416

 2017-02-03 11:22:08.396433+01 | 1486117328.39643 | 0/4E39A808               |            1312401416

 2017-02-03 11:22:09.495445+01 | 1486117329.49545 | 0/4E39A808               |            1312401416

 2017-02-03 11:22:10.587662+01 | 1486117330.58766 | 0/4E39A808               |            1312401416

 2017-02-03 11:22:11.690864+01 | 1486117331.69086 | 0/4E39A808               |            1312401416

 2017-02-03 11:22:12.807054+01 | 1486117332.80705 | 0/4E39A840               |            1312401472

 2017-02-03 11:22:13.920703+01 | 1486117333.9207 | 0/4E39A840               |            1312401472

 2017-02-03 11:22:15.04667+01 | 1486117335.04667 | 0/4E39A840               |            1312401472

 2017-02-03 11:22:16.197767+01 | 1486117336.19777 | 0/4E39A840               |            1312401472

 2017-02-03 11:22:17.303965+01 | 1486117337.30397 | 0/4E39A840               |            1312401472

 2017-02-03 11:22:18.406983+01 | 1486117338.40698 | 0/4E39A840               |            1312401472

 2017-02-03 11:22:19.502063+01 | 1486117339.50206 | 0/4E39A840               |            1312401472

 2017-02-03 11:22:20.595717+01 | 1486117340.59572 | 0/4E39A840               |            1312401472

 2017-02-03 11:22:21.691626+01 | 1486117341.69163 | 0/4E39A840               |            1312401472

 2017-02-03 11:22:22.796145+01 | 1486117342.79614 | 0/4E39A840               |            1312401472

 2017-02-03 11:22:23.886416+01 | 1486117343.88642 | 0/4E39A840               |            1312401472

 2017-02-03 11:22:25.001072+01 | 1486117345.00107 | 0/4E39A840               |            1312401472

 2017-02-03 11:22:26.103624+01 | 1486117346.10362 | 0/4E39A840               |            1312401472

 2017-02-03 11:22:27.208732+01 | 1486117347.20873 | 0/4E39A840               |            1312401472

 2017-02-03 11:22:28.321428+01 | 1486117348.32143 | 0/4E39A840               |            1312401472

 2017-02-03 11:22:29.417657+01 | 1486117349.41766 | 0/4E39A840               |            1312401472

 2017-02-03 11:22:30.54662+01 | 1486117350.54662 | 0/4E39A840               |            1312401472

 2017-02-03 11:22:31.659379+01 | 1486117351.65938 | 0/4E39A840               |            1312401472

 2017-02-03 11:22:32.755645+01 | 1486117352.75565 | 0/4E39A840               |            1312401472

 2017-02-03 11:22:33.849049+01 | 1486117353.84905 | 0/4E39A840               |            1312401472

 2017-02-03 11:22:34.951448+01 | 1486117354.95145 | 0/4E39A840               |            1312401472

 2017-02-03 11:22:36.047771+01 | 1486117356.04777 | 0/4E39A840               |            1312401472

 2017-02-03 11:22:37.146048+01 | 1486117357.14605 | 0/4E39A840               |            1312401472

 2017-02-03 11:22:38.259064+01 | 1486117358.25906 | 0/4E39A840               |            1312401472

 2017-02-03 11:22:39.378504+01 | 1486117359.3785 | 0/4E39A840               |            1312401472

 2017-02-03 11:22:40.484119+01 | 1486117360.48412 | 0/4E39A840               |            1312401472

 2017-02-03 11:22:41.577911+01 | 1486117361.57791 | 0/4E39A840               |            1312401472

 2017-02-03 11:22:42.749162+01 | 1486117362.74916 | 0/4E39A840               |            1312401472

 2017-02-03 11:22:43.877246+01 | 1486117363.87725 | 0/4E39A840               |            1312401472

 2017-02-03 11:22:44.990222+01 | 1486117364.99022 | 0/4E39A840               |            1312401472

 2017-02-03 11:22:46.080251+01 | 1486117366.08025 | 0/4E39A840               |            1312401472

 2017-02-03 11:22:47.177805+01 | 1486117367.1778 | 0/4E39A840               |            1312401472

 2017-02-03 11:22:48.292592+01 | 1486117368.29259 | 0/4E39A840               |            1312401472

 2017-02-03 11:22:49.392969+01 | 1486117369.39297 | 0/4E39A840               |            1312401472

 2017-02-03 11:22:50.524424+01 | 1486117370.52442 | 0/4E39A840               |            1312401472

 2017-02-03 11:22:51.687611+01 | 1486117371.68761 | 0/4E39A840               |            1312401472

 2017-02-03 11:22:52.798763+01 | 1486117372.79876 | 0/4E39A840               |            1312401472

 2017-02-03 11:22:53.906394+01 | 1486117373.90639 | 0/4E39A840               |            1312401472

 2017-02-03 11:22:55.001947+01 | 1486117375.00195 | 0/4E39A840               |            1312401472

 2017-02-03 11:22:56.089062+01 | 1486117376.08906 | 0/4E39A840               |            1312401472

 2017-02-03 11:22:57.191807+01 | 1486117377.19181 | 0/4E39A840               |            1312401472

 2017-02-03 11:22:58.288773+01 | 1486117378.28877 | 0/4E39A840               |            1312401472

 2017-02-03 11:22:59.395348+01 | 1486117379.39535 | 0/4E39A840               |            1312401472

 2017-02-03 11:23:00.493049+01 | 1486117380.49305 | 0/4E39A840               |            1312401472

 2017-02-03 11:23:01.600782+01 | 1486117381.60078 | 0/4E39A840               |            1312401472

 2017-02-03 11:23:02.705495+01 | 1486117382.7055 | 0/4E39A840               |            1312401472

 2017-02-03 11:23:03.835776+01 | 1486117383.83578 | 0/4E39A840               |            1312401472

 2017-02-03 11:23:04.946263+01 | 1486117384.94626 | 0/4E39A840               |            1312401472

 2017-02-03 11:23:06.062708+01 | 1486117386.06271 | 0/4E39A840               |            1312401472

 2017-02-03 11:23:07.157806+01 | 1486117387.15781 | 0/4E39A840               |            1312401472

 2017-02-03 11:23:08.258698+01 | 1486117388.2587 | 0/4E39A840               |            1312401472

 2017-02-03 11:23:09.351185+01 | 1486117389.35119 | 0/4E39A840               |            1312401472

 2017-02-03 11:23:10.452232+01 | 1486117390.45223 | 0/4E39A840               |            1312401472

 2017-02-03 11:23:11.567005+01 | 1486117391.567 | 0/4E39A840               |            1312401472

 2017-02-03 11:23:12.676885+01 | 1486117392.67688 | 0/4E39A840               |            1312401472

 2017-02-03 11:23:13.772423+01 | 1486117393.77242 | 0/4E39A840               |            1312401472

 2017-02-03 11:23:14.889519+01 | 1486117394.88952 | 0/4E39A840               |            1312401472

 2017-02-03 11:23:16.003819+01 | 1486117396.00382 | 0/4E39A840               |            1312401472

 2017-02-03 11:23:17.107934+01 | 1486117397.10793 | 0/4E39A840               |            1312401472

 2017-02-03 11:23:18.232906+01 | 1486117398.23291 | 0/4E39A840               |            1312401472

 2017-02-03 11:23:19.344383+01 | 1486117399.34438 | 0/4E39A840               |            1312401472

 2017-02-03 11:23:20.452041+01 | 1486117400.45204 | 0/4E39A840               |            1312401472

 2017-02-03 11:23:21.549241+01 | 1486117401.54924 | 0/4E39A840               |            1312401472

 2017-02-03 11:23:22.650214+01 | 1486117402.65021 | 0/4E39A840               |            1312401472

 2017-02-03 11:23:23.751678+01 | 1486117403.75168 | 0/4E39A840               |            1312401472

 2017-02-03 11:23:24.860069+01 | 1486117404.86007 | 0/4E39A840               |            1312401472

 2017-02-03 11:23:25.956043+01 | 1486117405.95604 | 0/4E39A840               |            1312401472

 2017-02-03 11:23:27.062737+01 | 1486117407.06274 | 0/4E39A840               |            1312401472

 2017-02-03 11:23:28.163004+01 | 1486117408.163 | 0/4E39A840               |            1312401472

 2017-02-03 11:23:29.254033+01 | 1486117409.25403 | 0/4E39A840               |            1312401472

 2017-02-03 11:23:30.355802+01 | 1486117410.3558 | 0/4E39A840               |            1312401472

 2017-02-03 11:23:31.441343+01 | 1486117411.44134 | 0/4E39A840               |            1312401472

 2017-02-03 11:23:32.543391+01 | 1486117412.54339 | 0/4E39A840               |            1312401472

 2017-02-03 11:23:33.646519+01 | 1486117413.64652 | 0/4E39A840               |            1312401472

 2017-02-03 11:23:34.7495+01 | 1486117414.7495 | 0/4E39A840               |            1312401472

 2017-02-03 11:23:35.862088+01 | 1486117415.86209 | 0/4E39A840               |            1312401472

 2017-02-03 11:23:36.958218+01 | 1486117416.95822 | 0/4E39A840               |            1312401472

 2017-02-03 11:23:38.063097+01 | 1486117418.0631 | 0/4E39A840               |            1312401472

 2017-02-03 11:23:39.189352+01 | 1486117419.18935 | 0/4E39A840               |            1312401472

 2017-02-03 11:23:40.314098+01 | 1486117420.3141 | 0/4E39A840               |            1312401472

 2017-02-03 11:23:41.428363+01 | 1486117421.42836 | 0/4E39A840               |            1312401472

 2017-02-03 11:23:42.554421+01 | 1486117422.55442 | 0/4E39A840               |            1312401472

 2017-02-03 11:23:43.670615+01 | 1486117423.67061 | 0/4E39A840               |            1312401472

 2017-02-03 11:23:44.766638+01 | 1486117424.76664 | 0/4E39A840               |            1312401472

 2017-02-03 11:23:45.88528+01 | 1486117425.88528 | 0/4E39A840               |            1312401472

 2017-02-03 11:23:46.985465+01 | 1486117426.98547 | 0/4E39A840               |            1312401472

 2017-02-03 11:23:48.114449+01 | 1486117428.11445 | 0/4E39A840               |            1312401472

 2017-02-03 11:23:49.212823+01 | 1486117429.21282 | 0/4E39A840               |            1312401472

 2017-02-03 11:23:50.316956+01 | 1486117430.31696 | 0/4E39A840               |            1312401472

 2017-02-03 11:23:51.4077+01 | 1486117431.4077 | 0/4E39A840               |            1312401472

 2017-02-03 11:23:52.510793+01 | 1486117432.51079 | 0/4E39A840               |            1312401472

 2017-02-03 11:23:53.623925+01 | 1486117433.62392 | 0/4E39A840               |            1312401472

 2017-02-03 11:23:54.735324+01 | 1486117434.73532 | 0/4E39A840               |            1312401472

 2017-02-03 11:23:55.85347+01 | 1486117435.85347 | 0/4E39A840               |            1312401472

 2017-02-03 11:23:56.970068+01 | 1486117436.97007 | 0/4E39A840               |            1312401472

 2017-02-03 11:23:58.066483+01 | 1486117438.06648 | 0/4E39A840               |            1312401472

 2017-02-03 11:23:59.164951+01 | 1486117439.16495 | 0/4E39A840               |            1312401472

 2017-02-03 11:24:00.257705+01 | 1486117440.2577 | 0/4E39A840               |            1312401472

 2017-02-03 11:24:01.356259+01 | 1486117441.35626 | 0/4E39A840               |            1312401472

 2017-02-03 11:24:02.444251+01 | 1486117442.44425 | 0/4E39A840               |            1312401472

 2017-02-03 11:24:03.545337+01 | 1486117443.54534 | 0/4E39A840               |            1312401472

 2017-02-03 11:24:04.642613+01 | 1486117444.64261 | 0/4E39A840               |            1312401472

 2017-02-03 11:24:05.734963+01 | 1486117445.73496 | 0/4E39A840               |            1312401472

 2017-02-03 11:24:06.844852+01 | 1486117446.84485 | 0/4E39A840               |            1312401472

 2017-02-03 11:24:07.957614+01 | 1486117447.95761 | 0/4E39A840               |            1312401472

 2017-02-03 11:24:09.061083+01 | 1486117449.06108 | 0/4E39A840               |            1312401472

 2017-02-03 11:24:10.157473+01 | 1486117450.15747 | 0/4E39A840               |            1312401472

 2017-02-03 11:24:11.253218+01 | 1486117451.25322 | 0/4E39A840               |            1312401472

 2017-02-03 11:24:12.342927+01 | 1486117452.34293 | 0/4E39A840               |            1312401472

 2017-02-03 11:24:13.441576+01 | 1486117453.44158 | 0/4E39A840               |            1312401472

 2017-02-03 11:24:14.536342+01 | 1486117454.53634 | 0/4E39A840               |            1312401472

 2017-02-03 11:24:15.644143+01 | 1486117455.64414 | 0/4E39A840               |            1312401472

 2017-02-03 11:24:16.744623+01 | 1486117456.74462 | 0/4E39A840               |            1312401472

 2017-02-03 11:24:17.861152+01 | 1486117457.86115 | 0/4E39A840               |            1312401472

 2017-02-03 11:24:18.974763+01 | 1486117458.97476 | 0/4E39A840               |            1312401472

 2017-02-03 11:24:20.076262+01 | 1486117460.07626 | 0/4E39A840               |            1312401472

 2017-02-03 11:24:21.178865+01 | 1486117461.17886 | 0/4E39A840               |            1312401472

 2017-02-03 11:24:22.284358+01 | 1486117462.28436 | 0/4E39A840               |            1312401472

 2017-02-03 11:24:23.386036+01 | 1486117463.38604 | 0/4E39A840               |            1312401472

 2017-02-03 11:24:24.482401+01 | 1486117464.4824 | 0/4E39A840               |            1312401472

 2017-02-03 11:24:25.581996+01 | 1486117465.582 | 0/4E39A840               |            1312401472

 2017-02-03 11:24:26.676519+01 | 1486117466.67652 | 0/4E39A840               |            1312401472

 2017-02-03 11:24:27.788749+01 | 1486117467.78875 | 0/4E39A840               |            1312401472

 2017-02-03 11:24:28.896412+01 | 1486117468.89641 | 0/4E39A840               |            1312401472

 2017-02-03 11:24:29.995174+01 | 1486117469.99517 | 0/4E39A840               |            1312401472

 2017-02-03 11:24:31.09706+01 | 1486117471.09706 | 0/4E39A840               |            1312401472

 2017-02-03 11:24:32.199934+01 | 1486117472.19993 | 0/4E39A840               |            1312401472

 2017-02-03 11:24:33.348023+01 | 1486117473.34802 | 0/4E39A840               |            1312401472

 2017-02-03 11:24:34.443463+01 | 1486117474.44346 | 0/4E39A840               |            1312401472

 2017-02-03 11:24:35.567041+01 | 1486117475.56704 | 0/4E39A840               |            1312401472

 2017-02-03 11:24:36.669258+01 | 1486117476.66926 | 0/4E39A840               |            1312401472

 2017-02-03 11:24:37.775527+01 | 1486117477.77553 | 0/4E39A840               |            1312401472

 2017-02-03 11:24:38.872808+01 | 1486117478.87281 | 0/4E39A840               |            1312401472

 2017-02-03 11:24:39.9875+01 | 1486117479.9875 | 0/4E39A840               |            1312401472

 2017-02-03 11:24:41.095435+01 | 1486117481.09543 | 0/4E39A840               |            1312401472

 2017-02-03 11:24:42.19199+01 | 1486117482.19199 | 0/4E39A840               |            1312401472

 2017-02-03 11:24:43.30264+01 | 1486117483.30264 | 0/4E39A840               |            1312401472

 2017-02-03 11:24:44.401362+01 | 1486117484.40136 | 0/4E39A840               |            1312401472

 2017-02-03 11:24:45.537886+01 | 1486117485.53789 | 0/4E39A840               |            1312401472

 2017-02-03 11:24:46.655826+01 | 1486117486.65583 | 0/4E39A840               |            1312401472

 2017-02-03 11:24:47.75602+01 | 1486117487.75602 | 0/4E39A840               |            1312401472

 2017-02-03 11:24:48.861625+01 | 1486117488.86162 | 0/4E39A840               |            1312401472

 2017-02-03 11:24:49.960022+01 | 1486117489.96002 | 0/4E39A840               |            1312401472

 2017-02-03 11:24:51.077156+01 | 1486117491.07716 | 0/4E39A840               |            1312401472

 2017-02-03 11:24:52.188201+01 | 1486117492.1882 | 0/4E39A840               |            1312401472

 2017-02-03 11:24:53.295316+01 | 1486117493.29532 | 0/4E39A840               |            1312401472

 2017-02-03 11:24:54.405604+01 | 1486117494.4056 | 0/4E39A840               |            1312401472

 2017-02-03 11:24:55.502164+01 | 1486117495.50216 | 0/4E39A840               |            1312401472

 2017-02-03 11:24:56.607818+01 | 1486117496.60782 | 0/4E39A840               |            1312401472

 2017-02-03 11:24:57.704915+01 | 1486117497.70492 | 0/4E39A840               |            1312401472

 2017-02-03 11:24:58.818285+01 | 1486117498.81828 | 0/4E39A840               |            1312401472

 2017-02-03 11:24:59.915084+01 | 1486117499.91508 | 0/4E39A840               |            1312401472

 2017-02-03 11:25:01.021685+01 | 1486117501.02168 | 0/4E39A840               |            1312401472

 2017-02-03 11:25:02.124645+01 | 1486117502.12464 | 0/4E39A840               |            1312401472

 2017-02-03 11:25:03.220288+01 | 1486117503.22029 | 0/4E39A840               |            1312401472

 2017-02-03 11:25:04.316608+01 | 1486117504.31661 | 0/4E39A840               |            1312401472

 2017-02-03 11:25:05.415758+01 | 1486117505.41576 | 0/4E39A840               |            1312401472

 2017-02-03 11:25:06.5133+01 | 1486117506.5133 | 0/4E39A840               |            1312401472

 2017-02-03 11:25:07.606325+01 | 1486117507.60632 | 0/4E39A840               |            1312401472

 2017-02-03 11:25:08.708415+01 | 1486117508.70842 | 0/4E39A840               |            1312401472

 2017-02-03 11:25:09.820032+01 | 1486117509.82003 | 0/4E39A840               |            1312401472

 2017-02-03 11:25:10.920861+01 | 1486117510.92086 | 0/4E39A840               |            1312401472

 2017-02-03 11:25:12.034438+01 | 1486117512.03444 | 0/4E39A840               |            1312401472

 2017-02-03 11:25:13.147399+01 | 1486117513.1474 | 0/4E39A840               |            1312401472

 2017-02-03 11:25:14.250587+01 | 1486117514.25059 | 0/4E39A840               |            1312401472

 2017-02-03 11:25:15.356254+01 | 1486117515.35625 | 0/4E39A840               |            1312401472

 2017-02-03 11:25:16.456554+01 | 1486117516.45655 | 0/4E39A840               |            1312401472

 2017-02-03 11:25:17.566184+01 | 1486117517.56618 | 0/4E39A840               |            1312401472

 2017-02-03 11:25:18.670676+01 | 1486117518.67068 | 0/4E39A840               |            1312401472

 2017-02-03 11:25:19.778877+01 | 1486117519.77888 | 0/4E39A840               |            1312401472

 2017-02-03 11:25:20.863794+01 | 1486117520.86379 | 0/4E39A840               |            1312401472

 2017-02-03 11:25:21.991482+01 | 1486117521.99148 | 0/4E39A840               |            1312401472

 2017-02-03 11:25:23.090416+01 | 1486117523.09042 | 0/4E39A840               |            1312401472

 2017-02-03 11:25:24.192501+01 | 1486117524.1925 | 0/4E39A840               |            1312401472

 2017-02-03 11:25:25.30904+01 | 1486117525.30904 | 0/4E39A840               |            1312401472

 2017-02-03 11:25:26.4194+01 | 1486117526.4194 | 0/4E39A840               |            1312401472

 2017-02-03 11:25:27.546593+01 | 1486117527.54659 | 0/4E39A840               |            1312401472

 2017-02-03 11:25:28.642672+01 | 1486117528.64267 | 0/4E39A840               |            1312401472

 2017-02-03 11:25:29.733817+01 | 1486117529.73382 | 0/4E39A840               |            1312401472

 2017-02-03 11:25:30.828219+01 | 1486117530.82822 | 0/4E39A840               |            1312401472

 2017-02-03 11:25:31.946374+01 | 1486117531.94637 | 0/4E39A840               |            1312401472

 2017-02-03 11:25:33.063321+01 | 1486117533.06332 | 0/4E39A840               |            1312401472

 2017-02-03 11:25:34.165881+01 | 1486117534.16588 | 0/4E39A840               |            1312401472

 2017-02-03 11:25:35.262993+01 | 1486117535.26299 | 0/4E39A840               |            1312401472

 2017-02-03 11:25:36.373267+01 | 1486117536.37327 | 0/4E39A840               |            1312401472

 2017-02-03 11:25:37.469769+01 | 1486117537.46977 | 0/4E39A840               |            1312401472

 2017-02-03 11:25:38.565037+01 | 1486117538.56504 | 0/4E39A840               |            1312401472

 2017-02-03 11:25:39.672488+01 | 1486117539.67249 | 0/4E39A840               |            1312401472

 2017-02-03 11:25:40.779661+01 | 1486117540.77966 | 0/4E39A840               |            1312401472

 2017-02-03 11:25:41.883678+01 | 1486117541.88368 | 0/4E39A840               |            1312401472

 2017-02-03 11:25:42.978078+01 | 1486117542.97808 | 0/4E39A840               |            1312401472

 2017-02-03 11:25:44.087207+01 | 1486117544.08721 | 0/4E39A840               |            1312401472

 2017-02-03 11:25:45.180908+01 | 1486117545.18091 | 0/4E39A840               |            1312401472

 2017-02-03 11:25:46.274918+01 | 1486117546.27492 | 0/4E39A840               |            1312401472

 2017-02-03 11:25:47.384608+01 | 1486117547.38461 | 0/4E39A840               |            1312401472

 2017-02-03 11:25:48.475579+01 | 1486117548.47558 | 0/4E39A840               |            1312401472

 2017-02-03 11:25:49.570743+01 | 1486117549.57074 | 0/4E39A840               |            1312401472

 2017-02-03 11:25:50.662994+01 | 1486117550.66299 | 0/4E39A840               |            1312401472

 2017-02-03 11:25:51.771187+01 | 1486117551.77119 | 0/4E39A840               |            1312401472

 2017-02-03 11:25:52.883727+01 | 1486117552.88373 | 0/4E39A840               |            1312401472

 2017-02-03 11:25:53.975128+01 | 1486117553.97513 | 0/4E39A840               |            1312401472

 2017-02-03 11:25:55.069713+01 | 1486117555.06971 | 0/4E39A840               |            1312401472

 2017-02-03 11:25:56.178178+01 | 1486117556.17818 | 0/4E39A840               |            1312401472

 2017-02-03 11:25:57.280236+01 | 1486117557.28024 | 0/4E39A840               |            1312401472

 2017-02-03 11:25:58.378808+01 | 1486117558.37881 | 0/4E39A840               |            1312401472

 2017-02-03 11:25:59.489147+01 | 1486117559.48915 | 0/4E39A840               |            1312401472

 2017-02-03 11:26:00.589295+01 | 1486117560.58929 | 0/4E39A840               |            1312401472

 2017-02-03 11:26:01.707794+01 | 1486117561.70779 | 0/4E39A840               |            1312401472

 2017-02-03 11:26:02.804497+01 | 1486117562.8045 | 0/4E39A840               |            1312401472

 2017-02-03 11:26:03.915791+01 | 1486117563.91579 | 0/4E39A840               |            1312401472

 2017-02-03 11:26:05.026787+01 | 1486117565.02679 | 0/4E39A840               |            1312401472

 2017-02-03 11:26:06.134787+01 | 1486117566.13479 | 0/4E39A840               |            1312401472

 2017-02-03 11:26:07.229335+01 | 1486117567.22934 | 0/4E39A840               |            1312401472

 2017-02-03 11:26:08.330218+01 | 1486117568.33022 | 0/4E39A840               |            1312401472

 2017-02-03 11:26:09.426277+01 | 1486117569.42628 | 0/4E39A840               |            1312401472

 2017-02-03 11:26:10.526288+01 | 1486117570.52629 | 0/4E39A840               |            1312401472

 2017-02-03 11:26:11.620124+01 | 1486117571.62012 | 0/4E39A840               |            1312401472

 2017-02-03 11:26:12.716803+01 | 1486117572.7168 | 0/4E39A840               |            1312401472

 2017-02-03 11:26:13.815992+01 | 1486117573.81599 | 0/4E39A840               |            1312401472

 2017-02-03 11:26:14.915995+01 | 1486117574.91599 | 0/4E39A840               |            1312401472

 2017-02-03 11:26:16.012686+01 | 1486117576.01269 | 0/4E39A840               |            1312401472

 2017-02-03 11:26:17.107948+01 | 1486117577.10795 | 0/4E39A840               |            1312401472

 2017-02-03 11:26:18.195664+01 | 1486117578.19566 | 0/4E39A840               |            1312401472

 2017-02-03 11:26:19.298182+01 | 1486117579.29818 | 0/4E39A840               |            1312401472

 2017-02-03 11:26:20.398947+01 | 1486117580.39895 | 0/4E39A840               |            1312401472

 2017-02-03 11:26:21.505805+01 | 1486117581.50581 | 0/4E39A840               |            1312401472

 2017-02-03 11:26:22.61919+01 | 1486117582.61919 | 0/4E39A840               |            1312401472

 2017-02-03 11:26:23.725652+01 | 1486117583.72565 | 0/4E39A840               |            1312401472

 2017-02-03 11:26:24.823523+01 | 1486117584.82352 | 0/4E39A840               |            1312401472

 2017-02-03 11:26:25.948431+01 | 1486117585.94843 | 0/4E39A840               |            1312401472

 2017-02-03 11:26:27.070363+01 | 1486117587.07036 | 0/4E39A840               |            1312401472

 2017-02-03 11:26:28.169534+01 | 1486117588.16953 | 0/4E39A840               |            1312401472

 2017-02-03 11:26:29.281131+01 | 1486117589.28113 | 0/4E39A840               |            1312401472

 2017-02-03 11:26:30.413046+01 | 1486117590.41305 | 0/4E39A840               |            1312401472

 2017-02-03 11:26:31.527926+01 | 1486117591.52793 | 0/4E39A840               |            1312401472

 2017-02-03 11:26:32.633102+01 | 1486117592.6331 | 0/4E39A840               |            1312401472

 2017-02-03 11:26:33.733128+01 | 1486117593.73313 | 0/4E39A840               |            1312401472

 2017-02-03 11:26:34.840039+01 | 1486117594.84004 | 0/4E39A840               |            1312401472

 2017-02-03 11:26:35.941217+01 | 1486117595.94122 | 0/4E39A840               |            1312401472

 2017-02-03 11:26:37.055683+01 | 1486117597.05568 | 0/4E39A840               |            1312401472

 2017-02-03 11:26:38.174613+01 | 1486117598.17461 | 0/4E39A840               |            1312401472

 2017-02-03 11:26:39.263805+01 | 1486117599.2638 | 0/4E39A840               |            1312401472

 2017-02-03 11:26:40.373045+01 | 1486117600.37304 | 0/4E39A840               |            1312401472

 2017-02-03 11:26:41.488332+01 | 1486117601.48833 | 0/4E39A840               |            1312401472

 2017-02-03 11:26:42.603879+01 | 1486117602.60388 | 0/4E39A840               |            1312401472

 2017-02-03 11:26:43.70299+01 | 1486117603.70299 | 0/4E39A840               |            1312401472

 2017-02-03 11:26:44.795929+01 | 1486117604.79593 | 0/4E39A840               |            1312401472

 2017-02-03 11:26:45.910694+01 | 1486117605.91069 | 0/4E39A840               |            1312401472

 2017-02-03 11:26:47.008229+01 | 1486117607.00823 | 0/4E39A840               |            1312401472

 2017-02-03 11:26:48.101237+01 | 1486117608.10124 | 0/4E39A840               |            1312401472

 2017-02-03 11:26:49.206148+01 | 1486117609.20615 | 0/4E39A840               |            1312401472

 2017-02-03 11:26:50.312467+01 | 1486117610.31247 | 0/4E39A840               |            1312401472

 2017-02-03 11:26:51.42228+01 | 1486117611.42228 | 0/4E39A840               |            1312401472

 2017-02-03 11:26:52.548031+01 | 1486117612.54803 | 0/4E39A840               |            1312401472

 2017-02-03 11:26:53.665059+01 | 1486117613.66506 | 0/4E39A840               |            1312401472

 2017-02-03 11:26:54.768682+01 | 1486117614.76868 | 0/4E39A840               |            1312401472

 2017-02-03 11:26:55.867505+01 | 1486117615.86751 | 0/4E39A840               |            1312401472

 2017-02-03 11:26:56.967299+01 | 1486117616.9673 | 0/4E39A840               |            1312401472

 2017-02-03 11:26:58.069402+01 | 1486117618.0694 | 0/4E39A840               |            1312401472

 2017-02-03 11:26:59.178918+01 | 1486117619.17892 | 0/4E39A840               |            1312401472

 2017-02-03 11:27:00.281134+01 | 1486117620.28113 | 0/4E39A840               |            1312401472

 2017-02-03 11:27:01.374054+01 | 1486117621.37405 | 0/4E39A840               |            1312401472

 2017-02-03 11:27:02.47605+01 | 1486117622.47605 | 0/4E39A840               |            1312401472

 2017-02-03 11:27:03.583261+01 | 1486117623.58326 | 0/4E39A840               |            1312401472

 2017-02-03 11:27:04.684261+01 | 1486117624.68426 | 0/4E39A840               |            1312401472

 2017-02-03 11:27:05.791932+01 | 1486117625.79193 | 0/4E39A840               |            1312401472

