 2017-02-06 02:51:15.982515+01 | 1486345875.98252 | pgbench_branches_pkey |            40960
 2017-02-06 02:51:15.982515+01 | 1486345875.98252 | pgbench_tellers_pkey  |           245760
 2017-02-06 02:51:15.982515+01 | 1486345875.98252 | pgbench_accounts_pkey |       2246197248

 2017-02-06 02:51:17.054692+01 | 1486345877.05469 | pgbench_branches_pkey |            40960
 2017-02-06 02:51:17.054692+01 | 1486345877.05469 | pgbench_tellers_pkey  |           245760
 2017-02-06 02:51:17.054692+01 | 1486345877.05469 | pgbench_accounts_pkey |       2246197248

 2017-02-06 02:51:18.128618+01 | 1486345878.12862 | pgbench_branches_pkey |            40960
 2017-02-06 02:51:18.128618+01 | 1486345878.12862 | pgbench_tellers_pkey  |           245760
 2017-02-06 02:51:18.128618+01 | 1486345878.12862 | pgbench_accounts_pkey |       2246197248

 2017-02-06 02:51:19.215534+01 | 1486345879.21553 | pgbench_branches_pkey |            40960
 2017-02-06 02:51:19.215534+01 | 1486345879.21553 | pgbench_tellers_pkey  |           245760
 2017-02-06 02:51:19.215534+01 | 1486345879.21553 | pgbench_accounts_pkey |       2246197248

 2017-02-06 02:51:20.290818+01 | 1486345880.29082 | pgbench_branches_pkey |            40960
 2017-02-06 02:51:20.290818+01 | 1486345880.29082 | pgbench_tellers_pkey  |           245760
 2017-02-06 02:51:20.290818+01 | 1486345880.29082 | pgbench_accounts_pkey |       2246197248

 2017-02-06 02:51:21.360195+01 | 1486345881.36019 | pgbench_branches_pkey |            40960
 2017-02-06 02:51:21.360195+01 | 1486345881.36019 | pgbench_tellers_pkey  |           245760
 2017-02-06 02:51:21.360195+01 | 1486345881.36019 | pgbench_accounts_pkey |       2246197248

 2017-02-06 02:51:22.430881+01 | 1486345882.43088 | pgbench_branches_pkey |            40960
 2017-02-06 02:51:22.430881+01 | 1486345882.43088 | pgbench_tellers_pkey  |           245760
 2017-02-06 02:51:22.430881+01 | 1486345882.43088 | pgbench_accounts_pkey |       2246197248

 2017-02-06 02:51:23.507995+01 | 1486345883.50799 | pgbench_branches_pkey |            40960
 2017-02-06 02:51:23.507995+01 | 1486345883.50799 | pgbench_tellers_pkey  |           245760
 2017-02-06 02:51:23.507995+01 | 1486345883.50799 | pgbench_accounts_pkey |       2246197248

 2017-02-06 02:51:24.592179+01 | 1486345884.59218 | pgbench_branches_pkey |            40960
 2017-02-06 02:51:24.592179+01 | 1486345884.59218 | pgbench_tellers_pkey  |           245760
 2017-02-06 02:51:24.592179+01 | 1486345884.59218 | pgbench_accounts_pkey |       2246197248

 2017-02-06 02:51:25.662243+01 | 1486345885.66224 | pgbench_branches_pkey |            40960
 2017-02-06 02:51:25.662243+01 | 1486345885.66224 | pgbench_tellers_pkey  |           245760
 2017-02-06 02:51:25.662243+01 | 1486345885.66224 | pgbench_accounts_pkey |       2246197248

 2017-02-06 02:51:26.738881+01 | 1486345886.73888 | pgbench_branches_pkey |            40960
 2017-02-06 02:51:26.738881+01 | 1486345886.73888 | pgbench_tellers_pkey  |           245760
 2017-02-06 02:51:26.738881+01 | 1486345886.73888 | pgbench_accounts_pkey |       2246197248

 2017-02-06 02:51:27.822494+01 | 1486345887.82249 | pgbench_branches_pkey |            40960
 2017-02-06 02:51:27.822494+01 | 1486345887.82249 | pgbench_tellers_pkey  |           245760
 2017-02-06 02:51:27.822494+01 | 1486345887.82249 | pgbench_accounts_pkey |       2246197248

 2017-02-06 02:51:28.890894+01 | 1486345888.89089 | pgbench_branches_pkey |            40960
 2017-02-06 02:51:28.890894+01 | 1486345888.89089 | pgbench_tellers_pkey  |           245760
 2017-02-06 02:51:28.890894+01 | 1486345888.89089 | pgbench_accounts_pkey |       2246197248

 2017-02-06 02:51:29.956784+01 | 1486345889.95678 | pgbench_branches_pkey |            40960
 2017-02-06 02:51:29.956784+01 | 1486345889.95678 | pgbench_tellers_pkey  |           245760
 2017-02-06 02:51:29.956784+01 | 1486345889.95678 | pgbench_accounts_pkey |       2246197248

 2017-02-06 02:51:31.029941+01 | 1486345891.02994 | pgbench_branches_pkey |            40960
 2017-02-06 02:51:31.029941+01 | 1486345891.02994 | pgbench_tellers_pkey  |           245760
 2017-02-06 02:51:31.029941+01 | 1486345891.02994 | pgbench_accounts_pkey |       2246197248

 2017-02-06 02:51:32.108114+01 | 1486345892.10811 | pgbench_branches_pkey |            40960
 2017-02-06 02:51:32.108114+01 | 1486345892.10811 | pgbench_tellers_pkey  |           245760
 2017-02-06 02:51:32.108114+01 | 1486345892.10811 | pgbench_accounts_pkey |       2246197248

 2017-02-06 02:51:33.191366+01 | 1486345893.19137 | pgbench_branches_pkey |            40960
 2017-02-06 02:51:33.191366+01 | 1486345893.19137 | pgbench_tellers_pkey  |           245760
 2017-02-06 02:51:33.191366+01 | 1486345893.19137 | pgbench_accounts_pkey |       2246197248

 2017-02-06 02:51:34.264672+01 | 1486345894.26467 | pgbench_branches_pkey |            40960
 2017-02-06 02:51:34.264672+01 | 1486345894.26467 | pgbench_tellers_pkey  |           245760
 2017-02-06 02:51:34.264672+01 | 1486345894.26467 | pgbench_accounts_pkey |       2246197248

 2017-02-06 02:51:35.349136+01 | 1486345895.34914 | pgbench_branches_pkey |            40960
 2017-02-06 02:51:35.349136+01 | 1486345895.34914 | pgbench_tellers_pkey  |           245760
 2017-02-06 02:51:35.349136+01 | 1486345895.34914 | pgbench_accounts_pkey |       2246197248

 2017-02-06 02:51:36.430671+01 | 1486345896.43067 | pgbench_branches_pkey |            40960
 2017-02-06 02:51:36.430671+01 | 1486345896.43067 | pgbench_tellers_pkey  |           245760
 2017-02-06 02:51:36.430671+01 | 1486345896.43067 | pgbench_accounts_pkey |       2246197248

 2017-02-06 02:51:37.503352+01 | 1486345897.50335 | pgbench_branches_pkey |            40960
 2017-02-06 02:51:37.503352+01 | 1486345897.50335 | pgbench_tellers_pkey  |           245760
 2017-02-06 02:51:37.503352+01 | 1486345897.50335 | pgbench_accounts_pkey |       2246197248

 2017-02-06 02:51:38.581361+01 | 1486345898.58136 | pgbench_branches_pkey |            40960
 2017-02-06 02:51:38.581361+01 | 1486345898.58136 | pgbench_tellers_pkey  |           245760
 2017-02-06 02:51:38.581361+01 | 1486345898.58136 | pgbench_accounts_pkey |       2246197248

 2017-02-06 02:51:39.658665+01 | 1486345899.65866 | pgbench_branches_pkey |            40960
 2017-02-06 02:51:39.658665+01 | 1486345899.65866 | pgbench_tellers_pkey  |           245760
 2017-02-06 02:51:39.658665+01 | 1486345899.65866 | pgbench_accounts_pkey |       2246197248

 2017-02-06 02:51:40.73131+01 | 1486345900.73131 | pgbench_branches_pkey |            40960
 2017-02-06 02:51:40.73131+01 | 1486345900.73131 | pgbench_tellers_pkey  |           245760
 2017-02-06 02:51:40.73131+01 | 1486345900.73131 | pgbench_accounts_pkey |       2246197248

 2017-02-06 02:51:41.8122+01 | 1486345901.8122 | pgbench_branches_pkey |            40960
 2017-02-06 02:51:41.8122+01 | 1486345901.8122 | pgbench_tellers_pkey  |           245760
 2017-02-06 02:51:41.8122+01 | 1486345901.8122 | pgbench_accounts_pkey |       2246197248

 2017-02-06 02:51:42.891804+01 | 1486345902.8918 | pgbench_branches_pkey |            40960
 2017-02-06 02:51:42.891804+01 | 1486345902.8918 | pgbench_tellers_pkey  |           245760
 2017-02-06 02:51:42.891804+01 | 1486345902.8918 | pgbench_accounts_pkey |       2246197248

 2017-02-06 02:51:43.96516+01 | 1486345903.96516 | pgbench_branches_pkey |            40960
 2017-02-06 02:51:43.96516+01 | 1486345903.96516 | pgbench_tellers_pkey  |           245760
 2017-02-06 02:51:43.96516+01 | 1486345903.96516 | pgbench_accounts_pkey |       2246197248

 2017-02-06 02:51:45.040121+01 | 1486345905.04012 | pgbench_branches_pkey |            40960
 2017-02-06 02:51:45.040121+01 | 1486345905.04012 | pgbench_tellers_pkey  |           245760
 2017-02-06 02:51:45.040121+01 | 1486345905.04012 | pgbench_accounts_pkey |       2246197248

 2017-02-06 02:51:46.115523+01 | 1486345906.11552 | pgbench_branches_pkey |            40960
 2017-02-06 02:51:46.115523+01 | 1486345906.11552 | pgbench_tellers_pkey  |           245760
 2017-02-06 02:51:46.115523+01 | 1486345906.11552 | pgbench_accounts_pkey |       2246197248

 2017-02-06 02:51:47.1899+01 | 1486345907.1899 | pgbench_branches_pkey |            40960
 2017-02-06 02:51:47.1899+01 | 1486345907.1899 | pgbench_tellers_pkey  |           245760
 2017-02-06 02:51:47.1899+01 | 1486345907.1899 | pgbench_accounts_pkey |       2246197248

 2017-02-06 02:51:48.269709+01 | 1486345908.26971 | pgbench_branches_pkey |            40960
 2017-02-06 02:51:48.269709+01 | 1486345908.26971 | pgbench_tellers_pkey  |           245760
 2017-02-06 02:51:48.269709+01 | 1486345908.26971 | pgbench_accounts_pkey |       2246197248

 2017-02-06 02:51:49.342071+01 | 1486345909.34207 | pgbench_branches_pkey |            40960
 2017-02-06 02:51:49.342071+01 | 1486345909.34207 | pgbench_tellers_pkey  |           245760
 2017-02-06 02:51:49.342071+01 | 1486345909.34207 | pgbench_accounts_pkey |       2246197248

 2017-02-06 02:51:50.414417+01 | 1486345910.41442 | pgbench_branches_pkey |            40960
 2017-02-06 02:51:50.414417+01 | 1486345910.41442 | pgbench_tellers_pkey  |           245760
 2017-02-06 02:51:50.414417+01 | 1486345910.41442 | pgbench_accounts_pkey |       2246197248

 2017-02-06 02:51:51.486317+01 | 1486345911.48632 | pgbench_branches_pkey |            40960
 2017-02-06 02:51:51.486317+01 | 1486345911.48632 | pgbench_tellers_pkey  |           245760
 2017-02-06 02:51:51.486317+01 | 1486345911.48632 | pgbench_accounts_pkey |       2246197248

 2017-02-06 02:51:52.56565+01 | 1486345912.56565 | pgbench_branches_pkey |            40960
 2017-02-06 02:51:52.56565+01 | 1486345912.56565 | pgbench_tellers_pkey  |           245760
 2017-02-06 02:51:52.56565+01 | 1486345912.56565 | pgbench_accounts_pkey |       2246197248

 2017-02-06 02:51:53.636406+01 | 1486345913.63641 | pgbench_branches_pkey |            40960
 2017-02-06 02:51:53.636406+01 | 1486345913.63641 | pgbench_tellers_pkey  |           245760
 2017-02-06 02:51:53.636406+01 | 1486345913.63641 | pgbench_accounts_pkey |       2246197248

 2017-02-06 02:51:54.716231+01 | 1486345914.71623 | pgbench_branches_pkey |            40960
 2017-02-06 02:51:54.716231+01 | 1486345914.71623 | pgbench_tellers_pkey  |           245760
 2017-02-06 02:51:54.716231+01 | 1486345914.71623 | pgbench_accounts_pkey |       2246197248

 2017-02-06 02:51:55.785947+01 | 1486345915.78595 | pgbench_branches_pkey |            40960
 2017-02-06 02:51:55.785947+01 | 1486345915.78595 | pgbench_tellers_pkey  |           245760
 2017-02-06 02:51:55.785947+01 | 1486345915.78595 | pgbench_accounts_pkey |       2246197248

 2017-02-06 02:51:56.864012+01 | 1486345916.86401 | pgbench_branches_pkey |            40960
 2017-02-06 02:51:56.864012+01 | 1486345916.86401 | pgbench_tellers_pkey  |           245760
 2017-02-06 02:51:56.864012+01 | 1486345916.86401 | pgbench_accounts_pkey |       2246197248

 2017-02-06 02:51:57.95056+01 | 1486345917.95056 | pgbench_branches_pkey |            40960
 2017-02-06 02:51:57.95056+01 | 1486345917.95056 | pgbench_tellers_pkey  |           245760
 2017-02-06 02:51:57.95056+01 | 1486345917.95056 | pgbench_accounts_pkey |       2246197248

 2017-02-06 02:51:59.022195+01 | 1486345919.0222 | pgbench_branches_pkey |            40960
 2017-02-06 02:51:59.022195+01 | 1486345919.0222 | pgbench_tellers_pkey  |           245760
 2017-02-06 02:51:59.022195+01 | 1486345919.0222 | pgbench_accounts_pkey |       2246197248

 2017-02-06 02:52:00.090822+01 | 1486345920.09082 | pgbench_branches_pkey |            40960
 2017-02-06 02:52:00.090822+01 | 1486345920.09082 | pgbench_tellers_pkey  |           245760
 2017-02-06 02:52:00.090822+01 | 1486345920.09082 | pgbench_accounts_pkey |       2246197248

 2017-02-06 02:52:01.167614+01 | 1486345921.16761 | pgbench_branches_pkey |            40960
 2017-02-06 02:52:01.167614+01 | 1486345921.16761 | pgbench_tellers_pkey  |           245760
 2017-02-06 02:52:01.167614+01 | 1486345921.16761 | pgbench_accounts_pkey |       2246197248

 2017-02-06 02:52:02.243488+01 | 1486345922.24349 | pgbench_branches_pkey |            40960
 2017-02-06 02:52:02.243488+01 | 1486345922.24349 | pgbench_tellers_pkey  |           245760
 2017-02-06 02:52:02.243488+01 | 1486345922.24349 | pgbench_accounts_pkey |       2246197248

 2017-02-06 02:52:03.31769+01 | 1486345923.31769 | pgbench_branches_pkey |            40960
 2017-02-06 02:52:03.31769+01 | 1486345923.31769 | pgbench_tellers_pkey  |           245760
 2017-02-06 02:52:03.31769+01 | 1486345923.31769 | pgbench_accounts_pkey |       2246197248

 2017-02-06 02:52:04.396243+01 | 1486345924.39624 | pgbench_branches_pkey |            40960
 2017-02-06 02:52:04.396243+01 | 1486345924.39624 | pgbench_tellers_pkey  |           245760
 2017-02-06 02:52:04.396243+01 | 1486345924.39624 | pgbench_accounts_pkey |       2246197248

 2017-02-06 02:52:05.476426+01 | 1486345925.47643 | pgbench_branches_pkey |            40960
 2017-02-06 02:52:05.476426+01 | 1486345925.47643 | pgbench_tellers_pkey  |           245760
 2017-02-06 02:52:05.476426+01 | 1486345925.47643 | pgbench_accounts_pkey |       2246197248

 2017-02-06 02:52:06.551186+01 | 1486345926.55119 | pgbench_branches_pkey |            40960
 2017-02-06 02:52:06.551186+01 | 1486345926.55119 | pgbench_tellers_pkey  |           245760
 2017-02-06 02:52:06.551186+01 | 1486345926.55119 | pgbench_accounts_pkey |       2246197248

 2017-02-06 02:52:07.619309+01 | 1486345927.61931 | pgbench_branches_pkey |            40960
 2017-02-06 02:52:07.619309+01 | 1486345927.61931 | pgbench_tellers_pkey  |           245760
 2017-02-06 02:52:07.619309+01 | 1486345927.61931 | pgbench_accounts_pkey |       2246197248

 2017-02-06 02:52:08.704595+01 | 1486345928.7046 | pgbench_branches_pkey |            40960
 2017-02-06 02:52:08.704595+01 | 1486345928.7046 | pgbench_tellers_pkey  |           245760
 2017-02-06 02:52:08.704595+01 | 1486345928.7046 | pgbench_accounts_pkey |       2246197248

 2017-02-06 02:52:09.772114+01 | 1486345929.77211 | pgbench_branches_pkey |            40960
 2017-02-06 02:52:09.772114+01 | 1486345929.77211 | pgbench_tellers_pkey  |           245760
 2017-02-06 02:52:09.772114+01 | 1486345929.77211 | pgbench_accounts_pkey |       2246197248

 2017-02-06 02:52:10.846983+01 | 1486345930.84698 | pgbench_branches_pkey |            40960
 2017-02-06 02:52:10.846983+01 | 1486345930.84698 | pgbench_tellers_pkey  |           245760
 2017-02-06 02:52:10.846983+01 | 1486345930.84698 | pgbench_accounts_pkey |       2246197248

 2017-02-06 02:52:11.922152+01 | 1486345931.92215 | pgbench_branches_pkey |            40960
 2017-02-06 02:52:11.922152+01 | 1486345931.92215 | pgbench_tellers_pkey  |           245760
 2017-02-06 02:52:11.922152+01 | 1486345931.92215 | pgbench_accounts_pkey |       2246197248

 2017-02-06 02:52:12.996152+01 | 1486345932.99615 | pgbench_branches_pkey |            40960
 2017-02-06 02:52:12.996152+01 | 1486345932.99615 | pgbench_tellers_pkey  |           245760
 2017-02-06 02:52:12.996152+01 | 1486345932.99615 | pgbench_accounts_pkey |       2246197248

 2017-02-06 02:52:14.079414+01 | 1486345934.07941 | pgbench_branches_pkey |            40960
 2017-02-06 02:52:14.079414+01 | 1486345934.07941 | pgbench_tellers_pkey  |           245760
 2017-02-06 02:52:14.079414+01 | 1486345934.07941 | pgbench_accounts_pkey |       2246197248

 2017-02-06 02:52:15.158071+01 | 1486345935.15807 | pgbench_branches_pkey |            40960
 2017-02-06 02:52:15.158071+01 | 1486345935.15807 | pgbench_tellers_pkey  |           245760
 2017-02-06 02:52:15.158071+01 | 1486345935.15807 | pgbench_accounts_pkey |       2246197248

 2017-02-06 02:52:16.232777+01 | 1486345936.23278 | pgbench_branches_pkey |            40960
 2017-02-06 02:52:16.232777+01 | 1486345936.23278 | pgbench_tellers_pkey  |           245760
 2017-02-06 02:52:16.232777+01 | 1486345936.23278 | pgbench_accounts_pkey |       2246197248

 2017-02-06 02:52:17.305867+01 | 1486345937.30587 | pgbench_branches_pkey |            40960
 2017-02-06 02:52:17.305867+01 | 1486345937.30587 | pgbench_tellers_pkey  |           245760
 2017-02-06 02:52:17.305867+01 | 1486345937.30587 | pgbench_accounts_pkey |       2246197248

 2017-02-06 02:52:18.384407+01 | 1486345938.38441 | pgbench_branches_pkey |            40960
 2017-02-06 02:52:18.384407+01 | 1486345938.38441 | pgbench_tellers_pkey  |           245760
 2017-02-06 02:52:18.384407+01 | 1486345938.38441 | pgbench_accounts_pkey |       2246197248

 2017-02-06 02:52:19.460342+01 | 1486345939.46034 | pgbench_branches_pkey |            40960
 2017-02-06 02:52:19.460342+01 | 1486345939.46034 | pgbench_tellers_pkey  |           245760
 2017-02-06 02:52:19.460342+01 | 1486345939.46034 | pgbench_accounts_pkey |       2246197248

 2017-02-06 02:52:20.54155+01 | 1486345940.54155 | pgbench_branches_pkey |            40960
 2017-02-06 02:52:20.54155+01 | 1486345940.54155 | pgbench_tellers_pkey  |           245760
 2017-02-06 02:52:20.54155+01 | 1486345940.54155 | pgbench_accounts_pkey |       2246197248

 2017-02-06 02:52:21.610392+01 | 1486345941.61039 | pgbench_branches_pkey |            40960
 2017-02-06 02:52:21.610392+01 | 1486345941.61039 | pgbench_tellers_pkey  |           245760
 2017-02-06 02:52:21.610392+01 | 1486345941.61039 | pgbench_accounts_pkey |       2246197248

 2017-02-06 02:52:22.678538+01 | 1486345942.67854 | pgbench_branches_pkey |            40960
 2017-02-06 02:52:22.678538+01 | 1486345942.67854 | pgbench_tellers_pkey  |           245760
 2017-02-06 02:52:22.678538+01 | 1486345942.67854 | pgbench_accounts_pkey |       2246197248

 2017-02-06 02:52:23.746018+01 | 1486345943.74602 | pgbench_branches_pkey |            40960
 2017-02-06 02:52:23.746018+01 | 1486345943.74602 | pgbench_tellers_pkey  |           245760
 2017-02-06 02:52:23.746018+01 | 1486345943.74602 | pgbench_accounts_pkey |       2246197248

 2017-02-06 02:52:24.816306+01 | 1486345944.81631 | pgbench_branches_pkey |            40960
 2017-02-06 02:52:24.816306+01 | 1486345944.81631 | pgbench_tellers_pkey  |           245760
 2017-02-06 02:52:24.816306+01 | 1486345944.81631 | pgbench_accounts_pkey |       2246197248

 2017-02-06 02:52:25.88902+01 | 1486345945.88902 | pgbench_branches_pkey |            40960
 2017-02-06 02:52:25.88902+01 | 1486345945.88902 | pgbench_tellers_pkey  |           245760
 2017-02-06 02:52:25.88902+01 | 1486345945.88902 | pgbench_accounts_pkey |       2246197248

 2017-02-06 02:52:26.96228+01 | 1486345946.96228 | pgbench_branches_pkey |            40960
 2017-02-06 02:52:26.96228+01 | 1486345946.96228 | pgbench_tellers_pkey  |           245760
 2017-02-06 02:52:26.96228+01 | 1486345946.96228 | pgbench_accounts_pkey |       2246197248

 2017-02-06 02:52:28.046818+01 | 1486345948.04682 | pgbench_branches_pkey |            40960
 2017-02-06 02:52:28.046818+01 | 1486345948.04682 | pgbench_tellers_pkey  |           245760
 2017-02-06 02:52:28.046818+01 | 1486345948.04682 | pgbench_accounts_pkey |       2246197248

 2017-02-06 02:52:29.135002+01 | 1486345949.135 | pgbench_branches_pkey |            40960
 2017-02-06 02:52:29.135002+01 | 1486345949.135 | pgbench_tellers_pkey  |           245760
 2017-02-06 02:52:29.135002+01 | 1486345949.135 | pgbench_accounts_pkey |       2246197248

 2017-02-06 02:52:30.20832+01 | 1486345950.20832 | pgbench_branches_pkey |            40960
 2017-02-06 02:52:30.20832+01 | 1486345950.20832 | pgbench_tellers_pkey  |           245760
 2017-02-06 02:52:30.20832+01 | 1486345950.20832 | pgbench_accounts_pkey |       2246197248

 2017-02-06 02:52:31.287016+01 | 1486345951.28702 | pgbench_branches_pkey |            40960
 2017-02-06 02:52:31.287016+01 | 1486345951.28702 | pgbench_tellers_pkey  |           245760
 2017-02-06 02:52:31.287016+01 | 1486345951.28702 | pgbench_accounts_pkey |       2246197248

 2017-02-06 02:52:32.365812+01 | 1486345952.36581 | pgbench_branches_pkey |            40960
 2017-02-06 02:52:32.365812+01 | 1486345952.36581 | pgbench_tellers_pkey  |           245760
 2017-02-06 02:52:32.365812+01 | 1486345952.36581 | pgbench_accounts_pkey |       2246197248

 2017-02-06 02:52:33.447788+01 | 1486345953.44779 | pgbench_branches_pkey |            40960
 2017-02-06 02:52:33.447788+01 | 1486345953.44779 | pgbench_tellers_pkey  |           245760
 2017-02-06 02:52:33.447788+01 | 1486345953.44779 | pgbench_accounts_pkey |       2246197248

 2017-02-06 02:52:34.522323+01 | 1486345954.52232 | pgbench_branches_pkey |            40960
 2017-02-06 02:52:34.522323+01 | 1486345954.52232 | pgbench_tellers_pkey  |           245760
 2017-02-06 02:52:34.522323+01 | 1486345954.52232 | pgbench_accounts_pkey |       2246197248

 2017-02-06 02:52:35.595304+01 | 1486345955.5953 | pgbench_branches_pkey |            40960
 2017-02-06 02:52:35.595304+01 | 1486345955.5953 | pgbench_tellers_pkey  |           245760
 2017-02-06 02:52:35.595304+01 | 1486345955.5953 | pgbench_accounts_pkey |       2246197248

 2017-02-06 02:52:36.665355+01 | 1486345956.66535 | pgbench_branches_pkey |            40960
 2017-02-06 02:52:36.665355+01 | 1486345956.66535 | pgbench_tellers_pkey  |           245760
 2017-02-06 02:52:36.665355+01 | 1486345956.66535 | pgbench_accounts_pkey |       2246197248

 2017-02-06 02:52:37.741242+01 | 1486345957.74124 | pgbench_branches_pkey |            40960
 2017-02-06 02:52:37.741242+01 | 1486345957.74124 | pgbench_tellers_pkey  |           245760
 2017-02-06 02:52:37.741242+01 | 1486345957.74124 | pgbench_accounts_pkey |       2246197248

 2017-02-06 02:52:38.815517+01 | 1486345958.81552 | pgbench_branches_pkey |            40960
 2017-02-06 02:52:38.815517+01 | 1486345958.81552 | pgbench_tellers_pkey  |           245760
 2017-02-06 02:52:38.815517+01 | 1486345958.81552 | pgbench_accounts_pkey |       2246197248

 2017-02-06 02:52:39.897777+01 | 1486345959.89778 | pgbench_branches_pkey |            40960
 2017-02-06 02:52:39.897777+01 | 1486345959.89778 | pgbench_tellers_pkey  |           245760
 2017-02-06 02:52:39.897777+01 | 1486345959.89778 | pgbench_accounts_pkey |       2246197248

 2017-02-06 02:52:40.966992+01 | 1486345960.96699 | pgbench_branches_pkey |            40960
 2017-02-06 02:52:40.966992+01 | 1486345960.96699 | pgbench_tellers_pkey  |           245760
 2017-02-06 02:52:40.966992+01 | 1486345960.96699 | pgbench_accounts_pkey |       2246197248

 2017-02-06 02:52:42.044275+01 | 1486345962.04428 | pgbench_branches_pkey |            40960
 2017-02-06 02:52:42.044275+01 | 1486345962.04428 | pgbench_tellers_pkey  |           245760
 2017-02-06 02:52:42.044275+01 | 1486345962.04428 | pgbench_accounts_pkey |       2246197248

 2017-02-06 02:52:43.122208+01 | 1486345963.12221 | pgbench_branches_pkey |            40960
 2017-02-06 02:52:43.122208+01 | 1486345963.12221 | pgbench_tellers_pkey  |           245760
 2017-02-06 02:52:43.122208+01 | 1486345963.12221 | pgbench_accounts_pkey |       2246197248

 2017-02-06 02:52:44.194564+01 | 1486345964.19456 | pgbench_branches_pkey |            40960
 2017-02-06 02:52:44.194564+01 | 1486345964.19456 | pgbench_tellers_pkey  |           245760
 2017-02-06 02:52:44.194564+01 | 1486345964.19456 | pgbench_accounts_pkey |       2246197248

 2017-02-06 02:52:45.267901+01 | 1486345965.2679 | pgbench_branches_pkey |            40960
 2017-02-06 02:52:45.267901+01 | 1486345965.2679 | pgbench_tellers_pkey  |           245760
 2017-02-06 02:52:45.267901+01 | 1486345965.2679 | pgbench_accounts_pkey |       2246197248

 2017-02-06 02:52:46.326317+01 | 1486345966.32632 | pgbench_branches_pkey |            40960
 2017-02-06 02:52:46.326317+01 | 1486345966.32632 | pgbench_tellers_pkey  |           245760
 2017-02-06 02:52:46.326317+01 | 1486345966.32632 | pgbench_accounts_pkey |       2246197248

 2017-02-06 02:52:47.402062+01 | 1486345967.40206 | pgbench_branches_pkey |            40960
 2017-02-06 02:52:47.402062+01 | 1486345967.40206 | pgbench_tellers_pkey  |           245760
 2017-02-06 02:52:47.402062+01 | 1486345967.40206 | pgbench_accounts_pkey |       2246197248

 2017-02-06 02:52:48.475348+01 | 1486345968.47535 | pgbench_branches_pkey |            40960
 2017-02-06 02:52:48.475348+01 | 1486345968.47535 | pgbench_tellers_pkey  |           245760
 2017-02-06 02:52:48.475348+01 | 1486345968.47535 | pgbench_accounts_pkey |       2246197248

 2017-02-06 02:52:49.549554+01 | 1486345969.54955 | pgbench_branches_pkey |            40960
 2017-02-06 02:52:49.549554+01 | 1486345969.54955 | pgbench_tellers_pkey  |           245760
 2017-02-06 02:52:49.549554+01 | 1486345969.54955 | pgbench_accounts_pkey |       2246197248

 2017-02-06 02:52:50.629791+01 | 1486345970.62979 | pgbench_branches_pkey |            40960
 2017-02-06 02:52:50.629791+01 | 1486345970.62979 | pgbench_tellers_pkey  |           245760
 2017-02-06 02:52:50.629791+01 | 1486345970.62979 | pgbench_accounts_pkey |       2246197248

 2017-02-06 02:52:51.704476+01 | 1486345971.70448 | pgbench_branches_pkey |            40960
 2017-02-06 02:52:51.704476+01 | 1486345971.70448 | pgbench_tellers_pkey  |           245760
 2017-02-06 02:52:51.704476+01 | 1486345971.70448 | pgbench_accounts_pkey |       2246197248

 2017-02-06 02:52:52.781532+01 | 1486345972.78153 | pgbench_branches_pkey |            40960
 2017-02-06 02:52:52.781532+01 | 1486345972.78153 | pgbench_tellers_pkey  |           245760
 2017-02-06 02:52:52.781532+01 | 1486345972.78153 | pgbench_accounts_pkey |       2246197248

 2017-02-06 02:52:53.862285+01 | 1486345973.86228 | pgbench_branches_pkey |            40960
 2017-02-06 02:52:53.862285+01 | 1486345973.86228 | pgbench_tellers_pkey  |           245760
 2017-02-06 02:52:53.862285+01 | 1486345973.86228 | pgbench_accounts_pkey |       2246197248

 2017-02-06 02:52:54.930175+01 | 1486345974.93018 | pgbench_branches_pkey |            40960
 2017-02-06 02:52:54.930175+01 | 1486345974.93018 | pgbench_tellers_pkey  |           245760
 2017-02-06 02:52:54.930175+01 | 1486345974.93018 | pgbench_accounts_pkey |       2246197248

 2017-02-06 02:52:55.999393+01 | 1486345975.99939 | pgbench_branches_pkey |            40960
 2017-02-06 02:52:55.999393+01 | 1486345975.99939 | pgbench_tellers_pkey  |           245760
 2017-02-06 02:52:55.999393+01 | 1486345975.99939 | pgbench_accounts_pkey |       2246197248

 2017-02-06 02:52:57.085342+01 | 1486345977.08534 | pgbench_branches_pkey |            40960
 2017-02-06 02:52:57.085342+01 | 1486345977.08534 | pgbench_tellers_pkey  |           245760
 2017-02-06 02:52:57.085342+01 | 1486345977.08534 | pgbench_accounts_pkey |       2246197248

 2017-02-06 02:52:58.157381+01 | 1486345978.15738 | pgbench_branches_pkey |            40960
 2017-02-06 02:52:58.157381+01 | 1486345978.15738 | pgbench_tellers_pkey  |           245760
 2017-02-06 02:52:58.157381+01 | 1486345978.15738 | pgbench_accounts_pkey |       2246197248

 2017-02-06 02:52:59.231305+01 | 1486345979.2313 | pgbench_branches_pkey |            40960
 2017-02-06 02:52:59.231305+01 | 1486345979.2313 | pgbench_tellers_pkey  |           245760
 2017-02-06 02:52:59.231305+01 | 1486345979.2313 | pgbench_accounts_pkey |       2246197248

 2017-02-06 02:53:00.308637+01 | 1486345980.30864 | pgbench_branches_pkey |            40960
 2017-02-06 02:53:00.308637+01 | 1486345980.30864 | pgbench_tellers_pkey  |           245760
 2017-02-06 02:53:00.308637+01 | 1486345980.30864 | pgbench_accounts_pkey |       2246197248

 2017-02-06 02:53:01.390954+01 | 1486345981.39095 | pgbench_branches_pkey |            40960
 2017-02-06 02:53:01.390954+01 | 1486345981.39095 | pgbench_tellers_pkey  |           245760
 2017-02-06 02:53:01.390954+01 | 1486345981.39095 | pgbench_accounts_pkey |       2246197248

 2017-02-06 02:53:02.463992+01 | 1486345982.46399 | pgbench_branches_pkey |            40960
 2017-02-06 02:53:02.463992+01 | 1486345982.46399 | pgbench_tellers_pkey  |           245760
 2017-02-06 02:53:02.463992+01 | 1486345982.46399 | pgbench_accounts_pkey |       2246197248

 2017-02-06 02:53:03.540938+01 | 1486345983.54094 | pgbench_branches_pkey |            40960
 2017-02-06 02:53:03.540938+01 | 1486345983.54094 | pgbench_tellers_pkey  |           245760
 2017-02-06 02:53:03.540938+01 | 1486345983.54094 | pgbench_accounts_pkey |       2246197248

 2017-02-06 02:53:04.618652+01 | 1486345984.61865 | pgbench_branches_pkey |            40960
 2017-02-06 02:53:04.618652+01 | 1486345984.61865 | pgbench_tellers_pkey  |           245760
 2017-02-06 02:53:04.618652+01 | 1486345984.61865 | pgbench_accounts_pkey |       2246197248

 2017-02-06 02:53:05.699513+01 | 1486345985.69951 | pgbench_branches_pkey |            40960
 2017-02-06 02:53:05.699513+01 | 1486345985.69951 | pgbench_tellers_pkey  |           245760
 2017-02-06 02:53:05.699513+01 | 1486345985.69951 | pgbench_accounts_pkey |       2246197248

 2017-02-06 02:53:06.779129+01 | 1486345986.77913 | pgbench_branches_pkey |            40960
 2017-02-06 02:53:06.779129+01 | 1486345986.77913 | pgbench_tellers_pkey  |           245760
 2017-02-06 02:53:06.779129+01 | 1486345986.77913 | pgbench_accounts_pkey |       2246197248

 2017-02-06 02:53:07.846723+01 | 1486345987.84672 | pgbench_branches_pkey |            40960
 2017-02-06 02:53:07.846723+01 | 1486345987.84672 | pgbench_tellers_pkey  |           245760
 2017-02-06 02:53:07.846723+01 | 1486345987.84672 | pgbench_accounts_pkey |       2246197248

 2017-02-06 02:53:08.9178+01 | 1486345988.9178 | pgbench_branches_pkey |            40960
 2017-02-06 02:53:08.9178+01 | 1486345988.9178 | pgbench_tellers_pkey  |           245760
 2017-02-06 02:53:08.9178+01 | 1486345988.9178 | pgbench_accounts_pkey |       2246197248

 2017-02-06 02:53:09.995767+01 | 1486345989.99577 | pgbench_branches_pkey |            40960
 2017-02-06 02:53:09.995767+01 | 1486345989.99577 | pgbench_tellers_pkey  |           245760
 2017-02-06 02:53:09.995767+01 | 1486345989.99577 | pgbench_accounts_pkey |       2246197248

 2017-02-06 02:53:11.071838+01 | 1486345991.07184 | pgbench_branches_pkey |            40960
 2017-02-06 02:53:11.071838+01 | 1486345991.07184 | pgbench_tellers_pkey  |           245760
 2017-02-06 02:53:11.071838+01 | 1486345991.07184 | pgbench_accounts_pkey |       2246197248

 2017-02-06 02:53:12.14336+01 | 1486345992.14336 | pgbench_branches_pkey |            40960
 2017-02-06 02:53:12.14336+01 | 1486345992.14336 | pgbench_tellers_pkey  |           245760
 2017-02-06 02:53:12.14336+01 | 1486345992.14336 | pgbench_accounts_pkey |       2246197248

 2017-02-06 02:53:13.215633+01 | 1486345993.21563 | pgbench_branches_pkey |            40960
 2017-02-06 02:53:13.215633+01 | 1486345993.21563 | pgbench_tellers_pkey  |           245760
 2017-02-06 02:53:13.215633+01 | 1486345993.21563 | pgbench_accounts_pkey |       2246197248

 2017-02-06 02:53:14.286948+01 | 1486345994.28695 | pgbench_branches_pkey |            40960
 2017-02-06 02:53:14.286948+01 | 1486345994.28695 | pgbench_tellers_pkey  |           245760
 2017-02-06 02:53:14.286948+01 | 1486345994.28695 | pgbench_accounts_pkey |       2246197248

 2017-02-06 02:53:15.365318+01 | 1486345995.36532 | pgbench_branches_pkey |            40960
 2017-02-06 02:53:15.365318+01 | 1486345995.36532 | pgbench_tellers_pkey  |           245760
 2017-02-06 02:53:15.365318+01 | 1486345995.36532 | pgbench_accounts_pkey |       2246197248

 2017-02-06 02:53:16.438412+01 | 1486345996.43841 | pgbench_branches_pkey |            40960
 2017-02-06 02:53:16.438412+01 | 1486345996.43841 | pgbench_tellers_pkey  |           245760
 2017-02-06 02:53:16.438412+01 | 1486345996.43841 | pgbench_accounts_pkey |       2246197248

 2017-02-06 02:53:17.517234+01 | 1486345997.51723 | pgbench_branches_pkey |            40960
 2017-02-06 02:53:17.517234+01 | 1486345997.51723 | pgbench_tellers_pkey  |           245760
 2017-02-06 02:53:17.517234+01 | 1486345997.51723 | pgbench_accounts_pkey |       2246197248

 2017-02-06 02:53:18.584723+01 | 1486345998.58472 | pgbench_branches_pkey |            40960
 2017-02-06 02:53:18.584723+01 | 1486345998.58472 | pgbench_tellers_pkey  |           245760
 2017-02-06 02:53:18.584723+01 | 1486345998.58472 | pgbench_accounts_pkey |       2246197248

 2017-02-06 02:53:19.656224+01 | 1486345999.65622 | pgbench_branches_pkey |            40960
 2017-02-06 02:53:19.656224+01 | 1486345999.65622 | pgbench_tellers_pkey  |           245760
 2017-02-06 02:53:19.656224+01 | 1486345999.65622 | pgbench_accounts_pkey |       2246197248

 2017-02-06 02:53:20.740317+01 | 1486346000.74032 | pgbench_branches_pkey |            40960
 2017-02-06 02:53:20.740317+01 | 1486346000.74032 | pgbench_tellers_pkey  |           245760
 2017-02-06 02:53:20.740317+01 | 1486346000.74032 | pgbench_accounts_pkey |       2246197248

 2017-02-06 02:53:21.827728+01 | 1486346001.82773 | pgbench_branches_pkey |            40960
 2017-02-06 02:53:21.827728+01 | 1486346001.82773 | pgbench_tellers_pkey  |           245760
 2017-02-06 02:53:21.827728+01 | 1486346001.82773 | pgbench_accounts_pkey |       2246197248

 2017-02-06 02:53:22.908223+01 | 1486346002.90822 | pgbench_branches_pkey |            40960
 2017-02-06 02:53:22.908223+01 | 1486346002.90822 | pgbench_tellers_pkey  |           245760
 2017-02-06 02:53:22.908223+01 | 1486346002.90822 | pgbench_accounts_pkey |       2246197248

 2017-02-06 02:53:23.988+01 | 1486346003.988 | pgbench_branches_pkey |            40960
 2017-02-06 02:53:23.988+01 | 1486346003.988 | pgbench_tellers_pkey  |           245760
 2017-02-06 02:53:23.988+01 | 1486346003.988 | pgbench_accounts_pkey |       2246197248

 2017-02-06 02:53:25.070311+01 | 1486346005.07031 | pgbench_branches_pkey |            40960
 2017-02-06 02:53:25.070311+01 | 1486346005.07031 | pgbench_tellers_pkey  |           245760
 2017-02-06 02:53:25.070311+01 | 1486346005.07031 | pgbench_accounts_pkey |       2246197248

 2017-02-06 02:53:26.149651+01 | 1486346006.14965 | pgbench_branches_pkey |            40960
 2017-02-06 02:53:26.149651+01 | 1486346006.14965 | pgbench_tellers_pkey  |           245760
 2017-02-06 02:53:26.149651+01 | 1486346006.14965 | pgbench_accounts_pkey |       2246197248

 2017-02-06 02:53:27.228734+01 | 1486346007.22873 | pgbench_branches_pkey |            40960
 2017-02-06 02:53:27.228734+01 | 1486346007.22873 | pgbench_tellers_pkey  |           245760
 2017-02-06 02:53:27.228734+01 | 1486346007.22873 | pgbench_accounts_pkey |       2246197248

 2017-02-06 02:53:28.298636+01 | 1486346008.29864 | pgbench_branches_pkey |            40960
 2017-02-06 02:53:28.298636+01 | 1486346008.29864 | pgbench_tellers_pkey  |           245760
 2017-02-06 02:53:28.298636+01 | 1486346008.29864 | pgbench_accounts_pkey |       2246197248

 2017-02-06 02:53:29.375273+01 | 1486346009.37527 | pgbench_branches_pkey |            40960
 2017-02-06 02:53:29.375273+01 | 1486346009.37527 | pgbench_tellers_pkey  |           245760
 2017-02-06 02:53:29.375273+01 | 1486346009.37527 | pgbench_accounts_pkey |       2246197248

 2017-02-06 02:53:30.445205+01 | 1486346010.4452 | pgbench_branches_pkey |            40960
 2017-02-06 02:53:30.445205+01 | 1486346010.4452 | pgbench_tellers_pkey  |           245760
 2017-02-06 02:53:30.445205+01 | 1486346010.4452 | pgbench_accounts_pkey |       2246197248

 2017-02-06 02:53:31.518989+01 | 1486346011.51899 | pgbench_branches_pkey |            40960
 2017-02-06 02:53:31.518989+01 | 1486346011.51899 | pgbench_tellers_pkey  |           245760
 2017-02-06 02:53:31.518989+01 | 1486346011.51899 | pgbench_accounts_pkey |       2246197248

 2017-02-06 02:53:32.591523+01 | 1486346012.59152 | pgbench_branches_pkey |            40960
 2017-02-06 02:53:32.591523+01 | 1486346012.59152 | pgbench_tellers_pkey  |           245760
 2017-02-06 02:53:32.591523+01 | 1486346012.59152 | pgbench_accounts_pkey |       2246197248

 2017-02-06 02:53:33.665078+01 | 1486346013.66508 | pgbench_branches_pkey |            40960
 2017-02-06 02:53:33.665078+01 | 1486346013.66508 | pgbench_tellers_pkey  |           245760
 2017-02-06 02:53:33.665078+01 | 1486346013.66508 | pgbench_accounts_pkey |       2246197248

 2017-02-06 02:53:34.738054+01 | 1486346014.73805 | pgbench_branches_pkey |            40960
 2017-02-06 02:53:34.738054+01 | 1486346014.73805 | pgbench_tellers_pkey  |           245760
 2017-02-06 02:53:34.738054+01 | 1486346014.73805 | pgbench_accounts_pkey |       2246197248

 2017-02-06 02:53:35.803325+01 | 1486346015.80332 | pgbench_branches_pkey |            40960
 2017-02-06 02:53:35.803325+01 | 1486346015.80332 | pgbench_tellers_pkey  |           245760
 2017-02-06 02:53:35.803325+01 | 1486346015.80332 | pgbench_accounts_pkey |       2246197248

 2017-02-06 02:53:36.879645+01 | 1486346016.87965 | pgbench_branches_pkey |            40960
 2017-02-06 02:53:36.879645+01 | 1486346016.87965 | pgbench_tellers_pkey  |           245760
 2017-02-06 02:53:36.879645+01 | 1486346016.87965 | pgbench_accounts_pkey |       2246197248

 2017-02-06 02:53:37.950772+01 | 1486346017.95077 | pgbench_branches_pkey |            40960
 2017-02-06 02:53:37.950772+01 | 1486346017.95077 | pgbench_tellers_pkey  |           245760
 2017-02-06 02:53:37.950772+01 | 1486346017.95077 | pgbench_accounts_pkey |       2246197248

 2017-02-06 02:53:39.023098+01 | 1486346019.0231 | pgbench_branches_pkey |            40960
 2017-02-06 02:53:39.023098+01 | 1486346019.0231 | pgbench_tellers_pkey  |           245760
 2017-02-06 02:53:39.023098+01 | 1486346019.0231 | pgbench_accounts_pkey |       2246197248

 2017-02-06 02:53:40.09765+01 | 1486346020.09765 | pgbench_branches_pkey |            40960
 2017-02-06 02:53:40.09765+01 | 1486346020.09765 | pgbench_tellers_pkey  |           245760
 2017-02-06 02:53:40.09765+01 | 1486346020.09765 | pgbench_accounts_pkey |       2246197248

 2017-02-06 02:53:41.168542+01 | 1486346021.16854 | pgbench_branches_pkey |            40960
 2017-02-06 02:53:41.168542+01 | 1486346021.16854 | pgbench_tellers_pkey  |           245760
 2017-02-06 02:53:41.168542+01 | 1486346021.16854 | pgbench_accounts_pkey |       2246197248

 2017-02-06 02:53:42.245978+01 | 1486346022.24598 | pgbench_branches_pkey |            40960
 2017-02-06 02:53:42.245978+01 | 1486346022.24598 | pgbench_tellers_pkey  |           245760
 2017-02-06 02:53:42.245978+01 | 1486346022.24598 | pgbench_accounts_pkey |       2246197248

 2017-02-06 02:53:43.316026+01 | 1486346023.31603 | pgbench_branches_pkey |            40960
 2017-02-06 02:53:43.316026+01 | 1486346023.31603 | pgbench_tellers_pkey  |           245760
 2017-02-06 02:53:43.316026+01 | 1486346023.31603 | pgbench_accounts_pkey |       2246197248

 2017-02-06 02:53:44.39129+01 | 1486346024.39129 | pgbench_branches_pkey |            40960
 2017-02-06 02:53:44.39129+01 | 1486346024.39129 | pgbench_tellers_pkey  |           245760
 2017-02-06 02:53:44.39129+01 | 1486346024.39129 | pgbench_accounts_pkey |       2246197248

 2017-02-06 02:53:45.465945+01 | 1486346025.46595 | pgbench_branches_pkey |            40960
 2017-02-06 02:53:45.465945+01 | 1486346025.46595 | pgbench_tellers_pkey  |           245760
 2017-02-06 02:53:45.465945+01 | 1486346025.46595 | pgbench_accounts_pkey |       2246197248

 2017-02-06 02:53:46.530792+01 | 1486346026.53079 | pgbench_branches_pkey |            40960
 2017-02-06 02:53:46.530792+01 | 1486346026.53079 | pgbench_tellers_pkey  |           245760
 2017-02-06 02:53:46.530792+01 | 1486346026.53079 | pgbench_accounts_pkey |       2246197248

 2017-02-06 02:53:47.600427+01 | 1486346027.60043 | pgbench_branches_pkey |            40960
 2017-02-06 02:53:47.600427+01 | 1486346027.60043 | pgbench_tellers_pkey  |           245760
 2017-02-06 02:53:47.600427+01 | 1486346027.60043 | pgbench_accounts_pkey |       2246197248

 2017-02-06 02:53:48.667315+01 | 1486346028.66732 | pgbench_branches_pkey |            40960
 2017-02-06 02:53:48.667315+01 | 1486346028.66732 | pgbench_tellers_pkey  |           245760
 2017-02-06 02:53:48.667315+01 | 1486346028.66732 | pgbench_accounts_pkey |       2246197248

 2017-02-06 02:53:49.746725+01 | 1486346029.74673 | pgbench_branches_pkey |            40960
 2017-02-06 02:53:49.746725+01 | 1486346029.74673 | pgbench_tellers_pkey  |           245760
 2017-02-06 02:53:49.746725+01 | 1486346029.74673 | pgbench_accounts_pkey |       2246197248

 2017-02-06 02:53:50.823746+01 | 1486346030.82375 | pgbench_branches_pkey |            40960
 2017-02-06 02:53:50.823746+01 | 1486346030.82375 | pgbench_tellers_pkey  |           245760
 2017-02-06 02:53:50.823746+01 | 1486346030.82375 | pgbench_accounts_pkey |       2246197248

 2017-02-06 02:53:51.894084+01 | 1486346031.89408 | pgbench_branches_pkey |            40960
 2017-02-06 02:53:51.894084+01 | 1486346031.89408 | pgbench_tellers_pkey  |           245760
 2017-02-06 02:53:51.894084+01 | 1486346031.89408 | pgbench_accounts_pkey |       2246197248

 2017-02-06 02:53:52.972081+01 | 1486346032.97208 | pgbench_branches_pkey |            40960
 2017-02-06 02:53:52.972081+01 | 1486346032.97208 | pgbench_tellers_pkey  |           245760
 2017-02-06 02:53:52.972081+01 | 1486346032.97208 | pgbench_accounts_pkey |       2246197248

 2017-02-06 02:53:54.048986+01 | 1486346034.04899 | pgbench_branches_pkey |            40960
 2017-02-06 02:53:54.048986+01 | 1486346034.04899 | pgbench_tellers_pkey  |           245760
 2017-02-06 02:53:54.048986+01 | 1486346034.04899 | pgbench_accounts_pkey |       2246197248

 2017-02-06 02:53:55.127113+01 | 1486346035.12711 | pgbench_branches_pkey |            40960
 2017-02-06 02:53:55.127113+01 | 1486346035.12711 | pgbench_tellers_pkey  |           245760
 2017-02-06 02:53:55.127113+01 | 1486346035.12711 | pgbench_accounts_pkey |       2246197248

 2017-02-06 02:53:56.202384+01 | 1486346036.20238 | pgbench_branches_pkey |            40960
 2017-02-06 02:53:56.202384+01 | 1486346036.20238 | pgbench_tellers_pkey  |           245760
 2017-02-06 02:53:56.202384+01 | 1486346036.20238 | pgbench_accounts_pkey |       2246197248

 2017-02-06 02:53:57.269066+01 | 1486346037.26907 | pgbench_branches_pkey |            40960
 2017-02-06 02:53:57.269066+01 | 1486346037.26907 | pgbench_tellers_pkey  |           245760
 2017-02-06 02:53:57.269066+01 | 1486346037.26907 | pgbench_accounts_pkey |       2246197248

 2017-02-06 02:53:58.339921+01 | 1486346038.33992 | pgbench_branches_pkey |            40960
 2017-02-06 02:53:58.339921+01 | 1486346038.33992 | pgbench_tellers_pkey  |           245760
 2017-02-06 02:53:58.339921+01 | 1486346038.33992 | pgbench_accounts_pkey |       2246197248

 2017-02-06 02:53:59.410492+01 | 1486346039.41049 | pgbench_branches_pkey |            40960
 2017-02-06 02:53:59.410492+01 | 1486346039.41049 | pgbench_tellers_pkey  |           245760
 2017-02-06 02:53:59.410492+01 | 1486346039.41049 | pgbench_accounts_pkey |       2246197248

 2017-02-06 02:54:00.484637+01 | 1486346040.48464 | pgbench_branches_pkey |            40960
 2017-02-06 02:54:00.484637+01 | 1486346040.48464 | pgbench_tellers_pkey  |           245760
 2017-02-06 02:54:00.484637+01 | 1486346040.48464 | pgbench_accounts_pkey |       2246197248

 2017-02-06 02:54:01.560967+01 | 1486346041.56097 | pgbench_branches_pkey |            40960
 2017-02-06 02:54:01.560967+01 | 1486346041.56097 | pgbench_tellers_pkey  |           245760
 2017-02-06 02:54:01.560967+01 | 1486346041.56097 | pgbench_accounts_pkey |       2246197248

 2017-02-06 02:54:02.636897+01 | 1486346042.6369 | pgbench_branches_pkey |            40960
 2017-02-06 02:54:02.636897+01 | 1486346042.6369 | pgbench_tellers_pkey  |           245760
 2017-02-06 02:54:02.636897+01 | 1486346042.6369 | pgbench_accounts_pkey |       2246197248

 2017-02-06 02:54:03.710998+01 | 1486346043.711 | pgbench_branches_pkey |            40960
 2017-02-06 02:54:03.710998+01 | 1486346043.711 | pgbench_tellers_pkey  |           245760
 2017-02-06 02:54:03.710998+01 | 1486346043.711 | pgbench_accounts_pkey |       2246197248

 2017-02-06 02:54:04.790219+01 | 1486346044.79022 | pgbench_branches_pkey |            40960
 2017-02-06 02:54:04.790219+01 | 1486346044.79022 | pgbench_tellers_pkey  |           245760
 2017-02-06 02:54:04.790219+01 | 1486346044.79022 | pgbench_accounts_pkey |       2246197248

 2017-02-06 02:54:05.869911+01 | 1486346045.86991 | pgbench_branches_pkey |            40960
 2017-02-06 02:54:05.869911+01 | 1486346045.86991 | pgbench_tellers_pkey  |           245760
 2017-02-06 02:54:05.869911+01 | 1486346045.86991 | pgbench_accounts_pkey |       2246197248

 2017-02-06 02:54:06.949336+01 | 1486346046.94934 | pgbench_branches_pkey |            40960
 2017-02-06 02:54:06.949336+01 | 1486346046.94934 | pgbench_tellers_pkey  |           245760
 2017-02-06 02:54:06.949336+01 | 1486346046.94934 | pgbench_accounts_pkey |       2246197248

 2017-02-06 02:54:08.029051+01 | 1486346048.02905 | pgbench_branches_pkey |            40960
 2017-02-06 02:54:08.029051+01 | 1486346048.02905 | pgbench_tellers_pkey  |           245760
 2017-02-06 02:54:08.029051+01 | 1486346048.02905 | pgbench_accounts_pkey |       2246197248

 2017-02-06 02:54:09.09688+01 | 1486346049.09688 | pgbench_branches_pkey |            40960
 2017-02-06 02:54:09.09688+01 | 1486346049.09688 | pgbench_tellers_pkey  |           245760
 2017-02-06 02:54:09.09688+01 | 1486346049.09688 | pgbench_accounts_pkey |       2246197248

 2017-02-06 02:54:10.175689+01 | 1486346050.17569 | pgbench_branches_pkey |            40960
 2017-02-06 02:54:10.175689+01 | 1486346050.17569 | pgbench_tellers_pkey  |           245760
 2017-02-06 02:54:10.175689+01 | 1486346050.17569 | pgbench_accounts_pkey |       2246197248

 2017-02-06 02:54:11.250518+01 | 1486346051.25052 | pgbench_branches_pkey |            40960
 2017-02-06 02:54:11.250518+01 | 1486346051.25052 | pgbench_tellers_pkey  |           245760
 2017-02-06 02:54:11.250518+01 | 1486346051.25052 | pgbench_accounts_pkey |       2246197248

 2017-02-06 02:54:12.327441+01 | 1486346052.32744 | pgbench_branches_pkey |            40960
 2017-02-06 02:54:12.327441+01 | 1486346052.32744 | pgbench_tellers_pkey  |           245760
 2017-02-06 02:54:12.327441+01 | 1486346052.32744 | pgbench_accounts_pkey |       2246197248

 2017-02-06 02:54:13.403029+01 | 1486346053.40303 | pgbench_branches_pkey |            40960
 2017-02-06 02:54:13.403029+01 | 1486346053.40303 | pgbench_tellers_pkey  |           245760
 2017-02-06 02:54:13.403029+01 | 1486346053.40303 | pgbench_accounts_pkey |       2246197248

 2017-02-06 02:54:14.473236+01 | 1486346054.47324 | pgbench_branches_pkey |            40960
 2017-02-06 02:54:14.473236+01 | 1486346054.47324 | pgbench_tellers_pkey  |           245760
 2017-02-06 02:54:14.473236+01 | 1486346054.47324 | pgbench_accounts_pkey |       2246197248

 2017-02-06 02:54:15.552221+01 | 1486346055.55222 | pgbench_branches_pkey |            40960
 2017-02-06 02:54:15.552221+01 | 1486346055.55222 | pgbench_tellers_pkey  |           245760
 2017-02-06 02:54:15.552221+01 | 1486346055.55222 | pgbench_accounts_pkey |       2246197248

 2017-02-06 02:54:16.634581+01 | 1486346056.63458 | pgbench_branches_pkey |            40960
 2017-02-06 02:54:16.634581+01 | 1486346056.63458 | pgbench_tellers_pkey  |           245760
 2017-02-06 02:54:16.634581+01 | 1486346056.63458 | pgbench_accounts_pkey |       2246197248

 2017-02-06 02:54:17.710838+01 | 1486346057.71084 | pgbench_branches_pkey |            40960
 2017-02-06 02:54:17.710838+01 | 1486346057.71084 | pgbench_tellers_pkey  |           245760
 2017-02-06 02:54:17.710838+01 | 1486346057.71084 | pgbench_accounts_pkey |       2246197248

 2017-02-06 02:54:18.782931+01 | 1486346058.78293 | pgbench_branches_pkey |            40960
 2017-02-06 02:54:18.782931+01 | 1486346058.78293 | pgbench_tellers_pkey  |           245760
 2017-02-06 02:54:18.782931+01 | 1486346058.78293 | pgbench_accounts_pkey |       2246197248

 2017-02-06 02:54:19.852582+01 | 1486346059.85258 | pgbench_branches_pkey |            40960
 2017-02-06 02:54:19.852582+01 | 1486346059.85258 | pgbench_tellers_pkey  |           245760
 2017-02-06 02:54:19.852582+01 | 1486346059.85258 | pgbench_accounts_pkey |       2246197248

 2017-02-06 02:54:20.91948+01 | 1486346060.91948 | pgbench_branches_pkey |            40960
 2017-02-06 02:54:20.91948+01 | 1486346060.91948 | pgbench_tellers_pkey  |           245760
 2017-02-06 02:54:20.91948+01 | 1486346060.91948 | pgbench_accounts_pkey |       2246197248

 2017-02-06 02:54:21.996768+01 | 1486346061.99677 | pgbench_branches_pkey |            40960
 2017-02-06 02:54:21.996768+01 | 1486346061.99677 | pgbench_tellers_pkey  |           245760
 2017-02-06 02:54:21.996768+01 | 1486346061.99677 | pgbench_accounts_pkey |       2246197248

 2017-02-06 02:54:23.073305+01 | 1486346063.0733 | pgbench_branches_pkey |            40960
 2017-02-06 02:54:23.073305+01 | 1486346063.0733 | pgbench_tellers_pkey  |           245760
 2017-02-06 02:54:23.073305+01 | 1486346063.0733 | pgbench_accounts_pkey |       2246197248

 2017-02-06 02:54:24.146561+01 | 1486346064.14656 | pgbench_branches_pkey |            40960
 2017-02-06 02:54:24.146561+01 | 1486346064.14656 | pgbench_tellers_pkey  |           245760
 2017-02-06 02:54:24.146561+01 | 1486346064.14656 | pgbench_accounts_pkey |       2246197248

 2017-02-06 02:54:25.224928+01 | 1486346065.22493 | pgbench_branches_pkey |            40960
 2017-02-06 02:54:25.224928+01 | 1486346065.22493 | pgbench_tellers_pkey  |           245760
 2017-02-06 02:54:25.224928+01 | 1486346065.22493 | pgbench_accounts_pkey |       2246197248

 2017-02-06 02:54:26.300746+01 | 1486346066.30075 | pgbench_branches_pkey |            40960
 2017-02-06 02:54:26.300746+01 | 1486346066.30075 | pgbench_tellers_pkey  |           245760
 2017-02-06 02:54:26.300746+01 | 1486346066.30075 | pgbench_accounts_pkey |       2246197248

 2017-02-06 02:54:27.381305+01 | 1486346067.3813 | pgbench_branches_pkey |            40960
 2017-02-06 02:54:27.381305+01 | 1486346067.3813 | pgbench_tellers_pkey  |           245760
 2017-02-06 02:54:27.381305+01 | 1486346067.3813 | pgbench_accounts_pkey |       2246197248

 2017-02-06 02:54:28.454552+01 | 1486346068.45455 | pgbench_branches_pkey |            40960
 2017-02-06 02:54:28.454552+01 | 1486346068.45455 | pgbench_tellers_pkey  |           245760
 2017-02-06 02:54:28.454552+01 | 1486346068.45455 | pgbench_accounts_pkey |       2246197248

 2017-02-06 02:54:29.530542+01 | 1486346069.53054 | pgbench_branches_pkey |            40960
 2017-02-06 02:54:29.530542+01 | 1486346069.53054 | pgbench_tellers_pkey  |           245760
 2017-02-06 02:54:29.530542+01 | 1486346069.53054 | pgbench_accounts_pkey |       2246197248

 2017-02-06 02:54:30.614464+01 | 1486346070.61446 | pgbench_branches_pkey |            40960
 2017-02-06 02:54:30.614464+01 | 1486346070.61446 | pgbench_tellers_pkey  |           245760
 2017-02-06 02:54:30.614464+01 | 1486346070.61446 | pgbench_accounts_pkey |       2246197248

 2017-02-06 02:54:31.697755+01 | 1486346071.69776 | pgbench_branches_pkey |            40960
 2017-02-06 02:54:31.697755+01 | 1486346071.69776 | pgbench_tellers_pkey  |           245760
 2017-02-06 02:54:31.697755+01 | 1486346071.69776 | pgbench_accounts_pkey |       2246197248

 2017-02-06 02:54:32.773284+01 | 1486346072.77328 | pgbench_branches_pkey |            40960
 2017-02-06 02:54:32.773284+01 | 1486346072.77328 | pgbench_tellers_pkey  |           245760
 2017-02-06 02:54:32.773284+01 | 1486346072.77328 | pgbench_accounts_pkey |       2246197248

 2017-02-06 02:54:33.843783+01 | 1486346073.84378 | pgbench_branches_pkey |            40960
 2017-02-06 02:54:33.843783+01 | 1486346073.84378 | pgbench_tellers_pkey  |           245760
 2017-02-06 02:54:33.843783+01 | 1486346073.84378 | pgbench_accounts_pkey |       2246197248

 2017-02-06 02:54:34.924089+01 | 1486346074.92409 | pgbench_branches_pkey |            40960
 2017-02-06 02:54:34.924089+01 | 1486346074.92409 | pgbench_tellers_pkey  |           245760
 2017-02-06 02:54:34.924089+01 | 1486346074.92409 | pgbench_accounts_pkey |       2246197248

 2017-02-06 02:54:36.001158+01 | 1486346076.00116 | pgbench_branches_pkey |            40960
 2017-02-06 02:54:36.001158+01 | 1486346076.00116 | pgbench_tellers_pkey  |           245760
 2017-02-06 02:54:36.001158+01 | 1486346076.00116 | pgbench_accounts_pkey |       2246197248

 2017-02-06 02:54:37.072101+01 | 1486346077.0721 | pgbench_branches_pkey |            40960
 2017-02-06 02:54:37.072101+01 | 1486346077.0721 | pgbench_tellers_pkey  |           245760
 2017-02-06 02:54:37.072101+01 | 1486346077.0721 | pgbench_accounts_pkey |       2246197248

 2017-02-06 02:54:38.146006+01 | 1486346078.14601 | pgbench_branches_pkey |            40960
 2017-02-06 02:54:38.146006+01 | 1486346078.14601 | pgbench_tellers_pkey  |           245760
 2017-02-06 02:54:38.146006+01 | 1486346078.14601 | pgbench_accounts_pkey |       2246197248

 2017-02-06 02:54:39.227639+01 | 1486346079.22764 | pgbench_branches_pkey |            40960
 2017-02-06 02:54:39.227639+01 | 1486346079.22764 | pgbench_tellers_pkey  |           245760
 2017-02-06 02:54:39.227639+01 | 1486346079.22764 | pgbench_accounts_pkey |       2246197248

 2017-02-06 02:54:40.298056+01 | 1486346080.29806 | pgbench_branches_pkey |            40960
 2017-02-06 02:54:40.298056+01 | 1486346080.29806 | pgbench_tellers_pkey  |           245760
 2017-02-06 02:54:40.298056+01 | 1486346080.29806 | pgbench_accounts_pkey |       2246197248

 2017-02-06 02:54:41.377128+01 | 1486346081.37713 | pgbench_branches_pkey |            40960
 2017-02-06 02:54:41.377128+01 | 1486346081.37713 | pgbench_tellers_pkey  |           245760
 2017-02-06 02:54:41.377128+01 | 1486346081.37713 | pgbench_accounts_pkey |       2246197248

 2017-02-06 02:54:42.450784+01 | 1486346082.45078 | pgbench_branches_pkey |            40960
 2017-02-06 02:54:42.450784+01 | 1486346082.45078 | pgbench_tellers_pkey  |           245760
 2017-02-06 02:54:42.450784+01 | 1486346082.45078 | pgbench_accounts_pkey |       2246197248

 2017-02-06 02:54:43.528134+01 | 1486346083.52813 | pgbench_branches_pkey |            40960
 2017-02-06 02:54:43.528134+01 | 1486346083.52813 | pgbench_tellers_pkey  |           245760
 2017-02-06 02:54:43.528134+01 | 1486346083.52813 | pgbench_accounts_pkey |       2246197248

 2017-02-06 02:54:44.599374+01 | 1486346084.59937 | pgbench_branches_pkey |            40960
 2017-02-06 02:54:44.599374+01 | 1486346084.59937 | pgbench_tellers_pkey  |           245760
 2017-02-06 02:54:44.599374+01 | 1486346084.59937 | pgbench_accounts_pkey |       2246197248

 2017-02-06 02:54:45.670075+01 | 1486346085.67007 | pgbench_branches_pkey |            40960
 2017-02-06 02:54:45.670075+01 | 1486346085.67007 | pgbench_tellers_pkey  |           245760
 2017-02-06 02:54:45.670075+01 | 1486346085.67007 | pgbench_accounts_pkey |       2246197248

 2017-02-06 02:54:46.738107+01 | 1486346086.73811 | pgbench_branches_pkey |            40960
 2017-02-06 02:54:46.738107+01 | 1486346086.73811 | pgbench_tellers_pkey  |           245760
 2017-02-06 02:54:46.738107+01 | 1486346086.73811 | pgbench_accounts_pkey |       2246197248

 2017-02-06 02:54:47.81375+01 | 1486346087.81375 | pgbench_branches_pkey |            40960
 2017-02-06 02:54:47.81375+01 | 1486346087.81375 | pgbench_tellers_pkey  |           245760
 2017-02-06 02:54:47.81375+01 | 1486346087.81375 | pgbench_accounts_pkey |       2246197248

 2017-02-06 02:54:48.886799+01 | 1486346088.8868 | pgbench_branches_pkey |            40960
 2017-02-06 02:54:48.886799+01 | 1486346088.8868 | pgbench_tellers_pkey  |           245760
 2017-02-06 02:54:48.886799+01 | 1486346088.8868 | pgbench_accounts_pkey |       2246197248

 2017-02-06 02:54:49.967799+01 | 1486346089.9678 | pgbench_branches_pkey |            40960
 2017-02-06 02:54:49.967799+01 | 1486346089.9678 | pgbench_tellers_pkey  |           245760
 2017-02-06 02:54:49.967799+01 | 1486346089.9678 | pgbench_accounts_pkey |       2246197248

 2017-02-06 02:54:51.042473+01 | 1486346091.04247 | pgbench_branches_pkey |            40960
 2017-02-06 02:54:51.042473+01 | 1486346091.04247 | pgbench_tellers_pkey  |           245760
 2017-02-06 02:54:51.042473+01 | 1486346091.04247 | pgbench_accounts_pkey |       2246197248

 2017-02-06 02:54:52.110668+01 | 1486346092.11067 | pgbench_branches_pkey |            40960
 2017-02-06 02:54:52.110668+01 | 1486346092.11067 | pgbench_tellers_pkey  |           245760
 2017-02-06 02:54:52.110668+01 | 1486346092.11067 | pgbench_accounts_pkey |       2246197248

 2017-02-06 02:54:53.191686+01 | 1486346093.19169 | pgbench_branches_pkey |            40960
 2017-02-06 02:54:53.191686+01 | 1486346093.19169 | pgbench_tellers_pkey  |           245760
 2017-02-06 02:54:53.191686+01 | 1486346093.19169 | pgbench_accounts_pkey |       2246197248

 2017-02-06 02:54:54.275656+01 | 1486346094.27566 | pgbench_branches_pkey |            40960
 2017-02-06 02:54:54.275656+01 | 1486346094.27566 | pgbench_tellers_pkey  |           245760
 2017-02-06 02:54:54.275656+01 | 1486346094.27566 | pgbench_accounts_pkey |       2246197248

 2017-02-06 02:54:55.351337+01 | 1486346095.35134 | pgbench_branches_pkey |            40960
 2017-02-06 02:54:55.351337+01 | 1486346095.35134 | pgbench_tellers_pkey  |           245760
 2017-02-06 02:54:55.351337+01 | 1486346095.35134 | pgbench_accounts_pkey |       2246197248

 2017-02-06 02:54:56.42937+01 | 1486346096.42937 | pgbench_branches_pkey |            40960
 2017-02-06 02:54:56.42937+01 | 1486346096.42937 | pgbench_tellers_pkey  |           245760
 2017-02-06 02:54:56.42937+01 | 1486346096.42937 | pgbench_accounts_pkey |       2246197248

 2017-02-06 02:54:57.499239+01 | 1486346097.49924 | pgbench_branches_pkey |            40960
 2017-02-06 02:54:57.499239+01 | 1486346097.49924 | pgbench_tellers_pkey  |           245760
 2017-02-06 02:54:57.499239+01 | 1486346097.49924 | pgbench_accounts_pkey |       2246197248

 2017-02-06 02:54:58.585488+01 | 1486346098.58549 | pgbench_branches_pkey |            40960
 2017-02-06 02:54:58.585488+01 | 1486346098.58549 | pgbench_tellers_pkey  |           245760
 2017-02-06 02:54:58.585488+01 | 1486346098.58549 | pgbench_accounts_pkey |       2246197248

 2017-02-06 02:54:59.664754+01 | 1486346099.66475 | pgbench_branches_pkey |            40960
 2017-02-06 02:54:59.664754+01 | 1486346099.66475 | pgbench_tellers_pkey  |           245760
 2017-02-06 02:54:59.664754+01 | 1486346099.66475 | pgbench_accounts_pkey |       2246197248

 2017-02-06 02:55:00.738314+01 | 1486346100.73831 | pgbench_branches_pkey |            40960
 2017-02-06 02:55:00.738314+01 | 1486346100.73831 | pgbench_tellers_pkey  |           245760
 2017-02-06 02:55:00.738314+01 | 1486346100.73831 | pgbench_accounts_pkey |       2246197248

 2017-02-06 02:55:01.810578+01 | 1486346101.81058 | pgbench_branches_pkey |            40960
 2017-02-06 02:55:01.810578+01 | 1486346101.81058 | pgbench_tellers_pkey  |           245760
 2017-02-06 02:55:01.810578+01 | 1486346101.81058 | pgbench_accounts_pkey |       2246197248

 2017-02-06 02:55:02.887796+01 | 1486346102.8878 | pgbench_branches_pkey |            40960
 2017-02-06 02:55:02.887796+01 | 1486346102.8878 | pgbench_tellers_pkey  |           245760
 2017-02-06 02:55:02.887796+01 | 1486346102.8878 | pgbench_accounts_pkey |       2246197248

 2017-02-06 02:55:03.967886+01 | 1486346103.96789 | pgbench_branches_pkey |            40960
 2017-02-06 02:55:03.967886+01 | 1486346103.96789 | pgbench_tellers_pkey  |           245760
 2017-02-06 02:55:03.967886+01 | 1486346103.96789 | pgbench_accounts_pkey |       2246197248

 2017-02-06 02:55:05.046093+01 | 1486346105.04609 | pgbench_branches_pkey |            40960
 2017-02-06 02:55:05.046093+01 | 1486346105.04609 | pgbench_tellers_pkey  |           245760
 2017-02-06 02:55:05.046093+01 | 1486346105.04609 | pgbench_accounts_pkey |       2246197248

 2017-02-06 02:55:06.116981+01 | 1486346106.11698 | pgbench_branches_pkey |            40960
 2017-02-06 02:55:06.116981+01 | 1486346106.11698 | pgbench_tellers_pkey  |           245760
 2017-02-06 02:55:06.116981+01 | 1486346106.11698 | pgbench_accounts_pkey |       2246197248

 2017-02-06 02:55:07.194924+01 | 1486346107.19492 | pgbench_branches_pkey |            40960
 2017-02-06 02:55:07.194924+01 | 1486346107.19492 | pgbench_tellers_pkey  |           245760
 2017-02-06 02:55:07.194924+01 | 1486346107.19492 | pgbench_accounts_pkey |       2246197248

 2017-02-06 02:55:08.264535+01 | 1486346108.26453 | pgbench_branches_pkey |            40960
 2017-02-06 02:55:08.264535+01 | 1486346108.26453 | pgbench_tellers_pkey  |           245760
 2017-02-06 02:55:08.264535+01 | 1486346108.26453 | pgbench_accounts_pkey |       2246197248

 2017-02-06 02:55:09.339132+01 | 1486346109.33913 | pgbench_branches_pkey |            40960
 2017-02-06 02:55:09.339132+01 | 1486346109.33913 | pgbench_tellers_pkey  |           245760
 2017-02-06 02:55:09.339132+01 | 1486346109.33913 | pgbench_accounts_pkey |       2246197248

 2017-02-06 02:55:10.413259+01 | 1486346110.41326 | pgbench_branches_pkey |            40960
 2017-02-06 02:55:10.413259+01 | 1486346110.41326 | pgbench_tellers_pkey  |           245760
 2017-02-06 02:55:10.413259+01 | 1486346110.41326 | pgbench_accounts_pkey |       2246197248

 2017-02-06 02:55:11.490781+01 | 1486346111.49078 | pgbench_branches_pkey |            40960
 2017-02-06 02:55:11.490781+01 | 1486346111.49078 | pgbench_tellers_pkey  |           245760
 2017-02-06 02:55:11.490781+01 | 1486346111.49078 | pgbench_accounts_pkey |       2246197248

 2017-02-06 02:55:12.576782+01 | 1486346112.57678 | pgbench_branches_pkey |            40960
 2017-02-06 02:55:12.576782+01 | 1486346112.57678 | pgbench_tellers_pkey  |           245760
 2017-02-06 02:55:12.576782+01 | 1486346112.57678 | pgbench_accounts_pkey |       2246197248

 2017-02-06 02:55:13.651883+01 | 1486346113.65188 | pgbench_branches_pkey |            40960
 2017-02-06 02:55:13.651883+01 | 1486346113.65188 | pgbench_tellers_pkey  |           245760
 2017-02-06 02:55:13.651883+01 | 1486346113.65188 | pgbench_accounts_pkey |       2246197248

 2017-02-06 02:55:14.729755+01 | 1486346114.72975 | pgbench_branches_pkey |            40960
 2017-02-06 02:55:14.729755+01 | 1486346114.72975 | pgbench_tellers_pkey  |           245760
 2017-02-06 02:55:14.729755+01 | 1486346114.72975 | pgbench_accounts_pkey |       2246197248

 2017-02-06 02:55:15.807127+01 | 1486346115.80713 | pgbench_branches_pkey |            40960
 2017-02-06 02:55:15.807127+01 | 1486346115.80713 | pgbench_tellers_pkey  |           245760
 2017-02-06 02:55:15.807127+01 | 1486346115.80713 | pgbench_accounts_pkey |       2246197248

 2017-02-06 02:55:16.876163+01 | 1486346116.87616 | pgbench_branches_pkey |            40960
 2017-02-06 02:55:16.876163+01 | 1486346116.87616 | pgbench_tellers_pkey  |           245760
 2017-02-06 02:55:16.876163+01 | 1486346116.87616 | pgbench_accounts_pkey |       2246197248

 2017-02-06 02:55:17.944295+01 | 1486346117.94429 | pgbench_branches_pkey |            40960
 2017-02-06 02:55:17.944295+01 | 1486346117.94429 | pgbench_tellers_pkey  |           245760
 2017-02-06 02:55:17.944295+01 | 1486346117.94429 | pgbench_accounts_pkey |       2246197248

 2017-02-06 02:55:19.023297+01 | 1486346119.0233 | pgbench_branches_pkey |            40960
 2017-02-06 02:55:19.023297+01 | 1486346119.0233 | pgbench_tellers_pkey  |           245760
 2017-02-06 02:55:19.023297+01 | 1486346119.0233 | pgbench_accounts_pkey |       2246197248

 2017-02-06 02:55:20.105006+01 | 1486346120.10501 | pgbench_branches_pkey |            40960
 2017-02-06 02:55:20.105006+01 | 1486346120.10501 | pgbench_tellers_pkey  |           245760
 2017-02-06 02:55:20.105006+01 | 1486346120.10501 | pgbench_accounts_pkey |       2246197248

 2017-02-06 02:55:21.185271+01 | 1486346121.18527 | pgbench_branches_pkey |            40960
 2017-02-06 02:55:21.185271+01 | 1486346121.18527 | pgbench_tellers_pkey  |           245760
 2017-02-06 02:55:21.185271+01 | 1486346121.18527 | pgbench_accounts_pkey |       2246197248

 2017-02-06 02:55:22.260873+01 | 1486346122.26087 | pgbench_branches_pkey |            40960
 2017-02-06 02:55:22.260873+01 | 1486346122.26087 | pgbench_tellers_pkey  |           245760
 2017-02-06 02:55:22.260873+01 | 1486346122.26087 | pgbench_accounts_pkey |       2246197248

 2017-02-06 02:55:23.32835+01 | 1486346123.32835 | pgbench_branches_pkey |            40960
 2017-02-06 02:55:23.32835+01 | 1486346123.32835 | pgbench_tellers_pkey  |           245760
 2017-02-06 02:55:23.32835+01 | 1486346123.32835 | pgbench_accounts_pkey |       2246197248

 2017-02-06 02:55:24.404095+01 | 1486346124.40409 | pgbench_branches_pkey |            40960
 2017-02-06 02:55:24.404095+01 | 1486346124.40409 | pgbench_tellers_pkey  |           245760
 2017-02-06 02:55:24.404095+01 | 1486346124.40409 | pgbench_accounts_pkey |       2246197248

 2017-02-06 02:55:25.47139+01 | 1486346125.47139 | pgbench_branches_pkey |            40960
 2017-02-06 02:55:25.47139+01 | 1486346125.47139 | pgbench_tellers_pkey  |           245760
 2017-02-06 02:55:25.47139+01 | 1486346125.47139 | pgbench_accounts_pkey |       2246197248

 2017-02-06 02:55:26.546593+01 | 1486346126.54659 | pgbench_branches_pkey |            40960
 2017-02-06 02:55:26.546593+01 | 1486346126.54659 | pgbench_tellers_pkey  |           245760
 2017-02-06 02:55:26.546593+01 | 1486346126.54659 | pgbench_accounts_pkey |       2246197248

 2017-02-06 02:55:27.623501+01 | 1486346127.6235 | pgbench_branches_pkey |            40960
 2017-02-06 02:55:27.623501+01 | 1486346127.6235 | pgbench_tellers_pkey  |           245760
 2017-02-06 02:55:27.623501+01 | 1486346127.6235 | pgbench_accounts_pkey |       2246197248

 2017-02-06 02:55:28.701001+01 | 1486346128.701 | pgbench_branches_pkey |            40960
 2017-02-06 02:55:28.701001+01 | 1486346128.701 | pgbench_tellers_pkey  |           245760
 2017-02-06 02:55:28.701001+01 | 1486346128.701 | pgbench_accounts_pkey |       2246197248

 2017-02-06 02:55:29.777338+01 | 1486346129.77734 | pgbench_branches_pkey |            40960
 2017-02-06 02:55:29.777338+01 | 1486346129.77734 | pgbench_tellers_pkey  |           245760
 2017-02-06 02:55:29.777338+01 | 1486346129.77734 | pgbench_accounts_pkey |       2246197248

 2017-02-06 02:55:30.855121+01 | 1486346130.85512 | pgbench_branches_pkey |            40960
 2017-02-06 02:55:30.855121+01 | 1486346130.85512 | pgbench_tellers_pkey  |           245760
 2017-02-06 02:55:30.855121+01 | 1486346130.85512 | pgbench_accounts_pkey |       2246197248

 2017-02-06 02:55:31.937802+01 | 1486346131.9378 | pgbench_branches_pkey |            40960
 2017-02-06 02:55:31.937802+01 | 1486346131.9378 | pgbench_tellers_pkey  |           245760
 2017-02-06 02:55:31.937802+01 | 1486346131.9378 | pgbench_accounts_pkey |       2246197248

 2017-02-06 02:55:33.016284+01 | 1486346133.01628 | pgbench_branches_pkey |            40960
 2017-02-06 02:55:33.016284+01 | 1486346133.01628 | pgbench_tellers_pkey  |           245760
 2017-02-06 02:55:33.016284+01 | 1486346133.01628 | pgbench_accounts_pkey |       2246197248

 2017-02-06 02:55:34.096397+01 | 1486346134.0964 | pgbench_branches_pkey |            40960
 2017-02-06 02:55:34.096397+01 | 1486346134.0964 | pgbench_tellers_pkey  |           245760
 2017-02-06 02:55:34.096397+01 | 1486346134.0964 | pgbench_accounts_pkey |       2246197248

 2017-02-06 02:55:35.174865+01 | 1486346135.17487 | pgbench_branches_pkey |            40960
 2017-02-06 02:55:35.174865+01 | 1486346135.17487 | pgbench_tellers_pkey  |           245760
 2017-02-06 02:55:35.174865+01 | 1486346135.17487 | pgbench_accounts_pkey |       2246197248

 2017-02-06 02:55:36.256561+01 | 1486346136.25656 | pgbench_branches_pkey |            40960
 2017-02-06 02:55:36.256561+01 | 1486346136.25656 | pgbench_tellers_pkey  |           245760
 2017-02-06 02:55:36.256561+01 | 1486346136.25656 | pgbench_accounts_pkey |       2246197248

 2017-02-06 02:55:37.337124+01 | 1486346137.33712 | pgbench_branches_pkey |            40960
 2017-02-06 02:55:37.337124+01 | 1486346137.33712 | pgbench_tellers_pkey  |           245760
 2017-02-06 02:55:37.337124+01 | 1486346137.33712 | pgbench_accounts_pkey |       2246197248

 2017-02-06 02:55:38.414528+01 | 1486346138.41453 | pgbench_branches_pkey |            40960
 2017-02-06 02:55:38.414528+01 | 1486346138.41453 | pgbench_tellers_pkey  |           245760
 2017-02-06 02:55:38.414528+01 | 1486346138.41453 | pgbench_accounts_pkey |       2246197248

 2017-02-06 02:55:39.497716+01 | 1486346139.49772 | pgbench_branches_pkey |            40960
 2017-02-06 02:55:39.497716+01 | 1486346139.49772 | pgbench_tellers_pkey  |           245760
 2017-02-06 02:55:39.497716+01 | 1486346139.49772 | pgbench_accounts_pkey |       2246197248

 2017-02-06 02:55:40.573346+01 | 1486346140.57335 | pgbench_branches_pkey |            40960
 2017-02-06 02:55:40.573346+01 | 1486346140.57335 | pgbench_tellers_pkey  |           245760
 2017-02-06 02:55:40.573346+01 | 1486346140.57335 | pgbench_accounts_pkey |       2246197248

 2017-02-06 02:55:41.647989+01 | 1486346141.64799 | pgbench_branches_pkey |            40960
 2017-02-06 02:55:41.647989+01 | 1486346141.64799 | pgbench_tellers_pkey  |           245760
 2017-02-06 02:55:41.647989+01 | 1486346141.64799 | pgbench_accounts_pkey |       2246197248

 2017-02-06 02:55:42.726166+01 | 1486346142.72617 | pgbench_branches_pkey |            40960
 2017-02-06 02:55:42.726166+01 | 1486346142.72617 | pgbench_tellers_pkey  |           245760
 2017-02-06 02:55:42.726166+01 | 1486346142.72617 | pgbench_accounts_pkey |       2246197248

 2017-02-06 02:55:43.801123+01 | 1486346143.80112 | pgbench_branches_pkey |            40960
 2017-02-06 02:55:43.801123+01 | 1486346143.80112 | pgbench_tellers_pkey  |           245760
 2017-02-06 02:55:43.801123+01 | 1486346143.80112 | pgbench_accounts_pkey |       2246197248

 2017-02-06 02:55:44.885514+01 | 1486346144.88551 | pgbench_branches_pkey |            40960
 2017-02-06 02:55:44.885514+01 | 1486346144.88551 | pgbench_tellers_pkey  |           245760
 2017-02-06 02:55:44.885514+01 | 1486346144.88551 | pgbench_accounts_pkey |       2246197248

 2017-02-06 02:55:45.961941+01 | 1486346145.96194 | pgbench_branches_pkey |            40960
 2017-02-06 02:55:45.961941+01 | 1486346145.96194 | pgbench_tellers_pkey  |           245760
 2017-02-06 02:55:45.961941+01 | 1486346145.96194 | pgbench_accounts_pkey |       2246197248

 2017-02-06 02:55:47.040235+01 | 1486346147.04024 | pgbench_branches_pkey |            40960
 2017-02-06 02:55:47.040235+01 | 1486346147.04024 | pgbench_tellers_pkey  |           245760
 2017-02-06 02:55:47.040235+01 | 1486346147.04024 | pgbench_accounts_pkey |       2246197248

 2017-02-06 02:55:48.127959+01 | 1486346148.12796 | pgbench_branches_pkey |            40960
 2017-02-06 02:55:48.127959+01 | 1486346148.12796 | pgbench_tellers_pkey  |           245760
 2017-02-06 02:55:48.127959+01 | 1486346148.12796 | pgbench_accounts_pkey |       2246197248

 2017-02-06 02:55:49.201531+01 | 1486346149.20153 | pgbench_branches_pkey |            40960
 2017-02-06 02:55:49.201531+01 | 1486346149.20153 | pgbench_tellers_pkey  |           245760
 2017-02-06 02:55:49.201531+01 | 1486346149.20153 | pgbench_accounts_pkey |       2246197248

 2017-02-06 02:55:50.272017+01 | 1486346150.27202 | pgbench_branches_pkey |            40960
 2017-02-06 02:55:50.272017+01 | 1486346150.27202 | pgbench_tellers_pkey  |           245760
 2017-02-06 02:55:50.272017+01 | 1486346150.27202 | pgbench_accounts_pkey |       2246197248

 2017-02-06 02:55:51.339935+01 | 1486346151.33994 | pgbench_branches_pkey |            40960
 2017-02-06 02:55:51.339935+01 | 1486346151.33994 | pgbench_tellers_pkey  |           245760
 2017-02-06 02:55:51.339935+01 | 1486346151.33994 | pgbench_accounts_pkey |       2246197248

 2017-02-06 02:55:52.413521+01 | 1486346152.41352 | pgbench_branches_pkey |            40960
 2017-02-06 02:55:52.413521+01 | 1486346152.41352 | pgbench_tellers_pkey  |           245760
 2017-02-06 02:55:52.413521+01 | 1486346152.41352 | pgbench_accounts_pkey |       2246197248

 2017-02-06 02:55:53.483217+01 | 1486346153.48322 | pgbench_branches_pkey |            40960
 2017-02-06 02:55:53.483217+01 | 1486346153.48322 | pgbench_tellers_pkey  |           245760
 2017-02-06 02:55:53.483217+01 | 1486346153.48322 | pgbench_accounts_pkey |       2246197248

 2017-02-06 02:55:54.563713+01 | 1486346154.56371 | pgbench_branches_pkey |            40960
 2017-02-06 02:55:54.563713+01 | 1486346154.56371 | pgbench_tellers_pkey  |           245760
 2017-02-06 02:55:54.563713+01 | 1486346154.56371 | pgbench_accounts_pkey |       2246197248

 2017-02-06 02:55:55.640101+01 | 1486346155.6401 | pgbench_branches_pkey |            40960
 2017-02-06 02:55:55.640101+01 | 1486346155.6401 | pgbench_tellers_pkey  |           245760
 2017-02-06 02:55:55.640101+01 | 1486346155.6401 | pgbench_accounts_pkey |       2246197248

 2017-02-06 02:55:56.725299+01 | 1486346156.7253 | pgbench_branches_pkey |            40960
 2017-02-06 02:55:56.725299+01 | 1486346156.7253 | pgbench_tellers_pkey  |           245760
 2017-02-06 02:55:56.725299+01 | 1486346156.7253 | pgbench_accounts_pkey |       2246197248

 2017-02-06 02:55:57.795973+01 | 1486346157.79597 | pgbench_branches_pkey |            40960
 2017-02-06 02:55:57.795973+01 | 1486346157.79597 | pgbench_tellers_pkey  |           245760
 2017-02-06 02:55:57.795973+01 | 1486346157.79597 | pgbench_accounts_pkey |       2246197248

 2017-02-06 02:55:58.872903+01 | 1486346158.8729 | pgbench_branches_pkey |            40960
 2017-02-06 02:55:58.872903+01 | 1486346158.8729 | pgbench_tellers_pkey  |           245760
 2017-02-06 02:55:58.872903+01 | 1486346158.8729 | pgbench_accounts_pkey |       2246197248

 2017-02-06 02:55:59.938102+01 | 1486346159.9381 | pgbench_branches_pkey |            40960
 2017-02-06 02:55:59.938102+01 | 1486346159.9381 | pgbench_tellers_pkey  |           245760
 2017-02-06 02:55:59.938102+01 | 1486346159.9381 | pgbench_accounts_pkey |       2246197248

 2017-02-06 02:56:01.011003+01 | 1486346161.011 | pgbench_branches_pkey |            40960
 2017-02-06 02:56:01.011003+01 | 1486346161.011 | pgbench_tellers_pkey  |           245760
 2017-02-06 02:56:01.011003+01 | 1486346161.011 | pgbench_accounts_pkey |       2246197248

 2017-02-06 02:56:02.090554+01 | 1486346162.09055 | pgbench_branches_pkey |            40960
 2017-02-06 02:56:02.090554+01 | 1486346162.09055 | pgbench_tellers_pkey  |           245760
 2017-02-06 02:56:02.090554+01 | 1486346162.09055 | pgbench_accounts_pkey |       2246197248

 2017-02-06 02:56:03.171401+01 | 1486346163.1714 | pgbench_branches_pkey |            40960
 2017-02-06 02:56:03.171401+01 | 1486346163.1714 | pgbench_tellers_pkey  |           245760
 2017-02-06 02:56:03.171401+01 | 1486346163.1714 | pgbench_accounts_pkey |       2246197248

 2017-02-06 02:56:04.244514+01 | 1486346164.24451 | pgbench_branches_pkey |            40960
 2017-02-06 02:56:04.244514+01 | 1486346164.24451 | pgbench_tellers_pkey  |           245760
 2017-02-06 02:56:04.244514+01 | 1486346164.24451 | pgbench_accounts_pkey |       2246197248

 2017-02-06 02:56:05.31956+01 | 1486346165.31956 | pgbench_branches_pkey |            40960
 2017-02-06 02:56:05.31956+01 | 1486346165.31956 | pgbench_tellers_pkey  |           245760
 2017-02-06 02:56:05.31956+01 | 1486346165.31956 | pgbench_accounts_pkey |       2246197248

 2017-02-06 02:56:06.390559+01 | 1486346166.39056 | pgbench_branches_pkey |            40960
 2017-02-06 02:56:06.390559+01 | 1486346166.39056 | pgbench_tellers_pkey  |           245760
 2017-02-06 02:56:06.390559+01 | 1486346166.39056 | pgbench_accounts_pkey |       2246197248

 2017-02-06 02:56:07.458591+01 | 1486346167.45859 | pgbench_branches_pkey |            40960
 2017-02-06 02:56:07.458591+01 | 1486346167.45859 | pgbench_tellers_pkey  |           245760
 2017-02-06 02:56:07.458591+01 | 1486346167.45859 | pgbench_accounts_pkey |       2246197248

 2017-02-06 02:56:08.53636+01 | 1486346168.53636 | pgbench_branches_pkey |            40960
 2017-02-06 02:56:08.53636+01 | 1486346168.53636 | pgbench_tellers_pkey  |           245760
 2017-02-06 02:56:08.53636+01 | 1486346168.53636 | pgbench_accounts_pkey |       2246197248

 2017-02-06 02:56:09.60312+01 | 1486346169.60312 | pgbench_branches_pkey |            40960
 2017-02-06 02:56:09.60312+01 | 1486346169.60312 | pgbench_tellers_pkey  |           245760
 2017-02-06 02:56:09.60312+01 | 1486346169.60312 | pgbench_accounts_pkey |       2246197248

 2017-02-06 02:56:10.677427+01 | 1486346170.67743 | pgbench_branches_pkey |            40960
 2017-02-06 02:56:10.677427+01 | 1486346170.67743 | pgbench_tellers_pkey  |           245760
 2017-02-06 02:56:10.677427+01 | 1486346170.67743 | pgbench_accounts_pkey |       2246197248

 2017-02-06 02:56:11.755524+01 | 1486346171.75552 | pgbench_branches_pkey |            40960
 2017-02-06 02:56:11.755524+01 | 1486346171.75552 | pgbench_tellers_pkey  |           245760
 2017-02-06 02:56:11.755524+01 | 1486346171.75552 | pgbench_accounts_pkey |       2246197248

 2017-02-06 02:56:12.840473+01 | 1486346172.84047 | pgbench_branches_pkey |            40960
 2017-02-06 02:56:12.840473+01 | 1486346172.84047 | pgbench_tellers_pkey  |           245760
 2017-02-06 02:56:12.840473+01 | 1486346172.84047 | pgbench_accounts_pkey |       2246197248

 2017-02-06 02:56:13.919833+01 | 1486346173.91983 | pgbench_branches_pkey |            40960
 2017-02-06 02:56:13.919833+01 | 1486346173.91983 | pgbench_tellers_pkey  |           245760
 2017-02-06 02:56:13.919833+01 | 1486346173.91983 | pgbench_accounts_pkey |       2246197248

 2017-02-06 02:56:14.993425+01 | 1486346174.99342 | pgbench_branches_pkey |            40960
 2017-02-06 02:56:14.993425+01 | 1486346174.99342 | pgbench_tellers_pkey  |           245760
 2017-02-06 02:56:14.993425+01 | 1486346174.99342 | pgbench_accounts_pkey |       2246197248

