 2017-02-03 22:03:22.396657+01 | 1486155802.39666 |                 0 |               6 |                  8670 |                  419 |            1032054 |             0 |                0 |          739767 |                     0 |        443815 | 2017-02-03 21:37:46.640136+01

 2017-02-03 22:03:23.486761+01 | 1486155803.48676 |                 0 |               6 |                  8670 |                  419 |            1032054 |             0 |                0 |          739767 |                     0 |        443987 | 2017-02-03 21:37:46.640136+01

 2017-02-03 22:03:24.566583+01 | 1486155804.56658 |                 0 |               6 |                  8670 |                  419 |            1032054 |             0 |                0 |          739767 |                     0 |        444219 | 2017-02-03 21:37:46.640136+01

 2017-02-03 22:03:25.648807+01 | 1486155805.64881 |                 0 |               6 |                  8670 |                  419 |            1032054 |             0 |                0 |          739767 |                     0 |        444511 | 2017-02-03 21:37:46.640136+01

 2017-02-03 22:03:26.731398+01 | 1486155806.7314 |                 0 |               6 |                  8670 |                  419 |            1032054 |             0 |                0 |          739767 |                     0 |        444597 | 2017-02-03 21:37:46.640136+01

 2017-02-03 22:03:27.80795+01 | 1486155807.80795 |                 0 |               6 |                  8670 |                  419 |            1032054 |             0 |                0 |          739767 |                     0 |        444829 | 2017-02-03 21:37:46.640136+01

 2017-02-03 22:03:28.88752+01 | 1486155808.88752 |                 0 |               6 |                  8670 |                  419 |            1032054 |             0 |                0 |          739767 |                     0 |        445202 | 2017-02-03 21:37:46.640136+01

 2017-02-03 22:03:29.959745+01 | 1486155809.95974 |                 0 |               6 |                  8670 |                  419 |            1032054 |             0 |                0 |          739767 |                     0 |        445348 | 2017-02-03 21:37:46.640136+01

 2017-02-03 22:03:31.043082+01 | 1486155811.04308 |                 0 |               6 |                  8670 |                  419 |            1032054 |             0 |                0 |          739767 |                     0 |        445472 | 2017-02-03 21:37:46.640136+01

 2017-02-03 22:03:32.117359+01 | 1486155812.11736 |                 0 |               6 |                  8670 |                  419 |            1032054 |             0 |                0 |          739767 |                     0 |        445806 | 2017-02-03 21:37:46.640136+01

 2017-02-03 22:03:33.203568+01 | 1486155813.20357 |                 0 |               6 |                  8670 |                  419 |            1032054 |             0 |                0 |          739767 |                     0 |        445969 | 2017-02-03 21:37:46.640136+01

 2017-02-03 22:03:34.281081+01 | 1486155814.28108 |                 0 |               6 |                  8670 |                  419 |            1032054 |             0 |                0 |          739767 |                     0 |        446303 | 2017-02-03 21:37:46.640136+01

 2017-02-03 22:03:35.354578+01 | 1486155815.35458 |                 0 |               6 |                  8670 |                  419 |            1032054 |             0 |                0 |          739767 |                     0 |        446473 | 2017-02-03 21:37:46.640136+01

 2017-02-03 22:03:36.431919+01 | 1486155816.43192 |                 0 |               6 |                  8670 |                  419 |            1032054 |             0 |                0 |          739767 |                     0 |        446742 | 2017-02-03 21:37:46.640136+01

 2017-02-03 22:03:37.50739+01 | 1486155817.50739 |                 0 |               6 |                  8670 |                  419 |            1032054 |             0 |                0 |          739767 |                     0 |        446952 | 2017-02-03 21:37:46.640136+01

 2017-02-03 22:03:38.585645+01 | 1486155818.58564 |                 0 |               6 |                  8670 |                  419 |            1032054 |             0 |                0 |          739767 |                     0 |        447162 | 2017-02-03 21:37:46.640136+01

 2017-02-03 22:03:39.661294+01 | 1486155819.66129 |                 0 |               6 |                  8670 |                  419 |            1032054 |             0 |                0 |          739767 |                     0 |        447365 | 2017-02-03 21:37:46.640136+01

 2017-02-03 22:03:40.737404+01 | 1486155820.7374 |                 0 |               6 |                  8670 |                  419 |            1032054 |             0 |                0 |          739767 |                     0 |        447710 | 2017-02-03 21:37:46.640136+01

 2017-02-03 22:03:41.825031+01 | 1486155821.82503 |                 0 |               6 |                  8670 |                  419 |            1032054 |             0 |                0 |          739767 |                     0 |        447710 | 2017-02-03 21:37:46.640136+01

 2017-02-03 22:03:42.906222+01 | 1486155822.90622 |                 0 |               6 |                  8670 |                  419 |            1032054 |             0 |                0 |          739767 |                     0 |        448187 | 2017-02-03 21:37:46.640136+01

 2017-02-03 22:03:43.984113+01 | 1486155823.98411 |                 0 |               6 |                  8670 |                  419 |            1032054 |             0 |                0 |          739767 |                     0 |        448376 | 2017-02-03 21:37:46.640136+01

 2017-02-03 22:03:45.059278+01 | 1486155825.05928 |                 0 |               6 |                  8670 |                  419 |            1032054 |             0 |                0 |          739767 |                     0 |        448637 | 2017-02-03 21:37:46.640136+01

 2017-02-03 22:03:46.138284+01 | 1486155826.13828 |                 0 |               6 |                  8670 |                  419 |            1032054 |             0 |                0 |          739767 |                     0 |        448901 | 2017-02-03 21:37:46.640136+01

 2017-02-03 22:03:47.214424+01 | 1486155827.21442 |                 0 |               6 |                  8670 |                  419 |            1032054 |             0 |                0 |          739767 |                     0 |        449158 | 2017-02-03 21:37:46.640136+01

 2017-02-03 22:03:48.293326+01 | 1486155828.29333 |                 0 |               6 |                  8670 |                  419 |            1032054 |             0 |                0 |          739767 |                     0 |        449391 | 2017-02-03 21:37:46.640136+01

 2017-02-03 22:03:49.373312+01 | 1486155829.37331 |                 0 |               6 |                  8670 |                  419 |            1032054 |             0 |                0 |          739767 |                     0 |        449668 | 2017-02-03 21:37:46.640136+01

 2017-02-03 22:03:50.443911+01 | 1486155830.44391 |                 0 |               6 |                  8670 |                  419 |            1032054 |             0 |                0 |          739767 |                     0 |        449791 | 2017-02-03 21:37:46.640136+01

 2017-02-03 22:03:51.522772+01 | 1486155831.52277 |                 0 |               6 |                  8670 |                  419 |            1032054 |             0 |                0 |          739767 |                     0 |        450163 | 2017-02-03 21:37:46.640136+01

 2017-02-03 22:03:52.604365+01 | 1486155832.60437 |                 0 |               6 |                  8670 |                  419 |            1032054 |             0 |                0 |          739767 |                     0 |        450435 | 2017-02-03 21:37:46.640136+01

 2017-02-03 22:03:53.690639+01 | 1486155833.69064 |                 0 |               6 |                  8670 |                  419 |            1032054 |             0 |                0 |          739767 |                     0 |        450624 | 2017-02-03 21:37:46.640136+01

 2017-02-03 22:03:54.772878+01 | 1486155834.77288 |                 0 |               6 |                  8670 |                  419 |            1032054 |             0 |                0 |          739767 |                     0 |        450859 | 2017-02-03 21:37:46.640136+01

 2017-02-03 22:03:55.85016+01 | 1486155835.85016 |                 0 |               6 |                  8670 |                  419 |            1032054 |             0 |                0 |          739767 |                     0 |        451166 | 2017-02-03 21:37:46.640136+01

 2017-02-03 22:03:56.931647+01 | 1486155836.93165 |                 0 |               6 |                  8670 |                  419 |            1032054 |             0 |                0 |          739767 |                     0 |        451352 | 2017-02-03 21:37:46.640136+01

 2017-02-03 22:03:58.008589+01 | 1486155838.00859 |                 0 |               6 |                  8670 |                  419 |            1032054 |             0 |                0 |          739767 |                     0 |        451521 | 2017-02-03 21:37:46.640136+01

 2017-02-03 22:03:59.088323+01 | 1486155839.08832 |                 0 |               6 |                  8670 |                  419 |            1032054 |             0 |                0 |          739767 |                     0 |        451775 | 2017-02-03 21:37:46.640136+01

 2017-02-03 22:04:00.161921+01 | 1486155840.16192 |                 0 |               6 |                  8670 |                  419 |            1032054 |             0 |                0 |          739767 |                     0 |        452001 | 2017-02-03 21:37:46.640136+01

 2017-02-03 22:04:01.242298+01 | 1486155841.2423 |                 0 |               6 |                  8670 |                  419 |            1032054 |             0 |                0 |          739767 |                     0 |        452208 | 2017-02-03 21:37:46.640136+01

 2017-02-03 22:04:02.323407+01 | 1486155842.32341 |                 0 |               6 |                  8670 |                  419 |            1032054 |             0 |                0 |          739767 |                     0 |        452543 | 2017-02-03 21:37:46.640136+01

 2017-02-03 22:04:03.408718+01 | 1486155843.40872 |                 0 |               6 |                  8670 |                  419 |            1032054 |             0 |                0 |          739767 |                     0 |        452749 | 2017-02-03 21:37:46.640136+01

 2017-02-03 22:04:04.485257+01 | 1486155844.48526 |                 0 |               6 |                  8670 |                  419 |            1032054 |             0 |                0 |          739767 |                     0 |        453064 | 2017-02-03 21:37:46.640136+01

 2017-02-03 22:04:05.561337+01 | 1486155845.56134 |                 0 |               6 |                  8670 |                  419 |            1032054 |             0 |                0 |          739767 |                     0 |        453333 | 2017-02-03 21:37:46.640136+01

 2017-02-03 22:04:06.636207+01 | 1486155846.63621 |                 0 |               6 |                  8670 |                  419 |            1032054 |             0 |                0 |          739767 |                     0 |        453497 | 2017-02-03 21:37:46.640136+01

 2017-02-03 22:04:07.716639+01 | 1486155847.71664 |                 0 |               6 |                  8670 |                  419 |            1032054 |             0 |                0 |          739767 |                     0 |        453769 | 2017-02-03 21:37:46.640136+01

 2017-02-03 22:04:08.794575+01 | 1486155848.79457 |                 0 |               6 |                  8670 |                  419 |            1032054 |             0 |                0 |          739767 |                     0 |        454219 | 2017-02-03 21:37:46.640136+01

 2017-02-03 22:04:09.864379+01 | 1486155849.86438 |                 0 |               6 |                  8670 |                  419 |            1032054 |             0 |                0 |          739767 |                     0 |        454365 | 2017-02-03 21:37:46.640136+01

 2017-02-03 22:04:10.940154+01 | 1486155850.94015 |                 0 |               6 |                  8670 |                  419 |            1032054 |             0 |                0 |          739767 |                     0 |        454511 | 2017-02-03 21:37:46.640136+01

 2017-02-03 22:04:12.018113+01 | 1486155852.01811 |                 0 |               6 |                  8670 |                  419 |            1032054 |             0 |                0 |          739767 |                     0 |        454824 | 2017-02-03 21:37:46.640136+01

 2017-02-03 22:04:13.096745+01 | 1486155853.09675 |                 0 |               6 |                  8670 |                  419 |            1032054 |             0 |                0 |          739767 |                     0 |        455051 | 2017-02-03 21:37:46.640136+01

 2017-02-03 22:04:14.180443+01 | 1486155854.18044 |                 0 |               6 |                  8670 |                  419 |            1032054 |             0 |                0 |          739767 |                     0 |        455441 | 2017-02-03 21:37:46.640136+01

 2017-02-03 22:04:15.259236+01 | 1486155855.25924 |                 0 |               6 |                  8670 |                  419 |            1032054 |             0 |                0 |          739767 |                     0 |        455624 | 2017-02-03 21:37:46.640136+01

 2017-02-03 22:04:16.332868+01 | 1486155856.33287 |                 0 |               6 |                  8670 |                  419 |            1032054 |             0 |                0 |          739767 |                     0 |        455734 | 2017-02-03 21:37:46.640136+01

 2017-02-03 22:04:17.406444+01 | 1486155857.40644 |                 0 |               6 |                  8670 |                  419 |            1032054 |             0 |                0 |          739767 |                     0 |        456003 | 2017-02-03 21:37:46.640136+01

 2017-02-03 22:04:18.485198+01 | 1486155858.4852 |                 0 |               6 |                  8670 |                  419 |            1032054 |             0 |                0 |          739767 |                     0 |        456230 | 2017-02-03 21:37:46.640136+01

 2017-02-03 22:04:19.562141+01 | 1486155859.56214 |                 0 |               6 |                  8670 |                  419 |            1032054 |             0 |                0 |          739767 |                     0 |        456468 | 2017-02-03 21:37:46.640136+01

 2017-02-03 22:04:20.638736+01 | 1486155860.63874 |                 0 |               6 |                  8670 |                  419 |            1032054 |             0 |                0 |          739767 |                     0 |        456766 | 2017-02-03 21:37:46.640136+01

 2017-02-03 22:04:21.72332+01 | 1486155861.72332 |                 0 |               6 |                  8670 |                  419 |            1032054 |             0 |                0 |          739767 |                     0 |        457024 | 2017-02-03 21:37:46.640136+01

 2017-02-03 22:04:22.796326+01 | 1486155862.79633 |                 0 |               6 |                  8670 |                  419 |            1032054 |             0 |                0 |          739767 |                     0 |        457250 | 2017-02-03 21:37:46.640136+01

 2017-02-03 22:04:23.870874+01 | 1486155863.87087 |                 0 |               6 |                  8670 |                  419 |            1032054 |             0 |                0 |          739767 |                     0 |        457434 | 2017-02-03 21:37:46.640136+01

 2017-02-03 22:04:24.950159+01 | 1486155864.95016 |                 0 |               6 |                  8670 |                  419 |            1032054 |             0 |                0 |          739767 |                     0 |        457762 | 2017-02-03 21:37:46.640136+01

 2017-02-03 22:04:26.027601+01 | 1486155866.0276 |                 0 |               6 |                  8670 |                  419 |            1032054 |             0 |                0 |          739767 |                     0 |        457974 | 2017-02-03 21:37:46.640136+01

 2017-02-03 22:04:27.11063+01 | 1486155867.11063 |                 0 |               6 |                  8670 |                  419 |            1032054 |             0 |                0 |          739767 |                     0 |        458171 | 2017-02-03 21:37:46.640136+01

 2017-02-03 22:04:28.18714+01 | 1486155868.18714 |                 0 |               6 |                  8670 |                  419 |            1032054 |             0 |                0 |          739767 |                     0 |        458443 | 2017-02-03 21:37:46.640136+01

 2017-02-03 22:04:29.267994+01 | 1486155869.26799 |                 0 |               6 |                  8670 |                  419 |            1032054 |             0 |                0 |          739767 |                     0 |        458689 | 2017-02-03 21:37:46.640136+01

 2017-02-03 22:04:30.341625+01 | 1486155870.34162 |                 0 |               6 |                  8670 |                  419 |            1032054 |             0 |                0 |          739767 |                     0 |        458954 | 2017-02-03 21:37:46.640136+01

 2017-02-03 22:04:31.417142+01 | 1486155871.41714 |                 0 |               6 |                  8670 |                  419 |            1032054 |             0 |                0 |          739767 |                     0 |        459140 | 2017-02-03 21:37:46.640136+01

 2017-02-03 22:04:32.49885+01 | 1486155872.49885 |                 0 |               6 |                  8670 |                  419 |            1032054 |             0 |                0 |          739767 |                     0 |        459484 | 2017-02-03 21:37:46.640136+01

 2017-02-03 22:04:33.580049+01 | 1486155873.58005 |                 0 |               6 |                  8670 |                  419 |            1032054 |             0 |                0 |          739767 |                     0 |        459630 | 2017-02-03 21:37:46.640136+01

 2017-02-03 22:04:34.656174+01 | 1486155874.65617 |                 0 |               6 |                  8670 |                  419 |            1032054 |             0 |                0 |          739767 |                     0 |        459857 | 2017-02-03 21:37:46.640136+01

 2017-02-03 22:04:35.733148+01 | 1486155875.73315 |                 0 |               6 |                  8670 |                  419 |            1032054 |             0 |                0 |          739767 |                     0 |        460146 | 2017-02-03 21:37:46.640136+01

 2017-02-03 22:04:36.81068+01 | 1486155876.81068 |                 0 |               6 |                  8670 |                  419 |            1032054 |             0 |                0 |          739767 |                     0 |        460357 | 2017-02-03 21:37:46.640136+01

 2017-02-03 22:04:37.887386+01 | 1486155877.88739 |                 0 |               6 |                  8670 |                  419 |            1032054 |             0 |                0 |          739767 |                     0 |        460666 | 2017-02-03 21:37:46.640136+01

 2017-02-03 22:04:38.964594+01 | 1486155878.96459 |                 0 |               6 |                  8670 |                  419 |            1032054 |             0 |                0 |          739767 |                     0 |        460876 | 2017-02-03 21:37:46.640136+01

 2017-02-03 22:04:40.036769+01 | 1486155880.03677 |                 0 |               6 |                  8670 |                  419 |            1032054 |             0 |                0 |          739767 |                     0 |        461125 | 2017-02-03 21:37:46.640136+01

 2017-02-03 22:04:41.123782+01 | 1486155881.12378 |                 0 |               6 |                  8670 |                  419 |            1032054 |             0 |                0 |          739767 |                     0 |        461376 | 2017-02-03 21:37:46.640136+01

 2017-02-03 22:04:42.202975+01 | 1486155882.20298 |                 0 |               6 |                  8670 |                  419 |            1032054 |             0 |                0 |          739767 |                     0 |        461542 | 2017-02-03 21:37:46.640136+01

 2017-02-03 22:04:43.27981+01 | 1486155883.27981 |                 0 |               6 |                  8670 |                  419 |            1032054 |             0 |                0 |          739767 |                     0 |        461749 | 2017-02-03 21:37:46.640136+01

 2017-02-03 22:04:44.359279+01 | 1486155884.35928 |                 0 |               6 |                  8670 |                  419 |            1032054 |             0 |                0 |          739767 |                     0 |        462059 | 2017-02-03 21:37:46.640136+01

 2017-02-03 22:04:45.440407+01 | 1486155885.44041 |                 0 |               6 |                  8670 |                  419 |            1032054 |             0 |                0 |          739767 |                     0 |        462271 | 2017-02-03 21:37:46.640136+01

 2017-02-03 22:04:46.514898+01 | 1486155886.5149 |                 0 |               6 |                  8670 |                  419 |            1032054 |             0 |                0 |          739767 |                     0 |        462591 | 2017-02-03 21:37:46.640136+01

 2017-02-03 22:04:47.590161+01 | 1486155887.59016 |                 0 |               6 |                  8670 |                  419 |            1032054 |             0 |                0 |          739767 |                     0 |        462777 | 2017-02-03 21:37:46.640136+01

 2017-02-03 22:04:48.668134+01 | 1486155888.66813 |                 0 |               6 |                  8670 |                  419 |            1032054 |             0 |                0 |          739767 |                     0 |        463043 | 2017-02-03 21:37:46.640136+01

 2017-02-03 22:04:49.740207+01 | 1486155889.74021 |                 0 |               6 |                  8670 |                  419 |            1032054 |             0 |                0 |          739767 |                     0 |        463276 | 2017-02-03 21:37:46.640136+01

 2017-02-03 22:04:50.818666+01 | 1486155890.81867 |                 0 |               6 |                  8670 |                  419 |            1032054 |             0 |                0 |          739767 |                     0 |        463505 | 2017-02-03 21:37:46.640136+01

 2017-02-03 22:04:51.895703+01 | 1486155891.8957 |                 0 |               6 |                  8670 |                  419 |            1032054 |             0 |                0 |          739767 |                     0 |        463757 | 2017-02-03 21:37:46.640136+01

 2017-02-03 22:04:52.971783+01 | 1486155892.97178 |                 0 |               6 |                  8670 |                  419 |            1032054 |             0 |                0 |          739767 |                     0 |        464098 | 2017-02-03 21:37:46.640136+01

 2017-02-03 22:04:54.052097+01 | 1486155894.0521 |                 0 |               6 |                  8670 |                  419 |            1032054 |             0 |                0 |          739767 |                     0 |        464308 | 2017-02-03 21:37:46.640136+01

 2017-02-03 22:04:55.128506+01 | 1486155895.12851 |                 0 |               6 |                  8670 |                  419 |            1032054 |             0 |                0 |          739767 |                     0 |        464414 | 2017-02-03 21:37:46.640136+01

 2017-02-03 22:04:56.205693+01 | 1486155896.20569 |                 0 |               6 |                  8670 |                  419 |            1032054 |             0 |                0 |          739767 |                     0 |        465070 | 2017-02-03 21:37:46.640136+01

 2017-02-03 22:04:57.282912+01 | 1486155897.28291 |                 0 |               6 |                  8670 |                  419 |            1032054 |             0 |                0 |          739767 |                     0 |        465070 | 2017-02-03 21:37:46.640136+01

 2017-02-03 22:04:58.360198+01 | 1486155898.3602 |                 0 |               6 |                  8670 |                  419 |            1032054 |             0 |                0 |          739767 |                     0 |        465266 | 2017-02-03 21:37:46.640136+01

 2017-02-03 22:04:59.434353+01 | 1486155899.43435 |                 0 |               6 |                  8670 |                  419 |            1032054 |             0 |                0 |          739767 |                     0 |        465452 | 2017-02-03 21:37:46.640136+01

 2017-02-03 22:05:00.509411+01 | 1486155900.50941 |                 0 |               6 |                  8670 |                  419 |            1032054 |             0 |                0 |          739767 |                     0 |        465689 | 2017-02-03 21:37:46.640136+01

 2017-02-03 22:05:01.583603+01 | 1486155901.5836 |                 0 |               6 |                  8670 |                  419 |            1032054 |             0 |                0 |          739767 |                     0 |        465961 | 2017-02-03 21:37:46.640136+01

 2017-02-03 22:05:02.662253+01 | 1486155902.66225 |                 0 |               6 |                  8670 |                  419 |            1032054 |             0 |                0 |          739767 |                     0 |        466307 | 2017-02-03 21:37:46.640136+01

 2017-02-03 22:05:03.741391+01 | 1486155903.74139 |                 0 |               6 |                  8670 |                  419 |            1032054 |             0 |                0 |          739767 |                     0 |        466307 | 2017-02-03 21:37:46.640136+01

 2017-02-03 22:05:04.816675+01 | 1486155904.81667 |                 0 |               6 |                  8670 |                  419 |            1032054 |             0 |                0 |          739767 |                     0 |        466677 | 2017-02-03 21:37:46.640136+01

 2017-02-03 22:05:05.892355+01 | 1486155905.89235 |                 0 |               6 |                  8670 |                  419 |            1032054 |             0 |                0 |          739767 |                     0 |        466947 | 2017-02-03 21:37:46.640136+01

 2017-02-03 22:05:06.972573+01 | 1486155906.97257 |                 0 |               6 |                  8670 |                  419 |            1032054 |             0 |                0 |          739767 |                     0 |        467152 | 2017-02-03 21:37:46.640136+01

 2017-02-03 22:05:08.047608+01 | 1486155908.04761 |                 0 |               6 |                  8670 |                  419 |            1032054 |             0 |                0 |          739767 |                     0 |        467446 | 2017-02-03 21:37:46.640136+01

 2017-02-03 22:05:09.12338+01 | 1486155909.12338 |                 0 |               6 |                  8670 |                  419 |            1032054 |             0 |                0 |          739767 |                     0 |        467678 | 2017-02-03 21:37:46.640136+01

 2017-02-03 22:05:10.205211+01 | 1486155910.20521 |                 0 |               6 |                  8670 |                  419 |            1032054 |             0 |                0 |          739767 |                     0 |        467953 | 2017-02-03 21:37:46.640136+01

 2017-02-03 22:05:11.284112+01 | 1486155911.28411 |                 0 |               6 |                  8670 |                  419 |            1032054 |             0 |                0 |          739767 |                     0 |        468167 | 2017-02-03 21:37:46.640136+01

 2017-02-03 22:05:12.360794+01 | 1486155912.36079 |                 0 |               6 |                  8670 |                  419 |            1032054 |             0 |                0 |          739767 |                     0 |        468443 | 2017-02-03 21:37:46.640136+01

 2017-02-03 22:05:13.434563+01 | 1486155913.43456 |                 0 |               6 |                  8670 |                  419 |            1032054 |             0 |                0 |          739767 |                     0 |        468670 | 2017-02-03 21:37:46.640136+01

 2017-02-03 22:05:14.512904+01 | 1486155914.5129 |                 0 |               6 |                  8670 |                  419 |            1032054 |             0 |                0 |          739767 |                     0 |        468896 | 2017-02-03 21:37:46.640136+01

 2017-02-03 22:05:15.590494+01 | 1486155915.59049 |                 0 |               6 |                  8670 |                  419 |            1032054 |             0 |                0 |          739767 |                     0 |        469145 | 2017-02-03 21:37:46.640136+01

 2017-02-03 22:05:16.676052+01 | 1486155916.67605 |                 0 |               6 |                  8670 |                  419 |            1032054 |             0 |                0 |          739767 |                     0 |        469382 | 2017-02-03 21:37:46.640136+01

 2017-02-03 22:05:17.739143+01 | 1486155917.73914 |                 0 |               6 |                  8670 |                  419 |            1032054 |             0 |                0 |          739767 |                     0 |        469691 | 2017-02-03 21:37:46.640136+01

 2017-02-03 22:05:18.821384+01 | 1486155918.82138 |                 0 |               6 |                  8670 |                  419 |            1032054 |             0 |                0 |          739767 |                     0 |        469943 | 2017-02-03 21:37:46.640136+01

 2017-02-03 22:05:19.899563+01 | 1486155919.89956 |                 0 |               6 |                  8670 |                  419 |            1032054 |             0 |                0 |          739767 |                     0 |        470133 | 2017-02-03 21:37:46.640136+01

 2017-02-03 22:05:20.983341+01 | 1486155920.98334 |                 0 |               6 |                  8670 |                  419 |            1032054 |             0 |                0 |          739767 |                     0 |        470360 | 2017-02-03 21:37:46.640136+01

 2017-02-03 22:05:22.05776+01 | 1486155922.05776 |                 0 |               6 |                  8670 |                  419 |            1032054 |             0 |                0 |          739767 |                     0 |        470708 | 2017-02-03 21:37:46.640136+01

 2017-02-03 22:05:23.133128+01 | 1486155923.13313 |                 0 |               6 |                  8670 |                  419 |            1032054 |             0 |                0 |          739767 |                     0 |        470880 | 2017-02-03 21:37:46.640136+01

 2017-02-03 22:05:24.205373+01 | 1486155924.20537 |                 0 |               6 |                  8670 |                  419 |            1032054 |             0 |                0 |          739767 |                     0 |        471186 | 2017-02-03 21:37:46.640136+01

 2017-02-03 22:05:25.282099+01 | 1486155925.2821 |                 0 |               6 |                  8670 |                  419 |            1032054 |             0 |                0 |          739767 |                     0 |        471420 | 2017-02-03 21:37:46.640136+01

 2017-02-03 22:05:26.365325+01 | 1486155926.36532 |                 0 |               6 |                  8670 |                  419 |            1032054 |             0 |                0 |          739767 |                     0 |        471715 | 2017-02-03 21:37:46.640136+01

 2017-02-03 22:05:27.444257+01 | 1486155927.44426 |                 0 |               6 |                  8670 |                  419 |            1032054 |             0 |                0 |          739767 |                     0 |        471884 | 2017-02-03 21:37:46.640136+01

 2017-02-03 22:05:28.522549+01 | 1486155928.52255 |                 0 |               6 |                  8670 |                  419 |            1032054 |             0 |                0 |          739767 |                     0 |        472114 | 2017-02-03 21:37:46.640136+01

 2017-02-03 22:05:29.602032+01 | 1486155929.60203 |                 0 |               6 |                  8670 |                  419 |            1032054 |             0 |                0 |          739767 |                     0 |        472401 | 2017-02-03 21:37:46.640136+01

 2017-02-03 22:05:30.681459+01 | 1486155930.68146 |                 0 |               6 |                  8670 |                  419 |            1032054 |             0 |                0 |          739767 |                     0 |        472637 | 2017-02-03 21:37:46.640136+01

 2017-02-03 22:05:31.762793+01 | 1486155931.76279 |                 0 |               6 |                  8670 |                  419 |            1032054 |             0 |                0 |          739767 |                     0 |        472850 | 2017-02-03 21:37:46.640136+01

 2017-02-03 22:05:32.844296+01 | 1486155932.8443 |                 0 |               6 |                  8670 |                  419 |            1032054 |             0 |                0 |          739767 |                     0 |        473107 | 2017-02-03 21:37:46.640136+01

 2017-02-03 22:05:33.92306+01 | 1486155933.92306 |                 0 |               6 |                  8670 |                  419 |            1032054 |             0 |                0 |          739767 |                     0 |        473356 | 2017-02-03 21:37:46.640136+01

 2017-02-03 22:05:35.001311+01 | 1486155935.00131 |                 0 |               6 |                  8670 |                  419 |            1032054 |             0 |                0 |          739767 |                     0 |        473576 | 2017-02-03 21:37:46.640136+01

 2017-02-03 22:05:36.068589+01 | 1486155936.06859 |                 0 |               6 |                  8670 |                  419 |            1032054 |             0 |                0 |          739767 |                     0 |        473807 | 2017-02-03 21:37:46.640136+01

 2017-02-03 22:05:37.15006+01 | 1486155937.15006 |                 0 |               6 |                  8670 |                  419 |            1032054 |             0 |                0 |          739767 |                     0 |        474105 | 2017-02-03 21:37:46.640136+01

 2017-02-03 22:05:38.224719+01 | 1486155938.22472 |                 0 |               6 |                  8670 |                  419 |            1032054 |             0 |                0 |          739767 |                     0 |        474291 | 2017-02-03 21:37:46.640136+01

 2017-02-03 22:05:39.300011+01 | 1486155939.30001 |                 0 |               6 |                  8670 |                  419 |            1032054 |             0 |                0 |          739767 |                     0 |        474580 | 2017-02-03 21:37:46.640136+01

 2017-02-03 22:05:40.37242+01 | 1486155940.37242 |                 0 |               6 |                  8670 |                  419 |            1032054 |             0 |                0 |          739767 |                     0 |        474829 | 2017-02-03 21:37:46.640136+01

 2017-02-03 22:05:41.448943+01 | 1486155941.44894 |                 0 |               6 |                  8670 |                  419 |            1032054 |             0 |                0 |          739767 |                     0 |        475118 | 2017-02-03 21:37:46.640136+01

 2017-02-03 22:05:42.525921+01 | 1486155942.52592 |                 0 |               6 |                  8670 |                  419 |            1032054 |             0 |                0 |          739767 |                     0 |        475221 | 2017-02-03 21:37:46.640136+01

 2017-02-03 22:05:43.602948+01 | 1486155943.60295 |                 0 |               6 |                  8670 |                  419 |            1032054 |             0 |                0 |          739767 |                     0 |        475580 | 2017-02-03 21:37:46.640136+01

 2017-02-03 22:05:44.689873+01 | 1486155944.68987 |                 0 |               6 |                  8670 |                  419 |            1032054 |             0 |                0 |          739767 |                     0 |        475863 | 2017-02-03 21:37:46.640136+01

 2017-02-03 22:05:45.769309+01 | 1486155945.76931 |                 0 |               6 |                  8670 |                  419 |            1032054 |             0 |                0 |          739767 |                     0 |        476146 | 2017-02-03 21:37:46.640136+01

 2017-02-03 22:05:46.846925+01 | 1486155946.84693 |                 0 |               6 |                  8670 |                  419 |            1032054 |             0 |                0 |          739767 |                     0 |        476250 | 2017-02-03 21:37:46.640136+01

 2017-02-03 22:05:47.927949+01 | 1486155947.92795 |                 0 |               6 |                  8670 |                  419 |            1032054 |             0 |                0 |          739767 |                     0 |        476488 | 2017-02-03 21:37:46.640136+01

 2017-02-03 22:05:49.009292+01 | 1486155949.00929 |                 0 |               6 |                  8670 |                  419 |            1032054 |             0 |                0 |          739767 |                     0 |        476726 | 2017-02-03 21:37:46.640136+01

 2017-02-03 22:05:50.083005+01 | 1486155950.083 |                 0 |               6 |                  8670 |                  419 |            1032054 |             0 |                0 |          739767 |                     0 |        476955 | 2017-02-03 21:37:46.640136+01

 2017-02-03 22:05:51.164694+01 | 1486155951.16469 |                 0 |               6 |                  8670 |                  419 |            1032054 |             0 |                0 |          739767 |                     0 |        477189 | 2017-02-03 21:37:46.640136+01

 2017-02-03 22:05:52.24007+01 | 1486155952.24007 |                 0 |               6 |                  8670 |                  419 |            1032054 |             0 |                0 |          739767 |                     0 |        477512 | 2017-02-03 21:37:46.640136+01

 2017-02-03 22:05:53.314443+01 | 1486155953.31444 |                 0 |               6 |                  8670 |                  419 |            1032054 |             0 |                0 |          739767 |                     0 |        477885 | 2017-02-03 21:37:46.640136+01

 2017-02-03 22:05:54.39871+01 | 1486155954.39871 |                 0 |               6 |                  8670 |                  419 |            1032054 |             0 |                0 |          739767 |                     0 |        477968 | 2017-02-03 21:37:46.640136+01

 2017-02-03 22:05:55.482194+01 | 1486155955.48219 |                 0 |               6 |                  8670 |                  419 |            1032054 |             0 |                0 |          739767 |                     0 |        478152 | 2017-02-03 21:37:46.640136+01

 2017-02-03 22:05:56.556143+01 | 1486155956.55614 |                 0 |               6 |                  8670 |                  419 |            1032054 |             0 |                0 |          739767 |                     0 |        478379 | 2017-02-03 21:37:46.640136+01

 2017-02-03 22:05:57.625038+01 | 1486155957.62504 |                 0 |               6 |                  8670 |                  419 |            1032054 |             0 |                0 |          739767 |                     0 |        478747 | 2017-02-03 21:37:46.640136+01

 2017-02-03 22:05:58.703171+01 | 1486155958.70317 |                 0 |               6 |                  8670 |                  419 |            1032054 |             0 |                0 |          739767 |                     0 |        478890 | 2017-02-03 21:37:46.640136+01

 2017-02-03 22:05:59.777916+01 | 1486155959.77792 |                 0 |               6 |                  8670 |                  419 |            1032054 |             0 |                0 |          739767 |                     0 |        479120 | 2017-02-03 21:37:46.640136+01

 2017-02-03 22:06:00.852396+01 | 1486155960.8524 |                 0 |               6 |                  8670 |                  419 |            1032054 |             0 |                0 |          739767 |                     0 |        479357 | 2017-02-03 21:37:46.640136+01

 2017-02-03 22:06:01.92998+01 | 1486155961.92998 |                 0 |               6 |                  8670 |                  419 |            1032054 |             0 |                0 |          739767 |                     0 |        479618 | 2017-02-03 21:37:46.640136+01

 2017-02-03 22:06:03.005325+01 | 1486155963.00533 |                 0 |               6 |                  8670 |                  419 |            1032054 |             0 |                0 |          739767 |                     0 |        479867 | 2017-02-03 21:37:46.640136+01

 2017-02-03 22:06:04.083322+01 | 1486155964.08332 |                 0 |               6 |                  8670 |                  419 |            1032054 |             0 |                0 |          739767 |                     0 |        480099 | 2017-02-03 21:37:46.640136+01

 2017-02-03 22:06:05.160756+01 | 1486155965.16076 |                 0 |               6 |                  8670 |                  419 |            1032054 |             0 |                0 |          739767 |                     0 |        480375 | 2017-02-03 21:37:46.640136+01

 2017-02-03 22:06:06.240132+01 | 1486155966.24013 |                 0 |               6 |                  8670 |                  419 |            1032054 |             0 |                0 |          739767 |                     0 |        480518 | 2017-02-03 21:37:46.640136+01

 2017-02-03 22:06:07.312733+01 | 1486155967.31273 |                 0 |               6 |                  8670 |                  419 |            1032054 |             0 |                0 |          739767 |                     0 |        480814 | 2017-02-03 21:37:46.640136+01

 2017-02-03 22:06:08.39435+01 | 1486155968.39435 |                 0 |               6 |                  8670 |                  419 |            1032054 |             0 |                0 |          739767 |                     0 |        481002 | 2017-02-03 21:37:46.640136+01

 2017-02-03 22:06:09.468834+01 | 1486155969.46883 |                 0 |               6 |                  8670 |                  419 |            1032054 |             0 |                0 |          739767 |                     0 |        481274 | 2017-02-03 21:37:46.640136+01

 2017-02-03 22:06:10.544638+01 | 1486155970.54464 |                 0 |               6 |                  8670 |                  419 |            1032054 |             0 |                0 |          739767 |                     0 |        481546 | 2017-02-03 21:37:46.640136+01

 2017-02-03 22:06:11.622046+01 | 1486155971.62205 |                 0 |               6 |                  8670 |                  419 |            1032054 |             0 |                0 |          739767 |                     0 |        481754 | 2017-02-03 21:37:46.640136+01

 2017-02-03 22:06:12.70055+01 | 1486155972.70055 |                 0 |               6 |                  8670 |                  419 |            1032054 |             0 |                0 |          739767 |                     0 |        481987 | 2017-02-03 21:37:46.640136+01

 2017-02-03 22:06:13.772788+01 | 1486155973.77279 |                 0 |               6 |                  8670 |                  419 |            1032054 |             0 |                0 |          739767 |                     0 |        482289 | 2017-02-03 21:37:46.640136+01

 2017-02-03 22:06:14.855993+01 | 1486155974.85599 |                 0 |               6 |                  8670 |                  419 |            1032054 |             0 |                0 |          739767 |                     0 |        482455 | 2017-02-03 21:37:46.640136+01

 2017-02-03 22:06:15.937283+01 | 1486155975.93728 |                 0 |               6 |                  8670 |                  419 |            1032054 |             0 |                0 |          739767 |                     0 |        482709 | 2017-02-03 21:37:46.640136+01

 2017-02-03 22:06:17.016456+01 | 1486155977.01646 |                 0 |               6 |                  8670 |                  419 |            1032054 |             0 |                0 |          739767 |                     0 |        482949 | 2017-02-03 21:37:46.640136+01

 2017-02-03 22:06:18.095129+01 | 1486155978.09513 |                 0 |               6 |                  8670 |                  419 |            1032054 |             0 |                0 |          739767 |                     0 |        483072 | 2017-02-03 21:37:46.640136+01

 2017-02-03 22:06:19.168556+01 | 1486155979.16856 |                 0 |               6 |                  8670 |                  419 |            1032054 |             0 |                0 |          739767 |                     0 |        483424 | 2017-02-03 21:37:46.640136+01

 2017-02-03 22:06:20.241145+01 | 1486155980.24114 |                 0 |               6 |                  8670 |                  419 |            1032054 |             0 |                0 |          739767 |                     0 |        483717 | 2017-02-03 21:37:46.640136+01

 2017-02-03 22:06:21.318165+01 | 1486155981.31817 |                 0 |               6 |                  8670 |                  419 |            1032054 |             0 |                0 |          739767 |                     0 |        483994 | 2017-02-03 21:37:46.640136+01

 2017-02-03 22:06:22.396268+01 | 1486155982.39627 |                 0 |               6 |                  8670 |                  419 |            1032054 |             0 |                0 |          739767 |                     0 |        484164 | 2017-02-03 21:37:46.640136+01

 2017-02-03 22:06:23.475809+01 | 1486155983.47581 |                 0 |               6 |                  8670 |                  419 |            1032054 |             0 |                0 |          739767 |                     0 |        484478 | 2017-02-03 21:37:46.640136+01

 2017-02-03 22:06:24.553558+01 | 1486155984.55356 |                 0 |               6 |                  8670 |                  419 |            1032054 |             0 |                0 |          739767 |                     0 |        484708 | 2017-02-03 21:37:46.640136+01

 2017-02-03 22:06:25.629478+01 | 1486155985.62948 |                 0 |               6 |                  8670 |                  419 |            1032054 |             0 |                0 |          739767 |                     0 |        484920 | 2017-02-03 21:37:46.640136+01

 2017-02-03 22:06:26.705401+01 | 1486155986.7054 |                 0 |               6 |                  8670 |                  419 |            1032054 |             0 |                0 |          739767 |                     0 |        485235 | 2017-02-03 21:37:46.640136+01

 2017-02-03 22:06:27.784447+01 | 1486155987.78445 |                 0 |               6 |                  8670 |                  419 |            1032054 |             0 |                0 |          739767 |                     0 |        485501 | 2017-02-03 21:37:46.640136+01

 2017-02-03 22:06:28.864984+01 | 1486155988.86498 |                 0 |               6 |                  8670 |                  419 |            1032054 |             0 |                0 |          739767 |                     0 |        485727 | 2017-02-03 21:37:46.640136+01

 2017-02-03 22:06:29.943221+01 | 1486155989.94322 |                 0 |               6 |                  8670 |                  419 |            1032054 |             0 |                0 |          739767 |                     0 |        485956 | 2017-02-03 21:37:46.640136+01

 2017-02-03 22:06:31.009826+01 | 1486155991.00983 |                 0 |               6 |                  8670 |                  419 |            1032054 |             0 |                0 |          739767 |                     0 |        486040 | 2017-02-03 21:37:46.640136+01

 2017-02-03 22:06:32.085684+01 | 1486155992.08568 |                 0 |               6 |                  8670 |                  419 |            1032054 |             0 |                0 |          739767 |                     0 |        486265 | 2017-02-03 21:37:46.640136+01

 2017-02-03 22:06:33.163932+01 | 1486155993.16393 |                 0 |               6 |                  8670 |                  419 |            1032054 |             0 |                0 |          739767 |                     0 |        486579 | 2017-02-03 21:37:46.640136+01

 2017-02-03 22:06:34.236013+01 | 1486155994.23601 |                 0 |               6 |                  8670 |                  419 |            1032054 |             0 |                0 |          739767 |                     0 |        486807 | 2017-02-03 21:37:46.640136+01

 2017-02-03 22:06:35.324256+01 | 1486155995.32426 |                 0 |               6 |                  8670 |                  419 |            1032054 |             0 |                0 |          739767 |                     0 |        487033 | 2017-02-03 21:37:46.640136+01

 2017-02-03 22:06:36.401286+01 | 1486155996.40129 |                 0 |               6 |                  8670 |                  419 |            1032054 |             0 |                0 |          739767 |                     0 |        487259 | 2017-02-03 21:37:46.640136+01

 2017-02-03 22:06:37.482681+01 | 1486155997.48268 |                 0 |               6 |                  8670 |                  419 |            1032054 |             0 |                0 |          739767 |                     0 |        487508 | 2017-02-03 21:37:46.640136+01

 2017-02-03 22:06:38.559014+01 | 1486155998.55901 |                 0 |               6 |                  8670 |                  419 |            1032054 |             0 |                0 |          739767 |                     0 |        487748 | 2017-02-03 21:37:46.640136+01

 2017-02-03 22:06:39.631543+01 | 1486155999.63154 |                 0 |               6 |                  8670 |                  419 |            1032054 |             0 |                0 |          739767 |                     0 |        488043 | 2017-02-03 21:37:46.640136+01

 2017-02-03 22:06:40.703729+01 | 1486156000.70373 |                 0 |               6 |                  8670 |                  419 |            1032054 |             0 |                0 |          739767 |                     0 |        488273 | 2017-02-03 21:37:46.640136+01

 2017-02-03 22:06:41.780415+01 | 1486156001.78042 |                 0 |               6 |                  8670 |                  419 |            1032054 |             0 |                0 |          739767 |                     0 |        488579 | 2017-02-03 21:37:46.640136+01

 2017-02-03 22:06:42.861639+01 | 1486156002.86164 |                 0 |               6 |                  8670 |                  419 |            1032054 |             0 |                0 |          739767 |                     0 |        488774 | 2017-02-03 21:37:46.640136+01

 2017-02-03 22:06:43.941712+01 | 1486156003.94171 |                 0 |               6 |                  8670 |                  419 |            1032054 |             0 |                0 |          739767 |                     0 |        489003 | 2017-02-03 21:37:46.640136+01

 2017-02-03 22:06:45.023003+01 | 1486156005.023 |                 0 |               6 |                  8670 |                  419 |            1032054 |             0 |                0 |          739767 |                     0 |        489233 | 2017-02-03 21:37:46.640136+01

 2017-02-03 22:06:46.097601+01 | 1486156006.0976 |                 0 |               6 |                  8670 |                  419 |            1032054 |             0 |                0 |          739767 |                     0 |        489476 | 2017-02-03 21:37:46.640136+01

 2017-02-03 22:06:47.171644+01 | 1486156007.17164 |                 0 |               6 |                  8670 |                  419 |            1032054 |             0 |                0 |          739767 |                     0 |        489787 | 2017-02-03 21:37:46.640136+01

 2017-02-03 22:06:48.251352+01 | 1486156008.25135 |                 0 |               6 |                  8670 |                  419 |            1032054 |             0 |                0 |          739767 |                     0 |        489993 | 2017-02-03 21:37:46.640136+01

 2017-02-03 22:06:49.326112+01 | 1486156009.32611 |                 0 |               6 |                  8670 |                  419 |            1032054 |             0 |                0 |          739767 |                     0 |        490310 | 2017-02-03 21:37:46.640136+01

 2017-02-03 22:06:50.403999+01 | 1486156010.404 |                 0 |               6 |                  8670 |                  419 |            1032054 |             0 |                0 |          739767 |                     0 |        490478 | 2017-02-03 21:37:46.640136+01

 2017-02-03 22:06:51.477165+01 | 1486156011.47716 |                 0 |               6 |                  8670 |                  419 |            1032054 |             0 |                0 |          739767 |                     0 |        490724 | 2017-02-03 21:37:46.640136+01

 2017-02-03 22:06:52.558273+01 | 1486156012.55827 |                 0 |               6 |                  8670 |                  419 |            1032054 |             0 |                0 |          739767 |                     0 |        491056 | 2017-02-03 21:37:46.640136+01

 2017-02-03 22:06:53.632366+01 | 1486156013.63237 |                 0 |               6 |                  8670 |                  419 |            1032054 |             0 |                0 |          739767 |                     0 |        491245 | 2017-02-03 21:37:46.640136+01

 2017-02-03 22:06:54.712555+01 | 1486156014.71255 |                 0 |               6 |                  8670 |                  419 |            1032054 |             0 |                0 |          739767 |                     0 |        491411 | 2017-02-03 21:37:46.640136+01

 2017-02-03 22:06:55.796344+01 | 1486156015.79634 |                 0 |               6 |                  8670 |                  419 |            1032054 |             0 |                0 |          739767 |                     0 |        491726 | 2017-02-03 21:37:46.640136+01

 2017-02-03 22:06:56.869762+01 | 1486156016.86976 |                 0 |               6 |                  8670 |                  419 |            1032054 |             0 |                0 |          739767 |                     0 |        491919 | 2017-02-03 21:37:46.640136+01

 2017-02-03 22:06:57.948651+01 | 1486156017.94865 |                 0 |               6 |                  8670 |                  419 |            1032054 |             0 |                0 |          739767 |                     0 |        492151 | 2017-02-03 21:37:46.640136+01

 2017-02-03 22:06:59.026159+01 | 1486156019.02616 |                 0 |               6 |                  8670 |                  419 |            1032054 |             0 |                0 |          739767 |                     0 |        492411 | 2017-02-03 21:37:46.640136+01

 2017-02-03 22:07:00.102727+01 | 1486156020.10273 |                 0 |               6 |                  8670 |                  419 |            1032054 |             0 |                0 |          739767 |                     0 |        492607 | 2017-02-03 21:37:46.640136+01

 2017-02-03 22:07:01.175966+01 | 1486156021.17597 |                 0 |               6 |                  8670 |                  419 |            1032054 |             0 |                0 |          739767 |                     0 |        492819 | 2017-02-03 21:37:46.640136+01

 2017-02-03 22:07:02.251304+01 | 1486156022.2513 |                 0 |               6 |                  8670 |                  419 |            1032054 |             0 |                0 |          739767 |                     0 |        493140 | 2017-02-03 21:37:46.640136+01

 2017-02-03 22:07:03.328436+01 | 1486156023.32844 |                 0 |               6 |                  8670 |                  419 |            1032054 |             0 |                0 |          739767 |                     0 |        493263 | 2017-02-03 21:37:46.640136+01

 2017-02-03 22:07:04.408368+01 | 1486156024.40837 |                 0 |               6 |                  8670 |                  419 |            1032054 |             0 |                0 |          739767 |                     0 |        493652 | 2017-02-03 21:37:46.640136+01

 2017-02-03 22:07:05.487531+01 | 1486156025.48753 |                 0 |               6 |                  8670 |                  419 |            1032054 |             0 |                0 |          739767 |                     0 |        493841 | 2017-02-03 21:37:46.640136+01

 2017-02-03 22:07:06.561835+01 | 1486156026.56184 |                 0 |               6 |                  8670 |                  419 |            1032054 |             0 |                0 |          739767 |                     0 |        494034 | 2017-02-03 21:37:46.640136+01

 2017-02-03 22:07:07.638458+01 | 1486156027.63846 |                 0 |               6 |                  8670 |                  419 |            1032054 |             0 |                0 |          739767 |                     0 |        494230 | 2017-02-03 21:37:46.640136+01

 2017-02-03 22:07:08.716608+01 | 1486156028.71661 |                 0 |               6 |                  8670 |                  419 |            1032054 |             0 |                0 |          739767 |                     0 |        494585 | 2017-02-03 21:37:46.640136+01

 2017-02-03 22:07:09.792517+01 | 1486156029.79252 |                 0 |               6 |                  8670 |                  419 |            1032054 |             0 |                0 |          739767 |                     0 |        494758 | 2017-02-03 21:37:46.640136+01

 2017-02-03 22:07:10.868609+01 | 1486156030.86861 |                 0 |               6 |                  8670 |                  419 |            1032054 |             0 |                0 |          739767 |                     0 |        494967 | 2017-02-03 21:37:46.640136+01

 2017-02-03 22:07:11.947276+01 | 1486156031.94728 |                 0 |               6 |                  8670 |                  419 |            1032054 |             0 |                0 |          739767 |                     0 |        495359 | 2017-02-03 21:37:46.640136+01

 2017-02-03 22:07:13.026341+01 | 1486156033.02634 |                 0 |               6 |                  8670 |                  419 |            1032054 |             0 |                0 |          739767 |                     0 |        495662 | 2017-02-03 21:37:46.640136+01

 2017-02-03 22:07:14.103448+01 | 1486156034.10345 |                 0 |               6 |                  8670 |                  419 |            1032054 |             0 |                0 |          739767 |                     0 |        495728 | 2017-02-03 21:37:46.640136+01

 2017-02-03 22:07:15.180175+01 | 1486156035.18018 |                 0 |               6 |                  8670 |                  419 |            1032054 |             0 |                0 |          739767 |                     0 |        495955 | 2017-02-03 21:37:46.640136+01

 2017-02-03 22:07:16.254548+01 | 1486156036.25455 |                 0 |               6 |                  8670 |                  419 |            1032054 |             0 |                0 |          739767 |                     0 |        496206 | 2017-02-03 21:37:46.640136+01

 2017-02-03 22:07:17.340569+01 | 1486156037.34057 |                 0 |               6 |                  8670 |                  419 |            1032054 |             0 |                0 |          739767 |                     0 |        496435 | 2017-02-03 21:37:46.640136+01

 2017-02-03 22:07:18.417138+01 | 1486156038.41714 |                 0 |               6 |                  8670 |                  419 |            1032054 |             0 |                0 |          739767 |                     0 |        496767 | 2017-02-03 21:37:46.640136+01

 2017-02-03 22:07:19.491237+01 | 1486156039.49124 |                 0 |               6 |                  8670 |                  419 |            1032054 |             0 |                0 |          739767 |                     0 |        496954 | 2017-02-03 21:37:46.640136+01

 2017-02-03 22:07:20.568022+01 | 1486156040.56802 |                 0 |               6 |                  8670 |                  419 |            1032054 |             0 |                0 |          739767 |                     0 |        497231 | 2017-02-03 21:37:46.640136+01

 2017-02-03 22:07:21.651177+01 | 1486156041.65118 |                 0 |               6 |                  8670 |                  419 |            1032054 |             0 |                0 |          739767 |                     0 |        497470 | 2017-02-03 21:37:46.640136+01

 2017-02-03 22:07:22.718492+01 | 1486156042.71849 |                 0 |               6 |                  8670 |                  419 |            1032054 |             0 |                0 |          739767 |                     0 |        497682 | 2017-02-03 21:37:46.640136+01

 2017-02-03 22:07:23.801625+01 | 1486156043.80163 |                 0 |               6 |                  8670 |                  419 |            1032054 |             0 |                0 |          739767 |                     0 |        497974 | 2017-02-03 21:37:46.640136+01

 2017-02-03 22:07:24.877379+01 | 1486156044.87738 |                 0 |               6 |                  8670 |                  419 |            1032054 |             0 |                0 |          739767 |                     0 |        498572 | 2017-02-03 21:37:46.640136+01

 2017-02-03 22:07:25.952439+01 | 1486156045.95244 |                 0 |               6 |                  8670 |                  419 |            1032054 |             0 |                0 |          739767 |                     0 |        498572 | 2017-02-03 21:37:46.640136+01

 2017-02-03 22:07:27.036178+01 | 1486156047.03618 |                 0 |               6 |                  8670 |                  419 |            1032054 |             0 |                0 |          739767 |                     0 |        498758 | 2017-02-03 21:37:46.640136+01

 2017-02-03 22:07:28.130732+01 | 1486156048.13073 |                 0 |               6 |                  8670 |                  419 |            1032054 |             0 |                0 |          739767 |                     0 |        499009 | 2017-02-03 21:37:46.640136+01

 2017-02-03 22:07:29.205715+01 | 1486156049.20571 |                 0 |               6 |                  8670 |                  419 |            1032054 |             0 |                0 |          739767 |                     0 |        499282 | 2017-02-03 21:37:46.640136+01

 2017-02-03 22:07:30.278585+01 | 1486156050.27858 |                 0 |               6 |                  8670 |                  419 |            1032054 |             0 |                0 |          739767 |                     0 |        499428 | 2017-02-03 21:37:46.640136+01

 2017-02-03 22:07:31.359766+01 | 1486156051.35977 |                 0 |               6 |                  8670 |                  419 |            1032054 |             0 |                0 |          739767 |                     0 |        499728 | 2017-02-03 21:37:46.640136+01

 2017-02-03 22:07:32.436405+01 | 1486156052.4364 |                 0 |               6 |                  8670 |                  419 |            1032054 |             0 |                0 |          739767 |                     0 |        500022 | 2017-02-03 21:37:46.640136+01

 2017-02-03 22:07:33.515025+01 | 1486156053.51502 |                 0 |               6 |                  8670 |                  419 |            1032054 |             0 |                0 |          739767 |                     0 |        500231 | 2017-02-03 21:37:46.640136+01

 2017-02-03 22:07:34.5959+01 | 1486156054.5959 |                 0 |               6 |                  8670 |                  419 |            1032054 |             0 |                0 |          739767 |                     0 |        500527 | 2017-02-03 21:37:46.640136+01

 2017-02-03 22:07:35.671108+01 | 1486156055.67111 |                 0 |               6 |                  8670 |                  419 |            1032054 |             0 |                0 |          739767 |                     0 |        500694 | 2017-02-03 21:37:46.640136+01

 2017-02-03 22:07:36.755887+01 | 1486156056.75589 |                 0 |               6 |                  8670 |                  419 |            1032054 |             0 |                0 |          739767 |                     0 |        501035 | 2017-02-03 21:37:46.640136+01

 2017-02-03 22:07:37.837566+01 | 1486156057.83757 |                 0 |               6 |                  8670 |                  419 |            1032054 |             0 |                0 |          739767 |                     0 |        501204 | 2017-02-03 21:37:46.640136+01

 2017-02-03 22:07:38.916444+01 | 1486156058.91644 |                 0 |               6 |                  8670 |                  419 |            1032054 |             0 |                0 |          739767 |                     0 |        501496 | 2017-02-03 21:37:46.640136+01

 2017-02-03 22:07:39.993701+01 | 1486156059.9937 |                 0 |               6 |                  8670 |                  419 |            1032054 |             0 |                0 |          739767 |                     0 |        501733 | 2017-02-03 21:37:46.640136+01

 2017-02-03 22:07:41.071711+01 | 1486156061.07171 |                 0 |               6 |                  8670 |                  419 |            1032054 |             0 |                0 |          739767 |                     0 |        501837 | 2017-02-03 21:37:46.640136+01

 2017-02-03 22:07:42.153898+01 | 1486156062.1539 |                 0 |               6 |                  8670 |                  419 |            1032054 |             0 |                0 |          739767 |                     0 |        502178 | 2017-02-03 21:37:46.640136+01

 2017-02-03 22:07:43.226627+01 | 1486156063.22663 |                 0 |               6 |                  8670 |                  419 |            1032054 |             0 |                0 |          739767 |                     0 |        502427 | 2017-02-03 21:37:46.640136+01

 2017-02-03 22:07:44.300335+01 | 1486156064.30033 |                 0 |               6 |                  8670 |                  419 |            1032054 |             0 |                0 |          739767 |                     0 |        502633 | 2017-02-03 21:37:46.640136+01

 2017-02-03 22:07:45.373984+01 | 1486156065.37398 |                 0 |               6 |                  8670 |                  419 |            1032054 |             0 |                0 |          739767 |                     0 |        502819 | 2017-02-03 21:37:46.640136+01

 2017-02-03 22:07:46.448073+01 | 1486156066.44807 |                 0 |               6 |                  8670 |                  419 |            1032054 |             0 |                0 |          739767 |                     0 |        503136 | 2017-02-03 21:37:46.640136+01

 2017-02-03 22:07:47.527303+01 | 1486156067.5273 |                 0 |               6 |                  8670 |                  419 |            1032054 |             0 |                0 |          739767 |                     0 |        503360 | 2017-02-03 21:37:46.640136+01

 2017-02-03 22:07:48.599264+01 | 1486156068.59926 |                 0 |               6 |                  8670 |                  419 |            1032054 |             0 |                0 |          739767 |                     0 |        503505 | 2017-02-03 21:37:46.640136+01

 2017-02-03 22:07:49.680102+01 | 1486156069.6801 |                 0 |               6 |                  8670 |                  419 |            1032054 |             0 |                0 |          739767 |                     0 |        503856 | 2017-02-03 21:37:46.640136+01

 2017-02-03 22:07:50.757387+01 | 1486156070.75739 |                 0 |               6 |                  8670 |                  419 |            1032054 |             0 |                0 |          739767 |                     0 |        504068 | 2017-02-03 21:37:46.640136+01

 2017-02-03 22:07:51.836011+01 | 1486156071.83601 |                 0 |               6 |                  8670 |                  419 |            1032054 |             0 |                0 |          739767 |                     0 |        504414 | 2017-02-03 21:37:46.640136+01

 2017-02-03 22:07:52.913543+01 | 1486156072.91354 |                 0 |               6 |                  8670 |                  419 |            1032054 |             0 |                0 |          739767 |                     0 |        504605 | 2017-02-03 21:37:46.640136+01

 2017-02-03 22:07:53.995202+01 | 1486156073.9952 |                 0 |               6 |                  8670 |                  419 |            1032054 |             0 |                0 |          739767 |                     0 |        504861 | 2017-02-03 21:37:46.640136+01

 2017-02-03 22:07:55.070581+01 | 1486156075.07058 |                 0 |               6 |                  8670 |                  419 |            1032054 |             0 |                0 |          739767 |                     0 |        505048 | 2017-02-03 21:37:46.640136+01

 2017-02-03 22:07:56.148172+01 | 1486156076.14817 |                 0 |               6 |                  8670 |                  419 |            1032054 |             0 |                0 |          739767 |                     0 |        505300 | 2017-02-03 21:37:46.640136+01

 2017-02-03 22:07:57.225414+01 | 1486156077.22541 |                 0 |               6 |                  8670 |                  419 |            1032054 |             0 |                0 |          739767 |                     0 |        505598 | 2017-02-03 21:37:46.640136+01

 2017-02-03 22:07:58.301653+01 | 1486156078.30165 |                 0 |               6 |                  8670 |                  419 |            1032054 |             0 |                0 |          739767 |                     0 |        505830 | 2017-02-03 21:37:46.640136+01

 2017-02-03 22:07:59.37715+01 | 1486156079.37715 |                 0 |               6 |                  8670 |                  419 |            1032054 |             0 |                0 |          739767 |                     0 |        506097 | 2017-02-03 21:37:46.640136+01

 2017-02-03 22:08:00.449926+01 | 1486156080.44993 |                 0 |               6 |                  8670 |                  419 |            1032054 |             0 |                0 |          739767 |                     0 |        506310 | 2017-02-03 21:37:46.640136+01

 2017-02-03 22:08:01.524954+01 | 1486156081.52495 |                 0 |               6 |                  8670 |                  419 |            1032054 |             0 |                0 |          739767 |                     0 |        506609 | 2017-02-03 21:37:46.640136+01

 2017-02-03 22:08:02.602399+01 | 1486156082.6024 |                 0 |               6 |                  8670 |                  419 |            1032054 |             0 |                0 |          739767 |                     0 |        506795 | 2017-02-03 21:37:46.640136+01

 2017-02-03 22:08:03.676112+01 | 1486156083.67611 |                 0 |               6 |                  8670 |                  419 |            1032054 |             0 |                0 |          739767 |                     0 |        506965 | 2017-02-03 21:37:46.640136+01

 2017-02-03 22:08:04.754869+01 | 1486156084.75487 |                 0 |               6 |                  8670 |                  419 |            1032054 |             0 |                0 |          739767 |                     0 |        507302 | 2017-02-03 21:37:46.640136+01

 2017-02-03 22:08:05.830134+01 | 1486156085.83013 |                 0 |               6 |                  8670 |                  419 |            1032054 |             0 |                0 |          739767 |                     0 |        507425 | 2017-02-03 21:37:46.640136+01

 2017-02-03 22:08:06.907208+01 | 1486156086.90721 |                 0 |               6 |                  8670 |                  419 |            1032054 |             0 |                0 |          739767 |                     0 |        507783 | 2017-02-03 21:37:46.640136+01

 2017-02-03 22:08:07.985063+01 | 1486156087.98506 |                 0 |               6 |                  8670 |                  419 |            1032054 |             0 |                0 |          739767 |                     0 |        508018 | 2017-02-03 21:37:46.640136+01

 2017-02-03 22:08:09.063515+01 | 1486156089.06351 |                 0 |               6 |                  8670 |                  419 |            1032054 |             0 |                0 |          739767 |                     0 |        508240 | 2017-02-03 21:37:46.640136+01

 2017-02-03 22:08:10.139375+01 | 1486156090.13937 |                 0 |               6 |                  8670 |                  419 |            1032054 |             0 |                0 |          739767 |                     0 |        508558 | 2017-02-03 21:37:46.640136+01

 2017-02-03 22:08:11.219774+01 | 1486156091.21977 |                 0 |               6 |                  8670 |                  419 |            1032054 |             0 |                0 |          739767 |                     0 |        508744 | 2017-02-03 21:37:46.640136+01

 2017-02-03 22:08:12.292722+01 | 1486156092.29272 |                 0 |               6 |                  8670 |                  419 |            1032054 |             0 |                0 |          739767 |                     0 |        508980 | 2017-02-03 21:37:46.640136+01

 2017-02-03 22:08:13.37337+01 | 1486156093.37337 |                 0 |               6 |                  8670 |                  419 |            1032054 |             0 |                0 |          739767 |                     0 |        509285 | 2017-02-03 21:37:46.640136+01

 2017-02-03 22:08:14.453661+01 | 1486156094.45366 |                 0 |               6 |                  8670 |                  419 |            1032054 |             0 |                0 |          739767 |                     0 |        509497 | 2017-02-03 21:37:46.640136+01

 2017-02-03 22:08:15.535315+01 | 1486156095.53532 |                 0 |               6 |                  8670 |                  419 |            1032054 |             0 |                0 |          739767 |                     0 |        509765 | 2017-02-03 21:37:46.640136+01

 2017-02-03 22:08:16.613707+01 | 1486156096.61371 |                 0 |               6 |                  8670 |                  419 |            1032054 |             0 |                0 |          739767 |                     0 |        509978 | 2017-02-03 21:37:46.640136+01

 2017-02-03 22:08:17.683622+01 | 1486156097.68362 |                 0 |               6 |                  8670 |                  419 |            1032054 |             0 |                0 |          739767 |                     0 |        510193 | 2017-02-03 21:37:46.640136+01

 2017-02-03 22:08:18.752986+01 | 1486156098.75299 |                 0 |               6 |                  8670 |                  419 |            1032054 |             0 |                0 |          739767 |                     0 |        510525 | 2017-02-03 21:37:46.640136+01

 2017-02-03 22:08:19.829366+01 | 1486156099.82937 |                 0 |               6 |                  8670 |                  419 |            1032054 |             0 |                0 |          739767 |                     0 |        510729 | 2017-02-03 21:37:46.640136+01

 2017-02-03 22:08:20.908795+01 | 1486156100.9088 |                 0 |               6 |                  8670 |                  419 |            1032054 |             0 |                0 |          739767 |                     0 |        510985 | 2017-02-03 21:37:46.640136+01

 2017-02-03 22:08:21.992803+01 | 1486156101.9928 |                 0 |               6 |                  8670 |                  419 |            1032054 |             0 |                0 |          739767 |                     0 |        511218 | 2017-02-03 21:37:46.640136+01

