 2017-02-04 17:43:04.965738+01 | 1486226584.96574 |                 0 |               5 |                  5652 |                  311 |             629598 |             0 |                0 |          675854 |                     0 |        378690 | 2017-02-04 17:22:32.723409+01

 2017-02-04 17:43:06.050013+01 | 1486226586.05001 |                 0 |               5 |                  5652 |                  311 |             629598 |             0 |                0 |          675854 |                     0 |        378907 | 2017-02-04 17:22:32.723409+01

 2017-02-04 17:43:07.131681+01 | 1486226587.13168 |                 0 |               5 |                  5652 |                  311 |             629598 |             0 |                0 |          675854 |                     0 |        379099 | 2017-02-04 17:22:32.723409+01

 2017-02-04 17:43:08.209253+01 | 1486226588.20925 |                 0 |               5 |                  5652 |                  311 |             629598 |             0 |                0 |          675854 |                     0 |        379353 | 2017-02-04 17:22:32.723409+01

 2017-02-04 17:43:09.28467+01 | 1486226589.28467 |                 0 |               5 |                  5652 |                  311 |             629598 |             0 |                0 |          675854 |                     0 |        379525 | 2017-02-04 17:22:32.723409+01

 2017-02-04 17:43:10.363249+01 | 1486226590.36325 |                 0 |               5 |                  5652 |                  311 |             629598 |             0 |                0 |          675854 |                     0 |        379802 | 2017-02-04 17:22:32.723409+01

 2017-02-04 17:43:11.435242+01 | 1486226591.43524 |                 0 |               5 |                  5652 |                  311 |             629598 |             0 |                0 |          675854 |                     0 |        379947 | 2017-02-04 17:22:32.723409+01

 2017-02-04 17:43:12.50988+01 | 1486226592.50988 |                 0 |               5 |                  5652 |                  311 |             629598 |             0 |                0 |          675854 |                     0 |        380155 | 2017-02-04 17:22:32.723409+01

 2017-02-04 17:43:13.583292+01 | 1486226593.58329 |                 0 |               5 |                  5652 |                  311 |             629598 |             0 |                0 |          675854 |                     0 |        380427 | 2017-02-04 17:22:32.723409+01

 2017-02-04 17:43:14.659318+01 | 1486226594.65932 |                 0 |               5 |                  5652 |                  311 |             629598 |             0 |                0 |          675854 |                     0 |        380626 | 2017-02-04 17:22:32.723409+01

 2017-02-04 17:43:15.740047+01 | 1486226595.74005 |                 0 |               5 |                  5652 |                  311 |             629598 |             0 |                0 |          675854 |                     0 |        380860 | 2017-02-04 17:22:32.723409+01

 2017-02-04 17:43:16.817824+01 | 1486226596.81782 |                 0 |               5 |                  5652 |                  311 |             629598 |             0 |                0 |          675854 |                     0 |        381051 | 2017-02-04 17:22:32.723409+01

 2017-02-04 17:43:17.898207+01 | 1486226597.89821 |                 0 |               5 |                  5652 |                  311 |             629598 |             0 |                0 |          675854 |                     0 |        381331 | 2017-02-04 17:22:32.723409+01

 2017-02-04 17:43:18.974391+01 | 1486226598.97439 |                 0 |               5 |                  5652 |                  311 |             629598 |             0 |                0 |          675854 |                     0 |        381562 | 2017-02-04 17:22:32.723409+01

 2017-02-04 17:43:20.04773+01 | 1486226600.04773 |                 0 |               5 |                  5652 |                  311 |             629598 |             0 |                0 |          675854 |                     0 |        381710 | 2017-02-04 17:22:32.723409+01

 2017-02-04 17:43:21.125689+01 | 1486226601.12569 |                 0 |               5 |                  5652 |                  311 |             629598 |             0 |                0 |          675854 |                     0 |        381900 | 2017-02-04 17:22:32.723409+01

 2017-02-04 17:43:22.200231+01 | 1486226602.20023 |                 0 |               5 |                  5652 |                  311 |             629598 |             0 |                0 |          675854 |                     0 |        382156 | 2017-02-04 17:22:32.723409+01

 2017-02-04 17:43:23.277199+01 | 1486226603.2772 |                 0 |               5 |                  5652 |                  311 |             629598 |             0 |                0 |          675854 |                     0 |        382352 | 2017-02-04 17:22:32.723409+01

 2017-02-04 17:43:24.352331+01 | 1486226604.35233 |                 0 |               5 |                  5652 |                  311 |             629598 |             0 |                0 |          675854 |                     0 |        382563 | 2017-02-04 17:22:32.723409+01

 2017-02-04 17:43:25.425706+01 | 1486226605.42571 |                 0 |               5 |                  5652 |                  311 |             629598 |             0 |                0 |          675854 |                     0 |        382817 | 2017-02-04 17:22:32.723409+01

 2017-02-04 17:43:26.504133+01 | 1486226606.50413 |                 0 |               5 |                  5652 |                  311 |             629598 |             0 |                0 |          675854 |                     0 |        383130 | 2017-02-04 17:22:32.723409+01

 2017-02-04 17:43:27.576902+01 | 1486226607.5769 |                 0 |               5 |                  5652 |                  311 |             629598 |             0 |                0 |          675854 |                     0 |        383214 | 2017-02-04 17:22:32.723409+01

 2017-02-04 17:43:28.651162+01 | 1486226608.65116 |                 0 |               5 |                  5652 |                  311 |             629598 |             0 |                0 |          675854 |                     0 |        383448 | 2017-02-04 17:22:32.723409+01

 2017-02-04 17:43:29.724335+01 | 1486226609.72433 |                 0 |               5 |                  5652 |                  311 |             629598 |             0 |                0 |          675854 |                     0 |        383656 | 2017-02-04 17:22:32.723409+01

 2017-02-04 17:43:30.801571+01 | 1486226610.80157 |                 0 |               5 |                  5652 |                  311 |             629598 |             0 |                0 |          675854 |                     0 |        383903 | 2017-02-04 17:22:32.723409+01

 2017-02-04 17:43:31.870913+01 | 1486226611.87091 |                 0 |               5 |                  5652 |                  311 |             629598 |             0 |                0 |          675854 |                     0 |        384139 | 2017-02-04 17:22:32.723409+01

 2017-02-04 17:43:32.952461+01 | 1486226612.95246 |                 0 |               5 |                  5652 |                  311 |             629598 |             0 |                0 |          675854 |                     0 |        384407 | 2017-02-04 17:22:32.723409+01

 2017-02-04 17:43:34.02411+01 | 1486226614.02411 |                 0 |               5 |                  5652 |                  311 |             629598 |             0 |                0 |          675854 |                     0 |        384634 | 2017-02-04 17:22:32.723409+01

 2017-02-04 17:43:35.098132+01 | 1486226615.09813 |                 0 |               5 |                  5652 |                  311 |             629598 |             0 |                0 |          675854 |                     0 |        384825 | 2017-02-04 17:22:32.723409+01

 2017-02-04 17:43:36.175657+01 | 1486226616.17566 |                 0 |               5 |                  5652 |                  311 |             629598 |             0 |                0 |          675854 |                     0 |        385018 | 2017-02-04 17:22:32.723409+01

 2017-02-04 17:43:37.249228+01 | 1486226617.24923 |                 0 |               5 |                  5652 |                  311 |             629598 |             0 |                0 |          675854 |                     0 |        385189 | 2017-02-04 17:22:32.723409+01

 2017-02-04 17:43:38.323911+01 | 1486226618.32391 |                 0 |               5 |                  5652 |                  311 |             629598 |             0 |                0 |          675854 |                     0 |        385427 | 2017-02-04 17:22:32.723409+01

 2017-02-04 17:43:39.396088+01 | 1486226619.39609 |                 0 |               5 |                  5652 |                  311 |             629598 |             0 |                0 |          675854 |                     0 |        385601 | 2017-02-04 17:22:32.723409+01

 2017-02-04 17:43:40.479714+01 | 1486226620.47971 |                 0 |               5 |                  5652 |                  311 |             629598 |             0 |                0 |          675854 |                     0 |        385835 | 2017-02-04 17:22:32.723409+01

 2017-02-04 17:43:41.552811+01 | 1486226621.55281 |                 0 |               5 |                  5652 |                  311 |             629598 |             0 |                0 |          675854 |                     0 |        386091 | 2017-02-04 17:22:32.723409+01

 2017-02-04 17:43:42.634821+01 | 1486226622.63482 |                 0 |               5 |                  5652 |                  311 |             629598 |             0 |                0 |          675854 |                     0 |        386261 | 2017-02-04 17:22:32.723409+01

 2017-02-04 17:43:43.707706+01 | 1486226623.70771 |                 0 |               5 |                  5652 |                  311 |             629598 |             0 |                0 |          675854 |                     0 |        386493 | 2017-02-04 17:22:32.723409+01

 2017-02-04 17:43:44.783123+01 | 1486226624.78312 |                 0 |               5 |                  5652 |                  311 |             629598 |             0 |                0 |          675854 |                     0 |        386661 | 2017-02-04 17:22:32.723409+01

 2017-02-04 17:43:45.859724+01 | 1486226625.85972 |                 0 |               5 |                  5652 |                  311 |             629598 |             0 |                0 |          675854 |                     0 |        387017 | 2017-02-04 17:22:32.723409+01

 2017-02-04 17:43:46.93404+01 | 1486226626.93404 |                 0 |               5 |                  5652 |                  311 |             629598 |             0 |                0 |          675854 |                     0 |        387148 | 2017-02-04 17:22:32.723409+01

 2017-02-04 17:43:48.007565+01 | 1486226628.00757 |                 0 |               5 |                  5652 |                  311 |             629598 |             0 |                0 |          675854 |                     0 |        387319 | 2017-02-04 17:22:32.723409+01

 2017-02-04 17:43:49.087272+01 | 1486226629.08727 |                 0 |               5 |                  5652 |                  311 |             629598 |             0 |                0 |          675854 |                     0 |        387532 | 2017-02-04 17:22:32.723409+01

 2017-02-04 17:43:50.158586+01 | 1486226630.15859 |                 0 |               5 |                  5652 |                  311 |             629598 |             0 |                0 |          675854 |                     0 |        387748 | 2017-02-04 17:22:32.723409+01

 2017-02-04 17:43:51.233206+01 | 1486226631.23321 |                 0 |               5 |                  5652 |                  311 |             629598 |             0 |                0 |          675854 |                     0 |        388046 | 2017-02-04 17:22:32.723409+01

 2017-02-04 17:43:52.309306+01 | 1486226632.30931 |                 0 |               5 |                  5652 |                  311 |             629598 |             0 |                0 |          675854 |                     0 |        388212 | 2017-02-04 17:22:32.723409+01

 2017-02-04 17:43:53.383239+01 | 1486226633.38324 |                 0 |               5 |                  5652 |                  311 |             629598 |             0 |                0 |          675854 |                     0 |        388381 | 2017-02-04 17:22:32.723409+01

 2017-02-04 17:43:54.458559+01 | 1486226634.45856 |                 0 |               5 |                  5652 |                  311 |             629598 |             0 |                0 |          675854 |                     0 |        388555 | 2017-02-04 17:22:32.723409+01

 2017-02-04 17:43:55.535949+01 | 1486226635.53595 |                 0 |               5 |                  5652 |                  311 |             629598 |             0 |                0 |          675854 |                     0 |        388749 | 2017-02-04 17:22:32.723409+01

 2017-02-04 17:43:56.605799+01 | 1486226636.6058 |                 0 |               5 |                  5652 |                  311 |             629598 |             0 |                0 |          675854 |                     0 |        389104 | 2017-02-04 17:22:32.723409+01

 2017-02-04 17:43:57.677389+01 | 1486226637.67739 |                 0 |               5 |                  5652 |                  311 |             629598 |             0 |                0 |          675854 |                     0 |        389190 | 2017-02-04 17:22:32.723409+01

 2017-02-04 17:43:58.750476+01 | 1486226638.75048 |                 0 |               5 |                  5652 |                  311 |             629598 |             0 |                0 |          675854 |                     0 |        389467 | 2017-02-04 17:22:32.723409+01

 2017-02-04 17:43:59.829695+01 | 1486226639.82969 |                 0 |               5 |                  5652 |                  311 |             629598 |             0 |                0 |          675854 |                     0 |        389640 | 2017-02-04 17:22:32.723409+01

 2017-02-04 17:44:00.899925+01 | 1486226640.89992 |                 0 |               5 |                  5652 |                  311 |             629598 |             0 |                0 |          675854 |                     0 |        389856 | 2017-02-04 17:22:32.723409+01

 2017-02-04 17:44:01.972494+01 | 1486226641.97249 |                 0 |               5 |                  5652 |                  311 |             629598 |             0 |                0 |          675854 |                     0 |        390143 | 2017-02-04 17:22:32.723409+01

 2017-02-04 17:44:03.04669+01 | 1486226643.04669 |                 0 |               5 |                  5652 |                  311 |             629598 |             0 |                0 |          675854 |                     0 |        390312 | 2017-02-04 17:22:32.723409+01

 2017-02-04 17:44:04.125912+01 | 1486226644.12591 |                 0 |               5 |                  5652 |                  311 |             629598 |             0 |                0 |          675854 |                     0 |        390526 | 2017-02-04 17:22:32.723409+01

 2017-02-04 17:44:05.207124+01 | 1486226645.20712 |                 0 |               5 |                  5652 |                  311 |             629598 |             0 |                0 |          675854 |                     0 |        390693 | 2017-02-04 17:22:32.723409+01

 2017-02-04 17:44:06.280677+01 | 1486226646.28068 |                 0 |               5 |                  5652 |                  311 |             629598 |             0 |                0 |          675854 |                     0 |        390954 | 2017-02-04 17:22:32.723409+01

 2017-02-04 17:44:07.359799+01 | 1486226647.3598 |                 0 |               5 |                  5652 |                  311 |             629598 |             0 |                0 |          675854 |                     0 |        391170 | 2017-02-04 17:22:32.723409+01

 2017-02-04 17:44:08.438418+01 | 1486226648.43842 |                 0 |               5 |                  5652 |                  311 |             629598 |             0 |                0 |          675854 |                     0 |        391383 | 2017-02-04 17:22:32.723409+01

 2017-02-04 17:44:09.512886+01 | 1486226649.51289 |                 0 |               5 |                  5652 |                  311 |             629598 |             0 |                0 |          675854 |                     0 |        391559 | 2017-02-04 17:22:32.723409+01

 2017-02-04 17:44:10.59293+01 | 1486226650.59293 |                 0 |               5 |                  5652 |                  311 |             629598 |             0 |                0 |          675854 |                     0 |        391760 | 2017-02-04 17:22:32.723409+01

 2017-02-04 17:44:11.666538+01 | 1486226651.66654 |                 0 |               5 |                  5652 |                  311 |             629598 |             0 |                0 |          675854 |                     0 |        392008 | 2017-02-04 17:22:32.723409+01

 2017-02-04 17:44:12.741721+01 | 1486226652.74172 |                 0 |               5 |                  5652 |                  311 |             629598 |             0 |                0 |          675854 |                     0 |        392257 | 2017-02-04 17:22:32.723409+01

 2017-02-04 17:44:13.812696+01 | 1486226653.8127 |                 0 |               5 |                  5652 |                  311 |             629598 |             0 |                0 |          675854 |                     0 |        392409 | 2017-02-04 17:22:32.723409+01

 2017-02-04 17:44:14.892418+01 | 1486226654.89242 |                 0 |               5 |                  5652 |                  311 |             629598 |             0 |                0 |          675854 |                     0 |        392671 | 2017-02-04 17:22:32.723409+01

 2017-02-04 17:44:15.966301+01 | 1486226655.9663 |                 0 |               5 |                  5652 |                  311 |             629598 |             0 |                0 |          675854 |                     0 |        392937 | 2017-02-04 17:22:32.723409+01

 2017-02-04 17:44:17.044837+01 | 1486226657.04484 |                 0 |               5 |                  5652 |                  311 |             629598 |             0 |                0 |          675854 |                     0 |        393087 | 2017-02-04 17:22:32.723409+01

 2017-02-04 17:44:18.115673+01 | 1486226658.11567 |                 0 |               5 |                  5652 |                  311 |             629598 |             0 |                0 |          675854 |                     0 |        393323 | 2017-02-04 17:22:32.723409+01

 2017-02-04 17:44:19.193853+01 | 1486226659.19385 |                 0 |               5 |                  5652 |                  311 |             629598 |             0 |                0 |          675854 |                     0 |        393561 | 2017-02-04 17:22:32.723409+01

 2017-02-04 17:44:20.269808+01 | 1486226660.26981 |                 0 |               5 |                  5652 |                  311 |             629598 |             0 |                0 |          675854 |                     0 |        393831 | 2017-02-04 17:22:32.723409+01

 2017-02-04 17:44:21.338999+01 | 1486226661.339 |                 0 |               5 |                  5652 |                  311 |             629598 |             0 |                0 |          675854 |                     0 |        393980 | 2017-02-04 17:22:32.723409+01

 2017-02-04 17:44:22.409391+01 | 1486226662.40939 |                 0 |               5 |                  5652 |                  311 |             629598 |             0 |                0 |          675854 |                     0 |        394167 | 2017-02-04 17:22:32.723409+01

 2017-02-04 17:44:23.486363+01 | 1486226663.48636 |                 0 |               5 |                  5652 |                  311 |             629598 |             0 |                0 |          675854 |                     0 |        394435 | 2017-02-04 17:22:32.723409+01

 2017-02-04 17:44:24.558915+01 | 1486226664.55891 |                 0 |               5 |                  5652 |                  311 |             629598 |             0 |                0 |          675854 |                     0 |        394646 | 2017-02-04 17:22:32.723409+01

 2017-02-04 17:44:25.638917+01 | 1486226665.63892 |                 0 |               5 |                  5652 |                  311 |             629598 |             0 |                0 |          675854 |                     0 |        394873 | 2017-02-04 17:22:32.723409+01

 2017-02-04 17:44:26.713171+01 | 1486226666.71317 |                 0 |               5 |                  5652 |                  311 |             629598 |             0 |                0 |          675854 |                     0 |        395041 | 2017-02-04 17:22:32.723409+01

 2017-02-04 17:44:27.789685+01 | 1486226667.78969 |                 0 |               5 |                  5652 |                  311 |             629598 |             0 |                0 |          675854 |                     0 |        395381 | 2017-02-04 17:22:32.723409+01

 2017-02-04 17:44:28.861966+01 | 1486226668.86197 |                 0 |               5 |                  5652 |                  311 |             629598 |             0 |                0 |          675854 |                     0 |        395447 | 2017-02-04 17:22:32.723409+01

 2017-02-04 17:44:29.936612+01 | 1486226669.93661 |                 0 |               5 |                  5652 |                  311 |             629598 |             0 |                0 |          675854 |                     0 |        395787 | 2017-02-04 17:22:32.723409+01

 2017-02-04 17:44:31.014999+01 | 1486226671.015 |                 0 |               5 |                  5652 |                  311 |             629598 |             0 |                0 |          675854 |                     0 |        395938 | 2017-02-04 17:22:32.723409+01

 2017-02-04 17:44:32.093244+01 | 1486226672.09324 |                 0 |               5 |                  5652 |                  311 |             629598 |             0 |                0 |          675854 |                     0 |        396042 | 2017-02-04 17:22:32.723409+01

 2017-02-04 17:44:33.167812+01 | 1486226673.16781 |                 0 |               5 |                  5652 |                  311 |             629598 |             0 |                0 |          675854 |                     0 |        396314 | 2017-02-04 17:22:32.723409+01

 2017-02-04 17:44:34.24443+01 | 1486226674.24443 |                 0 |               5 |                  5652 |                  311 |             629598 |             0 |                0 |          675854 |                     0 |        396606 | 2017-02-04 17:22:32.723409+01

 2017-02-04 17:44:35.312385+01 | 1486226675.31239 |                 0 |               5 |                  5652 |                  311 |             629598 |             0 |                0 |          675854 |                     0 |        396757 | 2017-02-04 17:22:32.723409+01

 2017-02-04 17:44:36.386191+01 | 1486226676.38619 |                 0 |               5 |                  5652 |                  311 |             629598 |             0 |                0 |          675854 |                     0 |        397050 | 2017-02-04 17:22:32.723409+01

 2017-02-04 17:44:37.455308+01 | 1486226677.45531 |                 0 |               5 |                  5652 |                  311 |             629598 |             0 |                0 |          675854 |                     0 |        397197 | 2017-02-04 17:22:32.723409+01

 2017-02-04 17:44:38.53142+01 | 1486226678.53142 |                 0 |               5 |                  5652 |                  311 |             629598 |             0 |                0 |          675854 |                     0 |        397370 | 2017-02-04 17:22:32.723409+01

 2017-02-04 17:44:39.610049+01 | 1486226679.61005 |                 0 |               5 |                  5652 |                  311 |             629598 |             0 |                0 |          675854 |                     0 |        397623 | 2017-02-04 17:22:32.723409+01

 2017-02-04 17:44:40.679383+01 | 1486226680.67938 |                 0 |               5 |                  5652 |                  311 |             629598 |             0 |                0 |          675854 |                     0 |        397794 | 2017-02-04 17:22:32.723409+01

 2017-02-04 17:44:41.752181+01 | 1486226681.75218 |                 0 |               5 |                  5652 |                  311 |             629598 |             0 |                0 |          675854 |                     0 |        398012 | 2017-02-04 17:22:32.723409+01

 2017-02-04 17:44:42.827239+01 | 1486226682.82724 |                 0 |               5 |                  5652 |                  311 |             629598 |             0 |                0 |          675854 |                     0 |        398218 | 2017-02-04 17:22:32.723409+01

 2017-02-04 17:44:43.900823+01 | 1486226683.90082 |                 0 |               5 |                  5652 |                  311 |             629598 |             0 |                0 |          675854 |                     0 |        398431 | 2017-02-04 17:22:32.723409+01

 2017-02-04 17:44:44.973332+01 | 1486226684.97333 |                 0 |               5 |                  5652 |                  311 |             629598 |             0 |                0 |          675854 |                     0 |        398686 | 2017-02-04 17:22:32.723409+01

 2017-02-04 17:44:46.05464+01 | 1486226686.05464 |                 0 |               5 |                  5652 |                  311 |             629598 |             0 |                0 |          675854 |                     0 |        398900 | 2017-02-04 17:22:32.723409+01

 2017-02-04 17:44:47.138698+01 | 1486226687.1387 |                 0 |               5 |                  5652 |                  311 |             629598 |             0 |                0 |          675854 |                     0 |        399092 | 2017-02-04 17:22:32.723409+01

 2017-02-04 17:44:48.209868+01 | 1486226688.20987 |                 0 |               5 |                  5652 |                  311 |             629598 |             0 |                0 |          675854 |                     0 |        399319 | 2017-02-04 17:22:32.723409+01

 2017-02-04 17:44:49.291691+01 | 1486226689.29169 |                 0 |               5 |                  5652 |                  311 |             629598 |             0 |                0 |          675854 |                     0 |        399549 | 2017-02-04 17:22:32.723409+01

 2017-02-04 17:44:50.367387+01 | 1486226690.36739 |                 0 |               5 |                  5652 |                  311 |             629598 |             0 |                0 |          675854 |                     0 |        399739 | 2017-02-04 17:22:32.723409+01

 2017-02-04 17:44:51.448446+01 | 1486226691.44845 |                 0 |               5 |                  5652 |                  311 |             629598 |             0 |                0 |          675854 |                     0 |        400013 | 2017-02-04 17:22:32.723409+01

 2017-02-04 17:44:52.525586+01 | 1486226692.52559 |                 0 |               5 |                  5652 |                  311 |             629598 |             0 |                0 |          675854 |                     0 |        400201 | 2017-02-04 17:22:32.723409+01

 2017-02-04 17:44:53.602117+01 | 1486226693.60212 |                 0 |               5 |                  5652 |                  311 |             629598 |             0 |                0 |          675854 |                     0 |        400332 | 2017-02-04 17:22:32.723409+01

 2017-02-04 17:44:54.675609+01 | 1486226694.67561 |                 0 |               5 |                  5652 |                  311 |             629598 |             0 |                0 |          675854 |                     0 |        400518 | 2017-02-04 17:22:32.723409+01

 2017-02-04 17:44:55.749101+01 | 1486226695.7491 |                 0 |               5 |                  5652 |                  311 |             629598 |             0 |                0 |          675854 |                     0 |        400762 | 2017-02-04 17:22:32.723409+01

 2017-02-04 17:44:56.822154+01 | 1486226696.82215 |                 0 |               5 |                  5652 |                  311 |             629598 |             0 |                0 |          675854 |                     0 |        400995 | 2017-02-04 17:22:32.723409+01

 2017-02-04 17:44:57.89707+01 | 1486226697.89707 |                 0 |               5 |                  5652 |                  311 |             629598 |             0 |                0 |          675854 |                     0 |        401227 | 2017-02-04 17:22:32.723409+01

 2017-02-04 17:44:58.978306+01 | 1486226698.97831 |                 0 |               5 |                  5652 |                  311 |             629598 |             0 |                0 |          675854 |                     0 |        401466 | 2017-02-04 17:22:32.723409+01

 2017-02-04 17:45:00.055694+01 | 1486226700.05569 |                 0 |               5 |                  5652 |                  311 |             629598 |             0 |                0 |          675854 |                     0 |        401736 | 2017-02-04 17:22:32.723409+01

 2017-02-04 17:45:01.131413+01 | 1486226701.13141 |                 0 |               5 |                  5652 |                  311 |             629598 |             0 |                0 |          675854 |                     0 |        401890 | 2017-02-04 17:22:32.723409+01

 2017-02-04 17:45:02.206409+01 | 1486226702.20641 |                 0 |               5 |                  5652 |                  311 |             629598 |             0 |                0 |          675854 |                     0 |        402127 | 2017-02-04 17:22:32.723409+01

 2017-02-04 17:45:03.282921+01 | 1486226703.28292 |                 0 |               5 |                  5652 |                  311 |             629598 |             0 |                0 |          675854 |                     0 |        402362 | 2017-02-04 17:22:32.723409+01

 2017-02-04 17:45:04.357835+01 | 1486226704.35784 |                 0 |               5 |                  5652 |                  311 |             629598 |             0 |                0 |          675854 |                     0 |        402554 | 2017-02-04 17:22:32.723409+01

 2017-02-04 17:45:05.438507+01 | 1486226705.43851 |                 0 |               5 |                  5652 |                  311 |             629598 |             0 |                0 |          675854 |                     0 |        402748 | 2017-02-04 17:22:32.723409+01

 2017-02-04 17:45:06.516584+01 | 1486226706.51658 |                 0 |               5 |                  5652 |                  311 |             629598 |             0 |                0 |          675854 |                     0 |        403020 | 2017-02-04 17:22:32.723409+01

 2017-02-04 17:45:07.593935+01 | 1486226707.59394 |                 0 |               5 |                  5652 |                  311 |             629598 |             0 |                0 |          675854 |                     0 |        403163 | 2017-02-04 17:22:32.723409+01

 2017-02-04 17:45:08.663776+01 | 1486226708.66378 |                 0 |               5 |                  5652 |                  311 |             629598 |             0 |                0 |          675854 |                     0 |        403338 | 2017-02-04 17:22:32.723409+01

 2017-02-04 17:45:09.742055+01 | 1486226709.74205 |                 0 |               5 |                  5652 |                  311 |             629598 |             0 |                0 |          675854 |                     0 |        403593 | 2017-02-04 17:22:32.723409+01

 2017-02-04 17:45:10.811445+01 | 1486226710.81144 |                 0 |               5 |                  5652 |                  311 |             629598 |             0 |                0 |          675854 |                     0 |        403867 | 2017-02-04 17:22:32.723409+01

 2017-02-04 17:45:11.880647+01 | 1486226711.88065 |                 0 |               5 |                  5652 |                  311 |             629598 |             0 |                0 |          675854 |                     0 |        404117 | 2017-02-04 17:22:32.723409+01

 2017-02-04 17:45:12.956145+01 | 1486226712.95615 |                 0 |               5 |                  5652 |                  311 |             629598 |             0 |                0 |          675854 |                     0 |        404326 | 2017-02-04 17:22:32.723409+01

 2017-02-04 17:45:14.031751+01 | 1486226714.03175 |                 0 |               5 |                  5652 |                  311 |             629598 |             0 |                0 |          675854 |                     0 |        404452 | 2017-02-04 17:22:32.723409+01

 2017-02-04 17:45:15.110363+01 | 1486226715.11036 |                 0 |               5 |                  5652 |                  311 |             629598 |             0 |                0 |          675854 |                     0 |        404751 | 2017-02-04 17:22:32.723409+01

 2017-02-04 17:45:16.191012+01 | 1486226716.19101 |                 0 |               5 |                  5652 |                  311 |             629598 |             0 |                0 |          675854 |                     0 |        404927 | 2017-02-04 17:22:32.723409+01

 2017-02-04 17:45:17.268433+01 | 1486226717.26843 |                 0 |               5 |                  5652 |                  311 |             629598 |             0 |                0 |          675854 |                     0 |        405157 | 2017-02-04 17:22:32.723409+01

 2017-02-04 17:45:18.341554+01 | 1486226718.34155 |                 0 |               5 |                  5652 |                  311 |             629598 |             0 |                0 |          675854 |                     0 |        405452 | 2017-02-04 17:22:32.723409+01

 2017-02-04 17:45:19.423657+01 | 1486226719.42366 |                 0 |               5 |                  5652 |                  311 |             629598 |             0 |                0 |          675854 |                     0 |        405702 | 2017-02-04 17:22:32.723409+01

 2017-02-04 17:45:20.503821+01 | 1486226720.50382 |                 0 |               5 |                  5652 |                  311 |             629598 |             0 |                0 |          675854 |                     0 |        405840 | 2017-02-04 17:22:32.723409+01

 2017-02-04 17:45:21.566417+01 | 1486226721.56642 |                 0 |               5 |                  5652 |                  311 |             629598 |             0 |                0 |          675854 |                     0 |        406011 | 2017-02-04 17:22:32.723409+01

 2017-02-04 17:45:22.641741+01 | 1486226722.64174 |                 0 |               5 |                  5652 |                  311 |             629598 |             0 |                0 |          675854 |                     0 |        406376 | 2017-02-04 17:22:32.723409+01

 2017-02-04 17:45:23.71783+01 | 1486226723.71783 |                 0 |               5 |                  5652 |                  311 |             629598 |             0 |                0 |          675854 |                     0 |        406567 | 2017-02-04 17:22:32.723409+01

 2017-02-04 17:45:24.7956+01 | 1486226724.7956 |                 0 |               5 |                  5652 |                  311 |             629598 |             0 |                0 |          675854 |                     0 |        406815 | 2017-02-04 17:22:32.723409+01

 2017-02-04 17:45:25.868244+01 | 1486226725.86824 |                 0 |               5 |                  5652 |                  311 |             629598 |             0 |                0 |          675854 |                     0 |        407021 | 2017-02-04 17:22:32.723409+01

 2017-02-04 17:45:26.94343+01 | 1486226726.94343 |                 0 |               5 |                  5652 |                  311 |             629598 |             0 |                0 |          675854 |                     0 |        407448 | 2017-02-04 17:22:32.723409+01

 2017-02-04 17:45:28.026347+01 | 1486226728.02635 |                 0 |               5 |                  5652 |                  311 |             629598 |             0 |                0 |          675854 |                     0 |        407514 | 2017-02-04 17:22:32.723409+01

 2017-02-04 17:45:29.097608+01 | 1486226729.09761 |                 0 |               5 |                  5652 |                  311 |             629598 |             0 |                0 |          675854 |                     0 |        407665 | 2017-02-04 17:22:32.723409+01

 2017-02-04 17:45:30.176031+01 | 1486226730.17603 |                 0 |               5 |                  5652 |                  311 |             629598 |             0 |                0 |          675854 |                     0 |        407980 | 2017-02-04 17:22:32.723409+01

 2017-02-04 17:45:31.251185+01 | 1486226731.25118 |                 0 |               5 |                  5652 |                  311 |             629598 |             0 |                0 |          675854 |                     0 |        408113 | 2017-02-04 17:22:32.723409+01

 2017-02-04 17:45:32.329051+01 | 1486226732.32905 |                 0 |               5 |                  5652 |                  311 |             629598 |             0 |                0 |          675854 |                     0 |        408404 | 2017-02-04 17:22:32.723409+01

 2017-02-04 17:45:33.395278+01 | 1486226733.39528 |                 0 |               5 |                  5652 |                  311 |             629598 |             0 |                0 |          675854 |                     0 |        408532 | 2017-02-04 17:22:32.723409+01

 2017-02-04 17:45:34.473742+01 | 1486226734.47374 |                 0 |               5 |                  5652 |                  311 |             629598 |             0 |                0 |          675854 |                     0 |        408799 | 2017-02-04 17:22:32.723409+01

 2017-02-04 17:45:35.55836+01 | 1486226735.55836 |                 0 |               5 |                  5652 |                  311 |             629598 |             0 |                0 |          675854 |                     0 |        408970 | 2017-02-04 17:22:32.723409+01

 2017-02-04 17:45:36.630383+01 | 1486226736.63038 |                 0 |               5 |                  5652 |                  311 |             629598 |             0 |                0 |          675854 |                     0 |        409182 | 2017-02-04 17:22:32.723409+01

 2017-02-04 17:45:37.706804+01 | 1486226737.7068 |                 0 |               5 |                  5652 |                  311 |             629598 |             0 |                0 |          675854 |                     0 |        409415 | 2017-02-04 17:22:32.723409+01

 2017-02-04 17:45:38.787277+01 | 1486226738.78728 |                 0 |               5 |                  5652 |                  311 |             629598 |             0 |                0 |          675854 |                     0 |        409646 | 2017-02-04 17:22:32.723409+01

 2017-02-04 17:45:39.858868+01 | 1486226739.85887 |                 0 |               5 |                  5652 |                  311 |             629598 |             0 |                0 |          675854 |                     0 |        409769 | 2017-02-04 17:22:32.723409+01

 2017-02-04 17:45:40.937079+01 | 1486226740.93708 |                 0 |               5 |                  5652 |                  311 |             629598 |             0 |                0 |          675854 |                     0 |        410022 | 2017-02-04 17:22:32.723409+01

 2017-02-04 17:45:42.01053+01 | 1486226742.01053 |                 0 |               5 |                  5652 |                  311 |             629598 |             0 |                0 |          675854 |                     0 |        410257 | 2017-02-04 17:22:32.723409+01

 2017-02-04 17:45:43.090668+01 | 1486226743.09067 |                 0 |               5 |                  5652 |                  311 |             629598 |             0 |                0 |          675854 |                     0 |        410432 | 2017-02-04 17:22:32.723409+01

 2017-02-04 17:45:44.165517+01 | 1486226744.16552 |                 0 |               5 |                  5652 |                  311 |             629598 |             0 |                0 |          675854 |                     0 |        410598 | 2017-02-04 17:22:32.723409+01

 2017-02-04 17:45:45.233868+01 | 1486226745.23387 |                 0 |               5 |                  5652 |                  311 |             629598 |             0 |                0 |          675854 |                     0 |        410990 | 2017-02-04 17:22:32.723409+01

 2017-02-04 17:45:46.30282+01 | 1486226746.30282 |                 0 |               5 |                  5652 |                  311 |             629598 |             0 |                0 |          675854 |                     0 |        411119 | 2017-02-04 17:22:32.723409+01

 2017-02-04 17:45:47.382302+01 | 1486226747.3823 |                 0 |               5 |                  5652 |                  311 |             629598 |             0 |                0 |          675854 |                     0 |        411313 | 2017-02-04 17:22:32.723409+01

 2017-02-04 17:45:48.455305+01 | 1486226748.45531 |                 0 |               5 |                  5652 |                  311 |             629598 |             0 |                0 |          675854 |                     0 |        411608 | 2017-02-04 17:22:32.723409+01

 2017-02-04 17:45:49.52723+01 | 1486226749.52723 |                 0 |               5 |                  5652 |                  311 |             629598 |             0 |                0 |          675854 |                     0 |        411783 | 2017-02-04 17:22:32.723409+01

 2017-02-04 17:45:50.602848+01 | 1486226750.60285 |                 0 |               5 |                  5652 |                  311 |             629598 |             0 |                0 |          675854 |                     0 |        412013 | 2017-02-04 17:22:32.723409+01

 2017-02-04 17:45:51.677848+01 | 1486226751.67785 |                 0 |               5 |                  5652 |                  311 |             629598 |             0 |                0 |          675854 |                     0 |        412265 | 2017-02-04 17:22:32.723409+01

 2017-02-04 17:45:52.750604+01 | 1486226752.7506 |                 0 |               5 |                  5652 |                  311 |             629598 |             0 |                0 |          675854 |                     0 |        412413 | 2017-02-04 17:22:32.723409+01

 2017-02-04 17:45:53.821557+01 | 1486226753.82156 |                 0 |               5 |                  5652 |                  311 |             629598 |             0 |                0 |          675854 |                     0 |        412645 | 2017-02-04 17:22:32.723409+01

 2017-02-04 17:45:54.892387+01 | 1486226754.89239 |                 0 |               5 |                  5652 |                  311 |             629598 |             0 |                0 |          675854 |                     0 |        412836 | 2017-02-04 17:22:32.723409+01

 2017-02-04 17:45:55.969912+01 | 1486226755.96991 |                 0 |               5 |                  5652 |                  311 |             629598 |             0 |                0 |          675854 |                     0 |        413052 | 2017-02-04 17:22:32.723409+01

 2017-02-04 17:45:57.04394+01 | 1486226757.04394 |                 0 |               5 |                  5652 |                  311 |             629598 |             0 |                0 |          675854 |                     0 |        413381 | 2017-02-04 17:22:32.723409+01

 2017-02-04 17:45:58.118097+01 | 1486226758.1181 |                 0 |               5 |                  5652 |                  311 |             629598 |             0 |                0 |          675854 |                     0 |        413510 | 2017-02-04 17:22:32.723409+01

 2017-02-04 17:45:59.190916+01 | 1486226759.19092 |                 0 |               5 |                  5652 |                  311 |             629598 |             0 |                0 |          675854 |                     0 |        413677 | 2017-02-04 17:22:32.723409+01

 2017-02-04 17:46:00.266556+01 | 1486226760.26656 |                 0 |               5 |                  5652 |                  311 |             629598 |             0 |                0 |          675854 |                     0 |        413916 | 2017-02-04 17:22:32.723409+01

 2017-02-04 17:46:01.341118+01 | 1486226761.34112 |                 0 |               5 |                  5652 |                  311 |             629598 |             0 |                0 |          675854 |                     0 |        414176 | 2017-02-04 17:22:32.723409+01

 2017-02-04 17:46:02.414246+01 | 1486226762.41425 |                 0 |               5 |                  5652 |                  311 |             629598 |             0 |                0 |          675854 |                     0 |        414347 | 2017-02-04 17:22:32.723409+01

 2017-02-04 17:46:03.473157+01 | 1486226763.47316 |                 0 |               5 |                  5652 |                  311 |             629598 |             0 |                0 |          675854 |                     0 |        414586 | 2017-02-04 17:22:32.723409+01

 2017-02-04 17:46:04.550935+01 | 1486226764.55094 |                 0 |               5 |                  5652 |                  311 |             629598 |             0 |                0 |          675854 |                     0 |        414752 | 2017-02-04 17:22:32.723409+01

 2017-02-04 17:46:05.629141+01 | 1486226765.62914 |                 0 |               5 |                  5652 |                  311 |             629598 |             0 |                0 |          675854 |                     0 |        415206 | 2017-02-04 17:22:32.723409+01

 2017-02-04 17:46:06.702626+01 | 1486226766.70263 |                 0 |               5 |                  5652 |                  311 |             629598 |             0 |                0 |          675854 |                     0 |        415271 | 2017-02-04 17:22:32.723409+01

 2017-02-04 17:46:07.781712+01 | 1486226767.78171 |                 0 |               5 |                  5652 |                  311 |             629598 |             0 |                0 |          675854 |                     0 |        415419 | 2017-02-04 17:22:32.723409+01

 2017-02-04 17:46:08.858036+01 | 1486226768.85804 |                 0 |               5 |                  5652 |                  311 |             629598 |             0 |                0 |          675854 |                     0 |        415653 | 2017-02-04 17:22:32.723409+01

 2017-02-04 17:46:09.940546+01 | 1486226769.94055 |                 0 |               5 |                  5652 |                  311 |             629598 |             0 |                0 |          675854 |                     0 |        415892 | 2017-02-04 17:22:32.723409+01

 2017-02-04 17:46:11.020181+01 | 1486226771.02018 |                 0 |               5 |                  5652 |                  311 |             629598 |             0 |                0 |          675854 |                     0 |        416081 | 2017-02-04 17:22:32.723409+01

 2017-02-04 17:46:12.09836+01 | 1486226772.09836 |                 0 |               5 |                  5652 |                  311 |             629598 |             0 |                0 |          675854 |                     0 |        416259 | 2017-02-04 17:22:32.723409+01

 2017-02-04 17:46:13.173345+01 | 1486226773.17335 |                 0 |               5 |                  5652 |                  311 |             629598 |             0 |                0 |          675854 |                     0 |        416527 | 2017-02-04 17:22:32.723409+01

 2017-02-04 17:46:14.251677+01 | 1486226774.25168 |                 0 |               5 |                  5652 |                  311 |             629598 |             0 |                0 |          675854 |                     0 |        416726 | 2017-02-04 17:22:32.723409+01

 2017-02-04 17:46:15.332787+01 | 1486226775.33279 |                 0 |               5 |                  5652 |                  311 |             629598 |             0 |                0 |          675854 |                     0 |        416975 | 2017-02-04 17:22:32.723409+01

 2017-02-04 17:46:16.40702+01 | 1486226776.40702 |                 0 |               5 |                  5652 |                  311 |             629598 |             0 |                0 |          675854 |                     0 |        417081 | 2017-02-04 17:22:32.723409+01

 2017-02-04 17:46:17.48277+01 | 1486226777.48277 |                 0 |               5 |                  5652 |                  311 |             629598 |             0 |                0 |          675854 |                     0 |        417400 | 2017-02-04 17:22:32.723409+01

 2017-02-04 17:46:18.565832+01 | 1486226778.56583 |                 0 |               5 |                  5652 |                  311 |             629598 |             0 |                0 |          675854 |                     0 |        417615 | 2017-02-04 17:22:32.723409+01

 2017-02-04 17:46:19.643682+01 | 1486226779.64368 |                 0 |               5 |                  5652 |                  311 |             629598 |             0 |                0 |          675854 |                     0 |        417783 | 2017-02-04 17:22:32.723409+01

 2017-02-04 17:46:20.715222+01 | 1486226780.71522 |                 0 |               5 |                  5652 |                  311 |             629598 |             0 |                0 |          675854 |                     0 |        418070 | 2017-02-04 17:22:32.723409+01

 2017-02-04 17:46:21.784374+01 | 1486226781.78437 |                 0 |               5 |                  5652 |                  311 |             629598 |             0 |                0 |          675854 |                     0 |        418280 | 2017-02-04 17:22:32.723409+01

 2017-02-04 17:46:22.855168+01 | 1486226782.85517 |                 0 |               5 |                  5652 |                  311 |             629598 |             0 |                0 |          675854 |                     0 |        418474 | 2017-02-04 17:22:32.723409+01

 2017-02-04 17:46:23.930272+01 | 1486226783.93027 |                 0 |               5 |                  5652 |                  311 |             629598 |             0 |                0 |          675854 |                     0 |        418645 | 2017-02-04 17:22:32.723409+01

 2017-02-04 17:46:25.004679+01 | 1486226785.00468 |                 0 |               5 |                  5652 |                  311 |             629598 |             0 |                0 |          675854 |                     0 |        418839 | 2017-02-04 17:22:32.723409+01

 2017-02-04 17:46:26.075562+01 | 1486226786.07556 |                 0 |               5 |                  5652 |                  311 |             629598 |             0 |                0 |          675854 |                     0 |        419074 | 2017-02-04 17:22:32.723409+01

 2017-02-04 17:46:27.146974+01 | 1486226787.14697 |                 0 |               5 |                  5652 |                  311 |             629598 |             0 |                0 |          675854 |                     0 |        419292 | 2017-02-04 17:22:32.723409+01

 2017-02-04 17:46:28.224079+01 | 1486226788.22408 |                 0 |               5 |                  5652 |                  311 |             629598 |             0 |                0 |          675854 |                     0 |        419551 | 2017-02-04 17:22:32.723409+01

 2017-02-04 17:46:29.304388+01 | 1486226789.30439 |                 0 |               5 |                  5652 |                  311 |             629598 |             0 |                0 |          675854 |                     0 |        419721 | 2017-02-04 17:22:32.723409+01

 2017-02-04 17:46:30.374181+01 | 1486226790.37418 |                 0 |               5 |                  5652 |                  311 |             629598 |             0 |                0 |          675854 |                     0 |        419935 | 2017-02-04 17:22:32.723409+01

 2017-02-04 17:46:31.445805+01 | 1486226791.44581 |                 0 |               5 |                  5652 |                  311 |             629598 |             0 |                0 |          675854 |                     0 |        420131 | 2017-02-04 17:22:32.723409+01

 2017-02-04 17:46:32.516761+01 | 1486226792.51676 |                 0 |               5 |                  5652 |                  311 |             629598 |             0 |                0 |          675854 |                     0 |        420348 | 2017-02-04 17:22:32.723409+01

 2017-02-04 17:46:33.590938+01 | 1486226793.59094 |                 0 |               5 |                  5652 |                  311 |             629598 |             0 |                0 |          675854 |                     0 |        420581 | 2017-02-04 17:22:32.723409+01

 2017-02-04 17:46:34.665335+01 | 1486226794.66533 |                 0 |               5 |                  5652 |                  311 |             629598 |             0 |                0 |          675854 |                     0 |        420795 | 2017-02-04 17:22:32.723409+01

 2017-02-04 17:46:35.749428+01 | 1486226795.74943 |                 0 |               5 |                  5652 |                  311 |             629598 |             0 |                0 |          675854 |                     0 |        420986 | 2017-02-04 17:22:32.723409+01

 2017-02-04 17:46:36.820662+01 | 1486226796.82066 |                 0 |               5 |                  5652 |                  311 |             629598 |             0 |                0 |          675854 |                     0 |        421246 | 2017-02-04 17:22:32.723409+01

 2017-02-04 17:46:37.897265+01 | 1486226797.89726 |                 0 |               5 |                  5652 |                  311 |             629598 |             0 |                0 |          675854 |                     0 |        421473 | 2017-02-04 17:22:32.723409+01

 2017-02-04 17:46:38.974566+01 | 1486226798.97457 |                 0 |               5 |                  5652 |                  311 |             629598 |             0 |                0 |          675854 |                     0 |        421661 | 2017-02-04 17:22:32.723409+01

 2017-02-04 17:46:40.049623+01 | 1486226800.04962 |                 0 |               5 |                  5652 |                  311 |             629598 |             0 |                0 |          675854 |                     0 |        421856 | 2017-02-04 17:22:32.723409+01

 2017-02-04 17:46:41.122412+01 | 1486226801.12241 |                 0 |               5 |                  5652 |                  311 |             629598 |             0 |                0 |          675854 |                     0 |        422069 | 2017-02-04 17:22:32.723409+01

 2017-02-04 17:46:42.195502+01 | 1486226802.1955 |                 0 |               5 |                  5652 |                  311 |             629598 |             0 |                0 |          675854 |                     0 |        422255 | 2017-02-04 17:22:32.723409+01

 2017-02-04 17:46:43.269458+01 | 1486226803.26946 |                 0 |               5 |                  5652 |                  311 |             629598 |             0 |                0 |          675854 |                     0 |        422469 | 2017-02-04 17:22:32.723409+01

 2017-02-04 17:46:44.340448+01 | 1486226804.34045 |                 0 |               5 |                  5652 |                  311 |             629598 |             0 |                0 |          675854 |                     0 |        422697 | 2017-02-04 17:22:32.723409+01

 2017-02-04 17:46:45.417611+01 | 1486226805.41761 |                 0 |               5 |                  5652 |                  311 |             629598 |             0 |                0 |          675854 |                     0 |        422848 | 2017-02-04 17:22:32.723409+01

 2017-02-04 17:46:46.491573+01 | 1486226806.49157 |                 0 |               5 |                  5652 |                  311 |             629598 |             0 |                0 |          675854 |                     0 |        423081 | 2017-02-04 17:22:32.723409+01

 2017-02-04 17:46:47.5708+01 | 1486226807.5708 |                 0 |               5 |                  5652 |                  311 |             629598 |             0 |                0 |          675854 |                     0 |        423288 | 2017-02-04 17:22:32.723409+01

 2017-02-04 17:46:48.652475+01 | 1486226808.65248 |                 0 |               5 |                  5652 |                  311 |             629598 |             0 |                0 |          675854 |                     0 |        423481 | 2017-02-04 17:22:32.723409+01

 2017-02-04 17:46:49.737716+01 | 1486226809.73772 |                 0 |               5 |                  5652 |                  311 |             629598 |             0 |                0 |          675854 |                     0 |        423670 | 2017-02-04 17:22:32.723409+01

 2017-02-04 17:46:50.808107+01 | 1486226810.80811 |                 0 |               5 |                  5652 |                  311 |             629598 |             0 |                0 |          675854 |                     0 |        424023 | 2017-02-04 17:22:32.723409+01

 2017-02-04 17:46:51.888257+01 | 1486226811.88826 |                 0 |               5 |                  5652 |                  311 |             629598 |             0 |                0 |          675854 |                     0 |        424148 | 2017-02-04 17:22:32.723409+01

 2017-02-04 17:46:52.959109+01 | 1486226812.95911 |                 0 |               5 |                  5652 |                  311 |             629598 |             0 |                0 |          675854 |                     0 |        424381 | 2017-02-04 17:22:32.723409+01

 2017-02-04 17:46:54.033812+01 | 1486226814.03381 |                 0 |               5 |                  5652 |                  311 |             629598 |             0 |                0 |          675854 |                     0 |        424613 | 2017-02-04 17:22:32.723409+01

 2017-02-04 17:46:55.111498+01 | 1486226815.1115 |                 0 |               5 |                  5652 |                  311 |             629598 |             0 |                0 |          675854 |                     0 |        424762 | 2017-02-04 17:22:32.723409+01

 2017-02-04 17:46:56.187278+01 | 1486226816.18728 |                 0 |               5 |                  5652 |                  311 |             629598 |             0 |                0 |          675854 |                     0 |        424996 | 2017-02-04 17:22:32.723409+01

 2017-02-04 17:46:57.270787+01 | 1486226817.27079 |                 0 |               5 |                  5652 |                  311 |             629598 |             0 |                0 |          675854 |                     0 |        425176 | 2017-02-04 17:22:32.723409+01

 2017-02-04 17:46:58.344113+01 | 1486226818.34411 |                 0 |               5 |                  5652 |                  311 |             629598 |             0 |                0 |          675854 |                     0 |        425407 | 2017-02-04 17:22:32.723409+01

 2017-02-04 17:46:59.423955+01 | 1486226819.42395 |                 0 |               5 |                  5652 |                  311 |             629598 |             0 |                0 |          675854 |                     0 |        425662 | 2017-02-04 17:22:32.723409+01

 2017-02-04 17:47:00.50377+01 | 1486226820.50377 |                 0 |               5 |                  5652 |                  311 |             629598 |             0 |                0 |          675854 |                     0 |        425816 | 2017-02-04 17:22:32.723409+01

 2017-02-04 17:47:01.580893+01 | 1486226821.58089 |                 0 |               5 |                  5652 |                  311 |             629598 |             0 |                0 |          675854 |                     0 |        426093 | 2017-02-04 17:22:32.723409+01

 2017-02-04 17:47:02.656121+01 | 1486226822.65612 |                 0 |               5 |                  5652 |                  311 |             629598 |             0 |                0 |          675854 |                     0 |        426287 | 2017-02-04 17:22:32.723409+01

 2017-02-04 17:47:03.720236+01 | 1486226823.72024 |                 0 |               5 |                  5652 |                  311 |             629598 |             0 |                0 |          675854 |                     0 |        426411 | 2017-02-04 17:22:32.723409+01

 2017-02-04 17:47:04.798384+01 | 1486226824.79838 |                 0 |               5 |                  5652 |                  311 |             629598 |             0 |                0 |          675854 |                     0 |        426669 | 2017-02-04 17:22:32.723409+01

 2017-02-04 17:47:05.872839+01 | 1486226825.87284 |                 0 |               5 |                  5652 |                  311 |             629598 |             0 |                0 |          675854 |                     0 |        426886 | 2017-02-04 17:22:32.723409+01

 2017-02-04 17:47:06.946475+01 | 1486226826.94648 |                 0 |               5 |                  5652 |                  311 |             629598 |             0 |                0 |          675854 |                     0 |        427091 | 2017-02-04 17:22:32.723409+01

 2017-02-04 17:47:08.022496+01 | 1486226828.0225 |                 0 |               5 |                  5652 |                  311 |             629598 |             0 |                0 |          675854 |                     0 |        427318 | 2017-02-04 17:22:32.723409+01

 2017-02-04 17:47:09.098055+01 | 1486226829.09805 |                 0 |               5 |                  5652 |                  311 |             629598 |             0 |                0 |          675854 |                     0 |        427529 | 2017-02-04 17:22:32.723409+01

 2017-02-04 17:47:10.168961+01 | 1486226830.16896 |                 0 |               5 |                  5652 |                  311 |             629598 |             0 |                0 |          675854 |                     0 |        427759 | 2017-02-04 17:22:32.723409+01

 2017-02-04 17:47:11.242345+01 | 1486226831.24235 |                 0 |               5 |                  5652 |                  311 |             629598 |             0 |                0 |          675854 |                     0 |        428071 | 2017-02-04 17:22:32.723409+01

 2017-02-04 17:47:12.322052+01 | 1486226832.32205 |                 0 |               5 |                  5652 |                  311 |             629598 |             0 |                0 |          675854 |                     0 |        428157 | 2017-02-04 17:22:32.723409+01

 2017-02-04 17:47:13.407565+01 | 1486226833.40757 |                 0 |               5 |                  5652 |                  311 |             629598 |             0 |                0 |          675854 |                     0 |        428399 | 2017-02-04 17:22:32.723409+01

 2017-02-04 17:47:14.484178+01 | 1486226834.48418 |                 0 |               5 |                  5652 |                  311 |             629598 |             0 |                0 |          675854 |                     0 |        428641 | 2017-02-04 17:22:32.723409+01

 2017-02-04 17:47:15.560987+01 | 1486226835.56099 |                 0 |               5 |                  5652 |                  311 |             629598 |             0 |                0 |          675854 |                     0 |        428831 | 2017-02-04 17:22:32.723409+01

 2017-02-04 17:47:16.63379+01 | 1486226836.63379 |                 0 |               5 |                  5652 |                  311 |             629598 |             0 |                0 |          675854 |                     0 |        429052 | 2017-02-04 17:22:32.723409+01

 2017-02-04 17:47:17.710217+01 | 1486226837.71022 |                 0 |               5 |                  5652 |                  311 |             629598 |             0 |                0 |          675854 |                     0 |        429297 | 2017-02-04 17:22:32.723409+01

 2017-02-04 17:47:18.785306+01 | 1486226838.78531 |                 0 |               5 |                  5652 |                  311 |             629598 |             0 |                0 |          675854 |                     0 |        429619 | 2017-02-04 17:22:32.723409+01

 2017-02-04 17:47:19.865373+01 | 1486226839.86537 |                 0 |               5 |                  5652 |                  311 |             629598 |             0 |                0 |          675854 |                     0 |        429736 | 2017-02-04 17:22:32.723409+01

 2017-02-04 17:47:20.942289+01 | 1486226840.94229 |                 0 |               5 |                  5652 |                  311 |             629598 |             0 |                0 |          675854 |                     0 |        430019 | 2017-02-04 17:22:32.723409+01

 2017-02-04 17:47:22.018657+01 | 1486226842.01866 |                 0 |               5 |                  5652 |                  311 |             629598 |             0 |                0 |          675854 |                     0 |        430145 | 2017-02-04 17:22:32.723409+01

 2017-02-04 17:47:23.089104+01 | 1486226843.0891 |                 0 |               5 |                  5652 |                  311 |             629598 |             0 |                0 |          675854 |                     0 |        430310 | 2017-02-04 17:22:32.723409+01

 2017-02-04 17:47:24.164847+01 | 1486226844.16485 |                 0 |               5 |                  5652 |                  311 |             629598 |             0 |                0 |          675854 |                     0 |        430566 | 2017-02-04 17:22:32.723409+01

 2017-02-04 17:47:25.236204+01 | 1486226845.2362 |                 0 |               5 |                  5652 |                  311 |             629598 |             0 |                0 |          675854 |                     0 |        430839 | 2017-02-04 17:22:32.723409+01

 2017-02-04 17:47:26.323045+01 | 1486226846.32305 |                 0 |               5 |                  5652 |                  311 |             629598 |             0 |                0 |          675854 |                     0 |        430949 | 2017-02-04 17:22:32.723409+01

 2017-02-04 17:47:27.396277+01 | 1486226847.39628 |                 0 |               5 |                  5652 |                  311 |             629598 |             0 |                0 |          675854 |                     0 |        431249 | 2017-02-04 17:22:32.723409+01

 2017-02-04 17:47:28.471054+01 | 1486226848.47105 |                 0 |               5 |                  5652 |                  311 |             629598 |             0 |                0 |          675854 |                     0 |        431415 | 2017-02-04 17:22:32.723409+01

 2017-02-04 17:47:29.552078+01 | 1486226849.55208 |                 0 |               5 |                  5652 |                  311 |             629598 |             0 |                0 |          675854 |                     0 |        431625 | 2017-02-04 17:22:32.723409+01

 2017-02-04 17:47:30.626489+01 | 1486226850.62649 |                 0 |               5 |                  5652 |                  311 |             629598 |             0 |                0 |          675854 |                     0 |        431854 | 2017-02-04 17:22:32.723409+01

 2017-02-04 17:47:31.704475+01 | 1486226851.70447 |                 0 |               5 |                  5652 |                  311 |             629598 |             0 |                0 |          675854 |                     0 |        432021 | 2017-02-04 17:22:32.723409+01

 2017-02-04 17:47:32.77557+01 | 1486226852.77557 |                 0 |               5 |                  5652 |                  311 |             629598 |             0 |                0 |          675854 |                     0 |        432250 | 2017-02-04 17:22:32.723409+01

 2017-02-04 17:47:33.857942+01 | 1486226853.85794 |                 0 |               5 |                  5652 |                  311 |             629598 |             0 |                0 |          675854 |                     0 |        432664 | 2017-02-04 17:22:32.723409+01

 2017-02-04 17:47:34.930858+01 | 1486226854.93086 |                 0 |               5 |                  5652 |                  311 |             629598 |             0 |                0 |          675854 |                     0 |        432666 | 2017-02-04 17:22:32.723409+01

 2017-02-04 17:47:36.002347+01 | 1486226856.00235 |                 0 |               5 |                  5652 |                  311 |             629598 |             0 |                0 |          675854 |                     0 |        432886 | 2017-02-04 17:22:32.723409+01

 2017-02-04 17:47:37.079422+01 | 1486226857.07942 |                 0 |               5 |                  5652 |                  311 |             629598 |             0 |                0 |          675854 |                     0 |        433093 | 2017-02-04 17:22:32.723409+01

 2017-02-04 17:47:38.162129+01 | 1486226858.16213 |                 0 |               5 |                  5652 |                  311 |             629598 |             0 |                0 |          675854 |                     0 |        433408 | 2017-02-04 17:22:32.723409+01

 2017-02-04 17:47:39.233286+01 | 1486226859.23329 |                 0 |               5 |                  5652 |                  311 |             629598 |             0 |                0 |          675854 |                     0 |        433558 | 2017-02-04 17:22:32.723409+01

 2017-02-04 17:47:40.308646+01 | 1486226860.30865 |                 0 |               5 |                  5652 |                  311 |             629598 |             0 |                0 |          675854 |                     0 |        433707 | 2017-02-04 17:22:32.723409+01

 2017-02-04 17:47:41.387985+01 | 1486226861.38798 |                 0 |               5 |                  5652 |                  311 |             629598 |             0 |                0 |          675854 |                     0 |        434000 | 2017-02-04 17:22:32.723409+01

 2017-02-04 17:47:42.468576+01 | 1486226862.46858 |                 0 |               5 |                  5652 |                  311 |             629598 |             0 |                0 |          675854 |                     0 |        434169 | 2017-02-04 17:22:32.723409+01

 2017-02-04 17:47:43.539629+01 | 1486226863.53963 |                 0 |               5 |                  5652 |                  311 |             629598 |             0 |                0 |          675854 |                     0 |        434399 | 2017-02-04 17:22:32.723409+01

 2017-02-04 17:47:44.614115+01 | 1486226864.61411 |                 0 |               5 |                  5652 |                  311 |             629598 |             0 |                0 |          675854 |                     0 |        434587 | 2017-02-04 17:22:32.723409+01

 2017-02-04 17:47:45.689645+01 | 1486226865.68965 |                 0 |               5 |                  5652 |                  311 |             629598 |             0 |                0 |          675854 |                     0 |        434842 | 2017-02-04 17:22:32.723409+01

 2017-02-04 17:47:46.760407+01 | 1486226866.76041 |                 0 |               5 |                  5652 |                  311 |             629598 |             0 |                0 |          675854 |                     0 |        435138 | 2017-02-04 17:22:32.723409+01

 2017-02-04 17:47:47.840122+01 | 1486226867.84012 |                 0 |               5 |                  5652 |                  311 |             629598 |             0 |                0 |          675854 |                     0 |        435265 | 2017-02-04 17:22:32.723409+01

 2017-02-04 17:47:48.918281+01 | 1486226868.91828 |                 0 |               5 |                  5652 |                  311 |             629598 |             0 |                0 |          675854 |                     0 |        435520 | 2017-02-04 17:22:32.723409+01

 2017-02-04 17:47:49.994313+01 | 1486226869.99431 |                 0 |               5 |                  5652 |                  311 |             629598 |             0 |                0 |          675854 |                     0 |        435688 | 2017-02-04 17:22:32.723409+01

 2017-02-04 17:47:51.072161+01 | 1486226871.07216 |                 0 |               5 |                  5652 |                  311 |             629598 |             0 |                0 |          675854 |                     0 |        435953 | 2017-02-04 17:22:32.723409+01

 2017-02-04 17:47:52.146211+01 | 1486226872.14621 |                 0 |               5 |                  5652 |                  311 |             629598 |             0 |                0 |          675854 |                     0 |        436168 | 2017-02-04 17:22:32.723409+01

 2017-02-04 17:47:53.216496+01 | 1486226873.2165 |                 0 |               5 |                  5652 |                  311 |             629598 |             0 |                0 |          675854 |                     0 |        436477 | 2017-02-04 17:22:32.723409+01

 2017-02-04 17:47:54.286771+01 | 1486226874.28677 |                 0 |               5 |                  5652 |                  311 |             629598 |             0 |                0 |          675854 |                     0 |        436624 | 2017-02-04 17:22:32.723409+01

 2017-02-04 17:47:55.366179+01 | 1486226875.36618 |                 0 |               5 |                  5652 |                  311 |             629598 |             0 |                0 |          675854 |                     0 |        436803 | 2017-02-04 17:22:32.723409+01

 2017-02-04 17:47:56.440476+01 | 1486226876.44048 |                 0 |               5 |                  5652 |                  311 |             629598 |             0 |                0 |          675854 |                     0 |        437034 | 2017-02-04 17:22:32.723409+01

 2017-02-04 17:47:57.519986+01 | 1486226877.51999 |                 0 |               5 |                  5652 |                  311 |             629598 |             0 |                0 |          675854 |                     0 |        437267 | 2017-02-04 17:22:32.723409+01

 2017-02-04 17:47:58.598471+01 | 1486226878.59847 |                 0 |               5 |                  5652 |                  311 |             629598 |             0 |                0 |          675854 |                     0 |        437435 | 2017-02-04 17:22:32.723409+01

 2017-02-04 17:47:59.67743+01 | 1486226879.67743 |                 0 |               5 |                  5652 |                  311 |             629598 |             0 |                0 |          675854 |                     0 |        437671 | 2017-02-04 17:22:32.723409+01

 2017-02-04 17:48:00.752445+01 | 1486226880.75244 |                 0 |               5 |                  5652 |                  311 |             629598 |             0 |                0 |          675854 |                     0 |        437907 | 2017-02-04 17:22:32.723409+01

 2017-02-04 17:48:01.825283+01 | 1486226881.82528 |                 0 |               5 |                  5652 |                  311 |             629598 |             0 |                0 |          675854 |                     0 |        438136 | 2017-02-04 17:22:32.723409+01

 2017-02-04 17:48:02.901651+01 | 1486226882.90165 |                 0 |               5 |                  5652 |                  311 |             629598 |             0 |                0 |          675854 |                     0 |        438326 | 2017-02-04 17:22:32.723409+01

 2017-02-04 17:48:03.960961+01 | 1486226883.96096 |                 0 |               5 |                  5652 |                  311 |             629598 |             0 |                0 |          675854 |                     0 |        438753 | 2017-02-04 17:22:32.723409+01

