 2017-02-05 00:26:16.829661+01 | 1486250776.82966 | pgbench_branches_pkey |            16384
 2017-02-05 00:26:16.829661+01 | 1486250776.82966 | pgbench_tellers_pkey  |            40960
 2017-02-05 00:26:16.829661+01 | 1486250776.82966 | pgbench_accounts_pkey |        224641024

 2017-02-05 00:26:17.931162+01 | 1486250777.93116 | pgbench_branches_pkey |            16384
 2017-02-05 00:26:17.931162+01 | 1486250777.93116 | pgbench_tellers_pkey  |            40960
 2017-02-05 00:26:17.931162+01 | 1486250777.93116 | pgbench_accounts_pkey |        224641024

 2017-02-05 00:26:19.028519+01 | 1486250779.02852 | pgbench_branches_pkey |            16384
 2017-02-05 00:26:19.028519+01 | 1486250779.02852 | pgbench_tellers_pkey  |            40960
 2017-02-05 00:26:19.028519+01 | 1486250779.02852 | pgbench_accounts_pkey |        224641024

 2017-02-05 00:26:20.119619+01 | 1486250780.11962 | pgbench_branches_pkey |            16384
 2017-02-05 00:26:20.119619+01 | 1486250780.11962 | pgbench_tellers_pkey  |            40960
 2017-02-05 00:26:20.119619+01 | 1486250780.11962 | pgbench_accounts_pkey |        224641024

 2017-02-05 00:26:21.212048+01 | 1486250781.21205 | pgbench_branches_pkey |            16384
 2017-02-05 00:26:21.212048+01 | 1486250781.21205 | pgbench_tellers_pkey  |            40960
 2017-02-05 00:26:21.212048+01 | 1486250781.21205 | pgbench_accounts_pkey |        224641024

 2017-02-05 00:26:22.302279+01 | 1486250782.30228 | pgbench_branches_pkey |            16384
 2017-02-05 00:26:22.302279+01 | 1486250782.30228 | pgbench_tellers_pkey  |            40960
 2017-02-05 00:26:22.302279+01 | 1486250782.30228 | pgbench_accounts_pkey |        224641024

 2017-02-05 00:26:23.401223+01 | 1486250783.40122 | pgbench_branches_pkey |            16384
 2017-02-05 00:26:23.401223+01 | 1486250783.40122 | pgbench_tellers_pkey  |            40960
 2017-02-05 00:26:23.401223+01 | 1486250783.40122 | pgbench_accounts_pkey |        224641024

 2017-02-05 00:26:24.49135+01 | 1486250784.49135 | pgbench_branches_pkey |            16384
 2017-02-05 00:26:24.49135+01 | 1486250784.49135 | pgbench_tellers_pkey  |            40960
 2017-02-05 00:26:24.49135+01 | 1486250784.49135 | pgbench_accounts_pkey |        224641024

 2017-02-05 00:26:25.579088+01 | 1486250785.57909 | pgbench_branches_pkey |            16384
 2017-02-05 00:26:25.579088+01 | 1486250785.57909 | pgbench_tellers_pkey  |            40960
 2017-02-05 00:26:25.579088+01 | 1486250785.57909 | pgbench_accounts_pkey |        224641024

 2017-02-05 00:26:26.668019+01 | 1486250786.66802 | pgbench_branches_pkey |            16384
 2017-02-05 00:26:26.668019+01 | 1486250786.66802 | pgbench_tellers_pkey  |            40960
 2017-02-05 00:26:26.668019+01 | 1486250786.66802 | pgbench_accounts_pkey |        224641024

 2017-02-05 00:26:27.757935+01 | 1486250787.75794 | pgbench_branches_pkey |            16384
 2017-02-05 00:26:27.757935+01 | 1486250787.75794 | pgbench_tellers_pkey  |            40960
 2017-02-05 00:26:27.757935+01 | 1486250787.75794 | pgbench_accounts_pkey |        224641024

 2017-02-05 00:26:28.864517+01 | 1486250788.86452 | pgbench_branches_pkey |            16384
 2017-02-05 00:26:28.864517+01 | 1486250788.86452 | pgbench_tellers_pkey  |            40960
 2017-02-05 00:26:28.864517+01 | 1486250788.86452 | pgbench_accounts_pkey |        224641024

 2017-02-05 00:26:29.960884+01 | 1486250789.96088 | pgbench_branches_pkey |            16384
 2017-02-05 00:26:29.960884+01 | 1486250789.96088 | pgbench_tellers_pkey  |            40960
 2017-02-05 00:26:29.960884+01 | 1486250789.96088 | pgbench_accounts_pkey |        224641024

 2017-02-05 00:26:31.052982+01 | 1486250791.05298 | pgbench_branches_pkey |            16384
 2017-02-05 00:26:31.052982+01 | 1486250791.05298 | pgbench_tellers_pkey  |            40960
 2017-02-05 00:26:31.052982+01 | 1486250791.05298 | pgbench_accounts_pkey |        224641024

 2017-02-05 00:26:32.142646+01 | 1486250792.14265 | pgbench_branches_pkey |            16384
 2017-02-05 00:26:32.142646+01 | 1486250792.14265 | pgbench_tellers_pkey  |            40960
 2017-02-05 00:26:32.142646+01 | 1486250792.14265 | pgbench_accounts_pkey |        224641024

 2017-02-05 00:26:33.239165+01 | 1486250793.23917 | pgbench_branches_pkey |            16384
 2017-02-05 00:26:33.239165+01 | 1486250793.23917 | pgbench_tellers_pkey  |            40960
 2017-02-05 00:26:33.239165+01 | 1486250793.23917 | pgbench_accounts_pkey |        224641024

 2017-02-05 00:26:34.324141+01 | 1486250794.32414 | pgbench_branches_pkey |            16384
 2017-02-05 00:26:34.324141+01 | 1486250794.32414 | pgbench_tellers_pkey  |            40960
 2017-02-05 00:26:34.324141+01 | 1486250794.32414 | pgbench_accounts_pkey |        224641024

 2017-02-05 00:26:35.413944+01 | 1486250795.41394 | pgbench_branches_pkey |            16384
 2017-02-05 00:26:35.413944+01 | 1486250795.41394 | pgbench_tellers_pkey  |            40960
 2017-02-05 00:26:35.413944+01 | 1486250795.41394 | pgbench_accounts_pkey |        224641024

 2017-02-05 00:26:36.504975+01 | 1486250796.50498 | pgbench_branches_pkey |            16384
 2017-02-05 00:26:36.504975+01 | 1486250796.50498 | pgbench_tellers_pkey  |            40960
 2017-02-05 00:26:36.504975+01 | 1486250796.50498 | pgbench_accounts_pkey |        224641024

 2017-02-05 00:26:37.594298+01 | 1486250797.5943 | pgbench_branches_pkey |            16384
 2017-02-05 00:26:37.594298+01 | 1486250797.5943 | pgbench_tellers_pkey  |            40960
 2017-02-05 00:26:37.594298+01 | 1486250797.5943 | pgbench_accounts_pkey |        224641024

 2017-02-05 00:26:38.684042+01 | 1486250798.68404 | pgbench_branches_pkey |            16384
 2017-02-05 00:26:38.684042+01 | 1486250798.68404 | pgbench_tellers_pkey  |            40960
 2017-02-05 00:26:38.684042+01 | 1486250798.68404 | pgbench_accounts_pkey |        224641024

 2017-02-05 00:26:39.769751+01 | 1486250799.76975 | pgbench_branches_pkey |            16384
 2017-02-05 00:26:39.769751+01 | 1486250799.76975 | pgbench_tellers_pkey  |            40960
 2017-02-05 00:26:39.769751+01 | 1486250799.76975 | pgbench_accounts_pkey |        224641024

 2017-02-05 00:26:40.857718+01 | 1486250800.85772 | pgbench_branches_pkey |            16384
 2017-02-05 00:26:40.857718+01 | 1486250800.85772 | pgbench_tellers_pkey  |            40960
 2017-02-05 00:26:40.857718+01 | 1486250800.85772 | pgbench_accounts_pkey |        224641024

 2017-02-05 00:26:41.947697+01 | 1486250801.9477 | pgbench_branches_pkey |            16384
 2017-02-05 00:26:41.947697+01 | 1486250801.9477 | pgbench_tellers_pkey  |            40960
 2017-02-05 00:26:41.947697+01 | 1486250801.9477 | pgbench_accounts_pkey |        224641024

 2017-02-05 00:26:43.046862+01 | 1486250803.04686 | pgbench_branches_pkey |            16384
 2017-02-05 00:26:43.046862+01 | 1486250803.04686 | pgbench_tellers_pkey  |            40960
 2017-02-05 00:26:43.046862+01 | 1486250803.04686 | pgbench_accounts_pkey |        224641024

 2017-02-05 00:26:44.141734+01 | 1486250804.14173 | pgbench_branches_pkey |            16384
 2017-02-05 00:26:44.141734+01 | 1486250804.14173 | pgbench_tellers_pkey  |            40960
 2017-02-05 00:26:44.141734+01 | 1486250804.14173 | pgbench_accounts_pkey |        224641024

 2017-02-05 00:26:45.235902+01 | 1486250805.2359 | pgbench_branches_pkey |            16384
 2017-02-05 00:26:45.235902+01 | 1486250805.2359 | pgbench_tellers_pkey  |            40960
 2017-02-05 00:26:45.235902+01 | 1486250805.2359 | pgbench_accounts_pkey |        224641024

 2017-02-05 00:26:46.329557+01 | 1486250806.32956 | pgbench_branches_pkey |            16384
 2017-02-05 00:26:46.329557+01 | 1486250806.32956 | pgbench_tellers_pkey  |            40960
 2017-02-05 00:26:46.329557+01 | 1486250806.32956 | pgbench_accounts_pkey |        224641024

 2017-02-05 00:26:47.420482+01 | 1486250807.42048 | pgbench_branches_pkey |            16384
 2017-02-05 00:26:47.420482+01 | 1486250807.42048 | pgbench_tellers_pkey  |            40960
 2017-02-05 00:26:47.420482+01 | 1486250807.42048 | pgbench_accounts_pkey |        224641024

 2017-02-05 00:26:48.512311+01 | 1486250808.51231 | pgbench_branches_pkey |            16384
 2017-02-05 00:26:48.512311+01 | 1486250808.51231 | pgbench_tellers_pkey  |            40960
 2017-02-05 00:26:48.512311+01 | 1486250808.51231 | pgbench_accounts_pkey |        224641024

 2017-02-05 00:26:49.609501+01 | 1486250809.6095 | pgbench_branches_pkey |            16384
 2017-02-05 00:26:49.609501+01 | 1486250809.6095 | pgbench_tellers_pkey  |            40960
 2017-02-05 00:26:49.609501+01 | 1486250809.6095 | pgbench_accounts_pkey |        224641024

 2017-02-05 00:26:50.702367+01 | 1486250810.70237 | pgbench_branches_pkey |            16384
 2017-02-05 00:26:50.702367+01 | 1486250810.70237 | pgbench_tellers_pkey  |            40960
 2017-02-05 00:26:50.702367+01 | 1486250810.70237 | pgbench_accounts_pkey |        224641024

 2017-02-05 00:26:51.787533+01 | 1486250811.78753 | pgbench_branches_pkey |            16384
 2017-02-05 00:26:51.787533+01 | 1486250811.78753 | pgbench_tellers_pkey  |            40960
 2017-02-05 00:26:51.787533+01 | 1486250811.78753 | pgbench_accounts_pkey |        224641024

 2017-02-05 00:26:52.876621+01 | 1486250812.87662 | pgbench_branches_pkey |            16384
 2017-02-05 00:26:52.876621+01 | 1486250812.87662 | pgbench_tellers_pkey  |            40960
 2017-02-05 00:26:52.876621+01 | 1486250812.87662 | pgbench_accounts_pkey |        224641024

 2017-02-05 00:26:53.966018+01 | 1486250813.96602 | pgbench_branches_pkey |            16384
 2017-02-05 00:26:53.966018+01 | 1486250813.96602 | pgbench_tellers_pkey  |            40960
 2017-02-05 00:26:53.966018+01 | 1486250813.96602 | pgbench_accounts_pkey |        224641024

 2017-02-05 00:26:55.055684+01 | 1486250815.05568 | pgbench_branches_pkey |            16384
 2017-02-05 00:26:55.055684+01 | 1486250815.05568 | pgbench_tellers_pkey  |            40960
 2017-02-05 00:26:55.055684+01 | 1486250815.05568 | pgbench_accounts_pkey |        224641024

 2017-02-05 00:26:56.144583+01 | 1486250816.14458 | pgbench_branches_pkey |            16384
 2017-02-05 00:26:56.144583+01 | 1486250816.14458 | pgbench_tellers_pkey  |            40960
 2017-02-05 00:26:56.144583+01 | 1486250816.14458 | pgbench_accounts_pkey |        224641024

 2017-02-05 00:26:57.247305+01 | 1486250817.2473 | pgbench_branches_pkey |            16384
 2017-02-05 00:26:57.247305+01 | 1486250817.2473 | pgbench_tellers_pkey  |            40960
 2017-02-05 00:26:57.247305+01 | 1486250817.2473 | pgbench_accounts_pkey |        224641024

 2017-02-05 00:26:58.346942+01 | 1486250818.34694 | pgbench_branches_pkey |            16384
 2017-02-05 00:26:58.346942+01 | 1486250818.34694 | pgbench_tellers_pkey  |            40960
 2017-02-05 00:26:58.346942+01 | 1486250818.34694 | pgbench_accounts_pkey |        224641024

 2017-02-05 00:26:59.433485+01 | 1486250819.43349 | pgbench_branches_pkey |            16384
 2017-02-05 00:26:59.433485+01 | 1486250819.43349 | pgbench_tellers_pkey  |            40960
 2017-02-05 00:26:59.433485+01 | 1486250819.43349 | pgbench_accounts_pkey |        224641024

 2017-02-05 00:27:00.526499+01 | 1486250820.5265 | pgbench_branches_pkey |            16384
 2017-02-05 00:27:00.526499+01 | 1486250820.5265 | pgbench_tellers_pkey  |            40960
 2017-02-05 00:27:00.526499+01 | 1486250820.5265 | pgbench_accounts_pkey |        224641024

 2017-02-05 00:27:01.614985+01 | 1486250821.61498 | pgbench_branches_pkey |            16384
 2017-02-05 00:27:01.614985+01 | 1486250821.61498 | pgbench_tellers_pkey  |            40960
 2017-02-05 00:27:01.614985+01 | 1486250821.61498 | pgbench_accounts_pkey |        224641024

 2017-02-05 00:27:02.699436+01 | 1486250822.69944 | pgbench_branches_pkey |            16384
 2017-02-05 00:27:02.699436+01 | 1486250822.69944 | pgbench_tellers_pkey  |            40960
 2017-02-05 00:27:02.699436+01 | 1486250822.69944 | pgbench_accounts_pkey |        224641024

 2017-02-05 00:27:03.786119+01 | 1486250823.78612 | pgbench_branches_pkey |            16384
 2017-02-05 00:27:03.786119+01 | 1486250823.78612 | pgbench_tellers_pkey  |            40960
 2017-02-05 00:27:03.786119+01 | 1486250823.78612 | pgbench_accounts_pkey |        224641024

 2017-02-05 00:27:04.884124+01 | 1486250824.88412 | pgbench_branches_pkey |            16384
 2017-02-05 00:27:04.884124+01 | 1486250824.88412 | pgbench_tellers_pkey  |            40960
 2017-02-05 00:27:04.884124+01 | 1486250824.88412 | pgbench_accounts_pkey |        224641024

 2017-02-05 00:27:05.975622+01 | 1486250825.97562 | pgbench_branches_pkey |            16384
 2017-02-05 00:27:05.975622+01 | 1486250825.97562 | pgbench_tellers_pkey  |            40960
 2017-02-05 00:27:05.975622+01 | 1486250825.97562 | pgbench_accounts_pkey |        224641024

 2017-02-05 00:27:07.060975+01 | 1486250827.06098 | pgbench_branches_pkey |            16384
 2017-02-05 00:27:07.060975+01 | 1486250827.06098 | pgbench_tellers_pkey  |            40960
 2017-02-05 00:27:07.060975+01 | 1486250827.06098 | pgbench_accounts_pkey |        224641024

 2017-02-05 00:27:08.145703+01 | 1486250828.1457 | pgbench_branches_pkey |            16384
 2017-02-05 00:27:08.145703+01 | 1486250828.1457 | pgbench_tellers_pkey  |            40960
 2017-02-05 00:27:08.145703+01 | 1486250828.1457 | pgbench_accounts_pkey |        224641024

 2017-02-05 00:27:09.237225+01 | 1486250829.23723 | pgbench_branches_pkey |            16384
 2017-02-05 00:27:09.237225+01 | 1486250829.23723 | pgbench_tellers_pkey  |            40960
 2017-02-05 00:27:09.237225+01 | 1486250829.23723 | pgbench_accounts_pkey |        224641024

 2017-02-05 00:27:10.330178+01 | 1486250830.33018 | pgbench_branches_pkey |            16384
 2017-02-05 00:27:10.330178+01 | 1486250830.33018 | pgbench_tellers_pkey  |            40960
 2017-02-05 00:27:10.330178+01 | 1486250830.33018 | pgbench_accounts_pkey |        224641024

 2017-02-05 00:27:11.41868+01 | 1486250831.41868 | pgbench_branches_pkey |            16384
 2017-02-05 00:27:11.41868+01 | 1486250831.41868 | pgbench_tellers_pkey  |            40960
 2017-02-05 00:27:11.41868+01 | 1486250831.41868 | pgbench_accounts_pkey |        224641024

 2017-02-05 00:27:12.518969+01 | 1486250832.51897 | pgbench_branches_pkey |            16384
 2017-02-05 00:27:12.518969+01 | 1486250832.51897 | pgbench_tellers_pkey  |            40960
 2017-02-05 00:27:12.518969+01 | 1486250832.51897 | pgbench_accounts_pkey |        224641024

 2017-02-05 00:27:13.609586+01 | 1486250833.60959 | pgbench_branches_pkey |            16384
 2017-02-05 00:27:13.609586+01 | 1486250833.60959 | pgbench_tellers_pkey  |            40960
 2017-02-05 00:27:13.609586+01 | 1486250833.60959 | pgbench_accounts_pkey |        224641024

 2017-02-05 00:27:14.699603+01 | 1486250834.6996 | pgbench_branches_pkey |            16384
 2017-02-05 00:27:14.699603+01 | 1486250834.6996 | pgbench_tellers_pkey  |            40960
 2017-02-05 00:27:14.699603+01 | 1486250834.6996 | pgbench_accounts_pkey |        224641024

 2017-02-05 00:27:15.778448+01 | 1486250835.77845 | pgbench_branches_pkey |            16384
 2017-02-05 00:27:15.778448+01 | 1486250835.77845 | pgbench_tellers_pkey  |            40960
 2017-02-05 00:27:15.778448+01 | 1486250835.77845 | pgbench_accounts_pkey |        224641024

 2017-02-05 00:27:16.867243+01 | 1486250836.86724 | pgbench_branches_pkey |            16384
 2017-02-05 00:27:16.867243+01 | 1486250836.86724 | pgbench_tellers_pkey  |            40960
 2017-02-05 00:27:16.867243+01 | 1486250836.86724 | pgbench_accounts_pkey |        224641024

 2017-02-05 00:27:17.95598+01 | 1486250837.95598 | pgbench_branches_pkey |            16384
 2017-02-05 00:27:17.95598+01 | 1486250837.95598 | pgbench_tellers_pkey  |            40960
 2017-02-05 00:27:17.95598+01 | 1486250837.95598 | pgbench_accounts_pkey |        224641024

 2017-02-05 00:27:19.058604+01 | 1486250839.0586 | pgbench_branches_pkey |            16384
 2017-02-05 00:27:19.058604+01 | 1486250839.0586 | pgbench_tellers_pkey  |            40960
 2017-02-05 00:27:19.058604+01 | 1486250839.0586 | pgbench_accounts_pkey |        224641024

 2017-02-05 00:27:20.153736+01 | 1486250840.15374 | pgbench_branches_pkey |            16384
 2017-02-05 00:27:20.153736+01 | 1486250840.15374 | pgbench_tellers_pkey  |            40960
 2017-02-05 00:27:20.153736+01 | 1486250840.15374 | pgbench_accounts_pkey |        224641024

 2017-02-05 00:27:21.264032+01 | 1486250841.26403 | pgbench_branches_pkey |            16384
 2017-02-05 00:27:21.264032+01 | 1486250841.26403 | pgbench_tellers_pkey  |            40960
 2017-02-05 00:27:21.264032+01 | 1486250841.26403 | pgbench_accounts_pkey |        224641024

 2017-02-05 00:27:22.348588+01 | 1486250842.34859 | pgbench_branches_pkey |            16384
 2017-02-05 00:27:22.348588+01 | 1486250842.34859 | pgbench_tellers_pkey  |            40960
 2017-02-05 00:27:22.348588+01 | 1486250842.34859 | pgbench_accounts_pkey |        224641024

 2017-02-05 00:27:23.432904+01 | 1486250843.4329 | pgbench_branches_pkey |            16384
 2017-02-05 00:27:23.432904+01 | 1486250843.4329 | pgbench_tellers_pkey  |            40960
 2017-02-05 00:27:23.432904+01 | 1486250843.4329 | pgbench_accounts_pkey |        224641024

 2017-02-05 00:27:24.521913+01 | 1486250844.52191 | pgbench_branches_pkey |            16384
 2017-02-05 00:27:24.521913+01 | 1486250844.52191 | pgbench_tellers_pkey  |            40960
 2017-02-05 00:27:24.521913+01 | 1486250844.52191 | pgbench_accounts_pkey |        224641024

 2017-02-05 00:27:25.612523+01 | 1486250845.61252 | pgbench_branches_pkey |            16384
 2017-02-05 00:27:25.612523+01 | 1486250845.61252 | pgbench_tellers_pkey  |            40960
 2017-02-05 00:27:25.612523+01 | 1486250845.61252 | pgbench_accounts_pkey |        224641024

 2017-02-05 00:27:26.720926+01 | 1486250846.72093 | pgbench_branches_pkey |            16384
 2017-02-05 00:27:26.720926+01 | 1486250846.72093 | pgbench_tellers_pkey  |            40960
 2017-02-05 00:27:26.720926+01 | 1486250846.72093 | pgbench_accounts_pkey |        224641024

 2017-02-05 00:27:27.79856+01 | 1486250847.79856 | pgbench_branches_pkey |            16384
 2017-02-05 00:27:27.79856+01 | 1486250847.79856 | pgbench_tellers_pkey  |            40960
 2017-02-05 00:27:27.79856+01 | 1486250847.79856 | pgbench_accounts_pkey |        224641024

 2017-02-05 00:27:28.895085+01 | 1486250848.89509 | pgbench_branches_pkey |            16384
 2017-02-05 00:27:28.895085+01 | 1486250848.89509 | pgbench_tellers_pkey  |            40960
 2017-02-05 00:27:28.895085+01 | 1486250848.89509 | pgbench_accounts_pkey |        224641024

 2017-02-05 00:27:29.982646+01 | 1486250849.98265 | pgbench_branches_pkey |            16384
 2017-02-05 00:27:29.982646+01 | 1486250849.98265 | pgbench_tellers_pkey  |            40960
 2017-02-05 00:27:29.982646+01 | 1486250849.98265 | pgbench_accounts_pkey |        224641024

 2017-02-05 00:27:31.066052+01 | 1486250851.06605 | pgbench_branches_pkey |            16384
 2017-02-05 00:27:31.066052+01 | 1486250851.06605 | pgbench_tellers_pkey  |            40960
 2017-02-05 00:27:31.066052+01 | 1486250851.06605 | pgbench_accounts_pkey |        224641024

 2017-02-05 00:27:32.148489+01 | 1486250852.14849 | pgbench_branches_pkey |            16384
 2017-02-05 00:27:32.148489+01 | 1486250852.14849 | pgbench_tellers_pkey  |            40960
 2017-02-05 00:27:32.148489+01 | 1486250852.14849 | pgbench_accounts_pkey |        224641024

 2017-02-05 00:27:33.238692+01 | 1486250853.23869 | pgbench_branches_pkey |            16384
 2017-02-05 00:27:33.238692+01 | 1486250853.23869 | pgbench_tellers_pkey  |            40960
 2017-02-05 00:27:33.238692+01 | 1486250853.23869 | pgbench_accounts_pkey |        224641024

 2017-02-05 00:27:34.328754+01 | 1486250854.32875 | pgbench_branches_pkey |            16384
 2017-02-05 00:27:34.328754+01 | 1486250854.32875 | pgbench_tellers_pkey  |            40960
 2017-02-05 00:27:34.328754+01 | 1486250854.32875 | pgbench_accounts_pkey |        224641024

 2017-02-05 00:27:35.421305+01 | 1486250855.4213 | pgbench_branches_pkey |            16384
 2017-02-05 00:27:35.421305+01 | 1486250855.4213 | pgbench_tellers_pkey  |            40960
 2017-02-05 00:27:35.421305+01 | 1486250855.4213 | pgbench_accounts_pkey |        224641024

 2017-02-05 00:27:36.512349+01 | 1486250856.51235 | pgbench_branches_pkey |            16384
 2017-02-05 00:27:36.512349+01 | 1486250856.51235 | pgbench_tellers_pkey  |            40960
 2017-02-05 00:27:36.512349+01 | 1486250856.51235 | pgbench_accounts_pkey |        224641024

 2017-02-05 00:27:37.601857+01 | 1486250857.60186 | pgbench_branches_pkey |            16384
 2017-02-05 00:27:37.601857+01 | 1486250857.60186 | pgbench_tellers_pkey  |            40960
 2017-02-05 00:27:37.601857+01 | 1486250857.60186 | pgbench_accounts_pkey |        224641024

 2017-02-05 00:27:38.689442+01 | 1486250858.68944 | pgbench_branches_pkey |            16384
 2017-02-05 00:27:38.689442+01 | 1486250858.68944 | pgbench_tellers_pkey  |            40960
 2017-02-05 00:27:38.689442+01 | 1486250858.68944 | pgbench_accounts_pkey |        224641024

 2017-02-05 00:27:39.773254+01 | 1486250859.77325 | pgbench_branches_pkey |            16384
 2017-02-05 00:27:39.773254+01 | 1486250859.77325 | pgbench_tellers_pkey  |            40960
 2017-02-05 00:27:39.773254+01 | 1486250859.77325 | pgbench_accounts_pkey |        224641024

 2017-02-05 00:27:40.860774+01 | 1486250860.86077 | pgbench_branches_pkey |            16384
 2017-02-05 00:27:40.860774+01 | 1486250860.86077 | pgbench_tellers_pkey  |            40960
 2017-02-05 00:27:40.860774+01 | 1486250860.86077 | pgbench_accounts_pkey |        224641024

 2017-02-05 00:27:41.954139+01 | 1486250861.95414 | pgbench_branches_pkey |            16384
 2017-02-05 00:27:41.954139+01 | 1486250861.95414 | pgbench_tellers_pkey  |            40960
 2017-02-05 00:27:41.954139+01 | 1486250861.95414 | pgbench_accounts_pkey |        224641024

 2017-02-05 00:27:43.045515+01 | 1486250863.04552 | pgbench_branches_pkey |            16384
 2017-02-05 00:27:43.045515+01 | 1486250863.04552 | pgbench_tellers_pkey  |            40960
 2017-02-05 00:27:43.045515+01 | 1486250863.04552 | pgbench_accounts_pkey |        224641024

 2017-02-05 00:27:44.126805+01 | 1486250864.12681 | pgbench_branches_pkey |            16384
 2017-02-05 00:27:44.126805+01 | 1486250864.12681 | pgbench_tellers_pkey  |            40960
 2017-02-05 00:27:44.126805+01 | 1486250864.12681 | pgbench_accounts_pkey |        224641024

 2017-02-05 00:27:45.216171+01 | 1486250865.21617 | pgbench_branches_pkey |            16384
 2017-02-05 00:27:45.216171+01 | 1486250865.21617 | pgbench_tellers_pkey  |            40960
 2017-02-05 00:27:45.216171+01 | 1486250865.21617 | pgbench_accounts_pkey |        224641024

 2017-02-05 00:27:46.307886+01 | 1486250866.30789 | pgbench_branches_pkey |            16384
 2017-02-05 00:27:46.307886+01 | 1486250866.30789 | pgbench_tellers_pkey  |            40960
 2017-02-05 00:27:46.307886+01 | 1486250866.30789 | pgbench_accounts_pkey |        224641024

 2017-02-05 00:27:47.401958+01 | 1486250867.40196 | pgbench_branches_pkey |            16384
 2017-02-05 00:27:47.401958+01 | 1486250867.40196 | pgbench_tellers_pkey  |            40960
 2017-02-05 00:27:47.401958+01 | 1486250867.40196 | pgbench_accounts_pkey |        224641024

 2017-02-05 00:27:48.488336+01 | 1486250868.48834 | pgbench_branches_pkey |            16384
 2017-02-05 00:27:48.488336+01 | 1486250868.48834 | pgbench_tellers_pkey  |            40960
 2017-02-05 00:27:48.488336+01 | 1486250868.48834 | pgbench_accounts_pkey |        224641024

 2017-02-05 00:27:49.582727+01 | 1486250869.58273 | pgbench_branches_pkey |            16384
 2017-02-05 00:27:49.582727+01 | 1486250869.58273 | pgbench_tellers_pkey  |            40960
 2017-02-05 00:27:49.582727+01 | 1486250869.58273 | pgbench_accounts_pkey |        224641024

 2017-02-05 00:27:50.66763+01 | 1486250870.66763 | pgbench_branches_pkey |            16384
 2017-02-05 00:27:50.66763+01 | 1486250870.66763 | pgbench_tellers_pkey  |            40960
 2017-02-05 00:27:50.66763+01 | 1486250870.66763 | pgbench_accounts_pkey |        224641024

 2017-02-05 00:27:51.751426+01 | 1486250871.75143 | pgbench_branches_pkey |            16384
 2017-02-05 00:27:51.751426+01 | 1486250871.75143 | pgbench_tellers_pkey  |            40960
 2017-02-05 00:27:51.751426+01 | 1486250871.75143 | pgbench_accounts_pkey |        224641024

 2017-02-05 00:27:52.831665+01 | 1486250872.83167 | pgbench_branches_pkey |            16384
 2017-02-05 00:27:52.831665+01 | 1486250872.83167 | pgbench_tellers_pkey  |            40960
 2017-02-05 00:27:52.831665+01 | 1486250872.83167 | pgbench_accounts_pkey |        224641024

 2017-02-05 00:27:53.927869+01 | 1486250873.92787 | pgbench_branches_pkey |            16384
 2017-02-05 00:27:53.927869+01 | 1486250873.92787 | pgbench_tellers_pkey  |            40960
 2017-02-05 00:27:53.927869+01 | 1486250873.92787 | pgbench_accounts_pkey |        224641024

 2017-02-05 00:27:55.020616+01 | 1486250875.02062 | pgbench_branches_pkey |            16384
 2017-02-05 00:27:55.020616+01 | 1486250875.02062 | pgbench_tellers_pkey  |            40960
 2017-02-05 00:27:55.020616+01 | 1486250875.02062 | pgbench_accounts_pkey |        224641024

 2017-02-05 00:27:56.111872+01 | 1486250876.11187 | pgbench_branches_pkey |            16384
 2017-02-05 00:27:56.111872+01 | 1486250876.11187 | pgbench_tellers_pkey  |            40960
 2017-02-05 00:27:56.111872+01 | 1486250876.11187 | pgbench_accounts_pkey |        224641024

 2017-02-05 00:27:57.206283+01 | 1486250877.20628 | pgbench_branches_pkey |            16384
 2017-02-05 00:27:57.206283+01 | 1486250877.20628 | pgbench_tellers_pkey  |            40960
 2017-02-05 00:27:57.206283+01 | 1486250877.20628 | pgbench_accounts_pkey |        224641024

 2017-02-05 00:27:58.2897+01 | 1486250878.2897 | pgbench_branches_pkey |            16384
 2017-02-05 00:27:58.2897+01 | 1486250878.2897 | pgbench_tellers_pkey  |            40960
 2017-02-05 00:27:58.2897+01 | 1486250878.2897 | pgbench_accounts_pkey |        224641024

 2017-02-05 00:27:59.377574+01 | 1486250879.37757 | pgbench_branches_pkey |            16384
 2017-02-05 00:27:59.377574+01 | 1486250879.37757 | pgbench_tellers_pkey  |            40960
 2017-02-05 00:27:59.377574+01 | 1486250879.37757 | pgbench_accounts_pkey |        224641024

 2017-02-05 00:28:00.460382+01 | 1486250880.46038 | pgbench_branches_pkey |            16384
 2017-02-05 00:28:00.460382+01 | 1486250880.46038 | pgbench_tellers_pkey  |            40960
 2017-02-05 00:28:00.460382+01 | 1486250880.46038 | pgbench_accounts_pkey |        224641024

 2017-02-05 00:28:01.55305+01 | 1486250881.55305 | pgbench_branches_pkey |            16384
 2017-02-05 00:28:01.55305+01 | 1486250881.55305 | pgbench_tellers_pkey  |            40960
 2017-02-05 00:28:01.55305+01 | 1486250881.55305 | pgbench_accounts_pkey |        224641024

 2017-02-05 00:28:02.648325+01 | 1486250882.64832 | pgbench_branches_pkey |            16384
 2017-02-05 00:28:02.648325+01 | 1486250882.64832 | pgbench_tellers_pkey  |            40960
 2017-02-05 00:28:02.648325+01 | 1486250882.64832 | pgbench_accounts_pkey |        224641024

 2017-02-05 00:28:03.74071+01 | 1486250883.74071 | pgbench_branches_pkey |            16384
 2017-02-05 00:28:03.74071+01 | 1486250883.74071 | pgbench_tellers_pkey  |            40960
 2017-02-05 00:28:03.74071+01 | 1486250883.74071 | pgbench_accounts_pkey |        224641024

 2017-02-05 00:28:04.822131+01 | 1486250884.82213 | pgbench_branches_pkey |            16384
 2017-02-05 00:28:04.822131+01 | 1486250884.82213 | pgbench_tellers_pkey  |            40960
 2017-02-05 00:28:04.822131+01 | 1486250884.82213 | pgbench_accounts_pkey |        224641024

 2017-02-05 00:28:05.904384+01 | 1486250885.90438 | pgbench_branches_pkey |            16384
 2017-02-05 00:28:05.904384+01 | 1486250885.90438 | pgbench_tellers_pkey  |            40960
 2017-02-05 00:28:05.904384+01 | 1486250885.90438 | pgbench_accounts_pkey |        224641024

 2017-02-05 00:28:06.995864+01 | 1486250886.99586 | pgbench_branches_pkey |            16384
 2017-02-05 00:28:06.995864+01 | 1486250886.99586 | pgbench_tellers_pkey  |            40960
 2017-02-05 00:28:06.995864+01 | 1486250886.99586 | pgbench_accounts_pkey |        224641024

 2017-02-05 00:28:08.084776+01 | 1486250888.08478 | pgbench_branches_pkey |            16384
 2017-02-05 00:28:08.084776+01 | 1486250888.08478 | pgbench_tellers_pkey  |            40960
 2017-02-05 00:28:08.084776+01 | 1486250888.08478 | pgbench_accounts_pkey |        224641024

 2017-02-05 00:28:09.178397+01 | 1486250889.1784 | pgbench_branches_pkey |            16384
 2017-02-05 00:28:09.178397+01 | 1486250889.1784 | pgbench_tellers_pkey  |            40960
 2017-02-05 00:28:09.178397+01 | 1486250889.1784 | pgbench_accounts_pkey |        224641024

 2017-02-05 00:28:10.26325+01 | 1486250890.26325 | pgbench_branches_pkey |            16384
 2017-02-05 00:28:10.26325+01 | 1486250890.26325 | pgbench_tellers_pkey  |            40960
 2017-02-05 00:28:10.26325+01 | 1486250890.26325 | pgbench_accounts_pkey |        224641024

 2017-02-05 00:28:11.355657+01 | 1486250891.35566 | pgbench_branches_pkey |            16384
 2017-02-05 00:28:11.355657+01 | 1486250891.35566 | pgbench_tellers_pkey  |            40960
 2017-02-05 00:28:11.355657+01 | 1486250891.35566 | pgbench_accounts_pkey |        224641024

 2017-02-05 00:28:12.444192+01 | 1486250892.44419 | pgbench_branches_pkey |            16384
 2017-02-05 00:28:12.444192+01 | 1486250892.44419 | pgbench_tellers_pkey  |            40960
 2017-02-05 00:28:12.444192+01 | 1486250892.44419 | pgbench_accounts_pkey |        224641024

 2017-02-05 00:28:13.525275+01 | 1486250893.52527 | pgbench_branches_pkey |            16384
 2017-02-05 00:28:13.525275+01 | 1486250893.52527 | pgbench_tellers_pkey  |            40960
 2017-02-05 00:28:13.525275+01 | 1486250893.52527 | pgbench_accounts_pkey |        224641024

 2017-02-05 00:28:14.617135+01 | 1486250894.61714 | pgbench_branches_pkey |            16384
 2017-02-05 00:28:14.617135+01 | 1486250894.61714 | pgbench_tellers_pkey  |            40960
 2017-02-05 00:28:14.617135+01 | 1486250894.61714 | pgbench_accounts_pkey |        224641024

 2017-02-05 00:28:15.702151+01 | 1486250895.70215 | pgbench_branches_pkey |            16384
 2017-02-05 00:28:15.702151+01 | 1486250895.70215 | pgbench_tellers_pkey  |            40960
 2017-02-05 00:28:15.702151+01 | 1486250895.70215 | pgbench_accounts_pkey |        224641024

 2017-02-05 00:28:16.791691+01 | 1486250896.79169 | pgbench_branches_pkey |            16384
 2017-02-05 00:28:16.791691+01 | 1486250896.79169 | pgbench_tellers_pkey  |            40960
 2017-02-05 00:28:16.791691+01 | 1486250896.79169 | pgbench_accounts_pkey |        224641024

 2017-02-05 00:28:17.871971+01 | 1486250897.87197 | pgbench_branches_pkey |            16384
 2017-02-05 00:28:17.871971+01 | 1486250897.87197 | pgbench_tellers_pkey  |            40960
 2017-02-05 00:28:17.871971+01 | 1486250897.87197 | pgbench_accounts_pkey |        224641024

 2017-02-05 00:28:18.950569+01 | 1486250898.95057 | pgbench_branches_pkey |            16384
 2017-02-05 00:28:18.950569+01 | 1486250898.95057 | pgbench_tellers_pkey  |            40960
 2017-02-05 00:28:18.950569+01 | 1486250898.95057 | pgbench_accounts_pkey |        224641024

 2017-02-05 00:28:20.052074+01 | 1486250900.05207 | pgbench_branches_pkey |            16384
 2017-02-05 00:28:20.052074+01 | 1486250900.05207 | pgbench_tellers_pkey  |            40960
 2017-02-05 00:28:20.052074+01 | 1486250900.05207 | pgbench_accounts_pkey |        224641024

 2017-02-05 00:28:21.140738+01 | 1486250901.14074 | pgbench_branches_pkey |            16384
 2017-02-05 00:28:21.140738+01 | 1486250901.14074 | pgbench_tellers_pkey  |            40960
 2017-02-05 00:28:21.140738+01 | 1486250901.14074 | pgbench_accounts_pkey |        224641024

 2017-02-05 00:28:22.231182+01 | 1486250902.23118 | pgbench_branches_pkey |            16384
 2017-02-05 00:28:22.231182+01 | 1486250902.23118 | pgbench_tellers_pkey  |            40960
 2017-02-05 00:28:22.231182+01 | 1486250902.23118 | pgbench_accounts_pkey |        224641024

 2017-02-05 00:28:23.325325+01 | 1486250903.32533 | pgbench_branches_pkey |            16384
 2017-02-05 00:28:23.325325+01 | 1486250903.32533 | pgbench_tellers_pkey  |            40960
 2017-02-05 00:28:23.325325+01 | 1486250903.32533 | pgbench_accounts_pkey |        224641024

 2017-02-05 00:28:24.409685+01 | 1486250904.40968 | pgbench_branches_pkey |            16384
 2017-02-05 00:28:24.409685+01 | 1486250904.40968 | pgbench_tellers_pkey  |            40960
 2017-02-05 00:28:24.409685+01 | 1486250904.40968 | pgbench_accounts_pkey |        224641024

 2017-02-05 00:28:25.490649+01 | 1486250905.49065 | pgbench_branches_pkey |            16384
 2017-02-05 00:28:25.490649+01 | 1486250905.49065 | pgbench_tellers_pkey  |            40960
 2017-02-05 00:28:25.490649+01 | 1486250905.49065 | pgbench_accounts_pkey |        224641024

 2017-02-05 00:28:26.573805+01 | 1486250906.57381 | pgbench_branches_pkey |            16384
 2017-02-05 00:28:26.573805+01 | 1486250906.57381 | pgbench_tellers_pkey  |            40960
 2017-02-05 00:28:26.573805+01 | 1486250906.57381 | pgbench_accounts_pkey |        224641024

 2017-02-05 00:28:27.656377+01 | 1486250907.65638 | pgbench_branches_pkey |            16384
 2017-02-05 00:28:27.656377+01 | 1486250907.65638 | pgbench_tellers_pkey  |            40960
 2017-02-05 00:28:27.656377+01 | 1486250907.65638 | pgbench_accounts_pkey |        224641024

 2017-02-05 00:28:28.750109+01 | 1486250908.75011 | pgbench_branches_pkey |            16384
 2017-02-05 00:28:28.750109+01 | 1486250908.75011 | pgbench_tellers_pkey  |            40960
 2017-02-05 00:28:28.750109+01 | 1486250908.75011 | pgbench_accounts_pkey |        224641024

 2017-02-05 00:28:29.828129+01 | 1486250909.82813 | pgbench_branches_pkey |            16384
 2017-02-05 00:28:29.828129+01 | 1486250909.82813 | pgbench_tellers_pkey  |            40960
 2017-02-05 00:28:29.828129+01 | 1486250909.82813 | pgbench_accounts_pkey |        224641024

 2017-02-05 00:28:30.902433+01 | 1486250910.90243 | pgbench_branches_pkey |            16384
 2017-02-05 00:28:30.902433+01 | 1486250910.90243 | pgbench_tellers_pkey  |            40960
 2017-02-05 00:28:30.902433+01 | 1486250910.90243 | pgbench_accounts_pkey |        224641024

 2017-02-05 00:28:31.9961+01 | 1486250911.9961 | pgbench_branches_pkey |            16384
 2017-02-05 00:28:31.9961+01 | 1486250911.9961 | pgbench_tellers_pkey  |            40960
 2017-02-05 00:28:31.9961+01 | 1486250911.9961 | pgbench_accounts_pkey |        224641024

 2017-02-05 00:28:33.088524+01 | 1486250913.08852 | pgbench_branches_pkey |            16384
 2017-02-05 00:28:33.088524+01 | 1486250913.08852 | pgbench_tellers_pkey  |            40960
 2017-02-05 00:28:33.088524+01 | 1486250913.08852 | pgbench_accounts_pkey |        224641024

 2017-02-05 00:28:34.183037+01 | 1486250914.18304 | pgbench_branches_pkey |            16384
 2017-02-05 00:28:34.183037+01 | 1486250914.18304 | pgbench_tellers_pkey  |            40960
 2017-02-05 00:28:34.183037+01 | 1486250914.18304 | pgbench_accounts_pkey |        224641024

 2017-02-05 00:28:35.270317+01 | 1486250915.27032 | pgbench_branches_pkey |            16384
 2017-02-05 00:28:35.270317+01 | 1486250915.27032 | pgbench_tellers_pkey  |            40960
 2017-02-05 00:28:35.270317+01 | 1486250915.27032 | pgbench_accounts_pkey |        224641024

 2017-02-05 00:28:36.363272+01 | 1486250916.36327 | pgbench_branches_pkey |            16384
 2017-02-05 00:28:36.363272+01 | 1486250916.36327 | pgbench_tellers_pkey  |            40960
 2017-02-05 00:28:36.363272+01 | 1486250916.36327 | pgbench_accounts_pkey |        224641024

 2017-02-05 00:28:37.453453+01 | 1486250917.45345 | pgbench_branches_pkey |            16384
 2017-02-05 00:28:37.453453+01 | 1486250917.45345 | pgbench_tellers_pkey  |            40960
 2017-02-05 00:28:37.453453+01 | 1486250917.45345 | pgbench_accounts_pkey |        224641024

 2017-02-05 00:28:38.546106+01 | 1486250918.54611 | pgbench_branches_pkey |            16384
 2017-02-05 00:28:38.546106+01 | 1486250918.54611 | pgbench_tellers_pkey  |            40960
 2017-02-05 00:28:38.546106+01 | 1486250918.54611 | pgbench_accounts_pkey |        224641024

 2017-02-05 00:28:39.638365+01 | 1486250919.63837 | pgbench_branches_pkey |            16384
 2017-02-05 00:28:39.638365+01 | 1486250919.63837 | pgbench_tellers_pkey  |            40960
 2017-02-05 00:28:39.638365+01 | 1486250919.63837 | pgbench_accounts_pkey |        224641024

 2017-02-05 00:28:40.7298+01 | 1486250920.7298 | pgbench_branches_pkey |            16384
 2017-02-05 00:28:40.7298+01 | 1486250920.7298 | pgbench_tellers_pkey  |            40960
 2017-02-05 00:28:40.7298+01 | 1486250920.7298 | pgbench_accounts_pkey |        224641024

 2017-02-05 00:28:41.818256+01 | 1486250921.81826 | pgbench_branches_pkey |            16384
 2017-02-05 00:28:41.818256+01 | 1486250921.81826 | pgbench_tellers_pkey  |            40960
 2017-02-05 00:28:41.818256+01 | 1486250921.81826 | pgbench_accounts_pkey |        224641024

 2017-02-05 00:28:42.889796+01 | 1486250922.8898 | pgbench_branches_pkey |            16384
 2017-02-05 00:28:42.889796+01 | 1486250922.8898 | pgbench_tellers_pkey  |            40960
 2017-02-05 00:28:42.889796+01 | 1486250922.8898 | pgbench_accounts_pkey |        224641024

 2017-02-05 00:28:43.967765+01 | 1486250923.96777 | pgbench_branches_pkey |            16384
 2017-02-05 00:28:43.967765+01 | 1486250923.96777 | pgbench_tellers_pkey  |            40960
 2017-02-05 00:28:43.967765+01 | 1486250923.96777 | pgbench_accounts_pkey |        224641024

 2017-02-05 00:28:45.053702+01 | 1486250925.0537 | pgbench_branches_pkey |            16384
 2017-02-05 00:28:45.053702+01 | 1486250925.0537 | pgbench_tellers_pkey  |            40960
 2017-02-05 00:28:45.053702+01 | 1486250925.0537 | pgbench_accounts_pkey |        224641024

 2017-02-05 00:28:46.14057+01 | 1486250926.14057 | pgbench_branches_pkey |            16384
 2017-02-05 00:28:46.14057+01 | 1486250926.14057 | pgbench_tellers_pkey  |            40960
 2017-02-05 00:28:46.14057+01 | 1486250926.14057 | pgbench_accounts_pkey |        224641024

 2017-02-05 00:28:47.239901+01 | 1486250927.2399 | pgbench_branches_pkey |            16384
 2017-02-05 00:28:47.239901+01 | 1486250927.2399 | pgbench_tellers_pkey  |            40960
 2017-02-05 00:28:47.239901+01 | 1486250927.2399 | pgbench_accounts_pkey |        224641024

 2017-02-05 00:28:48.336929+01 | 1486250928.33693 | pgbench_branches_pkey |            16384
 2017-02-05 00:28:48.336929+01 | 1486250928.33693 | pgbench_tellers_pkey  |            40960
 2017-02-05 00:28:48.336929+01 | 1486250928.33693 | pgbench_accounts_pkey |        224641024

 2017-02-05 00:28:49.427098+01 | 1486250929.4271 | pgbench_branches_pkey |            16384
 2017-02-05 00:28:49.427098+01 | 1486250929.4271 | pgbench_tellers_pkey  |            40960
 2017-02-05 00:28:49.427098+01 | 1486250929.4271 | pgbench_accounts_pkey |        224641024

 2017-02-05 00:28:50.511906+01 | 1486250930.51191 | pgbench_branches_pkey |            16384
 2017-02-05 00:28:50.511906+01 | 1486250930.51191 | pgbench_tellers_pkey  |            40960
 2017-02-05 00:28:50.511906+01 | 1486250930.51191 | pgbench_accounts_pkey |        224641024

 2017-02-05 00:28:51.610027+01 | 1486250931.61003 | pgbench_branches_pkey |            16384
 2017-02-05 00:28:51.610027+01 | 1486250931.61003 | pgbench_tellers_pkey  |            40960
 2017-02-05 00:28:51.610027+01 | 1486250931.61003 | pgbench_accounts_pkey |        224641024

 2017-02-05 00:28:52.700069+01 | 1486250932.70007 | pgbench_branches_pkey |            16384
 2017-02-05 00:28:52.700069+01 | 1486250932.70007 | pgbench_tellers_pkey  |            40960
 2017-02-05 00:28:52.700069+01 | 1486250932.70007 | pgbench_accounts_pkey |        224641024

 2017-02-05 00:28:53.792443+01 | 1486250933.79244 | pgbench_branches_pkey |            16384
 2017-02-05 00:28:53.792443+01 | 1486250933.79244 | pgbench_tellers_pkey  |            40960
 2017-02-05 00:28:53.792443+01 | 1486250933.79244 | pgbench_accounts_pkey |        224641024

 2017-02-05 00:28:54.872263+01 | 1486250934.87226 | pgbench_branches_pkey |            16384
 2017-02-05 00:28:54.872263+01 | 1486250934.87226 | pgbench_tellers_pkey  |            40960
 2017-02-05 00:28:54.872263+01 | 1486250934.87226 | pgbench_accounts_pkey |        224641024

 2017-02-05 00:28:55.952248+01 | 1486250935.95225 | pgbench_branches_pkey |            16384
 2017-02-05 00:28:55.952248+01 | 1486250935.95225 | pgbench_tellers_pkey  |            40960
 2017-02-05 00:28:55.952248+01 | 1486250935.95225 | pgbench_accounts_pkey |        224641024

 2017-02-05 00:28:57.041919+01 | 1486250937.04192 | pgbench_branches_pkey |            16384
 2017-02-05 00:28:57.041919+01 | 1486250937.04192 | pgbench_tellers_pkey  |            40960
 2017-02-05 00:28:57.041919+01 | 1486250937.04192 | pgbench_accounts_pkey |        224641024

 2017-02-05 00:28:58.135587+01 | 1486250938.13559 | pgbench_branches_pkey |            16384
 2017-02-05 00:28:58.135587+01 | 1486250938.13559 | pgbench_tellers_pkey  |            40960
 2017-02-05 00:28:58.135587+01 | 1486250938.13559 | pgbench_accounts_pkey |        224641024

 2017-02-05 00:28:59.226138+01 | 1486250939.22614 | pgbench_branches_pkey |            16384
 2017-02-05 00:28:59.226138+01 | 1486250939.22614 | pgbench_tellers_pkey  |            40960
 2017-02-05 00:28:59.226138+01 | 1486250939.22614 | pgbench_accounts_pkey |        224641024

 2017-02-05 00:29:00.309981+01 | 1486250940.30998 | pgbench_branches_pkey |            16384
 2017-02-05 00:29:00.309981+01 | 1486250940.30998 | pgbench_tellers_pkey  |            40960
 2017-02-05 00:29:00.309981+01 | 1486250940.30998 | pgbench_accounts_pkey |        224641024

 2017-02-05 00:29:01.405397+01 | 1486250941.4054 | pgbench_branches_pkey |            16384
 2017-02-05 00:29:01.405397+01 | 1486250941.4054 | pgbench_tellers_pkey  |            40960
 2017-02-05 00:29:01.405397+01 | 1486250941.4054 | pgbench_accounts_pkey |        224641024

 2017-02-05 00:29:02.49529+01 | 1486250942.49529 | pgbench_branches_pkey |            16384
 2017-02-05 00:29:02.49529+01 | 1486250942.49529 | pgbench_tellers_pkey  |            40960
 2017-02-05 00:29:02.49529+01 | 1486250942.49529 | pgbench_accounts_pkey |        224641024

 2017-02-05 00:29:03.584055+01 | 1486250943.58405 | pgbench_branches_pkey |            16384
 2017-02-05 00:29:03.584055+01 | 1486250943.58405 | pgbench_tellers_pkey  |            40960
 2017-02-05 00:29:03.584055+01 | 1486250943.58405 | pgbench_accounts_pkey |        224641024

 2017-02-05 00:29:04.667385+01 | 1486250944.66739 | pgbench_branches_pkey |            16384
 2017-02-05 00:29:04.667385+01 | 1486250944.66739 | pgbench_tellers_pkey  |            40960
 2017-02-05 00:29:04.667385+01 | 1486250944.66739 | pgbench_accounts_pkey |        224641024

 2017-02-05 00:29:05.760135+01 | 1486250945.76013 | pgbench_branches_pkey |            16384
 2017-02-05 00:29:05.760135+01 | 1486250945.76013 | pgbench_tellers_pkey  |            40960
 2017-02-05 00:29:05.760135+01 | 1486250945.76013 | pgbench_accounts_pkey |        224641024

 2017-02-05 00:29:06.839198+01 | 1486250946.8392 | pgbench_branches_pkey |            16384
 2017-02-05 00:29:06.839198+01 | 1486250946.8392 | pgbench_tellers_pkey  |            40960
 2017-02-05 00:29:06.839198+01 | 1486250946.8392 | pgbench_accounts_pkey |        224641024

 2017-02-05 00:29:07.918927+01 | 1486250947.91893 | pgbench_branches_pkey |            16384
 2017-02-05 00:29:07.918927+01 | 1486250947.91893 | pgbench_tellers_pkey  |            40960
 2017-02-05 00:29:07.918927+01 | 1486250947.91893 | pgbench_accounts_pkey |        224641024

 2017-02-05 00:29:08.997014+01 | 1486250948.99701 | pgbench_branches_pkey |            16384
 2017-02-05 00:29:08.997014+01 | 1486250948.99701 | pgbench_tellers_pkey  |            40960
 2017-02-05 00:29:08.997014+01 | 1486250948.99701 | pgbench_accounts_pkey |        224641024

 2017-02-05 00:29:10.085771+01 | 1486250950.08577 | pgbench_branches_pkey |            16384
 2017-02-05 00:29:10.085771+01 | 1486250950.08577 | pgbench_tellers_pkey  |            40960
 2017-02-05 00:29:10.085771+01 | 1486250950.08577 | pgbench_accounts_pkey |        224641024

 2017-02-05 00:29:11.183259+01 | 1486250951.18326 | pgbench_branches_pkey |            16384
 2017-02-05 00:29:11.183259+01 | 1486250951.18326 | pgbench_tellers_pkey  |            40960
 2017-02-05 00:29:11.183259+01 | 1486250951.18326 | pgbench_accounts_pkey |        224641024

 2017-02-05 00:29:12.275081+01 | 1486250952.27508 | pgbench_branches_pkey |            16384
 2017-02-05 00:29:12.275081+01 | 1486250952.27508 | pgbench_tellers_pkey  |            40960
 2017-02-05 00:29:12.275081+01 | 1486250952.27508 | pgbench_accounts_pkey |        224641024

 2017-02-05 00:29:13.367073+01 | 1486250953.36707 | pgbench_branches_pkey |            16384
 2017-02-05 00:29:13.367073+01 | 1486250953.36707 | pgbench_tellers_pkey  |            40960
 2017-02-05 00:29:13.367073+01 | 1486250953.36707 | pgbench_accounts_pkey |        224641024

 2017-02-05 00:29:14.463451+01 | 1486250954.46345 | pgbench_branches_pkey |            16384
 2017-02-05 00:29:14.463451+01 | 1486250954.46345 | pgbench_tellers_pkey  |            40960
 2017-02-05 00:29:14.463451+01 | 1486250954.46345 | pgbench_accounts_pkey |        224641024

 2017-02-05 00:29:15.548592+01 | 1486250955.54859 | pgbench_branches_pkey |            16384
 2017-02-05 00:29:15.548592+01 | 1486250955.54859 | pgbench_tellers_pkey  |            40960
 2017-02-05 00:29:15.548592+01 | 1486250955.54859 | pgbench_accounts_pkey |        224641024

 2017-02-05 00:29:16.638065+01 | 1486250956.63807 | pgbench_branches_pkey |            16384
 2017-02-05 00:29:16.638065+01 | 1486250956.63807 | pgbench_tellers_pkey  |            40960
 2017-02-05 00:29:16.638065+01 | 1486250956.63807 | pgbench_accounts_pkey |        224641024

 2017-02-05 00:29:17.727558+01 | 1486250957.72756 | pgbench_branches_pkey |            16384
 2017-02-05 00:29:17.727558+01 | 1486250957.72756 | pgbench_tellers_pkey  |            40960
 2017-02-05 00:29:17.727558+01 | 1486250957.72756 | pgbench_accounts_pkey |        224641024

 2017-02-05 00:29:18.821289+01 | 1486250958.82129 | pgbench_branches_pkey |            16384
 2017-02-05 00:29:18.821289+01 | 1486250958.82129 | pgbench_tellers_pkey  |            40960
 2017-02-05 00:29:18.821289+01 | 1486250958.82129 | pgbench_accounts_pkey |        224641024

 2017-02-05 00:29:19.903138+01 | 1486250959.90314 | pgbench_branches_pkey |            16384
 2017-02-05 00:29:19.903138+01 | 1486250959.90314 | pgbench_tellers_pkey  |            40960
 2017-02-05 00:29:19.903138+01 | 1486250959.90314 | pgbench_accounts_pkey |        224641024

 2017-02-05 00:29:20.981819+01 | 1486250960.98182 | pgbench_branches_pkey |            16384
 2017-02-05 00:29:20.981819+01 | 1486250960.98182 | pgbench_tellers_pkey  |            40960
 2017-02-05 00:29:20.981819+01 | 1486250960.98182 | pgbench_accounts_pkey |        224641024

 2017-02-05 00:29:22.062899+01 | 1486250962.0629 | pgbench_branches_pkey |            16384
 2017-02-05 00:29:22.062899+01 | 1486250962.0629 | pgbench_tellers_pkey  |            40960
 2017-02-05 00:29:22.062899+01 | 1486250962.0629 | pgbench_accounts_pkey |        224641024

 2017-02-05 00:29:23.163487+01 | 1486250963.16349 | pgbench_branches_pkey |            16384
 2017-02-05 00:29:23.163487+01 | 1486250963.16349 | pgbench_tellers_pkey  |            40960
 2017-02-05 00:29:23.163487+01 | 1486250963.16349 | pgbench_accounts_pkey |        224641024

 2017-02-05 00:29:24.254142+01 | 1486250964.25414 | pgbench_branches_pkey |            16384
 2017-02-05 00:29:24.254142+01 | 1486250964.25414 | pgbench_tellers_pkey  |            40960
 2017-02-05 00:29:24.254142+01 | 1486250964.25414 | pgbench_accounts_pkey |        224641024

 2017-02-05 00:29:25.337745+01 | 1486250965.33774 | pgbench_branches_pkey |            16384
 2017-02-05 00:29:25.337745+01 | 1486250965.33774 | pgbench_tellers_pkey  |            40960
 2017-02-05 00:29:25.337745+01 | 1486250965.33774 | pgbench_accounts_pkey |        224641024

 2017-02-05 00:29:26.421662+01 | 1486250966.42166 | pgbench_branches_pkey |            16384
 2017-02-05 00:29:26.421662+01 | 1486250966.42166 | pgbench_tellers_pkey  |            40960
 2017-02-05 00:29:26.421662+01 | 1486250966.42166 | pgbench_accounts_pkey |        224641024

 2017-02-05 00:29:27.510231+01 | 1486250967.51023 | pgbench_branches_pkey |            16384
 2017-02-05 00:29:27.510231+01 | 1486250967.51023 | pgbench_tellers_pkey  |            40960
 2017-02-05 00:29:27.510231+01 | 1486250967.51023 | pgbench_accounts_pkey |        224641024

 2017-02-05 00:29:28.604382+01 | 1486250968.60438 | pgbench_branches_pkey |            16384
 2017-02-05 00:29:28.604382+01 | 1486250968.60438 | pgbench_tellers_pkey  |            40960
 2017-02-05 00:29:28.604382+01 | 1486250968.60438 | pgbench_accounts_pkey |        224641024

 2017-02-05 00:29:29.695514+01 | 1486250969.69551 | pgbench_branches_pkey |            16384
 2017-02-05 00:29:29.695514+01 | 1486250969.69551 | pgbench_tellers_pkey  |            40960
 2017-02-05 00:29:29.695514+01 | 1486250969.69551 | pgbench_accounts_pkey |        224641024

 2017-02-05 00:29:30.781156+01 | 1486250970.78116 | pgbench_branches_pkey |            16384
 2017-02-05 00:29:30.781156+01 | 1486250970.78116 | pgbench_tellers_pkey  |            40960
 2017-02-05 00:29:30.781156+01 | 1486250970.78116 | pgbench_accounts_pkey |        224641024

 2017-02-05 00:29:31.868433+01 | 1486250971.86843 | pgbench_branches_pkey |            16384
 2017-02-05 00:29:31.868433+01 | 1486250971.86843 | pgbench_tellers_pkey  |            40960
 2017-02-05 00:29:31.868433+01 | 1486250971.86843 | pgbench_accounts_pkey |        224641024

 2017-02-05 00:29:32.944654+01 | 1486250972.94465 | pgbench_branches_pkey |            16384
 2017-02-05 00:29:32.944654+01 | 1486250972.94465 | pgbench_tellers_pkey  |            40960
 2017-02-05 00:29:32.944654+01 | 1486250972.94465 | pgbench_accounts_pkey |        224641024

 2017-02-05 00:29:34.028921+01 | 1486250974.02892 | pgbench_branches_pkey |            16384
 2017-02-05 00:29:34.028921+01 | 1486250974.02892 | pgbench_tellers_pkey  |            40960
 2017-02-05 00:29:34.028921+01 | 1486250974.02892 | pgbench_accounts_pkey |        224641024

 2017-02-05 00:29:35.118393+01 | 1486250975.11839 | pgbench_branches_pkey |            16384
 2017-02-05 00:29:35.118393+01 | 1486250975.11839 | pgbench_tellers_pkey  |            40960
 2017-02-05 00:29:35.118393+01 | 1486250975.11839 | pgbench_accounts_pkey |        224641024

 2017-02-05 00:29:36.215016+01 | 1486250976.21502 | pgbench_branches_pkey |            16384
 2017-02-05 00:29:36.215016+01 | 1486250976.21502 | pgbench_tellers_pkey  |            40960
 2017-02-05 00:29:36.215016+01 | 1486250976.21502 | pgbench_accounts_pkey |        224641024

 2017-02-05 00:29:37.304834+01 | 1486250977.30483 | pgbench_branches_pkey |            16384
 2017-02-05 00:29:37.304834+01 | 1486250977.30483 | pgbench_tellers_pkey  |            40960
 2017-02-05 00:29:37.304834+01 | 1486250977.30483 | pgbench_accounts_pkey |        224641024

 2017-02-05 00:29:38.390479+01 | 1486250978.39048 | pgbench_branches_pkey |            16384
 2017-02-05 00:29:38.390479+01 | 1486250978.39048 | pgbench_tellers_pkey  |            40960
 2017-02-05 00:29:38.390479+01 | 1486250978.39048 | pgbench_accounts_pkey |        224641024

 2017-02-05 00:29:39.486972+01 | 1486250979.48697 | pgbench_branches_pkey |            16384
 2017-02-05 00:29:39.486972+01 | 1486250979.48697 | pgbench_tellers_pkey  |            40960
 2017-02-05 00:29:39.486972+01 | 1486250979.48697 | pgbench_accounts_pkey |        224641024

 2017-02-05 00:29:40.569233+01 | 1486250980.56923 | pgbench_branches_pkey |            16384
 2017-02-05 00:29:40.569233+01 | 1486250980.56923 | pgbench_tellers_pkey  |            40960
 2017-02-05 00:29:40.569233+01 | 1486250980.56923 | pgbench_accounts_pkey |        224641024

 2017-02-05 00:29:41.6565+01 | 1486250981.6565 | pgbench_branches_pkey |            16384
 2017-02-05 00:29:41.6565+01 | 1486250981.6565 | pgbench_tellers_pkey  |            40960
 2017-02-05 00:29:41.6565+01 | 1486250981.6565 | pgbench_accounts_pkey |        224641024

 2017-02-05 00:29:42.746275+01 | 1486250982.74627 | pgbench_branches_pkey |            16384
 2017-02-05 00:29:42.746275+01 | 1486250982.74627 | pgbench_tellers_pkey  |            40960
 2017-02-05 00:29:42.746275+01 | 1486250982.74627 | pgbench_accounts_pkey |        224641024

 2017-02-05 00:29:43.837478+01 | 1486250983.83748 | pgbench_branches_pkey |            16384
 2017-02-05 00:29:43.837478+01 | 1486250983.83748 | pgbench_tellers_pkey  |            40960
 2017-02-05 00:29:43.837478+01 | 1486250983.83748 | pgbench_accounts_pkey |        224641024

 2017-02-05 00:29:44.916389+01 | 1486250984.91639 | pgbench_branches_pkey |            16384
 2017-02-05 00:29:44.916389+01 | 1486250984.91639 | pgbench_tellers_pkey  |            40960
 2017-02-05 00:29:44.916389+01 | 1486250984.91639 | pgbench_accounts_pkey |        224641024

 2017-02-05 00:29:45.990384+01 | 1486250985.99038 | pgbench_branches_pkey |            16384
 2017-02-05 00:29:45.990384+01 | 1486250985.99038 | pgbench_tellers_pkey  |            40960
 2017-02-05 00:29:45.990384+01 | 1486250985.99038 | pgbench_accounts_pkey |        224641024

 2017-02-05 00:29:47.075227+01 | 1486250987.07523 | pgbench_branches_pkey |            16384
 2017-02-05 00:29:47.075227+01 | 1486250987.07523 | pgbench_tellers_pkey  |            40960
 2017-02-05 00:29:47.075227+01 | 1486250987.07523 | pgbench_accounts_pkey |        224641024

 2017-02-05 00:29:48.174352+01 | 1486250988.17435 | pgbench_branches_pkey |            16384
 2017-02-05 00:29:48.174352+01 | 1486250988.17435 | pgbench_tellers_pkey  |            40960
 2017-02-05 00:29:48.174352+01 | 1486250988.17435 | pgbench_accounts_pkey |        224641024

 2017-02-05 00:29:49.270241+01 | 1486250989.27024 | pgbench_branches_pkey |            16384
 2017-02-05 00:29:49.270241+01 | 1486250989.27024 | pgbench_tellers_pkey  |            40960
 2017-02-05 00:29:49.270241+01 | 1486250989.27024 | pgbench_accounts_pkey |        224641024

 2017-02-05 00:29:50.36442+01 | 1486250990.36442 | pgbench_branches_pkey |            16384
 2017-02-05 00:29:50.36442+01 | 1486250990.36442 | pgbench_tellers_pkey  |            40960
 2017-02-05 00:29:50.36442+01 | 1486250990.36442 | pgbench_accounts_pkey |        224641024

 2017-02-05 00:29:51.46711+01 | 1486250991.46711 | pgbench_branches_pkey |            16384
 2017-02-05 00:29:51.46711+01 | 1486250991.46711 | pgbench_tellers_pkey  |            40960
 2017-02-05 00:29:51.46711+01 | 1486250991.46711 | pgbench_accounts_pkey |        224641024

 2017-02-05 00:29:52.557548+01 | 1486250992.55755 | pgbench_branches_pkey |            16384
 2017-02-05 00:29:52.557548+01 | 1486250992.55755 | pgbench_tellers_pkey  |            40960
 2017-02-05 00:29:52.557548+01 | 1486250992.55755 | pgbench_accounts_pkey |        224641024

 2017-02-05 00:29:53.640299+01 | 1486250993.6403 | pgbench_branches_pkey |            16384
 2017-02-05 00:29:53.640299+01 | 1486250993.6403 | pgbench_tellers_pkey  |            40960
 2017-02-05 00:29:53.640299+01 | 1486250993.6403 | pgbench_accounts_pkey |        224641024

 2017-02-05 00:29:54.733324+01 | 1486250994.73332 | pgbench_branches_pkey |            16384
 2017-02-05 00:29:54.733324+01 | 1486250994.73332 | pgbench_tellers_pkey  |            40960
 2017-02-05 00:29:54.733324+01 | 1486250994.73332 | pgbench_accounts_pkey |        224641024

 2017-02-05 00:29:55.825297+01 | 1486250995.8253 | pgbench_branches_pkey |            16384
 2017-02-05 00:29:55.825297+01 | 1486250995.8253 | pgbench_tellers_pkey  |            40960
 2017-02-05 00:29:55.825297+01 | 1486250995.8253 | pgbench_accounts_pkey |        224641024

 2017-02-05 00:29:56.91589+01 | 1486250996.91589 | pgbench_branches_pkey |            16384
 2017-02-05 00:29:56.91589+01 | 1486250996.91589 | pgbench_tellers_pkey  |            40960
 2017-02-05 00:29:56.91589+01 | 1486250996.91589 | pgbench_accounts_pkey |        224641024

 2017-02-05 00:29:58.003714+01 | 1486250998.00371 | pgbench_branches_pkey |            16384
 2017-02-05 00:29:58.003714+01 | 1486250998.00371 | pgbench_tellers_pkey  |            40960
 2017-02-05 00:29:58.003714+01 | 1486250998.00371 | pgbench_accounts_pkey |        224641024

 2017-02-05 00:29:59.088026+01 | 1486250999.08803 | pgbench_branches_pkey |            16384
 2017-02-05 00:29:59.088026+01 | 1486250999.08803 | pgbench_tellers_pkey  |            40960
 2017-02-05 00:29:59.088026+01 | 1486250999.08803 | pgbench_accounts_pkey |        224641024

 2017-02-05 00:30:00.177155+01 | 1486251000.17716 | pgbench_branches_pkey |            16384
 2017-02-05 00:30:00.177155+01 | 1486251000.17716 | pgbench_tellers_pkey  |            40960
 2017-02-05 00:30:00.177155+01 | 1486251000.17716 | pgbench_accounts_pkey |        224641024

 2017-02-05 00:30:01.277472+01 | 1486251001.27747 | pgbench_branches_pkey |            16384
 2017-02-05 00:30:01.277472+01 | 1486251001.27747 | pgbench_tellers_pkey  |            40960
 2017-02-05 00:30:01.277472+01 | 1486251001.27747 | pgbench_accounts_pkey |        224641024

 2017-02-05 00:30:02.366837+01 | 1486251002.36684 | pgbench_branches_pkey |            16384
 2017-02-05 00:30:02.366837+01 | 1486251002.36684 | pgbench_tellers_pkey  |            40960
 2017-02-05 00:30:02.366837+01 | 1486251002.36684 | pgbench_accounts_pkey |        224641024

 2017-02-05 00:30:03.455796+01 | 1486251003.4558 | pgbench_branches_pkey |            16384
 2017-02-05 00:30:03.455796+01 | 1486251003.4558 | pgbench_tellers_pkey  |            40960
 2017-02-05 00:30:03.455796+01 | 1486251003.4558 | pgbench_accounts_pkey |        224641024

 2017-02-05 00:30:04.556249+01 | 1486251004.55625 | pgbench_branches_pkey |            16384
 2017-02-05 00:30:04.556249+01 | 1486251004.55625 | pgbench_tellers_pkey  |            40960
 2017-02-05 00:30:04.556249+01 | 1486251004.55625 | pgbench_accounts_pkey |        224641024

 2017-02-05 00:30:05.654505+01 | 1486251005.65451 | pgbench_branches_pkey |            16384
 2017-02-05 00:30:05.654505+01 | 1486251005.65451 | pgbench_tellers_pkey  |            40960
 2017-02-05 00:30:05.654505+01 | 1486251005.65451 | pgbench_accounts_pkey |        224641024

 2017-02-05 00:30:06.743607+01 | 1486251006.74361 | pgbench_branches_pkey |            16384
 2017-02-05 00:30:06.743607+01 | 1486251006.74361 | pgbench_tellers_pkey  |            40960
 2017-02-05 00:30:06.743607+01 | 1486251006.74361 | pgbench_accounts_pkey |        224641024

 2017-02-05 00:30:07.829502+01 | 1486251007.8295 | pgbench_branches_pkey |            16384
 2017-02-05 00:30:07.829502+01 | 1486251007.8295 | pgbench_tellers_pkey  |            40960
 2017-02-05 00:30:07.829502+01 | 1486251007.8295 | pgbench_accounts_pkey |        224641024

 2017-02-05 00:30:08.928609+01 | 1486251008.92861 | pgbench_branches_pkey |            16384
 2017-02-05 00:30:08.928609+01 | 1486251008.92861 | pgbench_tellers_pkey  |            40960
 2017-02-05 00:30:08.928609+01 | 1486251008.92861 | pgbench_accounts_pkey |        224641024

 2017-02-05 00:30:10.017388+01 | 1486251010.01739 | pgbench_branches_pkey |            16384
 2017-02-05 00:30:10.017388+01 | 1486251010.01739 | pgbench_tellers_pkey  |            40960
 2017-02-05 00:30:10.017388+01 | 1486251010.01739 | pgbench_accounts_pkey |        224641024

 2017-02-05 00:30:11.103164+01 | 1486251011.10316 | pgbench_branches_pkey |            16384
 2017-02-05 00:30:11.103164+01 | 1486251011.10316 | pgbench_tellers_pkey  |            40960
 2017-02-05 00:30:11.103164+01 | 1486251011.10316 | pgbench_accounts_pkey |        224641024

 2017-02-05 00:30:12.189477+01 | 1486251012.18948 | pgbench_branches_pkey |            16384
 2017-02-05 00:30:12.189477+01 | 1486251012.18948 | pgbench_tellers_pkey  |            40960
 2017-02-05 00:30:12.189477+01 | 1486251012.18948 | pgbench_accounts_pkey |        224641024

 2017-02-05 00:30:13.276219+01 | 1486251013.27622 | pgbench_branches_pkey |            16384
 2017-02-05 00:30:13.276219+01 | 1486251013.27622 | pgbench_tellers_pkey  |            40960
 2017-02-05 00:30:13.276219+01 | 1486251013.27622 | pgbench_accounts_pkey |        224641024

 2017-02-05 00:30:14.364914+01 | 1486251014.36491 | pgbench_branches_pkey |            16384
 2017-02-05 00:30:14.364914+01 | 1486251014.36491 | pgbench_tellers_pkey  |            40960
 2017-02-05 00:30:14.364914+01 | 1486251014.36491 | pgbench_accounts_pkey |        224641024

 2017-02-05 00:30:15.452879+01 | 1486251015.45288 | pgbench_branches_pkey |            16384
 2017-02-05 00:30:15.452879+01 | 1486251015.45288 | pgbench_tellers_pkey  |            40960
 2017-02-05 00:30:15.452879+01 | 1486251015.45288 | pgbench_accounts_pkey |        224641024

 2017-02-05 00:30:16.546229+01 | 1486251016.54623 | pgbench_branches_pkey |            16384
 2017-02-05 00:30:16.546229+01 | 1486251016.54623 | pgbench_tellers_pkey  |            40960
 2017-02-05 00:30:16.546229+01 | 1486251016.54623 | pgbench_accounts_pkey |        224641024

 2017-02-05 00:30:17.639029+01 | 1486251017.63903 | pgbench_branches_pkey |            16384
 2017-02-05 00:30:17.639029+01 | 1486251017.63903 | pgbench_tellers_pkey  |            40960
 2017-02-05 00:30:17.639029+01 | 1486251017.63903 | pgbench_accounts_pkey |        224641024

 2017-02-05 00:30:18.736773+01 | 1486251018.73677 | pgbench_branches_pkey |            16384
 2017-02-05 00:30:18.736773+01 | 1486251018.73677 | pgbench_tellers_pkey  |            40960
 2017-02-05 00:30:18.736773+01 | 1486251018.73677 | pgbench_accounts_pkey |        224641024

 2017-02-05 00:30:19.83421+01 | 1486251019.83421 | pgbench_branches_pkey |            16384
 2017-02-05 00:30:19.83421+01 | 1486251019.83421 | pgbench_tellers_pkey  |            40960
 2017-02-05 00:30:19.83421+01 | 1486251019.83421 | pgbench_accounts_pkey |        224641024

 2017-02-05 00:30:20.922076+01 | 1486251020.92208 | pgbench_branches_pkey |            16384
 2017-02-05 00:30:20.922076+01 | 1486251020.92208 | pgbench_tellers_pkey  |            40960
 2017-02-05 00:30:20.922076+01 | 1486251020.92208 | pgbench_accounts_pkey |        224641024

 2017-02-05 00:30:22.002263+01 | 1486251022.00226 | pgbench_branches_pkey |            16384
 2017-02-05 00:30:22.002263+01 | 1486251022.00226 | pgbench_tellers_pkey  |            40960
 2017-02-05 00:30:22.002263+01 | 1486251022.00226 | pgbench_accounts_pkey |        224641024

 2017-02-05 00:30:23.080625+01 | 1486251023.08063 | pgbench_branches_pkey |            16384
 2017-02-05 00:30:23.080625+01 | 1486251023.08063 | pgbench_tellers_pkey  |            40960
 2017-02-05 00:30:23.080625+01 | 1486251023.08063 | pgbench_accounts_pkey |        224641024

 2017-02-05 00:30:24.184698+01 | 1486251024.1847 | pgbench_branches_pkey |            16384
 2017-02-05 00:30:24.184698+01 | 1486251024.1847 | pgbench_tellers_pkey  |            40960
 2017-02-05 00:30:24.184698+01 | 1486251024.1847 | pgbench_accounts_pkey |        224641024

 2017-02-05 00:30:25.279828+01 | 1486251025.27983 | pgbench_branches_pkey |            16384
 2017-02-05 00:30:25.279828+01 | 1486251025.27983 | pgbench_tellers_pkey  |            40960
 2017-02-05 00:30:25.279828+01 | 1486251025.27983 | pgbench_accounts_pkey |        224641024

 2017-02-05 00:30:26.363607+01 | 1486251026.36361 | pgbench_branches_pkey |            16384
 2017-02-05 00:30:26.363607+01 | 1486251026.36361 | pgbench_tellers_pkey  |            40960
 2017-02-05 00:30:26.363607+01 | 1486251026.36361 | pgbench_accounts_pkey |        224641024

 2017-02-05 00:30:27.454832+01 | 1486251027.45483 | pgbench_branches_pkey |            16384
 2017-02-05 00:30:27.454832+01 | 1486251027.45483 | pgbench_tellers_pkey  |            40960
 2017-02-05 00:30:27.454832+01 | 1486251027.45483 | pgbench_accounts_pkey |        224641024

 2017-02-05 00:30:28.546411+01 | 1486251028.54641 | pgbench_branches_pkey |            16384
 2017-02-05 00:30:28.546411+01 | 1486251028.54641 | pgbench_tellers_pkey  |            40960
 2017-02-05 00:30:28.546411+01 | 1486251028.54641 | pgbench_accounts_pkey |        224641024

 2017-02-05 00:30:29.633076+01 | 1486251029.63308 | pgbench_branches_pkey |            16384
 2017-02-05 00:30:29.633076+01 | 1486251029.63308 | pgbench_tellers_pkey  |            40960
 2017-02-05 00:30:29.633076+01 | 1486251029.63308 | pgbench_accounts_pkey |        224641024

 2017-02-05 00:30:30.725465+01 | 1486251030.72547 | pgbench_branches_pkey |            16384
 2017-02-05 00:30:30.725465+01 | 1486251030.72547 | pgbench_tellers_pkey  |            40960
 2017-02-05 00:30:30.725465+01 | 1486251030.72547 | pgbench_accounts_pkey |        224641024

 2017-02-05 00:30:31.810787+01 | 1486251031.81079 | pgbench_branches_pkey |            16384
 2017-02-05 00:30:31.810787+01 | 1486251031.81079 | pgbench_tellers_pkey  |            40960
 2017-02-05 00:30:31.810787+01 | 1486251031.81079 | pgbench_accounts_pkey |        224641024

 2017-02-05 00:30:32.900991+01 | 1486251032.90099 | pgbench_branches_pkey |            16384
 2017-02-05 00:30:32.900991+01 | 1486251032.90099 | pgbench_tellers_pkey  |            40960
 2017-02-05 00:30:32.900991+01 | 1486251032.90099 | pgbench_accounts_pkey |        224641024

 2017-02-05 00:30:33.981662+01 | 1486251033.98166 | pgbench_branches_pkey |            16384
 2017-02-05 00:30:33.981662+01 | 1486251033.98166 | pgbench_tellers_pkey  |            40960
 2017-02-05 00:30:33.981662+01 | 1486251033.98166 | pgbench_accounts_pkey |        224641024

 2017-02-05 00:30:35.065856+01 | 1486251035.06586 | pgbench_branches_pkey |            16384
 2017-02-05 00:30:35.065856+01 | 1486251035.06586 | pgbench_tellers_pkey  |            40960
 2017-02-05 00:30:35.065856+01 | 1486251035.06586 | pgbench_accounts_pkey |        224641024

 2017-02-05 00:30:36.150696+01 | 1486251036.1507 | pgbench_branches_pkey |            16384
 2017-02-05 00:30:36.150696+01 | 1486251036.1507 | pgbench_tellers_pkey  |            40960
 2017-02-05 00:30:36.150696+01 | 1486251036.1507 | pgbench_accounts_pkey |        224641024

 2017-02-05 00:30:37.244126+01 | 1486251037.24413 | pgbench_branches_pkey |            16384
 2017-02-05 00:30:37.244126+01 | 1486251037.24413 | pgbench_tellers_pkey  |            40960
 2017-02-05 00:30:37.244126+01 | 1486251037.24413 | pgbench_accounts_pkey |        224641024

 2017-02-05 00:30:38.337745+01 | 1486251038.33774 | pgbench_branches_pkey |            16384
 2017-02-05 00:30:38.337745+01 | 1486251038.33774 | pgbench_tellers_pkey  |            40960
 2017-02-05 00:30:38.337745+01 | 1486251038.33774 | pgbench_accounts_pkey |        224641024

 2017-02-05 00:30:39.419904+01 | 1486251039.4199 | pgbench_branches_pkey |            16384
 2017-02-05 00:30:39.419904+01 | 1486251039.4199 | pgbench_tellers_pkey  |            40960
 2017-02-05 00:30:39.419904+01 | 1486251039.4199 | pgbench_accounts_pkey |        224641024

 2017-02-05 00:30:40.512206+01 | 1486251040.51221 | pgbench_branches_pkey |            16384
 2017-02-05 00:30:40.512206+01 | 1486251040.51221 | pgbench_tellers_pkey  |            40960
 2017-02-05 00:30:40.512206+01 | 1486251040.51221 | pgbench_accounts_pkey |        224641024

 2017-02-05 00:30:41.602561+01 | 1486251041.60256 | pgbench_branches_pkey |            16384
 2017-02-05 00:30:41.602561+01 | 1486251041.60256 | pgbench_tellers_pkey  |            40960
 2017-02-05 00:30:41.602561+01 | 1486251041.60256 | pgbench_accounts_pkey |        224641024

 2017-02-05 00:30:42.686829+01 | 1486251042.68683 | pgbench_branches_pkey |            16384
 2017-02-05 00:30:42.686829+01 | 1486251042.68683 | pgbench_tellers_pkey  |            40960
 2017-02-05 00:30:42.686829+01 | 1486251042.68683 | pgbench_accounts_pkey |        224641024

 2017-02-05 00:30:43.77686+01 | 1486251043.77686 | pgbench_branches_pkey |            16384
 2017-02-05 00:30:43.77686+01 | 1486251043.77686 | pgbench_tellers_pkey  |            40960
 2017-02-05 00:30:43.77686+01 | 1486251043.77686 | pgbench_accounts_pkey |        224641024

 2017-02-05 00:30:44.864345+01 | 1486251044.86435 | pgbench_branches_pkey |            16384
 2017-02-05 00:30:44.864345+01 | 1486251044.86435 | pgbench_tellers_pkey  |            40960
 2017-02-05 00:30:44.864345+01 | 1486251044.86435 | pgbench_accounts_pkey |        224641024

 2017-02-05 00:30:45.949564+01 | 1486251045.94956 | pgbench_branches_pkey |            16384
 2017-02-05 00:30:45.949564+01 | 1486251045.94956 | pgbench_tellers_pkey  |            40960
 2017-02-05 00:30:45.949564+01 | 1486251045.94956 | pgbench_accounts_pkey |        224641024

 2017-02-05 00:30:47.036737+01 | 1486251047.03674 | pgbench_branches_pkey |            16384
 2017-02-05 00:30:47.036737+01 | 1486251047.03674 | pgbench_tellers_pkey  |            40960
 2017-02-05 00:30:47.036737+01 | 1486251047.03674 | pgbench_accounts_pkey |        224641024

 2017-02-05 00:30:48.119945+01 | 1486251048.11995 | pgbench_branches_pkey |            16384
 2017-02-05 00:30:48.119945+01 | 1486251048.11995 | pgbench_tellers_pkey  |            40960
 2017-02-05 00:30:48.119945+01 | 1486251048.11995 | pgbench_accounts_pkey |        224641024

 2017-02-05 00:30:49.204581+01 | 1486251049.20458 | pgbench_branches_pkey |            16384
 2017-02-05 00:30:49.204581+01 | 1486251049.20458 | pgbench_tellers_pkey  |            40960
 2017-02-05 00:30:49.204581+01 | 1486251049.20458 | pgbench_accounts_pkey |        224641024

 2017-02-05 00:30:50.29426+01 | 1486251050.29426 | pgbench_branches_pkey |            16384
 2017-02-05 00:30:50.29426+01 | 1486251050.29426 | pgbench_tellers_pkey  |            40960
 2017-02-05 00:30:50.29426+01 | 1486251050.29426 | pgbench_accounts_pkey |        224641024

 2017-02-05 00:30:51.377538+01 | 1486251051.37754 | pgbench_branches_pkey |            16384
 2017-02-05 00:30:51.377538+01 | 1486251051.37754 | pgbench_tellers_pkey  |            40960
 2017-02-05 00:30:51.377538+01 | 1486251051.37754 | pgbench_accounts_pkey |        224641024

 2017-02-05 00:30:52.457433+01 | 1486251052.45743 | pgbench_branches_pkey |            16384
 2017-02-05 00:30:52.457433+01 | 1486251052.45743 | pgbench_tellers_pkey  |            40960
 2017-02-05 00:30:52.457433+01 | 1486251052.45743 | pgbench_accounts_pkey |        224641024

 2017-02-05 00:30:53.558558+01 | 1486251053.55856 | pgbench_branches_pkey |            16384
 2017-02-05 00:30:53.558558+01 | 1486251053.55856 | pgbench_tellers_pkey  |            40960
 2017-02-05 00:30:53.558558+01 | 1486251053.55856 | pgbench_accounts_pkey |        224641024

 2017-02-05 00:30:54.649894+01 | 1486251054.64989 | pgbench_branches_pkey |            16384
 2017-02-05 00:30:54.649894+01 | 1486251054.64989 | pgbench_tellers_pkey  |            40960
 2017-02-05 00:30:54.649894+01 | 1486251054.64989 | pgbench_accounts_pkey |        224641024

 2017-02-05 00:30:55.748716+01 | 1486251055.74872 | pgbench_branches_pkey |            16384
 2017-02-05 00:30:55.748716+01 | 1486251055.74872 | pgbench_tellers_pkey  |            40960
 2017-02-05 00:30:55.748716+01 | 1486251055.74872 | pgbench_accounts_pkey |        224641024

 2017-02-05 00:30:56.84603+01 | 1486251056.84603 | pgbench_branches_pkey |            16384
 2017-02-05 00:30:56.84603+01 | 1486251056.84603 | pgbench_tellers_pkey  |            40960
 2017-02-05 00:30:56.84603+01 | 1486251056.84603 | pgbench_accounts_pkey |        224641024

 2017-02-05 00:30:57.94001+01 | 1486251057.94001 | pgbench_branches_pkey |            16384
 2017-02-05 00:30:57.94001+01 | 1486251057.94001 | pgbench_tellers_pkey  |            40960
 2017-02-05 00:30:57.94001+01 | 1486251057.94001 | pgbench_accounts_pkey |        224641024

 2017-02-05 00:30:59.02287+01 | 1486251059.02287 | pgbench_branches_pkey |            16384
 2017-02-05 00:30:59.02287+01 | 1486251059.02287 | pgbench_tellers_pkey  |            40960
 2017-02-05 00:30:59.02287+01 | 1486251059.02287 | pgbench_accounts_pkey |        224641024

 2017-02-05 00:31:00.106589+01 | 1486251060.10659 | pgbench_branches_pkey |            16384
 2017-02-05 00:31:00.106589+01 | 1486251060.10659 | pgbench_tellers_pkey  |            40960
 2017-02-05 00:31:00.106589+01 | 1486251060.10659 | pgbench_accounts_pkey |        224641024

 2017-02-05 00:31:01.194469+01 | 1486251061.19447 | pgbench_branches_pkey |            16384
 2017-02-05 00:31:01.194469+01 | 1486251061.19447 | pgbench_tellers_pkey  |            40960
 2017-02-05 00:31:01.194469+01 | 1486251061.19447 | pgbench_accounts_pkey |        224641024

 2017-02-05 00:31:02.284102+01 | 1486251062.2841 | pgbench_branches_pkey |            16384
 2017-02-05 00:31:02.284102+01 | 1486251062.2841 | pgbench_tellers_pkey  |            40960
 2017-02-05 00:31:02.284102+01 | 1486251062.2841 | pgbench_accounts_pkey |        224641024

 2017-02-05 00:31:03.379759+01 | 1486251063.37976 | pgbench_branches_pkey |            16384
 2017-02-05 00:31:03.379759+01 | 1486251063.37976 | pgbench_tellers_pkey  |            40960
 2017-02-05 00:31:03.379759+01 | 1486251063.37976 | pgbench_accounts_pkey |        224641024

 2017-02-05 00:31:04.477529+01 | 1486251064.47753 | pgbench_branches_pkey |            16384
 2017-02-05 00:31:04.477529+01 | 1486251064.47753 | pgbench_tellers_pkey  |            40960
 2017-02-05 00:31:04.477529+01 | 1486251064.47753 | pgbench_accounts_pkey |        224641024

 2017-02-05 00:31:05.578137+01 | 1486251065.57814 | pgbench_branches_pkey |            16384
 2017-02-05 00:31:05.578137+01 | 1486251065.57814 | pgbench_tellers_pkey  |            40960
 2017-02-05 00:31:05.578137+01 | 1486251065.57814 | pgbench_accounts_pkey |        224641024

 2017-02-05 00:31:06.66857+01 | 1486251066.66857 | pgbench_branches_pkey |            16384
 2017-02-05 00:31:06.66857+01 | 1486251066.66857 | pgbench_tellers_pkey  |            40960
 2017-02-05 00:31:06.66857+01 | 1486251066.66857 | pgbench_accounts_pkey |        224641024

 2017-02-05 00:31:07.75728+01 | 1486251067.75728 | pgbench_branches_pkey |            16384
 2017-02-05 00:31:07.75728+01 | 1486251067.75728 | pgbench_tellers_pkey  |            40960
 2017-02-05 00:31:07.75728+01 | 1486251067.75728 | pgbench_accounts_pkey |        224641024

 2017-02-05 00:31:08.840615+01 | 1486251068.84062 | pgbench_branches_pkey |            16384
 2017-02-05 00:31:08.840615+01 | 1486251068.84062 | pgbench_tellers_pkey  |            40960
 2017-02-05 00:31:08.840615+01 | 1486251068.84062 | pgbench_accounts_pkey |        224641024

 2017-02-05 00:31:09.925619+01 | 1486251069.92562 | pgbench_branches_pkey |            16384
 2017-02-05 00:31:09.925619+01 | 1486251069.92562 | pgbench_tellers_pkey  |            40960
 2017-02-05 00:31:09.925619+01 | 1486251069.92562 | pgbench_accounts_pkey |        224641024

 2017-02-05 00:31:11.010816+01 | 1486251071.01082 | pgbench_branches_pkey |            16384
 2017-02-05 00:31:11.010816+01 | 1486251071.01082 | pgbench_tellers_pkey  |            40960
 2017-02-05 00:31:11.010816+01 | 1486251071.01082 | pgbench_accounts_pkey |        224641024

 2017-02-05 00:31:12.08866+01 | 1486251072.08866 | pgbench_branches_pkey |            16384
 2017-02-05 00:31:12.08866+01 | 1486251072.08866 | pgbench_tellers_pkey  |            40960
 2017-02-05 00:31:12.08866+01 | 1486251072.08866 | pgbench_accounts_pkey |        224641024

 2017-02-05 00:31:13.170183+01 | 1486251073.17018 | pgbench_branches_pkey |            16384
 2017-02-05 00:31:13.170183+01 | 1486251073.17018 | pgbench_tellers_pkey  |            40960
 2017-02-05 00:31:13.170183+01 | 1486251073.17018 | pgbench_accounts_pkey |        224641024

 2017-02-05 00:31:14.261621+01 | 1486251074.26162 | pgbench_branches_pkey |            16384
 2017-02-05 00:31:14.261621+01 | 1486251074.26162 | pgbench_tellers_pkey  |            40960
 2017-02-05 00:31:14.261621+01 | 1486251074.26162 | pgbench_accounts_pkey |        224641024

 2017-02-05 00:31:15.34207+01 | 1486251075.34207 | pgbench_branches_pkey |            16384
 2017-02-05 00:31:15.34207+01 | 1486251075.34207 | pgbench_tellers_pkey  |            40960
 2017-02-05 00:31:15.34207+01 | 1486251075.34207 | pgbench_accounts_pkey |        224641024

 2017-02-05 00:31:16.42854+01 | 1486251076.42854 | pgbench_branches_pkey |            16384
 2017-02-05 00:31:16.42854+01 | 1486251076.42854 | pgbench_tellers_pkey  |            40960
 2017-02-05 00:31:16.42854+01 | 1486251076.42854 | pgbench_accounts_pkey |        224641024

