 2017-02-05 06:26:21.531422+01 | 1486272381.53142 | pgbench_branches_pkey |            16384
 2017-02-05 06:26:21.531422+01 | 1486272381.53142 | pgbench_tellers_pkey  |            40960
 2017-02-05 06:26:21.531422+01 | 1486272381.53142 | pgbench_accounts_pkey |        224641024

 2017-02-05 06:26:22.63436+01 | 1486272382.63436 | pgbench_branches_pkey |            16384
 2017-02-05 06:26:22.63436+01 | 1486272382.63436 | pgbench_tellers_pkey  |            40960
 2017-02-05 06:26:22.63436+01 | 1486272382.63436 | pgbench_accounts_pkey |        224641024

 2017-02-05 06:26:23.731787+01 | 1486272383.73179 | pgbench_branches_pkey |            16384
 2017-02-05 06:26:23.731787+01 | 1486272383.73179 | pgbench_tellers_pkey  |            40960
 2017-02-05 06:26:23.731787+01 | 1486272383.73179 | pgbench_accounts_pkey |        224641024

 2017-02-05 06:26:24.828979+01 | 1486272384.82898 | pgbench_branches_pkey |            16384
 2017-02-05 06:26:24.828979+01 | 1486272384.82898 | pgbench_tellers_pkey  |            40960
 2017-02-05 06:26:24.828979+01 | 1486272384.82898 | pgbench_accounts_pkey |        224641024

 2017-02-05 06:26:25.919929+01 | 1486272385.91993 | pgbench_branches_pkey |            16384
 2017-02-05 06:26:25.919929+01 | 1486272385.91993 | pgbench_tellers_pkey  |            40960
 2017-02-05 06:26:25.919929+01 | 1486272385.91993 | pgbench_accounts_pkey |        224641024

 2017-02-05 06:26:27.00929+01 | 1486272387.00929 | pgbench_branches_pkey |            16384
 2017-02-05 06:26:27.00929+01 | 1486272387.00929 | pgbench_tellers_pkey  |            40960
 2017-02-05 06:26:27.00929+01 | 1486272387.00929 | pgbench_accounts_pkey |        224641024

 2017-02-05 06:26:28.109039+01 | 1486272388.10904 | pgbench_branches_pkey |            16384
 2017-02-05 06:26:28.109039+01 | 1486272388.10904 | pgbench_tellers_pkey  |            40960
 2017-02-05 06:26:28.109039+01 | 1486272388.10904 | pgbench_accounts_pkey |        224641024

 2017-02-05 06:26:29.210555+01 | 1486272389.21056 | pgbench_branches_pkey |            16384
 2017-02-05 06:26:29.210555+01 | 1486272389.21056 | pgbench_tellers_pkey  |            40960
 2017-02-05 06:26:29.210555+01 | 1486272389.21056 | pgbench_accounts_pkey |        224641024

 2017-02-05 06:26:30.3065+01 | 1486272390.3065 | pgbench_branches_pkey |            16384
 2017-02-05 06:26:30.3065+01 | 1486272390.3065 | pgbench_tellers_pkey  |            40960
 2017-02-05 06:26:30.3065+01 | 1486272390.3065 | pgbench_accounts_pkey |        224641024

 2017-02-05 06:26:31.390136+01 | 1486272391.39014 | pgbench_branches_pkey |            16384
 2017-02-05 06:26:31.390136+01 | 1486272391.39014 | pgbench_tellers_pkey  |            40960
 2017-02-05 06:26:31.390136+01 | 1486272391.39014 | pgbench_accounts_pkey |        224641024

 2017-02-05 06:26:32.485185+01 | 1486272392.48518 | pgbench_branches_pkey |            16384
 2017-02-05 06:26:32.485185+01 | 1486272392.48518 | pgbench_tellers_pkey  |            40960
 2017-02-05 06:26:32.485185+01 | 1486272392.48518 | pgbench_accounts_pkey |        224641024

 2017-02-05 06:26:33.584194+01 | 1486272393.58419 | pgbench_branches_pkey |            16384
 2017-02-05 06:26:33.584194+01 | 1486272393.58419 | pgbench_tellers_pkey  |            40960
 2017-02-05 06:26:33.584194+01 | 1486272393.58419 | pgbench_accounts_pkey |        224641024

 2017-02-05 06:26:34.672593+01 | 1486272394.67259 | pgbench_branches_pkey |            16384
 2017-02-05 06:26:34.672593+01 | 1486272394.67259 | pgbench_tellers_pkey  |            40960
 2017-02-05 06:26:34.672593+01 | 1486272394.67259 | pgbench_accounts_pkey |        224641024

 2017-02-05 06:26:35.766501+01 | 1486272395.7665 | pgbench_branches_pkey |            16384
 2017-02-05 06:26:35.766501+01 | 1486272395.7665 | pgbench_tellers_pkey  |            40960
 2017-02-05 06:26:35.766501+01 | 1486272395.7665 | pgbench_accounts_pkey |        224641024

 2017-02-05 06:26:36.859529+01 | 1486272396.85953 | pgbench_branches_pkey |            16384
 2017-02-05 06:26:36.859529+01 | 1486272396.85953 | pgbench_tellers_pkey  |            40960
 2017-02-05 06:26:36.859529+01 | 1486272396.85953 | pgbench_accounts_pkey |        224641024

 2017-02-05 06:26:37.958255+01 | 1486272397.95826 | pgbench_branches_pkey |            16384
 2017-02-05 06:26:37.958255+01 | 1486272397.95826 | pgbench_tellers_pkey  |            40960
 2017-02-05 06:26:37.958255+01 | 1486272397.95826 | pgbench_accounts_pkey |        224641024

 2017-02-05 06:26:39.05404+01 | 1486272399.05404 | pgbench_branches_pkey |            16384
 2017-02-05 06:26:39.05404+01 | 1486272399.05404 | pgbench_tellers_pkey  |            40960
 2017-02-05 06:26:39.05404+01 | 1486272399.05404 | pgbench_accounts_pkey |        224641024

 2017-02-05 06:26:40.138289+01 | 1486272400.13829 | pgbench_branches_pkey |            16384
 2017-02-05 06:26:40.138289+01 | 1486272400.13829 | pgbench_tellers_pkey  |            40960
 2017-02-05 06:26:40.138289+01 | 1486272400.13829 | pgbench_accounts_pkey |        224641024

 2017-02-05 06:26:41.22422+01 | 1486272401.22422 | pgbench_branches_pkey |            16384
 2017-02-05 06:26:41.22422+01 | 1486272401.22422 | pgbench_tellers_pkey  |            40960
 2017-02-05 06:26:41.22422+01 | 1486272401.22422 | pgbench_accounts_pkey |        224641024

 2017-02-05 06:26:42.309953+01 | 1486272402.30995 | pgbench_branches_pkey |            16384
 2017-02-05 06:26:42.309953+01 | 1486272402.30995 | pgbench_tellers_pkey  |            40960
 2017-02-05 06:26:42.309953+01 | 1486272402.30995 | pgbench_accounts_pkey |        224641024

 2017-02-05 06:26:43.402322+01 | 1486272403.40232 | pgbench_branches_pkey |            16384
 2017-02-05 06:26:43.402322+01 | 1486272403.40232 | pgbench_tellers_pkey  |            40960
 2017-02-05 06:26:43.402322+01 | 1486272403.40232 | pgbench_accounts_pkey |        224641024

 2017-02-05 06:26:44.48567+01 | 1486272404.48567 | pgbench_branches_pkey |            16384
 2017-02-05 06:26:44.48567+01 | 1486272404.48567 | pgbench_tellers_pkey  |            40960
 2017-02-05 06:26:44.48567+01 | 1486272404.48567 | pgbench_accounts_pkey |        224641024

 2017-02-05 06:26:45.574595+01 | 1486272405.57459 | pgbench_branches_pkey |            16384
 2017-02-05 06:26:45.574595+01 | 1486272405.57459 | pgbench_tellers_pkey  |            40960
 2017-02-05 06:26:45.574595+01 | 1486272405.57459 | pgbench_accounts_pkey |        224641024

 2017-02-05 06:26:46.663033+01 | 1486272406.66303 | pgbench_branches_pkey |            16384
 2017-02-05 06:26:46.663033+01 | 1486272406.66303 | pgbench_tellers_pkey  |            40960
 2017-02-05 06:26:46.663033+01 | 1486272406.66303 | pgbench_accounts_pkey |        224641024

 2017-02-05 06:26:47.760754+01 | 1486272407.76075 | pgbench_branches_pkey |            16384
 2017-02-05 06:26:47.760754+01 | 1486272407.76075 | pgbench_tellers_pkey  |            40960
 2017-02-05 06:26:47.760754+01 | 1486272407.76075 | pgbench_accounts_pkey |        224641024

 2017-02-05 06:26:48.85652+01 | 1486272408.85652 | pgbench_branches_pkey |            16384
 2017-02-05 06:26:48.85652+01 | 1486272408.85652 | pgbench_tellers_pkey  |            40960
 2017-02-05 06:26:48.85652+01 | 1486272408.85652 | pgbench_accounts_pkey |        224641024

 2017-02-05 06:26:49.943349+01 | 1486272409.94335 | pgbench_branches_pkey |            16384
 2017-02-05 06:26:49.943349+01 | 1486272409.94335 | pgbench_tellers_pkey  |            40960
 2017-02-05 06:26:49.943349+01 | 1486272409.94335 | pgbench_accounts_pkey |        224641024

 2017-02-05 06:26:51.030446+01 | 1486272411.03045 | pgbench_branches_pkey |            16384
 2017-02-05 06:26:51.030446+01 | 1486272411.03045 | pgbench_tellers_pkey  |            40960
 2017-02-05 06:26:51.030446+01 | 1486272411.03045 | pgbench_accounts_pkey |        224641024

 2017-02-05 06:26:52.125267+01 | 1486272412.12527 | pgbench_branches_pkey |            16384
 2017-02-05 06:26:52.125267+01 | 1486272412.12527 | pgbench_tellers_pkey  |            40960
 2017-02-05 06:26:52.125267+01 | 1486272412.12527 | pgbench_accounts_pkey |        224641024

 2017-02-05 06:26:53.214202+01 | 1486272413.2142 | pgbench_branches_pkey |            16384
 2017-02-05 06:26:53.214202+01 | 1486272413.2142 | pgbench_tellers_pkey  |            40960
 2017-02-05 06:26:53.214202+01 | 1486272413.2142 | pgbench_accounts_pkey |        224641024

 2017-02-05 06:26:54.312906+01 | 1486272414.31291 | pgbench_branches_pkey |            16384
 2017-02-05 06:26:54.312906+01 | 1486272414.31291 | pgbench_tellers_pkey  |            40960
 2017-02-05 06:26:54.312906+01 | 1486272414.31291 | pgbench_accounts_pkey |        224641024

 2017-02-05 06:26:55.393961+01 | 1486272415.39396 | pgbench_branches_pkey |            16384
 2017-02-05 06:26:55.393961+01 | 1486272415.39396 | pgbench_tellers_pkey  |            40960
 2017-02-05 06:26:55.393961+01 | 1486272415.39396 | pgbench_accounts_pkey |        224641024

 2017-02-05 06:26:56.483211+01 | 1486272416.48321 | pgbench_branches_pkey |            16384
 2017-02-05 06:26:56.483211+01 | 1486272416.48321 | pgbench_tellers_pkey  |            40960
 2017-02-05 06:26:56.483211+01 | 1486272416.48321 | pgbench_accounts_pkey |        224641024

 2017-02-05 06:26:57.583655+01 | 1486272417.58366 | pgbench_branches_pkey |            16384
 2017-02-05 06:26:57.583655+01 | 1486272417.58366 | pgbench_tellers_pkey  |            40960
 2017-02-05 06:26:57.583655+01 | 1486272417.58366 | pgbench_accounts_pkey |        224641024

 2017-02-05 06:26:58.671671+01 | 1486272418.67167 | pgbench_branches_pkey |            16384
 2017-02-05 06:26:58.671671+01 | 1486272418.67167 | pgbench_tellers_pkey  |            40960
 2017-02-05 06:26:58.671671+01 | 1486272418.67167 | pgbench_accounts_pkey |        224641024

 2017-02-05 06:26:59.766612+01 | 1486272419.76661 | pgbench_branches_pkey |            16384
 2017-02-05 06:26:59.766612+01 | 1486272419.76661 | pgbench_tellers_pkey  |            40960
 2017-02-05 06:26:59.766612+01 | 1486272419.76661 | pgbench_accounts_pkey |        224641024

 2017-02-05 06:27:00.855815+01 | 1486272420.85581 | pgbench_branches_pkey |            16384
 2017-02-05 06:27:00.855815+01 | 1486272420.85581 | pgbench_tellers_pkey  |            40960
 2017-02-05 06:27:00.855815+01 | 1486272420.85581 | pgbench_accounts_pkey |        224641024

 2017-02-05 06:27:01.945053+01 | 1486272421.94505 | pgbench_branches_pkey |            16384
 2017-02-05 06:27:01.945053+01 | 1486272421.94505 | pgbench_tellers_pkey  |            40960
 2017-02-05 06:27:01.945053+01 | 1486272421.94505 | pgbench_accounts_pkey |        224641024

 2017-02-05 06:27:03.038292+01 | 1486272423.03829 | pgbench_branches_pkey |            16384
 2017-02-05 06:27:03.038292+01 | 1486272423.03829 | pgbench_tellers_pkey  |            40960
 2017-02-05 06:27:03.038292+01 | 1486272423.03829 | pgbench_accounts_pkey |        224641024

 2017-02-05 06:27:04.14612+01 | 1486272424.14612 | pgbench_branches_pkey |            16384
 2017-02-05 06:27:04.14612+01 | 1486272424.14612 | pgbench_tellers_pkey  |            40960
 2017-02-05 06:27:04.14612+01 | 1486272424.14612 | pgbench_accounts_pkey |        224641024

 2017-02-05 06:27:05.237215+01 | 1486272425.23722 | pgbench_branches_pkey |            16384
 2017-02-05 06:27:05.237215+01 | 1486272425.23722 | pgbench_tellers_pkey  |            40960
 2017-02-05 06:27:05.237215+01 | 1486272425.23722 | pgbench_accounts_pkey |        224641024

 2017-02-05 06:27:06.336083+01 | 1486272426.33608 | pgbench_branches_pkey |            16384
 2017-02-05 06:27:06.336083+01 | 1486272426.33608 | pgbench_tellers_pkey  |            40960
 2017-02-05 06:27:06.336083+01 | 1486272426.33608 | pgbench_accounts_pkey |        224641024

 2017-02-05 06:27:07.421012+01 | 1486272427.42101 | pgbench_branches_pkey |            16384
 2017-02-05 06:27:07.421012+01 | 1486272427.42101 | pgbench_tellers_pkey  |            40960
 2017-02-05 06:27:07.421012+01 | 1486272427.42101 | pgbench_accounts_pkey |        224641024

 2017-02-05 06:27:08.504823+01 | 1486272428.50482 | pgbench_branches_pkey |            16384
 2017-02-05 06:27:08.504823+01 | 1486272428.50482 | pgbench_tellers_pkey  |            40960
 2017-02-05 06:27:08.504823+01 | 1486272428.50482 | pgbench_accounts_pkey |        224641024

 2017-02-05 06:27:09.602522+01 | 1486272429.60252 | pgbench_branches_pkey |            16384
 2017-02-05 06:27:09.602522+01 | 1486272429.60252 | pgbench_tellers_pkey  |            40960
 2017-02-05 06:27:09.602522+01 | 1486272429.60252 | pgbench_accounts_pkey |        224641024

 2017-02-05 06:27:10.688712+01 | 1486272430.68871 | pgbench_branches_pkey |            16384
 2017-02-05 06:27:10.688712+01 | 1486272430.68871 | pgbench_tellers_pkey  |            40960
 2017-02-05 06:27:10.688712+01 | 1486272430.68871 | pgbench_accounts_pkey |        224641024

 2017-02-05 06:27:11.780256+01 | 1486272431.78026 | pgbench_branches_pkey |            16384
 2017-02-05 06:27:11.780256+01 | 1486272431.78026 | pgbench_tellers_pkey  |            40960
 2017-02-05 06:27:11.780256+01 | 1486272431.78026 | pgbench_accounts_pkey |        224641024

 2017-02-05 06:27:12.871309+01 | 1486272432.87131 | pgbench_branches_pkey |            16384
 2017-02-05 06:27:12.871309+01 | 1486272432.87131 | pgbench_tellers_pkey  |            40960
 2017-02-05 06:27:12.871309+01 | 1486272432.87131 | pgbench_accounts_pkey |        224641024

 2017-02-05 06:27:13.969257+01 | 1486272433.96926 | pgbench_branches_pkey |            16384
 2017-02-05 06:27:13.969257+01 | 1486272433.96926 | pgbench_tellers_pkey  |            40960
 2017-02-05 06:27:13.969257+01 | 1486272433.96926 | pgbench_accounts_pkey |        224641024

 2017-02-05 06:27:15.059082+01 | 1486272435.05908 | pgbench_branches_pkey |            16384
 2017-02-05 06:27:15.059082+01 | 1486272435.05908 | pgbench_tellers_pkey  |            40960
 2017-02-05 06:27:15.059082+01 | 1486272435.05908 | pgbench_accounts_pkey |        224641024

 2017-02-05 06:27:16.153967+01 | 1486272436.15397 | pgbench_branches_pkey |            16384
 2017-02-05 06:27:16.153967+01 | 1486272436.15397 | pgbench_tellers_pkey  |            40960
 2017-02-05 06:27:16.153967+01 | 1486272436.15397 | pgbench_accounts_pkey |        224641024

 2017-02-05 06:27:17.246127+01 | 1486272437.24613 | pgbench_branches_pkey |            16384
 2017-02-05 06:27:17.246127+01 | 1486272437.24613 | pgbench_tellers_pkey  |            40960
 2017-02-05 06:27:17.246127+01 | 1486272437.24613 | pgbench_accounts_pkey |        224641024

 2017-02-05 06:27:18.344415+01 | 1486272438.34441 | pgbench_branches_pkey |            16384
 2017-02-05 06:27:18.344415+01 | 1486272438.34441 | pgbench_tellers_pkey  |            40960
 2017-02-05 06:27:18.344415+01 | 1486272438.34441 | pgbench_accounts_pkey |        224641024

 2017-02-05 06:27:19.431677+01 | 1486272439.43168 | pgbench_branches_pkey |            16384
 2017-02-05 06:27:19.431677+01 | 1486272439.43168 | pgbench_tellers_pkey  |            40960
 2017-02-05 06:27:19.431677+01 | 1486272439.43168 | pgbench_accounts_pkey |        224641024

 2017-02-05 06:27:20.515115+01 | 1486272440.51512 | pgbench_branches_pkey |            16384
 2017-02-05 06:27:20.515115+01 | 1486272440.51512 | pgbench_tellers_pkey  |            40960
 2017-02-05 06:27:20.515115+01 | 1486272440.51512 | pgbench_accounts_pkey |        224641024

 2017-02-05 06:27:21.607333+01 | 1486272441.60733 | pgbench_branches_pkey |            16384
 2017-02-05 06:27:21.607333+01 | 1486272441.60733 | pgbench_tellers_pkey  |            40960
 2017-02-05 06:27:21.607333+01 | 1486272441.60733 | pgbench_accounts_pkey |        224641024

 2017-02-05 06:27:22.699407+01 | 1486272442.69941 | pgbench_branches_pkey |            16384
 2017-02-05 06:27:22.699407+01 | 1486272442.69941 | pgbench_tellers_pkey  |            40960
 2017-02-05 06:27:22.699407+01 | 1486272442.69941 | pgbench_accounts_pkey |        224641024

 2017-02-05 06:27:23.790198+01 | 1486272443.7902 | pgbench_branches_pkey |            16384
 2017-02-05 06:27:23.790198+01 | 1486272443.7902 | pgbench_tellers_pkey  |            40960
 2017-02-05 06:27:23.790198+01 | 1486272443.7902 | pgbench_accounts_pkey |        224641024

 2017-02-05 06:27:24.879568+01 | 1486272444.87957 | pgbench_branches_pkey |            16384
 2017-02-05 06:27:24.879568+01 | 1486272444.87957 | pgbench_tellers_pkey  |            40960
 2017-02-05 06:27:24.879568+01 | 1486272444.87957 | pgbench_accounts_pkey |        224641024

 2017-02-05 06:27:25.972998+01 | 1486272445.973 | pgbench_branches_pkey |            16384
 2017-02-05 06:27:25.972998+01 | 1486272445.973 | pgbench_tellers_pkey  |            40960
 2017-02-05 06:27:25.972998+01 | 1486272445.973 | pgbench_accounts_pkey |        224641024

 2017-02-05 06:27:27.064419+01 | 1486272447.06442 | pgbench_branches_pkey |            16384
 2017-02-05 06:27:27.064419+01 | 1486272447.06442 | pgbench_tellers_pkey  |            40960
 2017-02-05 06:27:27.064419+01 | 1486272447.06442 | pgbench_accounts_pkey |        224641024

 2017-02-05 06:27:28.153194+01 | 1486272448.15319 | pgbench_branches_pkey |            16384
 2017-02-05 06:27:28.153194+01 | 1486272448.15319 | pgbench_tellers_pkey  |            40960
 2017-02-05 06:27:28.153194+01 | 1486272448.15319 | pgbench_accounts_pkey |        224641024

 2017-02-05 06:27:29.242564+01 | 1486272449.24256 | pgbench_branches_pkey |            16384
 2017-02-05 06:27:29.242564+01 | 1486272449.24256 | pgbench_tellers_pkey  |            40960
 2017-02-05 06:27:29.242564+01 | 1486272449.24256 | pgbench_accounts_pkey |        224641024

 2017-02-05 06:27:30.336157+01 | 1486272450.33616 | pgbench_branches_pkey |            16384
 2017-02-05 06:27:30.336157+01 | 1486272450.33616 | pgbench_tellers_pkey  |            40960
 2017-02-05 06:27:30.336157+01 | 1486272450.33616 | pgbench_accounts_pkey |        224641024

 2017-02-05 06:27:31.423691+01 | 1486272451.42369 | pgbench_branches_pkey |            16384
 2017-02-05 06:27:31.423691+01 | 1486272451.42369 | pgbench_tellers_pkey  |            40960
 2017-02-05 06:27:31.423691+01 | 1486272451.42369 | pgbench_accounts_pkey |        224641024

 2017-02-05 06:27:32.496059+01 | 1486272452.49606 | pgbench_branches_pkey |            16384
 2017-02-05 06:27:32.496059+01 | 1486272452.49606 | pgbench_tellers_pkey  |            40960
 2017-02-05 06:27:32.496059+01 | 1486272452.49606 | pgbench_accounts_pkey |        224641024

 2017-02-05 06:27:33.582093+01 | 1486272453.58209 | pgbench_branches_pkey |            16384
 2017-02-05 06:27:33.582093+01 | 1486272453.58209 | pgbench_tellers_pkey  |            40960
 2017-02-05 06:27:33.582093+01 | 1486272453.58209 | pgbench_accounts_pkey |        224641024

 2017-02-05 06:27:34.670832+01 | 1486272454.67083 | pgbench_branches_pkey |            16384
 2017-02-05 06:27:34.670832+01 | 1486272454.67083 | pgbench_tellers_pkey  |            40960
 2017-02-05 06:27:34.670832+01 | 1486272454.67083 | pgbench_accounts_pkey |        224641024

 2017-02-05 06:27:35.755718+01 | 1486272455.75572 | pgbench_branches_pkey |            16384
 2017-02-05 06:27:35.755718+01 | 1486272455.75572 | pgbench_tellers_pkey  |            40960
 2017-02-05 06:27:35.755718+01 | 1486272455.75572 | pgbench_accounts_pkey |        224641024

 2017-02-05 06:27:36.844126+01 | 1486272456.84413 | pgbench_branches_pkey |            16384
 2017-02-05 06:27:36.844126+01 | 1486272456.84413 | pgbench_tellers_pkey  |            40960
 2017-02-05 06:27:36.844126+01 | 1486272456.84413 | pgbench_accounts_pkey |        224641024

 2017-02-05 06:27:37.931004+01 | 1486272457.931 | pgbench_branches_pkey |            16384
 2017-02-05 06:27:37.931004+01 | 1486272457.931 | pgbench_tellers_pkey  |            40960
 2017-02-05 06:27:37.931004+01 | 1486272457.931 | pgbench_accounts_pkey |        224641024

 2017-02-05 06:27:39.020323+01 | 1486272459.02032 | pgbench_branches_pkey |            16384
 2017-02-05 06:27:39.020323+01 | 1486272459.02032 | pgbench_tellers_pkey  |            40960
 2017-02-05 06:27:39.020323+01 | 1486272459.02032 | pgbench_accounts_pkey |        224641024

 2017-02-05 06:27:40.115407+01 | 1486272460.11541 | pgbench_branches_pkey |            16384
 2017-02-05 06:27:40.115407+01 | 1486272460.11541 | pgbench_tellers_pkey  |            40960
 2017-02-05 06:27:40.115407+01 | 1486272460.11541 | pgbench_accounts_pkey |        224641024

 2017-02-05 06:27:41.218068+01 | 1486272461.21807 | pgbench_branches_pkey |            16384
 2017-02-05 06:27:41.218068+01 | 1486272461.21807 | pgbench_tellers_pkey  |            40960
 2017-02-05 06:27:41.218068+01 | 1486272461.21807 | pgbench_accounts_pkey |        224641024

 2017-02-05 06:27:42.300636+01 | 1486272462.30064 | pgbench_branches_pkey |            16384
 2017-02-05 06:27:42.300636+01 | 1486272462.30064 | pgbench_tellers_pkey  |            40960
 2017-02-05 06:27:42.300636+01 | 1486272462.30064 | pgbench_accounts_pkey |        224641024

 2017-02-05 06:27:43.401746+01 | 1486272463.40175 | pgbench_branches_pkey |            16384
 2017-02-05 06:27:43.401746+01 | 1486272463.40175 | pgbench_tellers_pkey  |            40960
 2017-02-05 06:27:43.401746+01 | 1486272463.40175 | pgbench_accounts_pkey |        224641024

 2017-02-05 06:27:44.483193+01 | 1486272464.48319 | pgbench_branches_pkey |            16384
 2017-02-05 06:27:44.483193+01 | 1486272464.48319 | pgbench_tellers_pkey  |            40960
 2017-02-05 06:27:44.483193+01 | 1486272464.48319 | pgbench_accounts_pkey |        224641024

 2017-02-05 06:27:45.570457+01 | 1486272465.57046 | pgbench_branches_pkey |            16384
 2017-02-05 06:27:45.570457+01 | 1486272465.57046 | pgbench_tellers_pkey  |            40960
 2017-02-05 06:27:45.570457+01 | 1486272465.57046 | pgbench_accounts_pkey |        224641024

 2017-02-05 06:27:46.663341+01 | 1486272466.66334 | pgbench_branches_pkey |            16384
 2017-02-05 06:27:46.663341+01 | 1486272466.66334 | pgbench_tellers_pkey  |            40960
 2017-02-05 06:27:46.663341+01 | 1486272466.66334 | pgbench_accounts_pkey |        224641024

 2017-02-05 06:27:47.750141+01 | 1486272467.75014 | pgbench_branches_pkey |            16384
 2017-02-05 06:27:47.750141+01 | 1486272467.75014 | pgbench_tellers_pkey  |            40960
 2017-02-05 06:27:47.750141+01 | 1486272467.75014 | pgbench_accounts_pkey |        224641024

 2017-02-05 06:27:48.845934+01 | 1486272468.84593 | pgbench_branches_pkey |            16384
 2017-02-05 06:27:48.845934+01 | 1486272468.84593 | pgbench_tellers_pkey  |            40960
 2017-02-05 06:27:48.845934+01 | 1486272468.84593 | pgbench_accounts_pkey |        224641024

 2017-02-05 06:27:49.941124+01 | 1486272469.94112 | pgbench_branches_pkey |            16384
 2017-02-05 06:27:49.941124+01 | 1486272469.94112 | pgbench_tellers_pkey  |            40960
 2017-02-05 06:27:49.941124+01 | 1486272469.94112 | pgbench_accounts_pkey |        224641024

 2017-02-05 06:27:51.029218+01 | 1486272471.02922 | pgbench_branches_pkey |            16384
 2017-02-05 06:27:51.029218+01 | 1486272471.02922 | pgbench_tellers_pkey  |            40960
 2017-02-05 06:27:51.029218+01 | 1486272471.02922 | pgbench_accounts_pkey |        224641024

 2017-02-05 06:27:52.127443+01 | 1486272472.12744 | pgbench_branches_pkey |            16384
 2017-02-05 06:27:52.127443+01 | 1486272472.12744 | pgbench_tellers_pkey  |            40960
 2017-02-05 06:27:52.127443+01 | 1486272472.12744 | pgbench_accounts_pkey |        224641024

 2017-02-05 06:27:53.222822+01 | 1486272473.22282 | pgbench_branches_pkey |            16384
 2017-02-05 06:27:53.222822+01 | 1486272473.22282 | pgbench_tellers_pkey  |            40960
 2017-02-05 06:27:53.222822+01 | 1486272473.22282 | pgbench_accounts_pkey |        224641024

 2017-02-05 06:27:54.312133+01 | 1486272474.31213 | pgbench_branches_pkey |            16384
 2017-02-05 06:27:54.312133+01 | 1486272474.31213 | pgbench_tellers_pkey  |            40960
 2017-02-05 06:27:54.312133+01 | 1486272474.31213 | pgbench_accounts_pkey |        224641024

 2017-02-05 06:27:55.399081+01 | 1486272475.39908 | pgbench_branches_pkey |            16384
 2017-02-05 06:27:55.399081+01 | 1486272475.39908 | pgbench_tellers_pkey  |            40960
 2017-02-05 06:27:55.399081+01 | 1486272475.39908 | pgbench_accounts_pkey |        224641024

 2017-02-05 06:27:56.481539+01 | 1486272476.48154 | pgbench_branches_pkey |            16384
 2017-02-05 06:27:56.481539+01 | 1486272476.48154 | pgbench_tellers_pkey  |            40960
 2017-02-05 06:27:56.481539+01 | 1486272476.48154 | pgbench_accounts_pkey |        224641024

 2017-02-05 06:27:57.564113+01 | 1486272477.56411 | pgbench_branches_pkey |            16384
 2017-02-05 06:27:57.564113+01 | 1486272477.56411 | pgbench_tellers_pkey  |            40960
 2017-02-05 06:27:57.564113+01 | 1486272477.56411 | pgbench_accounts_pkey |        224641024

 2017-02-05 06:27:58.648396+01 | 1486272478.6484 | pgbench_branches_pkey |            16384
 2017-02-05 06:27:58.648396+01 | 1486272478.6484 | pgbench_tellers_pkey  |            40960
 2017-02-05 06:27:58.648396+01 | 1486272478.6484 | pgbench_accounts_pkey |        224641024

 2017-02-05 06:27:59.747195+01 | 1486272479.7472 | pgbench_branches_pkey |            16384
 2017-02-05 06:27:59.747195+01 | 1486272479.7472 | pgbench_tellers_pkey  |            40960
 2017-02-05 06:27:59.747195+01 | 1486272479.7472 | pgbench_accounts_pkey |        224641024

 2017-02-05 06:28:00.841401+01 | 1486272480.8414 | pgbench_branches_pkey |            16384
 2017-02-05 06:28:00.841401+01 | 1486272480.8414 | pgbench_tellers_pkey  |            40960
 2017-02-05 06:28:00.841401+01 | 1486272480.8414 | pgbench_accounts_pkey |        224641024

 2017-02-05 06:28:01.928795+01 | 1486272481.9288 | pgbench_branches_pkey |            16384
 2017-02-05 06:28:01.928795+01 | 1486272481.9288 | pgbench_tellers_pkey  |            40960
 2017-02-05 06:28:01.928795+01 | 1486272481.9288 | pgbench_accounts_pkey |        224641024

 2017-02-05 06:28:03.02537+01 | 1486272483.02537 | pgbench_branches_pkey |            16384
 2017-02-05 06:28:03.02537+01 | 1486272483.02537 | pgbench_tellers_pkey  |            40960
 2017-02-05 06:28:03.02537+01 | 1486272483.02537 | pgbench_accounts_pkey |        224641024

 2017-02-05 06:28:04.125803+01 | 1486272484.1258 | pgbench_branches_pkey |            16384
 2017-02-05 06:28:04.125803+01 | 1486272484.1258 | pgbench_tellers_pkey  |            40960
 2017-02-05 06:28:04.125803+01 | 1486272484.1258 | pgbench_accounts_pkey |        224641024

 2017-02-05 06:28:05.216907+01 | 1486272485.21691 | pgbench_branches_pkey |            16384
 2017-02-05 06:28:05.216907+01 | 1486272485.21691 | pgbench_tellers_pkey  |            40960
 2017-02-05 06:28:05.216907+01 | 1486272485.21691 | pgbench_accounts_pkey |        224641024

 2017-02-05 06:28:06.318552+01 | 1486272486.31855 | pgbench_branches_pkey |            16384
 2017-02-05 06:28:06.318552+01 | 1486272486.31855 | pgbench_tellers_pkey  |            40960
 2017-02-05 06:28:06.318552+01 | 1486272486.31855 | pgbench_accounts_pkey |        224641024

 2017-02-05 06:28:07.411909+01 | 1486272487.41191 | pgbench_branches_pkey |            16384
 2017-02-05 06:28:07.411909+01 | 1486272487.41191 | pgbench_tellers_pkey  |            40960
 2017-02-05 06:28:07.411909+01 | 1486272487.41191 | pgbench_accounts_pkey |        224641024

 2017-02-05 06:28:08.491993+01 | 1486272488.49199 | pgbench_branches_pkey |            16384
 2017-02-05 06:28:08.491993+01 | 1486272488.49199 | pgbench_tellers_pkey  |            40960
 2017-02-05 06:28:08.491993+01 | 1486272488.49199 | pgbench_accounts_pkey |        224641024

 2017-02-05 06:28:09.571251+01 | 1486272489.57125 | pgbench_branches_pkey |            16384
 2017-02-05 06:28:09.571251+01 | 1486272489.57125 | pgbench_tellers_pkey  |            40960
 2017-02-05 06:28:09.571251+01 | 1486272489.57125 | pgbench_accounts_pkey |        224641024

 2017-02-05 06:28:10.656662+01 | 1486272490.65666 | pgbench_branches_pkey |            16384
 2017-02-05 06:28:10.656662+01 | 1486272490.65666 | pgbench_tellers_pkey  |            40960
 2017-02-05 06:28:10.656662+01 | 1486272490.65666 | pgbench_accounts_pkey |        224641024

 2017-02-05 06:28:11.740634+01 | 1486272491.74063 | pgbench_branches_pkey |            16384
 2017-02-05 06:28:11.740634+01 | 1486272491.74063 | pgbench_tellers_pkey  |            40960
 2017-02-05 06:28:11.740634+01 | 1486272491.74063 | pgbench_accounts_pkey |        224641024

 2017-02-05 06:28:12.841097+01 | 1486272492.8411 | pgbench_branches_pkey |            16384
 2017-02-05 06:28:12.841097+01 | 1486272492.8411 | pgbench_tellers_pkey  |            40960
 2017-02-05 06:28:12.841097+01 | 1486272492.8411 | pgbench_accounts_pkey |        224641024

 2017-02-05 06:28:13.927125+01 | 1486272493.92712 | pgbench_branches_pkey |            16384
 2017-02-05 06:28:13.927125+01 | 1486272493.92712 | pgbench_tellers_pkey  |            40960
 2017-02-05 06:28:13.927125+01 | 1486272493.92712 | pgbench_accounts_pkey |        224641024

 2017-02-05 06:28:15.022643+01 | 1486272495.02264 | pgbench_branches_pkey |            16384
 2017-02-05 06:28:15.022643+01 | 1486272495.02264 | pgbench_tellers_pkey  |            40960
 2017-02-05 06:28:15.022643+01 | 1486272495.02264 | pgbench_accounts_pkey |        224641024

 2017-02-05 06:28:16.112149+01 | 1486272496.11215 | pgbench_branches_pkey |            16384
 2017-02-05 06:28:16.112149+01 | 1486272496.11215 | pgbench_tellers_pkey  |            40960
 2017-02-05 06:28:16.112149+01 | 1486272496.11215 | pgbench_accounts_pkey |        224641024

 2017-02-05 06:28:17.210177+01 | 1486272497.21018 | pgbench_branches_pkey |            16384
 2017-02-05 06:28:17.210177+01 | 1486272497.21018 | pgbench_tellers_pkey  |            40960
 2017-02-05 06:28:17.210177+01 | 1486272497.21018 | pgbench_accounts_pkey |        224641024

 2017-02-05 06:28:18.304415+01 | 1486272498.30441 | pgbench_branches_pkey |            16384
 2017-02-05 06:28:18.304415+01 | 1486272498.30441 | pgbench_tellers_pkey  |            40960
 2017-02-05 06:28:18.304415+01 | 1486272498.30441 | pgbench_accounts_pkey |        224641024

 2017-02-05 06:28:19.392304+01 | 1486272499.3923 | pgbench_branches_pkey |            16384
 2017-02-05 06:28:19.392304+01 | 1486272499.3923 | pgbench_tellers_pkey  |            40960
 2017-02-05 06:28:19.392304+01 | 1486272499.3923 | pgbench_accounts_pkey |        224641024

 2017-02-05 06:28:20.478171+01 | 1486272500.47817 | pgbench_branches_pkey |            16384
 2017-02-05 06:28:20.478171+01 | 1486272500.47817 | pgbench_tellers_pkey  |            40960
 2017-02-05 06:28:20.478171+01 | 1486272500.47817 | pgbench_accounts_pkey |        224641024

 2017-02-05 06:28:21.5552+01 | 1486272501.5552 | pgbench_branches_pkey |            16384
 2017-02-05 06:28:21.5552+01 | 1486272501.5552 | pgbench_tellers_pkey  |            40960
 2017-02-05 06:28:21.5552+01 | 1486272501.5552 | pgbench_accounts_pkey |        224641024

 2017-02-05 06:28:22.636557+01 | 1486272502.63656 | pgbench_branches_pkey |            16384
 2017-02-05 06:28:22.636557+01 | 1486272502.63656 | pgbench_tellers_pkey  |            40960
 2017-02-05 06:28:22.636557+01 | 1486272502.63656 | pgbench_accounts_pkey |        224641024

 2017-02-05 06:28:23.738465+01 | 1486272503.73847 | pgbench_branches_pkey |            16384
 2017-02-05 06:28:23.738465+01 | 1486272503.73847 | pgbench_tellers_pkey  |            40960
 2017-02-05 06:28:23.738465+01 | 1486272503.73847 | pgbench_accounts_pkey |        224641024

 2017-02-05 06:28:24.831083+01 | 1486272504.83108 | pgbench_branches_pkey |            16384
 2017-02-05 06:28:24.831083+01 | 1486272504.83108 | pgbench_tellers_pkey  |            40960
 2017-02-05 06:28:24.831083+01 | 1486272504.83108 | pgbench_accounts_pkey |        224641024

 2017-02-05 06:28:25.913462+01 | 1486272505.91346 | pgbench_branches_pkey |            16384
 2017-02-05 06:28:25.913462+01 | 1486272505.91346 | pgbench_tellers_pkey  |            40960
 2017-02-05 06:28:25.913462+01 | 1486272505.91346 | pgbench_accounts_pkey |        224641024

 2017-02-05 06:28:27.00204+01 | 1486272507.00204 | pgbench_branches_pkey |            16384
 2017-02-05 06:28:27.00204+01 | 1486272507.00204 | pgbench_tellers_pkey  |            40960
 2017-02-05 06:28:27.00204+01 | 1486272507.00204 | pgbench_accounts_pkey |        224641024

 2017-02-05 06:28:28.094609+01 | 1486272508.09461 | pgbench_branches_pkey |            16384
 2017-02-05 06:28:28.094609+01 | 1486272508.09461 | pgbench_tellers_pkey  |            40960
 2017-02-05 06:28:28.094609+01 | 1486272508.09461 | pgbench_accounts_pkey |        224641024

 2017-02-05 06:28:29.180186+01 | 1486272509.18019 | pgbench_branches_pkey |            16384
 2017-02-05 06:28:29.180186+01 | 1486272509.18019 | pgbench_tellers_pkey  |            40960
 2017-02-05 06:28:29.180186+01 | 1486272509.18019 | pgbench_accounts_pkey |        224641024

 2017-02-05 06:28:30.274468+01 | 1486272510.27447 | pgbench_branches_pkey |            16384
 2017-02-05 06:28:30.274468+01 | 1486272510.27447 | pgbench_tellers_pkey  |            40960
 2017-02-05 06:28:30.274468+01 | 1486272510.27447 | pgbench_accounts_pkey |        224641024

 2017-02-05 06:28:31.368544+01 | 1486272511.36854 | pgbench_branches_pkey |            16384
 2017-02-05 06:28:31.368544+01 | 1486272511.36854 | pgbench_tellers_pkey  |            40960
 2017-02-05 06:28:31.368544+01 | 1486272511.36854 | pgbench_accounts_pkey |        224641024

 2017-02-05 06:28:32.453414+01 | 1486272512.45341 | pgbench_branches_pkey |            16384
 2017-02-05 06:28:32.453414+01 | 1486272512.45341 | pgbench_tellers_pkey  |            40960
 2017-02-05 06:28:32.453414+01 | 1486272512.45341 | pgbench_accounts_pkey |        224641024

 2017-02-05 06:28:33.536737+01 | 1486272513.53674 | pgbench_branches_pkey |            16384
 2017-02-05 06:28:33.536737+01 | 1486272513.53674 | pgbench_tellers_pkey  |            40960
 2017-02-05 06:28:33.536737+01 | 1486272513.53674 | pgbench_accounts_pkey |        224641024

 2017-02-05 06:28:34.616437+01 | 1486272514.61644 | pgbench_branches_pkey |            16384
 2017-02-05 06:28:34.616437+01 | 1486272514.61644 | pgbench_tellers_pkey  |            40960
 2017-02-05 06:28:34.616437+01 | 1486272514.61644 | pgbench_accounts_pkey |        224641024

 2017-02-05 06:28:35.699437+01 | 1486272515.69944 | pgbench_branches_pkey |            16384
 2017-02-05 06:28:35.699437+01 | 1486272515.69944 | pgbench_tellers_pkey  |            40960
 2017-02-05 06:28:35.699437+01 | 1486272515.69944 | pgbench_accounts_pkey |        224641024

 2017-02-05 06:28:36.791193+01 | 1486272516.79119 | pgbench_branches_pkey |            16384
 2017-02-05 06:28:36.791193+01 | 1486272516.79119 | pgbench_tellers_pkey  |            40960
 2017-02-05 06:28:36.791193+01 | 1486272516.79119 | pgbench_accounts_pkey |        224641024

 2017-02-05 06:28:37.88408+01 | 1486272517.88408 | pgbench_branches_pkey |            16384
 2017-02-05 06:28:37.88408+01 | 1486272517.88408 | pgbench_tellers_pkey  |            40960
 2017-02-05 06:28:37.88408+01 | 1486272517.88408 | pgbench_accounts_pkey |        224641024

 2017-02-05 06:28:38.972019+01 | 1486272518.97202 | pgbench_branches_pkey |            16384
 2017-02-05 06:28:38.972019+01 | 1486272518.97202 | pgbench_tellers_pkey  |            40960
 2017-02-05 06:28:38.972019+01 | 1486272518.97202 | pgbench_accounts_pkey |        224641024

 2017-02-05 06:28:40.057096+01 | 1486272520.0571 | pgbench_branches_pkey |            16384
 2017-02-05 06:28:40.057096+01 | 1486272520.0571 | pgbench_tellers_pkey  |            40960
 2017-02-05 06:28:40.057096+01 | 1486272520.0571 | pgbench_accounts_pkey |        224641024

 2017-02-05 06:28:41.149299+01 | 1486272521.1493 | pgbench_branches_pkey |            16384
 2017-02-05 06:28:41.149299+01 | 1486272521.1493 | pgbench_tellers_pkey  |            40960
 2017-02-05 06:28:41.149299+01 | 1486272521.1493 | pgbench_accounts_pkey |        224641024

 2017-02-05 06:28:42.23512+01 | 1486272522.23512 | pgbench_branches_pkey |            16384
 2017-02-05 06:28:42.23512+01 | 1486272522.23512 | pgbench_tellers_pkey  |            40960
 2017-02-05 06:28:42.23512+01 | 1486272522.23512 | pgbench_accounts_pkey |        224641024

 2017-02-05 06:28:43.325556+01 | 1486272523.32556 | pgbench_branches_pkey |            16384
 2017-02-05 06:28:43.325556+01 | 1486272523.32556 | pgbench_tellers_pkey  |            40960
 2017-02-05 06:28:43.325556+01 | 1486272523.32556 | pgbench_accounts_pkey |        224641024

 2017-02-05 06:28:44.413579+01 | 1486272524.41358 | pgbench_branches_pkey |            16384
 2017-02-05 06:28:44.413579+01 | 1486272524.41358 | pgbench_tellers_pkey  |            40960
 2017-02-05 06:28:44.413579+01 | 1486272524.41358 | pgbench_accounts_pkey |        224641024

 2017-02-05 06:28:45.504954+01 | 1486272525.50495 | pgbench_branches_pkey |            16384
 2017-02-05 06:28:45.504954+01 | 1486272525.50495 | pgbench_tellers_pkey  |            40960
 2017-02-05 06:28:45.504954+01 | 1486272525.50495 | pgbench_accounts_pkey |        224641024

 2017-02-05 06:28:46.581456+01 | 1486272526.58146 | pgbench_branches_pkey |            16384
 2017-02-05 06:28:46.581456+01 | 1486272526.58146 | pgbench_tellers_pkey  |            40960
 2017-02-05 06:28:46.581456+01 | 1486272526.58146 | pgbench_accounts_pkey |        224641024

 2017-02-05 06:28:47.668436+01 | 1486272527.66844 | pgbench_branches_pkey |            16384
 2017-02-05 06:28:47.668436+01 | 1486272527.66844 | pgbench_tellers_pkey  |            40960
 2017-02-05 06:28:47.668436+01 | 1486272527.66844 | pgbench_accounts_pkey |        224641024

 2017-02-05 06:28:48.762736+01 | 1486272528.76274 | pgbench_branches_pkey |            16384
 2017-02-05 06:28:48.762736+01 | 1486272528.76274 | pgbench_tellers_pkey  |            40960
 2017-02-05 06:28:48.762736+01 | 1486272528.76274 | pgbench_accounts_pkey |        224641024

 2017-02-05 06:28:49.861757+01 | 1486272529.86176 | pgbench_branches_pkey |            16384
 2017-02-05 06:28:49.861757+01 | 1486272529.86176 | pgbench_tellers_pkey  |            40960
 2017-02-05 06:28:49.861757+01 | 1486272529.86176 | pgbench_accounts_pkey |        224641024

 2017-02-05 06:28:50.95878+01 | 1486272530.95878 | pgbench_branches_pkey |            16384
 2017-02-05 06:28:50.95878+01 | 1486272530.95878 | pgbench_tellers_pkey  |            40960
 2017-02-05 06:28:50.95878+01 | 1486272530.95878 | pgbench_accounts_pkey |        224641024

 2017-02-05 06:28:52.056367+01 | 1486272532.05637 | pgbench_branches_pkey |            16384
 2017-02-05 06:28:52.056367+01 | 1486272532.05637 | pgbench_tellers_pkey  |            40960
 2017-02-05 06:28:52.056367+01 | 1486272532.05637 | pgbench_accounts_pkey |        224641024

 2017-02-05 06:28:53.146381+01 | 1486272533.14638 | pgbench_branches_pkey |            16384
 2017-02-05 06:28:53.146381+01 | 1486272533.14638 | pgbench_tellers_pkey  |            40960
 2017-02-05 06:28:53.146381+01 | 1486272533.14638 | pgbench_accounts_pkey |        224641024

 2017-02-05 06:28:54.241462+01 | 1486272534.24146 | pgbench_branches_pkey |            16384
 2017-02-05 06:28:54.241462+01 | 1486272534.24146 | pgbench_tellers_pkey  |            40960
 2017-02-05 06:28:54.241462+01 | 1486272534.24146 | pgbench_accounts_pkey |        224641024

 2017-02-05 06:28:55.33845+01 | 1486272535.33845 | pgbench_branches_pkey |            16384
 2017-02-05 06:28:55.33845+01 | 1486272535.33845 | pgbench_tellers_pkey  |            40960
 2017-02-05 06:28:55.33845+01 | 1486272535.33845 | pgbench_accounts_pkey |        224641024

 2017-02-05 06:28:56.431486+01 | 1486272536.43149 | pgbench_branches_pkey |            16384
 2017-02-05 06:28:56.431486+01 | 1486272536.43149 | pgbench_tellers_pkey  |            40960
 2017-02-05 06:28:56.431486+01 | 1486272536.43149 | pgbench_accounts_pkey |        224641024

 2017-02-05 06:28:57.524365+01 | 1486272537.52436 | pgbench_branches_pkey |            16384
 2017-02-05 06:28:57.524365+01 | 1486272537.52436 | pgbench_tellers_pkey  |            40960
 2017-02-05 06:28:57.524365+01 | 1486272537.52436 | pgbench_accounts_pkey |        224641024

 2017-02-05 06:28:58.604874+01 | 1486272538.60487 | pgbench_branches_pkey |            16384
 2017-02-05 06:28:58.604874+01 | 1486272538.60487 | pgbench_tellers_pkey  |            40960
 2017-02-05 06:28:58.604874+01 | 1486272538.60487 | pgbench_accounts_pkey |        224641024

 2017-02-05 06:28:59.696953+01 | 1486272539.69695 | pgbench_branches_pkey |            16384
 2017-02-05 06:28:59.696953+01 | 1486272539.69695 | pgbench_tellers_pkey  |            40960
 2017-02-05 06:28:59.696953+01 | 1486272539.69695 | pgbench_accounts_pkey |        224641024

 2017-02-05 06:29:00.77644+01 | 1486272540.77644 | pgbench_branches_pkey |            16384
 2017-02-05 06:29:00.77644+01 | 1486272540.77644 | pgbench_tellers_pkey  |            40960
 2017-02-05 06:29:00.77644+01 | 1486272540.77644 | pgbench_accounts_pkey |        224641024

 2017-02-05 06:29:01.868921+01 | 1486272541.86892 | pgbench_branches_pkey |            16384
 2017-02-05 06:29:01.868921+01 | 1486272541.86892 | pgbench_tellers_pkey  |            40960
 2017-02-05 06:29:01.868921+01 | 1486272541.86892 | pgbench_accounts_pkey |        224641024

 2017-02-05 06:29:02.959352+01 | 1486272542.95935 | pgbench_branches_pkey |            16384
 2017-02-05 06:29:02.959352+01 | 1486272542.95935 | pgbench_tellers_pkey  |            40960
 2017-02-05 06:29:02.959352+01 | 1486272542.95935 | pgbench_accounts_pkey |        224641024

 2017-02-05 06:29:04.04881+01 | 1486272544.04881 | pgbench_branches_pkey |            16384
 2017-02-05 06:29:04.04881+01 | 1486272544.04881 | pgbench_tellers_pkey  |            40960
 2017-02-05 06:29:04.04881+01 | 1486272544.04881 | pgbench_accounts_pkey |        224641024

 2017-02-05 06:29:05.127945+01 | 1486272545.12794 | pgbench_branches_pkey |            16384
 2017-02-05 06:29:05.127945+01 | 1486272545.12794 | pgbench_tellers_pkey  |            40960
 2017-02-05 06:29:05.127945+01 | 1486272545.12794 | pgbench_accounts_pkey |        224641024

 2017-02-05 06:29:06.214549+01 | 1486272546.21455 | pgbench_branches_pkey |            16384
 2017-02-05 06:29:06.214549+01 | 1486272546.21455 | pgbench_tellers_pkey  |            40960
 2017-02-05 06:29:06.214549+01 | 1486272546.21455 | pgbench_accounts_pkey |        224641024

 2017-02-05 06:29:07.326717+01 | 1486272547.32672 | pgbench_branches_pkey |            16384
 2017-02-05 06:29:07.326717+01 | 1486272547.32672 | pgbench_tellers_pkey  |            40960
 2017-02-05 06:29:07.326717+01 | 1486272547.32672 | pgbench_accounts_pkey |        224641024

 2017-02-05 06:29:08.416332+01 | 1486272548.41633 | pgbench_branches_pkey |            16384
 2017-02-05 06:29:08.416332+01 | 1486272548.41633 | pgbench_tellers_pkey  |            40960
 2017-02-05 06:29:08.416332+01 | 1486272548.41633 | pgbench_accounts_pkey |        224641024

 2017-02-05 06:29:09.507965+01 | 1486272549.50797 | pgbench_branches_pkey |            16384
 2017-02-05 06:29:09.507965+01 | 1486272549.50797 | pgbench_tellers_pkey  |            40960
 2017-02-05 06:29:09.507965+01 | 1486272549.50797 | pgbench_accounts_pkey |        224641024

 2017-02-05 06:29:10.589749+01 | 1486272550.58975 | pgbench_branches_pkey |            16384
 2017-02-05 06:29:10.589749+01 | 1486272550.58975 | pgbench_tellers_pkey  |            40960
 2017-02-05 06:29:10.589749+01 | 1486272550.58975 | pgbench_accounts_pkey |        224641024

 2017-02-05 06:29:11.666071+01 | 1486272551.66607 | pgbench_branches_pkey |            16384
 2017-02-05 06:29:11.666071+01 | 1486272551.66607 | pgbench_tellers_pkey  |            40960
 2017-02-05 06:29:11.666071+01 | 1486272551.66607 | pgbench_accounts_pkey |        224641024

 2017-02-05 06:29:12.753027+01 | 1486272552.75303 | pgbench_branches_pkey |            16384
 2017-02-05 06:29:12.753027+01 | 1486272552.75303 | pgbench_tellers_pkey  |            40960
 2017-02-05 06:29:12.753027+01 | 1486272552.75303 | pgbench_accounts_pkey |        224641024

 2017-02-05 06:29:13.845141+01 | 1486272553.84514 | pgbench_branches_pkey |            16384
 2017-02-05 06:29:13.845141+01 | 1486272553.84514 | pgbench_tellers_pkey  |            40960
 2017-02-05 06:29:13.845141+01 | 1486272553.84514 | pgbench_accounts_pkey |        224641024

 2017-02-05 06:29:14.934402+01 | 1486272554.9344 | pgbench_branches_pkey |            16384
 2017-02-05 06:29:14.934402+01 | 1486272554.9344 | pgbench_tellers_pkey  |            40960
 2017-02-05 06:29:14.934402+01 | 1486272554.9344 | pgbench_accounts_pkey |        224641024

 2017-02-05 06:29:16.024074+01 | 1486272556.02407 | pgbench_branches_pkey |            16384
 2017-02-05 06:29:16.024074+01 | 1486272556.02407 | pgbench_tellers_pkey  |            40960
 2017-02-05 06:29:16.024074+01 | 1486272556.02407 | pgbench_accounts_pkey |        224641024

 2017-02-05 06:29:17.119666+01 | 1486272557.11967 | pgbench_branches_pkey |            16384
 2017-02-05 06:29:17.119666+01 | 1486272557.11967 | pgbench_tellers_pkey  |            40960
 2017-02-05 06:29:17.119666+01 | 1486272557.11967 | pgbench_accounts_pkey |        224641024

 2017-02-05 06:29:18.217661+01 | 1486272558.21766 | pgbench_branches_pkey |            16384
 2017-02-05 06:29:18.217661+01 | 1486272558.21766 | pgbench_tellers_pkey  |            40960
 2017-02-05 06:29:18.217661+01 | 1486272558.21766 | pgbench_accounts_pkey |        224641024

 2017-02-05 06:29:19.306914+01 | 1486272559.30691 | pgbench_branches_pkey |            16384
 2017-02-05 06:29:19.306914+01 | 1486272559.30691 | pgbench_tellers_pkey  |            40960
 2017-02-05 06:29:19.306914+01 | 1486272559.30691 | pgbench_accounts_pkey |        224641024

 2017-02-05 06:29:20.390689+01 | 1486272560.39069 | pgbench_branches_pkey |            16384
 2017-02-05 06:29:20.390689+01 | 1486272560.39069 | pgbench_tellers_pkey  |            40960
 2017-02-05 06:29:20.390689+01 | 1486272560.39069 | pgbench_accounts_pkey |        224641024

 2017-02-05 06:29:21.481319+01 | 1486272561.48132 | pgbench_branches_pkey |            16384
 2017-02-05 06:29:21.481319+01 | 1486272561.48132 | pgbench_tellers_pkey  |            40960
 2017-02-05 06:29:21.481319+01 | 1486272561.48132 | pgbench_accounts_pkey |        224641024

 2017-02-05 06:29:22.569353+01 | 1486272562.56935 | pgbench_branches_pkey |            16384
 2017-02-05 06:29:22.569353+01 | 1486272562.56935 | pgbench_tellers_pkey  |            40960
 2017-02-05 06:29:22.569353+01 | 1486272562.56935 | pgbench_accounts_pkey |        224641024

 2017-02-05 06:29:23.6512+01 | 1486272563.6512 | pgbench_branches_pkey |            16384
 2017-02-05 06:29:23.6512+01 | 1486272563.6512 | pgbench_tellers_pkey  |            40960
 2017-02-05 06:29:23.6512+01 | 1486272563.6512 | pgbench_accounts_pkey |        224641024

 2017-02-05 06:29:24.733641+01 | 1486272564.73364 | pgbench_branches_pkey |            16384
 2017-02-05 06:29:24.733641+01 | 1486272564.73364 | pgbench_tellers_pkey  |            40960
 2017-02-05 06:29:24.733641+01 | 1486272564.73364 | pgbench_accounts_pkey |        224641024

 2017-02-05 06:29:25.822737+01 | 1486272565.82274 | pgbench_branches_pkey |            16384
 2017-02-05 06:29:25.822737+01 | 1486272565.82274 | pgbench_tellers_pkey  |            40960
 2017-02-05 06:29:25.822737+01 | 1486272565.82274 | pgbench_accounts_pkey |        224641024

 2017-02-05 06:29:26.90894+01 | 1486272566.90894 | pgbench_branches_pkey |            16384
 2017-02-05 06:29:26.90894+01 | 1486272566.90894 | pgbench_tellers_pkey  |            40960
 2017-02-05 06:29:26.90894+01 | 1486272566.90894 | pgbench_accounts_pkey |        224641024

 2017-02-05 06:29:27.994261+01 | 1486272567.99426 | pgbench_branches_pkey |            16384
 2017-02-05 06:29:27.994261+01 | 1486272567.99426 | pgbench_tellers_pkey  |            40960
 2017-02-05 06:29:27.994261+01 | 1486272567.99426 | pgbench_accounts_pkey |        224641024

 2017-02-05 06:29:29.088532+01 | 1486272569.08853 | pgbench_branches_pkey |            16384
 2017-02-05 06:29:29.088532+01 | 1486272569.08853 | pgbench_tellers_pkey  |            40960
 2017-02-05 06:29:29.088532+01 | 1486272569.08853 | pgbench_accounts_pkey |        224641024

 2017-02-05 06:29:30.177608+01 | 1486272570.17761 | pgbench_branches_pkey |            16384
 2017-02-05 06:29:30.177608+01 | 1486272570.17761 | pgbench_tellers_pkey  |            40960
 2017-02-05 06:29:30.177608+01 | 1486272570.17761 | pgbench_accounts_pkey |        224641024

 2017-02-05 06:29:31.27056+01 | 1486272571.27056 | pgbench_branches_pkey |            16384
 2017-02-05 06:29:31.27056+01 | 1486272571.27056 | pgbench_tellers_pkey  |            40960
 2017-02-05 06:29:31.27056+01 | 1486272571.27056 | pgbench_accounts_pkey |        224641024

 2017-02-05 06:29:32.364324+01 | 1486272572.36432 | pgbench_branches_pkey |            16384
 2017-02-05 06:29:32.364324+01 | 1486272572.36432 | pgbench_tellers_pkey  |            40960
 2017-02-05 06:29:32.364324+01 | 1486272572.36432 | pgbench_accounts_pkey |        224641024

 2017-02-05 06:29:33.459012+01 | 1486272573.45901 | pgbench_branches_pkey |            16384
 2017-02-05 06:29:33.459012+01 | 1486272573.45901 | pgbench_tellers_pkey  |            40960
 2017-02-05 06:29:33.459012+01 | 1486272573.45901 | pgbench_accounts_pkey |        224641024

 2017-02-05 06:29:34.555437+01 | 1486272574.55544 | pgbench_branches_pkey |            16384
 2017-02-05 06:29:34.555437+01 | 1486272574.55544 | pgbench_tellers_pkey  |            40960
 2017-02-05 06:29:34.555437+01 | 1486272574.55544 | pgbench_accounts_pkey |        224641024

 2017-02-05 06:29:35.633137+01 | 1486272575.63314 | pgbench_branches_pkey |            16384
 2017-02-05 06:29:35.633137+01 | 1486272575.63314 | pgbench_tellers_pkey  |            40960
 2017-02-05 06:29:35.633137+01 | 1486272575.63314 | pgbench_accounts_pkey |        224641024

 2017-02-05 06:29:36.712331+01 | 1486272576.71233 | pgbench_branches_pkey |            16384
 2017-02-05 06:29:36.712331+01 | 1486272576.71233 | pgbench_tellers_pkey  |            40960
 2017-02-05 06:29:36.712331+01 | 1486272576.71233 | pgbench_accounts_pkey |        224641024

 2017-02-05 06:29:37.805425+01 | 1486272577.80542 | pgbench_branches_pkey |            16384
 2017-02-05 06:29:37.805425+01 | 1486272577.80542 | pgbench_tellers_pkey  |            40960
 2017-02-05 06:29:37.805425+01 | 1486272577.80542 | pgbench_accounts_pkey |        224641024

 2017-02-05 06:29:38.90321+01 | 1486272578.90321 | pgbench_branches_pkey |            16384
 2017-02-05 06:29:38.90321+01 | 1486272578.90321 | pgbench_tellers_pkey  |            40960
 2017-02-05 06:29:38.90321+01 | 1486272578.90321 | pgbench_accounts_pkey |        224641024

 2017-02-05 06:29:39.990053+01 | 1486272579.99005 | pgbench_branches_pkey |            16384
 2017-02-05 06:29:39.990053+01 | 1486272579.99005 | pgbench_tellers_pkey  |            40960
 2017-02-05 06:29:39.990053+01 | 1486272579.99005 | pgbench_accounts_pkey |        224641024

 2017-02-05 06:29:41.071074+01 | 1486272581.07107 | pgbench_branches_pkey |            16384
 2017-02-05 06:29:41.071074+01 | 1486272581.07107 | pgbench_tellers_pkey  |            40960
 2017-02-05 06:29:41.071074+01 | 1486272581.07107 | pgbench_accounts_pkey |        224641024

 2017-02-05 06:29:42.16599+01 | 1486272582.16599 | pgbench_branches_pkey |            16384
 2017-02-05 06:29:42.16599+01 | 1486272582.16599 | pgbench_tellers_pkey  |            40960
 2017-02-05 06:29:42.16599+01 | 1486272582.16599 | pgbench_accounts_pkey |        224641024

 2017-02-05 06:29:43.260436+01 | 1486272583.26044 | pgbench_branches_pkey |            16384
 2017-02-05 06:29:43.260436+01 | 1486272583.26044 | pgbench_tellers_pkey  |            40960
 2017-02-05 06:29:43.260436+01 | 1486272583.26044 | pgbench_accounts_pkey |        224641024

 2017-02-05 06:29:44.349462+01 | 1486272584.34946 | pgbench_branches_pkey |            16384
 2017-02-05 06:29:44.349462+01 | 1486272584.34946 | pgbench_tellers_pkey  |            40960
 2017-02-05 06:29:44.349462+01 | 1486272584.34946 | pgbench_accounts_pkey |        224641024

 2017-02-05 06:29:45.436965+01 | 1486272585.43696 | pgbench_branches_pkey |            16384
 2017-02-05 06:29:45.436965+01 | 1486272585.43696 | pgbench_tellers_pkey  |            40960
 2017-02-05 06:29:45.436965+01 | 1486272585.43696 | pgbench_accounts_pkey |        224641024

 2017-02-05 06:29:46.528809+01 | 1486272586.52881 | pgbench_branches_pkey |            16384
 2017-02-05 06:29:46.528809+01 | 1486272586.52881 | pgbench_tellers_pkey  |            40960
 2017-02-05 06:29:46.528809+01 | 1486272586.52881 | pgbench_accounts_pkey |        224641024

 2017-02-05 06:29:47.607408+01 | 1486272587.60741 | pgbench_branches_pkey |            16384
 2017-02-05 06:29:47.607408+01 | 1486272587.60741 | pgbench_tellers_pkey  |            40960
 2017-02-05 06:29:47.607408+01 | 1486272587.60741 | pgbench_accounts_pkey |        224641024

 2017-02-05 06:29:48.685938+01 | 1486272588.68594 | pgbench_branches_pkey |            16384
 2017-02-05 06:29:48.685938+01 | 1486272588.68594 | pgbench_tellers_pkey  |            40960
 2017-02-05 06:29:48.685938+01 | 1486272588.68594 | pgbench_accounts_pkey |        224641024

 2017-02-05 06:29:49.774825+01 | 1486272589.77483 | pgbench_branches_pkey |            16384
 2017-02-05 06:29:49.774825+01 | 1486272589.77483 | pgbench_tellers_pkey  |            40960
 2017-02-05 06:29:49.774825+01 | 1486272589.77483 | pgbench_accounts_pkey |        224641024

 2017-02-05 06:29:50.887553+01 | 1486272590.88755 | pgbench_branches_pkey |            16384
 2017-02-05 06:29:50.887553+01 | 1486272590.88755 | pgbench_tellers_pkey  |            40960
 2017-02-05 06:29:50.887553+01 | 1486272590.88755 | pgbench_accounts_pkey |        224641024

 2017-02-05 06:29:51.983112+01 | 1486272591.98311 | pgbench_branches_pkey |            16384
 2017-02-05 06:29:51.983112+01 | 1486272591.98311 | pgbench_tellers_pkey  |            40960
 2017-02-05 06:29:51.983112+01 | 1486272591.98311 | pgbench_accounts_pkey |        224641024

 2017-02-05 06:29:53.076942+01 | 1486272593.07694 | pgbench_branches_pkey |            16384
 2017-02-05 06:29:53.076942+01 | 1486272593.07694 | pgbench_tellers_pkey  |            40960
 2017-02-05 06:29:53.076942+01 | 1486272593.07694 | pgbench_accounts_pkey |        224641024

 2017-02-05 06:29:54.16602+01 | 1486272594.16602 | pgbench_branches_pkey |            16384
 2017-02-05 06:29:54.16602+01 | 1486272594.16602 | pgbench_tellers_pkey  |            40960
 2017-02-05 06:29:54.16602+01 | 1486272594.16602 | pgbench_accounts_pkey |        224641024

 2017-02-05 06:29:55.253304+01 | 1486272595.2533 | pgbench_branches_pkey |            16384
 2017-02-05 06:29:55.253304+01 | 1486272595.2533 | pgbench_tellers_pkey  |            40960
 2017-02-05 06:29:55.253304+01 | 1486272595.2533 | pgbench_accounts_pkey |        224641024

 2017-02-05 06:29:56.344437+01 | 1486272596.34444 | pgbench_branches_pkey |            16384
 2017-02-05 06:29:56.344437+01 | 1486272596.34444 | pgbench_tellers_pkey  |            40960
 2017-02-05 06:29:56.344437+01 | 1486272596.34444 | pgbench_accounts_pkey |        224641024

 2017-02-05 06:29:57.446789+01 | 1486272597.44679 | pgbench_branches_pkey |            16384
 2017-02-05 06:29:57.446789+01 | 1486272597.44679 | pgbench_tellers_pkey  |            40960
 2017-02-05 06:29:57.446789+01 | 1486272597.44679 | pgbench_accounts_pkey |        224641024

 2017-02-05 06:29:58.534585+01 | 1486272598.53458 | pgbench_branches_pkey |            16384
 2017-02-05 06:29:58.534585+01 | 1486272598.53458 | pgbench_tellers_pkey  |            40960
 2017-02-05 06:29:58.534585+01 | 1486272598.53458 | pgbench_accounts_pkey |        224641024

 2017-02-05 06:29:59.618736+01 | 1486272599.61874 | pgbench_branches_pkey |            16384
 2017-02-05 06:29:59.618736+01 | 1486272599.61874 | pgbench_tellers_pkey  |            40960
 2017-02-05 06:29:59.618736+01 | 1486272599.61874 | pgbench_accounts_pkey |        224641024

 2017-02-05 06:30:00.699584+01 | 1486272600.69958 | pgbench_branches_pkey |            16384
 2017-02-05 06:30:00.699584+01 | 1486272600.69958 | pgbench_tellers_pkey  |            40960
 2017-02-05 06:30:00.699584+01 | 1486272600.69958 | pgbench_accounts_pkey |        224641024

 2017-02-05 06:30:01.791392+01 | 1486272601.79139 | pgbench_branches_pkey |            16384
 2017-02-05 06:30:01.791392+01 | 1486272601.79139 | pgbench_tellers_pkey  |            40960
 2017-02-05 06:30:01.791392+01 | 1486272601.79139 | pgbench_accounts_pkey |        224641024

 2017-02-05 06:30:02.891719+01 | 1486272602.89172 | pgbench_branches_pkey |            16384
 2017-02-05 06:30:02.891719+01 | 1486272602.89172 | pgbench_tellers_pkey  |            40960
 2017-02-05 06:30:02.891719+01 | 1486272602.89172 | pgbench_accounts_pkey |        224641024

 2017-02-05 06:30:03.984591+01 | 1486272603.98459 | pgbench_branches_pkey |            16384
 2017-02-05 06:30:03.984591+01 | 1486272603.98459 | pgbench_tellers_pkey  |            40960
 2017-02-05 06:30:03.984591+01 | 1486272603.98459 | pgbench_accounts_pkey |        224641024

 2017-02-05 06:30:05.081222+01 | 1486272605.08122 | pgbench_branches_pkey |            16384
 2017-02-05 06:30:05.081222+01 | 1486272605.08122 | pgbench_tellers_pkey  |            40960
 2017-02-05 06:30:05.081222+01 | 1486272605.08122 | pgbench_accounts_pkey |        224641024

 2017-02-05 06:30:06.169189+01 | 1486272606.16919 | pgbench_branches_pkey |            16384
 2017-02-05 06:30:06.169189+01 | 1486272606.16919 | pgbench_tellers_pkey  |            40960
 2017-02-05 06:30:06.169189+01 | 1486272606.16919 | pgbench_accounts_pkey |        224641024

 2017-02-05 06:30:07.266735+01 | 1486272607.26674 | pgbench_branches_pkey |            16384
 2017-02-05 06:30:07.266735+01 | 1486272607.26674 | pgbench_tellers_pkey  |            40960
 2017-02-05 06:30:07.266735+01 | 1486272607.26674 | pgbench_accounts_pkey |        224641024

 2017-02-05 06:30:08.352358+01 | 1486272608.35236 | pgbench_branches_pkey |            16384
 2017-02-05 06:30:08.352358+01 | 1486272608.35236 | pgbench_tellers_pkey  |            40960
 2017-02-05 06:30:08.352358+01 | 1486272608.35236 | pgbench_accounts_pkey |        224641024

 2017-02-05 06:30:09.443475+01 | 1486272609.44348 | pgbench_branches_pkey |            16384
 2017-02-05 06:30:09.443475+01 | 1486272609.44348 | pgbench_tellers_pkey  |            40960
 2017-02-05 06:30:09.443475+01 | 1486272609.44348 | pgbench_accounts_pkey |        224641024

 2017-02-05 06:30:10.526927+01 | 1486272610.52693 | pgbench_branches_pkey |            16384
 2017-02-05 06:30:10.526927+01 | 1486272610.52693 | pgbench_tellers_pkey  |            40960
 2017-02-05 06:30:10.526927+01 | 1486272610.52693 | pgbench_accounts_pkey |        224641024

 2017-02-05 06:30:11.608584+01 | 1486272611.60858 | pgbench_branches_pkey |            16384
 2017-02-05 06:30:11.608584+01 | 1486272611.60858 | pgbench_tellers_pkey  |            40960
 2017-02-05 06:30:11.608584+01 | 1486272611.60858 | pgbench_accounts_pkey |        224641024

 2017-02-05 06:30:12.683437+01 | 1486272612.68344 | pgbench_branches_pkey |            16384
 2017-02-05 06:30:12.683437+01 | 1486272612.68344 | pgbench_tellers_pkey  |            40960
 2017-02-05 06:30:12.683437+01 | 1486272612.68344 | pgbench_accounts_pkey |        224641024

 2017-02-05 06:30:13.777729+01 | 1486272613.77773 | pgbench_branches_pkey |            16384
 2017-02-05 06:30:13.777729+01 | 1486272613.77773 | pgbench_tellers_pkey  |            40960
 2017-02-05 06:30:13.777729+01 | 1486272613.77773 | pgbench_accounts_pkey |        224641024

 2017-02-05 06:30:14.868872+01 | 1486272614.86887 | pgbench_branches_pkey |            16384
 2017-02-05 06:30:14.868872+01 | 1486272614.86887 | pgbench_tellers_pkey  |            40960
 2017-02-05 06:30:14.868872+01 | 1486272614.86887 | pgbench_accounts_pkey |        224641024

 2017-02-05 06:30:15.95887+01 | 1486272615.95887 | pgbench_branches_pkey |            16384
 2017-02-05 06:30:15.95887+01 | 1486272615.95887 | pgbench_tellers_pkey  |            40960
 2017-02-05 06:30:15.95887+01 | 1486272615.95887 | pgbench_accounts_pkey |        224641024

 2017-02-05 06:30:17.046235+01 | 1486272617.04624 | pgbench_branches_pkey |            16384
 2017-02-05 06:30:17.046235+01 | 1486272617.04624 | pgbench_tellers_pkey  |            40960
 2017-02-05 06:30:17.046235+01 | 1486272617.04624 | pgbench_accounts_pkey |        224641024

 2017-02-05 06:30:18.137714+01 | 1486272618.13771 | pgbench_branches_pkey |            16384
 2017-02-05 06:30:18.137714+01 | 1486272618.13771 | pgbench_tellers_pkey  |            40960
 2017-02-05 06:30:18.137714+01 | 1486272618.13771 | pgbench_accounts_pkey |        224641024

 2017-02-05 06:30:19.231199+01 | 1486272619.2312 | pgbench_branches_pkey |            16384
 2017-02-05 06:30:19.231199+01 | 1486272619.2312 | pgbench_tellers_pkey  |            40960
 2017-02-05 06:30:19.231199+01 | 1486272619.2312 | pgbench_accounts_pkey |        224641024

 2017-02-05 06:30:20.321657+01 | 1486272620.32166 | pgbench_branches_pkey |            16384
 2017-02-05 06:30:20.321657+01 | 1486272620.32166 | pgbench_tellers_pkey  |            40960
 2017-02-05 06:30:20.321657+01 | 1486272620.32166 | pgbench_accounts_pkey |        224641024

 2017-02-05 06:30:21.414794+01 | 1486272621.41479 | pgbench_branches_pkey |            16384
 2017-02-05 06:30:21.414794+01 | 1486272621.41479 | pgbench_tellers_pkey  |            40960
 2017-02-05 06:30:21.414794+01 | 1486272621.41479 | pgbench_accounts_pkey |        224641024

 2017-02-05 06:30:22.496839+01 | 1486272622.49684 | pgbench_branches_pkey |            16384
 2017-02-05 06:30:22.496839+01 | 1486272622.49684 | pgbench_tellers_pkey  |            40960
 2017-02-05 06:30:22.496839+01 | 1486272622.49684 | pgbench_accounts_pkey |        224641024

 2017-02-05 06:30:23.585491+01 | 1486272623.58549 | pgbench_branches_pkey |            16384
 2017-02-05 06:30:23.585491+01 | 1486272623.58549 | pgbench_tellers_pkey  |            40960
 2017-02-05 06:30:23.585491+01 | 1486272623.58549 | pgbench_accounts_pkey |        224641024

 2017-02-05 06:30:24.66555+01 | 1486272624.66555 | pgbench_branches_pkey |            16384
 2017-02-05 06:30:24.66555+01 | 1486272624.66555 | pgbench_tellers_pkey  |            40960
 2017-02-05 06:30:24.66555+01 | 1486272624.66555 | pgbench_accounts_pkey |        224641024

 2017-02-05 06:30:25.740962+01 | 1486272625.74096 | pgbench_branches_pkey |            16384
 2017-02-05 06:30:25.740962+01 | 1486272625.74096 | pgbench_tellers_pkey  |            40960
 2017-02-05 06:30:25.740962+01 | 1486272625.74096 | pgbench_accounts_pkey |        224641024

 2017-02-05 06:30:26.826253+01 | 1486272626.82625 | pgbench_branches_pkey |            16384
 2017-02-05 06:30:26.826253+01 | 1486272626.82625 | pgbench_tellers_pkey  |            40960
 2017-02-05 06:30:26.826253+01 | 1486272626.82625 | pgbench_accounts_pkey |        224641024

 2017-02-05 06:30:27.924865+01 | 1486272627.92487 | pgbench_branches_pkey |            16384
 2017-02-05 06:30:27.924865+01 | 1486272627.92487 | pgbench_tellers_pkey  |            40960
 2017-02-05 06:30:27.924865+01 | 1486272627.92487 | pgbench_accounts_pkey |        224641024

 2017-02-05 06:30:29.025776+01 | 1486272629.02578 | pgbench_branches_pkey |            16384
 2017-02-05 06:30:29.025776+01 | 1486272629.02578 | pgbench_tellers_pkey  |            40960
 2017-02-05 06:30:29.025776+01 | 1486272629.02578 | pgbench_accounts_pkey |        224641024

 2017-02-05 06:30:30.114976+01 | 1486272630.11498 | pgbench_branches_pkey |            16384
 2017-02-05 06:30:30.114976+01 | 1486272630.11498 | pgbench_tellers_pkey  |            40960
 2017-02-05 06:30:30.114976+01 | 1486272630.11498 | pgbench_accounts_pkey |        224641024

 2017-02-05 06:30:31.200337+01 | 1486272631.20034 | pgbench_branches_pkey |            16384
 2017-02-05 06:30:31.200337+01 | 1486272631.20034 | pgbench_tellers_pkey  |            40960
 2017-02-05 06:30:31.200337+01 | 1486272631.20034 | pgbench_accounts_pkey |        224641024

 2017-02-05 06:30:32.288496+01 | 1486272632.2885 | pgbench_branches_pkey |            16384
 2017-02-05 06:30:32.288496+01 | 1486272632.2885 | pgbench_tellers_pkey  |            40960
 2017-02-05 06:30:32.288496+01 | 1486272632.2885 | pgbench_accounts_pkey |        224641024

 2017-02-05 06:30:33.387015+01 | 1486272633.38702 | pgbench_branches_pkey |            16384
 2017-02-05 06:30:33.387015+01 | 1486272633.38702 | pgbench_tellers_pkey  |            40960
 2017-02-05 06:30:33.387015+01 | 1486272633.38702 | pgbench_accounts_pkey |        224641024

 2017-02-05 06:30:34.476018+01 | 1486272634.47602 | pgbench_branches_pkey |            16384
 2017-02-05 06:30:34.476018+01 | 1486272634.47602 | pgbench_tellers_pkey  |            40960
 2017-02-05 06:30:34.476018+01 | 1486272634.47602 | pgbench_accounts_pkey |        224641024

 2017-02-05 06:30:35.571051+01 | 1486272635.57105 | pgbench_branches_pkey |            16384
 2017-02-05 06:30:35.571051+01 | 1486272635.57105 | pgbench_tellers_pkey  |            40960
 2017-02-05 06:30:35.571051+01 | 1486272635.57105 | pgbench_accounts_pkey |        224641024

 2017-02-05 06:30:36.656029+01 | 1486272636.65603 | pgbench_branches_pkey |            16384
 2017-02-05 06:30:36.656029+01 | 1486272636.65603 | pgbench_tellers_pkey  |            40960
 2017-02-05 06:30:36.656029+01 | 1486272636.65603 | pgbench_accounts_pkey |        224641024

 2017-02-05 06:30:37.734476+01 | 1486272637.73448 | pgbench_branches_pkey |            16384
 2017-02-05 06:30:37.734476+01 | 1486272637.73448 | pgbench_tellers_pkey  |            40960
 2017-02-05 06:30:37.734476+01 | 1486272637.73448 | pgbench_accounts_pkey |        224641024

 2017-02-05 06:30:38.818282+01 | 1486272638.81828 | pgbench_branches_pkey |            16384
 2017-02-05 06:30:38.818282+01 | 1486272638.81828 | pgbench_tellers_pkey  |            40960
 2017-02-05 06:30:38.818282+01 | 1486272638.81828 | pgbench_accounts_pkey |        224641024

 2017-02-05 06:30:39.904753+01 | 1486272639.90475 | pgbench_branches_pkey |            16384
 2017-02-05 06:30:39.904753+01 | 1486272639.90475 | pgbench_tellers_pkey  |            40960
 2017-02-05 06:30:39.904753+01 | 1486272639.90475 | pgbench_accounts_pkey |        224641024

 2017-02-05 06:30:40.994383+01 | 1486272640.99438 | pgbench_branches_pkey |            16384
 2017-02-05 06:30:40.994383+01 | 1486272640.99438 | pgbench_tellers_pkey  |            40960
 2017-02-05 06:30:40.994383+01 | 1486272640.99438 | pgbench_accounts_pkey |        224641024

 2017-02-05 06:30:42.084797+01 | 1486272642.0848 | pgbench_branches_pkey |            16384
 2017-02-05 06:30:42.084797+01 | 1486272642.0848 | pgbench_tellers_pkey  |            40960
 2017-02-05 06:30:42.084797+01 | 1486272642.0848 | pgbench_accounts_pkey |        224641024

 2017-02-05 06:30:43.172896+01 | 1486272643.1729 | pgbench_branches_pkey |            16384
 2017-02-05 06:30:43.172896+01 | 1486272643.1729 | pgbench_tellers_pkey  |            40960
 2017-02-05 06:30:43.172896+01 | 1486272643.1729 | pgbench_accounts_pkey |        224641024

 2017-02-05 06:30:44.262626+01 | 1486272644.26263 | pgbench_branches_pkey |            16384
 2017-02-05 06:30:44.262626+01 | 1486272644.26263 | pgbench_tellers_pkey  |            40960
 2017-02-05 06:30:44.262626+01 | 1486272644.26263 | pgbench_accounts_pkey |        224641024

 2017-02-05 06:30:45.355017+01 | 1486272645.35502 | pgbench_branches_pkey |            16384
 2017-02-05 06:30:45.355017+01 | 1486272645.35502 | pgbench_tellers_pkey  |            40960
 2017-02-05 06:30:45.355017+01 | 1486272645.35502 | pgbench_accounts_pkey |        224641024

 2017-02-05 06:30:46.441021+01 | 1486272646.44102 | pgbench_branches_pkey |            16384
 2017-02-05 06:30:46.441021+01 | 1486272646.44102 | pgbench_tellers_pkey  |            40960
 2017-02-05 06:30:46.441021+01 | 1486272646.44102 | pgbench_accounts_pkey |        224641024

 2017-02-05 06:30:47.54198+01 | 1486272647.54198 | pgbench_branches_pkey |            16384
 2017-02-05 06:30:47.54198+01 | 1486272647.54198 | pgbench_tellers_pkey  |            40960
 2017-02-05 06:30:47.54198+01 | 1486272647.54198 | pgbench_accounts_pkey |        224641024

 2017-02-05 06:30:48.631083+01 | 1486272648.63108 | pgbench_branches_pkey |            16384
 2017-02-05 06:30:48.631083+01 | 1486272648.63108 | pgbench_tellers_pkey  |            40960
 2017-02-05 06:30:48.631083+01 | 1486272648.63108 | pgbench_accounts_pkey |        224641024

 2017-02-05 06:30:49.710265+01 | 1486272649.71026 | pgbench_branches_pkey |            16384
 2017-02-05 06:30:49.710265+01 | 1486272649.71026 | pgbench_tellers_pkey  |            40960
 2017-02-05 06:30:49.710265+01 | 1486272649.71026 | pgbench_accounts_pkey |        224641024

 2017-02-05 06:30:50.793759+01 | 1486272650.79376 | pgbench_branches_pkey |            16384
 2017-02-05 06:30:50.793759+01 | 1486272650.79376 | pgbench_tellers_pkey  |            40960
 2017-02-05 06:30:50.793759+01 | 1486272650.79376 | pgbench_accounts_pkey |        224641024

 2017-02-05 06:30:51.879387+01 | 1486272651.87939 | pgbench_branches_pkey |            16384
 2017-02-05 06:30:51.879387+01 | 1486272651.87939 | pgbench_tellers_pkey  |            40960
 2017-02-05 06:30:51.879387+01 | 1486272651.87939 | pgbench_accounts_pkey |        224641024

 2017-02-05 06:30:52.967536+01 | 1486272652.96754 | pgbench_branches_pkey |            16384
 2017-02-05 06:30:52.967536+01 | 1486272652.96754 | pgbench_tellers_pkey  |            40960
 2017-02-05 06:30:52.967536+01 | 1486272652.96754 | pgbench_accounts_pkey |        224641024

 2017-02-05 06:30:54.061345+01 | 1486272654.06135 | pgbench_branches_pkey |            16384
 2017-02-05 06:30:54.061345+01 | 1486272654.06135 | pgbench_tellers_pkey  |            40960
 2017-02-05 06:30:54.061345+01 | 1486272654.06135 | pgbench_accounts_pkey |        224641024

 2017-02-05 06:30:55.158475+01 | 1486272655.15847 | pgbench_branches_pkey |            16384
 2017-02-05 06:30:55.158475+01 | 1486272655.15847 | pgbench_tellers_pkey  |            40960
 2017-02-05 06:30:55.158475+01 | 1486272655.15847 | pgbench_accounts_pkey |        224641024

 2017-02-05 06:30:56.24778+01 | 1486272656.24778 | pgbench_branches_pkey |            16384
 2017-02-05 06:30:56.24778+01 | 1486272656.24778 | pgbench_tellers_pkey  |            40960
 2017-02-05 06:30:56.24778+01 | 1486272656.24778 | pgbench_accounts_pkey |        224641024

 2017-02-05 06:30:57.340849+01 | 1486272657.34085 | pgbench_branches_pkey |            16384
 2017-02-05 06:30:57.340849+01 | 1486272657.34085 | pgbench_tellers_pkey  |            40960
 2017-02-05 06:30:57.340849+01 | 1486272657.34085 | pgbench_accounts_pkey |        224641024

 2017-02-05 06:30:58.434929+01 | 1486272658.43493 | pgbench_branches_pkey |            16384
 2017-02-05 06:30:58.434929+01 | 1486272658.43493 | pgbench_tellers_pkey  |            40960
 2017-02-05 06:30:58.434929+01 | 1486272658.43493 | pgbench_accounts_pkey |        224641024

 2017-02-05 06:30:59.517879+01 | 1486272659.51788 | pgbench_branches_pkey |            16384
 2017-02-05 06:30:59.517879+01 | 1486272659.51788 | pgbench_tellers_pkey  |            40960
 2017-02-05 06:30:59.517879+01 | 1486272659.51788 | pgbench_accounts_pkey |        224641024

 2017-02-05 06:31:00.611591+01 | 1486272660.61159 | pgbench_branches_pkey |            16384
 2017-02-05 06:31:00.611591+01 | 1486272660.61159 | pgbench_tellers_pkey  |            40960
 2017-02-05 06:31:00.611591+01 | 1486272660.61159 | pgbench_accounts_pkey |        224641024

 2017-02-05 06:31:01.695379+01 | 1486272661.69538 | pgbench_branches_pkey |            16384
 2017-02-05 06:31:01.695379+01 | 1486272661.69538 | pgbench_tellers_pkey  |            40960
 2017-02-05 06:31:01.695379+01 | 1486272661.69538 | pgbench_accounts_pkey |        224641024

 2017-02-05 06:31:02.786308+01 | 1486272662.78631 | pgbench_branches_pkey |            16384
 2017-02-05 06:31:02.786308+01 | 1486272662.78631 | pgbench_tellers_pkey  |            40960
 2017-02-05 06:31:02.786308+01 | 1486272662.78631 | pgbench_accounts_pkey |        224641024

 2017-02-05 06:31:03.874547+01 | 1486272663.87455 | pgbench_branches_pkey |            16384
 2017-02-05 06:31:03.874547+01 | 1486272663.87455 | pgbench_tellers_pkey  |            40960
 2017-02-05 06:31:03.874547+01 | 1486272663.87455 | pgbench_accounts_pkey |        224641024

 2017-02-05 06:31:04.964453+01 | 1486272664.96445 | pgbench_branches_pkey |            16384
 2017-02-05 06:31:04.964453+01 | 1486272664.96445 | pgbench_tellers_pkey  |            40960
 2017-02-05 06:31:04.964453+01 | 1486272664.96445 | pgbench_accounts_pkey |        224641024

 2017-02-05 06:31:06.057825+01 | 1486272666.05783 | pgbench_branches_pkey |            16384
 2017-02-05 06:31:06.057825+01 | 1486272666.05783 | pgbench_tellers_pkey  |            40960
 2017-02-05 06:31:06.057825+01 | 1486272666.05783 | pgbench_accounts_pkey |        224641024

 2017-02-05 06:31:07.153358+01 | 1486272667.15336 | pgbench_branches_pkey |            16384
 2017-02-05 06:31:07.153358+01 | 1486272667.15336 | pgbench_tellers_pkey  |            40960
 2017-02-05 06:31:07.153358+01 | 1486272667.15336 | pgbench_accounts_pkey |        224641024

 2017-02-05 06:31:08.241999+01 | 1486272668.242 | pgbench_branches_pkey |            16384
 2017-02-05 06:31:08.241999+01 | 1486272668.242 | pgbench_tellers_pkey  |            40960
 2017-02-05 06:31:08.241999+01 | 1486272668.242 | pgbench_accounts_pkey |        224641024

 2017-02-05 06:31:09.337087+01 | 1486272669.33709 | pgbench_branches_pkey |            16384
 2017-02-05 06:31:09.337087+01 | 1486272669.33709 | pgbench_tellers_pkey  |            40960
 2017-02-05 06:31:09.337087+01 | 1486272669.33709 | pgbench_accounts_pkey |        224641024

 2017-02-05 06:31:10.425879+01 | 1486272670.42588 | pgbench_branches_pkey |            16384
 2017-02-05 06:31:10.425879+01 | 1486272670.42588 | pgbench_tellers_pkey  |            40960
 2017-02-05 06:31:10.425879+01 | 1486272670.42588 | pgbench_accounts_pkey |        224641024

 2017-02-05 06:31:11.512967+01 | 1486272671.51297 | pgbench_branches_pkey |            16384
 2017-02-05 06:31:11.512967+01 | 1486272671.51297 | pgbench_tellers_pkey  |            40960
 2017-02-05 06:31:11.512967+01 | 1486272671.51297 | pgbench_accounts_pkey |        224641024

 2017-02-05 06:31:12.600998+01 | 1486272672.601 | pgbench_branches_pkey |            16384
 2017-02-05 06:31:12.600998+01 | 1486272672.601 | pgbench_tellers_pkey  |            40960
 2017-02-05 06:31:12.600998+01 | 1486272672.601 | pgbench_accounts_pkey |        224641024

 2017-02-05 06:31:13.685622+01 | 1486272673.68562 | pgbench_branches_pkey |            16384
 2017-02-05 06:31:13.685622+01 | 1486272673.68562 | pgbench_tellers_pkey  |            40960
 2017-02-05 06:31:13.685622+01 | 1486272673.68562 | pgbench_accounts_pkey |        224641024

 2017-02-05 06:31:14.760661+01 | 1486272674.76066 | pgbench_branches_pkey |            16384
 2017-02-05 06:31:14.760661+01 | 1486272674.76066 | pgbench_tellers_pkey  |            40960
 2017-02-05 06:31:14.760661+01 | 1486272674.76066 | pgbench_accounts_pkey |        224641024

 2017-02-05 06:31:15.84305+01 | 1486272675.84305 | pgbench_branches_pkey |            16384
 2017-02-05 06:31:15.84305+01 | 1486272675.84305 | pgbench_tellers_pkey  |            40960
 2017-02-05 06:31:15.84305+01 | 1486272675.84305 | pgbench_accounts_pkey |        224641024

 2017-02-05 06:31:16.929635+01 | 1486272676.92964 | pgbench_branches_pkey |            16384
 2017-02-05 06:31:16.929635+01 | 1486272676.92964 | pgbench_tellers_pkey  |            40960
 2017-02-05 06:31:16.929635+01 | 1486272676.92964 | pgbench_accounts_pkey |        224641024

 2017-02-05 06:31:18.033529+01 | 1486272678.03353 | pgbench_branches_pkey |            16384
 2017-02-05 06:31:18.033529+01 | 1486272678.03353 | pgbench_tellers_pkey  |            40960
 2017-02-05 06:31:18.033529+01 | 1486272678.03353 | pgbench_accounts_pkey |        224641024

 2017-02-05 06:31:19.13804+01 | 1486272679.13804 | pgbench_branches_pkey |            16384
 2017-02-05 06:31:19.13804+01 | 1486272679.13804 | pgbench_tellers_pkey  |            40960
 2017-02-05 06:31:19.13804+01 | 1486272679.13804 | pgbench_accounts_pkey |        224641024

 2017-02-05 06:31:20.228438+01 | 1486272680.22844 | pgbench_branches_pkey |            16384
 2017-02-05 06:31:20.228438+01 | 1486272680.22844 | pgbench_tellers_pkey  |            40960
 2017-02-05 06:31:20.228438+01 | 1486272680.22844 | pgbench_accounts_pkey |        224641024

 2017-02-05 06:31:21.321473+01 | 1486272681.32147 | pgbench_branches_pkey |            16384
 2017-02-05 06:31:21.321473+01 | 1486272681.32147 | pgbench_tellers_pkey  |            40960
 2017-02-05 06:31:21.321473+01 | 1486272681.32147 | pgbench_accounts_pkey |        224641024

