 2017-02-04 01:16:55.264525+01 | 1486167415.26452 |                 0 |              11 |                156229 |                 3037 |            8381119 |       1456826 |            14296 |        38713911 |                     0 |      36489951 | 2017-02-04 00:20:10.334424+01

 2017-02-04 01:16:56.352712+01 | 1486167416.35271 |                 0 |              11 |                156229 |                 3037 |            8381119 |       1456826 |            14296 |        38713911 |                     0 |      36500552 | 2017-02-04 00:20:10.334424+01

 2017-02-04 01:16:57.426829+01 | 1486167417.42683 |                 0 |              11 |                156229 |                 3037 |            8381119 |       1456826 |            14296 |        38713911 |                     0 |      36518314 | 2017-02-04 00:20:10.334424+01

 2017-02-04 01:16:58.504538+01 | 1486167418.50454 |                 0 |              11 |                156229 |                 3037 |            8381119 |       1456826 |            14296 |        38713911 |                     0 |      36533556 | 2017-02-04 00:20:10.334424+01

 2017-02-04 01:16:59.577508+01 | 1486167419.57751 |                 0 |              11 |                156229 |                 3037 |            8381119 |       1456826 |            14296 |        38713911 |                     0 |      36549102 | 2017-02-04 00:20:10.334424+01

 2017-02-04 01:17:00.65299+01 | 1486167420.65299 |                 0 |              11 |                156229 |                 3037 |            8381119 |       1456826 |            14296 |        38713911 |                     0 |      36567769 | 2017-02-04 00:20:10.334424+01

 2017-02-04 01:17:01.728597+01 | 1486167421.7286 |                 0 |              11 |                156229 |                 3037 |            8381119 |       1456826 |            14296 |        38713911 |                     0 |      36583081 | 2017-02-04 00:20:10.334424+01

 2017-02-04 01:17:02.813231+01 | 1486167422.81323 |                 0 |              11 |                156229 |                 3037 |            8381119 |       1456826 |            14296 |        38713911 |                     0 |      36599169 | 2017-02-04 00:20:10.334424+01

 2017-02-04 01:17:03.896873+01 | 1486167423.89687 |                 0 |              11 |                156229 |                 3037 |            8381119 |       1456826 |            14296 |        38713911 |                     0 |      36617681 | 2017-02-04 00:20:10.334424+01

 2017-02-04 01:17:04.968756+01 | 1486167424.96876 |                 0 |              11 |                156229 |                 3037 |            8381119 |       1456826 |            14296 |        38713911 |                     0 |      36633059 | 2017-02-04 00:20:10.334424+01

 2017-02-04 01:17:06.048732+01 | 1486167426.04873 |                 0 |              11 |                156229 |                 3037 |            8381119 |       1456826 |            14296 |        38713911 |                     0 |      36651321 | 2017-02-04 00:20:10.334424+01

 2017-02-04 01:17:07.12812+01 | 1486167427.12812 |                 0 |              11 |                156229 |                 3037 |            8381119 |       1456912 |            14296 |        38713911 |                     0 |      36664991 | 2017-02-04 00:20:10.334424+01

 2017-02-04 01:17:08.203606+01 | 1486167428.20361 |                 0 |              11 |                156229 |                 3037 |            8381119 |       1456994 |            14296 |        38713911 |                     0 |      36675163 | 2017-02-04 00:20:10.334424+01

 2017-02-04 01:17:09.27816+01 | 1486167429.27816 |                 0 |              11 |                156229 |                 3037 |            8381119 |       1457141 |            14296 |        38713911 |                     0 |      36692808 | 2017-02-04 00:20:10.334424+01

 2017-02-04 01:17:10.353509+01 | 1486167430.35351 |                 0 |              11 |                156229 |                 3037 |            8381119 |       1457329 |            14296 |        38713911 |                     0 |      36709231 | 2017-02-04 00:20:10.334424+01

 2017-02-04 01:17:11.435682+01 | 1486167431.43568 |                 0 |              11 |                156229 |                 3037 |            8381119 |       1457523 |            14296 |        38713911 |                     0 |      36725244 | 2017-02-04 00:20:10.334424+01

 2017-02-04 01:17:12.515925+01 | 1486167432.51592 |                 0 |              11 |                156229 |                 3037 |            8381119 |       1457726 |            14296 |        38713911 |                     0 |      36743601 | 2017-02-04 00:20:10.334424+01

 2017-02-04 01:17:13.594739+01 | 1486167433.59474 |                 0 |              11 |                156229 |                 3037 |            8381119 |       1457943 |            14296 |        38713911 |                     0 |      36758972 | 2017-02-04 00:20:10.334424+01

 2017-02-04 01:17:14.666955+01 | 1486167434.66695 |                 0 |              11 |                156229 |                 3037 |            8381119 |       1458200 |            14296 |        38713911 |                     0 |      36775285 | 2017-02-04 00:20:10.334424+01

 2017-02-04 01:17:15.741963+01 | 1486167435.74196 |                 0 |              11 |                156229 |                 3037 |            8381119 |       1458500 |            14296 |        38713911 |                     0 |      36795701 | 2017-02-04 00:20:10.334424+01

 2017-02-04 01:17:16.815725+01 | 1486167436.81573 |                 0 |              11 |                156229 |                 3037 |            8381119 |       1458759 |            14296 |        38713911 |                     0 |      36811543 | 2017-02-04 00:20:10.334424+01

 2017-02-04 01:17:17.889414+01 | 1486167437.88941 |                 0 |              11 |                156229 |                 3037 |            8381119 |       1459216 |            14300 |        38713911 |                     0 |      36828687 | 2017-02-04 00:20:10.334424+01

 2017-02-04 01:17:18.964401+01 | 1486167438.9644 |                 0 |              11 |                156229 |                 3037 |            8381119 |       1459816 |            14306 |        38713911 |                     0 |      36848509 | 2017-02-04 00:20:10.334424+01

 2017-02-04 01:17:20.041103+01 | 1486167440.0411 |                 0 |              11 |                156229 |                 3037 |            8381119 |       1460316 |            14311 |        38713911 |                     0 |      36863184 | 2017-02-04 00:20:10.334424+01

 2017-02-04 01:17:21.116616+01 | 1486167441.11662 |                 0 |              11 |                156229 |                 3037 |            8381119 |       1460816 |            14316 |        38713911 |                     0 |      36880290 | 2017-02-04 00:20:10.334424+01

 2017-02-04 01:17:22.192226+01 | 1486167442.19223 |                 0 |              11 |                156229 |                 3037 |            8381119 |       1461416 |            14322 |        38713911 |                     0 |      36901054 | 2017-02-04 00:20:10.334424+01

 2017-02-04 01:17:23.266029+01 | 1486167443.26603 |                 0 |              11 |                156229 |                 3037 |            8381119 |       1461916 |            14327 |        38713911 |                     0 |      36918209 | 2017-02-04 00:20:10.334424+01

 2017-02-04 01:17:24.337853+01 | 1486167444.33785 |                 0 |              11 |                156229 |                 3037 |            8381119 |       1462416 |            14332 |        38713911 |                     0 |      36935585 | 2017-02-04 00:20:10.334424+01

 2017-02-04 01:17:25.405255+01 | 1486167445.40526 |                 0 |              11 |                156229 |                 3037 |            8381119 |       1463016 |            14338 |        38713911 |                     0 |      36955140 | 2017-02-04 00:20:10.334424+01

 2017-02-04 01:17:26.483977+01 | 1486167446.48398 |                 0 |              11 |                156229 |                 3037 |            8381119 |       1463516 |            14343 |        38713911 |                     0 |      36968628 | 2017-02-04 00:20:10.334424+01

 2017-02-04 01:17:27.555137+01 | 1486167447.55514 |                 0 |              11 |                156229 |                 3037 |            8381119 |       1464016 |            14348 |        38713911 |                     0 |      36983636 | 2017-02-04 00:20:10.334424+01

 2017-02-04 01:17:28.625902+01 | 1486167448.6259 |                 0 |              11 |                156229 |                 3037 |            8381119 |       1464516 |            14353 |        38713911 |                     0 |      36998564 | 2017-02-04 00:20:10.334424+01

 2017-02-04 01:17:29.695322+01 | 1486167449.69532 |                 0 |              11 |                156229 |                 3037 |            8381119 |       1465116 |            14359 |        38713911 |                     0 |      37015543 | 2017-02-04 00:20:10.334424+01

 2017-02-04 01:17:30.774141+01 | 1486167450.77414 |                 0 |              11 |                156229 |                 3037 |            8381119 |       1465616 |            14364 |        38713911 |                     0 |      37030490 | 2017-02-04 00:20:10.334424+01

 2017-02-04 01:17:31.847532+01 | 1486167451.84753 |                 0 |              11 |                156229 |                 3037 |            8381119 |       1466116 |            14369 |        38713911 |                     0 |      37045586 | 2017-02-04 00:20:10.334424+01

 2017-02-04 01:17:32.92604+01 | 1486167452.92604 |                 0 |              11 |                156229 |                 3037 |            8381119 |       1466716 |            14375 |        38713911 |                     0 |      37064170 | 2017-02-04 00:20:10.334424+01

 2017-02-04 01:17:34.007112+01 | 1486167454.00711 |                 0 |              11 |                156229 |                 3037 |            8381119 |       1467216 |            14380 |        38713911 |                     0 |      37078688 | 2017-02-04 00:20:10.334424+01

 2017-02-04 01:17:35.092301+01 | 1486167455.0923 |                 0 |              11 |                156229 |                 3037 |            8381119 |       1467716 |            14385 |        38713911 |                     0 |      37092773 | 2017-02-04 00:20:10.334424+01

 2017-02-04 01:17:36.172556+01 | 1486167456.17256 |                 0 |              11 |                156229 |                 3037 |            8381119 |       1468316 |            14391 |        38713911 |                     0 |      37108399 | 2017-02-04 00:20:10.334424+01

 2017-02-04 01:17:37.251331+01 | 1486167457.25133 |                 0 |              11 |                156229 |                 3037 |            8381119 |       1468816 |            14396 |        38713911 |                     0 |      37122238 | 2017-02-04 00:20:10.334424+01

 2017-02-04 01:17:38.320413+01 | 1486167458.32041 |                 0 |              11 |                156229 |                 3037 |            8381119 |       1469316 |            14401 |        38713911 |                     0 |      37134017 | 2017-02-04 00:20:10.334424+01

 2017-02-04 01:17:39.397297+01 | 1486167459.3973 |                 0 |              11 |                156229 |                 3037 |            8381119 |       1469916 |            14407 |        38713911 |                     0 |      37147599 | 2017-02-04 00:20:10.334424+01

 2017-02-04 01:17:40.47105+01 | 1486167460.47105 |                 0 |              11 |                156229 |                 3037 |            8381119 |       1470416 |            14412 |        38713911 |                     0 |      37159695 | 2017-02-04 00:20:10.334424+01

 2017-02-04 01:17:41.551929+01 | 1486167461.55193 |                 0 |              11 |                156229 |                 3037 |            8381119 |       1470916 |            14417 |        38713911 |                     0 |      37170970 | 2017-02-04 00:20:10.334424+01

 2017-02-04 01:17:42.631123+01 | 1486167462.63112 |                 0 |              11 |                156229 |                 3037 |            8381119 |       1471516 |            14423 |        38713911 |                     0 |      37184661 | 2017-02-04 00:20:10.334424+01

 2017-02-04 01:17:43.697877+01 | 1486167463.69788 |                 0 |              11 |                156229 |                 3037 |            8381119 |       1472016 |            14428 |        38713911 |                     0 |      37196675 | 2017-02-04 00:20:10.334424+01

 2017-02-04 01:17:44.766345+01 | 1486167464.76635 |                 0 |              11 |                156229 |                 3037 |            8381119 |       1472516 |            14433 |        38713911 |                     0 |      37209665 | 2017-02-04 00:20:10.334424+01

 2017-02-04 01:17:45.842175+01 | 1486167465.84218 |                 0 |              11 |                156229 |                 3037 |            8381119 |       1473116 |            14439 |        38713911 |                     0 |      37224439 | 2017-02-04 00:20:10.334424+01

 2017-02-04 01:17:46.914838+01 | 1486167466.91484 |                 0 |              11 |                156229 |                 3037 |            8381119 |       1473616 |            14444 |        38713911 |                     0 |      37237787 | 2017-02-04 00:20:10.334424+01

 2017-02-04 01:17:47.993726+01 | 1486167467.99373 |                 0 |              11 |                156229 |                 3037 |            8381119 |       1474116 |            14449 |        38713911 |                     0 |      37251672 | 2017-02-04 00:20:10.334424+01

 2017-02-04 01:17:49.069214+01 | 1486167469.06921 |                 0 |              11 |                156229 |                 3037 |            8381119 |       1474716 |            14455 |        38713911 |                     0 |      37267143 | 2017-02-04 00:20:10.334424+01

 2017-02-04 01:17:50.147924+01 | 1486167470.14792 |                 0 |              11 |                156229 |                 3037 |            8381119 |       1475216 |            14460 |        38713911 |                     0 |      37281057 | 2017-02-04 00:20:10.334424+01

 2017-02-04 01:17:51.23959+01 | 1486167471.23959 |                 0 |              11 |                156229 |                 3037 |            8381119 |       1475716 |            14465 |        38713911 |                     0 |      37295127 | 2017-02-04 00:20:10.334424+01

 2017-02-04 01:17:52.317235+01 | 1486167472.31723 |                 0 |              11 |                156229 |                 3037 |            8381119 |       1476316 |            14471 |        38713911 |                     0 |      37312192 | 2017-02-04 00:20:10.334424+01

 2017-02-04 01:17:53.399745+01 | 1486167473.39974 |                 0 |              11 |                156229 |                 3037 |            8381119 |       1476816 |            14476 |        38713911 |                     0 |      37326662 | 2017-02-04 00:20:10.334424+01

 2017-02-04 01:17:54.479116+01 | 1486167474.47912 |                 0 |              11 |                156229 |                 3037 |            8381119 |       1477316 |            14481 |        38713911 |                     0 |      37339816 | 2017-02-04 00:20:10.334424+01

 2017-02-04 01:17:55.554931+01 | 1486167475.55493 |                 0 |              11 |                156229 |                 3037 |            8381119 |       1477916 |            14487 |        38713911 |                     0 |      37358440 | 2017-02-04 00:20:10.334424+01

 2017-02-04 01:17:56.632854+01 | 1486167476.63285 |                 0 |              11 |                156229 |                 3037 |            8381119 |       1478416 |            14492 |        38713911 |                     0 |      37371358 | 2017-02-04 00:20:10.334424+01

 2017-02-04 01:17:57.714653+01 | 1486167477.71465 |                 0 |              11 |                156229 |                 3037 |            8381119 |       1478916 |            14497 |        38713911 |                     0 |      37385425 | 2017-02-04 00:20:10.334424+01

 2017-02-04 01:17:58.7926+01 | 1486167478.7926 |                 0 |              11 |                156229 |                 3037 |            8381119 |       1479516 |            14503 |        38713911 |                     0 |      37401564 | 2017-02-04 00:20:10.334424+01

 2017-02-04 01:17:59.867608+01 | 1486167479.86761 |                 0 |              11 |                156229 |                 3037 |            8381119 |       1480016 |            14508 |        38713911 |                     0 |      37416251 | 2017-02-04 00:20:10.334424+01

 2017-02-04 01:18:00.938218+01 | 1486167480.93822 |                 0 |              11 |                156229 |                 3037 |            8381119 |       1480616 |            14514 |        38713911 |                     0 |      37434047 | 2017-02-04 00:20:10.334424+01

 2017-02-04 01:18:02.012114+01 | 1486167482.01211 |                 0 |              11 |                156229 |                 3037 |            8381119 |       1481116 |            14519 |        38713911 |                     0 |      37447577 | 2017-02-04 00:20:10.334424+01

 2017-02-04 01:18:03.089149+01 | 1486167483.08915 |                 0 |              11 |                156229 |                 3037 |            8381119 |       1481616 |            14524 |        39213609 |                     0 |      37461281 | 2017-02-04 00:20:10.334424+01

 2017-02-04 01:18:04.164506+01 | 1486167484.16451 |                 0 |              11 |                156229 |                 3037 |            8381119 |       1482116 |            14529 |        39213609 |                     0 |      37471659 | 2017-02-04 00:20:10.334424+01

 2017-02-04 01:18:05.240448+01 | 1486167485.24045 |                 0 |              11 |                156229 |                 3037 |            8381119 |       1482716 |            14535 |        39213609 |                     0 |      37485043 | 2017-02-04 00:20:10.334424+01

 2017-02-04 01:18:06.318595+01 | 1486167486.31859 |                 0 |              11 |                156229 |                 3037 |            8381119 |       1483216 |            14540 |        39213609 |                     0 |      37495165 | 2017-02-04 00:20:10.334424+01

 2017-02-04 01:18:07.404381+01 | 1486167487.40438 |                 0 |              11 |                156229 |                 3037 |            8381119 |       1483716 |            14545 |        39213609 |                     0 |      37509399 | 2017-02-04 00:20:10.334424+01

 2017-02-04 01:18:08.475562+01 | 1486167488.47556 |                 0 |              11 |                156229 |                 3037 |            8381119 |       1484316 |            14551 |        39213609 |                     0 |      37523316 | 2017-02-04 00:20:10.334424+01

 2017-02-04 01:18:09.537104+01 | 1486167489.5371 |                 0 |              11 |                156229 |                 3037 |            8381119 |       1484816 |            14556 |        39213609 |                     0 |      37535745 | 2017-02-04 00:20:10.334424+01

 2017-02-04 01:18:10.615402+01 | 1486167490.6154 |                 0 |              11 |                156229 |                 3037 |            8381119 |       1485316 |            14561 |        39213609 |                     0 |      37545650 | 2017-02-04 00:20:10.334424+01

 2017-02-04 01:18:11.695861+01 | 1486167491.69586 |                 0 |              11 |                156229 |                 3037 |            8381119 |       1485916 |            14567 |        39213609 |                     0 |      37558165 | 2017-02-04 00:20:10.334424+01

 2017-02-04 01:18:12.771286+01 | 1486167492.77129 |                 0 |              11 |                156229 |                 3037 |            8381119 |       1486416 |            14572 |        39213609 |                     0 |      37568451 | 2017-02-04 00:20:10.334424+01

 2017-02-04 01:18:13.855009+01 | 1486167493.85501 |                 0 |              11 |                156229 |                 3037 |            8381119 |       1486916 |            14577 |        39213609 |                     0 |      37578999 | 2017-02-04 00:20:10.334424+01

 2017-02-04 01:18:14.944785+01 | 1486167494.94479 |                 0 |              11 |                156229 |                 3037 |            8381119 |       1487516 |            14583 |        39213609 |                     0 |      37593660 | 2017-02-04 00:20:10.334424+01

 2017-02-04 01:18:16.023134+01 | 1486167496.02313 |                 0 |              11 |                156229 |                 3037 |            8381119 |       1488016 |            14588 |        39213609 |                     0 |      37603384 | 2017-02-04 00:20:10.334424+01

 2017-02-04 01:18:17.103357+01 | 1486167497.10336 |                 0 |              11 |                156229 |                 3037 |            8381119 |       1488616 |            14594 |        39213609 |                     0 |      37615267 | 2017-02-04 00:20:10.334424+01

 2017-02-04 01:18:18.169879+01 | 1486167498.16988 |                 0 |              11 |                156229 |                 3037 |            8381119 |       1489116 |            14599 |        39213609 |                     0 |      37626971 | 2017-02-04 00:20:10.334424+01

 2017-02-04 01:18:19.250192+01 | 1486167499.25019 |                 0 |              11 |                156229 |                 3037 |            8381119 |       1489616 |            14604 |        39213609 |                     0 |      37636438 | 2017-02-04 00:20:10.334424+01

 2017-02-04 01:18:20.33109+01 | 1486167500.33109 |                 0 |              11 |                156229 |                 3037 |            8381119 |       1490216 |            14610 |        39213609 |                     0 |      37650991 | 2017-02-04 00:20:10.334424+01

 2017-02-04 01:18:21.406629+01 | 1486167501.40663 |                 0 |              11 |                156229 |                 3037 |            8381119 |       1490716 |            14615 |        39213609 |                     0 |      37662626 | 2017-02-04 00:20:10.334424+01

 2017-02-04 01:18:22.483065+01 | 1486167502.48306 |                 0 |              11 |                156229 |                 3037 |            8381119 |       1491216 |            14620 |        39213609 |                     0 |      37676347 | 2017-02-04 00:20:10.334424+01

 2017-02-04 01:18:23.55164+01 | 1486167503.55164 |                 0 |              11 |                156229 |                 3037 |            8381119 |       1491816 |            14626 |        39213609 |                     0 |      37693769 | 2017-02-04 00:20:10.334424+01

 2017-02-04 01:18:24.629331+01 | 1486167504.62933 |                 0 |              11 |                156229 |                 3037 |            8381119 |       1492316 |            14631 |        39213609 |                     0 |      37707111 | 2017-02-04 00:20:10.334424+01

 2017-02-04 01:18:25.711629+01 | 1486167505.71163 |                 0 |              11 |                156229 |                 3037 |            8381119 |       1492816 |            14636 |        39213609 |                     0 |      37720477 | 2017-02-04 00:20:10.334424+01

 2017-02-04 01:18:26.788314+01 | 1486167506.78831 |                 0 |              11 |                156229 |                 3037 |            8381119 |       1493416 |            14642 |        39213609 |                     0 |      37736100 | 2017-02-04 00:20:10.334424+01

 2017-02-04 01:18:27.870964+01 | 1486167507.87096 |                 0 |              11 |                156229 |                 3037 |            8381119 |       1493916 |            14647 |        39213609 |                     0 |      37747509 | 2017-02-04 00:20:10.334424+01

 2017-02-04 01:18:28.953486+01 | 1486167508.95349 |                 0 |              11 |                156229 |                 3037 |            8381119 |       1494416 |            14652 |        39213609 |                     0 |      37758452 | 2017-02-04 00:20:10.334424+01

 2017-02-04 01:18:30.030293+01 | 1486167510.03029 |                 0 |              11 |                156229 |                 3037 |            8381119 |       1495016 |            14658 |        39213609 |                     0 |      37770503 | 2017-02-04 00:20:10.334424+01

 2017-02-04 01:18:31.108263+01 | 1486167511.10826 |                 0 |              11 |                156229 |                 3037 |            8381119 |       1495516 |            14663 |        39213609 |                     0 |      37779317 | 2017-02-04 00:20:10.334424+01

 2017-02-04 01:18:32.185647+01 | 1486167512.18565 |                 0 |              11 |                156229 |                 3037 |            8381119 |       1496016 |            14668 |        39213609 |                     0 |      37790446 | 2017-02-04 00:20:10.334424+01

 2017-02-04 01:18:33.268995+01 | 1486167513.269 |                 0 |              11 |                156229 |                 3037 |            8381119 |       1496616 |            14674 |        39213609 |                     0 |      37805411 | 2017-02-04 00:20:10.334424+01

 2017-02-04 01:18:34.345703+01 | 1486167514.3457 |                 0 |              11 |                156229 |                 3037 |            8381119 |       1497116 |            14679 |        39213609 |                     0 |      37818546 | 2017-02-04 00:20:10.334424+01

 2017-02-04 01:18:35.423036+01 | 1486167515.42304 |                 0 |              11 |                156229 |                 3037 |            8381119 |       1497616 |            14684 |        39213609 |                     0 |      37832296 | 2017-02-04 00:20:10.334424+01

 2017-02-04 01:18:36.49032+01 | 1486167516.49032 |                 0 |              11 |                156229 |                 3037 |            8381119 |       1498216 |            14690 |        39213609 |                     0 |      37847250 | 2017-02-04 00:20:10.334424+01

 2017-02-04 01:18:37.564149+01 | 1486167517.56415 |                 0 |              11 |                156229 |                 3037 |            8381119 |       1498716 |            14695 |        39213609 |                     0 |      37861025 | 2017-02-04 00:20:10.334424+01

 2017-02-04 01:18:38.643867+01 | 1486167518.64387 |                 0 |              11 |                156229 |                 3037 |            8381119 |       1499216 |            14700 |        39213609 |                     0 |      37873368 | 2017-02-04 00:20:10.334424+01

 2017-02-04 01:18:39.722035+01 | 1486167519.72203 |                 0 |              11 |                156229 |                 3037 |            8381119 |       1499816 |            14706 |        39213609 |                     0 |      37884338 | 2017-02-04 00:20:10.334424+01

 2017-02-04 01:18:40.812001+01 | 1486167520.812 |                 0 |              11 |                156229 |                 3037 |            8381119 |       1500316 |            14711 |        39213609 |                     0 |      37897326 | 2017-02-04 00:20:10.334424+01

 2017-02-04 01:18:41.887624+01 | 1486167521.88762 |                 0 |              11 |                156229 |                 3037 |            8381119 |       1500816 |            14716 |        39213609 |                     0 |      37909708 | 2017-02-04 00:20:10.334424+01

 2017-02-04 01:18:42.967006+01 | 1486167522.96701 |                 0 |              11 |                156229 |                 3037 |            8381119 |       1501416 |            14722 |        39718100 |                     0 |      37925915 | 2017-02-04 00:20:10.334424+01

 2017-02-04 01:18:44.040721+01 | 1486167524.04072 |                 0 |              11 |                156229 |                 3037 |            8381119 |       1501916 |            14727 |        39718100 |                     0 |      37939805 | 2017-02-04 00:20:10.334424+01

 2017-02-04 01:18:45.117511+01 | 1486167525.11751 |                 0 |              11 |                156229 |                 3037 |            8381119 |       1502416 |            14732 |        39718100 |                     0 |      37951358 | 2017-02-04 00:20:10.334424+01

 2017-02-04 01:18:46.198569+01 | 1486167526.19857 |                 0 |              11 |                156229 |                 3037 |            8381119 |       1503016 |            14738 |        39718100 |                     0 |      37966889 | 2017-02-04 00:20:10.334424+01

 2017-02-04 01:18:47.279867+01 | 1486167527.27987 |                 0 |              11 |                156229 |                 3037 |            8381119 |       1503516 |            14743 |        39718100 |                     0 |      37978898 | 2017-02-04 00:20:10.334424+01

 2017-02-04 01:18:48.364481+01 | 1486167528.36448 |                 0 |              11 |                156229 |                 3037 |            8381119 |       1504016 |            14748 |        39718100 |                     0 |      37993224 | 2017-02-04 00:20:10.334424+01

 2017-02-04 01:18:49.43985+01 | 1486167529.43985 |                 0 |              11 |                156229 |                 3037 |            8381119 |       1504616 |            14754 |        39718100 |                     0 |      38007979 | 2017-02-04 00:20:10.334424+01

 2017-02-04 01:18:50.514838+01 | 1486167530.51484 |                 0 |              11 |                156229 |                 3037 |            8381119 |       1505116 |            14759 |        39718100 |                     0 |      38022109 | 2017-02-04 00:20:10.334424+01

 2017-02-04 01:18:51.593925+01 | 1486167531.59392 |                 0 |              11 |                156229 |                 3037 |            8381119 |       1505616 |            14764 |        39718100 |                     0 |      38035427 | 2017-02-04 00:20:10.334424+01

 2017-02-04 01:18:52.670647+01 | 1486167532.67065 |                 0 |              11 |                156229 |                 3037 |            8381119 |       1506216 |            14770 |        39718100 |                     0 |      38050675 | 2017-02-04 00:20:10.334424+01

 2017-02-04 01:18:53.750064+01 | 1486167533.75006 |                 0 |              11 |                156229 |                 3037 |            8381119 |       1506716 |            14775 |        39718100 |                     0 |      38064816 | 2017-02-04 00:20:10.334424+01

 2017-02-04 01:18:54.812546+01 | 1486167534.81255 |                 0 |              11 |                156229 |                 3037 |            8381119 |       1507216 |            14780 |        39718100 |                     0 |      38078384 | 2017-02-04 00:20:10.334424+01

 2017-02-04 01:18:55.901761+01 | 1486167535.90176 |                 0 |              11 |                156229 |                 3037 |            8381119 |       1507816 |            14786 |        39718100 |                     0 |      38094851 | 2017-02-04 00:20:10.334424+01

 2017-02-04 01:18:56.978998+01 | 1486167536.979 |                 0 |              11 |                156229 |                 3037 |            8381119 |       1508316 |            14791 |        39718100 |                     0 |      38109785 | 2017-02-04 00:20:10.334424+01

 2017-02-04 01:18:58.056015+01 | 1486167538.05602 |                 0 |              11 |                156229 |                 3037 |            8381119 |       1508816 |            14796 |        39718100 |                     0 |      38124219 | 2017-02-04 00:20:10.334424+01

 2017-02-04 01:18:59.12987+01 | 1486167539.12987 |                 0 |              11 |                156229 |                 3037 |            8381119 |       1509416 |            14802 |        39718100 |                     0 |      38139689 | 2017-02-04 00:20:10.334424+01

 2017-02-04 01:19:00.205798+01 | 1486167540.2058 |                 0 |              11 |                156229 |                 3037 |            8381119 |       1509916 |            14807 |        39718100 |                     0 |      38150876 | 2017-02-04 00:20:10.334424+01

 2017-02-04 01:19:01.284728+01 | 1486167541.28473 |                 0 |              11 |                156229 |                 3037 |            8381119 |       1510416 |            14812 |        39718100 |                     0 |      38161323 | 2017-02-04 00:20:10.334424+01

 2017-02-04 01:19:02.370303+01 | 1486167542.3703 |                 0 |              11 |                156229 |                 3037 |            8381119 |       1511016 |            14818 |        39718100 |                     0 |      38173671 | 2017-02-04 00:20:10.334424+01

 2017-02-04 01:19:03.445248+01 | 1486167543.44525 |                 0 |              11 |                156229 |                 3037 |            8381119 |       1511516 |            14823 |        39718100 |                     0 |      38183787 | 2017-02-04 00:20:10.334424+01

 2017-02-04 01:19:04.532321+01 | 1486167544.53232 |                 0 |              11 |                156229 |                 3037 |            8381119 |       1512016 |            14828 |        39718100 |                     0 |      38196086 | 2017-02-04 00:20:10.334424+01

 2017-02-04 01:19:05.609166+01 | 1486167545.60917 |                 0 |              11 |                156229 |                 3037 |            8381119 |       1512616 |            14834 |        39718100 |                     0 |      38210747 | 2017-02-04 00:20:10.334424+01

 2017-02-04 01:19:06.6962+01 | 1486167546.6962 |                 0 |              11 |                156229 |                 3037 |            8381119 |       1513116 |            14839 |        39718100 |                     0 |      38224507 | 2017-02-04 00:20:10.334424+01

 2017-02-04 01:19:07.774825+01 | 1486167547.77483 |                 0 |              11 |                156229 |                 3037 |            8381119 |       1513616 |            14844 |        39718100 |                     0 |      38236817 | 2017-02-04 00:20:10.334424+01

 2017-02-04 01:19:08.84986+01 | 1486167548.84986 |                 0 |              11 |                156229 |                 3037 |            8381119 |       1514216 |            14850 |        39718100 |                     0 |      38254088 | 2017-02-04 00:20:10.334424+01

 2017-02-04 01:19:09.929718+01 | 1486167549.92972 |                 0 |              11 |                156229 |                 3037 |            8381119 |       1514716 |            14855 |        39718100 |                     0 |      38267583 | 2017-02-04 00:20:10.334424+01

 2017-02-04 01:19:11.011111+01 | 1486167551.01111 |                 0 |              11 |                156229 |                 3037 |            8381119 |       1515316 |            14861 |        39718100 |                     0 |      38283749 | 2017-02-04 00:20:10.334424+01

 2017-02-04 01:19:12.085897+01 | 1486167552.0859 |                 0 |              11 |                156229 |                 3037 |            8381119 |       1515816 |            14866 |        39718100 |                     0 |      38298245 | 2017-02-04 00:20:10.334424+01

 2017-02-04 01:19:13.170785+01 | 1486167553.17078 |                 0 |              11 |                156229 |                 3037 |            8381119 |       1516316 |            14871 |        39718100 |                     0 |      38311411 | 2017-02-04 00:20:10.334424+01

 2017-02-04 01:19:14.250448+01 | 1486167554.25045 |                 0 |              11 |                156229 |                 3037 |            8381119 |       1516916 |            14877 |        39718100 |                     0 |      38325863 | 2017-02-04 00:20:10.334424+01

 2017-02-04 01:19:15.335516+01 | 1486167555.33552 |                 0 |              11 |                156229 |                 3037 |            8381119 |       1517416 |            14882 |        39718100 |                     0 |      38336024 | 2017-02-04 00:20:10.334424+01

 2017-02-04 01:19:16.41531+01 | 1486167556.41531 |                 0 |              11 |                156229 |                 3037 |            8381119 |       1517916 |            14887 |        39718100 |                     0 |      38344915 | 2017-02-04 00:20:10.334424+01

 2017-02-04 01:19:17.485485+01 | 1486167557.48549 |                 0 |              11 |                156229 |                 3037 |            8381119 |       1518516 |            14893 |        39718100 |                     0 |      38356300 | 2017-02-04 00:20:10.334424+01

 2017-02-04 01:19:18.578462+01 | 1486167558.57846 |                 0 |              11 |                156229 |                 3037 |            8381119 |       1519016 |            14898 |        39718100 |                     0 |      38366674 | 2017-02-04 00:20:10.334424+01

 2017-02-04 01:19:19.657437+01 | 1486167559.65744 |                 0 |              11 |                156229 |                 3037 |            8381119 |       1519516 |            14903 |        39718100 |                     0 |      38376151 | 2017-02-04 00:20:10.334424+01

 2017-02-04 01:19:20.743693+01 | 1486167560.74369 |                 0 |              11 |                156229 |                 3037 |            8381119 |       1520116 |            14909 |        39718100 |                     0 |      38387494 | 2017-02-04 00:20:10.334424+01

 2017-02-04 01:19:21.821519+01 | 1486167561.82152 |                 0 |              11 |                156229 |                 3037 |            8381119 |       1520616 |            14914 |        40223388 |                     0 |      38397543 | 2017-02-04 00:20:10.334424+01

 2017-02-04 01:19:22.903883+01 | 1486167562.90388 |                 0 |              11 |                156229 |                 3037 |            8381119 |       1521116 |            14919 |        40223388 |                     0 |      38408606 | 2017-02-04 00:20:10.334424+01

 2017-02-04 01:19:23.980492+01 | 1486167563.98049 |                 0 |              11 |                156229 |                 3037 |            8381119 |       1521716 |            14925 |        40223388 |                     0 |      38421756 | 2017-02-04 00:20:10.334424+01

 2017-02-04 01:19:25.056244+01 | 1486167565.05624 |                 0 |              11 |                156229 |                 3037 |            8381119 |       1522216 |            14930 |        40223388 |                     0 |      38435507 | 2017-02-04 00:20:10.334424+01

 2017-02-04 01:19:26.128642+01 | 1486167566.12864 |                 0 |              11 |                156229 |                 3037 |            8381119 |       1522716 |            14935 |        40223388 |                     0 |      38448909 | 2017-02-04 00:20:10.334424+01

 2017-02-04 01:19:27.209003+01 | 1486167567.209 |                 0 |              11 |                156229 |                 3037 |            8381119 |       1523316 |            14941 |        40223388 |                     0 |      38465603 | 2017-02-04 00:20:10.334424+01

 2017-02-04 01:19:28.290759+01 | 1486167568.29076 |                 0 |              11 |                156229 |                 3037 |            8381119 |       1523816 |            14946 |        40223388 |                     0 |      38480002 | 2017-02-04 00:20:10.334424+01

 2017-02-04 01:19:29.368977+01 | 1486167569.36898 |                 0 |              11 |                156229 |                 3037 |            8381119 |       1524316 |            14951 |        40223388 |                     0 |      38495296 | 2017-02-04 00:20:10.334424+01

 2017-02-04 01:19:30.45345+01 | 1486167570.45345 |                 0 |              11 |                156229 |                 3037 |            8381119 |       1524916 |            14957 |        40223388 |                     0 |      38514673 | 2017-02-04 00:20:10.334424+01

 2017-02-04 01:19:31.528643+01 | 1486167571.52864 |                 0 |              11 |                156229 |                 3037 |            8381119 |       1525416 |            14962 |        40223388 |                     0 |      38530812 | 2017-02-04 00:20:10.334424+01

 2017-02-04 01:19:32.616711+01 | 1486167572.61671 |                 0 |              11 |                156229 |                 3037 |            8381119 |       1525916 |            14967 |        40223388 |                     0 |      38547235 | 2017-02-04 00:20:10.334424+01

 2017-02-04 01:19:33.70875+01 | 1486167573.70875 |                 0 |              11 |                156229 |                 3037 |            8381119 |       1526516 |            14973 |        40223388 |                     0 |      38565069 | 2017-02-04 00:20:10.334424+01

 2017-02-04 01:19:34.79215+01 | 1486167574.79215 |                 0 |              11 |                156229 |                 3037 |            8381119 |       1527016 |            14978 |        40223388 |                     0 |      38581412 | 2017-02-04 00:20:10.334424+01

 2017-02-04 01:19:35.882149+01 | 1486167575.88215 |                 0 |              11 |                156229 |                 3037 |            8381119 |       1527616 |            14984 |        40223388 |                     0 |      38600110 | 2017-02-04 00:20:10.334424+01

 2017-02-04 01:19:36.974526+01 | 1486167576.97453 |                 0 |              11 |                156229 |                 3037 |            8381119 |       1528116 |            14989 |        40223388 |                     0 |      38616476 | 2017-02-04 00:20:10.334424+01

 2017-02-04 01:19:38.060233+01 | 1486167578.06023 |                 0 |              11 |                156229 |                 3037 |            8381119 |       1528616 |            14994 |        40223388 |                     0 |      38630536 | 2017-02-04 00:20:10.334424+01

 2017-02-04 01:19:39.133835+01 | 1486167579.13384 |                 0 |              11 |                156229 |                 3037 |            8381119 |       1529216 |            15000 |        40223388 |                     0 |      38650628 | 2017-02-04 00:20:10.334424+01

 2017-02-04 01:19:40.209954+01 | 1486167580.20995 |                 0 |              11 |                156229 |                 3037 |            8381119 |       1529716 |            15005 |        40223388 |                     0 |      38665528 | 2017-02-04 00:20:10.334424+01

 2017-02-04 01:19:41.289267+01 | 1486167581.28927 |                 0 |              11 |                156229 |                 3037 |            8381119 |       1530216 |            15010 |        40223388 |                     0 |      38681454 | 2017-02-04 00:20:10.334424+01

 2017-02-04 01:19:42.357272+01 | 1486167582.35727 |                 0 |              11 |                156229 |                 3037 |            8381119 |       1530616 |            15014 |        40223388 |                     0 |      38694652 | 2017-02-04 00:20:10.334424+01

 2017-02-04 01:19:43.417987+01 | 1486167583.41799 |                 0 |              11 |                156229 |                 3037 |            8381119 |       1531116 |            15019 |        40223388 |                     0 |      38709945 | 2017-02-04 00:20:10.334424+01

 2017-02-04 01:19:44.499704+01 | 1486167584.4997 |                 0 |              11 |                156229 |                 3037 |            8381119 |       1531816 |            15026 |        40223388 |                     0 |      38731841 | 2017-02-04 00:20:10.334424+01

 2017-02-04 01:19:45.58002+01 | 1486167585.58002 |                 0 |              11 |                156229 |                 3037 |            8381119 |       1532416 |            15032 |        40223388 |                     0 |      38751674 | 2017-02-04 00:20:10.334424+01

 2017-02-04 01:19:46.652148+01 | 1486167586.65215 |                 0 |              11 |                156229 |                 3037 |            8381119 |       1532916 |            15037 |        40223388 |                     0 |      38765868 | 2017-02-04 00:20:10.334424+01

 2017-02-04 01:19:47.726548+01 | 1486167587.72655 |                 0 |              11 |                156229 |                 3037 |            8381119 |       1533416 |            15042 |        40223388 |                     0 |      38781999 | 2017-02-04 00:20:10.334424+01

 2017-02-04 01:19:48.805955+01 | 1486167588.80595 |                 0 |              11 |                156229 |                 3037 |            8381119 |       1534016 |            15048 |        40223388 |                     0 |      38799097 | 2017-02-04 00:20:10.334424+01

 2017-02-04 01:19:49.882158+01 | 1486167589.88216 |                 0 |              11 |                156229 |                 3037 |            8381119 |       1534516 |            15053 |        40223388 |                     0 |      38814906 | 2017-02-04 00:20:10.334424+01

 2017-02-04 01:19:50.961063+01 | 1486167590.96106 |                 0 |              11 |                156229 |                 3037 |            8381119 |       1535016 |            15058 |        40223388 |                     0 |      38829987 | 2017-02-04 00:20:10.334424+01

 2017-02-04 01:19:52.030199+01 | 1486167592.0302 |                 0 |              11 |                156229 |                 3037 |            8381119 |       1535616 |            15064 |        40223388 |                     0 |      38849186 | 2017-02-04 00:20:10.334424+01

 2017-02-04 01:19:53.104753+01 | 1486167593.10475 |                 0 |              11 |                156229 |                 3037 |            8381119 |       1536116 |            15069 |        40223388 |                     0 |      38863166 | 2017-02-04 00:20:10.334424+01

 2017-02-04 01:19:54.177775+01 | 1486167594.17777 |                 0 |              11 |                156229 |                 3037 |            8381119 |       1536616 |            15074 |        40223388 |                     0 |      38878296 | 2017-02-04 00:20:10.334424+01

 2017-02-04 01:19:55.255266+01 | 1486167595.25527 |                 0 |              11 |                156229 |                 3037 |            8381119 |       1537216 |            15080 |        40730877 |                     0 |      38895580 | 2017-02-04 00:20:10.334424+01

 2017-02-04 01:19:56.328985+01 | 1486167596.32898 |                 0 |              11 |                156229 |                 3037 |            8381119 |       1537716 |            15085 |        40730877 |                     0 |      38911818 | 2017-02-04 00:20:10.334424+01

 2017-02-04 01:19:57.407128+01 | 1486167597.40713 |                 0 |              11 |                156229 |                 3037 |            8381119 |       1538216 |            15090 |        40730877 |                     0 |      38927046 | 2017-02-04 00:20:10.334424+01

 2017-02-04 01:19:58.485255+01 | 1486167598.48526 |                 0 |              11 |                156229 |                 3037 |            8381119 |       1538816 |            15096 |        40730877 |                     0 |      38944618 | 2017-02-04 00:20:10.334424+01

 2017-02-04 01:19:59.55291+01 | 1486167599.55291 |                 0 |              11 |                156229 |                 3037 |            8381119 |       1539316 |            15101 |        40730877 |                     0 |      38960128 | 2017-02-04 00:20:10.334424+01

 2017-02-04 01:20:00.623173+01 | 1486167600.62317 |                 0 |              11 |                156229 |                 3037 |            8381119 |       1539816 |            15106 |        40730877 |                     0 |      38974991 | 2017-02-04 00:20:10.334424+01

 2017-02-04 01:20:01.693442+01 | 1486167601.69344 |                 0 |              11 |                156229 |                 3037 |            8381119 |       1540416 |            15112 |        40730877 |                     0 |      38991874 | 2017-02-04 00:20:10.334424+01

 2017-02-04 01:20:02.784996+01 | 1486167602.785 |                 0 |              11 |                156229 |                 3037 |            8381119 |       1540916 |            15117 |        40730877 |                     0 |      39007110 | 2017-02-04 00:20:10.334424+01

 2017-02-04 01:20:03.859777+01 | 1486167603.85978 |                 0 |              11 |                156229 |                 3037 |            8381119 |       1541416 |            15122 |        40730877 |                     0 |      39022427 | 2017-02-04 00:20:10.334424+01

 2017-02-04 01:20:04.934227+01 | 1486167604.93423 |                 0 |              11 |                156229 |                 3037 |            8381119 |       1542016 |            15128 |        40730877 |                     0 |      39040527 | 2017-02-04 00:20:10.334424+01

 2017-02-04 01:20:06.014141+01 | 1486167606.01414 |                 0 |              11 |                156229 |                 3037 |            8381119 |       1542516 |            15133 |        40730877 |                     0 |      39053844 | 2017-02-04 00:20:10.334424+01

 2017-02-04 01:20:07.091904+01 | 1486167607.0919 |                 0 |              11 |                156229 |                 3037 |            8381119 |       1543016 |            15138 |        40730877 |                     0 |      39070205 | 2017-02-04 00:20:10.334424+01

 2017-02-04 01:20:08.166179+01 | 1486167608.16618 |                 0 |              11 |                156229 |                 3037 |            8381119 |       1543616 |            15144 |        40730877 |                     0 |      39086911 | 2017-02-04 00:20:10.334424+01

 2017-02-04 01:20:09.24476+01 | 1486167609.24476 |                 0 |              11 |                156229 |                 3037 |            8381119 |       1544116 |            15149 |        40730877 |                     0 |      39102045 | 2017-02-04 00:20:10.334424+01

 2017-02-04 01:20:10.316595+01 | 1486167610.3166 |                 0 |              11 |                156229 |                 3037 |            8381119 |       1544616 |            15154 |        40730877 |                     0 |      39117464 | 2017-02-04 00:20:10.334424+01

 2017-02-04 01:20:11.401269+01 | 1486167611.40127 |                 0 |              11 |                156229 |                 3037 |            8381119 |       1545216 |            15160 |        40730877 |                     0 |      39131156 | 2017-02-04 00:20:10.334424+01

 2017-02-04 01:20:12.482436+01 | 1486167612.48244 |                 0 |              11 |                156229 |                 3037 |            8381119 |       1545716 |            15165 |        40730877 |                     0 |      39142892 | 2017-02-04 00:20:10.334424+01

 2017-02-04 01:20:13.562232+01 | 1486167613.56223 |                 0 |              11 |                156229 |                 3037 |            8381119 |       1546216 |            15170 |        40730877 |                     0 |      39155422 | 2017-02-04 00:20:10.334424+01

 2017-02-04 01:20:14.64193+01 | 1486167614.64193 |                 0 |              11 |                156229 |                 3037 |            8381119 |       1546816 |            15176 |        40730877 |                     0 |      39169200 | 2017-02-04 00:20:10.334424+01

 2017-02-04 01:20:15.735913+01 | 1486167615.73591 |                 0 |              11 |                156229 |                 3037 |            8381119 |       1547316 |            15181 |        40730877 |                     0 |      39181118 | 2017-02-04 00:20:10.334424+01

 2017-02-04 01:20:16.813088+01 | 1486167616.81309 |                 0 |              11 |                156229 |                 3037 |            8381119 |       1547816 |            15186 |        40730877 |                     0 |      39193161 | 2017-02-04 00:20:10.334424+01

 2017-02-04 01:20:17.894603+01 | 1486167617.8946 |                 0 |              11 |                156229 |                 3037 |            8381119 |       1548416 |            15192 |        40730877 |                     0 |      39211472 | 2017-02-04 00:20:10.334424+01

 2017-02-04 01:20:18.970626+01 | 1486167618.97063 |                 0 |              11 |                156229 |                 3037 |            8381119 |       1548916 |            15197 |        40730877 |                     0 |      39225253 | 2017-02-04 00:20:10.334424+01

 2017-02-04 01:20:20.05619+01 | 1486167620.05619 |                 0 |              11 |                156229 |                 3037 |            8381119 |       1549416 |            15202 |        40730877 |                     0 |      39240235 | 2017-02-04 00:20:10.334424+01

 2017-02-04 01:20:21.129489+01 | 1486167621.12949 |                 0 |              11 |                156229 |                 3037 |            8381119 |       1550016 |            15208 |        40730877 |                     0 |      39257005 | 2017-02-04 00:20:10.334424+01

 2017-02-04 01:20:22.19546+01 | 1486167622.19546 |                 0 |              11 |                156229 |                 3037 |            8381119 |       1550516 |            15213 |        40730877 |                     0 |      39272289 | 2017-02-04 00:20:10.334424+01

 2017-02-04 01:20:23.271971+01 | 1486167623.27197 |                 0 |              11 |                156229 |                 3037 |            8381119 |       1551016 |            15218 |        40730877 |                     0 |      39286721 | 2017-02-04 00:20:10.334424+01

 2017-02-04 01:20:24.350115+01 | 1486167624.35012 |                 0 |              11 |                156229 |                 3037 |            8381119 |       1551616 |            15224 |        40730877 |                     0 |      39303833 | 2017-02-04 00:20:10.334424+01

 2017-02-04 01:20:25.426228+01 | 1486167625.42623 |                 0 |              11 |                156229 |                 3037 |            8381119 |       1552116 |            15229 |        40730877 |                     0 |      39317822 | 2017-02-04 00:20:10.334424+01

 2017-02-04 01:20:26.50327+01 | 1486167626.50327 |                 0 |              11 |                156229 |                 3037 |            8381119 |       1552616 |            15234 |        40730877 |                     0 |      39333453 | 2017-02-04 00:20:10.334424+01

 2017-02-04 01:20:27.577282+01 | 1486167627.57728 |                 0 |              11 |                156229 |                 3037 |            8381119 |       1553216 |            15240 |        40730877 |                     0 |      39352317 | 2017-02-04 00:20:10.334424+01

 2017-02-04 01:20:28.649303+01 | 1486167628.6493 |                 0 |              11 |                156229 |                 3037 |            8381119 |       1553716 |            15245 |        40730877 |                     0 |      39366847 | 2017-02-04 00:20:10.334424+01

 2017-02-04 01:20:29.730189+01 | 1486167629.73019 |                 0 |              11 |                156229 |                 3037 |            8381119 |       1554216 |            15250 |        40730877 |                     0 |      39381363 | 2017-02-04 00:20:10.334424+01

 2017-02-04 01:20:30.808479+01 | 1486167630.80848 |                 0 |              11 |                156229 |                 3037 |            8381119 |       1554816 |            15256 |        41237765 |                     0 |      39399550 | 2017-02-04 00:20:10.334424+01

 2017-02-04 01:20:31.894067+01 | 1486167631.89407 |                 0 |              11 |                156229 |                 3037 |            8381119 |       1555316 |            15261 |        41237765 |                     0 |      39414167 | 2017-02-04 00:20:10.334424+01

 2017-02-04 01:20:32.972519+01 | 1486167632.97252 |                 0 |              11 |                156229 |                 3037 |            8381119 |       1555916 |            15267 |        41237765 |                     0 |      39431169 | 2017-02-04 00:20:10.334424+01

 2017-02-04 01:20:34.05361+01 | 1486167634.05361 |                 0 |              11 |                156229 |                 3037 |            8381119 |       1556416 |            15272 |        41237765 |                     0 |      39444123 | 2017-02-04 00:20:10.334424+01

 2017-02-04 01:20:35.130792+01 | 1486167635.13079 |                 0 |              11 |                156229 |                 3037 |            8381119 |       1556916 |            15277 |        41237765 |                     0 |      39459739 | 2017-02-04 00:20:10.334424+01

 2017-02-04 01:20:36.203661+01 | 1486167636.20366 |                 0 |              11 |                156229 |                 3037 |            8381119 |       1557516 |            15283 |        41237765 |                     0 |      39477945 | 2017-02-04 00:20:10.334424+01

 2017-02-04 01:20:37.284996+01 | 1486167637.285 |                 0 |              11 |                156229 |                 3037 |            8381119 |       1558016 |            15288 |        41237765 |                     0 |      39493139 | 2017-02-04 00:20:10.334424+01

 2017-02-04 01:20:38.364208+01 | 1486167638.36421 |                 0 |              11 |                156229 |                 3037 |            8381119 |       1558516 |            15293 |        41237765 |                     0 |      39507372 | 2017-02-04 00:20:10.334424+01

 2017-02-04 01:20:39.439622+01 | 1486167639.43962 |                 0 |              11 |                156229 |                 3037 |            8381119 |       1559116 |            15299 |        41237765 |                     0 |      39525684 | 2017-02-04 00:20:10.334424+01

 2017-02-04 01:20:40.517504+01 | 1486167640.5175 |                 0 |              11 |                156229 |                 3037 |            8381119 |       1559616 |            15304 |        41237765 |                     0 |      39539571 | 2017-02-04 00:20:10.334424+01

 2017-02-04 01:20:41.59146+01 | 1486167641.59146 |                 0 |              11 |                156229 |                 3037 |            8381119 |       1560116 |            15309 |        41237765 |                     0 |      39554716 | 2017-02-04 00:20:10.334424+01

 2017-02-04 01:20:42.67248+01 | 1486167642.67248 |                 0 |              11 |                156229 |                 3037 |            8381119 |       1560716 |            15315 |        41237765 |                     0 |      39571778 | 2017-02-04 00:20:10.334424+01

 2017-02-04 01:20:43.734894+01 | 1486167643.73489 |                 0 |              11 |                156229 |                 3037 |            8381119 |       1561116 |            15319 |        41237765 |                     0 |      39583371 | 2017-02-04 00:20:10.334424+01

 2017-02-04 01:20:44.815536+01 | 1486167644.81554 |                 0 |              11 |                156229 |                 3037 |            8381119 |       1561716 |            15325 |        41237765 |                     0 |      39602753 | 2017-02-04 00:20:10.334424+01

 2017-02-04 01:20:45.892534+01 | 1486167645.89253 |                 0 |              11 |                156229 |                 3037 |            8381119 |       1562216 |            15330 |        41237765 |                     0 |      39615679 | 2017-02-04 00:20:10.334424+01

 2017-02-04 01:20:46.973559+01 | 1486167646.97356 |                 0 |              11 |                156229 |                 3037 |            8381119 |       1562816 |            15336 |        41237765 |                     0 |      39633445 | 2017-02-04 00:20:10.334424+01

 2017-02-04 01:20:48.047364+01 | 1486167648.04736 |                 0 |              11 |                156229 |                 3037 |            8381119 |       1563316 |            15341 |        41237765 |                     0 |      39648425 | 2017-02-04 00:20:10.334424+01

 2017-02-04 01:20:49.118488+01 | 1486167649.11849 |                 0 |              11 |                156229 |                 3037 |            8381119 |       1563816 |            15346 |        41237765 |                     0 |      39663854 | 2017-02-04 00:20:10.334424+01

 2017-02-04 01:20:50.189281+01 | 1486167650.18928 |                 0 |              11 |                156229 |                 3037 |            8381119 |       1564416 |            15352 |        41237765 |                     0 |      39681552 | 2017-02-04 00:20:10.334424+01

 2017-02-04 01:20:51.255893+01 | 1486167651.25589 |                 0 |              11 |                156229 |                 3037 |            8381119 |       1564916 |            15357 |        41237765 |                     0 |      39696483 | 2017-02-04 00:20:10.334424+01

 2017-02-04 01:20:52.325439+01 | 1486167652.32544 |                 0 |              11 |                156229 |                 3037 |            8381119 |       1565416 |            15362 |        41237765 |                     0 |      39710805 | 2017-02-04 00:20:10.334424+01

 2017-02-04 01:20:53.399685+01 | 1486167653.39968 |                 0 |              11 |                156229 |                 3037 |            8381119 |       1566016 |            15368 |        41237765 |                     0 |      39728345 | 2017-02-04 00:20:10.334424+01

 2017-02-04 01:20:54.472436+01 | 1486167654.47244 |                 0 |              11 |                156229 |                 3037 |            8381119 |       1566516 |            15373 |        41237765 |                     0 |      39742268 | 2017-02-04 00:20:10.334424+01

 2017-02-04 01:20:55.552813+01 | 1486167655.55281 |                 0 |              11 |                156229 |                 3037 |            8381119 |       1567016 |            15378 |        41237765 |                     0 |      39755669 | 2017-02-04 00:20:10.334424+01

 2017-02-04 01:20:56.637789+01 | 1486167656.63779 |                 0 |              11 |                156229 |                 3037 |            8381119 |       1567616 |            15384 |        41237765 |                     0 |      39769284 | 2017-02-04 00:20:10.334424+01

 2017-02-04 01:20:57.717755+01 | 1486167657.71776 |                 0 |              11 |                156229 |                 3037 |            8381119 |       1568116 |            15389 |        41237765 |                     0 |      39781648 | 2017-02-04 00:20:10.334424+01

 2017-02-04 01:20:58.796412+01 | 1486167658.79641 |                 0 |              11 |                156229 |                 3037 |            8381119 |       1568616 |            15394 |        41237765 |                     0 |      39792357 | 2017-02-04 00:20:10.334424+01

 2017-02-04 01:20:59.882436+01 | 1486167659.88244 |                 0 |              11 |                156229 |                 3037 |            8381119 |       1569216 |            15400 |        41237765 |                     0 |      39806432 | 2017-02-04 00:20:10.334424+01

 2017-02-04 01:21:00.955573+01 | 1486167660.95557 |                 0 |              11 |                156229 |                 3037 |            8381119 |       1569716 |            15405 |        41237765 |                     0 |      39818971 | 2017-02-04 00:20:10.334424+01

 2017-02-04 01:21:02.033428+01 | 1486167662.03343 |                 0 |              11 |                156229 |                 3037 |            8381119 |       1570216 |            15410 |        41237765 |                     0 |      39831370 | 2017-02-04 00:20:10.334424+01

 2017-02-04 01:21:03.105197+01 | 1486167663.1052 |                 0 |              11 |                156229 |                 3037 |            8381119 |       1570816 |            15416 |        41237765 |                     0 |      39849901 | 2017-02-04 00:20:10.334424+01

 2017-02-04 01:21:04.180963+01 | 1486167664.18096 |                 0 |              11 |                156229 |                 3037 |            8381119 |       1571316 |            15421 |        41237765 |                     0 |      39863274 | 2017-02-04 00:20:10.334424+01

 2017-02-04 01:21:05.256632+01 | 1486167665.25663 |                 0 |              11 |                156229 |                 3037 |            8381119 |       1571816 |            15426 |        41744954 |                     0 |      39877376 | 2017-02-04 00:20:10.334424+01

 2017-02-04 01:21:06.332147+01 | 1486167666.33215 |                 0 |              11 |                156229 |                 3037 |            8381119 |       1572416 |            15432 |        41744954 |                     0 |      39894405 | 2017-02-04 00:20:10.334424+01

 2017-02-04 01:21:07.41514+01 | 1486167667.41514 |                 0 |              11 |                156229 |                 3037 |            8381119 |       1572916 |            15437 |        41744954 |                     0 |      39909380 | 2017-02-04 00:20:10.334424+01

 2017-02-04 01:21:08.490294+01 | 1486167668.49029 |                 0 |              11 |                156229 |                 3037 |            8381119 |       1573416 |            15442 |        41744954 |                     0 |      39923725 | 2017-02-04 00:20:10.334424+01

 2017-02-04 01:21:09.568002+01 | 1486167669.568 |                 0 |              11 |                156229 |                 3037 |            8381119 |       1574016 |            15448 |        41744954 |                     0 |      39941438 | 2017-02-04 00:20:10.334424+01

 2017-02-04 01:21:10.643797+01 | 1486167670.6438 |                 0 |              11 |                156229 |                 3037 |            8381119 |       1574516 |            15453 |        41744954 |                     0 |      39955187 | 2017-02-04 00:20:10.334424+01

 2017-02-04 01:21:11.716169+01 | 1486167671.71617 |                 0 |              11 |                156229 |                 3037 |            8381119 |       1575016 |            15458 |        41744954 |                     0 |      39970732 | 2017-02-04 00:20:10.334424+01

 2017-02-04 01:21:12.79595+01 | 1486167672.79595 |                 0 |              11 |                156229 |                 3037 |            8381119 |       1575616 |            15464 |        41744954 |                     0 |      39987425 | 2017-02-04 00:20:10.334424+01

 2017-02-04 01:21:13.868193+01 | 1486167673.86819 |                 0 |              11 |                156229 |                 3037 |            8381119 |       1576116 |            15469 |        41744954 |                     0 |      40001941 | 2017-02-04 00:20:10.334424+01

 2017-02-04 01:21:14.955218+01 | 1486167674.95522 |                 0 |              11 |                156229 |                 3037 |            8381119 |       1576616 |            15474 |        41744954 |                     0 |      40017241 | 2017-02-04 00:20:10.334424+01

 2017-02-04 01:21:16.028754+01 | 1486167676.02875 |                 0 |              11 |                156229 |                 3037 |            8381119 |       1577216 |            15480 |        41744954 |                     0 |      40033950 | 2017-02-04 00:20:10.334424+01

 2017-02-04 01:21:17.105008+01 | 1486167677.10501 |                 0 |              11 |                156229 |                 3037 |            8381119 |       1577716 |            15485 |        41744954 |                     0 |      40049271 | 2017-02-04 00:20:10.334424+01

 2017-02-04 01:21:18.187013+01 | 1486167678.18701 |                 0 |              11 |                156229 |                 3037 |            8381119 |       1578216 |            15490 |        41744954 |                     0 |      40062692 | 2017-02-04 00:20:10.334424+01

 2017-02-04 01:21:19.257128+01 | 1486167679.25713 |                 0 |              11 |                156229 |                 3037 |            8381119 |       1578816 |            15496 |        41744954 |                     0 |      40080048 | 2017-02-04 00:20:10.334424+01

 2017-02-04 01:21:20.330688+01 | 1486167680.33069 |                 0 |              11 |                156229 |                 3037 |            8381119 |       1579316 |            15501 |        41744954 |                     0 |      40093971 | 2017-02-04 00:20:10.334424+01

 2017-02-04 01:21:21.409472+01 | 1486167681.40947 |                 0 |              11 |                156229 |                 3037 |            8381119 |       1579816 |            15506 |        41744954 |                     0 |      40108062 | 2017-02-04 00:20:10.334424+01

 2017-02-04 01:21:22.490668+01 | 1486167682.49067 |                 0 |              11 |                156229 |                 3037 |            8381119 |       1580416 |            15512 |        41744954 |                     0 |      40125036 | 2017-02-04 00:20:10.334424+01

 2017-02-04 01:21:23.578242+01 | 1486167683.57824 |                 0 |              11 |                156229 |                 3037 |            8381119 |       1580916 |            15517 |        41744954 |                     0 |      40140332 | 2017-02-04 00:20:10.334424+01

 2017-02-04 01:21:24.656066+01 | 1486167684.65607 |                 0 |              11 |                156229 |                 3037 |            8381119 |       1581416 |            15522 |        41744954 |                     0 |      40153664 | 2017-02-04 00:20:10.334424+01

 2017-02-04 01:21:25.73549+01 | 1486167685.73549 |                 0 |              11 |                156229 |                 3037 |            8381119 |       1582016 |            15528 |        41744954 |                     0 |      40170886 | 2017-02-04 00:20:10.334424+01

 2017-02-04 01:21:26.810058+01 | 1486167686.81006 |                 0 |              11 |                156229 |                 3037 |            8381119 |       1582516 |            15533 |        41744954 |                     0 |      40183610 | 2017-02-04 00:20:10.334424+01

 2017-02-04 01:21:27.885401+01 | 1486167687.8854 |                 0 |              11 |                156229 |                 3037 |            8381119 |       1583016 |            15538 |        41744954 |                     0 |      40198883 | 2017-02-04 00:20:10.334424+01

 2017-02-04 01:21:28.956589+01 | 1486167688.95659 |                 0 |              11 |                156229 |                 3037 |            8381119 |       1583616 |            15544 |        41744954 |                     0 |      40216133 | 2017-02-04 00:20:10.334424+01

 2017-02-04 01:21:30.031831+01 | 1486167690.03183 |                 0 |              11 |                156229 |                 3037 |            8381119 |       1584116 |            15549 |        41744954 |                     0 |      40230942 | 2017-02-04 00:20:10.334424+01

 2017-02-04 01:21:31.114467+01 | 1486167691.11447 |                 0 |              11 |                156229 |                 3037 |            8381119 |       1584616 |            15554 |        41744954 |                     0 |      40244440 | 2017-02-04 00:20:10.334424+01

 2017-02-04 01:21:32.189905+01 | 1486167692.1899 |                 0 |              11 |                156229 |                 3037 |            8381119 |       1585216 |            15560 |        41744954 |                     0 |      40262389 | 2017-02-04 00:20:10.334424+01

 2017-02-04 01:21:33.263881+01 | 1486167693.26388 |                 0 |              11 |                156229 |                 3037 |            8381119 |       1585716 |            15565 |        41744954 |                     0 |      40276055 | 2017-02-04 00:20:10.334424+01

 2017-02-04 01:21:34.342405+01 | 1486167694.34241 |                 0 |              11 |                156229 |                 3037 |            8381119 |       1586216 |            15570 |        41744954 |                     0 |      40290747 | 2017-02-04 00:20:10.334424+01

 2017-02-04 01:21:35.415642+01 | 1486167695.41564 |                 0 |              11 |                156229 |                 3037 |            8381119 |       1586816 |            15576 |        41744954 |                     0 |      40307708 | 2017-02-04 00:20:10.334424+01

 2017-02-04 01:21:36.48865+01 | 1486167696.48865 |                 0 |              11 |                156229 |                 3037 |            8381119 |       1587316 |            15581 |        41744954 |                     0 |      40322438 | 2017-02-04 00:20:10.334424+01

 2017-02-04 01:21:37.572363+01 | 1486167697.57236 |                 0 |              11 |                156229 |                 3037 |            8381119 |       1587816 |            15586 |        41744954 |                     0 |      40337551 | 2017-02-04 00:20:10.334424+01

 2017-02-04 01:21:38.648181+01 | 1486167698.64818 |                 0 |              11 |                156229 |                 3037 |            8381119 |       1588416 |            15592 |        42252743 |                     0 |      40354435 | 2017-02-04 00:20:10.334424+01

 2017-02-04 01:21:39.727917+01 | 1486167699.72792 |                 0 |              11 |                156229 |                 3037 |            8381119 |       1588916 |            15597 |        42252743 |                     0 |      40368388 | 2017-02-04 00:20:10.334424+01

 2017-02-04 01:21:40.802769+01 | 1486167700.80277 |                 0 |              11 |                156229 |                 3037 |            8381119 |       1589416 |            15602 |        42252743 |                     0 |      40382888 | 2017-02-04 00:20:10.334424+01

 2017-02-04 01:21:41.878065+01 | 1486167701.87807 |                 0 |              11 |                156229 |                 3037 |            8381119 |       1590016 |            15608 |        42252743 |                     0 |      40400419 | 2017-02-04 00:20:10.334424+01

 2017-02-04 01:21:42.956006+01 | 1486167702.95601 |                 0 |              11 |                156229 |                 3037 |            8381119 |       1590516 |            15613 |        42252743 |                     0 |      40415703 | 2017-02-04 00:20:10.334424+01

 2017-02-04 01:21:44.033414+01 | 1486167704.03341 |                 0 |              11 |                156229 |                 3037 |            8381119 |       1591016 |            15618 |        42252743 |                     0 |      40431356 | 2017-02-04 00:20:10.334424+01

 2017-02-04 01:21:45.10573+01 | 1486167705.10573 |                 0 |              11 |                156229 |                 3037 |            8381119 |       1591616 |            15624 |        42252743 |                     0 |      40448808 | 2017-02-04 00:20:10.334424+01

 2017-02-04 01:21:46.177279+01 | 1486167706.17728 |                 0 |              11 |                156229 |                 3037 |            8381119 |       1592116 |            15629 |        42252743 |                     0 |      40463902 | 2017-02-04 00:20:10.334424+01

 2017-02-04 01:21:47.248704+01 | 1486167707.2487 |                 0 |              11 |                156229 |                 3037 |            8381119 |       1592616 |            15634 |        42252743 |                     0 |      40476616 | 2017-02-04 00:20:10.334424+01

 2017-02-04 01:21:48.321076+01 | 1486167708.32108 |                 0 |              11 |                156229 |                 3037 |            8381119 |       1593216 |            15640 |        42252743 |                     0 |      40495792 | 2017-02-04 00:20:10.334424+01

 2017-02-04 01:21:49.397026+01 | 1486167709.39703 |                 0 |              11 |                156229 |                 3037 |            8381119 |       1593716 |            15645 |        42252743 |                     0 |      40509908 | 2017-02-04 00:20:10.334424+01

 2017-02-04 01:21:50.480886+01 | 1486167710.48089 |                 0 |              11 |                156229 |                 3037 |            8381119 |       1594216 |            15650 |        42252743 |                     0 |      40524925 | 2017-02-04 00:20:10.334424+01

 2017-02-04 01:21:51.559635+01 | 1486167711.55963 |                 0 |              11 |                156229 |                 3037 |            8381119 |       1594816 |            15656 |        42252743 |                     0 |      40541206 | 2017-02-04 00:20:10.334424+01

 2017-02-04 01:21:52.637705+01 | 1486167712.63771 |                 0 |              11 |                156229 |                 3037 |            8381119 |       1595316 |            15661 |        42252743 |                     0 |      40555943 | 2017-02-04 00:20:10.334424+01

 2017-02-04 01:21:53.72856+01 | 1486167713.72856 |                 0 |              11 |                156229 |                 3037 |            8381119 |       1595816 |            15666 |        42252743 |                     0 |      40569585 | 2017-02-04 00:20:10.334424+01

 2017-02-04 01:21:54.808808+01 | 1486167714.80881 |                 0 |              11 |                156229 |                 3037 |            8381119 |       1596416 |            15672 |        42252743 |                     0 |      40584033 | 2017-02-04 00:20:10.334424+01

