starting vacuum...end.
transaction type: skewed-n.sql
scaling factor: 100
query mode: prepared
number of clients: 32
number of threads: 8
duration: 300 s
number of transactions actually processed: 12218352
latency average = 0.786 ms
tps = 40725.036748 (including connections establishing)
tps = 40725.612587 (excluding connections establishing)
