 2017-02-05 17:50:08.605768+01 | 1486313408.60577 | 1C/F8A6D208              |          124430766600

 2017-02-05 17:50:09.699205+01 | 1486313409.6992 | 1D/643FDA0               |          124659170720

 2017-02-05 17:50:10.7794+01 | 1486313410.7794 | 1D/F15CFD0               |          124807139280

 2017-02-05 17:50:11.851921+01 | 1486313411.85192 | 1D/14DAF638              |          124903945784

 2017-02-05 17:50:12.92957+01 | 1486313412.92957 | 1D/1909CFF0              |          124974125040

 2017-02-05 17:50:14.004546+01 | 1486313414.00455 | 1D/1C5BCBB0              |          125029829552

 2017-02-05 17:50:15.080426+01 | 1486313415.08043 | 1D/1EF267F8              |          125073254392

 2017-02-05 17:50:16.156972+01 | 1486313416.15697 | 1D/21415138              |          125111980344

 2017-02-05 17:50:17.23598+01 | 1486313417.23598 | 1D/236544A8              |          125147890856

 2017-02-05 17:50:18.31008+01 | 1486313418.31008 | 1D/255A2B58              |          125180717912

 2017-02-05 17:50:19.381+01 | 1486313419.381 | 1D/271BC9C8              |          125210184136

 2017-02-05 17:50:20.455389+01 | 1486313420.45539 | 1D/28CED430              |          125238694960

 2017-02-05 17:50:21.53612+01 | 1486313421.53612 | 1D/2A6114A8              |          125265056936

 2017-02-05 17:50:22.627557+01 | 1486313422.62756 | 1D/2BE2B020              |          125290328096

 2017-02-05 17:50:23.726616+01 | 1486313423.72662 | 1D/2D4AF280              |          125313938048

 2017-02-05 17:50:24.800517+01 | 1486313424.80052 | 1D/2E962070              |          125335642224

 2017-02-05 17:50:25.880535+01 | 1486313425.88053 | 1D/2FDE8718              |          125357164312

 2017-02-05 17:50:26.956424+01 | 1486313426.95642 | 1D/3128D2D0              |          125378810576

 2017-02-05 17:50:28.033953+01 | 1486313428.03395 | 1D/32693648              |          125399807560

 2017-02-05 17:50:29.109231+01 | 1486313429.10923 | 1D/3394F820              |          125419452448

 2017-02-05 17:50:30.186559+01 | 1486313430.18656 | 1D/34C5DB08              |          125439433480

 2017-02-05 17:50:31.264686+01 | 1486313431.26469 | 1D/35E8EC28              |          125458508840

 2017-02-05 17:50:32.342259+01 | 1486313432.34226 | 1D/37195B08              |          125478460168

 2017-02-05 17:50:33.414429+01 | 1486313433.41443 | 1D/38334948              |          125496936776

 2017-02-05 17:50:34.494015+01 | 1486313434.49401 | 1D/39447698              |          125514839704

 2017-02-05 17:50:35.587948+01 | 1486313435.58795 | 1D/3A57BD58              |          125532880216

 2017-02-05 17:50:36.670966+01 | 1486313436.67097 | 1D/3B619658              |          125550302808

 2017-02-05 17:50:37.744529+01 | 1486313437.74453 | 1D/3C674480              |          125567452288

 2017-02-05 17:50:38.816574+01 | 1486313438.81657 | 1D/3D651C40              |          125584088128

 2017-02-05 17:50:39.898085+01 | 1486313439.89809 | 1D/3E5BE280              |          125600260736

 2017-02-05 17:50:40.979263+01 | 1486313440.97926 | 1D/3F740EA8              |          125618622120

 2017-02-05 17:50:42.055458+01 | 1486313442.05546 | 1D/40DB1750              |          125642151760

 2017-02-05 17:50:43.127444+01 | 1486313443.12744 | 1D/426F8DF0              |          125668658672

 2017-02-05 17:50:44.207285+01 | 1486313444.20728 | 1D/44162990              |          125696354704

 2017-02-05 17:50:45.277924+01 | 1486313445.27792 | 1D/45C181E8              |          125724361192

 2017-02-05 17:50:46.352882+01 | 1486313446.35288 | 1D/476E0E58              |          125752446552

 2017-02-05 17:50:47.429152+01 | 1486313447.42915 | 1D/4908D7B0              |          125779367856

 2017-02-05 17:50:48.507412+01 | 1486313448.50741 | 1D/4A91C278              |          125805118072

 2017-02-05 17:50:49.588723+01 | 1486313449.58872 | 1D/4C0431E8              |          125829394920

 2017-02-05 17:50:50.663419+01 | 1486313450.66342 | 1D/4D45F760              |          125850482528

 2017-02-05 17:50:51.744309+01 | 1486313451.74431 | 1D/4E3B5528              |          125866562856

 2017-02-05 17:50:52.824017+01 | 1486313452.82402 | 1D/4F4E58A8              |          125884586152

 2017-02-05 17:50:53.903577+01 | 1486313453.90358 | 1D/501A4988              |          125897951624

 2017-02-05 17:50:54.983102+01 | 1486313454.9831 | 1D/50F194E8              |          125912061160

 2017-02-05 17:50:56.073147+01 | 1486313456.07315 | 1D/51C36960              |          125925812576

 2017-02-05 17:50:57.148585+01 | 1486313457.14859 | 1D/5288AA70              |          125938739824

 2017-02-05 17:50:58.226287+01 | 1486313458.22629 | 1D/534C4F18              |          125951561496

 2017-02-05 17:50:59.304699+01 | 1486313459.3047 | 1D/540CEB88              |          125964184456

 2017-02-05 17:51:00.383523+01 | 1486313460.38352 | 1D/54D08198              |          125977002392

 2017-02-05 17:51:01.471117+01 | 1486313461.47112 | 1D/55929FC8              |          125989724104

 2017-02-05 17:51:02.548481+01 | 1486313462.54848 | 1D/565A0218              |          126002790936

 2017-02-05 17:51:03.637603+01 | 1486313463.6376 | 1D/571D3C28              |          126015585320

 2017-02-05 17:51:04.720789+01 | 1486313464.72079 | 1D/57E32AA0              |          126028556960

 2017-02-05 17:51:05.800767+01 | 1486313465.80077 | 1D/589E57D8              |          126040823768

 2017-02-05 17:51:06.882389+01 | 1486313466.88239 | 1D/5962CC88              |          126053698696

 2017-02-05 17:51:07.959549+01 | 1486313467.95955 | 1D/5A24FFD8              |          126066425816

 2017-02-05 17:51:09.04129+01 | 1486313469.04129 | 1D/5AEBA890              |          126079445136

 2017-02-05 17:51:10.111015+01 | 1486313470.11102 | 1D/5B9DAF88              |          126091112328

 2017-02-05 17:51:11.18627+01 | 1486313471.18627 | 1D/5C5DF938              |          126103714104

 2017-02-05 17:51:12.267212+01 | 1486313472.26721 | 1D/5D195650              |          126115993168

 2017-02-05 17:51:13.354018+01 | 1486313473.35402 | 1D/5DD9C398              |          126128604056

 2017-02-05 17:51:14.435448+01 | 1486313474.43545 | 1D/5E94C680              |          126140860032

 2017-02-05 17:51:15.51624+01 | 1486313475.51624 | 1D/5F524C30              |          126153280560

 2017-02-05 17:51:16.590786+01 | 1486313476.59079 | 1D/600F7070              |          126165676144

 2017-02-05 17:51:17.667553+01 | 1486313477.66755 | 1D/60CF57A0              |          126178252704

 2017-02-05 17:51:18.756998+01 | 1486313478.757 | 1D/618E27F0              |          126190757872

 2017-02-05 17:51:19.836883+01 | 1486313479.83688 | 1D/624A3100              |          126203080960

 2017-02-05 17:51:20.922975+01 | 1486313480.92298 | 1D/63005D48              |          126215019848

 2017-02-05 17:51:22.003682+01 | 1486313482.00368 | 1D/63BA8F28              |          126227222312

 2017-02-05 17:51:23.083908+01 | 1486313483.08391 | 1D/647934E0              |          126239716576

 2017-02-05 17:51:24.162064+01 | 1486313484.16206 | 1D/652C0EA0              |          126251437728

 2017-02-05 17:51:25.246867+01 | 1486313485.24687 | 1D/65E84768              |          126263773032

 2017-02-05 17:51:26.320464+01 | 1486313486.32046 | 1D/66A761F8              |          126276297208

 2017-02-05 17:51:27.400002+01 | 1486313487.4 | 1D/67638CC0              |          126288628928

 2017-02-05 17:51:28.483022+01 | 1486313488.48302 | 1D/682674F8              |          126301402360

 2017-02-05 17:51:29.563413+01 | 1486313489.56341 | 1D/68EB3C30              |          126314298416

 2017-02-05 17:51:30.63524+01 | 1486313490.63524 | 1D/69ADA298              |          126327038616

 2017-02-05 17:51:31.721685+01 | 1486313491.72168 | 1D/6A6C1B70              |          126339521392

 2017-02-05 17:51:32.806992+01 | 1486313492.80699 | 1D/6B2737A8              |          126351783848

 2017-02-05 17:51:33.877683+01 | 1486313493.87768 | 1D/6BE192F0              |          126363996912

 2017-02-05 17:51:34.959992+01 | 1486313494.95999 | 1D/6CA477F0              |          126376769520

 2017-02-05 17:51:36.047826+01 | 1486313496.04783 | 1D/6D5C6FC8              |          126388826056

 2017-02-05 17:51:37.128026+01 | 1486313497.12803 | 1D/6E167190              |          126401016208

 2017-02-05 17:51:38.201184+01 | 1486313498.20118 | 1D/6EC61EC0              |          126412529344

 2017-02-05 17:51:39.281099+01 | 1486313499.2811 | 1D/6F8DC898              |          126425614488

 2017-02-05 17:51:40.358697+01 | 1486313500.3587 | 1D/703DE658              |          126437156440

 2017-02-05 17:51:41.436626+01 | 1486313501.43663 | 1D/70F4D928              |          126449146152

 2017-02-05 17:51:42.51706+01 | 1486313502.51706 | 1D/71B1A620              |          126461519392

 2017-02-05 17:51:43.595671+01 | 1486313503.59567 | 1D/7270C9B8              |          126474045880

 2017-02-05 17:51:44.681477+01 | 1486313504.68148 | 1D/7336E9D0              |          126487030224

 2017-02-05 17:51:45.754716+01 | 1486313505.75472 | 1D/73F74F10              |          126499639056

 2017-02-05 17:51:46.838772+01 | 1486313506.83877 | 1D/74B9ADB8              |          126512377272

 2017-02-05 17:51:47.91731+01 | 1486313507.91731 | 1D/757B5788              |          126525069192

 2017-02-05 17:51:48.99886+01 | 1486313508.99886 | 1D/76382C10              |          126537444368

 2017-02-05 17:51:50.078417+01 | 1486313510.07842 | 1D/76F0B988              |          126549539208

 2017-02-05 17:51:51.156537+01 | 1486313511.15654 | 1D/77B1B930              |          126562187568

 2017-02-05 17:51:52.233973+01 | 1486313512.23397 | 1D/786DD938              |          126574516536

 2017-02-05 17:51:53.317737+01 | 1486313513.31774 | 1D/792FBCF0              |          126587223280

 2017-02-05 17:51:54.384429+01 | 1486313514.38443 | 1D/79F551D8              |          126600171992

 2017-02-05 17:51:55.467748+01 | 1486313515.46775 | 1D/7ABF0CA0              |          126613392544

 2017-02-05 17:51:56.544324+01 | 1486313516.54432 | 1D/7B93C200              |          126627332608

 2017-02-05 17:51:57.629394+01 | 1486313517.62939 | 1D/7C7AEAE8              |          126642481896

 2017-02-05 17:51:58.706848+01 | 1486313518.70685 | 1D/7D82C258              |          126659773016

 2017-02-05 17:51:59.786889+01 | 1486313519.78689 | 1D/7EAEE160              |          126679441760

 2017-02-05 17:52:00.876643+01 | 1486313520.87664 | 1D/7FDDF800              |          126699304960

 2017-02-05 17:52:01.958499+01 | 1486313521.9585 | 1D/80F6F750              |          126717720400

 2017-02-05 17:52:03.032581+01 | 1486313523.03258 | 1D/820A5040              |          126735765568

 2017-02-05 17:52:04.106377+01 | 1486313524.10638 | 1D/82D248F0              |          126748870896

 2017-02-05 17:52:05.196902+01 | 1486313525.1969 | 1D/8388E030              |          126760837168

 2017-02-05 17:52:06.268755+01 | 1486313526.26875 | 1D/844B2768              |          126773569384

 2017-02-05 17:52:07.345999+01 | 1486313527.346 | 1D/850FC8E0              |          126786455776

 2017-02-05 17:52:08.423575+01 | 1486313528.42357 | 1D/85D4C940              |          126799366464

 2017-02-05 17:52:09.501121+01 | 1486313529.50112 | 1D/86BA8100              |          126814421248

 2017-02-05 17:52:10.582111+01 | 1486313530.58211 | 1D/877C0B70              |          126827105136

 2017-02-05 17:52:11.668275+01 | 1486313531.66828 | 1D/8827F200              |          126838371888

 2017-02-05 17:52:12.743551+01 | 1486313532.74355 | 1D/88E06170              |          126850457968

 2017-02-05 17:52:13.831053+01 | 1486313533.83105 | 1D/8997BB80              |          126862474112

 2017-02-05 17:52:14.909975+01 | 1486313534.90998 | 1D/8A57CE60              |          126875061856

 2017-02-05 17:52:15.985901+01 | 1486313535.9859 | 1D/8B1A39C0              |          126887803328

 2017-02-05 17:52:17.063251+01 | 1486313537.06325 | 1D/8BD97258              |          126900335192

 2017-02-05 17:52:18.135619+01 | 1486313538.13562 | 1D/8C9530F0              |          126912639216

 2017-02-05 17:52:19.212401+01 | 1486313539.2124 | 1D/8D478138              |          126924325176

 2017-02-05 17:52:20.291816+01 | 1486313540.29182 | 1D/8DFE61A0              |          126936310176

 2017-02-05 17:52:21.365107+01 | 1486313541.36511 | 1D/8EB94FB0              |          126948560816

 2017-02-05 17:52:22.442972+01 | 1486313542.44297 | 1D/8F72F138              |          126960726328

 2017-02-05 17:52:23.515338+01 | 1486313543.51534 | 1D/90307748              |          126973146952

 2017-02-05 17:52:24.587617+01 | 1486313544.58762 | 1D/90F19128              |          126985802024

 2017-02-05 17:52:25.670922+01 | 1486313545.67092 | 1D/91B7D3E8              |          126998795240

 2017-02-05 17:52:26.743122+01 | 1486313546.74312 | 1D/92890ED0              |          127012507344

 2017-02-05 17:52:27.820503+01 | 1486313547.8205 | 1D/936017F0              |          127026599920

 2017-02-05 17:52:28.896117+01 | 1486313548.89612 | 1D/9442F938              |          127041468728

 2017-02-05 17:52:29.975571+01 | 1486313549.97557 | 1D/95286CB0              |          127056506032

 2017-02-05 17:52:31.059348+01 | 1486313551.05935 | 1D/95F7AA70              |          127070087792

 2017-02-05 17:52:32.132397+01 | 1486313552.1324 | 1D/96AE03A8              |          127082038184

 2017-02-05 17:52:33.210693+01 | 1486313553.21069 | 1D/975A0258              |          127093310040

 2017-02-05 17:52:34.288615+01 | 1486313554.28861 | 1D/981B7610              |          127105988112

 2017-02-05 17:52:35.354144+01 | 1486313555.35414 | 1D/98E6C3F8              |          127119311864

 2017-02-05 17:52:36.432328+01 | 1486313556.43233 | 1D/99B516A0              |          127132833440

 2017-02-05 17:52:37.490051+01 | 1486313557.49005 | 1D/9A6B5878              |          127144777848

 2017-02-05 17:52:38.566593+01 | 1486313558.56659 | 1D/9B20DF58              |          127156674392

 2017-02-05 17:52:39.652468+01 | 1486313559.65247 | 1D/9BD05D20              |          127168175392

 2017-02-05 17:52:40.738871+01 | 1486313560.73887 | 1D/9C857BF8              |          127180045304

 2017-02-05 17:52:41.819889+01 | 1486313561.81989 | 1D/9D3FF878              |          127192266872

 2017-02-05 17:52:42.893534+01 | 1486313562.89353 | 1D/9DE10CF8              |          127202823416

 2017-02-05 17:52:43.976707+01 | 1486313563.97671 | 1D/9E9BF3E0              |          127215072224

 2017-02-05 17:52:45.058381+01 | 1486313565.05838 | 1D/9F52BF68              |          127227051880

 2017-02-05 17:52:46.13951+01 | 1486313566.13951 | 1D/A00DF288              |          127239320200

 2017-02-05 17:52:47.212419+01 | 1486313567.21242 | 1D/A0C41F88              |          127251259272

 2017-02-05 17:52:48.291943+01 | 1486313568.29194 | 1D/A1787980              |          127263078784

 2017-02-05 17:52:49.3721+01 | 1486313569.3721 | 1D/A22F2658              |          127275050584

 2017-02-05 17:52:50.443995+01 | 1486313570.44399 | 1D/A2EB7068              |          127287390312

 2017-02-05 17:52:51.517547+01 | 1486313571.51755 | 1D/A39F16D0              |          127299163856

 2017-02-05 17:52:52.592935+01 | 1486313572.59294 | 1D/A4501E70              |          127310765680

 2017-02-05 17:52:53.674906+01 | 1486313573.67491 | 1D/A50A87C0              |          127322982336

 2017-02-05 17:52:54.74721+01 | 1486313574.74721 | 1D/A5BD0738              |          127334680376

 2017-02-05 17:52:55.829045+01 | 1486313575.82905 | 1D/A678DC28              |          127346990120

 2017-02-05 17:52:56.901429+01 | 1486313576.90143 | 1D/A72F7740              |          127358957376

 2017-02-05 17:52:57.976261+01 | 1486313577.97626 | 1D/A7E04D68              |          127370546536

 2017-02-05 17:52:59.050092+01 | 1486313579.05009 | 1D/A8950D88              |          127382392200

 2017-02-05 17:53:00.138687+01 | 1486313580.13869 | 1D/A953DE18              |          127394897432

 2017-02-05 17:53:01.217612+01 | 1486313581.21761 | 1D/AA0DDB18              |          127407086360

 2017-02-05 17:53:02.299776+01 | 1486313582.29978 | 1D/AAC734C0              |          127419233472

 2017-02-05 17:53:03.383698+01 | 1486313583.3837 | 1D/AB794F28              |          127430905640

 2017-02-05 17:53:04.460307+01 | 1486313584.46031 | 1D/AC341B70              |          127443147632

 2017-02-05 17:53:05.531627+01 | 1486313585.53163 | 1D/ACEB4238              |          127455150648

 2017-02-05 17:53:06.619081+01 | 1486313586.61908 | 1D/ADA10680              |          127467062912

 2017-02-05 17:53:07.697938+01 | 1486313587.69794 | 1D/AE521FE8              |          127478669288

 2017-02-05 17:53:08.77341+01 | 1486313588.77341 | 1D/AF05E880              |          127490451584

 2017-02-05 17:53:09.846923+01 | 1486313589.84692 | 1D/AFB9EB70              |          127502248816

 2017-02-05 17:53:10.924765+01 | 1486313590.92477 | 1D/B06FA3A0              |          127514157984

 2017-02-05 17:53:12.000779+01 | 1486313592.00078 | 1D/B1228F18              |          127525883672

 2017-02-05 17:53:13.071638+01 | 1486313593.07164 | 1D/B1D24368              |          127537398632

 2017-02-05 17:53:14.155839+01 | 1486313594.15584 | 1D/B282CC58              |          127548968024

 2017-02-05 17:53:15.229081+01 | 1486313595.22908 | 1D/B33B5E90              |          127561064080

 2017-02-05 17:53:16.314714+01 | 1486313596.31471 | 1D/B3F00738              |          127572903736

 2017-02-05 17:53:17.396536+01 | 1486313597.39654 | 1D/B49D5DE0              |          127584263648

 2017-02-05 17:53:18.474949+01 | 1486313598.47495 | 1D/B53EB590              |          127594837392

 2017-02-05 17:53:19.555717+01 | 1486313599.55572 | 1D/B5F3B990              |          127606700432

 2017-02-05 17:53:20.637518+01 | 1486313600.63752 | 1D/B6B4F6B0              |          127619364528

 2017-02-05 17:53:21.709036+01 | 1486313601.70904 | 1D/B76C5C60              |          127631383648

 2017-02-05 17:53:22.785104+01 | 1486313602.7851 | 1D/B8239368              |          127643390824

 2017-02-05 17:53:23.861938+01 | 1486313603.86194 | 1D/B8E40670              |          127656003184

 2017-02-05 17:53:24.944186+01 | 1486313604.94419 | 1D/B9A1ACE0              |          127668432096

 2017-02-05 17:53:26.031283+01 | 1486313606.03128 | 1D/BA650720              |          127681234720

 2017-02-05 17:53:27.106413+01 | 1486313607.10641 | 1D/BB3F1360              |          127695524704

 2017-02-05 17:53:28.18285+01 | 1486313608.18285 | 1D/BC0FF980              |          127709215104

 2017-02-05 17:53:29.260412+01 | 1486313609.26041 | 1D/BCF0F3D8              |          127723961768

 2017-02-05 17:53:30.33652+01 | 1486313610.33652 | 1D/BDF68870              |          127741102192

 2017-02-05 17:53:31.416587+01 | 1486313611.41659 | 1D/BEECD2C0              |          127757243072

 2017-02-05 17:53:32.496211+01 | 1486313612.49621 | 1D/BFA55718              |          127769335576

 2017-02-05 17:53:33.571267+01 | 1486313613.57127 | 1D/C055C528              |          127780898088

 2017-02-05 17:53:34.646468+01 | 1486313614.64647 | 1D/C11FFE68              |          127794151016

 2017-02-05 17:53:35.726376+01 | 1486313615.72638 | 1D/C1E3D920              |          127806986528

 2017-02-05 17:53:36.79933+01 | 1486313616.79933 | 1D/C29F46B8              |          127819269816

 2017-02-05 17:53:37.885171+01 | 1486313617.88517 | 1D/C363C988              |          127832148360

 2017-02-05 17:53:38.9676+01 | 1486313618.9676 | 1D/C41396F0              |          127843669744

 2017-02-05 17:53:40.042382+01 | 1486313620.04238 | 1D/C4C9CAD8              |          127855611280

 2017-02-05 17:53:41.126905+01 | 1486313621.1269 | 1D/C5823748              |          127867696968

 2017-02-05 17:53:42.203321+01 | 1486313622.20332 | 1D/C635EFE0              |          127879475168

 2017-02-05 17:53:43.282183+01 | 1486313623.28218 | 1D/C6E4B9E0              |          127890930144

 2017-02-05 17:53:44.361639+01 | 1486313624.36164 | 1D/C7956810              |          127902509072

 2017-02-05 17:53:45.44551+01 | 1486313625.44551 | 1D/C844C3A8              |          127914001320

 2017-02-05 17:53:46.527946+01 | 1486313626.52795 | 1D/C8EE63C8              |          127925117896

 2017-02-05 17:53:47.607943+01 | 1486313627.60794 | 1D/C99B8560              |          127936464224

 2017-02-05 17:53:48.680207+01 | 1486313628.68021 | 1D/CA44C110              |          127947555088

 2017-02-05 17:53:49.758516+01 | 1486313629.75852 | 1D/CAFB4EE0              |          127959518944

 2017-02-05 17:53:50.836338+01 | 1486313630.83634 | 1D/CBA66EC0              |          127970733760

 2017-02-05 17:53:51.916838+01 | 1486313631.91684 | 1D/CC4F1620              |          127981786656

 2017-02-05 17:53:52.99062+01 | 1486313632.99062 | 1D/CCFBBA38              |          127993100856

 2017-02-05 17:53:54.071969+01 | 1486313634.07197 | 1D/CDAF2128              |          128004858152

 2017-02-05 17:53:55.156487+01 | 1486313635.15649 | 1D/CE559EC8              |          128015769288

 2017-02-05 17:53:56.241859+01 | 1486313636.24186 | 1D/CEFEF628              |          128026867240

 2017-02-05 17:53:57.319417+01 | 1486313637.31942 | 1D/CFAFD5F0              |          128038458864

 2017-02-05 17:53:58.400116+01 | 1486313638.40012 | 1D/D0633F58              |          128050216792

 2017-02-05 17:53:59.480986+01 | 1486313639.48099 | 1D/D112ECA0              |          128061729952

 2017-02-05 17:54:00.560987+01 | 1486313640.56099 | 1D/D1C3DF00              |          128073326336

 2017-02-05 17:54:01.64424+01 | 1486313641.64424 | 1D/D277F2D8              |          128085127896

 2017-02-05 17:54:02.723269+01 | 1486313642.72327 | 1D/D3259698              |          128096507544

 2017-02-05 17:54:03.801933+01 | 1486313643.80193 | 1D/D3DD4DC8              |          128108547528

 2017-02-05 17:54:04.879818+01 | 1486313644.87982 | 1D/D481CAE8              |          128119327464

 2017-02-05 17:54:05.963474+01 | 1486313645.96347 | 1D/D533E988              |          128131000712

 2017-02-05 17:54:07.045033+01 | 1486313647.04503 | 1D/D5E4EE40              |          128142601792

 2017-02-05 17:54:08.123992+01 | 1486313648.12399 | 1D/D696CAC8              |          128154258120

 2017-02-05 17:54:09.199682+01 | 1486313649.19968 | 1D/D7454B58              |          128165694296

 2017-02-05 17:54:10.276898+01 | 1486313650.2769 | 1D/D7F79D00              |          128177380608

 2017-02-05 17:54:11.355212+01 | 1486313651.35521 | 1D/D8ABB3B0              |          128189182896

 2017-02-05 17:54:12.433242+01 | 1486313652.43324 | 1D/D956D078              |          128200396920

 2017-02-05 17:54:13.513002+01 | 1486313653.513 | 1D/DA0D36D0              |          128212350672

 2017-02-05 17:54:14.58985+01 | 1486313654.58985 | 1D/DABB4950              |          128223758672

 2017-02-05 17:54:15.675036+01 | 1486313655.67504 | 1D/DB670D50              |          128235015504

 2017-02-05 17:54:16.764777+01 | 1486313656.76478 | 1D/DC1614E0              |          128246486240

 2017-02-05 17:54:17.846134+01 | 1486313657.84613 | 1D/DCC0FF88              |          128257687432

 2017-02-05 17:54:18.928606+01 | 1486313658.92861 | 1D/DD6B5310              |          128268849936

 2017-02-05 17:54:20.009562+01 | 1486313660.00956 | 1D/DE10ABF8              |          128279686136

 2017-02-05 17:54:21.097262+01 | 1486313661.09726 | 1D/DEC241D8              |          128291324376

 2017-02-05 17:54:22.178104+01 | 1486313662.1781 | 1D/DF726E30              |          128302870064

 2017-02-05 17:54:23.250271+01 | 1486313663.25027 | 1D/E02EFA40              |          128315227480

 2017-02-05 17:54:24.313459+01 | 1486313664.31346 | 1D/E0E861C0              |          128327377344

 2017-02-05 17:54:25.39285+01 | 1486313665.39285 | 1D/E1B68118              |          128340885784

 2017-02-05 17:54:26.461905+01 | 1486313666.46191 | 1D/E2852280              |          128354427520

 2017-02-05 17:54:27.550274+01 | 1486313667.55027 | 1D/E355D260              |          128368104032

 2017-02-05 17:54:28.632734+01 | 1486313668.63273 | 1D/E4283BA8              |          128381893544

 2017-02-05 17:54:29.711014+01 | 1486313669.71101 | 1D/E5090CD8              |          128396627160

 2017-02-05 17:54:30.797692+01 | 1486313670.79769 | 1D/E5F8A728              |          128412329768

 2017-02-05 17:54:31.871325+01 | 1486313671.87133 | 1D/E6B9E338              |          128424993592

 2017-02-05 17:54:32.945001+01 | 1486313672.945 | 1D/E76D82A0              |          128436765344

 2017-02-05 17:54:34.015113+01 | 1486313674.01511 | 1D/E825AAD0              |          128448834256

 2017-02-05 17:54:35.095918+01 | 1486313675.09592 | 1D/E8EC55E8              |          128461854184

 2017-02-05 17:54:36.177797+01 | 1486313676.1778 | 1D/E9A32028              |          128473833512

 2017-02-05 17:54:37.245205+01 | 1486313677.2452 | 1D/EA621010              |          128486346768

 2017-02-05 17:54:38.315913+01 | 1486313678.31591 | 1D/EB199768              |          128498374504

 2017-02-05 17:54:39.391056+01 | 1486313679.39106 | 1D/EBCF78A8              |          128510295496

 2017-02-05 17:54:40.473436+01 | 1486313680.47344 | 1D/EC782520              |          128521348384

 2017-02-05 17:54:41.558646+01 | 1486313681.55865 | 1D/ED251830              |          128532682800

 2017-02-05 17:54:42.64286+01 | 1486313682.64286 | 1D/EDCDBF10              |          128543735568

 2017-02-05 17:54:43.715106+01 | 1486313683.71511 | 1D/EE82F5E8              |          128555611624

 2017-02-05 17:54:44.795875+01 | 1486313684.79588 | 1D/EF3709C0              |          128567413184

 2017-02-05 17:54:45.8702+01 | 1486313685.8702 | 1D/EFE57718              |          128578844440

 2017-02-05 17:54:46.9432+01 | 1486313686.9432 | 1D/F099B688              |          128590657160

 2017-02-05 17:54:48.021935+01 | 1486313688.02193 | 1D/F14F1718              |          128602543896

 2017-02-05 17:54:49.097795+01 | 1486313689.0978 | 1D/F2020C98              |          128614272152

 2017-02-05 17:54:50.177726+01 | 1486313690.17773 | 1D/F2A870D8              |          128625176792

 2017-02-05 17:54:51.255821+01 | 1486313691.25582 | 1D/F3602668              |          128637216360

 2017-02-05 17:54:52.331284+01 | 1486313692.33128 | 1D/F40E16E8              |          128648615656

 2017-02-05 17:54:53.409523+01 | 1486313693.40952 | 1D/F4C02630              |          128660284976

 2017-02-05 17:54:54.486633+01 | 1486313694.48663 | 1D/F5700738              |          128671811384

 2017-02-05 17:54:55.564877+01 | 1486313695.56488 | 1D/F6254098              |          128683688088

 2017-02-05 17:54:56.643587+01 | 1486313696.64359 | 1D/F6D95548              |          128695489864

 2017-02-05 17:54:57.724969+01 | 1486313697.72497 | 1D/F78B3FA8              |          128707149736

 2017-02-05 17:54:58.79547+01 | 1486313698.79547 | 1D/F83E82B0              |          128718897840

 2017-02-05 17:54:59.872972+01 | 1486313699.87297 | 1D/F8ED4230              |          128730350128

 2017-02-05 17:55:00.949358+01 | 1486313700.94936 | 1D/F99FC9B8              |          128742050232

 2017-02-05 17:55:02.027049+01 | 1486313702.02705 | 1D/FA5849D0              |          128754142368

 2017-02-05 17:55:03.110552+01 | 1486313703.11055 | 1D/FB0CFAA0              |          128765983392

 2017-02-05 17:55:04.184306+01 | 1486313704.18431 | 1D/FBB7EE40              |          128777186880

 2017-02-05 17:55:05.261562+01 | 1486313705.26156 | 1D/FC6AEDF8              |          128788917752

 2017-02-05 17:55:06.337272+01 | 1486313706.33727 | 1D/FD1F3CD0              |          128800734416

 2017-02-05 17:55:07.417476+01 | 1486313707.41748 | 1D/FDC84CA8              |          128811814056

 2017-02-05 17:55:08.494393+01 | 1486313708.49439 | 1D/FE7C58D8              |          128823613656

