 2017-02-06 01:21:45.976434+01 | 1486340505.97643 | 0/4E428248               |            1312981576

 2017-02-06 01:21:47.06136+01 | 1486340507.06136 | 0/4E428248               |            1312981576

 2017-02-06 01:21:48.157698+01 | 1486340508.1577 | 0/4E428248               |            1312981576

 2017-02-06 01:21:49.247411+01 | 1486340509.24741 | 0/4E428248               |            1312981576

 2017-02-06 01:21:50.347477+01 | 1486340510.34748 | 0/4E428280               |            1312981632

 2017-02-06 01:21:51.463126+01 | 1486340511.46313 | 0/4E428280               |            1312981632

 2017-02-06 01:21:52.577129+01 | 1486340512.57713 | 0/4E428280               |            1312981632

 2017-02-06 01:21:53.666244+01 | 1486340513.66624 | 0/4E428280               |            1312981632

 2017-02-06 01:21:54.763224+01 | 1486340514.76322 | 0/4E428280               |            1312981632

 2017-02-06 01:21:55.872278+01 | 1486340515.87228 | 0/4E428280               |            1312981632

 2017-02-06 01:21:56.984422+01 | 1486340516.98442 | 0/4E428280               |            1312981632

 2017-02-06 01:21:58.084971+01 | 1486340518.08497 | 0/4E428280               |            1312981632

 2017-02-06 01:21:59.16803+01 | 1486340519.16803 | 0/4E428280               |            1312981632

 2017-02-06 01:22:00.257542+01 | 1486340520.25754 | 0/4E428280               |            1312981632

 2017-02-06 01:22:01.344166+01 | 1486340521.34417 | 0/4E428280               |            1312981632

 2017-02-06 01:22:02.443908+01 | 1486340522.44391 | 0/4E428280               |            1312981632

 2017-02-06 01:22:03.549423+01 | 1486340523.54942 | 0/4E428280               |            1312981632

 2017-02-06 01:22:04.657975+01 | 1486340524.65797 | 0/4E428280               |            1312981632

 2017-02-06 01:22:05.755463+01 | 1486340525.75546 | 0/4E428280               |            1312981632

 2017-02-06 01:22:06.862206+01 | 1486340526.86221 | 0/4E428280               |            1312981632

 2017-02-06 01:22:07.961303+01 | 1486340527.9613 | 0/4E428280               |            1312981632

 2017-02-06 01:22:09.051859+01 | 1486340529.05186 | 0/4E428280               |            1312981632

 2017-02-06 01:22:10.147437+01 | 1486340530.14744 | 0/4E428280               |            1312981632

 2017-02-06 01:22:11.234027+01 | 1486340531.23403 | 0/4E428280               |            1312981632

 2017-02-06 01:22:12.328681+01 | 1486340532.32868 | 0/4E428280               |            1312981632

 2017-02-06 01:22:13.42691+01 | 1486340533.42691 | 0/4E428280               |            1312981632

 2017-02-06 01:22:14.532973+01 | 1486340534.53297 | 0/4E428280               |            1312981632

 2017-02-06 01:22:15.634225+01 | 1486340535.63422 | 0/4E428280               |            1312981632

 2017-02-06 01:22:16.726681+01 | 1486340536.72668 | 0/4E428280               |            1312981632

 2017-02-06 01:22:17.82549+01 | 1486340537.82549 | 0/4E428280               |            1312981632

 2017-02-06 01:22:18.921536+01 | 1486340538.92154 | 0/4E428280               |            1312981632

 2017-02-06 01:22:20.029941+01 | 1486340540.02994 | 0/4E428280               |            1312981632

 2017-02-06 01:22:21.124521+01 | 1486340541.12452 | 0/4E428280               |            1312981632

 2017-02-06 01:22:22.21103+01 | 1486340542.21103 | 0/4E428280               |            1312981632

 2017-02-06 01:22:23.307839+01 | 1486340543.30784 | 0/4E428280               |            1312981632

 2017-02-06 01:22:24.396318+01 | 1486340544.39632 | 0/4E428280               |            1312981632

 2017-02-06 01:22:25.491421+01 | 1486340545.49142 | 0/4E428280               |            1312981632

 2017-02-06 01:22:26.581358+01 | 1486340546.58136 | 0/4E428280               |            1312981632

 2017-02-06 01:22:27.668234+01 | 1486340547.66823 | 0/4E428280               |            1312981632

 2017-02-06 01:22:28.774654+01 | 1486340548.77465 | 0/4E428280               |            1312981632

 2017-02-06 01:22:29.868384+01 | 1486340549.86838 | 0/4E428280               |            1312981632

 2017-02-06 01:22:30.96668+01 | 1486340550.96668 | 0/4E428280               |            1312981632

 2017-02-06 01:22:32.066445+01 | 1486340552.06645 | 0/4E428280               |            1312981632

 2017-02-06 01:22:33.149872+01 | 1486340553.14987 | 0/4E428280               |            1312981632

 2017-02-06 01:22:34.23553+01 | 1486340554.23553 | 0/4E428280               |            1312981632

 2017-02-06 01:22:35.320578+01 | 1486340555.32058 | 0/4E428280               |            1312981632

 2017-02-06 01:22:36.411561+01 | 1486340556.41156 | 0/4E428280               |            1312981632

 2017-02-06 01:22:37.499134+01 | 1486340557.49913 | 0/4E428280               |            1312981632

 2017-02-06 01:22:38.596773+01 | 1486340558.59677 | 0/4E428280               |            1312981632

 2017-02-06 01:22:39.69134+01 | 1486340559.69134 | 0/4E428280               |            1312981632

 2017-02-06 01:22:40.793645+01 | 1486340560.79364 | 0/4E428280               |            1312981632

 2017-02-06 01:22:41.892988+01 | 1486340561.89299 | 0/4E428280               |            1312981632

 2017-02-06 01:22:43.003289+01 | 1486340563.00329 | 0/4E428280               |            1312981632

 2017-02-06 01:22:44.107946+01 | 1486340564.10795 | 0/4E428280               |            1312981632

 2017-02-06 01:22:45.201952+01 | 1486340565.20195 | 0/4E428280               |            1312981632

 2017-02-06 01:22:46.289691+01 | 1486340566.28969 | 0/4E428280               |            1312981632

 2017-02-06 01:22:47.384792+01 | 1486340567.38479 | 0/4E428280               |            1312981632

 2017-02-06 01:22:48.480486+01 | 1486340568.48049 | 0/4E428280               |            1312981632

 2017-02-06 01:22:49.576982+01 | 1486340569.57698 | 0/4E428280               |            1312981632

 2017-02-06 01:22:50.671835+01 | 1486340570.67183 | 0/4E428280               |            1312981632

 2017-02-06 01:22:51.759161+01 | 1486340571.75916 | 0/4E428280               |            1312981632

 2017-02-06 01:22:52.845426+01 | 1486340572.84543 | 0/4E428280               |            1312981632

 2017-02-06 01:22:53.954294+01 | 1486340573.95429 | 0/4E428280               |            1312981632

 2017-02-06 01:22:55.057952+01 | 1486340575.05795 | 0/4E428280               |            1312981632

 2017-02-06 01:22:56.150054+01 | 1486340576.15005 | 0/4E428280               |            1312981632

 2017-02-06 01:22:57.247168+01 | 1486340577.24717 | 0/4E428280               |            1312981632

 2017-02-06 01:22:58.349733+01 | 1486340578.34973 | 0/4E428280               |            1312981632

 2017-02-06 01:22:59.436596+01 | 1486340579.4366 | 0/4E428280               |            1312981632

 2017-02-06 01:23:00.530471+01 | 1486340580.53047 | 0/4E428280               |            1312981632

 2017-02-06 01:23:01.625781+01 | 1486340581.62578 | 0/4E428280               |            1312981632

 2017-02-06 01:23:02.714015+01 | 1486340582.71402 | 0/4E428280               |            1312981632

 2017-02-06 01:23:03.81114+01 | 1486340583.81114 | 0/4E428280               |            1312981632

 2017-02-06 01:23:04.918174+01 | 1486340584.91817 | 0/4E428280               |            1312981632

 2017-02-06 01:23:06.023997+01 | 1486340586.024 | 0/4E428280               |            1312981632

 2017-02-06 01:23:07.122207+01 | 1486340587.12221 | 0/4E428280               |            1312981632

 2017-02-06 01:23:08.203971+01 | 1486340588.20397 | 0/4E428280               |            1312981632

 2017-02-06 01:23:09.29577+01 | 1486340589.29577 | 0/4E428280               |            1312981632

 2017-02-06 01:23:10.380878+01 | 1486340590.38088 | 0/4E428280               |            1312981632

 2017-02-06 01:23:11.46844+01 | 1486340591.46844 | 0/4E428280               |            1312981632

 2017-02-06 01:23:12.568615+01 | 1486340592.56861 | 0/4E428280               |            1312981632

 2017-02-06 01:23:13.667248+01 | 1486340593.66725 | 0/4E428280               |            1312981632

 2017-02-06 01:23:14.768191+01 | 1486340594.76819 | 0/4E428280               |            1312981632

 2017-02-06 01:23:15.865511+01 | 1486340595.86551 | 0/4E428280               |            1312981632

 2017-02-06 01:23:16.961642+01 | 1486340596.96164 | 0/4E428280               |            1312981632

 2017-02-06 01:23:18.061505+01 | 1486340598.06151 | 0/4E428280               |            1312981632

 2017-02-06 01:23:19.183602+01 | 1486340599.1836 | 0/4E428280               |            1312981632

 2017-02-06 01:23:20.274652+01 | 1486340600.27465 | 0/4E428280               |            1312981632

 2017-02-06 01:23:21.366259+01 | 1486340601.36626 | 0/4E428280               |            1312981632

 2017-02-06 01:23:22.454351+01 | 1486340602.45435 | 0/4E428280               |            1312981632

 2017-02-06 01:23:23.551139+01 | 1486340603.55114 | 0/4E428280               |            1312981632

 2017-02-06 01:23:24.642392+01 | 1486340604.64239 | 0/4E428280               |            1312981632

 2017-02-06 01:23:25.738759+01 | 1486340605.73876 | 0/4E428280               |            1312981632

 2017-02-06 01:23:26.846401+01 | 1486340606.8464 | 0/4E428280               |            1312981632

 2017-02-06 01:23:27.944085+01 | 1486340607.94408 | 0/4E428280               |            1312981632

 2017-02-06 01:23:29.03823+01 | 1486340609.03823 | 0/4E428280               |            1312981632

 2017-02-06 01:23:30.142167+01 | 1486340610.14217 | 0/4E428280               |            1312981632

 2017-02-06 01:23:31.237893+01 | 1486340611.23789 | 0/4E428280               |            1312981632

 2017-02-06 01:23:32.324338+01 | 1486340612.32434 | 0/4E428280               |            1312981632

 2017-02-06 01:23:33.414854+01 | 1486340613.41485 | 0/4E428280               |            1312981632

 2017-02-06 01:23:34.504057+01 | 1486340614.50406 | 0/4E428280               |            1312981632

 2017-02-06 01:23:35.592444+01 | 1486340615.59244 | 0/4E428280               |            1312981632

 2017-02-06 01:23:36.686686+01 | 1486340616.68669 | 0/4E428280               |            1312981632

 2017-02-06 01:23:37.777162+01 | 1486340617.77716 | 0/4E428280               |            1312981632

 2017-02-06 01:23:38.884485+01 | 1486340618.88449 | 0/4E428280               |            1312981632

 2017-02-06 01:23:39.97674+01 | 1486340619.97674 | 0/4E428280               |            1312981632

 2017-02-06 01:23:41.066459+01 | 1486340621.06646 | 0/4E428280               |            1312981632

 2017-02-06 01:23:42.168363+01 | 1486340622.16836 | 0/4E428280               |            1312981632

 2017-02-06 01:23:43.266356+01 | 1486340623.26636 | 0/4E428280               |            1312981632

 2017-02-06 01:23:44.349887+01 | 1486340624.34989 | 0/4E428280               |            1312981632

 2017-02-06 01:23:45.436642+01 | 1486340625.43664 | 0/4E428280               |            1312981632

 2017-02-06 01:23:46.533963+01 | 1486340626.53396 | 0/4E428280               |            1312981632

 2017-02-06 01:23:47.624169+01 | 1486340627.62417 | 0/4E428280               |            1312981632

 2017-02-06 01:23:48.708613+01 | 1486340628.70861 | 0/4E428280               |            1312981632

 2017-02-06 01:23:49.807476+01 | 1486340629.80748 | 0/4E428280               |            1312981632

 2017-02-06 01:23:50.911006+01 | 1486340630.91101 | 0/4E428280               |            1312981632

 2017-02-06 01:23:52.013064+01 | 1486340632.01306 | 0/4E428280               |            1312981632

 2017-02-06 01:23:53.132289+01 | 1486340633.13229 | 0/4E428280               |            1312981632

 2017-02-06 01:23:54.233757+01 | 1486340634.23376 | 0/4E428280               |            1312981632

 2017-02-06 01:23:55.331761+01 | 1486340635.33176 | 0/4E428280               |            1312981632

 2017-02-06 01:23:56.421673+01 | 1486340636.42167 | 0/4E428280               |            1312981632

 2017-02-06 01:23:57.514799+01 | 1486340637.5148 | 0/4E428280               |            1312981632

 2017-02-06 01:23:58.605512+01 | 1486340638.60551 | 0/4E428280               |            1312981632

 2017-02-06 01:23:59.69503+01 | 1486340639.69503 | 0/4E428280               |            1312981632

 2017-02-06 01:24:00.789261+01 | 1486340640.78926 | 0/4E428280               |            1312981632

 2017-02-06 01:24:01.890506+01 | 1486340641.89051 | 0/4E428280               |            1312981632

 2017-02-06 01:24:02.98699+01 | 1486340642.98699 | 0/4E428280               |            1312981632

 2017-02-06 01:24:04.08399+01 | 1486340644.08399 | 0/4E428280               |            1312981632

 2017-02-06 01:24:05.186108+01 | 1486340645.18611 | 0/4E428280               |            1312981632

 2017-02-06 01:24:06.285802+01 | 1486340646.2858 | 0/4E428280               |            1312981632

 2017-02-06 01:24:07.377102+01 | 1486340647.3771 | 0/4E428280               |            1312981632

 2017-02-06 01:24:08.462544+01 | 1486340648.46254 | 0/4E428280               |            1312981632

 2017-02-06 01:24:09.559343+01 | 1486340649.55934 | 0/4E428280               |            1312981632

 2017-02-06 01:24:10.653179+01 | 1486340650.65318 | 0/4E428280               |            1312981632

 2017-02-06 01:24:11.741635+01 | 1486340651.74164 | 0/4E428280               |            1312981632

 2017-02-06 01:24:12.838116+01 | 1486340652.83812 | 0/4E428280               |            1312981632

 2017-02-06 01:24:13.924378+01 | 1486340653.92438 | 0/4E428280               |            1312981632

 2017-02-06 01:24:15.040036+01 | 1486340655.04004 | 0/4E428280               |            1312981632

 2017-02-06 01:24:16.139826+01 | 1486340656.13983 | 0/4E428280               |            1312981632

 2017-02-06 01:24:17.229025+01 | 1486340657.22902 | 0/4E428280               |            1312981632

 2017-02-06 01:24:18.318618+01 | 1486340658.31862 | 0/4E428280               |            1312981632

 2017-02-06 01:24:19.41972+01 | 1486340659.41972 | 0/4E428280               |            1312981632

 2017-02-06 01:24:20.514011+01 | 1486340660.51401 | 0/4E428280               |            1312981632

 2017-02-06 01:24:21.60699+01 | 1486340661.60699 | 0/4E428280               |            1312981632

 2017-02-06 01:24:22.698458+01 | 1486340662.69846 | 0/4E428280               |            1312981632

 2017-02-06 01:24:23.789163+01 | 1486340663.78916 | 0/4E428280               |            1312981632

 2017-02-06 01:24:24.881777+01 | 1486340664.88178 | 0/4E428280               |            1312981632

 2017-02-06 01:24:25.983375+01 | 1486340665.98338 | 0/4E428280               |            1312981632

 2017-02-06 01:24:27.08157+01 | 1486340667.08157 | 0/4E428280               |            1312981632

 2017-02-06 01:24:28.186316+01 | 1486340668.18632 | 0/4E428280               |            1312981632

 2017-02-06 01:24:29.299063+01 | 1486340669.29906 | 0/4E428280               |            1312981632

 2017-02-06 01:24:30.407914+01 | 1486340670.40791 | 0/4E428280               |            1312981632

 2017-02-06 01:24:31.493519+01 | 1486340671.49352 | 0/4E428280               |            1312981632

 2017-02-06 01:24:32.576854+01 | 1486340672.57685 | 0/4E428280               |            1312981632

 2017-02-06 01:24:33.673246+01 | 1486340673.67325 | 0/4E428280               |            1312981632

 2017-02-06 01:24:34.757793+01 | 1486340674.75779 | 0/4E428280               |            1312981632

 2017-02-06 01:24:35.847417+01 | 1486340675.84742 | 0/4E428280               |            1312981632

 2017-02-06 01:24:36.94492+01 | 1486340676.94492 | 0/4E428280               |            1312981632

 2017-02-06 01:24:38.059942+01 | 1486340678.05994 | 0/4E428280               |            1312981632

 2017-02-06 01:24:39.178064+01 | 1486340679.17806 | 0/4E428280               |            1312981632

 2017-02-06 01:24:40.293455+01 | 1486340680.29345 | 0/4E428280               |            1312981632

 2017-02-06 01:24:41.404116+01 | 1486340681.40412 | 0/4E428280               |            1312981632

 2017-02-06 01:24:42.495532+01 | 1486340682.49553 | 0/4E428280               |            1312981632

 2017-02-06 01:24:43.589438+01 | 1486340683.58944 | 0/4E428280               |            1312981632

 2017-02-06 01:24:44.684212+01 | 1486340684.68421 | 0/4E428280               |            1312981632

 2017-02-06 01:24:45.775712+01 | 1486340685.77571 | 0/4E428280               |            1312981632

 2017-02-06 01:24:46.871935+01 | 1486340686.87193 | 0/4E428280               |            1312981632

 2017-02-06 01:24:47.973305+01 | 1486340687.9733 | 0/4E428280               |            1312981632

 2017-02-06 01:24:49.078304+01 | 1486340689.0783 | 0/4E428280               |            1312981632

 2017-02-06 01:24:50.170799+01 | 1486340690.1708 | 0/4E428280               |            1312981632

 2017-02-06 01:24:51.254714+01 | 1486340691.25471 | 0/4E428280               |            1312981632

 2017-02-06 01:24:52.374978+01 | 1486340692.37498 | 0/4E428280               |            1312981632

 2017-02-06 01:24:53.470954+01 | 1486340693.47095 | 0/4E428280               |            1312981632

 2017-02-06 01:24:54.559094+01 | 1486340694.55909 | 0/4E428280               |            1312981632

 2017-02-06 01:24:55.647116+01 | 1486340695.64712 | 0/4E428280               |            1312981632

 2017-02-06 01:24:56.734982+01 | 1486340696.73498 | 0/4E428280               |            1312981632

 2017-02-06 01:24:57.837933+01 | 1486340697.83793 | 0/4E428280               |            1312981632

 2017-02-06 01:24:58.935609+01 | 1486340698.93561 | 0/4E428280               |            1312981632

 2017-02-06 01:25:00.025219+01 | 1486340700.02522 | 0/4E428280               |            1312981632

 2017-02-06 01:25:01.125089+01 | 1486340701.12509 | 0/4E428280               |            1312981632

 2017-02-06 01:25:02.233688+01 | 1486340702.23369 | 0/4E428280               |            1312981632

 2017-02-06 01:25:03.341308+01 | 1486340703.34131 | 0/4E428280               |            1312981632

 2017-02-06 01:25:04.442483+01 | 1486340704.44248 | 0/4E428280               |            1312981632

 2017-02-06 01:25:05.541461+01 | 1486340705.54146 | 0/4E428280               |            1312981632

 2017-02-06 01:25:06.624248+01 | 1486340706.62425 | 0/4E428280               |            1312981632

 2017-02-06 01:25:07.721356+01 | 1486340707.72136 | 0/4E428280               |            1312981632

 2017-02-06 01:25:08.809485+01 | 1486340708.80948 | 0/4E428280               |            1312981632

 2017-02-06 01:25:09.900965+01 | 1486340709.90096 | 0/4E428280               |            1312981632

 2017-02-06 01:25:10.984053+01 | 1486340710.98405 | 0/4E428280               |            1312981632

 2017-02-06 01:25:12.08112+01 | 1486340712.08112 | 0/4E428280               |            1312981632

 2017-02-06 01:25:13.200935+01 | 1486340713.20093 | 0/4E428280               |            1312981632

 2017-02-06 01:25:14.303701+01 | 1486340714.3037 | 0/4E428280               |            1312981632

 2017-02-06 01:25:15.417621+01 | 1486340715.41762 | 0/4E428280               |            1312981632

 2017-02-06 01:25:16.518403+01 | 1486340716.5184 | 0/4E428280               |            1312981632

 2017-02-06 01:25:17.606636+01 | 1486340717.60664 | 0/4E428280               |            1312981632

 2017-02-06 01:25:18.702183+01 | 1486340718.70218 | 0/4E428280               |            1312981632

 2017-02-06 01:25:19.791961+01 | 1486340719.79196 | 0/4E428280               |            1312981632

 2017-02-06 01:25:20.881512+01 | 1486340720.88151 | 0/4E428280               |            1312981632

 2017-02-06 01:25:21.964341+01 | 1486340721.96434 | 0/4E428280               |            1312981632

 2017-02-06 01:25:23.050792+01 | 1486340723.05079 | 0/4E428280               |            1312981632

 2017-02-06 01:25:24.141312+01 | 1486340724.14131 | 0/4E428280               |            1312981632

 2017-02-06 01:25:25.241563+01 | 1486340725.24156 | 0/4E428280               |            1312981632

 2017-02-06 01:25:26.341623+01 | 1486340726.34162 | 0/4E428280               |            1312981632

 2017-02-06 01:25:27.444666+01 | 1486340727.44467 | 0/4E428280               |            1312981632

 2017-02-06 01:25:28.560901+01 | 1486340728.5609 | 0/4E428280               |            1312981632

 2017-02-06 01:25:29.659446+01 | 1486340729.65945 | 0/4E428280               |            1312981632

 2017-02-06 01:25:30.748045+01 | 1486340730.74804 | 0/4E428280               |            1312981632

 2017-02-06 01:25:31.841172+01 | 1486340731.84117 | 0/4E428280               |            1312981632

 2017-02-06 01:25:32.93748+01 | 1486340732.93748 | 0/4E428280               |            1312981632

 2017-02-06 01:25:34.029708+01 | 1486340734.02971 | 0/4E428280               |            1312981632

 2017-02-06 01:25:35.13234+01 | 1486340735.13234 | 0/4E428280               |            1312981632

 2017-02-06 01:25:36.237208+01 | 1486340736.23721 | 0/4E428280               |            1312981632

 2017-02-06 01:25:37.326119+01 | 1486340737.32612 | 0/4E428280               |            1312981632

 2017-02-06 01:25:38.424066+01 | 1486340738.42407 | 0/4E428280               |            1312981632

 2017-02-06 01:25:39.540111+01 | 1486340739.54011 | 0/4E428280               |            1312981632

 2017-02-06 01:25:40.641086+01 | 1486340740.64109 | 0/4E428280               |            1312981632

 2017-02-06 01:25:41.719147+01 | 1486340741.71915 | 0/4E428280               |            1312981632

 2017-02-06 01:25:42.809275+01 | 1486340742.80927 | 0/4E428280               |            1312981632

 2017-02-06 01:25:43.900834+01 | 1486340743.90083 | 0/4E428280               |            1312981632

 2017-02-06 01:25:44.990125+01 | 1486340744.99012 | 0/4E428280               |            1312981632

 2017-02-06 01:25:46.089932+01 | 1486340746.08993 | 0/4E428280               |            1312981632

 2017-02-06 01:25:47.181836+01 | 1486340747.18184 | 0/4E428280               |            1312981632

 2017-02-06 01:25:48.285101+01 | 1486340748.2851 | 0/4E428280               |            1312981632

 2017-02-06 01:25:49.369803+01 | 1486340749.3698 | 0/4E428280               |            1312981632

 2017-02-06 01:25:50.469872+01 | 1486340750.46987 | 0/4E428280               |            1312981632

 2017-02-06 01:25:51.557574+01 | 1486340751.55757 | 0/4E428280               |            1312981632

 2017-02-06 01:25:52.658947+01 | 1486340752.65895 | 0/4E428280               |            1312981632

 2017-02-06 01:25:53.752091+01 | 1486340753.75209 | 0/4E428280               |            1312981632

 2017-02-06 01:25:54.840375+01 | 1486340754.84037 | 0/4E428280               |            1312981632

 2017-02-06 01:25:55.927667+01 | 1486340755.92767 | 0/4E428280               |            1312981632

 2017-02-06 01:25:57.017753+01 | 1486340757.01775 | 0/4E428280               |            1312981632

 2017-02-06 01:25:58.102848+01 | 1486340758.10285 | 0/4E428280               |            1312981632

 2017-02-06 01:25:59.19334+01 | 1486340759.19334 | 0/4E428280               |            1312981632

 2017-02-06 01:26:00.293548+01 | 1486340760.29355 | 0/4E428280               |            1312981632

 2017-02-06 01:26:01.383501+01 | 1486340761.3835 | 0/4E428280               |            1312981632

 2017-02-06 01:26:02.479268+01 | 1486340762.47927 | 0/4E428280               |            1312981632

 2017-02-06 01:26:03.573052+01 | 1486340763.57305 | 0/4E428280               |            1312981632

 2017-02-06 01:26:04.678263+01 | 1486340764.67826 | 0/4E428280               |            1312981632

 2017-02-06 01:26:05.786675+01 | 1486340765.78667 | 0/4E428280               |            1312981632

 2017-02-06 01:26:06.870936+01 | 1486340766.87094 | 0/4E428280               |            1312981632

 2017-02-06 01:26:07.955406+01 | 1486340767.95541 | 0/4E428280               |            1312981632

 2017-02-06 01:26:09.045808+01 | 1486340769.04581 | 0/4E428280               |            1312981632

 2017-02-06 01:26:10.151146+01 | 1486340770.15115 | 0/4E428280               |            1312981632

 2017-02-06 01:26:11.246232+01 | 1486340771.24623 | 0/4E428280               |            1312981632

 2017-02-06 01:26:12.336967+01 | 1486340772.33697 | 0/4E428280               |            1312981632

 2017-02-06 01:26:13.435564+01 | 1486340773.43556 | 0/4E428280               |            1312981632

 2017-02-06 01:26:14.545737+01 | 1486340774.54574 | 0/4E428280               |            1312981632

 2017-02-06 01:26:15.662551+01 | 1486340775.66255 | 0/4E428280               |            1312981632

 2017-02-06 01:26:16.755127+01 | 1486340776.75513 | 0/4E428280               |            1312981632

 2017-02-06 01:26:17.850607+01 | 1486340777.85061 | 0/4E428280               |            1312981632

 2017-02-06 01:26:18.946089+01 | 1486340778.94609 | 0/4E428280               |            1312981632

 2017-02-06 01:26:20.029016+01 | 1486340780.02902 | 0/4E428280               |            1312981632

 2017-02-06 01:26:21.125453+01 | 1486340781.12545 | 0/4E428280               |            1312981632

 2017-02-06 01:26:22.223347+01 | 1486340782.22335 | 0/4E428280               |            1312981632

 2017-02-06 01:26:23.324318+01 | 1486340783.32432 | 0/4E428280               |            1312981632

 2017-02-06 01:26:24.430264+01 | 1486340784.43026 | 0/4E428280               |            1312981632

 2017-02-06 01:26:25.525985+01 | 1486340785.52599 | 0/4E428280               |            1312981632

 2017-02-06 01:26:26.636949+01 | 1486340786.63695 | 0/4E428280               |            1312981632

 2017-02-06 01:26:27.770772+01 | 1486340787.77077 | 0/4E428280               |            1312981632

 2017-02-06 01:26:28.870101+01 | 1486340788.8701 | 0/4E428280               |            1312981632

 2017-02-06 01:26:29.955926+01 | 1486340789.95593 | 0/4E428280               |            1312981632

 2017-02-06 01:26:31.040547+01 | 1486340791.04055 | 0/4E428280               |            1312981632

 2017-02-06 01:26:32.131298+01 | 1486340792.1313 | 0/4E428280               |            1312981632

 2017-02-06 01:26:33.229079+01 | 1486340793.22908 | 0/4E428280               |            1312981632

 2017-02-06 01:26:34.330347+01 | 1486340794.33035 | 0/4E428280               |            1312981632

 2017-02-06 01:26:35.440527+01 | 1486340795.44053 | 0/4E428280               |            1312981632

 2017-02-06 01:26:36.529904+01 | 1486340796.5299 | 0/4E428280               |            1312981632

 2017-02-06 01:26:37.626975+01 | 1486340797.62698 | 0/4E428280               |            1312981632

 2017-02-06 01:26:38.755039+01 | 1486340798.75504 | 0/4E428280               |            1312981632

 2017-02-06 01:26:39.853079+01 | 1486340799.85308 | 0/4E428280               |            1312981632

 2017-02-06 01:26:40.942956+01 | 1486340800.94296 | 0/4E428280               |            1312981632

 2017-02-06 01:26:42.036711+01 | 1486340802.03671 | 0/4E428280               |            1312981632

 2017-02-06 01:26:43.134017+01 | 1486340803.13402 | 0/4E428280               |            1312981632

 2017-02-06 01:26:44.235318+01 | 1486340804.23532 | 0/4E428280               |            1312981632

 2017-02-06 01:26:45.327752+01 | 1486340805.32775 | 0/4E428280               |            1312981632

