 2017-02-04 16:04:05.57823+01 | 1486220645.57823 | pgbench_accounts |      13682466816
 2017-02-04 16:04:05.57823+01 | 1486220645.57823 | pgbench_tellers  |         15523840
 2017-02-04 16:04:05.57823+01 | 1486220645.57823 | pgbench_history  |                0
 2017-02-04 16:04:05.57823+01 | 1486220645.57823 | pgbench_branches |         12599296

 2017-02-04 16:04:06.66412+01 | 1486220646.66412 | pgbench_accounts |      13682466816
 2017-02-04 16:04:06.66412+01 | 1486220646.66412 | pgbench_tellers  |         15523840
 2017-02-04 16:04:06.66412+01 | 1486220646.66412 | pgbench_history  |          1441792
 2017-02-04 16:04:06.66412+01 | 1486220646.66412 | pgbench_branches |         12599296

 2017-02-04 16:04:07.745378+01 | 1486220647.74538 | pgbench_accounts |      13682466816
 2017-02-04 16:04:07.745378+01 | 1486220647.74538 | pgbench_tellers  |         15523840
 2017-02-04 16:04:07.745378+01 | 1486220647.74538 | pgbench_history  |          4136960
 2017-02-04 16:04:07.745378+01 | 1486220647.74538 | pgbench_branches |         12599296

 2017-02-04 16:04:08.820168+01 | 1486220648.82017 | pgbench_accounts |      13682466816
 2017-02-04 16:04:08.820168+01 | 1486220648.82017 | pgbench_tellers  |         15523840
 2017-02-04 16:04:08.820168+01 | 1486220648.82017 | pgbench_history  |          5799936
 2017-02-04 16:04:08.820168+01 | 1486220648.82017 | pgbench_branches |         12599296

 2017-02-04 16:04:09.898932+01 | 1486220649.89893 | pgbench_accounts |      13682466816
 2017-02-04 16:04:09.898932+01 | 1486220649.89893 | pgbench_tellers  |         15523840
 2017-02-04 16:04:09.898932+01 | 1486220649.89893 | pgbench_history  |          6676480
 2017-02-04 16:04:09.898932+01 | 1486220649.89893 | pgbench_branches |         12599296

 2017-02-04 16:04:10.976121+01 | 1486220650.97612 | pgbench_accounts |      13682466816
 2017-02-04 16:04:10.976121+01 | 1486220650.97612 | pgbench_tellers  |         15523840
 2017-02-04 16:04:10.976121+01 | 1486220650.97612 | pgbench_history  |          8953856
 2017-02-04 16:04:10.976121+01 | 1486220650.97612 | pgbench_branches |         12599296

 2017-02-04 16:04:12.057233+01 | 1486220652.05723 | pgbench_accounts |      13682466816
 2017-02-04 16:04:12.057233+01 | 1486220652.05723 | pgbench_tellers  |         15523840
 2017-02-04 16:04:12.057233+01 | 1486220652.05723 | pgbench_history  |         10993664
 2017-02-04 16:04:12.057233+01 | 1486220652.05723 | pgbench_branches |         12599296

 2017-02-04 16:04:13.134776+01 | 1486220653.13478 | pgbench_accounts |      13682466816
 2017-02-04 16:04:13.134776+01 | 1486220653.13478 | pgbench_tellers  |         15523840
 2017-02-04 16:04:13.134776+01 | 1486220653.13478 | pgbench_history  |         13017088
 2017-02-04 16:04:13.134776+01 | 1486220653.13478 | pgbench_branches |         12599296

 2017-02-04 16:04:14.213257+01 | 1486220654.21326 | pgbench_accounts |      13682466816
 2017-02-04 16:04:14.213257+01 | 1486220654.21326 | pgbench_tellers  |         15523840
 2017-02-04 16:04:14.213257+01 | 1486220654.21326 | pgbench_history  |         14704640
 2017-02-04 16:04:14.213257+01 | 1486220654.21326 | pgbench_branches |         12599296

 2017-02-04 16:04:15.294461+01 | 1486220655.29446 | pgbench_accounts |      13682466816
 2017-02-04 16:04:15.294461+01 | 1486220655.29446 | pgbench_tellers  |         15523840
 2017-02-04 16:04:15.294461+01 | 1486220655.29446 | pgbench_history  |         17072128
 2017-02-04 16:04:15.294461+01 | 1486220655.29446 | pgbench_branches |         12599296

 2017-02-04 16:04:16.367899+01 | 1486220656.3679 | pgbench_accounts |      13682466816
 2017-02-04 16:04:16.367899+01 | 1486220656.3679 | pgbench_tellers  |         15523840
 2017-02-04 16:04:16.367899+01 | 1486220656.3679 | pgbench_history  |         19464192
 2017-02-04 16:04:16.367899+01 | 1486220656.3679 | pgbench_branches |         12599296

 2017-02-04 16:04:17.444605+01 | 1486220657.44461 | pgbench_accounts |      13682466816
 2017-02-04 16:04:17.444605+01 | 1486220657.44461 | pgbench_tellers  |         15523840
 2017-02-04 16:04:17.444605+01 | 1486220657.44461 | pgbench_history  |         21356544
 2017-02-04 16:04:17.444605+01 | 1486220657.44461 | pgbench_branches |         12599296

 2017-02-04 16:04:18.521241+01 | 1486220658.52124 | pgbench_accounts |      13682466816
 2017-02-04 16:04:18.521241+01 | 1486220658.52124 | pgbench_tellers  |         15523840
 2017-02-04 16:04:18.521241+01 | 1486220658.52124 | pgbench_history  |         23298048
 2017-02-04 16:04:18.521241+01 | 1486220658.52124 | pgbench_branches |         12599296

 2017-02-04 16:04:19.591915+01 | 1486220659.59191 | pgbench_accounts |      13682466816
 2017-02-04 16:04:19.591915+01 | 1486220659.59191 | pgbench_tellers  |         15523840
 2017-02-04 16:04:19.591915+01 | 1486220659.59191 | pgbench_history  |         25853952
 2017-02-04 16:04:19.591915+01 | 1486220659.59191 | pgbench_branches |         12599296

 2017-02-04 16:04:20.666882+01 | 1486220660.66688 | pgbench_accounts |      13682466816
 2017-02-04 16:04:20.666882+01 | 1486220660.66688 | pgbench_tellers  |         15523840
 2017-02-04 16:04:20.666882+01 | 1486220660.66688 | pgbench_history  |         27787264
 2017-02-04 16:04:20.666882+01 | 1486220660.66688 | pgbench_branches |         12599296

 2017-02-04 16:04:21.745335+01 | 1486220661.74534 | pgbench_accounts |      13682466816
 2017-02-04 16:04:21.745335+01 | 1486220661.74534 | pgbench_tellers  |         15523840
 2017-02-04 16:04:21.745335+01 | 1486220661.74534 | pgbench_history  |         29679616
 2017-02-04 16:04:21.745335+01 | 1486220661.74534 | pgbench_branches |         12599296

 2017-02-04 16:04:22.825813+01 | 1486220662.82581 | pgbench_accounts |      13682466816
 2017-02-04 16:04:22.825813+01 | 1486220662.82581 | pgbench_tellers  |         15523840
 2017-02-04 16:04:22.825813+01 | 1486220662.82581 | pgbench_history  |         32768000
 2017-02-04 16:04:22.825813+01 | 1486220662.82581 | pgbench_branches |         12599296

 2017-02-04 16:04:23.899798+01 | 1486220663.8998 | pgbench_accounts |      13682466816
 2017-02-04 16:04:23.899798+01 | 1486220663.8998 | pgbench_tellers  |         15523840
 2017-02-04 16:04:23.899798+01 | 1486220663.8998 | pgbench_history  |         34152448
 2017-02-04 16:04:23.899798+01 | 1486220663.8998 | pgbench_branches |         12599296

 2017-02-04 16:04:24.97198+01 | 1486220664.97198 | pgbench_accounts |      13682466816
 2017-02-04 16:04:24.97198+01 | 1486220664.97198 | pgbench_tellers  |         15523840
 2017-02-04 16:04:24.97198+01 | 1486220664.97198 | pgbench_history  |         36241408
 2017-02-04 16:04:24.97198+01 | 1486220664.97198 | pgbench_branches |         12599296

 2017-02-04 16:04:26.04772+01 | 1486220666.04772 | pgbench_accounts |      13682466816
 2017-02-04 16:04:26.04772+01 | 1486220666.04772 | pgbench_tellers  |         15523840
 2017-02-04 16:04:26.04772+01 | 1486220666.04772 | pgbench_history  |         39305216
 2017-02-04 16:04:26.04772+01 | 1486220666.04772 | pgbench_branches |         12599296

 2017-02-04 16:04:27.129412+01 | 1486220667.12941 | pgbench_accounts |      13682466816
 2017-02-04 16:04:27.129412+01 | 1486220667.12941 | pgbench_tellers  |         15523840
 2017-02-04 16:04:27.129412+01 | 1486220667.12941 | pgbench_history  |         41541632
 2017-02-04 16:04:27.129412+01 | 1486220667.12941 | pgbench_branches |         12599296

 2017-02-04 16:04:28.219079+01 | 1486220668.21908 | pgbench_accounts |      13682466816
 2017-02-04 16:04:28.219079+01 | 1486220668.21908 | pgbench_tellers  |         15523840
 2017-02-04 16:04:28.219079+01 | 1486220668.21908 | pgbench_history  |         42762240
 2017-02-04 16:04:28.219079+01 | 1486220668.21908 | pgbench_branches |         12599296

 2017-02-04 16:04:29.301227+01 | 1486220669.30123 | pgbench_accounts |      13682466816
 2017-02-04 16:04:29.301227+01 | 1486220669.30123 | pgbench_tellers  |         15523840
 2017-02-04 16:04:29.301227+01 | 1486220669.30123 | pgbench_history  |         44834816
 2017-02-04 16:04:29.301227+01 | 1486220669.30123 | pgbench_branches |         12599296

 2017-02-04 16:04:30.377558+01 | 1486220670.37756 | pgbench_accounts |      13682466816
 2017-02-04 16:04:30.377558+01 | 1486220670.37756 | pgbench_tellers  |         15523840
 2017-02-04 16:04:30.377558+01 | 1486220670.37756 | pgbench_history  |         46915584
 2017-02-04 16:04:30.377558+01 | 1486220670.37756 | pgbench_branches |         12599296

 2017-02-04 16:04:31.453958+01 | 1486220671.45396 | pgbench_accounts |      13682466816
 2017-02-04 16:04:31.453958+01 | 1486220671.45396 | pgbench_tellers  |         15523840
 2017-02-04 16:04:31.453958+01 | 1486220671.45396 | pgbench_history  |         48791552
 2017-02-04 16:04:31.453958+01 | 1486220671.45396 | pgbench_branches |         12599296

 2017-02-04 16:04:32.527267+01 | 1486220672.52727 | pgbench_accounts |      13682466816
 2017-02-04 16:04:32.527267+01 | 1486220672.52727 | pgbench_tellers  |         15523840
 2017-02-04 16:04:32.527267+01 | 1486220672.52727 | pgbench_history  |         50577408
 2017-02-04 16:04:32.527267+01 | 1486220672.52727 | pgbench_branches |         12599296

 2017-02-04 16:04:33.60095+01 | 1486220673.60095 | pgbench_accounts |      13682466816
 2017-02-04 16:04:33.60095+01 | 1486220673.60095 | pgbench_tellers  |         15523840
 2017-02-04 16:04:33.60095+01 | 1486220673.60095 | pgbench_history  |         52445184
 2017-02-04 16:04:33.60095+01 | 1486220673.60095 | pgbench_branches |         12599296

 2017-02-04 16:04:34.678115+01 | 1486220674.67811 | pgbench_accounts |      13682466816
 2017-02-04 16:04:34.678115+01 | 1486220674.67811 | pgbench_tellers  |         15523840
 2017-02-04 16:04:34.678115+01 | 1486220674.67811 | pgbench_history  |         55001088
 2017-02-04 16:04:34.678115+01 | 1486220674.67811 | pgbench_branches |         12599296

 2017-02-04 16:04:35.756275+01 | 1486220675.75627 | pgbench_accounts |      13682466816
 2017-02-04 16:04:35.756275+01 | 1486220675.75627 | pgbench_tellers  |         15523840
 2017-02-04 16:04:35.756275+01 | 1486220675.75627 | pgbench_history  |         57581568
 2017-02-04 16:04:35.756275+01 | 1486220675.75627 | pgbench_branches |         12599296

 2017-02-04 16:04:36.839173+01 | 1486220676.83917 | pgbench_accounts |      13682466816
 2017-02-04 16:04:36.839173+01 | 1486220676.83917 | pgbench_tellers  |         15523840
 2017-02-04 16:04:36.839173+01 | 1486220676.83917 | pgbench_history  |         59645952
 2017-02-04 16:04:36.839173+01 | 1486220676.83917 | pgbench_branches |         12599296

 2017-02-04 16:04:37.919579+01 | 1486220677.91958 | pgbench_accounts |      13682466816
 2017-02-04 16:04:37.919579+01 | 1486220677.91958 | pgbench_tellers  |         15523840
 2017-02-04 16:04:37.919579+01 | 1486220677.91958 | pgbench_history  |         61194240
 2017-02-04 16:04:37.919579+01 | 1486220677.91958 | pgbench_branches |         12599296

 2017-02-04 16:04:38.995634+01 | 1486220678.99563 | pgbench_accounts |      13682466816
 2017-02-04 16:04:38.995634+01 | 1486220678.99563 | pgbench_tellers  |         15523840
 2017-02-04 16:04:38.995634+01 | 1486220678.99563 | pgbench_history  |         62930944
 2017-02-04 16:04:38.995634+01 | 1486220678.99563 | pgbench_branches |         12599296

 2017-02-04 16:04:40.084071+01 | 1486220680.08407 | pgbench_accounts |      13682466816
 2017-02-04 16:04:40.084071+01 | 1486220680.08407 | pgbench_tellers  |         15523840
 2017-02-04 16:04:40.084071+01 | 1486220680.08407 | pgbench_history  |         64806912
 2017-02-04 16:04:40.084071+01 | 1486220680.08407 | pgbench_branches |         12599296

 2017-02-04 16:04:41.163973+01 | 1486220681.16397 | pgbench_accounts |      13682466816
 2017-02-04 16:04:41.163973+01 | 1486220681.16397 | pgbench_tellers  |         15523840
 2017-02-04 16:04:41.163973+01 | 1486220681.16397 | pgbench_history  |         66355200
 2017-02-04 16:04:41.163973+01 | 1486220681.16397 | pgbench_branches |         12599296

 2017-02-04 16:04:42.242251+01 | 1486220682.24225 | pgbench_accounts |      13682466816
 2017-02-04 16:04:42.242251+01 | 1486220682.24225 | pgbench_tellers  |         15523840
 2017-02-04 16:04:42.242251+01 | 1486220682.24225 | pgbench_history  |         68534272
 2017-02-04 16:04:42.242251+01 | 1486220682.24225 | pgbench_branches |         12599296

 2017-02-04 16:04:43.318889+01 | 1486220683.31889 | pgbench_accounts |      13682466816
 2017-02-04 16:04:43.318889+01 | 1486220683.31889 | pgbench_tellers  |         15523840
 2017-02-04 16:04:43.318889+01 | 1486220683.31889 | pgbench_history  |         70549504
 2017-02-04 16:04:43.318889+01 | 1486220683.31889 | pgbench_branches |         12599296

 2017-02-04 16:04:44.398255+01 | 1486220684.39826 | pgbench_accounts |      13682466816
 2017-02-04 16:04:44.398255+01 | 1486220684.39826 | pgbench_tellers  |         15523840
 2017-02-04 16:04:44.398255+01 | 1486220684.39826 | pgbench_history  |         72286208
 2017-02-04 16:04:44.398255+01 | 1486220684.39826 | pgbench_branches |         12599296

 2017-02-04 16:04:45.474286+01 | 1486220685.47429 | pgbench_accounts |      13682466816
 2017-02-04 16:04:45.474286+01 | 1486220685.47429 | pgbench_tellers  |         15523840
 2017-02-04 16:04:45.474286+01 | 1486220685.47429 | pgbench_history  |         74465280
 2017-02-04 16:04:45.474286+01 | 1486220685.47429 | pgbench_branches |         12599296

 2017-02-04 16:04:46.550519+01 | 1486220686.55052 | pgbench_accounts |      13682466816
 2017-02-04 16:04:46.550519+01 | 1486220686.55052 | pgbench_tellers  |         15523840
 2017-02-04 16:04:46.550519+01 | 1486220686.55052 | pgbench_history  |         75661312
 2017-02-04 16:04:46.550519+01 | 1486220686.55052 | pgbench_branches |         12599296

 2017-02-04 16:04:47.62189+01 | 1486220687.62189 | pgbench_accounts |      13682466816
 2017-02-04 16:04:47.62189+01 | 1486220687.62189 | pgbench_tellers  |         15523840
 2017-02-04 16:04:47.62189+01 | 1486220687.62189 | pgbench_history  |         78897152
 2017-02-04 16:04:47.62189+01 | 1486220687.62189 | pgbench_branches |         12599296

 2017-02-04 16:04:48.694956+01 | 1486220688.69496 | pgbench_accounts |      13682466816
 2017-02-04 16:04:48.694956+01 | 1486220688.69496 | pgbench_tellers  |         15523840
 2017-02-04 16:04:48.694956+01 | 1486220688.69496 | pgbench_history  |         80257024
 2017-02-04 16:04:48.694956+01 | 1486220688.69496 | pgbench_branches |         12599296

 2017-02-04 16:04:49.77646+01 | 1486220689.77646 | pgbench_accounts |      13682466816
 2017-02-04 16:04:49.77646+01 | 1486220689.77646 | pgbench_tellers  |         15523840
 2017-02-04 16:04:49.77646+01 | 1486220689.77646 | pgbench_history  |         82305024
 2017-02-04 16:04:49.77646+01 | 1486220689.77646 | pgbench_branches |         12599296

 2017-02-04 16:04:50.859464+01 | 1486220690.85946 | pgbench_accounts |      13682466816
 2017-02-04 16:04:50.859464+01 | 1486220690.85946 | pgbench_tellers  |         15523840
 2017-02-04 16:04:50.859464+01 | 1486220690.85946 | pgbench_history  |         85164032
 2017-02-04 16:04:50.859464+01 | 1486220690.85946 | pgbench_branches |         12599296

 2017-02-04 16:04:51.936258+01 | 1486220691.93626 | pgbench_accounts |      13682466816
 2017-02-04 16:04:51.936258+01 | 1486220691.93626 | pgbench_tellers  |         15523840
 2017-02-04 16:04:51.936258+01 | 1486220691.93626 | pgbench_history  |         86204416
 2017-02-04 16:04:51.936258+01 | 1486220691.93626 | pgbench_branches |         12599296

 2017-02-04 16:04:53.014993+01 | 1486220693.01499 | pgbench_accounts |      13682466816
 2017-02-04 16:04:53.014993+01 | 1486220693.01499 | pgbench_tellers  |         15523840
 2017-02-04 16:04:53.014993+01 | 1486220693.01499 | pgbench_history  |         88129536
 2017-02-04 16:04:53.014993+01 | 1486220693.01499 | pgbench_branches |         12599296

 2017-02-04 16:04:54.104516+01 | 1486220694.10452 | pgbench_accounts |      13682466816
 2017-02-04 16:04:54.104516+01 | 1486220694.10452 | pgbench_tellers  |         15523840
 2017-02-04 16:04:54.104516+01 | 1486220694.10452 | pgbench_history  |         90521600
 2017-02-04 16:04:54.104516+01 | 1486220694.10452 | pgbench_branches |         12599296

 2017-02-04 16:04:55.184119+01 | 1486220695.18412 | pgbench_accounts |      13682466816
 2017-02-04 16:04:55.184119+01 | 1486220695.18412 | pgbench_tellers  |         15523840
 2017-02-04 16:04:55.184119+01 | 1486220695.18412 | pgbench_history  |         93413376
 2017-02-04 16:04:55.184119+01 | 1486220695.18412 | pgbench_branches |         12599296

 2017-02-04 16:04:56.273041+01 | 1486220696.27304 | pgbench_accounts |      13682466816
 2017-02-04 16:04:56.273041+01 | 1486220696.27304 | pgbench_tellers  |         15523840
 2017-02-04 16:04:56.273041+01 | 1486220696.27304 | pgbench_history  |         94912512
 2017-02-04 16:04:56.273041+01 | 1486220696.27304 | pgbench_branches |         12599296

 2017-02-04 16:04:57.350481+01 | 1486220697.35048 | pgbench_accounts |      13682466816
 2017-02-04 16:04:57.350481+01 | 1486220697.35048 | pgbench_tellers  |         15523840
 2017-02-04 16:04:57.350481+01 | 1486220697.35048 | pgbench_history  |         97304576
 2017-02-04 16:04:57.350481+01 | 1486220697.35048 | pgbench_branches |         12599296

 2017-02-04 16:04:58.42956+01 | 1486220698.42956 | pgbench_accounts |      13682466816
 2017-02-04 16:04:58.42956+01 | 1486220698.42956 | pgbench_tellers  |         15523840
 2017-02-04 16:04:58.42956+01 | 1486220698.42956 | pgbench_history  |         99975168
 2017-02-04 16:04:58.42956+01 | 1486220698.42956 | pgbench_branches |         12599296

 2017-02-04 16:04:59.514173+01 | 1486220699.51417 | pgbench_accounts |      13682466816
 2017-02-04 16:04:59.514173+01 | 1486220699.51417 | pgbench_tellers  |         15523840
 2017-02-04 16:04:59.514173+01 | 1486220699.51417 | pgbench_history  |        102260736
 2017-02-04 16:04:59.514173+01 | 1486220699.51417 | pgbench_branches |         12599296

 2017-02-04 16:05:00.591434+01 | 1486220700.59143 | pgbench_accounts |      13682466816
 2017-02-04 16:05:00.591434+01 | 1486220700.59143 | pgbench_tellers  |         15523840
 2017-02-04 16:05:00.591434+01 | 1486220700.59143 | pgbench_history  |        105799680
 2017-02-04 16:05:00.591434+01 | 1486220700.59143 | pgbench_branches |         12599296

 2017-02-04 16:05:01.669619+01 | 1486220701.66962 | pgbench_accounts |      13682466816
 2017-02-04 16:05:01.669619+01 | 1486220701.66962 | pgbench_tellers  |         15523840
 2017-02-04 16:05:01.669619+01 | 1486220701.66962 | pgbench_history  |        106160128
 2017-02-04 16:05:01.669619+01 | 1486220701.66962 | pgbench_branches |         12599296

 2017-02-04 16:05:02.747015+01 | 1486220702.74701 | pgbench_accounts |      13682466816
 2017-02-04 16:05:02.747015+01 | 1486220702.74701 | pgbench_tellers  |         15523840
 2017-02-04 16:05:02.747015+01 | 1486220702.74701 | pgbench_history  |        108560384
 2017-02-04 16:05:02.747015+01 | 1486220702.74701 | pgbench_branches |         12599296

 2017-02-04 16:05:03.825924+01 | 1486220703.82592 | pgbench_accounts |      13682466816
 2017-02-04 16:05:03.825924+01 | 1486220703.82592 | pgbench_tellers  |         15523840
 2017-02-04 16:05:03.825924+01 | 1486220703.82592 | pgbench_history  |        110600192
 2017-02-04 16:05:03.825924+01 | 1486220703.82592 | pgbench_branches |         12599296

 2017-02-04 16:05:04.910482+01 | 1486220704.91048 | pgbench_accounts |      13682466816
 2017-02-04 16:05:04.910482+01 | 1486220704.91048 | pgbench_tellers  |         15523840
 2017-02-04 16:05:04.910482+01 | 1486220704.91048 | pgbench_history  |        112123904
 2017-02-04 16:05:04.910482+01 | 1486220704.91048 | pgbench_branches |         12599296

 2017-02-04 16:05:05.990501+01 | 1486220705.9905 | pgbench_accounts |      13682466816
 2017-02-04 16:05:05.990501+01 | 1486220705.9905 | pgbench_tellers  |         15523840
 2017-02-04 16:05:05.990501+01 | 1486220705.9905 | pgbench_history  |        114819072
 2017-02-04 16:05:05.990501+01 | 1486220705.9905 | pgbench_branches |         12599296

 2017-02-04 16:05:07.064746+01 | 1486220707.06475 | pgbench_accounts |      13682466816
 2017-02-04 16:05:07.064746+01 | 1486220707.06475 | pgbench_tellers  |         15523840
 2017-02-04 16:05:07.064746+01 | 1486220707.06475 | pgbench_history  |        116350976
 2017-02-04 16:05:07.064746+01 | 1486220707.06475 | pgbench_branches |         12599296

 2017-02-04 16:05:08.147946+01 | 1486220708.14795 | pgbench_accounts |      13682466816
 2017-02-04 16:05:08.147946+01 | 1486220708.14795 | pgbench_tellers  |         15523840
 2017-02-04 16:05:08.147946+01 | 1486220708.14795 | pgbench_history  |        118259712
 2017-02-04 16:05:08.147946+01 | 1486220708.14795 | pgbench_branches |         12599296

 2017-02-04 16:05:09.225957+01 | 1486220709.22596 | pgbench_accounts |      13682466816
 2017-02-04 16:05:09.225957+01 | 1486220709.22596 | pgbench_tellers  |         15523840
 2017-02-04 16:05:09.225957+01 | 1486220709.22596 | pgbench_history  |        120569856
 2017-02-04 16:05:09.225957+01 | 1486220709.22596 | pgbench_branches |         12599296

 2017-02-04 16:05:10.315742+01 | 1486220710.31574 | pgbench_accounts |      13682466816
 2017-02-04 16:05:10.315742+01 | 1486220710.31574 | pgbench_tellers  |         15523840
 2017-02-04 16:05:10.315742+01 | 1486220710.31574 | pgbench_history  |        122314752
 2017-02-04 16:05:10.315742+01 | 1486220710.31574 | pgbench_branches |         12599296

 2017-02-04 16:05:11.402121+01 | 1486220711.40212 | pgbench_accounts |      13682466816
 2017-02-04 16:05:11.402121+01 | 1486220711.40212 | pgbench_tellers  |         15523840
 2017-02-04 16:05:11.402121+01 | 1486220711.40212 | pgbench_history  |        125501440
 2017-02-04 16:05:11.402121+01 | 1486220711.40212 | pgbench_branches |         12599296

 2017-02-04 16:05:12.484384+01 | 1486220712.48438 | pgbench_accounts |      13682466816
 2017-02-04 16:05:12.484384+01 | 1486220712.48438 | pgbench_tellers  |         15523840
 2017-02-04 16:05:12.484384+01 | 1486220712.48438 | pgbench_history  |        126509056
 2017-02-04 16:05:12.484384+01 | 1486220712.48438 | pgbench_branches |         12599296

 2017-02-04 16:05:13.564239+01 | 1486220713.56424 | pgbench_accounts |      13682466816
 2017-02-04 16:05:13.564239+01 | 1486220713.56424 | pgbench_tellers  |         15523840
 2017-02-04 16:05:13.564239+01 | 1486220713.56424 | pgbench_history  |        128942080
 2017-02-04 16:05:13.564239+01 | 1486220713.56424 | pgbench_branches |         12599296

 2017-02-04 16:05:14.63882+01 | 1486220714.63882 | pgbench_accounts |      13682466816
 2017-02-04 16:05:14.63882+01 | 1486220714.63882 | pgbench_tellers  |         15523840
 2017-02-04 16:05:14.63882+01 | 1486220714.63882 | pgbench_history  |        131637248
 2017-02-04 16:05:14.63882+01 | 1486220714.63882 | pgbench_branches |         12599296

 2017-02-04 16:05:15.717965+01 | 1486220715.71796 | pgbench_accounts |      13682466816
 2017-02-04 16:05:15.717965+01 | 1486220715.71796 | pgbench_tellers  |         15523840
 2017-02-04 16:05:15.717965+01 | 1486220715.71796 | pgbench_history  |        133537792
 2017-02-04 16:05:15.717965+01 | 1486220715.71796 | pgbench_branches |         12599296

 2017-02-04 16:05:16.80009+01 | 1486220716.80009 | pgbench_accounts |      13682466816
 2017-02-04 16:05:16.80009+01 | 1486220716.80009 | pgbench_tellers  |         15523840
 2017-02-04 16:05:16.80009+01 | 1486220716.80009 | pgbench_history  |        136003584
 2017-02-04 16:05:16.80009+01 | 1486220716.80009 | pgbench_branches |         12599296

 2017-02-04 16:05:17.882593+01 | 1486220717.88259 | pgbench_accounts |      13682466816
 2017-02-04 16:05:17.882593+01 | 1486220717.88259 | pgbench_tellers  |         15523840
 2017-02-04 16:05:17.882593+01 | 1486220717.88259 | pgbench_history  |        137904128
 2017-02-04 16:05:17.882593+01 | 1486220717.88259 | pgbench_branches |         12599296

 2017-02-04 16:05:18.965446+01 | 1486220718.96545 | pgbench_accounts |      13682466816
 2017-02-04 16:05:18.965446+01 | 1486220718.96545 | pgbench_tellers  |         15523840
 2017-02-04 16:05:18.965446+01 | 1486220718.96545 | pgbench_history  |        140353536
 2017-02-04 16:05:18.965446+01 | 1486220718.96545 | pgbench_branches |         12599296

 2017-02-04 16:05:20.048574+01 | 1486220720.04857 | pgbench_accounts |      13682466816
 2017-02-04 16:05:20.048574+01 | 1486220720.04857 | pgbench_tellers  |         15523840
 2017-02-04 16:05:20.048574+01 | 1486220720.04857 | pgbench_history  |        142745600
 2017-02-04 16:05:20.048574+01 | 1486220720.04857 | pgbench_branches |         12599296

 2017-02-04 16:05:21.12838+01 | 1486220721.12838 | pgbench_accounts |      13682466816
 2017-02-04 16:05:21.12838+01 | 1486220721.12838 | pgbench_tellers  |         15523840
 2017-02-04 16:05:21.12838+01 | 1486220721.12838 | pgbench_history  |        145276928
 2017-02-04 16:05:21.12838+01 | 1486220721.12838 | pgbench_branches |         12599296

 2017-02-04 16:05:22.210886+01 | 1486220722.21089 | pgbench_accounts |      13682466816
 2017-02-04 16:05:22.210886+01 | 1486220722.21089 | pgbench_tellers  |         15523840
 2017-02-04 16:05:22.210886+01 | 1486220722.21089 | pgbench_history  |        147652608
 2017-02-04 16:05:22.210886+01 | 1486220722.21089 | pgbench_branches |         12599296

 2017-02-04 16:05:23.29691+01 | 1486220723.29691 | pgbench_accounts |      13682466816
 2017-02-04 16:05:23.29691+01 | 1486220723.29691 | pgbench_tellers  |         15523840
 2017-02-04 16:05:23.29691+01 | 1486220723.29691 | pgbench_history  |        149553152
 2017-02-04 16:05:23.29691+01 | 1486220723.29691 | pgbench_branches |         12599296

 2017-02-04 16:05:24.372574+01 | 1486220724.37257 | pgbench_accounts |      13682466816
 2017-02-04 16:05:24.372574+01 | 1486220724.37257 | pgbench_tellers  |         15523840
 2017-02-04 16:05:24.372574+01 | 1486220724.37257 | pgbench_history  |        151814144
 2017-02-04 16:05:24.372574+01 | 1486220724.37257 | pgbench_branches |         12599296

 2017-02-04 16:05:25.456129+01 | 1486220725.45613 | pgbench_accounts |      13682466816
 2017-02-04 16:05:25.456129+01 | 1486220725.45613 | pgbench_tellers  |         15523840
 2017-02-04 16:05:25.456129+01 | 1486220725.45613 | pgbench_history  |        154386432
 2017-02-04 16:05:25.456129+01 | 1486220725.45613 | pgbench_branches |         12599296

 2017-02-04 16:05:26.533112+01 | 1486220726.53311 | pgbench_accounts |      13682466816
 2017-02-04 16:05:26.533112+01 | 1486220726.53311 | pgbench_tellers  |         15523840
 2017-02-04 16:05:26.533112+01 | 1486220726.53311 | pgbench_history  |        156459008
 2017-02-04 16:05:26.533112+01 | 1486220726.53311 | pgbench_branches |         12599296

 2017-02-04 16:05:27.610506+01 | 1486220727.61051 | pgbench_accounts |      13682466816
 2017-02-04 16:05:27.610506+01 | 1486220727.61051 | pgbench_tellers  |         15523840
 2017-02-04 16:05:27.610506+01 | 1486220727.61051 | pgbench_history  |        159531008
 2017-02-04 16:05:27.610506+01 | 1486220727.61051 | pgbench_branches |         12599296

 2017-02-04 16:05:28.680197+01 | 1486220728.6802 | pgbench_accounts |      13682466816
 2017-02-04 16:05:28.680197+01 | 1486220728.6802 | pgbench_tellers  |         15523840
 2017-02-04 16:05:28.680197+01 | 1486220728.6802 | pgbench_history  |        161267712
 2017-02-04 16:05:28.680197+01 | 1486220728.6802 | pgbench_branches |         12599296

 2017-02-04 16:05:29.761633+01 | 1486220729.76163 | pgbench_accounts |      13682466816
 2017-02-04 16:05:29.761633+01 | 1486220729.76163 | pgbench_tellers  |         15523840
 2017-02-04 16:05:29.761633+01 | 1486220729.76163 | pgbench_history  |        163471360
 2017-02-04 16:05:29.761633+01 | 1486220729.76163 | pgbench_branches |         12599296

 2017-02-04 16:05:30.84085+01 | 1486220730.84085 | pgbench_accounts |      13682466816
 2017-02-04 16:05:30.84085+01 | 1486220730.84085 | pgbench_tellers  |         15523840
 2017-02-04 16:05:30.84085+01 | 1486220730.84085 | pgbench_history  |        165732352
 2017-02-04 16:05:30.84085+01 | 1486220730.84085 | pgbench_branches |         12599296

 2017-02-04 16:05:31.919913+01 | 1486220731.91991 | pgbench_accounts |      13682466816
 2017-02-04 16:05:31.919913+01 | 1486220731.91991 | pgbench_tellers  |         15523840
 2017-02-04 16:05:31.919913+01 | 1486220731.91991 | pgbench_history  |        168402944
 2017-02-04 16:05:31.919913+01 | 1486220731.91991 | pgbench_branches |         12599296

 2017-02-04 16:05:33.005138+01 | 1486220733.00514 | pgbench_accounts |      13682466816
 2017-02-04 16:05:33.005138+01 | 1486220733.00514 | pgbench_tellers  |         15523840
 2017-02-04 16:05:33.005138+01 | 1486220733.00514 | pgbench_history  |        170672128
 2017-02-04 16:05:33.005138+01 | 1486220733.00514 | pgbench_branches |         12599296

 2017-02-04 16:05:34.090743+01 | 1486220734.09074 | pgbench_accounts |      13682466816
 2017-02-04 16:05:34.090743+01 | 1486220734.09074 | pgbench_tellers  |         15523840
 2017-02-04 16:05:34.090743+01 | 1486220734.09074 | pgbench_history  |        172761088
 2017-02-04 16:05:34.090743+01 | 1486220734.09074 | pgbench_branches |         12599296

 2017-02-04 16:05:35.170109+01 | 1486220735.17011 | pgbench_accounts |      13682466816
 2017-02-04 16:05:35.170109+01 | 1486220735.17011 | pgbench_tellers  |         15523840
 2017-02-04 16:05:35.170109+01 | 1486220735.17011 | pgbench_history  |        174637056
 2017-02-04 16:05:35.170109+01 | 1486220735.17011 | pgbench_branches |         12599296

 2017-02-04 16:05:36.245876+01 | 1486220736.24588 | pgbench_accounts |      13682466816
 2017-02-04 16:05:36.245876+01 | 1486220736.24588 | pgbench_tellers  |         15523840
 2017-02-04 16:05:36.245876+01 | 1486220736.24588 | pgbench_history  |        177168384
 2017-02-04 16:05:36.245876+01 | 1486220736.24588 | pgbench_branches |         12599296

 2017-02-04 16:05:37.326495+01 | 1486220737.32649 | pgbench_accounts |      13682466816
 2017-02-04 16:05:37.326495+01 | 1486220737.32649 | pgbench_tellers  |         15523840
 2017-02-04 16:05:37.326495+01 | 1486220737.32649 | pgbench_history  |        179699712
 2017-02-04 16:05:37.326495+01 | 1486220737.32649 | pgbench_branches |         12599296

 2017-02-04 16:05:38.406226+01 | 1486220738.40623 | pgbench_accounts |      13682466816
 2017-02-04 16:05:38.406226+01 | 1486220738.40623 | pgbench_tellers  |         15523840
 2017-02-04 16:05:38.406226+01 | 1486220738.40623 | pgbench_history  |        182255616
 2017-02-04 16:05:38.406226+01 | 1486220738.40623 | pgbench_branches |         12599296

 2017-02-04 16:05:39.475461+01 | 1486220739.47546 | pgbench_accounts |      13682466816
 2017-02-04 16:05:39.475461+01 | 1486220739.47546 | pgbench_tellers  |         15523840
 2017-02-04 16:05:39.475461+01 | 1486220739.47546 | pgbench_history  |        183779328
 2017-02-04 16:05:39.475461+01 | 1486220739.47546 | pgbench_branches |         12599296

 2017-02-04 16:05:40.556971+01 | 1486220740.55697 | pgbench_accounts |      13682466816
 2017-02-04 16:05:40.556971+01 | 1486220740.55697 | pgbench_tellers  |         15523840
 2017-02-04 16:05:40.556971+01 | 1486220740.55697 | pgbench_history  |        187187200
 2017-02-04 16:05:40.556971+01 | 1486220740.55697 | pgbench_branches |         12599296

 2017-02-04 16:05:41.635288+01 | 1486220741.63529 | pgbench_accounts |      13682466816
 2017-02-04 16:05:41.635288+01 | 1486220741.63529 | pgbench_tellers  |         15523840
 2017-02-04 16:05:41.635288+01 | 1486220741.63529 | pgbench_history  |        188358656
 2017-02-04 16:05:41.635288+01 | 1486220741.63529 | pgbench_branches |         12599296

 2017-02-04 16:05:42.709286+01 | 1486220742.70929 | pgbench_accounts |      13682466816
 2017-02-04 16:05:42.709286+01 | 1486220742.70929 | pgbench_tellers  |         15523840
 2017-02-04 16:05:42.709286+01 | 1486220742.70929 | pgbench_history  |        190398464
 2017-02-04 16:05:42.709286+01 | 1486220742.70929 | pgbench_branches |         12599296

 2017-02-04 16:05:43.78924+01 | 1486220743.78924 | pgbench_accounts |      13682466816
 2017-02-04 16:05:43.78924+01 | 1486220743.78924 | pgbench_tellers  |         15523840
 2017-02-04 16:05:43.78924+01 | 1486220743.78924 | pgbench_history  |        193560576
 2017-02-04 16:05:43.78924+01 | 1486220743.78924 | pgbench_branches |         12599296

 2017-02-04 16:05:44.866677+01 | 1486220744.86668 | pgbench_accounts |      13682466816
 2017-02-04 16:05:44.866677+01 | 1486220744.86668 | pgbench_tellers  |         15523840
 2017-02-04 16:05:44.866677+01 | 1486220744.86668 | pgbench_history  |        195739648
 2017-02-04 16:05:44.866677+01 | 1486220744.86668 | pgbench_branches |         12599296

 2017-02-04 16:05:45.950442+01 | 1486220745.95044 | pgbench_accounts |      13682466816
 2017-02-04 16:05:45.950442+01 | 1486220745.95044 | pgbench_tellers  |         15523840
 2017-02-04 16:05:45.950442+01 | 1486220745.95044 | pgbench_history  |        197918720
 2017-02-04 16:05:45.950442+01 | 1486220745.95044 | pgbench_branches |         12599296

 2017-02-04 16:05:47.031926+01 | 1486220747.03193 | pgbench_accounts |      13682466816
 2017-02-04 16:05:47.031926+01 | 1486220747.03193 | pgbench_tellers  |         15523840
 2017-02-04 16:05:47.031926+01 | 1486220747.03193 | pgbench_history  |        200130560
 2017-02-04 16:05:47.031926+01 | 1486220747.03193 | pgbench_branches |         12599296

 2017-02-04 16:05:48.109535+01 | 1486220748.10953 | pgbench_accounts |      13682466816
 2017-02-04 16:05:48.109535+01 | 1486220748.10953 | pgbench_tellers  |         15523840
 2017-02-04 16:05:48.109535+01 | 1486220748.10953 | pgbench_history  |        202309632
 2017-02-04 16:05:48.109535+01 | 1486220748.10953 | pgbench_branches |         12599296

 2017-02-04 16:05:49.189403+01 | 1486220749.1894 | pgbench_accounts |      13682466816
 2017-02-04 16:05:49.189403+01 | 1486220749.1894 | pgbench_tellers  |         15523840
 2017-02-04 16:05:49.189403+01 | 1486220749.1894 | pgbench_history  |        204513280
 2017-02-04 16:05:49.189403+01 | 1486220749.1894 | pgbench_branches |         12599296

 2017-02-04 16:05:50.271441+01 | 1486220750.27144 | pgbench_accounts |      13682466816
 2017-02-04 16:05:50.271441+01 | 1486220750.27144 | pgbench_tellers  |         15523840
 2017-02-04 16:05:50.271441+01 | 1486220750.27144 | pgbench_history  |        206856192
 2017-02-04 16:05:50.271441+01 | 1486220750.27144 | pgbench_branches |         12599296

 2017-02-04 16:05:51.350027+01 | 1486220751.35003 | pgbench_accounts |      13682466816
 2017-02-04 16:05:51.350027+01 | 1486220751.35003 | pgbench_tellers  |         15523840
 2017-02-04 16:05:51.350027+01 | 1486220751.35003 | pgbench_history  |        210067456
 2017-02-04 16:05:51.350027+01 | 1486220751.35003 | pgbench_branches |         12599296

 2017-02-04 16:05:52.431015+01 | 1486220752.43102 | pgbench_accounts |      13682466816
 2017-02-04 16:05:52.431015+01 | 1486220752.43102 | pgbench_tellers  |         15523840
 2017-02-04 16:05:52.431015+01 | 1486220752.43102 | pgbench_history  |        212459520
 2017-02-04 16:05:52.431015+01 | 1486220752.43102 | pgbench_branches |         12599296

 2017-02-04 16:05:53.51533+01 | 1486220753.51533 | pgbench_accounts |      13682466816
 2017-02-04 16:05:53.51533+01 | 1486220753.51533 | pgbench_tellers  |         15523840
 2017-02-04 16:05:53.51533+01 | 1486220753.51533 | pgbench_history  |        213508096
 2017-02-04 16:05:53.51533+01 | 1486220753.51533 | pgbench_branches |         12599296

 2017-02-04 16:05:54.590765+01 | 1486220754.59076 | pgbench_accounts |      13682466816
 2017-02-04 16:05:54.590765+01 | 1486220754.59076 | pgbench_tellers  |         15523840
 2017-02-04 16:05:54.590765+01 | 1486220754.59076 | pgbench_history  |        215711744
 2017-02-04 16:05:54.590765+01 | 1486220754.59076 | pgbench_branches |         12599296

 2017-02-04 16:05:55.669422+01 | 1486220755.66942 | pgbench_accounts |      13682466816
 2017-02-04 16:05:55.669422+01 | 1486220755.66942 | pgbench_tellers  |         15523840
 2017-02-04 16:05:55.669422+01 | 1486220755.66942 | pgbench_history  |        219250688
 2017-02-04 16:05:55.669422+01 | 1486220755.66942 | pgbench_branches |         12599296

 2017-02-04 16:05:56.747028+01 | 1486220756.74703 | pgbench_accounts |      13682466816
 2017-02-04 16:05:56.747028+01 | 1486220756.74703 | pgbench_tellers  |         15523840
 2017-02-04 16:05:56.747028+01 | 1486220756.74703 | pgbench_history  |        220258304
 2017-02-04 16:05:56.747028+01 | 1486220756.74703 | pgbench_branches |         12599296

 2017-02-04 16:05:57.823217+01 | 1486220757.82322 | pgbench_accounts |      13682466816
 2017-02-04 16:05:57.823217+01 | 1486220757.82322 | pgbench_tellers  |         15523840
 2017-02-04 16:05:57.823217+01 | 1486220757.82322 | pgbench_history  |        223166464
 2017-02-04 16:05:57.823217+01 | 1486220757.82322 | pgbench_branches |         12599296

 2017-02-04 16:05:58.902236+01 | 1486220758.90224 | pgbench_accounts |      13682466816
 2017-02-04 16:05:58.902236+01 | 1486220758.90224 | pgbench_tellers  |         15523840
 2017-02-04 16:05:58.902236+01 | 1486220758.90224 | pgbench_history  |        224854016
 2017-02-04 16:05:58.902236+01 | 1486220758.90224 | pgbench_branches |         12599296

 2017-02-04 16:05:59.984348+01 | 1486220759.98435 | pgbench_accounts |      13682466816
 2017-02-04 16:05:59.984348+01 | 1486220759.98435 | pgbench_tellers  |         15523840
 2017-02-04 16:05:59.984348+01 | 1486220759.98435 | pgbench_history  |        227221504
 2017-02-04 16:05:59.984348+01 | 1486220759.98435 | pgbench_branches |         12599296

 2017-02-04 16:06:01.06825+01 | 1486220761.06825 | pgbench_accounts |      13682466816
 2017-02-04 16:06:01.06825+01 | 1486220761.06825 | pgbench_tellers  |         15523840
 2017-02-04 16:06:01.06825+01 | 1486220761.06825 | pgbench_history  |        229597184
 2017-02-04 16:06:01.06825+01 | 1486220761.06825 | pgbench_branches |         12599296

 2017-02-04 16:06:02.149472+01 | 1486220762.14947 | pgbench_accounts |      13682466816
 2017-02-04 16:06:02.149472+01 | 1486220762.14947 | pgbench_tellers  |         15523840
 2017-02-04 16:06:02.149472+01 | 1486220762.14947 | pgbench_history  |        232161280
 2017-02-04 16:06:02.149472+01 | 1486220762.14947 | pgbench_branches |         12599296

 2017-02-04 16:06:03.232703+01 | 1486220763.2327 | pgbench_accounts |      13682466816
 2017-02-04 16:06:03.232703+01 | 1486220763.2327 | pgbench_tellers  |         15523840
 2017-02-04 16:06:03.232703+01 | 1486220763.2327 | pgbench_history  |        234373120
 2017-02-04 16:06:03.232703+01 | 1486220763.2327 | pgbench_branches |         12599296

 2017-02-04 16:06:04.317712+01 | 1486220764.31771 | pgbench_accounts |      13682466816
 2017-02-04 16:06:04.317712+01 | 1486220764.31771 | pgbench_tellers  |         15523840
 2017-02-04 16:06:04.317712+01 | 1486220764.31771 | pgbench_history  |        236453888
 2017-02-04 16:06:04.317712+01 | 1486220764.31771 | pgbench_branches |         12599296

 2017-02-04 16:06:05.39343+01 | 1486220765.39343 | pgbench_accounts |      13682466816
 2017-02-04 16:06:05.39343+01 | 1486220765.39343 | pgbench_tellers  |         15523840
 2017-02-04 16:06:05.39343+01 | 1486220765.39343 | pgbench_history  |        238526464
 2017-02-04 16:06:05.39343+01 | 1486220765.39343 | pgbench_branches |         12599296

 2017-02-04 16:06:06.474362+01 | 1486220766.47436 | pgbench_accounts |      13682466816
 2017-02-04 16:06:06.474362+01 | 1486220766.47436 | pgbench_tellers  |         15523840
 2017-02-04 16:06:06.474362+01 | 1486220766.47436 | pgbench_history  |        241082368
 2017-02-04 16:06:06.474362+01 | 1486220766.47436 | pgbench_branches |         12599296

 2017-02-04 16:06:07.557313+01 | 1486220767.55731 | pgbench_accounts |      13682466816
 2017-02-04 16:06:07.557313+01 | 1486220767.55731 | pgbench_tellers  |         15523840
 2017-02-04 16:06:07.557313+01 | 1486220767.55731 | pgbench_history  |        243638272
 2017-02-04 16:06:07.557313+01 | 1486220767.55731 | pgbench_branches |         12599296

 2017-02-04 16:06:08.633087+01 | 1486220768.63309 | pgbench_accounts |      13682466816
 2017-02-04 16:06:08.633087+01 | 1486220768.63309 | pgbench_tellers  |         15523840
 2017-02-04 16:06:08.633087+01 | 1486220768.63309 | pgbench_history  |        245981184
 2017-02-04 16:06:08.633087+01 | 1486220768.63309 | pgbench_branches |         12599296

 2017-02-04 16:06:09.707533+01 | 1486220769.70753 | pgbench_accounts |      13682466816
 2017-02-04 16:06:09.707533+01 | 1486220769.70753 | pgbench_tellers  |         15523840
 2017-02-04 16:06:09.707533+01 | 1486220769.70753 | pgbench_history  |        247832576
 2017-02-04 16:06:09.707533+01 | 1486220769.70753 | pgbench_branches |         12599296

 2017-02-04 16:06:10.784461+01 | 1486220770.78446 | pgbench_accounts |      13682466816
 2017-02-04 16:06:10.784461+01 | 1486220770.78446 | pgbench_tellers  |         15523840
 2017-02-04 16:06:10.784461+01 | 1486220770.78446 | pgbench_history  |        249896960
 2017-02-04 16:06:10.784461+01 | 1486220770.78446 | pgbench_branches |         12599296

 2017-02-04 16:06:11.863901+01 | 1486220771.8639 | pgbench_accounts |      13682466816
 2017-02-04 16:06:11.863901+01 | 1486220771.8639 | pgbench_tellers  |         15523840
 2017-02-04 16:06:11.863901+01 | 1486220771.8639 | pgbench_history  |        253222912
 2017-02-04 16:06:11.863901+01 | 1486220771.8639 | pgbench_branches |         12599296

 2017-02-04 16:06:12.948673+01 | 1486220772.94867 | pgbench_accounts |      13682466816
 2017-02-04 16:06:12.948673+01 | 1486220772.94867 | pgbench_tellers  |         15523840
 2017-02-04 16:06:12.948673+01 | 1486220772.94867 | pgbench_history  |        254230528
 2017-02-04 16:06:12.948673+01 | 1486220772.94867 | pgbench_branches |         12599296

 2017-02-04 16:06:14.025487+01 | 1486220774.02549 | pgbench_accounts |      13682466816
 2017-02-04 16:06:14.025487+01 | 1486220774.02549 | pgbench_tellers  |         15523840
 2017-02-04 16:06:14.025487+01 | 1486220774.02549 | pgbench_history  |        256811008
 2017-02-04 16:06:14.025487+01 | 1486220774.02549 | pgbench_branches |         12599296

 2017-02-04 16:06:15.108679+01 | 1486220775.10868 | pgbench_accounts |      13682466816
 2017-02-04 16:06:15.108679+01 | 1486220775.10868 | pgbench_tellers  |         15523840
 2017-02-04 16:06:15.108679+01 | 1486220775.10868 | pgbench_history  |        258998272
 2017-02-04 16:06:15.108679+01 | 1486220775.10868 | pgbench_branches |         12599296

 2017-02-04 16:06:16.188864+01 | 1486220776.18886 | pgbench_accounts |      13682466816
 2017-02-04 16:06:16.188864+01 | 1486220776.18886 | pgbench_tellers  |         15523840
 2017-02-04 16:06:16.188864+01 | 1486220776.18886 | pgbench_history  |        260874240
 2017-02-04 16:06:16.188864+01 | 1486220776.18886 | pgbench_branches |         12599296

 2017-02-04 16:06:17.272253+01 | 1486220777.27225 | pgbench_accounts |      13682466816
 2017-02-04 16:06:17.272253+01 | 1486220777.27225 | pgbench_tellers  |         15523840
 2017-02-04 16:06:17.272253+01 | 1486220777.27225 | pgbench_history  |        267141120
 2017-02-04 16:06:17.272253+01 | 1486220777.27225 | pgbench_branches |         12599296

 2017-02-04 16:06:18.353121+01 | 1486220778.35312 | pgbench_accounts |      13682466816
 2017-02-04 16:06:18.353121+01 | 1486220778.35312 | pgbench_tellers  |         15523840
 2017-02-04 16:06:18.353121+01 | 1486220778.35312 | pgbench_history  |        267141120
 2017-02-04 16:06:18.353121+01 | 1486220778.35312 | pgbench_branches |         12599296

 2017-02-04 16:06:19.428931+01 | 1486220779.42893 | pgbench_accounts |      13682466816
 2017-02-04 16:06:19.428931+01 | 1486220779.42893 | pgbench_tellers  |         15523840
 2017-02-04 16:06:19.428931+01 | 1486220779.42893 | pgbench_history  |        268500992
 2017-02-04 16:06:19.428931+01 | 1486220779.42893 | pgbench_branches |         12599296

 2017-02-04 16:06:20.51639+01 | 1486220780.51639 | pgbench_accounts |      13682466816
 2017-02-04 16:06:20.51639+01 | 1486220780.51639 | pgbench_tellers  |         15523840
 2017-02-04 16:06:20.51639+01 | 1486220780.51639 | pgbench_history  |        270188544
 2017-02-04 16:06:20.51639+01 | 1486220780.51639 | pgbench_branches |         12599296

 2017-02-04 16:06:21.594222+01 | 1486220781.59422 | pgbench_accounts |      13682466816
 2017-02-04 16:06:21.594222+01 | 1486220781.59422 | pgbench_tellers  |         15523840
 2017-02-04 16:06:21.594222+01 | 1486220781.59422 | pgbench_history  |        272556032
 2017-02-04 16:06:21.594222+01 | 1486220781.59422 | pgbench_branches |         12599296

 2017-02-04 16:06:22.670218+01 | 1486220782.67022 | pgbench_accounts |      13682466816
 2017-02-04 16:06:22.670218+01 | 1486220782.67022 | pgbench_tellers  |         15523840
 2017-02-04 16:06:22.670218+01 | 1486220782.67022 | pgbench_history  |        274931712
 2017-02-04 16:06:22.670218+01 | 1486220782.67022 | pgbench_branches |         12599296

 2017-02-04 16:06:23.74268+01 | 1486220783.74268 | pgbench_accounts |      13682466816
 2017-02-04 16:06:23.74268+01 | 1486220783.74268 | pgbench_tellers  |         15523840
 2017-02-04 16:06:23.74268+01 | 1486220783.74268 | pgbench_history  |        276807680
 2017-02-04 16:06:23.74268+01 | 1486220783.74268 | pgbench_branches |         12599296

 2017-02-04 16:06:24.814998+01 | 1486220784.815 | pgbench_accounts |      13682466816
 2017-02-04 16:06:24.814998+01 | 1486220784.815 | pgbench_tellers  |         15523840
 2017-02-04 16:06:24.814998+01 | 1486220784.815 | pgbench_history  |        279199744
 2017-02-04 16:06:24.814998+01 | 1486220784.815 | pgbench_branches |         12599296

 2017-02-04 16:06:25.899859+01 | 1486220785.89986 | pgbench_accounts |      13682466816
 2017-02-04 16:06:25.899859+01 | 1486220785.89986 | pgbench_tellers  |         15523840
 2017-02-04 16:06:25.899859+01 | 1486220785.89986 | pgbench_history  |        281567232
 2017-02-04 16:06:25.899859+01 | 1486220785.89986 | pgbench_branches |         12599296

 2017-02-04 16:06:26.985331+01 | 1486220786.98533 | pgbench_accounts |      13682466816
 2017-02-04 16:06:26.985331+01 | 1486220786.98533 | pgbench_tellers  |         15523840
 2017-02-04 16:06:26.985331+01 | 1486220786.98533 | pgbench_history  |        286138368
 2017-02-04 16:06:26.985331+01 | 1486220786.98533 | pgbench_branches |         12599296

 2017-02-04 16:06:28.074327+01 | 1486220788.07433 | pgbench_accounts |      13682466816
 2017-02-04 16:06:28.074327+01 | 1486220788.07433 | pgbench_tellers  |         15523840
 2017-02-04 16:06:28.074327+01 | 1486220788.07433 | pgbench_history  |        286138368
 2017-02-04 16:06:28.074327+01 | 1486220788.07433 | pgbench_branches |         12599296

 2017-02-04 16:06:29.15401+01 | 1486220789.15401 | pgbench_accounts |      13682466816
 2017-02-04 16:06:29.15401+01 | 1486220789.15401 | pgbench_tellers  |         15523840
 2017-02-04 16:06:29.15401+01 | 1486220789.15401 | pgbench_history  |        288153600
 2017-02-04 16:06:29.15401+01 | 1486220789.15401 | pgbench_branches |         12599296

 2017-02-04 16:06:30.23711+01 | 1486220790.23711 | pgbench_accounts |      13682466816
 2017-02-04 16:06:30.23711+01 | 1486220790.23711 | pgbench_tellers  |         15523840
 2017-02-04 16:06:30.23711+01 | 1486220790.23711 | pgbench_history  |        292708352
 2017-02-04 16:06:30.23711+01 | 1486220790.23711 | pgbench_branches |         12599296

 2017-02-04 16:06:31.313093+01 | 1486220791.31309 | pgbench_accounts |      13682466816
 2017-02-04 16:06:31.313093+01 | 1486220791.31309 | pgbench_tellers  |         15523840
 2017-02-04 16:06:31.313093+01 | 1486220791.31309 | pgbench_history  |        292708352
 2017-02-04 16:06:31.313093+01 | 1486220791.31309 | pgbench_branches |         12599296

 2017-02-04 16:06:32.395658+01 | 1486220792.39566 | pgbench_accounts |      13682466816
 2017-02-04 16:06:32.395658+01 | 1486220792.39566 | pgbench_tellers  |         15523840
 2017-02-04 16:06:32.395658+01 | 1486220792.39566 | pgbench_history  |        294920192
 2017-02-04 16:06:32.395658+01 | 1486220792.39566 | pgbench_branches |         12599296

 2017-02-04 16:06:33.473673+01 | 1486220793.47367 | pgbench_accounts |      13682466816
 2017-02-04 16:06:33.473673+01 | 1486220793.47367 | pgbench_tellers  |         15523840
 2017-02-04 16:06:33.473673+01 | 1486220793.47367 | pgbench_history  |        297615360
 2017-02-04 16:06:33.473673+01 | 1486220793.47367 | pgbench_branches |         12599296

 2017-02-04 16:06:34.550989+01 | 1486220794.55099 | pgbench_accounts |      13682466816
 2017-02-04 16:06:34.550989+01 | 1486220794.55099 | pgbench_tellers  |         15523840
 2017-02-04 16:06:34.550989+01 | 1486220794.55099 | pgbench_history  |        299655168
 2017-02-04 16:06:34.550989+01 | 1486220794.55099 | pgbench_branches |         12599296

 2017-02-04 16:06:35.634151+01 | 1486220795.63415 | pgbench_accounts |      13682466816
 2017-02-04 16:06:35.634151+01 | 1486220795.63415 | pgbench_tellers  |         15523840
 2017-02-04 16:06:35.634151+01 | 1486220795.63415 | pgbench_history  |        301883392
 2017-02-04 16:06:35.634151+01 | 1486220795.63415 | pgbench_branches |         12599296

 2017-02-04 16:06:36.70964+01 | 1486220796.70964 | pgbench_accounts |      13682466816
 2017-02-04 16:06:36.70964+01 | 1486220796.70964 | pgbench_tellers  |         15523840
 2017-02-04 16:06:36.70964+01 | 1486220796.70964 | pgbench_history  |        304300032
 2017-02-04 16:06:36.70964+01 | 1486220796.70964 | pgbench_branches |         12599296

 2017-02-04 16:06:37.788896+01 | 1486220797.7889 | pgbench_accounts |      13682466816
 2017-02-04 16:06:37.788896+01 | 1486220797.7889 | pgbench_tellers  |         15523840
 2017-02-04 16:06:37.788896+01 | 1486220797.7889 | pgbench_history  |        306315264
 2017-02-04 16:06:37.788896+01 | 1486220797.7889 | pgbench_branches |         12599296

 2017-02-04 16:06:38.866521+01 | 1486220798.86652 | pgbench_accounts |      13682466816
 2017-02-04 16:06:38.866521+01 | 1486220798.86652 | pgbench_tellers  |         15523840
 2017-02-04 16:06:38.866521+01 | 1486220798.86652 | pgbench_history  |        308707328
 2017-02-04 16:06:38.866521+01 | 1486220798.86652 | pgbench_branches |         12599296

 2017-02-04 16:06:39.947971+01 | 1486220799.94797 | pgbench_accounts |      13682466816
 2017-02-04 16:06:39.947971+01 | 1486220799.94797 | pgbench_tellers  |         15523840
 2017-02-04 16:06:39.947971+01 | 1486220799.94797 | pgbench_history  |        311615488
 2017-02-04 16:06:39.947971+01 | 1486220799.94797 | pgbench_branches |         12599296

 2017-02-04 16:06:41.026109+01 | 1486220801.02611 | pgbench_accounts |      13682466816
 2017-02-04 16:06:41.026109+01 | 1486220801.02611 | pgbench_tellers  |         15523840
 2017-02-04 16:06:41.026109+01 | 1486220801.02611 | pgbench_history  |        313491456
 2017-02-04 16:06:41.026109+01 | 1486220801.02611 | pgbench_branches |         12599296

 2017-02-04 16:06:42.107378+01 | 1486220802.10738 | pgbench_accounts |      13682466816
 2017-02-04 16:06:42.107378+01 | 1486220802.10738 | pgbench_tellers  |         15523840
 2017-02-04 16:06:42.107378+01 | 1486220802.10738 | pgbench_history  |        315392000
 2017-02-04 16:06:42.107378+01 | 1486220802.10738 | pgbench_branches |         12599296

 2017-02-04 16:06:43.185308+01 | 1486220803.18531 | pgbench_accounts |      13682466816
 2017-02-04 16:06:43.185308+01 | 1486220803.18531 | pgbench_tellers  |         15523840
 2017-02-04 16:06:43.185308+01 | 1486220803.18531 | pgbench_history  |        317759488
 2017-02-04 16:06:43.185308+01 | 1486220803.18531 | pgbench_branches |         12599296

 2017-02-04 16:06:44.264247+01 | 1486220804.26425 | pgbench_accounts |      13682466816
 2017-02-04 16:06:44.264247+01 | 1486220804.26425 | pgbench_tellers  |         15523840
 2017-02-04 16:06:44.264247+01 | 1486220804.26425 | pgbench_history  |        320176128
 2017-02-04 16:06:44.264247+01 | 1486220804.26425 | pgbench_branches |         12599296

 2017-02-04 16:06:45.342079+01 | 1486220805.34208 | pgbench_accounts |      13682466816
 2017-02-04 16:06:45.342079+01 | 1486220805.34208 | pgbench_tellers  |         15523840
 2017-02-04 16:06:45.342079+01 | 1486220805.34208 | pgbench_history  |        322060288
 2017-02-04 16:06:45.342079+01 | 1486220805.34208 | pgbench_branches |         12599296

 2017-02-04 16:06:46.427164+01 | 1486220806.42716 | pgbench_accounts |      13682466816
 2017-02-04 16:06:46.427164+01 | 1486220806.42716 | pgbench_tellers  |         15523840
 2017-02-04 16:06:46.427164+01 | 1486220806.42716 | pgbench_history  |        324313088
 2017-02-04 16:06:46.427164+01 | 1486220806.42716 | pgbench_branches |         12599296

 2017-02-04 16:06:47.511497+01 | 1486220807.5115 | pgbench_accounts |      13682466816
 2017-02-04 16:06:47.511497+01 | 1486220807.5115 | pgbench_tellers  |         15523840
 2017-02-04 16:06:47.511497+01 | 1486220807.5115 | pgbench_history  |        326328320
 2017-02-04 16:06:47.511497+01 | 1486220807.5115 | pgbench_branches |         12599296

 2017-02-04 16:06:48.592373+01 | 1486220808.59237 | pgbench_accounts |      13682466816
 2017-02-04 16:06:48.592373+01 | 1486220808.59237 | pgbench_tellers  |         15523840
 2017-02-04 16:06:48.592373+01 | 1486220808.59237 | pgbench_history  |        328589312
 2017-02-04 16:06:48.592373+01 | 1486220808.59237 | pgbench_branches |         12599296

 2017-02-04 16:06:49.665764+01 | 1486220809.66576 | pgbench_accounts |      13682466816
 2017-02-04 16:06:49.665764+01 | 1486220809.66576 | pgbench_tellers  |         15523840
 2017-02-04 16:06:49.665764+01 | 1486220809.66576 | pgbench_history  |        331448320
 2017-02-04 16:06:49.665764+01 | 1486220809.66576 | pgbench_branches |         12599296

 2017-02-04 16:06:50.744133+01 | 1486220810.74413 | pgbench_accounts |      13682466816
 2017-02-04 16:06:50.744133+01 | 1486220810.74413 | pgbench_tellers  |         15523840
 2017-02-04 16:06:50.744133+01 | 1486220810.74413 | pgbench_history  |        333815808
 2017-02-04 16:06:50.744133+01 | 1486220810.74413 | pgbench_branches |         12599296

 2017-02-04 16:06:51.819455+01 | 1486220811.81945 | pgbench_accounts |      13682466816
 2017-02-04 16:06:51.819455+01 | 1486220811.81945 | pgbench_tellers  |         15523840
 2017-02-04 16:06:51.819455+01 | 1486220811.81945 | pgbench_history  |        336019456
 2017-02-04 16:06:51.819455+01 | 1486220811.81945 | pgbench_branches |         12599296

 2017-02-04 16:06:52.900731+01 | 1486220812.90073 | pgbench_accounts |      13682466816
 2017-02-04 16:06:52.900731+01 | 1486220812.90073 | pgbench_tellers  |         15523840
 2017-02-04 16:06:52.900731+01 | 1486220812.90073 | pgbench_history  |        338042880
 2017-02-04 16:06:52.900731+01 | 1486220812.90073 | pgbench_branches |         12599296

 2017-02-04 16:06:53.979981+01 | 1486220813.97998 | pgbench_accounts |      13682466816
 2017-02-04 16:06:53.979981+01 | 1486220813.97998 | pgbench_tellers  |         15523840
 2017-02-04 16:06:53.979981+01 | 1486220813.97998 | pgbench_history  |        340901888
 2017-02-04 16:06:53.979981+01 | 1486220813.97998 | pgbench_branches |         12599296

 2017-02-04 16:06:55.064506+01 | 1486220815.06451 | pgbench_accounts |      13682466816
 2017-02-04 16:06:55.064506+01 | 1486220815.06451 | pgbench_tellers  |         15523840
 2017-02-04 16:06:55.064506+01 | 1486220815.06451 | pgbench_history  |        343089152
 2017-02-04 16:06:55.064506+01 | 1486220815.06451 | pgbench_branches |         12599296

 2017-02-04 16:06:56.143294+01 | 1486220816.14329 | pgbench_accounts |      13682466816
 2017-02-04 16:06:56.143294+01 | 1486220816.14329 | pgbench_tellers  |         15523840
 2017-02-04 16:06:56.143294+01 | 1486220816.14329 | pgbench_history  |        344670208
 2017-02-04 16:06:56.143294+01 | 1486220816.14329 | pgbench_branches |         12599296

 2017-02-04 16:06:57.221535+01 | 1486220817.22153 | pgbench_accounts |      13682466816
 2017-02-04 16:06:57.221535+01 | 1486220817.22153 | pgbench_tellers  |         15523840
 2017-02-04 16:06:57.221535+01 | 1486220817.22153 | pgbench_history  |        346906624
 2017-02-04 16:06:57.221535+01 | 1486220817.22153 | pgbench_branches |         12599296

 2017-02-04 16:06:58.306363+01 | 1486220818.30636 | pgbench_accounts |      13682466816
 2017-02-04 16:06:58.306363+01 | 1486220818.30636 | pgbench_tellers  |         15523840
 2017-02-04 16:06:58.306363+01 | 1486220818.30636 | pgbench_history  |        349011968
 2017-02-04 16:06:58.306363+01 | 1486220818.30636 | pgbench_branches |         12599296

 2017-02-04 16:06:59.385134+01 | 1486220819.38513 | pgbench_accounts |      13682466816
 2017-02-04 16:06:59.385134+01 | 1486220819.38513 | pgbench_tellers  |         15523840
 2017-02-04 16:06:59.385134+01 | 1486220819.38513 | pgbench_history  |        351731712
 2017-02-04 16:06:59.385134+01 | 1486220819.38513 | pgbench_branches |         12599296

 2017-02-04 16:07:00.463679+01 | 1486220820.46368 | pgbench_accounts |      13682466816
 2017-02-04 16:07:00.463679+01 | 1486220820.46368 | pgbench_tellers  |         15523840
 2017-02-04 16:07:00.463679+01 | 1486220820.46368 | pgbench_history  |        353468416
 2017-02-04 16:07:00.463679+01 | 1486220820.46368 | pgbench_branches |         12599296

 2017-02-04 16:07:01.543068+01 | 1486220821.54307 | pgbench_accounts |      13682466816
 2017-02-04 16:07:01.543068+01 | 1486220821.54307 | pgbench_tellers  |         15523840
 2017-02-04 16:07:01.543068+01 | 1486220821.54307 | pgbench_history  |        355393536
 2017-02-04 16:07:01.543068+01 | 1486220821.54307 | pgbench_branches |         12599296

 2017-02-04 16:07:02.620661+01 | 1486220822.62066 | pgbench_accounts |      13682466816
 2017-02-04 16:07:02.620661+01 | 1486220822.62066 | pgbench_tellers  |         15523840
 2017-02-04 16:07:02.620661+01 | 1486220822.62066 | pgbench_history  |        357490688
 2017-02-04 16:07:02.620661+01 | 1486220822.62066 | pgbench_branches |         12599296

 2017-02-04 16:07:03.697924+01 | 1486220823.69792 | pgbench_accounts |      13682466816
 2017-02-04 16:07:03.697924+01 | 1486220823.69792 | pgbench_tellers  |         15523840
 2017-02-04 16:07:03.697924+01 | 1486220823.69792 | pgbench_history  |        359505920
 2017-02-04 16:07:03.697924+01 | 1486220823.69792 | pgbench_branches |         12599296

 2017-02-04 16:07:04.773498+01 | 1486220824.7735 | pgbench_accounts |      13682466816
 2017-02-04 16:07:04.773498+01 | 1486220824.7735 | pgbench_tellers  |         15523840
 2017-02-04 16:07:04.773498+01 | 1486220824.7735 | pgbench_history  |        361660416
 2017-02-04 16:07:04.773498+01 | 1486220824.7735 | pgbench_branches |         12599296

 2017-02-04 16:07:05.850382+01 | 1486220825.85038 | pgbench_accounts |      13682466816
 2017-02-04 16:07:05.850382+01 | 1486220825.85038 | pgbench_tellers  |         15523840
 2017-02-04 16:07:05.850382+01 | 1486220825.85038 | pgbench_history  |        363749376
 2017-02-04 16:07:05.850382+01 | 1486220825.85038 | pgbench_branches |         12599296

 2017-02-04 16:07:06.926495+01 | 1486220826.9265 | pgbench_accounts |      13682466816
 2017-02-04 16:07:06.926495+01 | 1486220826.9265 | pgbench_tellers  |         15523840
 2017-02-04 16:07:06.926495+01 | 1486220826.9265 | pgbench_history  |        366141440
 2017-02-04 16:07:06.926495+01 | 1486220826.9265 | pgbench_branches |         12599296

 2017-02-04 16:07:08.007266+01 | 1486220828.00727 | pgbench_accounts |      13682466816
 2017-02-04 16:07:08.007266+01 | 1486220828.00727 | pgbench_tellers  |         15523840
 2017-02-04 16:07:08.007266+01 | 1486220828.00727 | pgbench_history  |        368369664
 2017-02-04 16:07:08.007266+01 | 1486220828.00727 | pgbench_branches |         12599296

 2017-02-04 16:07:09.087813+01 | 1486220829.08781 | pgbench_accounts |      13682466816
 2017-02-04 16:07:09.087813+01 | 1486220829.08781 | pgbench_tellers  |         15523840
 2017-02-04 16:07:09.087813+01 | 1486220829.08781 | pgbench_history  |        370294784
 2017-02-04 16:07:09.087813+01 | 1486220829.08781 | pgbench_branches |         12599296

 2017-02-04 16:07:10.170104+01 | 1486220830.1701 | pgbench_accounts |      13682466816
 2017-02-04 16:07:10.170104+01 | 1486220830.1701 | pgbench_tellers  |         15523840
 2017-02-04 16:07:10.170104+01 | 1486220830.1701 | pgbench_history  |        372727808
 2017-02-04 16:07:10.170104+01 | 1486220830.1701 | pgbench_branches |         12599296

 2017-02-04 16:07:11.251877+01 | 1486220831.25188 | pgbench_accounts |      13682466816
 2017-02-04 16:07:11.251877+01 | 1486220831.25188 | pgbench_tellers  |         15523840
 2017-02-04 16:07:11.251877+01 | 1486220831.25188 | pgbench_history  |        374849536
 2017-02-04 16:07:11.251877+01 | 1486220831.25188 | pgbench_branches |         12599296

 2017-02-04 16:07:12.333834+01 | 1486220832.33383 | pgbench_accounts |      13682466816
 2017-02-04 16:07:12.333834+01 | 1486220832.33383 | pgbench_tellers  |         15523840
 2017-02-04 16:07:12.333834+01 | 1486220832.33383 | pgbench_history  |        377167872
 2017-02-04 16:07:12.333834+01 | 1486220832.33383 | pgbench_branches |         12599296

 2017-02-04 16:07:13.424141+01 | 1486220833.42414 | pgbench_accounts |      13682466816
 2017-02-04 16:07:13.424141+01 | 1486220833.42414 | pgbench_tellers  |         15523840
 2017-02-04 16:07:13.424141+01 | 1486220833.42414 | pgbench_history  |        379232256
 2017-02-04 16:07:13.424141+01 | 1486220833.42414 | pgbench_branches |         12599296

 2017-02-04 16:07:14.503292+01 | 1486220834.50329 | pgbench_accounts |      13682466816
 2017-02-04 16:07:14.503292+01 | 1486220834.50329 | pgbench_tellers  |         15523840
 2017-02-04 16:07:14.503292+01 | 1486220834.50329 | pgbench_history  |        381960192
 2017-02-04 16:07:14.503292+01 | 1486220834.50329 | pgbench_branches |         12599296

 2017-02-04 16:07:15.587024+01 | 1486220835.58702 | pgbench_accounts |      13682466816
 2017-02-04 16:07:15.587024+01 | 1486220835.58702 | pgbench_tellers  |         15523840
 2017-02-04 16:07:15.587024+01 | 1486220835.58702 | pgbench_history  |        383696896
 2017-02-04 16:07:15.587024+01 | 1486220835.58702 | pgbench_branches |         12599296

 2017-02-04 16:07:16.666659+01 | 1486220836.66666 | pgbench_accounts |      13682466816
 2017-02-04 16:07:16.666659+01 | 1486220836.66666 | pgbench_tellers  |         15523840
 2017-02-04 16:07:16.666659+01 | 1486220836.66666 | pgbench_history  |        386768896
 2017-02-04 16:07:16.666659+01 | 1486220836.66666 | pgbench_branches |         12599296

 2017-02-04 16:07:17.743682+01 | 1486220837.74368 | pgbench_accounts |      13682466816
 2017-02-04 16:07:17.743682+01 | 1486220837.74368 | pgbench_tellers  |         15523840
 2017-02-04 16:07:17.743682+01 | 1486220837.74368 | pgbench_history  |        388456448
 2017-02-04 16:07:17.743682+01 | 1486220837.74368 | pgbench_branches |         12599296

 2017-02-04 16:07:18.818306+01 | 1486220838.81831 | pgbench_accounts |      13682466816
 2017-02-04 16:07:18.818306+01 | 1486220838.81831 | pgbench_tellers  |         15523840
 2017-02-04 16:07:18.818306+01 | 1486220838.81831 | pgbench_history  |        390676480
 2017-02-04 16:07:18.818306+01 | 1486220838.81831 | pgbench_branches |         12599296

 2017-02-04 16:07:19.897438+01 | 1486220839.89744 | pgbench_accounts |      13682466816
 2017-02-04 16:07:19.897438+01 | 1486220839.89744 | pgbench_tellers  |         15523840
 2017-02-04 16:07:19.897438+01 | 1486220839.89744 | pgbench_history  |        393371648
 2017-02-04 16:07:19.897438+01 | 1486220839.89744 | pgbench_branches |         12599296

 2017-02-04 16:07:20.981521+01 | 1486220840.98152 | pgbench_accounts |      13682466816
 2017-02-04 16:07:20.981521+01 | 1486220840.98152 | pgbench_tellers  |         15523840
 2017-02-04 16:07:20.981521+01 | 1486220840.98152 | pgbench_history  |        394919936
 2017-02-04 16:07:20.981521+01 | 1486220840.98152 | pgbench_branches |         12599296

 2017-02-04 16:07:22.064134+01 | 1486220842.06413 | pgbench_accounts |      13682466816
 2017-02-04 16:07:22.064134+01 | 1486220842.06413 | pgbench_tellers  |         15523840
 2017-02-04 16:07:22.064134+01 | 1486220842.06413 | pgbench_history  |        397148160
 2017-02-04 16:07:22.064134+01 | 1486220842.06413 | pgbench_branches |         12599296

 2017-02-04 16:07:23.14736+01 | 1486220843.14736 | pgbench_accounts |      13682466816
 2017-02-04 16:07:23.14736+01 | 1486220843.14736 | pgbench_tellers  |         15523840
 2017-02-04 16:07:23.14736+01 | 1486220843.14736 | pgbench_history  |        398999552
 2017-02-04 16:07:23.14736+01 | 1486220843.14736 | pgbench_branches |         12599296

 2017-02-04 16:07:24.22612+01 | 1486220844.22612 | pgbench_accounts |      13682466816
 2017-02-04 16:07:24.22612+01 | 1486220844.22612 | pgbench_tellers  |         15523840
 2017-02-04 16:07:24.22612+01 | 1486220844.22612 | pgbench_history  |        400875520
 2017-02-04 16:07:24.22612+01 | 1486220844.22612 | pgbench_branches |         12599296

 2017-02-04 16:07:25.30426+01 | 1486220845.30426 | pgbench_accounts |      13682466816
 2017-02-04 16:07:25.30426+01 | 1486220845.30426 | pgbench_tellers  |         15523840
 2017-02-04 16:07:25.30426+01 | 1486220845.30426 | pgbench_history  |        402915328
 2017-02-04 16:07:25.30426+01 | 1486220845.30426 | pgbench_branches |         12599296

 2017-02-04 16:07:26.393799+01 | 1486220846.3938 | pgbench_accounts |      13682466816
 2017-02-04 16:07:26.393799+01 | 1486220846.3938 | pgbench_tellers  |         15523840
 2017-02-04 16:07:26.393799+01 | 1486220846.3938 | pgbench_history  |        405307392
 2017-02-04 16:07:26.393799+01 | 1486220846.3938 | pgbench_branches |         12599296

 2017-02-04 16:07:27.47338+01 | 1486220847.47338 | pgbench_accounts |      13682466816
 2017-02-04 16:07:27.47338+01 | 1486220847.47338 | pgbench_tellers  |         15523840
 2017-02-04 16:07:27.47338+01 | 1486220847.47338 | pgbench_history  |        408567808
 2017-02-04 16:07:27.47338+01 | 1486220847.47338 | pgbench_branches |         12599296

 2017-02-04 16:07:28.561612+01 | 1486220848.56161 | pgbench_accounts |      13682466816
 2017-02-04 16:07:28.561612+01 | 1486220848.56161 | pgbench_tellers  |         15523840
 2017-02-04 16:07:28.561612+01 | 1486220848.56161 | pgbench_history  |        411148288
 2017-02-04 16:07:28.561612+01 | 1486220848.56161 | pgbench_branches |         12599296

 2017-02-04 16:07:29.64703+01 | 1486220849.64703 | pgbench_accounts |      13682466816
 2017-02-04 16:07:29.64703+01 | 1486220849.64703 | pgbench_tellers  |         15523840
 2017-02-04 16:07:29.64703+01 | 1486220849.64703 | pgbench_history  |        412213248
 2017-02-04 16:07:29.64703+01 | 1486220849.64703 | pgbench_branches |         12599296

 2017-02-04 16:07:30.722028+01 | 1486220850.72203 | pgbench_accounts |      13682466816
 2017-02-04 16:07:30.722028+01 | 1486220850.72203 | pgbench_tellers  |         15523840
 2017-02-04 16:07:30.722028+01 | 1486220850.72203 | pgbench_history  |        414679040
 2017-02-04 16:07:30.722028+01 | 1486220850.72203 | pgbench_branches |         12599296

 2017-02-04 16:07:31.798621+01 | 1486220851.79862 | pgbench_accounts |      13682466816
 2017-02-04 16:07:31.798621+01 | 1486220851.79862 | pgbench_tellers  |         15523840
 2017-02-04 16:07:31.798621+01 | 1486220851.79862 | pgbench_history  |        417374208
 2017-02-04 16:07:31.798621+01 | 1486220851.79862 | pgbench_branches |         12599296

 2017-02-04 16:07:32.869883+01 | 1486220852.86988 | pgbench_accounts |      13682466816
 2017-02-04 16:07:32.869883+01 | 1486220852.86988 | pgbench_tellers  |         15523840
 2017-02-04 16:07:32.869883+01 | 1486220852.86988 | pgbench_history  |        418897920
 2017-02-04 16:07:32.869883+01 | 1486220852.86988 | pgbench_branches |         12599296

 2017-02-04 16:07:33.949883+01 | 1486220853.94988 | pgbench_accounts |      13682466816
 2017-02-04 16:07:33.949883+01 | 1486220853.94988 | pgbench_tellers  |         15523840
 2017-02-04 16:07:33.949883+01 | 1486220853.94988 | pgbench_history  |        421462016
 2017-02-04 16:07:33.949883+01 | 1486220853.94988 | pgbench_branches |         12599296

 2017-02-04 16:07:35.031119+01 | 1486220855.03112 | pgbench_accounts |      13682466816
 2017-02-04 16:07:35.031119+01 | 1486220855.03112 | pgbench_tellers  |         15523840
 2017-02-04 16:07:35.031119+01 | 1486220855.03112 | pgbench_history  |        424181760
 2017-02-04 16:07:35.031119+01 | 1486220855.03112 | pgbench_branches |         12599296

 2017-02-04 16:07:36.108885+01 | 1486220856.10889 | pgbench_accounts |      13682466816
 2017-02-04 16:07:36.108885+01 | 1486220856.10889 | pgbench_tellers  |         15523840
 2017-02-04 16:07:36.108885+01 | 1486220856.10889 | pgbench_history  |        425926656
 2017-02-04 16:07:36.108885+01 | 1486220856.10889 | pgbench_branches |         12599296

 2017-02-04 16:07:37.192894+01 | 1486220857.19289 | pgbench_accounts |      13682466816
 2017-02-04 16:07:37.192894+01 | 1486220857.19289 | pgbench_tellers  |         15523840
 2017-02-04 16:07:37.192894+01 | 1486220857.19289 | pgbench_history  |        428343296
 2017-02-04 16:07:37.192894+01 | 1486220857.19289 | pgbench_branches |         12599296

 2017-02-04 16:07:38.276755+01 | 1486220858.27676 | pgbench_accounts |      13682466816
 2017-02-04 16:07:38.276755+01 | 1486220858.27676 | pgbench_tellers  |         15523840
 2017-02-04 16:07:38.276755+01 | 1486220858.27676 | pgbench_history  |        430112768
 2017-02-04 16:07:38.276755+01 | 1486220858.27676 | pgbench_branches |         12599296

 2017-02-04 16:07:39.346907+01 | 1486220859.34691 | pgbench_accounts |      13682466816
 2017-02-04 16:07:39.346907+01 | 1486220859.34691 | pgbench_tellers  |         15523840
 2017-02-04 16:07:39.346907+01 | 1486220859.34691 | pgbench_history  |        432177152
 2017-02-04 16:07:39.346907+01 | 1486220859.34691 | pgbench_branches |         12599296

 2017-02-04 16:07:40.421404+01 | 1486220860.4214 | pgbench_accounts |      13682466816
 2017-02-04 16:07:40.421404+01 | 1486220860.4214 | pgbench_tellers  |         15523840
 2017-02-04 16:07:40.421404+01 | 1486220860.4214 | pgbench_history  |        434429952
 2017-02-04 16:07:40.421404+01 | 1486220860.4214 | pgbench_branches |         12599296

 2017-02-04 16:07:41.507146+01 | 1486220861.50715 | pgbench_accounts |      13682466816
 2017-02-04 16:07:41.507146+01 | 1486220861.50715 | pgbench_tellers  |         15523840
 2017-02-04 16:07:41.507146+01 | 1486220861.50715 | pgbench_history  |        437125120
 2017-02-04 16:07:41.507146+01 | 1486220861.50715 | pgbench_branches |         12599296

 2017-02-04 16:07:42.598436+01 | 1486220862.59844 | pgbench_accounts |      13682466816
 2017-02-04 16:07:42.598436+01 | 1486220862.59844 | pgbench_tellers  |         15523840
 2017-02-04 16:07:42.598436+01 | 1486220862.59844 | pgbench_history  |        439664640
 2017-02-04 16:07:42.598436+01 | 1486220862.59844 | pgbench_branches |         12599296

 2017-02-04 16:07:43.680929+01 | 1486220863.68093 | pgbench_accounts |      13682466816
 2017-02-04 16:07:43.680929+01 | 1486220863.68093 | pgbench_tellers  |         15523840
 2017-02-04 16:07:43.680929+01 | 1486220863.68093 | pgbench_history  |        441057280
 2017-02-04 16:07:43.680929+01 | 1486220863.68093 | pgbench_branches |         12599296

 2017-02-04 16:07:44.753801+01 | 1486220864.7538 | pgbench_accounts |      13682466816
 2017-02-04 16:07:44.753801+01 | 1486220864.7538 | pgbench_tellers  |         15523840
 2017-02-04 16:07:44.753801+01 | 1486220864.7538 | pgbench_history  |        444104704
 2017-02-04 16:07:44.753801+01 | 1486220864.7538 | pgbench_branches |         12599296

 2017-02-04 16:07:45.834222+01 | 1486220865.83422 | pgbench_accounts |      13682466816
 2017-02-04 16:07:45.834222+01 | 1486220865.83422 | pgbench_tellers  |         15523840
 2017-02-04 16:07:45.834222+01 | 1486220865.83422 | pgbench_history  |        445956096
 2017-02-04 16:07:45.834222+01 | 1486220865.83422 | pgbench_branches |         12599296

 2017-02-04 16:07:46.916978+01 | 1486220866.91698 | pgbench_accounts |      13682466816
 2017-02-04 16:07:46.916978+01 | 1486220866.91698 | pgbench_tellers  |         15523840
 2017-02-04 16:07:46.916978+01 | 1486220866.91698 | pgbench_history  |        447995904
 2017-02-04 16:07:46.916978+01 | 1486220866.91698 | pgbench_branches |         12599296

 2017-02-04 16:07:47.998887+01 | 1486220867.99889 | pgbench_accounts |      13682466816
 2017-02-04 16:07:47.998887+01 | 1486220867.99889 | pgbench_tellers  |         15523840
 2017-02-04 16:07:47.998887+01 | 1486220867.99889 | pgbench_history  |        450207744
 2017-02-04 16:07:47.998887+01 | 1486220867.99889 | pgbench_branches |         12599296

 2017-02-04 16:07:49.084409+01 | 1486220869.08441 | pgbench_accounts |      13682466816
 2017-02-04 16:07:49.084409+01 | 1486220869.08441 | pgbench_tellers  |         15523840
 2017-02-04 16:07:49.084409+01 | 1486220869.08441 | pgbench_history  |        452608000
 2017-02-04 16:07:49.084409+01 | 1486220869.08441 | pgbench_branches |         12599296

 2017-02-04 16:07:50.161436+01 | 1486220870.16144 | pgbench_accounts |      13682466816
 2017-02-04 16:07:50.161436+01 | 1486220870.16144 | pgbench_tellers  |         15523840
 2017-02-04 16:07:50.161436+01 | 1486220870.16144 | pgbench_history  |        455032832
 2017-02-04 16:07:50.161436+01 | 1486220870.16144 | pgbench_branches |         12599296

 2017-02-04 16:07:51.241289+01 | 1486220871.24129 | pgbench_accounts |      13682466816
 2017-02-04 16:07:51.241289+01 | 1486220871.24129 | pgbench_tellers  |         15523840
 2017-02-04 16:07:51.241289+01 | 1486220871.24129 | pgbench_history  |        457097216
 2017-02-04 16:07:51.241289+01 | 1486220871.24129 | pgbench_branches |         12599296

 2017-02-04 16:07:52.320066+01 | 1486220872.32007 | pgbench_accounts |      13682466816
 2017-02-04 16:07:52.320066+01 | 1486220872.32007 | pgbench_tellers  |         15523840
 2017-02-04 16:07:52.320066+01 | 1486220872.32007 | pgbench_history  |        459472896
 2017-02-04 16:07:52.320066+01 | 1486220872.32007 | pgbench_branches |         12599296

 2017-02-04 16:07:53.399923+01 | 1486220873.39992 | pgbench_accounts |      13682466816
 2017-02-04 16:07:53.399923+01 | 1486220873.39992 | pgbench_tellers  |         15523840
 2017-02-04 16:07:53.399923+01 | 1486220873.39992 | pgbench_history  |        463233024
 2017-02-04 16:07:53.399923+01 | 1486220873.39992 | pgbench_branches |         12599296

 2017-02-04 16:07:54.47427+01 | 1486220874.47427 | pgbench_accounts |      13682466816
 2017-02-04 16:07:54.47427+01 | 1486220874.47427 | pgbench_tellers  |         15523840
 2017-02-04 16:07:54.47427+01 | 1486220874.47427 | pgbench_history  |        463773696
 2017-02-04 16:07:54.47427+01 | 1486220874.47427 | pgbench_branches |         12599296

 2017-02-04 16:07:55.551509+01 | 1486220875.55151 | pgbench_accounts |      13682466816
 2017-02-04 16:07:55.551509+01 | 1486220875.55151 | pgbench_tellers  |         15523840
 2017-02-04 16:07:55.551509+01 | 1486220875.55151 | pgbench_history  |        466116608
 2017-02-04 16:07:55.551509+01 | 1486220875.55151 | pgbench_branches |         12599296

 2017-02-04 16:07:56.645716+01 | 1486220876.64572 | pgbench_accounts |      13682466816
 2017-02-04 16:07:56.645716+01 | 1486220876.64572 | pgbench_tellers  |         15523840
 2017-02-04 16:07:56.645716+01 | 1486220876.64572 | pgbench_history  |        469000192
 2017-02-04 16:07:56.645716+01 | 1486220876.64572 | pgbench_branches |         12599296

 2017-02-04 16:07:57.720342+01 | 1486220877.72034 | pgbench_accounts |      13682466816
 2017-02-04 16:07:57.720342+01 | 1486220877.72034 | pgbench_tellers  |         15523840
 2017-02-04 16:07:57.720342+01 | 1486220877.72034 | pgbench_history  |        470736896
 2017-02-04 16:07:57.720342+01 | 1486220877.72034 | pgbench_branches |         12599296

 2017-02-04 16:07:58.796521+01 | 1486220878.79652 | pgbench_accounts |      13682466816
 2017-02-04 16:07:58.796521+01 | 1486220878.79652 | pgbench_tellers  |         15523840
 2017-02-04 16:07:58.796521+01 | 1486220878.79652 | pgbench_history  |        473784320
 2017-02-04 16:07:58.796521+01 | 1486220878.79652 | pgbench_branches |         12599296

 2017-02-04 16:07:59.873523+01 | 1486220879.87352 | pgbench_accounts |      13682466816
 2017-02-04 16:07:59.873523+01 | 1486220879.87352 | pgbench_tellers  |         15523840
 2017-02-04 16:07:59.873523+01 | 1486220879.87352 | pgbench_history  |        475635712
 2017-02-04 16:07:59.873523+01 | 1486220879.87352 | pgbench_branches |         12599296

 2017-02-04 16:08:00.962298+01 | 1486220880.9623 | pgbench_accounts |      13682466816
 2017-02-04 16:08:00.962298+01 | 1486220880.9623 | pgbench_tellers  |         15523840
 2017-02-04 16:08:00.962298+01 | 1486220880.9623 | pgbench_history  |        477773824
 2017-02-04 16:08:00.962298+01 | 1486220880.9623 | pgbench_branches |         12599296

 2017-02-04 16:08:02.043855+01 | 1486220882.04385 | pgbench_accounts |      13682466816
 2017-02-04 16:08:02.043855+01 | 1486220882.04385 | pgbench_tellers  |         15523840
 2017-02-04 16:08:02.043855+01 | 1486220882.04385 | pgbench_history  |        480870400
 2017-02-04 16:08:02.043855+01 | 1486220882.04385 | pgbench_branches |         12599296

 2017-02-04 16:08:03.126041+01 | 1486220883.12604 | pgbench_accounts |      13682466816
 2017-02-04 16:08:03.126041+01 | 1486220883.12604 | pgbench_tellers  |         15523840
 2017-02-04 16:08:03.126041+01 | 1486220883.12604 | pgbench_history  |        482729984
 2017-02-04 16:08:03.126041+01 | 1486220883.12604 | pgbench_branches |         12599296

 2017-02-04 16:08:04.208008+01 | 1486220884.20801 | pgbench_accounts |      13682466816
 2017-02-04 16:08:04.208008+01 | 1486220884.20801 | pgbench_tellers  |         15523840
 2017-02-04 16:08:04.208008+01 | 1486220884.20801 | pgbench_history  |        484270080
 2017-02-04 16:08:04.208008+01 | 1486220884.20801 | pgbench_branches |         12599296

 2017-02-04 16:08:05.291457+01 | 1486220885.29146 | pgbench_accounts |      13682466816
 2017-02-04 16:08:05.291457+01 | 1486220885.29146 | pgbench_tellers  |         15523840
 2017-02-04 16:08:05.291457+01 | 1486220885.29146 | pgbench_history  |        486834176
 2017-02-04 16:08:05.291457+01 | 1486220885.29146 | pgbench_branches |         12599296

 2017-02-04 16:08:06.370619+01 | 1486220886.37062 | pgbench_accounts |      13682466816
 2017-02-04 16:08:06.370619+01 | 1486220886.37062 | pgbench_tellers  |         15523840
 2017-02-04 16:08:06.370619+01 | 1486220886.37062 | pgbench_history  |        488898560
 2017-02-04 16:08:06.370619+01 | 1486220886.37062 | pgbench_branches |         12599296

 2017-02-04 16:08:07.449896+01 | 1486220887.4499 | pgbench_accounts |      13682466816
 2017-02-04 16:08:07.449896+01 | 1486220887.4499 | pgbench_tellers  |         15523840
 2017-02-04 16:08:07.449896+01 | 1486220887.4499 | pgbench_history  |        491806720
 2017-02-04 16:08:07.449896+01 | 1486220887.4499 | pgbench_branches |         12599296

 2017-02-04 16:08:08.531097+01 | 1486220888.5311 | pgbench_accounts |      13682466816
 2017-02-04 16:08:08.531097+01 | 1486220888.5311 | pgbench_tellers  |         15523840
 2017-02-04 16:08:08.531097+01 | 1486220888.5311 | pgbench_history  |        493543424
 2017-02-04 16:08:08.531097+01 | 1486220888.5311 | pgbench_branches |         12599296

 2017-02-04 16:08:09.612164+01 | 1486220889.61216 | pgbench_accounts |      13682466816
 2017-02-04 16:08:09.612164+01 | 1486220889.61216 | pgbench_tellers  |         15523840
 2017-02-04 16:08:09.612164+01 | 1486220889.61216 | pgbench_history  |        496025600
 2017-02-04 16:08:09.612164+01 | 1486220889.61216 | pgbench_branches |         12599296

 2017-02-04 16:08:10.696768+01 | 1486220890.69677 | pgbench_accounts |      13682466816
 2017-02-04 16:08:10.696768+01 | 1486220890.69677 | pgbench_tellers  |         15523840
 2017-02-04 16:08:10.696768+01 | 1486220890.69677 | pgbench_history  |        498229248
 2017-02-04 16:08:10.696768+01 | 1486220890.69677 | pgbench_branches |         12599296

 2017-02-04 16:08:11.774831+01 | 1486220891.77483 | pgbench_accounts |      13682466816
 2017-02-04 16:08:11.774831+01 | 1486220891.77483 | pgbench_tellers  |         15523840
 2017-02-04 16:08:11.774831+01 | 1486220891.77483 | pgbench_history  |        500105216
 2017-02-04 16:08:11.774831+01 | 1486220891.77483 | pgbench_branches |         12599296

 2017-02-04 16:08:12.850309+01 | 1486220892.85031 | pgbench_accounts |      13682466816
 2017-02-04 16:08:12.850309+01 | 1486220892.85031 | pgbench_tellers  |         15523840
 2017-02-04 16:08:12.850309+01 | 1486220892.85031 | pgbench_history  |        502546432
 2017-02-04 16:08:12.850309+01 | 1486220892.85031 | pgbench_branches |         12599296

 2017-02-04 16:08:13.937629+01 | 1486220893.93763 | pgbench_accounts |      13682466816
 2017-02-04 16:08:13.937629+01 | 1486220893.93763 | pgbench_tellers  |         15523840
 2017-02-04 16:08:13.937629+01 | 1486220893.93763 | pgbench_history  |        505126912
 2017-02-04 16:08:13.937629+01 | 1486220893.93763 | pgbench_branches |         12599296

 2017-02-04 16:08:15.015786+01 | 1486220895.01579 | pgbench_accounts |      13682466816
 2017-02-04 16:08:15.015786+01 | 1486220895.01579 | pgbench_tellers  |         15523840
 2017-02-04 16:08:15.015786+01 | 1486220895.01579 | pgbench_history  |        507052032
 2017-02-04 16:08:15.015786+01 | 1486220895.01579 | pgbench_branches |         12599296

 2017-02-04 16:08:16.099319+01 | 1486220896.09932 | pgbench_accounts |      13682466816
 2017-02-04 16:08:16.099319+01 | 1486220896.09932 | pgbench_tellers  |         15523840
 2017-02-04 16:08:16.099319+01 | 1486220896.09932 | pgbench_history  |        509583360
 2017-02-04 16:08:16.099319+01 | 1486220896.09932 | pgbench_branches |         12599296

 2017-02-04 16:08:17.17878+01 | 1486220897.17878 | pgbench_accounts |      13682466816
 2017-02-04 16:08:17.17878+01 | 1486220897.17878 | pgbench_tellers  |         15523840
 2017-02-04 16:08:17.17878+01 | 1486220897.17878 | pgbench_history  |        512008192
 2017-02-04 16:08:17.17878+01 | 1486220897.17878 | pgbench_branches |         12599296

 2017-02-04 16:08:18.26369+01 | 1486220898.26369 | pgbench_accounts |      13682466816
 2017-02-04 16:08:18.26369+01 | 1486220898.26369 | pgbench_tellers  |         15523840
 2017-02-04 16:08:18.26369+01 | 1486220898.26369 | pgbench_history  |        514113536
 2017-02-04 16:08:18.26369+01 | 1486220898.26369 | pgbench_branches |         12599296

 2017-02-04 16:08:19.350062+01 | 1486220899.35006 | pgbench_accounts |      13682466816
 2017-02-04 16:08:19.350062+01 | 1486220899.35006 | pgbench_tellers  |         15523840
 2017-02-04 16:08:19.350062+01 | 1486220899.35006 | pgbench_history  |        515997696
 2017-02-04 16:08:19.350062+01 | 1486220899.35006 | pgbench_branches |         12599296

 2017-02-04 16:08:20.435931+01 | 1486220900.43593 | pgbench_accounts |      13682466816
 2017-02-04 16:08:20.435931+01 | 1486220900.43593 | pgbench_tellers  |         15523840
 2017-02-04 16:08:20.435931+01 | 1486220900.43593 | pgbench_history  |        518414336
 2017-02-04 16:08:20.435931+01 | 1486220900.43593 | pgbench_branches |         12599296

 2017-02-04 16:08:21.517311+01 | 1486220901.51731 | pgbench_accounts |      13682466816
 2017-02-04 16:08:21.517311+01 | 1486220901.51731 | pgbench_tellers  |         15523840
 2017-02-04 16:08:21.517311+01 | 1486220901.51731 | pgbench_history  |        520781824
 2017-02-04 16:08:21.517311+01 | 1486220901.51731 | pgbench_branches |         12599296

 2017-02-04 16:08:22.600023+01 | 1486220902.60002 | pgbench_accounts |      13682466816
 2017-02-04 16:08:22.600023+01 | 1486220902.60002 | pgbench_tellers  |         15523840
 2017-02-04 16:08:22.600023+01 | 1486220902.60002 | pgbench_history  |        523624448
 2017-02-04 16:08:22.600023+01 | 1486220902.60002 | pgbench_branches |         12599296

 2017-02-04 16:08:23.682031+01 | 1486220903.68203 | pgbench_accounts |      13682466816
 2017-02-04 16:08:23.682031+01 | 1486220903.68203 | pgbench_tellers  |         15523840
 2017-02-04 16:08:23.682031+01 | 1486220903.68203 | pgbench_history  |        525500416
 2017-02-04 16:08:23.682031+01 | 1486220903.68203 | pgbench_branches |         12599296

 2017-02-04 16:08:24.75682+01 | 1486220904.75682 | pgbench_accounts |      13682466816
 2017-02-04 16:08:24.75682+01 | 1486220904.75682 | pgbench_tellers  |         15523840
 2017-02-04 16:08:24.75682+01 | 1486220904.75682 | pgbench_history  |        528064512
 2017-02-04 16:08:24.75682+01 | 1486220904.75682 | pgbench_branches |         12599296

 2017-02-04 16:08:25.83097+01 | 1486220905.83097 | pgbench_accounts |      13682466816
 2017-02-04 16:08:25.83097+01 | 1486220905.83097 | pgbench_tellers  |         15523840
 2017-02-04 16:08:25.83097+01 | 1486220905.83097 | pgbench_history  |        529424384
 2017-02-04 16:08:25.83097+01 | 1486220905.83097 | pgbench_branches |         12599296

 2017-02-04 16:08:26.911324+01 | 1486220906.91132 | pgbench_accounts |      13682466816
 2017-02-04 16:08:26.911324+01 | 1486220906.91132 | pgbench_tellers  |         15523840
 2017-02-04 16:08:26.911324+01 | 1486220906.91132 | pgbench_history  |        531816448
 2017-02-04 16:08:26.911324+01 | 1486220906.91132 | pgbench_branches |         12599296

 2017-02-04 16:08:27.981305+01 | 1486220907.9813 | pgbench_accounts |      13682466816
 2017-02-04 16:08:27.981305+01 | 1486220907.9813 | pgbench_tellers  |         15523840
 2017-02-04 16:08:27.981305+01 | 1486220907.9813 | pgbench_history  |        534208512
 2017-02-04 16:08:27.981305+01 | 1486220907.9813 | pgbench_branches |         12599296

 2017-02-04 16:08:29.060631+01 | 1486220909.06063 | pgbench_accounts |      13682466816
 2017-02-04 16:08:29.060631+01 | 1486220909.06063 | pgbench_tellers  |         15523840
 2017-02-04 16:08:29.060631+01 | 1486220909.06063 | pgbench_history  |        536715264
 2017-02-04 16:08:29.060631+01 | 1486220909.06063 | pgbench_branches |         12599296

 2017-02-04 16:08:30.145071+01 | 1486220910.14507 | pgbench_accounts |      13682466816
 2017-02-04 16:08:30.145071+01 | 1486220910.14507 | pgbench_tellers  |         15523840
 2017-02-04 16:08:30.145071+01 | 1486220910.14507 | pgbench_history  |        539115520
 2017-02-04 16:08:30.145071+01 | 1486220910.14507 | pgbench_branches |         12599296

 2017-02-04 16:08:31.231786+01 | 1486220911.23179 | pgbench_accounts |      13682466816
 2017-02-04 16:08:31.231786+01 | 1486220911.23179 | pgbench_tellers  |         15523840
 2017-02-04 16:08:31.231786+01 | 1486220911.23179 | pgbench_history  |        541294592
 2017-02-04 16:08:31.231786+01 | 1486220911.23179 | pgbench_branches |         12599296

 2017-02-04 16:08:32.312456+01 | 1486220912.31246 | pgbench_accounts |      13682466816
 2017-02-04 16:08:32.312456+01 | 1486220912.31246 | pgbench_tellers  |         15523840
 2017-02-04 16:08:32.312456+01 | 1486220912.31246 | pgbench_history  |        543866880
 2017-02-04 16:08:32.312456+01 | 1486220912.31246 | pgbench_branches |         12599296

 2017-02-04 16:08:33.38872+01 | 1486220913.38872 | pgbench_accounts |      13682466816
 2017-02-04 16:08:33.38872+01 | 1486220913.38872 | pgbench_tellers  |         15523840
 2017-02-04 16:08:33.38872+01 | 1486220913.38872 | pgbench_history  |        545742848
 2017-02-04 16:08:33.38872+01 | 1486220913.38872 | pgbench_branches |         12599296

 2017-02-04 16:08:34.475936+01 | 1486220914.47594 | pgbench_accounts |      13682466816
 2017-02-04 16:08:34.475936+01 | 1486220914.47594 | pgbench_tellers  |         15523840
 2017-02-04 16:08:34.475936+01 | 1486220914.47594 | pgbench_history  |        548683776
 2017-02-04 16:08:34.475936+01 | 1486220914.47594 | pgbench_branches |         12599296

 2017-02-04 16:08:35.553755+01 | 1486220915.55376 | pgbench_accounts |      13682466816
 2017-02-04 16:08:35.553755+01 | 1486220915.55376 | pgbench_tellers  |         15523840
 2017-02-04 16:08:35.553755+01 | 1486220915.55376 | pgbench_history  |        550608896
 2017-02-04 16:08:35.553755+01 | 1486220915.55376 | pgbench_branches |         12599296

 2017-02-04 16:08:36.631723+01 | 1486220916.63172 | pgbench_accounts |      13682466816
 2017-02-04 16:08:36.631723+01 | 1486220916.63172 | pgbench_tellers  |         15523840
 2017-02-04 16:08:36.631723+01 | 1486220916.63172 | pgbench_history  |        552329216
 2017-02-04 16:08:36.631723+01 | 1486220916.63172 | pgbench_branches |         12599296

 2017-02-04 16:08:37.714822+01 | 1486220917.71482 | pgbench_accounts |      13682466816
 2017-02-04 16:08:37.714822+01 | 1486220917.71482 | pgbench_tellers  |         15523840
 2017-02-04 16:08:37.714822+01 | 1486220917.71482 | pgbench_history  |        554549248
 2017-02-04 16:08:37.714822+01 | 1486220917.71482 | pgbench_branches |         12599296

 2017-02-04 16:08:38.787187+01 | 1486220918.78719 | pgbench_accounts |      13682466816
 2017-02-04 16:08:38.787187+01 | 1486220918.78719 | pgbench_tellers  |         15523840
 2017-02-04 16:08:38.787187+01 | 1486220918.78719 | pgbench_history  |        557080576
 2017-02-04 16:08:38.787187+01 | 1486220918.78719 | pgbench_branches |         12599296

 2017-02-04 16:08:39.852448+01 | 1486220919.85245 | pgbench_accounts |      13682466816
 2017-02-04 16:08:39.852448+01 | 1486220919.85245 | pgbench_tellers  |         15523840
 2017-02-04 16:08:39.852448+01 | 1486220919.85245 | pgbench_history  |        559284224
 2017-02-04 16:08:39.852448+01 | 1486220919.85245 | pgbench_branches |         12599296

 2017-02-04 16:08:40.92811+01 | 1486220920.92811 | pgbench_accounts |      13682466816
 2017-02-04 16:08:40.92811+01 | 1486220920.92811 | pgbench_tellers  |         15523840
 2017-02-04 16:08:40.92811+01 | 1486220920.92811 | pgbench_history  |        561545216
 2017-02-04 16:08:40.92811+01 | 1486220920.92811 | pgbench_branches |         12599296

 2017-02-04 16:08:42.004782+01 | 1486220922.00478 | pgbench_accounts |      13682466816
 2017-02-04 16:08:42.004782+01 | 1486220922.00478 | pgbench_tellers  |         15523840
 2017-02-04 16:08:42.004782+01 | 1486220922.00478 | pgbench_history  |        563585024
 2017-02-04 16:08:42.004782+01 | 1486220922.00478 | pgbench_branches |         12599296

 2017-02-04 16:08:43.086942+01 | 1486220923.08694 | pgbench_accounts |      13682466816
 2017-02-04 16:08:43.086942+01 | 1486220923.08694 | pgbench_tellers  |         15523840
 2017-02-04 16:08:43.086942+01 | 1486220923.08694 | pgbench_history  |        566771712
 2017-02-04 16:08:43.086942+01 | 1486220923.08694 | pgbench_branches |         12599296

 2017-02-04 16:08:44.171688+01 | 1486220924.17169 | pgbench_accounts |      13682466816
 2017-02-04 16:08:44.171688+01 | 1486220924.17169 | pgbench_tellers  |         15523840
 2017-02-04 16:08:44.171688+01 | 1486220924.17169 | pgbench_history  |        568459264
 2017-02-04 16:08:44.171688+01 | 1486220924.17169 | pgbench_branches |         12599296

 2017-02-04 16:08:45.260797+01 | 1486220925.2608 | pgbench_accounts |      13682466816
 2017-02-04 16:08:45.260797+01 | 1486220925.2608 | pgbench_tellers  |         15523840
 2017-02-04 16:08:45.260797+01 | 1486220925.2608 | pgbench_history  |        570662912
 2017-02-04 16:08:45.260797+01 | 1486220925.2608 | pgbench_branches |         12599296

 2017-02-04 16:08:46.338129+01 | 1486220926.33813 | pgbench_accounts |      13682466816
 2017-02-04 16:08:46.338129+01 | 1486220926.33813 | pgbench_tellers  |         15523840
 2017-02-04 16:08:46.338129+01 | 1486220926.33813 | pgbench_history  |        572514304
 2017-02-04 16:08:46.338129+01 | 1486220926.33813 | pgbench_branches |         12599296

 2017-02-04 16:08:47.419999+01 | 1486220927.42 | pgbench_accounts |      13682466816
 2017-02-04 16:08:47.419999+01 | 1486220927.42 | pgbench_tellers  |         15523840
 2017-02-04 16:08:47.419999+01 | 1486220927.42 | pgbench_history  |        575070208
 2017-02-04 16:08:47.419999+01 | 1486220927.42 | pgbench_branches |         12599296

 2017-02-04 16:08:48.504158+01 | 1486220928.50416 | pgbench_accounts |      13682466816
 2017-02-04 16:08:48.504158+01 | 1486220928.50416 | pgbench_tellers  |         15523840
 2017-02-04 16:08:48.504158+01 | 1486220928.50416 | pgbench_history  |        576921600
 2017-02-04 16:08:48.504158+01 | 1486220928.50416 | pgbench_branches |         12599296

 2017-02-04 16:08:49.581508+01 | 1486220929.58151 | pgbench_accounts |      13682466816
 2017-02-04 16:08:49.581508+01 | 1486220929.58151 | pgbench_tellers  |         15523840
 2017-02-04 16:08:49.581508+01 | 1486220929.58151 | pgbench_history  |        579289088
 2017-02-04 16:08:49.581508+01 | 1486220929.58151 | pgbench_branches |         12599296

 2017-02-04 16:08:50.661288+01 | 1486220930.66129 | pgbench_accounts |      13682466816
 2017-02-04 16:08:50.661288+01 | 1486220930.66129 | pgbench_tellers  |         15523840
 2017-02-04 16:08:50.661288+01 | 1486220930.66129 | pgbench_history  |        581681152
 2017-02-04 16:08:50.661288+01 | 1486220930.66129 | pgbench_branches |         12599296

 2017-02-04 16:08:51.747421+01 | 1486220931.74742 | pgbench_accounts |      13682466816
 2017-02-04 16:08:51.747421+01 | 1486220931.74742 | pgbench_tellers  |         15523840
 2017-02-04 16:08:51.747421+01 | 1486220931.74742 | pgbench_history  |        584048640
 2017-02-04 16:08:51.747421+01 | 1486220931.74742 | pgbench_branches |         12599296

 2017-02-04 16:08:52.824177+01 | 1486220932.82418 | pgbench_accounts |      13682466816
 2017-02-04 16:08:52.824177+01 | 1486220932.82418 | pgbench_tellers  |         15523840
 2017-02-04 16:08:52.824177+01 | 1486220932.82418 | pgbench_history  |        586956800
 2017-02-04 16:08:52.824177+01 | 1486220932.82418 | pgbench_branches |         12599296

 2017-02-04 16:08:53.897625+01 | 1486220933.89762 | pgbench_accounts |      13682466816
 2017-02-04 16:08:53.897625+01 | 1486220933.89762 | pgbench_tellers  |         15523840
 2017-02-04 16:08:53.897625+01 | 1486220933.89762 | pgbench_history  |        589651968
 2017-02-04 16:08:53.897625+01 | 1486220933.89762 | pgbench_branches |         12599296

 2017-02-04 16:08:54.975507+01 | 1486220934.97551 | pgbench_accounts |      13682466816
 2017-02-04 16:08:54.975507+01 | 1486220934.97551 | pgbench_tellers  |         15523840
 2017-02-04 16:08:54.975507+01 | 1486220934.97551 | pgbench_history  |        590872576
 2017-02-04 16:08:54.975507+01 | 1486220934.97551 | pgbench_branches |         12599296

 2017-02-04 16:08:56.054725+01 | 1486220936.05472 | pgbench_accounts |      13682466816
 2017-02-04 16:08:56.054725+01 | 1486220936.05472 | pgbench_tellers  |         15523840
 2017-02-04 16:08:56.054725+01 | 1486220936.05472 | pgbench_history  |        593707008
 2017-02-04 16:08:56.054725+01 | 1486220936.05472 | pgbench_branches |         12599296

 2017-02-04 16:08:57.13908+01 | 1486220937.13908 | pgbench_accounts |      13682466816
 2017-02-04 16:08:57.13908+01 | 1486220937.13908 | pgbench_tellers  |         15523840
 2017-02-04 16:08:57.13908+01 | 1486220937.13908 | pgbench_history  |        599318528
 2017-02-04 16:08:57.13908+01 | 1486220937.13908 | pgbench_branches |         12599296

 2017-02-04 16:08:58.22041+01 | 1486220938.22041 | pgbench_accounts |      13682466816
 2017-02-04 16:08:58.22041+01 | 1486220938.22041 | pgbench_tellers  |         15523840
 2017-02-04 16:08:58.22041+01 | 1486220938.22041 | pgbench_history  |        599318528
 2017-02-04 16:08:58.22041+01 | 1486220938.22041 | pgbench_branches |         12599296

 2017-02-04 16:08:59.305884+01 | 1486220939.30588 | pgbench_accounts |      13682466816
 2017-02-04 16:08:59.305884+01 | 1486220939.30588 | pgbench_tellers  |         15523840
 2017-02-04 16:08:59.305884+01 | 1486220939.30588 | pgbench_history  |        599998464
 2017-02-04 16:08:59.305884+01 | 1486220939.30588 | pgbench_branches |         12599296

 2017-02-04 16:09:00.390046+01 | 1486220940.39005 | pgbench_accounts |      13682466816
 2017-02-04 16:09:00.390046+01 | 1486220940.39005 | pgbench_tellers  |         15523840
 2017-02-04 16:09:00.390046+01 | 1486220940.39005 | pgbench_history  |        602071040
 2017-02-04 16:09:00.390046+01 | 1486220940.39005 | pgbench_branches |         12599296

 2017-02-04 16:09:01.46546+01 | 1486220941.46546 | pgbench_accounts |      13682466816
 2017-02-04 16:09:01.46546+01 | 1486220941.46546 | pgbench_tellers  |         15523840
 2017-02-04 16:09:01.46546+01 | 1486220941.46546 | pgbench_history  |        604839936
 2017-02-04 16:09:01.46546+01 | 1486220941.46546 | pgbench_branches |         12599296

 2017-02-04 16:09:02.552129+01 | 1486220942.55213 | pgbench_accounts |      13682466816
 2017-02-04 16:09:02.552129+01 | 1486220942.55213 | pgbench_tellers  |         15523840
 2017-02-04 16:09:02.552129+01 | 1486220942.55213 | pgbench_history  |        606855168
 2017-02-04 16:09:02.552129+01 | 1486220942.55213 | pgbench_branches |         12599296

 2017-02-04 16:09:03.639212+01 | 1486220943.63921 | pgbench_accounts |      13682466816
 2017-02-04 16:09:03.639212+01 | 1486220943.63921 | pgbench_tellers  |         15523840
 2017-02-04 16:09:03.639212+01 | 1486220943.63921 | pgbench_history  |        609574912
 2017-02-04 16:09:03.639212+01 | 1486220943.63921 | pgbench_branches |         12599296

 2017-02-04 16:09:04.716476+01 | 1486220944.71648 | pgbench_accounts |      13682466816
 2017-02-04 16:09:04.716476+01 | 1486220944.71648 | pgbench_tellers  |         15523840
 2017-02-04 16:09:04.716476+01 | 1486220944.71648 | pgbench_history  |        611123200
 2017-02-04 16:09:04.716476+01 | 1486220944.71648 | pgbench_branches |         12599296

