 2017-02-06 01:01:45.341548+01 | 1486339305.34155 | pgbench_branches_pkey |            16384
 2017-02-06 01:01:45.341548+01 | 1486339305.34155 | pgbench_tellers_pkey  |            40960
 2017-02-06 01:01:45.341548+01 | 1486339305.34155 | pgbench_accounts_pkey |        224641024

 2017-02-06 01:01:46.430328+01 | 1486339306.43033 | pgbench_branches_pkey |            16384
 2017-02-06 01:01:46.430328+01 | 1486339306.43033 | pgbench_tellers_pkey  |            40960
 2017-02-06 01:01:46.430328+01 | 1486339306.43033 | pgbench_accounts_pkey |        224641024

 2017-02-06 01:01:47.509723+01 | 1486339307.50972 | pgbench_branches_pkey |            16384
 2017-02-06 01:01:47.509723+01 | 1486339307.50972 | pgbench_tellers_pkey  |            40960
 2017-02-06 01:01:47.509723+01 | 1486339307.50972 | pgbench_accounts_pkey |        224641024

 2017-02-06 01:01:48.600314+01 | 1486339308.60031 | pgbench_branches_pkey |            16384
 2017-02-06 01:01:48.600314+01 | 1486339308.60031 | pgbench_tellers_pkey  |            40960
 2017-02-06 01:01:48.600314+01 | 1486339308.60031 | pgbench_accounts_pkey |        224641024

 2017-02-06 01:01:49.677986+01 | 1486339309.67799 | pgbench_branches_pkey |            16384
 2017-02-06 01:01:49.677986+01 | 1486339309.67799 | pgbench_tellers_pkey  |            40960
 2017-02-06 01:01:49.677986+01 | 1486339309.67799 | pgbench_accounts_pkey |        224641024

 2017-02-06 01:01:50.754974+01 | 1486339310.75497 | pgbench_branches_pkey |            16384
 2017-02-06 01:01:50.754974+01 | 1486339310.75497 | pgbench_tellers_pkey  |            40960
 2017-02-06 01:01:50.754974+01 | 1486339310.75497 | pgbench_accounts_pkey |        224641024

 2017-02-06 01:01:51.840677+01 | 1486339311.84068 | pgbench_branches_pkey |            16384
 2017-02-06 01:01:51.840677+01 | 1486339311.84068 | pgbench_tellers_pkey  |            40960
 2017-02-06 01:01:51.840677+01 | 1486339311.84068 | pgbench_accounts_pkey |        224641024

 2017-02-06 01:01:52.91898+01 | 1486339312.91898 | pgbench_branches_pkey |            16384
 2017-02-06 01:01:52.91898+01 | 1486339312.91898 | pgbench_tellers_pkey  |            40960
 2017-02-06 01:01:52.91898+01 | 1486339312.91898 | pgbench_accounts_pkey |        224641024

 2017-02-06 01:01:54.000902+01 | 1486339314.0009 | pgbench_branches_pkey |            16384
 2017-02-06 01:01:54.000902+01 | 1486339314.0009 | pgbench_tellers_pkey  |            40960
 2017-02-06 01:01:54.000902+01 | 1486339314.0009 | pgbench_accounts_pkey |        224641024

 2017-02-06 01:01:55.074565+01 | 1486339315.07456 | pgbench_branches_pkey |            16384
 2017-02-06 01:01:55.074565+01 | 1486339315.07456 | pgbench_tellers_pkey  |            40960
 2017-02-06 01:01:55.074565+01 | 1486339315.07456 | pgbench_accounts_pkey |        224641024

 2017-02-06 01:01:56.144315+01 | 1486339316.14432 | pgbench_branches_pkey |            16384
 2017-02-06 01:01:56.144315+01 | 1486339316.14432 | pgbench_tellers_pkey  |            40960
 2017-02-06 01:01:56.144315+01 | 1486339316.14432 | pgbench_accounts_pkey |        224641024

 2017-02-06 01:01:57.227664+01 | 1486339317.22766 | pgbench_branches_pkey |            16384
 2017-02-06 01:01:57.227664+01 | 1486339317.22766 | pgbench_tellers_pkey  |            40960
 2017-02-06 01:01:57.227664+01 | 1486339317.22766 | pgbench_accounts_pkey |        224641024

 2017-02-06 01:01:58.308767+01 | 1486339318.30877 | pgbench_branches_pkey |            16384
 2017-02-06 01:01:58.308767+01 | 1486339318.30877 | pgbench_tellers_pkey  |            40960
 2017-02-06 01:01:58.308767+01 | 1486339318.30877 | pgbench_accounts_pkey |        224641024

 2017-02-06 01:01:59.391045+01 | 1486339319.39105 | pgbench_branches_pkey |            16384
 2017-02-06 01:01:59.391045+01 | 1486339319.39105 | pgbench_tellers_pkey  |            40960
 2017-02-06 01:01:59.391045+01 | 1486339319.39105 | pgbench_accounts_pkey |        224641024

 2017-02-06 01:02:00.469811+01 | 1486339320.46981 | pgbench_branches_pkey |            16384
 2017-02-06 01:02:00.469811+01 | 1486339320.46981 | pgbench_tellers_pkey  |            40960
 2017-02-06 01:02:00.469811+01 | 1486339320.46981 | pgbench_accounts_pkey |        224641024

 2017-02-06 01:02:01.545551+01 | 1486339321.54555 | pgbench_branches_pkey |            16384
 2017-02-06 01:02:01.545551+01 | 1486339321.54555 | pgbench_tellers_pkey  |            40960
 2017-02-06 01:02:01.545551+01 | 1486339321.54555 | pgbench_accounts_pkey |        224641024

 2017-02-06 01:02:02.624372+01 | 1486339322.62437 | pgbench_branches_pkey |            16384
 2017-02-06 01:02:02.624372+01 | 1486339322.62437 | pgbench_tellers_pkey  |            40960
 2017-02-06 01:02:02.624372+01 | 1486339322.62437 | pgbench_accounts_pkey |        224641024

 2017-02-06 01:02:03.703142+01 | 1486339323.70314 | pgbench_branches_pkey |            16384
 2017-02-06 01:02:03.703142+01 | 1486339323.70314 | pgbench_tellers_pkey  |            40960
 2017-02-06 01:02:03.703142+01 | 1486339323.70314 | pgbench_accounts_pkey |        224641024

 2017-02-06 01:02:04.786379+01 | 1486339324.78638 | pgbench_branches_pkey |            16384
 2017-02-06 01:02:04.786379+01 | 1486339324.78638 | pgbench_tellers_pkey  |            40960
 2017-02-06 01:02:04.786379+01 | 1486339324.78638 | pgbench_accounts_pkey |        224641024

 2017-02-06 01:02:05.862329+01 | 1486339325.86233 | pgbench_branches_pkey |            16384
 2017-02-06 01:02:05.862329+01 | 1486339325.86233 | pgbench_tellers_pkey  |            40960
 2017-02-06 01:02:05.862329+01 | 1486339325.86233 | pgbench_accounts_pkey |        224641024

 2017-02-06 01:02:06.941462+01 | 1486339326.94146 | pgbench_branches_pkey |            16384
 2017-02-06 01:02:06.941462+01 | 1486339326.94146 | pgbench_tellers_pkey  |            40960
 2017-02-06 01:02:06.941462+01 | 1486339326.94146 | pgbench_accounts_pkey |        224641024

 2017-02-06 01:02:08.014567+01 | 1486339328.01457 | pgbench_branches_pkey |            16384
 2017-02-06 01:02:08.014567+01 | 1486339328.01457 | pgbench_tellers_pkey  |            40960
 2017-02-06 01:02:08.014567+01 | 1486339328.01457 | pgbench_accounts_pkey |        224641024

 2017-02-06 01:02:09.088825+01 | 1486339329.08882 | pgbench_branches_pkey |            16384
 2017-02-06 01:02:09.088825+01 | 1486339329.08882 | pgbench_tellers_pkey  |            40960
 2017-02-06 01:02:09.088825+01 | 1486339329.08882 | pgbench_accounts_pkey |        224641024

 2017-02-06 01:02:10.16352+01 | 1486339330.16352 | pgbench_branches_pkey |            16384
 2017-02-06 01:02:10.16352+01 | 1486339330.16352 | pgbench_tellers_pkey  |            40960
 2017-02-06 01:02:10.16352+01 | 1486339330.16352 | pgbench_accounts_pkey |        224641024

 2017-02-06 01:02:11.236342+01 | 1486339331.23634 | pgbench_branches_pkey |            16384
 2017-02-06 01:02:11.236342+01 | 1486339331.23634 | pgbench_tellers_pkey  |            40960
 2017-02-06 01:02:11.236342+01 | 1486339331.23634 | pgbench_accounts_pkey |        224641024

 2017-02-06 01:02:12.311782+01 | 1486339332.31178 | pgbench_branches_pkey |            16384
 2017-02-06 01:02:12.311782+01 | 1486339332.31178 | pgbench_tellers_pkey  |            40960
 2017-02-06 01:02:12.311782+01 | 1486339332.31178 | pgbench_accounts_pkey |        224641024

 2017-02-06 01:02:13.3895+01 | 1486339333.3895 | pgbench_branches_pkey |            16384
 2017-02-06 01:02:13.3895+01 | 1486339333.3895 | pgbench_tellers_pkey  |            40960
 2017-02-06 01:02:13.3895+01 | 1486339333.3895 | pgbench_accounts_pkey |        224641024

 2017-02-06 01:02:14.473335+01 | 1486339334.47334 | pgbench_branches_pkey |            16384
 2017-02-06 01:02:14.473335+01 | 1486339334.47334 | pgbench_tellers_pkey  |            40960
 2017-02-06 01:02:14.473335+01 | 1486339334.47334 | pgbench_accounts_pkey |        224641024

 2017-02-06 01:02:15.559064+01 | 1486339335.55906 | pgbench_branches_pkey |            16384
 2017-02-06 01:02:15.559064+01 | 1486339335.55906 | pgbench_tellers_pkey  |            40960
 2017-02-06 01:02:15.559064+01 | 1486339335.55906 | pgbench_accounts_pkey |        224641024

 2017-02-06 01:02:16.627766+01 | 1486339336.62777 | pgbench_branches_pkey |            16384
 2017-02-06 01:02:16.627766+01 | 1486339336.62777 | pgbench_tellers_pkey  |            40960
 2017-02-06 01:02:16.627766+01 | 1486339336.62777 | pgbench_accounts_pkey |        224641024

 2017-02-06 01:02:17.698161+01 | 1486339337.69816 | pgbench_branches_pkey |            16384
 2017-02-06 01:02:17.698161+01 | 1486339337.69816 | pgbench_tellers_pkey  |            40960
 2017-02-06 01:02:17.698161+01 | 1486339337.69816 | pgbench_accounts_pkey |        224641024

 2017-02-06 01:02:18.770905+01 | 1486339338.77091 | pgbench_branches_pkey |            16384
 2017-02-06 01:02:18.770905+01 | 1486339338.77091 | pgbench_tellers_pkey  |            40960
 2017-02-06 01:02:18.770905+01 | 1486339338.77091 | pgbench_accounts_pkey |        224641024

 2017-02-06 01:02:19.84491+01 | 1486339339.84491 | pgbench_branches_pkey |            16384
 2017-02-06 01:02:19.84491+01 | 1486339339.84491 | pgbench_tellers_pkey  |            40960
 2017-02-06 01:02:19.84491+01 | 1486339339.84491 | pgbench_accounts_pkey |        224641024

 2017-02-06 01:02:20.920734+01 | 1486339340.92073 | pgbench_branches_pkey |            16384
 2017-02-06 01:02:20.920734+01 | 1486339340.92073 | pgbench_tellers_pkey  |            40960
 2017-02-06 01:02:20.920734+01 | 1486339340.92073 | pgbench_accounts_pkey |        224641024

 2017-02-06 01:02:22.001941+01 | 1486339342.00194 | pgbench_branches_pkey |            16384
 2017-02-06 01:02:22.001941+01 | 1486339342.00194 | pgbench_tellers_pkey  |            40960
 2017-02-06 01:02:22.001941+01 | 1486339342.00194 | pgbench_accounts_pkey |        224641024

 2017-02-06 01:02:23.087113+01 | 1486339343.08711 | pgbench_branches_pkey |            16384
 2017-02-06 01:02:23.087113+01 | 1486339343.08711 | pgbench_tellers_pkey  |            40960
 2017-02-06 01:02:23.087113+01 | 1486339343.08711 | pgbench_accounts_pkey |        224641024

 2017-02-06 01:02:24.167097+01 | 1486339344.1671 | pgbench_branches_pkey |            16384
 2017-02-06 01:02:24.167097+01 | 1486339344.1671 | pgbench_tellers_pkey  |            40960
 2017-02-06 01:02:24.167097+01 | 1486339344.1671 | pgbench_accounts_pkey |        224641024

 2017-02-06 01:02:25.239207+01 | 1486339345.23921 | pgbench_branches_pkey |            16384
 2017-02-06 01:02:25.239207+01 | 1486339345.23921 | pgbench_tellers_pkey  |            40960
 2017-02-06 01:02:25.239207+01 | 1486339345.23921 | pgbench_accounts_pkey |        224641024

 2017-02-06 01:02:26.322393+01 | 1486339346.32239 | pgbench_branches_pkey |            16384
 2017-02-06 01:02:26.322393+01 | 1486339346.32239 | pgbench_tellers_pkey  |            40960
 2017-02-06 01:02:26.322393+01 | 1486339346.32239 | pgbench_accounts_pkey |        224641024

 2017-02-06 01:02:27.403556+01 | 1486339347.40356 | pgbench_branches_pkey |            16384
 2017-02-06 01:02:27.403556+01 | 1486339347.40356 | pgbench_tellers_pkey  |            40960
 2017-02-06 01:02:27.403556+01 | 1486339347.40356 | pgbench_accounts_pkey |        224641024

 2017-02-06 01:02:28.474623+01 | 1486339348.47462 | pgbench_branches_pkey |            16384
 2017-02-06 01:02:28.474623+01 | 1486339348.47462 | pgbench_tellers_pkey  |            40960
 2017-02-06 01:02:28.474623+01 | 1486339348.47462 | pgbench_accounts_pkey |        224641024

 2017-02-06 01:02:29.551986+01 | 1486339349.55199 | pgbench_branches_pkey |            16384
 2017-02-06 01:02:29.551986+01 | 1486339349.55199 | pgbench_tellers_pkey  |            40960
 2017-02-06 01:02:29.551986+01 | 1486339349.55199 | pgbench_accounts_pkey |        224641024

 2017-02-06 01:02:30.63695+01 | 1486339350.63695 | pgbench_branches_pkey |            16384
 2017-02-06 01:02:30.63695+01 | 1486339350.63695 | pgbench_tellers_pkey  |            40960
 2017-02-06 01:02:30.63695+01 | 1486339350.63695 | pgbench_accounts_pkey |        224641024

 2017-02-06 01:02:31.725649+01 | 1486339351.72565 | pgbench_branches_pkey |            16384
 2017-02-06 01:02:31.725649+01 | 1486339351.72565 | pgbench_tellers_pkey  |            40960
 2017-02-06 01:02:31.725649+01 | 1486339351.72565 | pgbench_accounts_pkey |        224641024

 2017-02-06 01:02:32.797211+01 | 1486339352.79721 | pgbench_branches_pkey |            16384
 2017-02-06 01:02:32.797211+01 | 1486339352.79721 | pgbench_tellers_pkey  |            40960
 2017-02-06 01:02:32.797211+01 | 1486339352.79721 | pgbench_accounts_pkey |        224641024

 2017-02-06 01:02:33.876516+01 | 1486339353.87652 | pgbench_branches_pkey |            16384
 2017-02-06 01:02:33.876516+01 | 1486339353.87652 | pgbench_tellers_pkey  |            40960
 2017-02-06 01:02:33.876516+01 | 1486339353.87652 | pgbench_accounts_pkey |        224641024

 2017-02-06 01:02:34.946034+01 | 1486339354.94603 | pgbench_branches_pkey |            16384
 2017-02-06 01:02:34.946034+01 | 1486339354.94603 | pgbench_tellers_pkey  |            40960
 2017-02-06 01:02:34.946034+01 | 1486339354.94603 | pgbench_accounts_pkey |        224641024

 2017-02-06 01:02:36.026313+01 | 1486339356.02631 | pgbench_branches_pkey |            16384
 2017-02-06 01:02:36.026313+01 | 1486339356.02631 | pgbench_tellers_pkey  |            40960
 2017-02-06 01:02:36.026313+01 | 1486339356.02631 | pgbench_accounts_pkey |        224641024

 2017-02-06 01:02:37.102936+01 | 1486339357.10294 | pgbench_branches_pkey |            16384
 2017-02-06 01:02:37.102936+01 | 1486339357.10294 | pgbench_tellers_pkey  |            40960
 2017-02-06 01:02:37.102936+01 | 1486339357.10294 | pgbench_accounts_pkey |        224641024

 2017-02-06 01:02:38.180183+01 | 1486339358.18018 | pgbench_branches_pkey |            16384
 2017-02-06 01:02:38.180183+01 | 1486339358.18018 | pgbench_tellers_pkey  |            40960
 2017-02-06 01:02:38.180183+01 | 1486339358.18018 | pgbench_accounts_pkey |        224641024

 2017-02-06 01:02:39.256083+01 | 1486339359.25608 | pgbench_branches_pkey |            16384
 2017-02-06 01:02:39.256083+01 | 1486339359.25608 | pgbench_tellers_pkey  |            40960
 2017-02-06 01:02:39.256083+01 | 1486339359.25608 | pgbench_accounts_pkey |        224641024

 2017-02-06 01:02:40.333116+01 | 1486339360.33312 | pgbench_branches_pkey |            16384
 2017-02-06 01:02:40.333116+01 | 1486339360.33312 | pgbench_tellers_pkey  |            40960
 2017-02-06 01:02:40.333116+01 | 1486339360.33312 | pgbench_accounts_pkey |        224641024

 2017-02-06 01:02:41.4151+01 | 1486339361.4151 | pgbench_branches_pkey |            16384
 2017-02-06 01:02:41.4151+01 | 1486339361.4151 | pgbench_tellers_pkey  |            40960
 2017-02-06 01:02:41.4151+01 | 1486339361.4151 | pgbench_accounts_pkey |        224641024

 2017-02-06 01:02:42.502445+01 | 1486339362.50244 | pgbench_branches_pkey |            16384
 2017-02-06 01:02:42.502445+01 | 1486339362.50244 | pgbench_tellers_pkey  |            40960
 2017-02-06 01:02:42.502445+01 | 1486339362.50244 | pgbench_accounts_pkey |        224641024

 2017-02-06 01:02:43.583715+01 | 1486339363.58371 | pgbench_branches_pkey |            16384
 2017-02-06 01:02:43.583715+01 | 1486339363.58371 | pgbench_tellers_pkey  |            40960
 2017-02-06 01:02:43.583715+01 | 1486339363.58371 | pgbench_accounts_pkey |        224641024

 2017-02-06 01:02:44.660779+01 | 1486339364.66078 | pgbench_branches_pkey |            16384
 2017-02-06 01:02:44.660779+01 | 1486339364.66078 | pgbench_tellers_pkey  |            40960
 2017-02-06 01:02:44.660779+01 | 1486339364.66078 | pgbench_accounts_pkey |        224641024

 2017-02-06 01:02:45.735041+01 | 1486339365.73504 | pgbench_branches_pkey |            16384
 2017-02-06 01:02:45.735041+01 | 1486339365.73504 | pgbench_tellers_pkey  |            40960
 2017-02-06 01:02:45.735041+01 | 1486339365.73504 | pgbench_accounts_pkey |        224641024

 2017-02-06 01:02:46.811531+01 | 1486339366.81153 | pgbench_branches_pkey |            16384
 2017-02-06 01:02:46.811531+01 | 1486339366.81153 | pgbench_tellers_pkey  |            40960
 2017-02-06 01:02:46.811531+01 | 1486339366.81153 | pgbench_accounts_pkey |        224641024

 2017-02-06 01:02:47.892202+01 | 1486339367.8922 | pgbench_branches_pkey |            16384
 2017-02-06 01:02:47.892202+01 | 1486339367.8922 | pgbench_tellers_pkey  |            40960
 2017-02-06 01:02:47.892202+01 | 1486339367.8922 | pgbench_accounts_pkey |        224641024

 2017-02-06 01:02:48.968508+01 | 1486339368.96851 | pgbench_branches_pkey |            16384
 2017-02-06 01:02:48.968508+01 | 1486339368.96851 | pgbench_tellers_pkey  |            40960
 2017-02-06 01:02:48.968508+01 | 1486339368.96851 | pgbench_accounts_pkey |        224641024

 2017-02-06 01:02:50.037052+01 | 1486339370.03705 | pgbench_branches_pkey |            16384
 2017-02-06 01:02:50.037052+01 | 1486339370.03705 | pgbench_tellers_pkey  |            40960
 2017-02-06 01:02:50.037052+01 | 1486339370.03705 | pgbench_accounts_pkey |        224641024

 2017-02-06 01:02:51.115117+01 | 1486339371.11512 | pgbench_branches_pkey |            16384
 2017-02-06 01:02:51.115117+01 | 1486339371.11512 | pgbench_tellers_pkey  |            40960
 2017-02-06 01:02:51.115117+01 | 1486339371.11512 | pgbench_accounts_pkey |        224641024

 2017-02-06 01:02:52.20019+01 | 1486339372.20019 | pgbench_branches_pkey |            16384
 2017-02-06 01:02:52.20019+01 | 1486339372.20019 | pgbench_tellers_pkey  |            40960
 2017-02-06 01:02:52.20019+01 | 1486339372.20019 | pgbench_accounts_pkey |        224641024

 2017-02-06 01:02:53.285442+01 | 1486339373.28544 | pgbench_branches_pkey |            16384
 2017-02-06 01:02:53.285442+01 | 1486339373.28544 | pgbench_tellers_pkey  |            40960
 2017-02-06 01:02:53.285442+01 | 1486339373.28544 | pgbench_accounts_pkey |        224641024

 2017-02-06 01:02:54.36753+01 | 1486339374.36753 | pgbench_branches_pkey |            16384
 2017-02-06 01:02:54.36753+01 | 1486339374.36753 | pgbench_tellers_pkey  |            40960
 2017-02-06 01:02:54.36753+01 | 1486339374.36753 | pgbench_accounts_pkey |        224641024

 2017-02-06 01:02:55.451029+01 | 1486339375.45103 | pgbench_branches_pkey |            16384
 2017-02-06 01:02:55.451029+01 | 1486339375.45103 | pgbench_tellers_pkey  |            40960
 2017-02-06 01:02:55.451029+01 | 1486339375.45103 | pgbench_accounts_pkey |        224641024

 2017-02-06 01:02:56.527057+01 | 1486339376.52706 | pgbench_branches_pkey |            16384
 2017-02-06 01:02:56.527057+01 | 1486339376.52706 | pgbench_tellers_pkey  |            40960
 2017-02-06 01:02:56.527057+01 | 1486339376.52706 | pgbench_accounts_pkey |        224641024

 2017-02-06 01:02:57.600878+01 | 1486339377.60088 | pgbench_branches_pkey |            16384
 2017-02-06 01:02:57.600878+01 | 1486339377.60088 | pgbench_tellers_pkey  |            40960
 2017-02-06 01:02:57.600878+01 | 1486339377.60088 | pgbench_accounts_pkey |        224641024

 2017-02-06 01:02:58.674275+01 | 1486339378.67427 | pgbench_branches_pkey |            16384
 2017-02-06 01:02:58.674275+01 | 1486339378.67427 | pgbench_tellers_pkey  |            40960
 2017-02-06 01:02:58.674275+01 | 1486339378.67427 | pgbench_accounts_pkey |        224641024

 2017-02-06 01:02:59.756911+01 | 1486339379.75691 | pgbench_branches_pkey |            16384
 2017-02-06 01:02:59.756911+01 | 1486339379.75691 | pgbench_tellers_pkey  |            40960
 2017-02-06 01:02:59.756911+01 | 1486339379.75691 | pgbench_accounts_pkey |        224641024

 2017-02-06 01:03:00.830596+01 | 1486339380.8306 | pgbench_branches_pkey |            16384
 2017-02-06 01:03:00.830596+01 | 1486339380.8306 | pgbench_tellers_pkey  |            40960
 2017-02-06 01:03:00.830596+01 | 1486339380.8306 | pgbench_accounts_pkey |        224641024

 2017-02-06 01:03:01.910245+01 | 1486339381.91024 | pgbench_branches_pkey |            16384
 2017-02-06 01:03:01.910245+01 | 1486339381.91024 | pgbench_tellers_pkey  |            40960
 2017-02-06 01:03:01.910245+01 | 1486339381.91024 | pgbench_accounts_pkey |        224641024

 2017-02-06 01:03:02.98821+01 | 1486339382.98821 | pgbench_branches_pkey |            16384
 2017-02-06 01:03:02.98821+01 | 1486339382.98821 | pgbench_tellers_pkey  |            40960
 2017-02-06 01:03:02.98821+01 | 1486339382.98821 | pgbench_accounts_pkey |        224641024

 2017-02-06 01:03:04.068237+01 | 1486339384.06824 | pgbench_branches_pkey |            16384
 2017-02-06 01:03:04.068237+01 | 1486339384.06824 | pgbench_tellers_pkey  |            40960
 2017-02-06 01:03:04.068237+01 | 1486339384.06824 | pgbench_accounts_pkey |        224641024

 2017-02-06 01:03:05.14808+01 | 1486339385.14808 | pgbench_branches_pkey |            16384
 2017-02-06 01:03:05.14808+01 | 1486339385.14808 | pgbench_tellers_pkey  |            40960
 2017-02-06 01:03:05.14808+01 | 1486339385.14808 | pgbench_accounts_pkey |        224641024

 2017-02-06 01:03:06.221532+01 | 1486339386.22153 | pgbench_branches_pkey |            16384
 2017-02-06 01:03:06.221532+01 | 1486339386.22153 | pgbench_tellers_pkey  |            40960
 2017-02-06 01:03:06.221532+01 | 1486339386.22153 | pgbench_accounts_pkey |        224641024

 2017-02-06 01:03:07.297683+01 | 1486339387.29768 | pgbench_branches_pkey |            16384
 2017-02-06 01:03:07.297683+01 | 1486339387.29768 | pgbench_tellers_pkey  |            40960
 2017-02-06 01:03:07.297683+01 | 1486339387.29768 | pgbench_accounts_pkey |        224641024

 2017-02-06 01:03:08.378295+01 | 1486339388.37829 | pgbench_branches_pkey |            16384
 2017-02-06 01:03:08.378295+01 | 1486339388.37829 | pgbench_tellers_pkey  |            40960
 2017-02-06 01:03:08.378295+01 | 1486339388.37829 | pgbench_accounts_pkey |        224641024

 2017-02-06 01:03:09.465348+01 | 1486339389.46535 | pgbench_branches_pkey |            16384
 2017-02-06 01:03:09.465348+01 | 1486339389.46535 | pgbench_tellers_pkey  |            40960
 2017-02-06 01:03:09.465348+01 | 1486339389.46535 | pgbench_accounts_pkey |        224641024

 2017-02-06 01:03:10.541079+01 | 1486339390.54108 | pgbench_branches_pkey |            16384
 2017-02-06 01:03:10.541079+01 | 1486339390.54108 | pgbench_tellers_pkey  |            40960
 2017-02-06 01:03:10.541079+01 | 1486339390.54108 | pgbench_accounts_pkey |        224641024

 2017-02-06 01:03:11.610669+01 | 1486339391.61067 | pgbench_branches_pkey |            16384
 2017-02-06 01:03:11.610669+01 | 1486339391.61067 | pgbench_tellers_pkey  |            40960
 2017-02-06 01:03:11.610669+01 | 1486339391.61067 | pgbench_accounts_pkey |        224641024

 2017-02-06 01:03:12.690056+01 | 1486339392.69006 | pgbench_branches_pkey |            16384
 2017-02-06 01:03:12.690056+01 | 1486339392.69006 | pgbench_tellers_pkey  |            40960
 2017-02-06 01:03:12.690056+01 | 1486339392.69006 | pgbench_accounts_pkey |        224641024

 2017-02-06 01:03:13.774687+01 | 1486339393.77469 | pgbench_branches_pkey |            16384
 2017-02-06 01:03:13.774687+01 | 1486339393.77469 | pgbench_tellers_pkey  |            40960
 2017-02-06 01:03:13.774687+01 | 1486339393.77469 | pgbench_accounts_pkey |        224641024

 2017-02-06 01:03:14.862957+01 | 1486339394.86296 | pgbench_branches_pkey |            16384
 2017-02-06 01:03:14.862957+01 | 1486339394.86296 | pgbench_tellers_pkey  |            40960
 2017-02-06 01:03:14.862957+01 | 1486339394.86296 | pgbench_accounts_pkey |        224641024

 2017-02-06 01:03:15.956815+01 | 1486339395.95682 | pgbench_branches_pkey |            16384
 2017-02-06 01:03:15.956815+01 | 1486339395.95682 | pgbench_tellers_pkey  |            40960
 2017-02-06 01:03:15.956815+01 | 1486339395.95682 | pgbench_accounts_pkey |        224641024

 2017-02-06 01:03:17.040561+01 | 1486339397.04056 | pgbench_branches_pkey |            16384
 2017-02-06 01:03:17.040561+01 | 1486339397.04056 | pgbench_tellers_pkey  |            40960
 2017-02-06 01:03:17.040561+01 | 1486339397.04056 | pgbench_accounts_pkey |        224641024

 2017-02-06 01:03:18.124455+01 | 1486339398.12445 | pgbench_branches_pkey |            16384
 2017-02-06 01:03:18.124455+01 | 1486339398.12445 | pgbench_tellers_pkey  |            40960
 2017-02-06 01:03:18.124455+01 | 1486339398.12445 | pgbench_accounts_pkey |        224641024

 2017-02-06 01:03:19.203122+01 | 1486339399.20312 | pgbench_branches_pkey |            16384
 2017-02-06 01:03:19.203122+01 | 1486339399.20312 | pgbench_tellers_pkey  |            40960
 2017-02-06 01:03:19.203122+01 | 1486339399.20312 | pgbench_accounts_pkey |        224641024

 2017-02-06 01:03:20.282917+01 | 1486339400.28292 | pgbench_branches_pkey |            16384
 2017-02-06 01:03:20.282917+01 | 1486339400.28292 | pgbench_tellers_pkey  |            40960
 2017-02-06 01:03:20.282917+01 | 1486339400.28292 | pgbench_accounts_pkey |        224641024

 2017-02-06 01:03:21.355755+01 | 1486339401.35576 | pgbench_branches_pkey |            16384
 2017-02-06 01:03:21.355755+01 | 1486339401.35576 | pgbench_tellers_pkey  |            40960
 2017-02-06 01:03:21.355755+01 | 1486339401.35576 | pgbench_accounts_pkey |        224641024

 2017-02-06 01:03:22.434464+01 | 1486339402.43446 | pgbench_branches_pkey |            16384
 2017-02-06 01:03:22.434464+01 | 1486339402.43446 | pgbench_tellers_pkey  |            40960
 2017-02-06 01:03:22.434464+01 | 1486339402.43446 | pgbench_accounts_pkey |        224641024

 2017-02-06 01:03:23.506321+01 | 1486339403.50632 | pgbench_branches_pkey |            16384
 2017-02-06 01:03:23.506321+01 | 1486339403.50632 | pgbench_tellers_pkey  |            40960
 2017-02-06 01:03:23.506321+01 | 1486339403.50632 | pgbench_accounts_pkey |        224641024

 2017-02-06 01:03:24.587015+01 | 1486339404.58701 | pgbench_branches_pkey |            16384
 2017-02-06 01:03:24.587015+01 | 1486339404.58701 | pgbench_tellers_pkey  |            40960
 2017-02-06 01:03:24.587015+01 | 1486339404.58701 | pgbench_accounts_pkey |        224641024

 2017-02-06 01:03:25.665152+01 | 1486339405.66515 | pgbench_branches_pkey |            16384
 2017-02-06 01:03:25.665152+01 | 1486339405.66515 | pgbench_tellers_pkey  |            40960
 2017-02-06 01:03:25.665152+01 | 1486339405.66515 | pgbench_accounts_pkey |        224641024

 2017-02-06 01:03:26.747184+01 | 1486339406.74718 | pgbench_branches_pkey |            16384
 2017-02-06 01:03:26.747184+01 | 1486339406.74718 | pgbench_tellers_pkey  |            40960
 2017-02-06 01:03:26.747184+01 | 1486339406.74718 | pgbench_accounts_pkey |        224641024

 2017-02-06 01:03:27.823868+01 | 1486339407.82387 | pgbench_branches_pkey |            16384
 2017-02-06 01:03:27.823868+01 | 1486339407.82387 | pgbench_tellers_pkey  |            40960
 2017-02-06 01:03:27.823868+01 | 1486339407.82387 | pgbench_accounts_pkey |        224641024

 2017-02-06 01:03:28.90734+01 | 1486339408.90734 | pgbench_branches_pkey |            16384
 2017-02-06 01:03:28.90734+01 | 1486339408.90734 | pgbench_tellers_pkey  |            40960
 2017-02-06 01:03:28.90734+01 | 1486339408.90734 | pgbench_accounts_pkey |        224641024

 2017-02-06 01:03:29.99417+01 | 1486339409.99417 | pgbench_branches_pkey |            16384
 2017-02-06 01:03:29.99417+01 | 1486339409.99417 | pgbench_tellers_pkey  |            40960
 2017-02-06 01:03:29.99417+01 | 1486339409.99417 | pgbench_accounts_pkey |        224641024

 2017-02-06 01:03:31.068386+01 | 1486339411.06839 | pgbench_branches_pkey |            16384
 2017-02-06 01:03:31.068386+01 | 1486339411.06839 | pgbench_tellers_pkey  |            40960
 2017-02-06 01:03:31.068386+01 | 1486339411.06839 | pgbench_accounts_pkey |        224641024

 2017-02-06 01:03:32.148093+01 | 1486339412.14809 | pgbench_branches_pkey |            16384
 2017-02-06 01:03:32.148093+01 | 1486339412.14809 | pgbench_tellers_pkey  |            40960
 2017-02-06 01:03:32.148093+01 | 1486339412.14809 | pgbench_accounts_pkey |        224641024

 2017-02-06 01:03:33.223121+01 | 1486339413.22312 | pgbench_branches_pkey |            16384
 2017-02-06 01:03:33.223121+01 | 1486339413.22312 | pgbench_tellers_pkey  |            40960
 2017-02-06 01:03:33.223121+01 | 1486339413.22312 | pgbench_accounts_pkey |        224641024

 2017-02-06 01:03:34.305065+01 | 1486339414.30506 | pgbench_branches_pkey |            16384
 2017-02-06 01:03:34.305065+01 | 1486339414.30506 | pgbench_tellers_pkey  |            40960
 2017-02-06 01:03:34.305065+01 | 1486339414.30506 | pgbench_accounts_pkey |        224641024

 2017-02-06 01:03:35.372786+01 | 1486339415.37279 | pgbench_branches_pkey |            16384
 2017-02-06 01:03:35.372786+01 | 1486339415.37279 | pgbench_tellers_pkey  |            40960
 2017-02-06 01:03:35.372786+01 | 1486339415.37279 | pgbench_accounts_pkey |        224641024

 2017-02-06 01:03:36.447554+01 | 1486339416.44755 | pgbench_branches_pkey |            16384
 2017-02-06 01:03:36.447554+01 | 1486339416.44755 | pgbench_tellers_pkey  |            40960
 2017-02-06 01:03:36.447554+01 | 1486339416.44755 | pgbench_accounts_pkey |        224641024

 2017-02-06 01:03:37.522669+01 | 1486339417.52267 | pgbench_branches_pkey |            16384
 2017-02-06 01:03:37.522669+01 | 1486339417.52267 | pgbench_tellers_pkey  |            40960
 2017-02-06 01:03:37.522669+01 | 1486339417.52267 | pgbench_accounts_pkey |        224641024

 2017-02-06 01:03:38.599975+01 | 1486339418.59998 | pgbench_branches_pkey |            16384
 2017-02-06 01:03:38.599975+01 | 1486339418.59998 | pgbench_tellers_pkey  |            40960
 2017-02-06 01:03:38.599975+01 | 1486339418.59998 | pgbench_accounts_pkey |        224641024

 2017-02-06 01:03:39.681695+01 | 1486339419.68169 | pgbench_branches_pkey |            16384
 2017-02-06 01:03:39.681695+01 | 1486339419.68169 | pgbench_tellers_pkey  |            40960
 2017-02-06 01:03:39.681695+01 | 1486339419.68169 | pgbench_accounts_pkey |        224641024

 2017-02-06 01:03:40.753006+01 | 1486339420.75301 | pgbench_branches_pkey |            16384
 2017-02-06 01:03:40.753006+01 | 1486339420.75301 | pgbench_tellers_pkey  |            40960
 2017-02-06 01:03:40.753006+01 | 1486339420.75301 | pgbench_accounts_pkey |        224641024

 2017-02-06 01:03:41.833705+01 | 1486339421.8337 | pgbench_branches_pkey |            16384
 2017-02-06 01:03:41.833705+01 | 1486339421.8337 | pgbench_tellers_pkey  |            40960
 2017-02-06 01:03:41.833705+01 | 1486339421.8337 | pgbench_accounts_pkey |        224641024

 2017-02-06 01:03:42.915696+01 | 1486339422.9157 | pgbench_branches_pkey |            16384
 2017-02-06 01:03:42.915696+01 | 1486339422.9157 | pgbench_tellers_pkey  |            40960
 2017-02-06 01:03:42.915696+01 | 1486339422.9157 | pgbench_accounts_pkey |        224641024

 2017-02-06 01:03:43.990298+01 | 1486339423.9903 | pgbench_branches_pkey |            16384
 2017-02-06 01:03:43.990298+01 | 1486339423.9903 | pgbench_tellers_pkey  |            40960
 2017-02-06 01:03:43.990298+01 | 1486339423.9903 | pgbench_accounts_pkey |        224641024

 2017-02-06 01:03:45.072418+01 | 1486339425.07242 | pgbench_branches_pkey |            16384
 2017-02-06 01:03:45.072418+01 | 1486339425.07242 | pgbench_tellers_pkey  |            40960
 2017-02-06 01:03:45.072418+01 | 1486339425.07242 | pgbench_accounts_pkey |        224641024

 2017-02-06 01:03:46.156685+01 | 1486339426.15669 | pgbench_branches_pkey |            16384
 2017-02-06 01:03:46.156685+01 | 1486339426.15669 | pgbench_tellers_pkey  |            40960
 2017-02-06 01:03:46.156685+01 | 1486339426.15669 | pgbench_accounts_pkey |        224641024

 2017-02-06 01:03:47.244447+01 | 1486339427.24445 | pgbench_branches_pkey |            16384
 2017-02-06 01:03:47.244447+01 | 1486339427.24445 | pgbench_tellers_pkey  |            40960
 2017-02-06 01:03:47.244447+01 | 1486339427.24445 | pgbench_accounts_pkey |        224641024

 2017-02-06 01:03:48.332789+01 | 1486339428.33279 | pgbench_branches_pkey |            16384
 2017-02-06 01:03:48.332789+01 | 1486339428.33279 | pgbench_tellers_pkey  |            40960
 2017-02-06 01:03:48.332789+01 | 1486339428.33279 | pgbench_accounts_pkey |        224641024

 2017-02-06 01:03:49.421565+01 | 1486339429.42157 | pgbench_branches_pkey |            16384
 2017-02-06 01:03:49.421565+01 | 1486339429.42157 | pgbench_tellers_pkey  |            40960
 2017-02-06 01:03:49.421565+01 | 1486339429.42157 | pgbench_accounts_pkey |        224641024

 2017-02-06 01:03:50.509834+01 | 1486339430.50983 | pgbench_branches_pkey |            16384
 2017-02-06 01:03:50.509834+01 | 1486339430.50983 | pgbench_tellers_pkey  |            40960
 2017-02-06 01:03:50.509834+01 | 1486339430.50983 | pgbench_accounts_pkey |        224641024

 2017-02-06 01:03:51.607588+01 | 1486339431.60759 | pgbench_branches_pkey |            16384
 2017-02-06 01:03:51.607588+01 | 1486339431.60759 | pgbench_tellers_pkey  |            40960
 2017-02-06 01:03:51.607588+01 | 1486339431.60759 | pgbench_accounts_pkey |        224641024

 2017-02-06 01:03:52.699484+01 | 1486339432.69948 | pgbench_branches_pkey |            16384
 2017-02-06 01:03:52.699484+01 | 1486339432.69948 | pgbench_tellers_pkey  |            40960
 2017-02-06 01:03:52.699484+01 | 1486339432.69948 | pgbench_accounts_pkey |        224641024

 2017-02-06 01:03:53.795113+01 | 1486339433.79511 | pgbench_branches_pkey |            16384
 2017-02-06 01:03:53.795113+01 | 1486339433.79511 | pgbench_tellers_pkey  |            40960
 2017-02-06 01:03:53.795113+01 | 1486339433.79511 | pgbench_accounts_pkey |        224641024

 2017-02-06 01:03:54.876494+01 | 1486339434.87649 | pgbench_branches_pkey |            16384
 2017-02-06 01:03:54.876494+01 | 1486339434.87649 | pgbench_tellers_pkey  |            40960
 2017-02-06 01:03:54.876494+01 | 1486339434.87649 | pgbench_accounts_pkey |        224641024

 2017-02-06 01:03:55.961122+01 | 1486339435.96112 | pgbench_branches_pkey |            16384
 2017-02-06 01:03:55.961122+01 | 1486339435.96112 | pgbench_tellers_pkey  |            40960
 2017-02-06 01:03:55.961122+01 | 1486339435.96112 | pgbench_accounts_pkey |        224641024

 2017-02-06 01:03:57.038723+01 | 1486339437.03872 | pgbench_branches_pkey |            16384
 2017-02-06 01:03:57.038723+01 | 1486339437.03872 | pgbench_tellers_pkey  |            40960
 2017-02-06 01:03:57.038723+01 | 1486339437.03872 | pgbench_accounts_pkey |        224641024

 2017-02-06 01:03:58.127678+01 | 1486339438.12768 | pgbench_branches_pkey |            16384
 2017-02-06 01:03:58.127678+01 | 1486339438.12768 | pgbench_tellers_pkey  |            40960
 2017-02-06 01:03:58.127678+01 | 1486339438.12768 | pgbench_accounts_pkey |        224641024

 2017-02-06 01:03:59.197982+01 | 1486339439.19798 | pgbench_branches_pkey |            16384
 2017-02-06 01:03:59.197982+01 | 1486339439.19798 | pgbench_tellers_pkey  |            40960
 2017-02-06 01:03:59.197982+01 | 1486339439.19798 | pgbench_accounts_pkey |        224641024

 2017-02-06 01:04:00.274895+01 | 1486339440.27489 | pgbench_branches_pkey |            16384
 2017-02-06 01:04:00.274895+01 | 1486339440.27489 | pgbench_tellers_pkey  |            40960
 2017-02-06 01:04:00.274895+01 | 1486339440.27489 | pgbench_accounts_pkey |        224641024

 2017-02-06 01:04:01.347908+01 | 1486339441.34791 | pgbench_branches_pkey |            16384
 2017-02-06 01:04:01.347908+01 | 1486339441.34791 | pgbench_tellers_pkey  |            40960
 2017-02-06 01:04:01.347908+01 | 1486339441.34791 | pgbench_accounts_pkey |        224641024

 2017-02-06 01:04:02.42566+01 | 1486339442.42566 | pgbench_branches_pkey |            16384
 2017-02-06 01:04:02.42566+01 | 1486339442.42566 | pgbench_tellers_pkey  |            40960
 2017-02-06 01:04:02.42566+01 | 1486339442.42566 | pgbench_accounts_pkey |        224641024

 2017-02-06 01:04:03.514169+01 | 1486339443.51417 | pgbench_branches_pkey |            16384
 2017-02-06 01:04:03.514169+01 | 1486339443.51417 | pgbench_tellers_pkey  |            40960
 2017-02-06 01:04:03.514169+01 | 1486339443.51417 | pgbench_accounts_pkey |        224641024

 2017-02-06 01:04:04.598757+01 | 1486339444.59876 | pgbench_branches_pkey |            16384
 2017-02-06 01:04:04.598757+01 | 1486339444.59876 | pgbench_tellers_pkey  |            40960
 2017-02-06 01:04:04.598757+01 | 1486339444.59876 | pgbench_accounts_pkey |        224641024

 2017-02-06 01:04:05.68821+01 | 1486339445.68821 | pgbench_branches_pkey |            16384
 2017-02-06 01:04:05.68821+01 | 1486339445.68821 | pgbench_tellers_pkey  |            40960
 2017-02-06 01:04:05.68821+01 | 1486339445.68821 | pgbench_accounts_pkey |        224641024

 2017-02-06 01:04:06.778794+01 | 1486339446.77879 | pgbench_branches_pkey |            16384
 2017-02-06 01:04:06.778794+01 | 1486339446.77879 | pgbench_tellers_pkey  |            40960
 2017-02-06 01:04:06.778794+01 | 1486339446.77879 | pgbench_accounts_pkey |        224641024

 2017-02-06 01:04:07.853249+01 | 1486339447.85325 | pgbench_branches_pkey |            16384
 2017-02-06 01:04:07.853249+01 | 1486339447.85325 | pgbench_tellers_pkey  |            40960
 2017-02-06 01:04:07.853249+01 | 1486339447.85325 | pgbench_accounts_pkey |        224641024

 2017-02-06 01:04:08.944909+01 | 1486339448.94491 | pgbench_branches_pkey |            16384
 2017-02-06 01:04:08.944909+01 | 1486339448.94491 | pgbench_tellers_pkey  |            40960
 2017-02-06 01:04:08.944909+01 | 1486339448.94491 | pgbench_accounts_pkey |        224641024

 2017-02-06 01:04:10.035102+01 | 1486339450.0351 | pgbench_branches_pkey |            16384
 2017-02-06 01:04:10.035102+01 | 1486339450.0351 | pgbench_tellers_pkey  |            40960
 2017-02-06 01:04:10.035102+01 | 1486339450.0351 | pgbench_accounts_pkey |        224641024

 2017-02-06 01:04:11.115062+01 | 1486339451.11506 | pgbench_branches_pkey |            16384
 2017-02-06 01:04:11.115062+01 | 1486339451.11506 | pgbench_tellers_pkey  |            40960
 2017-02-06 01:04:11.115062+01 | 1486339451.11506 | pgbench_accounts_pkey |        224641024

 2017-02-06 01:04:12.189725+01 | 1486339452.18972 | pgbench_branches_pkey |            16384
 2017-02-06 01:04:12.189725+01 | 1486339452.18972 | pgbench_tellers_pkey  |            40960
 2017-02-06 01:04:12.189725+01 | 1486339452.18972 | pgbench_accounts_pkey |        224641024

 2017-02-06 01:04:13.267358+01 | 1486339453.26736 | pgbench_branches_pkey |            16384
 2017-02-06 01:04:13.267358+01 | 1486339453.26736 | pgbench_tellers_pkey  |            40960
 2017-02-06 01:04:13.267358+01 | 1486339453.26736 | pgbench_accounts_pkey |        224641024

 2017-02-06 01:04:14.359152+01 | 1486339454.35915 | pgbench_branches_pkey |            16384
 2017-02-06 01:04:14.359152+01 | 1486339454.35915 | pgbench_tellers_pkey  |            40960
 2017-02-06 01:04:14.359152+01 | 1486339454.35915 | pgbench_accounts_pkey |        224641024

 2017-02-06 01:04:15.451244+01 | 1486339455.45124 | pgbench_branches_pkey |            16384
 2017-02-06 01:04:15.451244+01 | 1486339455.45124 | pgbench_tellers_pkey  |            40960
 2017-02-06 01:04:15.451244+01 | 1486339455.45124 | pgbench_accounts_pkey |        224641024

 2017-02-06 01:04:16.541627+01 | 1486339456.54163 | pgbench_branches_pkey |            16384
 2017-02-06 01:04:16.541627+01 | 1486339456.54163 | pgbench_tellers_pkey  |            40960
 2017-02-06 01:04:16.541627+01 | 1486339456.54163 | pgbench_accounts_pkey |        224641024

 2017-02-06 01:04:17.625519+01 | 1486339457.62552 | pgbench_branches_pkey |            16384
 2017-02-06 01:04:17.625519+01 | 1486339457.62552 | pgbench_tellers_pkey  |            40960
 2017-02-06 01:04:17.625519+01 | 1486339457.62552 | pgbench_accounts_pkey |        224641024

 2017-02-06 01:04:18.706691+01 | 1486339458.70669 | pgbench_branches_pkey |            16384
 2017-02-06 01:04:18.706691+01 | 1486339458.70669 | pgbench_tellers_pkey  |            40960
 2017-02-06 01:04:18.706691+01 | 1486339458.70669 | pgbench_accounts_pkey |        224641024

 2017-02-06 01:04:19.790287+01 | 1486339459.79029 | pgbench_branches_pkey |            16384
 2017-02-06 01:04:19.790287+01 | 1486339459.79029 | pgbench_tellers_pkey  |            40960
 2017-02-06 01:04:19.790287+01 | 1486339459.79029 | pgbench_accounts_pkey |        224641024

 2017-02-06 01:04:20.866782+01 | 1486339460.86678 | pgbench_branches_pkey |            16384
 2017-02-06 01:04:20.866782+01 | 1486339460.86678 | pgbench_tellers_pkey  |            40960
 2017-02-06 01:04:20.866782+01 | 1486339460.86678 | pgbench_accounts_pkey |        224641024

 2017-02-06 01:04:21.951908+01 | 1486339461.95191 | pgbench_branches_pkey |            16384
 2017-02-06 01:04:21.951908+01 | 1486339461.95191 | pgbench_tellers_pkey  |            40960
 2017-02-06 01:04:21.951908+01 | 1486339461.95191 | pgbench_accounts_pkey |        224641024

 2017-02-06 01:04:23.035863+01 | 1486339463.03586 | pgbench_branches_pkey |            16384
 2017-02-06 01:04:23.035863+01 | 1486339463.03586 | pgbench_tellers_pkey  |            40960
 2017-02-06 01:04:23.035863+01 | 1486339463.03586 | pgbench_accounts_pkey |        224641024

 2017-02-06 01:04:24.112446+01 | 1486339464.11245 | pgbench_branches_pkey |            16384
 2017-02-06 01:04:24.112446+01 | 1486339464.11245 | pgbench_tellers_pkey  |            40960
 2017-02-06 01:04:24.112446+01 | 1486339464.11245 | pgbench_accounts_pkey |        224641024

 2017-02-06 01:04:25.196136+01 | 1486339465.19614 | pgbench_branches_pkey |            16384
 2017-02-06 01:04:25.196136+01 | 1486339465.19614 | pgbench_tellers_pkey  |            40960
 2017-02-06 01:04:25.196136+01 | 1486339465.19614 | pgbench_accounts_pkey |        224641024

 2017-02-06 01:04:26.278808+01 | 1486339466.27881 | pgbench_branches_pkey |            16384
 2017-02-06 01:04:26.278808+01 | 1486339466.27881 | pgbench_tellers_pkey  |            40960
 2017-02-06 01:04:26.278808+01 | 1486339466.27881 | pgbench_accounts_pkey |        224641024

 2017-02-06 01:04:27.359124+01 | 1486339467.35912 | pgbench_branches_pkey |            16384
 2017-02-06 01:04:27.359124+01 | 1486339467.35912 | pgbench_tellers_pkey  |            40960
 2017-02-06 01:04:27.359124+01 | 1486339467.35912 | pgbench_accounts_pkey |        224641024

 2017-02-06 01:04:28.440419+01 | 1486339468.44042 | pgbench_branches_pkey |            16384
 2017-02-06 01:04:28.440419+01 | 1486339468.44042 | pgbench_tellers_pkey  |            40960
 2017-02-06 01:04:28.440419+01 | 1486339468.44042 | pgbench_accounts_pkey |        224641024

 2017-02-06 01:04:29.510329+01 | 1486339469.51033 | pgbench_branches_pkey |            16384
 2017-02-06 01:04:29.510329+01 | 1486339469.51033 | pgbench_tellers_pkey  |            40960
 2017-02-06 01:04:29.510329+01 | 1486339469.51033 | pgbench_accounts_pkey |        224641024

 2017-02-06 01:04:30.59877+01 | 1486339470.59877 | pgbench_branches_pkey |            16384
 2017-02-06 01:04:30.59877+01 | 1486339470.59877 | pgbench_tellers_pkey  |            40960
 2017-02-06 01:04:30.59877+01 | 1486339470.59877 | pgbench_accounts_pkey |        224641024

 2017-02-06 01:04:31.679642+01 | 1486339471.67964 | pgbench_branches_pkey |            16384
 2017-02-06 01:04:31.679642+01 | 1486339471.67964 | pgbench_tellers_pkey  |            40960
 2017-02-06 01:04:31.679642+01 | 1486339471.67964 | pgbench_accounts_pkey |        224641024

 2017-02-06 01:04:32.765513+01 | 1486339472.76551 | pgbench_branches_pkey |            16384
 2017-02-06 01:04:32.765513+01 | 1486339472.76551 | pgbench_tellers_pkey  |            40960
 2017-02-06 01:04:32.765513+01 | 1486339472.76551 | pgbench_accounts_pkey |        224641024

 2017-02-06 01:04:33.844667+01 | 1486339473.84467 | pgbench_branches_pkey |            16384
 2017-02-06 01:04:33.844667+01 | 1486339473.84467 | pgbench_tellers_pkey  |            40960
 2017-02-06 01:04:33.844667+01 | 1486339473.84467 | pgbench_accounts_pkey |        224641024

 2017-02-06 01:04:34.925333+01 | 1486339474.92533 | pgbench_branches_pkey |            16384
 2017-02-06 01:04:34.925333+01 | 1486339474.92533 | pgbench_tellers_pkey  |            40960
 2017-02-06 01:04:34.925333+01 | 1486339474.92533 | pgbench_accounts_pkey |        224641024

 2017-02-06 01:04:36.003787+01 | 1486339476.00379 | pgbench_branches_pkey |            16384
 2017-02-06 01:04:36.003787+01 | 1486339476.00379 | pgbench_tellers_pkey  |            40960
 2017-02-06 01:04:36.003787+01 | 1486339476.00379 | pgbench_accounts_pkey |        224641024

 2017-02-06 01:04:37.084982+01 | 1486339477.08498 | pgbench_branches_pkey |            16384
 2017-02-06 01:04:37.084982+01 | 1486339477.08498 | pgbench_tellers_pkey  |            40960
 2017-02-06 01:04:37.084982+01 | 1486339477.08498 | pgbench_accounts_pkey |        224641024

 2017-02-06 01:04:38.157874+01 | 1486339478.15787 | pgbench_branches_pkey |            16384
 2017-02-06 01:04:38.157874+01 | 1486339478.15787 | pgbench_tellers_pkey  |            40960
 2017-02-06 01:04:38.157874+01 | 1486339478.15787 | pgbench_accounts_pkey |        224641024

 2017-02-06 01:04:39.240078+01 | 1486339479.24008 | pgbench_branches_pkey |            16384
 2017-02-06 01:04:39.240078+01 | 1486339479.24008 | pgbench_tellers_pkey  |            40960
 2017-02-06 01:04:39.240078+01 | 1486339479.24008 | pgbench_accounts_pkey |        224641024

 2017-02-06 01:04:40.325408+01 | 1486339480.32541 | pgbench_branches_pkey |            16384
 2017-02-06 01:04:40.325408+01 | 1486339480.32541 | pgbench_tellers_pkey  |            40960
 2017-02-06 01:04:40.325408+01 | 1486339480.32541 | pgbench_accounts_pkey |        224641024

 2017-02-06 01:04:41.408663+01 | 1486339481.40866 | pgbench_branches_pkey |            16384
 2017-02-06 01:04:41.408663+01 | 1486339481.40866 | pgbench_tellers_pkey  |            40960
 2017-02-06 01:04:41.408663+01 | 1486339481.40866 | pgbench_accounts_pkey |        224641024

 2017-02-06 01:04:42.499917+01 | 1486339482.49992 | pgbench_branches_pkey |            16384
 2017-02-06 01:04:42.499917+01 | 1486339482.49992 | pgbench_tellers_pkey  |            40960
 2017-02-06 01:04:42.499917+01 | 1486339482.49992 | pgbench_accounts_pkey |        224641024

 2017-02-06 01:04:43.592977+01 | 1486339483.59298 | pgbench_branches_pkey |            16384
 2017-02-06 01:04:43.592977+01 | 1486339483.59298 | pgbench_tellers_pkey  |            40960
 2017-02-06 01:04:43.592977+01 | 1486339483.59298 | pgbench_accounts_pkey |        224641024

 2017-02-06 01:04:44.686009+01 | 1486339484.68601 | pgbench_branches_pkey |            16384
 2017-02-06 01:04:44.686009+01 | 1486339484.68601 | pgbench_tellers_pkey  |            40960
 2017-02-06 01:04:44.686009+01 | 1486339484.68601 | pgbench_accounts_pkey |        224641024

 2017-02-06 01:04:45.773862+01 | 1486339485.77386 | pgbench_branches_pkey |            16384
 2017-02-06 01:04:45.773862+01 | 1486339485.77386 | pgbench_tellers_pkey  |            40960
 2017-02-06 01:04:45.773862+01 | 1486339485.77386 | pgbench_accounts_pkey |        224641024

 2017-02-06 01:04:46.85625+01 | 1486339486.85625 | pgbench_branches_pkey |            16384
 2017-02-06 01:04:46.85625+01 | 1486339486.85625 | pgbench_tellers_pkey  |            40960
 2017-02-06 01:04:46.85625+01 | 1486339486.85625 | pgbench_accounts_pkey |        224641024

 2017-02-06 01:04:47.949959+01 | 1486339487.94996 | pgbench_branches_pkey |            16384
 2017-02-06 01:04:47.949959+01 | 1486339487.94996 | pgbench_tellers_pkey  |            40960
 2017-02-06 01:04:47.949959+01 | 1486339487.94996 | pgbench_accounts_pkey |        224641024

 2017-02-06 01:04:49.034283+01 | 1486339489.03428 | pgbench_branches_pkey |            16384
 2017-02-06 01:04:49.034283+01 | 1486339489.03428 | pgbench_tellers_pkey  |            40960
 2017-02-06 01:04:49.034283+01 | 1486339489.03428 | pgbench_accounts_pkey |        224641024

 2017-02-06 01:04:50.106219+01 | 1486339490.10622 | pgbench_branches_pkey |            16384
 2017-02-06 01:04:50.106219+01 | 1486339490.10622 | pgbench_tellers_pkey  |            40960
 2017-02-06 01:04:50.106219+01 | 1486339490.10622 | pgbench_accounts_pkey |        224641024

 2017-02-06 01:04:51.17739+01 | 1486339491.17739 | pgbench_branches_pkey |            16384
 2017-02-06 01:04:51.17739+01 | 1486339491.17739 | pgbench_tellers_pkey  |            40960
 2017-02-06 01:04:51.17739+01 | 1486339491.17739 | pgbench_accounts_pkey |        224641024

 2017-02-06 01:04:52.266257+01 | 1486339492.26626 | pgbench_branches_pkey |            16384
 2017-02-06 01:04:52.266257+01 | 1486339492.26626 | pgbench_tellers_pkey  |            40960
 2017-02-06 01:04:52.266257+01 | 1486339492.26626 | pgbench_accounts_pkey |        224641024

 2017-02-06 01:04:53.346746+01 | 1486339493.34675 | pgbench_branches_pkey |            16384
 2017-02-06 01:04:53.346746+01 | 1486339493.34675 | pgbench_tellers_pkey  |            40960
 2017-02-06 01:04:53.346746+01 | 1486339493.34675 | pgbench_accounts_pkey |        224641024

 2017-02-06 01:04:54.421314+01 | 1486339494.42131 | pgbench_branches_pkey |            16384
 2017-02-06 01:04:54.421314+01 | 1486339494.42131 | pgbench_tellers_pkey  |            40960
 2017-02-06 01:04:54.421314+01 | 1486339494.42131 | pgbench_accounts_pkey |        224641024

 2017-02-06 01:04:55.507597+01 | 1486339495.5076 | pgbench_branches_pkey |            16384
 2017-02-06 01:04:55.507597+01 | 1486339495.5076 | pgbench_tellers_pkey  |            40960
 2017-02-06 01:04:55.507597+01 | 1486339495.5076 | pgbench_accounts_pkey |        224641024

 2017-02-06 01:04:56.593986+01 | 1486339496.59399 | pgbench_branches_pkey |            16384
 2017-02-06 01:04:56.593986+01 | 1486339496.59399 | pgbench_tellers_pkey  |            40960
 2017-02-06 01:04:56.593986+01 | 1486339496.59399 | pgbench_accounts_pkey |        224641024

 2017-02-06 01:04:57.685954+01 | 1486339497.68595 | pgbench_branches_pkey |            16384
 2017-02-06 01:04:57.685954+01 | 1486339497.68595 | pgbench_tellers_pkey  |            40960
 2017-02-06 01:04:57.685954+01 | 1486339497.68595 | pgbench_accounts_pkey |        224641024

 2017-02-06 01:04:58.767253+01 | 1486339498.76725 | pgbench_branches_pkey |            16384
 2017-02-06 01:04:58.767253+01 | 1486339498.76725 | pgbench_tellers_pkey  |            40960
 2017-02-06 01:04:58.767253+01 | 1486339498.76725 | pgbench_accounts_pkey |        224641024

 2017-02-06 01:04:59.834993+01 | 1486339499.83499 | pgbench_branches_pkey |            16384
 2017-02-06 01:04:59.834993+01 | 1486339499.83499 | pgbench_tellers_pkey  |            40960
 2017-02-06 01:04:59.834993+01 | 1486339499.83499 | pgbench_accounts_pkey |        224641024

 2017-02-06 01:05:00.91937+01 | 1486339500.91937 | pgbench_branches_pkey |            16384
 2017-02-06 01:05:00.91937+01 | 1486339500.91937 | pgbench_tellers_pkey  |            40960
 2017-02-06 01:05:00.91937+01 | 1486339500.91937 | pgbench_accounts_pkey |        224641024

 2017-02-06 01:05:01.990772+01 | 1486339501.99077 | pgbench_branches_pkey |            16384
 2017-02-06 01:05:01.990772+01 | 1486339501.99077 | pgbench_tellers_pkey  |            40960
 2017-02-06 01:05:01.990772+01 | 1486339501.99077 | pgbench_accounts_pkey |        224641024

 2017-02-06 01:05:03.061793+01 | 1486339503.06179 | pgbench_branches_pkey |            16384
 2017-02-06 01:05:03.061793+01 | 1486339503.06179 | pgbench_tellers_pkey  |            40960
 2017-02-06 01:05:03.061793+01 | 1486339503.06179 | pgbench_accounts_pkey |        224641024

 2017-02-06 01:05:04.141458+01 | 1486339504.14146 | pgbench_branches_pkey |            16384
 2017-02-06 01:05:04.141458+01 | 1486339504.14146 | pgbench_tellers_pkey  |            40960
 2017-02-06 01:05:04.141458+01 | 1486339504.14146 | pgbench_accounts_pkey |        224641024

 2017-02-06 01:05:05.228027+01 | 1486339505.22803 | pgbench_branches_pkey |            16384
 2017-02-06 01:05:05.228027+01 | 1486339505.22803 | pgbench_tellers_pkey  |            40960
 2017-02-06 01:05:05.228027+01 | 1486339505.22803 | pgbench_accounts_pkey |        224641024

 2017-02-06 01:05:06.307639+01 | 1486339506.30764 | pgbench_branches_pkey |            16384
 2017-02-06 01:05:06.307639+01 | 1486339506.30764 | pgbench_tellers_pkey  |            40960
 2017-02-06 01:05:06.307639+01 | 1486339506.30764 | pgbench_accounts_pkey |        224641024

 2017-02-06 01:05:07.388112+01 | 1486339507.38811 | pgbench_branches_pkey |            16384
 2017-02-06 01:05:07.388112+01 | 1486339507.38811 | pgbench_tellers_pkey  |            40960
 2017-02-06 01:05:07.388112+01 | 1486339507.38811 | pgbench_accounts_pkey |        224641024

 2017-02-06 01:05:08.467664+01 | 1486339508.46766 | pgbench_branches_pkey |            16384
 2017-02-06 01:05:08.467664+01 | 1486339508.46766 | pgbench_tellers_pkey  |            40960
 2017-02-06 01:05:08.467664+01 | 1486339508.46766 | pgbench_accounts_pkey |        224641024

 2017-02-06 01:05:09.549937+01 | 1486339509.54994 | pgbench_branches_pkey |            16384
 2017-02-06 01:05:09.549937+01 | 1486339509.54994 | pgbench_tellers_pkey  |            40960
 2017-02-06 01:05:09.549937+01 | 1486339509.54994 | pgbench_accounts_pkey |        224641024

 2017-02-06 01:05:10.630132+01 | 1486339510.63013 | pgbench_branches_pkey |            16384
 2017-02-06 01:05:10.630132+01 | 1486339510.63013 | pgbench_tellers_pkey  |            40960
 2017-02-06 01:05:10.630132+01 | 1486339510.63013 | pgbench_accounts_pkey |        224641024

 2017-02-06 01:05:11.716556+01 | 1486339511.71656 | pgbench_branches_pkey |            16384
 2017-02-06 01:05:11.716556+01 | 1486339511.71656 | pgbench_tellers_pkey  |            40960
 2017-02-06 01:05:11.716556+01 | 1486339511.71656 | pgbench_accounts_pkey |        224641024

 2017-02-06 01:05:12.794692+01 | 1486339512.79469 | pgbench_branches_pkey |            16384
 2017-02-06 01:05:12.794692+01 | 1486339512.79469 | pgbench_tellers_pkey  |            40960
 2017-02-06 01:05:12.794692+01 | 1486339512.79469 | pgbench_accounts_pkey |        224641024

 2017-02-06 01:05:13.88555+01 | 1486339513.88555 | pgbench_branches_pkey |            16384
 2017-02-06 01:05:13.88555+01 | 1486339513.88555 | pgbench_tellers_pkey  |            40960
 2017-02-06 01:05:13.88555+01 | 1486339513.88555 | pgbench_accounts_pkey |        224641024

 2017-02-06 01:05:14.972052+01 | 1486339514.97205 | pgbench_branches_pkey |            16384
 2017-02-06 01:05:14.972052+01 | 1486339514.97205 | pgbench_tellers_pkey  |            40960
 2017-02-06 01:05:14.972052+01 | 1486339514.97205 | pgbench_accounts_pkey |        224641024

 2017-02-06 01:05:16.050458+01 | 1486339516.05046 | pgbench_branches_pkey |            16384
 2017-02-06 01:05:16.050458+01 | 1486339516.05046 | pgbench_tellers_pkey  |            40960
 2017-02-06 01:05:16.050458+01 | 1486339516.05046 | pgbench_accounts_pkey |        224641024

 2017-02-06 01:05:17.12908+01 | 1486339517.12908 | pgbench_branches_pkey |            16384
 2017-02-06 01:05:17.12908+01 | 1486339517.12908 | pgbench_tellers_pkey  |            40960
 2017-02-06 01:05:17.12908+01 | 1486339517.12908 | pgbench_accounts_pkey |        224641024

 2017-02-06 01:05:18.211523+01 | 1486339518.21152 | pgbench_branches_pkey |            16384
 2017-02-06 01:05:18.211523+01 | 1486339518.21152 | pgbench_tellers_pkey  |            40960
 2017-02-06 01:05:18.211523+01 | 1486339518.21152 | pgbench_accounts_pkey |        224641024

 2017-02-06 01:05:19.298342+01 | 1486339519.29834 | pgbench_branches_pkey |            16384
 2017-02-06 01:05:19.298342+01 | 1486339519.29834 | pgbench_tellers_pkey  |            40960
 2017-02-06 01:05:19.298342+01 | 1486339519.29834 | pgbench_accounts_pkey |        224641024

 2017-02-06 01:05:20.389889+01 | 1486339520.38989 | pgbench_branches_pkey |            16384
 2017-02-06 01:05:20.389889+01 | 1486339520.38989 | pgbench_tellers_pkey  |            40960
 2017-02-06 01:05:20.389889+01 | 1486339520.38989 | pgbench_accounts_pkey |        224641024

 2017-02-06 01:05:21.464438+01 | 1486339521.46444 | pgbench_branches_pkey |            16384
 2017-02-06 01:05:21.464438+01 | 1486339521.46444 | pgbench_tellers_pkey  |            40960
 2017-02-06 01:05:21.464438+01 | 1486339521.46444 | pgbench_accounts_pkey |        224641024

 2017-02-06 01:05:22.549188+01 | 1486339522.54919 | pgbench_branches_pkey |            16384
 2017-02-06 01:05:22.549188+01 | 1486339522.54919 | pgbench_tellers_pkey  |            40960
 2017-02-06 01:05:22.549188+01 | 1486339522.54919 | pgbench_accounts_pkey |        224641024

 2017-02-06 01:05:23.629245+01 | 1486339523.62925 | pgbench_branches_pkey |            16384
 2017-02-06 01:05:23.629245+01 | 1486339523.62925 | pgbench_tellers_pkey  |            40960
 2017-02-06 01:05:23.629245+01 | 1486339523.62925 | pgbench_accounts_pkey |        224641024

 2017-02-06 01:05:24.70734+01 | 1486339524.70734 | pgbench_branches_pkey |            16384
 2017-02-06 01:05:24.70734+01 | 1486339524.70734 | pgbench_tellers_pkey  |            40960
 2017-02-06 01:05:24.70734+01 | 1486339524.70734 | pgbench_accounts_pkey |        224641024

 2017-02-06 01:05:25.787798+01 | 1486339525.7878 | pgbench_branches_pkey |            16384
 2017-02-06 01:05:25.787798+01 | 1486339525.7878 | pgbench_tellers_pkey  |            40960
 2017-02-06 01:05:25.787798+01 | 1486339525.7878 | pgbench_accounts_pkey |        224641024

 2017-02-06 01:05:26.873623+01 | 1486339526.87362 | pgbench_branches_pkey |            16384
 2017-02-06 01:05:26.873623+01 | 1486339526.87362 | pgbench_tellers_pkey  |            40960
 2017-02-06 01:05:26.873623+01 | 1486339526.87362 | pgbench_accounts_pkey |        224641024

 2017-02-06 01:05:27.959115+01 | 1486339527.95912 | pgbench_branches_pkey |            16384
 2017-02-06 01:05:27.959115+01 | 1486339527.95912 | pgbench_tellers_pkey  |            40960
 2017-02-06 01:05:27.959115+01 | 1486339527.95912 | pgbench_accounts_pkey |        224641024

 2017-02-06 01:05:29.032036+01 | 1486339529.03204 | pgbench_branches_pkey |            16384
 2017-02-06 01:05:29.032036+01 | 1486339529.03204 | pgbench_tellers_pkey  |            40960
 2017-02-06 01:05:29.032036+01 | 1486339529.03204 | pgbench_accounts_pkey |        224641024

 2017-02-06 01:05:30.11343+01 | 1486339530.11343 | pgbench_branches_pkey |            16384
 2017-02-06 01:05:30.11343+01 | 1486339530.11343 | pgbench_tellers_pkey  |            40960
 2017-02-06 01:05:30.11343+01 | 1486339530.11343 | pgbench_accounts_pkey |        224641024

 2017-02-06 01:05:31.194837+01 | 1486339531.19484 | pgbench_branches_pkey |            16384
 2017-02-06 01:05:31.194837+01 | 1486339531.19484 | pgbench_tellers_pkey  |            40960
 2017-02-06 01:05:31.194837+01 | 1486339531.19484 | pgbench_accounts_pkey |        224641024

 2017-02-06 01:05:32.268887+01 | 1486339532.26889 | pgbench_branches_pkey |            16384
 2017-02-06 01:05:32.268887+01 | 1486339532.26889 | pgbench_tellers_pkey  |            40960
 2017-02-06 01:05:32.268887+01 | 1486339532.26889 | pgbench_accounts_pkey |        224641024

 2017-02-06 01:05:33.342242+01 | 1486339533.34224 | pgbench_branches_pkey |            16384
 2017-02-06 01:05:33.342242+01 | 1486339533.34224 | pgbench_tellers_pkey  |            40960
 2017-02-06 01:05:33.342242+01 | 1486339533.34224 | pgbench_accounts_pkey |        224641024

 2017-02-06 01:05:34.412818+01 | 1486339534.41282 | pgbench_branches_pkey |            16384
 2017-02-06 01:05:34.412818+01 | 1486339534.41282 | pgbench_tellers_pkey  |            40960
 2017-02-06 01:05:34.412818+01 | 1486339534.41282 | pgbench_accounts_pkey |        224641024

 2017-02-06 01:05:35.486042+01 | 1486339535.48604 | pgbench_branches_pkey |            16384
 2017-02-06 01:05:35.486042+01 | 1486339535.48604 | pgbench_tellers_pkey  |            40960
 2017-02-06 01:05:35.486042+01 | 1486339535.48604 | pgbench_accounts_pkey |        224641024

 2017-02-06 01:05:36.559758+01 | 1486339536.55976 | pgbench_branches_pkey |            16384
 2017-02-06 01:05:36.559758+01 | 1486339536.55976 | pgbench_tellers_pkey  |            40960
 2017-02-06 01:05:36.559758+01 | 1486339536.55976 | pgbench_accounts_pkey |        224641024

 2017-02-06 01:05:37.638734+01 | 1486339537.63873 | pgbench_branches_pkey |            16384
 2017-02-06 01:05:37.638734+01 | 1486339537.63873 | pgbench_tellers_pkey  |            40960
 2017-02-06 01:05:37.638734+01 | 1486339537.63873 | pgbench_accounts_pkey |        224641024

 2017-02-06 01:05:38.725752+01 | 1486339538.72575 | pgbench_branches_pkey |            16384
 2017-02-06 01:05:38.725752+01 | 1486339538.72575 | pgbench_tellers_pkey  |            40960
 2017-02-06 01:05:38.725752+01 | 1486339538.72575 | pgbench_accounts_pkey |        224641024

 2017-02-06 01:05:39.800046+01 | 1486339539.80005 | pgbench_branches_pkey |            16384
 2017-02-06 01:05:39.800046+01 | 1486339539.80005 | pgbench_tellers_pkey  |            40960
 2017-02-06 01:05:39.800046+01 | 1486339539.80005 | pgbench_accounts_pkey |        224641024

 2017-02-06 01:05:40.884006+01 | 1486339540.88401 | pgbench_branches_pkey |            16384
 2017-02-06 01:05:40.884006+01 | 1486339540.88401 | pgbench_tellers_pkey  |            40960
 2017-02-06 01:05:40.884006+01 | 1486339540.88401 | pgbench_accounts_pkey |        224641024

 2017-02-06 01:05:41.958327+01 | 1486339541.95833 | pgbench_branches_pkey |            16384
 2017-02-06 01:05:41.958327+01 | 1486339541.95833 | pgbench_tellers_pkey  |            40960
 2017-02-06 01:05:41.958327+01 | 1486339541.95833 | pgbench_accounts_pkey |        224641024

 2017-02-06 01:05:43.039282+01 | 1486339543.03928 | pgbench_branches_pkey |            16384
 2017-02-06 01:05:43.039282+01 | 1486339543.03928 | pgbench_tellers_pkey  |            40960
 2017-02-06 01:05:43.039282+01 | 1486339543.03928 | pgbench_accounts_pkey |        224641024

 2017-02-06 01:05:44.121422+01 | 1486339544.12142 | pgbench_branches_pkey |            16384
 2017-02-06 01:05:44.121422+01 | 1486339544.12142 | pgbench_tellers_pkey  |            40960
 2017-02-06 01:05:44.121422+01 | 1486339544.12142 | pgbench_accounts_pkey |        224641024

 2017-02-06 01:05:45.200173+01 | 1486339545.20017 | pgbench_branches_pkey |            16384
 2017-02-06 01:05:45.200173+01 | 1486339545.20017 | pgbench_tellers_pkey  |            40960
 2017-02-06 01:05:45.200173+01 | 1486339545.20017 | pgbench_accounts_pkey |        224641024

 2017-02-06 01:05:46.283009+01 | 1486339546.28301 | pgbench_branches_pkey |            16384
 2017-02-06 01:05:46.283009+01 | 1486339546.28301 | pgbench_tellers_pkey  |            40960
 2017-02-06 01:05:46.283009+01 | 1486339546.28301 | pgbench_accounts_pkey |        224641024

 2017-02-06 01:05:47.356065+01 | 1486339547.35607 | pgbench_branches_pkey |            16384
 2017-02-06 01:05:47.356065+01 | 1486339547.35607 | pgbench_tellers_pkey  |            40960
 2017-02-06 01:05:47.356065+01 | 1486339547.35607 | pgbench_accounts_pkey |        224641024

 2017-02-06 01:05:48.438407+01 | 1486339548.43841 | pgbench_branches_pkey |            16384
 2017-02-06 01:05:48.438407+01 | 1486339548.43841 | pgbench_tellers_pkey  |            40960
 2017-02-06 01:05:48.438407+01 | 1486339548.43841 | pgbench_accounts_pkey |        224641024

 2017-02-06 01:05:49.506442+01 | 1486339549.50644 | pgbench_branches_pkey |            16384
 2017-02-06 01:05:49.506442+01 | 1486339549.50644 | pgbench_tellers_pkey  |            40960
 2017-02-06 01:05:49.506442+01 | 1486339549.50644 | pgbench_accounts_pkey |        224641024

 2017-02-06 01:05:50.590635+01 | 1486339550.59064 | pgbench_branches_pkey |            16384
 2017-02-06 01:05:50.590635+01 | 1486339550.59064 | pgbench_tellers_pkey  |            40960
 2017-02-06 01:05:50.590635+01 | 1486339550.59064 | pgbench_accounts_pkey |        224641024

 2017-02-06 01:05:51.668136+01 | 1486339551.66814 | pgbench_branches_pkey |            16384
 2017-02-06 01:05:51.668136+01 | 1486339551.66814 | pgbench_tellers_pkey  |            40960
 2017-02-06 01:05:51.668136+01 | 1486339551.66814 | pgbench_accounts_pkey |        224641024

 2017-02-06 01:05:52.73994+01 | 1486339552.73994 | pgbench_branches_pkey |            16384
 2017-02-06 01:05:52.73994+01 | 1486339552.73994 | pgbench_tellers_pkey  |            40960
 2017-02-06 01:05:52.73994+01 | 1486339552.73994 | pgbench_accounts_pkey |        224641024

 2017-02-06 01:05:53.825264+01 | 1486339553.82526 | pgbench_branches_pkey |            16384
 2017-02-06 01:05:53.825264+01 | 1486339553.82526 | pgbench_tellers_pkey  |            40960
 2017-02-06 01:05:53.825264+01 | 1486339553.82526 | pgbench_accounts_pkey |        224641024

 2017-02-06 01:05:54.916733+01 | 1486339554.91673 | pgbench_branches_pkey |            16384
 2017-02-06 01:05:54.916733+01 | 1486339554.91673 | pgbench_tellers_pkey  |            40960
 2017-02-06 01:05:54.916733+01 | 1486339554.91673 | pgbench_accounts_pkey |        224641024

 2017-02-06 01:05:56.002314+01 | 1486339556.00231 | pgbench_branches_pkey |            16384
 2017-02-06 01:05:56.002314+01 | 1486339556.00231 | pgbench_tellers_pkey  |            40960
 2017-02-06 01:05:56.002314+01 | 1486339556.00231 | pgbench_accounts_pkey |        224641024

 2017-02-06 01:05:57.083715+01 | 1486339557.08371 | pgbench_branches_pkey |            16384
 2017-02-06 01:05:57.083715+01 | 1486339557.08371 | pgbench_tellers_pkey  |            40960
 2017-02-06 01:05:57.083715+01 | 1486339557.08371 | pgbench_accounts_pkey |        224641024

 2017-02-06 01:05:58.15791+01 | 1486339558.15791 | pgbench_branches_pkey |            16384
 2017-02-06 01:05:58.15791+01 | 1486339558.15791 | pgbench_tellers_pkey  |            40960
 2017-02-06 01:05:58.15791+01 | 1486339558.15791 | pgbench_accounts_pkey |        224641024

 2017-02-06 01:05:59.23492+01 | 1486339559.23492 | pgbench_branches_pkey |            16384
 2017-02-06 01:05:59.23492+01 | 1486339559.23492 | pgbench_tellers_pkey  |            40960
 2017-02-06 01:05:59.23492+01 | 1486339559.23492 | pgbench_accounts_pkey |        224641024

 2017-02-06 01:06:00.324584+01 | 1486339560.32458 | pgbench_branches_pkey |            16384
 2017-02-06 01:06:00.324584+01 | 1486339560.32458 | pgbench_tellers_pkey  |            40960
 2017-02-06 01:06:00.324584+01 | 1486339560.32458 | pgbench_accounts_pkey |        224641024

 2017-02-06 01:06:01.401727+01 | 1486339561.40173 | pgbench_branches_pkey |            16384
 2017-02-06 01:06:01.401727+01 | 1486339561.40173 | pgbench_tellers_pkey  |            40960
 2017-02-06 01:06:01.401727+01 | 1486339561.40173 | pgbench_accounts_pkey |        224641024

 2017-02-06 01:06:02.483278+01 | 1486339562.48328 | pgbench_branches_pkey |            16384
 2017-02-06 01:06:02.483278+01 | 1486339562.48328 | pgbench_tellers_pkey  |            40960
 2017-02-06 01:06:02.483278+01 | 1486339562.48328 | pgbench_accounts_pkey |        224641024

 2017-02-06 01:06:03.562585+01 | 1486339563.56259 | pgbench_branches_pkey |            16384
 2017-02-06 01:06:03.562585+01 | 1486339563.56259 | pgbench_tellers_pkey  |            40960
 2017-02-06 01:06:03.562585+01 | 1486339563.56259 | pgbench_accounts_pkey |        224641024

 2017-02-06 01:06:04.638582+01 | 1486339564.63858 | pgbench_branches_pkey |            16384
 2017-02-06 01:06:04.638582+01 | 1486339564.63858 | pgbench_tellers_pkey  |            40960
 2017-02-06 01:06:04.638582+01 | 1486339564.63858 | pgbench_accounts_pkey |        224641024

 2017-02-06 01:06:05.72376+01 | 1486339565.72376 | pgbench_branches_pkey |            16384
 2017-02-06 01:06:05.72376+01 | 1486339565.72376 | pgbench_tellers_pkey  |            40960
 2017-02-06 01:06:05.72376+01 | 1486339565.72376 | pgbench_accounts_pkey |        224641024

 2017-02-06 01:06:06.803099+01 | 1486339566.8031 | pgbench_branches_pkey |            16384
 2017-02-06 01:06:06.803099+01 | 1486339566.8031 | pgbench_tellers_pkey  |            40960
 2017-02-06 01:06:06.803099+01 | 1486339566.8031 | pgbench_accounts_pkey |        224641024

 2017-02-06 01:06:07.876978+01 | 1486339567.87698 | pgbench_branches_pkey |            16384
 2017-02-06 01:06:07.876978+01 | 1486339567.87698 | pgbench_tellers_pkey  |            40960
 2017-02-06 01:06:07.876978+01 | 1486339567.87698 | pgbench_accounts_pkey |        224641024

 2017-02-06 01:06:08.951769+01 | 1486339568.95177 | pgbench_branches_pkey |            16384
 2017-02-06 01:06:08.951769+01 | 1486339568.95177 | pgbench_tellers_pkey  |            40960
 2017-02-06 01:06:08.951769+01 | 1486339568.95177 | pgbench_accounts_pkey |        224641024

 2017-02-06 01:06:10.020464+01 | 1486339570.02046 | pgbench_branches_pkey |            16384
 2017-02-06 01:06:10.020464+01 | 1486339570.02046 | pgbench_tellers_pkey  |            40960
 2017-02-06 01:06:10.020464+01 | 1486339570.02046 | pgbench_accounts_pkey |        224641024

 2017-02-06 01:06:11.101945+01 | 1486339571.10194 | pgbench_branches_pkey |            16384
 2017-02-06 01:06:11.101945+01 | 1486339571.10194 | pgbench_tellers_pkey  |            40960
 2017-02-06 01:06:11.101945+01 | 1486339571.10194 | pgbench_accounts_pkey |        224641024

 2017-02-06 01:06:12.175757+01 | 1486339572.17576 | pgbench_branches_pkey |            16384
 2017-02-06 01:06:12.175757+01 | 1486339572.17576 | pgbench_tellers_pkey  |            40960
 2017-02-06 01:06:12.175757+01 | 1486339572.17576 | pgbench_accounts_pkey |        224641024

 2017-02-06 01:06:13.25501+01 | 1486339573.25501 | pgbench_branches_pkey |            16384
 2017-02-06 01:06:13.25501+01 | 1486339573.25501 | pgbench_tellers_pkey  |            40960
 2017-02-06 01:06:13.25501+01 | 1486339573.25501 | pgbench_accounts_pkey |        224641024

 2017-02-06 01:06:14.325202+01 | 1486339574.3252 | pgbench_branches_pkey |            16384
 2017-02-06 01:06:14.325202+01 | 1486339574.3252 | pgbench_tellers_pkey  |            40960
 2017-02-06 01:06:14.325202+01 | 1486339574.3252 | pgbench_accounts_pkey |        224641024

 2017-02-06 01:06:15.407677+01 | 1486339575.40768 | pgbench_branches_pkey |            16384
 2017-02-06 01:06:15.407677+01 | 1486339575.40768 | pgbench_tellers_pkey  |            40960
 2017-02-06 01:06:15.407677+01 | 1486339575.40768 | pgbench_accounts_pkey |        224641024

 2017-02-06 01:06:16.481804+01 | 1486339576.4818 | pgbench_branches_pkey |            16384
 2017-02-06 01:06:16.481804+01 | 1486339576.4818 | pgbench_tellers_pkey  |            40960
 2017-02-06 01:06:16.481804+01 | 1486339576.4818 | pgbench_accounts_pkey |        224641024

 2017-02-06 01:06:17.549177+01 | 1486339577.54918 | pgbench_branches_pkey |            16384
 2017-02-06 01:06:17.549177+01 | 1486339577.54918 | pgbench_tellers_pkey  |            40960
 2017-02-06 01:06:17.549177+01 | 1486339577.54918 | pgbench_accounts_pkey |        224641024

 2017-02-06 01:06:18.623421+01 | 1486339578.62342 | pgbench_branches_pkey |            16384
 2017-02-06 01:06:18.623421+01 | 1486339578.62342 | pgbench_tellers_pkey  |            40960
 2017-02-06 01:06:18.623421+01 | 1486339578.62342 | pgbench_accounts_pkey |        224641024

 2017-02-06 01:06:19.69491+01 | 1486339579.69491 | pgbench_branches_pkey |            16384
 2017-02-06 01:06:19.69491+01 | 1486339579.69491 | pgbench_tellers_pkey  |            40960
 2017-02-06 01:06:19.69491+01 | 1486339579.69491 | pgbench_accounts_pkey |        224641024

 2017-02-06 01:06:20.774888+01 | 1486339580.77489 | pgbench_branches_pkey |            16384
 2017-02-06 01:06:20.774888+01 | 1486339580.77489 | pgbench_tellers_pkey  |            40960
 2017-02-06 01:06:20.774888+01 | 1486339580.77489 | pgbench_accounts_pkey |        224641024

 2017-02-06 01:06:21.861302+01 | 1486339581.8613 | pgbench_branches_pkey |            16384
 2017-02-06 01:06:21.861302+01 | 1486339581.8613 | pgbench_tellers_pkey  |            40960
 2017-02-06 01:06:21.861302+01 | 1486339581.8613 | pgbench_accounts_pkey |        224641024

 2017-02-06 01:06:22.934691+01 | 1486339582.93469 | pgbench_branches_pkey |            16384
 2017-02-06 01:06:22.934691+01 | 1486339582.93469 | pgbench_tellers_pkey  |            40960
 2017-02-06 01:06:22.934691+01 | 1486339582.93469 | pgbench_accounts_pkey |        224641024

 2017-02-06 01:06:24.01266+01 | 1486339584.01266 | pgbench_branches_pkey |            16384
 2017-02-06 01:06:24.01266+01 | 1486339584.01266 | pgbench_tellers_pkey  |            40960
 2017-02-06 01:06:24.01266+01 | 1486339584.01266 | pgbench_accounts_pkey |        224641024

 2017-02-06 01:06:25.091948+01 | 1486339585.09195 | pgbench_branches_pkey |            16384
 2017-02-06 01:06:25.091948+01 | 1486339585.09195 | pgbench_tellers_pkey  |            40960
 2017-02-06 01:06:25.091948+01 | 1486339585.09195 | pgbench_accounts_pkey |        224641024

 2017-02-06 01:06:26.174039+01 | 1486339586.17404 | pgbench_branches_pkey |            16384
 2017-02-06 01:06:26.174039+01 | 1486339586.17404 | pgbench_tellers_pkey  |            40960
 2017-02-06 01:06:26.174039+01 | 1486339586.17404 | pgbench_accounts_pkey |        224641024

 2017-02-06 01:06:27.244824+01 | 1486339587.24482 | pgbench_branches_pkey |            16384
 2017-02-06 01:06:27.244824+01 | 1486339587.24482 | pgbench_tellers_pkey  |            40960
 2017-02-06 01:06:27.244824+01 | 1486339587.24482 | pgbench_accounts_pkey |        224641024

 2017-02-06 01:06:28.326501+01 | 1486339588.3265 | pgbench_branches_pkey |            16384
 2017-02-06 01:06:28.326501+01 | 1486339588.3265 | pgbench_tellers_pkey  |            40960
 2017-02-06 01:06:28.326501+01 | 1486339588.3265 | pgbench_accounts_pkey |        224641024

 2017-02-06 01:06:29.405721+01 | 1486339589.40572 | pgbench_branches_pkey |            16384
 2017-02-06 01:06:29.405721+01 | 1486339589.40572 | pgbench_tellers_pkey  |            40960
 2017-02-06 01:06:29.405721+01 | 1486339589.40572 | pgbench_accounts_pkey |        224641024

 2017-02-06 01:06:30.479106+01 | 1486339590.47911 | pgbench_branches_pkey |            16384
 2017-02-06 01:06:30.479106+01 | 1486339590.47911 | pgbench_tellers_pkey  |            40960
 2017-02-06 01:06:30.479106+01 | 1486339590.47911 | pgbench_accounts_pkey |        224641024

 2017-02-06 01:06:31.561421+01 | 1486339591.56142 | pgbench_branches_pkey |            16384
 2017-02-06 01:06:31.561421+01 | 1486339591.56142 | pgbench_tellers_pkey  |            40960
 2017-02-06 01:06:31.561421+01 | 1486339591.56142 | pgbench_accounts_pkey |        224641024

 2017-02-06 01:06:32.647502+01 | 1486339592.6475 | pgbench_branches_pkey |            16384
 2017-02-06 01:06:32.647502+01 | 1486339592.6475 | pgbench_tellers_pkey  |            40960
 2017-02-06 01:06:32.647502+01 | 1486339592.6475 | pgbench_accounts_pkey |        224641024

 2017-02-06 01:06:33.724901+01 | 1486339593.7249 | pgbench_branches_pkey |            16384
 2017-02-06 01:06:33.724901+01 | 1486339593.7249 | pgbench_tellers_pkey  |            40960
 2017-02-06 01:06:33.724901+01 | 1486339593.7249 | pgbench_accounts_pkey |        224641024

 2017-02-06 01:06:34.801234+01 | 1486339594.80123 | pgbench_branches_pkey |            16384
 2017-02-06 01:06:34.801234+01 | 1486339594.80123 | pgbench_tellers_pkey  |            40960
 2017-02-06 01:06:34.801234+01 | 1486339594.80123 | pgbench_accounts_pkey |        224641024

 2017-02-06 01:06:35.879313+01 | 1486339595.87931 | pgbench_branches_pkey |            16384
 2017-02-06 01:06:35.879313+01 | 1486339595.87931 | pgbench_tellers_pkey  |            40960
 2017-02-06 01:06:35.879313+01 | 1486339595.87931 | pgbench_accounts_pkey |        224641024

 2017-02-06 01:06:36.959332+01 | 1486339596.95933 | pgbench_branches_pkey |            16384
 2017-02-06 01:06:36.959332+01 | 1486339596.95933 | pgbench_tellers_pkey  |            40960
 2017-02-06 01:06:36.959332+01 | 1486339596.95933 | pgbench_accounts_pkey |        224641024

 2017-02-06 01:06:38.032191+01 | 1486339598.03219 | pgbench_branches_pkey |            16384
 2017-02-06 01:06:38.032191+01 | 1486339598.03219 | pgbench_tellers_pkey  |            40960
 2017-02-06 01:06:38.032191+01 | 1486339598.03219 | pgbench_accounts_pkey |        224641024

 2017-02-06 01:06:39.101361+01 | 1486339599.10136 | pgbench_branches_pkey |            16384
 2017-02-06 01:06:39.101361+01 | 1486339599.10136 | pgbench_tellers_pkey  |            40960
 2017-02-06 01:06:39.101361+01 | 1486339599.10136 | pgbench_accounts_pkey |        224641024

 2017-02-06 01:06:40.175973+01 | 1486339600.17597 | pgbench_branches_pkey |            16384
 2017-02-06 01:06:40.175973+01 | 1486339600.17597 | pgbench_tellers_pkey  |            40960
 2017-02-06 01:06:40.175973+01 | 1486339600.17597 | pgbench_accounts_pkey |        224641024

 2017-02-06 01:06:41.257505+01 | 1486339601.2575 | pgbench_branches_pkey |            16384
 2017-02-06 01:06:41.257505+01 | 1486339601.2575 | pgbench_tellers_pkey  |            40960
 2017-02-06 01:06:41.257505+01 | 1486339601.2575 | pgbench_accounts_pkey |        224641024

 2017-02-06 01:06:42.333247+01 | 1486339602.33325 | pgbench_branches_pkey |            16384
 2017-02-06 01:06:42.333247+01 | 1486339602.33325 | pgbench_tellers_pkey  |            40960
 2017-02-06 01:06:42.333247+01 | 1486339602.33325 | pgbench_accounts_pkey |        224641024

 2017-02-06 01:06:43.421698+01 | 1486339603.4217 | pgbench_branches_pkey |            16384
 2017-02-06 01:06:43.421698+01 | 1486339603.4217 | pgbench_tellers_pkey  |            40960
 2017-02-06 01:06:43.421698+01 | 1486339603.4217 | pgbench_accounts_pkey |        224641024

 2017-02-06 01:06:44.501006+01 | 1486339604.50101 | pgbench_branches_pkey |            16384
 2017-02-06 01:06:44.501006+01 | 1486339604.50101 | pgbench_tellers_pkey  |            40960
 2017-02-06 01:06:44.501006+01 | 1486339604.50101 | pgbench_accounts_pkey |        224641024

