 2017-02-06 11:03:20.876289+01 | 1486375400.87629 |                 0 |              17 |                 29684 |                 1214 |            3533771 |             0 |                0 |         1100712 |                     0 |        804711 | 2017-02-06 09:42:18.893067+01

 2017-02-06 11:03:21.957447+01 | 1486375401.95745 |                 0 |              17 |                 29684 |                 1214 |            3533771 |             0 |                0 |         1100712 |                     0 |        804845 | 2017-02-06 09:42:18.893067+01

 2017-02-06 11:03:23.046777+01 | 1486375403.04678 |                 0 |              17 |                 29684 |                 1214 |            3533771 |             0 |                0 |         1100712 |                     0 |        804971 | 2017-02-06 09:42:18.893067+01

 2017-02-06 11:03:24.135255+01 | 1486375404.13526 |                 0 |              17 |                 29684 |                 1214 |            3533771 |             0 |                0 |         1100712 |                     0 |        805074 | 2017-02-06 09:42:18.893067+01

 2017-02-06 11:03:25.208768+01 | 1486375405.20877 |                 0 |              17 |                 29684 |                 1214 |            3533771 |             0 |                0 |         1100712 |                     0 |        805284 | 2017-02-06 09:42:18.893067+01

 2017-02-06 11:03:26.296218+01 | 1486375406.29622 |                 0 |              17 |                 29684 |                 1214 |            3533771 |             0 |                0 |         1100712 |                     0 |        805372 | 2017-02-06 09:42:18.893067+01

 2017-02-06 11:03:27.364458+01 | 1486375407.36446 |                 0 |              17 |                 29684 |                 1214 |            3533771 |             0 |                0 |         1100712 |                     0 |        805483 | 2017-02-06 09:42:18.893067+01

 2017-02-06 11:03:28.446517+01 | 1486375408.44652 |                 0 |              17 |                 29684 |                 1214 |            3533771 |             0 |                0 |         1100712 |                     0 |        805611 | 2017-02-06 09:42:18.893067+01

 2017-02-06 11:03:29.523199+01 | 1486375409.5232 |                 0 |              17 |                 29684 |                 1214 |            3533771 |             0 |                0 |         1100712 |                     0 |        805780 | 2017-02-06 09:42:18.893067+01

 2017-02-06 11:03:30.599717+01 | 1486375410.59972 |                 0 |              17 |                 29684 |                 1214 |            3533771 |             0 |                0 |         1100712 |                     0 |        805971 | 2017-02-06 09:42:18.893067+01

 2017-02-06 11:03:31.681304+01 | 1486375411.6813 |                 0 |              17 |                 29684 |                 1214 |            3533771 |             0 |                0 |         1100712 |                     0 |        806059 | 2017-02-06 09:42:18.893067+01

 2017-02-06 11:03:32.753211+01 | 1486375412.75321 |                 0 |              17 |                 29684 |                 1214 |            3533771 |             0 |                0 |         1100712 |                     0 |        806189 | 2017-02-06 09:42:18.893067+01

 2017-02-06 11:03:33.826529+01 | 1486375413.82653 |                 0 |              17 |                 29684 |                 1214 |            3533771 |             0 |                0 |         1100712 |                     0 |        806378 | 2017-02-06 09:42:18.893067+01

 2017-02-06 11:03:34.902758+01 | 1486375414.90276 |                 0 |              17 |                 29684 |                 1214 |            3533771 |             0 |                0 |         1100712 |                     0 |        806509 | 2017-02-06 09:42:18.893067+01

 2017-02-06 11:03:35.986608+01 | 1486375415.98661 |                 0 |              17 |                 29684 |                 1214 |            3533771 |             0 |                0 |         1100712 |                     0 |        806680 | 2017-02-06 09:42:18.893067+01

 2017-02-06 11:03:37.060646+01 | 1486375417.06065 |                 0 |              17 |                 29684 |                 1214 |            3533771 |             0 |                0 |         1100712 |                     0 |        806810 | 2017-02-06 09:42:18.893067+01

 2017-02-06 11:03:38.132821+01 | 1486375418.13282 |                 0 |              17 |                 29684 |                 1214 |            3533771 |             0 |                0 |         1100712 |                     0 |        806970 | 2017-02-06 09:42:18.893067+01

 2017-02-06 11:03:39.210068+01 | 1486375419.21007 |                 0 |              17 |                 29684 |                 1214 |            3533771 |             0 |                0 |         1100712 |                     0 |        807119 | 2017-02-06 09:42:18.893067+01

 2017-02-06 11:03:40.281981+01 | 1486375420.28198 |                 0 |              17 |                 29684 |                 1214 |            3533771 |             0 |                0 |         1100712 |                     0 |        807253 | 2017-02-06 09:42:18.893067+01

 2017-02-06 11:03:41.358113+01 | 1486375421.35811 |                 0 |              17 |                 29684 |                 1214 |            3533771 |             0 |                0 |         1100712 |                     0 |        807403 | 2017-02-06 09:42:18.893067+01

 2017-02-06 11:03:42.432798+01 | 1486375422.4328 |                 0 |              17 |                 29684 |                 1214 |            3533771 |             0 |                0 |         1100712 |                     0 |        807583 | 2017-02-06 09:42:18.893067+01

 2017-02-06 11:03:43.505325+01 | 1486375423.50533 |                 0 |              17 |                 29684 |                 1214 |            3533771 |             0 |                0 |         1100712 |                     0 |        807710 | 2017-02-06 09:42:18.893067+01

 2017-02-06 11:03:44.580023+01 | 1486375424.58002 |                 0 |              17 |                 29684 |                 1214 |            3533771 |             0 |                0 |         1100712 |                     0 |        807867 | 2017-02-06 09:42:18.893067+01

 2017-02-06 11:03:45.65521+01 | 1486375425.65521 |                 0 |              17 |                 29684 |                 1214 |            3533771 |             0 |                0 |         1100712 |                     0 |        808011 | 2017-02-06 09:42:18.893067+01

 2017-02-06 11:03:46.731956+01 | 1486375426.73196 |                 0 |              17 |                 29684 |                 1214 |            3533771 |             0 |                0 |         1100712 |                     0 |        808180 | 2017-02-06 09:42:18.893067+01

 2017-02-06 11:03:47.806566+01 | 1486375427.80657 |                 0 |              17 |                 29684 |                 1214 |            3533771 |             0 |                0 |         1100712 |                     0 |        808268 | 2017-02-06 09:42:18.893067+01

 2017-02-06 11:03:48.884424+01 | 1486375428.88442 |                 0 |              17 |                 29684 |                 1214 |            3533771 |             0 |                0 |         1100712 |                     0 |        808447 | 2017-02-06 09:42:18.893067+01

 2017-02-06 11:03:49.960272+01 | 1486375429.96027 |                 0 |              17 |                 29684 |                 1214 |            3533771 |             0 |                0 |         1100712 |                     0 |        808575 | 2017-02-06 09:42:18.893067+01

 2017-02-06 11:03:51.032495+01 | 1486375431.0325 |                 0 |              17 |                 29684 |                 1214 |            3533771 |             0 |                0 |         1100712 |                     0 |        808729 | 2017-02-06 09:42:18.893067+01

 2017-02-06 11:03:52.108815+01 | 1486375432.10881 |                 0 |              17 |                 29684 |                 1214 |            3533771 |             0 |                0 |         1100712 |                     0 |        808906 | 2017-02-06 09:42:18.893067+01

 2017-02-06 11:03:53.183404+01 | 1486375433.1834 |                 0 |              17 |                 29684 |                 1214 |            3533771 |             0 |                0 |         1100712 |                     0 |        809057 | 2017-02-06 09:42:18.893067+01

 2017-02-06 11:03:54.261233+01 | 1486375434.26123 |                 0 |              17 |                 29684 |                 1214 |            3533771 |             0 |                0 |         1100712 |                     0 |        809166 | 2017-02-06 09:42:18.893067+01

 2017-02-06 11:03:55.33149+01 | 1486375435.33149 |                 0 |              17 |                 29684 |                 1214 |            3533771 |             0 |                0 |         1100712 |                     0 |        809359 | 2017-02-06 09:42:18.893067+01

 2017-02-06 11:03:56.410481+01 | 1486375436.41048 |                 0 |              17 |                 29684 |                 1214 |            3533771 |             0 |                0 |         1100712 |                     0 |        809533 | 2017-02-06 09:42:18.893067+01

 2017-02-06 11:03:57.486383+01 | 1486375437.48638 |                 0 |              17 |                 29684 |                 1214 |            3533771 |             0 |                0 |         1100712 |                     0 |        809642 | 2017-02-06 09:42:18.893067+01

 2017-02-06 11:03:58.564466+01 | 1486375438.56447 |                 0 |              17 |                 29684 |                 1214 |            3533771 |             0 |                0 |         1100712 |                     0 |        809759 | 2017-02-06 09:42:18.893067+01

 2017-02-06 11:03:59.635698+01 | 1486375439.6357 |                 0 |              17 |                 29684 |                 1214 |            3533771 |             0 |                0 |         1100712 |                     0 |        809952 | 2017-02-06 09:42:18.893067+01

 2017-02-06 11:04:00.707925+01 | 1486375440.70793 |                 0 |              17 |                 29684 |                 1214 |            3533771 |             0 |                0 |         1100712 |                     0 |        810099 | 2017-02-06 09:42:18.893067+01

 2017-02-06 11:04:01.785871+01 | 1486375441.78587 |                 0 |              17 |                 29684 |                 1214 |            3533771 |             0 |                0 |         1100712 |                     0 |        810182 | 2017-02-06 09:42:18.893067+01

 2017-02-06 11:04:02.861361+01 | 1486375442.86136 |                 0 |              17 |                 29684 |                 1214 |            3533771 |             0 |                0 |         1100712 |                     0 |        810379 | 2017-02-06 09:42:18.893067+01

 2017-02-06 11:04:03.940497+01 | 1486375443.9405 |                 0 |              17 |                 29684 |                 1214 |            3533771 |             0 |                0 |         1100712 |                     0 |        810514 | 2017-02-06 09:42:18.893067+01

 2017-02-06 11:04:05.007335+01 | 1486375445.00733 |                 0 |              17 |                 29684 |                 1214 |            3533771 |             0 |                0 |         1100712 |                     0 |        810624 | 2017-02-06 09:42:18.893067+01

 2017-02-06 11:04:06.081192+01 | 1486375446.08119 |                 0 |              17 |                 29684 |                 1214 |            3533771 |             0 |                0 |         1100712 |                     0 |        810859 | 2017-02-06 09:42:18.893067+01

 2017-02-06 11:04:07.153582+01 | 1486375447.15358 |                 0 |              17 |                 29684 |                 1214 |            3533771 |             0 |                0 |         1100712 |                     0 |        810975 | 2017-02-06 09:42:18.893067+01

 2017-02-06 11:04:08.230919+01 | 1486375448.23092 |                 0 |              17 |                 29684 |                 1214 |            3533771 |             0 |                0 |         1100712 |                     0 |        811116 | 2017-02-06 09:42:18.893067+01

 2017-02-06 11:04:09.301824+01 | 1486375449.30182 |                 0 |              17 |                 29684 |                 1214 |            3533771 |             0 |                0 |         1100712 |                     0 |        811295 | 2017-02-06 09:42:18.893067+01

 2017-02-06 11:04:10.379627+01 | 1486375450.37963 |                 0 |              17 |                 29684 |                 1214 |            3533771 |             0 |                0 |         1100712 |                     0 |        811409 | 2017-02-06 09:42:18.893067+01

 2017-02-06 11:04:11.452835+01 | 1486375451.45284 |                 0 |              17 |                 29684 |                 1214 |            3533771 |             0 |                0 |         1100712 |                     0 |        811539 | 2017-02-06 09:42:18.893067+01

 2017-02-06 11:04:12.534855+01 | 1486375452.53485 |                 0 |              17 |                 29684 |                 1214 |            3533771 |             0 |                0 |         1100712 |                     0 |        811690 | 2017-02-06 09:42:18.893067+01

 2017-02-06 11:04:13.607462+01 | 1486375453.60746 |                 0 |              17 |                 29684 |                 1214 |            3533771 |             0 |                0 |         1100712 |                     0 |        811863 | 2017-02-06 09:42:18.893067+01

 2017-02-06 11:04:14.68156+01 | 1486375454.68156 |                 0 |              17 |                 29684 |                 1214 |            3533771 |             0 |                0 |         1100712 |                     0 |        811989 | 2017-02-06 09:42:18.893067+01

 2017-02-06 11:04:15.751737+01 | 1486375455.75174 |                 0 |              17 |                 29684 |                 1214 |            3533771 |             0 |                0 |         1100712 |                     0 |        812142 | 2017-02-06 09:42:18.893067+01

 2017-02-06 11:04:16.828263+01 | 1486375456.82826 |                 0 |              17 |                 29684 |                 1214 |            3533771 |             0 |                0 |         1100712 |                     0 |        812285 | 2017-02-06 09:42:18.893067+01

 2017-02-06 11:04:17.903231+01 | 1486375457.90323 |                 0 |              17 |                 29684 |                 1214 |            3533771 |             0 |                0 |         1100712 |                     0 |        812463 | 2017-02-06 09:42:18.893067+01

 2017-02-06 11:04:18.98333+01 | 1486375458.98333 |                 0 |              17 |                 29684 |                 1214 |            3533771 |             0 |                0 |         1100712 |                     0 |        812573 | 2017-02-06 09:42:18.893067+01

 2017-02-06 11:04:20.054758+01 | 1486375460.05476 |                 0 |              17 |                 29684 |                 1214 |            3533771 |             0 |                0 |         1100712 |                     0 |        812703 | 2017-02-06 09:42:18.893067+01

 2017-02-06 11:04:21.129936+01 | 1486375461.12994 |                 0 |              17 |                 29684 |                 1214 |            3533771 |             0 |                0 |         1100712 |                     0 |        812832 | 2017-02-06 09:42:18.893067+01

 2017-02-06 11:04:22.202034+01 | 1486375462.20203 |                 0 |              17 |                 29684 |                 1214 |            3533771 |             0 |                0 |         1100712 |                     0 |        812982 | 2017-02-06 09:42:18.893067+01

 2017-02-06 11:04:23.276605+01 | 1486375463.2766 |                 0 |              17 |                 29684 |                 1214 |            3533771 |             0 |                0 |         1100712 |                     0 |        813264 | 2017-02-06 09:42:18.893067+01

 2017-02-06 11:04:24.349031+01 | 1486375464.34903 |                 0 |              17 |                 29684 |                 1214 |            3533771 |             0 |                0 |         1100712 |                     0 |        813310 | 2017-02-06 09:42:18.893067+01

 2017-02-06 11:04:25.4337+01 | 1486375465.4337 |                 0 |              17 |                 29684 |                 1214 |            3533771 |             0 |                0 |         1100712 |                     0 |        813457 | 2017-02-06 09:42:18.893067+01

 2017-02-06 11:04:26.509577+01 | 1486375466.50958 |                 0 |              17 |                 29684 |                 1214 |            3533771 |             0 |                0 |         1100712 |                     0 |        813603 | 2017-02-06 09:42:18.893067+01

 2017-02-06 11:04:27.582732+01 | 1486375467.58273 |                 0 |              17 |                 29684 |                 1214 |            3533771 |             0 |                0 |         1100712 |                     0 |        813709 | 2017-02-06 09:42:18.893067+01

 2017-02-06 11:04:28.654643+01 | 1486375468.65464 |                 0 |              17 |                 29684 |                 1214 |            3533771 |             0 |                0 |         1100712 |                     0 |        813952 | 2017-02-06 09:42:18.893067+01

 2017-02-06 11:04:29.727764+01 | 1486375469.72776 |                 0 |              17 |                 29684 |                 1214 |            3533771 |             0 |                0 |         1100712 |                     0 |        814098 | 2017-02-06 09:42:18.893067+01

 2017-02-06 11:04:30.803692+01 | 1486375470.80369 |                 0 |              17 |                 29684 |                 1214 |            3533771 |             0 |                0 |         1100712 |                     0 |        814267 | 2017-02-06 09:42:18.893067+01

 2017-02-06 11:04:31.879408+01 | 1486375471.87941 |                 0 |              17 |                 29684 |                 1214 |            3533771 |             0 |                0 |         1100712 |                     0 |        814346 | 2017-02-06 09:42:18.893067+01

 2017-02-06 11:04:32.953716+01 | 1486375472.95372 |                 0 |              17 |                 29684 |                 1214 |            3533771 |             0 |                0 |         1100712 |                     0 |        814453 | 2017-02-06 09:42:18.893067+01

 2017-02-06 11:04:34.027687+01 | 1486375474.02769 |                 0 |              17 |                 29684 |                 1214 |            3533771 |             0 |                0 |         1100712 |                     0 |        814627 | 2017-02-06 09:42:18.893067+01

 2017-02-06 11:04:35.106203+01 | 1486375475.1062 |                 0 |              17 |                 29684 |                 1214 |            3533771 |             0 |                0 |         1100712 |                     0 |        814803 | 2017-02-06 09:42:18.893067+01

 2017-02-06 11:04:36.181474+01 | 1486375476.18147 |                 0 |              17 |                 29684 |                 1214 |            3533771 |             0 |                0 |         1100712 |                     0 |        814908 | 2017-02-06 09:42:18.893067+01

 2017-02-06 11:04:37.254995+01 | 1486375477.255 |                 0 |              17 |                 29684 |                 1214 |            3533771 |             0 |                0 |         1100712 |                     0 |        815059 | 2017-02-06 09:42:18.893067+01

 2017-02-06 11:04:38.334695+01 | 1486375478.3347 |                 0 |              17 |                 29684 |                 1214 |            3533771 |             0 |                0 |         1100712 |                     0 |        815231 | 2017-02-06 09:42:18.893067+01

 2017-02-06 11:04:39.411389+01 | 1486375479.41139 |                 0 |              17 |                 29684 |                 1214 |            3533771 |             0 |                0 |         1100712 |                     0 |        815369 | 2017-02-06 09:42:18.893067+01

 2017-02-06 11:04:40.482346+01 | 1486375480.48235 |                 0 |              17 |                 29684 |                 1214 |            3533771 |             0 |                0 |         1100712 |                     0 |        815541 | 2017-02-06 09:42:18.893067+01

 2017-02-06 11:04:41.555801+01 | 1486375481.5558 |                 0 |              17 |                 29684 |                 1214 |            3533771 |             0 |                0 |         1100712 |                     0 |        815690 | 2017-02-06 09:42:18.893067+01

 2017-02-06 11:04:42.627197+01 | 1486375482.6272 |                 0 |              17 |                 29684 |                 1214 |            3533771 |             0 |                0 |         1100712 |                     0 |        815806 | 2017-02-06 09:42:18.893067+01

 2017-02-06 11:04:43.707145+01 | 1486375483.70714 |                 0 |              17 |                 29684 |                 1214 |            3533771 |             0 |                0 |         1100712 |                     0 |        815936 | 2017-02-06 09:42:18.893067+01

 2017-02-06 11:04:44.787067+01 | 1486375484.78707 |                 0 |              17 |                 29684 |                 1214 |            3533771 |             0 |                0 |         1100712 |                     0 |        816127 | 2017-02-06 09:42:18.893067+01

 2017-02-06 11:04:45.862201+01 | 1486375485.8622 |                 0 |              17 |                 29684 |                 1214 |            3533771 |             0 |                0 |         1100712 |                     0 |        816231 | 2017-02-06 09:42:18.893067+01

 2017-02-06 11:04:46.934246+01 | 1486375486.93425 |                 0 |              17 |                 29684 |                 1214 |            3533771 |             0 |                0 |         1100712 |                     0 |        816382 | 2017-02-06 09:42:18.893067+01

 2017-02-06 11:04:48.003576+01 | 1486375488.00358 |                 0 |              17 |                 29684 |                 1214 |            3533771 |             0 |                0 |         1100712 |                     0 |        816532 | 2017-02-06 09:42:18.893067+01

 2017-02-06 11:04:49.074581+01 | 1486375489.07458 |                 0 |              17 |                 29684 |                 1214 |            3533771 |             0 |                0 |         1100712 |                     0 |        816678 | 2017-02-06 09:42:18.893067+01

 2017-02-06 11:04:50.150134+01 | 1486375490.15013 |                 0 |              17 |                 29684 |                 1214 |            3533771 |             0 |                0 |         1100712 |                     0 |        816861 | 2017-02-06 09:42:18.893067+01

 2017-02-06 11:04:51.227274+01 | 1486375491.22727 |                 0 |              17 |                 29684 |                 1214 |            3533771 |             0 |                0 |         1100712 |                     0 |        816998 | 2017-02-06 09:42:18.893067+01

 2017-02-06 11:04:52.306143+01 | 1486375492.30614 |                 0 |              17 |                 29684 |                 1214 |            3533771 |             0 |                0 |         1100712 |                     0 |        817152 | 2017-02-06 09:42:18.893067+01

 2017-02-06 11:04:53.379687+01 | 1486375493.37969 |                 0 |              17 |                 29684 |                 1214 |            3533771 |             0 |                0 |         1100712 |                     0 |        817342 | 2017-02-06 09:42:18.893067+01

 2017-02-06 11:04:54.4563+01 | 1486375494.4563 |                 0 |              17 |                 29684 |                 1214 |            3533771 |             0 |                0 |         1100712 |                     0 |        817435 | 2017-02-06 09:42:18.893067+01

 2017-02-06 11:04:55.531104+01 | 1486375495.5311 |                 0 |              17 |                 29684 |                 1214 |            3533771 |             0 |                0 |         1100712 |                     0 |        817625 | 2017-02-06 09:42:18.893067+01

 2017-02-06 11:04:56.6082+01 | 1486375496.6082 |                 0 |              17 |                 29684 |                 1214 |            3533771 |             0 |                0 |         1100712 |                     0 |        817811 | 2017-02-06 09:42:18.893067+01

 2017-02-06 11:04:57.686917+01 | 1486375497.68692 |                 0 |              17 |                 29684 |                 1214 |            3533771 |             0 |                0 |         1100712 |                     0 |        817884 | 2017-02-06 09:42:18.893067+01

 2017-02-06 11:04:58.761499+01 | 1486375498.7615 |                 0 |              17 |                 29684 |                 1214 |            3533771 |             0 |                0 |         1100712 |                     0 |        818052 | 2017-02-06 09:42:18.893067+01

 2017-02-06 11:04:59.835994+01 | 1486375499.83599 |                 0 |              17 |                 29684 |                 1214 |            3533771 |             0 |                0 |         1100712 |                     0 |        818201 | 2017-02-06 09:42:18.893067+01

 2017-02-06 11:05:00.915705+01 | 1486375500.9157 |                 0 |              17 |                 29684 |                 1214 |            3533771 |             0 |                0 |         1100712 |                     0 |        818329 | 2017-02-06 09:42:18.893067+01

 2017-02-06 11:05:01.98896+01 | 1486375501.98896 |                 0 |              17 |                 29684 |                 1214 |            3533771 |             0 |                0 |         1100712 |                     0 |        818519 | 2017-02-06 09:42:18.893067+01

 2017-02-06 11:05:03.06676+01 | 1486375503.06676 |                 0 |              17 |                 29684 |                 1214 |            3533771 |             0 |                0 |         1100712 |                     0 |        818629 | 2017-02-06 09:42:18.893067+01

 2017-02-06 11:05:04.136814+01 | 1486375504.13681 |                 0 |              17 |                 29684 |                 1214 |            3533771 |             0 |                0 |         1100712 |                     0 |        818775 | 2017-02-06 09:42:18.893067+01

 2017-02-06 11:05:05.213423+01 | 1486375505.21342 |                 0 |              17 |                 29684 |                 1214 |            3533771 |             0 |                0 |         1100712 |                     0 |        818996 | 2017-02-06 09:42:18.893067+01

 2017-02-06 11:05:06.296623+01 | 1486375506.29662 |                 0 |              17 |                 29684 |                 1214 |            3533771 |             0 |                0 |         1100712 |                     0 |        819081 | 2017-02-06 09:42:18.893067+01

 2017-02-06 11:05:07.374291+01 | 1486375507.37429 |                 0 |              17 |                 29684 |                 1214 |            3533771 |             0 |                0 |         1100712 |                     0 |        819274 | 2017-02-06 09:42:18.893067+01

 2017-02-06 11:05:08.446714+01 | 1486375508.44671 |                 0 |              17 |                 29684 |                 1214 |            3533771 |             0 |                0 |         1100712 |                     0 |        819464 | 2017-02-06 09:42:18.893067+01

 2017-02-06 11:05:09.527298+01 | 1486375509.5273 |                 0 |              17 |                 29684 |                 1214 |            3533771 |             0 |                0 |         1100712 |                     0 |        819531 | 2017-02-06 09:42:18.893067+01

 2017-02-06 11:05:10.605314+01 | 1486375510.60531 |                 0 |              17 |                 29684 |                 1214 |            3533771 |             0 |                0 |         1100712 |                     0 |        819664 | 2017-02-06 09:42:18.893067+01

 2017-02-06 11:05:11.677723+01 | 1486375511.67772 |                 0 |              17 |                 29684 |                 1214 |            3533771 |             0 |                0 |         1100712 |                     0 |        819833 | 2017-02-06 09:42:18.893067+01

 2017-02-06 11:05:12.754515+01 | 1486375512.75451 |                 0 |              17 |                 29684 |                 1214 |            3533771 |             0 |                0 |         1100712 |                     0 |        820002 | 2017-02-06 09:42:18.893067+01

 2017-02-06 11:05:13.822534+01 | 1486375513.82253 |                 0 |              17 |                 29684 |                 1214 |            3533771 |             0 |                0 |         1100712 |                     0 |        820140 | 2017-02-06 09:42:18.893067+01

 2017-02-06 11:05:14.89777+01 | 1486375514.89777 |                 0 |              17 |                 29684 |                 1214 |            3533771 |             0 |                0 |         1100712 |                     0 |        820293 | 2017-02-06 09:42:18.893067+01

 2017-02-06 11:05:15.972497+01 | 1486375515.9725 |                 0 |              17 |                 29684 |                 1214 |            3533771 |             0 |                0 |         1100712 |                     0 |        820470 | 2017-02-06 09:42:18.893067+01

 2017-02-06 11:05:17.049996+01 | 1486375517.05 |                 0 |              17 |                 29684 |                 1214 |            3533771 |             0 |                0 |         1100712 |                     0 |        820580 | 2017-02-06 09:42:18.893067+01

 2017-02-06 11:05:18.136756+01 | 1486375518.13676 |                 0 |              17 |                 29684 |                 1214 |            3533771 |             0 |                0 |         1100712 |                     0 |        820716 | 2017-02-06 09:42:18.893067+01

 2017-02-06 11:05:19.219865+01 | 1486375519.21987 |                 0 |              17 |                 29684 |                 1214 |            3533771 |             0 |                0 |         1100712 |                     0 |        820876 | 2017-02-06 09:42:18.893067+01

 2017-02-06 11:05:20.290182+01 | 1486375520.29018 |                 0 |              17 |                 29684 |                 1214 |            3533771 |             0 |                0 |         1100712 |                     0 |        820989 | 2017-02-06 09:42:18.893067+01

 2017-02-06 11:05:21.363265+01 | 1486375521.36327 |                 0 |              17 |                 29684 |                 1214 |            3533771 |             0 |                0 |         1100712 |                     0 |        821244 | 2017-02-06 09:42:18.893067+01

 2017-02-06 11:05:22.439718+01 | 1486375522.43972 |                 0 |              17 |                 29684 |                 1214 |            3533771 |             0 |                0 |         1100712 |                     0 |        821370 | 2017-02-06 09:42:18.893067+01

 2017-02-06 11:05:23.515011+01 | 1486375523.51501 |                 0 |              17 |                 29684 |                 1214 |            3533771 |             0 |                0 |         1100712 |                     0 |        821435 | 2017-02-06 09:42:18.893067+01

 2017-02-06 11:05:24.586578+01 | 1486375524.58658 |                 0 |              17 |                 29684 |                 1214 |            3533771 |             0 |                0 |         1100712 |                     0 |        821603 | 2017-02-06 09:42:18.893067+01

 2017-02-06 11:05:25.659943+01 | 1486375525.65994 |                 0 |              17 |                 29684 |                 1214 |            3533771 |             0 |                0 |         1100712 |                     0 |        821730 | 2017-02-06 09:42:18.893067+01

 2017-02-06 11:05:26.735717+01 | 1486375526.73572 |                 0 |              17 |                 29684 |                 1214 |            3533771 |             0 |                0 |         1100712 |                     0 |        821899 | 2017-02-06 09:42:18.893067+01

 2017-02-06 11:05:27.81234+01 | 1486375527.81234 |                 0 |              17 |                 29684 |                 1214 |            3533771 |             0 |                0 |         1100712 |                     0 |        822031 | 2017-02-06 09:42:18.893067+01

 2017-02-06 11:05:28.884729+01 | 1486375528.88473 |                 0 |              17 |                 29684 |                 1214 |            3533771 |             0 |                0 |         1100712 |                     0 |        822184 | 2017-02-06 09:42:18.893067+01

 2017-02-06 11:05:29.956835+01 | 1486375529.95684 |                 0 |              17 |                 29684 |                 1214 |            3533771 |             0 |                0 |         1100712 |                     0 |        822381 | 2017-02-06 09:42:18.893067+01

 2017-02-06 11:05:31.029937+01 | 1486375531.02994 |                 0 |              17 |                 29684 |                 1214 |            3533771 |             0 |                0 |         1100712 |                     0 |        822472 | 2017-02-06 09:42:18.893067+01

 2017-02-06 11:05:32.107629+01 | 1486375532.10763 |                 0 |              17 |                 29684 |                 1214 |            3533771 |             0 |                0 |         1100712 |                     0 |        822621 | 2017-02-06 09:42:18.893067+01

 2017-02-06 11:05:33.184543+01 | 1486375533.18454 |                 0 |              17 |                 29684 |                 1214 |            3533771 |             0 |                0 |         1100712 |                     0 |        822758 | 2017-02-06 09:42:18.893067+01

 2017-02-06 11:05:34.263611+01 | 1486375534.26361 |                 0 |              17 |                 29684 |                 1214 |            3533771 |             0 |                0 |         1100712 |                     0 |        822964 | 2017-02-06 09:42:18.893067+01

 2017-02-06 11:05:35.333643+01 | 1486375535.33364 |                 0 |              17 |                 29684 |                 1214 |            3533771 |             0 |                0 |         1100712 |                     0 |        823076 | 2017-02-06 09:42:18.893067+01

 2017-02-06 11:05:36.409783+01 | 1486375536.40978 |                 0 |              17 |                 29684 |                 1214 |            3533771 |             0 |                0 |         1100712 |                     0 |        823202 | 2017-02-06 09:42:18.893067+01

 2017-02-06 11:05:37.488796+01 | 1486375537.4888 |                 0 |              17 |                 29684 |                 1214 |            3533771 |             0 |                0 |         1100712 |                     0 |        823354 | 2017-02-06 09:42:18.893067+01

 2017-02-06 11:05:38.563709+01 | 1486375538.56371 |                 0 |              17 |                 29684 |                 1214 |            3533771 |             0 |                0 |         1100712 |                     0 |        823500 | 2017-02-06 09:42:18.893067+01

 2017-02-06 11:05:39.64268+01 | 1486375539.64268 |                 0 |              17 |                 29684 |                 1214 |            3533771 |             0 |                0 |         1100712 |                     0 |        823675 | 2017-02-06 09:42:18.893067+01

 2017-02-06 11:05:40.717288+01 | 1486375540.71729 |                 0 |              17 |                 29684 |                 1214 |            3533771 |             0 |                0 |         1100712 |                     0 |        823849 | 2017-02-06 09:42:18.893067+01

 2017-02-06 11:05:41.793874+01 | 1486375541.79387 |                 0 |              17 |                 29684 |                 1214 |            3533771 |             0 |                0 |         1100712 |                     0 |        823933 | 2017-02-06 09:42:18.893067+01

 2017-02-06 11:05:42.868149+01 | 1486375542.86815 |                 0 |              17 |                 29684 |                 1214 |            3533771 |             0 |                0 |         1100712 |                     0 |        824087 | 2017-02-06 09:42:18.893067+01

 2017-02-06 11:05:43.948069+01 | 1486375543.94807 |                 0 |              17 |                 29684 |                 1214 |            3533771 |             0 |                0 |         1100712 |                     0 |        824243 | 2017-02-06 09:42:18.893067+01

 2017-02-06 11:05:45.023505+01 | 1486375545.0235 |                 0 |              17 |                 29684 |                 1214 |            3533771 |             0 |                0 |         1100712 |                     0 |        824388 | 2017-02-06 09:42:18.893067+01

 2017-02-06 11:05:46.097451+01 | 1486375546.09745 |                 0 |              17 |                 29684 |                 1214 |            3533771 |             0 |                0 |         1100712 |                     0 |        824537 | 2017-02-06 09:42:18.893067+01

 2017-02-06 11:05:47.173807+01 | 1486375547.17381 |                 0 |              17 |                 29684 |                 1214 |            3533771 |             0 |                0 |         1100712 |                     0 |        824693 | 2017-02-06 09:42:18.893067+01

 2017-02-06 11:05:48.24376+01 | 1486375548.24376 |                 0 |              17 |                 29684 |                 1214 |            3533771 |             0 |                0 |         1100712 |                     0 |        824965 | 2017-02-06 09:42:18.893067+01

 2017-02-06 11:05:49.326339+01 | 1486375549.32634 |                 0 |              17 |                 29684 |                 1214 |            3533771 |             0 |                0 |         1100712 |                     0 |        824965 | 2017-02-06 09:42:18.893067+01

 2017-02-06 11:05:50.405151+01 | 1486375550.40515 |                 0 |              17 |                 29684 |                 1214 |            3533771 |             0 |                0 |         1100712 |                     0 |        825124 | 2017-02-06 09:42:18.893067+01

 2017-02-06 11:05:51.472329+01 | 1486375551.47233 |                 0 |              17 |                 29684 |                 1214 |            3533771 |             0 |                0 |         1100712 |                     0 |        825207 | 2017-02-06 09:42:18.893067+01

 2017-02-06 11:05:52.544075+01 | 1486375552.54408 |                 0 |              17 |                 29684 |                 1214 |            3533771 |             0 |                0 |         1100712 |                     0 |        825397 | 2017-02-06 09:42:18.893067+01

 2017-02-06 11:05:53.621695+01 | 1486375553.6217 |                 0 |              17 |                 29684 |                 1214 |            3533771 |             0 |                0 |         1100712 |                     0 |        825551 | 2017-02-06 09:42:18.893067+01

 2017-02-06 11:05:54.70515+01 | 1486375554.70515 |                 0 |              17 |                 29684 |                 1214 |            3533771 |             0 |                0 |         1100712 |                     0 |        825725 | 2017-02-06 09:42:18.893067+01

 2017-02-06 11:05:55.785557+01 | 1486375555.78556 |                 0 |              17 |                 29684 |                 1214 |            3533771 |             0 |                0 |         1100712 |                     0 |        825851 | 2017-02-06 09:42:18.893067+01

 2017-02-06 11:05:56.858409+01 | 1486375556.85841 |                 0 |              17 |                 29684 |                 1214 |            3533771 |             0 |                0 |         1100712 |                     0 |        825980 | 2017-02-06 09:42:18.893067+01

 2017-02-06 11:05:57.930926+01 | 1486375557.93093 |                 0 |              17 |                 29684 |                 1214 |            3533771 |             0 |                0 |         1100712 |                     0 |        826140 | 2017-02-06 09:42:18.893067+01

 2017-02-06 11:05:59.007621+01 | 1486375559.00762 |                 0 |              17 |                 29684 |                 1214 |            3533771 |             0 |                0 |         1100712 |                     0 |        826313 | 2017-02-06 09:42:18.893067+01

 2017-02-06 11:06:00.084724+01 | 1486375560.08472 |                 0 |              17 |                 29684 |                 1214 |            3533771 |             0 |                0 |         1100712 |                     0 |        826502 | 2017-02-06 09:42:18.893067+01

 2017-02-06 11:06:01.153019+01 | 1486375561.15302 |                 0 |              17 |                 29684 |                 1214 |            3533771 |             0 |                0 |         1100712 |                     0 |        826585 | 2017-02-06 09:42:18.893067+01

 2017-02-06 11:06:02.226675+01 | 1486375562.22668 |                 0 |              17 |                 29684 |                 1214 |            3533771 |             0 |                0 |         1100712 |                     0 |        826860 | 2017-02-06 09:42:18.893067+01

 2017-02-06 11:06:03.302223+01 | 1486375563.30222 |                 0 |              17 |                 29684 |                 1214 |            3533771 |             0 |                0 |         1100712 |                     0 |        826861 | 2017-02-06 09:42:18.893067+01

 2017-02-06 11:06:04.372422+01 | 1486375564.37242 |                 0 |              17 |                 29684 |                 1214 |            3533771 |             0 |                0 |         1100712 |                     0 |        827014 | 2017-02-06 09:42:18.893067+01

 2017-02-06 11:06:05.443949+01 | 1486375565.44395 |                 0 |              17 |                 29684 |                 1214 |            3533771 |             0 |                0 |         1100712 |                     0 |        827160 | 2017-02-06 09:42:18.893067+01

 2017-02-06 11:06:06.514647+01 | 1486375566.51465 |                 0 |              17 |                 29684 |                 1214 |            3533771 |             0 |                0 |         1100712 |                     0 |        827316 | 2017-02-06 09:42:18.893067+01

 2017-02-06 11:06:07.58857+01 | 1486375567.58857 |                 0 |              17 |                 29684 |                 1214 |            3533771 |             0 |                0 |         1100712 |                     0 |        827488 | 2017-02-06 09:42:18.893067+01

 2017-02-06 11:06:08.663681+01 | 1486375568.66368 |                 0 |              17 |                 29684 |                 1214 |            3533771 |             0 |                0 |         1100712 |                     0 |        827614 | 2017-02-06 09:42:18.893067+01

 2017-02-06 11:06:09.74075+01 | 1486375569.74075 |                 0 |              17 |                 29684 |                 1214 |            3533771 |             0 |                0 |         1100712 |                     0 |        827785 | 2017-02-06 09:42:18.893067+01

 2017-02-06 11:06:10.820108+01 | 1486375570.82011 |                 0 |              17 |                 29684 |                 1214 |            3533771 |             0 |                0 |         1100712 |                     0 |        827916 | 2017-02-06 09:42:18.893067+01

 2017-02-06 11:06:11.893484+01 | 1486375571.89348 |                 0 |              17 |                 29684 |                 1214 |            3533771 |             0 |                0 |         1100712 |                     0 |        828079 | 2017-02-06 09:42:18.893067+01

 2017-02-06 11:06:12.964799+01 | 1486375572.9648 |                 0 |              17 |                 29684 |                 1214 |            3533771 |             0 |                0 |         1100712 |                     0 |        828215 | 2017-02-06 09:42:18.893067+01

 2017-02-06 11:06:14.039497+01 | 1486375574.0395 |                 0 |              17 |                 29684 |                 1214 |            3533771 |             0 |                0 |         1100712 |                     0 |        828408 | 2017-02-06 09:42:18.893067+01

 2017-02-06 11:06:15.110804+01 | 1486375575.1108 |                 0 |              17 |                 29684 |                 1214 |            3533771 |             0 |                0 |         1100712 |                     0 |        828491 | 2017-02-06 09:42:18.893067+01

 2017-02-06 11:06:16.189221+01 | 1486375576.18922 |                 0 |              17 |                 29684 |                 1214 |            3533771 |             0 |                0 |         1100712 |                     0 |        828620 | 2017-02-06 09:42:18.893067+01

 2017-02-06 11:06:17.263721+01 | 1486375577.26372 |                 0 |              17 |                 29684 |                 1214 |            3533771 |             0 |                0 |         1100712 |                     0 |        828772 | 2017-02-06 09:42:18.893067+01

 2017-02-06 11:06:18.33937+01 | 1486375578.33937 |                 0 |              17 |                 29684 |                 1214 |            3533771 |             0 |                0 |         1100712 |                     0 |        828931 | 2017-02-06 09:42:18.893067+01

 2017-02-06 11:06:19.415457+01 | 1486375579.41546 |                 0 |              17 |                 29684 |                 1214 |            3533771 |             0 |                0 |         1100712 |                     0 |        829045 | 2017-02-06 09:42:18.893067+01

 2017-02-06 11:06:20.493588+01 | 1486375580.49359 |                 0 |              17 |                 29684 |                 1214 |            3533771 |             0 |                0 |         1100712 |                     0 |        829175 | 2017-02-06 09:42:18.893067+01

 2017-02-06 11:06:21.569663+01 | 1486375581.56966 |                 0 |              17 |                 29684 |                 1214 |            3533771 |             0 |                0 |         1100712 |                     0 |        829347 | 2017-02-06 09:42:18.893067+01

 2017-02-06 11:06:22.649872+01 | 1486375582.64987 |                 0 |              17 |                 29684 |                 1214 |            3533771 |             0 |                0 |         1100712 |                     0 |        829453 | 2017-02-06 09:42:18.893067+01

 2017-02-06 11:06:23.717833+01 | 1486375583.71783 |                 0 |              17 |                 29684 |                 1214 |            3533771 |             0 |                0 |         1100712 |                     0 |        829629 | 2017-02-06 09:42:18.893067+01

 2017-02-06 11:06:24.791193+01 | 1486375584.79119 |                 0 |              17 |                 29684 |                 1214 |            3533771 |             0 |                0 |         1100712 |                     0 |        829759 | 2017-02-06 09:42:18.893067+01

 2017-02-06 11:06:25.85917+01 | 1486375585.85917 |                 0 |              17 |                 29684 |                 1214 |            3533771 |             0 |                0 |         1100712 |                     0 |        829887 | 2017-02-06 09:42:18.893067+01

 2017-02-06 11:06:26.932155+01 | 1486375586.93215 |                 0 |              17 |                 29684 |                 1214 |            3533771 |             0 |                0 |         1100712 |                     0 |        830057 | 2017-02-06 09:42:18.893067+01

 2017-02-06 11:06:27.997663+01 | 1486375587.99766 |                 0 |              17 |                 29684 |                 1214 |            3533771 |             0 |                0 |         1100712 |                     0 |        830183 | 2017-02-06 09:42:18.893067+01

 2017-02-06 11:06:29.072552+01 | 1486375589.07255 |                 0 |              17 |                 29684 |                 1214 |            3533771 |             0 |                0 |         1100712 |                     0 |        830330 | 2017-02-06 09:42:18.893067+01

 2017-02-06 11:06:30.143586+01 | 1486375590.14359 |                 0 |              17 |                 29684 |                 1214 |            3533771 |             0 |                0 |         1100712 |                     0 |        830556 | 2017-02-06 09:42:18.893067+01

 2017-02-06 11:06:31.214758+01 | 1486375591.21476 |                 0 |              17 |                 29684 |                 1214 |            3533771 |             0 |                0 |         1100712 |                     0 |        830652 | 2017-02-06 09:42:18.893067+01

 2017-02-06 11:06:32.294607+01 | 1486375592.29461 |                 0 |              17 |                 29684 |                 1214 |            3533771 |             0 |                0 |         1100712 |                     0 |        830789 | 2017-02-06 09:42:18.893067+01

 2017-02-06 11:06:33.364831+01 | 1486375593.36483 |                 0 |              17 |                 29684 |                 1214 |            3533771 |             0 |                0 |         1100712 |                     0 |        830957 | 2017-02-06 09:42:18.893067+01

 2017-02-06 11:06:34.439431+01 | 1486375594.43943 |                 0 |              17 |                 29684 |                 1214 |            3533771 |             0 |                0 |         1100712 |                     0 |        831044 | 2017-02-06 09:42:18.893067+01

 2017-02-06 11:06:35.51926+01 | 1486375595.51926 |                 0 |              17 |                 29684 |                 1214 |            3533771 |             0 |                0 |         1100712 |                     0 |        831234 | 2017-02-06 09:42:18.893067+01

 2017-02-06 11:06:36.592599+01 | 1486375596.5926 |                 0 |              17 |                 29684 |                 1214 |            3533771 |             0 |                0 |         1100712 |                     0 |        831365 | 2017-02-06 09:42:18.893067+01

 2017-02-06 11:06:37.668231+01 | 1486375597.66823 |                 0 |              17 |                 29684 |                 1214 |            3533771 |             0 |                0 |         1100712 |                     0 |        831560 | 2017-02-06 09:42:18.893067+01

 2017-02-06 11:06:38.741935+01 | 1486375598.74194 |                 0 |              17 |                 29684 |                 1214 |            3533771 |             0 |                0 |         1100712 |                     0 |        831670 | 2017-02-06 09:42:18.893067+01

 2017-02-06 11:06:39.821775+01 | 1486375599.82177 |                 0 |              17 |                 29684 |                 1214 |            3533771 |             0 |                0 |         1100712 |                     0 |        831796 | 2017-02-06 09:42:18.893067+01

 2017-02-06 11:06:40.898677+01 | 1486375600.89868 |                 0 |              17 |                 29684 |                 1214 |            3533771 |             0 |                0 |         1100712 |                     0 |        831969 | 2017-02-06 09:42:18.893067+01

 2017-02-06 11:06:41.972088+01 | 1486375601.97209 |                 0 |              17 |                 29684 |                 1214 |            3533771 |             0 |                0 |         1100712 |                     0 |        832164 | 2017-02-06 09:42:18.893067+01

 2017-02-06 11:06:43.043663+01 | 1486375603.04366 |                 0 |              17 |                 29684 |                 1214 |            3533771 |             0 |                0 |         1100712 |                     0 |        832248 | 2017-02-06 09:42:18.893067+01

 2017-02-06 11:06:44.119738+01 | 1486375604.11974 |                 0 |              17 |                 29684 |                 1214 |            3533771 |             0 |                0 |         1100712 |                     0 |        832419 | 2017-02-06 09:42:18.893067+01

 2017-02-06 11:06:45.194941+01 | 1486375605.19494 |                 0 |              17 |                 29684 |                 1214 |            3533771 |             0 |                0 |         1100712 |                     0 |        832599 | 2017-02-06 09:42:18.893067+01

 2017-02-06 11:06:46.268757+01 | 1486375606.26876 |                 0 |              17 |                 29684 |                 1214 |            3533771 |             0 |                0 |         1100712 |                     0 |        832691 | 2017-02-06 09:42:18.893067+01

 2017-02-06 11:06:47.347939+01 | 1486375607.34794 |                 0 |              17 |                 29684 |                 1214 |            3533771 |             0 |                0 |         1100712 |                     0 |        832882 | 2017-02-06 09:42:18.893067+01

 2017-02-06 11:06:48.423505+01 | 1486375608.42351 |                 0 |              17 |                 29684 |                 1214 |            3533771 |             0 |                0 |         1100712 |                     0 |        832994 | 2017-02-06 09:42:18.893067+01

 2017-02-06 11:06:49.501617+01 | 1486375609.50162 |                 0 |              17 |                 29684 |                 1214 |            3533771 |             0 |                0 |         1100712 |                     0 |        833105 | 2017-02-06 09:42:18.893067+01

 2017-02-06 11:06:50.575347+01 | 1486375610.57535 |                 0 |              17 |                 29684 |                 1214 |            3533771 |             0 |                0 |         1100712 |                     0 |        833359 | 2017-02-06 09:42:18.893067+01

 2017-02-06 11:06:51.641267+01 | 1486375611.64127 |                 0 |              17 |                 29684 |                 1214 |            3533771 |             0 |                0 |         1100712 |                     0 |        833405 | 2017-02-06 09:42:18.893067+01

 2017-02-06 11:06:52.710131+01 | 1486375612.71013 |                 0 |              17 |                 29684 |                 1214 |            3533771 |             0 |                0 |         1100712 |                     0 |        833622 | 2017-02-06 09:42:18.893067+01

 2017-02-06 11:06:53.786268+01 | 1486375613.78627 |                 0 |              17 |                 29684 |                 1214 |            3533771 |             0 |                0 |         1100712 |                     0 |        833726 | 2017-02-06 09:42:18.893067+01

 2017-02-06 11:06:54.860373+01 | 1486375614.86037 |                 0 |              17 |                 29684 |                 1214 |            3533771 |             0 |                0 |         1100712 |                     0 |        833859 | 2017-02-06 09:42:18.893067+01

 2017-02-06 11:06:55.930349+01 | 1486375615.93035 |                 0 |              17 |                 29684 |                 1214 |            3533771 |             0 |                0 |         1100712 |                     0 |        834026 | 2017-02-06 09:42:18.893067+01

 2017-02-06 11:06:57.006182+01 | 1486375617.00618 |                 0 |              17 |                 29684 |                 1214 |            3533771 |             0 |                0 |         1100712 |                     0 |        834179 | 2017-02-06 09:42:18.893067+01

 2017-02-06 11:06:58.08472+01 | 1486375618.08472 |                 0 |              17 |                 29684 |                 1214 |            3533771 |             0 |                0 |         1100712 |                     0 |        834371 | 2017-02-06 09:42:18.893067+01

 2017-02-06 11:06:59.158681+01 | 1486375619.15868 |                 0 |              17 |                 29684 |                 1214 |            3533771 |             0 |                0 |         1100712 |                     0 |        834501 | 2017-02-06 09:42:18.893067+01

 2017-02-06 11:07:00.233705+01 | 1486375620.23371 |                 0 |              17 |                 29684 |                 1214 |            3533771 |             0 |                0 |         1100712 |                     0 |        834630 | 2017-02-06 09:42:18.893067+01

 2017-02-06 11:07:01.305322+01 | 1486375621.30532 |                 0 |              17 |                 29684 |                 1214 |            3533771 |             0 |                0 |         1100712 |                     0 |        834828 | 2017-02-06 09:42:18.893067+01

 2017-02-06 11:07:02.38154+01 | 1486375622.38154 |                 0 |              17 |                 29684 |                 1214 |            3533771 |             0 |                0 |         1100712 |                     0 |        834828 | 2017-02-06 09:42:18.893067+01

 2017-02-06 11:07:03.460936+01 | 1486375623.46094 |                 0 |              17 |                 29684 |                 1214 |            3533771 |             0 |                0 |         1100712 |                     0 |        835081 | 2017-02-06 09:42:18.893067+01

 2017-02-06 11:07:04.537641+01 | 1486375624.53764 |                 0 |              17 |                 29684 |                 1214 |            3533771 |             0 |                0 |         1100712 |                     0 |        835227 | 2017-02-06 09:42:18.893067+01

 2017-02-06 11:07:05.611599+01 | 1486375625.6116 |                 0 |              17 |                 29684 |                 1214 |            3533771 |             0 |                0 |         1100712 |                     0 |        835400 | 2017-02-06 09:42:18.893067+01

 2017-02-06 11:07:06.690266+01 | 1486375626.69027 |                 0 |              17 |                 29684 |                 1214 |            3533771 |             0 |                0 |         1100712 |                     0 |        835515 | 2017-02-06 09:42:18.893067+01

 2017-02-06 11:07:07.766+01 | 1486375627.766 |                 0 |              17 |                 29684 |                 1214 |            3533771 |             0 |                0 |         1100712 |                     0 |        835681 | 2017-02-06 09:42:18.893067+01

 2017-02-06 11:07:08.838054+01 | 1486375628.83805 |                 0 |              17 |                 29684 |                 1214 |            3533771 |             0 |                0 |         1100712 |                     0 |        835835 | 2017-02-06 09:42:18.893067+01

 2017-02-06 11:07:09.912582+01 | 1486375629.91258 |                 0 |              17 |                 29684 |                 1214 |            3533771 |             0 |                0 |         1100712 |                     0 |        835982 | 2017-02-06 09:42:18.893067+01

 2017-02-06 11:07:10.987211+01 | 1486375630.98721 |                 0 |              17 |                 29684 |                 1214 |            3533771 |             0 |                0 |         1100712 |                     0 |        836069 | 2017-02-06 09:42:18.893067+01

 2017-02-06 11:07:12.077404+01 | 1486375632.0774 |                 0 |              17 |                 29684 |                 1214 |            3533771 |             0 |                0 |         1100712 |                     0 |        836384 | 2017-02-06 09:42:18.893067+01

 2017-02-06 11:07:13.158049+01 | 1486375633.15805 |                 0 |              17 |                 29684 |                 1214 |            3533771 |             0 |                0 |         1100712 |                     0 |        836385 | 2017-02-06 09:42:18.893067+01

 2017-02-06 11:07:14.237808+01 | 1486375634.23781 |                 0 |              17 |                 29684 |                 1214 |            3533771 |             0 |                0 |         1100712 |                     0 |        836554 | 2017-02-06 09:42:18.893067+01

 2017-02-06 11:07:15.313326+01 | 1486375635.31333 |                 0 |              17 |                 29684 |                 1214 |            3533771 |             0 |                0 |         1100712 |                     0 |        836691 | 2017-02-06 09:42:18.893067+01

 2017-02-06 11:07:16.390813+01 | 1486375636.39081 |                 0 |              17 |                 29684 |                 1214 |            3533771 |             0 |                0 |         1100712 |                     0 |        836872 | 2017-02-06 09:42:18.893067+01

 2017-02-06 11:07:17.463239+01 | 1486375637.46324 |                 0 |              17 |                 29684 |                 1214 |            3533771 |             0 |                0 |         1100712 |                     0 |        836998 | 2017-02-06 09:42:18.893067+01

 2017-02-06 11:07:18.53526+01 | 1486375638.53526 |                 0 |              17 |                 29684 |                 1214 |            3533771 |             0 |                0 |         1100712 |                     0 |        837130 | 2017-02-06 09:42:18.893067+01

 2017-02-06 11:07:19.608956+01 | 1486375639.60896 |                 0 |              17 |                 29684 |                 1214 |            3533771 |             0 |                0 |         1100712 |                     0 |        837329 | 2017-02-06 09:42:18.893067+01

 2017-02-06 11:07:20.684503+01 | 1486375640.6845 |                 0 |              17 |                 29684 |                 1214 |            3533771 |             0 |                0 |         1100712 |                     0 |        837500 | 2017-02-06 09:42:18.893067+01

 2017-02-06 11:07:21.761537+01 | 1486375641.76154 |                 0 |              17 |                 29684 |                 1214 |            3533771 |             0 |                0 |         1100712 |                     0 |        837606 | 2017-02-06 09:42:18.893067+01

 2017-02-06 11:07:22.837377+01 | 1486375642.83738 |                 0 |              17 |                 29684 |                 1214 |            3533771 |             0 |                0 |         1100712 |                     0 |        837760 | 2017-02-06 09:42:18.893067+01

 2017-02-06 11:07:23.912902+01 | 1486375643.9129 |                 0 |              17 |                 29684 |                 1214 |            3533771 |             0 |                0 |         1100712 |                     0 |        837959 | 2017-02-06 09:42:18.893067+01

 2017-02-06 11:07:24.984933+01 | 1486375644.98493 |                 0 |              17 |                 29684 |                 1214 |            3533771 |             0 |                0 |         1100712 |                     0 |        838047 | 2017-02-06 09:42:18.893067+01

 2017-02-06 11:07:26.057539+01 | 1486375646.05754 |                 0 |              17 |                 29684 |                 1214 |            3533771 |             0 |                0 |         1100712 |                     0 |        838200 | 2017-02-06 09:42:18.893067+01

 2017-02-06 11:07:27.128963+01 | 1486375647.12896 |                 0 |              17 |                 29684 |                 1214 |            3533771 |             0 |                0 |         1100712 |                     0 |        838318 | 2017-02-06 09:42:18.893067+01

 2017-02-06 11:07:28.203116+01 | 1486375648.20312 |                 0 |              17 |                 29684 |                 1214 |            3533771 |             0 |                0 |         1100712 |                     0 |        838453 | 2017-02-06 09:42:18.893067+01

 2017-02-06 11:07:29.278923+01 | 1486375649.27892 |                 0 |              17 |                 29684 |                 1214 |            3533771 |             0 |                0 |         1100712 |                     0 |        838606 | 2017-02-06 09:42:18.893067+01

 2017-02-06 11:07:30.34846+01 | 1486375650.34846 |                 0 |              17 |                 29684 |                 1214 |            3533771 |             0 |                0 |         1100712 |                     0 |        838835 | 2017-02-06 09:42:18.893067+01

 2017-02-06 11:07:31.419559+01 | 1486375651.41956 |                 0 |              17 |                 29684 |                 1214 |            3533771 |             0 |                0 |         1100712 |                     0 |        838941 | 2017-02-06 09:42:18.893067+01

 2017-02-06 11:07:32.495658+01 | 1486375652.49566 |                 0 |              17 |                 29684 |                 1214 |            3533771 |             0 |                0 |         1100712 |                     0 |        839071 | 2017-02-06 09:42:18.893067+01

 2017-02-06 11:07:33.581161+01 | 1486375653.58116 |                 0 |              17 |                 29684 |                 1214 |            3533771 |             0 |                0 |         1100712 |                     0 |        839283 | 2017-02-06 09:42:18.893067+01

 2017-02-06 11:07:34.658441+01 | 1486375654.65844 |                 0 |              17 |                 29684 |                 1214 |            3533771 |             0 |                0 |         1100712 |                     0 |        839449 | 2017-02-06 09:42:18.893067+01

 2017-02-06 11:07:35.725718+01 | 1486375655.72572 |                 0 |              17 |                 29684 |                 1214 |            3533771 |             0 |                0 |         1100712 |                     0 |        839518 | 2017-02-06 09:42:18.893067+01

 2017-02-06 11:07:36.800492+01 | 1486375656.80049 |                 0 |              17 |                 29684 |                 1214 |            3533771 |             0 |                0 |         1100712 |                     0 |        839674 | 2017-02-06 09:42:18.893067+01

 2017-02-06 11:07:37.875077+01 | 1486375657.87508 |                 0 |              17 |                 29684 |                 1214 |            3533771 |             0 |                0 |         1100712 |                     0 |        839801 | 2017-02-06 09:42:18.893067+01

 2017-02-06 11:07:38.949613+01 | 1486375658.94961 |                 0 |              17 |                 29684 |                 1214 |            3533771 |             0 |                0 |         1100712 |                     0 |        839950 | 2017-02-06 09:42:18.893067+01

 2017-02-06 11:07:40.022262+01 | 1486375660.02226 |                 0 |              17 |                 29684 |                 1214 |            3533771 |             0 |                0 |         1100712 |                     0 |        840122 | 2017-02-06 09:42:18.893067+01

 2017-02-06 11:07:41.098774+01 | 1486375661.09877 |                 0 |              17 |                 29684 |                 1214 |            3533771 |             0 |                0 |         1100712 |                     0 |        840272 | 2017-02-06 09:42:18.893067+01

 2017-02-06 11:07:42.170856+01 | 1486375662.17086 |                 0 |              17 |                 29684 |                 1214 |            3533771 |             0 |                0 |         1100712 |                     0 |        840409 | 2017-02-06 09:42:18.893067+01

 2017-02-06 11:07:43.241712+01 | 1486375663.24171 |                 0 |              17 |                 29684 |                 1214 |            3533771 |             0 |                0 |         1100712 |                     0 |        840606 | 2017-02-06 09:42:18.893067+01

 2017-02-06 11:07:44.313506+01 | 1486375664.31351 |                 0 |              17 |                 29684 |                 1214 |            3533771 |             0 |                0 |         1100712 |                     0 |        840712 | 2017-02-06 09:42:18.893067+01

 2017-02-06 11:07:45.383018+01 | 1486375665.38302 |                 0 |              17 |                 29684 |                 1214 |            3533771 |             0 |                0 |         1100712 |                     0 |        840907 | 2017-02-06 09:42:18.893067+01

 2017-02-06 11:07:46.463507+01 | 1486375666.46351 |                 0 |              17 |                 29684 |                 1214 |            3533771 |             0 |                0 |         1100712 |                     0 |        841018 | 2017-02-06 09:42:18.893067+01

 2017-02-06 11:07:47.537511+01 | 1486375667.53751 |                 0 |              17 |                 29684 |                 1214 |            3533771 |             0 |                0 |         1100712 |                     0 |        841124 | 2017-02-06 09:42:18.893067+01

 2017-02-06 11:07:48.618332+01 | 1486375668.61833 |                 0 |              17 |                 29684 |                 1214 |            3533771 |             0 |                0 |         1100712 |                     0 |        841425 | 2017-02-06 09:42:18.893067+01

 2017-02-06 11:07:49.699026+01 | 1486375669.69903 |                 0 |              17 |                 29684 |                 1214 |            3533771 |             0 |                0 |         1100712 |                     0 |        841427 | 2017-02-06 09:42:18.893067+01

 2017-02-06 11:07:50.77143+01 | 1486375670.77143 |                 0 |              17 |                 29684 |                 1214 |            3533771 |             0 |                0 |         1100712 |                     0 |        841608 | 2017-02-06 09:42:18.893067+01

 2017-02-06 11:07:51.82914+01 | 1486375671.82914 |                 0 |              17 |                 29684 |                 1214 |            3533771 |             0 |                0 |         1100712 |                     0 |        841674 | 2017-02-06 09:42:18.893067+01

 2017-02-06 11:07:52.908722+01 | 1486375672.90872 |                 0 |              17 |                 29684 |                 1214 |            3533771 |             0 |                0 |         1100712 |                     0 |        841860 | 2017-02-06 09:42:18.893067+01

 2017-02-06 11:07:53.979956+01 | 1486375673.97996 |                 0 |              17 |                 29684 |                 1214 |            3533771 |             0 |                0 |         1100712 |                     0 |        842094 | 2017-02-06 09:42:18.893067+01

 2017-02-06 11:07:55.061284+01 | 1486375675.06128 |                 0 |              17 |                 29684 |                 1214 |            3533771 |             0 |                0 |         1100712 |                     0 |        842162 | 2017-02-06 09:42:18.893067+01

 2017-02-06 11:07:56.133167+01 | 1486375676.13317 |                 0 |              17 |                 29684 |                 1214 |            3533771 |             0 |                0 |         1100712 |                     0 |        842361 | 2017-02-06 09:42:18.893067+01

 2017-02-06 11:07:57.208582+01 | 1486375677.20858 |                 0 |              17 |                 29684 |                 1214 |            3533771 |             0 |                0 |         1100712 |                     0 |        842488 | 2017-02-06 09:42:18.893067+01

 2017-02-06 11:07:58.283705+01 | 1486375678.2837 |                 0 |              17 |                 29684 |                 1214 |            3533771 |             0 |                0 |         1100712 |                     0 |        842762 | 2017-02-06 09:42:18.893067+01

 2017-02-06 11:07:59.359186+01 | 1486375679.35919 |                 0 |              17 |                 29684 |                 1214 |            3533771 |             0 |                0 |         1100712 |                     0 |        842763 | 2017-02-06 09:42:18.893067+01

 2017-02-06 11:08:00.432472+01 | 1486375680.43247 |                 0 |              17 |                 29684 |                 1214 |            3533771 |             0 |                0 |         1100712 |                     0 |        842938 | 2017-02-06 09:42:18.893067+01

 2017-02-06 11:08:01.505553+01 | 1486375681.50555 |                 0 |              17 |                 29684 |                 1214 |            3533771 |             0 |                0 |         1100712 |                     0 |        843099 | 2017-02-06 09:42:18.893067+01

 2017-02-06 11:08:02.577366+01 | 1486375682.57737 |                 0 |              17 |                 29684 |                 1214 |            3533771 |             0 |                0 |         1100712 |                     0 |        843216 | 2017-02-06 09:42:18.893067+01

 2017-02-06 11:08:03.651419+01 | 1486375683.65142 |                 0 |              17 |                 29684 |                 1214 |            3533771 |             0 |                0 |         1100712 |                     0 |        843392 | 2017-02-06 09:42:18.893067+01

 2017-02-06 11:08:04.724577+01 | 1486375684.72458 |                 0 |              17 |                 29684 |                 1214 |            3533771 |             0 |                0 |         1100712 |                     0 |        843504 | 2017-02-06 09:42:18.893067+01

 2017-02-06 11:08:05.795692+01 | 1486375685.79569 |                 0 |              17 |                 29684 |                 1214 |            3533771 |             0 |                0 |         1100712 |                     0 |        843696 | 2017-02-06 09:42:18.893067+01

 2017-02-06 11:08:06.87099+01 | 1486375686.87099 |                 0 |              17 |                 29684 |                 1214 |            3533771 |             0 |                0 |         1100712 |                     0 |        843801 | 2017-02-06 09:42:18.893067+01

 2017-02-06 11:08:07.940653+01 | 1486375687.94065 |                 0 |              17 |                 29684 |                 1214 |            3533771 |             0 |                0 |         1100712 |                     0 |        843949 | 2017-02-06 09:42:18.893067+01

 2017-02-06 11:08:09.01437+01 | 1486375689.01437 |                 0 |              17 |                 29684 |                 1214 |            3533771 |             0 |                0 |         1100712 |                     0 |        844117 | 2017-02-06 09:42:18.893067+01

 2017-02-06 11:08:10.090156+01 | 1486375690.09016 |                 0 |              17 |                 29684 |                 1214 |            3533771 |             0 |                0 |         1100712 |                     0 |        844230 | 2017-02-06 09:42:18.893067+01

 2017-02-06 11:08:11.167238+01 | 1486375691.16724 |                 0 |              17 |                 29684 |                 1214 |            3533771 |             0 |                0 |         1100712 |                     0 |        844522 | 2017-02-06 09:42:18.893067+01

 2017-02-06 11:08:12.249971+01 | 1486375692.24997 |                 0 |              17 |                 29684 |                 1214 |            3533771 |             0 |                0 |         1100712 |                     0 |        844523 | 2017-02-06 09:42:18.893067+01

 2017-02-06 11:08:13.318201+01 | 1486375693.3182 |                 0 |              17 |                 29684 |                 1214 |            3533771 |             0 |                0 |         1100712 |                     0 |        844694 | 2017-02-06 09:42:18.893067+01

 2017-02-06 11:08:14.389319+01 | 1486375694.38932 |                 0 |              17 |                 29684 |                 1214 |            3533771 |             0 |                0 |         1100712 |                     0 |        844890 | 2017-02-06 09:42:18.893067+01

 2017-02-06 11:08:15.463819+01 | 1486375695.46382 |                 0 |              17 |                 29684 |                 1214 |            3533771 |             0 |                0 |         1100712 |                     0 |        844993 | 2017-02-06 09:42:18.893067+01

 2017-02-06 11:08:16.538651+01 | 1486375696.53865 |                 0 |              17 |                 29684 |                 1214 |            3533771 |             0 |                0 |         1100712 |                     0 |        845129 | 2017-02-06 09:42:18.893067+01

 2017-02-06 11:08:17.609697+01 | 1486375697.6097 |                 0 |              17 |                 29684 |                 1214 |            3533771 |             0 |                0 |         1100712 |                     0 |        845302 | 2017-02-06 09:42:18.893067+01

 2017-02-06 11:08:18.684444+01 | 1486375698.68444 |                 0 |              17 |                 29684 |                 1214 |            3533771 |             0 |                0 |         1100712 |                     0 |        845434 | 2017-02-06 09:42:18.893067+01

 2017-02-06 11:08:19.75563+01 | 1486375699.75563 |                 0 |              17 |                 29684 |                 1214 |            3533771 |             0 |                0 |         1100712 |                     0 |        845566 | 2017-02-06 09:42:18.893067+01

