 2017-02-04 21:47:08.803625+01 | 1486241228.80363 |                 0 |              20 |                188375 |                 4118 |           17267894 |       1688155 |            15137 |        10635398 |                     0 |       6443314 | 2017-02-04 20:04:48.025022+01

 2017-02-04 21:47:09.902038+01 | 1486241229.90204 |                 0 |              20 |                188375 |                 4118 |           17267894 |       1688155 |            15137 |        10635398 |                     0 |       6444572 | 2017-02-04 20:04:48.025022+01

 2017-02-04 21:47:11.008283+01 | 1486241231.00828 |                 0 |              20 |                188375 |                 4118 |           17267894 |       1688155 |            15137 |        10635398 |                     0 |       6445691 | 2017-02-04 20:04:48.025022+01

 2017-02-04 21:47:12.102966+01 | 1486241232.10297 |                 0 |              20 |                188375 |                 4118 |           17267894 |       1688155 |            15137 |        10635398 |                     0 |       6446771 | 2017-02-04 20:04:48.025022+01

 2017-02-04 21:47:13.195889+01 | 1486241233.19589 |                 0 |              20 |                188375 |                 4118 |           17267894 |       1688155 |            15137 |        10635398 |                     0 |       6448496 | 2017-02-04 20:04:48.025022+01

 2017-02-04 21:47:14.294699+01 | 1486241234.2947 |                 0 |              20 |                188375 |                 4118 |           17267894 |       1688155 |            15137 |        10635398 |                     0 |       6450397 | 2017-02-04 20:04:48.025022+01

 2017-02-04 21:47:15.389195+01 | 1486241235.38919 |                 0 |              20 |                188375 |                 4118 |           17267894 |       1688155 |            15137 |        10635398 |                     0 |       6452003 | 2017-02-04 20:04:48.025022+01

 2017-02-04 21:47:16.477695+01 | 1486241236.47769 |                 0 |              20 |                188375 |                 4118 |           17267894 |       1688155 |            15137 |        10635398 |                     0 |       6453622 | 2017-02-04 20:04:48.025022+01

 2017-02-04 21:47:17.571722+01 | 1486241237.57172 |                 0 |              20 |                188375 |                 4118 |           17267894 |       1688155 |            15137 |        10635398 |                     0 |       6455354 | 2017-02-04 20:04:48.025022+01

 2017-02-04 21:47:18.658629+01 | 1486241238.65863 |                 0 |              20 |                188375 |                 4118 |           17267894 |       1688155 |            15137 |        10635398 |                     0 |       6457478 | 2017-02-04 20:04:48.025022+01

 2017-02-04 21:47:19.748354+01 | 1486241239.74835 |                 0 |              20 |                188375 |                 4118 |           17267894 |       1688155 |            15137 |        10635398 |                     0 |       6459134 | 2017-02-04 20:04:48.025022+01

 2017-02-04 21:47:20.820859+01 | 1486241240.82086 |                 0 |              20 |                188375 |                 4118 |           17267894 |       1688155 |            15137 |        10635398 |                     0 |       6461265 | 2017-02-04 20:04:48.025022+01

 2017-02-04 21:47:21.903734+01 | 1486241241.90373 |                 0 |              20 |                188375 |                 4118 |           17267894 |       1688155 |            15137 |        10635398 |                     0 |       6463011 | 2017-02-04 20:04:48.025022+01

 2017-02-04 21:47:22.994693+01 | 1486241242.99469 |                 0 |              20 |                188375 |                 4118 |           17267894 |       1688155 |            15137 |        10635398 |                     0 |       6464573 | 2017-02-04 20:04:48.025022+01

 2017-02-04 21:47:24.082912+01 | 1486241244.08291 |                 0 |              20 |                188375 |                 4118 |           17267894 |       1688155 |            15137 |        10635398 |                     0 |       6466646 | 2017-02-04 20:04:48.025022+01

 2017-02-04 21:47:25.178527+01 | 1486241245.17853 |                 0 |              20 |                188375 |                 4118 |           17267894 |       1688155 |            15137 |        10635398 |                     0 |       6468408 | 2017-02-04 20:04:48.025022+01

 2017-02-04 21:47:26.280674+01 | 1486241246.28067 |                 0 |              20 |                188375 |                 4118 |           17267894 |       1688155 |            15137 |        10635398 |                     0 |       6470402 | 2017-02-04 20:04:48.025022+01

 2017-02-04 21:47:27.37815+01 | 1486241247.37815 |                 0 |              20 |                188375 |                 4118 |           17267894 |       1688155 |            15137 |        10635398 |                     0 |       6472417 | 2017-02-04 20:04:48.025022+01

 2017-02-04 21:47:28.479832+01 | 1486241248.47983 |                 0 |              20 |                188375 |                 4118 |           17267894 |       1688155 |            15137 |        10635398 |                     0 |       6474302 | 2017-02-04 20:04:48.025022+01

 2017-02-04 21:47:29.576239+01 | 1486241249.57624 |                 0 |              20 |                188375 |                 4118 |           17267894 |       1688155 |            15137 |        10635398 |                     0 |       6476086 | 2017-02-04 20:04:48.025022+01

 2017-02-04 21:47:30.666472+01 | 1486241250.66647 |                 0 |              20 |                188375 |                 4118 |           17267894 |       1688155 |            15137 |        10635398 |                     0 |       6478102 | 2017-02-04 20:04:48.025022+01

 2017-02-04 21:47:31.747063+01 | 1486241251.74706 |                 0 |              20 |                188375 |                 4118 |           17267894 |       1688155 |            15137 |        10635398 |                     0 |       6479849 | 2017-02-04 20:04:48.025022+01

 2017-02-04 21:47:32.824649+01 | 1486241252.82465 |                 0 |              20 |                188375 |                 4118 |           17267894 |       1688155 |            15137 |        10635398 |                     0 |       6482039 | 2017-02-04 20:04:48.025022+01

 2017-02-04 21:47:33.908215+01 | 1486241253.90822 |                 0 |              20 |                188375 |                 4118 |           17267894 |       1688155 |            15137 |        10635398 |                     0 |       6483907 | 2017-02-04 20:04:48.025022+01

 2017-02-04 21:47:34.997641+01 | 1486241254.99764 |                 0 |              20 |                188375 |                 4118 |           17267894 |       1688155 |            15137 |        10635398 |                     0 |       6485685 | 2017-02-04 20:04:48.025022+01

 2017-02-04 21:47:36.093457+01 | 1486241256.09346 |                 0 |              20 |                188375 |                 4118 |           17267894 |       1688155 |            15137 |        10635398 |                     0 |       6487725 | 2017-02-04 20:04:48.025022+01

 2017-02-04 21:47:37.199612+01 | 1486241257.19961 |                 0 |              20 |                188375 |                 4118 |           17267894 |       1688155 |            15137 |        10635398 |                     0 |       6489347 | 2017-02-04 20:04:48.025022+01

 2017-02-04 21:47:38.294341+01 | 1486241258.29434 |                 0 |              20 |                188375 |                 4118 |           17267894 |       1688155 |            15137 |        10635398 |                     0 |       6491412 | 2017-02-04 20:04:48.025022+01

 2017-02-04 21:47:39.386341+01 | 1486241259.38634 |                 0 |              20 |                188375 |                 4118 |           17267894 |       1688155 |            15137 |        10635398 |                     0 |       6493102 | 2017-02-04 20:04:48.025022+01

 2017-02-04 21:47:40.484558+01 | 1486241260.48456 |                 0 |              20 |                188375 |                 4118 |           17267894 |       1688155 |            15137 |        10635398 |                     0 |       6495183 | 2017-02-04 20:04:48.025022+01

 2017-02-04 21:47:41.573145+01 | 1486241261.57314 |                 0 |              20 |                188375 |                 4118 |           17267894 |       1688155 |            15137 |        10635398 |                     0 |       6496864 | 2017-02-04 20:04:48.025022+01

 2017-02-04 21:47:42.664542+01 | 1486241262.66454 |                 0 |              20 |                188375 |                 4118 |           17267894 |       1688155 |            15137 |        10635398 |                     0 |       6498979 | 2017-02-04 20:04:48.025022+01

 2017-02-04 21:47:43.74673+01 | 1486241263.74673 |                 0 |              20 |                188375 |                 4118 |           17267894 |       1688155 |            15137 |        10635398 |                     0 |       6500427 | 2017-02-04 20:04:48.025022+01

 2017-02-04 21:47:44.827926+01 | 1486241264.82793 |                 0 |              20 |                188375 |                 4118 |           17267894 |       1688155 |            15137 |        10635398 |                     0 |       6502635 | 2017-02-04 20:04:48.025022+01

 2017-02-04 21:47:45.911263+01 | 1486241265.91126 |                 0 |              20 |                188375 |                 4118 |           17267894 |       1688155 |            15137 |        10635398 |                     0 |       6504411 | 2017-02-04 20:04:48.025022+01

 2017-02-04 21:47:47.002574+01 | 1486241267.00257 |                 0 |              20 |                188375 |                 4118 |           17267894 |       1688155 |            15137 |        10635398 |                     0 |       6505803 | 2017-02-04 20:04:48.025022+01

 2017-02-04 21:47:48.099541+01 | 1486241268.09954 |                 0 |              20 |                188375 |                 4118 |           17267894 |       1688155 |            15137 |        10635398 |                     0 |       6507772 | 2017-02-04 20:04:48.025022+01

 2017-02-04 21:47:49.194877+01 | 1486241269.19488 |                 0 |              20 |                188375 |                 4118 |           17267894 |       1688155 |            15137 |        10635398 |                     0 |       6509565 | 2017-02-04 20:04:48.025022+01

 2017-02-04 21:47:50.289176+01 | 1486241270.28918 |                 0 |              20 |                188375 |                 4118 |           17267894 |       1688155 |            15137 |        10635398 |                     0 |       6511546 | 2017-02-04 20:04:48.025022+01

 2017-02-04 21:47:51.386947+01 | 1486241271.38695 |                 0 |              20 |                188375 |                 4118 |           17267894 |       1688155 |            15137 |        10635398 |                     0 |       6513273 | 2017-02-04 20:04:48.025022+01

 2017-02-04 21:47:52.484263+01 | 1486241272.48426 |                 0 |              20 |                188375 |                 4118 |           17267894 |       1688155 |            15137 |        10635398 |                     0 |       6515214 | 2017-02-04 20:04:48.025022+01

 2017-02-04 21:47:53.570206+01 | 1486241273.57021 |                 0 |              20 |                188375 |                 4118 |           17267894 |       1688155 |            15137 |        10635398 |                     0 |       6516616 | 2017-02-04 20:04:48.025022+01

 2017-02-04 21:47:54.663132+01 | 1486241274.66313 |                 0 |              20 |                188375 |                 4118 |           17267894 |       1688155 |            15137 |        10635398 |                     0 |       6518429 | 2017-02-04 20:04:48.025022+01

 2017-02-04 21:47:55.744627+01 | 1486241275.74463 |                 0 |              20 |                188375 |                 4118 |           17267894 |       1688155 |            15137 |        10635398 |                     0 |       6519836 | 2017-02-04 20:04:48.025022+01

 2017-02-04 21:47:56.830338+01 | 1486241276.83034 |                 0 |              20 |                188375 |                 4118 |           17267894 |       1688224 |            15137 |        10635398 |                     0 |       6521317 | 2017-02-04 20:04:48.025022+01

 2017-02-04 21:47:57.915269+01 | 1486241277.91527 |                 0 |              20 |                188375 |                 4118 |           17267894 |       1688321 |            15137 |        10635398 |                     0 |       6523078 | 2017-02-04 20:04:48.025022+01

 2017-02-04 21:47:59.000096+01 | 1486241279.0001 |                 0 |              20 |                188375 |                 4118 |           17267894 |       1688379 |            15137 |        10635398 |                     0 |       6524389 | 2017-02-04 20:04:48.025022+01

 2017-02-04 21:48:00.093146+01 | 1486241280.09315 |                 0 |              20 |                188375 |                 4118 |           17267894 |       1688477 |            15137 |        10635398 |                     0 |       6526126 | 2017-02-04 20:04:48.025022+01

 2017-02-04 21:48:01.18042+01 | 1486241281.18042 |                 0 |              20 |                188375 |                 4118 |           17267894 |       1688595 |            15137 |        10635398 |                     0 |       6527540 | 2017-02-04 20:04:48.025022+01

 2017-02-04 21:48:02.279536+01 | 1486241282.27954 |                 0 |              20 |                188375 |                 4118 |           17267894 |       1688786 |            15137 |        10635398 |                     0 |       6529627 | 2017-02-04 20:04:48.025022+01

 2017-02-04 21:48:03.367573+01 | 1486241283.36757 |                 0 |              20 |                188375 |                 4118 |           17267894 |       1688911 |            15137 |        10635398 |                     0 |       6531208 | 2017-02-04 20:04:48.025022+01

 2017-02-04 21:48:04.461522+01 | 1486241284.46152 |                 0 |              20 |                188375 |                 4118 |           17267894 |       1689027 |            15137 |        10635398 |                     0 |       6532593 | 2017-02-04 20:04:48.025022+01

 2017-02-04 21:48:05.556782+01 | 1486241285.55678 |                 0 |              20 |                188375 |                 4118 |           17267894 |       1689176 |            15137 |        10635398 |                     0 |       6534450 | 2017-02-04 20:04:48.025022+01

 2017-02-04 21:48:06.645502+01 | 1486241286.6455 |                 0 |              20 |                188375 |                 4118 |           17267894 |       1689304 |            15137 |        10635398 |                     0 |       6535861 | 2017-02-04 20:04:48.025022+01

 2017-02-04 21:48:07.731301+01 | 1486241287.7313 |                 0 |              20 |                188375 |                 4118 |           17267894 |       1689440 |            15137 |        10635398 |                     0 |       6537856 | 2017-02-04 20:04:48.025022+01

 2017-02-04 21:48:08.814618+01 | 1486241288.81462 |                 0 |              20 |                188375 |                 4118 |           17267894 |       1689540 |            15137 |        10635398 |                     0 |       6539424 | 2017-02-04 20:04:48.025022+01

 2017-02-04 21:48:09.902358+01 | 1486241289.90236 |                 0 |              20 |                188375 |                 4118 |           17267894 |       1689675 |            15137 |        10635398 |                     0 |       6541042 | 2017-02-04 20:04:48.025022+01

 2017-02-04 21:48:10.990719+01 | 1486241290.99072 |                 0 |              20 |                188375 |                 4118 |           17267894 |       1689817 |            15137 |        10635398 |                     0 |       6542910 | 2017-02-04 20:04:48.025022+01

 2017-02-04 21:48:12.086218+01 | 1486241292.08622 |                 0 |              20 |                188375 |                 4118 |           17267894 |       1689954 |            15137 |        10635398 |                     0 |       6544678 | 2017-02-04 20:04:48.025022+01

 2017-02-04 21:48:13.18374+01 | 1486241293.18374 |                 0 |              20 |                188375 |                 4118 |           17267894 |       1690128 |            15137 |        10635398 |                     0 |       6546464 | 2017-02-04 20:04:48.025022+01

 2017-02-04 21:48:14.278067+01 | 1486241294.27807 |                 0 |              20 |                188375 |                 4118 |           17267894 |       1690265 |            15137 |        10635398 |                     0 |       6548108 | 2017-02-04 20:04:48.025022+01

 2017-02-04 21:48:15.36834+01 | 1486241295.36834 |                 0 |              20 |                188375 |                 4118 |           17267894 |       1690412 |            15137 |        10635398 |                     0 |       6549794 | 2017-02-04 20:04:48.025022+01

 2017-02-04 21:48:16.462576+01 | 1486241296.46258 |                 0 |              20 |                188375 |                 4118 |           17267894 |       1690597 |            15137 |        10635398 |                     0 |       6551788 | 2017-02-04 20:04:48.025022+01

 2017-02-04 21:48:17.553262+01 | 1486241297.55326 |                 0 |              20 |                188375 |                 4118 |           17267894 |       1690689 |            15137 |        10635398 |                     0 |       6553010 | 2017-02-04 20:04:48.025022+01

 2017-02-04 21:48:18.646519+01 | 1486241298.64652 |                 0 |              20 |                188375 |                 4118 |           17267894 |       1690823 |            15137 |        10635398 |                     0 |       6554789 | 2017-02-04 20:04:48.025022+01

 2017-02-04 21:48:19.733136+01 | 1486241299.73314 |                 0 |              20 |                188375 |                 4118 |           17267894 |       1690953 |            15137 |        10635398 |                     0 |       6556387 | 2017-02-04 20:04:48.025022+01

 2017-02-04 21:48:20.814196+01 | 1486241300.8142 |                 0 |              20 |                188375 |                 4118 |           17267894 |       1691122 |            15137 |        10635398 |                     0 |       6558309 | 2017-02-04 20:04:48.025022+01

 2017-02-04 21:48:21.899346+01 | 1486241301.89935 |                 0 |              20 |                188375 |                 4118 |           17267894 |       1691272 |            15137 |        10635398 |                     0 |       6559961 | 2017-02-04 20:04:48.025022+01

 2017-02-04 21:48:22.986873+01 | 1486241302.98687 |                 0 |              20 |                188375 |                 4118 |           17267894 |       1691399 |            15137 |        10635398 |                     0 |       6561680 | 2017-02-04 20:04:48.025022+01

 2017-02-04 21:48:24.06741+01 | 1486241304.06741 |                 0 |              20 |                188375 |                 4118 |           17267894 |       1691550 |            15137 |        10635398 |                     0 |       6563336 | 2017-02-04 20:04:48.025022+01

 2017-02-04 21:48:25.17777+01 | 1486241305.17777 |                 0 |              20 |                188375 |                 4118 |           17267894 |       1691661 |            15137 |        10635398 |                     0 |       6564910 | 2017-02-04 20:04:48.025022+01

 2017-02-04 21:48:26.2732+01 | 1486241306.2732 |                 0 |              20 |                188375 |                 4118 |           17267894 |       1691818 |            15137 |        10635398 |                     0 |       6566818 | 2017-02-04 20:04:48.025022+01

 2017-02-04 21:48:27.371577+01 | 1486241307.37158 |                 0 |              20 |                188375 |                 4118 |           17267894 |       1691961 |            15137 |        10635398 |                     0 |       6568475 | 2017-02-04 20:04:48.025022+01

 2017-02-04 21:48:28.464122+01 | 1486241308.46412 |                 0 |              20 |                188375 |                 4118 |           17267894 |       1692261 |            15139 |        10635398 |                     0 |       6570115 | 2017-02-04 20:04:48.025022+01

 2017-02-04 21:48:29.556554+01 | 1486241309.55655 |                 0 |              20 |                188375 |                 4118 |           17267894 |       1692761 |            15144 |        10635398 |                     0 |       6571813 | 2017-02-04 20:04:48.025022+01

 2017-02-04 21:48:30.649404+01 | 1486241310.6494 |                 0 |              20 |                188375 |                 4118 |           17267894 |       1693361 |            15150 |        10635398 |                     0 |       6573629 | 2017-02-04 20:04:48.025022+01

 2017-02-04 21:48:31.744889+01 | 1486241311.74489 |                 0 |              20 |                188375 |                 4118 |           17267894 |       1693861 |            15155 |        10635398 |                     0 |       6575179 | 2017-02-04 20:04:48.025022+01

 2017-02-04 21:48:32.828441+01 | 1486241312.82844 |                 0 |              20 |                188375 |                 4118 |           17267894 |       1694361 |            15160 |        10635398 |                     0 |       6577094 | 2017-02-04 20:04:48.025022+01

 2017-02-04 21:48:33.912777+01 | 1486241313.91278 |                 0 |              20 |                188375 |                 4118 |           17267894 |       1694961 |            15166 |        10635398 |                     0 |       6578795 | 2017-02-04 20:04:48.025022+01

 2017-02-04 21:48:35.001773+01 | 1486241315.00177 |                 0 |              20 |                188375 |                 4118 |           17267894 |       1695461 |            15171 |        10635398 |                     0 |       6580391 | 2017-02-04 20:04:48.025022+01

 2017-02-04 21:48:36.086007+01 | 1486241316.08601 |                 0 |              20 |                188375 |                 4118 |           17267894 |       1695961 |            15176 |        10635398 |                     0 |       6581995 | 2017-02-04 20:04:48.025022+01

 2017-02-04 21:48:37.178549+01 | 1486241317.17855 |                 0 |              20 |                188375 |                 4118 |           17267894 |       1696561 |            15182 |        10635398 |                     0 |       6583858 | 2017-02-04 20:04:48.025022+01

 2017-02-04 21:48:38.282668+01 | 1486241318.28267 |                 0 |              20 |                188375 |                 4118 |           17267894 |       1697061 |            15187 |        10635398 |                     0 |       6585400 | 2017-02-04 20:04:48.025022+01

 2017-02-04 21:48:39.377905+01 | 1486241319.3779 |                 0 |              20 |                188375 |                 4118 |           17267894 |       1697661 |            15193 |        10635398 |                     0 |       6587469 | 2017-02-04 20:04:48.025022+01

 2017-02-04 21:48:40.470769+01 | 1486241320.47077 |                 0 |              20 |                188375 |                 4118 |           17267894 |       1698161 |            15198 |        10635398 |                     0 |       6589380 | 2017-02-04 20:04:48.025022+01

 2017-02-04 21:48:41.568568+01 | 1486241321.56857 |                 0 |              20 |                188375 |                 4118 |           17267894 |       1698761 |            15204 |        10635398 |                     0 |       6590990 | 2017-02-04 20:04:48.025022+01

 2017-02-04 21:48:42.673251+01 | 1486241322.67325 |                 0 |              20 |                188375 |                 4118 |           17267894 |       1699261 |            15209 |        10635398 |                     0 |       6592544 | 2017-02-04 20:04:48.025022+01

 2017-02-04 21:48:43.754853+01 | 1486241323.75485 |                 0 |              20 |                188375 |                 4118 |           17267894 |       1699761 |            15214 |        10635398 |                     0 |       6594280 | 2017-02-04 20:04:48.025022+01

 2017-02-04 21:48:44.836204+01 | 1486241324.8362 |                 0 |              20 |                188375 |                 4118 |           17267894 |       1700361 |            15220 |        10635398 |                     0 |       6596216 | 2017-02-04 20:04:48.025022+01

 2017-02-04 21:48:45.930178+01 | 1486241325.93018 |                 0 |              20 |                188375 |                 4118 |           17267894 |       1700861 |            15225 |        10635398 |                     0 |       6597817 | 2017-02-04 20:04:48.025022+01

 2017-02-04 21:48:47.009347+01 | 1486241327.00935 |                 0 |              20 |                188375 |                 4118 |           17267894 |       1701361 |            15230 |        10635398 |                     0 |       6599361 | 2017-02-04 20:04:48.025022+01

 2017-02-04 21:48:48.094409+01 | 1486241328.09441 |                 0 |              20 |                188375 |                 4118 |           17267894 |       1701961 |            15236 |        10635398 |                     0 |       6601322 | 2017-02-04 20:04:48.025022+01

 2017-02-04 21:48:49.191389+01 | 1486241329.19139 |                 0 |              20 |                188375 |                 4118 |           17267894 |       1702461 |            15241 |        10635398 |                     0 |       6602671 | 2017-02-04 20:04:48.025022+01

 2017-02-04 21:48:50.287321+01 | 1486241330.28732 |                 0 |              20 |                188375 |                 4118 |           17267894 |       1703061 |            15247 |        10635398 |                     0 |       6604485 | 2017-02-04 20:04:48.025022+01

 2017-02-04 21:48:51.384064+01 | 1486241331.38406 |                 0 |              20 |                188375 |                 4118 |           17267894 |       1703561 |            15252 |        10635398 |                     0 |       6606122 | 2017-02-04 20:04:48.025022+01

 2017-02-04 21:48:52.47797+01 | 1486241332.47797 |                 0 |              20 |                188375 |                 4118 |           17267894 |       1704061 |            15257 |        10635398 |                     0 |       6607897 | 2017-02-04 20:04:48.025022+01

 2017-02-04 21:48:53.573298+01 | 1486241333.5733 |                 0 |              20 |                188375 |                 4118 |           17267894 |       1704661 |            15263 |        10635398 |                     0 |       6609700 | 2017-02-04 20:04:48.025022+01

 2017-02-04 21:48:54.662743+01 | 1486241334.66274 |                 0 |              20 |                188375 |                 4118 |           17267894 |       1705161 |            15268 |        10635398 |                     0 |       6611331 | 2017-02-04 20:04:48.025022+01

 2017-02-04 21:48:55.754289+01 | 1486241335.75429 |                 0 |              20 |                188375 |                 4118 |           17267894 |       1705761 |            15274 |        10635398 |                     0 |       6613252 | 2017-02-04 20:04:48.025022+01

 2017-02-04 21:48:56.838237+01 | 1486241336.83824 |                 0 |              20 |                188375 |                 4118 |           17267894 |       1706261 |            15279 |        10635398 |                     0 |       6614896 | 2017-02-04 20:04:48.025022+01

 2017-02-04 21:48:57.926011+01 | 1486241337.92601 |                 0 |              20 |                188375 |                 4118 |           17267894 |       1706761 |            15284 |        10635398 |                     0 |       6616511 | 2017-02-04 20:04:48.025022+01

 2017-02-04 21:48:59.008315+01 | 1486241339.00832 |                 0 |              20 |                188375 |                 4118 |           17267894 |       1707361 |            15290 |        10635398 |                     0 |       6618453 | 2017-02-04 20:04:48.025022+01

 2017-02-04 21:49:00.102065+01 | 1486241340.10207 |                 0 |              20 |                188375 |                 4118 |           17267894 |       1707861 |            15295 |        10635398 |                     0 |       6619905 | 2017-02-04 20:04:48.025022+01

 2017-02-04 21:49:01.200711+01 | 1486241341.20071 |                 0 |              20 |                188375 |                 4118 |           17267894 |       1708461 |            15301 |        10635398 |                     0 |       6621724 | 2017-02-04 20:04:48.025022+01

 2017-02-04 21:49:02.274431+01 | 1486241342.27443 |                 0 |              20 |                188375 |                 4118 |           17267894 |       1708961 |            15306 |        10635398 |                     0 |       6623095 | 2017-02-04 20:04:48.025022+01

 2017-02-04 21:49:03.36467+01 | 1486241343.36467 |                 0 |              20 |                188375 |                 4118 |           17267894 |       1709461 |            15311 |        10635398 |                     0 |       6624430 | 2017-02-04 20:04:48.025022+01

 2017-02-04 21:49:04.453302+01 | 1486241344.4533 |                 0 |              20 |                188375 |                 4118 |           17267894 |       1710061 |            15317 |        10635398 |                     0 |       6626160 | 2017-02-04 20:04:48.025022+01

 2017-02-04 21:49:05.552867+01 | 1486241345.55287 |                 0 |              20 |                188375 |                 4118 |           17267894 |       1710561 |            15322 |        10635398 |                     0 |       6627849 | 2017-02-04 20:04:48.025022+01

 2017-02-04 21:49:06.647552+01 | 1486241346.64755 |                 0 |              20 |                188375 |                 4118 |           17267894 |       1711161 |            15328 |        10635398 |                     0 |       6629391 | 2017-02-04 20:04:48.025022+01

 2017-02-04 21:49:07.735822+01 | 1486241347.73582 |                 0 |              20 |                188375 |                 4118 |           17267894 |       1711661 |            15333 |        10635398 |                     0 |       6630892 | 2017-02-04 20:04:48.025022+01

 2017-02-04 21:49:08.819707+01 | 1486241348.81971 |                 0 |              20 |                188375 |                 4118 |           17267894 |       1712161 |            15338 |        10635398 |                     0 |       6632382 | 2017-02-04 20:04:48.025022+01

 2017-02-04 21:49:09.900373+01 | 1486241349.90037 |                 0 |              20 |                188375 |                 4118 |           17267894 |       1712761 |            15344 |        10635398 |                     0 |       6634014 | 2017-02-04 20:04:48.025022+01

 2017-02-04 21:49:10.982696+01 | 1486241350.9827 |                 0 |              20 |                188375 |                 4118 |           17267894 |       1713261 |            15349 |        10635398 |                     0 |       6635593 | 2017-02-04 20:04:48.025022+01

 2017-02-04 21:49:12.065942+01 | 1486241352.06594 |                 0 |              20 |                188375 |                 4118 |           17267894 |       1713761 |            15354 |        10635398 |                     0 |       6636759 | 2017-02-04 20:04:48.025022+01

 2017-02-04 21:49:13.151601+01 | 1486241353.1516 |                 0 |              20 |                188375 |                 4118 |           17267894 |       1714361 |            15360 |        10635398 |                     0 |       6638508 | 2017-02-04 20:04:48.025022+01

 2017-02-04 21:49:14.238244+01 | 1486241354.23824 |                 0 |              20 |                188375 |                 4118 |           17267894 |       1714861 |            15365 |        10635398 |                     0 |       6639893 | 2017-02-04 20:04:48.025022+01

 2017-02-04 21:49:15.328058+01 | 1486241355.32806 |                 0 |              20 |                188375 |                 4118 |           17267894 |       1715361 |            15370 |        10635398 |                     0 |       6641409 | 2017-02-04 20:04:48.025022+01

 2017-02-04 21:49:16.419637+01 | 1486241356.41964 |                 0 |              20 |                188375 |                 4118 |           17267894 |       1715961 |            15376 |        10635398 |                     0 |       6643383 | 2017-02-04 20:04:48.025022+01

 2017-02-04 21:49:17.522433+01 | 1486241357.52243 |                 0 |              20 |                188375 |                 4118 |           17267894 |       1716461 |            15381 |        10635398 |                     0 |       6644943 | 2017-02-04 20:04:48.025022+01

 2017-02-04 21:49:18.633562+01 | 1486241358.63356 |                 0 |              20 |                188375 |                 4118 |           17267894 |       1717061 |            15387 |        10635398 |                     0 |       6646928 | 2017-02-04 20:04:48.025022+01

 2017-02-04 21:49:19.733908+01 | 1486241359.73391 |                 0 |              20 |                188375 |                 4118 |           17267894 |       1717561 |            15392 |        10635398 |                     0 |       6648391 | 2017-02-04 20:04:48.025022+01

 2017-02-04 21:49:20.8243+01 | 1486241360.8243 |                 0 |              20 |                188375 |                 4118 |           17267894 |       1718161 |            15398 |        10635398 |                     0 |       6650423 | 2017-02-04 20:04:48.025022+01

 2017-02-04 21:49:21.911947+01 | 1486241361.91195 |                 0 |              20 |                188375 |                 4118 |           17267894 |       1718661 |            15403 |        10635398 |                     0 |       6652057 | 2017-02-04 20:04:48.025022+01

 2017-02-04 21:49:22.996881+01 | 1486241362.99688 |                 0 |              20 |                188375 |                 4118 |           17267894 |       1719161 |            15408 |        10635398 |                     0 |       6653560 | 2017-02-04 20:04:48.025022+01

 2017-02-04 21:49:24.079775+01 | 1486241364.07978 |                 0 |              20 |                188375 |                 4118 |           17267894 |       1719761 |            15414 |        10635398 |                     0 |       6655364 | 2017-02-04 20:04:48.025022+01

 2017-02-04 21:49:25.170751+01 | 1486241365.17075 |                 0 |              20 |                188375 |                 4118 |           17267894 |       1720261 |            15419 |        10635398 |                     0 |       6656860 | 2017-02-04 20:04:48.025022+01

 2017-02-04 21:49:26.258541+01 | 1486241366.25854 |                 0 |              20 |                188375 |                 4118 |           17267894 |       1720861 |            15425 |        10635398 |                     0 |       6658570 | 2017-02-04 20:04:48.025022+01

 2017-02-04 21:49:27.345547+01 | 1486241367.34555 |                 0 |              20 |                188375 |                 4118 |           17267894 |       1721361 |            15430 |        10635398 |                     0 |       6660015 | 2017-02-04 20:04:48.025022+01

 2017-02-04 21:49:28.449422+01 | 1486241368.44942 |                 0 |              20 |                188375 |                 4118 |           17267894 |       1721861 |            15435 |        10635398 |                     0 |       6661683 | 2017-02-04 20:04:48.025022+01

 2017-02-04 21:49:29.545804+01 | 1486241369.5458 |                 0 |              20 |                188375 |                 4118 |           17267894 |       1722461 |            15441 |        10635398 |                     0 |       6664070 | 2017-02-04 20:04:48.025022+01

 2017-02-04 21:49:30.640598+01 | 1486241370.6406 |                 0 |              20 |                188375 |                 4118 |           17267894 |       1722961 |            15446 |        10635398 |                     0 |       6665813 | 2017-02-04 20:04:48.025022+01

 2017-02-04 21:49:31.733579+01 | 1486241371.73358 |                 0 |              20 |                188375 |                 4118 |           17267894 |       1723561 |            15452 |        10635398 |                     0 |       6667722 | 2017-02-04 20:04:48.025022+01

 2017-02-04 21:49:32.823249+01 | 1486241372.82325 |                 0 |              20 |                188375 |                 4118 |           17267894 |       1724061 |            15457 |        10635398 |                     0 |       6669381 | 2017-02-04 20:04:48.025022+01

 2017-02-04 21:49:33.901251+01 | 1486241373.90125 |                 0 |              20 |                188375 |                 4118 |           17267894 |       1724561 |            15462 |        10635398 |                     0 |       6670739 | 2017-02-04 20:04:48.025022+01

 2017-02-04 21:49:34.985553+01 | 1486241374.98555 |                 0 |              20 |                188375 |                 4118 |           17267894 |       1725161 |            15468 |        10635398 |                     0 |       6672695 | 2017-02-04 20:04:48.025022+01

 2017-02-04 21:49:36.070806+01 | 1486241376.07081 |                 0 |              20 |                188375 |                 4118 |           17267894 |       1725661 |            15473 |        10635398 |                     0 |       6674043 | 2017-02-04 20:04:48.025022+01

 2017-02-04 21:49:37.155931+01 | 1486241377.15593 |                 0 |              20 |                188375 |                 4118 |           17267894 |       1726161 |            15478 |        10635398 |                     0 |       6675682 | 2017-02-04 20:04:48.025022+01

 2017-02-04 21:49:38.244929+01 | 1486241378.24493 |                 0 |              20 |                188375 |                 4118 |           17267894 |       1726761 |            15484 |        10635398 |                     0 |       6677573 | 2017-02-04 20:04:48.025022+01

 2017-02-04 21:49:39.348558+01 | 1486241379.34856 |                 0 |              20 |                188375 |                 4118 |           17267894 |       1727261 |            15489 |        10635398 |                     0 |       6679111 | 2017-02-04 20:04:48.025022+01

 2017-02-04 21:49:40.446645+01 | 1486241380.44665 |                 0 |              20 |                188375 |                 4118 |           17267894 |       1727861 |            15495 |        10635398 |                     0 |       6681062 | 2017-02-04 20:04:48.025022+01

 2017-02-04 21:49:41.551779+01 | 1486241381.55178 |                 0 |              20 |                188375 |                 4118 |           17267894 |       1728361 |            15500 |        10635398 |                     0 |       6682591 | 2017-02-04 20:04:48.025022+01

 2017-02-04 21:49:42.650091+01 | 1486241382.65009 |                 0 |              20 |                188375 |                 4118 |           17267894 |       1728961 |            15506 |        10635398 |                     0 |       6684498 | 2017-02-04 20:04:48.025022+01

 2017-02-04 21:49:43.757803+01 | 1486241383.7578 |                 0 |              20 |                188375 |                 4118 |           17267894 |       1729461 |            15511 |        10635398 |                     0 |       6686243 | 2017-02-04 20:04:48.025022+01

 2017-02-04 21:49:44.840547+01 | 1486241384.84055 |                 0 |              20 |                188375 |                 4118 |           17267894 |       1729961 |            15516 |        10635398 |                     0 |       6687792 | 2017-02-04 20:04:48.025022+01

 2017-02-04 21:49:45.919629+01 | 1486241385.91963 |                 0 |              20 |                188375 |                 4118 |           17267894 |       1730561 |            15522 |        10635398 |                     0 |       6689717 | 2017-02-04 20:04:48.025022+01

 2017-02-04 21:49:47.000695+01 | 1486241387.00069 |                 0 |              20 |                188375 |                 4118 |           17267894 |       1731061 |            15527 |        10635398 |                     0 |       6691461 | 2017-02-04 20:04:48.025022+01

 2017-02-04 21:49:48.087081+01 | 1486241388.08708 |                 0 |              20 |                188375 |                 4118 |           17267894 |       1731561 |            15532 |        10635398 |                     0 |       6693017 | 2017-02-04 20:04:48.025022+01

 2017-02-04 21:49:49.173982+01 | 1486241389.17398 |                 0 |              20 |                188375 |                 4118 |           17267894 |       1732161 |            15538 |        10635398 |                     0 |       6694894 | 2017-02-04 20:04:48.025022+01

 2017-02-04 21:49:50.268225+01 | 1486241390.26822 |                 0 |              20 |                188375 |                 4118 |           17267894 |       1732661 |            15543 |        10635398 |                     0 |       6696467 | 2017-02-04 20:04:48.025022+01

 2017-02-04 21:49:51.358827+01 | 1486241391.35883 |                 0 |              20 |                188375 |                 4118 |           17267894 |       1733261 |            15549 |        10635398 |                     0 |       6698370 | 2017-02-04 20:04:48.025022+01

 2017-02-04 21:49:52.453151+01 | 1486241392.45315 |                 0 |              20 |                188375 |                 4118 |           17267894 |       1733761 |            15554 |        10635398 |                     0 |       6699929 | 2017-02-04 20:04:48.025022+01

 2017-02-04 21:49:53.541898+01 | 1486241393.5419 |                 0 |              20 |                188375 |                 4118 |           17267894 |       1734261 |            15559 |        10635398 |                     0 |       6701458 | 2017-02-04 20:04:48.025022+01

 2017-02-04 21:49:54.644725+01 | 1486241394.64473 |                 0 |              20 |                188375 |                 4118 |           17267894 |       1734861 |            15565 |        10635398 |                     0 |       6703472 | 2017-02-04 20:04:48.025022+01

 2017-02-04 21:49:55.73482+01 | 1486241395.73482 |                 0 |              20 |                188375 |                 4118 |           17267894 |       1735361 |            15570 |        10635398 |                     0 |       6705021 | 2017-02-04 20:04:48.025022+01

 2017-02-04 21:49:56.82819+01 | 1486241396.82819 |                 0 |              20 |                188375 |                 4118 |           17267894 |       1735961 |            15576 |        10635398 |                     0 |       6706851 | 2017-02-04 20:04:48.025022+01

 2017-02-04 21:49:57.927188+01 | 1486241397.92719 |                 0 |              20 |                188375 |                 4118 |           17267894 |       1736461 |            15581 |        10635398 |                     0 |       6708368 | 2017-02-04 20:04:48.025022+01

 2017-02-04 21:49:59.012971+01 | 1486241399.01297 |                 0 |              20 |                188375 |                 4118 |           17267894 |       1737061 |            15587 |        10635398 |                     0 |       6710247 | 2017-02-04 20:04:48.025022+01

 2017-02-04 21:50:00.100831+01 | 1486241400.10083 |                 0 |              20 |                188375 |                 4118 |           17267894 |       1737561 |            15592 |        10635398 |                     0 |       6711978 | 2017-02-04 20:04:48.025022+01

 2017-02-04 21:50:01.183414+01 | 1486241401.18341 |                 0 |              20 |                188375 |                 4118 |           17267894 |       1738061 |            15597 |        10635398 |                     0 |       6713627 | 2017-02-04 20:04:48.025022+01

 2017-02-04 21:50:02.274814+01 | 1486241402.27481 |                 0 |              20 |                188375 |                 4118 |           17267894 |       1738661 |            15603 |        10635398 |                     0 |       6715271 | 2017-02-04 20:04:48.025022+01

 2017-02-04 21:50:03.378285+01 | 1486241403.37828 |                 0 |              20 |                188375 |                 4118 |           17267894 |       1739161 |            15608 |        10635398 |                     0 |       6716755 | 2017-02-04 20:04:48.025022+01

 2017-02-04 21:50:04.48376+01 | 1486241404.48376 |                 0 |              20 |                188375 |                 4118 |           17267894 |       1739661 |            15613 |        10635398 |                     0 |       6718469 | 2017-02-04 20:04:48.025022+01

 2017-02-04 21:50:05.58354+01 | 1486241405.58354 |                 0 |              20 |                188375 |                 4118 |           17267894 |       1740261 |            15619 |        10635398 |                     0 |       6720151 | 2017-02-04 20:04:48.025022+01

 2017-02-04 21:50:06.679872+01 | 1486241406.67987 |                 0 |              20 |                188375 |                 4118 |           17267894 |       1740761 |            15624 |        10635398 |                     0 |       6721741 | 2017-02-04 20:04:48.025022+01

 2017-02-04 21:50:07.768664+01 | 1486241407.76866 |                 0 |              20 |                188375 |                 4118 |           17267894 |       1741361 |            15630 |        10635398 |                     0 |       6723727 | 2017-02-04 20:04:48.025022+01

 2017-02-04 21:50:08.858926+01 | 1486241408.85893 |                 0 |              20 |                188375 |                 4118 |           17267894 |       1741861 |            15635 |        10635398 |                     0 |       6725280 | 2017-02-04 20:04:48.025022+01

 2017-02-04 21:50:09.93939+01 | 1486241409.93939 |                 0 |              20 |                188375 |                 4118 |           17267894 |       1742461 |            15641 |        10635398 |                     0 |       6727295 | 2017-02-04 20:04:48.025022+01

 2017-02-04 21:50:11.022449+01 | 1486241411.02245 |                 0 |              20 |                188375 |                 4118 |           17267894 |       1742961 |            15646 |        10635398 |                     0 |       6728820 | 2017-02-04 20:04:48.025022+01

 2017-02-04 21:50:12.103778+01 | 1486241412.10378 |                 0 |              20 |                188375 |                 4118 |           17267894 |       1743461 |            15651 |        10635398 |                     0 |       6730672 | 2017-02-04 20:04:48.025022+01

 2017-02-04 21:50:13.186319+01 | 1486241413.18632 |                 0 |              20 |                188375 |                 4118 |           17267894 |       1744061 |            15657 |        10635398 |                     0 |       6732387 | 2017-02-04 20:04:48.025022+01

 2017-02-04 21:50:14.282607+01 | 1486241414.28261 |                 0 |              20 |                188375 |                 4118 |           17267894 |       1744561 |            15662 |        10635398 |                     0 |       6734063 | 2017-02-04 20:04:48.025022+01

 2017-02-04 21:50:15.385346+01 | 1486241415.38535 |                 0 |              20 |                188375 |                 4118 |           17267894 |       1745061 |            15667 |        10635398 |                     0 |       6735683 | 2017-02-04 20:04:48.025022+01

 2017-02-04 21:50:16.478162+01 | 1486241416.47816 |                 0 |              20 |                188375 |                 4118 |           17267894 |       1745661 |            15673 |        10635398 |                     0 |       6737557 | 2017-02-04 20:04:48.025022+01

 2017-02-04 21:50:17.578482+01 | 1486241417.57848 |                 0 |              20 |                188375 |                 4118 |           17267894 |       1746161 |            15678 |        10635398 |                     0 |       6739150 | 2017-02-04 20:04:48.025022+01

 2017-02-04 21:50:18.666127+01 | 1486241418.66613 |                 0 |              20 |                188375 |                 4118 |           17267894 |       1746761 |            15684 |        10635398 |                     0 |       6740984 | 2017-02-04 20:04:48.025022+01

 2017-02-04 21:50:19.756476+01 | 1486241419.75648 |                 0 |              20 |                188375 |                 4118 |           17267894 |       1747261 |            15689 |        10635398 |                     0 |       6742553 | 2017-02-04 20:04:48.025022+01

 2017-02-04 21:50:20.848685+01 | 1486241420.84869 |                 0 |              20 |                188375 |                 4118 |           17267894 |       1747861 |            15695 |        10635398 |                     0 |       6744550 | 2017-02-04 20:04:48.025022+01

 2017-02-04 21:50:21.930851+01 | 1486241421.93085 |                 0 |              20 |                188375 |                 4118 |           17267894 |       1748361 |            15700 |        10635398 |                     0 |       6746026 | 2017-02-04 20:04:48.025022+01

 2017-02-04 21:50:23.007689+01 | 1486241423.00769 |                 0 |              20 |                188375 |                 4118 |           17267894 |       1748861 |            15705 |        10635398 |                     0 |       6747545 | 2017-02-04 20:04:48.025022+01

 2017-02-04 21:50:24.098475+01 | 1486241424.09847 |                 0 |              20 |                188375 |                 4118 |           17267894 |       1749361 |            15710 |        10635398 |                     0 |       6749046 | 2017-02-04 20:04:48.025022+01

 2017-02-04 21:50:25.182366+01 | 1486241425.18237 |                 0 |              20 |                188375 |                 4118 |           17267894 |       1749961 |            15716 |        10635398 |                     0 |       6750935 | 2017-02-04 20:04:48.025022+01

 2017-02-04 21:50:26.271514+01 | 1486241426.27151 |                 0 |              20 |                188375 |                 4118 |           17267894 |       1750461 |            15721 |        10635398 |                     0 |       6752299 | 2017-02-04 20:04:48.025022+01

 2017-02-04 21:50:27.373901+01 | 1486241427.3739 |                 0 |              20 |                188375 |                 4118 |           17267894 |       1751061 |            15727 |        10635398 |                     0 |       6754077 | 2017-02-04 20:04:48.025022+01

 2017-02-04 21:50:28.472056+01 | 1486241428.47206 |                 0 |              20 |                188375 |                 4118 |           17267894 |       1751561 |            15732 |        10635398 |                     0 |       6755704 | 2017-02-04 20:04:48.025022+01

 2017-02-04 21:50:29.578117+01 | 1486241429.57812 |                 0 |              20 |                188375 |                 4118 |           17267894 |       1752061 |            15737 |        10635398 |                     0 |       6757325 | 2017-02-04 20:04:48.025022+01

 2017-02-04 21:50:30.676294+01 | 1486241430.67629 |                 0 |              20 |                188375 |                 4118 |           17267894 |       1752661 |            15743 |        10635398 |                     0 |       6759149 | 2017-02-04 20:04:48.025022+01

 2017-02-04 21:50:31.771433+01 | 1486241431.77143 |                 0 |              20 |                188375 |                 4118 |           17267894 |       1753161 |            15748 |        10635398 |                     0 |       6760565 | 2017-02-04 20:04:48.025022+01

 2017-02-04 21:50:32.862364+01 | 1486241432.86236 |                 0 |              20 |                188375 |                 4118 |           17267894 |       1753761 |            15754 |        10635398 |                     0 |       6762437 | 2017-02-04 20:04:48.025022+01

 2017-02-04 21:50:33.9442+01 | 1486241433.9442 |                 0 |              20 |                188375 |                 4118 |           17267894 |       1754261 |            15759 |        10635398 |                     0 |       6763822 | 2017-02-04 20:04:48.025022+01

 2017-02-04 21:50:35.030699+01 | 1486241435.0307 |                 0 |              20 |                188375 |                 4118 |           17267894 |       1754861 |            15765 |        10635398 |                     0 |       6765961 | 2017-02-04 20:04:48.025022+01

 2017-02-04 21:50:36.115161+01 | 1486241436.11516 |                 0 |              20 |                188375 |                 4118 |           17267894 |       1755361 |            15770 |        10635398 |                     0 |       6767629 | 2017-02-04 20:04:48.025022+01

 2017-02-04 21:50:37.195483+01 | 1486241437.19548 |                 0 |              20 |                188375 |                 4118 |           17267894 |       1755861 |            15775 |        10635398 |                     0 |       6768916 | 2017-02-04 20:04:48.025022+01

 2017-02-04 21:50:38.283765+01 | 1486241438.28377 |                 0 |              20 |                188375 |                 4118 |           17267894 |       1756461 |            15781 |        10635398 |                     0 |       6770755 | 2017-02-04 20:04:48.025022+01

 2017-02-04 21:50:39.37995+01 | 1486241439.37995 |                 0 |              20 |                188375 |                 4118 |           17267894 |       1756961 |            15786 |        10635398 |                     0 |       6772593 | 2017-02-04 20:04:48.025022+01

 2017-02-04 21:50:40.468364+01 | 1486241440.46836 |                 0 |              20 |                188375 |                 4118 |           17267894 |       1757461 |            15791 |        10635398 |                     0 |       6773818 | 2017-02-04 20:04:48.025022+01

 2017-02-04 21:50:41.563021+01 | 1486241441.56302 |                 0 |              20 |                188375 |                 4118 |           17267894 |       1758061 |            15797 |        10635398 |                     0 |       6775386 | 2017-02-04 20:04:48.025022+01

 2017-02-04 21:50:42.655069+01 | 1486241442.65507 |                 0 |              20 |                188375 |                 4118 |           17267894 |       1758561 |            15802 |        10635398 |                     0 |       6776750 | 2017-02-04 20:04:48.025022+01

 2017-02-04 21:50:43.74986+01 | 1486241443.74986 |                 0 |              20 |                188375 |                 4118 |           17267894 |       1759161 |            15808 |        10635398 |                     0 |       6778958 | 2017-02-04 20:04:48.025022+01

 2017-02-04 21:50:44.837831+01 | 1486241444.83783 |                 0 |              20 |                188375 |                 4118 |           17267894 |       1759661 |            15813 |        10635398 |                     0 |       6780120 | 2017-02-04 20:04:48.025022+01

 2017-02-04 21:50:45.926448+01 | 1486241445.92645 |                 0 |              20 |                188375 |                 4118 |           17267894 |       1760161 |            15818 |        10635398 |                     0 |       6781442 | 2017-02-04 20:04:48.025022+01

 2017-02-04 21:50:47.009748+01 | 1486241447.00975 |                 0 |              20 |                188375 |                 4118 |           17267894 |       1760761 |            15824 |        10635398 |                     0 |       6783419 | 2017-02-04 20:04:48.025022+01

 2017-02-04 21:50:48.094762+01 | 1486241448.09476 |                 0 |              20 |                188375 |                 4118 |           17267894 |       1761261 |            15829 |        10635398 |                     0 |       6784929 | 2017-02-04 20:04:48.025022+01

 2017-02-04 21:50:49.185639+01 | 1486241449.18564 |                 0 |              20 |                188375 |                 4118 |           17267894 |       1761761 |            15834 |        10635398 |                     0 |       6786547 | 2017-02-04 20:04:48.025022+01

 2017-02-04 21:50:50.269898+01 | 1486241450.2699 |                 0 |              20 |                188375 |                 4118 |           17267894 |       1762361 |            15840 |        10635398 |                     0 |       6788348 | 2017-02-04 20:04:48.025022+01

 2017-02-04 21:50:51.353619+01 | 1486241451.35362 |                 0 |              20 |                188375 |                 4118 |           17267894 |       1762861 |            15845 |        10635398 |                     0 |       6789905 | 2017-02-04 20:04:48.025022+01

 2017-02-04 21:50:52.446865+01 | 1486241452.44687 |                 0 |              20 |                188375 |                 4118 |           17267894 |       1763461 |            15851 |        10635398 |                     0 |       6791583 | 2017-02-04 20:04:48.025022+01

 2017-02-04 21:50:53.532995+01 | 1486241453.53299 |                 0 |              20 |                188375 |                 4118 |           17267894 |       1763961 |            15856 |        10635398 |                     0 |       6793261 | 2017-02-04 20:04:48.025022+01

 2017-02-04 21:50:54.6159+01 | 1486241454.6159 |                 0 |              20 |                188375 |                 4118 |           17267894 |       1764461 |            15861 |        10635398 |                     0 |       6794404 | 2017-02-04 20:04:48.025022+01

 2017-02-04 21:50:55.707228+01 | 1486241455.70723 |                 0 |              20 |                188375 |                 4118 |           17267894 |       1765061 |            15867 |        10635398 |                     0 |       6796115 | 2017-02-04 20:04:48.025022+01

 2017-02-04 21:50:56.790943+01 | 1486241456.79094 |                 0 |              20 |                188375 |                 4118 |           17267894 |       1765561 |            15872 |        10635398 |                     0 |       6797496 | 2017-02-04 20:04:48.025022+01

 2017-02-04 21:50:57.888484+01 | 1486241457.88848 |                 0 |              20 |                188375 |                 4118 |           17267894 |       1766061 |            15877 |        10635398 |                     0 |       6798965 | 2017-02-04 20:04:48.025022+01

 2017-02-04 21:50:58.962461+01 | 1486241458.96246 |                 0 |              20 |                188375 |                 4118 |           17267894 |       1766661 |            15883 |        10635398 |                     0 |       6800685 | 2017-02-04 20:04:48.025022+01

 2017-02-04 21:51:00.044739+01 | 1486241460.04474 |                 0 |              20 |                188375 |                 4118 |           17267894 |       1767161 |            15888 |        10635398 |                     0 |       6801878 | 2017-02-04 20:04:48.025022+01

 2017-02-04 21:51:01.123348+01 | 1486241461.12335 |                 0 |              20 |                188375 |                 4118 |           17267894 |       1767761 |            15894 |        10635398 |                     0 |       6803950 | 2017-02-04 20:04:48.025022+01

 2017-02-04 21:51:02.208166+01 | 1486241462.20817 |                 0 |              20 |                188375 |                 4118 |           17267894 |       1768261 |            15899 |        10635398 |                     0 |       6805203 | 2017-02-04 20:04:48.025022+01

 2017-02-04 21:51:03.293481+01 | 1486241463.29348 |                 0 |              20 |                188375 |                 4118 |           17267894 |       1768761 |            15904 |        10635398 |                     0 |       6806605 | 2017-02-04 20:04:48.025022+01

 2017-02-04 21:51:04.387958+01 | 1486241464.38796 |                 0 |              20 |                188375 |                 4118 |           17267894 |       1769361 |            15910 |        10635398 |                     0 |       6808064 | 2017-02-04 20:04:48.025022+01

 2017-02-04 21:51:05.477145+01 | 1486241465.47714 |                 0 |              20 |                188375 |                 4118 |           17267894 |       1769861 |            15915 |        10635398 |                     0 |       6809470 | 2017-02-04 20:04:48.025022+01

 2017-02-04 21:51:06.570034+01 | 1486241466.57003 |                 0 |              20 |                188375 |                 4118 |           17267894 |       1770361 |            15920 |        10635398 |                     0 |       6810831 | 2017-02-04 20:04:48.025022+01

 2017-02-04 21:51:07.658759+01 | 1486241467.65876 |                 0 |              20 |                188375 |                 4118 |           17267894 |       1770961 |            15926 |        10635398 |                     0 |       6812635 | 2017-02-04 20:04:48.025022+01

 2017-02-04 21:51:08.736126+01 | 1486241468.73613 |                 0 |              20 |                188375 |                 4118 |           17267894 |       1771461 |            15931 |        10635398 |                     0 |       6814369 | 2017-02-04 20:04:48.025022+01

 2017-02-04 21:51:09.829337+01 | 1486241469.82934 |                 0 |              20 |                188375 |                 4118 |           17267894 |       1772061 |            15937 |        10635398 |                     0 |       6816073 | 2017-02-04 20:04:48.025022+01

 2017-02-04 21:51:10.910004+01 | 1486241470.91 |                 0 |              20 |                188375 |                 4118 |           17267894 |       1772561 |            15942 |        10635398 |                     0 |       6817595 | 2017-02-04 20:04:48.025022+01

 2017-02-04 21:51:11.989835+01 | 1486241471.98984 |                 0 |              20 |                188375 |                 4118 |           17267894 |       1773061 |            15947 |        10635398 |                     0 |       6819178 | 2017-02-04 20:04:48.025022+01

 2017-02-04 21:51:13.0768+01 | 1486241473.0768 |                 0 |              20 |                188375 |                 4118 |           17267894 |       1773661 |            15953 |        10635398 |                     0 |       6821152 | 2017-02-04 20:04:48.025022+01

 2017-02-04 21:51:14.164776+01 | 1486241474.16478 |                 0 |              20 |                188375 |                 4118 |           17267894 |       1774161 |            15958 |        10635398 |                     0 |       6822625 | 2017-02-04 20:04:48.025022+01

 2017-02-04 21:51:15.251125+01 | 1486241475.25113 |                 0 |              20 |                188375 |                 4118 |           17267894 |       1774661 |            15963 |        10635398 |                     0 |       6824154 | 2017-02-04 20:04:48.025022+01

 2017-02-04 21:51:16.335588+01 | 1486241476.33559 |                 0 |              20 |                188375 |                 4118 |           17267894 |       1775261 |            15969 |        10635398 |                     0 |       6826094 | 2017-02-04 20:04:48.025022+01

 2017-02-04 21:51:17.439621+01 | 1486241477.43962 |                 0 |              20 |                188375 |                 4118 |           17267894 |       1775761 |            15974 |        10635398 |                     0 |       6827767 | 2017-02-04 20:04:48.025022+01

 2017-02-04 21:51:18.539563+01 | 1486241478.53956 |                 0 |              20 |                188375 |                 4118 |           17267894 |       1776361 |            15980 |        10635398 |                     0 |       6829507 | 2017-02-04 20:04:48.025022+01

 2017-02-04 21:51:19.630792+01 | 1486241479.63079 |                 0 |              20 |                188375 |                 4118 |           17267894 |       1776861 |            15985 |        10635398 |                     0 |       6831152 | 2017-02-04 20:04:48.025022+01

 2017-02-04 21:51:20.71998+01 | 1486241480.71998 |                 0 |              20 |                188375 |                 4118 |           17267894 |       1777361 |            15990 |        10635398 |                     0 |       6832684 | 2017-02-04 20:04:48.025022+01

 2017-02-04 21:51:21.809685+01 | 1486241481.80968 |                 0 |              20 |                188375 |                 4118 |           17267894 |       1777961 |            15996 |        10635398 |                     0 |       6834478 | 2017-02-04 20:04:48.025022+01

 2017-02-04 21:51:22.899954+01 | 1486241482.89995 |                 0 |              20 |                188375 |                 4118 |           17267894 |       1778461 |            16001 |        10635398 |                     0 |       6836040 | 2017-02-04 20:04:48.025022+01

 2017-02-04 21:51:23.983962+01 | 1486241483.98396 |                 0 |              20 |                188375 |                 4118 |           17267894 |       1779061 |            16007 |        10635398 |                     0 |       6837851 | 2017-02-04 20:04:48.025022+01

 2017-02-04 21:51:25.06914+01 | 1486241485.06914 |                 0 |              20 |                188375 |                 4118 |           17267894 |       1779561 |            16012 |        10635398 |                     0 |       6839377 | 2017-02-04 20:04:48.025022+01

 2017-02-04 21:51:26.15261+01 | 1486241486.15261 |                 0 |              20 |                188375 |                 4118 |           17267894 |       1780061 |            16017 |        10635398 |                     0 |       6840981 | 2017-02-04 20:04:48.025022+01

 2017-02-04 21:51:27.23338+01 | 1486241487.23338 |                 0 |              20 |                188375 |                 4118 |           17267894 |       1780661 |            16023 |        10635398 |                     0 |       6842802 | 2017-02-04 20:04:48.025022+01

 2017-02-04 21:51:28.29834+01 | 1486241488.29834 |                 0 |              20 |                188375 |                 4118 |           17267894 |       1781161 |            16028 |        10635398 |                     0 |       6844434 | 2017-02-04 20:04:48.025022+01

 2017-02-04 21:51:29.384785+01 | 1486241489.38478 |                 0 |              20 |                188375 |                 4118 |           17267894 |       1781661 |            16033 |        10635398 |                     0 |       6845766 | 2017-02-04 20:04:48.025022+01

 2017-02-04 21:51:30.482986+01 | 1486241490.48299 |                 0 |              20 |                188375 |                 4118 |           17267894 |       1782261 |            16039 |        10635398 |                     0 |       6847603 | 2017-02-04 20:04:48.025022+01

 2017-02-04 21:51:31.573962+01 | 1486241491.57396 |                 0 |              20 |                188375 |                 4118 |           17267894 |       1782761 |            16044 |        10635398 |                     0 |       6849133 | 2017-02-04 20:04:48.025022+01

 2017-02-04 21:51:32.664226+01 | 1486241492.66423 |                 0 |              20 |                188375 |                 4118 |           17267894 |       1783261 |            16049 |        10635398 |                     0 |       6850653 | 2017-02-04 20:04:48.025022+01

 2017-02-04 21:51:33.753807+01 | 1486241493.75381 |                 0 |              20 |                188375 |                 4118 |           17267894 |       1783861 |            16055 |        10635398 |                     0 |       6852636 | 2017-02-04 20:04:48.025022+01

 2017-02-04 21:51:34.849778+01 | 1486241494.84978 |                 0 |              20 |                188375 |                 4118 |           17267894 |       1784361 |            16060 |        10635398 |                     0 |       6854207 | 2017-02-04 20:04:48.025022+01

 2017-02-04 21:51:35.93069+01 | 1486241495.93069 |                 0 |              20 |                188375 |                 4118 |           17267894 |       1784961 |            16066 |        10635398 |                     0 |       6856225 | 2017-02-04 20:04:48.025022+01

 2017-02-04 21:51:37.012031+01 | 1486241497.01203 |                 0 |              20 |                188375 |                 4118 |           17267894 |       1785461 |            16071 |        10635398 |                     0 |       6857625 | 2017-02-04 20:04:48.025022+01

 2017-02-04 21:51:38.098874+01 | 1486241498.09887 |                 0 |              20 |                188375 |                 4118 |           17267894 |       1785961 |            16076 |        10635398 |                     0 |       6859290 | 2017-02-04 20:04:48.025022+01

 2017-02-04 21:51:39.188624+01 | 1486241499.18862 |                 0 |              20 |                188375 |                 4118 |           17267894 |       1786561 |            16082 |        10635398 |                     0 |       6861178 | 2017-02-04 20:04:48.025022+01

 2017-02-04 21:51:40.278655+01 | 1486241500.27866 |                 0 |              20 |                188375 |                 4118 |           17267894 |       1787061 |            16087 |        10635398 |                     0 |       6862930 | 2017-02-04 20:04:48.025022+01

 2017-02-04 21:51:41.365681+01 | 1486241501.36568 |                 0 |              20 |                188375 |                 4118 |           17267894 |       1787561 |            16092 |        10635398 |                     0 |       6864179 | 2017-02-04 20:04:48.025022+01

 2017-02-04 21:51:42.435402+01 | 1486241502.4354 |                 0 |              20 |                188375 |                 4118 |           17267894 |       1788161 |            16098 |        10635398 |                     0 |       6866096 | 2017-02-04 20:04:48.025022+01

 2017-02-04 21:51:43.516561+01 | 1486241503.51656 |                 0 |              20 |                188375 |                 4118 |           17267894 |       1788661 |            16103 |        10635398 |                     0 |       6867540 | 2017-02-04 20:04:48.025022+01

 2017-02-04 21:51:44.610159+01 | 1486241504.61016 |                 0 |              20 |                188375 |                 4118 |           17267894 |       1789161 |            16108 |        10635398 |                     0 |       6869049 | 2017-02-04 20:04:48.025022+01

 2017-02-04 21:51:45.704112+01 | 1486241505.70411 |                 0 |              20 |                188375 |                 4118 |           17267894 |       1789761 |            16114 |        10635398 |                     0 |       6870769 | 2017-02-04 20:04:48.025022+01

 2017-02-04 21:51:46.810012+01 | 1486241506.81001 |                 0 |              20 |                188375 |                 4118 |           17267894 |       1790261 |            16119 |        10635398 |                     0 |       6872355 | 2017-02-04 20:04:48.025022+01

 2017-02-04 21:51:47.900676+01 | 1486241507.90068 |                 0 |              20 |                188375 |                 4118 |           17267894 |       1790861 |            16125 |        10635398 |                     0 |       6874252 | 2017-02-04 20:04:48.025022+01

 2017-02-04 21:51:48.985746+01 | 1486241508.98575 |                 0 |              20 |                188375 |                 4118 |           17267894 |       1791361 |            16130 |        10635398 |                     0 |       6875640 | 2017-02-04 20:04:48.025022+01

 2017-02-04 21:51:50.079996+01 | 1486241510.08 |                 0 |              20 |                188375 |                 4118 |           17267894 |       1791861 |            16135 |        10635398 |                     0 |       6877431 | 2017-02-04 20:04:48.025022+01

 2017-02-04 21:51:51.167838+01 | 1486241511.16784 |                 0 |              20 |                188375 |                 4118 |           17267894 |       1792461 |            16141 |        10635398 |                     0 |       6878891 | 2017-02-04 20:04:48.025022+01

 2017-02-04 21:51:52.259324+01 | 1486241512.25932 |                 0 |              20 |                188375 |                 4118 |           17267894 |       1792961 |            16146 |        10635398 |                     0 |       6880304 | 2017-02-04 20:04:48.025022+01

 2017-02-04 21:51:53.342212+01 | 1486241513.34221 |                 0 |              20 |                188375 |                 4118 |           17267894 |       1793561 |            16152 |        10635398 |                     0 |       6881982 | 2017-02-04 20:04:48.025022+01

 2017-02-04 21:51:54.433439+01 | 1486241514.43344 |                 0 |              20 |                188375 |                 4118 |           17267894 |       1794061 |            16157 |        10635398 |                     0 |       6883321 | 2017-02-04 20:04:48.025022+01

 2017-02-04 21:51:55.51203+01 | 1486241515.51203 |                 0 |              20 |                188375 |                 4118 |           17267894 |       1794561 |            16162 |        10635398 |                     0 |       6884746 | 2017-02-04 20:04:48.025022+01

 2017-02-04 21:51:56.590802+01 | 1486241516.5908 |                 0 |              20 |                188375 |                 4118 |           17267894 |       1795161 |            16168 |        10635398 |                     0 |       6886559 | 2017-02-04 20:04:48.025022+01

 2017-02-04 21:51:57.689492+01 | 1486241517.68949 |                 0 |              20 |                188375 |                 4118 |           17267894 |       1795661 |            16173 |        10635398 |                     0 |       6888003 | 2017-02-04 20:04:48.025022+01

 2017-02-04 21:51:58.777514+01 | 1486241518.77751 |                 0 |              20 |                188375 |                 4118 |           17267894 |       1796161 |            16178 |        10635398 |                     0 |       6889652 | 2017-02-04 20:04:48.025022+01

 2017-02-04 21:51:59.865554+01 | 1486241519.86555 |                 0 |              20 |                188375 |                 4118 |           17267894 |       1796761 |            16184 |        10635398 |                     0 |       6891597 | 2017-02-04 20:04:48.025022+01

 2017-02-04 21:52:00.962858+01 | 1486241520.96286 |                 0 |              20 |                188375 |                 4118 |           17267894 |       1797261 |            16189 |        10635398 |                     0 |       6893073 | 2017-02-04 20:04:48.025022+01

 2017-02-04 21:52:02.050856+01 | 1486241522.05086 |                 0 |              20 |                188375 |                 4118 |           17267894 |       1797861 |            16195 |        10635398 |                     0 |       6894882 | 2017-02-04 20:04:48.025022+01

 2017-02-04 21:52:03.139977+01 | 1486241523.13998 |                 0 |              20 |                188375 |                 4118 |           17267894 |       1798361 |            16200 |        10635398 |                     0 |       6896431 | 2017-02-04 20:04:48.025022+01

 2017-02-04 21:52:04.217318+01 | 1486241524.21732 |                 0 |              20 |                188375 |                 4118 |           17267894 |       1798861 |            16205 |        10635398 |                     0 |       6898319 | 2017-02-04 20:04:48.025022+01

 2017-02-04 21:52:05.299695+01 | 1486241525.2997 |                 0 |              20 |                188375 |                 4118 |           17267894 |       1799461 |            16211 |        10635398 |                     0 |       6899819 | 2017-02-04 20:04:48.025022+01

 2017-02-04 21:52:06.389292+01 | 1486241526.38929 |                 0 |              20 |                188375 |                 4118 |           17267894 |       1799961 |            16216 |        10635398 |                     0 |       6901524 | 2017-02-04 20:04:48.025022+01

 2017-02-04 21:52:07.490491+01 | 1486241527.49049 |                 0 |              20 |                188375 |                 4118 |           17267894 |       1800461 |            16221 |        10635398 |                     0 |       6903032 | 2017-02-04 20:04:48.025022+01

 2017-02-04 21:52:08.577412+01 | 1486241528.57741 |                 0 |              20 |                188375 |                 4118 |           17267894 |       1801061 |            16227 |        10635398 |                     0 |       6904961 | 2017-02-04 20:04:48.025022+01

