 2017-02-05 20:14:20.946352+01 | 1486322060.94635 | pgbench_accounts |      13712957440
 2017-02-05 20:14:20.946352+01 | 1486322060.94635 | pgbench_tellers  |           450560
 2017-02-05 20:14:20.946352+01 | 1486322060.94635 | pgbench_history  |                0
 2017-02-05 20:14:20.946352+01 | 1486322060.94635 | pgbench_branches |            40960

 2017-02-05 20:14:22.040267+01 | 1486322062.04027 | pgbench_accounts |      13712957440
 2017-02-05 20:14:22.040267+01 | 1486322062.04027 | pgbench_tellers  |           450560
 2017-02-05 20:14:22.040267+01 | 1486322062.04027 | pgbench_history  |          2719744
 2017-02-05 20:14:22.040267+01 | 1486322062.04027 | pgbench_branches |            40960

 2017-02-05 20:14:23.117192+01 | 1486322063.11719 | pgbench_accounts |      13712957440
 2017-02-05 20:14:23.117192+01 | 1486322063.11719 | pgbench_tellers  |           450560
 2017-02-05 20:14:23.117192+01 | 1486322063.11719 | pgbench_history  |          4112384
 2017-02-05 20:14:23.117192+01 | 1486322063.11719 | pgbench_branches |            40960

 2017-02-05 20:14:24.195164+01 | 1486322064.19516 | pgbench_accounts |      13712957440
 2017-02-05 20:14:24.195164+01 | 1486322064.19516 | pgbench_tellers  |           450560
 2017-02-05 20:14:24.195164+01 | 1486322064.19516 | pgbench_history  |          7372800
 2017-02-05 20:14:24.195164+01 | 1486322064.19516 | pgbench_branches |            40960

 2017-02-05 20:14:25.272422+01 | 1486322065.27242 | pgbench_accounts |      13712957440
 2017-02-05 20:14:25.272422+01 | 1486322065.27242 | pgbench_tellers  |           450560
 2017-02-05 20:14:25.272422+01 | 1486322065.27242 | pgbench_history  |          9388032
 2017-02-05 20:14:25.272422+01 | 1486322065.27242 | pgbench_branches |            40960

 2017-02-05 20:14:26.354512+01 | 1486322066.35451 | pgbench_accounts |      13712957440
 2017-02-05 20:14:26.354512+01 | 1486322066.35451 | pgbench_tellers  |           450560
 2017-02-05 20:14:26.354512+01 | 1486322066.35451 | pgbench_history  |         11280384
 2017-02-05 20:14:26.354512+01 | 1486322066.35451 | pgbench_branches |            40960

 2017-02-05 20:14:27.435791+01 | 1486322067.43579 | pgbench_accounts |      13712957440
 2017-02-05 20:14:27.435791+01 | 1486322067.43579 | pgbench_tellers  |           450560
 2017-02-05 20:14:27.435791+01 | 1486322067.43579 | pgbench_history  |         14295040
 2017-02-05 20:14:27.435791+01 | 1486322067.43579 | pgbench_branches |            40960

 2017-02-05 20:14:28.511225+01 | 1486322068.51122 | pgbench_accounts |      13712957440
 2017-02-05 20:14:28.511225+01 | 1486322068.51122 | pgbench_tellers  |           450560
 2017-02-05 20:14:28.511225+01 | 1486322068.51122 | pgbench_history  |         16801792
 2017-02-05 20:14:28.511225+01 | 1486322068.51122 | pgbench_branches |            40960

 2017-02-05 20:14:29.590869+01 | 1486322069.59087 | pgbench_accounts |      13712957440
 2017-02-05 20:14:29.590869+01 | 1486322069.59087 | pgbench_tellers  |           450560
 2017-02-05 20:14:29.590869+01 | 1486322069.59087 | pgbench_history  |         19611648
 2017-02-05 20:14:29.590869+01 | 1486322069.59087 | pgbench_branches |            40960

 2017-02-05 20:14:30.66341+01 | 1486322070.66341 | pgbench_accounts |      13712957440
 2017-02-05 20:14:30.66341+01 | 1486322070.66341 | pgbench_tellers  |           450560
 2017-02-05 20:14:30.66341+01 | 1486322070.66341 | pgbench_history  |         22183936
 2017-02-05 20:14:30.66341+01 | 1486322070.66341 | pgbench_branches |            40960

 2017-02-05 20:14:31.732991+01 | 1486322071.73299 | pgbench_accounts |      13712957440
 2017-02-05 20:14:31.732991+01 | 1486322071.73299 | pgbench_tellers  |           450560
 2017-02-05 20:14:31.732991+01 | 1486322071.73299 | pgbench_history  |         24854528
 2017-02-05 20:14:31.732991+01 | 1486322071.73299 | pgbench_branches |            40960

 2017-02-05 20:14:32.810949+01 | 1486322072.81095 | pgbench_accounts |      13712957440
 2017-02-05 20:14:32.810949+01 | 1486322072.81095 | pgbench_tellers  |           450560
 2017-02-05 20:14:32.810949+01 | 1486322072.81095 | pgbench_history  |         27369472
 2017-02-05 20:14:32.810949+01 | 1486322072.81095 | pgbench_branches |            40960

 2017-02-05 20:14:33.886927+01 | 1486322073.88693 | pgbench_accounts |      13712957440
 2017-02-05 20:14:33.886927+01 | 1486322073.88693 | pgbench_tellers  |           450560
 2017-02-05 20:14:33.886927+01 | 1486322073.88693 | pgbench_history  |         31260672
 2017-02-05 20:14:33.886927+01 | 1486322073.88693 | pgbench_branches |            40960

 2017-02-05 20:14:34.960483+01 | 1486322074.96048 | pgbench_accounts |      13712957440
 2017-02-05 20:14:34.960483+01 | 1486322074.96048 | pgbench_tellers  |           450560
 2017-02-05 20:14:34.960483+01 | 1486322074.96048 | pgbench_history  |         32784384
 2017-02-05 20:14:34.960483+01 | 1486322074.96048 | pgbench_branches |            40960

 2017-02-05 20:14:36.036778+01 | 1486322076.03678 | pgbench_accounts |      13712957440
 2017-02-05 20:14:36.036778+01 | 1486322076.03678 | pgbench_tellers  |           450560
 2017-02-05 20:14:36.036778+01 | 1486322076.03678 | pgbench_history  |         36020224
 2017-02-05 20:14:36.036778+01 | 1486322076.03678 | pgbench_branches |            40960

 2017-02-05 20:14:37.117082+01 | 1486322077.11708 | pgbench_accounts |      13712957440
 2017-02-05 20:14:37.117082+01 | 1486322077.11708 | pgbench_tellers  |           450560
 2017-02-05 20:14:37.117082+01 | 1486322077.11708 | pgbench_history  |         39510016
 2017-02-05 20:14:37.117082+01 | 1486322077.11708 | pgbench_branches |            40960

 2017-02-05 20:14:38.191283+01 | 1486322078.19128 | pgbench_accounts |      13712957440
 2017-02-05 20:14:38.191283+01 | 1486322078.19128 | pgbench_tellers  |           450560
 2017-02-05 20:14:38.191283+01 | 1486322078.19128 | pgbench_history  |         41263104
 2017-02-05 20:14:38.191283+01 | 1486322078.19128 | pgbench_branches |            40960

 2017-02-05 20:14:39.272222+01 | 1486322079.27222 | pgbench_accounts |      13712957440
 2017-02-05 20:14:39.272222+01 | 1486322079.27222 | pgbench_tellers  |           450560
 2017-02-05 20:14:39.272222+01 | 1486322079.27222 | pgbench_history  |         44990464
 2017-02-05 20:14:39.272222+01 | 1486322079.27222 | pgbench_branches |            40960

 2017-02-05 20:14:40.343657+01 | 1486322080.34366 | pgbench_accounts |      13712957440
 2017-02-05 20:14:40.343657+01 | 1486322080.34366 | pgbench_tellers  |           450560
 2017-02-05 20:14:40.343657+01 | 1486322080.34366 | pgbench_history  |         47194112
 2017-02-05 20:14:40.343657+01 | 1486322080.34366 | pgbench_branches |            40960

 2017-02-05 20:14:41.421415+01 | 1486322081.42142 | pgbench_accounts |      13712957440
 2017-02-05 20:14:41.421415+01 | 1486322081.42142 | pgbench_tellers  |           450560
 2017-02-05 20:14:41.421415+01 | 1486322081.42142 | pgbench_history  |         50053120
 2017-02-05 20:14:41.421415+01 | 1486322081.42142 | pgbench_branches |            40960

 2017-02-05 20:14:42.498021+01 | 1486322082.49802 | pgbench_accounts |      13712957440
 2017-02-05 20:14:42.498021+01 | 1486322082.49802 | pgbench_tellers  |           450560
 2017-02-05 20:14:42.498021+01 | 1486322082.49802 | pgbench_history  |         53075968
 2017-02-05 20:14:42.498021+01 | 1486322082.49802 | pgbench_branches |            40960

 2017-02-05 20:14:43.577806+01 | 1486322083.57781 | pgbench_accounts |      13712957440
 2017-02-05 20:14:43.577806+01 | 1486322083.57781 | pgbench_tellers  |           450560
 2017-02-05 20:14:43.577806+01 | 1486322083.57781 | pgbench_history  |         56098816
 2017-02-05 20:14:43.577806+01 | 1486322083.57781 | pgbench_branches |            40960

 2017-02-05 20:14:44.658053+01 | 1486322084.65805 | pgbench_accounts |      13712957440
 2017-02-05 20:14:44.658053+01 | 1486322084.65805 | pgbench_tellers  |           450560
 2017-02-05 20:14:44.658053+01 | 1486322084.65805 | pgbench_history  |         58793984
 2017-02-05 20:14:44.658053+01 | 1486322084.65805 | pgbench_branches |            40960

 2017-02-05 20:14:45.736996+01 | 1486322085.737 | pgbench_accounts |      13712957440
 2017-02-05 20:14:45.736996+01 | 1486322085.737 | pgbench_tellers  |           450560
 2017-02-05 20:14:45.736996+01 | 1486322085.737 | pgbench_history  |         61980672
 2017-02-05 20:14:45.736996+01 | 1486322085.737 | pgbench_branches |            40960

 2017-02-05 20:14:46.812954+01 | 1486322086.81295 | pgbench_accounts |      13712957440
 2017-02-05 20:14:46.812954+01 | 1486322086.81295 | pgbench_tellers  |           450560
 2017-02-05 20:14:46.812954+01 | 1486322086.81295 | pgbench_history  |         64028672
 2017-02-05 20:14:46.812954+01 | 1486322086.81295 | pgbench_branches |            40960

 2017-02-05 20:14:47.888813+01 | 1486322087.88881 | pgbench_accounts |      13712957440
 2017-02-05 20:14:47.888813+01 | 1486322087.88881 | pgbench_tellers  |           450560
 2017-02-05 20:14:47.888813+01 | 1486322087.88881 | pgbench_history  |         66863104
 2017-02-05 20:14:47.888813+01 | 1486322087.88881 | pgbench_branches |            40960

 2017-02-05 20:14:48.964592+01 | 1486322088.96459 | pgbench_accounts |      13712957440
 2017-02-05 20:14:48.964592+01 | 1486322088.96459 | pgbench_tellers  |           450560
 2017-02-05 20:14:48.964592+01 | 1486322088.96459 | pgbench_history  |         69566464
 2017-02-05 20:14:48.964592+01 | 1486322088.96459 | pgbench_branches |            40960

 2017-02-05 20:14:50.044238+01 | 1486322090.04424 | pgbench_accounts |      13712957440
 2017-02-05 20:14:50.044238+01 | 1486322090.04424 | pgbench_tellers  |           450560
 2017-02-05 20:14:50.044238+01 | 1486322090.04424 | pgbench_history  |         72564736
 2017-02-05 20:14:50.044238+01 | 1486322090.04424 | pgbench_branches |            40960

 2017-02-05 20:14:51.132652+01 | 1486322091.13265 | pgbench_accounts |      13712957440
 2017-02-05 20:14:51.132652+01 | 1486322091.13265 | pgbench_tellers  |           450560
 2017-02-05 20:14:51.132652+01 | 1486322091.13265 | pgbench_history  |         75939840
 2017-02-05 20:14:51.132652+01 | 1486322091.13265 | pgbench_branches |            40960

 2017-02-05 20:14:52.215609+01 | 1486322092.21561 | pgbench_accounts |      13712957440
 2017-02-05 20:14:52.215609+01 | 1486322092.21561 | pgbench_tellers  |           450560
 2017-02-05 20:14:52.215609+01 | 1486322092.21561 | pgbench_history  |         78307328
 2017-02-05 20:14:52.215609+01 | 1486322092.21561 | pgbench_branches |            40960

 2017-02-05 20:14:53.292246+01 | 1486322093.29225 | pgbench_accounts |      13712957440
 2017-02-05 20:14:53.292246+01 | 1486322093.29225 | pgbench_tellers  |           450560
 2017-02-05 20:14:53.292246+01 | 1486322093.29225 | pgbench_history  |         82345984
 2017-02-05 20:14:53.292246+01 | 1486322093.29225 | pgbench_branches |            40960

 2017-02-05 20:14:54.367912+01 | 1486322094.36791 | pgbench_accounts |      13712957440
 2017-02-05 20:14:54.367912+01 | 1486322094.36791 | pgbench_tellers  |           450560
 2017-02-05 20:14:54.367912+01 | 1486322094.36791 | pgbench_history  |         82862080
 2017-02-05 20:14:54.367912+01 | 1486322094.36791 | pgbench_branches |            40960

 2017-02-05 20:14:55.443859+01 | 1486322095.44386 | pgbench_accounts |      13712957440
 2017-02-05 20:14:55.443859+01 | 1486322095.44386 | pgbench_tellers  |           450560
 2017-02-05 20:14:55.443859+01 | 1486322095.44386 | pgbench_history  |         85204992
 2017-02-05 20:14:55.443859+01 | 1486322095.44386 | pgbench_branches |            40960

 2017-02-05 20:14:56.521455+01 | 1486322096.52146 | pgbench_accounts |      13712957440
 2017-02-05 20:14:56.521455+01 | 1486322096.52146 | pgbench_tellers  |           450560
 2017-02-05 20:14:56.521455+01 | 1486322096.52146 | pgbench_history  |         87908352
 2017-02-05 20:14:56.521455+01 | 1486322096.52146 | pgbench_branches |            40960

 2017-02-05 20:14:57.595724+01 | 1486322097.59572 | pgbench_accounts |      13712957440
 2017-02-05 20:14:57.595724+01 | 1486322097.59572 | pgbench_tellers  |           450560
 2017-02-05 20:14:57.595724+01 | 1486322097.59572 | pgbench_history  |         91168768
 2017-02-05 20:14:57.595724+01 | 1486322097.59572 | pgbench_branches |            40960

 2017-02-05 20:14:58.672186+01 | 1486322098.67219 | pgbench_accounts |      13712957440
 2017-02-05 20:14:58.672186+01 | 1486322098.67219 | pgbench_tellers  |           450560
 2017-02-05 20:14:58.672186+01 | 1486322098.67219 | pgbench_history  |         93208576
 2017-02-05 20:14:58.672186+01 | 1486322098.67219 | pgbench_branches |            40960

 2017-02-05 20:14:59.745954+01 | 1486322099.74595 | pgbench_accounts |      13712957440
 2017-02-05 20:14:59.745954+01 | 1486322099.74595 | pgbench_tellers  |           450560
 2017-02-05 20:14:59.745954+01 | 1486322099.74595 | pgbench_history  |         96256000
 2017-02-05 20:14:59.745954+01 | 1486322099.74595 | pgbench_branches |            40960

 2017-02-05 20:15:00.821514+01 | 1486322100.82151 | pgbench_accounts |      13712957440
 2017-02-05 20:15:00.821514+01 | 1486322100.82151 | pgbench_tellers  |           450560
 2017-02-05 20:15:00.821514+01 | 1486322100.82151 | pgbench_history  |         98787328
 2017-02-05 20:15:00.821514+01 | 1486322100.82151 | pgbench_branches |            40960

 2017-02-05 20:15:01.89368+01 | 1486322101.89368 | pgbench_accounts |      13712957440
 2017-02-05 20:15:01.89368+01 | 1486322101.89368 | pgbench_tellers  |           450560
 2017-02-05 20:15:01.89368+01 | 1486322101.89368 | pgbench_history  |        101318656
 2017-02-05 20:15:01.89368+01 | 1486322101.89368 | pgbench_branches |            40960

 2017-02-05 20:15:02.967448+01 | 1486322102.96745 | pgbench_accounts |      13712957440
 2017-02-05 20:15:02.967448+01 | 1486322102.96745 | pgbench_tellers  |           450560
 2017-02-05 20:15:02.967448+01 | 1486322102.96745 | pgbench_history  |        104153088
 2017-02-05 20:15:02.967448+01 | 1486322102.96745 | pgbench_branches |            40960

 2017-02-05 20:15:04.040362+01 | 1486322104.04036 | pgbench_accounts |      13712957440
 2017-02-05 20:15:04.040362+01 | 1486322104.04036 | pgbench_tellers  |           450560
 2017-02-05 20:15:04.040362+01 | 1486322104.04036 | pgbench_history  |        106471424
 2017-02-05 20:15:04.040362+01 | 1486322104.04036 | pgbench_branches |            40960

 2017-02-05 20:15:05.117265+01 | 1486322105.11726 | pgbench_accounts |      13712957440
 2017-02-05 20:15:05.117265+01 | 1486322105.11726 | pgbench_tellers  |           450560
 2017-02-05 20:15:05.117265+01 | 1486322105.11726 | pgbench_history  |        109166592
 2017-02-05 20:15:05.117265+01 | 1486322105.11726 | pgbench_branches |            40960

 2017-02-05 20:15:06.189767+01 | 1486322106.18977 | pgbench_accounts |      13712957440
 2017-02-05 20:15:06.189767+01 | 1486322106.18977 | pgbench_tellers  |           450560
 2017-02-05 20:15:06.189767+01 | 1486322106.18977 | pgbench_history  |        111534080
 2017-02-05 20:15:06.189767+01 | 1486322106.18977 | pgbench_branches |            40960

 2017-02-05 20:15:07.267514+01 | 1486322107.26751 | pgbench_accounts |      13712957440
 2017-02-05 20:15:07.267514+01 | 1486322107.26751 | pgbench_tellers  |           450560
 2017-02-05 20:15:07.267514+01 | 1486322107.26751 | pgbench_history  |        113065984
 2017-02-05 20:15:07.267514+01 | 1486322107.26751 | pgbench_branches |            40960

 2017-02-05 20:15:08.340495+01 | 1486322108.3405 | pgbench_accounts |      13712957440
 2017-02-05 20:15:08.340495+01 | 1486322108.3405 | pgbench_tellers  |           450560
 2017-02-05 20:15:08.340495+01 | 1486322108.3405 | pgbench_history  |        116088832
 2017-02-05 20:15:08.340495+01 | 1486322108.3405 | pgbench_branches |            40960

 2017-02-05 20:15:09.415206+01 | 1486322109.41521 | pgbench_accounts |      13712957440
 2017-02-05 20:15:09.415206+01 | 1486322109.41521 | pgbench_tellers  |           450560
 2017-02-05 20:15:09.415206+01 | 1486322109.41521 | pgbench_history  |        118595584
 2017-02-05 20:15:09.415206+01 | 1486322109.41521 | pgbench_branches |            40960

 2017-02-05 20:15:10.49114+01 | 1486322110.49114 | pgbench_accounts |      13712957440
 2017-02-05 20:15:10.49114+01 | 1486322110.49114 | pgbench_tellers  |           450560
 2017-02-05 20:15:10.49114+01 | 1486322110.49114 | pgbench_history  |        120610816
 2017-02-05 20:15:10.49114+01 | 1486322110.49114 | pgbench_branches |            40960

 2017-02-05 20:15:11.566937+01 | 1486322111.56694 | pgbench_accounts |      13712957440
 2017-02-05 20:15:11.566937+01 | 1486322111.56694 | pgbench_tellers  |           450560
 2017-02-05 20:15:11.566937+01 | 1486322111.56694 | pgbench_history  |        123641856
 2017-02-05 20:15:11.566937+01 | 1486322111.56694 | pgbench_branches |            40960

 2017-02-05 20:15:12.639517+01 | 1486322112.63952 | pgbench_accounts |      13712957440
 2017-02-05 20:15:12.639517+01 | 1486322112.63952 | pgbench_tellers  |           450560
 2017-02-05 20:15:12.639517+01 | 1486322112.63952 | pgbench_history  |        127180800
 2017-02-05 20:15:12.639517+01 | 1486322112.63952 | pgbench_branches |            40960

 2017-02-05 20:15:13.724342+01 | 1486322113.72434 | pgbench_accounts |      13712957440
 2017-02-05 20:15:13.724342+01 | 1486322113.72434 | pgbench_tellers  |           450560
 2017-02-05 20:15:13.724342+01 | 1486322113.72434 | pgbench_history  |        129523712
 2017-02-05 20:15:13.724342+01 | 1486322113.72434 | pgbench_branches |            40960

 2017-02-05 20:15:14.802119+01 | 1486322114.80212 | pgbench_accounts |      13712957440
 2017-02-05 20:15:14.802119+01 | 1486322114.80212 | pgbench_tellers  |           450560
 2017-02-05 20:15:14.802119+01 | 1486322114.80212 | pgbench_history  |        131829760
 2017-02-05 20:15:14.802119+01 | 1486322114.80212 | pgbench_branches |            40960

 2017-02-05 20:15:15.877546+01 | 1486322115.87755 | pgbench_accounts |      13712957440
 2017-02-05 20:15:15.877546+01 | 1486322115.87755 | pgbench_tellers  |           450560
 2017-02-05 20:15:15.877546+01 | 1486322115.87755 | pgbench_history  |        137256960
 2017-02-05 20:15:15.877546+01 | 1486322115.87755 | pgbench_branches |            40960

 2017-02-05 20:15:16.955319+01 | 1486322116.95532 | pgbench_accounts |      13712957440
 2017-02-05 20:15:16.955319+01 | 1486322116.95532 | pgbench_tellers  |           450560
 2017-02-05 20:15:16.955319+01 | 1486322116.95532 | pgbench_history  |        138592256
 2017-02-05 20:15:16.955319+01 | 1486322116.95532 | pgbench_branches |            40960

 2017-02-05 20:15:18.029551+01 | 1486322118.02955 | pgbench_accounts |      13712957440
 2017-02-05 20:15:18.029551+01 | 1486322118.02955 | pgbench_tellers  |           450560
 2017-02-05 20:15:18.029551+01 | 1486322118.02955 | pgbench_history  |        140632064
 2017-02-05 20:15:18.029551+01 | 1486322118.02955 | pgbench_branches |            40960

 2017-02-05 20:15:19.105363+01 | 1486322119.10536 | pgbench_accounts |      13712957440
 2017-02-05 20:15:19.105363+01 | 1486322119.10536 | pgbench_tellers  |           450560
 2017-02-05 20:15:19.105363+01 | 1486322119.10536 | pgbench_history  |        143491072
 2017-02-05 20:15:19.105363+01 | 1486322119.10536 | pgbench_branches |            40960

 2017-02-05 20:15:20.181645+01 | 1486322120.18164 | pgbench_accounts |      13712957440
 2017-02-05 20:15:20.181645+01 | 1486322120.18164 | pgbench_tellers  |           450560
 2017-02-05 20:15:20.181645+01 | 1486322120.18164 | pgbench_history  |        147693568
 2017-02-05 20:15:20.181645+01 | 1486322120.18164 | pgbench_branches |            40960

 2017-02-05 20:15:21.258101+01 | 1486322121.2581 | pgbench_accounts |      13712957440
 2017-02-05 20:15:21.258101+01 | 1486322121.2581 | pgbench_tellers  |           450560
 2017-02-05 20:15:21.258101+01 | 1486322121.2581 | pgbench_history  |        149405696
 2017-02-05 20:15:21.258101+01 | 1486322121.2581 | pgbench_branches |            40960

 2017-02-05 20:15:22.331603+01 | 1486322122.3316 | pgbench_accounts |      13712957440
 2017-02-05 20:15:22.331603+01 | 1486322122.3316 | pgbench_tellers  |           450560
 2017-02-05 20:15:22.331603+01 | 1486322122.3316 | pgbench_history  |        154206208
 2017-02-05 20:15:22.331603+01 | 1486322122.3316 | pgbench_branches |            40960

 2017-02-05 20:15:23.40478+01 | 1486322123.40478 | pgbench_accounts |      13712957440
 2017-02-05 20:15:23.40478+01 | 1486322123.40478 | pgbench_tellers  |           450560
 2017-02-05 20:15:23.40478+01 | 1486322123.40478 | pgbench_history  |        155402240
 2017-02-05 20:15:23.40478+01 | 1486322123.40478 | pgbench_branches |            40960

 2017-02-05 20:15:24.485341+01 | 1486322124.48534 | pgbench_accounts |      13712957440
 2017-02-05 20:15:24.485341+01 | 1486322124.48534 | pgbench_tellers  |           450560
 2017-02-05 20:15:24.485341+01 | 1486322124.48534 | pgbench_history  |        161636352
 2017-02-05 20:15:24.485341+01 | 1486322124.48534 | pgbench_branches |            40960

 2017-02-05 20:15:25.563348+01 | 1486322125.56335 | pgbench_accounts |      13712957440
 2017-02-05 20:15:25.563348+01 | 1486322125.56335 | pgbench_tellers  |           450560
 2017-02-05 20:15:25.563348+01 | 1486322125.56335 | pgbench_history  |        161636352
 2017-02-05 20:15:25.563348+01 | 1486322125.56335 | pgbench_branches |            40960

 2017-02-05 20:15:26.637907+01 | 1486322126.63791 | pgbench_accounts |      13712957440
 2017-02-05 20:15:26.637907+01 | 1486322126.63791 | pgbench_tellers  |           450560
 2017-02-05 20:15:26.637907+01 | 1486322126.63791 | pgbench_history  |        164175872
 2017-02-05 20:15:26.637907+01 | 1486322126.63791 | pgbench_branches |            40960

 2017-02-05 20:15:27.715685+01 | 1486322127.71568 | pgbench_accounts |      13712957440
 2017-02-05 20:15:27.715685+01 | 1486322127.71568 | pgbench_tellers  |           450560
 2017-02-05 20:15:27.715685+01 | 1486322127.71568 | pgbench_history  |        166707200
 2017-02-05 20:15:27.715685+01 | 1486322127.71568 | pgbench_branches |            40960

 2017-02-05 20:15:28.788607+01 | 1486322128.78861 | pgbench_accounts |      13712957440
 2017-02-05 20:15:28.788607+01 | 1486322128.78861 | pgbench_tellers  |           450560
 2017-02-05 20:15:28.788607+01 | 1486322128.78861 | pgbench_history  |        169426944
 2017-02-05 20:15:28.788607+01 | 1486322128.78861 | pgbench_branches |            40960

 2017-02-05 20:15:29.86416+01 | 1486322129.86416 | pgbench_accounts |      13712957440
 2017-02-05 20:15:29.86416+01 | 1486322129.86416 | pgbench_tellers  |           450560
 2017-02-05 20:15:29.86416+01 | 1486322129.86416 | pgbench_history  |        172826624
 2017-02-05 20:15:29.86416+01 | 1486322129.86416 | pgbench_branches |            40960

 2017-02-05 20:15:30.943765+01 | 1486322130.94376 | pgbench_accounts |      13712957440
 2017-02-05 20:15:30.943765+01 | 1486322130.94376 | pgbench_tellers  |           450560
 2017-02-05 20:15:30.943765+01 | 1486322130.94376 | pgbench_history  |        174850048
 2017-02-05 20:15:30.943765+01 | 1486322130.94376 | pgbench_branches |            40960

 2017-02-05 20:15:32.019274+01 | 1486322132.01927 | pgbench_accounts |      13712957440
 2017-02-05 20:15:32.019274+01 | 1486322132.01927 | pgbench_tellers  |           450560
 2017-02-05 20:15:32.019274+01 | 1486322132.01927 | pgbench_history  |        177717248
 2017-02-05 20:15:32.019274+01 | 1486322132.01927 | pgbench_branches |            40960

 2017-02-05 20:15:33.095126+01 | 1486322133.09513 | pgbench_accounts |      13712957440
 2017-02-05 20:15:33.095126+01 | 1486322133.09513 | pgbench_tellers  |           450560
 2017-02-05 20:15:33.095126+01 | 1486322133.09513 | pgbench_history  |        180633600
 2017-02-05 20:15:33.095126+01 | 1486322133.09513 | pgbench_branches |            40960

 2017-02-05 20:15:34.171344+01 | 1486322134.17134 | pgbench_accounts |      13712957440
 2017-02-05 20:15:34.171344+01 | 1486322134.17134 | pgbench_tellers  |           450560
 2017-02-05 20:15:34.171344+01 | 1486322134.17134 | pgbench_history  |        184655872
 2017-02-05 20:15:34.171344+01 | 1486322134.17134 | pgbench_branches |            40960

 2017-02-05 20:15:35.246304+01 | 1486322135.2463 | pgbench_accounts |      13712957440
 2017-02-05 20:15:35.246304+01 | 1486322135.2463 | pgbench_tellers  |           450560
 2017-02-05 20:15:35.246304+01 | 1486322135.2463 | pgbench_history  |        187490304
 2017-02-05 20:15:35.246304+01 | 1486322135.2463 | pgbench_branches |            40960

 2017-02-05 20:15:36.321613+01 | 1486322136.32161 | pgbench_accounts |      13712957440
 2017-02-05 20:15:36.321613+01 | 1486322136.32161 | pgbench_tellers  |           450560
 2017-02-05 20:15:36.321613+01 | 1486322136.32161 | pgbench_history  |        191332352
 2017-02-05 20:15:36.321613+01 | 1486322136.32161 | pgbench_branches |            40960

 2017-02-05 20:15:37.404259+01 | 1486322137.40426 | pgbench_accounts |      13712957440
 2017-02-05 20:15:37.404259+01 | 1486322137.40426 | pgbench_tellers  |           450560
 2017-02-05 20:15:37.404259+01 | 1486322137.40426 | pgbench_history  |        192831488
 2017-02-05 20:15:37.404259+01 | 1486322137.40426 | pgbench_branches |            40960

 2017-02-05 20:15:38.482018+01 | 1486322138.48202 | pgbench_accounts |      13712957440
 2017-02-05 20:15:38.482018+01 | 1486322138.48202 | pgbench_tellers  |           450560
 2017-02-05 20:15:38.482018+01 | 1486322138.48202 | pgbench_history  |        195362816
 2017-02-05 20:15:38.482018+01 | 1486322138.48202 | pgbench_branches |            40960

 2017-02-05 20:15:39.557572+01 | 1486322139.55757 | pgbench_accounts |      13712957440
 2017-02-05 20:15:39.557572+01 | 1486322139.55757 | pgbench_tellers  |           450560
 2017-02-05 20:15:39.557572+01 | 1486322139.55757 | pgbench_history  |        198107136
 2017-02-05 20:15:39.557572+01 | 1486322139.55757 | pgbench_branches |            40960

 2017-02-05 20:15:40.633944+01 | 1486322140.63394 | pgbench_accounts |      13712957440
 2017-02-05 20:15:40.633944+01 | 1486322140.63394 | pgbench_tellers  |           450560
 2017-02-05 20:15:40.633944+01 | 1486322140.63394 | pgbench_history  |        200638464
 2017-02-05 20:15:40.633944+01 | 1486322140.63394 | pgbench_branches |            40960

 2017-02-05 20:15:41.709515+01 | 1486322141.70952 | pgbench_accounts |      13712957440
 2017-02-05 20:15:41.709515+01 | 1486322141.70952 | pgbench_tellers  |           450560
 2017-02-05 20:15:41.709515+01 | 1486322141.70952 | pgbench_history  |        203849728
 2017-02-05 20:15:41.709515+01 | 1486322141.70952 | pgbench_branches |            40960

 2017-02-05 20:15:42.787391+01 | 1486322142.78739 | pgbench_accounts |      13712957440
 2017-02-05 20:15:42.787391+01 | 1486322142.78739 | pgbench_tellers  |           450560
 2017-02-05 20:15:42.787391+01 | 1486322142.78739 | pgbench_history  |        206266368
 2017-02-05 20:15:42.787391+01 | 1486322142.78739 | pgbench_branches |            40960

 2017-02-05 20:15:43.866273+01 | 1486322143.86627 | pgbench_accounts |      13712957440
 2017-02-05 20:15:43.866273+01 | 1486322143.86627 | pgbench_tellers  |           450560
 2017-02-05 20:15:43.866273+01 | 1486322143.86627 | pgbench_history  |        209477632
 2017-02-05 20:15:43.866273+01 | 1486322143.86627 | pgbench_branches |            40960

 2017-02-05 20:15:44.942347+01 | 1486322144.94235 | pgbench_accounts |      13712957440
 2017-02-05 20:15:44.942347+01 | 1486322144.94235 | pgbench_tellers  |           450560
 2017-02-05 20:15:44.942347+01 | 1486322144.94235 | pgbench_history  |        212041728
 2017-02-05 20:15:44.942347+01 | 1486322144.94235 | pgbench_branches |            40960

 2017-02-05 20:15:46.011184+01 | 1486322146.01118 | pgbench_accounts |      13712957440
 2017-02-05 20:15:46.011184+01 | 1486322146.01118 | pgbench_tellers  |           450560
 2017-02-05 20:15:46.011184+01 | 1486322146.01118 | pgbench_history  |        214761472
 2017-02-05 20:15:46.011184+01 | 1486322146.01118 | pgbench_branches |            40960

 2017-02-05 20:15:47.089942+01 | 1486322147.08994 | pgbench_accounts |      13712957440
 2017-02-05 20:15:47.089942+01 | 1486322147.08994 | pgbench_tellers  |           450560
 2017-02-05 20:15:47.089942+01 | 1486322147.08994 | pgbench_history  |        218324992
 2017-02-05 20:15:47.089942+01 | 1486322147.08994 | pgbench_branches |            40960

 2017-02-05 20:15:48.165828+01 | 1486322148.16583 | pgbench_accounts |      13712957440
 2017-02-05 20:15:48.165828+01 | 1486322148.16583 | pgbench_tellers  |           450560
 2017-02-05 20:15:48.165828+01 | 1486322148.16583 | pgbench_history  |        220700672
 2017-02-05 20:15:48.165828+01 | 1486322148.16583 | pgbench_branches |            40960

 2017-02-05 20:15:49.236482+01 | 1486322149.23648 | pgbench_accounts |      13712957440
 2017-02-05 20:15:49.236482+01 | 1486322149.23648 | pgbench_tellers  |           450560
 2017-02-05 20:15:49.236482+01 | 1486322149.23648 | pgbench_history  |        223232000
 2017-02-05 20:15:49.236482+01 | 1486322149.23648 | pgbench_branches |            40960

 2017-02-05 20:15:50.313355+01 | 1486322150.31335 | pgbench_accounts |      13712957440
 2017-02-05 20:15:50.313355+01 | 1486322150.31335 | pgbench_tellers  |           450560
 2017-02-05 20:15:50.313355+01 | 1486322150.31335 | pgbench_history  |        226091008
 2017-02-05 20:15:50.313355+01 | 1486322150.31335 | pgbench_branches |            40960

 2017-02-05 20:15:51.388405+01 | 1486322151.38841 | pgbench_accounts |      13712957440
 2017-02-05 20:15:51.388405+01 | 1486322151.38841 | pgbench_tellers  |           450560
 2017-02-05 20:15:51.388405+01 | 1486322151.38841 | pgbench_history  |        228810752
 2017-02-05 20:15:51.388405+01 | 1486322151.38841 | pgbench_branches |            40960

 2017-02-05 20:15:52.466751+01 | 1486322152.46675 | pgbench_accounts |      13712957440
 2017-02-05 20:15:52.466751+01 | 1486322152.46675 | pgbench_tellers  |           450560
 2017-02-05 20:15:52.466751+01 | 1486322152.46675 | pgbench_history  |        232161280
 2017-02-05 20:15:52.466751+01 | 1486322152.46675 | pgbench_branches |            40960

 2017-02-05 20:15:53.544608+01 | 1486322153.54461 | pgbench_accounts |      13712957440
 2017-02-05 20:15:53.544608+01 | 1486322153.54461 | pgbench_tellers  |           450560
 2017-02-05 20:15:53.544608+01 | 1486322153.54461 | pgbench_history  |        236470272
 2017-02-05 20:15:53.544608+01 | 1486322153.54461 | pgbench_branches |            40960

 2017-02-05 20:15:54.623744+01 | 1486322154.62374 | pgbench_accounts |      13712957440
 2017-02-05 20:15:54.623744+01 | 1486322154.62374 | pgbench_tellers  |           450560
 2017-02-05 20:15:54.623744+01 | 1486322154.62374 | pgbench_history  |        238133248
 2017-02-05 20:15:54.623744+01 | 1486322154.62374 | pgbench_branches |            40960

 2017-02-05 20:15:55.69592+01 | 1486322155.69592 | pgbench_accounts |      13712957440
 2017-02-05 20:15:55.69592+01 | 1486322155.69592 | pgbench_tellers  |           450560
 2017-02-05 20:15:55.69592+01 | 1486322155.69592 | pgbench_history  |        239984640
 2017-02-05 20:15:55.69592+01 | 1486322155.69592 | pgbench_branches |            40960

 2017-02-05 20:15:56.77201+01 | 1486322156.77201 | pgbench_accounts |      13712957440
 2017-02-05 20:15:56.77201+01 | 1486322156.77201 | pgbench_tellers  |           450560
 2017-02-05 20:15:56.77201+01 | 1486322156.77201 | pgbench_history  |        243195904
 2017-02-05 20:15:56.77201+01 | 1486322156.77201 | pgbench_branches |            40960

 2017-02-05 20:15:57.84615+01 | 1486322157.84615 | pgbench_accounts |      13712957440
 2017-02-05 20:15:57.84615+01 | 1486322157.84615 | pgbench_tellers  |           450560
 2017-02-05 20:15:57.84615+01 | 1486322157.84615 | pgbench_history  |        246030336
 2017-02-05 20:15:57.84615+01 | 1486322157.84615 | pgbench_branches |            40960

 2017-02-05 20:15:58.921633+01 | 1486322158.92163 | pgbench_accounts |      13712957440
 2017-02-05 20:15:58.921633+01 | 1486322158.92163 | pgbench_tellers  |           450560
 2017-02-05 20:15:58.921633+01 | 1486322158.92163 | pgbench_history  |        248397824
 2017-02-05 20:15:58.921633+01 | 1486322158.92163 | pgbench_branches |            40960

 2017-02-05 20:16:00.002202+01 | 1486322160.0022 | pgbench_accounts |      13712957440
 2017-02-05 20:16:00.002202+01 | 1486322160.0022 | pgbench_tellers  |           450560
 2017-02-05 20:16:00.002202+01 | 1486322160.0022 | pgbench_history  |        251256832
 2017-02-05 20:16:00.002202+01 | 1486322160.0022 | pgbench_branches |            40960

 2017-02-05 20:16:01.084295+01 | 1486322161.0843 | pgbench_accounts |      13712957440
 2017-02-05 20:16:01.084295+01 | 1486322161.0843 | pgbench_tellers  |           450560
 2017-02-05 20:16:01.084295+01 | 1486322161.0843 | pgbench_history  |        254140416
 2017-02-05 20:16:01.084295+01 | 1486322161.0843 | pgbench_branches |            40960

 2017-02-05 20:16:02.160165+01 | 1486322162.16017 | pgbench_accounts |      13712957440
 2017-02-05 20:16:02.160165+01 | 1486322162.16017 | pgbench_tellers  |           450560
 2017-02-05 20:16:02.160165+01 | 1486322162.16017 | pgbench_history  |        257540096
 2017-02-05 20:16:02.160165+01 | 1486322162.16017 | pgbench_branches |            40960

 2017-02-05 20:16:03.235109+01 | 1486322163.23511 | pgbench_accounts |      13712957440
 2017-02-05 20:16:03.235109+01 | 1486322163.23511 | pgbench_tellers  |           450560
 2017-02-05 20:16:03.235109+01 | 1486322163.23511 | pgbench_history  |        259907584
 2017-02-05 20:16:03.235109+01 | 1486322163.23511 | pgbench_branches |            40960

 2017-02-05 20:16:04.312006+01 | 1486322164.31201 | pgbench_accounts |      13712957440
 2017-02-05 20:16:04.312006+01 | 1486322164.31201 | pgbench_tellers  |           450560
 2017-02-05 20:16:04.312006+01 | 1486322164.31201 | pgbench_history  |        263585792
 2017-02-05 20:16:04.312006+01 | 1486322164.31201 | pgbench_branches |            40960

 2017-02-05 20:16:05.385243+01 | 1486322165.38524 | pgbench_accounts |      13712957440
 2017-02-05 20:16:05.385243+01 | 1486322165.38524 | pgbench_tellers  |           450560
 2017-02-05 20:16:05.385243+01 | 1486322165.38524 | pgbench_history  |        266633216
 2017-02-05 20:16:05.385243+01 | 1486322165.38524 | pgbench_branches |            40960

 2017-02-05 20:16:06.463512+01 | 1486322166.46351 | pgbench_accounts |      13712957440
 2017-02-05 20:16:06.463512+01 | 1486322166.46351 | pgbench_tellers  |           450560
 2017-02-05 20:16:06.463512+01 | 1486322166.46351 | pgbench_history  |        268697600
 2017-02-05 20:16:06.463512+01 | 1486322166.46351 | pgbench_branches |            40960

 2017-02-05 20:16:07.539591+01 | 1486322167.53959 | pgbench_accounts |      13712957440
 2017-02-05 20:16:07.539591+01 | 1486322167.53959 | pgbench_tellers  |           450560
 2017-02-05 20:16:07.539591+01 | 1486322167.53959 | pgbench_history  |        272949248
 2017-02-05 20:16:07.539591+01 | 1486322167.53959 | pgbench_branches |            40960

 2017-02-05 20:16:08.617315+01 | 1486322168.61732 | pgbench_accounts |      13712957440
 2017-02-05 20:16:08.617315+01 | 1486322168.61732 | pgbench_tellers  |           450560
 2017-02-05 20:16:08.617315+01 | 1486322168.61732 | pgbench_history  |        275644416
 2017-02-05 20:16:08.617315+01 | 1486322168.61732 | pgbench_branches |            40960

 2017-02-05 20:16:09.694886+01 | 1486322169.69489 | pgbench_accounts |      13712957440
 2017-02-05 20:16:09.694886+01 | 1486322169.69489 | pgbench_tellers  |           450560
 2017-02-05 20:16:09.694886+01 | 1486322169.69489 | pgbench_history  |        277716992
 2017-02-05 20:16:09.694886+01 | 1486322169.69489 | pgbench_branches |            40960

 2017-02-05 20:16:10.769572+01 | 1486322170.76957 | pgbench_accounts |      13712957440
 2017-02-05 20:16:10.769572+01 | 1486322170.76957 | pgbench_tellers  |           450560
 2017-02-05 20:16:10.769572+01 | 1486322170.76957 | pgbench_history  |        281395200
 2017-02-05 20:16:10.769572+01 | 1486322170.76957 | pgbench_branches |            40960

 2017-02-05 20:16:11.841109+01 | 1486322171.84111 | pgbench_accounts |      13712957440
 2017-02-05 20:16:11.841109+01 | 1486322171.84111 | pgbench_tellers  |           450560
 2017-02-05 20:16:11.841109+01 | 1486322171.84111 | pgbench_history  |        283926528
 2017-02-05 20:16:11.841109+01 | 1486322171.84111 | pgbench_branches |            40960

 2017-02-05 20:16:12.91925+01 | 1486322172.91925 | pgbench_accounts |      13712957440
 2017-02-05 20:16:12.91925+01 | 1486322172.91925 | pgbench_tellers  |           450560
 2017-02-05 20:16:12.91925+01 | 1486322172.91925 | pgbench_history  |        286826496
 2017-02-05 20:16:12.91925+01 | 1486322172.91925 | pgbench_branches |            40960

 2017-02-05 20:16:13.997274+01 | 1486322173.99727 | pgbench_accounts |      13712957440
 2017-02-05 20:16:13.997274+01 | 1486322173.99727 | pgbench_tellers  |           450560
 2017-02-05 20:16:13.997274+01 | 1486322173.99727 | pgbench_history  |        290209792
 2017-02-05 20:16:13.997274+01 | 1486322173.99727 | pgbench_branches |            40960

 2017-02-05 20:16:15.073711+01 | 1486322175.07371 | pgbench_accounts |      13712957440
 2017-02-05 20:16:15.073711+01 | 1486322175.07371 | pgbench_tellers  |           450560
 2017-02-05 20:16:15.073711+01 | 1486322175.07371 | pgbench_history  |        293093376
 2017-02-05 20:16:15.073711+01 | 1486322175.07371 | pgbench_branches |            40960

 2017-02-05 20:16:16.155205+01 | 1486322176.15521 | pgbench_accounts |      13712957440
 2017-02-05 20:16:16.155205+01 | 1486322176.15521 | pgbench_tellers  |           450560
 2017-02-05 20:16:16.155205+01 | 1486322176.15521 | pgbench_history  |        295600128
 2017-02-05 20:16:16.155205+01 | 1486322176.15521 | pgbench_branches |            40960

 2017-02-05 20:16:17.231721+01 | 1486322177.23172 | pgbench_accounts |      13712957440
 2017-02-05 20:16:17.231721+01 | 1486322177.23172 | pgbench_tellers  |           450560
 2017-02-05 20:16:17.231721+01 | 1486322177.23172 | pgbench_history  |        299147264
 2017-02-05 20:16:17.231721+01 | 1486322177.23172 | pgbench_branches |            40960

 2017-02-05 20:16:18.306814+01 | 1486322178.30681 | pgbench_accounts |      13712957440
 2017-02-05 20:16:18.306814+01 | 1486322178.30681 | pgbench_tellers  |           450560
 2017-02-05 20:16:18.306814+01 | 1486322178.30681 | pgbench_history  |        303316992
 2017-02-05 20:16:18.306814+01 | 1486322178.30681 | pgbench_branches |            40960

 2017-02-05 20:16:19.387638+01 | 1486322179.38764 | pgbench_accounts |      13712957440
 2017-02-05 20:16:19.387638+01 | 1486322179.38764 | pgbench_tellers  |           450560
 2017-02-05 20:16:19.387638+01 | 1486322179.38764 | pgbench_history  |        304488448
 2017-02-05 20:16:19.387638+01 | 1486322179.38764 | pgbench_branches |            40960

 2017-02-05 20:16:20.468609+01 | 1486322180.46861 | pgbench_accounts |      13712957440
 2017-02-05 20:16:20.468609+01 | 1486322180.46861 | pgbench_tellers  |           450560
 2017-02-05 20:16:20.468609+01 | 1486322180.46861 | pgbench_history  |        307724288
 2017-02-05 20:16:20.468609+01 | 1486322180.46861 | pgbench_branches |            40960

 2017-02-05 20:16:21.545496+01 | 1486322181.5455 | pgbench_accounts |      13712957440
 2017-02-05 20:16:21.545496+01 | 1486322181.5455 | pgbench_tellers  |           450560
 2017-02-05 20:16:21.545496+01 | 1486322181.5455 | pgbench_history  |        310312960
 2017-02-05 20:16:21.545496+01 | 1486322181.5455 | pgbench_branches |            40960

 2017-02-05 20:16:22.624156+01 | 1486322182.62416 | pgbench_accounts |      13712957440
 2017-02-05 20:16:22.624156+01 | 1486322182.62416 | pgbench_tellers  |           450560
 2017-02-05 20:16:22.624156+01 | 1486322182.62416 | pgbench_history  |        313335808
 2017-02-05 20:16:22.624156+01 | 1486322182.62416 | pgbench_branches |            40960

 2017-02-05 20:16:23.69833+01 | 1486322183.69833 | pgbench_accounts |      13712957440
 2017-02-05 20:16:23.69833+01 | 1486322183.69833 | pgbench_tellers  |           450560
 2017-02-05 20:16:23.69833+01 | 1486322183.69833 | pgbench_history  |        315514880
 2017-02-05 20:16:23.69833+01 | 1486322183.69833 | pgbench_branches |            40960

 2017-02-05 20:16:24.774946+01 | 1486322184.77495 | pgbench_accounts |      13712957440
 2017-02-05 20:16:24.774946+01 | 1486322184.77495 | pgbench_tellers  |           450560
 2017-02-05 20:16:24.774946+01 | 1486322184.77495 | pgbench_history  |        318513152
 2017-02-05 20:16:24.774946+01 | 1486322184.77495 | pgbench_branches |            40960

 2017-02-05 20:16:25.851439+01 | 1486322185.85144 | pgbench_accounts |      13712957440
 2017-02-05 20:16:25.851439+01 | 1486322185.85144 | pgbench_tellers  |           450560
 2017-02-05 20:16:25.851439+01 | 1486322185.85144 | pgbench_history  |        321241088
 2017-02-05 20:16:25.851439+01 | 1486322185.85144 | pgbench_branches |            40960

 2017-02-05 20:16:26.934893+01 | 1486322186.93489 | pgbench_accounts |      13712957440
 2017-02-05 20:16:26.934893+01 | 1486322186.93489 | pgbench_tellers  |           450560
 2017-02-05 20:16:26.934893+01 | 1486322186.93489 | pgbench_history  |        324501504
 2017-02-05 20:16:26.934893+01 | 1486322186.93489 | pgbench_branches |            40960

 2017-02-05 20:16:28.013628+01 | 1486322188.01363 | pgbench_accounts |      13712957440
 2017-02-05 20:16:28.013628+01 | 1486322188.01363 | pgbench_tellers  |           450560
 2017-02-05 20:16:28.013628+01 | 1486322188.01363 | pgbench_history  |        327499776
 2017-02-05 20:16:28.013628+01 | 1486322188.01363 | pgbench_branches |            40960

 2017-02-05 20:16:29.08854+01 | 1486322189.08854 | pgbench_accounts |      13712957440
 2017-02-05 20:16:29.08854+01 | 1486322189.08854 | pgbench_tellers  |           450560
 2017-02-05 20:16:29.08854+01 | 1486322189.08854 | pgbench_history  |        330194944
 2017-02-05 20:16:29.08854+01 | 1486322189.08854 | pgbench_branches |            40960

 2017-02-05 20:16:30.165581+01 | 1486322190.16558 | pgbench_accounts |      13712957440
 2017-02-05 20:16:30.165581+01 | 1486322190.16558 | pgbench_tellers  |           450560
 2017-02-05 20:16:30.165581+01 | 1486322190.16558 | pgbench_history  |        335069184
 2017-02-05 20:16:30.165581+01 | 1486322190.16558 | pgbench_branches |            40960

 2017-02-05 20:16:31.247711+01 | 1486322191.24771 | pgbench_accounts |      13712957440
 2017-02-05 20:16:31.247711+01 | 1486322191.24771 | pgbench_tellers  |           450560
 2017-02-05 20:16:31.247711+01 | 1486322191.24771 | pgbench_history  |        335937536
 2017-02-05 20:16:31.247711+01 | 1486322191.24771 | pgbench_branches |            40960

 2017-02-05 20:16:32.328572+01 | 1486322192.32857 | pgbench_accounts |      13712957440
 2017-02-05 20:16:32.328572+01 | 1486322192.32857 | pgbench_tellers  |           450560
 2017-02-05 20:16:32.328572+01 | 1486322192.32857 | pgbench_history  |        338829312
 2017-02-05 20:16:32.328572+01 | 1486322192.32857 | pgbench_branches |            40960

 2017-02-05 20:16:33.399514+01 | 1486322193.39951 | pgbench_accounts |      13712957440
 2017-02-05 20:16:33.399514+01 | 1486322193.39951 | pgbench_tellers  |           450560
 2017-02-05 20:16:33.399514+01 | 1486322193.39951 | pgbench_history  |        342073344
 2017-02-05 20:16:33.399514+01 | 1486322193.39951 | pgbench_branches |            40960

 2017-02-05 20:16:34.476476+01 | 1486322194.47648 | pgbench_accounts |      13712957440
 2017-02-05 20:16:34.476476+01 | 1486322194.47648 | pgbench_tellers  |           450560
 2017-02-05 20:16:34.476476+01 | 1486322194.47648 | pgbench_history  |        345235456
 2017-02-05 20:16:34.476476+01 | 1486322194.47648 | pgbench_branches |            40960

 2017-02-05 20:16:35.551935+01 | 1486322195.55193 | pgbench_accounts |      13712957440
 2017-02-05 20:16:35.551935+01 | 1486322195.55193 | pgbench_tellers  |           450560
 2017-02-05 20:16:35.551935+01 | 1486322195.55193 | pgbench_history  |        347791360
 2017-02-05 20:16:35.551935+01 | 1486322195.55193 | pgbench_branches |            40960

 2017-02-05 20:16:36.630211+01 | 1486322196.63021 | pgbench_accounts |      13712957440
 2017-02-05 20:16:36.630211+01 | 1486322196.63021 | pgbench_tellers  |           450560
 2017-02-05 20:16:36.630211+01 | 1486322196.63021 | pgbench_history  |        351199232
 2017-02-05 20:16:36.630211+01 | 1486322196.63021 | pgbench_branches |            40960

 2017-02-05 20:16:37.70841+01 | 1486322197.70841 | pgbench_accounts |      13712957440
 2017-02-05 20:16:37.70841+01 | 1486322197.70841 | pgbench_tellers  |           450560
 2017-02-05 20:16:37.70841+01 | 1486322197.70841 | pgbench_history  |        353591296
 2017-02-05 20:16:37.70841+01 | 1486322197.70841 | pgbench_branches |            40960

 2017-02-05 20:16:38.786266+01 | 1486322198.78627 | pgbench_accounts |      13712957440
 2017-02-05 20:16:38.786266+01 | 1486322198.78627 | pgbench_tellers  |           450560
 2017-02-05 20:16:38.786266+01 | 1486322198.78627 | pgbench_history  |        356851712
 2017-02-05 20:16:38.786266+01 | 1486322198.78627 | pgbench_branches |            40960

 2017-02-05 20:16:39.863441+01 | 1486322199.86344 | pgbench_accounts |      13712957440
 2017-02-05 20:16:39.863441+01 | 1486322199.86344 | pgbench_tellers  |           450560
 2017-02-05 20:16:39.863441+01 | 1486322199.86344 | pgbench_history  |        359292928
 2017-02-05 20:16:39.863441+01 | 1486322199.86344 | pgbench_branches |            40960

 2017-02-05 20:16:40.941317+01 | 1486322200.94132 | pgbench_accounts |      13712957440
 2017-02-05 20:16:40.941317+01 | 1486322200.94132 | pgbench_tellers  |           450560
 2017-02-05 20:16:40.941317+01 | 1486322200.94132 | pgbench_history  |        362151936
 2017-02-05 20:16:40.941317+01 | 1486322200.94132 | pgbench_branches |            40960

 2017-02-05 20:16:42.01822+01 | 1486322202.01822 | pgbench_accounts |      13712957440
 2017-02-05 20:16:42.01822+01 | 1486322202.01822 | pgbench_tellers  |           450560
 2017-02-05 20:16:42.01822+01 | 1486322202.01822 | pgbench_history  |        365174784
 2017-02-05 20:16:42.01822+01 | 1486322202.01822 | pgbench_branches |            40960

 2017-02-05 20:16:43.094305+01 | 1486322203.09431 | pgbench_accounts |      13712957440
 2017-02-05 20:16:43.094305+01 | 1486322203.09431 | pgbench_tellers  |           450560
 2017-02-05 20:16:43.094305+01 | 1486322203.09431 | pgbench_history  |        368689152
 2017-02-05 20:16:43.094305+01 | 1486322203.09431 | pgbench_branches |            40960

 2017-02-05 20:16:44.171073+01 | 1486322204.17107 | pgbench_accounts |      13712957440
 2017-02-05 20:16:44.171073+01 | 1486322204.17107 | pgbench_tellers  |           450560
 2017-02-05 20:16:44.171073+01 | 1486322204.17107 | pgbench_history  |        371081216
 2017-02-05 20:16:44.171073+01 | 1486322204.17107 | pgbench_branches |            40960

 2017-02-05 20:16:45.245452+01 | 1486322205.24545 | pgbench_accounts |      13712957440
 2017-02-05 20:16:45.245452+01 | 1486322205.24545 | pgbench_tellers  |           450560
 2017-02-05 20:16:45.245452+01 | 1486322205.24545 | pgbench_history  |        374923264
 2017-02-05 20:16:45.245452+01 | 1486322205.24545 | pgbench_branches |            40960

 2017-02-05 20:16:46.312497+01 | 1486322206.3125 | pgbench_accounts |      13712957440
 2017-02-05 20:16:46.312497+01 | 1486322206.3125 | pgbench_tellers  |           450560
 2017-02-05 20:16:46.312497+01 | 1486322206.3125 | pgbench_history  |        376496128
 2017-02-05 20:16:46.312497+01 | 1486322206.3125 | pgbench_branches |            40960

 2017-02-05 20:16:47.387199+01 | 1486322207.3872 | pgbench_accounts |      13712957440
 2017-02-05 20:16:47.387199+01 | 1486322207.3872 | pgbench_tellers  |           450560
 2017-02-05 20:16:47.387199+01 | 1486322207.3872 | pgbench_history  |        379871232
 2017-02-05 20:16:47.387199+01 | 1486322207.3872 | pgbench_branches |            40960

 2017-02-05 20:16:48.472112+01 | 1486322208.47211 | pgbench_accounts |      13712957440
 2017-02-05 20:16:48.472112+01 | 1486322208.47211 | pgbench_tellers  |           450560
 2017-02-05 20:16:48.472112+01 | 1486322208.47211 | pgbench_history  |        382091264
 2017-02-05 20:16:48.472112+01 | 1486322208.47211 | pgbench_branches |            40960

 2017-02-05 20:16:49.54069+01 | 1486322209.54069 | pgbench_accounts |      13712957440
 2017-02-05 20:16:49.54069+01 | 1486322209.54069 | pgbench_tellers  |           450560
 2017-02-05 20:16:49.54069+01 | 1486322209.54069 | pgbench_history  |        386564096
 2017-02-05 20:16:49.54069+01 | 1486322209.54069 | pgbench_branches |            40960

 2017-02-05 20:16:50.618209+01 | 1486322210.61821 | pgbench_accounts |      13712957440
 2017-02-05 20:16:50.618209+01 | 1486322210.61821 | pgbench_tellers  |           450560
 2017-02-05 20:16:50.618209+01 | 1486322210.61821 | pgbench_history  |        387776512
 2017-02-05 20:16:50.618209+01 | 1486322210.61821 | pgbench_branches |            40960

 2017-02-05 20:16:51.692368+01 | 1486322211.69237 | pgbench_accounts |      13712957440
 2017-02-05 20:16:51.692368+01 | 1486322211.69237 | pgbench_tellers  |           450560
 2017-02-05 20:16:51.692368+01 | 1486322211.69237 | pgbench_history  |        390643712
 2017-02-05 20:16:51.692368+01 | 1486322211.69237 | pgbench_branches |            40960

 2017-02-05 20:16:52.776323+01 | 1486322212.77632 | pgbench_accounts |      13712957440
 2017-02-05 20:16:52.776323+01 | 1486322212.77632 | pgbench_tellers  |           450560
 2017-02-05 20:16:52.776323+01 | 1486322212.77632 | pgbench_history  |        395001856
 2017-02-05 20:16:52.776323+01 | 1486322212.77632 | pgbench_branches |            40960

 2017-02-05 20:16:53.86422+01 | 1486322213.86422 | pgbench_accounts |      13712957440
 2017-02-05 20:16:53.86422+01 | 1486322213.86422 | pgbench_tellers  |           450560
 2017-02-05 20:16:53.86422+01 | 1486322213.86422 | pgbench_history  |        396173312
 2017-02-05 20:16:53.86422+01 | 1486322213.86422 | pgbench_branches |            40960

 2017-02-05 20:16:54.94246+01 | 1486322214.94246 | pgbench_accounts |      13712957440
 2017-02-05 20:16:54.94246+01 | 1486322214.94246 | pgbench_tellers  |           450560
 2017-02-05 20:16:54.94246+01 | 1486322214.94246 | pgbench_history  |        400547840
 2017-02-05 20:16:54.94246+01 | 1486322214.94246 | pgbench_branches |            40960

 2017-02-05 20:16:56.01929+01 | 1486322216.01929 | pgbench_accounts |      13712957440
 2017-02-05 20:16:56.01929+01 | 1486322216.01929 | pgbench_tellers  |           450560
 2017-02-05 20:16:56.01929+01 | 1486322216.01929 | pgbench_history  |        402587648
 2017-02-05 20:16:56.01929+01 | 1486322216.01929 | pgbench_branches |            40960

 2017-02-05 20:16:57.092691+01 | 1486322217.09269 | pgbench_accounts |      13712957440
 2017-02-05 20:16:57.092691+01 | 1486322217.09269 | pgbench_tellers  |           450560
 2017-02-05 20:16:57.092691+01 | 1486322217.09269 | pgbench_history  |        406462464
 2017-02-05 20:16:57.092691+01 | 1486322217.09269 | pgbench_branches |            40960

 2017-02-05 20:16:58.166917+01 | 1486322218.16692 | pgbench_accounts |      13712957440
 2017-02-05 20:16:58.166917+01 | 1486322218.16692 | pgbench_tellers  |           450560
 2017-02-05 20:16:58.166917+01 | 1486322218.16692 | pgbench_history  |        408190976
 2017-02-05 20:16:58.166917+01 | 1486322218.16692 | pgbench_branches |            40960

 2017-02-05 20:16:59.239637+01 | 1486322219.23964 | pgbench_accounts |      13712957440
 2017-02-05 20:16:59.239637+01 | 1486322219.23964 | pgbench_tellers  |           450560
 2017-02-05 20:16:59.239637+01 | 1486322219.23964 | pgbench_history  |        411574272
 2017-02-05 20:16:59.239637+01 | 1486322219.23964 | pgbench_branches |            40960

 2017-02-05 20:17:00.316469+01 | 1486322220.31647 | pgbench_accounts |      13712957440
 2017-02-05 20:17:00.316469+01 | 1486322220.31647 | pgbench_tellers  |           450560
 2017-02-05 20:17:00.316469+01 | 1486322220.31647 | pgbench_history  |        414597120
 2017-02-05 20:17:00.316469+01 | 1486322220.31647 | pgbench_branches |            40960

 2017-02-05 20:17:01.398807+01 | 1486322221.39881 | pgbench_accounts |      13712957440
 2017-02-05 20:17:01.398807+01 | 1486322221.39881 | pgbench_tellers  |           450560
 2017-02-05 20:17:01.398807+01 | 1486322221.39881 | pgbench_history  |        416636928
 2017-02-05 20:17:01.398807+01 | 1486322221.39881 | pgbench_branches |            40960

 2017-02-05 20:17:02.473453+01 | 1486322222.47345 | pgbench_accounts |      13712957440
 2017-02-05 20:17:02.473453+01 | 1486322222.47345 | pgbench_tellers  |           450560
 2017-02-05 20:17:02.473453+01 | 1486322222.47345 | pgbench_history  |        420945920
 2017-02-05 20:17:02.473453+01 | 1486322222.47345 | pgbench_branches |            40960

 2017-02-05 20:17:03.54745+01 | 1486322223.54745 | pgbench_accounts |      13712957440
 2017-02-05 20:17:03.54745+01 | 1486322223.54745 | pgbench_tellers  |           450560
 2017-02-05 20:17:03.54745+01 | 1486322223.54745 | pgbench_history  |        422846464
 2017-02-05 20:17:03.54745+01 | 1486322223.54745 | pgbench_branches |            40960

 2017-02-05 20:17:04.627278+01 | 1486322224.62728 | pgbench_accounts |      13712957440
 2017-02-05 20:17:04.627278+01 | 1486322224.62728 | pgbench_tellers  |           450560
 2017-02-05 20:17:04.627278+01 | 1486322224.62728 | pgbench_history  |        425730048
 2017-02-05 20:17:04.627278+01 | 1486322224.62728 | pgbench_branches |            40960

 2017-02-05 20:17:05.706999+01 | 1486322225.707 | pgbench_accounts |      13712957440
 2017-02-05 20:17:05.706999+01 | 1486322225.707 | pgbench_tellers  |           450560
 2017-02-05 20:17:05.706999+01 | 1486322225.707 | pgbench_history  |        429940736
 2017-02-05 20:17:05.706999+01 | 1486322225.707 | pgbench_branches |            40960

 2017-02-05 20:17:06.794385+01 | 1486322226.79438 | pgbench_accounts |      13712957440
 2017-02-05 20:17:06.794385+01 | 1486322226.79438 | pgbench_tellers  |           450560
 2017-02-05 20:17:06.794385+01 | 1486322226.79438 | pgbench_history  |        432750592
 2017-02-05 20:17:06.794385+01 | 1486322226.79438 | pgbench_branches |            40960

 2017-02-05 20:17:07.870961+01 | 1486322227.87096 | pgbench_accounts |      13712957440
 2017-02-05 20:17:07.870961+01 | 1486322227.87096 | pgbench_tellers  |           450560
 2017-02-05 20:17:07.870961+01 | 1486322227.87096 | pgbench_history  |        434601984
 2017-02-05 20:17:07.870961+01 | 1486322227.87096 | pgbench_branches |            40960

 2017-02-05 20:17:08.948479+01 | 1486322228.94848 | pgbench_accounts |      13712957440
 2017-02-05 20:17:08.948479+01 | 1486322228.94848 | pgbench_tellers  |           450560
 2017-02-05 20:17:08.948479+01 | 1486322228.94848 | pgbench_history  |        437272576
 2017-02-05 20:17:08.948479+01 | 1486322228.94848 | pgbench_branches |            40960

 2017-02-05 20:17:10.021039+01 | 1486322230.02104 | pgbench_accounts |      13712957440
 2017-02-05 20:17:10.021039+01 | 1486322230.02104 | pgbench_tellers  |           450560
 2017-02-05 20:17:10.021039+01 | 1486322230.02104 | pgbench_history  |        440000512
 2017-02-05 20:17:10.021039+01 | 1486322230.02104 | pgbench_branches |            40960

 2017-02-05 20:17:11.099638+01 | 1486322231.09964 | pgbench_accounts |      13712957440
 2017-02-05 20:17:11.099638+01 | 1486322231.09964 | pgbench_tellers  |           450560
 2017-02-05 20:17:11.099638+01 | 1486322231.09964 | pgbench_history  |        443539456
 2017-02-05 20:17:11.099638+01 | 1486322231.09964 | pgbench_branches |            40960

 2017-02-05 20:17:12.17894+01 | 1486322232.17894 | pgbench_accounts |      13712957440
 2017-02-05 20:17:12.17894+01 | 1486322232.17894 | pgbench_tellers  |           450560
 2017-02-05 20:17:12.17894+01 | 1486322232.17894 | pgbench_history  |        445718528
 2017-02-05 20:17:12.17894+01 | 1486322232.17894 | pgbench_branches |            40960

 2017-02-05 20:17:13.257918+01 | 1486322233.25792 | pgbench_accounts |      13712957440
 2017-02-05 20:17:13.257918+01 | 1486322233.25792 | pgbench_tellers  |           450560
 2017-02-05 20:17:13.257918+01 | 1486322233.25792 | pgbench_history  |        449421312
 2017-02-05 20:17:13.257918+01 | 1486322233.25792 | pgbench_branches |            40960

 2017-02-05 20:17:14.338325+01 | 1486322234.33833 | pgbench_accounts |      13712957440
 2017-02-05 20:17:14.338325+01 | 1486322234.33833 | pgbench_tellers  |           450560
 2017-02-05 20:17:14.338325+01 | 1486322234.33833 | pgbench_history  |        451272704
 2017-02-05 20:17:14.338325+01 | 1486322234.33833 | pgbench_branches |            40960

 2017-02-05 20:17:15.419461+01 | 1486322235.41946 | pgbench_accounts |      13712957440
 2017-02-05 20:17:15.419461+01 | 1486322235.41946 | pgbench_tellers  |           450560
 2017-02-05 20:17:15.419461+01 | 1486322235.41946 | pgbench_history  |        454320128
 2017-02-05 20:17:15.419461+01 | 1486322235.41946 | pgbench_branches |            40960

 2017-02-05 20:17:16.500504+01 | 1486322236.5005 | pgbench_accounts |      13712957440
 2017-02-05 20:17:16.500504+01 | 1486322236.5005 | pgbench_tellers  |           450560
 2017-02-05 20:17:16.500504+01 | 1486322236.5005 | pgbench_history  |        457154560
 2017-02-05 20:17:16.500504+01 | 1486322236.5005 | pgbench_branches |            40960

 2017-02-05 20:17:17.582429+01 | 1486322237.58243 | pgbench_accounts |      13712957440
 2017-02-05 20:17:17.582429+01 | 1486322237.58243 | pgbench_tellers  |           450560
 2017-02-05 20:17:17.582429+01 | 1486322237.58243 | pgbench_history  |        461324288
 2017-02-05 20:17:17.582429+01 | 1486322237.58243 | pgbench_branches |            40960

 2017-02-05 20:17:18.659902+01 | 1486322238.6599 | pgbench_accounts |      13712957440
 2017-02-05 20:17:18.659902+01 | 1486322238.6599 | pgbench_tellers  |           450560
 2017-02-05 20:17:18.659902+01 | 1486322238.6599 | pgbench_history  |        462356480
 2017-02-05 20:17:18.659902+01 | 1486322238.6599 | pgbench_branches |            40960

 2017-02-05 20:17:19.737731+01 | 1486322239.73773 | pgbench_accounts |      13712957440
 2017-02-05 20:17:19.737731+01 | 1486322239.73773 | pgbench_tellers  |           450560
 2017-02-05 20:17:19.737731+01 | 1486322239.73773 | pgbench_history  |        465403904
 2017-02-05 20:17:19.737731+01 | 1486322239.73773 | pgbench_branches |            40960

 2017-02-05 20:17:20.813506+01 | 1486322240.81351 | pgbench_accounts |      13712957440
 2017-02-05 20:17:20.813506+01 | 1486322240.81351 | pgbench_tellers  |           450560
 2017-02-05 20:17:20.813506+01 | 1486322240.81351 | pgbench_history  |        468459520
 2017-02-05 20:17:20.813506+01 | 1486322240.81351 | pgbench_branches |            40960

 2017-02-05 20:17:21.890881+01 | 1486322241.89088 | pgbench_accounts |      13712957440
 2017-02-05 20:17:21.890881+01 | 1486322241.89088 | pgbench_tellers  |           450560
 2017-02-05 20:17:21.890881+01 | 1486322241.89088 | pgbench_history  |        472629248
 2017-02-05 20:17:21.890881+01 | 1486322241.89088 | pgbench_branches |            40960

 2017-02-05 20:17:22.971342+01 | 1486322242.97134 | pgbench_accounts |      13712957440
 2017-02-05 20:17:22.971342+01 | 1486322242.97134 | pgbench_tellers  |           450560
 2017-02-05 20:17:22.971342+01 | 1486322242.97134 | pgbench_history  |        474292224
 2017-02-05 20:17:22.971342+01 | 1486322242.97134 | pgbench_branches |            40960

 2017-02-05 20:17:24.043108+01 | 1486322244.04311 | pgbench_accounts |      13712957440
 2017-02-05 20:17:24.043108+01 | 1486322244.04311 | pgbench_tellers  |           450560
 2017-02-05 20:17:24.043108+01 | 1486322244.04311 | pgbench_history  |        476995584
 2017-02-05 20:17:24.043108+01 | 1486322244.04311 | pgbench_branches |            40960

 2017-02-05 20:17:25.119563+01 | 1486322245.11956 | pgbench_accounts |      13712957440
 2017-02-05 20:17:25.119563+01 | 1486322245.11956 | pgbench_tellers  |           450560
 2017-02-05 20:17:25.119563+01 | 1486322245.11956 | pgbench_history  |        480321536
 2017-02-05 20:17:25.119563+01 | 1486322245.11956 | pgbench_branches |            40960

 2017-02-05 20:17:26.195329+01 | 1486322246.19533 | pgbench_accounts |      13712957440
 2017-02-05 20:17:26.195329+01 | 1486322246.19533 | pgbench_tellers  |           450560
 2017-02-05 20:17:26.195329+01 | 1486322246.19533 | pgbench_history  |        482697216
 2017-02-05 20:17:26.195329+01 | 1486322246.19533 | pgbench_branches |            40960

 2017-02-05 20:17:27.271452+01 | 1486322247.27145 | pgbench_accounts |      13712957440
 2017-02-05 20:17:27.271452+01 | 1486322247.27145 | pgbench_tellers  |           450560
 2017-02-05 20:17:27.271452+01 | 1486322247.27145 | pgbench_history  |        485695488
 2017-02-05 20:17:27.271452+01 | 1486322247.27145 | pgbench_branches |            40960

 2017-02-05 20:17:28.346208+01 | 1486322248.34621 | pgbench_accounts |      13712957440
 2017-02-05 20:17:28.346208+01 | 1486322248.34621 | pgbench_tellers  |           450560
 2017-02-05 20:17:28.346208+01 | 1486322248.34621 | pgbench_history  |        489398272
 2017-02-05 20:17:28.346208+01 | 1486322248.34621 | pgbench_branches |            40960

 2017-02-05 20:17:29.421192+01 | 1486322249.42119 | pgbench_accounts |      13712957440
 2017-02-05 20:17:29.421192+01 | 1486322249.42119 | pgbench_tellers  |           450560
 2017-02-05 20:17:29.421192+01 | 1486322249.42119 | pgbench_history  |        491462656
 2017-02-05 20:17:29.421192+01 | 1486322249.42119 | pgbench_branches |            40960

 2017-02-05 20:17:30.495317+01 | 1486322250.49532 | pgbench_accounts |      13712957440
 2017-02-05 20:17:30.495317+01 | 1486322250.49532 | pgbench_tellers  |           450560
 2017-02-05 20:17:30.495317+01 | 1486322250.49532 | pgbench_history  |        494706688
 2017-02-05 20:17:30.495317+01 | 1486322250.49532 | pgbench_branches |            40960

 2017-02-05 20:17:31.568737+01 | 1486322251.56874 | pgbench_accounts |      13712957440
 2017-02-05 20:17:31.568737+01 | 1486322251.56874 | pgbench_tellers  |           450560
 2017-02-05 20:17:31.568737+01 | 1486322251.56874 | pgbench_history  |        496697344
 2017-02-05 20:17:31.568737+01 | 1486322251.56874 | pgbench_branches |            40960

 2017-02-05 20:17:32.640451+01 | 1486322252.64045 | pgbench_accounts |      13712957440
 2017-02-05 20:17:32.640451+01 | 1486322252.64045 | pgbench_tellers  |           450560
 2017-02-05 20:17:32.640451+01 | 1486322252.64045 | pgbench_history  |        499040256
 2017-02-05 20:17:32.640451+01 | 1486322252.64045 | pgbench_branches |            40960

 2017-02-05 20:17:33.712659+01 | 1486322253.71266 | pgbench_accounts |      13712957440
 2017-02-05 20:17:33.712659+01 | 1486322253.71266 | pgbench_tellers  |           450560
 2017-02-05 20:17:33.712659+01 | 1486322253.71266 | pgbench_history  |        501219328
 2017-02-05 20:17:33.712659+01 | 1486322253.71266 | pgbench_branches |            40960

 2017-02-05 20:17:34.788705+01 | 1486322254.78871 | pgbench_accounts |      13712957440
 2017-02-05 20:17:34.788705+01 | 1486322254.78871 | pgbench_tellers  |           450560
 2017-02-05 20:17:34.788705+01 | 1486322254.78871 | pgbench_history  |        503889920
 2017-02-05 20:17:34.788705+01 | 1486322254.78871 | pgbench_branches |            40960

 2017-02-05 20:17:35.866447+01 | 1486322255.86645 | pgbench_accounts |      13712957440
 2017-02-05 20:17:35.866447+01 | 1486322255.86645 | pgbench_tellers  |           450560
 2017-02-05 20:17:35.866447+01 | 1486322255.86645 | pgbench_history  |        507543552
 2017-02-05 20:17:35.866447+01 | 1486322255.86645 | pgbench_branches |            40960

 2017-02-05 20:17:36.941445+01 | 1486322256.94145 | pgbench_accounts |      13712957440
 2017-02-05 20:17:36.941445+01 | 1486322256.94145 | pgbench_tellers  |           450560
 2017-02-05 20:17:36.941445+01 | 1486322256.94145 | pgbench_history  |        509100032
 2017-02-05 20:17:36.941445+01 | 1486322256.94145 | pgbench_branches |            40960

 2017-02-05 20:17:38.01701+01 | 1486322258.01701 | pgbench_accounts |      13712957440
 2017-02-05 20:17:38.01701+01 | 1486322258.01701 | pgbench_tellers  |           450560
 2017-02-05 20:17:38.01701+01 | 1486322258.01701 | pgbench_history  |        511967232
 2017-02-05 20:17:38.01701+01 | 1486322258.01701 | pgbench_branches |            40960

 2017-02-05 20:17:39.09276+01 | 1486322259.09276 | pgbench_accounts |      13712957440
 2017-02-05 20:17:39.09276+01 | 1486322259.09276 | pgbench_tellers  |           450560
 2017-02-05 20:17:39.09276+01 | 1486322259.09276 | pgbench_history  |        513818624
 2017-02-05 20:17:39.09276+01 | 1486322259.09276 | pgbench_branches |            40960

 2017-02-05 20:17:40.167462+01 | 1486322260.16746 | pgbench_accounts |      13712957440
 2017-02-05 20:17:40.167462+01 | 1486322260.16746 | pgbench_tellers  |           450560
 2017-02-05 20:17:40.167462+01 | 1486322260.16746 | pgbench_history  |        516653056
 2017-02-05 20:17:40.167462+01 | 1486322260.16746 | pgbench_branches |            40960

 2017-02-05 20:17:41.247761+01 | 1486322261.24776 | pgbench_accounts |      13712957440
 2017-02-05 20:17:41.247761+01 | 1486322261.24776 | pgbench_tellers  |           450560
 2017-02-05 20:17:41.247761+01 | 1486322261.24776 | pgbench_history  |        519159808
 2017-02-05 20:17:41.247761+01 | 1486322261.24776 | pgbench_branches |            40960

 2017-02-05 20:17:42.329319+01 | 1486322262.32932 | pgbench_accounts |      13712957440
 2017-02-05 20:17:42.329319+01 | 1486322262.32932 | pgbench_tellers  |           450560
 2017-02-05 20:17:42.329319+01 | 1486322262.32932 | pgbench_history  |        522067968
 2017-02-05 20:17:42.329319+01 | 1486322262.32932 | pgbench_branches |            40960

 2017-02-05 20:17:43.40788+01 | 1486322263.40788 | pgbench_accounts |      13712957440
 2017-02-05 20:17:43.40788+01 | 1486322263.40788 | pgbench_tellers  |           450560
 2017-02-05 20:17:43.40788+01 | 1486322263.40788 | pgbench_history  |        524951552
 2017-02-05 20:17:43.40788+01 | 1486322263.40788 | pgbench_branches |            40960

 2017-02-05 20:17:44.485136+01 | 1486322264.48514 | pgbench_accounts |      13712957440
 2017-02-05 20:17:44.485136+01 | 1486322264.48514 | pgbench_tellers  |           450560
 2017-02-05 20:17:44.485136+01 | 1486322264.48514 | pgbench_history  |        526991360
 2017-02-05 20:17:44.485136+01 | 1486322264.48514 | pgbench_branches |            40960

 2017-02-05 20:17:45.557851+01 | 1486322265.55785 | pgbench_accounts |      13712957440
 2017-02-05 20:17:45.557851+01 | 1486322265.55785 | pgbench_tellers  |           450560
 2017-02-05 20:17:45.557851+01 | 1486322265.55785 | pgbench_history  |        530849792
 2017-02-05 20:17:45.557851+01 | 1486322265.55785 | pgbench_branches |            40960

 2017-02-05 20:17:46.629613+01 | 1486322266.62961 | pgbench_accounts |      13712957440
 2017-02-05 20:17:46.629613+01 | 1486322266.62961 | pgbench_tellers  |           450560
 2017-02-05 20:17:46.629613+01 | 1486322266.62961 | pgbench_history  |        533053440
 2017-02-05 20:17:46.629613+01 | 1486322266.62961 | pgbench_branches |            40960

 2017-02-05 20:17:47.707134+01 | 1486322267.70713 | pgbench_accounts |      13712957440
 2017-02-05 20:17:47.707134+01 | 1486322267.70713 | pgbench_tellers  |           450560
 2017-02-05 20:17:47.707134+01 | 1486322267.70713 | pgbench_history  |        535420928
 2017-02-05 20:17:47.707134+01 | 1486322267.70713 | pgbench_branches |            40960

 2017-02-05 20:17:48.786441+01 | 1486322268.78644 | pgbench_accounts |      13712957440
 2017-02-05 20:17:48.786441+01 | 1486322268.78644 | pgbench_tellers  |           450560
 2017-02-05 20:17:48.786441+01 | 1486322268.78644 | pgbench_history  |        538157056
 2017-02-05 20:17:48.786441+01 | 1486322268.78644 | pgbench_branches |            40960

 2017-02-05 20:17:49.86441+01 | 1486322269.86441 | pgbench_accounts |      13712957440
 2017-02-05 20:17:49.86441+01 | 1486322269.86441 | pgbench_tellers  |           450560
 2017-02-05 20:17:49.86441+01 | 1486322269.86441 | pgbench_history  |        541507584
 2017-02-05 20:17:49.86441+01 | 1486322269.86441 | pgbench_branches |            40960

 2017-02-05 20:17:50.938374+01 | 1486322270.93837 | pgbench_accounts |      13712957440
 2017-02-05 20:17:50.938374+01 | 1486322270.93837 | pgbench_tellers  |           450560
 2017-02-05 20:17:50.938374+01 | 1486322270.93837 | pgbench_history  |        544505856
 2017-02-05 20:17:50.938374+01 | 1486322270.93837 | pgbench_branches |            40960

 2017-02-05 20:17:52.010506+01 | 1486322272.01051 | pgbench_accounts |      13712957440
 2017-02-05 20:17:52.010506+01 | 1486322272.01051 | pgbench_tellers  |           450560
 2017-02-05 20:17:52.010506+01 | 1486322272.01051 | pgbench_history  |        546521088
 2017-02-05 20:17:52.010506+01 | 1486322272.01051 | pgbench_branches |            40960

 2017-02-05 20:17:53.087726+01 | 1486322273.08773 | pgbench_accounts |      13712957440
 2017-02-05 20:17:53.087726+01 | 1486322273.08773 | pgbench_tellers  |           450560
 2017-02-05 20:17:53.087726+01 | 1486322273.08773 | pgbench_history  |        549355520
 2017-02-05 20:17:53.087726+01 | 1486322273.08773 | pgbench_branches |            40960

 2017-02-05 20:17:54.156747+01 | 1486322274.15675 | pgbench_accounts |      13712957440
 2017-02-05 20:17:54.156747+01 | 1486322274.15675 | pgbench_tellers  |           450560
 2017-02-05 20:17:54.156747+01 | 1486322274.15675 | pgbench_history  |        551723008
 2017-02-05 20:17:54.156747+01 | 1486322274.15675 | pgbench_branches |            40960

 2017-02-05 20:17:55.230468+01 | 1486322275.23047 | pgbench_accounts |      13712957440
 2017-02-05 20:17:55.230468+01 | 1486322275.23047 | pgbench_tellers  |           450560
 2017-02-05 20:17:55.230468+01 | 1486322275.23047 | pgbench_history  |        553926656
 2017-02-05 20:17:55.230468+01 | 1486322275.23047 | pgbench_branches |            40960

 2017-02-05 20:17:56.300557+01 | 1486322276.30056 | pgbench_accounts |      13712957440
 2017-02-05 20:17:56.300557+01 | 1486322276.30056 | pgbench_tellers  |           450560
 2017-02-05 20:17:56.300557+01 | 1486322276.30056 | pgbench_history  |        557137920
 2017-02-05 20:17:56.300557+01 | 1486322276.30056 | pgbench_branches |            40960

 2017-02-05 20:17:57.372534+01 | 1486322277.37253 | pgbench_accounts |      13712957440
 2017-02-05 20:17:57.372534+01 | 1486322277.37253 | pgbench_tellers  |           450560
 2017-02-05 20:17:57.372534+01 | 1486322277.37253 | pgbench_history  |        560021504
 2017-02-05 20:17:57.372534+01 | 1486322277.37253 | pgbench_branches |            40960

 2017-02-05 20:17:58.445341+01 | 1486322278.44534 | pgbench_accounts |      13712957440
 2017-02-05 20:17:58.445341+01 | 1486322278.44534 | pgbench_tellers  |           450560
 2017-02-05 20:17:58.445341+01 | 1486322278.44534 | pgbench_history  |        561381376
 2017-02-05 20:17:58.445341+01 | 1486322278.44534 | pgbench_branches |            40960

 2017-02-05 20:17:59.527792+01 | 1486322279.52779 | pgbench_accounts |      13712957440
 2017-02-05 20:17:59.527792+01 | 1486322279.52779 | pgbench_tellers  |           450560
 2017-02-05 20:17:59.527792+01 | 1486322279.52779 | pgbench_history  |        563609600
 2017-02-05 20:17:59.527792+01 | 1486322279.52779 | pgbench_branches |            40960

 2017-02-05 20:18:00.604381+01 | 1486322280.60438 | pgbench_accounts |      13712957440
 2017-02-05 20:18:00.604381+01 | 1486322280.60438 | pgbench_tellers  |           450560
 2017-02-05 20:18:00.604381+01 | 1486322280.60438 | pgbench_history  |        566304768
 2017-02-05 20:18:00.604381+01 | 1486322280.60438 | pgbench_branches |            40960

 2017-02-05 20:18:01.67575+01 | 1486322281.67575 | pgbench_accounts |      13712957440
 2017-02-05 20:18:01.67575+01 | 1486322281.67575 | pgbench_tellers  |           450560
 2017-02-05 20:18:01.67575+01 | 1486322281.67575 | pgbench_history  |        569008128
 2017-02-05 20:18:01.67575+01 | 1486322281.67575 | pgbench_branches |            40960

 2017-02-05 20:18:02.751084+01 | 1486322282.75108 | pgbench_accounts |      13712957440
 2017-02-05 20:18:02.751084+01 | 1486322282.75108 | pgbench_tellers  |           450560
 2017-02-05 20:18:02.751084+01 | 1486322282.75108 | pgbench_history  |        571252736
 2017-02-05 20:18:02.751084+01 | 1486322282.75108 | pgbench_branches |            40960

 2017-02-05 20:18:03.829905+01 | 1486322283.82991 | pgbench_accounts |      13712957440
 2017-02-05 20:18:03.829905+01 | 1486322283.82991 | pgbench_tellers  |           450560
 2017-02-05 20:18:03.829905+01 | 1486322283.82991 | pgbench_history  |        573431808
 2017-02-05 20:18:03.829905+01 | 1486322283.82991 | pgbench_branches |            40960

 2017-02-05 20:18:04.90486+01 | 1486322284.90486 | pgbench_accounts |      13712957440
 2017-02-05 20:18:04.90486+01 | 1486322284.90486 | pgbench_tellers  |           450560
 2017-02-05 20:18:04.90486+01 | 1486322284.90486 | pgbench_history  |        577118208
 2017-02-05 20:18:04.90486+01 | 1486322284.90486 | pgbench_branches |            40960

 2017-02-05 20:18:05.988549+01 | 1486322285.98855 | pgbench_accounts |      13712957440
 2017-02-05 20:18:05.988549+01 | 1486322285.98855 | pgbench_tellers  |           450560
 2017-02-05 20:18:05.988549+01 | 1486322285.98855 | pgbench_history  |        579485696
 2017-02-05 20:18:05.988549+01 | 1486322285.98855 | pgbench_branches |            40960

 2017-02-05 20:18:07.062012+01 | 1486322287.06201 | pgbench_accounts |      13712957440
 2017-02-05 20:18:07.062012+01 | 1486322287.06201 | pgbench_tellers  |           450560
 2017-02-05 20:18:07.062012+01 | 1486322287.06201 | pgbench_history  |        582508544
 2017-02-05 20:18:07.062012+01 | 1486322287.06201 | pgbench_branches |            40960

 2017-02-05 20:18:08.14716+01 | 1486322288.14716 | pgbench_accounts |      13712957440
 2017-02-05 20:18:08.14716+01 | 1486322288.14716 | pgbench_tellers  |           450560
 2017-02-05 20:18:08.14716+01 | 1486322288.14716 | pgbench_history  |        585392128
 2017-02-05 20:18:08.14716+01 | 1486322288.14716 | pgbench_branches |            40960

 2017-02-05 20:18:09.222038+01 | 1486322289.22204 | pgbench_accounts |      13712957440
 2017-02-05 20:18:09.222038+01 | 1486322289.22204 | pgbench_tellers  |           450560
 2017-02-05 20:18:09.222038+01 | 1486322289.22204 | pgbench_history  |        588087296
 2017-02-05 20:18:09.222038+01 | 1486322289.22204 | pgbench_branches |            40960

 2017-02-05 20:18:10.30038+01 | 1486322290.30038 | pgbench_accounts |      13712957440
 2017-02-05 20:18:10.30038+01 | 1486322290.30038 | pgbench_tellers  |           450560
 2017-02-05 20:18:10.30038+01 | 1486322290.30038 | pgbench_history  |        590618624
 2017-02-05 20:18:10.30038+01 | 1486322290.30038 | pgbench_branches |            40960

 2017-02-05 20:18:11.384993+01 | 1486322291.38499 | pgbench_accounts |      13712957440
 2017-02-05 20:18:11.384993+01 | 1486322291.38499 | pgbench_tellers  |           450560
 2017-02-05 20:18:11.384993+01 | 1486322291.38499 | pgbench_history  |        593666048
 2017-02-05 20:18:11.384993+01 | 1486322291.38499 | pgbench_branches |            40960

 2017-02-05 20:18:12.466132+01 | 1486322292.46613 | pgbench_accounts |      13712957440
 2017-02-05 20:18:12.466132+01 | 1486322292.46613 | pgbench_tellers  |           450560
 2017-02-05 20:18:12.466132+01 | 1486322292.46613 | pgbench_history  |        596852736
 2017-02-05 20:18:12.466132+01 | 1486322292.46613 | pgbench_branches |            40960

 2017-02-05 20:18:13.540405+01 | 1486322293.54041 | pgbench_accounts |      13712957440
 2017-02-05 20:18:13.540405+01 | 1486322293.54041 | pgbench_tellers  |           450560
 2017-02-05 20:18:13.540405+01 | 1486322293.54041 | pgbench_history  |        600317952
 2017-02-05 20:18:13.540405+01 | 1486322293.54041 | pgbench_branches |            40960

 2017-02-05 20:18:14.611567+01 | 1486322294.61157 | pgbench_accounts |      13712957440
 2017-02-05 20:18:14.611567+01 | 1486322294.61157 | pgbench_tellers  |           450560
 2017-02-05 20:18:14.611567+01 | 1486322294.61157 | pgbench_history  |        602193920
 2017-02-05 20:18:14.611567+01 | 1486322294.61157 | pgbench_branches |            40960

 2017-02-05 20:18:15.683741+01 | 1486322295.68374 | pgbench_accounts |      13712957440
 2017-02-05 20:18:15.683741+01 | 1486322295.68374 | pgbench_tellers  |           450560
 2017-02-05 20:18:15.683741+01 | 1486322295.68374 | pgbench_history  |        605405184
 2017-02-05 20:18:15.683741+01 | 1486322295.68374 | pgbench_branches |            40960

 2017-02-05 20:18:16.755629+01 | 1486322296.75563 | pgbench_accounts |      13712957440
 2017-02-05 20:18:16.755629+01 | 1486322296.75563 | pgbench_tellers  |           450560
 2017-02-05 20:18:16.755629+01 | 1486322296.75563 | pgbench_history  |        610746368
 2017-02-05 20:18:16.755629+01 | 1486322296.75563 | pgbench_branches |            40960

 2017-02-05 20:18:17.835498+01 | 1486322297.8355 | pgbench_accounts |      13712957440
 2017-02-05 20:18:17.835498+01 | 1486322297.8355 | pgbench_tellers  |           450560
 2017-02-05 20:18:17.835498+01 | 1486322297.8355 | pgbench_history  |        611753984
 2017-02-05 20:18:17.835498+01 | 1486322297.8355 | pgbench_branches |            40960

 2017-02-05 20:18:18.91338+01 | 1486322298.91338 | pgbench_accounts |      13712957440
 2017-02-05 20:18:18.91338+01 | 1486322298.91338 | pgbench_tellers  |           450560
 2017-02-05 20:18:18.91338+01 | 1486322298.91338 | pgbench_history  |        614236160
 2017-02-05 20:18:18.91338+01 | 1486322298.91338 | pgbench_branches |            40960

 2017-02-05 20:18:19.991098+01 | 1486322299.9911 | pgbench_accounts |      13712957440
 2017-02-05 20:18:19.991098+01 | 1486322299.9911 | pgbench_tellers  |           450560
 2017-02-05 20:18:19.991098+01 | 1486322299.9911 | pgbench_history  |        617611264
 2017-02-05 20:18:19.991098+01 | 1486322299.9911 | pgbench_branches |            40960

 2017-02-05 20:18:21.068522+01 | 1486322301.06852 | pgbench_accounts |      13712957440
 2017-02-05 20:18:21.068522+01 | 1486322301.06852 | pgbench_tellers  |           450560
 2017-02-05 20:18:21.068522+01 | 1486322301.06852 | pgbench_history  |        620167168
 2017-02-05 20:18:21.068522+01 | 1486322301.06852 | pgbench_branches |            40960

 2017-02-05 20:18:22.143617+01 | 1486322302.14362 | pgbench_accounts |      13712957440
 2017-02-05 20:18:22.143617+01 | 1486322302.14362 | pgbench_tellers  |           450560
 2017-02-05 20:18:22.143617+01 | 1486322302.14362 | pgbench_history  |        622698496
 2017-02-05 20:18:22.143617+01 | 1486322302.14362 | pgbench_branches |            40960

 2017-02-05 20:18:23.216244+01 | 1486322303.21624 | pgbench_accounts |      13712957440
 2017-02-05 20:18:23.216244+01 | 1486322303.21624 | pgbench_tellers  |           450560
 2017-02-05 20:18:23.216244+01 | 1486322303.21624 | pgbench_history  |        625557504
 2017-02-05 20:18:23.216244+01 | 1486322303.21624 | pgbench_branches |            40960

 2017-02-05 20:18:24.2893+01 | 1486322304.2893 | pgbench_accounts |      13712957440
 2017-02-05 20:18:24.2893+01 | 1486322304.2893 | pgbench_tellers  |           450560
 2017-02-05 20:18:24.2893+01 | 1486322304.2893 | pgbench_history  |        629047296
 2017-02-05 20:18:24.2893+01 | 1486322304.2893 | pgbench_branches |            40960

 2017-02-05 20:18:25.368558+01 | 1486322305.36856 | pgbench_accounts |      13712957440
 2017-02-05 20:18:25.368558+01 | 1486322305.36856 | pgbench_tellers  |           450560
 2017-02-05 20:18:25.368558+01 | 1486322305.36856 | pgbench_history  |        631250944
 2017-02-05 20:18:25.368558+01 | 1486322305.36856 | pgbench_branches |            40960

 2017-02-05 20:18:26.430595+01 | 1486322306.43059 | pgbench_accounts |      13712957440
 2017-02-05 20:18:26.430595+01 | 1486322306.43059 | pgbench_tellers  |           450560
 2017-02-05 20:18:26.430595+01 | 1486322306.43059 | pgbench_history  |        634298368
 2017-02-05 20:18:26.430595+01 | 1486322306.43059 | pgbench_branches |            40960

 2017-02-05 20:18:27.500569+01 | 1486322307.50057 | pgbench_accounts |      13712957440
 2017-02-05 20:18:27.500569+01 | 1486322307.50057 | pgbench_tellers  |           450560
 2017-02-05 20:18:27.500569+01 | 1486322307.50057 | pgbench_history  |        636452864
 2017-02-05 20:18:27.500569+01 | 1486322307.50057 | pgbench_branches |            40960

 2017-02-05 20:18:28.577926+01 | 1486322308.57793 | pgbench_accounts |      13712957440
 2017-02-05 20:18:28.577926+01 | 1486322308.57793 | pgbench_tellers  |           450560
 2017-02-05 20:18:28.577926+01 | 1486322308.57793 | pgbench_history  |        639311872
 2017-02-05 20:18:28.577926+01 | 1486322308.57793 | pgbench_branches |            40960

 2017-02-05 20:18:29.654053+01 | 1486322309.65405 | pgbench_accounts |      13712957440
 2017-02-05 20:18:29.654053+01 | 1486322309.65405 | pgbench_tellers  |           450560
 2017-02-05 20:18:29.654053+01 | 1486322309.65405 | pgbench_history  |        642711552
 2017-02-05 20:18:29.654053+01 | 1486322309.65405 | pgbench_branches |            40960

 2017-02-05 20:18:30.732931+01 | 1486322310.73293 | pgbench_accounts |      13712957440
 2017-02-05 20:18:30.732931+01 | 1486322310.73293 | pgbench_tellers  |           450560
 2017-02-05 20:18:30.732931+01 | 1486322310.73293 | pgbench_history  |        645898240
 2017-02-05 20:18:30.732931+01 | 1486322310.73293 | pgbench_branches |            40960

 2017-02-05 20:18:31.805453+01 | 1486322311.80545 | pgbench_accounts |      13712957440
 2017-02-05 20:18:31.805453+01 | 1486322311.80545 | pgbench_tellers  |           450560
 2017-02-05 20:18:31.805453+01 | 1486322311.80545 | pgbench_history  |        648077312
 2017-02-05 20:18:31.805453+01 | 1486322311.80545 | pgbench_branches |            40960

 2017-02-05 20:18:32.877416+01 | 1486322312.87742 | pgbench_accounts |      13712957440
 2017-02-05 20:18:32.877416+01 | 1486322312.87742 | pgbench_tellers  |           450560
 2017-02-05 20:18:32.877416+01 | 1486322312.87742 | pgbench_history  |        651780096
 2017-02-05 20:18:32.877416+01 | 1486322312.87742 | pgbench_branches |            40960

 2017-02-05 20:18:33.952855+01 | 1486322313.95286 | pgbench_accounts |      13712957440
 2017-02-05 20:18:33.952855+01 | 1486322313.95286 | pgbench_tellers  |           450560
 2017-02-05 20:18:33.952855+01 | 1486322313.95286 | pgbench_history  |        653680640
 2017-02-05 20:18:33.952855+01 | 1486322313.95286 | pgbench_branches |            40960

 2017-02-05 20:18:35.02862+01 | 1486322315.02862 | pgbench_accounts |      13712957440
 2017-02-05 20:18:35.02862+01 | 1486322315.02862 | pgbench_tellers  |           450560
 2017-02-05 20:18:35.02862+01 | 1486322315.02862 | pgbench_history  |        656588800
 2017-02-05 20:18:35.02862+01 | 1486322315.02862 | pgbench_branches |            40960

 2017-02-05 20:18:36.103774+01 | 1486322316.10377 | pgbench_accounts |      13712957440
 2017-02-05 20:18:36.103774+01 | 1486322316.10377 | pgbench_tellers  |           450560
 2017-02-05 20:18:36.103774+01 | 1486322316.10377 | pgbench_history  |        660103168
 2017-02-05 20:18:36.103774+01 | 1486322316.10377 | pgbench_branches |            40960

 2017-02-05 20:18:37.179698+01 | 1486322317.1797 | pgbench_accounts |      13712957440
 2017-02-05 20:18:37.179698+01 | 1486322317.1797 | pgbench_tellers  |           450560
 2017-02-05 20:18:37.179698+01 | 1486322317.1797 | pgbench_history  |        662642688
 2017-02-05 20:18:37.179698+01 | 1486322317.1797 | pgbench_branches |            40960

 2017-02-05 20:18:38.257162+01 | 1486322318.25716 | pgbench_accounts |      13712957440
 2017-02-05 20:18:38.257162+01 | 1486322318.25716 | pgbench_tellers  |           450560
 2017-02-05 20:18:38.257162+01 | 1486322318.25716 | pgbench_history  |        665526272
 2017-02-05 20:18:38.257162+01 | 1486322318.25716 | pgbench_branches |            40960

 2017-02-05 20:18:39.333674+01 | 1486322319.33367 | pgbench_accounts |      13712957440
 2017-02-05 20:18:39.333674+01 | 1486322319.33367 | pgbench_tellers  |           450560
 2017-02-05 20:18:39.333674+01 | 1486322319.33367 | pgbench_history  |        667402240
 2017-02-05 20:18:39.333674+01 | 1486322319.33367 | pgbench_branches |            40960

 2017-02-05 20:18:40.404769+01 | 1486322320.40477 | pgbench_accounts |      13712957440
 2017-02-05 20:18:40.404769+01 | 1486322320.40477 | pgbench_tellers  |           450560
 2017-02-05 20:18:40.404769+01 | 1486322320.40477 | pgbench_history  |        670990336
 2017-02-05 20:18:40.404769+01 | 1486322320.40477 | pgbench_branches |            40960

 2017-02-05 20:18:41.480295+01 | 1486322321.48029 | pgbench_accounts |      13712957440
 2017-02-05 20:18:41.480295+01 | 1486322321.48029 | pgbench_tellers  |           450560
 2017-02-05 20:18:41.480295+01 | 1486322321.48029 | pgbench_history  |        674840576
 2017-02-05 20:18:41.480295+01 | 1486322321.48029 | pgbench_branches |            40960

 2017-02-05 20:18:42.553822+01 | 1486322322.55382 | pgbench_accounts |      13712957440
 2017-02-05 20:18:42.553822+01 | 1486322322.55382 | pgbench_tellers  |           450560
 2017-02-05 20:18:42.553822+01 | 1486322322.55382 | pgbench_history  |        676175872
 2017-02-05 20:18:42.553822+01 | 1486322322.55382 | pgbench_branches |            40960

 2017-02-05 20:18:43.632174+01 | 1486322323.63217 | pgbench_accounts |      13712957440
 2017-02-05 20:18:43.632174+01 | 1486322323.63217 | pgbench_tellers  |           450560
 2017-02-05 20:18:43.632174+01 | 1486322323.63217 | pgbench_history  |        678871040
 2017-02-05 20:18:43.632174+01 | 1486322323.63217 | pgbench_branches |            40960

 2017-02-05 20:18:44.709944+01 | 1486322324.70994 | pgbench_accounts |      13712957440
 2017-02-05 20:18:44.709944+01 | 1486322324.70994 | pgbench_tellers  |           450560
 2017-02-05 20:18:44.709944+01 | 1486322324.70994 | pgbench_history  |        682196992
 2017-02-05 20:18:44.709944+01 | 1486322324.70994 | pgbench_branches |            40960

 2017-02-05 20:18:45.78246+01 | 1486322325.78246 | pgbench_accounts |      13712957440
 2017-02-05 20:18:45.78246+01 | 1486322325.78246 | pgbench_tellers  |           450560
 2017-02-05 20:18:45.78246+01 | 1486322325.78246 | pgbench_history  |        685735936
 2017-02-05 20:18:45.78246+01 | 1486322325.78246 | pgbench_branches |            40960

 2017-02-05 20:18:46.86185+01 | 1486322326.86185 | pgbench_accounts |      13712957440
 2017-02-05 20:18:46.86185+01 | 1486322326.86185 | pgbench_tellers  |           450560
 2017-02-05 20:18:46.86185+01 | 1486322326.86185 | pgbench_history  |        687751168
 2017-02-05 20:18:46.86185+01 | 1486322326.86185 | pgbench_branches |            40960

 2017-02-05 20:18:47.939105+01 | 1486322327.93911 | pgbench_accounts |      13712957440
 2017-02-05 20:18:47.939105+01 | 1486322327.93911 | pgbench_tellers  |           450560
 2017-02-05 20:18:47.939105+01 | 1486322327.93911 | pgbench_history  |        689995776
 2017-02-05 20:18:47.939105+01 | 1486322327.93911 | pgbench_branches |            40960

 2017-02-05 20:18:49.014676+01 | 1486322329.01468 | pgbench_accounts |      13712957440
 2017-02-05 20:18:49.014676+01 | 1486322329.01468 | pgbench_tellers  |           450560
 2017-02-05 20:18:49.014676+01 | 1486322329.01468 | pgbench_history  |        694198272
 2017-02-05 20:18:49.014676+01 | 1486322329.01468 | pgbench_branches |            40960

 2017-02-05 20:18:50.092316+01 | 1486322330.09232 | pgbench_accounts |      13712957440
 2017-02-05 20:18:50.092316+01 | 1486322330.09232 | pgbench_tellers  |           450560
 2017-02-05 20:18:50.092316+01 | 1486322330.09232 | pgbench_history  |        695558144
 2017-02-05 20:18:50.092316+01 | 1486322330.09232 | pgbench_branches |            40960

 2017-02-05 20:18:51.170759+01 | 1486322331.17076 | pgbench_accounts |      13712957440
 2017-02-05 20:18:51.170759+01 | 1486322331.17076 | pgbench_tellers  |           450560
 2017-02-05 20:18:51.170759+01 | 1486322331.17076 | pgbench_history  |        698589184
 2017-02-05 20:18:51.170759+01 | 1486322331.17076 | pgbench_branches |            40960

 2017-02-05 20:18:52.249361+01 | 1486322332.24936 | pgbench_accounts |      13712957440
 2017-02-05 20:18:52.249361+01 | 1486322332.24936 | pgbench_tellers  |           450560
 2017-02-05 20:18:52.249361+01 | 1486322332.24936 | pgbench_history  |        702111744
 2017-02-05 20:18:52.249361+01 | 1486322332.24936 | pgbench_branches |            40960

 2017-02-05 20:18:53.321595+01 | 1486322333.32159 | pgbench_accounts |      13712957440
 2017-02-05 20:18:53.321595+01 | 1486322333.32159 | pgbench_tellers  |           450560
 2017-02-05 20:18:53.321595+01 | 1486322333.32159 | pgbench_history  |        705609728
 2017-02-05 20:18:53.321595+01 | 1486322333.32159 | pgbench_branches |            40960

 2017-02-05 20:18:54.402405+01 | 1486322334.40241 | pgbench_accounts |      13712957440
 2017-02-05 20:18:54.402405+01 | 1486322334.40241 | pgbench_tellers  |           450560
 2017-02-05 20:18:54.402405+01 | 1486322334.40241 | pgbench_history  |        708149248
 2017-02-05 20:18:54.402405+01 | 1486322334.40241 | pgbench_branches |            40960

 2017-02-05 20:18:55.477783+01 | 1486322335.47778 | pgbench_accounts |      13712957440
 2017-02-05 20:18:55.477783+01 | 1486322335.47778 | pgbench_tellers  |           450560
 2017-02-05 20:18:55.477783+01 | 1486322335.47778 | pgbench_history  |        710164480
 2017-02-05 20:18:55.477783+01 | 1486322335.47778 | pgbench_branches |            40960

 2017-02-05 20:18:56.549865+01 | 1486322336.54987 | pgbench_accounts |      13712957440
 2017-02-05 20:18:56.549865+01 | 1486322336.54987 | pgbench_tellers  |           450560
 2017-02-05 20:18:56.549865+01 | 1486322336.54987 | pgbench_history  |        712695808
 2017-02-05 20:18:56.549865+01 | 1486322336.54987 | pgbench_branches |            40960

 2017-02-05 20:18:57.620448+01 | 1486322337.62045 | pgbench_accounts |      13712957440
 2017-02-05 20:18:57.620448+01 | 1486322337.62045 | pgbench_tellers  |           450560
 2017-02-05 20:18:57.620448+01 | 1486322337.62045 | pgbench_history  |        715857920
 2017-02-05 20:18:57.620448+01 | 1486322337.62045 | pgbench_branches |            40960

 2017-02-05 20:18:58.695107+01 | 1486322338.69511 | pgbench_accounts |      13712957440
 2017-02-05 20:18:58.695107+01 | 1486322338.69511 | pgbench_tellers  |           450560
 2017-02-05 20:18:58.695107+01 | 1486322338.69511 | pgbench_history  |        718225408
 2017-02-05 20:18:58.695107+01 | 1486322338.69511 | pgbench_branches |            40960

 2017-02-05 20:18:59.774684+01 | 1486322339.77468 | pgbench_accounts |      13712957440
 2017-02-05 20:18:59.774684+01 | 1486322339.77468 | pgbench_tellers  |           450560
 2017-02-05 20:18:59.774684+01 | 1486322339.77468 | pgbench_history  |        720568320
 2017-02-05 20:18:59.774684+01 | 1486322339.77468 | pgbench_branches |            40960

 2017-02-05 20:19:00.85383+01 | 1486322340.85383 | pgbench_accounts |      13712957440
 2017-02-05 20:19:00.85383+01 | 1486322340.85383 | pgbench_tellers  |           450560
 2017-02-05 20:19:00.85383+01 | 1486322340.85383 | pgbench_history  |        723648512
 2017-02-05 20:19:00.85383+01 | 1486322340.85383 | pgbench_branches |            40960

 2017-02-05 20:19:01.929714+01 | 1486322341.92971 | pgbench_accounts |      13712957440
 2017-02-05 20:19:01.929714+01 | 1486322341.92971 | pgbench_tellers  |           450560
 2017-02-05 20:19:01.929714+01 | 1486322341.92971 | pgbench_history  |        726204416
 2017-02-05 20:19:01.929714+01 | 1486322341.92971 | pgbench_branches |            40960

 2017-02-05 20:19:03.005942+01 | 1486322343.00594 | pgbench_accounts |      13712957440
 2017-02-05 20:19:03.005942+01 | 1486322343.00594 | pgbench_tellers  |           450560
 2017-02-05 20:19:03.005942+01 | 1486322343.00594 | pgbench_history  |        729858048
 2017-02-05 20:19:03.005942+01 | 1486322343.00594 | pgbench_branches |            40960

 2017-02-05 20:19:04.079174+01 | 1486322344.07917 | pgbench_accounts |      13712957440
 2017-02-05 20:19:04.079174+01 | 1486322344.07917 | pgbench_tellers  |           450560
 2017-02-05 20:19:04.079174+01 | 1486322344.07917 | pgbench_history  |        732225536
 2017-02-05 20:19:04.079174+01 | 1486322344.07917 | pgbench_branches |            40960

 2017-02-05 20:19:05.158448+01 | 1486322345.15845 | pgbench_accounts |      13712957440
 2017-02-05 20:19:05.158448+01 | 1486322345.15845 | pgbench_tellers  |           450560
 2017-02-05 20:19:05.158448+01 | 1486322345.15845 | pgbench_history  |        735272960
 2017-02-05 20:19:05.158448+01 | 1486322345.15845 | pgbench_branches |            40960

 2017-02-05 20:19:06.237336+01 | 1486322346.23734 | pgbench_accounts |      13712957440
 2017-02-05 20:19:06.237336+01 | 1486322346.23734 | pgbench_tellers  |           450560
 2017-02-05 20:19:06.237336+01 | 1486322346.23734 | pgbench_history  |        737837056
 2017-02-05 20:19:06.237336+01 | 1486322346.23734 | pgbench_branches |            40960

 2017-02-05 20:19:07.31059+01 | 1486322347.31059 | pgbench_accounts |      13712957440
 2017-02-05 20:19:07.31059+01 | 1486322347.31059 | pgbench_tellers  |           450560
 2017-02-05 20:19:07.31059+01 | 1486322347.31059 | pgbench_history  |        740556800
 2017-02-05 20:19:07.31059+01 | 1486322347.31059 | pgbench_branches |            40960

 2017-02-05 20:19:08.387585+01 | 1486322348.38758 | pgbench_accounts |      13712957440
 2017-02-05 20:19:08.387585+01 | 1486322348.38758 | pgbench_tellers  |           450560
 2017-02-05 20:19:08.387585+01 | 1486322348.38758 | pgbench_history  |        744095744
 2017-02-05 20:19:08.387585+01 | 1486322348.38758 | pgbench_branches |            40960

 2017-02-05 20:19:09.463519+01 | 1486322349.46352 | pgbench_accounts |      13712957440
 2017-02-05 20:19:09.463519+01 | 1486322349.46352 | pgbench_tellers  |           450560
 2017-02-05 20:19:09.463519+01 | 1486322349.46352 | pgbench_history  |        746463232
 2017-02-05 20:19:09.463519+01 | 1486322349.46352 | pgbench_branches |            40960

 2017-02-05 20:19:10.537009+01 | 1486322350.53701 | pgbench_accounts |      13712957440
 2017-02-05 20:19:10.537009+01 | 1486322350.53701 | pgbench_tellers  |           450560
 2017-02-05 20:19:10.537009+01 | 1486322350.53701 | pgbench_history  |        749977600
 2017-02-05 20:19:10.537009+01 | 1486322350.53701 | pgbench_branches |            40960

 2017-02-05 20:19:11.605676+01 | 1486322351.60568 | pgbench_accounts |      13712957440
 2017-02-05 20:19:11.605676+01 | 1486322351.60568 | pgbench_tellers  |           450560
 2017-02-05 20:19:11.605676+01 | 1486322351.60568 | pgbench_history  |        752697344
 2017-02-05 20:19:11.605676+01 | 1486322351.60568 | pgbench_branches |            40960

 2017-02-05 20:19:12.670762+01 | 1486322352.67076 | pgbench_accounts |      13712957440
 2017-02-05 20:19:12.670762+01 | 1486322352.67076 | pgbench_tellers  |           450560
 2017-02-05 20:19:12.670762+01 | 1486322352.67076 | pgbench_history  |        755507200
 2017-02-05 20:19:12.670762+01 | 1486322352.67076 | pgbench_branches |            40960

 2017-02-05 20:19:13.753778+01 | 1486322353.75378 | pgbench_accounts |      13712957440
 2017-02-05 20:19:13.753778+01 | 1486322353.75378 | pgbench_tellers  |           450560
 2017-02-05 20:19:13.753778+01 | 1486322353.75378 | pgbench_history  |        757399552
 2017-02-05 20:19:13.753778+01 | 1486322353.75378 | pgbench_branches |            40960

 2017-02-05 20:19:14.826969+01 | 1486322354.82697 | pgbench_accounts |      13712957440
 2017-02-05 20:19:14.826969+01 | 1486322354.82697 | pgbench_tellers  |           450560
 2017-02-05 20:19:14.826969+01 | 1486322354.82697 | pgbench_history  |        760913920
 2017-02-05 20:19:14.826969+01 | 1486322354.82697 | pgbench_branches |            40960

 2017-02-05 20:19:15.907752+01 | 1486322355.90775 | pgbench_accounts |      13712957440
 2017-02-05 20:19:15.907752+01 | 1486322355.90775 | pgbench_tellers  |           450560
 2017-02-05 20:19:15.907752+01 | 1486322355.90775 | pgbench_history  |        763609088
 2017-02-05 20:19:15.907752+01 | 1486322355.90775 | pgbench_branches |            40960

 2017-02-05 20:19:16.979361+01 | 1486322356.97936 | pgbench_accounts |      13712957440
 2017-02-05 20:19:16.979361+01 | 1486322356.97936 | pgbench_tellers  |           450560
 2017-02-05 20:19:16.979361+01 | 1486322356.97936 | pgbench_history  |        767803392
 2017-02-05 20:19:16.979361+01 | 1486322356.97936 | pgbench_branches |            40960

 2017-02-05 20:19:18.055341+01 | 1486322358.05534 | pgbench_accounts |      13712957440
 2017-02-05 20:19:18.055341+01 | 1486322358.05534 | pgbench_tellers  |           450560
 2017-02-05 20:19:18.055341+01 | 1486322358.05534 | pgbench_history  |        769900544
 2017-02-05 20:19:18.055341+01 | 1486322358.05534 | pgbench_branches |            40960

 2017-02-05 20:19:19.12884+01 | 1486322359.12884 | pgbench_accounts |      13712957440
 2017-02-05 20:19:19.12884+01 | 1486322359.12884 | pgbench_tellers  |           450560
 2017-02-05 20:19:19.12884+01 | 1486322359.12884 | pgbench_history  |        772464640
 2017-02-05 20:19:19.12884+01 | 1486322359.12884 | pgbench_branches |            40960

 2017-02-05 20:19:20.203703+01 | 1486322360.2037 | pgbench_accounts |      13712957440
 2017-02-05 20:19:20.203703+01 | 1486322360.2037 | pgbench_tellers  |           450560
 2017-02-05 20:19:20.203703+01 | 1486322360.2037 | pgbench_history  |        775168000
 2017-02-05 20:19:20.203703+01 | 1486322360.2037 | pgbench_branches |            40960

