 2017-02-05 07:26:23.476799+01 | 1486275983.4768 | 6/2BFE7F08               |           26507902728

 2017-02-05 07:26:24.570496+01 | 1486275984.5705 | 6/36E00830               |           26690455600

 2017-02-05 07:26:25.645558+01 | 1486275985.64556 | 6/419DE378               |           26870670200

 2017-02-05 07:26:26.72667+01 | 1486275986.72667 | 6/4D82DDD8               |           27070225880

 2017-02-05 07:26:27.809456+01 | 1486275987.80946 | 6/5A190108               |           27281391880

 2017-02-05 07:26:28.893428+01 | 1486275988.89343 | 6/67971D20               |           27507760416

 2017-02-05 07:26:29.976652+01 | 1486275989.97665 | 6/73EEBF88               |           27714830216

 2017-02-05 07:26:31.057123+01 | 1486275991.05712 | 6/7F73FCE0               |           27908111584

 2017-02-05 07:26:32.139677+01 | 1486275992.13968 | 6/89370390               |           28071887760

 2017-02-05 07:26:33.226225+01 | 1486275993.22622 | 6/926AB2E0               |           28226269920

 2017-02-05 07:26:34.307731+01 | 1486275994.30773 | 6/9C346FA8               |           28390485928

 2017-02-05 07:26:35.39762+01 | 1486275995.39762 | 6/A4FC0FF0               |           28537786352

 2017-02-05 07:26:36.476905+01 | 1486275996.47691 | 6/AC63ECE8               |           28662033640

 2017-02-05 07:26:37.560205+01 | 1486275997.5602 | 6/B4C4B3A0               |           28802593696

 2017-02-05 07:26:38.642129+01 | 1486275998.64213 | 6/BCDAAEB0               |           28938251952

 2017-02-05 07:26:39.72259+01 | 1486275999.72259 | 6/C5945CB0               |           29084638384

 2017-02-05 07:26:40.789802+01 | 1486276000.7898 | 6/CD2115D8               |           29211301336

 2017-02-05 07:26:41.864448+01 | 1486276001.86445 | 6/D494A840               |           29336315968

 2017-02-05 07:26:42.944427+01 | 1486276002.94443 | 6/DBD09A88               |           29457685128

 2017-02-05 07:26:44.030817+01 | 1486276004.03082 | 6/E33C8000               |           29582196736

 2017-02-05 07:26:45.12086+01 | 1486276005.12086 | 6/E9876AC0               |           29687769792

 2017-02-05 07:26:46.202825+01 | 1486276006.20283 | 6/F08780A8               |           29805215912

 2017-02-05 07:26:47.285284+01 | 1486276007.28528 | 6/F721BCA0               |           29915987104

 2017-02-05 07:26:48.364982+01 | 1486276008.36498 | 6/FD27C000               |           30017044480

 2017-02-05 07:26:49.441428+01 | 1486276009.44143 | 7/3778818                |           30122936344

 2017-02-05 07:26:50.513534+01 | 1486276010.51353 | 7/8B6E190                |           30210974096

 2017-02-05 07:26:51.584041+01 | 1486276011.58404 | 7/D2E14F0                |           30285894896

 2017-02-05 07:26:52.665103+01 | 1486276012.6651 | 7/138E5A28               |           30392867368

 2017-02-05 07:26:53.74788+01 | 1486276013.74788 | 7/196F9E98               |           30491516568

 2017-02-05 07:26:54.828589+01 | 1486276014.82859 | 7/1F27E3F0               |           30587479024

 2017-02-05 07:26:55.905761+01 | 1486276015.90576 | 7/24D018C8               |           30682388680

 2017-02-05 07:26:56.981318+01 | 1486276016.98132 | 7/2A1280D8               |           30770626776

 2017-02-05 07:26:58.059638+01 | 1486276018.05964 | 7/2E186B20               |           30838123296

 2017-02-05 07:26:59.136559+01 | 1486276019.13656 | 7/32868A48               |           30912449096

 2017-02-05 07:27:00.220295+01 | 1486276020.22029 | 7/375E1EE0               |           30993686240

 2017-02-05 07:27:01.305581+01 | 1486276021.30558 | 7/3C375750               |           31075030864

 2017-02-05 07:27:02.398475+01 | 1486276022.39847 | 7/409C6888               |           31148763272

 2017-02-05 07:27:03.476383+01 | 1486276023.47638 | 7/44C4CCD0               |           31218519248

 2017-02-05 07:27:04.567427+01 | 1486276024.56743 | 7/4900CF48               |           31289560904

 2017-02-05 07:27:05.653985+01 | 1486276025.65399 | 7/4CE0FCB0               |           31354584240

 2017-02-05 07:27:06.737742+01 | 1486276026.73774 | 7/5100BC30               |           31423790680

 2017-02-05 07:27:07.829903+01 | 1486276027.8299 | 7/55923D78               |           31500418424

 2017-02-05 07:27:08.914025+01 | 1486276028.91403 | 7/59FC4208               |           31574475272

 2017-02-05 07:27:09.993478+01 | 1486276029.99348 | 7/5E0F46F0               |           31642830576

 2017-02-05 07:27:11.06979+01 | 1486276031.06979 | 7/61C0D370               |           31704798064

 2017-02-05 07:27:12.154363+01 | 1486276032.15436 | 7/64E67CB8               |           31757597880

 2017-02-05 07:27:13.235122+01 | 1486276033.23512 | 7/6864A510               |           31816197392

 2017-02-05 07:27:14.321591+01 | 1486276034.32159 | 7/6BD1C488               |           31873680520

 2017-02-05 07:27:15.401667+01 | 1486276035.40167 | 7/6F00A108               |           31927083272

 2017-02-05 07:27:16.489538+01 | 1486276036.48954 | 7/7227BF10               |           31979978512

 2017-02-05 07:27:17.565916+01 | 1486276037.56592 | 7/75634F98               |           32034213784

 2017-02-05 07:27:18.644795+01 | 1486276038.64479 | 7/78A4B600               |           32088831488

 2017-02-05 07:27:19.72008+01 | 1486276039.72008 | 7/7C494E60               |           32149950048

 2017-02-05 07:27:20.801334+01 | 1486276040.80133 | 7/7F0FC208               |           32196510216

 2017-02-05 07:27:21.886837+01 | 1486276041.88684 | 7/8286F4D0               |           32254653648

 2017-02-05 07:27:22.974897+01 | 1486276042.9749 | 7/85CA68C8               |           32309405896

 2017-02-05 07:27:24.063962+01 | 1486276044.06396 | 7/88B3EA98               |           32358263448

 2017-02-05 07:27:25.149708+01 | 1486276045.14971 | 7/8B5619F0               |           32402446832

 2017-02-05 07:27:26.230489+01 | 1486276046.23049 | 7/8DE04170               |           32445055344

 2017-02-05 07:27:27.312308+01 | 1486276047.31231 | 7/90CEF9F0               |           32494254576

 2017-02-05 07:27:28.399456+01 | 1486276048.39946 | 7/94C471F8               |           32560673272

 2017-02-05 07:27:29.486809+01 | 1486276049.48681 | 7/983E3470               |           32618984560

 2017-02-05 07:27:30.566125+01 | 1486276050.56612 | 7/9B2D0BD0               |           32668191696

 2017-02-05 07:27:31.660298+01 | 1486276051.6603 | 7/9D3AB830               |           32702642224

 2017-02-05 07:27:32.742163+01 | 1486276052.74216 | 7/A0D105F8               |           32762824184

 2017-02-05 07:27:33.825487+01 | 1486276053.82549 | 7/A3AC1298               |           32810734232

 2017-02-05 07:27:34.908031+01 | 1486276054.90803 | 7/A657CD58               |           32855543128

 2017-02-05 07:27:35.988207+01 | 1486276055.98821 | 7/A925CA98               |           32902597272

 2017-02-05 07:27:37.070985+01 | 1486276057.07099 | 7/ABD62F30               |           32947711792

 2017-02-05 07:27:38.137407+01 | 1486276058.13741 | 7/AE74F7A0               |           32991672224

 2017-02-05 07:27:39.214185+01 | 1486276059.21418 | 7/B1814FC8               |           33042812872

 2017-02-05 07:27:40.312249+01 | 1486276060.31225 | 7/B4C157F8               |           33097340920

 2017-02-05 07:27:41.390551+01 | 1486276061.39055 | 7/B7DD5850               |           33149507664

 2017-02-05 07:27:42.468882+01 | 1486276062.46888 | 7/BAFB1D58               |           33201790296

 2017-02-05 07:27:43.551771+01 | 1486276063.55177 | 7/BE165BE8               |           33253907432

 2017-02-05 07:27:44.63239+01 | 1486276064.63239 | 7/C0F86690               |           33302275728

 2017-02-05 07:27:45.712975+01 | 1486276065.71298 | 7/C3C77AD8               |           33349401304

 2017-02-05 07:27:46.793571+01 | 1486276066.79357 | 7/C716B7C0               |           33404925888

 2017-02-05 07:27:47.881646+01 | 1486276067.88165 | 7/CA7B5CD0               |           33461853392

 2017-02-05 07:27:48.968309+01 | 1486276068.96831 | 7/CE2E7648               |           33523922504

 2017-02-05 07:27:50.045611+01 | 1486276070.04561 | 7/D0D24CC0               |           33568214208

 2017-02-05 07:27:51.124782+01 | 1486276071.12478 | 7/D37A2038               |           33612767288

 2017-02-05 07:27:52.208593+01 | 1486276072.20859 | 7/D671FEC8               |           33662566088

 2017-02-05 07:27:53.294136+01 | 1486276073.29414 | 7/D9B46DA8               |           33717251496

 2017-02-05 07:27:54.373935+01 | 1486276074.37393 | 7/DD6318F0               |           33779030256

 2017-02-05 07:27:55.446979+01 | 1486276075.44698 | 7/E0202D00               |           33824976128

 2017-02-05 07:27:56.525121+01 | 1486276076.52512 | 7/E338FD80               |           33876934016

 2017-02-05 07:27:57.612671+01 | 1486276077.61267 | 7/E66BD708               |           33930598152

 2017-02-05 07:27:58.697401+01 | 1486276078.6974 | 7/E95207D8               |           33979238360

 2017-02-05 07:27:59.774794+01 | 1486276079.77479 | 7/EC9B47B0               |           34034370480

 2017-02-05 07:28:00.856812+01 | 1486276080.85681 | 7/EFAB6408               |           34085757960

 2017-02-05 07:28:01.942165+01 | 1486276081.94216 | 7/F316F9A0               |           34143140256

 2017-02-05 07:28:03.021226+01 | 1486276083.02123 | 7/F60AC9F0               |           34192673264

 2017-02-05 07:28:04.105105+01 | 1486276084.1051 | 7/F97EEFE0               |           34250616800

 2017-02-05 07:28:05.188279+01 | 1486276085.18828 | 7/FC8D49A0               |           34301888928

 2017-02-05 07:28:06.274527+01 | 1486276086.27453 | 7/FFCA8928               |           34356234536

 2017-02-05 07:28:07.358528+01 | 1486276087.35853 | 8/30778E8                |           34410559720

 2017-02-05 07:28:08.443279+01 | 1486276088.44328 | 8/6009970                |           34460440944

 2017-02-05 07:28:09.531219+01 | 1486276089.53122 | 8/95064A8                |           34516001960

 2017-02-05 07:28:10.617895+01 | 1486276090.61789 | 8/C3CB1C0                |           34565042624

 2017-02-05 07:28:11.707668+01 | 1486276091.70767 | 8/F458F30                |           34615955248

 2017-02-05 07:28:12.795305+01 | 1486276092.79531 | 8/126C5D68               |           34668830056

 2017-02-05 07:28:13.869877+01 | 1486276093.86988 | 8/1483A430               |           34703909936

 2017-02-05 07:28:14.958365+01 | 1486276094.95836 | 8/16DA80F8               |           34743156984

 2017-02-05 07:28:16.033561+01 | 1486276096.03356 | 8/196D7148               |           34786341192

 2017-02-05 07:28:17.103873+01 | 1486276097.10387 | 8/1B60EEC0               |           34819075776

 2017-02-05 07:28:18.18108+01 | 1486276098.18108 | 8/1DE72000               |           34861424640

 2017-02-05 07:28:19.259852+01 | 1486276099.25985 | 8/1FEFD1B0               |           34895548848

 2017-02-05 07:28:20.333898+01 | 1486276100.3339 | 8/2247A388               |           34934858632

 2017-02-05 07:28:21.420115+01 | 1486276101.42011 | 8/248A9B40               |           34972801856

 2017-02-05 07:28:22.499235+01 | 1486276102.49923 | 8/26E1CE18               |           35012070936

 2017-02-05 07:28:23.575314+01 | 1486276103.57531 | 8/28B6B320               |           35042800416

 2017-02-05 07:28:24.657622+01 | 1486276104.65762 | 8/2B206398               |           35083281304

 2017-02-05 07:28:25.736876+01 | 1486276105.73688 | 8/2D7D9948               |           35122944328

 2017-02-05 07:28:26.822732+01 | 1486276106.82273 | 8/2FEBCB58               |           35163720536

 2017-02-05 07:28:27.907895+01 | 1486276107.9079 | 8/3223B168               |           35200938344

 2017-02-05 07:28:28.985349+01 | 1486276108.98535 | 8/342E7DF0               |           35235200496

 2017-02-05 07:28:30.068324+01 | 1486276110.06832 | 8/3680E8F8               |           35274156280

 2017-02-05 07:28:31.148795+01 | 1486276111.14879 | 8/390BF140               |           35316822336

 2017-02-05 07:28:32.231931+01 | 1486276112.23193 | 8/3BC4BBF8               |           35362487288

 2017-02-05 07:28:33.314274+01 | 1486276113.31427 | 8/3E90E738               |           35409422136

 2017-02-05 07:28:34.38717+01 | 1486276114.38717 | 8/411776A8               |           35451795112

 2017-02-05 07:28:35.466776+01 | 1486276115.46678 | 8/43B425C8               |           35495617992

 2017-02-05 07:28:36.550234+01 | 1486276116.55023 | 8/4695A5D8               |           35543950808

 2017-02-05 07:28:37.643859+01 | 1486276117.64386 | 8/48D84A00               |           35581872640

 2017-02-05 07:28:38.719394+01 | 1486276118.71939 | 8/4AF192F0               |           35617084144

 2017-02-05 07:28:39.804355+01 | 1486276119.80435 | 8/4D26EAE0               |           35654134496

 2017-02-05 07:28:40.888021+01 | 1486276120.88802 | 8/4F48F618               |           35689920024

 2017-02-05 07:28:41.980862+01 | 1486276121.98086 | 8/5170A878               |           35726076024

 2017-02-05 07:28:43.062557+01 | 1486276123.06256 | 8/53D4E230               |           35766198832

 2017-02-05 07:28:44.142405+01 | 1486276124.14241 | 8/56156B48               |           35803982664

 2017-02-05 07:28:45.218992+01 | 1486276125.21899 | 8/58D31F58               |           35849969496

 2017-02-05 07:28:46.306142+01 | 1486276126.30614 | 8/5B402138               |           35890667832

 2017-02-05 07:28:47.390985+01 | 1486276127.39099 | 8/5D9CAD58               |           35930287448

 2017-02-05 07:28:48.470204+01 | 1486276128.4702 | 8/601B6DF0               |           35972148720

 2017-02-05 07:28:49.551164+01 | 1486276129.55116 | 8/62449718               |           36008400664

 2017-02-05 07:28:50.632077+01 | 1486276130.63208 | 8/64C9A5B0               |           36050675120

 2017-02-05 07:28:51.709605+01 | 1486276131.7096 | 8/67363178               |           36091343224

 2017-02-05 07:28:52.787186+01 | 1486276132.78719 | 8/696D8540               |           36128523584

 2017-02-05 07:28:53.870417+01 | 1486276133.87042 | 8/6BBF1F90               |           36167425936

 2017-02-05 07:28:54.959339+01 | 1486276134.95934 | 8/6E11CDC0               |           36206398912

 2017-02-05 07:28:56.039078+01 | 1486276136.03908 | 8/705EAF08               |           36244991752

 2017-02-05 07:28:57.121871+01 | 1486276137.12187 | 8/72AE9298               |           36283781784

 2017-02-05 07:28:58.20348+01 | 1486276138.20348 | 8/74DC9200               |           36320350720

 2017-02-05 07:28:59.283296+01 | 1486276139.2833 | 8/7727F840               |           36358846528

 2017-02-05 07:29:00.364788+01 | 1486276140.36479 | 8/797CBE88               |           36397956744

 2017-02-05 07:29:01.449478+01 | 1486276141.44948 | 8/7B911360               |           36432843616

 2017-02-05 07:29:02.542861+01 | 1486276142.54286 | 8/7DDB8668               |           36471277160

 2017-02-05 07:29:03.6331+01 | 1486276143.6331 | 8/7FD94898               |           36504684696

 2017-02-05 07:29:04.716406+01 | 1486276144.71641 | 8/81FE4578               |           36540663160

 2017-02-05 07:29:05.807132+01 | 1486276145.80713 | 8/845C9AE8               |           36580399848

 2017-02-05 07:29:06.883187+01 | 1486276146.88319 | 8/866971B8               |           36614795704

 2017-02-05 07:29:07.96448+01 | 1486276147.96448 | 8/8886F048               |           36650283080

 2017-02-05 07:29:09.05357+01 | 1486276149.05357 | 8/8AC05FE8               |           36687601640

 2017-02-05 07:29:10.134375+01 | 1486276150.13438 | 8/8CC0D578               |           36721186168

 2017-02-05 07:29:11.219717+01 | 1486276151.21972 | 8/8ED0F3C0               |           36755796928

 2017-02-05 07:29:12.297022+01 | 1486276152.29702 | 8/90F35058               |           36791603288

 2017-02-05 07:29:13.376517+01 | 1486276153.37652 | 8/93059518               |           36826354968

 2017-02-05 07:29:14.457178+01 | 1486276154.45718 | 8/95068258               |           36859970136

 2017-02-05 07:29:15.535155+01 | 1486276155.53516 | 8/971A2BF0               |           36894813168

 2017-02-05 07:29:16.619873+01 | 1486276156.61987 | 8/9904A328               |           36926956328

 2017-02-05 07:29:17.69723+01 | 1486276157.69723 | 8/9B0EE5F0               |           36961183216

 2017-02-05 07:29:18.766873+01 | 1486276158.76687 | 8/9D136580               |           36995032448

 2017-02-05 07:29:19.862496+01 | 1486276159.8625 | 8/9F013628               |           37027395112

 2017-02-05 07:29:20.938396+01 | 1486276160.9384 | 8/A0FE1850               |           37060745296

 2017-02-05 07:29:22.021796+01 | 1486276162.0218 | 8/A30BC870               |           37095196784

 2017-02-05 07:29:23.10258+01 | 1486276163.10258 | 8/A4FCE868               |           37127776360

 2017-02-05 07:29:24.182206+01 | 1486276164.18221 | 8/A6E27248               |           37159596616

 2017-02-05 07:29:25.263557+01 | 1486276165.26356 | 8/A8D3FF98               |           37192204184

 2017-02-05 07:29:26.346936+01 | 1486276166.34694 | 8/AAA90870               |           37222942832

 2017-02-05 07:29:27.425878+01 | 1486276167.42588 | 8/AC751490               |           37253092496

 2017-02-05 07:29:28.511461+01 | 1486276168.51146 | 8/AE73B488               |           37286556808

 2017-02-05 07:29:29.584188+01 | 1486276169.58419 | 8/B02A6898               |           37315307672

 2017-02-05 07:29:30.664944+01 | 1486276170.66494 | 8/B1F10F88               |           37345103752

 2017-02-05 07:29:31.748163+01 | 1486276171.74816 | 8/B3BE8870               |           37375346800

 2017-02-05 07:29:32.83185+01 | 1486276172.83185 | 8/B58862E0               |           37405352672

 2017-02-05 07:29:33.912316+01 | 1486276173.91232 | 8/B73AE720               |           37433829152

 2017-02-05 07:29:34.991803+01 | 1486276174.9918 | 8/B91A4288               |           37465244296

 2017-02-05 07:29:36.077093+01 | 1486276176.07709 | 8/BAC3D668               |           37493134952

 2017-02-05 07:29:37.164796+01 | 1486276177.1648 | 8/BC71CD20               |           37521313056

 2017-02-05 07:29:38.25861+01 | 1486276178.25861 | 8/BE22F0D8               |           37549699288

 2017-02-05 07:29:39.337151+01 | 1486276179.33715 | 8/BFA394A8               |           37574907048

 2017-02-05 07:29:40.412341+01 | 1486276180.41234 | 8/C162ACC0               |           37604207808

 2017-02-05 07:29:41.495477+01 | 1486276181.49548 | 8/C2F29228               |           37630415400

 2017-02-05 07:29:42.586027+01 | 1486276182.58603 | 8/C494DEE8               |           37657829096

 2017-02-05 07:29:43.677041+01 | 1486276183.67704 | 8/C61AC9D0               |           37683382736

 2017-02-05 07:29:44.760839+01 | 1486276184.76084 | 8/C7AF8C98               |           37709909144

 2017-02-05 07:29:45.844814+01 | 1486276185.84481 | 8/C93E3BD0               |           37736037328

 2017-02-05 07:29:46.933178+01 | 1486276186.93318 | 8/CAE40CB8               |           37763681464

 2017-02-05 07:29:48.011132+01 | 1486276188.01113 | 8/CC679110               |           37789077776

 2017-02-05 07:29:49.09945+01 | 1486276189.09945 | 8/CDF584C0               |           37815157952

 2017-02-05 07:29:50.175022+01 | 1486276190.17502 | 8/CF5F8D00               |           37838884096

 2017-02-05 07:29:51.260117+01 | 1486276191.26012 | 8/D0E5CFF8               |           37864460280

 2017-02-05 07:29:52.346305+01 | 1486276192.3463 | 8/D25AA9D0               |           37888895440

 2017-02-05 07:29:53.428464+01 | 1486276193.42846 | 8/D3E43458               |           37914686552

 2017-02-05 07:29:54.508254+01 | 1486276194.50825 | 8/D578A248               |           37941191240

 2017-02-05 07:29:55.588007+01 | 1486276195.58801 | 8/D6DAB0C0               |           37964394688

 2017-02-05 07:29:56.666378+01 | 1486276196.66638 | 8/D860AB28               |           37989952296

 2017-02-05 07:29:57.745661+01 | 1486276197.74566 | 8/D9E02000               |           38015082496

 2017-02-05 07:29:58.829585+01 | 1486276198.82959 | 8/DB438098               |           38038372504

 2017-02-05 07:29:59.914875+01 | 1486276199.91488 | 8/DCD67D88               |           38064782728

 2017-02-05 07:30:00.993884+01 | 1486276200.99388 | 8/DE457018               |           38088831000

 2017-02-05 07:30:02.07863+01 | 1486276202.07863 | 8/DFAE5628               |           38112482856

 2017-02-05 07:30:03.161299+01 | 1486276203.1613 | 8/E116A160               |           38136095072

 2017-02-05 07:30:04.241966+01 | 1486276204.24197 | 8/E271CB18               |           38158846744

 2017-02-05 07:30:05.323154+01 | 1486276205.32315 | 8/E3D16FE8               |           38181892072

 2017-02-05 07:30:06.401402+01 | 1486276206.4014 | 8/E5537BA8               |           38207191976

 2017-02-05 07:30:07.478359+01 | 1486276207.47836 | 8/E69EEE68               |           38228913768

 2017-02-05 07:30:08.551687+01 | 1486276208.55169 | 8/E7ED74D0               |           38250837200

 2017-02-05 07:30:09.633042+01 | 1486276209.63304 | 8/E92E2498               |           38271853720

 2017-02-05 07:30:10.708318+01 | 1486276210.70832 | 8/EA51D888               |           38290970760

 2017-02-05 07:30:11.78295+01 | 1486276211.78295 | 8/EB4F0E68               |           38307565160

 2017-02-05 07:30:12.861583+01 | 1486276212.86158 | 8/EC6B1160               |           38326178144

 2017-02-05 07:30:13.942826+01 | 1486276213.94283 | 8/ED887328               |           38344880936

 2017-02-05 07:30:15.022647+01 | 1486276215.02265 | 8/EEA43AE0               |           38363478752

 2017-02-05 07:30:16.110676+01 | 1486276216.11068 | 8/EFBE6210               |           38381969936

 2017-02-05 07:30:17.197279+01 | 1486276217.19728 | 8/F0FAEBA8               |           38402714536

 2017-02-05 07:30:18.283529+01 | 1486276218.28353 | 8/F235CBC0               |           38423350208

 2017-02-05 07:30:19.368021+01 | 1486276219.36802 | 8/F3440A00               |           38441060864

 2017-02-05 07:30:20.448371+01 | 1486276220.44837 | 8/F432BFD8               |           38456704984

 2017-02-05 07:30:21.528439+01 | 1486276221.52844 | 8/F5452DE8               |           38474690024

 2017-02-05 07:30:22.612831+01 | 1486276222.61283 | 8/F63A3528               |           38490748200

 2017-02-05 07:30:23.694385+01 | 1486276223.69439 | 8/F7405F08               |           38507929352

 2017-02-05 07:30:24.774568+01 | 1486276224.77457 | 8/F8365638               |           38524048952

 2017-02-05 07:30:25.867153+01 | 1486276225.86715 | 8/F9632CF0               |           38543764720

 2017-02-05 07:30:26.948375+01 | 1486276226.94837 | 8/FA84EDA8               |           38562753960

 2017-02-05 07:30:28.030018+01 | 1486276228.03002 | 8/FBAB71C0               |           38582055360

 2017-02-05 07:30:29.105053+01 | 1486276229.10505 | 8/FCA5C3D8               |           38598460376

 2017-02-05 07:30:30.184838+01 | 1486276230.18484 | 8/FDA3D450               |           38615110736

 2017-02-05 07:30:31.252895+01 | 1486276231.2529 | 8/FE88DB98               |           38630120344

 2017-02-05 07:30:32.336864+01 | 1486276232.33686 | 8/FF8B78C0               |           38647068864

 2017-02-05 07:30:33.41779+01 | 1486276233.41779 | 9/712BD0                 |           38662122448

 2017-02-05 07:30:34.49967+01 | 1486276234.49967 | 9/1690068                |           38678364264

 2017-02-05 07:30:35.573176+01 | 1486276235.57318 | 9/24A4938                |           38693128504

 2017-02-05 07:30:36.648418+01 | 1486276236.64842 | 9/33CD8E8                |           38709025000

 2017-02-05 07:30:37.731359+01 | 1486276237.73136 | 9/42D3840                |           38724778048

 2017-02-05 07:30:38.817367+01 | 1486276238.81737 | 9/51A7358                |           38740325208

 2017-02-05 07:30:39.902204+01 | 1486276239.9022 | 9/63A49B0                |           38759188912

 2017-02-05 07:30:40.989423+01 | 1486276240.98942 | 9/74B76C0                |           38777091776

 2017-02-05 07:30:42.070601+01 | 1486276242.0706 | 9/84282D0                |           38793282256

 2017-02-05 07:30:43.152148+01 | 1486276243.15215 | 9/927BDD0                |           38808305104

 2017-02-05 07:30:44.239316+01 | 1486276244.23932 | 9/A17BAA8                |           38824032936

 2017-02-05 07:30:45.327805+01 | 1486276245.32781 | 9/B0D0680                |           38840108672

 2017-02-05 07:30:46.399988+01 | 1486276246.39999 | 9/BEF1E88                |           38854925960

 2017-02-05 07:30:47.47959+01 | 1486276247.47959 | 9/CC71658                |           38869079640

 2017-02-05 07:30:48.567128+01 | 1486276248.56713 | 9/DA2A4B0                |           38883468464

 2017-02-05 07:30:49.647634+01 | 1486276249.64763 | 9/E9256A8                |           38899177128

 2017-02-05 07:30:50.727238+01 | 1486276250.72724 | 9/F764510                |           38914114832

 2017-02-05 07:30:51.793439+01 | 1486276251.79344 | 9/1048DFC0               |           38927916992

 2017-02-05 07:30:52.876631+01 | 1486276252.87663 | 9/1118AF50               |           38941536080

 2017-02-05 07:30:53.955563+01 | 1486276253.95556 | 9/11FA84B8               |           38956336312

 2017-02-05 07:30:55.036882+01 | 1486276255.03688 | 9/12C9AAC0               |           38969912000

 2017-02-05 07:30:56.118873+01 | 1486276256.11887 | 9/13B7A090               |           38985506960

 2017-02-05 07:30:57.195513+01 | 1486276257.19551 | 9/14770228               |           38998049320

 2017-02-05 07:30:58.276583+01 | 1486276258.27658 | 9/1555D6E8               |           39012652776

 2017-02-05 07:30:59.360157+01 | 1486276259.36016 | 9/1619A0F0               |           39025484016

 2017-02-05 07:31:00.438006+01 | 1486276260.43801 | 9/16E7E108               |           39039000840

 2017-02-05 07:31:01.514155+01 | 1486276261.51415 | 9/17ACBDA8               |           39051902376

 2017-02-05 07:31:02.589633+01 | 1486276262.58963 | 9/18859988               |           39066114440

 2017-02-05 07:31:03.679305+01 | 1486276263.67931 | 9/19428808               |           39078496264

 2017-02-05 07:31:04.767532+01 | 1486276264.76753 | 9/1A214A68               |           39093095016

 2017-02-05 07:31:05.844665+01 | 1486276265.84467 | 9/1ADD32E0               |           39105409760

 2017-02-05 07:31:06.924298+01 | 1486276266.9243 | 9/1BB2AB38               |           39119399736

 2017-02-05 07:31:07.999344+01 | 1486276267.99934 | 9/1C788078               |           39132364920

 2017-02-05 07:31:09.080465+01 | 1486276269.08047 | 9/1D4AFE78               |           39146159736

 2017-02-05 07:31:10.163087+01 | 1486276270.16309 | 9/1E0A4800               |           39158695936

 2017-02-05 07:31:11.24174+01 | 1486276271.24174 | 9/1ECFB730               |           39171634992

 2017-02-05 07:31:12.316799+01 | 1486276272.3168 | 9/1F9FFFF0               |           39185285104

 2017-02-05 07:31:13.392172+01 | 1486276273.39217 | 9/205951E0               |           39197430240

 2017-02-05 07:31:14.472062+01 | 1486276274.47206 | 9/21112C30               |           39209479216

 2017-02-05 07:31:15.557035+01 | 1486276275.55703 | 9/21C9E768               |           39221585768

 2017-02-05 07:31:16.638532+01 | 1486276276.63853 | 9/229ADF38               |           39235280696

 2017-02-05 07:31:17.710291+01 | 1486276277.71029 | 9/2345D5E8               |           39246484968

 2017-02-05 07:31:18.793821+01 | 1486276278.79382 | 9/240C7168               |           39259500904

 2017-02-05 07:31:19.881904+01 | 1486276279.8819 | 9/24B657A0               |           39270635424

 2017-02-05 07:31:20.961289+01 | 1486276280.96129 | 9/257FE8E0               |           39283845344

 2017-02-05 07:31:22.03906+01 | 1486276282.03906 | 9/261DDB10               |           39294196496

 2017-02-05 07:31:23.127604+01 | 1486276283.1276 | 9/26D8FE68               |           39306460776

