 2017-02-05 18:45:49.644994+01 | 1486316749.64499 | F/D0E7F70                |           64643563376

 2017-02-05 18:45:50.729191+01 | 1486316750.72919 | F/1D539130               |           64916525360

 2017-02-05 18:45:51.805573+01 | 1486316751.80557 | F/2F2F2ED0               |           65216130768

 2017-02-05 18:45:52.893457+01 | 1486316752.89346 | F/40CAEED0               |           65511550672

 2017-02-05 18:45:53.972306+01 | 1486316753.97231 | F/51EE2920               |           65799072032

 2017-02-05 18:45:55.054612+01 | 1486316755.05461 | F/614E9780               |           66057049984

 2017-02-05 18:45:56.138778+01 | 1486316756.13878 | F/70666AD8               |           66310269656

 2017-02-05 18:45:57.211151+01 | 1486316757.21115 | F/7E273058               |           66541006936

 2017-02-05 18:45:58.293136+01 | 1486316758.29314 | F/8AB91360               |           66751894368

 2017-02-05 18:45:59.368567+01 | 1486316759.36857 | F/9603BCC8               |           66941336776

 2017-02-05 18:46:00.45253+01 | 1486316760.45253 | F/A0BAF188               |           67121115528

 2017-02-05 18:46:01.531569+01 | 1486316761.53157 | F/AAA03CB0               |           67287137456

 2017-02-05 18:46:02.615811+01 | 1486316762.61581 | F/B3B2FDF8               |           67439361528

 2017-02-05 18:46:03.699486+01 | 1486316763.69949 | F/BC5187B0               |           67583969200

 2017-02-05 18:46:04.778528+01 | 1486316764.77853 | F/C4DE4C88               |           67727412360

 2017-02-05 18:46:05.862863+01 | 1486316765.86286 | F/CCFC22B0               |           67863585456

 2017-02-05 18:46:06.946653+01 | 1486316766.94665 | F/D4EE2E60               |           67996888672

 2017-02-05 18:46:08.029104+01 | 1486316768.0291 | F/DC4E3500               |           68120622336

 2017-02-05 18:46:09.113509+01 | 1486316769.11351 | F/E3AE7F28               |           68244373288

 2017-02-05 18:46:10.196915+01 | 1486316770.19691 | F/EAC73C28               |           68363435048

 2017-02-05 18:46:11.276761+01 | 1486316771.27676 | F/F177CAA8               |           68475669160

 2017-02-05 18:46:12.355273+01 | 1486316772.35527 | F/F7C8BDF8               |           68581637624

 2017-02-05 18:46:13.438681+01 | 1486316773.43868 | F/FE176CF0               |           68687457520

 2017-02-05 18:46:14.520423+01 | 1486316774.52042 | 10/439E948               |           68790380872

 2017-02-05 18:46:15.603501+01 | 1486316775.6035 | 10/A356970               |           68890749296

 2017-02-05 18:46:16.676609+01 | 1486316776.67661 | 10/FCC2830               |           68984514608

 2017-02-05 18:46:17.754301+01 | 1486316777.7543 | 10/1550C768              |           69077092200

 2017-02-05 18:46:18.836589+01 | 1486316778.83659 | 10/1A9771E8              |           69165609448

 2017-02-05 18:46:19.918206+01 | 1486316779.91821 | 10/1FEE6068              |           69255192680

 2017-02-05 18:46:20.993268+01 | 1486316780.99327 | 10/2511AEB8              |           69341392568

 2017-02-05 18:46:22.086192+01 | 1486316782.08619 | 10/2A229140              |           69426385216

 2017-02-05 18:46:23.166754+01 | 1486316783.16675 | 10/2EB2DF70              |           69502951280

 2017-02-05 18:46:24.247087+01 | 1486316784.24709 | 10/33609108              |           69581443336

 2017-02-05 18:46:25.314948+01 | 1486316785.31495 | 10/3832C578              |           69662328184

 2017-02-05 18:46:26.397217+01 | 1486316786.39722 | 10/3CC2C738              |           69738874680

 2017-02-05 18:46:27.473685+01 | 1486316787.47369 | 10/41624D48              |           69816438088

 2017-02-05 18:46:28.55281+01 | 1486316788.55281 | 10/45ACE410              |           69888435216

 2017-02-05 18:46:29.628903+01 | 1486316789.6289 | 10/4A314A00              |           69964220928

 2017-02-05 18:46:30.703319+01 | 1486316790.70332 | 10/4E760CF0              |           70035836144

 2017-02-05 18:46:31.780162+01 | 1486316791.78016 | 10/52D1D9E0              |           70108961248

 2017-02-05 18:46:32.858216+01 | 1486316792.85822 | 10/56F398B8              |           70178281656

 2017-02-05 18:46:33.93895+01 | 1486316793.93895 | 10/5B1ECB98              |           70248221592

 2017-02-05 18:46:35.017474+01 | 1486316795.01747 | 10/5F2AF488              |           70316127368

 2017-02-05 18:46:36.100558+01 | 1486316796.10056 | 10/62D3EB90              |           70377532304

 2017-02-05 18:46:37.177424+01 | 1486316797.17742 | 10/66CBC000              |           70444105728

 2017-02-05 18:46:38.253361+01 | 1486316798.25336 | 10/6ACCA390              |           70511272848

 2017-02-05 18:46:39.340849+01 | 1486316799.34085 | 10/6EB9FD30              |           70577159472

 2017-02-05 18:46:40.425883+01 | 1486316800.42588 | 10/72A918A0              |           70643161248

 2017-02-05 18:46:41.508621+01 | 1486316801.50862 | 10/765519F0              |           70704765424

 2017-02-05 18:46:42.591329+01 | 1486316802.59133 | 10/7A1B6E38              |           70768094776

 2017-02-05 18:46:43.668652+01 | 1486316803.66865 | 10/7DA4F470              |           70827439216

 2017-02-05 18:46:44.747538+01 | 1486316804.74754 | 10/8147FF88              |           70888456072

 2017-02-05 18:46:45.822485+01 | 1486316805.82248 | 10/84ACDB28              |           70945397544

 2017-02-05 18:46:46.902424+01 | 1486316806.90242 | 10/881D5F28              |           71003103016

 2017-02-05 18:46:47.981729+01 | 1486316807.98173 | 10/8B945A18              |           71061232152

 2017-02-05 18:46:49.064334+01 | 1486316809.06433 | 10/8EF61EA8              |           71117971112

 2017-02-05 18:46:50.144467+01 | 1486316810.14447 | 10/91BB9770              |           71164467056

 2017-02-05 18:46:51.2254+01 | 1486316811.2254 | 10/94E5D8B8              |           71217567928

 2017-02-05 18:46:52.303556+01 | 1486316812.30356 | 10/98700DC8              |           71276957128

 2017-02-05 18:46:53.389334+01 | 1486316813.38933 | 10/9BF89108              |           71336235272

 2017-02-05 18:46:54.47763+01 | 1486316814.47763 | 10/9F5D6480              |           71393174656

 2017-02-05 18:46:55.560106+01 | 1486316815.56011 | 10/A2A78058              |           71448363096

 2017-02-05 18:46:56.640986+01 | 1486316816.64099 | 10/A5FC8580              |           71504266624

 2017-02-05 18:46:57.716323+01 | 1486316817.71632 | 10/A9584F70              |           71560613744

 2017-02-05 18:46:58.795925+01 | 1486316818.79592 | 10/ACB7F880              |           71617214592

 2017-02-05 18:46:59.873615+01 | 1486316819.87362 | 10/AFFB1420              |           71671944224

 2017-02-05 18:47:00.957316+01 | 1486316820.95732 | 10/B3410448              |           71726859336

 2017-02-05 18:47:02.039695+01 | 1486316822.0397 | 10/B6A696E0              |           71783847648

 2017-02-05 18:47:03.120466+01 | 1486316823.12047 | 10/B98F4EC8              |           71832653512

 2017-02-05 18:47:04.199646+01 | 1486316824.19965 | 10/BCCDC990              |           71887079824

 2017-02-05 18:47:05.280931+01 | 1486316825.28093 | 10/C0221580              |           71942935936

 2017-02-05 18:47:06.360095+01 | 1486316826.3601 | 10/C35A59A0              |           71996955040

 2017-02-05 18:47:07.442922+01 | 1486316827.44292 | 10/C6965438              |           72051217464

 2017-02-05 18:47:08.525949+01 | 1486316828.52595 | 10/C9C01AE8              |           72104286952

 2017-02-05 18:47:09.600451+01 | 1486316829.60045 | 10/CCE9C080              |           72157347968

 2017-02-05 18:47:10.676575+01 | 1486316830.67657 | 10/CFF75140              |           72208568640

 2017-02-05 18:47:11.751807+01 | 1486316831.75181 | 10/D305EEA0              |           72259858080

 2017-02-05 18:47:12.825613+01 | 1486316832.82561 | 10/D5EB7530              |           72308454704

 2017-02-05 18:47:13.904496+01 | 1486316833.9045 | 10/D8EE5408              |           72358974472

 2017-02-05 18:47:14.985338+01 | 1486316834.98534 | 10/DC170250              |           72411972176

 2017-02-05 18:47:16.069855+01 | 1486316836.06985 | 10/DF283038              |           72463429688

 2017-02-05 18:47:17.156671+01 | 1486316837.15667 | 10/E23CA020              |           72515100704

 2017-02-05 18:47:18.243574+01 | 1486316838.24357 | 10/E53AF180              |           72565322112

 2017-02-05 18:47:19.325826+01 | 1486316839.32583 | 10/E79EF208              |           72605430280

 2017-02-05 18:47:20.417383+01 | 1486316840.41738 | 10/EAB7E1B8              |           72657396152

 2017-02-05 18:47:21.500332+01 | 1486316841.50033 | 10/ED24CD80              |           72698088832

 2017-02-05 18:47:22.580213+01 | 1486316842.58021 | 10/EF63B9B8              |           72735766968

 2017-02-05 18:47:23.658803+01 | 1486316843.6588 | 10/F1A49AA8              |           72773573288

 2017-02-05 18:47:24.736978+01 | 1486316844.73698 | 10/F40791E0              |           72813613536

 2017-02-05 18:47:25.812478+01 | 1486316845.81248 | 10/F755C728              |           72869070632

 2017-02-05 18:47:26.891776+01 | 1486316846.89178 | 10/FB123960              |           72931752288

 2017-02-05 18:47:27.970727+01 | 1486316847.97073 | 10/FF6847D0              |           73004500944

 2017-02-05 18:47:29.054722+01 | 1486316849.05472 | 11/3AE1C10               |           73076186128

 2017-02-05 18:47:30.134579+01 | 1486316850.13458 | 11/5BF9198               |           73110884760

 2017-02-05 18:47:31.222005+01 | 1486316851.222 | 11/7E11D48               |           73146637640

 2017-02-05 18:47:32.3074+01 | 1486316852.3074 | 11/9FF0798               |           73182152600

 2017-02-05 18:47:33.388605+01 | 1486316853.38861 | 11/C25EE38               |           73218256440

 2017-02-05 18:47:34.473032+01 | 1486316854.47303 | 11/E3C4190               |           73253274000

 2017-02-05 18:47:35.55451+01 | 1486316855.55451 | 11/103ADDD0              |           73286737360

 2017-02-05 18:47:36.63984+01 | 1486316856.63984 | 11/122E8900              |           73319483648

 2017-02-05 18:47:37.714361+01 | 1486316857.71436 | 11/1440BA88              |           73354230408

 2017-02-05 18:47:38.789319+01 | 1486316858.78932 | 11/1622FDC8              |           73385835976

 2017-02-05 18:47:39.873527+01 | 1486316859.87353 | 11/18113F18              |           73418227480

 2017-02-05 18:47:40.953678+01 | 1486316860.95368 | 11/1A0F7A10              |           73451665936

 2017-02-05 18:47:42.037036+01 | 1486316862.03704 | 11/1C0093E0              |           73484243936

 2017-02-05 18:47:43.11961+01 | 1486316863.11961 | 11/1DFABFD8              |           73517416408

 2017-02-05 18:47:44.203515+01 | 1486316864.20352 | 11/1FFD8A18              |           73551153688

 2017-02-05 18:47:45.280737+01 | 1486316865.28074 | 11/21F353F0              |           73584038896

 2017-02-05 18:47:46.376797+01 | 1486316866.3768 | 11/23F47278              |           73617666680

 2017-02-05 18:47:47.456583+01 | 1486316867.45658 | 11/25DFE358              |           73649873752

 2017-02-05 18:47:48.536017+01 | 1486316868.53602 | 11/27ADFB90              |           73680157584

 2017-02-05 18:47:49.622669+01 | 1486316869.62267 | 11/299BA270              |           73712509552

 2017-02-05 18:47:50.702383+01 | 1486316870.70238 | 11/2B8A5BB8              |           73744931768

 2017-02-05 18:47:51.779796+01 | 1486316871.7798 | 11/2D6952D0              |           73776321232

 2017-02-05 18:47:52.857909+01 | 1486316872.85791 | 11/2F532F50              |           73808424784

 2017-02-05 18:47:53.938339+01 | 1486316873.93834 | 11/31389580              |           73840235904

 2017-02-05 18:47:55.02298+01 | 1486316875.02298 | 11/33221070              |           73872314480

 2017-02-05 18:47:56.10994+01 | 1486316876.10994 | 11/350228B8              |           73903777976

 2017-02-05 18:47:57.190646+01 | 1486316877.19065 | 11/36ADFB88              |           73931815816

 2017-02-05 18:47:58.271906+01 | 1486316878.27191 | 11/38874528              |           73962833192

 2017-02-05 18:47:59.353324+01 | 1486316879.35332 | 11/3A5D9B38              |           73993657144

 2017-02-05 18:48:00.434708+01 | 1486316880.43471 | 11/3C382E08              |           74024758792

 2017-02-05 18:48:01.525298+01 | 1486316881.5253 | 11/3E13AF28              |           74055921448

 2017-02-05 18:48:02.608826+01 | 1486316882.60883 | 11/3FE6CAE8              |           74086533864

 2017-02-05 18:48:03.692277+01 | 1486316883.69228 | 11/41BE8578              |           74117449080

 2017-02-05 18:48:04.769243+01 | 1486316884.76924 | 11/4380EC50              |           74146966608

 2017-02-05 18:48:05.844572+01 | 1486316885.84457 | 11/454CDC00              |           74177108992

 2017-02-05 18:48:06.922689+01 | 1486316886.92269 | 11/4715B750              |           74207049552

 2017-02-05 18:48:08.002714+01 | 1486316888.00271 | 11/48DDCD00              |           74236939520

 2017-02-05 18:48:09.087654+01 | 1486316889.08765 | 11/4AA9C360              |           74267083616

 2017-02-05 18:48:10.173365+01 | 1486316890.17337 | 11/4C5E9108              |           74295709960

 2017-02-05 18:48:11.253099+01 | 1486316891.2531 | 11/4E1BA340              |           74324878144

 2017-02-05 18:48:12.32998+01 | 1486316892.32998 | 11/4FD9C2C0              |           74354115264

 2017-02-05 18:48:13.41556+01 | 1486316893.41556 | 11/51A15B30              |           74383973168

 2017-02-05 18:48:14.503189+01 | 1486316894.50319 | 11/535B6CB0              |           74412944560

 2017-02-05 18:48:15.587179+01 | 1486316895.58718 | 11/552059C8              |           74442627528

 2017-02-05 18:48:16.67177+01 | 1486316896.67177 | 11/56D7A0D0              |           74471416016

 2017-02-05 18:48:17.749285+01 | 1486316897.74928 | 11/5893B8A0              |           74500520096

 2017-02-05 18:48:18.829507+01 | 1486316898.82951 | 11/5A54F100              |           74529960192

 2017-02-05 18:48:19.905131+01 | 1486316899.90513 | 11/5C1EB9E0              |           74559961568

 2017-02-05 18:48:20.986623+01 | 1486316900.98662 | 11/5DB445C0              |           74586539456

 2017-02-05 18:48:22.072761+01 | 1486316902.07276 | 11/5F71E158              |           74615742808

 2017-02-05 18:48:23.163472+01 | 1486316903.16347 | 11/61286028              |           74644480040

 2017-02-05 18:48:24.254992+01 | 1486316904.25499 | 11/62E7B508              |           74673796360

 2017-02-05 18:48:25.330235+01 | 1486316905.33024 | 11/64B04C88              |           74703719560

 2017-02-05 18:48:26.412117+01 | 1486316906.41212 | 11/667D7238              |           74733941304

 2017-02-05 18:48:27.49391+01 | 1486316907.49391 | 11/684C4AA0              |           74764274336

 2017-02-05 18:48:28.579346+01 | 1486316908.57935 | 11/6A299E18              |           74795556376

 2017-02-05 18:48:29.656617+01 | 1486316909.65662 | 11/6C0D35E8              |           74827249128

 2017-02-05 18:48:30.734244+01 | 1486316910.73424 | 11/6DE8AB28              |           74858408744

 2017-02-05 18:48:31.811591+01 | 1486316911.81159 | 11/6FDAE248              |           74891059784

 2017-02-05 18:48:32.875648+01 | 1486316912.87565 | 11/71A49558              |           74921055576

 2017-02-05 18:48:33.953396+01 | 1486316913.9534 | 11/739E8B28              |           74954214184

 2017-02-05 18:48:35.031381+01 | 1486316915.03138 | 11/7597B6C0              |           74987321024

 2017-02-05 18:48:36.114665+01 | 1486316916.11467 | 11/77A4C9A0              |           75021732256

 2017-02-05 18:48:37.199343+01 | 1486316917.19934 | 11/79B57D70              |           75056381296

 2017-02-05 18:48:38.281243+01 | 1486316918.28124 | 11/7BCA8768              |           75091314536

 2017-02-05 18:48:39.365354+01 | 1486316919.36535 | 11/7E0262D0              |           75128529616

 2017-02-05 18:48:40.44695+01 | 1486316920.44695 | 11/803E0878              |           75165993080

 2017-02-05 18:48:41.536362+01 | 1486316921.53636 | 11/82A46BE0              |           75206257632

 2017-02-05 18:48:42.613953+01 | 1486316922.61395 | 11/84EFD568              |           75244754280

 2017-02-05 18:48:43.701273+01 | 1486316923.70127 | 11/8747D1E8              |           75284074984

 2017-02-05 18:48:44.781631+01 | 1486316924.78163 | 11/899020D8              |           75322368216

 2017-02-05 18:48:45.859615+01 | 1486316925.85962 | 11/8BE7ECA0              |           75361676448

 2017-02-05 18:48:46.934631+01 | 1486316926.93463 | 11/8E362288              |           75400356488

 2017-02-05 18:48:48.008622+01 | 1486316928.00862 | 11/9091B9D0              |           75439913424

 2017-02-05 18:48:49.090479+01 | 1486316929.09048 | 11/92C184A0              |           75476599968

 2017-02-05 18:48:50.15306+01 | 1486316930.15306 | 11/94DDEFC8              |           75512016840

 2017-02-05 18:48:51.233136+01 | 1486316931.23314 | 11/97132878              |           75549059192

 2017-02-05 18:48:52.317083+01 | 1486316932.31708 | 11/99737DD0              |           75588926928

 2017-02-05 18:48:53.407213+01 | 1486316933.40721 | 11/9BC8D540              |           75628074304

 2017-02-05 18:48:54.484838+01 | 1486316934.48484 | 11/9E118140              |           75666391360

 2017-02-05 18:48:55.573748+01 | 1486316935.57375 | 11/A0595268              |           75704652392

 2017-02-05 18:48:56.655016+01 | 1486316936.65502 | 11/A28FFD28              |           75741789480

 2017-02-05 18:48:57.735828+01 | 1486316937.73583 | 11/A4D22778              |           75779680120

 2017-02-05 18:48:58.80863+01 | 1486316938.80863 | 11/A710BC68              |           75817335912

 2017-02-05 18:48:59.885067+01 | 1486316939.88507 | 11/A90C7D70              |           75850612080

 2017-02-05 18:49:00.967007+01 | 1486316940.96701 | 11/AB3D0AC0              |           75887348416

 2017-02-05 18:49:02.045378+01 | 1486316942.04538 | 11/AD69A750              |           75923826512

 2017-02-05 18:49:03.134396+01 | 1486316943.1344 | 11/AF974930              |           75960371504

 2017-02-05 18:49:04.217423+01 | 1486316944.21742 | 11/B1B634B8              |           75995952312

 2017-02-05 18:49:05.301549+01 | 1486316945.30155 | 11/B3E79E18              |           76032744984

 2017-02-05 18:49:06.390452+01 | 1486316946.39045 | 11/B607EFE0              |           76068417504

 2017-02-05 18:49:07.469959+01 | 1486316947.46996 | 11/B7FBEF50              |           76101185360

 2017-02-05 18:49:08.549534+01 | 1486316948.54953 | 11/BA0AD2D8              |           76135715544

 2017-02-05 18:49:09.630042+01 | 1486316949.63004 | 11/BBF5EC38              |           76167900216

 2017-02-05 18:49:10.717614+01 | 1486316950.71761 | 11/BDE38B98              |           76200250264

 2017-02-05 18:49:11.794331+01 | 1486316951.79433 | 11/BFCB64D0              |           76232221904

 2017-02-05 18:49:12.873082+01 | 1486316952.87308 | 11/C1ABB048              |           76263698504

 2017-02-05 18:49:13.951662+01 | 1486316953.95166 | 11/C386B260              |           76294828640

 2017-02-05 18:49:15.030087+01 | 1486316955.03009 | 11/C54140F8              |           76323832056

 2017-02-05 18:49:16.106734+01 | 1486316956.10673 | 11/C7210608              |           76355274248

 2017-02-05 18:49:17.186339+01 | 1486316957.18634 | 11/C90A9520              |           76387357984

 2017-02-05 18:49:18.272215+01 | 1486316958.27221 | 11/CB1F93B8              |           76422288312

 2017-02-05 18:49:19.355174+01 | 1486316959.35517 | 11/CCEA59C8              |           76452354504

 2017-02-05 18:49:20.431324+01 | 1486316960.43132 | 11/CEDD3E18              |           76485049880

 2017-02-05 18:49:21.515341+01 | 1486316961.51534 | 11/D0E87008              |           76519337992

 2017-02-05 18:49:22.601858+01 | 1486316962.60186 | 11/D2E41D98              |           76552609176

 2017-02-05 18:49:23.693309+01 | 1486316963.69331 | 11/D4C41040              |           76584063040

 2017-02-05 18:49:24.774298+01 | 1486316964.7743 | 11/D63BC238              |           76608684600

 2017-02-05 18:49:25.868336+01 | 1486316965.86834 | 11/D7CFD8C0              |           76635166912

 2017-02-05 18:49:26.943007+01 | 1486316966.94301 | 11/D9D7ECD0              |           76669250768

 2017-02-05 18:49:28.025522+01 | 1486316968.02552 | 11/DBDC8AD0              |           76703107792

 2017-02-05 18:49:29.102927+01 | 1486316969.10293 | 11/DDD5B510              |           76736214288

 2017-02-05 18:49:30.179435+01 | 1486316970.17944 | 11/DFB7C720              |           76767807264

 2017-02-05 18:49:31.257973+01 | 1486316971.25797 | 11/E1B2AE88              |           76801027720

 2017-02-05 18:49:32.338205+01 | 1486316972.33821 | 11/E3BC9C68              |           76835232872

 2017-02-05 18:49:33.42588+01 | 1486316973.42588 | 11/E5C5C440              |           76869387328

 2017-02-05 18:49:34.509738+01 | 1486316974.50974 | 11/E7A25950              |           76900620624

 2017-02-05 18:49:35.597995+01 | 1486316975.598 | 11/E99FA938              |           76933998904

 2017-02-05 18:49:36.680018+01 | 1486316976.68002 | 11/EB953430              |           76966868016

 2017-02-05 18:49:37.757214+01 | 1486316977.75721 | 11/ED85CCD0              |           76999412944

 2017-02-05 18:49:38.830538+01 | 1486316978.83054 | 11/EF729CC8              |           77031709896

 2017-02-05 18:49:39.90673+01 | 1486316979.90673 | 11/F13DB618              |           77061797400

 2017-02-05 18:49:40.982764+01 | 1486316980.98276 | 11/F2FF5CC8              |           77091265736

 2017-02-05 18:49:42.05685+01 | 1486316982.05685 | 11/F4E7C150              |           77123273040

 2017-02-05 18:49:43.131308+01 | 1486316983.13131 | 11/F6C0FE58              |           77154287192

 2017-02-05 18:49:44.211501+01 | 1486316984.2115 | 11/F8A7C208              |           77186187784

 2017-02-05 18:49:45.296023+01 | 1486316985.29602 | 11/FA880FD0              |           77217664976

 2017-02-05 18:49:46.376052+01 | 1486316986.37605 | 11/FC5392A8              |           77247779496

 2017-02-05 18:49:47.456681+01 | 1486316987.45668 | 11/FE30D6A0              |           77279057568

 2017-02-05 18:49:48.540949+01 | 1486316988.54095 | 11/FFE3AC38              |           77307554872

 2017-02-05 18:49:49.621959+01 | 1486316989.62196 | 12/1CAAF30               |           77339471664

 2017-02-05 18:49:50.707036+01 | 1486316990.70704 | 12/3AFEDB0               |           77371272624

 2017-02-05 18:49:51.788268+01 | 1486316991.78827 | 12/58F9270               |           77402706544

 2017-02-05 18:49:52.866143+01 | 1486316992.86614 | 12/7731188               |           77434392968

 2017-02-05 18:49:53.946597+01 | 1486316993.9466 | 12/94DBDC0               |           77465501120

 2017-02-05 18:49:55.017246+01 | 1486316995.01725 | 12/AF75220               |           77493391904

 2017-02-05 18:49:56.097808+01 | 1486316996.09781 | 12/CDA0CB0               |           77525028016

 2017-02-05 18:49:57.171102+01 | 1486316997.1711 | 12/EB314B0               |           77556028592

 2017-02-05 18:49:58.256747+01 | 1486316998.25675 | 12/10934B18              |           77587499800

 2017-02-05 18:49:59.334403+01 | 1486316999.3344 | 12/12791CF0              |           77619338480

 2017-02-05 18:50:00.414169+01 | 1486317000.41417 | 12/13F183F0              |           77644006384

 2017-02-05 18:50:01.487993+01 | 1486317001.48799 | 12/15B1F678              |           77673395832

 2017-02-05 18:50:02.569877+01 | 1486317002.56988 | 12/176EC418              |           77702546456

 2017-02-05 18:50:03.655994+01 | 1486317003.65599 | 12/19283E28              |           77731479080

 2017-02-05 18:50:04.742025+01 | 1486317004.74202 | 12/1ABE27B0              |           77758080944

 2017-02-05 18:50:05.828247+01 | 1486317005.82825 | 12/1C9AAC50              |           77789310032

 2017-02-05 18:50:06.90501+01 | 1486317006.90501 | 12/1E549088              |           77818269832

 2017-02-05 18:50:07.98036+01 | 1486317007.98036 | 12/202BEC20              |           77849160736

 2017-02-05 18:50:09.056781+01 | 1486317009.05678 | 12/2203B058              |           77880078424

 2017-02-05 18:50:10.134245+01 | 1486317010.13424 | 12/23D32CD0              |           77910453456

 2017-02-05 18:50:11.208937+01 | 1486317011.20894 | 12/25B027A8              |           77941712808

 2017-02-05 18:50:12.289158+01 | 1486317012.28916 | 12/2775CFC8              |           77971443656

 2017-02-05 18:50:13.370593+01 | 1486317013.37059 | 12/29476C38              |           78001957944

 2017-02-05 18:50:14.450273+01 | 1486317014.45027 | 12/2AE600C0              |           78029127872

 2017-02-05 18:50:15.540035+01 | 1486317015.54004 | 12/2CD00620              |           78061241888

 2017-02-05 18:50:16.622982+01 | 1486317016.62298 | 12/2EAE29F8              |           78092577272

 2017-02-05 18:50:17.711011+01 | 1486317017.71101 | 12/308B4638              |           78123845176

 2017-02-05 18:50:18.797613+01 | 1486317018.79761 | 12/3253B418              |           78153757720

 2017-02-05 18:50:19.866625+01 | 1486317019.86663 | 12/3411BD50              |           78182989136

 2017-02-05 18:50:20.945131+01 | 1486317020.94513 | 12/35F52680              |           78214669952

 2017-02-05 18:50:22.019427+01 | 1486317022.01943 | 12/37CDB988              |           78245640584

 2017-02-05 18:50:23.099547+01 | 1486317023.09955 | 12/39B4A098              |           78277550232

 2017-02-05 18:50:24.177016+01 | 1486317024.17702 | 12/3B4C1A40              |           78304254528

 2017-02-05 18:50:25.24961+01 | 1486317025.24961 | 12/3CF60338              |           78332166968

 2017-02-05 18:50:26.329953+01 | 1486317026.32995 | 12/3EC2FFD8              |           78362378200

 2017-02-05 18:50:27.41055+01 | 1486317027.41055 | 12/406B7390              |           78390195088

 2017-02-05 18:50:28.492864+01 | 1486317028.49286 | 12/4236BBA0              |           78420294560

 2017-02-05 18:50:29.572958+01 | 1486317029.57296 | 12/44059618              |           78450629576

 2017-02-05 18:50:30.65842+01 | 1486317030.65842 | 12/45ED1B08              |           78482578184

 2017-02-05 18:50:31.741062+01 | 1486317031.74106 | 12/47D375D8              |           78514451928

 2017-02-05 18:50:32.830171+01 | 1486317032.83017 | 12/49B17418              |           78545777688

 2017-02-05 18:50:33.910723+01 | 1486317033.91072 | 12/4B49E648              |           78572545608

 2017-02-05 18:50:34.985527+01 | 1486317034.98553 | 12/4D3248E8              |           78604552424

 2017-02-05 18:50:36.064341+01 | 1486317036.06434 | 12/4F14C980              |           78636173696

 2017-02-05 18:50:37.143514+01 | 1486317037.14351 | 12/50E87FA8              |           78666825640

 2017-02-05 18:50:38.224657+01 | 1486317038.22466 | 12/52D25B88              |           78698929032

 2017-02-05 18:50:39.309763+01 | 1486317039.30976 | 12/547DA598              |           78726933960

 2017-02-05 18:50:40.394014+01 | 1486317040.39401 | 12/565AABC0              |           78758194112

 2017-02-05 18:50:41.476167+01 | 1486317041.47617 | 12/5839EAF0              |           78789602032

 2017-02-05 18:50:42.558182+01 | 1486317042.55818 | 12/5A1FA488              |           78821434504

 2017-02-05 18:50:43.637472+01 | 1486317043.63747 | 12/5BE56BB0              |           78851173296

 2017-02-05 18:50:44.701664+01 | 1486317044.70166 | 12/5D7C3208              |           78877831688

 2017-02-05 18:50:45.778433+01 | 1486317045.77843 | 12/5F49ED50              |           78908091728

 2017-02-05 18:50:46.860022+01 | 1486317046.86002 | 12/61254F40              |           78939246400

 2017-02-05 18:50:47.937904+01 | 1486317047.9379 | 12/62F05858              |           78969329752

 2017-02-05 18:50:49.012585+01 | 1486317049.01258 | 12/649901C0              |           78997160384

