 2017-02-06 07:21:40.70415+01 | 1486362100.70415 | pgbench_accounts |      13429514240
 2017-02-06 07:21:40.70415+01 | 1486362100.70415 | pgbench_tellers  |           450560
 2017-02-06 07:21:40.70415+01 | 1486362100.70415 | pgbench_history  |                0
 2017-02-06 07:21:40.70415+01 | 1486362100.70415 | pgbench_branches |            40960

 2017-02-06 07:21:41.801648+01 | 1486362101.80165 | pgbench_accounts |      13429514240
 2017-02-06 07:21:41.801648+01 | 1486362101.80165 | pgbench_tellers  |           450560
 2017-02-06 07:21:41.801648+01 | 1486362101.80165 | pgbench_history  |                0
 2017-02-06 07:21:41.801648+01 | 1486362101.80165 | pgbench_branches |            40960

 2017-02-06 07:21:42.893322+01 | 1486362102.89332 | pgbench_accounts |      13429514240
 2017-02-06 07:21:42.893322+01 | 1486362102.89332 | pgbench_tellers  |           450560
 2017-02-06 07:21:42.893322+01 | 1486362102.89332 | pgbench_history  |                0
 2017-02-06 07:21:42.893322+01 | 1486362102.89332 | pgbench_branches |            40960

 2017-02-06 07:21:43.987928+01 | 1486362103.98793 | pgbench_accounts |      13429514240
 2017-02-06 07:21:43.987928+01 | 1486362103.98793 | pgbench_tellers  |           450560
 2017-02-06 07:21:43.987928+01 | 1486362103.98793 | pgbench_history  |                0
 2017-02-06 07:21:43.987928+01 | 1486362103.98793 | pgbench_branches |            40960

 2017-02-06 07:21:45.077548+01 | 1486362105.07755 | pgbench_accounts |      13429514240
 2017-02-06 07:21:45.077548+01 | 1486362105.07755 | pgbench_tellers  |           450560
 2017-02-06 07:21:45.077548+01 | 1486362105.07755 | pgbench_history  |                0
 2017-02-06 07:21:45.077548+01 | 1486362105.07755 | pgbench_branches |            40960

 2017-02-06 07:21:46.169601+01 | 1486362106.1696 | pgbench_accounts |      13429514240
 2017-02-06 07:21:46.169601+01 | 1486362106.1696 | pgbench_tellers  |           450560
 2017-02-06 07:21:46.169601+01 | 1486362106.1696 | pgbench_history  |                0
 2017-02-06 07:21:46.169601+01 | 1486362106.1696 | pgbench_branches |            40960

 2017-02-06 07:21:47.264809+01 | 1486362107.26481 | pgbench_accounts |      13429514240
 2017-02-06 07:21:47.264809+01 | 1486362107.26481 | pgbench_tellers  |           450560
 2017-02-06 07:21:47.264809+01 | 1486362107.26481 | pgbench_history  |                0
 2017-02-06 07:21:47.264809+01 | 1486362107.26481 | pgbench_branches |            40960

 2017-02-06 07:21:48.360693+01 | 1486362108.36069 | pgbench_accounts |      13429514240
 2017-02-06 07:21:48.360693+01 | 1486362108.36069 | pgbench_tellers  |           450560
 2017-02-06 07:21:48.360693+01 | 1486362108.36069 | pgbench_history  |                0
 2017-02-06 07:21:48.360693+01 | 1486362108.36069 | pgbench_branches |            40960

 2017-02-06 07:21:49.450467+01 | 1486362109.45047 | pgbench_accounts |      13429514240
 2017-02-06 07:21:49.450467+01 | 1486362109.45047 | pgbench_tellers  |           450560
 2017-02-06 07:21:49.450467+01 | 1486362109.45047 | pgbench_history  |                0
 2017-02-06 07:21:49.450467+01 | 1486362109.45047 | pgbench_branches |            40960

 2017-02-06 07:21:50.538331+01 | 1486362110.53833 | pgbench_accounts |      13429514240
 2017-02-06 07:21:50.538331+01 | 1486362110.53833 | pgbench_tellers  |           450560
 2017-02-06 07:21:50.538331+01 | 1486362110.53833 | pgbench_history  |                0
 2017-02-06 07:21:50.538331+01 | 1486362110.53833 | pgbench_branches |            40960

 2017-02-06 07:21:51.641065+01 | 1486362111.64106 | pgbench_accounts |      13429514240
 2017-02-06 07:21:51.641065+01 | 1486362111.64106 | pgbench_tellers  |           450560
 2017-02-06 07:21:51.641065+01 | 1486362111.64106 | pgbench_history  |                0
 2017-02-06 07:21:51.641065+01 | 1486362111.64106 | pgbench_branches |            40960

 2017-02-06 07:21:52.733147+01 | 1486362112.73315 | pgbench_accounts |      13429514240
 2017-02-06 07:21:52.733147+01 | 1486362112.73315 | pgbench_tellers  |           450560
 2017-02-06 07:21:52.733147+01 | 1486362112.73315 | pgbench_history  |                0
 2017-02-06 07:21:52.733147+01 | 1486362112.73315 | pgbench_branches |            40960

 2017-02-06 07:21:53.822957+01 | 1486362113.82296 | pgbench_accounts |      13429514240
 2017-02-06 07:21:53.822957+01 | 1486362113.82296 | pgbench_tellers  |           450560
 2017-02-06 07:21:53.822957+01 | 1486362113.82296 | pgbench_history  |                0
 2017-02-06 07:21:53.822957+01 | 1486362113.82296 | pgbench_branches |            40960

 2017-02-06 07:21:54.918628+01 | 1486362114.91863 | pgbench_accounts |      13429514240
 2017-02-06 07:21:54.918628+01 | 1486362114.91863 | pgbench_tellers  |           450560
 2017-02-06 07:21:54.918628+01 | 1486362114.91863 | pgbench_history  |                0
 2017-02-06 07:21:54.918628+01 | 1486362114.91863 | pgbench_branches |            40960

 2017-02-06 07:21:56.011774+01 | 1486362116.01177 | pgbench_accounts |      13429514240
 2017-02-06 07:21:56.011774+01 | 1486362116.01177 | pgbench_tellers  |           450560
 2017-02-06 07:21:56.011774+01 | 1486362116.01177 | pgbench_history  |                0
 2017-02-06 07:21:56.011774+01 | 1486362116.01177 | pgbench_branches |            40960

 2017-02-06 07:21:57.107182+01 | 1486362117.10718 | pgbench_accounts |      13429514240
 2017-02-06 07:21:57.107182+01 | 1486362117.10718 | pgbench_tellers  |           450560
 2017-02-06 07:21:57.107182+01 | 1486362117.10718 | pgbench_history  |                0
 2017-02-06 07:21:57.107182+01 | 1486362117.10718 | pgbench_branches |            40960

 2017-02-06 07:21:58.195289+01 | 1486362118.19529 | pgbench_accounts |      13429514240
 2017-02-06 07:21:58.195289+01 | 1486362118.19529 | pgbench_tellers  |           450560
 2017-02-06 07:21:58.195289+01 | 1486362118.19529 | pgbench_history  |                0
 2017-02-06 07:21:58.195289+01 | 1486362118.19529 | pgbench_branches |            40960

 2017-02-06 07:21:59.290289+01 | 1486362119.29029 | pgbench_accounts |      13429514240
 2017-02-06 07:21:59.290289+01 | 1486362119.29029 | pgbench_tellers  |           450560
 2017-02-06 07:21:59.290289+01 | 1486362119.29029 | pgbench_history  |                0
 2017-02-06 07:21:59.290289+01 | 1486362119.29029 | pgbench_branches |            40960

 2017-02-06 07:22:00.3921+01 | 1486362120.3921 | pgbench_accounts |      13429514240
 2017-02-06 07:22:00.3921+01 | 1486362120.3921 | pgbench_tellers  |           450560
 2017-02-06 07:22:00.3921+01 | 1486362120.3921 | pgbench_history  |                0
 2017-02-06 07:22:00.3921+01 | 1486362120.3921 | pgbench_branches |            40960

 2017-02-06 07:22:01.4837+01 | 1486362121.4837 | pgbench_accounts |      13429514240
 2017-02-06 07:22:01.4837+01 | 1486362121.4837 | pgbench_tellers  |           450560
 2017-02-06 07:22:01.4837+01 | 1486362121.4837 | pgbench_history  |                0
 2017-02-06 07:22:01.4837+01 | 1486362121.4837 | pgbench_branches |            40960

 2017-02-06 07:22:02.584248+01 | 1486362122.58425 | pgbench_accounts |      13429514240
 2017-02-06 07:22:02.584248+01 | 1486362122.58425 | pgbench_tellers  |           450560
 2017-02-06 07:22:02.584248+01 | 1486362122.58425 | pgbench_history  |                0
 2017-02-06 07:22:02.584248+01 | 1486362122.58425 | pgbench_branches |            40960

 2017-02-06 07:22:03.678518+01 | 1486362123.67852 | pgbench_accounts |      13429514240
 2017-02-06 07:22:03.678518+01 | 1486362123.67852 | pgbench_tellers  |           450560
 2017-02-06 07:22:03.678518+01 | 1486362123.67852 | pgbench_history  |                0
 2017-02-06 07:22:03.678518+01 | 1486362123.67852 | pgbench_branches |            40960

 2017-02-06 07:22:04.776042+01 | 1486362124.77604 | pgbench_accounts |      13429514240
 2017-02-06 07:22:04.776042+01 | 1486362124.77604 | pgbench_tellers  |           450560
 2017-02-06 07:22:04.776042+01 | 1486362124.77604 | pgbench_history  |                0
 2017-02-06 07:22:04.776042+01 | 1486362124.77604 | pgbench_branches |            40960

 2017-02-06 07:22:05.868494+01 | 1486362125.86849 | pgbench_accounts |      13429514240
 2017-02-06 07:22:05.868494+01 | 1486362125.86849 | pgbench_tellers  |           450560
 2017-02-06 07:22:05.868494+01 | 1486362125.86849 | pgbench_history  |                0
 2017-02-06 07:22:05.868494+01 | 1486362125.86849 | pgbench_branches |            40960

 2017-02-06 07:22:06.961372+01 | 1486362126.96137 | pgbench_accounts |      13429514240
 2017-02-06 07:22:06.961372+01 | 1486362126.96137 | pgbench_tellers  |           450560
 2017-02-06 07:22:06.961372+01 | 1486362126.96137 | pgbench_history  |                0
 2017-02-06 07:22:06.961372+01 | 1486362126.96137 | pgbench_branches |            40960

 2017-02-06 07:22:08.057282+01 | 1486362128.05728 | pgbench_accounts |      13429514240
 2017-02-06 07:22:08.057282+01 | 1486362128.05728 | pgbench_tellers  |           450560
 2017-02-06 07:22:08.057282+01 | 1486362128.05728 | pgbench_history  |                0
 2017-02-06 07:22:08.057282+01 | 1486362128.05728 | pgbench_branches |            40960

 2017-02-06 07:22:09.152151+01 | 1486362129.15215 | pgbench_accounts |      13429514240
 2017-02-06 07:22:09.152151+01 | 1486362129.15215 | pgbench_tellers  |           450560
 2017-02-06 07:22:09.152151+01 | 1486362129.15215 | pgbench_history  |                0
 2017-02-06 07:22:09.152151+01 | 1486362129.15215 | pgbench_branches |            40960

 2017-02-06 07:22:10.243513+01 | 1486362130.24351 | pgbench_accounts |      13429514240
 2017-02-06 07:22:10.243513+01 | 1486362130.24351 | pgbench_tellers  |           450560
 2017-02-06 07:22:10.243513+01 | 1486362130.24351 | pgbench_history  |                0
 2017-02-06 07:22:10.243513+01 | 1486362130.24351 | pgbench_branches |            40960

 2017-02-06 07:22:11.330339+01 | 1486362131.33034 | pgbench_accounts |      13429514240
 2017-02-06 07:22:11.330339+01 | 1486362131.33034 | pgbench_tellers  |           450560
 2017-02-06 07:22:11.330339+01 | 1486362131.33034 | pgbench_history  |                0
 2017-02-06 07:22:11.330339+01 | 1486362131.33034 | pgbench_branches |            40960

 2017-02-06 07:22:12.427757+01 | 1486362132.42776 | pgbench_accounts |      13429514240
 2017-02-06 07:22:12.427757+01 | 1486362132.42776 | pgbench_tellers  |           450560
 2017-02-06 07:22:12.427757+01 | 1486362132.42776 | pgbench_history  |                0
 2017-02-06 07:22:12.427757+01 | 1486362132.42776 | pgbench_branches |            40960

 2017-02-06 07:22:13.522141+01 | 1486362133.52214 | pgbench_accounts |      13429514240
 2017-02-06 07:22:13.522141+01 | 1486362133.52214 | pgbench_tellers  |           450560
 2017-02-06 07:22:13.522141+01 | 1486362133.52214 | pgbench_history  |                0
 2017-02-06 07:22:13.522141+01 | 1486362133.52214 | pgbench_branches |            40960

 2017-02-06 07:22:14.617457+01 | 1486362134.61746 | pgbench_accounts |      13429514240
 2017-02-06 07:22:14.617457+01 | 1486362134.61746 | pgbench_tellers  |           450560
 2017-02-06 07:22:14.617457+01 | 1486362134.61746 | pgbench_history  |                0
 2017-02-06 07:22:14.617457+01 | 1486362134.61746 | pgbench_branches |            40960

 2017-02-06 07:22:15.712052+01 | 1486362135.71205 | pgbench_accounts |      13429514240
 2017-02-06 07:22:15.712052+01 | 1486362135.71205 | pgbench_tellers  |           450560
 2017-02-06 07:22:15.712052+01 | 1486362135.71205 | pgbench_history  |                0
 2017-02-06 07:22:15.712052+01 | 1486362135.71205 | pgbench_branches |            40960

 2017-02-06 07:22:16.808627+01 | 1486362136.80863 | pgbench_accounts |      13429514240
 2017-02-06 07:22:16.808627+01 | 1486362136.80863 | pgbench_tellers  |           450560
 2017-02-06 07:22:16.808627+01 | 1486362136.80863 | pgbench_history  |                0
 2017-02-06 07:22:16.808627+01 | 1486362136.80863 | pgbench_branches |            40960

 2017-02-06 07:22:17.900534+01 | 1486362137.90053 | pgbench_accounts |      13429514240
 2017-02-06 07:22:17.900534+01 | 1486362137.90053 | pgbench_tellers  |           450560
 2017-02-06 07:22:17.900534+01 | 1486362137.90053 | pgbench_history  |                0
 2017-02-06 07:22:17.900534+01 | 1486362137.90053 | pgbench_branches |            40960

 2017-02-06 07:22:18.991867+01 | 1486362138.99187 | pgbench_accounts |      13429514240
 2017-02-06 07:22:18.991867+01 | 1486362138.99187 | pgbench_tellers  |           450560
 2017-02-06 07:22:18.991867+01 | 1486362138.99187 | pgbench_history  |                0
 2017-02-06 07:22:18.991867+01 | 1486362138.99187 | pgbench_branches |            40960

 2017-02-06 07:22:20.086407+01 | 1486362140.08641 | pgbench_accounts |      13429514240
 2017-02-06 07:22:20.086407+01 | 1486362140.08641 | pgbench_tellers  |           450560
 2017-02-06 07:22:20.086407+01 | 1486362140.08641 | pgbench_history  |                0
 2017-02-06 07:22:20.086407+01 | 1486362140.08641 | pgbench_branches |            40960

 2017-02-06 07:22:21.171341+01 | 1486362141.17134 | pgbench_accounts |      13429514240
 2017-02-06 07:22:21.171341+01 | 1486362141.17134 | pgbench_tellers  |           450560
 2017-02-06 07:22:21.171341+01 | 1486362141.17134 | pgbench_history  |                0
 2017-02-06 07:22:21.171341+01 | 1486362141.17134 | pgbench_branches |            40960

 2017-02-06 07:22:22.260439+01 | 1486362142.26044 | pgbench_accounts |      13429514240
 2017-02-06 07:22:22.260439+01 | 1486362142.26044 | pgbench_tellers  |           450560
 2017-02-06 07:22:22.260439+01 | 1486362142.26044 | pgbench_history  |                0
 2017-02-06 07:22:22.260439+01 | 1486362142.26044 | pgbench_branches |            40960

 2017-02-06 07:22:23.354004+01 | 1486362143.354 | pgbench_accounts |      13429514240
 2017-02-06 07:22:23.354004+01 | 1486362143.354 | pgbench_tellers  |           450560
 2017-02-06 07:22:23.354004+01 | 1486362143.354 | pgbench_history  |                0
 2017-02-06 07:22:23.354004+01 | 1486362143.354 | pgbench_branches |            40960

 2017-02-06 07:22:24.444344+01 | 1486362144.44434 | pgbench_accounts |      13429514240
 2017-02-06 07:22:24.444344+01 | 1486362144.44434 | pgbench_tellers  |           450560
 2017-02-06 07:22:24.444344+01 | 1486362144.44434 | pgbench_history  |                0
 2017-02-06 07:22:24.444344+01 | 1486362144.44434 | pgbench_branches |            40960

 2017-02-06 07:22:25.538884+01 | 1486362145.53888 | pgbench_accounts |      13429514240
 2017-02-06 07:22:25.538884+01 | 1486362145.53888 | pgbench_tellers  |           450560
 2017-02-06 07:22:25.538884+01 | 1486362145.53888 | pgbench_history  |                0
 2017-02-06 07:22:25.538884+01 | 1486362145.53888 | pgbench_branches |            40960

 2017-02-06 07:22:26.627026+01 | 1486362146.62703 | pgbench_accounts |      13429514240
 2017-02-06 07:22:26.627026+01 | 1486362146.62703 | pgbench_tellers  |           450560
 2017-02-06 07:22:26.627026+01 | 1486362146.62703 | pgbench_history  |                0
 2017-02-06 07:22:26.627026+01 | 1486362146.62703 | pgbench_branches |            40960

 2017-02-06 07:22:27.720948+01 | 1486362147.72095 | pgbench_accounts |      13429514240
 2017-02-06 07:22:27.720948+01 | 1486362147.72095 | pgbench_tellers  |           450560
 2017-02-06 07:22:27.720948+01 | 1486362147.72095 | pgbench_history  |                0
 2017-02-06 07:22:27.720948+01 | 1486362147.72095 | pgbench_branches |            40960

 2017-02-06 07:22:28.810098+01 | 1486362148.8101 | pgbench_accounts |      13429514240
 2017-02-06 07:22:28.810098+01 | 1486362148.8101 | pgbench_tellers  |           450560
 2017-02-06 07:22:28.810098+01 | 1486362148.8101 | pgbench_history  |                0
 2017-02-06 07:22:28.810098+01 | 1486362148.8101 | pgbench_branches |            40960

 2017-02-06 07:22:29.902282+01 | 1486362149.90228 | pgbench_accounts |      13429514240
 2017-02-06 07:22:29.902282+01 | 1486362149.90228 | pgbench_tellers  |           450560
 2017-02-06 07:22:29.902282+01 | 1486362149.90228 | pgbench_history  |                0
 2017-02-06 07:22:29.902282+01 | 1486362149.90228 | pgbench_branches |            40960

 2017-02-06 07:22:30.999872+01 | 1486362150.99987 | pgbench_accounts |      13429514240
 2017-02-06 07:22:30.999872+01 | 1486362150.99987 | pgbench_tellers  |           450560
 2017-02-06 07:22:30.999872+01 | 1486362150.99987 | pgbench_history  |                0
 2017-02-06 07:22:30.999872+01 | 1486362150.99987 | pgbench_branches |            40960

 2017-02-06 07:22:32.092707+01 | 1486362152.09271 | pgbench_accounts |      13429514240
 2017-02-06 07:22:32.092707+01 | 1486362152.09271 | pgbench_tellers  |           450560
 2017-02-06 07:22:32.092707+01 | 1486362152.09271 | pgbench_history  |                0
 2017-02-06 07:22:32.092707+01 | 1486362152.09271 | pgbench_branches |            40960

 2017-02-06 07:22:33.188531+01 | 1486362153.18853 | pgbench_accounts |      13429514240
 2017-02-06 07:22:33.188531+01 | 1486362153.18853 | pgbench_tellers  |           450560
 2017-02-06 07:22:33.188531+01 | 1486362153.18853 | pgbench_history  |                0
 2017-02-06 07:22:33.188531+01 | 1486362153.18853 | pgbench_branches |            40960

 2017-02-06 07:22:34.274529+01 | 1486362154.27453 | pgbench_accounts |      13429514240
 2017-02-06 07:22:34.274529+01 | 1486362154.27453 | pgbench_tellers  |           450560
 2017-02-06 07:22:34.274529+01 | 1486362154.27453 | pgbench_history  |                0
 2017-02-06 07:22:34.274529+01 | 1486362154.27453 | pgbench_branches |            40960

 2017-02-06 07:22:35.362322+01 | 1486362155.36232 | pgbench_accounts |      13429514240
 2017-02-06 07:22:35.362322+01 | 1486362155.36232 | pgbench_tellers  |           450560
 2017-02-06 07:22:35.362322+01 | 1486362155.36232 | pgbench_history  |                0
 2017-02-06 07:22:35.362322+01 | 1486362155.36232 | pgbench_branches |            40960

 2017-02-06 07:22:36.457983+01 | 1486362156.45798 | pgbench_accounts |      13429514240
 2017-02-06 07:22:36.457983+01 | 1486362156.45798 | pgbench_tellers  |           450560
 2017-02-06 07:22:36.457983+01 | 1486362156.45798 | pgbench_history  |                0
 2017-02-06 07:22:36.457983+01 | 1486362156.45798 | pgbench_branches |            40960

 2017-02-06 07:22:37.553579+01 | 1486362157.55358 | pgbench_accounts |      13429514240
 2017-02-06 07:22:37.553579+01 | 1486362157.55358 | pgbench_tellers  |           450560
 2017-02-06 07:22:37.553579+01 | 1486362157.55358 | pgbench_history  |                0
 2017-02-06 07:22:37.553579+01 | 1486362157.55358 | pgbench_branches |            40960

 2017-02-06 07:22:38.645869+01 | 1486362158.64587 | pgbench_accounts |      13429514240
 2017-02-06 07:22:38.645869+01 | 1486362158.64587 | pgbench_tellers  |           450560
 2017-02-06 07:22:38.645869+01 | 1486362158.64587 | pgbench_history  |                0
 2017-02-06 07:22:38.645869+01 | 1486362158.64587 | pgbench_branches |            40960

 2017-02-06 07:22:39.738852+01 | 1486362159.73885 | pgbench_accounts |      13429514240
 2017-02-06 07:22:39.738852+01 | 1486362159.73885 | pgbench_tellers  |           450560
 2017-02-06 07:22:39.738852+01 | 1486362159.73885 | pgbench_history  |                0
 2017-02-06 07:22:39.738852+01 | 1486362159.73885 | pgbench_branches |            40960

 2017-02-06 07:22:40.839402+01 | 1486362160.8394 | pgbench_accounts |      13429514240
 2017-02-06 07:22:40.839402+01 | 1486362160.8394 | pgbench_tellers  |           450560
 2017-02-06 07:22:40.839402+01 | 1486362160.8394 | pgbench_history  |                0
 2017-02-06 07:22:40.839402+01 | 1486362160.8394 | pgbench_branches |            40960

 2017-02-06 07:22:41.929745+01 | 1486362161.92974 | pgbench_accounts |      13429514240
 2017-02-06 07:22:41.929745+01 | 1486362161.92974 | pgbench_tellers  |           450560
 2017-02-06 07:22:41.929745+01 | 1486362161.92974 | pgbench_history  |                0
 2017-02-06 07:22:41.929745+01 | 1486362161.92974 | pgbench_branches |            40960

 2017-02-06 07:22:43.020974+01 | 1486362163.02097 | pgbench_accounts |      13429514240
 2017-02-06 07:22:43.020974+01 | 1486362163.02097 | pgbench_tellers  |           450560
 2017-02-06 07:22:43.020974+01 | 1486362163.02097 | pgbench_history  |                0
 2017-02-06 07:22:43.020974+01 | 1486362163.02097 | pgbench_branches |            40960

 2017-02-06 07:22:44.116068+01 | 1486362164.11607 | pgbench_accounts |      13429514240
 2017-02-06 07:22:44.116068+01 | 1486362164.11607 | pgbench_tellers  |           450560
 2017-02-06 07:22:44.116068+01 | 1486362164.11607 | pgbench_history  |                0
 2017-02-06 07:22:44.116068+01 | 1486362164.11607 | pgbench_branches |            40960

 2017-02-06 07:22:45.212979+01 | 1486362165.21298 | pgbench_accounts |      13429514240
 2017-02-06 07:22:45.212979+01 | 1486362165.21298 | pgbench_tellers  |           450560
 2017-02-06 07:22:45.212979+01 | 1486362165.21298 | pgbench_history  |                0
 2017-02-06 07:22:45.212979+01 | 1486362165.21298 | pgbench_branches |            40960

 2017-02-06 07:22:46.30403+01 | 1486362166.30403 | pgbench_accounts |      13429514240
 2017-02-06 07:22:46.30403+01 | 1486362166.30403 | pgbench_tellers  |           450560
 2017-02-06 07:22:46.30403+01 | 1486362166.30403 | pgbench_history  |                0
 2017-02-06 07:22:46.30403+01 | 1486362166.30403 | pgbench_branches |            40960

 2017-02-06 07:22:47.396333+01 | 1486362167.39633 | pgbench_accounts |      13429514240
 2017-02-06 07:22:47.396333+01 | 1486362167.39633 | pgbench_tellers  |           450560
 2017-02-06 07:22:47.396333+01 | 1486362167.39633 | pgbench_history  |                0
 2017-02-06 07:22:47.396333+01 | 1486362167.39633 | pgbench_branches |            40960

 2017-02-06 07:22:48.48913+01 | 1486362168.48913 | pgbench_accounts |      13429514240
 2017-02-06 07:22:48.48913+01 | 1486362168.48913 | pgbench_tellers  |           450560
 2017-02-06 07:22:48.48913+01 | 1486362168.48913 | pgbench_history  |                0
 2017-02-06 07:22:48.48913+01 | 1486362168.48913 | pgbench_branches |            40960

 2017-02-06 07:22:49.584269+01 | 1486362169.58427 | pgbench_accounts |      13429514240
 2017-02-06 07:22:49.584269+01 | 1486362169.58427 | pgbench_tellers  |           450560
 2017-02-06 07:22:49.584269+01 | 1486362169.58427 | pgbench_history  |                0
 2017-02-06 07:22:49.584269+01 | 1486362169.58427 | pgbench_branches |            40960

 2017-02-06 07:22:50.67354+01 | 1486362170.67354 | pgbench_accounts |      13429514240
 2017-02-06 07:22:50.67354+01 | 1486362170.67354 | pgbench_tellers  |           450560
 2017-02-06 07:22:50.67354+01 | 1486362170.67354 | pgbench_history  |                0
 2017-02-06 07:22:50.67354+01 | 1486362170.67354 | pgbench_branches |            40960

 2017-02-06 07:22:51.767671+01 | 1486362171.76767 | pgbench_accounts |      13429514240
 2017-02-06 07:22:51.767671+01 | 1486362171.76767 | pgbench_tellers  |           450560
 2017-02-06 07:22:51.767671+01 | 1486362171.76767 | pgbench_history  |                0
 2017-02-06 07:22:51.767671+01 | 1486362171.76767 | pgbench_branches |            40960

 2017-02-06 07:22:52.855948+01 | 1486362172.85595 | pgbench_accounts |      13429514240
 2017-02-06 07:22:52.855948+01 | 1486362172.85595 | pgbench_tellers  |           450560
 2017-02-06 07:22:52.855948+01 | 1486362172.85595 | pgbench_history  |                0
 2017-02-06 07:22:52.855948+01 | 1486362172.85595 | pgbench_branches |            40960

 2017-02-06 07:22:53.943249+01 | 1486362173.94325 | pgbench_accounts |      13429514240
 2017-02-06 07:22:53.943249+01 | 1486362173.94325 | pgbench_tellers  |           450560
 2017-02-06 07:22:53.943249+01 | 1486362173.94325 | pgbench_history  |                0
 2017-02-06 07:22:53.943249+01 | 1486362173.94325 | pgbench_branches |            40960

 2017-02-06 07:22:55.042083+01 | 1486362175.04208 | pgbench_accounts |      13429514240
 2017-02-06 07:22:55.042083+01 | 1486362175.04208 | pgbench_tellers  |           450560
 2017-02-06 07:22:55.042083+01 | 1486362175.04208 | pgbench_history  |                0
 2017-02-06 07:22:55.042083+01 | 1486362175.04208 | pgbench_branches |            40960

 2017-02-06 07:22:56.12602+01 | 1486362176.12602 | pgbench_accounts |      13429514240
 2017-02-06 07:22:56.12602+01 | 1486362176.12602 | pgbench_tellers  |           450560
 2017-02-06 07:22:56.12602+01 | 1486362176.12602 | pgbench_history  |                0
 2017-02-06 07:22:56.12602+01 | 1486362176.12602 | pgbench_branches |            40960

 2017-02-06 07:22:57.219391+01 | 1486362177.21939 | pgbench_accounts |      13429514240
 2017-02-06 07:22:57.219391+01 | 1486362177.21939 | pgbench_tellers  |           450560
 2017-02-06 07:22:57.219391+01 | 1486362177.21939 | pgbench_history  |                0
 2017-02-06 07:22:57.219391+01 | 1486362177.21939 | pgbench_branches |            40960

 2017-02-06 07:22:58.312582+01 | 1486362178.31258 | pgbench_accounts |      13429514240
 2017-02-06 07:22:58.312582+01 | 1486362178.31258 | pgbench_tellers  |           450560
 2017-02-06 07:22:58.312582+01 | 1486362178.31258 | pgbench_history  |                0
 2017-02-06 07:22:58.312582+01 | 1486362178.31258 | pgbench_branches |            40960

 2017-02-06 07:22:59.407193+01 | 1486362179.40719 | pgbench_accounts |      13429514240
 2017-02-06 07:22:59.407193+01 | 1486362179.40719 | pgbench_tellers  |           450560
 2017-02-06 07:22:59.407193+01 | 1486362179.40719 | pgbench_history  |                0
 2017-02-06 07:22:59.407193+01 | 1486362179.40719 | pgbench_branches |            40960

 2017-02-06 07:23:00.494986+01 | 1486362180.49499 | pgbench_accounts |      13429514240
 2017-02-06 07:23:00.494986+01 | 1486362180.49499 | pgbench_tellers  |           450560
 2017-02-06 07:23:00.494986+01 | 1486362180.49499 | pgbench_history  |                0
 2017-02-06 07:23:00.494986+01 | 1486362180.49499 | pgbench_branches |            40960

 2017-02-06 07:23:01.586893+01 | 1486362181.58689 | pgbench_accounts |      13429514240
 2017-02-06 07:23:01.586893+01 | 1486362181.58689 | pgbench_tellers  |           450560
 2017-02-06 07:23:01.586893+01 | 1486362181.58689 | pgbench_history  |                0
 2017-02-06 07:23:01.586893+01 | 1486362181.58689 | pgbench_branches |            40960

 2017-02-06 07:23:02.682333+01 | 1486362182.68233 | pgbench_accounts |      13429514240
 2017-02-06 07:23:02.682333+01 | 1486362182.68233 | pgbench_tellers  |           450560
 2017-02-06 07:23:02.682333+01 | 1486362182.68233 | pgbench_history  |                0
 2017-02-06 07:23:02.682333+01 | 1486362182.68233 | pgbench_branches |            40960

 2017-02-06 07:23:03.769238+01 | 1486362183.76924 | pgbench_accounts |      13429514240
 2017-02-06 07:23:03.769238+01 | 1486362183.76924 | pgbench_tellers  |           450560
 2017-02-06 07:23:03.769238+01 | 1486362183.76924 | pgbench_history  |                0
 2017-02-06 07:23:03.769238+01 | 1486362183.76924 | pgbench_branches |            40960

 2017-02-06 07:23:04.858064+01 | 1486362184.85806 | pgbench_accounts |      13429514240
 2017-02-06 07:23:04.858064+01 | 1486362184.85806 | pgbench_tellers  |           450560
 2017-02-06 07:23:04.858064+01 | 1486362184.85806 | pgbench_history  |                0
 2017-02-06 07:23:04.858064+01 | 1486362184.85806 | pgbench_branches |            40960

 2017-02-06 07:23:05.954639+01 | 1486362185.95464 | pgbench_accounts |      13429514240
 2017-02-06 07:23:05.954639+01 | 1486362185.95464 | pgbench_tellers  |           450560
 2017-02-06 07:23:05.954639+01 | 1486362185.95464 | pgbench_history  |                0
 2017-02-06 07:23:05.954639+01 | 1486362185.95464 | pgbench_branches |            40960

 2017-02-06 07:23:07.040099+01 | 1486362187.0401 | pgbench_accounts |      13429514240
 2017-02-06 07:23:07.040099+01 | 1486362187.0401 | pgbench_tellers  |           450560
 2017-02-06 07:23:07.040099+01 | 1486362187.0401 | pgbench_history  |                0
 2017-02-06 07:23:07.040099+01 | 1486362187.0401 | pgbench_branches |            40960

 2017-02-06 07:23:08.13054+01 | 1486362188.13054 | pgbench_accounts |      13429514240
 2017-02-06 07:23:08.13054+01 | 1486362188.13054 | pgbench_tellers  |           450560
 2017-02-06 07:23:08.13054+01 | 1486362188.13054 | pgbench_history  |                0
 2017-02-06 07:23:08.13054+01 | 1486362188.13054 | pgbench_branches |            40960

 2017-02-06 07:23:09.223921+01 | 1486362189.22392 | pgbench_accounts |      13429514240
 2017-02-06 07:23:09.223921+01 | 1486362189.22392 | pgbench_tellers  |           450560
 2017-02-06 07:23:09.223921+01 | 1486362189.22392 | pgbench_history  |                0
 2017-02-06 07:23:09.223921+01 | 1486362189.22392 | pgbench_branches |            40960

 2017-02-06 07:23:10.314657+01 | 1486362190.31466 | pgbench_accounts |      13429514240
 2017-02-06 07:23:10.314657+01 | 1486362190.31466 | pgbench_tellers  |           450560
 2017-02-06 07:23:10.314657+01 | 1486362190.31466 | pgbench_history  |                0
 2017-02-06 07:23:10.314657+01 | 1486362190.31466 | pgbench_branches |            40960

 2017-02-06 07:23:11.408299+01 | 1486362191.4083 | pgbench_accounts |      13429514240
 2017-02-06 07:23:11.408299+01 | 1486362191.4083 | pgbench_tellers  |           450560
 2017-02-06 07:23:11.408299+01 | 1486362191.4083 | pgbench_history  |                0
 2017-02-06 07:23:11.408299+01 | 1486362191.4083 | pgbench_branches |            40960

 2017-02-06 07:23:12.505018+01 | 1486362192.50502 | pgbench_accounts |      13429514240
 2017-02-06 07:23:12.505018+01 | 1486362192.50502 | pgbench_tellers  |           450560
 2017-02-06 07:23:12.505018+01 | 1486362192.50502 | pgbench_history  |                0
 2017-02-06 07:23:12.505018+01 | 1486362192.50502 | pgbench_branches |            40960

 2017-02-06 07:23:13.595937+01 | 1486362193.59594 | pgbench_accounts |      13429514240
 2017-02-06 07:23:13.595937+01 | 1486362193.59594 | pgbench_tellers  |           450560
 2017-02-06 07:23:13.595937+01 | 1486362193.59594 | pgbench_history  |                0
 2017-02-06 07:23:13.595937+01 | 1486362193.59594 | pgbench_branches |            40960

 2017-02-06 07:23:14.687189+01 | 1486362194.68719 | pgbench_accounts |      13429514240
 2017-02-06 07:23:14.687189+01 | 1486362194.68719 | pgbench_tellers  |           450560
 2017-02-06 07:23:14.687189+01 | 1486362194.68719 | pgbench_history  |                0
 2017-02-06 07:23:14.687189+01 | 1486362194.68719 | pgbench_branches |            40960

 2017-02-06 07:23:15.77436+01 | 1486362195.77436 | pgbench_accounts |      13429514240
 2017-02-06 07:23:15.77436+01 | 1486362195.77436 | pgbench_tellers  |           450560
 2017-02-06 07:23:15.77436+01 | 1486362195.77436 | pgbench_history  |                0
 2017-02-06 07:23:15.77436+01 | 1486362195.77436 | pgbench_branches |            40960

 2017-02-06 07:23:16.865331+01 | 1486362196.86533 | pgbench_accounts |      13429514240
 2017-02-06 07:23:16.865331+01 | 1486362196.86533 | pgbench_tellers  |           450560
 2017-02-06 07:23:16.865331+01 | 1486362196.86533 | pgbench_history  |                0
 2017-02-06 07:23:16.865331+01 | 1486362196.86533 | pgbench_branches |            40960

 2017-02-06 07:23:17.956697+01 | 1486362197.9567 | pgbench_accounts |      13429514240
 2017-02-06 07:23:17.956697+01 | 1486362197.9567 | pgbench_tellers  |           450560
 2017-02-06 07:23:17.956697+01 | 1486362197.9567 | pgbench_history  |                0
 2017-02-06 07:23:17.956697+01 | 1486362197.9567 | pgbench_branches |            40960

 2017-02-06 07:23:19.052974+01 | 1486362199.05297 | pgbench_accounts |      13429514240
 2017-02-06 07:23:19.052974+01 | 1486362199.05297 | pgbench_tellers  |           450560
 2017-02-06 07:23:19.052974+01 | 1486362199.05297 | pgbench_history  |                0
 2017-02-06 07:23:19.052974+01 | 1486362199.05297 | pgbench_branches |            40960

 2017-02-06 07:23:20.146227+01 | 1486362200.14623 | pgbench_accounts |      13429514240
 2017-02-06 07:23:20.146227+01 | 1486362200.14623 | pgbench_tellers  |           450560
 2017-02-06 07:23:20.146227+01 | 1486362200.14623 | pgbench_history  |                0
 2017-02-06 07:23:20.146227+01 | 1486362200.14623 | pgbench_branches |            40960

 2017-02-06 07:23:21.226381+01 | 1486362201.22638 | pgbench_accounts |      13429514240
 2017-02-06 07:23:21.226381+01 | 1486362201.22638 | pgbench_tellers  |           450560
 2017-02-06 07:23:21.226381+01 | 1486362201.22638 | pgbench_history  |                0
 2017-02-06 07:23:21.226381+01 | 1486362201.22638 | pgbench_branches |            40960

 2017-02-06 07:23:22.317392+01 | 1486362202.31739 | pgbench_accounts |      13429514240
 2017-02-06 07:23:22.317392+01 | 1486362202.31739 | pgbench_tellers  |           450560
 2017-02-06 07:23:22.317392+01 | 1486362202.31739 | pgbench_history  |                0
 2017-02-06 07:23:22.317392+01 | 1486362202.31739 | pgbench_branches |            40960

 2017-02-06 07:23:23.404608+01 | 1486362203.40461 | pgbench_accounts |      13429514240
 2017-02-06 07:23:23.404608+01 | 1486362203.40461 | pgbench_tellers  |           450560
 2017-02-06 07:23:23.404608+01 | 1486362203.40461 | pgbench_history  |                0
 2017-02-06 07:23:23.404608+01 | 1486362203.40461 | pgbench_branches |            40960

 2017-02-06 07:23:24.496687+01 | 1486362204.49669 | pgbench_accounts |      13429514240
 2017-02-06 07:23:24.496687+01 | 1486362204.49669 | pgbench_tellers  |           450560
 2017-02-06 07:23:24.496687+01 | 1486362204.49669 | pgbench_history  |                0
 2017-02-06 07:23:24.496687+01 | 1486362204.49669 | pgbench_branches |            40960

 2017-02-06 07:23:25.579111+01 | 1486362205.57911 | pgbench_accounts |      13429514240
 2017-02-06 07:23:25.579111+01 | 1486362205.57911 | pgbench_tellers  |           450560
 2017-02-06 07:23:25.579111+01 | 1486362205.57911 | pgbench_history  |                0
 2017-02-06 07:23:25.579111+01 | 1486362205.57911 | pgbench_branches |            40960

 2017-02-06 07:23:26.674712+01 | 1486362206.67471 | pgbench_accounts |      13429514240
 2017-02-06 07:23:26.674712+01 | 1486362206.67471 | pgbench_tellers  |           450560
 2017-02-06 07:23:26.674712+01 | 1486362206.67471 | pgbench_history  |                0
 2017-02-06 07:23:26.674712+01 | 1486362206.67471 | pgbench_branches |            40960

 2017-02-06 07:23:27.778923+01 | 1486362207.77892 | pgbench_accounts |      13429514240
 2017-02-06 07:23:27.778923+01 | 1486362207.77892 | pgbench_tellers  |           450560
 2017-02-06 07:23:27.778923+01 | 1486362207.77892 | pgbench_history  |                0
 2017-02-06 07:23:27.778923+01 | 1486362207.77892 | pgbench_branches |            40960

 2017-02-06 07:23:28.866064+01 | 1486362208.86606 | pgbench_accounts |      13429514240
 2017-02-06 07:23:28.866064+01 | 1486362208.86606 | pgbench_tellers  |           450560
 2017-02-06 07:23:28.866064+01 | 1486362208.86606 | pgbench_history  |                0
 2017-02-06 07:23:28.866064+01 | 1486362208.86606 | pgbench_branches |            40960

 2017-02-06 07:23:29.959674+01 | 1486362209.95967 | pgbench_accounts |      13429514240
 2017-02-06 07:23:29.959674+01 | 1486362209.95967 | pgbench_tellers  |           450560
 2017-02-06 07:23:29.959674+01 | 1486362209.95967 | pgbench_history  |                0
 2017-02-06 07:23:29.959674+01 | 1486362209.95967 | pgbench_branches |            40960

 2017-02-06 07:23:31.044794+01 | 1486362211.04479 | pgbench_accounts |      13429514240
 2017-02-06 07:23:31.044794+01 | 1486362211.04479 | pgbench_tellers  |           450560
 2017-02-06 07:23:31.044794+01 | 1486362211.04479 | pgbench_history  |                0
 2017-02-06 07:23:31.044794+01 | 1486362211.04479 | pgbench_branches |            40960

 2017-02-06 07:23:32.137342+01 | 1486362212.13734 | pgbench_accounts |      13429514240
 2017-02-06 07:23:32.137342+01 | 1486362212.13734 | pgbench_tellers  |           450560
 2017-02-06 07:23:32.137342+01 | 1486362212.13734 | pgbench_history  |                0
 2017-02-06 07:23:32.137342+01 | 1486362212.13734 | pgbench_branches |            40960

 2017-02-06 07:23:33.232147+01 | 1486362213.23215 | pgbench_accounts |      13429514240
 2017-02-06 07:23:33.232147+01 | 1486362213.23215 | pgbench_tellers  |           450560
 2017-02-06 07:23:33.232147+01 | 1486362213.23215 | pgbench_history  |                0
 2017-02-06 07:23:33.232147+01 | 1486362213.23215 | pgbench_branches |            40960

 2017-02-06 07:23:34.329744+01 | 1486362214.32974 | pgbench_accounts |      13429514240
 2017-02-06 07:23:34.329744+01 | 1486362214.32974 | pgbench_tellers  |           450560
 2017-02-06 07:23:34.329744+01 | 1486362214.32974 | pgbench_history  |                0
 2017-02-06 07:23:34.329744+01 | 1486362214.32974 | pgbench_branches |            40960

 2017-02-06 07:23:35.410152+01 | 1486362215.41015 | pgbench_accounts |      13429514240
 2017-02-06 07:23:35.410152+01 | 1486362215.41015 | pgbench_tellers  |           450560
 2017-02-06 07:23:35.410152+01 | 1486362215.41015 | pgbench_history  |                0
 2017-02-06 07:23:35.410152+01 | 1486362215.41015 | pgbench_branches |            40960

 2017-02-06 07:23:36.498745+01 | 1486362216.49874 | pgbench_accounts |      13429514240
 2017-02-06 07:23:36.498745+01 | 1486362216.49874 | pgbench_tellers  |           450560
 2017-02-06 07:23:36.498745+01 | 1486362216.49874 | pgbench_history  |                0
 2017-02-06 07:23:36.498745+01 | 1486362216.49874 | pgbench_branches |            40960

 2017-02-06 07:23:37.588976+01 | 1486362217.58898 | pgbench_accounts |      13429514240
 2017-02-06 07:23:37.588976+01 | 1486362217.58898 | pgbench_tellers  |           450560
 2017-02-06 07:23:37.588976+01 | 1486362217.58898 | pgbench_history  |                0
 2017-02-06 07:23:37.588976+01 | 1486362217.58898 | pgbench_branches |            40960

 2017-02-06 07:23:38.679031+01 | 1486362218.67903 | pgbench_accounts |      13429514240
 2017-02-06 07:23:38.679031+01 | 1486362218.67903 | pgbench_tellers  |           450560
 2017-02-06 07:23:38.679031+01 | 1486362218.67903 | pgbench_history  |                0
 2017-02-06 07:23:38.679031+01 | 1486362218.67903 | pgbench_branches |            40960

 2017-02-06 07:23:39.770114+01 | 1486362219.77011 | pgbench_accounts |      13429514240
 2017-02-06 07:23:39.770114+01 | 1486362219.77011 | pgbench_tellers  |           450560
 2017-02-06 07:23:39.770114+01 | 1486362219.77011 | pgbench_history  |                0
 2017-02-06 07:23:39.770114+01 | 1486362219.77011 | pgbench_branches |            40960

 2017-02-06 07:23:40.866742+01 | 1486362220.86674 | pgbench_accounts |      13429514240
 2017-02-06 07:23:40.866742+01 | 1486362220.86674 | pgbench_tellers  |           450560
 2017-02-06 07:23:40.866742+01 | 1486362220.86674 | pgbench_history  |                0
 2017-02-06 07:23:40.866742+01 | 1486362220.86674 | pgbench_branches |            40960

 2017-02-06 07:23:41.962811+01 | 1486362221.96281 | pgbench_accounts |      13429514240
 2017-02-06 07:23:41.962811+01 | 1486362221.96281 | pgbench_tellers  |           450560
 2017-02-06 07:23:41.962811+01 | 1486362221.96281 | pgbench_history  |                0
 2017-02-06 07:23:41.962811+01 | 1486362221.96281 | pgbench_branches |            40960

 2017-02-06 07:23:43.056189+01 | 1486362223.05619 | pgbench_accounts |      13429514240
 2017-02-06 07:23:43.056189+01 | 1486362223.05619 | pgbench_tellers  |           450560
 2017-02-06 07:23:43.056189+01 | 1486362223.05619 | pgbench_history  |                0
 2017-02-06 07:23:43.056189+01 | 1486362223.05619 | pgbench_branches |            40960

 2017-02-06 07:23:44.148821+01 | 1486362224.14882 | pgbench_accounts |      13429514240
 2017-02-06 07:23:44.148821+01 | 1486362224.14882 | pgbench_tellers  |           450560
 2017-02-06 07:23:44.148821+01 | 1486362224.14882 | pgbench_history  |                0
 2017-02-06 07:23:44.148821+01 | 1486362224.14882 | pgbench_branches |            40960

 2017-02-06 07:23:45.24089+01 | 1486362225.24089 | pgbench_accounts |      13429514240
 2017-02-06 07:23:45.24089+01 | 1486362225.24089 | pgbench_tellers  |           450560
 2017-02-06 07:23:45.24089+01 | 1486362225.24089 | pgbench_history  |                0
 2017-02-06 07:23:45.24089+01 | 1486362225.24089 | pgbench_branches |            40960

 2017-02-06 07:23:46.329438+01 | 1486362226.32944 | pgbench_accounts |      13429514240
 2017-02-06 07:23:46.329438+01 | 1486362226.32944 | pgbench_tellers  |           450560
 2017-02-06 07:23:46.329438+01 | 1486362226.32944 | pgbench_history  |                0
 2017-02-06 07:23:46.329438+01 | 1486362226.32944 | pgbench_branches |            40960

 2017-02-06 07:23:47.423418+01 | 1486362227.42342 | pgbench_accounts |      13429514240
 2017-02-06 07:23:47.423418+01 | 1486362227.42342 | pgbench_tellers  |           450560
 2017-02-06 07:23:47.423418+01 | 1486362227.42342 | pgbench_history  |                0
 2017-02-06 07:23:47.423418+01 | 1486362227.42342 | pgbench_branches |            40960

 2017-02-06 07:23:48.512869+01 | 1486362228.51287 | pgbench_accounts |      13429514240
 2017-02-06 07:23:48.512869+01 | 1486362228.51287 | pgbench_tellers  |           450560
 2017-02-06 07:23:48.512869+01 | 1486362228.51287 | pgbench_history  |                0
 2017-02-06 07:23:48.512869+01 | 1486362228.51287 | pgbench_branches |            40960

 2017-02-06 07:23:49.596334+01 | 1486362229.59633 | pgbench_accounts |      13429514240
 2017-02-06 07:23:49.596334+01 | 1486362229.59633 | pgbench_tellers  |           450560
 2017-02-06 07:23:49.596334+01 | 1486362229.59633 | pgbench_history  |                0
 2017-02-06 07:23:49.596334+01 | 1486362229.59633 | pgbench_branches |            40960

 2017-02-06 07:23:50.700113+01 | 1486362230.70011 | pgbench_accounts |      13429514240
 2017-02-06 07:23:50.700113+01 | 1486362230.70011 | pgbench_tellers  |           450560
 2017-02-06 07:23:50.700113+01 | 1486362230.70011 | pgbench_history  |                0
 2017-02-06 07:23:50.700113+01 | 1486362230.70011 | pgbench_branches |            40960

 2017-02-06 07:23:51.795242+01 | 1486362231.79524 | pgbench_accounts |      13429514240
 2017-02-06 07:23:51.795242+01 | 1486362231.79524 | pgbench_tellers  |           450560
 2017-02-06 07:23:51.795242+01 | 1486362231.79524 | pgbench_history  |                0
 2017-02-06 07:23:51.795242+01 | 1486362231.79524 | pgbench_branches |            40960

 2017-02-06 07:23:52.891801+01 | 1486362232.8918 | pgbench_accounts |      13429514240
 2017-02-06 07:23:52.891801+01 | 1486362232.8918 | pgbench_tellers  |           450560
 2017-02-06 07:23:52.891801+01 | 1486362232.8918 | pgbench_history  |                0
 2017-02-06 07:23:52.891801+01 | 1486362232.8918 | pgbench_branches |            40960

 2017-02-06 07:23:53.989396+01 | 1486362233.9894 | pgbench_accounts |      13429514240
 2017-02-06 07:23:53.989396+01 | 1486362233.9894 | pgbench_tellers  |           450560
 2017-02-06 07:23:53.989396+01 | 1486362233.9894 | pgbench_history  |                0
 2017-02-06 07:23:53.989396+01 | 1486362233.9894 | pgbench_branches |            40960

 2017-02-06 07:23:55.081412+01 | 1486362235.08141 | pgbench_accounts |      13429514240
 2017-02-06 07:23:55.081412+01 | 1486362235.08141 | pgbench_tellers  |           450560
 2017-02-06 07:23:55.081412+01 | 1486362235.08141 | pgbench_history  |                0
 2017-02-06 07:23:55.081412+01 | 1486362235.08141 | pgbench_branches |            40960

 2017-02-06 07:23:56.172109+01 | 1486362236.17211 | pgbench_accounts |      13429514240
 2017-02-06 07:23:56.172109+01 | 1486362236.17211 | pgbench_tellers  |           450560
 2017-02-06 07:23:56.172109+01 | 1486362236.17211 | pgbench_history  |                0
 2017-02-06 07:23:56.172109+01 | 1486362236.17211 | pgbench_branches |            40960

 2017-02-06 07:23:57.265293+01 | 1486362237.26529 | pgbench_accounts |      13429514240
 2017-02-06 07:23:57.265293+01 | 1486362237.26529 | pgbench_tellers  |           450560
 2017-02-06 07:23:57.265293+01 | 1486362237.26529 | pgbench_history  |                0
 2017-02-06 07:23:57.265293+01 | 1486362237.26529 | pgbench_branches |            40960

 2017-02-06 07:23:58.366472+01 | 1486362238.36647 | pgbench_accounts |      13429514240
 2017-02-06 07:23:58.366472+01 | 1486362238.36647 | pgbench_tellers  |           450560
 2017-02-06 07:23:58.366472+01 | 1486362238.36647 | pgbench_history  |                0
 2017-02-06 07:23:58.366472+01 | 1486362238.36647 | pgbench_branches |            40960

 2017-02-06 07:23:59.460612+01 | 1486362239.46061 | pgbench_accounts |      13429514240
 2017-02-06 07:23:59.460612+01 | 1486362239.46061 | pgbench_tellers  |           450560
 2017-02-06 07:23:59.460612+01 | 1486362239.46061 | pgbench_history  |                0
 2017-02-06 07:23:59.460612+01 | 1486362239.46061 | pgbench_branches |            40960

 2017-02-06 07:24:00.555915+01 | 1486362240.55592 | pgbench_accounts |      13429514240
 2017-02-06 07:24:00.555915+01 | 1486362240.55592 | pgbench_tellers  |           450560
 2017-02-06 07:24:00.555915+01 | 1486362240.55592 | pgbench_history  |                0
 2017-02-06 07:24:00.555915+01 | 1486362240.55592 | pgbench_branches |            40960

 2017-02-06 07:24:01.644511+01 | 1486362241.64451 | pgbench_accounts |      13429514240
 2017-02-06 07:24:01.644511+01 | 1486362241.64451 | pgbench_tellers  |           450560
 2017-02-06 07:24:01.644511+01 | 1486362241.64451 | pgbench_history  |                0
 2017-02-06 07:24:01.644511+01 | 1486362241.64451 | pgbench_branches |            40960

 2017-02-06 07:24:02.737072+01 | 1486362242.73707 | pgbench_accounts |      13429514240
 2017-02-06 07:24:02.737072+01 | 1486362242.73707 | pgbench_tellers  |           450560
 2017-02-06 07:24:02.737072+01 | 1486362242.73707 | pgbench_history  |                0
 2017-02-06 07:24:02.737072+01 | 1486362242.73707 | pgbench_branches |            40960

 2017-02-06 07:24:03.825276+01 | 1486362243.82528 | pgbench_accounts |      13429514240
 2017-02-06 07:24:03.825276+01 | 1486362243.82528 | pgbench_tellers  |           450560
 2017-02-06 07:24:03.825276+01 | 1486362243.82528 | pgbench_history  |                0
 2017-02-06 07:24:03.825276+01 | 1486362243.82528 | pgbench_branches |            40960

 2017-02-06 07:24:04.912541+01 | 1486362244.91254 | pgbench_accounts |      13429514240
 2017-02-06 07:24:04.912541+01 | 1486362244.91254 | pgbench_tellers  |           450560
 2017-02-06 07:24:04.912541+01 | 1486362244.91254 | pgbench_history  |                0
 2017-02-06 07:24:04.912541+01 | 1486362244.91254 | pgbench_branches |            40960

 2017-02-06 07:24:06.00874+01 | 1486362246.00874 | pgbench_accounts |      13429514240
 2017-02-06 07:24:06.00874+01 | 1486362246.00874 | pgbench_tellers  |           450560
 2017-02-06 07:24:06.00874+01 | 1486362246.00874 | pgbench_history  |                0
 2017-02-06 07:24:06.00874+01 | 1486362246.00874 | pgbench_branches |            40960

 2017-02-06 07:24:07.105595+01 | 1486362247.1056 | pgbench_accounts |      13429514240
 2017-02-06 07:24:07.105595+01 | 1486362247.1056 | pgbench_tellers  |           450560
 2017-02-06 07:24:07.105595+01 | 1486362247.1056 | pgbench_history  |                0
 2017-02-06 07:24:07.105595+01 | 1486362247.1056 | pgbench_branches |            40960

 2017-02-06 07:24:08.191884+01 | 1486362248.19188 | pgbench_accounts |      13429514240
 2017-02-06 07:24:08.191884+01 | 1486362248.19188 | pgbench_tellers  |           450560
 2017-02-06 07:24:08.191884+01 | 1486362248.19188 | pgbench_history  |                0
 2017-02-06 07:24:08.191884+01 | 1486362248.19188 | pgbench_branches |            40960

 2017-02-06 07:24:09.282788+01 | 1486362249.28279 | pgbench_accounts |      13429514240
 2017-02-06 07:24:09.282788+01 | 1486362249.28279 | pgbench_tellers  |           450560
 2017-02-06 07:24:09.282788+01 | 1486362249.28279 | pgbench_history  |                0
 2017-02-06 07:24:09.282788+01 | 1486362249.28279 | pgbench_branches |            40960

 2017-02-06 07:24:10.378106+01 | 1486362250.37811 | pgbench_accounts |      13429514240
 2017-02-06 07:24:10.378106+01 | 1486362250.37811 | pgbench_tellers  |           450560
 2017-02-06 07:24:10.378106+01 | 1486362250.37811 | pgbench_history  |                0
 2017-02-06 07:24:10.378106+01 | 1486362250.37811 | pgbench_branches |            40960

 2017-02-06 07:24:11.46721+01 | 1486362251.46721 | pgbench_accounts |      13429514240
 2017-02-06 07:24:11.46721+01 | 1486362251.46721 | pgbench_tellers  |           450560
 2017-02-06 07:24:11.46721+01 | 1486362251.46721 | pgbench_history  |                0
 2017-02-06 07:24:11.46721+01 | 1486362251.46721 | pgbench_branches |            40960

 2017-02-06 07:24:12.553151+01 | 1486362252.55315 | pgbench_accounts |      13429514240
 2017-02-06 07:24:12.553151+01 | 1486362252.55315 | pgbench_tellers  |           450560
 2017-02-06 07:24:12.553151+01 | 1486362252.55315 | pgbench_history  |                0
 2017-02-06 07:24:12.553151+01 | 1486362252.55315 | pgbench_branches |            40960

 2017-02-06 07:24:13.64691+01 | 1486362253.64691 | pgbench_accounts |      13429514240
 2017-02-06 07:24:13.64691+01 | 1486362253.64691 | pgbench_tellers  |           450560
 2017-02-06 07:24:13.64691+01 | 1486362253.64691 | pgbench_history  |                0
 2017-02-06 07:24:13.64691+01 | 1486362253.64691 | pgbench_branches |            40960

 2017-02-06 07:24:14.745494+01 | 1486362254.74549 | pgbench_accounts |      13429514240
 2017-02-06 07:24:14.745494+01 | 1486362254.74549 | pgbench_tellers  |           450560
 2017-02-06 07:24:14.745494+01 | 1486362254.74549 | pgbench_history  |                0
 2017-02-06 07:24:14.745494+01 | 1486362254.74549 | pgbench_branches |            40960

 2017-02-06 07:24:15.840144+01 | 1486362255.84014 | pgbench_accounts |      13429514240
 2017-02-06 07:24:15.840144+01 | 1486362255.84014 | pgbench_tellers  |           450560
 2017-02-06 07:24:15.840144+01 | 1486362255.84014 | pgbench_history  |                0
 2017-02-06 07:24:15.840144+01 | 1486362255.84014 | pgbench_branches |            40960

 2017-02-06 07:24:16.933069+01 | 1486362256.93307 | pgbench_accounts |      13429514240
 2017-02-06 07:24:16.933069+01 | 1486362256.93307 | pgbench_tellers  |           450560
 2017-02-06 07:24:16.933069+01 | 1486362256.93307 | pgbench_history  |                0
 2017-02-06 07:24:16.933069+01 | 1486362256.93307 | pgbench_branches |            40960

 2017-02-06 07:24:18.023662+01 | 1486362258.02366 | pgbench_accounts |      13429514240
 2017-02-06 07:24:18.023662+01 | 1486362258.02366 | pgbench_tellers  |           450560
 2017-02-06 07:24:18.023662+01 | 1486362258.02366 | pgbench_history  |                0
 2017-02-06 07:24:18.023662+01 | 1486362258.02366 | pgbench_branches |            40960

 2017-02-06 07:24:19.11614+01 | 1486362259.11614 | pgbench_accounts |      13429514240
 2017-02-06 07:24:19.11614+01 | 1486362259.11614 | pgbench_tellers  |           450560
 2017-02-06 07:24:19.11614+01 | 1486362259.11614 | pgbench_history  |                0
 2017-02-06 07:24:19.11614+01 | 1486362259.11614 | pgbench_branches |            40960

 2017-02-06 07:24:20.198817+01 | 1486362260.19882 | pgbench_accounts |      13429514240
 2017-02-06 07:24:20.198817+01 | 1486362260.19882 | pgbench_tellers  |           450560
 2017-02-06 07:24:20.198817+01 | 1486362260.19882 | pgbench_history  |                0
 2017-02-06 07:24:20.198817+01 | 1486362260.19882 | pgbench_branches |            40960

 2017-02-06 07:24:21.276726+01 | 1486362261.27673 | pgbench_accounts |      13429514240
 2017-02-06 07:24:21.276726+01 | 1486362261.27673 | pgbench_tellers  |           450560
 2017-02-06 07:24:21.276726+01 | 1486362261.27673 | pgbench_history  |                0
 2017-02-06 07:24:21.276726+01 | 1486362261.27673 | pgbench_branches |            40960

 2017-02-06 07:24:22.367776+01 | 1486362262.36778 | pgbench_accounts |      13429514240
 2017-02-06 07:24:22.367776+01 | 1486362262.36778 | pgbench_tellers  |           450560
 2017-02-06 07:24:22.367776+01 | 1486362262.36778 | pgbench_history  |                0
 2017-02-06 07:24:22.367776+01 | 1486362262.36778 | pgbench_branches |            40960

 2017-02-06 07:24:23.46265+01 | 1486362263.46265 | pgbench_accounts |      13429514240
 2017-02-06 07:24:23.46265+01 | 1486362263.46265 | pgbench_tellers  |           450560
 2017-02-06 07:24:23.46265+01 | 1486362263.46265 | pgbench_history  |                0
 2017-02-06 07:24:23.46265+01 | 1486362263.46265 | pgbench_branches |            40960

 2017-02-06 07:24:24.556615+01 | 1486362264.55662 | pgbench_accounts |      13429514240
 2017-02-06 07:24:24.556615+01 | 1486362264.55662 | pgbench_tellers  |           450560
 2017-02-06 07:24:24.556615+01 | 1486362264.55662 | pgbench_history  |                0
 2017-02-06 07:24:24.556615+01 | 1486362264.55662 | pgbench_branches |            40960

 2017-02-06 07:24:25.645356+01 | 1486362265.64536 | pgbench_accounts |      13429514240
 2017-02-06 07:24:25.645356+01 | 1486362265.64536 | pgbench_tellers  |           450560
 2017-02-06 07:24:25.645356+01 | 1486362265.64536 | pgbench_history  |                0
 2017-02-06 07:24:25.645356+01 | 1486362265.64536 | pgbench_branches |            40960

 2017-02-06 07:24:26.73681+01 | 1486362266.73681 | pgbench_accounts |      13429514240
 2017-02-06 07:24:26.73681+01 | 1486362266.73681 | pgbench_tellers  |           450560
 2017-02-06 07:24:26.73681+01 | 1486362266.73681 | pgbench_history  |                0
 2017-02-06 07:24:26.73681+01 | 1486362266.73681 | pgbench_branches |            40960

 2017-02-06 07:24:27.831665+01 | 1486362267.83167 | pgbench_accounts |      13429514240
 2017-02-06 07:24:27.831665+01 | 1486362267.83167 | pgbench_tellers  |           450560
 2017-02-06 07:24:27.831665+01 | 1486362267.83167 | pgbench_history  |                0
 2017-02-06 07:24:27.831665+01 | 1486362267.83167 | pgbench_branches |            40960

 2017-02-06 07:24:28.92832+01 | 1486362268.92832 | pgbench_accounts |      13429514240
 2017-02-06 07:24:28.92832+01 | 1486362268.92832 | pgbench_tellers  |           450560
 2017-02-06 07:24:28.92832+01 | 1486362268.92832 | pgbench_history  |                0
 2017-02-06 07:24:28.92832+01 | 1486362268.92832 | pgbench_branches |            40960

 2017-02-06 07:24:30.011966+01 | 1486362270.01197 | pgbench_accounts |      13429514240
 2017-02-06 07:24:30.011966+01 | 1486362270.01197 | pgbench_tellers  |           450560
 2017-02-06 07:24:30.011966+01 | 1486362270.01197 | pgbench_history  |                0
 2017-02-06 07:24:30.011966+01 | 1486362270.01197 | pgbench_branches |            40960

 2017-02-06 07:24:31.103066+01 | 1486362271.10307 | pgbench_accounts |      13429514240
 2017-02-06 07:24:31.103066+01 | 1486362271.10307 | pgbench_tellers  |           450560
 2017-02-06 07:24:31.103066+01 | 1486362271.10307 | pgbench_history  |                0
 2017-02-06 07:24:31.103066+01 | 1486362271.10307 | pgbench_branches |            40960

 2017-02-06 07:24:32.19388+01 | 1486362272.19388 | pgbench_accounts |      13429514240
 2017-02-06 07:24:32.19388+01 | 1486362272.19388 | pgbench_tellers  |           450560
 2017-02-06 07:24:32.19388+01 | 1486362272.19388 | pgbench_history  |                0
 2017-02-06 07:24:32.19388+01 | 1486362272.19388 | pgbench_branches |            40960

 2017-02-06 07:24:33.285804+01 | 1486362273.2858 | pgbench_accounts |      13429514240
 2017-02-06 07:24:33.285804+01 | 1486362273.2858 | pgbench_tellers  |           450560
 2017-02-06 07:24:33.285804+01 | 1486362273.2858 | pgbench_history  |                0
 2017-02-06 07:24:33.285804+01 | 1486362273.2858 | pgbench_branches |            40960

 2017-02-06 07:24:34.381253+01 | 1486362274.38125 | pgbench_accounts |      13429514240
 2017-02-06 07:24:34.381253+01 | 1486362274.38125 | pgbench_tellers  |           450560
 2017-02-06 07:24:34.381253+01 | 1486362274.38125 | pgbench_history  |                0
 2017-02-06 07:24:34.381253+01 | 1486362274.38125 | pgbench_branches |            40960

 2017-02-06 07:24:35.476188+01 | 1486362275.47619 | pgbench_accounts |      13429514240
 2017-02-06 07:24:35.476188+01 | 1486362275.47619 | pgbench_tellers  |           450560
 2017-02-06 07:24:35.476188+01 | 1486362275.47619 | pgbench_history  |                0
 2017-02-06 07:24:35.476188+01 | 1486362275.47619 | pgbench_branches |            40960

 2017-02-06 07:24:36.574538+01 | 1486362276.57454 | pgbench_accounts |      13429514240
 2017-02-06 07:24:36.574538+01 | 1486362276.57454 | pgbench_tellers  |           450560
 2017-02-06 07:24:36.574538+01 | 1486362276.57454 | pgbench_history  |                0
 2017-02-06 07:24:36.574538+01 | 1486362276.57454 | pgbench_branches |            40960

 2017-02-06 07:24:37.66217+01 | 1486362277.66217 | pgbench_accounts |      13429514240
 2017-02-06 07:24:37.66217+01 | 1486362277.66217 | pgbench_tellers  |           450560
 2017-02-06 07:24:37.66217+01 | 1486362277.66217 | pgbench_history  |                0
 2017-02-06 07:24:37.66217+01 | 1486362277.66217 | pgbench_branches |            40960

 2017-02-06 07:24:38.744156+01 | 1486362278.74416 | pgbench_accounts |      13429514240
 2017-02-06 07:24:38.744156+01 | 1486362278.74416 | pgbench_tellers  |           450560
 2017-02-06 07:24:38.744156+01 | 1486362278.74416 | pgbench_history  |                0
 2017-02-06 07:24:38.744156+01 | 1486362278.74416 | pgbench_branches |            40960

 2017-02-06 07:24:39.84231+01 | 1486362279.84231 | pgbench_accounts |      13429514240
 2017-02-06 07:24:39.84231+01 | 1486362279.84231 | pgbench_tellers  |           450560
 2017-02-06 07:24:39.84231+01 | 1486362279.84231 | pgbench_history  |                0
 2017-02-06 07:24:39.84231+01 | 1486362279.84231 | pgbench_branches |            40960

 2017-02-06 07:24:40.936151+01 | 1486362280.93615 | pgbench_accounts |      13429514240
 2017-02-06 07:24:40.936151+01 | 1486362280.93615 | pgbench_tellers  |           450560
 2017-02-06 07:24:40.936151+01 | 1486362280.93615 | pgbench_history  |                0
 2017-02-06 07:24:40.936151+01 | 1486362280.93615 | pgbench_branches |            40960

 2017-02-06 07:24:42.022382+01 | 1486362282.02238 | pgbench_accounts |      13429514240
 2017-02-06 07:24:42.022382+01 | 1486362282.02238 | pgbench_tellers  |           450560
 2017-02-06 07:24:42.022382+01 | 1486362282.02238 | pgbench_history  |                0
 2017-02-06 07:24:42.022382+01 | 1486362282.02238 | pgbench_branches |            40960

 2017-02-06 07:24:43.106641+01 | 1486362283.10664 | pgbench_accounts |      13429514240
 2017-02-06 07:24:43.106641+01 | 1486362283.10664 | pgbench_tellers  |           450560
 2017-02-06 07:24:43.106641+01 | 1486362283.10664 | pgbench_history  |                0
 2017-02-06 07:24:43.106641+01 | 1486362283.10664 | pgbench_branches |            40960

 2017-02-06 07:24:44.199063+01 | 1486362284.19906 | pgbench_accounts |      13429514240
 2017-02-06 07:24:44.199063+01 | 1486362284.19906 | pgbench_tellers  |           450560
 2017-02-06 07:24:44.199063+01 | 1486362284.19906 | pgbench_history  |                0
 2017-02-06 07:24:44.199063+01 | 1486362284.19906 | pgbench_branches |            40960

 2017-02-06 07:24:45.294009+01 | 1486362285.29401 | pgbench_accounts |      13429514240
 2017-02-06 07:24:45.294009+01 | 1486362285.29401 | pgbench_tellers  |           450560
 2017-02-06 07:24:45.294009+01 | 1486362285.29401 | pgbench_history  |                0
 2017-02-06 07:24:45.294009+01 | 1486362285.29401 | pgbench_branches |            40960

 2017-02-06 07:24:46.38196+01 | 1486362286.38196 | pgbench_accounts |      13429514240
 2017-02-06 07:24:46.38196+01 | 1486362286.38196 | pgbench_tellers  |           450560
 2017-02-06 07:24:46.38196+01 | 1486362286.38196 | pgbench_history  |                0
 2017-02-06 07:24:46.38196+01 | 1486362286.38196 | pgbench_branches |            40960

 2017-02-06 07:24:47.476379+01 | 1486362287.47638 | pgbench_accounts |      13429514240
 2017-02-06 07:24:47.476379+01 | 1486362287.47638 | pgbench_tellers  |           450560
 2017-02-06 07:24:47.476379+01 | 1486362287.47638 | pgbench_history  |                0
 2017-02-06 07:24:47.476379+01 | 1486362287.47638 | pgbench_branches |            40960

 2017-02-06 07:24:48.569726+01 | 1486362288.56973 | pgbench_accounts |      13429514240
 2017-02-06 07:24:48.569726+01 | 1486362288.56973 | pgbench_tellers  |           450560
 2017-02-06 07:24:48.569726+01 | 1486362288.56973 | pgbench_history  |                0
 2017-02-06 07:24:48.569726+01 | 1486362288.56973 | pgbench_branches |            40960

 2017-02-06 07:24:49.660613+01 | 1486362289.66061 | pgbench_accounts |      13429514240
 2017-02-06 07:24:49.660613+01 | 1486362289.66061 | pgbench_tellers  |           450560
 2017-02-06 07:24:49.660613+01 | 1486362289.66061 | pgbench_history  |                0
 2017-02-06 07:24:49.660613+01 | 1486362289.66061 | pgbench_branches |            40960

 2017-02-06 07:24:50.756155+01 | 1486362290.75616 | pgbench_accounts |      13429514240
 2017-02-06 07:24:50.756155+01 | 1486362290.75616 | pgbench_tellers  |           450560
 2017-02-06 07:24:50.756155+01 | 1486362290.75616 | pgbench_history  |                0
 2017-02-06 07:24:50.756155+01 | 1486362290.75616 | pgbench_branches |            40960

 2017-02-06 07:24:51.850083+01 | 1486362291.85008 | pgbench_accounts |      13429514240
 2017-02-06 07:24:51.850083+01 | 1486362291.85008 | pgbench_tellers  |           450560
 2017-02-06 07:24:51.850083+01 | 1486362291.85008 | pgbench_history  |                0
 2017-02-06 07:24:51.850083+01 | 1486362291.85008 | pgbench_branches |            40960

 2017-02-06 07:24:52.943244+01 | 1486362292.94324 | pgbench_accounts |      13429514240
 2017-02-06 07:24:52.943244+01 | 1486362292.94324 | pgbench_tellers  |           450560
 2017-02-06 07:24:52.943244+01 | 1486362292.94324 | pgbench_history  |                0
 2017-02-06 07:24:52.943244+01 | 1486362292.94324 | pgbench_branches |            40960

 2017-02-06 07:24:54.032712+01 | 1486362294.03271 | pgbench_accounts |      13429514240
 2017-02-06 07:24:54.032712+01 | 1486362294.03271 | pgbench_tellers  |           450560
 2017-02-06 07:24:54.032712+01 | 1486362294.03271 | pgbench_history  |                0
 2017-02-06 07:24:54.032712+01 | 1486362294.03271 | pgbench_branches |            40960

 2017-02-06 07:24:55.125983+01 | 1486362295.12598 | pgbench_accounts |      13429514240
 2017-02-06 07:24:55.125983+01 | 1486362295.12598 | pgbench_tellers  |           450560
 2017-02-06 07:24:55.125983+01 | 1486362295.12598 | pgbench_history  |                0
 2017-02-06 07:24:55.125983+01 | 1486362295.12598 | pgbench_branches |            40960

 2017-02-06 07:24:56.223245+01 | 1486362296.22324 | pgbench_accounts |      13429514240
 2017-02-06 07:24:56.223245+01 | 1486362296.22324 | pgbench_tellers  |           450560
 2017-02-06 07:24:56.223245+01 | 1486362296.22324 | pgbench_history  |                0
 2017-02-06 07:24:56.223245+01 | 1486362296.22324 | pgbench_branches |            40960

 2017-02-06 07:24:57.299822+01 | 1486362297.29982 | pgbench_accounts |      13429514240
 2017-02-06 07:24:57.299822+01 | 1486362297.29982 | pgbench_tellers  |           450560
 2017-02-06 07:24:57.299822+01 | 1486362297.29982 | pgbench_history  |                0
 2017-02-06 07:24:57.299822+01 | 1486362297.29982 | pgbench_branches |            40960

 2017-02-06 07:24:58.394312+01 | 1486362298.39431 | pgbench_accounts |      13429514240
 2017-02-06 07:24:58.394312+01 | 1486362298.39431 | pgbench_tellers  |           450560
 2017-02-06 07:24:58.394312+01 | 1486362298.39431 | pgbench_history  |                0
 2017-02-06 07:24:58.394312+01 | 1486362298.39431 | pgbench_branches |            40960

 2017-02-06 07:24:59.478103+01 | 1486362299.4781 | pgbench_accounts |      13429514240
 2017-02-06 07:24:59.478103+01 | 1486362299.4781 | pgbench_tellers  |           450560
 2017-02-06 07:24:59.478103+01 | 1486362299.4781 | pgbench_history  |                0
 2017-02-06 07:24:59.478103+01 | 1486362299.4781 | pgbench_branches |            40960

 2017-02-06 07:25:00.566421+01 | 1486362300.56642 | pgbench_accounts |      13429514240
 2017-02-06 07:25:00.566421+01 | 1486362300.56642 | pgbench_tellers  |           450560
 2017-02-06 07:25:00.566421+01 | 1486362300.56642 | pgbench_history  |                0
 2017-02-06 07:25:00.566421+01 | 1486362300.56642 | pgbench_branches |            40960

 2017-02-06 07:25:01.664853+01 | 1486362301.66485 | pgbench_accounts |      13429514240
 2017-02-06 07:25:01.664853+01 | 1486362301.66485 | pgbench_tellers  |           450560
 2017-02-06 07:25:01.664853+01 | 1486362301.66485 | pgbench_history  |                0
 2017-02-06 07:25:01.664853+01 | 1486362301.66485 | pgbench_branches |            40960

 2017-02-06 07:25:02.760834+01 | 1486362302.76083 | pgbench_accounts |      13429514240
 2017-02-06 07:25:02.760834+01 | 1486362302.76083 | pgbench_tellers  |           450560
 2017-02-06 07:25:02.760834+01 | 1486362302.76083 | pgbench_history  |                0
 2017-02-06 07:25:02.760834+01 | 1486362302.76083 | pgbench_branches |            40960

 2017-02-06 07:25:03.851837+01 | 1486362303.85184 | pgbench_accounts |      13429514240
 2017-02-06 07:25:03.851837+01 | 1486362303.85184 | pgbench_tellers  |           450560
 2017-02-06 07:25:03.851837+01 | 1486362303.85184 | pgbench_history  |                0
 2017-02-06 07:25:03.851837+01 | 1486362303.85184 | pgbench_branches |            40960

 2017-02-06 07:25:04.940114+01 | 1486362304.94011 | pgbench_accounts |      13429514240
 2017-02-06 07:25:04.940114+01 | 1486362304.94011 | pgbench_tellers  |           450560
 2017-02-06 07:25:04.940114+01 | 1486362304.94011 | pgbench_history  |                0
 2017-02-06 07:25:04.940114+01 | 1486362304.94011 | pgbench_branches |            40960

 2017-02-06 07:25:06.027421+01 | 1486362306.02742 | pgbench_accounts |      13429514240
 2017-02-06 07:25:06.027421+01 | 1486362306.02742 | pgbench_tellers  |           450560
 2017-02-06 07:25:06.027421+01 | 1486362306.02742 | pgbench_history  |                0
 2017-02-06 07:25:06.027421+01 | 1486362306.02742 | pgbench_branches |            40960

 2017-02-06 07:25:07.127672+01 | 1486362307.12767 | pgbench_accounts |      13429514240
 2017-02-06 07:25:07.127672+01 | 1486362307.12767 | pgbench_tellers  |           450560
 2017-02-06 07:25:07.127672+01 | 1486362307.12767 | pgbench_history  |                0
 2017-02-06 07:25:07.127672+01 | 1486362307.12767 | pgbench_branches |            40960

 2017-02-06 07:25:08.211436+01 | 1486362308.21144 | pgbench_accounts |      13429514240
 2017-02-06 07:25:08.211436+01 | 1486362308.21144 | pgbench_tellers  |           450560
 2017-02-06 07:25:08.211436+01 | 1486362308.21144 | pgbench_history  |                0
 2017-02-06 07:25:08.211436+01 | 1486362308.21144 | pgbench_branches |            40960

 2017-02-06 07:25:09.30047+01 | 1486362309.30047 | pgbench_accounts |      13429514240
 2017-02-06 07:25:09.30047+01 | 1486362309.30047 | pgbench_tellers  |           450560
 2017-02-06 07:25:09.30047+01 | 1486362309.30047 | pgbench_history  |                0
 2017-02-06 07:25:09.30047+01 | 1486362309.30047 | pgbench_branches |            40960

 2017-02-06 07:25:10.392043+01 | 1486362310.39204 | pgbench_accounts |      13429514240
 2017-02-06 07:25:10.392043+01 | 1486362310.39204 | pgbench_tellers  |           450560
 2017-02-06 07:25:10.392043+01 | 1486362310.39204 | pgbench_history  |                0
 2017-02-06 07:25:10.392043+01 | 1486362310.39204 | pgbench_branches |            40960

 2017-02-06 07:25:11.476533+01 | 1486362311.47653 | pgbench_accounts |      13429514240
 2017-02-06 07:25:11.476533+01 | 1486362311.47653 | pgbench_tellers  |           450560
 2017-02-06 07:25:11.476533+01 | 1486362311.47653 | pgbench_history  |                0
 2017-02-06 07:25:11.476533+01 | 1486362311.47653 | pgbench_branches |            40960

 2017-02-06 07:25:12.571759+01 | 1486362312.57176 | pgbench_accounts |      13429514240
 2017-02-06 07:25:12.571759+01 | 1486362312.57176 | pgbench_tellers  |           450560
 2017-02-06 07:25:12.571759+01 | 1486362312.57176 | pgbench_history  |                0
 2017-02-06 07:25:12.571759+01 | 1486362312.57176 | pgbench_branches |            40960

 2017-02-06 07:25:13.662894+01 | 1486362313.66289 | pgbench_accounts |      13429514240
 2017-02-06 07:25:13.662894+01 | 1486362313.66289 | pgbench_tellers  |           450560
 2017-02-06 07:25:13.662894+01 | 1486362313.66289 | pgbench_history  |                0
 2017-02-06 07:25:13.662894+01 | 1486362313.66289 | pgbench_branches |            40960

 2017-02-06 07:25:14.77018+01 | 1486362314.77018 | pgbench_accounts |      13429514240
 2017-02-06 07:25:14.77018+01 | 1486362314.77018 | pgbench_tellers  |           450560
 2017-02-06 07:25:14.77018+01 | 1486362314.77018 | pgbench_history  |                0
 2017-02-06 07:25:14.77018+01 | 1486362314.77018 | pgbench_branches |            40960

 2017-02-06 07:25:15.868176+01 | 1486362315.86818 | pgbench_accounts |      13429514240
 2017-02-06 07:25:15.868176+01 | 1486362315.86818 | pgbench_tellers  |           450560
 2017-02-06 07:25:15.868176+01 | 1486362315.86818 | pgbench_history  |                0
 2017-02-06 07:25:15.868176+01 | 1486362315.86818 | pgbench_branches |            40960

 2017-02-06 07:25:16.962628+01 | 1486362316.96263 | pgbench_accounts |      13429514240
 2017-02-06 07:25:16.962628+01 | 1486362316.96263 | pgbench_tellers  |           450560
 2017-02-06 07:25:16.962628+01 | 1486362316.96263 | pgbench_history  |                0
 2017-02-06 07:25:16.962628+01 | 1486362316.96263 | pgbench_branches |            40960

 2017-02-06 07:25:18.052068+01 | 1486362318.05207 | pgbench_accounts |      13429514240
 2017-02-06 07:25:18.052068+01 | 1486362318.05207 | pgbench_tellers  |           450560
 2017-02-06 07:25:18.052068+01 | 1486362318.05207 | pgbench_history  |                0
 2017-02-06 07:25:18.052068+01 | 1486362318.05207 | pgbench_branches |            40960

 2017-02-06 07:25:19.141151+01 | 1486362319.14115 | pgbench_accounts |      13429514240
 2017-02-06 07:25:19.141151+01 | 1486362319.14115 | pgbench_tellers  |           450560
 2017-02-06 07:25:19.141151+01 | 1486362319.14115 | pgbench_history  |                0
 2017-02-06 07:25:19.141151+01 | 1486362319.14115 | pgbench_branches |            40960

 2017-02-06 07:25:20.235324+01 | 1486362320.23532 | pgbench_accounts |      13429514240
 2017-02-06 07:25:20.235324+01 | 1486362320.23532 | pgbench_tellers  |           450560
 2017-02-06 07:25:20.235324+01 | 1486362320.23532 | pgbench_history  |                0
 2017-02-06 07:25:20.235324+01 | 1486362320.23532 | pgbench_branches |            40960

 2017-02-06 07:25:21.317188+01 | 1486362321.31719 | pgbench_accounts |      13429514240
 2017-02-06 07:25:21.317188+01 | 1486362321.31719 | pgbench_tellers  |           450560
 2017-02-06 07:25:21.317188+01 | 1486362321.31719 | pgbench_history  |                0
 2017-02-06 07:25:21.317188+01 | 1486362321.31719 | pgbench_branches |            40960

 2017-02-06 07:25:22.414796+01 | 1486362322.4148 | pgbench_accounts |      13429514240
 2017-02-06 07:25:22.414796+01 | 1486362322.4148 | pgbench_tellers  |           450560
 2017-02-06 07:25:22.414796+01 | 1486362322.4148 | pgbench_history  |                0
 2017-02-06 07:25:22.414796+01 | 1486362322.4148 | pgbench_branches |            40960

 2017-02-06 07:25:23.498683+01 | 1486362323.49868 | pgbench_accounts |      13429514240
 2017-02-06 07:25:23.498683+01 | 1486362323.49868 | pgbench_tellers  |           450560
 2017-02-06 07:25:23.498683+01 | 1486362323.49868 | pgbench_history  |                0
 2017-02-06 07:25:23.498683+01 | 1486362323.49868 | pgbench_branches |            40960

 2017-02-06 07:25:24.596074+01 | 1486362324.59607 | pgbench_accounts |      13429514240
 2017-02-06 07:25:24.596074+01 | 1486362324.59607 | pgbench_tellers  |           450560
 2017-02-06 07:25:24.596074+01 | 1486362324.59607 | pgbench_history  |                0
 2017-02-06 07:25:24.596074+01 | 1486362324.59607 | pgbench_branches |            40960

 2017-02-06 07:25:25.687489+01 | 1486362325.68749 | pgbench_accounts |      13429514240
 2017-02-06 07:25:25.687489+01 | 1486362325.68749 | pgbench_tellers  |           450560
 2017-02-06 07:25:25.687489+01 | 1486362325.68749 | pgbench_history  |                0
 2017-02-06 07:25:25.687489+01 | 1486362325.68749 | pgbench_branches |            40960

 2017-02-06 07:25:26.786807+01 | 1486362326.78681 | pgbench_accounts |      13429514240
 2017-02-06 07:25:26.786807+01 | 1486362326.78681 | pgbench_tellers  |           450560
 2017-02-06 07:25:26.786807+01 | 1486362326.78681 | pgbench_history  |                0
 2017-02-06 07:25:26.786807+01 | 1486362326.78681 | pgbench_branches |            40960

 2017-02-06 07:25:27.867315+01 | 1486362327.86732 | pgbench_accounts |      13429514240
 2017-02-06 07:25:27.867315+01 | 1486362327.86732 | pgbench_tellers  |           450560
 2017-02-06 07:25:27.867315+01 | 1486362327.86732 | pgbench_history  |                0
 2017-02-06 07:25:27.867315+01 | 1486362327.86732 | pgbench_branches |            40960

 2017-02-06 07:25:28.963292+01 | 1486362328.96329 | pgbench_accounts |      13429514240
 2017-02-06 07:25:28.963292+01 | 1486362328.96329 | pgbench_tellers  |           450560
 2017-02-06 07:25:28.963292+01 | 1486362328.96329 | pgbench_history  |                0
 2017-02-06 07:25:28.963292+01 | 1486362328.96329 | pgbench_branches |            40960

 2017-02-06 07:25:30.051312+01 | 1486362330.05131 | pgbench_accounts |      13429514240
 2017-02-06 07:25:30.051312+01 | 1486362330.05131 | pgbench_tellers  |           450560
 2017-02-06 07:25:30.051312+01 | 1486362330.05131 | pgbench_history  |                0
 2017-02-06 07:25:30.051312+01 | 1486362330.05131 | pgbench_branches |            40960

 2017-02-06 07:25:31.138255+01 | 1486362331.13825 | pgbench_accounts |      13429514240
 2017-02-06 07:25:31.138255+01 | 1486362331.13825 | pgbench_tellers  |           450560
 2017-02-06 07:25:31.138255+01 | 1486362331.13825 | pgbench_history  |                0
 2017-02-06 07:25:31.138255+01 | 1486362331.13825 | pgbench_branches |            40960

 2017-02-06 07:25:32.22972+01 | 1486362332.22972 | pgbench_accounts |      13429514240
 2017-02-06 07:25:32.22972+01 | 1486362332.22972 | pgbench_tellers  |           450560
 2017-02-06 07:25:32.22972+01 | 1486362332.22972 | pgbench_history  |                0
 2017-02-06 07:25:32.22972+01 | 1486362332.22972 | pgbench_branches |            40960

 2017-02-06 07:25:33.321806+01 | 1486362333.32181 | pgbench_accounts |      13429514240
 2017-02-06 07:25:33.321806+01 | 1486362333.32181 | pgbench_tellers  |           450560
 2017-02-06 07:25:33.321806+01 | 1486362333.32181 | pgbench_history  |                0
 2017-02-06 07:25:33.321806+01 | 1486362333.32181 | pgbench_branches |            40960

 2017-02-06 07:25:34.40368+01 | 1486362334.40368 | pgbench_accounts |      13429514240
 2017-02-06 07:25:34.40368+01 | 1486362334.40368 | pgbench_tellers  |           450560
 2017-02-06 07:25:34.40368+01 | 1486362334.40368 | pgbench_history  |                0
 2017-02-06 07:25:34.40368+01 | 1486362334.40368 | pgbench_branches |            40960

 2017-02-06 07:25:35.494572+01 | 1486362335.49457 | pgbench_accounts |      13429514240
 2017-02-06 07:25:35.494572+01 | 1486362335.49457 | pgbench_tellers  |           450560
 2017-02-06 07:25:35.494572+01 | 1486362335.49457 | pgbench_history  |                0
 2017-02-06 07:25:35.494572+01 | 1486362335.49457 | pgbench_branches |            40960

 2017-02-06 07:25:36.588697+01 | 1486362336.5887 | pgbench_accounts |      13429514240
 2017-02-06 07:25:36.588697+01 | 1486362336.5887 | pgbench_tellers  |           450560
 2017-02-06 07:25:36.588697+01 | 1486362336.5887 | pgbench_history  |                0
 2017-02-06 07:25:36.588697+01 | 1486362336.5887 | pgbench_branches |            40960

 2017-02-06 07:25:37.684428+01 | 1486362337.68443 | pgbench_accounts |      13429514240
 2017-02-06 07:25:37.684428+01 | 1486362337.68443 | pgbench_tellers  |           450560
 2017-02-06 07:25:37.684428+01 | 1486362337.68443 | pgbench_history  |                0
 2017-02-06 07:25:37.684428+01 | 1486362337.68443 | pgbench_branches |            40960

 2017-02-06 07:25:38.77883+01 | 1486362338.77883 | pgbench_accounts |      13429514240
 2017-02-06 07:25:38.77883+01 | 1486362338.77883 | pgbench_tellers  |           450560
 2017-02-06 07:25:38.77883+01 | 1486362338.77883 | pgbench_history  |                0
 2017-02-06 07:25:38.77883+01 | 1486362338.77883 | pgbench_branches |            40960

 2017-02-06 07:25:39.872039+01 | 1486362339.87204 | pgbench_accounts |      13429514240
 2017-02-06 07:25:39.872039+01 | 1486362339.87204 | pgbench_tellers  |           450560
 2017-02-06 07:25:39.872039+01 | 1486362339.87204 | pgbench_history  |                0
 2017-02-06 07:25:39.872039+01 | 1486362339.87204 | pgbench_branches |            40960

 2017-02-06 07:25:40.962599+01 | 1486362340.9626 | pgbench_accounts |      13429514240
 2017-02-06 07:25:40.962599+01 | 1486362340.9626 | pgbench_tellers  |           450560
 2017-02-06 07:25:40.962599+01 | 1486362340.9626 | pgbench_history  |                0
 2017-02-06 07:25:40.962599+01 | 1486362340.9626 | pgbench_branches |            40960

 2017-02-06 07:25:42.059277+01 | 1486362342.05928 | pgbench_accounts |      13429514240
 2017-02-06 07:25:42.059277+01 | 1486362342.05928 | pgbench_tellers  |           450560
 2017-02-06 07:25:42.059277+01 | 1486362342.05928 | pgbench_history  |                0
 2017-02-06 07:25:42.059277+01 | 1486362342.05928 | pgbench_branches |            40960

 2017-02-06 07:25:43.150865+01 | 1486362343.15087 | pgbench_accounts |      13429514240
 2017-02-06 07:25:43.150865+01 | 1486362343.15087 | pgbench_tellers  |           450560
 2017-02-06 07:25:43.150865+01 | 1486362343.15087 | pgbench_history  |                0
 2017-02-06 07:25:43.150865+01 | 1486362343.15087 | pgbench_branches |            40960

 2017-02-06 07:25:44.234164+01 | 1486362344.23416 | pgbench_accounts |      13429514240
 2017-02-06 07:25:44.234164+01 | 1486362344.23416 | pgbench_tellers  |           450560
 2017-02-06 07:25:44.234164+01 | 1486362344.23416 | pgbench_history  |                0
 2017-02-06 07:25:44.234164+01 | 1486362344.23416 | pgbench_branches |            40960

 2017-02-06 07:25:45.329105+01 | 1486362345.3291 | pgbench_accounts |      13429514240
 2017-02-06 07:25:45.329105+01 | 1486362345.3291 | pgbench_tellers  |           450560
 2017-02-06 07:25:45.329105+01 | 1486362345.3291 | pgbench_history  |                0
 2017-02-06 07:25:45.329105+01 | 1486362345.3291 | pgbench_branches |            40960

 2017-02-06 07:25:46.422616+01 | 1486362346.42262 | pgbench_accounts |      13429514240
 2017-02-06 07:25:46.422616+01 | 1486362346.42262 | pgbench_tellers  |           450560
 2017-02-06 07:25:46.422616+01 | 1486362346.42262 | pgbench_history  |                0
 2017-02-06 07:25:46.422616+01 | 1486362346.42262 | pgbench_branches |            40960

 2017-02-06 07:25:47.517701+01 | 1486362347.5177 | pgbench_accounts |      13429514240
 2017-02-06 07:25:47.517701+01 | 1486362347.5177 | pgbench_tellers  |           450560
 2017-02-06 07:25:47.517701+01 | 1486362347.5177 | pgbench_history  |                0
 2017-02-06 07:25:47.517701+01 | 1486362347.5177 | pgbench_branches |            40960

 2017-02-06 07:25:48.611007+01 | 1486362348.61101 | pgbench_accounts |      13429514240
 2017-02-06 07:25:48.611007+01 | 1486362348.61101 | pgbench_tellers  |           450560
 2017-02-06 07:25:48.611007+01 | 1486362348.61101 | pgbench_history  |                0
 2017-02-06 07:25:48.611007+01 | 1486362348.61101 | pgbench_branches |            40960

 2017-02-06 07:25:49.705856+01 | 1486362349.70586 | pgbench_accounts |      13429514240
 2017-02-06 07:25:49.705856+01 | 1486362349.70586 | pgbench_tellers  |           450560
 2017-02-06 07:25:49.705856+01 | 1486362349.70586 | pgbench_history  |                0
 2017-02-06 07:25:49.705856+01 | 1486362349.70586 | pgbench_branches |            40960

 2017-02-06 07:25:50.797752+01 | 1486362350.79775 | pgbench_accounts |      13429514240
 2017-02-06 07:25:50.797752+01 | 1486362350.79775 | pgbench_tellers  |           450560
 2017-02-06 07:25:50.797752+01 | 1486362350.79775 | pgbench_history  |                0
 2017-02-06 07:25:50.797752+01 | 1486362350.79775 | pgbench_branches |            40960

 2017-02-06 07:25:51.885389+01 | 1486362351.88539 | pgbench_accounts |      13429514240
 2017-02-06 07:25:51.885389+01 | 1486362351.88539 | pgbench_tellers  |           450560
 2017-02-06 07:25:51.885389+01 | 1486362351.88539 | pgbench_history  |                0
 2017-02-06 07:25:51.885389+01 | 1486362351.88539 | pgbench_branches |            40960

 2017-02-06 07:25:52.983278+01 | 1486362352.98328 | pgbench_accounts |      13429514240
 2017-02-06 07:25:52.983278+01 | 1486362352.98328 | pgbench_tellers  |           450560
 2017-02-06 07:25:52.983278+01 | 1486362352.98328 | pgbench_history  |                0
 2017-02-06 07:25:52.983278+01 | 1486362352.98328 | pgbench_branches |            40960

 2017-02-06 07:25:54.071567+01 | 1486362354.07157 | pgbench_accounts |      13429514240
 2017-02-06 07:25:54.071567+01 | 1486362354.07157 | pgbench_tellers  |           450560
 2017-02-06 07:25:54.071567+01 | 1486362354.07157 | pgbench_history  |                0
 2017-02-06 07:25:54.071567+01 | 1486362354.07157 | pgbench_branches |            40960

 2017-02-06 07:25:55.167851+01 | 1486362355.16785 | pgbench_accounts |      13429514240
 2017-02-06 07:25:55.167851+01 | 1486362355.16785 | pgbench_tellers  |           450560
 2017-02-06 07:25:55.167851+01 | 1486362355.16785 | pgbench_history  |                0
 2017-02-06 07:25:55.167851+01 | 1486362355.16785 | pgbench_branches |            40960

 2017-02-06 07:25:56.260137+01 | 1486362356.26014 | pgbench_accounts |      13429514240
 2017-02-06 07:25:56.260137+01 | 1486362356.26014 | pgbench_tellers  |           450560
 2017-02-06 07:25:56.260137+01 | 1486362356.26014 | pgbench_history  |                0
 2017-02-06 07:25:56.260137+01 | 1486362356.26014 | pgbench_branches |            40960

 2017-02-06 07:25:57.349064+01 | 1486362357.34906 | pgbench_accounts |      13429514240
 2017-02-06 07:25:57.349064+01 | 1486362357.34906 | pgbench_tellers  |           450560
 2017-02-06 07:25:57.349064+01 | 1486362357.34906 | pgbench_history  |                0
 2017-02-06 07:25:57.349064+01 | 1486362357.34906 | pgbench_branches |            40960

 2017-02-06 07:25:58.431614+01 | 1486362358.43161 | pgbench_accounts |      13429514240
 2017-02-06 07:25:58.431614+01 | 1486362358.43161 | pgbench_tellers  |           450560
 2017-02-06 07:25:58.431614+01 | 1486362358.43161 | pgbench_history  |                0
 2017-02-06 07:25:58.431614+01 | 1486362358.43161 | pgbench_branches |            40960

 2017-02-06 07:25:59.523364+01 | 1486362359.52336 | pgbench_accounts |      13429514240
 2017-02-06 07:25:59.523364+01 | 1486362359.52336 | pgbench_tellers  |           450560
 2017-02-06 07:25:59.523364+01 | 1486362359.52336 | pgbench_history  |                0
 2017-02-06 07:25:59.523364+01 | 1486362359.52336 | pgbench_branches |            40960

 2017-02-06 07:26:00.619071+01 | 1486362360.61907 | pgbench_accounts |      13429514240
 2017-02-06 07:26:00.619071+01 | 1486362360.61907 | pgbench_tellers  |           450560
 2017-02-06 07:26:00.619071+01 | 1486362360.61907 | pgbench_history  |                0
 2017-02-06 07:26:00.619071+01 | 1486362360.61907 | pgbench_branches |            40960

 2017-02-06 07:26:01.714486+01 | 1486362361.71449 | pgbench_accounts |      13429514240
 2017-02-06 07:26:01.714486+01 | 1486362361.71449 | pgbench_tellers  |           450560
 2017-02-06 07:26:01.714486+01 | 1486362361.71449 | pgbench_history  |                0
 2017-02-06 07:26:01.714486+01 | 1486362361.71449 | pgbench_branches |            40960

 2017-02-06 07:26:02.809805+01 | 1486362362.8098 | pgbench_accounts |      13429514240
 2017-02-06 07:26:02.809805+01 | 1486362362.8098 | pgbench_tellers  |           450560
 2017-02-06 07:26:02.809805+01 | 1486362362.8098 | pgbench_history  |                0
 2017-02-06 07:26:02.809805+01 | 1486362362.8098 | pgbench_branches |            40960

 2017-02-06 07:26:03.900685+01 | 1486362363.90069 | pgbench_accounts |      13429514240
 2017-02-06 07:26:03.900685+01 | 1486362363.90069 | pgbench_tellers  |           450560
 2017-02-06 07:26:03.900685+01 | 1486362363.90069 | pgbench_history  |                0
 2017-02-06 07:26:03.900685+01 | 1486362363.90069 | pgbench_branches |            40960

 2017-02-06 07:26:04.99663+01 | 1486362364.99663 | pgbench_accounts |      13429514240
 2017-02-06 07:26:04.99663+01 | 1486362364.99663 | pgbench_tellers  |           450560
 2017-02-06 07:26:04.99663+01 | 1486362364.99663 | pgbench_history  |                0
 2017-02-06 07:26:04.99663+01 | 1486362364.99663 | pgbench_branches |            40960

 2017-02-06 07:26:06.085206+01 | 1486362366.08521 | pgbench_accounts |      13429514240
 2017-02-06 07:26:06.085206+01 | 1486362366.08521 | pgbench_tellers  |           450560
 2017-02-06 07:26:06.085206+01 | 1486362366.08521 | pgbench_history  |                0
 2017-02-06 07:26:06.085206+01 | 1486362366.08521 | pgbench_branches |            40960

 2017-02-06 07:26:07.17709+01 | 1486362367.17709 | pgbench_accounts |      13429514240
 2017-02-06 07:26:07.17709+01 | 1486362367.17709 | pgbench_tellers  |           450560
 2017-02-06 07:26:07.17709+01 | 1486362367.17709 | pgbench_history  |                0
 2017-02-06 07:26:07.17709+01 | 1486362367.17709 | pgbench_branches |            40960

 2017-02-06 07:26:08.275138+01 | 1486362368.27514 | pgbench_accounts |      13429514240
 2017-02-06 07:26:08.275138+01 | 1486362368.27514 | pgbench_tellers  |           450560
 2017-02-06 07:26:08.275138+01 | 1486362368.27514 | pgbench_history  |                0
 2017-02-06 07:26:08.275138+01 | 1486362368.27514 | pgbench_branches |            40960

 2017-02-06 07:26:09.364343+01 | 1486362369.36434 | pgbench_accounts |      13429514240
 2017-02-06 07:26:09.364343+01 | 1486362369.36434 | pgbench_tellers  |           450560
 2017-02-06 07:26:09.364343+01 | 1486362369.36434 | pgbench_history  |                0
 2017-02-06 07:26:09.364343+01 | 1486362369.36434 | pgbench_branches |            40960

 2017-02-06 07:26:10.458437+01 | 1486362370.45844 | pgbench_accounts |      13429514240
 2017-02-06 07:26:10.458437+01 | 1486362370.45844 | pgbench_tellers  |           450560
 2017-02-06 07:26:10.458437+01 | 1486362370.45844 | pgbench_history  |                0
 2017-02-06 07:26:10.458437+01 | 1486362370.45844 | pgbench_branches |            40960

 2017-02-06 07:26:11.550803+01 | 1486362371.5508 | pgbench_accounts |      13429514240
 2017-02-06 07:26:11.550803+01 | 1486362371.5508 | pgbench_tellers  |           450560
 2017-02-06 07:26:11.550803+01 | 1486362371.5508 | pgbench_history  |                0
 2017-02-06 07:26:11.550803+01 | 1486362371.5508 | pgbench_branches |            40960

 2017-02-06 07:26:12.644267+01 | 1486362372.64427 | pgbench_accounts |      13429514240
 2017-02-06 07:26:12.644267+01 | 1486362372.64427 | pgbench_tellers  |           450560
 2017-02-06 07:26:12.644267+01 | 1486362372.64427 | pgbench_history  |                0
 2017-02-06 07:26:12.644267+01 | 1486362372.64427 | pgbench_branches |            40960

 2017-02-06 07:26:13.73263+01 | 1486362373.73263 | pgbench_accounts |      13429514240
 2017-02-06 07:26:13.73263+01 | 1486362373.73263 | pgbench_tellers  |           450560
 2017-02-06 07:26:13.73263+01 | 1486362373.73263 | pgbench_history  |                0
 2017-02-06 07:26:13.73263+01 | 1486362373.73263 | pgbench_branches |            40960

 2017-02-06 07:26:14.829395+01 | 1486362374.8294 | pgbench_accounts |      13429514240
 2017-02-06 07:26:14.829395+01 | 1486362374.8294 | pgbench_tellers  |           450560
 2017-02-06 07:26:14.829395+01 | 1486362374.8294 | pgbench_history  |                0
 2017-02-06 07:26:14.829395+01 | 1486362374.8294 | pgbench_branches |            40960

 2017-02-06 07:26:15.916526+01 | 1486362375.91653 | pgbench_accounts |      13429514240
 2017-02-06 07:26:15.916526+01 | 1486362375.91653 | pgbench_tellers  |           450560
 2017-02-06 07:26:15.916526+01 | 1486362375.91653 | pgbench_history  |                0
 2017-02-06 07:26:15.916526+01 | 1486362375.91653 | pgbench_branches |            40960

 2017-02-06 07:26:17.009754+01 | 1486362377.00975 | pgbench_accounts |      13429514240
 2017-02-06 07:26:17.009754+01 | 1486362377.00975 | pgbench_tellers  |           450560
 2017-02-06 07:26:17.009754+01 | 1486362377.00975 | pgbench_history  |                0
 2017-02-06 07:26:17.009754+01 | 1486362377.00975 | pgbench_branches |            40960

 2017-02-06 07:26:18.107961+01 | 1486362378.10796 | pgbench_accounts |      13429514240
 2017-02-06 07:26:18.107961+01 | 1486362378.10796 | pgbench_tellers  |           450560
 2017-02-06 07:26:18.107961+01 | 1486362378.10796 | pgbench_history  |                0
 2017-02-06 07:26:18.107961+01 | 1486362378.10796 | pgbench_branches |            40960

 2017-02-06 07:26:19.213355+01 | 1486362379.21336 | pgbench_accounts |      13429514240
 2017-02-06 07:26:19.213355+01 | 1486362379.21336 | pgbench_tellers  |           450560
 2017-02-06 07:26:19.213355+01 | 1486362379.21336 | pgbench_history  |                0
 2017-02-06 07:26:19.213355+01 | 1486362379.21336 | pgbench_branches |            40960

 2017-02-06 07:26:20.301099+01 | 1486362380.3011 | pgbench_accounts |      13429514240
 2017-02-06 07:26:20.301099+01 | 1486362380.3011 | pgbench_tellers  |           450560
 2017-02-06 07:26:20.301099+01 | 1486362380.3011 | pgbench_history  |                0
 2017-02-06 07:26:20.301099+01 | 1486362380.3011 | pgbench_branches |            40960

 2017-02-06 07:26:21.38771+01 | 1486362381.38771 | pgbench_accounts |      13429514240
 2017-02-06 07:26:21.38771+01 | 1486362381.38771 | pgbench_tellers  |           450560
 2017-02-06 07:26:21.38771+01 | 1486362381.38771 | pgbench_history  |                0
 2017-02-06 07:26:21.38771+01 | 1486362381.38771 | pgbench_branches |            40960

 2017-02-06 07:26:22.485056+01 | 1486362382.48506 | pgbench_accounts |      13429514240
 2017-02-06 07:26:22.485056+01 | 1486362382.48506 | pgbench_tellers  |           450560
 2017-02-06 07:26:22.485056+01 | 1486362382.48506 | pgbench_history  |                0
 2017-02-06 07:26:22.485056+01 | 1486362382.48506 | pgbench_branches |            40960

 2017-02-06 07:26:23.575419+01 | 1486362383.57542 | pgbench_accounts |      13429514240
 2017-02-06 07:26:23.575419+01 | 1486362383.57542 | pgbench_tellers  |           450560
 2017-02-06 07:26:23.575419+01 | 1486362383.57542 | pgbench_history  |                0
 2017-02-06 07:26:23.575419+01 | 1486362383.57542 | pgbench_branches |            40960

 2017-02-06 07:26:24.667681+01 | 1486362384.66768 | pgbench_accounts |      13429514240
 2017-02-06 07:26:24.667681+01 | 1486362384.66768 | pgbench_tellers  |           450560
 2017-02-06 07:26:24.667681+01 | 1486362384.66768 | pgbench_history  |                0
 2017-02-06 07:26:24.667681+01 | 1486362384.66768 | pgbench_branches |            40960

 2017-02-06 07:26:25.758444+01 | 1486362385.75844 | pgbench_accounts |      13429514240
 2017-02-06 07:26:25.758444+01 | 1486362385.75844 | pgbench_tellers  |           450560
 2017-02-06 07:26:25.758444+01 | 1486362385.75844 | pgbench_history  |                0
 2017-02-06 07:26:25.758444+01 | 1486362385.75844 | pgbench_branches |            40960

 2017-02-06 07:26:26.840839+01 | 1486362386.84084 | pgbench_accounts |      13429514240
 2017-02-06 07:26:26.840839+01 | 1486362386.84084 | pgbench_tellers  |           450560
 2017-02-06 07:26:26.840839+01 | 1486362386.84084 | pgbench_history  |                0
 2017-02-06 07:26:26.840839+01 | 1486362386.84084 | pgbench_branches |            40960

 2017-02-06 07:26:27.934791+01 | 1486362387.93479 | pgbench_accounts |      13429514240
 2017-02-06 07:26:27.934791+01 | 1486362387.93479 | pgbench_tellers  |           450560
 2017-02-06 07:26:27.934791+01 | 1486362387.93479 | pgbench_history  |                0
 2017-02-06 07:26:27.934791+01 | 1486362387.93479 | pgbench_branches |            40960

 2017-02-06 07:26:29.023561+01 | 1486362389.02356 | pgbench_accounts |      13429514240
 2017-02-06 07:26:29.023561+01 | 1486362389.02356 | pgbench_tellers  |           450560
 2017-02-06 07:26:29.023561+01 | 1486362389.02356 | pgbench_history  |                0
 2017-02-06 07:26:29.023561+01 | 1486362389.02356 | pgbench_branches |            40960

 2017-02-06 07:26:30.112708+01 | 1486362390.11271 | pgbench_accounts |      13429514240
 2017-02-06 07:26:30.112708+01 | 1486362390.11271 | pgbench_tellers  |           450560
 2017-02-06 07:26:30.112708+01 | 1486362390.11271 | pgbench_history  |                0
 2017-02-06 07:26:30.112708+01 | 1486362390.11271 | pgbench_branches |            40960

 2017-02-06 07:26:31.211748+01 | 1486362391.21175 | pgbench_accounts |      13429514240
 2017-02-06 07:26:31.211748+01 | 1486362391.21175 | pgbench_tellers  |           450560
 2017-02-06 07:26:31.211748+01 | 1486362391.21175 | pgbench_history  |                0
 2017-02-06 07:26:31.211748+01 | 1486362391.21175 | pgbench_branches |            40960

 2017-02-06 07:26:32.303291+01 | 1486362392.30329 | pgbench_accounts |      13429514240
 2017-02-06 07:26:32.303291+01 | 1486362392.30329 | pgbench_tellers  |           450560
 2017-02-06 07:26:32.303291+01 | 1486362392.30329 | pgbench_history  |                0
 2017-02-06 07:26:32.303291+01 | 1486362392.30329 | pgbench_branches |            40960

 2017-02-06 07:26:33.390351+01 | 1486362393.39035 | pgbench_accounts |      13429514240
 2017-02-06 07:26:33.390351+01 | 1486362393.39035 | pgbench_tellers  |           450560
 2017-02-06 07:26:33.390351+01 | 1486362393.39035 | pgbench_history  |                0
 2017-02-06 07:26:33.390351+01 | 1486362393.39035 | pgbench_branches |            40960

 2017-02-06 07:26:34.479493+01 | 1486362394.47949 | pgbench_accounts |      13429514240
 2017-02-06 07:26:34.479493+01 | 1486362394.47949 | pgbench_tellers  |           450560
 2017-02-06 07:26:34.479493+01 | 1486362394.47949 | pgbench_history  |                0
 2017-02-06 07:26:34.479493+01 | 1486362394.47949 | pgbench_branches |            40960

 2017-02-06 07:26:35.574297+01 | 1486362395.5743 | pgbench_accounts |      13429514240
 2017-02-06 07:26:35.574297+01 | 1486362395.5743 | pgbench_tellers  |           450560
 2017-02-06 07:26:35.574297+01 | 1486362395.5743 | pgbench_history  |                0
 2017-02-06 07:26:35.574297+01 | 1486362395.5743 | pgbench_branches |            40960

 2017-02-06 07:26:36.681277+01 | 1486362396.68128 | pgbench_accounts |      13429514240
 2017-02-06 07:26:36.681277+01 | 1486362396.68128 | pgbench_tellers  |           450560
 2017-02-06 07:26:36.681277+01 | 1486362396.68128 | pgbench_history  |                0
 2017-02-06 07:26:36.681277+01 | 1486362396.68128 | pgbench_branches |            40960

 2017-02-06 07:26:37.77198+01 | 1486362397.77198 | pgbench_accounts |      13429514240
 2017-02-06 07:26:37.77198+01 | 1486362397.77198 | pgbench_tellers  |           450560
 2017-02-06 07:26:37.77198+01 | 1486362397.77198 | pgbench_history  |                0
 2017-02-06 07:26:37.77198+01 | 1486362397.77198 | pgbench_branches |            40960

 2017-02-06 07:26:38.86912+01 | 1486362398.86912 | pgbench_accounts |      13429514240
 2017-02-06 07:26:38.86912+01 | 1486362398.86912 | pgbench_tellers  |           450560
 2017-02-06 07:26:38.86912+01 | 1486362398.86912 | pgbench_history  |                0
 2017-02-06 07:26:38.86912+01 | 1486362398.86912 | pgbench_branches |            40960

 2017-02-06 07:26:39.961537+01 | 1486362399.96154 | pgbench_accounts |      13429514240
 2017-02-06 07:26:39.961537+01 | 1486362399.96154 | pgbench_tellers  |           450560
 2017-02-06 07:26:39.961537+01 | 1486362399.96154 | pgbench_history  |                0
 2017-02-06 07:26:39.961537+01 | 1486362399.96154 | pgbench_branches |            40960

