 2017-02-06 07:21:40.642801+01 | 1486362100.6428 | 3/1AB3960                |           12912900448

 2017-02-06 07:21:41.741126+01 | 1486362101.74113 | 3/1AB3998                |           12912900504

 2017-02-06 07:21:42.837267+01 | 1486362102.83727 | 3/1AB3998                |           12912900504

 2017-02-06 07:21:43.928884+01 | 1486362103.92888 | 3/1AB3998                |           12912900504

 2017-02-06 07:21:45.020398+01 | 1486362105.0204 | 3/1AB3998                |           12912900504

 2017-02-06 07:21:46.113657+01 | 1486362106.11366 | 3/1AB3998                |           12912900504

 2017-02-06 07:21:47.209117+01 | 1486362107.20912 | 3/1AB3998                |           12912900504

 2017-02-06 07:21:48.302253+01 | 1486362108.30225 | 3/1AB3998                |           12912900504

 2017-02-06 07:21:49.39562+01 | 1486362109.39562 | 3/1AB3998                |           12912900504

 2017-02-06 07:21:50.483089+01 | 1486362110.48309 | 3/1AB3998                |           12912900504

 2017-02-06 07:21:51.585984+01 | 1486362111.58598 | 3/1AB3998                |           12912900504

 2017-02-06 07:21:52.678705+01 | 1486362112.6787 | 3/1AB3998                |           12912900504

 2017-02-06 07:21:53.768219+01 | 1486362113.76822 | 3/1AB3998                |           12912900504

 2017-02-06 07:21:54.858966+01 | 1486362114.85897 | 3/1AB3998                |           12912900504

 2017-02-06 07:21:55.954332+01 | 1486362115.95433 | 3/1AB3998                |           12912900504

 2017-02-06 07:21:57.049832+01 | 1486362117.04983 | 3/1AB3998                |           12912900504

 2017-02-06 07:21:58.142509+01 | 1486362118.14251 | 3/1AB3998                |           12912900504

 2017-02-06 07:21:59.234972+01 | 1486362119.23497 | 3/1AB3998                |           12912900504

 2017-02-06 07:22:00.331852+01 | 1486362120.33185 | 3/1AB3998                |           12912900504

 2017-02-06 07:22:01.428463+01 | 1486362121.42846 | 3/1AB3998                |           12912900504

 2017-02-06 07:22:02.52275+01 | 1486362122.52275 | 3/1AB3998                |           12912900504

 2017-02-06 07:22:03.620865+01 | 1486362123.62087 | 3/1AB3998                |           12912900504

 2017-02-06 07:22:04.718112+01 | 1486362124.71811 | 3/1AB3998                |           12912900504

 2017-02-06 07:22:05.812093+01 | 1486362125.81209 | 3/1AB3998                |           12912900504

 2017-02-06 07:22:06.903939+01 | 1486362126.90394 | 3/1AB3998                |           12912900504

 2017-02-06 07:22:08.000999+01 | 1486362128.001 | 3/1AB3998                |           12912900504

 2017-02-06 07:22:09.097481+01 | 1486362129.09748 | 3/1AB3998                |           12912900504

 2017-02-06 07:22:10.187507+01 | 1486362130.18751 | 3/1AB3998                |           12912900504

 2017-02-06 07:22:11.27928+01 | 1486362131.27928 | 3/1AB3998                |           12912900504

 2017-02-06 07:22:12.369303+01 | 1486362132.3693 | 3/1AB3998                |           12912900504

 2017-02-06 07:22:13.467386+01 | 1486362133.46739 | 3/1AB3998                |           12912900504

 2017-02-06 07:22:14.555738+01 | 1486362134.55574 | 3/1AB3998                |           12912900504

 2017-02-06 07:22:15.65808+01 | 1486362135.65808 | 3/1AB3998                |           12912900504

 2017-02-06 07:22:16.750628+01 | 1486362136.75063 | 3/1AB3998                |           12912900504

 2017-02-06 07:22:17.84383+01 | 1486362137.84383 | 3/1AB3998                |           12912900504

 2017-02-06 07:22:18.936692+01 | 1486362138.93669 | 3/1AB3998                |           12912900504

 2017-02-06 07:22:20.031215+01 | 1486362140.03121 | 3/1AB3998                |           12912900504

 2017-02-06 07:22:21.123669+01 | 1486362141.12367 | 3/1AB3998                |           12912900504

 2017-02-06 07:22:22.207823+01 | 1486362142.20782 | 3/1AB3998                |           12912900504

 2017-02-06 07:22:23.296405+01 | 1486362143.29641 | 3/1AB3998                |           12912900504

 2017-02-06 07:22:24.389395+01 | 1486362144.38939 | 3/1AB3998                |           12912900504

 2017-02-06 07:22:25.481317+01 | 1486362145.48132 | 3/1AB3998                |           12912900504

 2017-02-06 07:22:26.573911+01 | 1486362146.57391 | 3/1AB3998                |           12912900504

 2017-02-06 07:22:27.662297+01 | 1486362147.6623 | 3/1AB3998                |           12912900504

 2017-02-06 07:22:28.755096+01 | 1486362148.7551 | 3/1AB3998                |           12912900504

 2017-02-06 07:22:29.847309+01 | 1486362149.84731 | 3/1AB3998                |           12912900504

 2017-02-06 07:22:30.941252+01 | 1486362150.94125 | 3/1AB3998                |           12912900504

 2017-02-06 07:22:32.037075+01 | 1486362152.03708 | 3/1AB3998                |           12912900504

 2017-02-06 07:22:33.127361+01 | 1486362153.12736 | 3/1AB3998                |           12912900504

 2017-02-06 07:22:34.222493+01 | 1486362154.22249 | 3/1AB3998                |           12912900504

 2017-02-06 07:22:35.310882+01 | 1486362155.31088 | 3/1AB3998                |           12912900504

 2017-02-06 07:22:36.400178+01 | 1486362156.40018 | 3/1AB3998                |           12912900504

 2017-02-06 07:22:37.493917+01 | 1486362157.49392 | 3/1AB3998                |           12912900504

 2017-02-06 07:22:38.592311+01 | 1486362158.59231 | 3/1AB3998                |           12912900504

 2017-02-06 07:22:39.684851+01 | 1486362159.68485 | 3/1AB3998                |           12912900504

 2017-02-06 07:22:40.778585+01 | 1486362160.77858 | 3/1AB3998                |           12912900504

 2017-02-06 07:22:41.879469+01 | 1486362161.87947 | 3/1AB3998                |           12912900504

 2017-02-06 07:22:42.968881+01 | 1486362162.96888 | 3/1AB3998                |           12912900504

 2017-02-06 07:22:44.062675+01 | 1486362164.06267 | 3/1AB3998                |           12912900504

 2017-02-06 07:22:45.153442+01 | 1486362165.15344 | 3/1AB3998                |           12912900504

 2017-02-06 07:22:46.249813+01 | 1486362166.24981 | 3/1AB3998                |           12912900504

 2017-02-06 07:22:47.342721+01 | 1486362167.34272 | 3/1AB3998                |           12912900504

 2017-02-06 07:22:48.430305+01 | 1486362168.43031 | 3/1AB3998                |           12912900504

 2017-02-06 07:22:49.529562+01 | 1486362169.52956 | 3/1AB3998                |           12912900504

 2017-02-06 07:22:50.617745+01 | 1486362170.61774 | 3/1AB3998                |           12912900504

 2017-02-06 07:22:51.709958+01 | 1486362171.70996 | 3/1AB3998                |           12912900504

 2017-02-06 07:22:52.804585+01 | 1486362172.80458 | 3/1AB3998                |           12912900504

 2017-02-06 07:22:53.888559+01 | 1486362173.88856 | 3/1AB3998                |           12912900504

 2017-02-06 07:22:54.984471+01 | 1486362174.98447 | 3/1AB3998                |           12912900504

 2017-02-06 07:22:56.073268+01 | 1486362176.07327 | 3/1AB3998                |           12912900504

 2017-02-06 07:22:57.160624+01 | 1486362177.16062 | 3/1AB3998                |           12912900504

 2017-02-06 07:22:58.255482+01 | 1486362178.25548 | 3/1AB3998                |           12912900504

 2017-02-06 07:22:59.349552+01 | 1486362179.34955 | 3/1AB3998                |           12912900504

 2017-02-06 07:23:00.441792+01 | 1486362180.44179 | 3/1AB3998                |           12912900504

 2017-02-06 07:23:01.532795+01 | 1486362181.53279 | 3/1AB3998                |           12912900504

 2017-02-06 07:23:02.6233+01 | 1486362182.6233 | 3/1AB3998                |           12912900504

 2017-02-06 07:23:03.715074+01 | 1486362183.71507 | 3/1AB3998                |           12912900504

 2017-02-06 07:23:04.806248+01 | 1486362184.80625 | 3/1AB3998                |           12912900504

 2017-02-06 07:23:05.898719+01 | 1486362185.89872 | 3/1AB3998                |           12912900504

 2017-02-06 07:23:06.990604+01 | 1486362186.9906 | 3/1AB3998                |           12912900504

 2017-02-06 07:23:08.076321+01 | 1486362188.07632 | 3/1AB3998                |           12912900504

 2017-02-06 07:23:09.162174+01 | 1486362189.16217 | 3/1AB3998                |           12912900504

 2017-02-06 07:23:10.259534+01 | 1486362190.25953 | 3/1AB3998                |           12912900504

 2017-02-06 07:23:11.349604+01 | 1486362191.3496 | 3/1AB3998                |           12912900504

 2017-02-06 07:23:12.445799+01 | 1486362192.4458 | 3/1AB3998                |           12912900504

 2017-02-06 07:23:13.541037+01 | 1486362193.54104 | 3/1AB3998                |           12912900504

 2017-02-06 07:23:14.630557+01 | 1486362194.63056 | 3/1AB3998                |           12912900504

 2017-02-06 07:23:15.723601+01 | 1486362195.7236 | 3/1AB3998                |           12912900504

 2017-02-06 07:23:16.811124+01 | 1486362196.81112 | 3/1AB3998                |           12912900504

 2017-02-06 07:23:17.902865+01 | 1486362197.90286 | 3/1AB3998                |           12912900504

 2017-02-06 07:23:18.994002+01 | 1486362198.994 | 3/1AB3998                |           12912900504

 2017-02-06 07:23:20.08995+01 | 1486362200.08995 | 3/1AB3998                |           12912900504

 2017-02-06 07:23:21.182099+01 | 1486362201.1821 | 3/1AB3998                |           12912900504

 2017-02-06 07:23:22.262027+01 | 1486362202.26203 | 3/1AB3998                |           12912900504

 2017-02-06 07:23:23.356211+01 | 1486362203.35621 | 3/1AB3998                |           12912900504

 2017-02-06 07:23:24.444127+01 | 1486362204.44413 | 3/1AB3998                |           12912900504

 2017-02-06 07:23:25.526855+01 | 1486362205.52685 | 3/1AB3998                |           12912900504

 2017-02-06 07:23:26.616838+01 | 1486362206.61684 | 3/1AB3998                |           12912900504

 2017-02-06 07:23:27.716567+01 | 1486362207.71657 | 3/1AB3998                |           12912900504

 2017-02-06 07:23:28.815145+01 | 1486362208.81515 | 3/1AB3998                |           12912900504

 2017-02-06 07:23:29.903965+01 | 1486362209.90396 | 3/1AB3998                |           12912900504

 2017-02-06 07:23:30.993261+01 | 1486362210.99326 | 3/1AB3998                |           12912900504

 2017-02-06 07:23:32.083213+01 | 1486362212.08321 | 3/1AB3998                |           12912900504

 2017-02-06 07:23:33.17584+01 | 1486362213.17584 | 3/1AB3998                |           12912900504

 2017-02-06 07:23:34.27385+01 | 1486362214.27385 | 3/1AB3998                |           12912900504

 2017-02-06 07:23:35.362449+01 | 1486362215.36245 | 3/1AB3998                |           12912900504

 2017-02-06 07:23:36.445083+01 | 1486362216.44508 | 3/1AB3998                |           12912900504

 2017-02-06 07:23:37.530965+01 | 1486362217.53097 | 3/1AB3998                |           12912900504

 2017-02-06 07:23:38.622448+01 | 1486362218.62245 | 3/1AB3998                |           12912900504

 2017-02-06 07:23:39.714675+01 | 1486362219.71467 | 3/1AB3998                |           12912900504

 2017-02-06 07:23:40.809264+01 | 1486362220.80926 | 3/1AB3998                |           12912900504

 2017-02-06 07:23:41.905806+01 | 1486362221.90581 | 3/1AB3998                |           12912900504

 2017-02-06 07:23:42.999875+01 | 1486362222.99988 | 3/1AB3998                |           12912900504

 2017-02-06 07:23:44.091153+01 | 1486362224.09115 | 3/1AB3998                |           12912900504

 2017-02-06 07:23:45.184328+01 | 1486362225.18433 | 3/1AB3998                |           12912900504

 2017-02-06 07:23:46.279059+01 | 1486362226.27906 | 3/1AB3998                |           12912900504

 2017-02-06 07:23:47.366985+01 | 1486362227.36699 | 3/1AB3998                |           12912900504

 2017-02-06 07:23:48.46141+01 | 1486362228.46141 | 3/1AB3998                |           12912900504

 2017-02-06 07:23:49.545989+01 | 1486362229.54599 | 3/1AB3998                |           12912900504

 2017-02-06 07:23:50.636109+01 | 1486362230.63611 | 3/1AB3998                |           12912900504

 2017-02-06 07:23:51.735724+01 | 1486362231.73572 | 3/1AB3998                |           12912900504

 2017-02-06 07:23:52.834051+01 | 1486362232.83405 | 3/1AB3998                |           12912900504

 2017-02-06 07:23:53.932101+01 | 1486362233.9321 | 3/1AB3998                |           12912900504

 2017-02-06 07:23:55.022489+01 | 1486362235.02249 | 3/1AB3998                |           12912900504

 2017-02-06 07:23:56.11657+01 | 1486362236.11657 | 3/1AB3998                |           12912900504

 2017-02-06 07:23:57.209067+01 | 1486362237.20907 | 3/1AB3998                |           12912900504

 2017-02-06 07:23:58.304459+01 | 1486362238.30446 | 3/1AB3998                |           12912900504

 2017-02-06 07:23:59.40388+01 | 1486362239.40388 | 3/1AB3998                |           12912900504

 2017-02-06 07:24:00.50148+01 | 1486362240.50148 | 3/1AB3998                |           12912900504

 2017-02-06 07:24:01.591419+01 | 1486362241.59142 | 3/1AB3998                |           12912900504

 2017-02-06 07:24:02.680579+01 | 1486362242.68058 | 3/1AB3998                |           12912900504

 2017-02-06 07:24:03.773883+01 | 1486362243.77388 | 3/1AB3998                |           12912900504

 2017-02-06 07:24:04.860018+01 | 1486362244.86002 | 3/1AB3998                |           12912900504

 2017-02-06 07:24:05.952915+01 | 1486362245.95291 | 3/1AB3998                |           12912900504

 2017-02-06 07:24:07.045917+01 | 1486362247.04592 | 3/1AB3998                |           12912900504

 2017-02-06 07:24:08.139011+01 | 1486362248.13901 | 3/1AB3998                |           12912900504

 2017-02-06 07:24:09.226535+01 | 1486362249.22654 | 3/1AB3998                |           12912900504

 2017-02-06 07:24:10.320956+01 | 1486362250.32096 | 3/1AB3998                |           12912900504

 2017-02-06 07:24:11.412053+01 | 1486362251.41205 | 3/1AB3998                |           12912900504

 2017-02-06 07:24:12.498538+01 | 1486362252.49854 | 3/1AB3998                |           12912900504

 2017-02-06 07:24:13.596929+01 | 1486362253.59693 | 3/1AB3998                |           12912900504

 2017-02-06 07:24:14.683017+01 | 1486362254.68302 | 3/1AB3998                |           12912900504

 2017-02-06 07:24:15.786309+01 | 1486362255.78631 | 3/1AB3998                |           12912900504

 2017-02-06 07:24:16.877541+01 | 1486362256.87754 | 3/1AB3998                |           12912900504

 2017-02-06 07:24:17.970423+01 | 1486362257.97042 | 3/1AB3998                |           12912900504

 2017-02-06 07:24:19.06305+01 | 1486362259.06305 | 3/1AB3998                |           12912900504

 2017-02-06 07:24:20.148255+01 | 1486362260.14826 | 3/1AB3998                |           12912900504

 2017-02-06 07:24:21.234388+01 | 1486362261.23439 | 3/1AB3998                |           12912900504

 2017-02-06 07:24:22.313937+01 | 1486362262.31394 | 3/1AB3998                |           12912900504

 2017-02-06 07:24:23.404487+01 | 1486362263.40449 | 3/1AB3998                |           12912900504

 2017-02-06 07:24:24.500612+01 | 1486362264.50061 | 3/1AB3998                |           12912900504

 2017-02-06 07:24:25.593744+01 | 1486362265.59374 | 3/1AB3998                |           12912900504

 2017-02-06 07:24:26.681755+01 | 1486362266.68176 | 3/1AB3998                |           12912900504

 2017-02-06 07:24:27.781716+01 | 1486362267.78172 | 3/1AB3998                |           12912900504

 2017-02-06 07:24:28.869581+01 | 1486362268.86958 | 3/1AB3998                |           12912900504

 2017-02-06 07:24:29.962632+01 | 1486362269.96263 | 3/1AB3998                |           12912900504

 2017-02-06 07:24:31.049696+01 | 1486362271.0497 | 3/1AB3998                |           12912900504

 2017-02-06 07:24:32.138632+01 | 1486362272.13863 | 3/1AB3998                |           12912900504

 2017-02-06 07:24:33.227196+01 | 1486362273.2272 | 3/1AB3998                |           12912900504

 2017-02-06 07:24:34.321377+01 | 1486362274.32138 | 3/1AB3998                |           12912900504

 2017-02-06 07:24:35.417797+01 | 1486362275.4178 | 3/1AB3998                |           12912900504

 2017-02-06 07:24:36.518653+01 | 1486362276.51865 | 3/1AB3998                |           12912900504

 2017-02-06 07:24:37.609384+01 | 1486362277.60938 | 3/1AB3998                |           12912900504

 2017-02-06 07:24:38.700271+01 | 1486362278.70027 | 3/1AB3998                |           12912900504

 2017-02-06 07:24:39.789691+01 | 1486362279.78969 | 3/1AB3998                |           12912900504

 2017-02-06 07:24:40.885258+01 | 1486362280.88526 | 3/1AB3998                |           12912900504

 2017-02-06 07:24:41.973475+01 | 1486362281.97347 | 3/1AB3998                |           12912900504

 2017-02-06 07:24:43.05462+01 | 1486362283.05462 | 3/1AB3998                |           12912900504

 2017-02-06 07:24:44.139253+01 | 1486362284.13925 | 3/1AB3998                |           12912900504

 2017-02-06 07:24:45.238532+01 | 1486362285.23853 | 3/1AB3998                |           12912900504

 2017-02-06 07:24:46.326784+01 | 1486362286.32678 | 3/1AB3998                |           12912900504

 2017-02-06 07:24:47.415694+01 | 1486362287.41569 | 3/1AB3998                |           12912900504

 2017-02-06 07:24:48.512714+01 | 1486362288.51271 | 3/1AB3998                |           12912900504

 2017-02-06 07:24:49.605217+01 | 1486362289.60522 | 3/1AB3998                |           12912900504

 2017-02-06 07:24:50.698161+01 | 1486362290.69816 | 3/1AB3998                |           12912900504

 2017-02-06 07:24:51.788998+01 | 1486362291.789 | 3/1AB3998                |           12912900504

 2017-02-06 07:24:52.885381+01 | 1486362292.88538 | 3/1AB3998                |           12912900504

 2017-02-06 07:24:53.976689+01 | 1486362293.97669 | 3/1AB3998                |           12912900504

 2017-02-06 07:24:55.070168+01 | 1486362295.07017 | 3/1AB3998                |           12912900504

 2017-02-06 07:24:56.160884+01 | 1486362296.16088 | 3/1AB3998                |           12912900504

 2017-02-06 07:24:57.257797+01 | 1486362297.2578 | 3/1AB3998                |           12912900504

 2017-02-06 07:24:58.336525+01 | 1486362298.33652 | 3/1AB3998                |           12912900504

 2017-02-06 07:24:59.426787+01 | 1486362299.42679 | 3/1AB3998                |           12912900504

 2017-02-06 07:25:00.515096+01 | 1486362300.5151 | 3/1AB3998                |           12912900504

 2017-02-06 07:25:01.606047+01 | 1486362301.60605 | 3/1AB3998                |           12912900504

 2017-02-06 07:25:02.699998+01 | 1486362302.7 | 3/1AB3998                |           12912900504

 2017-02-06 07:25:03.796028+01 | 1486362303.79603 | 3/1AB3998                |           12912900504

 2017-02-06 07:25:04.887875+01 | 1486362304.88788 | 3/1AB3998                |           12912900504

 2017-02-06 07:25:05.971194+01 | 1486362305.97119 | 3/1AB3998                |           12912900504

 2017-02-06 07:25:07.068818+01 | 1486362307.06882 | 3/1AB3998                |           12912900504

 2017-02-06 07:25:08.162079+01 | 1486362308.16208 | 3/1AB3998                |           12912900504

 2017-02-06 07:25:09.243557+01 | 1486362309.24356 | 3/1AB3998                |           12912900504

 2017-02-06 07:25:10.335467+01 | 1486362310.33547 | 3/1AB3998                |           12912900504

 2017-02-06 07:25:11.423311+01 | 1486362311.42331 | 3/1AB3998                |           12912900504

 2017-02-06 07:25:12.515678+01 | 1486362312.51568 | 3/1AB3998                |           12912900504

 2017-02-06 07:25:13.60991+01 | 1486362313.60991 | 3/1AB3998                |           12912900504

 2017-02-06 07:25:14.698604+01 | 1486362314.6986 | 3/1AB3998                |           12912900504

 2017-02-06 07:25:15.807259+01 | 1486362315.80726 | 3/1AB3998                |           12912900504

 2017-02-06 07:25:16.905053+01 | 1486362316.90505 | 3/1AB3998                |           12912900504

 2017-02-06 07:25:17.997941+01 | 1486362317.99794 | 3/1AB3998                |           12912900504

 2017-02-06 07:25:19.087171+01 | 1486362319.08717 | 3/1AB3998                |           12912900504

 2017-02-06 07:25:20.178026+01 | 1486362320.17803 | 3/1AB3998                |           12912900504

 2017-02-06 07:25:21.272197+01 | 1486362321.2722 | 3/1AB3998                |           12912900504

 2017-02-06 07:25:22.359583+01 | 1486362322.35958 | 3/1AB3998                |           12912900504

 2017-02-06 07:25:23.449819+01 | 1486362323.44982 | 3/1AB3998                |           12912900504

 2017-02-06 07:25:24.539521+01 | 1486362324.53952 | 3/1AB3998                |           12912900504

 2017-02-06 07:25:25.633099+01 | 1486362325.6331 | 3/1AB3998                |           12912900504

 2017-02-06 07:25:26.724003+01 | 1486362326.724 | 3/1AB3998                |           12912900504

 2017-02-06 07:25:27.817955+01 | 1486362327.81796 | 3/1AB3998                |           12912900504

 2017-02-06 07:25:28.907708+01 | 1486362328.90771 | 3/1AB3998                |           12912900504

 2017-02-06 07:25:29.996855+01 | 1486362329.99686 | 3/1AB3998                |           12912900504

 2017-02-06 07:25:31.082736+01 | 1486362331.08274 | 3/1AB3998                |           12912900504

 2017-02-06 07:25:32.173091+01 | 1486362332.17309 | 3/1AB3998                |           12912900504

 2017-02-06 07:25:33.266328+01 | 1486362333.26633 | 3/1AB3998                |           12912900504

 2017-02-06 07:25:34.357496+01 | 1486362334.3575 | 3/1AB3998                |           12912900504

 2017-02-06 07:25:35.436263+01 | 1486362335.43626 | 3/1AB3998                |           12912900504

 2017-02-06 07:25:36.532374+01 | 1486362336.53237 | 3/1AB3998                |           12912900504

 2017-02-06 07:25:37.624724+01 | 1486362337.62472 | 3/1AB3998                |           12912900504

 2017-02-06 07:25:38.723032+01 | 1486362338.72303 | 3/1AB3998                |           12912900504

 2017-02-06 07:25:39.8167+01 | 1486362339.8167 | 3/1AB3998                |           12912900504

 2017-02-06 07:25:40.908728+01 | 1486362340.90873 | 3/1AB3998                |           12912900504

 2017-02-06 07:25:42.001197+01 | 1486362342.0012 | 3/1AB3998                |           12912900504

 2017-02-06 07:25:43.094432+01 | 1486362343.09443 | 3/1AB3998                |           12912900504

 2017-02-06 07:25:44.182784+01 | 1486362344.18278 | 3/1AB3998                |           12912900504

 2017-02-06 07:25:45.274356+01 | 1486362345.27436 | 3/1AB3998                |           12912900504

 2017-02-06 07:25:46.363851+01 | 1486362346.36385 | 3/1AB3998                |           12912900504

 2017-02-06 07:25:47.460056+01 | 1486362347.46006 | 3/1AB3998                |           12912900504

 2017-02-06 07:25:48.552111+01 | 1486362348.55211 | 3/1AB3998                |           12912900504

 2017-02-06 07:25:49.651689+01 | 1486362349.65169 | 3/1AB3998                |           12912900504

 2017-02-06 07:25:50.740702+01 | 1486362350.7407 | 3/1AB3998                |           12912900504

 2017-02-06 07:25:51.831007+01 | 1486362351.83101 | 3/1AB3998                |           12912900504

 2017-02-06 07:25:52.928755+01 | 1486362352.92876 | 3/1AB3998                |           12912900504

 2017-02-06 07:25:54.015199+01 | 1486362354.0152 | 3/1AB3998                |           12912900504

 2017-02-06 07:25:55.110486+01 | 1486362355.11049 | 3/1AB3998                |           12912900504

 2017-02-06 07:25:56.202644+01 | 1486362356.20264 | 3/1AB3998                |           12912900504

 2017-02-06 07:25:57.294137+01 | 1486362357.29414 | 3/1AB3998                |           12912900504

 2017-02-06 07:25:58.386436+01 | 1486362358.38644 | 3/1AB3998                |           12912900504

 2017-02-06 07:25:59.467851+01 | 1486362359.46785 | 3/1AB3998                |           12912900504

 2017-02-06 07:26:00.56344+01 | 1486362360.56344 | 3/1AB3998                |           12912900504

 2017-02-06 07:26:01.659152+01 | 1486362361.65915 | 3/1AB3998                |           12912900504

 2017-02-06 07:26:02.751696+01 | 1486362362.7517 | 3/1AB3998                |           12912900504

 2017-02-06 07:26:03.848286+01 | 1486362363.84829 | 3/1AB3998                |           12912900504

 2017-02-06 07:26:04.939077+01 | 1486362364.93908 | 3/1AB3998                |           12912900504

 2017-02-06 07:26:06.036273+01 | 1486362366.03627 | 3/1AB3998                |           12912900504

 2017-02-06 07:26:07.122679+01 | 1486362367.12268 | 3/1AB3998                |           12912900504

 2017-02-06 07:26:08.216867+01 | 1486362368.21687 | 3/1AB3998                |           12912900504

 2017-02-06 07:26:09.31055+01 | 1486362369.31055 | 3/1AB3998                |           12912900504

 2017-02-06 07:26:10.400045+01 | 1486362370.40004 | 3/1AB3998                |           12912900504

 2017-02-06 07:26:11.491682+01 | 1486362371.49168 | 3/1AB3998                |           12912900504

 2017-02-06 07:26:12.587906+01 | 1486362372.58791 | 3/1AB3998                |           12912900504

 2017-02-06 07:26:13.679548+01 | 1486362373.67955 | 3/1AB3998                |           12912900504

 2017-02-06 07:26:14.770916+01 | 1486362374.77092 | 3/1AB3998                |           12912900504

 2017-02-06 07:26:15.865733+01 | 1486362375.86573 | 3/1AB3998                |           12912900504

 2017-02-06 07:26:16.952644+01 | 1486362376.95264 | 3/1AB3998                |           12912900504

 2017-02-06 07:26:18.048748+01 | 1486362378.04875 | 3/1AB3998                |           12912900504

 2017-02-06 07:26:19.162289+01 | 1486362379.16229 | 3/1AB3998                |           12912900504

 2017-02-06 07:26:20.248484+01 | 1486362380.24848 | 3/1AB3998                |           12912900504

 2017-02-06 07:26:21.343225+01 | 1486362381.34323 | 3/1AB3998                |           12912900504

 2017-02-06 07:26:22.4252+01 | 1486362382.4252 | 3/1AB3998                |           12912900504

 2017-02-06 07:26:23.521162+01 | 1486362383.52116 | 3/1AB3998                |           12912900504

 2017-02-06 07:26:24.612143+01 | 1486362384.61214 | 3/1AB3998                |           12912900504

 2017-02-06 07:26:25.702792+01 | 1486362385.70279 | 3/1AB3998                |           12912900504

 2017-02-06 07:26:26.791336+01 | 1486362386.79134 | 3/1AB3998                |           12912900504

 2017-02-06 07:26:27.878446+01 | 1486362387.87845 | 3/1AB3998                |           12912900504

 2017-02-06 07:26:28.970953+01 | 1486362388.97095 | 3/1AB3998                |           12912900504

 2017-02-06 07:26:30.058473+01 | 1486362390.05847 | 3/1AB3998                |           12912900504

 2017-02-06 07:26:31.158445+01 | 1486362391.15844 | 3/1AB3998                |           12912900504

 2017-02-06 07:26:32.243659+01 | 1486362392.24366 | 3/1AB3998                |           12912900504

 2017-02-06 07:26:33.340137+01 | 1486362393.34014 | 3/1AB3998                |           12912900504

 2017-02-06 07:26:34.42734+01 | 1486362394.42734 | 3/1AB3998                |           12912900504

 2017-02-06 07:26:35.518637+01 | 1486362395.51864 | 3/1AB3998                |           12912900504

 2017-02-06 07:26:36.613451+01 | 1486362396.61345 | 3/1AB3998                |           12912900504

 2017-02-06 07:26:37.718121+01 | 1486362397.71812 | 3/1AB3998                |           12912900504

 2017-02-06 07:26:38.812824+01 | 1486362398.81282 | 3/1AB3998                |           12912900504

 2017-02-06 07:26:39.906243+01 | 1486362399.90624 | 3/1AB3998                |           12912900504

