 2017-02-03 23:44:18.757007+01 | 1486161858.75701 | 1F/4D5A4000              |          134441746432

 2017-02-03 23:44:19.844564+01 | 1486161859.84456 | 1F/5860B690              |          134626719376

 2017-02-03 23:44:20.929804+01 | 1486161860.9298 | 1F/65459EC8              |          134843047624

 2017-02-03 23:44:22.02426+01 | 1486161862.02426 | 1F/71855838              |          135048550456

 2017-02-03 23:44:23.113586+01 | 1486161863.11359 | 1F/7D35BED8              |          135244660440

 2017-02-03 23:44:24.204185+01 | 1486161864.20419 | 1F/87918A78              |          135418448504

 2017-02-03 23:44:25.295378+01 | 1486161865.29538 | 1F/8FDA9A28              |          135557454376

 2017-02-03 23:44:26.387465+01 | 1486161866.38747 | 1F/97005158              |          135677366616

 2017-02-03 23:44:27.478361+01 | 1486161867.47836 | 1F/9C7A98D0              |          135769266384

 2017-02-03 23:44:28.56777+01 | 1486161868.56777 | 1F/A115E658              |          135846553176

 2017-02-03 23:44:29.651151+01 | 1486161869.65115 | 1F/A531C220              |          135915487776

 2017-02-03 23:44:30.729201+01 | 1486161870.7292 | 1F/A82A15E0              |          135965316576

 2017-02-03 23:44:31.809374+01 | 1486161871.80937 | 1F/AAADEA50              |          136007510608

 2017-02-03 23:44:32.888094+01 | 1486161872.88809 | 1F/ACED6E18              |          136045227544

 2017-02-03 23:44:33.974707+01 | 1486161873.97471 | 1F/AEF79C40              |          136079449152

 2017-02-03 23:44:35.066252+01 | 1486161875.06625 | 1F/B0CC9048              |          136110182472

 2017-02-03 23:44:36.160614+01 | 1486161876.16061 | 1F/B27D4598              |          136138540440

 2017-02-03 23:44:37.253008+01 | 1486161877.25301 | 1F/B40C9728              |          136164710184

 2017-02-03 23:44:38.343827+01 | 1486161878.34383 | 1F/B59091A8              |          136190136744

 2017-02-03 23:44:39.439133+01 | 1486161879.43913 | 1F/B70F13E0              |          136215204832

 2017-02-03 23:44:40.526676+01 | 1486161880.52668 | 1F/B85AC0E8              |          136236941544

 2017-02-03 23:44:41.612555+01 | 1486161881.61256 | 1F/B9B33AB0              |          136259517104

 2017-02-03 23:44:42.698297+01 | 1486161882.6983 | 1F/BB090428              |          136281916456

 2017-02-03 23:44:43.77724+01 | 1486161883.77724 | 1F/BC566540              |          136303764800

 2017-02-03 23:44:44.858504+01 | 1486161884.8585 | 1F/BDA22E70              |          136325508720

 2017-02-03 23:44:45.933701+01 | 1486161885.9337 | 1F/BEDAB4B0              |          136345990320

 2017-02-03 23:44:47.02922+01 | 1486161887.02922 | 1F/C023BB48              |          136367553352

 2017-02-03 23:44:48.124931+01 | 1486161888.12493 | 1F/C1606208              |          136388305416

 2017-02-03 23:44:49.215254+01 | 1486161889.21525 | 1F/C2A242A0              |          136409399968

 2017-02-03 23:44:50.309259+01 | 1486161890.30926 | 1F/C3E1DBE8              |          136430345192

 2017-02-03 23:44:51.411006+01 | 1486161891.41101 | 1F/C51047D8              |          136450164696

 2017-02-03 23:44:52.500649+01 | 1486161892.50065 | 1F/C63ED4E0              |          136469992672

 2017-02-03 23:44:53.587632+01 | 1486161893.58763 | 1F/C77916C8              |          136490587848

 2017-02-03 23:44:54.657025+01 | 1486161894.65703 | 1F/C89635A8              |          136509273512

 2017-02-03 23:44:55.737232+01 | 1486161895.73723 | 1F/C9CFF610              |          136529835536

 2017-02-03 23:44:56.81271+01 | 1486161896.81271 | 1F/CB176078              |          136551293048

 2017-02-03 23:44:57.888639+01 | 1486161897.88864 | 1F/CC57EB78              |          136572300152

 2017-02-03 23:44:58.977425+01 | 1486161898.97743 | 1F/CD8C8340              |          136592524096

 2017-02-03 23:45:00.068148+01 | 1486161900.06815 | 1F/CEC92D68              |          136613277032

 2017-02-03 23:45:01.145881+01 | 1486161901.14588 | 1F/D00033C0              |          136633660352

 2017-02-03 23:45:02.233699+01 | 1486161902.2337 | 1F/D1389F08              |          136654135048

 2017-02-03 23:45:03.323908+01 | 1486161903.32391 | 1F/D2712510              |          136674616592

 2017-02-03 23:45:04.413272+01 | 1486161904.41327 | 1F/D3A7DAC8              |          136694979272

 2017-02-03 23:45:05.505299+01 | 1486161905.5053 | 1F/D4F01B10              |          136716491536

 2017-02-03 23:45:06.598976+01 | 1486161906.59898 | 1F/D63C4FE8              |          136738263016

 2017-02-03 23:45:07.688389+01 | 1486161907.68839 | 1F/D7768A78              |          136758856312

 2017-02-03 23:45:08.775139+01 | 1486161908.77514 | 1F/D8B4A798              |          136779704216

 2017-02-03 23:45:09.855098+01 | 1486161909.8551 | 1F/D9F29188              |          136800539016

 2017-02-03 23:45:10.925499+01 | 1486161910.9255 | 1F/DB36C638              |          136821786168

 2017-02-03 23:45:12.009587+01 | 1486161912.00959 | 1F/DC6C3A60              |          136842066528

 2017-02-03 23:45:13.096868+01 | 1486161913.09687 | 1F/DDB344E8              |          136863499496

 2017-02-03 23:45:14.190535+01 | 1486161914.19054 | 1F/DEEC9308              |          136884032264

 2017-02-03 23:45:15.283244+01 | 1486161915.28324 | 1F/E032EEB8              |          136905420472

 2017-02-03 23:45:16.384858+01 | 1486161916.38486 | 1F/E16555B0              |          136925500848

 2017-02-03 23:45:17.469489+01 | 1486161917.46949 | 1F/E2992CE0              |          136945675488

 2017-02-03 23:45:18.575404+01 | 1486161918.5754 | 1F/E3D214C0              |          136966182080

 2017-02-03 23:45:19.670052+01 | 1486161919.67005 | 1F/E5077F58              |          136986459992

 2017-02-03 23:45:20.756092+01 | 1486161920.75609 | 1F/E6463238              |          137007346232

 2017-02-03 23:45:21.838316+01 | 1486161921.83832 | 1F/E77EE810              |          137027840016

 2017-02-03 23:45:22.918164+01 | 1486161922.91816 | 1F/E8B8CB60              |          137048410976

 2017-02-03 23:45:23.998109+01 | 1486161923.99811 | 1F/E9F36B58              |          137069030232

 2017-02-03 23:45:25.088534+01 | 1486161925.08853 | 1F/EB12CBE0              |          137087863776

 2017-02-03 23:45:26.182803+01 | 1486161926.1828 | 1F/EC584CD8              |          137109195992

 2017-02-03 23:45:27.279057+01 | 1486161927.27906 | 1F/ED8D5A20              |          137129450016

 2017-02-03 23:45:28.374631+01 | 1486161928.37463 | 1F/EEC4A578              |          137149851000

 2017-02-03 23:45:29.464434+01 | 1486161929.46443 | 1F/EFF8FA08              |          137170057736

 2017-02-03 23:45:30.553611+01 | 1486161930.55361 | 1F/F129FF88              |          137190047624

 2017-02-03 23:45:31.646464+01 | 1486161931.64646 | 1F/F25A3E90              |          137209986704

 2017-02-03 23:45:32.735946+01 | 1486161932.73595 | 1F/F38E5CB0              |          137230179504

 2017-02-03 23:45:33.815133+01 | 1486161933.81513 | 1F/F4BC9A28              |          137249987112

 2017-02-03 23:45:34.894837+01 | 1486161934.89484 | 1F/F5E516D8              |          137269417688

 2017-02-03 23:45:35.980574+01 | 1486161935.98057 | 1F/F71AA7D8              |          137289705432

 2017-02-03 23:45:37.05976+01 | 1486161937.05976 | 1F/F84A5BC8              |          137309608904

 2017-02-03 23:45:38.146977+01 | 1486161938.14698 | 1F/F9722908              |          137328994568

 2017-02-03 23:45:39.240959+01 | 1486161939.24096 | 1F/FAA8BAF8              |          137349348088

 2017-02-03 23:45:40.325891+01 | 1486161940.32589 | 1F/FBD15FE8              |          137368788968

 2017-02-03 23:45:41.419217+01 | 1486161941.41922 | 1F/FD043530              |          137388897584

 2017-02-03 23:45:42.511215+01 | 1486161942.51121 | 1F/FE35FD10              |          137408937232

 2017-02-03 23:45:43.599708+01 | 1486161943.59971 | 1F/FF5EA7B0              |          137428379568

 2017-02-03 23:45:44.68424+01 | 1486161944.68424 | 20/81F6C8                |          137447470792

 2017-02-03 23:45:45.766773+01 | 1486161945.76677 | 20/1BCAE88               |          137468096136

 2017-02-03 23:45:46.851689+01 | 1486161946.85169 | 20/2E80328               |          137487713064

 2017-02-03 23:45:47.93033+01 | 1486161947.93033 | 20/41676C0               |          137507534528

 2017-02-03 23:45:49.007752+01 | 1486161949.00775 | 20/549B008               |          137527668744

 2017-02-03 23:45:50.091072+01 | 1486161950.09107 | 20/6663800               |          137546315776

 2017-02-03 23:45:51.179105+01 | 1486161951.17911 | 20/786A3B0               |          137565217712

 2017-02-03 23:45:52.272939+01 | 1486161952.27294 | 20/8B0E248               |          137584763464

 2017-02-03 23:45:53.367227+01 | 1486161953.36723 | 20/9DD8A18               |          137604467224

 2017-02-03 23:45:54.456664+01 | 1486161954.45666 | 20/B180CB0               |          137625078960

 2017-02-03 23:45:55.54533+01 | 1486161955.54533 | 20/C351270               |          137643758192

 2017-02-03 23:45:56.627231+01 | 1486161956.62723 | 20/D544130               |          137662578992

 2017-02-03 23:45:57.717618+01 | 1486161957.71762 | 20/E79CFB8               |          137681817528

 2017-02-03 23:45:58.800721+01 | 1486161958.80072 | 20/F9EF990               |          137701030288

 2017-02-03 23:45:59.878046+01 | 1486161959.87805 | 20/10C4C478              |          137720284280

 2017-02-03 23:46:00.962169+01 | 1486161960.96217 | 20/11FAAC80              |          137740594304

 2017-02-03 23:46:02.047139+01 | 1486161962.04714 | 20/1331AA30              |          137760975408

 2017-02-03 23:46:03.129039+01 | 1486161963.12904 | 20/146D2848              |          137781651528

 2017-02-03 23:46:04.221923+01 | 1486161964.22192 | 20/15A573B8              |          137802118072

 2017-02-03 23:46:05.319177+01 | 1486161965.31918 | 20/16DC6AB8              |          137822497464

 2017-02-03 23:46:06.405434+01 | 1486161966.40543 | 20/1807DB10              |          137842121488

 2017-02-03 23:46:07.498165+01 | 1486161967.49816 | 20/19313568              |          137861608808

 2017-02-03 23:46:08.590547+01 | 1486161968.59055 | 20/1A683728              |          137881990952

 2017-02-03 23:46:09.680711+01 | 1486161969.68071 | 20/1B91C6F8              |          137901491960

 2017-02-03 23:46:10.776386+01 | 1486161970.77639 | 20/1CBD71C8              |          137921130952

 2017-02-03 23:46:11.861598+01 | 1486161971.8616 | 20/1DF487D0              |          137941518288

 2017-02-03 23:46:12.950577+01 | 1486161972.95058 | 20/1F347198              |          137962484120

 2017-02-03 23:46:14.038714+01 | 1486161974.03871 | 20/207017B0              |          137983170480

 2017-02-03 23:46:15.117828+01 | 1486161975.11783 | 20/21A1B078              |          138003198072

 2017-02-03 23:46:16.198288+01 | 1486161976.19829 | 20/22C5E9D8              |          138022349272

 2017-02-03 23:46:17.28974+01 | 1486161977.28974 | 20/2402B100              |          138043109632

 2017-02-03 23:46:18.388556+01 | 1486161978.38856 | 20/25360520              |          138063250720

 2017-02-03 23:46:19.472505+01 | 1486161979.47251 | 20/26686EF0              |          138083331824

 2017-02-03 23:46:20.560022+01 | 1486161980.56002 | 20/2797AC08              |          138103204872

 2017-02-03 23:46:21.650001+01 | 1486161981.65 | 20/28CB34F0              |          138123359472

 2017-02-03 23:46:22.74193+01 | 1486161982.74193 | 20/2A045D30              |          138143882544

 2017-02-03 23:46:23.828202+01 | 1486161983.8282 | 20/2B21DB98              |          138162592664

 2017-02-03 23:46:24.915198+01 | 1486161984.9152 | 20/2C581158              |          138182922584

 2017-02-03 23:46:25.99848+01 | 1486161985.99848 | 20/2D7A4538              |          138201941304

 2017-02-03 23:46:27.082877+01 | 1486161987.08288 | 20/2EB11188              |          138222309768

 2017-02-03 23:46:28.169105+01 | 1486161988.16911 | 20/2FEA5C98              |          138242841752

 2017-02-03 23:46:29.257128+01 | 1486161989.25713 | 20/31237B70              |          138263362416

 2017-02-03 23:46:30.344904+01 | 1486161990.3449 | 20/32597A10              |          138283678224

 2017-02-03 23:46:31.437836+01 | 1486161991.43784 | 20/33948BF8              |          138304326648

 2017-02-03 23:46:32.532027+01 | 1486161992.53203 | 20/34C6E958              |          138324404568

 2017-02-03 23:46:33.620353+01 | 1486161993.62035 | 20/35F201F8              |          138344006136

 2017-02-03 23:46:34.708789+01 | 1486161994.70879 | 20/3726E288              |          138364248712

 2017-02-03 23:46:35.796748+01 | 1486161995.79675 | 20/385B7EA0              |          138384473760

 2017-02-03 23:46:36.876935+01 | 1486161996.87694 | 20/397D19F8              |          138403453432

 2017-02-03 23:46:37.955896+01 | 1486161997.9559 | 20/3AACE538              |          138423362872

 2017-02-03 23:46:39.038383+01 | 1486161999.03838 | 20/3BD69BA8              |          138442873768

 2017-02-03 23:46:40.117319+01 | 1486162000.11732 | 20/3D062818              |          138462767128

 2017-02-03 23:46:41.200076+01 | 1486162001.20008 | 20/3E1C0B40              |          138480978752

 2017-02-03 23:46:42.292497+01 | 1486162002.2925 | 20/3F295670              |          138498627184

 2017-02-03 23:46:43.37995+01 | 1486162003.37995 | 20/40410310              |          138516955920

 2017-02-03 23:46:44.466308+01 | 1486162004.46631 | 20/416319F0              |          138535967216

 2017-02-03 23:46:45.548454+01 | 1486162005.54845 | 20/42830A00              |          138554837504

 2017-02-03 23:46:46.640293+01 | 1486162006.64029 | 20/439DFD90              |          138573381008

 2017-02-03 23:46:47.730155+01 | 1486162007.73015 | 20/44B25EF8              |          138591493880

 2017-02-03 23:46:48.824548+01 | 1486162008.82455 | 20/45DA33A8              |          138610881448

 2017-02-03 23:46:49.902614+01 | 1486162009.90261 | 20/46FCC800              |          138629924864

 2017-02-03 23:46:50.983329+01 | 1486162010.98333 | 20/4834B6F0              |          138650367728

 2017-02-03 23:46:52.076269+01 | 1486162012.07627 | 20/4963B268              |          138670223976

 2017-02-03 23:46:53.158021+01 | 1486162013.15802 | 20/4A8747B0              |          138689333168

 2017-02-03 23:46:54.245208+01 | 1486162014.24521 | 20/4BB65EF8              |          138709196536

 2017-02-03 23:46:55.331116+01 | 1486162015.33112 | 20/4CE0F9A8              |          138728765864

 2017-02-03 23:46:56.407898+01 | 1486162016.4079 | 20/4E10E898              |          138748684440

 2017-02-03 23:46:57.497984+01 | 1486162017.49798 | 20/4F3F20F8              |          138768490744

 2017-02-03 23:46:58.596542+01 | 1486162018.59654 | 20/507321A8              |          138788676008

 2017-02-03 23:46:59.699561+01 | 1486162019.69956 | 20/519D3A40              |          138808212032

 2017-02-03 23:47:00.787643+01 | 1486162020.78764 | 20/52D1B6E8              |          138828429032

 2017-02-03 23:47:01.870832+01 | 1486162021.87083 | 20/54035E68              |          138848460392

 2017-02-03 23:47:02.953492+01 | 1486162022.95349 | 20/553295B8              |          138868331960

 2017-02-03 23:47:04.037504+01 | 1486162024.0375 | 20/566327D0              |          138888292304

 2017-02-03 23:47:05.118227+01 | 1486162025.11823 | 20/57875B78              |          138907442040

 2017-02-03 23:47:06.206859+01 | 1486162026.20686 | 20/58A5B170              |          138926207344

 2017-02-03 23:47:07.299779+01 | 1486162027.29978 | 20/59DC5340              |          138946564928

 2017-02-03 23:47:08.3928+01 | 1486162028.3928 | 20/5B2022F0              |          138967786224

 2017-02-03 23:47:09.485914+01 | 1486162029.48591 | 20/5C4238D0              |          138986797264

 2017-02-03 23:47:10.584352+01 | 1486162030.58435 | 20/5D6CAA08              |          139006355976

 2017-02-03 23:47:11.679784+01 | 1486162031.67978 | 20/5E9CBDA0              |          139026283936

 2017-02-03 23:47:12.769663+01 | 1486162032.76966 | 20/5FB35A28              |          139044543016

 2017-02-03 23:47:13.852443+01 | 1486162033.85244 | 20/60D22118              |          139063337240

 2017-02-03 23:47:14.932555+01 | 1486162034.93255 | 20/61F9C848              |          139082713160

 2017-02-03 23:47:16.017824+01 | 1486162036.01782 | 20/63186B58              |          139101498200

 2017-02-03 23:47:17.103284+01 | 1486162037.10328 | 20/644131E0              |          139120947680

 2017-02-03 23:47:18.189088+01 | 1486162038.18909 | 20/656C3670              |          139140544112

 2017-02-03 23:47:19.280135+01 | 1486162039.28013 | 20/669D4F90              |          139160539024

 2017-02-03 23:47:20.373573+01 | 1486162040.37357 | 20/67C53A70              |          139179932272

 2017-02-03 23:47:21.468371+01 | 1486162041.46837 | 20/68EE0998              |          139199383960

 2017-02-03 23:47:22.55533+01 | 1486162042.55533 | 20/6A0BCF30              |          139218112304

 2017-02-03 23:47:23.648184+01 | 1486162043.64818 | 20/6B35B728              |          139237639200

 2017-02-03 23:47:24.741461+01 | 1486162044.74146 | 20/6C5F45A0              |          139257136544

 2017-02-03 23:47:25.830527+01 | 1486162045.83053 | 20/6D80C698              |          139276109464

 2017-02-03 23:47:26.913587+01 | 1486162046.91359 | 20/6E98CE88              |          139294461576

 2017-02-03 23:47:27.996397+01 | 1486162047.9964 | 20/6FA03638              |          139311724088

 2017-02-03 23:47:29.074497+01 | 1486162049.0745 | 20/70C2F1D8              |          139330777560

 2017-02-03 23:47:30.157153+01 | 1486162050.15715 | 20/71EFE1B0              |          139350499760

 2017-02-03 23:47:31.23806+01 | 1486162051.23806 | 20/73137E48              |          139369610824

 2017-02-03 23:47:32.32349+01 | 1486162052.32349 | 20/743A5958              |          139388934488

 2017-02-03 23:47:33.415406+01 | 1486162053.41541 | 20/75742758              |          139409499992

 2017-02-03 23:47:34.507226+01 | 1486162054.50723 | 20/76AB39C8              |          139429886408

 2017-02-03 23:47:35.594965+01 | 1486162055.59496 | 20/77CD06A0              |          139448878752

 2017-02-03 23:47:36.690115+01 | 1486162056.69011 | 20/78F8F130              |          139468534064

 2017-02-03 23:47:37.783446+01 | 1486162057.78345 | 20/7A240768              |          139488135016

 2017-02-03 23:47:38.874958+01 | 1486162058.87496 | 20/7B4BDCF0              |          139507522800

 2017-02-03 23:47:39.956359+01 | 1486162059.95636 | 20/7C62B1C8              |          139525796296

 2017-02-03 23:47:41.040783+01 | 1486162061.04078 | 20/7D812248              |          139544568392

 2017-02-03 23:47:42.130124+01 | 1486162062.13012 | 20/7EAC1E58              |          139564162648

 2017-02-03 23:47:43.211654+01 | 1486162063.21165 | 20/7FD4A180              |          139583594880

 2017-02-03 23:47:44.292508+01 | 1486162064.29251 | 20/80F4F2D0              |          139602490064

 2017-02-03 23:47:45.378443+01 | 1486162065.37844 | 20/82244BE8              |          139622370280

 2017-02-03 23:47:46.473151+01 | 1486162066.47315 | 20/834BF130              |          139641745712

 2017-02-03 23:47:47.566097+01 | 1486162067.5661 | 20/8479AD40              |          139661520192

 2017-02-03 23:47:48.65002+01 | 1486162068.65002 | 20/859EBB28              |          139680725800

 2017-02-03 23:47:49.744372+01 | 1486162069.74437 | 20/86BCFD40              |          139699486016

 2017-02-03 23:47:50.839103+01 | 1486162070.8391 | 20/87EA3900              |          139719227648

 2017-02-03 23:47:51.931241+01 | 1486162071.93124 | 20/891524C8              |          139738817736

 2017-02-03 23:47:53.014445+01 | 1486162073.01445 | 20/8A38BC58              |          139757927512

 2017-02-03 23:47:54.09999+01 | 1486162074.09999 | 20/8B559478              |          139776595064

 2017-02-03 23:47:55.185637+01 | 1486162075.18564 | 20/8C80C6A0              |          139796203168

 2017-02-03 23:47:56.25838+01 | 1486162076.25838 | 20/8DA69878              |          139815458936

 2017-02-03 23:47:57.346613+01 | 1486162077.34661 | 20/8EC52830              |          139834239024

 2017-02-03 23:47:58.434529+01 | 1486162078.43453 | 20/8FDAC910              |          139852433680

 2017-02-03 23:47:59.516488+01 | 1486162079.51649 | 20/9106F748              |          139872106312

 2017-02-03 23:48:00.60596+01 | 1486162080.60596 | 20/923E9270              |          139892527728

 2017-02-03 23:48:01.699786+01 | 1486162081.69979 | 20/937B2AF8              |          139913276152

 2017-02-03 23:48:02.792079+01 | 1486162082.79208 | 20/94B89E48              |          139934080584

 2017-02-03 23:48:03.888194+01 | 1486162083.88819 | 20/95EA20E8              |          139954102504

 2017-02-03 23:48:04.970108+01 | 1486162084.97011 | 20/97164908              |          139973773576

 2017-02-03 23:48:06.050432+01 | 1486162086.05043 | 20/983D23D0              |          139993097168

 2017-02-03 23:48:07.133635+01 | 1486162087.13364 | 20/995D8E28              |          140011998760

 2017-02-03 23:48:08.216913+01 | 1486162088.21691 | 20/9A77B020              |          140030488608

 2017-02-03 23:48:09.299905+01 | 1486162089.29991 | 20/9BA4F4E0              |          140050232544

 2017-02-03 23:48:10.381595+01 | 1486162090.38159 | 20/9CC51F30              |          140069117744

 2017-02-03 23:48:11.475579+01 | 1486162091.47558 | 20/9DEDE1C0              |          140088566208

 2017-02-03 23:48:12.568541+01 | 1486162092.56854 | 20/9F294FF8              |          140109238264

 2017-02-03 23:48:13.663293+01 | 1486162093.66329 | 20/A067AB70              |          140130102128

 2017-02-03 23:48:14.756639+01 | 1486162094.75664 | 20/A18E3AF0              |          140149406448

 2017-02-03 23:48:15.848066+01 | 1486162095.84807 | 20/A2A0F840              |          140167411776

 2017-02-03 23:48:16.931678+01 | 1486162096.93168 | 20/A3B58B20              |          140185537312

 2017-02-03 23:48:18.013883+01 | 1486162098.01388 | 20/A4DFB1C8              |          140205076936

 2017-02-03 23:48:19.093814+01 | 1486162099.09381 | 20/A5FF5320              |          140223927072

 2017-02-03 23:48:20.176005+01 | 1486162100.176 | 20/A72803C8              |          140243370952

 2017-02-03 23:48:21.259255+01 | 1486162101.25925 | 20/A850A2F0              |          140262810352

 2017-02-03 23:48:22.337459+01 | 1486162102.33746 | 20/A973ED30              |          140281900336

 2017-02-03 23:48:23.423544+01 | 1486162103.42354 | 20/AA8D5CB0              |          140300344496

 2017-02-03 23:48:24.51552+01 | 1486162104.51552 | 20/ABA46C80              |          140318633088

 2017-02-03 23:48:25.60188+01 | 1486162105.60188 | 20/ACCA2D08              |          140337884424

 2017-02-03 23:48:26.689728+01 | 1486162106.68973 | 20/ADE40280              |          140356354688

 2017-02-03 23:48:27.776946+01 | 1486162107.77695 | 20/AF0868B0              |          140375517360

 2017-02-03 23:48:28.863118+01 | 1486162108.86312 | 20/B014F858              |          140393117784

 2017-02-03 23:48:29.947357+01 | 1486162109.94736 | 20/B12EBD00              |          140411583744

 2017-02-03 23:48:31.031167+01 | 1486162111.03117 | 20/B2545118              |          140430823704

 2017-02-03 23:48:32.110173+01 | 1486162112.11017 | 20/B36B8E10              |          140449123856

 2017-02-03 23:48:33.200015+01 | 1486162113.20002 | 20/B48AB508              |          140467942664

 2017-02-03 23:48:34.286126+01 | 1486162114.28613 | 20/B5A011F8              |          140486119928

 2017-02-03 23:48:35.364956+01 | 1486162115.36496 | 20/B6BE88D8              |          140504893656

 2017-02-03 23:48:36.45554+01 | 1486162116.45554 | 20/B7DF90D8              |          140523835608

 2017-02-03 23:48:37.549436+01 | 1486162117.54944 | 20/B8FABB28              |          140542393128

 2017-02-03 23:48:38.647532+01 | 1486162118.64753 | 20/BA1DA5C0              |          140561458624

 2017-02-03 23:48:39.736686+01 | 1486162119.73669 | 20/BB3F34D0              |          140580435152

 2017-02-03 23:48:40.824616+01 | 1486162120.82462 | 20/BC5FF860              |          140599359584

 2017-02-03 23:48:41.913875+01 | 1486162121.91388 | 20/BD86FDD0              |          140618694096

 2017-02-03 23:48:42.998102+01 | 1486162122.9981 | 20/BEB05F18              |          140638183192

 2017-02-03 23:48:44.080097+01 | 1486162124.0801 | 20/BFD85750              |          140657579856

 2017-02-03 23:48:45.159019+01 | 1486162125.15902 | 20/C0F92B18              |          140676508440

 2017-02-03 23:48:46.239247+01 | 1486162126.23925 | 20/C209CE38              |          140694375992

 2017-02-03 23:48:47.328548+01 | 1486162127.32855 | 20/C32C5420              |          140713415712

 2017-02-03 23:48:48.408657+01 | 1486162128.40866 | 20/C43AA1A8              |          140731130280

 2017-02-03 23:48:49.494547+01 | 1486162129.49455 | 20/C552C460              |          140749489248

 2017-02-03 23:48:50.589208+01 | 1486162130.58921 | 20/C6788BC8              |          140768742344

 2017-02-03 23:48:51.679712+01 | 1486162131.67971 | 20/C78F4D58              |          140787010904

 2017-02-03 23:48:52.769118+01 | 1486162132.76912 | 20/C8B08420              |          140805964832

 2017-02-03 23:48:53.856156+01 | 1486162133.85616 | 20/C9D47990              |          140825098640

 2017-02-03 23:48:54.946626+01 | 1486162134.94663 | 20/CAEBBAB8              |          140843399864

 2017-02-03 23:48:56.027777+01 | 1486162136.02778 | 20/CBFF1AB0              |          140861446832

 2017-02-03 23:48:57.111653+01 | 1486162137.11165 | 20/CD2A3DD8              |          140881051096

 2017-02-03 23:48:58.190069+01 | 1486162138.19007 | 20/CE539490              |          140900537488

 2017-02-03 23:48:59.268546+01 | 1486162139.26855 | 20/CF767400              |          140919600128

 2017-02-03 23:49:00.35376+01 | 1486162140.35376 | 20/D0872508              |          140937471240

 2017-02-03 23:49:01.424749+01 | 1486162141.42475 | 20/D1C5F0E0              |          140958363872

 2017-02-03 23:49:02.505328+01 | 1486162142.50533 | 20/D2F939B8              |          140978502072

 2017-02-03 23:49:03.594039+01 | 1486162143.59404 | 20/D42890B8              |          140998381752

 2017-02-03 23:49:04.6828+01 | 1486162144.6828 | 20/D5509310              |          141017781008

 2017-02-03 23:49:05.770251+01 | 1486162145.77025 | 20/D6782440              |          141037151296

 2017-02-03 23:49:06.860458+01 | 1486162146.86046 | 20/D799A280              |          141056123520

 2017-02-03 23:49:07.945363+01 | 1486162147.94536 | 20/D8BE5110              |          141075304720

 2017-02-03 23:49:09.032911+01 | 1486162149.03291 | 20/D9DCF808              |          141094090760

 2017-02-03 23:49:10.118687+01 | 1486162150.11869 | 20/DB024AE0              |          141113314016

 2017-02-03 23:49:11.20554+01 | 1486162151.20554 | 20/DC1EDEB8              |          141131964088

 2017-02-03 23:49:12.290233+01 | 1486162152.29023 | 20/DD544B98              |          141152242584

 2017-02-03 23:49:13.371109+01 | 1486162153.37111 | 20/DE8B3DF8              |          141172620792

 2017-02-03 23:49:14.455241+01 | 1486162154.45524 | 20/DFA9D2C8              |          141191402184

 2017-02-03 23:49:15.53403+01 | 1486162155.53403 | 20/E0AB93A0              |          141208294304

 2017-02-03 23:49:16.631707+01 | 1486162156.63171 | 20/E1C34400              |          141226624000

 2017-02-03 23:49:17.72829+01 | 1486162157.72829 | 20/E2E430C8              |          141245558984

 2017-02-03 23:49:18.820345+01 | 1486162158.82034 | 20/E40594A0              |          141264524448

