 2017-02-03 20:07:06.455926+01 | 1486148826.45593 |                 0 |              15 |                   656 |                    0 |                 41 |          1202 |                9 |         4915981 |                     0 |     763699906 | 2017-02-03 18:53:18.816171+01

 2017-02-03 20:07:07.532283+01 | 1486148827.53228 |                 0 |              15 |                   656 |                    0 |                 41 |          1202 |                9 |         4915981 |                     0 |     763778915 | 2017-02-03 18:53:18.816171+01

 2017-02-03 20:07:08.611391+01 | 1486148828.61139 |                 0 |              15 |                   656 |                    0 |                 41 |          1202 |                9 |         4915981 |                     0 |     763858472 | 2017-02-03 18:53:18.816171+01

 2017-02-03 20:07:09.687067+01 | 1486148829.68707 |                 0 |              15 |                   656 |                    0 |                 41 |          1202 |                9 |         4915981 |                     0 |     763939791 | 2017-02-03 18:53:18.816171+01

 2017-02-03 20:07:10.766131+01 | 1486148830.76613 |                 0 |              15 |                   656 |                    0 |                 41 |          1202 |                9 |         4915981 |                     0 |     764041319 | 2017-02-03 18:53:18.816171+01

 2017-02-03 20:07:11.841989+01 | 1486148831.84199 |                 0 |              15 |                   656 |                    0 |                 41 |          1202 |                9 |         4915981 |                     0 |     764126169 | 2017-02-03 18:53:18.816171+01

 2017-02-03 20:07:12.919612+01 | 1486148832.91961 |                 0 |              15 |                   656 |                    0 |                 41 |          1203 |                9 |         4915981 |                     0 |     764211875 | 2017-02-03 18:53:18.816171+01

 2017-02-03 20:07:13.997897+01 | 1486148833.9979 |                 0 |              15 |                   656 |                    0 |                 41 |          1203 |                9 |         4915981 |                     0 |     764316186 | 2017-02-03 18:53:18.816171+01

 2017-02-03 20:07:15.077091+01 | 1486148835.07709 |                 0 |              15 |                   656 |                    0 |                 41 |          1203 |                9 |         4915981 |                     0 |     764403896 | 2017-02-03 18:53:18.816171+01

 2017-02-03 20:07:16.153712+01 | 1486148836.15371 |                 0 |              15 |                   656 |                    0 |                 41 |          1205 |                9 |         4915981 |                     0 |     764490374 | 2017-02-03 18:53:18.816171+01

 2017-02-03 20:07:17.235647+01 | 1486148837.23565 |                 0 |              15 |                   656 |                    0 |                 41 |          1205 |                9 |         4915981 |                     0 |     764596884 | 2017-02-03 18:53:18.816171+01

 2017-02-03 20:07:18.307967+01 | 1486148838.30797 |                 0 |              15 |                   656 |                    0 |                 41 |          1205 |                9 |         4915981 |                     0 |     764686149 | 2017-02-03 18:53:18.816171+01

 2017-02-03 20:07:19.388679+01 | 1486148839.38868 |                 0 |              15 |                   656 |                    0 |                 41 |          1205 |                9 |         4915981 |                     0 |     764775833 | 2017-02-03 18:53:18.816171+01

 2017-02-03 20:07:20.468546+01 | 1486148840.46855 |                 0 |              15 |                   656 |                    0 |                 41 |          1205 |                9 |         4915981 |                     0 |     764885587 | 2017-02-03 18:53:18.816171+01

 2017-02-03 20:07:21.547554+01 | 1486148841.54755 |                 0 |              15 |                   656 |                    0 |                 41 |          1205 |                9 |         4915981 |                     0 |     764974320 | 2017-02-03 18:53:18.816171+01

 2017-02-03 20:07:22.613927+01 | 1486148842.61393 |                 0 |              15 |                   656 |                    0 |                 41 |          1205 |                9 |         4915981 |                     0 |     765062733 | 2017-02-03 18:53:18.816171+01

 2017-02-03 20:07:23.687894+01 | 1486148843.68789 |                 0 |              15 |                   656 |                    0 |                 41 |          1205 |                9 |         4915981 |                     0 |     765170086 | 2017-02-03 18:53:18.816171+01

 2017-02-03 20:07:24.759108+01 | 1486148844.75911 |                 0 |              15 |                   656 |                    0 |                 41 |          1205 |                9 |         4915981 |                     0 |     765257955 | 2017-02-03 18:53:18.816171+01

 2017-02-03 20:07:25.840121+01 | 1486148845.84012 |                 0 |              15 |                   656 |                    0 |                 41 |          1206 |                9 |         4915981 |                     0 |     765346449 | 2017-02-03 18:53:18.816171+01

 2017-02-03 20:07:26.91859+01 | 1486148846.91859 |                 0 |              15 |                   656 |                    0 |                 41 |          1206 |                9 |         4915981 |                     0 |     765452216 | 2017-02-03 18:53:18.816171+01

 2017-02-03 20:07:27.988861+01 | 1486148847.98886 |                 0 |              15 |                   656 |                    0 |                 41 |          1206 |                9 |         4915981 |                     0 |     765544413 | 2017-02-03 18:53:18.816171+01

 2017-02-03 20:07:29.065097+01 | 1486148849.0651 |                 0 |              15 |                   656 |                    0 |                 41 |          1206 |                9 |         4915981 |                     0 |     765636096 | 2017-02-03 18:53:18.816171+01

 2017-02-03 20:07:30.150749+01 | 1486148850.15075 |                 0 |              15 |                   656 |                    0 |                 41 |          1206 |                9 |         4915981 |                     0 |     765744834 | 2017-02-03 18:53:18.816171+01

 2017-02-03 20:07:31.240599+01 | 1486148851.2406 |                 0 |              15 |                   656 |                    0 |                 41 |          1206 |                9 |         4915981 |                     0 |     765835651 | 2017-02-03 18:53:18.816171+01

 2017-02-03 20:07:32.322192+01 | 1486148852.32219 |                 0 |              15 |                   656 |                    0 |                 41 |          1206 |                9 |         4915981 |                     0 |     765923049 | 2017-02-03 18:53:18.816171+01

 2017-02-03 20:07:33.409815+01 | 1486148853.40982 |                 0 |              15 |                   656 |                    0 |                 41 |          1206 |                9 |         4915981 |                     0 |     766030307 | 2017-02-03 18:53:18.816171+01

 2017-02-03 20:07:34.495899+01 | 1486148854.4959 |                 0 |              15 |                   656 |                    0 |                 41 |          1206 |                9 |         4915981 |                     0 |     766120586 | 2017-02-03 18:53:18.816171+01

 2017-02-03 20:07:35.58166+01 | 1486148855.58166 |                 0 |              15 |                   656 |                    0 |                 41 |          1206 |                9 |         4915981 |                     0 |     766212795 | 2017-02-03 18:53:18.816171+01

 2017-02-03 20:07:36.662993+01 | 1486148856.66299 |                 0 |              15 |                   656 |                    0 |                 41 |          1206 |                9 |         4915981 |                     0 |     766323660 | 2017-02-03 18:53:18.816171+01

 2017-02-03 20:07:37.742079+01 | 1486148857.74208 |                 0 |              15 |                   656 |                    0 |                 41 |          1206 |                9 |         4915981 |                     0 |     766412003 | 2017-02-03 18:53:18.816171+01

 2017-02-03 20:07:38.819211+01 | 1486148858.81921 |                 0 |              15 |                   656 |                    0 |                 41 |          1206 |                9 |         4915981 |                     0 |     766503287 | 2017-02-03 18:53:18.816171+01

 2017-02-03 20:07:39.899511+01 | 1486148859.89951 |                 0 |              15 |                   656 |                    0 |                 41 |          1206 |                9 |         4915981 |                     0 |     766612770 | 2017-02-03 18:53:18.816171+01

 2017-02-03 20:07:40.972823+01 | 1486148860.97282 |                 0 |              15 |                   656 |                    0 |                 41 |          1206 |                9 |         4915981 |                     0 |     766704610 | 2017-02-03 18:53:18.816171+01

 2017-02-03 20:07:42.042793+01 | 1486148862.04279 |                 0 |              15 |                   656 |                    0 |                 41 |          1206 |                9 |         4915981 |                     0 |     766794725 | 2017-02-03 18:53:18.816171+01

 2017-02-03 20:07:43.117251+01 | 1486148863.11725 |                 0 |              15 |                   656 |                    0 |                 41 |          1206 |                9 |         4915981 |                     0 |     766901780 | 2017-02-03 18:53:18.816171+01

 2017-02-03 20:07:44.195172+01 | 1486148864.19517 |                 0 |              15 |                   656 |                    0 |                 41 |          1206 |                9 |         4915981 |                     0 |     766992484 | 2017-02-03 18:53:18.816171+01

 2017-02-03 20:07:45.268961+01 | 1486148865.26896 |                 0 |              15 |                   656 |                    0 |                 41 |          1206 |                9 |         4915981 |                     0 |     767081770 | 2017-02-03 18:53:18.816171+01

 2017-02-03 20:07:46.346154+01 | 1486148866.34615 |                 0 |              15 |                   656 |                    0 |                 41 |          1206 |                9 |         4915981 |                     0 |     767190823 | 2017-02-03 18:53:18.816171+01

 2017-02-03 20:07:47.425894+01 | 1486148867.42589 |                 0 |              15 |                   656 |                    0 |                 41 |          1206 |                9 |         4915981 |                     0 |     767280248 | 2017-02-03 18:53:18.816171+01

 2017-02-03 20:07:48.503322+01 | 1486148868.50332 |                 0 |              15 |                   656 |                    0 |                 41 |          1206 |                9 |         4915981 |                     0 |     767371096 | 2017-02-03 18:53:18.816171+01

 2017-02-03 20:07:49.582987+01 | 1486148869.58299 |                 0 |              15 |                   656 |                    0 |                 41 |          1206 |                9 |         4915981 |                     0 |     767465166 | 2017-02-03 18:53:18.816171+01

 2017-02-03 20:07:50.666698+01 | 1486148870.6667 |                 0 |              15 |                   656 |                    0 |                 41 |          1206 |                9 |         4915981 |                     0 |     767574555 | 2017-02-03 18:53:18.816171+01

 2017-02-03 20:07:51.748252+01 | 1486148871.74825 |                 0 |              15 |                   656 |                    0 |                 41 |          1206 |                9 |         4915981 |                     0 |     767664054 | 2017-02-03 18:53:18.816171+01

 2017-02-03 20:07:52.834296+01 | 1486148872.8343 |                 0 |              15 |                   656 |                    0 |                 41 |          1206 |                9 |         4915981 |                     0 |     767769309 | 2017-02-03 18:53:18.816171+01

 2017-02-03 20:07:53.914659+01 | 1486148873.91466 |                 0 |              15 |                   656 |                    0 |                 41 |          1206 |                9 |         4915981 |                     0 |     767858014 | 2017-02-03 18:53:18.816171+01

 2017-02-03 20:07:54.994586+01 | 1486148874.99459 |                 0 |              15 |                   656 |                    0 |                 41 |          1206 |                9 |         4915981 |                     0 |     767946477 | 2017-02-03 18:53:18.816171+01

 2017-02-03 20:07:56.080509+01 | 1486148876.08051 |                 0 |              15 |                   656 |                    0 |                 41 |          1206 |                9 |         4915981 |                     0 |     768053517 | 2017-02-03 18:53:18.816171+01

 2017-02-03 20:07:57.159345+01 | 1486148877.15934 |                 0 |              15 |                   656 |                    0 |                 41 |          1206 |                9 |         4915981 |                     0 |     768144085 | 2017-02-03 18:53:18.816171+01

 2017-02-03 20:07:58.242637+01 | 1486148878.24264 |                 0 |              15 |                   656 |                    0 |                 41 |          1206 |                9 |         4915981 |                     0 |     768232936 | 2017-02-03 18:53:18.816171+01

 2017-02-03 20:07:59.32124+01 | 1486148879.32124 |                 0 |              15 |                   656 |                    0 |                 41 |          1206 |                9 |         4915981 |                     0 |     768324665 | 2017-02-03 18:53:18.816171+01

 2017-02-03 20:08:00.400615+01 | 1486148880.40061 |                 0 |              15 |                   656 |                    0 |                 41 |          1206 |                9 |         4915981 |                     0 |     768433663 | 2017-02-03 18:53:18.816171+01

 2017-02-03 20:08:01.48305+01 | 1486148881.48305 |                 0 |              15 |                   656 |                    0 |                 41 |          1206 |                9 |         4915981 |                     0 |     768523014 | 2017-02-03 18:53:18.816171+01

 2017-02-03 20:08:02.567276+01 | 1486148882.56728 |                 0 |              15 |                   656 |                    0 |                 41 |          1206 |                9 |         4915981 |                     0 |     768610897 | 2017-02-03 18:53:18.816171+01

 2017-02-03 20:08:03.653221+01 | 1486148883.65322 |                 0 |              15 |                   656 |                    0 |                 41 |          1206 |                9 |         4915981 |                     0 |     768717040 | 2017-02-03 18:53:18.816171+01

 2017-02-03 20:08:04.724544+01 | 1486148884.72454 |                 0 |              15 |                   656 |                    0 |                 41 |          1206 |                9 |         4915981 |                     0 |     768805908 | 2017-02-03 18:53:18.816171+01

 2017-02-03 20:08:05.805704+01 | 1486148885.8057 |                 0 |              15 |                   656 |                    0 |                 41 |          1206 |                9 |         4915981 |                     0 |     768898849 | 2017-02-03 18:53:18.816171+01

 2017-02-03 20:08:06.890938+01 | 1486148886.89094 |                 0 |              15 |                   656 |                    0 |                 41 |          1206 |                9 |         4915981 |                     0 |     769006305 | 2017-02-03 18:53:18.816171+01

 2017-02-03 20:08:07.975361+01 | 1486148887.97536 |                 0 |              15 |                   656 |                    0 |                 41 |          1206 |                9 |         4915981 |                     0 |     769099047 | 2017-02-03 18:53:18.816171+01

 2017-02-03 20:08:09.052103+01 | 1486148889.0521 |                 0 |              15 |                   656 |                    0 |                 41 |          1206 |                9 |         4915981 |                     0 |     769192055 | 2017-02-03 18:53:18.816171+01

 2017-02-03 20:08:10.128041+01 | 1486148890.12804 |                 0 |              15 |                   656 |                    0 |                 41 |          1206 |                9 |         4915981 |                     0 |     769303470 | 2017-02-03 18:53:18.816171+01

 2017-02-03 20:08:11.201949+01 | 1486148891.20195 |                 0 |              15 |                   656 |                    0 |                 41 |          1206 |                9 |         4915981 |                     0 |     769393185 | 2017-02-03 18:53:18.816171+01

 2017-02-03 20:08:12.271799+01 | 1486148892.2718 |                 0 |              15 |                   656 |                    0 |                 41 |          1206 |                9 |         4915981 |                     0 |     769483691 | 2017-02-03 18:53:18.816171+01

 2017-02-03 20:08:13.361404+01 | 1486148893.3614 |                 0 |              15 |                   656 |                    0 |                 41 |          1206 |                9 |         4915981 |                     0 |     769587078 | 2017-02-03 18:53:18.816171+01

 2017-02-03 20:08:14.444647+01 | 1486148894.44465 |                 0 |              15 |                   656 |                    0 |                 41 |          1206 |                9 |         4915981 |                     0 |     769674793 | 2017-02-03 18:53:18.816171+01

 2017-02-03 20:08:15.523407+01 | 1486148895.52341 |                 0 |              15 |                   656 |                    0 |                 41 |          1206 |                9 |         4915981 |                     0 |     769765521 | 2017-02-03 18:53:18.816171+01

 2017-02-03 20:08:16.611036+01 | 1486148896.61104 |                 0 |              15 |                   656 |                    0 |                 41 |          1206 |                9 |         4915981 |                     0 |     769874166 | 2017-02-03 18:53:18.816171+01

 2017-02-03 20:08:17.692061+01 | 1486148897.69206 |                 0 |              15 |                   656 |                    0 |                 41 |          1206 |                9 |         4915981 |                     0 |     769967005 | 2017-02-03 18:53:18.816171+01

 2017-02-03 20:08:18.783359+01 | 1486148898.78336 |                 0 |              15 |                   656 |                    0 |                 41 |          1206 |                9 |         4915981 |                     0 |     770056490 | 2017-02-03 18:53:18.816171+01

 2017-02-03 20:08:19.86335+01 | 1486148899.86335 |                 0 |              15 |                   656 |                    0 |                 41 |          1206 |                9 |         4915981 |                     0 |     770162653 | 2017-02-03 18:53:18.816171+01

 2017-02-03 20:08:20.930795+01 | 1486148900.93079 |                 0 |              15 |                   656 |                    0 |                 41 |          1206 |                9 |         4915981 |                     0 |     770253617 | 2017-02-03 18:53:18.816171+01

 2017-02-03 20:08:22.004613+01 | 1486148902.00461 |                 0 |              15 |                   656 |                    0 |                 41 |          1206 |                9 |         4915981 |                     0 |     770342420 | 2017-02-03 18:53:18.816171+01

 2017-02-03 20:08:23.093044+01 | 1486148903.09304 |                 0 |              15 |                   656 |                    0 |                 41 |          1206 |                9 |         4915981 |                     0 |     770447831 | 2017-02-03 18:53:18.816171+01

 2017-02-03 20:08:24.177052+01 | 1486148904.17705 |                 0 |              15 |                   656 |                    0 |                 41 |          1206 |                9 |         4915981 |                     0 |     770534996 | 2017-02-03 18:53:18.816171+01

 2017-02-03 20:08:25.256291+01 | 1486148905.25629 |                 0 |              15 |                   656 |                    0 |                 41 |          1206 |                9 |         4915981 |                     0 |     770622519 | 2017-02-03 18:53:18.816171+01

 2017-02-03 20:08:26.340419+01 | 1486148906.34042 |                 0 |              15 |                   656 |                    0 |                 41 |          1206 |                9 |         4915981 |                     0 |     770731974 | 2017-02-03 18:53:18.816171+01

 2017-02-03 20:08:27.422909+01 | 1486148907.42291 |                 0 |              15 |                   656 |                    0 |                 41 |          1206 |                9 |         4915981 |                     0 |     770822257 | 2017-02-03 18:53:18.816171+01

 2017-02-03 20:08:28.507928+01 | 1486148908.50793 |                 0 |              15 |                   656 |                    0 |                 41 |          1206 |                9 |         4915981 |                     0 |     770911104 | 2017-02-03 18:53:18.816171+01

 2017-02-03 20:08:29.591445+01 | 1486148909.59144 |                 0 |              15 |                   656 |                    0 |                 41 |          1206 |                9 |         4915981 |                     0 |     771018930 | 2017-02-03 18:53:18.816171+01

 2017-02-03 20:08:30.672461+01 | 1486148910.67246 |                 0 |              15 |                   656 |                    0 |                 41 |          1206 |                9 |         4915981 |                     0 |     771109757 | 2017-02-03 18:53:18.816171+01

 2017-02-03 20:08:31.754207+01 | 1486148911.75421 |                 0 |              15 |                   656 |                    0 |                 41 |          1206 |                9 |         4915981 |                     0 |     771219252 | 2017-02-03 18:53:18.816171+01

 2017-02-03 20:08:32.8288+01 | 1486148912.8288 |                 0 |              15 |                   656 |                    0 |                 41 |          1206 |                9 |         4915981 |                     0 |     771309558 | 2017-02-03 18:53:18.816171+01

 2017-02-03 20:08:33.899917+01 | 1486148913.89992 |                 0 |              15 |                   656 |                    0 |                 41 |          1206 |                9 |         4915981 |                     0 |     771401687 | 2017-02-03 18:53:18.816171+01

 2017-02-03 20:08:34.970526+01 | 1486148914.97053 |                 0 |              15 |                   656 |                    0 |                 41 |          1206 |                9 |         4915981 |                     0 |     771491381 | 2017-02-03 18:53:18.816171+01

 2017-02-03 20:08:36.048357+01 | 1486148916.04836 |                 0 |              15 |                   656 |                    0 |                 41 |          1206 |                9 |         4915981 |                     0 |     771600496 | 2017-02-03 18:53:18.816171+01

 2017-02-03 20:08:37.125235+01 | 1486148917.12524 |                 0 |              15 |                   656 |                    0 |                 41 |          1206 |                9 |         4915981 |                     0 |     771694038 | 2017-02-03 18:53:18.816171+01

 2017-02-03 20:08:38.198262+01 | 1486148918.19826 |                 0 |              15 |                   656 |                    0 |                 41 |          1206 |                9 |         4915981 |                     0 |     771785939 | 2017-02-03 18:53:18.816171+01

 2017-02-03 20:08:39.272763+01 | 1486148919.27276 |                 0 |              15 |                   656 |                    0 |                 41 |          1206 |                9 |         4915981 |                     0 |     771893512 | 2017-02-03 18:53:18.816171+01

 2017-02-03 20:08:40.348986+01 | 1486148920.34899 |                 0 |              15 |                   656 |                    0 |                 41 |          1206 |                9 |         4915981 |                     0 |     771981617 | 2017-02-03 18:53:18.816171+01

 2017-02-03 20:08:41.425329+01 | 1486148921.42533 |                 0 |              15 |                   656 |                    0 |                 41 |          1206 |                9 |         4915981 |                     0 |     772070208 | 2017-02-03 18:53:18.816171+01

 2017-02-03 20:08:42.51507+01 | 1486148922.51507 |                 0 |              15 |                   656 |                    0 |                 41 |          1206 |                9 |         4915981 |                     0 |     772177696 | 2017-02-03 18:53:18.816171+01

 2017-02-03 20:08:43.586397+01 | 1486148923.5864 |                 0 |              15 |                   656 |                    0 |                 41 |          1206 |                9 |         4915981 |                     0 |     772271692 | 2017-02-03 18:53:18.816171+01

 2017-02-03 20:08:44.66897+01 | 1486148924.66897 |                 0 |              15 |                   656 |                    0 |                 41 |          1206 |                9 |         4915981 |                     0 |     772361884 | 2017-02-03 18:53:18.816171+01

 2017-02-03 20:08:45.74669+01 | 1486148925.74669 |                 0 |              15 |                   656 |                    0 |                 41 |          1206 |                9 |         4915981 |                     0 |     772469329 | 2017-02-03 18:53:18.816171+01

 2017-02-03 20:08:46.825476+01 | 1486148926.82548 |                 0 |              15 |                   656 |                    0 |                 41 |          1206 |                9 |         4915981 |                     0 |     772561200 | 2017-02-03 18:53:18.816171+01

 2017-02-03 20:08:47.912041+01 | 1486148927.91204 |                 0 |              15 |                   656 |                    0 |                 41 |          1206 |                9 |         4915981 |                     0 |     772654125 | 2017-02-03 18:53:18.816171+01

 2017-02-03 20:08:48.989863+01 | 1486148928.98986 |                 0 |              15 |                   656 |                    0 |                 41 |          1206 |                9 |         4915981 |                     0 |     772761633 | 2017-02-03 18:53:18.816171+01

 2017-02-03 20:08:50.064219+01 | 1486148930.06422 |                 0 |              15 |                   656 |                    0 |                 41 |          1206 |                9 |         4915981 |                     0 |     772852016 | 2017-02-03 18:53:18.816171+01

 2017-02-03 20:08:51.133574+01 | 1486148931.13357 |                 0 |              15 |                   656 |                    0 |                 41 |          1206 |                9 |         4915981 |                     0 |     772947829 | 2017-02-03 18:53:18.816171+01

 2017-02-03 20:08:52.214225+01 | 1486148932.21423 |                 0 |              15 |                   656 |                    0 |                 41 |          1206 |                9 |         4915981 |                     0 |     773040187 | 2017-02-03 18:53:18.816171+01

 2017-02-03 20:08:53.296178+01 | 1486148933.29618 |                 0 |              15 |                   656 |                    0 |                 41 |          1206 |                9 |         4915981 |                     0 |     773147585 | 2017-02-03 18:53:18.816171+01

 2017-02-03 20:08:54.372177+01 | 1486148934.37218 |                 0 |              15 |                   656 |                    0 |                 41 |          1206 |                9 |         4915981 |                     0 |     773238130 | 2017-02-03 18:53:18.816171+01

 2017-02-03 20:08:55.4452+01 | 1486148935.4452 |                 0 |              15 |                   656 |                    0 |                 41 |          1206 |                9 |         4915981 |                     0 |     773329889 | 2017-02-03 18:53:18.816171+01

 2017-02-03 20:08:56.522833+01 | 1486148936.52283 |                 0 |              15 |                   656 |                    0 |                 41 |          1206 |                9 |         4915981 |                     0 |     773440962 | 2017-02-03 18:53:18.816171+01

 2017-02-03 20:08:57.595895+01 | 1486148937.5959 |                 0 |              15 |                   656 |                    0 |                 41 |          1206 |                9 |         4915981 |                     0 |     773530662 | 2017-02-03 18:53:18.816171+01

 2017-02-03 20:08:58.674025+01 | 1486148938.67403 |                 0 |              15 |                   656 |                    0 |                 41 |          1206 |                9 |         4915981 |                     0 |     773620485 | 2017-02-03 18:53:18.816171+01

 2017-02-03 20:08:59.749702+01 | 1486148939.7497 |                 0 |              15 |                   656 |                    0 |                 41 |          1206 |                9 |         4915981 |                     0 |     773729194 | 2017-02-03 18:53:18.816171+01

 2017-02-03 20:09:00.827103+01 | 1486148940.8271 |                 0 |              15 |                   656 |                    0 |                 41 |          1206 |                9 |         4915981 |                     0 |     773820041 | 2017-02-03 18:53:18.816171+01

 2017-02-03 20:09:01.907127+01 | 1486148941.90713 |                 0 |              15 |                   656 |                    0 |                 41 |          1206 |                9 |         4915981 |                     0 |     773908203 | 2017-02-03 18:53:18.816171+01

 2017-02-03 20:09:02.981918+01 | 1486148942.98192 |                 0 |              15 |                   656 |                    0 |                 41 |          1206 |                9 |         4915981 |                     0 |     774013607 | 2017-02-03 18:53:18.816171+01

 2017-02-03 20:09:04.06657+01 | 1486148944.06657 |                 0 |              15 |                   656 |                    0 |                 41 |          1206 |                9 |         4915981 |                     0 |     774103924 | 2017-02-03 18:53:18.816171+01

 2017-02-03 20:09:05.141101+01 | 1486148945.1411 |                 0 |              15 |                   656 |                    0 |                 41 |          1206 |                9 |         4915981 |                     0 |     774194614 | 2017-02-03 18:53:18.816171+01

 2017-02-03 20:09:06.218168+01 | 1486148946.21817 |                 0 |              15 |                   656 |                    0 |                 41 |          1206 |                9 |         4915981 |                     0 |     774304528 | 2017-02-03 18:53:18.816171+01

 2017-02-03 20:09:07.29897+01 | 1486148947.29897 |                 0 |              15 |                   656 |                    0 |                 41 |          1206 |                9 |         4915981 |                     0 |     774396651 | 2017-02-03 18:53:18.816171+01

 2017-02-03 20:09:08.381783+01 | 1486148948.38178 |                 0 |              15 |                   656 |                    0 |                 41 |          1206 |                9 |         4915981 |                     0 |     774490813 | 2017-02-03 18:53:18.816171+01

 2017-02-03 20:09:09.454802+01 | 1486148949.4548 |                 0 |              15 |                   656 |                    0 |                 41 |          1206 |                9 |         4915981 |                     0 |     774603117 | 2017-02-03 18:53:18.816171+01

 2017-02-03 20:09:10.532188+01 | 1486148950.53219 |                 0 |              15 |                   656 |                    0 |                 41 |          1206 |                9 |         4915981 |                     0 |     774694158 | 2017-02-03 18:53:18.816171+01

 2017-02-03 20:09:11.62334+01 | 1486148951.62334 |                 0 |              15 |                   656 |                    0 |                 41 |          1206 |                9 |         4915981 |                     0 |     774783354 | 2017-02-03 18:53:18.816171+01

 2017-02-03 20:09:12.704793+01 | 1486148952.70479 |                 0 |              15 |                   656 |                    0 |                 41 |          1206 |                9 |         4915981 |                     0 |     774891842 | 2017-02-03 18:53:18.816171+01

 2017-02-03 20:09:13.787724+01 | 1486148953.78772 |                 0 |              15 |                   656 |                    0 |                 41 |          1206 |                9 |         4915981 |                     0 |     774982622 | 2017-02-03 18:53:18.816171+01

 2017-02-03 20:09:14.867745+01 | 1486148954.86774 |                 0 |              15 |                   656 |                    0 |                 41 |          1206 |                9 |         4915981 |                     0 |     775072565 | 2017-02-03 18:53:18.816171+01

 2017-02-03 20:09:15.952361+01 | 1486148955.95236 |                 0 |              15 |                   656 |                    0 |                 41 |          1206 |                9 |         4915981 |                     0 |     775179291 | 2017-02-03 18:53:18.816171+01

 2017-02-03 20:09:17.036612+01 | 1486148957.03661 |                 0 |              15 |                   656 |                    0 |                 41 |          1206 |                9 |         4915981 |                     0 |     775271480 | 2017-02-03 18:53:18.816171+01

 2017-02-03 20:09:18.10817+01 | 1486148958.10817 |                 0 |              15 |                   656 |                    0 |                 41 |          1206 |                9 |         4915981 |                     0 |     775363726 | 2017-02-03 18:53:18.816171+01

 2017-02-03 20:09:19.183828+01 | 1486148959.18383 |                 0 |              15 |                   656 |                    0 |                 41 |          1206 |                9 |         4915981 |                     0 |     775471342 | 2017-02-03 18:53:18.816171+01

 2017-02-03 20:09:20.262638+01 | 1486148960.26264 |                 0 |              15 |                   656 |                    0 |                 41 |          1206 |                9 |         4915981 |                     0 |     775561041 | 2017-02-03 18:53:18.816171+01

 2017-02-03 20:09:21.337505+01 | 1486148961.33751 |                 0 |              15 |                   656 |                    0 |                 41 |          1206 |                9 |         4915981 |                     0 |     775651469 | 2017-02-03 18:53:18.816171+01

 2017-02-03 20:09:22.409729+01 | 1486148962.40973 |                 0 |              15 |                   656 |                    0 |                 41 |          1206 |                9 |         4915981 |                     0 |     775761032 | 2017-02-03 18:53:18.816171+01

 2017-02-03 20:09:23.498435+01 | 1486148963.49844 |                 0 |              15 |                   656 |                    0 |                 41 |          1206 |                9 |         4915981 |                     0 |     775852150 | 2017-02-03 18:53:18.816171+01

 2017-02-03 20:09:24.573644+01 | 1486148964.57364 |                 0 |              15 |                   656 |                    0 |                 41 |          1206 |                9 |         4915981 |                     0 |     775939488 | 2017-02-03 18:53:18.816171+01

 2017-02-03 20:09:25.652653+01 | 1486148965.65265 |                 0 |              15 |                   656 |                    0 |                 41 |          1206 |                9 |         4915981 |                     0 |     776048180 | 2017-02-03 18:53:18.816171+01

 2017-02-03 20:09:26.72294+01 | 1486148966.72294 |                 0 |              15 |                   656 |                    0 |                 41 |          1206 |                9 |         4915981 |                     0 |     776136215 | 2017-02-03 18:53:18.816171+01

 2017-02-03 20:09:27.804948+01 | 1486148967.80495 |                 0 |              15 |                   656 |                    0 |                 41 |          1206 |                9 |         4915981 |                     0 |     776226721 | 2017-02-03 18:53:18.816171+01

 2017-02-03 20:09:28.885291+01 | 1486148968.88529 |                 0 |              15 |                   656 |                    0 |                 41 |          1206 |                9 |         4915981 |                     0 |     776314972 | 2017-02-03 18:53:18.816171+01

 2017-02-03 20:09:29.9696+01 | 1486148969.9696 |                 0 |              15 |                   656 |                    0 |                 41 |          1206 |                9 |         4915981 |                     0 |     776427447 | 2017-02-03 18:53:18.816171+01

 2017-02-03 20:09:31.046834+01 | 1486148971.04683 |                 0 |              15 |                   656 |                    0 |                 41 |          1206 |                9 |         4915981 |                     0 |     776517633 | 2017-02-03 18:53:18.816171+01

 2017-02-03 20:09:32.120556+01 | 1486148972.12056 |                 0 |              15 |                   656 |                    0 |                 41 |          1206 |                9 |         4915981 |                     0 |     776605874 | 2017-02-03 18:53:18.816171+01

 2017-02-03 20:09:33.198246+01 | 1486148973.19825 |                 0 |              15 |                   656 |                    0 |                 41 |          1206 |                9 |         4915981 |                     0 |     776712822 | 2017-02-03 18:53:18.816171+01

 2017-02-03 20:09:34.271367+01 | 1486148974.27137 |                 0 |              15 |                   656 |                    0 |                 41 |          1206 |                9 |         4915981 |                     0 |     776802715 | 2017-02-03 18:53:18.816171+01

 2017-02-03 20:09:35.342034+01 | 1486148975.34203 |                 0 |              15 |                   656 |                    0 |                 41 |          1206 |                9 |         4915981 |                     0 |     776893167 | 2017-02-03 18:53:18.816171+01

 2017-02-03 20:09:36.422105+01 | 1486148976.42211 |                 0 |              15 |                   656 |                    0 |                 41 |          1206 |                9 |         4915981 |                     0 |     777002241 | 2017-02-03 18:53:18.816171+01

 2017-02-03 20:09:37.506795+01 | 1486148977.50679 |                 0 |              15 |                   656 |                    0 |                 41 |          1206 |                9 |         4915981 |                     0 |     777094066 | 2017-02-03 18:53:18.816171+01

 2017-02-03 20:09:38.59423+01 | 1486148978.59423 |                 0 |              15 |                   656 |                    0 |                 41 |          1206 |                9 |         4915981 |                     0 |     777183122 | 2017-02-03 18:53:18.816171+01

 2017-02-03 20:09:39.672963+01 | 1486148979.67296 |                 0 |              15 |                   656 |                    0 |                 41 |          1206 |                9 |         4915981 |                     0 |     777293932 | 2017-02-03 18:53:18.816171+01

 2017-02-03 20:09:40.750946+01 | 1486148980.75095 |                 0 |              15 |                   656 |                    0 |                 41 |          1206 |                9 |         4915981 |                     0 |     777385808 | 2017-02-03 18:53:18.816171+01

 2017-02-03 20:09:41.830327+01 | 1486148981.83033 |                 0 |              15 |                   656 |                    0 |                 41 |          1206 |                9 |         4915981 |                     0 |     777475563 | 2017-02-03 18:53:18.816171+01

 2017-02-03 20:09:42.908899+01 | 1486148982.9089 |                 0 |              15 |                   656 |                    0 |                 41 |          1206 |                9 |         4915981 |                     0 |     777582826 | 2017-02-03 18:53:18.816171+01

 2017-02-03 20:09:43.990486+01 | 1486148983.99049 |                 0 |              15 |                   656 |                    0 |                 41 |          1206 |                9 |         4915981 |                     0 |     777673663 | 2017-02-03 18:53:18.816171+01

 2017-02-03 20:09:45.072559+01 | 1486148985.07256 |                 0 |              15 |                   656 |                    0 |                 41 |          1206 |                9 |         4915981 |                     0 |     777765593 | 2017-02-03 18:53:18.816171+01

 2017-02-03 20:09:46.154285+01 | 1486148986.15428 |                 0 |              15 |                   656 |                    0 |                 41 |          1206 |                9 |         4915981 |                     0 |     777876534 | 2017-02-03 18:53:18.816171+01

 2017-02-03 20:09:47.2389+01 | 1486148987.2389 |                 0 |              15 |                   656 |                    0 |                 41 |          1206 |                9 |         4915981 |                     0 |     777965269 | 2017-02-03 18:53:18.816171+01

 2017-02-03 20:09:48.32478+01 | 1486148988.32478 |                 0 |              15 |                   656 |                    0 |                 41 |          1206 |                9 |         4915981 |                     0 |     778057955 | 2017-02-03 18:53:18.816171+01

 2017-02-03 20:09:49.404976+01 | 1486148989.40498 |                 0 |              15 |                   656 |                    0 |                 41 |          1206 |                9 |         4915981 |                     0 |     778168459 | 2017-02-03 18:53:18.816171+01

 2017-02-03 20:09:50.486815+01 | 1486148990.48681 |                 0 |              15 |                   656 |                    0 |                 41 |          1206 |                9 |         4915981 |                     0 |     778258623 | 2017-02-03 18:53:18.816171+01

 2017-02-03 20:09:51.554213+01 | 1486148991.55421 |                 0 |              15 |                   656 |                    0 |                 41 |          1206 |                9 |         4915981 |                     0 |     778312478 | 2017-02-03 18:53:18.816171+01

 2017-02-03 20:09:52.642781+01 | 1486148992.64278 |                 0 |              15 |                   656 |                    0 |                 41 |          1206 |                9 |         4915981 |                     0 |     778455599 | 2017-02-03 18:53:18.816171+01

 2017-02-03 20:09:53.727173+01 | 1486148993.72717 |                 0 |              15 |                   656 |                    0 |                 41 |          1206 |                9 |         4915981 |                     0 |     778544897 | 2017-02-03 18:53:18.816171+01

 2017-02-03 20:09:54.809495+01 | 1486148994.80949 |                 0 |              15 |                   656 |                    0 |                 41 |          1206 |                9 |         4915981 |                     0 |     778633288 | 2017-02-03 18:53:18.816171+01

 2017-02-03 20:09:55.885545+01 | 1486148995.88555 |                 0 |              15 |                   656 |                    0 |                 41 |          1206 |                9 |         4915981 |                     0 |     778742903 | 2017-02-03 18:53:18.816171+01

 2017-02-03 20:09:56.973889+01 | 1486148996.97389 |                 0 |              15 |                   656 |                    0 |                 41 |          1206 |                9 |         4915981 |                     0 |     778836389 | 2017-02-03 18:53:18.816171+01

 2017-02-03 20:09:58.062268+01 | 1486148998.06227 |                 0 |              15 |                   656 |                    0 |                 41 |          1206 |                9 |         4915981 |                     0 |     778927826 | 2017-02-03 18:53:18.816171+01

 2017-02-03 20:09:59.137397+01 | 1486148999.1374 |                 0 |              15 |                   656 |                    0 |                 41 |          1206 |                9 |         4915981 |                     0 |     779035878 | 2017-02-03 18:53:18.816171+01

 2017-02-03 20:10:00.218001+01 | 1486149000.218 |                 0 |              15 |                   656 |                    0 |                 41 |          1206 |                9 |         4915981 |                     0 |     779125437 | 2017-02-03 18:53:18.816171+01

 2017-02-03 20:10:01.301822+01 | 1486149001.30182 |                 0 |              15 |                   656 |                    0 |                 41 |          1206 |                9 |         4915981 |                     0 |     779218368 | 2017-02-03 18:53:18.816171+01

 2017-02-03 20:10:02.375431+01 | 1486149002.37543 |                 0 |              15 |                   656 |                    0 |                 41 |          1206 |                9 |         4915981 |                     0 |     779326473 | 2017-02-03 18:53:18.816171+01

 2017-02-03 20:10:03.466119+01 | 1486149003.46612 |                 0 |              15 |                   656 |                    0 |                 41 |          1206 |                9 |         4915981 |                     0 |     779415861 | 2017-02-03 18:53:18.816171+01

 2017-02-03 20:10:04.552747+01 | 1486149004.55275 |                 0 |              15 |                   656 |                    0 |                 41 |          1206 |                9 |         4915981 |                     0 |     779505889 | 2017-02-03 18:53:18.816171+01

 2017-02-03 20:10:05.635292+01 | 1486149005.63529 |                 0 |              15 |                   656 |                    0 |                 41 |          1206 |                9 |         4915981 |                     0 |     779614801 | 2017-02-03 18:53:18.816171+01

 2017-02-03 20:10:06.722372+01 | 1486149006.72237 |                 0 |              15 |                   656 |                    0 |                 41 |          1206 |                9 |         4915981 |                     0 |     779706521 | 2017-02-03 18:53:18.816171+01

 2017-02-03 20:10:07.812729+01 | 1486149007.81273 |                 0 |              15 |                   656 |                    0 |                 41 |          1206 |                9 |         4915981 |                     0 |     779813885 | 2017-02-03 18:53:18.816171+01

 2017-02-03 20:10:08.891576+01 | 1486149008.89158 |                 0 |              15 |                   656 |                    0 |                 41 |          1206 |                9 |         4915981 |                     0 |     779902910 | 2017-02-03 18:53:18.816171+01

 2017-02-03 20:10:09.969198+01 | 1486149009.9692 |                 0 |              15 |                   656 |                    0 |                 41 |          1206 |                9 |         4915981 |                     0 |     779994184 | 2017-02-03 18:53:18.816171+01

 2017-02-03 20:10:11.056369+01 | 1486149011.05637 |                 0 |              15 |                   656 |                    0 |                 41 |          1206 |                9 |         4915981 |                     0 |     780103623 | 2017-02-03 18:53:18.816171+01

 2017-02-03 20:10:12.142067+01 | 1486149012.14207 |                 0 |              15 |                   656 |                    0 |                 41 |          1206 |                9 |         4915981 |                     0 |     780192666 | 2017-02-03 18:53:18.816171+01

 2017-02-03 20:10:13.219553+01 | 1486149013.21955 |                 0 |              15 |                   656 |                    0 |                 41 |          1206 |                9 |         4915981 |                     0 |     780282008 | 2017-02-03 18:53:18.816171+01

 2017-02-03 20:10:14.306874+01 | 1486149014.30687 |                 0 |              15 |                   656 |                    0 |                 41 |          1206 |                9 |         4915981 |                     0 |     780391366 | 2017-02-03 18:53:18.816171+01

 2017-02-03 20:10:15.390947+01 | 1486149015.39095 |                 0 |              15 |                   656 |                    0 |                 41 |          1206 |                9 |         4915981 |                     0 |     780483196 | 2017-02-03 18:53:18.816171+01

 2017-02-03 20:10:16.470275+01 | 1486149016.47027 |                 0 |              15 |                   656 |                    0 |                 41 |          1206 |                9 |         4915981 |                     0 |     780572526 | 2017-02-03 18:53:18.816171+01

 2017-02-03 20:10:17.557677+01 | 1486149017.55768 |                 0 |              15 |                   656 |                    0 |                 41 |          1206 |                9 |         4915981 |                     0 |     780680193 | 2017-02-03 18:53:18.816171+01

 2017-02-03 20:10:18.638248+01 | 1486149018.63825 |                 0 |              15 |                   656 |                    0 |                 41 |          1206 |                9 |         4915981 |                     0 |     780769826 | 2017-02-03 18:53:18.816171+01

 2017-02-03 20:10:19.718987+01 | 1486149019.71899 |                 0 |              15 |                   656 |                    0 |                 41 |          1206 |                9 |         4915981 |                     0 |     780860575 | 2017-02-03 18:53:18.816171+01

 2017-02-03 20:10:20.804543+01 | 1486149020.80454 |                 0 |              15 |                   656 |                    0 |                 41 |          1206 |                9 |         4915981 |                     0 |     780967629 | 2017-02-03 18:53:18.816171+01

 2017-02-03 20:10:21.887441+01 | 1486149021.88744 |                 0 |              15 |                   656 |                    0 |                 41 |          1206 |                9 |         4915981 |                     0 |     781055593 | 2017-02-03 18:53:18.816171+01

 2017-02-03 20:10:22.968991+01 | 1486149022.96899 |                 0 |              15 |                   656 |                    0 |                 41 |          1206 |                9 |         4915981 |                     0 |     781144609 | 2017-02-03 18:53:18.816171+01

 2017-02-03 20:10:24.050905+01 | 1486149024.0509 |                 0 |              15 |                   656 |                    0 |                 41 |          1206 |                9 |         4915981 |                     0 |     781250807 | 2017-02-03 18:53:18.816171+01

 2017-02-03 20:10:25.130103+01 | 1486149025.1301 |                 0 |              15 |                   656 |                    0 |                 41 |          1206 |                9 |         4915981 |                     0 |     781340902 | 2017-02-03 18:53:18.816171+01

 2017-02-03 20:10:26.198227+01 | 1486149026.19823 |                 0 |              15 |                   656 |                    0 |                 41 |          1206 |                9 |         4915981 |                     0 |     781425650 | 2017-02-03 18:53:18.816171+01

 2017-02-03 20:10:27.283791+01 | 1486149027.28379 |                 0 |              15 |                   656 |                    0 |                 41 |          1206 |                9 |         4915981 |                     0 |     781532483 | 2017-02-03 18:53:18.816171+01

 2017-02-03 20:10:28.373228+01 | 1486149028.37323 |                 0 |              15 |                   656 |                    0 |                 41 |          1206 |                9 |         4915981 |                     0 |     781624762 | 2017-02-03 18:53:18.816171+01

 2017-02-03 20:10:29.448945+01 | 1486149029.44895 |                 0 |              15 |                   656 |                    0 |                 41 |          1206 |                9 |         4915981 |                     0 |     781717174 | 2017-02-03 18:53:18.816171+01

 2017-02-03 20:10:30.515468+01 | 1486149030.51547 |                 0 |              15 |                   656 |                    0 |                 41 |          1206 |                9 |         4915981 |                     0 |     781824401 | 2017-02-03 18:53:18.816171+01

 2017-02-03 20:10:31.594848+01 | 1486149031.59485 |                 0 |              15 |                   656 |                    0 |                 41 |          1206 |                9 |         4915981 |                     0 |     781916393 | 2017-02-03 18:53:18.816171+01

 2017-02-03 20:10:32.675389+01 | 1486149032.67539 |                 0 |              15 |                   656 |                    0 |                 41 |          1206 |                9 |         4915981 |                     0 |     782007309 | 2017-02-03 18:53:18.816171+01

 2017-02-03 20:10:33.762423+01 | 1486149033.76242 |                 0 |              15 |                   656 |                    0 |                 41 |          1206 |                9 |         4915981 |                     0 |     782115597 | 2017-02-03 18:53:18.816171+01

 2017-02-03 20:10:34.843115+01 | 1486149034.84312 |                 0 |              15 |                   656 |                    0 |                 41 |          1206 |                9 |         4915981 |                     0 |     782205090 | 2017-02-03 18:53:18.816171+01

 2017-02-03 20:10:35.923056+01 | 1486149035.92306 |                 0 |              15 |                   656 |                    0 |                 41 |          1206 |                9 |         4915981 |                     0 |     782295421 | 2017-02-03 18:53:18.816171+01

 2017-02-03 20:10:36.998973+01 | 1486149036.99897 |                 0 |              15 |                   656 |                    0 |                 41 |          1206 |                9 |         4915981 |                     0 |     782403502 | 2017-02-03 18:53:18.816171+01

 2017-02-03 20:10:38.069278+01 | 1486149038.06928 |                 0 |              15 |                   656 |                    0 |                 41 |          1206 |                9 |         4915981 |                     0 |     782493298 | 2017-02-03 18:53:18.816171+01

 2017-02-03 20:10:39.155685+01 | 1486149039.15568 |                 0 |              15 |                   656 |                    0 |                 41 |          1206 |                9 |         4915981 |                     0 |     782585737 | 2017-02-03 18:53:18.816171+01

 2017-02-03 20:10:40.224264+01 | 1486149040.22426 |                 0 |              15 |                   656 |                    0 |                 41 |          1206 |                9 |         4915981 |                     0 |     782694235 | 2017-02-03 18:53:18.816171+01

 2017-02-03 20:10:41.307592+01 | 1486149041.30759 |                 0 |              15 |                   656 |                    0 |                 41 |          1206 |                9 |         4915981 |                     0 |     782785949 | 2017-02-03 18:53:18.816171+01

 2017-02-03 20:10:42.382625+01 | 1486149042.38263 |                 0 |              15 |                   656 |                    0 |                 41 |          1206 |                9 |         4915981 |                     0 |     782873853 | 2017-02-03 18:53:18.816171+01

 2017-02-03 20:10:43.467867+01 | 1486149043.46787 |                 0 |              15 |                   656 |                    0 |                 41 |          1206 |                9 |         4915981 |                     0 |     782982989 | 2017-02-03 18:53:18.816171+01

 2017-02-03 20:10:44.550918+01 | 1486149044.55092 |                 0 |              15 |                   656 |                    0 |                 41 |          1206 |                9 |         4915981 |                     0 |     783075674 | 2017-02-03 18:53:18.816171+01

 2017-02-03 20:10:45.626631+01 | 1486149045.62663 |                 0 |              15 |                   656 |                    0 |                 41 |          1206 |                9 |         4915981 |                     0 |     783167188 | 2017-02-03 18:53:18.816171+01

 2017-02-03 20:10:46.705494+01 | 1486149046.70549 |                 0 |              15 |                   656 |                    0 |                 41 |          1206 |                9 |         4915981 |                     0 |     783273153 | 2017-02-03 18:53:18.816171+01

 2017-02-03 20:10:47.790669+01 | 1486149047.79067 |                 0 |              15 |                   656 |                    0 |                 41 |          1206 |                9 |         4915981 |                     0 |     783364398 | 2017-02-03 18:53:18.816171+01

 2017-02-03 20:10:48.876434+01 | 1486149048.87643 |                 0 |              15 |                   656 |                    0 |                 41 |          1206 |                9 |         4915981 |                     0 |     783455750 | 2017-02-03 18:53:18.816171+01

 2017-02-03 20:10:49.960275+01 | 1486149049.96027 |                 0 |              15 |                   656 |                    0 |                 41 |          1206 |                9 |         4915981 |                     0 |     783564056 | 2017-02-03 18:53:18.816171+01

 2017-02-03 20:10:51.026222+01 | 1486149051.02622 |                 0 |              15 |                   656 |                    0 |                 41 |          1206 |                9 |         4915981 |                     0 |     783654496 | 2017-02-03 18:53:18.816171+01

 2017-02-03 20:10:52.10307+01 | 1486149052.10307 |                 0 |              15 |                   656 |                    0 |                 41 |          1206 |                9 |         4915981 |                     0 |     783744773 | 2017-02-03 18:53:18.816171+01

 2017-02-03 20:10:53.193665+01 | 1486149053.19367 |                 0 |              15 |                   656 |                    0 |                 41 |          1206 |                9 |         4915981 |                     0 |     783853406 | 2017-02-03 18:53:18.816171+01

 2017-02-03 20:10:54.270322+01 | 1486149054.27032 |                 0 |              15 |                   656 |                    0 |                 41 |          1206 |                9 |         4915981 |                     0 |     783944087 | 2017-02-03 18:53:18.816171+01

 2017-02-03 20:10:55.352353+01 | 1486149055.35235 |                 0 |              15 |                   656 |                    0 |                 41 |          1206 |                9 |         4915981 |                     0 |     784035978 | 2017-02-03 18:53:18.816171+01

 2017-02-03 20:10:56.430735+01 | 1486149056.43074 |                 0 |              15 |                   656 |                    0 |                 41 |          1206 |                9 |         4915981 |                     0 |     784143771 | 2017-02-03 18:53:18.816171+01

 2017-02-03 20:10:57.513849+01 | 1486149057.51385 |                 0 |              15 |                   656 |                    0 |                 41 |          1206 |                9 |         4915981 |                     0 |     784236597 | 2017-02-03 18:53:18.816171+01

 2017-02-03 20:10:58.591765+01 | 1486149058.59176 |                 0 |              15 |                   656 |                    0 |                 41 |          1206 |                9 |         4915981 |                     0 |     784330116 | 2017-02-03 18:53:18.816171+01

 2017-02-03 20:10:59.676749+01 | 1486149059.67675 |                 0 |              15 |                   656 |                    0 |                 41 |          1206 |                9 |         4915981 |                     0 |     784441552 | 2017-02-03 18:53:18.816171+01

 2017-02-03 20:11:00.755583+01 | 1486149060.75558 |                 0 |              15 |                   656 |                    0 |                 41 |          1206 |                9 |         4915981 |                     0 |     784530308 | 2017-02-03 18:53:18.816171+01

 2017-02-03 20:11:01.848428+01 | 1486149061.84843 |                 0 |              15 |                   656 |                    0 |                 41 |          1206 |                9 |         4915981 |                     0 |     784619669 | 2017-02-03 18:53:18.816171+01

 2017-02-03 20:11:02.931158+01 | 1486149062.93116 |                 0 |              15 |                   656 |                    0 |                 41 |          1206 |                9 |         4915981 |                     0 |     784727784 | 2017-02-03 18:53:18.816171+01

 2017-02-03 20:11:04.003075+01 | 1486149064.00307 |                 0 |              15 |                   656 |                    0 |                 41 |          1206 |                9 |         4915981 |                     0 |     784818208 | 2017-02-03 18:53:18.816171+01

 2017-02-03 20:11:05.077854+01 | 1486149065.07785 |                 0 |              15 |                   656 |                    0 |                 41 |          1206 |                9 |         4915981 |                     0 |     784906862 | 2017-02-03 18:53:18.816171+01

 2017-02-03 20:11:06.161551+01 | 1486149066.16155 |                 0 |              15 |                   656 |                    0 |                 41 |          1206 |                9 |         4915981 |                     0 |     785013088 | 2017-02-03 18:53:18.816171+01

 2017-02-03 20:11:07.239517+01 | 1486149067.23952 |                 0 |              15 |                   656 |                    0 |                 41 |          1206 |                9 |         4915981 |                     0 |     785105624 | 2017-02-03 18:53:18.816171+01

 2017-02-03 20:11:08.309888+01 | 1486149068.30989 |                 0 |              15 |                   656 |                    0 |                 41 |          1206 |                9 |         4915981 |                     0 |     785195695 | 2017-02-03 18:53:18.816171+01

 2017-02-03 20:11:09.38433+01 | 1486149069.38433 |                 0 |              15 |                   656 |                    0 |                 41 |          1206 |                9 |         4915981 |                     0 |     785304348 | 2017-02-03 18:53:18.816171+01

 2017-02-03 20:11:10.462269+01 | 1486149070.46227 |                 0 |              15 |                   656 |                    0 |                 41 |          1206 |                9 |         4915981 |                     0 |     785394774 | 2017-02-03 18:53:18.816171+01

 2017-02-03 20:11:11.540983+01 | 1486149071.54098 |                 0 |              15 |                   656 |                    0 |                 41 |          1206 |                9 |         4915981 |                     0 |     785484289 | 2017-02-03 18:53:18.816171+01

 2017-02-03 20:11:12.619156+01 | 1486149072.61916 |                 0 |              15 |                   656 |                    0 |                 41 |          1206 |                9 |         4915981 |                     0 |     785590470 | 2017-02-03 18:53:18.816171+01

 2017-02-03 20:11:13.701139+01 | 1486149073.70114 |                 0 |              15 |                   656 |                    0 |                 41 |          1206 |                9 |         4915981 |                     0 |     785683073 | 2017-02-03 18:53:18.816171+01

 2017-02-03 20:11:14.779301+01 | 1486149074.7793 |                 0 |              15 |                   656 |                    0 |                 41 |          1206 |                9 |         4915981 |                     0 |     785777325 | 2017-02-03 18:53:18.816171+01

 2017-02-03 20:11:15.856294+01 | 1486149075.85629 |                 0 |              15 |                   656 |                    0 |                 41 |          1206 |                9 |         4915981 |                     0 |     785882789 | 2017-02-03 18:53:18.816171+01

 2017-02-03 20:11:16.925147+01 | 1486149076.92515 |                 0 |              15 |                   656 |                    0 |                 41 |          1206 |                9 |         4915981 |                     0 |     785975537 | 2017-02-03 18:53:18.816171+01

 2017-02-03 20:11:18.003947+01 | 1486149078.00395 |                 0 |              15 |                   656 |                    0 |                 41 |          1206 |                9 |         4915981 |                     0 |     786066693 | 2017-02-03 18:53:18.816171+01

 2017-02-03 20:11:19.075333+01 | 1486149079.07533 |                 0 |              15 |                   656 |                    0 |                 41 |          1206 |                9 |         4915981 |                     0 |     786155949 | 2017-02-03 18:53:18.816171+01

 2017-02-03 20:11:20.162891+01 | 1486149080.16289 |                 0 |              15 |                   656 |                    0 |                 41 |          1206 |                9 |         4915981 |                     0 |     786264084 | 2017-02-03 18:53:18.816171+01

 2017-02-03 20:11:21.242677+01 | 1486149081.24268 |                 0 |              15 |                   656 |                    0 |                 41 |          1206 |                9 |         4915981 |                     0 |     786352999 | 2017-02-03 18:53:18.816171+01

 2017-02-03 20:11:22.319038+01 | 1486149082.31904 |                 0 |              15 |                   656 |                    0 |                 41 |          1206 |                9 |         4915981 |                     0 |     786443177 | 2017-02-03 18:53:18.816171+01

 2017-02-03 20:11:23.404043+01 | 1486149083.40404 |                 0 |              15 |                   656 |                    0 |                 41 |          1206 |                9 |         4915981 |                     0 |     786553266 | 2017-02-03 18:53:18.816171+01

 2017-02-03 20:11:24.479199+01 | 1486149084.4792 |                 0 |              15 |                   656 |                    0 |                 41 |          1206 |                9 |         4915981 |                     0 |     786642284 | 2017-02-03 18:53:18.816171+01

 2017-02-03 20:11:25.566996+01 | 1486149085.567 |                 0 |              15 |                   656 |                    0 |                 41 |          1206 |                9 |         4915981 |                     0 |     786734831 | 2017-02-03 18:53:18.816171+01

 2017-02-03 20:11:26.650219+01 | 1486149086.65022 |                 0 |              15 |                   656 |                    0 |                 41 |          1206 |                9 |         4915981 |                     0 |     786844750 | 2017-02-03 18:53:18.816171+01

 2017-02-03 20:11:27.737183+01 | 1486149087.73718 |                 0 |              15 |                   656 |                    0 |                 41 |          1206 |                9 |         4915981 |                     0 |     786934045 | 2017-02-03 18:53:18.816171+01

 2017-02-03 20:11:28.830323+01 | 1486149088.83032 |                 0 |              15 |                   656 |                    0 |                 41 |          1206 |                9 |         4915981 |                     0 |     787023733 | 2017-02-03 18:53:18.816171+01

 2017-02-03 20:11:29.919892+01 | 1486149089.91989 |                 0 |              15 |                   656 |                    0 |                 41 |          1206 |                9 |         4915981 |                     0 |     787134531 | 2017-02-03 18:53:18.816171+01

 2017-02-03 20:11:30.992058+01 | 1486149090.99206 |                 0 |              15 |                   656 |                    0 |                 41 |          1206 |                9 |         4915981 |                     0 |     787225089 | 2017-02-03 18:53:18.816171+01

 2017-02-03 20:11:32.071192+01 | 1486149092.07119 |                 0 |              15 |                   656 |                    0 |                 41 |          1206 |                9 |         4915981 |                     0 |     787315060 | 2017-02-03 18:53:18.816171+01

 2017-02-03 20:11:33.155404+01 | 1486149093.1554 |                 0 |              15 |                   656 |                    0 |                 41 |          1206 |                9 |         4915981 |                     0 |     787423311 | 2017-02-03 18:53:18.816171+01

 2017-02-03 20:11:34.234782+01 | 1486149094.23478 |                 0 |              15 |                   656 |                    0 |                 41 |          1206 |                9 |         4915981 |                     0 |     787516331 | 2017-02-03 18:53:18.816171+01

 2017-02-03 20:11:35.307272+01 | 1486149095.30727 |                 0 |              15 |                   656 |                    0 |                 41 |          1206 |                9 |         4915981 |                     0 |     787603372 | 2017-02-03 18:53:18.816171+01

 2017-02-03 20:11:36.38143+01 | 1486149096.38143 |                 0 |              15 |                   656 |                    0 |                 41 |          1206 |                9 |         4915981 |                     0 |     787713398 | 2017-02-03 18:53:18.816171+01

 2017-02-03 20:11:37.47076+01 | 1486149097.47076 |                 0 |              15 |                   656 |                    0 |                 41 |          1206 |                9 |         4915981 |                     0 |     787804878 | 2017-02-03 18:53:18.816171+01

 2017-02-03 20:11:38.547069+01 | 1486149098.54707 |                 0 |              15 |                   656 |                    0 |                 41 |          1206 |                9 |         4915981 |                     0 |     787892924 | 2017-02-03 18:53:18.816171+01

 2017-02-03 20:11:39.620495+01 | 1486149099.6205 |                 0 |              15 |                   656 |                    0 |                 41 |          1206 |                9 |         4915981 |                     0 |     787999765 | 2017-02-03 18:53:18.816171+01

 2017-02-03 20:11:40.711686+01 | 1486149100.71169 |                 0 |              15 |                   656 |                    0 |                 41 |          1206 |                9 |         4915981 |                     0 |     788085907 | 2017-02-03 18:53:18.816171+01

 2017-02-03 20:11:41.787288+01 | 1486149101.78729 |                 0 |              15 |                   656 |                    0 |                 41 |          1206 |                9 |         4915981 |                     0 |     788176070 | 2017-02-03 18:53:18.816171+01

 2017-02-03 20:11:42.870838+01 | 1486149102.87084 |                 0 |              15 |                   656 |                    0 |                 41 |          1206 |                9 |         4915981 |                     0 |     788285352 | 2017-02-03 18:53:18.816171+01

 2017-02-03 20:11:43.950551+01 | 1486149103.95055 |                 0 |              15 |                   656 |                    0 |                 41 |          1206 |                9 |         4915981 |                     0 |     788372896 | 2017-02-03 18:53:18.816171+01

 2017-02-03 20:11:45.037635+01 | 1486149105.03764 |                 0 |              15 |                   656 |                    0 |                 41 |          1206 |                9 |         4915981 |                     0 |     788463309 | 2017-02-03 18:53:18.816171+01

 2017-02-03 20:11:46.112187+01 | 1486149106.11219 |                 0 |              15 |                   656 |                    0 |                 41 |          1206 |                9 |         4915981 |                     0 |     788571156 | 2017-02-03 18:53:18.816171+01

 2017-02-03 20:11:47.181158+01 | 1486149107.18116 |                 0 |              15 |                   656 |                    0 |                 41 |          1206 |                9 |         4915981 |                     0 |     788662670 | 2017-02-03 18:53:18.816171+01

 2017-02-03 20:11:48.259549+01 | 1486149108.25955 |                 0 |              15 |                   656 |                    0 |                 41 |          1206 |                9 |         4915981 |                     0 |     788753886 | 2017-02-03 18:53:18.816171+01

 2017-02-03 20:11:49.336044+01 | 1486149109.33604 |                 0 |              15 |                   656 |                    0 |                 41 |          1206 |                9 |         4915981 |                     0 |     788862788 | 2017-02-03 18:53:18.816171+01

 2017-02-03 20:11:50.411365+01 | 1486149110.41137 |                 0 |              15 |                   656 |                    0 |                 41 |          1206 |                9 |         4915981 |                     0 |     788954363 | 2017-02-03 18:53:18.816171+01

 2017-02-03 20:11:51.479644+01 | 1486149111.47964 |                 0 |              15 |                   656 |                    0 |                 41 |          1206 |                9 |         4915981 |                     0 |     789031030 | 2017-02-03 18:53:18.816171+01

 2017-02-03 20:11:52.564181+01 | 1486149112.56418 |                 0 |              15 |                   656 |                    0 |                 41 |          1206 |                9 |         4915981 |                     0 |     789156251 | 2017-02-03 18:53:18.816171+01

 2017-02-03 20:11:53.646051+01 | 1486149113.64605 |                 0 |              15 |                   656 |                    0 |                 41 |          1206 |                9 |         4915981 |                     0 |     789246962 | 2017-02-03 18:53:18.816171+01

 2017-02-03 20:11:54.732399+01 | 1486149114.7324 |                 0 |              15 |                   656 |                    0 |                 41 |          1206 |                9 |         4915981 |                     0 |     789335966 | 2017-02-03 18:53:18.816171+01

 2017-02-03 20:11:55.818464+01 | 1486149115.81846 |                 0 |              15 |                   656 |                    0 |                 41 |          1206 |                9 |         4915981 |                     0 |     789444313 | 2017-02-03 18:53:18.816171+01

 2017-02-03 20:11:56.887792+01 | 1486149116.88779 |                 0 |              15 |                   656 |                    0 |                 41 |          1206 |                9 |         4915981 |                     0 |     789535679 | 2017-02-03 18:53:18.816171+01

 2017-02-03 20:11:57.968153+01 | 1486149117.96815 |                 0 |              15 |                   656 |                    0 |                 41 |          1206 |                9 |         4915981 |                     0 |     789627929 | 2017-02-03 18:53:18.816171+01

 2017-02-03 20:11:59.05269+01 | 1486149119.05269 |                 0 |              15 |                   656 |                    0 |                 41 |          1206 |                9 |         4915981 |                     0 |     789737881 | 2017-02-03 18:53:18.816171+01

 2017-02-03 20:12:00.132146+01 | 1486149120.13215 |                 0 |              15 |                   656 |                    0 |                 41 |          1206 |                9 |         4915981 |                     0 |     789827151 | 2017-02-03 18:53:18.816171+01

 2017-02-03 20:12:01.205303+01 | 1486149121.2053 |                 0 |              15 |                   656 |                    0 |                 41 |          1206 |                9 |         4915981 |                     0 |     789919349 | 2017-02-03 18:53:18.816171+01

 2017-02-03 20:12:02.282299+01 | 1486149122.2823 |                 0 |              15 |                   656 |                    0 |                 41 |          1206 |                9 |         4915981 |                     0 |     790028760 | 2017-02-03 18:53:18.816171+01

 2017-02-03 20:12:03.368347+01 | 1486149123.36835 |                 0 |              15 |                   656 |                    0 |                 41 |          1206 |                9 |         4915981 |                     0 |     790119270 | 2017-02-03 18:53:18.816171+01

 2017-02-03 20:12:04.451549+01 | 1486149124.45155 |                 0 |              15 |                   656 |                    0 |                 41 |          1206 |                9 |         4915981 |                     0 |     790209616 | 2017-02-03 18:53:18.816171+01

 2017-02-03 20:12:05.531162+01 | 1486149125.53116 |                 0 |              15 |                   656 |                    0 |                 41 |          1206 |                9 |         4915981 |                     0 |     790319711 | 2017-02-03 18:53:18.816171+01

