 2017-02-03 18:12:49.322648+01 | 1486141969.32265 |                 0 |              25 |                   709 |                    4 |               2291 |             0 |                0 |          487893 |                     0 |        191842 | 2017-02-03 16:12:20.928298+01

 2017-02-03 18:12:50.408407+01 | 1486141970.40841 |                 0 |              25 |                   709 |                    4 |               2291 |             0 |                0 |          487893 |                     0 |        191842 | 2017-02-03 16:12:20.928298+01

 2017-02-03 18:12:51.49398+01 | 1486141971.49398 |                 0 |              25 |                   709 |                    4 |               2291 |             0 |                0 |          487893 |                     0 |        191842 | 2017-02-03 16:12:20.928298+01

 2017-02-03 18:12:52.589051+01 | 1486141972.58905 |                 0 |              25 |                   709 |                    4 |               2291 |             0 |                0 |          487893 |                     0 |        191842 | 2017-02-03 16:12:20.928298+01

 2017-02-03 18:12:53.684179+01 | 1486141973.68418 |                 0 |              25 |                   709 |                    4 |               2291 |             0 |                0 |          487893 |                     0 |        191842 | 2017-02-03 16:12:20.928298+01

 2017-02-03 18:12:54.79832+01 | 1486141974.79832 |                 0 |              25 |                   709 |                    4 |               2291 |             0 |                0 |          487893 |                     0 |        191842 | 2017-02-03 16:12:20.928298+01

 2017-02-03 18:12:55.882951+01 | 1486141975.88295 |                 0 |              25 |                   709 |                    4 |               2291 |             0 |                0 |          487893 |                     0 |        191842 | 2017-02-03 16:12:20.928298+01

 2017-02-03 18:12:56.988006+01 | 1486141976.98801 |                 0 |              25 |                   709 |                    4 |               2291 |             0 |                0 |          487893 |                     0 |        191842 | 2017-02-03 16:12:20.928298+01

 2017-02-03 18:12:58.106411+01 | 1486141978.10641 |                 0 |              25 |                   709 |                    4 |               2291 |             0 |                0 |          487893 |                     0 |        191842 | 2017-02-03 16:12:20.928298+01

 2017-02-03 18:12:59.211265+01 | 1486141979.21127 |                 0 |              25 |                   709 |                    4 |               2291 |             0 |                0 |          487893 |                     0 |        191842 | 2017-02-03 16:12:20.928298+01

 2017-02-03 18:13:00.303173+01 | 1486141980.30317 |                 0 |              25 |                   709 |                    4 |               2291 |             0 |                0 |          487893 |                     0 |        191842 | 2017-02-03 16:12:20.928298+01

 2017-02-03 18:13:01.395439+01 | 1486141981.39544 |                 0 |              25 |                   709 |                    4 |               2291 |             0 |                0 |          487893 |                     0 |        191842 | 2017-02-03 16:12:20.928298+01

 2017-02-03 18:13:02.476893+01 | 1486141982.47689 |                 0 |              25 |                   709 |                    4 |               2291 |             0 |                0 |          487893 |                     0 |        191842 | 2017-02-03 16:12:20.928298+01

 2017-02-03 18:13:03.569776+01 | 1486141983.56978 |                 0 |              25 |                   709 |                    4 |               2291 |             0 |                0 |          487893 |                     0 |        191842 | 2017-02-03 16:12:20.928298+01

 2017-02-03 18:13:04.658596+01 | 1486141984.6586 |                 0 |              25 |                   709 |                    4 |               2291 |             0 |                0 |          487893 |                     0 |        191842 | 2017-02-03 16:12:20.928298+01

 2017-02-03 18:13:05.769853+01 | 1486141985.76985 |                 0 |              25 |                   709 |                    4 |               2291 |             0 |                0 |          487893 |                     0 |        191842 | 2017-02-03 16:12:20.928298+01

 2017-02-03 18:13:06.873205+01 | 1486141986.8732 |                 0 |              25 |                   709 |                    4 |               2291 |             0 |                0 |          487893 |                     0 |        191842 | 2017-02-03 16:12:20.928298+01

 2017-02-03 18:13:07.991576+01 | 1486141987.99158 |                 0 |              25 |                   709 |                    4 |               2291 |             0 |                0 |          487893 |                     0 |        191842 | 2017-02-03 16:12:20.928298+01

 2017-02-03 18:13:09.096702+01 | 1486141989.0967 |                 0 |              25 |                   709 |                    4 |               2291 |             0 |                0 |          487893 |                     0 |        191842 | 2017-02-03 16:12:20.928298+01

 2017-02-03 18:13:10.213394+01 | 1486141990.21339 |                 0 |              25 |                   709 |                    4 |               2291 |             0 |                0 |          487893 |                     0 |        191842 | 2017-02-03 16:12:20.928298+01

 2017-02-03 18:13:11.311425+01 | 1486141991.31142 |                 0 |              25 |                   709 |                    4 |               2291 |             0 |                0 |          487893 |                     0 |        191842 | 2017-02-03 16:12:20.928298+01

 2017-02-03 18:13:12.393196+01 | 1486141992.3932 |                 0 |              25 |                   709 |                    4 |               2291 |             0 |                0 |          487893 |                     0 |        191842 | 2017-02-03 16:12:20.928298+01

 2017-02-03 18:13:13.479666+01 | 1486141993.47967 |                 0 |              25 |                   709 |                    4 |               2291 |             0 |                0 |          487893 |                     0 |        191842 | 2017-02-03 16:12:20.928298+01

 2017-02-03 18:13:14.575152+01 | 1486141994.57515 |                 0 |              25 |                   709 |                    4 |               2291 |             0 |                0 |          487893 |                     0 |        191842 | 2017-02-03 16:12:20.928298+01

 2017-02-03 18:13:15.674476+01 | 1486141995.67448 |                 0 |              25 |                   709 |                    4 |               2291 |             0 |                0 |          487893 |                     0 |        191842 | 2017-02-03 16:12:20.928298+01

 2017-02-03 18:13:16.782963+01 | 1486141996.78296 |                 0 |              25 |                   709 |                    4 |               2291 |             0 |                0 |          487893 |                     0 |        191842 | 2017-02-03 16:12:20.928298+01

 2017-02-03 18:13:17.939861+01 | 1486141997.93986 |                 0 |              25 |                   709 |                    4 |               2291 |             0 |                0 |          487893 |                     0 |        191842 | 2017-02-03 16:12:20.928298+01

 2017-02-03 18:13:19.042019+01 | 1486141999.04202 |                 0 |              25 |                   709 |                    4 |               2291 |             0 |                0 |          487893 |                     0 |        191842 | 2017-02-03 16:12:20.928298+01

 2017-02-03 18:13:20.137833+01 | 1486142000.13783 |                 0 |              25 |                   709 |                    4 |               2291 |             0 |                0 |          487893 |                     0 |        191842 | 2017-02-03 16:12:20.928298+01

 2017-02-03 18:13:21.229492+01 | 1486142001.22949 |                 0 |              25 |                   709 |                    4 |               2291 |             0 |                0 |          487893 |                     0 |        191842 | 2017-02-03 16:12:20.928298+01

 2017-02-03 18:13:22.323325+01 | 1486142002.32332 |                 0 |              25 |                   709 |                    4 |               2291 |             0 |                0 |          487893 |                     0 |        191842 | 2017-02-03 16:12:20.928298+01

 2017-02-03 18:13:23.410993+01 | 1486142003.41099 |                 0 |              25 |                   709 |                    4 |               2291 |             0 |                0 |          487893 |                     0 |        191842 | 2017-02-03 16:12:20.928298+01

 2017-02-03 18:13:24.495154+01 | 1486142004.49515 |                 0 |              25 |                   709 |                    4 |               2291 |             0 |                0 |          487893 |                     0 |        191842 | 2017-02-03 16:12:20.928298+01

 2017-02-03 18:13:25.581218+01 | 1486142005.58122 |                 0 |              25 |                   709 |                    4 |               2291 |             0 |                0 |          487893 |                     0 |        191842 | 2017-02-03 16:12:20.928298+01

 2017-02-03 18:13:26.670108+01 | 1486142006.67011 |                 0 |              25 |                   709 |                    4 |               2291 |             0 |                0 |          487893 |                     0 |        191842 | 2017-02-03 16:12:20.928298+01

 2017-02-03 18:13:27.756827+01 | 1486142007.75683 |                 0 |              25 |                   709 |                    4 |               2291 |             0 |                0 |          487893 |                     0 |        191842 | 2017-02-03 16:12:20.928298+01

 2017-02-03 18:13:28.870642+01 | 1486142008.87064 |                 0 |              25 |                   709 |                    4 |               2291 |             0 |                0 |          487893 |                     0 |        191842 | 2017-02-03 16:12:20.928298+01

 2017-02-03 18:13:29.980631+01 | 1486142009.98063 |                 0 |              25 |                   709 |                    4 |               2291 |             0 |                0 |          487893 |                     0 |        191842 | 2017-02-03 16:12:20.928298+01

 2017-02-03 18:13:31.084906+01 | 1486142011.08491 |                 0 |              25 |                   709 |                    4 |               2291 |             0 |                0 |          487893 |                     0 |        191842 | 2017-02-03 16:12:20.928298+01

 2017-02-03 18:13:32.193445+01 | 1486142012.19344 |                 0 |              25 |                   709 |                    4 |               2291 |             0 |                0 |          487893 |                     0 |        191842 | 2017-02-03 16:12:20.928298+01

 2017-02-03 18:13:33.300847+01 | 1486142013.30085 |                 0 |              25 |                   709 |                    4 |               2291 |             0 |                0 |          487893 |                     0 |        191842 | 2017-02-03 16:12:20.928298+01

 2017-02-03 18:13:34.40077+01 | 1486142014.40077 |                 0 |              25 |                   709 |                    4 |               2291 |             0 |                0 |          487893 |                     0 |        191842 | 2017-02-03 16:12:20.928298+01

 2017-02-03 18:13:35.486975+01 | 1486142015.48697 |                 0 |              25 |                   709 |                    4 |               2291 |             0 |                0 |          487893 |                     0 |        191842 | 2017-02-03 16:12:20.928298+01

 2017-02-03 18:13:36.573236+01 | 1486142016.57324 |                 0 |              25 |                   709 |                    4 |               2291 |             0 |                0 |          487893 |                     0 |        191842 | 2017-02-03 16:12:20.928298+01

 2017-02-03 18:13:37.652529+01 | 1486142017.65253 |                 0 |              25 |                   709 |                    4 |               2291 |             0 |                0 |          487893 |                     0 |        191842 | 2017-02-03 16:12:20.928298+01

 2017-02-03 18:13:38.749867+01 | 1486142018.74987 |                 0 |              25 |                   709 |                    4 |               2291 |             0 |                0 |          487893 |                     0 |        191842 | 2017-02-03 16:12:20.928298+01

 2017-02-03 18:13:39.839653+01 | 1486142019.83965 |                 0 |              25 |                   709 |                    4 |               2291 |             0 |                0 |          487893 |                     0 |        191842 | 2017-02-03 16:12:20.928298+01

 2017-02-03 18:13:40.946825+01 | 1486142020.94683 |                 0 |              25 |                   709 |                    4 |               2291 |             0 |                0 |          487893 |                     0 |        191842 | 2017-02-03 16:12:20.928298+01

 2017-02-03 18:13:42.047185+01 | 1486142022.04718 |                 0 |              25 |                   709 |                    4 |               2291 |             0 |                0 |          487893 |                     0 |        191842 | 2017-02-03 16:12:20.928298+01

 2017-02-03 18:13:43.159916+01 | 1486142023.15992 |                 0 |              25 |                   709 |                    4 |               2291 |             0 |                0 |          487893 |                     0 |        191842 | 2017-02-03 16:12:20.928298+01

 2017-02-03 18:13:44.268675+01 | 1486142024.26868 |                 0 |              25 |                   709 |                    4 |               2291 |             0 |                0 |          487893 |                     0 |        191842 | 2017-02-03 16:12:20.928298+01

 2017-02-03 18:13:45.398557+01 | 1486142025.39856 |                 0 |              25 |                   709 |                    4 |               2291 |             0 |                0 |          487893 |                     0 |        191842 | 2017-02-03 16:12:20.928298+01

 2017-02-03 18:13:46.491442+01 | 1486142026.49144 |                 0 |              25 |                   709 |                    4 |               2291 |             0 |                0 |          487893 |                     0 |        191842 | 2017-02-03 16:12:20.928298+01

 2017-02-03 18:13:47.576262+01 | 1486142027.57626 |                 0 |              25 |                   709 |                    4 |               2291 |             0 |                0 |          487893 |                     0 |        191842 | 2017-02-03 16:12:20.928298+01

 2017-02-03 18:13:48.661209+01 | 1486142028.66121 |                 0 |              25 |                   709 |                    4 |               2291 |             0 |                0 |          487893 |                     0 |        191842 | 2017-02-03 16:12:20.928298+01

 2017-02-03 18:13:49.753456+01 | 1486142029.75346 |                 0 |              25 |                   709 |                    4 |               2291 |             0 |                0 |          487893 |                     0 |        191842 | 2017-02-03 16:12:20.928298+01

 2017-02-03 18:13:50.853354+01 | 1486142030.85335 |                 0 |              25 |                   709 |                    4 |               2291 |             0 |                0 |          487893 |                     0 |        191842 | 2017-02-03 16:12:20.928298+01

 2017-02-03 18:13:51.971331+01 | 1486142031.97133 |                 0 |              25 |                   709 |                    4 |               2291 |             0 |                0 |          487893 |                     0 |        191842 | 2017-02-03 16:12:20.928298+01

 2017-02-03 18:13:53.066234+01 | 1486142033.06623 |                 0 |              25 |                   709 |                    4 |               2291 |             0 |                0 |          487893 |                     0 |        191842 | 2017-02-03 16:12:20.928298+01

 2017-02-03 18:13:54.18647+01 | 1486142034.18647 |                 0 |              25 |                   709 |                    4 |               2291 |             0 |                0 |          487893 |                     0 |        191842 | 2017-02-03 16:12:20.928298+01

 2017-02-03 18:13:55.28298+01 | 1486142035.28298 |                 0 |              25 |                   709 |                    4 |               2291 |             0 |                0 |          487893 |                     0 |        191842 | 2017-02-03 16:12:20.928298+01

 2017-02-03 18:13:56.387826+01 | 1486142036.38783 |                 0 |              25 |                   709 |                    4 |               2291 |             0 |                0 |          487893 |                     0 |        191842 | 2017-02-03 16:12:20.928298+01

 2017-02-03 18:13:57.477402+01 | 1486142037.4774 |                 0 |              25 |                   709 |                    4 |               2291 |             0 |                0 |          487893 |                     0 |        191842 | 2017-02-03 16:12:20.928298+01

 2017-02-03 18:13:58.568181+01 | 1486142038.56818 |                 0 |              25 |                   709 |                    4 |               2291 |             0 |                0 |          487893 |                     0 |        191842 | 2017-02-03 16:12:20.928298+01

 2017-02-03 18:13:59.659036+01 | 1486142039.65904 |                 0 |              25 |                   709 |                    4 |               2291 |             0 |                0 |          487893 |                     0 |        191842 | 2017-02-03 16:12:20.928298+01

 2017-02-03 18:14:00.742744+01 | 1486142040.74274 |                 0 |              25 |                   709 |                    4 |               2291 |             0 |                0 |          487893 |                     0 |        191842 | 2017-02-03 16:12:20.928298+01

 2017-02-03 18:14:01.830306+01 | 1486142041.83031 |                 0 |              25 |                   709 |                    4 |               2291 |             0 |                0 |          487893 |                     0 |        191842 | 2017-02-03 16:12:20.928298+01

 2017-02-03 18:14:02.922952+01 | 1486142042.92295 |                 0 |              25 |                   709 |                    4 |               2291 |             0 |                0 |          487893 |                     0 |        191842 | 2017-02-03 16:12:20.928298+01

 2017-02-03 18:14:04.013864+01 | 1486142044.01386 |                 0 |              25 |                   709 |                    4 |               2291 |             0 |                0 |          487893 |                     0 |        191842 | 2017-02-03 16:12:20.928298+01

 2017-02-03 18:14:05.097961+01 | 1486142045.09796 |                 0 |              25 |                   709 |                    4 |               2291 |             0 |                0 |          487893 |                     0 |        191842 | 2017-02-03 16:12:20.928298+01

 2017-02-03 18:14:06.190593+01 | 1486142046.19059 |                 0 |              25 |                   709 |                    4 |               2291 |             0 |                0 |          487893 |                     0 |        191842 | 2017-02-03 16:12:20.928298+01

 2017-02-03 18:14:07.281437+01 | 1486142047.28144 |                 0 |              25 |                   709 |                    4 |               2291 |             0 |                0 |          487893 |                     0 |        191842 | 2017-02-03 16:12:20.928298+01

 2017-02-03 18:14:08.393098+01 | 1486142048.3931 |                 0 |              25 |                   709 |                    4 |               2291 |             0 |                0 |          487893 |                     0 |        191842 | 2017-02-03 16:12:20.928298+01

 2017-02-03 18:14:09.525716+01 | 1486142049.52572 |                 0 |              25 |                   709 |                    4 |               2291 |             0 |                0 |          487893 |                     0 |        191842 | 2017-02-03 16:12:20.928298+01

 2017-02-03 18:14:10.622611+01 | 1486142050.62261 |                 0 |              25 |                   709 |                    4 |               2291 |             0 |                0 |          487893 |                     0 |        191842 | 2017-02-03 16:12:20.928298+01

 2017-02-03 18:14:11.708107+01 | 1486142051.70811 |                 0 |              25 |                   709 |                    4 |               2291 |             0 |                0 |          487893 |                     0 |        191842 | 2017-02-03 16:12:20.928298+01

 2017-02-03 18:14:12.792331+01 | 1486142052.79233 |                 0 |              25 |                   709 |                    4 |               2291 |             0 |                0 |          487893 |                     0 |        191842 | 2017-02-03 16:12:20.928298+01

 2017-02-03 18:14:13.889122+01 | 1486142053.88912 |                 0 |              25 |                   709 |                    4 |               2291 |             0 |                0 |          487893 |                     0 |        191842 | 2017-02-03 16:12:20.928298+01

 2017-02-03 18:14:14.995463+01 | 1486142054.99546 |                 0 |              25 |                   709 |                    4 |               2291 |             0 |                0 |          487893 |                     0 |        191842 | 2017-02-03 16:12:20.928298+01

 2017-02-03 18:14:16.087505+01 | 1486142056.08751 |                 0 |              25 |                   709 |                    4 |               2291 |             0 |                0 |          487893 |                     0 |        191842 | 2017-02-03 16:12:20.928298+01

 2017-02-03 18:14:17.178087+01 | 1486142057.17809 |                 0 |              25 |                   709 |                    4 |               2291 |             0 |                0 |          487893 |                     0 |        191842 | 2017-02-03 16:12:20.928298+01

 2017-02-03 18:14:18.273102+01 | 1486142058.2731 |                 0 |              25 |                   709 |                    4 |               2291 |             0 |                0 |          487893 |                     0 |        191842 | 2017-02-03 16:12:20.928298+01

 2017-02-03 18:14:19.367949+01 | 1486142059.36795 |                 0 |              25 |                   709 |                    4 |               2291 |             0 |                0 |          487893 |                     0 |        191842 | 2017-02-03 16:12:20.928298+01

 2017-02-03 18:14:20.4628+01 | 1486142060.4628 |                 0 |              25 |                   709 |                    4 |               2291 |             0 |                0 |          487893 |                     0 |        191842 | 2017-02-03 16:12:20.928298+01

 2017-02-03 18:14:21.577385+01 | 1486142061.57738 |                 0 |              25 |                   709 |                    4 |               2291 |             0 |                0 |          487893 |                     0 |        191842 | 2017-02-03 16:12:20.928298+01

 2017-02-03 18:14:22.678176+01 | 1486142062.67818 |                 0 |              25 |                   709 |                    4 |               2291 |             0 |                0 |          487893 |                     0 |        191842 | 2017-02-03 16:12:20.928298+01

 2017-02-03 18:14:23.764777+01 | 1486142063.76478 |                 0 |              25 |                   709 |                    4 |               2291 |             0 |                0 |          487893 |                     0 |        191842 | 2017-02-03 16:12:20.928298+01

 2017-02-03 18:14:24.851609+01 | 1486142064.85161 |                 0 |              25 |                   709 |                    4 |               2291 |             0 |                0 |          487893 |                     0 |        191842 | 2017-02-03 16:12:20.928298+01

 2017-02-03 18:14:25.944232+01 | 1486142065.94423 |                 0 |              25 |                   709 |                    4 |               2291 |             0 |                0 |          487893 |                     0 |        191842 | 2017-02-03 16:12:20.928298+01

 2017-02-03 18:14:27.042682+01 | 1486142067.04268 |                 0 |              25 |                   709 |                    4 |               2291 |             0 |                0 |          487893 |                     0 |        191842 | 2017-02-03 16:12:20.928298+01

 2017-02-03 18:14:28.135351+01 | 1486142068.13535 |                 0 |              25 |                   709 |                    4 |               2291 |             0 |                0 |          487893 |                     0 |        191842 | 2017-02-03 16:12:20.928298+01

 2017-02-03 18:14:29.238737+01 | 1486142069.23874 |                 0 |              25 |                   709 |                    4 |               2291 |             0 |                0 |          487893 |                     0 |        191842 | 2017-02-03 16:12:20.928298+01

 2017-02-03 18:14:30.342975+01 | 1486142070.34297 |                 0 |              25 |                   709 |                    4 |               2291 |             0 |                0 |          487893 |                     0 |        191842 | 2017-02-03 16:12:20.928298+01

 2017-02-03 18:14:31.451955+01 | 1486142071.45196 |                 0 |              25 |                   709 |                    4 |               2291 |             0 |                0 |          487893 |                     0 |        191842 | 2017-02-03 16:12:20.928298+01

 2017-02-03 18:14:32.549871+01 | 1486142072.54987 |                 0 |              25 |                   709 |                    4 |               2291 |             0 |                0 |          487893 |                     0 |        191842 | 2017-02-03 16:12:20.928298+01

 2017-02-03 18:14:33.669325+01 | 1486142073.66933 |                 0 |              25 |                   709 |                    4 |               2291 |             0 |                0 |          487893 |                     0 |        191842 | 2017-02-03 16:12:20.928298+01

 2017-02-03 18:14:34.753466+01 | 1486142074.75347 |                 0 |              25 |                   709 |                    4 |               2291 |             0 |                0 |          487893 |                     0 |        191842 | 2017-02-03 16:12:20.928298+01

 2017-02-03 18:14:35.837333+01 | 1486142075.83733 |                 0 |              25 |                   709 |                    4 |               2291 |             0 |                0 |          487893 |                     0 |        191842 | 2017-02-03 16:12:20.928298+01

 2017-02-03 18:14:36.928117+01 | 1486142076.92812 |                 0 |              25 |                   709 |                    4 |               2291 |             0 |                0 |          487893 |                     0 |        191842 | 2017-02-03 16:12:20.928298+01

 2017-02-03 18:14:38.02049+01 | 1486142078.02049 |                 0 |              25 |                   709 |                    4 |               2291 |             0 |                0 |          487893 |                     0 |        191842 | 2017-02-03 16:12:20.928298+01

 2017-02-03 18:14:39.135334+01 | 1486142079.13533 |                 0 |              25 |                   709 |                    4 |               2291 |             0 |                0 |          487893 |                     0 |        191842 | 2017-02-03 16:12:20.928298+01

 2017-02-03 18:14:40.243657+01 | 1486142080.24366 |                 0 |              25 |                   709 |                    4 |               2291 |             0 |                0 |          487893 |                     0 |        191842 | 2017-02-03 16:12:20.928298+01

 2017-02-03 18:14:41.354569+01 | 1486142081.35457 |                 0 |              25 |                   709 |                    4 |               2291 |             0 |                0 |          487893 |                     0 |        191842 | 2017-02-03 16:12:20.928298+01

 2017-02-03 18:14:42.463156+01 | 1486142082.46316 |                 0 |              25 |                   709 |                    4 |               2291 |             0 |                0 |          487893 |                     0 |        191842 | 2017-02-03 16:12:20.928298+01

 2017-02-03 18:14:43.579131+01 | 1486142083.57913 |                 0 |              25 |                   709 |                    4 |               2291 |             0 |                0 |          487893 |                     0 |        191842 | 2017-02-03 16:12:20.928298+01

 2017-02-03 18:14:44.682991+01 | 1486142084.68299 |                 0 |              25 |                   709 |                    4 |               2291 |             0 |                0 |          487893 |                     0 |        191842 | 2017-02-03 16:12:20.928298+01

 2017-02-03 18:14:45.769887+01 | 1486142085.76989 |                 0 |              25 |                   709 |                    4 |               2291 |             0 |                0 |          487893 |                     0 |        191842 | 2017-02-03 16:12:20.928298+01

 2017-02-03 18:14:46.874324+01 | 1486142086.87432 |                 0 |              25 |                   709 |                    4 |               2291 |             0 |                0 |          487893 |                     0 |        191842 | 2017-02-03 16:12:20.928298+01

 2017-02-03 18:14:47.967683+01 | 1486142087.96768 |                 0 |              25 |                   709 |                    4 |               2291 |             0 |                0 |          487893 |                     0 |        191842 | 2017-02-03 16:12:20.928298+01

 2017-02-03 18:14:49.064973+01 | 1486142089.06497 |                 0 |              25 |                   709 |                    4 |               2291 |             0 |                0 |          487893 |                     0 |        191842 | 2017-02-03 16:12:20.928298+01

 2017-02-03 18:14:50.153081+01 | 1486142090.15308 |                 0 |              25 |                   709 |                    4 |               2291 |             0 |                0 |          487893 |                     0 |        191842 | 2017-02-03 16:12:20.928298+01

 2017-02-03 18:14:51.277169+01 | 1486142091.27717 |                 0 |              25 |                   709 |                    4 |               2291 |             0 |                0 |          487893 |                     0 |        191842 | 2017-02-03 16:12:20.928298+01

 2017-02-03 18:14:52.417583+01 | 1486142092.41758 |                 0 |              25 |                   709 |                    4 |               2291 |             0 |                0 |          487893 |                     0 |        191842 | 2017-02-03 16:12:20.928298+01

 2017-02-03 18:14:53.529599+01 | 1486142093.5296 |                 0 |              25 |                   709 |                    4 |               2291 |             0 |                0 |          487893 |                     0 |        191842 | 2017-02-03 16:12:20.928298+01

 2017-02-03 18:14:54.63911+01 | 1486142094.63911 |                 0 |              25 |                   709 |                    4 |               2291 |             0 |                0 |          487893 |                     0 |        191842 | 2017-02-03 16:12:20.928298+01

 2017-02-03 18:14:55.737382+01 | 1486142095.73738 |                 0 |              25 |                   709 |                    4 |               2291 |             0 |                0 |          487893 |                     0 |        191842 | 2017-02-03 16:12:20.928298+01

 2017-02-03 18:14:56.83411+01 | 1486142096.83411 |                 0 |              25 |                   709 |                    4 |               2291 |             0 |                0 |          487893 |                     0 |        191842 | 2017-02-03 16:12:20.928298+01

 2017-02-03 18:14:57.926111+01 | 1486142097.92611 |                 0 |              25 |                   709 |                    4 |               2291 |             0 |                0 |          487893 |                     0 |        191842 | 2017-02-03 16:12:20.928298+01

 2017-02-03 18:14:59.029381+01 | 1486142099.02938 |                 0 |              25 |                   709 |                    4 |               2291 |             0 |                0 |          487893 |                     0 |        191842 | 2017-02-03 16:12:20.928298+01

 2017-02-03 18:15:00.138536+01 | 1486142100.13854 |                 0 |              25 |                   709 |                    4 |               2291 |             0 |                0 |          487893 |                     0 |        191842 | 2017-02-03 16:12:20.928298+01

 2017-02-03 18:15:01.237055+01 | 1486142101.23706 |                 0 |              25 |                   709 |                    4 |               2291 |             0 |                0 |          487893 |                     0 |        191842 | 2017-02-03 16:12:20.928298+01

 2017-02-03 18:15:02.324735+01 | 1486142102.32473 |                 0 |              25 |                   709 |                    4 |               2291 |             0 |                0 |          487893 |                     0 |        191842 | 2017-02-03 16:12:20.928298+01

 2017-02-03 18:15:03.449076+01 | 1486142103.44908 |                 0 |              25 |                   709 |                    4 |               2291 |             0 |                0 |          487893 |                     0 |        191842 | 2017-02-03 16:12:20.928298+01

 2017-02-03 18:15:04.561567+01 | 1486142104.56157 |                 0 |              25 |                   709 |                    4 |               2291 |             0 |                0 |          487893 |                     0 |        191842 | 2017-02-03 16:12:20.928298+01

 2017-02-03 18:15:05.666728+01 | 1486142105.66673 |                 0 |              25 |                   709 |                    4 |               2291 |             0 |                0 |          487893 |                     0 |        191842 | 2017-02-03 16:12:20.928298+01

 2017-02-03 18:15:06.772005+01 | 1486142106.77201 |                 0 |              25 |                   709 |                    4 |               2291 |             0 |                0 |          487893 |                     0 |        191842 | 2017-02-03 16:12:20.928298+01

 2017-02-03 18:15:07.858736+01 | 1486142107.85874 |                 0 |              25 |                   709 |                    4 |               2291 |             0 |                0 |          487893 |                     0 |        191842 | 2017-02-03 16:12:20.928298+01

 2017-02-03 18:15:08.940985+01 | 1486142108.94098 |                 0 |              25 |                   709 |                    4 |               2291 |             0 |                0 |          487893 |                     0 |        191842 | 2017-02-03 16:12:20.928298+01

 2017-02-03 18:15:10.034056+01 | 1486142110.03406 |                 0 |              25 |                   709 |                    4 |               2291 |             0 |                0 |          487893 |                     0 |        191842 | 2017-02-03 16:12:20.928298+01

 2017-02-03 18:15:11.133374+01 | 1486142111.13337 |                 0 |              25 |                   709 |                    4 |               2291 |             0 |                0 |          487893 |                     0 |        191842 | 2017-02-03 16:12:20.928298+01

 2017-02-03 18:15:12.231313+01 | 1486142112.23131 |                 0 |              25 |                   709 |                    4 |               2291 |             0 |                0 |          487893 |                     0 |        191842 | 2017-02-03 16:12:20.928298+01

 2017-02-03 18:15:13.326242+01 | 1486142113.32624 |                 0 |              25 |                   709 |                    4 |               2291 |             0 |                0 |          487893 |                     0 |        191842 | 2017-02-03 16:12:20.928298+01

 2017-02-03 18:15:14.435668+01 | 1486142114.43567 |                 0 |              25 |                   709 |                    4 |               2291 |             0 |                0 |          487893 |                     0 |        191842 | 2017-02-03 16:12:20.928298+01

 2017-02-03 18:15:15.55623+01 | 1486142115.55623 |                 0 |              25 |                   709 |                    4 |               2291 |             0 |                0 |          487893 |                     0 |        191842 | 2017-02-03 16:12:20.928298+01

 2017-02-03 18:15:16.67893+01 | 1486142116.67893 |                 0 |              25 |                   709 |                    4 |               2291 |             0 |                0 |          487893 |                     0 |        191842 | 2017-02-03 16:12:20.928298+01

 2017-02-03 18:15:17.783711+01 | 1486142117.78371 |                 0 |              25 |                   709 |                    4 |               2291 |             0 |                0 |          487893 |                     0 |        191842 | 2017-02-03 16:12:20.928298+01

 2017-02-03 18:15:18.882775+01 | 1486142118.88278 |                 0 |              25 |                   709 |                    4 |               2291 |             0 |                0 |          487893 |                     0 |        191842 | 2017-02-03 16:12:20.928298+01

 2017-02-03 18:15:19.976362+01 | 1486142119.97636 |                 0 |              25 |                   709 |                    4 |               2291 |             0 |                0 |          487893 |                     0 |        191842 | 2017-02-03 16:12:20.928298+01

 2017-02-03 18:15:21.07222+01 | 1486142121.07222 |                 0 |              25 |                   709 |                    4 |               2291 |             0 |                0 |          487893 |                     0 |        191842 | 2017-02-03 16:12:20.928298+01

 2017-02-03 18:15:22.171106+01 | 1486142122.17111 |                 0 |              25 |                   709 |                    4 |               2291 |             0 |                0 |          487893 |                     0 |        191842 | 2017-02-03 16:12:20.928298+01

 2017-02-03 18:15:23.262442+01 | 1486142123.26244 |                 0 |              25 |                   709 |                    4 |               2291 |             0 |                0 |          487893 |                     0 |        191842 | 2017-02-03 16:12:20.928298+01

 2017-02-03 18:15:24.357173+01 | 1486142124.35717 |                 0 |              25 |                   709 |                    4 |               2291 |             0 |                0 |          487893 |                     0 |        191842 | 2017-02-03 16:12:20.928298+01

 2017-02-03 18:15:25.466037+01 | 1486142125.46604 |                 0 |              25 |                   709 |                    4 |               2291 |             0 |                0 |          487893 |                     0 |        191842 | 2017-02-03 16:12:20.928298+01

 2017-02-03 18:15:26.571382+01 | 1486142126.57138 |                 0 |              25 |                   709 |                    4 |               2291 |             0 |                0 |          487893 |                     0 |        191842 | 2017-02-03 16:12:20.928298+01

 2017-02-03 18:15:27.67002+01 | 1486142127.67002 |                 0 |              25 |                   709 |                    4 |               2291 |             0 |                0 |          487893 |                     0 |        191842 | 2017-02-03 16:12:20.928298+01

 2017-02-03 18:15:28.777103+01 | 1486142128.7771 |                 0 |              25 |                   709 |                    4 |               2291 |             0 |                0 |          487893 |                     0 |        191842 | 2017-02-03 16:12:20.928298+01

 2017-02-03 18:15:29.864001+01 | 1486142129.864 |                 0 |              25 |                   709 |                    4 |               2291 |             0 |                0 |          487893 |                     0 |        191842 | 2017-02-03 16:12:20.928298+01

 2017-02-03 18:15:30.951131+01 | 1486142130.95113 |                 0 |              25 |                   709 |                    4 |               2291 |             0 |                0 |          487893 |                     0 |        191842 | 2017-02-03 16:12:20.928298+01

 2017-02-03 18:15:32.041963+01 | 1486142132.04196 |                 0 |              25 |                   709 |                    4 |               2291 |             0 |                0 |          487893 |                     0 |        191842 | 2017-02-03 16:12:20.928298+01

 2017-02-03 18:15:33.137026+01 | 1486142133.13703 |                 0 |              25 |                   709 |                    4 |               2291 |             0 |                0 |          487893 |                     0 |        191842 | 2017-02-03 16:12:20.928298+01

 2017-02-03 18:15:34.224799+01 | 1486142134.2248 |                 0 |              25 |                   709 |                    4 |               2291 |             0 |                0 |          487893 |                     0 |        191842 | 2017-02-03 16:12:20.928298+01

 2017-02-03 18:15:35.322264+01 | 1486142135.32226 |                 0 |              25 |                   709 |                    4 |               2291 |             0 |                0 |          487893 |                     0 |        191842 | 2017-02-03 16:12:20.928298+01

 2017-02-03 18:15:36.416868+01 | 1486142136.41687 |                 0 |              25 |                   709 |                    4 |               2291 |             0 |                0 |          487893 |                     0 |        191842 | 2017-02-03 16:12:20.928298+01

 2017-02-03 18:15:37.523215+01 | 1486142137.52322 |                 0 |              25 |                   709 |                    4 |               2291 |             0 |                0 |          487893 |                     0 |        191842 | 2017-02-03 16:12:20.928298+01

 2017-02-03 18:15:38.618129+01 | 1486142138.61813 |                 0 |              25 |                   709 |                    4 |               2291 |             0 |                0 |          487893 |                     0 |        191842 | 2017-02-03 16:12:20.928298+01

 2017-02-03 18:15:39.716782+01 | 1486142139.71678 |                 0 |              25 |                   709 |                    4 |               2291 |             0 |                0 |          487893 |                     0 |        191842 | 2017-02-03 16:12:20.928298+01

 2017-02-03 18:15:40.830053+01 | 1486142140.83005 |                 0 |              25 |                   709 |                    4 |               2291 |             0 |                0 |          487893 |                     0 |        191842 | 2017-02-03 16:12:20.928298+01

 2017-02-03 18:15:41.9255+01 | 1486142141.9255 |                 0 |              25 |                   709 |                    4 |               2291 |             0 |                0 |          487893 |                     0 |        191842 | 2017-02-03 16:12:20.928298+01

 2017-02-03 18:15:43.017516+01 | 1486142143.01752 |                 0 |              25 |                   709 |                    4 |               2291 |             0 |                0 |          487893 |                     0 |        191842 | 2017-02-03 16:12:20.928298+01

 2017-02-03 18:15:44.115959+01 | 1486142144.11596 |                 0 |              25 |                   709 |                    4 |               2291 |             0 |                0 |          487893 |                     0 |        191842 | 2017-02-03 16:12:20.928298+01

 2017-02-03 18:15:45.20871+01 | 1486142145.20871 |                 0 |              25 |                   709 |                    4 |               2291 |             0 |                0 |          487893 |                     0 |        191842 | 2017-02-03 16:12:20.928298+01

 2017-02-03 18:15:46.301581+01 | 1486142146.30158 |                 0 |              25 |                   709 |                    4 |               2291 |             0 |                0 |          487893 |                     0 |        191842 | 2017-02-03 16:12:20.928298+01

 2017-02-03 18:15:47.393016+01 | 1486142147.39302 |                 0 |              25 |                   709 |                    4 |               2291 |             0 |                0 |          487893 |                     0 |        191842 | 2017-02-03 16:12:20.928298+01

 2017-02-03 18:15:48.481077+01 | 1486142148.48108 |                 0 |              25 |                   709 |                    4 |               2291 |             0 |                0 |          487893 |                     0 |        191842 | 2017-02-03 16:12:20.928298+01

 2017-02-03 18:15:49.577004+01 | 1486142149.577 |                 0 |              25 |                   709 |                    4 |               2291 |             0 |                0 |          487893 |                     0 |        191842 | 2017-02-03 16:12:20.928298+01

 2017-02-03 18:15:50.681205+01 | 1486142150.68121 |                 0 |              25 |                   709 |                    4 |               2291 |             0 |                0 |          487893 |                     0 |        191842 | 2017-02-03 16:12:20.928298+01

 2017-02-03 18:15:51.782945+01 | 1486142151.78294 |                 0 |              25 |                   709 |                    4 |               2291 |             0 |                0 |          487893 |                     0 |        191842 | 2017-02-03 16:12:20.928298+01

 2017-02-03 18:15:52.886458+01 | 1486142152.88646 |                 0 |              25 |                   709 |                    4 |               2291 |             0 |                0 |          487893 |                     0 |        191842 | 2017-02-03 16:12:20.928298+01

 2017-02-03 18:15:53.998325+01 | 1486142153.99833 |                 0 |              25 |                   709 |                    4 |               2291 |             0 |                0 |          487893 |                     0 |        191842 | 2017-02-03 16:12:20.928298+01

 2017-02-03 18:15:55.087177+01 | 1486142155.08718 |                 0 |              25 |                   709 |                    4 |               2291 |             0 |                0 |          487893 |                     0 |        191842 | 2017-02-03 16:12:20.928298+01

 2017-02-03 18:15:56.17325+01 | 1486142156.17325 |                 0 |              25 |                   709 |                    4 |               2291 |             0 |                0 |          487893 |                     0 |        191842 | 2017-02-03 16:12:20.928298+01

 2017-02-03 18:15:57.25741+01 | 1486142157.25741 |                 0 |              25 |                   709 |                    4 |               2291 |             0 |                0 |          487893 |                     0 |        191842 | 2017-02-03 16:12:20.928298+01

 2017-02-03 18:15:58.361015+01 | 1486142158.36102 |                 0 |              25 |                   709 |                    4 |               2291 |             0 |                0 |          487893 |                     0 |        191842 | 2017-02-03 16:12:20.928298+01

 2017-02-03 18:15:59.467517+01 | 1486142159.46752 |                 0 |              25 |                   709 |                    4 |               2291 |             0 |                0 |          487893 |                     0 |        191842 | 2017-02-03 16:12:20.928298+01

 2017-02-03 18:16:00.583992+01 | 1486142160.58399 |                 0 |              25 |                   709 |                    4 |               2291 |             0 |                0 |          487893 |                     0 |        191842 | 2017-02-03 16:12:20.928298+01

 2017-02-03 18:16:01.694933+01 | 1486142161.69493 |                 0 |              25 |                   709 |                    4 |               2291 |             0 |                0 |          487893 |                     0 |        191842 | 2017-02-03 16:12:20.928298+01

 2017-02-03 18:16:02.817531+01 | 1486142162.81753 |                 0 |              25 |                   709 |                    4 |               2291 |             0 |                0 |          487893 |                     0 |        191842 | 2017-02-03 16:12:20.928298+01

 2017-02-03 18:16:03.944206+01 | 1486142163.94421 |                 0 |              25 |                   709 |                    4 |               2291 |             0 |                0 |          487893 |                     0 |        191842 | 2017-02-03 16:12:20.928298+01

 2017-02-03 18:16:05.04908+01 | 1486142165.04908 |                 0 |              25 |                   709 |                    4 |               2291 |             0 |                0 |          487893 |                     0 |        191842 | 2017-02-03 16:12:20.928298+01

 2017-02-03 18:16:06.144639+01 | 1486142166.14464 |                 0 |              25 |                   709 |                    4 |               2291 |             0 |                0 |          487893 |                     0 |        191842 | 2017-02-03 16:12:20.928298+01

 2017-02-03 18:16:07.235143+01 | 1486142167.23514 |                 0 |              25 |                   709 |                    4 |               2291 |             0 |                0 |          487893 |                     0 |        191842 | 2017-02-03 16:12:20.928298+01

 2017-02-03 18:16:08.320056+01 | 1486142168.32006 |                 0 |              25 |                   709 |                    4 |               2291 |             0 |                0 |          487893 |                     0 |        191842 | 2017-02-03 16:12:20.928298+01

 2017-02-03 18:16:09.422187+01 | 1486142169.42219 |                 0 |              25 |                   709 |                    4 |               2291 |             0 |                0 |          487893 |                     0 |        191842 | 2017-02-03 16:12:20.928298+01

 2017-02-03 18:16:10.507499+01 | 1486142170.5075 |                 0 |              25 |                   709 |                    4 |               2291 |             0 |                0 |          487893 |                     0 |        191842 | 2017-02-03 16:12:20.928298+01

 2017-02-03 18:16:11.610201+01 | 1486142171.6102 |                 0 |              25 |                   709 |                    4 |               2291 |             0 |                0 |          487893 |                     0 |        191842 | 2017-02-03 16:12:20.928298+01

 2017-02-03 18:16:12.725812+01 | 1486142172.72581 |                 0 |              25 |                   709 |                    4 |               2291 |             0 |                0 |          487893 |                     0 |        191842 | 2017-02-03 16:12:20.928298+01

 2017-02-03 18:16:13.850028+01 | 1486142173.85003 |                 0 |              25 |                   709 |                    4 |               2291 |             0 |                0 |          487893 |                     0 |        191842 | 2017-02-03 16:12:20.928298+01

 2017-02-03 18:16:14.994881+01 | 1486142174.99488 |                 0 |              25 |                   709 |                    4 |               2291 |             0 |                0 |          487893 |                     0 |        191842 | 2017-02-03 16:12:20.928298+01

 2017-02-03 18:16:16.088562+01 | 1486142176.08856 |                 0 |              25 |                   709 |                    4 |               2291 |             0 |                0 |          487893 |                     0 |        191842 | 2017-02-03 16:12:20.928298+01

 2017-02-03 18:16:17.176+01 | 1486142177.176 |                 0 |              25 |                   709 |                    4 |               2291 |             0 |                0 |          487893 |                     0 |        191842 | 2017-02-03 16:12:20.928298+01

 2017-02-03 18:16:18.275331+01 | 1486142178.27533 |                 0 |              25 |                   709 |                    4 |               2291 |             0 |                0 |          487893 |                     0 |        191842 | 2017-02-03 16:12:20.928298+01

 2017-02-03 18:16:19.364741+01 | 1486142179.36474 |                 0 |              25 |                   709 |                    4 |               2291 |             0 |                0 |          487893 |                     0 |        191842 | 2017-02-03 16:12:20.928298+01

 2017-02-03 18:16:20.461743+01 | 1486142180.46174 |                 0 |              25 |                   709 |                    4 |               2291 |             0 |                0 |          487893 |                     0 |        191842 | 2017-02-03 16:12:20.928298+01

 2017-02-03 18:16:21.545654+01 | 1486142181.54565 |                 0 |              25 |                   709 |                    4 |               2291 |             0 |                0 |          487893 |                     0 |        191842 | 2017-02-03 16:12:20.928298+01

 2017-02-03 18:16:22.623548+01 | 1486142182.62355 |                 0 |              25 |                   709 |                    4 |               2291 |             0 |                0 |          487893 |                     0 |        191842 | 2017-02-03 16:12:20.928298+01

 2017-02-03 18:16:23.723439+01 | 1486142183.72344 |                 0 |              25 |                   709 |                    4 |               2291 |             0 |                0 |          487893 |                     0 |        191842 | 2017-02-03 16:12:20.928298+01

 2017-02-03 18:16:24.832003+01 | 1486142184.832 |                 0 |              25 |                   709 |                    4 |               2291 |             0 |                0 |          487893 |                     0 |        191842 | 2017-02-03 16:12:20.928298+01

 2017-02-03 18:16:25.910665+01 | 1486142185.91067 |                 0 |              25 |                   709 |                    4 |               2291 |             0 |                0 |          487893 |                     0 |        191842 | 2017-02-03 16:12:20.928298+01

 2017-02-03 18:16:27.016525+01 | 1486142187.01653 |                 0 |              25 |                   709 |                    4 |               2291 |             0 |                0 |          487893 |                     0 |        191842 | 2017-02-03 16:12:20.928298+01

 2017-02-03 18:16:28.126212+01 | 1486142188.12621 |                 0 |              25 |                   709 |                    4 |               2291 |             0 |                0 |          487893 |                     0 |        191842 | 2017-02-03 16:12:20.928298+01

 2017-02-03 18:16:29.226793+01 | 1486142189.22679 |                 0 |              25 |                   709 |                    4 |               2291 |             0 |                0 |          487893 |                     0 |        191842 | 2017-02-03 16:12:20.928298+01

 2017-02-03 18:16:30.320992+01 | 1486142190.32099 |                 0 |              25 |                   709 |                    4 |               2291 |             0 |                0 |          487893 |                     0 |        191842 | 2017-02-03 16:12:20.928298+01

 2017-02-03 18:16:31.401663+01 | 1486142191.40166 |                 0 |              25 |                   709 |                    4 |               2291 |             0 |                0 |          487893 |                     0 |        191842 | 2017-02-03 16:12:20.928298+01

 2017-02-03 18:16:32.517186+01 | 1486142192.51719 |                 0 |              25 |                   709 |                    4 |               2291 |             0 |                0 |          487893 |                     0 |        191842 | 2017-02-03 16:12:20.928298+01

 2017-02-03 18:16:33.622743+01 | 1486142193.62274 |                 0 |              25 |                   709 |                    4 |               2291 |             0 |                0 |          487893 |                     0 |        191842 | 2017-02-03 16:12:20.928298+01

 2017-02-03 18:16:34.725028+01 | 1486142194.72503 |                 0 |              25 |                   709 |                    4 |               2291 |             0 |                0 |          487893 |                     0 |        191842 | 2017-02-03 16:12:20.928298+01

 2017-02-03 18:16:35.825795+01 | 1486142195.82579 |                 0 |              25 |                   709 |                    4 |               2291 |             0 |                0 |          487893 |                     0 |        191842 | 2017-02-03 16:12:20.928298+01

 2017-02-03 18:16:36.944202+01 | 1486142196.9442 |                 0 |              25 |                   709 |                    4 |               2291 |             0 |                0 |          487893 |                     0 |        191842 | 2017-02-03 16:12:20.928298+01

 2017-02-03 18:16:38.087261+01 | 1486142198.08726 |                 0 |              25 |                   709 |                    4 |               2291 |             0 |                0 |          487893 |                     0 |        191842 | 2017-02-03 16:12:20.928298+01

 2017-02-03 18:16:39.18648+01 | 1486142199.18648 |                 0 |              25 |                   709 |                    4 |               2291 |             0 |                0 |          487893 |                     0 |        191842 | 2017-02-03 16:12:20.928298+01

 2017-02-03 18:16:40.272742+01 | 1486142200.27274 |                 0 |              25 |                   709 |                    4 |               2291 |             0 |                0 |          487893 |                     0 |        191842 | 2017-02-03 16:12:20.928298+01

 2017-02-03 18:16:41.357287+01 | 1486142201.35729 |                 0 |              25 |                   709 |                    4 |               2291 |             0 |                0 |          487893 |                     0 |        191842 | 2017-02-03 16:12:20.928298+01

 2017-02-03 18:16:42.452742+01 | 1486142202.45274 |                 0 |              25 |                   709 |                    4 |               2291 |             0 |                0 |          487893 |                     0 |        191842 | 2017-02-03 16:12:20.928298+01

 2017-02-03 18:16:43.560674+01 | 1486142203.56067 |                 0 |              25 |                   709 |                    4 |               2291 |             0 |                0 |          487893 |                     0 |        191842 | 2017-02-03 16:12:20.928298+01

 2017-02-03 18:16:44.668951+01 | 1486142204.66895 |                 0 |              25 |                   709 |                    4 |               2291 |             0 |                0 |          487893 |                     0 |        191842 | 2017-02-03 16:12:20.928298+01

 2017-02-03 18:16:45.764592+01 | 1486142205.76459 |                 0 |              25 |                   709 |                    4 |               2291 |             0 |                0 |          487893 |                     0 |        191842 | 2017-02-03 16:12:20.928298+01

 2017-02-03 18:16:46.864224+01 | 1486142206.86422 |                 0 |              25 |                   709 |                    4 |               2291 |             0 |                0 |          487893 |                     0 |        191842 | 2017-02-03 16:12:20.928298+01

 2017-02-03 18:16:47.962421+01 | 1486142207.96242 |                 0 |              25 |                   709 |                    4 |               2291 |             0 |                0 |          487893 |                     0 |        191842 | 2017-02-03 16:12:20.928298+01

 2017-02-03 18:16:49.068059+01 | 1486142209.06806 |                 0 |              25 |                   709 |                    4 |               2291 |             0 |                0 |          487893 |                     0 |        191842 | 2017-02-03 16:12:20.928298+01

 2017-02-03 18:16:50.166869+01 | 1486142210.16687 |                 0 |              25 |                   709 |                    4 |               2291 |             0 |                0 |          487893 |                     0 |        191842 | 2017-02-03 16:12:20.928298+01

 2017-02-03 18:16:51.252346+01 | 1486142211.25235 |                 0 |              25 |                   709 |                    4 |               2291 |             0 |                0 |          487893 |                     0 |        191842 | 2017-02-03 16:12:20.928298+01

 2017-02-03 18:16:52.347375+01 | 1486142212.34737 |                 0 |              25 |                   709 |                    4 |               2291 |             0 |                0 |          487893 |                     0 |        191842 | 2017-02-03 16:12:20.928298+01

 2017-02-03 18:16:53.447864+01 | 1486142213.44786 |                 0 |              25 |                   709 |                    4 |               2291 |             0 |                0 |          487893 |                     0 |        191842 | 2017-02-03 16:12:20.928298+01

 2017-02-03 18:16:54.558002+01 | 1486142214.558 |                 0 |              25 |                   709 |                    4 |               2291 |             0 |                0 |          487893 |                     0 |        191842 | 2017-02-03 16:12:20.928298+01

 2017-02-03 18:16:55.649015+01 | 1486142215.64901 |                 0 |              25 |                   709 |                    4 |               2291 |             0 |                0 |          487893 |                     0 |        191842 | 2017-02-03 16:12:20.928298+01

 2017-02-03 18:16:56.7306+01 | 1486142216.7306 |                 0 |              25 |                   709 |                    4 |               2291 |             0 |                0 |          487893 |                     0 |        191842 | 2017-02-03 16:12:20.928298+01

 2017-02-03 18:16:57.821461+01 | 1486142217.82146 |                 0 |              25 |                   709 |                    4 |               2291 |             0 |                0 |          487893 |                     0 |        191842 | 2017-02-03 16:12:20.928298+01

 2017-02-03 18:16:58.927868+01 | 1486142218.92787 |                 0 |              25 |                   709 |                    4 |               2291 |             0 |                0 |          487893 |                     0 |        191842 | 2017-02-03 16:12:20.928298+01

 2017-02-03 18:17:00.037749+01 | 1486142220.03775 |                 0 |              25 |                   709 |                    4 |               2291 |             0 |                0 |          487893 |                     0 |        191842 | 2017-02-03 16:12:20.928298+01

 2017-02-03 18:17:01.139869+01 | 1486142221.13987 |                 0 |              25 |                   709 |                    4 |               2291 |             0 |                0 |          487893 |                     0 |        191842 | 2017-02-03 16:12:20.928298+01

 2017-02-03 18:17:02.252522+01 | 1486142222.25252 |                 0 |              25 |                   709 |                    4 |               2291 |             0 |                0 |          487893 |                     0 |        191842 | 2017-02-03 16:12:20.928298+01

 2017-02-03 18:17:03.362739+01 | 1486142223.36274 |                 0 |              25 |                   709 |                    4 |               2291 |             0 |                0 |          487893 |                     0 |        191842 | 2017-02-03 16:12:20.928298+01

 2017-02-03 18:17:04.466372+01 | 1486142224.46637 |                 0 |              25 |                   709 |                    4 |               2291 |             0 |                0 |          487893 |                     0 |        191842 | 2017-02-03 16:12:20.928298+01

 2017-02-03 18:17:05.561123+01 | 1486142225.56112 |                 0 |              25 |                   709 |                    4 |               2291 |             0 |                0 |          487893 |                     0 |        191842 | 2017-02-03 16:12:20.928298+01

 2017-02-03 18:17:06.660903+01 | 1486142226.6609 |                 0 |              25 |                   709 |                    4 |               2291 |             0 |                0 |          487893 |                     0 |        191842 | 2017-02-03 16:12:20.928298+01

 2017-02-03 18:17:07.749909+01 | 1486142227.74991 |                 0 |              25 |                   709 |                    4 |               2291 |             0 |                0 |          487893 |                     0 |        191842 | 2017-02-03 16:12:20.928298+01

 2017-02-03 18:17:08.844549+01 | 1486142228.84455 |                 0 |              25 |                   709 |                    4 |               2291 |             0 |                0 |          487893 |                     0 |        191842 | 2017-02-03 16:12:20.928298+01

 2017-02-03 18:17:09.945171+01 | 1486142229.94517 |                 0 |              25 |                   709 |                    4 |               2291 |             0 |                0 |          487893 |                     0 |        191842 | 2017-02-03 16:12:20.928298+01

 2017-02-03 18:17:11.054273+01 | 1486142231.05427 |                 0 |              25 |                   709 |                    4 |               2291 |             0 |                0 |          487893 |                     0 |        191842 | 2017-02-03 16:12:20.928298+01

 2017-02-03 18:17:12.150131+01 | 1486142232.15013 |                 0 |              25 |                   709 |                    4 |               2291 |             0 |                0 |          487893 |                     0 |        191842 | 2017-02-03 16:12:20.928298+01

 2017-02-03 18:17:13.27288+01 | 1486142233.27288 |                 0 |              25 |                   709 |                    4 |               2291 |             0 |                0 |          487893 |                     0 |        191842 | 2017-02-03 16:12:20.928298+01

 2017-02-03 18:17:14.376729+01 | 1486142234.37673 |                 0 |              25 |                   709 |                    4 |               2291 |             0 |                0 |          487893 |                     0 |        191842 | 2017-02-03 16:12:20.928298+01

 2017-02-03 18:17:15.459821+01 | 1486142235.45982 |                 0 |              25 |                   709 |                    4 |               2291 |             0 |                0 |          487893 |                     0 |        191842 | 2017-02-03 16:12:20.928298+01

 2017-02-03 18:17:16.555238+01 | 1486142236.55524 |                 0 |              25 |                   709 |                    4 |               2291 |             0 |                0 |          487893 |                     0 |        191842 | 2017-02-03 16:12:20.928298+01

 2017-02-03 18:17:17.642884+01 | 1486142237.64288 |                 0 |              25 |                   709 |                    4 |               2291 |             0 |                0 |          487893 |                     0 |        191842 | 2017-02-03 16:12:20.928298+01

 2017-02-03 18:17:18.728808+01 | 1486142238.72881 |                 0 |              25 |                   709 |                    4 |               2291 |             0 |                0 |          487893 |                     0 |        191842 | 2017-02-03 16:12:20.928298+01

 2017-02-03 18:17:19.833783+01 | 1486142239.83378 |                 0 |              25 |                   709 |                    4 |               2291 |             0 |                0 |          487893 |                     0 |        191842 | 2017-02-03 16:12:20.928298+01

 2017-02-03 18:17:20.951038+01 | 1486142240.95104 |                 0 |              25 |                   709 |                    4 |               2291 |             0 |                0 |          487893 |                     0 |        191842 | 2017-02-03 16:12:20.928298+01

 2017-02-03 18:17:22.069931+01 | 1486142242.06993 |                 0 |              25 |                   709 |                    4 |               2291 |             0 |                0 |          487893 |                     0 |        191842 | 2017-02-03 16:12:20.928298+01

 2017-02-03 18:17:23.179829+01 | 1486142243.17983 |                 0 |              25 |                   709 |                    4 |               2291 |             0 |                0 |          487893 |                     0 |        191842 | 2017-02-03 16:12:20.928298+01

 2017-02-03 18:17:24.287664+01 | 1486142244.28766 |                 0 |              25 |                   709 |                    4 |               2291 |             0 |                0 |          487893 |                     0 |        191842 | 2017-02-03 16:12:20.928298+01

 2017-02-03 18:17:25.383653+01 | 1486142245.38365 |                 0 |              25 |                   709 |                    4 |               2291 |             0 |                0 |          487893 |                     0 |        191842 | 2017-02-03 16:12:20.928298+01

 2017-02-03 18:17:26.480697+01 | 1486142246.4807 |                 0 |              25 |                   709 |                    4 |               2291 |             0 |                0 |          487893 |                     0 |        191842 | 2017-02-03 16:12:20.928298+01

 2017-02-03 18:17:27.564488+01 | 1486142247.56449 |                 0 |              25 |                   709 |                    4 |               2291 |             0 |                0 |          487893 |                     0 |        191842 | 2017-02-03 16:12:20.928298+01

 2017-02-03 18:17:28.666173+01 | 1486142248.66617 |                 0 |              25 |                   709 |                    4 |               2291 |             0 |                0 |          487893 |                     0 |        191842 | 2017-02-03 16:12:20.928298+01

 2017-02-03 18:17:29.761654+01 | 1486142249.76165 |                 0 |              25 |                   709 |                    4 |               2291 |             0 |                0 |          487893 |                     0 |        191842 | 2017-02-03 16:12:20.928298+01

 2017-02-03 18:17:30.849499+01 | 1486142250.8495 |                 0 |              25 |                   709 |                    4 |               2291 |             0 |                0 |          487893 |                     0 |        191842 | 2017-02-03 16:12:20.928298+01

 2017-02-03 18:17:31.955121+01 | 1486142251.95512 |                 0 |              25 |                   709 |                    4 |               2291 |             0 |                0 |          487893 |                     0 |        191842 | 2017-02-03 16:12:20.928298+01

 2017-02-03 18:17:33.056148+01 | 1486142253.05615 |                 0 |              25 |                   709 |                    4 |               2291 |             0 |                0 |          487893 |                     0 |        191842 | 2017-02-03 16:12:20.928298+01

 2017-02-03 18:17:34.159552+01 | 1486142254.15955 |                 0 |              25 |                   709 |                    4 |               2291 |             0 |                0 |          487893 |                     0 |        191842 | 2017-02-03 16:12:20.928298+01

 2017-02-03 18:17:35.284127+01 | 1486142255.28413 |                 0 |              25 |                   709 |                    4 |               2291 |             0 |                0 |          487893 |                     0 |        191842 | 2017-02-03 16:12:20.928298+01

 2017-02-03 18:17:36.382425+01 | 1486142256.38243 |                 0 |              25 |                   709 |                    4 |               2291 |             0 |                0 |          487893 |                     0 |        191842 | 2017-02-03 16:12:20.928298+01

 2017-02-03 18:17:37.475897+01 | 1486142257.4759 |                 0 |              25 |                   709 |                    4 |               2291 |             0 |                0 |          487893 |                     0 |        191842 | 2017-02-03 16:12:20.928298+01

 2017-02-03 18:17:38.565772+01 | 1486142258.56577 |                 0 |              25 |                   709 |                    4 |               2291 |             0 |                0 |          487893 |                     0 |        191842 | 2017-02-03 16:12:20.928298+01

 2017-02-03 18:17:39.658625+01 | 1486142259.65862 |                 0 |              25 |                   709 |                    4 |               2291 |             0 |                0 |          487893 |                     0 |        191842 | 2017-02-03 16:12:20.928298+01

 2017-02-03 18:17:40.749038+01 | 1486142260.74904 |                 0 |              25 |                   709 |                    4 |               2291 |             0 |                0 |          487893 |                     0 |        191842 | 2017-02-03 16:12:20.928298+01

 2017-02-03 18:17:41.876574+01 | 1486142261.87657 |                 0 |              25 |                   709 |                    4 |               2291 |             0 |                0 |          487893 |                     0 |        191842 | 2017-02-03 16:12:20.928298+01

 2017-02-03 18:17:42.988862+01 | 1486142262.98886 |                 0 |              25 |                   709 |                    4 |               2291 |             0 |                0 |          487893 |                     0 |        191842 | 2017-02-03 16:12:20.928298+01

 2017-02-03 18:17:44.138769+01 | 1486142264.13877 |                 0 |              25 |                   709 |                    4 |               2291 |             0 |                0 |          487893 |                     0 |        191842 | 2017-02-03 16:12:20.928298+01

 2017-02-03 18:17:45.241571+01 | 1486142265.24157 |                 0 |              25 |                   709 |                    4 |               2291 |             0 |                0 |          487893 |                     0 |        191842 | 2017-02-03 16:12:20.928298+01

 2017-02-03 18:17:46.365135+01 | 1486142266.36513 |                 0 |              25 |                   709 |                    4 |               2291 |             0 |                0 |          487893 |                     0 |        191842 | 2017-02-03 16:12:20.928298+01

 2017-02-03 18:17:47.505518+01 | 1486142267.50552 |                 0 |              25 |                   709 |                    4 |               2291 |             0 |                0 |          487893 |                     0 |        191842 | 2017-02-03 16:12:20.928298+01

 2017-02-03 18:17:48.594558+01 | 1486142268.59456 |                 0 |              25 |                   709 |                    4 |               2291 |             0 |                0 |          487893 |                     0 |        191842 | 2017-02-03 16:12:20.928298+01

