 2017-02-03 18:12:49.262162+01 | 1486141969.26216 | 0/4E400258               |            1312817752

 2017-02-03 18:12:50.339535+01 | 1486141970.33953 | 0/4E400258               |            1312817752

 2017-02-03 18:12:51.423942+01 | 1486141971.42394 | 0/4E400258               |            1312817752

 2017-02-03 18:12:52.510607+01 | 1486141972.51061 | 0/4E400258               |            1312817752

 2017-02-03 18:12:53.607166+01 | 1486141973.60717 | 0/4E400258               |            1312817752

 2017-02-03 18:12:54.703095+01 | 1486141974.70309 | 0/4E400258               |            1312817752

 2017-02-03 18:12:55.81622+01 | 1486141975.81622 | 0/4E400258               |            1312817752

 2017-02-03 18:12:56.900689+01 | 1486141976.90069 | 0/4E400258               |            1312817752

 2017-02-03 18:12:58.00893+01 | 1486141978.00893 | 0/4E400290               |            1312817808

 2017-02-03 18:12:59.128343+01 | 1486141979.12834 | 0/4E400290               |            1312817808

 2017-02-03 18:13:00.229921+01 | 1486141980.22992 | 0/4E400290               |            1312817808

 2017-02-03 18:13:01.320155+01 | 1486141981.32015 | 0/4E400290               |            1312817808

 2017-02-03 18:13:02.412039+01 | 1486141982.41204 | 0/4E400290               |            1312817808

 2017-02-03 18:13:03.493975+01 | 1486141983.49397 | 0/4E400290               |            1312817808

 2017-02-03 18:13:04.586348+01 | 1486141984.58635 | 0/4E400290               |            1312817808

 2017-02-03 18:13:05.681055+01 | 1486141985.68106 | 0/4E400290               |            1312817808

 2017-02-03 18:13:06.793838+01 | 1486141986.79384 | 0/4E400290               |            1312817808

 2017-02-03 18:13:07.888547+01 | 1486141987.88855 | 0/4E400290               |            1312817808

 2017-02-03 18:13:09.012264+01 | 1486141989.01226 | 0/4E400290               |            1312817808

 2017-02-03 18:13:10.115984+01 | 1486141990.11598 | 0/4E400290               |            1312817808

 2017-02-03 18:13:11.233386+01 | 1486141991.23339 | 0/4E400290               |            1312817808

 2017-02-03 18:13:12.325755+01 | 1486141992.32575 | 0/4E400290               |            1312817808

 2017-02-03 18:13:13.408901+01 | 1486141993.4089 | 0/4E400290               |            1312817808

 2017-02-03 18:13:14.500178+01 | 1486141994.50018 | 0/4E400290               |            1312817808

 2017-02-03 18:13:15.595049+01 | 1486141995.59505 | 0/4E400290               |            1312817808

 2017-02-03 18:13:16.694176+01 | 1486141996.69418 | 0/4E400290               |            1312817808

 2017-02-03 18:13:17.807968+01 | 1486141997.80797 | 0/4E400290               |            1312817808

 2017-02-03 18:13:18.963904+01 | 1486141998.9639 | 0/4E400290               |            1312817808

 2017-02-03 18:13:20.064301+01 | 1486142000.0643 | 0/4E400290               |            1312817808

 2017-02-03 18:13:21.156279+01 | 1486142001.15628 | 0/4E400290               |            1312817808

 2017-02-03 18:13:22.24719+01 | 1486142002.24719 | 0/4E400290               |            1312817808

 2017-02-03 18:13:23.340156+01 | 1486142003.34016 | 0/4E400290               |            1312817808

 2017-02-03 18:13:24.427425+01 | 1486142004.42742 | 0/4E400290               |            1312817808

 2017-02-03 18:13:25.514764+01 | 1486142005.51476 | 0/4E400290               |            1312817808

 2017-02-03 18:13:26.599996+01 | 1486142006.6 | 0/4E400290               |            1312817808

 2017-02-03 18:13:27.686704+01 | 1486142007.6867 | 0/4E400290               |            1312817808

 2017-02-03 18:13:28.78059+01 | 1486142008.78059 | 0/4E400290               |            1312817808

 2017-02-03 18:13:29.898722+01 | 1486142009.89872 | 0/4E400290               |            1312817808

 2017-02-03 18:13:30.998614+01 | 1486142010.99861 | 0/4E400290               |            1312817808

 2017-02-03 18:13:32.107765+01 | 1486142012.10776 | 0/4E400290               |            1312817808

 2017-02-03 18:13:33.215343+01 | 1486142013.21534 | 0/4E400290               |            1312817808

 2017-02-03 18:13:34.323027+01 | 1486142014.32303 | 0/4E400290               |            1312817808

 2017-02-03 18:13:35.417954+01 | 1486142015.41795 | 0/4E400290               |            1312817808

 2017-02-03 18:13:36.502871+01 | 1486142016.50287 | 0/4E400290               |            1312817808

 2017-02-03 18:13:37.589696+01 | 1486142017.5897 | 0/4E400290               |            1312817808

 2017-02-03 18:13:38.670078+01 | 1486142018.67008 | 0/4E400290               |            1312817808

 2017-02-03 18:13:39.770122+01 | 1486142019.77012 | 0/4E400290               |            1312817808

 2017-02-03 18:13:40.860121+01 | 1486142020.86012 | 0/4E400290               |            1312817808

 2017-02-03 18:13:41.965649+01 | 1486142021.96565 | 0/4E400290               |            1312817808

 2017-02-03 18:13:43.068555+01 | 1486142023.06856 | 0/4E400290               |            1312817808

 2017-02-03 18:13:44.183742+01 | 1486142024.18374 | 0/4E400290               |            1312817808

 2017-02-03 18:13:45.291758+01 | 1486142025.29176 | 0/4E400290               |            1312817808

 2017-02-03 18:13:46.416989+01 | 1486142026.41699 | 0/4E400290               |            1312817808

 2017-02-03 18:13:47.506928+01 | 1486142027.50693 | 0/4E400290               |            1312817808

 2017-02-03 18:13:48.595477+01 | 1486142028.59548 | 0/4E400290               |            1312817808

 2017-02-03 18:13:49.681603+01 | 1486142029.6816 | 0/4E400290               |            1312817808

 2017-02-03 18:13:50.772203+01 | 1486142030.7722 | 0/4E400290               |            1312817808

 2017-02-03 18:13:51.880218+01 | 1486142031.88022 | 0/4E400290               |            1312817808

 2017-02-03 18:13:52.991703+01 | 1486142032.9917 | 0/4E400290               |            1312817808

 2017-02-03 18:13:54.092558+01 | 1486142034.09256 | 0/4E400290               |            1312817808

 2017-02-03 18:13:55.203682+01 | 1486142035.20368 | 0/4E400290               |            1312817808

 2017-02-03 18:13:56.303439+01 | 1486142036.30344 | 0/4E400290               |            1312817808

 2017-02-03 18:13:57.41051+01 | 1486142037.41051 | 0/4E400290               |            1312817808

 2017-02-03 18:13:58.496767+01 | 1486142038.49677 | 0/4E400290               |            1312817808

 2017-02-03 18:13:59.586636+01 | 1486142039.58664 | 0/4E400290               |            1312817808

 2017-02-03 18:14:00.677806+01 | 1486142040.67781 | 0/4E400290               |            1312817808

 2017-02-03 18:14:01.758368+01 | 1486142041.75837 | 0/4E400290               |            1312817808

 2017-02-03 18:14:02.848826+01 | 1486142042.84883 | 0/4E400290               |            1312817808

 2017-02-03 18:14:03.947898+01 | 1486142043.9479 | 0/4E400290               |            1312817808

 2017-02-03 18:14:05.030733+01 | 1486142045.03073 | 0/4E400290               |            1312817808

 2017-02-03 18:14:06.118005+01 | 1486142046.11801 | 0/4E400290               |            1312817808

 2017-02-03 18:14:07.20959+01 | 1486142047.20959 | 0/4E400290               |            1312817808

 2017-02-03 18:14:08.300905+01 | 1486142048.3009 | 0/4E400290               |            1312817808

 2017-02-03 18:14:09.424204+01 | 1486142049.4242 | 0/4E400290               |            1312817808

 2017-02-03 18:14:10.545047+01 | 1486142050.54505 | 0/4E400290               |            1312817808

 2017-02-03 18:14:11.639912+01 | 1486142051.63991 | 0/4E400290               |            1312817808

 2017-02-03 18:14:12.723385+01 | 1486142052.72339 | 0/4E400290               |            1312817808

 2017-02-03 18:14:13.812151+01 | 1486142053.81215 | 0/4E400290               |            1312817808

 2017-02-03 18:14:14.910001+01 | 1486142054.91 | 0/4E400290               |            1312817808

 2017-02-03 18:14:16.012353+01 | 1486142056.01235 | 0/4E400290               |            1312817808

 2017-02-03 18:14:17.105588+01 | 1486142057.10559 | 0/4E400290               |            1312817808

 2017-02-03 18:14:18.195188+01 | 1486142058.19519 | 0/4E400290               |            1312817808

 2017-02-03 18:14:19.294189+01 | 1486142059.29419 | 0/4E400290               |            1312817808

 2017-02-03 18:14:20.388906+01 | 1486142060.38891 | 0/4E400290               |            1312817808

 2017-02-03 18:14:21.488324+01 | 1486142061.48832 | 0/4E400290               |            1312817808

 2017-02-03 18:14:22.599325+01 | 1486142062.59932 | 0/4E400290               |            1312817808

 2017-02-03 18:14:23.695019+01 | 1486142063.69502 | 0/4E400290               |            1312817808

 2017-02-03 18:14:24.777981+01 | 1486142064.77798 | 0/4E400290               |            1312817808

 2017-02-03 18:14:25.868168+01 | 1486142065.86817 | 0/4E400290               |            1312817808

 2017-02-03 18:14:26.963133+01 | 1486142066.96313 | 0/4E400290               |            1312817808

 2017-02-03 18:14:28.060884+01 | 1486142068.06088 | 0/4E400290               |            1312817808

 2017-02-03 18:14:29.152213+01 | 1486142069.15221 | 0/4E400290               |            1312817808

 2017-02-03 18:14:30.256801+01 | 1486142070.2568 | 0/4E400290               |            1312817808

 2017-02-03 18:14:31.366307+01 | 1486142071.36631 | 0/4E400290               |            1312817808

 2017-02-03 18:14:32.479124+01 | 1486142072.47912 | 0/4E400290               |            1312817808

 2017-02-03 18:14:33.569953+01 | 1486142073.56995 | 0/4E400290               |            1312817808

 2017-02-03 18:14:34.687859+01 | 1486142074.68786 | 0/4E400290               |            1312817808

 2017-02-03 18:14:35.770638+01 | 1486142075.77064 | 0/4E400290               |            1312817808

 2017-02-03 18:14:36.854326+01 | 1486142076.85433 | 0/4E400290               |            1312817808

 2017-02-03 18:14:37.946969+01 | 1486142077.94697 | 0/4E400290               |            1312817808

 2017-02-03 18:14:39.041783+01 | 1486142079.04178 | 0/4E400290               |            1312817808

 2017-02-03 18:14:40.155623+01 | 1486142080.15562 | 0/4E400290               |            1312817808

 2017-02-03 18:14:41.275678+01 | 1486142081.27568 | 0/4E400290               |            1312817808

 2017-02-03 18:14:42.371539+01 | 1486142082.37154 | 0/4E400290               |            1312817808

 2017-02-03 18:14:43.494004+01 | 1486142083.494 | 0/4E400290               |            1312817808

 2017-02-03 18:14:44.595837+01 | 1486142084.59584 | 0/4E400290               |            1312817808

 2017-02-03 18:14:45.702065+01 | 1486142085.70206 | 0/4E400290               |            1312817808

 2017-02-03 18:14:46.796461+01 | 1486142086.79646 | 0/4E400290               |            1312817808

 2017-02-03 18:14:47.892934+01 | 1486142087.89293 | 0/4E400290               |            1312817808

 2017-02-03 18:14:48.983982+01 | 1486142088.98398 | 0/4E400290               |            1312817808

 2017-02-03 18:14:50.087311+01 | 1486142090.08731 | 0/4E400290               |            1312817808

 2017-02-03 18:14:51.17703+01 | 1486142091.17703 | 0/4E400290               |            1312817808

 2017-02-03 18:14:52.298704+01 | 1486142092.2987 | 0/4E400290               |            1312817808

 2017-02-03 18:14:53.449366+01 | 1486142093.44937 | 0/4E400290               |            1312817808

 2017-02-03 18:14:54.557783+01 | 1486142094.55778 | 0/4E400290               |            1312817808

 2017-02-03 18:14:55.659286+01 | 1486142095.65929 | 0/4E400290               |            1312817808

 2017-02-03 18:14:56.755722+01 | 1486142096.75572 | 0/4E400290               |            1312817808

 2017-02-03 18:14:57.851673+01 | 1486142097.85167 | 0/4E400290               |            1312817808

 2017-02-03 18:14:58.943473+01 | 1486142098.94347 | 0/4E400290               |            1312817808

 2017-02-03 18:15:00.05254+01 | 1486142100.05254 | 0/4E400290               |            1312817808

 2017-02-03 18:15:01.164974+01 | 1486142101.16497 | 0/4E400290               |            1312817808

 2017-02-03 18:15:02.261587+01 | 1486142102.26159 | 0/4E400290               |            1312817808

 2017-02-03 18:15:03.341387+01 | 1486142103.34139 | 0/4E400290               |            1312817808

 2017-02-03 18:15:04.481926+01 | 1486142104.48193 | 0/4E400290               |            1312817808

 2017-02-03 18:15:05.591961+01 | 1486142105.59196 | 0/4E400290               |            1312817808

 2017-02-03 18:15:06.686524+01 | 1486142106.68652 | 0/4E400290               |            1312817808

 2017-02-03 18:15:07.793089+01 | 1486142107.79309 | 0/4E400290               |            1312817808

 2017-02-03 18:15:08.87537+01 | 1486142108.87537 | 0/4E400290               |            1312817808

 2017-02-03 18:15:09.959371+01 | 1486142109.95937 | 0/4E400290               |            1312817808

 2017-02-03 18:15:11.056449+01 | 1486142111.05645 | 0/4E400290               |            1312817808

 2017-02-03 18:15:12.157428+01 | 1486142112.15743 | 0/4E400290               |            1312817808

 2017-02-03 18:15:13.247142+01 | 1486142113.24714 | 0/4E400290               |            1312817808

 2017-02-03 18:15:14.346664+01 | 1486142114.34666 | 0/4E400290               |            1312817808

 2017-02-03 18:15:15.454433+01 | 1486142115.45443 | 0/4E400290               |            1312817808

 2017-02-03 18:15:16.583711+01 | 1486142116.58371 | 0/4E400290               |            1312817808

 2017-02-03 18:15:17.704219+01 | 1486142117.70422 | 0/4E400290               |            1312817808

 2017-02-03 18:15:18.802192+01 | 1486142118.80219 | 0/4E400290               |            1312817808

 2017-02-03 18:15:19.89907+01 | 1486142119.89907 | 0/4E400290               |            1312817808

 2017-02-03 18:15:20.996461+01 | 1486142120.99646 | 0/4E400290               |            1312817808

 2017-02-03 18:15:22.091879+01 | 1486142122.09188 | 0/4E400290               |            1312817808

 2017-02-03 18:15:23.187776+01 | 1486142123.18778 | 0/4E400290               |            1312817808

 2017-02-03 18:15:24.282517+01 | 1486142124.28252 | 0/4E400290               |            1312817808

 2017-02-03 18:15:25.380989+01 | 1486142125.38099 | 0/4E400290               |            1312817808

 2017-02-03 18:15:26.49327+01 | 1486142126.49327 | 0/4E400290               |            1312817808

 2017-02-03 18:15:27.589169+01 | 1486142127.58917 | 0/4E400290               |            1312817808

 2017-02-03 18:15:28.687768+01 | 1486142128.68777 | 0/4E400290               |            1312817808

 2017-02-03 18:15:29.798414+01 | 1486142129.79841 | 0/4E400290               |            1312817808

 2017-02-03 18:15:30.881081+01 | 1486142130.88108 | 0/4E400290               |            1312817808

 2017-02-03 18:15:31.974722+01 | 1486142131.97472 | 0/4E400290               |            1312817808

 2017-02-03 18:15:33.061327+01 | 1486142133.06133 | 0/4E400290               |            1312817808

 2017-02-03 18:15:34.155217+01 | 1486142134.15522 | 0/4E400290               |            1312817808

 2017-02-03 18:15:35.24134+01 | 1486142135.24134 | 0/4E400290               |            1312817808

 2017-02-03 18:15:36.337708+01 | 1486142136.33771 | 0/4E400290               |            1312817808

 2017-02-03 18:15:37.437679+01 | 1486142137.43768 | 0/4E400290               |            1312817808

 2017-02-03 18:15:38.544144+01 | 1486142138.54414 | 0/4E400290               |            1312817808

 2017-02-03 18:15:39.636004+01 | 1486142139.636 | 0/4E400290               |            1312817808

 2017-02-03 18:15:40.745685+01 | 1486142140.74569 | 0/4E400290               |            1312817808

 2017-02-03 18:15:41.848008+01 | 1486142141.84801 | 0/4E400290               |            1312817808

 2017-02-03 18:15:42.946963+01 | 1486142142.94696 | 0/4E400290               |            1312817808

 2017-02-03 18:15:44.035892+01 | 1486142144.03589 | 0/4E400290               |            1312817808

 2017-02-03 18:15:45.136143+01 | 1486142145.13614 | 0/4E400290               |            1312817808

 2017-02-03 18:15:46.225876+01 | 1486142146.22588 | 0/4E400290               |            1312817808

 2017-02-03 18:15:47.316095+01 | 1486142147.3161 | 0/4E400290               |            1312817808

 2017-02-03 18:15:48.412012+01 | 1486142148.41201 | 0/4E400290               |            1312817808

 2017-02-03 18:15:49.503098+01 | 1486142149.5031 | 0/4E400290               |            1312817808

 2017-02-03 18:15:50.594193+01 | 1486142150.59419 | 0/4E400290               |            1312817808

 2017-02-03 18:15:51.702928+01 | 1486142151.70293 | 0/4E400290               |            1312817808

 2017-02-03 18:15:52.801272+01 | 1486142152.80127 | 0/4E400290               |            1312817808

 2017-02-03 18:15:53.918282+01 | 1486142153.91828 | 0/4E400290               |            1312817808

 2017-02-03 18:15:55.017356+01 | 1486142155.01736 | 0/4E400290               |            1312817808

 2017-02-03 18:15:56.103822+01 | 1486142156.10382 | 0/4E400290               |            1312817808

 2017-02-03 18:15:57.189764+01 | 1486142157.18976 | 0/4E400290               |            1312817808

 2017-02-03 18:15:58.273403+01 | 1486142158.2734 | 0/4E400290               |            1312817808

 2017-02-03 18:15:59.382877+01 | 1486142159.38288 | 0/4E400290               |            1312817808

 2017-02-03 18:16:00.497599+01 | 1486142160.4976 | 0/4E400290               |            1312817808

 2017-02-03 18:16:01.606695+01 | 1486142161.60669 | 0/4E400290               |            1312817808

 2017-02-03 18:16:02.731624+01 | 1486142162.73162 | 0/4E400290               |            1312817808

 2017-02-03 18:16:03.845763+01 | 1486142163.84576 | 0/4E400290               |            1312817808

 2017-02-03 18:16:04.97075+01 | 1486142164.97075 | 0/4E400290               |            1312817808

 2017-02-03 18:16:06.071602+01 | 1486142166.0716 | 0/4E400290               |            1312817808

 2017-02-03 18:16:07.160762+01 | 1486142167.16076 | 0/4E400290               |            1312817808

 2017-02-03 18:16:08.25155+01 | 1486142168.25155 | 0/4E400290               |            1312817808

 2017-02-03 18:16:09.33933+01 | 1486142169.33933 | 0/4E400290               |            1312817808

 2017-02-03 18:16:10.438502+01 | 1486142170.4385 | 0/4E400290               |            1312817808

 2017-02-03 18:16:11.525619+01 | 1486142171.52562 | 0/4E400290               |            1312817808

 2017-02-03 18:16:12.626986+01 | 1486142172.62699 | 0/4E400290               |            1312817808

 2017-02-03 18:16:13.75+01 | 1486142173.75 | 0/4E400290               |            1312817808

 2017-02-03 18:16:14.871539+01 | 1486142174.87154 | 0/4E400290               |            1312817808

 2017-02-03 18:16:16.016771+01 | 1486142176.01677 | 0/4E400290               |            1312817808

 2017-02-03 18:16:17.109117+01 | 1486142177.10912 | 0/4E400290               |            1312817808

 2017-02-03 18:16:18.197782+01 | 1486142178.19778 | 0/4E400290               |            1312817808

 2017-02-03 18:16:19.296057+01 | 1486142179.29606 | 0/4E400290               |            1312817808

 2017-02-03 18:16:20.383138+01 | 1486142180.38314 | 0/4E400290               |            1312817808

 2017-02-03 18:16:21.480004+01 | 1486142181.48 | 0/4E400290               |            1312817808

 2017-02-03 18:16:22.563471+01 | 1486142182.56347 | 0/4E400290               |            1312817808

 2017-02-03 18:16:23.640725+01 | 1486142183.64072 | 0/4E400290               |            1312817808

 2017-02-03 18:16:24.742112+01 | 1486142184.74211 | 0/4E400290               |            1312817808

 2017-02-03 18:16:25.846558+01 | 1486142185.84656 | 0/4E400290               |            1312817808

 2017-02-03 18:16:26.928775+01 | 1486142186.92878 | 0/4E400290               |            1312817808

 2017-02-03 18:16:28.039953+01 | 1486142188.03995 | 0/4E400290               |            1312817808

 2017-02-03 18:16:29.158522+01 | 1486142189.15852 | 0/4E400290               |            1312817808

 2017-02-03 18:16:30.243825+01 | 1486142190.24382 | 0/4E400290               |            1312817808

 2017-02-03 18:16:31.338495+01 | 1486142191.3385 | 0/4E400290               |            1312817808

 2017-02-03 18:16:32.425934+01 | 1486142192.42593 | 0/4E400290               |            1312817808

 2017-02-03 18:16:33.538723+01 | 1486142193.53872 | 0/4E400290               |            1312817808

 2017-02-03 18:16:34.644687+01 | 1486142194.64469 | 0/4E400290               |            1312817808

 2017-02-03 18:16:35.745457+01 | 1486142195.74546 | 0/4E400290               |            1312817808

 2017-02-03 18:16:36.855322+01 | 1486142196.85532 | 0/4E400290               |            1312817808

 2017-02-03 18:16:37.979983+01 | 1486142197.97998 | 0/4E400290               |            1312817808

 2017-02-03 18:16:39.110114+01 | 1486142199.11011 | 0/4E400290               |            1312817808

 2017-02-03 18:16:40.202594+01 | 1486142200.20259 | 0/4E400290               |            1312817808

 2017-02-03 18:16:41.289598+01 | 1486142201.2896 | 0/4E400290               |            1312817808

 2017-02-03 18:16:42.374203+01 | 1486142202.3742 | 0/4E400290               |            1312817808

 2017-02-03 18:16:43.4797+01 | 1486142203.4797 | 0/4E400290               |            1312817808

 2017-02-03 18:16:44.583775+01 | 1486142204.58378 | 0/4E400290               |            1312817808

 2017-02-03 18:16:45.690376+01 | 1486142205.69038 | 0/4E400290               |            1312817808

 2017-02-03 18:16:46.787532+01 | 1486142206.78753 | 0/4E400290               |            1312817808

 2017-02-03 18:16:47.888513+01 | 1486142207.88851 | 0/4E400290               |            1312817808

 2017-02-03 18:16:48.988567+01 | 1486142208.98857 | 0/4E400290               |            1312817808

 2017-02-03 18:16:50.083791+01 | 1486142210.08379 | 0/4E400290               |            1312817808

 2017-02-03 18:16:51.182093+01 | 1486142211.18209 | 0/4E400290               |            1312817808

 2017-02-03 18:16:52.268792+01 | 1486142212.26879 | 0/4E400290               |            1312817808

 2017-02-03 18:16:53.371069+01 | 1486142213.37107 | 0/4E400290               |            1312817808

 2017-02-03 18:16:54.475551+01 | 1486142214.47555 | 0/4E400290               |            1312817808

 2017-02-03 18:16:55.579578+01 | 1486142215.57958 | 0/4E400290               |            1312817808

 2017-02-03 18:16:56.669192+01 | 1486142216.66919 | 0/4E400290               |            1312817808

 2017-02-03 18:16:57.750016+01 | 1486142217.75002 | 0/4E400290               |            1312817808

 2017-02-03 18:16:58.843027+01 | 1486142218.84303 | 0/4E400290               |            1312817808

 2017-02-03 18:16:59.950078+01 | 1486142219.95008 | 0/4E400290               |            1312817808

 2017-02-03 18:17:01.063085+01 | 1486142221.06309 | 0/4E400290               |            1312817808

 2017-02-03 18:17:02.167791+01 | 1486142222.16779 | 0/4E400290               |            1312817808

 2017-02-03 18:17:03.282995+01 | 1486142223.28299 | 0/4E400290               |            1312817808

 2017-02-03 18:17:04.388336+01 | 1486142224.38834 | 0/4E400290               |            1312817808

 2017-02-03 18:17:05.48977+01 | 1486142225.48977 | 0/4E400290               |            1312817808

 2017-02-03 18:17:06.58329+01 | 1486142226.58329 | 0/4E400290               |            1312817808

 2017-02-03 18:17:07.677624+01 | 1486142227.67762 | 0/4E400290               |            1312817808

 2017-02-03 18:17:08.768694+01 | 1486142228.76869 | 0/4E400290               |            1312817808

 2017-02-03 18:17:09.859511+01 | 1486142229.85951 | 0/4E400290               |            1312817808

 2017-02-03 18:17:10.978139+01 | 1486142230.97814 | 0/4E400290               |            1312817808

 2017-02-03 18:17:12.072391+01 | 1486142232.07239 | 0/4E400290               |            1312817808

 2017-02-03 18:17:13.170521+01 | 1486142233.17052 | 0/4E400290               |            1312817808

 2017-02-03 18:17:14.296959+01 | 1486142234.29696 | 0/4E400290               |            1312817808

 2017-02-03 18:17:15.392981+01 | 1486142235.39298 | 0/4E400290               |            1312817808

 2017-02-03 18:17:16.4817+01 | 1486142236.4817 | 0/4E400290               |            1312817808

 2017-02-03 18:17:17.574414+01 | 1486142237.57441 | 0/4E400290               |            1312817808

 2017-02-03 18:17:18.660888+01 | 1486142238.66089 | 0/4E400290               |            1312817808

 2017-02-03 18:17:19.746437+01 | 1486142239.74644 | 0/4E400290               |            1312817808

 2017-02-03 18:17:20.854131+01 | 1486142240.85413 | 0/4E400290               |            1312817808

 2017-02-03 18:17:21.976874+01 | 1486142241.97687 | 0/4E400290               |            1312817808

 2017-02-03 18:17:23.088642+01 | 1486142243.08864 | 0/4E400290               |            1312817808

 2017-02-03 18:17:24.205171+01 | 1486142244.20517 | 0/4E400290               |            1312817808

 2017-02-03 18:17:25.305769+01 | 1486142245.30577 | 0/4E400290               |            1312817808

 2017-02-03 18:17:26.401139+01 | 1486142246.40114 | 0/4E400290               |            1312817808

 2017-02-03 18:17:27.497265+01 | 1486142247.49727 | 0/4E400290               |            1312817808

 2017-02-03 18:17:28.585217+01 | 1486142248.58522 | 0/4E400290               |            1312817808

 2017-02-03 18:17:29.687703+01 | 1486142249.6877 | 0/4E400290               |            1312817808

 2017-02-03 18:17:30.783528+01 | 1486142250.78353 | 0/4E400290               |            1312817808

 2017-02-03 18:17:31.869025+01 | 1486142251.86902 | 0/4E400290               |            1312817808

 2017-02-03 18:17:32.982507+01 | 1486142252.98251 | 0/4E400290               |            1312817808

 2017-02-03 18:17:34.076796+01 | 1486142254.0768 | 0/4E400290               |            1312817808

 2017-02-03 18:17:35.187463+01 | 1486142255.18746 | 0/4E400290               |            1312817808

 2017-02-03 18:17:36.305326+01 | 1486142256.30533 | 0/4E400290               |            1312817808

 2017-02-03 18:17:37.403778+01 | 1486142257.40378 | 0/4E400290               |            1312817808

 2017-02-03 18:17:38.491171+01 | 1486142258.49117 | 0/4E400290               |            1312817808

 2017-02-03 18:17:39.58493+01 | 1486142259.58493 | 0/4E400290               |            1312817808

 2017-02-03 18:17:40.680592+01 | 1486142260.68059 | 0/4E400290               |            1312817808

 2017-02-03 18:17:41.76904+01 | 1486142261.76904 | 0/4E400290               |            1312817808

 2017-02-03 18:17:42.899514+01 | 1486142262.89951 | 0/4E400290               |            1312817808

 2017-02-03 18:17:44.013564+01 | 1486142264.01356 | 0/4E400290               |            1312817808

 2017-02-03 18:17:45.170564+01 | 1486142265.17056 | 0/4E400290               |            1312817808

 2017-02-03 18:17:46.276935+01 | 1486142266.27694 | 0/4E400290               |            1312817808

 2017-02-03 18:17:47.396937+01 | 1486142267.39694 | 0/4E400290               |            1312817808

 2017-02-03 18:17:48.524132+01 | 1486142268.52413 | 0/4E400290               |            1312817808

