 2017-02-03 13:56:27.433886+01 | 1486126587.43389 | 3/1AB8AC0                |           12912921280

 2017-02-03 13:56:28.523177+01 | 1486126588.52318 | 3/1AB8AC0                |           12912921280

 2017-02-03 13:56:29.628166+01 | 1486126589.62817 | 3/1AB8AC0                |           12912921280

 2017-02-03 13:56:30.73979+01 | 1486126590.73979 | 3/1AB8AC0                |           12912921280

 2017-02-03 13:56:31.841883+01 | 1486126591.84188 | 3/1AB8AC0                |           12912921280

 2017-02-03 13:56:32.955689+01 | 1486126592.95569 | 3/1AB8AC0                |           12912921280

 2017-02-03 13:56:34.068125+01 | 1486126594.06813 | 3/1AB8AC0                |           12912921280

 2017-02-03 13:56:35.173405+01 | 1486126595.1734 | 3/1AB8AC0                |           12912921280

 2017-02-03 13:56:36.275428+01 | 1486126596.27543 | 3/1AB8AC0                |           12912921280

 2017-02-03 13:56:37.375765+01 | 1486126597.37577 | 3/1AB8AC0                |           12912921280

 2017-02-03 13:56:38.486826+01 | 1486126598.48683 | 3/1AB8AC0                |           12912921280

 2017-02-03 13:56:39.594584+01 | 1486126599.59458 | 3/1AB8AC0                |           12912921280

 2017-02-03 13:56:40.715091+01 | 1486126600.71509 | 3/1AB8AC0                |           12912921280

 2017-02-03 13:56:41.824857+01 | 1486126601.82486 | 3/1AB8AC0                |           12912921280

 2017-02-03 13:56:42.925551+01 | 1486126602.92555 | 3/1AB8AF8                |           12912921336

 2017-02-03 13:56:44.037394+01 | 1486126604.03739 | 3/1AB8AF8                |           12912921336

 2017-02-03 13:56:45.144992+01 | 1486126605.14499 | 3/1AB8AF8                |           12912921336

 2017-02-03 13:56:46.257271+01 | 1486126606.25727 | 3/1AB8AF8                |           12912921336

 2017-02-03 13:56:47.369717+01 | 1486126607.36972 | 3/1AB8AF8                |           12912921336

 2017-02-03 13:56:48.472183+01 | 1486126608.47218 | 3/1AB8AF8                |           12912921336

 2017-02-03 13:56:49.570033+01 | 1486126609.57003 | 3/1AB8AF8                |           12912921336

 2017-02-03 13:56:50.681081+01 | 1486126610.68108 | 3/1AB8AF8                |           12912921336

 2017-02-03 13:56:51.789086+01 | 1486126611.78909 | 3/1AB8AF8                |           12912921336

 2017-02-03 13:56:52.885678+01 | 1486126612.88568 | 3/1AB8AF8                |           12912921336

 2017-02-03 13:56:53.989106+01 | 1486126613.98911 | 3/1AB8AF8                |           12912921336

 2017-02-03 13:56:55.092482+01 | 1486126615.09248 | 3/1AB8AF8                |           12912921336

 2017-02-03 13:56:56.200947+01 | 1486126616.20095 | 3/1AB8AF8                |           12912921336

 2017-02-03 13:56:57.307921+01 | 1486126617.30792 | 3/1AB8AF8                |           12912921336

 2017-02-03 13:56:58.423122+01 | 1486126618.42312 | 3/1AB8AF8                |           12912921336

 2017-02-03 13:56:59.563561+01 | 1486126619.56356 | 3/1AB8AF8                |           12912921336

 2017-02-03 13:57:00.673672+01 | 1486126620.67367 | 3/1AB8AF8                |           12912921336

 2017-02-03 13:57:01.776897+01 | 1486126621.7769 | 3/1AB8AF8                |           12912921336

 2017-02-03 13:57:02.899227+01 | 1486126622.89923 | 3/1AB8AF8                |           12912921336

 2017-02-03 13:57:04.007521+01 | 1486126624.00752 | 3/1AB8AF8                |           12912921336

 2017-02-03 13:57:05.112022+01 | 1486126625.11202 | 3/1AB8AF8                |           12912921336

 2017-02-03 13:57:06.222278+01 | 1486126626.22228 | 3/1AB8AF8                |           12912921336

 2017-02-03 13:57:07.330404+01 | 1486126627.3304 | 3/1AB8AF8                |           12912921336

 2017-02-03 13:57:08.455524+01 | 1486126628.45552 | 3/1AB8AF8                |           12912921336

 2017-02-03 13:57:09.569398+01 | 1486126629.5694 | 3/1AB8AF8                |           12912921336

 2017-02-03 13:57:10.684786+01 | 1486126630.68479 | 3/1AB8AF8                |           12912921336

 2017-02-03 13:57:11.791253+01 | 1486126631.79125 | 3/1AB8AF8                |           12912921336

 2017-02-03 13:57:12.903328+01 | 1486126632.90333 | 3/1AB8AF8                |           12912921336

 2017-02-03 13:57:14.028927+01 | 1486126634.02893 | 3/1AB8AF8                |           12912921336

 2017-02-03 13:57:15.127931+01 | 1486126635.12793 | 3/1AB8AF8                |           12912921336

 2017-02-03 13:57:16.244472+01 | 1486126636.24447 | 3/1AB8AF8                |           12912921336

 2017-02-03 13:57:17.350341+01 | 1486126637.35034 | 3/1AB8AF8                |           12912921336

 2017-02-03 13:57:18.455246+01 | 1486126638.45525 | 3/1AB8AF8                |           12912921336

 2017-02-03 13:57:19.575501+01 | 1486126639.5755 | 3/1AB8AF8                |           12912921336

 2017-02-03 13:57:20.67926+01 | 1486126640.67926 | 3/1AB8AF8                |           12912921336

 2017-02-03 13:57:21.787531+01 | 1486126641.78753 | 3/1AB8AF8                |           12912921336

 2017-02-03 13:57:22.893322+01 | 1486126642.89332 | 3/1AB8AF8                |           12912921336

 2017-02-03 13:57:23.986991+01 | 1486126643.98699 | 3/1AB8AF8                |           12912921336

 2017-02-03 13:57:25.091319+01 | 1486126645.09132 | 3/1AB8AF8                |           12912921336

 2017-02-03 13:57:26.217351+01 | 1486126646.21735 | 3/1AB8AF8                |           12912921336

 2017-02-03 13:57:27.347404+01 | 1486126647.3474 | 3/1AB8AF8                |           12912921336

 2017-02-03 13:57:28.459379+01 | 1486126648.45938 | 3/1AB8AF8                |           12912921336

 2017-02-03 13:57:29.558777+01 | 1486126649.55878 | 3/1AB8AF8                |           12912921336

 2017-02-03 13:57:30.681363+01 | 1486126650.68136 | 3/1AB8AF8                |           12912921336

 2017-02-03 13:57:31.795458+01 | 1486126651.79546 | 3/1AB8AF8                |           12912921336

 2017-02-03 13:57:32.885062+01 | 1486126652.88506 | 3/1AB8AF8                |           12912921336

 2017-02-03 13:57:33.990532+01 | 1486126653.99053 | 3/1AB8AF8                |           12912921336

 2017-02-03 13:57:35.097231+01 | 1486126655.09723 | 3/1AB8AF8                |           12912921336

 2017-02-03 13:57:36.213505+01 | 1486126656.21351 | 3/1AB8AF8                |           12912921336

 2017-02-03 13:57:37.312202+01 | 1486126657.3122 | 3/1AB8AF8                |           12912921336

 2017-02-03 13:57:38.423998+01 | 1486126658.424 | 3/1AB8AF8                |           12912921336

 2017-02-03 13:57:39.542397+01 | 1486126659.5424 | 3/1AB8AF8                |           12912921336

 2017-02-03 13:57:40.645374+01 | 1486126660.64537 | 3/1AB8AF8                |           12912921336

 2017-02-03 13:57:41.746669+01 | 1486126661.74667 | 3/1AB8AF8                |           12912921336

 2017-02-03 13:57:42.8667+01 | 1486126662.8667 | 3/1AB8AF8                |           12912921336

 2017-02-03 13:57:43.977945+01 | 1486126663.97795 | 3/1AB8AF8                |           12912921336

 2017-02-03 13:57:45.104591+01 | 1486126665.10459 | 3/1AB8AF8                |           12912921336

 2017-02-03 13:57:46.209156+01 | 1486126666.20916 | 3/1AB8AF8                |           12912921336

 2017-02-03 13:57:47.314141+01 | 1486126667.31414 | 3/1AB8AF8                |           12912921336

 2017-02-03 13:57:48.432753+01 | 1486126668.43275 | 3/1AB8AF8                |           12912921336

 2017-02-03 13:57:49.551164+01 | 1486126669.55116 | 3/1AB8AF8                |           12912921336

 2017-02-03 13:57:50.667362+01 | 1486126670.66736 | 3/1AB8AF8                |           12912921336

 2017-02-03 13:57:51.772581+01 | 1486126671.77258 | 3/1AB8AF8                |           12912921336

 2017-02-03 13:57:52.883802+01 | 1486126672.8838 | 3/1AB8AF8                |           12912921336

 2017-02-03 13:57:53.996264+01 | 1486126673.99626 | 3/1AB8AF8                |           12912921336

 2017-02-03 13:57:55.114431+01 | 1486126675.11443 | 3/1AB8AF8                |           12912921336

 2017-02-03 13:57:56.231729+01 | 1486126676.23173 | 3/1AB8AF8                |           12912921336

 2017-02-03 13:57:57.340784+01 | 1486126677.34078 | 3/1AB8AF8                |           12912921336

 2017-02-03 13:57:58.456122+01 | 1486126678.45612 | 3/1AB8AF8                |           12912921336

 2017-02-03 13:57:59.564606+01 | 1486126679.56461 | 3/1AB8AF8                |           12912921336

 2017-02-03 13:58:00.664176+01 | 1486126680.66418 | 3/1AB8AF8                |           12912921336

 2017-02-03 13:58:01.774988+01 | 1486126681.77499 | 3/1AB8AF8                |           12912921336

 2017-02-03 13:58:02.886496+01 | 1486126682.8865 | 3/1AB8AF8                |           12912921336

 2017-02-03 13:58:03.989775+01 | 1486126683.98977 | 3/1AB8AF8                |           12912921336

 2017-02-03 13:58:05.102027+01 | 1486126685.10203 | 3/1AB8AF8                |           12912921336

 2017-02-03 13:58:06.211692+01 | 1486126686.21169 | 3/1AB8AF8                |           12912921336

 2017-02-03 13:58:07.307588+01 | 1486126687.30759 | 3/1AB8AF8                |           12912921336

 2017-02-03 13:58:08.413012+01 | 1486126688.41301 | 3/1AB8AF8                |           12912921336

 2017-02-03 13:58:09.525569+01 | 1486126689.52557 | 3/1AB8AF8                |           12912921336

 2017-02-03 13:58:10.630526+01 | 1486126690.63053 | 3/1AB8AF8                |           12912921336

 2017-02-03 13:58:11.742365+01 | 1486126691.74236 | 3/1AB8AF8                |           12912921336

 2017-02-03 13:58:12.845668+01 | 1486126692.84567 | 3/1AB8AF8                |           12912921336

 2017-02-03 13:58:13.961064+01 | 1486126693.96106 | 3/1AB8AF8                |           12912921336

 2017-02-03 13:58:15.084446+01 | 1486126695.08445 | 3/1AB8AF8                |           12912921336

 2017-02-03 13:58:16.193489+01 | 1486126696.19349 | 3/1AB8AF8                |           12912921336

 2017-02-03 13:58:17.301403+01 | 1486126697.3014 | 3/1AB8AF8                |           12912921336

 2017-02-03 13:58:18.411276+01 | 1486126698.41128 | 3/1AB8AF8                |           12912921336

 2017-02-03 13:58:19.537522+01 | 1486126699.53752 | 3/1AB8AF8                |           12912921336

 2017-02-03 13:58:20.639896+01 | 1486126700.6399 | 3/1AB8AF8                |           12912921336

 2017-02-03 13:58:21.732973+01 | 1486126701.73297 | 3/1AB8AF8                |           12912921336

 2017-02-03 13:58:22.853663+01 | 1486126702.85366 | 3/1AB8AF8                |           12912921336

 2017-02-03 13:58:23.955693+01 | 1486126703.95569 | 3/1AB8AF8                |           12912921336

 2017-02-03 13:58:25.056619+01 | 1486126705.05662 | 3/1AB8AF8                |           12912921336

 2017-02-03 13:58:26.185067+01 | 1486126706.18507 | 3/1AB8AF8                |           12912921336

 2017-02-03 13:58:27.306087+01 | 1486126707.30609 | 3/1AB8AF8                |           12912921336

 2017-02-03 13:58:28.408853+01 | 1486126708.40885 | 3/1AB8AF8                |           12912921336

 2017-02-03 13:58:29.524201+01 | 1486126709.5242 | 3/1AB8AF8                |           12912921336

 2017-02-03 13:58:30.63122+01 | 1486126710.63122 | 3/1AB8AF8                |           12912921336

 2017-02-03 13:58:31.770354+01 | 1486126711.77035 | 3/1AB8AF8                |           12912921336

 2017-02-03 13:58:32.870087+01 | 1486126712.87009 | 3/1AB8AF8                |           12912921336

 2017-02-03 13:58:33.976232+01 | 1486126713.97623 | 3/1AB8AF8                |           12912921336

 2017-02-03 13:58:35.109488+01 | 1486126715.10949 | 3/1AB8AF8                |           12912921336

 2017-02-03 13:58:36.221457+01 | 1486126716.22146 | 3/1AB8AF8                |           12912921336

 2017-02-03 13:58:37.329084+01 | 1486126717.32908 | 3/1AB8AF8                |           12912921336

 2017-02-03 13:58:38.435131+01 | 1486126718.43513 | 3/1AB8AF8                |           12912921336

 2017-02-03 13:58:39.54027+01 | 1486126719.54027 | 3/1AB8AF8                |           12912921336

 2017-02-03 13:58:40.643717+01 | 1486126720.64372 | 3/1AB8AF8                |           12912921336

 2017-02-03 13:58:41.754933+01 | 1486126721.75493 | 3/1AB8AF8                |           12912921336

 2017-02-03 13:58:42.866241+01 | 1486126722.86624 | 3/1AB8AF8                |           12912921336

 2017-02-03 13:58:43.975073+01 | 1486126723.97507 | 3/1AB8AF8                |           12912921336

 2017-02-03 13:58:45.090059+01 | 1486126725.09006 | 3/1AB8AF8                |           12912921336

 2017-02-03 13:58:46.177384+01 | 1486126726.17738 | 3/1AB8AF8                |           12912921336

 2017-02-03 13:58:47.290032+01 | 1486126727.29003 | 3/1AB8AF8                |           12912921336

 2017-02-03 13:58:48.388172+01 | 1486126728.38817 | 3/1AB8AF8                |           12912921336

 2017-02-03 13:58:49.493045+01 | 1486126729.49305 | 3/1AB8AF8                |           12912921336

 2017-02-03 13:58:50.600924+01 | 1486126730.60092 | 3/1AB8AF8                |           12912921336

 2017-02-03 13:58:51.712598+01 | 1486126731.7126 | 3/1AB8AF8                |           12912921336

 2017-02-03 13:58:52.830018+01 | 1486126732.83002 | 3/1AB8AF8                |           12912921336

 2017-02-03 13:58:53.948421+01 | 1486126733.94842 | 3/1AB8AF8                |           12912921336

 2017-02-03 13:58:55.057976+01 | 1486126735.05798 | 3/1AB8AF8                |           12912921336

 2017-02-03 13:58:56.171319+01 | 1486126736.17132 | 3/1AB8AF8                |           12912921336

 2017-02-03 13:58:57.27705+01 | 1486126737.27705 | 3/1AB8AF8                |           12912921336

 2017-02-03 13:58:58.381275+01 | 1486126738.38127 | 3/1AB8AF8                |           12912921336

 2017-02-03 13:58:59.487809+01 | 1486126739.48781 | 3/1AB8AF8                |           12912921336

 2017-02-03 13:59:00.591857+01 | 1486126740.59186 | 3/1AB8AF8                |           12912921336

 2017-02-03 13:59:01.696273+01 | 1486126741.69627 | 3/1AB8AF8                |           12912921336

 2017-02-03 13:59:02.793794+01 | 1486126742.79379 | 3/1AB8AF8                |           12912921336

 2017-02-03 13:59:03.91462+01 | 1486126743.91462 | 3/1AB8AF8                |           12912921336

 2017-02-03 13:59:05.033238+01 | 1486126745.03324 | 3/1AB8AF8                |           12912921336

 2017-02-03 13:59:06.138445+01 | 1486126746.13844 | 3/1AB8AF8                |           12912921336

 2017-02-03 13:59:07.241668+01 | 1486126747.24167 | 3/1AB8AF8                |           12912921336

 2017-02-03 13:59:08.35494+01 | 1486126748.35494 | 3/1AB8AF8                |           12912921336

 2017-02-03 13:59:09.467338+01 | 1486126749.46734 | 3/1AB8AF8                |           12912921336

 2017-02-03 13:59:10.569681+01 | 1486126750.56968 | 3/1AB8AF8                |           12912921336

 2017-02-03 13:59:11.690458+01 | 1486126751.69046 | 3/1AB8AF8                |           12912921336

 2017-02-03 13:59:12.812862+01 | 1486126752.81286 | 3/1AB8AF8                |           12912921336

 2017-02-03 13:59:13.904329+01 | 1486126753.90433 | 3/1AB8AF8                |           12912921336

 2017-02-03 13:59:15.002746+01 | 1486126755.00275 | 3/1AB8AF8                |           12912921336

 2017-02-03 13:59:16.094937+01 | 1486126756.09494 | 3/1AB8AF8                |           12912921336

 2017-02-03 13:59:17.189894+01 | 1486126757.18989 | 3/1AB8AF8                |           12912921336

 2017-02-03 13:59:18.283779+01 | 1486126758.28378 | 3/1AB8AF8                |           12912921336

 2017-02-03 13:59:19.400513+01 | 1486126759.40051 | 3/1AB8AF8                |           12912921336

 2017-02-03 13:59:20.499541+01 | 1486126760.49954 | 3/1AB8AF8                |           12912921336

 2017-02-03 13:59:21.593957+01 | 1486126761.59396 | 3/1AB8AF8                |           12912921336

 2017-02-03 13:59:22.693863+01 | 1486126762.69386 | 3/1AB8AF8                |           12912921336

 2017-02-03 13:59:23.804003+01 | 1486126763.804 | 3/1AB8AF8                |           12912921336

 2017-02-03 13:59:24.912017+01 | 1486126764.91202 | 3/1AB8AF8                |           12912921336

 2017-02-03 13:59:26.016511+01 | 1486126766.01651 | 3/1AB8AF8                |           12912921336

 2017-02-03 13:59:27.117826+01 | 1486126767.11783 | 3/1AB8AF8                |           12912921336

 2017-02-03 13:59:28.234194+01 | 1486126768.23419 | 3/1AB8AF8                |           12912921336

 2017-02-03 13:59:29.341192+01 | 1486126769.34119 | 3/1AB8AF8                |           12912921336

 2017-02-03 13:59:30.448663+01 | 1486126770.44866 | 3/1AB8AF8                |           12912921336

 2017-02-03 13:59:31.555489+01 | 1486126771.55549 | 3/1AB8AF8                |           12912921336

 2017-02-03 13:59:32.675572+01 | 1486126772.67557 | 3/1AB8AF8                |           12912921336

 2017-02-03 13:59:33.771733+01 | 1486126773.77173 | 3/1AB8AF8                |           12912921336

 2017-02-03 13:59:34.881267+01 | 1486126774.88127 | 3/1AB8AF8                |           12912921336

 2017-02-03 13:59:35.995512+01 | 1486126775.99551 | 3/1AB8AF8                |           12912921336

 2017-02-03 13:59:37.100384+01 | 1486126777.10038 | 3/1AB8AF8                |           12912921336

 2017-02-03 13:59:38.214607+01 | 1486126778.21461 | 3/1AB8AF8                |           12912921336

 2017-02-03 13:59:39.331246+01 | 1486126779.33125 | 3/1AB8AF8                |           12912921336

 2017-02-03 13:59:40.428799+01 | 1486126780.4288 | 3/1AB8AF8                |           12912921336

 2017-02-03 13:59:41.541074+01 | 1486126781.54107 | 3/1AB8AF8                |           12912921336

 2017-02-03 13:59:42.662809+01 | 1486126782.66281 | 3/1AB8AF8                |           12912921336

 2017-02-03 13:59:43.786122+01 | 1486126783.78612 | 3/1AB8AF8                |           12912921336

 2017-02-03 13:59:44.89001+01 | 1486126784.89001 | 3/1AB8AF8                |           12912921336

 2017-02-03 13:59:45.992629+01 | 1486126785.99263 | 3/1AB8AF8                |           12912921336

 2017-02-03 13:59:47.086312+01 | 1486126787.08631 | 3/1AB8AF8                |           12912921336

 2017-02-03 13:59:48.192014+01 | 1486126788.19201 | 3/1AB8AF8                |           12912921336

 2017-02-03 13:59:49.302355+01 | 1486126789.30236 | 3/1AB8AF8                |           12912921336

 2017-02-03 13:59:50.412887+01 | 1486126790.41289 | 3/1AB8AF8                |           12912921336

 2017-02-03 13:59:51.528522+01 | 1486126791.52852 | 3/1AB8AF8                |           12912921336

 2017-02-03 13:59:52.648736+01 | 1486126792.64874 | 3/1AB8AF8                |           12912921336

 2017-02-03 13:59:53.736369+01 | 1486126793.73637 | 3/1AB8AF8                |           12912921336

 2017-02-03 13:59:54.823951+01 | 1486126794.82395 | 3/1AB8AF8                |           12912921336

 2017-02-03 13:59:55.934219+01 | 1486126795.93422 | 3/1AB8AF8                |           12912921336

 2017-02-03 13:59:57.03972+01 | 1486126797.03972 | 3/1AB8AF8                |           12912921336

 2017-02-03 13:59:58.143515+01 | 1486126798.14352 | 3/1AB8AF8                |           12912921336

 2017-02-03 13:59:59.237952+01 | 1486126799.23795 | 3/1AB8AF8                |           12912921336

 2017-02-03 14:00:00.335361+01 | 1486126800.33536 | 3/1AB8AF8                |           12912921336

 2017-02-03 14:00:01.442692+01 | 1486126801.44269 | 3/1AB8AF8                |           12912921336

 2017-02-03 14:00:02.57416+01 | 1486126802.57416 | 3/1AB8AF8                |           12912921336

 2017-02-03 14:00:03.680479+01 | 1486126803.68048 | 3/1AB8AF8                |           12912921336

 2017-02-03 14:00:04.772118+01 | 1486126804.77212 | 3/1AB8AF8                |           12912921336

 2017-02-03 14:00:05.876446+01 | 1486126805.87645 | 3/1AB8AF8                |           12912921336

 2017-02-03 14:00:07.001578+01 | 1486126807.00158 | 3/1AB8AF8                |           12912921336

 2017-02-03 14:00:08.112798+01 | 1486126808.1128 | 3/1AB8AF8                |           12912921336

 2017-02-03 14:00:09.237412+01 | 1486126809.23741 | 3/1AB8AF8                |           12912921336

 2017-02-03 14:00:10.344264+01 | 1486126810.34426 | 3/1AB8AF8                |           12912921336

 2017-02-03 14:00:11.454406+01 | 1486126811.45441 | 3/1AB8AF8                |           12912921336

 2017-02-03 14:00:12.558806+01 | 1486126812.55881 | 3/1AB8AF8                |           12912921336

 2017-02-03 14:00:13.668794+01 | 1486126813.66879 | 3/1AB8AF8                |           12912921336

 2017-02-03 14:00:14.754799+01 | 1486126814.7548 | 3/1AB8AF8                |           12912921336

 2017-02-03 14:00:15.853268+01 | 1486126815.85327 | 3/1AB8AF8                |           12912921336

 2017-02-03 14:00:16.951296+01 | 1486126816.9513 | 3/1AB8AF8                |           12912921336

 2017-02-03 14:00:18.056269+01 | 1486126818.05627 | 3/1AB8AF8                |           12912921336

 2017-02-03 14:00:19.172227+01 | 1486126819.17223 | 3/1AB8AF8                |           12912921336

 2017-02-03 14:00:20.269141+01 | 1486126820.26914 | 3/1AB8AF8                |           12912921336

 2017-02-03 14:00:21.371271+01 | 1486126821.37127 | 3/1AB8AF8                |           12912921336

 2017-02-03 14:00:22.485262+01 | 1486126822.48526 | 3/1AB8AF8                |           12912921336

 2017-02-03 14:00:23.600052+01 | 1486126823.60005 | 3/1AB8AF8                |           12912921336

 2017-02-03 14:00:24.702616+01 | 1486126824.70262 | 3/1AB8AF8                |           12912921336

 2017-02-03 14:00:25.807161+01 | 1486126825.80716 | 3/1AB8AF8                |           12912921336

 2017-02-03 14:00:26.913078+01 | 1486126826.91308 | 3/1AB8AF8                |           12912921336

 2017-02-03 14:00:28.017637+01 | 1486126828.01764 | 3/1AB8AF8                |           12912921336

 2017-02-03 14:00:29.109344+01 | 1486126829.10934 | 3/1AB8AF8                |           12912921336

 2017-02-03 14:00:30.219884+01 | 1486126830.21988 | 3/1AB8AF8                |           12912921336

 2017-02-03 14:00:31.329827+01 | 1486126831.32983 | 3/1AB8AF8                |           12912921336

 2017-02-03 14:00:32.426282+01 | 1486126832.42628 | 3/1AB8AF8                |           12912921336

 2017-02-03 14:00:33.536757+01 | 1486126833.53676 | 3/1AB8AF8                |           12912921336

 2017-02-03 14:00:34.649744+01 | 1486126834.64974 | 3/1AB8AF8                |           12912921336

 2017-02-03 14:00:35.751816+01 | 1486126835.75182 | 3/1AB8AF8                |           12912921336

 2017-02-03 14:00:36.842926+01 | 1486126836.84293 | 3/1AB8AF8                |           12912921336

 2017-02-03 14:00:37.933066+01 | 1486126837.93307 | 3/1AB8AF8                |           12912921336

 2017-02-03 14:00:39.033597+01 | 1486126839.0336 | 3/1AB8AF8                |           12912921336

 2017-02-03 14:00:40.138896+01 | 1486126840.1389 | 3/1AB8AF8                |           12912921336

 2017-02-03 14:00:41.24985+01 | 1486126841.24985 | 3/1AB8AF8                |           12912921336

 2017-02-03 14:00:42.344696+01 | 1486126842.3447 | 3/1AB8AF8                |           12912921336

 2017-02-03 14:00:43.466078+01 | 1486126843.46608 | 3/1AB8AF8                |           12912921336

 2017-02-03 14:00:44.582641+01 | 1486126844.58264 | 3/1AB8AF8                |           12912921336

 2017-02-03 14:00:45.696684+01 | 1486126845.69668 | 3/1AB8AF8                |           12912921336

 2017-02-03 14:00:46.804212+01 | 1486126846.80421 | 3/1AB8AF8                |           12912921336

 2017-02-03 14:00:47.904629+01 | 1486126847.90463 | 3/1AB8AF8                |           12912921336

 2017-02-03 14:00:49.001228+01 | 1486126849.00123 | 3/1AB8AF8                |           12912921336

 2017-02-03 14:00:50.086829+01 | 1486126850.08683 | 3/1AB8AF8                |           12912921336

 2017-02-03 14:00:51.200308+01 | 1486126851.20031 | 3/1AB8AF8                |           12912921336

 2017-02-03 14:00:52.289899+01 | 1486126852.2899 | 3/1AB8AF8                |           12912921336

 2017-02-03 14:00:53.402435+01 | 1486126853.40244 | 3/1AB8AF8                |           12912921336

 2017-02-03 14:00:54.506213+01 | 1486126854.50621 | 3/1AB8AF8                |           12912921336

 2017-02-03 14:00:55.609697+01 | 1486126855.6097 | 3/1AB8AF8                |           12912921336

 2017-02-03 14:00:56.718067+01 | 1486126856.71807 | 3/1AB8AF8                |           12912921336

 2017-02-03 14:00:57.810045+01 | 1486126857.81005 | 3/1AB8AF8                |           12912921336

 2017-02-03 14:00:58.906065+01 | 1486126858.90606 | 3/1AB8AF8                |           12912921336

 2017-02-03 14:01:00.022187+01 | 1486126860.02219 | 3/1AB8AF8                |           12912921336

 2017-02-03 14:01:01.132016+01 | 1486126861.13202 | 3/1AB8AF8                |           12912921336

 2017-02-03 14:01:02.232523+01 | 1486126862.23252 | 3/1AB8AF8                |           12912921336

 2017-02-03 14:01:03.333813+01 | 1486126863.33381 | 3/1AB8AF8                |           12912921336

 2017-02-03 14:01:04.461422+01 | 1486126864.46142 | 3/1AB8AF8                |           12912921336

 2017-02-03 14:01:05.550929+01 | 1486126865.55093 | 3/1AB8AF8                |           12912921336

 2017-02-03 14:01:06.659256+01 | 1486126866.65926 | 3/1AB8AF8                |           12912921336

 2017-02-03 14:01:07.760929+01 | 1486126867.76093 | 3/1AB8AF8                |           12912921336

 2017-02-03 14:01:08.857432+01 | 1486126868.85743 | 3/1AB8AF8                |           12912921336

 2017-02-03 14:01:09.957044+01 | 1486126869.95704 | 3/1AB8AF8                |           12912921336

 2017-02-03 14:01:11.064422+01 | 1486126871.06442 | 3/1AB8AF8                |           12912921336

 2017-02-03 14:01:12.16894+01 | 1486126872.16894 | 3/1AB8AF8                |           12912921336

 2017-02-03 14:01:13.278655+01 | 1486126873.27866 | 3/1AB8AF8                |           12912921336

 2017-02-03 14:01:14.385478+01 | 1486126874.38548 | 3/1AB8AF8                |           12912921336

 2017-02-03 14:01:15.484439+01 | 1486126875.48444 | 3/1AB8AF8                |           12912921336

 2017-02-03 14:01:16.592516+01 | 1486126876.59252 | 3/1AB8AF8                |           12912921336

 2017-02-03 14:01:17.697071+01 | 1486126877.69707 | 3/1AB8AF8                |           12912921336

 2017-02-03 14:01:18.803878+01 | 1486126878.80388 | 3/1AB8AF8                |           12912921336

 2017-02-03 14:01:19.902718+01 | 1486126879.90272 | 3/1AB8AF8                |           12912921336

 2017-02-03 14:01:21.009893+01 | 1486126881.00989 | 3/1AB8AF8                |           12912921336

 2017-02-03 14:01:22.112956+01 | 1486126882.11296 | 3/1AB8AF8                |           12912921336

 2017-02-03 14:01:23.217366+01 | 1486126883.21737 | 3/1AB8AF8                |           12912921336

 2017-02-03 14:01:24.324414+01 | 1486126884.32441 | 3/1AB8AF8                |           12912921336

 2017-02-03 14:01:25.427867+01 | 1486126885.42787 | 3/1AB8AF8                |           12912921336

 2017-02-03 14:01:26.545567+01 | 1486126886.54557 | 3/1AB8AF8                |           12912921336

