 2017-02-06 09:06:45.324738+01 | 1486368405.32474 | pgbench_accounts |      13429514240
 2017-02-06 09:06:45.324738+01 | 1486368405.32474 | pgbench_tellers  |           450560
 2017-02-06 09:06:45.324738+01 | 1486368405.32474 | pgbench_history  |                0
 2017-02-06 09:06:45.324738+01 | 1486368405.32474 | pgbench_branches |            40960

 2017-02-06 09:06:46.47599+01 | 1486368406.47599 | pgbench_accounts |      13429514240
 2017-02-06 09:06:46.47599+01 | 1486368406.47599 | pgbench_tellers  |           450560
 2017-02-06 09:06:46.47599+01 | 1486368406.47599 | pgbench_history  |                0
 2017-02-06 09:06:46.47599+01 | 1486368406.47599 | pgbench_branches |            40960

 2017-02-06 09:06:47.638216+01 | 1486368407.63822 | pgbench_accounts |      13429514240
 2017-02-06 09:06:47.638216+01 | 1486368407.63822 | pgbench_tellers  |           450560
 2017-02-06 09:06:47.638216+01 | 1486368407.63822 | pgbench_history  |                0
 2017-02-06 09:06:47.638216+01 | 1486368407.63822 | pgbench_branches |            40960

 2017-02-06 09:06:48.794187+01 | 1486368408.79419 | pgbench_accounts |      13429514240
 2017-02-06 09:06:48.794187+01 | 1486368408.79419 | pgbench_tellers  |           450560
 2017-02-06 09:06:48.794187+01 | 1486368408.79419 | pgbench_history  |                0
 2017-02-06 09:06:48.794187+01 | 1486368408.79419 | pgbench_branches |            40960

 2017-02-06 09:06:49.958875+01 | 1486368409.95887 | pgbench_accounts |      13429514240
 2017-02-06 09:06:49.958875+01 | 1486368409.95887 | pgbench_tellers  |           450560
 2017-02-06 09:06:49.958875+01 | 1486368409.95887 | pgbench_history  |                0
 2017-02-06 09:06:49.958875+01 | 1486368409.95887 | pgbench_branches |            40960

 2017-02-06 09:06:51.13545+01 | 1486368411.13545 | pgbench_accounts |      13429514240
 2017-02-06 09:06:51.13545+01 | 1486368411.13545 | pgbench_tellers  |           450560
 2017-02-06 09:06:51.13545+01 | 1486368411.13545 | pgbench_history  |                0
 2017-02-06 09:06:51.13545+01 | 1486368411.13545 | pgbench_branches |            40960

 2017-02-06 09:06:52.32494+01 | 1486368412.32494 | pgbench_accounts |      13429514240
 2017-02-06 09:06:52.32494+01 | 1486368412.32494 | pgbench_tellers  |           450560
 2017-02-06 09:06:52.32494+01 | 1486368412.32494 | pgbench_history  |                0
 2017-02-06 09:06:52.32494+01 | 1486368412.32494 | pgbench_branches |            40960

 2017-02-06 09:06:53.469626+01 | 1486368413.46963 | pgbench_accounts |      13429514240
 2017-02-06 09:06:53.469626+01 | 1486368413.46963 | pgbench_tellers  |           450560
 2017-02-06 09:06:53.469626+01 | 1486368413.46963 | pgbench_history  |                0
 2017-02-06 09:06:53.469626+01 | 1486368413.46963 | pgbench_branches |            40960

 2017-02-06 09:06:54.599377+01 | 1486368414.59938 | pgbench_accounts |      13429514240
 2017-02-06 09:06:54.599377+01 | 1486368414.59938 | pgbench_tellers  |           450560
 2017-02-06 09:06:54.599377+01 | 1486368414.59938 | pgbench_history  |                0
 2017-02-06 09:06:54.599377+01 | 1486368414.59938 | pgbench_branches |            40960

 2017-02-06 09:06:55.773322+01 | 1486368415.77332 | pgbench_accounts |      13429514240
 2017-02-06 09:06:55.773322+01 | 1486368415.77332 | pgbench_tellers  |           450560
 2017-02-06 09:06:55.773322+01 | 1486368415.77332 | pgbench_history  |                0
 2017-02-06 09:06:55.773322+01 | 1486368415.77332 | pgbench_branches |            40960

 2017-02-06 09:06:56.929058+01 | 1486368416.92906 | pgbench_accounts |      13429514240
 2017-02-06 09:06:56.929058+01 | 1486368416.92906 | pgbench_tellers  |           450560
 2017-02-06 09:06:56.929058+01 | 1486368416.92906 | pgbench_history  |                0
 2017-02-06 09:06:56.929058+01 | 1486368416.92906 | pgbench_branches |            40960

 2017-02-06 09:06:58.073766+01 | 1486368418.07377 | pgbench_accounts |      13429514240
 2017-02-06 09:06:58.073766+01 | 1486368418.07377 | pgbench_tellers  |           450560
 2017-02-06 09:06:58.073766+01 | 1486368418.07377 | pgbench_history  |                0
 2017-02-06 09:06:58.073766+01 | 1486368418.07377 | pgbench_branches |            40960

 2017-02-06 09:06:59.217214+01 | 1486368419.21721 | pgbench_accounts |      13429514240
 2017-02-06 09:06:59.217214+01 | 1486368419.21721 | pgbench_tellers  |           450560
 2017-02-06 09:06:59.217214+01 | 1486368419.21721 | pgbench_history  |                0
 2017-02-06 09:06:59.217214+01 | 1486368419.21721 | pgbench_branches |            40960

 2017-02-06 09:07:00.372787+01 | 1486368420.37279 | pgbench_accounts |      13429514240
 2017-02-06 09:07:00.372787+01 | 1486368420.37279 | pgbench_tellers  |           450560
 2017-02-06 09:07:00.372787+01 | 1486368420.37279 | pgbench_history  |                0
 2017-02-06 09:07:00.372787+01 | 1486368420.37279 | pgbench_branches |            40960

 2017-02-06 09:07:01.538482+01 | 1486368421.53848 | pgbench_accounts |      13429514240
 2017-02-06 09:07:01.538482+01 | 1486368421.53848 | pgbench_tellers  |           450560
 2017-02-06 09:07:01.538482+01 | 1486368421.53848 | pgbench_history  |                0
 2017-02-06 09:07:01.538482+01 | 1486368421.53848 | pgbench_branches |            40960

 2017-02-06 09:07:02.660634+01 | 1486368422.66063 | pgbench_accounts |      13429514240
 2017-02-06 09:07:02.660634+01 | 1486368422.66063 | pgbench_tellers  |           450560
 2017-02-06 09:07:02.660634+01 | 1486368422.66063 | pgbench_history  |                0
 2017-02-06 09:07:02.660634+01 | 1486368422.66063 | pgbench_branches |            40960

 2017-02-06 09:07:03.79945+01 | 1486368423.79945 | pgbench_accounts |      13429514240
 2017-02-06 09:07:03.79945+01 | 1486368423.79945 | pgbench_tellers  |           450560
 2017-02-06 09:07:03.79945+01 | 1486368423.79945 | pgbench_history  |                0
 2017-02-06 09:07:03.79945+01 | 1486368423.79945 | pgbench_branches |            40960

 2017-02-06 09:07:04.942028+01 | 1486368424.94203 | pgbench_accounts |      13429514240
 2017-02-06 09:07:04.942028+01 | 1486368424.94203 | pgbench_tellers  |           450560
 2017-02-06 09:07:04.942028+01 | 1486368424.94203 | pgbench_history  |                0
 2017-02-06 09:07:04.942028+01 | 1486368424.94203 | pgbench_branches |            40960

 2017-02-06 09:07:06.09186+01 | 1486368426.09186 | pgbench_accounts |      13429514240
 2017-02-06 09:07:06.09186+01 | 1486368426.09186 | pgbench_tellers  |           450560
 2017-02-06 09:07:06.09186+01 | 1486368426.09186 | pgbench_history  |                0
 2017-02-06 09:07:06.09186+01 | 1486368426.09186 | pgbench_branches |            40960

 2017-02-06 09:07:07.238633+01 | 1486368427.23863 | pgbench_accounts |      13429514240
 2017-02-06 09:07:07.238633+01 | 1486368427.23863 | pgbench_tellers  |           450560
 2017-02-06 09:07:07.238633+01 | 1486368427.23863 | pgbench_history  |                0
 2017-02-06 09:07:07.238633+01 | 1486368427.23863 | pgbench_branches |            40960

 2017-02-06 09:07:08.40527+01 | 1486368428.40527 | pgbench_accounts |      13429514240
 2017-02-06 09:07:08.40527+01 | 1486368428.40527 | pgbench_tellers  |           450560
 2017-02-06 09:07:08.40527+01 | 1486368428.40527 | pgbench_history  |                0
 2017-02-06 09:07:08.40527+01 | 1486368428.40527 | pgbench_branches |            40960

 2017-02-06 09:07:09.551578+01 | 1486368429.55158 | pgbench_accounts |      13429514240
 2017-02-06 09:07:09.551578+01 | 1486368429.55158 | pgbench_tellers  |           450560
 2017-02-06 09:07:09.551578+01 | 1486368429.55158 | pgbench_history  |                0
 2017-02-06 09:07:09.551578+01 | 1486368429.55158 | pgbench_branches |            40960

 2017-02-06 09:07:10.710407+01 | 1486368430.71041 | pgbench_accounts |      13429514240
 2017-02-06 09:07:10.710407+01 | 1486368430.71041 | pgbench_tellers  |           450560
 2017-02-06 09:07:10.710407+01 | 1486368430.71041 | pgbench_history  |                0
 2017-02-06 09:07:10.710407+01 | 1486368430.71041 | pgbench_branches |            40960

 2017-02-06 09:07:11.866952+01 | 1486368431.86695 | pgbench_accounts |      13429514240
 2017-02-06 09:07:11.866952+01 | 1486368431.86695 | pgbench_tellers  |           450560
 2017-02-06 09:07:11.866952+01 | 1486368431.86695 | pgbench_history  |                0
 2017-02-06 09:07:11.866952+01 | 1486368431.86695 | pgbench_branches |            40960

 2017-02-06 09:07:13.019744+01 | 1486368433.01974 | pgbench_accounts |      13429514240
 2017-02-06 09:07:13.019744+01 | 1486368433.01974 | pgbench_tellers  |           450560
 2017-02-06 09:07:13.019744+01 | 1486368433.01974 | pgbench_history  |                0
 2017-02-06 09:07:13.019744+01 | 1486368433.01974 | pgbench_branches |            40960

 2017-02-06 09:07:14.166397+01 | 1486368434.1664 | pgbench_accounts |      13429514240
 2017-02-06 09:07:14.166397+01 | 1486368434.1664 | pgbench_tellers  |           450560
 2017-02-06 09:07:14.166397+01 | 1486368434.1664 | pgbench_history  |                0
 2017-02-06 09:07:14.166397+01 | 1486368434.1664 | pgbench_branches |            40960

 2017-02-06 09:07:15.319111+01 | 1486368435.31911 | pgbench_accounts |      13429514240
 2017-02-06 09:07:15.319111+01 | 1486368435.31911 | pgbench_tellers  |           450560
 2017-02-06 09:07:15.319111+01 | 1486368435.31911 | pgbench_history  |                0
 2017-02-06 09:07:15.319111+01 | 1486368435.31911 | pgbench_branches |            40960

 2017-02-06 09:07:16.451406+01 | 1486368436.45141 | pgbench_accounts |      13429514240
 2017-02-06 09:07:16.451406+01 | 1486368436.45141 | pgbench_tellers  |           450560
 2017-02-06 09:07:16.451406+01 | 1486368436.45141 | pgbench_history  |                0
 2017-02-06 09:07:16.451406+01 | 1486368436.45141 | pgbench_branches |            40960

 2017-02-06 09:07:17.599734+01 | 1486368437.59973 | pgbench_accounts |      13429514240
 2017-02-06 09:07:17.599734+01 | 1486368437.59973 | pgbench_tellers  |           450560
 2017-02-06 09:07:17.599734+01 | 1486368437.59973 | pgbench_history  |                0
 2017-02-06 09:07:17.599734+01 | 1486368437.59973 | pgbench_branches |            40960

 2017-02-06 09:07:18.770305+01 | 1486368438.7703 | pgbench_accounts |      13429514240
 2017-02-06 09:07:18.770305+01 | 1486368438.7703 | pgbench_tellers  |           450560
 2017-02-06 09:07:18.770305+01 | 1486368438.7703 | pgbench_history  |                0
 2017-02-06 09:07:18.770305+01 | 1486368438.7703 | pgbench_branches |            40960

 2017-02-06 09:07:19.912153+01 | 1486368439.91215 | pgbench_accounts |      13429514240
 2017-02-06 09:07:19.912153+01 | 1486368439.91215 | pgbench_tellers  |           450560
 2017-02-06 09:07:19.912153+01 | 1486368439.91215 | pgbench_history  |                0
 2017-02-06 09:07:19.912153+01 | 1486368439.91215 | pgbench_branches |            40960

 2017-02-06 09:07:21.054918+01 | 1486368441.05492 | pgbench_accounts |      13429514240
 2017-02-06 09:07:21.054918+01 | 1486368441.05492 | pgbench_tellers  |           450560
 2017-02-06 09:07:21.054918+01 | 1486368441.05492 | pgbench_history  |                0
 2017-02-06 09:07:21.054918+01 | 1486368441.05492 | pgbench_branches |            40960

 2017-02-06 09:07:22.188129+01 | 1486368442.18813 | pgbench_accounts |      13429514240
 2017-02-06 09:07:22.188129+01 | 1486368442.18813 | pgbench_tellers  |           450560
 2017-02-06 09:07:22.188129+01 | 1486368442.18813 | pgbench_history  |                0
 2017-02-06 09:07:22.188129+01 | 1486368442.18813 | pgbench_branches |            40960

 2017-02-06 09:07:23.315324+01 | 1486368443.31532 | pgbench_accounts |      13429514240
 2017-02-06 09:07:23.315324+01 | 1486368443.31532 | pgbench_tellers  |           450560
 2017-02-06 09:07:23.315324+01 | 1486368443.31532 | pgbench_history  |                0
 2017-02-06 09:07:23.315324+01 | 1486368443.31532 | pgbench_branches |            40960

 2017-02-06 09:07:24.426684+01 | 1486368444.42668 | pgbench_accounts |      13429514240
 2017-02-06 09:07:24.426684+01 | 1486368444.42668 | pgbench_tellers  |           450560
 2017-02-06 09:07:24.426684+01 | 1486368444.42668 | pgbench_history  |                0
 2017-02-06 09:07:24.426684+01 | 1486368444.42668 | pgbench_branches |            40960

 2017-02-06 09:07:25.591348+01 | 1486368445.59135 | pgbench_accounts |      13429514240
 2017-02-06 09:07:25.591348+01 | 1486368445.59135 | pgbench_tellers  |           450560
 2017-02-06 09:07:25.591348+01 | 1486368445.59135 | pgbench_history  |                0
 2017-02-06 09:07:25.591348+01 | 1486368445.59135 | pgbench_branches |            40960

 2017-02-06 09:07:26.754246+01 | 1486368446.75425 | pgbench_accounts |      13429514240
 2017-02-06 09:07:26.754246+01 | 1486368446.75425 | pgbench_tellers  |           450560
 2017-02-06 09:07:26.754246+01 | 1486368446.75425 | pgbench_history  |                0
 2017-02-06 09:07:26.754246+01 | 1486368446.75425 | pgbench_branches |            40960

 2017-02-06 09:07:27.88979+01 | 1486368447.88979 | pgbench_accounts |      13429514240
 2017-02-06 09:07:27.88979+01 | 1486368447.88979 | pgbench_tellers  |           450560
 2017-02-06 09:07:27.88979+01 | 1486368447.88979 | pgbench_history  |                0
 2017-02-06 09:07:27.88979+01 | 1486368447.88979 | pgbench_branches |            40960

 2017-02-06 09:07:29.027938+01 | 1486368449.02794 | pgbench_accounts |      13429514240
 2017-02-06 09:07:29.027938+01 | 1486368449.02794 | pgbench_tellers  |           450560
 2017-02-06 09:07:29.027938+01 | 1486368449.02794 | pgbench_history  |                0
 2017-02-06 09:07:29.027938+01 | 1486368449.02794 | pgbench_branches |            40960

 2017-02-06 09:07:30.181353+01 | 1486368450.18135 | pgbench_accounts |      13429514240
 2017-02-06 09:07:30.181353+01 | 1486368450.18135 | pgbench_tellers  |           450560
 2017-02-06 09:07:30.181353+01 | 1486368450.18135 | pgbench_history  |                0
 2017-02-06 09:07:30.181353+01 | 1486368450.18135 | pgbench_branches |            40960

 2017-02-06 09:07:31.351698+01 | 1486368451.3517 | pgbench_accounts |      13429514240
 2017-02-06 09:07:31.351698+01 | 1486368451.3517 | pgbench_tellers  |           450560
 2017-02-06 09:07:31.351698+01 | 1486368451.3517 | pgbench_history  |                0
 2017-02-06 09:07:31.351698+01 | 1486368451.3517 | pgbench_branches |            40960

 2017-02-06 09:07:32.523381+01 | 1486368452.52338 | pgbench_accounts |      13429514240
 2017-02-06 09:07:32.523381+01 | 1486368452.52338 | pgbench_tellers  |           450560
 2017-02-06 09:07:32.523381+01 | 1486368452.52338 | pgbench_history  |                0
 2017-02-06 09:07:32.523381+01 | 1486368452.52338 | pgbench_branches |            40960

 2017-02-06 09:07:33.636109+01 | 1486368453.63611 | pgbench_accounts |      13429514240
 2017-02-06 09:07:33.636109+01 | 1486368453.63611 | pgbench_tellers  |           450560
 2017-02-06 09:07:33.636109+01 | 1486368453.63611 | pgbench_history  |                0
 2017-02-06 09:07:33.636109+01 | 1486368453.63611 | pgbench_branches |            40960

 2017-02-06 09:07:34.807435+01 | 1486368454.80744 | pgbench_accounts |      13429514240
 2017-02-06 09:07:34.807435+01 | 1486368454.80744 | pgbench_tellers  |           450560
 2017-02-06 09:07:34.807435+01 | 1486368454.80744 | pgbench_history  |                0
 2017-02-06 09:07:34.807435+01 | 1486368454.80744 | pgbench_branches |            40960

 2017-02-06 09:07:35.96437+01 | 1486368455.96437 | pgbench_accounts |      13429514240
 2017-02-06 09:07:35.96437+01 | 1486368455.96437 | pgbench_tellers  |           450560
 2017-02-06 09:07:35.96437+01 | 1486368455.96437 | pgbench_history  |                0
 2017-02-06 09:07:35.96437+01 | 1486368455.96437 | pgbench_branches |            40960

 2017-02-06 09:07:37.110569+01 | 1486368457.11057 | pgbench_accounts |      13429514240
 2017-02-06 09:07:37.110569+01 | 1486368457.11057 | pgbench_tellers  |           450560
 2017-02-06 09:07:37.110569+01 | 1486368457.11057 | pgbench_history  |                0
 2017-02-06 09:07:37.110569+01 | 1486368457.11057 | pgbench_branches |            40960

 2017-02-06 09:07:38.252568+01 | 1486368458.25257 | pgbench_accounts |      13429514240
 2017-02-06 09:07:38.252568+01 | 1486368458.25257 | pgbench_tellers  |           450560
 2017-02-06 09:07:38.252568+01 | 1486368458.25257 | pgbench_history  |                0
 2017-02-06 09:07:38.252568+01 | 1486368458.25257 | pgbench_branches |            40960

 2017-02-06 09:07:39.388202+01 | 1486368459.3882 | pgbench_accounts |      13429514240
 2017-02-06 09:07:39.388202+01 | 1486368459.3882 | pgbench_tellers  |           450560
 2017-02-06 09:07:39.388202+01 | 1486368459.3882 | pgbench_history  |                0
 2017-02-06 09:07:39.388202+01 | 1486368459.3882 | pgbench_branches |            40960

 2017-02-06 09:07:40.545753+01 | 1486368460.54575 | pgbench_accounts |      13429514240
 2017-02-06 09:07:40.545753+01 | 1486368460.54575 | pgbench_tellers  |           450560
 2017-02-06 09:07:40.545753+01 | 1486368460.54575 | pgbench_history  |                0
 2017-02-06 09:07:40.545753+01 | 1486368460.54575 | pgbench_branches |            40960

 2017-02-06 09:07:41.685924+01 | 1486368461.68592 | pgbench_accounts |      13429514240
 2017-02-06 09:07:41.685924+01 | 1486368461.68592 | pgbench_tellers  |           450560
 2017-02-06 09:07:41.685924+01 | 1486368461.68592 | pgbench_history  |                0
 2017-02-06 09:07:41.685924+01 | 1486368461.68592 | pgbench_branches |            40960

 2017-02-06 09:07:42.807556+01 | 1486368462.80756 | pgbench_accounts |      13429514240
 2017-02-06 09:07:42.807556+01 | 1486368462.80756 | pgbench_tellers  |           450560
 2017-02-06 09:07:42.807556+01 | 1486368462.80756 | pgbench_history  |                0
 2017-02-06 09:07:42.807556+01 | 1486368462.80756 | pgbench_branches |            40960

 2017-02-06 09:07:43.930067+01 | 1486368463.93007 | pgbench_accounts |      13429514240
 2017-02-06 09:07:43.930067+01 | 1486368463.93007 | pgbench_tellers  |           450560
 2017-02-06 09:07:43.930067+01 | 1486368463.93007 | pgbench_history  |                0
 2017-02-06 09:07:43.930067+01 | 1486368463.93007 | pgbench_branches |            40960

 2017-02-06 09:07:45.044716+01 | 1486368465.04472 | pgbench_accounts |      13429514240
 2017-02-06 09:07:45.044716+01 | 1486368465.04472 | pgbench_tellers  |           450560
 2017-02-06 09:07:45.044716+01 | 1486368465.04472 | pgbench_history  |                0
 2017-02-06 09:07:45.044716+01 | 1486368465.04472 | pgbench_branches |            40960

 2017-02-06 09:07:46.186667+01 | 1486368466.18667 | pgbench_accounts |      13429514240
 2017-02-06 09:07:46.186667+01 | 1486368466.18667 | pgbench_tellers  |           450560
 2017-02-06 09:07:46.186667+01 | 1486368466.18667 | pgbench_history  |                0
 2017-02-06 09:07:46.186667+01 | 1486368466.18667 | pgbench_branches |            40960

 2017-02-06 09:07:47.331941+01 | 1486368467.33194 | pgbench_accounts |      13429514240
 2017-02-06 09:07:47.331941+01 | 1486368467.33194 | pgbench_tellers  |           450560
 2017-02-06 09:07:47.331941+01 | 1486368467.33194 | pgbench_history  |                0
 2017-02-06 09:07:47.331941+01 | 1486368467.33194 | pgbench_branches |            40960

 2017-02-06 09:07:48.443636+01 | 1486368468.44364 | pgbench_accounts |      13429514240
 2017-02-06 09:07:48.443636+01 | 1486368468.44364 | pgbench_tellers  |           450560
 2017-02-06 09:07:48.443636+01 | 1486368468.44364 | pgbench_history  |                0
 2017-02-06 09:07:48.443636+01 | 1486368468.44364 | pgbench_branches |            40960

 2017-02-06 09:07:49.555029+01 | 1486368469.55503 | pgbench_accounts |      13429514240
 2017-02-06 09:07:49.555029+01 | 1486368469.55503 | pgbench_tellers  |           450560
 2017-02-06 09:07:49.555029+01 | 1486368469.55503 | pgbench_history  |                0
 2017-02-06 09:07:49.555029+01 | 1486368469.55503 | pgbench_branches |            40960

 2017-02-06 09:07:50.723523+01 | 1486368470.72352 | pgbench_accounts |      13429514240
 2017-02-06 09:07:50.723523+01 | 1486368470.72352 | pgbench_tellers  |           450560
 2017-02-06 09:07:50.723523+01 | 1486368470.72352 | pgbench_history  |                0
 2017-02-06 09:07:50.723523+01 | 1486368470.72352 | pgbench_branches |            40960

 2017-02-06 09:07:51.8771+01 | 1486368471.8771 | pgbench_accounts |      13429514240
 2017-02-06 09:07:51.8771+01 | 1486368471.8771 | pgbench_tellers  |           450560
 2017-02-06 09:07:51.8771+01 | 1486368471.8771 | pgbench_history  |                0
 2017-02-06 09:07:51.8771+01 | 1486368471.8771 | pgbench_branches |            40960

 2017-02-06 09:07:53.009414+01 | 1486368473.00941 | pgbench_accounts |      13429514240
 2017-02-06 09:07:53.009414+01 | 1486368473.00941 | pgbench_tellers  |           450560
 2017-02-06 09:07:53.009414+01 | 1486368473.00941 | pgbench_history  |                0
 2017-02-06 09:07:53.009414+01 | 1486368473.00941 | pgbench_branches |            40960

 2017-02-06 09:07:54.173518+01 | 1486368474.17352 | pgbench_accounts |      13429514240
 2017-02-06 09:07:54.173518+01 | 1486368474.17352 | pgbench_tellers  |           450560
 2017-02-06 09:07:54.173518+01 | 1486368474.17352 | pgbench_history  |                0
 2017-02-06 09:07:54.173518+01 | 1486368474.17352 | pgbench_branches |            40960

 2017-02-06 09:07:55.314073+01 | 1486368475.31407 | pgbench_accounts |      13429514240
 2017-02-06 09:07:55.314073+01 | 1486368475.31407 | pgbench_tellers  |           450560
 2017-02-06 09:07:55.314073+01 | 1486368475.31407 | pgbench_history  |                0
 2017-02-06 09:07:55.314073+01 | 1486368475.31407 | pgbench_branches |            40960

 2017-02-06 09:07:56.463288+01 | 1486368476.46329 | pgbench_accounts |      13429514240
 2017-02-06 09:07:56.463288+01 | 1486368476.46329 | pgbench_tellers  |           450560
 2017-02-06 09:07:56.463288+01 | 1486368476.46329 | pgbench_history  |                0
 2017-02-06 09:07:56.463288+01 | 1486368476.46329 | pgbench_branches |            40960

 2017-02-06 09:07:57.607279+01 | 1486368477.60728 | pgbench_accounts |      13429514240
 2017-02-06 09:07:57.607279+01 | 1486368477.60728 | pgbench_tellers  |           450560
 2017-02-06 09:07:57.607279+01 | 1486368477.60728 | pgbench_history  |                0
 2017-02-06 09:07:57.607279+01 | 1486368477.60728 | pgbench_branches |            40960

 2017-02-06 09:07:58.756411+01 | 1486368478.75641 | pgbench_accounts |      13429514240
 2017-02-06 09:07:58.756411+01 | 1486368478.75641 | pgbench_tellers  |           450560
 2017-02-06 09:07:58.756411+01 | 1486368478.75641 | pgbench_history  |                0
 2017-02-06 09:07:58.756411+01 | 1486368478.75641 | pgbench_branches |            40960

 2017-02-06 09:07:59.907369+01 | 1486368479.90737 | pgbench_accounts |      13429514240
 2017-02-06 09:07:59.907369+01 | 1486368479.90737 | pgbench_tellers  |           450560
 2017-02-06 09:07:59.907369+01 | 1486368479.90737 | pgbench_history  |                0
 2017-02-06 09:07:59.907369+01 | 1486368479.90737 | pgbench_branches |            40960

 2017-02-06 09:08:01.045475+01 | 1486368481.04548 | pgbench_accounts |      13429514240
 2017-02-06 09:08:01.045475+01 | 1486368481.04548 | pgbench_tellers  |           450560
 2017-02-06 09:08:01.045475+01 | 1486368481.04548 | pgbench_history  |                0
 2017-02-06 09:08:01.045475+01 | 1486368481.04548 | pgbench_branches |            40960

 2017-02-06 09:08:02.186075+01 | 1486368482.18607 | pgbench_accounts |      13429514240
 2017-02-06 09:08:02.186075+01 | 1486368482.18607 | pgbench_tellers  |           450560
 2017-02-06 09:08:02.186075+01 | 1486368482.18607 | pgbench_history  |                0
 2017-02-06 09:08:02.186075+01 | 1486368482.18607 | pgbench_branches |            40960

 2017-02-06 09:08:03.336892+01 | 1486368483.33689 | pgbench_accounts |      13429514240
 2017-02-06 09:08:03.336892+01 | 1486368483.33689 | pgbench_tellers  |           450560
 2017-02-06 09:08:03.336892+01 | 1486368483.33689 | pgbench_history  |                0
 2017-02-06 09:08:03.336892+01 | 1486368483.33689 | pgbench_branches |            40960

 2017-02-06 09:08:04.49431+01 | 1486368484.49431 | pgbench_accounts |      13429514240
 2017-02-06 09:08:04.49431+01 | 1486368484.49431 | pgbench_tellers  |           450560
 2017-02-06 09:08:04.49431+01 | 1486368484.49431 | pgbench_history  |                0
 2017-02-06 09:08:04.49431+01 | 1486368484.49431 | pgbench_branches |            40960

 2017-02-06 09:08:05.638611+01 | 1486368485.63861 | pgbench_accounts |      13429514240
 2017-02-06 09:08:05.638611+01 | 1486368485.63861 | pgbench_tellers  |           450560
 2017-02-06 09:08:05.638611+01 | 1486368485.63861 | pgbench_history  |                0
 2017-02-06 09:08:05.638611+01 | 1486368485.63861 | pgbench_branches |            40960

 2017-02-06 09:08:06.786539+01 | 1486368486.78654 | pgbench_accounts |      13429514240
 2017-02-06 09:08:06.786539+01 | 1486368486.78654 | pgbench_tellers  |           450560
 2017-02-06 09:08:06.786539+01 | 1486368486.78654 | pgbench_history  |                0
 2017-02-06 09:08:06.786539+01 | 1486368486.78654 | pgbench_branches |            40960

 2017-02-06 09:08:07.917227+01 | 1486368487.91723 | pgbench_accounts |      13429514240
 2017-02-06 09:08:07.917227+01 | 1486368487.91723 | pgbench_tellers  |           450560
 2017-02-06 09:08:07.917227+01 | 1486368487.91723 | pgbench_history  |                0
 2017-02-06 09:08:07.917227+01 | 1486368487.91723 | pgbench_branches |            40960

 2017-02-06 09:08:09.084738+01 | 1486368489.08474 | pgbench_accounts |      13429514240
 2017-02-06 09:08:09.084738+01 | 1486368489.08474 | pgbench_tellers  |           450560
 2017-02-06 09:08:09.084738+01 | 1486368489.08474 | pgbench_history  |                0
 2017-02-06 09:08:09.084738+01 | 1486368489.08474 | pgbench_branches |            40960

 2017-02-06 09:08:10.248489+01 | 1486368490.24849 | pgbench_accounts |      13429514240
 2017-02-06 09:08:10.248489+01 | 1486368490.24849 | pgbench_tellers  |           450560
 2017-02-06 09:08:10.248489+01 | 1486368490.24849 | pgbench_history  |                0
 2017-02-06 09:08:10.248489+01 | 1486368490.24849 | pgbench_branches |            40960

 2017-02-06 09:08:11.402335+01 | 1486368491.40233 | pgbench_accounts |      13429514240
 2017-02-06 09:08:11.402335+01 | 1486368491.40233 | pgbench_tellers  |           450560
 2017-02-06 09:08:11.402335+01 | 1486368491.40233 | pgbench_history  |                0
 2017-02-06 09:08:11.402335+01 | 1486368491.40233 | pgbench_branches |            40960

 2017-02-06 09:08:12.543034+01 | 1486368492.54303 | pgbench_accounts |      13429514240
 2017-02-06 09:08:12.543034+01 | 1486368492.54303 | pgbench_tellers  |           450560
 2017-02-06 09:08:12.543034+01 | 1486368492.54303 | pgbench_history  |                0
 2017-02-06 09:08:12.543034+01 | 1486368492.54303 | pgbench_branches |            40960

 2017-02-06 09:08:13.723499+01 | 1486368493.7235 | pgbench_accounts |      13429514240
 2017-02-06 09:08:13.723499+01 | 1486368493.7235 | pgbench_tellers  |           450560
 2017-02-06 09:08:13.723499+01 | 1486368493.7235 | pgbench_history  |                0
 2017-02-06 09:08:13.723499+01 | 1486368493.7235 | pgbench_branches |            40960

 2017-02-06 09:08:14.887414+01 | 1486368494.88741 | pgbench_accounts |      13429514240
 2017-02-06 09:08:14.887414+01 | 1486368494.88741 | pgbench_tellers  |           450560
 2017-02-06 09:08:14.887414+01 | 1486368494.88741 | pgbench_history  |                0
 2017-02-06 09:08:14.887414+01 | 1486368494.88741 | pgbench_branches |            40960

 2017-02-06 09:08:16.028091+01 | 1486368496.02809 | pgbench_accounts |      13429514240
 2017-02-06 09:08:16.028091+01 | 1486368496.02809 | pgbench_tellers  |           450560
 2017-02-06 09:08:16.028091+01 | 1486368496.02809 | pgbench_history  |                0
 2017-02-06 09:08:16.028091+01 | 1486368496.02809 | pgbench_branches |            40960

 2017-02-06 09:08:17.150267+01 | 1486368497.15027 | pgbench_accounts |      13429514240
 2017-02-06 09:08:17.150267+01 | 1486368497.15027 | pgbench_tellers  |           450560
 2017-02-06 09:08:17.150267+01 | 1486368497.15027 | pgbench_history  |                0
 2017-02-06 09:08:17.150267+01 | 1486368497.15027 | pgbench_branches |            40960

 2017-02-06 09:08:18.287627+01 | 1486368498.28763 | pgbench_accounts |      13429514240
 2017-02-06 09:08:18.287627+01 | 1486368498.28763 | pgbench_tellers  |           450560
 2017-02-06 09:08:18.287627+01 | 1486368498.28763 | pgbench_history  |                0
 2017-02-06 09:08:18.287627+01 | 1486368498.28763 | pgbench_branches |            40960

 2017-02-06 09:08:19.471336+01 | 1486368499.47134 | pgbench_accounts |      13429514240
 2017-02-06 09:08:19.471336+01 | 1486368499.47134 | pgbench_tellers  |           450560
 2017-02-06 09:08:19.471336+01 | 1486368499.47134 | pgbench_history  |                0
 2017-02-06 09:08:19.471336+01 | 1486368499.47134 | pgbench_branches |            40960

 2017-02-06 09:08:20.610064+01 | 1486368500.61006 | pgbench_accounts |      13429514240
 2017-02-06 09:08:20.610064+01 | 1486368500.61006 | pgbench_tellers  |           450560
 2017-02-06 09:08:20.610064+01 | 1486368500.61006 | pgbench_history  |                0
 2017-02-06 09:08:20.610064+01 | 1486368500.61006 | pgbench_branches |            40960

 2017-02-06 09:08:21.766084+01 | 1486368501.76608 | pgbench_accounts |      13429514240
 2017-02-06 09:08:21.766084+01 | 1486368501.76608 | pgbench_tellers  |           450560
 2017-02-06 09:08:21.766084+01 | 1486368501.76608 | pgbench_history  |                0
 2017-02-06 09:08:21.766084+01 | 1486368501.76608 | pgbench_branches |            40960

 2017-02-06 09:08:22.921637+01 | 1486368502.92164 | pgbench_accounts |      13429514240
 2017-02-06 09:08:22.921637+01 | 1486368502.92164 | pgbench_tellers  |           450560
 2017-02-06 09:08:22.921637+01 | 1486368502.92164 | pgbench_history  |                0
 2017-02-06 09:08:22.921637+01 | 1486368502.92164 | pgbench_branches |            40960

 2017-02-06 09:08:24.057259+01 | 1486368504.05726 | pgbench_accounts |      13429514240
 2017-02-06 09:08:24.057259+01 | 1486368504.05726 | pgbench_tellers  |           450560
 2017-02-06 09:08:24.057259+01 | 1486368504.05726 | pgbench_history  |                0
 2017-02-06 09:08:24.057259+01 | 1486368504.05726 | pgbench_branches |            40960

 2017-02-06 09:08:25.194142+01 | 1486368505.19414 | pgbench_accounts |      13429514240
 2017-02-06 09:08:25.194142+01 | 1486368505.19414 | pgbench_tellers  |           450560
 2017-02-06 09:08:25.194142+01 | 1486368505.19414 | pgbench_history  |                0
 2017-02-06 09:08:25.194142+01 | 1486368505.19414 | pgbench_branches |            40960

 2017-02-06 09:08:26.342883+01 | 1486368506.34288 | pgbench_accounts |      13429514240
 2017-02-06 09:08:26.342883+01 | 1486368506.34288 | pgbench_tellers  |           450560
 2017-02-06 09:08:26.342883+01 | 1486368506.34288 | pgbench_history  |                0
 2017-02-06 09:08:26.342883+01 | 1486368506.34288 | pgbench_branches |            40960

 2017-02-06 09:08:27.502453+01 | 1486368507.50245 | pgbench_accounts |      13429514240
 2017-02-06 09:08:27.502453+01 | 1486368507.50245 | pgbench_tellers  |           450560
 2017-02-06 09:08:27.502453+01 | 1486368507.50245 | pgbench_history  |                0
 2017-02-06 09:08:27.502453+01 | 1486368507.50245 | pgbench_branches |            40960

 2017-02-06 09:08:28.640991+01 | 1486368508.64099 | pgbench_accounts |      13429514240
 2017-02-06 09:08:28.640991+01 | 1486368508.64099 | pgbench_tellers  |           450560
 2017-02-06 09:08:28.640991+01 | 1486368508.64099 | pgbench_history  |                0
 2017-02-06 09:08:28.640991+01 | 1486368508.64099 | pgbench_branches |            40960

 2017-02-06 09:08:29.754135+01 | 1486368509.75413 | pgbench_accounts |      13429514240
 2017-02-06 09:08:29.754135+01 | 1486368509.75413 | pgbench_tellers  |           450560
 2017-02-06 09:08:29.754135+01 | 1486368509.75413 | pgbench_history  |                0
 2017-02-06 09:08:29.754135+01 | 1486368509.75413 | pgbench_branches |            40960

 2017-02-06 09:08:30.903127+01 | 1486368510.90313 | pgbench_accounts |      13429514240
 2017-02-06 09:08:30.903127+01 | 1486368510.90313 | pgbench_tellers  |           450560
 2017-02-06 09:08:30.903127+01 | 1486368510.90313 | pgbench_history  |                0
 2017-02-06 09:08:30.903127+01 | 1486368510.90313 | pgbench_branches |            40960

 2017-02-06 09:08:32.068823+01 | 1486368512.06882 | pgbench_accounts |      13429514240
 2017-02-06 09:08:32.068823+01 | 1486368512.06882 | pgbench_tellers  |           450560
 2017-02-06 09:08:32.068823+01 | 1486368512.06882 | pgbench_history  |                0
 2017-02-06 09:08:32.068823+01 | 1486368512.06882 | pgbench_branches |            40960

 2017-02-06 09:08:33.208924+01 | 1486368513.20892 | pgbench_accounts |      13429514240
 2017-02-06 09:08:33.208924+01 | 1486368513.20892 | pgbench_tellers  |           450560
 2017-02-06 09:08:33.208924+01 | 1486368513.20892 | pgbench_history  |                0
 2017-02-06 09:08:33.208924+01 | 1486368513.20892 | pgbench_branches |            40960

 2017-02-06 09:08:34.382348+01 | 1486368514.38235 | pgbench_accounts |      13429514240
 2017-02-06 09:08:34.382348+01 | 1486368514.38235 | pgbench_tellers  |           450560
 2017-02-06 09:08:34.382348+01 | 1486368514.38235 | pgbench_history  |                0
 2017-02-06 09:08:34.382348+01 | 1486368514.38235 | pgbench_branches |            40960

 2017-02-06 09:08:35.506228+01 | 1486368515.50623 | pgbench_accounts |      13429514240
 2017-02-06 09:08:35.506228+01 | 1486368515.50623 | pgbench_tellers  |           450560
 2017-02-06 09:08:35.506228+01 | 1486368515.50623 | pgbench_history  |                0
 2017-02-06 09:08:35.506228+01 | 1486368515.50623 | pgbench_branches |            40960

 2017-02-06 09:08:36.660693+01 | 1486368516.66069 | pgbench_accounts |      13429514240
 2017-02-06 09:08:36.660693+01 | 1486368516.66069 | pgbench_tellers  |           450560
 2017-02-06 09:08:36.660693+01 | 1486368516.66069 | pgbench_history  |                0
 2017-02-06 09:08:36.660693+01 | 1486368516.66069 | pgbench_branches |            40960

 2017-02-06 09:08:37.800217+01 | 1486368517.80022 | pgbench_accounts |      13429514240
 2017-02-06 09:08:37.800217+01 | 1486368517.80022 | pgbench_tellers  |           450560
 2017-02-06 09:08:37.800217+01 | 1486368517.80022 | pgbench_history  |                0
 2017-02-06 09:08:37.800217+01 | 1486368517.80022 | pgbench_branches |            40960

 2017-02-06 09:08:38.967941+01 | 1486368518.96794 | pgbench_accounts |      13429514240
 2017-02-06 09:08:38.967941+01 | 1486368518.96794 | pgbench_tellers  |           450560
 2017-02-06 09:08:38.967941+01 | 1486368518.96794 | pgbench_history  |                0
 2017-02-06 09:08:38.967941+01 | 1486368518.96794 | pgbench_branches |            40960

 2017-02-06 09:08:40.086674+01 | 1486368520.08667 | pgbench_accounts |      13429514240
 2017-02-06 09:08:40.086674+01 | 1486368520.08667 | pgbench_tellers  |           450560
 2017-02-06 09:08:40.086674+01 | 1486368520.08667 | pgbench_history  |                0
 2017-02-06 09:08:40.086674+01 | 1486368520.08667 | pgbench_branches |            40960

 2017-02-06 09:08:41.251583+01 | 1486368521.25158 | pgbench_accounts |      13429514240
 2017-02-06 09:08:41.251583+01 | 1486368521.25158 | pgbench_tellers  |           450560
 2017-02-06 09:08:41.251583+01 | 1486368521.25158 | pgbench_history  |                0
 2017-02-06 09:08:41.251583+01 | 1486368521.25158 | pgbench_branches |            40960

 2017-02-06 09:08:42.382808+01 | 1486368522.38281 | pgbench_accounts |      13429514240
 2017-02-06 09:08:42.382808+01 | 1486368522.38281 | pgbench_tellers  |           450560
 2017-02-06 09:08:42.382808+01 | 1486368522.38281 | pgbench_history  |                0
 2017-02-06 09:08:42.382808+01 | 1486368522.38281 | pgbench_branches |            40960

 2017-02-06 09:08:43.528158+01 | 1486368523.52816 | pgbench_accounts |      13429514240
 2017-02-06 09:08:43.528158+01 | 1486368523.52816 | pgbench_tellers  |           450560
 2017-02-06 09:08:43.528158+01 | 1486368523.52816 | pgbench_history  |                0
 2017-02-06 09:08:43.528158+01 | 1486368523.52816 | pgbench_branches |            40960

 2017-02-06 09:08:44.666322+01 | 1486368524.66632 | pgbench_accounts |      13429514240
 2017-02-06 09:08:44.666322+01 | 1486368524.66632 | pgbench_tellers  |           450560
 2017-02-06 09:08:44.666322+01 | 1486368524.66632 | pgbench_history  |                0
 2017-02-06 09:08:44.666322+01 | 1486368524.66632 | pgbench_branches |            40960

 2017-02-06 09:08:45.821835+01 | 1486368525.82184 | pgbench_accounts |      13429514240
 2017-02-06 09:08:45.821835+01 | 1486368525.82184 | pgbench_tellers  |           450560
 2017-02-06 09:08:45.821835+01 | 1486368525.82184 | pgbench_history  |                0
 2017-02-06 09:08:45.821835+01 | 1486368525.82184 | pgbench_branches |            40960

 2017-02-06 09:08:46.96199+01 | 1486368526.96199 | pgbench_accounts |      13429514240
 2017-02-06 09:08:46.96199+01 | 1486368526.96199 | pgbench_tellers  |           450560
 2017-02-06 09:08:46.96199+01 | 1486368526.96199 | pgbench_history  |                0
 2017-02-06 09:08:46.96199+01 | 1486368526.96199 | pgbench_branches |            40960

 2017-02-06 09:08:48.124461+01 | 1486368528.12446 | pgbench_accounts |      13429514240
 2017-02-06 09:08:48.124461+01 | 1486368528.12446 | pgbench_tellers  |           450560
 2017-02-06 09:08:48.124461+01 | 1486368528.12446 | pgbench_history  |                0
 2017-02-06 09:08:48.124461+01 | 1486368528.12446 | pgbench_branches |            40960

 2017-02-06 09:08:49.294545+01 | 1486368529.29454 | pgbench_accounts |      13429514240
 2017-02-06 09:08:49.294545+01 | 1486368529.29454 | pgbench_tellers  |           450560
 2017-02-06 09:08:49.294545+01 | 1486368529.29454 | pgbench_history  |                0
 2017-02-06 09:08:49.294545+01 | 1486368529.29454 | pgbench_branches |            40960

 2017-02-06 09:08:50.441806+01 | 1486368530.44181 | pgbench_accounts |      13429514240
 2017-02-06 09:08:50.441806+01 | 1486368530.44181 | pgbench_tellers  |           450560
 2017-02-06 09:08:50.441806+01 | 1486368530.44181 | pgbench_history  |                0
 2017-02-06 09:08:50.441806+01 | 1486368530.44181 | pgbench_branches |            40960

 2017-02-06 09:08:51.549191+01 | 1486368531.54919 | pgbench_accounts |      13429514240
 2017-02-06 09:08:51.549191+01 | 1486368531.54919 | pgbench_tellers  |           450560
 2017-02-06 09:08:51.549191+01 | 1486368531.54919 | pgbench_history  |                0
 2017-02-06 09:08:51.549191+01 | 1486368531.54919 | pgbench_branches |            40960

 2017-02-06 09:08:52.679653+01 | 1486368532.67965 | pgbench_accounts |      13429514240
 2017-02-06 09:08:52.679653+01 | 1486368532.67965 | pgbench_tellers  |           450560
 2017-02-06 09:08:52.679653+01 | 1486368532.67965 | pgbench_history  |                0
 2017-02-06 09:08:52.679653+01 | 1486368532.67965 | pgbench_branches |            40960

 2017-02-06 09:08:53.790899+01 | 1486368533.7909 | pgbench_accounts |      13429514240
 2017-02-06 09:08:53.790899+01 | 1486368533.7909 | pgbench_tellers  |           450560
 2017-02-06 09:08:53.790899+01 | 1486368533.7909 | pgbench_history  |                0
 2017-02-06 09:08:53.790899+01 | 1486368533.7909 | pgbench_branches |            40960

 2017-02-06 09:08:54.945575+01 | 1486368534.94557 | pgbench_accounts |      13429514240
 2017-02-06 09:08:54.945575+01 | 1486368534.94557 | pgbench_tellers  |           450560
 2017-02-06 09:08:54.945575+01 | 1486368534.94557 | pgbench_history  |                0
 2017-02-06 09:08:54.945575+01 | 1486368534.94557 | pgbench_branches |            40960

 2017-02-06 09:08:56.053553+01 | 1486368536.05355 | pgbench_accounts |      13429514240
 2017-02-06 09:08:56.053553+01 | 1486368536.05355 | pgbench_tellers  |           450560
 2017-02-06 09:08:56.053553+01 | 1486368536.05355 | pgbench_history  |                0
 2017-02-06 09:08:56.053553+01 | 1486368536.05355 | pgbench_branches |            40960

 2017-02-06 09:08:57.186501+01 | 1486368537.1865 | pgbench_accounts |      13429514240
 2017-02-06 09:08:57.186501+01 | 1486368537.1865 | pgbench_tellers  |           450560
 2017-02-06 09:08:57.186501+01 | 1486368537.1865 | pgbench_history  |                0
 2017-02-06 09:08:57.186501+01 | 1486368537.1865 | pgbench_branches |            40960

 2017-02-06 09:08:58.329209+01 | 1486368538.32921 | pgbench_accounts |      13429514240
 2017-02-06 09:08:58.329209+01 | 1486368538.32921 | pgbench_tellers  |           450560
 2017-02-06 09:08:58.329209+01 | 1486368538.32921 | pgbench_history  |                0
 2017-02-06 09:08:58.329209+01 | 1486368538.32921 | pgbench_branches |            40960

 2017-02-06 09:08:59.476244+01 | 1486368539.47624 | pgbench_accounts |      13429514240
 2017-02-06 09:08:59.476244+01 | 1486368539.47624 | pgbench_tellers  |           450560
 2017-02-06 09:08:59.476244+01 | 1486368539.47624 | pgbench_history  |                0
 2017-02-06 09:08:59.476244+01 | 1486368539.47624 | pgbench_branches |            40960

 2017-02-06 09:09:00.601075+01 | 1486368540.60107 | pgbench_accounts |      13429514240
 2017-02-06 09:09:00.601075+01 | 1486368540.60107 | pgbench_tellers  |           450560
 2017-02-06 09:09:00.601075+01 | 1486368540.60107 | pgbench_history  |                0
 2017-02-06 09:09:00.601075+01 | 1486368540.60107 | pgbench_branches |            40960

 2017-02-06 09:09:01.750285+01 | 1486368541.75028 | pgbench_accounts |      13429514240
 2017-02-06 09:09:01.750285+01 | 1486368541.75028 | pgbench_tellers  |           450560
 2017-02-06 09:09:01.750285+01 | 1486368541.75028 | pgbench_history  |                0
 2017-02-06 09:09:01.750285+01 | 1486368541.75028 | pgbench_branches |            40960

 2017-02-06 09:09:02.902012+01 | 1486368542.90201 | pgbench_accounts |      13429514240
 2017-02-06 09:09:02.902012+01 | 1486368542.90201 | pgbench_tellers  |           450560
 2017-02-06 09:09:02.902012+01 | 1486368542.90201 | pgbench_history  |                0
 2017-02-06 09:09:02.902012+01 | 1486368542.90201 | pgbench_branches |            40960

 2017-02-06 09:09:04.065736+01 | 1486368544.06574 | pgbench_accounts |      13429514240
 2017-02-06 09:09:04.065736+01 | 1486368544.06574 | pgbench_tellers  |           450560
 2017-02-06 09:09:04.065736+01 | 1486368544.06574 | pgbench_history  |                0
 2017-02-06 09:09:04.065736+01 | 1486368544.06574 | pgbench_branches |            40960

 2017-02-06 09:09:05.234384+01 | 1486368545.23438 | pgbench_accounts |      13429514240
 2017-02-06 09:09:05.234384+01 | 1486368545.23438 | pgbench_tellers  |           450560
 2017-02-06 09:09:05.234384+01 | 1486368545.23438 | pgbench_history  |                0
 2017-02-06 09:09:05.234384+01 | 1486368545.23438 | pgbench_branches |            40960

 2017-02-06 09:09:06.370584+01 | 1486368546.37058 | pgbench_accounts |      13429514240
 2017-02-06 09:09:06.370584+01 | 1486368546.37058 | pgbench_tellers  |           450560
 2017-02-06 09:09:06.370584+01 | 1486368546.37058 | pgbench_history  |                0
 2017-02-06 09:09:06.370584+01 | 1486368546.37058 | pgbench_branches |            40960

 2017-02-06 09:09:07.51239+01 | 1486368547.51239 | pgbench_accounts |      13429514240
 2017-02-06 09:09:07.51239+01 | 1486368547.51239 | pgbench_tellers  |           450560
 2017-02-06 09:09:07.51239+01 | 1486368547.51239 | pgbench_history  |                0
 2017-02-06 09:09:07.51239+01 | 1486368547.51239 | pgbench_branches |            40960

 2017-02-06 09:09:08.685188+01 | 1486368548.68519 | pgbench_accounts |      13429514240
 2017-02-06 09:09:08.685188+01 | 1486368548.68519 | pgbench_tellers  |           450560
 2017-02-06 09:09:08.685188+01 | 1486368548.68519 | pgbench_history  |                0
 2017-02-06 09:09:08.685188+01 | 1486368548.68519 | pgbench_branches |            40960

 2017-02-06 09:09:09.831492+01 | 1486368549.83149 | pgbench_accounts |      13429514240
 2017-02-06 09:09:09.831492+01 | 1486368549.83149 | pgbench_tellers  |           450560
 2017-02-06 09:09:09.831492+01 | 1486368549.83149 | pgbench_history  |                0
 2017-02-06 09:09:09.831492+01 | 1486368549.83149 | pgbench_branches |            40960

 2017-02-06 09:09:10.977598+01 | 1486368550.9776 | pgbench_accounts |      13429514240
 2017-02-06 09:09:10.977598+01 | 1486368550.9776 | pgbench_tellers  |           450560
 2017-02-06 09:09:10.977598+01 | 1486368550.9776 | pgbench_history  |                0
 2017-02-06 09:09:10.977598+01 | 1486368550.9776 | pgbench_branches |            40960

 2017-02-06 09:09:12.14893+01 | 1486368552.14893 | pgbench_accounts |      13429514240
 2017-02-06 09:09:12.14893+01 | 1486368552.14893 | pgbench_tellers  |           450560
 2017-02-06 09:09:12.14893+01 | 1486368552.14893 | pgbench_history  |                0
 2017-02-06 09:09:12.14893+01 | 1486368552.14893 | pgbench_branches |            40960

 2017-02-06 09:09:13.264822+01 | 1486368553.26482 | pgbench_accounts |      13429514240
 2017-02-06 09:09:13.264822+01 | 1486368553.26482 | pgbench_tellers  |           450560
 2017-02-06 09:09:13.264822+01 | 1486368553.26482 | pgbench_history  |                0
 2017-02-06 09:09:13.264822+01 | 1486368553.26482 | pgbench_branches |            40960

 2017-02-06 09:09:14.392631+01 | 1486368554.39263 | pgbench_accounts |      13429514240
 2017-02-06 09:09:14.392631+01 | 1486368554.39263 | pgbench_tellers  |           450560
 2017-02-06 09:09:14.392631+01 | 1486368554.39263 | pgbench_history  |                0
 2017-02-06 09:09:14.392631+01 | 1486368554.39263 | pgbench_branches |            40960

 2017-02-06 09:09:15.535214+01 | 1486368555.53521 | pgbench_accounts |      13429514240
 2017-02-06 09:09:15.535214+01 | 1486368555.53521 | pgbench_tellers  |           450560
 2017-02-06 09:09:15.535214+01 | 1486368555.53521 | pgbench_history  |                0
 2017-02-06 09:09:15.535214+01 | 1486368555.53521 | pgbench_branches |            40960

 2017-02-06 09:09:16.713494+01 | 1486368556.71349 | pgbench_accounts |      13429514240
 2017-02-06 09:09:16.713494+01 | 1486368556.71349 | pgbench_tellers  |           450560
 2017-02-06 09:09:16.713494+01 | 1486368556.71349 | pgbench_history  |                0
 2017-02-06 09:09:16.713494+01 | 1486368556.71349 | pgbench_branches |            40960

 2017-02-06 09:09:17.843777+01 | 1486368557.84378 | pgbench_accounts |      13429514240
 2017-02-06 09:09:17.843777+01 | 1486368557.84378 | pgbench_tellers  |           450560
 2017-02-06 09:09:17.843777+01 | 1486368557.84378 | pgbench_history  |                0
 2017-02-06 09:09:17.843777+01 | 1486368557.84378 | pgbench_branches |            40960

 2017-02-06 09:09:18.987886+01 | 1486368558.98789 | pgbench_accounts |      13429514240
 2017-02-06 09:09:18.987886+01 | 1486368558.98789 | pgbench_tellers  |           450560
 2017-02-06 09:09:18.987886+01 | 1486368558.98789 | pgbench_history  |                0
 2017-02-06 09:09:18.987886+01 | 1486368558.98789 | pgbench_branches |            40960

 2017-02-06 09:09:20.144688+01 | 1486368560.14469 | pgbench_accounts |      13429514240
 2017-02-06 09:09:20.144688+01 | 1486368560.14469 | pgbench_tellers  |           450560
 2017-02-06 09:09:20.144688+01 | 1486368560.14469 | pgbench_history  |                0
 2017-02-06 09:09:20.144688+01 | 1486368560.14469 | pgbench_branches |            40960

 2017-02-06 09:09:21.311338+01 | 1486368561.31134 | pgbench_accounts |      13429514240
 2017-02-06 09:09:21.311338+01 | 1486368561.31134 | pgbench_tellers  |           450560
 2017-02-06 09:09:21.311338+01 | 1486368561.31134 | pgbench_history  |                0
 2017-02-06 09:09:21.311338+01 | 1486368561.31134 | pgbench_branches |            40960

 2017-02-06 09:09:22.463908+01 | 1486368562.46391 | pgbench_accounts |      13429514240
 2017-02-06 09:09:22.463908+01 | 1486368562.46391 | pgbench_tellers  |           450560
 2017-02-06 09:09:22.463908+01 | 1486368562.46391 | pgbench_history  |                0
 2017-02-06 09:09:22.463908+01 | 1486368562.46391 | pgbench_branches |            40960

 2017-02-06 09:09:23.616904+01 | 1486368563.6169 | pgbench_accounts |      13429514240
 2017-02-06 09:09:23.616904+01 | 1486368563.6169 | pgbench_tellers  |           450560
 2017-02-06 09:09:23.616904+01 | 1486368563.6169 | pgbench_history  |                0
 2017-02-06 09:09:23.616904+01 | 1486368563.6169 | pgbench_branches |            40960

 2017-02-06 09:09:24.784875+01 | 1486368564.78487 | pgbench_accounts |      13429514240
 2017-02-06 09:09:24.784875+01 | 1486368564.78487 | pgbench_tellers  |           450560
 2017-02-06 09:09:24.784875+01 | 1486368564.78487 | pgbench_history  |                0
 2017-02-06 09:09:24.784875+01 | 1486368564.78487 | pgbench_branches |            40960

 2017-02-06 09:09:25.927779+01 | 1486368565.92778 | pgbench_accounts |      13429514240
 2017-02-06 09:09:25.927779+01 | 1486368565.92778 | pgbench_tellers  |           450560
 2017-02-06 09:09:25.927779+01 | 1486368565.92778 | pgbench_history  |                0
 2017-02-06 09:09:25.927779+01 | 1486368565.92778 | pgbench_branches |            40960

 2017-02-06 09:09:27.088412+01 | 1486368567.08841 | pgbench_accounts |      13429514240
 2017-02-06 09:09:27.088412+01 | 1486368567.08841 | pgbench_tellers  |           450560
 2017-02-06 09:09:27.088412+01 | 1486368567.08841 | pgbench_history  |                0
 2017-02-06 09:09:27.088412+01 | 1486368567.08841 | pgbench_branches |            40960

 2017-02-06 09:09:28.240921+01 | 1486368568.24092 | pgbench_accounts |      13429514240
 2017-02-06 09:09:28.240921+01 | 1486368568.24092 | pgbench_tellers  |           450560
 2017-02-06 09:09:28.240921+01 | 1486368568.24092 | pgbench_history  |                0
 2017-02-06 09:09:28.240921+01 | 1486368568.24092 | pgbench_branches |            40960

 2017-02-06 09:09:29.395817+01 | 1486368569.39582 | pgbench_accounts |      13429514240
 2017-02-06 09:09:29.395817+01 | 1486368569.39582 | pgbench_tellers  |           450560
 2017-02-06 09:09:29.395817+01 | 1486368569.39582 | pgbench_history  |                0
 2017-02-06 09:09:29.395817+01 | 1486368569.39582 | pgbench_branches |            40960

 2017-02-06 09:09:30.527044+01 | 1486368570.52704 | pgbench_accounts |      13429514240
 2017-02-06 09:09:30.527044+01 | 1486368570.52704 | pgbench_tellers  |           450560
 2017-02-06 09:09:30.527044+01 | 1486368570.52704 | pgbench_history  |                0
 2017-02-06 09:09:30.527044+01 | 1486368570.52704 | pgbench_branches |            40960

 2017-02-06 09:09:31.676712+01 | 1486368571.67671 | pgbench_accounts |      13429514240
 2017-02-06 09:09:31.676712+01 | 1486368571.67671 | pgbench_tellers  |           450560
 2017-02-06 09:09:31.676712+01 | 1486368571.67671 | pgbench_history  |                0
 2017-02-06 09:09:31.676712+01 | 1486368571.67671 | pgbench_branches |            40960

 2017-02-06 09:09:32.818192+01 | 1486368572.81819 | pgbench_accounts |      13429514240
 2017-02-06 09:09:32.818192+01 | 1486368572.81819 | pgbench_tellers  |           450560
 2017-02-06 09:09:32.818192+01 | 1486368572.81819 | pgbench_history  |                0
 2017-02-06 09:09:32.818192+01 | 1486368572.81819 | pgbench_branches |            40960

 2017-02-06 09:09:33.955999+01 | 1486368573.956 | pgbench_accounts |      13429514240
 2017-02-06 09:09:33.955999+01 | 1486368573.956 | pgbench_tellers  |           450560
 2017-02-06 09:09:33.955999+01 | 1486368573.956 | pgbench_history  |                0
 2017-02-06 09:09:33.955999+01 | 1486368573.956 | pgbench_branches |            40960

 2017-02-06 09:09:35.127621+01 | 1486368575.12762 | pgbench_accounts |      13429514240
 2017-02-06 09:09:35.127621+01 | 1486368575.12762 | pgbench_tellers  |           450560
 2017-02-06 09:09:35.127621+01 | 1486368575.12762 | pgbench_history  |                0
 2017-02-06 09:09:35.127621+01 | 1486368575.12762 | pgbench_branches |            40960

 2017-02-06 09:09:36.255668+01 | 1486368576.25567 | pgbench_accounts |      13429514240
 2017-02-06 09:09:36.255668+01 | 1486368576.25567 | pgbench_tellers  |           450560
 2017-02-06 09:09:36.255668+01 | 1486368576.25567 | pgbench_history  |                0
 2017-02-06 09:09:36.255668+01 | 1486368576.25567 | pgbench_branches |            40960

 2017-02-06 09:09:37.410095+01 | 1486368577.41009 | pgbench_accounts |      13429514240
 2017-02-06 09:09:37.410095+01 | 1486368577.41009 | pgbench_tellers  |           450560
 2017-02-06 09:09:37.410095+01 | 1486368577.41009 | pgbench_history  |                0
 2017-02-06 09:09:37.410095+01 | 1486368577.41009 | pgbench_branches |            40960

 2017-02-06 09:09:38.605124+01 | 1486368578.60512 | pgbench_accounts |      13429514240
 2017-02-06 09:09:38.605124+01 | 1486368578.60512 | pgbench_tellers  |           450560
 2017-02-06 09:09:38.605124+01 | 1486368578.60512 | pgbench_history  |                0
 2017-02-06 09:09:38.605124+01 | 1486368578.60512 | pgbench_branches |            40960

 2017-02-06 09:09:39.771326+01 | 1486368579.77133 | pgbench_accounts |      13429514240
 2017-02-06 09:09:39.771326+01 | 1486368579.77133 | pgbench_tellers  |           450560
 2017-02-06 09:09:39.771326+01 | 1486368579.77133 | pgbench_history  |                0
 2017-02-06 09:09:39.771326+01 | 1486368579.77133 | pgbench_branches |            40960

 2017-02-06 09:09:40.910422+01 | 1486368580.91042 | pgbench_accounts |      13429514240
 2017-02-06 09:09:40.910422+01 | 1486368580.91042 | pgbench_tellers  |           450560
 2017-02-06 09:09:40.910422+01 | 1486368580.91042 | pgbench_history  |                0
 2017-02-06 09:09:40.910422+01 | 1486368580.91042 | pgbench_branches |            40960

 2017-02-06 09:09:42.036925+01 | 1486368582.03693 | pgbench_accounts |      13429514240
 2017-02-06 09:09:42.036925+01 | 1486368582.03693 | pgbench_tellers  |           450560
 2017-02-06 09:09:42.036925+01 | 1486368582.03693 | pgbench_history  |                0
 2017-02-06 09:09:42.036925+01 | 1486368582.03693 | pgbench_branches |            40960

 2017-02-06 09:09:43.176395+01 | 1486368583.17639 | pgbench_accounts |      13429514240
 2017-02-06 09:09:43.176395+01 | 1486368583.17639 | pgbench_tellers  |           450560
 2017-02-06 09:09:43.176395+01 | 1486368583.17639 | pgbench_history  |                0
 2017-02-06 09:09:43.176395+01 | 1486368583.17639 | pgbench_branches |            40960

 2017-02-06 09:09:44.316585+01 | 1486368584.31659 | pgbench_accounts |      13429514240
 2017-02-06 09:09:44.316585+01 | 1486368584.31659 | pgbench_tellers  |           450560
 2017-02-06 09:09:44.316585+01 | 1486368584.31659 | pgbench_history  |                0
 2017-02-06 09:09:44.316585+01 | 1486368584.31659 | pgbench_branches |            40960

 2017-02-06 09:09:45.491399+01 | 1486368585.4914 | pgbench_accounts |      13429514240
 2017-02-06 09:09:45.491399+01 | 1486368585.4914 | pgbench_tellers  |           450560
 2017-02-06 09:09:45.491399+01 | 1486368585.4914 | pgbench_history  |                0
 2017-02-06 09:09:45.491399+01 | 1486368585.4914 | pgbench_branches |            40960

 2017-02-06 09:09:46.67661+01 | 1486368586.67661 | pgbench_accounts |      13429514240
 2017-02-06 09:09:46.67661+01 | 1486368586.67661 | pgbench_tellers  |           450560
 2017-02-06 09:09:46.67661+01 | 1486368586.67661 | pgbench_history  |                0
 2017-02-06 09:09:46.67661+01 | 1486368586.67661 | pgbench_branches |            40960

 2017-02-06 09:09:47.817603+01 | 1486368587.8176 | pgbench_accounts |      13429514240
 2017-02-06 09:09:47.817603+01 | 1486368587.8176 | pgbench_tellers  |           450560
 2017-02-06 09:09:47.817603+01 | 1486368587.8176 | pgbench_history  |                0
 2017-02-06 09:09:47.817603+01 | 1486368587.8176 | pgbench_branches |            40960

 2017-02-06 09:09:48.965538+01 | 1486368588.96554 | pgbench_accounts |      13429514240
 2017-02-06 09:09:48.965538+01 | 1486368588.96554 | pgbench_tellers  |           450560
 2017-02-06 09:09:48.965538+01 | 1486368588.96554 | pgbench_history  |                0
 2017-02-06 09:09:48.965538+01 | 1486368588.96554 | pgbench_branches |            40960

 2017-02-06 09:09:50.100258+01 | 1486368590.10026 | pgbench_accounts |      13429514240
 2017-02-06 09:09:50.100258+01 | 1486368590.10026 | pgbench_tellers  |           450560
 2017-02-06 09:09:50.100258+01 | 1486368590.10026 | pgbench_history  |                0
 2017-02-06 09:09:50.100258+01 | 1486368590.10026 | pgbench_branches |            40960

 2017-02-06 09:09:51.232816+01 | 1486368591.23282 | pgbench_accounts |      13429514240
 2017-02-06 09:09:51.232816+01 | 1486368591.23282 | pgbench_tellers  |           450560
 2017-02-06 09:09:51.232816+01 | 1486368591.23282 | pgbench_history  |                0
 2017-02-06 09:09:51.232816+01 | 1486368591.23282 | pgbench_branches |            40960

 2017-02-06 09:09:52.394057+01 | 1486368592.39406 | pgbench_accounts |      13429514240
 2017-02-06 09:09:52.394057+01 | 1486368592.39406 | pgbench_tellers  |           450560
 2017-02-06 09:09:52.394057+01 | 1486368592.39406 | pgbench_history  |                0
 2017-02-06 09:09:52.394057+01 | 1486368592.39406 | pgbench_branches |            40960

 2017-02-06 09:09:53.534917+01 | 1486368593.53492 | pgbench_accounts |      13429514240
 2017-02-06 09:09:53.534917+01 | 1486368593.53492 | pgbench_tellers  |           450560
 2017-02-06 09:09:53.534917+01 | 1486368593.53492 | pgbench_history  |                0
 2017-02-06 09:09:53.534917+01 | 1486368593.53492 | pgbench_branches |            40960

 2017-02-06 09:09:54.67593+01 | 1486368594.67593 | pgbench_accounts |      13429514240
 2017-02-06 09:09:54.67593+01 | 1486368594.67593 | pgbench_tellers  |           450560
 2017-02-06 09:09:54.67593+01 | 1486368594.67593 | pgbench_history  |                0
 2017-02-06 09:09:54.67593+01 | 1486368594.67593 | pgbench_branches |            40960

 2017-02-06 09:09:55.834535+01 | 1486368595.83453 | pgbench_accounts |      13429514240
 2017-02-06 09:09:55.834535+01 | 1486368595.83453 | pgbench_tellers  |           450560
 2017-02-06 09:09:55.834535+01 | 1486368595.83453 | pgbench_history  |                0
 2017-02-06 09:09:55.834535+01 | 1486368595.83453 | pgbench_branches |            40960

 2017-02-06 09:09:56.975542+01 | 1486368596.97554 | pgbench_accounts |      13429514240
 2017-02-06 09:09:56.975542+01 | 1486368596.97554 | pgbench_tellers  |           450560
 2017-02-06 09:09:56.975542+01 | 1486368596.97554 | pgbench_history  |                0
 2017-02-06 09:09:56.975542+01 | 1486368596.97554 | pgbench_branches |            40960

 2017-02-06 09:09:58.119668+01 | 1486368598.11967 | pgbench_accounts |      13429514240
 2017-02-06 09:09:58.119668+01 | 1486368598.11967 | pgbench_tellers  |           450560
 2017-02-06 09:09:58.119668+01 | 1486368598.11967 | pgbench_history  |                0
 2017-02-06 09:09:58.119668+01 | 1486368598.11967 | pgbench_branches |            40960

 2017-02-06 09:09:59.278433+01 | 1486368599.27843 | pgbench_accounts |      13429514240
 2017-02-06 09:09:59.278433+01 | 1486368599.27843 | pgbench_tellers  |           450560
 2017-02-06 09:09:59.278433+01 | 1486368599.27843 | pgbench_history  |                0
 2017-02-06 09:09:59.278433+01 | 1486368599.27843 | pgbench_branches |            40960

 2017-02-06 09:10:00.412168+01 | 1486368600.41217 | pgbench_accounts |      13429514240
 2017-02-06 09:10:00.412168+01 | 1486368600.41217 | pgbench_tellers  |           450560
 2017-02-06 09:10:00.412168+01 | 1486368600.41217 | pgbench_history  |                0
 2017-02-06 09:10:00.412168+01 | 1486368600.41217 | pgbench_branches |            40960

 2017-02-06 09:10:01.589797+01 | 1486368601.5898 | pgbench_accounts |      13429514240
 2017-02-06 09:10:01.589797+01 | 1486368601.5898 | pgbench_tellers  |           450560
 2017-02-06 09:10:01.589797+01 | 1486368601.5898 | pgbench_history  |                0
 2017-02-06 09:10:01.589797+01 | 1486368601.5898 | pgbench_branches |            40960

 2017-02-06 09:10:02.75182+01 | 1486368602.75182 | pgbench_accounts |      13429514240
 2017-02-06 09:10:02.75182+01 | 1486368602.75182 | pgbench_tellers  |           450560
 2017-02-06 09:10:02.75182+01 | 1486368602.75182 | pgbench_history  |                0
 2017-02-06 09:10:02.75182+01 | 1486368602.75182 | pgbench_branches |            40960

 2017-02-06 09:10:03.88539+01 | 1486368603.88539 | pgbench_accounts |      13429514240
 2017-02-06 09:10:03.88539+01 | 1486368603.88539 | pgbench_tellers  |           450560
 2017-02-06 09:10:03.88539+01 | 1486368603.88539 | pgbench_history  |                0
 2017-02-06 09:10:03.88539+01 | 1486368603.88539 | pgbench_branches |            40960

 2017-02-06 09:10:05.026064+01 | 1486368605.02606 | pgbench_accounts |      13429514240
 2017-02-06 09:10:05.026064+01 | 1486368605.02606 | pgbench_tellers  |           450560
 2017-02-06 09:10:05.026064+01 | 1486368605.02606 | pgbench_history  |                0
 2017-02-06 09:10:05.026064+01 | 1486368605.02606 | pgbench_branches |            40960

 2017-02-06 09:10:06.197505+01 | 1486368606.1975 | pgbench_accounts |      13429514240
 2017-02-06 09:10:06.197505+01 | 1486368606.1975 | pgbench_tellers  |           450560
 2017-02-06 09:10:06.197505+01 | 1486368606.1975 | pgbench_history  |                0
 2017-02-06 09:10:06.197505+01 | 1486368606.1975 | pgbench_branches |            40960

 2017-02-06 09:10:07.352229+01 | 1486368607.35223 | pgbench_accounts |      13429514240
 2017-02-06 09:10:07.352229+01 | 1486368607.35223 | pgbench_tellers  |           450560
 2017-02-06 09:10:07.352229+01 | 1486368607.35223 | pgbench_history  |                0
 2017-02-06 09:10:07.352229+01 | 1486368607.35223 | pgbench_branches |            40960

 2017-02-06 09:10:08.513288+01 | 1486368608.51329 | pgbench_accounts |      13429514240
 2017-02-06 09:10:08.513288+01 | 1486368608.51329 | pgbench_tellers  |           450560
 2017-02-06 09:10:08.513288+01 | 1486368608.51329 | pgbench_history  |                0
 2017-02-06 09:10:08.513288+01 | 1486368608.51329 | pgbench_branches |            40960

 2017-02-06 09:10:09.658578+01 | 1486368609.65858 | pgbench_accounts |      13429514240
 2017-02-06 09:10:09.658578+01 | 1486368609.65858 | pgbench_tellers  |           450560
 2017-02-06 09:10:09.658578+01 | 1486368609.65858 | pgbench_history  |                0
 2017-02-06 09:10:09.658578+01 | 1486368609.65858 | pgbench_branches |            40960

 2017-02-06 09:10:10.817383+01 | 1486368610.81738 | pgbench_accounts |      13429514240
 2017-02-06 09:10:10.817383+01 | 1486368610.81738 | pgbench_tellers  |           450560
 2017-02-06 09:10:10.817383+01 | 1486368610.81738 | pgbench_history  |                0
 2017-02-06 09:10:10.817383+01 | 1486368610.81738 | pgbench_branches |            40960

 2017-02-06 09:10:11.969336+01 | 1486368611.96934 | pgbench_accounts |      13429514240
 2017-02-06 09:10:11.969336+01 | 1486368611.96934 | pgbench_tellers  |           450560
 2017-02-06 09:10:11.969336+01 | 1486368611.96934 | pgbench_history  |                0
 2017-02-06 09:10:11.969336+01 | 1486368611.96934 | pgbench_branches |            40960

 2017-02-06 09:10:13.094975+01 | 1486368613.09497 | pgbench_accounts |      13429514240
 2017-02-06 09:10:13.094975+01 | 1486368613.09497 | pgbench_tellers  |           450560
 2017-02-06 09:10:13.094975+01 | 1486368613.09497 | pgbench_history  |                0
 2017-02-06 09:10:13.094975+01 | 1486368613.09497 | pgbench_branches |            40960

 2017-02-06 09:10:14.256332+01 | 1486368614.25633 | pgbench_accounts |      13429514240
 2017-02-06 09:10:14.256332+01 | 1486368614.25633 | pgbench_tellers  |           450560
 2017-02-06 09:10:14.256332+01 | 1486368614.25633 | pgbench_history  |                0
 2017-02-06 09:10:14.256332+01 | 1486368614.25633 | pgbench_branches |            40960

 2017-02-06 09:10:15.384198+01 | 1486368615.3842 | pgbench_accounts |      13429514240
 2017-02-06 09:10:15.384198+01 | 1486368615.3842 | pgbench_tellers  |           450560
 2017-02-06 09:10:15.384198+01 | 1486368615.3842 | pgbench_history  |                0
 2017-02-06 09:10:15.384198+01 | 1486368615.3842 | pgbench_branches |            40960

 2017-02-06 09:10:16.510435+01 | 1486368616.51044 | pgbench_accounts |      13429514240
 2017-02-06 09:10:16.510435+01 | 1486368616.51044 | pgbench_tellers  |           450560
 2017-02-06 09:10:16.510435+01 | 1486368616.51044 | pgbench_history  |                0
 2017-02-06 09:10:16.510435+01 | 1486368616.51044 | pgbench_branches |            40960

 2017-02-06 09:10:17.642477+01 | 1486368617.64248 | pgbench_accounts |      13429514240
 2017-02-06 09:10:17.642477+01 | 1486368617.64248 | pgbench_tellers  |           450560
 2017-02-06 09:10:17.642477+01 | 1486368617.64248 | pgbench_history  |                0
 2017-02-06 09:10:17.642477+01 | 1486368617.64248 | pgbench_branches |            40960

 2017-02-06 09:10:18.78091+01 | 1486368618.78091 | pgbench_accounts |      13429514240
 2017-02-06 09:10:18.78091+01 | 1486368618.78091 | pgbench_tellers  |           450560
 2017-02-06 09:10:18.78091+01 | 1486368618.78091 | pgbench_history  |                0
 2017-02-06 09:10:18.78091+01 | 1486368618.78091 | pgbench_branches |            40960

 2017-02-06 09:10:19.931535+01 | 1486368619.93154 | pgbench_accounts |      13429514240
 2017-02-06 09:10:19.931535+01 | 1486368619.93154 | pgbench_tellers  |           450560
 2017-02-06 09:10:19.931535+01 | 1486368619.93154 | pgbench_history  |                0
 2017-02-06 09:10:19.931535+01 | 1486368619.93154 | pgbench_branches |            40960

 2017-02-06 09:10:21.103295+01 | 1486368621.1033 | pgbench_accounts |      13429514240
 2017-02-06 09:10:21.103295+01 | 1486368621.1033 | pgbench_tellers  |           450560
 2017-02-06 09:10:21.103295+01 | 1486368621.1033 | pgbench_history  |                0
 2017-02-06 09:10:21.103295+01 | 1486368621.1033 | pgbench_branches |            40960

 2017-02-06 09:10:22.262912+01 | 1486368622.26291 | pgbench_accounts |      13429514240
 2017-02-06 09:10:22.262912+01 | 1486368622.26291 | pgbench_tellers  |           450560
 2017-02-06 09:10:22.262912+01 | 1486368622.26291 | pgbench_history  |                0
 2017-02-06 09:10:22.262912+01 | 1486368622.26291 | pgbench_branches |            40960

 2017-02-06 09:10:23.425299+01 | 1486368623.4253 | pgbench_accounts |      13429514240
 2017-02-06 09:10:23.425299+01 | 1486368623.4253 | pgbench_tellers  |           450560
 2017-02-06 09:10:23.425299+01 | 1486368623.4253 | pgbench_history  |                0
 2017-02-06 09:10:23.425299+01 | 1486368623.4253 | pgbench_branches |            40960

 2017-02-06 09:10:24.565426+01 | 1486368624.56543 | pgbench_accounts |      13429514240
 2017-02-06 09:10:24.565426+01 | 1486368624.56543 | pgbench_tellers  |           450560
 2017-02-06 09:10:24.565426+01 | 1486368624.56543 | pgbench_history  |                0
 2017-02-06 09:10:24.565426+01 | 1486368624.56543 | pgbench_branches |            40960

 2017-02-06 09:10:25.730503+01 | 1486368625.7305 | pgbench_accounts |      13429514240
 2017-02-06 09:10:25.730503+01 | 1486368625.7305 | pgbench_tellers  |           450560
 2017-02-06 09:10:25.730503+01 | 1486368625.7305 | pgbench_history  |                0
 2017-02-06 09:10:25.730503+01 | 1486368625.7305 | pgbench_branches |            40960

 2017-02-06 09:10:26.885064+01 | 1486368626.88506 | pgbench_accounts |      13429514240
 2017-02-06 09:10:26.885064+01 | 1486368626.88506 | pgbench_tellers  |           450560
 2017-02-06 09:10:26.885064+01 | 1486368626.88506 | pgbench_history  |                0
 2017-02-06 09:10:26.885064+01 | 1486368626.88506 | pgbench_branches |            40960

 2017-02-06 09:10:28.018932+01 | 1486368628.01893 | pgbench_accounts |      13429514240
 2017-02-06 09:10:28.018932+01 | 1486368628.01893 | pgbench_tellers  |           450560
 2017-02-06 09:10:28.018932+01 | 1486368628.01893 | pgbench_history  |                0
 2017-02-06 09:10:28.018932+01 | 1486368628.01893 | pgbench_branches |            40960

 2017-02-06 09:10:29.167821+01 | 1486368629.16782 | pgbench_accounts |      13429514240
 2017-02-06 09:10:29.167821+01 | 1486368629.16782 | pgbench_tellers  |           450560
 2017-02-06 09:10:29.167821+01 | 1486368629.16782 | pgbench_history  |                0
 2017-02-06 09:10:29.167821+01 | 1486368629.16782 | pgbench_branches |            40960

 2017-02-06 09:10:30.318085+01 | 1486368630.31808 | pgbench_accounts |      13429514240
 2017-02-06 09:10:30.318085+01 | 1486368630.31808 | pgbench_tellers  |           450560
 2017-02-06 09:10:30.318085+01 | 1486368630.31808 | pgbench_history  |                0
 2017-02-06 09:10:30.318085+01 | 1486368630.31808 | pgbench_branches |            40960

 2017-02-06 09:10:31.484807+01 | 1486368631.48481 | pgbench_accounts |      13429514240
 2017-02-06 09:10:31.484807+01 | 1486368631.48481 | pgbench_tellers  |           450560
 2017-02-06 09:10:31.484807+01 | 1486368631.48481 | pgbench_history  |                0
 2017-02-06 09:10:31.484807+01 | 1486368631.48481 | pgbench_branches |            40960

 2017-02-06 09:10:32.618917+01 | 1486368632.61892 | pgbench_accounts |      13429514240
 2017-02-06 09:10:32.618917+01 | 1486368632.61892 | pgbench_tellers  |           450560
 2017-02-06 09:10:32.618917+01 | 1486368632.61892 | pgbench_history  |                0
 2017-02-06 09:10:32.618917+01 | 1486368632.61892 | pgbench_branches |            40960

 2017-02-06 09:10:33.75631+01 | 1486368633.75631 | pgbench_accounts |      13429514240
 2017-02-06 09:10:33.75631+01 | 1486368633.75631 | pgbench_tellers  |           450560
 2017-02-06 09:10:33.75631+01 | 1486368633.75631 | pgbench_history  |                0
 2017-02-06 09:10:33.75631+01 | 1486368633.75631 | pgbench_branches |            40960

 2017-02-06 09:10:34.928294+01 | 1486368634.92829 | pgbench_accounts |      13429514240
 2017-02-06 09:10:34.928294+01 | 1486368634.92829 | pgbench_tellers  |           450560
 2017-02-06 09:10:34.928294+01 | 1486368634.92829 | pgbench_history  |                0
 2017-02-06 09:10:34.928294+01 | 1486368634.92829 | pgbench_branches |            40960

 2017-02-06 09:10:36.061219+01 | 1486368636.06122 | pgbench_accounts |      13429514240
 2017-02-06 09:10:36.061219+01 | 1486368636.06122 | pgbench_tellers  |           450560
 2017-02-06 09:10:36.061219+01 | 1486368636.06122 | pgbench_history  |                0
 2017-02-06 09:10:36.061219+01 | 1486368636.06122 | pgbench_branches |            40960

 2017-02-06 09:10:37.233056+01 | 1486368637.23306 | pgbench_accounts |      13429514240
 2017-02-06 09:10:37.233056+01 | 1486368637.23306 | pgbench_tellers  |           450560
 2017-02-06 09:10:37.233056+01 | 1486368637.23306 | pgbench_history  |                0
 2017-02-06 09:10:37.233056+01 | 1486368637.23306 | pgbench_branches |            40960

 2017-02-06 09:10:38.375588+01 | 1486368638.37559 | pgbench_accounts |      13429514240
 2017-02-06 09:10:38.375588+01 | 1486368638.37559 | pgbench_tellers  |           450560
 2017-02-06 09:10:38.375588+01 | 1486368638.37559 | pgbench_history  |                0
 2017-02-06 09:10:38.375588+01 | 1486368638.37559 | pgbench_branches |            40960

 2017-02-06 09:10:39.535807+01 | 1486368639.53581 | pgbench_accounts |      13429514240
 2017-02-06 09:10:39.535807+01 | 1486368639.53581 | pgbench_tellers  |           450560
 2017-02-06 09:10:39.535807+01 | 1486368639.53581 | pgbench_history  |                0
 2017-02-06 09:10:39.535807+01 | 1486368639.53581 | pgbench_branches |            40960

 2017-02-06 09:10:40.712782+01 | 1486368640.71278 | pgbench_accounts |      13429514240
 2017-02-06 09:10:40.712782+01 | 1486368640.71278 | pgbench_tellers  |           450560
 2017-02-06 09:10:40.712782+01 | 1486368640.71278 | pgbench_history  |                0
 2017-02-06 09:10:40.712782+01 | 1486368640.71278 | pgbench_branches |            40960

 2017-02-06 09:10:41.849976+01 | 1486368641.84998 | pgbench_accounts |      13429514240
 2017-02-06 09:10:41.849976+01 | 1486368641.84998 | pgbench_tellers  |           450560
 2017-02-06 09:10:41.849976+01 | 1486368641.84998 | pgbench_history  |                0
 2017-02-06 09:10:41.849976+01 | 1486368641.84998 | pgbench_branches |            40960

 2017-02-06 09:10:43.004224+01 | 1486368643.00422 | pgbench_accounts |      13429514240
 2017-02-06 09:10:43.004224+01 | 1486368643.00422 | pgbench_tellers  |           450560
 2017-02-06 09:10:43.004224+01 | 1486368643.00422 | pgbench_history  |                0
 2017-02-06 09:10:43.004224+01 | 1486368643.00422 | pgbench_branches |            40960

 2017-02-06 09:10:44.147715+01 | 1486368644.14772 | pgbench_accounts |      13429514240
 2017-02-06 09:10:44.147715+01 | 1486368644.14772 | pgbench_tellers  |           450560
 2017-02-06 09:10:44.147715+01 | 1486368644.14772 | pgbench_history  |                0
 2017-02-06 09:10:44.147715+01 | 1486368644.14772 | pgbench_branches |            40960

 2017-02-06 09:10:45.295403+01 | 1486368645.2954 | pgbench_accounts |      13429514240
 2017-02-06 09:10:45.295403+01 | 1486368645.2954 | pgbench_tellers  |           450560
 2017-02-06 09:10:45.295403+01 | 1486368645.2954 | pgbench_history  |                0
 2017-02-06 09:10:45.295403+01 | 1486368645.2954 | pgbench_branches |            40960

 2017-02-06 09:10:46.437867+01 | 1486368646.43787 | pgbench_accounts |      13429514240
 2017-02-06 09:10:46.437867+01 | 1486368646.43787 | pgbench_tellers  |           450560
 2017-02-06 09:10:46.437867+01 | 1486368646.43787 | pgbench_history  |                0
 2017-02-06 09:10:46.437867+01 | 1486368646.43787 | pgbench_branches |            40960

 2017-02-06 09:10:47.5989+01 | 1486368647.5989 | pgbench_accounts |      13429514240
 2017-02-06 09:10:47.5989+01 | 1486368647.5989 | pgbench_tellers  |           450560
 2017-02-06 09:10:47.5989+01 | 1486368647.5989 | pgbench_history  |                0
 2017-02-06 09:10:47.5989+01 | 1486368647.5989 | pgbench_branches |            40960

 2017-02-06 09:10:48.737049+01 | 1486368648.73705 | pgbench_accounts |      13429514240
 2017-02-06 09:10:48.737049+01 | 1486368648.73705 | pgbench_tellers  |           450560
 2017-02-06 09:10:48.737049+01 | 1486368648.73705 | pgbench_history  |                0
 2017-02-06 09:10:48.737049+01 | 1486368648.73705 | pgbench_branches |            40960

 2017-02-06 09:10:49.905241+01 | 1486368649.90524 | pgbench_accounts |      13429514240
 2017-02-06 09:10:49.905241+01 | 1486368649.90524 | pgbench_tellers  |           450560
 2017-02-06 09:10:49.905241+01 | 1486368649.90524 | pgbench_history  |                0
 2017-02-06 09:10:49.905241+01 | 1486368649.90524 | pgbench_branches |            40960

 2017-02-06 09:10:51.020743+01 | 1486368651.02074 | pgbench_accounts |      13429514240
 2017-02-06 09:10:51.020743+01 | 1486368651.02074 | pgbench_tellers  |           450560
 2017-02-06 09:10:51.020743+01 | 1486368651.02074 | pgbench_history  |                0
 2017-02-06 09:10:51.020743+01 | 1486368651.02074 | pgbench_branches |            40960

 2017-02-06 09:10:52.170058+01 | 1486368652.17006 | pgbench_accounts |      13429514240
 2017-02-06 09:10:52.170058+01 | 1486368652.17006 | pgbench_tellers  |           450560
 2017-02-06 09:10:52.170058+01 | 1486368652.17006 | pgbench_history  |                0
 2017-02-06 09:10:52.170058+01 | 1486368652.17006 | pgbench_branches |            40960

 2017-02-06 09:10:53.318213+01 | 1486368653.31821 | pgbench_accounts |      13429514240
 2017-02-06 09:10:53.318213+01 | 1486368653.31821 | pgbench_tellers  |           450560
 2017-02-06 09:10:53.318213+01 | 1486368653.31821 | pgbench_history  |                0
 2017-02-06 09:10:53.318213+01 | 1486368653.31821 | pgbench_branches |            40960

 2017-02-06 09:10:54.448417+01 | 1486368654.44842 | pgbench_accounts |      13429514240
 2017-02-06 09:10:54.448417+01 | 1486368654.44842 | pgbench_tellers  |           450560
 2017-02-06 09:10:54.448417+01 | 1486368654.44842 | pgbench_history  |                0
 2017-02-06 09:10:54.448417+01 | 1486368654.44842 | pgbench_branches |            40960

 2017-02-06 09:10:55.593047+01 | 1486368655.59305 | pgbench_accounts |      13429514240
 2017-02-06 09:10:55.593047+01 | 1486368655.59305 | pgbench_tellers  |           450560
 2017-02-06 09:10:55.593047+01 | 1486368655.59305 | pgbench_history  |                0
 2017-02-06 09:10:55.593047+01 | 1486368655.59305 | pgbench_branches |            40960

 2017-02-06 09:10:56.740681+01 | 1486368656.74068 | pgbench_accounts |      13429514240
 2017-02-06 09:10:56.740681+01 | 1486368656.74068 | pgbench_tellers  |           450560
 2017-02-06 09:10:56.740681+01 | 1486368656.74068 | pgbench_history  |                0
 2017-02-06 09:10:56.740681+01 | 1486368656.74068 | pgbench_branches |            40960

 2017-02-06 09:10:57.894751+01 | 1486368657.89475 | pgbench_accounts |      13429514240
 2017-02-06 09:10:57.894751+01 | 1486368657.89475 | pgbench_tellers  |           450560
 2017-02-06 09:10:57.894751+01 | 1486368657.89475 | pgbench_history  |                0
 2017-02-06 09:10:57.894751+01 | 1486368657.89475 | pgbench_branches |            40960

 2017-02-06 09:10:59.043949+01 | 1486368659.04395 | pgbench_accounts |      13429514240
 2017-02-06 09:10:59.043949+01 | 1486368659.04395 | pgbench_tellers  |           450560
 2017-02-06 09:10:59.043949+01 | 1486368659.04395 | pgbench_history  |                0
 2017-02-06 09:10:59.043949+01 | 1486368659.04395 | pgbench_branches |            40960

 2017-02-06 09:11:00.182031+01 | 1486368660.18203 | pgbench_accounts |      13429514240
 2017-02-06 09:11:00.182031+01 | 1486368660.18203 | pgbench_tellers  |           450560
 2017-02-06 09:11:00.182031+01 | 1486368660.18203 | pgbench_history  |                0
 2017-02-06 09:11:00.182031+01 | 1486368660.18203 | pgbench_branches |            40960

 2017-02-06 09:11:01.325367+01 | 1486368661.32537 | pgbench_accounts |      13429514240
 2017-02-06 09:11:01.325367+01 | 1486368661.32537 | pgbench_tellers  |           450560
 2017-02-06 09:11:01.325367+01 | 1486368661.32537 | pgbench_history  |                0
 2017-02-06 09:11:01.325367+01 | 1486368661.32537 | pgbench_branches |            40960

 2017-02-06 09:11:02.43222+01 | 1486368662.43222 | pgbench_accounts |      13429514240
 2017-02-06 09:11:02.43222+01 | 1486368662.43222 | pgbench_tellers  |           450560
 2017-02-06 09:11:02.43222+01 | 1486368662.43222 | pgbench_history  |                0
 2017-02-06 09:11:02.43222+01 | 1486368662.43222 | pgbench_branches |            40960

 2017-02-06 09:11:03.594376+01 | 1486368663.59438 | pgbench_accounts |      13429514240
 2017-02-06 09:11:03.594376+01 | 1486368663.59438 | pgbench_tellers  |           450560
 2017-02-06 09:11:03.594376+01 | 1486368663.59438 | pgbench_history  |                0
 2017-02-06 09:11:03.594376+01 | 1486368663.59438 | pgbench_branches |            40960

 2017-02-06 09:11:04.754114+01 | 1486368664.75411 | pgbench_accounts |      13429514240
 2017-02-06 09:11:04.754114+01 | 1486368664.75411 | pgbench_tellers  |           450560
 2017-02-06 09:11:04.754114+01 | 1486368664.75411 | pgbench_history  |                0
 2017-02-06 09:11:04.754114+01 | 1486368664.75411 | pgbench_branches |            40960

 2017-02-06 09:11:05.886314+01 | 1486368665.88631 | pgbench_accounts |      13429514240
 2017-02-06 09:11:05.886314+01 | 1486368665.88631 | pgbench_tellers  |           450560
 2017-02-06 09:11:05.886314+01 | 1486368665.88631 | pgbench_history  |                0
 2017-02-06 09:11:05.886314+01 | 1486368665.88631 | pgbench_branches |            40960

 2017-02-06 09:11:07.02212+01 | 1486368667.02212 | pgbench_accounts |      13429514240
 2017-02-06 09:11:07.02212+01 | 1486368667.02212 | pgbench_tellers  |           450560
 2017-02-06 09:11:07.02212+01 | 1486368667.02212 | pgbench_history  |                0
 2017-02-06 09:11:07.02212+01 | 1486368667.02212 | pgbench_branches |            40960

 2017-02-06 09:11:08.174383+01 | 1486368668.17438 | pgbench_accounts |      13429514240
 2017-02-06 09:11:08.174383+01 | 1486368668.17438 | pgbench_tellers  |           450560
 2017-02-06 09:11:08.174383+01 | 1486368668.17438 | pgbench_history  |                0
 2017-02-06 09:11:08.174383+01 | 1486368668.17438 | pgbench_branches |            40960

 2017-02-06 09:11:09.331851+01 | 1486368669.33185 | pgbench_accounts |      13429514240
 2017-02-06 09:11:09.331851+01 | 1486368669.33185 | pgbench_tellers  |           450560
 2017-02-06 09:11:09.331851+01 | 1486368669.33185 | pgbench_history  |                0
 2017-02-06 09:11:09.331851+01 | 1486368669.33185 | pgbench_branches |            40960

 2017-02-06 09:11:10.478692+01 | 1486368670.47869 | pgbench_accounts |      13429514240
 2017-02-06 09:11:10.478692+01 | 1486368670.47869 | pgbench_tellers  |           450560
 2017-02-06 09:11:10.478692+01 | 1486368670.47869 | pgbench_history  |                0
 2017-02-06 09:11:10.478692+01 | 1486368670.47869 | pgbench_branches |            40960

 2017-02-06 09:11:11.594055+01 | 1486368671.59405 | pgbench_accounts |      13429514240
 2017-02-06 09:11:11.594055+01 | 1486368671.59405 | pgbench_tellers  |           450560
 2017-02-06 09:11:11.594055+01 | 1486368671.59405 | pgbench_history  |                0
 2017-02-06 09:11:11.594055+01 | 1486368671.59405 | pgbench_branches |            40960

 2017-02-06 09:11:12.71813+01 | 1486368672.71813 | pgbench_accounts |      13429514240
 2017-02-06 09:11:12.71813+01 | 1486368672.71813 | pgbench_tellers  |           450560
 2017-02-06 09:11:12.71813+01 | 1486368672.71813 | pgbench_history  |                0
 2017-02-06 09:11:12.71813+01 | 1486368672.71813 | pgbench_branches |            40960

 2017-02-06 09:11:13.855189+01 | 1486368673.85519 | pgbench_accounts |      13429514240
 2017-02-06 09:11:13.855189+01 | 1486368673.85519 | pgbench_tellers  |           450560
 2017-02-06 09:11:13.855189+01 | 1486368673.85519 | pgbench_history  |                0
 2017-02-06 09:11:13.855189+01 | 1486368673.85519 | pgbench_branches |            40960

 2017-02-06 09:11:14.987554+01 | 1486368674.98755 | pgbench_accounts |      13429514240
 2017-02-06 09:11:14.987554+01 | 1486368674.98755 | pgbench_tellers  |           450560
 2017-02-06 09:11:14.987554+01 | 1486368674.98755 | pgbench_history  |                0
 2017-02-06 09:11:14.987554+01 | 1486368674.98755 | pgbench_branches |            40960

 2017-02-06 09:11:16.15773+01 | 1486368676.15773 | pgbench_accounts |      13429514240
 2017-02-06 09:11:16.15773+01 | 1486368676.15773 | pgbench_tellers  |           450560
 2017-02-06 09:11:16.15773+01 | 1486368676.15773 | pgbench_history  |                0
 2017-02-06 09:11:16.15773+01 | 1486368676.15773 | pgbench_branches |            40960

 2017-02-06 09:11:17.284725+01 | 1486368677.28472 | pgbench_accounts |      13429514240
 2017-02-06 09:11:17.284725+01 | 1486368677.28472 | pgbench_tellers  |           450560
 2017-02-06 09:11:17.284725+01 | 1486368677.28472 | pgbench_history  |                0
 2017-02-06 09:11:17.284725+01 | 1486368677.28472 | pgbench_branches |            40960

 2017-02-06 09:11:18.421878+01 | 1486368678.42188 | pgbench_accounts |      13429514240
 2017-02-06 09:11:18.421878+01 | 1486368678.42188 | pgbench_tellers  |           450560
 2017-02-06 09:11:18.421878+01 | 1486368678.42188 | pgbench_history  |                0
 2017-02-06 09:11:18.421878+01 | 1486368678.42188 | pgbench_branches |            40960

 2017-02-06 09:11:19.56926+01 | 1486368679.56926 | pgbench_accounts |      13429514240
 2017-02-06 09:11:19.56926+01 | 1486368679.56926 | pgbench_tellers  |           450560
 2017-02-06 09:11:19.56926+01 | 1486368679.56926 | pgbench_history  |                0
 2017-02-06 09:11:19.56926+01 | 1486368679.56926 | pgbench_branches |            40960

 2017-02-06 09:11:20.721368+01 | 1486368680.72137 | pgbench_accounts |      13429514240
 2017-02-06 09:11:20.721368+01 | 1486368680.72137 | pgbench_tellers  |           450560
 2017-02-06 09:11:20.721368+01 | 1486368680.72137 | pgbench_history  |                0
 2017-02-06 09:11:20.721368+01 | 1486368680.72137 | pgbench_branches |            40960

 2017-02-06 09:11:21.863731+01 | 1486368681.86373 | pgbench_accounts |      13429514240
 2017-02-06 09:11:21.863731+01 | 1486368681.86373 | pgbench_tellers  |           450560
 2017-02-06 09:11:21.863731+01 | 1486368681.86373 | pgbench_history  |                0
 2017-02-06 09:11:21.863731+01 | 1486368681.86373 | pgbench_branches |            40960

 2017-02-06 09:11:23.003794+01 | 1486368683.00379 | pgbench_accounts |      13429514240
 2017-02-06 09:11:23.003794+01 | 1486368683.00379 | pgbench_tellers  |           450560
 2017-02-06 09:11:23.003794+01 | 1486368683.00379 | pgbench_history  |                0
 2017-02-06 09:11:23.003794+01 | 1486368683.00379 | pgbench_branches |            40960

 2017-02-06 09:11:24.141084+01 | 1486368684.14108 | pgbench_accounts |      13429514240
 2017-02-06 09:11:24.141084+01 | 1486368684.14108 | pgbench_tellers  |           450560
 2017-02-06 09:11:24.141084+01 | 1486368684.14108 | pgbench_history  |                0
 2017-02-06 09:11:24.141084+01 | 1486368684.14108 | pgbench_branches |            40960

 2017-02-06 09:11:25.305193+01 | 1486368685.30519 | pgbench_accounts |      13429514240
 2017-02-06 09:11:25.305193+01 | 1486368685.30519 | pgbench_tellers  |           450560
 2017-02-06 09:11:25.305193+01 | 1486368685.30519 | pgbench_history  |                0
 2017-02-06 09:11:25.305193+01 | 1486368685.30519 | pgbench_branches |            40960

 2017-02-06 09:11:26.43261+01 | 1486368686.43261 | pgbench_accounts |      13429514240
 2017-02-06 09:11:26.43261+01 | 1486368686.43261 | pgbench_tellers  |           450560
 2017-02-06 09:11:26.43261+01 | 1486368686.43261 | pgbench_history  |                0
 2017-02-06 09:11:26.43261+01 | 1486368686.43261 | pgbench_branches |            40960

 2017-02-06 09:11:27.587711+01 | 1486368687.58771 | pgbench_accounts |      13429514240
 2017-02-06 09:11:27.587711+01 | 1486368687.58771 | pgbench_tellers  |           450560
 2017-02-06 09:11:27.587711+01 | 1486368687.58771 | pgbench_history  |                0
 2017-02-06 09:11:27.587711+01 | 1486368687.58771 | pgbench_branches |            40960

 2017-02-06 09:11:28.717333+01 | 1486368688.71733 | pgbench_accounts |      13429514240
 2017-02-06 09:11:28.717333+01 | 1486368688.71733 | pgbench_tellers  |           450560
 2017-02-06 09:11:28.717333+01 | 1486368688.71733 | pgbench_history  |                0
 2017-02-06 09:11:28.717333+01 | 1486368688.71733 | pgbench_branches |            40960

 2017-02-06 09:11:29.863076+01 | 1486368689.86308 | pgbench_accounts |      13429514240
 2017-02-06 09:11:29.863076+01 | 1486368689.86308 | pgbench_tellers  |           450560
 2017-02-06 09:11:29.863076+01 | 1486368689.86308 | pgbench_history  |                0
 2017-02-06 09:11:29.863076+01 | 1486368689.86308 | pgbench_branches |            40960

 2017-02-06 09:11:31.023295+01 | 1486368691.02329 | pgbench_accounts |      13429514240
 2017-02-06 09:11:31.023295+01 | 1486368691.02329 | pgbench_tellers  |           450560
 2017-02-06 09:11:31.023295+01 | 1486368691.02329 | pgbench_history  |                0
 2017-02-06 09:11:31.023295+01 | 1486368691.02329 | pgbench_branches |            40960

 2017-02-06 09:11:32.164017+01 | 1486368692.16402 | pgbench_accounts |      13429514240
 2017-02-06 09:11:32.164017+01 | 1486368692.16402 | pgbench_tellers  |           450560
 2017-02-06 09:11:32.164017+01 | 1486368692.16402 | pgbench_history  |                0
 2017-02-06 09:11:32.164017+01 | 1486368692.16402 | pgbench_branches |            40960

 2017-02-06 09:11:33.343326+01 | 1486368693.34333 | pgbench_accounts |      13429514240
 2017-02-06 09:11:33.343326+01 | 1486368693.34333 | pgbench_tellers  |           450560
 2017-02-06 09:11:33.343326+01 | 1486368693.34333 | pgbench_history  |                0
 2017-02-06 09:11:33.343326+01 | 1486368693.34333 | pgbench_branches |            40960

 2017-02-06 09:11:34.503479+01 | 1486368694.50348 | pgbench_accounts |      13429514240
 2017-02-06 09:11:34.503479+01 | 1486368694.50348 | pgbench_tellers  |           450560
 2017-02-06 09:11:34.503479+01 | 1486368694.50348 | pgbench_history  |                0
 2017-02-06 09:11:34.503479+01 | 1486368694.50348 | pgbench_branches |            40960

 2017-02-06 09:11:35.660435+01 | 1486368695.66043 | pgbench_accounts |      13429514240
 2017-02-06 09:11:35.660435+01 | 1486368695.66043 | pgbench_tellers  |           450560
 2017-02-06 09:11:35.660435+01 | 1486368695.66043 | pgbench_history  |                0
 2017-02-06 09:11:35.660435+01 | 1486368695.66043 | pgbench_branches |            40960

 2017-02-06 09:11:36.808937+01 | 1486368696.80894 | pgbench_accounts |      13429514240
 2017-02-06 09:11:36.808937+01 | 1486368696.80894 | pgbench_tellers  |           450560
 2017-02-06 09:11:36.808937+01 | 1486368696.80894 | pgbench_history  |                0
 2017-02-06 09:11:36.808937+01 | 1486368696.80894 | pgbench_branches |            40960

 2017-02-06 09:11:37.986866+01 | 1486368697.98687 | pgbench_accounts |      13429514240
 2017-02-06 09:11:37.986866+01 | 1486368697.98687 | pgbench_tellers  |           450560
 2017-02-06 09:11:37.986866+01 | 1486368697.98687 | pgbench_history  |                0
 2017-02-06 09:11:37.986866+01 | 1486368697.98687 | pgbench_branches |            40960

 2017-02-06 09:11:39.145105+01 | 1486368699.1451 | pgbench_accounts |      13429514240
 2017-02-06 09:11:39.145105+01 | 1486368699.1451 | pgbench_tellers  |           450560
 2017-02-06 09:11:39.145105+01 | 1486368699.1451 | pgbench_history  |                0
 2017-02-06 09:11:39.145105+01 | 1486368699.1451 | pgbench_branches |            40960

 2017-02-06 09:11:40.27007+01 | 1486368700.27007 | pgbench_accounts |      13429514240
 2017-02-06 09:11:40.27007+01 | 1486368700.27007 | pgbench_tellers  |           450560
 2017-02-06 09:11:40.27007+01 | 1486368700.27007 | pgbench_history  |                0
 2017-02-06 09:11:40.27007+01 | 1486368700.27007 | pgbench_branches |            40960

 2017-02-06 09:11:41.422431+01 | 1486368701.42243 | pgbench_accounts |      13429514240
 2017-02-06 09:11:41.422431+01 | 1486368701.42243 | pgbench_tellers  |           450560
 2017-02-06 09:11:41.422431+01 | 1486368701.42243 | pgbench_history  |                0
 2017-02-06 09:11:41.422431+01 | 1486368701.42243 | pgbench_branches |            40960

 2017-02-06 09:11:42.606269+01 | 1486368702.60627 | pgbench_accounts |      13429514240
 2017-02-06 09:11:42.606269+01 | 1486368702.60627 | pgbench_tellers  |           450560
 2017-02-06 09:11:42.606269+01 | 1486368702.60627 | pgbench_history  |                0
 2017-02-06 09:11:42.606269+01 | 1486368702.60627 | pgbench_branches |            40960

 2017-02-06 09:11:43.754815+01 | 1486368703.75482 | pgbench_accounts |      13429514240
 2017-02-06 09:11:43.754815+01 | 1486368703.75482 | pgbench_tellers  |           450560
 2017-02-06 09:11:43.754815+01 | 1486368703.75482 | pgbench_history  |                0
 2017-02-06 09:11:43.754815+01 | 1486368703.75482 | pgbench_branches |            40960

