 2017-02-06 10:02:50.978381+01 | 1486371770.97838 | 3/10081790               |           13153867664

 2017-02-06 10:02:52.071655+01 | 1486371772.07166 | 3/197F62E0               |           13312680672

 2017-02-06 10:02:53.15471+01 | 1486371773.15471 | 3/2274ADA0               |           13462973856

 2017-02-06 10:02:54.233243+01 | 1486371774.23324 | 3/2B347F48               |           13609762632

 2017-02-06 10:02:55.308429+01 | 1486371775.30843 | 3/335D65B0               |           13746660784

 2017-02-06 10:02:56.380876+01 | 1486371776.38088 | 3/3AB15878               |           13869602936

 2017-02-06 10:02:57.448987+01 | 1486371777.44899 | 3/417A4418               |           13983433752

 2017-02-06 10:02:58.516446+01 | 1486371778.51645 | 3/47A991F8               |           14087197176

 2017-02-06 10:02:59.585937+01 | 1486371779.58594 | 3/4CEE51F8               |           14175588856

 2017-02-06 10:03:00.659918+01 | 1486371780.65992 | 3/51A209E8               |           14254475752

 2017-02-06 10:03:01.736968+01 | 1486371781.73697 | 3/55CD9220               |           14324437536

 2017-02-06 10:03:02.814785+01 | 1486371782.81479 | 3/5981DF70               |           14386585456

 2017-02-06 10:03:03.886509+01 | 1486371783.88651 | 3/5CC839E0               |           14441527776

 2017-02-06 10:03:04.964491+01 | 1486371784.96449 | 3/5FBF18C8               |           14491261128

 2017-02-06 10:03:06.041916+01 | 1486371786.04192 | 3/6264D328               |           14535676712

 2017-02-06 10:03:07.116696+01 | 1486371787.1167 | 3/649E09D8               |           14572980696

 2017-02-06 10:03:08.192019+01 | 1486371788.19202 | 3/669CAE40               |           14606446144

 2017-02-06 10:03:09.268894+01 | 1486371789.26889 | 3/686F19A8               |           14637013416

 2017-02-06 10:03:10.347212+01 | 1486371790.34721 | 3/6A138B90               |           14664567696

 2017-02-06 10:03:11.418443+01 | 1486371791.41844 | 3/6B7F5B88               |           14688410504

 2017-02-06 10:03:12.491186+01 | 1486371792.49119 | 3/6CD4EF98               |           14710796184

 2017-02-06 10:03:13.564239+01 | 1486371793.56424 | 3/6E000EB8               |           14730399416

 2017-02-06 10:03:14.63681+01 | 1486371794.63681 | 3/6F2B74C0               |           14750020800

 2017-02-06 10:03:15.711378+01 | 1486371795.71138 | 3/70D0DF38               |           14777638712

 2017-02-06 10:03:16.78389+01 | 1486371796.78389 | 3/7251CF08               |           14802865928

 2017-02-06 10:03:17.859715+01 | 1486371797.85971 | 3/73CC7178               |           14827680120

 2017-02-06 10:03:18.933012+01 | 1486371798.93301 | 3/752861A0               |           14850482592

 2017-02-06 10:03:20.011769+01 | 1486371800.01177 | 3/76002F50               |           14864625488

 2017-02-06 10:03:21.082061+01 | 1486371801.08206 | 3/769F68B8               |           14875060408

 2017-02-06 10:03:22.151224+01 | 1486371802.15122 | 3/77416498               |           14885676184

 2017-02-06 10:03:23.226623+01 | 1486371803.22662 | 3/77DBE400               |           14895801344

 2017-02-06 10:03:24.304928+01 | 1486371804.30493 | 3/787908B0               |           14906099888

 2017-02-06 10:03:25.375475+01 | 1486371805.37547 | 3/79170DE8               |           14916455912

 2017-02-06 10:03:26.453045+01 | 1486371806.45304 | 3/79B38C50               |           14926711888

 2017-02-06 10:03:27.527375+01 | 1486371807.52737 | 3/7A50D3F8               |           14937019384

 2017-02-06 10:03:28.596674+01 | 1486371808.59667 | 3/7AF23288               |           14947594888

 2017-02-06 10:03:29.671053+01 | 1486371809.67105 | 3/7B94A538               |           14958241080

 2017-02-06 10:03:30.747257+01 | 1486371810.74726 | 3/7C2E25E8               |           14968301032

 2017-02-06 10:03:31.82054+01 | 1486371811.82054 | 3/7CCD8B20               |           14978747168

 2017-02-06 10:03:32.89555+01 | 1486371812.89555 | 3/7D706000               |           14989418496

 2017-02-06 10:03:33.974295+01 | 1486371813.97429 | 3/7E0844C8               |           14999373000

 2017-02-06 10:03:35.04508+01 | 1486371815.04508 | 3/7EA63298               |           15009723032

 2017-02-06 10:03:36.120198+01 | 1486371816.1202 | 3/7F44FBA0               |           15020129184

 2017-02-06 10:03:37.198048+01 | 1486371817.19805 | 3/7FE84160               |           15030829408

 2017-02-06 10:03:38.278822+01 | 1486371818.27882 | 3/8082FCD0               |           15040969936

 2017-02-06 10:03:39.357087+01 | 1486371819.35709 | 3/8124E338               |           15051580216

 2017-02-06 10:03:40.434407+01 | 1486371820.43441 | 3/81C1E020               |           15061868576

 2017-02-06 10:03:41.513504+01 | 1486371821.5135 | 3/825AF650               |           15071901264

 2017-02-06 10:03:42.591268+01 | 1486371822.59127 | 3/82F5FF60               |           15082061664

 2017-02-06 10:03:43.663955+01 | 1486371823.66395 | 3/83963BD8               |           15092562904

 2017-02-06 10:03:44.73411+01 | 1486371824.73411 | 3/8435ACF0               |           15103012080

 2017-02-06 10:03:45.811184+01 | 1486371825.81118 | 3/84D21A68               |           15113263720

 2017-02-06 10:03:46.881932+01 | 1486371826.88193 | 3/856F7740               |           15123576640

 2017-02-06 10:03:47.95297+01 | 1486371827.95297 | 3/860A0BD0               |           15133707216

 2017-02-06 10:03:49.027384+01 | 1486371829.02738 | 3/86A5EAD8               |           15143922392

 2017-02-06 10:03:50.099578+01 | 1486371830.09958 | 3/87517960               |           15155165536

 2017-02-06 10:03:51.179411+01 | 1486371831.17941 | 3/8808FDA8               |           15167192488

 2017-02-06 10:03:52.251076+01 | 1486371832.25108 | 3/88BFAC90               |           15179164816

 2017-02-06 10:03:53.323236+01 | 1486371833.32324 | 3/89698F20               |           15190298400

 2017-02-06 10:03:54.399822+01 | 1486371834.39982 | 3/8A18CBC8               |           15201782728

 2017-02-06 10:03:55.477442+01 | 1486371835.47744 | 3/8AC58520               |           15213102368

 2017-02-06 10:03:56.553512+01 | 1486371836.55351 | 3/8B6BDAC0               |           15224003264

 2017-02-06 10:03:57.624652+01 | 1486371837.62465 | 3/8C1254E8               |           15234913512

 2017-02-06 10:03:58.698361+01 | 1486371838.69836 | 3/8CB52FC8               |           15245586376

 2017-02-06 10:03:59.766975+01 | 1486371839.76697 | 3/8D54A440               |           15256036416

 2017-02-06 10:04:00.850863+01 | 1486371840.85086 | 3/8E079A70               |           15267764848

 2017-02-06 10:04:01.923263+01 | 1486371841.92326 | 3/8EC37DF0               |           15280078320

 2017-02-06 10:04:02.997413+01 | 1486371842.99741 | 3/8F5DF7E0               |           15290202080

 2017-02-06 10:04:04.077216+01 | 1486371844.07722 | 3/8FF211B8               |           15299908024

 2017-02-06 10:04:05.153896+01 | 1486371845.1539 | 3/908A9580               |           15309903232

 2017-02-06 10:04:06.237606+01 | 1486371846.23761 | 3/91239B00               |           15319931648

 2017-02-06 10:04:07.316476+01 | 1486371847.31648 | 3/91C7D8F8               |           15330695416

 2017-02-06 10:04:08.389839+01 | 1486371848.38984 | 3/926B7410               |           15341417488

 2017-02-06 10:04:09.465237+01 | 1486371849.46524 | 3/9308F478               |           15351739512

 2017-02-06 10:04:10.541637+01 | 1486371850.54164 | 3/93A2C9C8               |           15361821128

 2017-02-06 10:04:11.615931+01 | 1486371851.61593 | 3/9442E470               |           15372313712

 2017-02-06 10:04:12.689598+01 | 1486371852.6896 | 3/94DBD288               |           15382336136

 2017-02-06 10:04:13.762341+01 | 1486371853.76234 | 3/95798800               |           15392671744

 2017-02-06 10:04:14.835193+01 | 1486371854.83519 | 3/96170450               |           15402992720

 2017-02-06 10:04:15.912328+01 | 1486371855.91233 | 3/96BCF0A0               |           15413866656

 2017-02-06 10:04:16.983412+01 | 1486371856.98341 | 3/975CE798               |           15424350104

 2017-02-06 10:04:18.056377+01 | 1486371858.05638 | 3/97FE9F00               |           15434948352

 2017-02-06 10:04:19.130388+01 | 1486371859.13039 | 3/989CE388               |           15445320584

 2017-02-06 10:04:20.203671+01 | 1486371860.20367 | 3/993B0418               |           15455683608

 2017-02-06 10:04:21.283255+01 | 1486371861.28326 | 3/99DB40C8               |           15466184904

 2017-02-06 10:04:22.360528+01 | 1486371862.36053 | 3/9A7C6998               |           15476746648

 2017-02-06 10:04:23.435139+01 | 1486371863.43514 | 3/9B1CA428               |           15487247400

 2017-02-06 10:04:24.510093+01 | 1486371864.51009 | 3/9BB83480               |           15497442432

 2017-02-06 10:04:25.583457+01 | 1486371865.58346 | 3/9C57E140               |           15507906880

 2017-02-06 10:04:26.654036+01 | 1486371866.65404 | 3/9CF920E8               |           15518474472

 2017-02-06 10:04:27.727909+01 | 1486371867.72791 | 3/9D950D68               |           15528693096

 2017-02-06 10:04:28.806694+01 | 1486371868.80669 | 3/9E291E00               |           15538396672

 2017-02-06 10:04:29.881409+01 | 1486371869.88141 | 3/9EC39F70               |           15548522352

 2017-02-06 10:04:30.963599+01 | 1486371870.9636 | 3/9F5B6D68               |           15558471016

 2017-02-06 10:04:32.032148+01 | 1486371872.03215 | 3/9FFB3E68               |           15568944744

 2017-02-06 10:04:33.104143+01 | 1486371873.10414 | 3/A0981A48               |           15579224648

 2017-02-06 10:04:34.181533+01 | 1486371874.18153 | 3/A12E5410               |           15589069840

 2017-02-06 10:04:35.258758+01 | 1486371875.25876 | 3/A1C40788               |           15598880648

 2017-02-06 10:04:36.33366+01 | 1486371876.33366 | 3/A26113A0               |           15609172896

 2017-02-06 10:04:37.404137+01 | 1486371877.40414 | 3/A2FC8040               |           15619358784

 2017-02-06 10:04:38.477832+01 | 1486371878.47783 | 3/A3987B58               |           15629581144

 2017-02-06 10:04:39.552928+01 | 1486371879.55293 | 3/A4367E50               |           15639936592

 2017-02-06 10:04:40.625302+01 | 1486371880.6253 | 3/A4D1E1B0               |           15650120112

 2017-02-06 10:04:41.699903+01 | 1486371881.6999 | 3/A5705840               |           15660505152

 2017-02-06 10:04:42.776696+01 | 1486371882.7767 | 3/A6067780               |           15670343552

 2017-02-06 10:04:43.848813+01 | 1486371883.84881 | 3/A69E6D38               |           15680302392

 2017-02-06 10:04:44.922056+01 | 1486371884.92206 | 3/A731BAB8               |           15689956024

 2017-02-06 10:04:45.995599+01 | 1486371885.9956 | 3/A7C8C5B8               |           15699854776

 2017-02-06 10:04:47.06811+01 | 1486371887.06811 | 3/A85B1D60               |           15709445472

 2017-02-06 10:04:48.142772+01 | 1486371888.14277 | 3/A8F4C238               |           15719514680

 2017-02-06 10:04:49.218506+01 | 1486371889.21851 | 3/A990E068               |           15729746024

 2017-02-06 10:04:50.29329+01 | 1486371890.29329 | 3/AA3EB3E8               |           15741137896

 2017-02-06 10:04:51.370968+01 | 1486371891.37097 | 3/AAF5D690               |           15753139856

 2017-02-06 10:04:52.448432+01 | 1486371892.44843 | 3/ABA69450               |           15764722768

 2017-02-06 10:04:53.520012+01 | 1486371893.52001 | 3/AC4ECAB0               |           15775746736

 2017-02-06 10:04:54.593541+01 | 1486371894.59354 | 3/ACEF4728               |           15786264360

 2017-02-06 10:04:55.670286+01 | 1486371895.67029 | 3/AD9B2738               |           15797528376

 2017-02-06 10:04:56.742728+01 | 1486371896.74273 | 3/AE3D5730               |           15808157488

 2017-02-06 10:04:57.822807+01 | 1486371897.82281 | 3/AEDB4668               |           15818507880

 2017-02-06 10:04:58.897461+01 | 1486371898.89746 | 3/AF7BEBE8               |           15829036008

 2017-02-06 10:04:59.969846+01 | 1486371899.96985 | 3/B01824F8               |           15839274232

 2017-02-06 10:05:01.051943+01 | 1486371901.05194 | 3/B0C0C498               |           15850325144

 2017-02-06 10:05:02.131456+01 | 1486371902.13146 | 3/B16F2270               |           15861752432

 2017-02-06 10:05:03.197036+01 | 1486371903.19704 | 3/B21397B8               |           15872530360

 2017-02-06 10:05:04.274554+01 | 1486371904.27455 | 3/B2A77D58               |           15882222936

 2017-02-06 10:05:05.347955+01 | 1486371905.34795 | 3/B33FFD98               |           15892217240

 2017-02-06 10:05:06.423751+01 | 1486371906.42375 | 3/B3D53040               |           15901995072

 2017-02-06 10:05:07.49541+01 | 1486371907.49541 | 3/B46EF588               |           15912072584

 2017-02-06 10:05:08.573039+01 | 1486371908.57304 | 3/B50B5D78               |           15922322808

 2017-02-06 10:05:09.64725+01 | 1486371909.64725 | 3/B5A0DC10               |           15932120080

 2017-02-06 10:05:10.720682+01 | 1486371910.72068 | 3/B63B2880               |           15942232192

 2017-02-06 10:05:11.790571+01 | 1486371911.79057 | 3/B6D04800               |           15952005120

 2017-02-06 10:05:12.861991+01 | 1486371912.86199 | 3/B76ACC40               |           15962131520

 2017-02-06 10:05:13.929598+01 | 1486371913.9296 | 3/B8026AF8               |           15972068088

 2017-02-06 10:05:15.005313+01 | 1486371915.00531 | 3/B89B6DA0               |           15982095776

 2017-02-06 10:05:16.077884+01 | 1486371916.07788 | 3/B9283A80               |           15991323264

 2017-02-06 10:05:17.148434+01 | 1486371917.14843 | 3/B9C2BBB8               |           16001448888

 2017-02-06 10:05:18.225075+01 | 1486371918.22508 | 3/BA5A08A8               |           16011364520

 2017-02-06 10:05:19.296395+01 | 1486371919.2964 | 3/BAEC0FF8               |           16020934648

 2017-02-06 10:05:20.376044+01 | 1486371920.37604 | 3/BB89D8B0               |           16031275184

 2017-02-06 10:05:21.448113+01 | 1486371921.44811 | 3/BC226E28               |           16041274920

 2017-02-06 10:05:22.516759+01 | 1486371922.51676 | 3/BCBD4F98               |           16051425176

 2017-02-06 10:05:23.59501+01 | 1486371923.59501 | 3/BD5746B8               |           16061515448

 2017-02-06 10:05:24.669129+01 | 1486371924.66913 | 3/BDF08220               |           16071557664

 2017-02-06 10:05:25.748423+01 | 1486371925.74842 | 3/BE86B4F8               |           16081401080

 2017-02-06 10:05:26.825831+01 | 1486371926.82583 | 3/BF20ABC0               |           16091491264

 2017-02-06 10:05:27.903904+01 | 1486371927.9039 | 3/BFBC7DF8               |           16101703160

 2017-02-06 10:05:28.97885+01 | 1486371928.97885 | 3/C05705B8               |           16111830456

 2017-02-06 10:05:30.055853+01 | 1486371930.05585 | 3/C0EDBAB8               |           16121707192

 2017-02-06 10:05:31.135368+01 | 1486371931.13537 | 3/C178E530               |           16130827568

 2017-02-06 10:05:32.208288+01 | 1486371932.20829 | 3/C20757F0               |           16140163056

 2017-02-06 10:05:33.29078+01 | 1486371933.29078 | 3/C29F11F0               |           16150106608

 2017-02-06 10:05:34.370322+01 | 1486371934.37032 | 3/C33F5F18               |           16160612120

 2017-02-06 10:05:35.442057+01 | 1486371935.44206 | 3/C3D18070               |           16170188912

 2017-02-06 10:05:36.513791+01 | 1486371936.51379 | 3/C46505C0               |           16179856832

 2017-02-06 10:05:37.583776+01 | 1486371937.58378 | 3/C4F4D1C0               |           16189280704

 2017-02-06 10:05:38.658378+01 | 1486371938.65838 | 3/C5846D48               |           16198692168

 2017-02-06 10:05:39.733089+01 | 1486371939.73309 | 3/C615C080               |           16208216192

 2017-02-06 10:05:40.807301+01 | 1486371940.8073 | 3/C6A6CB30               |           16217721648

 2017-02-06 10:05:41.880193+01 | 1486371941.88019 | 3/C738C228               |           16227287592

 2017-02-06 10:05:42.95683+01 | 1486371942.95683 | 3/C7CD8F38               |           16237039416

 2017-02-06 10:05:44.027126+01 | 1486371944.02713 | 3/C8606A48               |           16246663752

 2017-02-06 10:05:45.100278+01 | 1486371945.10028 | 3/C8F98F78               |           16256700280

 2017-02-06 10:05:46.173747+01 | 1486371946.17375 | 3/C995C380               |           16266937216

 2017-02-06 10:05:47.2454+01 | 1486371947.2454 | 3/CA2D1AB0               |           16276855472

 2017-02-06 10:05:48.321238+01 | 1486371948.32124 | 3/CAC64D48               |           16286895432

 2017-02-06 10:05:49.393225+01 | 1486371949.39322 | 3/CB5FE4C0               |           16296961216

 2017-02-06 10:05:50.47399+01 | 1486371950.47399 | 3/CC13B440               |           16308745280

 2017-02-06 10:05:51.552542+01 | 1486371951.55254 | 3/CCC47D18               |           16320331032

 2017-02-06 10:05:52.630075+01 | 1486371952.63007 | 3/CD73BDA0               |           16331816352

 2017-02-06 10:05:53.699395+01 | 1486371953.69939 | 3/CE1F6EC0               |           16343068352

 2017-02-06 10:05:54.772394+01 | 1486371954.77239 | 3/CEC961A8               |           16354206120

 2017-02-06 10:05:55.84992+01 | 1486371955.84992 | 3/CF69A598               |           16364709272

 2017-02-06 10:05:56.920738+01 | 1486371956.92074 | 3/D007D1E0               |           16375075296

 2017-02-06 10:05:57.995374+01 | 1486371957.99537 | 3/D0AB88A0               |           16385804448

 2017-02-06 10:05:59.06006+01 | 1486371959.06006 | 3/D1478AE0               |           16396028640

 2017-02-06 10:06:00.136605+01 | 1486371960.13661 | 3/D1E4BDF0               |           16406330864

 2017-02-06 10:06:01.210084+01 | 1486371961.21008 | 3/D2895950               |           16417118544

 2017-02-06 10:06:02.289832+01 | 1486371962.28983 | 3/D3316268               |           16428130920

 2017-02-06 10:06:03.361475+01 | 1486371963.36147 | 3/D3E1A0A8               |           16439681192

 2017-02-06 10:06:04.431617+01 | 1486371964.43162 | 3/D47D1C78               |           16449870968

 2017-02-06 10:06:05.509269+01 | 1486371965.50927 | 3/D515A1E8               |           16459866600

 2017-02-06 10:06:06.582817+01 | 1486371966.58282 | 3/D5A77930               |           16469424432

 2017-02-06 10:06:07.656217+01 | 1486371967.65622 | 3/D63BF8C8               |           16479156424

 2017-02-06 10:06:08.726074+01 | 1486371968.72607 | 3/D6D17F48               |           16488955720

 2017-02-06 10:06:09.799547+01 | 1486371969.79955 | 3/D76CF8E0               |           16499144928

 2017-02-06 10:06:10.869548+01 | 1486371970.86955 | 3/D80994D0               |           16509408464

 2017-02-06 10:06:11.944794+01 | 1486371971.94479 | 3/D8A21460               |           16519402592

 2017-02-06 10:06:13.020368+01 | 1486371973.02037 | 3/D93B6478               |           16529450104

 2017-02-06 10:06:14.093097+01 | 1486371974.0931 | 3/D9D7F0A0               |           16539709600

 2017-02-06 10:06:15.164463+01 | 1486371975.16446 | 3/DA743038               |           16549949496

 2017-02-06 10:06:16.238963+01 | 1486371976.23896 | 3/DB1339E8               |           16560372200

 2017-02-06 10:06:17.311351+01 | 1486371977.31135 | 3/DBAA8CA8               |           16570289320

 2017-02-06 10:06:18.386746+01 | 1486371978.38675 | 3/DC462CD8               |           16580488408

 2017-02-06 10:06:19.46246+01 | 1486371979.46246 | 3/DCE1ED50               |           16590695760

 2017-02-06 10:06:20.532413+01 | 1486371980.53241 | 3/DD775A40               |           16600488512

 2017-02-06 10:06:21.607669+01 | 1486371981.60767 | 3/DE08D1E0               |           16610021856

 2017-02-06 10:06:22.68098+01 | 1486371982.68098 | 3/DEA396C0               |           16620164800

 2017-02-06 10:06:23.758304+01 | 1486371983.7583 | 3/DF3F4EE8               |           16630370024

 2017-02-06 10:06:24.827096+01 | 1486371984.8271 | 3/DFCEF838               |           16639785016

 2017-02-06 10:06:25.905827+01 | 1486371985.90583 | 3/E067CF90               |           16649801616

 2017-02-06 10:06:26.976228+01 | 1486371986.97623 | 3/E0FC00A0               |           16659513504

 2017-02-06 10:06:28.049491+01 | 1486371988.04949 | 3/E193B5A0               |           16669455776

 2017-02-06 10:06:29.118701+01 | 1486371989.1187 | 3/E22BDDE8               |           16679427560

 2017-02-06 10:06:30.191319+01 | 1486371990.19132 | 3/E2C4F570               |           16689460592

 2017-02-06 10:06:31.263626+01 | 1486371991.26363 | 3/E35A0EF0               |           16699231984

 2017-02-06 10:06:32.332548+01 | 1486371992.33255 | 3/E3F588A0               |           16709421216

 2017-02-06 10:06:33.403416+01 | 1486371993.40342 | 3/E4921808               |           16719681544

 2017-02-06 10:06:34.474783+01 | 1486371994.47478 | 3/E52CE840               |           16729827392

 2017-02-06 10:06:35.54279+01 | 1486371995.54279 | 3/E5C6A6E8               |           16739903208

 2017-02-06 10:06:36.617754+01 | 1486371996.61775 | 3/E65C2720               |           16749700896

 2017-02-06 10:06:37.689716+01 | 1486371997.68972 | 3/E6EF56F8               |           16759346936

 2017-02-06 10:06:38.765161+01 | 1486371998.76516 | 3/E7845A08               |           16769112584

 2017-02-06 10:06:39.840472+01 | 1486371999.84047 | 3/E81A15F0               |           16778925552

 2017-02-06 10:06:40.909408+01 | 1486372000.90941 | 3/E8B06CA0               |           16788778144

 2017-02-06 10:06:41.983675+01 | 1486372001.98368 | 3/E948BCC8               |           16798760136

 2017-02-06 10:06:43.05961+01 | 1486372003.05961 | 3/E9E38890               |           16808904848

 2017-02-06 10:06:44.13039+01 | 1486372004.13039 | 3/EA7DDE68               |           16819019368

 2017-02-06 10:06:45.206968+01 | 1486372005.20697 | 3/EB144118               |           16828875032

 2017-02-06 10:06:46.280281+01 | 1486372006.28028 | 3/EBA86598               |           16838583704

 2017-02-06 10:06:47.349144+01 | 1486372007.34914 | 3/EC404DF8               |           16848539128

 2017-02-06 10:06:48.423798+01 | 1486372008.4238 | 3/ECDDE850               |           16858867792

 2017-02-06 10:06:49.498641+01 | 1486372009.49864 | 3/ED76B990               |           16868882832

 2017-02-06 10:06:50.573775+01 | 1486372010.57378 | 3/EE111878               |           16878999672

 2017-02-06 10:06:51.652353+01 | 1486372011.65235 | 3/EEA9F950               |           16889018704

 2017-02-06 10:06:52.723038+01 | 1486372012.72304 | 3/EF411728               |           16898922280

 2017-02-06 10:06:53.799904+01 | 1486372013.7999 | 3/EFD2AA88               |           16908462728

 2017-02-06 10:06:54.878121+01 | 1486372014.87812 | 3/F06DF260               |           16918639200

 2017-02-06 10:06:55.946287+01 | 1486372015.94629 | 3/F115DBD8               |           16929643480

 2017-02-06 10:06:57.023352+01 | 1486372017.02335 | 3/F1C521B8               |           16941130168

 2017-02-06 10:06:58.097805+01 | 1486372018.09781 | 3/F26BA910               |           16952043792

 2017-02-06 10:06:59.181357+01 | 1486372019.18136 | 3/F31085C8               |           16962848200

 2017-02-06 10:07:00.256145+01 | 1486372020.25615 | 3/F3B059F8               |           16973322744

 2017-02-06 10:07:01.328426+01 | 1486372021.32843 | 3/F44EFD68               |           16983719272

 2017-02-06 10:07:02.40277+01 | 1486372022.40277 | 3/F4F1C9F8               |           16994388472

 2017-02-06 10:07:03.47317+01 | 1486372023.47317 | 3/F593E1A8               |           17005011368

 2017-02-06 10:07:04.546646+01 | 1486372024.54665 | 3/F62C4768               |           17014998888

 2017-02-06 10:07:05.622091+01 | 1486372025.62209 | 3/F6CD3D28               |           17025547560

 2017-02-06 10:07:06.695592+01 | 1486372026.69559 | 3/F771B820               |           17036326944

 2017-02-06 10:07:07.772105+01 | 1486372027.7721 | 3/F80F6E48               |           17046664448

 2017-02-06 10:07:08.843152+01 | 1486372028.84315 | 3/F8A9F898               |           17056790680

 2017-02-06 10:07:09.921908+01 | 1486372029.92191 | 3/F9448E08               |           17066921480

 2017-02-06 10:07:10.993636+01 | 1486372030.99364 | 3/F9D999F8               |           17076689400

 2017-02-06 10:07:12.067318+01 | 1486372032.06732 | 3/FA6F0360               |           17086481248

 2017-02-06 10:07:13.140482+01 | 1486372033.14048 | 3/FB050B58               |           17096313688

 2017-02-06 10:07:14.213686+01 | 1486372034.21369 | 3/FB991D90               |           17106017680

 2017-02-06 10:07:15.289085+01 | 1486372035.28908 | 3/FC2E74F0               |           17115804912

 2017-02-06 10:07:16.373952+01 | 1486372036.37395 | 3/FCBF4D80               |           17125297536

 2017-02-06 10:07:17.452356+01 | 1486372037.45236 | 3/FD5AA398               |           17135477656

 2017-02-06 10:07:18.525168+01 | 1486372038.52517 | 3/FDEC1DC8               |           17145011656

 2017-02-06 10:07:19.602059+01 | 1486372039.60206 | 3/FE883558               |           17155241304

 2017-02-06 10:07:20.671837+01 | 1486372040.67184 | 3/FF1EDDB0               |           17165114800

 2017-02-06 10:07:21.743318+01 | 1486372041.74332 | 3/FFB32FD8               |           17174835160

 2017-02-06 10:07:22.82023+01 | 1486372042.82023 | 4/49A340                 |           17184695104

 2017-02-06 10:07:23.895519+01 | 1486372043.89552 | 4/DC0C60                 |           17194290272

 2017-02-06 10:07:24.973319+01 | 1486372044.97332 | 4/174ADF0                |           17204293104

 2017-02-06 10:07:26.045776+01 | 1486372046.04578 | 4/20B3B40                |           17214159680

 2017-02-06 10:07:27.133149+01 | 1486372047.13315 | 4/2A26068                |           17224065128

 2017-02-06 10:07:28.207735+01 | 1486372048.20774 | 4/33935B8                |           17233950136

 2017-02-06 10:07:29.278505+01 | 1486372049.27851 | 4/3D3F678                |           17244092024

 2017-02-06 10:07:30.357238+01 | 1486372050.35724 | 4/46986B0                |           17253893808

 2017-02-06 10:07:31.427263+01 | 1486372051.42726 | 4/4FF4FF0                |           17263710192

 2017-02-06 10:07:32.502674+01 | 1486372052.50267 | 4/5988810                |           17273751568

 2017-02-06 10:07:33.57763+01 | 1486372053.57763 | 4/62B79C8                |           17283381704

 2017-02-06 10:07:34.649318+01 | 1486372054.64932 | 4/6C2D938                |           17293302072

 2017-02-06 10:07:35.7237+01 | 1486372055.7237 | 4/75B10C0                |           17303277760

 2017-02-06 10:07:36.797281+01 | 1486372056.79728 | 4/7F0A6B8                |           17313081016

 2017-02-06 10:07:37.87373+01 | 1486372057.87373 | 4/8889E38                |           17323040312

 2017-02-06 10:07:38.951817+01 | 1486372058.95182 | 4/91A7C78                |           17332599928

 2017-02-06 10:07:40.024976+01 | 1486372060.02498 | 4/9AB0C88                |           17342073992

 2017-02-06 10:07:41.10484+01 | 1486372061.10484 | 4/A42E118                |           17352024344

 2017-02-06 10:07:42.178552+01 | 1486372062.17855 | 4/AD67C78                |           17361697912

 2017-02-06 10:07:43.251201+01 | 1486372063.2512 | 4/B6D9520                |           17371600160

 2017-02-06 10:07:44.324542+01 | 1486372064.32454 | 4/C019520                |           17381299488

 2017-02-06 10:07:45.400008+01 | 1486372065.40001 | 4/C92F558                |           17390826840

 2017-02-06 10:07:46.47139+01 | 1486372066.47139 | 4/D2B1330                |           17400795952

 2017-02-06 10:07:47.544615+01 | 1486372067.54462 | 4/DBE9B10                |           17410464528

 2017-02-06 10:07:48.618068+01 | 1486372068.61807 | 4/E51B420                |           17420104736

 2017-02-06 10:07:49.691624+01 | 1486372069.69162 | 4/EE9D878                |           17430075512

 2017-02-06 10:07:50.750088+01 | 1486372070.75009 | 4/F8064E8                |           17439941864

