 2017-02-05 20:03:55.603277+01 | 1486321435.60328 | pgbench_accounts |      13712957440
 2017-02-05 20:03:55.603277+01 | 1486321435.60328 | pgbench_tellers  |           450560
 2017-02-05 20:03:55.603277+01 | 1486321435.60328 | pgbench_history  |          1826816
 2017-02-05 20:03:55.603277+01 | 1486321435.60328 | pgbench_branches |            40960

 2017-02-05 20:03:56.687706+01 | 1486321436.68771 | pgbench_accounts |      13712957440
 2017-02-05 20:03:56.687706+01 | 1486321436.68771 | pgbench_tellers  |           450560
 2017-02-05 20:03:56.687706+01 | 1486321436.68771 | pgbench_history  |          1826816
 2017-02-05 20:03:56.687706+01 | 1486321436.68771 | pgbench_branches |            40960

 2017-02-05 20:03:57.763986+01 | 1486321437.76399 | pgbench_accounts |      13712957440
 2017-02-05 20:03:57.763986+01 | 1486321437.76399 | pgbench_tellers  |           450560
 2017-02-05 20:03:57.763986+01 | 1486321437.76399 | pgbench_history  |          3710976
 2017-02-05 20:03:57.763986+01 | 1486321437.76399 | pgbench_branches |            40960

 2017-02-05 20:03:58.84565+01 | 1486321438.84565 | pgbench_accounts |      13712957440
 2017-02-05 20:03:58.84565+01 | 1486321438.84565 | pgbench_tellers  |           450560
 2017-02-05 20:03:58.84565+01 | 1486321438.84565 | pgbench_history  |          4227072
 2017-02-05 20:03:58.84565+01 | 1486321438.84565 | pgbench_branches |            40960

 2017-02-05 20:03:59.926832+01 | 1486321439.92683 | pgbench_accounts |      13712957440
 2017-02-05 20:03:59.926832+01 | 1486321439.92683 | pgbench_tellers  |           450560
 2017-02-05 20:03:59.926832+01 | 1486321439.92683 | pgbench_history  |          6479872
 2017-02-05 20:03:59.926832+01 | 1486321439.92683 | pgbench_branches |            40960

 2017-02-05 20:04:01.004381+01 | 1486321441.00438 | pgbench_accounts |      13712957440
 2017-02-05 20:04:01.004381+01 | 1486321441.00438 | pgbench_tellers  |           450560
 2017-02-05 20:04:01.004381+01 | 1486321441.00438 | pgbench_history  |          7512064
 2017-02-05 20:04:01.004381+01 | 1486321441.00438 | pgbench_branches |            40960

 2017-02-05 20:04:02.083342+01 | 1486321442.08334 | pgbench_accounts |      13712957440
 2017-02-05 20:04:02.083342+01 | 1486321442.08334 | pgbench_tellers  |           450560
 2017-02-05 20:04:02.083342+01 | 1486321442.08334 | pgbench_history  |          9199616
 2017-02-05 20:04:02.083342+01 | 1486321442.08334 | pgbench_branches |            40960

 2017-02-05 20:04:03.156391+01 | 1486321443.15639 | pgbench_accounts |      13712957440
 2017-02-05 20:04:03.156391+01 | 1486321443.15639 | pgbench_tellers  |           450560
 2017-02-05 20:04:03.156391+01 | 1486321443.15639 | pgbench_history  |         11141120
 2017-02-05 20:04:03.156391+01 | 1486321443.15639 | pgbench_branches |            40960

 2017-02-05 20:04:04.230506+01 | 1486321444.23051 | pgbench_accounts |      13712957440
 2017-02-05 20:04:04.230506+01 | 1486321444.23051 | pgbench_tellers  |           450560
 2017-02-05 20:04:04.230506+01 | 1486321444.23051 | pgbench_history  |         12689408
 2017-02-05 20:04:04.230506+01 | 1486321444.23051 | pgbench_branches |            40960

 2017-02-05 20:04:05.309678+01 | 1486321445.30968 | pgbench_accounts |      13712957440
 2017-02-05 20:04:05.309678+01 | 1486321445.30968 | pgbench_tellers  |           450560
 2017-02-05 20:04:05.309678+01 | 1486321445.30968 | pgbench_history  |         14098432
 2017-02-05 20:04:05.309678+01 | 1486321445.30968 | pgbench_branches |            40960

 2017-02-05 20:04:06.396646+01 | 1486321446.39665 | pgbench_accounts |      13712957440
 2017-02-05 20:04:06.396646+01 | 1486321446.39665 | pgbench_tellers  |           450560
 2017-02-05 20:04:06.396646+01 | 1486321446.39665 | pgbench_history  |         15499264
 2017-02-05 20:04:06.396646+01 | 1486321446.39665 | pgbench_branches |            40960

 2017-02-05 20:04:07.479386+01 | 1486321447.47939 | pgbench_accounts |      13712957440
 2017-02-05 20:04:07.479386+01 | 1486321447.47939 | pgbench_tellers  |           450560
 2017-02-05 20:04:07.479386+01 | 1486321447.47939 | pgbench_history  |         17235968
 2017-02-05 20:04:07.479386+01 | 1486321447.47939 | pgbench_branches |            40960

 2017-02-05 20:04:08.563221+01 | 1486321448.56322 | pgbench_accounts |      13712957440
 2017-02-05 20:04:08.563221+01 | 1486321448.56322 | pgbench_tellers  |           450560
 2017-02-05 20:04:08.563221+01 | 1486321448.56322 | pgbench_history  |         19300352
 2017-02-05 20:04:08.563221+01 | 1486321448.56322 | pgbench_branches |            40960

 2017-02-05 20:04:09.638482+01 | 1486321449.63848 | pgbench_accounts |      13712957440
 2017-02-05 20:04:09.638482+01 | 1486321449.63848 | pgbench_tellers  |           450560
 2017-02-05 20:04:09.638482+01 | 1486321449.63848 | pgbench_history  |         20660224
 2017-02-05 20:04:09.638482+01 | 1486321449.63848 | pgbench_branches |            40960

 2017-02-05 20:04:10.718141+01 | 1486321450.71814 | pgbench_accounts |      13712957440
 2017-02-05 20:04:10.718141+01 | 1486321450.71814 | pgbench_tellers  |           450560
 2017-02-05 20:04:10.718141+01 | 1486321450.71814 | pgbench_history  |         22700032
 2017-02-05 20:04:10.718141+01 | 1486321450.71814 | pgbench_branches |            40960

 2017-02-05 20:04:11.795669+01 | 1486321451.79567 | pgbench_accounts |      13712957440
 2017-02-05 20:04:11.795669+01 | 1486321451.79567 | pgbench_tellers  |           450560
 2017-02-05 20:04:11.795669+01 | 1486321451.79567 | pgbench_history  |         24109056
 2017-02-05 20:04:11.795669+01 | 1486321451.79567 | pgbench_branches |            40960

 2017-02-05 20:04:12.875288+01 | 1486321452.87529 | pgbench_accounts |      13712957440
 2017-02-05 20:04:12.875288+01 | 1486321452.87529 | pgbench_tellers  |           450560
 2017-02-05 20:04:12.875288+01 | 1486321452.87529 | pgbench_history  |         26009600
 2017-02-05 20:04:12.875288+01 | 1486321452.87529 | pgbench_branches |            40960

 2017-02-05 20:04:13.955569+01 | 1486321453.95557 | pgbench_accounts |      13712957440
 2017-02-05 20:04:13.955569+01 | 1486321453.95557 | pgbench_tellers  |           450560
 2017-02-05 20:04:13.955569+01 | 1486321453.95557 | pgbench_history  |         27582464
 2017-02-05 20:04:13.955569+01 | 1486321453.95557 | pgbench_branches |            40960

 2017-02-05 20:04:15.026259+01 | 1486321455.02626 | pgbench_accounts |      13712957440
 2017-02-05 20:04:15.026259+01 | 1486321455.02626 | pgbench_tellers  |           450560
 2017-02-05 20:04:15.026259+01 | 1486321455.02626 | pgbench_history  |         29450240
 2017-02-05 20:04:15.026259+01 | 1486321455.02626 | pgbench_branches |            40960

 2017-02-05 20:04:16.114888+01 | 1486321456.11489 | pgbench_accounts |      13712957440
 2017-02-05 20:04:16.114888+01 | 1486321456.11489 | pgbench_tellers  |           450560
 2017-02-05 20:04:16.114888+01 | 1486321456.11489 | pgbench_history  |         31350784
 2017-02-05 20:04:16.114888+01 | 1486321456.11489 | pgbench_branches |            40960

 2017-02-05 20:04:17.185283+01 | 1486321457.18528 | pgbench_accounts |      13712957440
 2017-02-05 20:04:17.185283+01 | 1486321457.18528 | pgbench_tellers  |           450560
 2017-02-05 20:04:17.185283+01 | 1486321457.18528 | pgbench_history  |         32768000
 2017-02-05 20:04:17.185283+01 | 1486321457.18528 | pgbench_branches |            40960

 2017-02-05 20:04:18.260413+01 | 1486321458.26041 | pgbench_accounts |      13712957440
 2017-02-05 20:04:18.260413+01 | 1486321458.26041 | pgbench_tellers  |           450560
 2017-02-05 20:04:18.260413+01 | 1486321458.26041 | pgbench_history  |         34676736
 2017-02-05 20:04:18.260413+01 | 1486321458.26041 | pgbench_branches |            40960

 2017-02-05 20:04:19.340868+01 | 1486321459.34087 | pgbench_accounts |      13712957440
 2017-02-05 20:04:19.340868+01 | 1486321459.34087 | pgbench_tellers  |           450560
 2017-02-05 20:04:19.340868+01 | 1486321459.34087 | pgbench_history  |         36298752
 2017-02-05 20:04:19.340868+01 | 1486321459.34087 | pgbench_branches |            40960

 2017-02-05 20:04:20.418158+01 | 1486321460.41816 | pgbench_accounts |      13712957440
 2017-02-05 20:04:20.418158+01 | 1486321460.41816 | pgbench_tellers  |           450560
 2017-02-05 20:04:20.418158+01 | 1486321460.41816 | pgbench_history  |         37683200
 2017-02-05 20:04:20.418158+01 | 1486321460.41816 | pgbench_branches |            40960

 2017-02-05 20:04:21.499395+01 | 1486321461.49939 | pgbench_accounts |      13712957440
 2017-02-05 20:04:21.499395+01 | 1486321461.49939 | pgbench_tellers  |           450560
 2017-02-05 20:04:21.499395+01 | 1486321461.49939 | pgbench_history  |         38723584
 2017-02-05 20:04:21.499395+01 | 1486321461.49939 | pgbench_branches |            40960

 2017-02-05 20:04:22.579267+01 | 1486321462.57927 | pgbench_accounts |      13712957440
 2017-02-05 20:04:22.579267+01 | 1486321462.57927 | pgbench_tellers  |           450560
 2017-02-05 20:04:22.579267+01 | 1486321462.57927 | pgbench_history  |         40312832
 2017-02-05 20:04:22.579267+01 | 1486321462.57927 | pgbench_branches |            40960

 2017-02-05 20:04:23.66072+01 | 1486321463.66072 | pgbench_accounts |      13712957440
 2017-02-05 20:04:23.66072+01 | 1486321463.66072 | pgbench_tellers  |           450560
 2017-02-05 20:04:23.66072+01 | 1486321463.66072 | pgbench_history  |         42065920
 2017-02-05 20:04:23.66072+01 | 1486321463.66072 | pgbench_branches |            40960

 2017-02-05 20:04:24.740755+01 | 1486321464.74076 | pgbench_accounts |      13712957440
 2017-02-05 20:04:24.740755+01 | 1486321464.74076 | pgbench_tellers  |           450560
 2017-02-05 20:04:24.740755+01 | 1486321464.74076 | pgbench_history  |         42934272
 2017-02-05 20:04:24.740755+01 | 1486321464.74076 | pgbench_branches |            40960

 2017-02-05 20:04:25.835079+01 | 1486321465.83508 | pgbench_accounts |      13712957440
 2017-02-05 20:04:25.835079+01 | 1486321465.83508 | pgbench_tellers  |           450560
 2017-02-05 20:04:25.835079+01 | 1486321465.83508 | pgbench_history  |         44343296
 2017-02-05 20:04:25.835079+01 | 1486321465.83508 | pgbench_branches |            40960

 2017-02-05 20:04:26.917678+01 | 1486321466.91768 | pgbench_accounts |      13712957440
 2017-02-05 20:04:26.917678+01 | 1486321466.91768 | pgbench_tellers  |           450560
 2017-02-05 20:04:26.917678+01 | 1486321466.91768 | pgbench_history  |         45899776
 2017-02-05 20:04:26.917678+01 | 1486321466.91768 | pgbench_branches |            40960

 2017-02-05 20:04:28.000074+01 | 1486321468.00007 | pgbench_accounts |      13712957440
 2017-02-05 20:04:28.000074+01 | 1486321468.00007 | pgbench_tellers  |           450560
 2017-02-05 20:04:28.000074+01 | 1486321468.00007 | pgbench_history  |         48078848
 2017-02-05 20:04:28.000074+01 | 1486321468.00007 | pgbench_branches |            40960

 2017-02-05 20:04:29.08472+01 | 1486321469.08472 | pgbench_accounts |      13712957440
 2017-02-05 20:04:29.08472+01 | 1486321469.08472 | pgbench_tellers  |           450560
 2017-02-05 20:04:29.08472+01 | 1486321469.08472 | pgbench_history  |         48431104
 2017-02-05 20:04:29.08472+01 | 1486321469.08472 | pgbench_branches |            40960

 2017-02-05 20:04:30.165923+01 | 1486321470.16592 | pgbench_accounts |      13712957440
 2017-02-05 20:04:30.165923+01 | 1486321470.16592 | pgbench_tellers  |           450560
 2017-02-05 20:04:30.165923+01 | 1486321470.16592 | pgbench_history  |         49840128
 2017-02-05 20:04:30.165923+01 | 1486321470.16592 | pgbench_branches |            40960

 2017-02-05 20:04:31.245662+01 | 1486321471.24566 | pgbench_accounts |      13712957440
 2017-02-05 20:04:31.245662+01 | 1486321471.24566 | pgbench_tellers  |           450560
 2017-02-05 20:04:31.245662+01 | 1486321471.24566 | pgbench_history  |         51568640
 2017-02-05 20:04:31.245662+01 | 1486321471.24566 | pgbench_branches |            40960

 2017-02-05 20:04:32.334368+01 | 1486321472.33437 | pgbench_accounts |      13712957440
 2017-02-05 20:04:32.334368+01 | 1486321472.33437 | pgbench_tellers  |           450560
 2017-02-05 20:04:32.334368+01 | 1486321472.33437 | pgbench_history  |         52477952
 2017-02-05 20:04:32.334368+01 | 1486321472.33437 | pgbench_branches |            40960

 2017-02-05 20:04:33.4092+01 | 1486321473.4092 | pgbench_accounts |      13712957440
 2017-02-05 20:04:33.4092+01 | 1486321473.4092 | pgbench_tellers  |           450560
 2017-02-05 20:04:33.4092+01 | 1486321473.4092 | pgbench_history  |         53780480
 2017-02-05 20:04:33.4092+01 | 1486321473.4092 | pgbench_branches |            40960

 2017-02-05 20:04:34.487699+01 | 1486321474.4877 | pgbench_accounts |      13712957440
 2017-02-05 20:04:34.487699+01 | 1486321474.4877 | pgbench_tellers  |           450560
 2017-02-05 20:04:34.487699+01 | 1486321474.4877 | pgbench_history  |         55164928
 2017-02-05 20:04:34.487699+01 | 1486321474.4877 | pgbench_branches |            40960

 2017-02-05 20:04:35.567922+01 | 1486321475.56792 | pgbench_accounts |      13712957440
 2017-02-05 20:04:35.567922+01 | 1486321475.56792 | pgbench_tellers  |           450560
 2017-02-05 20:04:35.567922+01 | 1486321475.56792 | pgbench_history  |         56729600
 2017-02-05 20:04:35.567922+01 | 1486321475.56792 | pgbench_branches |            40960

 2017-02-05 20:04:36.655156+01 | 1486321476.65516 | pgbench_accounts |      13712957440
 2017-02-05 20:04:36.655156+01 | 1486321476.65516 | pgbench_tellers  |           450560
 2017-02-05 20:04:36.655156+01 | 1486321476.65516 | pgbench_history  |         58458112
 2017-02-05 20:04:36.655156+01 | 1486321476.65516 | pgbench_branches |            40960

 2017-02-05 20:04:37.733803+01 | 1486321477.7338 | pgbench_accounts |      13712957440
 2017-02-05 20:04:37.733803+01 | 1486321477.7338 | pgbench_tellers  |           450560
 2017-02-05 20:04:37.733803+01 | 1486321477.7338 | pgbench_history  |         59678720
 2017-02-05 20:04:37.733803+01 | 1486321477.7338 | pgbench_branches |            40960

 2017-02-05 20:04:38.811715+01 | 1486321478.81171 | pgbench_accounts |      13712957440
 2017-02-05 20:04:38.811715+01 | 1486321478.81171 | pgbench_tellers  |           450560
 2017-02-05 20:04:38.811715+01 | 1486321478.81171 | pgbench_history  |         60874752
 2017-02-05 20:04:38.811715+01 | 1486321478.81171 | pgbench_branches |            40960

 2017-02-05 20:04:39.896659+01 | 1486321479.89666 | pgbench_accounts |      13712957440
 2017-02-05 20:04:39.896659+01 | 1486321479.89666 | pgbench_tellers  |           450560
 2017-02-05 20:04:39.896659+01 | 1486321479.89666 | pgbench_history  |         63791104
 2017-02-05 20:04:39.896659+01 | 1486321479.89666 | pgbench_branches |            40960

 2017-02-05 20:04:40.982021+01 | 1486321480.98202 | pgbench_accounts |      13712957440
 2017-02-05 20:04:40.982021+01 | 1486321480.98202 | pgbench_tellers  |           450560
 2017-02-05 20:04:40.982021+01 | 1486321480.98202 | pgbench_history  |         64307200
 2017-02-05 20:04:40.982021+01 | 1486321480.98202 | pgbench_branches |            40960

 2017-02-05 20:04:42.067391+01 | 1486321482.06739 | pgbench_accounts |      13712957440
 2017-02-05 20:04:42.067391+01 | 1486321482.06739 | pgbench_tellers  |           450560
 2017-02-05 20:04:42.067391+01 | 1486321482.06739 | pgbench_history  |         65503232
 2017-02-05 20:04:42.067391+01 | 1486321482.06739 | pgbench_branches |            40960

 2017-02-05 20:04:43.15602+01 | 1486321483.15602 | pgbench_accounts |      13712957440
 2017-02-05 20:04:43.15602+01 | 1486321483.15602 | pgbench_tellers  |           450560
 2017-02-05 20:04:43.15602+01 | 1486321483.15602 | pgbench_history  |         67772416
 2017-02-05 20:04:43.15602+01 | 1486321483.15602 | pgbench_branches |            40960

 2017-02-05 20:04:44.243707+01 | 1486321484.24371 | pgbench_accounts |      13712957440
 2017-02-05 20:04:44.243707+01 | 1486321484.24371 | pgbench_tellers  |           450560
 2017-02-05 20:04:44.243707+01 | 1486321484.24371 | pgbench_history  |         68452352
 2017-02-05 20:04:44.243707+01 | 1486321484.24371 | pgbench_branches |            40960

 2017-02-05 20:04:45.325731+01 | 1486321485.32573 | pgbench_accounts |      13712957440
 2017-02-05 20:04:45.325731+01 | 1486321485.32573 | pgbench_tellers  |           450560
 2017-02-05 20:04:45.325731+01 | 1486321485.32573 | pgbench_history  |         70221824
 2017-02-05 20:04:45.325731+01 | 1486321485.32573 | pgbench_branches |            40960

 2017-02-05 20:04:46.406368+01 | 1486321486.40637 | pgbench_accounts |      13712957440
 2017-02-05 20:04:46.406368+01 | 1486321486.40637 | pgbench_tellers  |           450560
 2017-02-05 20:04:46.406368+01 | 1486321486.40637 | pgbench_history  |         71581696
 2017-02-05 20:04:46.406368+01 | 1486321486.40637 | pgbench_branches |            40960

 2017-02-05 20:04:47.483933+01 | 1486321487.48393 | pgbench_accounts |      13712957440
 2017-02-05 20:04:47.483933+01 | 1486321487.48393 | pgbench_tellers  |           450560
 2017-02-05 20:04:47.483933+01 | 1486321487.48393 | pgbench_history  |         72777728
 2017-02-05 20:04:47.483933+01 | 1486321487.48393 | pgbench_branches |            40960

 2017-02-05 20:04:48.567959+01 | 1486321488.56796 | pgbench_accounts |      13712957440
 2017-02-05 20:04:48.567959+01 | 1486321488.56796 | pgbench_tellers  |           450560
 2017-02-05 20:04:48.567959+01 | 1486321488.56796 | pgbench_history  |         73998336
 2017-02-05 20:04:48.567959+01 | 1486321488.56796 | pgbench_branches |            40960

 2017-02-05 20:04:49.650802+01 | 1486321489.6508 | pgbench_accounts |      13712957440
 2017-02-05 20:04:49.650802+01 | 1486321489.6508 | pgbench_tellers  |           450560
 2017-02-05 20:04:49.650802+01 | 1486321489.6508 | pgbench_history  |         75710464
 2017-02-05 20:04:49.650802+01 | 1486321489.6508 | pgbench_branches |            40960

 2017-02-05 20:04:50.730779+01 | 1486321490.73078 | pgbench_accounts |      13712957440
 2017-02-05 20:04:50.730779+01 | 1486321490.73078 | pgbench_tellers  |           450560
 2017-02-05 20:04:50.730779+01 | 1486321490.73078 | pgbench_history  |         76742656
 2017-02-05 20:04:50.730779+01 | 1486321490.73078 | pgbench_branches |            40960

 2017-02-05 20:04:51.808558+01 | 1486321491.80856 | pgbench_accounts |      13712957440
 2017-02-05 20:04:51.808558+01 | 1486321491.80856 | pgbench_tellers  |           450560
 2017-02-05 20:04:51.808558+01 | 1486321491.80856 | pgbench_history  |         78618624
 2017-02-05 20:04:51.808558+01 | 1486321491.80856 | pgbench_branches |            40960

 2017-02-05 20:04:52.88694+01 | 1486321492.88694 | pgbench_accounts |      13712957440
 2017-02-05 20:04:52.88694+01 | 1486321492.88694 | pgbench_tellers  |           450560
 2017-02-05 20:04:52.88694+01 | 1486321492.88694 | pgbench_history  |         79699968
 2017-02-05 20:04:52.88694+01 | 1486321492.88694 | pgbench_branches |            40960

 2017-02-05 20:04:53.963874+01 | 1486321493.96387 | pgbench_accounts |      13712957440
 2017-02-05 20:04:53.963874+01 | 1486321493.96387 | pgbench_tellers  |           450560
 2017-02-05 20:04:53.963874+01 | 1486321493.96387 | pgbench_history  |         81739776
 2017-02-05 20:04:53.963874+01 | 1486321493.96387 | pgbench_branches |            40960

 2017-02-05 20:04:55.045591+01 | 1486321495.04559 | pgbench_accounts |      13712957440
 2017-02-05 20:04:55.045591+01 | 1486321495.04559 | pgbench_tellers  |           450560
 2017-02-05 20:04:55.045591+01 | 1486321495.04559 | pgbench_history  |         83173376
 2017-02-05 20:04:55.045591+01 | 1486321495.04559 | pgbench_branches |            40960

 2017-02-05 20:04:56.123847+01 | 1486321496.12385 | pgbench_accounts |      13712957440
 2017-02-05 20:04:56.123847+01 | 1486321496.12385 | pgbench_tellers  |           450560
 2017-02-05 20:04:56.123847+01 | 1486321496.12385 | pgbench_history  |         85114880
 2017-02-05 20:04:56.123847+01 | 1486321496.12385 | pgbench_branches |            40960

 2017-02-05 20:04:57.199077+01 | 1486321497.19908 | pgbench_accounts |      13712957440
 2017-02-05 20:04:57.199077+01 | 1486321497.19908 | pgbench_tellers  |           450560
 2017-02-05 20:04:57.199077+01 | 1486321497.19908 | pgbench_history  |         86384640
 2017-02-05 20:04:57.199077+01 | 1486321497.19908 | pgbench_branches |            40960

 2017-02-05 20:04:58.27415+01 | 1486321498.27415 | pgbench_accounts |      13712957440
 2017-02-05 20:04:58.27415+01 | 1486321498.27415 | pgbench_tellers  |           450560
 2017-02-05 20:04:58.27415+01 | 1486321498.27415 | pgbench_history  |         87973888
 2017-02-05 20:04:58.27415+01 | 1486321498.27415 | pgbench_branches |            40960

 2017-02-05 20:04:59.360364+01 | 1486321499.36036 | pgbench_accounts |      13712957440
 2017-02-05 20:04:59.360364+01 | 1486321499.36036 | pgbench_tellers  |           450560
 2017-02-05 20:04:59.360364+01 | 1486321499.36036 | pgbench_history  |         90046464
 2017-02-05 20:04:59.360364+01 | 1486321499.36036 | pgbench_branches |            40960

 2017-02-05 20:05:00.447764+01 | 1486321500.44776 | pgbench_accounts |      13712957440
 2017-02-05 20:05:00.447764+01 | 1486321500.44776 | pgbench_tellers  |           450560
 2017-02-05 20:05:00.447764+01 | 1486321500.44776 | pgbench_history  |         91291648
 2017-02-05 20:05:00.447764+01 | 1486321500.44776 | pgbench_branches |            40960

 2017-02-05 20:05:01.535725+01 | 1486321501.53573 | pgbench_accounts |      13712957440
 2017-02-05 20:05:01.535725+01 | 1486321501.53573 | pgbench_tellers  |           450560
 2017-02-05 20:05:01.535725+01 | 1486321501.53573 | pgbench_history  |         93233152
 2017-02-05 20:05:01.535725+01 | 1486321501.53573 | pgbench_branches |            40960

 2017-02-05 20:05:02.624239+01 | 1486321502.62424 | pgbench_accounts |      13712957440
 2017-02-05 20:05:02.624239+01 | 1486321502.62424 | pgbench_tellers  |           450560
 2017-02-05 20:05:02.624239+01 | 1486321502.62424 | pgbench_history  |         94470144
 2017-02-05 20:05:02.624239+01 | 1486321502.62424 | pgbench_branches |            40960

 2017-02-05 20:05:03.706047+01 | 1486321503.70605 | pgbench_accounts |      13712957440
 2017-02-05 20:05:03.706047+01 | 1486321503.70605 | pgbench_tellers  |           450560
 2017-02-05 20:05:03.706047+01 | 1486321503.70605 | pgbench_history  |         96182272
 2017-02-05 20:05:03.706047+01 | 1486321503.70605 | pgbench_branches |            40960

 2017-02-05 20:05:04.782229+01 | 1486321504.78223 | pgbench_accounts |      13712957440
 2017-02-05 20:05:04.782229+01 | 1486321504.78223 | pgbench_tellers  |           450560
 2017-02-05 20:05:04.782229+01 | 1486321504.78223 | pgbench_history  |         97746944
 2017-02-05 20:05:04.782229+01 | 1486321504.78223 | pgbench_branches |            40960

 2017-02-05 20:05:05.860877+01 | 1486321505.86088 | pgbench_accounts |      13712957440
 2017-02-05 20:05:05.860877+01 | 1486321505.86088 | pgbench_tellers  |           450560
 2017-02-05 20:05:05.860877+01 | 1486321505.86088 | pgbench_history  |         99319808
 2017-02-05 20:05:05.860877+01 | 1486321505.86088 | pgbench_branches |            40960

 2017-02-05 20:05:06.935067+01 | 1486321506.93507 | pgbench_accounts |      13712957440
 2017-02-05 20:05:06.935067+01 | 1486321506.93507 | pgbench_tellers  |           450560
 2017-02-05 20:05:06.935067+01 | 1486321506.93507 | pgbench_history  |        101072896
 2017-02-05 20:05:06.935067+01 | 1486321506.93507 | pgbench_branches |            40960

 2017-02-05 20:05:08.014393+01 | 1486321508.01439 | pgbench_accounts |      13712957440
 2017-02-05 20:05:08.014393+01 | 1486321508.01439 | pgbench_tellers  |           450560
 2017-02-05 20:05:08.014393+01 | 1486321508.01439 | pgbench_history  |        102793216
 2017-02-05 20:05:08.014393+01 | 1486321508.01439 | pgbench_branches |            40960

 2017-02-05 20:05:09.095787+01 | 1486321509.09579 | pgbench_accounts |      13712957440
 2017-02-05 20:05:09.095787+01 | 1486321509.09579 | pgbench_tellers  |           450560
 2017-02-05 20:05:09.095787+01 | 1486321509.09579 | pgbench_history  |        103841792
 2017-02-05 20:05:09.095787+01 | 1486321509.09579 | pgbench_branches |            40960

 2017-02-05 20:05:10.178211+01 | 1486321510.17821 | pgbench_accounts |      13712957440
 2017-02-05 20:05:10.178211+01 | 1486321510.17821 | pgbench_tellers  |           450560
 2017-02-05 20:05:10.178211+01 | 1486321510.17821 | pgbench_history  |        105603072
 2017-02-05 20:05:10.178211+01 | 1486321510.17821 | pgbench_branches |            40960

 2017-02-05 20:05:11.268116+01 | 1486321511.26812 | pgbench_accounts |      13712957440
 2017-02-05 20:05:11.268116+01 | 1486321511.26812 | pgbench_tellers  |           450560
 2017-02-05 20:05:11.268116+01 | 1486321511.26812 | pgbench_history  |        107683840
 2017-02-05 20:05:11.268116+01 | 1486321511.26812 | pgbench_branches |            40960

 2017-02-05 20:05:12.344367+01 | 1486321512.34437 | pgbench_accounts |      13712957440
 2017-02-05 20:05:12.344367+01 | 1486321512.34437 | pgbench_tellers  |           450560
 2017-02-05 20:05:12.344367+01 | 1486321512.34437 | pgbench_history  |        108888064
 2017-02-05 20:05:12.344367+01 | 1486321512.34437 | pgbench_branches |            40960

 2017-02-05 20:05:13.433798+01 | 1486321513.4338 | pgbench_accounts |      13712957440
 2017-02-05 20:05:13.433798+01 | 1486321513.4338 | pgbench_tellers  |           450560
 2017-02-05 20:05:13.433798+01 | 1486321513.4338 | pgbench_history  |        110256128
 2017-02-05 20:05:13.433798+01 | 1486321513.4338 | pgbench_branches |            40960

 2017-02-05 20:05:14.520896+01 | 1486321514.5209 | pgbench_accounts |      13712957440
 2017-02-05 20:05:14.520896+01 | 1486321514.5209 | pgbench_tellers  |           450560
 2017-02-05 20:05:14.520896+01 | 1486321514.5209 | pgbench_history  |        111992832
 2017-02-05 20:05:14.520896+01 | 1486321514.5209 | pgbench_branches |            40960

 2017-02-05 20:05:15.597271+01 | 1486321515.59727 | pgbench_accounts |      13712957440
 2017-02-05 20:05:15.597271+01 | 1486321515.59727 | pgbench_tellers  |           450560
 2017-02-05 20:05:15.597271+01 | 1486321515.59727 | pgbench_history  |        113893376
 2017-02-05 20:05:15.597271+01 | 1486321515.59727 | pgbench_branches |            40960

 2017-02-05 20:05:16.673189+01 | 1486321516.67319 | pgbench_accounts |      13712957440
 2017-02-05 20:05:16.673189+01 | 1486321516.67319 | pgbench_tellers  |           450560
 2017-02-05 20:05:16.673189+01 | 1486321516.67319 | pgbench_history  |        115449856
 2017-02-05 20:05:16.673189+01 | 1486321516.67319 | pgbench_branches |            40960

 2017-02-05 20:05:17.748468+01 | 1486321517.74847 | pgbench_accounts |      13712957440
 2017-02-05 20:05:17.748468+01 | 1486321517.74847 | pgbench_tellers  |           450560
 2017-02-05 20:05:17.748468+01 | 1486321517.74847 | pgbench_history  |        117334016
 2017-02-05 20:05:17.748468+01 | 1486321517.74847 | pgbench_branches |            40960

 2017-02-05 20:05:18.825249+01 | 1486321518.82525 | pgbench_accounts |      13712957440
 2017-02-05 20:05:18.825249+01 | 1486321518.82525 | pgbench_tellers  |           450560
 2017-02-05 20:05:18.825249+01 | 1486321518.82525 | pgbench_history  |        118562816
 2017-02-05 20:05:18.825249+01 | 1486321518.82525 | pgbench_branches |            40960

 2017-02-05 20:05:19.914462+01 | 1486321519.91446 | pgbench_accounts |      13712957440
 2017-02-05 20:05:19.914462+01 | 1486321519.91446 | pgbench_tellers  |           450560
 2017-02-05 20:05:19.914462+01 | 1486321519.91446 | pgbench_history  |        120291328
 2017-02-05 20:05:19.914462+01 | 1486321519.91446 | pgbench_branches |            40960

 2017-02-05 20:05:21.000618+01 | 1486321521.00062 | pgbench_accounts |      13712957440
 2017-02-05 20:05:21.000618+01 | 1486321521.00062 | pgbench_tellers  |           450560
 2017-02-05 20:05:21.000618+01 | 1486321521.00062 | pgbench_history  |        121896960
 2017-02-05 20:05:21.000618+01 | 1486321521.00062 | pgbench_branches |            40960

 2017-02-05 20:05:22.088017+01 | 1486321522.08802 | pgbench_accounts |      13712957440
 2017-02-05 20:05:22.088017+01 | 1486321522.08802 | pgbench_tellers  |           450560
 2017-02-05 20:05:22.088017+01 | 1486321522.08802 | pgbench_history  |        123781120
 2017-02-05 20:05:22.088017+01 | 1486321522.08802 | pgbench_branches |            40960

 2017-02-05 20:05:23.163522+01 | 1486321523.16352 | pgbench_accounts |      13712957440
 2017-02-05 20:05:23.163522+01 | 1486321523.16352 | pgbench_tellers  |           450560
 2017-02-05 20:05:23.163522+01 | 1486321523.16352 | pgbench_history  |        125198336
 2017-02-05 20:05:23.163522+01 | 1486321523.16352 | pgbench_branches |            40960

 2017-02-05 20:05:24.249308+01 | 1486321524.24931 | pgbench_accounts |      13712957440
 2017-02-05 20:05:24.249308+01 | 1486321524.24931 | pgbench_tellers  |           450560
 2017-02-05 20:05:24.249308+01 | 1486321524.24931 | pgbench_history  |        126771200
 2017-02-05 20:05:24.249308+01 | 1486321524.24931 | pgbench_branches |            40960

 2017-02-05 20:05:25.333448+01 | 1486321525.33345 | pgbench_accounts |      13712957440
 2017-02-05 20:05:25.333448+01 | 1486321525.33345 | pgbench_tellers  |           450560
 2017-02-05 20:05:25.333448+01 | 1486321525.33345 | pgbench_history  |        128368640
 2017-02-05 20:05:25.333448+01 | 1486321525.33345 | pgbench_branches |            40960

 2017-02-05 20:05:26.422209+01 | 1486321526.42221 | pgbench_accounts |      13712957440
 2017-02-05 20:05:26.422209+01 | 1486321526.42221 | pgbench_tellers  |           450560
 2017-02-05 20:05:26.422209+01 | 1486321526.42221 | pgbench_history  |        130392064
 2017-02-05 20:05:26.422209+01 | 1486321526.42221 | pgbench_branches |            40960

 2017-02-05 20:05:27.502991+01 | 1486321527.50299 | pgbench_accounts |      13712957440
 2017-02-05 20:05:27.502991+01 | 1486321527.50299 | pgbench_tellers  |           450560
 2017-02-05 20:05:27.502991+01 | 1486321527.50299 | pgbench_history  |        131432448
 2017-02-05 20:05:27.502991+01 | 1486321527.50299 | pgbench_branches |            40960

 2017-02-05 20:05:28.579706+01 | 1486321528.57971 | pgbench_accounts |      13712957440
 2017-02-05 20:05:28.579706+01 | 1486321528.57971 | pgbench_tellers  |           450560
 2017-02-05 20:05:28.579706+01 | 1486321528.57971 | pgbench_history  |        133636096
 2017-02-05 20:05:28.579706+01 | 1486321528.57971 | pgbench_branches |            40960

 2017-02-05 20:05:29.656374+01 | 1486321529.65637 | pgbench_accounts |      13712957440
 2017-02-05 20:05:29.656374+01 | 1486321529.65637 | pgbench_tellers  |           450560
 2017-02-05 20:05:29.656374+01 | 1486321529.65637 | pgbench_history  |        134668288
 2017-02-05 20:05:29.656374+01 | 1486321529.65637 | pgbench_branches |            40960

 2017-02-05 20:05:30.747635+01 | 1486321530.74763 | pgbench_accounts |      13712957440
 2017-02-05 20:05:30.747635+01 | 1486321530.74763 | pgbench_tellers  |           450560
 2017-02-05 20:05:30.747635+01 | 1486321530.74763 | pgbench_history  |        136732672
 2017-02-05 20:05:30.747635+01 | 1486321530.74763 | pgbench_branches |            40960

 2017-02-05 20:05:31.828508+01 | 1486321531.82851 | pgbench_accounts |      13712957440
 2017-02-05 20:05:31.828508+01 | 1486321531.82851 | pgbench_tellers  |           450560
 2017-02-05 20:05:31.828508+01 | 1486321531.82851 | pgbench_history  |        138633216
 2017-02-05 20:05:31.828508+01 | 1486321531.82851 | pgbench_branches |            40960

 2017-02-05 20:05:32.912903+01 | 1486321532.9129 | pgbench_accounts |      13712957440
 2017-02-05 20:05:32.912903+01 | 1486321532.9129 | pgbench_tellers  |           450560
 2017-02-05 20:05:32.912903+01 | 1486321532.9129 | pgbench_history  |        139862016
 2017-02-05 20:05:32.912903+01 | 1486321532.9129 | pgbench_branches |            40960

 2017-02-05 20:05:34.00313+01 | 1486321534.00313 | pgbench_accounts |      13712957440
 2017-02-05 20:05:34.00313+01 | 1486321534.00313 | pgbench_tellers  |           450560
 2017-02-05 20:05:34.00313+01 | 1486321534.00313 | pgbench_history  |        141606912
 2017-02-05 20:05:34.00313+01 | 1486321534.00313 | pgbench_branches |            40960

 2017-02-05 20:05:35.089635+01 | 1486321535.08963 | pgbench_accounts |      13712957440
 2017-02-05 20:05:35.089635+01 | 1486321535.08963 | pgbench_tellers  |           450560
 2017-02-05 20:05:35.089635+01 | 1486321535.08963 | pgbench_history  |        142991360
 2017-02-05 20:05:35.089635+01 | 1486321535.08963 | pgbench_branches |            40960

 2017-02-05 20:05:36.178562+01 | 1486321536.17856 | pgbench_accounts |      13712957440
 2017-02-05 20:05:36.178562+01 | 1486321536.17856 | pgbench_tellers  |           450560
 2017-02-05 20:05:36.178562+01 | 1486321536.17856 | pgbench_history  |        144875520
 2017-02-05 20:05:36.178562+01 | 1486321536.17856 | pgbench_branches |            40960

 2017-02-05 20:05:37.260992+01 | 1486321537.26099 | pgbench_accounts |      13712957440
 2017-02-05 20:05:37.260992+01 | 1486321537.26099 | pgbench_tellers  |           450560
 2017-02-05 20:05:37.260992+01 | 1486321537.26099 | pgbench_history  |        146939904
 2017-02-05 20:05:37.260992+01 | 1486321537.26099 | pgbench_branches |            40960

 2017-02-05 20:05:38.33339+01 | 1486321538.33339 | pgbench_accounts |      13712957440
 2017-02-05 20:05:38.33339+01 | 1486321538.33339 | pgbench_tellers  |           450560
 2017-02-05 20:05:38.33339+01 | 1486321538.33339 | pgbench_history  |        148529152
 2017-02-05 20:05:38.33339+01 | 1486321538.33339 | pgbench_branches |            40960

 2017-02-05 20:05:39.419151+01 | 1486321539.41915 | pgbench_accounts |      13712957440
 2017-02-05 20:05:39.419151+01 | 1486321539.41915 | pgbench_tellers  |           450560
 2017-02-05 20:05:39.419151+01 | 1486321539.41915 | pgbench_history  |        149553152
 2017-02-05 20:05:39.419151+01 | 1486321539.41915 | pgbench_branches |            40960

 2017-02-05 20:05:40.497293+01 | 1486321540.49729 | pgbench_accounts |      13712957440
 2017-02-05 20:05:40.497293+01 | 1486321540.49729 | pgbench_tellers  |           450560
 2017-02-05 20:05:40.497293+01 | 1486321540.49729 | pgbench_history  |        151601152
 2017-02-05 20:05:40.497293+01 | 1486321540.49729 | pgbench_branches |            40960

 2017-02-05 20:05:41.580957+01 | 1486321541.58096 | pgbench_accounts |      13712957440
 2017-02-05 20:05:41.580957+01 | 1486321541.58096 | pgbench_tellers  |           450560
 2017-02-05 20:05:41.580957+01 | 1486321541.58096 | pgbench_history  |        153346048
 2017-02-05 20:05:41.580957+01 | 1486321541.58096 | pgbench_branches |            40960

 2017-02-05 20:05:42.658672+01 | 1486321542.65867 | pgbench_accounts |      13712957440
 2017-02-05 20:05:42.658672+01 | 1486321542.65867 | pgbench_tellers  |           450560
 2017-02-05 20:05:42.658672+01 | 1486321542.65867 | pgbench_history  |        154730496
 2017-02-05 20:05:42.658672+01 | 1486321542.65867 | pgbench_branches |            40960

 2017-02-05 20:05:43.736773+01 | 1486321543.73677 | pgbench_accounts |      13712957440
 2017-02-05 20:05:43.736773+01 | 1486321543.73677 | pgbench_tellers  |           450560
 2017-02-05 20:05:43.736773+01 | 1486321543.73677 | pgbench_history  |        156418048
 2017-02-05 20:05:43.736773+01 | 1486321543.73677 | pgbench_branches |            40960

 2017-02-05 20:05:44.822141+01 | 1486321544.82214 | pgbench_accounts |      13712957440
 2017-02-05 20:05:44.822141+01 | 1486321544.82214 | pgbench_tellers  |           450560
 2017-02-05 20:05:44.822141+01 | 1486321544.82214 | pgbench_history  |        157777920
 2017-02-05 20:05:44.822141+01 | 1486321544.82214 | pgbench_branches |            40960

 2017-02-05 20:05:45.893861+01 | 1486321545.89386 | pgbench_accounts |      13712957440
 2017-02-05 20:05:45.893861+01 | 1486321545.89386 | pgbench_tellers  |           450560
 2017-02-05 20:05:45.893861+01 | 1486321545.89386 | pgbench_history  |        159350784
 2017-02-05 20:05:45.893861+01 | 1486321545.89386 | pgbench_branches |            40960

 2017-02-05 20:05:46.991804+01 | 1486321546.9918 | pgbench_accounts |      13712957440
 2017-02-05 20:05:46.991804+01 | 1486321546.9918 | pgbench_tellers  |           450560
 2017-02-05 20:05:46.991804+01 | 1486321546.9918 | pgbench_history  |        160743424
 2017-02-05 20:05:46.991804+01 | 1486321546.9918 | pgbench_branches |            40960

 2017-02-05 20:05:48.06502+01 | 1486321548.06502 | pgbench_accounts |      13712957440
 2017-02-05 20:05:48.06502+01 | 1486321548.06502 | pgbench_tellers  |           450560
 2017-02-05 20:05:48.06502+01 | 1486321548.06502 | pgbench_history  |        162316288
 2017-02-05 20:05:48.06502+01 | 1486321548.06502 | pgbench_branches |            40960

 2017-02-05 20:05:49.152463+01 | 1486321549.15246 | pgbench_accounts |      13712957440
 2017-02-05 20:05:49.152463+01 | 1486321549.15246 | pgbench_tellers  |           450560
 2017-02-05 20:05:49.152463+01 | 1486321549.15246 | pgbench_history  |        163856384
 2017-02-05 20:05:49.152463+01 | 1486321549.15246 | pgbench_branches |            40960

 2017-02-05 20:05:50.229185+01 | 1486321550.22919 | pgbench_accounts |      13712957440
 2017-02-05 20:05:50.229185+01 | 1486321550.22919 | pgbench_tellers  |           450560
 2017-02-05 20:05:50.229185+01 | 1486321550.22919 | pgbench_history  |        165625856
 2017-02-05 20:05:50.229185+01 | 1486321550.22919 | pgbench_branches |            40960

 2017-02-05 20:05:51.311176+01 | 1486321551.31118 | pgbench_accounts |      13712957440
 2017-02-05 20:05:51.311176+01 | 1486321551.31118 | pgbench_tellers  |           450560
 2017-02-05 20:05:51.311176+01 | 1486321551.31118 | pgbench_history  |        167116800
 2017-02-05 20:05:51.311176+01 | 1486321551.31118 | pgbench_branches |            40960

 2017-02-05 20:05:52.385709+01 | 1486321552.38571 | pgbench_accounts |      13712957440
 2017-02-05 20:05:52.385709+01 | 1486321552.38571 | pgbench_tellers  |           450560
 2017-02-05 20:05:52.385709+01 | 1486321552.38571 | pgbench_history  |        169189376
 2017-02-05 20:05:52.385709+01 | 1486321552.38571 | pgbench_branches |            40960

 2017-02-05 20:05:53.455206+01 | 1486321553.45521 | pgbench_accounts |      13712957440
 2017-02-05 20:05:53.455206+01 | 1486321553.45521 | pgbench_tellers  |           450560
 2017-02-05 20:05:53.455206+01 | 1486321553.45521 | pgbench_history  |        170885120
 2017-02-05 20:05:53.455206+01 | 1486321553.45521 | pgbench_branches |            40960

 2017-02-05 20:05:54.539397+01 | 1486321554.5394 | pgbench_accounts |      13712957440
 2017-02-05 20:05:54.539397+01 | 1486321554.5394 | pgbench_tellers  |           450560
 2017-02-05 20:05:54.539397+01 | 1486321554.5394 | pgbench_history  |        172244992
 2017-02-05 20:05:54.539397+01 | 1486321554.5394 | pgbench_branches |            40960

 2017-02-05 20:05:55.618883+01 | 1486321555.61888 | pgbench_accounts |      13712957440
 2017-02-05 20:05:55.618883+01 | 1486321555.61888 | pgbench_tellers  |           450560
 2017-02-05 20:05:55.618883+01 | 1486321555.61888 | pgbench_history  |        173768704
 2017-02-05 20:05:55.618883+01 | 1486321555.61888 | pgbench_branches |            40960

 2017-02-05 20:05:56.70241+01 | 1486321556.70241 | pgbench_accounts |      13712957440
 2017-02-05 20:05:56.70241+01 | 1486321556.70241 | pgbench_tellers  |           450560
 2017-02-05 20:05:56.70241+01 | 1486321556.70241 | pgbench_history  |        175489024
 2017-02-05 20:05:56.70241+01 | 1486321556.70241 | pgbench_branches |            40960

 2017-02-05 20:05:57.777494+01 | 1486321557.77749 | pgbench_accounts |      13712957440
 2017-02-05 20:05:57.777494+01 | 1486321557.77749 | pgbench_tellers  |           450560
 2017-02-05 20:05:57.777494+01 | 1486321557.77749 | pgbench_history  |        177209344
 2017-02-05 20:05:57.777494+01 | 1486321557.77749 | pgbench_branches |            40960

 2017-02-05 20:05:58.865381+01 | 1486321558.86538 | pgbench_accounts |      13712957440
 2017-02-05 20:05:58.865381+01 | 1486321558.86538 | pgbench_tellers  |           450560
 2017-02-05 20:05:58.865381+01 | 1486321558.86538 | pgbench_history  |        178782208
 2017-02-05 20:05:58.865381+01 | 1486321558.86538 | pgbench_branches |            40960

 2017-02-05 20:05:59.951459+01 | 1486321559.95146 | pgbench_accounts |      13712957440
 2017-02-05 20:05:59.951459+01 | 1486321559.95146 | pgbench_tellers  |           450560
 2017-02-05 20:05:59.951459+01 | 1486321559.95146 | pgbench_history  |        180494336
 2017-02-05 20:05:59.951459+01 | 1486321559.95146 | pgbench_branches |            40960

 2017-02-05 20:06:01.037258+01 | 1486321561.03726 | pgbench_accounts |      13712957440
 2017-02-05 20:06:01.037258+01 | 1486321561.03726 | pgbench_tellers  |           450560
 2017-02-05 20:06:01.037258+01 | 1486321561.03726 | pgbench_history  |        182345728
 2017-02-05 20:06:01.037258+01 | 1486321561.03726 | pgbench_branches |            40960

 2017-02-05 20:06:02.114606+01 | 1486321562.11461 | pgbench_accounts |      13712957440
 2017-02-05 20:06:02.114606+01 | 1486321562.11461 | pgbench_tellers  |           450560
 2017-02-05 20:06:02.114606+01 | 1486321562.11461 | pgbench_history  |        183394304
 2017-02-05 20:06:02.114606+01 | 1486321562.11461 | pgbench_branches |            40960

 2017-02-05 20:06:03.193344+01 | 1486321563.19334 | pgbench_accounts |      13712957440
 2017-02-05 20:06:03.193344+01 | 1486321563.19334 | pgbench_tellers  |           450560
 2017-02-05 20:06:03.193344+01 | 1486321563.19334 | pgbench_history  |        184991744
 2017-02-05 20:06:03.193344+01 | 1486321563.19334 | pgbench_branches |            40960

 2017-02-05 20:06:04.280425+01 | 1486321564.28043 | pgbench_accounts |      13712957440
 2017-02-05 20:06:04.280425+01 | 1486321564.28043 | pgbench_tellers  |           450560
 2017-02-05 20:06:04.280425+01 | 1486321564.28043 | pgbench_history  |        186736640
 2017-02-05 20:06:04.280425+01 | 1486321564.28043 | pgbench_branches |            40960

 2017-02-05 20:06:05.364552+01 | 1486321565.36455 | pgbench_accounts |      13712957440
 2017-02-05 20:06:05.364552+01 | 1486321565.36455 | pgbench_tellers  |           450560
 2017-02-05 20:06:05.364552+01 | 1486321565.36455 | pgbench_history  |        188309504
 2017-02-05 20:06:05.364552+01 | 1486321565.36455 | pgbench_branches |            40960

 2017-02-05 20:06:06.453592+01 | 1486321566.45359 | pgbench_accounts |      13712957440
 2017-02-05 20:06:06.453592+01 | 1486321566.45359 | pgbench_tellers  |           450560
 2017-02-05 20:06:06.453592+01 | 1486321566.45359 | pgbench_history  |        190554112
 2017-02-05 20:06:06.453592+01 | 1486321566.45359 | pgbench_branches |            40960

 2017-02-05 20:06:07.539228+01 | 1486321567.53923 | pgbench_accounts |      13712957440
 2017-02-05 20:06:07.539228+01 | 1486321567.53923 | pgbench_tellers  |           450560
 2017-02-05 20:06:07.539228+01 | 1486321567.53923 | pgbench_history  |        191422464
 2017-02-05 20:06:07.539228+01 | 1486321567.53923 | pgbench_branches |            40960

 2017-02-05 20:06:08.615987+01 | 1486321568.61599 | pgbench_accounts |      13712957440
 2017-02-05 20:06:08.615987+01 | 1486321568.61599 | pgbench_tellers  |           450560
 2017-02-05 20:06:08.615987+01 | 1486321568.61599 | pgbench_history  |        193019904
 2017-02-05 20:06:08.615987+01 | 1486321568.61599 | pgbench_branches |            40960

 2017-02-05 20:06:09.702724+01 | 1486321569.70272 | pgbench_accounts |      13712957440
 2017-02-05 20:06:09.702724+01 | 1486321569.70272 | pgbench_tellers  |           450560
 2017-02-05 20:06:09.702724+01 | 1486321569.70272 | pgbench_history  |        195059712
 2017-02-05 20:06:09.702724+01 | 1486321569.70272 | pgbench_branches |            40960

 2017-02-05 20:06:10.789911+01 | 1486321570.78991 | pgbench_accounts |      13712957440
 2017-02-05 20:06:10.789911+01 | 1486321570.78991 | pgbench_tellers  |           450560
 2017-02-05 20:06:10.789911+01 | 1486321570.78991 | pgbench_history  |        196116480
 2017-02-05 20:06:10.789911+01 | 1486321570.78991 | pgbench_branches |            40960

 2017-02-05 20:06:11.869417+01 | 1486321571.86942 | pgbench_accounts |      13712957440
 2017-02-05 20:06:11.869417+01 | 1486321571.86942 | pgbench_tellers  |           450560
 2017-02-05 20:06:11.869417+01 | 1486321571.86942 | pgbench_history  |        198295552
 2017-02-05 20:06:11.869417+01 | 1486321571.86942 | pgbench_branches |            40960

 2017-02-05 20:06:12.948596+01 | 1486321572.9486 | pgbench_accounts |      13712957440
 2017-02-05 20:06:12.948596+01 | 1486321572.9486 | pgbench_tellers  |           450560
 2017-02-05 20:06:12.948596+01 | 1486321572.9486 | pgbench_history  |        199680000
 2017-02-05 20:06:12.948596+01 | 1486321572.9486 | pgbench_branches |            40960

 2017-02-05 20:06:14.021077+01 | 1486321574.02108 | pgbench_accounts |      13712957440
 2017-02-05 20:06:14.021077+01 | 1486321574.02108 | pgbench_tellers  |           450560
 2017-02-05 20:06:14.021077+01 | 1486321574.02108 | pgbench_history  |        201228288
 2017-02-05 20:06:14.021077+01 | 1486321574.02108 | pgbench_branches |            40960

 2017-02-05 20:06:15.099289+01 | 1486321575.09929 | pgbench_accounts |      13712957440
 2017-02-05 20:06:15.099289+01 | 1486321575.09929 | pgbench_tellers  |           450560
 2017-02-05 20:06:15.099289+01 | 1486321575.09929 | pgbench_history  |        202457088
 2017-02-05 20:06:15.099289+01 | 1486321575.09929 | pgbench_branches |            40960

 2017-02-05 20:06:16.176106+01 | 1486321576.17611 | pgbench_accounts |      13712957440
 2017-02-05 20:06:16.176106+01 | 1486321576.17611 | pgbench_tellers  |           450560
 2017-02-05 20:06:16.176106+01 | 1486321576.17611 | pgbench_history  |        204668928
 2017-02-05 20:06:16.176106+01 | 1486321576.17611 | pgbench_branches |            40960

 2017-02-05 20:06:17.257437+01 | 1486321577.25744 | pgbench_accounts |      13712957440
 2017-02-05 20:06:17.257437+01 | 1486321577.25744 | pgbench_tellers  |           450560
 2017-02-05 20:06:17.257437+01 | 1486321577.25744 | pgbench_history  |        206389248
 2017-02-05 20:06:17.257437+01 | 1486321577.25744 | pgbench_branches |            40960

 2017-02-05 20:06:18.330056+01 | 1486321578.33006 | pgbench_accounts |      13712957440
 2017-02-05 20:06:18.330056+01 | 1486321578.33006 | pgbench_tellers  |           450560
 2017-02-05 20:06:18.330056+01 | 1486321578.33006 | pgbench_history  |        207421440
 2017-02-05 20:06:18.330056+01 | 1486321578.33006 | pgbench_branches |            40960

 2017-02-05 20:06:19.420482+01 | 1486321579.42048 | pgbench_accounts |      13712957440
 2017-02-05 20:06:19.420482+01 | 1486321579.42048 | pgbench_tellers  |           450560
 2017-02-05 20:06:19.420482+01 | 1486321579.42048 | pgbench_history  |        209321984
 2017-02-05 20:06:19.420482+01 | 1486321579.42048 | pgbench_branches |            40960

 2017-02-05 20:06:20.499504+01 | 1486321580.4995 | pgbench_accounts |      13712957440
 2017-02-05 20:06:20.499504+01 | 1486321580.4995 | pgbench_tellers  |           450560
 2017-02-05 20:06:20.499504+01 | 1486321580.4995 | pgbench_history  |        211255296
 2017-02-05 20:06:20.499504+01 | 1486321580.4995 | pgbench_branches |            40960

 2017-02-05 20:06:21.580683+01 | 1486321581.58068 | pgbench_accounts |      13712957440
 2017-02-05 20:06:21.580683+01 | 1486321581.58068 | pgbench_tellers  |           450560
 2017-02-05 20:06:21.580683+01 | 1486321581.58068 | pgbench_history  |        212123648
 2017-02-05 20:06:21.580683+01 | 1486321581.58068 | pgbench_branches |            40960

 2017-02-05 20:06:22.664664+01 | 1486321582.66466 | pgbench_accounts |      13712957440
 2017-02-05 20:06:22.664664+01 | 1486321582.66466 | pgbench_tellers  |           450560
 2017-02-05 20:06:22.664664+01 | 1486321582.66466 | pgbench_history  |        214196224
 2017-02-05 20:06:22.664664+01 | 1486321582.66466 | pgbench_branches |            40960

 2017-02-05 20:06:23.751756+01 | 1486321583.75176 | pgbench_accounts |      13712957440
 2017-02-05 20:06:23.751756+01 | 1486321583.75176 | pgbench_tellers  |           450560
 2017-02-05 20:06:23.751756+01 | 1486321583.75176 | pgbench_history  |        215269376
 2017-02-05 20:06:23.751756+01 | 1486321583.75176 | pgbench_branches |            40960

 2017-02-05 20:06:24.847985+01 | 1486321584.84799 | pgbench_accounts |      13712957440
 2017-02-05 20:06:24.847985+01 | 1486321584.84799 | pgbench_tellers  |           450560
 2017-02-05 20:06:24.847985+01 | 1486321584.84799 | pgbench_history  |        217497600
 2017-02-05 20:06:24.847985+01 | 1486321584.84799 | pgbench_branches |            40960

 2017-02-05 20:06:25.940489+01 | 1486321585.94049 | pgbench_accounts |      13712957440
 2017-02-05 20:06:25.940489+01 | 1486321585.94049 | pgbench_tellers  |           450560
 2017-02-05 20:06:25.940489+01 | 1486321585.94049 | pgbench_history  |        218882048
 2017-02-05 20:06:25.940489+01 | 1486321585.94049 | pgbench_branches |            40960

 2017-02-05 20:06:27.017208+01 | 1486321587.01721 | pgbench_accounts |      13712957440
 2017-02-05 20:06:27.017208+01 | 1486321587.01721 | pgbench_tellers  |           450560
 2017-02-05 20:06:27.017208+01 | 1486321587.01721 | pgbench_history  |        220381184
 2017-02-05 20:06:27.017208+01 | 1486321587.01721 | pgbench_branches |            40960

 2017-02-05 20:06:28.103886+01 | 1486321588.10389 | pgbench_accounts |      13712957440
 2017-02-05 20:06:28.103886+01 | 1486321588.10389 | pgbench_tellers  |           450560
 2017-02-05 20:06:28.103886+01 | 1486321588.10389 | pgbench_history  |        222199808
 2017-02-05 20:06:28.103886+01 | 1486321588.10389 | pgbench_branches |            40960

 2017-02-05 20:06:29.18978+01 | 1486321589.18978 | pgbench_accounts |      13712957440
 2017-02-05 20:06:29.18978+01 | 1486321589.18978 | pgbench_tellers  |           450560
 2017-02-05 20:06:29.18978+01 | 1486321589.18978 | pgbench_history  |        223944704
 2017-02-05 20:06:29.18978+01 | 1486321589.18978 | pgbench_branches |            40960

 2017-02-05 20:06:30.273108+01 | 1486321590.27311 | pgbench_accounts |      13712957440
 2017-02-05 20:06:30.273108+01 | 1486321590.27311 | pgbench_tellers  |           450560
 2017-02-05 20:06:30.273108+01 | 1486321590.27311 | pgbench_history  |        225656832
 2017-02-05 20:06:30.273108+01 | 1486321590.27311 | pgbench_branches |            40960

 2017-02-05 20:06:31.361826+01 | 1486321591.36183 | pgbench_accounts |      13712957440
 2017-02-05 20:06:31.361826+01 | 1486321591.36183 | pgbench_tellers  |           450560
 2017-02-05 20:06:31.361826+01 | 1486321591.36183 | pgbench_history  |        227213312
 2017-02-05 20:06:31.361826+01 | 1486321591.36183 | pgbench_branches |            40960

 2017-02-05 20:06:32.443752+01 | 1486321592.44375 | pgbench_accounts |      13712957440
 2017-02-05 20:06:32.443752+01 | 1486321592.44375 | pgbench_tellers  |           450560
 2017-02-05 20:06:32.443752+01 | 1486321592.44375 | pgbench_history  |        228761600
 2017-02-05 20:06:32.443752+01 | 1486321592.44375 | pgbench_branches |            40960

 2017-02-05 20:06:33.526511+01 | 1486321593.52651 | pgbench_accounts |      13712957440
 2017-02-05 20:06:33.526511+01 | 1486321593.52651 | pgbench_tellers  |           450560
 2017-02-05 20:06:33.526511+01 | 1486321593.52651 | pgbench_history  |        229941248
 2017-02-05 20:06:33.526511+01 | 1486321593.52651 | pgbench_branches |            40960

 2017-02-05 20:06:34.619553+01 | 1486321594.61955 | pgbench_accounts |      13712957440
 2017-02-05 20:06:34.619553+01 | 1486321594.61955 | pgbench_tellers  |           450560
 2017-02-05 20:06:34.619553+01 | 1486321594.61955 | pgbench_history  |        231661568
 2017-02-05 20:06:34.619553+01 | 1486321594.61955 | pgbench_branches |            40960

 2017-02-05 20:06:35.699589+01 | 1486321595.69959 | pgbench_accounts |      13712957440
 2017-02-05 20:06:35.699589+01 | 1486321595.69959 | pgbench_tellers  |           450560
 2017-02-05 20:06:35.699589+01 | 1486321595.69959 | pgbench_history  |        232906752
 2017-02-05 20:06:35.699589+01 | 1486321595.69959 | pgbench_branches |            40960

 2017-02-05 20:06:36.789257+01 | 1486321596.78926 | pgbench_accounts |      13712957440
 2017-02-05 20:06:36.789257+01 | 1486321596.78926 | pgbench_tellers  |           450560
 2017-02-05 20:06:36.789257+01 | 1486321596.78926 | pgbench_history  |        235159552
 2017-02-05 20:06:36.789257+01 | 1486321596.78926 | pgbench_branches |            40960

 2017-02-05 20:06:37.871083+01 | 1486321597.87108 | pgbench_accounts |      13712957440
 2017-02-05 20:06:37.871083+01 | 1486321597.87108 | pgbench_tellers  |           450560
 2017-02-05 20:06:37.871083+01 | 1486321597.87108 | pgbench_history  |        236494848
 2017-02-05 20:06:37.871083+01 | 1486321597.87108 | pgbench_branches |            40960

 2017-02-05 20:06:38.953611+01 | 1486321598.95361 | pgbench_accounts |      13712957440
 2017-02-05 20:06:38.953611+01 | 1486321598.95361 | pgbench_tellers  |           450560
 2017-02-05 20:06:38.953611+01 | 1486321598.95361 | pgbench_history  |        237903872
 2017-02-05 20:06:38.953611+01 | 1486321598.95361 | pgbench_branches |            40960

 2017-02-05 20:06:40.033452+01 | 1486321600.03345 | pgbench_accounts |      13712957440
 2017-02-05 20:06:40.033452+01 | 1486321600.03345 | pgbench_tellers  |           450560
 2017-02-05 20:06:40.033452+01 | 1486321600.03345 | pgbench_history  |        239501312
 2017-02-05 20:06:40.033452+01 | 1486321600.03345 | pgbench_branches |            40960

 2017-02-05 20:06:41.118103+01 | 1486321601.1181 | pgbench_accounts |      13712957440
 2017-02-05 20:06:41.118103+01 | 1486321601.1181 | pgbench_tellers  |           450560
 2017-02-05 20:06:41.118103+01 | 1486321601.1181 | pgbench_history  |        241721344
 2017-02-05 20:06:41.118103+01 | 1486321601.1181 | pgbench_branches |            40960

 2017-02-05 20:06:42.205576+01 | 1486321602.20558 | pgbench_accounts |      13712957440
 2017-02-05 20:06:42.205576+01 | 1486321602.20558 | pgbench_tellers  |           450560
 2017-02-05 20:06:42.205576+01 | 1486321602.20558 | pgbench_history  |        242401280
 2017-02-05 20:06:42.205576+01 | 1486321602.20558 | pgbench_branches |            40960

 2017-02-05 20:06:43.297913+01 | 1486321603.29791 | pgbench_accounts |      13712957440
 2017-02-05 20:06:43.297913+01 | 1486321603.29791 | pgbench_tellers  |           450560
 2017-02-05 20:06:43.297913+01 | 1486321603.29791 | pgbench_history  |        244817920
 2017-02-05 20:06:43.297913+01 | 1486321603.29791 | pgbench_branches |            40960

 2017-02-05 20:06:44.376375+01 | 1486321604.37637 | pgbench_accounts |      13712957440
 2017-02-05 20:06:44.376375+01 | 1486321604.37637 | pgbench_tellers  |           450560
 2017-02-05 20:06:44.376375+01 | 1486321604.37637 | pgbench_history  |        245882880
 2017-02-05 20:06:44.376375+01 | 1486321604.37637 | pgbench_branches |            40960

 2017-02-05 20:06:45.467244+01 | 1486321605.46724 | pgbench_accounts |      13712957440
 2017-02-05 20:06:45.467244+01 | 1486321605.46724 | pgbench_tellers  |           450560
 2017-02-05 20:06:45.467244+01 | 1486321605.46724 | pgbench_history  |        247767040
 2017-02-05 20:06:45.467244+01 | 1486321605.46724 | pgbench_branches |            40960

 2017-02-05 20:06:46.556356+01 | 1486321606.55636 | pgbench_accounts |      13712957440
 2017-02-05 20:06:46.556356+01 | 1486321606.55636 | pgbench_tellers  |           450560
 2017-02-05 20:06:46.556356+01 | 1486321606.55636 | pgbench_history  |        249143296
 2017-02-05 20:06:46.556356+01 | 1486321606.55636 | pgbench_branches |            40960

 2017-02-05 20:06:47.63014+01 | 1486321607.63014 | pgbench_accounts |      13712957440
 2017-02-05 20:06:47.63014+01 | 1486321607.63014 | pgbench_tellers  |           450560
 2017-02-05 20:06:47.63014+01 | 1486321607.63014 | pgbench_history  |        250716160
 2017-02-05 20:06:47.63014+01 | 1486321607.63014 | pgbench_branches |            40960

 2017-02-05 20:06:48.709374+01 | 1486321608.70937 | pgbench_accounts |      13712957440
 2017-02-05 20:06:48.709374+01 | 1486321608.70937 | pgbench_tellers  |           450560
 2017-02-05 20:06:48.709374+01 | 1486321608.70937 | pgbench_history  |        252108800
 2017-02-05 20:06:48.709374+01 | 1486321608.70937 | pgbench_branches |            40960

 2017-02-05 20:06:49.790958+01 | 1486321609.79096 | pgbench_accounts |      13712957440
 2017-02-05 20:06:49.790958+01 | 1486321609.79096 | pgbench_tellers  |           450560
 2017-02-05 20:06:49.790958+01 | 1486321609.79096 | pgbench_history  |        253493248
 2017-02-05 20:06:49.790958+01 | 1486321609.79096 | pgbench_branches |            40960

 2017-02-05 20:06:50.869278+01 | 1486321610.86928 | pgbench_accounts |      13712957440
 2017-02-05 20:06:50.869278+01 | 1486321610.86928 | pgbench_tellers  |           450560
 2017-02-05 20:06:50.869278+01 | 1486321610.86928 | pgbench_history  |        255385600
 2017-02-05 20:06:50.869278+01 | 1486321610.86928 | pgbench_branches |            40960

 2017-02-05 20:06:51.94995+01 | 1486321611.94995 | pgbench_accounts |      13712957440
 2017-02-05 20:06:51.94995+01 | 1486321611.94995 | pgbench_tellers  |           450560
 2017-02-05 20:06:51.94995+01 | 1486321611.94995 | pgbench_history  |        256778240
 2017-02-05 20:06:51.94995+01 | 1486321611.94995 | pgbench_branches |            40960

 2017-02-05 20:06:53.024319+01 | 1486321613.02432 | pgbench_accounts |      13712957440
 2017-02-05 20:06:53.024319+01 | 1486321613.02432 | pgbench_tellers  |           450560
 2017-02-05 20:06:53.024319+01 | 1486321613.02432 | pgbench_history  |        258392064
 2017-02-05 20:06:53.024319+01 | 1486321613.02432 | pgbench_branches |            40960

 2017-02-05 20:06:54.108913+01 | 1486321614.10891 | pgbench_accounts |      13712957440
 2017-02-05 20:06:54.108913+01 | 1486321614.10891 | pgbench_tellers  |           450560
 2017-02-05 20:06:54.108913+01 | 1486321614.10891 | pgbench_history  |        260243456
 2017-02-05 20:06:54.108913+01 | 1486321614.10891 | pgbench_branches |            40960

 2017-02-05 20:06:55.205797+01 | 1486321615.2058 | pgbench_accounts |      13712957440
 2017-02-05 20:06:55.205797+01 | 1486321615.2058 | pgbench_tellers  |           450560
 2017-02-05 20:06:55.205797+01 | 1486321615.2058 | pgbench_history  |        261447680
 2017-02-05 20:06:55.205797+01 | 1486321615.2058 | pgbench_branches |            40960

 2017-02-05 20:06:56.287725+01 | 1486321616.28772 | pgbench_accounts |      13712957440
 2017-02-05 20:06:56.287725+01 | 1486321616.28772 | pgbench_tellers  |           450560
 2017-02-05 20:06:56.287725+01 | 1486321616.28772 | pgbench_history  |        263487488
 2017-02-05 20:06:56.287725+01 | 1486321616.28772 | pgbench_branches |            40960

 2017-02-05 20:06:57.376129+01 | 1486321617.37613 | pgbench_accounts |      13712957440
 2017-02-05 20:06:57.376129+01 | 1486321617.37613 | pgbench_tellers  |           450560
 2017-02-05 20:06:57.376129+01 | 1486321617.37613 | pgbench_history  |        264552448
 2017-02-05 20:06:57.376129+01 | 1486321617.37613 | pgbench_branches |            40960

 2017-02-05 20:06:58.457794+01 | 1486321618.45779 | pgbench_accounts |      13712957440
 2017-02-05 20:06:58.457794+01 | 1486321618.45779 | pgbench_tellers  |           450560
 2017-02-05 20:06:58.457794+01 | 1486321618.45779 | pgbench_history  |        266469376
 2017-02-05 20:06:58.457794+01 | 1486321618.45779 | pgbench_branches |            40960

 2017-02-05 20:06:59.543463+01 | 1486321619.54346 | pgbench_accounts |      13712957440
 2017-02-05 20:06:59.543463+01 | 1486321619.54346 | pgbench_tellers  |           450560
 2017-02-05 20:06:59.543463+01 | 1486321619.54346 | pgbench_history  |        267714560
 2017-02-05 20:06:59.543463+01 | 1486321619.54346 | pgbench_branches |            40960

 2017-02-05 20:07:00.62442+01 | 1486321620.62442 | pgbench_accounts |      13712957440
 2017-02-05 20:07:00.62442+01 | 1486321620.62442 | pgbench_tellers  |           450560
 2017-02-05 20:07:00.62442+01 | 1486321620.62442 | pgbench_history  |        269271040
 2017-02-05 20:07:00.62442+01 | 1486321620.62442 | pgbench_branches |            40960

 2017-02-05 20:07:01.700296+01 | 1486321621.7003 | pgbench_accounts |      13712957440
 2017-02-05 20:07:01.700296+01 | 1486321621.7003 | pgbench_tellers  |           450560
 2017-02-05 20:07:01.700296+01 | 1486321621.7003 | pgbench_history  |        270991360
 2017-02-05 20:07:01.700296+01 | 1486321621.7003 | pgbench_branches |            40960

 2017-02-05 20:07:02.775468+01 | 1486321622.77547 | pgbench_accounts |      13712957440
 2017-02-05 20:07:02.775468+01 | 1486321622.77547 | pgbench_tellers  |           450560
 2017-02-05 20:07:02.775468+01 | 1486321622.77547 | pgbench_history  |        272220160
 2017-02-05 20:07:02.775468+01 | 1486321622.77547 | pgbench_branches |            40960

 2017-02-05 20:07:03.870027+01 | 1486321623.87003 | pgbench_accounts |      13712957440
 2017-02-05 20:07:03.870027+01 | 1486321623.87003 | pgbench_tellers  |           450560
 2017-02-05 20:07:03.870027+01 | 1486321623.87003 | pgbench_history  |        273907712
 2017-02-05 20:07:03.870027+01 | 1486321623.87003 | pgbench_branches |            40960

 2017-02-05 20:07:04.943524+01 | 1486321624.94352 | pgbench_accounts |      13712957440
 2017-02-05 20:07:04.943524+01 | 1486321624.94352 | pgbench_tellers  |           450560
 2017-02-05 20:07:04.943524+01 | 1486321624.94352 | pgbench_history  |        274948096
 2017-02-05 20:07:04.943524+01 | 1486321624.94352 | pgbench_branches |            40960

 2017-02-05 20:07:06.024668+01 | 1486321626.02467 | pgbench_accounts |      13712957440
 2017-02-05 20:07:06.024668+01 | 1486321626.02467 | pgbench_tellers  |           450560
 2017-02-05 20:07:06.024668+01 | 1486321626.02467 | pgbench_history  |        276332544
 2017-02-05 20:07:06.024668+01 | 1486321626.02467 | pgbench_branches |            40960

 2017-02-05 20:07:07.106524+01 | 1486321627.10652 | pgbench_accounts |      13712957440
 2017-02-05 20:07:07.106524+01 | 1486321627.10652 | pgbench_tellers  |           450560
 2017-02-05 20:07:07.106524+01 | 1486321627.10652 | pgbench_history  |        277209088
 2017-02-05 20:07:07.106524+01 | 1486321627.10652 | pgbench_branches |            40960

 2017-02-05 20:07:08.19165+01 | 1486321628.19165 | pgbench_accounts |      13712957440
 2017-02-05 20:07:08.19165+01 | 1486321628.19165 | pgbench_tellers  |           450560
 2017-02-05 20:07:08.19165+01 | 1486321628.19165 | pgbench_history  |        279142400
 2017-02-05 20:07:08.19165+01 | 1486321628.19165 | pgbench_branches |            40960

 2017-02-05 20:07:09.28104+01 | 1486321629.28104 | pgbench_accounts |      13712957440
 2017-02-05 20:07:09.28104+01 | 1486321629.28104 | pgbench_tellers  |           450560
 2017-02-05 20:07:09.28104+01 | 1486321629.28104 | pgbench_history  |        280027136
 2017-02-05 20:07:09.28104+01 | 1486321629.28104 | pgbench_branches |            40960

 2017-02-05 20:07:10.36609+01 | 1486321630.36609 | pgbench_accounts |      13712957440
 2017-02-05 20:07:10.36609+01 | 1486321630.36609 | pgbench_tellers  |           450560
 2017-02-05 20:07:10.36609+01 | 1486321630.36609 | pgbench_history  |        281559040
 2017-02-05 20:07:10.36609+01 | 1486321630.36609 | pgbench_branches |            40960

 2017-02-05 20:07:11.450428+01 | 1486321631.45043 | pgbench_accounts |      13712957440
 2017-02-05 20:07:11.450428+01 | 1486321631.45043 | pgbench_tellers  |           450560
 2017-02-05 20:07:11.450428+01 | 1486321631.45043 | pgbench_history  |        282951680
 2017-02-05 20:07:11.450428+01 | 1486321631.45043 | pgbench_branches |            40960

 2017-02-05 20:07:12.542067+01 | 1486321632.54207 | pgbench_accounts |      13712957440
 2017-02-05 20:07:12.542067+01 | 1486321632.54207 | pgbench_tellers  |           450560
 2017-02-05 20:07:12.542067+01 | 1486321632.54207 | pgbench_history  |        284827648
 2017-02-05 20:07:12.542067+01 | 1486321632.54207 | pgbench_branches |            40960

 2017-02-05 20:07:13.633667+01 | 1486321633.63367 | pgbench_accounts |      13712957440
 2017-02-05 20:07:13.633667+01 | 1486321633.63367 | pgbench_tellers  |           450560
 2017-02-05 20:07:13.633667+01 | 1486321633.63367 | pgbench_history  |        286072832
 2017-02-05 20:07:13.633667+01 | 1486321633.63367 | pgbench_branches |            40960

 2017-02-05 20:07:14.715038+01 | 1486321634.71504 | pgbench_accounts |      13712957440
 2017-02-05 20:07:14.715038+01 | 1486321634.71504 | pgbench_tellers  |           450560
 2017-02-05 20:07:14.715038+01 | 1486321634.71504 | pgbench_history  |        288178176
 2017-02-05 20:07:14.715038+01 | 1486321634.71504 | pgbench_branches |            40960

 2017-02-05 20:07:15.792302+01 | 1486321635.7923 | pgbench_accounts |      13712957440
 2017-02-05 20:07:15.792302+01 | 1486321635.7923 | pgbench_tellers  |           450560
 2017-02-05 20:07:15.792302+01 | 1486321635.7923 | pgbench_history  |        289243136
 2017-02-05 20:07:15.792302+01 | 1486321635.7923 | pgbench_branches |            40960

 2017-02-05 20:07:16.881138+01 | 1486321636.88114 | pgbench_accounts |      13712957440
 2017-02-05 20:07:16.881138+01 | 1486321636.88114 | pgbench_tellers  |           450560
 2017-02-05 20:07:16.881138+01 | 1486321636.88114 | pgbench_history  |        290979840
 2017-02-05 20:07:16.881138+01 | 1486321636.88114 | pgbench_branches |            40960

 2017-02-05 20:07:17.961362+01 | 1486321637.96136 | pgbench_accounts |      13712957440
 2017-02-05 20:07:17.961362+01 | 1486321637.96136 | pgbench_tellers  |           450560
 2017-02-05 20:07:17.961362+01 | 1486321637.96136 | pgbench_history  |        292413440
 2017-02-05 20:07:17.961362+01 | 1486321637.96136 | pgbench_branches |            40960

 2017-02-05 20:07:19.041186+01 | 1486321639.04119 | pgbench_accounts |      13712957440
 2017-02-05 20:07:19.041186+01 | 1486321639.04119 | pgbench_tellers  |           450560
 2017-02-05 20:07:19.041186+01 | 1486321639.04119 | pgbench_history  |        294158336
 2017-02-05 20:07:19.041186+01 | 1486321639.04119 | pgbench_branches |            40960

 2017-02-05 20:07:20.120738+01 | 1486321640.12074 | pgbench_accounts |      13712957440
 2017-02-05 20:07:20.120738+01 | 1486321640.12074 | pgbench_tellers  |           450560
 2017-02-05 20:07:20.120738+01 | 1486321640.12074 | pgbench_history  |        295165952
 2017-02-05 20:07:20.120738+01 | 1486321640.12074 | pgbench_branches |            40960

 2017-02-05 20:07:21.2093+01 | 1486321641.2093 | pgbench_accounts |      13712957440
 2017-02-05 20:07:21.2093+01 | 1486321641.2093 | pgbench_tellers  |           450560
 2017-02-05 20:07:21.2093+01 | 1486321641.2093 | pgbench_history  |        296525824
 2017-02-05 20:07:21.2093+01 | 1486321641.2093 | pgbench_branches |            40960

 2017-02-05 20:07:22.287318+01 | 1486321642.28732 | pgbench_accounts |      13712957440
 2017-02-05 20:07:22.287318+01 | 1486321642.28732 | pgbench_tellers  |           450560
 2017-02-05 20:07:22.287318+01 | 1486321642.28732 | pgbench_history  |        297885696
 2017-02-05 20:07:22.287318+01 | 1486321642.28732 | pgbench_branches |            40960

 2017-02-05 20:07:23.369449+01 | 1486321643.36945 | pgbench_accounts |      13712957440
 2017-02-05 20:07:23.369449+01 | 1486321643.36945 | pgbench_tellers  |           450560
 2017-02-05 20:07:23.369449+01 | 1486321643.36945 | pgbench_history  |        299433984
 2017-02-05 20:07:23.369449+01 | 1486321643.36945 | pgbench_branches |            40960

 2017-02-05 20:07:24.448297+01 | 1486321644.4483 | pgbench_accounts |      13712957440
 2017-02-05 20:07:24.448297+01 | 1486321644.4483 | pgbench_tellers  |           450560
 2017-02-05 20:07:24.448297+01 | 1486321644.4483 | pgbench_history  |        300498944
 2017-02-05 20:07:24.448297+01 | 1486321644.4483 | pgbench_branches |            40960

 2017-02-05 20:07:25.52422+01 | 1486321645.52422 | pgbench_accounts |      13712957440
 2017-02-05 20:07:25.52422+01 | 1486321645.52422 | pgbench_tellers  |           450560
 2017-02-05 20:07:25.52422+01 | 1486321645.52422 | pgbench_history  |        302022656
 2017-02-05 20:07:25.52422+01 | 1486321645.52422 | pgbench_branches |            40960

 2017-02-05 20:07:26.610694+01 | 1486321646.61069 | pgbench_accounts |      13712957440
 2017-02-05 20:07:26.610694+01 | 1486321646.61069 | pgbench_tellers  |           450560
 2017-02-05 20:07:26.610694+01 | 1486321646.61069 | pgbench_history  |        303415296
 2017-02-05 20:07:26.610694+01 | 1486321646.61069 | pgbench_branches |            40960

 2017-02-05 20:07:27.693633+01 | 1486321647.69363 | pgbench_accounts |      13712957440
 2017-02-05 20:07:27.693633+01 | 1486321647.69363 | pgbench_tellers  |           450560
 2017-02-05 20:07:27.693633+01 | 1486321647.69363 | pgbench_history  |        304685056
 2017-02-05 20:07:27.693633+01 | 1486321647.69363 | pgbench_branches |            40960

 2017-02-05 20:07:28.783126+01 | 1486321648.78313 | pgbench_accounts |      13712957440
 2017-02-05 20:07:28.783126+01 | 1486321648.78313 | pgbench_tellers  |           450560
 2017-02-05 20:07:28.783126+01 | 1486321648.78313 | pgbench_history  |        306044928
 2017-02-05 20:07:28.783126+01 | 1486321648.78313 | pgbench_branches |            40960

 2017-02-05 20:07:29.861877+01 | 1486321649.86188 | pgbench_accounts |      13712957440
 2017-02-05 20:07:29.861877+01 | 1486321649.86188 | pgbench_tellers  |           450560
 2017-02-05 20:07:29.861877+01 | 1486321649.86188 | pgbench_history  |        307380224
 2017-02-05 20:07:29.861877+01 | 1486321649.86188 | pgbench_branches |            40960

 2017-02-05 20:07:30.937433+01 | 1486321650.93743 | pgbench_accounts |      13712957440
 2017-02-05 20:07:30.937433+01 | 1486321650.93743 | pgbench_tellers  |           450560
 2017-02-05 20:07:30.937433+01 | 1486321650.93743 | pgbench_history  |        308428800
 2017-02-05 20:07:30.937433+01 | 1486321650.93743 | pgbench_branches |            40960

 2017-02-05 20:07:32.019338+01 | 1486321652.01934 | pgbench_accounts |      13712957440
 2017-02-05 20:07:32.019338+01 | 1486321652.01934 | pgbench_tellers  |           450560
 2017-02-05 20:07:32.019338+01 | 1486321652.01934 | pgbench_history  |        309854208
 2017-02-05 20:07:32.019338+01 | 1486321652.01934 | pgbench_branches |            40960

 2017-02-05 20:07:33.103971+01 | 1486321653.10397 | pgbench_accounts |      13712957440
 2017-02-05 20:07:33.103971+01 | 1486321653.10397 | pgbench_tellers  |           450560
 2017-02-05 20:07:33.103971+01 | 1486321653.10397 | pgbench_history  |        311435264
 2017-02-05 20:07:33.103971+01 | 1486321653.10397 | pgbench_branches |            40960

 2017-02-05 20:07:34.183791+01 | 1486321654.18379 | pgbench_accounts |      13712957440
 2017-02-05 20:07:34.183791+01 | 1486321654.18379 | pgbench_tellers  |           450560
 2017-02-05 20:07:34.183791+01 | 1486321654.18379 | pgbench_history  |        313335808
 2017-02-05 20:07:34.183791+01 | 1486321654.18379 | pgbench_branches |            40960

 2017-02-05 20:07:35.268835+01 | 1486321655.26884 | pgbench_accounts |      13712957440
 2017-02-05 20:07:35.268835+01 | 1486321655.26884 | pgbench_tellers  |           450560
 2017-02-05 20:07:35.268835+01 | 1486321655.26884 | pgbench_history  |        315580416
 2017-02-05 20:07:35.268835+01 | 1486321655.26884 | pgbench_branches |            40960

 2017-02-05 20:07:36.348006+01 | 1486321656.34801 | pgbench_accounts |      13712957440
 2017-02-05 20:07:36.348006+01 | 1486321656.34801 | pgbench_tellers  |           450560
 2017-02-05 20:07:36.348006+01 | 1486321656.34801 | pgbench_history  |        316637184
 2017-02-05 20:07:36.348006+01 | 1486321656.34801 | pgbench_branches |            40960

 2017-02-05 20:07:37.417468+01 | 1486321657.41747 | pgbench_accounts |      13712957440
 2017-02-05 20:07:37.417468+01 | 1486321657.41747 | pgbench_tellers  |           450560
 2017-02-05 20:07:37.417468+01 | 1486321657.41747 | pgbench_history  |        318070784
 2017-02-05 20:07:37.417468+01 | 1486321657.41747 | pgbench_branches |            40960

 2017-02-05 20:07:38.503712+01 | 1486321658.50371 | pgbench_accounts |      13712957440
 2017-02-05 20:07:38.503712+01 | 1486321658.50371 | pgbench_tellers  |           450560
 2017-02-05 20:07:38.503712+01 | 1486321658.50371 | pgbench_history  |        319479808
 2017-02-05 20:07:38.503712+01 | 1486321658.50371 | pgbench_branches |            40960

 2017-02-05 20:07:39.587059+01 | 1486321659.58706 | pgbench_accounts |      13712957440
 2017-02-05 20:07:39.587059+01 | 1486321659.58706 | pgbench_tellers  |           450560
 2017-02-05 20:07:39.587059+01 | 1486321659.58706 | pgbench_history  |        321019904
 2017-02-05 20:07:39.587059+01 | 1486321659.58706 | pgbench_branches |            40960

 2017-02-05 20:07:40.67329+01 | 1486321660.67329 | pgbench_accounts |      13712957440
 2017-02-05 20:07:40.67329+01 | 1486321660.67329 | pgbench_tellers  |           450560
 2017-02-05 20:07:40.67329+01 | 1486321660.67329 | pgbench_history  |        322576384
 2017-02-05 20:07:40.67329+01 | 1486321660.67329 | pgbench_branches |            40960

 2017-02-05 20:07:41.750885+01 | 1486321661.75089 | pgbench_accounts |      13712957440
 2017-02-05 20:07:41.750885+01 | 1486321661.75089 | pgbench_tellers  |           450560
 2017-02-05 20:07:41.750885+01 | 1486321661.75089 | pgbench_history  |        324288512
 2017-02-05 20:07:41.750885+01 | 1486321661.75089 | pgbench_branches |            40960

 2017-02-05 20:07:42.829109+01 | 1486321662.82911 | pgbench_accounts |      13712957440
 2017-02-05 20:07:42.829109+01 | 1486321662.82911 | pgbench_tellers  |           450560
 2017-02-05 20:07:42.829109+01 | 1486321662.82911 | pgbench_history  |        326197248
 2017-02-05 20:07:42.829109+01 | 1486321662.82911 | pgbench_branches |            40960

 2017-02-05 20:07:43.917444+01 | 1486321663.91744 | pgbench_accounts |      13712957440
 2017-02-05 20:07:43.917444+01 | 1486321663.91744 | pgbench_tellers  |           450560
 2017-02-05 20:07:43.917444+01 | 1486321663.91744 | pgbench_history  |        327204864
 2017-02-05 20:07:43.917444+01 | 1486321663.91744 | pgbench_branches |            40960

 2017-02-05 20:07:44.995205+01 | 1486321664.9952 | pgbench_accounts |      13712957440
 2017-02-05 20:07:44.995205+01 | 1486321664.9952 | pgbench_tellers  |           450560
 2017-02-05 20:07:44.995205+01 | 1486321664.9952 | pgbench_history  |        328630272
 2017-02-05 20:07:44.995205+01 | 1486321664.9952 | pgbench_branches |            40960

 2017-02-05 20:07:46.071932+01 | 1486321666.07193 | pgbench_accounts |      13712957440
 2017-02-05 20:07:46.071932+01 | 1486321666.07193 | pgbench_tellers  |           450560
 2017-02-05 20:07:46.071932+01 | 1486321666.07193 | pgbench_history  |        330129408
 2017-02-05 20:07:46.071932+01 | 1486321666.07193 | pgbench_branches |            40960

 2017-02-05 20:07:47.152447+01 | 1486321667.15245 | pgbench_accounts |      13712957440
 2017-02-05 20:07:47.152447+01 | 1486321667.15245 | pgbench_tellers  |           450560
 2017-02-05 20:07:47.152447+01 | 1486321667.15245 | pgbench_history  |        331055104
 2017-02-05 20:07:47.152447+01 | 1486321667.15245 | pgbench_branches |            40960

 2017-02-05 20:07:48.231968+01 | 1486321668.23197 | pgbench_accounts |      13712957440
 2017-02-05 20:07:48.231968+01 | 1486321668.23197 | pgbench_tellers  |           450560
 2017-02-05 20:07:48.231968+01 | 1486321668.23197 | pgbench_history  |        333103104
 2017-02-05 20:07:48.231968+01 | 1486321668.23197 | pgbench_branches |            40960

 2017-02-05 20:07:49.317776+01 | 1486321669.31778 | pgbench_accounts |      13712957440
 2017-02-05 20:07:49.317776+01 | 1486321669.31778 | pgbench_tellers  |           450560
 2017-02-05 20:07:49.317776+01 | 1486321669.31778 | pgbench_history  |        334659584
 2017-02-05 20:07:49.317776+01 | 1486321669.31778 | pgbench_branches |            40960

 2017-02-05 20:07:50.401723+01 | 1486321670.40172 | pgbench_accounts |      13712957440
 2017-02-05 20:07:50.401723+01 | 1486321670.40172 | pgbench_tellers  |           450560
 2017-02-05 20:07:50.401723+01 | 1486321670.40172 | pgbench_history  |        335888384
 2017-02-05 20:07:50.401723+01 | 1486321670.40172 | pgbench_branches |            40960

 2017-02-05 20:07:51.47737+01 | 1486321671.47737 | pgbench_accounts |      13712957440
 2017-02-05 20:07:51.47737+01 | 1486321671.47737 | pgbench_tellers  |           450560
 2017-02-05 20:07:51.47737+01 | 1486321671.47737 | pgbench_history  |        337625088
 2017-02-05 20:07:51.47737+01 | 1486321671.47737 | pgbench_branches |            40960

 2017-02-05 20:07:52.554078+01 | 1486321672.55408 | pgbench_accounts |      13712957440
 2017-02-05 20:07:52.554078+01 | 1486321672.55408 | pgbench_tellers  |           450560
 2017-02-05 20:07:52.554078+01 | 1486321672.55408 | pgbench_history  |        339697664
 2017-02-05 20:07:52.554078+01 | 1486321672.55408 | pgbench_branches |            40960

 2017-02-05 20:07:53.630973+01 | 1486321673.63097 | pgbench_accounts |      13712957440
 2017-02-05 20:07:53.630973+01 | 1486321673.63097 | pgbench_tellers  |           450560
 2017-02-05 20:07:53.630973+01 | 1486321673.63097 | pgbench_history  |        341082112
 2017-02-05 20:07:53.630973+01 | 1486321673.63097 | pgbench_branches |            40960

 2017-02-05 20:07:54.713719+01 | 1486321674.71372 | pgbench_accounts |      13712957440
 2017-02-05 20:07:54.713719+01 | 1486321674.71372 | pgbench_tellers  |           450560
 2017-02-05 20:07:54.713719+01 | 1486321674.71372 | pgbench_history  |        342302720
 2017-02-05 20:07:54.713719+01 | 1486321674.71372 | pgbench_branches |            40960

 2017-02-05 20:07:55.794664+01 | 1486321675.79466 | pgbench_accounts |      13712957440
 2017-02-05 20:07:55.794664+01 | 1486321675.79466 | pgbench_tellers  |           450560
 2017-02-05 20:07:55.794664+01 | 1486321675.79466 | pgbench_history  |        343851008
 2017-02-05 20:07:55.794664+01 | 1486321675.79466 | pgbench_branches |            40960

 2017-02-05 20:07:56.874374+01 | 1486321676.87437 | pgbench_accounts |      13712957440
 2017-02-05 20:07:56.874374+01 | 1486321676.87437 | pgbench_tellers  |           450560
 2017-02-05 20:07:56.874374+01 | 1486321676.87437 | pgbench_history  |        345636864
 2017-02-05 20:07:56.874374+01 | 1486321676.87437 | pgbench_branches |            40960

 2017-02-05 20:07:57.960654+01 | 1486321677.96065 | pgbench_accounts |      13712957440
 2017-02-05 20:07:57.960654+01 | 1486321677.96065 | pgbench_tellers  |           450560
 2017-02-05 20:07:57.960654+01 | 1486321677.96065 | pgbench_history  |        346996736
 2017-02-05 20:07:57.960654+01 | 1486321677.96065 | pgbench_branches |            40960

 2017-02-05 20:07:59.040814+01 | 1486321679.04081 | pgbench_accounts |      13712957440
 2017-02-05 20:07:59.040814+01 | 1486321679.04081 | pgbench_tellers  |           450560
 2017-02-05 20:07:59.040814+01 | 1486321679.04081 | pgbench_history  |        348880896
 2017-02-05 20:07:59.040814+01 | 1486321679.04081 | pgbench_branches |            40960

 2017-02-05 20:08:00.125667+01 | 1486321680.12567 | pgbench_accounts |      13712957440
 2017-02-05 20:08:00.125667+01 | 1486321680.12567 | pgbench_tellers  |           450560
 2017-02-05 20:08:00.125667+01 | 1486321680.12567 | pgbench_history  |        350494720
 2017-02-05 20:08:00.125667+01 | 1486321680.12567 | pgbench_branches |            40960

 2017-02-05 20:08:01.20859+01 | 1486321681.20859 | pgbench_accounts |      13712957440
 2017-02-05 20:08:01.20859+01 | 1486321681.20859 | pgbench_tellers  |           450560
 2017-02-05 20:08:01.20859+01 | 1486321681.20859 | pgbench_history  |        352092160
 2017-02-05 20:08:01.20859+01 | 1486321681.20859 | pgbench_branches |            40960

 2017-02-05 20:08:02.286443+01 | 1486321682.28644 | pgbench_accounts |      13712957440
 2017-02-05 20:08:02.286443+01 | 1486321682.28644 | pgbench_tellers  |           450560
 2017-02-05 20:08:02.286443+01 | 1486321682.28644 | pgbench_history  |        353353728
 2017-02-05 20:08:02.286443+01 | 1486321682.28644 | pgbench_branches |            40960

 2017-02-05 20:08:03.374607+01 | 1486321683.37461 | pgbench_accounts |      13712957440
 2017-02-05 20:08:03.374607+01 | 1486321683.37461 | pgbench_tellers  |           450560
 2017-02-05 20:08:03.374607+01 | 1486321683.37461 | pgbench_history  |        355278848
 2017-02-05 20:08:03.374607+01 | 1486321683.37461 | pgbench_branches |            40960

 2017-02-05 20:08:04.457739+01 | 1486321684.45774 | pgbench_accounts |      13712957440
 2017-02-05 20:08:04.457739+01 | 1486321684.45774 | pgbench_tellers  |           450560
 2017-02-05 20:08:04.457739+01 | 1486321684.45774 | pgbench_history  |        356474880
 2017-02-05 20:08:04.457739+01 | 1486321684.45774 | pgbench_branches |            40960

 2017-02-05 20:08:05.541861+01 | 1486321685.54186 | pgbench_accounts |      13712957440
 2017-02-05 20:08:05.541861+01 | 1486321685.54186 | pgbench_tellers  |           450560
 2017-02-05 20:08:05.541861+01 | 1486321685.54186 | pgbench_history  |        358408192
 2017-02-05 20:08:05.541861+01 | 1486321685.54186 | pgbench_branches |            40960

 2017-02-05 20:08:06.62687+01 | 1486321686.62687 | pgbench_accounts |      13712957440
 2017-02-05 20:08:06.62687+01 | 1486321686.62687 | pgbench_tellers  |           450560
 2017-02-05 20:08:06.62687+01 | 1486321686.62687 | pgbench_history  |        359604224
 2017-02-05 20:08:06.62687+01 | 1486321686.62687 | pgbench_branches |            40960

 2017-02-05 20:08:07.712755+01 | 1486321687.71275 | pgbench_accounts |      13712957440
 2017-02-05 20:08:07.712755+01 | 1486321687.71275 | pgbench_tellers  |           450560
 2017-02-05 20:08:07.712755+01 | 1486321687.71275 | pgbench_history  |        361185280
 2017-02-05 20:08:07.712755+01 | 1486321687.71275 | pgbench_branches |            40960

 2017-02-05 20:08:08.796129+01 | 1486321688.79613 | pgbench_accounts |      13712957440
 2017-02-05 20:08:08.796129+01 | 1486321688.79613 | pgbench_tellers  |           450560
 2017-02-05 20:08:08.796129+01 | 1486321688.79613 | pgbench_history  |        363012096
 2017-02-05 20:08:08.796129+01 | 1486321688.79613 | pgbench_branches |            40960

 2017-02-05 20:08:09.873441+01 | 1486321689.87344 | pgbench_accounts |      13712957440
 2017-02-05 20:08:09.873441+01 | 1486321689.87344 | pgbench_tellers  |           450560
 2017-02-05 20:08:09.873441+01 | 1486321689.87344 | pgbench_history  |        364560384
 2017-02-05 20:08:09.873441+01 | 1486321689.87344 | pgbench_branches |            40960

 2017-02-05 20:08:10.957046+01 | 1486321690.95705 | pgbench_accounts |      13712957440
 2017-02-05 20:08:10.957046+01 | 1486321690.95705 | pgbench_tellers  |           450560
 2017-02-05 20:08:10.957046+01 | 1486321690.95705 | pgbench_history  |        366419968
 2017-02-05 20:08:10.957046+01 | 1486321690.95705 | pgbench_branches |            40960

 2017-02-05 20:08:12.038948+01 | 1486321692.03895 | pgbench_accounts |      13712957440
 2017-02-05 20:08:12.038948+01 | 1486321692.03895 | pgbench_tellers  |           450560
 2017-02-05 20:08:12.038948+01 | 1486321692.03895 | pgbench_history  |        367460352
 2017-02-05 20:08:12.038948+01 | 1486321692.03895 | pgbench_branches |            40960

 2017-02-05 20:08:13.12507+01 | 1486321693.12507 | pgbench_accounts |      13712957440
 2017-02-05 20:08:13.12507+01 | 1486321693.12507 | pgbench_tellers  |           450560
 2017-02-05 20:08:13.12507+01 | 1486321693.12507 | pgbench_history  |        369016832
 2017-02-05 20:08:13.12507+01 | 1486321693.12507 | pgbench_branches |            40960

 2017-02-05 20:08:14.209431+01 | 1486321694.20943 | pgbench_accounts |      13712957440
 2017-02-05 20:08:14.209431+01 | 1486321694.20943 | pgbench_tellers  |           450560
 2017-02-05 20:08:14.209431+01 | 1486321694.20943 | pgbench_history  |        370409472
 2017-02-05 20:08:14.209431+01 | 1486321694.20943 | pgbench_branches |            40960

 2017-02-05 20:08:15.294426+01 | 1486321695.29443 | pgbench_accounts |      13712957440
 2017-02-05 20:08:15.294426+01 | 1486321695.29443 | pgbench_tellers  |           450560
 2017-02-05 20:08:15.294426+01 | 1486321695.29443 | pgbench_history  |        372449280
 2017-02-05 20:08:15.294426+01 | 1486321695.29443 | pgbench_branches |            40960

 2017-02-05 20:08:16.370949+01 | 1486321696.37095 | pgbench_accounts |      13712957440
 2017-02-05 20:08:16.370949+01 | 1486321696.37095 | pgbench_tellers  |           450560
 2017-02-05 20:08:16.370949+01 | 1486321696.37095 | pgbench_history  |        374308864
 2017-02-05 20:08:16.370949+01 | 1486321696.37095 | pgbench_branches |            40960

 2017-02-05 20:08:17.451519+01 | 1486321697.45152 | pgbench_accounts |      13712957440
 2017-02-05 20:08:17.451519+01 | 1486321697.45152 | pgbench_tellers  |           450560
 2017-02-05 20:08:17.451519+01 | 1486321697.45152 | pgbench_history  |        375152640
 2017-02-05 20:08:17.451519+01 | 1486321697.45152 | pgbench_branches |            40960

 2017-02-05 20:08:18.531273+01 | 1486321698.53127 | pgbench_accounts |      13712957440
 2017-02-05 20:08:18.531273+01 | 1486321698.53127 | pgbench_tellers  |           450560
 2017-02-05 20:08:18.531273+01 | 1486321698.53127 | pgbench_history  |        376012800
 2017-02-05 20:08:18.531273+01 | 1486321698.53127 | pgbench_branches |            40960

 2017-02-05 20:08:19.605058+01 | 1486321699.60506 | pgbench_accounts |      13712957440
 2017-02-05 20:08:19.605058+01 | 1486321699.60506 | pgbench_tellers  |           450560
 2017-02-05 20:08:19.605058+01 | 1486321699.60506 | pgbench_history  |        377561088
 2017-02-05 20:08:19.605058+01 | 1486321699.60506 | pgbench_branches |            40960

 2017-02-05 20:08:20.680819+01 | 1486321700.68082 | pgbench_accounts |      13712957440
 2017-02-05 20:08:20.680819+01 | 1486321700.68082 | pgbench_tellers  |           450560
 2017-02-05 20:08:20.680819+01 | 1486321700.68082 | pgbench_history  |        379281408
 2017-02-05 20:08:20.680819+01 | 1486321700.68082 | pgbench_branches |            40960

 2017-02-05 20:08:21.76607+01 | 1486321701.76607 | pgbench_accounts |      13712957440
 2017-02-05 20:08:21.76607+01 | 1486321701.76607 | pgbench_tellers  |           450560
 2017-02-05 20:08:21.76607+01 | 1486321701.76607 | pgbench_history  |        380690432
 2017-02-05 20:08:21.76607+01 | 1486321701.76607 | pgbench_branches |            40960

 2017-02-05 20:08:22.841292+01 | 1486321702.84129 | pgbench_accounts |      13712957440
 2017-02-05 20:08:22.841292+01 | 1486321702.84129 | pgbench_tellers  |           450560
 2017-02-05 20:08:22.841292+01 | 1486321702.84129 | pgbench_history  |        381943808
 2017-02-05 20:08:22.841292+01 | 1486321702.84129 | pgbench_branches |            40960

 2017-02-05 20:08:23.921443+01 | 1486321703.92144 | pgbench_accounts |      13712957440
 2017-02-05 20:08:23.921443+01 | 1486321703.92144 | pgbench_tellers  |           450560
 2017-02-05 20:08:23.921443+01 | 1486321703.92144 | pgbench_history  |        384180224
 2017-02-05 20:08:23.921443+01 | 1486321703.92144 | pgbench_branches |            40960

 2017-02-05 20:08:25.000121+01 | 1486321705.00012 | pgbench_accounts |      13712957440
 2017-02-05 20:08:25.000121+01 | 1486321705.00012 | pgbench_tellers  |           450560
 2017-02-05 20:08:25.000121+01 | 1486321705.00012 | pgbench_history  |        384917504
 2017-02-05 20:08:25.000121+01 | 1486321705.00012 | pgbench_branches |            40960

 2017-02-05 20:08:26.080499+01 | 1486321706.0805 | pgbench_accounts |      13712957440
 2017-02-05 20:08:26.080499+01 | 1486321706.0805 | pgbench_tellers  |           450560
 2017-02-05 20:08:26.080499+01 | 1486321706.0805 | pgbench_history  |        387186688
 2017-02-05 20:08:26.080499+01 | 1486321706.0805 | pgbench_branches |            40960

 2017-02-05 20:08:27.167376+01 | 1486321707.16738 | pgbench_accounts |      13712957440
 2017-02-05 20:08:27.167376+01 | 1486321707.16738 | pgbench_tellers  |           450560
 2017-02-05 20:08:27.167376+01 | 1486321707.16738 | pgbench_history  |        388251648
 2017-02-05 20:08:27.167376+01 | 1486321707.16738 | pgbench_branches |            40960

 2017-02-05 20:08:28.25509+01 | 1486321708.25509 | pgbench_accounts |      13712957440
 2017-02-05 20:08:28.25509+01 | 1486321708.25509 | pgbench_tellers  |           450560
 2017-02-05 20:08:28.25509+01 | 1486321708.25509 | pgbench_history  |        390176768
 2017-02-05 20:08:28.25509+01 | 1486321708.25509 | pgbench_branches |            40960

 2017-02-05 20:08:29.337101+01 | 1486321709.3371 | pgbench_accounts |      13712957440
 2017-02-05 20:08:29.337101+01 | 1486321709.3371 | pgbench_tellers  |           450560
 2017-02-05 20:08:29.337101+01 | 1486321709.3371 | pgbench_history  |        391725056
 2017-02-05 20:08:29.337101+01 | 1486321709.3371 | pgbench_branches |            40960

 2017-02-05 20:08:30.421305+01 | 1486321710.4213 | pgbench_accounts |      13712957440
 2017-02-05 20:08:30.421305+01 | 1486321710.4213 | pgbench_tellers  |           450560
 2017-02-05 20:08:30.421305+01 | 1486321710.4213 | pgbench_history  |        392781824
 2017-02-05 20:08:30.421305+01 | 1486321710.4213 | pgbench_branches |            40960

 2017-02-05 20:08:31.505158+01 | 1486321711.50516 | pgbench_accounts |      13712957440
 2017-02-05 20:08:31.505158+01 | 1486321711.50516 | pgbench_tellers  |           450560
 2017-02-05 20:08:31.505158+01 | 1486321711.50516 | pgbench_history  |        394403840
 2017-02-05 20:08:31.505158+01 | 1486321711.50516 | pgbench_branches |            40960

 2017-02-05 20:08:32.594471+01 | 1486321712.59447 | pgbench_accounts |      13712957440
 2017-02-05 20:08:32.594471+01 | 1486321712.59447 | pgbench_tellers  |           450560
 2017-02-05 20:08:32.594471+01 | 1486321712.59447 | pgbench_history  |        396304384
 2017-02-05 20:08:32.594471+01 | 1486321712.59447 | pgbench_branches |            40960

 2017-02-05 20:08:33.672966+01 | 1486321713.67297 | pgbench_accounts |      13712957440
 2017-02-05 20:08:33.672966+01 | 1486321713.67297 | pgbench_tellers  |           450560
 2017-02-05 20:08:33.672966+01 | 1486321713.67297 | pgbench_history  |        397860864
 2017-02-05 20:08:33.672966+01 | 1486321713.67297 | pgbench_branches |            40960

 2017-02-05 20:08:34.754961+01 | 1486321714.75496 | pgbench_accounts |      13712957440
 2017-02-05 20:08:34.754961+01 | 1486321714.75496 | pgbench_tellers  |           450560
 2017-02-05 20:08:34.754961+01 | 1486321714.75496 | pgbench_history  |        399245312
 2017-02-05 20:08:34.754961+01 | 1486321714.75496 | pgbench_branches |            40960

 2017-02-05 20:08:35.834524+01 | 1486321715.83452 | pgbench_accounts |      13712957440
 2017-02-05 20:08:35.834524+01 | 1486321715.83452 | pgbench_tellers  |           450560
 2017-02-05 20:08:35.834524+01 | 1486321715.83452 | pgbench_history  |        400973824
 2017-02-05 20:08:35.834524+01 | 1486321715.83452 | pgbench_branches |            40960

 2017-02-05 20:08:36.918095+01 | 1486321716.9181 | pgbench_accounts |      13712957440
 2017-02-05 20:08:36.918095+01 | 1486321716.9181 | pgbench_tellers  |           450560
 2017-02-05 20:08:36.918095+01 | 1486321716.9181 | pgbench_history  |        402366464
 2017-02-05 20:08:36.918095+01 | 1486321716.9181 | pgbench_branches |            40960

 2017-02-05 20:08:37.997603+01 | 1486321717.9976 | pgbench_accounts |      13712957440
 2017-02-05 20:08:37.997603+01 | 1486321717.9976 | pgbench_tellers  |           450560
 2017-02-05 20:08:37.997603+01 | 1486321717.9976 | pgbench_history  |        403914752
 2017-02-05 20:08:37.997603+01 | 1486321717.9976 | pgbench_branches |            40960

 2017-02-05 20:08:39.082491+01 | 1486321719.08249 | pgbench_accounts |      13712957440
 2017-02-05 20:08:39.082491+01 | 1486321719.08249 | pgbench_tellers  |           450560
 2017-02-05 20:08:39.082491+01 | 1486321719.08249 | pgbench_history  |        405274624
 2017-02-05 20:08:39.082491+01 | 1486321719.08249 | pgbench_branches |            40960

 2017-02-05 20:08:40.169754+01 | 1486321720.16975 | pgbench_accounts |      13712957440
 2017-02-05 20:08:40.169754+01 | 1486321720.16975 | pgbench_tellers  |           450560
 2017-02-05 20:08:40.169754+01 | 1486321720.16975 | pgbench_history  |        407027712
 2017-02-05 20:08:40.169754+01 | 1486321720.16975 | pgbench_branches |            40960

 2017-02-05 20:08:41.248766+01 | 1486321721.24877 | pgbench_accounts |      13712957440
 2017-02-05 20:08:41.248766+01 | 1486321721.24877 | pgbench_tellers  |           450560
 2017-02-05 20:08:41.248766+01 | 1486321721.24877 | pgbench_history  |        408444928
 2017-02-05 20:08:41.248766+01 | 1486321721.24877 | pgbench_branches |            40960

 2017-02-05 20:08:42.328005+01 | 1486321722.32801 | pgbench_accounts |      13712957440
 2017-02-05 20:08:42.328005+01 | 1486321722.32801 | pgbench_tellers  |           450560
 2017-02-05 20:08:42.328005+01 | 1486321722.32801 | pgbench_history  |        410361856
 2017-02-05 20:08:42.328005+01 | 1486321722.32801 | pgbench_branches |            40960

 2017-02-05 20:08:43.420883+01 | 1486321723.42088 | pgbench_accounts |      13712957440
 2017-02-05 20:08:43.420883+01 | 1486321723.42088 | pgbench_tellers  |           450560
 2017-02-05 20:08:43.420883+01 | 1486321723.42088 | pgbench_history  |        411811840
 2017-02-05 20:08:43.420883+01 | 1486321723.42088 | pgbench_branches |            40960

 2017-02-05 20:08:44.503212+01 | 1486321724.50321 | pgbench_accounts |      13712957440
 2017-02-05 20:08:44.503212+01 | 1486321724.50321 | pgbench_tellers  |           450560
 2017-02-05 20:08:44.503212+01 | 1486321724.50321 | pgbench_history  |        414195712
 2017-02-05 20:08:44.503212+01 | 1486321724.50321 | pgbench_branches |            40960

 2017-02-05 20:08:45.577183+01 | 1486321725.57718 | pgbench_accounts |      13712957440
 2017-02-05 20:08:45.577183+01 | 1486321725.57718 | pgbench_tellers  |           450560
 2017-02-05 20:08:45.577183+01 | 1486321725.57718 | pgbench_history  |        415227904
 2017-02-05 20:08:45.577183+01 | 1486321725.57718 | pgbench_branches |            40960

 2017-02-05 20:08:46.667573+01 | 1486321726.66757 | pgbench_accounts |      13712957440
 2017-02-05 20:08:46.667573+01 | 1486321726.66757 | pgbench_tellers  |           450560
 2017-02-05 20:08:46.667573+01 | 1486321726.66757 | pgbench_history  |        416423936
 2017-02-05 20:08:46.667573+01 | 1486321726.66757 | pgbench_branches |            40960

 2017-02-05 20:08:47.752772+01 | 1486321727.75277 | pgbench_accounts |      13712957440
 2017-02-05 20:08:47.752772+01 | 1486321727.75277 | pgbench_tellers  |           450560
 2017-02-05 20:08:47.752772+01 | 1486321727.75277 | pgbench_history  |        418185216
 2017-02-05 20:08:47.752772+01 | 1486321727.75277 | pgbench_branches |            40960

 2017-02-05 20:08:48.830453+01 | 1486321728.83045 | pgbench_accounts |      13712957440
 2017-02-05 20:08:48.830453+01 | 1486321728.83045 | pgbench_tellers  |           450560
 2017-02-05 20:08:48.830453+01 | 1486321728.83045 | pgbench_history  |        419938304
 2017-02-05 20:08:48.830453+01 | 1486321728.83045 | pgbench_branches |            40960

 2017-02-05 20:08:49.914026+01 | 1486321729.91403 | pgbench_accounts |      13712957440
 2017-02-05 20:08:49.914026+01 | 1486321729.91403 | pgbench_tellers  |           450560
 2017-02-05 20:08:49.914026+01 | 1486321729.91403 | pgbench_history  |        421462016
 2017-02-05 20:08:49.914026+01 | 1486321729.91403 | pgbench_branches |            40960

 2017-02-05 20:08:51.001199+01 | 1486321731.0012 | pgbench_accounts |      13712957440
 2017-02-05 20:08:51.001199+01 | 1486321731.0012 | pgbench_tellers  |           450560
 2017-02-05 20:08:51.001199+01 | 1486321731.0012 | pgbench_history  |        422551552
 2017-02-05 20:08:51.001199+01 | 1486321731.0012 | pgbench_branches |            40960

 2017-02-05 20:08:52.088037+01 | 1486321732.08804 | pgbench_accounts |      13712957440
 2017-02-05 20:08:52.088037+01 | 1486321732.08804 | pgbench_tellers  |           450560
 2017-02-05 20:08:52.088037+01 | 1486321732.08804 | pgbench_history  |        423821312
 2017-02-05 20:08:52.088037+01 | 1486321732.08804 | pgbench_branches |            40960

 2017-02-05 20:08:53.176978+01 | 1486321733.17698 | pgbench_accounts |      13712957440
 2017-02-05 20:08:53.176978+01 | 1486321733.17698 | pgbench_tellers  |           450560
 2017-02-05 20:08:53.176978+01 | 1486321733.17698 | pgbench_history  |        425377792
 2017-02-05 20:08:53.176978+01 | 1486321733.17698 | pgbench_branches |            40960

 2017-02-05 20:08:54.251003+01 | 1486321734.251 | pgbench_accounts |      13712957440
 2017-02-05 20:08:54.251003+01 | 1486321734.251 | pgbench_tellers  |           450560
 2017-02-05 20:08:54.251003+01 | 1486321734.251 | pgbench_history  |        426934272
 2017-02-05 20:08:54.251003+01 | 1486321734.251 | pgbench_branches |            40960

 2017-02-05 20:08:55.331753+01 | 1486321735.33175 | pgbench_accounts |      13712957440
 2017-02-05 20:08:55.331753+01 | 1486321735.33175 | pgbench_tellers  |           450560
 2017-02-05 20:08:55.331753+01 | 1486321735.33175 | pgbench_history  |        428318720
 2017-02-05 20:08:55.331753+01 | 1486321735.33175 | pgbench_branches |            40960

