 2017-02-05 19:37:52.565143+01 | 1486319872.56514 | pgbench_branches_pkey |            40960
 2017-02-05 19:37:52.565143+01 | 1486319872.56514 | pgbench_tellers_pkey  |           245760
 2017-02-05 19:37:52.565143+01 | 1486319872.56514 | pgbench_accounts_pkey |       2246197248

 2017-02-05 19:37:53.652294+01 | 1486319873.65229 | pgbench_branches_pkey |            40960
 2017-02-05 19:37:53.652294+01 | 1486319873.65229 | pgbench_tellers_pkey  |           245760
 2017-02-05 19:37:53.652294+01 | 1486319873.65229 | pgbench_accounts_pkey |       2246197248

 2017-02-05 19:37:54.731145+01 | 1486319874.73114 | pgbench_branches_pkey |            40960
 2017-02-05 19:37:54.731145+01 | 1486319874.73114 | pgbench_tellers_pkey  |           245760
 2017-02-05 19:37:54.731145+01 | 1486319874.73114 | pgbench_accounts_pkey |       2246197248

 2017-02-05 19:37:55.809828+01 | 1486319875.80983 | pgbench_branches_pkey |            40960
 2017-02-05 19:37:55.809828+01 | 1486319875.80983 | pgbench_tellers_pkey  |           245760
 2017-02-05 19:37:55.809828+01 | 1486319875.80983 | pgbench_accounts_pkey |       2246197248

 2017-02-05 19:37:56.888337+01 | 1486319876.88834 | pgbench_branches_pkey |            40960
 2017-02-05 19:37:56.888337+01 | 1486319876.88834 | pgbench_tellers_pkey  |           245760
 2017-02-05 19:37:56.888337+01 | 1486319876.88834 | pgbench_accounts_pkey |       2246197248

 2017-02-05 19:37:57.963871+01 | 1486319877.96387 | pgbench_branches_pkey |            40960
 2017-02-05 19:37:57.963871+01 | 1486319877.96387 | pgbench_tellers_pkey  |           245760
 2017-02-05 19:37:57.963871+01 | 1486319877.96387 | pgbench_accounts_pkey |       2246197248

 2017-02-05 19:37:59.036799+01 | 1486319879.0368 | pgbench_branches_pkey |            40960
 2017-02-05 19:37:59.036799+01 | 1486319879.0368 | pgbench_tellers_pkey  |           245760
 2017-02-05 19:37:59.036799+01 | 1486319879.0368 | pgbench_accounts_pkey |       2246197248

 2017-02-05 19:38:00.108367+01 | 1486319880.10837 | pgbench_branches_pkey |            40960
 2017-02-05 19:38:00.108367+01 | 1486319880.10837 | pgbench_tellers_pkey  |           245760
 2017-02-05 19:38:00.108367+01 | 1486319880.10837 | pgbench_accounts_pkey |       2246197248

 2017-02-05 19:38:01.183362+01 | 1486319881.18336 | pgbench_branches_pkey |            40960
 2017-02-05 19:38:01.183362+01 | 1486319881.18336 | pgbench_tellers_pkey  |           245760
 2017-02-05 19:38:01.183362+01 | 1486319881.18336 | pgbench_accounts_pkey |       2246197248

 2017-02-05 19:38:02.262899+01 | 1486319882.2629 | pgbench_branches_pkey |            40960
 2017-02-05 19:38:02.262899+01 | 1486319882.2629 | pgbench_tellers_pkey  |           245760
 2017-02-05 19:38:02.262899+01 | 1486319882.2629 | pgbench_accounts_pkey |       2246197248

 2017-02-05 19:38:03.342347+01 | 1486319883.34235 | pgbench_branches_pkey |            40960
 2017-02-05 19:38:03.342347+01 | 1486319883.34235 | pgbench_tellers_pkey  |           245760
 2017-02-05 19:38:03.342347+01 | 1486319883.34235 | pgbench_accounts_pkey |       2246197248

 2017-02-05 19:38:04.417563+01 | 1486319884.41756 | pgbench_branches_pkey |            40960
 2017-02-05 19:38:04.417563+01 | 1486319884.41756 | pgbench_tellers_pkey  |           245760
 2017-02-05 19:38:04.417563+01 | 1486319884.41756 | pgbench_accounts_pkey |       2246197248

 2017-02-05 19:38:05.502158+01 | 1486319885.50216 | pgbench_branches_pkey |            40960
 2017-02-05 19:38:05.502158+01 | 1486319885.50216 | pgbench_tellers_pkey  |           245760
 2017-02-05 19:38:05.502158+01 | 1486319885.50216 | pgbench_accounts_pkey |       2246197248

 2017-02-05 19:38:06.582442+01 | 1486319886.58244 | pgbench_branches_pkey |            40960
 2017-02-05 19:38:06.582442+01 | 1486319886.58244 | pgbench_tellers_pkey  |           245760
 2017-02-05 19:38:06.582442+01 | 1486319886.58244 | pgbench_accounts_pkey |       2246197248

 2017-02-05 19:38:07.660781+01 | 1486319887.66078 | pgbench_branches_pkey |            40960
 2017-02-05 19:38:07.660781+01 | 1486319887.66078 | pgbench_tellers_pkey  |           245760
 2017-02-05 19:38:07.660781+01 | 1486319887.66078 | pgbench_accounts_pkey |       2246197248

 2017-02-05 19:38:08.740977+01 | 1486319888.74098 | pgbench_branches_pkey |            40960
 2017-02-05 19:38:08.740977+01 | 1486319888.74098 | pgbench_tellers_pkey  |           245760
 2017-02-05 19:38:08.740977+01 | 1486319888.74098 | pgbench_accounts_pkey |       2246197248

 2017-02-05 19:38:09.814467+01 | 1486319889.81447 | pgbench_branches_pkey |            40960
 2017-02-05 19:38:09.814467+01 | 1486319889.81447 | pgbench_tellers_pkey  |           245760
 2017-02-05 19:38:09.814467+01 | 1486319889.81447 | pgbench_accounts_pkey |       2246197248

 2017-02-05 19:38:10.895147+01 | 1486319890.89515 | pgbench_branches_pkey |            40960
 2017-02-05 19:38:10.895147+01 | 1486319890.89515 | pgbench_tellers_pkey  |           245760
 2017-02-05 19:38:10.895147+01 | 1486319890.89515 | pgbench_accounts_pkey |       2246197248

 2017-02-05 19:38:11.980731+01 | 1486319891.98073 | pgbench_branches_pkey |            40960
 2017-02-05 19:38:11.980731+01 | 1486319891.98073 | pgbench_tellers_pkey  |           245760
 2017-02-05 19:38:11.980731+01 | 1486319891.98073 | pgbench_accounts_pkey |       2246197248

 2017-02-05 19:38:13.059543+01 | 1486319893.05954 | pgbench_branches_pkey |            40960
 2017-02-05 19:38:13.059543+01 | 1486319893.05954 | pgbench_tellers_pkey  |           245760
 2017-02-05 19:38:13.059543+01 | 1486319893.05954 | pgbench_accounts_pkey |       2246197248

 2017-02-05 19:38:14.136725+01 | 1486319894.13672 | pgbench_branches_pkey |            40960
 2017-02-05 19:38:14.136725+01 | 1486319894.13672 | pgbench_tellers_pkey  |           245760
 2017-02-05 19:38:14.136725+01 | 1486319894.13672 | pgbench_accounts_pkey |       2246197248

 2017-02-05 19:38:15.213432+01 | 1486319895.21343 | pgbench_branches_pkey |            40960
 2017-02-05 19:38:15.213432+01 | 1486319895.21343 | pgbench_tellers_pkey  |           245760
 2017-02-05 19:38:15.213432+01 | 1486319895.21343 | pgbench_accounts_pkey |       2246197248

 2017-02-05 19:38:16.288499+01 | 1486319896.2885 | pgbench_branches_pkey |            40960
 2017-02-05 19:38:16.288499+01 | 1486319896.2885 | pgbench_tellers_pkey  |           245760
 2017-02-05 19:38:16.288499+01 | 1486319896.2885 | pgbench_accounts_pkey |       2246197248

 2017-02-05 19:38:17.365471+01 | 1486319897.36547 | pgbench_branches_pkey |            40960
 2017-02-05 19:38:17.365471+01 | 1486319897.36547 | pgbench_tellers_pkey  |           245760
 2017-02-05 19:38:17.365471+01 | 1486319897.36547 | pgbench_accounts_pkey |       2246197248

 2017-02-05 19:38:18.440562+01 | 1486319898.44056 | pgbench_branches_pkey |            40960
 2017-02-05 19:38:18.440562+01 | 1486319898.44056 | pgbench_tellers_pkey  |           245760
 2017-02-05 19:38:18.440562+01 | 1486319898.44056 | pgbench_accounts_pkey |       2246197248

 2017-02-05 19:38:19.515599+01 | 1486319899.5156 | pgbench_branches_pkey |            40960
 2017-02-05 19:38:19.515599+01 | 1486319899.5156 | pgbench_tellers_pkey  |           245760
 2017-02-05 19:38:19.515599+01 | 1486319899.5156 | pgbench_accounts_pkey |       2246197248

 2017-02-05 19:38:20.588965+01 | 1486319900.58896 | pgbench_branches_pkey |            40960
 2017-02-05 19:38:20.588965+01 | 1486319900.58896 | pgbench_tellers_pkey  |           245760
 2017-02-05 19:38:20.588965+01 | 1486319900.58896 | pgbench_accounts_pkey |       2246197248

 2017-02-05 19:38:21.66624+01 | 1486319901.66624 | pgbench_branches_pkey |            40960
 2017-02-05 19:38:21.66624+01 | 1486319901.66624 | pgbench_tellers_pkey  |           245760
 2017-02-05 19:38:21.66624+01 | 1486319901.66624 | pgbench_accounts_pkey |       2246197248

 2017-02-05 19:38:22.752446+01 | 1486319902.75245 | pgbench_branches_pkey |            40960
 2017-02-05 19:38:22.752446+01 | 1486319902.75245 | pgbench_tellers_pkey  |           245760
 2017-02-05 19:38:22.752446+01 | 1486319902.75245 | pgbench_accounts_pkey |       2246197248

 2017-02-05 19:38:23.831479+01 | 1486319903.83148 | pgbench_branches_pkey |            40960
 2017-02-05 19:38:23.831479+01 | 1486319903.83148 | pgbench_tellers_pkey  |           245760
 2017-02-05 19:38:23.831479+01 | 1486319903.83148 | pgbench_accounts_pkey |       2246197248

 2017-02-05 19:38:24.904623+01 | 1486319904.90462 | pgbench_branches_pkey |            40960
 2017-02-05 19:38:24.904623+01 | 1486319904.90462 | pgbench_tellers_pkey  |           245760
 2017-02-05 19:38:24.904623+01 | 1486319904.90462 | pgbench_accounts_pkey |       2246197248

 2017-02-05 19:38:25.979117+01 | 1486319905.97912 | pgbench_branches_pkey |            40960
 2017-02-05 19:38:25.979117+01 | 1486319905.97912 | pgbench_tellers_pkey  |           245760
 2017-02-05 19:38:25.979117+01 | 1486319905.97912 | pgbench_accounts_pkey |       2246197248

 2017-02-05 19:38:27.054398+01 | 1486319907.0544 | pgbench_branches_pkey |            40960
 2017-02-05 19:38:27.054398+01 | 1486319907.0544 | pgbench_tellers_pkey  |           245760
 2017-02-05 19:38:27.054398+01 | 1486319907.0544 | pgbench_accounts_pkey |       2246197248

 2017-02-05 19:38:28.128809+01 | 1486319908.12881 | pgbench_branches_pkey |            40960
 2017-02-05 19:38:28.128809+01 | 1486319908.12881 | pgbench_tellers_pkey  |           245760
 2017-02-05 19:38:28.128809+01 | 1486319908.12881 | pgbench_accounts_pkey |       2246197248

 2017-02-05 19:38:29.206081+01 | 1486319909.20608 | pgbench_branches_pkey |            40960
 2017-02-05 19:38:29.206081+01 | 1486319909.20608 | pgbench_tellers_pkey  |           245760
 2017-02-05 19:38:29.206081+01 | 1486319909.20608 | pgbench_accounts_pkey |       2246197248

 2017-02-05 19:38:30.280204+01 | 1486319910.2802 | pgbench_branches_pkey |            40960
 2017-02-05 19:38:30.280204+01 | 1486319910.2802 | pgbench_tellers_pkey  |           245760
 2017-02-05 19:38:30.280204+01 | 1486319910.2802 | pgbench_accounts_pkey |       2246197248

 2017-02-05 19:38:31.355942+01 | 1486319911.35594 | pgbench_branches_pkey |            40960
 2017-02-05 19:38:31.355942+01 | 1486319911.35594 | pgbench_tellers_pkey  |           245760
 2017-02-05 19:38:31.355942+01 | 1486319911.35594 | pgbench_accounts_pkey |       2246197248

 2017-02-05 19:38:32.427773+01 | 1486319912.42777 | pgbench_branches_pkey |            40960
 2017-02-05 19:38:32.427773+01 | 1486319912.42777 | pgbench_tellers_pkey  |           245760
 2017-02-05 19:38:32.427773+01 | 1486319912.42777 | pgbench_accounts_pkey |       2246197248

 2017-02-05 19:38:33.502412+01 | 1486319913.50241 | pgbench_branches_pkey |            40960
 2017-02-05 19:38:33.502412+01 | 1486319913.50241 | pgbench_tellers_pkey  |           245760
 2017-02-05 19:38:33.502412+01 | 1486319913.50241 | pgbench_accounts_pkey |       2246197248

 2017-02-05 19:38:34.582924+01 | 1486319914.58292 | pgbench_branches_pkey |            40960
 2017-02-05 19:38:34.582924+01 | 1486319914.58292 | pgbench_tellers_pkey  |           245760
 2017-02-05 19:38:34.582924+01 | 1486319914.58292 | pgbench_accounts_pkey |       2246197248

 2017-02-05 19:38:35.660828+01 | 1486319915.66083 | pgbench_branches_pkey |            40960
 2017-02-05 19:38:35.660828+01 | 1486319915.66083 | pgbench_tellers_pkey  |           245760
 2017-02-05 19:38:35.660828+01 | 1486319915.66083 | pgbench_accounts_pkey |       2246197248

 2017-02-05 19:38:36.750001+01 | 1486319916.75 | pgbench_branches_pkey |            40960
 2017-02-05 19:38:36.750001+01 | 1486319916.75 | pgbench_tellers_pkey  |           245760
 2017-02-05 19:38:36.750001+01 | 1486319916.75 | pgbench_accounts_pkey |       2246197248

 2017-02-05 19:38:37.822798+01 | 1486319917.8228 | pgbench_branches_pkey |            40960
 2017-02-05 19:38:37.822798+01 | 1486319917.8228 | pgbench_tellers_pkey  |           245760
 2017-02-05 19:38:37.822798+01 | 1486319917.8228 | pgbench_accounts_pkey |       2246197248

 2017-02-05 19:38:38.897588+01 | 1486319918.89759 | pgbench_branches_pkey |            40960
 2017-02-05 19:38:38.897588+01 | 1486319918.89759 | pgbench_tellers_pkey  |           245760
 2017-02-05 19:38:38.897588+01 | 1486319918.89759 | pgbench_accounts_pkey |       2246197248

 2017-02-05 19:38:39.983907+01 | 1486319919.98391 | pgbench_branches_pkey |            40960
 2017-02-05 19:38:39.983907+01 | 1486319919.98391 | pgbench_tellers_pkey  |           245760
 2017-02-05 19:38:39.983907+01 | 1486319919.98391 | pgbench_accounts_pkey |       2246197248

 2017-02-05 19:38:41.06104+01 | 1486319921.06104 | pgbench_branches_pkey |            40960
 2017-02-05 19:38:41.06104+01 | 1486319921.06104 | pgbench_tellers_pkey  |           245760
 2017-02-05 19:38:41.06104+01 | 1486319921.06104 | pgbench_accounts_pkey |       2246197248

 2017-02-05 19:38:42.133055+01 | 1486319922.13305 | pgbench_branches_pkey |            40960
 2017-02-05 19:38:42.133055+01 | 1486319922.13305 | pgbench_tellers_pkey  |           245760
 2017-02-05 19:38:42.133055+01 | 1486319922.13305 | pgbench_accounts_pkey |       2246197248

 2017-02-05 19:38:43.20998+01 | 1486319923.20998 | pgbench_branches_pkey |            40960
 2017-02-05 19:38:43.20998+01 | 1486319923.20998 | pgbench_tellers_pkey  |           245760
 2017-02-05 19:38:43.20998+01 | 1486319923.20998 | pgbench_accounts_pkey |       2246197248

 2017-02-05 19:38:44.280392+01 | 1486319924.28039 | pgbench_branches_pkey |            40960
 2017-02-05 19:38:44.280392+01 | 1486319924.28039 | pgbench_tellers_pkey  |           245760
 2017-02-05 19:38:44.280392+01 | 1486319924.28039 | pgbench_accounts_pkey |       2246197248

 2017-02-05 19:38:45.360067+01 | 1486319925.36007 | pgbench_branches_pkey |            40960
 2017-02-05 19:38:45.360067+01 | 1486319925.36007 | pgbench_tellers_pkey  |           245760
 2017-02-05 19:38:45.360067+01 | 1486319925.36007 | pgbench_accounts_pkey |       2246197248

 2017-02-05 19:38:46.432196+01 | 1486319926.4322 | pgbench_branches_pkey |            40960
 2017-02-05 19:38:46.432196+01 | 1486319926.4322 | pgbench_tellers_pkey  |           245760
 2017-02-05 19:38:46.432196+01 | 1486319926.4322 | pgbench_accounts_pkey |       2246197248

 2017-02-05 19:38:47.506271+01 | 1486319927.50627 | pgbench_branches_pkey |            40960
 2017-02-05 19:38:47.506271+01 | 1486319927.50627 | pgbench_tellers_pkey  |           245760
 2017-02-05 19:38:47.506271+01 | 1486319927.50627 | pgbench_accounts_pkey |       2246197248

 2017-02-05 19:38:48.579299+01 | 1486319928.5793 | pgbench_branches_pkey |            40960
 2017-02-05 19:38:48.579299+01 | 1486319928.5793 | pgbench_tellers_pkey  |           245760
 2017-02-05 19:38:48.579299+01 | 1486319928.5793 | pgbench_accounts_pkey |       2246197248

 2017-02-05 19:38:49.658412+01 | 1486319929.65841 | pgbench_branches_pkey |            40960
 2017-02-05 19:38:49.658412+01 | 1486319929.65841 | pgbench_tellers_pkey  |           245760
 2017-02-05 19:38:49.658412+01 | 1486319929.65841 | pgbench_accounts_pkey |       2246197248

 2017-02-05 19:38:50.735651+01 | 1486319930.73565 | pgbench_branches_pkey |            40960
 2017-02-05 19:38:50.735651+01 | 1486319930.73565 | pgbench_tellers_pkey  |           245760
 2017-02-05 19:38:50.735651+01 | 1486319930.73565 | pgbench_accounts_pkey |       2246197248

 2017-02-05 19:38:51.812572+01 | 1486319931.81257 | pgbench_branches_pkey |            40960
 2017-02-05 19:38:51.812572+01 | 1486319931.81257 | pgbench_tellers_pkey  |           245760
 2017-02-05 19:38:51.812572+01 | 1486319931.81257 | pgbench_accounts_pkey |       2246197248

 2017-02-05 19:38:52.880908+01 | 1486319932.88091 | pgbench_branches_pkey |            40960
 2017-02-05 19:38:52.880908+01 | 1486319932.88091 | pgbench_tellers_pkey  |           245760
 2017-02-05 19:38:52.880908+01 | 1486319932.88091 | pgbench_accounts_pkey |       2246197248

 2017-02-05 19:38:53.964886+01 | 1486319933.96489 | pgbench_branches_pkey |            40960
 2017-02-05 19:38:53.964886+01 | 1486319933.96489 | pgbench_tellers_pkey  |           245760
 2017-02-05 19:38:53.964886+01 | 1486319933.96489 | pgbench_accounts_pkey |       2246197248

 2017-02-05 19:38:55.044122+01 | 1486319935.04412 | pgbench_branches_pkey |            40960
 2017-02-05 19:38:55.044122+01 | 1486319935.04412 | pgbench_tellers_pkey  |           245760
 2017-02-05 19:38:55.044122+01 | 1486319935.04412 | pgbench_accounts_pkey |       2246197248

 2017-02-05 19:38:56.118824+01 | 1486319936.11882 | pgbench_branches_pkey |            40960
 2017-02-05 19:38:56.118824+01 | 1486319936.11882 | pgbench_tellers_pkey  |           245760
 2017-02-05 19:38:56.118824+01 | 1486319936.11882 | pgbench_accounts_pkey |       2246197248

 2017-02-05 19:38:57.203685+01 | 1486319937.20369 | pgbench_branches_pkey |            40960
 2017-02-05 19:38:57.203685+01 | 1486319937.20369 | pgbench_tellers_pkey  |           245760
 2017-02-05 19:38:57.203685+01 | 1486319937.20369 | pgbench_accounts_pkey |       2246197248

 2017-02-05 19:38:58.280656+01 | 1486319938.28066 | pgbench_branches_pkey |            40960
 2017-02-05 19:38:58.280656+01 | 1486319938.28066 | pgbench_tellers_pkey  |           245760
 2017-02-05 19:38:58.280656+01 | 1486319938.28066 | pgbench_accounts_pkey |       2246197248

 2017-02-05 19:38:59.354716+01 | 1486319939.35472 | pgbench_branches_pkey |            40960
 2017-02-05 19:38:59.354716+01 | 1486319939.35472 | pgbench_tellers_pkey  |           245760
 2017-02-05 19:38:59.354716+01 | 1486319939.35472 | pgbench_accounts_pkey |       2246197248

 2017-02-05 19:39:00.440538+01 | 1486319940.44054 | pgbench_branches_pkey |            40960
 2017-02-05 19:39:00.440538+01 | 1486319940.44054 | pgbench_tellers_pkey  |           245760
 2017-02-05 19:39:00.440538+01 | 1486319940.44054 | pgbench_accounts_pkey |       2246197248

 2017-02-05 19:39:01.518194+01 | 1486319941.51819 | pgbench_branches_pkey |            40960
 2017-02-05 19:39:01.518194+01 | 1486319941.51819 | pgbench_tellers_pkey  |           245760
 2017-02-05 19:39:01.518194+01 | 1486319941.51819 | pgbench_accounts_pkey |       2246197248

 2017-02-05 19:39:02.594487+01 | 1486319942.59449 | pgbench_branches_pkey |            40960
 2017-02-05 19:39:02.594487+01 | 1486319942.59449 | pgbench_tellers_pkey  |           245760
 2017-02-05 19:39:02.594487+01 | 1486319942.59449 | pgbench_accounts_pkey |       2246197248

 2017-02-05 19:39:03.667348+01 | 1486319943.66735 | pgbench_branches_pkey |            40960
 2017-02-05 19:39:03.667348+01 | 1486319943.66735 | pgbench_tellers_pkey  |           245760
 2017-02-05 19:39:03.667348+01 | 1486319943.66735 | pgbench_accounts_pkey |       2246197248

 2017-02-05 19:39:04.738744+01 | 1486319944.73874 | pgbench_branches_pkey |            40960
 2017-02-05 19:39:04.738744+01 | 1486319944.73874 | pgbench_tellers_pkey  |           245760
 2017-02-05 19:39:04.738744+01 | 1486319944.73874 | pgbench_accounts_pkey |       2246197248

 2017-02-05 19:39:05.811444+01 | 1486319945.81144 | pgbench_branches_pkey |            40960
 2017-02-05 19:39:05.811444+01 | 1486319945.81144 | pgbench_tellers_pkey  |           245760
 2017-02-05 19:39:05.811444+01 | 1486319945.81144 | pgbench_accounts_pkey |       2246197248

 2017-02-05 19:39:06.889574+01 | 1486319946.88957 | pgbench_branches_pkey |            40960
 2017-02-05 19:39:06.889574+01 | 1486319946.88957 | pgbench_tellers_pkey  |           245760
 2017-02-05 19:39:06.889574+01 | 1486319946.88957 | pgbench_accounts_pkey |       2246197248

 2017-02-05 19:39:07.957279+01 | 1486319947.95728 | pgbench_branches_pkey |            40960
 2017-02-05 19:39:07.957279+01 | 1486319947.95728 | pgbench_tellers_pkey  |           245760
 2017-02-05 19:39:07.957279+01 | 1486319947.95728 | pgbench_accounts_pkey |       2246197248

 2017-02-05 19:39:09.034309+01 | 1486319949.03431 | pgbench_branches_pkey |            40960
 2017-02-05 19:39:09.034309+01 | 1486319949.03431 | pgbench_tellers_pkey  |           245760
 2017-02-05 19:39:09.034309+01 | 1486319949.03431 | pgbench_accounts_pkey |       2246197248

 2017-02-05 19:39:10.115704+01 | 1486319950.1157 | pgbench_branches_pkey |            40960
 2017-02-05 19:39:10.115704+01 | 1486319950.1157 | pgbench_tellers_pkey  |           245760
 2017-02-05 19:39:10.115704+01 | 1486319950.1157 | pgbench_accounts_pkey |       2246197248

 2017-02-05 19:39:11.190332+01 | 1486319951.19033 | pgbench_branches_pkey |            40960
 2017-02-05 19:39:11.190332+01 | 1486319951.19033 | pgbench_tellers_pkey  |           245760
 2017-02-05 19:39:11.190332+01 | 1486319951.19033 | pgbench_accounts_pkey |       2246197248

 2017-02-05 19:39:12.269236+01 | 1486319952.26924 | pgbench_branches_pkey |            40960
 2017-02-05 19:39:12.269236+01 | 1486319952.26924 | pgbench_tellers_pkey  |           245760
 2017-02-05 19:39:12.269236+01 | 1486319952.26924 | pgbench_accounts_pkey |       2246197248

 2017-02-05 19:39:13.343525+01 | 1486319953.34352 | pgbench_branches_pkey |            40960
 2017-02-05 19:39:13.343525+01 | 1486319953.34352 | pgbench_tellers_pkey  |           245760
 2017-02-05 19:39:13.343525+01 | 1486319953.34352 | pgbench_accounts_pkey |       2246197248

 2017-02-05 19:39:14.420351+01 | 1486319954.42035 | pgbench_branches_pkey |            40960
 2017-02-05 19:39:14.420351+01 | 1486319954.42035 | pgbench_tellers_pkey  |           245760
 2017-02-05 19:39:14.420351+01 | 1486319954.42035 | pgbench_accounts_pkey |       2246197248

 2017-02-05 19:39:15.495226+01 | 1486319955.49523 | pgbench_branches_pkey |            40960
 2017-02-05 19:39:15.495226+01 | 1486319955.49523 | pgbench_tellers_pkey  |           245760
 2017-02-05 19:39:15.495226+01 | 1486319955.49523 | pgbench_accounts_pkey |       2246197248

 2017-02-05 19:39:16.570951+01 | 1486319956.57095 | pgbench_branches_pkey |            40960
 2017-02-05 19:39:16.570951+01 | 1486319956.57095 | pgbench_tellers_pkey  |           245760
 2017-02-05 19:39:16.570951+01 | 1486319956.57095 | pgbench_accounts_pkey |       2246197248

 2017-02-05 19:39:17.643581+01 | 1486319957.64358 | pgbench_branches_pkey |            40960
 2017-02-05 19:39:17.643581+01 | 1486319957.64358 | pgbench_tellers_pkey  |           245760
 2017-02-05 19:39:17.643581+01 | 1486319957.64358 | pgbench_accounts_pkey |       2246197248

 2017-02-05 19:39:18.720508+01 | 1486319958.72051 | pgbench_branches_pkey |            40960
 2017-02-05 19:39:18.720508+01 | 1486319958.72051 | pgbench_tellers_pkey  |           245760
 2017-02-05 19:39:18.720508+01 | 1486319958.72051 | pgbench_accounts_pkey |       2246197248

 2017-02-05 19:39:19.795972+01 | 1486319959.79597 | pgbench_branches_pkey |            40960
 2017-02-05 19:39:19.795972+01 | 1486319959.79597 | pgbench_tellers_pkey  |           245760
 2017-02-05 19:39:19.795972+01 | 1486319959.79597 | pgbench_accounts_pkey |       2246197248

 2017-02-05 19:39:20.868071+01 | 1486319960.86807 | pgbench_branches_pkey |            40960
 2017-02-05 19:39:20.868071+01 | 1486319960.86807 | pgbench_tellers_pkey  |           245760
 2017-02-05 19:39:20.868071+01 | 1486319960.86807 | pgbench_accounts_pkey |       2246197248

 2017-02-05 19:39:21.94368+01 | 1486319961.94368 | pgbench_branches_pkey |            40960
 2017-02-05 19:39:21.94368+01 | 1486319961.94368 | pgbench_tellers_pkey  |           245760
 2017-02-05 19:39:21.94368+01 | 1486319961.94368 | pgbench_accounts_pkey |       2246197248

 2017-02-05 19:39:23.019419+01 | 1486319963.01942 | pgbench_branches_pkey |            40960
 2017-02-05 19:39:23.019419+01 | 1486319963.01942 | pgbench_tellers_pkey  |           245760
 2017-02-05 19:39:23.019419+01 | 1486319963.01942 | pgbench_accounts_pkey |       2246197248

 2017-02-05 19:39:24.106894+01 | 1486319964.10689 | pgbench_branches_pkey |            40960
 2017-02-05 19:39:24.106894+01 | 1486319964.10689 | pgbench_tellers_pkey  |           245760
 2017-02-05 19:39:24.106894+01 | 1486319964.10689 | pgbench_accounts_pkey |       2246197248

 2017-02-05 19:39:25.193209+01 | 1486319965.19321 | pgbench_branches_pkey |            40960
 2017-02-05 19:39:25.193209+01 | 1486319965.19321 | pgbench_tellers_pkey  |           245760
 2017-02-05 19:39:25.193209+01 | 1486319965.19321 | pgbench_accounts_pkey |       2246197248

 2017-02-05 19:39:26.269446+01 | 1486319966.26945 | pgbench_branches_pkey |            40960
 2017-02-05 19:39:26.269446+01 | 1486319966.26945 | pgbench_tellers_pkey  |           245760
 2017-02-05 19:39:26.269446+01 | 1486319966.26945 | pgbench_accounts_pkey |       2246197248

 2017-02-05 19:39:27.347034+01 | 1486319967.34703 | pgbench_branches_pkey |            40960
 2017-02-05 19:39:27.347034+01 | 1486319967.34703 | pgbench_tellers_pkey  |           245760
 2017-02-05 19:39:27.347034+01 | 1486319967.34703 | pgbench_accounts_pkey |       2246197248

 2017-02-05 19:39:28.419558+01 | 1486319968.41956 | pgbench_branches_pkey |            40960
 2017-02-05 19:39:28.419558+01 | 1486319968.41956 | pgbench_tellers_pkey  |           245760
 2017-02-05 19:39:28.419558+01 | 1486319968.41956 | pgbench_accounts_pkey |       2246197248

 2017-02-05 19:39:29.494985+01 | 1486319969.49499 | pgbench_branches_pkey |            40960
 2017-02-05 19:39:29.494985+01 | 1486319969.49499 | pgbench_tellers_pkey  |           245760
 2017-02-05 19:39:29.494985+01 | 1486319969.49499 | pgbench_accounts_pkey |       2246197248

 2017-02-05 19:39:30.569226+01 | 1486319970.56923 | pgbench_branches_pkey |            40960
 2017-02-05 19:39:30.569226+01 | 1486319970.56923 | pgbench_tellers_pkey  |           245760
 2017-02-05 19:39:30.569226+01 | 1486319970.56923 | pgbench_accounts_pkey |       2246197248

 2017-02-05 19:39:31.648203+01 | 1486319971.6482 | pgbench_branches_pkey |            40960
 2017-02-05 19:39:31.648203+01 | 1486319971.6482 | pgbench_tellers_pkey  |           245760
 2017-02-05 19:39:31.648203+01 | 1486319971.6482 | pgbench_accounts_pkey |       2246197248

 2017-02-05 19:39:32.727868+01 | 1486319972.72787 | pgbench_branches_pkey |            40960
 2017-02-05 19:39:32.727868+01 | 1486319972.72787 | pgbench_tellers_pkey  |           245760
 2017-02-05 19:39:32.727868+01 | 1486319972.72787 | pgbench_accounts_pkey |       2246197248

 2017-02-05 19:39:33.802207+01 | 1486319973.80221 | pgbench_branches_pkey |            40960
 2017-02-05 19:39:33.802207+01 | 1486319973.80221 | pgbench_tellers_pkey  |           245760
 2017-02-05 19:39:33.802207+01 | 1486319973.80221 | pgbench_accounts_pkey |       2246197248

 2017-02-05 19:39:34.872181+01 | 1486319974.87218 | pgbench_branches_pkey |            40960
 2017-02-05 19:39:34.872181+01 | 1486319974.87218 | pgbench_tellers_pkey  |           245760
 2017-02-05 19:39:34.872181+01 | 1486319974.87218 | pgbench_accounts_pkey |       2246197248

 2017-02-05 19:39:35.945767+01 | 1486319975.94577 | pgbench_branches_pkey |            40960
 2017-02-05 19:39:35.945767+01 | 1486319975.94577 | pgbench_tellers_pkey  |           245760
 2017-02-05 19:39:35.945767+01 | 1486319975.94577 | pgbench_accounts_pkey |       2246197248

 2017-02-05 19:39:37.022569+01 | 1486319977.02257 | pgbench_branches_pkey |            40960
 2017-02-05 19:39:37.022569+01 | 1486319977.02257 | pgbench_tellers_pkey  |           245760
 2017-02-05 19:39:37.022569+01 | 1486319977.02257 | pgbench_accounts_pkey |       2246197248

 2017-02-05 19:39:38.099488+01 | 1486319978.09949 | pgbench_branches_pkey |            40960
 2017-02-05 19:39:38.099488+01 | 1486319978.09949 | pgbench_tellers_pkey  |           245760
 2017-02-05 19:39:38.099488+01 | 1486319978.09949 | pgbench_accounts_pkey |       2246197248

 2017-02-05 19:39:39.177105+01 | 1486319979.1771 | pgbench_branches_pkey |            40960
 2017-02-05 19:39:39.177105+01 | 1486319979.1771 | pgbench_tellers_pkey  |           245760
 2017-02-05 19:39:39.177105+01 | 1486319979.1771 | pgbench_accounts_pkey |       2246197248

 2017-02-05 19:39:40.250879+01 | 1486319980.25088 | pgbench_branches_pkey |            40960
 2017-02-05 19:39:40.250879+01 | 1486319980.25088 | pgbench_tellers_pkey  |           245760
 2017-02-05 19:39:40.250879+01 | 1486319980.25088 | pgbench_accounts_pkey |       2246197248

 2017-02-05 19:39:41.32579+01 | 1486319981.32579 | pgbench_branches_pkey |            40960
 2017-02-05 19:39:41.32579+01 | 1486319981.32579 | pgbench_tellers_pkey  |           245760
 2017-02-05 19:39:41.32579+01 | 1486319981.32579 | pgbench_accounts_pkey |       2246197248

 2017-02-05 19:39:42.399699+01 | 1486319982.3997 | pgbench_branches_pkey |            40960
 2017-02-05 19:39:42.399699+01 | 1486319982.3997 | pgbench_tellers_pkey  |           245760
 2017-02-05 19:39:42.399699+01 | 1486319982.3997 | pgbench_accounts_pkey |       2246197248

 2017-02-05 19:39:43.472898+01 | 1486319983.4729 | pgbench_branches_pkey |            40960
 2017-02-05 19:39:43.472898+01 | 1486319983.4729 | pgbench_tellers_pkey  |           245760
 2017-02-05 19:39:43.472898+01 | 1486319983.4729 | pgbench_accounts_pkey |       2246197248

 2017-02-05 19:39:44.548672+01 | 1486319984.54867 | pgbench_branches_pkey |            40960
 2017-02-05 19:39:44.548672+01 | 1486319984.54867 | pgbench_tellers_pkey  |           245760
 2017-02-05 19:39:44.548672+01 | 1486319984.54867 | pgbench_accounts_pkey |       2246197248

 2017-02-05 19:39:45.624045+01 | 1486319985.62404 | pgbench_branches_pkey |            40960
 2017-02-05 19:39:45.624045+01 | 1486319985.62404 | pgbench_tellers_pkey  |           245760
 2017-02-05 19:39:45.624045+01 | 1486319985.62404 | pgbench_accounts_pkey |       2246197248

 2017-02-05 19:39:46.701204+01 | 1486319986.7012 | pgbench_branches_pkey |            40960
 2017-02-05 19:39:46.701204+01 | 1486319986.7012 | pgbench_tellers_pkey  |           245760
 2017-02-05 19:39:46.701204+01 | 1486319986.7012 | pgbench_accounts_pkey |       2246197248

 2017-02-05 19:39:47.784899+01 | 1486319987.7849 | pgbench_branches_pkey |            40960
 2017-02-05 19:39:47.784899+01 | 1486319987.7849 | pgbench_tellers_pkey  |           245760
 2017-02-05 19:39:47.784899+01 | 1486319987.7849 | pgbench_accounts_pkey |       2246197248

 2017-02-05 19:39:48.858976+01 | 1486319988.85898 | pgbench_branches_pkey |            40960
 2017-02-05 19:39:48.858976+01 | 1486319988.85898 | pgbench_tellers_pkey  |           245760
 2017-02-05 19:39:48.858976+01 | 1486319988.85898 | pgbench_accounts_pkey |       2246197248

 2017-02-05 19:39:49.936584+01 | 1486319989.93658 | pgbench_branches_pkey |            40960
 2017-02-05 19:39:49.936584+01 | 1486319989.93658 | pgbench_tellers_pkey  |           245760
 2017-02-05 19:39:49.936584+01 | 1486319989.93658 | pgbench_accounts_pkey |       2246197248

 2017-02-05 19:39:51.017993+01 | 1486319991.01799 | pgbench_branches_pkey |            40960
 2017-02-05 19:39:51.017993+01 | 1486319991.01799 | pgbench_tellers_pkey  |           245760
 2017-02-05 19:39:51.017993+01 | 1486319991.01799 | pgbench_accounts_pkey |       2246197248

 2017-02-05 19:39:52.100988+01 | 1486319992.10099 | pgbench_branches_pkey |            40960
 2017-02-05 19:39:52.100988+01 | 1486319992.10099 | pgbench_tellers_pkey  |           245760
 2017-02-05 19:39:52.100988+01 | 1486319992.10099 | pgbench_accounts_pkey |       2246197248

 2017-02-05 19:39:53.182451+01 | 1486319993.18245 | pgbench_branches_pkey |            40960
 2017-02-05 19:39:53.182451+01 | 1486319993.18245 | pgbench_tellers_pkey  |           245760
 2017-02-05 19:39:53.182451+01 | 1486319993.18245 | pgbench_accounts_pkey |       2246197248

 2017-02-05 19:39:54.256427+01 | 1486319994.25643 | pgbench_branches_pkey |            40960
 2017-02-05 19:39:54.256427+01 | 1486319994.25643 | pgbench_tellers_pkey  |           245760
 2017-02-05 19:39:54.256427+01 | 1486319994.25643 | pgbench_accounts_pkey |       2246197248

 2017-02-05 19:39:55.332313+01 | 1486319995.33231 | pgbench_branches_pkey |            40960
 2017-02-05 19:39:55.332313+01 | 1486319995.33231 | pgbench_tellers_pkey  |           245760
 2017-02-05 19:39:55.332313+01 | 1486319995.33231 | pgbench_accounts_pkey |       2246197248

 2017-02-05 19:39:56.40821+01 | 1486319996.40821 | pgbench_branches_pkey |            40960
 2017-02-05 19:39:56.40821+01 | 1486319996.40821 | pgbench_tellers_pkey  |           245760
 2017-02-05 19:39:56.40821+01 | 1486319996.40821 | pgbench_accounts_pkey |       2246197248

 2017-02-05 19:39:57.485872+01 | 1486319997.48587 | pgbench_branches_pkey |            40960
 2017-02-05 19:39:57.485872+01 | 1486319997.48587 | pgbench_tellers_pkey  |           245760
 2017-02-05 19:39:57.485872+01 | 1486319997.48587 | pgbench_accounts_pkey |       2246197248

 2017-02-05 19:39:58.561594+01 | 1486319998.56159 | pgbench_branches_pkey |            40960
 2017-02-05 19:39:58.561594+01 | 1486319998.56159 | pgbench_tellers_pkey  |           245760
 2017-02-05 19:39:58.561594+01 | 1486319998.56159 | pgbench_accounts_pkey |       2246197248

 2017-02-05 19:39:59.641616+01 | 1486319999.64162 | pgbench_branches_pkey |            40960
 2017-02-05 19:39:59.641616+01 | 1486319999.64162 | pgbench_tellers_pkey  |           245760
 2017-02-05 19:39:59.641616+01 | 1486319999.64162 | pgbench_accounts_pkey |       2246197248

 2017-02-05 19:40:00.717929+01 | 1486320000.71793 | pgbench_branches_pkey |            40960
 2017-02-05 19:40:00.717929+01 | 1486320000.71793 | pgbench_tellers_pkey  |           245760
 2017-02-05 19:40:00.717929+01 | 1486320000.71793 | pgbench_accounts_pkey |       2246197248

 2017-02-05 19:40:01.795985+01 | 1486320001.79598 | pgbench_branches_pkey |            40960
 2017-02-05 19:40:01.795985+01 | 1486320001.79598 | pgbench_tellers_pkey  |           245760
 2017-02-05 19:40:01.795985+01 | 1486320001.79598 | pgbench_accounts_pkey |       2246197248

 2017-02-05 19:40:02.872406+01 | 1486320002.87241 | pgbench_branches_pkey |            40960
 2017-02-05 19:40:02.872406+01 | 1486320002.87241 | pgbench_tellers_pkey  |           245760
 2017-02-05 19:40:02.872406+01 | 1486320002.87241 | pgbench_accounts_pkey |       2246197248

 2017-02-05 19:40:03.953104+01 | 1486320003.9531 | pgbench_branches_pkey |            40960
 2017-02-05 19:40:03.953104+01 | 1486320003.9531 | pgbench_tellers_pkey  |           245760
 2017-02-05 19:40:03.953104+01 | 1486320003.9531 | pgbench_accounts_pkey |       2246197248

 2017-02-05 19:40:05.026005+01 | 1486320005.02601 | pgbench_branches_pkey |            40960
 2017-02-05 19:40:05.026005+01 | 1486320005.02601 | pgbench_tellers_pkey  |           245760
 2017-02-05 19:40:05.026005+01 | 1486320005.02601 | pgbench_accounts_pkey |       2246197248

 2017-02-05 19:40:06.104973+01 | 1486320006.10497 | pgbench_branches_pkey |            40960
 2017-02-05 19:40:06.104973+01 | 1486320006.10497 | pgbench_tellers_pkey  |           245760
 2017-02-05 19:40:06.104973+01 | 1486320006.10497 | pgbench_accounts_pkey |       2246197248

 2017-02-05 19:40:07.179856+01 | 1486320007.17986 | pgbench_branches_pkey |            40960
 2017-02-05 19:40:07.179856+01 | 1486320007.17986 | pgbench_tellers_pkey  |           245760
 2017-02-05 19:40:07.179856+01 | 1486320007.17986 | pgbench_accounts_pkey |       2246197248

 2017-02-05 19:40:08.252976+01 | 1486320008.25298 | pgbench_branches_pkey |            40960
 2017-02-05 19:40:08.252976+01 | 1486320008.25298 | pgbench_tellers_pkey  |           245760
 2017-02-05 19:40:08.252976+01 | 1486320008.25298 | pgbench_accounts_pkey |       2246197248

 2017-02-05 19:40:09.325364+01 | 1486320009.32536 | pgbench_branches_pkey |            40960
 2017-02-05 19:40:09.325364+01 | 1486320009.32536 | pgbench_tellers_pkey  |           245760
 2017-02-05 19:40:09.325364+01 | 1486320009.32536 | pgbench_accounts_pkey |       2246197248

 2017-02-05 19:40:10.403366+01 | 1486320010.40337 | pgbench_branches_pkey |            40960
 2017-02-05 19:40:10.403366+01 | 1486320010.40337 | pgbench_tellers_pkey  |           245760
 2017-02-05 19:40:10.403366+01 | 1486320010.40337 | pgbench_accounts_pkey |       2246197248

 2017-02-05 19:40:11.481907+01 | 1486320011.48191 | pgbench_branches_pkey |            40960
 2017-02-05 19:40:11.481907+01 | 1486320011.48191 | pgbench_tellers_pkey  |           245760
 2017-02-05 19:40:11.481907+01 | 1486320011.48191 | pgbench_accounts_pkey |       2246197248

 2017-02-05 19:40:12.555272+01 | 1486320012.55527 | pgbench_branches_pkey |            40960
 2017-02-05 19:40:12.555272+01 | 1486320012.55527 | pgbench_tellers_pkey  |           245760
 2017-02-05 19:40:12.555272+01 | 1486320012.55527 | pgbench_accounts_pkey |       2246197248

 2017-02-05 19:40:13.631296+01 | 1486320013.6313 | pgbench_branches_pkey |            40960
 2017-02-05 19:40:13.631296+01 | 1486320013.6313 | pgbench_tellers_pkey  |           245760
 2017-02-05 19:40:13.631296+01 | 1486320013.6313 | pgbench_accounts_pkey |       2246197248

 2017-02-05 19:40:14.712044+01 | 1486320014.71204 | pgbench_branches_pkey |            40960
 2017-02-05 19:40:14.712044+01 | 1486320014.71204 | pgbench_tellers_pkey  |           245760
 2017-02-05 19:40:14.712044+01 | 1486320014.71204 | pgbench_accounts_pkey |       2246197248

 2017-02-05 19:40:15.787182+01 | 1486320015.78718 | pgbench_branches_pkey |            40960
 2017-02-05 19:40:15.787182+01 | 1486320015.78718 | pgbench_tellers_pkey  |           245760
 2017-02-05 19:40:15.787182+01 | 1486320015.78718 | pgbench_accounts_pkey |       2246197248

 2017-02-05 19:40:16.857952+01 | 1486320016.85795 | pgbench_branches_pkey |            40960
 2017-02-05 19:40:16.857952+01 | 1486320016.85795 | pgbench_tellers_pkey  |           245760
 2017-02-05 19:40:16.857952+01 | 1486320016.85795 | pgbench_accounts_pkey |       2246197248

 2017-02-05 19:40:17.942287+01 | 1486320017.94229 | pgbench_branches_pkey |            40960
 2017-02-05 19:40:17.942287+01 | 1486320017.94229 | pgbench_tellers_pkey  |           245760
 2017-02-05 19:40:17.942287+01 | 1486320017.94229 | pgbench_accounts_pkey |       2246197248

 2017-02-05 19:40:19.016509+01 | 1486320019.01651 | pgbench_branches_pkey |            40960
 2017-02-05 19:40:19.016509+01 | 1486320019.01651 | pgbench_tellers_pkey  |           245760
 2017-02-05 19:40:19.016509+01 | 1486320019.01651 | pgbench_accounts_pkey |       2246197248

 2017-02-05 19:40:20.088471+01 | 1486320020.08847 | pgbench_branches_pkey |            40960
 2017-02-05 19:40:20.088471+01 | 1486320020.08847 | pgbench_tellers_pkey  |           245760
 2017-02-05 19:40:20.088471+01 | 1486320020.08847 | pgbench_accounts_pkey |       2246197248

 2017-02-05 19:40:21.164555+01 | 1486320021.16456 | pgbench_branches_pkey |            40960
 2017-02-05 19:40:21.164555+01 | 1486320021.16456 | pgbench_tellers_pkey  |           245760
 2017-02-05 19:40:21.164555+01 | 1486320021.16456 | pgbench_accounts_pkey |       2246197248

 2017-02-05 19:40:22.237539+01 | 1486320022.23754 | pgbench_branches_pkey |            40960
 2017-02-05 19:40:22.237539+01 | 1486320022.23754 | pgbench_tellers_pkey  |           245760
 2017-02-05 19:40:22.237539+01 | 1486320022.23754 | pgbench_accounts_pkey |       2246197248

 2017-02-05 19:40:23.312666+01 | 1486320023.31267 | pgbench_branches_pkey |            40960
 2017-02-05 19:40:23.312666+01 | 1486320023.31267 | pgbench_tellers_pkey  |           245760
 2017-02-05 19:40:23.312666+01 | 1486320023.31267 | pgbench_accounts_pkey |       2246197248

 2017-02-05 19:40:24.389105+01 | 1486320024.38911 | pgbench_branches_pkey |            40960
 2017-02-05 19:40:24.389105+01 | 1486320024.38911 | pgbench_tellers_pkey  |           245760
 2017-02-05 19:40:24.389105+01 | 1486320024.38911 | pgbench_accounts_pkey |       2246197248

 2017-02-05 19:40:25.456313+01 | 1486320025.45631 | pgbench_branches_pkey |            40960
 2017-02-05 19:40:25.456313+01 | 1486320025.45631 | pgbench_tellers_pkey  |           245760
 2017-02-05 19:40:25.456313+01 | 1486320025.45631 | pgbench_accounts_pkey |       2246197248

 2017-02-05 19:40:26.526368+01 | 1486320026.52637 | pgbench_branches_pkey |            40960
 2017-02-05 19:40:26.526368+01 | 1486320026.52637 | pgbench_tellers_pkey  |           245760
 2017-02-05 19:40:26.526368+01 | 1486320026.52637 | pgbench_accounts_pkey |       2246197248

 2017-02-05 19:40:27.602463+01 | 1486320027.60246 | pgbench_branches_pkey |            40960
 2017-02-05 19:40:27.602463+01 | 1486320027.60246 | pgbench_tellers_pkey  |           245760
 2017-02-05 19:40:27.602463+01 | 1486320027.60246 | pgbench_accounts_pkey |       2246197248

 2017-02-05 19:40:28.689083+01 | 1486320028.68908 | pgbench_branches_pkey |            40960
 2017-02-05 19:40:28.689083+01 | 1486320028.68908 | pgbench_tellers_pkey  |           245760
 2017-02-05 19:40:28.689083+01 | 1486320028.68908 | pgbench_accounts_pkey |       2246197248

 2017-02-05 19:40:29.776877+01 | 1486320029.77688 | pgbench_branches_pkey |            40960
 2017-02-05 19:40:29.776877+01 | 1486320029.77688 | pgbench_tellers_pkey  |           245760
 2017-02-05 19:40:29.776877+01 | 1486320029.77688 | pgbench_accounts_pkey |       2246197248

 2017-02-05 19:40:30.851665+01 | 1486320030.85167 | pgbench_branches_pkey |            40960
 2017-02-05 19:40:30.851665+01 | 1486320030.85167 | pgbench_tellers_pkey  |           245760
 2017-02-05 19:40:30.851665+01 | 1486320030.85167 | pgbench_accounts_pkey |       2246197248

 2017-02-05 19:40:31.93179+01 | 1486320031.93179 | pgbench_branches_pkey |            40960
 2017-02-05 19:40:31.93179+01 | 1486320031.93179 | pgbench_tellers_pkey  |           245760
 2017-02-05 19:40:31.93179+01 | 1486320031.93179 | pgbench_accounts_pkey |       2246197248

 2017-02-05 19:40:33.006988+01 | 1486320033.00699 | pgbench_branches_pkey |            40960
 2017-02-05 19:40:33.006988+01 | 1486320033.00699 | pgbench_tellers_pkey  |           245760
 2017-02-05 19:40:33.006988+01 | 1486320033.00699 | pgbench_accounts_pkey |       2246197248

 2017-02-05 19:40:34.078292+01 | 1486320034.07829 | pgbench_branches_pkey |            40960
 2017-02-05 19:40:34.078292+01 | 1486320034.07829 | pgbench_tellers_pkey  |           245760
 2017-02-05 19:40:34.078292+01 | 1486320034.07829 | pgbench_accounts_pkey |       2246197248

 2017-02-05 19:40:35.153668+01 | 1486320035.15367 | pgbench_branches_pkey |            40960
 2017-02-05 19:40:35.153668+01 | 1486320035.15367 | pgbench_tellers_pkey  |           245760
 2017-02-05 19:40:35.153668+01 | 1486320035.15367 | pgbench_accounts_pkey |       2246197248

 2017-02-05 19:40:36.229313+01 | 1486320036.22931 | pgbench_branches_pkey |            40960
 2017-02-05 19:40:36.229313+01 | 1486320036.22931 | pgbench_tellers_pkey  |           245760
 2017-02-05 19:40:36.229313+01 | 1486320036.22931 | pgbench_accounts_pkey |       2246197248

 2017-02-05 19:40:37.301727+01 | 1486320037.30173 | pgbench_branches_pkey |            40960
 2017-02-05 19:40:37.301727+01 | 1486320037.30173 | pgbench_tellers_pkey  |           245760
 2017-02-05 19:40:37.301727+01 | 1486320037.30173 | pgbench_accounts_pkey |       2246197248

 2017-02-05 19:40:38.372467+01 | 1486320038.37247 | pgbench_branches_pkey |            40960
 2017-02-05 19:40:38.372467+01 | 1486320038.37247 | pgbench_tellers_pkey  |           245760
 2017-02-05 19:40:38.372467+01 | 1486320038.37247 | pgbench_accounts_pkey |       2246197248

 2017-02-05 19:40:39.463091+01 | 1486320039.46309 | pgbench_branches_pkey |            40960
 2017-02-05 19:40:39.463091+01 | 1486320039.46309 | pgbench_tellers_pkey  |           245760
 2017-02-05 19:40:39.463091+01 | 1486320039.46309 | pgbench_accounts_pkey |       2246197248

 2017-02-05 19:40:40.536583+01 | 1486320040.53658 | pgbench_branches_pkey |            40960
 2017-02-05 19:40:40.536583+01 | 1486320040.53658 | pgbench_tellers_pkey  |           245760
 2017-02-05 19:40:40.536583+01 | 1486320040.53658 | pgbench_accounts_pkey |       2246197248

 2017-02-05 19:40:41.61046+01 | 1486320041.61046 | pgbench_branches_pkey |            40960
 2017-02-05 19:40:41.61046+01 | 1486320041.61046 | pgbench_tellers_pkey  |           245760
 2017-02-05 19:40:41.61046+01 | 1486320041.61046 | pgbench_accounts_pkey |       2246197248

 2017-02-05 19:40:42.686691+01 | 1486320042.68669 | pgbench_branches_pkey |            40960
 2017-02-05 19:40:42.686691+01 | 1486320042.68669 | pgbench_tellers_pkey  |           245760
 2017-02-05 19:40:42.686691+01 | 1486320042.68669 | pgbench_accounts_pkey |       2246197248

 2017-02-05 19:40:43.761728+01 | 1486320043.76173 | pgbench_branches_pkey |            40960
 2017-02-05 19:40:43.761728+01 | 1486320043.76173 | pgbench_tellers_pkey  |           245760
 2017-02-05 19:40:43.761728+01 | 1486320043.76173 | pgbench_accounts_pkey |       2246197248

 2017-02-05 19:40:44.834425+01 | 1486320044.83442 | pgbench_branches_pkey |            40960
 2017-02-05 19:40:44.834425+01 | 1486320044.83442 | pgbench_tellers_pkey  |           245760
 2017-02-05 19:40:44.834425+01 | 1486320044.83442 | pgbench_accounts_pkey |       2246197248

 2017-02-05 19:40:45.910497+01 | 1486320045.9105 | pgbench_branches_pkey |            40960
 2017-02-05 19:40:45.910497+01 | 1486320045.9105 | pgbench_tellers_pkey  |           245760
 2017-02-05 19:40:45.910497+01 | 1486320045.9105 | pgbench_accounts_pkey |       2246197248

 2017-02-05 19:40:46.978996+01 | 1486320046.979 | pgbench_branches_pkey |            40960
 2017-02-05 19:40:46.978996+01 | 1486320046.979 | pgbench_tellers_pkey  |           245760
 2017-02-05 19:40:46.978996+01 | 1486320046.979 | pgbench_accounts_pkey |       2246197248

 2017-02-05 19:40:48.053302+01 | 1486320048.0533 | pgbench_branches_pkey |            40960
 2017-02-05 19:40:48.053302+01 | 1486320048.0533 | pgbench_tellers_pkey  |           245760
 2017-02-05 19:40:48.053302+01 | 1486320048.0533 | pgbench_accounts_pkey |       2246197248

 2017-02-05 19:40:49.140481+01 | 1486320049.14048 | pgbench_branches_pkey |            40960
 2017-02-05 19:40:49.140481+01 | 1486320049.14048 | pgbench_tellers_pkey  |           245760
 2017-02-05 19:40:49.140481+01 | 1486320049.14048 | pgbench_accounts_pkey |       2246197248

 2017-02-05 19:40:50.217227+01 | 1486320050.21723 | pgbench_branches_pkey |            40960
 2017-02-05 19:40:50.217227+01 | 1486320050.21723 | pgbench_tellers_pkey  |           245760
 2017-02-05 19:40:50.217227+01 | 1486320050.21723 | pgbench_accounts_pkey |       2246197248

 2017-02-05 19:40:51.296019+01 | 1486320051.29602 | pgbench_branches_pkey |            40960
 2017-02-05 19:40:51.296019+01 | 1486320051.29602 | pgbench_tellers_pkey  |           245760
 2017-02-05 19:40:51.296019+01 | 1486320051.29602 | pgbench_accounts_pkey |       2246197248

 2017-02-05 19:40:52.37097+01 | 1486320052.37097 | pgbench_branches_pkey |            40960
 2017-02-05 19:40:52.37097+01 | 1486320052.37097 | pgbench_tellers_pkey  |           245760
 2017-02-05 19:40:52.37097+01 | 1486320052.37097 | pgbench_accounts_pkey |       2246197248

 2017-02-05 19:40:53.448355+01 | 1486320053.44835 | pgbench_branches_pkey |            40960
 2017-02-05 19:40:53.448355+01 | 1486320053.44835 | pgbench_tellers_pkey  |           245760
 2017-02-05 19:40:53.448355+01 | 1486320053.44835 | pgbench_accounts_pkey |       2246197248

 2017-02-05 19:40:54.524724+01 | 1486320054.52472 | pgbench_branches_pkey |            40960
 2017-02-05 19:40:54.524724+01 | 1486320054.52472 | pgbench_tellers_pkey  |           245760
 2017-02-05 19:40:54.524724+01 | 1486320054.52472 | pgbench_accounts_pkey |       2246197248

 2017-02-05 19:40:55.599436+01 | 1486320055.59944 | pgbench_branches_pkey |            40960
 2017-02-05 19:40:55.599436+01 | 1486320055.59944 | pgbench_tellers_pkey  |           245760
 2017-02-05 19:40:55.599436+01 | 1486320055.59944 | pgbench_accounts_pkey |       2246197248

 2017-02-05 19:40:56.669855+01 | 1486320056.66986 | pgbench_branches_pkey |            40960
 2017-02-05 19:40:56.669855+01 | 1486320056.66986 | pgbench_tellers_pkey  |           245760
 2017-02-05 19:40:56.669855+01 | 1486320056.66986 | pgbench_accounts_pkey |       2246197248

 2017-02-05 19:40:57.745109+01 | 1486320057.74511 | pgbench_branches_pkey |            40960
 2017-02-05 19:40:57.745109+01 | 1486320057.74511 | pgbench_tellers_pkey  |           245760
 2017-02-05 19:40:57.745109+01 | 1486320057.74511 | pgbench_accounts_pkey |       2246197248

 2017-02-05 19:40:58.823062+01 | 1486320058.82306 | pgbench_branches_pkey |            40960
 2017-02-05 19:40:58.823062+01 | 1486320058.82306 | pgbench_tellers_pkey  |           245760
 2017-02-05 19:40:58.823062+01 | 1486320058.82306 | pgbench_accounts_pkey |       2246197248

 2017-02-05 19:40:59.895612+01 | 1486320059.89561 | pgbench_branches_pkey |            40960
 2017-02-05 19:40:59.895612+01 | 1486320059.89561 | pgbench_tellers_pkey  |           245760
 2017-02-05 19:40:59.895612+01 | 1486320059.89561 | pgbench_accounts_pkey |       2246197248

 2017-02-05 19:41:00.979729+01 | 1486320060.97973 | pgbench_branches_pkey |            40960
 2017-02-05 19:41:00.979729+01 | 1486320060.97973 | pgbench_tellers_pkey  |           245760
 2017-02-05 19:41:00.979729+01 | 1486320060.97973 | pgbench_accounts_pkey |       2246197248

 2017-02-05 19:41:02.056604+01 | 1486320062.0566 | pgbench_branches_pkey |            40960
 2017-02-05 19:41:02.056604+01 | 1486320062.0566 | pgbench_tellers_pkey  |           245760
 2017-02-05 19:41:02.056604+01 | 1486320062.0566 | pgbench_accounts_pkey |       2246197248

 2017-02-05 19:41:03.132142+01 | 1486320063.13214 | pgbench_branches_pkey |            40960
 2017-02-05 19:41:03.132142+01 | 1486320063.13214 | pgbench_tellers_pkey  |           245760
 2017-02-05 19:41:03.132142+01 | 1486320063.13214 | pgbench_accounts_pkey |       2246197248

 2017-02-05 19:41:04.204512+01 | 1486320064.20451 | pgbench_branches_pkey |            40960
 2017-02-05 19:41:04.204512+01 | 1486320064.20451 | pgbench_tellers_pkey  |           245760
 2017-02-05 19:41:04.204512+01 | 1486320064.20451 | pgbench_accounts_pkey |       2246197248

 2017-02-05 19:41:05.293443+01 | 1486320065.29344 | pgbench_branches_pkey |            40960
 2017-02-05 19:41:05.293443+01 | 1486320065.29344 | pgbench_tellers_pkey  |           245760
 2017-02-05 19:41:05.293443+01 | 1486320065.29344 | pgbench_accounts_pkey |       2246197248

 2017-02-05 19:41:06.368651+01 | 1486320066.36865 | pgbench_branches_pkey |            40960
 2017-02-05 19:41:06.368651+01 | 1486320066.36865 | pgbench_tellers_pkey  |           245760
 2017-02-05 19:41:06.368651+01 | 1486320066.36865 | pgbench_accounts_pkey |       2246197248

 2017-02-05 19:41:07.446574+01 | 1486320067.44657 | pgbench_branches_pkey |            40960
 2017-02-05 19:41:07.446574+01 | 1486320067.44657 | pgbench_tellers_pkey  |           245760
 2017-02-05 19:41:07.446574+01 | 1486320067.44657 | pgbench_accounts_pkey |       2246197248

 2017-02-05 19:41:08.51918+01 | 1486320068.51918 | pgbench_branches_pkey |            40960
 2017-02-05 19:41:08.51918+01 | 1486320068.51918 | pgbench_tellers_pkey  |           245760
 2017-02-05 19:41:08.51918+01 | 1486320068.51918 | pgbench_accounts_pkey |       2246197248

 2017-02-05 19:41:09.59179+01 | 1486320069.59179 | pgbench_branches_pkey |            40960
 2017-02-05 19:41:09.59179+01 | 1486320069.59179 | pgbench_tellers_pkey  |           245760
 2017-02-05 19:41:09.59179+01 | 1486320069.59179 | pgbench_accounts_pkey |       2246197248

 2017-02-05 19:41:10.663794+01 | 1486320070.66379 | pgbench_branches_pkey |            40960
 2017-02-05 19:41:10.663794+01 | 1486320070.66379 | pgbench_tellers_pkey  |           245760
 2017-02-05 19:41:10.663794+01 | 1486320070.66379 | pgbench_accounts_pkey |       2246197248

 2017-02-05 19:41:11.741338+01 | 1486320071.74134 | pgbench_branches_pkey |            40960
 2017-02-05 19:41:11.741338+01 | 1486320071.74134 | pgbench_tellers_pkey  |           245760
 2017-02-05 19:41:11.741338+01 | 1486320071.74134 | pgbench_accounts_pkey |       2246197248

 2017-02-05 19:41:12.820215+01 | 1486320072.82021 | pgbench_branches_pkey |            40960
 2017-02-05 19:41:12.820215+01 | 1486320072.82021 | pgbench_tellers_pkey  |           245760
 2017-02-05 19:41:12.820215+01 | 1486320072.82021 | pgbench_accounts_pkey |       2246197248

 2017-02-05 19:41:13.892399+01 | 1486320073.8924 | pgbench_branches_pkey |            40960
 2017-02-05 19:41:13.892399+01 | 1486320073.8924 | pgbench_tellers_pkey  |           245760
 2017-02-05 19:41:13.892399+01 | 1486320073.8924 | pgbench_accounts_pkey |       2246197248

 2017-02-05 19:41:14.960958+01 | 1486320074.96096 | pgbench_branches_pkey |            40960
 2017-02-05 19:41:14.960958+01 | 1486320074.96096 | pgbench_tellers_pkey  |           245760
 2017-02-05 19:41:14.960958+01 | 1486320074.96096 | pgbench_accounts_pkey |       2246197248

 2017-02-05 19:41:16.03605+01 | 1486320076.03605 | pgbench_branches_pkey |            40960
 2017-02-05 19:41:16.03605+01 | 1486320076.03605 | pgbench_tellers_pkey  |           245760
 2017-02-05 19:41:16.03605+01 | 1486320076.03605 | pgbench_accounts_pkey |       2246197248

 2017-02-05 19:41:17.11347+01 | 1486320077.11347 | pgbench_branches_pkey |            40960
 2017-02-05 19:41:17.11347+01 | 1486320077.11347 | pgbench_tellers_pkey  |           245760
 2017-02-05 19:41:17.11347+01 | 1486320077.11347 | pgbench_accounts_pkey |       2246197248

 2017-02-05 19:41:18.183725+01 | 1486320078.18373 | pgbench_branches_pkey |            40960
 2017-02-05 19:41:18.183725+01 | 1486320078.18373 | pgbench_tellers_pkey  |           245760
 2017-02-05 19:41:18.183725+01 | 1486320078.18373 | pgbench_accounts_pkey |       2246197248

 2017-02-05 19:41:19.258714+01 | 1486320079.25871 | pgbench_branches_pkey |            40960
 2017-02-05 19:41:19.258714+01 | 1486320079.25871 | pgbench_tellers_pkey  |           245760
 2017-02-05 19:41:19.258714+01 | 1486320079.25871 | pgbench_accounts_pkey |       2246197248

 2017-02-05 19:41:20.333732+01 | 1486320080.33373 | pgbench_branches_pkey |            40960
 2017-02-05 19:41:20.333732+01 | 1486320080.33373 | pgbench_tellers_pkey  |           245760
 2017-02-05 19:41:20.333732+01 | 1486320080.33373 | pgbench_accounts_pkey |       2246197248

 2017-02-05 19:41:21.409934+01 | 1486320081.40993 | pgbench_branches_pkey |            40960
 2017-02-05 19:41:21.409934+01 | 1486320081.40993 | pgbench_tellers_pkey  |           245760
 2017-02-05 19:41:21.409934+01 | 1486320081.40993 | pgbench_accounts_pkey |       2246197248

 2017-02-05 19:41:22.486862+01 | 1486320082.48686 | pgbench_branches_pkey |            40960
 2017-02-05 19:41:22.486862+01 | 1486320082.48686 | pgbench_tellers_pkey  |           245760
 2017-02-05 19:41:22.486862+01 | 1486320082.48686 | pgbench_accounts_pkey |       2246197248

 2017-02-05 19:41:23.567621+01 | 1486320083.56762 | pgbench_branches_pkey |            40960
 2017-02-05 19:41:23.567621+01 | 1486320083.56762 | pgbench_tellers_pkey  |           245760
 2017-02-05 19:41:23.567621+01 | 1486320083.56762 | pgbench_accounts_pkey |       2246197248

 2017-02-05 19:41:24.642065+01 | 1486320084.64207 | pgbench_branches_pkey |            40960
 2017-02-05 19:41:24.642065+01 | 1486320084.64207 | pgbench_tellers_pkey  |           245760
 2017-02-05 19:41:24.642065+01 | 1486320084.64207 | pgbench_accounts_pkey |       2246197248

 2017-02-05 19:41:25.717897+01 | 1486320085.7179 | pgbench_branches_pkey |            40960
 2017-02-05 19:41:25.717897+01 | 1486320085.7179 | pgbench_tellers_pkey  |           245760
 2017-02-05 19:41:25.717897+01 | 1486320085.7179 | pgbench_accounts_pkey |       2246197248

 2017-02-05 19:41:26.799334+01 | 1486320086.79933 | pgbench_branches_pkey |            40960
 2017-02-05 19:41:26.799334+01 | 1486320086.79933 | pgbench_tellers_pkey  |           245760
 2017-02-05 19:41:26.799334+01 | 1486320086.79933 | pgbench_accounts_pkey |       2246197248

 2017-02-05 19:41:27.873311+01 | 1486320087.87331 | pgbench_branches_pkey |            40960
 2017-02-05 19:41:27.873311+01 | 1486320087.87331 | pgbench_tellers_pkey  |           245760
 2017-02-05 19:41:27.873311+01 | 1486320087.87331 | pgbench_accounts_pkey |       2246197248

 2017-02-05 19:41:28.948321+01 | 1486320088.94832 | pgbench_branches_pkey |            40960
 2017-02-05 19:41:28.948321+01 | 1486320088.94832 | pgbench_tellers_pkey  |           245760
 2017-02-05 19:41:28.948321+01 | 1486320088.94832 | pgbench_accounts_pkey |       2246197248

 2017-02-05 19:41:30.020453+01 | 1486320090.02045 | pgbench_branches_pkey |            40960
 2017-02-05 19:41:30.020453+01 | 1486320090.02045 | pgbench_tellers_pkey  |           245760
 2017-02-05 19:41:30.020453+01 | 1486320090.02045 | pgbench_accounts_pkey |       2246197248

 2017-02-05 19:41:31.099734+01 | 1486320091.09973 | pgbench_branches_pkey |            40960
 2017-02-05 19:41:31.099734+01 | 1486320091.09973 | pgbench_tellers_pkey  |           245760
 2017-02-05 19:41:31.099734+01 | 1486320091.09973 | pgbench_accounts_pkey |       2246197248

 2017-02-05 19:41:32.179571+01 | 1486320092.17957 | pgbench_branches_pkey |            40960
 2017-02-05 19:41:32.179571+01 | 1486320092.17957 | pgbench_tellers_pkey  |           245760
 2017-02-05 19:41:32.179571+01 | 1486320092.17957 | pgbench_accounts_pkey |       2246197248

 2017-02-05 19:41:33.252922+01 | 1486320093.25292 | pgbench_branches_pkey |            40960
 2017-02-05 19:41:33.252922+01 | 1486320093.25292 | pgbench_tellers_pkey  |           245760
 2017-02-05 19:41:33.252922+01 | 1486320093.25292 | pgbench_accounts_pkey |       2246197248

 2017-02-05 19:41:34.319263+01 | 1486320094.31926 | pgbench_branches_pkey |            40960
 2017-02-05 19:41:34.319263+01 | 1486320094.31926 | pgbench_tellers_pkey  |           245760
 2017-02-05 19:41:34.319263+01 | 1486320094.31926 | pgbench_accounts_pkey |       2246197248

 2017-02-05 19:41:35.39931+01 | 1486320095.39931 | pgbench_branches_pkey |            40960
 2017-02-05 19:41:35.39931+01 | 1486320095.39931 | pgbench_tellers_pkey  |           245760
 2017-02-05 19:41:35.39931+01 | 1486320095.39931 | pgbench_accounts_pkey |       2246197248

 2017-02-05 19:41:36.470151+01 | 1486320096.47015 | pgbench_branches_pkey |            40960
 2017-02-05 19:41:36.470151+01 | 1486320096.47015 | pgbench_tellers_pkey  |           245760
 2017-02-05 19:41:36.470151+01 | 1486320096.47015 | pgbench_accounts_pkey |       2246197248

 2017-02-05 19:41:37.542489+01 | 1486320097.54249 | pgbench_branches_pkey |            40960
 2017-02-05 19:41:37.542489+01 | 1486320097.54249 | pgbench_tellers_pkey  |           245760
 2017-02-05 19:41:37.542489+01 | 1486320097.54249 | pgbench_accounts_pkey |       2246197248

 2017-02-05 19:41:38.615315+01 | 1486320098.61531 | pgbench_branches_pkey |            40960
 2017-02-05 19:41:38.615315+01 | 1486320098.61531 | pgbench_tellers_pkey  |           245760
 2017-02-05 19:41:38.615315+01 | 1486320098.61531 | pgbench_accounts_pkey |       2246197248

 2017-02-05 19:41:39.69041+01 | 1486320099.69041 | pgbench_branches_pkey |            40960
 2017-02-05 19:41:39.69041+01 | 1486320099.69041 | pgbench_tellers_pkey  |           245760
 2017-02-05 19:41:39.69041+01 | 1486320099.69041 | pgbench_accounts_pkey |       2246197248

 2017-02-05 19:41:40.763816+01 | 1486320100.76382 | pgbench_branches_pkey |            40960
 2017-02-05 19:41:40.763816+01 | 1486320100.76382 | pgbench_tellers_pkey  |           245760
 2017-02-05 19:41:40.763816+01 | 1486320100.76382 | pgbench_accounts_pkey |       2246197248

 2017-02-05 19:41:41.839186+01 | 1486320101.83919 | pgbench_branches_pkey |            40960
 2017-02-05 19:41:41.839186+01 | 1486320101.83919 | pgbench_tellers_pkey  |           245760
 2017-02-05 19:41:41.839186+01 | 1486320101.83919 | pgbench_accounts_pkey |       2246197248

 2017-02-05 19:41:42.918152+01 | 1486320102.91815 | pgbench_branches_pkey |            40960
 2017-02-05 19:41:42.918152+01 | 1486320102.91815 | pgbench_tellers_pkey  |           245760
 2017-02-05 19:41:42.918152+01 | 1486320102.91815 | pgbench_accounts_pkey |       2246197248

 2017-02-05 19:41:43.993257+01 | 1486320103.99326 | pgbench_branches_pkey |            40960
 2017-02-05 19:41:43.993257+01 | 1486320103.99326 | pgbench_tellers_pkey  |           245760
 2017-02-05 19:41:43.993257+01 | 1486320103.99326 | pgbench_accounts_pkey |       2246197248

 2017-02-05 19:41:45.071557+01 | 1486320105.07156 | pgbench_branches_pkey |            40960
 2017-02-05 19:41:45.071557+01 | 1486320105.07156 | pgbench_tellers_pkey  |           245760
 2017-02-05 19:41:45.071557+01 | 1486320105.07156 | pgbench_accounts_pkey |       2246197248

 2017-02-05 19:41:46.147785+01 | 1486320106.14778 | pgbench_branches_pkey |            40960
 2017-02-05 19:41:46.147785+01 | 1486320106.14778 | pgbench_tellers_pkey  |           245760
 2017-02-05 19:41:46.147785+01 | 1486320106.14778 | pgbench_accounts_pkey |       2246197248

 2017-02-05 19:41:47.222134+01 | 1486320107.22213 | pgbench_branches_pkey |            40960
 2017-02-05 19:41:47.222134+01 | 1486320107.22213 | pgbench_tellers_pkey  |           245760
 2017-02-05 19:41:47.222134+01 | 1486320107.22213 | pgbench_accounts_pkey |       2246197248

 2017-02-05 19:41:48.299759+01 | 1486320108.29976 | pgbench_branches_pkey |            40960
 2017-02-05 19:41:48.299759+01 | 1486320108.29976 | pgbench_tellers_pkey  |           245760
 2017-02-05 19:41:48.299759+01 | 1486320108.29976 | pgbench_accounts_pkey |       2246197248

 2017-02-05 19:41:49.372175+01 | 1486320109.37217 | pgbench_branches_pkey |            40960
 2017-02-05 19:41:49.372175+01 | 1486320109.37217 | pgbench_tellers_pkey  |           245760
 2017-02-05 19:41:49.372175+01 | 1486320109.37217 | pgbench_accounts_pkey |       2246197248

 2017-02-05 19:41:50.437926+01 | 1486320110.43793 | pgbench_branches_pkey |            40960
 2017-02-05 19:41:50.437926+01 | 1486320110.43793 | pgbench_tellers_pkey  |           245760
 2017-02-05 19:41:50.437926+01 | 1486320110.43793 | pgbench_accounts_pkey |       2246197248

 2017-02-05 19:41:51.511294+01 | 1486320111.51129 | pgbench_branches_pkey |            40960
 2017-02-05 19:41:51.511294+01 | 1486320111.51129 | pgbench_tellers_pkey  |           245760
 2017-02-05 19:41:51.511294+01 | 1486320111.51129 | pgbench_accounts_pkey |       2246197248

 2017-02-05 19:41:52.585034+01 | 1486320112.58503 | pgbench_branches_pkey |            40960
 2017-02-05 19:41:52.585034+01 | 1486320112.58503 | pgbench_tellers_pkey  |           245760
 2017-02-05 19:41:52.585034+01 | 1486320112.58503 | pgbench_accounts_pkey |       2246197248

 2017-02-05 19:41:53.667211+01 | 1486320113.66721 | pgbench_branches_pkey |            40960
 2017-02-05 19:41:53.667211+01 | 1486320113.66721 | pgbench_tellers_pkey  |           245760
 2017-02-05 19:41:53.667211+01 | 1486320113.66721 | pgbench_accounts_pkey |       2246197248

 2017-02-05 19:41:54.738506+01 | 1486320114.73851 | pgbench_branches_pkey |            40960
 2017-02-05 19:41:54.738506+01 | 1486320114.73851 | pgbench_tellers_pkey  |           245760
 2017-02-05 19:41:54.738506+01 | 1486320114.73851 | pgbench_accounts_pkey |       2246197248

 2017-02-05 19:41:55.800337+01 | 1486320115.80034 | pgbench_branches_pkey |            40960
 2017-02-05 19:41:55.800337+01 | 1486320115.80034 | pgbench_tellers_pkey  |           245760
 2017-02-05 19:41:55.800337+01 | 1486320115.80034 | pgbench_accounts_pkey |       2246197248

 2017-02-05 19:41:56.877608+01 | 1486320116.87761 | pgbench_branches_pkey |            40960
 2017-02-05 19:41:56.877608+01 | 1486320116.87761 | pgbench_tellers_pkey  |           245760
 2017-02-05 19:41:56.877608+01 | 1486320116.87761 | pgbench_accounts_pkey |       2246197248

 2017-02-05 19:41:57.945128+01 | 1486320117.94513 | pgbench_branches_pkey |            40960
 2017-02-05 19:41:57.945128+01 | 1486320117.94513 | pgbench_tellers_pkey  |           245760
 2017-02-05 19:41:57.945128+01 | 1486320117.94513 | pgbench_accounts_pkey |       2246197248

 2017-02-05 19:41:59.025013+01 | 1486320119.02501 | pgbench_branches_pkey |            40960
 2017-02-05 19:41:59.025013+01 | 1486320119.02501 | pgbench_tellers_pkey  |           245760
 2017-02-05 19:41:59.025013+01 | 1486320119.02501 | pgbench_accounts_pkey |       2246197248

 2017-02-05 19:42:00.09617+01 | 1486320120.09617 | pgbench_branches_pkey |            40960
 2017-02-05 19:42:00.09617+01 | 1486320120.09617 | pgbench_tellers_pkey  |           245760
 2017-02-05 19:42:00.09617+01 | 1486320120.09617 | pgbench_accounts_pkey |       2246197248

 2017-02-05 19:42:01.170835+01 | 1486320121.17084 | pgbench_branches_pkey |            40960
 2017-02-05 19:42:01.170835+01 | 1486320121.17084 | pgbench_tellers_pkey  |           245760
 2017-02-05 19:42:01.170835+01 | 1486320121.17084 | pgbench_accounts_pkey |       2246197248

 2017-02-05 19:42:02.244646+01 | 1486320122.24465 | pgbench_branches_pkey |            40960
 2017-02-05 19:42:02.244646+01 | 1486320122.24465 | pgbench_tellers_pkey  |           245760
 2017-02-05 19:42:02.244646+01 | 1486320122.24465 | pgbench_accounts_pkey |       2246197248

 2017-02-05 19:42:03.312459+01 | 1486320123.31246 | pgbench_branches_pkey |            40960
 2017-02-05 19:42:03.312459+01 | 1486320123.31246 | pgbench_tellers_pkey  |           245760
 2017-02-05 19:42:03.312459+01 | 1486320123.31246 | pgbench_accounts_pkey |       2246197248

 2017-02-05 19:42:04.387388+01 | 1486320124.38739 | pgbench_branches_pkey |            40960
 2017-02-05 19:42:04.387388+01 | 1486320124.38739 | pgbench_tellers_pkey  |           245760
 2017-02-05 19:42:04.387388+01 | 1486320124.38739 | pgbench_accounts_pkey |       2246197248

 2017-02-05 19:42:05.461767+01 | 1486320125.46177 | pgbench_branches_pkey |            40960
 2017-02-05 19:42:05.461767+01 | 1486320125.46177 | pgbench_tellers_pkey  |           245760
 2017-02-05 19:42:05.461767+01 | 1486320125.46177 | pgbench_accounts_pkey |       2246197248

 2017-02-05 19:42:06.536999+01 | 1486320126.537 | pgbench_branches_pkey |            40960
 2017-02-05 19:42:06.536999+01 | 1486320126.537 | pgbench_tellers_pkey  |           245760
 2017-02-05 19:42:06.536999+01 | 1486320126.537 | pgbench_accounts_pkey |       2246197248

 2017-02-05 19:42:07.611555+01 | 1486320127.61156 | pgbench_branches_pkey |            40960
 2017-02-05 19:42:07.611555+01 | 1486320127.61156 | pgbench_tellers_pkey  |           245760
 2017-02-05 19:42:07.611555+01 | 1486320127.61156 | pgbench_accounts_pkey |       2246197248

 2017-02-05 19:42:08.688546+01 | 1486320128.68855 | pgbench_branches_pkey |            40960
 2017-02-05 19:42:08.688546+01 | 1486320128.68855 | pgbench_tellers_pkey  |           245760
 2017-02-05 19:42:08.688546+01 | 1486320128.68855 | pgbench_accounts_pkey |       2246197248

 2017-02-05 19:42:09.765248+01 | 1486320129.76525 | pgbench_branches_pkey |            40960
 2017-02-05 19:42:09.765248+01 | 1486320129.76525 | pgbench_tellers_pkey  |           245760
 2017-02-05 19:42:09.765248+01 | 1486320129.76525 | pgbench_accounts_pkey |       2246197248

 2017-02-05 19:42:10.83774+01 | 1486320130.83774 | pgbench_branches_pkey |            40960
 2017-02-05 19:42:10.83774+01 | 1486320130.83774 | pgbench_tellers_pkey  |           245760
 2017-02-05 19:42:10.83774+01 | 1486320130.83774 | pgbench_accounts_pkey |       2246197248

 2017-02-05 19:42:11.91048+01 | 1486320131.91048 | pgbench_branches_pkey |            40960
 2017-02-05 19:42:11.91048+01 | 1486320131.91048 | pgbench_tellers_pkey  |           245760
 2017-02-05 19:42:11.91048+01 | 1486320131.91048 | pgbench_accounts_pkey |       2246197248

 2017-02-05 19:42:12.977564+01 | 1486320132.97756 | pgbench_branches_pkey |            40960
 2017-02-05 19:42:12.977564+01 | 1486320132.97756 | pgbench_tellers_pkey  |           245760
 2017-02-05 19:42:12.977564+01 | 1486320132.97756 | pgbench_accounts_pkey |       2246197248

 2017-02-05 19:42:14.05092+01 | 1486320134.05092 | pgbench_branches_pkey |            40960
 2017-02-05 19:42:14.05092+01 | 1486320134.05092 | pgbench_tellers_pkey  |           245760
 2017-02-05 19:42:14.05092+01 | 1486320134.05092 | pgbench_accounts_pkey |       2246197248

 2017-02-05 19:42:15.123961+01 | 1486320135.12396 | pgbench_branches_pkey |            40960
 2017-02-05 19:42:15.123961+01 | 1486320135.12396 | pgbench_tellers_pkey  |           245760
 2017-02-05 19:42:15.123961+01 | 1486320135.12396 | pgbench_accounts_pkey |       2246197248

 2017-02-05 19:42:16.199321+01 | 1486320136.19932 | pgbench_branches_pkey |            40960
 2017-02-05 19:42:16.199321+01 | 1486320136.19932 | pgbench_tellers_pkey  |           245760
 2017-02-05 19:42:16.199321+01 | 1486320136.19932 | pgbench_accounts_pkey |       2246197248

 2017-02-05 19:42:17.274626+01 | 1486320137.27463 | pgbench_branches_pkey |            40960
 2017-02-05 19:42:17.274626+01 | 1486320137.27463 | pgbench_tellers_pkey  |           245760
 2017-02-05 19:42:17.274626+01 | 1486320137.27463 | pgbench_accounts_pkey |       2246197248

 2017-02-05 19:42:18.348962+01 | 1486320138.34896 | pgbench_branches_pkey |            40960
 2017-02-05 19:42:18.348962+01 | 1486320138.34896 | pgbench_tellers_pkey  |           245760
 2017-02-05 19:42:18.348962+01 | 1486320138.34896 | pgbench_accounts_pkey |       2246197248

 2017-02-05 19:42:19.422013+01 | 1486320139.42201 | pgbench_branches_pkey |            40960
 2017-02-05 19:42:19.422013+01 | 1486320139.42201 | pgbench_tellers_pkey  |           245760
 2017-02-05 19:42:19.422013+01 | 1486320139.42201 | pgbench_accounts_pkey |       2246197248

 2017-02-05 19:42:20.498509+01 | 1486320140.49851 | pgbench_branches_pkey |            40960
 2017-02-05 19:42:20.498509+01 | 1486320140.49851 | pgbench_tellers_pkey  |           245760
 2017-02-05 19:42:20.498509+01 | 1486320140.49851 | pgbench_accounts_pkey |       2246197248

 2017-02-05 19:42:21.576074+01 | 1486320141.57607 | pgbench_branches_pkey |            40960
 2017-02-05 19:42:21.576074+01 | 1486320141.57607 | pgbench_tellers_pkey  |           245760
 2017-02-05 19:42:21.576074+01 | 1486320141.57607 | pgbench_accounts_pkey |       2246197248

 2017-02-05 19:42:22.647197+01 | 1486320142.6472 | pgbench_branches_pkey |            40960
 2017-02-05 19:42:22.647197+01 | 1486320142.6472 | pgbench_tellers_pkey  |           245760
 2017-02-05 19:42:22.647197+01 | 1486320142.6472 | pgbench_accounts_pkey |       2246197248

 2017-02-05 19:42:23.73154+01 | 1486320143.73154 | pgbench_branches_pkey |            40960
 2017-02-05 19:42:23.73154+01 | 1486320143.73154 | pgbench_tellers_pkey  |           245760
 2017-02-05 19:42:23.73154+01 | 1486320143.73154 | pgbench_accounts_pkey |       2246197248

 2017-02-05 19:42:24.808331+01 | 1486320144.80833 | pgbench_branches_pkey |            40960
 2017-02-05 19:42:24.808331+01 | 1486320144.80833 | pgbench_tellers_pkey  |           245760
 2017-02-05 19:42:24.808331+01 | 1486320144.80833 | pgbench_accounts_pkey |       2246197248

 2017-02-05 19:42:25.880806+01 | 1486320145.88081 | pgbench_branches_pkey |            40960
 2017-02-05 19:42:25.880806+01 | 1486320145.88081 | pgbench_tellers_pkey  |           245760
 2017-02-05 19:42:25.880806+01 | 1486320145.88081 | pgbench_accounts_pkey |       2246197248

 2017-02-05 19:42:26.961552+01 | 1486320146.96155 | pgbench_branches_pkey |            40960
 2017-02-05 19:42:26.961552+01 | 1486320146.96155 | pgbench_tellers_pkey  |           245760
 2017-02-05 19:42:26.961552+01 | 1486320146.96155 | pgbench_accounts_pkey |       2246197248

 2017-02-05 19:42:28.046175+01 | 1486320148.04618 | pgbench_branches_pkey |            40960
 2017-02-05 19:42:28.046175+01 | 1486320148.04618 | pgbench_tellers_pkey  |           245760
 2017-02-05 19:42:28.046175+01 | 1486320148.04618 | pgbench_accounts_pkey |       2246197248

 2017-02-05 19:42:29.119243+01 | 1486320149.11924 | pgbench_branches_pkey |            40960
 2017-02-05 19:42:29.119243+01 | 1486320149.11924 | pgbench_tellers_pkey  |           245760
 2017-02-05 19:42:29.119243+01 | 1486320149.11924 | pgbench_accounts_pkey |       2246197248

 2017-02-05 19:42:30.203483+01 | 1486320150.20348 | pgbench_branches_pkey |            40960
 2017-02-05 19:42:30.203483+01 | 1486320150.20348 | pgbench_tellers_pkey  |           245760
 2017-02-05 19:42:30.203483+01 | 1486320150.20348 | pgbench_accounts_pkey |       2246197248

 2017-02-05 19:42:31.280005+01 | 1486320151.28 | pgbench_branches_pkey |            40960
 2017-02-05 19:42:31.280005+01 | 1486320151.28 | pgbench_tellers_pkey  |           245760
 2017-02-05 19:42:31.280005+01 | 1486320151.28 | pgbench_accounts_pkey |       2246197248

 2017-02-05 19:42:32.349877+01 | 1486320152.34988 | pgbench_branches_pkey |            40960
 2017-02-05 19:42:32.349877+01 | 1486320152.34988 | pgbench_tellers_pkey  |           245760
 2017-02-05 19:42:32.349877+01 | 1486320152.34988 | pgbench_accounts_pkey |       2246197248

 2017-02-05 19:42:33.4303+01 | 1486320153.4303 | pgbench_branches_pkey |            40960
 2017-02-05 19:42:33.4303+01 | 1486320153.4303 | pgbench_tellers_pkey  |           245760
 2017-02-05 19:42:33.4303+01 | 1486320153.4303 | pgbench_accounts_pkey |       2246197248

 2017-02-05 19:42:34.510276+01 | 1486320154.51028 | pgbench_branches_pkey |            40960
 2017-02-05 19:42:34.510276+01 | 1486320154.51028 | pgbench_tellers_pkey  |           245760
 2017-02-05 19:42:34.510276+01 | 1486320154.51028 | pgbench_accounts_pkey |       2246197248

 2017-02-05 19:42:35.583777+01 | 1486320155.58378 | pgbench_branches_pkey |            40960
 2017-02-05 19:42:35.583777+01 | 1486320155.58378 | pgbench_tellers_pkey  |           245760
 2017-02-05 19:42:35.583777+01 | 1486320155.58378 | pgbench_accounts_pkey |       2246197248

 2017-02-05 19:42:36.663609+01 | 1486320156.66361 | pgbench_branches_pkey |            40960
 2017-02-05 19:42:36.663609+01 | 1486320156.66361 | pgbench_tellers_pkey  |           245760
 2017-02-05 19:42:36.663609+01 | 1486320156.66361 | pgbench_accounts_pkey |       2246197248

 2017-02-05 19:42:37.739354+01 | 1486320157.73935 | pgbench_branches_pkey |            40960
 2017-02-05 19:42:37.739354+01 | 1486320157.73935 | pgbench_tellers_pkey  |           245760
 2017-02-05 19:42:37.739354+01 | 1486320157.73935 | pgbench_accounts_pkey |       2246197248

 2017-02-05 19:42:38.815217+01 | 1486320158.81522 | pgbench_branches_pkey |            40960
 2017-02-05 19:42:38.815217+01 | 1486320158.81522 | pgbench_tellers_pkey  |           245760
 2017-02-05 19:42:38.815217+01 | 1486320158.81522 | pgbench_accounts_pkey |       2246197248

 2017-02-05 19:42:39.886783+01 | 1486320159.88678 | pgbench_branches_pkey |            40960
 2017-02-05 19:42:39.886783+01 | 1486320159.88678 | pgbench_tellers_pkey  |           245760
 2017-02-05 19:42:39.886783+01 | 1486320159.88678 | pgbench_accounts_pkey |       2246197248

 2017-02-05 19:42:40.960985+01 | 1486320160.96098 | pgbench_branches_pkey |            40960
 2017-02-05 19:42:40.960985+01 | 1486320160.96098 | pgbench_tellers_pkey  |           245760
 2017-02-05 19:42:40.960985+01 | 1486320160.96098 | pgbench_accounts_pkey |       2246197248

 2017-02-05 19:42:42.037297+01 | 1486320162.0373 | pgbench_branches_pkey |            40960
 2017-02-05 19:42:42.037297+01 | 1486320162.0373 | pgbench_tellers_pkey  |           245760
 2017-02-05 19:42:42.037297+01 | 1486320162.0373 | pgbench_accounts_pkey |       2246197248

 2017-02-05 19:42:43.112389+01 | 1486320163.11239 | pgbench_branches_pkey |            40960
 2017-02-05 19:42:43.112389+01 | 1486320163.11239 | pgbench_tellers_pkey  |           245760
 2017-02-05 19:42:43.112389+01 | 1486320163.11239 | pgbench_accounts_pkey |       2246197248

 2017-02-05 19:42:44.194673+01 | 1486320164.19467 | pgbench_branches_pkey |            40960
 2017-02-05 19:42:44.194673+01 | 1486320164.19467 | pgbench_tellers_pkey  |           245760
 2017-02-05 19:42:44.194673+01 | 1486320164.19467 | pgbench_accounts_pkey |       2246197248

 2017-02-05 19:42:45.282699+01 | 1486320165.2827 | pgbench_branches_pkey |            40960
 2017-02-05 19:42:45.282699+01 | 1486320165.2827 | pgbench_tellers_pkey  |           245760
 2017-02-05 19:42:45.282699+01 | 1486320165.2827 | pgbench_accounts_pkey |       2246197248

 2017-02-05 19:42:46.360675+01 | 1486320166.36068 | pgbench_branches_pkey |            40960
 2017-02-05 19:42:46.360675+01 | 1486320166.36068 | pgbench_tellers_pkey  |           245760
 2017-02-05 19:42:46.360675+01 | 1486320166.36068 | pgbench_accounts_pkey |       2246197248

 2017-02-05 19:42:47.42943+01 | 1486320167.42943 | pgbench_branches_pkey |            40960
 2017-02-05 19:42:47.42943+01 | 1486320167.42943 | pgbench_tellers_pkey  |           245760
 2017-02-05 19:42:47.42943+01 | 1486320167.42943 | pgbench_accounts_pkey |       2246197248

 2017-02-05 19:42:48.501495+01 | 1486320168.50149 | pgbench_branches_pkey |            40960
 2017-02-05 19:42:48.501495+01 | 1486320168.50149 | pgbench_tellers_pkey  |           245760
 2017-02-05 19:42:48.501495+01 | 1486320168.50149 | pgbench_accounts_pkey |       2246197248

 2017-02-05 19:42:49.578785+01 | 1486320169.57878 | pgbench_branches_pkey |            40960
 2017-02-05 19:42:49.578785+01 | 1486320169.57878 | pgbench_tellers_pkey  |           245760
 2017-02-05 19:42:49.578785+01 | 1486320169.57878 | pgbench_accounts_pkey |       2246197248

 2017-02-05 19:42:50.656156+01 | 1486320170.65616 | pgbench_branches_pkey |            40960
 2017-02-05 19:42:50.656156+01 | 1486320170.65616 | pgbench_tellers_pkey  |           245760
 2017-02-05 19:42:50.656156+01 | 1486320170.65616 | pgbench_accounts_pkey |       2246197248

 2017-02-05 19:42:51.733215+01 | 1486320171.73322 | pgbench_branches_pkey |            40960
 2017-02-05 19:42:51.733215+01 | 1486320171.73322 | pgbench_tellers_pkey  |           245760
 2017-02-05 19:42:51.733215+01 | 1486320171.73322 | pgbench_accounts_pkey |       2246197248

