 2017-02-04 13:15:58.924377+01 | 1486210558.92438 | pgbench_accounts |       1378557952
 2017-02-04 13:15:58.924377+01 | 1486210558.92438 | pgbench_tellers  |          3842048
 2017-02-04 13:15:58.924377+01 | 1486210558.92438 | pgbench_history  |                0
 2017-02-04 13:15:58.924377+01 | 1486210558.92438 | pgbench_branches |          1785856

 2017-02-04 13:16:00.015972+01 | 1486210560.01597 | pgbench_accounts |       1378557952
 2017-02-04 13:16:00.015972+01 | 1486210560.01597 | pgbench_tellers  |          3842048
 2017-02-04 13:16:00.015972+01 | 1486210560.01597 | pgbench_history  |          1687552
 2017-02-04 13:16:00.015972+01 | 1486210560.01597 | pgbench_branches |          1785856

 2017-02-04 13:16:01.094111+01 | 1486210561.09411 | pgbench_accounts |       1378557952
 2017-02-04 13:16:01.094111+01 | 1486210561.09411 | pgbench_tellers  |          3842048
 2017-02-04 13:16:01.094111+01 | 1486210561.09411 | pgbench_history  |          3563520
 2017-02-04 13:16:01.094111+01 | 1486210561.09411 | pgbench_branches |          1785856

 2017-02-04 13:16:02.17186+01 | 1486210562.17186 | pgbench_accounts |       1378557952
 2017-02-04 13:16:02.17186+01 | 1486210562.17186 | pgbench_tellers  |          3842048
 2017-02-04 13:16:02.17186+01 | 1486210562.17186 | pgbench_history  |          5718016
 2017-02-04 13:16:02.17186+01 | 1486210562.17186 | pgbench_branches |          1785856

 2017-02-04 13:16:03.248093+01 | 1486210563.24809 | pgbench_accounts |       1378557952
 2017-02-04 13:16:03.248093+01 | 1486210563.24809 | pgbench_tellers  |          3842048
 2017-02-04 13:16:03.248093+01 | 1486210563.24809 | pgbench_history  |          7430144
 2017-02-04 13:16:03.248093+01 | 1486210563.24809 | pgbench_branches |          1785856

 2017-02-04 13:16:04.327732+01 | 1486210564.32773 | pgbench_accounts |       1378557952
 2017-02-04 13:16:04.327732+01 | 1486210564.32773 | pgbench_tellers  |          3842048
 2017-02-04 13:16:04.327732+01 | 1486210564.32773 | pgbench_history  |          9314304
 2017-02-04 13:16:04.327732+01 | 1486210564.32773 | pgbench_branches |          1785856

 2017-02-04 13:16:05.405502+01 | 1486210565.4055 | pgbench_accounts |       1378557952
 2017-02-04 13:16:05.405502+01 | 1486210565.4055 | pgbench_tellers  |          3842048
 2017-02-04 13:16:05.405502+01 | 1486210565.4055 | pgbench_history  |         11329536
 2017-02-04 13:16:05.405502+01 | 1486210565.4055 | pgbench_branches |          1785856

 2017-02-04 13:16:06.486443+01 | 1486210566.48644 | pgbench_accounts |       1378557952
 2017-02-04 13:16:06.486443+01 | 1486210566.48644 | pgbench_tellers  |          3842048
 2017-02-04 13:16:06.486443+01 | 1486210566.48644 | pgbench_history  |         13017088
 2017-02-04 13:16:06.486443+01 | 1486210566.48644 | pgbench_branches |          1785856

 2017-02-04 13:16:07.562439+01 | 1486210567.56244 | pgbench_accounts |       1378557952
 2017-02-04 13:16:07.562439+01 | 1486210567.56244 | pgbench_tellers  |          3842048
 2017-02-04 13:16:07.562439+01 | 1486210567.56244 | pgbench_history  |         16203776
 2017-02-04 13:16:07.562439+01 | 1486210567.56244 | pgbench_branches |          1785856

 2017-02-04 13:16:08.636295+01 | 1486210568.6363 | pgbench_accounts |       1378557952
 2017-02-04 13:16:08.636295+01 | 1486210568.6363 | pgbench_tellers  |          3842048
 2017-02-04 13:16:08.636295+01 | 1486210568.6363 | pgbench_history  |         17072128
 2017-02-04 13:16:08.636295+01 | 1486210568.6363 | pgbench_branches |          1785856

 2017-02-04 13:16:09.715394+01 | 1486210569.71539 | pgbench_accounts |       1378557952
 2017-02-04 13:16:09.715394+01 | 1486210569.71539 | pgbench_tellers  |          3842048
 2017-02-04 13:16:09.715394+01 | 1486210569.71539 | pgbench_history  |         19021824
 2017-02-04 13:16:09.715394+01 | 1486210569.71539 | pgbench_branches |          1785856

 2017-02-04 13:16:10.787111+01 | 1486210570.78711 | pgbench_accounts |       1378557952
 2017-02-04 13:16:10.787111+01 | 1486210570.78711 | pgbench_tellers  |          3842048
 2017-02-04 13:16:10.787111+01 | 1486210570.78711 | pgbench_history  |         21250048
 2017-02-04 13:16:10.787111+01 | 1486210570.78711 | pgbench_branches |          1785856

 2017-02-04 13:16:11.867773+01 | 1486210571.86777 | pgbench_accounts |       1378557952
 2017-02-04 13:16:11.867773+01 | 1486210571.86777 | pgbench_tellers  |          3842048
 2017-02-04 13:16:11.867773+01 | 1486210571.86777 | pgbench_history  |         23265280
 2017-02-04 13:16:11.867773+01 | 1486210571.86777 | pgbench_branches |          1785856

 2017-02-04 13:16:12.9459+01 | 1486210572.9459 | pgbench_accounts |       1378557952
 2017-02-04 13:16:12.9459+01 | 1486210572.9459 | pgbench_tellers  |          3842048
 2017-02-04 13:16:12.9459+01 | 1486210572.9459 | pgbench_history  |         25313280
 2017-02-04 13:16:12.9459+01 | 1486210572.9459 | pgbench_branches |          1785856

 2017-02-04 13:16:14.036941+01 | 1486210574.03694 | pgbench_accounts |       1378557952
 2017-02-04 13:16:14.036941+01 | 1486210574.03694 | pgbench_tellers  |          3842048
 2017-02-04 13:16:14.036941+01 | 1486210574.03694 | pgbench_history  |         27164672
 2017-02-04 13:16:14.036941+01 | 1486210574.03694 | pgbench_branches |          1785856

 2017-02-04 13:16:15.111907+01 | 1486210575.11191 | pgbench_accounts |       1378557952
 2017-02-04 13:16:15.111907+01 | 1486210575.11191 | pgbench_tellers  |          3842048
 2017-02-04 13:16:15.111907+01 | 1486210575.11191 | pgbench_history  |         30023680
 2017-02-04 13:16:15.111907+01 | 1486210575.11191 | pgbench_branches |          1785856

 2017-02-04 13:16:16.191031+01 | 1486210576.19103 | pgbench_accounts |       1378557952
 2017-02-04 13:16:16.191031+01 | 1486210576.19103 | pgbench_tellers  |          3842048
 2017-02-04 13:16:16.191031+01 | 1486210576.19103 | pgbench_history  |         31522816
 2017-02-04 13:16:16.191031+01 | 1486210576.19103 | pgbench_branches |          1785856

 2017-02-04 13:16:17.275515+01 | 1486210577.27552 | pgbench_accounts |       1378557952
 2017-02-04 13:16:17.275515+01 | 1486210577.27552 | pgbench_tellers  |          3842048
 2017-02-04 13:16:17.275515+01 | 1486210577.27552 | pgbench_history  |         34054144
 2017-02-04 13:16:17.275515+01 | 1486210577.27552 | pgbench_branches |          1785856

 2017-02-04 13:16:18.35273+01 | 1486210578.35273 | pgbench_accounts |       1378557952
 2017-02-04 13:16:18.35273+01 | 1486210578.35273 | pgbench_tellers  |          3842048
 2017-02-04 13:16:18.35273+01 | 1486210578.35273 | pgbench_history  |         35086336
 2017-02-04 13:16:18.35273+01 | 1486210578.35273 | pgbench_branches |          1785856

 2017-02-04 13:16:19.430112+01 | 1486210579.43011 | pgbench_accounts |       1378557952
 2017-02-04 13:16:19.430112+01 | 1486210579.43011 | pgbench_tellers  |          3842048
 2017-02-04 13:16:19.430112+01 | 1486210579.43011 | pgbench_history  |         37109760
 2017-02-04 13:16:19.430112+01 | 1486210579.43011 | pgbench_branches |          1785856

 2017-02-04 13:16:20.511386+01 | 1486210580.51139 | pgbench_accounts |       1378557952
 2017-02-04 13:16:20.511386+01 | 1486210580.51139 | pgbench_tellers  |          3842048
 2017-02-04 13:16:20.511386+01 | 1486210580.51139 | pgbench_history  |         39477248
 2017-02-04 13:16:20.511386+01 | 1486210580.51139 | pgbench_branches |          1785856

 2017-02-04 13:16:21.586234+01 | 1486210581.58623 | pgbench_accounts |       1378557952
 2017-02-04 13:16:21.586234+01 | 1486210581.58623 | pgbench_tellers  |          3842048
 2017-02-04 13:16:21.586234+01 | 1486210581.58623 | pgbench_history  |         41410560
 2017-02-04 13:16:21.586234+01 | 1486210581.58623 | pgbench_branches |          1785856

 2017-02-04 13:16:22.655628+01 | 1486210582.65563 | pgbench_accounts |       1378557952
 2017-02-04 13:16:22.655628+01 | 1486210582.65563 | pgbench_tellers  |          3842048
 2017-02-04 13:16:22.655628+01 | 1486210582.65563 | pgbench_history  |         43319296
 2017-02-04 13:16:22.655628+01 | 1486210582.65563 | pgbench_branches |          1785856

 2017-02-04 13:16:23.726898+01 | 1486210583.7269 | pgbench_accounts |       1378557952
 2017-02-04 13:16:23.726898+01 | 1486210583.7269 | pgbench_tellers  |          3842048
 2017-02-04 13:16:23.726898+01 | 1486210583.7269 | pgbench_history  |         45580288
 2017-02-04 13:16:23.726898+01 | 1486210583.7269 | pgbench_branches |          1785856

 2017-02-04 13:16:24.805943+01 | 1486210584.80594 | pgbench_accounts |       1378557952
 2017-02-04 13:16:24.805943+01 | 1486210584.80594 | pgbench_tellers  |          3842048
 2017-02-04 13:16:24.805943+01 | 1486210584.80594 | pgbench_history  |         48111616
 2017-02-04 13:16:24.805943+01 | 1486210584.80594 | pgbench_branches |          1785856

 2017-02-04 13:16:25.879692+01 | 1486210585.87969 | pgbench_accounts |       1378557952
 2017-02-04 13:16:25.879692+01 | 1486210585.87969 | pgbench_tellers  |          3842048
 2017-02-04 13:16:25.879692+01 | 1486210585.87969 | pgbench_history  |         49963008
 2017-02-04 13:16:25.879692+01 | 1486210585.87969 | pgbench_branches |          1785856

 2017-02-04 13:16:26.95841+01 | 1486210586.95841 | pgbench_accounts |       1378557952
 2017-02-04 13:16:26.95841+01 | 1486210586.95841 | pgbench_tellers  |          3842048
 2017-02-04 13:16:26.95841+01 | 1486210586.95841 | pgbench_history  |         51699712
 2017-02-04 13:16:26.95841+01 | 1486210586.95841 | pgbench_branches |          1785856

 2017-02-04 13:16:28.038235+01 | 1486210588.03823 | pgbench_accounts |       1378557952
 2017-02-04 13:16:28.038235+01 | 1486210588.03823 | pgbench_tellers  |          3842048
 2017-02-04 13:16:28.038235+01 | 1486210588.03823 | pgbench_history  |         54591488
 2017-02-04 13:16:28.038235+01 | 1486210588.03823 | pgbench_branches |          1785856

 2017-02-04 13:16:29.108068+01 | 1486210589.10807 | pgbench_accounts |       1378557952
 2017-02-04 13:16:29.108068+01 | 1486210589.10807 | pgbench_tellers  |          3842048
 2017-02-04 13:16:29.108068+01 | 1486210589.10807 | pgbench_history  |         55975936
 2017-02-04 13:16:29.108068+01 | 1486210589.10807 | pgbench_branches |          1785856

 2017-02-04 13:16:30.18411+01 | 1486210590.18411 | pgbench_accounts |       1378557952
 2017-02-04 13:16:30.18411+01 | 1486210590.18411 | pgbench_tellers  |          3842048
 2017-02-04 13:16:30.18411+01 | 1486210590.18411 | pgbench_history  |         57827328
 2017-02-04 13:16:30.18411+01 | 1486210590.18411 | pgbench_branches |          1785856

 2017-02-04 13:16:31.259193+01 | 1486210591.25919 | pgbench_accounts |       1378557952
 2017-02-04 13:16:31.259193+01 | 1486210591.25919 | pgbench_tellers  |          3842048
 2017-02-04 13:16:31.259193+01 | 1486210591.25919 | pgbench_history  |         60055552
 2017-02-04 13:16:31.259193+01 | 1486210591.25919 | pgbench_branches |          1785856

 2017-02-04 13:16:32.331406+01 | 1486210592.33141 | pgbench_accounts |       1378557952
 2017-02-04 13:16:32.331406+01 | 1486210592.33141 | pgbench_tellers  |          3842048
 2017-02-04 13:16:32.331406+01 | 1486210592.33141 | pgbench_history  |         62152704
 2017-02-04 13:16:32.331406+01 | 1486210592.33141 | pgbench_branches |          1785856

 2017-02-04 13:16:33.409556+01 | 1486210593.40956 | pgbench_accounts |       1378557952
 2017-02-04 13:16:33.409556+01 | 1486210593.40956 | pgbench_tellers  |          3842048
 2017-02-04 13:16:33.409556+01 | 1486210593.40956 | pgbench_history  |         64004096
 2017-02-04 13:16:33.409556+01 | 1486210593.40956 | pgbench_branches |          1785856

 2017-02-04 13:16:34.487423+01 | 1486210594.48742 | pgbench_accounts |       1378557952
 2017-02-04 13:16:34.487423+01 | 1486210594.48742 | pgbench_tellers  |          3842048
 2017-02-04 13:16:34.487423+01 | 1486210594.48742 | pgbench_history  |         66322432
 2017-02-04 13:16:34.487423+01 | 1486210594.48742 | pgbench_branches |          1785856

 2017-02-04 13:16:35.564247+01 | 1486210595.56425 | pgbench_accounts |       1378557952
 2017-02-04 13:16:35.564247+01 | 1486210595.56425 | pgbench_tellers  |          3842048
 2017-02-04 13:16:35.564247+01 | 1486210595.56425 | pgbench_history  |         68395008
 2017-02-04 13:16:35.564247+01 | 1486210595.56425 | pgbench_branches |          1785856

 2017-02-04 13:16:36.639364+01 | 1486210596.63936 | pgbench_accounts |       1378557952
 2017-02-04 13:16:36.639364+01 | 1486210596.63936 | pgbench_tellers  |          3842048
 2017-02-04 13:16:36.639364+01 | 1486210596.63936 | pgbench_history  |         69967872
 2017-02-04 13:16:36.639364+01 | 1486210596.63936 | pgbench_branches |          1785856

 2017-02-04 13:16:37.712694+01 | 1486210597.71269 | pgbench_accounts |       1378557952
 2017-02-04 13:16:37.712694+01 | 1486210597.71269 | pgbench_tellers  |          3842048
 2017-02-04 13:16:37.712694+01 | 1486210597.71269 | pgbench_history  |         71999488
 2017-02-04 13:16:37.712694+01 | 1486210597.71269 | pgbench_branches |          1785856

 2017-02-04 13:16:38.793724+01 | 1486210598.79372 | pgbench_accounts |       1378557952
 2017-02-04 13:16:38.793724+01 | 1486210598.79372 | pgbench_tellers  |          3842048
 2017-02-04 13:16:38.793724+01 | 1486210598.79372 | pgbench_history  |         74588160
 2017-02-04 13:16:38.793724+01 | 1486210598.79372 | pgbench_branches |          1785856

 2017-02-04 13:16:39.869433+01 | 1486210599.86943 | pgbench_accounts |       1378557952
 2017-02-04 13:16:39.869433+01 | 1486210599.86943 | pgbench_tellers  |          3842048
 2017-02-04 13:16:39.869433+01 | 1486210599.86943 | pgbench_history  |         76005376
 2017-02-04 13:16:39.869433+01 | 1486210599.86943 | pgbench_branches |          1785856

 2017-02-04 13:16:40.938896+01 | 1486210600.9389 | pgbench_accounts |       1378557952
 2017-02-04 13:16:40.938896+01 | 1486210600.9389 | pgbench_tellers  |          3842048
 2017-02-04 13:16:40.938896+01 | 1486210600.9389 | pgbench_history  |         78209024
 2017-02-04 13:16:40.938896+01 | 1486210600.9389 | pgbench_branches |          1785856

 2017-02-04 13:16:42.01488+01 | 1486210602.01488 | pgbench_accounts |       1378557952
 2017-02-04 13:16:42.01488+01 | 1486210602.01488 | pgbench_tellers  |          3842048
 2017-02-04 13:16:42.01488+01 | 1486210602.01488 | pgbench_history  |         80601088
 2017-02-04 13:16:42.01488+01 | 1486210602.01488 | pgbench_branches |          1785856

 2017-02-04 13:16:43.090675+01 | 1486210603.09068 | pgbench_accounts |       1378557952
 2017-02-04 13:16:43.090675+01 | 1486210603.09068 | pgbench_tellers  |          3842048
 2017-02-04 13:16:43.090675+01 | 1486210603.09068 | pgbench_history  |         82649088
 2017-02-04 13:16:43.090675+01 | 1486210603.09068 | pgbench_branches |          1785856

 2017-02-04 13:16:44.172952+01 | 1486210604.17295 | pgbench_accounts |       1378557952
 2017-02-04 13:16:44.172952+01 | 1486210604.17295 | pgbench_tellers  |          3842048
 2017-02-04 13:16:44.172952+01 | 1486210604.17295 | pgbench_history  |         84525056
 2017-02-04 13:16:44.172952+01 | 1486210604.17295 | pgbench_branches |          1785856

 2017-02-04 13:16:45.260047+01 | 1486210605.26005 | pgbench_accounts |       1378557952
 2017-02-04 13:16:45.260047+01 | 1486210605.26005 | pgbench_tellers  |          3842048
 2017-02-04 13:16:45.260047+01 | 1486210605.26005 | pgbench_history  |         86376448
 2017-02-04 13:16:45.260047+01 | 1486210605.26005 | pgbench_branches |          1785856

 2017-02-04 13:16:46.327768+01 | 1486210606.32777 | pgbench_accounts |       1378557952
 2017-02-04 13:16:46.327768+01 | 1486210606.32777 | pgbench_tellers  |          3842048
 2017-02-04 13:16:46.327768+01 | 1486210606.32777 | pgbench_history  |         88465408
 2017-02-04 13:16:46.327768+01 | 1486210606.32777 | pgbench_branches |          1785856

 2017-02-04 13:16:47.404764+01 | 1486210607.40476 | pgbench_accounts |       1378557952
 2017-02-04 13:16:47.404764+01 | 1486210607.40476 | pgbench_tellers  |          3842048
 2017-02-04 13:16:47.404764+01 | 1486210607.40476 | pgbench_history  |         90185728
 2017-02-04 13:16:47.404764+01 | 1486210607.40476 | pgbench_branches |          1785856

 2017-02-04 13:16:48.487094+01 | 1486210608.48709 | pgbench_accounts |       1378557952
 2017-02-04 13:16:48.487094+01 | 1486210608.48709 | pgbench_tellers  |          3842048
 2017-02-04 13:16:48.487094+01 | 1486210608.48709 | pgbench_history  |         92741632
 2017-02-04 13:16:48.487094+01 | 1486210608.48709 | pgbench_branches |          1785856

 2017-02-04 13:16:49.566937+01 | 1486210609.56694 | pgbench_accounts |       1378557952
 2017-02-04 13:16:49.566937+01 | 1486210609.56694 | pgbench_tellers  |          3842048
 2017-02-04 13:16:49.566937+01 | 1486210609.56694 | pgbench_history  |         94502912
 2017-02-04 13:16:49.566937+01 | 1486210609.56694 | pgbench_branches |          1785856

 2017-02-04 13:16:50.644065+01 | 1486210610.64406 | pgbench_accounts |       1378557952
 2017-02-04 13:16:50.644065+01 | 1486210610.64406 | pgbench_tellers  |          3842048
 2017-02-04 13:16:50.644065+01 | 1486210610.64406 | pgbench_history  |         96903168
 2017-02-04 13:16:50.644065+01 | 1486210610.64406 | pgbench_branches |          1785856

 2017-02-04 13:16:51.719215+01 | 1486210611.71921 | pgbench_accounts |       1378557952
 2017-02-04 13:16:51.719215+01 | 1486210611.71921 | pgbench_tellers  |          3842048
 2017-02-04 13:16:51.719215+01 | 1486210611.71921 | pgbench_history  |         98951168
 2017-02-04 13:16:51.719215+01 | 1486210611.71921 | pgbench_branches |          1785856

 2017-02-04 13:16:52.800119+01 | 1486210612.80012 | pgbench_accounts |       1378557952
 2017-02-04 13:16:52.800119+01 | 1486210612.80012 | pgbench_tellers  |          3842048
 2017-02-04 13:16:52.800119+01 | 1486210612.80012 | pgbench_history  |        101130240
 2017-02-04 13:16:52.800119+01 | 1486210612.80012 | pgbench_branches |          1785856

 2017-02-04 13:16:53.883132+01 | 1486210613.88313 | pgbench_accounts |       1378557952
 2017-02-04 13:16:53.883132+01 | 1486210613.88313 | pgbench_tellers  |          3842048
 2017-02-04 13:16:53.883132+01 | 1486210613.88313 | pgbench_history  |        102514688
 2017-02-04 13:16:53.883132+01 | 1486210613.88313 | pgbench_branches |          1785856

 2017-02-04 13:16:54.96097+01 | 1486210614.96097 | pgbench_accounts |       1378557952
 2017-02-04 13:16:54.96097+01 | 1486210614.96097 | pgbench_tellers  |          3842048
 2017-02-04 13:16:54.96097+01 | 1486210614.96097 | pgbench_history  |        104734720
 2017-02-04 13:16:54.96097+01 | 1486210614.96097 | pgbench_branches |          1785856

 2017-02-04 13:16:56.035694+01 | 1486210616.03569 | pgbench_accounts |       1378557952
 2017-02-04 13:16:56.035694+01 | 1486210616.03569 | pgbench_tellers  |          3842048
 2017-02-04 13:16:56.035694+01 | 1486210616.03569 | pgbench_history  |        106455040
 2017-02-04 13:16:56.035694+01 | 1486210616.03569 | pgbench_branches |          1785856

 2017-02-04 13:16:57.113802+01 | 1486210617.1138 | pgbench_accounts |       1378557952
 2017-02-04 13:16:57.113802+01 | 1486210617.1138 | pgbench_tellers  |          3842048
 2017-02-04 13:16:57.113802+01 | 1486210617.1138 | pgbench_history  |        108470272
 2017-02-04 13:16:57.113802+01 | 1486210617.1138 | pgbench_branches |          1785856

 2017-02-04 13:16:58.192774+01 | 1486210618.19277 | pgbench_accounts |       1378557952
 2017-02-04 13:16:58.192774+01 | 1486210618.19277 | pgbench_tellers  |          3842048
 2017-02-04 13:16:58.192774+01 | 1486210618.19277 | pgbench_history  |        110845952
 2017-02-04 13:16:58.192774+01 | 1486210618.19277 | pgbench_branches |          1785856

 2017-02-04 13:16:59.271066+01 | 1486210619.27107 | pgbench_accounts |       1378557952
 2017-02-04 13:16:59.271066+01 | 1486210619.27107 | pgbench_tellers  |          3842048
 2017-02-04 13:16:59.271066+01 | 1486210619.27107 | pgbench_history  |        112533504
 2017-02-04 13:16:59.271066+01 | 1486210619.27107 | pgbench_branches |          1785856

 2017-02-04 13:17:00.346903+01 | 1486210620.3469 | pgbench_accounts |       1378557952
 2017-02-04 13:17:00.346903+01 | 1486210620.3469 | pgbench_tellers  |          3842048
 2017-02-04 13:17:00.346903+01 | 1486210620.3469 | pgbench_history  |        114458624
 2017-02-04 13:17:00.346903+01 | 1486210620.3469 | pgbench_branches |          1785856

 2017-02-04 13:17:01.422422+01 | 1486210621.42242 | pgbench_accounts |       1378557952
 2017-02-04 13:17:01.422422+01 | 1486210621.42242 | pgbench_tellers  |          3842048
 2017-02-04 13:17:01.422422+01 | 1486210621.42242 | pgbench_history  |        116498432
 2017-02-04 13:17:01.422422+01 | 1486210621.42242 | pgbench_branches |          1785856

 2017-02-04 13:17:02.505376+01 | 1486210622.50538 | pgbench_accounts |       1378557952
 2017-02-04 13:17:02.505376+01 | 1486210622.50538 | pgbench_tellers  |          3842048
 2017-02-04 13:17:02.505376+01 | 1486210622.50538 | pgbench_history  |        119250944
 2017-02-04 13:17:02.505376+01 | 1486210622.50538 | pgbench_branches |          1785856

 2017-02-04 13:17:03.581003+01 | 1486210623.581 | pgbench_accounts |       1378557952
 2017-02-04 13:17:03.581003+01 | 1486210623.581 | pgbench_tellers  |          3842048
 2017-02-04 13:17:03.581003+01 | 1486210623.581 | pgbench_history  |        120102912
 2017-02-04 13:17:03.581003+01 | 1486210623.581 | pgbench_branches |          1785856

 2017-02-04 13:17:04.65544+01 | 1486210624.65544 | pgbench_accounts |       1378557952
 2017-02-04 13:17:04.65544+01 | 1486210624.65544 | pgbench_tellers  |          3842048
 2017-02-04 13:17:04.65544+01 | 1486210624.65544 | pgbench_history  |        121978880
 2017-02-04 13:17:04.65544+01 | 1486210624.65544 | pgbench_branches |          1785856

 2017-02-04 13:17:05.732393+01 | 1486210625.73239 | pgbench_accounts |       1378557952
 2017-02-04 13:17:05.732393+01 | 1486210625.73239 | pgbench_tellers  |          3842048
 2017-02-04 13:17:05.732393+01 | 1486210625.73239 | pgbench_history  |        124231680
 2017-02-04 13:17:05.732393+01 | 1486210625.73239 | pgbench_branches |          1785856

 2017-02-04 13:17:06.809025+01 | 1486210626.80903 | pgbench_accounts |       1378557952
 2017-02-04 13:17:06.809025+01 | 1486210626.80903 | pgbench_tellers  |          3842048
 2017-02-04 13:17:06.809025+01 | 1486210626.80903 | pgbench_history  |        126607360
 2017-02-04 13:17:06.809025+01 | 1486210626.80903 | pgbench_branches |          1785856

 2017-02-04 13:17:07.888647+01 | 1486210627.88865 | pgbench_accounts |       1378557952
 2017-02-04 13:17:07.888647+01 | 1486210627.88865 | pgbench_tellers  |          3842048
 2017-02-04 13:17:07.888647+01 | 1486210627.88865 | pgbench_history  |        127967232
 2017-02-04 13:17:07.888647+01 | 1486210627.88865 | pgbench_branches |          1785856

 2017-02-04 13:17:08.966004+01 | 1486210628.966 | pgbench_accounts |       1378557952
 2017-02-04 13:17:08.966004+01 | 1486210628.966 | pgbench_tellers  |          3842048
 2017-02-04 13:17:08.966004+01 | 1486210628.966 | pgbench_history  |        129818624
 2017-02-04 13:17:08.966004+01 | 1486210628.966 | pgbench_branches |          1785856

 2017-02-04 13:17:10.039469+01 | 1486210630.03947 | pgbench_accounts |       1378557952
 2017-02-04 13:17:10.039469+01 | 1486210630.03947 | pgbench_tellers  |          3842048
 2017-02-04 13:17:10.039469+01 | 1486210630.03947 | pgbench_history  |        132055040
 2017-02-04 13:17:10.039469+01 | 1486210630.03947 | pgbench_branches |          1785856

 2017-02-04 13:17:11.114283+01 | 1486210631.11428 | pgbench_accounts |       1378557952
 2017-02-04 13:17:11.114283+01 | 1486210631.11428 | pgbench_tellers  |          3842048
 2017-02-04 13:17:11.114283+01 | 1486210631.11428 | pgbench_history  |        133922816
 2017-02-04 13:17:11.114283+01 | 1486210631.11428 | pgbench_branches |          1785856

 2017-02-04 13:17:12.191826+01 | 1486210632.19183 | pgbench_accounts |       1378557952
 2017-02-04 13:17:12.191826+01 | 1486210632.19183 | pgbench_tellers  |          3842048
 2017-02-04 13:17:12.191826+01 | 1486210632.19183 | pgbench_history  |        136323072
 2017-02-04 13:17:12.191826+01 | 1486210632.19183 | pgbench_branches |          1785856

 2017-02-04 13:17:13.276587+01 | 1486210633.27659 | pgbench_accounts |       1378557952
 2017-02-04 13:17:13.276587+01 | 1486210633.27659 | pgbench_tellers  |          3842048
 2017-02-04 13:17:13.276587+01 | 1486210633.27659 | pgbench_history  |        137846784
 2017-02-04 13:17:13.276587+01 | 1486210633.27659 | pgbench_branches |          1785856

 2017-02-04 13:17:14.358045+01 | 1486210634.35805 | pgbench_accounts |       1378557952
 2017-02-04 13:17:14.358045+01 | 1486210634.35805 | pgbench_tellers  |          3842048
 2017-02-04 13:17:14.358045+01 | 1486210634.35805 | pgbench_history  |        141008896
 2017-02-04 13:17:14.358045+01 | 1486210634.35805 | pgbench_branches |          1785856

 2017-02-04 13:17:15.433954+01 | 1486210635.43395 | pgbench_accounts |       1378557952
 2017-02-04 13:17:15.433954+01 | 1486210635.43395 | pgbench_tellers  |          3842048
 2017-02-04 13:17:15.433954+01 | 1486210635.43395 | pgbench_history  |        141852672
 2017-02-04 13:17:15.433954+01 | 1486210635.43395 | pgbench_branches |          1785856

 2017-02-04 13:17:16.514055+01 | 1486210636.51406 | pgbench_accounts |       1378557952
 2017-02-04 13:17:16.514055+01 | 1486210636.51406 | pgbench_tellers  |          3842048
 2017-02-04 13:17:16.514055+01 | 1486210636.51406 | pgbench_history  |        143802368
 2017-02-04 13:17:16.514055+01 | 1486210636.51406 | pgbench_branches |          1785856

 2017-02-04 13:17:17.595164+01 | 1486210637.59516 | pgbench_accounts |       1378557952
 2017-02-04 13:17:17.595164+01 | 1486210637.59516 | pgbench_tellers  |          3842048
 2017-02-04 13:17:17.595164+01 | 1486210637.59516 | pgbench_history  |        145702912
 2017-02-04 13:17:17.595164+01 | 1486210637.59516 | pgbench_branches |          1785856

 2017-02-04 13:17:18.67006+01 | 1486210638.67006 | pgbench_accounts |       1378557952
 2017-02-04 13:17:18.67006+01 | 1486210638.67006 | pgbench_tellers  |          3842048
 2017-02-04 13:17:18.67006+01 | 1486210638.67006 | pgbench_history  |        147783680
 2017-02-04 13:17:18.67006+01 | 1486210638.67006 | pgbench_branches |          1785856

 2017-02-04 13:17:19.743572+01 | 1486210639.74357 | pgbench_accounts |       1378557952
 2017-02-04 13:17:19.743572+01 | 1486210639.74357 | pgbench_tellers  |          3842048
 2017-02-04 13:17:19.743572+01 | 1486210639.74357 | pgbench_history  |        149848064
 2017-02-04 13:17:19.743572+01 | 1486210639.74357 | pgbench_branches |          1785856

 2017-02-04 13:17:20.821651+01 | 1486210640.82165 | pgbench_accounts |       1378557952
 2017-02-04 13:17:20.821651+01 | 1486210640.82165 | pgbench_tellers  |          3842048
 2017-02-04 13:17:20.821651+01 | 1486210640.82165 | pgbench_history  |        152051712
 2017-02-04 13:17:20.821651+01 | 1486210640.82165 | pgbench_branches |          1785856

 2017-02-04 13:17:21.893438+01 | 1486210641.89344 | pgbench_accounts |       1378557952
 2017-02-04 13:17:21.893438+01 | 1486210641.89344 | pgbench_tellers  |          3842048
 2017-02-04 13:17:21.893438+01 | 1486210641.89344 | pgbench_history  |        154255360
 2017-02-04 13:17:21.893438+01 | 1486210641.89344 | pgbench_branches |          1785856

 2017-02-04 13:17:22.969372+01 | 1486210642.96937 | pgbench_accounts |       1378557952
 2017-02-04 13:17:22.969372+01 | 1486210642.96937 | pgbench_tellers  |          3842048
 2017-02-04 13:17:22.969372+01 | 1486210642.96937 | pgbench_history  |        156270592
 2017-02-04 13:17:22.969372+01 | 1486210642.96937 | pgbench_branches |          1785856

 2017-02-04 13:17:24.050574+01 | 1486210644.05057 | pgbench_accounts |       1378557952
 2017-02-04 13:17:24.050574+01 | 1486210644.05057 | pgbench_tellers  |          3842048
 2017-02-04 13:17:24.050574+01 | 1486210644.05057 | pgbench_history  |        157999104
 2017-02-04 13:17:24.050574+01 | 1486210644.05057 | pgbench_branches |          1785856

 2017-02-04 13:17:25.135442+01 | 1486210645.13544 | pgbench_accounts |       1378557952
 2017-02-04 13:17:25.135442+01 | 1486210645.13544 | pgbench_tellers  |          3842048
 2017-02-04 13:17:25.135442+01 | 1486210645.13544 | pgbench_history  |        159711232
 2017-02-04 13:17:25.135442+01 | 1486210645.13544 | pgbench_branches |          1785856

 2017-02-04 13:17:26.21602+01 | 1486210646.21602 | pgbench_accounts |       1378557952
 2017-02-04 13:17:26.21602+01 | 1486210646.21602 | pgbench_tellers  |          3842048
 2017-02-04 13:17:26.21602+01 | 1486210646.21602 | pgbench_history  |        161783808
 2017-02-04 13:17:26.21602+01 | 1486210646.21602 | pgbench_branches |          1785856

 2017-02-04 13:17:27.296109+01 | 1486210647.29611 | pgbench_accounts |       1378557952
 2017-02-04 13:17:27.296109+01 | 1486210647.29611 | pgbench_tellers  |          3842048
 2017-02-04 13:17:27.296109+01 | 1486210647.29611 | pgbench_history  |        163495936
 2017-02-04 13:17:27.296109+01 | 1486210647.29611 | pgbench_branches |          1785856

 2017-02-04 13:17:28.381124+01 | 1486210648.38112 | pgbench_accounts |       1378557952
 2017-02-04 13:17:28.381124+01 | 1486210648.38112 | pgbench_tellers  |          3842048
 2017-02-04 13:17:28.381124+01 | 1486210648.38112 | pgbench_history  |        165371904
 2017-02-04 13:17:28.381124+01 | 1486210648.38112 | pgbench_branches |          1785856

 2017-02-04 13:17:29.448072+01 | 1486210649.44807 | pgbench_accounts |       1378557952
 2017-02-04 13:17:29.448072+01 | 1486210649.44807 | pgbench_tellers  |          3842048
 2017-02-04 13:17:29.448072+01 | 1486210649.44807 | pgbench_history  |        167223296
 2017-02-04 13:17:29.448072+01 | 1486210649.44807 | pgbench_branches |          1785856

 2017-02-04 13:17:30.527166+01 | 1486210650.52717 | pgbench_accounts |       1378557952
 2017-02-04 13:17:30.527166+01 | 1486210650.52717 | pgbench_tellers  |          3842048
 2017-02-04 13:17:30.527166+01 | 1486210650.52717 | pgbench_history  |        169566208
 2017-02-04 13:17:30.527166+01 | 1486210650.52717 | pgbench_branches |          1785856

 2017-02-04 13:17:31.604868+01 | 1486210651.60487 | pgbench_accounts |       1378557952
 2017-02-04 13:17:31.604868+01 | 1486210651.60487 | pgbench_tellers  |          3842048
 2017-02-04 13:17:31.604868+01 | 1486210651.60487 | pgbench_history  |        171483136
 2017-02-04 13:17:31.604868+01 | 1486210651.60487 | pgbench_branches |          1785856

 2017-02-04 13:17:32.685759+01 | 1486210652.68576 | pgbench_accounts |       1378557952
 2017-02-04 13:17:32.685759+01 | 1486210652.68576 | pgbench_tellers  |          3842048
 2017-02-04 13:17:32.685759+01 | 1486210652.68576 | pgbench_history  |        173686784
 2017-02-04 13:17:32.685759+01 | 1486210652.68576 | pgbench_branches |          1785856

 2017-02-04 13:17:33.755707+01 | 1486210653.75571 | pgbench_accounts |       1378557952
 2017-02-04 13:17:33.755707+01 | 1486210653.75571 | pgbench_tellers  |          3842048
 2017-02-04 13:17:33.755707+01 | 1486210653.75571 | pgbench_history  |        175415296
 2017-02-04 13:17:33.755707+01 | 1486210653.75571 | pgbench_branches |          1785856

 2017-02-04 13:17:34.827394+01 | 1486210654.82739 | pgbench_accounts |       1378557952
 2017-02-04 13:17:34.827394+01 | 1486210654.82739 | pgbench_tellers  |          3842048
 2017-02-04 13:17:34.827394+01 | 1486210654.82739 | pgbench_history  |        178765824
 2017-02-04 13:17:34.827394+01 | 1486210654.82739 | pgbench_branches |          1785856

 2017-02-04 13:17:35.91073+01 | 1486210655.91073 | pgbench_accounts |       1378557952
 2017-02-04 13:17:35.91073+01 | 1486210655.91073 | pgbench_tellers  |          3842048
 2017-02-04 13:17:35.91073+01 | 1486210655.91073 | pgbench_history  |        180592640
 2017-02-04 13:17:35.91073+01 | 1486210655.91073 | pgbench_branches |          1785856

 2017-02-04 13:17:36.987488+01 | 1486210656.98749 | pgbench_accounts |       1378557952
 2017-02-04 13:17:36.987488+01 | 1486210656.98749 | pgbench_tellers  |          3842048
 2017-02-04 13:17:36.987488+01 | 1486210656.98749 | pgbench_history  |        181600256
 2017-02-04 13:17:36.987488+01 | 1486210656.98749 | pgbench_branches |          1785856

 2017-02-04 13:17:38.059265+01 | 1486210658.05926 | pgbench_accounts |       1378557952
 2017-02-04 13:17:38.059265+01 | 1486210658.05926 | pgbench_tellers  |          3842048
 2017-02-04 13:17:38.059265+01 | 1486210658.05926 | pgbench_history  |        183615488
 2017-02-04 13:17:38.059265+01 | 1486210658.05926 | pgbench_branches |          1785856

 2017-02-04 13:17:39.138688+01 | 1486210659.13869 | pgbench_accounts |       1378557952
 2017-02-04 13:17:39.138688+01 | 1486210659.13869 | pgbench_tellers  |          3842048
 2017-02-04 13:17:39.138688+01 | 1486210659.13869 | pgbench_history  |        185556992
 2017-02-04 13:17:39.138688+01 | 1486210659.13869 | pgbench_branches |          1785856

 2017-02-04 13:17:40.213102+01 | 1486210660.2131 | pgbench_accounts |       1378557952
 2017-02-04 13:17:40.213102+01 | 1486210660.2131 | pgbench_tellers  |          3842048
 2017-02-04 13:17:40.213102+01 | 1486210660.2131 | pgbench_history  |        187105280
 2017-02-04 13:17:40.213102+01 | 1486210660.2131 | pgbench_branches |          1785856

 2017-02-04 13:17:41.291672+01 | 1486210661.29167 | pgbench_accounts |       1378557952
 2017-02-04 13:17:41.291672+01 | 1486210661.29167 | pgbench_tellers  |          3842048
 2017-02-04 13:17:41.291672+01 | 1486210661.29167 | pgbench_history  |        188817408
 2017-02-04 13:17:41.291672+01 | 1486210661.29167 | pgbench_branches |          1785856

 2017-02-04 13:17:42.370514+01 | 1486210662.37051 | pgbench_accounts |       1378557952
 2017-02-04 13:17:42.370514+01 | 1486210662.37051 | pgbench_tellers  |          3842048
 2017-02-04 13:17:42.370514+01 | 1486210662.37051 | pgbench_history  |        190717952
 2017-02-04 13:17:42.370514+01 | 1486210662.37051 | pgbench_branches |          1785856

 2017-02-04 13:17:43.447285+01 | 1486210663.44728 | pgbench_accounts |       1378557952
 2017-02-04 13:17:43.447285+01 | 1486210663.44728 | pgbench_tellers  |          3842048
 2017-02-04 13:17:43.447285+01 | 1486210663.44728 | pgbench_history  |        194101248
 2017-02-04 13:17:43.447285+01 | 1486210663.44728 | pgbench_branches |          2646016

 2017-02-04 13:17:44.521884+01 | 1486210664.52188 | pgbench_accounts |       1378557952
 2017-02-04 13:17:44.521884+01 | 1486210664.52188 | pgbench_tellers  |          3842048
 2017-02-04 13:17:44.521884+01 | 1486210664.52188 | pgbench_history  |        194781184
 2017-02-04 13:17:44.521884+01 | 1486210664.52188 | pgbench_branches |          2646016

 2017-02-04 13:17:45.598869+01 | 1486210665.59887 | pgbench_accounts |       1378557952
 2017-02-04 13:17:45.598869+01 | 1486210665.59887 | pgbench_tellers  |          3842048
 2017-02-04 13:17:45.598869+01 | 1486210665.59887 | pgbench_history  |        196771840
 2017-02-04 13:17:45.598869+01 | 1486210665.59887 | pgbench_branches |          2646016

 2017-02-04 13:17:46.671687+01 | 1486210666.67169 | pgbench_accounts |       1378557952
 2017-02-04 13:17:46.671687+01 | 1486210666.67169 | pgbench_tellers  |          3842048
 2017-02-04 13:17:46.671687+01 | 1486210666.67169 | pgbench_history  |        198647808
 2017-02-04 13:17:46.671687+01 | 1486210666.67169 | pgbench_branches |          2646016

 2017-02-04 13:17:47.753688+01 | 1486210667.75369 | pgbench_accounts |       1378557952
 2017-02-04 13:17:47.753688+01 | 1486210667.75369 | pgbench_tellers  |          3842048
 2017-02-04 13:17:47.753688+01 | 1486210667.75369 | pgbench_history  |        201539584
 2017-02-04 13:17:47.753688+01 | 1486210667.75369 | pgbench_branches |          2646016

 2017-02-04 13:17:48.841308+01 | 1486210668.84131 | pgbench_accounts |       1378557952
 2017-02-04 13:17:48.841308+01 | 1486210668.84131 | pgbench_tellers  |          3842048
 2017-02-04 13:17:48.841308+01 | 1486210668.84131 | pgbench_history  |        202571776
 2017-02-04 13:17:48.841308+01 | 1486210668.84131 | pgbench_branches |          2646016

 2017-02-04 13:17:49.913025+01 | 1486210669.91302 | pgbench_accounts |       1378557952
 2017-02-04 13:17:49.913025+01 | 1486210669.91302 | pgbench_tellers  |          3842048
 2017-02-04 13:17:49.913025+01 | 1486210669.91302 | pgbench_history  |        205955072
 2017-02-04 13:17:49.913025+01 | 1486210669.91302 | pgbench_branches |          2646016

 2017-02-04 13:17:50.986676+01 | 1486210670.98668 | pgbench_accounts |       1378557952
 2017-02-04 13:17:50.986676+01 | 1486210670.98668 | pgbench_tellers  |          3842048
 2017-02-04 13:17:50.986676+01 | 1486210670.98668 | pgbench_history  |        206823424
 2017-02-04 13:17:50.986676+01 | 1486210670.98668 | pgbench_branches |          2646016

 2017-02-04 13:17:52.061693+01 | 1486210672.06169 | pgbench_accounts |       1378557952
 2017-02-04 13:17:52.061693+01 | 1486210672.06169 | pgbench_tellers  |          3842048
 2017-02-04 13:17:52.061693+01 | 1486210672.06169 | pgbench_history  |        209027072
 2017-02-04 13:17:52.061693+01 | 1486210672.06169 | pgbench_branches |          2646016

 2017-02-04 13:17:53.137821+01 | 1486210673.13782 | pgbench_accounts |       1378557952
 2017-02-04 13:17:53.137821+01 | 1486210673.13782 | pgbench_tellers  |          3842048
 2017-02-04 13:17:53.137821+01 | 1486210673.13782 | pgbench_history  |        211091456
 2017-02-04 13:17:53.137821+01 | 1486210673.13782 | pgbench_branches |          2646016

 2017-02-04 13:17:54.212828+01 | 1486210674.21283 | pgbench_accounts |       1378557952
 2017-02-04 13:17:54.212828+01 | 1486210674.21283 | pgbench_tellers  |          3842048
 2017-02-04 13:17:54.212828+01 | 1486210674.21283 | pgbench_history  |        213344256
 2017-02-04 13:17:54.212828+01 | 1486210674.21283 | pgbench_branches |          2646016

 2017-02-04 13:17:55.290886+01 | 1486210675.29089 | pgbench_accounts |       1378557952
 2017-02-04 13:17:55.290886+01 | 1486210675.29089 | pgbench_tellers  |          3842048
 2017-02-04 13:17:55.290886+01 | 1486210675.29089 | pgbench_history  |        215572480
 2017-02-04 13:17:55.290886+01 | 1486210675.29089 | pgbench_branches |          2646016

 2017-02-04 13:17:56.370836+01 | 1486210676.37084 | pgbench_accounts |       1378557952
 2017-02-04 13:17:56.370836+01 | 1486210676.37084 | pgbench_tellers  |          3842048
 2017-02-04 13:17:56.370836+01 | 1486210676.37084 | pgbench_history  |        217145344
 2017-02-04 13:17:56.370836+01 | 1486210676.37084 | pgbench_branches |          2646016

 2017-02-04 13:17:57.445994+01 | 1486210677.44599 | pgbench_accounts |       1378557952
 2017-02-04 13:17:57.445994+01 | 1486210677.44599 | pgbench_tellers  |          3842048
 2017-02-04 13:17:57.445994+01 | 1486210677.44599 | pgbench_history  |        219561984
 2017-02-04 13:17:57.445994+01 | 1486210677.44599 | pgbench_branches |          2646016

 2017-02-04 13:17:58.526484+01 | 1486210678.52648 | pgbench_accounts |       1378557952
 2017-02-04 13:17:58.526484+01 | 1486210678.52648 | pgbench_tellers  |          3842048
 2017-02-04 13:17:58.526484+01 | 1486210678.52648 | pgbench_history  |        221650944
 2017-02-04 13:17:58.526484+01 | 1486210678.52648 | pgbench_branches |          2646016

 2017-02-04 13:17:59.599612+01 | 1486210679.59961 | pgbench_accounts |       1378557952
 2017-02-04 13:17:59.599612+01 | 1486210679.59961 | pgbench_tellers  |          3842048
 2017-02-04 13:17:59.599612+01 | 1486210679.59961 | pgbench_history  |        223395840
 2017-02-04 13:17:59.599612+01 | 1486210679.59961 | pgbench_branches |          2646016

 2017-02-04 13:18:00.678802+01 | 1486210680.6788 | pgbench_accounts |       1378557952
 2017-02-04 13:18:00.678802+01 | 1486210680.6788 | pgbench_tellers  |          3842048
 2017-02-04 13:18:00.678802+01 | 1486210680.6788 | pgbench_history  |        226639872
 2017-02-04 13:18:00.678802+01 | 1486210680.6788 | pgbench_branches |          2646016

 2017-02-04 13:18:01.759868+01 | 1486210681.75987 | pgbench_accounts |       1378557952
 2017-02-04 13:18:01.759868+01 | 1486210681.75987 | pgbench_tellers  |          3842048
 2017-02-04 13:18:01.759868+01 | 1486210681.75987 | pgbench_history  |        227647488
 2017-02-04 13:18:01.759868+01 | 1486210681.75987 | pgbench_branches |          2646016

 2017-02-04 13:18:02.837267+01 | 1486210682.83727 | pgbench_accounts |       1378557952
 2017-02-04 13:18:02.837267+01 | 1486210682.83727 | pgbench_tellers  |          3842048
 2017-02-04 13:18:02.837267+01 | 1486210682.83727 | pgbench_history  |        229179392
 2017-02-04 13:18:02.837267+01 | 1486210682.83727 | pgbench_branches |          2646016

 2017-02-04 13:18:03.914728+01 | 1486210683.91473 | pgbench_accounts |       1378557952
 2017-02-04 13:18:03.914728+01 | 1486210683.91473 | pgbench_tellers  |          3842048
 2017-02-04 13:18:03.914728+01 | 1486210683.91473 | pgbench_history  |        231145472
 2017-02-04 13:18:03.914728+01 | 1486210683.91473 | pgbench_branches |          2646016

 2017-02-04 13:18:05.001345+01 | 1486210685.00134 | pgbench_accounts |       1378557952
 2017-02-04 13:18:05.001345+01 | 1486210685.00134 | pgbench_tellers  |          3842048
 2017-02-04 13:18:05.001345+01 | 1486210685.00134 | pgbench_history  |        233373696
 2017-02-04 13:18:05.001345+01 | 1486210685.00134 | pgbench_branches |          2646016

 2017-02-04 13:18:06.083636+01 | 1486210686.08364 | pgbench_accounts |       1378557952
 2017-02-04 13:18:06.083636+01 | 1486210686.08364 | pgbench_tellers  |          3842048
 2017-02-04 13:18:06.083636+01 | 1486210686.08364 | pgbench_history  |        235298816
 2017-02-04 13:18:06.083636+01 | 1486210686.08364 | pgbench_branches |          2646016

 2017-02-04 13:18:07.158955+01 | 1486210687.15896 | pgbench_accounts |       1378557952
 2017-02-04 13:18:07.158955+01 | 1486210687.15896 | pgbench_tellers  |          3842048
 2017-02-04 13:18:07.158955+01 | 1486210687.15896 | pgbench_history  |        237199360
 2017-02-04 13:18:07.158955+01 | 1486210687.15896 | pgbench_branches |          2646016

 2017-02-04 13:18:08.237418+01 | 1486210688.23742 | pgbench_accounts |       1378557952
 2017-02-04 13:18:08.237418+01 | 1486210688.23742 | pgbench_tellers  |          3842048
 2017-02-04 13:18:08.237418+01 | 1486210688.23742 | pgbench_history  |        239591424
 2017-02-04 13:18:08.237418+01 | 1486210688.23742 | pgbench_branches |          2646016

 2017-02-04 13:18:09.319413+01 | 1486210689.31941 | pgbench_accounts |       1378557952
 2017-02-04 13:18:09.319413+01 | 1486210689.31941 | pgbench_tellers  |          3842048
 2017-02-04 13:18:09.319413+01 | 1486210689.31941 | pgbench_history  |        242262016
 2017-02-04 13:18:09.319413+01 | 1486210689.31941 | pgbench_branches |          2646016

 2017-02-04 13:18:10.399949+01 | 1486210690.39995 | pgbench_accounts |       1378557952
 2017-02-04 13:18:10.399949+01 | 1486210690.39995 | pgbench_tellers  |          3842048
 2017-02-04 13:18:10.399949+01 | 1486210690.39995 | pgbench_history  |        243105792
 2017-02-04 13:18:10.399949+01 | 1486210690.39995 | pgbench_branches |          2646016

 2017-02-04 13:18:11.476657+01 | 1486210691.47666 | pgbench_accounts |       1378557952
 2017-02-04 13:18:11.476657+01 | 1486210691.47666 | pgbench_tellers  |          3842048
 2017-02-04 13:18:11.476657+01 | 1486210691.47666 | pgbench_history  |        245309440
 2017-02-04 13:18:11.476657+01 | 1486210691.47666 | pgbench_branches |          2646016

 2017-02-04 13:18:12.557963+01 | 1486210692.55796 | pgbench_accounts |       1378557952
 2017-02-04 13:18:12.557963+01 | 1486210692.55796 | pgbench_tellers  |          3842048
 2017-02-04 13:18:12.557963+01 | 1486210692.55796 | pgbench_history  |        247193600
 2017-02-04 13:18:12.557963+01 | 1486210692.55796 | pgbench_branches |          2646016

 2017-02-04 13:18:13.641969+01 | 1486210693.64197 | pgbench_accounts |       1378557952
 2017-02-04 13:18:13.641969+01 | 1486210693.64197 | pgbench_tellers  |          3842048
 2017-02-04 13:18:13.641969+01 | 1486210693.64197 | pgbench_history  |        249307136
 2017-02-04 13:18:13.641969+01 | 1486210693.64197 | pgbench_branches |          2646016

 2017-02-04 13:18:14.719292+01 | 1486210694.71929 | pgbench_accounts |       1378557952
 2017-02-04 13:18:14.719292+01 | 1486210694.71929 | pgbench_tellers  |          3842048
 2017-02-04 13:18:14.719292+01 | 1486210694.71929 | pgbench_history  |        251838464
 2017-02-04 13:18:14.719292+01 | 1486210694.71929 | pgbench_branches |          2646016

 2017-02-04 13:18:15.798126+01 | 1486210695.79813 | pgbench_accounts |       1378557952
 2017-02-04 13:18:15.798126+01 | 1486210695.79813 | pgbench_tellers  |          3842048
 2017-02-04 13:18:15.798126+01 | 1486210695.79813 | pgbench_history  |        254042112
 2017-02-04 13:18:15.798126+01 | 1486210695.79813 | pgbench_branches |          2646016

 2017-02-04 13:18:16.875685+01 | 1486210696.87568 | pgbench_accounts |       1378557952
 2017-02-04 13:18:16.875685+01 | 1486210696.87568 | pgbench_tellers  |          3842048
 2017-02-04 13:18:16.875685+01 | 1486210696.87568 | pgbench_history  |        255238144
 2017-02-04 13:18:16.875685+01 | 1486210696.87568 | pgbench_branches |          2646016

 2017-02-04 13:18:17.94955+01 | 1486210697.94955 | pgbench_accounts |       1378557952
 2017-02-04 13:18:17.94955+01 | 1486210697.94955 | pgbench_tellers  |          3842048
 2017-02-04 13:18:17.94955+01 | 1486210697.94955 | pgbench_history  |        257957888
 2017-02-04 13:18:17.94955+01 | 1486210697.94955 | pgbench_branches |          2646016

 2017-02-04 13:18:19.026512+01 | 1486210699.02651 | pgbench_accounts |       1378557952
 2017-02-04 13:18:19.026512+01 | 1486210699.02651 | pgbench_tellers  |          3842048
 2017-02-04 13:18:19.026512+01 | 1486210699.02651 | pgbench_history  |        259301376
 2017-02-04 13:18:19.026512+01 | 1486210699.02651 | pgbench_branches |          2646016

 2017-02-04 13:18:20.099055+01 | 1486210700.09906 | pgbench_accounts |       1378557952
 2017-02-04 13:18:20.099055+01 | 1486210700.09906 | pgbench_tellers  |          3842048
 2017-02-04 13:18:20.099055+01 | 1486210700.09906 | pgbench_history  |        261177344
 2017-02-04 13:18:20.099055+01 | 1486210700.09906 | pgbench_branches |          2646016

 2017-02-04 13:18:21.180561+01 | 1486210701.18056 | pgbench_accounts |       1378557952
 2017-02-04 13:18:21.180561+01 | 1486210701.18056 | pgbench_tellers  |          3842048
 2017-02-04 13:18:21.180561+01 | 1486210701.18056 | pgbench_history  |        263593984
 2017-02-04 13:18:21.180561+01 | 1486210701.18056 | pgbench_branches |          2646016

 2017-02-04 13:18:22.257362+01 | 1486210702.25736 | pgbench_accounts |       1378557952
 2017-02-04 13:18:22.257362+01 | 1486210702.25736 | pgbench_tellers  |          3842048
 2017-02-04 13:18:22.257362+01 | 1486210702.25736 | pgbench_history  |        265822208
 2017-02-04 13:18:22.257362+01 | 1486210702.25736 | pgbench_branches |          2646016

 2017-02-04 13:18:23.333981+01 | 1486210703.33398 | pgbench_accounts |       1378557952
 2017-02-04 13:18:23.333981+01 | 1486210703.33398 | pgbench_tellers  |          3842048
 2017-02-04 13:18:23.333981+01 | 1486210703.33398 | pgbench_history  |        267321344
 2017-02-04 13:18:23.333981+01 | 1486210703.33398 | pgbench_branches |          2646016

 2017-02-04 13:18:24.410069+01 | 1486210704.41007 | pgbench_accounts |       1378557952
 2017-02-04 13:18:24.410069+01 | 1486210704.41007 | pgbench_tellers  |          3842048
 2017-02-04 13:18:24.410069+01 | 1486210704.41007 | pgbench_history  |        270024704
 2017-02-04 13:18:24.410069+01 | 1486210704.41007 | pgbench_branches |          2646016

 2017-02-04 13:18:25.486021+01 | 1486210705.48602 | pgbench_accounts |       1378557952
 2017-02-04 13:18:25.486021+01 | 1486210705.48602 | pgbench_tellers  |          3842048
 2017-02-04 13:18:25.486021+01 | 1486210705.48602 | pgbench_history  |        271900672
 2017-02-04 13:18:25.486021+01 | 1486210705.48602 | pgbench_branches |          2646016

 2017-02-04 13:18:26.559779+01 | 1486210706.55978 | pgbench_accounts |       1378557952
 2017-02-04 13:18:26.559779+01 | 1486210706.55978 | pgbench_tellers  |          3842048
 2017-02-04 13:18:26.559779+01 | 1486210706.55978 | pgbench_history  |        273285120
 2017-02-04 13:18:26.559779+01 | 1486210706.55978 | pgbench_branches |          2646016

 2017-02-04 13:18:27.638024+01 | 1486210707.63802 | pgbench_accounts |       1378557952
 2017-02-04 13:18:27.638024+01 | 1486210707.63802 | pgbench_tellers  |          3842048
 2017-02-04 13:18:27.638024+01 | 1486210707.63802 | pgbench_history  |        276054016
 2017-02-04 13:18:27.638024+01 | 1486210707.63802 | pgbench_branches |          2646016

 2017-02-04 13:18:28.713063+01 | 1486210708.71306 | pgbench_accounts |       1378557952
 2017-02-04 13:18:28.713063+01 | 1486210708.71306 | pgbench_tellers  |          3842048
 2017-02-04 13:18:28.713063+01 | 1486210708.71306 | pgbench_history  |        277250048
 2017-02-04 13:18:28.713063+01 | 1486210708.71306 | pgbench_branches |          2646016

 2017-02-04 13:18:29.786456+01 | 1486210709.78646 | pgbench_accounts |       1378557952
 2017-02-04 13:18:29.786456+01 | 1486210709.78646 | pgbench_tellers  |          3842048
 2017-02-04 13:18:29.786456+01 | 1486210709.78646 | pgbench_history  |        279453696
 2017-02-04 13:18:29.786456+01 | 1486210709.78646 | pgbench_branches |          2646016

 2017-02-04 13:18:30.860603+01 | 1486210710.8606 | pgbench_accounts |       1378557952
 2017-02-04 13:18:30.860603+01 | 1486210710.8606 | pgbench_tellers  |          3842048
 2017-02-04 13:18:30.860603+01 | 1486210710.8606 | pgbench_history  |        281378816
 2017-02-04 13:18:30.860603+01 | 1486210710.8606 | pgbench_branches |          2646016

 2017-02-04 13:18:31.933468+01 | 1486210711.93347 | pgbench_accounts |       1378557952
 2017-02-04 13:18:31.933468+01 | 1486210711.93347 | pgbench_tellers  |          3842048
 2017-02-04 13:18:31.933468+01 | 1486210711.93347 | pgbench_history  |        283844608
 2017-02-04 13:18:31.933468+01 | 1486210711.93347 | pgbench_branches |          2646016

 2017-02-04 13:18:33.008264+01 | 1486210713.00826 | pgbench_accounts |       1378557952
 2017-02-04 13:18:33.008264+01 | 1486210713.00826 | pgbench_tellers  |          3842048
 2017-02-04 13:18:33.008264+01 | 1486210713.00826 | pgbench_history  |        286072832
 2017-02-04 13:18:33.008264+01 | 1486210713.00826 | pgbench_branches |          2646016

 2017-02-04 13:18:34.080554+01 | 1486210714.08055 | pgbench_accounts |       1378557952
 2017-02-04 13:18:34.080554+01 | 1486210714.08055 | pgbench_tellers  |          3842048
 2017-02-04 13:18:34.080554+01 | 1486210714.08055 | pgbench_history  |        288088064
 2017-02-04 13:18:34.080554+01 | 1486210714.08055 | pgbench_branches |          2646016

 2017-02-04 13:18:35.164205+01 | 1486210715.16421 | pgbench_accounts |       1378557952
 2017-02-04 13:18:35.164205+01 | 1486210715.16421 | pgbench_tellers  |          3842048
 2017-02-04 13:18:35.164205+01 | 1486210715.16421 | pgbench_history  |        289841152
 2017-02-04 13:18:35.164205+01 | 1486210715.16421 | pgbench_branches |          2646016

 2017-02-04 13:18:36.23935+01 | 1486210716.23935 | pgbench_accounts |       1378557952
 2017-02-04 13:18:36.23935+01 | 1486210716.23935 | pgbench_tellers  |          3842048
 2017-02-04 13:18:36.23935+01 | 1486210716.23935 | pgbench_history  |        292216832
 2017-02-04 13:18:36.23935+01 | 1486210716.23935 | pgbench_branches |          2646016

 2017-02-04 13:18:37.313566+01 | 1486210717.31357 | pgbench_accounts |       1378557952
 2017-02-04 13:18:37.313566+01 | 1486210717.31357 | pgbench_tellers  |          3842048
 2017-02-04 13:18:37.313566+01 | 1486210717.31357 | pgbench_history  |        293765120
 2017-02-04 13:18:37.313566+01 | 1486210717.31357 | pgbench_branches |          2646016

 2017-02-04 13:18:38.386355+01 | 1486210718.38635 | pgbench_accounts |       1378557952
 2017-02-04 13:18:38.386355+01 | 1486210718.38635 | pgbench_tellers  |          3842048
 2017-02-04 13:18:38.386355+01 | 1486210718.38635 | pgbench_history  |        295968768
 2017-02-04 13:18:38.386355+01 | 1486210718.38635 | pgbench_branches |          2646016

 2017-02-04 13:18:39.461163+01 | 1486210719.46116 | pgbench_accounts |       1378557952
 2017-02-04 13:18:39.461163+01 | 1486210719.46116 | pgbench_tellers  |          3842048
 2017-02-04 13:18:39.461163+01 | 1486210719.46116 | pgbench_history  |        298516480
 2017-02-04 13:18:39.461163+01 | 1486210719.46116 | pgbench_branches |          2646016

 2017-02-04 13:18:40.538113+01 | 1486210720.53811 | pgbench_accounts |       1378557952
 2017-02-04 13:18:40.538113+01 | 1486210720.53811 | pgbench_tellers  |          3842048
 2017-02-04 13:18:40.538113+01 | 1486210720.53811 | pgbench_history  |        300228608
 2017-02-04 13:18:40.538113+01 | 1486210720.53811 | pgbench_branches |          2646016

 2017-02-04 13:18:41.614234+01 | 1486210721.61423 | pgbench_accounts |       1378557952
 2017-02-04 13:18:41.614234+01 | 1486210721.61423 | pgbench_tellers  |          3842048
 2017-02-04 13:18:41.614234+01 | 1486210721.61423 | pgbench_history  |        302088192
 2017-02-04 13:18:41.614234+01 | 1486210721.61423 | pgbench_branches |          2646016

 2017-02-04 13:18:42.695565+01 | 1486210722.69556 | pgbench_accounts |       1378557952
 2017-02-04 13:18:42.695565+01 | 1486210722.69556 | pgbench_tellers  |          3842048
 2017-02-04 13:18:42.695565+01 | 1486210722.69556 | pgbench_history  |        303964160
 2017-02-04 13:18:42.695565+01 | 1486210722.69556 | pgbench_branches |          2646016

 2017-02-04 13:18:43.771657+01 | 1486210723.77166 | pgbench_accounts |       1378557952
 2017-02-04 13:18:43.771657+01 | 1486210723.77166 | pgbench_tellers  |          3842048
 2017-02-04 13:18:43.771657+01 | 1486210723.77166 | pgbench_history  |        305856512
 2017-02-04 13:18:43.771657+01 | 1486210723.77166 | pgbench_branches |          2646016

 2017-02-04 13:18:44.849531+01 | 1486210724.84953 | pgbench_accounts |       1378557952
 2017-02-04 13:18:44.849531+01 | 1486210724.84953 | pgbench_tellers  |          3842048
 2017-02-04 13:18:44.849531+01 | 1486210724.84953 | pgbench_history  |        308060160
 2017-02-04 13:18:44.849531+01 | 1486210724.84953 | pgbench_branches |          2646016

 2017-02-04 13:18:45.926063+01 | 1486210725.92606 | pgbench_accounts |       1378557952
 2017-02-04 13:18:45.926063+01 | 1486210725.92606 | pgbench_tellers  |          3842048
 2017-02-04 13:18:45.926063+01 | 1486210725.92606 | pgbench_history  |        310001664
 2017-02-04 13:18:45.926063+01 | 1486210725.92606 | pgbench_branches |          2646016

 2017-02-04 13:18:46.998146+01 | 1486210726.99815 | pgbench_accounts |       1378557952
 2017-02-04 13:18:46.998146+01 | 1486210726.99815 | pgbench_tellers  |          3842048
 2017-02-04 13:18:46.998146+01 | 1486210726.99815 | pgbench_history  |        312049664
 2017-02-04 13:18:46.998146+01 | 1486210726.99815 | pgbench_branches |          2646016

 2017-02-04 13:18:48.077111+01 | 1486210728.07711 | pgbench_accounts |       1378557952
 2017-02-04 13:18:48.077111+01 | 1486210728.07711 | pgbench_tellers  |          3842048
 2017-02-04 13:18:48.077111+01 | 1486210728.07711 | pgbench_history  |        314425344
 2017-02-04 13:18:48.077111+01 | 1486210728.07711 | pgbench_branches |          2646016

 2017-02-04 13:18:49.15494+01 | 1486210729.15494 | pgbench_accounts |       1378557952
 2017-02-04 13:18:49.15494+01 | 1486210729.15494 | pgbench_tellers  |          3842048
 2017-02-04 13:18:49.15494+01 | 1486210729.15494 | pgbench_history  |        316153856
 2017-02-04 13:18:49.15494+01 | 1486210729.15494 | pgbench_branches |          2646016

 2017-02-04 13:18:50.23387+01 | 1486210730.23387 | pgbench_accounts |       1378557952
 2017-02-04 13:18:50.23387+01 | 1486210730.23387 | pgbench_tellers  |          3842048
 2017-02-04 13:18:50.23387+01 | 1486210730.23387 | pgbench_history  |        317980672
 2017-02-04 13:18:50.23387+01 | 1486210730.23387 | pgbench_branches |          2646016

 2017-02-04 13:18:51.310432+01 | 1486210731.31043 | pgbench_accounts |       1378557952
 2017-02-04 13:18:51.310432+01 | 1486210731.31043 | pgbench_tellers  |          3842048
 2017-02-04 13:18:51.310432+01 | 1486210731.31043 | pgbench_history  |        319995904
 2017-02-04 13:18:51.310432+01 | 1486210731.31043 | pgbench_branches |          2646016

 2017-02-04 13:18:52.384771+01 | 1486210732.38477 | pgbench_accounts |       1378557952
 2017-02-04 13:18:52.384771+01 | 1486210732.38477 | pgbench_tellers  |          3842048
 2017-02-04 13:18:52.384771+01 | 1486210732.38477 | pgbench_history  |        322371584
 2017-02-04 13:18:52.384771+01 | 1486210732.38477 | pgbench_branches |          2646016

 2017-02-04 13:18:53.470104+01 | 1486210733.4701 | pgbench_accounts |       1378557952
 2017-02-04 13:18:53.470104+01 | 1486210733.4701 | pgbench_tellers  |          3842048
 2017-02-04 13:18:53.470104+01 | 1486210733.4701 | pgbench_history  |        324059136
 2017-02-04 13:18:53.470104+01 | 1486210733.4701 | pgbench_branches |          2646016

 2017-02-04 13:18:54.548436+01 | 1486210734.54844 | pgbench_accounts |       1378557952
 2017-02-04 13:18:54.548436+01 | 1486210734.54844 | pgbench_tellers  |          3842048
 2017-02-04 13:18:54.548436+01 | 1486210734.54844 | pgbench_history  |        325746688
 2017-02-04 13:18:54.548436+01 | 1486210734.54844 | pgbench_branches |          2646016

 2017-02-04 13:18:55.625174+01 | 1486210735.62517 | pgbench_accounts |       1378557952
 2017-02-04 13:18:55.625174+01 | 1486210735.62517 | pgbench_tellers  |          3842048
 2017-02-04 13:18:55.625174+01 | 1486210735.62517 | pgbench_history  |        329424896
 2017-02-04 13:18:55.625174+01 | 1486210735.62517 | pgbench_branches |          2646016

 2017-02-04 13:18:56.698634+01 | 1486210736.69863 | pgbench_accounts |       1378557952
 2017-02-04 13:18:56.698634+01 | 1486210736.69863 | pgbench_tellers  |          3842048
 2017-02-04 13:18:56.698634+01 | 1486210736.69863 | pgbench_history  |        330129408
 2017-02-04 13:18:56.698634+01 | 1486210736.69863 | pgbench_branches |          2646016

 2017-02-04 13:18:57.775332+01 | 1486210737.77533 | pgbench_accounts |       1378557952
 2017-02-04 13:18:57.775332+01 | 1486210737.77533 | pgbench_tellers  |          3842048
 2017-02-04 13:18:57.775332+01 | 1486210737.77533 | pgbench_history  |        332333056
 2017-02-04 13:18:57.775332+01 | 1486210737.77533 | pgbench_branches |          2646016

 2017-02-04 13:18:58.855583+01 | 1486210738.85558 | pgbench_accounts |       1378557952
 2017-02-04 13:18:58.855583+01 | 1486210738.85558 | pgbench_tellers  |          3842048
 2017-02-04 13:18:58.855583+01 | 1486210738.85558 | pgbench_history  |        335683584
 2017-02-04 13:18:58.855583+01 | 1486210738.85558 | pgbench_branches |          2646016

 2017-02-04 13:18:59.929745+01 | 1486210739.92974 | pgbench_accounts |       1378557952
 2017-02-04 13:18:59.929745+01 | 1486210739.92974 | pgbench_tellers  |          3842048
 2017-02-04 13:18:59.929745+01 | 1486210739.92974 | pgbench_history  |        336740352
 2017-02-04 13:18:59.929745+01 | 1486210739.92974 | pgbench_branches |          2646016

 2017-02-04 13:19:01.008555+01 | 1486210741.00855 | pgbench_accounts |       1378557952
 2017-02-04 13:19:01.008555+01 | 1486210741.00855 | pgbench_tellers  |          3842048
 2017-02-04 13:19:01.008555+01 | 1486210741.00855 | pgbench_history  |        338616320
 2017-02-04 13:19:01.008555+01 | 1486210741.00855 | pgbench_branches |          2646016

 2017-02-04 13:19:02.090046+01 | 1486210742.09005 | pgbench_accounts |       1378557952
 2017-02-04 13:19:02.090046+01 | 1486210742.09005 | pgbench_tellers  |          3842048
 2017-02-04 13:19:02.090046+01 | 1486210742.09005 | pgbench_history  |        340344832
 2017-02-04 13:19:02.090046+01 | 1486210742.09005 | pgbench_branches |          2646016

 2017-02-04 13:19:03.16413+01 | 1486210743.16413 | pgbench_accounts |       1378557952
 2017-02-04 13:19:03.16413+01 | 1486210743.16413 | pgbench_tellers  |          3842048
 2017-02-04 13:19:03.16413+01 | 1486210743.16413 | pgbench_history  |        342261760
 2017-02-04 13:19:03.16413+01 | 1486210743.16413 | pgbench_branches |          2646016

 2017-02-04 13:19:04.246445+01 | 1486210744.24644 | pgbench_accounts |       1378557952
 2017-02-04 13:19:04.246445+01 | 1486210744.24644 | pgbench_tellers  |          3842048
 2017-02-04 13:19:04.246445+01 | 1486210744.24644 | pgbench_history  |        344670208
 2017-02-04 13:19:04.246445+01 | 1486210744.24644 | pgbench_branches |          2646016

 2017-02-04 13:19:05.323116+01 | 1486210745.32312 | pgbench_accounts |       1378557952
 2017-02-04 13:19:05.323116+01 | 1486210745.32312 | pgbench_tellers  |          3842048
 2017-02-04 13:19:05.323116+01 | 1486210745.32312 | pgbench_history  |        346341376
 2017-02-04 13:19:05.323116+01 | 1486210745.32312 | pgbench_branches |          2646016

 2017-02-04 13:19:06.407207+01 | 1486210746.40721 | pgbench_accounts |       1378557952
 2017-02-04 13:19:06.407207+01 | 1486210746.40721 | pgbench_tellers  |          3842048
 2017-02-04 13:19:06.407207+01 | 1486210746.40721 | pgbench_history  |        348217344
 2017-02-04 13:19:06.407207+01 | 1486210746.40721 | pgbench_branches |          2646016

 2017-02-04 13:19:07.485644+01 | 1486210747.48564 | pgbench_accounts |       1378557952
 2017-02-04 13:19:07.485644+01 | 1486210747.48564 | pgbench_tellers  |          3842048
 2017-02-04 13:19:07.485644+01 | 1486210747.48564 | pgbench_history  |        351412224
 2017-02-04 13:19:07.485644+01 | 1486210747.48564 | pgbench_branches |          2646016

 2017-02-04 13:19:08.564473+01 | 1486210748.56447 | pgbench_accounts |       1378557952
 2017-02-04 13:19:08.564473+01 | 1486210748.56447 | pgbench_tellers  |          3842048
 2017-02-04 13:19:08.564473+01 | 1486210748.56447 | pgbench_history  |        352583680
 2017-02-04 13:19:08.564473+01 | 1486210748.56447 | pgbench_branches |          2646016

 2017-02-04 13:19:09.637564+01 | 1486210749.63756 | pgbench_accounts |       1378557952
 2017-02-04 13:19:09.637564+01 | 1486210749.63756 | pgbench_tellers  |          3842048
 2017-02-04 13:19:09.637564+01 | 1486210749.63756 | pgbench_history  |        354459648
 2017-02-04 13:19:09.637564+01 | 1486210749.63756 | pgbench_branches |          2646016

 2017-02-04 13:19:10.711303+01 | 1486210750.7113 | pgbench_accounts |       1378557952
 2017-02-04 13:19:10.711303+01 | 1486210750.7113 | pgbench_tellers  |          3842048
 2017-02-04 13:19:10.711303+01 | 1486210750.7113 | pgbench_history  |        356335616
 2017-02-04 13:19:10.711303+01 | 1486210750.7113 | pgbench_branches |          2646016

 2017-02-04 13:19:11.784968+01 | 1486210751.78497 | pgbench_accounts |       1378557952
 2017-02-04 13:19:11.784968+01 | 1486210751.78497 | pgbench_tellers  |          3842048
 2017-02-04 13:19:11.784968+01 | 1486210751.78497 | pgbench_history  |        358211584
 2017-02-04 13:19:11.784968+01 | 1486210751.78497 | pgbench_branches |          2646016

 2017-02-04 13:19:12.861502+01 | 1486210752.8615 | pgbench_accounts |       1378557952
 2017-02-04 13:19:12.861502+01 | 1486210752.8615 | pgbench_tellers  |          3842048
 2017-02-04 13:19:12.861502+01 | 1486210752.8615 | pgbench_history  |        360767488
 2017-02-04 13:19:12.861502+01 | 1486210752.8615 | pgbench_branches |          2646016

 2017-02-04 13:19:13.950782+01 | 1486210753.95078 | pgbench_accounts |       1378557952
 2017-02-04 13:19:13.950782+01 | 1486210753.95078 | pgbench_tellers  |          3842048
 2017-02-04 13:19:13.950782+01 | 1486210753.95078 | pgbench_history  |        362127360
 2017-02-04 13:19:13.950782+01 | 1486210753.95078 | pgbench_branches |          2646016

 2017-02-04 13:19:15.027223+01 | 1486210755.02722 | pgbench_accounts |       1378557952
 2017-02-04 13:19:15.027223+01 | 1486210755.02722 | pgbench_tellers  |          3842048
 2017-02-04 13:19:15.027223+01 | 1486210755.02722 | pgbench_history  |        364216320
 2017-02-04 13:19:15.027223+01 | 1486210755.02722 | pgbench_branches |          2646016

 2017-02-04 13:19:16.103958+01 | 1486210756.10396 | pgbench_accounts |       1378557952
 2017-02-04 13:19:16.103958+01 | 1486210756.10396 | pgbench_tellers  |          3842048
 2017-02-04 13:19:16.103958+01 | 1486210756.10396 | pgbench_history  |        366256128
 2017-02-04 13:19:16.103958+01 | 1486210756.10396 | pgbench_branches |          2646016

 2017-02-04 13:19:17.177117+01 | 1486210757.17712 | pgbench_accounts |       1378557952
 2017-02-04 13:19:17.177117+01 | 1486210757.17712 | pgbench_tellers  |          3842048
 2017-02-04 13:19:17.177117+01 | 1486210757.17712 | pgbench_history  |        368656384
 2017-02-04 13:19:17.177117+01 | 1486210757.17712 | pgbench_branches |          2646016

 2017-02-04 13:19:18.252242+01 | 1486210758.25224 | pgbench_accounts |       1378557952
 2017-02-04 13:19:18.252242+01 | 1486210758.25224 | pgbench_tellers  |          3842048
 2017-02-04 13:19:18.252242+01 | 1486210758.25224 | pgbench_history  |        370532352
 2017-02-04 13:19:18.252242+01 | 1486210758.25224 | pgbench_branches |          2646016

 2017-02-04 13:19:19.330262+01 | 1486210759.33026 | pgbench_accounts |       1378557952
 2017-02-04 13:19:19.330262+01 | 1486210759.33026 | pgbench_tellers  |          3842048
 2017-02-04 13:19:19.330262+01 | 1486210759.33026 | pgbench_history  |        372736000
 2017-02-04 13:19:19.330262+01 | 1486210759.33026 | pgbench_branches |          2646016

 2017-02-04 13:19:20.405409+01 | 1486210760.40541 | pgbench_accounts |       1378557952
 2017-02-04 13:19:20.405409+01 | 1486210760.40541 | pgbench_tellers  |          3842048
 2017-02-04 13:19:20.405409+01 | 1486210760.40541 | pgbench_history  |        374792192
 2017-02-04 13:19:20.405409+01 | 1486210760.40541 | pgbench_branches |          2646016

 2017-02-04 13:19:21.48926+01 | 1486210761.48926 | pgbench_accounts |       1378557952
 2017-02-04 13:19:21.48926+01 | 1486210761.48926 | pgbench_tellers  |          3842048
 2017-02-04 13:19:21.48926+01 | 1486210761.48926 | pgbench_history  |        376864768
 2017-02-04 13:19:21.48926+01 | 1486210761.48926 | pgbench_branches |          2646016

 2017-02-04 13:19:22.570089+01 | 1486210762.57009 | pgbench_accounts |       1378557952
 2017-02-04 13:19:22.570089+01 | 1486210762.57009 | pgbench_tellers  |          3842048
 2017-02-04 13:19:22.570089+01 | 1486210762.57009 | pgbench_history  |        378740736
 2017-02-04 13:19:22.570089+01 | 1486210762.57009 | pgbench_branches |          2646016

 2017-02-04 13:19:23.64821+01 | 1486210763.64821 | pgbench_accounts |       1378557952
 2017-02-04 13:19:23.64821+01 | 1486210763.64821 | pgbench_tellers  |          3842048
 2017-02-04 13:19:23.64821+01 | 1486210763.64821 | pgbench_history  |        380813312
 2017-02-04 13:19:23.64821+01 | 1486210763.64821 | pgbench_branches |          2646016

 2017-02-04 13:19:24.733237+01 | 1486210764.73324 | pgbench_accounts |       1378557952
 2017-02-04 13:19:24.733237+01 | 1486210764.73324 | pgbench_tellers  |          3842048
 2017-02-04 13:19:24.733237+01 | 1486210764.73324 | pgbench_history  |        383164416
 2017-02-04 13:19:24.733237+01 | 1486210764.73324 | pgbench_branches |          2646016

 2017-02-04 13:19:25.80951+01 | 1486210765.80951 | pgbench_accounts |       1378557952
 2017-02-04 13:19:25.80951+01 | 1486210765.80951 | pgbench_tellers  |          3842048
 2017-02-04 13:19:25.80951+01 | 1486210765.80951 | pgbench_history  |        385073152
 2017-02-04 13:19:25.80951+01 | 1486210765.80951 | pgbench_branches |          2646016

 2017-02-04 13:19:26.889733+01 | 1486210766.88973 | pgbench_accounts |       1378557952
 2017-02-04 13:19:26.889733+01 | 1486210766.88973 | pgbench_tellers  |          3842048
 2017-02-04 13:19:26.889733+01 | 1486210766.88973 | pgbench_history  |        386924544
 2017-02-04 13:19:26.889733+01 | 1486210766.88973 | pgbench_branches |          2646016

 2017-02-04 13:19:27.965965+01 | 1486210767.96597 | pgbench_accounts |       1378557952
 2017-02-04 13:19:27.965965+01 | 1486210767.96597 | pgbench_tellers  |          3842048
 2017-02-04 13:19:27.965965+01 | 1486210767.96597 | pgbench_history  |        389349376
 2017-02-04 13:19:27.965965+01 | 1486210767.96597 | pgbench_branches |          2646016

 2017-02-04 13:19:29.043929+01 | 1486210769.04393 | pgbench_accounts |       1378557952
 2017-02-04 13:19:29.043929+01 | 1486210769.04393 | pgbench_tellers  |          3842048
 2017-02-04 13:19:29.043929+01 | 1486210769.04393 | pgbench_history  |        391700480
 2017-02-04 13:19:29.043929+01 | 1486210769.04393 | pgbench_branches |          2646016

 2017-02-04 13:19:30.121015+01 | 1486210770.12102 | pgbench_accounts |       1378557952
 2017-02-04 13:19:30.121015+01 | 1486210770.12102 | pgbench_tellers  |          3842048
 2017-02-04 13:19:30.121015+01 | 1486210770.12102 | pgbench_history  |        393297920
 2017-02-04 13:19:30.121015+01 | 1486210770.12102 | pgbench_branches |          2646016

 2017-02-04 13:19:31.198412+01 | 1486210771.19841 | pgbench_accounts |       1378557952
 2017-02-04 13:19:31.198412+01 | 1486210771.19841 | pgbench_tellers  |          3842048
 2017-02-04 13:19:31.198412+01 | 1486210771.19841 | pgbench_history  |        395124736
 2017-02-04 13:19:31.198412+01 | 1486210771.19841 | pgbench_branches |          2646016

 2017-02-04 13:19:32.276274+01 | 1486210772.27627 | pgbench_accounts |       1378557952
 2017-02-04 13:19:32.276274+01 | 1486210772.27627 | pgbench_tellers  |          3842048
 2017-02-04 13:19:32.276274+01 | 1486210772.27627 | pgbench_history  |        397213696
 2017-02-04 13:19:32.276274+01 | 1486210772.27627 | pgbench_branches |          2646016

 2017-02-04 13:19:33.354902+01 | 1486210773.3549 | pgbench_accounts |       1378557952
 2017-02-04 13:19:33.354902+01 | 1486210773.3549 | pgbench_tellers  |          3842048
 2017-02-04 13:19:33.354902+01 | 1486210773.3549 | pgbench_history  |        399097856
 2017-02-04 13:19:33.354902+01 | 1486210773.3549 | pgbench_branches |          2646016

 2017-02-04 13:19:34.416774+01 | 1486210774.41677 | pgbench_accounts |       1378557952
 2017-02-04 13:19:34.416774+01 | 1486210774.41677 | pgbench_tellers  |          3842048
 2017-02-04 13:19:34.416774+01 | 1486210774.41677 | pgbench_history  |        401711104
 2017-02-04 13:19:34.416774+01 | 1486210774.41677 | pgbench_branches |          2646016

 2017-02-04 13:19:35.499759+01 | 1486210775.49976 | pgbench_accounts |       1378557952
 2017-02-04 13:19:35.499759+01 | 1486210775.49976 | pgbench_tellers  |          3842048
 2017-02-04 13:19:35.499759+01 | 1486210775.49976 | pgbench_history  |        403120128
 2017-02-04 13:19:35.499759+01 | 1486210775.49976 | pgbench_branches |          2646016

 2017-02-04 13:19:36.573634+01 | 1486210776.57363 | pgbench_accounts |       1378557952
 2017-02-04 13:19:36.573634+01 | 1486210776.57363 | pgbench_tellers  |          3842048
 2017-02-04 13:19:36.573634+01 | 1486210776.57363 | pgbench_history  |        404807680
 2017-02-04 13:19:36.573634+01 | 1486210776.57363 | pgbench_branches |          2646016

 2017-02-04 13:19:37.652535+01 | 1486210777.65253 | pgbench_accounts |       1378557952
 2017-02-04 13:19:37.652535+01 | 1486210777.65253 | pgbench_tellers  |          3842048
 2017-02-04 13:19:37.652535+01 | 1486210777.65253 | pgbench_history  |        408813568
 2017-02-04 13:19:37.652535+01 | 1486210777.65253 | pgbench_branches |          2646016

 2017-02-04 13:19:38.734722+01 | 1486210778.73472 | pgbench_accounts |       1378557952
 2017-02-04 13:19:38.734722+01 | 1486210778.73472 | pgbench_tellers  |          3842048
 2017-02-04 13:19:38.734722+01 | 1486210778.73472 | pgbench_history  |        408813568
 2017-02-04 13:19:38.734722+01 | 1486210778.73472 | pgbench_branches |          2646016

 2017-02-04 13:19:39.812282+01 | 1486210779.81228 | pgbench_accounts |       1378557952
 2017-02-04 13:19:39.812282+01 | 1486210779.81228 | pgbench_tellers  |          3842048
 2017-02-04 13:19:39.812282+01 | 1486210779.81228 | pgbench_history  |        411000832
 2017-02-04 13:19:39.812282+01 | 1486210779.81228 | pgbench_branches |          2646016

 2017-02-04 13:19:40.886831+01 | 1486210780.88683 | pgbench_accounts |       1378557952
 2017-02-04 13:19:40.886831+01 | 1486210780.88683 | pgbench_tellers  |          3842048
 2017-02-04 13:19:40.886831+01 | 1486210780.88683 | pgbench_history  |        413040640
 2017-02-04 13:19:40.886831+01 | 1486210780.88683 | pgbench_branches |          2646016

 2017-02-04 13:19:41.964026+01 | 1486210781.96403 | pgbench_accounts |       1378557952
 2017-02-04 13:19:41.964026+01 | 1486210781.96403 | pgbench_tellers  |          3842048
 2017-02-04 13:19:41.964026+01 | 1486210781.96403 | pgbench_history  |        415055872
 2017-02-04 13:19:41.964026+01 | 1486210781.96403 | pgbench_branches |          2646016

 2017-02-04 13:19:43.048104+01 | 1486210783.0481 | pgbench_accounts |       1378557952
 2017-02-04 13:19:43.048104+01 | 1486210783.0481 | pgbench_tellers  |          3842048
 2017-02-04 13:19:43.048104+01 | 1486210783.0481 | pgbench_history  |        417144832
 2017-02-04 13:19:43.048104+01 | 1486210783.0481 | pgbench_branches |          2646016

 2017-02-04 13:19:44.123739+01 | 1486210784.12374 | pgbench_accounts |       1378557952
 2017-02-04 13:19:44.123739+01 | 1486210784.12374 | pgbench_tellers  |          3842048
 2017-02-04 13:19:44.123739+01 | 1486210784.12374 | pgbench_history  |        419373056
 2017-02-04 13:19:44.123739+01 | 1486210784.12374 | pgbench_branches |          2646016

 2017-02-04 13:19:45.199153+01 | 1486210785.19915 | pgbench_accounts |       1378557952
 2017-02-04 13:19:45.199153+01 | 1486210785.19915 | pgbench_tellers  |          3842048
 2017-02-04 13:19:45.199153+01 | 1486210785.19915 | pgbench_history  |        421134336
 2017-02-04 13:19:45.199153+01 | 1486210785.19915 | pgbench_branches |          2646016

 2017-02-04 13:19:46.281188+01 | 1486210786.28119 | pgbench_accounts |       1378557952
 2017-02-04 13:19:46.281188+01 | 1486210786.28119 | pgbench_tellers  |          3842048
 2017-02-04 13:19:46.281188+01 | 1486210786.28119 | pgbench_history  |        423739392
 2017-02-04 13:19:46.281188+01 | 1486210786.28119 | pgbench_branches |          2646016

 2017-02-04 13:19:47.354161+01 | 1486210787.35416 | pgbench_accounts |       1378557952
 2017-02-04 13:19:47.354161+01 | 1486210787.35416 | pgbench_tellers  |          3842048
 2017-02-04 13:19:47.354161+01 | 1486210787.35416 | pgbench_history  |        425615360
 2017-02-04 13:19:47.354161+01 | 1486210787.35416 | pgbench_branches |          2646016

 2017-02-04 13:19:48.432697+01 | 1486210788.4327 | pgbench_accounts |       1378557952
 2017-02-04 13:19:48.432697+01 | 1486210788.4327 | pgbench_tellers  |          3842048
 2017-02-04 13:19:48.432697+01 | 1486210788.4327 | pgbench_history  |        427114496
 2017-02-04 13:19:48.432697+01 | 1486210788.4327 | pgbench_branches |          2646016

 2017-02-04 13:19:49.518412+01 | 1486210789.51841 | pgbench_accounts |       1378557952
 2017-02-04 13:19:49.518412+01 | 1486210789.51841 | pgbench_tellers  |          3842048
 2017-02-04 13:19:49.518412+01 | 1486210789.51841 | pgbench_history  |        429293568
 2017-02-04 13:19:49.518412+01 | 1486210789.51841 | pgbench_branches |          2646016

 2017-02-04 13:19:50.591015+01 | 1486210790.59102 | pgbench_accounts |       1378557952
 2017-02-04 13:19:50.591015+01 | 1486210790.59102 | pgbench_tellers  |          3842048
 2017-02-04 13:19:50.591015+01 | 1486210790.59102 | pgbench_history  |        431824896
 2017-02-04 13:19:50.591015+01 | 1486210790.59102 | pgbench_branches |          2646016

 2017-02-04 13:19:51.665933+01 | 1486210791.66593 | pgbench_accounts |       1378557952
 2017-02-04 13:19:51.665933+01 | 1486210791.66593 | pgbench_tellers  |          3842048
 2017-02-04 13:19:51.665933+01 | 1486210791.66593 | pgbench_history  |        433651712
 2017-02-04 13:19:51.665933+01 | 1486210791.66593 | pgbench_branches |          2646016

 2017-02-04 13:19:52.743474+01 | 1486210792.74347 | pgbench_accounts |       1378557952
 2017-02-04 13:19:52.743474+01 | 1486210792.74347 | pgbench_tellers  |          3842048
 2017-02-04 13:19:52.743474+01 | 1486210792.74347 | pgbench_history  |        435363840
 2017-02-04 13:19:52.743474+01 | 1486210792.74347 | pgbench_branches |          2646016

 2017-02-04 13:19:53.820458+01 | 1486210793.82046 | pgbench_accounts |       1378557952
 2017-02-04 13:19:53.820458+01 | 1486210793.82046 | pgbench_tellers  |          3842048
 2017-02-04 13:19:53.820458+01 | 1486210793.82046 | pgbench_history  |        437460992
 2017-02-04 13:19:53.820458+01 | 1486210793.82046 | pgbench_branches |          2646016

 2017-02-04 13:19:54.897244+01 | 1486210794.89724 | pgbench_accounts |       1378557952
 2017-02-04 13:19:54.897244+01 | 1486210794.89724 | pgbench_tellers  |          3842048
 2017-02-04 13:19:54.897244+01 | 1486210794.89724 | pgbench_history  |        439525376
 2017-02-04 13:19:54.897244+01 | 1486210794.89724 | pgbench_branches |          2646016

 2017-02-04 13:19:55.974116+01 | 1486210795.97412 | pgbench_accounts |       1378557952
 2017-02-04 13:19:55.974116+01 | 1486210795.97412 | pgbench_tellers  |          3842048
 2017-02-04 13:19:55.974116+01 | 1486210795.97412 | pgbench_history  |        444375040
 2017-02-04 13:19:55.974116+01 | 1486210795.97412 | pgbench_branches |          2646016

 2017-02-04 13:19:57.052049+01 | 1486210797.05205 | pgbench_accounts |       1378557952
 2017-02-04 13:19:57.052049+01 | 1486210797.05205 | pgbench_tellers  |          3842048
 2017-02-04 13:19:57.052049+01 | 1486210797.05205 | pgbench_history  |        444375040
 2017-02-04 13:19:57.052049+01 | 1486210797.05205 | pgbench_branches |          2646016

 2017-02-04 13:19:58.132437+01 | 1486210798.13244 | pgbench_accounts |       1378557952
 2017-02-04 13:19:58.132437+01 | 1486210798.13244 | pgbench_tellers  |          3842048
 2017-02-04 13:19:58.132437+01 | 1486210798.13244 | pgbench_history  |        445546496
 2017-02-04 13:19:58.132437+01 | 1486210798.13244 | pgbench_branches |          2646016

 2017-02-04 13:19:59.205712+01 | 1486210799.20571 | pgbench_accounts |       1378557952
 2017-02-04 13:19:59.205712+01 | 1486210799.20571 | pgbench_tellers  |          3842048
 2017-02-04 13:19:59.205712+01 | 1486210799.20571 | pgbench_history  |        447635456
 2017-02-04 13:19:59.205712+01 | 1486210799.20571 | pgbench_branches |          2646016

 2017-02-04 13:20:00.277705+01 | 1486210800.2777 | pgbench_accounts |       1378557952
 2017-02-04 13:20:00.277705+01 | 1486210800.2777 | pgbench_tellers  |          3842048
 2017-02-04 13:20:00.277705+01 | 1486210800.2777 | pgbench_history  |        449568768
 2017-02-04 13:20:00.277705+01 | 1486210800.2777 | pgbench_branches |          2646016

 2017-02-04 13:20:01.359022+01 | 1486210801.35902 | pgbench_accounts |       1378557952
 2017-02-04 13:20:01.359022+01 | 1486210801.35902 | pgbench_tellers  |          3842048
 2017-02-04 13:20:01.359022+01 | 1486210801.35902 | pgbench_history  |        451608576
 2017-02-04 13:20:01.359022+01 | 1486210801.35902 | pgbench_branches |          2646016

 2017-02-04 13:20:02.44211+01 | 1486210802.44211 | pgbench_accounts |       1378557952
 2017-02-04 13:20:02.44211+01 | 1486210802.44211 | pgbench_tellers  |          3842048
 2017-02-04 13:20:02.44211+01 | 1486210802.44211 | pgbench_history  |        454033408
 2017-02-04 13:20:02.44211+01 | 1486210802.44211 | pgbench_branches |          2646016

 2017-02-04 13:20:03.521648+01 | 1486210803.52165 | pgbench_accounts |       1378557952
 2017-02-04 13:20:03.521648+01 | 1486210803.52165 | pgbench_tellers  |          3842048
 2017-02-04 13:20:03.521648+01 | 1486210803.52165 | pgbench_history  |        455557120
 2017-02-04 13:20:03.521648+01 | 1486210803.52165 | pgbench_branches |          2646016

 2017-02-04 13:20:04.602236+01 | 1486210804.60224 | pgbench_accounts |       1378557952
 2017-02-04 13:20:04.602236+01 | 1486210804.60224 | pgbench_tellers  |          3842048
 2017-02-04 13:20:04.602236+01 | 1486210804.60224 | pgbench_history  |        457457664
 2017-02-04 13:20:04.602236+01 | 1486210804.60224 | pgbench_branches |          2646016

 2017-02-04 13:20:05.679214+01 | 1486210805.67921 | pgbench_accounts |       1378557952
 2017-02-04 13:20:05.679214+01 | 1486210805.67921 | pgbench_tellers  |          3842048
 2017-02-04 13:20:05.679214+01 | 1486210805.67921 | pgbench_history  |        459636736
 2017-02-04 13:20:05.679214+01 | 1486210805.67921 | pgbench_branches |          2646016

 2017-02-04 13:20:06.759336+01 | 1486210806.75934 | pgbench_accounts |       1378557952
 2017-02-04 13:20:06.759336+01 | 1486210806.75934 | pgbench_tellers  |          3842048
 2017-02-04 13:20:06.759336+01 | 1486210806.75934 | pgbench_history  |        462004224
 2017-02-04 13:20:06.759336+01 | 1486210806.75934 | pgbench_branches |          2646016

 2017-02-04 13:20:07.835132+01 | 1486210807.83513 | pgbench_accounts |       1378557952
 2017-02-04 13:20:07.835132+01 | 1486210807.83513 | pgbench_tellers  |          3842048
 2017-02-04 13:20:07.835132+01 | 1486210807.83513 | pgbench_history  |        463388672
 2017-02-04 13:20:07.835132+01 | 1486210807.83513 | pgbench_branches |          2646016

 2017-02-04 13:20:08.922504+01 | 1486210808.9225 | pgbench_accounts |       1378557952
 2017-02-04 13:20:08.922504+01 | 1486210808.9225 | pgbench_tellers  |          3842048
 2017-02-04 13:20:08.922504+01 | 1486210808.9225 | pgbench_history  |        465616896
 2017-02-04 13:20:08.922504+01 | 1486210808.9225 | pgbench_branches |          2646016

 2017-02-04 13:20:09.999491+01 | 1486210809.99949 | pgbench_accounts |       1378557952
 2017-02-04 13:20:09.999491+01 | 1486210809.99949 | pgbench_tellers  |          3842048
 2017-02-04 13:20:09.999491+01 | 1486210809.99949 | pgbench_history  |        468942848
 2017-02-04 13:20:09.999491+01 | 1486210809.99949 | pgbench_branches |          2646016

 2017-02-04 13:20:11.077653+01 | 1486210811.07765 | pgbench_accounts |       1378557952
 2017-02-04 13:20:11.077653+01 | 1486210811.07765 | pgbench_tellers  |          3842048
 2017-02-04 13:20:11.077653+01 | 1486210811.07765 | pgbench_history  |        470278144
 2017-02-04 13:20:11.077653+01 | 1486210811.07765 | pgbench_branches |          2646016

 2017-02-04 13:20:12.154211+01 | 1486210812.15421 | pgbench_accounts |       1378557952
 2017-02-04 13:20:12.154211+01 | 1486210812.15421 | pgbench_tellers  |          3842048
 2017-02-04 13:20:12.154211+01 | 1486210812.15421 | pgbench_history  |        471449600
 2017-02-04 13:20:12.154211+01 | 1486210812.15421 | pgbench_branches |          2646016

 2017-02-04 13:20:13.227934+01 | 1486210813.22793 | pgbench_accounts |       1378557952
 2017-02-04 13:20:13.227934+01 | 1486210813.22793 | pgbench_tellers  |          3842048
 2017-02-04 13:20:13.227934+01 | 1486210813.22793 | pgbench_history  |        473374720
 2017-02-04 13:20:13.227934+01 | 1486210813.22793 | pgbench_branches |          2646016

 2017-02-04 13:20:14.303467+01 | 1486210814.30347 | pgbench_accounts |       1378557952
 2017-02-04 13:20:14.303467+01 | 1486210814.30347 | pgbench_tellers  |          3842048
 2017-02-04 13:20:14.303467+01 | 1486210814.30347 | pgbench_history  |        475906048
 2017-02-04 13:20:14.303467+01 | 1486210814.30347 | pgbench_branches |          2646016

 2017-02-04 13:20:15.380537+01 | 1486210815.38054 | pgbench_accounts |       1378557952
 2017-02-04 13:20:15.380537+01 | 1486210815.38054 | pgbench_tellers  |          3842048
 2017-02-04 13:20:15.380537+01 | 1486210815.38054 | pgbench_history  |        477454336
 2017-02-04 13:20:15.380537+01 | 1486210815.38054 | pgbench_branches |          2646016

 2017-02-04 13:20:16.461238+01 | 1486210816.46124 | pgbench_accounts |       1378557952
 2017-02-04 13:20:16.461238+01 | 1486210816.46124 | pgbench_tellers  |          3842048
 2017-02-04 13:20:16.461238+01 | 1486210816.46124 | pgbench_history  |        479518720
 2017-02-04 13:20:16.461238+01 | 1486210816.46124 | pgbench_branches |          2646016

 2017-02-04 13:20:17.541391+01 | 1486210817.54139 | pgbench_accounts |       1378557952
 2017-02-04 13:20:17.541391+01 | 1486210817.54139 | pgbench_tellers  |          3842048
 2017-02-04 13:20:17.541391+01 | 1486210817.54139 | pgbench_history  |        481443840
 2017-02-04 13:20:17.541391+01 | 1486210817.54139 | pgbench_branches |          2646016

 2017-02-04 13:20:18.623038+01 | 1486210818.62304 | pgbench_accounts |       1378557952
 2017-02-04 13:20:18.623038+01 | 1486210818.62304 | pgbench_tellers  |          3842048
 2017-02-04 13:20:18.623038+01 | 1486210818.62304 | pgbench_history  |        483704832
 2017-02-04 13:20:18.623038+01 | 1486210818.62304 | pgbench_branches |          2646016

 2017-02-04 13:20:19.706606+01 | 1486210819.70661 | pgbench_accounts |       1378557952
 2017-02-04 13:20:19.706606+01 | 1486210819.70661 | pgbench_tellers  |          3842048
 2017-02-04 13:20:19.706606+01 | 1486210819.70661 | pgbench_history  |        485638144
 2017-02-04 13:20:19.706606+01 | 1486210819.70661 | pgbench_branches |          2646016

 2017-02-04 13:20:20.778866+01 | 1486210820.77887 | pgbench_accounts |       1378557952
 2017-02-04 13:20:20.778866+01 | 1486210820.77887 | pgbench_tellers  |          3842048
 2017-02-04 13:20:20.778866+01 | 1486210820.77887 | pgbench_history  |        487399424
 2017-02-04 13:20:20.778866+01 | 1486210820.77887 | pgbench_branches |          2646016

 2017-02-04 13:20:21.857078+01 | 1486210821.85708 | pgbench_accounts |       1378557952
 2017-02-04 13:20:21.857078+01 | 1486210821.85708 | pgbench_tellers  |          3842048
 2017-02-04 13:20:21.857078+01 | 1486210821.85708 | pgbench_history  |        489586688
 2017-02-04 13:20:21.857078+01 | 1486210821.85708 | pgbench_branches |          2646016

 2017-02-04 13:20:22.932665+01 | 1486210822.93267 | pgbench_accounts |       1378557952
 2017-02-04 13:20:22.932665+01 | 1486210822.93267 | pgbench_tellers  |          3842048
 2017-02-04 13:20:22.932665+01 | 1486210822.93267 | pgbench_history  |        491905024
 2017-02-04 13:20:22.932665+01 | 1486210822.93267 | pgbench_branches |          2646016

 2017-02-04 13:20:24.009227+01 | 1486210824.00923 | pgbench_accounts |       1378557952
 2017-02-04 13:20:24.009227+01 | 1486210824.00923 | pgbench_tellers  |          3842048
 2017-02-04 13:20:24.009227+01 | 1486210824.00923 | pgbench_history  |        493486080
 2017-02-04 13:20:24.009227+01 | 1486210824.00923 | pgbench_branches |          2646016

 2017-02-04 13:20:25.084936+01 | 1486210825.08494 | pgbench_accounts |       1378557952
 2017-02-04 13:20:25.084936+01 | 1486210825.08494 | pgbench_tellers  |          3842048
 2017-02-04 13:20:25.084936+01 | 1486210825.08494 | pgbench_history  |        495042560
 2017-02-04 13:20:25.084936+01 | 1486210825.08494 | pgbench_branches |          2646016

 2017-02-04 13:20:26.165398+01 | 1486210826.1654 | pgbench_accounts |       1378557952
 2017-02-04 13:20:26.165398+01 | 1486210826.1654 | pgbench_tellers  |          3842048
 2017-02-04 13:20:26.165398+01 | 1486210826.1654 | pgbench_history  |        497106944
 2017-02-04 13:20:26.165398+01 | 1486210826.1654 | pgbench_branches |          2646016

 2017-02-04 13:20:27.244051+01 | 1486210827.24405 | pgbench_accounts |       1378557952
 2017-02-04 13:20:27.244051+01 | 1486210827.24405 | pgbench_tellers  |          3842048
 2017-02-04 13:20:27.244051+01 | 1486210827.24405 | pgbench_history  |        498819072
 2017-02-04 13:20:27.244051+01 | 1486210827.24405 | pgbench_branches |          2646016

 2017-02-04 13:20:28.321601+01 | 1486210828.3216 | pgbench_accounts |       1378557952
 2017-02-04 13:20:28.321601+01 | 1486210828.3216 | pgbench_tellers  |          3842048
 2017-02-04 13:20:28.321601+01 | 1486210828.3216 | pgbench_history  |        501211136
 2017-02-04 13:20:28.321601+01 | 1486210828.3216 | pgbench_branches |          2646016

 2017-02-04 13:20:29.389636+01 | 1486210829.38964 | pgbench_accounts |       1378557952
 2017-02-04 13:20:29.389636+01 | 1486210829.38964 | pgbench_tellers  |          3842048
 2017-02-04 13:20:29.389636+01 | 1486210829.38964 | pgbench_history  |        503390208
 2017-02-04 13:20:29.389636+01 | 1486210829.38964 | pgbench_branches |          2646016

 2017-02-04 13:20:30.469125+01 | 1486210830.46913 | pgbench_accounts |       1378557952
 2017-02-04 13:20:30.469125+01 | 1486210830.46913 | pgbench_tellers  |          3842048
 2017-02-04 13:20:30.469125+01 | 1486210830.46913 | pgbench_history  |        505266176
 2017-02-04 13:20:30.469125+01 | 1486210830.46913 | pgbench_branches |          2646016

 2017-02-04 13:20:31.543889+01 | 1486210831.54389 | pgbench_accounts |       1378557952
 2017-02-04 13:20:31.543889+01 | 1486210831.54389 | pgbench_tellers  |          3842048
 2017-02-04 13:20:31.543889+01 | 1486210831.54389 | pgbench_history  |        507494400
 2017-02-04 13:20:31.543889+01 | 1486210831.54389 | pgbench_branches |          2646016

 2017-02-04 13:20:32.618285+01 | 1486210832.61828 | pgbench_accounts |       1378557952
 2017-02-04 13:20:32.618285+01 | 1486210832.61828 | pgbench_tellers  |          3842048
 2017-02-04 13:20:32.618285+01 | 1486210832.61828 | pgbench_history  |        509698048
 2017-02-04 13:20:32.618285+01 | 1486210832.61828 | pgbench_branches |          2646016

 2017-02-04 13:20:33.6932+01 | 1486210833.6932 | pgbench_accounts |       1378557952
 2017-02-04 13:20:33.6932+01 | 1486210833.6932 | pgbench_tellers  |          3842048
 2017-02-04 13:20:33.6932+01 | 1486210833.6932 | pgbench_history  |        511426560
 2017-02-04 13:20:33.6932+01 | 1486210833.6932 | pgbench_branches |          2646016

 2017-02-04 13:20:34.769276+01 | 1486210834.76928 | pgbench_accounts |       1378557952
 2017-02-04 13:20:34.769276+01 | 1486210834.76928 | pgbench_tellers  |          3842048
 2017-02-04 13:20:34.769276+01 | 1486210834.76928 | pgbench_history  |        513982464
 2017-02-04 13:20:34.769276+01 | 1486210834.76928 | pgbench_branches |          2646016

 2017-02-04 13:20:35.843553+01 | 1486210835.84355 | pgbench_accounts |       1378557952
 2017-02-04 13:20:35.843553+01 | 1486210835.84355 | pgbench_tellers  |          3842048
 2017-02-04 13:20:35.843553+01 | 1486210835.84355 | pgbench_history  |        515342336
 2017-02-04 13:20:35.843553+01 | 1486210835.84355 | pgbench_branches |          2646016

 2017-02-04 13:20:36.920214+01 | 1486210836.92021 | pgbench_accounts |       1378557952
 2017-02-04 13:20:36.920214+01 | 1486210836.92021 | pgbench_tellers  |          3842048
 2017-02-04 13:20:36.920214+01 | 1486210836.92021 | pgbench_history  |        517087232
 2017-02-04 13:20:36.920214+01 | 1486210836.92021 | pgbench_branches |          2646016

 2017-02-04 13:20:37.998284+01 | 1486210837.99828 | pgbench_accounts |       1378557952
 2017-02-04 13:20:37.998284+01 | 1486210837.99828 | pgbench_tellers  |          3842048
 2017-02-04 13:20:37.998284+01 | 1486210837.99828 | pgbench_history  |        519593984
 2017-02-04 13:20:37.998284+01 | 1486210837.99828 | pgbench_branches |          2646016

 2017-02-04 13:20:39.074061+01 | 1486210839.07406 | pgbench_accounts |       1378557952
 2017-02-04 13:20:39.074061+01 | 1486210839.07406 | pgbench_tellers  |          3842048
 2017-02-04 13:20:39.074061+01 | 1486210839.07406 | pgbench_history  |        521658368
 2017-02-04 13:20:39.074061+01 | 1486210839.07406 | pgbench_branches |          2646016

 2017-02-04 13:20:40.147854+01 | 1486210840.14785 | pgbench_accounts |       1378557952
 2017-02-04 13:20:40.147854+01 | 1486210840.14785 | pgbench_tellers  |          3842048
 2017-02-04 13:20:40.147854+01 | 1486210840.14785 | pgbench_history  |        523182080
 2017-02-04 13:20:40.147854+01 | 1486210840.14785 | pgbench_branches |          2646016

 2017-02-04 13:20:41.219414+01 | 1486210841.21941 | pgbench_accounts |       1378557952
 2017-02-04 13:20:41.219414+01 | 1486210841.21941 | pgbench_tellers  |          3842048
 2017-02-04 13:20:41.219414+01 | 1486210841.21941 | pgbench_history  |        524894208
 2017-02-04 13:20:41.219414+01 | 1486210841.21941 | pgbench_branches |          2646016

 2017-02-04 13:20:42.297519+01 | 1486210842.29752 | pgbench_accounts |       1378557952
 2017-02-04 13:20:42.297519+01 | 1486210842.29752 | pgbench_tellers  |          3842048
 2017-02-04 13:20:42.297519+01 | 1486210842.29752 | pgbench_history  |        527130624
 2017-02-04 13:20:42.297519+01 | 1486210842.29752 | pgbench_branches |          2646016

 2017-02-04 13:20:43.378074+01 | 1486210843.37807 | pgbench_accounts |       1378557952
 2017-02-04 13:20:43.378074+01 | 1486210843.37807 | pgbench_tellers  |          3842048
 2017-02-04 13:20:43.378074+01 | 1486210843.37807 | pgbench_history  |        529399808
 2017-02-04 13:20:43.378074+01 | 1486210843.37807 | pgbench_branches |          2646016

 2017-02-04 13:20:44.463887+01 | 1486210844.46389 | pgbench_accounts |       1378557952
 2017-02-04 13:20:44.463887+01 | 1486210844.46389 | pgbench_tellers  |          3842048
 2017-02-04 13:20:44.463887+01 | 1486210844.46389 | pgbench_history  |        531349504
 2017-02-04 13:20:44.463887+01 | 1486210844.46389 | pgbench_branches |          2646016

 2017-02-04 13:20:45.54417+01 | 1486210845.54417 | pgbench_accounts |       1378557952
 2017-02-04 13:20:45.54417+01 | 1486210845.54417 | pgbench_tellers  |          3842048
 2017-02-04 13:20:45.54417+01 | 1486210845.54417 | pgbench_history  |        532946944
 2017-02-04 13:20:45.54417+01 | 1486210845.54417 | pgbench_branches |          2646016

 2017-02-04 13:20:46.619761+01 | 1486210846.61976 | pgbench_accounts |       1378557952
 2017-02-04 13:20:46.619761+01 | 1486210846.61976 | pgbench_tellers  |          3842048
 2017-02-04 13:20:46.619761+01 | 1486210846.61976 | pgbench_history  |        535314432
 2017-02-04 13:20:46.619761+01 | 1486210846.61976 | pgbench_branches |          2646016

 2017-02-04 13:20:47.6861+01 | 1486210847.6861 | pgbench_accounts |       1378557952
 2017-02-04 13:20:47.6861+01 | 1486210847.6861 | pgbench_tellers  |          3842048
 2017-02-04 13:20:47.6861+01 | 1486210847.6861 | pgbench_history  |        536862720
 2017-02-04 13:20:47.6861+01 | 1486210847.6861 | pgbench_branches |          2646016

 2017-02-04 13:20:48.76462+01 | 1486210848.76462 | pgbench_accounts |       1378557952
 2017-02-04 13:20:48.76462+01 | 1486210848.76462 | pgbench_tellers  |          3842048
 2017-02-04 13:20:48.76462+01 | 1486210848.76462 | pgbench_history  |        538599424
 2017-02-04 13:20:48.76462+01 | 1486210848.76462 | pgbench_branches |          2646016

 2017-02-04 13:20:49.840231+01 | 1486210849.84023 | pgbench_accounts |       1378557952
 2017-02-04 13:20:49.840231+01 | 1486210849.84023 | pgbench_tellers  |          3842048
 2017-02-04 13:20:49.840231+01 | 1486210849.84023 | pgbench_history  |        540803072
 2017-02-04 13:20:49.840231+01 | 1486210849.84023 | pgbench_branches |          2646016

 2017-02-04 13:20:50.913699+01 | 1486210850.9137 | pgbench_accounts |       1378557952
 2017-02-04 13:20:50.913699+01 | 1486210850.9137 | pgbench_tellers  |          3842048
 2017-02-04 13:20:50.913699+01 | 1486210850.9137 | pgbench_history  |        542818304
 2017-02-04 13:20:50.913699+01 | 1486210850.9137 | pgbench_branches |          2646016

 2017-02-04 13:20:51.994527+01 | 1486210851.99453 | pgbench_accounts |       1378557952
 2017-02-04 13:20:51.994527+01 | 1486210851.99453 | pgbench_tellers  |          3842048
 2017-02-04 13:20:51.994527+01 | 1486210851.99453 | pgbench_history  |        545841152
 2017-02-04 13:20:51.994527+01 | 1486210851.99453 | pgbench_branches |          2646016

 2017-02-04 13:20:53.07423+01 | 1486210853.07423 | pgbench_accounts |       1378557952
 2017-02-04 13:20:53.07423+01 | 1486210853.07423 | pgbench_tellers  |          3842048
 2017-02-04 13:20:53.07423+01 | 1486210853.07423 | pgbench_history  |        547233792
 2017-02-04 13:20:53.07423+01 | 1486210853.07423 | pgbench_branches |          2646016

 2017-02-04 13:20:54.149949+01 | 1486210854.14995 | pgbench_accounts |       1378557952
 2017-02-04 13:20:54.149949+01 | 1486210854.14995 | pgbench_tellers  |          3842048
 2017-02-04 13:20:54.149949+01 | 1486210854.14995 | pgbench_history  |        549298176
 2017-02-04 13:20:54.149949+01 | 1486210854.14995 | pgbench_branches |          2646016

 2017-02-04 13:20:55.225925+01 | 1486210855.22592 | pgbench_accounts |       1378557952
 2017-02-04 13:20:55.225925+01 | 1486210855.22592 | pgbench_tellers  |          3842048
 2017-02-04 13:20:55.225925+01 | 1486210855.22592 | pgbench_history  |        551534592
 2017-02-04 13:20:55.225925+01 | 1486210855.22592 | pgbench_branches |          2646016

 2017-02-04 13:20:56.306227+01 | 1486210856.30623 | pgbench_accounts |       1378557952
 2017-02-04 13:20:56.306227+01 | 1486210856.30623 | pgbench_tellers  |          3842048
 2017-02-04 13:20:56.306227+01 | 1486210856.30623 | pgbench_history  |        553246720
 2017-02-04 13:20:56.306227+01 | 1486210856.30623 | pgbench_branches |          2646016

 2017-02-04 13:20:57.381146+01 | 1486210857.38115 | pgbench_accounts |       1378557952
 2017-02-04 13:20:57.381146+01 | 1486210857.38115 | pgbench_tellers  |          3842048
 2017-02-04 13:20:57.381146+01 | 1486210857.38115 | pgbench_history  |        555474944
 2017-02-04 13:20:57.381146+01 | 1486210857.38115 | pgbench_branches |          2646016

 2017-02-04 13:20:58.461588+01 | 1486210858.46159 | pgbench_accounts |       1378557952
 2017-02-04 13:20:58.461588+01 | 1486210858.46159 | pgbench_tellers  |          3842048
 2017-02-04 13:20:58.461588+01 | 1486210858.46159 | pgbench_history  |        557408256
 2017-02-04 13:20:58.461588+01 | 1486210858.46159 | pgbench_branches |          2646016

