 2017-02-03 23:49:22.363483+01 | 1486162162.36348 | 20/E426F9E0              |          141266713056

 2017-02-03 23:49:23.451016+01 | 1486162163.45102 | 20/EBA5FB88              |          141392477064

 2017-02-03 23:49:24.524887+01 | 1486162164.52489 | 20/F3C362B8              |          141528621752

 2017-02-03 23:49:25.606395+01 | 1486162165.6064 | 20/FB6EAE88              |          141657288328

 2017-02-03 23:49:26.697533+01 | 1486162166.69753 | 21/2365DE8               |          141771038184

 2017-02-03 23:49:27.787105+01 | 1486162167.78711 | 21/853A358               |          141873619800

 2017-02-03 23:49:28.875213+01 | 1486162168.87521 | 21/DCF3180               |          141965603200

 2017-02-03 23:49:29.965599+01 | 1486162169.9656 | 21/129F9D68              |          142046371176

 2017-02-03 23:49:31.039398+01 | 1486162171.0394 | 21/16EDD730              |          142118606640

 2017-02-03 23:49:32.117851+01 | 1486162172.11785 | 21/1B0131E8              |          142186983912

 2017-02-03 23:49:33.198961+01 | 1486162173.19896 | 21/1EA854F8              |          142248269048

 2017-02-03 23:49:34.290138+01 | 1486162174.29014 | 21/2225F2B0              |          142306833072

 2017-02-03 23:49:35.367982+01 | 1486162175.36798 | 21/25269CC8              |          142357208264

 2017-02-03 23:49:36.438118+01 | 1486162176.43812 | 21/27FE7FF0              |          142404911088

 2017-02-03 23:49:37.522561+01 | 1486162177.52256 | 21/2AB29DC8              |          142450269640

 2017-02-03 23:49:38.610587+01 | 1486162178.61059 | 21/2D1B6C68              |          142490692712

 2017-02-03 23:49:39.681646+01 | 1486162179.68165 | 21/2F377EE0              |          142526086880

 2017-02-03 23:49:40.763082+01 | 1486162180.76308 | 21/3141D988              |          142560319880

 2017-02-03 23:49:41.835978+01 | 1486162181.83598 | 21/331CB6A0              |          142591440544

 2017-02-03 23:49:42.920306+01 | 1486162182.92031 | 21/34E66ED0              |          142621437648

 2017-02-03 23:49:44.008009+01 | 1486162184.00801 | 21/367B2D20              |          142647962912

 2017-02-03 23:49:45.092256+01 | 1486162185.09226 | 21/37EDE8F0              |          142672259312

 2017-02-03 23:49:46.167564+01 | 1486162186.16756 | 21/392AD818              |          142693029912

 2017-02-03 23:49:47.236318+01 | 1486162187.23632 | 21/3A5EC900              |          142713211136

 2017-02-03 23:49:48.311913+01 | 1486162188.31191 | 21/3B8F1038              |          142733152312

 2017-02-03 23:49:49.403725+01 | 1486162189.40372 | 21/3CAFA398              |          142752064408

 2017-02-03 23:49:50.488091+01 | 1486162190.48809 | 21/3DB2FB68              |          142769060712

 2017-02-03 23:49:51.561263+01 | 1486162191.56126 | 21/3EA1C1F8              |          142784709112

 2017-02-03 23:49:52.631837+01 | 1486162192.63184 | 21/3F893238              |          142799876664

 2017-02-03 23:49:53.713153+01 | 1486162193.71315 | 21/40711EE0              |          142815076064

 2017-02-03 23:49:54.797878+01 | 1486162194.79788 | 21/415C3920              |          142830483744

 2017-02-03 23:49:55.86839+01 | 1486162195.86839 | 21/426EE700              |          142848485120

 2017-02-03 23:49:56.962729+01 | 1486162196.96273 | 21/439F0438              |          142868415544

 2017-02-03 23:49:58.056764+01 | 1486162198.05676 | 21/44AC2C30              |          142886054960

 2017-02-03 23:49:59.148527+01 | 1486162199.14853 | 21/45A64050              |          142902444112

 2017-02-03 23:50:00.240252+01 | 1486162200.24025 | 21/46920A80              |          142917896832

 2017-02-03 23:50:01.326959+01 | 1486162201.32696 | 21/476936E0              |          142931998432

 2017-02-03 23:50:02.417347+01 | 1486162202.41735 | 21/483A8400              |          142945715200

 2017-02-03 23:50:03.505946+01 | 1486162203.50595 | 21/48FBC108              |          142958379272

 2017-02-03 23:50:04.581219+01 | 1486162204.58122 | 21/49AC1140              |          142969934144

 2017-02-03 23:50:05.655007+01 | 1486162205.65501 | 21/4A50FF80              |          142980743040

 2017-02-03 23:50:06.735108+01 | 1486162206.73511 | 21/4B294930              |          142994917680

 2017-02-03 23:50:07.811209+01 | 1486162207.81121 | 21/4C444C30              |          143013465896

 2017-02-03 23:50:08.8779+01 | 1486162208.8779 | 21/4D8E2EA0              |          143035084448

 2017-02-03 23:50:09.966612+01 | 1486162209.96661 | 21/4EDC6E10              |          143056989712

 2017-02-03 23:50:11.052324+01 | 1486162211.05232 | 21/504368B8              |          143080515768

 2017-02-03 23:50:12.135995+01 | 1486162212.13599 | 21/51337BE8              |          143096249320

 2017-02-03 23:50:13.21375+01 | 1486162213.21375 | 21/51B400E8              |          143104671976

 2017-02-03 23:50:14.288444+01 | 1486162214.28844 | 21/5220C280              |          143111799424

 2017-02-03 23:50:15.374058+01 | 1486162215.37406 | 21/528CFEE8              |          143118892776

 2017-02-03 23:50:16.457023+01 | 1486162216.45702 | 21/52F923D8              |          143125980120

 2017-02-03 23:50:17.537114+01 | 1486162217.53711 | 21/5361E9C8              |          143132846536

 2017-02-03 23:50:18.620289+01 | 1486162218.62029 | 21/53CB5FB0              |          143139758000

 2017-02-03 23:50:19.701341+01 | 1486162219.70134 | 21/5437BF20              |          143146860320

 2017-02-03 23:50:20.796381+01 | 1486162220.79638 | 21/54A2FA38              |          143153887800

 2017-02-03 23:50:21.867229+01 | 1486162221.86723 | 21/550E6318              |          143160927000

 2017-02-03 23:50:22.956513+01 | 1486162222.95651 | 21/557B80B0              |          143168078000

 2017-02-03 23:50:24.040949+01 | 1486162224.04095 | 21/55E564C0              |          143175017664

 2017-02-03 23:50:25.121323+01 | 1486162225.12132 | 21/56547F48              |          143182298952

 2017-02-03 23:50:26.201689+01 | 1486162226.20169 | 21/56C20C58              |          143189478488

 2017-02-03 23:50:27.28496+01 | 1486162227.28496 | 21/5726C4E0              |          143196079328

 2017-02-03 23:50:28.358635+01 | 1486162228.35863 | 21/57908778              |          143203010424

 2017-02-03 23:50:29.439591+01 | 1486162229.43959 | 21/57F84B10              |          143209810704

 2017-02-03 23:50:30.52435+01 | 1486162230.52435 | 21/585FD558              |          143216596312

 2017-02-03 23:50:31.600688+01 | 1486162231.60069 | 21/58CB7E58              |          143223651928

 2017-02-03 23:50:32.692776+01 | 1486162232.69278 | 21/59379578              |          143230735736

 2017-02-03 23:50:33.781712+01 | 1486162233.78171 | 21/59A0A308              |          143237620488

 2017-02-03 23:50:34.863595+01 | 1486162234.8636 | 21/5A0C37A8              |          143244670888

 2017-02-03 23:50:35.936243+01 | 1486162235.93624 | 21/5A75B970              |          143251585392

 2017-02-03 23:50:37.014283+01 | 1486162237.01428 | 21/5AE4B708              |          143258859272

 2017-02-03 23:50:38.10702+01 | 1486162238.10702 | 21/5B54D7D8              |          143266207704

 2017-02-03 23:50:39.182275+01 | 1486162239.18228 | 21/5BC1BB90              |          143273343888

 2017-02-03 23:50:40.27085+01 | 1486162240.27085 | 21/5C31A6E0              |          143280678624

 2017-02-03 23:50:41.343906+01 | 1486162241.34391 | 21/5C9A5E40              |          143287541312

 2017-02-03 23:50:42.429334+01 | 1486162242.42933 | 21/5D06FC50              |          143294659664

 2017-02-03 23:50:43.509813+01 | 1486162243.50981 | 21/5D748DB8              |          143301840312

 2017-02-03 23:50:44.58455+01 | 1486162244.58455 | 21/5DE11BA8              |          143308954536

 2017-02-03 23:50:45.668726+01 | 1486162245.66873 | 21/5E4D2B60              |          143316036448

 2017-02-03 23:50:46.75929+01 | 1486162246.75929 | 21/5EBB9648              |          143323272776

 2017-02-03 23:50:47.841973+01 | 1486162247.84197 | 21/5F29D148              |          143330496840

 2017-02-03 23:50:48.929776+01 | 1486162248.92978 | 21/5F93EF50              |          143337451344

 2017-02-03 23:50:50.022586+01 | 1486162250.02259 | 21/600233E0              |          143344677856

 2017-02-03 23:50:51.110883+01 | 1486162251.11088 | 21/606E89C0              |          143351777728

 2017-02-03 23:50:52.1918+01 | 1486162252.1918 | 21/60D87008              |          143358717960

 2017-02-03 23:50:53.28324+01 | 1486162253.28324 | 21/6144B808              |          143365814280

 2017-02-03 23:50:54.367366+01 | 1486162254.36737 | 21/61ACC000              |          143372632064

 2017-02-03 23:50:55.456009+01 | 1486162255.45601 | 21/62234B30              |          143380400944

 2017-02-03 23:50:56.523707+01 | 1486162256.52371 | 21/62AD14C8              |          143389430984

 2017-02-03 23:50:57.611485+01 | 1486162257.61149 | 21/633273C0              |          143398171584

 2017-02-03 23:50:58.695506+01 | 1486162258.69551 | 21/63B61D08              |          143406800136

 2017-02-03 23:50:59.784566+01 | 1486162259.78457 | 21/6437A988              |          143415290248

 2017-02-03 23:51:00.861999+01 | 1486162260.862 | 21/64B3C248              |          143423423048

 2017-02-03 23:51:01.94875+01 | 1486162261.94875 | 21/652C3A00              |          143431318016

 2017-02-03 23:51:03.021418+01 | 1486162263.02142 | 21/65A1AC30              |          143439014960

 2017-02-03 23:51:04.098649+01 | 1486162264.09865 | 21/6617DF70              |          143446761328

 2017-02-03 23:51:05.17864+01 | 1486162265.17864 | 21/66889148              |          143454146888

 2017-02-03 23:51:06.256638+01 | 1486162266.25664 | 21/66EFB6E8              |          143460906728

 2017-02-03 23:51:07.328638+01 | 1486162267.32864 | 21/67607D30              |          143468297520

 2017-02-03 23:51:08.404772+01 | 1486162268.40477 | 21/67D36858              |          143475828824

 2017-02-03 23:51:09.481757+01 | 1486162269.48176 | 21/68390760              |          143482488672

 2017-02-03 23:51:10.569497+01 | 1486162270.5695 | 21/689BCB20              |          143488961312

 2017-02-03 23:51:11.647079+01 | 1486162271.64708 | 21/68FE95E0              |          143495435744

 2017-02-03 23:51:12.727583+01 | 1486162272.72758 | 21/69639398              |          143502054296

 2017-02-03 23:51:13.801797+01 | 1486162273.8018 | 21/69C97D08              |          143508733192

 2017-02-03 23:51:14.886515+01 | 1486162274.88651 | 21/6A338300              |          143515681536

 2017-02-03 23:51:15.958395+01 | 1486162275.9584 | 21/6A960E88              |          143522139784

 2017-02-03 23:51:17.043295+01 | 1486162277.04329 | 21/6AF7D510              |          143528547600

 2017-02-03 23:51:18.118484+01 | 1486162278.11848 | 21/6B5C4288              |          143535129224

 2017-02-03 23:51:19.196698+01 | 1486162279.1967 | 21/6BC2D380              |          143541851008

 2017-02-03 23:51:20.289914+01 | 1486162280.28991 | 21/6C2A1208              |          143548617224

 2017-02-03 23:51:21.372881+01 | 1486162281.37288 | 21/6C8CB130              |          143555080496

 2017-02-03 23:51:22.454214+01 | 1486162282.45421 | 21/6CF27FE0              |          143561752544

 2017-02-03 23:51:23.532314+01 | 1486162283.53231 | 21/6D5980B8              |          143568502968

 2017-02-03 23:51:24.609433+01 | 1486162284.60943 | 21/6DBF2CF8              |          143575166200

 2017-02-03 23:51:25.675888+01 | 1486162285.67589 | 21/6E22D308              |          143581696776

 2017-02-03 23:51:26.755529+01 | 1486162286.75553 | 21/6E84EC38              |          143588125752

 2017-02-03 23:51:27.840767+01 | 1486162287.84077 | 21/6EEAE548              |          143594808648

 2017-02-03 23:51:28.915207+01 | 1486162288.91521 | 21/6F4C6830              |          143601199152

 2017-02-03 23:51:30.001158+01 | 1486162290.00116 | 21/6FB242A8              |          143607874216

 2017-02-03 23:51:31.088401+01 | 1486162291.0884 | 21/70194750              |          143614625616

 2017-02-03 23:51:32.170931+01 | 1486162292.17093 | 21/707E0900              |          143621228800

 2017-02-03 23:51:33.240031+01 | 1486162293.24003 | 21/70E28878              |          143627815032

 2017-02-03 23:51:34.328938+01 | 1486162294.32894 | 21/7145DFE8              |          143634325480

 2017-02-03 23:51:35.414066+01 | 1486162295.41407 | 21/71AA1858              |          143640893528

 2017-02-03 23:51:36.498573+01 | 1486162296.49857 | 21/720F89E0              |          143647541728

 2017-02-03 23:51:37.573026+01 | 1486162297.57303 | 21/7273CF28              |          143654113064

 2017-02-03 23:51:38.650098+01 | 1486162298.6501 | 21/72D80C40              |          143660682304

 2017-02-03 23:51:39.729247+01 | 1486162299.72925 | 21/733D7720              |          143667328800

 2017-02-03 23:51:40.80988+01 | 1486162300.80988 | 21/73A3B798              |          143674029976

 2017-02-03 23:51:41.899529+01 | 1486162301.89953 | 21/7409D2A0              |          143680721568

 2017-02-03 23:51:42.981837+01 | 1486162302.98184 | 21/74701FB8              |          143687425976

 2017-02-03 23:51:44.053191+01 | 1486162304.05319 | 21/74D2C960              |          143693891936

 2017-02-03 23:51:45.145084+01 | 1486162305.14508 | 21/75368DE0              |          143700430304

 2017-02-03 23:51:46.220998+01 | 1486162306.221 | 21/759AA7E0              |          143706990560

 2017-02-03 23:51:47.297292+01 | 1486162307.29729 | 21/75FC1878              |          143713376376

 2017-02-03 23:51:48.376436+01 | 1486162308.37644 | 21/765BA830              |          143719639088

 2017-02-03 23:51:49.446349+01 | 1486162309.44635 | 21/76BDDEE8              |          143726075624

 2017-02-03 23:51:50.528287+01 | 1486162310.52829 | 21/7720C090              |          143732555920

 2017-02-03 23:51:51.604222+01 | 1486162311.60422 | 21/77858720              |          143739160352

 2017-02-03 23:51:52.679265+01 | 1486162312.67927 | 21/77E8DC38              |          143745670200

 2017-02-03 23:51:53.773379+01 | 1486162313.77338 | 21/784CEFE8              |          143752228840

 2017-02-03 23:51:54.847734+01 | 1486162314.84773 | 21/78B327E0              |          143758927840

 2017-02-03 23:51:55.939088+01 | 1486162315.93909 | 21/79326AC0              |          143767268032

 2017-02-03 23:51:57.014934+01 | 1486162317.01493 | 21/79B70098              |          143775957144

 2017-02-03 23:51:58.104522+01 | 1486162318.10452 | 21/7A37C3D8              |          143784395736

 2017-02-03 23:51:59.183752+01 | 1486162319.18375 | 21/7AB35930              |          143792494896

 2017-02-03 23:52:00.260449+01 | 1486162320.26045 | 21/7B2BA2E8              |          143800378088

 2017-02-03 23:52:01.336423+01 | 1486162321.33642 | 21/7B9E7B98              |          143807904664

 2017-02-03 23:52:02.419582+01 | 1486162322.41958 | 21/7C133338              |          143815553848

 2017-02-03 23:52:03.502446+01 | 1486162323.50245 | 21/7C894778              |          143823292280

 2017-02-03 23:52:04.573513+01 | 1486162324.57351 | 21/7CFB7010              |          143830773776

 2017-02-03 23:52:05.649473+01 | 1486162325.64947 | 21/7D639B48              |          143837600584

 2017-02-03 23:52:06.724197+01 | 1486162326.7242 | 21/7DD1FD30              |          143844834608

 2017-02-03 23:52:07.810036+01 | 1486162327.81004 | 21/7E40A290              |          143852085904

 2017-02-03 23:52:08.896474+01 | 1486162328.89647 | 21/7EA53258              |          143858676312

 2017-02-03 23:52:09.978952+01 | 1486162329.97895 | 21/7F0B14B8              |          143865353400

 2017-02-03 23:52:11.064301+01 | 1486162331.0643 | 21/7F70A570              |          143872009584

 2017-02-03 23:52:12.14012+01 | 1486162332.14012 | 21/7FD7DE80              |          143878774400

 2017-02-03 23:52:13.228991+01 | 1486162333.22899 | 21/803EE2E8              |          143885525736

 2017-02-03 23:52:14.322546+01 | 1486162334.32255 | 21/80AC1EB8              |          143892684472

 2017-02-03 23:52:15.409455+01 | 1486162335.40946 | 21/81108AB0              |          143899265712

 2017-02-03 23:52:16.483651+01 | 1486162336.48365 | 21/81772B58              |          143905991512

 2017-02-03 23:52:17.565875+01 | 1486162337.56588 | 21/81E19C10              |          143912967184

 2017-02-03 23:52:18.648204+01 | 1486162338.6482 | 21/8247C9D8              |          143919663576

 2017-02-03 23:52:19.734754+01 | 1486162339.73475 | 21/82B33920              |          143926704416

 2017-02-03 23:52:20.815502+01 | 1486162340.8155 | 21/8313A1B8              |          143933022648

 2017-02-03 23:52:21.905948+01 | 1486162341.90595 | 21/8372E978              |          143939266936

 2017-02-03 23:52:22.993791+01 | 1486162342.99379 | 21/83D1E4C8              |          143945491656

 2017-02-03 23:52:24.078758+01 | 1486162344.07876 | 21/84304410              |          143951676432

 2017-02-03 23:52:25.166725+01 | 1486162345.16672 | 21/84901618              |          143957956120

 2017-02-03 23:52:26.245666+01 | 1486162346.24567 | 21/84F350C8              |          143964459208

 2017-02-03 23:52:27.311748+01 | 1486162347.31175 | 21/855975B0              |          143971153328

 2017-02-03 23:52:28.392976+01 | 1486162348.39298 | 21/85C3D1D8              |          143978123736

 2017-02-03 23:52:29.460851+01 | 1486162349.46085 | 21/8629B7B0              |          143984801712

 2017-02-03 23:52:30.543761+01 | 1486162350.54376 | 21/86934278              |          143991718520

 2017-02-03 23:52:31.632526+01 | 1486162351.63253 | 21/86FDBFA8              |          143998697384

 2017-02-03 23:52:32.714821+01 | 1486162352.71482 | 21/87693878              |          144005740664

 2017-02-03 23:52:33.790368+01 | 1486162353.79037 | 21/87D20A90              |          144012610192

 2017-02-03 23:52:34.876596+01 | 1486162354.8766 | 21/883CC1D0              |          144019603920

 2017-02-03 23:52:35.956208+01 | 1486162355.95621 | 21/88A62D40              |          144026512704

 2017-02-03 23:52:37.042004+01 | 1486162357.042 | 21/890F7F08              |          144033414920

 2017-02-03 23:52:38.127792+01 | 1486162358.12779 | 21/897C8F88              |          144040562568

 2017-02-03 23:52:39.199004+01 | 1486162359.199 | 21/89E54A78              |          144047426168

 2017-02-03 23:52:40.275584+01 | 1486162360.27558 | 21/8A4C54A8              |          144054178984

 2017-02-03 23:52:41.352241+01 | 1486162361.35224 | 21/8ABA74C0              |          144061396160

 2017-02-03 23:52:42.432717+01 | 1486162362.43272 | 21/8B246CA0              |          144068340896

 2017-02-03 23:52:43.51147+01 | 1486162363.51147 | 21/8B9226C0              |          144075531968

 2017-02-03 23:52:44.596201+01 | 1486162364.5962 | 21/8BFE3908              |          144082614536

 2017-02-03 23:52:45.6732+01 | 1486162365.6732 | 21/8C64EC78              |          144089345592

 2017-02-03 23:52:46.761598+01 | 1486162366.7616 | 21/8CD50050              |          144096690256

 2017-02-03 23:52:47.846044+01 | 1486162367.84604 | 21/8D3ED778              |          144103626616

 2017-02-03 23:52:48.935848+01 | 1486162368.93585 | 21/8DA97960              |          144110614880

 2017-02-03 23:52:50.024048+01 | 1486162370.02405 | 21/8E15A5D8              |          144117704152

 2017-02-03 23:52:51.115699+01 | 1486162371.1157 | 21/8E8429D0              |          144124946896

 2017-02-03 23:52:52.203812+01 | 1486162372.20381 | 21/8EF12230              |          144132088368

 2017-02-03 23:52:53.277585+01 | 1486162373.27759 | 21/8F5B2CD0              |          144139037904

 2017-02-03 23:52:54.359316+01 | 1486162374.35932 | 21/8FC4BB80              |          144145955712

 2017-02-03 23:52:55.43257+01 | 1486162375.43257 | 21/90376FA0              |          144153472928

 2017-02-03 23:52:56.50752+01 | 1486162376.50752 | 21/90C0FFA0              |          144162488224

 2017-02-03 23:52:57.5862+01 | 1486162377.5862 | 21/914673B0              |          144171234224

 2017-02-03 23:52:58.674525+01 | 1486162378.67453 | 21/91CAC668              |          144179906152

 2017-02-03 23:52:59.755483+01 | 1486162379.75548 | 21/924EC4C0              |          144188556480

 2017-02-03 23:53:00.845135+01 | 1486162380.84513 | 21/92CE0148              |          144196895048

 2017-02-03 23:53:01.917998+01 | 1486162381.918 | 21/934A9258              |          144205058648

 2017-02-03 23:53:02.987747+01 | 1486162382.98775 | 21/93C3FF98              |          144213016472

 2017-02-03 23:53:04.063781+01 | 1486162384.06378 | 21/943ED708              |          144221067016

 2017-02-03 23:53:05.138126+01 | 1486162385.13813 | 21/94B5FE80              |          144228875904

 2017-02-03 23:53:06.208995+01 | 1486162386.209 | 21/95211518              |          144235894040

 2017-02-03 23:53:07.2789+01 | 1486162387.2789 | 21/95964BB8              |          144243575736

 2017-02-03 23:53:08.349663+01 | 1486162388.34966 | 21/960A1978              |          144251165048

 2017-02-03 23:53:09.412573+01 | 1486162389.41257 | 21/9678FA78              |          144258431608

 2017-02-03 23:53:10.483172+01 | 1486162390.48317 | 21/96E71288              |          144265646728

 2017-02-03 23:53:11.552082+01 | 1486162391.55208 | 21/97516CA0              |          144272616608

 2017-02-03 23:53:12.622524+01 | 1486162392.62252 | 21/97BCCCB0              |          144279653552

 2017-02-03 23:53:13.694684+01 | 1486162393.69468 | 21/9828B048              |          144286724168

 2017-02-03 23:53:14.780695+01 | 1486162394.78069 | 21/9891DC68              |          144293616744

 2017-02-03 23:53:15.85518+01 | 1486162395.85518 | 21/98F7C648              |          144300295752

 2017-02-03 23:53:16.947206+01 | 1486162396.94721 | 21/9962DA40              |          144307313216

 2017-02-03 23:53:18.039947+01 | 1486162398.03995 | 21/99CAFA50              |          144314137168

 2017-02-03 23:53:19.115419+01 | 1486162399.11542 | 21/9A330220              |          144320954912

 2017-02-03 23:53:20.203961+01 | 1486162400.20396 | 21/9A9DA228              |          144327942696

 2017-02-03 23:53:21.290989+01 | 1486162401.29099 | 21/9B0A62C0              |          144335069888

 2017-02-03 23:53:22.384368+01 | 1486162402.38437 | 21/9B743A48              |          144342006344

 2017-02-03 23:53:23.468098+01 | 1486162403.4681 | 21/9BE16AA0              |          144349162144

 2017-02-03 23:53:24.556807+01 | 1486162404.55681 | 21/9C4A4958              |          144356034904

 2017-02-03 23:53:25.629727+01 | 1486162405.62973 | 21/9CB14480              |          144362783872

 2017-02-03 23:53:26.707872+01 | 1486162406.70787 | 21/9D197748              |          144369612616

 2017-02-03 23:53:27.801332+01 | 1486162407.80133 | 21/9D848D60              |          144376630624

 2017-02-03 23:53:28.895688+01 | 1486162408.89569 | 21/9DF08240              |          144383705664

 2017-02-03 23:53:29.972263+01 | 1486162409.97226 | 21/9E5A1BB0              |          144390626224

 2017-02-03 23:53:31.047931+01 | 1486162411.04793 | 21/9EC3E2A0              |          144397558432

 2017-02-03 23:53:32.138133+01 | 1486162412.13813 | 21/9F2C8180              |          144404414848

 2017-02-03 23:53:33.22612+01 | 1486162413.22612 | 21/9F9428F0              |          144411207920

 2017-02-03 23:53:34.305772+01 | 1486162414.30577 | 21/9FFB7D60              |          144417979744

 2017-02-03 23:53:35.391239+01 | 1486162415.39124 | 21/A066B0D8              |          144425005272

 2017-02-03 23:53:36.470144+01 | 1486162416.47014 | 21/A0D0D028              |          144431960104

 2017-02-03 23:53:37.564258+01 | 1486162417.56426 | 21/A1351F68              |          144438533992

 2017-02-03 23:53:38.6548+01 | 1486162418.6548 | 21/A19C4CA8              |          144445295784

 2017-02-03 23:53:39.747094+01 | 1486162419.74709 | 21/A203C178              |          144452075896

 2017-02-03 23:53:40.824349+01 | 1486162420.82435 | 21/A26D5180              |          144458994048

 2017-02-03 23:53:41.893041+01 | 1486162421.89304 | 21/A2D4F4D0              |          144465786064

 2017-02-03 23:53:42.971514+01 | 1486162422.97151 | 21/A33CD260              |          144472592992

 2017-02-03 23:53:44.064363+01 | 1486162424.06436 | 21/A3A53630              |          144479434288

 2017-02-03 23:53:45.137078+01 | 1486162425.13708 | 21/A40A44E8              |          144486057192

 2017-02-03 23:53:46.217361+01 | 1486162426.21736 | 21/A471EF38              |          144492851000

 2017-02-03 23:53:47.295685+01 | 1486162427.29569 | 21/A4DA2678              |          144499680888

 2017-02-03 23:53:48.376682+01 | 1486162428.37668 | 21/A54107B8              |          144506423224

 2017-02-03 23:53:49.454148+01 | 1486162429.45415 | 21/A5AC09B8              |          144513436088

 2017-02-03 23:53:50.542597+01 | 1486162430.5426 | 21/A615BB30              |          144520362800

 2017-02-03 23:53:51.622164+01 | 1486162431.62216 | 21/A68041E8              |          144527344104

 2017-02-03 23:53:52.701239+01 | 1486162432.70124 | 21/A6EBEED0              |          144534400720

 2017-02-03 23:53:53.785008+01 | 1486162433.78501 | 21/A75263A0              |          144541115296

 2017-02-03 23:53:54.866222+01 | 1486162434.86622 | 21/A7BAB9B0              |          144547953072

 2017-02-03 23:53:55.951762+01 | 1486162435.95176 | 21/A83EF710              |          144556619536

 2017-02-03 23:53:57.027036+01 | 1486162437.02704 | 21/A8C4BEB0              |          144565386928

 2017-02-03 23:53:58.111777+01 | 1486162438.11178 | 21/A949DD30              |          144574111024

 2017-02-03 23:53:59.19858+01 | 1486162439.19858 | 21/A9CB78C8              |          144582605000

 2017-02-03 23:54:00.281564+01 | 1486162440.28156 | 21/AA4BC688              |          144591013512

 2017-02-03 23:54:01.364603+01 | 1486162441.3646 | 21/AAC641A0              |          144599040416

 2017-02-03 23:54:02.435499+01 | 1486162442.4355 | 21/AB3DF118              |          144606884120

 2017-02-03 23:54:03.514432+01 | 1486162443.51443 | 21/ABB46FC0              |          144614649792

 2017-02-03 23:54:04.592562+01 | 1486162444.59256 | 21/AC2A95B8              |          144622392760

 2017-02-03 23:54:05.67244+01 | 1486162445.67244 | 21/AC96B278              |          144629478008

 2017-02-03 23:54:06.749087+01 | 1486162446.74909 | 21/ACFD3A48              |          144636197448

 2017-02-03 23:54:07.842602+01 | 1486162447.8426 | 21/AD719BA0              |          144643824544

 2017-02-03 23:54:08.923657+01 | 1486162448.92366 | 21/ADDDA570              |          144650904944

 2017-02-03 23:54:10.005788+01 | 1486162450.00579 | 21/AE429658              |          144657520216

 2017-02-03 23:54:11.076801+01 | 1486162451.0768 | 21/AEA4F4C0              |          144663966912

 2017-02-03 23:54:12.172301+01 | 1486162452.1723 | 21/AF0BD328              |          144670708520

 2017-02-03 23:54:13.264775+01 | 1486162453.26478 | 21/AF73B810              |          144677517328

 2017-02-03 23:54:14.340712+01 | 1486162454.34071 | 21/AFDB4C80              |          144684305536

 2017-02-03 23:54:15.417487+01 | 1486162455.41749 | 21/B041D2D0              |          144691024592

 2017-02-03 23:54:16.491365+01 | 1486162456.49136 | 21/B0A730A0              |          144697667744

 2017-02-03 23:54:17.56895+01 | 1486162457.56895 | 21/B10A3580              |          144704157056

 2017-02-03 23:54:18.644672+01 | 1486162458.64467 | 21/B16EE950              |          144710756688

 2017-02-03 23:54:19.727741+01 | 1486162459.72774 | 21/B1D42478              |          144717390968

 2017-02-03 23:54:20.813356+01 | 1486162460.81336 | 21/B2386950              |          144723962192

 2017-02-03 23:54:21.8961+01 | 1486162461.8961 | 21/B29F3048              |          144730697800

