 2017-02-04 00:09:32.844084+01 | 1486163372.84408 | pgbench_branches_pkey |            90112
 2017-02-04 00:09:32.844084+01 | 1486163372.84408 | pgbench_tellers_pkey  |           516096
 2017-02-04 00:09:32.844084+01 | 1486163372.84408 | pgbench_accounts_pkey |        224641024

 2017-02-04 00:09:33.930823+01 | 1486163373.93082 | pgbench_branches_pkey |            90112
 2017-02-04 00:09:33.930823+01 | 1486163373.93082 | pgbench_tellers_pkey  |           516096
 2017-02-04 00:09:33.930823+01 | 1486163373.93082 | pgbench_accounts_pkey |        224641024

 2017-02-04 00:09:35.022377+01 | 1486163375.02238 | pgbench_branches_pkey |            90112
 2017-02-04 00:09:35.022377+01 | 1486163375.02238 | pgbench_tellers_pkey  |           516096
 2017-02-04 00:09:35.022377+01 | 1486163375.02238 | pgbench_accounts_pkey |        224641024

 2017-02-04 00:09:36.104599+01 | 1486163376.1046 | pgbench_branches_pkey |            90112
 2017-02-04 00:09:36.104599+01 | 1486163376.1046 | pgbench_tellers_pkey  |           516096
 2017-02-04 00:09:36.104599+01 | 1486163376.1046 | pgbench_accounts_pkey |        224641024

 2017-02-04 00:09:37.1848+01 | 1486163377.1848 | pgbench_branches_pkey |            90112
 2017-02-04 00:09:37.1848+01 | 1486163377.1848 | pgbench_tellers_pkey  |           516096
 2017-02-04 00:09:37.1848+01 | 1486163377.1848 | pgbench_accounts_pkey |        224641024

 2017-02-04 00:09:38.267139+01 | 1486163378.26714 | pgbench_branches_pkey |            90112
 2017-02-04 00:09:38.267139+01 | 1486163378.26714 | pgbench_tellers_pkey  |           516096
 2017-02-04 00:09:38.267139+01 | 1486163378.26714 | pgbench_accounts_pkey |        224641024

 2017-02-04 00:09:39.35144+01 | 1486163379.35144 | pgbench_branches_pkey |            90112
 2017-02-04 00:09:39.35144+01 | 1486163379.35144 | pgbench_tellers_pkey  |           516096
 2017-02-04 00:09:39.35144+01 | 1486163379.35144 | pgbench_accounts_pkey |        224641024

 2017-02-04 00:09:40.434542+01 | 1486163380.43454 | pgbench_branches_pkey |            90112
 2017-02-04 00:09:40.434542+01 | 1486163380.43454 | pgbench_tellers_pkey  |           516096
 2017-02-04 00:09:40.434542+01 | 1486163380.43454 | pgbench_accounts_pkey |        224641024

 2017-02-04 00:09:41.520017+01 | 1486163381.52002 | pgbench_branches_pkey |            90112
 2017-02-04 00:09:41.520017+01 | 1486163381.52002 | pgbench_tellers_pkey  |           516096
 2017-02-04 00:09:41.520017+01 | 1486163381.52002 | pgbench_accounts_pkey |        224641024

 2017-02-04 00:09:42.604471+01 | 1486163382.60447 | pgbench_branches_pkey |            90112
 2017-02-04 00:09:42.604471+01 | 1486163382.60447 | pgbench_tellers_pkey  |           516096
 2017-02-04 00:09:42.604471+01 | 1486163382.60447 | pgbench_accounts_pkey |        224641024

 2017-02-04 00:09:43.688579+01 | 1486163383.68858 | pgbench_branches_pkey |            90112
 2017-02-04 00:09:43.688579+01 | 1486163383.68858 | pgbench_tellers_pkey  |           516096
 2017-02-04 00:09:43.688579+01 | 1486163383.68858 | pgbench_accounts_pkey |        224641024

 2017-02-04 00:09:44.763949+01 | 1486163384.76395 | pgbench_branches_pkey |            90112
 2017-02-04 00:09:44.763949+01 | 1486163384.76395 | pgbench_tellers_pkey  |           516096
 2017-02-04 00:09:44.763949+01 | 1486163384.76395 | pgbench_accounts_pkey |        224641024

 2017-02-04 00:09:45.841818+01 | 1486163385.84182 | pgbench_branches_pkey |            90112
 2017-02-04 00:09:45.841818+01 | 1486163385.84182 | pgbench_tellers_pkey  |           516096
 2017-02-04 00:09:45.841818+01 | 1486163385.84182 | pgbench_accounts_pkey |        224641024

 2017-02-04 00:09:46.928456+01 | 1486163386.92846 | pgbench_branches_pkey |            90112
 2017-02-04 00:09:46.928456+01 | 1486163386.92846 | pgbench_tellers_pkey  |           516096
 2017-02-04 00:09:46.928456+01 | 1486163386.92846 | pgbench_accounts_pkey |        224641024

 2017-02-04 00:09:48.014097+01 | 1486163388.0141 | pgbench_branches_pkey |            90112
 2017-02-04 00:09:48.014097+01 | 1486163388.0141 | pgbench_tellers_pkey  |           516096
 2017-02-04 00:09:48.014097+01 | 1486163388.0141 | pgbench_accounts_pkey |        224641024

 2017-02-04 00:09:49.095965+01 | 1486163389.09596 | pgbench_branches_pkey |            90112
 2017-02-04 00:09:49.095965+01 | 1486163389.09596 | pgbench_tellers_pkey  |           516096
 2017-02-04 00:09:49.095965+01 | 1486163389.09596 | pgbench_accounts_pkey |        224641024

 2017-02-04 00:09:50.179927+01 | 1486163390.17993 | pgbench_branches_pkey |            90112
 2017-02-04 00:09:50.179927+01 | 1486163390.17993 | pgbench_tellers_pkey  |           516096
 2017-02-04 00:09:50.179927+01 | 1486163390.17993 | pgbench_accounts_pkey |        224641024

 2017-02-04 00:09:51.266047+01 | 1486163391.26605 | pgbench_branches_pkey |            90112
 2017-02-04 00:09:51.266047+01 | 1486163391.26605 | pgbench_tellers_pkey  |           516096
 2017-02-04 00:09:51.266047+01 | 1486163391.26605 | pgbench_accounts_pkey |        224641024

 2017-02-04 00:09:52.350367+01 | 1486163392.35037 | pgbench_branches_pkey |            90112
 2017-02-04 00:09:52.350367+01 | 1486163392.35037 | pgbench_tellers_pkey  |           516096
 2017-02-04 00:09:52.350367+01 | 1486163392.35037 | pgbench_accounts_pkey |        224641024

 2017-02-04 00:09:53.429424+01 | 1486163393.42942 | pgbench_branches_pkey |            90112
 2017-02-04 00:09:53.429424+01 | 1486163393.42942 | pgbench_tellers_pkey  |           516096
 2017-02-04 00:09:53.429424+01 | 1486163393.42942 | pgbench_accounts_pkey |        224641024

 2017-02-04 00:09:54.515167+01 | 1486163394.51517 | pgbench_branches_pkey |            90112
 2017-02-04 00:09:54.515167+01 | 1486163394.51517 | pgbench_tellers_pkey  |           516096
 2017-02-04 00:09:54.515167+01 | 1486163394.51517 | pgbench_accounts_pkey |        224641024

 2017-02-04 00:09:55.587521+01 | 1486163395.58752 | pgbench_branches_pkey |            90112
 2017-02-04 00:09:55.587521+01 | 1486163395.58752 | pgbench_tellers_pkey  |           516096
 2017-02-04 00:09:55.587521+01 | 1486163395.58752 | pgbench_accounts_pkey |        224641024

 2017-02-04 00:09:56.677349+01 | 1486163396.67735 | pgbench_branches_pkey |            90112
 2017-02-04 00:09:56.677349+01 | 1486163396.67735 | pgbench_tellers_pkey  |           516096
 2017-02-04 00:09:56.677349+01 | 1486163396.67735 | pgbench_accounts_pkey |        224641024

 2017-02-04 00:09:57.767628+01 | 1486163397.76763 | pgbench_branches_pkey |            90112
 2017-02-04 00:09:57.767628+01 | 1486163397.76763 | pgbench_tellers_pkey  |           516096
 2017-02-04 00:09:57.767628+01 | 1486163397.76763 | pgbench_accounts_pkey |        224641024

 2017-02-04 00:09:58.8463+01 | 1486163398.8463 | pgbench_branches_pkey |            90112
 2017-02-04 00:09:58.8463+01 | 1486163398.8463 | pgbench_tellers_pkey  |           516096
 2017-02-04 00:09:58.8463+01 | 1486163398.8463 | pgbench_accounts_pkey |        224641024

 2017-02-04 00:09:59.925926+01 | 1486163399.92593 | pgbench_branches_pkey |            90112
 2017-02-04 00:09:59.925926+01 | 1486163399.92593 | pgbench_tellers_pkey  |           516096
 2017-02-04 00:09:59.925926+01 | 1486163399.92593 | pgbench_accounts_pkey |        224641024

 2017-02-04 00:10:01.002512+01 | 1486163401.00251 | pgbench_branches_pkey |            90112
 2017-02-04 00:10:01.002512+01 | 1486163401.00251 | pgbench_tellers_pkey  |           516096
 2017-02-04 00:10:01.002512+01 | 1486163401.00251 | pgbench_accounts_pkey |        224641024

 2017-02-04 00:10:02.087422+01 | 1486163402.08742 | pgbench_branches_pkey |            90112
 2017-02-04 00:10:02.087422+01 | 1486163402.08742 | pgbench_tellers_pkey  |           516096
 2017-02-04 00:10:02.087422+01 | 1486163402.08742 | pgbench_accounts_pkey |        224641024

 2017-02-04 00:10:03.169391+01 | 1486163403.16939 | pgbench_branches_pkey |            90112
 2017-02-04 00:10:03.169391+01 | 1486163403.16939 | pgbench_tellers_pkey  |           516096
 2017-02-04 00:10:03.169391+01 | 1486163403.16939 | pgbench_accounts_pkey |        224641024

 2017-02-04 00:10:04.257524+01 | 1486163404.25752 | pgbench_branches_pkey |            90112
 2017-02-04 00:10:04.257524+01 | 1486163404.25752 | pgbench_tellers_pkey  |           516096
 2017-02-04 00:10:04.257524+01 | 1486163404.25752 | pgbench_accounts_pkey |        224641024

 2017-02-04 00:10:05.340458+01 | 1486163405.34046 | pgbench_branches_pkey |            90112
 2017-02-04 00:10:05.340458+01 | 1486163405.34046 | pgbench_tellers_pkey  |           516096
 2017-02-04 00:10:05.340458+01 | 1486163405.34046 | pgbench_accounts_pkey |        224641024

 2017-02-04 00:10:06.426151+01 | 1486163406.42615 | pgbench_branches_pkey |            90112
 2017-02-04 00:10:06.426151+01 | 1486163406.42615 | pgbench_tellers_pkey  |           516096
 2017-02-04 00:10:06.426151+01 | 1486163406.42615 | pgbench_accounts_pkey |        224641024

 2017-02-04 00:10:07.514941+01 | 1486163407.51494 | pgbench_branches_pkey |            90112
 2017-02-04 00:10:07.514941+01 | 1486163407.51494 | pgbench_tellers_pkey  |           516096
 2017-02-04 00:10:07.514941+01 | 1486163407.51494 | pgbench_accounts_pkey |        224641024

 2017-02-04 00:10:08.598565+01 | 1486163408.59857 | pgbench_branches_pkey |            90112
 2017-02-04 00:10:08.598565+01 | 1486163408.59857 | pgbench_tellers_pkey  |           516096
 2017-02-04 00:10:08.598565+01 | 1486163408.59857 | pgbench_accounts_pkey |        224641024

 2017-02-04 00:10:09.681266+01 | 1486163409.68127 | pgbench_branches_pkey |            90112
 2017-02-04 00:10:09.681266+01 | 1486163409.68127 | pgbench_tellers_pkey  |           516096
 2017-02-04 00:10:09.681266+01 | 1486163409.68127 | pgbench_accounts_pkey |        224641024

 2017-02-04 00:10:10.755453+01 | 1486163410.75545 | pgbench_branches_pkey |            90112
 2017-02-04 00:10:10.755453+01 | 1486163410.75545 | pgbench_tellers_pkey  |           516096
 2017-02-04 00:10:10.755453+01 | 1486163410.75545 | pgbench_accounts_pkey |        224641024

 2017-02-04 00:10:11.833136+01 | 1486163411.83314 | pgbench_branches_pkey |            90112
 2017-02-04 00:10:11.833136+01 | 1486163411.83314 | pgbench_tellers_pkey  |           516096
 2017-02-04 00:10:11.833136+01 | 1486163411.83314 | pgbench_accounts_pkey |        224641024

 2017-02-04 00:10:12.929081+01 | 1486163412.92908 | pgbench_branches_pkey |            90112
 2017-02-04 00:10:12.929081+01 | 1486163412.92908 | pgbench_tellers_pkey  |           516096
 2017-02-04 00:10:12.929081+01 | 1486163412.92908 | pgbench_accounts_pkey |        224641024

 2017-02-04 00:10:14.022795+01 | 1486163414.02279 | pgbench_branches_pkey |            90112
 2017-02-04 00:10:14.022795+01 | 1486163414.02279 | pgbench_tellers_pkey  |           516096
 2017-02-04 00:10:14.022795+01 | 1486163414.02279 | pgbench_accounts_pkey |        224641024

 2017-02-04 00:10:15.103413+01 | 1486163415.10341 | pgbench_branches_pkey |            90112
 2017-02-04 00:10:15.103413+01 | 1486163415.10341 | pgbench_tellers_pkey  |           516096
 2017-02-04 00:10:15.103413+01 | 1486163415.10341 | pgbench_accounts_pkey |        224641024

 2017-02-04 00:10:16.194201+01 | 1486163416.1942 | pgbench_branches_pkey |            90112
 2017-02-04 00:10:16.194201+01 | 1486163416.1942 | pgbench_tellers_pkey  |           516096
 2017-02-04 00:10:16.194201+01 | 1486163416.1942 | pgbench_accounts_pkey |        224641024

 2017-02-04 00:10:17.274097+01 | 1486163417.2741 | pgbench_branches_pkey |            90112
 2017-02-04 00:10:17.274097+01 | 1486163417.2741 | pgbench_tellers_pkey  |           516096
 2017-02-04 00:10:17.274097+01 | 1486163417.2741 | pgbench_accounts_pkey |        224641024

 2017-02-04 00:10:18.353052+01 | 1486163418.35305 | pgbench_branches_pkey |            90112
 2017-02-04 00:10:18.353052+01 | 1486163418.35305 | pgbench_tellers_pkey  |           516096
 2017-02-04 00:10:18.353052+01 | 1486163418.35305 | pgbench_accounts_pkey |        224641024

 2017-02-04 00:10:19.430138+01 | 1486163419.43014 | pgbench_branches_pkey |            90112
 2017-02-04 00:10:19.430138+01 | 1486163419.43014 | pgbench_tellers_pkey  |           516096
 2017-02-04 00:10:19.430138+01 | 1486163419.43014 | pgbench_accounts_pkey |        224641024

 2017-02-04 00:10:20.514777+01 | 1486163420.51478 | pgbench_branches_pkey |            90112
 2017-02-04 00:10:20.514777+01 | 1486163420.51478 | pgbench_tellers_pkey  |           516096
 2017-02-04 00:10:20.514777+01 | 1486163420.51478 | pgbench_accounts_pkey |        224641024

 2017-02-04 00:10:21.601324+01 | 1486163421.60132 | pgbench_branches_pkey |            90112
 2017-02-04 00:10:21.601324+01 | 1486163421.60132 | pgbench_tellers_pkey  |           516096
 2017-02-04 00:10:21.601324+01 | 1486163421.60132 | pgbench_accounts_pkey |        224641024

 2017-02-04 00:10:22.688607+01 | 1486163422.68861 | pgbench_branches_pkey |            90112
 2017-02-04 00:10:22.688607+01 | 1486163422.68861 | pgbench_tellers_pkey  |           516096
 2017-02-04 00:10:22.688607+01 | 1486163422.68861 | pgbench_accounts_pkey |        224641024

 2017-02-04 00:10:23.77178+01 | 1486163423.77178 | pgbench_branches_pkey |            90112
 2017-02-04 00:10:23.77178+01 | 1486163423.77178 | pgbench_tellers_pkey  |           516096
 2017-02-04 00:10:23.77178+01 | 1486163423.77178 | pgbench_accounts_pkey |        224641024

 2017-02-04 00:10:24.852241+01 | 1486163424.85224 | pgbench_branches_pkey |            90112
 2017-02-04 00:10:24.852241+01 | 1486163424.85224 | pgbench_tellers_pkey  |           516096
 2017-02-04 00:10:24.852241+01 | 1486163424.85224 | pgbench_accounts_pkey |        224641024

 2017-02-04 00:10:25.941002+01 | 1486163425.941 | pgbench_branches_pkey |            90112
 2017-02-04 00:10:25.941002+01 | 1486163425.941 | pgbench_tellers_pkey  |           516096
 2017-02-04 00:10:25.941002+01 | 1486163425.941 | pgbench_accounts_pkey |        224641024

 2017-02-04 00:10:27.021368+01 | 1486163427.02137 | pgbench_branches_pkey |            90112
 2017-02-04 00:10:27.021368+01 | 1486163427.02137 | pgbench_tellers_pkey  |           516096
 2017-02-04 00:10:27.021368+01 | 1486163427.02137 | pgbench_accounts_pkey |        224641024

 2017-02-04 00:10:28.11242+01 | 1486163428.11242 | pgbench_branches_pkey |            90112
 2017-02-04 00:10:28.11242+01 | 1486163428.11242 | pgbench_tellers_pkey  |           516096
 2017-02-04 00:10:28.11242+01 | 1486163428.11242 | pgbench_accounts_pkey |        224641024

 2017-02-04 00:10:29.193356+01 | 1486163429.19336 | pgbench_branches_pkey |            90112
 2017-02-04 00:10:29.193356+01 | 1486163429.19336 | pgbench_tellers_pkey  |           516096
 2017-02-04 00:10:29.193356+01 | 1486163429.19336 | pgbench_accounts_pkey |        224641024

 2017-02-04 00:10:30.277142+01 | 1486163430.27714 | pgbench_branches_pkey |            90112
 2017-02-04 00:10:30.277142+01 | 1486163430.27714 | pgbench_tellers_pkey  |           516096
 2017-02-04 00:10:30.277142+01 | 1486163430.27714 | pgbench_accounts_pkey |        224641024

 2017-02-04 00:10:31.356+01 | 1486163431.356 | pgbench_branches_pkey |            90112
 2017-02-04 00:10:31.356+01 | 1486163431.356 | pgbench_tellers_pkey  |           516096
 2017-02-04 00:10:31.356+01 | 1486163431.356 | pgbench_accounts_pkey |        224641024

 2017-02-04 00:10:32.451347+01 | 1486163432.45135 | pgbench_branches_pkey |            90112
 2017-02-04 00:10:32.451347+01 | 1486163432.45135 | pgbench_tellers_pkey  |           516096
 2017-02-04 00:10:32.451347+01 | 1486163432.45135 | pgbench_accounts_pkey |        224641024

 2017-02-04 00:10:33.540614+01 | 1486163433.54061 | pgbench_branches_pkey |            90112
 2017-02-04 00:10:33.540614+01 | 1486163433.54061 | pgbench_tellers_pkey  |           516096
 2017-02-04 00:10:33.540614+01 | 1486163433.54061 | pgbench_accounts_pkey |        224641024

 2017-02-04 00:10:34.622801+01 | 1486163434.6228 | pgbench_branches_pkey |            90112
 2017-02-04 00:10:34.622801+01 | 1486163434.6228 | pgbench_tellers_pkey  |           516096
 2017-02-04 00:10:34.622801+01 | 1486163434.6228 | pgbench_accounts_pkey |        224641024

 2017-02-04 00:10:35.704508+01 | 1486163435.70451 | pgbench_branches_pkey |            90112
 2017-02-04 00:10:35.704508+01 | 1486163435.70451 | pgbench_tellers_pkey  |           516096
 2017-02-04 00:10:35.704508+01 | 1486163435.70451 | pgbench_accounts_pkey |        224641024

 2017-02-04 00:10:36.787218+01 | 1486163436.78722 | pgbench_branches_pkey |            90112
 2017-02-04 00:10:36.787218+01 | 1486163436.78722 | pgbench_tellers_pkey  |           516096
 2017-02-04 00:10:36.787218+01 | 1486163436.78722 | pgbench_accounts_pkey |        224641024

 2017-02-04 00:10:37.863702+01 | 1486163437.8637 | pgbench_branches_pkey |            90112
 2017-02-04 00:10:37.863702+01 | 1486163437.8637 | pgbench_tellers_pkey  |           516096
 2017-02-04 00:10:37.863702+01 | 1486163437.8637 | pgbench_accounts_pkey |        224641024

 2017-02-04 00:10:38.950368+01 | 1486163438.95037 | pgbench_branches_pkey |            90112
 2017-02-04 00:10:38.950368+01 | 1486163438.95037 | pgbench_tellers_pkey  |           516096
 2017-02-04 00:10:38.950368+01 | 1486163438.95037 | pgbench_accounts_pkey |        224641024

 2017-02-04 00:10:40.036463+01 | 1486163440.03646 | pgbench_branches_pkey |            90112
 2017-02-04 00:10:40.036463+01 | 1486163440.03646 | pgbench_tellers_pkey  |           516096
 2017-02-04 00:10:40.036463+01 | 1486163440.03646 | pgbench_accounts_pkey |        224641024

 2017-02-04 00:10:41.117507+01 | 1486163441.11751 | pgbench_branches_pkey |            90112
 2017-02-04 00:10:41.117507+01 | 1486163441.11751 | pgbench_tellers_pkey  |           516096
 2017-02-04 00:10:41.117507+01 | 1486163441.11751 | pgbench_accounts_pkey |        224641024

 2017-02-04 00:10:42.200621+01 | 1486163442.20062 | pgbench_branches_pkey |            90112
 2017-02-04 00:10:42.200621+01 | 1486163442.20062 | pgbench_tellers_pkey  |           516096
 2017-02-04 00:10:42.200621+01 | 1486163442.20062 | pgbench_accounts_pkey |        224641024

 2017-02-04 00:10:43.283163+01 | 1486163443.28316 | pgbench_branches_pkey |            90112
 2017-02-04 00:10:43.283163+01 | 1486163443.28316 | pgbench_tellers_pkey  |           516096
 2017-02-04 00:10:43.283163+01 | 1486163443.28316 | pgbench_accounts_pkey |        224641024

 2017-02-04 00:10:44.375756+01 | 1486163444.37576 | pgbench_branches_pkey |            90112
 2017-02-04 00:10:44.375756+01 | 1486163444.37576 | pgbench_tellers_pkey  |           516096
 2017-02-04 00:10:44.375756+01 | 1486163444.37576 | pgbench_accounts_pkey |        224641024

 2017-02-04 00:10:45.458661+01 | 1486163445.45866 | pgbench_branches_pkey |            90112
 2017-02-04 00:10:45.458661+01 | 1486163445.45866 | pgbench_tellers_pkey  |           516096
 2017-02-04 00:10:45.458661+01 | 1486163445.45866 | pgbench_accounts_pkey |        224641024

 2017-02-04 00:10:46.547717+01 | 1486163446.54772 | pgbench_branches_pkey |            90112
 2017-02-04 00:10:46.547717+01 | 1486163446.54772 | pgbench_tellers_pkey  |           516096
 2017-02-04 00:10:46.547717+01 | 1486163446.54772 | pgbench_accounts_pkey |        224641024

 2017-02-04 00:10:47.631167+01 | 1486163447.63117 | pgbench_branches_pkey |            90112
 2017-02-04 00:10:47.631167+01 | 1486163447.63117 | pgbench_tellers_pkey  |           516096
 2017-02-04 00:10:47.631167+01 | 1486163447.63117 | pgbench_accounts_pkey |        224641024

 2017-02-04 00:10:48.710242+01 | 1486163448.71024 | pgbench_branches_pkey |            90112
 2017-02-04 00:10:48.710242+01 | 1486163448.71024 | pgbench_tellers_pkey  |           516096
 2017-02-04 00:10:48.710242+01 | 1486163448.71024 | pgbench_accounts_pkey |        224641024

 2017-02-04 00:10:49.793002+01 | 1486163449.793 | pgbench_branches_pkey |            90112
 2017-02-04 00:10:49.793002+01 | 1486163449.793 | pgbench_tellers_pkey  |           516096
 2017-02-04 00:10:49.793002+01 | 1486163449.793 | pgbench_accounts_pkey |        224641024

 2017-02-04 00:10:50.877915+01 | 1486163450.87791 | pgbench_branches_pkey |            90112
 2017-02-04 00:10:50.877915+01 | 1486163450.87791 | pgbench_tellers_pkey  |           516096
 2017-02-04 00:10:50.877915+01 | 1486163450.87791 | pgbench_accounts_pkey |        224641024

 2017-02-04 00:10:51.972198+01 | 1486163451.9722 | pgbench_branches_pkey |            90112
 2017-02-04 00:10:51.972198+01 | 1486163451.9722 | pgbench_tellers_pkey  |           516096
 2017-02-04 00:10:51.972198+01 | 1486163451.9722 | pgbench_accounts_pkey |        224641024

 2017-02-04 00:10:53.055967+01 | 1486163453.05597 | pgbench_branches_pkey |            90112
 2017-02-04 00:10:53.055967+01 | 1486163453.05597 | pgbench_tellers_pkey  |           516096
 2017-02-04 00:10:53.055967+01 | 1486163453.05597 | pgbench_accounts_pkey |        224641024

 2017-02-04 00:10:54.135461+01 | 1486163454.13546 | pgbench_branches_pkey |            90112
 2017-02-04 00:10:54.135461+01 | 1486163454.13546 | pgbench_tellers_pkey  |           516096
 2017-02-04 00:10:54.135461+01 | 1486163454.13546 | pgbench_accounts_pkey |        224641024

 2017-02-04 00:10:55.220224+01 | 1486163455.22022 | pgbench_branches_pkey |            90112
 2017-02-04 00:10:55.220224+01 | 1486163455.22022 | pgbench_tellers_pkey  |           516096
 2017-02-04 00:10:55.220224+01 | 1486163455.22022 | pgbench_accounts_pkey |        224641024

 2017-02-04 00:10:56.303916+01 | 1486163456.30392 | pgbench_branches_pkey |            90112
 2017-02-04 00:10:56.303916+01 | 1486163456.30392 | pgbench_tellers_pkey  |           516096
 2017-02-04 00:10:56.303916+01 | 1486163456.30392 | pgbench_accounts_pkey |        224641024

 2017-02-04 00:10:57.384907+01 | 1486163457.38491 | pgbench_branches_pkey |            90112
 2017-02-04 00:10:57.384907+01 | 1486163457.38491 | pgbench_tellers_pkey  |           516096
 2017-02-04 00:10:57.384907+01 | 1486163457.38491 | pgbench_accounts_pkey |        224641024

 2017-02-04 00:10:58.471679+01 | 1486163458.47168 | pgbench_branches_pkey |            90112
 2017-02-04 00:10:58.471679+01 | 1486163458.47168 | pgbench_tellers_pkey  |           516096
 2017-02-04 00:10:58.471679+01 | 1486163458.47168 | pgbench_accounts_pkey |        224641024

 2017-02-04 00:10:59.552866+01 | 1486163459.55287 | pgbench_branches_pkey |            90112
 2017-02-04 00:10:59.552866+01 | 1486163459.55287 | pgbench_tellers_pkey  |           516096
 2017-02-04 00:10:59.552866+01 | 1486163459.55287 | pgbench_accounts_pkey |        224641024

 2017-02-04 00:11:00.623239+01 | 1486163460.62324 | pgbench_branches_pkey |            90112
 2017-02-04 00:11:00.623239+01 | 1486163460.62324 | pgbench_tellers_pkey  |           516096
 2017-02-04 00:11:00.623239+01 | 1486163460.62324 | pgbench_accounts_pkey |        224641024

 2017-02-04 00:11:01.708943+01 | 1486163461.70894 | pgbench_branches_pkey |            90112
 2017-02-04 00:11:01.708943+01 | 1486163461.70894 | pgbench_tellers_pkey  |           516096
 2017-02-04 00:11:01.708943+01 | 1486163461.70894 | pgbench_accounts_pkey |        224641024

 2017-02-04 00:11:02.792867+01 | 1486163462.79287 | pgbench_branches_pkey |            90112
 2017-02-04 00:11:02.792867+01 | 1486163462.79287 | pgbench_tellers_pkey  |           516096
 2017-02-04 00:11:02.792867+01 | 1486163462.79287 | pgbench_accounts_pkey |        224641024

 2017-02-04 00:11:03.870542+01 | 1486163463.87054 | pgbench_branches_pkey |            90112
 2017-02-04 00:11:03.870542+01 | 1486163463.87054 | pgbench_tellers_pkey  |           516096
 2017-02-04 00:11:03.870542+01 | 1486163463.87054 | pgbench_accounts_pkey |        224641024

 2017-02-04 00:11:04.951184+01 | 1486163464.95118 | pgbench_branches_pkey |            90112
 2017-02-04 00:11:04.951184+01 | 1486163464.95118 | pgbench_tellers_pkey  |           516096
 2017-02-04 00:11:04.951184+01 | 1486163464.95118 | pgbench_accounts_pkey |        224641024

 2017-02-04 00:11:06.033887+01 | 1486163466.03389 | pgbench_branches_pkey |            90112
 2017-02-04 00:11:06.033887+01 | 1486163466.03389 | pgbench_tellers_pkey  |           516096
 2017-02-04 00:11:06.033887+01 | 1486163466.03389 | pgbench_accounts_pkey |        224641024

 2017-02-04 00:11:07.121366+01 | 1486163467.12137 | pgbench_branches_pkey |            90112
 2017-02-04 00:11:07.121366+01 | 1486163467.12137 | pgbench_tellers_pkey  |           516096
 2017-02-04 00:11:07.121366+01 | 1486163467.12137 | pgbench_accounts_pkey |        224641024

 2017-02-04 00:11:08.210771+01 | 1486163468.21077 | pgbench_branches_pkey |            90112
 2017-02-04 00:11:08.210771+01 | 1486163468.21077 | pgbench_tellers_pkey  |           516096
 2017-02-04 00:11:08.210771+01 | 1486163468.21077 | pgbench_accounts_pkey |        224641024

 2017-02-04 00:11:09.287949+01 | 1486163469.28795 | pgbench_branches_pkey |            90112
 2017-02-04 00:11:09.287949+01 | 1486163469.28795 | pgbench_tellers_pkey  |           516096
 2017-02-04 00:11:09.287949+01 | 1486163469.28795 | pgbench_accounts_pkey |        224641024

 2017-02-04 00:11:10.383764+01 | 1486163470.38376 | pgbench_branches_pkey |            90112
 2017-02-04 00:11:10.383764+01 | 1486163470.38376 | pgbench_tellers_pkey  |           516096
 2017-02-04 00:11:10.383764+01 | 1486163470.38376 | pgbench_accounts_pkey |        224641024

 2017-02-04 00:11:11.468318+01 | 1486163471.46832 | pgbench_branches_pkey |            90112
 2017-02-04 00:11:11.468318+01 | 1486163471.46832 | pgbench_tellers_pkey  |           516096
 2017-02-04 00:11:11.468318+01 | 1486163471.46832 | pgbench_accounts_pkey |        224641024

 2017-02-04 00:11:12.55462+01 | 1486163472.55462 | pgbench_branches_pkey |            90112
 2017-02-04 00:11:12.55462+01 | 1486163472.55462 | pgbench_tellers_pkey  |           516096
 2017-02-04 00:11:12.55462+01 | 1486163472.55462 | pgbench_accounts_pkey |        224641024

 2017-02-04 00:11:13.639106+01 | 1486163473.63911 | pgbench_branches_pkey |            90112
 2017-02-04 00:11:13.639106+01 | 1486163473.63911 | pgbench_tellers_pkey  |           516096
 2017-02-04 00:11:13.639106+01 | 1486163473.63911 | pgbench_accounts_pkey |        224641024

 2017-02-04 00:11:14.718115+01 | 1486163474.71812 | pgbench_branches_pkey |            90112
 2017-02-04 00:11:14.718115+01 | 1486163474.71812 | pgbench_tellers_pkey  |           516096
 2017-02-04 00:11:14.718115+01 | 1486163474.71812 | pgbench_accounts_pkey |        224641024

 2017-02-04 00:11:15.806385+01 | 1486163475.80639 | pgbench_branches_pkey |            90112
 2017-02-04 00:11:15.806385+01 | 1486163475.80639 | pgbench_tellers_pkey  |           516096
 2017-02-04 00:11:15.806385+01 | 1486163475.80639 | pgbench_accounts_pkey |        224641024

 2017-02-04 00:11:16.885984+01 | 1486163476.88598 | pgbench_branches_pkey |            90112
 2017-02-04 00:11:16.885984+01 | 1486163476.88598 | pgbench_tellers_pkey  |           516096
 2017-02-04 00:11:16.885984+01 | 1486163476.88598 | pgbench_accounts_pkey |        224641024

 2017-02-04 00:11:17.968654+01 | 1486163477.96865 | pgbench_branches_pkey |            90112
 2017-02-04 00:11:17.968654+01 | 1486163477.96865 | pgbench_tellers_pkey  |           516096
 2017-02-04 00:11:17.968654+01 | 1486163477.96865 | pgbench_accounts_pkey |        224641024

 2017-02-04 00:11:19.051918+01 | 1486163479.05192 | pgbench_branches_pkey |            90112
 2017-02-04 00:11:19.051918+01 | 1486163479.05192 | pgbench_tellers_pkey  |           516096
 2017-02-04 00:11:19.051918+01 | 1486163479.05192 | pgbench_accounts_pkey |        224641024

 2017-02-04 00:11:20.143289+01 | 1486163480.14329 | pgbench_branches_pkey |            90112
 2017-02-04 00:11:20.143289+01 | 1486163480.14329 | pgbench_tellers_pkey  |           516096
 2017-02-04 00:11:20.143289+01 | 1486163480.14329 | pgbench_accounts_pkey |        224641024

 2017-02-04 00:11:21.221577+01 | 1486163481.22158 | pgbench_branches_pkey |            90112
 2017-02-04 00:11:21.221577+01 | 1486163481.22158 | pgbench_tellers_pkey  |           516096
 2017-02-04 00:11:21.221577+01 | 1486163481.22158 | pgbench_accounts_pkey |        224641024

 2017-02-04 00:11:22.310329+01 | 1486163482.31033 | pgbench_branches_pkey |            90112
 2017-02-04 00:11:22.310329+01 | 1486163482.31033 | pgbench_tellers_pkey  |           516096
 2017-02-04 00:11:22.310329+01 | 1486163482.31033 | pgbench_accounts_pkey |        224641024

 2017-02-04 00:11:23.402933+01 | 1486163483.40293 | pgbench_branches_pkey |            90112
 2017-02-04 00:11:23.402933+01 | 1486163483.40293 | pgbench_tellers_pkey  |           516096
 2017-02-04 00:11:23.402933+01 | 1486163483.40293 | pgbench_accounts_pkey |        224641024

 2017-02-04 00:11:24.485994+01 | 1486163484.48599 | pgbench_branches_pkey |            90112
 2017-02-04 00:11:24.485994+01 | 1486163484.48599 | pgbench_tellers_pkey  |           516096
 2017-02-04 00:11:24.485994+01 | 1486163484.48599 | pgbench_accounts_pkey |        224641024

 2017-02-04 00:11:25.574374+01 | 1486163485.57437 | pgbench_branches_pkey |            90112
 2017-02-04 00:11:25.574374+01 | 1486163485.57437 | pgbench_tellers_pkey  |           516096
 2017-02-04 00:11:25.574374+01 | 1486163485.57437 | pgbench_accounts_pkey |        224641024

 2017-02-04 00:11:26.655428+01 | 1486163486.65543 | pgbench_branches_pkey |            90112
 2017-02-04 00:11:26.655428+01 | 1486163486.65543 | pgbench_tellers_pkey  |           516096
 2017-02-04 00:11:26.655428+01 | 1486163486.65543 | pgbench_accounts_pkey |        224641024

 2017-02-04 00:11:27.745401+01 | 1486163487.7454 | pgbench_branches_pkey |            90112
 2017-02-04 00:11:27.745401+01 | 1486163487.7454 | pgbench_tellers_pkey  |           516096
 2017-02-04 00:11:27.745401+01 | 1486163487.7454 | pgbench_accounts_pkey |        224641024

 2017-02-04 00:11:28.830762+01 | 1486163488.83076 | pgbench_branches_pkey |            90112
 2017-02-04 00:11:28.830762+01 | 1486163488.83076 | pgbench_tellers_pkey  |           516096
 2017-02-04 00:11:28.830762+01 | 1486163488.83076 | pgbench_accounts_pkey |        224641024

 2017-02-04 00:11:29.9129+01 | 1486163489.9129 | pgbench_branches_pkey |            90112
 2017-02-04 00:11:29.9129+01 | 1486163489.9129 | pgbench_tellers_pkey  |           516096
 2017-02-04 00:11:29.9129+01 | 1486163489.9129 | pgbench_accounts_pkey |        224641024

 2017-02-04 00:11:30.998329+01 | 1486163490.99833 | pgbench_branches_pkey |            90112
 2017-02-04 00:11:30.998329+01 | 1486163490.99833 | pgbench_tellers_pkey  |           516096
 2017-02-04 00:11:30.998329+01 | 1486163490.99833 | pgbench_accounts_pkey |        224641024

 2017-02-04 00:11:32.092337+01 | 1486163492.09234 | pgbench_branches_pkey |            90112
 2017-02-04 00:11:32.092337+01 | 1486163492.09234 | pgbench_tellers_pkey  |           516096
 2017-02-04 00:11:32.092337+01 | 1486163492.09234 | pgbench_accounts_pkey |        224641024

 2017-02-04 00:11:33.172652+01 | 1486163493.17265 | pgbench_branches_pkey |            90112
 2017-02-04 00:11:33.172652+01 | 1486163493.17265 | pgbench_tellers_pkey  |           516096
 2017-02-04 00:11:33.172652+01 | 1486163493.17265 | pgbench_accounts_pkey |        224641024

 2017-02-04 00:11:34.257349+01 | 1486163494.25735 | pgbench_branches_pkey |            90112
 2017-02-04 00:11:34.257349+01 | 1486163494.25735 | pgbench_tellers_pkey  |           516096
 2017-02-04 00:11:34.257349+01 | 1486163494.25735 | pgbench_accounts_pkey |        224641024

 2017-02-04 00:11:35.347251+01 | 1486163495.34725 | pgbench_branches_pkey |            90112
 2017-02-04 00:11:35.347251+01 | 1486163495.34725 | pgbench_tellers_pkey  |           516096
 2017-02-04 00:11:35.347251+01 | 1486163495.34725 | pgbench_accounts_pkey |        224641024

 2017-02-04 00:11:36.429749+01 | 1486163496.42975 | pgbench_branches_pkey |            90112
 2017-02-04 00:11:36.429749+01 | 1486163496.42975 | pgbench_tellers_pkey  |           516096
 2017-02-04 00:11:36.429749+01 | 1486163496.42975 | pgbench_accounts_pkey |        224641024

 2017-02-04 00:11:37.513083+01 | 1486163497.51308 | pgbench_branches_pkey |            90112
 2017-02-04 00:11:37.513083+01 | 1486163497.51308 | pgbench_tellers_pkey  |           516096
 2017-02-04 00:11:37.513083+01 | 1486163497.51308 | pgbench_accounts_pkey |        224641024

 2017-02-04 00:11:38.605167+01 | 1486163498.60517 | pgbench_branches_pkey |            90112
 2017-02-04 00:11:38.605167+01 | 1486163498.60517 | pgbench_tellers_pkey  |           516096
 2017-02-04 00:11:38.605167+01 | 1486163498.60517 | pgbench_accounts_pkey |        224641024

 2017-02-04 00:11:39.691915+01 | 1486163499.69192 | pgbench_branches_pkey |            90112
 2017-02-04 00:11:39.691915+01 | 1486163499.69192 | pgbench_tellers_pkey  |           516096
 2017-02-04 00:11:39.691915+01 | 1486163499.69192 | pgbench_accounts_pkey |        224641024

 2017-02-04 00:11:40.774177+01 | 1486163500.77418 | pgbench_branches_pkey |            90112
 2017-02-04 00:11:40.774177+01 | 1486163500.77418 | pgbench_tellers_pkey  |           516096
 2017-02-04 00:11:40.774177+01 | 1486163500.77418 | pgbench_accounts_pkey |        224641024

 2017-02-04 00:11:41.852203+01 | 1486163501.8522 | pgbench_branches_pkey |            90112
 2017-02-04 00:11:41.852203+01 | 1486163501.8522 | pgbench_tellers_pkey  |           516096
 2017-02-04 00:11:41.852203+01 | 1486163501.8522 | pgbench_accounts_pkey |        224641024

 2017-02-04 00:11:42.928414+01 | 1486163502.92841 | pgbench_branches_pkey |            90112
 2017-02-04 00:11:42.928414+01 | 1486163502.92841 | pgbench_tellers_pkey  |           516096
 2017-02-04 00:11:42.928414+01 | 1486163502.92841 | pgbench_accounts_pkey |        224641024

 2017-02-04 00:11:44.011989+01 | 1486163504.01199 | pgbench_branches_pkey |            90112
 2017-02-04 00:11:44.011989+01 | 1486163504.01199 | pgbench_tellers_pkey  |           516096
 2017-02-04 00:11:44.011989+01 | 1486163504.01199 | pgbench_accounts_pkey |        224641024

 2017-02-04 00:11:45.105707+01 | 1486163505.10571 | pgbench_branches_pkey |            90112
 2017-02-04 00:11:45.105707+01 | 1486163505.10571 | pgbench_tellers_pkey  |           516096
 2017-02-04 00:11:45.105707+01 | 1486163505.10571 | pgbench_accounts_pkey |        224641024

 2017-02-04 00:11:46.193464+01 | 1486163506.19346 | pgbench_branches_pkey |            90112
 2017-02-04 00:11:46.193464+01 | 1486163506.19346 | pgbench_tellers_pkey  |           516096
 2017-02-04 00:11:46.193464+01 | 1486163506.19346 | pgbench_accounts_pkey |        224641024

 2017-02-04 00:11:47.280275+01 | 1486163507.28028 | pgbench_branches_pkey |            90112
 2017-02-04 00:11:47.280275+01 | 1486163507.28028 | pgbench_tellers_pkey  |           516096
 2017-02-04 00:11:47.280275+01 | 1486163507.28028 | pgbench_accounts_pkey |        224641024

 2017-02-04 00:11:48.365552+01 | 1486163508.36555 | pgbench_branches_pkey |            90112
 2017-02-04 00:11:48.365552+01 | 1486163508.36555 | pgbench_tellers_pkey  |           516096
 2017-02-04 00:11:48.365552+01 | 1486163508.36555 | pgbench_accounts_pkey |        224641024

 2017-02-04 00:11:49.45134+01 | 1486163509.45134 | pgbench_branches_pkey |            90112
 2017-02-04 00:11:49.45134+01 | 1486163509.45134 | pgbench_tellers_pkey  |           516096
 2017-02-04 00:11:49.45134+01 | 1486163509.45134 | pgbench_accounts_pkey |        224641024

 2017-02-04 00:11:50.531177+01 | 1486163510.53118 | pgbench_branches_pkey |            90112
 2017-02-04 00:11:50.531177+01 | 1486163510.53118 | pgbench_tellers_pkey  |           516096
 2017-02-04 00:11:50.531177+01 | 1486163510.53118 | pgbench_accounts_pkey |        224641024

 2017-02-04 00:11:51.616627+01 | 1486163511.61663 | pgbench_branches_pkey |            90112
 2017-02-04 00:11:51.616627+01 | 1486163511.61663 | pgbench_tellers_pkey  |           516096
 2017-02-04 00:11:51.616627+01 | 1486163511.61663 | pgbench_accounts_pkey |        224641024

 2017-02-04 00:11:52.703592+01 | 1486163512.70359 | pgbench_branches_pkey |            90112
 2017-02-04 00:11:52.703592+01 | 1486163512.70359 | pgbench_tellers_pkey  |           516096
 2017-02-04 00:11:52.703592+01 | 1486163512.70359 | pgbench_accounts_pkey |        224641024

 2017-02-04 00:11:53.802076+01 | 1486163513.80208 | pgbench_branches_pkey |            90112
 2017-02-04 00:11:53.802076+01 | 1486163513.80208 | pgbench_tellers_pkey  |           516096
 2017-02-04 00:11:53.802076+01 | 1486163513.80208 | pgbench_accounts_pkey |        224641024

 2017-02-04 00:11:54.881447+01 | 1486163514.88145 | pgbench_branches_pkey |            90112
 2017-02-04 00:11:54.881447+01 | 1486163514.88145 | pgbench_tellers_pkey  |           516096
 2017-02-04 00:11:54.881447+01 | 1486163514.88145 | pgbench_accounts_pkey |        224641024

 2017-02-04 00:11:55.947333+01 | 1486163515.94733 | pgbench_branches_pkey |            90112
 2017-02-04 00:11:55.947333+01 | 1486163515.94733 | pgbench_tellers_pkey  |           516096
 2017-02-04 00:11:55.947333+01 | 1486163515.94733 | pgbench_accounts_pkey |        224641024

 2017-02-04 00:11:57.024443+01 | 1486163517.02444 | pgbench_branches_pkey |            90112
 2017-02-04 00:11:57.024443+01 | 1486163517.02444 | pgbench_tellers_pkey  |           516096
 2017-02-04 00:11:57.024443+01 | 1486163517.02444 | pgbench_accounts_pkey |        224641024

 2017-02-04 00:11:58.115223+01 | 1486163518.11522 | pgbench_branches_pkey |            90112
 2017-02-04 00:11:58.115223+01 | 1486163518.11522 | pgbench_tellers_pkey  |           516096
 2017-02-04 00:11:58.115223+01 | 1486163518.11522 | pgbench_accounts_pkey |        224641024

 2017-02-04 00:11:59.204631+01 | 1486163519.20463 | pgbench_branches_pkey |            90112
 2017-02-04 00:11:59.204631+01 | 1486163519.20463 | pgbench_tellers_pkey  |           516096
 2017-02-04 00:11:59.204631+01 | 1486163519.20463 | pgbench_accounts_pkey |        224641024

 2017-02-04 00:12:00.291152+01 | 1486163520.29115 | pgbench_branches_pkey |            90112
 2017-02-04 00:12:00.291152+01 | 1486163520.29115 | pgbench_tellers_pkey  |           516096
 2017-02-04 00:12:00.291152+01 | 1486163520.29115 | pgbench_accounts_pkey |        224641024

 2017-02-04 00:12:01.386369+01 | 1486163521.38637 | pgbench_branches_pkey |            90112
 2017-02-04 00:12:01.386369+01 | 1486163521.38637 | pgbench_tellers_pkey  |           516096
 2017-02-04 00:12:01.386369+01 | 1486163521.38637 | pgbench_accounts_pkey |        224641024

 2017-02-04 00:12:02.468526+01 | 1486163522.46853 | pgbench_branches_pkey |            90112
 2017-02-04 00:12:02.468526+01 | 1486163522.46853 | pgbench_tellers_pkey  |           516096
 2017-02-04 00:12:02.468526+01 | 1486163522.46853 | pgbench_accounts_pkey |        224641024

 2017-02-04 00:12:03.553606+01 | 1486163523.55361 | pgbench_branches_pkey |            90112
 2017-02-04 00:12:03.553606+01 | 1486163523.55361 | pgbench_tellers_pkey  |           516096
 2017-02-04 00:12:03.553606+01 | 1486163523.55361 | pgbench_accounts_pkey |        224641024

 2017-02-04 00:12:04.634677+01 | 1486163524.63468 | pgbench_branches_pkey |            90112
 2017-02-04 00:12:04.634677+01 | 1486163524.63468 | pgbench_tellers_pkey  |           516096
 2017-02-04 00:12:04.634677+01 | 1486163524.63468 | pgbench_accounts_pkey |        224641024

 2017-02-04 00:12:05.722862+01 | 1486163525.72286 | pgbench_branches_pkey |            90112
 2017-02-04 00:12:05.722862+01 | 1486163525.72286 | pgbench_tellers_pkey  |           516096
 2017-02-04 00:12:05.722862+01 | 1486163525.72286 | pgbench_accounts_pkey |        224641024

 2017-02-04 00:12:06.813883+01 | 1486163526.81388 | pgbench_branches_pkey |            90112
 2017-02-04 00:12:06.813883+01 | 1486163526.81388 | pgbench_tellers_pkey  |           516096
 2017-02-04 00:12:06.813883+01 | 1486163526.81388 | pgbench_accounts_pkey |        224641024

 2017-02-04 00:12:07.899957+01 | 1486163527.89996 | pgbench_branches_pkey |            90112
 2017-02-04 00:12:07.899957+01 | 1486163527.89996 | pgbench_tellers_pkey  |           516096
 2017-02-04 00:12:07.899957+01 | 1486163527.89996 | pgbench_accounts_pkey |        224641024

 2017-02-04 00:12:08.98367+01 | 1486163528.98367 | pgbench_branches_pkey |            90112
 2017-02-04 00:12:08.98367+01 | 1486163528.98367 | pgbench_tellers_pkey  |           516096
 2017-02-04 00:12:08.98367+01 | 1486163528.98367 | pgbench_accounts_pkey |        224641024

 2017-02-04 00:12:10.071277+01 | 1486163530.07128 | pgbench_branches_pkey |            90112
 2017-02-04 00:12:10.071277+01 | 1486163530.07128 | pgbench_tellers_pkey  |           516096
 2017-02-04 00:12:10.071277+01 | 1486163530.07128 | pgbench_accounts_pkey |        224641024

 2017-02-04 00:12:11.161716+01 | 1486163531.16172 | pgbench_branches_pkey |            90112
 2017-02-04 00:12:11.161716+01 | 1486163531.16172 | pgbench_tellers_pkey  |           516096
 2017-02-04 00:12:11.161716+01 | 1486163531.16172 | pgbench_accounts_pkey |        224641024

 2017-02-04 00:12:12.24914+01 | 1486163532.24914 | pgbench_branches_pkey |            90112
 2017-02-04 00:12:12.24914+01 | 1486163532.24914 | pgbench_tellers_pkey  |           516096
 2017-02-04 00:12:12.24914+01 | 1486163532.24914 | pgbench_accounts_pkey |        224641024

 2017-02-04 00:12:13.337432+01 | 1486163533.33743 | pgbench_branches_pkey |            90112
 2017-02-04 00:12:13.337432+01 | 1486163533.33743 | pgbench_tellers_pkey  |           516096
 2017-02-04 00:12:13.337432+01 | 1486163533.33743 | pgbench_accounts_pkey |        224641024

 2017-02-04 00:12:14.418367+01 | 1486163534.41837 | pgbench_branches_pkey |            90112
 2017-02-04 00:12:14.418367+01 | 1486163534.41837 | pgbench_tellers_pkey  |           516096
 2017-02-04 00:12:14.418367+01 | 1486163534.41837 | pgbench_accounts_pkey |        224641024

 2017-02-04 00:12:15.501464+01 | 1486163535.50146 | pgbench_branches_pkey |            90112
 2017-02-04 00:12:15.501464+01 | 1486163535.50146 | pgbench_tellers_pkey  |           516096
 2017-02-04 00:12:15.501464+01 | 1486163535.50146 | pgbench_accounts_pkey |        224641024

 2017-02-04 00:12:16.584929+01 | 1486163536.58493 | pgbench_branches_pkey |            90112
 2017-02-04 00:12:16.584929+01 | 1486163536.58493 | pgbench_tellers_pkey  |           516096
 2017-02-04 00:12:16.584929+01 | 1486163536.58493 | pgbench_accounts_pkey |        224641024

 2017-02-04 00:12:17.666638+01 | 1486163537.66664 | pgbench_branches_pkey |            90112
 2017-02-04 00:12:17.666638+01 | 1486163537.66664 | pgbench_tellers_pkey  |           516096
 2017-02-04 00:12:17.666638+01 | 1486163537.66664 | pgbench_accounts_pkey |        224641024

 2017-02-04 00:12:18.751963+01 | 1486163538.75196 | pgbench_branches_pkey |            90112
 2017-02-04 00:12:18.751963+01 | 1486163538.75196 | pgbench_tellers_pkey  |           516096
 2017-02-04 00:12:18.751963+01 | 1486163538.75196 | pgbench_accounts_pkey |        224641024

 2017-02-04 00:12:19.840094+01 | 1486163539.84009 | pgbench_branches_pkey |            90112
 2017-02-04 00:12:19.840094+01 | 1486163539.84009 | pgbench_tellers_pkey  |           516096
 2017-02-04 00:12:19.840094+01 | 1486163539.84009 | pgbench_accounts_pkey |        224641024

 2017-02-04 00:12:20.921705+01 | 1486163540.92171 | pgbench_branches_pkey |            90112
 2017-02-04 00:12:20.921705+01 | 1486163540.92171 | pgbench_tellers_pkey  |           516096
 2017-02-04 00:12:20.921705+01 | 1486163540.92171 | pgbench_accounts_pkey |        224641024

 2017-02-04 00:12:21.998706+01 | 1486163541.99871 | pgbench_branches_pkey |            90112
 2017-02-04 00:12:21.998706+01 | 1486163541.99871 | pgbench_tellers_pkey  |           516096
 2017-02-04 00:12:21.998706+01 | 1486163541.99871 | pgbench_accounts_pkey |        224641024

 2017-02-04 00:12:23.08363+01 | 1486163543.08363 | pgbench_branches_pkey |            90112
 2017-02-04 00:12:23.08363+01 | 1486163543.08363 | pgbench_tellers_pkey  |           516096
 2017-02-04 00:12:23.08363+01 | 1486163543.08363 | pgbench_accounts_pkey |        224641024

 2017-02-04 00:12:24.169809+01 | 1486163544.16981 | pgbench_branches_pkey |            90112
 2017-02-04 00:12:24.169809+01 | 1486163544.16981 | pgbench_tellers_pkey  |           516096
 2017-02-04 00:12:24.169809+01 | 1486163544.16981 | pgbench_accounts_pkey |        224641024

 2017-02-04 00:12:25.255355+01 | 1486163545.25535 | pgbench_branches_pkey |            90112
 2017-02-04 00:12:25.255355+01 | 1486163545.25535 | pgbench_tellers_pkey  |           516096
 2017-02-04 00:12:25.255355+01 | 1486163545.25535 | pgbench_accounts_pkey |        224641024

 2017-02-04 00:12:26.340542+01 | 1486163546.34054 | pgbench_branches_pkey |            90112
 2017-02-04 00:12:26.340542+01 | 1486163546.34054 | pgbench_tellers_pkey  |           516096
 2017-02-04 00:12:26.340542+01 | 1486163546.34054 | pgbench_accounts_pkey |        224641024

 2017-02-04 00:12:27.424208+01 | 1486163547.42421 | pgbench_branches_pkey |            90112
 2017-02-04 00:12:27.424208+01 | 1486163547.42421 | pgbench_tellers_pkey  |           516096
 2017-02-04 00:12:27.424208+01 | 1486163547.42421 | pgbench_accounts_pkey |        224641024

 2017-02-04 00:12:28.507717+01 | 1486163548.50772 | pgbench_branches_pkey |            90112
 2017-02-04 00:12:28.507717+01 | 1486163548.50772 | pgbench_tellers_pkey  |           516096
 2017-02-04 00:12:28.507717+01 | 1486163548.50772 | pgbench_accounts_pkey |        224641024

 2017-02-04 00:12:29.598696+01 | 1486163549.5987 | pgbench_branches_pkey |            90112
 2017-02-04 00:12:29.598696+01 | 1486163549.5987 | pgbench_tellers_pkey  |           516096
 2017-02-04 00:12:29.598696+01 | 1486163549.5987 | pgbench_accounts_pkey |        224641024

 2017-02-04 00:12:30.685839+01 | 1486163550.68584 | pgbench_branches_pkey |            90112
 2017-02-04 00:12:30.685839+01 | 1486163550.68584 | pgbench_tellers_pkey  |           516096
 2017-02-04 00:12:30.685839+01 | 1486163550.68584 | pgbench_accounts_pkey |        224641024

 2017-02-04 00:12:31.777569+01 | 1486163551.77757 | pgbench_branches_pkey |            90112
 2017-02-04 00:12:31.777569+01 | 1486163551.77757 | pgbench_tellers_pkey  |           516096
 2017-02-04 00:12:31.777569+01 | 1486163551.77757 | pgbench_accounts_pkey |        224641024

 2017-02-04 00:12:32.862436+01 | 1486163552.86244 | pgbench_branches_pkey |            90112
 2017-02-04 00:12:32.862436+01 | 1486163552.86244 | pgbench_tellers_pkey  |           516096
 2017-02-04 00:12:32.862436+01 | 1486163552.86244 | pgbench_accounts_pkey |        224641024

 2017-02-04 00:12:33.941338+01 | 1486163553.94134 | pgbench_branches_pkey |            90112
 2017-02-04 00:12:33.941338+01 | 1486163553.94134 | pgbench_tellers_pkey  |           516096
 2017-02-04 00:12:33.941338+01 | 1486163553.94134 | pgbench_accounts_pkey |        224641024

 2017-02-04 00:12:35.018369+01 | 1486163555.01837 | pgbench_branches_pkey |            90112
 2017-02-04 00:12:35.018369+01 | 1486163555.01837 | pgbench_tellers_pkey  |           516096
 2017-02-04 00:12:35.018369+01 | 1486163555.01837 | pgbench_accounts_pkey |        224641024

 2017-02-04 00:12:36.105376+01 | 1486163556.10538 | pgbench_branches_pkey |            90112
 2017-02-04 00:12:36.105376+01 | 1486163556.10538 | pgbench_tellers_pkey  |           516096
 2017-02-04 00:12:36.105376+01 | 1486163556.10538 | pgbench_accounts_pkey |        224641024

 2017-02-04 00:12:37.187725+01 | 1486163557.18773 | pgbench_branches_pkey |            90112
 2017-02-04 00:12:37.187725+01 | 1486163557.18773 | pgbench_tellers_pkey  |           516096
 2017-02-04 00:12:37.187725+01 | 1486163557.18773 | pgbench_accounts_pkey |        224641024

 2017-02-04 00:12:38.270592+01 | 1486163558.27059 | pgbench_branches_pkey |            90112
 2017-02-04 00:12:38.270592+01 | 1486163558.27059 | pgbench_tellers_pkey  |           516096
 2017-02-04 00:12:38.270592+01 | 1486163558.27059 | pgbench_accounts_pkey |        224641024

 2017-02-04 00:12:39.351551+01 | 1486163559.35155 | pgbench_branches_pkey |            90112
 2017-02-04 00:12:39.351551+01 | 1486163559.35155 | pgbench_tellers_pkey  |           516096
 2017-02-04 00:12:39.351551+01 | 1486163559.35155 | pgbench_accounts_pkey |        224641024

 2017-02-04 00:12:40.430699+01 | 1486163560.4307 | pgbench_branches_pkey |            90112
 2017-02-04 00:12:40.430699+01 | 1486163560.4307 | pgbench_tellers_pkey  |           516096
 2017-02-04 00:12:40.430699+01 | 1486163560.4307 | pgbench_accounts_pkey |        224641024

 2017-02-04 00:12:41.516523+01 | 1486163561.51652 | pgbench_branches_pkey |            90112
 2017-02-04 00:12:41.516523+01 | 1486163561.51652 | pgbench_tellers_pkey  |           516096
 2017-02-04 00:12:41.516523+01 | 1486163561.51652 | pgbench_accounts_pkey |        224641024

 2017-02-04 00:12:42.5969+01 | 1486163562.5969 | pgbench_branches_pkey |            90112
 2017-02-04 00:12:42.5969+01 | 1486163562.5969 | pgbench_tellers_pkey  |           516096
 2017-02-04 00:12:42.5969+01 | 1486163562.5969 | pgbench_accounts_pkey |        224641024

 2017-02-04 00:12:43.685623+01 | 1486163563.68562 | pgbench_branches_pkey |            90112
 2017-02-04 00:12:43.685623+01 | 1486163563.68562 | pgbench_tellers_pkey  |           516096
 2017-02-04 00:12:43.685623+01 | 1486163563.68562 | pgbench_accounts_pkey |        224641024

 2017-02-04 00:12:44.768042+01 | 1486163564.76804 | pgbench_branches_pkey |            90112
 2017-02-04 00:12:44.768042+01 | 1486163564.76804 | pgbench_tellers_pkey  |           516096
 2017-02-04 00:12:44.768042+01 | 1486163564.76804 | pgbench_accounts_pkey |        224641024

 2017-02-04 00:12:45.857479+01 | 1486163565.85748 | pgbench_branches_pkey |            90112
 2017-02-04 00:12:45.857479+01 | 1486163565.85748 | pgbench_tellers_pkey  |           516096
 2017-02-04 00:12:45.857479+01 | 1486163565.85748 | pgbench_accounts_pkey |        224641024

 2017-02-04 00:12:46.937953+01 | 1486163566.93795 | pgbench_branches_pkey |            90112
 2017-02-04 00:12:46.937953+01 | 1486163566.93795 | pgbench_tellers_pkey  |           516096
 2017-02-04 00:12:46.937953+01 | 1486163566.93795 | pgbench_accounts_pkey |        224641024

 2017-02-04 00:12:48.013062+01 | 1486163568.01306 | pgbench_branches_pkey |            90112
 2017-02-04 00:12:48.013062+01 | 1486163568.01306 | pgbench_tellers_pkey  |           516096
 2017-02-04 00:12:48.013062+01 | 1486163568.01306 | pgbench_accounts_pkey |        224641024

 2017-02-04 00:12:49.093762+01 | 1486163569.09376 | pgbench_branches_pkey |            90112
 2017-02-04 00:12:49.093762+01 | 1486163569.09376 | pgbench_tellers_pkey  |           516096
 2017-02-04 00:12:49.093762+01 | 1486163569.09376 | pgbench_accounts_pkey |        224641024

 2017-02-04 00:12:50.183911+01 | 1486163570.18391 | pgbench_branches_pkey |            90112
 2017-02-04 00:12:50.183911+01 | 1486163570.18391 | pgbench_tellers_pkey  |           516096
 2017-02-04 00:12:50.183911+01 | 1486163570.18391 | pgbench_accounts_pkey |        224641024

 2017-02-04 00:12:51.278758+01 | 1486163571.27876 | pgbench_branches_pkey |            90112
 2017-02-04 00:12:51.278758+01 | 1486163571.27876 | pgbench_tellers_pkey  |           516096
 2017-02-04 00:12:51.278758+01 | 1486163571.27876 | pgbench_accounts_pkey |        224641024

 2017-02-04 00:12:52.358138+01 | 1486163572.35814 | pgbench_branches_pkey |            90112
 2017-02-04 00:12:52.358138+01 | 1486163572.35814 | pgbench_tellers_pkey  |           516096
 2017-02-04 00:12:52.358138+01 | 1486163572.35814 | pgbench_accounts_pkey |        224641024

 2017-02-04 00:12:53.445214+01 | 1486163573.44521 | pgbench_branches_pkey |            90112
 2017-02-04 00:12:53.445214+01 | 1486163573.44521 | pgbench_tellers_pkey  |           516096
 2017-02-04 00:12:53.445214+01 | 1486163573.44521 | pgbench_accounts_pkey |        224641024

 2017-02-04 00:12:54.528201+01 | 1486163574.5282 | pgbench_branches_pkey |            90112
 2017-02-04 00:12:54.528201+01 | 1486163574.5282 | pgbench_tellers_pkey  |           516096
 2017-02-04 00:12:54.528201+01 | 1486163574.5282 | pgbench_accounts_pkey |        224641024

 2017-02-04 00:12:55.604383+01 | 1486163575.60438 | pgbench_branches_pkey |            90112
 2017-02-04 00:12:55.604383+01 | 1486163575.60438 | pgbench_tellers_pkey  |           516096
 2017-02-04 00:12:55.604383+01 | 1486163575.60438 | pgbench_accounts_pkey |        224641024

 2017-02-04 00:12:56.685711+01 | 1486163576.68571 | pgbench_branches_pkey |            90112
 2017-02-04 00:12:56.685711+01 | 1486163576.68571 | pgbench_tellers_pkey  |           516096
 2017-02-04 00:12:56.685711+01 | 1486163576.68571 | pgbench_accounts_pkey |        224641024

 2017-02-04 00:12:57.76828+01 | 1486163577.76828 | pgbench_branches_pkey |            90112
 2017-02-04 00:12:57.76828+01 | 1486163577.76828 | pgbench_tellers_pkey  |           516096
 2017-02-04 00:12:57.76828+01 | 1486163577.76828 | pgbench_accounts_pkey |        224641024

 2017-02-04 00:12:58.856578+01 | 1486163578.85658 | pgbench_branches_pkey |            90112
 2017-02-04 00:12:58.856578+01 | 1486163578.85658 | pgbench_tellers_pkey  |           516096
 2017-02-04 00:12:58.856578+01 | 1486163578.85658 | pgbench_accounts_pkey |        224641024

 2017-02-04 00:12:59.938788+01 | 1486163579.93879 | pgbench_branches_pkey |            90112
 2017-02-04 00:12:59.938788+01 | 1486163579.93879 | pgbench_tellers_pkey  |           516096
 2017-02-04 00:12:59.938788+01 | 1486163579.93879 | pgbench_accounts_pkey |        224641024

 2017-02-04 00:13:01.0099+01 | 1486163581.0099 | pgbench_branches_pkey |            90112
 2017-02-04 00:13:01.0099+01 | 1486163581.0099 | pgbench_tellers_pkey  |           516096
 2017-02-04 00:13:01.0099+01 | 1486163581.0099 | pgbench_accounts_pkey |        224641024

 2017-02-04 00:13:02.098307+01 | 1486163582.09831 | pgbench_branches_pkey |            90112
 2017-02-04 00:13:02.098307+01 | 1486163582.09831 | pgbench_tellers_pkey  |           516096
 2017-02-04 00:13:02.098307+01 | 1486163582.09831 | pgbench_accounts_pkey |        224641024

 2017-02-04 00:13:03.186746+01 | 1486163583.18675 | pgbench_branches_pkey |            90112
 2017-02-04 00:13:03.186746+01 | 1486163583.18675 | pgbench_tellers_pkey  |           516096
 2017-02-04 00:13:03.186746+01 | 1486163583.18675 | pgbench_accounts_pkey |        224641024

 2017-02-04 00:13:04.284024+01 | 1486163584.28402 | pgbench_branches_pkey |            90112
 2017-02-04 00:13:04.284024+01 | 1486163584.28402 | pgbench_tellers_pkey  |           516096
 2017-02-04 00:13:04.284024+01 | 1486163584.28402 | pgbench_accounts_pkey |        224641024

 2017-02-04 00:13:05.373124+01 | 1486163585.37312 | pgbench_branches_pkey |            90112
 2017-02-04 00:13:05.373124+01 | 1486163585.37312 | pgbench_tellers_pkey  |           516096
 2017-02-04 00:13:05.373124+01 | 1486163585.37312 | pgbench_accounts_pkey |        224641024

 2017-02-04 00:13:06.461026+01 | 1486163586.46103 | pgbench_branches_pkey |            90112
 2017-02-04 00:13:06.461026+01 | 1486163586.46103 | pgbench_tellers_pkey  |           516096
 2017-02-04 00:13:06.461026+01 | 1486163586.46103 | pgbench_accounts_pkey |        224641024

 2017-02-04 00:13:07.546695+01 | 1486163587.54669 | pgbench_branches_pkey |            90112
 2017-02-04 00:13:07.546695+01 | 1486163587.54669 | pgbench_tellers_pkey  |           516096
 2017-02-04 00:13:07.546695+01 | 1486163587.54669 | pgbench_accounts_pkey |        224641024

 2017-02-04 00:13:08.630723+01 | 1486163588.63072 | pgbench_branches_pkey |            90112
 2017-02-04 00:13:08.630723+01 | 1486163588.63072 | pgbench_tellers_pkey  |           516096
 2017-02-04 00:13:08.630723+01 | 1486163588.63072 | pgbench_accounts_pkey |        224641024

 2017-02-04 00:13:09.720387+01 | 1486163589.72039 | pgbench_branches_pkey |            90112
 2017-02-04 00:13:09.720387+01 | 1486163589.72039 | pgbench_tellers_pkey  |           516096
 2017-02-04 00:13:09.720387+01 | 1486163589.72039 | pgbench_accounts_pkey |        224641024

 2017-02-04 00:13:10.805854+01 | 1486163590.80585 | pgbench_branches_pkey |            90112
 2017-02-04 00:13:10.805854+01 | 1486163590.80585 | pgbench_tellers_pkey  |           516096
 2017-02-04 00:13:10.805854+01 | 1486163590.80585 | pgbench_accounts_pkey |        224641024

 2017-02-04 00:13:11.889012+01 | 1486163591.88901 | pgbench_branches_pkey |            90112
 2017-02-04 00:13:11.889012+01 | 1486163591.88901 | pgbench_tellers_pkey  |           516096
 2017-02-04 00:13:11.889012+01 | 1486163591.88901 | pgbench_accounts_pkey |        224641024

 2017-02-04 00:13:12.968265+01 | 1486163592.96827 | pgbench_branches_pkey |            90112
 2017-02-04 00:13:12.968265+01 | 1486163592.96827 | pgbench_tellers_pkey  |           516096
 2017-02-04 00:13:12.968265+01 | 1486163592.96827 | pgbench_accounts_pkey |        224641024

 2017-02-04 00:13:14.044265+01 | 1486163594.04427 | pgbench_branches_pkey |            90112
 2017-02-04 00:13:14.044265+01 | 1486163594.04427 | pgbench_tellers_pkey  |           516096
 2017-02-04 00:13:14.044265+01 | 1486163594.04427 | pgbench_accounts_pkey |        224641024

 2017-02-04 00:13:15.123014+01 | 1486163595.12301 | pgbench_branches_pkey |            90112
 2017-02-04 00:13:15.123014+01 | 1486163595.12301 | pgbench_tellers_pkey  |           516096
 2017-02-04 00:13:15.123014+01 | 1486163595.12301 | pgbench_accounts_pkey |        224641024

 2017-02-04 00:13:16.209575+01 | 1486163596.20957 | pgbench_branches_pkey |            90112
 2017-02-04 00:13:16.209575+01 | 1486163596.20957 | pgbench_tellers_pkey  |           516096
 2017-02-04 00:13:16.209575+01 | 1486163596.20957 | pgbench_accounts_pkey |        224641024

 2017-02-04 00:13:17.2907+01 | 1486163597.2907 | pgbench_branches_pkey |            90112
 2017-02-04 00:13:17.2907+01 | 1486163597.2907 | pgbench_tellers_pkey  |           516096
 2017-02-04 00:13:17.2907+01 | 1486163597.2907 | pgbench_accounts_pkey |        224641024

 2017-02-04 00:13:18.379078+01 | 1486163598.37908 | pgbench_branches_pkey |            90112
 2017-02-04 00:13:18.379078+01 | 1486163598.37908 | pgbench_tellers_pkey  |           516096
 2017-02-04 00:13:18.379078+01 | 1486163598.37908 | pgbench_accounts_pkey |        224641024

 2017-02-04 00:13:19.45895+01 | 1486163599.45895 | pgbench_branches_pkey |            90112
 2017-02-04 00:13:19.45895+01 | 1486163599.45895 | pgbench_tellers_pkey  |           516096
 2017-02-04 00:13:19.45895+01 | 1486163599.45895 | pgbench_accounts_pkey |        224641024

 2017-02-04 00:13:20.542924+01 | 1486163600.54292 | pgbench_branches_pkey |            90112
 2017-02-04 00:13:20.542924+01 | 1486163600.54292 | pgbench_tellers_pkey  |           516096
 2017-02-04 00:13:20.542924+01 | 1486163600.54292 | pgbench_accounts_pkey |        224641024

 2017-02-04 00:13:21.633324+01 | 1486163601.63332 | pgbench_branches_pkey |            90112
 2017-02-04 00:13:21.633324+01 | 1486163601.63332 | pgbench_tellers_pkey  |           516096
 2017-02-04 00:13:21.633324+01 | 1486163601.63332 | pgbench_accounts_pkey |        224641024

 2017-02-04 00:13:22.71981+01 | 1486163602.71981 | pgbench_branches_pkey |            90112
 2017-02-04 00:13:22.71981+01 | 1486163602.71981 | pgbench_tellers_pkey  |           516096
 2017-02-04 00:13:22.71981+01 | 1486163602.71981 | pgbench_accounts_pkey |        224641024

 2017-02-04 00:13:23.79866+01 | 1486163603.79866 | pgbench_branches_pkey |            90112
 2017-02-04 00:13:23.79866+01 | 1486163603.79866 | pgbench_tellers_pkey  |           516096
 2017-02-04 00:13:23.79866+01 | 1486163603.79866 | pgbench_accounts_pkey |        224641024

 2017-02-04 00:13:24.884717+01 | 1486163604.88472 | pgbench_branches_pkey |            90112
 2017-02-04 00:13:24.884717+01 | 1486163604.88472 | pgbench_tellers_pkey  |           516096
 2017-02-04 00:13:24.884717+01 | 1486163604.88472 | pgbench_accounts_pkey |        224641024

 2017-02-04 00:13:25.964484+01 | 1486163605.96448 | pgbench_branches_pkey |            90112
 2017-02-04 00:13:25.964484+01 | 1486163605.96448 | pgbench_tellers_pkey  |           516096
 2017-02-04 00:13:25.964484+01 | 1486163605.96448 | pgbench_accounts_pkey |        224641024

 2017-02-04 00:13:27.047891+01 | 1486163607.04789 | pgbench_branches_pkey |            90112
 2017-02-04 00:13:27.047891+01 | 1486163607.04789 | pgbench_tellers_pkey  |           516096
 2017-02-04 00:13:27.047891+01 | 1486163607.04789 | pgbench_accounts_pkey |        224641024

 2017-02-04 00:13:28.132476+01 | 1486163608.13248 | pgbench_branches_pkey |            90112
 2017-02-04 00:13:28.132476+01 | 1486163608.13248 | pgbench_tellers_pkey  |           516096
 2017-02-04 00:13:28.132476+01 | 1486163608.13248 | pgbench_accounts_pkey |        224641024

 2017-02-04 00:13:29.209984+01 | 1486163609.20998 | pgbench_branches_pkey |            90112
 2017-02-04 00:13:29.209984+01 | 1486163609.20998 | pgbench_tellers_pkey  |           516096
 2017-02-04 00:13:29.209984+01 | 1486163609.20998 | pgbench_accounts_pkey |        224641024

 2017-02-04 00:13:30.289739+01 | 1486163610.28974 | pgbench_branches_pkey |            90112
 2017-02-04 00:13:30.289739+01 | 1486163610.28974 | pgbench_tellers_pkey  |           516096
 2017-02-04 00:13:30.289739+01 | 1486163610.28974 | pgbench_accounts_pkey |        224641024

 2017-02-04 00:13:31.369394+01 | 1486163611.36939 | pgbench_branches_pkey |            90112
 2017-02-04 00:13:31.369394+01 | 1486163611.36939 | pgbench_tellers_pkey  |           516096
 2017-02-04 00:13:31.369394+01 | 1486163611.36939 | pgbench_accounts_pkey |        224641024

 2017-02-04 00:13:32.454395+01 | 1486163612.4544 | pgbench_branches_pkey |            90112
 2017-02-04 00:13:32.454395+01 | 1486163612.4544 | pgbench_tellers_pkey  |           516096
 2017-02-04 00:13:32.454395+01 | 1486163612.4544 | pgbench_accounts_pkey |        224641024

 2017-02-04 00:13:33.5424+01 | 1486163613.5424 | pgbench_branches_pkey |            90112
 2017-02-04 00:13:33.5424+01 | 1486163613.5424 | pgbench_tellers_pkey  |           516096
 2017-02-04 00:13:33.5424+01 | 1486163613.5424 | pgbench_accounts_pkey |        224641024

 2017-02-04 00:13:34.627088+01 | 1486163614.62709 | pgbench_branches_pkey |            90112
 2017-02-04 00:13:34.627088+01 | 1486163614.62709 | pgbench_tellers_pkey  |           516096
 2017-02-04 00:13:34.627088+01 | 1486163614.62709 | pgbench_accounts_pkey |        224641024

 2017-02-04 00:13:35.721126+01 | 1486163615.72113 | pgbench_branches_pkey |            90112
 2017-02-04 00:13:35.721126+01 | 1486163615.72113 | pgbench_tellers_pkey  |           516096
 2017-02-04 00:13:35.721126+01 | 1486163615.72113 | pgbench_accounts_pkey |        224641024

 2017-02-04 00:13:36.810601+01 | 1486163616.8106 | pgbench_branches_pkey |            90112
 2017-02-04 00:13:36.810601+01 | 1486163616.8106 | pgbench_tellers_pkey  |           516096
 2017-02-04 00:13:36.810601+01 | 1486163616.8106 | pgbench_accounts_pkey |        224641024

 2017-02-04 00:13:37.892978+01 | 1486163617.89298 | pgbench_branches_pkey |            90112
 2017-02-04 00:13:37.892978+01 | 1486163617.89298 | pgbench_tellers_pkey  |           516096
 2017-02-04 00:13:37.892978+01 | 1486163617.89298 | pgbench_accounts_pkey |        224641024

 2017-02-04 00:13:38.974785+01 | 1486163618.97479 | pgbench_branches_pkey |            90112
 2017-02-04 00:13:38.974785+01 | 1486163618.97479 | pgbench_tellers_pkey  |           516096
 2017-02-04 00:13:38.974785+01 | 1486163618.97479 | pgbench_accounts_pkey |        224641024

 2017-02-04 00:13:40.051032+01 | 1486163620.05103 | pgbench_branches_pkey |            90112
 2017-02-04 00:13:40.051032+01 | 1486163620.05103 | pgbench_tellers_pkey  |           516096
 2017-02-04 00:13:40.051032+01 | 1486163620.05103 | pgbench_accounts_pkey |        224641024

 2017-02-04 00:13:41.133072+01 | 1486163621.13307 | pgbench_branches_pkey |            90112
 2017-02-04 00:13:41.133072+01 | 1486163621.13307 | pgbench_tellers_pkey  |           516096
 2017-02-04 00:13:41.133072+01 | 1486163621.13307 | pgbench_accounts_pkey |        224641024

 2017-02-04 00:13:42.207823+01 | 1486163622.20782 | pgbench_branches_pkey |            90112
 2017-02-04 00:13:42.207823+01 | 1486163622.20782 | pgbench_tellers_pkey  |           516096
 2017-02-04 00:13:42.207823+01 | 1486163622.20782 | pgbench_accounts_pkey |        224641024

 2017-02-04 00:13:43.294082+01 | 1486163623.29408 | pgbench_branches_pkey |            90112
 2017-02-04 00:13:43.294082+01 | 1486163623.29408 | pgbench_tellers_pkey  |           516096
 2017-02-04 00:13:43.294082+01 | 1486163623.29408 | pgbench_accounts_pkey |        224641024

 2017-02-04 00:13:44.374943+01 | 1486163624.37494 | pgbench_branches_pkey |            90112
 2017-02-04 00:13:44.374943+01 | 1486163624.37494 | pgbench_tellers_pkey  |           516096
 2017-02-04 00:13:44.374943+01 | 1486163624.37494 | pgbench_accounts_pkey |        224641024

 2017-02-04 00:13:45.465303+01 | 1486163625.4653 | pgbench_branches_pkey |            90112
 2017-02-04 00:13:45.465303+01 | 1486163625.4653 | pgbench_tellers_pkey  |           516096
 2017-02-04 00:13:45.465303+01 | 1486163625.4653 | pgbench_accounts_pkey |        224641024

 2017-02-04 00:13:46.551279+01 | 1486163626.55128 | pgbench_branches_pkey |            90112
 2017-02-04 00:13:46.551279+01 | 1486163626.55128 | pgbench_tellers_pkey  |           516096
 2017-02-04 00:13:46.551279+01 | 1486163626.55128 | pgbench_accounts_pkey |        224641024

 2017-02-04 00:13:47.638711+01 | 1486163627.63871 | pgbench_branches_pkey |            90112
 2017-02-04 00:13:47.638711+01 | 1486163627.63871 | pgbench_tellers_pkey  |           516096
 2017-02-04 00:13:47.638711+01 | 1486163627.63871 | pgbench_accounts_pkey |        224641024

 2017-02-04 00:13:48.723255+01 | 1486163628.72325 | pgbench_branches_pkey |            90112
 2017-02-04 00:13:48.723255+01 | 1486163628.72325 | pgbench_tellers_pkey  |           516096
 2017-02-04 00:13:48.723255+01 | 1486163628.72325 | pgbench_accounts_pkey |        224641024

 2017-02-04 00:13:49.807348+01 | 1486163629.80735 | pgbench_branches_pkey |            90112
 2017-02-04 00:13:49.807348+01 | 1486163629.80735 | pgbench_tellers_pkey  |           516096
 2017-02-04 00:13:49.807348+01 | 1486163629.80735 | pgbench_accounts_pkey |        224641024

 2017-02-04 00:13:50.885345+01 | 1486163630.88534 | pgbench_branches_pkey |            90112
 2017-02-04 00:13:50.885345+01 | 1486163630.88534 | pgbench_tellers_pkey  |           516096
 2017-02-04 00:13:50.885345+01 | 1486163630.88534 | pgbench_accounts_pkey |        224641024

 2017-02-04 00:13:51.964153+01 | 1486163631.96415 | pgbench_branches_pkey |            90112
 2017-02-04 00:13:51.964153+01 | 1486163631.96415 | pgbench_tellers_pkey  |           516096
 2017-02-04 00:13:51.964153+01 | 1486163631.96415 | pgbench_accounts_pkey |        224641024

 2017-02-04 00:13:53.04374+01 | 1486163633.04374 | pgbench_branches_pkey |            90112
 2017-02-04 00:13:53.04374+01 | 1486163633.04374 | pgbench_tellers_pkey  |           516096
 2017-02-04 00:13:53.04374+01 | 1486163633.04374 | pgbench_accounts_pkey |        224641024

 2017-02-04 00:13:54.124254+01 | 1486163634.12425 | pgbench_branches_pkey |            90112
 2017-02-04 00:13:54.124254+01 | 1486163634.12425 | pgbench_tellers_pkey  |           516096
 2017-02-04 00:13:54.124254+01 | 1486163634.12425 | pgbench_accounts_pkey |        224641024

 2017-02-04 00:13:55.201934+01 | 1486163635.20193 | pgbench_branches_pkey |            90112
 2017-02-04 00:13:55.201934+01 | 1486163635.20193 | pgbench_tellers_pkey  |           516096
 2017-02-04 00:13:55.201934+01 | 1486163635.20193 | pgbench_accounts_pkey |        224641024

 2017-02-04 00:13:56.283947+01 | 1486163636.28395 | pgbench_branches_pkey |            90112
 2017-02-04 00:13:56.283947+01 | 1486163636.28395 | pgbench_tellers_pkey  |           516096
 2017-02-04 00:13:56.283947+01 | 1486163636.28395 | pgbench_accounts_pkey |        224641024

 2017-02-04 00:13:57.379667+01 | 1486163637.37967 | pgbench_branches_pkey |            90112
 2017-02-04 00:13:57.379667+01 | 1486163637.37967 | pgbench_tellers_pkey  |           516096
 2017-02-04 00:13:57.379667+01 | 1486163637.37967 | pgbench_accounts_pkey |        224641024

 2017-02-04 00:13:58.467319+01 | 1486163638.46732 | pgbench_branches_pkey |            90112
 2017-02-04 00:13:58.467319+01 | 1486163638.46732 | pgbench_tellers_pkey  |           516096
 2017-02-04 00:13:58.467319+01 | 1486163638.46732 | pgbench_accounts_pkey |        224641024

 2017-02-04 00:13:59.55118+01 | 1486163639.55118 | pgbench_branches_pkey |            90112
 2017-02-04 00:13:59.55118+01 | 1486163639.55118 | pgbench_tellers_pkey  |           516096
 2017-02-04 00:13:59.55118+01 | 1486163639.55118 | pgbench_accounts_pkey |        224641024

 2017-02-04 00:14:00.618275+01 | 1486163640.61827 | pgbench_branches_pkey |            90112
 2017-02-04 00:14:00.618275+01 | 1486163640.61827 | pgbench_tellers_pkey  |           516096
 2017-02-04 00:14:00.618275+01 | 1486163640.61827 | pgbench_accounts_pkey |        224641024

 2017-02-04 00:14:01.701699+01 | 1486163641.7017 | pgbench_branches_pkey |            90112
 2017-02-04 00:14:01.701699+01 | 1486163641.7017 | pgbench_tellers_pkey  |           516096
 2017-02-04 00:14:01.701699+01 | 1486163641.7017 | pgbench_accounts_pkey |        224641024

 2017-02-04 00:14:02.777859+01 | 1486163642.77786 | pgbench_branches_pkey |            90112
 2017-02-04 00:14:02.777859+01 | 1486163642.77786 | pgbench_tellers_pkey  |           516096
 2017-02-04 00:14:02.777859+01 | 1486163642.77786 | pgbench_accounts_pkey |        224641024

 2017-02-04 00:14:03.867963+01 | 1486163643.86796 | pgbench_branches_pkey |            90112
 2017-02-04 00:14:03.867963+01 | 1486163643.86796 | pgbench_tellers_pkey  |           516096
 2017-02-04 00:14:03.867963+01 | 1486163643.86796 | pgbench_accounts_pkey |        224641024

 2017-02-04 00:14:04.96064+01 | 1486163644.96064 | pgbench_branches_pkey |            90112
 2017-02-04 00:14:04.96064+01 | 1486163644.96064 | pgbench_tellers_pkey  |           516096
 2017-02-04 00:14:04.96064+01 | 1486163644.96064 | pgbench_accounts_pkey |        224641024

 2017-02-04 00:14:06.041685+01 | 1486163646.04169 | pgbench_branches_pkey |            90112
 2017-02-04 00:14:06.041685+01 | 1486163646.04169 | pgbench_tellers_pkey  |           516096
 2017-02-04 00:14:06.041685+01 | 1486163646.04169 | pgbench_accounts_pkey |        224641024

 2017-02-04 00:14:07.127692+01 | 1486163647.12769 | pgbench_branches_pkey |            90112
 2017-02-04 00:14:07.127692+01 | 1486163647.12769 | pgbench_tellers_pkey  |           516096
 2017-02-04 00:14:07.127692+01 | 1486163647.12769 | pgbench_accounts_pkey |        224641024

 2017-02-04 00:14:08.209609+01 | 1486163648.20961 | pgbench_branches_pkey |            90112
 2017-02-04 00:14:08.209609+01 | 1486163648.20961 | pgbench_tellers_pkey  |           516096
 2017-02-04 00:14:08.209609+01 | 1486163648.20961 | pgbench_accounts_pkey |        224641024

 2017-02-04 00:14:09.294724+01 | 1486163649.29472 | pgbench_branches_pkey |            90112
 2017-02-04 00:14:09.294724+01 | 1486163649.29472 | pgbench_tellers_pkey  |           516096
 2017-02-04 00:14:09.294724+01 | 1486163649.29472 | pgbench_accounts_pkey |        224641024

 2017-02-04 00:14:10.373772+01 | 1486163650.37377 | pgbench_branches_pkey |            90112
 2017-02-04 00:14:10.373772+01 | 1486163650.37377 | pgbench_tellers_pkey  |           516096
 2017-02-04 00:14:10.373772+01 | 1486163650.37377 | pgbench_accounts_pkey |        224641024

 2017-02-04 00:14:11.461602+01 | 1486163651.4616 | pgbench_branches_pkey |            90112
 2017-02-04 00:14:11.461602+01 | 1486163651.4616 | pgbench_tellers_pkey  |           516096
 2017-02-04 00:14:11.461602+01 | 1486163651.4616 | pgbench_accounts_pkey |        224641024

 2017-02-04 00:14:12.540147+01 | 1486163652.54015 | pgbench_branches_pkey |            90112
 2017-02-04 00:14:12.540147+01 | 1486163652.54015 | pgbench_tellers_pkey  |           516096
 2017-02-04 00:14:12.540147+01 | 1486163652.54015 | pgbench_accounts_pkey |        224641024

 2017-02-04 00:14:13.628212+01 | 1486163653.62821 | pgbench_branches_pkey |            90112
 2017-02-04 00:14:13.628212+01 | 1486163653.62821 | pgbench_tellers_pkey  |           516096
 2017-02-04 00:14:13.628212+01 | 1486163653.62821 | pgbench_accounts_pkey |        224641024

 2017-02-04 00:14:14.707379+01 | 1486163654.70738 | pgbench_branches_pkey |            90112
 2017-02-04 00:14:14.707379+01 | 1486163654.70738 | pgbench_tellers_pkey  |           516096
 2017-02-04 00:14:14.707379+01 | 1486163654.70738 | pgbench_accounts_pkey |        224641024

 2017-02-04 00:14:15.789809+01 | 1486163655.78981 | pgbench_branches_pkey |            90112
 2017-02-04 00:14:15.789809+01 | 1486163655.78981 | pgbench_tellers_pkey  |           516096
 2017-02-04 00:14:15.789809+01 | 1486163655.78981 | pgbench_accounts_pkey |        224641024

 2017-02-04 00:14:16.878788+01 | 1486163656.87879 | pgbench_branches_pkey |            90112
 2017-02-04 00:14:16.878788+01 | 1486163656.87879 | pgbench_tellers_pkey  |           516096
 2017-02-04 00:14:16.878788+01 | 1486163656.87879 | pgbench_accounts_pkey |        224641024

 2017-02-04 00:14:17.965937+01 | 1486163657.96594 | pgbench_branches_pkey |            90112
 2017-02-04 00:14:17.965937+01 | 1486163657.96594 | pgbench_tellers_pkey  |           516096
 2017-02-04 00:14:17.965937+01 | 1486163657.96594 | pgbench_accounts_pkey |        224641024

 2017-02-04 00:14:19.045038+01 | 1486163659.04504 | pgbench_branches_pkey |            90112
 2017-02-04 00:14:19.045038+01 | 1486163659.04504 | pgbench_tellers_pkey  |           516096
 2017-02-04 00:14:19.045038+01 | 1486163659.04504 | pgbench_accounts_pkey |        224641024

 2017-02-04 00:14:20.12899+01 | 1486163660.12899 | pgbench_branches_pkey |            90112
 2017-02-04 00:14:20.12899+01 | 1486163660.12899 | pgbench_tellers_pkey  |           516096
 2017-02-04 00:14:20.12899+01 | 1486163660.12899 | pgbench_accounts_pkey |        224641024

 2017-02-04 00:14:21.213395+01 | 1486163661.2134 | pgbench_branches_pkey |            90112
 2017-02-04 00:14:21.213395+01 | 1486163661.2134 | pgbench_tellers_pkey  |           516096
 2017-02-04 00:14:21.213395+01 | 1486163661.2134 | pgbench_accounts_pkey |        224641024

 2017-02-04 00:14:22.299794+01 | 1486163662.29979 | pgbench_branches_pkey |            90112
 2017-02-04 00:14:22.299794+01 | 1486163662.29979 | pgbench_tellers_pkey  |           516096
 2017-02-04 00:14:22.299794+01 | 1486163662.29979 | pgbench_accounts_pkey |        224641024

 2017-02-04 00:14:23.386759+01 | 1486163663.38676 | pgbench_branches_pkey |            90112
 2017-02-04 00:14:23.386759+01 | 1486163663.38676 | pgbench_tellers_pkey  |           516096
 2017-02-04 00:14:23.386759+01 | 1486163663.38676 | pgbench_accounts_pkey |        224641024

 2017-02-04 00:14:24.47031+01 | 1486163664.47031 | pgbench_branches_pkey |            90112
 2017-02-04 00:14:24.47031+01 | 1486163664.47031 | pgbench_tellers_pkey  |           516096
 2017-02-04 00:14:24.47031+01 | 1486163664.47031 | pgbench_accounts_pkey |        224641024

 2017-02-04 00:14:25.549366+01 | 1486163665.54937 | pgbench_branches_pkey |            90112
 2017-02-04 00:14:25.549366+01 | 1486163665.54937 | pgbench_tellers_pkey  |           516096
 2017-02-04 00:14:25.549366+01 | 1486163665.54937 | pgbench_accounts_pkey |        224641024

 2017-02-04 00:14:26.62967+01 | 1486163666.62967 | pgbench_branches_pkey |            90112
 2017-02-04 00:14:26.62967+01 | 1486163666.62967 | pgbench_tellers_pkey  |           516096
 2017-02-04 00:14:26.62967+01 | 1486163666.62967 | pgbench_accounts_pkey |        224641024

 2017-02-04 00:14:27.715302+01 | 1486163667.7153 | pgbench_branches_pkey |            90112
 2017-02-04 00:14:27.715302+01 | 1486163667.7153 | pgbench_tellers_pkey  |           516096
 2017-02-04 00:14:27.715302+01 | 1486163667.7153 | pgbench_accounts_pkey |        224641024

 2017-02-04 00:14:28.806695+01 | 1486163668.80669 | pgbench_branches_pkey |            90112
 2017-02-04 00:14:28.806695+01 | 1486163668.80669 | pgbench_tellers_pkey  |           516096
 2017-02-04 00:14:28.806695+01 | 1486163668.80669 | pgbench_accounts_pkey |        224641024

 2017-02-04 00:14:29.883491+01 | 1486163669.88349 | pgbench_branches_pkey |            90112
 2017-02-04 00:14:29.883491+01 | 1486163669.88349 | pgbench_tellers_pkey  |           516096
 2017-02-04 00:14:29.883491+01 | 1486163669.88349 | pgbench_accounts_pkey |        224641024

 2017-02-04 00:14:30.964475+01 | 1486163670.96447 | pgbench_branches_pkey |            90112
 2017-02-04 00:14:30.964475+01 | 1486163670.96447 | pgbench_tellers_pkey  |           516096
 2017-02-04 00:14:30.964475+01 | 1486163670.96447 | pgbench_accounts_pkey |        224641024

 2017-02-04 00:14:32.050563+01 | 1486163672.05056 | pgbench_branches_pkey |            90112
 2017-02-04 00:14:32.050563+01 | 1486163672.05056 | pgbench_tellers_pkey  |           516096
 2017-02-04 00:14:32.050563+01 | 1486163672.05056 | pgbench_accounts_pkey |        224641024

