 2017-02-04 05:51:43.827395+01 | 1486183903.82739 | 26/C2921D78              |          166473112952

 2017-02-04 05:51:44.929786+01 | 1486183904.92979 | 26/CDF05918              |          166663837976

 2017-02-04 05:51:46.020093+01 | 1486183906.02009 | 26/D9C37080              |          166862221440

 2017-02-04 05:51:47.115435+01 | 1486183907.11543 | 26/E4602000              |          167040262144

 2017-02-04 05:51:48.20832+01 | 1486183908.20832 | 26/EF98A000              |          167228514304

 2017-02-04 05:51:49.28901+01 | 1486183909.28901 | 26/F8E81A18              |          167384717848

 2017-02-04 05:51:50.381973+01 | 1486183910.38197 | 27/128D430               |          167523177520

 2017-02-04 05:51:51.48602+01 | 1486183911.48602 | 27/83E5358               |          167642026840

 2017-02-04 05:51:52.586823+01 | 1486183912.58682 | 27/E7A7750               |          167746631504

 2017-02-04 05:51:53.683049+01 | 1486183913.68305 | 27/13714328              |          167829914408

 2017-02-04 05:51:54.772871+01 | 1486183914.77287 | 27/179441C0              |          167899316672

 2017-02-04 05:51:55.854535+01 | 1486183915.85454 | 27/1B0ACC70              |          167957417072

 2017-02-04 05:51:56.945285+01 | 1486183916.94529 | 27/1E143988              |          168008366472

 2017-02-04 05:51:58.036418+01 | 1486183918.03642 | 27/20A80280              |          168051606144

 2017-02-04 05:51:59.123379+01 | 1486183919.12338 | 27/231457E0              |          168092260320

 2017-02-04 05:52:00.216082+01 | 1486183920.21608 | 27/252229D0              |          168126720464

 2017-02-04 05:52:01.310971+01 | 1486183921.31097 | 27/27488420              |          168162788384

 2017-02-04 05:52:02.405527+01 | 1486183922.40553 | 27/29409730              |          168195823408

 2017-02-04 05:52:03.498612+01 | 1486183923.49861 | 27/2B0662C0              |          168225563328

 2017-02-04 05:52:04.597792+01 | 1486183924.59779 | 27/2CC01040              |          168254509120

 2017-02-04 05:52:05.682709+01 | 1486183925.68271 | 27/2E48B948              |          168280242504

 2017-02-04 05:52:06.76745+01 | 1486183926.76745 | 27/2FBC39E0              |          168304589280

 2017-02-04 05:52:07.84665+01 | 1486183927.84665 | 27/312DD690              |          168328812176

 2017-02-04 05:52:08.936145+01 | 1486183928.93615 | 27/32A9DAE0              |          168353716960

 2017-02-04 05:52:10.019451+01 | 1486183930.01945 | 27/34364600              |          168379696640

 2017-02-04 05:52:11.106432+01 | 1486183931.10643 | 27/36825BF8              |          168418237432

 2017-02-04 05:52:12.199308+01 | 1486183932.19931 | 27/38BFA900              |          168455809280

 2017-02-04 05:52:13.287861+01 | 1486183933.28786 | 27/3AAFDB60              |          168488328032

 2017-02-04 05:52:14.389398+01 | 1486183934.3894 | 27/3CA68188              |          168521269640

 2017-02-04 05:52:15.478224+01 | 1486183935.47822 | 27/3ED6AC40              |          168557980736

 2017-02-04 05:52:16.568987+01 | 1486183936.56899 | 27/402DE880              |          168580475008

 2017-02-04 05:52:17.667115+01 | 1486183937.66711 | 27/417AF4E8              |          168602301672

 2017-02-04 05:52:18.754418+01 | 1486183938.75442 | 27/42B9DD30              |          168623201584

 2017-02-04 05:52:19.827253+01 | 1486183939.82725 | 27/43F6BBC8              |          168643967944

 2017-02-04 05:52:20.915582+01 | 1486183940.91558 | 27/452A4790              |          168664123280

 2017-02-04 05:52:22.012392+01 | 1486183942.01239 | 27/46609468              |          168684459112

 2017-02-04 05:52:23.105372+01 | 1486183943.10537 | 27/4795AFE8              |          168704716776

 2017-02-04 05:52:24.192724+01 | 1486183944.19272 | 27/48D0FD50              |          168725380432

 2017-02-04 05:52:25.279722+01 | 1486183945.27972 | 27/4A066AE0              |          168745659104

 2017-02-04 05:52:26.36749+01 | 1486183946.36749 | 27/4B301E10              |          168765169168

 2017-02-04 05:52:27.460896+01 | 1486183947.4609 | 27/4C636700              |          168785307392

 2017-02-04 05:52:28.548382+01 | 1486183948.54838 | 27/4D98B950              |          168805579088

 2017-02-04 05:52:29.636359+01 | 1486183949.63636 | 27/4ECCDF48              |          168825773896

 2017-02-04 05:52:30.722714+01 | 1486183950.72271 | 27/500B3988              |          168846637448

 2017-02-04 05:52:31.809325+01 | 1486183951.80932 | 27/5135B880              |          168866199680

 2017-02-04 05:52:32.900128+01 | 1486183952.90013 | 27/526819D0              |          168886278608

 2017-02-04 05:52:33.982164+01 | 1486183953.98216 | 27/539C7F98              |          168906489752

 2017-02-04 05:52:35.070052+01 | 1486183955.07005 | 27/54D30FD8              |          168926842840

 2017-02-04 05:52:36.16547+01 | 1486183956.16547 | 27/56075EA0              |          168947048096

 2017-02-04 05:52:37.261446+01 | 1486183957.26145 | 27/57357B78              |          168966847352

 2017-02-04 05:52:38.34878+01 | 1486183958.34878 | 27/585BFE18              |          168986148376

 2017-02-04 05:52:39.432028+01 | 1486183959.43203 | 27/59773260              |          169004708448

 2017-02-04 05:52:40.524344+01 | 1486183960.52434 | 27/5AA8C408              |          169024734216

 2017-02-04 05:52:41.62115+01 | 1486183961.62115 | 27/5BD8D538              |          169044661560

 2017-02-04 05:52:42.714493+01 | 1486183962.71449 | 27/5CF34100              |          169063170304

 2017-02-04 05:52:43.805106+01 | 1486183963.80511 | 27/5E187810              |          169082386448

 2017-02-04 05:52:44.889271+01 | 1486183964.88927 | 27/5F3D9668              |          169101596264

 2017-02-04 05:52:45.975237+01 | 1486183965.97524 | 27/60687B20              |          169121184544

 2017-02-04 05:52:47.066681+01 | 1486183967.06668 | 27/618CC520              |          169140340000

 2017-02-04 05:52:48.165596+01 | 1486183968.1656 | 27/62B5F380              |          169159816064

 2017-02-04 05:52:49.266315+01 | 1486183969.26631 | 27/63D5A668              |          169178670696

 2017-02-04 05:52:50.360213+01 | 1486183970.36021 | 27/64FE8F08              |          169198128904

 2017-02-04 05:52:51.453121+01 | 1486183971.45312 | 27/6634ACF0              |          169218452720

 2017-02-04 05:52:52.53931+01 | 1486183972.53931 | 27/675F8370              |          169238037360

 2017-02-04 05:52:53.627682+01 | 1486183973.62768 | 27/687CDD00              |          169256738048

 2017-02-04 05:52:54.721019+01 | 1486183974.72102 | 27/69AAEBB0              |          169276533680

 2017-02-04 05:52:55.815915+01 | 1486183975.81592 | 27/6ADBBED0              |          169296510672

 2017-02-04 05:52:56.902132+01 | 1486183976.90213 | 27/6BFF9138              |          169315635512

 2017-02-04 05:52:57.985179+01 | 1486183977.98518 | 27/6D27FF78              |          169335062392

 2017-02-04 05:52:59.066478+01 | 1486183979.06648 | 27/6E496730              |          169354028848

 2017-02-04 05:53:00.168849+01 | 1486183980.16885 | 27/6F749570              |          169373635952

 2017-02-04 05:53:01.255354+01 | 1486183981.25535 | 27/70A5B650              |          169393632848

 2017-02-04 05:53:02.347282+01 | 1486183982.34728 | 27/71D773F8              |          169413669880

 2017-02-04 05:53:03.428976+01 | 1486183983.42898 | 27/73075408              |          169433584648

 2017-02-04 05:53:04.518306+01 | 1486183984.51831 | 27/7438DA08              |          169453607432

 2017-02-04 05:53:05.614765+01 | 1486183985.61476 | 27/756FF7D0              |          169473996752

 2017-02-04 05:53:06.70064+01 | 1486183986.70064 | 27/76BD7ED0              |          169495854800

 2017-02-04 05:53:07.792217+01 | 1486183987.79222 | 27/77F85058              |          169516486744

 2017-02-04 05:53:08.874602+01 | 1486183988.8746 | 27/7938FA88              |          169537501832

 2017-02-04 05:53:09.959563+01 | 1486183989.95956 | 27/7A6D7218              |          169557717528

 2017-02-04 05:53:11.041215+01 | 1486183991.04121 | 27/7B963180              |          169577165184

 2017-02-04 05:53:12.131521+01 | 1486183992.13152 | 27/7CC31880              |          169596885120

 2017-02-04 05:53:13.221047+01 | 1486183993.22105 | 27/7DF01490              |          169616610448

 2017-02-04 05:53:14.31213+01 | 1486183994.31213 | 27/7F1DD368              |          169636385640

 2017-02-04 05:53:15.40979+01 | 1486183995.40979 | 27/80562CF8              |          169656855800

 2017-02-04 05:53:16.498904+01 | 1486183996.4989 | 27/817E2828              |          169676253224

 2017-02-04 05:53:17.587753+01 | 1486183997.58775 | 27/82C28500              |          169697510656

 2017-02-04 05:53:18.673314+01 | 1486183998.67331 | 27/8407EB18              |          169718835992

 2017-02-04 05:53:19.764956+01 | 1486183999.76496 | 27/8533D620              |          169738491424

 2017-02-04 05:53:20.855105+01 | 1486184000.8551 | 27/8667D088              |          169758675080

 2017-02-04 05:53:21.933937+01 | 1486184001.93394 | 27/878E2558              |          169777964376

 2017-02-04 05:53:23.020978+01 | 1486184003.02098 | 27/88C0A160              |          169798050144

 2017-02-04 05:53:24.110648+01 | 1486184004.11065 | 27/89EC9E70              |          169817710192

 2017-02-04 05:53:25.202822+01 | 1486184005.20282 | 27/8B28D708              |          169838434056

 2017-02-04 05:53:26.302745+01 | 1486184006.30275 | 27/8C635DE0              |          169859046880

 2017-02-04 05:53:27.397892+01 | 1486184007.39789 | 27/8D8EBCE8              |          169878666472

 2017-02-04 05:53:28.485357+01 | 1486184008.48536 | 27/8EB64380              |          169898034048

 2017-02-04 05:53:29.570982+01 | 1486184009.57098 | 27/8FECDFB0              |          169918390192

 2017-02-04 05:53:30.660572+01 | 1486184010.66057 | 27/91234D10              |          169938734352

 2017-02-04 05:53:31.751927+01 | 1486184011.75193 | 27/924E6720              |          169958336288

 2017-02-04 05:53:32.839117+01 | 1486184012.83912 | 27/93880A20              |          169978890784

 2017-02-04 05:53:33.920572+01 | 1486184013.92057 | 27/94B584F0              |          169998648560

 2017-02-04 05:53:35.011025+01 | 1486184015.01102 | 27/95E708E0              |          170018670816

 2017-02-04 05:53:36.100478+01 | 1486184016.10048 | 27/97139F38              |          170038370104

 2017-02-04 05:53:37.195318+01 | 1486184017.19532 | 27/983C6940              |          170057820480

 2017-02-04 05:53:38.284978+01 | 1486184018.28498 | 27/9971DFF0              |          170078101488

 2017-02-04 05:53:39.382578+01 | 1486184019.38258 | 27/9AA3C560              |          170098148704

 2017-02-04 05:53:40.477213+01 | 1486184020.47721 | 27/9BD9F228              |          170118476328

 2017-02-04 05:53:41.572628+01 | 1486184021.57263 | 27/9D0A7050              |          170138431568

 2017-02-04 05:53:42.658003+01 | 1486184022.658 | 27/9E34BF70              |          170157981552

 2017-02-04 05:53:43.740607+01 | 1486184023.74061 | 27/9F5B0870              |          170177267824

 2017-02-04 05:53:44.830007+01 | 1486184024.83001 | 27/A087BD68              |          170196974952

 2017-02-04 05:53:45.906358+01 | 1486184025.90636 | 27/A1B92C80              |          170216991872

 2017-02-04 05:53:46.983488+01 | 1486184026.98349 | 27/A2E3CEF8              |          170236563192

 2017-02-04 05:53:48.066396+01 | 1486184028.0664 | 27/A41A5C90              |          170256915600

 2017-02-04 05:53:49.148274+01 | 1486184029.14827 | 27/A546D9C0              |          170276608448

 2017-02-04 05:53:50.244341+01 | 1486184030.24434 | 27/A66660F8              |          170295451896

 2017-02-04 05:53:51.32709+01 | 1486184031.32709 | 27/A78CEF90              |          170314755984

 2017-02-04 05:53:52.420936+01 | 1486184032.42094 | 27/A8B152E8              |          170333917928

 2017-02-04 05:53:53.508201+01 | 1486184033.5082 | 27/A9DBDF08              |          170353483528

 2017-02-04 05:53:54.595634+01 | 1486184034.59563 | 27/AB0C3E30              |          170373430832

 2017-02-04 05:53:55.687318+01 | 1486184035.68732 | 27/AC31F6C0              |          170392680128

 2017-02-04 05:53:56.772795+01 | 1486184036.77279 | 27/AD684DC8              |          170413018568

 2017-02-04 05:53:57.861058+01 | 1486184037.86106 | 27/AE99AE90              |          170433031824

 2017-02-04 05:53:58.944+01 | 1486184038.944 | 27/AFC6D228              |          170452767272

 2017-02-04 05:54:00.021472+01 | 1486184040.02147 | 27/B0FFBC88              |          170473274504

 2017-02-04 05:54:01.105134+01 | 1486184041.10513 | 27/B23B3CB0              |          170493951152

 2017-02-04 05:54:02.206083+01 | 1486184042.20608 | 27/B37EDC90              |          170515160208

 2017-02-04 05:54:03.299824+01 | 1486184043.29982 | 27/B4BE2020              |          170536083488

 2017-02-04 05:54:04.398108+01 | 1486184044.39811 | 27/B5EDF738              |          170555995960

 2017-02-04 05:54:05.496297+01 | 1486184045.4963 | 27/B71F6CE0              |          170576014560

 2017-02-04 05:54:06.59201+01 | 1486184046.59201 | 27/B84E35E0              |          170595857888

 2017-02-04 05:54:07.689279+01 | 1486184047.68928 | 27/B974B020              |          170615156768

 2017-02-04 05:54:08.777707+01 | 1486184048.77771 | 27/BAA15300              |          170634859264

 2017-02-04 05:54:09.868227+01 | 1486184049.86823 | 27/BBCFD380              |          170654684032

 2017-02-04 05:54:10.951786+01 | 1486184050.95179 | 27/BCFF3840              |          170674567232

 2017-02-04 05:54:12.035502+01 | 1486184052.0355 | 27/BE2A9CA8              |          170694188200

 2017-02-04 05:54:13.120754+01 | 1486184053.12075 | 27/BF6B58C0              |          170715207872

 2017-02-04 05:54:14.215489+01 | 1486184054.21549 | 27/C0B22FF0              |          170736627696

 2017-02-04 05:54:15.304651+01 | 1486184055.30465 | 27/C1E188A0              |          170756507808

 2017-02-04 05:54:16.39289+01 | 1486184056.39289 | 27/C3154968              |          170776676712

 2017-02-04 05:54:17.491183+01 | 1486184057.49118 | 27/C44722B8              |          170796720824

 2017-02-04 05:54:18.587887+01 | 1486184058.58789 | 27/C56BFD10              |          170815913232

 2017-02-04 05:54:19.679047+01 | 1486184059.67905 | 27/C68E7A18              |          170834950680

 2017-02-04 05:54:20.767918+01 | 1486184060.76792 | 27/C7A6DE18              |          170853326360

 2017-02-04 05:54:21.859941+01 | 1486184061.85994 | 27/C8CFDAE8              |          170872789736

 2017-02-04 05:54:22.944692+01 | 1486184062.94469 | 27/C9F92C08              |          170892274696

 2017-02-04 05:54:24.034046+01 | 1486184064.03405 | 27/CB1E63E8              |          170911491048

 2017-02-04 05:54:25.118087+01 | 1486184065.11809 | 27/CC40A3E8              |          170930512872

 2017-02-04 05:54:26.204276+01 | 1486184066.20428 | 27/CD5CBBF0              |          170949131248

 2017-02-04 05:54:27.298647+01 | 1486184067.29865 | 27/CE800498              |          170968220824

 2017-02-04 05:54:28.385224+01 | 1486184068.38522 | 27/CFA467C0              |          170987382720

 2017-02-04 05:54:29.478173+01 | 1486184069.47817 | 27/D0C1FED8              |          171006099160

 2017-02-04 05:54:30.574387+01 | 1486184070.57439 | 27/D1EE0978              |          171025762680

 2017-02-04 05:54:31.672674+01 | 1486184071.67267 | 27/D3202898              |          171045824664

 2017-02-04 05:54:32.766989+01 | 1486184072.76699 | 27/D447A890              |          171065190544

 2017-02-04 05:54:33.855167+01 | 1486184073.85517 | 27/D56EC0F0              |          171084529904

 2017-02-04 05:54:34.93248+01 | 1486184074.93248 | 27/D6909160              |          171103523168

 2017-02-04 05:54:36.014205+01 | 1486184076.0142 | 27/D7A1F9C8              |          171121441224

 2017-02-04 05:54:37.093452+01 | 1486184077.09345 | 27/D8B8FC20              |          171139726368

 2017-02-04 05:54:38.175659+01 | 1486184078.17566 | 27/D9DE9A58              |          171158968920

 2017-02-04 05:54:39.270694+01 | 1486184079.27069 | 27/DAF89090              |          171177447568

 2017-02-04 05:54:40.357641+01 | 1486184080.35764 | 27/DC20DBD0              |          171196865488

 2017-02-04 05:54:41.45352+01 | 1486184081.45352 | 27/DD3BC2E0              |          171215405792

 2017-02-04 05:54:42.548876+01 | 1486184082.54888 | 27/DE5BDFC8              |          171234287560

 2017-02-04 05:54:43.641127+01 | 1486184083.64113 | 27/DF803B08              |          171253447432

 2017-02-04 05:54:44.737022+01 | 1486184084.73702 | 27/E09A2AC0              |          171271924416

 2017-02-04 05:54:45.827276+01 | 1486184085.82728 | 27/E1BFE4D0              |          171291174096

 2017-02-04 05:54:46.913446+01 | 1486184086.91345 | 27/E2DF6C10              |          171310017552

 2017-02-04 05:54:48.000754+01 | 1486184088.00075 | 27/E3FDBE18              |          171328781848

 2017-02-04 05:54:49.086187+01 | 1486184089.08619 | 27/E5212C50              |          171347881040

 2017-02-04 05:54:50.161625+01 | 1486184090.16162 | 27/E63EF550              |          171366610256

 2017-02-04 05:54:51.246075+01 | 1486184091.24607 | 27/E76C7670              |          171386369648

 2017-02-04 05:54:52.350662+01 | 1486184092.35066 | 27/E87CADA8              |          171404209576

 2017-02-04 05:54:53.439649+01 | 1486184093.43965 | 27/E9A10378              |          171423368056

 2017-02-04 05:54:54.529395+01 | 1486184094.5294 | 27/EABC1B10              |          171441920784

 2017-02-04 05:54:55.615502+01 | 1486184095.6155 | 27/EBD522C8              |          171460338376

 2017-02-04 05:54:56.702547+01 | 1486184096.70255 | 27/ECF94C48              |          171479485512

 2017-02-04 05:54:57.792926+01 | 1486184097.79293 | 27/EE108A38              |          171497785912

 2017-02-04 05:54:58.884447+01 | 1486184098.88445 | 27/EF309910              |          171516664080

 2017-02-04 05:54:59.968156+01 | 1486184099.96816 | 27/F04E8758              |          171535402840

 2017-02-04 05:55:01.049992+01 | 1486184101.04999 | 27/F173C530              |          171554620720

 2017-02-04 05:55:02.128265+01 | 1486184102.12826 | 27/F2975EA8              |          171573730984

 2017-02-04 05:55:03.210216+01 | 1486184103.21022 | 27/F3C39898              |          171593406616

 2017-02-04 05:55:04.301945+01 | 1486184104.30194 | 27/F4DF7B30              |          171612011312

 2017-02-04 05:55:05.386902+01 | 1486184105.3869 | 27/F60A9300              |          171631612672

 2017-02-04 05:55:06.470328+01 | 1486184106.47033 | 27/F740A638              |          171651933752

 2017-02-04 05:55:07.569069+01 | 1486184107.56907 | 27/F880B9E0              |          171672910304

 2017-02-04 05:55:08.658617+01 | 1486184108.65862 | 27/F9BB7AF0              |          171693538032

 2017-02-04 05:55:09.754837+01 | 1486184109.75484 | 27/FAF1A250              |          171713864272

 2017-02-04 05:55:10.849335+01 | 1486184110.84933 | 27/FC23F7B0              |          171733940144

 2017-02-04 05:55:11.937777+01 | 1486184111.93778 | 27/FD455E50              |          171752906320

 2017-02-04 05:55:13.023496+01 | 1486184113.0235 | 27/FE747E48              |          171772771912

 2017-02-04 05:55:14.10855+01 | 1486184114.10855 | 27/FFA04C40              |          171792419904

 2017-02-04 05:55:15.195597+01 | 1486184115.1956 | 28/CB10A0                |          171811999904

 2017-02-04 05:55:16.281631+01 | 1486184116.28163 | 28/1F67E28               |          171831623208

 2017-02-04 05:55:17.370916+01 | 1486184117.37092 | 28/32950E0               |          171851731168

 2017-02-04 05:55:18.461699+01 | 1486184118.4617 | 28/4656BD0               |          171872447440

 2017-02-04 05:55:19.55239+01 | 1486184119.55239 | 28/5A58C50               |          171893427280

 2017-02-04 05:55:20.643363+01 | 1486184120.64336 | 28/6DD2410               |          171913847824

 2017-02-04 05:55:21.727974+01 | 1486184121.72797 | 28/7FC91E0               |          171932684768

 2017-02-04 05:55:22.824287+01 | 1486184122.82429 | 28/91C8650               |          171951556176

 2017-02-04 05:55:23.911948+01 | 1486184123.91195 | 28/A46C4D0               |          171971101904

 2017-02-04 05:55:24.988494+01 | 1486184124.98849 | 28/B7CEA70               |          171991427696

 2017-02-04 05:55:26.071437+01 | 1486184126.07144 | 28/C9FAB20               |          172010482464

 2017-02-04 05:55:27.150571+01 | 1486184127.15057 | 28/DCE9620               |          172030334496

 2017-02-04 05:55:28.235371+01 | 1486184128.23537 | 28/F00E3C0               |          172050408384

 2017-02-04 05:55:29.320626+01 | 1486184129.32063 | 28/102AB6D8              |          172069926616

 2017-02-04 05:55:30.412534+01 | 1486184130.41253 | 28/115248A0              |          172089297056

 2017-02-04 05:55:31.498729+01 | 1486184131.49873 | 28/12776E00              |          172108508672

 2017-02-04 05:55:32.591343+01 | 1486184132.59134 | 28/13B58670              |          172129355376

 2017-02-04 05:55:33.676787+01 | 1486184133.67679 | 28/14EA1B58              |          172149578584

 2017-02-04 05:55:34.766785+01 | 1486184134.76678 | 28/161AEE98              |          172169555608

 2017-02-04 05:55:35.857724+01 | 1486184135.85772 | 28/174D58C0              |          172189636800

 2017-02-04 05:55:36.948837+01 | 1486184136.94884 | 28/187455E0              |          172208969184

 2017-02-04 05:55:38.027387+01 | 1486184138.02739 | 28/19A029A0              |          172228618656

 2017-02-04 05:55:39.106982+01 | 1486184139.10698 | 28/1ACE3808              |          172248414216

 2017-02-04 05:55:40.192411+01 | 1486184140.19241 | 28/1C01A970              |          172268562800

 2017-02-04 05:55:41.268503+01 | 1486184141.2685 | 28/1D2770F8              |          172287815928

 2017-02-04 05:55:42.359129+01 | 1486184142.35913 | 28/1E541A68              |          172307520104

 2017-02-04 05:55:43.446645+01 | 1486184143.44665 | 28/1F7F11B8              |          172327113144

 2017-02-04 05:55:44.536693+01 | 1486184144.53669 | 28/20BE9378              |          172348052344

 2017-02-04 05:55:45.623532+01 | 1486184145.62353 | 28/21F53780              |          172368410496

 2017-02-04 05:55:46.71795+01 | 1486184146.71795 | 28/232219B0              |          172388129200

 2017-02-04 05:55:47.807003+01 | 1486184147.807 | 28/244854F8              |          172407411960

 2017-02-04 05:55:48.895384+01 | 1486184148.89538 | 28/256CE428              |          172426585128

 2017-02-04 05:55:49.980143+01 | 1486184149.98014 | 28/269C4770              |          172446467952

 2017-02-04 05:55:51.060208+01 | 1486184151.06021 | 28/27BFB550              |          172465567056

 2017-02-04 05:55:52.143494+01 | 1486184152.14349 | 28/28E74218              |          172484936216

 2017-02-04 05:55:53.229876+01 | 1486184153.22988 | 28/29F27D38              |          172502449464

 2017-02-04 05:55:54.314642+01 | 1486184154.31464 | 28/2B1AB128              |          172521861416

 2017-02-04 05:55:55.40176+01 | 1486184155.40176 | 28/2C412A38              |          172541159992

 2017-02-04 05:55:56.491757+01 | 1486184156.49176 | 28/2D6ABF58              |          172560662360

 2017-02-04 05:55:57.57892+01 | 1486184157.57892 | 28/2E993F70              |          172580487024

 2017-02-04 05:55:58.671777+01 | 1486184158.67178 | 28/2FC870C8              |          172600357064

 2017-02-04 05:55:59.761762+01 | 1486184159.76176 | 28/30F693D0              |          172620157904

 2017-02-04 05:56:00.849726+01 | 1486184160.84973 | 28/32288D00              |          172640210176

 2017-02-04 05:56:01.931184+01 | 1486184161.93118 | 28/33522430              |          172659713072

 2017-02-04 05:56:03.017161+01 | 1486184163.01716 | 28/347D19B8              |          172679305656

 2017-02-04 05:56:04.096462+01 | 1486184164.09646 | 28/35A35FB8              |          172698591160

 2017-02-04 05:56:05.175464+01 | 1486184165.17546 | 28/36CFDB40              |          172718283584

 2017-02-04 05:56:06.259402+01 | 1486184166.2594 | 28/3810AB88              |          172739308424

 2017-02-04 05:56:07.342181+01 | 1486184167.34218 | 28/3946ABB0              |          172759624624

 2017-02-04 05:56:08.42721+01 | 1486184168.42721 | 28/3A7BE370              |          172779889520

 2017-02-04 05:56:09.526029+01 | 1486184169.52603 | 28/3BAF4350              |          172800033616

 2017-02-04 05:56:10.608052+01 | 1486184170.60805 | 28/3CDF79E0              |          172819970528

 2017-02-04 05:56:11.706163+01 | 1486184171.70616 | 28/3E0D70A8              |          172839760040

 2017-02-04 05:56:12.80388+01 | 1486184172.80388 | 28/3F376540              |          172859286848

 2017-02-04 05:56:13.898905+01 | 1486184173.89891 | 28/40657848              |          172879083592

 2017-02-04 05:56:14.9808+01 | 1486184174.9808 | 28/41970270              |          172899107440

 2017-02-04 05:56:16.064471+01 | 1486184176.06447 | 28/42C15840              |          172918659136

 2017-02-04 05:56:17.145945+01 | 1486184177.14595 | 28/43F20898              |          172938627224

 2017-02-04 05:56:18.224636+01 | 1486184178.22464 | 28/4530C570              |          172959516016

 2017-02-04 05:56:19.304521+01 | 1486184179.30452 | 28/46720E40              |          172980571712

 2017-02-04 05:56:20.395898+01 | 1486184180.3959 | 28/47AC6368              |          173001171816

 2017-02-04 05:56:21.471929+01 | 1486184181.47193 | 28/48C4ACD8              |          173019540696

 2017-02-04 05:56:22.56962+01 | 1486184182.56962 | 28/49FA8CD0              |          173039848656

 2017-02-04 05:56:23.667063+01 | 1486184183.66706 | 28/4B2B1D38              |          173059808568

 2017-02-04 05:56:24.753438+01 | 1486184184.75344 | 28/4C562F48              |          173079408456

 2017-02-04 05:56:25.842955+01 | 1486184185.84296 | 28/4D9442F8              |          173100253944

 2017-02-04 05:56:26.938299+01 | 1486184186.9383 | 28/4EC7AD90              |          173120400784

 2017-02-04 05:56:28.024458+01 | 1486184188.02446 | 28/4FF603D8              |          173140214744

 2017-02-04 05:56:29.107601+01 | 1486184189.1076 | 28/51088C40              |          173158206528

 2017-02-04 05:56:30.183685+01 | 1486184190.18369 | 28/5237C668              |          173178078824

 2017-02-04 05:56:31.264295+01 | 1486184191.2643 | 28/536880F8              |          173198049528

 2017-02-04 05:56:32.347831+01 | 1486184192.34783 | 28/54973798              |          173217890304

 2017-02-04 05:56:33.42806+01 | 1486184193.42806 | 28/55B46F20              |          173236580128

 2017-02-04 05:56:34.512353+01 | 1486184194.51235 | 28/56E18360              |          173256311648

 2017-02-04 05:56:35.596+01 | 1486184195.596 | 28/58155770              |          173276485488

 2017-02-04 05:56:36.68988+01 | 1486184196.68988 | 28/5947F658              |          173296580184

 2017-02-04 05:56:37.774761+01 | 1486184197.77476 | 28/5A7AFA78              |          173316700792

 2017-02-04 05:56:38.867285+01 | 1486184198.86729 | 28/5BA50F50              |          173336235856

 2017-02-04 05:56:39.952922+01 | 1486184199.95292 | 28/5CD3A910              |          173356067088

 2017-02-04 05:56:41.040463+01 | 1486184201.04046 | 28/5E03E4D8              |          173376005336

 2017-02-04 05:56:42.122534+01 | 1486184202.12253 | 28/5F30A168              |          173395714408

 2017-02-04 05:56:43.207103+01 | 1486184203.2071 | 28/605746D0              |          173415024336

