 2017-02-06 10:58:18.657111+01 | 1486375098.65711 | pgbench_accounts |       1390772224
 2017-02-06 10:58:18.657111+01 | 1486375098.65711 | pgbench_tellers  |          2170880
 2017-02-06 10:58:18.657111+01 | 1486375098.65711 | pgbench_history  |           188416
 2017-02-06 10:58:18.657111+01 | 1486375098.65711 | pgbench_branches |          1507328

 2017-02-06 10:58:19.742649+01 | 1486375099.74265 | pgbench_accounts |       1390772224
 2017-02-06 10:58:19.742649+01 | 1486375099.74265 | pgbench_tellers  |          2170880
 2017-02-06 10:58:19.742649+01 | 1486375099.74265 | pgbench_history  |          1122304
 2017-02-06 10:58:19.742649+01 | 1486375099.74265 | pgbench_branches |          1507328

 2017-02-06 10:58:20.824107+01 | 1486375100.82411 | pgbench_accounts |       1390772224
 2017-02-06 10:58:20.824107+01 | 1486375100.82411 | pgbench_tellers  |          2170880
 2017-02-06 10:58:20.824107+01 | 1486375100.82411 | pgbench_history  |          1703936
 2017-02-06 10:58:20.824107+01 | 1486375100.82411 | pgbench_branches |          1507328

 2017-02-06 10:58:21.899115+01 | 1486375101.89912 | pgbench_accounts |       1390772224
 2017-02-06 10:58:21.899115+01 | 1486375101.89912 | pgbench_tellers  |          2170880
 2017-02-06 10:58:21.899115+01 | 1486375101.89912 | pgbench_history  |          2465792
 2017-02-06 10:58:21.899115+01 | 1486375101.89912 | pgbench_branches |          1507328

 2017-02-06 10:58:22.977618+01 | 1486375102.97762 | pgbench_accounts |       1390772224
 2017-02-06 10:58:22.977618+01 | 1486375102.97762 | pgbench_tellers  |          2170880
 2017-02-06 10:58:22.977618+01 | 1486375102.97762 | pgbench_history  |          3227648
 2017-02-06 10:58:22.977618+01 | 1486375102.97762 | pgbench_branches |          1507328

 2017-02-06 10:58:24.053465+01 | 1486375104.05346 | pgbench_accounts |       1390772224
 2017-02-06 10:58:24.053465+01 | 1486375104.05346 | pgbench_tellers  |          2170880
 2017-02-06 10:58:24.053465+01 | 1486375104.05346 | pgbench_history  |          4079616
 2017-02-06 10:58:24.053465+01 | 1486375104.05346 | pgbench_branches |          1507328

 2017-02-06 10:58:25.127371+01 | 1486375105.12737 | pgbench_accounts |       1390772224
 2017-02-06 10:58:25.127371+01 | 1486375105.12737 | pgbench_tellers  |          2170880
 2017-02-06 10:58:25.127371+01 | 1486375105.12737 | pgbench_history  |          5382144
 2017-02-06 10:58:25.127371+01 | 1486375105.12737 | pgbench_branches |          1507328

 2017-02-06 10:58:26.206277+01 | 1486375106.20628 | pgbench_accounts |       1390772224
 2017-02-06 10:58:26.206277+01 | 1486375106.20628 | pgbench_tellers  |          2170880
 2017-02-06 10:58:26.206277+01 | 1486375106.20628 | pgbench_history  |          5963776
 2017-02-06 10:58:26.206277+01 | 1486375106.20628 | pgbench_branches |          1507328

 2017-02-06 10:58:27.276144+01 | 1486375107.27614 | pgbench_accounts |       1390772224
 2017-02-06 10:58:27.276144+01 | 1486375107.27614 | pgbench_tellers  |          2170880
 2017-02-06 10:58:27.276144+01 | 1486375107.27614 | pgbench_history  |          7045120
 2017-02-06 10:58:27.276144+01 | 1486375107.27614 | pgbench_branches |          1507328

 2017-02-06 10:58:28.353301+01 | 1486375108.3533 | pgbench_accounts |       1390772224
 2017-02-06 10:58:28.353301+01 | 1486375108.3533 | pgbench_tellers  |          2170880
 2017-02-06 10:58:28.353301+01 | 1486375108.3533 | pgbench_history  |          7634944
 2017-02-06 10:58:28.353301+01 | 1486375108.3533 | pgbench_branches |          1507328

 2017-02-06 10:58:29.437156+01 | 1486375109.43716 | pgbench_accounts |       1390772224
 2017-02-06 10:58:29.437156+01 | 1486375109.43716 | pgbench_tellers  |          2170880
 2017-02-06 10:58:29.437156+01 | 1486375109.43716 | pgbench_history  |          8568832
 2017-02-06 10:58:29.437156+01 | 1486375109.43716 | pgbench_branches |          1507328

 2017-02-06 10:58:30.515749+01 | 1486375110.51575 | pgbench_accounts |       1390772224
 2017-02-06 10:58:30.515749+01 | 1486375110.51575 | pgbench_tellers  |          2170880
 2017-02-06 10:58:30.515749+01 | 1486375110.51575 | pgbench_history  |          9363456
 2017-02-06 10:58:30.515749+01 | 1486375110.51575 | pgbench_branches |          1507328

 2017-02-06 10:58:31.59246+01 | 1486375111.59246 | pgbench_accounts |       1390772224
 2017-02-06 10:58:31.59246+01 | 1486375111.59246 | pgbench_tellers  |          2170880
 2017-02-06 10:58:31.59246+01 | 1486375111.59246 | pgbench_history  |         10182656
 2017-02-06 10:58:31.59246+01 | 1486375111.59246 | pgbench_branches |          1507328

 2017-02-06 10:58:32.675061+01 | 1486375112.67506 | pgbench_accounts |       1390772224
 2017-02-06 10:58:32.675061+01 | 1486375112.67506 | pgbench_tellers  |          2170880
 2017-02-06 10:58:32.675061+01 | 1486375112.67506 | pgbench_history  |         11296768
 2017-02-06 10:58:32.675061+01 | 1486375112.67506 | pgbench_branches |          1507328

 2017-02-06 10:58:33.748905+01 | 1486375113.7489 | pgbench_accounts |       1390772224
 2017-02-06 10:58:33.748905+01 | 1486375113.7489 | pgbench_tellers  |          2170880
 2017-02-06 10:58:33.748905+01 | 1486375113.7489 | pgbench_history  |         12173312
 2017-02-06 10:58:33.748905+01 | 1486375113.7489 | pgbench_branches |          1507328

 2017-02-06 10:58:34.821775+01 | 1486375114.82177 | pgbench_accounts |       1390772224
 2017-02-06 10:58:34.821775+01 | 1486375114.82177 | pgbench_tellers  |          2170880
 2017-02-06 10:58:34.821775+01 | 1486375114.82177 | pgbench_history  |         12910592
 2017-02-06 10:58:34.821775+01 | 1486375114.82177 | pgbench_branches |          1507328

 2017-02-06 10:58:35.896691+01 | 1486375115.89669 | pgbench_accounts |       1390772224
 2017-02-06 10:58:35.896691+01 | 1486375115.89669 | pgbench_tellers  |          2170880
 2017-02-06 10:58:35.896691+01 | 1486375115.89669 | pgbench_history  |         13803520
 2017-02-06 10:58:35.896691+01 | 1486375115.89669 | pgbench_branches |          1507328

 2017-02-06 10:58:36.967064+01 | 1486375116.96706 | pgbench_accounts |       1390772224
 2017-02-06 10:58:36.967064+01 | 1486375116.96706 | pgbench_tellers  |          2170880
 2017-02-06 10:58:36.967064+01 | 1486375116.96706 | pgbench_history  |         14737408
 2017-02-06 10:58:36.967064+01 | 1486375116.96706 | pgbench_branches |          1507328

 2017-02-06 10:58:38.044049+01 | 1486375118.04405 | pgbench_accounts |       1390772224
 2017-02-06 10:58:38.044049+01 | 1486375118.04405 | pgbench_tellers  |          2170880
 2017-02-06 10:58:38.044049+01 | 1486375118.04405 | pgbench_history  |         15441920
 2017-02-06 10:58:38.044049+01 | 1486375118.04405 | pgbench_branches |          1507328

 2017-02-06 10:58:39.124151+01 | 1486375119.12415 | pgbench_accounts |       1390772224
 2017-02-06 10:58:39.124151+01 | 1486375119.12415 | pgbench_tellers  |          2170880
 2017-02-06 10:58:39.124151+01 | 1486375119.12415 | pgbench_history  |         16564224
 2017-02-06 10:58:39.124151+01 | 1486375119.12415 | pgbench_branches |          1507328

 2017-02-06 10:58:40.200048+01 | 1486375120.20005 | pgbench_accounts |       1390772224
 2017-02-06 10:58:40.200048+01 | 1486375120.20005 | pgbench_tellers  |          2170880
 2017-02-06 10:58:40.200048+01 | 1486375120.20005 | pgbench_history  |         17399808
 2017-02-06 10:58:40.200048+01 | 1486375120.20005 | pgbench_branches |          1507328

 2017-02-06 10:58:41.275657+01 | 1486375121.27566 | pgbench_accounts |       1390772224
 2017-02-06 10:58:41.275657+01 | 1486375121.27566 | pgbench_tellers  |          2170880
 2017-02-06 10:58:41.275657+01 | 1486375121.27566 | pgbench_history  |         18194432
 2017-02-06 10:58:41.275657+01 | 1486375121.27566 | pgbench_branches |          1507328

 2017-02-06 10:58:42.355075+01 | 1486375122.35507 | pgbench_accounts |       1390772224
 2017-02-06 10:58:42.355075+01 | 1486375122.35507 | pgbench_tellers  |          2170880
 2017-02-06 10:58:42.355075+01 | 1486375122.35507 | pgbench_history  |         19120128
 2017-02-06 10:58:42.355075+01 | 1486375122.35507 | pgbench_branches |          1507328

 2017-02-06 10:58:43.43099+01 | 1486375123.43099 | pgbench_accounts |       1390772224
 2017-02-06 10:58:43.43099+01 | 1486375123.43099 | pgbench_tellers  |          2170880
 2017-02-06 10:58:43.43099+01 | 1486375123.43099 | pgbench_history  |         20062208
 2017-02-06 10:58:43.43099+01 | 1486375123.43099 | pgbench_branches |          1507328

 2017-02-06 10:58:44.510075+01 | 1486375124.51008 | pgbench_accounts |       1390772224
 2017-02-06 10:58:44.510075+01 | 1486375124.51008 | pgbench_tellers  |          2170880
 2017-02-06 10:58:44.510075+01 | 1486375124.51008 | pgbench_history  |         21045248
 2017-02-06 10:58:44.510075+01 | 1486375124.51008 | pgbench_branches |          1507328

 2017-02-06 10:58:45.583413+01 | 1486375125.58341 | pgbench_accounts |       1390772224
 2017-02-06 10:58:45.583413+01 | 1486375125.58341 | pgbench_tellers  |          2170880
 2017-02-06 10:58:45.583413+01 | 1486375125.58341 | pgbench_history  |         21757952
 2017-02-06 10:58:45.583413+01 | 1486375125.58341 | pgbench_branches |          1507328

 2017-02-06 10:58:46.667625+01 | 1486375126.66762 | pgbench_accounts |       1390772224
 2017-02-06 10:58:46.667625+01 | 1486375126.66762 | pgbench_tellers  |          2170880
 2017-02-06 10:58:46.667625+01 | 1486375126.66762 | pgbench_history  |         22544384
 2017-02-06 10:58:46.667625+01 | 1486375126.66762 | pgbench_branches |          1507328

 2017-02-06 10:58:47.749003+01 | 1486375127.749 | pgbench_accounts |       1390772224
 2017-02-06 10:58:47.749003+01 | 1486375127.749 | pgbench_tellers  |          2170880
 2017-02-06 10:58:47.749003+01 | 1486375127.749 | pgbench_history  |         23797760
 2017-02-06 10:58:47.749003+01 | 1486375127.749 | pgbench_branches |          1507328

 2017-02-06 10:58:48.823343+01 | 1486375128.82334 | pgbench_accounts |       1390772224
 2017-02-06 10:58:48.823343+01 | 1486375128.82334 | pgbench_tellers  |          2170880
 2017-02-06 10:58:48.823343+01 | 1486375128.82334 | pgbench_history  |         24182784
 2017-02-06 10:58:48.823343+01 | 1486375128.82334 | pgbench_branches |          1507328

 2017-02-06 10:58:49.900816+01 | 1486375129.90082 | pgbench_accounts |       1390772224
 2017-02-06 10:58:49.900816+01 | 1486375129.90082 | pgbench_tellers  |          2170880
 2017-02-06 10:58:49.900816+01 | 1486375129.90082 | pgbench_history  |         25075712
 2017-02-06 10:58:49.900816+01 | 1486375129.90082 | pgbench_branches |          1507328

 2017-02-06 10:58:50.982561+01 | 1486375130.98256 | pgbench_accounts |       1390772224
 2017-02-06 10:58:50.982561+01 | 1486375130.98256 | pgbench_tellers  |          2170880
 2017-02-06 10:58:50.982561+01 | 1486375130.98256 | pgbench_history  |         25968640
 2017-02-06 10:58:50.982561+01 | 1486375130.98256 | pgbench_branches |          1507328

 2017-02-06 10:58:52.061129+01 | 1486375132.06113 | pgbench_accounts |       1390772224
 2017-02-06 10:58:52.061129+01 | 1486375132.06113 | pgbench_tellers  |          2170880
 2017-02-06 10:58:52.061129+01 | 1486375132.06113 | pgbench_history  |         26910720
 2017-02-06 10:58:52.061129+01 | 1486375132.06113 | pgbench_branches |          1507328

 2017-02-06 10:58:53.135362+01 | 1486375133.13536 | pgbench_accounts |       1390772224
 2017-02-06 10:58:53.135362+01 | 1486375133.13536 | pgbench_tellers  |          2170880
 2017-02-06 10:58:53.135362+01 | 1486375133.13536 | pgbench_history  |         27688960
 2017-02-06 10:58:53.135362+01 | 1486375133.13536 | pgbench_branches |          1507328

 2017-02-06 10:58:54.20561+01 | 1486375134.20561 | pgbench_accounts |       1390772224
 2017-02-06 10:58:54.20561+01 | 1486375134.20561 | pgbench_tellers  |          2170880
 2017-02-06 10:58:54.20561+01 | 1486375134.20561 | pgbench_history  |         28639232
 2017-02-06 10:58:54.20561+01 | 1486375134.20561 | pgbench_branches |          1507328

 2017-02-06 10:58:55.291734+01 | 1486375135.29173 | pgbench_accounts |       1390772224
 2017-02-06 10:58:55.291734+01 | 1486375135.29173 | pgbench_tellers  |          2170880
 2017-02-06 10:58:55.291734+01 | 1486375135.29173 | pgbench_history  |         29351936
 2017-02-06 10:58:55.291734+01 | 1486375135.29173 | pgbench_branches |          1507328

 2017-02-06 10:58:56.371273+01 | 1486375136.37127 | pgbench_accounts |       1390772224
 2017-02-06 10:58:56.371273+01 | 1486375136.37127 | pgbench_tellers  |          2170880
 2017-02-06 10:58:56.371273+01 | 1486375136.37127 | pgbench_history  |         30228480
 2017-02-06 10:58:56.371273+01 | 1486375136.37127 | pgbench_branches |          1507328

 2017-02-06 10:58:57.44103+01 | 1486375137.44103 | pgbench_accounts |       1390772224
 2017-02-06 10:58:57.44103+01 | 1486375137.44103 | pgbench_tellers  |          2170880
 2017-02-06 10:58:57.44103+01 | 1486375137.44103 | pgbench_history  |         31391744
 2017-02-06 10:58:57.44103+01 | 1486375137.44103 | pgbench_branches |          1507328

 2017-02-06 10:58:58.512739+01 | 1486375138.51274 | pgbench_accounts |       1390772224
 2017-02-06 10:58:58.512739+01 | 1486375138.51274 | pgbench_tellers  |          2170880
 2017-02-06 10:58:58.512739+01 | 1486375138.51274 | pgbench_history  |         32276480
 2017-02-06 10:58:58.512739+01 | 1486375138.51274 | pgbench_branches |          1507328

 2017-02-06 10:58:59.589948+01 | 1486375139.58995 | pgbench_accounts |       1390772224
 2017-02-06 10:58:59.589948+01 | 1486375139.58995 | pgbench_tellers  |          2170880
 2017-02-06 10:58:59.589948+01 | 1486375139.58995 | pgbench_history  |         32858112
 2017-02-06 10:58:59.589948+01 | 1486375139.58995 | pgbench_branches |          1507328

 2017-02-06 10:59:00.670605+01 | 1486375140.6706 | pgbench_accounts |       1390772224
 2017-02-06 10:59:00.670605+01 | 1486375140.6706 | pgbench_tellers  |          2170880
 2017-02-06 10:59:00.670605+01 | 1486375140.6706 | pgbench_history  |         33996800
 2017-02-06 10:59:00.670605+01 | 1486375140.6706 | pgbench_branches |          1507328

 2017-02-06 10:59:01.75105+01 | 1486375141.75105 | pgbench_accounts |       1390772224
 2017-02-06 10:59:01.75105+01 | 1486375141.75105 | pgbench_tellers  |          2170880
 2017-02-06 10:59:01.75105+01 | 1486375141.75105 | pgbench_history  |         34865152
 2017-02-06 10:59:01.75105+01 | 1486375141.75105 | pgbench_branches |          1507328

 2017-02-06 10:59:02.824822+01 | 1486375142.82482 | pgbench_accounts |       1390772224
 2017-02-06 10:59:02.824822+01 | 1486375142.82482 | pgbench_tellers  |          2170880
 2017-02-06 10:59:02.824822+01 | 1486375142.82482 | pgbench_history  |         35618816
 2017-02-06 10:59:02.824822+01 | 1486375142.82482 | pgbench_branches |          1507328

 2017-02-06 10:59:03.893003+01 | 1486375143.893 | pgbench_accounts |       1390772224
 2017-02-06 10:59:03.893003+01 | 1486375143.893 | pgbench_tellers  |          2170880
 2017-02-06 10:59:03.893003+01 | 1486375143.893 | pgbench_history  |         36364288
 2017-02-06 10:59:03.893003+01 | 1486375143.893 | pgbench_branches |          1507328

 2017-02-06 10:59:04.969444+01 | 1486375144.96944 | pgbench_accounts |       1390772224
 2017-02-06 10:59:04.969444+01 | 1486375144.96944 | pgbench_tellers  |          2170880
 2017-02-06 10:59:04.969444+01 | 1486375144.96944 | pgbench_history  |         37265408
 2017-02-06 10:59:04.969444+01 | 1486375144.96944 | pgbench_branches |          1507328

 2017-02-06 10:59:06.044455+01 | 1486375146.04446 | pgbench_accounts |       1390772224
 2017-02-06 10:59:06.044455+01 | 1486375146.04446 | pgbench_tellers  |          2170880
 2017-02-06 10:59:06.044455+01 | 1486375146.04446 | pgbench_history  |         38486016
 2017-02-06 10:59:06.044455+01 | 1486375146.04446 | pgbench_branches |          1507328

 2017-02-06 10:59:07.11973+01 | 1486375147.11973 | pgbench_accounts |       1390772224
 2017-02-06 10:59:07.11973+01 | 1486375147.11973 | pgbench_tellers  |          2170880
 2017-02-06 10:59:07.11973+01 | 1486375147.11973 | pgbench_history  |         39165952
 2017-02-06 10:59:07.11973+01 | 1486375147.11973 | pgbench_branches |          1507328

 2017-02-06 10:59:08.190777+01 | 1486375148.19078 | pgbench_accounts |       1390772224
 2017-02-06 10:59:08.190777+01 | 1486375148.19078 | pgbench_tellers  |          2170880
 2017-02-06 10:59:08.190777+01 | 1486375148.19078 | pgbench_history  |         40083456
 2017-02-06 10:59:08.190777+01 | 1486375148.19078 | pgbench_branches |          1507328

 2017-02-06 10:59:09.268798+01 | 1486375149.2688 | pgbench_accounts |       1390772224
 2017-02-06 10:59:09.268798+01 | 1486375149.2688 | pgbench_tellers  |          2170880
 2017-02-06 10:59:09.268798+01 | 1486375149.2688 | pgbench_history  |         40656896
 2017-02-06 10:59:09.268798+01 | 1486375149.2688 | pgbench_branches |          1507328

 2017-02-06 10:59:10.341743+01 | 1486375150.34174 | pgbench_accounts |       1390772224
 2017-02-06 10:59:10.341743+01 | 1486375150.34174 | pgbench_tellers  |          2170880
 2017-02-06 10:59:10.341743+01 | 1486375150.34174 | pgbench_history  |         42278912
 2017-02-06 10:59:10.341743+01 | 1486375150.34174 | pgbench_branches |          1507328

 2017-02-06 10:59:11.421072+01 | 1486375151.42107 | pgbench_accounts |       1390772224
 2017-02-06 10:59:11.421072+01 | 1486375151.42107 | pgbench_tellers  |          2170880
 2017-02-06 10:59:11.421072+01 | 1486375151.42107 | pgbench_history  |         42278912
 2017-02-06 10:59:11.421072+01 | 1486375151.42107 | pgbench_branches |          1507328

 2017-02-06 10:59:12.496948+01 | 1486375152.49695 | pgbench_accounts |       1390772224
 2017-02-06 10:59:12.496948+01 | 1486375152.49695 | pgbench_tellers  |          2170880
 2017-02-06 10:59:12.496948+01 | 1486375152.49695 | pgbench_history  |         43204608
 2017-02-06 10:59:12.496948+01 | 1486375152.49695 | pgbench_branches |          1507328

 2017-02-06 10:59:13.577933+01 | 1486375153.57793 | pgbench_accounts |       1390772224
 2017-02-06 10:59:13.577933+01 | 1486375153.57793 | pgbench_tellers  |          2170880
 2017-02-06 10:59:13.577933+01 | 1486375153.57793 | pgbench_history  |         43941888
 2017-02-06 10:59:13.577933+01 | 1486375153.57793 | pgbench_branches |          1507328

 2017-02-06 10:59:14.65436+01 | 1486375154.65436 | pgbench_accounts |       1390772224
 2017-02-06 10:59:14.65436+01 | 1486375154.65436 | pgbench_tellers  |          2170880
 2017-02-06 10:59:14.65436+01 | 1486375154.65436 | pgbench_history  |         44851200
 2017-02-06 10:59:14.65436+01 | 1486375154.65436 | pgbench_branches |          1507328

 2017-02-06 10:59:15.739046+01 | 1486375155.73905 | pgbench_accounts |       1390772224
 2017-02-06 10:59:15.739046+01 | 1486375155.73905 | pgbench_tellers  |          2170880
 2017-02-06 10:59:15.739046+01 | 1486375155.73905 | pgbench_history  |         45940736
 2017-02-06 10:59:15.739046+01 | 1486375155.73905 | pgbench_branches |          1507328

 2017-02-06 10:59:16.803965+01 | 1486375156.80397 | pgbench_accounts |       1390772224
 2017-02-06 10:59:16.803965+01 | 1486375156.80397 | pgbench_tellers  |          2170880
 2017-02-06 10:59:16.803965+01 | 1486375156.80397 | pgbench_history  |         46702592
 2017-02-06 10:59:16.803965+01 | 1486375156.80397 | pgbench_branches |          1507328

 2017-02-06 10:59:17.877454+01 | 1486375157.87745 | pgbench_accounts |       1390772224
 2017-02-06 10:59:17.877454+01 | 1486375157.87745 | pgbench_tellers  |          2170880
 2017-02-06 10:59:17.877454+01 | 1486375157.87745 | pgbench_history  |         47448064
 2017-02-06 10:59:17.877454+01 | 1486375157.87745 | pgbench_branches |          1507328

 2017-02-06 10:59:18.963648+01 | 1486375158.96365 | pgbench_accounts |       1390772224
 2017-02-06 10:59:18.963648+01 | 1486375158.96365 | pgbench_tellers  |          2170880
 2017-02-06 10:59:18.963648+01 | 1486375158.96365 | pgbench_history  |         48185344
 2017-02-06 10:59:18.963648+01 | 1486375158.96365 | pgbench_branches |          1507328

 2017-02-06 10:59:20.037822+01 | 1486375160.03782 | pgbench_accounts |       1390772224
 2017-02-06 10:59:20.037822+01 | 1486375160.03782 | pgbench_tellers  |          2170880
 2017-02-06 10:59:20.037822+01 | 1486375160.03782 | pgbench_history  |         49111040
 2017-02-06 10:59:20.037822+01 | 1486375160.03782 | pgbench_branches |          1507328

 2017-02-06 10:59:21.113594+01 | 1486375161.11359 | pgbench_accounts |       1390772224
 2017-02-06 10:59:21.113594+01 | 1486375161.11359 | pgbench_tellers  |          2170880
 2017-02-06 10:59:21.113594+01 | 1486375161.11359 | pgbench_history  |         49897472
 2017-02-06 10:59:21.113594+01 | 1486375161.11359 | pgbench_branches |          1507328

 2017-02-06 10:59:22.187603+01 | 1486375162.1876 | pgbench_accounts |       1390772224
 2017-02-06 10:59:22.187603+01 | 1486375162.1876 | pgbench_tellers  |          2170880
 2017-02-06 10:59:22.187603+01 | 1486375162.1876 | pgbench_history  |         51118080
 2017-02-06 10:59:22.187603+01 | 1486375162.1876 | pgbench_branches |          1507328

 2017-02-06 10:59:23.261163+01 | 1486375163.26116 | pgbench_accounts |       1390772224
 2017-02-06 10:59:23.261163+01 | 1486375163.26116 | pgbench_tellers  |          2170880
 2017-02-06 10:59:23.261163+01 | 1486375163.26116 | pgbench_history  |         51642368
 2017-02-06 10:59:23.261163+01 | 1486375163.26116 | pgbench_branches |          1507328

 2017-02-06 10:59:24.338332+01 | 1486375164.33833 | pgbench_accounts |       1390772224
 2017-02-06 10:59:24.338332+01 | 1486375164.33833 | pgbench_tellers  |          2170880
 2017-02-06 10:59:24.338332+01 | 1486375164.33833 | pgbench_history  |         52510720
 2017-02-06 10:59:24.338332+01 | 1486375164.33833 | pgbench_branches |          1507328

 2017-02-06 10:59:25.411906+01 | 1486375165.41191 | pgbench_accounts |       1390772224
 2017-02-06 10:59:25.411906+01 | 1486375165.41191 | pgbench_tellers  |          2170880
 2017-02-06 10:59:25.411906+01 | 1486375165.41191 | pgbench_history  |         53583872
 2017-02-06 10:59:25.411906+01 | 1486375165.41191 | pgbench_branches |          1507328

 2017-02-06 10:59:26.486753+01 | 1486375166.48675 | pgbench_accounts |       1390772224
 2017-02-06 10:59:26.486753+01 | 1486375166.48675 | pgbench_tellers  |          2170880
 2017-02-06 10:59:26.486753+01 | 1486375166.48675 | pgbench_history  |         54231040
 2017-02-06 10:59:26.486753+01 | 1486375166.48675 | pgbench_branches |          1507328

 2017-02-06 10:59:27.560769+01 | 1486375167.56077 | pgbench_accounts |       1390772224
 2017-02-06 10:59:27.560769+01 | 1486375167.56077 | pgbench_tellers  |          2170880
 2017-02-06 10:59:27.560769+01 | 1486375167.56077 | pgbench_history  |         54984704
 2017-02-06 10:59:27.560769+01 | 1486375167.56077 | pgbench_branches |          1507328

 2017-02-06 10:59:28.639944+01 | 1486375168.63994 | pgbench_accounts |       1390772224
 2017-02-06 10:59:28.639944+01 | 1486375168.63994 | pgbench_tellers  |          2170880
 2017-02-06 10:59:28.639944+01 | 1486375168.63994 | pgbench_history  |         55861248
 2017-02-06 10:59:28.639944+01 | 1486375168.63994 | pgbench_branches |          1507328

 2017-02-06 10:59:29.718234+01 | 1486375169.71823 | pgbench_accounts |       1390772224
 2017-02-06 10:59:29.718234+01 | 1486375169.71823 | pgbench_tellers  |          2170880
 2017-02-06 10:59:29.718234+01 | 1486375169.71823 | pgbench_history  |         56647680
 2017-02-06 10:59:29.718234+01 | 1486375169.71823 | pgbench_branches |          1507328

 2017-02-06 10:59:30.799631+01 | 1486375170.79963 | pgbench_accounts |       1390772224
 2017-02-06 10:59:30.799631+01 | 1486375170.79963 | pgbench_tellers  |          2170880
 2017-02-06 10:59:30.799631+01 | 1486375170.79963 | pgbench_history  |         57712640
 2017-02-06 10:59:30.799631+01 | 1486375170.79963 | pgbench_branches |          1507328

 2017-02-06 10:59:31.883462+01 | 1486375171.88346 | pgbench_accounts |       1390772224
 2017-02-06 10:59:31.883462+01 | 1486375171.88346 | pgbench_tellers  |          2170880
 2017-02-06 10:59:31.883462+01 | 1486375171.88346 | pgbench_history  |         58499072
 2017-02-06 10:59:31.883462+01 | 1486375171.88346 | pgbench_branches |          1507328

 2017-02-06 10:59:32.962886+01 | 1486375172.96289 | pgbench_accounts |       1390772224
 2017-02-06 10:59:32.962886+01 | 1486375172.96289 | pgbench_tellers  |          2170880
 2017-02-06 10:59:32.962886+01 | 1486375172.96289 | pgbench_history  |         59080704
 2017-02-06 10:59:32.962886+01 | 1486375172.96289 | pgbench_branches |          1507328

 2017-02-06 10:59:34.043238+01 | 1486375174.04324 | pgbench_accounts |       1390772224
 2017-02-06 10:59:34.043238+01 | 1486375174.04324 | pgbench_tellers  |          2170880
 2017-02-06 10:59:34.043238+01 | 1486375174.04324 | pgbench_history  |         59949056
 2017-02-06 10:59:34.043238+01 | 1486375174.04324 | pgbench_branches |          1507328

 2017-02-06 10:59:35.129125+01 | 1486375175.12913 | pgbench_accounts |       1390772224
 2017-02-06 10:59:35.129125+01 | 1486375175.12913 | pgbench_tellers  |          2170880
 2017-02-06 10:59:35.129125+01 | 1486375175.12913 | pgbench_history  |         60899328
 2017-02-06 10:59:35.129125+01 | 1486375175.12913 | pgbench_branches |          1507328

 2017-02-06 10:59:36.218764+01 | 1486375176.21876 | pgbench_accounts |       1390772224
 2017-02-06 10:59:36.218764+01 | 1486375176.21876 | pgbench_tellers  |          2170880
 2017-02-06 10:59:36.218764+01 | 1486375176.21876 | pgbench_history  |         61816832
 2017-02-06 10:59:36.218764+01 | 1486375176.21876 | pgbench_branches |          1507328

 2017-02-06 10:59:37.301531+01 | 1486375177.30153 | pgbench_accounts |       1390772224
 2017-02-06 10:59:37.301531+01 | 1486375177.30153 | pgbench_tellers  |          2170880
 2017-02-06 10:59:37.301531+01 | 1486375177.30153 | pgbench_history  |         62521344
 2017-02-06 10:59:37.301531+01 | 1486375177.30153 | pgbench_branches |          1507328

 2017-02-06 10:59:38.377736+01 | 1486375178.37774 | pgbench_accounts |       1390772224
 2017-02-06 10:59:38.377736+01 | 1486375178.37774 | pgbench_tellers  |          2170880
 2017-02-06 10:59:38.377736+01 | 1486375178.37774 | pgbench_history  |         63397888
 2017-02-06 10:59:38.377736+01 | 1486375178.37774 | pgbench_branches |          1507328

 2017-02-06 10:59:39.450483+01 | 1486375179.45048 | pgbench_accounts |       1390772224
 2017-02-06 10:59:39.450483+01 | 1486375179.45048 | pgbench_tellers  |          2170880
 2017-02-06 10:59:39.450483+01 | 1486375179.45048 | pgbench_history  |         64159744
 2017-02-06 10:59:39.450483+01 | 1486375179.45048 | pgbench_branches |          1507328

 2017-02-06 10:59:40.527443+01 | 1486375180.52744 | pgbench_accounts |       1390772224
 2017-02-06 10:59:40.527443+01 | 1486375180.52744 | pgbench_tellers  |          2170880
 2017-02-06 10:59:40.527443+01 | 1486375180.52744 | pgbench_history  |         64888832
 2017-02-06 10:59:40.527443+01 | 1486375180.52744 | pgbench_branches |          1507328

 2017-02-06 10:59:41.601854+01 | 1486375181.60185 | pgbench_accounts |       1390772224
 2017-02-06 10:59:41.601854+01 | 1486375181.60185 | pgbench_tellers  |          2170880
 2017-02-06 10:59:41.601854+01 | 1486375181.60185 | pgbench_history  |         65880064
 2017-02-06 10:59:41.601854+01 | 1486375181.60185 | pgbench_branches |          1507328

 2017-02-06 10:59:42.680853+01 | 1486375182.68085 | pgbench_accounts |       1390772224
 2017-02-06 10:59:42.680853+01 | 1486375182.68085 | pgbench_tellers  |          2170880
 2017-02-06 10:59:42.680853+01 | 1486375182.68085 | pgbench_history  |         67092480
 2017-02-06 10:59:42.680853+01 | 1486375182.68085 | pgbench_branches |          1507328

 2017-02-06 10:59:43.761457+01 | 1486375183.76146 | pgbench_accounts |       1390772224
 2017-02-06 10:59:43.761457+01 | 1486375183.76146 | pgbench_tellers  |          2170880
 2017-02-06 10:59:43.761457+01 | 1486375183.76146 | pgbench_history  |         67510272
 2017-02-06 10:59:43.761457+01 | 1486375183.76146 | pgbench_branches |          1507328

 2017-02-06 10:59:44.842411+01 | 1486375184.84241 | pgbench_accounts |       1390772224
 2017-02-06 10:59:44.842411+01 | 1486375184.84241 | pgbench_tellers  |          2170880
 2017-02-06 10:59:44.842411+01 | 1486375184.84241 | pgbench_history  |         68837376
 2017-02-06 10:59:44.842411+01 | 1486375184.84241 | pgbench_branches |          1507328

 2017-02-06 10:59:45.919448+01 | 1486375185.91945 | pgbench_accounts |       1390772224
 2017-02-06 10:59:45.919448+01 | 1486375185.91945 | pgbench_tellers  |          2170880
 2017-02-06 10:59:45.919448+01 | 1486375185.91945 | pgbench_history  |         69050368
 2017-02-06 10:59:45.919448+01 | 1486375185.91945 | pgbench_branches |          1507328

 2017-02-06 10:59:47.003451+01 | 1486375187.00345 | pgbench_accounts |       1390772224
 2017-02-06 10:59:47.003451+01 | 1486375187.00345 | pgbench_tellers  |          2170880
 2017-02-06 10:59:47.003451+01 | 1486375187.00345 | pgbench_history  |         69918720
 2017-02-06 10:59:47.003451+01 | 1486375187.00345 | pgbench_branches |          1507328

 2017-02-06 10:59:48.083644+01 | 1486375188.08364 | pgbench_accounts |       1390772224
 2017-02-06 10:59:48.083644+01 | 1486375188.08364 | pgbench_tellers  |          2170880
 2017-02-06 10:59:48.083644+01 | 1486375188.08364 | pgbench_history  |         71041024
 2017-02-06 10:59:48.083644+01 | 1486375188.08364 | pgbench_branches |          1507328

 2017-02-06 10:59:49.167218+01 | 1486375189.16722 | pgbench_accounts |       1390772224
 2017-02-06 10:59:49.167218+01 | 1486375189.16722 | pgbench_tellers  |          2170880
 2017-02-06 10:59:49.167218+01 | 1486375189.16722 | pgbench_history  |         71581696
 2017-02-06 10:59:49.167218+01 | 1486375189.16722 | pgbench_branches |          1507328

 2017-02-06 10:59:50.240962+01 | 1486375190.24096 | pgbench_accounts |       1390772224
 2017-02-06 10:59:50.240962+01 | 1486375190.24096 | pgbench_tellers  |          2170880
 2017-02-06 10:59:50.240962+01 | 1486375190.24096 | pgbench_history  |         72810496
 2017-02-06 10:59:50.240962+01 | 1486375190.24096 | pgbench_branches |          1507328

 2017-02-06 10:59:51.304932+01 | 1486375191.30493 | pgbench_accounts |       1390772224
 2017-02-06 10:59:51.304932+01 | 1486375191.30493 | pgbench_tellers  |          2170880
 2017-02-06 10:59:51.304932+01 | 1486375191.30493 | pgbench_history  |         73523200
 2017-02-06 10:59:51.304932+01 | 1486375191.30493 | pgbench_branches |          1507328

 2017-02-06 10:59:52.382754+01 | 1486375192.38275 | pgbench_accounts |       1390772224
 2017-02-06 10:59:52.382754+01 | 1486375192.38275 | pgbench_tellers  |          2170880
 2017-02-06 10:59:52.382754+01 | 1486375192.38275 | pgbench_history  |         74162176
 2017-02-06 10:59:52.382754+01 | 1486375192.38275 | pgbench_branches |          1507328

 2017-02-06 10:59:53.459679+01 | 1486375193.45968 | pgbench_accounts |       1390772224
 2017-02-06 10:59:53.459679+01 | 1486375193.45968 | pgbench_tellers  |          2170880
 2017-02-06 10:59:53.459679+01 | 1486375193.45968 | pgbench_history  |         75071488
 2017-02-06 10:59:53.459679+01 | 1486375193.45968 | pgbench_branches |          1507328

 2017-02-06 10:59:54.536183+01 | 1486375194.53618 | pgbench_accounts |       1390772224
 2017-02-06 10:59:54.536183+01 | 1486375194.53618 | pgbench_tellers  |          2170880
 2017-02-06 10:59:54.536183+01 | 1486375194.53618 | pgbench_history  |         75841536
 2017-02-06 10:59:54.536183+01 | 1486375194.53618 | pgbench_branches |          1507328

 2017-02-06 10:59:55.613511+01 | 1486375195.61351 | pgbench_accounts |       1390772224
 2017-02-06 10:59:55.613511+01 | 1486375195.61351 | pgbench_tellers  |          2170880
 2017-02-06 10:59:55.613511+01 | 1486375195.61351 | pgbench_history  |         76914688
 2017-02-06 10:59:55.613511+01 | 1486375195.61351 | pgbench_branches |          1507328

 2017-02-06 10:59:56.685677+01 | 1486375196.68568 | pgbench_accounts |       1390772224
 2017-02-06 10:59:56.685677+01 | 1486375196.68568 | pgbench_tellers  |          2170880
 2017-02-06 10:59:56.685677+01 | 1486375196.68568 | pgbench_history  |         77635584
 2017-02-06 10:59:56.685677+01 | 1486375196.68568 | pgbench_branches |          1507328

 2017-02-06 10:59:57.761383+01 | 1486375197.76138 | pgbench_accounts |       1390772224
 2017-02-06 10:59:57.761383+01 | 1486375197.76138 | pgbench_tellers  |          2170880
 2017-02-06 10:59:57.761383+01 | 1486375197.76138 | pgbench_history  |         78544896
 2017-02-06 10:59:57.761383+01 | 1486375197.76138 | pgbench_branches |          1507328

 2017-02-06 10:59:58.837508+01 | 1486375198.83751 | pgbench_accounts |       1390772224
 2017-02-06 10:59:58.837508+01 | 1486375198.83751 | pgbench_tellers  |          2170880
 2017-02-06 10:59:58.837508+01 | 1486375198.83751 | pgbench_history  |         79331328
 2017-02-06 10:59:58.837508+01 | 1486375198.83751 | pgbench_branches |          1507328

 2017-02-06 10:59:59.904938+01 | 1486375199.90494 | pgbench_accounts |       1390772224
 2017-02-06 10:59:59.904938+01 | 1486375199.90494 | pgbench_tellers  |          2170880
 2017-02-06 10:59:59.904938+01 | 1486375199.90494 | pgbench_history  |         80609280
 2017-02-06 10:59:59.904938+01 | 1486375199.90494 | pgbench_branches |          1507328

 2017-02-06 11:00:00.980672+01 | 1486375200.98067 | pgbench_accounts |       1390772224
 2017-02-06 11:00:00.980672+01 | 1486375200.98067 | pgbench_tellers  |          2170880
 2017-02-06 11:00:00.980672+01 | 1486375200.98067 | pgbench_history  |         81141760
 2017-02-06 11:00:00.980672+01 | 1486375200.98067 | pgbench_branches |          1507328

 2017-02-06 11:00:02.055165+01 | 1486375202.05517 | pgbench_accounts |       1390772224
 2017-02-06 11:00:02.055165+01 | 1486375202.05517 | pgbench_tellers  |          2170880
 2017-02-06 11:00:02.055165+01 | 1486375202.05517 | pgbench_history  |         82010112
 2017-02-06 11:00:02.055165+01 | 1486375202.05517 | pgbench_branches |          1507328

 2017-02-06 11:00:03.119803+01 | 1486375203.1198 | pgbench_accounts |       1390772224
 2017-02-06 11:00:03.119803+01 | 1486375203.1198 | pgbench_tellers  |          2170880
 2017-02-06 11:00:03.119803+01 | 1486375203.1198 | pgbench_history  |         82722816
 2017-02-06 11:00:03.119803+01 | 1486375203.1198 | pgbench_branches |          1507328

 2017-02-06 11:00:04.189242+01 | 1486375204.18924 | pgbench_accounts |       1390772224
 2017-02-06 11:00:04.189242+01 | 1486375204.18924 | pgbench_tellers  |          2170880
 2017-02-06 11:00:04.189242+01 | 1486375204.18924 | pgbench_history  |         83607552
 2017-02-06 11:00:04.189242+01 | 1486375204.18924 | pgbench_branches |          1507328

 2017-02-06 11:00:05.259399+01 | 1486375205.2594 | pgbench_accounts |       1390772224
 2017-02-06 11:00:05.259399+01 | 1486375205.2594 | pgbench_tellers  |          2170880
 2017-02-06 11:00:05.259399+01 | 1486375205.2594 | pgbench_history  |         84721664
 2017-02-06 11:00:05.259399+01 | 1486375205.2594 | pgbench_branches |          1507328

 2017-02-06 11:00:06.335455+01 | 1486375206.33545 | pgbench_accounts |       1390772224
 2017-02-06 11:00:06.335455+01 | 1486375206.33545 | pgbench_tellers  |          2170880
 2017-02-06 11:00:06.335455+01 | 1486375206.33545 | pgbench_history  |         85458944
 2017-02-06 11:00:06.335455+01 | 1486375206.33545 | pgbench_branches |          1507328

 2017-02-06 11:00:07.411152+01 | 1486375207.41115 | pgbench_accounts |       1390772224
 2017-02-06 11:00:07.411152+01 | 1486375207.41115 | pgbench_tellers  |          2170880
 2017-02-06 11:00:07.411152+01 | 1486375207.41115 | pgbench_history  |         86163456
 2017-02-06 11:00:07.411152+01 | 1486375207.41115 | pgbench_branches |          1507328

 2017-02-06 11:00:08.484839+01 | 1486375208.48484 | pgbench_accounts |       1390772224
 2017-02-06 11:00:08.484839+01 | 1486375208.48484 | pgbench_tellers  |          2170880
 2017-02-06 11:00:08.484839+01 | 1486375208.48484 | pgbench_history  |         87228416
 2017-02-06 11:00:08.484839+01 | 1486375208.48484 | pgbench_branches |          1507328

 2017-02-06 11:00:09.57007+01 | 1486375209.57007 | pgbench_accounts |       1390772224
 2017-02-06 11:00:09.57007+01 | 1486375209.57007 | pgbench_tellers  |          2170880
 2017-02-06 11:00:09.57007+01 | 1486375209.57007 | pgbench_history  |         88104960
 2017-02-06 11:00:09.57007+01 | 1486375209.57007 | pgbench_branches |          1507328

 2017-02-06 11:00:10.646092+01 | 1486375210.64609 | pgbench_accounts |       1390772224
 2017-02-06 11:00:10.646092+01 | 1486375210.64609 | pgbench_tellers  |          2170880
 2017-02-06 11:00:10.646092+01 | 1486375210.64609 | pgbench_history  |         89006080
 2017-02-06 11:00:10.646092+01 | 1486375210.64609 | pgbench_branches |          1507328

 2017-02-06 11:00:11.729526+01 | 1486375211.72953 | pgbench_accounts |       1390772224
 2017-02-06 11:00:11.729526+01 | 1486375211.72953 | pgbench_tellers  |          2170880
 2017-02-06 11:00:11.729526+01 | 1486375211.72953 | pgbench_history  |         89554944
 2017-02-06 11:00:11.729526+01 | 1486375211.72953 | pgbench_branches |          1507328

 2017-02-06 11:00:12.806784+01 | 1486375212.80678 | pgbench_accounts |       1390772224
 2017-02-06 11:00:12.806784+01 | 1486375212.80678 | pgbench_tellers  |          2170880
 2017-02-06 11:00:12.806784+01 | 1486375212.80678 | pgbench_history  |         90333184
 2017-02-06 11:00:12.806784+01 | 1486375212.80678 | pgbench_branches |          1507328

 2017-02-06 11:00:13.882006+01 | 1486375213.88201 | pgbench_accounts |       1390772224
 2017-02-06 11:00:13.882006+01 | 1486375213.88201 | pgbench_tellers  |          2170880
 2017-02-06 11:00:13.882006+01 | 1486375213.88201 | pgbench_history  |         91250688
 2017-02-06 11:00:13.882006+01 | 1486375213.88201 | pgbench_branches |          1507328

 2017-02-06 11:00:14.962485+01 | 1486375214.96249 | pgbench_accounts |       1390772224
 2017-02-06 11:00:14.962485+01 | 1486375214.96249 | pgbench_tellers  |          2170880
 2017-02-06 11:00:14.962485+01 | 1486375214.96249 | pgbench_history  |         92405760
 2017-02-06 11:00:14.962485+01 | 1486375214.96249 | pgbench_branches |          1507328

 2017-02-06 11:00:16.039376+01 | 1486375216.03938 | pgbench_accounts |       1390772224
 2017-02-06 11:00:16.039376+01 | 1486375216.03938 | pgbench_tellers  |          2170880
 2017-02-06 11:00:16.039376+01 | 1486375216.03938 | pgbench_history  |         93151232
 2017-02-06 11:00:16.039376+01 | 1486375216.03938 | pgbench_branches |          1507328

 2017-02-06 11:00:17.113436+01 | 1486375217.11344 | pgbench_accounts |       1390772224
 2017-02-06 11:00:17.113436+01 | 1486375217.11344 | pgbench_tellers  |          2170880
 2017-02-06 11:00:17.113436+01 | 1486375217.11344 | pgbench_history  |         94019584
 2017-02-06 11:00:17.113436+01 | 1486375217.11344 | pgbench_branches |          1507328

 2017-02-06 11:00:18.189933+01 | 1486375218.18993 | pgbench_accounts |       1390772224
 2017-02-06 11:00:18.189933+01 | 1486375218.18993 | pgbench_tellers  |          2170880
 2017-02-06 11:00:18.189933+01 | 1486375218.18993 | pgbench_history  |         95281152
 2017-02-06 11:00:18.189933+01 | 1486375218.18993 | pgbench_branches |          1507328

 2017-02-06 11:00:19.267546+01 | 1486375219.26755 | pgbench_accounts |       1390772224
 2017-02-06 11:00:19.267546+01 | 1486375219.26755 | pgbench_tellers  |          2170880
 2017-02-06 11:00:19.267546+01 | 1486375219.26755 | pgbench_history  |         95633408
 2017-02-06 11:00:19.267546+01 | 1486375219.26755 | pgbench_branches |          1507328

 2017-02-06 11:00:20.341377+01 | 1486375220.34138 | pgbench_accounts |       1390772224
 2017-02-06 11:00:20.341377+01 | 1486375220.34138 | pgbench_tellers  |          2170880
 2017-02-06 11:00:20.341377+01 | 1486375220.34138 | pgbench_history  |         96534528
 2017-02-06 11:00:20.341377+01 | 1486375220.34138 | pgbench_branches |          1507328

 2017-02-06 11:00:21.41577+01 | 1486375221.41577 | pgbench_accounts |       1390772224
 2017-02-06 11:00:21.41577+01 | 1486375221.41577 | pgbench_tellers  |          2170880
 2017-02-06 11:00:21.41577+01 | 1486375221.41577 | pgbench_history  |         97525760
 2017-02-06 11:00:21.41577+01 | 1486375221.41577 | pgbench_branches |          1507328

 2017-02-06 11:00:22.486848+01 | 1486375222.48685 | pgbench_accounts |       1390772224
 2017-02-06 11:00:22.486848+01 | 1486375222.48685 | pgbench_tellers  |          2170880
 2017-02-06 11:00:22.486848+01 | 1486375222.48685 | pgbench_history  |         98394112
 2017-02-06 11:00:22.486848+01 | 1486375222.48685 | pgbench_branches |          1507328

 2017-02-06 11:00:23.570014+01 | 1486375223.57001 | pgbench_accounts |       1390772224
 2017-02-06 11:00:23.570014+01 | 1486375223.57001 | pgbench_tellers  |          2170880
 2017-02-06 11:00:23.570014+01 | 1486375223.57001 | pgbench_history  |         99106816
 2017-02-06 11:00:23.570014+01 | 1486375223.57001 | pgbench_branches |          1507328

 2017-02-06 11:00:24.650416+01 | 1486375224.65042 | pgbench_accounts |       1390772224
 2017-02-06 11:00:24.650416+01 | 1486375224.65042 | pgbench_tellers  |          2170880
 2017-02-06 11:00:24.650416+01 | 1486375224.65042 | pgbench_history  |         99844096
 2017-02-06 11:00:24.650416+01 | 1486375224.65042 | pgbench_branches |          1507328

 2017-02-06 11:00:25.727829+01 | 1486375225.72783 | pgbench_accounts |       1390772224
 2017-02-06 11:00:25.727829+01 | 1486375225.72783 | pgbench_tellers  |          2170880
 2017-02-06 11:00:25.727829+01 | 1486375225.72783 | pgbench_history  |        100728832
 2017-02-06 11:00:25.727829+01 | 1486375225.72783 | pgbench_branches |          1507328

 2017-02-06 11:00:26.812196+01 | 1486375226.8122 | pgbench_accounts |       1390772224
 2017-02-06 11:00:26.812196+01 | 1486375226.8122 | pgbench_tellers  |          2170880
 2017-02-06 11:00:26.812196+01 | 1486375226.8122 | pgbench_history  |        102014976
 2017-02-06 11:00:26.812196+01 | 1486375226.8122 | pgbench_branches |          1507328

 2017-02-06 11:00:27.880146+01 | 1486375227.88015 | pgbench_accounts |       1390772224
 2017-02-06 11:00:27.880146+01 | 1486375227.88015 | pgbench_tellers  |          2170880
 2017-02-06 11:00:27.880146+01 | 1486375227.88015 | pgbench_history  |        102858752
 2017-02-06 11:00:27.880146+01 | 1486375227.88015 | pgbench_branches |          1507328

 2017-02-06 11:00:28.952227+01 | 1486375228.95223 | pgbench_accounts |       1390772224
 2017-02-06 11:00:28.952227+01 | 1486375228.95223 | pgbench_tellers  |          2170880
 2017-02-06 11:00:28.952227+01 | 1486375228.95223 | pgbench_history  |        103727104
 2017-02-06 11:00:28.952227+01 | 1486375228.95223 | pgbench_branches |          1507328

 2017-02-06 11:00:30.027997+01 | 1486375230.028 | pgbench_accounts |       1390772224
 2017-02-06 11:00:30.027997+01 | 1486375230.028 | pgbench_tellers  |          2170880
 2017-02-06 11:00:30.027997+01 | 1486375230.028 | pgbench_history  |        104325120
 2017-02-06 11:00:30.027997+01 | 1486375230.028 | pgbench_branches |          1507328

 2017-02-06 11:00:31.098336+01 | 1486375231.09834 | pgbench_accounts |       1390772224
 2017-02-06 11:00:31.098336+01 | 1486375231.09834 | pgbench_tellers  |          2170880
 2017-02-06 11:00:31.098336+01 | 1486375231.09834 | pgbench_history  |        105553920
 2017-02-06 11:00:31.098336+01 | 1486375231.09834 | pgbench_branches |          1507328

 2017-02-06 11:00:32.176067+01 | 1486375232.17607 | pgbench_accounts |       1390772224
 2017-02-06 11:00:32.176067+01 | 1486375232.17607 | pgbench_tellers  |          2170880
 2017-02-06 11:00:32.176067+01 | 1486375232.17607 | pgbench_history  |        106070016
 2017-02-06 11:00:32.176067+01 | 1486375232.17607 | pgbench_branches |          1507328

 2017-02-06 11:00:33.254222+01 | 1486375233.25422 | pgbench_accounts |       1390772224
 2017-02-06 11:00:33.254222+01 | 1486375233.25422 | pgbench_tellers  |          2170880
 2017-02-06 11:00:33.254222+01 | 1486375233.25422 | pgbench_history  |        106938368
 2017-02-06 11:00:33.254222+01 | 1486375233.25422 | pgbench_branches |          1507328

 2017-02-06 11:00:34.336673+01 | 1486375234.33667 | pgbench_accounts |       1390772224
 2017-02-06 11:00:34.336673+01 | 1486375234.33667 | pgbench_tellers  |          2170880
 2017-02-06 11:00:34.336673+01 | 1486375234.33667 | pgbench_history  |        108036096
 2017-02-06 11:00:34.336673+01 | 1486375234.33667 | pgbench_branches |          1507328

 2017-02-06 11:00:35.413733+01 | 1486375235.41373 | pgbench_accounts |       1390772224
 2017-02-06 11:00:35.413733+01 | 1486375235.41373 | pgbench_tellers  |          2170880
 2017-02-06 11:00:35.413733+01 | 1486375235.41373 | pgbench_history  |        108576768
 2017-02-06 11:00:35.413733+01 | 1486375235.41373 | pgbench_branches |          1507328

 2017-02-06 11:00:36.489823+01 | 1486375236.48982 | pgbench_accounts |       1390772224
 2017-02-06 11:00:36.489823+01 | 1486375236.48982 | pgbench_tellers  |          2170880
 2017-02-06 11:00:36.489823+01 | 1486375236.48982 | pgbench_history  |        109559808
 2017-02-06 11:00:36.489823+01 | 1486375236.48982 | pgbench_branches |          1507328

 2017-02-06 11:00:37.578888+01 | 1486375237.57889 | pgbench_accounts |       1390772224
 2017-02-06 11:00:37.578888+01 | 1486375237.57889 | pgbench_tellers  |          2170880
 2017-02-06 11:00:37.578888+01 | 1486375237.57889 | pgbench_history  |        110690304
 2017-02-06 11:00:37.578888+01 | 1486375237.57889 | pgbench_branches |          1507328

 2017-02-06 11:00:38.655911+01 | 1486375238.65591 | pgbench_accounts |       1390772224
 2017-02-06 11:00:38.655911+01 | 1486375238.65591 | pgbench_tellers  |          2170880
 2017-02-06 11:00:38.655911+01 | 1486375238.65591 | pgbench_history  |        111411200
 2017-02-06 11:00:38.655911+01 | 1486375238.65591 | pgbench_branches |          1507328

 2017-02-06 11:00:39.724555+01 | 1486375239.72456 | pgbench_accounts |       1390772224
 2017-02-06 11:00:39.724555+01 | 1486375239.72456 | pgbench_tellers  |          2170880
 2017-02-06 11:00:39.724555+01 | 1486375239.72456 | pgbench_history  |        112771072
 2017-02-06 11:00:39.724555+01 | 1486375239.72456 | pgbench_branches |          1507328

 2017-02-06 11:00:40.798921+01 | 1486375240.79892 | pgbench_accounts |       1390772224
 2017-02-06 11:00:40.798921+01 | 1486375240.79892 | pgbench_tellers  |          2170880
 2017-02-06 11:00:40.798921+01 | 1486375240.79892 | pgbench_history  |        113123328
 2017-02-06 11:00:40.798921+01 | 1486375240.79892 | pgbench_branches |          1507328

 2017-02-06 11:00:41.881698+01 | 1486375241.8817 | pgbench_accounts |       1390772224
 2017-02-06 11:00:41.881698+01 | 1486375241.8817 | pgbench_tellers  |          2170880
 2017-02-06 11:00:41.881698+01 | 1486375241.8817 | pgbench_history  |        113950720
 2017-02-06 11:00:41.881698+01 | 1486375241.8817 | pgbench_branches |          1507328

 2017-02-06 11:00:42.961391+01 | 1486375242.96139 | pgbench_accounts |       1390772224
 2017-02-06 11:00:42.961391+01 | 1486375242.96139 | pgbench_tellers  |          2170880
 2017-02-06 11:00:42.961391+01 | 1486375242.96139 | pgbench_history  |        114892800
 2017-02-06 11:00:42.961391+01 | 1486375242.96139 | pgbench_branches |          1507328

 2017-02-06 11:00:44.037044+01 | 1486375244.03704 | pgbench_accounts |       1390772224
 2017-02-06 11:00:44.037044+01 | 1486375244.03704 | pgbench_tellers  |          2170880
 2017-02-06 11:00:44.037044+01 | 1486375244.03704 | pgbench_history  |        115613696
 2017-02-06 11:00:44.037044+01 | 1486375244.03704 | pgbench_branches |          1507328

 2017-02-06 11:00:45.119103+01 | 1486375245.1191 | pgbench_accounts |       1390772224
 2017-02-06 11:00:45.119103+01 | 1486375245.1191 | pgbench_tellers  |          2170880
 2017-02-06 11:00:45.119103+01 | 1486375245.1191 | pgbench_history  |        116727808
 2017-02-06 11:00:45.119103+01 | 1486375245.1191 | pgbench_branches |          1507328

 2017-02-06 11:00:46.202081+01 | 1486375246.20208 | pgbench_accounts |       1390772224
 2017-02-06 11:00:46.202081+01 | 1486375246.20208 | pgbench_tellers  |          2170880
 2017-02-06 11:00:46.202081+01 | 1486375246.20208 | pgbench_history  |        117612544
 2017-02-06 11:00:46.202081+01 | 1486375246.20208 | pgbench_branches |          1507328

 2017-02-06 11:00:47.276435+01 | 1486375247.27643 | pgbench_accounts |       1390772224
 2017-02-06 11:00:47.276435+01 | 1486375247.27643 | pgbench_tellers  |          2170880
 2017-02-06 11:00:47.276435+01 | 1486375247.27643 | pgbench_history  |        118202368
 2017-02-06 11:00:47.276435+01 | 1486375247.27643 | pgbench_branches |          1507328

 2017-02-06 11:00:48.361199+01 | 1486375248.3612 | pgbench_accounts |       1390772224
 2017-02-06 11:00:48.361199+01 | 1486375248.3612 | pgbench_tellers  |          2170880
 2017-02-06 11:00:48.361199+01 | 1486375248.3612 | pgbench_history  |        119275520
 2017-02-06 11:00:48.361199+01 | 1486375248.3612 | pgbench_branches |          1507328

 2017-02-06 11:00:49.431165+01 | 1486375249.43116 | pgbench_accounts |       1390772224
 2017-02-06 11:00:49.431165+01 | 1486375249.43116 | pgbench_tellers  |          2170880
 2017-02-06 11:00:49.431165+01 | 1486375249.43116 | pgbench_history  |        120250368
 2017-02-06 11:00:49.431165+01 | 1486375249.43116 | pgbench_branches |          1507328

 2017-02-06 11:00:50.504578+01 | 1486375250.50458 | pgbench_accounts |       1390772224
 2017-02-06 11:00:50.504578+01 | 1486375250.50458 | pgbench_tellers  |          2170880
 2017-02-06 11:00:50.504578+01 | 1486375250.50458 | pgbench_history  |        120840192
 2017-02-06 11:00:50.504578+01 | 1486375250.50458 | pgbench_branches |          1507328

 2017-02-06 11:00:51.568271+01 | 1486375251.56827 | pgbench_accounts |       1390772224
 2017-02-06 11:00:51.568271+01 | 1486375251.56827 | pgbench_tellers  |          2170880
 2017-02-06 11:00:51.568271+01 | 1486375251.56827 | pgbench_history  |        121602048
 2017-02-06 11:00:51.568271+01 | 1486375251.56827 | pgbench_branches |          1507328

 2017-02-06 11:00:52.655293+01 | 1486375252.65529 | pgbench_accounts |       1390772224
 2017-02-06 11:00:52.655293+01 | 1486375252.65529 | pgbench_tellers  |          2170880
 2017-02-06 11:00:52.655293+01 | 1486375252.65529 | pgbench_history  |        122535936
 2017-02-06 11:00:52.655293+01 | 1486375252.65529 | pgbench_branches |          1507328

 2017-02-06 11:00:53.731965+01 | 1486375253.73197 | pgbench_accounts |       1390772224
 2017-02-06 11:00:53.731965+01 | 1486375253.73197 | pgbench_tellers  |          2170880
 2017-02-06 11:00:53.731965+01 | 1486375253.73197 | pgbench_history  |        123256832
 2017-02-06 11:00:53.731965+01 | 1486375253.73197 | pgbench_branches |          1507328

 2017-02-06 11:00:54.804894+01 | 1486375254.80489 | pgbench_accounts |       1390772224
 2017-02-06 11:00:54.804894+01 | 1486375254.80489 | pgbench_tellers  |          2170880
 2017-02-06 11:00:54.804894+01 | 1486375254.80489 | pgbench_history  |        124338176
 2017-02-06 11:00:54.804894+01 | 1486375254.80489 | pgbench_branches |          1507328

 2017-02-06 11:00:55.880501+01 | 1486375255.8805 | pgbench_accounts |       1390772224
 2017-02-06 11:00:55.880501+01 | 1486375255.8805 | pgbench_tellers  |          2170880
 2017-02-06 11:00:55.880501+01 | 1486375255.8805 | pgbench_history  |        124911616
 2017-02-06 11:00:55.880501+01 | 1486375255.8805 | pgbench_branches |          1507328

 2017-02-06 11:00:56.954459+01 | 1486375256.95446 | pgbench_accounts |       1390772224
 2017-02-06 11:00:56.954459+01 | 1486375256.95446 | pgbench_tellers  |          2170880
 2017-02-06 11:00:56.954459+01 | 1486375256.95446 | pgbench_history  |        125779968
 2017-02-06 11:00:56.954459+01 | 1486375256.95446 | pgbench_branches |          1507328

 2017-02-06 11:00:58.029374+01 | 1486375258.02937 | pgbench_accounts |       1390772224
 2017-02-06 11:00:58.029374+01 | 1486375258.02937 | pgbench_tellers  |          2170880
 2017-02-06 11:00:58.029374+01 | 1486375258.02937 | pgbench_history  |        127221760
 2017-02-06 11:00:58.029374+01 | 1486375258.02937 | pgbench_branches |          1507328

 2017-02-06 11:00:59.102904+01 | 1486375259.1029 | pgbench_accounts |       1390772224
 2017-02-06 11:00:59.102904+01 | 1486375259.1029 | pgbench_tellers  |          2170880
 2017-02-06 11:00:59.102904+01 | 1486375259.1029 | pgbench_history  |        127737856
 2017-02-06 11:00:59.102904+01 | 1486375259.1029 | pgbench_branches |          1507328

 2017-02-06 11:01:00.174771+01 | 1486375260.17477 | pgbench_accounts |       1390772224
 2017-02-06 11:01:00.174771+01 | 1486375260.17477 | pgbench_tellers  |          2170880
 2017-02-06 11:01:00.174771+01 | 1486375260.17477 | pgbench_history  |        128442368
 2017-02-06 11:01:00.174771+01 | 1486375260.17477 | pgbench_branches |          1507328

 2017-02-06 11:01:01.248024+01 | 1486375261.24802 | pgbench_accounts |       1390772224
 2017-02-06 11:01:01.248024+01 | 1486375261.24802 | pgbench_tellers  |          2170880
 2017-02-06 11:01:01.248024+01 | 1486375261.24802 | pgbench_history  |        129736704
 2017-02-06 11:01:01.248024+01 | 1486375261.24802 | pgbench_branches |          1507328

 2017-02-06 11:01:02.323891+01 | 1486375262.32389 | pgbench_accounts |       1390772224
 2017-02-06 11:01:02.323891+01 | 1486375262.32389 | pgbench_tellers  |          2170880
 2017-02-06 11:01:02.323891+01 | 1486375262.32389 | pgbench_history  |        130465792
 2017-02-06 11:01:02.323891+01 | 1486375262.32389 | pgbench_branches |          1507328

 2017-02-06 11:01:03.395467+01 | 1486375263.39547 | pgbench_accounts |       1390772224
 2017-02-06 11:01:03.395467+01 | 1486375263.39547 | pgbench_tellers  |          2170880
 2017-02-06 11:01:03.395467+01 | 1486375263.39547 | pgbench_history  |        131391488
 2017-02-06 11:01:03.395467+01 | 1486375263.39547 | pgbench_branches |          1507328

 2017-02-06 11:01:04.468393+01 | 1486375264.46839 | pgbench_accounts |       1390772224
 2017-02-06 11:01:04.468393+01 | 1486375264.46839 | pgbench_tellers  |          2170880
 2017-02-06 11:01:04.468393+01 | 1486375264.46839 | pgbench_history  |        132882432
 2017-02-06 11:01:04.468393+01 | 1486375264.46839 | pgbench_branches |          1507328

 2017-02-06 11:01:05.548537+01 | 1486375265.54854 | pgbench_accounts |       1390772224
 2017-02-06 11:01:05.548537+01 | 1486375265.54854 | pgbench_tellers  |          2170880
 2017-02-06 11:01:05.548537+01 | 1486375265.54854 | pgbench_history  |        132882432
 2017-02-06 11:01:05.548537+01 | 1486375265.54854 | pgbench_branches |          1507328

 2017-02-06 11:01:06.619054+01 | 1486375266.61905 | pgbench_accounts |       1390772224
 2017-02-06 11:01:06.619054+01 | 1486375266.61905 | pgbench_tellers  |          2170880
 2017-02-06 11:01:06.619054+01 | 1486375266.61905 | pgbench_history  |        133939200
 2017-02-06 11:01:06.619054+01 | 1486375266.61905 | pgbench_branches |          1507328

 2017-02-06 11:01:07.702864+01 | 1486375267.70286 | pgbench_accounts |       1390772224
 2017-02-06 11:01:07.702864+01 | 1486375267.70286 | pgbench_tellers  |          2170880
 2017-02-06 11:01:07.702864+01 | 1486375267.70286 | pgbench_history  |        134791168
 2017-02-06 11:01:07.702864+01 | 1486375267.70286 | pgbench_branches |          1507328

 2017-02-06 11:01:08.781616+01 | 1486375268.78162 | pgbench_accounts |       1390772224
 2017-02-06 11:01:08.781616+01 | 1486375268.78162 | pgbench_tellers  |          2170880
 2017-02-06 11:01:08.781616+01 | 1486375268.78162 | pgbench_history  |        135495680
 2017-02-06 11:01:08.781616+01 | 1486375268.78162 | pgbench_branches |          1507328

 2017-02-06 11:01:09.855668+01 | 1486375269.85567 | pgbench_accounts |       1390772224
 2017-02-06 11:01:09.855668+01 | 1486375269.85567 | pgbench_tellers  |          2170880
 2017-02-06 11:01:09.855668+01 | 1486375269.85567 | pgbench_history  |        136413184
 2017-02-06 11:01:09.855668+01 | 1486375269.85567 | pgbench_branches |          1507328

 2017-02-06 11:01:10.949387+01 | 1486375270.94939 | pgbench_accounts |       1390772224
 2017-02-06 11:01:10.949387+01 | 1486375270.94939 | pgbench_tellers  |          2170880
 2017-02-06 11:01:10.949387+01 | 1486375270.94939 | pgbench_history  |        137306112
 2017-02-06 11:01:10.949387+01 | 1486375270.94939 | pgbench_branches |          1507328

 2017-02-06 11:01:12.029008+01 | 1486375272.02901 | pgbench_accounts |       1390772224
 2017-02-06 11:01:12.029008+01 | 1486375272.02901 | pgbench_tellers  |          2170880
 2017-02-06 11:01:12.029008+01 | 1486375272.02901 | pgbench_history  |        138084352
 2017-02-06 11:01:12.029008+01 | 1486375272.02901 | pgbench_branches |          1507328

 2017-02-06 11:01:13.100989+01 | 1486375273.10099 | pgbench_accounts |       1390772224
 2017-02-06 11:01:13.100989+01 | 1486375273.10099 | pgbench_tellers  |          2170880
 2017-02-06 11:01:13.100989+01 | 1486375273.10099 | pgbench_history  |        139059200
 2017-02-06 11:01:13.100989+01 | 1486375273.10099 | pgbench_branches |          1507328

 2017-02-06 11:01:14.180813+01 | 1486375274.18081 | pgbench_accounts |       1390772224
 2017-02-06 11:01:14.180813+01 | 1486375274.18081 | pgbench_tellers  |          2170880
 2017-02-06 11:01:14.180813+01 | 1486375274.18081 | pgbench_history  |        140132352
 2017-02-06 11:01:14.180813+01 | 1486375274.18081 | pgbench_branches |          1507328

 2017-02-06 11:01:15.25946+01 | 1486375275.25946 | pgbench_accounts |       1390772224
 2017-02-06 11:01:15.25946+01 | 1486375275.25946 | pgbench_tellers  |          2170880
 2017-02-06 11:01:15.25946+01 | 1486375275.25946 | pgbench_history  |        141033472
 2017-02-06 11:01:15.25946+01 | 1486375275.25946 | pgbench_branches |          1507328

 2017-02-06 11:01:16.334282+01 | 1486375276.33428 | pgbench_accounts |       1390772224
 2017-02-06 11:01:16.334282+01 | 1486375276.33428 | pgbench_tellers  |          2170880
 2017-02-06 11:01:16.334282+01 | 1486375276.33428 | pgbench_history  |        141467648
 2017-02-06 11:01:16.334282+01 | 1486375276.33428 | pgbench_branches |          1507328

 2017-02-06 11:01:17.412194+01 | 1486375277.41219 | pgbench_accounts |       1390772224
 2017-02-06 11:01:17.412194+01 | 1486375277.41219 | pgbench_tellers  |          2170880
 2017-02-06 11:01:17.412194+01 | 1486375277.41219 | pgbench_history  |        142254080
 2017-02-06 11:01:17.412194+01 | 1486375277.41219 | pgbench_branches |          1507328

 2017-02-06 11:01:18.490248+01 | 1486375278.49025 | pgbench_accounts |       1390772224
 2017-02-06 11:01:18.490248+01 | 1486375278.49025 | pgbench_tellers  |          2170880
 2017-02-06 11:01:18.490248+01 | 1486375278.49025 | pgbench_history  |        143155200
 2017-02-06 11:01:18.490248+01 | 1486375278.49025 | pgbench_branches |          1507328

 2017-02-06 11:01:19.55811+01 | 1486375279.55811 | pgbench_accounts |       1390772224
 2017-02-06 11:01:19.55811+01 | 1486375279.55811 | pgbench_tellers  |          2170880
 2017-02-06 11:01:19.55811+01 | 1486375279.55811 | pgbench_history  |        144089088
 2017-02-06 11:01:19.55811+01 | 1486375279.55811 | pgbench_branches |          1507328

 2017-02-06 11:01:20.636068+01 | 1486375280.63607 | pgbench_accounts |       1390772224
 2017-02-06 11:01:20.636068+01 | 1486375280.63607 | pgbench_tellers  |          2170880
 2017-02-06 11:01:20.636068+01 | 1486375280.63607 | pgbench_history  |        144769024
 2017-02-06 11:01:20.636068+01 | 1486375280.63607 | pgbench_branches |          1507328

 2017-02-06 11:01:21.712128+01 | 1486375281.71213 | pgbench_accounts |       1390772224
 2017-02-06 11:01:21.712128+01 | 1486375281.71213 | pgbench_tellers  |          2170880
 2017-02-06 11:01:21.712128+01 | 1486375281.71213 | pgbench_history  |        145760256
 2017-02-06 11:01:21.712128+01 | 1486375281.71213 | pgbench_branches |          1507328

 2017-02-06 11:01:22.790683+01 | 1486375282.79068 | pgbench_accounts |       1390772224
 2017-02-06 11:01:22.790683+01 | 1486375282.79068 | pgbench_tellers  |          2170880
 2017-02-06 11:01:22.790683+01 | 1486375282.79068 | pgbench_history  |        146694144
 2017-02-06 11:01:22.790683+01 | 1486375282.79068 | pgbench_branches |          1507328

 2017-02-06 11:01:23.870552+01 | 1486375283.87055 | pgbench_accounts |       1390772224
 2017-02-06 11:01:23.870552+01 | 1486375283.87055 | pgbench_tellers  |          2170880
 2017-02-06 11:01:23.870552+01 | 1486375283.87055 | pgbench_history  |        147628032
 2017-02-06 11:01:23.870552+01 | 1486375283.87055 | pgbench_branches |          1507328

 2017-02-06 11:01:24.950135+01 | 1486375284.95013 | pgbench_accounts |       1390772224
 2017-02-06 11:01:24.950135+01 | 1486375284.95013 | pgbench_tellers  |          2170880
 2017-02-06 11:01:24.950135+01 | 1486375284.95013 | pgbench_history  |        148340736
 2017-02-06 11:01:24.950135+01 | 1486375284.95013 | pgbench_branches |          1507328

 2017-02-06 11:01:26.027837+01 | 1486375286.02784 | pgbench_accounts |       1390772224
 2017-02-06 11:01:26.027837+01 | 1486375286.02784 | pgbench_tellers  |          2170880
 2017-02-06 11:01:26.027837+01 | 1486375286.02784 | pgbench_history  |        149250048
 2017-02-06 11:01:26.027837+01 | 1486375286.02784 | pgbench_branches |          1507328

 2017-02-06 11:01:27.100495+01 | 1486375287.1005 | pgbench_accounts |       1390772224
 2017-02-06 11:01:27.100495+01 | 1486375287.1005 | pgbench_tellers  |          2170880
 2017-02-06 11:01:27.100495+01 | 1486375287.1005 | pgbench_history  |        150020096
 2017-02-06 11:01:27.100495+01 | 1486375287.1005 | pgbench_branches |          1507328

 2017-02-06 11:01:28.173373+01 | 1486375288.17337 | pgbench_accounts |       1390772224
 2017-02-06 11:01:28.173373+01 | 1486375288.17337 | pgbench_tellers  |          2170880
 2017-02-06 11:01:28.173373+01 | 1486375288.17337 | pgbench_history  |        150929408
 2017-02-06 11:01:28.173373+01 | 1486375288.17337 | pgbench_branches |          1507328

 2017-02-06 11:01:29.244159+01 | 1486375289.24416 | pgbench_accounts |       1390772224
 2017-02-06 11:01:29.244159+01 | 1486375289.24416 | pgbench_tellers  |          2170880
 2017-02-06 11:01:29.244159+01 | 1486375289.24416 | pgbench_history  |        151666688
 2017-02-06 11:01:29.244159+01 | 1486375289.24416 | pgbench_branches |          1507328

 2017-02-06 11:01:30.328179+01 | 1486375290.32818 | pgbench_accounts |       1390772224
 2017-02-06 11:01:30.328179+01 | 1486375290.32818 | pgbench_tellers  |          2170880
 2017-02-06 11:01:30.328179+01 | 1486375290.32818 | pgbench_history  |        152772608
 2017-02-06 11:01:30.328179+01 | 1486375290.32818 | pgbench_branches |          1507328

 2017-02-06 11:01:31.40227+01 | 1486375291.40227 | pgbench_accounts |       1390772224
 2017-02-06 11:01:31.40227+01 | 1486375291.40227 | pgbench_tellers  |          2170880
 2017-02-06 11:01:31.40227+01 | 1486375291.40227 | pgbench_history  |        153493504
 2017-02-06 11:01:31.40227+01 | 1486375291.40227 | pgbench_branches |          1507328

 2017-02-06 11:01:32.485898+01 | 1486375292.4859 | pgbench_accounts |       1390772224
 2017-02-06 11:01:32.485898+01 | 1486375292.4859 | pgbench_tellers  |          2170880
 2017-02-06 11:01:32.485898+01 | 1486375292.4859 | pgbench_history  |        154484736
 2017-02-06 11:01:32.485898+01 | 1486375292.4859 | pgbench_branches |          1507328

 2017-02-06 11:01:33.556933+01 | 1486375293.55693 | pgbench_accounts |       1390772224
 2017-02-06 11:01:33.556933+01 | 1486375293.55693 | pgbench_tellers  |          2170880
 2017-02-06 11:01:33.556933+01 | 1486375293.55693 | pgbench_history  |        155246592
 2017-02-06 11:01:33.556933+01 | 1486375293.55693 | pgbench_branches |          1507328

 2017-02-06 11:01:34.63438+01 | 1486375294.63438 | pgbench_accounts |       1390772224
 2017-02-06 11:01:34.63438+01 | 1486375294.63438 | pgbench_tellers  |          2170880
 2017-02-06 11:01:34.63438+01 | 1486375294.63438 | pgbench_history  |        156114944
 2017-02-06 11:01:34.63438+01 | 1486375294.63438 | pgbench_branches |          1507328

 2017-02-06 11:01:35.70905+01 | 1486375295.70905 | pgbench_accounts |       1390772224
 2017-02-06 11:01:35.70905+01 | 1486375295.70905 | pgbench_tellers  |          2170880
 2017-02-06 11:01:35.70905+01 | 1486375295.70905 | pgbench_history  |        157065216
 2017-02-06 11:01:35.70905+01 | 1486375295.70905 | pgbench_branches |          1507328

 2017-02-06 11:01:36.78305+01 | 1486375296.78305 | pgbench_accounts |       1390772224
 2017-02-06 11:01:36.78305+01 | 1486375296.78305 | pgbench_tellers  |          2170880
 2017-02-06 11:01:36.78305+01 | 1486375296.78305 | pgbench_history  |        157999104
 2017-02-06 11:01:36.78305+01 | 1486375296.78305 | pgbench_branches |          1507328

 2017-02-06 11:01:37.859458+01 | 1486375297.85946 | pgbench_accounts |       1390772224
 2017-02-06 11:01:37.859458+01 | 1486375297.85946 | pgbench_tellers  |          2170880
 2017-02-06 11:01:37.859458+01 | 1486375297.85946 | pgbench_history  |        158580736
 2017-02-06 11:01:37.859458+01 | 1486375297.85946 | pgbench_branches |          1507328

 2017-02-06 11:01:38.932962+01 | 1486375298.93296 | pgbench_accounts |       1390772224
 2017-02-06 11:01:38.932962+01 | 1486375298.93296 | pgbench_tellers  |          2170880
 2017-02-06 11:01:38.932962+01 | 1486375298.93296 | pgbench_history  |        159383552
 2017-02-06 11:01:38.932962+01 | 1486375298.93296 | pgbench_branches |          1507328

 2017-02-06 11:01:39.999205+01 | 1486375299.99921 | pgbench_accounts |       1390772224
 2017-02-06 11:01:39.999205+01 | 1486375299.99921 | pgbench_tellers  |          2170880
 2017-02-06 11:01:39.999205+01 | 1486375299.99921 | pgbench_history  |        160112640
 2017-02-06 11:01:39.999205+01 | 1486375299.99921 | pgbench_branches |          1507328

 2017-02-06 11:01:41.078135+01 | 1486375301.07814 | pgbench_accounts |       1390772224
 2017-02-06 11:01:41.078135+01 | 1486375301.07814 | pgbench_tellers  |          2170880
 2017-02-06 11:01:41.078135+01 | 1486375301.07814 | pgbench_history  |        161095680
 2017-02-06 11:01:41.078135+01 | 1486375301.07814 | pgbench_branches |          1507328

 2017-02-06 11:01:42.154993+01 | 1486375302.15499 | pgbench_accounts |       1390772224
 2017-02-06 11:01:42.154993+01 | 1486375302.15499 | pgbench_tellers  |          2170880
 2017-02-06 11:01:42.154993+01 | 1486375302.15499 | pgbench_history  |        162152448
 2017-02-06 11:01:42.154993+01 | 1486375302.15499 | pgbench_branches |          1507328

 2017-02-06 11:01:43.233474+01 | 1486375303.23347 | pgbench_accounts |       1390772224
 2017-02-06 11:01:43.233474+01 | 1486375303.23347 | pgbench_tellers  |          2170880
 2017-02-06 11:01:43.233474+01 | 1486375303.23347 | pgbench_history  |        162947072
 2017-02-06 11:01:43.233474+01 | 1486375303.23347 | pgbench_branches |          1507328

 2017-02-06 11:01:44.312153+01 | 1486375304.31215 | pgbench_accounts |       1390772224
 2017-02-06 11:01:44.312153+01 | 1486375304.31215 | pgbench_tellers  |          2170880
 2017-02-06 11:01:44.312153+01 | 1486375304.31215 | pgbench_history  |        163463168
 2017-02-06 11:01:44.312153+01 | 1486375304.31215 | pgbench_branches |          1507328

 2017-02-06 11:01:45.387786+01 | 1486375305.38779 | pgbench_accounts |       1390772224
 2017-02-06 11:01:45.387786+01 | 1486375305.38779 | pgbench_tellers  |          2170880
 2017-02-06 11:01:45.387786+01 | 1486375305.38779 | pgbench_history  |        164397056
 2017-02-06 11:01:45.387786+01 | 1486375305.38779 | pgbench_branches |          1507328

 2017-02-06 11:01:46.462657+01 | 1486375306.46266 | pgbench_accounts |       1390772224
 2017-02-06 11:01:46.462657+01 | 1486375306.46266 | pgbench_tellers  |          2170880
 2017-02-06 11:01:46.462657+01 | 1486375306.46266 | pgbench_history  |        165511168
 2017-02-06 11:01:46.462657+01 | 1486375306.46266 | pgbench_branches |          1507328

 2017-02-06 11:01:47.547669+01 | 1486375307.54767 | pgbench_accounts |       1390772224
 2017-02-06 11:01:47.547669+01 | 1486375307.54767 | pgbench_tellers  |          2170880
 2017-02-06 11:01:47.547669+01 | 1486375307.54767 | pgbench_history  |        166486016
 2017-02-06 11:01:47.547669+01 | 1486375307.54767 | pgbench_branches |          1507328

 2017-02-06 11:01:48.616063+01 | 1486375308.61606 | pgbench_accounts |       1390772224
 2017-02-06 11:01:48.616063+01 | 1486375308.61606 | pgbench_tellers  |          2170880
 2017-02-06 11:01:48.616063+01 | 1486375308.61606 | pgbench_history  |        167026688
 2017-02-06 11:01:48.616063+01 | 1486375308.61606 | pgbench_branches |          1507328

 2017-02-06 11:01:49.695027+01 | 1486375309.69503 | pgbench_accounts |       1390772224
 2017-02-06 11:01:49.695027+01 | 1486375309.69503 | pgbench_tellers  |          2170880
 2017-02-06 11:01:49.695027+01 | 1486375309.69503 | pgbench_history  |        167960576
 2017-02-06 11:01:49.695027+01 | 1486375309.69503 | pgbench_branches |          1507328

 2017-02-06 11:01:50.766415+01 | 1486375310.76642 | pgbench_accounts |       1390772224
 2017-02-06 11:01:50.766415+01 | 1486375310.76642 | pgbench_tellers  |          2170880
 2017-02-06 11:01:50.766415+01 | 1486375310.76642 | pgbench_history  |        168484864
 2017-02-06 11:01:50.766415+01 | 1486375310.76642 | pgbench_branches |          1507328

 2017-02-06 11:01:51.844872+01 | 1486375311.84487 | pgbench_accounts |       1390772224
 2017-02-06 11:01:51.844872+01 | 1486375311.84487 | pgbench_tellers  |          2170880
 2017-02-06 11:01:51.844872+01 | 1486375311.84487 | pgbench_history  |        169926656
 2017-02-06 11:01:51.844872+01 | 1486375311.84487 | pgbench_branches |          1507328

 2017-02-06 11:01:52.92571+01 | 1486375312.92571 | pgbench_accounts |       1390772224
 2017-02-06 11:01:52.92571+01 | 1486375312.92571 | pgbench_tellers  |          2170880
 2017-02-06 11:01:52.92571+01 | 1486375312.92571 | pgbench_history  |        170287104
 2017-02-06 11:01:52.92571+01 | 1486375312.92571 | pgbench_branches |          1507328

 2017-02-06 11:01:54.012362+01 | 1486375314.01236 | pgbench_accounts |       1390772224
 2017-02-06 11:01:54.012362+01 | 1486375314.01236 | pgbench_tellers  |          2170880
 2017-02-06 11:01:54.012362+01 | 1486375314.01236 | pgbench_history  |        171163648
 2017-02-06 11:01:54.012362+01 | 1486375314.01236 | pgbench_branches |          1507328

 2017-02-06 11:01:55.085837+01 | 1486375315.08584 | pgbench_accounts |       1390772224
 2017-02-06 11:01:55.085837+01 | 1486375315.08584 | pgbench_tellers  |          2170880
 2017-02-06 11:01:55.085837+01 | 1486375315.08584 | pgbench_history  |        172441600
 2017-02-06 11:01:55.085837+01 | 1486375315.08584 | pgbench_branches |          1507328

 2017-02-06 11:01:56.159281+01 | 1486375316.15928 | pgbench_accounts |       1390772224
 2017-02-06 11:01:56.159281+01 | 1486375316.15928 | pgbench_tellers  |          2170880
 2017-02-06 11:01:56.159281+01 | 1486375316.15928 | pgbench_history  |        172957696
 2017-02-06 11:01:56.159281+01 | 1486375316.15928 | pgbench_branches |          1507328

 2017-02-06 11:01:57.235677+01 | 1486375317.23568 | pgbench_accounts |       1390772224
 2017-02-06 11:01:57.235677+01 | 1486375317.23568 | pgbench_tellers  |          2170880
 2017-02-06 11:01:57.235677+01 | 1486375317.23568 | pgbench_history  |        174022656
 2017-02-06 11:01:57.235677+01 | 1486375317.23568 | pgbench_branches |          1507328

 2017-02-06 11:01:58.318046+01 | 1486375318.31805 | pgbench_accounts |       1390772224
 2017-02-06 11:01:58.318046+01 | 1486375318.31805 | pgbench_tellers  |          2170880
 2017-02-06 11:01:58.318046+01 | 1486375318.31805 | pgbench_history  |        174702592
 2017-02-06 11:01:58.318046+01 | 1486375318.31805 | pgbench_branches |          1507328

 2017-02-06 11:01:59.393966+01 | 1486375319.39397 | pgbench_accounts |       1390772224
 2017-02-06 11:01:59.393966+01 | 1486375319.39397 | pgbench_tellers  |          2170880
 2017-02-06 11:01:59.393966+01 | 1486375319.39397 | pgbench_history  |        175497216
 2017-02-06 11:01:59.393966+01 | 1486375319.39397 | pgbench_branches |          1507328

 2017-02-06 11:02:00.468211+01 | 1486375320.46821 | pgbench_accounts |       1390772224
 2017-02-06 11:02:00.468211+01 | 1486375320.46821 | pgbench_tellers  |          2170880
 2017-02-06 11:02:00.468211+01 | 1486375320.46821 | pgbench_history  |        176242688
 2017-02-06 11:02:00.468211+01 | 1486375320.46821 | pgbench_branches |          1507328

 2017-02-06 11:02:01.555281+01 | 1486375321.55528 | pgbench_accounts |       1390772224
 2017-02-06 11:02:01.555281+01 | 1486375321.55528 | pgbench_tellers  |          2170880
 2017-02-06 11:02:01.555281+01 | 1486375321.55528 | pgbench_history  |        177201152
 2017-02-06 11:02:01.555281+01 | 1486375321.55528 | pgbench_branches |          1507328

 2017-02-06 11:02:02.648016+01 | 1486375322.64802 | pgbench_accounts |       1390772224
 2017-02-06 11:02:02.648016+01 | 1486375322.64802 | pgbench_tellers  |          2170880
 2017-02-06 11:02:02.648016+01 | 1486375322.64802 | pgbench_history  |        178323456
 2017-02-06 11:02:02.648016+01 | 1486375322.64802 | pgbench_branches |          1507328

 2017-02-06 11:02:03.728565+01 | 1486375323.72856 | pgbench_accounts |       1390772224
 2017-02-06 11:02:03.728565+01 | 1486375323.72856 | pgbench_tellers  |          2170880
 2017-02-06 11:02:03.728565+01 | 1486375323.72856 | pgbench_history  |        178839552
 2017-02-06 11:02:03.728565+01 | 1486375323.72856 | pgbench_branches |          1507328

 2017-02-06 11:02:04.809998+01 | 1486375324.81 | pgbench_accounts |       1390772224
 2017-02-06 11:02:04.809998+01 | 1486375324.81 | pgbench_tellers  |          2170880
 2017-02-06 11:02:04.809998+01 | 1486375324.81 | pgbench_history  |        179929088
 2017-02-06 11:02:04.809998+01 | 1486375324.81 | pgbench_branches |          1507328

 2017-02-06 11:02:05.886959+01 | 1486375325.88696 | pgbench_accounts |       1390772224
 2017-02-06 11:02:05.886959+01 | 1486375325.88696 | pgbench_tellers  |          2170880
 2017-02-06 11:02:05.886959+01 | 1486375325.88696 | pgbench_history  |        180559872
 2017-02-06 11:02:05.886959+01 | 1486375325.88696 | pgbench_branches |          1507328

 2017-02-06 11:02:06.964342+01 | 1486375326.96434 | pgbench_accounts |       1390772224
 2017-02-06 11:02:06.964342+01 | 1486375326.96434 | pgbench_tellers  |          2170880
 2017-02-06 11:02:06.964342+01 | 1486375326.96434 | pgbench_history  |        181264384
 2017-02-06 11:02:06.964342+01 | 1486375326.96434 | pgbench_branches |          1507328

 2017-02-06 11:02:08.042629+01 | 1486375328.04263 | pgbench_accounts |       1390772224
 2017-02-06 11:02:08.042629+01 | 1486375328.04263 | pgbench_tellers  |          2170880
 2017-02-06 11:02:08.042629+01 | 1486375328.04263 | pgbench_history  |        182362112
 2017-02-06 11:02:08.042629+01 | 1486375328.04263 | pgbench_branches |          1507328

 2017-02-06 11:02:09.120081+01 | 1486375329.12008 | pgbench_accounts |       1390772224
 2017-02-06 11:02:09.120081+01 | 1486375329.12008 | pgbench_tellers  |          2170880
 2017-02-06 11:02:09.120081+01 | 1486375329.12008 | pgbench_history  |        183066624
 2017-02-06 11:02:09.120081+01 | 1486375329.12008 | pgbench_branches |          1507328

 2017-02-06 11:02:10.190555+01 | 1486375330.19056 | pgbench_accounts |       1390772224
 2017-02-06 11:02:10.190555+01 | 1486375330.19056 | pgbench_tellers  |          2170880
 2017-02-06 11:02:10.190555+01 | 1486375330.19056 | pgbench_history  |        183681024
 2017-02-06 11:02:10.190555+01 | 1486375330.19056 | pgbench_branches |          1507328

 2017-02-06 11:02:11.264303+01 | 1486375331.2643 | pgbench_accounts |       1390772224
 2017-02-06 11:02:11.264303+01 | 1486375331.2643 | pgbench_tellers  |          2170880
 2017-02-06 11:02:11.264303+01 | 1486375331.2643 | pgbench_history  |        184754176
 2017-02-06 11:02:11.264303+01 | 1486375331.2643 | pgbench_branches |          1507328

 2017-02-06 11:02:12.335157+01 | 1486375332.33516 | pgbench_accounts |       1390772224
 2017-02-06 11:02:12.335157+01 | 1486375332.33516 | pgbench_tellers  |          2170880
 2017-02-06 11:02:12.335157+01 | 1486375332.33516 | pgbench_history  |        185450496
 2017-02-06 11:02:12.335157+01 | 1486375332.33516 | pgbench_branches |          1507328

 2017-02-06 11:02:13.413956+01 | 1486375333.41396 | pgbench_accounts |       1390772224
 2017-02-06 11:02:13.413956+01 | 1486375333.41396 | pgbench_tellers  |          2170880
 2017-02-06 11:02:13.413956+01 | 1486375333.41396 | pgbench_history  |        186359808
 2017-02-06 11:02:13.413956+01 | 1486375333.41396 | pgbench_branches |          1507328

 2017-02-06 11:02:14.483689+01 | 1486375334.48369 | pgbench_accounts |       1390772224
 2017-02-06 11:02:14.483689+01 | 1486375334.48369 | pgbench_tellers  |          2170880
 2017-02-06 11:02:14.483689+01 | 1486375334.48369 | pgbench_history  |        187310080
 2017-02-06 11:02:14.483689+01 | 1486375334.48369 | pgbench_branches |          1507328

 2017-02-06 11:02:15.556894+01 | 1486375335.55689 | pgbench_accounts |       1390772224
 2017-02-06 11:02:15.556894+01 | 1486375335.55689 | pgbench_tellers  |          2170880
 2017-02-06 11:02:15.556894+01 | 1486375335.55689 | pgbench_history  |        188235776
 2017-02-06 11:02:15.556894+01 | 1486375335.55689 | pgbench_branches |          1507328

 2017-02-06 11:02:16.633176+01 | 1486375336.63318 | pgbench_accounts |       1390772224
 2017-02-06 11:02:16.633176+01 | 1486375336.63318 | pgbench_tellers  |          2170880
 2017-02-06 11:02:16.633176+01 | 1486375336.63318 | pgbench_history  |        188817408
 2017-02-06 11:02:16.633176+01 | 1486375336.63318 | pgbench_branches |          1507328

 2017-02-06 11:02:17.714259+01 | 1486375337.71426 | pgbench_accounts |       1390772224
 2017-02-06 11:02:17.714259+01 | 1486375337.71426 | pgbench_tellers  |          2170880
 2017-02-06 11:02:17.714259+01 | 1486375337.71426 | pgbench_history  |        189562880
 2017-02-06 11:02:17.714259+01 | 1486375337.71426 | pgbench_branches |          1507328

 2017-02-06 11:02:18.785917+01 | 1486375338.78592 | pgbench_accounts |       1390772224
 2017-02-06 11:02:18.785917+01 | 1486375338.78592 | pgbench_tellers  |          2170880
 2017-02-06 11:02:18.785917+01 | 1486375338.78592 | pgbench_history  |        190472192
 2017-02-06 11:02:18.785917+01 | 1486375338.78592 | pgbench_branches |          1507328

 2017-02-06 11:02:19.865073+01 | 1486375339.86507 | pgbench_accounts |       1390772224
 2017-02-06 11:02:19.865073+01 | 1486375339.86507 | pgbench_tellers  |          2170880
 2017-02-06 11:02:19.865073+01 | 1486375339.86507 | pgbench_history  |        191332352
 2017-02-06 11:02:19.865073+01 | 1486375339.86507 | pgbench_branches |          1507328

 2017-02-06 11:02:20.936164+01 | 1486375340.93616 | pgbench_accounts |       1390772224
 2017-02-06 11:02:20.936164+01 | 1486375340.93616 | pgbench_tellers  |          2170880
 2017-02-06 11:02:20.936164+01 | 1486375340.93616 | pgbench_history  |        192102400
 2017-02-06 11:02:20.936164+01 | 1486375340.93616 | pgbench_branches |          1507328

 2017-02-06 11:02:22.019372+01 | 1486375342.01937 | pgbench_accounts |       1390772224
 2017-02-06 11:02:22.019372+01 | 1486375342.01937 | pgbench_tellers  |          2170880
 2017-02-06 11:02:22.019372+01 | 1486375342.01937 | pgbench_history  |        192831488
 2017-02-06 11:02:22.019372+01 | 1486375342.01937 | pgbench_branches |          1507328

 2017-02-06 11:02:23.088726+01 | 1486375343.08873 | pgbench_accounts |       1390772224
 2017-02-06 11:02:23.088726+01 | 1486375343.08873 | pgbench_tellers  |          2170880
 2017-02-06 11:02:23.088726+01 | 1486375343.08873 | pgbench_history  |        194232320
 2017-02-06 11:02:23.088726+01 | 1486375343.08873 | pgbench_branches |          1507328

 2017-02-06 11:02:24.161208+01 | 1486375344.16121 | pgbench_accounts |       1390772224
 2017-02-06 11:02:24.161208+01 | 1486375344.16121 | pgbench_tellers  |          2170880
 2017-02-06 11:02:24.161208+01 | 1486375344.16121 | pgbench_history  |        194584576
 2017-02-06 11:02:24.161208+01 | 1486375344.16121 | pgbench_branches |          1507328

 2017-02-06 11:02:25.242596+01 | 1486375345.2426 | pgbench_accounts |       1390772224
 2017-02-06 11:02:25.242596+01 | 1486375345.2426 | pgbench_tellers  |          2170880
 2017-02-06 11:02:25.242596+01 | 1486375345.2426 | pgbench_history  |        195698688
 2017-02-06 11:02:25.242596+01 | 1486375345.2426 | pgbench_branches |          1507328

 2017-02-06 11:02:26.320764+01 | 1486375346.32076 | pgbench_accounts |       1390772224
 2017-02-06 11:02:26.320764+01 | 1486375346.32076 | pgbench_tellers  |          2170880
 2017-02-06 11:02:26.320764+01 | 1486375346.32076 | pgbench_history  |        196599808
 2017-02-06 11:02:26.320764+01 | 1486375346.32076 | pgbench_branches |          1507328

 2017-02-06 11:02:27.397857+01 | 1486375347.39786 | pgbench_accounts |       1390772224
 2017-02-06 11:02:27.397857+01 | 1486375347.39786 | pgbench_tellers  |          2170880
 2017-02-06 11:02:27.397857+01 | 1486375347.39786 | pgbench_history  |        197009408
 2017-02-06 11:02:27.397857+01 | 1486375347.39786 | pgbench_branches |          1507328

 2017-02-06 11:02:28.479835+01 | 1486375348.47984 | pgbench_accounts |       1390772224
 2017-02-06 11:02:28.479835+01 | 1486375348.47984 | pgbench_tellers  |          2170880
 2017-02-06 11:02:28.479835+01 | 1486375348.47984 | pgbench_history  |        197959680
 2017-02-06 11:02:28.479835+01 | 1486375348.47984 | pgbench_branches |          1507328

 2017-02-06 11:02:29.551737+01 | 1486375349.55174 | pgbench_accounts |       1390772224
 2017-02-06 11:02:29.551737+01 | 1486375349.55174 | pgbench_tellers  |          2170880
 2017-02-06 11:02:29.551737+01 | 1486375349.55174 | pgbench_history  |        199213056
 2017-02-06 11:02:29.551737+01 | 1486375349.55174 | pgbench_branches |          1507328

 2017-02-06 11:02:30.62962+01 | 1486375350.62962 | pgbench_accounts |       1390772224
 2017-02-06 11:02:30.62962+01 | 1486375350.62962 | pgbench_tellers  |          2170880
 2017-02-06 11:02:30.62962+01 | 1486375350.62962 | pgbench_history  |        199589888
 2017-02-06 11:02:30.62962+01 | 1486375350.62962 | pgbench_branches |          1507328

 2017-02-06 11:02:31.703397+01 | 1486375351.7034 | pgbench_accounts |       1390772224
 2017-02-06 11:02:31.703397+01 | 1486375351.7034 | pgbench_tellers  |          2170880
 2017-02-06 11:02:31.703397+01 | 1486375351.7034 | pgbench_history  |        200327168
 2017-02-06 11:02:31.703397+01 | 1486375351.7034 | pgbench_branches |          1507328

 2017-02-06 11:02:32.782366+01 | 1486375352.78237 | pgbench_accounts |       1390772224
 2017-02-06 11:02:32.782366+01 | 1486375352.78237 | pgbench_tellers  |          2170880
 2017-02-06 11:02:32.782366+01 | 1486375352.78237 | pgbench_history  |        201285632
 2017-02-06 11:02:32.782366+01 | 1486375352.78237 | pgbench_branches |          1507328

 2017-02-06 11:02:33.855856+01 | 1486375353.85586 | pgbench_accounts |       1390772224
 2017-02-06 11:02:33.855856+01 | 1486375353.85586 | pgbench_tellers  |          2170880
 2017-02-06 11:02:33.855856+01 | 1486375353.85586 | pgbench_history  |        202162176
 2017-02-06 11:02:33.855856+01 | 1486375353.85586 | pgbench_branches |          1507328

 2017-02-06 11:02:34.928679+01 | 1486375354.92868 | pgbench_accounts |       1390772224
 2017-02-06 11:02:34.928679+01 | 1486375354.92868 | pgbench_tellers  |          2170880
 2017-02-06 11:02:34.928679+01 | 1486375354.92868 | pgbench_history  |        203063296
 2017-02-06 11:02:34.928679+01 | 1486375354.92868 | pgbench_branches |          1507328

 2017-02-06 11:02:36.001477+01 | 1486375356.00148 | pgbench_accounts |       1390772224
 2017-02-06 11:02:36.001477+01 | 1486375356.00148 | pgbench_tellers  |          2170880
 2017-02-06 11:02:36.001477+01 | 1486375356.00148 | pgbench_history  |        203808768
 2017-02-06 11:02:36.001477+01 | 1486375356.00148 | pgbench_branches |          1507328

 2017-02-06 11:02:37.077306+01 | 1486375357.07731 | pgbench_accounts |       1390772224
 2017-02-06 11:02:37.077306+01 | 1486375357.07731 | pgbench_tellers  |          2170880
 2017-02-06 11:02:37.077306+01 | 1486375357.07731 | pgbench_history  |        204578816
 2017-02-06 11:02:37.077306+01 | 1486375357.07731 | pgbench_branches |          1507328

 2017-02-06 11:02:38.149933+01 | 1486375358.14993 | pgbench_accounts |       1390772224
 2017-02-06 11:02:38.149933+01 | 1486375358.14993 | pgbench_tellers  |          2170880
 2017-02-06 11:02:38.149933+01 | 1486375358.14993 | pgbench_history  |        205520896
 2017-02-06 11:02:38.149933+01 | 1486375358.14993 | pgbench_branches |          1507328

 2017-02-06 11:02:39.226138+01 | 1486375359.22614 | pgbench_accounts |       1390772224
 2017-02-06 11:02:39.226138+01 | 1486375359.22614 | pgbench_tellers  |          2170880
 2017-02-06 11:02:39.226138+01 | 1486375359.22614 | pgbench_history  |        206282752
 2017-02-06 11:02:39.226138+01 | 1486375359.22614 | pgbench_branches |          1507328

 2017-02-06 11:02:40.301772+01 | 1486375360.30177 | pgbench_accounts |       1390772224
 2017-02-06 11:02:40.301772+01 | 1486375360.30177 | pgbench_tellers  |          2170880
 2017-02-06 11:02:40.301772+01 | 1486375360.30177 | pgbench_history  |        207175680
 2017-02-06 11:02:40.301772+01 | 1486375360.30177 | pgbench_branches |          1507328

 2017-02-06 11:02:41.375697+01 | 1486375361.3757 | pgbench_accounts |       1390772224
 2017-02-06 11:02:41.375697+01 | 1486375361.3757 | pgbench_tellers  |          2170880
 2017-02-06 11:02:41.375697+01 | 1486375361.3757 | pgbench_history  |        207953920
 2017-02-06 11:02:41.375697+01 | 1486375361.3757 | pgbench_branches |          1507328

 2017-02-06 11:02:42.450649+01 | 1486375362.45065 | pgbench_accounts |       1390772224
 2017-02-06 11:02:42.450649+01 | 1486375362.45065 | pgbench_tellers  |          2170880
 2017-02-06 11:02:42.450649+01 | 1486375362.45065 | pgbench_history  |        209092608
 2017-02-06 11:02:42.450649+01 | 1486375362.45065 | pgbench_branches |          1507328

 2017-02-06 11:02:43.526506+01 | 1486375363.52651 | pgbench_accounts |       1390772224
 2017-02-06 11:02:43.526506+01 | 1486375363.52651 | pgbench_tellers  |          2170880
 2017-02-06 11:02:43.526506+01 | 1486375363.52651 | pgbench_history  |        210010112
 2017-02-06 11:02:43.526506+01 | 1486375363.52651 | pgbench_branches |          1507328

 2017-02-06 11:02:44.602057+01 | 1486375364.60206 | pgbench_accounts |       1390772224
 2017-02-06 11:02:44.602057+01 | 1486375364.60206 | pgbench_tellers  |          2170880
 2017-02-06 11:02:44.602057+01 | 1486375364.60206 | pgbench_history  |        210690048
 2017-02-06 11:02:44.602057+01 | 1486375364.60206 | pgbench_branches |          1507328

 2017-02-06 11:02:45.6766+01 | 1486375365.6766 | pgbench_accounts |       1390772224
 2017-02-06 11:02:45.6766+01 | 1486375365.6766 | pgbench_tellers  |          2170880
 2017-02-06 11:02:45.6766+01 | 1486375365.6766 | pgbench_history  |        211402752
 2017-02-06 11:02:45.6766+01 | 1486375365.6766 | pgbench_branches |          1507328

 2017-02-06 11:02:46.748163+01 | 1486375366.74816 | pgbench_accounts |       1390772224
 2017-02-06 11:02:46.748163+01 | 1486375366.74816 | pgbench_tellers  |          2170880
 2017-02-06 11:02:46.748163+01 | 1486375366.74816 | pgbench_history  |        212303872
 2017-02-06 11:02:46.748163+01 | 1486375366.74816 | pgbench_branches |          1507328

 2017-02-06 11:02:47.825606+01 | 1486375367.82561 | pgbench_accounts |       1390772224
 2017-02-06 11:02:47.825606+01 | 1486375367.82561 | pgbench_tellers  |          2170880
 2017-02-06 11:02:47.825606+01 | 1486375367.82561 | pgbench_history  |        213065728
 2017-02-06 11:02:47.825606+01 | 1486375367.82561 | pgbench_branches |          1507328

 2017-02-06 11:02:48.902126+01 | 1486375368.90213 | pgbench_accounts |       1390772224
 2017-02-06 11:02:48.902126+01 | 1486375368.90213 | pgbench_tellers  |          2170880
 2017-02-06 11:02:48.902126+01 | 1486375368.90213 | pgbench_history  |        213835776
 2017-02-06 11:02:48.902126+01 | 1486375368.90213 | pgbench_branches |          1507328

 2017-02-06 11:02:49.986964+01 | 1486375369.98696 | pgbench_accounts |       1390772224
 2017-02-06 11:02:49.986964+01 | 1486375369.98696 | pgbench_tellers  |          2170880
 2017-02-06 11:02:49.986964+01 | 1486375369.98696 | pgbench_history  |        214761472
 2017-02-06 11:02:49.986964+01 | 1486375369.98696 | pgbench_branches |          1507328

 2017-02-06 11:02:51.072617+01 | 1486375371.07262 | pgbench_accounts |       1390772224
 2017-02-06 11:02:51.072617+01 | 1486375371.07262 | pgbench_tellers  |          2170880
 2017-02-06 11:02:51.072617+01 | 1486375371.07262 | pgbench_history  |        215556096
 2017-02-06 11:02:51.072617+01 | 1486375371.07262 | pgbench_branches |          1507328

 2017-02-06 11:02:52.149077+01 | 1486375372.14908 | pgbench_accounts |       1390772224
 2017-02-06 11:02:52.149077+01 | 1486375372.14908 | pgbench_tellers  |          2170880
 2017-02-06 11:02:52.149077+01 | 1486375372.14908 | pgbench_history  |        216489984
 2017-02-06 11:02:52.149077+01 | 1486375372.14908 | pgbench_branches |          1507328

 2017-02-06 11:02:53.220497+01 | 1486375373.2205 | pgbench_accounts |       1390772224
 2017-02-06 11:02:53.220497+01 | 1486375373.2205 | pgbench_tellers  |          2170880
 2017-02-06 11:02:53.220497+01 | 1486375373.2205 | pgbench_history  |        217210880
 2017-02-06 11:02:53.220497+01 | 1486375373.2205 | pgbench_branches |          1507328

 2017-02-06 11:02:54.311203+01 | 1486375374.3112 | pgbench_accounts |       1390772224
 2017-02-06 11:02:54.311203+01 | 1486375374.3112 | pgbench_tellers  |          2170880
 2017-02-06 11:02:54.311203+01 | 1486375374.3112 | pgbench_history  |        218611712
 2017-02-06 11:02:54.311203+01 | 1486375374.3112 | pgbench_branches |          1507328

 2017-02-06 11:02:55.380164+01 | 1486375375.38016 | pgbench_accounts |       1390772224
 2017-02-06 11:02:55.380164+01 | 1486375375.38016 | pgbench_tellers  |          2170880
 2017-02-06 11:02:55.380164+01 | 1486375375.38016 | pgbench_history  |        219013120
 2017-02-06 11:02:55.380164+01 | 1486375375.38016 | pgbench_branches |          1507328

 2017-02-06 11:02:56.458643+01 | 1486375376.45864 | pgbench_accounts |       1390772224
 2017-02-06 11:02:56.458643+01 | 1486375376.45864 | pgbench_tellers  |          2170880
 2017-02-06 11:02:56.458643+01 | 1486375376.45864 | pgbench_history  |        219881472
 2017-02-06 11:02:56.458643+01 | 1486375376.45864 | pgbench_branches |          1507328

 2017-02-06 11:02:57.536227+01 | 1486375377.53623 | pgbench_accounts |       1390772224
 2017-02-06 11:02:57.536227+01 | 1486375377.53623 | pgbench_tellers  |          2170880
 2017-02-06 11:02:57.536227+01 | 1486375377.53623 | pgbench_history  |        220585984
 2017-02-06 11:02:57.536227+01 | 1486375377.53623 | pgbench_branches |          1507328

 2017-02-06 11:02:58.612777+01 | 1486375378.61278 | pgbench_accounts |       1390772224
 2017-02-06 11:02:58.612777+01 | 1486375378.61278 | pgbench_tellers  |          2170880
 2017-02-06 11:02:58.612777+01 | 1486375378.61278 | pgbench_history  |        221487104
 2017-02-06 11:02:58.612777+01 | 1486375378.61278 | pgbench_branches |          1507328

 2017-02-06 11:02:59.685589+01 | 1486375379.68559 | pgbench_accounts |       1390772224
 2017-02-06 11:02:59.685589+01 | 1486375379.68559 | pgbench_tellers  |          2170880
 2017-02-06 11:02:59.685589+01 | 1486375379.68559 | pgbench_history  |        222576640
 2017-02-06 11:02:59.685589+01 | 1486375379.68559 | pgbench_branches |          1507328

 2017-02-06 11:03:00.766328+01 | 1486375380.76633 | pgbench_accounts |       1390772224
 2017-02-06 11:03:00.766328+01 | 1486375380.76633 | pgbench_tellers  |          2170880
 2017-02-06 11:03:00.766328+01 | 1486375380.76633 | pgbench_history  |        223338496
 2017-02-06 11:03:00.766328+01 | 1486375380.76633 | pgbench_branches |          1507328

 2017-02-06 11:03:01.848032+01 | 1486375381.84803 | pgbench_accounts |       1390772224
 2017-02-06 11:03:01.848032+01 | 1486375381.84803 | pgbench_tellers  |          2170880
 2017-02-06 11:03:01.848032+01 | 1486375381.84803 | pgbench_history  |        223952896
 2017-02-06 11:03:01.848032+01 | 1486375381.84803 | pgbench_branches |          1507328

 2017-02-06 11:03:02.923565+01 | 1486375382.92356 | pgbench_accounts |       1390772224
 2017-02-06 11:03:02.923565+01 | 1486375382.92356 | pgbench_tellers  |          2170880
 2017-02-06 11:03:02.923565+01 | 1486375382.92356 | pgbench_history  |        225230848
 2017-02-06 11:03:02.923565+01 | 1486375382.92356 | pgbench_branches |          1507328

 2017-02-06 11:03:03.990613+01 | 1486375383.99061 | pgbench_accounts |       1390772224
 2017-02-06 11:03:03.990613+01 | 1486375383.99061 | pgbench_tellers  |          2170880
 2017-02-06 11:03:03.990613+01 | 1486375383.99061 | pgbench_history  |        225656832
 2017-02-06 11:03:03.990613+01 | 1486375383.99061 | pgbench_branches |          1507328

 2017-02-06 11:03:05.068828+01 | 1486375385.06883 | pgbench_accounts |       1390772224
 2017-02-06 11:03:05.068828+01 | 1486375385.06883 | pgbench_tellers  |          2170880
 2017-02-06 11:03:05.068828+01 | 1486375385.06883 | pgbench_history  |        226574336
 2017-02-06 11:03:05.068828+01 | 1486375385.06883 | pgbench_branches |          1507328

 2017-02-06 11:03:06.141181+01 | 1486375386.14118 | pgbench_accounts |       1390772224
 2017-02-06 11:03:06.141181+01 | 1486375386.14118 | pgbench_tellers  |          2170880
 2017-02-06 11:03:06.141181+01 | 1486375386.14118 | pgbench_history  |        227319808
 2017-02-06 11:03:06.141181+01 | 1486375386.14118 | pgbench_branches |          1507328

 2017-02-06 11:03:07.215094+01 | 1486375387.21509 | pgbench_accounts |       1390772224
 2017-02-06 11:03:07.215094+01 | 1486375387.21509 | pgbench_tellers  |          2170880
 2017-02-06 11:03:07.215094+01 | 1486375387.21509 | pgbench_history  |        228401152
 2017-02-06 11:03:07.215094+01 | 1486375387.21509 | pgbench_branches |          1507328

 2017-02-06 11:03:08.28936+01 | 1486375388.28936 | pgbench_accounts |       1390772224
 2017-02-06 11:03:08.28936+01 | 1486375388.28936 | pgbench_tellers  |          2170880
 2017-02-06 11:03:08.28936+01 | 1486375388.28936 | pgbench_history  |        228941824
 2017-02-06 11:03:08.28936+01 | 1486375388.28936 | pgbench_branches |          1507328

 2017-02-06 11:03:09.361894+01 | 1486375389.36189 | pgbench_accounts |       1390772224
 2017-02-06 11:03:09.361894+01 | 1486375389.36189 | pgbench_tellers  |          2170880
 2017-02-06 11:03:09.361894+01 | 1486375389.36189 | pgbench_history  |        230162432
 2017-02-06 11:03:09.361894+01 | 1486375389.36189 | pgbench_branches |          1507328

 2017-02-06 11:03:10.43702+01 | 1486375390.43702 | pgbench_accounts |       1390772224
 2017-02-06 11:03:10.43702+01 | 1486375390.43702 | pgbench_tellers  |          2170880
 2017-02-06 11:03:10.43702+01 | 1486375390.43702 | pgbench_history  |        231079936
 2017-02-06 11:03:10.43702+01 | 1486375390.43702 | pgbench_branches |          1507328

 2017-02-06 11:03:11.510416+01 | 1486375391.51042 | pgbench_accounts |       1390772224
 2017-02-06 11:03:11.510416+01 | 1486375391.51042 | pgbench_tellers  |          2170880
 2017-02-06 11:03:11.510416+01 | 1486375391.51042 | pgbench_history  |        231489536
 2017-02-06 11:03:11.510416+01 | 1486375391.51042 | pgbench_branches |          1507328

 2017-02-06 11:03:12.59111+01 | 1486375392.59111 | pgbench_accounts |       1390772224
 2017-02-06 11:03:12.59111+01 | 1486375392.59111 | pgbench_tellers  |          2170880
 2017-02-06 11:03:12.59111+01 | 1486375392.59111 | pgbench_history  |        232218624
 2017-02-06 11:03:12.59111+01 | 1486375392.59111 | pgbench_branches |          1507328

 2017-02-06 11:03:13.666622+01 | 1486375393.66662 | pgbench_accounts |       1390772224
 2017-02-06 11:03:13.666622+01 | 1486375393.66662 | pgbench_tellers  |          2170880
 2017-02-06 11:03:13.666622+01 | 1486375393.66662 | pgbench_history  |        232988672
 2017-02-06 11:03:13.666622+01 | 1486375393.66662 | pgbench_branches |          1507328

 2017-02-06 11:03:14.744243+01 | 1486375394.74424 | pgbench_accounts |       1390772224
 2017-02-06 11:03:14.744243+01 | 1486375394.74424 | pgbench_tellers  |          2170880
 2017-02-06 11:03:14.744243+01 | 1486375394.74424 | pgbench_history  |        234119168
 2017-02-06 11:03:14.744243+01 | 1486375394.74424 | pgbench_branches |          1507328

 2017-02-06 11:03:15.8226+01 | 1486375395.8226 | pgbench_accounts |       1390772224
 2017-02-06 11:03:15.8226+01 | 1486375395.8226 | pgbench_tellers  |          2170880
 2017-02-06 11:03:15.8226+01 | 1486375395.8226 | pgbench_history  |        234635264
 2017-02-06 11:03:15.8226+01 | 1486375395.8226 | pgbench_branches |          1507328

 2017-02-06 11:03:16.902602+01 | 1486375396.9026 | pgbench_accounts |       1390772224
 2017-02-06 11:03:16.902602+01 | 1486375396.9026 | pgbench_tellers  |          2170880
 2017-02-06 11:03:16.902602+01 | 1486375396.9026 | pgbench_history  |        235683840
 2017-02-06 11:03:16.902602+01 | 1486375396.9026 | pgbench_branches |          1507328

 2017-02-06 11:03:17.977758+01 | 1486375397.97776 | pgbench_accounts |       1390772224
 2017-02-06 11:03:17.977758+01 | 1486375397.97776 | pgbench_tellers  |          2170880
 2017-02-06 11:03:17.977758+01 | 1486375397.97776 | pgbench_history  |        236363776
 2017-02-06 11:03:17.977758+01 | 1486375397.97776 | pgbench_branches |          1507328

