 2017-02-05 16:04:12.623882+01 | 1486307052.62388 | 6/CF6BE710               |           29249758992

 2017-02-05 16:04:13.705809+01 | 1486307053.70581 | 6/DB76C470               |           29451797616

 2017-02-05 16:04:14.800381+01 | 1486307054.80038 | 6/E53AC3F0               |           29615637488

 2017-02-05 16:04:15.882008+01 | 1486307055.88201 | 6/EBB4F3F0               |           29724308464

 2017-02-05 16:04:16.975341+01 | 1486307056.97534 | 6/F0F04B98               |           29812083608

 2017-02-05 16:04:18.064453+01 | 1486307058.06445 | 6/F599B640               |           29890295360

 2017-02-05 16:04:19.157078+01 | 1486307059.15708 | 6/FA058F58               |           29964472152

 2017-02-05 16:04:20.243977+01 | 1486307060.24398 | 6/FE374B60               |           30034840416

 2017-02-05 16:04:21.328313+01 | 1486307061.32831 | 7/258ACF0                |           30104136944

 2017-02-05 16:04:22.408871+01 | 1486307062.40887 | 7/62794C0                |           30168028352

 2017-02-05 16:04:23.505183+01 | 1486307063.50518 | 7/9E79690                |           30230943376

 2017-02-05 16:04:24.581726+01 | 1486307064.58173 | 7/CBB7640                |           30278383168

 2017-02-05 16:04:25.659694+01 | 1486307065.65969 | 7/EB49508                |           30311486728

 2017-02-05 16:04:26.738735+01 | 1486307066.73873 | 7/10A22FD0               |           30343835600

 2017-02-05 16:04:27.827411+01 | 1486307067.82741 | 7/126F3690               |           30374049424

 2017-02-05 16:04:28.914364+01 | 1486307068.91436 | 7/143492F8               |           30403760888

 2017-02-05 16:04:29.999989+01 | 1486307069.99999 | 7/15EF30F0               |           30432768240

 2017-02-05 16:04:31.095729+01 | 1486307071.09573 | 7/1791BF60               |           30460198752

 2017-02-05 16:04:32.183751+01 | 1486307072.18375 | 7/1936E590               |           30487799184

 2017-02-05 16:04:33.263356+01 | 1486307073.26336 | 7/1ADC66B0               |           30515422896

 2017-02-05 16:04:34.349676+01 | 1486307074.34968 | 7/1C82EE80               |           30543113856

 2017-02-05 16:04:35.440906+01 | 1486307075.44091 | 7/1E05FAB8               |           30568479416

 2017-02-05 16:04:36.52675+01 | 1486307076.52675 | 7/1F96C4D0               |           30594745552

 2017-02-05 16:04:37.609477+01 | 1486307077.60948 | 7/211FA568               |           30620493160

 2017-02-05 16:04:38.688676+01 | 1486307078.68868 | 7/2288F1E8               |           30644171240

 2017-02-05 16:04:39.770974+01 | 1486307079.77097 | 7/2407BA88               |           30669257352

 2017-02-05 16:04:40.851684+01 | 1486307080.85168 | 7/25642FD8               |           30692093912

 2017-02-05 16:04:41.939576+01 | 1486307081.93958 | 7/26DC5750               |           30716745552

 2017-02-05 16:04:43.030109+01 | 1486307083.03011 | 7/2851D4D8               |           30741222616

 2017-02-05 16:04:44.119326+01 | 1486307084.11933 | 7/29B4A448               |           30764475464

 2017-02-05 16:04:45.210728+01 | 1486307085.21073 | 7/2B0C1D18               |           30786985240

 2017-02-05 16:04:46.296426+01 | 1486307086.29643 | 7/2C434F60               |           30807379808

 2017-02-05 16:04:47.378248+01 | 1486307087.37825 | 7/2DAC1128               |           30831022376

 2017-02-05 16:04:48.464021+01 | 1486307088.46402 | 7/2F51D380               |           30858662784

 2017-02-05 16:04:49.550796+01 | 1486307089.5508 | 7/31056DB8               |           30887210424

 2017-02-05 16:04:50.62817+01 | 1486307090.62817 | 7/32A2A480               |           30914290816

 2017-02-05 16:04:51.709274+01 | 1486307091.70927 | 7/3448E820               |           30941964320

 2017-02-05 16:04:52.783993+01 | 1486307092.78399 | 7/35D8F000               |           30968180736

 2017-02-05 16:04:53.867073+01 | 1486307093.86707 | 7/37630488               |           30994007176

 2017-02-05 16:04:54.944905+01 | 1486307094.94491 | 7/38D4CD10               |           31018241296

 2017-02-05 16:04:56.028183+01 | 1486307096.02818 | 7/3A2A79C8               |           31040633288

 2017-02-05 16:04:57.111759+01 | 1486307097.11176 | 7/3B587160               |           31060423008

 2017-02-05 16:04:58.192485+01 | 1486307098.19249 | 7/3C9FD9B0               |           31081879984

 2017-02-05 16:04:59.278591+01 | 1486307099.27859 | 7/3DE1DAA8               |           31102982824

 2017-02-05 16:05:00.361848+01 | 1486307100.36185 | 7/3F38E108               |           31125463304

 2017-02-05 16:05:01.455893+01 | 1486307101.45589 | 7/40DDB2C0               |           31153042112

 2017-02-05 16:05:02.542048+01 | 1486307102.54205 | 7/428CD938               |           31181297976

 2017-02-05 16:05:03.623285+01 | 1486307103.62329 | 7/44409A48               |           31209855560

 2017-02-05 16:05:04.702662+01 | 1486307104.70266 | 7/45FED448               |           31239099464

 2017-02-05 16:05:05.782237+01 | 1486307105.78224 | 7/47CFD040               |           31269572672

 2017-02-05 16:05:06.854536+01 | 1486307106.85454 | 7/49CE09F0               |           31303010800

 2017-02-05 16:05:07.943697+01 | 1486307107.9437 | 7/4BA52A50               |           31333886544

 2017-02-05 16:05:09.025552+01 | 1486307109.02555 | 7/4D5B7FA0               |           31362613152

 2017-02-05 16:05:10.115487+01 | 1486307110.11549 | 7/4EF7E8E8               |           31389640936

 2017-02-05 16:05:11.202568+01 | 1486307111.20257 | 7/50901720               |           31416391456

 2017-02-05 16:05:12.293795+01 | 1486307112.2938 | 7/523FB608               |           31444678152

 2017-02-05 16:05:13.374288+01 | 1486307113.37429 | 7/53C82FB8               |           31470399416

 2017-02-05 16:05:14.465025+01 | 1486307114.46502 | 7/5540AC90               |           31495072912

 2017-02-05 16:05:15.550416+01 | 1486307115.55042 | 7/567C8730               |           31515772720

 2017-02-05 16:05:16.632034+01 | 1486307116.63203 | 7/57864B10               |           31533189904

 2017-02-05 16:05:17.7094+01 | 1486307117.7094 | 7/58F59DE0               |           31557262816

 2017-02-05 16:05:18.788202+01 | 1486307118.7882 | 7/5A363BA0               |           31578274720

 2017-02-05 16:05:19.867452+01 | 1486307119.86745 | 7/5B646690               |           31598077584

 2017-02-05 16:05:20.965021+01 | 1486307120.96502 | 7/5C8E83B8               |           31617614776

 2017-02-05 16:05:22.049031+01 | 1486307122.04903 | 7/5DB562C8               |           31636939464

 2017-02-05 16:05:23.133993+01 | 1486307123.13399 | 7/5EDA1270               |           31656120944

 2017-02-05 16:05:24.216662+01 | 1486307124.21666 | 7/600412B0               |           31675650736

 2017-02-05 16:05:25.297207+01 | 1486307125.29721 | 7/6130BD80               |           31695355264

 2017-02-05 16:05:26.386272+01 | 1486307126.38627 | 7/62620C28               |           31715363880

 2017-02-05 16:05:27.469293+01 | 1486307127.46929 | 7/638CC350               |           31734940496

 2017-02-05 16:05:28.555197+01 | 1486307128.5552 | 7/64BD80D0               |           31754911952

 2017-02-05 16:05:29.630052+01 | 1486307129.63005 | 7/65E861A0               |           31774499232

 2017-02-05 16:05:30.70765+01 | 1486307130.70765 | 7/671165B8               |           31793964472

 2017-02-05 16:05:31.783817+01 | 1486307131.78382 | 7/68378600               |           31813240320

 2017-02-05 16:05:32.861027+01 | 1486307132.86103 | 7/69573A68               |           31832095336

 2017-02-05 16:05:33.94951+01 | 1486307133.94951 | 7/6A85CF58               |           31851925336

 2017-02-05 16:05:35.039287+01 | 1486307135.03929 | 7/6BA2F668               |           31870613096

 2017-02-05 16:05:36.125888+01 | 1486307136.12589 | 7/6CC471B0               |           31889584560

 2017-02-05 16:05:37.210369+01 | 1486307137.21037 | 7/6DE37650               |           31908394576

 2017-02-05 16:05:38.308064+01 | 1486307138.30806 | 7/6EFB59D0               |           31926737360

 2017-02-05 16:05:39.387779+01 | 1486307139.38778 | 7/70167170               |           31945290096

 2017-02-05 16:05:40.469163+01 | 1486307140.46916 | 7/7120F3E8               |           31962756072

 2017-02-05 16:05:41.55054+01 | 1486307141.55054 | 7/722A7960               |           31980157280

 2017-02-05 16:05:42.633704+01 | 1486307142.6337 | 7/733F7118               |           31998308632

 2017-02-05 16:05:43.710604+01 | 1486307143.7106 | 7/74551348               |           32016503624

 2017-02-05 16:05:44.785789+01 | 1486307144.78579 | 7/7561CFB8               |           32034115512

 2017-02-05 16:05:45.868184+01 | 1486307145.86818 | 7/7669A178               |           32051405176

 2017-02-05 16:05:46.960279+01 | 1486307146.96028 | 7/7776CAA0               |           32069044896

 2017-02-05 16:05:48.032564+01 | 1486307148.03256 | 7/78705028               |           32085397544

 2017-02-05 16:05:49.115135+01 | 1486307149.11513 | 7/797D5C20               |           32103029792

 2017-02-05 16:05:50.198718+01 | 1486307150.19872 | 7/7AA4FF28               |           32122404648

 2017-02-05 16:05:51.275764+01 | 1486307151.27576 | 7/7BC70960               |           32141412704

 2017-02-05 16:05:52.360997+01 | 1486307152.361 | 7/7CF1B3D0               |           32160986064

 2017-02-05 16:05:53.443095+01 | 1486307153.44309 | 7/7E1DDCC0               |           32180657344

 2017-02-05 16:05:54.533397+01 | 1486307154.5334 | 7/7F41B1F8               |           32199782904

 2017-02-05 16:05:55.6159+01 | 1486307155.6159 | 7/806487E8               |           32218843112

 2017-02-05 16:05:56.694412+01 | 1486307156.69441 | 7/818A52A8               |           32238097064

 2017-02-05 16:05:57.779135+01 | 1486307157.77913 | 7/82A5B380               |           32256668544

 2017-02-05 16:05:58.859871+01 | 1486307158.85987 | 7/83C95748               |           32275781448

 2017-02-05 16:05:59.936416+01 | 1486307159.93642 | 7/84EA5980               |           32294721920

 2017-02-05 16:06:01.024301+01 | 1486307161.0243 | 7/860E5868               |           32313858152

 2017-02-05 16:06:02.100283+01 | 1486307162.10028 | 7/872FD8F8               |           32332830968

 2017-02-05 16:06:03.185666+01 | 1486307163.18567 | 7/8861E6F8               |           32352888568

 2017-02-05 16:06:04.273683+01 | 1486307164.27368 | 7/89B085E0               |           32374818272

 2017-02-05 16:06:05.367542+01 | 1486307165.36754 | 7/8AFA3308               |           32396423944

 2017-02-05 16:06:06.459357+01 | 1486307166.45936 | 7/8C621F78               |           32420011896

 2017-02-05 16:06:07.545753+01 | 1486307167.54575 | 7/8D9759B0               |           32440277424

 2017-02-05 16:06:08.6405+01 | 1486307168.6405 | 7/8ED074F8               |           32460797176

 2017-02-05 16:06:09.724711+01 | 1486307169.72471 | 7/8FFA98E0               |           32480336096

 2017-02-05 16:06:10.807568+01 | 1486307170.80757 | 7/911839C8               |           32499055048

 2017-02-05 16:06:11.887154+01 | 1486307171.88715 | 7/923CF610               |           32518239760

 2017-02-05 16:06:12.971718+01 | 1486307172.97172 | 7/936E0D80               |           32538234240

 2017-02-05 16:06:14.068993+01 | 1486307174.06899 | 7/94B1BBD0               |           32559446992

 2017-02-05 16:06:15.15526+01 | 1486307175.15526 | 7/95E8F790               |           32579843984

 2017-02-05 16:06:16.239339+01 | 1486307176.23934 | 7/970C5A80               |           32598940288

 2017-02-05 16:06:17.311642+01 | 1486307177.31164 | 7/983C4CE8               |           32618859752

 2017-02-05 16:06:18.397404+01 | 1486307178.3974 | 7/9951B658               |           32637040216

 2017-02-05 16:06:19.488038+01 | 1486307179.48804 | 7/9A708BC8               |           32655838152

 2017-02-05 16:06:20.573233+01 | 1486307180.57323 | 7/9B9A6188               |           32675357064

 2017-02-05 16:06:21.653348+01 | 1486307181.65335 | 7/9CBB1B68               |           32694279016

 2017-02-05 16:06:22.731592+01 | 1486307182.73159 | 7/9DDAAD08               |           32713125128

 2017-02-05 16:06:23.80835+01 | 1486307183.80835 | 7/9EF8E120               |           32731881760

 2017-02-05 16:06:24.888249+01 | 1486307184.88825 | 7/A01C6A78               |           32750987896

 2017-02-05 16:06:25.970662+01 | 1486307185.97066 | 7/A139FF88               |           32769703816

 2017-02-05 16:06:27.055311+01 | 1486307187.05531 | 7/A2523EC0               |           32788070080

 2017-02-05 16:06:28.146863+01 | 1486307188.14686 | 7/A3732FA8               |           32807006120

 2017-02-05 16:06:29.236387+01 | 1486307189.23639 | 7/A4937430               |           32825898032

 2017-02-05 16:06:30.322594+01 | 1486307190.32259 | 7/A5B2DA38               |           32844732984

 2017-02-05 16:06:31.412563+01 | 1486307191.41256 | 7/A6CEFE38               |           32863354424

 2017-02-05 16:06:32.496413+01 | 1486307192.49641 | 7/A7F02BD8               |           32882306008

 2017-02-05 16:06:33.581129+01 | 1486307193.58113 | 7/A910B558               |           32901215576

 2017-02-05 16:06:34.670681+01 | 1486307194.67068 | 7/AA35A3E8               |           32920413160

 2017-02-05 16:06:35.746803+01 | 1486307195.7468 | 7/AB4AAD80               |           32938569088

 2017-02-05 16:06:36.827891+01 | 1486307196.82789 | 7/AC5EB700               |           32956659456

 2017-02-05 16:06:37.907536+01 | 1486307197.90754 | 7/AD746CE0               |           32974859488

 2017-02-05 16:06:38.990911+01 | 1486307198.99091 | 7/AEA43400               |           32994767872

 2017-02-05 16:06:40.073092+01 | 1486307200.07309 | 7/AFC20A08               |           33013500424

 2017-02-05 16:06:41.164577+01 | 1486307201.16458 | 7/B0D6CC70               |           33031638128

 2017-02-05 16:06:42.249226+01 | 1486307202.24923 | 7/B1F3C940               |           33050315072

 2017-02-05 16:06:43.337055+01 | 1486307203.33705 | 7/B315E4A0               |           33069327520

 2017-02-05 16:06:44.421526+01 | 1486307204.42153 | 7/B4267808               |           33087191048

 2017-02-05 16:06:45.5121+01 | 1486307205.5121 | 7/B546EFC8               |           33106096072

 2017-02-05 16:06:46.600777+01 | 1486307206.60078 | 7/B6597AF0               |           33124088560

 2017-02-05 16:06:47.680299+01 | 1486307207.6803 | 7/B768AE98               |           33141862040

 2017-02-05 16:06:48.755382+01 | 1486307208.75538 | 7/B8869840               |           33160599616

 2017-02-05 16:06:49.837372+01 | 1486307209.83737 | 7/B9A97B88               |           33179663240

 2017-02-05 16:06:50.912828+01 | 1486307210.91283 | 7/BAC90BC8               |           33198509000

 2017-02-05 16:06:51.987662+01 | 1486307211.98766 | 7/BBE3AB38               |           33217030968

 2017-02-05 16:06:53.061947+01 | 1486307213.06195 | 7/BD03BD08               |           33235909896

 2017-02-05 16:06:54.144406+01 | 1486307214.14441 | 7/BDF77720               |           33251882784

 2017-02-05 16:06:55.229855+01 | 1486307215.22986 | 7/BF14C9B8               |           33270583200

 2017-02-05 16:06:56.317775+01 | 1486307216.31778 | 7/C0338CE8               |           33289374952

 2017-02-05 16:06:57.405283+01 | 1486307217.40528 | 7/C1551320               |           33308349216

 2017-02-05 16:06:58.490342+01 | 1486307218.49034 | 7/C2807C38               |           33327971384

 2017-02-05 16:06:59.572124+01 | 1486307219.57212 | 7/C3977DF0               |           33346256368

 2017-02-05 16:07:00.659747+01 | 1486307220.65975 | 7/C4BCBB08               |           33365474056

 2017-02-05 16:07:01.735607+01 | 1486307221.73561 | 7/C5CED950               |           33383438672

 2017-02-05 16:07:02.813757+01 | 1486307222.81376 | 7/C6EBB300               |           33402106624

 2017-02-05 16:07:03.890952+01 | 1486307223.89095 | 7/C81DF1E8               |           33422176744

 2017-02-05 16:07:04.969103+01 | 1486307224.9691 | 7/C9530D88               |           33442434440

 2017-02-05 16:07:06.052216+01 | 1486307226.05222 | 7/CA9294C0               |           33463375040

 2017-02-05 16:07:07.126155+01 | 1486307227.12615 | 7/CBD0D050               |           33484230736

 2017-02-05 16:07:08.214635+01 | 1486307228.21463 | 7/CD003E50               |           33504116304

 2017-02-05 16:07:09.301702+01 | 1486307229.3017 | 7/CE247F40               |           33523269440

 2017-02-05 16:07:10.381143+01 | 1486307230.38114 | 7/CF4D67B0               |           33542727600

 2017-02-05 16:07:11.458928+01 | 1486307231.45893 | 7/D0609508               |           33560761608

 2017-02-05 16:07:12.543175+01 | 1486307232.54317 | 7/D19B5058               |           33581387864

 2017-02-05 16:07:13.635611+01 | 1486307233.63561 | 7/D2D82258               |           33602151000

 2017-02-05 16:07:14.720556+01 | 1486307234.72056 | 7/D3E959A8               |           33620056488

 2017-02-05 16:07:15.790507+01 | 1486307235.79051 | 7/D51A9B38               |           33640061752

 2017-02-05 16:07:16.869876+01 | 1486307236.86988 | 7/D63939F8               |           33658845688

 2017-02-05 16:07:17.954397+01 | 1486307237.9544 | 7/D75B8640               |           33677870656

 2017-02-05 16:07:19.032938+01 | 1486307239.03294 | 7/D8736B48               |           33696213832

 2017-02-05 16:07:20.110025+01 | 1486307240.11002 | 7/D988BA98               |           33714387608

 2017-02-05 16:07:21.20128+01 | 1486307241.20128 | 7/DAA51578               |           33733023096

 2017-02-05 16:07:22.292467+01 | 1486307242.29247 | 7/DBA12068               |           33749540968

 2017-02-05 16:07:23.388985+01 | 1486307243.38898 | 7/DCAB2F10               |           33766977296

 2017-02-05 16:07:24.481595+01 | 1486307244.4816 | 7/DDC45920               |           33785403680

 2017-02-05 16:07:25.571693+01 | 1486307245.57169 | 7/DED7D920               |           33803458848

 2017-02-05 16:07:26.659867+01 | 1486307246.65987 | 7/DFE82EA0               |           33821306528

 2017-02-05 16:07:27.744788+01 | 1486307247.74479 | 7/E10723B0               |           33840112560

 2017-02-05 16:07:28.818755+01 | 1486307248.81875 | 7/E21CBA98               |           33858304664

 2017-02-05 16:07:29.89189+01 | 1486307249.89189 | 7/E30EE5A0               |           33874175392

 2017-02-05 16:07:30.973127+01 | 1486307250.97313 | 7/E4379E08               |           33893621256

 2017-02-05 16:07:32.052906+01 | 1486307252.05291 | 7/E55574E8               |           33912354024

 2017-02-05 16:07:33.139832+01 | 1486307253.13983 | 7/E6708DA0               |           33930907040

 2017-02-05 16:07:34.225602+01 | 1486307254.2256 | 7/E7845498               |           33948980376

 2017-02-05 16:07:35.312939+01 | 1486307255.31294 | 7/E8ACF8B0               |           33968421040

 2017-02-05 16:07:36.401687+01 | 1486307256.40169 | 7/E9CB9390               |           33987203984

 2017-02-05 16:07:37.483337+01 | 1486307257.48334 | 7/EAE94330               |           34005926704

 2017-02-05 16:07:38.56479+01 | 1486307258.56479 | 7/EC0F6CB0               |           34025204912

 2017-02-05 16:07:39.656258+01 | 1486307259.65626 | 7/ED306A18               |           34044145904

 2017-02-05 16:07:40.74203+01 | 1486307260.74203 | 7/EE4B1CF8               |           34062671096

 2017-02-05 16:07:41.816572+01 | 1486307261.81657 | 7/EF6F17A8               |           34081806248

 2017-02-05 16:07:42.901081+01 | 1486307262.90108 | 7/F08E32A0               |           34100621984

 2017-02-05 16:07:43.978904+01 | 1486307263.9789 | 7/F1B65390               |           34120029072

 2017-02-05 16:07:45.061532+01 | 1486307265.06153 | 7/F2BE9838               |           34137348152

 2017-02-05 16:07:46.150868+01 | 1486307266.15087 | 7/F3E29B90               |           34156485520

 2017-02-05 16:07:47.232945+01 | 1486307267.23294 | 7/F51082A8               |           34176271016

 2017-02-05 16:07:48.320484+01 | 1486307268.32048 | 7/F63B9518               |           34195871000

 2017-02-05 16:07:49.403961+01 | 1486307269.40396 | 7/F75B8C58               |           34214743128

 2017-02-05 16:07:50.498661+01 | 1486307270.49866 | 7/F8828A80               |           34234075776

 2017-02-05 16:07:51.585056+01 | 1486307271.58506 | 7/F9A8E330               |           34253366064

 2017-02-05 16:07:52.669734+01 | 1486307272.66973 | 7/FACAF450               |           34272375888

 2017-02-05 16:07:53.74909+01 | 1486307273.74909 | 7/FBF9D848               |           34292226120

 2017-02-05 16:07:54.825792+01 | 1486307274.82579 | 7/FD165DF8               |           34310872568

 2017-02-05 16:07:55.906443+01 | 1486307275.90644 | 7/FE3159A8               |           34329418152

 2017-02-05 16:07:56.982305+01 | 1486307276.98231 | 7/FF5A3028               |           34348871720

 2017-02-05 16:07:58.06315+01 | 1486307278.06315 | 8/79EC88                 |           34367728776

 2017-02-05 16:07:59.142721+01 | 1486307279.14272 | 8/19861A0                |           34386502048

 2017-02-05 16:08:00.224615+01 | 1486307280.22462 | 8/295B2E8                |           34403103464

 2017-02-05 16:08:01.31585+01 | 1486307281.31585 | 8/3B83F10                |           34422144784

 2017-02-05 16:08:02.422748+01 | 1486307282.42275 | 8/4D75E50                |           34440961616

 2017-02-05 16:08:03.510135+01 | 1486307283.51013 | 8/5FDA098                |           34460246168

 2017-02-05 16:08:04.594752+01 | 1486307284.59475 | 8/7267D88                |           34479701384

 2017-02-05 16:08:05.68396+01 | 1486307285.68396 | 8/8638680                |           34500478592

 2017-02-05 16:08:06.768921+01 | 1486307286.76892 | 8/9939418                |           34520405016

 2017-02-05 16:08:07.849989+01 | 1486307287.84999 | 8/AAD0A78                |           34538850936

 2017-02-05 16:08:08.932919+01 | 1486307288.93292 | 8/BBEAC50                |           34556783696

 2017-02-05 16:08:10.02088+01 | 1486307290.02088 | 8/CC37D60                |           34573876576

 2017-02-05 16:08:11.102239+01 | 1486307291.10224 | 8/DD9E238                |           34592121400

 2017-02-05 16:08:12.181603+01 | 1486307292.1816 | 8/EFFFF18                |           34611396376

 2017-02-05 16:08:13.273503+01 | 1486307293.2735 | 8/1012A0B8               |           34629394616

 2017-02-05 16:08:14.365629+01 | 1486307294.36563 | 8/1123E0E8               |           34647302376

 2017-02-05 16:08:15.446017+01 | 1486307295.44602 | 8/121F97B8               |           34663798712

 2017-02-05 16:08:16.52679+01 | 1486307296.52679 | 8/13526E28               |           34683907624

 2017-02-05 16:08:17.617361+01 | 1486307297.61736 | 8/14664138               |           34701984056

 2017-02-05 16:08:18.706969+01 | 1486307298.70697 | 8/15815860               |           34720536672

 2017-02-05 16:08:19.79003+01 | 1486307299.79003 | 8/168AE9E8               |           34737940968

 2017-02-05 16:08:20.867499+01 | 1486307300.8675 | 8/17A18A20               |           34756200992

 2017-02-05 16:08:21.948383+01 | 1486307301.94838 | 8/189B11E0               |           34772554208

 2017-02-05 16:08:23.025235+01 | 1486307303.02523 | 8/19A8C520               |           34790229280

 2017-02-05 16:08:24.108476+01 | 1486307304.10848 | 8/1AB52120               |           34807816480

 2017-02-05 16:08:25.195042+01 | 1486307305.19504 | 8/1BC4CF58               |           34825621336

 2017-02-05 16:08:26.273068+01 | 1486307306.27307 | 8/1CDB8CF8               |           34843888888

 2017-02-05 16:08:27.355101+01 | 1486307307.3551 | 8/1DF09048               |           34862043208

 2017-02-05 16:08:28.438695+01 | 1486307308.43869 | 8/1EEAC2F8               |           34878440184

 2017-02-05 16:08:29.530722+01 | 1486307309.53072 | 8/1FF326C8               |           34895767240

 2017-02-05 16:08:30.616239+01 | 1486307310.61624 | 8/20FA4CE0               |           34913012960

 2017-02-05 16:08:31.695162+01 | 1486307311.69516 | 8/21E7CE40               |           34928578112

 2017-02-05 16:08:32.777903+01 | 1486307312.7779 | 8/22F75350               |           34946372432

 2017-02-05 16:08:33.847538+01 | 1486307313.84754 | 8/23FFFE30               |           34963717680

 2017-02-05 16:08:34.925057+01 | 1486307314.92506 | 8/250BD8E8               |           34981271784

 2017-02-05 16:08:36.005217+01 | 1486307316.00522 | 8/261DE078               |           34999230584

 2017-02-05 16:08:37.083729+01 | 1486307317.08373 | 8/272799C0               |           35016645056

 2017-02-05 16:08:38.171511+01 | 1486307318.17151 | 8/282FDFA8               |           35033964456

 2017-02-05 16:08:39.270367+01 | 1486307319.27037 | 8/29208320               |           35049734944

 2017-02-05 16:08:40.357661+01 | 1486307320.35766 | 8/2A0C0938               |           35065170232

 2017-02-05 16:08:41.447046+01 | 1486307321.44705 | 8/2B092278               |           35081757304

 2017-02-05 16:08:42.537002+01 | 1486307322.537 | 8/2BFFFF08               |           35097935624

 2017-02-05 16:08:43.624704+01 | 1486307323.6247 | 8/2CED9A70               |           35113507440

 2017-02-05 16:08:44.707682+01 | 1486307324.70768 | 8/2DDBE228               |           35129123368

 2017-02-05 16:08:45.790951+01 | 1486307325.79095 | 8/2ED91868               |           35145717864

 2017-02-05 16:08:46.874232+01 | 1486307326.87423 | 8/2FD6C8B8               |           35162343608

 2017-02-05 16:08:47.951443+01 | 1486307327.95144 | 8/30D041C8               |           35178693064

 2017-02-05 16:08:49.035449+01 | 1486307329.03545 | 8/31CC6AF0               |           35195218672

 2017-02-05 16:08:50.124528+01 | 1486307330.12453 | 8/32CA5630               |           35211859504

 2017-02-05 16:08:51.201503+01 | 1486307331.2015 | 8/33D61070               |           35229405296

 2017-02-05 16:08:52.283187+01 | 1486307332.28319 | 8/34E9F620               |           35247486496

 2017-02-05 16:08:53.360352+01 | 1486307333.36035 | 8/35E76B08               |           35264097032

 2017-02-05 16:08:54.455679+01 | 1486307334.45568 | 8/36EA12F8               |           35281048312

 2017-02-05 16:08:55.54525+01 | 1486307335.54525 | 8/37EF8C88               |           35298184328

 2017-02-05 16:08:56.623304+01 | 1486307336.6233 | 8/38FFFA68               |           35316038248

 2017-02-05 16:08:57.708626+01 | 1486307337.70863 | 8/39FFFDF8               |           35332816376

 2017-02-05 16:08:58.80295+01 | 1486307338.80295 | 8/3B19BDC8               |           35351281096

 2017-02-05 16:08:59.882884+01 | 1486307339.88288 | 8/3C2BA558               |           35369231704

 2017-02-05 16:09:00.962691+01 | 1486307340.96269 | 8/3D389D20               |           35386858784

 2017-02-05 16:09:02.042364+01 | 1486307342.04236 | 8/3E36D258               |           35403518552

 2017-02-05 16:09:03.120906+01 | 1486307343.12091 | 8/3F5857A0               |           35422492576

 2017-02-05 16:09:04.199603+01 | 1486307344.1996 | 8/4076A948               |           35441256776

 2017-02-05 16:09:05.276969+01 | 1486307345.27697 | 8/41AADA40               |           35461454400

 2017-02-05 16:09:06.35834+01 | 1486307346.35834 | 8/42D3C8F0               |           35480914160

 2017-02-05 16:09:07.443906+01 | 1486307347.44391 | 8/43FFFA40               |           35500587584

 2017-02-05 16:09:08.522024+01 | 1486307348.52202 | 8/44FFB550               |           35517347152

 2017-02-05 16:09:09.607277+01 | 1486307349.60728 | 8/45FFFD90               |           35534142864

 2017-02-05 16:09:10.702202+01 | 1486307350.7022 | 8/46FC2148               |           35550667080

 2017-02-05 16:09:11.797388+01 | 1486307351.79739 | 8/48068A98               |           35568126616

