 2017-02-06 19:17:51.644592+01 | 1486405071.64459 | pgbench_accounts |      13815013376
 2017-02-06 19:17:51.644592+01 | 1486405071.64459 | pgbench_tellers  |         15220736
 2017-02-06 19:17:51.644592+01 | 1486405071.64459 | pgbench_history  |                0
 2017-02-06 19:17:51.644592+01 | 1486405071.64459 | pgbench_branches |         11272192

 2017-02-06 19:17:53.642471+01 | 1486405073.64247 | pgbench_accounts |      13815078912
 2017-02-06 19:17:53.642471+01 | 1486405073.64247 | pgbench_tellers  |         15220736
 2017-02-06 19:17:53.642471+01 | 1486405073.64247 | pgbench_history  |          1171456
 2017-02-06 19:17:53.642471+01 | 1486405073.64247 | pgbench_branches |         11272192

 2017-02-06 19:17:54.730211+01 | 1486405074.73021 | pgbench_accounts |      13815152640
 2017-02-06 19:17:54.730211+01 | 1486405074.73021 | pgbench_tellers  |         15220736
 2017-02-06 19:17:54.730211+01 | 1486405074.73021 | pgbench_history  |          1171456
 2017-02-06 19:17:54.730211+01 | 1486405074.73021 | pgbench_branches |         11272192

 2017-02-06 19:17:55.822663+01 | 1486405075.82266 | pgbench_accounts |      13815209984
 2017-02-06 19:17:55.822663+01 | 1486405075.82266 | pgbench_tellers  |         15220736
 2017-02-06 19:17:55.822663+01 | 1486405075.82266 | pgbench_history  |          1810432
 2017-02-06 19:17:55.822663+01 | 1486405075.82266 | pgbench_branches |         11272192

 2017-02-06 19:17:56.915509+01 | 1486405076.91551 | pgbench_accounts |      13815283712
 2017-02-06 19:17:56.915509+01 | 1486405076.91551 | pgbench_tellers  |         15220736
 2017-02-06 19:17:56.915509+01 | 1486405076.91551 | pgbench_history  |          2351104
 2017-02-06 19:17:56.915509+01 | 1486405076.91551 | pgbench_branches |         11272192

 2017-02-06 19:17:58.005439+01 | 1486405078.00544 | pgbench_accounts |      13815357440
 2017-02-06 19:17:58.005439+01 | 1486405078.00544 | pgbench_tellers  |         15220736
 2017-02-06 19:17:58.005439+01 | 1486405078.00544 | pgbench_history  |          2744320
 2017-02-06 19:17:58.005439+01 | 1486405078.00544 | pgbench_branches |         11272192

 2017-02-06 19:17:59.097324+01 | 1486405079.09732 | pgbench_accounts |      13815414784
 2017-02-06 19:17:59.097324+01 | 1486405079.09732 | pgbench_tellers  |         15220736
 2017-02-06 19:17:59.097324+01 | 1486405079.09732 | pgbench_history  |          3448832
 2017-02-06 19:17:59.097324+01 | 1486405079.09732 | pgbench_branches |         11272192

 2017-02-06 19:18:00.190081+01 | 1486405080.19008 | pgbench_accounts |      13815488512
 2017-02-06 19:18:00.190081+01 | 1486405080.19008 | pgbench_tellers  |         15220736
 2017-02-06 19:18:00.190081+01 | 1486405080.19008 | pgbench_history  |          3874816
 2017-02-06 19:18:00.190081+01 | 1486405080.19008 | pgbench_branches |         11272192

 2017-02-06 19:18:01.275097+01 | 1486405081.2751 | pgbench_accounts |      13815545856
 2017-02-06 19:18:01.275097+01 | 1486405081.2751 | pgbench_tellers  |         15220736
 2017-02-06 19:18:01.275097+01 | 1486405081.2751 | pgbench_history  |          4775936
 2017-02-06 19:18:01.275097+01 | 1486405081.2751 | pgbench_branches |         11272192

 2017-02-06 19:18:02.350977+01 | 1486405082.35098 | pgbench_accounts |      13815595008
 2017-02-06 19:18:02.350977+01 | 1486405082.35098 | pgbench_tellers  |         15220736
 2017-02-06 19:18:02.350977+01 | 1486405082.35098 | pgbench_history  |          5152768
 2017-02-06 19:18:02.350977+01 | 1486405082.35098 | pgbench_branches |         11272192

 2017-02-06 19:18:03.434358+01 | 1486405083.43436 | pgbench_accounts |      13815652352
 2017-02-06 19:18:03.434358+01 | 1486405083.43436 | pgbench_tellers  |         15220736
 2017-02-06 19:18:03.434358+01 | 1486405083.43436 | pgbench_history  |          5521408
 2017-02-06 19:18:03.434358+01 | 1486405083.43436 | pgbench_branches |         11272192

 2017-02-06 19:18:04.50708+01 | 1486405084.50708 | pgbench_accounts |      13815693312
 2017-02-06 19:18:04.50708+01 | 1486405084.50708 | pgbench_tellers  |         15220736
 2017-02-06 19:18:04.50708+01 | 1486405084.50708 | pgbench_history  |          5906432
 2017-02-06 19:18:04.50708+01 | 1486405084.50708 | pgbench_branches |         11272192

 2017-02-06 19:18:05.569569+01 | 1486405085.56957 | pgbench_accounts |      13815767040
 2017-02-06 19:18:05.569569+01 | 1486405085.56957 | pgbench_tellers  |         15220736
 2017-02-06 19:18:05.569569+01 | 1486405085.56957 | pgbench_history  |          6660096
 2017-02-06 19:18:05.569569+01 | 1486405085.56957 | pgbench_branches |         11272192

 2017-02-06 19:18:06.651091+01 | 1486405086.65109 | pgbench_accounts |      13815824384
 2017-02-06 19:18:06.651091+01 | 1486405086.65109 | pgbench_tellers  |         15220736
 2017-02-06 19:18:06.651091+01 | 1486405086.65109 | pgbench_history  |          7184384
 2017-02-06 19:18:06.651091+01 | 1486405086.65109 | pgbench_branches |         11272192

 2017-02-06 19:18:07.733121+01 | 1486405087.73312 | pgbench_accounts |      13815889920
 2017-02-06 19:18:07.733121+01 | 1486405087.73312 | pgbench_tellers  |         15220736
 2017-02-06 19:18:07.733121+01 | 1486405087.73312 | pgbench_history  |          7372800
 2017-02-06 19:18:07.733121+01 | 1486405087.73312 | pgbench_branches |         11272192

 2017-02-06 19:18:08.81876+01 | 1486405088.81876 | pgbench_accounts |      13815955456
 2017-02-06 19:18:08.81876+01 | 1486405088.81876 | pgbench_tellers  |         15220736
 2017-02-06 19:18:08.81876+01 | 1486405088.81876 | pgbench_history  |          7962624
 2017-02-06 19:18:08.81876+01 | 1486405088.81876 | pgbench_branches |         11272192

 2017-02-06 19:18:09.893501+01 | 1486405089.8935 | pgbench_accounts |      13816012800
 2017-02-06 19:18:09.893501+01 | 1486405089.8935 | pgbench_tellers  |         15220736
 2017-02-06 19:18:09.893501+01 | 1486405089.8935 | pgbench_history  |          8847360
 2017-02-06 19:18:09.893501+01 | 1486405089.8935 | pgbench_branches |         11272192

 2017-02-06 19:18:10.98762+01 | 1486405090.98762 | pgbench_accounts |      13816053760
 2017-02-06 19:18:10.98762+01 | 1486405090.98762 | pgbench_tellers  |         15220736
 2017-02-06 19:18:10.98762+01 | 1486405090.98762 | pgbench_history  |          9363456
 2017-02-06 19:18:10.98762+01 | 1486405090.98762 | pgbench_branches |         11272192

 2017-02-06 19:18:12.071349+01 | 1486405092.07135 | pgbench_accounts |      13816111104
 2017-02-06 19:18:12.071349+01 | 1486405092.07135 | pgbench_tellers  |         15220736
 2017-02-06 19:18:12.071349+01 | 1486405092.07135 | pgbench_history  |          9363456
 2017-02-06 19:18:12.071349+01 | 1486405092.07135 | pgbench_branches |         11272192

 2017-02-06 19:18:13.16361+01 | 1486405093.16361 | pgbench_accounts |      13816184832
 2017-02-06 19:18:13.16361+01 | 1486405093.16361 | pgbench_tellers  |         15220736
 2017-02-06 19:18:13.16361+01 | 1486405093.16361 | pgbench_history  |         10108928
 2017-02-06 19:18:13.16361+01 | 1486405093.16361 | pgbench_branches |         11272192

 2017-02-06 19:18:14.251905+01 | 1486405094.2519 | pgbench_accounts |      13816250368
 2017-02-06 19:18:14.251905+01 | 1486405094.2519 | pgbench_tellers  |         15220736
 2017-02-06 19:18:14.251905+01 | 1486405094.2519 | pgbench_history  |         10878976
 2017-02-06 19:18:14.251905+01 | 1486405094.2519 | pgbench_branches |         11272192

 2017-02-06 19:18:15.328804+01 | 1486405095.3288 | pgbench_accounts |      13816315904
 2017-02-06 19:18:15.328804+01 | 1486405095.3288 | pgbench_tellers  |         15220736
 2017-02-06 19:18:15.328804+01 | 1486405095.3288 | pgbench_history  |         11444224
 2017-02-06 19:18:15.328804+01 | 1486405095.3288 | pgbench_branches |         11272192

 2017-02-06 19:18:16.411587+01 | 1486405096.41159 | pgbench_accounts |      13816381440
 2017-02-06 19:18:16.411587+01 | 1486405096.41159 | pgbench_tellers  |         15220736
 2017-02-06 19:18:16.411587+01 | 1486405096.41159 | pgbench_history  |         11821056
 2017-02-06 19:18:16.411587+01 | 1486405096.41159 | pgbench_branches |         11272192

 2017-02-06 19:18:17.48763+01 | 1486405097.48763 | pgbench_accounts |      13816446976
 2017-02-06 19:18:17.48763+01 | 1486405097.48763 | pgbench_tellers  |         15220736
 2017-02-06 19:18:17.48763+01 | 1486405097.48763 | pgbench_history  |         12550144
 2017-02-06 19:18:17.48763+01 | 1486405097.48763 | pgbench_branches |         11272192

 2017-02-06 19:18:18.572956+01 | 1486405098.57296 | pgbench_accounts |      13816528896
 2017-02-06 19:18:18.572956+01 | 1486405098.57296 | pgbench_tellers  |         15220736
 2017-02-06 19:18:18.572956+01 | 1486405098.57296 | pgbench_history  |         12976128
 2017-02-06 19:18:18.572956+01 | 1486405098.57296 | pgbench_branches |         11272192

 2017-02-06 19:18:19.658251+01 | 1486405099.65825 | pgbench_accounts |      13816586240
 2017-02-06 19:18:19.658251+01 | 1486405099.65825 | pgbench_tellers  |         15220736
 2017-02-06 19:18:19.658251+01 | 1486405099.65825 | pgbench_history  |         13590528
 2017-02-06 19:18:19.658251+01 | 1486405099.65825 | pgbench_branches |         11272192

 2017-02-06 19:18:20.739478+01 | 1486405100.73948 | pgbench_accounts |      13816651776
 2017-02-06 19:18:20.739478+01 | 1486405100.73948 | pgbench_tellers  |         15220736
 2017-02-06 19:18:20.739478+01 | 1486405100.73948 | pgbench_history  |         14024704
 2017-02-06 19:18:20.739478+01 | 1486405100.73948 | pgbench_branches |         11272192

 2017-02-06 19:18:21.826189+01 | 1486405101.82619 | pgbench_accounts |      13816717312
 2017-02-06 19:18:21.826189+01 | 1486405101.82619 | pgbench_tellers  |         15220736
 2017-02-06 19:18:21.826189+01 | 1486405101.82619 | pgbench_history  |         14729216
 2017-02-06 19:18:21.826189+01 | 1486405101.82619 | pgbench_branches |         11272192

 2017-02-06 19:18:22.901184+01 | 1486405102.90118 | pgbench_accounts |      13816782848
 2017-02-06 19:18:22.901184+01 | 1486405102.90118 | pgbench_tellers  |         15220736
 2017-02-06 19:18:22.901184+01 | 1486405102.90118 | pgbench_history  |         15302656
 2017-02-06 19:18:22.901184+01 | 1486405102.90118 | pgbench_branches |         11272192

 2017-02-06 19:18:23.97316+01 | 1486405103.97316 | pgbench_accounts |      13816840192
 2017-02-06 19:18:23.97316+01 | 1486405103.97316 | pgbench_tellers  |         15220736
 2017-02-06 19:18:23.97316+01 | 1486405103.97316 | pgbench_history  |         16048128
 2017-02-06 19:18:23.97316+01 | 1486405103.97316 | pgbench_branches |         11272192

 2017-02-06 19:18:25.051831+01 | 1486405105.05183 | pgbench_accounts |      13816905728
 2017-02-06 19:18:25.051831+01 | 1486405105.05183 | pgbench_tellers  |         15220736
 2017-02-06 19:18:25.051831+01 | 1486405105.05183 | pgbench_history  |         16261120
 2017-02-06 19:18:25.051831+01 | 1486405105.05183 | pgbench_branches |         11272192

 2017-02-06 19:18:26.133627+01 | 1486405106.13363 | pgbench_accounts |      13816963072
 2017-02-06 19:18:26.133627+01 | 1486405106.13363 | pgbench_tellers  |         15220736
 2017-02-06 19:18:26.133627+01 | 1486405106.13363 | pgbench_history  |         16883712
 2017-02-06 19:18:26.133627+01 | 1486405106.13363 | pgbench_branches |         11272192

 2017-02-06 19:18:27.222468+01 | 1486405107.22247 | pgbench_accounts |      13817028608
 2017-02-06 19:18:27.222468+01 | 1486405107.22247 | pgbench_tellers  |         15220736
 2017-02-06 19:18:27.222468+01 | 1486405107.22247 | pgbench_history  |         17473536
 2017-02-06 19:18:27.222468+01 | 1486405107.22247 | pgbench_branches |         11272192

 2017-02-06 19:18:28.294739+01 | 1486405108.29474 | pgbench_accounts |      13817102336
 2017-02-06 19:18:28.294739+01 | 1486405108.29474 | pgbench_tellers  |         15220736
 2017-02-06 19:18:28.294739+01 | 1486405108.29474 | pgbench_history  |         17997824
 2017-02-06 19:18:28.294739+01 | 1486405108.29474 | pgbench_branches |         11272192

 2017-02-06 19:18:29.370105+01 | 1486405109.37011 | pgbench_accounts |      13817176064
 2017-02-06 19:18:29.370105+01 | 1486405109.37011 | pgbench_tellers  |         15220736
 2017-02-06 19:18:29.370105+01 | 1486405109.37011 | pgbench_history  |         18882560
 2017-02-06 19:18:29.370105+01 | 1486405109.37011 | pgbench_branches |         11272192

 2017-02-06 19:18:30.448199+01 | 1486405110.4482 | pgbench_accounts |      13817241600
 2017-02-06 19:18:30.448199+01 | 1486405110.4482 | pgbench_tellers  |         15220736
 2017-02-06 19:18:30.448199+01 | 1486405110.4482 | pgbench_history  |         19070976
 2017-02-06 19:18:30.448199+01 | 1486405110.4482 | pgbench_branches |         11272192

 2017-02-06 19:18:31.529225+01 | 1486405111.52923 | pgbench_accounts |      13817307136
 2017-02-06 19:18:31.529225+01 | 1486405111.52923 | pgbench_tellers  |         15220736
 2017-02-06 19:18:31.529225+01 | 1486405111.52923 | pgbench_history  |         19628032
 2017-02-06 19:18:31.529225+01 | 1486405111.52923 | pgbench_branches |         11272192

 2017-02-06 19:18:32.602529+01 | 1486405112.60253 | pgbench_accounts |      13817372672
 2017-02-06 19:18:32.602529+01 | 1486405112.60253 | pgbench_tellers  |         15220736
 2017-02-06 19:18:32.602529+01 | 1486405112.60253 | pgbench_history  |         20234240
 2017-02-06 19:18:32.602529+01 | 1486405112.60253 | pgbench_branches |         11272192

 2017-02-06 19:18:33.687452+01 | 1486405113.68745 | pgbench_accounts |      13817438208
 2017-02-06 19:18:33.687452+01 | 1486405113.68745 | pgbench_tellers  |         15220736
 2017-02-06 19:18:33.687452+01 | 1486405113.68745 | pgbench_history  |         20824064
 2017-02-06 19:18:33.687452+01 | 1486405113.68745 | pgbench_branches |         11272192

 2017-02-06 19:18:34.773413+01 | 1486405114.77341 | pgbench_accounts |      13817495552
 2017-02-06 19:18:34.773413+01 | 1486405114.77341 | pgbench_tellers  |         15220736
 2017-02-06 19:18:34.773413+01 | 1486405114.77341 | pgbench_history  |         21364736
 2017-02-06 19:18:34.773413+01 | 1486405114.77341 | pgbench_branches |         11272192

 2017-02-06 19:18:35.858819+01 | 1486405115.85882 | pgbench_accounts |      13817536512
 2017-02-06 19:18:35.858819+01 | 1486405115.85882 | pgbench_tellers  |         15220736
 2017-02-06 19:18:35.858819+01 | 1486405115.85882 | pgbench_history  |         21987328
 2017-02-06 19:18:35.858819+01 | 1486405115.85882 | pgbench_branches |         11272192

 2017-02-06 19:18:36.931678+01 | 1486405116.93168 | pgbench_accounts |      13817602048
 2017-02-06 19:18:36.931678+01 | 1486405116.93168 | pgbench_tellers  |         15220736
 2017-02-06 19:18:36.931678+01 | 1486405116.93168 | pgbench_history  |         22511616
 2017-02-06 19:18:36.931678+01 | 1486405116.93168 | pgbench_branches |         11272192

 2017-02-06 19:18:38.012756+01 | 1486405118.01276 | pgbench_accounts |      13817667584
 2017-02-06 19:18:38.012756+01 | 1486405118.01276 | pgbench_tellers  |         15220736
 2017-02-06 19:18:38.012756+01 | 1486405118.01276 | pgbench_history  |         23109632
 2017-02-06 19:18:38.012756+01 | 1486405118.01276 | pgbench_branches |         11272192

 2017-02-06 19:18:39.102333+01 | 1486405119.10233 | pgbench_accounts |      13817733120
 2017-02-06 19:18:39.102333+01 | 1486405119.10233 | pgbench_tellers  |         15220736
 2017-02-06 19:18:39.102333+01 | 1486405119.10233 | pgbench_history  |         23527424
 2017-02-06 19:18:39.102333+01 | 1486405119.10233 | pgbench_branches |         11272192

 2017-02-06 19:18:40.196735+01 | 1486405120.19673 | pgbench_accounts |      13817782272
 2017-02-06 19:18:40.196735+01 | 1486405120.19673 | pgbench_tellers  |         15220736
 2017-02-06 19:18:40.196735+01 | 1486405120.19673 | pgbench_history  |         24092672
 2017-02-06 19:18:40.196735+01 | 1486405120.19673 | pgbench_branches |         11272192

 2017-02-06 19:18:41.285209+01 | 1486405121.28521 | pgbench_accounts |      13817847808
 2017-02-06 19:18:41.285209+01 | 1486405121.28521 | pgbench_tellers  |         15220736
 2017-02-06 19:18:41.285209+01 | 1486405121.28521 | pgbench_history  |         24608768
 2017-02-06 19:18:41.285209+01 | 1486405121.28521 | pgbench_branches |         11272192

 2017-02-06 19:18:42.356448+01 | 1486405122.35645 | pgbench_accounts |      13817905152
 2017-02-06 19:18:42.356448+01 | 1486405122.35645 | pgbench_tellers  |         15220736
 2017-02-06 19:18:42.356448+01 | 1486405122.35645 | pgbench_history  |         25182208
 2017-02-06 19:18:42.356448+01 | 1486405122.35645 | pgbench_branches |         11272192

 2017-02-06 19:18:43.429804+01 | 1486405123.4298 | pgbench_accounts |      13817970688
 2017-02-06 19:18:43.429804+01 | 1486405123.4298 | pgbench_tellers  |         15220736
 2017-02-06 19:18:43.429804+01 | 1486405123.4298 | pgbench_history  |         25591808
 2017-02-06 19:18:43.429804+01 | 1486405123.4298 | pgbench_branches |         11272192

 2017-02-06 19:18:44.505067+01 | 1486405124.50507 | pgbench_accounts |      13818028032
 2017-02-06 19:18:44.505067+01 | 1486405124.50507 | pgbench_tellers  |         15220736
 2017-02-06 19:18:44.505067+01 | 1486405124.50507 | pgbench_history  |         26148864
 2017-02-06 19:18:44.505067+01 | 1486405124.50507 | pgbench_branches |         11272192

 2017-02-06 19:18:45.591797+01 | 1486405125.5918 | pgbench_accounts |      13818109952
 2017-02-06 19:18:45.591797+01 | 1486405125.5918 | pgbench_tellers  |         15220736
 2017-02-06 19:18:45.591797+01 | 1486405125.5918 | pgbench_history  |         26730496
 2017-02-06 19:18:45.591797+01 | 1486405125.5918 | pgbench_branches |         11272192

 2017-02-06 19:18:46.666649+01 | 1486405126.66665 | pgbench_accounts |      13818167296
 2017-02-06 19:18:46.666649+01 | 1486405126.66665 | pgbench_tellers  |         15220736
 2017-02-06 19:18:46.666649+01 | 1486405126.66665 | pgbench_history  |         27279360
 2017-02-06 19:18:46.666649+01 | 1486405126.66665 | pgbench_branches |         11272192

 2017-02-06 19:18:47.744771+01 | 1486405127.74477 | pgbench_accounts |      13818224640
 2017-02-06 19:18:47.744771+01 | 1486405127.74477 | pgbench_tellers  |         15220736
 2017-02-06 19:18:47.744771+01 | 1486405127.74477 | pgbench_history  |         27885568
 2017-02-06 19:18:47.744771+01 | 1486405127.74477 | pgbench_branches |         11272192

 2017-02-06 19:18:48.819381+01 | 1486405128.81938 | pgbench_accounts |      13818290176
 2017-02-06 19:18:48.819381+01 | 1486405128.81938 | pgbench_tellers  |         15220736
 2017-02-06 19:18:48.819381+01 | 1486405128.81938 | pgbench_history  |         28729344
 2017-02-06 19:18:48.819381+01 | 1486405128.81938 | pgbench_branches |         11272192

 2017-02-06 19:18:49.901567+01 | 1486405129.90157 | pgbench_accounts |      13818363904
 2017-02-06 19:18:49.901567+01 | 1486405129.90157 | pgbench_tellers  |         15220736
 2017-02-06 19:18:49.901567+01 | 1486405129.90157 | pgbench_history  |         28925952
 2017-02-06 19:18:49.901567+01 | 1486405129.90157 | pgbench_branches |         11272192

 2017-02-06 19:18:50.979218+01 | 1486405130.97922 | pgbench_accounts |      13818413056
 2017-02-06 19:18:50.979218+01 | 1486405130.97922 | pgbench_tellers  |         15220736
 2017-02-06 19:18:50.979218+01 | 1486405130.97922 | pgbench_history  |         29532160
 2017-02-06 19:18:50.979218+01 | 1486405130.97922 | pgbench_branches |         11272192

 2017-02-06 19:18:52.060257+01 | 1486405132.06026 | pgbench_accounts |      13818478592
 2017-02-06 19:18:52.060257+01 | 1486405132.06026 | pgbench_tellers  |         15220736
 2017-02-06 19:18:52.060257+01 | 1486405132.06026 | pgbench_history  |         30294016
 2017-02-06 19:18:52.060257+01 | 1486405132.06026 | pgbench_branches |         11272192

 2017-02-06 19:18:53.135252+01 | 1486405133.13525 | pgbench_accounts |      13818560512
 2017-02-06 19:18:53.135252+01 | 1486405133.13525 | pgbench_tellers  |         15220736
 2017-02-06 19:18:53.135252+01 | 1486405133.13525 | pgbench_history  |         30859264
 2017-02-06 19:18:53.135252+01 | 1486405133.13525 | pgbench_branches |         11272192

 2017-02-06 19:18:54.215481+01 | 1486405134.21548 | pgbench_accounts |      13818634240
 2017-02-06 19:18:54.215481+01 | 1486405134.21548 | pgbench_tellers  |         15220736
 2017-02-06 19:18:54.215481+01 | 1486405134.21548 | pgbench_history  |         31670272
 2017-02-06 19:18:54.215481+01 | 1486405134.21548 | pgbench_branches |         11272192

 2017-02-06 19:18:55.30701+01 | 1486405135.30701 | pgbench_accounts |      13818724352
 2017-02-06 19:18:55.30701+01 | 1486405135.30701 | pgbench_tellers  |         15220736
 2017-02-06 19:18:55.30701+01 | 1486405135.30701 | pgbench_history  |         32055296
 2017-02-06 19:18:55.30701+01 | 1486405135.30701 | pgbench_branches |         11272192

 2017-02-06 19:18:56.392067+01 | 1486405136.39207 | pgbench_accounts |      13818798080
 2017-02-06 19:18:56.392067+01 | 1486405136.39207 | pgbench_tellers  |         15220736
 2017-02-06 19:18:56.392067+01 | 1486405136.39207 | pgbench_history  |         32612352
 2017-02-06 19:18:56.392067+01 | 1486405136.39207 | pgbench_branches |         11272192

 2017-02-06 19:18:57.476973+01 | 1486405137.47697 | pgbench_accounts |      13819035648
 2017-02-06 19:18:57.476973+01 | 1486405137.47697 | pgbench_tellers  |         15220736
 2017-02-06 19:18:57.476973+01 | 1486405137.47697 | pgbench_history  |         33423360
 2017-02-06 19:18:57.476973+01 | 1486405137.47697 | pgbench_branches |         11272192

 2017-02-06 19:18:58.558416+01 | 1486405138.55842 | pgbench_accounts |      13819035648
 2017-02-06 19:18:58.558416+01 | 1486405138.55842 | pgbench_tellers  |         15220736
 2017-02-06 19:18:58.558416+01 | 1486405138.55842 | pgbench_history  |         33783808
 2017-02-06 19:18:58.558416+01 | 1486405138.55842 | pgbench_branches |         11272192

 2017-02-06 19:18:59.63736+01 | 1486405139.63736 | pgbench_accounts |      13819035648
 2017-02-06 19:18:59.63736+01 | 1486405139.63736 | pgbench_tellers  |         15220736
 2017-02-06 19:18:59.63736+01 | 1486405139.63736 | pgbench_history  |         34562048
 2017-02-06 19:18:59.63736+01 | 1486405139.63736 | pgbench_branches |         11272192

 2017-02-06 19:19:00.711393+01 | 1486405140.71139 | pgbench_accounts |      13819035648
 2017-02-06 19:19:00.711393+01 | 1486405140.71139 | pgbench_tellers  |         15220736
 2017-02-06 19:19:00.711393+01 | 1486405140.71139 | pgbench_history  |         34930688
 2017-02-06 19:19:00.711393+01 | 1486405140.71139 | pgbench_branches |         11272192

 2017-02-06 19:19:01.785713+01 | 1486405141.78571 | pgbench_accounts |      13819101184
 2017-02-06 19:19:01.785713+01 | 1486405141.78571 | pgbench_tellers  |         15220736
 2017-02-06 19:19:01.785713+01 | 1486405141.78571 | pgbench_history  |         35536896
 2017-02-06 19:19:01.785713+01 | 1486405141.78571 | pgbench_branches |         11272192

 2017-02-06 19:19:02.874452+01 | 1486405142.87445 | pgbench_accounts |      13819166720
 2017-02-06 19:19:02.874452+01 | 1486405142.87445 | pgbench_tellers  |         15220736
 2017-02-06 19:19:02.874452+01 | 1486405142.87445 | pgbench_history  |         36118528
 2017-02-06 19:19:02.874452+01 | 1486405142.87445 | pgbench_branches |         11272192

 2017-02-06 19:19:03.954785+01 | 1486405143.95479 | pgbench_accounts |      13819232256
 2017-02-06 19:19:03.954785+01 | 1486405143.95479 | pgbench_tellers  |         15220736
 2017-02-06 19:19:03.954785+01 | 1486405143.95479 | pgbench_history  |         36708352
 2017-02-06 19:19:03.954785+01 | 1486405143.95479 | pgbench_branches |         11272192

 2017-02-06 19:19:05.034987+01 | 1486405145.03499 | pgbench_accounts |      13819297792
 2017-02-06 19:19:05.034987+01 | 1486405145.03499 | pgbench_tellers  |         15220736
 2017-02-06 19:19:05.034987+01 | 1486405145.03499 | pgbench_history  |         37289984
 2017-02-06 19:19:05.034987+01 | 1486405145.03499 | pgbench_branches |         11272192

 2017-02-06 19:19:06.114811+01 | 1486405146.11481 | pgbench_accounts |      13819363328
 2017-02-06 19:19:06.114811+01 | 1486405146.11481 | pgbench_tellers  |         15220736
 2017-02-06 19:19:06.114811+01 | 1486405146.11481 | pgbench_history  |         37863424
 2017-02-06 19:19:06.114811+01 | 1486405146.11481 | pgbench_branches |         11272192

 2017-02-06 19:19:07.186437+01 | 1486405147.18644 | pgbench_accounts |      13819428864
 2017-02-06 19:19:07.186437+01 | 1486405147.18644 | pgbench_tellers  |         15220736
 2017-02-06 19:19:07.186437+01 | 1486405147.18644 | pgbench_history  |         38453248
 2017-02-06 19:19:07.186437+01 | 1486405147.18644 | pgbench_branches |         11272192

 2017-02-06 19:19:08.265466+01 | 1486405148.26547 | pgbench_accounts |      13819494400
 2017-02-06 19:19:08.265466+01 | 1486405148.26547 | pgbench_tellers  |         15220736
 2017-02-06 19:19:08.265466+01 | 1486405148.26547 | pgbench_history  |         39051264
 2017-02-06 19:19:08.265466+01 | 1486405148.26547 | pgbench_branches |         11272192

 2017-02-06 19:19:09.347976+01 | 1486405149.34798 | pgbench_accounts |      13819559936
 2017-02-06 19:19:09.347976+01 | 1486405149.34798 | pgbench_tellers  |         15220736
 2017-02-06 19:19:09.347976+01 | 1486405149.34798 | pgbench_history  |         39673856
 2017-02-06 19:19:09.347976+01 | 1486405149.34798 | pgbench_branches |         11272192

 2017-02-06 19:19:10.439516+01 | 1486405150.43952 | pgbench_accounts |      13819625472
 2017-02-06 19:19:10.439516+01 | 1486405150.43952 | pgbench_tellers  |         15220736
 2017-02-06 19:19:10.439516+01 | 1486405150.43952 | pgbench_history  |         40402944
 2017-02-06 19:19:10.439516+01 | 1486405150.43952 | pgbench_branches |         11272192

 2017-02-06 19:19:11.519741+01 | 1486405151.51974 | pgbench_accounts |      13819691008
 2017-02-06 19:19:11.519741+01 | 1486405151.51974 | pgbench_tellers  |         15220736
 2017-02-06 19:19:11.519741+01 | 1486405151.51974 | pgbench_history  |         40976384
 2017-02-06 19:19:11.519741+01 | 1486405151.51974 | pgbench_branches |         11272192

 2017-02-06 19:19:12.607264+01 | 1486405152.60726 | pgbench_accounts |      13819756544
 2017-02-06 19:19:12.607264+01 | 1486405152.60726 | pgbench_tellers  |         15220736
 2017-02-06 19:19:12.607264+01 | 1486405152.60726 | pgbench_history  |         41549824
 2017-02-06 19:19:12.607264+01 | 1486405152.60726 | pgbench_branches |         11272192

 2017-02-06 19:19:13.690826+01 | 1486405153.69083 | pgbench_accounts |      13819822080
 2017-02-06 19:19:13.690826+01 | 1486405153.69083 | pgbench_tellers  |         15220736
 2017-02-06 19:19:13.690826+01 | 1486405153.69083 | pgbench_history  |         42598400
 2017-02-06 19:19:13.690826+01 | 1486405153.69083 | pgbench_branches |         11272192

 2017-02-06 19:19:14.773539+01 | 1486405154.77354 | pgbench_accounts |      13819887616
 2017-02-06 19:19:14.773539+01 | 1486405154.77354 | pgbench_tellers  |         15220736
 2017-02-06 19:19:14.773539+01 | 1486405154.77354 | pgbench_history  |         42598400
 2017-02-06 19:19:14.773539+01 | 1486405154.77354 | pgbench_branches |         11272192

 2017-02-06 19:19:15.853659+01 | 1486405155.85366 | pgbench_accounts |      13819944960
 2017-02-06 19:19:15.853659+01 | 1486405155.85366 | pgbench_tellers  |         15220736
 2017-02-06 19:19:15.853659+01 | 1486405155.85366 | pgbench_history  |         43163648
 2017-02-06 19:19:15.853659+01 | 1486405155.85366 | pgbench_branches |         11272192

 2017-02-06 19:19:16.937295+01 | 1486405156.93729 | pgbench_accounts |      13819969536
 2017-02-06 19:19:16.937295+01 | 1486405156.93729 | pgbench_tellers  |         15220736
 2017-02-06 19:19:16.937295+01 | 1486405156.93729 | pgbench_history  |         43696128
 2017-02-06 19:19:16.937295+01 | 1486405156.93729 | pgbench_branches |         11272192

 2017-02-06 19:19:18.028937+01 | 1486405158.02894 | pgbench_accounts |      13820035072
 2017-02-06 19:19:18.028937+01 | 1486405158.02894 | pgbench_tellers  |         15220736
 2017-02-06 19:19:18.028937+01 | 1486405158.02894 | pgbench_history  |         44089344
 2017-02-06 19:19:18.028937+01 | 1486405158.02894 | pgbench_branches |         11272192

 2017-02-06 19:19:19.116873+01 | 1486405159.11687 | pgbench_accounts |      13820084224
 2017-02-06 19:19:19.116873+01 | 1486405159.11687 | pgbench_tellers  |         15220736
 2017-02-06 19:19:19.116873+01 | 1486405159.11687 | pgbench_history  |         44802048
 2017-02-06 19:19:19.116873+01 | 1486405159.11687 | pgbench_branches |         11272192

 2017-02-06 19:19:20.194809+01 | 1486405160.19481 | pgbench_accounts |      13820149760
 2017-02-06 19:19:20.194809+01 | 1486405160.19481 | pgbench_tellers  |         15220736
 2017-02-06 19:19:20.194809+01 | 1486405160.19481 | pgbench_history  |         45342720
 2017-02-06 19:19:20.194809+01 | 1486405160.19481 | pgbench_branches |         11272192

 2017-02-06 19:19:21.286693+01 | 1486405161.28669 | pgbench_accounts |      13820215296
 2017-02-06 19:19:21.286693+01 | 1486405161.28669 | pgbench_tellers  |         15220736
 2017-02-06 19:19:21.286693+01 | 1486405161.28669 | pgbench_history  |         45744128
 2017-02-06 19:19:21.286693+01 | 1486405161.28669 | pgbench_branches |         11272192

 2017-02-06 19:19:22.380459+01 | 1486405162.38046 | pgbench_accounts |      13820280832
 2017-02-06 19:19:22.380459+01 | 1486405162.38046 | pgbench_tellers  |         15220736
 2017-02-06 19:19:22.380459+01 | 1486405162.38046 | pgbench_history  |         46276608
 2017-02-06 19:19:22.380459+01 | 1486405162.38046 | pgbench_branches |         11272192

 2017-02-06 19:19:23.462678+01 | 1486405163.46268 | pgbench_accounts |      13820338176
 2017-02-06 19:19:23.462678+01 | 1486405163.46268 | pgbench_tellers  |         15220736
 2017-02-06 19:19:23.462678+01 | 1486405163.46268 | pgbench_history  |         46710784
 2017-02-06 19:19:23.462678+01 | 1486405163.46268 | pgbench_branches |         11272192

 2017-02-06 19:19:24.546429+01 | 1486405164.54643 | pgbench_accounts |      13820403712
 2017-02-06 19:19:24.546429+01 | 1486405164.54643 | pgbench_tellers  |         15220736
 2017-02-06 19:19:24.546429+01 | 1486405164.54643 | pgbench_history  |         47235072
 2017-02-06 19:19:24.546429+01 | 1486405164.54643 | pgbench_branches |         11272192

 2017-02-06 19:19:25.636237+01 | 1486405165.63624 | pgbench_accounts |      13820469248
 2017-02-06 19:19:25.636237+01 | 1486405165.63624 | pgbench_tellers  |         15220736
 2017-02-06 19:19:25.636237+01 | 1486405165.63624 | pgbench_history  |         47947776
 2017-02-06 19:19:25.636237+01 | 1486405165.63624 | pgbench_branches |         11272192

 2017-02-06 19:19:26.723852+01 | 1486405166.72385 | pgbench_accounts |      13820534784
 2017-02-06 19:19:26.723852+01 | 1486405166.72385 | pgbench_tellers  |         15220736
 2017-02-06 19:19:26.723852+01 | 1486405166.72385 | pgbench_history  |         48480256
 2017-02-06 19:19:26.723852+01 | 1486405166.72385 | pgbench_branches |         11272192

 2017-02-06 19:19:27.816201+01 | 1486405167.8162 | pgbench_accounts |      13820600320
 2017-02-06 19:19:27.816201+01 | 1486405167.8162 | pgbench_tellers  |         15220736
 2017-02-06 19:19:27.816201+01 | 1486405167.8162 | pgbench_history  |         49053696
 2017-02-06 19:19:27.816201+01 | 1486405167.8162 | pgbench_branches |         11272192

 2017-02-06 19:19:28.910506+01 | 1486405168.91051 | pgbench_accounts |      13820674048
 2017-02-06 19:19:28.910506+01 | 1486405168.91051 | pgbench_tellers  |         15220736
 2017-02-06 19:19:28.910506+01 | 1486405168.91051 | pgbench_history  |         49651712
 2017-02-06 19:19:28.910506+01 | 1486405168.91051 | pgbench_branches |         11272192

 2017-02-06 19:19:30.00068+01 | 1486405170.00068 | pgbench_accounts |      13820731392
 2017-02-06 19:19:30.00068+01 | 1486405170.00068 | pgbench_tellers  |         15220736
 2017-02-06 19:19:30.00068+01 | 1486405170.00068 | pgbench_history  |         50380800
 2017-02-06 19:19:30.00068+01 | 1486405170.00068 | pgbench_branches |         11272192

 2017-02-06 19:19:31.084067+01 | 1486405171.08407 | pgbench_accounts |      13820796928
 2017-02-06 19:19:31.084067+01 | 1486405171.08407 | pgbench_tellers  |         15220736
 2017-02-06 19:19:31.084067+01 | 1486405171.08407 | pgbench_history  |         50675712
 2017-02-06 19:19:31.084067+01 | 1486405171.08407 | pgbench_branches |         11272192

 2017-02-06 19:19:32.162598+01 | 1486405172.1626 | pgbench_accounts |      13820854272
 2017-02-06 19:19:32.162598+01 | 1486405172.1626 | pgbench_tellers  |         15220736
 2017-02-06 19:19:32.162598+01 | 1486405172.1626 | pgbench_history  |         51240960
 2017-02-06 19:19:32.162598+01 | 1486405172.1626 | pgbench_branches |         11272192

 2017-02-06 19:19:33.241584+01 | 1486405173.24158 | pgbench_accounts |      13820919808
 2017-02-06 19:19:33.241584+01 | 1486405173.24158 | pgbench_tellers  |         15220736
 2017-02-06 19:19:33.241584+01 | 1486405173.24158 | pgbench_history  |         51732480
 2017-02-06 19:19:33.241584+01 | 1486405173.24158 | pgbench_branches |         11272192

 2017-02-06 19:19:34.31747+01 | 1486405174.31747 | pgbench_accounts |      13820985344
 2017-02-06 19:19:34.31747+01 | 1486405174.31747 | pgbench_tellers  |         15220736
 2017-02-06 19:19:34.31747+01 | 1486405174.31747 | pgbench_history  |         52281344
 2017-02-06 19:19:34.31747+01 | 1486405174.31747 | pgbench_branches |         11272192

 2017-02-06 19:19:35.394408+01 | 1486405175.39441 | pgbench_accounts |      13821050880
 2017-02-06 19:19:35.394408+01 | 1486405175.39441 | pgbench_tellers  |         15220736
 2017-02-06 19:19:35.394408+01 | 1486405175.39441 | pgbench_history  |         52846592
 2017-02-06 19:19:35.394408+01 | 1486405175.39441 | pgbench_branches |         11272192

 2017-02-06 19:19:36.478792+01 | 1486405176.47879 | pgbench_accounts |      13821108224
 2017-02-06 19:19:36.478792+01 | 1486405176.47879 | pgbench_tellers  |         15220736
 2017-02-06 19:19:36.478792+01 | 1486405176.47879 | pgbench_history  |         53321728
 2017-02-06 19:19:36.478792+01 | 1486405176.47879 | pgbench_branches |         11272192

 2017-02-06 19:19:37.569252+01 | 1486405177.56925 | pgbench_accounts |      13821173760
 2017-02-06 19:19:37.569252+01 | 1486405177.56925 | pgbench_tellers  |         15220736
 2017-02-06 19:19:37.569252+01 | 1486405177.56925 | pgbench_history  |         53903360
 2017-02-06 19:19:37.569252+01 | 1486405177.56925 | pgbench_branches |         11272192

 2017-02-06 19:19:38.65302+01 | 1486405178.65302 | pgbench_accounts |      13821239296
 2017-02-06 19:19:38.65302+01 | 1486405178.65302 | pgbench_tellers  |         15220736
 2017-02-06 19:19:38.65302+01 | 1486405178.65302 | pgbench_history  |         54452224
 2017-02-06 19:19:38.65302+01 | 1486405178.65302 | pgbench_branches |         11272192

 2017-02-06 19:19:39.73888+01 | 1486405179.73888 | pgbench_accounts |      13821280256
 2017-02-06 19:19:39.73888+01 | 1486405179.73888 | pgbench_tellers  |         15220736
 2017-02-06 19:19:39.73888+01 | 1486405179.73888 | pgbench_history  |         55001088
 2017-02-06 19:19:39.73888+01 | 1486405179.73888 | pgbench_branches |         11272192

 2017-02-06 19:19:40.820148+01 | 1486405180.82015 | pgbench_accounts |      13821345792
 2017-02-06 19:19:40.820148+01 | 1486405180.82015 | pgbench_tellers  |         15220736
 2017-02-06 19:19:40.820148+01 | 1486405180.82015 | pgbench_history  |         55500800
 2017-02-06 19:19:40.820148+01 | 1486405180.82015 | pgbench_branches |         11272192

 2017-02-06 19:19:41.902487+01 | 1486405181.90249 | pgbench_accounts |      13821411328
 2017-02-06 19:19:41.902487+01 | 1486405181.90249 | pgbench_tellers  |         15220736
 2017-02-06 19:19:41.902487+01 | 1486405181.90249 | pgbench_history  |         56066048
 2017-02-06 19:19:41.902487+01 | 1486405181.90249 | pgbench_branches |         11272192

 2017-02-06 19:19:42.988121+01 | 1486405182.98812 | pgbench_accounts |      13821468672
 2017-02-06 19:19:42.988121+01 | 1486405182.98812 | pgbench_tellers  |         15220736
 2017-02-06 19:19:42.988121+01 | 1486405182.98812 | pgbench_history  |         56647680
 2017-02-06 19:19:42.988121+01 | 1486405182.98812 | pgbench_branches |         11272192

 2017-02-06 19:19:44.057962+01 | 1486405184.05796 | pgbench_accounts |      13821526016
 2017-02-06 19:19:44.057962+01 | 1486405184.05796 | pgbench_tellers  |         15220736
 2017-02-06 19:19:44.057962+01 | 1486405184.05796 | pgbench_history  |         57122816
 2017-02-06 19:19:44.057962+01 | 1486405184.05796 | pgbench_branches |         11272192

 2017-02-06 19:19:45.147024+01 | 1486405185.14702 | pgbench_accounts |      13821583360
 2017-02-06 19:19:45.147024+01 | 1486405185.14702 | pgbench_tellers  |         15220736
 2017-02-06 19:19:45.147024+01 | 1486405185.14702 | pgbench_history  |         57835520
 2017-02-06 19:19:45.147024+01 | 1486405185.14702 | pgbench_branches |         11272192

 2017-02-06 19:19:46.220704+01 | 1486405186.2207 | pgbench_accounts |      13821640704
 2017-02-06 19:19:46.220704+01 | 1486405186.2207 | pgbench_tellers  |         15220736
 2017-02-06 19:19:46.220704+01 | 1486405186.2207 | pgbench_history  |         58228736
 2017-02-06 19:19:46.220704+01 | 1486405186.2207 | pgbench_branches |         11272192

 2017-02-06 19:19:47.291202+01 | 1486405187.2912 | pgbench_accounts |      13821706240
 2017-02-06 19:19:47.291202+01 | 1486405187.2912 | pgbench_tellers  |         15220736
 2017-02-06 19:19:47.291202+01 | 1486405187.2912 | pgbench_history  |         58966016
 2017-02-06 19:19:47.291202+01 | 1486405187.2912 | pgbench_branches |         11272192

 2017-02-06 19:19:48.365202+01 | 1486405188.3652 | pgbench_accounts |      13821763584
 2017-02-06 19:19:48.365202+01 | 1486405188.3652 | pgbench_tellers  |         15220736
 2017-02-06 19:19:48.365202+01 | 1486405188.3652 | pgbench_history  |         59342848
 2017-02-06 19:19:48.365202+01 | 1486405188.3652 | pgbench_branches |         11272192

 2017-02-06 19:19:49.44059+01 | 1486405189.44059 | pgbench_accounts |      13821820928
 2017-02-06 19:19:49.44059+01 | 1486405189.44059 | pgbench_tellers  |         15220736
 2017-02-06 19:19:49.44059+01 | 1486405189.44059 | pgbench_history  |         59924480
 2017-02-06 19:19:49.44059+01 | 1486405189.44059 | pgbench_branches |         11272192

 2017-02-06 19:19:50.527238+01 | 1486405190.52724 | pgbench_accounts |      13821886464
 2017-02-06 19:19:50.527238+01 | 1486405190.52724 | pgbench_tellers  |         15220736
 2017-02-06 19:19:50.527238+01 | 1486405190.52724 | pgbench_history  |         60481536
 2017-02-06 19:19:50.527238+01 | 1486405190.52724 | pgbench_branches |         11272192

 2017-02-06 19:19:51.601864+01 | 1486405191.60186 | pgbench_accounts |      13821927424
 2017-02-06 19:19:51.601864+01 | 1486405191.60186 | pgbench_tellers  |         15220736
 2017-02-06 19:19:51.601864+01 | 1486405191.60186 | pgbench_history  |         61054976
 2017-02-06 19:19:51.601864+01 | 1486405191.60186 | pgbench_branches |         11272192

 2017-02-06 19:19:52.694985+01 | 1486405192.69498 | pgbench_accounts |      13821992960
 2017-02-06 19:19:52.694985+01 | 1486405192.69498 | pgbench_tellers  |         15220736
 2017-02-06 19:19:52.694985+01 | 1486405192.69498 | pgbench_history  |         61685760
 2017-02-06 19:19:52.694985+01 | 1486405192.69498 | pgbench_branches |         11272192

 2017-02-06 19:19:53.786329+01 | 1486405193.78633 | pgbench_accounts |      13822058496
 2017-02-06 19:19:53.786329+01 | 1486405193.78633 | pgbench_tellers  |         15220736
 2017-02-06 19:19:53.786329+01 | 1486405193.78633 | pgbench_history  |         62210048
 2017-02-06 19:19:53.786329+01 | 1486405193.78633 | pgbench_branches |         11272192

 2017-02-06 19:19:54.863144+01 | 1486405194.86314 | pgbench_accounts |      13822115840
 2017-02-06 19:19:54.863144+01 | 1486405194.86314 | pgbench_tellers  |         15220736
 2017-02-06 19:19:54.863144+01 | 1486405194.86314 | pgbench_history  |         62734336
 2017-02-06 19:19:54.863144+01 | 1486405194.86314 | pgbench_branches |         11272192

 2017-02-06 19:19:55.940098+01 | 1486405195.9401 | pgbench_accounts |      13822173184
 2017-02-06 19:19:55.940098+01 | 1486405195.9401 | pgbench_tellers  |         15220736
 2017-02-06 19:19:55.940098+01 | 1486405195.9401 | pgbench_history  |         63127552
 2017-02-06 19:19:55.940098+01 | 1486405195.9401 | pgbench_branches |         11272192

 2017-02-06 19:19:57.021723+01 | 1486405197.02172 | pgbench_accounts |      13822230528
 2017-02-06 19:19:57.021723+01 | 1486405197.02172 | pgbench_tellers  |         15220736
 2017-02-06 19:19:57.021723+01 | 1486405197.02172 | pgbench_history  |         63651840
 2017-02-06 19:19:57.021723+01 | 1486405197.02172 | pgbench_branches |         11272192

 2017-02-06 19:19:58.107766+01 | 1486405198.10777 | pgbench_accounts |      13822296064
 2017-02-06 19:19:58.107766+01 | 1486405198.10777 | pgbench_tellers  |         15220736
 2017-02-06 19:19:58.107766+01 | 1486405198.10777 | pgbench_history  |         64536576
 2017-02-06 19:19:58.107766+01 | 1486405198.10777 | pgbench_branches |         11272192

 2017-02-06 19:19:59.179567+01 | 1486405199.17957 | pgbench_accounts |      13822361600
 2017-02-06 19:19:59.179567+01 | 1486405199.17957 | pgbench_tellers  |         15220736
 2017-02-06 19:19:59.179567+01 | 1486405199.17957 | pgbench_history  |         64888832
 2017-02-06 19:19:59.179567+01 | 1486405199.17957 | pgbench_branches |         11272192

 2017-02-06 19:20:00.260792+01 | 1486405200.26079 | pgbench_accounts |      13822410752
 2017-02-06 19:20:00.260792+01 | 1486405200.26079 | pgbench_tellers  |         15220736
 2017-02-06 19:20:00.260792+01 | 1486405200.26079 | pgbench_history  |         65331200
 2017-02-06 19:20:00.260792+01 | 1486405200.26079 | pgbench_branches |         11272192

 2017-02-06 19:20:01.343542+01 | 1486405201.34354 | pgbench_accounts |      13822468096
 2017-02-06 19:20:01.343542+01 | 1486405201.34354 | pgbench_tellers  |         15220736
 2017-02-06 19:20:01.343542+01 | 1486405201.34354 | pgbench_history  |         65929216
 2017-02-06 19:20:01.343542+01 | 1486405201.34354 | pgbench_branches |         11272192

 2017-02-06 19:20:02.423061+01 | 1486405202.42306 | pgbench_accounts |      13822533632
 2017-02-06 19:20:02.423061+01 | 1486405202.42306 | pgbench_tellers  |         15220736
 2017-02-06 19:20:02.423061+01 | 1486405202.42306 | pgbench_history  |         66461696
 2017-02-06 19:20:02.423061+01 | 1486405202.42306 | pgbench_branches |         11272192

 2017-02-06 19:20:03.490663+01 | 1486405203.49066 | pgbench_accounts |      13822590976
 2017-02-06 19:20:03.490663+01 | 1486405203.49066 | pgbench_tellers  |         15220736
 2017-02-06 19:20:03.490663+01 | 1486405203.49066 | pgbench_history  |         67346432
 2017-02-06 19:20:03.490663+01 | 1486405203.49066 | pgbench_branches |         11272192

 2017-02-06 19:20:04.569654+01 | 1486405204.56965 | pgbench_accounts |      13822664704
 2017-02-06 19:20:04.569654+01 | 1486405204.56965 | pgbench_tellers  |         15220736
 2017-02-06 19:20:04.569654+01 | 1486405204.56965 | pgbench_history  |         67870720
 2017-02-06 19:20:04.569654+01 | 1486405204.56965 | pgbench_branches |         11272192

 2017-02-06 19:20:05.644152+01 | 1486405205.64415 | pgbench_accounts |      13822713856
 2017-02-06 19:20:05.644152+01 | 1486405205.64415 | pgbench_tellers  |         15220736
 2017-02-06 19:20:05.644152+01 | 1486405205.64415 | pgbench_history  |         68550656
 2017-02-06 19:20:05.644152+01 | 1486405205.64415 | pgbench_branches |         11272192

 2017-02-06 19:20:06.721648+01 | 1486405206.72165 | pgbench_accounts |      13822763008
 2017-02-06 19:20:06.721648+01 | 1486405206.72165 | pgbench_tellers  |         15220736
 2017-02-06 19:20:06.721648+01 | 1486405206.72165 | pgbench_history  |         68739072
 2017-02-06 19:20:06.721648+01 | 1486405206.72165 | pgbench_branches |         11272192

 2017-02-06 19:20:07.804758+01 | 1486405207.80476 | pgbench_accounts |      13822820352
 2017-02-06 19:20:07.804758+01 | 1486405207.80476 | pgbench_tellers  |         15220736
 2017-02-06 19:20:07.804758+01 | 1486405207.80476 | pgbench_history  |         69156864
 2017-02-06 19:20:07.804758+01 | 1486405207.80476 | pgbench_branches |         11272192

 2017-02-06 19:20:08.875484+01 | 1486405208.87548 | pgbench_accounts |      13822869504
 2017-02-06 19:20:08.875484+01 | 1486405208.87548 | pgbench_tellers  |         15220736
 2017-02-06 19:20:08.875484+01 | 1486405208.87548 | pgbench_history  |         69705728
 2017-02-06 19:20:08.875484+01 | 1486405208.87548 | pgbench_branches |         11272192

 2017-02-06 19:20:09.964427+01 | 1486405209.96443 | pgbench_accounts |      13822935040
 2017-02-06 19:20:09.964427+01 | 1486405209.96443 | pgbench_tellers  |         15220736
 2017-02-06 19:20:09.964427+01 | 1486405209.96443 | pgbench_history  |         70254592
 2017-02-06 19:20:09.964427+01 | 1486405209.96443 | pgbench_branches |         11272192

 2017-02-06 19:20:11.052245+01 | 1486405211.05224 | pgbench_accounts |      13822992384
 2017-02-06 19:20:11.052245+01 | 1486405211.05224 | pgbench_tellers  |         15220736
 2017-02-06 19:20:11.052245+01 | 1486405211.05224 | pgbench_history  |         71090176
 2017-02-06 19:20:11.052245+01 | 1486405211.05224 | pgbench_branches |         11272192

 2017-02-06 19:20:12.139133+01 | 1486405212.13913 | pgbench_accounts |      13823057920
 2017-02-06 19:20:12.139133+01 | 1486405212.13913 | pgbench_tellers  |         15220736
 2017-02-06 19:20:12.139133+01 | 1486405212.13913 | pgbench_history  |         71450624
 2017-02-06 19:20:12.139133+01 | 1486405212.13913 | pgbench_branches |         11272192

 2017-02-06 19:20:13.211902+01 | 1486405213.2119 | pgbench_accounts |      13823123456
 2017-02-06 19:20:13.211902+01 | 1486405213.2119 | pgbench_tellers  |         15220736
 2017-02-06 19:20:13.211902+01 | 1486405213.2119 | pgbench_history  |         72007680
 2017-02-06 19:20:13.211902+01 | 1486405213.2119 | pgbench_branches |         11272192

 2017-02-06 19:20:14.295121+01 | 1486405214.29512 | pgbench_accounts |      13823172608
 2017-02-06 19:20:14.295121+01 | 1486405214.29512 | pgbench_tellers  |         15220736
 2017-02-06 19:20:14.295121+01 | 1486405214.29512 | pgbench_history  |         72597504
 2017-02-06 19:20:14.295121+01 | 1486405214.29512 | pgbench_branches |         11272192

 2017-02-06 19:20:15.368467+01 | 1486405215.36847 | pgbench_accounts |      13823229952
 2017-02-06 19:20:15.368467+01 | 1486405215.36847 | pgbench_tellers  |         15220736
 2017-02-06 19:20:15.368467+01 | 1486405215.36847 | pgbench_history  |         73203712
 2017-02-06 19:20:15.368467+01 | 1486405215.36847 | pgbench_branches |         11272192

 2017-02-06 19:20:16.447169+01 | 1486405216.44717 | pgbench_accounts |      13823295488
 2017-02-06 19:20:16.447169+01 | 1486405216.44717 | pgbench_tellers  |         15220736
 2017-02-06 19:20:16.447169+01 | 1486405216.44717 | pgbench_history  |         73940992
 2017-02-06 19:20:16.447169+01 | 1486405216.44717 | pgbench_branches |         11272192

 2017-02-06 19:20:17.519678+01 | 1486405217.51968 | pgbench_accounts |      13823344640
 2017-02-06 19:20:17.519678+01 | 1486405217.51968 | pgbench_tellers  |         15220736
 2017-02-06 19:20:17.519678+01 | 1486405217.51968 | pgbench_history  |         74457088
 2017-02-06 19:20:17.519678+01 | 1486405217.51968 | pgbench_branches |         11272192

 2017-02-06 19:20:18.598956+01 | 1486405218.59896 | pgbench_accounts |      13823418368
 2017-02-06 19:20:18.598956+01 | 1486405218.59896 | pgbench_tellers  |         15220736
 2017-02-06 19:20:18.598956+01 | 1486405218.59896 | pgbench_history  |         74645504
 2017-02-06 19:20:18.598956+01 | 1486405218.59896 | pgbench_branches |         11272192

 2017-02-06 19:20:19.686813+01 | 1486405219.68681 | pgbench_accounts |      13823467520
 2017-02-06 19:20:19.686813+01 | 1486405219.68681 | pgbench_tellers  |         15220736
 2017-02-06 19:20:19.686813+01 | 1486405219.68681 | pgbench_history  |         75177984
 2017-02-06 19:20:19.686813+01 | 1486405219.68681 | pgbench_branches |         11272192

 2017-02-06 19:20:20.780775+01 | 1486405220.78078 | pgbench_accounts |      13823533056
 2017-02-06 19:20:20.780775+01 | 1486405220.78078 | pgbench_tellers  |         15220736
 2017-02-06 19:20:20.780775+01 | 1486405220.78078 | pgbench_history  |         76111872
 2017-02-06 19:20:20.780775+01 | 1486405220.78078 | pgbench_branches |         11272192

 2017-02-06 19:20:21.861269+01 | 1486405221.86127 | pgbench_accounts |      13823590400
 2017-02-06 19:20:21.861269+01 | 1486405221.86127 | pgbench_tellers  |         15220736
 2017-02-06 19:20:21.861269+01 | 1486405221.86127 | pgbench_history  |         76300288
 2017-02-06 19:20:21.861269+01 | 1486405221.86127 | pgbench_branches |         11272192

 2017-02-06 19:20:22.948978+01 | 1486405222.94898 | pgbench_accounts |      13823647744
 2017-02-06 19:20:22.948978+01 | 1486405222.94898 | pgbench_tellers  |         15220736
 2017-02-06 19:20:22.948978+01 | 1486405222.94898 | pgbench_history  |         76980224
 2017-02-06 19:20:22.948978+01 | 1486405222.94898 | pgbench_branches |         11272192

 2017-02-06 19:20:24.030733+01 | 1486405224.03073 | pgbench_accounts |      13823713280
 2017-02-06 19:20:24.030733+01 | 1486405224.03073 | pgbench_tellers  |         15220736
 2017-02-06 19:20:24.030733+01 | 1486405224.03073 | pgbench_history  |         77504512
 2017-02-06 19:20:24.030733+01 | 1486405224.03073 | pgbench_branches |         11272192

 2017-02-06 19:20:25.108611+01 | 1486405225.10861 | pgbench_accounts |      13823770624
 2017-02-06 19:20:25.108611+01 | 1486405225.10861 | pgbench_tellers  |         15220736
 2017-02-06 19:20:25.108611+01 | 1486405225.10861 | pgbench_history  |         78086144
 2017-02-06 19:20:25.108611+01 | 1486405225.10861 | pgbench_branches |         11272192

 2017-02-06 19:20:26.189091+01 | 1486405226.18909 | pgbench_accounts |      13823836160
 2017-02-06 19:20:26.189091+01 | 1486405226.18909 | pgbench_tellers  |         15220736
 2017-02-06 19:20:26.189091+01 | 1486405226.18909 | pgbench_history  |         78553088
 2017-02-06 19:20:26.189091+01 | 1486405226.18909 | pgbench_branches |         11272192

 2017-02-06 19:20:27.278877+01 | 1486405227.27888 | pgbench_accounts |      13823893504
 2017-02-06 19:20:27.278877+01 | 1486405227.27888 | pgbench_tellers  |         15220736
 2017-02-06 19:20:27.278877+01 | 1486405227.27888 | pgbench_history  |         79151104
 2017-02-06 19:20:27.278877+01 | 1486405227.27888 | pgbench_branches |         11272192

 2017-02-06 19:20:28.36516+01 | 1486405228.36516 | pgbench_accounts |      13823959040
 2017-02-06 19:20:28.36516+01 | 1486405228.36516 | pgbench_tellers  |         15220736
 2017-02-06 19:20:28.36516+01 | 1486405228.36516 | pgbench_history  |         80199680
 2017-02-06 19:20:28.36516+01 | 1486405228.36516 | pgbench_branches |         11272192

 2017-02-06 19:20:29.454628+01 | 1486405229.45463 | pgbench_accounts |      13824016384
 2017-02-06 19:20:29.454628+01 | 1486405229.45463 | pgbench_tellers  |         15220736
 2017-02-06 19:20:29.454628+01 | 1486405229.45463 | pgbench_history  |         80199680
 2017-02-06 19:20:29.454628+01 | 1486405229.45463 | pgbench_branches |         11272192

 2017-02-06 19:20:30.52603+01 | 1486405230.52603 | pgbench_accounts |      13824073728
 2017-02-06 19:20:30.52603+01 | 1486405230.52603 | pgbench_tellers  |         15220736
 2017-02-06 19:20:30.52603+01 | 1486405230.52603 | pgbench_history  |         80764928
 2017-02-06 19:20:30.52603+01 | 1486405230.52603 | pgbench_branches |         11272192

 2017-02-06 19:20:31.603446+01 | 1486405231.60345 | pgbench_accounts |      13824131072
 2017-02-06 19:20:31.603446+01 | 1486405231.60345 | pgbench_tellers  |         15220736
 2017-02-06 19:20:31.603446+01 | 1486405231.60345 | pgbench_history  |         81420288
 2017-02-06 19:20:31.603446+01 | 1486405231.60345 | pgbench_branches |         11272192

 2017-02-06 19:20:32.681766+01 | 1486405232.68177 | pgbench_accounts |      13824188416
 2017-02-06 19:20:32.681766+01 | 1486405232.68177 | pgbench_tellers  |         15220736
 2017-02-06 19:20:32.681766+01 | 1486405232.68177 | pgbench_history  |         81813504
 2017-02-06 19:20:32.681766+01 | 1486405232.68177 | pgbench_branches |         11272192

 2017-02-06 19:20:33.754482+01 | 1486405233.75448 | pgbench_accounts |      13824245760
 2017-02-06 19:20:33.754482+01 | 1486405233.75448 | pgbench_tellers  |         15220736
 2017-02-06 19:20:33.754482+01 | 1486405233.75448 | pgbench_history  |         82558976
 2017-02-06 19:20:33.754482+01 | 1486405233.75448 | pgbench_branches |         11272192

 2017-02-06 19:20:34.837262+01 | 1486405234.83726 | pgbench_accounts |      13824294912
 2017-02-06 19:20:34.837262+01 | 1486405234.83726 | pgbench_tellers  |         15220736
 2017-02-06 19:20:34.837262+01 | 1486405234.83726 | pgbench_history  |         83075072
 2017-02-06 19:20:34.837262+01 | 1486405234.83726 | pgbench_branches |         11272192

 2017-02-06 19:20:35.912332+01 | 1486405235.91233 | pgbench_accounts |      13824352256
 2017-02-06 19:20:35.912332+01 | 1486405235.91233 | pgbench_tellers  |         15220736
 2017-02-06 19:20:35.912332+01 | 1486405235.91233 | pgbench_history  |         83501056
 2017-02-06 19:20:35.912332+01 | 1486405235.91233 | pgbench_branches |         11272192

 2017-02-06 19:20:36.990949+01 | 1486405236.99095 | pgbench_accounts |      13824409600
 2017-02-06 19:20:36.990949+01 | 1486405236.99095 | pgbench_tellers  |         15220736
 2017-02-06 19:20:36.990949+01 | 1486405236.99095 | pgbench_history  |         84099072
 2017-02-06 19:20:36.990949+01 | 1486405236.99095 | pgbench_branches |         11272192

 2017-02-06 19:20:38.069545+01 | 1486405238.06955 | pgbench_accounts |      13824466944
 2017-02-06 19:20:38.069545+01 | 1486405238.06955 | pgbench_tellers  |         15220736
 2017-02-06 19:20:38.069545+01 | 1486405238.06955 | pgbench_history  |         84664320
 2017-02-06 19:20:38.069545+01 | 1486405238.06955 | pgbench_branches |         11272192

 2017-02-06 19:20:39.163943+01 | 1486405239.16394 | pgbench_accounts |      13824540672
 2017-02-06 19:20:39.163943+01 | 1486405239.16394 | pgbench_tellers  |         15220736
 2017-02-06 19:20:39.163943+01 | 1486405239.16394 | pgbench_history  |         85368832
 2017-02-06 19:20:39.163943+01 | 1486405239.16394 | pgbench_branches |         11272192

 2017-02-06 19:20:40.255183+01 | 1486405240.25518 | pgbench_accounts |      13824606208
 2017-02-06 19:20:40.255183+01 | 1486405240.25518 | pgbench_tellers  |         15220736
 2017-02-06 19:20:40.255183+01 | 1486405240.25518 | pgbench_history  |         85770240
 2017-02-06 19:20:40.255183+01 | 1486405240.25518 | pgbench_branches |         11272192

 2017-02-06 19:20:41.332524+01 | 1486405241.33252 | pgbench_accounts |      13824655360
 2017-02-06 19:20:41.332524+01 | 1486405241.33252 | pgbench_tellers  |         15220736
 2017-02-06 19:20:41.332524+01 | 1486405241.33252 | pgbench_history  |         86335488
 2017-02-06 19:20:41.332524+01 | 1486405241.33252 | pgbench_branches |         11272192

 2017-02-06 19:20:42.399858+01 | 1486405242.39986 | pgbench_accounts |      13824704512
 2017-02-06 19:20:42.399858+01 | 1486405242.39986 | pgbench_tellers  |         15220736
 2017-02-06 19:20:42.399858+01 | 1486405242.39986 | pgbench_history  |         86908928
 2017-02-06 19:20:42.399858+01 | 1486405242.39986 | pgbench_branches |         11272192

 2017-02-06 19:20:43.469155+01 | 1486405243.46916 | pgbench_accounts |      13824753664
 2017-02-06 19:20:43.469155+01 | 1486405243.46916 | pgbench_tellers  |         15220736
 2017-02-06 19:20:43.469155+01 | 1486405243.46916 | pgbench_history  |         87482368
 2017-02-06 19:20:43.469155+01 | 1486405243.46916 | pgbench_branches |         11272192

 2017-02-06 19:20:44.551349+01 | 1486405244.55135 | pgbench_accounts |      13824819200
 2017-02-06 19:20:44.551349+01 | 1486405244.55135 | pgbench_tellers  |         15220736
 2017-02-06 19:20:44.551349+01 | 1486405244.55135 | pgbench_history  |         88498176
 2017-02-06 19:20:44.551349+01 | 1486405244.55135 | pgbench_branches |         11272192

 2017-02-06 19:20:45.636144+01 | 1486405245.63614 | pgbench_accounts |      13824884736
 2017-02-06 19:20:45.636144+01 | 1486405245.63614 | pgbench_tellers  |         15220736
 2017-02-06 19:20:45.636144+01 | 1486405245.63614 | pgbench_history  |         88498176
 2017-02-06 19:20:45.636144+01 | 1486405245.63614 | pgbench_branches |         11272192

 2017-02-06 19:20:46.72203+01 | 1486405246.72203 | pgbench_accounts |      13824950272
 2017-02-06 19:20:46.72203+01 | 1486405246.72203 | pgbench_tellers  |         15220736
 2017-02-06 19:20:46.72203+01 | 1486405246.72203 | pgbench_history  |         89530368
 2017-02-06 19:20:46.72203+01 | 1486405246.72203 | pgbench_branches |         11272192

 2017-02-06 19:20:47.799425+01 | 1486405247.79942 | pgbench_accounts |      13825007616
 2017-02-06 19:20:47.799425+01 | 1486405247.79942 | pgbench_tellers  |         15220736
 2017-02-06 19:20:47.799425+01 | 1486405247.79942 | pgbench_history  |         89718784
 2017-02-06 19:20:47.799425+01 | 1486405247.79942 | pgbench_branches |         11272192

 2017-02-06 19:20:48.885066+01 | 1486405248.88507 | pgbench_accounts |      13825073152
 2017-02-06 19:20:48.885066+01 | 1486405248.88507 | pgbench_tellers  |         15220736
 2017-02-06 19:20:48.885066+01 | 1486405248.88507 | pgbench_history  |         90128384
 2017-02-06 19:20:48.885066+01 | 1486405248.88507 | pgbench_branches |         11272192

 2017-02-06 19:20:49.964889+01 | 1486405249.96489 | pgbench_accounts |      13825130496
 2017-02-06 19:20:49.964889+01 | 1486405249.96489 | pgbench_tellers  |         15220736
 2017-02-06 19:20:49.964889+01 | 1486405249.96489 | pgbench_history  |         90693632
 2017-02-06 19:20:49.964889+01 | 1486405249.96489 | pgbench_branches |         11272192

 2017-02-06 19:20:51.040305+01 | 1486405251.0403 | pgbench_accounts |      13825163264
 2017-02-06 19:20:51.040305+01 | 1486405251.0403 | pgbench_tellers  |         15220736
 2017-02-06 19:20:51.040305+01 | 1486405251.0403 | pgbench_history  |         91258880
 2017-02-06 19:20:51.040305+01 | 1486405251.0403 | pgbench_branches |         11272192

 2017-02-06 19:20:52.119141+01 | 1486405252.11914 | pgbench_accounts |      13825228800
 2017-02-06 19:20:52.119141+01 | 1486405252.11914 | pgbench_tellers  |         15220736
 2017-02-06 19:20:52.119141+01 | 1486405252.11914 | pgbench_history  |         91783168
 2017-02-06 19:20:52.119141+01 | 1486405252.11914 | pgbench_branches |         11272192

 2017-02-06 19:20:53.210233+01 | 1486405253.21023 | pgbench_accounts |      13825294336
 2017-02-06 19:20:53.210233+01 | 1486405253.21023 | pgbench_tellers  |         15220736
 2017-02-06 19:20:53.210233+01 | 1486405253.21023 | pgbench_history  |         92307456
 2017-02-06 19:20:53.210233+01 | 1486405253.21023 | pgbench_branches |         11272192

 2017-02-06 19:20:54.302482+01 | 1486405254.30248 | pgbench_accounts |      13825343488
 2017-02-06 19:20:54.302482+01 | 1486405254.30248 | pgbench_tellers  |         15220736
 2017-02-06 19:20:54.302482+01 | 1486405254.30248 | pgbench_history  |         92839936
 2017-02-06 19:20:54.302482+01 | 1486405254.30248 | pgbench_branches |         11272192

 2017-02-06 19:20:55.395044+01 | 1486405255.39504 | pgbench_accounts |      13825409024
 2017-02-06 19:20:55.395044+01 | 1486405255.39504 | pgbench_tellers  |         15220736
 2017-02-06 19:20:55.395044+01 | 1486405255.39504 | pgbench_history  |         93437952
 2017-02-06 19:20:55.395044+01 | 1486405255.39504 | pgbench_branches |         11272192

 2017-02-06 19:20:56.488132+01 | 1486405256.48813 | pgbench_accounts |      13825458176
 2017-02-06 19:20:56.488132+01 | 1486405256.48813 | pgbench_tellers  |         15220736
 2017-02-06 19:20:56.488132+01 | 1486405256.48813 | pgbench_history  |         94019584
 2017-02-06 19:20:56.488132+01 | 1486405256.48813 | pgbench_branches |         11272192

 2017-02-06 19:20:57.557489+01 | 1486405257.55749 | pgbench_accounts |      13825523712
 2017-02-06 19:20:57.557489+01 | 1486405257.55749 | pgbench_tellers  |         15220736
 2017-02-06 19:20:57.557489+01 | 1486405257.55749 | pgbench_history  |         94552064
 2017-02-06 19:20:57.557489+01 | 1486405257.55749 | pgbench_branches |         11272192

 2017-02-06 19:20:58.639409+01 | 1486405258.63941 | pgbench_accounts |      13825572864
 2017-02-06 19:20:58.639409+01 | 1486405258.63941 | pgbench_tellers  |         15220736
 2017-02-06 19:20:58.639409+01 | 1486405258.63941 | pgbench_history  |         95100928
 2017-02-06 19:20:58.639409+01 | 1486405258.63941 | pgbench_branches |         11272192

 2017-02-06 19:20:59.722946+01 | 1486405259.72295 | pgbench_accounts |      13825622016
 2017-02-06 19:20:59.722946+01 | 1486405259.72295 | pgbench_tellers  |         15220736
 2017-02-06 19:20:59.722946+01 | 1486405259.72295 | pgbench_history  |         95780864
 2017-02-06 19:20:59.722946+01 | 1486405259.72295 | pgbench_branches |         11272192

 2017-02-06 19:21:00.808114+01 | 1486405260.80811 | pgbench_accounts |      13825695744
 2017-02-06 19:21:00.808114+01 | 1486405260.80811 | pgbench_tellers  |         15220736
 2017-02-06 19:21:00.808114+01 | 1486405260.80811 | pgbench_history  |         96485376
 2017-02-06 19:21:00.808114+01 | 1486405260.80811 | pgbench_branches |         11272192

 2017-02-06 19:21:01.898525+01 | 1486405261.89852 | pgbench_accounts |      13825753088
 2017-02-06 19:21:01.898525+01 | 1486405261.89852 | pgbench_tellers  |         15220736
 2017-02-06 19:21:01.898525+01 | 1486405261.89852 | pgbench_history  |         97001472
 2017-02-06 19:21:01.898525+01 | 1486405261.89852 | pgbench_branches |         11272192

 2017-02-06 19:21:02.965356+01 | 1486405262.96536 | pgbench_accounts |      13825802240
 2017-02-06 19:21:02.965356+01 | 1486405262.96536 | pgbench_tellers  |         15220736
 2017-02-06 19:21:02.965356+01 | 1486405262.96536 | pgbench_history  |         97394688
 2017-02-06 19:21:02.965356+01 | 1486405262.96536 | pgbench_branches |         11272192

 2017-02-06 19:21:04.049193+01 | 1486405264.04919 | pgbench_accounts |      13825859584
 2017-02-06 19:21:04.049193+01 | 1486405264.04919 | pgbench_tellers  |         15220736
 2017-02-06 19:21:04.049193+01 | 1486405264.04919 | pgbench_history  |         98000896
 2017-02-06 19:21:04.049193+01 | 1486405264.04919 | pgbench_branches |         11272192

 2017-02-06 19:21:05.136677+01 | 1486405265.13668 | pgbench_accounts |      13825908736
 2017-02-06 19:21:05.136677+01 | 1486405265.13668 | pgbench_tellers  |         15220736
 2017-02-06 19:21:05.136677+01 | 1486405265.13668 | pgbench_history  |         98369536
 2017-02-06 19:21:05.136677+01 | 1486405265.13668 | pgbench_branches |         11272192

 2017-02-06 19:21:06.226428+01 | 1486405266.22643 | pgbench_accounts |      13825974272
 2017-02-06 19:21:06.226428+01 | 1486405266.22643 | pgbench_tellers  |         15220736
 2017-02-06 19:21:06.226428+01 | 1486405266.22643 | pgbench_history  |         98951168
 2017-02-06 19:21:06.226428+01 | 1486405266.22643 | pgbench_branches |         11272192

 2017-02-06 19:21:07.321808+01 | 1486405267.32181 | pgbench_accounts |      13826039808
 2017-02-06 19:21:07.321808+01 | 1486405267.32181 | pgbench_tellers  |         15220736
 2017-02-06 19:21:07.321808+01 | 1486405267.32181 | pgbench_history  |         99557376
 2017-02-06 19:21:07.321808+01 | 1486405267.32181 | pgbench_branches |         11272192

 2017-02-06 19:21:08.402452+01 | 1486405268.40245 | pgbench_accounts |      13826097152
 2017-02-06 19:21:08.402452+01 | 1486405268.40245 | pgbench_tellers  |         15220736
 2017-02-06 19:21:08.402452+01 | 1486405268.40245 | pgbench_history  |         99966976
 2017-02-06 19:21:08.402452+01 | 1486405268.40245 | pgbench_branches |         11272192

 2017-02-06 19:21:09.482826+01 | 1486405269.48283 | pgbench_accounts |      13826146304
 2017-02-06 19:21:09.482826+01 | 1486405269.48283 | pgbench_tellers  |         15220736
 2017-02-06 19:21:09.482826+01 | 1486405269.48283 | pgbench_history  |        100524032
 2017-02-06 19:21:09.482826+01 | 1486405269.48283 | pgbench_branches |         11272192

 2017-02-06 19:21:10.569538+01 | 1486405270.56954 | pgbench_accounts |      13826211840
 2017-02-06 19:21:10.569538+01 | 1486405270.56954 | pgbench_tellers  |         15220736
 2017-02-06 19:21:10.569538+01 | 1486405270.56954 | pgbench_history  |        101228544
 2017-02-06 19:21:10.569538+01 | 1486405270.56954 | pgbench_branches |         11272192

 2017-02-06 19:21:11.665064+01 | 1486405271.66506 | pgbench_accounts |      13826269184
 2017-02-06 19:21:11.665064+01 | 1486405271.66506 | pgbench_tellers  |         15220736
 2017-02-06 19:21:11.665064+01 | 1486405271.66506 | pgbench_history  |        101793792
 2017-02-06 19:21:11.665064+01 | 1486405271.66506 | pgbench_branches |         11272192

 2017-02-06 19:21:12.746788+01 | 1486405272.74679 | pgbench_accounts |      13826326528
 2017-02-06 19:21:12.746788+01 | 1486405272.74679 | pgbench_tellers  |         15220736
 2017-02-06 19:21:12.746788+01 | 1486405272.74679 | pgbench_history  |        102375424
 2017-02-06 19:21:12.746788+01 | 1486405272.74679 | pgbench_branches |         11272192

 2017-02-06 19:21:13.836664+01 | 1486405273.83666 | pgbench_accounts |      13826400256
 2017-02-06 19:21:13.836664+01 | 1486405273.83666 | pgbench_tellers  |         15220736
 2017-02-06 19:21:13.836664+01 | 1486405273.83666 | pgbench_history  |        103251968
 2017-02-06 19:21:13.836664+01 | 1486405273.83666 | pgbench_branches |         11272192

 2017-02-06 19:21:14.929852+01 | 1486405274.92985 | pgbench_accounts |      13826449408
 2017-02-06 19:21:14.929852+01 | 1486405274.92985 | pgbench_tellers  |         15220736
 2017-02-06 19:21:14.929852+01 | 1486405274.92985 | pgbench_history  |        103800832
 2017-02-06 19:21:14.929852+01 | 1486405274.92985 | pgbench_branches |         11272192

 2017-02-06 19:21:16.011376+01 | 1486405276.01138 | pgbench_accounts |      13826514944
 2017-02-06 19:21:16.011376+01 | 1486405276.01138 | pgbench_tellers  |         15220736
 2017-02-06 19:21:16.011376+01 | 1486405276.01138 | pgbench_history  |        104022016
 2017-02-06 19:21:16.011376+01 | 1486405276.01138 | pgbench_branches |         11272192

 2017-02-06 19:21:17.092102+01 | 1486405277.0921 | pgbench_accounts |      13826572288
 2017-02-06 19:21:17.092102+01 | 1486405277.0921 | pgbench_tellers  |         15220736
 2017-02-06 19:21:17.092102+01 | 1486405277.0921 | pgbench_history  |        104488960
 2017-02-06 19:21:17.092102+01 | 1486405277.0921 | pgbench_branches |         11272192

 2017-02-06 19:21:18.161912+01 | 1486405278.16191 | pgbench_accounts |      13826629632
 2017-02-06 19:21:18.161912+01 | 1486405278.16191 | pgbench_tellers  |         15220736
 2017-02-06 19:21:18.161912+01 | 1486405278.16191 | pgbench_history  |        105013248
 2017-02-06 19:21:18.161912+01 | 1486405278.16191 | pgbench_branches |         11272192

 2017-02-06 19:21:19.253116+01 | 1486405279.25312 | pgbench_accounts |      13826695168
 2017-02-06 19:21:19.253116+01 | 1486405279.25312 | pgbench_tellers  |         15220736
 2017-02-06 19:21:19.253116+01 | 1486405279.25312 | pgbench_history  |        105611264
 2017-02-06 19:21:19.253116+01 | 1486405279.25312 | pgbench_branches |         11272192

 2017-02-06 19:21:20.344809+01 | 1486405280.34481 | pgbench_accounts |      13826752512
 2017-02-06 19:21:20.344809+01 | 1486405280.34481 | pgbench_tellers  |         15220736
 2017-02-06 19:21:20.344809+01 | 1486405280.34481 | pgbench_history  |        106184704
 2017-02-06 19:21:20.344809+01 | 1486405280.34481 | pgbench_branches |         11272192

 2017-02-06 19:21:21.426156+01 | 1486405281.42616 | pgbench_accounts |      13826801664
 2017-02-06 19:21:21.426156+01 | 1486405281.42616 | pgbench_tellers  |         15220736
 2017-02-06 19:21:21.426156+01 | 1486405281.42616 | pgbench_history  |        106790912
 2017-02-06 19:21:21.426156+01 | 1486405281.42616 | pgbench_branches |         11272192

 2017-02-06 19:21:22.497577+01 | 1486405282.49758 | pgbench_accounts |      13826859008
 2017-02-06 19:21:22.497577+01 | 1486405282.49758 | pgbench_tellers  |         15220736
 2017-02-06 19:21:22.497577+01 | 1486405282.49758 | pgbench_history  |        107282432
 2017-02-06 19:21:22.497577+01 | 1486405282.49758 | pgbench_branches |         11272192

 2017-02-06 19:21:23.564879+01 | 1486405283.56488 | pgbench_accounts |      13826908160
 2017-02-06 19:21:23.564879+01 | 1486405283.56488 | pgbench_tellers  |         15220736
 2017-02-06 19:21:23.564879+01 | 1486405283.56488 | pgbench_history  |        107831296
 2017-02-06 19:21:23.564879+01 | 1486405283.56488 | pgbench_branches |         11272192

 2017-02-06 19:21:24.636682+01 | 1486405284.63668 | pgbench_accounts |      13826973696
 2017-02-06 19:21:24.636682+01 | 1486405284.63668 | pgbench_tellers  |         15220736
 2017-02-06 19:21:24.636682+01 | 1486405284.63668 | pgbench_history  |        108355584
 2017-02-06 19:21:24.636682+01 | 1486405284.63668 | pgbench_branches |         11272192

 2017-02-06 19:21:25.716496+01 | 1486405285.7165 | pgbench_accounts |      13827039232
 2017-02-06 19:21:25.716496+01 | 1486405285.7165 | pgbench_tellers  |         15220736
 2017-02-06 19:21:25.716496+01 | 1486405285.7165 | pgbench_history  |        108920832
 2017-02-06 19:21:25.716496+01 | 1486405285.7165 | pgbench_branches |         11272192

 2017-02-06 19:21:26.801191+01 | 1486405286.80119 | pgbench_accounts |      13827088384
 2017-02-06 19:21:26.801191+01 | 1486405286.80119 | pgbench_tellers  |         15220736
 2017-02-06 19:21:26.801191+01 | 1486405286.80119 | pgbench_history  |        109469696
 2017-02-06 19:21:26.801191+01 | 1486405286.80119 | pgbench_branches |         11272192

 2017-02-06 19:21:27.885154+01 | 1486405287.88515 | pgbench_accounts |      13827145728
 2017-02-06 19:21:27.885154+01 | 1486405287.88515 | pgbench_tellers  |         15220736
 2017-02-06 19:21:27.885154+01 | 1486405287.88515 | pgbench_history  |        109993984
 2017-02-06 19:21:27.885154+01 | 1486405287.88515 | pgbench_branches |         11272192

 2017-02-06 19:21:28.954429+01 | 1486405288.95443 | pgbench_accounts |      13827178496
 2017-02-06 19:21:28.954429+01 | 1486405288.95443 | pgbench_tellers  |         15220736
 2017-02-06 19:21:28.954429+01 | 1486405288.95443 | pgbench_history  |        110485504
 2017-02-06 19:21:28.954429+01 | 1486405288.95443 | pgbench_branches |         11272192

 2017-02-06 19:21:30.035937+01 | 1486405290.03594 | pgbench_accounts |      13827235840
 2017-02-06 19:21:30.035937+01 | 1486405290.03594 | pgbench_tellers  |         15220736
 2017-02-06 19:21:30.035937+01 | 1486405290.03594 | pgbench_history  |        110944256
 2017-02-06 19:21:30.035937+01 | 1486405290.03594 | pgbench_branches |         11272192

 2017-02-06 19:21:31.112701+01 | 1486405291.1127 | pgbench_accounts |      13827284992
 2017-02-06 19:21:31.112701+01 | 1486405291.1127 | pgbench_tellers  |         15220736
 2017-02-06 19:21:31.112701+01 | 1486405291.1127 | pgbench_history  |        111411200
 2017-02-06 19:21:31.112701+01 | 1486405291.1127 | pgbench_branches |         11272192

 2017-02-06 19:21:32.199798+01 | 1486405292.1998 | pgbench_accounts |      13827342336
 2017-02-06 19:21:32.199798+01 | 1486405292.1998 | pgbench_tellers  |         15220736
 2017-02-06 19:21:32.199798+01 | 1486405292.1998 | pgbench_history  |        111927296
 2017-02-06 19:21:32.199798+01 | 1486405292.1998 | pgbench_branches |         11272192

 2017-02-06 19:21:33.289862+01 | 1486405293.28986 | pgbench_accounts |      13827391488
 2017-02-06 19:21:33.289862+01 | 1486405293.28986 | pgbench_tellers  |         15220736
 2017-02-06 19:21:33.289862+01 | 1486405293.28986 | pgbench_history  |        112492544
 2017-02-06 19:21:33.289862+01 | 1486405293.28986 | pgbench_branches |         11272192

 2017-02-06 19:21:34.367231+01 | 1486405294.36723 | pgbench_accounts |      13827440640
 2017-02-06 19:21:34.367231+01 | 1486405294.36723 | pgbench_tellers  |         15220736
 2017-02-06 19:21:34.367231+01 | 1486405294.36723 | pgbench_history  |        112910336
 2017-02-06 19:21:34.367231+01 | 1486405294.36723 | pgbench_branches |         11272192

 2017-02-06 19:21:35.452791+01 | 1486405295.45279 | pgbench_accounts |      13827489792
 2017-02-06 19:21:35.452791+01 | 1486405295.45279 | pgbench_tellers  |         15220736
 2017-02-06 19:21:35.452791+01 | 1486405295.45279 | pgbench_history  |        113557504
 2017-02-06 19:21:35.452791+01 | 1486405295.45279 | pgbench_branches |         11272192

 2017-02-06 19:21:36.546267+01 | 1486405296.54627 | pgbench_accounts |      13827538944
 2017-02-06 19:21:36.546267+01 | 1486405296.54627 | pgbench_tellers  |         15220736
 2017-02-06 19:21:36.546267+01 | 1486405296.54627 | pgbench_history  |        114024448
 2017-02-06 19:21:36.546267+01 | 1486405296.54627 | pgbench_branches |         11272192

 2017-02-06 19:21:37.63166+01 | 1486405297.63166 | pgbench_accounts |      13827596288
 2017-02-06 19:21:37.63166+01 | 1486405297.63166 | pgbench_tellers  |         15220736
 2017-02-06 19:21:37.63166+01 | 1486405297.63166 | pgbench_history  |        114614272
 2017-02-06 19:21:37.63166+01 | 1486405297.63166 | pgbench_branches |         11272192

 2017-02-06 19:21:38.705707+01 | 1486405298.70571 | pgbench_accounts |      13827653632
 2017-02-06 19:21:38.705707+01 | 1486405298.70571 | pgbench_tellers  |         15220736
 2017-02-06 19:21:38.705707+01 | 1486405298.70571 | pgbench_history  |        115048448
 2017-02-06 19:21:38.705707+01 | 1486405298.70571 | pgbench_branches |         11272192

 2017-02-06 19:21:39.787775+01 | 1486405299.78778 | pgbench_accounts |      13827702784
 2017-02-06 19:21:39.787775+01 | 1486405299.78778 | pgbench_tellers  |         15220736
 2017-02-06 19:21:39.787775+01 | 1486405299.78778 | pgbench_history  |        115843072
 2017-02-06 19:21:39.787775+01 | 1486405299.78778 | pgbench_branches |         11272192

 2017-02-06 19:21:40.868696+01 | 1486405300.8687 | pgbench_accounts |      13827768320
 2017-02-06 19:21:40.868696+01 | 1486405300.8687 | pgbench_tellers  |         15220736
 2017-02-06 19:21:40.868696+01 | 1486405300.8687 | pgbench_history  |        116047872
 2017-02-06 19:21:40.868696+01 | 1486405300.8687 | pgbench_branches |         11272192

 2017-02-06 19:21:41.955208+01 | 1486405301.95521 | pgbench_accounts |      13827833856
 2017-02-06 19:21:41.955208+01 | 1486405301.95521 | pgbench_tellers  |         15220736
 2017-02-06 19:21:41.955208+01 | 1486405301.95521 | pgbench_history  |        116965376
 2017-02-06 19:21:41.955208+01 | 1486405301.95521 | pgbench_branches |         11272192

 2017-02-06 19:21:43.029597+01 | 1486405303.0296 | pgbench_accounts |      13827891200
 2017-02-06 19:21:43.029597+01 | 1486405303.0296 | pgbench_tellers  |         15220736
 2017-02-06 19:21:43.029597+01 | 1486405303.0296 | pgbench_history  |        117350400
 2017-02-06 19:21:43.029597+01 | 1486405303.0296 | pgbench_branches |         11272192

 2017-02-06 19:21:44.092921+01 | 1486405304.09292 | pgbench_accounts |      13827956736
 2017-02-06 19:21:44.092921+01 | 1486405304.09292 | pgbench_tellers  |         15220736
 2017-02-06 19:21:44.092921+01 | 1486405304.09292 | pgbench_history  |        117784576
 2017-02-06 19:21:44.092921+01 | 1486405304.09292 | pgbench_branches |         11272192

 2017-02-06 19:21:45.181694+01 | 1486405305.18169 | pgbench_accounts |      13828022272
 2017-02-06 19:21:45.181694+01 | 1486405305.18169 | pgbench_tellers  |         15220736
 2017-02-06 19:21:45.181694+01 | 1486405305.18169 | pgbench_history  |        118358016
 2017-02-06 19:21:45.181694+01 | 1486405305.18169 | pgbench_branches |         11272192

 2017-02-06 19:21:46.275147+01 | 1486405306.27515 | pgbench_accounts |      13828079616
 2017-02-06 19:21:46.275147+01 | 1486405306.27515 | pgbench_tellers  |         15220736
 2017-02-06 19:21:46.275147+01 | 1486405306.27515 | pgbench_history  |        118898688
 2017-02-06 19:21:46.275147+01 | 1486405306.27515 | pgbench_branches |         11272192

 2017-02-06 19:21:47.356852+01 | 1486405307.35685 | pgbench_accounts |      13828145152
 2017-02-06 19:21:47.356852+01 | 1486405307.35685 | pgbench_tellers  |         15220736
 2017-02-06 19:21:47.356852+01 | 1486405307.35685 | pgbench_history  |        119627776
 2017-02-06 19:21:47.356852+01 | 1486405307.35685 | pgbench_branches |         11272192

 2017-02-06 19:21:48.423015+01 | 1486405308.42302 | pgbench_accounts |      13828194304
 2017-02-06 19:21:48.423015+01 | 1486405308.42302 | pgbench_tellers  |         15220736
 2017-02-06 19:21:48.423015+01 | 1486405308.42302 | pgbench_history  |        119980032
 2017-02-06 19:21:48.423015+01 | 1486405308.42302 | pgbench_branches |         11272192

 2017-02-06 19:21:49.493978+01 | 1486405309.49398 | pgbench_accounts |      13828243456
 2017-02-06 19:21:49.493978+01 | 1486405309.49398 | pgbench_tellers  |         15220736
 2017-02-06 19:21:49.493978+01 | 1486405309.49398 | pgbench_history  |        120504320
 2017-02-06 19:21:49.493978+01 | 1486405309.49398 | pgbench_branches |         11272192

 2017-02-06 19:21:50.572688+01 | 1486405310.57269 | pgbench_accounts |      13828300800
 2017-02-06 19:21:50.572688+01 | 1486405310.57269 | pgbench_tellers  |         15220736
 2017-02-06 19:21:50.572688+01 | 1486405310.57269 | pgbench_history  |        121233408
 2017-02-06 19:21:50.572688+01 | 1486405310.57269 | pgbench_branches |         11272192

 2017-02-06 19:21:51.643128+01 | 1486405311.64313 | pgbench_accounts |      13828349952
 2017-02-06 19:21:51.643128+01 | 1486405311.64313 | pgbench_tellers  |         15220736
 2017-02-06 19:21:51.643128+01 | 1486405311.64313 | pgbench_history  |        121790464
 2017-02-06 19:21:51.643128+01 | 1486405311.64313 | pgbench_branches |         11272192

 2017-02-06 19:21:52.716183+01 | 1486405312.71618 | pgbench_accounts |      13828415488
 2017-02-06 19:21:52.716183+01 | 1486405312.71618 | pgbench_tellers  |         15220736
 2017-02-06 19:21:52.716183+01 | 1486405312.71618 | pgbench_history  |        122167296
 2017-02-06 19:21:52.716183+01 | 1486405312.71618 | pgbench_branches |         11272192

 2017-02-06 19:21:53.802851+01 | 1486405313.80285 | pgbench_accounts |      13828472832
 2017-02-06 19:21:53.802851+01 | 1486405313.80285 | pgbench_tellers  |         15220736
 2017-02-06 19:21:53.802851+01 | 1486405313.80285 | pgbench_history  |        122929152
 2017-02-06 19:21:53.802851+01 | 1486405313.80285 | pgbench_branches |         11272192

 2017-02-06 19:21:54.894209+01 | 1486405314.89421 | pgbench_accounts |      13828538368
 2017-02-06 19:21:54.894209+01 | 1486405314.89421 | pgbench_tellers  |         15220736
 2017-02-06 19:21:54.894209+01 | 1486405314.89421 | pgbench_history  |        123518976
 2017-02-06 19:21:54.894209+01 | 1486405314.89421 | pgbench_branches |         11272192

 2017-02-06 19:21:55.971777+01 | 1486405315.97178 | pgbench_accounts |      13828595712
 2017-02-06 19:21:55.971777+01 | 1486405315.97178 | pgbench_tellers  |         15220736
 2017-02-06 19:21:55.971777+01 | 1486405315.97178 | pgbench_history  |        123912192
 2017-02-06 19:21:55.971777+01 | 1486405315.97178 | pgbench_branches |         11272192

 2017-02-06 19:21:57.051594+01 | 1486405317.05159 | pgbench_accounts |      13828644864
 2017-02-06 19:21:57.051594+01 | 1486405317.05159 | pgbench_tellers  |         15220736
 2017-02-06 19:21:57.051594+01 | 1486405317.05159 | pgbench_history  |        124272640
 2017-02-06 19:21:57.051594+01 | 1486405317.05159 | pgbench_branches |         11272192

 2017-02-06 19:21:58.128229+01 | 1486405318.12823 | pgbench_accounts |      13828685824
 2017-02-06 19:21:58.128229+01 | 1486405318.12823 | pgbench_tellers  |         15220736
 2017-02-06 19:21:58.128229+01 | 1486405318.12823 | pgbench_history  |        124870656
 2017-02-06 19:21:58.128229+01 | 1486405318.12823 | pgbench_branches |         11272192

 2017-02-06 19:21:59.203867+01 | 1486405319.20387 | pgbench_accounts |      13828751360
 2017-02-06 19:21:59.203867+01 | 1486405319.20387 | pgbench_tellers  |         15220736
 2017-02-06 19:21:59.203867+01 | 1486405319.20387 | pgbench_history  |        125419520
 2017-02-06 19:21:59.203867+01 | 1486405319.20387 | pgbench_branches |         11272192

 2017-02-06 19:22:00.286023+01 | 1486405320.28602 | pgbench_accounts |      13828800512
 2017-02-06 19:22:00.286023+01 | 1486405320.28602 | pgbench_tellers  |         15220736
 2017-02-06 19:22:00.286023+01 | 1486405320.28602 | pgbench_history  |        125796352
 2017-02-06 19:22:00.286023+01 | 1486405320.28602 | pgbench_branches |         11272192

 2017-02-06 19:22:01.372498+01 | 1486405321.3725 | pgbench_accounts |      13828849664
 2017-02-06 19:22:01.372498+01 | 1486405321.3725 | pgbench_tellers  |         15220736
 2017-02-06 19:22:01.372498+01 | 1486405321.3725 | pgbench_history  |        126377984
 2017-02-06 19:22:01.372498+01 | 1486405321.3725 | pgbench_branches |         11272192

 2017-02-06 19:22:02.449215+01 | 1486405322.44921 | pgbench_accounts |      13828898816
 2017-02-06 19:22:02.449215+01 | 1486405322.44921 | pgbench_tellers  |         15220736
 2017-02-06 19:22:02.449215+01 | 1486405322.44921 | pgbench_history  |        126992384
 2017-02-06 19:22:02.449215+01 | 1486405322.44921 | pgbench_branches |         11272192

 2017-02-06 19:22:03.533077+01 | 1486405323.53308 | pgbench_accounts |      13828956160
 2017-02-06 19:22:03.533077+01 | 1486405323.53308 | pgbench_tellers  |         15220736
 2017-02-06 19:22:03.533077+01 | 1486405323.53308 | pgbench_history  |        127369216
 2017-02-06 19:22:03.533077+01 | 1486405323.53308 | pgbench_branches |         11272192

 2017-02-06 19:22:04.623751+01 | 1486405324.62375 | pgbench_accounts |      13829013504
 2017-02-06 19:22:04.623751+01 | 1486405324.62375 | pgbench_tellers  |         15220736
 2017-02-06 19:22:04.623751+01 | 1486405324.62375 | pgbench_history  |        127959040
 2017-02-06 19:22:04.623751+01 | 1486405324.62375 | pgbench_branches |         11272192

 2017-02-06 19:22:05.71311+01 | 1486405325.71311 | pgbench_accounts |      13829079040
 2017-02-06 19:22:05.71311+01 | 1486405325.71311 | pgbench_tellers  |         15220736
 2017-02-06 19:22:05.71311+01 | 1486405325.71311 | pgbench_history  |        128540672
 2017-02-06 19:22:05.71311+01 | 1486405325.71311 | pgbench_branches |         11272192

 2017-02-06 19:22:06.793854+01 | 1486405326.79385 | pgbench_accounts |      13829136384
 2017-02-06 19:22:06.793854+01 | 1486405326.79385 | pgbench_tellers  |         15220736
 2017-02-06 19:22:06.793854+01 | 1486405326.79385 | pgbench_history  |        129130496
 2017-02-06 19:22:06.793854+01 | 1486405326.79385 | pgbench_branches |         11272192

 2017-02-06 19:22:07.864954+01 | 1486405327.86495 | pgbench_accounts |      13829185536
 2017-02-06 19:22:07.864954+01 | 1486405327.86495 | pgbench_tellers  |         15220736
 2017-02-06 19:22:07.864954+01 | 1486405327.86495 | pgbench_history  |        129843200
 2017-02-06 19:22:07.864954+01 | 1486405327.86495 | pgbench_branches |         11272192

 2017-02-06 19:22:08.943088+01 | 1486405328.94309 | pgbench_accounts |      13829251072
 2017-02-06 19:22:08.943088+01 | 1486405328.94309 | pgbench_tellers  |         15220736
 2017-02-06 19:22:08.943088+01 | 1486405328.94309 | pgbench_history  |        130252800
 2017-02-06 19:22:08.943088+01 | 1486405328.94309 | pgbench_branches |         11272192

 2017-02-06 19:22:10.028447+01 | 1486405330.02845 | pgbench_accounts |      13829308416
 2017-02-06 19:22:10.028447+01 | 1486405330.02845 | pgbench_tellers  |         15220736
 2017-02-06 19:22:10.028447+01 | 1486405330.02845 | pgbench_history  |        130768896
 2017-02-06 19:22:10.028447+01 | 1486405330.02845 | pgbench_branches |         11272192

 2017-02-06 19:22:11.111433+01 | 1486405331.11143 | pgbench_accounts |      13829373952
 2017-02-06 19:22:11.111433+01 | 1486405331.11143 | pgbench_tellers  |         15220736
 2017-02-06 19:22:11.111433+01 | 1486405331.11143 | pgbench_history  |        131399680
 2017-02-06 19:22:11.111433+01 | 1486405331.11143 | pgbench_branches |         11272192

 2017-02-06 19:22:12.202581+01 | 1486405332.20258 | pgbench_accounts |      13829414912
 2017-02-06 19:22:12.202581+01 | 1486405332.20258 | pgbench_tellers  |         15220736
 2017-02-06 19:22:12.202581+01 | 1486405332.20258 | pgbench_history  |        131973120
 2017-02-06 19:22:12.202581+01 | 1486405332.20258 | pgbench_branches |         11272192

 2017-02-06 19:22:13.294039+01 | 1486405333.29404 | pgbench_accounts |      13829488640
 2017-02-06 19:22:13.294039+01 | 1486405333.29404 | pgbench_tellers  |         15220736
 2017-02-06 19:22:13.294039+01 | 1486405333.29404 | pgbench_history  |        132497408
 2017-02-06 19:22:13.294039+01 | 1486405333.29404 | pgbench_branches |         11272192

 2017-02-06 19:22:14.381257+01 | 1486405334.38126 | pgbench_accounts |      13829529600
 2017-02-06 19:22:14.381257+01 | 1486405334.38126 | pgbench_tellers  |         15220736
 2017-02-06 19:22:14.381257+01 | 1486405334.38126 | pgbench_history  |        133177344
 2017-02-06 19:22:14.381257+01 | 1486405334.38126 | pgbench_branches |         11272192

 2017-02-06 19:22:15.456025+01 | 1486405335.45602 | pgbench_accounts |      13829586944
 2017-02-06 19:22:15.456025+01 | 1486405335.45602 | pgbench_tellers  |         15220736
 2017-02-06 19:22:15.456025+01 | 1486405335.45602 | pgbench_history  |        133685248
 2017-02-06 19:22:15.456025+01 | 1486405335.45602 | pgbench_branches |         11272192

 2017-02-06 19:22:16.539134+01 | 1486405336.53913 | pgbench_accounts |      13829644288
 2017-02-06 19:22:16.539134+01 | 1486405336.53913 | pgbench_tellers  |         15220736
 2017-02-06 19:22:16.539134+01 | 1486405336.53913 | pgbench_history  |        134209536
 2017-02-06 19:22:16.539134+01 | 1486405336.53913 | pgbench_branches |         11272192

 2017-02-06 19:22:17.632095+01 | 1486405337.6321 | pgbench_accounts |      13829709824
 2017-02-06 19:22:17.632095+01 | 1486405337.6321 | pgbench_tellers  |         15220736
 2017-02-06 19:22:17.632095+01 | 1486405337.6321 | pgbench_history  |        134807552
 2017-02-06 19:22:17.632095+01 | 1486405337.6321 | pgbench_branches |         11272192

 2017-02-06 19:22:18.719783+01 | 1486405338.71978 | pgbench_accounts |      13829750784
 2017-02-06 19:22:18.719783+01 | 1486405338.71978 | pgbench_tellers  |         15220736
 2017-02-06 19:22:18.719783+01 | 1486405338.71978 | pgbench_history  |        135372800
 2017-02-06 19:22:18.719783+01 | 1486405338.71978 | pgbench_branches |         11272192

 2017-02-06 19:22:19.791699+01 | 1486405339.7917 | pgbench_accounts |      13829808128
 2017-02-06 19:22:19.791699+01 | 1486405339.7917 | pgbench_tellers  |         15220736
 2017-02-06 19:22:19.791699+01 | 1486405339.7917 | pgbench_history  |        135995392
 2017-02-06 19:22:19.791699+01 | 1486405339.7917 | pgbench_branches |         11272192

 2017-02-06 19:22:20.87805+01 | 1486405340.87805 | pgbench_accounts |      13829873664
 2017-02-06 19:22:20.87805+01 | 1486405340.87805 | pgbench_tellers  |         15220736
 2017-02-06 19:22:20.87805+01 | 1486405340.87805 | pgbench_history  |        136626176
 2017-02-06 19:22:20.87805+01 | 1486405340.87805 | pgbench_branches |         11272192

 2017-02-06 19:22:21.961961+01 | 1486405341.96196 | pgbench_accounts |      13829939200
 2017-02-06 19:22:21.961961+01 | 1486405341.96196 | pgbench_tellers  |         15220736
 2017-02-06 19:22:21.961961+01 | 1486405341.96196 | pgbench_history  |        137060352
 2017-02-06 19:22:21.961961+01 | 1486405341.96196 | pgbench_branches |         11272192

 2017-02-06 19:22:23.047462+01 | 1486405343.04746 | pgbench_accounts |      13829988352
 2017-02-06 19:22:23.047462+01 | 1486405343.04746 | pgbench_tellers  |         15220736
 2017-02-06 19:22:23.047462+01 | 1486405343.04746 | pgbench_history  |        137773056
 2017-02-06 19:22:23.047462+01 | 1486405343.04746 | pgbench_branches |         11272192

 2017-02-06 19:22:24.138765+01 | 1486405344.13877 | pgbench_accounts |      13830045696
 2017-02-06 19:22:24.138765+01 | 1486405344.13877 | pgbench_tellers  |         15220736
 2017-02-06 19:22:24.138765+01 | 1486405344.13877 | pgbench_history  |        137994240
 2017-02-06 19:22:24.138765+01 | 1486405344.13877 | pgbench_branches |         11272192

 2017-02-06 19:22:25.226323+01 | 1486405345.22632 | pgbench_accounts |      13830111232
 2017-02-06 19:22:25.226323+01 | 1486405345.22632 | pgbench_tellers  |         15220736
 2017-02-06 19:22:25.226323+01 | 1486405345.22632 | pgbench_history  |        138575872
 2017-02-06 19:22:25.226323+01 | 1486405345.22632 | pgbench_branches |         11272192

 2017-02-06 19:22:26.319959+01 | 1486405346.31996 | pgbench_accounts |      13830168576
 2017-02-06 19:22:26.319959+01 | 1486405346.31996 | pgbench_tellers  |         15220736
 2017-02-06 19:22:26.319959+01 | 1486405346.31996 | pgbench_history  |        139313152
 2017-02-06 19:22:26.319959+01 | 1486405346.31996 | pgbench_branches |         11272192

 2017-02-06 19:22:27.40666+01 | 1486405347.40666 | pgbench_accounts |      13830225920
 2017-02-06 19:22:27.40666+01 | 1486405347.40666 | pgbench_tellers  |         15220736
 2017-02-06 19:22:27.40666+01 | 1486405347.40666 | pgbench_history  |        139837440
 2017-02-06 19:22:27.40666+01 | 1486405347.40666 | pgbench_branches |         11272192

 2017-02-06 19:22:28.494+01 | 1486405348.494 | pgbench_accounts |      13830283264
 2017-02-06 19:22:28.494+01 | 1486405348.494 | pgbench_tellers  |         15220736
 2017-02-06 19:22:28.494+01 | 1486405348.494 | pgbench_history  |        140378112
 2017-02-06 19:22:28.494+01 | 1486405348.494 | pgbench_branches |         11272192

 2017-02-06 19:22:29.580007+01 | 1486405349.58001 | pgbench_accounts |      13830332416
 2017-02-06 19:22:29.580007+01 | 1486405349.58001 | pgbench_tellers  |         15220736
 2017-02-06 19:22:29.580007+01 | 1486405349.58001 | pgbench_history  |        141131776
 2017-02-06 19:22:29.580007+01 | 1486405349.58001 | pgbench_branches |         11272192

 2017-02-06 19:22:30.65018+01 | 1486405350.65018 | pgbench_accounts |      13830381568
 2017-02-06 19:22:30.65018+01 | 1486405350.65018 | pgbench_tellers  |         15220736
 2017-02-06 19:22:30.65018+01 | 1486405350.65018 | pgbench_history  |        141688832
 2017-02-06 19:22:30.65018+01 | 1486405350.65018 | pgbench_branches |         11272192

 2017-02-06 19:22:31.730947+01 | 1486405351.73095 | pgbench_accounts |      13830447104
 2017-02-06 19:22:31.730947+01 | 1486405351.73095 | pgbench_tellers  |         15220736
 2017-02-06 19:22:31.730947+01 | 1486405351.73095 | pgbench_history  |        142073856
 2017-02-06 19:22:31.730947+01 | 1486405351.73095 | pgbench_branches |         11272192

 2017-02-06 19:22:32.806881+01 | 1486405352.80688 | pgbench_accounts |      13830496256
 2017-02-06 19:22:32.806881+01 | 1486405352.80688 | pgbench_tellers  |         15220736
 2017-02-06 19:22:32.806881+01 | 1486405352.80688 | pgbench_history  |        142606336
 2017-02-06 19:22:32.806881+01 | 1486405352.80688 | pgbench_branches |         11272192

 2017-02-06 19:22:33.883526+01 | 1486405353.88353 | pgbench_accounts |      13830545408
 2017-02-06 19:22:33.883526+01 | 1486405353.88353 | pgbench_tellers  |         15220736
 2017-02-06 19:22:33.883526+01 | 1486405353.88353 | pgbench_history  |        143384576
 2017-02-06 19:22:33.883526+01 | 1486405353.88353 | pgbench_branches |         11272192

 2017-02-06 19:22:34.966085+01 | 1486405354.96608 | pgbench_accounts |      13830610944
 2017-02-06 19:22:34.966085+01 | 1486405354.96608 | pgbench_tellers  |         15220736
 2017-02-06 19:22:34.966085+01 | 1486405354.96608 | pgbench_history  |        143810560
 2017-02-06 19:22:34.966085+01 | 1486405354.96608 | pgbench_branches |         11272192

 2017-02-06 19:22:36.047962+01 | 1486405356.04796 | pgbench_accounts |      13830676480
 2017-02-06 19:22:36.047962+01 | 1486405356.04796 | pgbench_tellers  |         15220736
 2017-02-06 19:22:36.047962+01 | 1486405356.04796 | pgbench_history  |        144678912
 2017-02-06 19:22:36.047962+01 | 1486405356.04796 | pgbench_branches |         11272192

 2017-02-06 19:22:37.119429+01 | 1486405357.11943 | pgbench_accounts |      13830725632
 2017-02-06 19:22:37.119429+01 | 1486405357.11943 | pgbench_tellers  |         15220736
 2017-02-06 19:22:37.119429+01 | 1486405357.11943 | pgbench_history  |        144867328
 2017-02-06 19:22:37.119429+01 | 1486405357.11943 | pgbench_branches |         11272192

 2017-02-06 19:22:38.196378+01 | 1486405358.19638 | pgbench_accounts |      13830791168
 2017-02-06 19:22:38.196378+01 | 1486405358.19638 | pgbench_tellers  |         15220736
 2017-02-06 19:22:38.196378+01 | 1486405358.19638 | pgbench_history  |        145473536
 2017-02-06 19:22:38.196378+01 | 1486405358.19638 | pgbench_branches |         11272192

 2017-02-06 19:22:39.277898+01 | 1486405359.2779 | pgbench_accounts |      13830848512
 2017-02-06 19:22:39.277898+01 | 1486405359.2779 | pgbench_tellers  |         15220736
 2017-02-06 19:22:39.277898+01 | 1486405359.2779 | pgbench_history  |        145891328
 2017-02-06 19:22:39.277898+01 | 1486405359.2779 | pgbench_branches |         11272192

 2017-02-06 19:22:40.35073+01 | 1486405360.35073 | pgbench_accounts |      13830897664
 2017-02-06 19:22:40.35073+01 | 1486405360.35073 | pgbench_tellers  |         15220736
 2017-02-06 19:22:40.35073+01 | 1486405360.35073 | pgbench_history  |        146505728
 2017-02-06 19:22:40.35073+01 | 1486405360.35073 | pgbench_branches |         11272192

 2017-02-06 19:22:41.425894+01 | 1486405361.42589 | pgbench_accounts |      13830955008
 2017-02-06 19:22:41.425894+01 | 1486405361.42589 | pgbench_tellers  |         15220736
 2017-02-06 19:22:41.425894+01 | 1486405361.42589 | pgbench_history  |        147062784
 2017-02-06 19:22:41.425894+01 | 1486405361.42589 | pgbench_branches |         11272192

 2017-02-06 19:22:42.507907+01 | 1486405362.50791 | pgbench_accounts |      13830995968
 2017-02-06 19:22:42.507907+01 | 1486405362.50791 | pgbench_tellers  |         15220736
 2017-02-06 19:22:42.507907+01 | 1486405362.50791 | pgbench_history  |        147587072
 2017-02-06 19:22:42.507907+01 | 1486405362.50791 | pgbench_branches |         11272192

 2017-02-06 19:22:43.588402+01 | 1486405363.5884 | pgbench_accounts |      13831061504
 2017-02-06 19:22:43.588402+01 | 1486405363.5884 | pgbench_tellers  |         15220736
 2017-02-06 19:22:43.588402+01 | 1486405363.5884 | pgbench_history  |        148234240
 2017-02-06 19:22:43.588402+01 | 1486405363.5884 | pgbench_branches |         11272192

 2017-02-06 19:22:44.659411+01 | 1486405364.65941 | pgbench_accounts |      13831110656
 2017-02-06 19:22:44.659411+01 | 1486405364.65941 | pgbench_tellers  |         15220736
 2017-02-06 19:22:44.659411+01 | 1486405364.65941 | pgbench_history  |        148750336
 2017-02-06 19:22:44.659411+01 | 1486405364.65941 | pgbench_branches |         11272192

 2017-02-06 19:22:45.743304+01 | 1486405365.7433 | pgbench_accounts |      13831168000
 2017-02-06 19:22:45.743304+01 | 1486405365.7433 | pgbench_tellers  |         15220736
 2017-02-06 19:22:45.743304+01 | 1486405365.7433 | pgbench_history  |        149233664
 2017-02-06 19:22:45.743304+01 | 1486405365.7433 | pgbench_branches |         11272192

 2017-02-06 19:22:46.824035+01 | 1486405366.82403 | pgbench_accounts |      13831192576
 2017-02-06 19:22:46.824035+01 | 1486405366.82403 | pgbench_tellers  |         15220736
 2017-02-06 19:22:46.824035+01 | 1486405366.82403 | pgbench_history  |        149651456
 2017-02-06 19:22:46.824035+01 | 1486405366.82403 | pgbench_branches |         11272192

 2017-02-06 19:22:47.896724+01 | 1486405367.89672 | pgbench_accounts |      13831241728
 2017-02-06 19:22:47.896724+01 | 1486405367.89672 | pgbench_tellers  |         15220736
 2017-02-06 19:22:47.896724+01 | 1486405367.89672 | pgbench_history  |        150003712
 2017-02-06 19:22:47.896724+01 | 1486405367.89672 | pgbench_branches |         11272192

 2017-02-06 19:22:48.974122+01 | 1486405368.97412 | pgbench_accounts |      13831307264
 2017-02-06 19:22:48.974122+01 | 1486405368.97412 | pgbench_tellers  |         15220736
 2017-02-06 19:22:48.974122+01 | 1486405368.97412 | pgbench_history  |        150691840
 2017-02-06 19:22:48.974122+01 | 1486405368.97412 | pgbench_branches |         11272192

 2017-02-06 19:22:50.052628+01 | 1486405370.05263 | pgbench_accounts |      13831356416
 2017-02-06 19:22:50.052628+01 | 1486405370.05263 | pgbench_tellers  |         15220736
 2017-02-06 19:22:50.052628+01 | 1486405370.05263 | pgbench_history  |        150896640
 2017-02-06 19:22:50.052628+01 | 1486405370.05263 | pgbench_branches |         11272192

 2017-02-06 19:22:51.132387+01 | 1486405371.13239 | pgbench_accounts |      13831397376
 2017-02-06 19:22:51.132387+01 | 1486405371.13239 | pgbench_tellers  |         15220736
 2017-02-06 19:22:51.132387+01 | 1486405371.13239 | pgbench_history  |        151470080
 2017-02-06 19:22:51.132387+01 | 1486405371.13239 | pgbench_branches |         11272192

 2017-02-06 19:22:52.205378+01 | 1486405372.20538 | pgbench_accounts |      13831446528
 2017-02-06 19:22:52.205378+01 | 1486405372.20538 | pgbench_tellers  |         15220736
 2017-02-06 19:22:52.205378+01 | 1486405372.20538 | pgbench_history  |        152092672
 2017-02-06 19:22:52.205378+01 | 1486405372.20538 | pgbench_branches |         11272192

