 2017-02-03 11:42:06.912414+01 | 1486118526.91241 |                 0 |              12 |                   349 |                    0 |               2213 |             0 |                0 |          487828 |                     0 |        191838 | 2017-02-03 10:46:39.986223+01

 2017-02-03 11:42:07.998333+01 | 1486118527.99833 |                 0 |              12 |                   349 |                    0 |               2213 |             0 |                0 |          487828 |                     0 |        191838 | 2017-02-03 10:46:39.986223+01

 2017-02-03 11:42:09.108133+01 | 1486118529.10813 |                 0 |              12 |                   349 |                    0 |               2213 |             0 |                0 |          487828 |                     0 |        191838 | 2017-02-03 10:46:39.986223+01

 2017-02-03 11:42:10.20485+01 | 1486118530.20485 |                 0 |              12 |                   349 |                    0 |               2213 |             0 |                0 |          487828 |                     0 |        191838 | 2017-02-03 10:46:39.986223+01

 2017-02-03 11:42:11.30353+01 | 1486118531.30353 |                 0 |              12 |                   349 |                    0 |               2213 |             0 |                0 |          487828 |                     0 |        191838 | 2017-02-03 10:46:39.986223+01

 2017-02-03 11:42:12.391111+01 | 1486118532.39111 |                 0 |              12 |                   349 |                    0 |               2213 |             0 |                0 |          487828 |                     0 |        191838 | 2017-02-03 10:46:39.986223+01

 2017-02-03 11:42:13.498439+01 | 1486118533.49844 |                 0 |              12 |                   349 |                    0 |               2213 |             0 |                0 |          487828 |                     0 |        191838 | 2017-02-03 10:46:39.986223+01

 2017-02-03 11:42:14.617522+01 | 1486118534.61752 |                 0 |              12 |                   349 |                    0 |               2213 |             0 |                0 |          487828 |                     0 |        191838 | 2017-02-03 10:46:39.986223+01

 2017-02-03 11:42:15.738572+01 | 1486118535.73857 |                 0 |              12 |                   349 |                    0 |               2213 |             0 |                0 |          487828 |                     0 |        191838 | 2017-02-03 10:46:39.986223+01

 2017-02-03 11:42:16.839151+01 | 1486118536.83915 |                 0 |              12 |                   349 |                    0 |               2213 |             0 |                0 |          487828 |                     0 |        191838 | 2017-02-03 10:46:39.986223+01

 2017-02-03 11:42:17.938398+01 | 1486118537.9384 |                 0 |              12 |                   349 |                    0 |               2213 |             0 |                0 |          487828 |                     0 |        191838 | 2017-02-03 10:46:39.986223+01

 2017-02-03 11:42:19.033996+01 | 1486118539.034 |                 0 |              12 |                   349 |                    0 |               2213 |             0 |                0 |          487828 |                     0 |        191838 | 2017-02-03 10:46:39.986223+01

 2017-02-03 11:42:20.131471+01 | 1486118540.13147 |                 0 |              12 |                   349 |                    0 |               2213 |             0 |                0 |          487828 |                     0 |        191838 | 2017-02-03 10:46:39.986223+01

 2017-02-03 11:42:21.22168+01 | 1486118541.22168 |                 0 |              12 |                   349 |                    0 |               2213 |             0 |                0 |          487828 |                     0 |        191838 | 2017-02-03 10:46:39.986223+01

 2017-02-03 11:42:22.315819+01 | 1486118542.31582 |                 0 |              12 |                   349 |                    0 |               2213 |             0 |                0 |          487828 |                     0 |        191838 | 2017-02-03 10:46:39.986223+01

 2017-02-03 11:42:23.403898+01 | 1486118543.4039 |                 0 |              12 |                   349 |                    0 |               2213 |             0 |                0 |          487828 |                     0 |        191838 | 2017-02-03 10:46:39.986223+01

 2017-02-03 11:42:24.496756+01 | 1486118544.49676 |                 0 |              12 |                   349 |                    0 |               2213 |             0 |                0 |          487828 |                     0 |        191838 | 2017-02-03 10:46:39.986223+01

 2017-02-03 11:42:25.589416+01 | 1486118545.58942 |                 0 |              12 |                   349 |                    0 |               2213 |             0 |                0 |          487828 |                     0 |        191838 | 2017-02-03 10:46:39.986223+01

 2017-02-03 11:42:26.677253+01 | 1486118546.67725 |                 0 |              12 |                   349 |                    0 |               2213 |             0 |                0 |          487828 |                     0 |        191838 | 2017-02-03 10:46:39.986223+01

 2017-02-03 11:42:27.774936+01 | 1486118547.77494 |                 0 |              12 |                   349 |                    0 |               2213 |             0 |                0 |          487828 |                     0 |        191838 | 2017-02-03 10:46:39.986223+01

 2017-02-03 11:42:28.87212+01 | 1486118548.87212 |                 0 |              12 |                   349 |                    0 |               2213 |             0 |                0 |          487828 |                     0 |        191838 | 2017-02-03 10:46:39.986223+01

 2017-02-03 11:42:29.986006+01 | 1486118549.98601 |                 0 |              12 |                   349 |                    0 |               2213 |             0 |                0 |          487828 |                     0 |        191838 | 2017-02-03 10:46:39.986223+01

 2017-02-03 11:42:31.082876+01 | 1486118551.08288 |                 0 |              12 |                   349 |                    0 |               2213 |             0 |                0 |          487828 |                     0 |        191838 | 2017-02-03 10:46:39.986223+01

 2017-02-03 11:42:32.179829+01 | 1486118552.17983 |                 0 |              12 |                   349 |                    0 |               2213 |             0 |                0 |          487828 |                     0 |        191838 | 2017-02-03 10:46:39.986223+01

 2017-02-03 11:42:33.290573+01 | 1486118553.29057 |                 0 |              12 |                   349 |                    0 |               2213 |             0 |                0 |          487828 |                     0 |        191838 | 2017-02-03 10:46:39.986223+01

 2017-02-03 11:42:34.376017+01 | 1486118554.37602 |                 0 |              12 |                   349 |                    0 |               2213 |             0 |                0 |          487828 |                     0 |        191838 | 2017-02-03 10:46:39.986223+01

 2017-02-03 11:42:35.474802+01 | 1486118555.4748 |                 0 |              12 |                   349 |                    0 |               2213 |             0 |                0 |          487828 |                     0 |        191838 | 2017-02-03 10:46:39.986223+01

 2017-02-03 11:42:36.571087+01 | 1486118556.57109 |                 0 |              12 |                   349 |                    0 |               2213 |             0 |                0 |          487828 |                     0 |        191838 | 2017-02-03 10:46:39.986223+01

 2017-02-03 11:42:37.673627+01 | 1486118557.67363 |                 0 |              12 |                   349 |                    0 |               2213 |             0 |                0 |          487828 |                     0 |        191838 | 2017-02-03 10:46:39.986223+01

 2017-02-03 11:42:38.763276+01 | 1486118558.76328 |                 0 |              12 |                   349 |                    0 |               2213 |             0 |                0 |          487828 |                     0 |        191838 | 2017-02-03 10:46:39.986223+01

 2017-02-03 11:42:39.859864+01 | 1486118559.85986 |                 0 |              12 |                   349 |                    0 |               2213 |             0 |                0 |          487828 |                     0 |        191838 | 2017-02-03 10:46:39.986223+01

 2017-02-03 11:42:40.989607+01 | 1486118560.98961 |                 0 |              12 |                   349 |                    0 |               2213 |             0 |                0 |          487828 |                     0 |        191838 | 2017-02-03 10:46:39.986223+01

 2017-02-03 11:42:42.104883+01 | 1486118562.10488 |                 0 |              12 |                   349 |                    0 |               2213 |             0 |                0 |          487828 |                     0 |        191838 | 2017-02-03 10:46:39.986223+01

 2017-02-03 11:42:43.2162+01 | 1486118563.2162 |                 0 |              12 |                   349 |                    0 |               2213 |             0 |                0 |          487828 |                     0 |        191838 | 2017-02-03 10:46:39.986223+01

 2017-02-03 11:42:44.315847+01 | 1486118564.31585 |                 0 |              12 |                   349 |                    0 |               2213 |             0 |                0 |          487828 |                     0 |        191838 | 2017-02-03 10:46:39.986223+01

 2017-02-03 11:42:45.404917+01 | 1486118565.40492 |                 0 |              12 |                   349 |                    0 |               2213 |             0 |                0 |          487828 |                     0 |        191838 | 2017-02-03 10:46:39.986223+01

 2017-02-03 11:42:46.493297+01 | 1486118566.4933 |                 0 |              12 |                   349 |                    0 |               2213 |             0 |                0 |          487828 |                     0 |        191838 | 2017-02-03 10:46:39.986223+01

 2017-02-03 11:42:47.588963+01 | 1486118567.58896 |                 0 |              12 |                   349 |                    0 |               2213 |             0 |                0 |          487828 |                     0 |        191838 | 2017-02-03 10:46:39.986223+01

 2017-02-03 11:42:48.689229+01 | 1486118568.68923 |                 0 |              12 |                   349 |                    0 |               2213 |             0 |                0 |          487828 |                     0 |        191838 | 2017-02-03 10:46:39.986223+01

 2017-02-03 11:42:49.793953+01 | 1486118569.79395 |                 0 |              12 |                   349 |                    0 |               2213 |             0 |                0 |          487828 |                     0 |        191838 | 2017-02-03 10:46:39.986223+01

 2017-02-03 11:42:50.893598+01 | 1486118570.8936 |                 0 |              12 |                   349 |                    0 |               2213 |             0 |                0 |          487828 |                     0 |        191838 | 2017-02-03 10:46:39.986223+01

 2017-02-03 11:42:51.986565+01 | 1486118571.98657 |                 0 |              12 |                   349 |                    0 |               2213 |             0 |                0 |          487828 |                     0 |        191838 | 2017-02-03 10:46:39.986223+01

 2017-02-03 11:42:53.090144+01 | 1486118573.09014 |                 0 |              12 |                   349 |                    0 |               2213 |             0 |                0 |          487828 |                     0 |        191838 | 2017-02-03 10:46:39.986223+01

 2017-02-03 11:42:54.192203+01 | 1486118574.1922 |                 0 |              12 |                   349 |                    0 |               2213 |             0 |                0 |          487828 |                     0 |        191838 | 2017-02-03 10:46:39.986223+01

 2017-02-03 11:42:55.301301+01 | 1486118575.3013 |                 0 |              12 |                   349 |                    0 |               2213 |             0 |                0 |          487828 |                     0 |        191838 | 2017-02-03 10:46:39.986223+01

 2017-02-03 11:42:56.386169+01 | 1486118576.38617 |                 0 |              12 |                   349 |                    0 |               2213 |             0 |                0 |          487828 |                     0 |        191838 | 2017-02-03 10:46:39.986223+01

 2017-02-03 11:42:57.483141+01 | 1486118577.48314 |                 0 |              12 |                   349 |                    0 |               2213 |             0 |                0 |          487828 |                     0 |        191838 | 2017-02-03 10:46:39.986223+01

 2017-02-03 11:42:58.57074+01 | 1486118578.57074 |                 0 |              12 |                   349 |                    0 |               2213 |             0 |                0 |          487828 |                     0 |        191838 | 2017-02-03 10:46:39.986223+01

 2017-02-03 11:42:59.656695+01 | 1486118579.65669 |                 0 |              12 |                   349 |                    0 |               2213 |             0 |                0 |          487828 |                     0 |        191838 | 2017-02-03 10:46:39.986223+01

 2017-02-03 11:43:00.741856+01 | 1486118580.74186 |                 0 |              12 |                   349 |                    0 |               2213 |             0 |                0 |          487828 |                     0 |        191838 | 2017-02-03 10:46:39.986223+01

 2017-02-03 11:43:01.840139+01 | 1486118581.84014 |                 0 |              12 |                   349 |                    0 |               2213 |             0 |                0 |          487828 |                     0 |        191838 | 2017-02-03 10:46:39.986223+01

 2017-02-03 11:43:02.955105+01 | 1486118582.95511 |                 0 |              12 |                   349 |                    0 |               2213 |             0 |                0 |          487828 |                     0 |        191838 | 2017-02-03 10:46:39.986223+01

 2017-02-03 11:43:04.057436+01 | 1486118584.05744 |                 0 |              12 |                   349 |                    0 |               2213 |             0 |                0 |          487828 |                     0 |        191838 | 2017-02-03 10:46:39.986223+01

 2017-02-03 11:43:05.161016+01 | 1486118585.16102 |                 0 |              12 |                   349 |                    0 |               2213 |             0 |                0 |          487828 |                     0 |        191838 | 2017-02-03 10:46:39.986223+01

 2017-02-03 11:43:06.257911+01 | 1486118586.25791 |                 0 |              12 |                   349 |                    0 |               2213 |             0 |                0 |          487828 |                     0 |        191838 | 2017-02-03 10:46:39.986223+01

 2017-02-03 11:43:07.357414+01 | 1486118587.35741 |                 0 |              12 |                   349 |                    0 |               2213 |             0 |                0 |          487828 |                     0 |        191838 | 2017-02-03 10:46:39.986223+01

 2017-02-03 11:43:08.445035+01 | 1486118588.44503 |                 0 |              12 |                   349 |                    0 |               2213 |             0 |                0 |          487828 |                     0 |        191838 | 2017-02-03 10:46:39.986223+01

 2017-02-03 11:43:09.529234+01 | 1486118589.52923 |                 0 |              12 |                   349 |                    0 |               2213 |             0 |                0 |          487828 |                     0 |        191838 | 2017-02-03 10:46:39.986223+01

 2017-02-03 11:43:10.618301+01 | 1486118590.6183 |                 0 |              12 |                   349 |                    0 |               2213 |             0 |                0 |          487828 |                     0 |        191838 | 2017-02-03 10:46:39.986223+01

 2017-02-03 11:43:11.693445+01 | 1486118591.69344 |                 0 |              12 |                   349 |                    0 |               2213 |             0 |                0 |          487828 |                     0 |        191838 | 2017-02-03 10:46:39.986223+01

 2017-02-03 11:43:12.77956+01 | 1486118592.77956 |                 0 |              12 |                   349 |                    0 |               2213 |             0 |                0 |          487828 |                     0 |        191838 | 2017-02-03 10:46:39.986223+01

 2017-02-03 11:43:13.87577+01 | 1486118593.87577 |                 0 |              12 |                   349 |                    0 |               2213 |             0 |                0 |          487828 |                     0 |        191838 | 2017-02-03 10:46:39.986223+01

 2017-02-03 11:43:14.973251+01 | 1486118594.97325 |                 0 |              12 |                   349 |                    0 |               2213 |             0 |                0 |          487828 |                     0 |        191838 | 2017-02-03 10:46:39.986223+01

 2017-02-03 11:43:16.071857+01 | 1486118596.07186 |                 0 |              12 |                   349 |                    0 |               2213 |             0 |                0 |          487828 |                     0 |        191838 | 2017-02-03 10:46:39.986223+01

 2017-02-03 11:43:17.172813+01 | 1486118597.17281 |                 0 |              12 |                   349 |                    0 |               2213 |             0 |                0 |          487828 |                     0 |        191838 | 2017-02-03 10:46:39.986223+01

 2017-02-03 11:43:18.25905+01 | 1486118598.25905 |                 0 |              12 |                   349 |                    0 |               2213 |             0 |                0 |          487828 |                     0 |        191838 | 2017-02-03 10:46:39.986223+01

 2017-02-03 11:43:19.357766+01 | 1486118599.35777 |                 0 |              12 |                   349 |                    0 |               2213 |             0 |                0 |          487828 |                     0 |        191838 | 2017-02-03 10:46:39.986223+01

 2017-02-03 11:43:20.44875+01 | 1486118600.44875 |                 0 |              12 |                   349 |                    0 |               2213 |             0 |                0 |          487828 |                     0 |        191838 | 2017-02-03 10:46:39.986223+01

 2017-02-03 11:43:21.532942+01 | 1486118601.53294 |                 0 |              12 |                   349 |                    0 |               2213 |             0 |                0 |          487828 |                     0 |        191838 | 2017-02-03 10:46:39.986223+01

 2017-02-03 11:43:22.623974+01 | 1486118602.62397 |                 0 |              12 |                   349 |                    0 |               2213 |             0 |                0 |          487828 |                     0 |        191838 | 2017-02-03 10:46:39.986223+01

 2017-02-03 11:43:23.709424+01 | 1486118603.70942 |                 0 |              12 |                   349 |                    0 |               2213 |             0 |                0 |          487828 |                     0 |        191838 | 2017-02-03 10:46:39.986223+01

 2017-02-03 11:43:24.800039+01 | 1486118604.80004 |                 0 |              12 |                   349 |                    0 |               2213 |             0 |                0 |          487828 |                     0 |        191838 | 2017-02-03 10:46:39.986223+01

 2017-02-03 11:43:25.894205+01 | 1486118605.89421 |                 0 |              12 |                   349 |                    0 |               2213 |             0 |                0 |          487828 |                     0 |        191838 | 2017-02-03 10:46:39.986223+01

 2017-02-03 11:43:26.984384+01 | 1486118606.98438 |                 0 |              12 |                   349 |                    0 |               2213 |             0 |                0 |          487828 |                     0 |        191838 | 2017-02-03 10:46:39.986223+01

 2017-02-03 11:43:28.072571+01 | 1486118608.07257 |                 0 |              12 |                   349 |                    0 |               2213 |             0 |                0 |          487828 |                     0 |        191838 | 2017-02-03 10:46:39.986223+01

 2017-02-03 11:43:29.168048+01 | 1486118609.16805 |                 0 |              12 |                   349 |                    0 |               2213 |             0 |                0 |          487828 |                     0 |        191838 | 2017-02-03 10:46:39.986223+01

 2017-02-03 11:43:30.262793+01 | 1486118610.26279 |                 0 |              12 |                   349 |                    0 |               2213 |             0 |                0 |          487828 |                     0 |        191838 | 2017-02-03 10:46:39.986223+01

 2017-02-03 11:43:31.363181+01 | 1486118611.36318 |                 0 |              12 |                   349 |                    0 |               2213 |             0 |                0 |          487828 |                     0 |        191838 | 2017-02-03 10:46:39.986223+01

 2017-02-03 11:43:32.454189+01 | 1486118612.45419 |                 0 |              12 |                   349 |                    0 |               2213 |             0 |                0 |          487828 |                     0 |        191838 | 2017-02-03 10:46:39.986223+01

 2017-02-03 11:43:33.535976+01 | 1486118613.53598 |                 0 |              12 |                   349 |                    0 |               2213 |             0 |                0 |          487828 |                     0 |        191838 | 2017-02-03 10:46:39.986223+01

 2017-02-03 11:43:34.626615+01 | 1486118614.62662 |                 0 |              12 |                   349 |                    0 |               2213 |             0 |                0 |          487828 |                     0 |        191838 | 2017-02-03 10:46:39.986223+01

 2017-02-03 11:43:35.716156+01 | 1486118615.71616 |                 0 |              12 |                   349 |                    0 |               2213 |             0 |                0 |          487828 |                     0 |        191838 | 2017-02-03 10:46:39.986223+01

 2017-02-03 11:43:36.809382+01 | 1486118616.80938 |                 0 |              12 |                   349 |                    0 |               2213 |             0 |                0 |          487828 |                     0 |        191838 | 2017-02-03 10:46:39.986223+01

 2017-02-03 11:43:37.90534+01 | 1486118617.90534 |                 0 |              12 |                   349 |                    0 |               2213 |             0 |                0 |          487828 |                     0 |        191838 | 2017-02-03 10:46:39.986223+01

 2017-02-03 11:43:39.004103+01 | 1486118619.0041 |                 0 |              12 |                   349 |                    0 |               2213 |             0 |                0 |          487828 |                     0 |        191838 | 2017-02-03 10:46:39.986223+01

 2017-02-03 11:43:40.107846+01 | 1486118620.10785 |                 0 |              12 |                   349 |                    0 |               2213 |             0 |                0 |          487828 |                     0 |        191838 | 2017-02-03 10:46:39.986223+01

 2017-02-03 11:43:41.217134+01 | 1486118621.21713 |                 0 |              12 |                   349 |                    0 |               2213 |             0 |                0 |          487828 |                     0 |        191838 | 2017-02-03 10:46:39.986223+01

 2017-02-03 11:43:42.323948+01 | 1486118622.32395 |                 0 |              12 |                   349 |                    0 |               2213 |             0 |                0 |          487828 |                     0 |        191838 | 2017-02-03 10:46:39.986223+01

 2017-02-03 11:43:43.430391+01 | 1486118623.43039 |                 0 |              12 |                   349 |                    0 |               2213 |             0 |                0 |          487828 |                     0 |        191838 | 2017-02-03 10:46:39.986223+01

 2017-02-03 11:43:44.515441+01 | 1486118624.51544 |                 0 |              12 |                   349 |                    0 |               2213 |             0 |                0 |          487828 |                     0 |        191838 | 2017-02-03 10:46:39.986223+01

 2017-02-03 11:43:45.601955+01 | 1486118625.60195 |                 0 |              12 |                   349 |                    0 |               2213 |             0 |                0 |          487828 |                     0 |        191838 | 2017-02-03 10:46:39.986223+01

 2017-02-03 11:43:46.684066+01 | 1486118626.68407 |                 0 |              12 |                   349 |                    0 |               2213 |             0 |                0 |          487828 |                     0 |        191838 | 2017-02-03 10:46:39.986223+01

 2017-02-03 11:43:47.767325+01 | 1486118627.76732 |                 0 |              12 |                   349 |                    0 |               2213 |             0 |                0 |          487828 |                     0 |        191838 | 2017-02-03 10:46:39.986223+01

 2017-02-03 11:43:48.860342+01 | 1486118628.86034 |                 0 |              12 |                   349 |                    0 |               2213 |             0 |                0 |          487828 |                     0 |        191838 | 2017-02-03 10:46:39.986223+01

 2017-02-03 11:43:49.958461+01 | 1486118629.95846 |                 0 |              12 |                   349 |                    0 |               2213 |             0 |                0 |          487828 |                     0 |        191838 | 2017-02-03 10:46:39.986223+01

 2017-02-03 11:43:51.061003+01 | 1486118631.061 |                 0 |              12 |                   349 |                    0 |               2213 |             0 |                0 |          487828 |                     0 |        191838 | 2017-02-03 10:46:39.986223+01

 2017-02-03 11:43:52.184947+01 | 1486118632.18495 |                 0 |              12 |                   349 |                    0 |               2213 |             0 |                0 |          487828 |                     0 |        191838 | 2017-02-03 10:46:39.986223+01

 2017-02-03 11:43:53.285361+01 | 1486118633.28536 |                 0 |              12 |                   349 |                    0 |               2213 |             0 |                0 |          487828 |                     0 |        191838 | 2017-02-03 10:46:39.986223+01

 2017-02-03 11:43:54.384084+01 | 1486118634.38408 |                 0 |              12 |                   349 |                    0 |               2213 |             0 |                0 |          487828 |                     0 |        191838 | 2017-02-03 10:46:39.986223+01

 2017-02-03 11:43:55.470195+01 | 1486118635.4702 |                 0 |              12 |                   349 |                    0 |               2213 |             0 |                0 |          487828 |                     0 |        191838 | 2017-02-03 10:46:39.986223+01

 2017-02-03 11:43:56.550857+01 | 1486118636.55086 |                 0 |              12 |                   349 |                    0 |               2213 |             0 |                0 |          487828 |                     0 |        191838 | 2017-02-03 10:46:39.986223+01

 2017-02-03 11:43:57.632748+01 | 1486118637.63275 |                 0 |              12 |                   349 |                    0 |               2213 |             0 |                0 |          487828 |                     0 |        191838 | 2017-02-03 10:46:39.986223+01

 2017-02-03 11:43:58.719191+01 | 1486118638.71919 |                 0 |              12 |                   349 |                    0 |               2213 |             0 |                0 |          487828 |                     0 |        191838 | 2017-02-03 10:46:39.986223+01

 2017-02-03 11:43:59.808227+01 | 1486118639.80823 |                 0 |              12 |                   349 |                    0 |               2213 |             0 |                0 |          487828 |                     0 |        191838 | 2017-02-03 10:46:39.986223+01

 2017-02-03 11:44:00.90519+01 | 1486118640.90519 |                 0 |              12 |                   349 |                    0 |               2213 |             0 |                0 |          487828 |                     0 |        191838 | 2017-02-03 10:46:39.986223+01

 2017-02-03 11:44:01.997555+01 | 1486118641.99756 |                 0 |              12 |                   349 |                    0 |               2213 |             0 |                0 |          487828 |                     0 |        191838 | 2017-02-03 10:46:39.986223+01

 2017-02-03 11:44:03.092143+01 | 1486118643.09214 |                 0 |              12 |                   349 |                    0 |               2213 |             0 |                0 |          487828 |                     0 |        191838 | 2017-02-03 10:46:39.986223+01

 2017-02-03 11:44:04.195668+01 | 1486118644.19567 |                 0 |              12 |                   349 |                    0 |               2213 |             0 |                0 |          487828 |                     0 |        191838 | 2017-02-03 10:46:39.986223+01

 2017-02-03 11:44:05.301142+01 | 1486118645.30114 |                 0 |              12 |                   349 |                    0 |               2213 |             0 |                0 |          487828 |                     0 |        191838 | 2017-02-03 10:46:39.986223+01

 2017-02-03 11:44:06.412853+01 | 1486118646.41285 |                 0 |              12 |                   349 |                    0 |               2213 |             0 |                0 |          487828 |                     0 |        191838 | 2017-02-03 10:46:39.986223+01

 2017-02-03 11:44:07.501639+01 | 1486118647.50164 |                 0 |              12 |                   349 |                    0 |               2213 |             0 |                0 |          487828 |                     0 |        191838 | 2017-02-03 10:46:39.986223+01

 2017-02-03 11:44:08.586759+01 | 1486118648.58676 |                 0 |              12 |                   349 |                    0 |               2213 |             0 |                0 |          487828 |                     0 |        191838 | 2017-02-03 10:46:39.986223+01

 2017-02-03 11:44:09.674351+01 | 1486118649.67435 |                 0 |              12 |                   349 |                    0 |               2213 |             0 |                0 |          487828 |                     0 |        191838 | 2017-02-03 10:46:39.986223+01

 2017-02-03 11:44:10.760726+01 | 1486118650.76073 |                 0 |              12 |                   349 |                    0 |               2213 |             0 |                0 |          487828 |                     0 |        191838 | 2017-02-03 10:46:39.986223+01

 2017-02-03 11:44:11.840739+01 | 1486118651.84074 |                 0 |              12 |                   349 |                    0 |               2213 |             0 |                0 |          487828 |                     0 |        191838 | 2017-02-03 10:46:39.986223+01

 2017-02-03 11:44:12.933906+01 | 1486118652.93391 |                 0 |              12 |                   349 |                    0 |               2213 |             0 |                0 |          487828 |                     0 |        191838 | 2017-02-03 10:46:39.986223+01

 2017-02-03 11:44:14.033101+01 | 1486118654.0331 |                 0 |              12 |                   349 |                    0 |               2213 |             0 |                0 |          487828 |                     0 |        191838 | 2017-02-03 10:46:39.986223+01

 2017-02-03 11:44:15.128915+01 | 1486118655.12892 |                 0 |              12 |                   349 |                    0 |               2213 |             0 |                0 |          487828 |                     0 |        191838 | 2017-02-03 10:46:39.986223+01

 2017-02-03 11:44:16.25906+01 | 1486118656.25906 |                 0 |              12 |                   349 |                    0 |               2213 |             0 |                0 |          487828 |                     0 |        191838 | 2017-02-03 10:46:39.986223+01

 2017-02-03 11:44:17.361896+01 | 1486118657.3619 |                 0 |              12 |                   349 |                    0 |               2213 |             0 |                0 |          487828 |                     0 |        191838 | 2017-02-03 10:46:39.986223+01

 2017-02-03 11:44:18.464343+01 | 1486118658.46434 |                 0 |              12 |                   349 |                    0 |               2213 |             0 |                0 |          487828 |                     0 |        191838 | 2017-02-03 10:46:39.986223+01

 2017-02-03 11:44:19.549628+01 | 1486118659.54963 |                 0 |              12 |                   349 |                    0 |               2213 |             0 |                0 |          487828 |                     0 |        191838 | 2017-02-03 10:46:39.986223+01

 2017-02-03 11:44:20.641256+01 | 1486118660.64126 |                 0 |              12 |                   349 |                    0 |               2213 |             0 |                0 |          487828 |                     0 |        191838 | 2017-02-03 10:46:39.986223+01

 2017-02-03 11:44:21.727838+01 | 1486118661.72784 |                 0 |              12 |                   349 |                    0 |               2213 |             0 |                0 |          487828 |                     0 |        191838 | 2017-02-03 10:46:39.986223+01

 2017-02-03 11:44:22.814983+01 | 1486118662.81498 |                 0 |              12 |                   349 |                    0 |               2213 |             0 |                0 |          487828 |                     0 |        191838 | 2017-02-03 10:46:39.986223+01

 2017-02-03 11:44:23.913168+01 | 1486118663.91317 |                 0 |              12 |                   349 |                    0 |               2213 |             0 |                0 |          487828 |                     0 |        191838 | 2017-02-03 10:46:39.986223+01

 2017-02-03 11:44:24.997412+01 | 1486118664.99741 |                 0 |              12 |                   349 |                    0 |               2213 |             0 |                0 |          487828 |                     0 |        191838 | 2017-02-03 10:46:39.986223+01

 2017-02-03 11:44:26.090497+01 | 1486118666.0905 |                 0 |              12 |                   349 |                    0 |               2213 |             0 |                0 |          487828 |                     0 |        191838 | 2017-02-03 10:46:39.986223+01

 2017-02-03 11:44:27.185114+01 | 1486118667.18511 |                 0 |              12 |                   349 |                    0 |               2213 |             0 |                0 |          487828 |                     0 |        191838 | 2017-02-03 10:46:39.986223+01

 2017-02-03 11:44:28.289015+01 | 1486118668.28902 |                 0 |              12 |                   349 |                    0 |               2213 |             0 |                0 |          487828 |                     0 |        191838 | 2017-02-03 10:46:39.986223+01

 2017-02-03 11:44:29.40279+01 | 1486118669.40279 |                 0 |              12 |                   349 |                    0 |               2213 |             0 |                0 |          487828 |                     0 |        191838 | 2017-02-03 10:46:39.986223+01

 2017-02-03 11:44:30.498277+01 | 1486118670.49828 |                 0 |              12 |                   349 |                    0 |               2213 |             0 |                0 |          487828 |                     0 |        191838 | 2017-02-03 10:46:39.986223+01

 2017-02-03 11:44:31.583981+01 | 1486118671.58398 |                 0 |              12 |                   349 |                    0 |               2213 |             0 |                0 |          487828 |                     0 |        191838 | 2017-02-03 10:46:39.986223+01

 2017-02-03 11:44:32.669554+01 | 1486118672.66955 |                 0 |              12 |                   349 |                    0 |               2213 |             0 |                0 |          487828 |                     0 |        191838 | 2017-02-03 10:46:39.986223+01

 2017-02-03 11:44:33.756103+01 | 1486118673.7561 |                 0 |              12 |                   349 |                    0 |               2213 |             0 |                0 |          487828 |                     0 |        191838 | 2017-02-03 10:46:39.986223+01

 2017-02-03 11:44:34.846097+01 | 1486118674.8461 |                 0 |              12 |                   349 |                    0 |               2213 |             0 |                0 |          487828 |                     0 |        191838 | 2017-02-03 10:46:39.986223+01

 2017-02-03 11:44:35.945736+01 | 1486118675.94574 |                 0 |              12 |                   349 |                    0 |               2213 |             0 |                0 |          487828 |                     0 |        191838 | 2017-02-03 10:46:39.986223+01

 2017-02-03 11:44:37.037519+01 | 1486118677.03752 |                 0 |              12 |                   349 |                    0 |               2213 |             0 |                0 |          487828 |                     0 |        191838 | 2017-02-03 10:46:39.986223+01

 2017-02-03 11:44:38.135171+01 | 1486118678.13517 |                 0 |              12 |                   349 |                    0 |               2213 |             0 |                0 |          487828 |                     0 |        191838 | 2017-02-03 10:46:39.986223+01

 2017-02-03 11:44:39.231447+01 | 1486118679.23145 |                 0 |              12 |                   349 |                    0 |               2213 |             0 |                0 |          487828 |                     0 |        191838 | 2017-02-03 10:46:39.986223+01

 2017-02-03 11:44:40.32984+01 | 1486118680.32984 |                 0 |              12 |                   349 |                    0 |               2213 |             0 |                0 |          487828 |                     0 |        191838 | 2017-02-03 10:46:39.986223+01

 2017-02-03 11:44:41.440013+01 | 1486118681.44001 |                 0 |              12 |                   349 |                    0 |               2213 |             0 |                0 |          487828 |                     0 |        191838 | 2017-02-03 10:46:39.986223+01

 2017-02-03 11:44:42.530849+01 | 1486118682.53085 |                 0 |              12 |                   349 |                    0 |               2213 |             0 |                0 |          487828 |                     0 |        191838 | 2017-02-03 10:46:39.986223+01

 2017-02-03 11:44:43.614598+01 | 1486118683.6146 |                 0 |              12 |                   349 |                    0 |               2213 |             0 |                0 |          487828 |                     0 |        191838 | 2017-02-03 10:46:39.986223+01

 2017-02-03 11:44:44.701641+01 | 1486118684.70164 |                 0 |              12 |                   349 |                    0 |               2213 |             0 |                0 |          487828 |                     0 |        191838 | 2017-02-03 10:46:39.986223+01

 2017-02-03 11:44:45.784138+01 | 1486118685.78414 |                 0 |              12 |                   349 |                    0 |               2213 |             0 |                0 |          487828 |                     0 |        191838 | 2017-02-03 10:46:39.986223+01

 2017-02-03 11:44:46.87794+01 | 1486118686.87794 |                 0 |              12 |                   349 |                    0 |               2213 |             0 |                0 |          487828 |                     0 |        191838 | 2017-02-03 10:46:39.986223+01

 2017-02-03 11:44:47.981434+01 | 1486118687.98143 |                 0 |              12 |                   349 |                    0 |               2213 |             0 |                0 |          487828 |                     0 |        191838 | 2017-02-03 10:46:39.986223+01

 2017-02-03 11:44:49.111302+01 | 1486118689.1113 |                 0 |              12 |                   349 |                    0 |               2213 |             0 |                0 |          487828 |                     0 |        191838 | 2017-02-03 10:46:39.986223+01

 2017-02-03 11:44:50.203206+01 | 1486118690.20321 |                 0 |              12 |                   349 |                    0 |               2213 |             0 |                0 |          487828 |                     0 |        191838 | 2017-02-03 10:46:39.986223+01

 2017-02-03 11:44:51.300225+01 | 1486118691.30023 |                 0 |              12 |                   349 |                    0 |               2213 |             0 |                0 |          487828 |                     0 |        191838 | 2017-02-03 10:46:39.986223+01

 2017-02-03 11:44:52.40186+01 | 1486118692.40186 |                 0 |              12 |                   349 |                    0 |               2213 |             0 |                0 |          487828 |                     0 |        191838 | 2017-02-03 10:46:39.986223+01

 2017-02-03 11:44:53.513005+01 | 1486118693.51301 |                 0 |              12 |                   349 |                    0 |               2213 |             0 |                0 |          487828 |                     0 |        191838 | 2017-02-03 10:46:39.986223+01

 2017-02-03 11:44:54.604437+01 | 1486118694.60444 |                 0 |              12 |                   349 |                    0 |               2213 |             0 |                0 |          487828 |                     0 |        191838 | 2017-02-03 10:46:39.986223+01

 2017-02-03 11:44:55.686659+01 | 1486118695.68666 |                 0 |              12 |                   349 |                    0 |               2213 |             0 |                0 |          487828 |                     0 |        191838 | 2017-02-03 10:46:39.986223+01

 2017-02-03 11:44:56.771791+01 | 1486118696.77179 |                 0 |              12 |                   349 |                    0 |               2213 |             0 |                0 |          487828 |                     0 |        191838 | 2017-02-03 10:46:39.986223+01

 2017-02-03 11:44:57.863086+01 | 1486118697.86309 |                 0 |              12 |                   349 |                    0 |               2213 |             0 |                0 |          487828 |                     0 |        191838 | 2017-02-03 10:46:39.986223+01

 2017-02-03 11:44:58.964011+01 | 1486118698.96401 |                 0 |              12 |                   349 |                    0 |               2213 |             0 |                0 |          487828 |                     0 |        191838 | 2017-02-03 10:46:39.986223+01

 2017-02-03 11:45:00.065118+01 | 1486118700.06512 |                 0 |              12 |                   349 |                    0 |               2213 |             0 |                0 |          487828 |                     0 |        191838 | 2017-02-03 10:46:39.986223+01

 2017-02-03 11:45:01.161806+01 | 1486118701.16181 |                 0 |              12 |                   349 |                    0 |               2213 |             0 |                0 |          487828 |                     0 |        191838 | 2017-02-03 10:46:39.986223+01

 2017-02-03 11:45:02.259839+01 | 1486118702.25984 |                 0 |              12 |                   349 |                    0 |               2213 |             0 |                0 |          487828 |                     0 |        191838 | 2017-02-03 10:46:39.986223+01

 2017-02-03 11:45:03.360185+01 | 1486118703.36018 |                 0 |              12 |                   349 |                    0 |               2213 |             0 |                0 |          487828 |                     0 |        191838 | 2017-02-03 10:46:39.986223+01

 2017-02-03 11:45:04.457688+01 | 1486118704.45769 |                 0 |              12 |                   349 |                    0 |               2213 |             0 |                0 |          487828 |                     0 |        191838 | 2017-02-03 10:46:39.986223+01

 2017-02-03 11:45:05.550882+01 | 1486118705.55088 |                 0 |              12 |                   349 |                    0 |               2213 |             0 |                0 |          487828 |                     0 |        191838 | 2017-02-03 10:46:39.986223+01

 2017-02-03 11:45:06.640658+01 | 1486118706.64066 |                 0 |              12 |                   349 |                    0 |               2213 |             0 |                0 |          487828 |                     0 |        191838 | 2017-02-03 10:46:39.986223+01

 2017-02-03 11:45:07.725636+01 | 1486118707.72564 |                 0 |              12 |                   349 |                    0 |               2213 |             0 |                0 |          487828 |                     0 |        191838 | 2017-02-03 10:46:39.986223+01

 2017-02-03 11:45:08.815473+01 | 1486118708.81547 |                 0 |              12 |                   349 |                    0 |               2213 |             0 |                0 |          487828 |                     0 |        191838 | 2017-02-03 10:46:39.986223+01

 2017-02-03 11:45:09.904155+01 | 1486118709.90416 |                 0 |              12 |                   349 |                    0 |               2213 |             0 |                0 |          487828 |                     0 |        191838 | 2017-02-03 10:46:39.986223+01

 2017-02-03 11:45:11.000242+01 | 1486118711.00024 |                 0 |              12 |                   349 |                    0 |               2213 |             0 |                0 |          487828 |                     0 |        191838 | 2017-02-03 10:46:39.986223+01

 2017-02-03 11:45:12.105766+01 | 1486118712.10577 |                 0 |              12 |                   349 |                    0 |               2213 |             0 |                0 |          487828 |                     0 |        191838 | 2017-02-03 10:46:39.986223+01

 2017-02-03 11:45:13.207159+01 | 1486118713.20716 |                 0 |              12 |                   349 |                    0 |               2213 |             0 |                0 |          487828 |                     0 |        191838 | 2017-02-03 10:46:39.986223+01

 2017-02-03 11:45:14.31098+01 | 1486118714.31098 |                 0 |              12 |                   349 |                    0 |               2213 |             0 |                0 |          487828 |                     0 |        191838 | 2017-02-03 10:46:39.986223+01

 2017-02-03 11:45:15.419505+01 | 1486118715.4195 |                 0 |              12 |                   349 |                    0 |               2213 |             0 |                0 |          487828 |                     0 |        191838 | 2017-02-03 10:46:39.986223+01

 2017-02-03 11:45:16.520086+01 | 1486118716.52009 |                 0 |              12 |                   349 |                    0 |               2213 |             0 |                0 |          487828 |                     0 |        191838 | 2017-02-03 10:46:39.986223+01

 2017-02-03 11:45:17.613242+01 | 1486118717.61324 |                 0 |              12 |                   349 |                    0 |               2213 |             0 |                0 |          487828 |                     0 |        191838 | 2017-02-03 10:46:39.986223+01

 2017-02-03 11:45:18.700063+01 | 1486118718.70006 |                 0 |              12 |                   349 |                    0 |               2213 |             0 |                0 |          487828 |                     0 |        191838 | 2017-02-03 10:46:39.986223+01

 2017-02-03 11:45:19.787685+01 | 1486118719.78768 |                 0 |              12 |                   349 |                    0 |               2213 |             0 |                0 |          487828 |                     0 |        191838 | 2017-02-03 10:46:39.986223+01

 2017-02-03 11:45:20.877135+01 | 1486118720.87714 |                 0 |              12 |                   349 |                    0 |               2213 |             0 |                0 |          487828 |                     0 |        191838 | 2017-02-03 10:46:39.986223+01

 2017-02-03 11:45:21.970625+01 | 1486118721.97062 |                 0 |              12 |                   349 |                    0 |               2213 |             0 |                0 |          487828 |                     0 |        191838 | 2017-02-03 10:46:39.986223+01

 2017-02-03 11:45:23.054553+01 | 1486118723.05455 |                 0 |              12 |                   349 |                    0 |               2213 |             0 |                0 |          487828 |                     0 |        191838 | 2017-02-03 10:46:39.986223+01

 2017-02-03 11:45:24.148735+01 | 1486118724.14874 |                 0 |              12 |                   349 |                    0 |               2213 |             0 |                0 |          487828 |                     0 |        191838 | 2017-02-03 10:46:39.986223+01

 2017-02-03 11:45:25.245831+01 | 1486118725.24583 |                 0 |              12 |                   349 |                    0 |               2213 |             0 |                0 |          487828 |                     0 |        191838 | 2017-02-03 10:46:39.986223+01

 2017-02-03 11:45:26.388528+01 | 1486118726.38853 |                 0 |              12 |                   349 |                    0 |               2213 |             0 |                0 |          487828 |                     0 |        191838 | 2017-02-03 10:46:39.986223+01

 2017-02-03 11:45:27.497083+01 | 1486118727.49708 |                 0 |              12 |                   349 |                    0 |               2213 |             0 |                0 |          487828 |                     0 |        191838 | 2017-02-03 10:46:39.986223+01

 2017-02-03 11:45:28.594208+01 | 1486118728.59421 |                 0 |              12 |                   349 |                    0 |               2213 |             0 |                0 |          487828 |                     0 |        191838 | 2017-02-03 10:46:39.986223+01

 2017-02-03 11:45:29.688747+01 | 1486118729.68875 |                 0 |              12 |                   349 |                    0 |               2213 |             0 |                0 |          487828 |                     0 |        191838 | 2017-02-03 10:46:39.986223+01

 2017-02-03 11:45:30.77943+01 | 1486118730.77943 |                 0 |              12 |                   349 |                    0 |               2213 |             0 |                0 |          487828 |                     0 |        191838 | 2017-02-03 10:46:39.986223+01

 2017-02-03 11:45:31.871133+01 | 1486118731.87113 |                 0 |              12 |                   349 |                    0 |               2213 |             0 |                0 |          487828 |                     0 |        191838 | 2017-02-03 10:46:39.986223+01

 2017-02-03 11:45:32.96306+01 | 1486118732.96306 |                 0 |              12 |                   349 |                    0 |               2213 |             0 |                0 |          487828 |                     0 |        191838 | 2017-02-03 10:46:39.986223+01

 2017-02-03 11:45:34.06785+01 | 1486118734.06785 |                 0 |              12 |                   349 |                    0 |               2213 |             0 |                0 |          487828 |                     0 |        191838 | 2017-02-03 10:46:39.986223+01

 2017-02-03 11:45:35.1717+01 | 1486118735.1717 |                 0 |              12 |                   349 |                    0 |               2213 |             0 |                0 |          487828 |                     0 |        191838 | 2017-02-03 10:46:39.986223+01

 2017-02-03 11:45:36.284146+01 | 1486118736.28415 |                 0 |              12 |                   349 |                    0 |               2213 |             0 |                0 |          487828 |                     0 |        191838 | 2017-02-03 10:46:39.986223+01

 2017-02-03 11:45:37.383624+01 | 1486118737.38362 |                 0 |              12 |                   349 |                    0 |               2213 |             0 |                0 |          487828 |                     0 |        191838 | 2017-02-03 10:46:39.986223+01

 2017-02-03 11:45:38.48752+01 | 1486118738.48752 |                 0 |              12 |                   349 |                    0 |               2213 |             0 |                0 |          487828 |                     0 |        191838 | 2017-02-03 10:46:39.986223+01

 2017-02-03 11:45:39.584267+01 | 1486118739.58427 |                 0 |              12 |                   349 |                    0 |               2213 |             0 |                0 |          487828 |                     0 |        191838 | 2017-02-03 10:46:39.986223+01

 2017-02-03 11:45:40.670174+01 | 1486118740.67017 |                 0 |              12 |                   349 |                    0 |               2213 |             0 |                0 |          487828 |                     0 |        191838 | 2017-02-03 10:46:39.986223+01

 2017-02-03 11:45:41.755772+01 | 1486118741.75577 |                 0 |              12 |                   349 |                    0 |               2213 |             0 |                0 |          487828 |                     0 |        191838 | 2017-02-03 10:46:39.986223+01

 2017-02-03 11:45:42.836942+01 | 1486118742.83694 |                 0 |              12 |                   349 |                    0 |               2213 |             0 |                0 |          487828 |                     0 |        191838 | 2017-02-03 10:46:39.986223+01

 2017-02-03 11:45:43.930644+01 | 1486118743.93064 |                 0 |              12 |                   349 |                    0 |               2213 |             0 |                0 |          487828 |                     0 |        191838 | 2017-02-03 10:46:39.986223+01

 2017-02-03 11:45:45.026458+01 | 1486118745.02646 |                 0 |              12 |                   349 |                    0 |               2213 |             0 |                0 |          487828 |                     0 |        191838 | 2017-02-03 10:46:39.986223+01

 2017-02-03 11:45:46.119084+01 | 1486118746.11908 |                 0 |              12 |                   349 |                    0 |               2213 |             0 |                0 |          487828 |                     0 |        191838 | 2017-02-03 10:46:39.986223+01

 2017-02-03 11:45:47.233036+01 | 1486118747.23304 |                 0 |              12 |                   349 |                    0 |               2213 |             0 |                0 |          487828 |                     0 |        191838 | 2017-02-03 10:46:39.986223+01

 2017-02-03 11:45:48.342483+01 | 1486118748.34248 |                 0 |              12 |                   349 |                    0 |               2213 |             0 |                0 |          487828 |                     0 |        191838 | 2017-02-03 10:46:39.986223+01

 2017-02-03 11:45:49.452019+01 | 1486118749.45202 |                 0 |              12 |                   349 |                    0 |               2213 |             0 |                0 |          487828 |                     0 |        191838 | 2017-02-03 10:46:39.986223+01

 2017-02-03 11:45:50.544757+01 | 1486118750.54476 |                 0 |              12 |                   349 |                    0 |               2213 |             0 |                0 |          487828 |                     0 |        191838 | 2017-02-03 10:46:39.986223+01

 2017-02-03 11:45:51.638792+01 | 1486118751.63879 |                 0 |              12 |                   349 |                    0 |               2213 |             0 |                0 |          487828 |                     0 |        191838 | 2017-02-03 10:46:39.986223+01

 2017-02-03 11:45:52.725412+01 | 1486118752.72541 |                 0 |              12 |                   349 |                    0 |               2213 |             0 |                0 |          487828 |                     0 |        191838 | 2017-02-03 10:46:39.986223+01

 2017-02-03 11:45:53.813734+01 | 1486118753.81373 |                 0 |              12 |                   349 |                    0 |               2213 |             0 |                0 |          487828 |                     0 |        191838 | 2017-02-03 10:46:39.986223+01

 2017-02-03 11:45:54.904143+01 | 1486118754.90414 |                 0 |              12 |                   349 |                    0 |               2213 |             0 |                0 |          487828 |                     0 |        191838 | 2017-02-03 10:46:39.986223+01

 2017-02-03 11:45:56.000577+01 | 1486118756.00058 |                 0 |              12 |                   349 |                    0 |               2213 |             0 |                0 |          487828 |                     0 |        191838 | 2017-02-03 10:46:39.986223+01

 2017-02-03 11:45:57.098203+01 | 1486118757.0982 |                 0 |              12 |                   349 |                    0 |               2213 |             0 |                0 |          487828 |                     0 |        191838 | 2017-02-03 10:46:39.986223+01

 2017-02-03 11:45:58.192767+01 | 1486118758.19277 |                 0 |              12 |                   349 |                    0 |               2213 |             0 |                0 |          487828 |                     0 |        191838 | 2017-02-03 10:46:39.986223+01

 2017-02-03 11:45:59.291176+01 | 1486118759.29118 |                 0 |              12 |                   349 |                    0 |               2213 |             0 |                0 |          487828 |                     0 |        191838 | 2017-02-03 10:46:39.986223+01

 2017-02-03 11:46:00.405264+01 | 1486118760.40526 |                 0 |              12 |                   349 |                    0 |               2213 |             0 |                0 |          487828 |                     0 |        191838 | 2017-02-03 10:46:39.986223+01

 2017-02-03 11:46:01.504963+01 | 1486118761.50496 |                 0 |              12 |                   349 |                    0 |               2213 |             0 |                0 |          487828 |                     0 |        191838 | 2017-02-03 10:46:39.986223+01

 2017-02-03 11:46:02.609541+01 | 1486118762.60954 |                 0 |              12 |                   349 |                    0 |               2213 |             0 |                0 |          487828 |                     0 |        191838 | 2017-02-03 10:46:39.986223+01

 2017-02-03 11:46:03.693181+01 | 1486118763.69318 |                 0 |              12 |                   349 |                    0 |               2213 |             0 |                0 |          487828 |                     0 |        191838 | 2017-02-03 10:46:39.986223+01

 2017-02-03 11:46:04.782137+01 | 1486118764.78214 |                 0 |              12 |                   349 |                    0 |               2213 |             0 |                0 |          487828 |                     0 |        191838 | 2017-02-03 10:46:39.986223+01

 2017-02-03 11:46:05.869908+01 | 1486118765.86991 |                 0 |              12 |                   349 |                    0 |               2213 |             0 |                0 |          487828 |                     0 |        191838 | 2017-02-03 10:46:39.986223+01

 2017-02-03 11:46:06.961204+01 | 1486118766.9612 |                 0 |              12 |                   349 |                    0 |               2213 |             0 |                0 |          487828 |                     0 |        191838 | 2017-02-03 10:46:39.986223+01

 2017-02-03 11:46:08.045067+01 | 1486118768.04507 |                 0 |              12 |                   349 |                    0 |               2213 |             0 |                0 |          487828 |                     0 |        191838 | 2017-02-03 10:46:39.986223+01

 2017-02-03 11:46:09.126485+01 | 1486118769.12649 |                 0 |              12 |                   349 |                    0 |               2213 |             0 |                0 |          487828 |                     0 |        191838 | 2017-02-03 10:46:39.986223+01

 2017-02-03 11:46:10.222318+01 | 1486118770.22232 |                 0 |              12 |                   349 |                    0 |               2213 |             0 |                0 |          487828 |                     0 |        191838 | 2017-02-03 10:46:39.986223+01

 2017-02-03 11:46:11.31898+01 | 1486118771.31898 |                 0 |              12 |                   349 |                    0 |               2213 |             0 |                0 |          487828 |                     0 |        191838 | 2017-02-03 10:46:39.986223+01

 2017-02-03 11:46:12.415243+01 | 1486118772.41524 |                 0 |              12 |                   349 |                    0 |               2213 |             0 |                0 |          487828 |                     0 |        191838 | 2017-02-03 10:46:39.986223+01

 2017-02-03 11:46:13.518553+01 | 1486118773.51855 |                 0 |              12 |                   349 |                    0 |               2213 |             0 |                0 |          487828 |                     0 |        191838 | 2017-02-03 10:46:39.986223+01

 2017-02-03 11:46:14.61873+01 | 1486118774.61873 |                 0 |              12 |                   349 |                    0 |               2213 |             0 |                0 |          487828 |                     0 |        191838 | 2017-02-03 10:46:39.986223+01

 2017-02-03 11:46:15.704071+01 | 1486118775.70407 |                 0 |              12 |                   349 |                    0 |               2213 |             0 |                0 |          487828 |                     0 |        191838 | 2017-02-03 10:46:39.986223+01

 2017-02-03 11:46:16.788974+01 | 1486118776.78897 |                 0 |              12 |                   349 |                    0 |               2213 |             0 |                0 |          487828 |                     0 |        191838 | 2017-02-03 10:46:39.986223+01

 2017-02-03 11:46:17.869504+01 | 1486118777.8695 |                 0 |              12 |                   349 |                    0 |               2213 |             0 |                0 |          487828 |                     0 |        191838 | 2017-02-03 10:46:39.986223+01

 2017-02-03 11:46:18.961338+01 | 1486118778.96134 |                 0 |              12 |                   349 |                    0 |               2213 |             0 |                0 |          487828 |                     0 |        191838 | 2017-02-03 10:46:39.986223+01

 2017-02-03 11:46:20.047023+01 | 1486118780.04702 |                 0 |              12 |                   349 |                    0 |               2213 |             0 |                0 |          487828 |                     0 |        191838 | 2017-02-03 10:46:39.986223+01

 2017-02-03 11:46:21.144601+01 | 1486118781.1446 |                 0 |              12 |                   349 |                    0 |               2213 |             0 |                0 |          487828 |                     0 |        191838 | 2017-02-03 10:46:39.986223+01

 2017-02-03 11:46:22.243965+01 | 1486118782.24396 |                 0 |              12 |                   349 |                    0 |               2213 |             0 |                0 |          487828 |                     0 |        191838 | 2017-02-03 10:46:39.986223+01

 2017-02-03 11:46:23.335474+01 | 1486118783.33547 |                 0 |              12 |                   349 |                    0 |               2213 |             0 |                0 |          487828 |                     0 |        191838 | 2017-02-03 10:46:39.986223+01

 2017-02-03 11:46:24.443762+01 | 1486118784.44376 |                 0 |              12 |                   349 |                    0 |               2213 |             0 |                0 |          487828 |                     0 |        191838 | 2017-02-03 10:46:39.986223+01

 2017-02-03 11:46:25.536148+01 | 1486118785.53615 |                 0 |              12 |                   349 |                    0 |               2213 |             0 |                0 |          487828 |                     0 |        191838 | 2017-02-03 10:46:39.986223+01

 2017-02-03 11:46:26.639506+01 | 1486118786.63951 |                 0 |              12 |                   349 |                    0 |               2213 |             0 |                0 |          487828 |                     0 |        191838 | 2017-02-03 10:46:39.986223+01

 2017-02-03 11:46:27.737368+01 | 1486118787.73737 |                 0 |              12 |                   349 |                    0 |               2213 |             0 |                0 |          487828 |                     0 |        191838 | 2017-02-03 10:46:39.986223+01

 2017-02-03 11:46:28.823967+01 | 1486118788.82397 |                 0 |              12 |                   349 |                    0 |               2213 |             0 |                0 |          487828 |                     0 |        191838 | 2017-02-03 10:46:39.986223+01

 2017-02-03 11:46:29.915349+01 | 1486118789.91535 |                 0 |              12 |                   349 |                    0 |               2213 |             0 |                0 |          487828 |                     0 |        191838 | 2017-02-03 10:46:39.986223+01

 2017-02-03 11:46:31.009393+01 | 1486118791.00939 |                 0 |              12 |                   349 |                    0 |               2213 |             0 |                0 |          487828 |                     0 |        191838 | 2017-02-03 10:46:39.986223+01

 2017-02-03 11:46:32.096903+01 | 1486118792.0969 |                 0 |              12 |                   349 |                    0 |               2213 |             0 |                0 |          487828 |                     0 |        191838 | 2017-02-03 10:46:39.986223+01

 2017-02-03 11:46:33.202939+01 | 1486118793.20294 |                 0 |              12 |                   349 |                    0 |               2213 |             0 |                0 |          487828 |                     0 |        191838 | 2017-02-03 10:46:39.986223+01

 2017-02-03 11:46:34.328582+01 | 1486118794.32858 |                 0 |              12 |                   349 |                    0 |               2213 |             0 |                0 |          487828 |                     0 |        191838 | 2017-02-03 10:46:39.986223+01

 2017-02-03 11:46:35.433412+01 | 1486118795.43341 |                 0 |              12 |                   349 |                    0 |               2213 |             0 |                0 |          487828 |                     0 |        191838 | 2017-02-03 10:46:39.986223+01

 2017-02-03 11:46:36.528252+01 | 1486118796.52825 |                 0 |              12 |                   349 |                    0 |               2213 |             0 |                0 |          487828 |                     0 |        191838 | 2017-02-03 10:46:39.986223+01

 2017-02-03 11:46:37.633736+01 | 1486118797.63374 |                 0 |              12 |                   349 |                    0 |               2213 |             0 |                0 |          487828 |                     0 |        191838 | 2017-02-03 10:46:39.986223+01

 2017-02-03 11:46:38.722017+01 | 1486118798.72202 |                 0 |              12 |                   349 |                    0 |               2213 |             0 |                0 |          487828 |                     0 |        191838 | 2017-02-03 10:46:39.986223+01

 2017-02-03 11:46:39.804736+01 | 1486118799.80474 |                 0 |              12 |                   349 |                    0 |               2213 |             0 |                0 |          487828 |                     0 |        191838 | 2017-02-03 10:46:39.986223+01

 2017-02-03 11:46:40.893811+01 | 1486118800.89381 |                 0 |              12 |                   349 |                    0 |               2213 |             0 |                0 |          487828 |                     0 |        191838 | 2017-02-03 10:46:39.986223+01

 2017-02-03 11:46:41.981926+01 | 1486118801.98193 |                 0 |              12 |                   349 |                    0 |               2213 |             0 |                0 |          487828 |                     0 |        191838 | 2017-02-03 10:46:39.986223+01

 2017-02-03 11:46:43.080251+01 | 1486118803.08025 |                 0 |              12 |                   349 |                    0 |               2213 |             0 |                0 |          487828 |                     0 |        191838 | 2017-02-03 10:46:39.986223+01

 2017-02-03 11:46:44.181551+01 | 1486118804.18155 |                 0 |              12 |                   349 |                    0 |               2213 |             0 |                0 |          487828 |                     0 |        191838 | 2017-02-03 10:46:39.986223+01

 2017-02-03 11:46:45.270412+01 | 1486118805.27041 |                 0 |              12 |                   349 |                    0 |               2213 |             0 |                0 |          487828 |                     0 |        191838 | 2017-02-03 10:46:39.986223+01

 2017-02-03 11:46:46.364067+01 | 1486118806.36407 |                 0 |              12 |                   349 |                    0 |               2213 |             0 |                0 |          487828 |                     0 |        191838 | 2017-02-03 10:46:39.986223+01

 2017-02-03 11:46:47.461652+01 | 1486118807.46165 |                 0 |              12 |                   349 |                    0 |               2213 |             0 |                0 |          487828 |                     0 |        191838 | 2017-02-03 10:46:39.986223+01

 2017-02-03 11:46:48.56033+01 | 1486118808.56033 |                 0 |              12 |                   349 |                    0 |               2213 |             0 |                0 |          487828 |                     0 |        191838 | 2017-02-03 10:46:39.986223+01

 2017-02-03 11:46:49.649264+01 | 1486118809.64926 |                 0 |              12 |                   349 |                    0 |               2213 |             0 |                0 |          487828 |                     0 |        191838 | 2017-02-03 10:46:39.986223+01

 2017-02-03 11:46:50.737408+01 | 1486118810.73741 |                 0 |              12 |                   349 |                    0 |               2213 |             0 |                0 |          487828 |                     0 |        191838 | 2017-02-03 10:46:39.986223+01

 2017-02-03 11:46:51.824104+01 | 1486118811.8241 |                 0 |              12 |                   349 |                    0 |               2213 |             0 |                0 |          487828 |                     0 |        191838 | 2017-02-03 10:46:39.986223+01

 2017-02-03 11:46:52.913995+01 | 1486118812.914 |                 0 |              12 |                   349 |                    0 |               2213 |             0 |                0 |          487828 |                     0 |        191838 | 2017-02-03 10:46:39.986223+01

 2017-02-03 11:46:54.001146+01 | 1486118814.00115 |                 0 |              12 |                   349 |                    0 |               2213 |             0 |                0 |          487828 |                     0 |        191838 | 2017-02-03 10:46:39.986223+01

 2017-02-03 11:46:55.084793+01 | 1486118815.08479 |                 0 |              12 |                   349 |                    0 |               2213 |             0 |                0 |          487828 |                     0 |        191838 | 2017-02-03 10:46:39.986223+01

 2017-02-03 11:46:56.185615+01 | 1486118816.18562 |                 0 |              12 |                   349 |                    0 |               2213 |             0 |                0 |          487828 |                     0 |        191838 | 2017-02-03 10:46:39.986223+01

 2017-02-03 11:46:57.286397+01 | 1486118817.2864 |                 0 |              12 |                   349 |                    0 |               2213 |             0 |                0 |          487828 |                     0 |        191838 | 2017-02-03 10:46:39.986223+01

 2017-02-03 11:46:58.380259+01 | 1486118818.38026 |                 0 |              12 |                   349 |                    0 |               2213 |             0 |                0 |          487828 |                     0 |        191838 | 2017-02-03 10:46:39.986223+01

 2017-02-03 11:46:59.479303+01 | 1486118819.4793 |                 0 |              12 |                   349 |                    0 |               2213 |             0 |                0 |          487828 |                     0 |        191838 | 2017-02-03 10:46:39.986223+01

 2017-02-03 11:47:00.583508+01 | 1486118820.58351 |                 0 |              12 |                   349 |                    0 |               2213 |             0 |                0 |          487828 |                     0 |        191838 | 2017-02-03 10:46:39.986223+01

 2017-02-03 11:47:01.679223+01 | 1486118821.67922 |                 0 |              12 |                   349 |                    0 |               2213 |             0 |                0 |          487828 |                     0 |        191838 | 2017-02-03 10:46:39.986223+01

 2017-02-03 11:47:02.773044+01 | 1486118822.77304 |                 0 |              12 |                   349 |                    0 |               2213 |             0 |                0 |          487828 |                     0 |        191838 | 2017-02-03 10:46:39.986223+01

 2017-02-03 11:47:03.863773+01 | 1486118823.86377 |                 0 |              12 |                   349 |                    0 |               2213 |             0 |                0 |          487828 |                     0 |        191838 | 2017-02-03 10:46:39.986223+01

 2017-02-03 11:47:04.961064+01 | 1486118824.96106 |                 0 |              12 |                   349 |                    0 |               2213 |             0 |                0 |          487828 |                     0 |        191838 | 2017-02-03 10:46:39.986223+01

 2017-02-03 11:47:06.064912+01 | 1486118826.06491 |                 0 |              12 |                   349 |                    0 |               2213 |             0 |                0 |          487828 |                     0 |        191838 | 2017-02-03 10:46:39.986223+01

