 2017-02-05 16:19:20.196924+01 | 1486307960.19692 | pgbench_accounts |       1383858176
 2017-02-05 16:19:20.196924+01 | 1486307960.19692 | pgbench_tellers  |            49152
 2017-02-05 16:19:20.196924+01 | 1486307960.19692 | pgbench_history  |           516096
 2017-02-05 16:19:20.196924+01 | 1486307960.19692 | pgbench_branches |             8192

 2017-02-05 16:19:21.284341+01 | 1486307961.28434 | pgbench_accounts |       1383858176
 2017-02-05 16:19:21.284341+01 | 1486307961.28434 | pgbench_tellers  |            49152
 2017-02-05 16:19:21.284341+01 | 1486307961.28434 | pgbench_history  |          3375104
 2017-02-05 16:19:21.284341+01 | 1486307961.28434 | pgbench_branches |             8192

 2017-02-05 16:19:22.376032+01 | 1486307962.37603 | pgbench_accounts |       1383858176
 2017-02-05 16:19:22.376032+01 | 1486307962.37603 | pgbench_tellers  |            49152
 2017-02-05 16:19:22.376032+01 | 1486307962.37603 | pgbench_history  |          4087808
 2017-02-05 16:19:22.376032+01 | 1486307962.37603 | pgbench_branches |             8192

 2017-02-05 16:19:23.45317+01 | 1486307963.45317 | pgbench_accounts |       1383858176
 2017-02-05 16:19:23.45317+01 | 1486307963.45317 | pgbench_tellers  |            49152
 2017-02-05 16:19:23.45317+01 | 1486307963.45317 | pgbench_history  |          6266880
 2017-02-05 16:19:23.45317+01 | 1486307963.45317 | pgbench_branches |             8192

 2017-02-05 16:19:24.539951+01 | 1486307964.53995 | pgbench_accounts |       1383858176
 2017-02-05 16:19:24.539951+01 | 1486307964.53995 | pgbench_tellers  |            49152
 2017-02-05 16:19:24.539951+01 | 1486307964.53995 | pgbench_history  |          8282112
 2017-02-05 16:19:24.539951+01 | 1486307964.53995 | pgbench_branches |             8192

 2017-02-05 16:19:25.618185+01 | 1486307965.61819 | pgbench_accounts |       1383858176
 2017-02-05 16:19:25.618185+01 | 1486307965.61819 | pgbench_tellers  |            49152
 2017-02-05 16:19:25.618185+01 | 1486307965.61819 | pgbench_history  |         10985472
 2017-02-05 16:19:25.618185+01 | 1486307965.61819 | pgbench_branches |             8192

 2017-02-05 16:19:26.697962+01 | 1486307966.69796 | pgbench_accounts |       1383858176
 2017-02-05 16:19:26.697962+01 | 1486307966.69796 | pgbench_tellers  |            49152
 2017-02-05 16:19:26.697962+01 | 1486307966.69796 | pgbench_history  |         13541376
 2017-02-05 16:19:26.697962+01 | 1486307966.69796 | pgbench_branches |             8192

 2017-02-05 16:19:27.769452+01 | 1486307967.76945 | pgbench_accounts |       1383858176
 2017-02-05 16:19:27.769452+01 | 1486307967.76945 | pgbench_tellers  |            49152
 2017-02-05 16:19:27.769452+01 | 1486307967.76945 | pgbench_history  |         15859712
 2017-02-05 16:19:27.769452+01 | 1486307967.76945 | pgbench_branches |             8192

 2017-02-05 16:19:28.853771+01 | 1486307968.85377 | pgbench_accounts |       1383858176
 2017-02-05 16:19:28.853771+01 | 1486307968.85377 | pgbench_tellers  |            49152
 2017-02-05 16:19:28.853771+01 | 1486307968.85377 | pgbench_history  |         17850368
 2017-02-05 16:19:28.853771+01 | 1486307968.85377 | pgbench_branches |             8192

 2017-02-05 16:19:29.936238+01 | 1486307969.93624 | pgbench_accounts |       1383858176
 2017-02-05 16:19:29.936238+01 | 1486307969.93624 | pgbench_tellers  |            49152
 2017-02-05 16:19:29.936238+01 | 1486307969.93624 | pgbench_history  |         20684800
 2017-02-05 16:19:29.936238+01 | 1486307969.93624 | pgbench_branches |             8192

 2017-02-05 16:19:31.012168+01 | 1486307971.01217 | pgbench_accounts |       1383858176
 2017-02-05 16:19:31.012168+01 | 1486307971.01217 | pgbench_tellers  |            49152
 2017-02-05 16:19:31.012168+01 | 1486307971.01217 | pgbench_history  |         22536192
 2017-02-05 16:19:31.012168+01 | 1486307971.01217 | pgbench_branches |             8192

 2017-02-05 16:19:32.096009+01 | 1486307972.09601 | pgbench_accounts |       1383858176
 2017-02-05 16:19:32.096009+01 | 1486307972.09601 | pgbench_tellers  |            49152
 2017-02-05 16:19:32.096009+01 | 1486307972.09601 | pgbench_history  |         25747456
 2017-02-05 16:19:32.096009+01 | 1486307972.09601 | pgbench_branches |             8192

 2017-02-05 16:19:33.183235+01 | 1486307973.18323 | pgbench_accounts |       1383858176
 2017-02-05 16:19:33.183235+01 | 1486307973.18323 | pgbench_tellers  |            49152
 2017-02-05 16:19:33.183235+01 | 1486307973.18323 | pgbench_history  |         26427392
 2017-02-05 16:19:33.183235+01 | 1486307973.18323 | pgbench_branches |             8192

 2017-02-05 16:19:34.258376+01 | 1486307974.25838 | pgbench_accounts |       1383858176
 2017-02-05 16:19:34.258376+01 | 1486307974.25838 | pgbench_tellers  |            49152
 2017-02-05 16:19:34.258376+01 | 1486307974.25838 | pgbench_history  |         28516352
 2017-02-05 16:19:34.258376+01 | 1486307974.25838 | pgbench_branches |             8192

 2017-02-05 16:19:35.337821+01 | 1486307975.33782 | pgbench_accounts |       1383858176
 2017-02-05 16:19:35.337821+01 | 1486307975.33782 | pgbench_tellers  |            49152
 2017-02-05 16:19:35.337821+01 | 1486307975.33782 | pgbench_history  |         30744576
 2017-02-05 16:19:35.337821+01 | 1486307975.33782 | pgbench_branches |             8192

 2017-02-05 16:19:36.41724+01 | 1486307976.41724 | pgbench_accounts |       1383858176
 2017-02-05 16:19:36.41724+01 | 1486307976.41724 | pgbench_tellers  |            49152
 2017-02-05 16:19:36.41724+01 | 1486307976.41724 | pgbench_history  |         33333248
 2017-02-05 16:19:36.41724+01 | 1486307976.41724 | pgbench_branches |             8192

 2017-02-05 16:19:37.500726+01 | 1486307977.50073 | pgbench_accounts |       1383858176
 2017-02-05 16:19:37.500726+01 | 1486307977.50073 | pgbench_tellers  |            49152
 2017-02-05 16:19:37.500726+01 | 1486307977.50073 | pgbench_history  |         35438592
 2017-02-05 16:19:37.500726+01 | 1486307977.50073 | pgbench_branches |             8192

 2017-02-05 16:19:38.585234+01 | 1486307978.58523 | pgbench_accounts |       1383858176
 2017-02-05 16:19:38.585234+01 | 1486307978.58523 | pgbench_tellers  |            49152
 2017-02-05 16:19:38.585234+01 | 1486307978.58523 | pgbench_history  |         37969920
 2017-02-05 16:19:38.585234+01 | 1486307978.58523 | pgbench_branches |             8192

 2017-02-05 16:19:39.66077+01 | 1486307979.66077 | pgbench_accounts |       1383858176
 2017-02-05 16:19:39.66077+01 | 1486307979.66077 | pgbench_tellers  |            49152
 2017-02-05 16:19:39.66077+01 | 1486307979.66077 | pgbench_history  |         40042496
 2017-02-05 16:19:39.66077+01 | 1486307979.66077 | pgbench_branches |             8192

 2017-02-05 16:19:40.734821+01 | 1486307980.73482 | pgbench_accounts |       1383858176
 2017-02-05 16:19:40.734821+01 | 1486307980.73482 | pgbench_tellers  |            49152
 2017-02-05 16:19:40.734821+01 | 1486307980.73482 | pgbench_history  |         42819584
 2017-02-05 16:19:40.734821+01 | 1486307980.73482 | pgbench_branches |             8192

 2017-02-05 16:19:41.814723+01 | 1486307981.81472 | pgbench_accounts |       1383858176
 2017-02-05 16:19:41.814723+01 | 1486307981.81472 | pgbench_tellers  |            49152
 2017-02-05 16:19:41.814723+01 | 1486307981.81472 | pgbench_history  |         45678592
 2017-02-05 16:19:41.814723+01 | 1486307981.81472 | pgbench_branches |             8192

 2017-02-05 16:19:42.892545+01 | 1486307982.89254 | pgbench_accounts |       1383858176
 2017-02-05 16:19:42.892545+01 | 1486307982.89254 | pgbench_tellers  |            49152
 2017-02-05 16:19:42.892545+01 | 1486307982.89254 | pgbench_history  |         47366144
 2017-02-05 16:19:42.892545+01 | 1486307982.89254 | pgbench_branches |             8192

 2017-02-05 16:19:43.965742+01 | 1486307983.96574 | pgbench_accounts |       1383858176
 2017-02-05 16:19:43.965742+01 | 1486307983.96574 | pgbench_tellers  |            49152
 2017-02-05 16:19:43.965742+01 | 1486307983.96574 | pgbench_history  |         49709056
 2017-02-05 16:19:43.965742+01 | 1486307983.96574 | pgbench_branches |             8192

 2017-02-05 16:19:45.042141+01 | 1486307985.04214 | pgbench_accounts |       1383858176
 2017-02-05 16:19:45.042141+01 | 1486307985.04214 | pgbench_tellers  |            49152
 2017-02-05 16:19:45.042141+01 | 1486307985.04214 | pgbench_history  |         51232768
 2017-02-05 16:19:45.042141+01 | 1486307985.04214 | pgbench_branches |             8192

 2017-02-05 16:19:46.115144+01 | 1486307986.11514 | pgbench_accounts |       1383858176
 2017-02-05 16:19:46.115144+01 | 1486307986.11514 | pgbench_tellers  |            49152
 2017-02-05 16:19:46.115144+01 | 1486307986.11514 | pgbench_history  |         53411840
 2017-02-05 16:19:46.115144+01 | 1486307986.11514 | pgbench_branches |             8192

 2017-02-05 16:19:47.188584+01 | 1486307987.18858 | pgbench_accounts |       1383858176
 2017-02-05 16:19:47.188584+01 | 1486307987.18858 | pgbench_tellers  |            49152
 2017-02-05 16:19:47.188584+01 | 1486307987.18858 | pgbench_history  |         56573952
 2017-02-05 16:19:47.188584+01 | 1486307987.18858 | pgbench_branches |             8192

 2017-02-05 16:19:48.273877+01 | 1486307988.27388 | pgbench_accounts |       1383858176
 2017-02-05 16:19:48.273877+01 | 1486307988.27388 | pgbench_tellers  |            49152
 2017-02-05 16:19:48.273877+01 | 1486307988.27388 | pgbench_history  |         58425344
 2017-02-05 16:19:48.273877+01 | 1486307988.27388 | pgbench_branches |             8192

 2017-02-05 16:19:49.35042+01 | 1486307989.35042 | pgbench_accounts |       1383858176
 2017-02-05 16:19:49.35042+01 | 1486307989.35042 | pgbench_tellers  |            49152
 2017-02-05 16:19:49.35042+01 | 1486307989.35042 | pgbench_history  |         60334080
 2017-02-05 16:19:49.35042+01 | 1486307989.35042 | pgbench_branches |             8192

 2017-02-05 16:19:50.418519+01 | 1486307990.41852 | pgbench_accounts |       1383858176
 2017-02-05 16:19:50.418519+01 | 1486307990.41852 | pgbench_tellers  |            49152
 2017-02-05 16:19:50.418519+01 | 1486307990.41852 | pgbench_history  |         62513152
 2017-02-05 16:19:50.418519+01 | 1486307990.41852 | pgbench_branches |             8192

 2017-02-05 16:19:51.503218+01 | 1486307991.50322 | pgbench_accounts |       1383858176
 2017-02-05 16:19:51.503218+01 | 1486307991.50322 | pgbench_tellers  |            49152
 2017-02-05 16:19:51.503218+01 | 1486307991.50322 | pgbench_history  |         65085440
 2017-02-05 16:19:51.503218+01 | 1486307991.50322 | pgbench_branches |             8192

 2017-02-05 16:19:52.577363+01 | 1486307992.57736 | pgbench_accounts |       1383858176
 2017-02-05 16:19:52.577363+01 | 1486307992.57736 | pgbench_tellers  |            49152
 2017-02-05 16:19:52.577363+01 | 1486307992.57736 | pgbench_history  |         67780608
 2017-02-05 16:19:52.577363+01 | 1486307992.57736 | pgbench_branches |             8192

 2017-02-05 16:19:53.648825+01 | 1486307993.64882 | pgbench_accounts |       1383858176
 2017-02-05 16:19:53.648825+01 | 1486307993.64882 | pgbench_tellers  |            49152
 2017-02-05 16:19:53.648825+01 | 1486307993.64882 | pgbench_history  |         69795840
 2017-02-05 16:19:53.648825+01 | 1486307993.64882 | pgbench_branches |             8192

 2017-02-05 16:19:54.724136+01 | 1486307994.72414 | pgbench_accounts |       1383858176
 2017-02-05 16:19:54.724136+01 | 1486307994.72414 | pgbench_tellers  |            49152
 2017-02-05 16:19:54.724136+01 | 1486307994.72414 | pgbench_history  |         71704576
 2017-02-05 16:19:54.724136+01 | 1486307994.72414 | pgbench_branches |             8192

 2017-02-05 16:19:55.802653+01 | 1486307995.80265 | pgbench_accounts |       1383858176
 2017-02-05 16:19:55.802653+01 | 1486307995.80265 | pgbench_tellers  |            49152
 2017-02-05 16:19:55.802653+01 | 1486307995.80265 | pgbench_history  |         75554816
 2017-02-05 16:19:55.802653+01 | 1486307995.80265 | pgbench_branches |             8192

 2017-02-05 16:19:56.8791+01 | 1486307996.8791 | pgbench_accounts |       1383858176
 2017-02-05 16:19:56.8791+01 | 1486307996.8791 | pgbench_tellers  |            49152
 2017-02-05 16:19:56.8791+01 | 1486307996.8791 | pgbench_history  |         75907072
 2017-02-05 16:19:56.8791+01 | 1486307996.8791 | pgbench_branches |             8192

 2017-02-05 16:19:57.958492+01 | 1486307997.95849 | pgbench_accounts |       1383858176
 2017-02-05 16:19:57.958492+01 | 1486307997.95849 | pgbench_tellers  |            49152
 2017-02-05 16:19:57.958492+01 | 1486307997.95849 | pgbench_history  |         78741504
 2017-02-05 16:19:57.958492+01 | 1486307997.95849 | pgbench_branches |             8192

 2017-02-05 16:19:59.032942+01 | 1486307999.03294 | pgbench_accounts |       1383858176
 2017-02-05 16:19:59.032942+01 | 1486307999.03294 | pgbench_tellers  |            49152
 2017-02-05 16:19:59.032942+01 | 1486307999.03294 | pgbench_history  |         80920576
 2017-02-05 16:19:59.032942+01 | 1486307999.03294 | pgbench_branches |             8192

 2017-02-05 16:20:00.110335+01 | 1486308000.11034 | pgbench_accounts |       1383858176
 2017-02-05 16:20:00.110335+01 | 1486308000.11034 | pgbench_tellers  |            49152
 2017-02-05 16:20:00.110335+01 | 1486308000.11034 | pgbench_history  |         83451904
 2017-02-05 16:20:00.110335+01 | 1486308000.11034 | pgbench_branches |             8192

 2017-02-05 16:20:01.191466+01 | 1486308001.19147 | pgbench_accounts |       1383858176
 2017-02-05 16:20:01.191466+01 | 1486308001.19147 | pgbench_tellers  |            49152
 2017-02-05 16:20:01.191466+01 | 1486308001.19147 | pgbench_history  |         84959232
 2017-02-05 16:20:01.191466+01 | 1486308001.19147 | pgbench_branches |             8192

 2017-02-05 16:20:02.272076+01 | 1486308002.27208 | pgbench_accounts |       1383858176
 2017-02-05 16:20:02.272076+01 | 1486308002.27208 | pgbench_tellers  |            49152
 2017-02-05 16:20:02.272076+01 | 1486308002.27208 | pgbench_history  |         87351296
 2017-02-05 16:20:02.272076+01 | 1486308002.27208 | pgbench_branches |             8192

 2017-02-05 16:20:03.351117+01 | 1486308003.35112 | pgbench_accounts |       1383858176
 2017-02-05 16:20:03.351117+01 | 1486308003.35112 | pgbench_tellers  |            49152
 2017-02-05 16:20:03.351117+01 | 1486308003.35112 | pgbench_history  |         89260032
 2017-02-05 16:20:03.351117+01 | 1486308003.35112 | pgbench_branches |             8192

 2017-02-05 16:20:04.422578+01 | 1486308004.42258 | pgbench_accounts |       1383858176
 2017-02-05 16:20:04.422578+01 | 1486308004.42258 | pgbench_tellers  |            49152
 2017-02-05 16:20:04.422578+01 | 1486308004.42258 | pgbench_history  |         91283456
 2017-02-05 16:20:04.422578+01 | 1486308004.42258 | pgbench_branches |             8192

 2017-02-05 16:20:05.498534+01 | 1486308005.49853 | pgbench_accounts |       1383858176
 2017-02-05 16:20:05.498534+01 | 1486308005.49853 | pgbench_tellers  |            49152
 2017-02-05 16:20:05.498534+01 | 1486308005.49853 | pgbench_history  |         93323264
 2017-02-05 16:20:05.498534+01 | 1486308005.49853 | pgbench_branches |             8192

 2017-02-05 16:20:06.581406+01 | 1486308006.58141 | pgbench_accounts |       1383858176
 2017-02-05 16:20:06.581406+01 | 1486308006.58141 | pgbench_tellers  |            49152
 2017-02-05 16:20:06.581406+01 | 1486308006.58141 | pgbench_history  |         95707136
 2017-02-05 16:20:06.581406+01 | 1486308006.58141 | pgbench_branches |             8192

 2017-02-05 16:20:07.658208+01 | 1486308007.65821 | pgbench_accounts |       1383858176
 2017-02-05 16:20:07.658208+01 | 1486308007.65821 | pgbench_tellers  |            49152
 2017-02-05 16:20:07.658208+01 | 1486308007.65821 | pgbench_history  |         97443840
 2017-02-05 16:20:07.658208+01 | 1486308007.65821 | pgbench_branches |             8192

 2017-02-05 16:20:08.737586+01 | 1486308008.73759 | pgbench_accounts |       1383858176
 2017-02-05 16:20:08.737586+01 | 1486308008.73759 | pgbench_tellers  |            49152
 2017-02-05 16:20:08.737586+01 | 1486308008.73759 | pgbench_history  |        100564992
 2017-02-05 16:20:08.737586+01 | 1486308008.73759 | pgbench_branches |             8192

 2017-02-05 16:20:09.811717+01 | 1486308009.81172 | pgbench_accounts |       1383858176
 2017-02-05 16:20:09.811717+01 | 1486308009.81172 | pgbench_tellers  |            49152
 2017-02-05 16:20:09.811717+01 | 1486308009.81172 | pgbench_history  |        101769216
 2017-02-05 16:20:09.811717+01 | 1486308009.81172 | pgbench_branches |             8192

 2017-02-05 16:20:10.88889+01 | 1486308010.88889 | pgbench_accounts |       1383858176
 2017-02-05 16:20:10.88889+01 | 1486308010.88889 | pgbench_tellers  |            49152
 2017-02-05 16:20:10.88889+01 | 1486308010.88889 | pgbench_history  |        103620608
 2017-02-05 16:20:10.88889+01 | 1486308010.88889 | pgbench_branches |             8192

 2017-02-05 16:20:11.963628+01 | 1486308011.96363 | pgbench_accounts |       1383858176
 2017-02-05 16:20:11.963628+01 | 1486308011.96363 | pgbench_tellers  |            49152
 2017-02-05 16:20:11.963628+01 | 1486308011.96363 | pgbench_history  |        105676800
 2017-02-05 16:20:11.963628+01 | 1486308011.96363 | pgbench_branches |             8192

 2017-02-05 16:20:13.052188+01 | 1486308013.05219 | pgbench_accounts |       1383858176
 2017-02-05 16:20:13.052188+01 | 1486308013.05219 | pgbench_tellers  |            49152
 2017-02-05 16:20:13.052188+01 | 1486308013.05219 | pgbench_history  |        109379584
 2017-02-05 16:20:13.052188+01 | 1486308013.05219 | pgbench_branches |             8192

 2017-02-05 16:20:14.136048+01 | 1486308014.13605 | pgbench_accounts |       1383858176
 2017-02-05 16:20:14.136048+01 | 1486308014.13605 | pgbench_tellers  |            49152
 2017-02-05 16:20:14.136048+01 | 1486308014.13605 | pgbench_history  |        110223360
 2017-02-05 16:20:14.136048+01 | 1486308014.13605 | pgbench_branches |             8192

 2017-02-05 16:20:15.215731+01 | 1486308015.21573 | pgbench_accounts |       1383858176
 2017-02-05 16:20:15.215731+01 | 1486308015.21573 | pgbench_tellers  |            49152
 2017-02-05 16:20:15.215731+01 | 1486308015.21573 | pgbench_history  |        112271360
 2017-02-05 16:20:15.215731+01 | 1486308015.21573 | pgbench_branches |             8192

 2017-02-05 16:20:16.292643+01 | 1486308016.29264 | pgbench_accounts |       1383858176
 2017-02-05 16:20:16.292643+01 | 1486308016.29264 | pgbench_tellers  |            49152
 2017-02-05 16:20:16.292643+01 | 1486308016.29264 | pgbench_history  |        114688000
 2017-02-05 16:20:16.292643+01 | 1486308016.29264 | pgbench_branches |             8192

 2017-02-05 16:20:17.367759+01 | 1486308017.36776 | pgbench_accounts |       1383858176
 2017-02-05 16:20:17.367759+01 | 1486308017.36776 | pgbench_tellers  |            49152
 2017-02-05 16:20:17.367759+01 | 1486308017.36776 | pgbench_history  |        116916224
 2017-02-05 16:20:17.367759+01 | 1486308017.36776 | pgbench_branches |             8192

 2017-02-05 16:20:18.441618+01 | 1486308018.44162 | pgbench_accounts |       1383858176
 2017-02-05 16:20:18.441618+01 | 1486308018.44162 | pgbench_tellers  |            49152
 2017-02-05 16:20:18.441618+01 | 1486308018.44162 | pgbench_history  |        120020992
 2017-02-05 16:20:18.441618+01 | 1486308018.44162 | pgbench_branches |             8192

 2017-02-05 16:20:19.517513+01 | 1486308019.51751 | pgbench_accounts |       1383858176
 2017-02-05 16:20:19.517513+01 | 1486308019.51751 | pgbench_tellers  |            49152
 2017-02-05 16:20:19.517513+01 | 1486308019.51751 | pgbench_history  |        121143296
 2017-02-05 16:20:19.517513+01 | 1486308019.51751 | pgbench_branches |             8192

 2017-02-05 16:20:20.602977+01 | 1486308020.60298 | pgbench_accounts |       1383858176
 2017-02-05 16:20:20.602977+01 | 1486308020.60298 | pgbench_tellers  |            49152
 2017-02-05 16:20:20.602977+01 | 1486308020.60298 | pgbench_history  |        123838464
 2017-02-05 16:20:20.602977+01 | 1486308020.60298 | pgbench_branches |             8192

 2017-02-05 16:20:21.687695+01 | 1486308021.6877 | pgbench_accounts |       1383858176
 2017-02-05 16:20:21.687695+01 | 1486308021.6877 | pgbench_tellers  |            49152
 2017-02-05 16:20:21.687695+01 | 1486308021.6877 | pgbench_history  |        125526016
 2017-02-05 16:20:21.687695+01 | 1486308021.6877 | pgbench_branches |             8192

 2017-02-05 16:20:22.76421+01 | 1486308022.76421 | pgbench_accounts |       1383858176
 2017-02-05 16:20:22.76421+01 | 1486308022.76421 | pgbench_tellers  |            49152
 2017-02-05 16:20:22.76421+01 | 1486308022.76421 | pgbench_history  |        128081920
 2017-02-05 16:20:22.76421+01 | 1486308022.76421 | pgbench_branches |             8192

 2017-02-05 16:20:23.838828+01 | 1486308023.83883 | pgbench_accounts |       1383858176
 2017-02-05 16:20:23.838828+01 | 1486308023.83883 | pgbench_tellers  |            49152
 2017-02-05 16:20:23.838828+01 | 1486308023.83883 | pgbench_history  |        130146304
 2017-02-05 16:20:23.838828+01 | 1486308023.83883 | pgbench_branches |             8192

 2017-02-05 16:20:24.912836+01 | 1486308024.91284 | pgbench_accounts |       1383858176
 2017-02-05 16:20:24.912836+01 | 1486308024.91284 | pgbench_tellers  |            49152
 2017-02-05 16:20:24.912836+01 | 1486308024.91284 | pgbench_history  |        135184384
 2017-02-05 16:20:24.912836+01 | 1486308024.91284 | pgbench_branches |             8192

 2017-02-05 16:20:25.99296+01 | 1486308025.99296 | pgbench_accounts |       1383858176
 2017-02-05 16:20:25.99296+01 | 1486308025.99296 | pgbench_tellers  |            49152
 2017-02-05 16:20:25.99296+01 | 1486308025.99296 | pgbench_history  |        135184384
 2017-02-05 16:20:25.99296+01 | 1486308025.99296 | pgbench_branches |             8192

 2017-02-05 16:20:27.065918+01 | 1486308027.06592 | pgbench_accounts |       1383858176
 2017-02-05 16:20:27.065918+01 | 1486308027.06592 | pgbench_tellers  |            49152
 2017-02-05 16:20:27.065918+01 | 1486308027.06592 | pgbench_history  |        136871936
 2017-02-05 16:20:27.065918+01 | 1486308027.06592 | pgbench_branches |             8192

 2017-02-05 16:20:28.145995+01 | 1486308028.14599 | pgbench_accounts |       1383858176
 2017-02-05 16:20:28.145995+01 | 1486308028.14599 | pgbench_tellers  |            49152
 2017-02-05 16:20:28.145995+01 | 1486308028.14599 | pgbench_history  |        138911744
 2017-02-05 16:20:28.145995+01 | 1486308028.14599 | pgbench_branches |             8192

 2017-02-05 16:20:29.22486+01 | 1486308029.22486 | pgbench_accounts |       1383858176
 2017-02-05 16:20:29.22486+01 | 1486308029.22486 | pgbench_tellers  |            49152
 2017-02-05 16:20:29.22486+01 | 1486308029.22486 | pgbench_history  |        141418496
 2017-02-05 16:20:29.22486+01 | 1486308029.22486 | pgbench_branches |             8192

 2017-02-05 16:20:30.307442+01 | 1486308030.30744 | pgbench_accounts |       1383858176
 2017-02-05 16:20:30.307442+01 | 1486308030.30744 | pgbench_tellers  |            49152
 2017-02-05 16:20:30.307442+01 | 1486308030.30744 | pgbench_history  |        143622144
 2017-02-05 16:20:30.307442+01 | 1486308030.30744 | pgbench_branches |             8192

 2017-02-05 16:20:31.388639+01 | 1486308031.38864 | pgbench_accounts |       1383858176
 2017-02-05 16:20:31.388639+01 | 1486308031.38864 | pgbench_tellers  |            49152
 2017-02-05 16:20:31.388639+01 | 1486308031.38864 | pgbench_history  |        146808832
 2017-02-05 16:20:31.388639+01 | 1486308031.38864 | pgbench_branches |             8192

 2017-02-05 16:20:32.477197+01 | 1486308032.4772 | pgbench_accounts |       1383858176
 2017-02-05 16:20:32.477197+01 | 1486308032.4772 | pgbench_tellers  |            49152
 2017-02-05 16:20:32.477197+01 | 1486308032.4772 | pgbench_history  |        147980288
 2017-02-05 16:20:32.477197+01 | 1486308032.4772 | pgbench_branches |             8192

 2017-02-05 16:20:33.554663+01 | 1486308033.55466 | pgbench_accounts |       1383858176
 2017-02-05 16:20:33.554663+01 | 1486308033.55466 | pgbench_tellers  |            49152
 2017-02-05 16:20:33.554663+01 | 1486308033.55466 | pgbench_history  |        149831680
 2017-02-05 16:20:33.554663+01 | 1486308033.55466 | pgbench_branches |             8192

 2017-02-05 16:20:34.634733+01 | 1486308034.63473 | pgbench_accounts |       1383858176
 2017-02-05 16:20:34.634733+01 | 1486308034.63473 | pgbench_tellers  |            49152
 2017-02-05 16:20:34.634733+01 | 1486308034.63473 | pgbench_history  |        152215552
 2017-02-05 16:20:34.634733+01 | 1486308034.63473 | pgbench_branches |             8192

 2017-02-05 16:20:35.70955+01 | 1486308035.70955 | pgbench_accounts |       1383858176
 2017-02-05 16:20:35.70955+01 | 1486308035.70955 | pgbench_tellers  |            49152
 2017-02-05 16:20:35.70955+01 | 1486308035.70955 | pgbench_history  |        154910720
 2017-02-05 16:20:35.70955+01 | 1486308035.70955 | pgbench_branches |             8192

 2017-02-05 16:20:36.782454+01 | 1486308036.78245 | pgbench_accounts |       1383858176
 2017-02-05 16:20:36.782454+01 | 1486308036.78245 | pgbench_tellers  |            49152
 2017-02-05 16:20:36.782454+01 | 1486308036.78245 | pgbench_history  |        156598272
 2017-02-05 16:20:36.782454+01 | 1486308036.78245 | pgbench_branches |             8192

 2017-02-05 16:20:37.853082+01 | 1486308037.85308 | pgbench_accounts |       1383858176
 2017-02-05 16:20:37.853082+01 | 1486308037.85308 | pgbench_tellers  |            49152
 2017-02-05 16:20:37.853082+01 | 1486308037.85308 | pgbench_history  |        158613504
 2017-02-05 16:20:37.853082+01 | 1486308037.85308 | pgbench_branches |             8192

 2017-02-05 16:20:38.932357+01 | 1486308038.93236 | pgbench_accounts |       1383858176
 2017-02-05 16:20:38.932357+01 | 1486308038.93236 | pgbench_tellers  |            49152
 2017-02-05 16:20:38.932357+01 | 1486308038.93236 | pgbench_history  |        160653312
 2017-02-05 16:20:38.932357+01 | 1486308038.93236 | pgbench_branches |             8192

 2017-02-05 16:20:40.020723+01 | 1486308040.02072 | pgbench_accounts |       1383858176
 2017-02-05 16:20:40.020723+01 | 1486308040.02072 | pgbench_tellers  |            49152
 2017-02-05 16:20:40.020723+01 | 1486308040.02072 | pgbench_history  |        162177024
 2017-02-05 16:20:40.020723+01 | 1486308040.02072 | pgbench_branches |             8192

 2017-02-05 16:20:41.106878+01 | 1486308041.10688 | pgbench_accounts |       1383858176
 2017-02-05 16:20:41.106878+01 | 1486308041.10688 | pgbench_tellers  |            49152
 2017-02-05 16:20:41.106878+01 | 1486308041.10688 | pgbench_history  |        164044800
 2017-02-05 16:20:41.106878+01 | 1486308041.10688 | pgbench_branches |             8192

 2017-02-05 16:20:42.188491+01 | 1486308042.18849 | pgbench_accounts |       1383858176
 2017-02-05 16:20:42.188491+01 | 1486308042.18849 | pgbench_tellers  |            49152
 2017-02-05 16:20:42.188491+01 | 1486308042.18849 | pgbench_history  |        166060032
 2017-02-05 16:20:42.188491+01 | 1486308042.18849 | pgbench_branches |             8192

 2017-02-05 16:20:43.27239+01 | 1486308043.27239 | pgbench_accounts |       1383858176
 2017-02-05 16:20:43.27239+01 | 1486308043.27239 | pgbench_tellers  |            49152
 2017-02-05 16:20:43.27239+01 | 1486308043.27239 | pgbench_history  |        168148992
 2017-02-05 16:20:43.27239+01 | 1486308043.27239 | pgbench_branches |             8192

 2017-02-05 16:20:44.358236+01 | 1486308044.35824 | pgbench_accounts |       1383858176
 2017-02-05 16:20:44.358236+01 | 1486308044.35824 | pgbench_tellers  |            49152
 2017-02-05 16:20:44.358236+01 | 1486308044.35824 | pgbench_history  |        170680320
 2017-02-05 16:20:44.358236+01 | 1486308044.35824 | pgbench_branches |             8192

 2017-02-05 16:20:45.438034+01 | 1486308045.43803 | pgbench_accounts |       1383858176
 2017-02-05 16:20:45.438034+01 | 1486308045.43803 | pgbench_tellers  |            49152
 2017-02-05 16:20:45.438034+01 | 1486308045.43803 | pgbench_history  |        172400640
 2017-02-05 16:20:45.438034+01 | 1486308045.43803 | pgbench_branches |             8192

 2017-02-05 16:20:46.524933+01 | 1486308046.52493 | pgbench_accounts |       1383858176
 2017-02-05 16:20:46.524933+01 | 1486308046.52493 | pgbench_tellers  |            49152
 2017-02-05 16:20:46.524933+01 | 1486308046.52493 | pgbench_history  |        174768128
 2017-02-05 16:20:46.524933+01 | 1486308046.52493 | pgbench_branches |             8192

 2017-02-05 16:20:47.600509+01 | 1486308047.60051 | pgbench_accounts |       1383858176
 2017-02-05 16:20:47.600509+01 | 1486308047.60051 | pgbench_tellers  |            49152
 2017-02-05 16:20:47.600509+01 | 1486308047.60051 | pgbench_history  |        176635904
 2017-02-05 16:20:47.600509+01 | 1486308047.60051 | pgbench_branches |             8192

 2017-02-05 16:20:48.687477+01 | 1486308048.68748 | pgbench_accounts |       1383858176
 2017-02-05 16:20:48.687477+01 | 1486308048.68748 | pgbench_tellers  |            49152
 2017-02-05 16:20:48.687477+01 | 1486308048.68748 | pgbench_history  |        178864128
 2017-02-05 16:20:48.687477+01 | 1486308048.68748 | pgbench_branches |             8192

 2017-02-05 16:20:49.764549+01 | 1486308049.76455 | pgbench_accounts |       1383858176
 2017-02-05 16:20:49.764549+01 | 1486308049.76455 | pgbench_tellers  |            49152
 2017-02-05 16:20:49.764549+01 | 1486308049.76455 | pgbench_history  |        181379072
 2017-02-05 16:20:49.764549+01 | 1486308049.76455 | pgbench_branches |             8192

 2017-02-05 16:20:50.841806+01 | 1486308050.84181 | pgbench_accounts |       1383858176
 2017-02-05 16:20:50.841806+01 | 1486308050.84181 | pgbench_tellers  |            49152
 2017-02-05 16:20:50.841806+01 | 1486308050.84181 | pgbench_history  |        183091200
 2017-02-05 16:20:50.841806+01 | 1486308050.84181 | pgbench_branches |             8192

 2017-02-05 16:20:51.923464+01 | 1486308051.92346 | pgbench_accounts |       1383858176
 2017-02-05 16:20:51.923464+01 | 1486308051.92346 | pgbench_tellers  |            49152
 2017-02-05 16:20:51.923464+01 | 1486308051.92346 | pgbench_history  |        185532416
 2017-02-05 16:20:51.923464+01 | 1486308051.92346 | pgbench_branches |             8192

 2017-02-05 16:20:52.999008+01 | 1486308052.99901 | pgbench_accounts |       1383858176
 2017-02-05 16:20:52.999008+01 | 1486308052.99901 | pgbench_tellers  |            49152
 2017-02-05 16:20:52.999008+01 | 1486308052.99901 | pgbench_history  |        188088320
 2017-02-05 16:20:52.999008+01 | 1486308052.99901 | pgbench_branches |             8192

 2017-02-05 16:20:54.081426+01 | 1486308054.08143 | pgbench_accounts |       1383858176
 2017-02-05 16:20:54.081426+01 | 1486308054.08143 | pgbench_tellers  |            49152
 2017-02-05 16:20:54.081426+01 | 1486308054.08143 | pgbench_history  |        189947904
 2017-02-05 16:20:54.081426+01 | 1486308054.08143 | pgbench_branches |             8192

 2017-02-05 16:20:55.16475+01 | 1486308055.16475 | pgbench_accounts |       1383858176
 2017-02-05 16:20:55.16475+01 | 1486308055.16475 | pgbench_tellers  |            49152
 2017-02-05 16:20:55.16475+01 | 1486308055.16475 | pgbench_history  |        191635456
 2017-02-05 16:20:55.16475+01 | 1486308055.16475 | pgbench_branches |             8192

 2017-02-05 16:20:56.243981+01 | 1486308056.24398 | pgbench_accounts |       1383858176
 2017-02-05 16:20:56.243981+01 | 1486308056.24398 | pgbench_tellers  |            49152
 2017-02-05 16:20:56.243981+01 | 1486308056.24398 | pgbench_history  |        195035136
 2017-02-05 16:20:56.243981+01 | 1486308056.24398 | pgbench_branches |             8192

 2017-02-05 16:20:57.324661+01 | 1486308057.32466 | pgbench_accounts |       1383858176
 2017-02-05 16:20:57.324661+01 | 1486308057.32466 | pgbench_tellers  |            49152
 2017-02-05 16:20:57.324661+01 | 1486308057.32466 | pgbench_history  |        196370432
 2017-02-05 16:20:57.324661+01 | 1486308057.32466 | pgbench_branches |             8192

 2017-02-05 16:20:58.405659+01 | 1486308058.40566 | pgbench_accounts |       1383858176
 2017-02-05 16:20:58.405659+01 | 1486308058.40566 | pgbench_tellers  |            49152
 2017-02-05 16:20:58.405659+01 | 1486308058.40566 | pgbench_history  |        198926336
 2017-02-05 16:20:58.405659+01 | 1486308058.40566 | pgbench_branches |             8192

 2017-02-05 16:20:59.481809+01 | 1486308059.48181 | pgbench_accounts |       1383858176
 2017-02-05 16:20:59.481809+01 | 1486308059.48181 | pgbench_tellers  |            49152
 2017-02-05 16:20:59.481809+01 | 1486308059.48181 | pgbench_history  |        201457664
 2017-02-05 16:20:59.481809+01 | 1486308059.48181 | pgbench_branches |             8192

 2017-02-05 16:21:00.564759+01 | 1486308060.56476 | pgbench_accounts |       1383858176
 2017-02-05 16:21:00.564759+01 | 1486308060.56476 | pgbench_tellers  |            49152
 2017-02-05 16:21:00.564759+01 | 1486308060.56476 | pgbench_history  |        204292096
 2017-02-05 16:21:00.564759+01 | 1486308060.56476 | pgbench_branches |             8192

 2017-02-05 16:21:01.629916+01 | 1486308061.62992 | pgbench_accounts |       1383858176
 2017-02-05 16:21:01.629916+01 | 1486308061.62992 | pgbench_tellers  |            49152
 2017-02-05 16:21:01.629916+01 | 1486308061.62992 | pgbench_history  |        206143488
 2017-02-05 16:21:01.629916+01 | 1486308061.62992 | pgbench_branches |             8192

 2017-02-05 16:21:02.712122+01 | 1486308062.71212 | pgbench_accounts |       1383858176
 2017-02-05 16:21:02.712122+01 | 1486308062.71212 | pgbench_tellers  |            49152
 2017-02-05 16:21:02.712122+01 | 1486308062.71212 | pgbench_history  |        207855616
 2017-02-05 16:21:02.712122+01 | 1486308062.71212 | pgbench_branches |             8192

 2017-02-05 16:21:03.78714+01 | 1486308063.78714 | pgbench_accounts |       1383858176
 2017-02-05 16:21:03.78714+01 | 1486308063.78714 | pgbench_tellers  |            49152
 2017-02-05 16:21:03.78714+01 | 1486308063.78714 | pgbench_history  |        210223104
 2017-02-05 16:21:03.78714+01 | 1486308063.78714 | pgbench_branches |             8192

 2017-02-05 16:21:04.86573+01 | 1486308064.86573 | pgbench_accounts |       1383858176
 2017-02-05 16:21:04.86573+01 | 1486308064.86573 | pgbench_tellers  |            49152
 2017-02-05 16:21:04.86573+01 | 1486308064.86573 | pgbench_history  |        214073344
 2017-02-05 16:21:04.86573+01 | 1486308064.86573 | pgbench_branches |             8192

 2017-02-05 16:21:05.948358+01 | 1486308065.94836 | pgbench_accounts |       1383858176
 2017-02-05 16:21:05.948358+01 | 1486308065.94836 | pgbench_tellers  |            49152
 2017-02-05 16:21:05.948358+01 | 1486308065.94836 | pgbench_history  |        216227840
 2017-02-05 16:21:05.948358+01 | 1486308065.94836 | pgbench_branches |             8192

 2017-02-05 16:21:07.03006+01 | 1486308067.03006 | pgbench_accounts |       1383858176
 2017-02-05 16:21:07.03006+01 | 1486308067.03006 | pgbench_tellers  |            49152
 2017-02-05 16:21:07.03006+01 | 1486308067.03006 | pgbench_history  |        217399296
 2017-02-05 16:21:07.03006+01 | 1486308067.03006 | pgbench_branches |             8192

 2017-02-05 16:21:08.116417+01 | 1486308068.11642 | pgbench_accounts |       1383858176
 2017-02-05 16:21:08.116417+01 | 1486308068.11642 | pgbench_tellers  |            49152
 2017-02-05 16:21:08.116417+01 | 1486308068.11642 | pgbench_history  |        219627520
 2017-02-05 16:21:08.116417+01 | 1486308068.11642 | pgbench_branches |             8192

 2017-02-05 16:21:09.193648+01 | 1486308069.19365 | pgbench_accounts |       1383858176
 2017-02-05 16:21:09.193648+01 | 1486308069.19365 | pgbench_tellers  |            49152
 2017-02-05 16:21:09.193648+01 | 1486308069.19365 | pgbench_history  |        221831168
 2017-02-05 16:21:09.193648+01 | 1486308069.19365 | pgbench_branches |             8192

 2017-02-05 16:21:10.271575+01 | 1486308070.27157 | pgbench_accounts |       1383858176
 2017-02-05 16:21:10.271575+01 | 1486308070.27157 | pgbench_tellers  |            49152
 2017-02-05 16:21:10.271575+01 | 1486308070.27157 | pgbench_history  |        225157120
 2017-02-05 16:21:10.271575+01 | 1486308070.27157 | pgbench_branches |             8192

 2017-02-05 16:21:11.343121+01 | 1486308071.34312 | pgbench_accounts |       1383858176
 2017-02-05 16:21:11.343121+01 | 1486308071.34312 | pgbench_tellers  |            49152
 2017-02-05 16:21:11.343121+01 | 1486308071.34312 | pgbench_history  |        226025472
 2017-02-05 16:21:11.343121+01 | 1486308071.34312 | pgbench_branches |             8192

 2017-02-05 16:21:12.415021+01 | 1486308072.41502 | pgbench_accounts |       1383858176
 2017-02-05 16:21:12.415021+01 | 1486308072.41502 | pgbench_tellers  |            49152
 2017-02-05 16:21:12.415021+01 | 1486308072.41502 | pgbench_history  |        228532224
 2017-02-05 16:21:12.415021+01 | 1486308072.41502 | pgbench_branches |             8192

 2017-02-05 16:21:13.488747+01 | 1486308073.48875 | pgbench_accounts |       1383858176
 2017-02-05 16:21:13.488747+01 | 1486308073.48875 | pgbench_tellers  |            49152
 2017-02-05 16:21:13.488747+01 | 1486308073.48875 | pgbench_history  |        230850560
 2017-02-05 16:21:13.488747+01 | 1486308073.48875 | pgbench_branches |             8192

 2017-02-05 16:21:14.558825+01 | 1486308074.55883 | pgbench_accounts |       1383858176
 2017-02-05 16:21:14.558825+01 | 1486308074.55883 | pgbench_tellers  |            49152
 2017-02-05 16:21:14.558825+01 | 1486308074.55883 | pgbench_history  |        234340352
 2017-02-05 16:21:14.558825+01 | 1486308074.55883 | pgbench_branches |             8192

 2017-02-05 16:21:15.640097+01 | 1486308075.6401 | pgbench_accounts |       1383858176
 2017-02-05 16:21:15.640097+01 | 1486308075.6401 | pgbench_tellers  |            49152
 2017-02-05 16:21:15.640097+01 | 1486308075.6401 | pgbench_history  |        235700224
 2017-02-05 16:21:15.640097+01 | 1486308075.6401 | pgbench_branches |             8192

 2017-02-05 16:21:16.719535+01 | 1486308076.71954 | pgbench_accounts |       1383858176
 2017-02-05 16:21:16.719535+01 | 1486308076.71954 | pgbench_tellers  |            49152
 2017-02-05 16:21:16.719535+01 | 1486308076.71954 | pgbench_history  |        238067712
 2017-02-05 16:21:16.719535+01 | 1486308076.71954 | pgbench_branches |             8192

 2017-02-05 16:21:17.791352+01 | 1486308077.79135 | pgbench_accounts |       1383858176
 2017-02-05 16:21:17.791352+01 | 1486308077.79135 | pgbench_tellers  |            49152
 2017-02-05 16:21:17.791352+01 | 1486308077.79135 | pgbench_history  |        239968256
 2017-02-05 16:21:17.791352+01 | 1486308077.79135 | pgbench_branches |             8192

 2017-02-05 16:21:18.869633+01 | 1486308078.86963 | pgbench_accounts |       1383858176
 2017-02-05 16:21:18.869633+01 | 1486308078.86963 | pgbench_tellers  |            49152
 2017-02-05 16:21:18.869633+01 | 1486308078.86963 | pgbench_history  |        242663424
 2017-02-05 16:21:18.869633+01 | 1486308078.86963 | pgbench_branches |             8192

 2017-02-05 16:21:19.944184+01 | 1486308079.94418 | pgbench_accounts |       1383858176
 2017-02-05 16:21:19.944184+01 | 1486308079.94418 | pgbench_tellers  |            49152
 2017-02-05 16:21:19.944184+01 | 1486308079.94418 | pgbench_history  |        244359168
 2017-02-05 16:21:19.944184+01 | 1486308079.94418 | pgbench_branches |             8192

 2017-02-05 16:21:21.025156+01 | 1486308081.02516 | pgbench_accounts |       1383858176
 2017-02-05 16:21:21.025156+01 | 1486308081.02516 | pgbench_tellers  |            49152
 2017-02-05 16:21:21.025156+01 | 1486308081.02516 | pgbench_history  |        246939648
 2017-02-05 16:21:21.025156+01 | 1486308081.02516 | pgbench_branches |             8192

 2017-02-05 16:21:22.100627+01 | 1486308082.10063 | pgbench_accounts |       1383858176
 2017-02-05 16:21:22.100627+01 | 1486308082.10063 | pgbench_tellers  |            49152
 2017-02-05 16:21:22.100627+01 | 1486308082.10063 | pgbench_history  |        249004032
 2017-02-05 16:21:22.100627+01 | 1486308082.10063 | pgbench_branches |             8192

 2017-02-05 16:21:23.17391+01 | 1486308083.17391 | pgbench_accounts |       1383858176
 2017-02-05 16:21:23.17391+01 | 1486308083.17391 | pgbench_tellers  |            49152
 2017-02-05 16:21:23.17391+01 | 1486308083.17391 | pgbench_history  |        251748352
 2017-02-05 16:21:23.17391+01 | 1486308083.17391 | pgbench_branches |             8192

 2017-02-05 16:21:24.248391+01 | 1486308084.24839 | pgbench_accounts |       1383858176
 2017-02-05 16:21:24.248391+01 | 1486308084.24839 | pgbench_tellers  |            49152
 2017-02-05 16:21:24.248391+01 | 1486308084.24839 | pgbench_history  |        254140416
 2017-02-05 16:21:24.248391+01 | 1486308084.24839 | pgbench_branches |             8192

 2017-02-05 16:21:25.323337+01 | 1486308085.32334 | pgbench_accounts |       1383858176
 2017-02-05 16:21:25.323337+01 | 1486308085.32334 | pgbench_tellers  |            49152
 2017-02-05 16:21:25.323337+01 | 1486308085.32334 | pgbench_history  |        256016384
 2017-02-05 16:21:25.323337+01 | 1486308085.32334 | pgbench_branches |             8192

 2017-02-05 16:21:26.406798+01 | 1486308086.4068 | pgbench_accounts |       1383858176
 2017-02-05 16:21:26.406798+01 | 1486308086.4068 | pgbench_tellers  |            49152
 2017-02-05 16:21:26.406798+01 | 1486308086.4068 | pgbench_history  |        258039808
 2017-02-05 16:21:26.406798+01 | 1486308086.4068 | pgbench_branches |             8192

 2017-02-05 16:21:27.484252+01 | 1486308087.48425 | pgbench_accounts |       1383858176
 2017-02-05 16:21:27.484252+01 | 1486308087.48425 | pgbench_tellers  |            49152
 2017-02-05 16:21:27.484252+01 | 1486308087.48425 | pgbench_history  |        260055040
 2017-02-05 16:21:27.484252+01 | 1486308087.48425 | pgbench_branches |             8192

 2017-02-05 16:21:28.558699+01 | 1486308088.5587 | pgbench_accounts |       1383858176
 2017-02-05 16:21:28.558699+01 | 1486308088.5587 | pgbench_tellers  |            49152
 2017-02-05 16:21:28.558699+01 | 1486308088.5587 | pgbench_history  |        263430144
 2017-02-05 16:21:28.558699+01 | 1486308088.5587 | pgbench_branches |             8192

 2017-02-05 16:21:29.642435+01 | 1486308089.64244 | pgbench_accounts |       1383858176
 2017-02-05 16:21:29.642435+01 | 1486308089.64244 | pgbench_tellers  |            49152
 2017-02-05 16:21:29.642435+01 | 1486308089.64244 | pgbench_history  |        264953856
 2017-02-05 16:21:29.642435+01 | 1486308089.64244 | pgbench_branches |             8192

 2017-02-05 16:21:30.723945+01 | 1486308090.72394 | pgbench_accounts |       1383858176
 2017-02-05 16:21:30.723945+01 | 1486308090.72394 | pgbench_tellers  |            49152
 2017-02-05 16:21:30.723945+01 | 1486308090.72394 | pgbench_history  |        267567104
 2017-02-05 16:21:30.723945+01 | 1486308090.72394 | pgbench_branches |             8192

 2017-02-05 16:21:31.806111+01 | 1486308091.80611 | pgbench_accounts |       1383858176
 2017-02-05 16:21:31.806111+01 | 1486308091.80611 | pgbench_tellers  |            49152
 2017-02-05 16:21:31.806111+01 | 1486308091.80611 | pgbench_history  |        269647872
 2017-02-05 16:21:31.806111+01 | 1486308091.80611 | pgbench_branches |             8192

 2017-02-05 16:21:32.891524+01 | 1486308092.89152 | pgbench_accounts |       1383858176
 2017-02-05 16:21:32.891524+01 | 1486308092.89152 | pgbench_tellers  |            49152
 2017-02-05 16:21:32.891524+01 | 1486308092.89152 | pgbench_history  |        271687680
 2017-02-05 16:21:32.891524+01 | 1486308092.89152 | pgbench_branches |             8192

 2017-02-05 16:21:33.960966+01 | 1486308093.96097 | pgbench_accounts |       1383858176
 2017-02-05 16:21:33.960966+01 | 1486308093.96097 | pgbench_tellers  |            49152
 2017-02-05 16:21:33.960966+01 | 1486308093.96097 | pgbench_history  |        274735104
 2017-02-05 16:21:33.960966+01 | 1486308093.96097 | pgbench_branches |             8192

 2017-02-05 16:21:35.036107+01 | 1486308095.03611 | pgbench_accounts |       1383858176
 2017-02-05 16:21:35.036107+01 | 1486308095.03611 | pgbench_tellers  |            49152
 2017-02-05 16:21:35.036107+01 | 1486308095.03611 | pgbench_history  |        276234240
 2017-02-05 16:21:35.036107+01 | 1486308095.03611 | pgbench_branches |             8192

 2017-02-05 16:21:36.112009+01 | 1486308096.11201 | pgbench_accounts |       1383858176
 2017-02-05 16:21:36.112009+01 | 1486308096.11201 | pgbench_tellers  |            49152
 2017-02-05 16:21:36.112009+01 | 1486308096.11201 | pgbench_history  |        278577152
 2017-02-05 16:21:36.112009+01 | 1486308096.11201 | pgbench_branches |             8192

 2017-02-05 16:21:37.185716+01 | 1486308097.18572 | pgbench_accounts |       1383858176
 2017-02-05 16:21:37.185716+01 | 1486308097.18572 | pgbench_tellers  |            49152
 2017-02-05 16:21:37.185716+01 | 1486308097.18572 | pgbench_history  |        281460736
 2017-02-05 16:21:37.185716+01 | 1486308097.18572 | pgbench_branches |             8192

 2017-02-05 16:21:38.2713+01 | 1486308098.2713 | pgbench_accounts |       1383858176
 2017-02-05 16:21:38.2713+01 | 1486308098.2713 | pgbench_tellers  |            49152
 2017-02-05 16:21:38.2713+01 | 1486308098.2713 | pgbench_history  |        286195712
 2017-02-05 16:21:38.2713+01 | 1486308098.2713 | pgbench_branches |             8192

 2017-02-05 16:21:39.351112+01 | 1486308099.35111 | pgbench_accounts |       1383858176
 2017-02-05 16:21:39.351112+01 | 1486308099.35111 | pgbench_tellers  |            49152
 2017-02-05 16:21:39.351112+01 | 1486308099.35111 | pgbench_history  |        286195712
 2017-02-05 16:21:39.351112+01 | 1486308099.35111 | pgbench_branches |             8192

 2017-02-05 16:21:40.439496+01 | 1486308100.4395 | pgbench_accounts |       1383858176
 2017-02-05 16:21:40.439496+01 | 1486308100.4395 | pgbench_tellers  |            49152
 2017-02-05 16:21:40.439496+01 | 1486308100.4395 | pgbench_history  |        287367168
 2017-02-05 16:21:40.439496+01 | 1486308100.4395 | pgbench_branches |             8192

 2017-02-05 16:21:41.51448+01 | 1486308101.51448 | pgbench_accounts |       1383858176
 2017-02-05 16:21:41.51448+01 | 1486308101.51448 | pgbench_tellers  |            49152
 2017-02-05 16:21:41.51448+01 | 1486308101.51448 | pgbench_history  |        289751040
 2017-02-05 16:21:41.51448+01 | 1486308101.51448 | pgbench_branches |             8192

 2017-02-05 16:21:42.589006+01 | 1486308102.58901 | pgbench_accounts |       1383858176
 2017-02-05 16:21:42.589006+01 | 1486308102.58901 | pgbench_tellers  |            49152
 2017-02-05 16:21:42.589006+01 | 1486308102.58901 | pgbench_history  |        292519936
 2017-02-05 16:21:42.589006+01 | 1486308102.58901 | pgbench_branches |             8192

 2017-02-05 16:21:43.670617+01 | 1486308103.67062 | pgbench_accounts |       1383858176
 2017-02-05 16:21:43.670617+01 | 1486308103.67062 | pgbench_tellers  |            49152
 2017-02-05 16:21:43.670617+01 | 1486308103.67062 | pgbench_history  |        294739968
 2017-02-05 16:21:43.670617+01 | 1486308103.67062 | pgbench_branches |             8192

 2017-02-05 16:21:44.743316+01 | 1486308104.74332 | pgbench_accounts |       1383858176
 2017-02-05 16:21:44.743316+01 | 1486308104.74332 | pgbench_tellers  |            49152
 2017-02-05 16:21:44.743316+01 | 1486308104.74332 | pgbench_history  |        296755200
 2017-02-05 16:21:44.743316+01 | 1486308104.74332 | pgbench_branches |             8192

 2017-02-05 16:21:45.831388+01 | 1486308105.83139 | pgbench_accounts |       1383858176
 2017-02-05 16:21:45.831388+01 | 1486308105.83139 | pgbench_tellers  |            49152
 2017-02-05 16:21:45.831388+01 | 1486308105.83139 | pgbench_history  |        298909696
 2017-02-05 16:21:45.831388+01 | 1486308105.83139 | pgbench_branches |             8192

 2017-02-05 16:21:46.907446+01 | 1486308106.90745 | pgbench_accounts |       1383858176
 2017-02-05 16:21:46.907446+01 | 1486308106.90745 | pgbench_tellers  |            49152
 2017-02-05 16:21:46.907446+01 | 1486308106.90745 | pgbench_history  |        301932544
 2017-02-05 16:21:46.907446+01 | 1486308106.90745 | pgbench_branches |             8192

 2017-02-05 16:21:47.995064+01 | 1486308107.99506 | pgbench_accounts |       1383858176
 2017-02-05 16:21:47.995064+01 | 1486308107.99506 | pgbench_tellers  |            49152
 2017-02-05 16:21:47.995064+01 | 1486308107.99506 | pgbench_history  |        303456256
 2017-02-05 16:21:47.995064+01 | 1486308107.99506 | pgbench_branches |             8192

 2017-02-05 16:21:49.069426+01 | 1486308109.06943 | pgbench_accounts |       1383858176
 2017-02-05 16:21:49.069426+01 | 1486308109.06943 | pgbench_tellers  |            49152
 2017-02-05 16:21:49.069426+01 | 1486308109.06943 | pgbench_history  |        306642944
 2017-02-05 16:21:49.069426+01 | 1486308109.06943 | pgbench_branches |             8192

 2017-02-05 16:21:50.147277+01 | 1486308110.14728 | pgbench_accounts |       1383858176
 2017-02-05 16:21:50.147277+01 | 1486308110.14728 | pgbench_tellers  |            49152
 2017-02-05 16:21:50.147277+01 | 1486308110.14728 | pgbench_history  |        308166656
 2017-02-05 16:21:50.147277+01 | 1486308110.14728 | pgbench_branches |             8192

 2017-02-05 16:21:51.234792+01 | 1486308111.23479 | pgbench_accounts |       1383858176
 2017-02-05 16:21:51.234792+01 | 1486308111.23479 | pgbench_tellers  |            49152
 2017-02-05 16:21:51.234792+01 | 1486308111.23479 | pgbench_history  |        310722560
 2017-02-05 16:21:51.234792+01 | 1486308111.23479 | pgbench_branches |             8192

 2017-02-05 16:21:52.321645+01 | 1486308112.32165 | pgbench_accounts |       1383858176
 2017-02-05 16:21:52.321645+01 | 1486308112.32165 | pgbench_tellers  |            49152
 2017-02-05 16:21:52.321645+01 | 1486308112.32165 | pgbench_history  |        312459264
 2017-02-05 16:21:52.321645+01 | 1486308112.32165 | pgbench_branches |             8192

 2017-02-05 16:21:53.395148+01 | 1486308113.39515 | pgbench_accounts |       1383858176
 2017-02-05 16:21:53.395148+01 | 1486308113.39515 | pgbench_tellers  |            49152
 2017-02-05 16:21:53.395148+01 | 1486308113.39515 | pgbench_history  |        315179008
 2017-02-05 16:21:53.395148+01 | 1486308113.39515 | pgbench_branches |             8192

 2017-02-05 16:21:54.468529+01 | 1486308114.46853 | pgbench_accounts |       1383858176
 2017-02-05 16:21:54.468529+01 | 1486308114.46853 | pgbench_tellers  |            49152
 2017-02-05 16:21:54.468529+01 | 1486308114.46853 | pgbench_history  |        317218816
 2017-02-05 16:21:54.468529+01 | 1486308114.46853 | pgbench_branches |             8192

 2017-02-05 16:21:55.546802+01 | 1486308115.5468 | pgbench_accounts |       1383858176
 2017-02-05 16:21:55.546802+01 | 1486308115.5468 | pgbench_tellers  |            49152
 2017-02-05 16:21:55.546802+01 | 1486308115.5468 | pgbench_history  |        319234048
 2017-02-05 16:21:55.546802+01 | 1486308115.5468 | pgbench_branches |             8192

 2017-02-05 16:21:56.621072+01 | 1486308116.62107 | pgbench_accounts |       1383858176
 2017-02-05 16:21:56.621072+01 | 1486308116.62107 | pgbench_tellers  |            49152
 2017-02-05 16:21:56.621072+01 | 1486308116.62107 | pgbench_history  |        322117632
 2017-02-05 16:21:56.621072+01 | 1486308116.62107 | pgbench_branches |             8192

 2017-02-05 16:21:57.691604+01 | 1486308117.6916 | pgbench_accounts |       1383858176
 2017-02-05 16:21:57.691604+01 | 1486308117.6916 | pgbench_tellers  |            49152
 2017-02-05 16:21:57.691604+01 | 1486308117.6916 | pgbench_history  |        324132864
 2017-02-05 16:21:57.691604+01 | 1486308117.6916 | pgbench_branches |             8192

 2017-02-05 16:21:58.764609+01 | 1486308118.76461 | pgbench_accounts |       1383858176
 2017-02-05 16:21:58.764609+01 | 1486308118.76461 | pgbench_tellers  |            49152
 2017-02-05 16:21:58.764609+01 | 1486308118.76461 | pgbench_history  |        326336512
 2017-02-05 16:21:58.764609+01 | 1486308118.76461 | pgbench_branches |             8192

 2017-02-05 16:21:59.840383+01 | 1486308119.84038 | pgbench_accounts |       1383858176
 2017-02-05 16:21:59.840383+01 | 1486308119.84038 | pgbench_tellers  |            49152
 2017-02-05 16:21:59.840383+01 | 1486308119.84038 | pgbench_history  |        328351744
 2017-02-05 16:21:59.840383+01 | 1486308119.84038 | pgbench_branches |             8192

 2017-02-05 16:22:00.921075+01 | 1486308120.92108 | pgbench_accounts |       1383858176
 2017-02-05 16:22:00.921075+01 | 1486308120.92108 | pgbench_tellers  |            49152
 2017-02-05 16:22:00.921075+01 | 1486308120.92108 | pgbench_history  |        330588160
 2017-02-05 16:22:00.921075+01 | 1486308120.92108 | pgbench_branches |             8192

 2017-02-05 16:22:01.996742+01 | 1486308121.99674 | pgbench_accounts |       1383858176
 2017-02-05 16:22:01.996742+01 | 1486308121.99674 | pgbench_tellers  |            49152
 2017-02-05 16:22:01.996742+01 | 1486308121.99674 | pgbench_history  |        332816384
 2017-02-05 16:22:01.996742+01 | 1486308121.99674 | pgbench_branches |             8192

 2017-02-05 16:22:03.069273+01 | 1486308123.06927 | pgbench_accounts |       1383858176
 2017-02-05 16:22:03.069273+01 | 1486308123.06927 | pgbench_tellers  |            49152
 2017-02-05 16:22:03.069273+01 | 1486308123.06927 | pgbench_history  |        336035840
 2017-02-05 16:22:03.069273+01 | 1486308123.06927 | pgbench_branches |             8192

 2017-02-05 16:22:04.154636+01 | 1486308124.15464 | pgbench_accounts |       1383858176
 2017-02-05 16:22:04.154636+01 | 1486308124.15464 | pgbench_tellers  |            49152
 2017-02-05 16:22:04.154636+01 | 1486308124.15464 | pgbench_history  |        337592320
 2017-02-05 16:22:04.154636+01 | 1486308124.15464 | pgbench_branches |             8192

 2017-02-05 16:22:05.233897+01 | 1486308125.2339 | pgbench_accounts |       1383858176
 2017-02-05 16:22:05.233897+01 | 1486308125.2339 | pgbench_tellers  |            49152
 2017-02-05 16:22:05.233897+01 | 1486308125.2339 | pgbench_history  |        340295680
 2017-02-05 16:22:05.233897+01 | 1486308125.2339 | pgbench_branches |             8192

 2017-02-05 16:22:06.306779+01 | 1486308126.30678 | pgbench_accounts |       1383858176
 2017-02-05 16:22:06.306779+01 | 1486308126.30678 | pgbench_tellers  |            49152
 2017-02-05 16:22:06.306779+01 | 1486308126.30678 | pgbench_history  |        343171072
 2017-02-05 16:22:06.306779+01 | 1486308126.30678 | pgbench_branches |             8192

 2017-02-05 16:22:07.392862+01 | 1486308127.39286 | pgbench_accounts |       1383858176
 2017-02-05 16:22:07.392862+01 | 1486308127.39286 | pgbench_tellers  |            49152
 2017-02-05 16:22:07.392862+01 | 1486308127.39286 | pgbench_history  |        344391680
 2017-02-05 16:22:07.392862+01 | 1486308127.39286 | pgbench_branches |             8192

 2017-02-05 16:22:08.469397+01 | 1486308128.4694 | pgbench_accounts |       1383858176
 2017-02-05 16:22:08.469397+01 | 1486308128.4694 | pgbench_tellers  |            49152
 2017-02-05 16:22:08.469397+01 | 1486308128.4694 | pgbench_history  |        347586560
 2017-02-05 16:22:08.469397+01 | 1486308128.4694 | pgbench_branches |             8192

 2017-02-05 16:22:09.543521+01 | 1486308129.54352 | pgbench_accounts |       1383858176
 2017-02-05 16:22:09.543521+01 | 1486308129.54352 | pgbench_tellers  |            49152
 2017-02-05 16:22:09.543521+01 | 1486308129.54352 | pgbench_history  |        349110272
 2017-02-05 16:22:09.543521+01 | 1486308129.54352 | pgbench_branches |             8192

 2017-02-05 16:22:10.620122+01 | 1486308130.62012 | pgbench_accounts |       1383858176
 2017-02-05 16:22:10.620122+01 | 1486308130.62012 | pgbench_tellers  |            49152
 2017-02-05 16:22:10.620122+01 | 1486308130.62012 | pgbench_history  |        351985664
 2017-02-05 16:22:10.620122+01 | 1486308130.62012 | pgbench_branches |             8192

 2017-02-05 16:22:11.69549+01 | 1486308131.69549 | pgbench_accounts |       1383858176
 2017-02-05 16:22:11.69549+01 | 1486308131.69549 | pgbench_tellers  |            49152
 2017-02-05 16:22:11.69549+01 | 1486308131.69549 | pgbench_history  |        353837056
 2017-02-05 16:22:11.69549+01 | 1486308131.69549 | pgbench_branches |             8192

 2017-02-05 16:22:12.767825+01 | 1486308132.76782 | pgbench_accounts |       1383858176
 2017-02-05 16:22:12.767825+01 | 1486308132.76782 | pgbench_tellers  |            49152
 2017-02-05 16:22:12.767825+01 | 1486308132.76782 | pgbench_history  |        356417536
 2017-02-05 16:22:12.767825+01 | 1486308132.76782 | pgbench_branches |             8192

 2017-02-05 16:22:13.843462+01 | 1486308133.84346 | pgbench_accounts |       1383858176
 2017-02-05 16:22:13.843462+01 | 1486308133.84346 | pgbench_tellers  |            49152
 2017-02-05 16:22:13.843462+01 | 1486308133.84346 | pgbench_history  |        358670336
 2017-02-05 16:22:13.843462+01 | 1486308133.84346 | pgbench_branches |             8192

 2017-02-05 16:22:14.912684+01 | 1486308134.91268 | pgbench_accounts |       1383858176
 2017-02-05 16:22:14.912684+01 | 1486308134.91268 | pgbench_tellers  |            49152
 2017-02-05 16:22:14.912684+01 | 1486308134.91268 | pgbench_history  |        360849408
 2017-02-05 16:22:14.912684+01 | 1486308134.91268 | pgbench_branches |             8192

 2017-02-05 16:22:16.014483+01 | 1486308136.01448 | pgbench_accounts |       1383858176
 2017-02-05 16:22:16.014483+01 | 1486308136.01448 | pgbench_tellers  |            49152
 2017-02-05 16:22:16.014483+01 | 1486308136.01448 | pgbench_history  |        363249664
 2017-02-05 16:22:16.014483+01 | 1486308136.01448 | pgbench_branches |             8192

 2017-02-05 16:22:17.103469+01 | 1486308137.10347 | pgbench_accounts |       1383858176
 2017-02-05 16:22:17.103469+01 | 1486308137.10347 | pgbench_tellers  |            49152
 2017-02-05 16:22:17.103469+01 | 1486308137.10347 | pgbench_history  |        366116864
 2017-02-05 16:22:17.103469+01 | 1486308137.10347 | pgbench_branches |             8192

 2017-02-05 16:22:18.17481+01 | 1486308138.17481 | pgbench_accounts |       1383858176
 2017-02-05 16:22:18.17481+01 | 1486308138.17481 | pgbench_tellers  |            49152
 2017-02-05 16:22:18.17481+01 | 1486308138.17481 | pgbench_history  |        368320512
 2017-02-05 16:22:18.17481+01 | 1486308138.17481 | pgbench_branches |             8192

 2017-02-05 16:22:19.250213+01 | 1486308139.25021 | pgbench_accounts |       1383858176
 2017-02-05 16:22:19.250213+01 | 1486308139.25021 | pgbench_tellers  |            49152
 2017-02-05 16:22:19.250213+01 | 1486308139.25021 | pgbench_history  |        370335744
 2017-02-05 16:22:19.250213+01 | 1486308139.25021 | pgbench_branches |             8192

 2017-02-05 16:22:20.337469+01 | 1486308140.33747 | pgbench_accounts |       1383858176
 2017-02-05 16:22:20.337469+01 | 1486308140.33747 | pgbench_tellers  |            49152
 2017-02-05 16:22:20.337469+01 | 1486308140.33747 | pgbench_history  |        372080640
 2017-02-05 16:22:20.337469+01 | 1486308140.33747 | pgbench_branches |             8192

 2017-02-05 16:22:21.414647+01 | 1486308141.41465 | pgbench_accounts |       1383858176
 2017-02-05 16:22:21.414647+01 | 1486308141.41465 | pgbench_tellers  |            49152
 2017-02-05 16:22:21.414647+01 | 1486308141.41465 | pgbench_history  |        374800384
 2017-02-05 16:22:21.414647+01 | 1486308141.41465 | pgbench_branches |             8192

 2017-02-05 16:22:22.493049+01 | 1486308142.49305 | pgbench_accounts |       1383858176
 2017-02-05 16:22:22.493049+01 | 1486308142.49305 | pgbench_tellers  |            49152
 2017-02-05 16:22:22.493049+01 | 1486308142.49305 | pgbench_history  |        377167872
 2017-02-05 16:22:22.493049+01 | 1486308142.49305 | pgbench_branches |             8192

 2017-02-05 16:22:23.574784+01 | 1486308143.57478 | pgbench_accounts |       1383858176
 2017-02-05 16:22:23.574784+01 | 1486308143.57478 | pgbench_tellers  |            49152
 2017-02-05 16:22:23.574784+01 | 1486308143.57478 | pgbench_history  |        379215872
 2017-02-05 16:22:23.574784+01 | 1486308143.57478 | pgbench_branches |             8192

 2017-02-05 16:22:24.648025+01 | 1486308144.64803 | pgbench_accounts |       1383858176
 2017-02-05 16:22:24.648025+01 | 1486308144.64803 | pgbench_tellers  |            49152
 2017-02-05 16:22:24.648025+01 | 1486308144.64803 | pgbench_history  |        381763584
 2017-02-05 16:22:24.648025+01 | 1486308144.64803 | pgbench_branches |             8192

 2017-02-05 16:22:25.723526+01 | 1486308145.72353 | pgbench_accounts |       1383858176
 2017-02-05 16:22:25.723526+01 | 1486308145.72353 | pgbench_tellers  |            49152
 2017-02-05 16:22:25.723526+01 | 1486308145.72353 | pgbench_history  |        383590400
 2017-02-05 16:22:25.723526+01 | 1486308145.72353 | pgbench_branches |             8192

 2017-02-05 16:22:26.803885+01 | 1486308146.80388 | pgbench_accounts |       1383858176
 2017-02-05 16:22:26.803885+01 | 1486308146.80388 | pgbench_tellers  |            49152
 2017-02-05 16:22:26.803885+01 | 1486308146.80388 | pgbench_history  |        386506752
 2017-02-05 16:22:26.803885+01 | 1486308146.80388 | pgbench_branches |             8192

 2017-02-05 16:22:27.876865+01 | 1486308147.87686 | pgbench_accounts |       1383858176
 2017-02-05 16:22:27.876865+01 | 1486308147.87686 | pgbench_tellers  |            49152
 2017-02-05 16:22:27.876865+01 | 1486308147.87686 | pgbench_history  |        388218880
 2017-02-05 16:22:27.876865+01 | 1486308147.87686 | pgbench_branches |             8192

 2017-02-05 16:22:28.955877+01 | 1486308148.95588 | pgbench_accounts |       1383858176
 2017-02-05 16:22:28.955877+01 | 1486308148.95588 | pgbench_tellers  |            49152
 2017-02-05 16:22:28.955877+01 | 1486308148.95588 | pgbench_history  |        390397952
 2017-02-05 16:22:28.955877+01 | 1486308148.95588 | pgbench_branches |             8192

 2017-02-05 16:22:30.032011+01 | 1486308150.03201 | pgbench_accounts |       1383858176
 2017-02-05 16:22:30.032011+01 | 1486308150.03201 | pgbench_tellers  |            49152
 2017-02-05 16:22:30.032011+01 | 1486308150.03201 | pgbench_history  |        393142272
 2017-02-05 16:22:30.032011+01 | 1486308150.03201 | pgbench_branches |             8192

 2017-02-05 16:22:31.106142+01 | 1486308151.10614 | pgbench_accounts |       1383858176
 2017-02-05 16:22:31.106142+01 | 1486308151.10614 | pgbench_tellers  |            49152
 2017-02-05 16:22:31.106142+01 | 1486308151.10614 | pgbench_history  |        396328960
 2017-02-05 16:22:31.106142+01 | 1486308151.10614 | pgbench_branches |             8192

 2017-02-05 16:22:32.181535+01 | 1486308152.18154 | pgbench_accounts |       1383858176
 2017-02-05 16:22:32.181535+01 | 1486308152.18154 | pgbench_tellers  |            49152
 2017-02-05 16:22:32.181535+01 | 1486308152.18154 | pgbench_history  |        397172736
 2017-02-05 16:22:32.181535+01 | 1486308152.18154 | pgbench_branches |             8192

 2017-02-05 16:22:33.256951+01 | 1486308153.25695 | pgbench_accounts |       1383858176
 2017-02-05 16:22:33.256951+01 | 1486308153.25695 | pgbench_tellers  |            49152
 2017-02-05 16:22:33.256951+01 | 1486308153.25695 | pgbench_history  |        399564800
 2017-02-05 16:22:33.256951+01 | 1486308153.25695 | pgbench_branches |             8192

 2017-02-05 16:22:34.332213+01 | 1486308154.33221 | pgbench_accounts |       1383858176
 2017-02-05 16:22:34.332213+01 | 1486308154.33221 | pgbench_tellers  |            49152
 2017-02-05 16:22:34.332213+01 | 1486308154.33221 | pgbench_history  |        402636800
 2017-02-05 16:22:34.332213+01 | 1486308154.33221 | pgbench_branches |             8192

 2017-02-05 16:22:35.408111+01 | 1486308155.40811 | pgbench_accounts |       1383858176
 2017-02-05 16:22:35.408111+01 | 1486308155.40811 | pgbench_tellers  |            49152
 2017-02-05 16:22:35.408111+01 | 1486308155.40811 | pgbench_history  |        404488192
 2017-02-05 16:22:35.408111+01 | 1486308155.40811 | pgbench_branches |             8192

 2017-02-05 16:22:36.486471+01 | 1486308156.48647 | pgbench_accounts |       1383858176
 2017-02-05 16:22:36.486471+01 | 1486308156.48647 | pgbench_tellers  |            49152
 2017-02-05 16:22:36.486471+01 | 1486308156.48647 | pgbench_history  |        406339584
 2017-02-05 16:22:36.486471+01 | 1486308156.48647 | pgbench_branches |             8192

 2017-02-05 16:22:37.561722+01 | 1486308157.56172 | pgbench_accounts |       1383858176
 2017-02-05 16:22:37.561722+01 | 1486308157.56172 | pgbench_tellers  |            49152
 2017-02-05 16:22:37.561722+01 | 1486308157.56172 | pgbench_history  |        408879104
 2017-02-05 16:22:37.561722+01 | 1486308157.56172 | pgbench_branches |             8192

 2017-02-05 16:22:38.637058+01 | 1486308158.63706 | pgbench_accounts |       1383858176
 2017-02-05 16:22:38.637058+01 | 1486308158.63706 | pgbench_tellers  |            49152
 2017-02-05 16:22:38.637058+01 | 1486308158.63706 | pgbench_history  |        411598848
 2017-02-05 16:22:38.637058+01 | 1486308158.63706 | pgbench_branches |             8192

 2017-02-05 16:22:39.718105+01 | 1486308159.71811 | pgbench_accounts |       1383858176
 2017-02-05 16:22:39.718105+01 | 1486308159.71811 | pgbench_tellers  |            49152
 2017-02-05 16:22:39.718105+01 | 1486308159.71811 | pgbench_history  |        413286400
 2017-02-05 16:22:39.718105+01 | 1486308159.71811 | pgbench_branches |             8192

 2017-02-05 16:22:40.790927+01 | 1486308160.79093 | pgbench_accounts |       1383858176
 2017-02-05 16:22:40.790927+01 | 1486308160.79093 | pgbench_tellers  |            49152
 2017-02-05 16:22:40.790927+01 | 1486308160.79093 | pgbench_history  |        416800768
 2017-02-05 16:22:40.790927+01 | 1486308160.79093 | pgbench_branches |             8192

 2017-02-05 16:22:41.870694+01 | 1486308161.87069 | pgbench_accounts |       1383858176
 2017-02-05 16:22:41.870694+01 | 1486308161.87069 | pgbench_tellers  |            49152
 2017-02-05 16:22:41.870694+01 | 1486308161.87069 | pgbench_history  |        418676736
 2017-02-05 16:22:41.870694+01 | 1486308161.87069 | pgbench_branches |             8192

 2017-02-05 16:22:42.939885+01 | 1486308162.93988 | pgbench_accounts |       1383858176
 2017-02-05 16:22:42.939885+01 | 1486308162.93988 | pgbench_tellers  |            49152
 2017-02-05 16:22:42.939885+01 | 1486308162.93988 | pgbench_history  |        420536320
 2017-02-05 16:22:42.939885+01 | 1486308162.93988 | pgbench_branches |             8192

 2017-02-05 16:22:44.021028+01 | 1486308164.02103 | pgbench_accounts |       1383858176
 2017-02-05 16:22:44.021028+01 | 1486308164.02103 | pgbench_tellers  |            49152
 2017-02-05 16:22:44.021028+01 | 1486308164.02103 | pgbench_history  |        422903808
 2017-02-05 16:22:44.021028+01 | 1486308164.02103 | pgbench_branches |             8192

 2017-02-05 16:22:45.101318+01 | 1486308165.10132 | pgbench_accounts |       1383858176
 2017-02-05 16:22:45.101318+01 | 1486308165.10132 | pgbench_tellers  |            49152
 2017-02-05 16:22:45.101318+01 | 1486308165.10132 | pgbench_history  |        425623552
 2017-02-05 16:22:45.101318+01 | 1486308165.10132 | pgbench_branches |             8192

 2017-02-05 16:22:46.178215+01 | 1486308166.17822 | pgbench_accounts |       1383858176
 2017-02-05 16:22:46.178215+01 | 1486308166.17822 | pgbench_tellers  |            49152
 2017-02-05 16:22:46.178215+01 | 1486308166.17822 | pgbench_history  |        428015616
 2017-02-05 16:22:46.178215+01 | 1486308166.17822 | pgbench_branches |             8192

 2017-02-05 16:22:47.250575+01 | 1486308167.25058 | pgbench_accounts |       1383858176
 2017-02-05 16:22:47.250575+01 | 1486308167.25058 | pgbench_tellers  |            49152
 2017-02-05 16:22:47.250575+01 | 1486308167.25058 | pgbench_history  |        430301184
 2017-02-05 16:22:47.250575+01 | 1486308167.25058 | pgbench_branches |             8192

 2017-02-05 16:22:48.31887+01 | 1486308168.31887 | pgbench_accounts |       1383858176
 2017-02-05 16:22:48.31887+01 | 1486308168.31887 | pgbench_tellers  |            49152
 2017-02-05 16:22:48.31887+01 | 1486308168.31887 | pgbench_history  |        432594944
 2017-02-05 16:22:48.31887+01 | 1486308168.31887 | pgbench_branches |             8192

 2017-02-05 16:22:49.389538+01 | 1486308169.38954 | pgbench_accounts |       1383858176
 2017-02-05 16:22:49.389538+01 | 1486308169.38954 | pgbench_tellers  |            49152
 2017-02-05 16:22:49.389538+01 | 1486308169.38954 | pgbench_history  |        434372608
 2017-02-05 16:22:49.389538+01 | 1486308169.38954 | pgbench_branches |             8192

 2017-02-05 16:22:50.467929+01 | 1486308170.46793 | pgbench_accounts |       1383858176
 2017-02-05 16:22:50.467929+01 | 1486308170.46793 | pgbench_tellers  |            49152
 2017-02-05 16:22:50.467929+01 | 1486308170.46793 | pgbench_history  |        436903936
 2017-02-05 16:22:50.467929+01 | 1486308170.46793 | pgbench_branches |             8192

 2017-02-05 16:22:51.551719+01 | 1486308171.55172 | pgbench_accounts |       1383858176
 2017-02-05 16:22:51.551719+01 | 1486308171.55172 | pgbench_tellers  |            49152
 2017-02-05 16:22:51.551719+01 | 1486308171.55172 | pgbench_history  |        439541760
 2017-02-05 16:22:51.551719+01 | 1486308171.55172 | pgbench_branches |             8192

 2017-02-05 16:22:52.625052+01 | 1486308172.62505 | pgbench_accounts |       1383858176
 2017-02-05 16:22:52.625052+01 | 1486308172.62505 | pgbench_tellers  |            49152
 2017-02-05 16:22:52.625052+01 | 1486308172.62505 | pgbench_history  |        441942016
 2017-02-05 16:22:52.625052+01 | 1486308172.62505 | pgbench_branches |             8192

 2017-02-05 16:22:53.69738+01 | 1486308173.69738 | pgbench_accounts |       1383858176
 2017-02-05 16:22:53.69738+01 | 1486308173.69738 | pgbench_tellers  |            49152
 2017-02-05 16:22:53.69738+01 | 1486308173.69738 | pgbench_history  |        443490304
 2017-02-05 16:22:53.69738+01 | 1486308173.69738 | pgbench_branches |             8192

 2017-02-05 16:22:54.778435+01 | 1486308174.77843 | pgbench_accounts |       1383858176
 2017-02-05 16:22:54.778435+01 | 1486308174.77843 | pgbench_tellers  |            49152
 2017-02-05 16:22:54.778435+01 | 1486308174.77843 | pgbench_history  |        445718528
 2017-02-05 16:22:54.778435+01 | 1486308174.77843 | pgbench_branches |             8192

 2017-02-05 16:22:55.858774+01 | 1486308175.85877 | pgbench_accounts |       1383858176
 2017-02-05 16:22:55.858774+01 | 1486308175.85877 | pgbench_tellers  |            49152
 2017-02-05 16:22:55.858774+01 | 1486308175.85877 | pgbench_history  |        448290816
 2017-02-05 16:22:55.858774+01 | 1486308175.85877 | pgbench_branches |             8192

 2017-02-05 16:22:56.941166+01 | 1486308176.94117 | pgbench_accounts |       1383858176
 2017-02-05 16:22:56.941166+01 | 1486308176.94117 | pgbench_tellers  |            49152
 2017-02-05 16:22:56.941166+01 | 1486308176.94117 | pgbench_history  |        450961408
 2017-02-05 16:22:56.941166+01 | 1486308176.94117 | pgbench_branches |             8192

 2017-02-05 16:22:58.020619+01 | 1486308178.02062 | pgbench_accounts |       1383858176
 2017-02-05 16:22:58.020619+01 | 1486308178.02062 | pgbench_tellers  |            49152
 2017-02-05 16:22:58.020619+01 | 1486308178.02062 | pgbench_history  |        452485120
 2017-02-05 16:22:58.020619+01 | 1486308178.02062 | pgbench_branches |             8192

 2017-02-05 16:22:59.107909+01 | 1486308179.10791 | pgbench_accounts |       1383858176
 2017-02-05 16:22:59.107909+01 | 1486308179.10791 | pgbench_tellers  |            49152
 2017-02-05 16:22:59.107909+01 | 1486308179.10791 | pgbench_history  |        454688768
 2017-02-05 16:22:59.107909+01 | 1486308179.10791 | pgbench_branches |             8192

 2017-02-05 16:23:00.182173+01 | 1486308180.18217 | pgbench_accounts |       1383858176
 2017-02-05 16:23:00.182173+01 | 1486308180.18217 | pgbench_tellers  |            49152
 2017-02-05 16:23:00.182173+01 | 1486308180.18217 | pgbench_history  |        457850880
 2017-02-05 16:23:00.182173+01 | 1486308180.18217 | pgbench_branches |             8192

 2017-02-05 16:23:01.254083+01 | 1486308181.25408 | pgbench_accounts |       1383858176
 2017-02-05 16:23:01.254083+01 | 1486308181.25408 | pgbench_tellers  |            49152
 2017-02-05 16:23:01.254083+01 | 1486308181.25408 | pgbench_history  |        459513856
 2017-02-05 16:23:01.254083+01 | 1486308181.25408 | pgbench_branches |             8192

 2017-02-05 16:23:02.328546+01 | 1486308182.32855 | pgbench_accounts |       1383858176
 2017-02-05 16:23:02.328546+01 | 1486308182.32855 | pgbench_tellers  |            49152
 2017-02-05 16:23:02.328546+01 | 1486308182.32855 | pgbench_history  |        462536704
 2017-02-05 16:23:02.328546+01 | 1486308182.32855 | pgbench_branches |             8192

 2017-02-05 16:23:03.404163+01 | 1486308183.40416 | pgbench_accounts |       1383858176
 2017-02-05 16:23:03.404163+01 | 1486308183.40416 | pgbench_tellers  |            49152
 2017-02-05 16:23:03.404163+01 | 1486308183.40416 | pgbench_history  |        463380480
 2017-02-05 16:23:03.404163+01 | 1486308183.40416 | pgbench_branches |             8192

 2017-02-05 16:23:04.480125+01 | 1486308184.48012 | pgbench_accounts |       1383858176
 2017-02-05 16:23:04.480125+01 | 1486308184.48012 | pgbench_tellers  |            49152
 2017-02-05 16:23:04.480125+01 | 1486308184.48012 | pgbench_history  |        465559552
 2017-02-05 16:23:04.480125+01 | 1486308184.48012 | pgbench_branches |             8192

 2017-02-05 16:23:05.56257+01 | 1486308185.56257 | pgbench_accounts |       1383858176
 2017-02-05 16:23:05.56257+01 | 1486308185.56257 | pgbench_tellers  |            49152
 2017-02-05 16:23:05.56257+01 | 1486308185.56257 | pgbench_history  |        468090880
 2017-02-05 16:23:05.56257+01 | 1486308185.56257 | pgbench_branches |             8192

 2017-02-05 16:23:06.641332+01 | 1486308186.64133 | pgbench_accounts |       1383858176
 2017-02-05 16:23:06.641332+01 | 1486308186.64133 | pgbench_tellers  |            49152
 2017-02-05 16:23:06.641332+01 | 1486308186.64133 | pgbench_history  |        470106112
 2017-02-05 16:23:06.641332+01 | 1486308186.64133 | pgbench_branches |             8192

 2017-02-05 16:23:07.717885+01 | 1486308187.71789 | pgbench_accounts |       1383858176
 2017-02-05 16:23:07.717885+01 | 1486308187.71789 | pgbench_tellers  |            49152
 2017-02-05 16:23:07.717885+01 | 1486308187.71789 | pgbench_history  |        472522752
 2017-02-05 16:23:07.717885+01 | 1486308187.71789 | pgbench_branches |             8192

 2017-02-05 16:23:08.796375+01 | 1486308188.79638 | pgbench_accounts |       1383858176
 2017-02-05 16:23:08.796375+01 | 1486308188.79638 | pgbench_tellers  |            49152
 2017-02-05 16:23:08.796375+01 | 1486308188.79638 | pgbench_history  |        476037120
 2017-02-05 16:23:08.796375+01 | 1486308188.79638 | pgbench_branches |             8192

 2017-02-05 16:23:09.869739+01 | 1486308189.86974 | pgbench_accounts |       1383858176
 2017-02-05 16:23:09.869739+01 | 1486308189.86974 | pgbench_tellers  |            49152
 2017-02-05 16:23:09.869739+01 | 1486308189.86974 | pgbench_history  |        477700096
 2017-02-05 16:23:09.869739+01 | 1486308189.86974 | pgbench_branches |             8192

 2017-02-05 16:23:10.947838+01 | 1486308190.94784 | pgbench_accounts |       1383858176
 2017-02-05 16:23:10.947838+01 | 1486308190.94784 | pgbench_tellers  |            49152
 2017-02-05 16:23:10.947838+01 | 1486308190.94784 | pgbench_history  |        479059968
 2017-02-05 16:23:10.947838+01 | 1486308190.94784 | pgbench_branches |             8192

 2017-02-05 16:23:12.029927+01 | 1486308192.02993 | pgbench_accounts |       1383858176
 2017-02-05 16:23:12.029927+01 | 1486308192.02993 | pgbench_tellers  |            49152
 2017-02-05 16:23:12.029927+01 | 1486308192.02993 | pgbench_history  |        481968128
 2017-02-05 16:23:12.029927+01 | 1486308192.02993 | pgbench_branches |             8192

 2017-02-05 16:23:13.099256+01 | 1486308193.09926 | pgbench_accounts |       1383858176
 2017-02-05 16:23:13.099256+01 | 1486308193.09926 | pgbench_tellers  |            49152
 2017-02-05 16:23:13.099256+01 | 1486308193.09926 | pgbench_history  |        483688448
 2017-02-05 16:23:13.099256+01 | 1486308193.09926 | pgbench_branches |             8192

 2017-02-05 16:23:14.172146+01 | 1486308194.17215 | pgbench_accounts |       1383858176
 2017-02-05 16:23:14.172146+01 | 1486308194.17215 | pgbench_tellers  |            49152
 2017-02-05 16:23:14.172146+01 | 1486308194.17215 | pgbench_history  |        486416384
 2017-02-05 16:23:14.172146+01 | 1486308194.17215 | pgbench_branches |             8192

 2017-02-05 16:23:15.258179+01 | 1486308195.25818 | pgbench_accounts |       1383858176
 2017-02-05 16:23:15.258179+01 | 1486308195.25818 | pgbench_tellers  |            49152
 2017-02-05 16:23:15.258179+01 | 1486308195.25818 | pgbench_history  |        487964672
 2017-02-05 16:23:15.258179+01 | 1486308195.25818 | pgbench_branches |             8192

 2017-02-05 16:23:16.337297+01 | 1486308196.3373 | pgbench_accounts |       1383858176
 2017-02-05 16:23:16.337297+01 | 1486308196.3373 | pgbench_tellers  |            49152
 2017-02-05 16:23:16.337297+01 | 1486308196.3373 | pgbench_history  |        491454464
 2017-02-05 16:23:16.337297+01 | 1486308196.3373 | pgbench_branches |             8192

 2017-02-05 16:23:17.416984+01 | 1486308197.41698 | pgbench_accounts |       1383858176
 2017-02-05 16:23:17.416984+01 | 1486308197.41698 | pgbench_tellers  |            49152
 2017-02-05 16:23:17.416984+01 | 1486308197.41698 | pgbench_history  |        492650496
 2017-02-05 16:23:17.416984+01 | 1486308197.41698 | pgbench_branches |             8192

 2017-02-05 16:23:18.489208+01 | 1486308198.48921 | pgbench_accounts |       1383858176
 2017-02-05 16:23:18.489208+01 | 1486308198.48921 | pgbench_tellers  |            49152
 2017-02-05 16:23:18.489208+01 | 1486308198.48921 | pgbench_history  |        495558656
 2017-02-05 16:23:18.489208+01 | 1486308198.48921 | pgbench_branches |             8192

 2017-02-05 16:23:19.564944+01 | 1486308199.56494 | pgbench_accounts |       1383858176
 2017-02-05 16:23:19.564944+01 | 1486308199.56494 | pgbench_tellers  |            49152
 2017-02-05 16:23:19.564944+01 | 1486308199.56494 | pgbench_history  |        497598464
 2017-02-05 16:23:19.564944+01 | 1486308199.56494 | pgbench_branches |             8192

 2017-02-05 16:23:20.633195+01 | 1486308200.63319 | pgbench_accounts |       1383858176
 2017-02-05 16:23:20.633195+01 | 1486308200.63319 | pgbench_tellers  |            49152
 2017-02-05 16:23:20.633195+01 | 1486308200.63319 | pgbench_history  |        499851264
 2017-02-05 16:23:20.633195+01 | 1486308200.63319 | pgbench_branches |             8192

 2017-02-05 16:23:21.705436+01 | 1486308201.70544 | pgbench_accounts |       1383858176
 2017-02-05 16:23:21.705436+01 | 1486308201.70544 | pgbench_tellers  |            49152
 2017-02-05 16:23:21.705436+01 | 1486308201.70544 | pgbench_history  |        501702656
 2017-02-05 16:23:21.705436+01 | 1486308201.70544 | pgbench_branches |             8192

 2017-02-05 16:23:22.789375+01 | 1486308202.78938 | pgbench_accounts |       1383858176
 2017-02-05 16:23:22.789375+01 | 1486308202.78938 | pgbench_tellers  |            49152
 2017-02-05 16:23:22.789375+01 | 1486308202.78938 | pgbench_history  |        504700928
 2017-02-05 16:23:22.789375+01 | 1486308202.78938 | pgbench_branches |             8192

 2017-02-05 16:23:23.873925+01 | 1486308203.87392 | pgbench_accounts |       1383858176
 2017-02-05 16:23:23.873925+01 | 1486308203.87392 | pgbench_tellers  |            49152
 2017-02-05 16:23:23.873925+01 | 1486308203.87392 | pgbench_history  |        506200064
 2017-02-05 16:23:23.873925+01 | 1486308203.87392 | pgbench_branches |             8192

 2017-02-05 16:23:24.953835+01 | 1486308204.95384 | pgbench_accounts |       1383858176
 2017-02-05 16:23:24.953835+01 | 1486308204.95384 | pgbench_tellers  |            49152
 2017-02-05 16:23:24.953835+01 | 1486308204.95384 | pgbench_history  |        508542976
 2017-02-05 16:23:24.953835+01 | 1486308204.95384 | pgbench_branches |             8192

 2017-02-05 16:23:26.030831+01 | 1486308206.03083 | pgbench_accounts |       1383858176
 2017-02-05 16:23:26.030831+01 | 1486308206.03083 | pgbench_tellers  |            49152
 2017-02-05 16:23:26.030831+01 | 1486308206.03083 | pgbench_history  |        511451136
 2017-02-05 16:23:26.030831+01 | 1486308206.03083 | pgbench_branches |             8192

 2017-02-05 16:23:27.106457+01 | 1486308207.10646 | pgbench_accounts |       1383858176
 2017-02-05 16:23:27.106457+01 | 1486308207.10646 | pgbench_tellers  |            49152
 2017-02-05 16:23:27.106457+01 | 1486308207.10646 | pgbench_history  |        513490944
 2017-02-05 16:23:27.106457+01 | 1486308207.10646 | pgbench_branches |             8192

 2017-02-05 16:23:28.181072+01 | 1486308208.18107 | pgbench_accounts |       1383858176
 2017-02-05 16:23:28.181072+01 | 1486308208.18107 | pgbench_tellers  |            49152
 2017-02-05 16:23:28.181072+01 | 1486308208.18107 | pgbench_history  |        515317760
 2017-02-05 16:23:28.181072+01 | 1486308208.18107 | pgbench_branches |             8192

 2017-02-05 16:23:29.260966+01 | 1486308209.26097 | pgbench_accounts |       1383858176
 2017-02-05 16:23:29.260966+01 | 1486308209.26097 | pgbench_tellers  |            49152
 2017-02-05 16:23:29.260966+01 | 1486308209.26097 | pgbench_history  |        518012928
 2017-02-05 16:23:29.260966+01 | 1486308209.26097 | pgbench_branches |             8192

 2017-02-05 16:23:30.338516+01 | 1486308210.33852 | pgbench_accounts |       1383858176
 2017-02-05 16:23:30.338516+01 | 1486308210.33852 | pgbench_tellers  |            49152
 2017-02-05 16:23:30.338516+01 | 1486308210.33852 | pgbench_history  |        521691136
 2017-02-05 16:23:30.338516+01 | 1486308210.33852 | pgbench_branches |             8192

 2017-02-05 16:23:31.425891+01 | 1486308211.42589 | pgbench_accounts |       1383858176
 2017-02-05 16:23:31.425891+01 | 1486308211.42589 | pgbench_tellers  |            49152
 2017-02-05 16:23:31.425891+01 | 1486308211.42589 | pgbench_history  |        522371072
 2017-02-05 16:23:31.425891+01 | 1486308211.42589 | pgbench_branches |             8192

 2017-02-05 16:23:32.498482+01 | 1486308212.49848 | pgbench_accounts |       1383858176
 2017-02-05 16:23:32.498482+01 | 1486308212.49848 | pgbench_tellers  |            49152
 2017-02-05 16:23:32.498482+01 | 1486308212.49848 | pgbench_history  |        524550144
 2017-02-05 16:23:32.498482+01 | 1486308212.49848 | pgbench_branches |             8192

 2017-02-05 16:23:33.577303+01 | 1486308213.5773 | pgbench_accounts |       1383858176
 2017-02-05 16:23:33.577303+01 | 1486308213.5773 | pgbench_tellers  |            49152
 2017-02-05 16:23:33.577303+01 | 1486308213.5773 | pgbench_history  |        526778368
 2017-02-05 16:23:33.577303+01 | 1486308213.5773 | pgbench_branches |             8192

 2017-02-05 16:23:34.655235+01 | 1486308214.65524 | pgbench_accounts |       1383858176
 2017-02-05 16:23:34.655235+01 | 1486308214.65524 | pgbench_tellers  |            49152
 2017-02-05 16:23:34.655235+01 | 1486308214.65524 | pgbench_history  |        529686528
 2017-02-05 16:23:34.655235+01 | 1486308214.65524 | pgbench_branches |             8192

 2017-02-05 16:23:35.726622+01 | 1486308215.72662 | pgbench_accounts |       1383858176
 2017-02-05 16:23:35.726622+01 | 1486308215.72662 | pgbench_tellers  |            49152
 2017-02-05 16:23:35.726622+01 | 1486308215.72662 | pgbench_history  |        531374080
 2017-02-05 16:23:35.726622+01 | 1486308215.72662 | pgbench_branches |             8192

 2017-02-05 16:23:36.804399+01 | 1486308216.8044 | pgbench_accounts |       1383858176
 2017-02-05 16:23:36.804399+01 | 1486308216.8044 | pgbench_tellers  |            49152
 2017-02-05 16:23:36.804399+01 | 1486308216.8044 | pgbench_history  |        533905408
 2017-02-05 16:23:36.804399+01 | 1486308216.8044 | pgbench_branches |             8192

 2017-02-05 16:23:37.883657+01 | 1486308217.88366 | pgbench_accounts |       1383858176
 2017-02-05 16:23:37.883657+01 | 1486308217.88366 | pgbench_tellers  |            49152
 2017-02-05 16:23:37.883657+01 | 1486308217.88366 | pgbench_history  |        535945216
 2017-02-05 16:23:37.883657+01 | 1486308217.88366 | pgbench_branches |             8192

 2017-02-05 16:23:38.953485+01 | 1486308218.95349 | pgbench_accounts |       1383858176
 2017-02-05 16:23:38.953485+01 | 1486308218.95349 | pgbench_tellers  |            49152
 2017-02-05 16:23:38.953485+01 | 1486308218.95349 | pgbench_history  |        538320896
 2017-02-05 16:23:38.953485+01 | 1486308218.95349 | pgbench_branches |             8192

 2017-02-05 16:23:40.028536+01 | 1486308220.02854 | pgbench_accounts |       1383858176
 2017-02-05 16:23:40.028536+01 | 1486308220.02854 | pgbench_tellers  |            49152
 2017-02-05 16:23:40.028536+01 | 1486308220.02854 | pgbench_history  |        540188672
 2017-02-05 16:23:40.028536+01 | 1486308220.02854 | pgbench_branches |             8192

 2017-02-05 16:23:41.10512+01 | 1486308221.10512 | pgbench_accounts |       1383858176
 2017-02-05 16:23:41.10512+01 | 1486308221.10512 | pgbench_tellers  |            49152
 2017-02-05 16:23:41.10512+01 | 1486308221.10512 | pgbench_history  |        543457280
 2017-02-05 16:23:41.10512+01 | 1486308221.10512 | pgbench_branches |             8192

 2017-02-05 16:23:42.184359+01 | 1486308222.18436 | pgbench_accounts |       1383858176
 2017-02-05 16:23:42.184359+01 | 1486308222.18436 | pgbench_tellers  |            49152
 2017-02-05 16:23:42.184359+01 | 1486308222.18436 | pgbench_history  |        545333248
 2017-02-05 16:23:42.184359+01 | 1486308222.18436 | pgbench_branches |             8192

 2017-02-05 16:23:43.266164+01 | 1486308223.26616 | pgbench_accounts |       1383858176
 2017-02-05 16:23:43.266164+01 | 1486308223.26616 | pgbench_tellers  |            49152
 2017-02-05 16:23:43.266164+01 | 1486308223.26616 | pgbench_history  |        547184640
 2017-02-05 16:23:43.266164+01 | 1486308223.26616 | pgbench_branches |             8192

 2017-02-05 16:23:44.346028+01 | 1486308224.34603 | pgbench_accounts |       1383858176
 2017-02-05 16:23:44.346028+01 | 1486308224.34603 | pgbench_tellers  |            49152
 2017-02-05 16:23:44.346028+01 | 1486308224.34603 | pgbench_history  |        550428672
 2017-02-05 16:23:44.346028+01 | 1486308224.34603 | pgbench_branches |             8192

 2017-02-05 16:23:45.421621+01 | 1486308225.42162 | pgbench_accounts |       1383858176
 2017-02-05 16:23:45.421621+01 | 1486308225.42162 | pgbench_tellers  |            49152
 2017-02-05 16:23:45.421621+01 | 1486308225.42162 | pgbench_history  |        552157184
 2017-02-05 16:23:45.421621+01 | 1486308225.42162 | pgbench_branches |             8192

 2017-02-05 16:23:46.491675+01 | 1486308226.49167 | pgbench_accounts |       1383858176
 2017-02-05 16:23:46.491675+01 | 1486308226.49167 | pgbench_tellers  |            49152
 2017-02-05 16:23:46.491675+01 | 1486308226.49167 | pgbench_history  |        554688512
 2017-02-05 16:23:46.491675+01 | 1486308226.49167 | pgbench_branches |             8192

 2017-02-05 16:23:47.566742+01 | 1486308227.56674 | pgbench_accounts |       1383858176
 2017-02-05 16:23:47.566742+01 | 1486308227.56674 | pgbench_tellers  |            49152
 2017-02-05 16:23:47.566742+01 | 1486308227.56674 | pgbench_history  |        556408832
 2017-02-05 16:23:47.566742+01 | 1486308227.56674 | pgbench_branches |             8192

 2017-02-05 16:23:48.638563+01 | 1486308228.63856 | pgbench_accounts |       1383858176
 2017-02-05 16:23:48.638563+01 | 1486308228.63856 | pgbench_tellers  |            49152
 2017-02-05 16:23:48.638563+01 | 1486308228.63856 | pgbench_history  |        558612480
 2017-02-05 16:23:48.638563+01 | 1486308228.63856 | pgbench_branches |             8192

 2017-02-05 16:23:49.718238+01 | 1486308229.71824 | pgbench_accounts |       1383858176
 2017-02-05 16:23:49.718238+01 | 1486308229.71824 | pgbench_tellers  |            49152
 2017-02-05 16:23:49.718238+01 | 1486308229.71824 | pgbench_history  |        561831936
 2017-02-05 16:23:49.718238+01 | 1486308229.71824 | pgbench_branches |             8192

 2017-02-05 16:23:50.794917+01 | 1486308230.79492 | pgbench_accounts |       1383858176
 2017-02-05 16:23:50.794917+01 | 1486308230.79492 | pgbench_tellers  |            49152
 2017-02-05 16:23:50.794917+01 | 1486308230.79492 | pgbench_history  |        563519488
 2017-02-05 16:23:50.794917+01 | 1486308230.79492 | pgbench_branches |             8192

 2017-02-05 16:23:51.877977+01 | 1486308231.87798 | pgbench_accounts |       1383858176
 2017-02-05 16:23:51.877977+01 | 1486308231.87798 | pgbench_tellers  |            49152
 2017-02-05 16:23:51.877977+01 | 1486308231.87798 | pgbench_history  |        566378496
 2017-02-05 16:23:51.877977+01 | 1486308231.87798 | pgbench_branches |             8192

 2017-02-05 16:23:52.957755+01 | 1486308232.95776 | pgbench_accounts |       1383858176
 2017-02-05 16:23:52.957755+01 | 1486308232.95776 | pgbench_tellers  |            49152
 2017-02-05 16:23:52.957755+01 | 1486308232.95776 | pgbench_history  |        568557568
 2017-02-05 16:23:52.957755+01 | 1486308232.95776 | pgbench_branches |             8192

 2017-02-05 16:23:54.032965+01 | 1486308234.03296 | pgbench_accounts |       1383858176
 2017-02-05 16:23:54.032965+01 | 1486308234.03296 | pgbench_tellers  |            49152
 2017-02-05 16:23:54.032965+01 | 1486308234.03296 | pgbench_history  |        570802176
 2017-02-05 16:23:54.032965+01 | 1486308234.03296 | pgbench_branches |             8192

 2017-02-05 16:23:55.1044+01 | 1486308235.1044 | pgbench_accounts |       1383858176
 2017-02-05 16:23:55.1044+01 | 1486308235.1044 | pgbench_tellers  |            49152
 2017-02-05 16:23:55.1044+01 | 1486308235.1044 | pgbench_history  |        573005824
 2017-02-05 16:23:55.1044+01 | 1486308235.1044 | pgbench_branches |             8192

 2017-02-05 16:23:56.179451+01 | 1486308236.17945 | pgbench_accounts |       1383858176
 2017-02-05 16:23:56.179451+01 | 1486308236.17945 | pgbench_tellers  |            49152
 2017-02-05 16:23:56.179451+01 | 1486308236.17945 | pgbench_history  |        574726144
 2017-02-05 16:23:56.179451+01 | 1486308236.17945 | pgbench_branches |             8192

 2017-02-05 16:23:57.25662+01 | 1486308237.25662 | pgbench_accounts |       1383858176
 2017-02-05 16:23:57.25662+01 | 1486308237.25662 | pgbench_tellers  |            49152
 2017-02-05 16:23:57.25662+01 | 1486308237.25662 | pgbench_history  |        577609728
 2017-02-05 16:23:57.25662+01 | 1486308237.25662 | pgbench_branches |             8192

 2017-02-05 16:23:58.331574+01 | 1486308238.33157 | pgbench_accounts |       1383858176
 2017-02-05 16:23:58.331574+01 | 1486308238.33157 | pgbench_tellers  |            49152
 2017-02-05 16:23:58.331574+01 | 1486308238.33157 | pgbench_history  |        579813376
 2017-02-05 16:23:58.331574+01 | 1486308238.33157 | pgbench_branches |             8192

 2017-02-05 16:23:59.408186+01 | 1486308239.40819 | pgbench_accounts |       1383858176
 2017-02-05 16:23:59.408186+01 | 1486308239.40819 | pgbench_tellers  |            49152
 2017-02-05 16:23:59.408186+01 | 1486308239.40819 | pgbench_history  |        582164480
 2017-02-05 16:23:59.408186+01 | 1486308239.40819 | pgbench_branches |             8192

 2017-02-05 16:24:00.47897+01 | 1486308240.47897 | pgbench_accounts |       1383858176
 2017-02-05 16:24:00.47897+01 | 1486308240.47897 | pgbench_tellers  |            49152
 2017-02-05 16:24:00.47897+01 | 1486308240.47897 | pgbench_history  |        583892992
 2017-02-05 16:24:00.47897+01 | 1486308240.47897 | pgbench_branches |             8192

 2017-02-05 16:24:01.550603+01 | 1486308241.5506 | pgbench_accounts |       1383858176
 2017-02-05 16:24:01.550603+01 | 1486308241.5506 | pgbench_tellers  |            49152
 2017-02-05 16:24:01.550603+01 | 1486308241.5506 | pgbench_history  |        586260480
 2017-02-05 16:24:01.550603+01 | 1486308241.5506 | pgbench_branches |             8192

 2017-02-05 16:24:02.630989+01 | 1486308242.63099 | pgbench_accounts |       1383858176
 2017-02-05 16:24:02.630989+01 | 1486308242.63099 | pgbench_tellers  |            49152
 2017-02-05 16:24:02.630989+01 | 1486308242.63099 | pgbench_history  |        588627968
 2017-02-05 16:24:02.630989+01 | 1486308242.63099 | pgbench_branches |             8192

 2017-02-05 16:24:03.711061+01 | 1486308243.71106 | pgbench_accounts |       1383858176
 2017-02-05 16:24:03.711061+01 | 1486308243.71106 | pgbench_tellers  |            49152
 2017-02-05 16:24:03.711061+01 | 1486308243.71106 | pgbench_history  |        591347712
 2017-02-05 16:24:03.711061+01 | 1486308243.71106 | pgbench_branches |             8192

 2017-02-05 16:24:04.791868+01 | 1486308244.79187 | pgbench_accounts |       1383858176
 2017-02-05 16:24:04.791868+01 | 1486308244.79187 | pgbench_tellers  |            49152
 2017-02-05 16:24:04.791868+01 | 1486308244.79187 | pgbench_history  |        593690624
 2017-02-05 16:24:04.791868+01 | 1486308244.79187 | pgbench_branches |             8192

 2017-02-05 16:24:05.876228+01 | 1486308245.87623 | pgbench_accounts |       1383858176
 2017-02-05 16:24:05.876228+01 | 1486308245.87623 | pgbench_tellers  |            49152
 2017-02-05 16:24:05.876228+01 | 1486308245.87623 | pgbench_history  |        595681280
 2017-02-05 16:24:05.876228+01 | 1486308245.87623 | pgbench_branches |             8192

 2017-02-05 16:24:06.954527+01 | 1486308246.95453 | pgbench_accounts |       1383858176
 2017-02-05 16:24:06.954527+01 | 1486308246.95453 | pgbench_tellers  |            49152
 2017-02-05 16:24:06.954527+01 | 1486308246.95453 | pgbench_history  |        597893120
 2017-02-05 16:24:06.954527+01 | 1486308246.95453 | pgbench_branches |             8192

 2017-02-05 16:24:08.032674+01 | 1486308248.03267 | pgbench_accounts |       1383858176
 2017-02-05 16:24:08.032674+01 | 1486308248.03267 | pgbench_tellers  |            49152
 2017-02-05 16:24:08.032674+01 | 1486308248.03267 | pgbench_history  |        600285184
 2017-02-05 16:24:08.032674+01 | 1486308248.03267 | pgbench_branches |             8192

 2017-02-05 16:24:09.111492+01 | 1486308249.11149 | pgbench_accounts |       1383858176
 2017-02-05 16:24:09.111492+01 | 1486308249.11149 | pgbench_tellers  |            49152
 2017-02-05 16:24:09.111492+01 | 1486308249.11149 | pgbench_history  |        602677248
 2017-02-05 16:24:09.111492+01 | 1486308249.11149 | pgbench_branches |             8192

 2017-02-05 16:24:10.194539+01 | 1486308250.19454 | pgbench_accounts |       1383858176
 2017-02-05 16:24:10.194539+01 | 1486308250.19454 | pgbench_tellers  |            49152
 2017-02-05 16:24:10.194539+01 | 1486308250.19454 | pgbench_history  |        606683136
 2017-02-05 16:24:10.194539+01 | 1486308250.19454 | pgbench_branches |             8192

 2017-02-05 16:24:11.275296+01 | 1486308251.2753 | pgbench_accounts |       1383858176
 2017-02-05 16:24:11.275296+01 | 1486308251.2753 | pgbench_tellers  |            49152
 2017-02-05 16:24:11.275296+01 | 1486308251.2753 | pgbench_history  |        607199232
 2017-02-05 16:24:11.275296+01 | 1486308251.2753 | pgbench_branches |             8192

 2017-02-05 16:24:12.351479+01 | 1486308252.35148 | pgbench_accounts |       1383858176
 2017-02-05 16:24:12.351479+01 | 1486308252.35148 | pgbench_tellers  |            49152
 2017-02-05 16:24:12.351479+01 | 1486308252.35148 | pgbench_history  |        609894400
 2017-02-05 16:24:12.351479+01 | 1486308252.35148 | pgbench_branches |             8192

 2017-02-05 16:24:13.417133+01 | 1486308253.41713 | pgbench_accounts |       1383858176
 2017-02-05 16:24:13.417133+01 | 1486308253.41713 | pgbench_tellers  |            49152
 2017-02-05 16:24:13.417133+01 | 1486308253.41713 | pgbench_history  |        612098048
 2017-02-05 16:24:13.417133+01 | 1486308253.41713 | pgbench_branches |             8192

 2017-02-05 16:24:14.490673+01 | 1486308254.49067 | pgbench_accounts |       1383858176
 2017-02-05 16:24:14.490673+01 | 1486308254.49067 | pgbench_tellers  |            49152
 2017-02-05 16:24:14.490673+01 | 1486308254.49067 | pgbench_history  |        614498304
 2017-02-05 16:24:14.490673+01 | 1486308254.49067 | pgbench_branches |             8192

 2017-02-05 16:24:15.568835+01 | 1486308255.56884 | pgbench_accounts |       1383858176
 2017-02-05 16:24:15.568835+01 | 1486308255.56884 | pgbench_tellers  |            49152
 2017-02-05 16:24:15.568835+01 | 1486308255.56884 | pgbench_history  |        616701952
 2017-02-05 16:24:15.568835+01 | 1486308255.56884 | pgbench_branches |             8192

 2017-02-05 16:24:16.644711+01 | 1486308256.64471 | pgbench_accounts |       1383858176
 2017-02-05 16:24:16.644711+01 | 1486308256.64471 | pgbench_tellers  |            49152
 2017-02-05 16:24:16.644711+01 | 1486308256.64471 | pgbench_history  |        619397120
 2017-02-05 16:24:16.644711+01 | 1486308256.64471 | pgbench_branches |             8192

 2017-02-05 16:24:17.727589+01 | 1486308257.72759 | pgbench_accounts |       1383858176
 2017-02-05 16:24:17.727589+01 | 1486308257.72759 | pgbench_tellers  |            49152
 2017-02-05 16:24:17.727589+01 | 1486308257.72759 | pgbench_history  |        622419968
 2017-02-05 16:24:17.727589+01 | 1486308257.72759 | pgbench_branches |             8192

 2017-02-05 16:24:18.802488+01 | 1486308258.80249 | pgbench_accounts |       1383858176
 2017-02-05 16:24:18.802488+01 | 1486308258.80249 | pgbench_tellers  |            49152
 2017-02-05 16:24:18.802488+01 | 1486308258.80249 | pgbench_history  |        623837184
 2017-02-05 16:24:18.802488+01 | 1486308258.80249 | pgbench_branches |             8192

 2017-02-05 16:24:19.881877+01 | 1486308259.88188 | pgbench_accounts |       1383858176
 2017-02-05 16:24:19.881877+01 | 1486308259.88188 | pgbench_tellers  |            49152
 2017-02-05 16:24:19.881877+01 | 1486308259.88188 | pgbench_history  |        626016256
 2017-02-05 16:24:19.881877+01 | 1486308259.88188 | pgbench_branches |             8192

