 2017-02-03 20:37:07.579435+01 | 1486150627.57944 | 3/1B11388                |           12913283976

 2017-02-03 20:37:08.651395+01 | 1486150628.6514 | 3/1B11388                |           12913283976

 2017-02-03 20:37:09.732609+01 | 1486150629.73261 | 3/1B11388                |           12913283976

 2017-02-03 20:37:10.821237+01 | 1486150630.82124 | 3/1B11388                |           12913283976

 2017-02-03 20:37:11.897969+01 | 1486150631.89797 | 3/1B11388                |           12913283976

 2017-02-03 20:37:12.976693+01 | 1486150632.97669 | 3/1B11388                |           12913283976

 2017-02-03 20:37:14.065546+01 | 1486150634.06555 | 3/1B11388                |           12913283976

 2017-02-03 20:37:15.161251+01 | 1486150635.16125 | 3/1B11388                |           12913283976

 2017-02-03 20:37:16.238596+01 | 1486150636.2386 | 3/1B11388                |           12913283976

 2017-02-03 20:37:17.319296+01 | 1486150637.3193 | 3/1B11388                |           12913283976

 2017-02-03 20:37:18.39941+01 | 1486150638.39941 | 3/1B11388                |           12913283976

 2017-02-03 20:37:19.48422+01 | 1486150639.48422 | 3/1B11388                |           12913283976

 2017-02-03 20:37:20.566568+01 | 1486150640.56657 | 3/1B11388                |           12913283976

 2017-02-03 20:37:21.645316+01 | 1486150641.64532 | 3/1B11388                |           12913283976

 2017-02-03 20:37:22.716497+01 | 1486150642.7165 | 3/1B11388                |           12913283976

 2017-02-03 20:37:23.799483+01 | 1486150643.79948 | 3/1B11388                |           12913283976

 2017-02-03 20:37:24.882641+01 | 1486150644.88264 | 3/1B11388                |           12913283976

 2017-02-03 20:37:25.959944+01 | 1486150645.95994 | 3/1B11388                |           12913283976

 2017-02-03 20:37:27.037394+01 | 1486150647.03739 | 3/1B11388                |           12913283976

 2017-02-03 20:37:28.111717+01 | 1486150648.11172 | 3/1B11388                |           12913283976

 2017-02-03 20:37:29.19386+01 | 1486150649.19386 | 3/1B11388                |           12913283976

 2017-02-03 20:37:30.277667+01 | 1486150650.27767 | 3/1B11388                |           12913283976

 2017-02-03 20:37:31.35316+01 | 1486150651.35316 | 3/1B11388                |           12913283976

 2017-02-03 20:37:32.440613+01 | 1486150652.44061 | 3/1B11388                |           12913283976

 2017-02-03 20:37:33.517246+01 | 1486150653.51725 | 3/1B11388                |           12913283976

 2017-02-03 20:37:34.606101+01 | 1486150654.6061 | 3/1B11388                |           12913283976

 2017-02-03 20:37:35.689101+01 | 1486150655.6891 | 3/1B11388                |           12913283976

 2017-02-03 20:37:36.76634+01 | 1486150656.76634 | 3/1B11388                |           12913283976

 2017-02-03 20:37:37.849887+01 | 1486150657.84989 | 3/1B11388                |           12913283976

 2017-02-03 20:37:38.928177+01 | 1486150658.92818 | 3/1B11388                |           12913283976

 2017-02-03 20:37:40.015021+01 | 1486150660.01502 | 3/1B11388                |           12913283976

 2017-02-03 20:37:41.101058+01 | 1486150661.10106 | 3/1B11388                |           12913283976

 2017-02-03 20:37:42.1882+01 | 1486150662.1882 | 3/1B11388                |           12913283976

 2017-02-03 20:37:43.265201+01 | 1486150663.2652 | 3/1B11388                |           12913283976

 2017-02-03 20:37:44.342515+01 | 1486150664.34251 | 3/1B11388                |           12913283976

 2017-02-03 20:37:45.408013+01 | 1486150665.40801 | 3/1B11388                |           12913283976

 2017-02-03 20:37:46.484473+01 | 1486150666.48447 | 3/1B11388                |           12913283976

 2017-02-03 20:37:47.564386+01 | 1486150667.56439 | 3/1B11388                |           12913283976

 2017-02-03 20:37:48.640095+01 | 1486150668.64009 | 3/1B11388                |           12913283976

 2017-02-03 20:37:49.728301+01 | 1486150669.7283 | 3/1B11388                |           12913283976

 2017-02-03 20:37:50.806799+01 | 1486150670.8068 | 3/1B11388                |           12913283976

 2017-02-03 20:37:51.889298+01 | 1486150671.8893 | 3/1B11388                |           12913283976

 2017-02-03 20:37:52.966391+01 | 1486150672.96639 | 3/1B11388                |           12913283976

 2017-02-03 20:37:54.047558+01 | 1486150674.04756 | 3/1B11388                |           12913283976

 2017-02-03 20:37:55.129713+01 | 1486150675.12971 | 3/1B11388                |           12913283976

 2017-02-03 20:37:56.207761+01 | 1486150676.20776 | 3/1B11388                |           12913283976

 2017-02-03 20:37:57.2899+01 | 1486150677.2899 | 3/1B11388                |           12913283976

 2017-02-03 20:37:58.379078+01 | 1486150678.37908 | 3/1B11388                |           12913283976

 2017-02-03 20:37:59.454835+01 | 1486150679.45483 | 3/1B11388                |           12913283976

 2017-02-03 20:38:00.531182+01 | 1486150680.53118 | 3/1B11388                |           12913283976

 2017-02-03 20:38:01.617518+01 | 1486150681.61752 | 3/1B11388                |           12913283976

 2017-02-03 20:38:02.692581+01 | 1486150682.69258 | 3/1B11388                |           12913283976

 2017-02-03 20:38:03.774818+01 | 1486150683.77482 | 3/1B11388                |           12913283976

 2017-02-03 20:38:04.84864+01 | 1486150684.84864 | 3/1B11388                |           12913283976

 2017-02-03 20:38:05.923409+01 | 1486150685.92341 | 3/1B11388                |           12913283976

 2017-02-03 20:38:07.00285+01 | 1486150687.00285 | 3/1B11388                |           12913283976

 2017-02-03 20:38:08.082108+01 | 1486150688.08211 | 3/1B11388                |           12913283976

 2017-02-03 20:38:09.160516+01 | 1486150689.16052 | 3/1B11388                |           12913283976

 2017-02-03 20:38:10.247738+01 | 1486150690.24774 | 3/1B11388                |           12913283976

 2017-02-03 20:38:11.326386+01 | 1486150691.32639 | 3/1B11388                |           12913283976

 2017-02-03 20:38:12.403822+01 | 1486150692.40382 | 3/1B11388                |           12913283976

 2017-02-03 20:38:13.48078+01 | 1486150693.48078 | 3/1B11388                |           12913283976

 2017-02-03 20:38:14.557538+01 | 1486150694.55754 | 3/1B11388                |           12913283976

 2017-02-03 20:38:15.646557+01 | 1486150695.64656 | 3/1B11388                |           12913283976

 2017-02-03 20:38:16.715488+01 | 1486150696.71549 | 3/1B11388                |           12913283976

 2017-02-03 20:38:17.793991+01 | 1486150697.79399 | 3/1B11388                |           12913283976

 2017-02-03 20:38:18.873589+01 | 1486150698.87359 | 3/1B11388                |           12913283976

 2017-02-03 20:38:19.956591+01 | 1486150699.95659 | 3/1B11388                |           12913283976

 2017-02-03 20:38:21.034779+01 | 1486150701.03478 | 3/1B11388                |           12913283976

 2017-02-03 20:38:22.116082+01 | 1486150702.11608 | 3/1B11388                |           12913283976

 2017-02-03 20:38:23.191355+01 | 1486150703.19135 | 3/1B11388                |           12913283976

 2017-02-03 20:38:24.268549+01 | 1486150704.26855 | 3/1B11388                |           12913283976

 2017-02-03 20:38:25.349696+01 | 1486150705.3497 | 3/1B11388                |           12913283976

 2017-02-03 20:38:26.424118+01 | 1486150706.42412 | 3/1B11388                |           12913283976

 2017-02-03 20:38:27.501988+01 | 1486150707.50199 | 3/1B11388                |           12913283976

 2017-02-03 20:38:28.584278+01 | 1486150708.58428 | 3/1B11388                |           12913283976

 2017-02-03 20:38:29.660533+01 | 1486150709.66053 | 3/1B11388                |           12913283976

 2017-02-03 20:38:30.736952+01 | 1486150710.73695 | 3/1B11388                |           12913283976

 2017-02-03 20:38:31.816619+01 | 1486150711.81662 | 3/1B11388                |           12913283976

 2017-02-03 20:38:32.90119+01 | 1486150712.90119 | 3/1B11388                |           12913283976

 2017-02-03 20:38:33.980735+01 | 1486150713.98074 | 3/1B11388                |           12913283976

 2017-02-03 20:38:35.058835+01 | 1486150715.05884 | 3/1B11388                |           12913283976

 2017-02-03 20:38:36.141346+01 | 1486150716.14135 | 3/1B11388                |           12913283976

 2017-02-03 20:38:37.226716+01 | 1486150717.22672 | 3/1B11388                |           12913283976

 2017-02-03 20:38:38.314071+01 | 1486150718.31407 | 3/1B11388                |           12913283976

 2017-02-03 20:38:39.391788+01 | 1486150719.39179 | 3/1B11388                |           12913283976

 2017-02-03 20:38:40.471386+01 | 1486150720.47139 | 3/1B11388                |           12913283976

 2017-02-03 20:38:41.550991+01 | 1486150721.55099 | 3/1B11388                |           12913283976

 2017-02-03 20:38:42.615236+01 | 1486150722.61524 | 3/1B11388                |           12913283976

 2017-02-03 20:38:43.695817+01 | 1486150723.69582 | 3/1B11388                |           12913283976

 2017-02-03 20:38:44.780792+01 | 1486150724.78079 | 3/1B11388                |           12913283976

 2017-02-03 20:38:45.867281+01 | 1486150725.86728 | 3/1B11388                |           12913283976

 2017-02-03 20:38:46.940107+01 | 1486150726.94011 | 3/1B11388                |           12913283976

 2017-02-03 20:38:48.024161+01 | 1486150728.02416 | 3/1B11388                |           12913283976

 2017-02-03 20:38:49.099797+01 | 1486150729.0998 | 3/1B11388                |           12913283976

 2017-02-03 20:38:50.1794+01 | 1486150730.1794 | 3/1B11388                |           12913283976

 2017-02-03 20:38:51.270025+01 | 1486150731.27003 | 3/1B11388                |           12913283976

 2017-02-03 20:38:52.351293+01 | 1486150732.35129 | 3/1B11388                |           12913283976

 2017-02-03 20:38:53.433753+01 | 1486150733.43375 | 3/1B11388                |           12913283976

 2017-02-03 20:38:54.506876+01 | 1486150734.50688 | 3/1B11388                |           12913283976

 2017-02-03 20:38:55.596581+01 | 1486150735.59658 | 3/1B11388                |           12913283976

 2017-02-03 20:38:56.681747+01 | 1486150736.68175 | 3/1B11388                |           12913283976

 2017-02-03 20:38:57.761789+01 | 1486150737.76179 | 3/1B11388                |           12913283976

 2017-02-03 20:38:58.840989+01 | 1486150738.84099 | 3/1B11388                |           12913283976

 2017-02-03 20:38:59.920597+01 | 1486150739.9206 | 3/1B11388                |           12913283976

 2017-02-03 20:39:01.00466+01 | 1486150741.00466 | 3/1B11388                |           12913283976

 2017-02-03 20:39:02.079211+01 | 1486150742.07921 | 3/1B11388                |           12913283976

 2017-02-03 20:39:03.158475+01 | 1486150743.15847 | 3/1B11388                |           12913283976

 2017-02-03 20:39:04.238187+01 | 1486150744.23819 | 3/1B11388                |           12913283976

 2017-02-03 20:39:05.323551+01 | 1486150745.32355 | 3/1B11388                |           12913283976

 2017-02-03 20:39:06.407737+01 | 1486150746.40774 | 3/1B11388                |           12913283976

 2017-02-03 20:39:07.484999+01 | 1486150747.485 | 3/1B11388                |           12913283976

 2017-02-03 20:39:08.561431+01 | 1486150748.56143 | 3/1B11388                |           12913283976

 2017-02-03 20:39:09.646593+01 | 1486150749.64659 | 3/1B11388                |           12913283976

 2017-02-03 20:39:10.730076+01 | 1486150750.73008 | 3/1B11388                |           12913283976

 2017-02-03 20:39:11.810712+01 | 1486150751.81071 | 3/1B11388                |           12913283976

 2017-02-03 20:39:12.887408+01 | 1486150752.88741 | 3/1B11388                |           12913283976

 2017-02-03 20:39:13.963124+01 | 1486150753.96312 | 3/1B11388                |           12913283976

 2017-02-03 20:39:15.037521+01 | 1486150755.03752 | 3/1B11388                |           12913283976

 2017-02-03 20:39:16.111657+01 | 1486150756.11166 | 3/1B11388                |           12913283976

 2017-02-03 20:39:17.191388+01 | 1486150757.19139 | 3/1B11388                |           12913283976

 2017-02-03 20:39:18.268549+01 | 1486150758.26855 | 3/1B11388                |           12913283976

 2017-02-03 20:39:19.35029+01 | 1486150759.35029 | 3/1B11388                |           12913283976

 2017-02-03 20:39:20.429962+01 | 1486150760.42996 | 3/1B11388                |           12913283976

 2017-02-03 20:39:21.514413+01 | 1486150761.51441 | 3/1B11388                |           12913283976

 2017-02-03 20:39:22.580516+01 | 1486150762.58052 | 3/1B11388                |           12913283976

 2017-02-03 20:39:23.665136+01 | 1486150763.66514 | 3/1B11388                |           12913283976

 2017-02-03 20:39:24.746944+01 | 1486150764.74694 | 3/1B11388                |           12913283976

 2017-02-03 20:39:25.823752+01 | 1486150765.82375 | 3/1B11388                |           12913283976

 2017-02-03 20:39:26.912918+01 | 1486150766.91292 | 3/1B11388                |           12913283976

 2017-02-03 20:39:27.991583+01 | 1486150767.99158 | 3/1B11388                |           12913283976

 2017-02-03 20:39:29.074447+01 | 1486150769.07445 | 3/1B11388                |           12913283976

 2017-02-03 20:39:30.153955+01 | 1486150770.15395 | 3/1B11388                |           12913283976

 2017-02-03 20:39:31.243766+01 | 1486150771.24377 | 3/1B11388                |           12913283976

 2017-02-03 20:39:32.32121+01 | 1486150772.32121 | 3/1B11388                |           12913283976

 2017-02-03 20:39:33.400213+01 | 1486150773.40021 | 3/1B11388                |           12913283976

 2017-02-03 20:39:34.481888+01 | 1486150774.48189 | 3/1B11388                |           12913283976

 2017-02-03 20:39:35.561991+01 | 1486150775.56199 | 3/1B11388                |           12913283976

 2017-02-03 20:39:36.633131+01 | 1486150776.63313 | 3/1B11388                |           12913283976

 2017-02-03 20:39:37.717536+01 | 1486150777.71754 | 3/1B11388                |           12913283976

 2017-02-03 20:39:38.787418+01 | 1486150778.78742 | 3/1B11388                |           12913283976

 2017-02-03 20:39:39.877095+01 | 1486150779.87709 | 3/1B11388                |           12913283976

 2017-02-03 20:39:40.958451+01 | 1486150780.95845 | 3/1B11388                |           12913283976

 2017-02-03 20:39:42.037047+01 | 1486150782.03705 | 3/1B11388                |           12913283976

 2017-02-03 20:39:43.111956+01 | 1486150783.11196 | 3/1B11388                |           12913283976

 2017-02-03 20:39:44.205388+01 | 1486150784.20539 | 3/1B11388                |           12913283976

 2017-02-03 20:39:45.288234+01 | 1486150785.28823 | 3/1B11388                |           12913283976

 2017-02-03 20:39:46.362783+01 | 1486150786.36278 | 3/1B11388                |           12913283976

 2017-02-03 20:39:47.439139+01 | 1486150787.43914 | 3/1B11388                |           12913283976

 2017-02-03 20:39:48.522164+01 | 1486150788.52216 | 3/1B11388                |           12913283976

 2017-02-03 20:39:49.601046+01 | 1486150789.60105 | 3/1B11388                |           12913283976

 2017-02-03 20:39:50.674862+01 | 1486150790.67486 | 3/1B11388                |           12913283976

 2017-02-03 20:39:51.748661+01 | 1486150791.74866 | 3/1B11388                |           12913283976

 2017-02-03 20:39:52.824768+01 | 1486150792.82477 | 3/1B11388                |           12913283976

 2017-02-03 20:39:53.897717+01 | 1486150793.89772 | 3/1B11388                |           12913283976

 2017-02-03 20:39:54.971211+01 | 1486150794.97121 | 3/1B11388                |           12913283976

 2017-02-03 20:39:56.04527+01 | 1486150796.04527 | 3/1B11388                |           12913283976

 2017-02-03 20:39:57.122336+01 | 1486150797.12234 | 3/1B11388                |           12913283976

 2017-02-03 20:39:58.212459+01 | 1486150798.21246 | 3/1B11388                |           12913283976

 2017-02-03 20:39:59.294718+01 | 1486150799.29472 | 3/1B11388                |           12913283976

 2017-02-03 20:40:00.37401+01 | 1486150800.37401 | 3/1B11388                |           12913283976

 2017-02-03 20:40:01.456228+01 | 1486150801.45623 | 3/1B11388                |           12913283976

 2017-02-03 20:40:02.532587+01 | 1486150802.53259 | 3/1B11388                |           12913283976

 2017-02-03 20:40:03.618498+01 | 1486150803.6185 | 3/1B11388                |           12913283976

 2017-02-03 20:40:04.689868+01 | 1486150804.68987 | 3/1B11388                |           12913283976

 2017-02-03 20:40:05.764233+01 | 1486150805.76423 | 3/1B11388                |           12913283976

 2017-02-03 20:40:06.848319+01 | 1486150806.84832 | 3/1B11388                |           12913283976

 2017-02-03 20:40:07.940157+01 | 1486150807.94016 | 3/1B11388                |           12913283976

 2017-02-03 20:40:09.032483+01 | 1486150809.03248 | 3/1B11388                |           12913283976

 2017-02-03 20:40:10.117293+01 | 1486150810.11729 | 3/1B11388                |           12913283976

 2017-02-03 20:40:11.202536+01 | 1486150811.20254 | 3/1B11388                |           12913283976

 2017-02-03 20:40:12.282585+01 | 1486150812.28258 | 3/1B11388                |           12913283976

 2017-02-03 20:40:13.360095+01 | 1486150813.3601 | 3/1B11388                |           12913283976

 2017-02-03 20:40:14.448252+01 | 1486150814.44825 | 3/1B11388                |           12913283976

 2017-02-03 20:40:15.528711+01 | 1486150815.52871 | 3/1B11388                |           12913283976

 2017-02-03 20:40:16.608079+01 | 1486150816.60808 | 3/1B11388                |           12913283976

 2017-02-03 20:40:17.686339+01 | 1486150817.68634 | 3/1B11388                |           12913283976

 2017-02-03 20:40:18.76234+01 | 1486150818.76234 | 3/1B11388                |           12913283976

 2017-02-03 20:40:19.840664+01 | 1486150819.84066 | 3/1B11388                |           12913283976

 2017-02-03 20:40:20.907357+01 | 1486150820.90736 | 3/1B11388                |           12913283976

 2017-02-03 20:40:21.990684+01 | 1486150821.99068 | 3/1B11388                |           12913283976

 2017-02-03 20:40:23.056959+01 | 1486150823.05696 | 3/1B11388                |           12913283976

 2017-02-03 20:40:24.132179+01 | 1486150824.13218 | 3/1B11388                |           12913283976

 2017-02-03 20:40:25.225193+01 | 1486150825.22519 | 3/1B11388                |           12913283976

 2017-02-03 20:40:26.300873+01 | 1486150826.30087 | 3/1B11388                |           12913283976

 2017-02-03 20:40:27.387499+01 | 1486150827.3875 | 3/1B11388                |           12913283976

 2017-02-03 20:40:28.47014+01 | 1486150828.47014 | 3/1B11388                |           12913283976

 2017-02-03 20:40:29.549857+01 | 1486150829.54986 | 3/1B11388                |           12913283976

 2017-02-03 20:40:30.629478+01 | 1486150830.62948 | 3/1B11388                |           12913283976

 2017-02-03 20:40:31.711057+01 | 1486150831.71106 | 3/1B11388                |           12913283976

 2017-02-03 20:40:32.789401+01 | 1486150832.7894 | 3/1B11388                |           12913283976

 2017-02-03 20:40:33.866086+01 | 1486150833.86609 | 3/1B11388                |           12913283976

 2017-02-03 20:40:34.953167+01 | 1486150834.95317 | 3/1B11388                |           12913283976

 2017-02-03 20:40:36.029855+01 | 1486150836.02986 | 3/1B11388                |           12913283976

 2017-02-03 20:40:37.103352+01 | 1486150837.10335 | 3/1B11388                |           12913283976

 2017-02-03 20:40:38.190653+01 | 1486150838.19065 | 3/1B11388                |           12913283976

 2017-02-03 20:40:39.257012+01 | 1486150839.25701 | 3/1B11388                |           12913283976

 2017-02-03 20:40:40.342593+01 | 1486150840.34259 | 3/1B11388                |           12913283976

 2017-02-03 20:40:41.416318+01 | 1486150841.41632 | 3/1B11388                |           12913283976

 2017-02-03 20:40:42.49877+01 | 1486150842.49877 | 3/1B11388                |           12913283976

 2017-02-03 20:40:43.579554+01 | 1486150843.57955 | 3/1B11388                |           12913283976

 2017-02-03 20:40:44.653837+01 | 1486150844.65384 | 3/1B11388                |           12913283976

 2017-02-03 20:40:45.740535+01 | 1486150845.74054 | 3/1B11388                |           12913283976

 2017-02-03 20:40:46.810365+01 | 1486150846.81036 | 3/1B11388                |           12913283976

 2017-02-03 20:40:47.890123+01 | 1486150847.89012 | 3/1B11388                |           12913283976

 2017-02-03 20:40:48.972211+01 | 1486150848.97221 | 3/1B11388                |           12913283976

 2017-02-03 20:40:50.049442+01 | 1486150850.04944 | 3/1B11388                |           12913283976

 2017-02-03 20:40:51.126546+01 | 1486150851.12655 | 3/1B11388                |           12913283976

 2017-02-03 20:40:52.206878+01 | 1486150852.20688 | 3/1B11388                |           12913283976

 2017-02-03 20:40:53.274109+01 | 1486150853.27411 | 3/1B11388                |           12913283976

 2017-02-03 20:40:54.354616+01 | 1486150854.35462 | 3/1B11388                |           12913283976

 2017-02-03 20:40:55.442109+01 | 1486150855.44211 | 3/1B11388                |           12913283976

 2017-02-03 20:40:56.521136+01 | 1486150856.52114 | 3/1B11388                |           12913283976

 2017-02-03 20:40:57.610032+01 | 1486150857.61003 | 3/1B11388                |           12913283976

 2017-02-03 20:40:58.690208+01 | 1486150858.69021 | 3/1B11388                |           12913283976

 2017-02-03 20:40:59.780328+01 | 1486150859.78033 | 3/1B11388                |           12913283976

 2017-02-03 20:41:00.868526+01 | 1486150860.86853 | 3/1B11388                |           12913283976

 2017-02-03 20:41:01.959624+01 | 1486150861.95962 | 3/1B11388                |           12913283976

 2017-02-03 20:41:03.038749+01 | 1486150863.03875 | 3/1B11388                |           12913283976

 2017-02-03 20:41:04.123387+01 | 1486150864.12339 | 3/1B11388                |           12913283976

 2017-02-03 20:41:05.20311+01 | 1486150865.20311 | 3/1B11388                |           12913283976

 2017-02-03 20:41:06.283702+01 | 1486150866.2837 | 3/1B11388                |           12913283976

 2017-02-03 20:41:07.361197+01 | 1486150867.3612 | 3/1B11388                |           12913283976

 2017-02-03 20:41:08.433906+01 | 1486150868.43391 | 3/1B11388                |           12913283976

 2017-02-03 20:41:09.516338+01 | 1486150869.51634 | 3/1B11388                |           12913283976

 2017-02-03 20:41:10.590967+01 | 1486150870.59097 | 3/1B11388                |           12913283976

 2017-02-03 20:41:11.672695+01 | 1486150871.67269 | 3/1B11388                |           12913283976

 2017-02-03 20:41:12.752673+01 | 1486150872.75267 | 3/1B11388                |           12913283976

 2017-02-03 20:41:13.831834+01 | 1486150873.83183 | 3/1B11388                |           12913283976

 2017-02-03 20:41:14.908439+01 | 1486150874.90844 | 3/1B11388                |           12913283976

 2017-02-03 20:41:15.985766+01 | 1486150875.98577 | 3/1B11388                |           12913283976

 2017-02-03 20:41:17.069632+01 | 1486150877.06963 | 3/1B11388                |           12913283976

 2017-02-03 20:41:18.143242+01 | 1486150878.14324 | 3/1B11388                |           12913283976

 2017-02-03 20:41:19.22217+01 | 1486150879.22217 | 3/1B11388                |           12913283976

 2017-02-03 20:41:20.299849+01 | 1486150880.29985 | 3/1B11388                |           12913283976

 2017-02-03 20:41:21.37938+01 | 1486150881.37938 | 3/1B11388                |           12913283976

 2017-02-03 20:41:22.459872+01 | 1486150882.45987 | 3/1B11388                |           12913283976

 2017-02-03 20:41:23.551399+01 | 1486150883.5514 | 3/1B11388                |           12913283976

 2017-02-03 20:41:24.633727+01 | 1486150884.63373 | 3/1B11388                |           12913283976

 2017-02-03 20:41:25.711884+01 | 1486150885.71188 | 3/1B11388                |           12913283976

 2017-02-03 20:41:26.795176+01 | 1486150886.79518 | 3/1B11388                |           12913283976

 2017-02-03 20:41:27.875942+01 | 1486150887.87594 | 3/1B11388                |           12913283976

 2017-02-03 20:41:28.952831+01 | 1486150888.95283 | 3/1B11388                |           12913283976

 2017-02-03 20:41:30.039972+01 | 1486150890.03997 | 3/1B11388                |           12913283976

 2017-02-03 20:41:31.115728+01 | 1486150891.11573 | 3/1B11388                |           12913283976

 2017-02-03 20:41:32.195004+01 | 1486150892.195 | 3/1B11388                |           12913283976

 2017-02-03 20:41:33.287369+01 | 1486150893.28737 | 3/1B11388                |           12913283976

 2017-02-03 20:41:34.37593+01 | 1486150894.37593 | 3/1B11388                |           12913283976

 2017-02-03 20:41:35.454422+01 | 1486150895.45442 | 3/1B11388                |           12913283976

 2017-02-03 20:41:36.537831+01 | 1486150896.53783 | 3/1B11388                |           12913283976

 2017-02-03 20:41:37.613331+01 | 1486150897.61333 | 3/1B11388                |           12913283976

 2017-02-03 20:41:38.687523+01 | 1486150898.68752 | 3/1B11388                |           12913283976

 2017-02-03 20:41:39.773566+01 | 1486150899.77357 | 3/1B11388                |           12913283976

 2017-02-03 20:41:40.852972+01 | 1486150900.85297 | 3/1B11388                |           12913283976

 2017-02-03 20:41:41.925215+01 | 1486150901.92522 | 3/1B11388                |           12913283976

 2017-02-03 20:41:43.006702+01 | 1486150903.0067 | 3/1B11388                |           12913283976

 2017-02-03 20:41:44.081545+01 | 1486150904.08155 | 3/1B11388                |           12913283976

 2017-02-03 20:41:45.156161+01 | 1486150905.15616 | 3/1B11388                |           12913283976

 2017-02-03 20:41:46.239909+01 | 1486150906.23991 | 3/1B11388                |           12913283976

 2017-02-03 20:41:47.316781+01 | 1486150907.31678 | 3/1B11388                |           12913283976

 2017-02-03 20:41:48.399791+01 | 1486150908.39979 | 3/1B11388                |           12913283976

 2017-02-03 20:41:49.486307+01 | 1486150909.48631 | 3/1B11388                |           12913283976

 2017-02-03 20:41:50.577419+01 | 1486150910.57742 | 3/1B11388                |           12913283976

 2017-02-03 20:41:51.652084+01 | 1486150911.65208 | 3/1B11388                |           12913283976

 2017-02-03 20:41:52.724714+01 | 1486150912.72471 | 3/1B11388                |           12913283976

 2017-02-03 20:41:53.817503+01 | 1486150913.8175 | 3/1B11388                |           12913283976

 2017-02-03 20:41:54.89835+01 | 1486150914.89835 | 3/1B11388                |           12913283976

 2017-02-03 20:41:55.978462+01 | 1486150915.97846 | 3/1B11388                |           12913283976

 2017-02-03 20:41:57.051834+01 | 1486150917.05183 | 3/1B11388                |           12913283976

 2017-02-03 20:41:58.133156+01 | 1486150918.13316 | 3/1B11388                |           12913283976

 2017-02-03 20:41:59.205107+01 | 1486150919.20511 | 3/1B11388                |           12913283976

 2017-02-03 20:42:00.283975+01 | 1486150920.28397 | 3/1B11388                |           12913283976

 2017-02-03 20:42:01.363249+01 | 1486150921.36325 | 3/1B11388                |           12913283976

 2017-02-03 20:42:02.453054+01 | 1486150922.45305 | 3/1B11388                |           12913283976

 2017-02-03 20:42:03.534322+01 | 1486150923.53432 | 3/1B11388                |           12913283976

 2017-02-03 20:42:04.613355+01 | 1486150924.61335 | 3/1B11388                |           12913283976

 2017-02-03 20:42:05.68775+01 | 1486150925.68775 | 3/1B11388                |           12913283976

 2017-02-03 20:42:06.768413+01 | 1486150926.76841 | 3/1B11388                |           12913283976

