 2017-02-04 14:56:34.263963+01 | 1486216594.26396 | 9/7CC9C5F8               |           40748303864

 2017-02-04 14:56:35.358096+01 | 1486216595.3581 | 9/8A966A08               |           40979819016

 2017-02-04 14:56:36.433619+01 | 1486216596.43362 | 9/99163870               |           41223075952

 2017-02-04 14:56:37.510752+01 | 1486216597.51075 | 9/A7709528               |           41463878952

 2017-02-04 14:56:38.575393+01 | 1486216598.57539 | 9/B4E85F28               |           41689833256

 2017-02-04 14:56:39.653487+01 | 1486216599.65349 | 9/C1ED14B8               |           41908245688

 2017-02-04 14:56:40.732949+01 | 1486216600.73295 | 9/CE30CBA8               |           42114010024

 2017-02-04 14:56:41.810804+01 | 1486216601.8108 | 9/D9B7EAD8               |           42307414744

 2017-02-04 14:56:42.886133+01 | 1486216602.88613 | 9/E4B1EFB8               |           42491572152

 2017-02-04 14:56:43.968769+01 | 1486216603.96877 | 9/EF134AA0               |           42665724576

 2017-02-04 14:56:45.044383+01 | 1486216605.04438 | 9/F955C390               |           42837853072

 2017-02-04 14:56:46.117986+01 | 1486216606.11799 | A/32B9CF0                |           43002862832

 2017-02-04 14:56:47.197784+01 | 1486216607.19778 | A/C2E2988                |           43154024840

 2017-02-04 14:56:48.275675+01 | 1486216608.27568 | A/151AE258               |           43303756376

 2017-02-04 14:56:49.353091+01 | 1486216609.35309 | A/1D72C230               |           43443733040

 2017-02-04 14:56:50.423257+01 | 1486216610.42326 | A/255972E8               |           43576292072

 2017-02-04 14:56:51.499606+01 | 1486216611.49961 | A/2D1D4E58               |           43706568280

 2017-02-04 14:56:52.577495+01 | 1486216612.5775 | A/34909AA8               |           43831564968

 2017-02-04 14:56:53.655267+01 | 1486216613.65527 | A/3BA23D90               |           43950161296

 2017-02-04 14:56:54.731667+01 | 1486216614.73167 | A/4273E818               |           44064565272

 2017-02-04 14:56:55.805889+01 | 1486216615.80589 | A/489F9CB8               |           44168092856

 2017-02-04 14:56:56.8847+01 | 1486216616.8847 | A/4EEB96C0               |           44273735360

 2017-02-04 14:56:57.961536+01 | 1486216617.96154 | A/551F6DA8               |           44377796008

 2017-02-04 14:56:59.036736+01 | 1486216619.03674 | A/5B3C7798               |           44480362392

 2017-02-04 14:57:00.113922+01 | 1486216620.11392 | A/60ED6EE8               |           44575846120

 2017-02-04 14:57:01.188399+01 | 1486216621.1884 | A/66B05240               |           44672504384

 2017-02-04 14:57:02.263497+01 | 1486216622.2635 | A/6C2597A8               |           44764075944

 2017-02-04 14:57:03.341779+01 | 1486216623.34178 | A/7125A868               |           44847966312

 2017-02-04 14:57:04.416107+01 | 1486216624.41611 | A/7582BF48               |           44921175880

 2017-02-04 14:57:05.499584+01 | 1486216625.49958 | A/7988E318               |           44988687128

 2017-02-04 14:57:06.580048+01 | 1486216626.58005 | A/7DFCCA10               |           45063391760

 2017-02-04 14:57:07.658094+01 | 1486216627.65809 | A/825FAE10               |           45136981520

 2017-02-04 14:57:08.731009+01 | 1486216628.73101 | A/86B81438               |           45209883704

 2017-02-04 14:57:09.805231+01 | 1486216629.80523 | A/8B479568               |           45286397288

 2017-02-04 14:57:10.880286+01 | 1486216630.88029 | A/8FE7D140               |           45364007232

 2017-02-04 14:57:11.956358+01 | 1486216631.95636 | A/94672718               |           45439461144

 2017-02-04 14:57:13.034812+01 | 1486216633.03481 | A/98AB6038               |           45511041080

 2017-02-04 14:57:14.105126+01 | 1486216634.10513 | A/9D1BA788               |           45585508232

 2017-02-04 14:57:15.174908+01 | 1486216635.17491 | A/A1612840               |           45657172032

 2017-02-04 14:57:16.250125+01 | 1486216636.25012 | A/A5ABB6B0               |           45729167024

 2017-02-04 14:57:17.327386+01 | 1486216637.32739 | A/A9E75360               |           45800182624

 2017-02-04 14:57:18.393553+01 | 1486216638.39355 | A/ADFCBB30               |           45868694320

 2017-02-04 14:57:19.468048+01 | 1486216639.46805 | A/B19FEEC8               |           45929721544

 2017-02-04 14:57:20.547909+01 | 1486216640.54791 | A/B540D4C8               |           45990597832

 2017-02-04 14:57:21.62621+01 | 1486216641.62621 | A/B8D83468               |           46050849896

 2017-02-04 14:57:22.714287+01 | 1486216642.71429 | A/BC751F80               |           46111465344

 2017-02-04 14:57:23.790747+01 | 1486216643.79075 | A/C003E2F0               |           46171153136

 2017-02-04 14:57:24.868428+01 | 1486216644.86843 | A/C38624C0               |           46230021312

 2017-02-04 14:57:25.937713+01 | 1486216645.93771 | A/C6CA20B0               |           46284808368

 2017-02-04 14:57:27.001357+01 | 1486216647.00136 | A/CA3C68E8               |           46342629608

 2017-02-04 14:57:28.075477+01 | 1486216648.07548 | A/CDD10A70               |           46402701936

 2017-02-04 14:57:29.151189+01 | 1486216649.15119 | A/D1756CF0               |           46463806704

 2017-02-04 14:57:30.223619+01 | 1486216650.22362 | A/D4F243E0               |           46522319840

 2017-02-04 14:57:31.295473+01 | 1486216651.29547 | A/D84F0620               |           46578730528

 2017-02-04 14:57:32.370712+01 | 1486216652.37071 | A/DB4BB710               |           46628845328

 2017-02-04 14:57:33.444966+01 | 1486216653.44497 | A/DE528740               |           46679623488

 2017-02-04 14:57:34.524885+01 | 1486216654.52488 | A/E18ECAB0               |           46733904560

 2017-02-04 14:57:35.599444+01 | 1486216655.59944 | A/E4B6DEF8               |           46786862840

 2017-02-04 14:57:36.671712+01 | 1486216656.67171 | A/E7C7F458               |           46838314072

 2017-02-04 14:57:37.748773+01 | 1486216657.74877 | A/EB19A588               |           46893999496

 2017-02-04 14:57:38.818725+01 | 1486216658.81873 | A/EEE183F8               |           46957429752

 2017-02-04 14:57:39.894898+01 | 1486216659.8949 | A/F23A1538               |           47013565752

 2017-02-04 14:57:40.964718+01 | 1486216660.96472 | A/F57DD108               |           47068336392

 2017-02-04 14:57:42.038402+01 | 1486216662.0384 | A/F890B5F8               |           47119906296

 2017-02-04 14:57:43.110836+01 | 1486216663.11084 | A/FBC7D168               |           47173849448

 2017-02-04 14:57:44.188423+01 | 1486216664.18842 | A/FEFBF508               |           47227598088

 2017-02-04 14:57:45.26703+01 | 1486216665.26703 | B/234EC80                |           47281663104

 2017-02-04 14:57:46.341007+01 | 1486216666.34101 | B/5687490                |           47335371920

 2017-02-04 14:57:47.413992+01 | 1486216667.41399 | B/89B7BC0                |           47389047744

 2017-02-04 14:57:48.490608+01 | 1486216668.49061 | B/B96A030                |           47439061040

 2017-02-04 14:57:49.576885+01 | 1486216669.57688 | B/EA40D10                |           47490272528

 2017-02-04 14:57:50.655045+01 | 1486216670.65505 | B/1164DE58               |           47536463448

 2017-02-04 14:57:51.732981+01 | 1486216671.73298 | B/141D1A68               |           47582091880

 2017-02-04 14:57:52.808052+01 | 1486216672.80805 | B/16FE95A8               |           47630423464

 2017-02-04 14:57:53.884399+01 | 1486216673.8844 | B/1A0FF1C8               |           47681892808

 2017-02-04 14:57:54.95811+01 | 1486216674.95811 | B/1CF852E0               |           47730676448

 2017-02-04 14:57:56.037899+01 | 1486216676.0379 | B/1F2E6158               |           47767773528

 2017-02-04 14:57:57.11124+01 | 1486216677.11124 | B/222B4AD8               |           47817902808

 2017-02-04 14:57:58.186618+01 | 1486216678.18662 | B/2503F660               |           47865656928

 2017-02-04 14:57:59.262222+01 | 1486216679.26222 | B/27DEAE50               |           47913545296

 2017-02-04 14:58:00.336225+01 | 1486216680.33623 | B/2A920B78               |           47958854520

 2017-02-04 14:58:01.412047+01 | 1486216681.41205 | B/2D5F4AF0               |           48005860080

 2017-02-04 14:58:02.496001+01 | 1486216682.496 | B/30136D30               |           48051219760

 2017-02-04 14:58:03.572383+01 | 1486216683.57238 | B/32CA6938               |           48096766264

 2017-02-04 14:58:04.648117+01 | 1486216684.64812 | B/358101A8               |           48142287272

 2017-02-04 14:58:05.719879+01 | 1486216685.71988 | B/37E9E768               |           48182716264

 2017-02-04 14:58:06.793743+01 | 1486216686.79374 | B/3A72D0B0               |           48225243312

 2017-02-04 14:58:07.863433+01 | 1486216687.86343 | B/3CD817C8               |           48265435080

 2017-02-04 14:58:08.940748+01 | 1486216688.94075 | B/3F2BA790               |           48304465808

 2017-02-04 14:58:10.015172+01 | 1486216690.01517 | B/417E6998               |           48343443864

 2017-02-04 14:58:11.086305+01 | 1486216691.0863 | B/43C5EB70               |           48381684592

 2017-02-04 14:58:12.157839+01 | 1486216692.15784 | B/45E9F2A0               |           48417600160

 2017-02-04 14:58:13.251687+01 | 1486216693.25169 | B/4822C040               |           48454877248

 2017-02-04 14:58:14.326572+01 | 1486216694.32657 | B/4A6FD060               |           48493482080

 2017-02-04 14:58:15.39988+01 | 1486216695.39988 | B/4CA545F8               |           48530540024

 2017-02-04 14:58:16.478463+01 | 1486216696.47846 | B/4ED51F50               |           48567230288

 2017-02-04 14:58:17.561094+01 | 1486216697.56109 | B/50E13A98               |           48601578136

 2017-02-04 14:58:18.634029+01 | 1486216698.63403 | B/52D0FCB8               |           48634068152

 2017-02-04 14:58:19.705497+01 | 1486216699.7055 | B/54B78B80               |           48665955200

 2017-02-04 14:58:20.779164+01 | 1486216700.77916 | B/56F4DB28               |           48703527720

 2017-02-04 14:58:21.856066+01 | 1486216701.85607 | B/5917DC70               |           48739376240

 2017-02-04 14:58:22.934709+01 | 1486216702.93471 | B/5B357610               |           48774870544

 2017-02-04 14:58:24.006233+01 | 1486216704.00623 | B/5D3FBB08               |           48809097992

 2017-02-04 14:58:25.083002+01 | 1486216705.083 | B/5F47DA98               |           48843184792

 2017-02-04 14:58:26.159348+01 | 1486216706.15935 | B/61561670               |           48877672048

 2017-02-04 14:58:27.233656+01 | 1486216707.23366 | B/6363C540               |           48912123200

 2017-02-04 14:58:28.308602+01 | 1486216708.3086 | B/6572D5C8               |           48946664904

 2017-02-04 14:58:29.388894+01 | 1486216709.38889 | B/67817200               |           48981176832

 2017-02-04 14:58:30.468611+01 | 1486216710.46861 | B/697B4220               |           49014325792

 2017-02-04 14:58:31.546934+01 | 1486216711.54693 | B/6B3BDA38               |           49043724856

 2017-02-04 14:58:32.626366+01 | 1486216712.62637 | B/6D313218               |           49076580888

 2017-02-04 14:58:33.701128+01 | 1486216713.70113 | B/6F200128               |           49109008680

 2017-02-04 14:58:34.77929+01 | 1486216714.77929 | B/71286708               |           49143113480

 2017-02-04 14:58:35.852151+01 | 1486216715.85215 | B/7323B3E8               |           49176359912

 2017-02-04 14:58:36.933694+01 | 1486216716.93369 | B/74FC7D88               |           49207344520

 2017-02-04 14:58:38.007071+01 | 1486216718.00707 | B/76F6C790               |           49240524688

 2017-02-04 14:58:39.085075+01 | 1486216719.08507 | B/794F22C0               |           49279869632

 2017-02-04 14:58:40.16144+01 | 1486216720.16144 | B/7B3A36F0               |           49312052976

 2017-02-04 14:58:41.23099+01 | 1486216721.23099 | B/7CEAB560               |           49340396896

 2017-02-04 14:58:42.305561+01 | 1486216722.30556 | B/7E85F768               |           49367349096

 2017-02-04 14:58:43.381032+01 | 1486216723.38103 | B/801F5F30               |           49394179888

 2017-02-04 14:58:44.455238+01 | 1486216724.45524 | B/81EE5118               |           49424519448

 2017-02-04 14:58:45.523507+01 | 1486216725.52351 | B/83B31FC8               |           49454194632

 2017-02-04 14:58:46.597252+01 | 1486216726.59725 | B/85855EF0               |           49484750576

 2017-02-04 14:58:47.66765+01 | 1486216727.66765 | B/875B9EC8               |           49515568840

 2017-02-04 14:58:48.740559+01 | 1486216728.74056 | B/89303BC8               |           49546279880

 2017-02-04 14:58:49.812629+01 | 1486216729.81263 | B/8AE52E50               |           49574915664

 2017-02-04 14:58:50.891247+01 | 1486216730.89125 | B/8CAB0A40               |           49604659776

 2017-02-04 14:58:51.966279+01 | 1486216731.96628 | B/8E797738               |           49634965304

 2017-02-04 14:58:53.041319+01 | 1486216733.04132 | B/90456620               |           49665107488

 2017-02-04 14:58:54.11215+01 | 1486216734.11215 | B/92102758               |           49695172440

 2017-02-04 14:58:55.194495+01 | 1486216735.19449 | B/93A57070               |           49721733232

 2017-02-04 14:58:56.273037+01 | 1486216736.27304 | B/955F9B70               |           49750711152

 2017-02-04 14:58:57.345944+01 | 1486216737.34594 | B/971BF968               |           49779833192

 2017-02-04 14:58:58.422276+01 | 1486216738.42228 | B/98DA85B8               |           49809098168

 2017-02-04 14:58:59.4921+01 | 1486216739.4921 | B/9A8A7180               |           49837404544

 2017-02-04 14:59:00.562037+01 | 1486216740.56204 | B/9C3DB010               |           49865928720

 2017-02-04 14:59:01.636492+01 | 1486216741.63649 | B/9DC1B0F0               |           49891356912

 2017-02-04 14:59:02.705222+01 | 1486216742.70522 | B/9F3E9040               |           49916317760

 2017-02-04 14:59:03.781338+01 | 1486216743.78134 | B/A0DF1730               |           49943615280

 2017-02-04 14:59:04.858026+01 | 1486216744.85803 | B/A281DF00               |           49971060480

 2017-02-04 14:59:05.934029+01 | 1486216745.93403 | B/A4204618               |           49998218776

 2017-02-04 14:59:07.007326+01 | 1486216747.00733 | B/A5CE3D70               |           50026397040

 2017-02-04 14:59:08.085758+01 | 1486216748.08576 | B/A76E3ED8               |           50053660376

 2017-02-04 14:59:09.164867+01 | 1486216749.16487 | B/A911AA38               |           50081147448

 2017-02-04 14:59:10.24135+01 | 1486216750.24135 | B/AAB444B8               |           50108581048

 2017-02-04 14:59:11.313361+01 | 1486216751.31336 | B/AC4F85E0               |           50135533024

 2017-02-04 14:59:12.390061+01 | 1486216752.39006 | B/ADED0800               |           50162632704

 2017-02-04 14:59:13.470102+01 | 1486216753.4701 | B/AF882AD8               |           50189576920

 2017-02-04 14:59:14.54464+01 | 1486216754.54464 | B/B111F9F8               |           50215385592

 2017-02-04 14:59:15.610148+01 | 1486216755.61015 | B/B2B6C710               |           50242963216

 2017-02-04 14:59:16.686285+01 | 1486216756.68629 | B/B43BD150               |           50268459344

 2017-02-04 14:59:17.761334+01 | 1486216757.76133 | B/B5BE6D08               |           50293796104

 2017-02-04 14:59:18.834347+01 | 1486216758.83435 | B/B7482A10               |           50319600144

 2017-02-04 14:59:19.906695+01 | 1486216759.90669 | B/B8E1E0C8               |           50346451144

 2017-02-04 14:59:20.983086+01 | 1486216760.98309 | B/BA73FB50               |           50372803408

 2017-02-04 14:59:22.058245+01 | 1486216762.05824 | B/BC181628               |           50400335400

 2017-02-04 14:59:23.129999+01 | 1486216763.13 | B/BDAE0788               |           50426939272

 2017-02-04 14:59:24.206436+01 | 1486216764.20644 | B/BF192950               |           50450737488

 2017-02-04 14:59:25.281517+01 | 1486216765.28152 | B/C0A3BF78               |           50476597112

 2017-02-04 14:59:26.355233+01 | 1486216766.35523 | B/C224D488               |           50501833864

 2017-02-04 14:59:27.433733+01 | 1486216767.43373 | B/C3A72FF8               |           50527154168

 2017-02-04 14:59:28.512069+01 | 1486216768.51207 | B/C5239AD0               |           50552085200

 2017-02-04 14:59:29.585591+01 | 1486216769.58559 | B/C6A30A90               |           50577214096

 2017-02-04 14:59:30.661352+01 | 1486216770.66135 | B/C82DF4A8               |           50603095208

 2017-02-04 14:59:31.731944+01 | 1486216771.73194 | B/C9B2FF00               |           50628591360

 2017-02-04 14:59:32.808677+01 | 1486216772.80868 | B/CB3B3700               |           50654295808

 2017-02-04 14:59:33.89294+01 | 1486216773.89294 | B/CCA43B88               |           50677955464

 2017-02-04 14:59:34.9699+01 | 1486216774.9699 | B/CE21F3C0               |           50702971840

 2017-02-04 14:59:36.048064+01 | 1486216776.04806 | B/CF9581E0               |           50727322080

 2017-02-04 14:59:37.118593+01 | 1486216777.11859 | B/D1102410               |           50752136208

 2017-02-04 14:59:38.188876+01 | 1486216778.18888 | B/D25320A0               |           50773303456

 2017-02-04 14:59:39.263531+01 | 1486216779.26353 | B/D3CFB7A0               |           50798245792

 2017-02-04 14:59:40.334401+01 | 1486216780.3344 | B/D4FBE548               |           50817918280

 2017-02-04 14:59:41.408668+01 | 1486216781.40867 | B/D6302748               |           50838120264

 2017-02-04 14:59:42.474046+01 | 1486216782.47405 | B/D75EA3A8               |           50857943976

 2017-02-04 14:59:43.54347+01 | 1486216783.54347 | B/D88CB9E8               |           50877741544

 2017-02-04 14:59:44.615695+01 | 1486216784.61569 | B/D9AF4BD0               |           50896784336

 2017-02-04 14:59:45.696691+01 | 1486216785.69669 | B/DACD0A30               |           50915510832

 2017-02-04 14:59:46.774532+01 | 1486216786.77453 | B/DC043B18               |           50935905048

 2017-02-04 14:59:47.850428+01 | 1486216787.85043 | B/DD5F5DE0               |           50958654944

 2017-02-04 14:59:48.926325+01 | 1486216788.92633 | B/DEDDB748               |           50983712584

 2017-02-04 14:59:50.004039+01 | 1486216790.00404 | B/E0397718               |           51006502680

 2017-02-04 14:59:51.08197+01 | 1486216791.08197 | B/E1A2C6E8               |           51030181608

 2017-02-04 14:59:52.154487+01 | 1486216792.15449 | B/E3081D78               |           51053600120

 2017-02-04 14:59:53.235188+01 | 1486216793.23519 | B/E4713280               |           51077264000

 2017-02-04 14:59:54.31035+01 | 1486216794.31035 | B/E5B8E558               |           51098740056

 2017-02-04 14:59:55.387813+01 | 1486216795.38781 | B/E6EE62B8               |           51119022776

 2017-02-04 14:59:56.453619+01 | 1486216796.45362 | B/E84DA8A0               |           51142043808

 2017-02-04 14:59:57.527994+01 | 1486216797.52799 | B/E9B2BB10               |           51165444880

 2017-02-04 14:59:58.604905+01 | 1486216798.6049 | B/EB14E6F0               |           51188655856

 2017-02-04 14:59:59.67769+01 | 1486216799.67769 | B/EC787608               |           51211957768

 2017-02-04 15:00:00.754643+01 | 1486216800.75464 | B/EDDE6928               |           51235416360

 2017-02-04 15:00:01.827473+01 | 1486216801.82747 | B/EF521E70               |           51259776624

 2017-02-04 15:00:02.906212+01 | 1486216802.90621 | B/F0BF0420               |           51283690528

 2017-02-04 15:00:03.980397+01 | 1486216803.9804 | B/F2303D20               |           51307887904

 2017-02-04 15:00:05.053867+01 | 1486216805.05387 | B/F3999418               |           51331568664

 2017-02-04 15:00:06.127885+01 | 1486216806.12789 | B/F5333170               |           51358413168

 2017-02-04 15:00:07.197693+01 | 1486216807.19769 | B/F77D9D98               |           51396844952

 2017-02-04 15:00:08.27399+01 | 1486216808.27399 | B/F9F3FE80               |           51438157440

 2017-02-04 15:00:09.355283+01 | 1486216809.35528 | B/FC823430               |           51481031728

 2017-02-04 15:00:10.429818+01 | 1486216810.42982 | B/FF495E78               |           51527638648

 2017-02-04 15:00:11.51154+01 | 1486216811.51154 | C/15EA068                |           51562586216

 2017-02-04 15:00:12.587856+01 | 1486216812.58786 | C/2E23BE8                |           51587988456

 2017-02-04 15:00:13.663435+01 | 1486216813.66343 | C/4A1E500                |           51617326336

 2017-02-04 15:00:14.751401+01 | 1486216814.7514 | C/653EB00                |           51645770496

 2017-02-04 15:00:15.830118+01 | 1486216815.83012 | C/82DD2B0                |           51676828336

 2017-02-04 15:00:16.908411+01 | 1486216816.90841 | C/A344A78                |           51710806648

 2017-02-04 15:00:17.984485+01 | 1486216817.98448 | C/C4D1E68                |           51745988200

 2017-02-04 15:00:19.056078+01 | 1486216819.05608 | C/E629410                |           51780949008

 2017-02-04 15:00:20.130963+01 | 1486216820.13096 | C/10766CF8               |           51815804152

 2017-02-04 15:00:21.20603+01 | 1486216821.20603 | C/128D0E98               |           51850841752

 2017-02-04 15:00:22.278339+01 | 1486216822.27834 | C/1496A0F8               |           51885023480

 2017-02-04 15:00:23.351442+01 | 1486216823.35144 | C/169F7730               |           51919157040

 2017-02-04 15:00:24.430794+01 | 1486216824.43079 | C/18A2BE40               |           51952926272

 2017-02-04 15:00:25.505861+01 | 1486216825.50586 | C/1A8ED1B8               |           51985174968

 2017-02-04 15:00:26.585487+01 | 1486216826.58549 | C/1C690D38               |           52016254264

 2017-02-04 15:00:27.663819+01 | 1486216827.66382 | C/1E467A58               |           52047542872

 2017-02-04 15:00:28.740293+01 | 1486216828.74029 | C/2017E648               |           52078044744

 2017-02-04 15:00:29.823991+01 | 1486216829.82399 | C/21F7F478               |           52109505656

 2017-02-04 15:00:30.900952+01 | 1486216830.90095 | C/23D3DD88               |           52140694920

 2017-02-04 15:00:31.97468+01 | 1486216831.97468 | C/25B117D8               |           52171970520

 2017-02-04 15:00:33.051082+01 | 1486216833.05108 | C/27725A78               |           52201413240

 2017-02-04 15:00:34.129762+01 | 1486216834.12976 | C/293A7310               |           52231303952

 2017-02-04 15:00:35.203348+01 | 1486216835.20335 | C/2AF17C20               |           52260076576

 2017-02-04 15:00:36.273789+01 | 1486216836.27379 | C/2CB026D0               |           52289349328

 2017-02-04 15:00:37.346775+01 | 1486216837.34678 | C/2E6469D8               |           52317940184

 2017-02-04 15:00:38.406671+01 | 1486216838.40667 | C/2FDC0CE8               |           52342557928

 2017-02-04 15:00:39.477806+01 | 1486216839.47781 | C/317D6288               |           52369908360

 2017-02-04 15:00:40.557699+01 | 1486216840.5577 | C/331A6058               |           52396974168

 2017-02-04 15:00:41.642199+01 | 1486216841.6422 | C/34BDD580               |           52424463744

 2017-02-04 15:00:42.718524+01 | 1486216842.71852 | C/3621D340               |           52447793984

 2017-02-04 15:00:43.805743+01 | 1486216843.80574 | C/37B1A980               |           52473997696

 2017-02-04 15:00:44.884932+01 | 1486216844.88493 | C/3927D9A8               |           52498520488

 2017-02-04 15:00:45.963721+01 | 1486216845.96372 | C/3A93B1F0               |           52522365424

 2017-02-04 15:00:47.045449+01 | 1486216847.04545 | C/3C14A428               |           52547593256

 2017-02-04 15:00:48.120581+01 | 1486216848.12058 | C/3D839680               |           52571641472

 2017-02-04 15:00:49.19458+01 | 1486216849.19458 | C/3EF53E70               |           52595867248

 2017-02-04 15:00:50.266917+01 | 1486216850.26692 | C/404542C8               |           52617888456

 2017-02-04 15:00:51.345794+01 | 1486216851.34579 | C/41A97FC0               |           52641234880

 2017-02-04 15:00:52.417999+01 | 1486216852.418 | C/43029FD0               |           52663853008

 2017-02-04 15:00:53.498094+01 | 1486216853.49809 | C/44554DF8               |           52686048760

 2017-02-04 15:00:54.57261+01 | 1486216854.57261 | C/459F8270               |           52707689072

 2017-02-04 15:00:55.648549+01 | 1486216855.64855 | C/46EE6DC0               |           52729638336

 2017-02-04 15:00:56.720093+01 | 1486216856.72009 | C/48361068               |           52751110248

 2017-02-04 15:00:57.790435+01 | 1486216857.79044 | C/497F17A0               |           52772673440

 2017-02-04 15:00:58.865212+01 | 1486216858.86521 | C/4ABE6618               |           52793599512

 2017-02-04 15:00:59.954849+01 | 1486216859.95485 | C/4BF2ECE0               |           52813819104

 2017-02-04 15:01:01.030896+01 | 1486216861.0309 | C/4D303800               |           52834613248

 2017-02-04 15:01:02.107457+01 | 1486216862.10746 | C/4E63B0C0               |           52854763712

 2017-02-04 15:01:03.18573+01 | 1486216863.18573 | C/4F75CD90               |           52872727952

 2017-02-04 15:01:04.265445+01 | 1486216864.26544 | C/50871FB8               |           52890640312

 2017-02-04 15:01:05.341513+01 | 1486216865.34151 | C/51880F70               |           52907478896

 2017-02-04 15:01:06.412936+01 | 1486216866.41294 | C/529EFD78               |           52925758840

 2017-02-04 15:01:07.489995+01 | 1486216867.49 | C/53D47978               |           52946041208

 2017-02-04 15:01:08.565413+01 | 1486216868.56541 | C/5508F908               |           52966258952

 2017-02-04 15:01:09.643938+01 | 1486216869.64394 | C/5648DE50               |           52987223632

 2017-02-04 15:01:10.717938+01 | 1486216870.71794 | C/577EBA88               |           53007530632

 2017-02-04 15:01:11.802203+01 | 1486216871.8022 | C/58B31770               |           53027739504

 2017-02-04 15:01:12.878168+01 | 1486216872.87817 | C/59ECAB40               |           53048290112

 2017-02-04 15:01:13.953613+01 | 1486216873.95361 | C/5B9BCFF0               |           53076545520

 2017-02-04 15:01:15.028178+01 | 1486216875.02818 | C/5D6830C0               |           53106716864

 2017-02-04 15:01:16.100408+01 | 1486216876.10041 | C/5EC880C8               |           53129806024

 2017-02-04 15:01:17.173962+01 | 1486216877.17396 | C/600EBCA0               |           53151186080

 2017-02-04 15:01:18.248569+01 | 1486216878.24857 | C/613D97D0               |           53171034064

 2017-02-04 15:01:19.332477+01 | 1486216879.33248 | C/626A97A0               |           53190760352

 2017-02-04 15:01:20.403517+01 | 1486216880.40352 | C/637AF800               |           53208610816

 2017-02-04 15:01:21.478791+01 | 1486216881.47879 | C/6490F688               |           53226829448

 2017-02-04 15:01:22.550172+01 | 1486216882.55017 | C/65823020               |           53242638368

 2017-02-04 15:01:23.619907+01 | 1486216883.61991 | C/66BBDF68               |           53263196008

 2017-02-04 15:01:24.688759+01 | 1486216884.68876 | C/67EFC660               |           53283374688

 2017-02-04 15:01:25.768237+01 | 1486216885.76824 | C/6919C248               |           53302903368

 2017-02-04 15:01:26.843057+01 | 1486216886.84306 | C/6A406928               |           53322213672

 2017-02-04 15:01:27.914358+01 | 1486216887.91436 | C/6B586D88               |           53340564872

 2017-02-04 15:01:28.988662+01 | 1486216888.98866 | C/6C8880F8               |           53360492792

 2017-02-04 15:01:30.064258+01 | 1486216890.06426 | C/6DA8B270               |           53379379824

 2017-02-04 15:01:31.138886+01 | 1486216891.13889 | C/6EAA6F20               |           53396270880

 2017-02-04 15:01:32.21285+01 | 1486216892.21285 | C/6FC1AE18               |           53414571544

 2017-02-04 15:01:33.286118+01 | 1486216893.28612 | C/70ECBFE0               |           53434171360

