 2017-02-04 15:58:54.976042+01 | 1486220334.97604 | pgbench_accounts |      13682466816
 2017-02-04 15:58:54.976042+01 | 1486220334.97604 | pgbench_tellers  |         15523840
 2017-02-04 15:58:54.976042+01 | 1486220334.97604 | pgbench_history  |                0
 2017-02-04 15:58:54.976042+01 | 1486220334.97604 | pgbench_branches |         12599296

 2017-02-04 15:58:56.061403+01 | 1486220336.0614 | pgbench_accounts |      13682466816
 2017-02-04 15:58:56.061403+01 | 1486220336.0614 | pgbench_tellers  |         15523840
 2017-02-04 15:58:56.061403+01 | 1486220336.0614 | pgbench_history  |          1720320
 2017-02-04 15:58:56.061403+01 | 1486220336.0614 | pgbench_branches |         12599296

 2017-02-04 15:58:57.145058+01 | 1486220337.14506 | pgbench_accounts |      13682466816
 2017-02-04 15:58:57.145058+01 | 1486220337.14506 | pgbench_tellers  |         15523840
 2017-02-04 15:58:57.145058+01 | 1486220337.14506 | pgbench_history  |          3129344
 2017-02-04 15:58:57.145058+01 | 1486220337.14506 | pgbench_branches |         12599296

 2017-02-04 15:58:58.217819+01 | 1486220338.21782 | pgbench_accounts |      13682466816
 2017-02-04 15:58:58.217819+01 | 1486220338.21782 | pgbench_tellers  |         15523840
 2017-02-04 15:58:58.217819+01 | 1486220338.21782 | pgbench_history  |          4988928
 2017-02-04 15:58:58.217819+01 | 1486220338.21782 | pgbench_branches |         12599296

 2017-02-04 15:58:59.290875+01 | 1486220339.29087 | pgbench_accounts |      13682466816
 2017-02-04 15:58:59.290875+01 | 1486220339.29087 | pgbench_tellers  |         15523840
 2017-02-04 15:58:59.290875+01 | 1486220339.29087 | pgbench_history  |          6348800
 2017-02-04 15:58:59.290875+01 | 1486220339.29087 | pgbench_branches |         12599296

 2017-02-04 15:59:00.364567+01 | 1486220340.36457 | pgbench_accounts |      13682466816
 2017-02-04 15:59:00.364567+01 | 1486220340.36457 | pgbench_tellers  |         15523840
 2017-02-04 15:59:00.364567+01 | 1486220340.36457 | pgbench_history  |          8396800
 2017-02-04 15:59:00.364567+01 | 1486220340.36457 | pgbench_branches |         12599296

 2017-02-04 15:59:01.446764+01 | 1486220341.44676 | pgbench_accounts |      13682466816
 2017-02-04 15:59:01.446764+01 | 1486220341.44676 | pgbench_tellers  |         15523840
 2017-02-04 15:59:01.446764+01 | 1486220341.44676 | pgbench_history  |          9814016
 2017-02-04 15:59:01.446764+01 | 1486220341.44676 | pgbench_branches |         12599296

 2017-02-04 15:59:02.524911+01 | 1486220342.52491 | pgbench_accounts |      13682466816
 2017-02-04 15:59:02.524911+01 | 1486220342.52491 | pgbench_tellers  |         15523840
 2017-02-04 15:59:02.524911+01 | 1486220342.52491 | pgbench_history  |         11927552
 2017-02-04 15:59:02.524911+01 | 1486220342.52491 | pgbench_branches |         12599296

 2017-02-04 15:59:03.603457+01 | 1486220343.60346 | pgbench_accounts |      13682466816
 2017-02-04 15:59:03.603457+01 | 1486220343.60346 | pgbench_tellers  |         15523840
 2017-02-04 15:59:03.603457+01 | 1486220343.60346 | pgbench_history  |         13287424
 2017-02-04 15:59:03.603457+01 | 1486220343.60346 | pgbench_branches |         12599296

 2017-02-04 15:59:04.678435+01 | 1486220344.67844 | pgbench_accounts |      13682466816
 2017-02-04 15:59:04.678435+01 | 1486220344.67844 | pgbench_tellers  |         15523840
 2017-02-04 15:59:04.678435+01 | 1486220344.67844 | pgbench_history  |         15179776
 2017-02-04 15:59:04.678435+01 | 1486220344.67844 | pgbench_branches |         12599296

 2017-02-04 15:59:05.757424+01 | 1486220345.75742 | pgbench_accounts |      13682466816
 2017-02-04 15:59:05.757424+01 | 1486220345.75742 | pgbench_tellers  |         15523840
 2017-02-04 15:59:05.757424+01 | 1486220345.75742 | pgbench_history  |         17358848
 2017-02-04 15:59:05.757424+01 | 1486220345.75742 | pgbench_branches |         12599296

 2017-02-04 15:59:06.830331+01 | 1486220346.83033 | pgbench_accounts |      13682466816
 2017-02-04 15:59:06.830331+01 | 1486220346.83033 | pgbench_tellers  |         15523840
 2017-02-04 15:59:06.830331+01 | 1486220346.83033 | pgbench_history  |         18554880
 2017-02-04 15:59:06.830331+01 | 1486220346.83033 | pgbench_branches |         12599296

 2017-02-04 15:59:07.90269+01 | 1486220347.90269 | pgbench_accounts |      13682466816
 2017-02-04 15:59:07.90269+01 | 1486220347.90269 | pgbench_tellers  |         15523840
 2017-02-04 15:59:07.90269+01 | 1486220347.90269 | pgbench_history  |         20299776
 2017-02-04 15:59:07.90269+01 | 1486220347.90269 | pgbench_branches |         12599296

 2017-02-04 15:59:08.98292+01 | 1486220348.98292 | pgbench_accounts |      13682466816
 2017-02-04 15:59:08.98292+01 | 1486220348.98292 | pgbench_tellers  |         15523840
 2017-02-04 15:59:08.98292+01 | 1486220348.98292 | pgbench_history  |         22773760
 2017-02-04 15:59:08.98292+01 | 1486220348.98292 | pgbench_branches |         12599296

 2017-02-04 15:59:10.055231+01 | 1486220350.05523 | pgbench_accounts |      13682466816
 2017-02-04 15:59:10.055231+01 | 1486220350.05523 | pgbench_tellers  |         15523840
 2017-02-04 15:59:10.055231+01 | 1486220350.05523 | pgbench_history  |         24322048
 2017-02-04 15:59:10.055231+01 | 1486220350.05523 | pgbench_branches |         12599296

 2017-02-04 15:59:11.127869+01 | 1486220351.12787 | pgbench_accounts |      13682466816
 2017-02-04 15:59:11.127869+01 | 1486220351.12787 | pgbench_tellers  |         15523840
 2017-02-04 15:59:11.127869+01 | 1486220351.12787 | pgbench_history  |         25739264
 2017-02-04 15:59:11.127869+01 | 1486220351.12787 | pgbench_branches |         12599296

 2017-02-04 15:59:12.204634+01 | 1486220352.20463 | pgbench_accounts |      13682466816
 2017-02-04 15:59:12.204634+01 | 1486220352.20463 | pgbench_tellers  |         15523840
 2017-02-04 15:59:12.204634+01 | 1486220352.20463 | pgbench_history  |         28082176
 2017-02-04 15:59:12.204634+01 | 1486220352.20463 | pgbench_branches |         12599296

 2017-02-04 15:59:13.284036+01 | 1486220353.28404 | pgbench_accounts |      13682466816
 2017-02-04 15:59:13.284036+01 | 1486220353.28404 | pgbench_tellers  |         15523840
 2017-02-04 15:59:13.284036+01 | 1486220353.28404 | pgbench_history  |         29114368
 2017-02-04 15:59:13.284036+01 | 1486220353.28404 | pgbench_branches |         12599296

 2017-02-04 15:59:14.359418+01 | 1486220354.35942 | pgbench_accounts |      13682466816
 2017-02-04 15:59:14.359418+01 | 1486220354.35942 | pgbench_tellers  |         15523840
 2017-02-04 15:59:14.359418+01 | 1486220354.35942 | pgbench_history  |         31219712
 2017-02-04 15:59:14.359418+01 | 1486220354.35942 | pgbench_branches |         12599296

 2017-02-04 15:59:15.432789+01 | 1486220355.43279 | pgbench_accounts |      13682466816
 2017-02-04 15:59:15.432789+01 | 1486220355.43279 | pgbench_tellers  |         15523840
 2017-02-04 15:59:15.432789+01 | 1486220355.43279 | pgbench_history  |         32964608
 2017-02-04 15:59:15.432789+01 | 1486220355.43279 | pgbench_branches |         12599296

 2017-02-04 15:59:16.507081+01 | 1486220356.50708 | pgbench_accounts |      13682466816
 2017-02-04 15:59:16.507081+01 | 1486220356.50708 | pgbench_tellers  |         15523840
 2017-02-04 15:59:16.507081+01 | 1486220356.50708 | pgbench_history  |         34512896
 2017-02-04 15:59:16.507081+01 | 1486220356.50708 | pgbench_branches |         12599296

 2017-02-04 15:59:17.578931+01 | 1486220357.57893 | pgbench_accounts |      13682466816
 2017-02-04 15:59:17.578931+01 | 1486220357.57893 | pgbench_tellers  |         15523840
 2017-02-04 15:59:17.578931+01 | 1486220357.57893 | pgbench_history  |         36061184
 2017-02-04 15:59:17.578931+01 | 1486220357.57893 | pgbench_branches |         12599296

 2017-02-04 15:59:18.655178+01 | 1486220358.65518 | pgbench_accounts |      13682466816
 2017-02-04 15:59:18.655178+01 | 1486220358.65518 | pgbench_tellers  |         15523840
 2017-02-04 15:59:18.655178+01 | 1486220358.65518 | pgbench_history  |         37584896
 2017-02-04 15:59:18.655178+01 | 1486220358.65518 | pgbench_branches |         12599296

 2017-02-04 15:59:19.728557+01 | 1486220359.72856 | pgbench_accounts |      13682466816
 2017-02-04 15:59:19.728557+01 | 1486220359.72856 | pgbench_tellers  |         15523840
 2017-02-04 15:59:19.728557+01 | 1486220359.72856 | pgbench_history  |         39641088
 2017-02-04 15:59:19.728557+01 | 1486220359.72856 | pgbench_branches |         12599296

 2017-02-04 15:59:20.805352+01 | 1486220360.80535 | pgbench_accounts |      13682466816
 2017-02-04 15:59:20.805352+01 | 1486220360.80535 | pgbench_tellers  |         15523840
 2017-02-04 15:59:20.805352+01 | 1486220360.80535 | pgbench_history  |         40509440
 2017-02-04 15:59:20.805352+01 | 1486220360.80535 | pgbench_branches |         12599296

 2017-02-04 15:59:21.879794+01 | 1486220361.87979 | pgbench_accounts |      13682466816
 2017-02-04 15:59:21.879794+01 | 1486220361.87979 | pgbench_tellers  |         15523840
 2017-02-04 15:59:21.879794+01 | 1486220361.87979 | pgbench_history  |         42426368
 2017-02-04 15:59:21.879794+01 | 1486220361.87979 | pgbench_branches |         12599296

 2017-02-04 15:59:22.951487+01 | 1486220362.95149 | pgbench_accounts |      13682466816
 2017-02-04 15:59:22.951487+01 | 1486220362.95149 | pgbench_tellers  |         15523840
 2017-02-04 15:59:22.951487+01 | 1486220362.95149 | pgbench_history  |         44277760
 2017-02-04 15:59:22.951487+01 | 1486220362.95149 | pgbench_branches |         12599296

 2017-02-04 15:59:24.024363+01 | 1486220364.02436 | pgbench_accounts |      13682466816
 2017-02-04 15:59:24.024363+01 | 1486220364.02436 | pgbench_tellers  |         15523840
 2017-02-04 15:59:24.024363+01 | 1486220364.02436 | pgbench_history  |         45473792
 2017-02-04 15:59:24.024363+01 | 1486220364.02436 | pgbench_branches |         12599296

 2017-02-04 15:59:25.106012+01 | 1486220365.10601 | pgbench_accounts |      13682466816
 2017-02-04 15:59:25.106012+01 | 1486220365.10601 | pgbench_tellers  |         15523840
 2017-02-04 15:59:25.106012+01 | 1486220365.10601 | pgbench_history  |         46530560
 2017-02-04 15:59:25.106012+01 | 1486220365.10601 | pgbench_branches |         12599296

 2017-02-04 15:59:26.182312+01 | 1486220366.18231 | pgbench_accounts |      13682466816
 2017-02-04 15:59:26.182312+01 | 1486220366.18231 | pgbench_tellers  |         15523840
 2017-02-04 15:59:26.182312+01 | 1486220366.18231 | pgbench_history  |         48242688
 2017-02-04 15:59:26.182312+01 | 1486220366.18231 | pgbench_branches |         12599296

 2017-02-04 15:59:27.262261+01 | 1486220367.26226 | pgbench_accounts |      13682466816
 2017-02-04 15:59:27.262261+01 | 1486220367.26226 | pgbench_tellers  |         15523840
 2017-02-04 15:59:27.262261+01 | 1486220367.26226 | pgbench_history  |         49954816
 2017-02-04 15:59:27.262261+01 | 1486220367.26226 | pgbench_branches |         12599296

 2017-02-04 15:59:28.335209+01 | 1486220368.33521 | pgbench_accounts |      13682466816
 2017-02-04 15:59:28.335209+01 | 1486220368.33521 | pgbench_tellers  |         15523840
 2017-02-04 15:59:28.335209+01 | 1486220368.33521 | pgbench_history  |         50667520
 2017-02-04 15:59:28.335209+01 | 1486220368.33521 | pgbench_branches |         12599296

 2017-02-04 15:59:29.408303+01 | 1486220369.4083 | pgbench_accounts |      13682466816
 2017-02-04 15:59:29.408303+01 | 1486220369.4083 | pgbench_tellers  |         15523840
 2017-02-04 15:59:29.408303+01 | 1486220369.4083 | pgbench_history  |         52568064
 2017-02-04 15:59:29.408303+01 | 1486220369.4083 | pgbench_branches |         12599296

 2017-02-04 15:59:30.479531+01 | 1486220370.47953 | pgbench_accounts |      13682466816
 2017-02-04 15:59:30.479531+01 | 1486220370.47953 | pgbench_tellers  |         15523840
 2017-02-04 15:59:30.479531+01 | 1486220370.47953 | pgbench_history  |         54476800
 2017-02-04 15:59:30.479531+01 | 1486220370.47953 | pgbench_branches |         12599296

 2017-02-04 15:59:31.552262+01 | 1486220371.55226 | pgbench_accounts |      13682466816
 2017-02-04 15:59:31.552262+01 | 1486220371.55226 | pgbench_tellers  |         15523840
 2017-02-04 15:59:31.552262+01 | 1486220371.55226 | pgbench_history  |         55861248
 2017-02-04 15:59:31.552262+01 | 1486220371.55226 | pgbench_branches |         12599296

 2017-02-04 15:59:32.633441+01 | 1486220372.63344 | pgbench_accounts |      13682466816
 2017-02-04 15:59:32.633441+01 | 1486220372.63344 | pgbench_tellers  |         15523840
 2017-02-04 15:59:32.633441+01 | 1486220372.63344 | pgbench_history  |         57245696
 2017-02-04 15:59:32.633441+01 | 1486220372.63344 | pgbench_branches |         12599296

 2017-02-04 15:59:33.704332+01 | 1486220373.70433 | pgbench_accounts |      13682466816
 2017-02-04 15:59:33.704332+01 | 1486220373.70433 | pgbench_tellers  |         15523840
 2017-02-04 15:59:33.704332+01 | 1486220373.70433 | pgbench_history  |         58679296
 2017-02-04 15:59:33.704332+01 | 1486220373.70433 | pgbench_branches |         12599296

 2017-02-04 15:59:34.780186+01 | 1486220374.78019 | pgbench_accounts |      13682466816
 2017-02-04 15:59:34.780186+01 | 1486220374.78019 | pgbench_tellers  |         15523840
 2017-02-04 15:59:34.780186+01 | 1486220374.78019 | pgbench_history  |         60776448
 2017-02-04 15:59:34.780186+01 | 1486220374.78019 | pgbench_branches |         12599296

 2017-02-04 15:59:35.850827+01 | 1486220375.85083 | pgbench_accounts |      13682466816
 2017-02-04 15:59:35.850827+01 | 1486220375.85083 | pgbench_tellers  |         15523840
 2017-02-04 15:59:35.850827+01 | 1486220375.85083 | pgbench_history  |         62160896
 2017-02-04 15:59:35.850827+01 | 1486220375.85083 | pgbench_branches |         12599296

 2017-02-04 15:59:36.926239+01 | 1486220376.92624 | pgbench_accounts |      13682466816
 2017-02-04 15:59:36.926239+01 | 1486220376.92624 | pgbench_tellers  |         15523840
 2017-02-04 15:59:36.926239+01 | 1486220376.92624 | pgbench_history  |         64430080
 2017-02-04 15:59:36.926239+01 | 1486220376.92624 | pgbench_branches |         12599296

 2017-02-04 15:59:37.997585+01 | 1486220377.99759 | pgbench_accounts |      13682466816
 2017-02-04 15:59:37.997585+01 | 1486220377.99759 | pgbench_tellers  |         15523840
 2017-02-04 15:59:37.997585+01 | 1486220377.99759 | pgbench_history  |         65822720
 2017-02-04 15:59:37.997585+01 | 1486220377.99759 | pgbench_branches |         12599296

 2017-02-04 15:59:39.061142+01 | 1486220379.06114 | pgbench_accounts |      13682466816
 2017-02-04 15:59:39.061142+01 | 1486220379.06114 | pgbench_tellers  |         15523840
 2017-02-04 15:59:39.061142+01 | 1486220379.06114 | pgbench_history  |         67575808
 2017-02-04 15:59:39.061142+01 | 1486220379.06114 | pgbench_branches |         12599296

 2017-02-04 15:59:40.134+01 | 1486220380.134 | pgbench_accounts |      13682466816
 2017-02-04 15:59:40.134+01 | 1486220380.134 | pgbench_tellers  |         15523840
 2017-02-04 15:59:40.134+01 | 1486220380.134 | pgbench_history  |         69148672
 2017-02-04 15:59:40.134+01 | 1486220380.134 | pgbench_branches |         12599296

 2017-02-04 15:59:41.211103+01 | 1486220381.2111 | pgbench_accounts |      13682466816
 2017-02-04 15:59:41.211103+01 | 1486220381.2111 | pgbench_tellers  |         15523840
 2017-02-04 15:59:41.211103+01 | 1486220381.2111 | pgbench_history  |         70909952
 2017-02-04 15:59:41.211103+01 | 1486220381.2111 | pgbench_branches |         12599296

 2017-02-04 15:59:42.290092+01 | 1486220382.29009 | pgbench_accounts |      13682466816
 2017-02-04 15:59:42.290092+01 | 1486220382.29009 | pgbench_tellers  |         15523840
 2017-02-04 15:59:42.290092+01 | 1486220382.29009 | pgbench_history  |         72974336
 2017-02-04 15:59:42.290092+01 | 1486220382.29009 | pgbench_branches |         12599296

 2017-02-04 15:59:43.359374+01 | 1486220383.35937 | pgbench_accounts |      13682466816
 2017-02-04 15:59:43.359374+01 | 1486220383.35937 | pgbench_tellers  |         15523840
 2017-02-04 15:59:43.359374+01 | 1486220383.35937 | pgbench_history  |         75202560
 2017-02-04 15:59:43.359374+01 | 1486220383.35937 | pgbench_branches |         12599296

 2017-02-04 15:59:44.436409+01 | 1486220384.43641 | pgbench_accounts |      13682466816
 2017-02-04 15:59:44.436409+01 | 1486220384.43641 | pgbench_tellers  |         15523840
 2017-02-04 15:59:44.436409+01 | 1486220384.43641 | pgbench_history  |         76840960
 2017-02-04 15:59:44.436409+01 | 1486220384.43641 | pgbench_branches |         12599296

 2017-02-04 15:59:45.519792+01 | 1486220385.51979 | pgbench_accounts |      13682466816
 2017-02-04 15:59:45.519792+01 | 1486220385.51979 | pgbench_tellers  |         15523840
 2017-02-04 15:59:45.519792+01 | 1486220385.51979 | pgbench_history  |         78553088
 2017-02-04 15:59:45.519792+01 | 1486220385.51979 | pgbench_branches |         12599296

 2017-02-04 15:59:46.60397+01 | 1486220386.60397 | pgbench_accounts |      13682466816
 2017-02-04 15:59:46.60397+01 | 1486220386.60397 | pgbench_tellers  |         15523840
 2017-02-04 15:59:46.60397+01 | 1486220386.60397 | pgbench_history  |         80453632
 2017-02-04 15:59:46.60397+01 | 1486220386.60397 | pgbench_branches |         12599296

 2017-02-04 15:59:47.673969+01 | 1486220387.67397 | pgbench_accounts |      13682466816
 2017-02-04 15:59:47.673969+01 | 1486220387.67397 | pgbench_tellers  |         15523840
 2017-02-04 15:59:47.673969+01 | 1486220387.67397 | pgbench_history  |         82468864
 2017-02-04 15:59:47.673969+01 | 1486220387.67397 | pgbench_branches |         12599296

 2017-02-04 15:59:48.741731+01 | 1486220388.74173 | pgbench_accounts |      13682466816
 2017-02-04 15:59:48.741731+01 | 1486220388.74173 | pgbench_tellers  |         15523840
 2017-02-04 15:59:48.741731+01 | 1486220388.74173 | pgbench_history  |         84049920
 2017-02-04 15:59:48.741731+01 | 1486220388.74173 | pgbench_branches |         12599296

 2017-02-04 15:59:49.818025+01 | 1486220389.81803 | pgbench_accounts |      13682466816
 2017-02-04 15:59:49.818025+01 | 1486220389.81803 | pgbench_tellers  |         15523840
 2017-02-04 15:59:49.818025+01 | 1486220389.81803 | pgbench_history  |         86228992
 2017-02-04 15:59:49.818025+01 | 1486220389.81803 | pgbench_branches |         12599296

 2017-02-04 15:59:50.886467+01 | 1486220390.88647 | pgbench_accounts |      13682466816
 2017-02-04 15:59:50.886467+01 | 1486220390.88647 | pgbench_tellers  |         15523840
 2017-02-04 15:59:50.886467+01 | 1486220390.88647 | pgbench_history  |         87564288
 2017-02-04 15:59:50.886467+01 | 1486220390.88647 | pgbench_branches |         12599296

 2017-02-04 15:59:51.960932+01 | 1486220391.96093 | pgbench_accounts |      13682466816
 2017-02-04 15:59:51.960932+01 | 1486220391.96093 | pgbench_tellers  |         15523840
 2017-02-04 15:59:51.960932+01 | 1486220391.96093 | pgbench_history  |         89653248
 2017-02-04 15:59:51.960932+01 | 1486220391.96093 | pgbench_branches |         12599296

 2017-02-04 15:59:53.032138+01 | 1486220393.03214 | pgbench_accounts |      13682466816
 2017-02-04 15:59:53.032138+01 | 1486220393.03214 | pgbench_tellers  |         15523840
 2017-02-04 15:59:53.032138+01 | 1486220393.03214 | pgbench_history  |         91365376
 2017-02-04 15:59:53.032138+01 | 1486220393.03214 | pgbench_branches |         12599296

 2017-02-04 15:59:54.106775+01 | 1486220394.10678 | pgbench_accounts |      13682466816
 2017-02-04 15:59:54.106775+01 | 1486220394.10678 | pgbench_tellers  |         15523840
 2017-02-04 15:59:54.106775+01 | 1486220394.10678 | pgbench_history  |         93741056
 2017-02-04 15:59:54.106775+01 | 1486220394.10678 | pgbench_branches |         12599296

 2017-02-04 15:59:55.178776+01 | 1486220395.17878 | pgbench_accounts |      13682466816
 2017-02-04 15:59:55.178776+01 | 1486220395.17878 | pgbench_tellers  |         15523840
 2017-02-04 15:59:55.178776+01 | 1486220395.17878 | pgbench_history  |         95453184
 2017-02-04 15:59:55.178776+01 | 1486220395.17878 | pgbench_branches |         12599296

 2017-02-04 15:59:56.252118+01 | 1486220396.25212 | pgbench_accounts |      13682466816
 2017-02-04 15:59:56.252118+01 | 1486220396.25212 | pgbench_tellers  |         15523840
 2017-02-04 15:59:56.252118+01 | 1486220396.25212 | pgbench_history  |         97001472
 2017-02-04 15:59:56.252118+01 | 1486220396.25212 | pgbench_branches |         12599296

 2017-02-04 15:59:57.330722+01 | 1486220397.33072 | pgbench_accounts |      13682466816
 2017-02-04 15:59:57.330722+01 | 1486220397.33072 | pgbench_tellers  |         15523840
 2017-02-04 15:59:57.330722+01 | 1486220397.33072 | pgbench_history  |         98902016
 2017-02-04 15:59:57.330722+01 | 1486220397.33072 | pgbench_branches |         12599296

 2017-02-04 15:59:58.403536+01 | 1486220398.40354 | pgbench_accounts |      13682466816
 2017-02-04 15:59:58.403536+01 | 1486220398.40354 | pgbench_tellers  |         15523840
 2017-02-04 15:59:58.403536+01 | 1486220398.40354 | pgbench_history  |        102105088
 2017-02-04 15:59:58.403536+01 | 1486220398.40354 | pgbench_branches |         12599296

 2017-02-04 15:59:59.483095+01 | 1486220399.48309 | pgbench_accounts |      13682466816
 2017-02-04 15:59:59.483095+01 | 1486220399.48309 | pgbench_tellers  |         15523840
 2017-02-04 15:59:59.483095+01 | 1486220399.48309 | pgbench_history  |        102957056
 2017-02-04 15:59:59.483095+01 | 1486220399.48309 | pgbench_branches |         12599296

 2017-02-04 16:00:00.556127+01 | 1486220400.55613 | pgbench_accounts |      13682466816
 2017-02-04 16:00:00.556127+01 | 1486220400.55613 | pgbench_tellers  |         15523840
 2017-02-04 16:00:00.556127+01 | 1486220400.55613 | pgbench_history  |        104726528
 2017-02-04 16:00:00.556127+01 | 1486220400.55613 | pgbench_branches |         12599296

 2017-02-04 16:00:01.630416+01 | 1486220401.63042 | pgbench_accounts |      13682466816
 2017-02-04 16:00:01.630416+01 | 1486220401.63042 | pgbench_tellers  |         15523840
 2017-02-04 16:00:01.630416+01 | 1486220401.63042 | pgbench_history  |        106315776
 2017-02-04 16:00:01.630416+01 | 1486220401.63042 | pgbench_branches |         12599296

 2017-02-04 16:00:02.706578+01 | 1486220402.70658 | pgbench_accounts |      13682466816
 2017-02-04 16:00:02.706578+01 | 1486220402.70658 | pgbench_tellers  |         15523840
 2017-02-04 16:00:02.706578+01 | 1486220402.70658 | pgbench_history  |        107929600
 2017-02-04 16:00:02.706578+01 | 1486220402.70658 | pgbench_branches |         12599296

 2017-02-04 16:00:03.788336+01 | 1486220403.78834 | pgbench_accounts |      13682466816
 2017-02-04 16:00:03.788336+01 | 1486220403.78834 | pgbench_tellers  |         15523840
 2017-02-04 16:00:03.788336+01 | 1486220403.78834 | pgbench_history  |        110297088
 2017-02-04 16:00:03.788336+01 | 1486220403.78834 | pgbench_branches |         12599296

 2017-02-04 16:00:04.865251+01 | 1486220404.86525 | pgbench_accounts |      13682466816
 2017-02-04 16:00:04.865251+01 | 1486220404.86525 | pgbench_tellers  |         15523840
 2017-02-04 16:00:04.865251+01 | 1486220404.86525 | pgbench_history  |        112009216
 2017-02-04 16:00:04.865251+01 | 1486220404.86525 | pgbench_branches |         12599296

 2017-02-04 16:00:05.935278+01 | 1486220405.93528 | pgbench_accounts |      13682466816
 2017-02-04 16:00:05.935278+01 | 1486220405.93528 | pgbench_tellers  |         15523840
 2017-02-04 16:00:05.935278+01 | 1486220405.93528 | pgbench_history  |        113696768
 2017-02-04 16:00:05.935278+01 | 1486220405.93528 | pgbench_branches |         12599296

 2017-02-04 16:00:07.007607+01 | 1486220407.00761 | pgbench_accounts |      13682466816
 2017-02-04 16:00:07.007607+01 | 1486220407.00761 | pgbench_tellers  |         15523840
 2017-02-04 16:00:07.007607+01 | 1486220407.00761 | pgbench_history  |        114540544
 2017-02-04 16:00:07.007607+01 | 1486220407.00761 | pgbench_branches |         12599296

 2017-02-04 16:00:08.086369+01 | 1486220408.08637 | pgbench_accounts |      13682466816
 2017-02-04 16:00:08.086369+01 | 1486220408.08637 | pgbench_tellers  |         15523840
 2017-02-04 16:00:08.086369+01 | 1486220408.08637 | pgbench_history  |        115769344
 2017-02-04 16:00:08.086369+01 | 1486220408.08637 | pgbench_branches |         12599296

 2017-02-04 16:00:09.15756+01 | 1486220409.15756 | pgbench_accounts |      13682466816
 2017-02-04 16:00:09.15756+01 | 1486220409.15756 | pgbench_tellers  |         15523840
 2017-02-04 16:00:09.15756+01 | 1486220409.15756 | pgbench_history  |        117456896
 2017-02-04 16:00:09.15756+01 | 1486220409.15756 | pgbench_branches |         12599296

 2017-02-04 16:00:10.231957+01 | 1486220410.23196 | pgbench_accounts |      13682466816
 2017-02-04 16:00:10.231957+01 | 1486220410.23196 | pgbench_tellers  |         15523840
 2017-02-04 16:00:10.231957+01 | 1486220410.23196 | pgbench_history  |        119193600
 2017-02-04 16:00:10.231957+01 | 1486220410.23196 | pgbench_branches |         12599296

 2017-02-04 16:00:11.310167+01 | 1486220411.31017 | pgbench_accounts |      13682466816
 2017-02-04 16:00:11.310167+01 | 1486220411.31017 | pgbench_tellers  |         15523840
 2017-02-04 16:00:11.310167+01 | 1486220411.31017 | pgbench_history  |        120578048
 2017-02-04 16:00:11.310167+01 | 1486220411.31017 | pgbench_branches |         12599296

 2017-02-04 16:00:12.385666+01 | 1486220412.38567 | pgbench_accounts |      13682466816
 2017-02-04 16:00:12.385666+01 | 1486220412.38567 | pgbench_tellers  |         15523840
 2017-02-04 16:00:12.385666+01 | 1486220412.38567 | pgbench_history  |        122322944
 2017-02-04 16:00:12.385666+01 | 1486220412.38567 | pgbench_branches |         12599296

 2017-02-04 16:00:13.456941+01 | 1486220413.45694 | pgbench_accounts |      13682466816
 2017-02-04 16:00:13.456941+01 | 1486220413.45694 | pgbench_tellers  |         15523840
 2017-02-04 16:00:13.456941+01 | 1486220413.45694 | pgbench_history  |        124010496
 2017-02-04 16:00:13.456941+01 | 1486220413.45694 | pgbench_branches |         12599296

 2017-02-04 16:00:14.535017+01 | 1486220414.53502 | pgbench_accounts |      13682466816
 2017-02-04 16:00:14.535017+01 | 1486220414.53502 | pgbench_tellers  |         15523840
 2017-02-04 16:00:14.535017+01 | 1486220414.53502 | pgbench_history  |        125829120
 2017-02-04 16:00:14.535017+01 | 1486220414.53502 | pgbench_branches |         12599296

 2017-02-04 16:00:15.615491+01 | 1486220415.61549 | pgbench_accounts |      13682466816
 2017-02-04 16:00:15.615491+01 | 1486220415.61549 | pgbench_tellers  |         15523840
 2017-02-04 16:00:15.615491+01 | 1486220415.61549 | pgbench_history  |        127918080
 2017-02-04 16:00:15.615491+01 | 1486220415.61549 | pgbench_branches |         12599296

 2017-02-04 16:00:16.687336+01 | 1486220416.68734 | pgbench_accounts |      13682466816
 2017-02-04 16:00:16.687336+01 | 1486220416.68734 | pgbench_tellers  |         15523840
 2017-02-04 16:00:16.687336+01 | 1486220416.68734 | pgbench_history  |        129818624
 2017-02-04 16:00:16.687336+01 | 1486220416.68734 | pgbench_branches |         12599296

 2017-02-04 16:00:17.76981+01 | 1486220417.76981 | pgbench_accounts |      13682466816
 2017-02-04 16:00:17.76981+01 | 1486220417.76981 | pgbench_tellers  |         15523840
 2017-02-04 16:00:17.76981+01 | 1486220417.76981 | pgbench_history  |        131891200
 2017-02-04 16:00:17.76981+01 | 1486220417.76981 | pgbench_branches |         12599296

 2017-02-04 16:00:18.841402+01 | 1486220418.8414 | pgbench_accounts |      13682466816
 2017-02-04 16:00:18.841402+01 | 1486220418.8414 | pgbench_tellers  |         15523840
 2017-02-04 16:00:18.841402+01 | 1486220418.8414 | pgbench_history  |        133414912
 2017-02-04 16:00:18.841402+01 | 1486220418.8414 | pgbench_branches |         12599296

 2017-02-04 16:00:19.914395+01 | 1486220419.9144 | pgbench_accounts |      13682466816
 2017-02-04 16:00:19.914395+01 | 1486220419.9144 | pgbench_tellers  |         15523840
 2017-02-04 16:00:19.914395+01 | 1486220419.9144 | pgbench_history  |        136978432
 2017-02-04 16:00:19.914395+01 | 1486220419.9144 | pgbench_branches |         12599296

 2017-02-04 16:00:20.993577+01 | 1486220420.99358 | pgbench_accounts |      13682466816
 2017-02-04 16:00:20.993577+01 | 1486220420.99358 | pgbench_tellers  |         15523840
 2017-02-04 16:00:20.993577+01 | 1486220420.99358 | pgbench_history  |        137166848
 2017-02-04 16:00:20.993577+01 | 1486220420.99358 | pgbench_branches |         12599296

 2017-02-04 16:00:22.06928+01 | 1486220422.06928 | pgbench_accounts |      13682466816
 2017-02-04 16:00:22.06928+01 | 1486220422.06928 | pgbench_tellers  |         15523840
 2017-02-04 16:00:22.06928+01 | 1486220422.06928 | pgbench_history  |        139264000
 2017-02-04 16:00:22.06928+01 | 1486220422.06928 | pgbench_branches |         12599296

 2017-02-04 16:00:23.145017+01 | 1486220423.14502 | pgbench_accounts |      13682466816
 2017-02-04 16:00:23.145017+01 | 1486220423.14502 | pgbench_tellers  |         15523840
 2017-02-04 16:00:23.145017+01 | 1486220423.14502 | pgbench_history  |        140853248
 2017-02-04 16:00:23.145017+01 | 1486220423.14502 | pgbench_branches |         12599296

 2017-02-04 16:00:24.222168+01 | 1486220424.22217 | pgbench_accounts |      13682466816
 2017-02-04 16:00:24.222168+01 | 1486220424.22217 | pgbench_tellers  |         15523840
 2017-02-04 16:00:24.222168+01 | 1486220424.22217 | pgbench_history  |        142630912
 2017-02-04 16:00:24.222168+01 | 1486220424.22217 | pgbench_branches |         12599296

 2017-02-04 16:00:25.299658+01 | 1486220425.29966 | pgbench_accounts |      13682466816
 2017-02-04 16:00:25.299658+01 | 1486220425.29966 | pgbench_tellers  |         15523840
 2017-02-04 16:00:25.299658+01 | 1486220425.29966 | pgbench_history  |        144859136
 2017-02-04 16:00:25.299658+01 | 1486220425.29966 | pgbench_branches |         12599296

 2017-02-04 16:00:26.376103+01 | 1486220426.3761 | pgbench_accounts |      13682466816
 2017-02-04 16:00:26.376103+01 | 1486220426.3761 | pgbench_tellers  |         15523840
 2017-02-04 16:00:26.376103+01 | 1486220426.3761 | pgbench_history  |        146833408
 2017-02-04 16:00:26.376103+01 | 1486220426.3761 | pgbench_branches |         12599296

 2017-02-04 16:00:27.444726+01 | 1486220427.44473 | pgbench_accounts |      13682466816
 2017-02-04 16:00:27.444726+01 | 1486220427.44473 | pgbench_tellers  |         15523840
 2017-02-04 16:00:27.444726+01 | 1486220427.44473 | pgbench_history  |        148381696
 2017-02-04 16:00:27.444726+01 | 1486220427.44473 | pgbench_branches |         12599296

 2017-02-04 16:00:28.52119+01 | 1486220428.52119 | pgbench_accounts |      13682466816
 2017-02-04 16:00:28.52119+01 | 1486220428.52119 | pgbench_tellers  |         15523840
 2017-02-04 16:00:28.52119+01 | 1486220428.52119 | pgbench_history  |        150773760
 2017-02-04 16:00:28.52119+01 | 1486220428.52119 | pgbench_branches |         12599296

 2017-02-04 16:00:29.595506+01 | 1486220429.59551 | pgbench_accounts |      13682466816
 2017-02-04 16:00:29.595506+01 | 1486220429.59551 | pgbench_tellers  |         15523840
 2017-02-04 16:00:29.595506+01 | 1486220429.59551 | pgbench_history  |        152027136
 2017-02-04 16:00:29.595506+01 | 1486220429.59551 | pgbench_branches |         12599296

 2017-02-04 16:00:30.665242+01 | 1486220430.66524 | pgbench_accounts |      13682466816
 2017-02-04 16:00:30.665242+01 | 1486220430.66524 | pgbench_tellers  |         15523840
 2017-02-04 16:00:30.665242+01 | 1486220430.66524 | pgbench_history  |        153911296
 2017-02-04 16:00:30.665242+01 | 1486220430.66524 | pgbench_branches |         12599296

 2017-02-04 16:00:31.74067+01 | 1486220431.74067 | pgbench_accounts |      13682466816
 2017-02-04 16:00:31.74067+01 | 1486220431.74067 | pgbench_tellers  |         15523840
 2017-02-04 16:00:31.74067+01 | 1486220431.74067 | pgbench_history  |        156082176
 2017-02-04 16:00:31.74067+01 | 1486220431.74067 | pgbench_branches |         12599296

 2017-02-04 16:00:32.817487+01 | 1486220432.81749 | pgbench_accounts |      13682466816
 2017-02-04 16:00:32.817487+01 | 1486220432.81749 | pgbench_tellers  |         15523840
 2017-02-04 16:00:32.817487+01 | 1486220432.81749 | pgbench_history  |        157810688
 2017-02-04 16:00:32.817487+01 | 1486220432.81749 | pgbench_branches |         12599296

 2017-02-04 16:00:33.892043+01 | 1486220433.89204 | pgbench_accounts |      13682466816
 2017-02-04 16:00:33.892043+01 | 1486220433.89204 | pgbench_tellers  |         15523840
 2017-02-04 16:00:33.892043+01 | 1486220433.89204 | pgbench_history  |        160063488
 2017-02-04 16:00:33.892043+01 | 1486220433.89204 | pgbench_branches |         12599296

 2017-02-04 16:00:34.968715+01 | 1486220434.96871 | pgbench_accounts |      13682466816
 2017-02-04 16:00:34.968715+01 | 1486220434.96871 | pgbench_tellers  |         15523840
 2017-02-04 16:00:34.968715+01 | 1486220434.96871 | pgbench_history  |        161964032
 2017-02-04 16:00:34.968715+01 | 1486220434.96871 | pgbench_branches |         12599296

 2017-02-04 16:00:36.043786+01 | 1486220436.04379 | pgbench_accounts |      13682466816
 2017-02-04 16:00:36.043786+01 | 1486220436.04379 | pgbench_tellers  |         15523840
 2017-02-04 16:00:36.043786+01 | 1486220436.04379 | pgbench_history  |        164421632
 2017-02-04 16:00:36.043786+01 | 1486220436.04379 | pgbench_branches |         12599296

 2017-02-04 16:00:37.119025+01 | 1486220437.11902 | pgbench_accounts |      13682466816
 2017-02-04 16:00:37.119025+01 | 1486220437.11902 | pgbench_tellers  |         15523840
 2017-02-04 16:00:37.119025+01 | 1486220437.11902 | pgbench_history  |        165920768
 2017-02-04 16:00:37.119025+01 | 1486220437.11902 | pgbench_branches |         12599296

 2017-02-04 16:00:38.194241+01 | 1486220438.19424 | pgbench_accounts |      13682466816
 2017-02-04 16:00:38.194241+01 | 1486220438.19424 | pgbench_tellers  |         15523840
 2017-02-04 16:00:38.194241+01 | 1486220438.19424 | pgbench_history  |        167477248
 2017-02-04 16:00:38.194241+01 | 1486220438.19424 | pgbench_branches |         12599296

 2017-02-04 16:00:39.259255+01 | 1486220439.25925 | pgbench_accounts |      13682466816
 2017-02-04 16:00:39.259255+01 | 1486220439.25925 | pgbench_tellers  |         15523840
 2017-02-04 16:00:39.259255+01 | 1486220439.25925 | pgbench_history  |        169353216
 2017-02-04 16:00:39.259255+01 | 1486220439.25925 | pgbench_branches |         12599296

 2017-02-04 16:00:40.331339+01 | 1486220440.33134 | pgbench_accounts |      13682466816
 2017-02-04 16:00:40.331339+01 | 1486220440.33134 | pgbench_tellers  |         15523840
 2017-02-04 16:00:40.331339+01 | 1486220440.33134 | pgbench_history  |        170950656
 2017-02-04 16:00:40.331339+01 | 1486220440.33134 | pgbench_branches |         12599296

 2017-02-04 16:00:41.409195+01 | 1486220441.40919 | pgbench_accounts |      13682466816
 2017-02-04 16:00:41.409195+01 | 1486220441.40919 | pgbench_tellers  |         15523840
 2017-02-04 16:00:41.409195+01 | 1486220441.40919 | pgbench_history  |        173047808
 2017-02-04 16:00:41.409195+01 | 1486220441.40919 | pgbench_branches |         12599296

 2017-02-04 16:00:42.482635+01 | 1486220442.48264 | pgbench_accounts |      13682466816
 2017-02-04 16:00:42.482635+01 | 1486220442.48264 | pgbench_tellers  |         15523840
 2017-02-04 16:00:42.482635+01 | 1486220442.48264 | pgbench_history  |        174759936
 2017-02-04 16:00:42.482635+01 | 1486220442.48264 | pgbench_branches |         12599296

 2017-02-04 16:00:43.55597+01 | 1486220443.55597 | pgbench_accounts |      13682466816
 2017-02-04 16:00:43.55597+01 | 1486220443.55597 | pgbench_tellers  |         15523840
 2017-02-04 16:00:43.55597+01 | 1486220443.55597 | pgbench_history  |        176660480
 2017-02-04 16:00:43.55597+01 | 1486220443.55597 | pgbench_branches |         12599296

 2017-02-04 16:00:44.633818+01 | 1486220444.63382 | pgbench_accounts |      13682466816
 2017-02-04 16:00:44.633818+01 | 1486220444.63382 | pgbench_tellers  |         15523840
 2017-02-04 16:00:44.633818+01 | 1486220444.63382 | pgbench_history  |        179011584
 2017-02-04 16:00:44.633818+01 | 1486220444.63382 | pgbench_branches |         12599296

 2017-02-04 16:00:45.70613+01 | 1486220445.70613 | pgbench_accounts |      13682466816
 2017-02-04 16:00:45.70613+01 | 1486220445.70613 | pgbench_tellers  |         15523840
 2017-02-04 16:00:45.70613+01 | 1486220445.70613 | pgbench_history  |        180420608
 2017-02-04 16:00:45.70613+01 | 1486220445.70613 | pgbench_branches |         12599296

 2017-02-04 16:00:46.782013+01 | 1486220446.78201 | pgbench_accounts |      13682466816
 2017-02-04 16:00:46.782013+01 | 1486220446.78201 | pgbench_tellers  |         15523840
 2017-02-04 16:00:46.782013+01 | 1486220446.78201 | pgbench_history  |        182140928
 2017-02-04 16:00:46.782013+01 | 1486220446.78201 | pgbench_branches |         12599296

 2017-02-04 16:00:47.853208+01 | 1486220447.85321 | pgbench_accounts |      13682466816
 2017-02-04 16:00:47.853208+01 | 1486220447.85321 | pgbench_tellers  |         15523840
 2017-02-04 16:00:47.853208+01 | 1486220447.85321 | pgbench_history  |        184238080
 2017-02-04 16:00:47.853208+01 | 1486220447.85321 | pgbench_branches |         12599296

 2017-02-04 16:00:48.925437+01 | 1486220448.92544 | pgbench_accounts |      13682466816
 2017-02-04 16:00:48.925437+01 | 1486220448.92544 | pgbench_tellers  |         15523840
 2017-02-04 16:00:48.925437+01 | 1486220448.92544 | pgbench_history  |        186089472
 2017-02-04 16:00:48.925437+01 | 1486220448.92544 | pgbench_branches |         12599296

 2017-02-04 16:00:49.996686+01 | 1486220449.99669 | pgbench_accounts |      13682466816
 2017-02-04 16:00:49.996686+01 | 1486220449.99669 | pgbench_tellers  |         15523840
 2017-02-04 16:00:49.996686+01 | 1486220449.99669 | pgbench_history  |        187801600
 2017-02-04 16:00:49.996686+01 | 1486220449.99669 | pgbench_branches |         12599296

 2017-02-04 16:00:51.07405+01 | 1486220451.07405 | pgbench_accounts |      13682466816
 2017-02-04 16:00:51.07405+01 | 1486220451.07405 | pgbench_tellers  |         15523840
 2017-02-04 16:00:51.07405+01 | 1486220451.07405 | pgbench_history  |        190193664
 2017-02-04 16:00:51.07405+01 | 1486220451.07405 | pgbench_branches |         12599296

 2017-02-04 16:00:52.154593+01 | 1486220452.15459 | pgbench_accounts |      13682466816
 2017-02-04 16:00:52.154593+01 | 1486220452.15459 | pgbench_tellers  |         15523840
 2017-02-04 16:00:52.154593+01 | 1486220452.15459 | pgbench_history  |        191578112
 2017-02-04 16:00:52.154593+01 | 1486220452.15459 | pgbench_branches |         12599296

 2017-02-04 16:00:53.229756+01 | 1486220453.22976 | pgbench_accounts |      13682466816
 2017-02-04 16:00:53.229756+01 | 1486220453.22976 | pgbench_tellers  |         15523840
 2017-02-04 16:00:53.229756+01 | 1486220453.22976 | pgbench_history  |        193650688
 2017-02-04 16:00:53.229756+01 | 1486220453.22976 | pgbench_branches |         12599296

 2017-02-04 16:00:54.304731+01 | 1486220454.30473 | pgbench_accounts |      13682466816
 2017-02-04 16:00:54.304731+01 | 1486220454.30473 | pgbench_tellers  |         15523840
 2017-02-04 16:00:54.304731+01 | 1486220454.30473 | pgbench_history  |        195043328
 2017-02-04 16:00:54.304731+01 | 1486220454.30473 | pgbench_branches |         12599296

 2017-02-04 16:00:55.377732+01 | 1486220455.37773 | pgbench_accounts |      13682466816
 2017-02-04 16:00:55.377732+01 | 1486220455.37773 | pgbench_tellers  |         15523840
 2017-02-04 16:00:55.377732+01 | 1486220455.37773 | pgbench_history  |        196780032
 2017-02-04 16:00:55.377732+01 | 1486220455.37773 | pgbench_branches |         12599296

 2017-02-04 16:00:56.458266+01 | 1486220456.45827 | pgbench_accounts |      13682466816
 2017-02-04 16:00:56.458266+01 | 1486220456.45827 | pgbench_tellers  |         15523840
 2017-02-04 16:00:56.458266+01 | 1486220456.45827 | pgbench_history  |        198729728
 2017-02-04 16:00:56.458266+01 | 1486220456.45827 | pgbench_branches |         12599296

 2017-02-04 16:00:57.536784+01 | 1486220457.53678 | pgbench_accounts |      13682466816
 2017-02-04 16:00:57.536784+01 | 1486220457.53678 | pgbench_tellers  |         15523840
 2017-02-04 16:00:57.536784+01 | 1486220457.53678 | pgbench_history  |        200843264
 2017-02-04 16:00:57.536784+01 | 1486220457.53678 | pgbench_branches |         12599296

 2017-02-04 16:00:58.615217+01 | 1486220458.61522 | pgbench_accounts |      13682466816
 2017-02-04 16:00:58.615217+01 | 1486220458.61522 | pgbench_tellers  |         15523840
 2017-02-04 16:00:58.615217+01 | 1486220458.61522 | pgbench_history  |        202694656
 2017-02-04 16:00:58.615217+01 | 1486220458.61522 | pgbench_branches |         12599296

 2017-02-04 16:00:59.695306+01 | 1486220459.69531 | pgbench_accounts |      13682466816
 2017-02-04 16:00:59.695306+01 | 1486220459.69531 | pgbench_tellers  |         15523840
 2017-02-04 16:00:59.695306+01 | 1486220459.69531 | pgbench_history  |        204439552
 2017-02-04 16:00:59.695306+01 | 1486220459.69531 | pgbench_branches |         12599296

 2017-02-04 16:01:00.773966+01 | 1486220460.77397 | pgbench_accounts |      13682466816
 2017-02-04 16:01:00.773966+01 | 1486220460.77397 | pgbench_tellers  |         15523840
 2017-02-04 16:01:00.773966+01 | 1486220460.77397 | pgbench_history  |        206159872
 2017-02-04 16:01:00.773966+01 | 1486220460.77397 | pgbench_branches |         12599296

 2017-02-04 16:01:01.858373+01 | 1486220461.85837 | pgbench_accounts |      13682466816
 2017-02-04 16:01:01.858373+01 | 1486220461.85837 | pgbench_tellers  |         15523840
 2017-02-04 16:01:01.858373+01 | 1486220461.85837 | pgbench_history  |        208625664
 2017-02-04 16:01:01.858373+01 | 1486220461.85837 | pgbench_branches |         12599296

 2017-02-04 16:01:02.939274+01 | 1486220462.93927 | pgbench_accounts |      13682466816
 2017-02-04 16:01:02.939274+01 | 1486220462.93927 | pgbench_tellers  |         15523840
 2017-02-04 16:01:02.939274+01 | 1486220462.93927 | pgbench_history  |        209682432
 2017-02-04 16:01:02.939274+01 | 1486220462.93927 | pgbench_branches |         12599296

 2017-02-04 16:01:04.015374+01 | 1486220464.01537 | pgbench_accounts |      13682466816
 2017-02-04 16:01:04.015374+01 | 1486220464.01537 | pgbench_tellers  |         15523840
 2017-02-04 16:01:04.015374+01 | 1486220464.01537 | pgbench_history  |        211574784
 2017-02-04 16:01:04.015374+01 | 1486220464.01537 | pgbench_branches |         12599296

 2017-02-04 16:01:05.091537+01 | 1486220465.09154 | pgbench_accounts |      13682466816
 2017-02-04 16:01:05.091537+01 | 1486220465.09154 | pgbench_tellers  |         15523840
 2017-02-04 16:01:05.091537+01 | 1486220465.09154 | pgbench_history  |        214048768
 2017-02-04 16:01:05.091537+01 | 1486220465.09154 | pgbench_branches |         12599296

 2017-02-04 16:01:06.168343+01 | 1486220466.16834 | pgbench_accounts |      13682466816
 2017-02-04 16:01:06.168343+01 | 1486220466.16834 | pgbench_tellers  |         15523840
 2017-02-04 16:01:06.168343+01 | 1486220466.16834 | pgbench_history  |        216227840
 2017-02-04 16:01:06.168343+01 | 1486220466.16834 | pgbench_branches |         12599296

 2017-02-04 16:01:07.24424+01 | 1486220467.24424 | pgbench_accounts |      13682466816
 2017-02-04 16:01:07.24424+01 | 1486220467.24424 | pgbench_tellers  |         15523840
 2017-02-04 16:01:07.24424+01 | 1486220467.24424 | pgbench_history  |        217595904
 2017-02-04 16:01:07.24424+01 | 1486220467.24424 | pgbench_branches |         12599296

 2017-02-04 16:01:08.315356+01 | 1486220468.31536 | pgbench_accounts |      13682466816
 2017-02-04 16:01:08.315356+01 | 1486220468.31536 | pgbench_tellers  |         15523840
 2017-02-04 16:01:08.315356+01 | 1486220468.31536 | pgbench_history  |        219283456
 2017-02-04 16:01:08.315356+01 | 1486220468.31536 | pgbench_branches |         12599296

 2017-02-04 16:01:09.388588+01 | 1486220469.38859 | pgbench_accounts |      13682466816
 2017-02-04 16:01:09.388588+01 | 1486220469.38859 | pgbench_tellers  |         15523840
 2017-02-04 16:01:09.388588+01 | 1486220469.38859 | pgbench_history  |        221208576
 2017-02-04 16:01:09.388588+01 | 1486220469.38859 | pgbench_branches |         12599296

 2017-02-04 16:01:10.463162+01 | 1486220470.46316 | pgbench_accounts |      13682466816
 2017-02-04 16:01:10.463162+01 | 1486220470.46316 | pgbench_tellers  |         15523840
 2017-02-04 16:01:10.463162+01 | 1486220470.46316 | pgbench_history  |        223256576
 2017-02-04 16:01:10.463162+01 | 1486220470.46316 | pgbench_branches |         12599296

 2017-02-04 16:01:11.540285+01 | 1486220471.54029 | pgbench_accounts |      13682466816
 2017-02-04 16:01:11.540285+01 | 1486220471.54029 | pgbench_tellers  |         15523840
 2017-02-04 16:01:11.540285+01 | 1486220471.54029 | pgbench_history  |        225484800
 2017-02-04 16:01:11.540285+01 | 1486220471.54029 | pgbench_branches |         12599296

 2017-02-04 16:01:12.615237+01 | 1486220472.61524 | pgbench_accounts |      13682466816
 2017-02-04 16:01:12.615237+01 | 1486220472.61524 | pgbench_tellers  |         15523840
 2017-02-04 16:01:12.615237+01 | 1486220472.61524 | pgbench_history  |        227221504
 2017-02-04 16:01:12.615237+01 | 1486220472.61524 | pgbench_branches |         12599296

 2017-02-04 16:01:13.686579+01 | 1486220473.68658 | pgbench_accounts |      13682466816
 2017-02-04 16:01:13.686579+01 | 1486220473.68658 | pgbench_tellers  |         15523840
 2017-02-04 16:01:13.686579+01 | 1486220473.68658 | pgbench_history  |        229261312
 2017-02-04 16:01:13.686579+01 | 1486220473.68658 | pgbench_branches |         12599296

 2017-02-04 16:01:14.767737+01 | 1486220474.76774 | pgbench_accounts |      13682466816
 2017-02-04 16:01:14.767737+01 | 1486220474.76774 | pgbench_tellers  |         15523840
 2017-02-04 16:01:14.767737+01 | 1486220474.76774 | pgbench_history  |        230809600
 2017-02-04 16:01:14.767737+01 | 1486220474.76774 | pgbench_branches |         12599296

 2017-02-04 16:01:15.84405+01 | 1486220475.84405 | pgbench_accounts |      13682466816
 2017-02-04 16:01:15.84405+01 | 1486220475.84405 | pgbench_tellers  |         15523840
 2017-02-04 16:01:15.84405+01 | 1486220475.84405 | pgbench_history  |        232497152
 2017-02-04 16:01:15.84405+01 | 1486220475.84405 | pgbench_branches |         12599296

 2017-02-04 16:01:16.922219+01 | 1486220476.92222 | pgbench_accounts |      13682466816
 2017-02-04 16:01:16.922219+01 | 1486220476.92222 | pgbench_tellers  |         15523840
 2017-02-04 16:01:16.922219+01 | 1486220476.92222 | pgbench_history  |        234258432
 2017-02-04 16:01:16.922219+01 | 1486220476.92222 | pgbench_branches |         12599296

 2017-02-04 16:01:18.000359+01 | 1486220478.00036 | pgbench_accounts |      13682466816
 2017-02-04 16:01:18.000359+01 | 1486220478.00036 | pgbench_tellers  |         15523840
 2017-02-04 16:01:18.000359+01 | 1486220478.00036 | pgbench_history  |        236027904
 2017-02-04 16:01:18.000359+01 | 1486220478.00036 | pgbench_branches |         12599296

 2017-02-04 16:01:19.074793+01 | 1486220479.07479 | pgbench_accounts |      13682466816
 2017-02-04 16:01:19.074793+01 | 1486220479.07479 | pgbench_tellers  |         15523840
 2017-02-04 16:01:19.074793+01 | 1486220479.07479 | pgbench_history  |        238223360
 2017-02-04 16:01:19.074793+01 | 1486220479.07479 | pgbench_branches |         12599296

 2017-02-04 16:01:20.153527+01 | 1486220480.15353 | pgbench_accounts |      13682466816
 2017-02-04 16:01:20.153527+01 | 1486220480.15353 | pgbench_tellers  |         15523840
 2017-02-04 16:01:20.153527+01 | 1486220480.15353 | pgbench_history  |        240451584
 2017-02-04 16:01:20.153527+01 | 1486220480.15353 | pgbench_branches |         12599296

 2017-02-04 16:01:21.232022+01 | 1486220481.23202 | pgbench_accounts |      13682466816
 2017-02-04 16:01:21.232022+01 | 1486220481.23202 | pgbench_tellers  |         15523840
 2017-02-04 16:01:21.232022+01 | 1486220481.23202 | pgbench_history  |        241623040
 2017-02-04 16:01:21.232022+01 | 1486220481.23202 | pgbench_branches |         12599296

 2017-02-04 16:01:22.309537+01 | 1486220482.30954 | pgbench_accounts |      13682466816
 2017-02-04 16:01:22.309537+01 | 1486220482.30954 | pgbench_tellers  |         15523840
 2017-02-04 16:01:22.309537+01 | 1486220482.30954 | pgbench_history  |        243204096
 2017-02-04 16:01:22.309537+01 | 1486220482.30954 | pgbench_branches |         12599296

 2017-02-04 16:01:23.3885+01 | 1486220483.3885 | pgbench_accounts |      13682466816
 2017-02-04 16:01:23.3885+01 | 1486220483.3885 | pgbench_tellers  |         15523840
 2017-02-04 16:01:23.3885+01 | 1486220483.3885 | pgbench_history  |        244916224
 2017-02-04 16:01:23.3885+01 | 1486220483.3885 | pgbench_branches |         12599296

 2017-02-04 16:01:24.462727+01 | 1486220484.46273 | pgbench_accounts |      13682466816
 2017-02-04 16:01:24.462727+01 | 1486220484.46273 | pgbench_tellers  |         15523840
 2017-02-04 16:01:24.462727+01 | 1486220484.46273 | pgbench_history  |        246874112
 2017-02-04 16:01:24.462727+01 | 1486220484.46273 | pgbench_branches |         12599296

 2017-02-04 16:01:25.538967+01 | 1486220485.53897 | pgbench_accounts |      13682466816
 2017-02-04 16:01:25.538967+01 | 1486220485.53897 | pgbench_tellers  |         15523840
 2017-02-04 16:01:25.538967+01 | 1486220485.53897 | pgbench_history  |        248774656
 2017-02-04 16:01:25.538967+01 | 1486220485.53897 | pgbench_branches |         12599296

 2017-02-04 16:01:26.611017+01 | 1486220486.61102 | pgbench_accounts |      13682466816
 2017-02-04 16:01:26.611017+01 | 1486220486.61102 | pgbench_tellers  |         15523840
 2017-02-04 16:01:26.611017+01 | 1486220486.61102 | pgbench_history  |        250511360
 2017-02-04 16:01:26.611017+01 | 1486220486.61102 | pgbench_branches |         12599296

 2017-02-04 16:01:27.689307+01 | 1486220487.68931 | pgbench_accounts |      13682466816
 2017-02-04 16:01:27.689307+01 | 1486220487.68931 | pgbench_tellers  |         15523840
 2017-02-04 16:01:27.689307+01 | 1486220487.68931 | pgbench_history  |        252583936
 2017-02-04 16:01:27.689307+01 | 1486220487.68931 | pgbench_branches |         12599296

 2017-02-04 16:01:28.762635+01 | 1486220488.76263 | pgbench_accounts |      13682466816
 2017-02-04 16:01:28.762635+01 | 1486220488.76263 | pgbench_tellers  |         15523840
 2017-02-04 16:01:28.762635+01 | 1486220488.76263 | pgbench_history  |        254271488
 2017-02-04 16:01:28.762635+01 | 1486220488.76263 | pgbench_branches |         12599296

 2017-02-04 16:01:29.838527+01 | 1486220489.83853 | pgbench_accounts |      13682466816
 2017-02-04 16:01:29.838527+01 | 1486220489.83853 | pgbench_tellers  |         15523840
 2017-02-04 16:01:29.838527+01 | 1486220489.83853 | pgbench_history  |        256024576
 2017-02-04 16:01:29.838527+01 | 1486220489.83853 | pgbench_branches |         12599296

 2017-02-04 16:01:30.915065+01 | 1486220490.91507 | pgbench_accounts |      13682466816
 2017-02-04 16:01:30.915065+01 | 1486220490.91507 | pgbench_tellers  |         15523840
 2017-02-04 16:01:30.915065+01 | 1486220490.91507 | pgbench_history  |        257982464
 2017-02-04 16:01:30.915065+01 | 1486220490.91507 | pgbench_branches |         12599296

 2017-02-04 16:01:31.99149+01 | 1486220491.99149 | pgbench_accounts |      13682466816
 2017-02-04 16:01:31.99149+01 | 1486220491.99149 | pgbench_tellers  |         15523840
 2017-02-04 16:01:31.99149+01 | 1486220491.99149 | pgbench_history  |        260620288
 2017-02-04 16:01:31.99149+01 | 1486220491.99149 | pgbench_branches |         12599296

 2017-02-04 16:01:33.063923+01 | 1486220493.06392 | pgbench_accounts |      13682466816
 2017-02-04 16:01:33.063923+01 | 1486220493.06392 | pgbench_tellers  |         15523840
 2017-02-04 16:01:33.063923+01 | 1486220493.06392 | pgbench_history  |        261472256
 2017-02-04 16:01:33.063923+01 | 1486220493.06392 | pgbench_branches |         12599296

 2017-02-04 16:01:34.139918+01 | 1486220494.13992 | pgbench_accounts |      13682466816
 2017-02-04 16:01:34.139918+01 | 1486220494.13992 | pgbench_tellers  |         15523840
 2017-02-04 16:01:34.139918+01 | 1486220494.13992 | pgbench_history  |        263184384
 2017-02-04 16:01:34.139918+01 | 1486220494.13992 | pgbench_branches |         12599296

 2017-02-04 16:01:35.213913+01 | 1486220495.21391 | pgbench_accounts |      13682466816
 2017-02-04 16:01:35.213913+01 | 1486220495.21391 | pgbench_tellers  |         15523840
 2017-02-04 16:01:35.213913+01 | 1486220495.21391 | pgbench_history  |        265060352
 2017-02-04 16:01:35.213913+01 | 1486220495.21391 | pgbench_branches |         12599296

 2017-02-04 16:01:36.286753+01 | 1486220496.28675 | pgbench_accounts |      13682466816
 2017-02-04 16:01:36.286753+01 | 1486220496.28675 | pgbench_tellers  |         15523840
 2017-02-04 16:01:36.286753+01 | 1486220496.28675 | pgbench_history  |        267649024
 2017-02-04 16:01:36.286753+01 | 1486220496.28675 | pgbench_branches |         12599296

 2017-02-04 16:01:37.363587+01 | 1486220497.36359 | pgbench_accounts |      13682466816
 2017-02-04 16:01:37.363587+01 | 1486220497.36359 | pgbench_tellers  |         15523840
 2017-02-04 16:01:37.363587+01 | 1486220497.36359 | pgbench_history  |        269361152
 2017-02-04 16:01:37.363587+01 | 1486220497.36359 | pgbench_branches |         12599296

 2017-02-04 16:01:38.437268+01 | 1486220498.43727 | pgbench_accounts |      13682466816
 2017-02-04 16:01:38.437268+01 | 1486220498.43727 | pgbench_tellers  |         15523840
 2017-02-04 16:01:38.437268+01 | 1486220498.43727 | pgbench_history  |        271048704
 2017-02-04 16:01:38.437268+01 | 1486220498.43727 | pgbench_branches |         12599296

 2017-02-04 16:01:39.503607+01 | 1486220499.50361 | pgbench_accounts |      13682466816
 2017-02-04 16:01:39.503607+01 | 1486220499.50361 | pgbench_tellers  |         15523840
 2017-02-04 16:01:39.503607+01 | 1486220499.50361 | pgbench_history  |        272850944
 2017-02-04 16:01:39.503607+01 | 1486220499.50361 | pgbench_branches |         12599296

 2017-02-04 16:01:40.579016+01 | 1486220500.57902 | pgbench_accounts |      13682466816
 2017-02-04 16:01:40.579016+01 | 1486220500.57902 | pgbench_tellers  |         15523840
 2017-02-04 16:01:40.579016+01 | 1486220500.57902 | pgbench_history  |        274890752
 2017-02-04 16:01:40.579016+01 | 1486220500.57902 | pgbench_branches |         12599296

 2017-02-04 16:01:41.656193+01 | 1486220501.65619 | pgbench_accounts |      13682466816
 2017-02-04 16:01:41.656193+01 | 1486220501.65619 | pgbench_tellers  |         15523840
 2017-02-04 16:01:41.656193+01 | 1486220501.65619 | pgbench_history  |        276275200
 2017-02-04 16:01:41.656193+01 | 1486220501.65619 | pgbench_branches |         12599296

 2017-02-04 16:01:42.731966+01 | 1486220502.73197 | pgbench_accounts |      13682466816
 2017-02-04 16:01:42.731966+01 | 1486220502.73197 | pgbench_tellers  |         15523840
 2017-02-04 16:01:42.731966+01 | 1486220502.73197 | pgbench_history  |        278011904
 2017-02-04 16:01:42.731966+01 | 1486220502.73197 | pgbench_branches |         12599296

 2017-02-04 16:01:43.806722+01 | 1486220503.80672 | pgbench_accounts |      13682466816
 2017-02-04 16:01:43.806722+01 | 1486220503.80672 | pgbench_tellers  |         15523840
 2017-02-04 16:01:43.806722+01 | 1486220503.80672 | pgbench_history  |        279748608
 2017-02-04 16:01:43.806722+01 | 1486220503.80672 | pgbench_branches |         12599296

 2017-02-04 16:01:44.883854+01 | 1486220504.88385 | pgbench_accounts |      13682466816
 2017-02-04 16:01:44.883854+01 | 1486220504.88385 | pgbench_tellers  |         15523840
 2017-02-04 16:01:44.883854+01 | 1486220504.88385 | pgbench_history  |        282148864
 2017-02-04 16:01:44.883854+01 | 1486220504.88385 | pgbench_branches |         12599296

 2017-02-04 16:01:45.956858+01 | 1486220505.95686 | pgbench_accounts |      13682466816
 2017-02-04 16:01:45.956858+01 | 1486220505.95686 | pgbench_tellers  |         15523840
 2017-02-04 16:01:45.956858+01 | 1486220505.95686 | pgbench_history  |        283860992
 2017-02-04 16:01:45.956858+01 | 1486220505.95686 | pgbench_branches |         12599296

 2017-02-04 16:01:47.041616+01 | 1486220507.04162 | pgbench_accounts |      13682466816
 2017-02-04 16:01:47.041616+01 | 1486220507.04162 | pgbench_tellers  |         15523840
 2017-02-04 16:01:47.041616+01 | 1486220507.04162 | pgbench_history  |        285458432
 2017-02-04 16:01:47.041616+01 | 1486220507.04162 | pgbench_branches |         12599296

 2017-02-04 16:01:48.116996+01 | 1486220508.117 | pgbench_accounts |      13682466816
 2017-02-04 16:01:48.116996+01 | 1486220508.117 | pgbench_tellers  |         15523840
 2017-02-04 16:01:48.116996+01 | 1486220508.117 | pgbench_history  |        287375360
 2017-02-04 16:01:48.116996+01 | 1486220508.117 | pgbench_branches |         12599296

 2017-02-04 16:01:49.191175+01 | 1486220509.19117 | pgbench_accounts |      13682466816
 2017-02-04 16:01:49.191175+01 | 1486220509.19117 | pgbench_tellers  |         15523840
 2017-02-04 16:01:49.191175+01 | 1486220509.19117 | pgbench_history  |        289103872
 2017-02-04 16:01:49.191175+01 | 1486220509.19117 | pgbench_branches |         12599296

 2017-02-04 16:01:50.263208+01 | 1486220510.26321 | pgbench_accounts |      13682466816
 2017-02-04 16:01:50.263208+01 | 1486220510.26321 | pgbench_tellers  |         15523840
 2017-02-04 16:01:50.263208+01 | 1486220510.26321 | pgbench_history  |        290660352
 2017-02-04 16:01:50.263208+01 | 1486220510.26321 | pgbench_branches |         12599296

 2017-02-04 16:01:51.337503+01 | 1486220511.3375 | pgbench_accounts |      13682466816
 2017-02-04 16:01:51.337503+01 | 1486220511.3375 | pgbench_tellers  |         15523840
 2017-02-04 16:01:51.337503+01 | 1486220511.3375 | pgbench_history  |        292847616
 2017-02-04 16:01:51.337503+01 | 1486220511.3375 | pgbench_branches |         12599296

 2017-02-04 16:01:52.416495+01 | 1486220512.4165 | pgbench_accounts |      13682466816
 2017-02-04 16:01:52.416495+01 | 1486220512.4165 | pgbench_tellers  |         15523840
 2017-02-04 16:01:52.416495+01 | 1486220512.4165 | pgbench_history  |        294723584
 2017-02-04 16:01:52.416495+01 | 1486220512.4165 | pgbench_branches |         12599296

 2017-02-04 16:01:53.490672+01 | 1486220513.49067 | pgbench_accounts |      13682466816
 2017-02-04 16:01:53.490672+01 | 1486220513.49067 | pgbench_tellers  |         15523840
 2017-02-04 16:01:53.490672+01 | 1486220513.49067 | pgbench_history  |        296656896
 2017-02-04 16:01:53.490672+01 | 1486220513.49067 | pgbench_branches |         12599296

 2017-02-04 16:01:54.561769+01 | 1486220514.56177 | pgbench_accounts |      13682466816
 2017-02-04 16:01:54.561769+01 | 1486220514.56177 | pgbench_tellers  |         15523840
 2017-02-04 16:01:54.561769+01 | 1486220514.56177 | pgbench_history  |        299352064
 2017-02-04 16:01:54.561769+01 | 1486220514.56177 | pgbench_branches |         12599296

 2017-02-04 16:01:55.643692+01 | 1486220515.64369 | pgbench_accounts |      13682466816
 2017-02-04 16:01:55.643692+01 | 1486220515.64369 | pgbench_tellers  |         15523840
 2017-02-04 16:01:55.643692+01 | 1486220515.64369 | pgbench_history  |        300056576
 2017-02-04 16:01:55.643692+01 | 1486220515.64369 | pgbench_branches |         12599296

 2017-02-04 16:01:56.724941+01 | 1486220516.72494 | pgbench_accounts |      13682466816
 2017-02-04 16:01:56.724941+01 | 1486220516.72494 | pgbench_tellers  |         15523840
 2017-02-04 16:01:56.724941+01 | 1486220516.72494 | pgbench_history  |        302096384
 2017-02-04 16:01:56.724941+01 | 1486220516.72494 | pgbench_branches |         12599296

 2017-02-04 16:01:57.800143+01 | 1486220517.80014 | pgbench_accounts |      13682466816
 2017-02-04 16:01:57.800143+01 | 1486220517.80014 | pgbench_tellers  |         15523840
 2017-02-04 16:01:57.800143+01 | 1486220517.80014 | pgbench_history  |        303734784
 2017-02-04 16:01:57.800143+01 | 1486220517.80014 | pgbench_branches |         12599296

 2017-02-04 16:01:58.871874+01 | 1486220518.87187 | pgbench_accounts |      13682466816
 2017-02-04 16:01:58.871874+01 | 1486220518.87187 | pgbench_tellers  |         15523840
 2017-02-04 16:01:58.871874+01 | 1486220518.87187 | pgbench_history  |        305782784
 2017-02-04 16:01:58.871874+01 | 1486220518.87187 | pgbench_branches |         12599296

 2017-02-04 16:01:59.946901+01 | 1486220519.9469 | pgbench_accounts |      13682466816
 2017-02-04 16:01:59.946901+01 | 1486220519.9469 | pgbench_tellers  |         15523840
 2017-02-04 16:01:59.946901+01 | 1486220519.9469 | pgbench_history  |        307658752
 2017-02-04 16:01:59.946901+01 | 1486220519.9469 | pgbench_branches |         12599296

 2017-02-04 16:02:01.024603+01 | 1486220521.0246 | pgbench_accounts |      13682466816
 2017-02-04 16:02:01.024603+01 | 1486220521.0246 | pgbench_tellers  |         15523840
 2017-02-04 16:02:01.024603+01 | 1486220521.0246 | pgbench_history  |        309706752
 2017-02-04 16:02:01.024603+01 | 1486220521.0246 | pgbench_branches |         12599296

 2017-02-04 16:02:02.097083+01 | 1486220522.09708 | pgbench_accounts |      13682466816
 2017-02-04 16:02:02.097083+01 | 1486220522.09708 | pgbench_tellers  |         15523840
 2017-02-04 16:02:02.097083+01 | 1486220522.09708 | pgbench_history  |        311230464
 2017-02-04 16:02:02.097083+01 | 1486220522.09708 | pgbench_branches |         12599296

 2017-02-04 16:02:03.174146+01 | 1486220523.17415 | pgbench_accounts |      13682466816
 2017-02-04 16:02:03.174146+01 | 1486220523.17415 | pgbench_tellers  |         15523840
 2017-02-04 16:02:03.174146+01 | 1486220523.17415 | pgbench_history  |        313155584
 2017-02-04 16:02:03.174146+01 | 1486220523.17415 | pgbench_branches |         12599296

 2017-02-04 16:02:04.252593+01 | 1486220524.25259 | pgbench_accounts |      13682466816
 2017-02-04 16:02:04.252593+01 | 1486220524.25259 | pgbench_tellers  |         15523840
 2017-02-04 16:02:04.252593+01 | 1486220524.25259 | pgbench_history  |        315088896
 2017-02-04 16:02:04.252593+01 | 1486220524.25259 | pgbench_branches |         12599296

 2017-02-04 16:02:05.32196+01 | 1486220525.32196 | pgbench_accounts |      13682466816
 2017-02-04 16:02:05.32196+01 | 1486220525.32196 | pgbench_tellers  |         15523840
 2017-02-04 16:02:05.32196+01 | 1486220525.32196 | pgbench_history  |        318717952
 2017-02-04 16:02:05.32196+01 | 1486220525.32196 | pgbench_branches |         12599296

 2017-02-04 16:02:06.394979+01 | 1486220526.39498 | pgbench_accounts |      13682466816
 2017-02-04 16:02:06.394979+01 | 1486220526.39498 | pgbench_tellers  |         15523840
 2017-02-04 16:02:06.394979+01 | 1486220526.39498 | pgbench_history  |        318717952
 2017-02-04 16:02:06.394979+01 | 1486220526.39498 | pgbench_branches |         12599296

 2017-02-04 16:02:07.470992+01 | 1486220527.47099 | pgbench_accounts |      13682466816
 2017-02-04 16:02:07.470992+01 | 1486220527.47099 | pgbench_tellers  |         15523840
 2017-02-04 16:02:07.470992+01 | 1486220527.47099 | pgbench_history  |        319922176
 2017-02-04 16:02:07.470992+01 | 1486220527.47099 | pgbench_branches |         12599296

 2017-02-04 16:02:08.54523+01 | 1486220528.54523 | pgbench_accounts |      13682466816
 2017-02-04 16:02:08.54523+01 | 1486220528.54523 | pgbench_tellers  |         15523840
 2017-02-04 16:02:08.54523+01 | 1486220528.54523 | pgbench_history  |        322478080
 2017-02-04 16:02:08.54523+01 | 1486220528.54523 | pgbench_branches |         12599296

 2017-02-04 16:02:09.61372+01 | 1486220529.61372 | pgbench_accounts |      13682466816
 2017-02-04 16:02:09.61372+01 | 1486220529.61372 | pgbench_tellers  |         15523840
 2017-02-04 16:02:09.61372+01 | 1486220529.61372 | pgbench_history  |        323862528
 2017-02-04 16:02:09.61372+01 | 1486220529.61372 | pgbench_branches |         12599296

 2017-02-04 16:02:10.687494+01 | 1486220530.68749 | pgbench_accounts |      13682466816
 2017-02-04 16:02:10.687494+01 | 1486220530.68749 | pgbench_tellers  |         15523840
 2017-02-04 16:02:10.687494+01 | 1486220530.68749 | pgbench_history  |        324894720
 2017-02-04 16:02:10.687494+01 | 1486220530.68749 | pgbench_branches |         12599296

 2017-02-04 16:02:11.76123+01 | 1486220531.76123 | pgbench_accounts |      13682466816
 2017-02-04 16:02:11.76123+01 | 1486220531.76123 | pgbench_tellers  |         15523840
 2017-02-04 16:02:11.76123+01 | 1486220531.76123 | pgbench_history  |        326336512
 2017-02-04 16:02:11.76123+01 | 1486220531.76123 | pgbench_branches |         12599296

 2017-02-04 16:02:12.839674+01 | 1486220532.83967 | pgbench_accounts |      13682466816
 2017-02-04 16:02:12.839674+01 | 1486220532.83967 | pgbench_tellers  |         15523840
 2017-02-04 16:02:12.839674+01 | 1486220532.83967 | pgbench_history  |        328065024
 2017-02-04 16:02:12.839674+01 | 1486220532.83967 | pgbench_branches |         12599296

 2017-02-04 16:02:13.914935+01 | 1486220533.91494 | pgbench_accounts |      13682466816
 2017-02-04 16:02:13.914935+01 | 1486220533.91494 | pgbench_tellers  |         15523840
 2017-02-04 16:02:13.914935+01 | 1486220533.91494 | pgbench_history  |        330276864
 2017-02-04 16:02:13.914935+01 | 1486220533.91494 | pgbench_branches |         12599296

 2017-02-04 16:02:14.991404+01 | 1486220534.9914 | pgbench_accounts |      13682466816
 2017-02-04 16:02:14.991404+01 | 1486220534.9914 | pgbench_tellers  |         15523840
 2017-02-04 16:02:14.991404+01 | 1486220534.9914 | pgbench_history  |        331554816
 2017-02-04 16:02:14.991404+01 | 1486220534.9914 | pgbench_branches |         12599296

 2017-02-04 16:02:16.057025+01 | 1486220536.05702 | pgbench_accounts |      13682466816
 2017-02-04 16:02:16.057025+01 | 1486220536.05702 | pgbench_tellers  |         15523840
 2017-02-04 16:02:16.057025+01 | 1486220536.05702 | pgbench_history  |        333504512
 2017-02-04 16:02:16.057025+01 | 1486220536.05702 | pgbench_branches |         12599296

 2017-02-04 16:02:17.126665+01 | 1486220537.12667 | pgbench_accounts |      13682466816
 2017-02-04 16:02:17.126665+01 | 1486220537.12667 | pgbench_tellers  |         15523840
 2017-02-04 16:02:17.126665+01 | 1486220537.12667 | pgbench_history  |        336257024
 2017-02-04 16:02:17.126665+01 | 1486220537.12667 | pgbench_branches |         12599296

 2017-02-04 16:02:18.203926+01 | 1486220538.20393 | pgbench_accounts |      13682466816
 2017-02-04 16:02:18.203926+01 | 1486220538.20393 | pgbench_tellers  |         15523840
 2017-02-04 16:02:18.203926+01 | 1486220538.20393 | pgbench_history  |        336773120
 2017-02-04 16:02:18.203926+01 | 1486220538.20393 | pgbench_branches |         12599296

 2017-02-04 16:02:19.291005+01 | 1486220539.291 | pgbench_accounts |      13682466816
 2017-02-04 16:02:19.291005+01 | 1486220539.291 | pgbench_tellers  |         15523840
 2017-02-04 16:02:19.291005+01 | 1486220539.291 | pgbench_history  |        338657280
 2017-02-04 16:02:19.291005+01 | 1486220539.291 | pgbench_branches |         12599296

 2017-02-04 16:02:20.36243+01 | 1486220540.36243 | pgbench_accounts |      13682466816
 2017-02-04 16:02:20.36243+01 | 1486220540.36243 | pgbench_tellers  |         15523840
 2017-02-04 16:02:20.36243+01 | 1486220540.36243 | pgbench_history  |        340189184
 2017-02-04 16:02:20.36243+01 | 1486220540.36243 | pgbench_branches |         12599296

 2017-02-04 16:02:21.4342+01 | 1486220541.4342 | pgbench_accounts |      13682466816
 2017-02-04 16:02:21.4342+01 | 1486220541.4342 | pgbench_tellers  |         15523840
 2017-02-04 16:02:21.4342+01 | 1486220541.4342 | pgbench_history  |        341925888
 2017-02-04 16:02:21.4342+01 | 1486220541.4342 | pgbench_branches |         12599296

 2017-02-04 16:02:22.513228+01 | 1486220542.51323 | pgbench_accounts |      13682466816
 2017-02-04 16:02:22.513228+01 | 1486220542.51323 | pgbench_tellers  |         15523840
 2017-02-04 16:02:22.513228+01 | 1486220542.51323 | pgbench_history  |        343392256
 2017-02-04 16:02:22.513228+01 | 1486220542.51323 | pgbench_branches |         12599296

 2017-02-04 16:02:23.58281+01 | 1486220543.58281 | pgbench_accounts |      13682466816
 2017-02-04 16:02:23.58281+01 | 1486220543.58281 | pgbench_tellers  |         15523840
 2017-02-04 16:02:23.58281+01 | 1486220543.58281 | pgbench_history  |        345645056
 2017-02-04 16:02:23.58281+01 | 1486220543.58281 | pgbench_branches |         12599296

 2017-02-04 16:02:24.656379+01 | 1486220544.65638 | pgbench_accounts |      13682466816
 2017-02-04 16:02:24.656379+01 | 1486220544.65638 | pgbench_tellers  |         15523840
 2017-02-04 16:02:24.656379+01 | 1486220544.65638 | pgbench_history  |        346873856
 2017-02-04 16:02:24.656379+01 | 1486220544.65638 | pgbench_branches |         12599296

 2017-02-04 16:02:25.73085+01 | 1486220545.73085 | pgbench_accounts |      13682466816
 2017-02-04 16:02:25.73085+01 | 1486220545.73085 | pgbench_tellers  |         15523840
 2017-02-04 16:02:25.73085+01 | 1486220545.73085 | pgbench_history  |        348233728
 2017-02-04 16:02:25.73085+01 | 1486220545.73085 | pgbench_branches |         12599296

 2017-02-04 16:02:26.806048+01 | 1486220546.80605 | pgbench_accounts |      13682466816
 2017-02-04 16:02:26.806048+01 | 1486220546.80605 | pgbench_tellers  |         15523840
 2017-02-04 16:02:26.806048+01 | 1486220546.80605 | pgbench_history  |        350109696
 2017-02-04 16:02:26.806048+01 | 1486220546.80605 | pgbench_branches |         12599296

 2017-02-04 16:02:27.886653+01 | 1486220547.88665 | pgbench_accounts |      13682466816
 2017-02-04 16:02:27.886653+01 | 1486220547.88665 | pgbench_tellers  |         15523840
 2017-02-04 16:02:27.886653+01 | 1486220547.88665 | pgbench_history  |        351813632
 2017-02-04 16:02:27.886653+01 | 1486220547.88665 | pgbench_branches |         12599296

 2017-02-04 16:02:28.9644+01 | 1486220548.9644 | pgbench_accounts |      13682466816
 2017-02-04 16:02:28.9644+01 | 1486220548.9644 | pgbench_tellers  |         15523840
 2017-02-04 16:02:28.9644+01 | 1486220548.9644 | pgbench_history  |        354156544
 2017-02-04 16:02:28.9644+01 | 1486220548.9644 | pgbench_branches |         12599296

 2017-02-04 16:02:30.041014+01 | 1486220550.04101 | pgbench_accounts |      13682466816
 2017-02-04 16:02:30.041014+01 | 1486220550.04101 | pgbench_tellers  |         15523840
 2017-02-04 16:02:30.041014+01 | 1486220550.04101 | pgbench_history  |        355188736
 2017-02-04 16:02:30.041014+01 | 1486220550.04101 | pgbench_branches |         12599296

 2017-02-04 16:02:31.115245+01 | 1486220551.11525 | pgbench_accounts |      13682466816
 2017-02-04 16:02:31.115245+01 | 1486220551.11525 | pgbench_tellers  |         15523840
 2017-02-04 16:02:31.115245+01 | 1486220551.11525 | pgbench_history  |        357744640
 2017-02-04 16:02:31.115245+01 | 1486220551.11525 | pgbench_branches |         12599296

 2017-02-04 16:02:32.187536+01 | 1486220552.18754 | pgbench_accounts |      13682466816
 2017-02-04 16:02:32.187536+01 | 1486220552.18754 | pgbench_tellers  |         15523840
 2017-02-04 16:02:32.187536+01 | 1486220552.18754 | pgbench_history  |        359145472
 2017-02-04 16:02:32.187536+01 | 1486220552.18754 | pgbench_branches |         12599296

 2017-02-04 16:02:33.257814+01 | 1486220553.25781 | pgbench_accounts |      13682466816
 2017-02-04 16:02:33.257814+01 | 1486220553.25781 | pgbench_tellers  |         15523840
 2017-02-04 16:02:33.257814+01 | 1486220553.25781 | pgbench_history  |        361021440
 2017-02-04 16:02:33.257814+01 | 1486220553.25781 | pgbench_branches |         12599296

 2017-02-04 16:02:34.327044+01 | 1486220554.32704 | pgbench_accounts |      13682466816
 2017-02-04 16:02:34.327044+01 | 1486220554.32704 | pgbench_tellers  |         15523840
 2017-02-04 16:02:34.327044+01 | 1486220554.32704 | pgbench_history  |        364118016
 2017-02-04 16:02:34.327044+01 | 1486220554.32704 | pgbench_branches |         12599296

 2017-02-04 16:02:35.397555+01 | 1486220555.39756 | pgbench_accounts |      13682466816
 2017-02-04 16:02:35.397555+01 | 1486220555.39756 | pgbench_tellers  |         15523840
 2017-02-04 16:02:35.397555+01 | 1486220555.39756 | pgbench_history  |        364961792
 2017-02-04 16:02:35.397555+01 | 1486220555.39756 | pgbench_branches |         12599296

 2017-02-04 16:02:36.47063+01 | 1486220556.47063 | pgbench_accounts |      13682466816
 2017-02-04 16:02:36.47063+01 | 1486220556.47063 | pgbench_tellers  |         15523840
 2017-02-04 16:02:36.47063+01 | 1486220556.47063 | pgbench_history  |        366321664
 2017-02-04 16:02:36.47063+01 | 1486220556.47063 | pgbench_branches |         12599296

 2017-02-04 16:02:37.544371+01 | 1486220557.54437 | pgbench_accounts |      13682466816
 2017-02-04 16:02:37.544371+01 | 1486220557.54437 | pgbench_tellers  |         15523840
 2017-02-04 16:02:37.544371+01 | 1486220557.54437 | pgbench_history  |        368877568
 2017-02-04 16:02:37.544371+01 | 1486220557.54437 | pgbench_branches |         12599296

 2017-02-04 16:02:38.618386+01 | 1486220558.61839 | pgbench_accounts |      13682466816
 2017-02-04 16:02:38.618386+01 | 1486220558.61839 | pgbench_tellers  |         15523840
 2017-02-04 16:02:38.618386+01 | 1486220558.61839 | pgbench_history  |        370483200
 2017-02-04 16:02:38.618386+01 | 1486220558.61839 | pgbench_branches |         12599296

 2017-02-04 16:02:39.695539+01 | 1486220559.69554 | pgbench_accounts |      13682466816
 2017-02-04 16:02:39.695539+01 | 1486220559.69554 | pgbench_tellers  |         15523840
 2017-02-04 16:02:39.695539+01 | 1486220559.69554 | pgbench_history  |        372203520
 2017-02-04 16:02:39.695539+01 | 1486220559.69554 | pgbench_branches |         12599296

 2017-02-04 16:02:40.770053+01 | 1486220560.77005 | pgbench_accounts |      13682466816
 2017-02-04 16:02:40.770053+01 | 1486220560.77005 | pgbench_tellers  |         15523840
 2017-02-04 16:02:40.770053+01 | 1486220560.77005 | pgbench_history  |        373915648
 2017-02-04 16:02:40.770053+01 | 1486220560.77005 | pgbench_branches |         12599296

 2017-02-04 16:02:41.844523+01 | 1486220561.84452 | pgbench_accounts |      13682466816
 2017-02-04 16:02:41.844523+01 | 1486220561.84452 | pgbench_tellers  |         15523840
 2017-02-04 16:02:41.844523+01 | 1486220561.84452 | pgbench_history  |        376332288
 2017-02-04 16:02:41.844523+01 | 1486220561.84452 | pgbench_branches |         12599296

 2017-02-04 16:02:42.921076+01 | 1486220562.92108 | pgbench_accounts |      13682466816
 2017-02-04 16:02:42.921076+01 | 1486220562.92108 | pgbench_tellers  |         15523840
 2017-02-04 16:02:42.921076+01 | 1486220562.92108 | pgbench_history  |        378019840
 2017-02-04 16:02:42.921076+01 | 1486220562.92108 | pgbench_branches |         12599296

 2017-02-04 16:02:43.990523+01 | 1486220563.99052 | pgbench_accounts |      13682466816
 2017-02-04 16:02:43.990523+01 | 1486220563.99052 | pgbench_tellers  |         15523840
 2017-02-04 16:02:43.990523+01 | 1486220563.99052 | pgbench_history  |        379617280
 2017-02-04 16:02:43.990523+01 | 1486220563.99052 | pgbench_branches |         12599296

 2017-02-04 16:02:45.064925+01 | 1486220565.06492 | pgbench_accounts |      13682466816
 2017-02-04 16:02:45.064925+01 | 1486220565.06492 | pgbench_tellers  |         15523840
 2017-02-04 16:02:45.064925+01 | 1486220565.06492 | pgbench_history  |        381747200
 2017-02-04 16:02:45.064925+01 | 1486220565.06492 | pgbench_branches |         12599296

 2017-02-04 16:02:46.143033+01 | 1486220566.14303 | pgbench_accounts |      13682466816
 2017-02-04 16:02:46.143033+01 | 1486220566.14303 | pgbench_tellers  |         15523840
 2017-02-04 16:02:46.143033+01 | 1486220566.14303 | pgbench_history  |        382976000
 2017-02-04 16:02:46.143033+01 | 1486220566.14303 | pgbench_branches |         12599296

 2017-02-04 16:02:47.219829+01 | 1486220567.21983 | pgbench_accounts |      13682466816
 2017-02-04 16:02:47.219829+01 | 1486220567.21983 | pgbench_tellers  |         15523840
 2017-02-04 16:02:47.219829+01 | 1486220567.21983 | pgbench_history  |        384876544
 2017-02-04 16:02:47.219829+01 | 1486220567.21983 | pgbench_branches |         12599296

 2017-02-04 16:02:48.295406+01 | 1486220568.29541 | pgbench_accounts |      13682466816
 2017-02-04 16:02:48.295406+01 | 1486220568.29541 | pgbench_tellers  |         15523840
 2017-02-04 16:02:48.295406+01 | 1486220568.29541 | pgbench_history  |        386752512
 2017-02-04 16:02:48.295406+01 | 1486220568.29541 | pgbench_branches |         12599296

 2017-02-04 16:02:49.368214+01 | 1486220569.36821 | pgbench_accounts |      13682466816
 2017-02-04 16:02:49.368214+01 | 1486220569.36821 | pgbench_tellers  |         15523840
 2017-02-04 16:02:49.368214+01 | 1486220569.36821 | pgbench_history  |        388988928
 2017-02-04 16:02:49.368214+01 | 1486220569.36821 | pgbench_branches |         12599296

 2017-02-04 16:02:50.454574+01 | 1486220570.45457 | pgbench_accounts |      13682466816
 2017-02-04 16:02:50.454574+01 | 1486220570.45457 | pgbench_tellers  |         15523840
 2017-02-04 16:02:50.454574+01 | 1486220570.45457 | pgbench_history  |        390914048
 2017-02-04 16:02:50.454574+01 | 1486220570.45457 | pgbench_branches |         12599296

 2017-02-04 16:02:51.526287+01 | 1486220571.52629 | pgbench_accounts |      13682466816
 2017-02-04 16:02:51.526287+01 | 1486220571.52629 | pgbench_tellers  |         15523840
 2017-02-04 16:02:51.526287+01 | 1486220571.52629 | pgbench_history  |        392814592
 2017-02-04 16:02:51.526287+01 | 1486220571.52629 | pgbench_branches |         12599296

 2017-02-04 16:02:52.602902+01 | 1486220572.6029 | pgbench_accounts |      13682466816
 2017-02-04 16:02:52.602902+01 | 1486220572.6029 | pgbench_tellers  |         15523840
 2017-02-04 16:02:52.602902+01 | 1486220572.6029 | pgbench_history  |        394379264
 2017-02-04 16:02:52.602902+01 | 1486220572.6029 | pgbench_branches |         12599296

 2017-02-04 16:02:53.673446+01 | 1486220573.67345 | pgbench_accounts |      13682466816
 2017-02-04 16:02:53.673446+01 | 1486220573.67345 | pgbench_tellers  |         15523840
 2017-02-04 16:02:53.673446+01 | 1486220573.67345 | pgbench_history  |        396148736
 2017-02-04 16:02:53.673446+01 | 1486220573.67345 | pgbench_branches |         12599296

 2017-02-04 16:02:54.746899+01 | 1486220574.7469 | pgbench_accounts |      13682466816
 2017-02-04 16:02:54.746899+01 | 1486220574.7469 | pgbench_tellers  |         15523840
 2017-02-04 16:02:54.746899+01 | 1486220574.7469 | pgbench_history  |        397918208
 2017-02-04 16:02:54.746899+01 | 1486220574.7469 | pgbench_branches |         12599296

 2017-02-04 16:02:55.820611+01 | 1486220575.82061 | pgbench_accounts |      13682466816
 2017-02-04 16:02:55.820611+01 | 1486220575.82061 | pgbench_tellers  |         15523840
 2017-02-04 16:02:55.820611+01 | 1486220575.82061 | pgbench_history  |        399818752
 2017-02-04 16:02:55.820611+01 | 1486220575.82061 | pgbench_branches |         12599296

 2017-02-04 16:02:56.893066+01 | 1486220576.89307 | pgbench_accounts |      13682466816
 2017-02-04 16:02:56.893066+01 | 1486220576.89307 | pgbench_tellers  |         15523840
 2017-02-04 16:02:56.893066+01 | 1486220576.89307 | pgbench_history  |        402489344
 2017-02-04 16:02:56.893066+01 | 1486220576.89307 | pgbench_branches |         12599296

 2017-02-04 16:02:57.963402+01 | 1486220577.9634 | pgbench_accounts |      13682466816
 2017-02-04 16:02:57.963402+01 | 1486220577.9634 | pgbench_tellers  |         15523840
 2017-02-04 16:02:57.963402+01 | 1486220577.9634 | pgbench_history  |        403881984
 2017-02-04 16:02:57.963402+01 | 1486220577.9634 | pgbench_branches |         12599296

 2017-02-04 16:02:59.035964+01 | 1486220579.03596 | pgbench_accounts |      13682466816
 2017-02-04 16:02:59.035964+01 | 1486220579.03596 | pgbench_tellers  |         15523840
 2017-02-04 16:02:59.035964+01 | 1486220579.03596 | pgbench_history  |        405454848
 2017-02-04 16:02:59.035964+01 | 1486220579.03596 | pgbench_branches |         12599296

 2017-02-04 16:03:00.114247+01 | 1486220580.11425 | pgbench_accounts |      13682466816
 2017-02-04 16:03:00.114247+01 | 1486220580.11425 | pgbench_tellers  |         15523840
 2017-02-04 16:03:00.114247+01 | 1486220580.11425 | pgbench_history  |        407330816
 2017-02-04 16:03:00.114247+01 | 1486220580.11425 | pgbench_branches |         12599296

 2017-02-04 16:03:01.181641+01 | 1486220581.18164 | pgbench_accounts |      13682466816
 2017-02-04 16:03:01.181641+01 | 1486220581.18164 | pgbench_tellers  |         15523840
 2017-02-04 16:03:01.181641+01 | 1486220581.18164 | pgbench_history  |        409083904
 2017-02-04 16:03:01.181641+01 | 1486220581.18164 | pgbench_branches |         12599296

 2017-02-04 16:03:02.256785+01 | 1486220582.25678 | pgbench_accounts |      13682466816
 2017-02-04 16:03:02.256785+01 | 1486220582.25678 | pgbench_tellers  |         15523840
 2017-02-04 16:03:02.256785+01 | 1486220582.25678 | pgbench_history  |        411312128
 2017-02-04 16:03:02.256785+01 | 1486220582.25678 | pgbench_branches |         12599296

 2017-02-04 16:03:03.333404+01 | 1486220583.3334 | pgbench_accounts |      13682466816
 2017-02-04 16:03:03.333404+01 | 1486220583.3334 | pgbench_tellers  |         15523840
 2017-02-04 16:03:03.333404+01 | 1486220583.3334 | pgbench_history  |        412753920
 2017-02-04 16:03:03.333404+01 | 1486220583.3334 | pgbench_branches |         12599296

 2017-02-04 16:03:04.411225+01 | 1486220584.41123 | pgbench_accounts |      13682466816
 2017-02-04 16:03:04.411225+01 | 1486220584.41123 | pgbench_tellers  |         15523840
 2017-02-04 16:03:04.411225+01 | 1486220584.41123 | pgbench_history  |        414720000
 2017-02-04 16:03:04.411225+01 | 1486220584.41123 | pgbench_branches |         12599296

 2017-02-04 16:03:05.491146+01 | 1486220585.49115 | pgbench_accounts |      13682466816
 2017-02-04 16:03:05.491146+01 | 1486220585.49115 | pgbench_tellers  |         15523840
 2017-02-04 16:03:05.491146+01 | 1486220585.49115 | pgbench_history  |        416481280
 2017-02-04 16:03:05.491146+01 | 1486220585.49115 | pgbench_branches |         12599296

 2017-02-04 16:03:06.565655+01 | 1486220586.56565 | pgbench_accounts |      13682466816
 2017-02-04 16:03:06.565655+01 | 1486220586.56565 | pgbench_tellers  |         15523840
 2017-02-04 16:03:06.565655+01 | 1486220586.56565 | pgbench_history  |        418414592
 2017-02-04 16:03:06.565655+01 | 1486220586.56565 | pgbench_branches |         12599296

 2017-02-04 16:03:07.640688+01 | 1486220587.64069 | pgbench_accounts |      13682466816
 2017-02-04 16:03:07.640688+01 | 1486220587.64069 | pgbench_tellers  |         15523840
 2017-02-04 16:03:07.640688+01 | 1486220587.64069 | pgbench_history  |        419840000
 2017-02-04 16:03:07.640688+01 | 1486220587.64069 | pgbench_branches |         12599296

 2017-02-04 16:03:08.71323+01 | 1486220588.71323 | pgbench_accounts |      13682466816
 2017-02-04 16:03:08.71323+01 | 1486220588.71323 | pgbench_tellers  |         15523840
 2017-02-04 16:03:08.71323+01 | 1486220588.71323 | pgbench_history  |        422133760
 2017-02-04 16:03:08.71323+01 | 1486220588.71323 | pgbench_branches |         12599296

 2017-02-04 16:03:09.789078+01 | 1486220589.78908 | pgbench_accounts |      13682466816
 2017-02-04 16:03:09.789078+01 | 1486220589.78908 | pgbench_tellers  |         15523840
 2017-02-04 16:03:09.789078+01 | 1486220589.78908 | pgbench_history  |        424091648
 2017-02-04 16:03:09.789078+01 | 1486220589.78908 | pgbench_branches |         12599296

 2017-02-04 16:03:10.868007+01 | 1486220590.86801 | pgbench_accounts |      13682466816
 2017-02-04 16:03:10.868007+01 | 1486220590.86801 | pgbench_tellers  |         15523840
 2017-02-04 16:03:10.868007+01 | 1486220590.86801 | pgbench_history  |        425312256
 2017-02-04 16:03:10.868007+01 | 1486220590.86801 | pgbench_branches |         12599296

 2017-02-04 16:03:11.93987+01 | 1486220591.93987 | pgbench_accounts |      13682466816
 2017-02-04 16:03:11.93987+01 | 1486220591.93987 | pgbench_tellers  |         15523840
 2017-02-04 16:03:11.93987+01 | 1486220591.93987 | pgbench_history  |        427073536
 2017-02-04 16:03:11.93987+01 | 1486220591.93987 | pgbench_branches |         12599296

 2017-02-04 16:03:13.016097+01 | 1486220593.0161 | pgbench_accounts |      13682466816
 2017-02-04 16:03:13.016097+01 | 1486220593.0161 | pgbench_tellers  |         15523840
 2017-02-04 16:03:13.016097+01 | 1486220593.0161 | pgbench_history  |        430014464
 2017-02-04 16:03:13.016097+01 | 1486220593.0161 | pgbench_branches |         12599296

 2017-02-04 16:03:14.085654+01 | 1486220594.08565 | pgbench_accounts |      13682466816
 2017-02-04 16:03:14.085654+01 | 1486220594.08565 | pgbench_tellers  |         15523840
 2017-02-04 16:03:14.085654+01 | 1486220594.08565 | pgbench_history  |        431226880
 2017-02-04 16:03:14.085654+01 | 1486220594.08565 | pgbench_branches |         12599296

 2017-02-04 16:03:15.154729+01 | 1486220595.15473 | pgbench_accounts |      13682466816
 2017-02-04 16:03:15.154729+01 | 1486220595.15473 | pgbench_tellers  |         15523840
 2017-02-04 16:03:15.154729+01 | 1486220595.15473 | pgbench_history  |        432586752
 2017-02-04 16:03:15.154729+01 | 1486220595.15473 | pgbench_branches |         12599296

 2017-02-04 16:03:16.228633+01 | 1486220596.22863 | pgbench_accounts |      13682466816
 2017-02-04 16:03:16.228633+01 | 1486220596.22863 | pgbench_tellers  |         15523840
 2017-02-04 16:03:16.228633+01 | 1486220596.22863 | pgbench_history  |        434651136
 2017-02-04 16:03:16.228633+01 | 1486220596.22863 | pgbench_branches |         12599296

 2017-02-04 16:03:17.30237+01 | 1486220597.30237 | pgbench_accounts |      13682466816
 2017-02-04 16:03:17.30237+01 | 1486220597.30237 | pgbench_tellers  |         15523840
 2017-02-04 16:03:17.30237+01 | 1486220597.30237 | pgbench_history  |        436232192
 2017-02-04 16:03:17.30237+01 | 1486220597.30237 | pgbench_branches |         12599296

 2017-02-04 16:03:18.37987+01 | 1486220598.37987 | pgbench_accounts |      13682466816
 2017-02-04 16:03:18.37987+01 | 1486220598.37987 | pgbench_tellers  |         15523840
 2017-02-04 16:03:18.37987+01 | 1486220598.37987 | pgbench_history  |        438304768
 2017-02-04 16:03:18.37987+01 | 1486220598.37987 | pgbench_branches |         12599296

 2017-02-04 16:03:19.457885+01 | 1486220599.45789 | pgbench_accounts |      13682466816
 2017-02-04 16:03:19.457885+01 | 1486220599.45789 | pgbench_tellers  |         15523840
 2017-02-04 16:03:19.457885+01 | 1486220599.45789 | pgbench_history  |        439910400
 2017-02-04 16:03:19.457885+01 | 1486220599.45789 | pgbench_branches |         12599296

 2017-02-04 16:03:20.536957+01 | 1486220600.53696 | pgbench_accounts |      13682466816
 2017-02-04 16:03:20.536957+01 | 1486220600.53696 | pgbench_tellers  |         15523840
 2017-02-04 16:03:20.536957+01 | 1486220600.53696 | pgbench_history  |        441794560
 2017-02-04 16:03:20.536957+01 | 1486220600.53696 | pgbench_branches |         12599296

 2017-02-04 16:03:21.614623+01 | 1486220601.61462 | pgbench_accounts |      13682466816
 2017-02-04 16:03:21.614623+01 | 1486220601.61462 | pgbench_tellers  |         15523840
 2017-02-04 16:03:21.614623+01 | 1486220601.61462 | pgbench_history  |        443752448
 2017-02-04 16:03:21.614623+01 | 1486220601.61462 | pgbench_branches |         12599296

 2017-02-04 16:03:22.704126+01 | 1486220602.70413 | pgbench_accounts |      13682466816
 2017-02-04 16:03:22.704126+01 | 1486220602.70413 | pgbench_tellers  |         15523840
 2017-02-04 16:03:22.704126+01 | 1486220602.70413 | pgbench_history  |        445652992
 2017-02-04 16:03:22.704126+01 | 1486220602.70413 | pgbench_branches |         12599296

 2017-02-04 16:03:23.776068+01 | 1486220603.77607 | pgbench_accounts |      13682466816
 2017-02-04 16:03:23.776068+01 | 1486220603.77607 | pgbench_tellers  |         15523840
 2017-02-04 16:03:23.776068+01 | 1486220603.77607 | pgbench_history  |        447881216
 2017-02-04 16:03:23.776068+01 | 1486220603.77607 | pgbench_branches |         12599296

 2017-02-04 16:03:24.849322+01 | 1486220604.84932 | pgbench_accounts |      13682466816
 2017-02-04 16:03:24.849322+01 | 1486220604.84932 | pgbench_tellers  |         15523840
 2017-02-04 16:03:24.849322+01 | 1486220604.84932 | pgbench_history  |        448921600
 2017-02-04 16:03:24.849322+01 | 1486220604.84932 | pgbench_branches |         12599296

 2017-02-04 16:03:25.922897+01 | 1486220605.9229 | pgbench_accounts |      13682466816
 2017-02-04 16:03:25.922897+01 | 1486220605.9229 | pgbench_tellers  |         15523840
 2017-02-04 16:03:25.922897+01 | 1486220605.9229 | pgbench_history  |        450797568
 2017-02-04 16:03:25.922897+01 | 1486220605.9229 | pgbench_branches |         12599296

 2017-02-04 16:03:26.999296+01 | 1486220606.9993 | pgbench_accounts |      13682466816
 2017-02-04 16:03:26.999296+01 | 1486220606.9993 | pgbench_tellers  |         15523840
 2017-02-04 16:03:26.999296+01 | 1486220606.9993 | pgbench_history  |        453484544
 2017-02-04 16:03:26.999296+01 | 1486220606.9993 | pgbench_branches |         12599296

 2017-02-04 16:03:28.078093+01 | 1486220608.07809 | pgbench_accounts |      13682466816
 2017-02-04 16:03:28.078093+01 | 1486220608.07809 | pgbench_tellers  |         15523840
 2017-02-04 16:03:28.078093+01 | 1486220608.07809 | pgbench_history  |        454721536
 2017-02-04 16:03:28.078093+01 | 1486220608.07809 | pgbench_branches |         12599296

 2017-02-04 16:03:29.153435+01 | 1486220609.15343 | pgbench_accounts |      13682466816
 2017-02-04 16:03:29.153435+01 | 1486220609.15343 | pgbench_tellers  |         15523840
 2017-02-04 16:03:29.153435+01 | 1486220609.15343 | pgbench_history  |        456966144
 2017-02-04 16:03:29.153435+01 | 1486220609.15343 | pgbench_branches |         12599296

 2017-02-04 16:03:30.228742+01 | 1486220610.22874 | pgbench_accounts |      13682466816
 2017-02-04 16:03:30.228742+01 | 1486220610.22874 | pgbench_tellers  |         15523840
 2017-02-04 16:03:30.228742+01 | 1486220610.22874 | pgbench_history  |        458350592
 2017-02-04 16:03:30.228742+01 | 1486220610.22874 | pgbench_branches |         12599296

 2017-02-04 16:03:31.309415+01 | 1486220611.30942 | pgbench_accounts |      13682466816
 2017-02-04 16:03:31.309415+01 | 1486220611.30942 | pgbench_tellers  |         15523840
 2017-02-04 16:03:31.309415+01 | 1486220611.30942 | pgbench_history  |        460341248
 2017-02-04 16:03:31.309415+01 | 1486220611.30942 | pgbench_branches |         12599296

 2017-02-04 16:03:32.387691+01 | 1486220612.38769 | pgbench_accounts |      13682466816
 2017-02-04 16:03:32.387691+01 | 1486220612.38769 | pgbench_tellers  |         15523840
 2017-02-04 16:03:32.387691+01 | 1486220612.38769 | pgbench_history  |        462249984
 2017-02-04 16:03:32.387691+01 | 1486220612.38769 | pgbench_branches |         12599296

 2017-02-04 16:03:33.469166+01 | 1486220613.46917 | pgbench_accounts |      13682466816
 2017-02-04 16:03:33.469166+01 | 1486220613.46917 | pgbench_tellers  |         15523840
 2017-02-04 16:03:33.469166+01 | 1486220613.46917 | pgbench_history  |        464125952
 2017-02-04 16:03:33.469166+01 | 1486220613.46917 | pgbench_branches |         12599296

 2017-02-04 16:03:34.54969+01 | 1486220614.54969 | pgbench_accounts |      13682466816
 2017-02-04 16:03:34.54969+01 | 1486220614.54969 | pgbench_tellers  |         15523840
 2017-02-04 16:03:34.54969+01 | 1486220614.54969 | pgbench_history  |        466354176
 2017-02-04 16:03:34.54969+01 | 1486220614.54969 | pgbench_branches |         12599296

 2017-02-04 16:03:35.630078+01 | 1486220615.63008 | pgbench_accounts |      13682466816
 2017-02-04 16:03:35.630078+01 | 1486220615.63008 | pgbench_tellers  |         15523840
 2017-02-04 16:03:35.630078+01 | 1486220615.63008 | pgbench_history  |        467787776
 2017-02-04 16:03:35.630078+01 | 1486220615.63008 | pgbench_branches |         12599296

 2017-02-04 16:03:36.69872+01 | 1486220616.69872 | pgbench_accounts |      13682466816
 2017-02-04 16:03:36.69872+01 | 1486220616.69872 | pgbench_tellers  |         15523840
 2017-02-04 16:03:36.69872+01 | 1486220616.69872 | pgbench_history  |        470114304
 2017-02-04 16:03:36.69872+01 | 1486220616.69872 | pgbench_branches |         12599296

 2017-02-04 16:03:37.774123+01 | 1486220617.77412 | pgbench_accounts |      13682466816
 2017-02-04 16:03:37.774123+01 | 1486220617.77412 | pgbench_tellers  |         15523840
 2017-02-04 16:03:37.774123+01 | 1486220617.77412 | pgbench_history  |        471506944
 2017-02-04 16:03:37.774123+01 | 1486220617.77412 | pgbench_branches |         12599296

 2017-02-04 16:03:38.847949+01 | 1486220618.84795 | pgbench_accounts |      13682466816
 2017-02-04 16:03:38.847949+01 | 1486220618.84795 | pgbench_tellers  |         15523840
 2017-02-04 16:03:38.847949+01 | 1486220618.84795 | pgbench_history  |        474038272
 2017-02-04 16:03:38.847949+01 | 1486220618.84795 | pgbench_branches |         12599296

 2017-02-04 16:03:39.922863+01 | 1486220619.92286 | pgbench_accounts |      13682466816
 2017-02-04 16:03:39.922863+01 | 1486220619.92286 | pgbench_tellers  |         15523840
 2017-02-04 16:03:39.922863+01 | 1486220619.92286 | pgbench_history  |        475586560
 2017-02-04 16:03:39.922863+01 | 1486220619.92286 | pgbench_branches |         12599296

 2017-02-04 16:03:41.005979+01 | 1486220621.00598 | pgbench_accounts |      13682466816
 2017-02-04 16:03:41.005979+01 | 1486220621.00598 | pgbench_tellers  |         15523840
 2017-02-04 16:03:41.005979+01 | 1486220621.00598 | pgbench_history  |        477306880
 2017-02-04 16:03:41.005979+01 | 1486220621.00598 | pgbench_branches |         12599296

 2017-02-04 16:03:42.082496+01 | 1486220622.0825 | pgbench_accounts |      13682466816
 2017-02-04 16:03:42.082496+01 | 1486220622.0825 | pgbench_tellers  |         15523840
 2017-02-04 16:03:42.082496+01 | 1486220622.0825 | pgbench_history  |        479223808
 2017-02-04 16:03:42.082496+01 | 1486220622.0825 | pgbench_branches |         12599296

 2017-02-04 16:03:43.156888+01 | 1486220623.15689 | pgbench_accounts |      13682466816
 2017-02-04 16:03:43.156888+01 | 1486220623.15689 | pgbench_tellers  |         15523840
 2017-02-04 16:03:43.156888+01 | 1486220623.15689 | pgbench_history  |        480935936
 2017-02-04 16:03:43.156888+01 | 1486220623.15689 | pgbench_branches |         12599296

 2017-02-04 16:03:44.231916+01 | 1486220624.23192 | pgbench_accounts |      13682466816
 2017-02-04 16:03:44.231916+01 | 1486220624.23192 | pgbench_tellers  |         15523840
 2017-02-04 16:03:44.231916+01 | 1486220624.23192 | pgbench_history  |        483008512
 2017-02-04 16:03:44.231916+01 | 1486220624.23192 | pgbench_branches |         12599296

 2017-02-04 16:03:45.311109+01 | 1486220625.31111 | pgbench_accounts |      13682466816
 2017-02-04 16:03:45.311109+01 | 1486220625.31111 | pgbench_tellers  |         15523840
 2017-02-04 16:03:45.311109+01 | 1486220625.31111 | pgbench_history  |        484548608
 2017-02-04 16:03:45.311109+01 | 1486220625.31111 | pgbench_branches |         12599296

 2017-02-04 16:03:46.388956+01 | 1486220626.38896 | pgbench_accounts |      13682466816
 2017-02-04 16:03:46.388956+01 | 1486220626.38896 | pgbench_tellers  |         15523840
 2017-02-04 16:03:46.388956+01 | 1486220626.38896 | pgbench_history  |        486801408
 2017-02-04 16:03:46.388956+01 | 1486220626.38896 | pgbench_branches |         12599296

 2017-02-04 16:03:47.46192+01 | 1486220627.46192 | pgbench_accounts |      13682466816
 2017-02-04 16:03:47.46192+01 | 1486220627.46192 | pgbench_tellers  |         15523840
 2017-02-04 16:03:47.46192+01 | 1486220627.46192 | pgbench_history  |        488185856
 2017-02-04 16:03:47.46192+01 | 1486220627.46192 | pgbench_branches |         12599296

 2017-02-04 16:03:48.537097+01 | 1486220628.5371 | pgbench_accounts |      13682466816
 2017-02-04 16:03:48.537097+01 | 1486220628.5371 | pgbench_tellers  |         15523840
 2017-02-04 16:03:48.537097+01 | 1486220628.5371 | pgbench_history  |        490184704
 2017-02-04 16:03:48.537097+01 | 1486220628.5371 | pgbench_branches |         12599296

 2017-02-04 16:03:49.6091+01 | 1486220629.6091 | pgbench_accounts |      13682466816
 2017-02-04 16:03:49.6091+01 | 1486220629.6091 | pgbench_tellers  |         15523840
 2017-02-04 16:03:49.6091+01 | 1486220629.6091 | pgbench_history  |        492716032
 2017-02-04 16:03:49.6091+01 | 1486220629.6091 | pgbench_branches |         12599296

 2017-02-04 16:03:50.683893+01 | 1486220630.68389 | pgbench_accounts |      13682466816
 2017-02-04 16:03:50.683893+01 | 1486220630.68389 | pgbench_tellers  |         15523840
 2017-02-04 16:03:50.683893+01 | 1486220630.68389 | pgbench_history  |        493912064
 2017-02-04 16:03:50.683893+01 | 1486220630.68389 | pgbench_branches |         12599296

 2017-02-04 16:03:51.760446+01 | 1486220631.76045 | pgbench_accounts |      13682466816
 2017-02-04 16:03:51.760446+01 | 1486220631.76045 | pgbench_tellers  |         15523840
 2017-02-04 16:03:51.760446+01 | 1486220631.76045 | pgbench_history  |        495788032
 2017-02-04 16:03:51.760446+01 | 1486220631.76045 | pgbench_branches |         12599296

 2017-02-04 16:03:52.842899+01 | 1486220632.8429 | pgbench_accounts |      13682466816
 2017-02-04 16:03:52.842899+01 | 1486220632.8429 | pgbench_tellers  |         15523840
 2017-02-04 16:03:52.842899+01 | 1486220632.8429 | pgbench_history  |        497696768
 2017-02-04 16:03:52.842899+01 | 1486220632.8429 | pgbench_branches |         12599296

 2017-02-04 16:03:53.917461+01 | 1486220633.91746 | pgbench_accounts |      13682466816
 2017-02-04 16:03:53.917461+01 | 1486220633.91746 | pgbench_tellers  |         15523840
 2017-02-04 16:03:53.917461+01 | 1486220633.91746 | pgbench_history  |        499466240
 2017-02-04 16:03:53.917461+01 | 1486220633.91746 | pgbench_branches |         12599296

 2017-02-04 16:03:54.997175+01 | 1486220634.99717 | pgbench_accounts |      13682466816
 2017-02-04 16:03:54.997175+01 | 1486220634.99717 | pgbench_tellers  |         15523840
 2017-02-04 16:03:54.997175+01 | 1486220634.99717 | pgbench_history  |        501235712
 2017-02-04 16:03:54.997175+01 | 1486220634.99717 | pgbench_branches |         12599296

