 2017-02-04 05:21:27.473125+01 | 1486182087.47312 |                 0 |              26 |                 54980 |                 2666 |            6165789 |             0 |                0 |         1929688 |                     0 |       1634580 | 2017-02-04 03:14:51.610064+01

 2017-02-04 05:21:28.565247+01 | 1486182088.56525 |                 0 |              26 |                 54980 |                 2666 |            6165789 |             0 |                0 |         1929688 |                     0 |       1634813 | 2017-02-04 03:14:51.610064+01

 2017-02-04 05:21:29.665681+01 | 1486182089.66568 |                 0 |              26 |                 54980 |                 2666 |            6165789 |             0 |                0 |         1929688 |                     0 |       1635022 | 2017-02-04 03:14:51.610064+01

 2017-02-04 05:21:30.751831+01 | 1486182090.75183 |                 0 |              26 |                 54980 |                 2666 |            6165789 |             0 |                0 |         1929688 |                     0 |       1635249 | 2017-02-04 03:14:51.610064+01

 2017-02-04 05:21:31.834367+01 | 1486182091.83437 |                 0 |              26 |                 54980 |                 2666 |            6165789 |             0 |                0 |         1929688 |                     0 |       1635498 | 2017-02-04 03:14:51.610064+01

 2017-02-04 05:21:32.934959+01 | 1486182092.93496 |                 0 |              26 |                 54980 |                 2666 |            6165789 |             0 |                0 |         1929688 |                     0 |       1635750 | 2017-02-04 03:14:51.610064+01

 2017-02-04 05:21:34.027082+01 | 1486182094.02708 |                 0 |              26 |                 54980 |                 2666 |            6165789 |             0 |                0 |         1929688 |                     0 |       1635983 | 2017-02-04 03:14:51.610064+01

 2017-02-04 05:21:35.115879+01 | 1486182095.11588 |                 0 |              26 |                 54980 |                 2666 |            6165789 |             0 |                0 |         1929688 |                     0 |       1636272 | 2017-02-04 03:14:51.610064+01

 2017-02-04 05:21:36.210331+01 | 1486182096.21033 |                 0 |              26 |                 54980 |                 2666 |            6165789 |             0 |                0 |         1929688 |                     0 |       1636544 | 2017-02-04 03:14:51.610064+01

 2017-02-04 05:21:37.302335+01 | 1486182097.30234 |                 0 |              26 |                 54980 |                 2666 |            6165789 |             0 |                0 |         1929688 |                     0 |       1636913 | 2017-02-04 03:14:51.610064+01

 2017-02-04 05:21:38.383042+01 | 1486182098.38304 |                 0 |              26 |                 54980 |                 2666 |            6165789 |             0 |                0 |         1929688 |                     0 |       1637244 | 2017-02-04 03:14:51.610064+01

 2017-02-04 05:21:39.460611+01 | 1486182099.46061 |                 0 |              26 |                 54980 |                 2666 |            6165789 |             0 |                0 |         1929688 |                     0 |       1637410 | 2017-02-04 03:14:51.610064+01

 2017-02-04 05:21:40.540916+01 | 1486182100.54092 |                 0 |              26 |                 54980 |                 2666 |            6165789 |             0 |                0 |         1929688 |                     0 |       1637674 | 2017-02-04 03:14:51.610064+01

 2017-02-04 05:21:41.635766+01 | 1486182101.63577 |                 0 |              26 |                 54980 |                 2666 |            6165789 |             0 |                0 |         1929688 |                     0 |       1637997 | 2017-02-04 03:14:51.610064+01

 2017-02-04 05:21:42.72711+01 | 1486182102.72711 |                 0 |              26 |                 54980 |                 2666 |            6165789 |             0 |                0 |         1929688 |                     0 |       1638368 | 2017-02-04 03:14:51.610064+01

 2017-02-04 05:21:43.812561+01 | 1486182103.81256 |                 0 |              26 |                 54980 |                 2666 |            6165789 |             0 |                0 |         1929688 |                     0 |       1638616 | 2017-02-04 03:14:51.610064+01

 2017-02-04 05:21:44.902083+01 | 1486182104.90208 |                 0 |              26 |                 54980 |                 2666 |            6165789 |             0 |                0 |         1929688 |                     0 |       1638886 | 2017-02-04 03:14:51.610064+01

 2017-02-04 05:21:45.996007+01 | 1486182105.99601 |                 0 |              26 |                 54980 |                 2666 |            6165789 |             0 |                0 |         1929688 |                     0 |       1639174 | 2017-02-04 03:14:51.610064+01

 2017-02-04 05:21:47.085813+01 | 1486182107.08581 |                 0 |              26 |                 54980 |                 2666 |            6165789 |             0 |                0 |         1929688 |                     0 |       1639487 | 2017-02-04 03:14:51.610064+01

 2017-02-04 05:21:48.178818+01 | 1486182108.17882 |                 0 |              26 |                 54980 |                 2666 |            6165789 |             0 |                0 |         1929688 |                     0 |       1639712 | 2017-02-04 03:14:51.610064+01

 2017-02-04 05:21:49.265458+01 | 1486182109.26546 |                 0 |              26 |                 54980 |                 2666 |            6165789 |             0 |                0 |         1929688 |                     0 |       1640088 | 2017-02-04 03:14:51.610064+01

 2017-02-04 05:21:50.353603+01 | 1486182110.3536 |                 0 |              26 |                 54980 |                 2666 |            6165789 |             0 |                0 |         1929688 |                     0 |       1640620 | 2017-02-04 03:14:51.610064+01

 2017-02-04 05:21:51.431249+01 | 1486182111.43125 |                 0 |              26 |                 54980 |                 2666 |            6165789 |             0 |                0 |         1929688 |                     0 |       1640743 | 2017-02-04 03:14:51.610064+01

 2017-02-04 05:21:52.514834+01 | 1486182112.51483 |                 0 |              26 |                 54980 |                 2666 |            6165789 |             0 |                0 |         1929688 |                     0 |       1640952 | 2017-02-04 03:14:51.610064+01

 2017-02-04 05:21:53.595736+01 | 1486182113.59574 |                 0 |              26 |                 54980 |                 2666 |            6165789 |             0 |                0 |         1929688 |                     0 |       1641244 | 2017-02-04 03:14:51.610064+01

 2017-02-04 05:21:54.687481+01 | 1486182114.68748 |                 0 |              26 |                 54980 |                 2666 |            6165789 |             0 |                0 |         1929688 |                     0 |       1641610 | 2017-02-04 03:14:51.610064+01

 2017-02-04 05:21:55.776168+01 | 1486182115.77617 |                 0 |              26 |                 54980 |                 2666 |            6165789 |             0 |                0 |         1929688 |                     0 |       1641837 | 2017-02-04 03:14:51.610064+01

 2017-02-04 05:21:56.868152+01 | 1486182116.86815 |                 0 |              26 |                 54980 |                 2666 |            6165789 |             0 |                0 |         1929688 |                     0 |       1642165 | 2017-02-04 03:14:51.610064+01

 2017-02-04 05:21:57.963573+01 | 1486182117.96357 |                 0 |              26 |                 54980 |                 2666 |            6165789 |             0 |                0 |         1929688 |                     0 |       1642454 | 2017-02-04 03:14:51.610064+01

 2017-02-04 05:21:59.050071+01 | 1486182119.05007 |                 0 |              26 |                 54980 |                 2666 |            6165789 |             0 |                0 |         1929688 |                     0 |       1642681 | 2017-02-04 03:14:51.610064+01

 2017-02-04 05:22:00.136122+01 | 1486182120.13612 |                 0 |              26 |                 54980 |                 2666 |            6165789 |             0 |                0 |         1929688 |                     0 |       1642954 | 2017-02-04 03:14:51.610064+01

 2017-02-04 05:22:01.228343+01 | 1486182121.22834 |                 0 |              26 |                 54980 |                 2666 |            6165789 |             0 |                0 |         1929688 |                     0 |       1643255 | 2017-02-04 03:14:51.610064+01

 2017-02-04 05:22:02.323205+01 | 1486182122.3232 |                 0 |              26 |                 54980 |                 2666 |            6165789 |             0 |                0 |         1929688 |                     0 |       1643677 | 2017-02-04 03:14:51.610064+01

 2017-02-04 05:22:03.399069+01 | 1486182123.39907 |                 0 |              26 |                 54980 |                 2666 |            6165789 |             0 |                0 |         1929688 |                     0 |       1643802 | 2017-02-04 03:14:51.610064+01

 2017-02-04 05:22:04.477461+01 | 1486182124.47746 |                 0 |              26 |                 54980 |                 2666 |            6165789 |             0 |                0 |         1929688 |                     0 |       1644252 | 2017-02-04 03:14:51.610064+01

 2017-02-04 05:22:05.565639+01 | 1486182125.56564 |                 0 |              26 |                 54980 |                 2666 |            6165789 |             0 |                0 |         1929688 |                     0 |       1644356 | 2017-02-04 03:14:51.610064+01

 2017-02-04 05:22:06.661726+01 | 1486182126.66173 |                 0 |              26 |                 54980 |                 2666 |            6165789 |             0 |                0 |         1929688 |                     0 |       1644721 | 2017-02-04 03:14:51.610064+01

 2017-02-04 05:22:07.744234+01 | 1486182127.74423 |                 0 |              26 |                 54980 |                 2666 |            6165789 |             0 |                0 |         1929688 |                     0 |       1645247 | 2017-02-04 03:14:51.610064+01

 2017-02-04 05:22:08.827826+01 | 1486182128.82783 |                 0 |              26 |                 54980 |                 2666 |            6165789 |             0 |                0 |         1929688 |                     0 |       1645248 | 2017-02-04 03:14:51.610064+01

 2017-02-04 05:22:09.914584+01 | 1486182129.91458 |                 0 |              26 |                 54980 |                 2666 |            6165789 |             0 |                0 |         1929688 |                     0 |       1645656 | 2017-02-04 03:14:51.610064+01

 2017-02-04 05:22:11.007665+01 | 1486182131.00766 |                 0 |              26 |                 54980 |                 2666 |            6165789 |             0 |                0 |         1929688 |                     0 |       1645800 | 2017-02-04 03:14:51.610064+01

 2017-02-04 05:22:12.097888+01 | 1486182132.09789 |                 0 |              26 |                 54980 |                 2666 |            6165789 |             0 |                0 |         1929688 |                     0 |       1646540 | 2017-02-04 03:14:51.610064+01

 2017-02-04 05:22:13.186839+01 | 1486182133.18684 |                 0 |              26 |                 54980 |                 2666 |            6165789 |             0 |                0 |         1929688 |                     0 |       1646540 | 2017-02-04 03:14:51.610064+01

 2017-02-04 05:22:14.277466+01 | 1486182134.27747 |                 0 |              26 |                 54980 |                 2666 |            6165789 |             0 |                0 |         1929688 |                     0 |       1646734 | 2017-02-04 03:14:51.610064+01

 2017-02-04 05:22:15.358699+01 | 1486182135.3587 |                 0 |              26 |                 54980 |                 2666 |            6165789 |             0 |                0 |         1929688 |                     0 |       1646857 | 2017-02-04 03:14:51.610064+01

 2017-02-04 05:22:16.440976+01 | 1486182136.44098 |                 0 |              26 |                 54980 |                 2666 |            6165789 |             0 |                0 |         1929688 |                     0 |       1647757 | 2017-02-04 03:14:51.610064+01

 2017-02-04 05:22:17.523531+01 | 1486182137.52353 |                 0 |              26 |                 54980 |                 2666 |            6165789 |             0 |                0 |         1929688 |                     0 |       1648051 | 2017-02-04 03:14:51.610064+01

 2017-02-04 05:22:18.605533+01 | 1486182138.60553 |                 0 |              26 |                 54980 |                 2666 |            6165789 |             0 |                0 |         1929688 |                     0 |       1648297 | 2017-02-04 03:14:51.610064+01

 2017-02-04 05:22:19.707992+01 | 1486182139.70799 |                 0 |              26 |                 54980 |                 2666 |            6165789 |             0 |                0 |         1929688 |                     0 |       1648689 | 2017-02-04 03:14:51.610064+01

 2017-02-04 05:22:20.803207+01 | 1486182140.80321 |                 0 |              26 |                 54980 |                 2666 |            6165789 |             0 |                0 |         1929688 |                     0 |       1648961 | 2017-02-04 03:14:51.610064+01

 2017-02-04 05:22:21.89845+01 | 1486182141.89845 |                 0 |              26 |                 54980 |                 2666 |            6165789 |             0 |                0 |         1929688 |                     0 |       1649207 | 2017-02-04 03:14:51.610064+01

 2017-02-04 05:22:22.988476+01 | 1486182142.98848 |                 0 |              26 |                 54980 |                 2666 |            6165789 |             0 |                0 |         1929688 |                     0 |       1649433 | 2017-02-04 03:14:51.610064+01

 2017-02-04 05:22:24.069224+01 | 1486182144.06922 |                 0 |              26 |                 54980 |                 2666 |            6165789 |             0 |                0 |         1929688 |                     0 |       1649799 | 2017-02-04 03:14:51.610064+01

 2017-02-04 05:22:25.159674+01 | 1486182145.15967 |                 0 |              26 |                 54980 |                 2666 |            6165789 |             0 |                0 |         1929688 |                     0 |       1649962 | 2017-02-04 03:14:51.610064+01

 2017-02-04 05:22:26.25464+01 | 1486182146.25464 |                 0 |              26 |                 54980 |                 2666 |            6165789 |             0 |                0 |         1929688 |                     0 |       1650334 | 2017-02-04 03:14:51.610064+01

 2017-02-04 05:22:27.342675+01 | 1486182147.34267 |                 0 |              26 |                 54980 |                 2666 |            6165789 |             0 |                0 |         1929688 |                     0 |       1650564 | 2017-02-04 03:14:51.610064+01

 2017-02-04 05:22:28.421147+01 | 1486182148.42115 |                 0 |              26 |                 54980 |                 2666 |            6165789 |             0 |                0 |         1929688 |                     0 |       1650960 | 2017-02-04 03:14:51.610064+01

 2017-02-04 05:22:29.498954+01 | 1486182149.49895 |                 0 |              26 |                 54980 |                 2666 |            6165789 |             0 |                0 |         1929688 |                     0 |       1651044 | 2017-02-04 03:14:51.610064+01

 2017-02-04 05:22:30.576062+01 | 1486182150.57606 |                 0 |              26 |                 54980 |                 2666 |            6165789 |             0 |                0 |         1929688 |                     0 |       1651356 | 2017-02-04 03:14:51.610064+01

 2017-02-04 05:22:31.660896+01 | 1486182151.6609 |                 0 |              26 |                 54980 |                 2666 |            6165789 |             0 |                0 |         1929688 |                     0 |       1651564 | 2017-02-04 03:14:51.610064+01

 2017-02-04 05:22:32.750198+01 | 1486182152.7502 |                 0 |              26 |                 54980 |                 2666 |            6165789 |             0 |                0 |         1929688 |                     0 |       1651975 | 2017-02-04 03:14:51.610064+01

 2017-02-04 05:22:33.837206+01 | 1486182153.83721 |                 0 |              26 |                 54980 |                 2666 |            6165789 |             0 |                0 |         1929688 |                     0 |       1652221 | 2017-02-04 03:14:51.610064+01

 2017-02-04 05:22:34.927653+01 | 1486182154.92765 |                 0 |              26 |                 54980 |                 2666 |            6165789 |             0 |                0 |         1929688 |                     0 |       1652447 | 2017-02-04 03:14:51.610064+01

 2017-02-04 05:22:36.025594+01 | 1486182156.02559 |                 0 |              26 |                 54980 |                 2666 |            6165789 |             0 |                0 |         1929688 |                     0 |       1652696 | 2017-02-04 03:14:51.610064+01

 2017-02-04 05:22:37.11756+01 | 1486182157.11756 |                 0 |              26 |                 54980 |                 2666 |            6165789 |             0 |                0 |         1929688 |                     0 |       1653211 | 2017-02-04 03:14:51.610064+01

 2017-02-04 05:22:38.209993+01 | 1486182158.20999 |                 0 |              26 |                 54980 |                 2666 |            6165789 |             0 |                0 |         1929688 |                     0 |       1653314 | 2017-02-04 03:14:51.610064+01

 2017-02-04 05:22:39.300003+01 | 1486182159.3 |                 0 |              26 |                 54980 |                 2666 |            6165789 |             0 |                0 |         1929688 |                     0 |       1653566 | 2017-02-04 03:14:51.610064+01

 2017-02-04 05:22:40.390975+01 | 1486182160.39097 |                 0 |              26 |                 54980 |                 2666 |            6165789 |             0 |                0 |         1929688 |                     0 |       1654082 | 2017-02-04 03:14:51.610064+01

 2017-02-04 05:22:41.475197+01 | 1486182161.4752 |                 0 |              26 |                 54980 |                 2666 |            6165789 |             0 |                0 |         1929688 |                     0 |       1654188 | 2017-02-04 03:14:51.610064+01

 2017-02-04 05:22:42.553807+01 | 1486182162.55381 |                 0 |              26 |                 54980 |                 2666 |            6165789 |             0 |                0 |         1929688 |                     0 |       1654577 | 2017-02-04 03:14:51.610064+01

 2017-02-04 05:22:43.633915+01 | 1486182163.63391 |                 0 |              26 |                 54980 |                 2666 |            6165789 |             0 |                0 |         1929688 |                     0 |       1654904 | 2017-02-04 03:14:51.610064+01

 2017-02-04 05:22:44.721725+01 | 1486182164.72172 |                 0 |              26 |                 54980 |                 2666 |            6165789 |             0 |                0 |         1929688 |                     0 |       1655050 | 2017-02-04 03:14:51.610064+01

 2017-02-04 05:22:45.82835+01 | 1486182165.82835 |                 0 |              26 |                 54980 |                 2666 |            6165789 |             0 |                0 |         1929688 |                     0 |       1655362 | 2017-02-04 03:14:51.610064+01

 2017-02-04 05:22:46.916641+01 | 1486182166.91664 |                 0 |              26 |                 54980 |                 2666 |            6165789 |             0 |                0 |         1929688 |                     0 |       1655715 | 2017-02-04 03:14:51.610064+01

 2017-02-04 05:22:48.015377+01 | 1486182168.01538 |                 0 |              26 |                 54980 |                 2666 |            6165789 |             0 |                0 |         1929688 |                     0 |       1655884 | 2017-02-04 03:14:51.610064+01

 2017-02-04 05:22:49.098376+01 | 1486182169.09838 |                 0 |              26 |                 54980 |                 2666 |            6165789 |             0 |                0 |         1929688 |                     0 |       1656273 | 2017-02-04 03:14:51.610064+01

 2017-02-04 05:22:50.180915+01 | 1486182170.18092 |                 0 |              26 |                 54980 |                 2666 |            6165789 |             0 |                0 |         1929688 |                     0 |       1656505 | 2017-02-04 03:14:51.610064+01

 2017-02-04 05:22:51.266535+01 | 1486182171.26654 |                 0 |              26 |                 54980 |                 2666 |            6165789 |             0 |                0 |         1929688 |                     0 |       1656797 | 2017-02-04 03:14:51.610064+01

 2017-02-04 05:22:52.358183+01 | 1486182172.35818 |                 0 |              26 |                 54980 |                 2666 |            6165789 |             0 |                0 |         1929688 |                     0 |       1657107 | 2017-02-04 03:14:51.610064+01

 2017-02-04 05:22:53.440814+01 | 1486182173.44081 |                 0 |              26 |                 54980 |                 2666 |            6165789 |             0 |                0 |         1929688 |                     0 |       1657353 | 2017-02-04 03:14:51.610064+01

 2017-02-04 05:22:54.520372+01 | 1486182174.52037 |                 0 |              26 |                 54980 |                 2666 |            6165789 |             0 |                0 |         1929688 |                     0 |       1657650 | 2017-02-04 03:14:51.610064+01

 2017-02-04 05:22:55.598969+01 | 1486182175.59897 |                 0 |              26 |                 54980 |                 2666 |            6165789 |             0 |                0 |         1929688 |                     0 |       1658002 | 2017-02-04 03:14:51.610064+01

 2017-02-04 05:22:56.681789+01 | 1486182176.68179 |                 0 |              26 |                 54980 |                 2666 |            6165789 |             0 |                0 |         1929688 |                     0 |       1658211 | 2017-02-04 03:14:51.610064+01

 2017-02-04 05:22:57.776305+01 | 1486182177.7763 |                 0 |              26 |                 54980 |                 2666 |            6165789 |             0 |                0 |         1929688 |                     0 |       1658477 | 2017-02-04 03:14:51.610064+01

 2017-02-04 05:22:58.865131+01 | 1486182178.86513 |                 0 |              26 |                 54980 |                 2666 |            6165789 |             0 |                0 |         1929688 |                     0 |       1658743 | 2017-02-04 03:14:51.610064+01

 2017-02-04 05:22:59.952993+01 | 1486182179.95299 |                 0 |              26 |                 54980 |                 2666 |            6165789 |             0 |                0 |         1929688 |                     0 |       1659275 | 2017-02-04 03:14:51.610064+01

 2017-02-04 05:23:01.048672+01 | 1486182181.04867 |                 0 |              26 |                 54980 |                 2666 |            6165789 |             0 |                0 |         1929688 |                     0 |       1659401 | 2017-02-04 03:14:51.610064+01

 2017-02-04 05:23:02.135717+01 | 1486182182.13572 |                 0 |              26 |                 54980 |                 2666 |            6165789 |             0 |                0 |         1929688 |                     0 |       1659693 | 2017-02-04 03:14:51.610064+01

 2017-02-04 05:23:03.226833+01 | 1486182183.22683 |                 0 |              26 |                 54980 |                 2666 |            6165789 |             0 |                0 |         1929688 |                     0 |       1659972 | 2017-02-04 03:14:51.610064+01

 2017-02-04 05:23:04.319344+01 | 1486182184.31934 |                 0 |              26 |                 54980 |                 2666 |            6165789 |             0 |                0 |         1929688 |                     0 |       1660284 | 2017-02-04 03:14:51.610064+01

 2017-02-04 05:23:05.410761+01 | 1486182185.41076 |                 0 |              26 |                 54980 |                 2666 |            6165789 |             0 |                0 |         1929688 |                     0 |       1660539 | 2017-02-04 03:14:51.610064+01

 2017-02-04 05:23:06.496316+01 | 1486182186.49632 |                 0 |              26 |                 54980 |                 2666 |            6165789 |             0 |                0 |         1929688 |                     0 |       1660831 | 2017-02-04 03:14:51.610064+01

 2017-02-04 05:23:07.579824+01 | 1486182187.57982 |                 0 |              26 |                 54980 |                 2666 |            6165789 |             0 |                0 |         1929688 |                     0 |       1661129 | 2017-02-04 03:14:51.610064+01

 2017-02-04 05:23:08.663555+01 | 1486182188.66355 |                 0 |              26 |                 54980 |                 2666 |            6165789 |             0 |                0 |         1929688 |                     0 |       1661378 | 2017-02-04 03:14:51.610064+01

 2017-02-04 05:23:09.744284+01 | 1486182189.74428 |                 0 |              26 |                 54980 |                 2666 |            6165789 |             0 |                0 |         1929688 |                     0 |       1661668 | 2017-02-04 03:14:51.610064+01

 2017-02-04 05:23:10.839078+01 | 1486182190.83908 |                 0 |              26 |                 54980 |                 2666 |            6165789 |             0 |                0 |         1929688 |                     0 |       1662048 | 2017-02-04 03:14:51.610064+01

 2017-02-04 05:23:11.932413+01 | 1486182191.93241 |                 0 |              26 |                 54980 |                 2666 |            6165789 |             0 |                0 |         1929688 |                     0 |       1662048 | 2017-02-04 03:14:51.610064+01

 2017-02-04 05:23:13.013485+01 | 1486182193.01348 |                 0 |              26 |                 54980 |                 2666 |            6165789 |             0 |                0 |         1929688 |                     0 |       1662048 | 2017-02-04 03:14:51.610064+01

 2017-02-04 05:23:14.104897+01 | 1486182194.1049 |                 0 |              26 |                 54980 |                 2666 |            6165789 |             0 |                0 |         1929688 |                     0 |       1662876 | 2017-02-04 03:14:51.610064+01

 2017-02-04 05:23:15.18969+01 | 1486182195.18969 |                 0 |              26 |                 54980 |                 2666 |            6165789 |             0 |                0 |         1929688 |                     0 |       1663231 | 2017-02-04 03:14:51.610064+01

 2017-02-04 05:23:16.282509+01 | 1486182196.28251 |                 0 |              26 |                 54980 |                 2666 |            6165789 |             0 |                0 |         1929688 |                     0 |       1663455 | 2017-02-04 03:14:51.610064+01

 2017-02-04 05:23:17.371554+01 | 1486182197.37155 |                 0 |              26 |                 54980 |                 2666 |            6165789 |             0 |                0 |         1929688 |                     0 |       1663705 | 2017-02-04 03:14:51.610064+01

 2017-02-04 05:23:18.45624+01 | 1486182198.45624 |                 0 |              26 |                 54980 |                 2666 |            6165789 |             0 |                0 |         1929688 |                     0 |       1663994 | 2017-02-04 03:14:51.610064+01

 2017-02-04 05:23:19.542417+01 | 1486182199.54242 |                 0 |              26 |                 54980 |                 2666 |            6165789 |             0 |                0 |         1929688 |                     0 |       1664201 | 2017-02-04 03:14:51.610064+01

 2017-02-04 05:23:20.620784+01 | 1486182200.62078 |                 0 |              26 |                 54980 |                 2666 |            6165789 |             0 |                0 |         1929688 |                     0 |       1664649 | 2017-02-04 03:14:51.610064+01

 2017-02-04 05:23:21.702258+01 | 1486182201.70226 |                 0 |              26 |                 54980 |                 2666 |            6165789 |             0 |                0 |         1929688 |                     0 |       1664856 | 2017-02-04 03:14:51.610064+01

 2017-02-04 05:23:22.798585+01 | 1486182202.79858 |                 0 |              26 |                 54980 |                 2666 |            6165789 |             0 |                0 |         1929688 |                     0 |       1665082 | 2017-02-04 03:14:51.610064+01

 2017-02-04 05:23:23.884765+01 | 1486182203.88476 |                 0 |              26 |                 54980 |                 2666 |            6165789 |             0 |                0 |         1929688 |                     0 |       1665460 | 2017-02-04 03:14:51.610064+01

 2017-02-04 05:23:24.968013+01 | 1486182204.96801 |                 0 |              26 |                 54980 |                 2666 |            6165789 |             0 |                0 |         1929688 |                     0 |       1665623 | 2017-02-04 03:14:51.610064+01

 2017-02-04 05:23:26.059479+01 | 1486182206.05948 |                 0 |              26 |                 54980 |                 2666 |            6165789 |             0 |                0 |         1929688 |                     0 |       1666003 | 2017-02-04 03:14:51.610064+01

 2017-02-04 05:23:27.146546+01 | 1486182207.14655 |                 0 |              26 |                 54980 |                 2666 |            6165789 |             0 |                0 |         1929688 |                     0 |       1666272 | 2017-02-04 03:14:51.610064+01

 2017-02-04 05:23:28.232725+01 | 1486182208.23272 |                 0 |              26 |                 54980 |                 2666 |            6165789 |             0 |                0 |         1929688 |                     0 |       1666931 | 2017-02-04 03:14:51.610064+01

 2017-02-04 05:23:29.320602+01 | 1486182209.3206 |                 0 |              26 |                 54980 |                 2666 |            6165789 |             0 |                0 |         1929688 |                     0 |       1666931 | 2017-02-04 03:14:51.610064+01

 2017-02-04 05:23:30.415004+01 | 1486182210.415 |                 0 |              26 |                 54980 |                 2666 |            6165789 |             0 |                0 |         1929688 |                     0 |       1667158 | 2017-02-04 03:14:51.610064+01

 2017-02-04 05:23:31.497429+01 | 1486182211.49743 |                 0 |              26 |                 54980 |                 2666 |            6165789 |             0 |                0 |         1929688 |                     0 |       1667427 | 2017-02-04 03:14:51.610064+01

 2017-02-04 05:23:32.57854+01 | 1486182212.57854 |                 0 |              26 |                 54980 |                 2666 |            6165789 |             0 |                0 |         1929688 |                     0 |       1667650 | 2017-02-04 03:14:51.610064+01

 2017-02-04 05:23:33.659792+01 | 1486182213.65979 |                 0 |              26 |                 54980 |                 2666 |            6165789 |             0 |                0 |         1929688 |                     0 |       1667986 | 2017-02-04 03:14:51.610064+01

 2017-02-04 05:23:34.744284+01 | 1486182214.74428 |                 0 |              26 |                 54980 |                 2666 |            6165789 |             0 |                0 |         1929688 |                     0 |       1668194 | 2017-02-04 03:14:51.610064+01

 2017-02-04 05:23:35.839639+01 | 1486182215.83964 |                 0 |              26 |                 54980 |                 2666 |            6165789 |             0 |                0 |         1929688 |                     0 |       1668358 | 2017-02-04 03:14:51.610064+01

 2017-02-04 05:23:36.934+01 | 1486182216.934 |                 0 |              26 |                 54980 |                 2666 |            6165789 |             0 |                0 |         1929688 |                     0 |       1668884 | 2017-02-04 03:14:51.610064+01

 2017-02-04 05:23:38.026613+01 | 1486182218.02661 |                 0 |              26 |                 54980 |                 2666 |            6165789 |             0 |                0 |         1929688 |                     0 |       1669071 | 2017-02-04 03:14:51.610064+01

 2017-02-04 05:23:39.115247+01 | 1486182219.11525 |                 0 |              26 |                 54980 |                 2666 |            6165789 |             0 |                0 |         1929688 |                     0 |       1669301 | 2017-02-04 03:14:51.610064+01

 2017-02-04 05:23:40.210522+01 | 1486182220.21052 |                 0 |              26 |                 54980 |                 2666 |            6165789 |             0 |                0 |         1929688 |                     0 |       1669635 | 2017-02-04 03:14:51.610064+01

 2017-02-04 05:23:41.300362+01 | 1486182221.30036 |                 0 |              26 |                 54980 |                 2666 |            6165789 |             0 |                0 |         1929688 |                     0 |       1669913 | 2017-02-04 03:14:51.610064+01

 2017-02-04 05:23:42.397303+01 | 1486182222.3973 |                 0 |              26 |                 54980 |                 2666 |            6165789 |             0 |                0 |         1929688 |                     0 |       1670202 | 2017-02-04 03:14:51.610064+01

 2017-02-04 05:23:43.480453+01 | 1486182223.48045 |                 0 |              26 |                 54980 |                 2666 |            6165789 |             0 |                0 |         1929688 |                     0 |       1670536 | 2017-02-04 03:14:51.610064+01

 2017-02-04 05:23:44.560779+01 | 1486182224.56078 |                 0 |              26 |                 54980 |                 2666 |            6165789 |             0 |                0 |         1929688 |                     0 |       1670807 | 2017-02-04 03:14:51.610064+01

 2017-02-04 05:23:45.645445+01 | 1486182225.64545 |                 0 |              26 |                 54980 |                 2666 |            6165789 |             0 |                0 |         1929688 |                     0 |       1671059 | 2017-02-04 03:14:51.610064+01

 2017-02-04 05:23:46.727892+01 | 1486182226.72789 |                 0 |              26 |                 54980 |                 2666 |            6165789 |             0 |                0 |         1929688 |                     0 |       1671354 | 2017-02-04 03:14:51.610064+01

 2017-02-04 05:23:47.817695+01 | 1486182227.81769 |                 0 |              26 |                 54980 |                 2666 |            6165789 |             0 |                0 |         1929688 |                     0 |       1671607 | 2017-02-04 03:14:51.610064+01

 2017-02-04 05:23:48.918643+01 | 1486182228.91864 |                 0 |              26 |                 54980 |                 2666 |            6165789 |             0 |                0 |         1929688 |                     0 |       1671838 | 2017-02-04 03:14:51.610064+01

 2017-02-04 05:23:50.009288+01 | 1486182230.00929 |                 0 |              26 |                 54980 |                 2666 |            6165789 |             0 |                0 |         1929688 |                     0 |       1672459 | 2017-02-04 03:14:51.610064+01

 2017-02-04 05:23:51.092806+01 | 1486182231.09281 |                 0 |              26 |                 54980 |                 2666 |            6165789 |             0 |                0 |         1929688 |                     0 |       1672459 | 2017-02-04 03:14:51.610064+01

 2017-02-04 05:23:52.18522+01 | 1486182232.18522 |                 0 |              26 |                 54980 |                 2666 |            6165789 |             0 |                0 |         1929688 |                     0 |       1672765 | 2017-02-04 03:14:51.610064+01

 2017-02-04 05:23:53.269956+01 | 1486182233.26996 |                 0 |              26 |                 54980 |                 2666 |            6165789 |             0 |                0 |         1929688 |                     0 |       1672974 | 2017-02-04 03:14:51.610064+01

 2017-02-04 05:23:54.358785+01 | 1486182234.35878 |                 0 |              26 |                 54980 |                 2666 |            6165789 |             0 |                0 |         1929688 |                     0 |       1673267 | 2017-02-04 03:14:51.610064+01

 2017-02-04 05:23:55.440441+01 | 1486182235.44044 |                 0 |              26 |                 54980 |                 2666 |            6165789 |             0 |                0 |         1929688 |                     0 |       1673514 | 2017-02-04 03:14:51.610064+01

 2017-02-04 05:23:56.520314+01 | 1486182236.52031 |                 0 |              26 |                 54980 |                 2666 |            6165789 |             0 |                0 |         1929688 |                     0 |       1673925 | 2017-02-04 03:14:51.610064+01

 2017-02-04 05:23:57.604469+01 | 1486182237.60447 |                 0 |              26 |                 54980 |                 2666 |            6165789 |             0 |                0 |         1929688 |                     0 |       1674234 | 2017-02-04 03:14:51.610064+01

 2017-02-04 05:23:58.682529+01 | 1486182238.68253 |                 0 |              26 |                 54980 |                 2666 |            6165789 |             0 |                0 |         1929688 |                     0 |       1674424 | 2017-02-04 03:14:51.610064+01

 2017-02-04 05:23:59.770883+01 | 1486182239.77088 |                 0 |              26 |                 54980 |                 2666 |            6165789 |             0 |                0 |         1929688 |                     0 |       1674713 | 2017-02-04 03:14:51.610064+01

 2017-02-04 05:24:00.85415+01 | 1486182240.85415 |                 0 |              26 |                 54980 |                 2666 |            6165789 |             0 |                0 |         1929688 |                     0 |       1675005 | 2017-02-04 03:14:51.610064+01

 2017-02-04 05:24:01.950752+01 | 1486182241.95075 |                 0 |              26 |                 54980 |                 2666 |            6165789 |             0 |                0 |         1929688 |                     0 |       1675271 | 2017-02-04 03:14:51.610064+01

 2017-02-04 05:24:03.037915+01 | 1486182243.03791 |                 0 |              26 |                 54980 |                 2666 |            6165789 |             0 |                0 |         1929688 |                     0 |       1675503 | 2017-02-04 03:14:51.610064+01

 2017-02-04 05:24:04.132584+01 | 1486182244.13258 |                 0 |              26 |                 54980 |                 2666 |            6165789 |             0 |                0 |         1929688 |                     0 |       1675815 | 2017-02-04 03:14:51.610064+01

 2017-02-04 05:24:05.211063+01 | 1486182245.21106 |                 0 |              26 |                 54980 |                 2666 |            6165789 |             0 |                0 |         1929688 |                     0 |       1675999 | 2017-02-04 03:14:51.610064+01

 2017-02-04 05:24:06.304086+01 | 1486182246.30409 |                 0 |              26 |                 54980 |                 2666 |            6165789 |             0 |                0 |         1929688 |                     0 |       1676385 | 2017-02-04 03:14:51.610064+01

 2017-02-04 05:24:07.396326+01 | 1486182247.39633 |                 0 |              26 |                 54980 |                 2666 |            6165789 |             0 |                0 |         1929688 |                     0 |       1676755 | 2017-02-04 03:14:51.610064+01

 2017-02-04 05:24:08.487069+01 | 1486182248.48707 |                 0 |              26 |                 54980 |                 2666 |            6165789 |             0 |                0 |         1929688 |                     0 |       1677270 | 2017-02-04 03:14:51.610064+01

 2017-02-04 05:24:09.57108+01 | 1486182249.57108 |                 0 |              26 |                 54980 |                 2666 |            6165789 |             0 |                0 |         1929688 |                     0 |       1677271 | 2017-02-04 03:14:51.610064+01

 2017-02-04 05:24:10.648986+01 | 1486182250.64899 |                 0 |              26 |                 54980 |                 2666 |            6165789 |             0 |                0 |         1929688 |                     0 |       1677541 | 2017-02-04 03:14:51.610064+01

 2017-02-04 05:24:11.734387+01 | 1486182251.73439 |                 0 |              26 |                 54980 |                 2666 |            6165789 |             0 |                0 |         1929688 |                     0 |       1677541 | 2017-02-04 03:14:51.610064+01

 2017-02-04 05:24:12.8105+01 | 1486182252.8105 |                 0 |              26 |                 54980 |                 2666 |            6165789 |             0 |                0 |         1929688 |                     0 |       1678140 | 2017-02-04 03:14:51.610064+01

 2017-02-04 05:24:13.904545+01 | 1486182253.90455 |                 0 |              26 |                 54980 |                 2666 |            6165789 |             0 |                0 |         1929688 |                     0 |       1678749 | 2017-02-04 03:14:51.610064+01

 2017-02-04 05:24:14.998708+01 | 1486182254.99871 |                 0 |              26 |                 54980 |                 2666 |            6165789 |             0 |                0 |         1929688 |                     0 |       1678749 | 2017-02-04 03:14:51.610064+01

 2017-02-04 05:24:16.090945+01 | 1486182256.09095 |                 0 |              26 |                 54980 |                 2666 |            6165789 |             0 |                0 |         1929688 |                     0 |       1679058 | 2017-02-04 03:14:51.610064+01

 2017-02-04 05:24:17.188795+01 | 1486182257.1888 |                 0 |              26 |                 54980 |                 2666 |            6165789 |             0 |                0 |         1929688 |                     0 |       1679324 | 2017-02-04 03:14:51.610064+01

 2017-02-04 05:24:18.279868+01 | 1486182258.27987 |                 0 |              26 |                 54980 |                 2666 |            6165789 |             0 |                0 |         1929688 |                     0 |       1679510 | 2017-02-04 03:14:51.610064+01

 2017-02-04 05:24:19.371554+01 | 1486182259.37155 |                 0 |              26 |                 54980 |                 2666 |            6165789 |             0 |                0 |         1929688 |                     0 |       1679819 | 2017-02-04 03:14:51.610064+01

 2017-02-04 05:24:20.446983+01 | 1486182260.44698 |                 0 |              26 |                 54980 |                 2666 |            6165789 |             0 |                0 |         1929688 |                     0 |       1680076 | 2017-02-04 03:14:51.610064+01

 2017-02-04 05:24:21.537112+01 | 1486182261.53711 |                 0 |              26 |                 54980 |                 2666 |            6165789 |             0 |                0 |         1929688 |                     0 |       1680449 | 2017-02-04 03:14:51.610064+01

 2017-02-04 05:24:22.614528+01 | 1486182262.61453 |                 0 |              26 |                 54980 |                 2666 |            6165789 |             0 |                0 |         1929688 |                     0 |       1680718 | 2017-02-04 03:14:51.610064+01

 2017-02-04 05:24:23.698921+01 | 1486182263.69892 |                 0 |              26 |                 54980 |                 2666 |            6165789 |             0 |                0 |         1929688 |                     0 |       1680925 | 2017-02-04 03:14:51.610064+01

 2017-02-04 05:24:24.783684+01 | 1486182264.78368 |                 0 |              26 |                 54980 |                 2666 |            6165789 |             0 |                0 |         1929688 |                     0 |       1681313 | 2017-02-04 03:14:51.610064+01

 2017-02-04 05:24:25.86783+01 | 1486182265.86783 |                 0 |              26 |                 54980 |                 2666 |            6165789 |             0 |                0 |         1929688 |                     0 |       1681522 | 2017-02-04 03:14:51.610064+01

 2017-02-04 05:24:26.968504+01 | 1486182266.9685 |                 0 |              26 |                 54980 |                 2666 |            6165789 |             0 |                0 |         1929688 |                     0 |       1681914 | 2017-02-04 03:14:51.610064+01

 2017-02-04 05:24:28.053649+01 | 1486182268.05365 |                 0 |              26 |                 54980 |                 2666 |            6165789 |             0 |                0 |         1929688 |                     0 |       1682166 | 2017-02-04 03:14:51.610064+01

 2017-02-04 05:24:29.156497+01 | 1486182269.1565 |                 0 |              26 |                 54980 |                 2666 |            6165789 |             0 |                0 |         1929688 |                     0 |       1682412 | 2017-02-04 03:14:51.610064+01

 2017-02-04 05:24:30.242058+01 | 1486182270.24206 |                 0 |              26 |                 54980 |                 2666 |            6165789 |             0 |                0 |         1929688 |                     0 |       1682738 | 2017-02-04 03:14:51.610064+01

 2017-02-04 05:24:31.337988+01 | 1486182271.33799 |                 0 |              26 |                 54980 |                 2666 |            6165789 |             0 |                0 |         1929688 |                     0 |       1682941 | 2017-02-04 03:14:51.610064+01

 2017-02-04 05:24:32.432167+01 | 1486182272.43217 |                 0 |              26 |                 54980 |                 2666 |            6165789 |             0 |                0 |         1929688 |                     0 |       1683297 | 2017-02-04 03:14:51.610064+01

 2017-02-04 05:24:33.520873+01 | 1486182273.52087 |                 0 |              26 |                 54980 |                 2666 |            6165789 |             0 |                0 |         1929688 |                     0 |       1683550 | 2017-02-04 03:14:51.610064+01

 2017-02-04 05:24:34.603064+01 | 1486182274.60306 |                 0 |              26 |                 54980 |                 2666 |            6165789 |             0 |                0 |         1929688 |                     0 |       1683862 | 2017-02-04 03:14:51.610064+01

 2017-02-04 05:24:35.684933+01 | 1486182275.68493 |                 0 |              26 |                 54980 |                 2666 |            6165789 |             0 |                0 |         1929688 |                     0 |       1684066 | 2017-02-04 03:14:51.610064+01

 2017-02-04 05:24:36.768981+01 | 1486182276.76898 |                 0 |              26 |                 54980 |                 2666 |            6165789 |             0 |                0 |         1929688 |                     0 |       1684479 | 2017-02-04 03:14:51.610064+01

 2017-02-04 05:24:37.848793+01 | 1486182277.84879 |                 0 |              26 |                 54980 |                 2666 |            6165789 |             0 |                0 |         1929688 |                     0 |       1684728 | 2017-02-04 03:14:51.610064+01

 2017-02-04 05:24:38.931656+01 | 1486182278.93166 |                 0 |              26 |                 54980 |                 2666 |            6165789 |             0 |                0 |         1929688 |                     0 |       1685037 | 2017-02-04 03:14:51.610064+01

 2017-02-04 05:24:40.028337+01 | 1486182280.02834 |                 0 |              26 |                 54980 |                 2666 |            6165789 |             0 |                0 |         1929688 |                     0 |       1685266 | 2017-02-04 03:14:51.610064+01

 2017-02-04 05:24:41.12632+01 | 1486182281.12632 |                 0 |              26 |                 54980 |                 2666 |            6165789 |             0 |                0 |         1929688 |                     0 |       1685618 | 2017-02-04 03:14:51.610064+01

 2017-02-04 05:24:42.20952+01 | 1486182282.20952 |                 0 |              26 |                 54980 |                 2666 |            6165789 |             0 |                0 |         1929688 |                     0 |       1686148 | 2017-02-04 03:14:51.610064+01

 2017-02-04 05:24:43.305834+01 | 1486182283.30583 |                 0 |              26 |                 54980 |                 2666 |            6165789 |             0 |                0 |         1929688 |                     0 |       1686150 | 2017-02-04 03:14:51.610064+01

 2017-02-04 05:24:44.392198+01 | 1486182284.3922 |                 0 |              26 |                 54980 |                 2666 |            6165789 |             0 |                0 |         1929688 |                     0 |       1686354 | 2017-02-04 03:14:51.610064+01

 2017-02-04 05:24:45.488925+01 | 1486182285.48892 |                 0 |              26 |                 54980 |                 2666 |            6165789 |             0 |                0 |         1929688 |                     0 |       1686784 | 2017-02-04 03:14:51.610064+01

 2017-02-04 05:24:46.569511+01 | 1486182286.56951 |                 0 |              26 |                 54980 |                 2666 |            6165789 |             0 |                0 |         1929688 |                     0 |       1687075 | 2017-02-04 03:14:51.610064+01

 2017-02-04 05:24:47.653091+01 | 1486182287.65309 |                 0 |              26 |                 54980 |                 2666 |            6165789 |             0 |                0 |         1929688 |                     0 |       1687404 | 2017-02-04 03:14:51.610064+01

 2017-02-04 05:24:48.750149+01 | 1486182288.75015 |                 0 |              26 |                 54980 |                 2666 |            6165789 |             0 |                0 |         1929688 |                     0 |       1687639 | 2017-02-04 03:14:51.610064+01

 2017-02-04 05:24:49.83364+01 | 1486182289.83364 |                 0 |              26 |                 54980 |                 2666 |            6165789 |             0 |                0 |         1929688 |                     0 |       1688088 | 2017-02-04 03:14:51.610064+01

 2017-02-04 05:24:50.917281+01 | 1486182290.91728 |                 0 |              26 |                 54980 |                 2666 |            6165789 |             0 |                0 |         1929688 |                     0 |       1688212 | 2017-02-04 03:14:51.610064+01

 2017-02-04 05:24:52.000269+01 | 1486182292.00027 |                 0 |              26 |                 54980 |                 2666 |            6165789 |             0 |                0 |         1929688 |                     0 |       1688582 | 2017-02-04 03:14:51.610064+01

 2017-02-04 05:24:53.096591+01 | 1486182293.09659 |                 0 |              26 |                 54980 |                 2666 |            6165789 |             0 |                0 |         1929688 |                     0 |       1688792 | 2017-02-04 03:14:51.610064+01

 2017-02-04 05:24:54.184762+01 | 1486182294.18476 |                 0 |              26 |                 54980 |                 2666 |            6165789 |             0 |                0 |         1929688 |                     0 |       1689061 | 2017-02-04 03:14:51.610064+01

 2017-02-04 05:24:55.265998+01 | 1486182295.266 |                 0 |              26 |                 54980 |                 2666 |            6165789 |             0 |                0 |         1929688 |                     0 |       1689373 | 2017-02-04 03:14:51.610064+01

 2017-02-04 05:24:56.353901+01 | 1486182296.3539 |                 0 |              26 |                 54980 |                 2666 |            6165789 |             0 |                0 |         1929688 |                     0 |       1689642 | 2017-02-04 03:14:51.610064+01

 2017-02-04 05:24:57.445382+01 | 1486182297.44538 |                 0 |              26 |                 54980 |                 2666 |            6165789 |             0 |                0 |         1929688 |                     0 |       1689910 | 2017-02-04 03:14:51.610064+01

 2017-02-04 05:24:58.533386+01 | 1486182298.53339 |                 0 |              26 |                 54980 |                 2666 |            6165789 |             0 |                0 |         1929688 |                     0 |       1690177 | 2017-02-04 03:14:51.610064+01

 2017-02-04 05:24:59.613693+01 | 1486182299.61369 |                 0 |              26 |                 54980 |                 2666 |            6165789 |             0 |                0 |         1929688 |                     0 |       1690689 | 2017-02-04 03:14:51.610064+01

 2017-02-04 05:25:00.693329+01 | 1486182300.69333 |                 0 |              26 |                 54980 |                 2666 |            6165789 |             0 |                0 |         1929688 |                     0 |       1690992 | 2017-02-04 03:14:51.610064+01

 2017-02-04 05:25:01.775033+01 | 1486182301.77503 |                 0 |              26 |                 54980 |                 2666 |            6165789 |             0 |                0 |         1929688 |                     0 |       1691118 | 2017-02-04 03:14:51.610064+01

 2017-02-04 05:25:02.853998+01 | 1486182302.854 |                 0 |              26 |                 54980 |                 2666 |            6165789 |             0 |                0 |         1929688 |                     0 |       1691450 | 2017-02-04 03:14:51.610064+01

 2017-02-04 05:25:03.936419+01 | 1486182303.93642 |                 0 |              26 |                 54980 |                 2666 |            6165789 |             0 |                0 |         1929688 |                     0 |       1691659 | 2017-02-04 03:14:51.610064+01

 2017-02-04 05:25:05.023212+01 | 1486182305.02321 |                 0 |              26 |                 54980 |                 2666 |            6165789 |             0 |                0 |         1929688 |                     0 |       1692013 | 2017-02-04 03:14:51.610064+01

 2017-02-04 05:25:06.106048+01 | 1486182306.10605 |                 0 |              26 |                 54980 |                 2666 |            6165789 |             0 |                0 |         1929688 |                     0 |       1692240 | 2017-02-04 03:14:51.610064+01

 2017-02-04 05:25:07.191776+01 | 1486182307.19178 |                 0 |              26 |                 54980 |                 2666 |            6165789 |             0 |                0 |         1929688 |                     0 |       1692444 | 2017-02-04 03:14:51.610064+01

 2017-02-04 05:25:08.278439+01 | 1486182308.27844 |                 0 |              26 |                 54980 |                 2666 |            6165789 |             0 |                0 |         1929688 |                     0 |       1692812 | 2017-02-04 03:14:51.610064+01

 2017-02-04 05:25:09.373054+01 | 1486182309.37305 |                 0 |              26 |                 54980 |                 2666 |            6165789 |             0 |                0 |         1929688 |                     0 |       1693021 | 2017-02-04 03:14:51.610064+01

 2017-02-04 05:25:10.462179+01 | 1486182310.46218 |                 0 |              26 |                 54980 |                 2666 |            6165789 |             0 |                0 |         1929688 |                     0 |       1693327 | 2017-02-04 03:14:51.610064+01

 2017-02-04 05:25:11.550697+01 | 1486182311.5507 |                 0 |              26 |                 54980 |                 2666 |            6165789 |             0 |                0 |         1929688 |                     0 |       1693596 | 2017-02-04 03:14:51.610064+01

 2017-02-04 05:25:12.638175+01 | 1486182312.63818 |                 0 |              26 |                 54980 |                 2666 |            6165789 |             0 |                0 |         1929688 |                     0 |       1693825 | 2017-02-04 03:14:51.610064+01

 2017-02-04 05:25:13.724083+01 | 1486182313.72408 |                 0 |              26 |                 54980 |                 2666 |            6165789 |             0 |                0 |         1929688 |                     0 |       1694151 | 2017-02-04 03:14:51.610064+01

 2017-02-04 05:25:14.802428+01 | 1486182314.80243 |                 0 |              26 |                 54980 |                 2666 |            6165789 |             0 |                0 |         1929688 |                     0 |       1694557 | 2017-02-04 03:14:51.610064+01

 2017-02-04 05:25:15.881322+01 | 1486182315.88132 |                 0 |              26 |                 54980 |                 2666 |            6165789 |             0 |                0 |         1929688 |                     0 |       1694803 | 2017-02-04 03:14:51.610064+01

 2017-02-04 05:25:16.972682+01 | 1486182316.97268 |                 0 |              26 |                 54980 |                 2666 |            6165789 |             0 |                0 |         1929688 |                     0 |       1694947 | 2017-02-04 03:14:51.610064+01

 2017-02-04 05:25:18.063789+01 | 1486182318.06379 |                 0 |              26 |                 54980 |                 2666 |            6165789 |             0 |                0 |         1929688 |                     0 |       1695267 | 2017-02-04 03:14:51.610064+01

 2017-02-04 05:25:19.157499+01 | 1486182319.1575 |                 0 |              26 |                 54980 |                 2666 |            6165789 |             0 |                0 |         1929688 |                     0 |       1695574 | 2017-02-04 03:14:51.610064+01

 2017-02-04 05:25:20.23059+01 | 1486182320.23059 |                 0 |              26 |                 54980 |                 2666 |            6165789 |             0 |                0 |         1929688 |                     0 |       1695970 | 2017-02-04 03:14:51.610064+01

 2017-02-04 05:25:21.335376+01 | 1486182321.33538 |                 0 |              26 |                 54980 |                 2666 |            6165789 |             0 |                0 |         1929688 |                     0 |       1696156 | 2017-02-04 03:14:51.610064+01

 2017-02-04 05:25:22.417752+01 | 1486182322.41775 |                 0 |              26 |                 54980 |                 2666 |            6165789 |             0 |                0 |         1929688 |                     0 |       1696526 | 2017-02-04 03:14:51.610064+01

 2017-02-04 05:25:23.511851+01 | 1486182323.51185 |                 0 |              26 |                 54980 |                 2666 |            6165789 |             0 |                0 |         1929688 |                     0 |       1696729 | 2017-02-04 03:14:51.610064+01

 2017-02-04 05:25:24.595736+01 | 1486182324.59574 |                 0 |              26 |                 54980 |                 2666 |            6165789 |             0 |                0 |         1929688 |                     0 |       1696853 | 2017-02-04 03:14:51.610064+01

 2017-02-04 05:25:25.678198+01 | 1486182325.6782 |                 0 |              26 |                 54980 |                 2666 |            6165789 |             0 |                0 |         1929688 |                     0 |       1697035 | 2017-02-04 03:14:51.610064+01

 2017-02-04 05:25:26.758303+01 | 1486182326.7583 |                 0 |              26 |                 54980 |                 2666 |            6165789 |             0 |                0 |         1929688 |                     0 |       1697462 | 2017-02-04 03:14:51.610064+01

 2017-02-04 05:25:27.837406+01 | 1486182327.83741 |                 0 |              26 |                 54980 |                 2666 |            6165789 |             0 |                0 |         1929688 |                     0 |       1697970 | 2017-02-04 03:14:51.610064+01

 2017-02-04 05:25:28.918979+01 | 1486182328.91898 |                 0 |              26 |                 54980 |                 2666 |            6165789 |             0 |                0 |         1929688 |                     0 |       1697971 | 2017-02-04 03:14:51.610064+01

 2017-02-04 05:25:29.999519+01 | 1486182329.99952 |                 0 |              26 |                 54980 |                 2666 |            6165789 |             0 |                0 |         1929688 |                     0 |       1698399 | 2017-02-04 03:14:51.610064+01

 2017-02-04 05:25:31.090175+01 | 1486182331.09017 |                 0 |              26 |                 54980 |                 2666 |            6165789 |             0 |                0 |         1929688 |                     0 |       1698548 | 2017-02-04 03:14:51.610064+01

 2017-02-04 05:25:32.172571+01 | 1486182332.17257 |                 0 |              26 |                 54980 |                 2666 |            6165789 |             0 |                0 |         1929688 |                     0 |       1698916 | 2017-02-04 03:14:51.610064+01

 2017-02-04 05:25:33.264802+01 | 1486182333.2648 |                 0 |              26 |                 54980 |                 2666 |            6165789 |             0 |                0 |         1929688 |                     0 |       1699120 | 2017-02-04 03:14:51.610064+01

 2017-02-04 05:25:34.349128+01 | 1486182334.34913 |                 0 |              26 |                 54980 |                 2666 |            6165789 |             0 |                0 |         1929688 |                     0 |       1699443 | 2017-02-04 03:14:51.610064+01

 2017-02-04 05:25:35.432882+01 | 1486182335.43288 |                 0 |              26 |                 54980 |                 2666 |            6165789 |             0 |                0 |         1929688 |                     0 |       1699629 | 2017-02-04 03:14:51.610064+01

 2017-02-04 05:25:36.524025+01 | 1486182336.52402 |                 0 |              26 |                 54980 |                 2666 |            6165789 |             0 |                0 |         1929688 |                     0 |       1699955 | 2017-02-04 03:14:51.610064+01

 2017-02-04 05:25:37.607628+01 | 1486182337.60763 |                 0 |              26 |                 54980 |                 2666 |            6165789 |             0 |                0 |         1929688 |                     0 |       1700141 | 2017-02-04 03:14:51.610064+01

 2017-02-04 05:25:38.6958+01 | 1486182338.6958 |                 0 |              26 |                 54980 |                 2666 |            6165789 |             0 |                0 |         1929688 |                     0 |       1700514 | 2017-02-04 03:14:51.610064+01

 2017-02-04 05:25:39.775936+01 | 1486182339.77594 |                 0 |              26 |                 54980 |                 2666 |            6165789 |             0 |                0 |         1929688 |                     0 |       1700683 | 2017-02-04 03:14:51.610064+01

 2017-02-04 05:25:40.854131+01 | 1486182340.85413 |                 0 |              26 |                 54980 |                 2666 |            6165789 |             0 |                0 |         1929688 |                     0 |       1700939 | 2017-02-04 03:14:51.610064+01

 2017-02-04 05:25:41.93309+01 | 1486182341.93309 |                 0 |              26 |                 54980 |                 2666 |            6165789 |             0 |                0 |         1929688 |                     0 |       1701228 | 2017-02-04 03:14:51.610064+01

 2017-02-04 05:25:43.023177+01 | 1486182343.02318 |                 0 |              26 |                 54980 |                 2666 |            6165789 |             0 |                0 |         1929688 |                     0 |       1701826 | 2017-02-04 03:14:51.610064+01

 2017-02-04 05:25:44.113884+01 | 1486182344.11388 |                 0 |              26 |                 54980 |                 2666 |            6165789 |             0 |                0 |         1929688 |                     0 |       1701826 | 2017-02-04 03:14:51.610064+01

 2017-02-04 05:25:45.208585+01 | 1486182345.20859 |                 0 |              26 |                 54980 |                 2666 |            6165789 |             0 |                0 |         1929688 |                     0 |       1702035 | 2017-02-04 03:14:51.610064+01

 2017-02-04 05:25:46.308544+01 | 1486182346.30854 |                 0 |              26 |                 54980 |                 2666 |            6165789 |             0 |                0 |         1929688 |                     0 |       1702333 | 2017-02-04 03:14:51.610064+01

 2017-02-04 05:25:47.396647+01 | 1486182347.39665 |                 0 |              26 |                 54980 |                 2666 |            6165789 |             0 |                0 |         1929688 |                     0 |       1702628 | 2017-02-04 03:14:51.610064+01

 2017-02-04 05:25:48.48347+01 | 1486182348.48347 |                 0 |              26 |                 54980 |                 2666 |            6165789 |             0 |                0 |         1929688 |                     0 |       1702957 | 2017-02-04 03:14:51.610064+01

 2017-02-04 05:25:49.570338+01 | 1486182349.57034 |                 0 |              26 |                 54980 |                 2666 |            6165789 |             0 |                0 |         1929688 |                     0 |       1703206 | 2017-02-04 03:14:51.610064+01

 2017-02-04 05:25:50.654817+01 | 1486182350.65482 |                 0 |              26 |                 54980 |                 2666 |            6165789 |             0 |                0 |         1929688 |                     0 |       1703512 | 2017-02-04 03:14:51.610064+01

 2017-02-04 05:25:51.739405+01 | 1486182351.7394 |                 0 |              26 |                 54980 |                 2666 |            6165789 |             0 |                0 |         1929688 |                     0 |       1703724 | 2017-02-04 03:14:51.610064+01

 2017-02-04 05:25:52.827754+01 | 1486182352.82775 |                 0 |              26 |                 54980 |                 2666 |            6165789 |             0 |                0 |         1929688 |                     0 |       1704057 | 2017-02-04 03:14:51.610064+01

 2017-02-04 05:25:53.909232+01 | 1486182353.90923 |                 0 |              26 |                 54980 |                 2666 |            6165789 |             0 |                0 |         1929688 |                     0 |       1704261 | 2017-02-04 03:14:51.610064+01

 2017-02-04 05:25:54.988288+01 | 1486182354.98829 |                 0 |              26 |                 54980 |                 2666 |            6165789 |             0 |                0 |         1929688 |                     0 |       1704576 | 2017-02-04 03:14:51.610064+01

 2017-02-04 05:25:56.075645+01 | 1486182356.07564 |                 0 |              26 |                 54980 |                 2666 |            6165789 |             0 |                0 |         1929688 |                     0 |       1705005 | 2017-02-04 03:14:51.610064+01

 2017-02-04 05:25:57.161817+01 | 1486182357.16182 |                 0 |              26 |                 54980 |                 2666 |            6165789 |             0 |                0 |         1929688 |                     0 |       1705211 | 2017-02-04 03:14:51.610064+01

 2017-02-04 05:25:58.252866+01 | 1486182358.25287 |                 0 |              26 |                 54980 |                 2666 |            6165789 |             0 |                0 |         1929688 |                     0 |       1705443 | 2017-02-04 03:14:51.610064+01

 2017-02-04 05:25:59.340459+01 | 1486182359.34046 |                 0 |              26 |                 54980 |                 2666 |            6165789 |             0 |                0 |         1929688 |                     0 |       1705716 | 2017-02-04 03:14:51.610064+01

 2017-02-04 05:26:00.422616+01 | 1486182360.42262 |                 0 |              26 |                 54980 |                 2666 |            6165789 |             0 |                0 |         1929688 |                     0 |       1705905 | 2017-02-04 03:14:51.610064+01

 2017-02-04 05:26:01.510988+01 | 1486182361.51099 |                 0 |              26 |                 54980 |                 2666 |            6165789 |             0 |                0 |         1929688 |                     0 |       1706155 | 2017-02-04 03:14:51.610064+01

 2017-02-04 05:26:02.597836+01 | 1486182362.59784 |                 0 |              26 |                 54980 |                 2666 |            6165789 |             0 |                0 |         1929688 |                     0 |       1706707 | 2017-02-04 03:14:51.610064+01

 2017-02-04 05:26:03.675662+01 | 1486182363.67566 |                 0 |              26 |                 54980 |                 2666 |            6165789 |             0 |                0 |         1929688 |                     0 |       1706878 | 2017-02-04 03:14:51.610064+01

 2017-02-04 05:26:04.757579+01 | 1486182364.75758 |                 0 |              26 |                 54980 |                 2666 |            6165789 |             0 |                0 |         1929688 |                     0 |       1707193 | 2017-02-04 03:14:51.610064+01

 2017-02-04 05:26:05.837068+01 | 1486182365.83707 |                 0 |              26 |                 54980 |                 2666 |            6165789 |             0 |                0 |         1929688 |                     0 |       1707505 | 2017-02-04 03:14:51.610064+01

 2017-02-04 05:26:06.914626+01 | 1486182366.91463 |                 0 |              26 |                 54980 |                 2666 |            6165789 |             0 |                0 |         1929688 |                     0 |       1707754 | 2017-02-04 03:14:51.610064+01

 2017-02-04 05:26:07.991563+01 | 1486182367.99156 |                 0 |              26 |                 54980 |                 2666 |            6165789 |             0 |                0 |         1929688 |                     0 |       1708366 | 2017-02-04 03:14:51.610064+01

 2017-02-04 05:26:09.077068+01 | 1486182369.07707 |                 0 |              26 |                 54980 |                 2666 |            6165789 |             0 |                0 |         1929688 |                     0 |       1708366 | 2017-02-04 03:14:51.610064+01

 2017-02-04 05:26:10.160607+01 | 1486182370.16061 |                 0 |              26 |                 54980 |                 2666 |            6165789 |             0 |                0 |         1929688 |                     0 |       1708620 | 2017-02-04 03:14:51.610064+01

 2017-02-04 05:26:11.248772+01 | 1486182371.24877 |                 0 |              26 |                 54980 |                 2666 |            6165789 |             0 |                0 |         1929688 |                     0 |       1708894 | 2017-02-04 03:14:51.610064+01

 2017-02-04 05:26:12.335061+01 | 1486182372.33506 |                 0 |              26 |                 54980 |                 2666 |            6165789 |             0 |                0 |         1929688 |                     0 |       1709123 | 2017-02-04 03:14:51.610064+01

 2017-02-04 05:26:13.43306+01 | 1486182373.43306 |                 0 |              26 |                 54980 |                 2666 |            6165789 |             0 |                0 |         1929688 |                     0 |       1709438 | 2017-02-04 03:14:51.610064+01

 2017-02-04 05:26:14.523881+01 | 1486182374.52388 |                 0 |              26 |                 54980 |                 2666 |            6165789 |             0 |                0 |         1929688 |                     0 |       1709747 | 2017-02-04 03:14:51.610064+01

 2017-02-04 05:26:15.617895+01 | 1486182375.61789 |                 0 |              26 |                 54980 |                 2666 |            6165789 |             0 |                0 |         1929688 |                     0 |       1710000 | 2017-02-04 03:14:51.610064+01

 2017-02-04 05:26:16.698881+01 | 1486182376.69888 |                 0 |              26 |                 54980 |                 2666 |            6165789 |             0 |                0 |         1929688 |                     0 |       1710207 | 2017-02-04 03:14:51.610064+01

 2017-02-04 05:26:17.775898+01 | 1486182377.7759 |                 0 |              26 |                 54980 |                 2666 |            6165789 |             0 |                0 |         1929688 |                     0 |       1710579 | 2017-02-04 03:14:51.610064+01

 2017-02-04 05:26:18.853909+01 | 1486182378.85391 |                 0 |              26 |                 54980 |                 2666 |            6165789 |             0 |                0 |         1929688 |                     0 |       1710892 | 2017-02-04 03:14:51.610064+01

 2017-02-04 05:26:19.925315+01 | 1486182379.92531 |                 0 |              26 |                 54980 |                 2666 |            6165789 |             0 |                0 |         1929688 |                     0 |       1711079 | 2017-02-04 03:14:51.610064+01

 2017-02-04 05:26:21.012249+01 | 1486182381.01225 |                 0 |              26 |                 54980 |                 2666 |            6165789 |             0 |                0 |         1929688 |                     0 |       1711334 | 2017-02-04 03:14:51.610064+01

 2017-02-04 05:26:22.095945+01 | 1486182382.09594 |                 0 |              26 |                 54980 |                 2666 |            6165789 |             0 |                0 |         1929688 |                     0 |       1711806 | 2017-02-04 03:14:51.610064+01

 2017-02-04 05:26:23.179669+01 | 1486182383.17967 |                 0 |              26 |                 54980 |                 2666 |            6165789 |             0 |                0 |         1929688 |                     0 |       1711869 | 2017-02-04 03:14:51.610064+01

 2017-02-04 05:26:24.27604+01 | 1486182384.27604 |                 0 |              26 |                 54980 |                 2666 |            6165789 |             0 |                0 |         1929688 |                     0 |       1712221 | 2017-02-04 03:14:51.610064+01

 2017-02-04 05:26:25.37223+01 | 1486182385.37223 |                 0 |              26 |                 54980 |                 2666 |            6165789 |             0 |                0 |         1929688 |                     0 |       1712405 | 2017-02-04 03:14:51.610064+01

 2017-02-04 05:26:26.465033+01 | 1486182386.46503 |                 0 |              26 |                 54980 |                 2666 |            6165789 |             0 |                0 |         1929688 |                     0 |       1712695 | 2017-02-04 03:14:51.610064+01

