 2017-02-06 15:48:31.579592+01 | 1486392511.57959 | 5/16F75E60               |           21860146784

 2017-02-06 15:48:32.670983+01 | 1486392512.67098 | 5/1FBCAA18               |           22007294488

 2017-02-06 15:48:33.761555+01 | 1486392513.76155 | 5/281165D0               |           22147065296

 2017-02-06 15:48:34.843129+01 | 1486392514.84313 | 5/3059FFE8               |           22286041064

 2017-02-06 15:48:35.922361+01 | 1486392515.92236 | 5/37948590               |           22407316880

 2017-02-06 15:48:37.015937+01 | 1486392517.01594 | 5/3F952748               |           22541576008

 2017-02-06 15:48:38.098738+01 | 1486392518.09874 | 5/46942C88               |           22658952328

 2017-02-06 15:48:39.180613+01 | 1486392519.18061 | 5/4D1BBEA0               |           22768500384

 2017-02-06 15:48:40.271134+01 | 1486392520.27113 | 5/52D5F540               |           22864590144

 2017-02-06 15:48:41.359594+01 | 1486392521.35959 | 5/57D49400               |           22948385792

 2017-02-06 15:48:42.447717+01 | 1486392522.44772 | 5/5BFA6878               |           23017973880

 2017-02-06 15:48:43.529837+01 | 1486392523.52984 | 5/5FA07D90               |           23079189904

 2017-02-06 15:48:44.61105+01 | 1486392524.61105 | 5/62A22748               |           23129630536

 2017-02-06 15:48:45.691378+01 | 1486392525.69138 | 5/65915570               |           23178859888

 2017-02-06 15:48:46.769965+01 | 1486392526.76996 | 5/68AE2768               |           23231080296

 2017-02-06 15:48:47.857885+01 | 1486392527.85788 | 5/6B95C0A8               |           23279812776

 2017-02-06 15:48:48.943702+01 | 1486392528.9437 | 5/6E45E9F0               |           23324912112

 2017-02-06 15:48:50.02906+01 | 1486392530.02906 | 5/70D871D0               |           23368069584

 2017-02-06 15:48:51.120469+01 | 1486392531.12047 | 5/73414128               |           23408492840

 2017-02-06 15:48:52.214653+01 | 1486392532.21465 | 5/7594E990               |           23447529872

 2017-02-06 15:48:53.297214+01 | 1486392533.29721 | 5/77724D60               |           23478816096

 2017-02-06 15:48:54.384516+01 | 1486392534.38452 | 5/78F2B3E0               |           23504008160

 2017-02-06 15:48:55.480909+01 | 1486392535.48091 | 5/7A5171C8               |           23526994376

 2017-02-06 15:48:56.546185+01 | 1486392536.54619 | 5/7B5FC7A8               |           23544711080

 2017-02-06 15:48:57.622597+01 | 1486392537.6226 | 5/7C563110               |           23560859920

 2017-02-06 15:48:58.706056+01 | 1486392538.70606 | 5/7D4C6610               |           23576995344

 2017-02-06 15:48:59.788728+01 | 1486392539.78873 | 5/7E3C34B8               |           23592711352

 2017-02-06 15:49:00.8828+01 | 1486392540.8828 | 5/7F296390               |           23608255376

 2017-02-06 15:49:01.967441+01 | 1486392541.96744 | 5/80031B40               |           23622523712

 2017-02-06 15:49:03.056508+01 | 1486392543.05651 | 5/80E61FC0               |           23637401536

 2017-02-06 15:49:04.148646+01 | 1486392544.14865 | 5/81C6A448               |           23652115528

 2017-02-06 15:49:05.237568+01 | 1486392545.23757 | 5/82A27C80               |           23666523264

 2017-02-06 15:49:06.31975+01 | 1486392546.31975 | 5/836F73F0               |           23679955952

 2017-02-06 15:49:07.421324+01 | 1486392547.42132 | 5/8444B098               |           23693930648

 2017-02-06 15:49:08.503376+01 | 1486392548.50338 | 5/851B5898               |           23707998360

 2017-02-06 15:49:09.586676+01 | 1486392549.58668 | 5/85EA1E30               |           23721549360

 2017-02-06 15:49:10.666242+01 | 1486392550.66624 | 5/86B95800               |           23735130112

 2017-02-06 15:49:11.759703+01 | 1486392551.7597 | 5/87840E20               |           23748415008

 2017-02-06 15:49:12.849107+01 | 1486392552.84911 | 5/884C5EB0               |           23761542832

 2017-02-06 15:49:13.932368+01 | 1486392553.93237 | 5/8911DE18               |           23774486040

 2017-02-06 15:49:15.027927+01 | 1486392555.02793 | 5/89E0A9B8               |           23788038584

 2017-02-06 15:49:16.112797+01 | 1486392556.1128 | 5/8AA45780               |           23800862592

 2017-02-06 15:49:17.199342+01 | 1486392557.19934 | 5/8B627A80               |           23813323392

 2017-02-06 15:49:18.286628+01 | 1486392558.28663 | 5/8C223EC0               |           23825891008

 2017-02-06 15:49:19.371659+01 | 1486392559.37166 | 5/8CE33948               |           23838538056

 2017-02-06 15:49:20.459717+01 | 1486392560.45972 | 5/8D9B96F0               |           23850620656

 2017-02-06 15:49:21.539878+01 | 1486392561.53988 | 5/8E4F9F38               |           23862419256

 2017-02-06 15:49:22.620291+01 | 1486392562.62029 | 5/8F051108               |           23874310408

 2017-02-06 15:49:23.705347+01 | 1486392563.70535 | 5/8FB73740               |           23885985600

 2017-02-06 15:49:24.78954+01 | 1486392564.78954 | 5/90722438               |           23898235960

 2017-02-06 15:49:25.866234+01 | 1486392565.86623 | 5/9138CF10               |           23911255824

 2017-02-06 15:49:26.953029+01 | 1486392566.95303 | 5/920E0830               |           23925229616

 2017-02-06 15:49:28.035586+01 | 1486392568.03559 | 5/92DD9628               |           23938831912

 2017-02-06 15:49:29.125693+01 | 1486392569.12569 | 5/93A42438               |           23951844408

 2017-02-06 15:49:30.21523+01 | 1486392570.21523 | 5/9474FE58               |           23965531736

 2017-02-06 15:49:31.306765+01 | 1486392571.30677 | 5/953ED1C8               |           23978758600

 2017-02-06 15:49:32.387491+01 | 1486392572.38749 | 5/960B1680               |           23992145536

 2017-02-06 15:49:33.475434+01 | 1486392573.47543 | 5/96D4E188               |           24005370248

 2017-02-06 15:49:34.554221+01 | 1486392574.55422 | 5/97A40AF0               |           24018946800

 2017-02-06 15:49:35.642609+01 | 1486392575.64261 | 5/98770F98               |           24032776088

 2017-02-06 15:49:36.724981+01 | 1486392576.72498 | 5/9947E7A8               |           24046462888

 2017-02-06 15:49:37.821949+01 | 1486392577.82195 | 5/9A13E5B8               |           24059831736

 2017-02-06 15:49:38.904482+01 | 1486392578.90448 | 5/9ADADEF0               |           24072871664

 2017-02-06 15:49:39.994891+01 | 1486392579.99489 | 5/9BA194C0               |           24085894336

 2017-02-06 15:49:41.075308+01 | 1486392581.07531 | 5/9C6B0208               |           24099095048

 2017-02-06 15:49:42.162389+01 | 1486392582.16239 | 5/9D30F5D0               |           24112068048

 2017-02-06 15:49:43.252549+01 | 1486392583.25255 | 5/9DF714B8               |           24125052088

 2017-02-06 15:49:44.336412+01 | 1486392584.33641 | 5/9EB6B270               |           24137609840

 2017-02-06 15:49:45.418315+01 | 1486392585.41831 | 5/9F7980A8               |           24150378912

 2017-02-06 15:49:46.503092+01 | 1486392586.50309 | 5/A0410348               |           24163451720

 2017-02-06 15:49:47.582965+01 | 1486392587.58296 | 5/A101F9F8               |           24176097784

 2017-02-06 15:49:48.662392+01 | 1486392588.66239 | 5/A1C9CD28               |           24189193512

 2017-02-06 15:49:49.741643+01 | 1486392589.74164 | 5/A28D1338               |           24201990968

 2017-02-06 15:49:50.833508+01 | 1486392590.83351 | 5/A35135C0               |           24214844864

 2017-02-06 15:49:51.921943+01 | 1486392591.92194 | 5/A40E91A0               |           24227254688

 2017-02-06 15:49:53.00581+01 | 1486392593.00581 | 5/A4D44A58               |           24240212568

 2017-02-06 15:49:54.094825+01 | 1486392594.09483 | 5/A59B4CC0               |           24253254848

 2017-02-06 15:49:55.174156+01 | 1486392595.17416 | 5/A65CECD8               |           24265944280

 2017-02-06 15:49:56.261693+01 | 1486392596.26169 | 5/A71C6DF0               |           24278494704

 2017-02-06 15:49:57.351238+01 | 1486392597.35124 | 5/A7E2A088               |           24291483784

 2017-02-06 15:49:58.442988+01 | 1486392598.44299 | 5/A8A32380               |           24304100224

 2017-02-06 15:49:59.52501+01 | 1486392599.52501 | 5/A96970A8               |           24317096104

 2017-02-06 15:50:00.609463+01 | 1486392600.60946 | 5/AA2B23E8               |           24329790440

 2017-02-06 15:50:01.694398+01 | 1486392601.6944 | 5/AAED4980               |           24342514048

 2017-02-06 15:50:02.776802+01 | 1486392602.7768 | 5/ABB01888               |           24355281032

 2017-02-06 15:50:03.870036+01 | 1486392603.87004 | 5/AC6E7458               |           24367756376

 2017-02-06 15:50:04.959365+01 | 1486392604.95936 | 5/AD30D5B0               |           24380495280

 2017-02-06 15:50:06.045451+01 | 1486392606.04545 | 5/ADF24BD0               |           24393173968

 2017-02-06 15:50:07.13552+01 | 1486392607.13552 | 5/AEB10998               |           24405674392

 2017-02-06 15:50:08.223816+01 | 1486392608.22382 | 5/AF7099E0               |           24418228704

 2017-02-06 15:50:09.3028+01 | 1486392609.3028 | 5/B032F430               |           24430965808

 2017-02-06 15:50:10.384233+01 | 1486392610.38423 | 5/B0F4F5A8               |           24443680168

 2017-02-06 15:50:11.473998+01 | 1486392611.474 | 5/B1B2FC90               |           24456133776

 2017-02-06 15:50:12.55799+01 | 1486392612.55799 | 5/B27464C0               |           24468808896

 2017-02-06 15:50:13.636485+01 | 1486392613.63649 | 5/B32E3840               |           24480987200

 2017-02-06 15:50:14.717827+01 | 1486392614.71783 | 5/B3EE9CE8               |           24493595880

 2017-02-06 15:50:15.800074+01 | 1486392615.80007 | 5/B4B2A690               |           24506443408

 2017-02-06 15:50:16.882143+01 | 1486392616.88214 | 5/B5720450               |           24518984784

 2017-02-06 15:50:17.965237+01 | 1486392617.96524 | 5/B63380D0               |           24531665104

 2017-02-06 15:50:19.057241+01 | 1486392619.05724 | 5/B6F6BED0               |           24544460496

 2017-02-06 15:50:20.150148+01 | 1486392620.15015 | 5/B7B67F78               |           24557027192

 2017-02-06 15:50:21.240083+01 | 1486392621.24008 | 5/B87447E0               |           24569464800

 2017-02-06 15:50:22.334933+01 | 1486392622.33493 | 5/B93487A0               |           24582064032

 2017-02-06 15:50:23.423451+01 | 1486392623.42345 | 5/B9F29E50               |           24594521680

 2017-02-06 15:50:24.516463+01 | 1486392624.51646 | 5/BAB49908               |           24607234312

 2017-02-06 15:50:25.596158+01 | 1486392625.59616 | 5/BB891D80               |           24621161856

 2017-02-06 15:50:26.676702+01 | 1486392626.6767 | 5/BC5F0AE8               |           24635181800

 2017-02-06 15:50:27.765082+01 | 1486392627.76508 | 5/BD2D7C00               |           24648711168

 2017-02-06 15:50:28.843551+01 | 1486392628.84355 | 5/BDF76480               |           24661943424

 2017-02-06 15:50:29.92687+01 | 1486392629.92687 | 5/BEBE79F8               |           24674990584

 2017-02-06 15:50:31.009369+01 | 1486392631.00937 | 5/BF833F50               |           24687886160

 2017-02-06 15:50:32.089584+01 | 1486392632.08958 | 5/C0498348               |           24700879688

 2017-02-06 15:50:33.179019+01 | 1486392633.17902 | 5/C10F8F00               |           24713858816

 2017-02-06 15:50:34.269908+01 | 1486392634.26991 | 5/C1C82228               |           24725955112

 2017-02-06 15:50:35.355572+01 | 1486392635.35557 | 5/C28A0EC8               |           24738664136

 2017-02-06 15:50:36.437065+01 | 1486392636.43706 | 5/C35B8F18               |           24752394008

 2017-02-06 15:50:37.524309+01 | 1486392637.52431 | 5/C436CBD8               |           24766761944

 2017-02-06 15:50:38.599927+01 | 1486392638.59993 | 5/C5026C78               |           24780106872

 2017-02-06 15:50:39.676052+01 | 1486392639.67605 | 5/C5C4FC60               |           24792857696

 2017-02-06 15:50:40.75568+01 | 1486392640.75568 | 5/C685A108               |           24805482760

 2017-02-06 15:50:41.836042+01 | 1486392641.83604 | 5/C7400700               |           24817698560

 2017-02-06 15:50:42.921396+01 | 1486392642.9214 | 5/C809E978               |           24830929272

 2017-02-06 15:50:44.01778+01 | 1486392644.01778 | 5/C8C97FA0               |           24843485088

 2017-02-06 15:50:45.099071+01 | 1486392645.09907 | 5/C98F19E0               |           24856435168

 2017-02-06 15:50:46.191549+01 | 1486392646.19155 | 5/CA5389C0               |           24869308864

 2017-02-06 15:50:47.27891+01 | 1486392647.27891 | 5/CB133AD8               |           24881871576

 2017-02-06 15:50:48.364939+01 | 1486392648.36494 | 5/CBCC8C48               |           24894016584

 2017-02-06 15:50:49.457791+01 | 1486392649.45779 | 5/CC895360               |           24906388320

 2017-02-06 15:50:50.547132+01 | 1486392650.54713 | 5/CD49B468               |           24918996072

 2017-02-06 15:50:51.631615+01 | 1486392651.63161 | 5/CE0DCD60               |           24931847520

 2017-02-06 15:50:52.709931+01 | 1486392652.70993 | 5/CEC9DA08               |           24944171528

 2017-02-06 15:50:53.785095+01 | 1486392653.78509 | 5/CF865908               |           24956524808

 2017-02-06 15:50:54.861986+01 | 1486392654.86199 | 5/D0416F00               |           24968785664

 2017-02-06 15:50:55.952923+01 | 1486392655.95292 | 5/D0FB1C40               |           24980954176

 2017-02-06 15:50:57.041328+01 | 1486392657.04133 | 5/D1C3D4A8               |           24994108584

 2017-02-06 15:50:58.138148+01 | 1486392658.13815 | 5/D28B5928               |           25007184168

 2017-02-06 15:50:59.222063+01 | 1486392659.22206 | 5/D3496F60               |           25019641696

 2017-02-06 15:51:00.31442+01 | 1486392660.31442 | 5/D40BD3E8               |           25032381416

 2017-02-06 15:51:01.400332+01 | 1486392661.40033 | 5/D4D011E8               |           25045242344

 2017-02-06 15:51:02.487159+01 | 1486392662.48716 | 5/D598FFE0               |           25058410464

 2017-02-06 15:51:03.571245+01 | 1486392663.57124 | 5/D65D3B50               |           25071270736

 2017-02-06 15:51:04.655065+01 | 1486392664.65507 | 5/D71CC380               |           25083822976

 2017-02-06 15:51:05.733498+01 | 1486392665.7335 | 5/D7D4BE50               |           25095880272

 2017-02-06 15:51:06.81277+01 | 1486392666.81277 | 5/D8930718               |           25108350744

 2017-02-06 15:51:07.891198+01 | 1486392667.8912 | 5/D94E1EE0               |           25120612064

 2017-02-06 15:51:08.97414+01 | 1486392668.97414 | 5/DA0BC7D8               |           25133041624

 2017-02-06 15:51:10.069554+01 | 1486392670.06955 | 5/DAC7EFC0               |           25145372608

 2017-02-06 15:51:11.1636+01 | 1486392671.1636 | 5/DB8E5660               |           25158375008

 2017-02-06 15:51:12.263034+01 | 1486392672.26303 | 5/DC545A30               |           25171352112

 2017-02-06 15:51:13.352505+01 | 1486392673.3525 | 5/DD0C1100               |           25183392000

 2017-02-06 15:51:14.437615+01 | 1486392674.43761 | 5/DDCC9458               |           25196008536

 2017-02-06 15:51:15.528621+01 | 1486392675.52862 | 5/DE8CEEF8               |           25208614648

 2017-02-06 15:51:16.615681+01 | 1486392676.61568 | 5/DF4BF2C8               |           25221133000

 2017-02-06 15:51:17.696209+01 | 1486392677.69621 | 5/E0063770               |           25233340272

 2017-02-06 15:51:18.776947+01 | 1486392678.77695 | 5/E0C1FB30               |           25245645616

 2017-02-06 15:51:19.863805+01 | 1486392679.86381 | 5/E177F1A8               |           25257570728

 2017-02-06 15:51:20.955937+01 | 1486392680.95594 | 5/E22F1D00               |           25269574912

 2017-02-06 15:51:22.054228+01 | 1486392682.05423 | 5/E2EF44C8               |           25282168008

 2017-02-06 15:51:23.14012+01 | 1486392683.14012 | 5/E3B21DB8               |           25294937528

 2017-02-06 15:51:24.227668+01 | 1486392684.22767 | 5/E4715C90               |           25307470992

 2017-02-06 15:51:25.326764+01 | 1486392685.32676 | 5/E5414168               |           25321095528

 2017-02-06 15:51:26.413552+01 | 1486392686.41355 | 5/E61AE110               |           25335357712

 2017-02-06 15:51:27.495972+01 | 1486392687.49597 | 5/E6E67038               |           25348698168

 2017-02-06 15:51:28.57828+01 | 1486392688.57828 | 5/E7AF4458               |           25361859672

 2017-02-06 15:51:29.658259+01 | 1486392689.65826 | 5/E86A3380               |           25374110592

 2017-02-06 15:51:30.741963+01 | 1486392690.74196 | 5/E924B0E8               |           25386332392

 2017-02-06 15:51:31.829823+01 | 1486392691.82982 | 5/E9DD6A98               |           25398438552

 2017-02-06 15:51:32.914534+01 | 1486392692.91453 | 5/EA98C530               |           25410716976

 2017-02-06 15:51:33.996182+01 | 1486392693.99618 | 5/EB50CEE0               |           25422778080

 2017-02-06 15:51:35.085164+01 | 1486392695.08516 | 5/EC02F4B0               |           25434453168

 2017-02-06 15:51:36.170775+01 | 1486392696.17077 | 5/ECC93CB8               |           25447447736

 2017-02-06 15:51:37.271711+01 | 1486392697.27171 | 5/ED960610               |           25460868624

 2017-02-06 15:51:38.365784+01 | 1486392698.36578 | 5/EE63B598               |           25474348440

 2017-02-06 15:51:39.451161+01 | 1486392699.45116 | 5/EF31EB78               |           25487862648

 2017-02-06 15:51:40.537813+01 | 1486392700.53781 | 5/EFF34958               |           25500535128

 2017-02-06 15:51:41.624836+01 | 1486392701.62484 | 5/F0B4A368               |           25513206632

 2017-02-06 15:51:42.705249+01 | 1486392702.70525 | 5/F1756DB8               |           25525841336

 2017-02-06 15:51:43.782859+01 | 1486392703.78286 | 5/F22EA4C0               |           25537979584

 2017-02-06 15:51:44.858619+01 | 1486392704.85862 | 5/F2EB9E80               |           25550364288

 2017-02-06 15:51:45.935827+01 | 1486392705.93583 | 5/F39812E0               |           25561666272

 2017-02-06 15:51:47.020192+01 | 1486392707.02019 | 5/F4565900               |           25574136064

 2017-02-06 15:51:48.108706+01 | 1486392708.10871 | 5/F51405B0               |           25586566576

 2017-02-06 15:51:49.198518+01 | 1486392709.19852 | 5/F5D01948               |           25598892360

 2017-02-06 15:51:50.283551+01 | 1486392710.28355 | 5/F684EA40               |           25610742336

 2017-02-06 15:51:51.371544+01 | 1486392711.37154 | 5/F73F5C40               |           25622961216

 2017-02-06 15:51:52.451232+01 | 1486392712.45123 | 5/F7FA0948               |           25635195208

 2017-02-06 15:51:53.544173+01 | 1486392713.54417 | 5/F8B67558               |           25647543640

 2017-02-06 15:51:54.641745+01 | 1486392714.64175 | 5/F96EAFB8               |           25659617208

 2017-02-06 15:51:55.725126+01 | 1486392715.72513 | 5/FA23AAF8               |           25671478008

 2017-02-06 15:51:56.804053+01 | 1486392716.80405 | 5/FAE2AFE8               |           25683996648

 2017-02-06 15:51:57.886179+01 | 1486392717.88618 | 5/FB9DE578               |           25696265592

 2017-02-06 15:51:58.971185+01 | 1486392718.97118 | 5/FC5776C0               |           25708426944

 2017-02-06 15:52:00.053636+01 | 1486392720.05364 | 5/FD0A1930               |           25720133936

 2017-02-06 15:52:01.142084+01 | 1486392721.14208 | 5/FDBA60D0               |           25731686608

 2017-02-06 15:52:02.234715+01 | 1486392722.23471 | 5/FE6FFB28               |           25743588136

 2017-02-06 15:52:03.315383+01 | 1486392723.31538 | 5/FF2367D8               |           25755346904

 2017-02-06 15:52:04.41659+01 | 1486392724.41659 | 5/FFD17AA0               |           25766754976

 2017-02-06 15:52:05.493882+01 | 1486392725.49388 | 6/845940                 |           25778477376

 2017-02-06 15:52:06.575925+01 | 1486392726.57593 | 6/13C91B0                |           25790550448

 2017-02-06 15:52:07.6666+01 | 1486392727.6666 | 6/1FE93C8                |           25803264968

 2017-02-06 15:52:08.748449+01 | 1486392728.74845 | 6/2B6C250                |           25815335504

 2017-02-06 15:52:09.830633+01 | 1486392729.83063 | 6/373D670                |           25827726960

 2017-02-06 15:52:10.915081+01 | 1486392730.91508 | 6/4305600                |           25840080384

 2017-02-06 15:52:11.994157+01 | 1486392731.99416 | 6/4EA9810                |           25852286992

 2017-02-06 15:52:13.075377+01 | 1486392733.07538 | 6/5A57CC0                |           25864535232

 2017-02-06 15:52:14.162707+01 | 1486392734.16271 | 6/65E4448                |           25876644936

 2017-02-06 15:52:15.253712+01 | 1486392735.25371 | 6/7199840                |           25888921664

 2017-02-06 15:52:16.348569+01 | 1486392736.34857 | 6/7D03C78                |           25900891256

 2017-02-06 15:52:17.433068+01 | 1486392737.43307 | 6/88A8A48                |           25913100872

 2017-02-06 15:52:18.525542+01 | 1486392738.52554 | 6/9408ED0                |           25925029584

 2017-02-06 15:52:19.610686+01 | 1486392739.61069 | 6/A0156C8                |           25937663688

 2017-02-06 15:52:20.702056+01 | 1486392740.70206 | 6/ABB94B0                |           25949869232

 2017-02-06 15:52:21.77789+01 | 1486392741.77789 | 6/B6F57C8                |           25961650120

 2017-02-06 15:52:22.859582+01 | 1486392742.85958 | 6/C265688                |           25973642888

 2017-02-06 15:52:23.938122+01 | 1486392743.93812 | 6/CE115E0                |           25985881568

 2017-02-06 15:52:25.022742+01 | 1486392745.02274 | 6/D9C1EA0                |           25998139040

 2017-02-06 15:52:26.094318+01 | 1486392746.09432 | 6/E59F378                |           26010579832

 2017-02-06 15:52:27.182023+01 | 1486392747.18202 | 6/F132CC8                |           26022718664

 2017-02-06 15:52:28.27254+01 | 1486392748.27254 | 6/FC39688                |           26034280072

 2017-02-06 15:52:29.361341+01 | 1486392749.36134 | 6/107D7C38               |           26046463032

 2017-02-06 15:52:30.459132+01 | 1486392750.45913 | 6/11522F80               |           26060402560

 2017-02-06 15:52:31.541448+01 | 1486392751.54145 | 6/12259D90               |           26074258832

 2017-02-06 15:52:32.62765+01 | 1486392752.62765 | 6/12F67C98               |           26087947416

 2017-02-06 15:52:33.709938+01 | 1486392753.70994 | 6/13C42538               |           26101425464

 2017-02-06 15:52:34.786421+01 | 1486392754.78642 | 6/14869A88               |           26114169480

 2017-02-06 15:52:35.865024+01 | 1486392755.86502 | 6/1548A788               |           26126886792

 2017-02-06 15:52:36.943246+01 | 1486392756.94325 | 6/1602DCF0               |           26139090160

 2017-02-06 15:52:38.014662+01 | 1486392758.01466 | 6/16B16780               |           26150528896

 2017-02-06 15:52:39.094301+01 | 1486392759.0943 | 6/176BC828               |           26162743336

 2017-02-06 15:52:40.202983+01 | 1486392760.20298 | 6/1821E100               |           26174677248

 2017-02-06 15:52:41.295122+01 | 1486392761.29512 | 6/18F1EEC0               |           26188312256

 2017-02-06 15:52:42.378963+01 | 1486392762.37896 | 6/19B4C568               |           26201081192

 2017-02-06 15:52:43.477021+01 | 1486392763.47702 | 6/1A7A8700               |           26214041344

 2017-02-06 15:52:44.575757+01 | 1486392764.57576 | 6/1B2C57B0               |           26225694640

 2017-02-06 15:52:45.672592+01 | 1486392765.67259 | 6/1BDFDCD8               |           26237459672

 2017-02-06 15:52:46.756381+01 | 1486392766.75638 | 6/1C8F5268               |           26248958568

 2017-02-06 15:52:47.836904+01 | 1486392767.8369 | 6/1D3DD6E8               |           26260395752

 2017-02-06 15:52:48.913914+01 | 1486392768.91391 | 6/1DEBB438               |           26271790136

 2017-02-06 15:52:49.992284+01 | 1486392769.99228 | 6/1E96FE28               |           26283015720

 2017-02-06 15:52:51.069702+01 | 1486392771.0697 | 6/1F4A0DB8               |           26294750648

 2017-02-06 15:52:52.157365+01 | 1486392772.15737 | 6/1FFF7A38               |           26306640440

 2017-02-06 15:52:53.245753+01 | 1486392773.24575 | 6/20B59A80               |           26318576256

 2017-02-06 15:52:54.339465+01 | 1486392774.33946 | 6/216B78B0               |           26330495152

 2017-02-06 15:52:55.422427+01 | 1486392775.42243 | 6/22231C98               |           26342530200

 2017-02-06 15:52:56.507095+01 | 1486392776.5071 | 6/22DE6F78               |           26354806648

 2017-02-06 15:52:57.595147+01 | 1486392777.59515 | 6/23978B80               |           26366937984

 2017-02-06 15:52:58.679873+01 | 1486392778.67987 | 6/2454B2F0               |           26379334384

 2017-02-06 15:52:59.766072+01 | 1486392779.76607 | 6/25121348               |           26391745352

 2017-02-06 15:53:00.843597+01 | 1486392780.8436 | 6/25C33FB8               |           26403356600

 2017-02-06 15:53:01.920606+01 | 1486392781.92061 | 6/2678F5C8               |           26415265224

 2017-02-06 15:53:03.007608+01 | 1486392783.00761 | 6/27326808               |           26427418632

 2017-02-06 15:53:04.092997+01 | 1486392784.093 | 6/27EDE8A8               |           26439706792

 2017-02-06 15:53:05.1736+01 | 1486392785.1736 | 6/28A4FD80               |           26451705216

 2017-02-06 15:53:06.263016+01 | 1486392786.26302 | 6/2963DC20               |           26464214048

 2017-02-06 15:53:07.359805+01 | 1486392787.35981 | 6/2A212DD0               |           26476621264

 2017-02-06 15:53:08.466613+01 | 1486392788.46661 | 6/2ACF8850               |           26488047696

 2017-02-06 15:53:09.556479+01 | 1486392789.55648 | 6/2B889FA0               |           26500177824

 2017-02-06 15:53:10.65682+01 | 1486392790.65682 | 6/2C495FD8               |           26512809944

 2017-02-06 15:53:11.745695+01 | 1486392791.7457 | 6/2D06D2F0               |           26525225712

 2017-02-06 15:53:12.827699+01 | 1486392792.8277 | 6/2DC28798               |           26537527192

 2017-02-06 15:53:13.909325+01 | 1486392793.90932 | 6/2E755C00               |           26549246976

 2017-02-06 15:53:14.987962+01 | 1486392794.98796 | 6/2F2EFCB8               |           26561412280

 2017-02-06 15:53:16.074987+01 | 1486392796.07499 | 6/2FE376C8               |           26573240008

 2017-02-06 15:53:17.162268+01 | 1486392797.16227 | 6/309D5668               |           26585421416

 2017-02-06 15:53:18.243609+01 | 1486392798.24361 | 6/3159CC50               |           26597772368

 2017-02-06 15:53:19.333062+01 | 1486392799.33306 | 6/3214B3A0               |           26610021280

 2017-02-06 15:53:20.417665+01 | 1486392800.41767 | 6/32C710F8               |           26621710584

 2017-02-06 15:53:21.513876+01 | 1486392801.51388 | 6/3386A5B0               |           26634266032

 2017-02-06 15:53:22.601253+01 | 1486392802.60125 | 6/343E96B0               |           26646320816

 2017-02-06 15:53:23.69305+01 | 1486392803.69305 | 6/34F68698               |           26658375320

 2017-02-06 15:53:24.773192+01 | 1486392804.77319 | 6/35A992C8               |           26670109384

 2017-02-06 15:53:25.837552+01 | 1486392805.83755 | 6/36643A18               |           26682341912

 2017-02-06 15:53:26.914486+01 | 1486392806.91449 | 6/371F1EA8               |           26694590120

 2017-02-06 15:53:27.997253+01 | 1486392807.99725 | 6/37D6AA28               |           26706618920

 2017-02-06 15:53:29.073645+01 | 1486392809.07365 | 6/38909A40               |           26718804544

 2017-02-06 15:53:30.15417+01 | 1486392810.15417 | 6/39556E48               |           26731703880

 2017-02-06 15:53:31.247197+01 | 1486392811.2472 | 6/3A1EE0B0               |           26744905904

