 2017-02-04 00:44:53.193719+01 | 1486165493.19372 |                 0 |               5 |                 46784 |                  977 |            2847588 |        572534 |             5641 |        16619124 |                     0 |      12807232 | 2017-02-04 00:20:10.334424+01

 2017-02-04 00:44:54.27625+01 | 1486165494.27625 |                 0 |               5 |                 46784 |                  977 |            2847588 |        572534 |             5641 |        16619124 |                     0 |      12819736 | 2017-02-04 00:20:10.334424+01

 2017-02-04 00:44:55.355194+01 | 1486165495.35519 |                 0 |               5 |                 46784 |                  977 |            2847588 |        572534 |             5641 |        16619124 |                     0 |      12833907 | 2017-02-04 00:20:10.334424+01

 2017-02-04 00:44:56.430477+01 | 1486165496.43048 |                 0 |               5 |                 46784 |                  977 |            2847588 |        572534 |             5641 |        16619124 |                     0 |      12849947 | 2017-02-04 00:20:10.334424+01

 2017-02-04 00:44:57.507239+01 | 1486165497.50724 |                 0 |               5 |                 46784 |                  977 |            2847588 |        572534 |             5641 |        16619124 |                     0 |      12863257 | 2017-02-04 00:20:10.334424+01

 2017-02-04 00:44:58.574589+01 | 1486165498.57459 |                 0 |               5 |                 46784 |                  977 |            2847588 |        572534 |             5641 |        16619124 |                     0 |      12876836 | 2017-02-04 00:20:10.334424+01

 2017-02-04 00:44:59.647719+01 | 1486165499.64772 |                 0 |               5 |                 46784 |                  977 |            2847588 |        572534 |             5641 |        16619124 |                     0 |      12893775 | 2017-02-04 00:20:10.334424+01

 2017-02-04 00:45:00.727836+01 | 1486165500.72784 |                 0 |               5 |                 46784 |                  977 |            2847588 |        572534 |             5641 |        16619124 |                     0 |      12908013 | 2017-02-04 00:20:10.334424+01

 2017-02-04 00:45:01.804268+01 | 1486165501.80427 |                 0 |               5 |                 46784 |                  977 |            2847588 |        572534 |             5641 |        16619124 |                     0 |      12926298 | 2017-02-04 00:20:10.334424+01

 2017-02-04 00:45:02.878293+01 | 1486165502.87829 |                 0 |               5 |                 46784 |                  977 |            2847588 |        572534 |             5641 |        16619124 |                     0 |      12940769 | 2017-02-04 00:20:10.334424+01

 2017-02-04 00:45:03.955498+01 | 1486165503.9555 |                 0 |               5 |                 46784 |                  977 |            2847588 |        572534 |             5641 |        16619124 |                     0 |      12955985 | 2017-02-04 00:20:10.334424+01

 2017-02-04 00:45:05.031137+01 | 1486165505.03114 |                 0 |               5 |                 46784 |                  977 |            2847588 |        572576 |             5641 |        16619124 |                     0 |      12975991 | 2017-02-04 00:20:10.334424+01

 2017-02-04 00:45:06.105601+01 | 1486165506.1056 |                 0 |               5 |                 46784 |                  977 |            2847588 |        572659 |             5641 |        16619124 |                     0 |      12991770 | 2017-02-04 00:20:10.334424+01

 2017-02-04 00:45:07.180258+01 | 1486165507.18026 |                 0 |               5 |                 46784 |                  977 |            2847588 |        572737 |             5641 |        16619124 |                     0 |      13008152 | 2017-02-04 00:20:10.334424+01

 2017-02-04 00:45:08.252931+01 | 1486165508.25293 |                 0 |               5 |                 46784 |                  977 |            2847588 |        572844 |             5641 |        16619124 |                     0 |      13026924 | 2017-02-04 00:20:10.334424+01

 2017-02-04 00:45:09.33645+01 | 1486165509.33645 |                 0 |               5 |                 46784 |                  977 |            2847588 |        572946 |             5641 |        16619124 |                     0 |      13042798 | 2017-02-04 00:20:10.334424+01

 2017-02-04 00:45:10.409676+01 | 1486165510.40968 |                 0 |               5 |                 46784 |                  977 |            2847588 |        573063 |             5641 |        16619124 |                     0 |      13058086 | 2017-02-04 00:20:10.334424+01

 2017-02-04 00:45:11.487884+01 | 1486165511.48788 |                 0 |               5 |                 46784 |                  977 |            2847588 |        573275 |             5641 |        16619124 |                     0 |      13077927 | 2017-02-04 00:20:10.334424+01

 2017-02-04 00:45:12.559531+01 | 1486165512.55953 |                 0 |               5 |                 46784 |                  977 |            2847588 |        573453 |             5641 |        16619124 |                     0 |      13094089 | 2017-02-04 00:20:10.334424+01

 2017-02-04 00:45:13.642026+01 | 1486165513.64203 |                 0 |               5 |                 46784 |                  977 |            2847588 |        573614 |             5641 |        16619124 |                     0 |      13109299 | 2017-02-04 00:20:10.334424+01

 2017-02-04 00:45:14.717608+01 | 1486165514.71761 |                 0 |               5 |                 46784 |                  977 |            2847588 |        573862 |             5641 |        16619124 |                     0 |      13127297 | 2017-02-04 00:20:10.334424+01

 2017-02-04 00:45:15.795816+01 | 1486165515.79582 |                 0 |               5 |                 46784 |                  977 |            2847588 |        574251 |             5644 |        16619124 |                     0 |      13143860 | 2017-02-04 00:20:10.334424+01

 2017-02-04 00:45:16.870227+01 | 1486165516.87023 |                 0 |               5 |                 46784 |                  977 |            2847588 |        574751 |             5649 |        16619124 |                     0 |      13158092 | 2017-02-04 00:20:10.334424+01

 2017-02-04 00:45:17.942313+01 | 1486165517.94231 |                 0 |               5 |                 46784 |                  977 |            2847588 |        575351 |             5655 |        16619124 |                     0 |      13179350 | 2017-02-04 00:20:10.334424+01

 2017-02-04 00:45:19.015395+01 | 1486165519.01539 |                 0 |               5 |                 46784 |                  977 |            2847588 |        575851 |             5660 |        16619124 |                     0 |      13196931 | 2017-02-04 00:20:10.334424+01

 2017-02-04 00:45:20.093796+01 | 1486165520.0938 |                 0 |               5 |                 46784 |                  977 |            2847588 |        576351 |             5665 |        16619124 |                     0 |      13214653 | 2017-02-04 00:20:10.334424+01

 2017-02-04 00:45:21.170605+01 | 1486165521.1706 |                 0 |               5 |                 46784 |                  977 |            2847588 |        576951 |             5671 |        16619124 |                     0 |      13234928 | 2017-02-04 00:20:10.334424+01

 2017-02-04 00:45:22.240734+01 | 1486165522.24073 |                 0 |               5 |                 46784 |                  977 |            2847588 |        577451 |             5676 |        16619124 |                     0 |      13248930 | 2017-02-04 00:20:10.334424+01

 2017-02-04 00:45:23.308276+01 | 1486165523.30828 |                 0 |               5 |                 46784 |                  977 |            2847588 |        577951 |             5681 |        16619124 |                     0 |      13263685 | 2017-02-04 00:20:10.334424+01

 2017-02-04 00:45:24.38115+01 | 1486165524.38115 |                 0 |               5 |                 46784 |                  977 |            2847588 |        578551 |             5687 |        16619124 |                     0 |      13278088 | 2017-02-04 00:20:10.334424+01

 2017-02-04 00:45:25.449884+01 | 1486165525.44988 |                 0 |               5 |                 46784 |                  977 |            2847588 |        579051 |             5692 |        16619124 |                     0 |      13295194 | 2017-02-04 00:20:10.334424+01

 2017-02-04 00:45:26.525352+01 | 1486165526.52535 |                 0 |               5 |                 46784 |                  977 |            2847588 |        579551 |             5697 |        16619124 |                     0 |      13310767 | 2017-02-04 00:20:10.334424+01

 2017-02-04 00:45:27.597256+01 | 1486165527.59726 |                 0 |               5 |                 46784 |                  977 |            2847588 |        580051 |             5702 |        16619124 |                     0 |      13327408 | 2017-02-04 00:20:10.334424+01

 2017-02-04 00:45:28.672103+01 | 1486165528.6721 |                 0 |               5 |                 46784 |                  977 |            2847588 |        580651 |             5708 |        16619124 |                     0 |      13342392 | 2017-02-04 00:20:10.334424+01

 2017-02-04 00:45:29.748935+01 | 1486165529.74893 |                 0 |               5 |                 46784 |                  977 |            2847588 |        581151 |             5713 |        16619124 |                     0 |      13356860 | 2017-02-04 00:20:10.334424+01

 2017-02-04 00:45:30.837213+01 | 1486165530.83721 |                 0 |               5 |                 46784 |                  977 |            2847588 |        581651 |             5718 |        16619124 |                     0 |      13370716 | 2017-02-04 00:20:10.334424+01

 2017-02-04 00:45:31.918759+01 | 1486165531.91876 |                 0 |               5 |                 46784 |                  977 |            2847588 |        582251 |             5724 |        16619124 |                     0 |      13386733 | 2017-02-04 00:20:10.334424+01

 2017-02-04 00:45:32.988961+01 | 1486165532.98896 |                 0 |               5 |                 46784 |                  977 |            2847588 |        582751 |             5729 |        16619124 |                     0 |      13400083 | 2017-02-04 00:20:10.334424+01

 2017-02-04 00:45:34.064743+01 | 1486165534.06474 |                 0 |               5 |                 46784 |                  977 |            2847588 |        583251 |             5734 |        16619124 |                     0 |      13414492 | 2017-02-04 00:20:10.334424+01

 2017-02-04 00:45:35.13597+01 | 1486165535.13597 |                 0 |               5 |                 46784 |                  977 |            2847588 |        583851 |             5740 |        16619124 |                     0 |      13433282 | 2017-02-04 00:20:10.334424+01

 2017-02-04 00:45:36.209949+01 | 1486165536.20995 |                 0 |               5 |                 46784 |                  977 |            2847588 |        584351 |             5745 |        16619124 |                     0 |      13447207 | 2017-02-04 00:20:10.334424+01

 2017-02-04 00:45:37.279927+01 | 1486165537.27993 |                 0 |               5 |                 46784 |                  977 |            2847588 |        584851 |             5750 |        16619124 |                     0 |      13458963 | 2017-02-04 00:20:10.334424+01

 2017-02-04 00:45:38.351167+01 | 1486165538.35117 |                 0 |               5 |                 46784 |                  977 |            2847588 |        585451 |             5756 |        16619124 |                     0 |      13472177 | 2017-02-04 00:20:10.334424+01

 2017-02-04 00:45:39.429627+01 | 1486165539.42963 |                 0 |               5 |                 46784 |                  977 |            2847588 |        585951 |             5761 |        16619124 |                     0 |      13483411 | 2017-02-04 00:20:10.334424+01

 2017-02-04 00:45:40.507916+01 | 1486165540.50792 |                 0 |               5 |                 46784 |                  977 |            2847588 |        586451 |             5766 |        16619124 |                     0 |      13494466 | 2017-02-04 00:20:10.334424+01

 2017-02-04 00:45:41.574838+01 | 1486165541.57484 |                 0 |               5 |                 46784 |                  977 |            2847588 |        586851 |             5770 |        16619124 |                     0 |      13502222 | 2017-02-04 00:20:10.334424+01

 2017-02-04 00:45:42.658086+01 | 1486165542.65809 |                 0 |               5 |                 46784 |                  977 |            2847588 |        587551 |             5777 |        16619124 |                     0 |      13516344 | 2017-02-04 00:20:10.334424+01

 2017-02-04 00:45:43.729061+01 | 1486165543.72906 |                 0 |               5 |                 46784 |                  977 |            2847588 |        588051 |             5782 |        16619124 |                     0 |      13525575 | 2017-02-04 00:20:10.334424+01

 2017-02-04 00:45:44.80175+01 | 1486165544.80175 |                 0 |               5 |                 46784 |                  977 |            2847588 |        588651 |             5788 |        16619124 |                     0 |      13537248 | 2017-02-04 00:20:10.334424+01

 2017-02-04 00:45:45.877985+01 | 1486165545.87799 |                 0 |               5 |                 46784 |                  977 |            2847588 |        589151 |             5793 |        16619124 |                     0 |      13547029 | 2017-02-04 00:20:10.334424+01

 2017-02-04 00:45:46.950434+01 | 1486165546.95043 |                 0 |               5 |                 46784 |                  977 |            2847588 |        589651 |             5798 |        16619124 |                     0 |      13556994 | 2017-02-04 00:20:10.334424+01

 2017-02-04 00:45:48.030307+01 | 1486165548.03031 |                 0 |               5 |                 46784 |                  977 |            2847588 |        590251 |             5804 |        16619124 |                     0 |      13572162 | 2017-02-04 00:20:10.334424+01

 2017-02-04 00:45:49.106283+01 | 1486165549.10628 |                 0 |               5 |                 46784 |                  977 |            2847588 |        590751 |             5809 |        16619124 |                     0 |      13582550 | 2017-02-04 00:20:10.334424+01

 2017-02-04 00:45:50.177717+01 | 1486165550.17772 |                 0 |               5 |                 46784 |                  977 |            2847588 |        591251 |             5814 |        16619124 |                     0 |      13596585 | 2017-02-04 00:20:10.334424+01

 2017-02-04 00:45:51.260115+01 | 1486165551.26011 |                 0 |               5 |                 46784 |                  977 |            2847588 |        591851 |             5820 |        16619124 |                     0 |      13612353 | 2017-02-04 00:20:10.334424+01

 2017-02-04 00:45:52.330665+01 | 1486165552.33067 |                 0 |               5 |                 46784 |                  977 |            2847588 |        592351 |             5825 |        16619124 |                     0 |      13626281 | 2017-02-04 00:20:10.334424+01

 2017-02-04 00:45:53.407153+01 | 1486165553.40715 |                 0 |               5 |                 46784 |                  977 |            2847588 |        592851 |             5830 |        16619124 |                     0 |      13640314 | 2017-02-04 00:20:10.334424+01

 2017-02-04 00:45:54.481726+01 | 1486165554.48173 |                 0 |               5 |                 46784 |                  977 |            2847588 |        593451 |             5836 |        16619124 |                     0 |      13657009 | 2017-02-04 00:20:10.334424+01

 2017-02-04 00:45:55.558578+01 | 1486165555.55858 |                 0 |               5 |                 46784 |                  977 |            2847588 |        593951 |             5841 |        16619124 |                     0 |      13671366 | 2017-02-04 00:20:10.334424+01

 2017-02-04 00:45:56.6328+01 | 1486165556.6328 |                 0 |               5 |                 46784 |                  977 |            2847588 |        594451 |             5846 |        16619124 |                     0 |      13683338 | 2017-02-04 00:20:10.334424+01

 2017-02-04 00:45:57.708686+01 | 1486165557.70869 |                 0 |               5 |                 46784 |                  977 |            2847588 |        595051 |             5852 |        16619124 |                     0 |      13696203 | 2017-02-04 00:20:10.334424+01

 2017-02-04 00:45:58.782041+01 | 1486165558.78204 |                 0 |               5 |                 46784 |                  977 |            2847588 |        595551 |             5857 |        16619124 |                     0 |      13710034 | 2017-02-04 00:20:10.334424+01

 2017-02-04 00:45:59.857512+01 | 1486165559.85751 |                 0 |               5 |                 46784 |                  977 |            2847588 |        596051 |             5862 |        16619124 |                     0 |      13723164 | 2017-02-04 00:20:10.334424+01

 2017-02-04 00:46:00.93017+01 | 1486165560.93017 |                 0 |               5 |                 46784 |                  977 |            2847588 |        596651 |             5868 |        16619124 |                     0 |      13738922 | 2017-02-04 00:20:10.334424+01

 2017-02-04 00:46:02.004535+01 | 1486165562.00453 |                 0 |               5 |                 46784 |                  977 |            2847588 |        597151 |             5873 |        16619124 |                     0 |      13752018 | 2017-02-04 00:20:10.334424+01

 2017-02-04 00:46:03.078471+01 | 1486165563.07847 |                 0 |               5 |                 46784 |                  977 |            2847588 |        597651 |             5878 |        16619124 |                     0 |      13761508 | 2017-02-04 00:20:10.334424+01

 2017-02-04 00:46:04.155178+01 | 1486165564.15518 |                 0 |               5 |                 46784 |                  977 |            2847588 |        598251 |             5884 |        17117796 |                     0 |      13772006 | 2017-02-04 00:20:10.334424+01

 2017-02-04 00:46:05.233718+01 | 1486165565.23372 |                 0 |               5 |                 46784 |                  977 |            2847588 |        598751 |             5889 |        17117796 |                     0 |      13780625 | 2017-02-04 00:20:10.334424+01

 2017-02-04 00:46:06.338088+01 | 1486165566.33809 |                 0 |               5 |                 46784 |                  977 |            2847588 |        599251 |             5894 |        17117796 |                     0 |      13791559 | 2017-02-04 00:20:10.334424+01

 2017-02-04 00:46:07.413083+01 | 1486165567.41308 |                 0 |               5 |                 46784 |                  977 |            2847588 |        599851 |             5900 |        17117796 |                     0 |      13804321 | 2017-02-04 00:20:10.334424+01

 2017-02-04 00:46:08.496053+01 | 1486165568.49605 |                 0 |               5 |                 46784 |                  977 |            2847588 |        600351 |             5905 |        17117796 |                     0 |      13816153 | 2017-02-04 00:20:10.334424+01

 2017-02-04 00:46:09.566069+01 | 1486165569.56607 |                 0 |               5 |                 46784 |                  977 |            2847588 |        600851 |             5910 |        17117796 |                     0 |      13827643 | 2017-02-04 00:20:10.334424+01

 2017-02-04 00:46:10.638415+01 | 1486165570.63842 |                 0 |               5 |                 46784 |                  977 |            2847588 |        601451 |             5916 |        17117796 |                     0 |      13839955 | 2017-02-04 00:20:10.334424+01

 2017-02-04 00:46:11.708032+01 | 1486165571.70803 |                 0 |               5 |                 46784 |                  977 |            2847588 |        601951 |             5921 |        17117796 |                     0 |      13853954 | 2017-02-04 00:20:10.334424+01

 2017-02-04 00:46:12.781985+01 | 1486165572.78199 |                 0 |               5 |                 46784 |                  977 |            2847588 |        602451 |             5926 |        17117796 |                     0 |      13864115 | 2017-02-04 00:20:10.334424+01

 2017-02-04 00:46:13.858053+01 | 1486165573.85805 |                 0 |               5 |                 46784 |                  977 |            2847588 |        603051 |             5932 |        17117796 |                     0 |      13875464 | 2017-02-04 00:20:10.334424+01

 2017-02-04 00:46:14.935725+01 | 1486165574.93572 |                 0 |               5 |                 46784 |                  977 |            2847588 |        603551 |             5937 |        17117796 |                     0 |      13887236 | 2017-02-04 00:20:10.334424+01

 2017-02-04 00:46:16.005267+01 | 1486165576.00527 |                 0 |               5 |                 46784 |                  977 |            2847588 |        604051 |             5942 |        17117796 |                     0 |      13898738 | 2017-02-04 00:20:10.334424+01

 2017-02-04 00:46:17.079091+01 | 1486165577.07909 |                 0 |               5 |                 46784 |                  977 |            2847588 |        604651 |             5948 |        17117796 |                     0 |      13916000 | 2017-02-04 00:20:10.334424+01

 2017-02-04 00:46:18.148936+01 | 1486165578.14894 |                 0 |               5 |                 46784 |                  977 |            2847588 |        605151 |             5953 |        17117796 |                     0 |      13930231 | 2017-02-04 00:20:10.334424+01

 2017-02-04 00:46:19.22754+01 | 1486165579.22754 |                 0 |               5 |                 46784 |                  977 |            2847588 |        605651 |             5958 |        17117796 |                     0 |      13943662 | 2017-02-04 00:20:10.334424+01

 2017-02-04 00:46:20.305794+01 | 1486165580.30579 |                 0 |               5 |                 46784 |                  977 |            2847588 |        606251 |             5964 |        17117796 |                     0 |      13959395 | 2017-02-04 00:20:10.334424+01

 2017-02-04 00:46:21.380674+01 | 1486165581.38067 |                 0 |               5 |                 46784 |                  977 |            2847588 |        606751 |             5969 |        17117796 |                     0 |      13972644 | 2017-02-04 00:20:10.334424+01

 2017-02-04 00:46:22.455241+01 | 1486165582.45524 |                 0 |               5 |                 46784 |                  977 |            2847588 |        607251 |             5974 |        17117796 |                     0 |      13983307 | 2017-02-04 00:20:10.334424+01

 2017-02-04 00:46:23.527646+01 | 1486165583.52765 |                 0 |               5 |                 46784 |                  977 |            2847588 |        607751 |             5979 |        17117796 |                     0 |      13993729 | 2017-02-04 00:20:10.334424+01

 2017-02-04 00:46:24.605433+01 | 1486165584.60543 |                 0 |               5 |                 46784 |                  977 |            2847588 |        608351 |             5985 |        17117796 |                     0 |      14007433 | 2017-02-04 00:20:10.334424+01

 2017-02-04 00:46:25.681466+01 | 1486165585.68147 |                 0 |               5 |                 46784 |                  977 |            2847588 |        608851 |             5990 |        17117796 |                     0 |      14020216 | 2017-02-04 00:20:10.334424+01

 2017-02-04 00:46:26.76564+01 | 1486165586.76564 |                 0 |               5 |                 46784 |                  977 |            2847588 |        609351 |             5995 |        17117796 |                     0 |      14032989 | 2017-02-04 00:20:10.334424+01

 2017-02-04 00:46:27.845514+01 | 1486165587.84551 |                 0 |               5 |                 46784 |                  977 |            2847588 |        609951 |             6001 |        17117796 |                     0 |      14047644 | 2017-02-04 00:20:10.334424+01

 2017-02-04 00:46:28.92172+01 | 1486165588.92172 |                 0 |               5 |                 46784 |                  977 |            2847588 |        610451 |             6006 |        17117796 |                     0 |      14059896 | 2017-02-04 00:20:10.334424+01

 2017-02-04 00:46:29.99727+01 | 1486165589.99727 |                 0 |               5 |                 46784 |                  977 |            2847588 |        610951 |             6011 |        17117796 |                     0 |      14073600 | 2017-02-04 00:20:10.334424+01

 2017-02-04 00:46:31.067999+01 | 1486165591.068 |                 0 |               5 |                 46784 |                  977 |            2847588 |        611551 |             6017 |        17117796 |                     0 |      14088459 | 2017-02-04 00:20:10.334424+01

 2017-02-04 00:46:32.137023+01 | 1486165592.13702 |                 0 |               5 |                 46784 |                  977 |            2847588 |        612051 |             6022 |        17117796 |                     0 |      14102308 | 2017-02-04 00:20:10.334424+01

 2017-02-04 00:46:33.203323+01 | 1486165593.20332 |                 0 |               5 |                 46784 |                  977 |            2847588 |        612551 |             6027 |        17117796 |                     0 |      14116949 | 2017-02-04 00:20:10.334424+01

 2017-02-04 00:46:34.277489+01 | 1486165594.27749 |                 0 |               5 |                 46784 |                  977 |            2847588 |        613151 |             6033 |        17117796 |                     0 |      14132397 | 2017-02-04 00:20:10.334424+01

 2017-02-04 00:46:35.348524+01 | 1486165595.34852 |                 0 |               5 |                 46784 |                  977 |            2847588 |        613651 |             6038 |        17117796 |                     0 |      14143900 | 2017-02-04 00:20:10.334424+01

 2017-02-04 00:46:36.427141+01 | 1486165596.42714 |                 0 |               5 |                 46784 |                  977 |            2847588 |        614151 |             6043 |        17117796 |                     0 |      14154310 | 2017-02-04 00:20:10.334424+01

 2017-02-04 00:46:37.506968+01 | 1486165597.50697 |                 0 |               5 |                 46784 |                  977 |            2847588 |        614751 |             6049 |        17117796 |                     0 |      14167274 | 2017-02-04 00:20:10.334424+01

 2017-02-04 00:46:38.587566+01 | 1486165598.58757 |                 0 |               5 |                 46784 |                  977 |            2847588 |        615251 |             6054 |        17117796 |                     0 |      14179668 | 2017-02-04 00:20:10.334424+01

 2017-02-04 00:46:39.666209+01 | 1486165599.66621 |                 0 |               5 |                 46784 |                  977 |            2847588 |        615751 |             6059 |        17117796 |                     0 |      14191292 | 2017-02-04 00:20:10.334424+01

 2017-02-04 00:46:40.742217+01 | 1486165600.74222 |                 0 |               5 |                 46784 |                  977 |            2847588 |        616351 |             6065 |        17117796 |                     0 |      14207589 | 2017-02-04 00:20:10.334424+01

 2017-02-04 00:46:41.804193+01 | 1486165601.80419 |                 0 |               5 |                 46784 |                  977 |            2847588 |        616851 |             6070 |        17117796 |                     0 |      14220962 | 2017-02-04 00:20:10.334424+01

 2017-02-04 00:46:42.878993+01 | 1486165602.87899 |                 0 |               5 |                 46784 |                  977 |            2847588 |        617351 |             6075 |        17117796 |                     0 |      14230342 | 2017-02-04 00:20:10.334424+01

 2017-02-04 00:46:43.956823+01 | 1486165603.95682 |                 0 |               5 |                 46784 |                  977 |            2847588 |        617951 |             6081 |        17117796 |                     0 |      14243035 | 2017-02-04 00:20:10.334424+01

 2017-02-04 00:46:45.046772+01 | 1486165605.04677 |                 0 |               5 |                 46784 |                  977 |            2847588 |        618451 |             6086 |        17621984 |                     0 |      14251717 | 2017-02-04 00:20:10.334424+01

 2017-02-04 00:46:46.130889+01 | 1486165606.13089 |                 0 |               5 |                 46784 |                  977 |            2847588 |        618951 |             6091 |        17621984 |                     0 |      14261064 | 2017-02-04 00:20:10.334424+01

 2017-02-04 00:46:47.207021+01 | 1486165607.20702 |                 0 |               5 |                 46784 |                  977 |            2847588 |        619551 |             6097 |        17621984 |                     0 |      14278249 | 2017-02-04 00:20:10.334424+01

 2017-02-04 00:46:48.283105+01 | 1486165608.2831 |                 0 |               5 |                 46784 |                  977 |            2847588 |        620051 |             6102 |        17621984 |                     0 |      14290139 | 2017-02-04 00:20:10.334424+01

 2017-02-04 00:46:49.361793+01 | 1486165609.36179 |                 0 |               5 |                 46784 |                  977 |            2847588 |        620551 |             6107 |        17621984 |                     0 |      14301917 | 2017-02-04 00:20:10.334424+01

 2017-02-04 00:46:50.437528+01 | 1486165610.43753 |                 0 |               5 |                 46784 |                  977 |            2847588 |        621151 |             6113 |        17621984 |                     0 |      14312415 | 2017-02-04 00:20:10.334424+01

 2017-02-04 00:46:51.516724+01 | 1486165611.51672 |                 0 |               5 |                 46784 |                  977 |            2847588 |        621651 |             6118 |        17621984 |                     0 |      14322733 | 2017-02-04 00:20:10.334424+01

 2017-02-04 00:46:52.593461+01 | 1486165612.59346 |                 0 |               5 |                 46784 |                  977 |            2847588 |        622151 |             6123 |        17621984 |                     0 |      14333011 | 2017-02-04 00:20:10.334424+01

 2017-02-04 00:46:53.662869+01 | 1486165613.66287 |                 0 |               5 |                 46784 |                  977 |            2847588 |        622751 |             6129 |        17621984 |                     0 |      14347996 | 2017-02-04 00:20:10.334424+01

 2017-02-04 00:46:54.735551+01 | 1486165614.73555 |                 0 |               5 |                 46784 |                  977 |            2847588 |        623251 |             6134 |        17621984 |                     0 |      14360650 | 2017-02-04 00:20:10.334424+01

 2017-02-04 00:46:55.813218+01 | 1486165615.81322 |                 0 |               5 |                 46784 |                  977 |            2847588 |        623751 |             6139 |        17621984 |                     0 |      14374041 | 2017-02-04 00:20:10.334424+01

 2017-02-04 00:46:56.885638+01 | 1486165616.88564 |                 0 |               5 |                 46784 |                  977 |            2847588 |        624351 |             6145 |        17621984 |                     0 |      14391103 | 2017-02-04 00:20:10.334424+01

 2017-02-04 00:46:57.957043+01 | 1486165617.95704 |                 0 |               5 |                 46784 |                  977 |            2847588 |        624851 |             6150 |        17621984 |                     0 |      14404020 | 2017-02-04 00:20:10.334424+01

 2017-02-04 00:46:59.032657+01 | 1486165619.03266 |                 0 |               5 |                 46784 |                  977 |            2847588 |        625351 |             6155 |        17621984 |                     0 |      14416769 | 2017-02-04 00:20:10.334424+01

 2017-02-04 00:47:00.108152+01 | 1486165620.10815 |                 0 |               5 |                 46784 |                  977 |            2847588 |        625951 |             6161 |        17621984 |                     0 |      14432683 | 2017-02-04 00:20:10.334424+01

 2017-02-04 00:47:01.184403+01 | 1486165621.1844 |                 0 |               5 |                 46784 |                  977 |            2847588 |        626451 |             6166 |        17621984 |                     0 |      14442222 | 2017-02-04 00:20:10.334424+01

 2017-02-04 00:47:02.270525+01 | 1486165622.27052 |                 0 |               5 |                 46784 |                  977 |            2847588 |        626951 |             6171 |        17621984 |                     0 |      14452895 | 2017-02-04 00:20:10.334424+01

 2017-02-04 00:47:03.348679+01 | 1486165623.34868 |                 0 |               5 |                 46784 |                  977 |            2847588 |        627551 |             6177 |        17621984 |                     0 |      14463474 | 2017-02-04 00:20:10.334424+01

 2017-02-04 00:47:04.423464+01 | 1486165624.42346 |                 0 |               5 |                 46784 |                  977 |            2847588 |        628051 |             6182 |        17621984 |                     0 |      14474458 | 2017-02-04 00:20:10.334424+01

 2017-02-04 00:47:05.496464+01 | 1486165625.49646 |                 0 |               5 |                 46784 |                  977 |            2847588 |        628551 |             6187 |        17621984 |                     0 |      14485459 | 2017-02-04 00:20:10.334424+01

 2017-02-04 00:47:06.558972+01 | 1486165626.55897 |                 0 |               5 |                 46784 |                  977 |            2847588 |        629151 |             6193 |        17621984 |                     0 |      14502354 | 2017-02-04 00:20:10.334424+01

 2017-02-04 00:47:07.625646+01 | 1486165627.62565 |                 0 |               5 |                 46784 |                  977 |            2847588 |        629651 |             6198 |        17621984 |                     0 |      14515709 | 2017-02-04 00:20:10.334424+01

 2017-02-04 00:47:08.706203+01 | 1486165628.7062 |                 0 |               5 |                 46784 |                  977 |            2847588 |        630151 |             6203 |        17621984 |                     0 |      14528066 | 2017-02-04 00:20:10.334424+01

 2017-02-04 00:47:09.781355+01 | 1486165629.78135 |                 0 |               5 |                 46784 |                  977 |            2847588 |        630651 |             6208 |        17621984 |                     0 |      14540743 | 2017-02-04 00:20:10.334424+01

 2017-02-04 00:47:10.858074+01 | 1486165630.85807 |                 0 |               5 |                 46784 |                  977 |            2847588 |        631251 |             6214 |        17621984 |                     0 |      14557830 | 2017-02-04 00:20:10.334424+01

 2017-02-04 00:47:11.947971+01 | 1486165631.94797 |                 0 |               5 |                 46784 |                  977 |            2847588 |        631751 |             6219 |        17621984 |                     0 |      14571163 | 2017-02-04 00:20:10.334424+01

 2017-02-04 00:47:13.027207+01 | 1486165633.02721 |                 0 |               5 |                 46784 |                  977 |            2847588 |        632351 |             6225 |        17621984 |                     0 |      14586841 | 2017-02-04 00:20:10.334424+01

 2017-02-04 00:47:14.106162+01 | 1486165634.10616 |                 0 |               5 |                 46784 |                  977 |            2847588 |        632851 |             6230 |        17621984 |                     0 |      14600278 | 2017-02-04 00:20:10.334424+01

 2017-02-04 00:47:15.183058+01 | 1486165635.18306 |                 0 |               5 |                 46784 |                  977 |            2847588 |        633351 |             6235 |        17621984 |                     0 |      14612859 | 2017-02-04 00:20:10.334424+01

 2017-02-04 00:47:16.254524+01 | 1486165636.25452 |                 0 |               5 |                 46784 |                  977 |            2847588 |        633951 |             6241 |        17621984 |                     0 |      14630809 | 2017-02-04 00:20:10.334424+01

 2017-02-04 00:47:17.327719+01 | 1486165637.32772 |                 0 |               5 |                 46784 |                  977 |            2847588 |        634451 |             6246 |        17621984 |                     0 |      14643799 | 2017-02-04 00:20:10.334424+01

 2017-02-04 00:47:18.404046+01 | 1486165638.40405 |                 0 |               5 |                 46784 |                  977 |            2847588 |        634951 |             6251 |        17621984 |                     0 |      14658786 | 2017-02-04 00:20:10.334424+01

 2017-02-04 00:47:19.482581+01 | 1486165639.48258 |                 0 |               5 |                 46784 |                  977 |            2847588 |        635551 |             6257 |        17621984 |                     0 |      14674733 | 2017-02-04 00:20:10.334424+01

 2017-02-04 00:47:20.555516+01 | 1486165640.55552 |                 0 |               5 |                 46784 |                  977 |            2847588 |        636051 |             6262 |        17621984 |                     0 |      14690283 | 2017-02-04 00:20:10.334424+01

 2017-02-04 00:47:21.628731+01 | 1486165641.62873 |                 0 |               5 |                 46784 |                  977 |            2847588 |        636551 |             6267 |        17621984 |                     0 |      14704383 | 2017-02-04 00:20:10.334424+01

 2017-02-04 00:47:22.704042+01 | 1486165642.70404 |                 0 |               5 |                 46784 |                  977 |            2847588 |        637151 |             6273 |        18127572 |                     0 |      14721800 | 2017-02-04 00:20:10.334424+01

 2017-02-04 00:47:23.778809+01 | 1486165643.77881 |                 0 |               5 |                 46784 |                  977 |            2847588 |        637651 |             6278 |        18127572 |                     0 |      14735116 | 2017-02-04 00:20:10.334424+01

 2017-02-04 00:47:24.850591+01 | 1486165644.85059 |                 0 |               5 |                 46784 |                  977 |            2847588 |        638151 |             6283 |        18127572 |                     0 |      14747959 | 2017-02-04 00:20:10.334424+01

 2017-02-04 00:47:25.919271+01 | 1486165645.91927 |                 0 |               5 |                 46784 |                  977 |            2847588 |        638651 |             6288 |        18127572 |                     0 |      14759288 | 2017-02-04 00:20:10.334424+01

 2017-02-04 00:47:26.996541+01 | 1486165646.99654 |                 0 |               5 |                 46784 |                  977 |            2847588 |        639251 |             6294 |        18127572 |                     0 |      14771847 | 2017-02-04 00:20:10.334424+01

 2017-02-04 00:47:28.084086+01 | 1486165648.08409 |                 0 |               5 |                 46784 |                  977 |            2847588 |        639751 |             6299 |        18127572 |                     0 |      14784126 | 2017-02-04 00:20:10.334424+01

 2017-02-04 00:47:29.162212+01 | 1486165649.16221 |                 0 |               5 |                 46784 |                  977 |            2847588 |        640251 |             6304 |        18127572 |                     0 |      14794188 | 2017-02-04 00:20:10.334424+01

 2017-02-04 00:47:30.235194+01 | 1486165650.23519 |                 0 |               5 |                 46784 |                  977 |            2847588 |        640851 |             6310 |        18127572 |                     0 |      14808345 | 2017-02-04 00:20:10.334424+01

 2017-02-04 00:47:31.309066+01 | 1486165651.30907 |                 0 |               5 |                 46784 |                  977 |            2847588 |        641351 |             6315 |        18127572 |                     0 |      14818413 | 2017-02-04 00:20:10.334424+01

 2017-02-04 00:47:32.379961+01 | 1486165652.37996 |                 0 |               5 |                 46784 |                  977 |            2847588 |        641851 |             6320 |        18127572 |                     0 |      14830399 | 2017-02-04 00:20:10.334424+01

 2017-02-04 00:47:33.456146+01 | 1486165653.45615 |                 0 |               5 |                 46784 |                  977 |            2847588 |        642451 |             6326 |        18127572 |                     0 |      14844442 | 2017-02-04 00:20:10.334424+01

 2017-02-04 00:47:34.525711+01 | 1486165654.52571 |                 0 |               5 |                 46784 |                  977 |            2847588 |        642951 |             6331 |        18127572 |                     0 |      14857987 | 2017-02-04 00:20:10.334424+01

 2017-02-04 00:47:35.607365+01 | 1486165655.60736 |                 0 |               5 |                 46784 |                  977 |            2847588 |        643451 |             6336 |        18127572 |                     0 |      14872232 | 2017-02-04 00:20:10.334424+01

 2017-02-04 00:47:36.679416+01 | 1486165656.67942 |                 0 |               5 |                 46784 |                  977 |            2847588 |        644051 |             6342 |        18127572 |                     0 |      14888711 | 2017-02-04 00:20:10.334424+01

 2017-02-04 00:47:37.749867+01 | 1486165657.74987 |                 0 |               5 |                 46784 |                  977 |            2847588 |        644551 |             6347 |        18127572 |                     0 |      14903350 | 2017-02-04 00:20:10.334424+01

 2017-02-04 00:47:38.819617+01 | 1486165658.81962 |                 0 |               5 |                 46784 |                  977 |            2847588 |        645051 |             6352 |        18127572 |                     0 |      14916469 | 2017-02-04 00:20:10.334424+01

 2017-02-04 00:47:39.891793+01 | 1486165659.89179 |                 0 |               5 |                 46784 |                  977 |            2847588 |        645651 |             6358 |        18127572 |                     0 |      14933373 | 2017-02-04 00:20:10.334424+01

 2017-02-04 00:47:40.963639+01 | 1486165660.96364 |                 0 |               5 |                 46784 |                  977 |            2847588 |        646151 |             6363 |        18127572 |                     0 |      14944673 | 2017-02-04 00:20:10.334424+01

 2017-02-04 00:47:42.027408+01 | 1486165662.02741 |                 0 |               5 |                 46784 |                  977 |            2847588 |        646551 |             6367 |        18127572 |                     0 |      14954449 | 2017-02-04 00:20:10.334424+01

 2017-02-04 00:47:43.113672+01 | 1486165663.11367 |                 0 |               5 |                 46784 |                  977 |            2847588 |        647251 |             6374 |        18127572 |                     0 |      14970199 | 2017-02-04 00:20:10.334424+01

 2017-02-04 00:47:44.189552+01 | 1486165664.18955 |                 0 |               5 |                 46784 |                  977 |            2847588 |        647751 |             6379 |        18127572 |                     0 |      14981675 | 2017-02-04 00:20:10.334424+01

 2017-02-04 00:47:45.262637+01 | 1486165665.26264 |                 0 |               5 |                 46784 |                  977 |            2847588 |        648251 |             6384 |        18127572 |                     0 |      14993840 | 2017-02-04 00:20:10.334424+01

 2017-02-04 00:47:46.338952+01 | 1486165666.33895 |                 0 |               5 |                 46784 |                  977 |            2847588 |        648851 |             6390 |        18127572 |                     0 |      15007206 | 2017-02-04 00:20:10.334424+01

 2017-02-04 00:47:47.418243+01 | 1486165667.41824 |                 0 |               5 |                 46784 |                  977 |            2847588 |        649351 |             6395 |        18127572 |                     0 |      15019979 | 2017-02-04 00:20:10.334424+01

 2017-02-04 00:47:48.488669+01 | 1486165668.48867 |                 0 |               5 |                 46784 |                  977 |            2847588 |        649851 |             6400 |        18127572 |                     0 |      15033965 | 2017-02-04 00:20:10.334424+01

 2017-02-04 00:47:49.561076+01 | 1486165669.56108 |                 0 |               5 |                 46784 |                  977 |            2847588 |        650451 |             6406 |        18127572 |                     0 |      15050370 | 2017-02-04 00:20:10.334424+01

 2017-02-04 00:47:50.636717+01 | 1486165670.63672 |                 0 |               5 |                 46784 |                  977 |            2847588 |        650951 |             6411 |        18127572 |                     0 |      15065232 | 2017-02-04 00:20:10.334424+01

 2017-02-04 00:47:51.718801+01 | 1486165671.7188 |                 0 |               5 |                 46784 |                  977 |            2847588 |        651451 |             6416 |        18127572 |                     0 |      15080067 | 2017-02-04 00:20:10.334424+01

 2017-02-04 00:47:52.792728+01 | 1486165672.79273 |                 0 |               5 |                 46784 |                  977 |            2847588 |        652051 |             6422 |        18127572 |                     0 |      15096165 | 2017-02-04 00:20:10.334424+01

 2017-02-04 00:47:53.867635+01 | 1486165673.86764 |                 0 |               5 |                 46784 |                  977 |            2847588 |        652551 |             6427 |        18127572 |                     0 |      15110178 | 2017-02-04 00:20:10.334424+01

 2017-02-04 00:47:54.939334+01 | 1486165674.93933 |                 0 |               5 |                 46784 |                  977 |            2847588 |        653051 |             6432 |        18127572 |                     0 |      15124887 | 2017-02-04 00:20:10.334424+01

 2017-02-04 00:47:56.017267+01 | 1486165676.01727 |                 0 |               5 |                 46784 |                  977 |            2847588 |        653651 |             6438 |        18127572 |                     0 |      15141662 | 2017-02-04 00:20:10.334424+01

 2017-02-04 00:47:57.09215+01 | 1486165677.09215 |                 0 |               5 |                 46784 |                  977 |            2847588 |        654151 |             6443 |        18127572 |                     0 |      15156059 | 2017-02-04 00:20:10.334424+01

 2017-02-04 00:47:58.169205+01 | 1486165678.1692 |                 0 |               5 |                 46784 |                  977 |            2847588 |        654651 |             6448 |        18127572 |                     0 |      15169697 | 2017-02-04 00:20:10.334424+01

 2017-02-04 00:47:59.238413+01 | 1486165679.23841 |                 0 |               5 |                 46784 |                  977 |            2847588 |        655251 |             6454 |        18127572 |                     0 |      15182529 | 2017-02-04 00:20:10.334424+01

 2017-02-04 00:48:00.301812+01 | 1486165680.30181 |                 0 |               5 |                 46784 |                  977 |            2847588 |        655751 |             6459 |        18633261 |                     0 |      15194720 | 2017-02-04 00:20:10.334424+01

 2017-02-04 00:48:01.373928+01 | 1486165681.37393 |                 0 |               5 |                 46784 |                  977 |            2847588 |        656251 |             6464 |        18633261 |                     0 |      15203780 | 2017-02-04 00:20:10.334424+01

 2017-02-04 00:48:02.447763+01 | 1486165682.44776 |                 0 |               5 |                 46784 |                  977 |            2847588 |        656751 |             6469 |        18633261 |                     0 |      15217233 | 2017-02-04 00:20:10.334424+01

 2017-02-04 00:48:03.530357+01 | 1486165683.53036 |                 0 |               5 |                 46784 |                  977 |            2847588 |        657351 |             6475 |        18633261 |                     0 |      15231269 | 2017-02-04 00:20:10.334424+01

 2017-02-04 00:48:04.613766+01 | 1486165684.61377 |                 0 |               5 |                 46784 |                  977 |            2847588 |        657851 |             6480 |        18633261 |                     0 |      15244413 | 2017-02-04 00:20:10.334424+01

 2017-02-04 00:48:05.689678+01 | 1486165685.68968 |                 0 |               5 |                 46784 |                  977 |            2847588 |        658351 |             6485 |        18633261 |                     0 |      15259327 | 2017-02-04 00:20:10.334424+01

 2017-02-04 00:48:06.763327+01 | 1486165686.76333 |                 0 |               5 |                 46784 |                  977 |            2847588 |        658951 |             6491 |        18633261 |                     0 |      15275481 | 2017-02-04 00:20:10.334424+01

 2017-02-04 00:48:07.836734+01 | 1486165687.83673 |                 0 |               5 |                 46784 |                  977 |            2847588 |        659451 |             6496 |        18633261 |                     0 |      15290584 | 2017-02-04 00:20:10.334424+01

 2017-02-04 00:48:08.910219+01 | 1486165688.91022 |                 0 |               5 |                 46784 |                  977 |            2847588 |        659951 |             6501 |        18633261 |                     0 |      15304686 | 2017-02-04 00:20:10.334424+01

 2017-02-04 00:48:09.982752+01 | 1486165689.98275 |                 0 |               5 |                 46784 |                  977 |            2847588 |        660551 |             6507 |        18633261 |                     0 |      15323206 | 2017-02-04 00:20:10.334424+01

 2017-02-04 00:48:11.05278+01 | 1486165691.05278 |                 0 |               5 |                 46784 |                  977 |            2847588 |        661051 |             6512 |        18633261 |                     0 |      15338097 | 2017-02-04 00:20:10.334424+01

 2017-02-04 00:48:12.127814+01 | 1486165692.12781 |                 0 |               5 |                 46784 |                  977 |            2847588 |        661551 |             6517 |        18633261 |                     0 |      15353608 | 2017-02-04 00:20:10.334424+01

 2017-02-04 00:48:13.199478+01 | 1486165693.19948 |                 0 |               5 |                 46784 |                  977 |            2847588 |        662151 |             6523 |        18633261 |                     0 |      15370910 | 2017-02-04 00:20:10.334424+01

 2017-02-04 00:48:14.28242+01 | 1486165694.28242 |                 0 |               5 |                 46784 |                  977 |            2847588 |        662651 |             6528 |        18633261 |                     0 |      15386072 | 2017-02-04 00:20:10.334424+01

 2017-02-04 00:48:15.354621+01 | 1486165695.35462 |                 0 |               5 |                 46784 |                  977 |            2847588 |        663151 |             6533 |        18633261 |                     0 |      15398983 | 2017-02-04 00:20:10.334424+01

 2017-02-04 00:48:16.430185+01 | 1486165696.43019 |                 0 |               5 |                 46784 |                  977 |            2847588 |        663751 |             6539 |        18633261 |                     0 |      15417775 | 2017-02-04 00:20:10.334424+01

 2017-02-04 00:48:17.502958+01 | 1486165697.50296 |                 0 |               5 |                 46784 |                  977 |            2847588 |        664251 |             6544 |        18633261 |                     0 |      15430912 | 2017-02-04 00:20:10.334424+01

 2017-02-04 00:48:18.579498+01 | 1486165698.5795 |                 0 |               5 |                 46784 |                  977 |            2847588 |        664751 |             6549 |        18633261 |                     0 |      15446148 | 2017-02-04 00:20:10.334424+01

 2017-02-04 00:48:19.655256+01 | 1486165699.65526 |                 0 |               5 |                 46784 |                  977 |            2847588 |        665351 |             6555 |        18633261 |                     0 |      15462201 | 2017-02-04 00:20:10.334424+01

 2017-02-04 00:48:20.735203+01 | 1486165700.7352 |                 0 |               5 |                 46784 |                  977 |            2847588 |        665851 |             6560 |        18633261 |                     0 |      15477044 | 2017-02-04 00:20:10.334424+01

 2017-02-04 00:48:21.809936+01 | 1486165701.80994 |                 0 |               5 |                 46784 |                  977 |            2847588 |        666351 |             6565 |        18633261 |                     0 |      15491145 | 2017-02-04 00:20:10.334424+01

 2017-02-04 00:48:22.884011+01 | 1486165702.88401 |                 0 |               5 |                 46784 |                  977 |            2847588 |        666951 |             6571 |        18633261 |                     0 |      15508726 | 2017-02-04 00:20:10.334424+01

 2017-02-04 00:48:23.961476+01 | 1486165703.96148 |                 0 |               5 |                 46784 |                  977 |            2847588 |        667451 |             6576 |        18633261 |                     0 |      15522722 | 2017-02-04 00:20:10.334424+01

 2017-02-04 00:48:25.038577+01 | 1486165705.03858 |                 0 |               5 |                 46784 |                  977 |            2847588 |        667951 |             6581 |        18633261 |                     0 |      15536310 | 2017-02-04 00:20:10.334424+01

 2017-02-04 00:48:26.122607+01 | 1486165706.12261 |                 0 |               5 |                 46784 |                  977 |            2847588 |        668551 |             6587 |        18633261 |                     0 |      15552955 | 2017-02-04 00:20:10.334424+01

 2017-02-04 00:48:27.197612+01 | 1486165707.19761 |                 0 |               5 |                 46784 |                  977 |            2847588 |        669051 |             6592 |        18633261 |                     0 |      15568025 | 2017-02-04 00:20:10.334424+01

 2017-02-04 00:48:28.269773+01 | 1486165708.26977 |                 0 |               5 |                 46784 |                  977 |            2847588 |        669551 |             6597 |        18633261 |                     0 |      15582156 | 2017-02-04 00:20:10.334424+01

 2017-02-04 00:48:29.343889+01 | 1486165709.34389 |                 0 |               5 |                 46784 |                  977 |            2847588 |        670151 |             6603 |        18633261 |                     0 |      15598763 | 2017-02-04 00:20:10.334424+01

 2017-02-04 00:48:30.427296+01 | 1486165710.4273 |                 0 |               5 |                 46784 |                  977 |            2847588 |        670651 |             6608 |        18633261 |                     0 |      15612758 | 2017-02-04 00:20:10.334424+01

 2017-02-04 00:48:31.508024+01 | 1486165711.50802 |                 0 |               5 |                 46784 |                  977 |            2847588 |        671151 |             6613 |        18633261 |                     0 |      15626537 | 2017-02-04 00:20:10.334424+01

 2017-02-04 00:48:32.585198+01 | 1486165712.5852 |                 0 |               5 |                 46784 |                  977 |            2847588 |        671751 |             6619 |        18633261 |                     0 |      15644857 | 2017-02-04 00:20:10.334424+01

 2017-02-04 00:48:33.658492+01 | 1486165713.65849 |                 0 |               5 |                 46784 |                  977 |            2847588 |        672251 |             6624 |        18633261 |                     0 |      15657859 | 2017-02-04 00:20:10.334424+01

 2017-02-04 00:48:34.730712+01 | 1486165714.73071 |                 0 |               5 |                 46784 |                  977 |            2847588 |        672751 |             6629 |        19140749 |                     0 |      15671153 | 2017-02-04 00:20:10.334424+01

 2017-02-04 00:48:35.80629+01 | 1486165715.80629 |                 0 |               5 |                 46784 |                  977 |            2847588 |        673351 |             6635 |        19140749 |                     0 |      15683691 | 2017-02-04 00:20:10.334424+01

 2017-02-04 00:48:36.890262+01 | 1486165716.89026 |                 0 |               5 |                 46784 |                  977 |            2847588 |        673851 |             6640 |        19140749 |                     0 |      15696383 | 2017-02-04 00:20:10.334424+01

 2017-02-04 00:48:37.966571+01 | 1486165717.96657 |                 0 |               5 |                 46784 |                  977 |            2847588 |        674351 |             6645 |        19140749 |                     0 |      15706050 | 2017-02-04 00:20:10.334424+01

 2017-02-04 00:48:39.048024+01 | 1486165719.04802 |                 0 |               5 |                 46784 |                  977 |            2847588 |        674951 |             6651 |        19140749 |                     0 |      15720602 | 2017-02-04 00:20:10.334424+01

 2017-02-04 00:48:40.12465+01 | 1486165720.12465 |                 0 |               5 |                 46784 |                  977 |            2847588 |        675451 |             6656 |        19140749 |                     0 |      15732542 | 2017-02-04 00:20:10.334424+01

 2017-02-04 00:48:41.196745+01 | 1486165721.19674 |                 0 |               5 |                 46784 |                  977 |            2847588 |        675951 |             6661 |        19140749 |                     0 |      15745234 | 2017-02-04 00:20:10.334424+01

 2017-02-04 00:48:42.265828+01 | 1486165722.26583 |                 0 |               5 |                 46784 |                  977 |            2847588 |        676451 |             6666 |        19140749 |                     0 |      15758538 | 2017-02-04 00:20:10.334424+01

 2017-02-04 00:48:43.345428+01 | 1486165723.34543 |                 0 |               5 |                 46784 |                  977 |            2847588 |        677051 |             6672 |        19140749 |                     0 |      15776986 | 2017-02-04 00:20:10.334424+01

 2017-02-04 00:48:44.418165+01 | 1486165724.41816 |                 0 |               5 |                 46784 |                  977 |            2847588 |        677551 |             6677 |        19140749 |                     0 |      15790704 | 2017-02-04 00:20:10.334424+01

 2017-02-04 00:48:45.491452+01 | 1486165725.49145 |                 0 |               5 |                 46784 |                  977 |            2847588 |        678151 |             6683 |        19140749 |                     0 |      15809465 | 2017-02-04 00:20:10.334424+01

 2017-02-04 00:48:46.56921+01 | 1486165726.56921 |                 0 |               5 |                 46784 |                  977 |            2847588 |        678651 |             6688 |        19140749 |                     0 |      15824199 | 2017-02-04 00:20:10.334424+01

 2017-02-04 00:48:47.651523+01 | 1486165727.65152 |                 0 |               5 |                 46784 |                  977 |            2847588 |        679151 |             6693 |        19140749 |                     0 |      15840924 | 2017-02-04 00:20:10.334424+01

 2017-02-04 00:48:48.723453+01 | 1486165728.72345 |                 0 |               5 |                 46784 |                  977 |            2847588 |        679751 |             6699 |        19140749 |                     0 |      15859447 | 2017-02-04 00:20:10.334424+01

 2017-02-04 00:48:49.797387+01 | 1486165729.79739 |                 0 |               5 |                 46784 |                  977 |            2847588 |        680251 |             6704 |        19140749 |                     0 |      15876152 | 2017-02-04 00:20:10.334424+01

 2017-02-04 00:48:50.87879+01 | 1486165730.87879 |                 0 |               5 |                 46784 |                  977 |            2847588 |        680751 |             6709 |        19140749 |                     0 |      15890303 | 2017-02-04 00:20:10.334424+01

 2017-02-04 00:48:51.951023+01 | 1486165731.95102 |                 0 |               5 |                 46784 |                  977 |            2847588 |        681351 |             6715 |        19140749 |                     0 |      15908675 | 2017-02-04 00:20:10.334424+01

 2017-02-04 00:48:53.022249+01 | 1486165733.02225 |                 0 |               5 |                 46784 |                  977 |            2847588 |        681851 |             6720 |        19140749 |                     0 |      15922699 | 2017-02-04 00:20:10.334424+01

 2017-02-04 00:48:54.103046+01 | 1486165734.10305 |                 0 |               5 |                 46784 |                  977 |            2847588 |        682351 |             6725 |        19140749 |                     0 |      15938684 | 2017-02-04 00:20:10.334424+01

 2017-02-04 00:48:55.177051+01 | 1486165735.17705 |                 0 |               5 |                 46784 |                  977 |            2847588 |        682951 |             6731 |        19140749 |                     0 |      15955927 | 2017-02-04 00:20:10.334424+01

 2017-02-04 00:48:56.256002+01 | 1486165736.256 |                 0 |               5 |                 46784 |                  977 |            2847588 |        683451 |             6736 |        19140749 |                     0 |      15970605 | 2017-02-04 00:20:10.334424+01

 2017-02-04 00:48:57.334342+01 | 1486165737.33434 |                 0 |               5 |                 46784 |                  977 |            2847588 |        683951 |             6741 |        19140749 |                     0 |      15983597 | 2017-02-04 00:20:10.334424+01

 2017-02-04 00:48:58.404863+01 | 1486165738.40486 |                 0 |               5 |                 46784 |                  977 |            2847588 |        684551 |             6747 |        19140749 |                     0 |      16002797 | 2017-02-04 00:20:10.334424+01

 2017-02-04 00:48:59.484477+01 | 1486165739.48448 |                 0 |               5 |                 46784 |                  977 |            2847588 |        685051 |             6752 |        19140749 |                     0 |      16016799 | 2017-02-04 00:20:10.334424+01

 2017-02-04 00:49:00.557115+01 | 1486165740.55712 |                 0 |               5 |                 46784 |                  977 |            2847588 |        685551 |             6757 |        19140749 |                     0 |      16032119 | 2017-02-04 00:20:10.334424+01

 2017-02-04 00:49:01.630635+01 | 1486165741.63064 |                 0 |               5 |                 46784 |                  977 |            2847588 |        686151 |             6763 |        19140749 |                     0 |      16048763 | 2017-02-04 00:20:10.334424+01

 2017-02-04 00:49:02.690557+01 | 1486165742.69056 |                 0 |               5 |                 46784 |                  977 |            2847588 |        686651 |             6768 |        19140749 |                     0 |      16063566 | 2017-02-04 00:20:10.334424+01

 2017-02-04 00:49:03.771604+01 | 1486165743.7716 |                 0 |               5 |                 46784 |                  977 |            2847588 |        687151 |             6773 |        19140749 |                     0 |      16077003 | 2017-02-04 00:20:10.334424+01

 2017-02-04 00:49:04.846233+01 | 1486165744.84623 |                 0 |               5 |                 46784 |                  977 |            2847588 |        687751 |             6779 |        19140749 |                     0 |      16095154 | 2017-02-04 00:20:10.334424+01

 2017-02-04 00:49:05.922737+01 | 1486165745.92274 |                 0 |               5 |                 46784 |                  977 |            2847588 |        688251 |             6784 |        19140749 |                     0 |      16108716 | 2017-02-04 00:20:10.334424+01

 2017-02-04 00:49:07.002733+01 | 1486165747.00273 |                 0 |               5 |                 46784 |                  977 |            2847588 |        688751 |             6789 |        19140749 |                     0 |      16124361 | 2017-02-04 00:20:10.334424+01

 2017-02-04 00:49:08.089166+01 | 1486165748.08917 |                 0 |               5 |                 46784 |                  977 |            2847588 |        689351 |             6795 |        19140749 |                     0 |      16141683 | 2017-02-04 00:20:10.334424+01

 2017-02-04 00:49:09.165557+01 | 1486165749.16556 |                 0 |               5 |                 46784 |                  977 |            2847588 |        689851 |             6800 |        19647938 |                     0 |      16156476 | 2017-02-04 00:20:10.334424+01

 2017-02-04 00:49:10.239875+01 | 1486165750.23988 |                 0 |               5 |                 46784 |                  977 |            2847588 |        690351 |             6805 |        19647938 |                     0 |      16171266 | 2017-02-04 00:20:10.334424+01

 2017-02-04 00:49:11.316234+01 | 1486165751.31623 |                 0 |               5 |                 46784 |                  977 |            2847588 |        690951 |             6811 |        19647938 |                     0 |      16188206 | 2017-02-04 00:20:10.334424+01

 2017-02-04 00:49:12.392596+01 | 1486165752.3926 |                 0 |               5 |                 46784 |                  977 |            2847588 |        691451 |             6816 |        19647938 |                     0 |      16203303 | 2017-02-04 00:20:10.334424+01

 2017-02-04 00:49:13.4657+01 | 1486165753.4657 |                 0 |               5 |                 46784 |                  977 |            2847588 |        691951 |             6821 |        19647938 |                     0 |      16216939 | 2017-02-04 00:20:10.334424+01

 2017-02-04 00:49:14.541455+01 | 1486165754.54146 |                 0 |               5 |                 46784 |                  977 |            2847588 |        692551 |             6827 |        19647938 |                     0 |      16235052 | 2017-02-04 00:20:10.334424+01

 2017-02-04 00:49:15.629129+01 | 1486165755.62913 |                 0 |               5 |                 46784 |                  977 |            2847588 |        693051 |             6832 |        19647938 |                     0 |      16248516 | 2017-02-04 00:20:10.334424+01

 2017-02-04 00:49:16.702272+01 | 1486165756.70227 |                 0 |               5 |                 46784 |                  977 |            2847588 |        693551 |             6837 |        19647938 |                     0 |      16263048 | 2017-02-04 00:20:10.334424+01

 2017-02-04 00:49:17.77749+01 | 1486165757.77749 |                 0 |               5 |                 46784 |                  977 |            2847588 |        694151 |             6843 |        19647938 |                     0 |      16279775 | 2017-02-04 00:20:10.334424+01

 2017-02-04 00:49:18.851631+01 | 1486165758.85163 |                 0 |               5 |                 46784 |                  977 |            2847588 |        694651 |             6848 |        19647938 |                     0 |      16294778 | 2017-02-04 00:20:10.334424+01

 2017-02-04 00:49:19.937626+01 | 1486165759.93763 |                 0 |               5 |                 46784 |                  977 |            2847588 |        695151 |             6853 |        19647938 |                     0 |      16309402 | 2017-02-04 00:20:10.334424+01

 2017-02-04 00:49:21.010871+01 | 1486165761.01087 |                 0 |               5 |                 46784 |                  977 |            2847588 |        695751 |             6859 |        19647938 |                     0 |      16325974 | 2017-02-04 00:20:10.334424+01

 2017-02-04 00:49:22.088196+01 | 1486165762.0882 |                 0 |               5 |                 46784 |                  977 |            2847588 |        696251 |             6864 |        19647938 |                     0 |      16340822 | 2017-02-04 00:20:10.334424+01

 2017-02-04 00:49:23.16453+01 | 1486165763.16453 |                 0 |               5 |                 46784 |                  977 |            2847588 |        696751 |             6869 |        19647938 |                     0 |      16354343 | 2017-02-04 00:20:10.334424+01

 2017-02-04 00:49:24.240234+01 | 1486165764.24023 |                 0 |               5 |                 46784 |                  977 |            2847588 |        697351 |             6875 |        19647938 |                     0 |      16372036 | 2017-02-04 00:20:10.334424+01

 2017-02-04 00:49:25.315187+01 | 1486165765.31519 |                 0 |               5 |                 46784 |                  977 |            2847588 |        697851 |             6880 |        19647938 |                     0 |      16385298 | 2017-02-04 00:20:10.334424+01

 2017-02-04 00:49:26.391379+01 | 1486165766.39138 |                 0 |               5 |                 46784 |                  977 |            2847588 |        698351 |             6885 |        19647938 |                     0 |      16400235 | 2017-02-04 00:20:10.334424+01

 2017-02-04 00:49:27.465625+01 | 1486165767.46563 |                 0 |               5 |                 46784 |                  977 |            2847588 |        698951 |             6891 |        19647938 |                     0 |      16416860 | 2017-02-04 00:20:10.334424+01

 2017-02-04 00:49:28.540751+01 | 1486165768.54075 |                 0 |               5 |                 46784 |                  977 |            2847588 |        699451 |             6896 |        19647938 |                     0 |      16431564 | 2017-02-04 00:20:10.334424+01

 2017-02-04 00:49:29.617189+01 | 1486165769.61719 |                 0 |               5 |                 46784 |                  977 |            2847588 |        699951 |             6901 |        19647938 |                     0 |      16445503 | 2017-02-04 00:20:10.334424+01

 2017-02-04 00:49:30.694614+01 | 1486165770.69461 |                 0 |               5 |                 46784 |                  977 |            2847588 |        700551 |             6907 |        19647938 |                     0 |      16463065 | 2017-02-04 00:20:10.334424+01

 2017-02-04 00:49:31.769108+01 | 1486165771.76911 |                 0 |               5 |                 46784 |                  977 |            2847588 |        701051 |             6912 |        19647938 |                     0 |      16476704 | 2017-02-04 00:20:10.334424+01

 2017-02-04 00:49:32.845624+01 | 1486165772.84562 |                 0 |               5 |                 46784 |                  977 |            2847588 |        701551 |             6917 |        19647938 |                     0 |      16491196 | 2017-02-04 00:20:10.334424+01

 2017-02-04 00:49:33.923596+01 | 1486165773.9236 |                 0 |               5 |                 46784 |                  977 |            2847588 |        702151 |             6923 |        19647938 |                     0 |      16506823 | 2017-02-04 00:20:10.334424+01

 2017-02-04 00:49:35.002356+01 | 1486165775.00236 |                 0 |               5 |                 46784 |                  977 |            2847588 |        702651 |             6928 |        19647938 |                     0 |      16522180 | 2017-02-04 00:20:10.334424+01

 2017-02-04 00:49:36.077203+01 | 1486165776.0772 |                 0 |               5 |                 46784 |                  977 |            2847588 |        703151 |             6933 |        19647938 |                     0 |      16537052 | 2017-02-04 00:20:10.334424+01

 2017-02-04 00:49:37.152738+01 | 1486165777.15274 |                 0 |               5 |                 46784 |                  977 |            2847588 |        703751 |             6939 |        19647938 |                     0 |      16553522 | 2017-02-04 00:20:10.334424+01

 2017-02-04 00:49:38.225074+01 | 1486165778.22507 |                 0 |               5 |                 46784 |                  977 |            2847588 |        704251 |             6944 |        19647938 |                     0 |      16567874 | 2017-02-04 00:20:10.334424+01

 2017-02-04 00:49:39.303222+01 | 1486165779.30322 |                 0 |               5 |                 46784 |                  977 |            2847588 |        704751 |             6949 |        19647938 |                     0 |      16582474 | 2017-02-04 00:20:10.334424+01

 2017-02-04 00:49:40.384008+01 | 1486165780.38401 |                 0 |               5 |                 46784 |                  977 |            2847588 |        705351 |             6955 |        19647938 |                     0 |      16598681 | 2017-02-04 00:20:10.334424+01

 2017-02-04 00:49:41.450837+01 | 1486165781.45084 |                 0 |               5 |                 46784 |                  977 |            2847588 |        705751 |             6959 |        19647938 |                     0 |      16609339 | 2017-02-04 00:20:10.334424+01

 2017-02-04 00:49:42.517351+01 | 1486165782.51735 |                 0 |               5 |                 46784 |                  977 |            2847588 |        706351 |             6965 |        20155427 |                     0 |      16627207 | 2017-02-04 00:20:10.334424+01

 2017-02-04 00:49:43.606853+01 | 1486165783.60685 |                 0 |               5 |                 46784 |                  977 |            2847588 |        706951 |             6971 |        20155427 |                     0 |      16643469 | 2017-02-04 00:20:10.334424+01

 2017-02-04 00:49:44.683943+01 | 1486165784.68394 |                 0 |               5 |                 46784 |                  977 |            2847588 |        707451 |             6976 |        20155427 |                     0 |      16658572 | 2017-02-04 00:20:10.334424+01

 2017-02-04 00:49:45.771338+01 | 1486165785.77134 |                 0 |               5 |                 46784 |                  977 |            2847588 |        707951 |             6981 |        20155427 |                     0 |      16673906 | 2017-02-04 00:20:10.334424+01

 2017-02-04 00:49:46.840482+01 | 1486165786.84048 |                 0 |               5 |                 46784 |                  977 |            2847588 |        708551 |             6987 |        20155427 |                     0 |      16691181 | 2017-02-04 00:20:10.334424+01

 2017-02-04 00:49:47.91421+01 | 1486165787.91421 |                 0 |               5 |                 46784 |                  977 |            2847588 |        709051 |             6992 |        20155427 |                     0 |      16705681 | 2017-02-04 00:20:10.334424+01

 2017-02-04 00:49:48.99141+01 | 1486165788.99141 |                 0 |               5 |                 46784 |                  977 |            2847588 |        709551 |             6997 |        20155427 |                     0 |      16719332 | 2017-02-04 00:20:10.334424+01

 2017-02-04 00:49:50.070902+01 | 1486165790.0709 |                 0 |               5 |                 46784 |                  977 |            2847588 |        710151 |             7003 |        20155427 |                     0 |      16737022 | 2017-02-04 00:20:10.334424+01

 2017-02-04 00:49:51.139976+01 | 1486165791.13998 |                 0 |               5 |                 46784 |                  977 |            2847588 |        710651 |             7008 |        20155427 |                     0 |      16751542 | 2017-02-04 00:20:10.334424+01

 2017-02-04 00:49:52.22386+01 | 1486165792.22386 |                 0 |               5 |                 46784 |                  977 |            2847588 |        711151 |             7013 |        20155427 |                     0 |      16763575 | 2017-02-04 00:20:10.334424+01

