 2017-02-06 20:42:11.945051+01 | 1486410131.94505 | 6C/F34CCAA8              |          467938364072

 2017-02-06 20:42:13.034766+01 | 1486410133.03477 | 6C/FC330518              |          468087670040

 2017-02-06 20:42:14.121687+01 | 1486410134.12169 | 6D/6D94000               |          468266336256

 2017-02-06 20:42:15.209675+01 | 1486410135.20968 | 6D/1273E9E8              |          468461021672

 2017-02-06 20:42:16.293308+01 | 1486410136.29331 | 6D/1F2DE6D0              |          468674554328

 2017-02-06 20:42:17.37454+01 | 1486410137.37454 | 6D/2C7DE9C8              |          468897884616

 2017-02-06 20:42:18.466724+01 | 1486410138.46672 | 6D/39CF6000              |          469121327104

 2017-02-06 20:42:19.55641+01 | 1486410139.55641 | 6D/476FBBD8              |          469349940184

 2017-02-06 20:42:20.641191+01 | 1486410140.64119 | 6D/54C1B4E0              |          469573416160

 2017-02-06 20:42:21.731193+01 | 1486410141.73119 | 6D/615882B0              |          469784625840

 2017-02-06 20:42:22.812581+01 | 1486410142.81258 | 6D/6E159898              |          469998344344

 2017-02-06 20:42:23.887862+01 | 1486410143.88786 | 6D/79E4DDE0              |          470196477408

 2017-02-06 20:42:24.972013+01 | 1486410144.97201 | 6D/84C12E18              |          470378688024

 2017-02-06 20:42:26.053599+01 | 1486410146.0536 | 6D/909CB920              |          470577625376

 2017-02-06 20:42:27.14056+01 | 1486410147.14056 | 6D/9D1A4878              |          470787180664

 2017-02-06 20:42:28.234628+01 | 1486410148.23463 | 6D/A94216F8              |          470991116024

 2017-02-06 20:42:29.32525+01 | 1486410149.32525 | 6D/B5499D00              |          471192935680

 2017-02-06 20:42:30.414899+01 | 1486410150.4149 | 6D/BFE4AEE0              |          471370870496

 2017-02-06 20:42:31.503039+01 | 1486410151.50304 | 6D/CB7884A0              |          471565108384

 2017-02-06 20:42:32.596529+01 | 1486410152.59653 | 6D/D6C5EA50              |          471754730064

 2017-02-06 20:42:33.684447+01 | 1486410153.68445 | 6D/E222D528              |          471945368872

 2017-02-06 20:42:34.77789+01 | 1486410154.77789 | 6D/ED94D0D8              |          472137388248

 2017-02-06 20:42:35.864745+01 | 1486410155.86474 | 6D/F8D71598              |          472326280600

 2017-02-06 20:42:36.946831+01 | 1486410156.94683 | 6E/3D60E00               |          472510762496

 2017-02-06 20:42:38.029779+01 | 1486410158.02978 | 6E/E7CC000               |          472689459200

 2017-02-06 20:42:39.111861+01 | 1486410159.11186 | 6E/190DDD20              |          472866741536

 2017-02-06 20:42:40.196374+01 | 1486410160.19637 | 6E/22A85AC8              |          473027861192

 2017-02-06 20:42:41.28892+01 | 1486410161.28892 | 6E/2D4804C0              |          473206097088

 2017-02-06 20:42:42.394428+01 | 1486410162.39443 | 6E/378E2660              |          473378465376

 2017-02-06 20:42:43.490628+01 | 1486410163.49063 | 6E/41C36A48              |          473549728328

 2017-02-06 20:42:44.587376+01 | 1486410164.58738 | 6E/4B747958              |          473712327000

 2017-02-06 20:42:45.682306+01 | 1486410165.68231 | 6E/54E35BA8              |          473870588840

 2017-02-06 20:42:46.758559+01 | 1486410166.75856 | 6E/5E5A0A30              |          474029361712

 2017-02-06 20:42:47.849183+01 | 1486410167.84918 | 6E/66E06FF0              |          474172387312

 2017-02-06 20:42:48.927442+01 | 1486410168.92744 | 6E/6F88ECB0              |          474317647024

 2017-02-06 20:42:50.0062+01 | 1486410170.0062 | 6E/77CDFC48              |          474456390728

 2017-02-06 20:42:51.085124+01 | 1486410171.08512 | 6E/7FDB1960              |          474591467872

 2017-02-06 20:42:52.167165+01 | 1486410172.16717 | 6E/882892E8              |          474730762984

 2017-02-06 20:42:53.240238+01 | 1486410173.24024 | 6E/9010A660              |          474863412832

 2017-02-06 20:42:54.318947+01 | 1486410174.31895 | 6E/97979FE0              |          474989699040

 2017-02-06 20:42:55.415287+01 | 1486410175.41529 | 6E/9FF2A580              |          475129881984

 2017-02-06 20:42:56.512159+01 | 1486410176.51216 | 6E/A7936F80              |          475257859968

 2017-02-06 20:42:57.605785+01 | 1486410177.60578 | 6E/AFAA03E0              |          475393557472

 2017-02-06 20:42:58.682006+01 | 1486410178.68201 | 6E/B64309A0              |          475504249248

 2017-02-06 20:42:59.777795+01 | 1486410179.7778 | 6E/BCCDB860              |          475614001248

 2017-02-06 20:43:00.878381+01 | 1486410180.87838 | 6E/C46F1E78              |          475742019192

 2017-02-06 20:43:01.960491+01 | 1486410181.96049 | 6E/CB4CE398              |          475857216408

 2017-02-06 20:43:03.040997+01 | 1486410183.041 | 6E/D2773918              |          475977431320

 2017-02-06 20:43:04.118315+01 | 1486410184.11831 | 6E/D9208770              |          476089190256

 2017-02-06 20:43:05.195535+01 | 1486410185.19553 | 6E/DF9B31D0              |          476197892560

 2017-02-06 20:43:06.287869+01 | 1486410186.28787 | 6E/E68EED10              |          476314529040

 2017-02-06 20:43:07.382884+01 | 1486410187.38288 | 6E/ECEE8000              |          476421455872

 2017-02-06 20:43:08.477036+01 | 1486410188.47704 | 6E/F2E4C150              |          476521480528

 2017-02-06 20:43:09.569625+01 | 1486410189.56962 | 6E/F90A8700              |          476624619264

 2017-02-06 20:43:10.658824+01 | 1486410190.65882 | 6E/FE3CE620              |          476711806496

 2017-02-06 20:43:11.759291+01 | 1486410191.75929 | 6F/341E118               |          476796018968

 2017-02-06 20:43:12.859374+01 | 1486410192.85937 | 6F/8AEBCC0               |          476887039168

 2017-02-06 20:43:13.925988+01 | 1486410193.92599 | 6F/D0052B0               |          476959494832

 2017-02-06 20:43:15.004174+01 | 1486410195.00417 | 6F/12179B68              |          477044906856

 2017-02-06 20:43:16.073934+01 | 1486410196.07393 | 6F/178AD038              |          477136343096

 2017-02-06 20:43:17.143462+01 | 1486410197.14346 | 6F/1C96F300              |          477221024512

 2017-02-06 20:43:18.225375+01 | 1486410198.22537 | 6F/222645C0              |          477314303424

 2017-02-06 20:43:19.312981+01 | 1486410199.31298 | 6F/273E9C70              |          477399784560

 2017-02-06 20:43:20.394001+01 | 1486410200.394 | 6F/2B8A8FA8              |          477471870888

 2017-02-06 20:43:21.462029+01 | 1486410201.46203 | 6F/30C2BF68              |          477559439208

 2017-02-06 20:43:22.559378+01 | 1486410202.55938 | 6F/35B55A90              |          477642447504

 2017-02-06 20:43:23.657076+01 | 1486410203.65708 | 6F/3AFF9D48              |          477731200328

 2017-02-06 20:43:24.74766+01 | 1486410204.74766 | 6F/407A1460              |          477823112288

 2017-02-06 20:43:25.847024+01 | 1486410205.84702 | 6F/458D56B8              |          477908260536

 2017-02-06 20:43:26.930926+01 | 1486410206.93093 | 6F/4A8E4C88              |          477992209544

 2017-02-06 20:43:28.015398+01 | 1486410208.0154 | 6F/4FCCBF10              |          478080188176

 2017-02-06 20:43:29.087958+01 | 1486410209.08796 | 6F/545A0F50              |          478156558160

 2017-02-06 20:43:30.171629+01 | 1486410210.17163 | 6F/59406970              |          478238763376

 2017-02-06 20:43:31.25697+01 | 1486410211.25697 | 6F/5DF80D08              |          478317907208

 2017-02-06 20:43:32.33933+01 | 1486410212.33933 | 6F/62AB1D38              |          478396751160

 2017-02-06 20:43:33.42952+01 | 1486410213.42952 | 6F/677267E0              |          478476920800

 2017-02-06 20:43:34.504076+01 | 1486410214.50408 | 6F/6B93F0B0              |          478546227376

 2017-02-06 20:43:35.592162+01 | 1486410215.59216 | 6F/7032A6F8              |          478623737592

 2017-02-06 20:43:36.678499+01 | 1486410216.6785 | 6F/74B5B4C8              |          478699435208

 2017-02-06 20:43:37.744631+01 | 1486410217.74463 | 6F/788E56B0              |          478763964080

 2017-02-06 20:43:38.834596+01 | 1486410218.8346 | 6F/7D0D7428              |          478839403560

 2017-02-06 20:43:39.920988+01 | 1486410219.92099 | 6F/81498A20              |          478910450208

 2017-02-06 20:43:40.98866+01 | 1486410220.98866 | 6F/856F0E88              |          478980017800

 2017-02-06 20:43:42.072067+01 | 1486410222.07207 | 6F/89B39A60              |          479051618912

 2017-02-06 20:43:43.145968+01 | 1486410223.14597 | 6F/8D86E510              |          479115797776

 2017-02-06 20:43:44.228306+01 | 1486410224.22831 | 6F/9167CA58              |          479180868184

 2017-02-06 20:43:45.309498+01 | 1486410225.3095 | 6F/9563E978              |          479247722872

 2017-02-06 20:43:46.38069+01 | 1486410226.38069 | 6F/98D03E38              |          479305154104

 2017-02-06 20:43:47.469621+01 | 1486410227.46962 | 6F/9C68DA80              |          479365487232

 2017-02-06 20:43:48.556398+01 | 1486410228.5564 | 6F/A02915F0              |          479428417008

 2017-02-06 20:43:49.629833+01 | 1486410229.62983 | 6F/A3C2EB20              |          479488830240

 2017-02-06 20:43:50.723643+01 | 1486410230.72364 | 6F/A7777868              |          479550994536

 2017-02-06 20:43:51.810973+01 | 1486410231.81097 | 6F/AA5DB288              |          479599637128

 2017-02-06 20:43:52.916379+01 | 1486410232.91638 | 6F/AD923720              |          479653410592

 2017-02-06 20:43:54.006445+01 | 1486410234.00644 | 6F/B0E51D78              |          479709175160

 2017-02-06 20:43:55.087529+01 | 1486410235.08753 | 6F/B3E0EB58              |          479759231832

 2017-02-06 20:43:56.164322+01 | 1486410236.16432 | 6F/B671FA68              |          479802292840

 2017-02-06 20:43:57.246946+01 | 1486410237.24695 | 6F/B97C89F0              |          479853316592

 2017-02-06 20:43:58.317392+01 | 1486410238.31739 | 6F/BC0492B0              |          479895786160

 2017-02-06 20:43:59.399411+01 | 1486410239.39941 | 6F/BECB4578              |          479942362488

 2017-02-06 20:44:00.474394+01 | 1486410240.47439 | 6F/C17CE270              |          479987556976

 2017-02-06 20:44:01.542837+01 | 1486410241.54284 | 6F/C4148E38              |          480031051320

 2017-02-06 20:44:02.628439+01 | 1486410242.62844 | 6F/C6D2D200              |          480077074944

 2017-02-06 20:44:03.716062+01 | 1486410243.71606 | 6F/C9D143D8              |          480127304664

 2017-02-06 20:44:04.808442+01 | 1486410244.80844 | 6F/CD213DB0              |          480182877616

 2017-02-06 20:44:05.904937+01 | 1486410245.90494 | 6F/D03D8500              |          480235062528

 2017-02-06 20:44:06.972173+01 | 1486410246.97217 | 6F/D3091BC0              |          480281959360

 2017-02-06 20:44:08.05899+01 | 1486410248.05899 | 6F/D6214090              |          480333873296

 2017-02-06 20:44:09.142108+01 | 1486410249.14211 | 6F/D91FCCC0              |          480384109760

 2017-02-06 20:44:10.20779+01 | 1486410250.20779 | 6F/DBB471F8              |          480427405816

 2017-02-06 20:44:11.295224+01 | 1486410251.29522 | 6F/DEAC7C38              |          480477215800

 2017-02-06 20:44:12.380028+01 | 1486410252.38003 | 6F/E1963008              |          480526086152

 2017-02-06 20:44:13.459279+01 | 1486410253.45928 | 6F/E431EF10              |          480569847568

 2017-02-06 20:44:14.54739+01 | 1486410254.54739 | 6F/E6F657E8              |          480616273896

 2017-02-06 20:44:15.636049+01 | 1486410255.63605 | 6F/E9B452E0              |          480662278880

 2017-02-06 20:44:16.703301+01 | 1486410256.7033 | 6F/EC403380              |          480705000320

 2017-02-06 20:44:17.791797+01 | 1486410257.7918 | 6F/EF16DA40              |          480752622144

 2017-02-06 20:44:18.886035+01 | 1486410258.88603 | 6F/F1C6C8C8              |          480797706440

 2017-02-06 20:44:19.960383+01 | 1486410259.96038 | 6F/F4046CE8              |          480835300584

 2017-02-06 20:44:21.058381+01 | 1486410261.05838 | 6F/F6AD5C70              |          480879926384

 2017-02-06 20:44:22.138889+01 | 1486410262.13889 | 6F/F956DFC0              |          480924590016

 2017-02-06 20:44:23.217896+01 | 1486410263.2179 | 6F/FB8FB668              |          480961869416

 2017-02-06 20:44:24.30399+01 | 1486410264.30399 | 6F/FE0DD100              |          481003689856

 2017-02-06 20:44:25.38698+01 | 1486410265.38698 | 70/77BEC8                |          481044184776

 2017-02-06 20:44:26.4604+01 | 1486410266.4604 | 70/2D25210               |          481083675152

 2017-02-06 20:44:27.532802+01 | 1486410267.5328 | 70/50B8960               |          481120979296

 2017-02-06 20:44:28.626619+01 | 1486410268.62662 | 70/79F5C20               |          481164221472

 2017-02-06 20:44:29.727436+01 | 1486410269.72744 | 70/9C05A88               |          481199938184

 2017-02-06 20:44:30.818806+01 | 1486410270.81881 | 70/BD94DA0               |          481235127712

 2017-02-06 20:44:31.913014+01 | 1486410271.91301 | 70/DBD53B0               |          481266848688

 2017-02-06 20:44:33.001027+01 | 1486410273.00103 | 70/FC69A10               |          481301010960

 2017-02-06 20:44:34.08273+01 | 1486410274.08273 | 70/11761928              |          481329289512

 2017-02-06 20:44:35.164785+01 | 1486410275.16478 | 70/13853CB0              |          481363836080

 2017-02-06 20:44:36.243011+01 | 1486410276.24301 | 70/156989C8              |          481395575240

 2017-02-06 20:44:37.322403+01 | 1486410277.3224 | 70/17A928D8              |          481433299160

 2017-02-06 20:44:38.401401+01 | 1486410278.4014 | 70/19B97C98              |          481467923608

 2017-02-06 20:44:39.471544+01 | 1486410279.47154 | 70/1BC64BF0              |          481502317552

 2017-02-06 20:44:40.550646+01 | 1486410280.55065 | 70/1DCD0138              |          481536311608

 2017-02-06 20:44:41.636633+01 | 1486410281.63663 | 70/1FD43E18              |          481570340376

 2017-02-06 20:44:42.710973+01 | 1486410282.71097 | 70/21CBFD40              |          481603353920

 2017-02-06 20:44:43.81+01 | 1486410283.81 | 70/23EE31C8              |          481639150024

 2017-02-06 20:44:44.898928+01 | 1486410284.89893 | 70/25D347F0              |          481670940656

 2017-02-06 20:44:45.992262+01 | 1486410285.99226 | 70/27A40688              |          481701398152

 2017-02-06 20:44:47.080987+01 | 1486410287.08099 | 70/29C255B0              |          481736938928

 2017-02-06 20:44:48.156382+01 | 1486410288.15638 | 70/2BDCD2E0              |          481772229344

 2017-02-06 20:44:49.223127+01 | 1486410289.22313 | 70/2D9EA520              |          481801708832

 2017-02-06 20:44:50.299646+01 | 1486410290.29965 | 70/2F9FA058              |          481835327576

 2017-02-06 20:44:51.377285+01 | 1486410291.37729 | 70/31EFC7C8              |          481874134984

 2017-02-06 20:44:52.435442+01 | 1486410292.43544 | 70/34187428              |          481910354984

 2017-02-06 20:44:53.514357+01 | 1486410293.51436 | 70/36634580              |          481948812672

 2017-02-06 20:44:54.599107+01 | 1486410294.59911 | 70/383517E0              |          481979340768

 2017-02-06 20:44:55.678653+01 | 1486410295.67865 | 70/39D29208              |          482006438408

 2017-02-06 20:44:56.774428+01 | 1486410296.77443 | 70/3BAC5510              |          482037486864

 2017-02-06 20:44:57.860325+01 | 1486410297.86033 | 70/3D833D20              |          482068348192

 2017-02-06 20:44:58.956263+01 | 1486410298.95626 | 70/3F398D30              |          482097073456

 2017-02-06 20:45:00.054621+01 | 1486410300.05462 | 70/41274EE0              |          482129432288

 2017-02-06 20:45:01.145303+01 | 1486410301.1453 | 70/42FF0CA8              |          482160348328

 2017-02-06 20:45:02.219318+01 | 1486410302.21932 | 70/44896AD0              |          482186193616

 2017-02-06 20:45:03.297509+01 | 1486410303.29751 | 70/463CB828              |          482214721576

 2017-02-06 20:45:04.382398+01 | 1486410304.3824 | 70/47EA76B0              |          482242885296

 2017-02-06 20:45:05.461514+01 | 1486410305.46151 | 70/499E7E48              |          482271460936

 2017-02-06 20:45:06.529055+01 | 1486410306.52906 | 70/4B2EE298              |          482297701016

 2017-02-06 20:45:07.606689+01 | 1486410307.60669 | 70/4CD6CB50              |          482325482320

 2017-02-06 20:45:08.683643+01 | 1486410308.68364 | 70/4E71AED0              |          482352410320

 2017-02-06 20:45:09.760801+01 | 1486410309.7608 | 70/4FE6DE80              |          482376867456

 2017-02-06 20:45:10.849962+01 | 1486410310.84996 | 70/5184F800              |          482404005888

 2017-02-06 20:45:11.941224+01 | 1486410311.94122 | 70/52E88C20              |          482427309088

 2017-02-06 20:45:13.004447+01 | 1486410313.00445 | 70/542BDB80              |          482448497536

 2017-02-06 20:45:14.07131+01 | 1486410314.07131 | 70/55512910              |          482467719440

 2017-02-06 20:45:15.146004+01 | 1486410315.146 | 70/56860568              |          482487960936

 2017-02-06 20:45:16.232685+01 | 1486410316.23269 | 70/57F18800              |          482511783936

 2017-02-06 20:45:17.314399+01 | 1486410317.3144 | 70/597A9BA8              |          482537544616

 2017-02-06 20:45:18.393664+01 | 1486410318.39366 | 70/5B0C0F38              |          482563854136

 2017-02-06 20:45:19.482641+01 | 1486410319.48264 | 70/5C7B3BB0              |          482587917232

 2017-02-06 20:45:20.563469+01 | 1486410320.56347 | 70/5DF5FA68              |          482612738664

 2017-02-06 20:45:21.649107+01 | 1486410321.64911 | 70/5F7C7BA0              |          482638330784

 2017-02-06 20:45:22.730266+01 | 1486410322.73027 | 70/60E4B4F8              |          482661938424

 2017-02-06 20:45:23.811196+01 | 1486410323.8112 | 70/625D7328              |          482686628648

 2017-02-06 20:45:24.897166+01 | 1486410324.89717 | 70/63C93018              |          482710466584

 2017-02-06 20:45:25.972414+01 | 1486410325.97241 | 70/652C50C0              |          482733740224

 2017-02-06 20:45:27.07038+01 | 1486410327.07038 | 70/66B900B8              |          482759737528

 2017-02-06 20:45:28.167445+01 | 1486410328.16744 | 70/68246690              |          482783553168

 2017-02-06 20:45:29.259716+01 | 1486410329.25972 | 70/699F7660              |          482808395360

 2017-02-06 20:45:30.342613+01 | 1486410330.34261 | 70/6B104E28              |          482832567848

 2017-02-06 20:45:31.418346+01 | 1486410331.41835 | 70/6C4DF0C8              |          482853384392

 2017-02-06 20:45:32.500048+01 | 1486410332.50005 | 70/6DB76738              |          482877073208

 2017-02-06 20:45:33.583219+01 | 1486410333.58322 | 70/6F129008              |          482899824648

 2017-02-06 20:45:34.666704+01 | 1486410334.6667 | 70/7055EDB0              |          482921016752

 2017-02-06 20:45:35.746403+01 | 1486410335.7464 | 70/71AED348              |          482943619912

 2017-02-06 20:45:36.824637+01 | 1486410336.82464 | 70/72FEEE10              |          482965646864

 2017-02-06 20:45:37.895921+01 | 1486410337.89592 | 70/7444EF80              |          482987011968

 2017-02-06 20:45:39.003481+01 | 1486410339.00348 | 70/759B7808              |          483009460232

 2017-02-06 20:45:40.0875+01 | 1486410340.0875 | 70/76E3F0B8              |          483030986936

 2017-02-06 20:45:41.152022+01 | 1486410341.15202 | 70/781D9490              |          483051541648

 2017-02-06 20:45:42.241694+01 | 1486410342.24169 | 70/795D3ED8              |          483072491224

 2017-02-06 20:45:43.319643+01 | 1486410343.31964 | 70/7A9BF5A0              |          483093378464

 2017-02-06 20:45:44.399389+01 | 1486410344.39939 | 70/7BDCF208              |          483114414600

 2017-02-06 20:45:45.482919+01 | 1486410345.48292 | 70/7D096F90              |          483134107536

 2017-02-06 20:45:46.548272+01 | 1486410346.54827 | 70/7E51C440              |          483155625024

 2017-02-06 20:45:47.633062+01 | 1486410347.63306 | 70/7F875258              |          483175912024

 2017-02-06 20:45:48.713626+01 | 1486410348.71363 | 70/80CF5438              |          483197408312

 2017-02-06 20:45:49.796894+01 | 1486410349.79689 | 70/8235E480              |          483220907136

 2017-02-06 20:45:50.878786+01 | 1486410350.87879 | 70/83C38978              |          483246967160

 2017-02-06 20:45:51.961143+01 | 1486410351.96114 | 70/857893C8              |          483275609032

 2017-02-06 20:45:53.067326+01 | 1486410353.06733 | 70/873D28C0              |          483305269440

 2017-02-06 20:45:54.172668+01 | 1486410354.17267 | 70/89378140              |          483338453312

 2017-02-06 20:45:55.261613+01 | 1486410355.26161 | 70/8B668DC8              |          483375091144

 2017-02-06 20:45:56.346795+01 | 1486410356.3468 | 70/8D320808              |          483405203464

 2017-02-06 20:45:57.426266+01 | 1486410357.42627 | 70/8EBBF2C0              |          483431019200

 2017-02-06 20:45:58.507864+01 | 1486410358.50786 | 70/8FF7FE60              |          483451731552

 2017-02-06 20:45:59.586659+01 | 1486410359.58666 | 70/911E05E8              |          483471001064

 2017-02-06 20:46:00.667465+01 | 1486410360.66746 | 70/923EF198              |          483489935768

 2017-02-06 20:46:01.741214+01 | 1486410361.74121 | 70/93599AB0              |          483508460208

 2017-02-06 20:46:02.821746+01 | 1486410362.82175 | 70/9476D790              |          483527153552

 2017-02-06 20:46:03.905379+01 | 1486410363.90538 | 70/9596E648              |          483546031688

 2017-02-06 20:46:04.99385+01 | 1486410364.99385 | 70/96C89F08              |          483566067464

 2017-02-06 20:46:06.093471+01 | 1486410366.09347 | 70/97EF6BE0              |          483585387488

 2017-02-06 20:46:07.176104+01 | 1486410367.1761 | 70/990C62C8              |          483604062920

 2017-02-06 20:46:08.269456+01 | 1486410368.26946 | 70/9A292E70              |          483622727280

 2017-02-06 20:46:09.351374+01 | 1486410369.35137 | 70/9B3BB1C0              |          483640717760

 2017-02-06 20:46:10.416507+01 | 1486410370.41651 | 70/9C3E95E8              |          483657684456

 2017-02-06 20:46:11.497802+01 | 1486410371.4978 | 70/9D5F8638              |          483676620344

 2017-02-06 20:46:12.572712+01 | 1486410372.57271 | 70/9E6293B0              |          483693597616

 2017-02-06 20:46:13.664326+01 | 1486410373.66433 | 70/9F7BD030              |          483712028720

 2017-02-06 20:46:14.745547+01 | 1486410374.74555 | 70/A08940E0              |          483729686752

 2017-02-06 20:46:15.830187+01 | 1486410375.83019 | 70/A1AA0C50              |          483748613200

 2017-02-06 20:46:16.920554+01 | 1486410376.92055 | 70/A2BDECA8              |          483766693032

 2017-02-06 20:46:18.001311+01 | 1486410378.00131 | 70/A3BA93A8              |          483783250856

 2017-02-06 20:46:19.094168+01 | 1486410379.09417 | 70/A4C9D858              |          483801028696

 2017-02-06 20:46:20.175405+01 | 1486410380.17541 | 70/A5D41D60              |          483818478944

 2017-02-06 20:46:21.241873+01 | 1486410381.24187 | 70/A6D8FA58              |          483835574872

 2017-02-06 20:46:22.331236+01 | 1486410382.33124 | 70/A7D65080              |          483852177536

 2017-02-06 20:46:23.414459+01 | 1486410383.41446 | 70/A8DFBA10              |          483869571600

 2017-02-06 20:46:24.4944+01 | 1486410384.4944 | 70/A9DE5428              |          483886257192

 2017-02-06 20:46:25.57273+01 | 1486410385.57273 | 70/AAE19E20              |          483903249952

 2017-02-06 20:46:26.655773+01 | 1486410386.65577 | 70/ABE4BDE8              |          483920231912

 2017-02-06 20:46:27.742363+01 | 1486410387.74236 | 70/ACF8A858              |          483938314328

 2017-02-06 20:46:28.824496+01 | 1486410388.8245 | 70/ADEF0EC0              |          483954462400

 2017-02-06 20:46:29.906718+01 | 1486410389.90672 | 70/AEDF4F50              |          483970207568

 2017-02-06 20:46:30.992651+01 | 1486410390.99265 | 70/AFEDFD28              |          483987946792

 2017-02-06 20:46:32.068066+01 | 1486410392.06807 | 70/B0E4DCB8              |          484004125880

 2017-02-06 20:46:33.164441+01 | 1486410393.16444 | 70/B1DF6B10              |          484020546320

 2017-02-06 20:46:34.25806+01 | 1486410394.25806 | 70/B2C21DD0              |          484035403216

 2017-02-06 20:46:35.349446+01 | 1486410395.34945 | 70/B3D3B920              |          484053334304

 2017-02-06 20:46:36.431839+01 | 1486410396.43184 | 70/B4C634B8              |          484069225656

 2017-02-06 20:46:37.496131+01 | 1486410397.49613 | 70/B5A61930              |          484083898672

 2017-02-06 20:46:38.579553+01 | 1486410398.57955 | 70/B6A561A0              |          484100628896

 2017-02-06 20:46:39.652758+01 | 1486410399.65276 | 70/B79A6B10              |          484116687632

 2017-02-06 20:46:40.741145+01 | 1486410400.74114 | 70/B88EC1B0              |          484132700592

 2017-02-06 20:46:41.826176+01 | 1486410401.82618 | 70/B9735240              |          484147679808

 2017-02-06 20:46:42.912124+01 | 1486410402.91212 | 70/BA656F00              |          484163546880

 2017-02-06 20:46:43.993172+01 | 1486410403.99317 | 70/BB5698D0              |          484179351760

 2017-02-06 20:46:45.087643+01 | 1486410405.08764 | 70/BC39B488              |          484194235528

 2017-02-06 20:46:46.174369+01 | 1486410406.17437 | 70/BD3E0070              |          484211294320

 2017-02-06 20:46:47.264826+01 | 1486410407.26483 | 70/BE2CEDD0              |          484226952656

 2017-02-06 20:46:48.358065+01 | 1486410408.35806 | 70/BF27B188              |          484243386760

 2017-02-06 20:46:49.445738+01 | 1486410409.44574 | 70/C0401C80              |          484261764224

 2017-02-06 20:46:50.518592+01 | 1486410410.51859 | 70/C1770A58              |          484282141272

 2017-02-06 20:46:51.609586+01 | 1486410411.60959 | 70/C2C48E00              |          484303998464

 2017-02-06 20:46:52.691996+01 | 1486410412.692 | 70/C43266F8              |          484327974648

 2017-02-06 20:46:53.792655+01 | 1486410413.79265 | 70/C5DCA9C0              |          484355910080

 2017-02-06 20:46:54.881858+01 | 1486410414.88186 | 70/C7818BB8              |          484383493048

 2017-02-06 20:46:55.973964+01 | 1486410415.97396 | 70/C92F6A88              |          484411665032

 2017-02-06 20:46:57.063357+01 | 1486410417.06336 | 70/CB2C5FB0              |          484445020080

 2017-02-06 20:46:58.152414+01 | 1486410418.15241 | 70/CC9724E0              |          484468794592

 2017-02-06 20:46:59.240054+01 | 1486410419.24005 | 70/CD765838              |          484483422264

 2017-02-06 20:47:00.329129+01 | 1486410420.32913 | 70/CE782D10              |          484500319504

 2017-02-06 20:47:01.410822+01 | 1486410421.41082 | 70/CF5ED100              |          484515434752

 2017-02-06 20:47:02.494952+01 | 1486410422.49495 | 70/D0529B98              |          484531411864

 2017-02-06 20:47:03.579177+01 | 1486410423.57918 | 70/D13BC7B8              |          484546693048

 2017-02-06 20:47:04.661056+01 | 1486410424.66106 | 70/D223E480              |          484561904768

 2017-02-06 20:47:05.748836+01 | 1486410425.74884 | 70/D3191B08              |          484577975048

 2017-02-06 20:47:06.815042+01 | 1486410426.81504 | 70/D3F455C0              |          484592342464

 2017-02-06 20:47:07.902187+01 | 1486410427.90219 | 70/D4E84D38              |          484608331064

 2017-02-06 20:47:08.97641+01 | 1486410428.97641 | 70/D5C005B8              |          484622468536

 2017-02-06 20:47:10.06597+01 | 1486410430.06597 | 70/D6A9CCF8              |          484637789432

 2017-02-06 20:47:11.153958+01 | 1486410431.15396 | 70/D77CF4C8              |          484651627720

