 2017-02-04 21:31:31.833976+01 | 1486240291.83398 | 2E/B705CEE0              |          200639106784

 2017-02-04 21:31:32.924908+01 | 1486240292.92491 | 2E/C51EF130              |          200875634992

 2017-02-04 21:31:34.016838+01 | 1486240294.01684 | 2E/D39FD218              |          201118962200

 2017-02-04 21:31:35.087855+01 | 1486240295.08786 | 2E/E0F99920              |          201342949664

 2017-02-04 21:31:36.172368+01 | 1486240296.17237 | 2E/EF3B8000              |          201582149632

 2017-02-04 21:31:37.25038+01 | 1486240297.25038 | 2E/FCADE888              |          201807751304

 2017-02-04 21:31:38.326454+01 | 1486240298.32645 | 2F/9238D00               |          202016787712

 2017-02-04 21:31:39.403522+01 | 1486240299.40352 | 2F/15227518              |          202218042648

 2017-02-04 21:31:40.480911+01 | 1486240300.48091 | 2F/20027AD0              |          202400496336

 2017-02-04 21:31:41.560313+01 | 1486240301.56031 | 2F/2A725D68              |          202575601000

 2017-02-04 21:31:42.636021+01 | 1486240302.63602 | 2F/34B2BF40              |          202747592512

 2017-02-04 21:31:43.713081+01 | 1486240303.71308 | 2F/3E2BDFC8              |          202906525640

 2017-02-04 21:31:44.787723+01 | 1486240304.78772 | 2F/47350000              |          203058118656

 2017-02-04 21:31:45.864687+01 | 1486240305.86469 | 2F/50007948              |          203205671240

 2017-02-04 21:31:46.940311+01 | 1486240306.94031 | 2F/585516E8              |          203345434344

 2017-02-04 21:31:48.012765+01 | 1486240308.01276 | 2F/5FC1AAF0              |          203469990640

 2017-02-04 21:31:49.086991+01 | 1486240309.08699 | 2F/67337DE0              |          203594890720

 2017-02-04 21:31:50.161677+01 | 1486240310.16168 | 2F/6E9C6758              |          203719206744

 2017-02-04 21:31:51.237767+01 | 1486240311.23777 | 2F/75AB5E80              |          203837628032

 2017-02-04 21:31:52.314092+01 | 1486240312.31409 | 2F/7C5374E0              |          203949307104

 2017-02-04 21:31:53.388001+01 | 1486240313.388 | 2F/82D55A68              |          204058483304

 2017-02-04 21:31:54.461105+01 | 1486240314.46111 | 2F/894DE708              |          204167046920

 2017-02-04 21:31:55.535941+01 | 1486240315.53594 | 2F/8F710E20              |          204270013984

 2017-02-04 21:31:56.609117+01 | 1486240316.60912 | 2F/954A14A0              |          204368123040

 2017-02-04 21:31:57.688954+01 | 1486240317.68895 | 2F/9AC0E7F8              |          204459796472

 2017-02-04 21:31:58.764958+01 | 1486240318.76496 | 2F/A0035750              |          204548036432

 2017-02-04 21:31:59.83646+01 | 1486240319.83646 | 2F/A4DD2AD8              |          204629420760

 2017-02-04 21:32:00.908016+01 | 1486240320.90802 | 2F/A99819D8              |          204708780504

 2017-02-04 21:32:01.983136+01 | 1486240321.98314 | 2F/AD67F3D8              |          204772733912

 2017-02-04 21:32:03.057202+01 | 1486240323.0572 | 2F/B1D37F70              |          204846890864

 2017-02-04 21:32:04.133502+01 | 1486240324.1335 | 2F/B64F9D78              |          204922133880

 2017-02-04 21:32:05.203367+01 | 1486240325.20337 | 2F/BAB41058              |          204995825752

 2017-02-04 21:32:06.281861+01 | 1486240326.28186 | 2F/BF160F90              |          205069356944

 2017-02-04 21:32:07.356007+01 | 1486240327.35601 | 2F/C3483E10              |          205139754512

 2017-02-04 21:32:08.431402+01 | 1486240328.4314 | 2F/C7A45630              |          205212898864

 2017-02-04 21:32:09.508228+01 | 1486240329.50823 | 2F/CBF9BD28              |          205285604648

 2017-02-04 21:32:10.584776+01 | 1486240330.58478 | 2F/D02E10B0              |          205356142768

 2017-02-04 21:32:11.662522+01 | 1486240331.66252 | 2F/D46CA6F8              |          205427353336

 2017-02-04 21:32:12.739027+01 | 1486240332.73903 | 2F/D8B3C338              |          205499122488

 2017-02-04 21:32:13.81752+01 | 1486240333.81752 | 2F/DCD7B0A0              |          205568585888

 2017-02-04 21:32:14.894676+01 | 1486240334.89468 | 2F/E0D9C3D8              |          205635830744

 2017-02-04 21:32:15.969728+01 | 1486240335.96973 | 2F/E4DDB688              |          205703198344

 2017-02-04 21:32:17.044123+01 | 1486240337.04412 | 2F/E8E8FE98              |          205771046552

 2017-02-04 21:32:18.116157+01 | 1486240338.11616 | 2F/ECCE50C8              |          205836406984

 2017-02-04 21:32:19.185909+01 | 1486240339.18591 | 2F/F03AC1F0              |          205893845488

 2017-02-04 21:32:20.263861+01 | 1486240340.26386 | 2F/F409B348              |          205957758464

 2017-02-04 21:32:21.338372+01 | 1486240341.33837 | 2F/F7943888              |          206017149064

 2017-02-04 21:32:22.41687+01 | 1486240342.41687 | 2F/FB5EA3E0              |          206080746464

 2017-02-04 21:32:23.491082+01 | 1486240343.49108 | 2F/FEEF51C0              |          206140559808

 2017-02-04 21:32:24.563133+01 | 1486240344.56313 | 30/2876AB0               |          206200859312

 2017-02-04 21:32:25.63922+01 | 1486240345.63922 | 30/61DB278               |          206261039736

 2017-02-04 21:32:26.718966+01 | 1486240346.71897 | 30/98E0248               |          206318731848

 2017-02-04 21:32:27.798291+01 | 1486240347.79829 | 30/CA4ABB8               |          206370548664

 2017-02-04 21:32:28.869239+01 | 1486240348.86924 | 30/FFA3AA0               |          206426487456

 2017-02-04 21:32:29.944209+01 | 1486240349.94421 | 30/135ECFF0              |          206483410928

 2017-02-04 21:32:31.024756+01 | 1486240351.02476 | 30/16B794E8              |          206539560168

 2017-02-04 21:32:32.102479+01 | 1486240352.10248 | 30/1A099690              |          206595266192

 2017-02-04 21:32:33.182+01 | 1486240353.182 | 30/1D4ED518              |          206650135832

 2017-02-04 21:32:34.254475+01 | 1486240354.25448 | 30/20818CE0              |          206703791328

 2017-02-04 21:32:35.326968+01 | 1486240355.32697 | 30/23408620              |          206749861408

 2017-02-04 21:32:36.405154+01 | 1486240356.40515 | 30/26776068              |          206803787880

 2017-02-04 21:32:37.486866+01 | 1486240357.48687 | 30/29725DC0              |          206853791168

 2017-02-04 21:32:38.556473+01 | 1486240358.55647 | 30/2C777E50              |          206904458832

 2017-02-04 21:32:39.632395+01 | 1486240359.6324 | 30/2F6BB9C0              |          206954019264

 2017-02-04 21:32:40.70777+01 | 1486240360.70777 | 30/32301C78              |          207000444024

 2017-02-04 21:32:41.779786+01 | 1486240361.77979 | 30/34A1E478              |          207041455224

 2017-02-04 21:32:42.852033+01 | 1486240362.85203 | 30/37416C48              |          207085464648

 2017-02-04 21:32:43.923699+01 | 1486240363.9237 | 30/39E9C910              |          207130052880

 2017-02-04 21:32:44.99988+01 | 1486240364.99988 | 30/3C983620              |          207175038496

 2017-02-04 21:32:46.074487+01 | 1486240366.07449 | 30/3F3A7508              |          207219225864

 2017-02-04 21:32:47.148072+01 | 1486240367.14807 | 30/41DED4E0              |          207263552736

 2017-02-04 21:32:48.22153+01 | 1486240368.22153 | 30/4469DC00              |          207306218496

 2017-02-04 21:32:49.295401+01 | 1486240369.2954 | 30/470A7330              |          207350297392

 2017-02-04 21:32:50.36922+01 | 1486240370.36922 | 30/49AE2A20              |          207394581024

 2017-02-04 21:32:51.440025+01 | 1486240371.44003 | 30/4C24F440              |          207435920448

 2017-02-04 21:32:52.516434+01 | 1486240372.51643 | 30/4EE869F0              |          207482284528

 2017-02-04 21:32:53.589596+01 | 1486240373.5896 | 30/518B3B38              |          207526509368

 2017-02-04 21:32:54.668312+01 | 1486240374.66831 | 30/544EB220              |          207572873760

 2017-02-04 21:32:55.740704+01 | 1486240375.7407 | 30/57133BC8              |          207619308488

 2017-02-04 21:32:56.815002+01 | 1486240376.815 | 30/59B9AE00              |          207663771136

 2017-02-04 21:32:57.88804+01 | 1486240377.88804 | 30/5C511478              |          207707247736

 2017-02-04 21:32:58.969638+01 | 1486240378.96964 | 30/5ECF75F0              |          207749084656

 2017-02-04 21:33:00.041599+01 | 1486240380.0416 | 30/61595188              |          207791673736

 2017-02-04 21:33:01.120069+01 | 1486240381.12007 | 30/63E48A68              |          207834352232

 2017-02-04 21:33:02.196976+01 | 1486240382.19698 | 30/66907958              |          207879174488

 2017-02-04 21:33:03.272277+01 | 1486240383.27228 | 30/6903FA18              |          207920298520

 2017-02-04 21:33:04.351425+01 | 1486240384.35142 | 30/6B82CC78              |          207962164344

 2017-02-04 21:33:05.424611+01 | 1486240385.42461 | 30/6DFDEF08              |          208003788552

 2017-02-04 21:33:06.497866+01 | 1486240386.49787 | 30/7074B820              |          208045127712

 2017-02-04 21:33:07.574735+01 | 1486240387.57473 | 30/72B1A808              |          208082675720

 2017-02-04 21:33:08.660032+01 | 1486240388.66003 | 30/75240A78              |          208123726456

 2017-02-04 21:33:09.735942+01 | 1486240389.73594 | 30/77977958              |          208164845912

 2017-02-04 21:33:10.807765+01 | 1486240390.80777 | 30/7A00FFD8              |          208205316056

 2017-02-04 21:33:11.880943+01 | 1486240391.88094 | 30/7C6F90D8              |          208246116568

 2017-02-04 21:33:12.956784+01 | 1486240392.95678 | 30/7EC13FC0              |          208285024192

 2017-02-04 21:33:14.033914+01 | 1486240394.03391 | 30/811DEF98              |          208324652952

 2017-02-04 21:33:15.107653+01 | 1486240395.10765 | 30/837DFD50              |          208364503496

 2017-02-04 21:33:16.183836+01 | 1486240396.18384 | 30/85D832D8              |          208403968728

 2017-02-04 21:33:17.257118+01 | 1486240397.25712 | 30/882CE810              |          208443074576

 2017-02-04 21:33:18.332828+01 | 1486240398.33283 | 30/8A854A70              |          208482421360

 2017-02-04 21:33:19.408045+01 | 1486240399.40805 | 30/8CD509B8              |          208521202104

 2017-02-04 21:33:20.482704+01 | 1486240400.4827 | 30/8F0878E0              |          208558127328

 2017-02-04 21:33:21.54907+01 | 1486240401.54907 | 30/913B5878              |          208595015800

 2017-02-04 21:33:22.624543+01 | 1486240402.62454 | 30/93C30098              |          208637460632

 2017-02-04 21:33:23.697697+01 | 1486240403.6977 | 30/9609F600              |          208675665408

 2017-02-04 21:33:24.775406+01 | 1486240404.77541 | 30/9817A128              |          208710115624

 2017-02-04 21:33:25.852093+01 | 1486240405.85209 | 30/9A432A20              |          208746523168

 2017-02-04 21:33:26.9337+01 | 1486240406.9337 | 30/9C737EE8              |          208783245032

 2017-02-04 21:33:28.012645+01 | 1486240408.01265 | 30/9EAC6310              |          208820527888

 2017-02-04 21:33:29.085433+01 | 1486240409.08543 | 30/A0E48AD0              |          208857762512

 2017-02-04 21:33:30.16012+01 | 1486240410.16012 | 30/A2E539B0              |          208891361712

 2017-02-04 21:33:31.234438+01 | 1486240411.23444 | 30/A51C6238              |          208928531000

 2017-02-04 21:33:32.309338+01 | 1486240412.30934 | 30/A7478C60              |          208964914272

 2017-02-04 21:33:33.389613+01 | 1486240413.38961 | 30/A967FD50              |          209000594768

 2017-02-04 21:33:34.464605+01 | 1486240414.46461 | 30/AB893E20              |          209036328480

 2017-02-04 21:33:35.540055+01 | 1486240415.54006 | 30/AD9EDEB0              |          209071300272

 2017-02-04 21:33:36.615118+01 | 1486240416.61512 | 30/AFBDC618              |          209106880024

 2017-02-04 21:33:37.689954+01 | 1486240417.68995 | 30/B1CCB818              |          209141413912

 2017-02-04 21:33:38.767711+01 | 1486240418.76771 | 30/B3E194F8              |          209176335608

 2017-02-04 21:33:39.843543+01 | 1486240419.84354 | 30/B5D94A30              |          209209346608

 2017-02-04 21:33:40.913707+01 | 1486240420.91371 | 30/B7DEE480              |          209243268224

 2017-02-04 21:33:41.988467+01 | 1486240421.98847 | 30/B9D95190              |          209276457360

 2017-02-04 21:33:43.064989+01 | 1486240423.06499 | 30/BBC49A38              |          209308654136

 2017-02-04 21:33:44.148224+01 | 1486240424.14822 | 30/BDA47248              |          209340101192

 2017-02-04 21:33:45.22388+01 | 1486240425.22388 | 30/BF9B9A78              |          209373076088

 2017-02-04 21:33:46.304173+01 | 1486240426.30417 | 30/C17BE7B0              |          209404553136

 2017-02-04 21:33:47.381222+01 | 1486240427.38122 | 30/C385ACA0              |          209438747808

 2017-02-04 21:33:48.457547+01 | 1486240428.45755 | 30/C57F3988              |          209471879560

 2017-02-04 21:33:49.532431+01 | 1486240429.53243 | 30/C77E7628              |          209505383976

 2017-02-04 21:33:50.604759+01 | 1486240430.60476 | 30/C967E768              |          209537460072

 2017-02-04 21:33:51.679446+01 | 1486240431.67945 | 30/CB420790              |          209568532368

 2017-02-04 21:33:52.758629+01 | 1486240432.75863 | 30/CD325980              |          209601059200

 2017-02-04 21:33:53.835364+01 | 1486240433.83536 | 30/CF192540              |          209632961856

 2017-02-04 21:33:54.908123+01 | 1486240434.90812 | 30/D100B050              |          209664913488

 2017-02-04 21:33:55.98571+01 | 1486240435.98571 | 30/D2E0D6A0              |          209696380576

 2017-02-04 21:33:57.061743+01 | 1486240437.06174 | 30/D4C80560              |          209728308576

 2017-02-04 21:33:58.137679+01 | 1486240438.13768 | 30/D6A33DE8              |          209759452648

 2017-02-04 21:33:59.212282+01 | 1486240439.21228 | 30/D8887450              |          209791251536

 2017-02-04 21:34:00.285559+01 | 1486240440.28556 | 30/DA69F080              |          209822806144

 2017-02-04 21:34:01.35645+01 | 1486240441.35645 | 30/DC390D70              |          209853156720

 2017-02-04 21:34:02.4338+01 | 1486240442.4338 | 30/DE0F1AB0              |          209883962032

 2017-02-04 21:34:03.508815+01 | 1486240443.50882 | 30/DFDF3F38              |          209914380088

 2017-02-04 21:34:04.583581+01 | 1486240444.58358 | 30/E1B00308              |          209944838920

 2017-02-04 21:34:05.656373+01 | 1486240445.65637 | 30/E351B000              |          209972211712

 2017-02-04 21:34:06.732738+01 | 1486240446.73274 | 30/E5136AD0              |          210001685200

 2017-02-04 21:34:07.80238+01 | 1486240447.80238 | 30/E6D4B818              |          210031130648

 2017-02-04 21:34:08.87352+01 | 1486240448.87352 | 30/E89911F8              |          210060775928

 2017-02-04 21:34:09.949687+01 | 1486240449.94969 | 30/EA476AC0              |          210088979136

 2017-02-04 21:34:11.023978+01 | 1486240451.02398 | 30/EC17F2B8              |          210119422648

 2017-02-04 21:34:12.10372+01 | 1486240452.10372 | 30/EDC7A790              |          210147714960

 2017-02-04 21:34:13.17711+01 | 1486240453.17711 | 30/EF648FB8              |          210174775224

 2017-02-04 21:34:14.249821+01 | 1486240454.24982 | 30/F104CA70              |          210202053232

 2017-02-04 21:34:15.321861+01 | 1486240455.32186 | 30/F29856A8              |          210228500136

 2017-02-04 21:34:16.393598+01 | 1486240456.3936 | 30/F40CC6D0              |          210252908240

 2017-02-04 21:34:17.469515+01 | 1486240457.46952 | 30/F5989238              |          210278847032

 2017-02-04 21:34:18.546049+01 | 1486240458.54605 | 30/F715D1E0              |          210303832544

 2017-02-04 21:34:19.619719+01 | 1486240459.61972 | 30/F8C096A0              |          210331801248

 2017-02-04 21:34:20.693923+01 | 1486240460.69392 | 30/FA67FB20              |          210359548704

 2017-02-04 21:34:21.759771+01 | 1486240461.75977 | 30/FC27A958              |          210388887896

 2017-02-04 21:34:22.837032+01 | 1486240462.83703 | 30/FE227A80              |          210422102656

 2017-02-04 21:34:23.912377+01 | 1486240463.91238 | 30/FFC97330              |          210449822512

 2017-02-04 21:34:24.985459+01 | 1486240464.98546 | 31/178E508               |          210478097672

 2017-02-04 21:34:26.066562+01 | 1486240466.06656 | 31/3299BD0               |          210506456016

 2017-02-04 21:34:27.143197+01 | 1486240467.1432 | 31/49B97A8               |          210530703272

 2017-02-04 21:34:28.216815+01 | 1486240468.21681 | 31/64D7C90               |          210559138960

 2017-02-04 21:34:29.284959+01 | 1486240469.28496 | 31/7F7E438               |          210587083832

 2017-02-04 21:34:30.360865+01 | 1486240470.36087 | 31/9A029A0               |          210614888864

 2017-02-04 21:34:31.432329+01 | 1486240471.43233 | 31/B3A58F0               |          210641770736

 2017-02-04 21:34:32.507352+01 | 1486240472.50735 | 31/CC4D2E0               |          210667623136

 2017-02-04 21:34:33.587197+01 | 1486240473.5872 | 31/E5AE5E0               |          210694235616

 2017-02-04 21:34:34.664075+01 | 1486240474.66407 | 31/FFA89B0               |          210721474992

 2017-02-04 21:34:35.737834+01 | 1486240475.73783 | 31/11997620              |          210748667424

 2017-02-04 21:34:36.811417+01 | 1486240476.81142 | 31/133135B0              |          210775389616

 2017-02-04 21:34:37.886548+01 | 1486240477.88655 | 31/14C1E4C8              |          210801648840

 2017-02-04 21:34:38.958249+01 | 1486240478.95825 | 31/1650CAA8              |          210827791016

 2017-02-04 21:34:40.036531+01 | 1486240480.03653 | 31/17DE46E8              |          210853840616

 2017-02-04 21:34:41.114476+01 | 1486240481.11448 | 31/195CB300              |          210878903040

 2017-02-04 21:34:42.185083+01 | 1486240482.18508 | 31/1AC23EB0              |          210902335152

 2017-02-04 21:34:43.258075+01 | 1486240483.25807 | 31/1C1F2148              |          210925199688

 2017-02-04 21:34:44.328363+01 | 1486240484.32836 | 31/1D867740              |          210948749120

 2017-02-04 21:34:45.40113+01 | 1486240485.40113 | 31/1ED72D50              |          210970815824

 2017-02-04 21:34:46.474611+01 | 1486240486.47461 | 31/20287D30              |          210992921904

 2017-02-04 21:34:47.550384+01 | 1486240487.55038 | 31/2184D650              |          211015751248

 2017-02-04 21:34:48.623247+01 | 1486240488.62325 | 31/22DADA10              |          211038165520

 2017-02-04 21:34:49.695782+01 | 1486240489.69578 | 31/241CC470              |          211059262576

 2017-02-04 21:34:50.77234+01 | 1486240490.77234 | 31/25660130              |          211080839472

 2017-02-04 21:34:51.847771+01 | 1486240491.84777 | 31/26A9E3F8              |          211102065656

 2017-02-04 21:34:52.927851+01 | 1486240492.92785 | 31/27EBD338              |          211123163960

 2017-02-04 21:34:54.002536+01 | 1486240494.00254 | 31/29698F58              |          211148181336

 2017-02-04 21:34:55.080266+01 | 1486240495.08027 | 31/2AD5E4F0              |          211172058352

 2017-02-04 21:34:56.154994+01 | 1486240496.15499 | 31/2C5096D8              |          211196876504

 2017-02-04 21:34:57.228492+01 | 1486240497.22849 | 31/2DCC9F88              |          211221782408

 2017-02-04 21:34:58.302185+01 | 1486240498.30219 | 31/2F403BC0              |          211246136256

 2017-02-04 21:34:59.377261+01 | 1486240499.37726 | 31/309C41B8              |          211268944312

 2017-02-04 21:35:00.450429+01 | 1486240500.45043 | 31/32067C00              |          211292683264

 2017-02-04 21:35:01.525406+01 | 1486240501.52541 | 31/337B3C40              |          211317111872

 2017-02-04 21:35:02.599023+01 | 1486240502.59902 | 31/34E59508              |          211340858632

 2017-02-04 21:35:03.673594+01 | 1486240503.67359 | 31/3640EB50              |          211363621712

 2017-02-04 21:35:04.750435+01 | 1486240504.75044 | 31/37B38EC0              |          211387911872

 2017-02-04 21:35:05.830547+01 | 1486240505.83055 | 31/3917F7C8              |          211411269576

 2017-02-04 21:35:06.90568+01 | 1486240506.90568 | 31/3A8AC238              |          211435569720

 2017-02-04 21:35:07.981188+01 | 1486240507.98119 | 31/3BDE3148              |          211457814856

 2017-02-04 21:35:09.057066+01 | 1486240509.05707 | 31/3D496D90              |          211481619856

 2017-02-04 21:35:10.130342+01 | 1486240510.13034 | 31/3EAB4310              |          211504808720

 2017-02-04 21:35:11.207682+01 | 1486240511.20768 | 31/400893C0              |          211527701440

 2017-02-04 21:35:12.285368+01 | 1486240512.28537 | 31/4176ADC0              |          211551694272

 2017-02-04 21:35:13.359439+01 | 1486240513.35944 | 31/42D833A8              |          211574862760

 2017-02-04 21:35:14.432337+01 | 1486240514.43234 | 31/44412C10              |          211598519312

 2017-02-04 21:35:15.50223+01 | 1486240515.50223 | 31/459D86D8              |          211621349080

 2017-02-04 21:35:16.582024+01 | 1486240516.58202 | 31/46FC7F30              |          211644350256

 2017-02-04 21:35:17.650523+01 | 1486240517.65052 | 31/485CC798              |          211667437464

 2017-02-04 21:35:18.725007+01 | 1486240518.72501 | 31/49CB6028              |          211691462696

 2017-02-04 21:35:19.799768+01 | 1486240519.79977 | 31/4B34A280              |          211715138176

 2017-02-04 21:35:20.871751+01 | 1486240520.87175 | 31/4C8C3398              |          211737654168

 2017-02-04 21:35:21.936109+01 | 1486240521.93611 | 31/4E9F58D8              |          211772463320

 2017-02-04 21:35:23.010887+01 | 1486240523.01089 | 31/51228790              |          211814614928

 2017-02-04 21:35:24.089723+01 | 1486240524.08972 | 31/528ED0A0              |          211838488736

 2017-02-04 21:35:25.160563+01 | 1486240525.16056 | 31/54303FF0              |          211865845744

 2017-02-04 21:35:26.239075+01 | 1486240526.23907 | 31/55D176C8              |          211893188296

 2017-02-04 21:35:27.316206+01 | 1486240527.31621 | 31/57697630              |          211919926832

 2017-02-04 21:35:28.390389+01 | 1486240528.39039 | 31/590DE5C8              |          211947480520

 2017-02-04 21:35:29.471053+01 | 1486240529.47105 | 31/5AA3B608              |          211974075912

 2017-02-04 21:35:30.545251+01 | 1486240530.54525 | 31/5C4111B8              |          212001165752

 2017-02-04 21:35:31.621615+01 | 1486240531.62161 | 31/5DEFE8A8              |          212029401256

 2017-02-04 21:35:32.703319+01 | 1486240532.70332 | 31/5FB815D0              |          212059297232

 2017-02-04 21:35:33.77579+01 | 1486240533.77579 | 31/617A7240              |          212088812096

 2017-02-04 21:35:34.850853+01 | 1486240534.85085 | 31/632743D8              |          212116915160

 2017-02-04 21:35:35.921162+01 | 1486240535.92116 | 31/64EF2850              |          212146792528

 2017-02-04 21:35:36.995507+01 | 1486240536.99551 | 31/668022A8              |          212173071016

 2017-02-04 21:35:38.065777+01 | 1486240538.06578 | 31/67BB20A8              |          212193714344

 2017-02-04 21:35:39.146345+01 | 1486240539.14634 | 31/6917CDA0              |          212216565152

 2017-02-04 21:35:40.225622+01 | 1486240540.22562 | 31/6ABFCE60              |          212244352608

 2017-02-04 21:35:41.302758+01 | 1486240541.30276 | 31/6CB90AF0              |          212277463792

 2017-02-04 21:35:42.373259+01 | 1486240542.37326 | 31/6EC0E5E0              |          212311533024

 2017-02-04 21:35:43.45042+01 | 1486240543.45042 | 31/70E998B0              |          212347754672

 2017-02-04 21:35:44.530188+01 | 1486240544.53019 | 31/730491D0              |          212383076816

 2017-02-04 21:35:45.605461+01 | 1486240545.60546 | 31/7536E2B0              |          212419928752

 2017-02-04 21:35:46.681877+01 | 1486240546.68188 | 31/778466B8              |          212458563256

 2017-02-04 21:35:47.758378+01 | 1486240547.75838 | 31/79A1D808              |          212494047240

 2017-02-04 21:35:48.837352+01 | 1486240548.83735 | 31/7BA873E0              |          212528034784

 2017-02-04 21:35:49.916275+01 | 1486240549.91628 | 31/7DE01988              |          212565236104

 2017-02-04 21:35:50.993839+01 | 1486240550.99384 | 31/80081AC8              |          212601412296

 2017-02-04 21:35:52.070828+01 | 1486240552.07083 | 31/822E7628              |          212637480488

 2017-02-04 21:35:53.148886+01 | 1486240553.14889 | 31/8431EF18              |          212671262488

 2017-02-04 21:35:54.224649+01 | 1486240554.22465 | 31/85B08190              |          212696334736

 2017-02-04 21:35:55.303085+01 | 1486240555.30309 | 31/872154F0              |          212720507880

 2017-02-04 21:35:56.381063+01 | 1486240556.38106 | 31/88EE5340              |          212750717760

 2017-02-04 21:35:57.458123+01 | 1486240557.45812 | 31/8ABA9B70              |          212780882800

 2017-02-04 21:35:58.53212+01 | 1486240558.53212 | 31/8C9EC8E0              |          212812613856

 2017-02-04 21:35:59.610164+01 | 1486240559.61016 | 31/8E80BF08              |          212844199688

 2017-02-04 21:36:00.698169+01 | 1486240560.69817 | 31/9054FF28              |          212874886952

 2017-02-04 21:36:01.780587+01 | 1486240561.78059 | 31/921BEF18              |          212904701720

 2017-02-04 21:36:02.856886+01 | 1486240562.85689 | 31/93E282E8              |          212934492904

 2017-02-04 21:36:03.935659+01 | 1486240563.93566 | 31/95C0AAA0              |          212965829280

 2017-02-04 21:36:05.013003+01 | 1486240565.013 | 31/9783CEB0              |          212995395248

 2017-02-04 21:36:06.085006+01 | 1486240566.08501 | 31/9937A408              |          213023958024

 2017-02-04 21:36:07.158146+01 | 1486240567.15815 | 31/9AD62EB8              |          213051125432

 2017-02-04 21:36:08.232703+01 | 1486240568.2327 | 31/9C5C0308              |          213076673288

 2017-02-04 21:36:09.315059+01 | 1486240569.31506 | 31/9DEA0DD0              |          213102759376

 2017-02-04 21:36:10.388691+01 | 1486240570.38869 | 31/9F661D88              |          213127667080

 2017-02-04 21:36:11.464737+01 | 1486240571.46474 | 31/A0B88B48              |          213149846344

 2017-02-04 21:36:12.542325+01 | 1486240572.54233 | 31/A2300A18              |          213174454808

 2017-02-04 21:36:13.619744+01 | 1486240573.61974 | 31/A3963778              |          213197928312

 2017-02-04 21:36:14.698643+01 | 1486240574.69864 | 31/A5019400              |          213221741568

 2017-02-04 21:36:15.77361+01 | 1486240575.77361 | 31/A667D8E0              |          213245221088

 2017-02-04 21:36:16.846756+01 | 1486240576.84676 | 31/A7C06220              |          213267800608

 2017-02-04 21:36:17.923146+01 | 1486240577.92315 | 31/A91A2898              |          213290461336

 2017-02-04 21:36:18.996067+01 | 1486240578.99607 | 31/AA7555C8              |          213313213896

 2017-02-04 21:36:20.072037+01 | 1486240580.07204 | 31/ABCDE8D0              |          213335795920

 2017-02-04 21:36:21.146646+01 | 1486240581.14665 | 31/AD1775E8              |          213357393384

 2017-02-04 21:36:22.209209+01 | 1486240582.20921 | 31/AE697A18              |          213379545624

 2017-02-04 21:36:23.286153+01 | 1486240583.28615 | 31/AF9ECBB0              |          213399817136

 2017-02-04 21:36:24.363298+01 | 1486240584.3633 | 31/B0DE67D8              |          213420763096

 2017-02-04 21:36:25.439318+01 | 1486240585.43932 | 31/B220F2A8              |          213441901224

 2017-02-04 21:36:26.511334+01 | 1486240586.51133 | 31/B35CBB20              |          213462596384

 2017-02-04 21:36:27.587311+01 | 1486240587.58731 | 31/B48FD658              |          213482722904

 2017-02-04 21:36:28.659068+01 | 1486240588.65907 | 31/B5B8C4D8              |          213502182616

 2017-02-04 21:36:29.729604+01 | 1486240589.7296 | 31/B6EE1AF0              |          213522455280

 2017-02-04 21:36:30.805888+01 | 1486240590.80589 | 31/B81B0A28              |          213542177320

