 2017-02-04 14:26:33.167837+01 | 1486214793.16784 | pgbench_branches_pkey |            57344
 2017-02-04 14:26:33.167837+01 | 1486214793.16784 | pgbench_tellers_pkey  |           245760
 2017-02-04 14:26:33.167837+01 | 1486214793.16784 | pgbench_accounts_pkey |        224641024

 2017-02-04 14:26:34.248932+01 | 1486214794.24893 | pgbench_branches_pkey |            57344
 2017-02-04 14:26:34.248932+01 | 1486214794.24893 | pgbench_tellers_pkey  |           245760
 2017-02-04 14:26:34.248932+01 | 1486214794.24893 | pgbench_accounts_pkey |        224641024

 2017-02-04 14:26:35.340408+01 | 1486214795.34041 | pgbench_branches_pkey |            57344
 2017-02-04 14:26:35.340408+01 | 1486214795.34041 | pgbench_tellers_pkey  |           245760
 2017-02-04 14:26:35.340408+01 | 1486214795.34041 | pgbench_accounts_pkey |        224641024

 2017-02-04 14:26:36.433141+01 | 1486214796.43314 | pgbench_branches_pkey |            57344
 2017-02-04 14:26:36.433141+01 | 1486214796.43314 | pgbench_tellers_pkey  |           245760
 2017-02-04 14:26:36.433141+01 | 1486214796.43314 | pgbench_accounts_pkey |        224641024

 2017-02-04 14:26:37.521721+01 | 1486214797.52172 | pgbench_branches_pkey |            57344
 2017-02-04 14:26:37.521721+01 | 1486214797.52172 | pgbench_tellers_pkey  |           245760
 2017-02-04 14:26:37.521721+01 | 1486214797.52172 | pgbench_accounts_pkey |        224641024

 2017-02-04 14:26:38.620218+01 | 1486214798.62022 | pgbench_branches_pkey |            57344
 2017-02-04 14:26:38.620218+01 | 1486214798.62022 | pgbench_tellers_pkey  |           245760
 2017-02-04 14:26:38.620218+01 | 1486214798.62022 | pgbench_accounts_pkey |        224641024

 2017-02-04 14:26:39.706413+01 | 1486214799.70641 | pgbench_branches_pkey |            57344
 2017-02-04 14:26:39.706413+01 | 1486214799.70641 | pgbench_tellers_pkey  |           245760
 2017-02-04 14:26:39.706413+01 | 1486214799.70641 | pgbench_accounts_pkey |        224641024

 2017-02-04 14:26:40.795838+01 | 1486214800.79584 | pgbench_branches_pkey |            57344
 2017-02-04 14:26:40.795838+01 | 1486214800.79584 | pgbench_tellers_pkey  |           245760
 2017-02-04 14:26:40.795838+01 | 1486214800.79584 | pgbench_accounts_pkey |        224641024

 2017-02-04 14:26:41.881231+01 | 1486214801.88123 | pgbench_branches_pkey |            57344
 2017-02-04 14:26:41.881231+01 | 1486214801.88123 | pgbench_tellers_pkey  |           245760
 2017-02-04 14:26:41.881231+01 | 1486214801.88123 | pgbench_accounts_pkey |        224641024

 2017-02-04 14:26:42.963608+01 | 1486214802.96361 | pgbench_branches_pkey |            57344
 2017-02-04 14:26:42.963608+01 | 1486214802.96361 | pgbench_tellers_pkey  |           245760
 2017-02-04 14:26:42.963608+01 | 1486214802.96361 | pgbench_accounts_pkey |        224641024

 2017-02-04 14:26:44.052768+01 | 1486214804.05277 | pgbench_branches_pkey |            57344
 2017-02-04 14:26:44.052768+01 | 1486214804.05277 | pgbench_tellers_pkey  |           245760
 2017-02-04 14:26:44.052768+01 | 1486214804.05277 | pgbench_accounts_pkey |        224641024

 2017-02-04 14:26:45.133518+01 | 1486214805.13352 | pgbench_branches_pkey |            57344
 2017-02-04 14:26:45.133518+01 | 1486214805.13352 | pgbench_tellers_pkey  |           245760
 2017-02-04 14:26:45.133518+01 | 1486214805.13352 | pgbench_accounts_pkey |        224641024

 2017-02-04 14:26:46.208609+01 | 1486214806.20861 | pgbench_branches_pkey |            57344
 2017-02-04 14:26:46.208609+01 | 1486214806.20861 | pgbench_tellers_pkey  |           245760
 2017-02-04 14:26:46.208609+01 | 1486214806.20861 | pgbench_accounts_pkey |        224641024

 2017-02-04 14:26:47.303784+01 | 1486214807.30378 | pgbench_branches_pkey |            57344
 2017-02-04 14:26:47.303784+01 | 1486214807.30378 | pgbench_tellers_pkey  |           245760
 2017-02-04 14:26:47.303784+01 | 1486214807.30378 | pgbench_accounts_pkey |        224641024

 2017-02-04 14:26:48.402964+01 | 1486214808.40296 | pgbench_branches_pkey |            57344
 2017-02-04 14:26:48.402964+01 | 1486214808.40296 | pgbench_tellers_pkey  |           245760
 2017-02-04 14:26:48.402964+01 | 1486214808.40296 | pgbench_accounts_pkey |        224641024

 2017-02-04 14:26:49.487669+01 | 1486214809.48767 | pgbench_branches_pkey |            57344
 2017-02-04 14:26:49.487669+01 | 1486214809.48767 | pgbench_tellers_pkey  |           245760
 2017-02-04 14:26:49.487669+01 | 1486214809.48767 | pgbench_accounts_pkey |        224641024

 2017-02-04 14:26:50.566818+01 | 1486214810.56682 | pgbench_branches_pkey |            57344
 2017-02-04 14:26:50.566818+01 | 1486214810.56682 | pgbench_tellers_pkey  |           245760
 2017-02-04 14:26:50.566818+01 | 1486214810.56682 | pgbench_accounts_pkey |        224641024

 2017-02-04 14:26:51.660357+01 | 1486214811.66036 | pgbench_branches_pkey |            57344
 2017-02-04 14:26:51.660357+01 | 1486214811.66036 | pgbench_tellers_pkey  |           245760
 2017-02-04 14:26:51.660357+01 | 1486214811.66036 | pgbench_accounts_pkey |        224641024

 2017-02-04 14:26:52.756254+01 | 1486214812.75625 | pgbench_branches_pkey |            57344
 2017-02-04 14:26:52.756254+01 | 1486214812.75625 | pgbench_tellers_pkey  |           245760
 2017-02-04 14:26:52.756254+01 | 1486214812.75625 | pgbench_accounts_pkey |        224641024

 2017-02-04 14:26:53.849707+01 | 1486214813.84971 | pgbench_branches_pkey |            57344
 2017-02-04 14:26:53.849707+01 | 1486214813.84971 | pgbench_tellers_pkey  |           245760
 2017-02-04 14:26:53.849707+01 | 1486214813.84971 | pgbench_accounts_pkey |        224641024

 2017-02-04 14:26:54.93621+01 | 1486214814.93621 | pgbench_branches_pkey |            57344
 2017-02-04 14:26:54.93621+01 | 1486214814.93621 | pgbench_tellers_pkey  |           245760
 2017-02-04 14:26:54.93621+01 | 1486214814.93621 | pgbench_accounts_pkey |        224641024

 2017-02-04 14:26:56.021782+01 | 1486214816.02178 | pgbench_branches_pkey |            57344
 2017-02-04 14:26:56.021782+01 | 1486214816.02178 | pgbench_tellers_pkey  |           245760
 2017-02-04 14:26:56.021782+01 | 1486214816.02178 | pgbench_accounts_pkey |        224641024

 2017-02-04 14:26:57.10282+01 | 1486214817.10282 | pgbench_branches_pkey |            57344
 2017-02-04 14:26:57.10282+01 | 1486214817.10282 | pgbench_tellers_pkey  |           245760
 2017-02-04 14:26:57.10282+01 | 1486214817.10282 | pgbench_accounts_pkey |        224641024

 2017-02-04 14:26:58.181276+01 | 1486214818.18128 | pgbench_branches_pkey |            57344
 2017-02-04 14:26:58.181276+01 | 1486214818.18128 | pgbench_tellers_pkey  |           245760
 2017-02-04 14:26:58.181276+01 | 1486214818.18128 | pgbench_accounts_pkey |        224641024

 2017-02-04 14:26:59.261243+01 | 1486214819.26124 | pgbench_branches_pkey |            57344
 2017-02-04 14:26:59.261243+01 | 1486214819.26124 | pgbench_tellers_pkey  |           245760
 2017-02-04 14:26:59.261243+01 | 1486214819.26124 | pgbench_accounts_pkey |        224641024

 2017-02-04 14:27:00.353+01 | 1486214820.353 | pgbench_branches_pkey |            57344
 2017-02-04 14:27:00.353+01 | 1486214820.353 | pgbench_tellers_pkey  |           245760
 2017-02-04 14:27:00.353+01 | 1486214820.353 | pgbench_accounts_pkey |        224641024

 2017-02-04 14:27:01.445047+01 | 1486214821.44505 | pgbench_branches_pkey |            57344
 2017-02-04 14:27:01.445047+01 | 1486214821.44505 | pgbench_tellers_pkey  |           245760
 2017-02-04 14:27:01.445047+01 | 1486214821.44505 | pgbench_accounts_pkey |        224641024

 2017-02-04 14:27:02.532105+01 | 1486214822.5321 | pgbench_branches_pkey |            57344
 2017-02-04 14:27:02.532105+01 | 1486214822.5321 | pgbench_tellers_pkey  |           245760
 2017-02-04 14:27:02.532105+01 | 1486214822.5321 | pgbench_accounts_pkey |        224641024

 2017-02-04 14:27:03.629917+01 | 1486214823.62992 | pgbench_branches_pkey |            57344
 2017-02-04 14:27:03.629917+01 | 1486214823.62992 | pgbench_tellers_pkey  |           245760
 2017-02-04 14:27:03.629917+01 | 1486214823.62992 | pgbench_accounts_pkey |        224641024

 2017-02-04 14:27:04.716545+01 | 1486214824.71655 | pgbench_branches_pkey |            57344
 2017-02-04 14:27:04.716545+01 | 1486214824.71655 | pgbench_tellers_pkey  |           245760
 2017-02-04 14:27:04.716545+01 | 1486214824.71655 | pgbench_accounts_pkey |        224641024

 2017-02-04 14:27:05.804941+01 | 1486214825.80494 | pgbench_branches_pkey |            57344
 2017-02-04 14:27:05.804941+01 | 1486214825.80494 | pgbench_tellers_pkey  |           245760
 2017-02-04 14:27:05.804941+01 | 1486214825.80494 | pgbench_accounts_pkey |        224641024

 2017-02-04 14:27:06.900918+01 | 1486214826.90092 | pgbench_branches_pkey |            57344
 2017-02-04 14:27:06.900918+01 | 1486214826.90092 | pgbench_tellers_pkey  |           245760
 2017-02-04 14:27:06.900918+01 | 1486214826.90092 | pgbench_accounts_pkey |        224641024

 2017-02-04 14:27:07.988908+01 | 1486214827.98891 | pgbench_branches_pkey |            57344
 2017-02-04 14:27:07.988908+01 | 1486214827.98891 | pgbench_tellers_pkey  |           245760
 2017-02-04 14:27:07.988908+01 | 1486214827.98891 | pgbench_accounts_pkey |        224641024

 2017-02-04 14:27:09.075765+01 | 1486214829.07576 | pgbench_branches_pkey |            57344
 2017-02-04 14:27:09.075765+01 | 1486214829.07576 | pgbench_tellers_pkey  |           245760
 2017-02-04 14:27:09.075765+01 | 1486214829.07576 | pgbench_accounts_pkey |        224641024

 2017-02-04 14:27:10.162994+01 | 1486214830.16299 | pgbench_branches_pkey |            57344
 2017-02-04 14:27:10.162994+01 | 1486214830.16299 | pgbench_tellers_pkey  |           245760
 2017-02-04 14:27:10.162994+01 | 1486214830.16299 | pgbench_accounts_pkey |        224641024

 2017-02-04 14:27:11.241407+01 | 1486214831.24141 | pgbench_branches_pkey |            57344
 2017-02-04 14:27:11.241407+01 | 1486214831.24141 | pgbench_tellers_pkey  |           245760
 2017-02-04 14:27:11.241407+01 | 1486214831.24141 | pgbench_accounts_pkey |        224641024

 2017-02-04 14:27:12.317551+01 | 1486214832.31755 | pgbench_branches_pkey |            57344
 2017-02-04 14:27:12.317551+01 | 1486214832.31755 | pgbench_tellers_pkey  |           245760
 2017-02-04 14:27:12.317551+01 | 1486214832.31755 | pgbench_accounts_pkey |        224641024

 2017-02-04 14:27:13.409006+01 | 1486214833.40901 | pgbench_branches_pkey |            57344
 2017-02-04 14:27:13.409006+01 | 1486214833.40901 | pgbench_tellers_pkey  |           245760
 2017-02-04 14:27:13.409006+01 | 1486214833.40901 | pgbench_accounts_pkey |        224641024

 2017-02-04 14:27:14.495384+01 | 1486214834.49538 | pgbench_branches_pkey |            57344
 2017-02-04 14:27:14.495384+01 | 1486214834.49538 | pgbench_tellers_pkey  |           245760
 2017-02-04 14:27:14.495384+01 | 1486214834.49538 | pgbench_accounts_pkey |        224641024

 2017-02-04 14:27:15.587706+01 | 1486214835.58771 | pgbench_branches_pkey |            57344
 2017-02-04 14:27:15.587706+01 | 1486214835.58771 | pgbench_tellers_pkey  |           245760
 2017-02-04 14:27:15.587706+01 | 1486214835.58771 | pgbench_accounts_pkey |        224641024

 2017-02-04 14:27:16.674762+01 | 1486214836.67476 | pgbench_branches_pkey |            57344
 2017-02-04 14:27:16.674762+01 | 1486214836.67476 | pgbench_tellers_pkey  |           245760
 2017-02-04 14:27:16.674762+01 | 1486214836.67476 | pgbench_accounts_pkey |        224641024

 2017-02-04 14:27:17.770151+01 | 1486214837.77015 | pgbench_branches_pkey |            57344
 2017-02-04 14:27:17.770151+01 | 1486214837.77015 | pgbench_tellers_pkey  |           245760
 2017-02-04 14:27:17.770151+01 | 1486214837.77015 | pgbench_accounts_pkey |        224641024

 2017-02-04 14:27:18.857829+01 | 1486214838.85783 | pgbench_branches_pkey |            57344
 2017-02-04 14:27:18.857829+01 | 1486214838.85783 | pgbench_tellers_pkey  |           245760
 2017-02-04 14:27:18.857829+01 | 1486214838.85783 | pgbench_accounts_pkey |        224641024

 2017-02-04 14:27:19.950651+01 | 1486214839.95065 | pgbench_branches_pkey |            57344
 2017-02-04 14:27:19.950651+01 | 1486214839.95065 | pgbench_tellers_pkey  |           245760
 2017-02-04 14:27:19.950651+01 | 1486214839.95065 | pgbench_accounts_pkey |        224641024

 2017-02-04 14:27:21.047913+01 | 1486214841.04791 | pgbench_branches_pkey |            57344
 2017-02-04 14:27:21.047913+01 | 1486214841.04791 | pgbench_tellers_pkey  |           245760
 2017-02-04 14:27:21.047913+01 | 1486214841.04791 | pgbench_accounts_pkey |        224641024

 2017-02-04 14:27:22.129765+01 | 1486214842.12977 | pgbench_branches_pkey |            57344
 2017-02-04 14:27:22.129765+01 | 1486214842.12977 | pgbench_tellers_pkey  |           245760
 2017-02-04 14:27:22.129765+01 | 1486214842.12977 | pgbench_accounts_pkey |        224641024

 2017-02-04 14:27:23.20936+01 | 1486214843.20936 | pgbench_branches_pkey |            57344
 2017-02-04 14:27:23.20936+01 | 1486214843.20936 | pgbench_tellers_pkey  |           245760
 2017-02-04 14:27:23.20936+01 | 1486214843.20936 | pgbench_accounts_pkey |        224641024

 2017-02-04 14:27:24.291725+01 | 1486214844.29172 | pgbench_branches_pkey |            57344
 2017-02-04 14:27:24.291725+01 | 1486214844.29172 | pgbench_tellers_pkey  |           245760
 2017-02-04 14:27:24.291725+01 | 1486214844.29172 | pgbench_accounts_pkey |        224641024

 2017-02-04 14:27:25.374302+01 | 1486214845.3743 | pgbench_branches_pkey |            57344
 2017-02-04 14:27:25.374302+01 | 1486214845.3743 | pgbench_tellers_pkey  |           245760
 2017-02-04 14:27:25.374302+01 | 1486214845.3743 | pgbench_accounts_pkey |        224641024

 2017-02-04 14:27:26.465949+01 | 1486214846.46595 | pgbench_branches_pkey |            57344
 2017-02-04 14:27:26.465949+01 | 1486214846.46595 | pgbench_tellers_pkey  |           245760
 2017-02-04 14:27:26.465949+01 | 1486214846.46595 | pgbench_accounts_pkey |        224641024

 2017-02-04 14:27:27.546648+01 | 1486214847.54665 | pgbench_branches_pkey |            57344
 2017-02-04 14:27:27.546648+01 | 1486214847.54665 | pgbench_tellers_pkey  |           245760
 2017-02-04 14:27:27.546648+01 | 1486214847.54665 | pgbench_accounts_pkey |        224641024

 2017-02-04 14:27:28.639986+01 | 1486214848.63999 | pgbench_branches_pkey |            57344
 2017-02-04 14:27:28.639986+01 | 1486214848.63999 | pgbench_tellers_pkey  |           245760
 2017-02-04 14:27:28.639986+01 | 1486214848.63999 | pgbench_accounts_pkey |        224641024

 2017-02-04 14:27:29.725332+01 | 1486214849.72533 | pgbench_branches_pkey |            57344
 2017-02-04 14:27:29.725332+01 | 1486214849.72533 | pgbench_tellers_pkey  |           245760
 2017-02-04 14:27:29.725332+01 | 1486214849.72533 | pgbench_accounts_pkey |        224641024

 2017-02-04 14:27:30.812538+01 | 1486214850.81254 | pgbench_branches_pkey |            57344
 2017-02-04 14:27:30.812538+01 | 1486214850.81254 | pgbench_tellers_pkey  |           245760
 2017-02-04 14:27:30.812538+01 | 1486214850.81254 | pgbench_accounts_pkey |        224641024

 2017-02-04 14:27:31.903433+01 | 1486214851.90343 | pgbench_branches_pkey |            57344
 2017-02-04 14:27:31.903433+01 | 1486214851.90343 | pgbench_tellers_pkey  |           245760
 2017-02-04 14:27:31.903433+01 | 1486214851.90343 | pgbench_accounts_pkey |        224641024

 2017-02-04 14:27:32.999973+01 | 1486214852.99997 | pgbench_branches_pkey |            57344
 2017-02-04 14:27:32.999973+01 | 1486214852.99997 | pgbench_tellers_pkey  |           245760
 2017-02-04 14:27:32.999973+01 | 1486214852.99997 | pgbench_accounts_pkey |        224641024

 2017-02-04 14:27:34.087904+01 | 1486214854.0879 | pgbench_branches_pkey |            57344
 2017-02-04 14:27:34.087904+01 | 1486214854.0879 | pgbench_tellers_pkey  |           245760
 2017-02-04 14:27:34.087904+01 | 1486214854.0879 | pgbench_accounts_pkey |        224641024

 2017-02-04 14:27:35.167339+01 | 1486214855.16734 | pgbench_branches_pkey |            57344
 2017-02-04 14:27:35.167339+01 | 1486214855.16734 | pgbench_tellers_pkey  |           245760
 2017-02-04 14:27:35.167339+01 | 1486214855.16734 | pgbench_accounts_pkey |        224641024

 2017-02-04 14:27:36.247454+01 | 1486214856.24745 | pgbench_branches_pkey |            57344
 2017-02-04 14:27:36.247454+01 | 1486214856.24745 | pgbench_tellers_pkey  |           245760
 2017-02-04 14:27:36.247454+01 | 1486214856.24745 | pgbench_accounts_pkey |        224641024

 2017-02-04 14:27:37.326274+01 | 1486214857.32627 | pgbench_branches_pkey |            57344
 2017-02-04 14:27:37.326274+01 | 1486214857.32627 | pgbench_tellers_pkey  |           245760
 2017-02-04 14:27:37.326274+01 | 1486214857.32627 | pgbench_accounts_pkey |        224641024

 2017-02-04 14:27:38.418383+01 | 1486214858.41838 | pgbench_branches_pkey |            57344
 2017-02-04 14:27:38.418383+01 | 1486214858.41838 | pgbench_tellers_pkey  |           245760
 2017-02-04 14:27:38.418383+01 | 1486214858.41838 | pgbench_accounts_pkey |        224641024

 2017-02-04 14:27:39.496202+01 | 1486214859.4962 | pgbench_branches_pkey |            57344
 2017-02-04 14:27:39.496202+01 | 1486214859.4962 | pgbench_tellers_pkey  |           245760
 2017-02-04 14:27:39.496202+01 | 1486214859.4962 | pgbench_accounts_pkey |        224641024

 2017-02-04 14:27:40.58118+01 | 1486214860.58118 | pgbench_branches_pkey |            57344
 2017-02-04 14:27:40.58118+01 | 1486214860.58118 | pgbench_tellers_pkey  |           245760
 2017-02-04 14:27:40.58118+01 | 1486214860.58118 | pgbench_accounts_pkey |        224641024

 2017-02-04 14:27:41.668909+01 | 1486214861.66891 | pgbench_branches_pkey |            57344
 2017-02-04 14:27:41.668909+01 | 1486214861.66891 | pgbench_tellers_pkey  |           245760
 2017-02-04 14:27:41.668909+01 | 1486214861.66891 | pgbench_accounts_pkey |        224641024

 2017-02-04 14:27:42.754794+01 | 1486214862.75479 | pgbench_branches_pkey |            57344
 2017-02-04 14:27:42.754794+01 | 1486214862.75479 | pgbench_tellers_pkey  |           245760
 2017-02-04 14:27:42.754794+01 | 1486214862.75479 | pgbench_accounts_pkey |        224641024

 2017-02-04 14:27:43.846239+01 | 1486214863.84624 | pgbench_branches_pkey |            57344
 2017-02-04 14:27:43.846239+01 | 1486214863.84624 | pgbench_tellers_pkey  |           245760
 2017-02-04 14:27:43.846239+01 | 1486214863.84624 | pgbench_accounts_pkey |        224641024

 2017-02-04 14:27:44.940514+01 | 1486214864.94051 | pgbench_branches_pkey |            57344
 2017-02-04 14:27:44.940514+01 | 1486214864.94051 | pgbench_tellers_pkey  |           245760
 2017-02-04 14:27:44.940514+01 | 1486214864.94051 | pgbench_accounts_pkey |        224641024

 2017-02-04 14:27:46.034971+01 | 1486214866.03497 | pgbench_branches_pkey |            57344
 2017-02-04 14:27:46.034971+01 | 1486214866.03497 | pgbench_tellers_pkey  |           245760
 2017-02-04 14:27:46.034971+01 | 1486214866.03497 | pgbench_accounts_pkey |        224641024

 2017-02-04 14:27:47.118756+01 | 1486214867.11876 | pgbench_branches_pkey |            57344
 2017-02-04 14:27:47.118756+01 | 1486214867.11876 | pgbench_tellers_pkey  |           245760
 2017-02-04 14:27:47.118756+01 | 1486214867.11876 | pgbench_accounts_pkey |        224641024

 2017-02-04 14:27:48.202985+01 | 1486214868.20299 | pgbench_branches_pkey |            57344
 2017-02-04 14:27:48.202985+01 | 1486214868.20299 | pgbench_tellers_pkey  |           245760
 2017-02-04 14:27:48.202985+01 | 1486214868.20299 | pgbench_accounts_pkey |        224641024

 2017-02-04 14:27:49.288587+01 | 1486214869.28859 | pgbench_branches_pkey |            57344
 2017-02-04 14:27:49.288587+01 | 1486214869.28859 | pgbench_tellers_pkey  |           245760
 2017-02-04 14:27:49.288587+01 | 1486214869.28859 | pgbench_accounts_pkey |        224641024

 2017-02-04 14:27:50.373108+01 | 1486214870.37311 | pgbench_branches_pkey |            57344
 2017-02-04 14:27:50.373108+01 | 1486214870.37311 | pgbench_tellers_pkey  |           245760
 2017-02-04 14:27:50.373108+01 | 1486214870.37311 | pgbench_accounts_pkey |        224641024

 2017-02-04 14:27:51.463912+01 | 1486214871.46391 | pgbench_branches_pkey |            57344
 2017-02-04 14:27:51.463912+01 | 1486214871.46391 | pgbench_tellers_pkey  |           245760
 2017-02-04 14:27:51.463912+01 | 1486214871.46391 | pgbench_accounts_pkey |        224641024

 2017-02-04 14:27:52.554675+01 | 1486214872.55468 | pgbench_branches_pkey |            57344
 2017-02-04 14:27:52.554675+01 | 1486214872.55468 | pgbench_tellers_pkey  |           245760
 2017-02-04 14:27:52.554675+01 | 1486214872.55468 | pgbench_accounts_pkey |        224641024

 2017-02-04 14:27:53.654201+01 | 1486214873.6542 | pgbench_branches_pkey |            57344
 2017-02-04 14:27:53.654201+01 | 1486214873.6542 | pgbench_tellers_pkey  |           245760
 2017-02-04 14:27:53.654201+01 | 1486214873.6542 | pgbench_accounts_pkey |        224641024

 2017-02-04 14:27:54.764239+01 | 1486214874.76424 | pgbench_branches_pkey |            57344
 2017-02-04 14:27:54.764239+01 | 1486214874.76424 | pgbench_tellers_pkey  |           245760
 2017-02-04 14:27:54.764239+01 | 1486214874.76424 | pgbench_accounts_pkey |        224641024

 2017-02-04 14:27:55.854675+01 | 1486214875.85468 | pgbench_branches_pkey |            57344
 2017-02-04 14:27:55.854675+01 | 1486214875.85468 | pgbench_tellers_pkey  |           245760
 2017-02-04 14:27:55.854675+01 | 1486214875.85468 | pgbench_accounts_pkey |        224641024

 2017-02-04 14:27:56.948434+01 | 1486214876.94843 | pgbench_branches_pkey |            57344
 2017-02-04 14:27:56.948434+01 | 1486214876.94843 | pgbench_tellers_pkey  |           245760
 2017-02-04 14:27:56.948434+01 | 1486214876.94843 | pgbench_accounts_pkey |        224641024

 2017-02-04 14:27:58.036065+01 | 1486214878.03607 | pgbench_branches_pkey |            57344
 2017-02-04 14:27:58.036065+01 | 1486214878.03607 | pgbench_tellers_pkey  |           245760
 2017-02-04 14:27:58.036065+01 | 1486214878.03607 | pgbench_accounts_pkey |        224641024

 2017-02-04 14:27:59.122121+01 | 1486214879.12212 | pgbench_branches_pkey |            57344
 2017-02-04 14:27:59.122121+01 | 1486214879.12212 | pgbench_tellers_pkey  |           245760
 2017-02-04 14:27:59.122121+01 | 1486214879.12212 | pgbench_accounts_pkey |        224641024

 2017-02-04 14:28:00.200997+01 | 1486214880.201 | pgbench_branches_pkey |            57344
 2017-02-04 14:28:00.200997+01 | 1486214880.201 | pgbench_tellers_pkey  |           245760
 2017-02-04 14:28:00.200997+01 | 1486214880.201 | pgbench_accounts_pkey |        224641024

 2017-02-04 14:28:01.279608+01 | 1486214881.27961 | pgbench_branches_pkey |            57344
 2017-02-04 14:28:01.279608+01 | 1486214881.27961 | pgbench_tellers_pkey  |           245760
 2017-02-04 14:28:01.279608+01 | 1486214881.27961 | pgbench_accounts_pkey |        224641024

 2017-02-04 14:28:02.362288+01 | 1486214882.36229 | pgbench_branches_pkey |            57344
 2017-02-04 14:28:02.362288+01 | 1486214882.36229 | pgbench_tellers_pkey  |           245760
 2017-02-04 14:28:02.362288+01 | 1486214882.36229 | pgbench_accounts_pkey |        224641024

 2017-02-04 14:28:03.461865+01 | 1486214883.46186 | pgbench_branches_pkey |            57344
 2017-02-04 14:28:03.461865+01 | 1486214883.46186 | pgbench_tellers_pkey  |           245760
 2017-02-04 14:28:03.461865+01 | 1486214883.46186 | pgbench_accounts_pkey |        224641024

 2017-02-04 14:28:04.545568+01 | 1486214884.54557 | pgbench_branches_pkey |            57344
 2017-02-04 14:28:04.545568+01 | 1486214884.54557 | pgbench_tellers_pkey  |           245760
 2017-02-04 14:28:04.545568+01 | 1486214884.54557 | pgbench_accounts_pkey |        224641024

 2017-02-04 14:28:05.632416+01 | 1486214885.63242 | pgbench_branches_pkey |            57344
 2017-02-04 14:28:05.632416+01 | 1486214885.63242 | pgbench_tellers_pkey  |           245760
 2017-02-04 14:28:05.632416+01 | 1486214885.63242 | pgbench_accounts_pkey |        224641024

 2017-02-04 14:28:06.721653+01 | 1486214886.72165 | pgbench_branches_pkey |            57344
 2017-02-04 14:28:06.721653+01 | 1486214886.72165 | pgbench_tellers_pkey  |           245760
 2017-02-04 14:28:06.721653+01 | 1486214886.72165 | pgbench_accounts_pkey |        224641024

 2017-02-04 14:28:07.818057+01 | 1486214887.81806 | pgbench_branches_pkey |            57344
 2017-02-04 14:28:07.818057+01 | 1486214887.81806 | pgbench_tellers_pkey  |           245760
 2017-02-04 14:28:07.818057+01 | 1486214887.81806 | pgbench_accounts_pkey |        224641024

 2017-02-04 14:28:08.914516+01 | 1486214888.91452 | pgbench_branches_pkey |            57344
 2017-02-04 14:28:08.914516+01 | 1486214888.91452 | pgbench_tellers_pkey  |           245760
 2017-02-04 14:28:08.914516+01 | 1486214888.91452 | pgbench_accounts_pkey |        224641024

 2017-02-04 14:28:10.00829+01 | 1486214890.00829 | pgbench_branches_pkey |            57344
 2017-02-04 14:28:10.00829+01 | 1486214890.00829 | pgbench_tellers_pkey  |           245760
 2017-02-04 14:28:10.00829+01 | 1486214890.00829 | pgbench_accounts_pkey |        224641024

 2017-02-04 14:28:11.100348+01 | 1486214891.10035 | pgbench_branches_pkey |            57344
 2017-02-04 14:28:11.100348+01 | 1486214891.10035 | pgbench_tellers_pkey  |           245760
 2017-02-04 14:28:11.100348+01 | 1486214891.10035 | pgbench_accounts_pkey |        224641024

 2017-02-04 14:28:12.181598+01 | 1486214892.1816 | pgbench_branches_pkey |            57344
 2017-02-04 14:28:12.181598+01 | 1486214892.1816 | pgbench_tellers_pkey  |           245760
 2017-02-04 14:28:12.181598+01 | 1486214892.1816 | pgbench_accounts_pkey |        224641024

 2017-02-04 14:28:13.262328+01 | 1486214893.26233 | pgbench_branches_pkey |            57344
 2017-02-04 14:28:13.262328+01 | 1486214893.26233 | pgbench_tellers_pkey  |           245760
 2017-02-04 14:28:13.262328+01 | 1486214893.26233 | pgbench_accounts_pkey |        224641024

 2017-02-04 14:28:14.344911+01 | 1486214894.34491 | pgbench_branches_pkey |            57344
 2017-02-04 14:28:14.344911+01 | 1486214894.34491 | pgbench_tellers_pkey  |           245760
 2017-02-04 14:28:14.344911+01 | 1486214894.34491 | pgbench_accounts_pkey |        224641024

 2017-02-04 14:28:15.43446+01 | 1486214895.43446 | pgbench_branches_pkey |            57344
 2017-02-04 14:28:15.43446+01 | 1486214895.43446 | pgbench_tellers_pkey  |           245760
 2017-02-04 14:28:15.43446+01 | 1486214895.43446 | pgbench_accounts_pkey |        224641024

 2017-02-04 14:28:16.52669+01 | 1486214896.52669 | pgbench_branches_pkey |            57344
 2017-02-04 14:28:16.52669+01 | 1486214896.52669 | pgbench_tellers_pkey  |           245760
 2017-02-04 14:28:16.52669+01 | 1486214896.52669 | pgbench_accounts_pkey |        224641024

 2017-02-04 14:28:17.605758+01 | 1486214897.60576 | pgbench_branches_pkey |            57344
 2017-02-04 14:28:17.605758+01 | 1486214897.60576 | pgbench_tellers_pkey  |           245760
 2017-02-04 14:28:17.605758+01 | 1486214897.60576 | pgbench_accounts_pkey |        224641024

 2017-02-04 14:28:18.688386+01 | 1486214898.68839 | pgbench_branches_pkey |            57344
 2017-02-04 14:28:18.688386+01 | 1486214898.68839 | pgbench_tellers_pkey  |           245760
 2017-02-04 14:28:18.688386+01 | 1486214898.68839 | pgbench_accounts_pkey |        224641024

 2017-02-04 14:28:19.776922+01 | 1486214899.77692 | pgbench_branches_pkey |            57344
 2017-02-04 14:28:19.776922+01 | 1486214899.77692 | pgbench_tellers_pkey  |           245760
 2017-02-04 14:28:19.776922+01 | 1486214899.77692 | pgbench_accounts_pkey |        224641024

 2017-02-04 14:28:20.869724+01 | 1486214900.86972 | pgbench_branches_pkey |            57344
 2017-02-04 14:28:20.869724+01 | 1486214900.86972 | pgbench_tellers_pkey  |           245760
 2017-02-04 14:28:20.869724+01 | 1486214900.86972 | pgbench_accounts_pkey |        224641024

 2017-02-04 14:28:21.957554+01 | 1486214901.95755 | pgbench_branches_pkey |            57344
 2017-02-04 14:28:21.957554+01 | 1486214901.95755 | pgbench_tellers_pkey  |           245760
 2017-02-04 14:28:21.957554+01 | 1486214901.95755 | pgbench_accounts_pkey |        224641024

 2017-02-04 14:28:23.043938+01 | 1486214903.04394 | pgbench_branches_pkey |            57344
 2017-02-04 14:28:23.043938+01 | 1486214903.04394 | pgbench_tellers_pkey  |           245760
 2017-02-04 14:28:23.043938+01 | 1486214903.04394 | pgbench_accounts_pkey |        224641024

 2017-02-04 14:28:24.133792+01 | 1486214904.13379 | pgbench_branches_pkey |            57344
 2017-02-04 14:28:24.133792+01 | 1486214904.13379 | pgbench_tellers_pkey  |           245760
 2017-02-04 14:28:24.133792+01 | 1486214904.13379 | pgbench_accounts_pkey |        224641024

 2017-02-04 14:28:25.218169+01 | 1486214905.21817 | pgbench_branches_pkey |            57344
 2017-02-04 14:28:25.218169+01 | 1486214905.21817 | pgbench_tellers_pkey  |           245760
 2017-02-04 14:28:25.218169+01 | 1486214905.21817 | pgbench_accounts_pkey |        224641024

 2017-02-04 14:28:26.304082+01 | 1486214906.30408 | pgbench_branches_pkey |            57344
 2017-02-04 14:28:26.304082+01 | 1486214906.30408 | pgbench_tellers_pkey  |           245760
 2017-02-04 14:28:26.304082+01 | 1486214906.30408 | pgbench_accounts_pkey |        224641024

 2017-02-04 14:28:27.387343+01 | 1486214907.38734 | pgbench_branches_pkey |            57344
 2017-02-04 14:28:27.387343+01 | 1486214907.38734 | pgbench_tellers_pkey  |           245760
 2017-02-04 14:28:27.387343+01 | 1486214907.38734 | pgbench_accounts_pkey |        224641024

 2017-02-04 14:28:28.476311+01 | 1486214908.47631 | pgbench_branches_pkey |            57344
 2017-02-04 14:28:28.476311+01 | 1486214908.47631 | pgbench_tellers_pkey  |           245760
 2017-02-04 14:28:28.476311+01 | 1486214908.47631 | pgbench_accounts_pkey |        224641024

 2017-02-04 14:28:29.560057+01 | 1486214909.56006 | pgbench_branches_pkey |            57344
 2017-02-04 14:28:29.560057+01 | 1486214909.56006 | pgbench_tellers_pkey  |           245760
 2017-02-04 14:28:29.560057+01 | 1486214909.56006 | pgbench_accounts_pkey |        224641024

 2017-02-04 14:28:30.641446+01 | 1486214910.64145 | pgbench_branches_pkey |            57344
 2017-02-04 14:28:30.641446+01 | 1486214910.64145 | pgbench_tellers_pkey  |           245760
 2017-02-04 14:28:30.641446+01 | 1486214910.64145 | pgbench_accounts_pkey |        224641024

 2017-02-04 14:28:31.739817+01 | 1486214911.73982 | pgbench_branches_pkey |            57344
 2017-02-04 14:28:31.739817+01 | 1486214911.73982 | pgbench_tellers_pkey  |           245760
 2017-02-04 14:28:31.739817+01 | 1486214911.73982 | pgbench_accounts_pkey |        224641024

 2017-02-04 14:28:32.826958+01 | 1486214912.82696 | pgbench_branches_pkey |            57344
 2017-02-04 14:28:32.826958+01 | 1486214912.82696 | pgbench_tellers_pkey  |           245760
 2017-02-04 14:28:32.826958+01 | 1486214912.82696 | pgbench_accounts_pkey |        224641024

 2017-02-04 14:28:33.919593+01 | 1486214913.91959 | pgbench_branches_pkey |            57344
 2017-02-04 14:28:33.919593+01 | 1486214913.91959 | pgbench_tellers_pkey  |           245760
 2017-02-04 14:28:33.919593+01 | 1486214913.91959 | pgbench_accounts_pkey |        224641024

 2017-02-04 14:28:35.009732+01 | 1486214915.00973 | pgbench_branches_pkey |            57344
 2017-02-04 14:28:35.009732+01 | 1486214915.00973 | pgbench_tellers_pkey  |           245760
 2017-02-04 14:28:35.009732+01 | 1486214915.00973 | pgbench_accounts_pkey |        224641024

 2017-02-04 14:28:36.100303+01 | 1486214916.1003 | pgbench_branches_pkey |            57344
 2017-02-04 14:28:36.100303+01 | 1486214916.1003 | pgbench_tellers_pkey  |           245760
 2017-02-04 14:28:36.100303+01 | 1486214916.1003 | pgbench_accounts_pkey |        224641024

 2017-02-04 14:28:37.185122+01 | 1486214917.18512 | pgbench_branches_pkey |            57344
 2017-02-04 14:28:37.185122+01 | 1486214917.18512 | pgbench_tellers_pkey  |           245760
 2017-02-04 14:28:37.185122+01 | 1486214917.18512 | pgbench_accounts_pkey |        224641024

 2017-02-04 14:28:38.270249+01 | 1486214918.27025 | pgbench_branches_pkey |            57344
 2017-02-04 14:28:38.270249+01 | 1486214918.27025 | pgbench_tellers_pkey  |           245760
 2017-02-04 14:28:38.270249+01 | 1486214918.27025 | pgbench_accounts_pkey |        224641024

 2017-02-04 14:28:39.350465+01 | 1486214919.35047 | pgbench_branches_pkey |            57344
 2017-02-04 14:28:39.350465+01 | 1486214919.35047 | pgbench_tellers_pkey  |           245760
 2017-02-04 14:28:39.350465+01 | 1486214919.35047 | pgbench_accounts_pkey |        224641024

 2017-02-04 14:28:40.435328+01 | 1486214920.43533 | pgbench_branches_pkey |            57344
 2017-02-04 14:28:40.435328+01 | 1486214920.43533 | pgbench_tellers_pkey  |           245760
 2017-02-04 14:28:40.435328+01 | 1486214920.43533 | pgbench_accounts_pkey |        224641024

 2017-02-04 14:28:41.517911+01 | 1486214921.51791 | pgbench_branches_pkey |            57344
 2017-02-04 14:28:41.517911+01 | 1486214921.51791 | pgbench_tellers_pkey  |           245760
 2017-02-04 14:28:41.517911+01 | 1486214921.51791 | pgbench_accounts_pkey |        224641024

 2017-02-04 14:28:42.599478+01 | 1486214922.59948 | pgbench_branches_pkey |            57344
 2017-02-04 14:28:42.599478+01 | 1486214922.59948 | pgbench_tellers_pkey  |           245760
 2017-02-04 14:28:42.599478+01 | 1486214922.59948 | pgbench_accounts_pkey |        224641024

 2017-02-04 14:28:43.69439+01 | 1486214923.69439 | pgbench_branches_pkey |            57344
 2017-02-04 14:28:43.69439+01 | 1486214923.69439 | pgbench_tellers_pkey  |           245760
 2017-02-04 14:28:43.69439+01 | 1486214923.69439 | pgbench_accounts_pkey |        224641024

 2017-02-04 14:28:44.785967+01 | 1486214924.78597 | pgbench_branches_pkey |            57344
 2017-02-04 14:28:44.785967+01 | 1486214924.78597 | pgbench_tellers_pkey  |           245760
 2017-02-04 14:28:44.785967+01 | 1486214924.78597 | pgbench_accounts_pkey |        224641024

 2017-02-04 14:28:45.872175+01 | 1486214925.87217 | pgbench_branches_pkey |            57344
 2017-02-04 14:28:45.872175+01 | 1486214925.87217 | pgbench_tellers_pkey  |           245760
 2017-02-04 14:28:45.872175+01 | 1486214925.87217 | pgbench_accounts_pkey |        224641024

 2017-02-04 14:28:46.959524+01 | 1486214926.95952 | pgbench_branches_pkey |            57344
 2017-02-04 14:28:46.959524+01 | 1486214926.95952 | pgbench_tellers_pkey  |           245760
 2017-02-04 14:28:46.959524+01 | 1486214926.95952 | pgbench_accounts_pkey |        224641024

 2017-02-04 14:28:48.05202+01 | 1486214928.05202 | pgbench_branches_pkey |            57344
 2017-02-04 14:28:48.05202+01 | 1486214928.05202 | pgbench_tellers_pkey  |           245760
 2017-02-04 14:28:48.05202+01 | 1486214928.05202 | pgbench_accounts_pkey |        224641024

 2017-02-04 14:28:49.140474+01 | 1486214929.14047 | pgbench_branches_pkey |            57344
 2017-02-04 14:28:49.140474+01 | 1486214929.14047 | pgbench_tellers_pkey  |           245760
 2017-02-04 14:28:49.140474+01 | 1486214929.14047 | pgbench_accounts_pkey |        224641024

 2017-02-04 14:28:50.222198+01 | 1486214930.2222 | pgbench_branches_pkey |            57344
 2017-02-04 14:28:50.222198+01 | 1486214930.2222 | pgbench_tellers_pkey  |           245760
 2017-02-04 14:28:50.222198+01 | 1486214930.2222 | pgbench_accounts_pkey |        224641024

 2017-02-04 14:28:51.310297+01 | 1486214931.3103 | pgbench_branches_pkey |            57344
 2017-02-04 14:28:51.310297+01 | 1486214931.3103 | pgbench_tellers_pkey  |           245760
 2017-02-04 14:28:51.310297+01 | 1486214931.3103 | pgbench_accounts_pkey |        224641024

 2017-02-04 14:28:52.391648+01 | 1486214932.39165 | pgbench_branches_pkey |            57344
 2017-02-04 14:28:52.391648+01 | 1486214932.39165 | pgbench_tellers_pkey  |           245760
 2017-02-04 14:28:52.391648+01 | 1486214932.39165 | pgbench_accounts_pkey |        224641024

 2017-02-04 14:28:53.475378+01 | 1486214933.47538 | pgbench_branches_pkey |            57344
 2017-02-04 14:28:53.475378+01 | 1486214933.47538 | pgbench_tellers_pkey  |           245760
 2017-02-04 14:28:53.475378+01 | 1486214933.47538 | pgbench_accounts_pkey |        224641024

 2017-02-04 14:28:54.57021+01 | 1486214934.57021 | pgbench_branches_pkey |            57344
 2017-02-04 14:28:54.57021+01 | 1486214934.57021 | pgbench_tellers_pkey  |           245760
 2017-02-04 14:28:54.57021+01 | 1486214934.57021 | pgbench_accounts_pkey |        224641024

 2017-02-04 14:28:55.653472+01 | 1486214935.65347 | pgbench_branches_pkey |            57344
 2017-02-04 14:28:55.653472+01 | 1486214935.65347 | pgbench_tellers_pkey  |           245760
 2017-02-04 14:28:55.653472+01 | 1486214935.65347 | pgbench_accounts_pkey |        224641024

 2017-02-04 14:28:56.749483+01 | 1486214936.74948 | pgbench_branches_pkey |            57344
 2017-02-04 14:28:56.749483+01 | 1486214936.74948 | pgbench_tellers_pkey  |           245760
 2017-02-04 14:28:56.749483+01 | 1486214936.74948 | pgbench_accounts_pkey |        224641024

 2017-02-04 14:28:57.84264+01 | 1486214937.84264 | pgbench_branches_pkey |            57344
 2017-02-04 14:28:57.84264+01 | 1486214937.84264 | pgbench_tellers_pkey  |           245760
 2017-02-04 14:28:57.84264+01 | 1486214937.84264 | pgbench_accounts_pkey |        224641024

 2017-02-04 14:28:58.929236+01 | 1486214938.92924 | pgbench_branches_pkey |            57344
 2017-02-04 14:28:58.929236+01 | 1486214938.92924 | pgbench_tellers_pkey  |           245760
 2017-02-04 14:28:58.929236+01 | 1486214938.92924 | pgbench_accounts_pkey |        224641024

 2017-02-04 14:29:00.021281+01 | 1486214940.02128 | pgbench_branches_pkey |            57344
 2017-02-04 14:29:00.021281+01 | 1486214940.02128 | pgbench_tellers_pkey  |           245760
 2017-02-04 14:29:00.021281+01 | 1486214940.02128 | pgbench_accounts_pkey |        224641024

 2017-02-04 14:29:01.116097+01 | 1486214941.1161 | pgbench_branches_pkey |            57344
 2017-02-04 14:29:01.116097+01 | 1486214941.1161 | pgbench_tellers_pkey  |           245760
 2017-02-04 14:29:01.116097+01 | 1486214941.1161 | pgbench_accounts_pkey |        224641024

 2017-02-04 14:29:02.204346+01 | 1486214942.20435 | pgbench_branches_pkey |            57344
 2017-02-04 14:29:02.204346+01 | 1486214942.20435 | pgbench_tellers_pkey  |           245760
 2017-02-04 14:29:02.204346+01 | 1486214942.20435 | pgbench_accounts_pkey |        224641024

 2017-02-04 14:29:03.282038+01 | 1486214943.28204 | pgbench_branches_pkey |            57344
 2017-02-04 14:29:03.282038+01 | 1486214943.28204 | pgbench_tellers_pkey  |           245760
 2017-02-04 14:29:03.282038+01 | 1486214943.28204 | pgbench_accounts_pkey |        224641024

 2017-02-04 14:29:04.356383+01 | 1486214944.35638 | pgbench_branches_pkey |            57344
 2017-02-04 14:29:04.356383+01 | 1486214944.35638 | pgbench_tellers_pkey  |           245760
 2017-02-04 14:29:04.356383+01 | 1486214944.35638 | pgbench_accounts_pkey |        224641024

 2017-02-04 14:29:05.434287+01 | 1486214945.43429 | pgbench_branches_pkey |            57344
 2017-02-04 14:29:05.434287+01 | 1486214945.43429 | pgbench_tellers_pkey  |           245760
 2017-02-04 14:29:05.434287+01 | 1486214945.43429 | pgbench_accounts_pkey |        224641024

 2017-02-04 14:29:06.51697+01 | 1486214946.51697 | pgbench_branches_pkey |            57344
 2017-02-04 14:29:06.51697+01 | 1486214946.51697 | pgbench_tellers_pkey  |           245760
 2017-02-04 14:29:06.51697+01 | 1486214946.51697 | pgbench_accounts_pkey |        224641024

 2017-02-04 14:29:07.613976+01 | 1486214947.61398 | pgbench_branches_pkey |            57344
 2017-02-04 14:29:07.613976+01 | 1486214947.61398 | pgbench_tellers_pkey  |           245760
 2017-02-04 14:29:07.613976+01 | 1486214947.61398 | pgbench_accounts_pkey |        224641024

 2017-02-04 14:29:08.702744+01 | 1486214948.70274 | pgbench_branches_pkey |            57344
 2017-02-04 14:29:08.702744+01 | 1486214948.70274 | pgbench_tellers_pkey  |           245760
 2017-02-04 14:29:08.702744+01 | 1486214948.70274 | pgbench_accounts_pkey |        224641024

 2017-02-04 14:29:09.794524+01 | 1486214949.79452 | pgbench_branches_pkey |            57344
 2017-02-04 14:29:09.794524+01 | 1486214949.79452 | pgbench_tellers_pkey  |           245760
 2017-02-04 14:29:09.794524+01 | 1486214949.79452 | pgbench_accounts_pkey |        224641024

 2017-02-04 14:29:10.878878+01 | 1486214950.87888 | pgbench_branches_pkey |            57344
 2017-02-04 14:29:10.878878+01 | 1486214950.87888 | pgbench_tellers_pkey  |           245760
 2017-02-04 14:29:10.878878+01 | 1486214950.87888 | pgbench_accounts_pkey |        224641024

 2017-02-04 14:29:11.972366+01 | 1486214951.97237 | pgbench_branches_pkey |            57344
 2017-02-04 14:29:11.972366+01 | 1486214951.97237 | pgbench_tellers_pkey  |           245760
 2017-02-04 14:29:11.972366+01 | 1486214951.97237 | pgbench_accounts_pkey |        224641024

 2017-02-04 14:29:13.064172+01 | 1486214953.06417 | pgbench_branches_pkey |            57344
 2017-02-04 14:29:13.064172+01 | 1486214953.06417 | pgbench_tellers_pkey  |           245760
 2017-02-04 14:29:13.064172+01 | 1486214953.06417 | pgbench_accounts_pkey |        224641024

 2017-02-04 14:29:14.152155+01 | 1486214954.15215 | pgbench_branches_pkey |            57344
 2017-02-04 14:29:14.152155+01 | 1486214954.15215 | pgbench_tellers_pkey  |           245760
 2017-02-04 14:29:14.152155+01 | 1486214954.15215 | pgbench_accounts_pkey |        224641024

 2017-02-04 14:29:15.235277+01 | 1486214955.23528 | pgbench_branches_pkey |            57344
 2017-02-04 14:29:15.235277+01 | 1486214955.23528 | pgbench_tellers_pkey  |           245760
 2017-02-04 14:29:15.235277+01 | 1486214955.23528 | pgbench_accounts_pkey |        224641024

 2017-02-04 14:29:16.314325+01 | 1486214956.31433 | pgbench_branches_pkey |            57344
 2017-02-04 14:29:16.314325+01 | 1486214956.31433 | pgbench_tellers_pkey  |           245760
 2017-02-04 14:29:16.314325+01 | 1486214956.31433 | pgbench_accounts_pkey |        224641024

 2017-02-04 14:29:17.392682+01 | 1486214957.39268 | pgbench_branches_pkey |            57344
 2017-02-04 14:29:17.392682+01 | 1486214957.39268 | pgbench_tellers_pkey  |           245760
 2017-02-04 14:29:17.392682+01 | 1486214957.39268 | pgbench_accounts_pkey |        224641024

 2017-02-04 14:29:18.477146+01 | 1486214958.47715 | pgbench_branches_pkey |            57344
 2017-02-04 14:29:18.477146+01 | 1486214958.47715 | pgbench_tellers_pkey  |           245760
 2017-02-04 14:29:18.477146+01 | 1486214958.47715 | pgbench_accounts_pkey |        224641024

 2017-02-04 14:29:19.562316+01 | 1486214959.56232 | pgbench_branches_pkey |            57344
 2017-02-04 14:29:19.562316+01 | 1486214959.56232 | pgbench_tellers_pkey  |           245760
 2017-02-04 14:29:19.562316+01 | 1486214959.56232 | pgbench_accounts_pkey |        224641024

 2017-02-04 14:29:20.656194+01 | 1486214960.65619 | pgbench_branches_pkey |            57344
 2017-02-04 14:29:20.656194+01 | 1486214960.65619 | pgbench_tellers_pkey  |           245760
 2017-02-04 14:29:20.656194+01 | 1486214960.65619 | pgbench_accounts_pkey |        224641024

 2017-02-04 14:29:21.748859+01 | 1486214961.74886 | pgbench_branches_pkey |            57344
 2017-02-04 14:29:21.748859+01 | 1486214961.74886 | pgbench_tellers_pkey  |           245760
 2017-02-04 14:29:21.748859+01 | 1486214961.74886 | pgbench_accounts_pkey |        224641024

 2017-02-04 14:29:22.853439+01 | 1486214962.85344 | pgbench_branches_pkey |            57344
 2017-02-04 14:29:22.853439+01 | 1486214962.85344 | pgbench_tellers_pkey  |           245760
 2017-02-04 14:29:22.853439+01 | 1486214962.85344 | pgbench_accounts_pkey |        224641024

 2017-02-04 14:29:23.949275+01 | 1486214963.94928 | pgbench_branches_pkey |            57344
 2017-02-04 14:29:23.949275+01 | 1486214963.94928 | pgbench_tellers_pkey  |           245760
 2017-02-04 14:29:23.949275+01 | 1486214963.94928 | pgbench_accounts_pkey |        224641024

 2017-02-04 14:29:25.043762+01 | 1486214965.04376 | pgbench_branches_pkey |            57344
 2017-02-04 14:29:25.043762+01 | 1486214965.04376 | pgbench_tellers_pkey  |           245760
 2017-02-04 14:29:25.043762+01 | 1486214965.04376 | pgbench_accounts_pkey |        224641024

 2017-02-04 14:29:26.134866+01 | 1486214966.13487 | pgbench_branches_pkey |            57344
 2017-02-04 14:29:26.134866+01 | 1486214966.13487 | pgbench_tellers_pkey  |           245760
 2017-02-04 14:29:26.134866+01 | 1486214966.13487 | pgbench_accounts_pkey |        224641024

 2017-02-04 14:29:27.221045+01 | 1486214967.22105 | pgbench_branches_pkey |            57344
 2017-02-04 14:29:27.221045+01 | 1486214967.22105 | pgbench_tellers_pkey  |           245760
 2017-02-04 14:29:27.221045+01 | 1486214967.22105 | pgbench_accounts_pkey |        224641024

 2017-02-04 14:29:28.300082+01 | 1486214968.30008 | pgbench_branches_pkey |            57344
 2017-02-04 14:29:28.300082+01 | 1486214968.30008 | pgbench_tellers_pkey  |           245760
 2017-02-04 14:29:28.300082+01 | 1486214968.30008 | pgbench_accounts_pkey |        224641024

 2017-02-04 14:29:29.385885+01 | 1486214969.38589 | pgbench_branches_pkey |            57344
 2017-02-04 14:29:29.385885+01 | 1486214969.38589 | pgbench_tellers_pkey  |           245760
 2017-02-04 14:29:29.385885+01 | 1486214969.38589 | pgbench_accounts_pkey |        224641024

 2017-02-04 14:29:30.469277+01 | 1486214970.46928 | pgbench_branches_pkey |            57344
 2017-02-04 14:29:30.469277+01 | 1486214970.46928 | pgbench_tellers_pkey  |           245760
 2017-02-04 14:29:30.469277+01 | 1486214970.46928 | pgbench_accounts_pkey |        224641024

 2017-02-04 14:29:31.554829+01 | 1486214971.55483 | pgbench_branches_pkey |            57344
 2017-02-04 14:29:31.554829+01 | 1486214971.55483 | pgbench_tellers_pkey  |           245760
 2017-02-04 14:29:31.554829+01 | 1486214971.55483 | pgbench_accounts_pkey |        224641024

 2017-02-04 14:29:32.644517+01 | 1486214972.64452 | pgbench_branches_pkey |            57344
 2017-02-04 14:29:32.644517+01 | 1486214972.64452 | pgbench_tellers_pkey  |           245760
 2017-02-04 14:29:32.644517+01 | 1486214972.64452 | pgbench_accounts_pkey |        224641024

 2017-02-04 14:29:33.733555+01 | 1486214973.73356 | pgbench_branches_pkey |            57344
 2017-02-04 14:29:33.733555+01 | 1486214973.73356 | pgbench_tellers_pkey  |           245760
 2017-02-04 14:29:33.733555+01 | 1486214973.73356 | pgbench_accounts_pkey |        224641024

 2017-02-04 14:29:34.812922+01 | 1486214974.81292 | pgbench_branches_pkey |            57344
 2017-02-04 14:29:34.812922+01 | 1486214974.81292 | pgbench_tellers_pkey  |           245760
 2017-02-04 14:29:34.812922+01 | 1486214974.81292 | pgbench_accounts_pkey |        224641024

 2017-02-04 14:29:35.920515+01 | 1486214975.92052 | pgbench_branches_pkey |            57344
 2017-02-04 14:29:35.920515+01 | 1486214975.92052 | pgbench_tellers_pkey  |           245760
 2017-02-04 14:29:35.920515+01 | 1486214975.92052 | pgbench_accounts_pkey |        224641024

 2017-02-04 14:29:37.014881+01 | 1486214977.01488 | pgbench_branches_pkey |            57344
 2017-02-04 14:29:37.014881+01 | 1486214977.01488 | pgbench_tellers_pkey  |           245760
 2017-02-04 14:29:37.014881+01 | 1486214977.01488 | pgbench_accounts_pkey |        224641024

 2017-02-04 14:29:38.100409+01 | 1486214978.10041 | pgbench_branches_pkey |            57344
 2017-02-04 14:29:38.100409+01 | 1486214978.10041 | pgbench_tellers_pkey  |           245760
 2017-02-04 14:29:38.100409+01 | 1486214978.10041 | pgbench_accounts_pkey |        224641024

 2017-02-04 14:29:39.185636+01 | 1486214979.18564 | pgbench_branches_pkey |            57344
 2017-02-04 14:29:39.185636+01 | 1486214979.18564 | pgbench_tellers_pkey  |           245760
 2017-02-04 14:29:39.185636+01 | 1486214979.18564 | pgbench_accounts_pkey |        224641024

 2017-02-04 14:29:40.267902+01 | 1486214980.2679 | pgbench_branches_pkey |            57344
 2017-02-04 14:29:40.267902+01 | 1486214980.2679 | pgbench_tellers_pkey  |           245760
 2017-02-04 14:29:40.267902+01 | 1486214980.2679 | pgbench_accounts_pkey |        224641024

 2017-02-04 14:29:41.352404+01 | 1486214981.3524 | pgbench_branches_pkey |            57344
 2017-02-04 14:29:41.352404+01 | 1486214981.3524 | pgbench_tellers_pkey  |           245760
 2017-02-04 14:29:41.352404+01 | 1486214981.3524 | pgbench_accounts_pkey |        224641024

 2017-02-04 14:29:42.433377+01 | 1486214982.43338 | pgbench_branches_pkey |            57344
 2017-02-04 14:29:42.433377+01 | 1486214982.43338 | pgbench_tellers_pkey  |           245760
 2017-02-04 14:29:42.433377+01 | 1486214982.43338 | pgbench_accounts_pkey |        224641024

 2017-02-04 14:29:43.516921+01 | 1486214983.51692 | pgbench_branches_pkey |            57344
 2017-02-04 14:29:43.516921+01 | 1486214983.51692 | pgbench_tellers_pkey  |           245760
 2017-02-04 14:29:43.516921+01 | 1486214983.51692 | pgbench_accounts_pkey |        224641024

 2017-02-04 14:29:44.605168+01 | 1486214984.60517 | pgbench_branches_pkey |            57344
 2017-02-04 14:29:44.605168+01 | 1486214984.60517 | pgbench_tellers_pkey  |           245760
 2017-02-04 14:29:44.605168+01 | 1486214984.60517 | pgbench_accounts_pkey |        224641024

 2017-02-04 14:29:45.696434+01 | 1486214985.69643 | pgbench_branches_pkey |            57344
 2017-02-04 14:29:45.696434+01 | 1486214985.69643 | pgbench_tellers_pkey  |           245760
 2017-02-04 14:29:45.696434+01 | 1486214985.69643 | pgbench_accounts_pkey |        224641024

 2017-02-04 14:29:46.790636+01 | 1486214986.79064 | pgbench_branches_pkey |            57344
 2017-02-04 14:29:46.790636+01 | 1486214986.79064 | pgbench_tellers_pkey  |           245760
 2017-02-04 14:29:46.790636+01 | 1486214986.79064 | pgbench_accounts_pkey |        224641024

 2017-02-04 14:29:47.889367+01 | 1486214987.88937 | pgbench_branches_pkey |            57344
 2017-02-04 14:29:47.889367+01 | 1486214987.88937 | pgbench_tellers_pkey  |           245760
 2017-02-04 14:29:47.889367+01 | 1486214987.88937 | pgbench_accounts_pkey |        224641024

 2017-02-04 14:29:48.962975+01 | 1486214988.96298 | pgbench_branches_pkey |            57344
 2017-02-04 14:29:48.962975+01 | 1486214988.96298 | pgbench_tellers_pkey  |           245760
 2017-02-04 14:29:48.962975+01 | 1486214988.96298 | pgbench_accounts_pkey |        224641024

 2017-02-04 14:29:50.056237+01 | 1486214990.05624 | pgbench_branches_pkey |            57344
 2017-02-04 14:29:50.056237+01 | 1486214990.05624 | pgbench_tellers_pkey  |           245760
 2017-02-04 14:29:50.056237+01 | 1486214990.05624 | pgbench_accounts_pkey |        224641024

 2017-02-04 14:29:51.139497+01 | 1486214991.1395 | pgbench_branches_pkey |            57344
 2017-02-04 14:29:51.139497+01 | 1486214991.1395 | pgbench_tellers_pkey  |           245760
 2017-02-04 14:29:51.139497+01 | 1486214991.1395 | pgbench_accounts_pkey |        224641024

 2017-02-04 14:29:52.228074+01 | 1486214992.22807 | pgbench_branches_pkey |            57344
 2017-02-04 14:29:52.228074+01 | 1486214992.22807 | pgbench_tellers_pkey  |           245760
 2017-02-04 14:29:52.228074+01 | 1486214992.22807 | pgbench_accounts_pkey |        224641024

 2017-02-04 14:29:53.305992+01 | 1486214993.30599 | pgbench_branches_pkey |            57344
 2017-02-04 14:29:53.305992+01 | 1486214993.30599 | pgbench_tellers_pkey  |           245760
 2017-02-04 14:29:53.305992+01 | 1486214993.30599 | pgbench_accounts_pkey |        224641024

 2017-02-04 14:29:54.385473+01 | 1486214994.38547 | pgbench_branches_pkey |            57344
 2017-02-04 14:29:54.385473+01 | 1486214994.38547 | pgbench_tellers_pkey  |           245760
 2017-02-04 14:29:54.385473+01 | 1486214994.38547 | pgbench_accounts_pkey |        224641024

 2017-02-04 14:29:55.463116+01 | 1486214995.46312 | pgbench_branches_pkey |            57344
 2017-02-04 14:29:55.463116+01 | 1486214995.46312 | pgbench_tellers_pkey  |           245760
 2017-02-04 14:29:55.463116+01 | 1486214995.46312 | pgbench_accounts_pkey |        224641024

 2017-02-04 14:29:56.55305+01 | 1486214996.55305 | pgbench_branches_pkey |            57344
 2017-02-04 14:29:56.55305+01 | 1486214996.55305 | pgbench_tellers_pkey  |           245760
 2017-02-04 14:29:56.55305+01 | 1486214996.55305 | pgbench_accounts_pkey |        224641024

 2017-02-04 14:29:57.643386+01 | 1486214997.64339 | pgbench_branches_pkey |            57344
 2017-02-04 14:29:57.643386+01 | 1486214997.64339 | pgbench_tellers_pkey  |           245760
 2017-02-04 14:29:57.643386+01 | 1486214997.64339 | pgbench_accounts_pkey |        224641024

 2017-02-04 14:29:58.733631+01 | 1486214998.73363 | pgbench_branches_pkey |            57344
 2017-02-04 14:29:58.733631+01 | 1486214998.73363 | pgbench_tellers_pkey  |           245760
 2017-02-04 14:29:58.733631+01 | 1486214998.73363 | pgbench_accounts_pkey |        224641024

 2017-02-04 14:29:59.823178+01 | 1486214999.82318 | pgbench_branches_pkey |            57344
 2017-02-04 14:29:59.823178+01 | 1486214999.82318 | pgbench_tellers_pkey  |           245760
 2017-02-04 14:29:59.823178+01 | 1486214999.82318 | pgbench_accounts_pkey |        224641024

 2017-02-04 14:30:00.908+01 | 1486215000.908 | pgbench_branches_pkey |            57344
 2017-02-04 14:30:00.908+01 | 1486215000.908 | pgbench_tellers_pkey  |           245760
 2017-02-04 14:30:00.908+01 | 1486215000.908 | pgbench_accounts_pkey |        224641024

 2017-02-04 14:30:01.995364+01 | 1486215001.99536 | pgbench_branches_pkey |            57344
 2017-02-04 14:30:01.995364+01 | 1486215001.99536 | pgbench_tellers_pkey  |           245760
 2017-02-04 14:30:01.995364+01 | 1486215001.99536 | pgbench_accounts_pkey |        224641024

 2017-02-04 14:30:03.073726+01 | 1486215003.07373 | pgbench_branches_pkey |            57344
 2017-02-04 14:30:03.073726+01 | 1486215003.07373 | pgbench_tellers_pkey  |           245760
 2017-02-04 14:30:03.073726+01 | 1486215003.07373 | pgbench_accounts_pkey |        224641024

 2017-02-04 14:30:04.159578+01 | 1486215004.15958 | pgbench_branches_pkey |            57344
 2017-02-04 14:30:04.159578+01 | 1486215004.15958 | pgbench_tellers_pkey  |           245760
 2017-02-04 14:30:04.159578+01 | 1486215004.15958 | pgbench_accounts_pkey |        224641024

 2017-02-04 14:30:05.247354+01 | 1486215005.24735 | pgbench_branches_pkey |            57344
 2017-02-04 14:30:05.247354+01 | 1486215005.24735 | pgbench_tellers_pkey  |           245760
 2017-02-04 14:30:05.247354+01 | 1486215005.24735 | pgbench_accounts_pkey |        224641024

 2017-02-04 14:30:06.323418+01 | 1486215006.32342 | pgbench_branches_pkey |            57344
 2017-02-04 14:30:06.323418+01 | 1486215006.32342 | pgbench_tellers_pkey  |           245760
 2017-02-04 14:30:06.323418+01 | 1486215006.32342 | pgbench_accounts_pkey |        224641024

 2017-02-04 14:30:07.408786+01 | 1486215007.40879 | pgbench_branches_pkey |            57344
 2017-02-04 14:30:07.408786+01 | 1486215007.40879 | pgbench_tellers_pkey  |           245760
 2017-02-04 14:30:07.408786+01 | 1486215007.40879 | pgbench_accounts_pkey |        224641024

 2017-02-04 14:30:08.491955+01 | 1486215008.49196 | pgbench_branches_pkey |            57344
 2017-02-04 14:30:08.491955+01 | 1486215008.49196 | pgbench_tellers_pkey  |           245760
 2017-02-04 14:30:08.491955+01 | 1486215008.49196 | pgbench_accounts_pkey |        224641024

 2017-02-04 14:30:09.572761+01 | 1486215009.57276 | pgbench_branches_pkey |            57344
 2017-02-04 14:30:09.572761+01 | 1486215009.57276 | pgbench_tellers_pkey  |           245760
 2017-02-04 14:30:09.572761+01 | 1486215009.57276 | pgbench_accounts_pkey |        224641024

 2017-02-04 14:30:10.671802+01 | 1486215010.6718 | pgbench_branches_pkey |            57344
 2017-02-04 14:30:10.671802+01 | 1486215010.6718 | pgbench_tellers_pkey  |           245760
 2017-02-04 14:30:10.671802+01 | 1486215010.6718 | pgbench_accounts_pkey |        224641024

 2017-02-04 14:30:11.759876+01 | 1486215011.75988 | pgbench_branches_pkey |            57344
 2017-02-04 14:30:11.759876+01 | 1486215011.75988 | pgbench_tellers_pkey  |           245760
 2017-02-04 14:30:11.759876+01 | 1486215011.75988 | pgbench_accounts_pkey |        224641024

 2017-02-04 14:30:12.848321+01 | 1486215012.84832 | pgbench_branches_pkey |            57344
 2017-02-04 14:30:12.848321+01 | 1486215012.84832 | pgbench_tellers_pkey  |           245760
 2017-02-04 14:30:12.848321+01 | 1486215012.84832 | pgbench_accounts_pkey |        224641024

 2017-02-04 14:30:13.936808+01 | 1486215013.93681 | pgbench_branches_pkey |            57344
 2017-02-04 14:30:13.936808+01 | 1486215013.93681 | pgbench_tellers_pkey  |           245760
 2017-02-04 14:30:13.936808+01 | 1486215013.93681 | pgbench_accounts_pkey |        224641024

 2017-02-04 14:30:15.025066+01 | 1486215015.02507 | pgbench_branches_pkey |            57344
 2017-02-04 14:30:15.025066+01 | 1486215015.02507 | pgbench_tellers_pkey  |           245760
 2017-02-04 14:30:15.025066+01 | 1486215015.02507 | pgbench_accounts_pkey |        224641024

 2017-02-04 14:30:16.116019+01 | 1486215016.11602 | pgbench_branches_pkey |            57344
 2017-02-04 14:30:16.116019+01 | 1486215016.11602 | pgbench_tellers_pkey  |           245760
 2017-02-04 14:30:16.116019+01 | 1486215016.11602 | pgbench_accounts_pkey |        224641024

 2017-02-04 14:30:17.206167+01 | 1486215017.20617 | pgbench_branches_pkey |            57344
 2017-02-04 14:30:17.206167+01 | 1486215017.20617 | pgbench_tellers_pkey  |           245760
 2017-02-04 14:30:17.206167+01 | 1486215017.20617 | pgbench_accounts_pkey |        224641024

 2017-02-04 14:30:18.28938+01 | 1486215018.28938 | pgbench_branches_pkey |            57344
 2017-02-04 14:30:18.28938+01 | 1486215018.28938 | pgbench_tellers_pkey  |           245760
 2017-02-04 14:30:18.28938+01 | 1486215018.28938 | pgbench_accounts_pkey |        224641024

 2017-02-04 14:30:19.37394+01 | 1486215019.37394 | pgbench_branches_pkey |            57344
 2017-02-04 14:30:19.37394+01 | 1486215019.37394 | pgbench_tellers_pkey  |           245760
 2017-02-04 14:30:19.37394+01 | 1486215019.37394 | pgbench_accounts_pkey |        224641024

 2017-02-04 14:30:20.457791+01 | 1486215020.45779 | pgbench_branches_pkey |            57344
 2017-02-04 14:30:20.457791+01 | 1486215020.45779 | pgbench_tellers_pkey  |           245760
 2017-02-04 14:30:20.457791+01 | 1486215020.45779 | pgbench_accounts_pkey |        224641024

 2017-02-04 14:30:21.540656+01 | 1486215021.54066 | pgbench_branches_pkey |            57344
 2017-02-04 14:30:21.540656+01 | 1486215021.54066 | pgbench_tellers_pkey  |           245760
 2017-02-04 14:30:21.540656+01 | 1486215021.54066 | pgbench_accounts_pkey |        224641024

 2017-02-04 14:30:22.617081+01 | 1486215022.61708 | pgbench_branches_pkey |            57344
 2017-02-04 14:30:22.617081+01 | 1486215022.61708 | pgbench_tellers_pkey  |           245760
 2017-02-04 14:30:22.617081+01 | 1486215022.61708 | pgbench_accounts_pkey |        224641024

 2017-02-04 14:30:23.703929+01 | 1486215023.70393 | pgbench_branches_pkey |            57344
 2017-02-04 14:30:23.703929+01 | 1486215023.70393 | pgbench_tellers_pkey  |           245760
 2017-02-04 14:30:23.703929+01 | 1486215023.70393 | pgbench_accounts_pkey |        224641024

 2017-02-04 14:30:24.787271+01 | 1486215024.78727 | pgbench_branches_pkey |            57344
 2017-02-04 14:30:24.787271+01 | 1486215024.78727 | pgbench_tellers_pkey  |           245760
 2017-02-04 14:30:24.787271+01 | 1486215024.78727 | pgbench_accounts_pkey |        224641024

 2017-02-04 14:30:25.870214+01 | 1486215025.87021 | pgbench_branches_pkey |            57344
 2017-02-04 14:30:25.870214+01 | 1486215025.87021 | pgbench_tellers_pkey  |           245760
 2017-02-04 14:30:25.870214+01 | 1486215025.87021 | pgbench_accounts_pkey |        224641024

 2017-02-04 14:30:26.966084+01 | 1486215026.96608 | pgbench_branches_pkey |            57344
 2017-02-04 14:30:26.966084+01 | 1486215026.96608 | pgbench_tellers_pkey  |           245760
 2017-02-04 14:30:26.966084+01 | 1486215026.96608 | pgbench_accounts_pkey |        224641024

 2017-02-04 14:30:28.054914+01 | 1486215028.05491 | pgbench_branches_pkey |            57344
 2017-02-04 14:30:28.054914+01 | 1486215028.05491 | pgbench_tellers_pkey  |           245760
 2017-02-04 14:30:28.054914+01 | 1486215028.05491 | pgbench_accounts_pkey |        224641024

 2017-02-04 14:30:29.141745+01 | 1486215029.14175 | pgbench_branches_pkey |            57344
 2017-02-04 14:30:29.141745+01 | 1486215029.14175 | pgbench_tellers_pkey  |           245760
 2017-02-04 14:30:29.141745+01 | 1486215029.14175 | pgbench_accounts_pkey |        224641024

 2017-02-04 14:30:30.23+01 | 1486215030.23 | pgbench_branches_pkey |            57344
 2017-02-04 14:30:30.23+01 | 1486215030.23 | pgbench_tellers_pkey  |           245760
 2017-02-04 14:30:30.23+01 | 1486215030.23 | pgbench_accounts_pkey |        224641024

 2017-02-04 14:30:31.310065+01 | 1486215031.31007 | pgbench_branches_pkey |            57344
 2017-02-04 14:30:31.310065+01 | 1486215031.31007 | pgbench_tellers_pkey  |           245760
 2017-02-04 14:30:31.310065+01 | 1486215031.31007 | pgbench_accounts_pkey |        224641024

 2017-02-04 14:30:32.397385+01 | 1486215032.39738 | pgbench_branches_pkey |            57344
 2017-02-04 14:30:32.397385+01 | 1486215032.39738 | pgbench_tellers_pkey  |           245760
 2017-02-04 14:30:32.397385+01 | 1486215032.39738 | pgbench_accounts_pkey |        224641024

 2017-02-04 14:30:33.487143+01 | 1486215033.48714 | pgbench_branches_pkey |            57344
 2017-02-04 14:30:33.487143+01 | 1486215033.48714 | pgbench_tellers_pkey  |           245760
 2017-02-04 14:30:33.487143+01 | 1486215033.48714 | pgbench_accounts_pkey |        224641024

 2017-02-04 14:30:34.562857+01 | 1486215034.56286 | pgbench_branches_pkey |            57344
 2017-02-04 14:30:34.562857+01 | 1486215034.56286 | pgbench_tellers_pkey  |           245760
 2017-02-04 14:30:34.562857+01 | 1486215034.56286 | pgbench_accounts_pkey |        224641024

 2017-02-04 14:30:35.645329+01 | 1486215035.64533 | pgbench_branches_pkey |            57344
 2017-02-04 14:30:35.645329+01 | 1486215035.64533 | pgbench_tellers_pkey  |           245760
 2017-02-04 14:30:35.645329+01 | 1486215035.64533 | pgbench_accounts_pkey |        224641024

 2017-02-04 14:30:36.735897+01 | 1486215036.7359 | pgbench_branches_pkey |            57344
 2017-02-04 14:30:36.735897+01 | 1486215036.7359 | pgbench_tellers_pkey  |           245760
 2017-02-04 14:30:36.735897+01 | 1486215036.7359 | pgbench_accounts_pkey |        224641024

 2017-02-04 14:30:37.832464+01 | 1486215037.83246 | pgbench_branches_pkey |            57344
 2017-02-04 14:30:37.832464+01 | 1486215037.83246 | pgbench_tellers_pkey  |           245760
 2017-02-04 14:30:37.832464+01 | 1486215037.83246 | pgbench_accounts_pkey |        224641024

 2017-02-04 14:30:38.920259+01 | 1486215038.92026 | pgbench_branches_pkey |            57344
 2017-02-04 14:30:38.920259+01 | 1486215038.92026 | pgbench_tellers_pkey  |           245760
 2017-02-04 14:30:38.920259+01 | 1486215038.92026 | pgbench_accounts_pkey |        224641024

 2017-02-04 14:30:40.002936+01 | 1486215040.00294 | pgbench_branches_pkey |            57344
 2017-02-04 14:30:40.002936+01 | 1486215040.00294 | pgbench_tellers_pkey  |           245760
 2017-02-04 14:30:40.002936+01 | 1486215040.00294 | pgbench_accounts_pkey |        224641024

 2017-02-04 14:30:41.092556+01 | 1486215041.09256 | pgbench_branches_pkey |            57344
 2017-02-04 14:30:41.092556+01 | 1486215041.09256 | pgbench_tellers_pkey  |           245760
 2017-02-04 14:30:41.092556+01 | 1486215041.09256 | pgbench_accounts_pkey |        224641024

 2017-02-04 14:30:42.176391+01 | 1486215042.17639 | pgbench_branches_pkey |            57344
 2017-02-04 14:30:42.176391+01 | 1486215042.17639 | pgbench_tellers_pkey  |           245760
 2017-02-04 14:30:42.176391+01 | 1486215042.17639 | pgbench_accounts_pkey |        224641024

 2017-02-04 14:30:43.264567+01 | 1486215043.26457 | pgbench_branches_pkey |            57344
 2017-02-04 14:30:43.264567+01 | 1486215043.26457 | pgbench_tellers_pkey  |           245760
 2017-02-04 14:30:43.264567+01 | 1486215043.26457 | pgbench_accounts_pkey |        224641024

 2017-02-04 14:30:44.345693+01 | 1486215044.34569 | pgbench_branches_pkey |            57344
 2017-02-04 14:30:44.345693+01 | 1486215044.34569 | pgbench_tellers_pkey  |           245760
 2017-02-04 14:30:44.345693+01 | 1486215044.34569 | pgbench_accounts_pkey |        224641024

 2017-02-04 14:30:45.423811+01 | 1486215045.42381 | pgbench_branches_pkey |            57344
 2017-02-04 14:30:45.423811+01 | 1486215045.42381 | pgbench_tellers_pkey  |           245760
 2017-02-04 14:30:45.423811+01 | 1486215045.42381 | pgbench_accounts_pkey |        224641024

 2017-02-04 14:30:46.50167+01 | 1486215046.50167 | pgbench_branches_pkey |            57344
 2017-02-04 14:30:46.50167+01 | 1486215046.50167 | pgbench_tellers_pkey  |           245760
 2017-02-04 14:30:46.50167+01 | 1486215046.50167 | pgbench_accounts_pkey |        224641024

 2017-02-04 14:30:47.585073+01 | 1486215047.58507 | pgbench_branches_pkey |            57344
 2017-02-04 14:30:47.585073+01 | 1486215047.58507 | pgbench_tellers_pkey  |           245760
 2017-02-04 14:30:47.585073+01 | 1486215047.58507 | pgbench_accounts_pkey |        224641024

 2017-02-04 14:30:48.656304+01 | 1486215048.6563 | pgbench_branches_pkey |            57344
 2017-02-04 14:30:48.656304+01 | 1486215048.6563 | pgbench_tellers_pkey  |           245760
 2017-02-04 14:30:48.656304+01 | 1486215048.6563 | pgbench_accounts_pkey |        224641024

 2017-02-04 14:30:49.748934+01 | 1486215049.74893 | pgbench_branches_pkey |            57344
 2017-02-04 14:30:49.748934+01 | 1486215049.74893 | pgbench_tellers_pkey  |           245760
 2017-02-04 14:30:49.748934+01 | 1486215049.74893 | pgbench_accounts_pkey |        224641024

 2017-02-04 14:30:50.840295+01 | 1486215050.8403 | pgbench_branches_pkey |            57344
 2017-02-04 14:30:50.840295+01 | 1486215050.8403 | pgbench_tellers_pkey  |           245760
 2017-02-04 14:30:50.840295+01 | 1486215050.8403 | pgbench_accounts_pkey |        224641024

 2017-02-04 14:30:51.928974+01 | 1486215051.92897 | pgbench_branches_pkey |            57344
 2017-02-04 14:30:51.928974+01 | 1486215051.92897 | pgbench_tellers_pkey  |           245760
 2017-02-04 14:30:51.928974+01 | 1486215051.92897 | pgbench_accounts_pkey |        224641024

 2017-02-04 14:30:53.022193+01 | 1486215053.02219 | pgbench_branches_pkey |            57344
 2017-02-04 14:30:53.022193+01 | 1486215053.02219 | pgbench_tellers_pkey  |           245760
 2017-02-04 14:30:53.022193+01 | 1486215053.02219 | pgbench_accounts_pkey |        224641024

 2017-02-04 14:30:54.114354+01 | 1486215054.11435 | pgbench_branches_pkey |            57344
 2017-02-04 14:30:54.114354+01 | 1486215054.11435 | pgbench_tellers_pkey  |           245760
 2017-02-04 14:30:54.114354+01 | 1486215054.11435 | pgbench_accounts_pkey |        224641024

 2017-02-04 14:30:55.204257+01 | 1486215055.20426 | pgbench_branches_pkey |            57344
 2017-02-04 14:30:55.204257+01 | 1486215055.20426 | pgbench_tellers_pkey  |           245760
 2017-02-04 14:30:55.204257+01 | 1486215055.20426 | pgbench_accounts_pkey |        224641024

 2017-02-04 14:30:56.295764+01 | 1486215056.29576 | pgbench_branches_pkey |            57344
 2017-02-04 14:30:56.295764+01 | 1486215056.29576 | pgbench_tellers_pkey  |           245760
 2017-02-04 14:30:56.295764+01 | 1486215056.29576 | pgbench_accounts_pkey |        224641024

 2017-02-04 14:30:57.379165+01 | 1486215057.37916 | pgbench_branches_pkey |            57344
 2017-02-04 14:30:57.379165+01 | 1486215057.37916 | pgbench_tellers_pkey  |           245760
 2017-02-04 14:30:57.379165+01 | 1486215057.37916 | pgbench_accounts_pkey |        224641024

 2017-02-04 14:30:58.460872+01 | 1486215058.46087 | pgbench_branches_pkey |            57344
 2017-02-04 14:30:58.460872+01 | 1486215058.46087 | pgbench_tellers_pkey  |           245760
 2017-02-04 14:30:58.460872+01 | 1486215058.46087 | pgbench_accounts_pkey |        224641024

 2017-02-04 14:30:59.540984+01 | 1486215059.54098 | pgbench_branches_pkey |            57344
 2017-02-04 14:30:59.540984+01 | 1486215059.54098 | pgbench_tellers_pkey  |           245760
 2017-02-04 14:30:59.540984+01 | 1486215059.54098 | pgbench_accounts_pkey |        224641024

 2017-02-04 14:31:00.617382+01 | 1486215060.61738 | pgbench_branches_pkey |            57344
 2017-02-04 14:31:00.617382+01 | 1486215060.61738 | pgbench_tellers_pkey  |           245760
 2017-02-04 14:31:00.617382+01 | 1486215060.61738 | pgbench_accounts_pkey |        224641024

 2017-02-04 14:31:01.706249+01 | 1486215061.70625 | pgbench_branches_pkey |            57344
 2017-02-04 14:31:01.706249+01 | 1486215061.70625 | pgbench_tellers_pkey  |           245760
 2017-02-04 14:31:01.706249+01 | 1486215061.70625 | pgbench_accounts_pkey |        224641024

 2017-02-04 14:31:02.789499+01 | 1486215062.7895 | pgbench_branches_pkey |            57344
 2017-02-04 14:31:02.789499+01 | 1486215062.7895 | pgbench_tellers_pkey  |           245760
 2017-02-04 14:31:02.789499+01 | 1486215062.7895 | pgbench_accounts_pkey |        224641024

 2017-02-04 14:31:03.878143+01 | 1486215063.87814 | pgbench_branches_pkey |            57344
 2017-02-04 14:31:03.878143+01 | 1486215063.87814 | pgbench_tellers_pkey  |           245760
 2017-02-04 14:31:03.878143+01 | 1486215063.87814 | pgbench_accounts_pkey |        224641024

 2017-02-04 14:31:04.978369+01 | 1486215064.97837 | pgbench_branches_pkey |            57344
 2017-02-04 14:31:04.978369+01 | 1486215064.97837 | pgbench_tellers_pkey  |           245760
 2017-02-04 14:31:04.978369+01 | 1486215064.97837 | pgbench_accounts_pkey |        224641024

 2017-02-04 14:31:06.076634+01 | 1486215066.07663 | pgbench_branches_pkey |            57344
 2017-02-04 14:31:06.076634+01 | 1486215066.07663 | pgbench_tellers_pkey  |           245760
 2017-02-04 14:31:06.076634+01 | 1486215066.07663 | pgbench_accounts_pkey |        224641024

 2017-02-04 14:31:07.165677+01 | 1486215067.16568 | pgbench_branches_pkey |            57344
 2017-02-04 14:31:07.165677+01 | 1486215067.16568 | pgbench_tellers_pkey  |           245760
 2017-02-04 14:31:07.165677+01 | 1486215067.16568 | pgbench_accounts_pkey |        224641024

 2017-02-04 14:31:08.251289+01 | 1486215068.25129 | pgbench_branches_pkey |            57344
 2017-02-04 14:31:08.251289+01 | 1486215068.25129 | pgbench_tellers_pkey  |           245760
 2017-02-04 14:31:08.251289+01 | 1486215068.25129 | pgbench_accounts_pkey |        224641024

 2017-02-04 14:31:09.338967+01 | 1486215069.33897 | pgbench_branches_pkey |            57344
 2017-02-04 14:31:09.338967+01 | 1486215069.33897 | pgbench_tellers_pkey  |           245760
 2017-02-04 14:31:09.338967+01 | 1486215069.33897 | pgbench_accounts_pkey |        224641024

 2017-02-04 14:31:10.421985+01 | 1486215070.42198 | pgbench_branches_pkey |            57344
 2017-02-04 14:31:10.421985+01 | 1486215070.42198 | pgbench_tellers_pkey  |           245760
 2017-02-04 14:31:10.421985+01 | 1486215070.42198 | pgbench_accounts_pkey |        224641024

 2017-02-04 14:31:11.504967+01 | 1486215071.50497 | pgbench_branches_pkey |            57344
 2017-02-04 14:31:11.504967+01 | 1486215071.50497 | pgbench_tellers_pkey  |           245760
 2017-02-04 14:31:11.504967+01 | 1486215071.50497 | pgbench_accounts_pkey |        224641024

 2017-02-04 14:31:12.586441+01 | 1486215072.58644 | pgbench_branches_pkey |            57344
 2017-02-04 14:31:12.586441+01 | 1486215072.58644 | pgbench_tellers_pkey  |           245760
 2017-02-04 14:31:12.586441+01 | 1486215072.58644 | pgbench_accounts_pkey |        224641024

 2017-02-04 14:31:13.667566+01 | 1486215073.66757 | pgbench_branches_pkey |            57344
 2017-02-04 14:31:13.667566+01 | 1486215073.66757 | pgbench_tellers_pkey  |           245760
 2017-02-04 14:31:13.667566+01 | 1486215073.66757 | pgbench_accounts_pkey |        224641024

 2017-02-04 14:31:14.755483+01 | 1486215074.75548 | pgbench_branches_pkey |            57344
 2017-02-04 14:31:14.755483+01 | 1486215074.75548 | pgbench_tellers_pkey  |           245760
 2017-02-04 14:31:14.755483+01 | 1486215074.75548 | pgbench_accounts_pkey |        224641024

 2017-02-04 14:31:15.84542+01 | 1486215075.84542 | pgbench_branches_pkey |            57344
 2017-02-04 14:31:15.84542+01 | 1486215075.84542 | pgbench_tellers_pkey  |           245760
 2017-02-04 14:31:15.84542+01 | 1486215075.84542 | pgbench_accounts_pkey |        224641024

 2017-02-04 14:31:16.9338+01 | 1486215076.9338 | pgbench_branches_pkey |            57344
 2017-02-04 14:31:16.9338+01 | 1486215076.9338 | pgbench_tellers_pkey  |           245760
 2017-02-04 14:31:16.9338+01 | 1486215076.9338 | pgbench_accounts_pkey |        224641024

 2017-02-04 14:31:18.024496+01 | 1486215078.0245 | pgbench_branches_pkey |            57344
 2017-02-04 14:31:18.024496+01 | 1486215078.0245 | pgbench_tellers_pkey  |           245760
 2017-02-04 14:31:18.024496+01 | 1486215078.0245 | pgbench_accounts_pkey |        224641024

 2017-02-04 14:31:19.115111+01 | 1486215079.11511 | pgbench_branches_pkey |            57344
 2017-02-04 14:31:19.115111+01 | 1486215079.11511 | pgbench_tellers_pkey  |           245760
 2017-02-04 14:31:19.115111+01 | 1486215079.11511 | pgbench_accounts_pkey |        224641024

 2017-02-04 14:31:20.204985+01 | 1486215080.20498 | pgbench_branches_pkey |            57344
 2017-02-04 14:31:20.204985+01 | 1486215080.20498 | pgbench_tellers_pkey  |           245760
 2017-02-04 14:31:20.204985+01 | 1486215080.20498 | pgbench_accounts_pkey |        224641024

 2017-02-04 14:31:21.297795+01 | 1486215081.2978 | pgbench_branches_pkey |            57344
 2017-02-04 14:31:21.297795+01 | 1486215081.2978 | pgbench_tellers_pkey  |           245760
 2017-02-04 14:31:21.297795+01 | 1486215081.2978 | pgbench_accounts_pkey |        224641024

 2017-02-04 14:31:22.378646+01 | 1486215082.37865 | pgbench_branches_pkey |            57344
 2017-02-04 14:31:22.378646+01 | 1486215082.37865 | pgbench_tellers_pkey  |           245760
 2017-02-04 14:31:22.378646+01 | 1486215082.37865 | pgbench_accounts_pkey |        224641024

 2017-02-04 14:31:23.462144+01 | 1486215083.46214 | pgbench_branches_pkey |            57344
 2017-02-04 14:31:23.462144+01 | 1486215083.46214 | pgbench_tellers_pkey  |           245760
 2017-02-04 14:31:23.462144+01 | 1486215083.46214 | pgbench_accounts_pkey |        224641024

 2017-02-04 14:31:24.546147+01 | 1486215084.54615 | pgbench_branches_pkey |            57344
 2017-02-04 14:31:24.546147+01 | 1486215084.54615 | pgbench_tellers_pkey  |           245760
 2017-02-04 14:31:24.546147+01 | 1486215084.54615 | pgbench_accounts_pkey |        224641024

 2017-02-04 14:31:25.620451+01 | 1486215085.62045 | pgbench_branches_pkey |            57344
 2017-02-04 14:31:25.620451+01 | 1486215085.62045 | pgbench_tellers_pkey  |           245760
 2017-02-04 14:31:25.620451+01 | 1486215085.62045 | pgbench_accounts_pkey |        224641024

 2017-02-04 14:31:26.698033+01 | 1486215086.69803 | pgbench_branches_pkey |            57344
 2017-02-04 14:31:26.698033+01 | 1486215086.69803 | pgbench_tellers_pkey  |           245760
 2017-02-04 14:31:26.698033+01 | 1486215086.69803 | pgbench_accounts_pkey |        224641024

 2017-02-04 14:31:27.777075+01 | 1486215087.77708 | pgbench_branches_pkey |            57344
 2017-02-04 14:31:27.777075+01 | 1486215087.77708 | pgbench_tellers_pkey  |           245760
 2017-02-04 14:31:27.777075+01 | 1486215087.77708 | pgbench_accounts_pkey |        224641024

 2017-02-04 14:31:28.859431+01 | 1486215088.85943 | pgbench_branches_pkey |            57344
 2017-02-04 14:31:28.859431+01 | 1486215088.85943 | pgbench_tellers_pkey  |           245760
 2017-02-04 14:31:28.859431+01 | 1486215088.85943 | pgbench_accounts_pkey |        224641024

 2017-02-04 14:31:29.947509+01 | 1486215089.94751 | pgbench_branches_pkey |            57344
 2017-02-04 14:31:29.947509+01 | 1486215089.94751 | pgbench_tellers_pkey  |           245760
 2017-02-04 14:31:29.947509+01 | 1486215089.94751 | pgbench_accounts_pkey |        224641024

 2017-02-04 14:31:31.034437+01 | 1486215091.03444 | pgbench_branches_pkey |            57344
 2017-02-04 14:31:31.034437+01 | 1486215091.03444 | pgbench_tellers_pkey  |           245760
 2017-02-04 14:31:31.034437+01 | 1486215091.03444 | pgbench_accounts_pkey |        224641024

 2017-02-04 14:31:32.123084+01 | 1486215092.12308 | pgbench_branches_pkey |            57344
 2017-02-04 14:31:32.123084+01 | 1486215092.12308 | pgbench_tellers_pkey  |           245760
 2017-02-04 14:31:32.123084+01 | 1486215092.12308 | pgbench_accounts_pkey |        224641024

 2017-02-04 14:31:33.234556+01 | 1486215093.23456 | pgbench_branches_pkey |            57344
 2017-02-04 14:31:33.234556+01 | 1486215093.23456 | pgbench_tellers_pkey  |           245760
 2017-02-04 14:31:33.234556+01 | 1486215093.23456 | pgbench_accounts_pkey |        224641024

