 2017-02-05 23:51:42.765991+01 | 1486335102.76599 |                 0 |              13 |                   416 |                   19 |               2219 |             0 |                0 |          487833 |                     0 |        191841 | 2017-02-05 22:51:16.555195+01

 2017-02-05 23:51:43.856277+01 | 1486335103.85628 |                 0 |              13 |                   416 |                   19 |               2219 |             0 |                0 |          487833 |                     0 |        191841 | 2017-02-05 22:51:16.555195+01

 2017-02-05 23:51:44.945803+01 | 1486335104.9458 |                 0 |              13 |                   416 |                   19 |               2219 |             0 |                0 |          487833 |                     0 |        191841 | 2017-02-05 22:51:16.555195+01

 2017-02-05 23:51:46.031386+01 | 1486335106.03139 |                 0 |              13 |                   416 |                   19 |               2219 |             0 |                0 |          487833 |                     0 |        191841 | 2017-02-05 22:51:16.555195+01

 2017-02-05 23:51:47.126071+01 | 1486335107.12607 |                 0 |              13 |                   416 |                   19 |               2219 |             0 |                0 |          487833 |                     0 |        191841 | 2017-02-05 22:51:16.555195+01

 2017-02-05 23:51:48.226131+01 | 1486335108.22613 |                 0 |              13 |                   416 |                   19 |               2219 |             0 |                0 |          487833 |                     0 |        191841 | 2017-02-05 22:51:16.555195+01

 2017-02-05 23:51:49.314552+01 | 1486335109.31455 |                 0 |              13 |                   416 |                   19 |               2219 |             0 |                0 |          487833 |                     0 |        191841 | 2017-02-05 22:51:16.555195+01

 2017-02-05 23:51:50.424638+01 | 1486335110.42464 |                 0 |              13 |                   416 |                   19 |               2219 |             0 |                0 |          487833 |                     0 |        191841 | 2017-02-05 22:51:16.555195+01

 2017-02-05 23:51:51.547205+01 | 1486335111.5472 |                 0 |              13 |                   416 |                   19 |               2219 |             0 |                0 |          487833 |                     0 |        191841 | 2017-02-05 22:51:16.555195+01

 2017-02-05 23:51:52.638457+01 | 1486335112.63846 |                 0 |              13 |                   416 |                   19 |               2219 |             0 |                0 |          487833 |                     0 |        191841 | 2017-02-05 22:51:16.555195+01

 2017-02-05 23:51:53.728044+01 | 1486335113.72804 |                 0 |              13 |                   416 |                   19 |               2219 |             0 |                0 |          487833 |                     0 |        191841 | 2017-02-05 22:51:16.555195+01

 2017-02-05 23:51:54.814691+01 | 1486335114.81469 |                 0 |              13 |                   416 |                   19 |               2219 |             0 |                0 |          487833 |                     0 |        191841 | 2017-02-05 22:51:16.555195+01

 2017-02-05 23:51:55.90175+01 | 1486335115.90175 |                 0 |              13 |                   416 |                   19 |               2219 |             0 |                0 |          487833 |                     0 |        191841 | 2017-02-05 22:51:16.555195+01

 2017-02-05 23:51:56.999124+01 | 1486335116.99912 |                 0 |              13 |                   416 |                   19 |               2219 |             0 |                0 |          487833 |                     0 |        191841 | 2017-02-05 22:51:16.555195+01

 2017-02-05 23:51:58.089249+01 | 1486335118.08925 |                 0 |              13 |                   416 |                   19 |               2219 |             0 |                0 |          487833 |                     0 |        191841 | 2017-02-05 22:51:16.555195+01

 2017-02-05 23:51:59.186238+01 | 1486335119.18624 |                 0 |              13 |                   416 |                   19 |               2219 |             0 |                0 |          487833 |                     0 |        191841 | 2017-02-05 22:51:16.555195+01

 2017-02-05 23:52:00.279807+01 | 1486335120.27981 |                 0 |              13 |                   416 |                   19 |               2219 |             0 |                0 |          487833 |                     0 |        191841 | 2017-02-05 22:51:16.555195+01

 2017-02-05 23:52:01.384012+01 | 1486335121.38401 |                 0 |              13 |                   416 |                   19 |               2219 |             0 |                0 |          487833 |                     0 |        191841 | 2017-02-05 22:51:16.555195+01

 2017-02-05 23:52:02.486868+01 | 1486335122.48687 |                 0 |              13 |                   416 |                   19 |               2219 |             0 |                0 |          487833 |                     0 |        191841 | 2017-02-05 22:51:16.555195+01

 2017-02-05 23:52:03.585042+01 | 1486335123.58504 |                 0 |              13 |                   416 |                   19 |               2219 |             0 |                0 |          487833 |                     0 |        191841 | 2017-02-05 22:51:16.555195+01

 2017-02-05 23:52:04.692007+01 | 1486335124.69201 |                 0 |              13 |                   416 |                   19 |               2219 |             0 |                0 |          487833 |                     0 |        191841 | 2017-02-05 22:51:16.555195+01

 2017-02-05 23:52:05.778094+01 | 1486335125.77809 |                 0 |              13 |                   416 |                   19 |               2219 |             0 |                0 |          487833 |                     0 |        191841 | 2017-02-05 22:51:16.555195+01

 2017-02-05 23:52:06.862622+01 | 1486335126.86262 |                 0 |              13 |                   416 |                   19 |               2219 |             0 |                0 |          487833 |                     0 |        191841 | 2017-02-05 22:51:16.555195+01

 2017-02-05 23:52:07.947244+01 | 1486335127.94724 |                 0 |              13 |                   416 |                   19 |               2219 |             0 |                0 |          487833 |                     0 |        191841 | 2017-02-05 22:51:16.555195+01

 2017-02-05 23:52:09.048666+01 | 1486335129.04867 |                 0 |              13 |                   416 |                   19 |               2219 |             0 |                0 |          487833 |                     0 |        191841 | 2017-02-05 22:51:16.555195+01

 2017-02-05 23:52:10.132555+01 | 1486335130.13256 |                 0 |              13 |                   416 |                   19 |               2219 |             0 |                0 |          487833 |                     0 |        191841 | 2017-02-05 22:51:16.555195+01

 2017-02-05 23:52:11.217941+01 | 1486335131.21794 |                 0 |              13 |                   416 |                   19 |               2219 |             0 |                0 |          487833 |                     0 |        191841 | 2017-02-05 22:51:16.555195+01

 2017-02-05 23:52:12.323971+01 | 1486335132.32397 |                 0 |              13 |                   416 |                   19 |               2219 |             0 |                0 |          487833 |                     0 |        191841 | 2017-02-05 22:51:16.555195+01

 2017-02-05 23:52:13.41043+01 | 1486335133.41043 |                 0 |              13 |                   416 |                   19 |               2219 |             0 |                0 |          487833 |                     0 |        191841 | 2017-02-05 22:51:16.555195+01

 2017-02-05 23:52:14.49403+01 | 1486335134.49403 |                 0 |              13 |                   416 |                   19 |               2219 |             0 |                0 |          487833 |                     0 |        191841 | 2017-02-05 22:51:16.555195+01

 2017-02-05 23:52:15.583373+01 | 1486335135.58337 |                 0 |              13 |                   416 |                   19 |               2219 |             0 |                0 |          487833 |                     0 |        191841 | 2017-02-05 22:51:16.555195+01

 2017-02-05 23:52:16.670785+01 | 1486335136.67078 |                 0 |              13 |                   416 |                   19 |               2219 |             0 |                0 |          487833 |                     0 |        191841 | 2017-02-05 22:51:16.555195+01

 2017-02-05 23:52:17.762033+01 | 1486335137.76203 |                 0 |              13 |                   416 |                   19 |               2219 |             0 |                0 |          487833 |                     0 |        191841 | 2017-02-05 22:51:16.555195+01

 2017-02-05 23:52:18.854709+01 | 1486335138.85471 |                 0 |              13 |                   416 |                   19 |               2219 |             0 |                0 |          487833 |                     0 |        191841 | 2017-02-05 22:51:16.555195+01

 2017-02-05 23:52:19.944526+01 | 1486335139.94453 |                 0 |              13 |                   416 |                   19 |               2219 |             0 |                0 |          487833 |                     0 |        191841 | 2017-02-05 22:51:16.555195+01

 2017-02-05 23:52:21.037512+01 | 1486335141.03751 |                 0 |              13 |                   416 |                   19 |               2219 |             0 |                0 |          487833 |                     0 |        191841 | 2017-02-05 22:51:16.555195+01

 2017-02-05 23:52:22.129341+01 | 1486335142.12934 |                 0 |              13 |                   416 |                   19 |               2219 |             0 |                0 |          487833 |                     0 |        191841 | 2017-02-05 22:51:16.555195+01

 2017-02-05 23:52:23.22736+01 | 1486335143.22736 |                 0 |              13 |                   416 |                   19 |               2219 |             0 |                0 |          487833 |                     0 |        191841 | 2017-02-05 22:51:16.555195+01

 2017-02-05 23:52:24.326689+01 | 1486335144.32669 |                 0 |              13 |                   416 |                   19 |               2219 |             0 |                0 |          487833 |                     0 |        191841 | 2017-02-05 22:51:16.555195+01

 2017-02-05 23:52:25.431537+01 | 1486335145.43154 |                 0 |              13 |                   416 |                   19 |               2219 |             0 |                0 |          487833 |                     0 |        191841 | 2017-02-05 22:51:16.555195+01

 2017-02-05 23:52:26.524806+01 | 1486335146.52481 |                 0 |              13 |                   416 |                   19 |               2219 |             0 |                0 |          487833 |                     0 |        191841 | 2017-02-05 22:51:16.555195+01

 2017-02-05 23:52:27.622199+01 | 1486335147.6222 |                 0 |              13 |                   416 |                   19 |               2219 |             0 |                0 |          487833 |                     0 |        191841 | 2017-02-05 22:51:16.555195+01

 2017-02-05 23:52:28.731261+01 | 1486335148.73126 |                 0 |              13 |                   416 |                   19 |               2219 |             0 |                0 |          487833 |                     0 |        191841 | 2017-02-05 22:51:16.555195+01

 2017-02-05 23:52:29.828673+01 | 1486335149.82867 |                 0 |              13 |                   416 |                   19 |               2219 |             0 |                0 |          487833 |                     0 |        191841 | 2017-02-05 22:51:16.555195+01

 2017-02-05 23:52:30.917824+01 | 1486335150.91782 |                 0 |              13 |                   416 |                   19 |               2219 |             0 |                0 |          487833 |                     0 |        191841 | 2017-02-05 22:51:16.555195+01

 2017-02-05 23:52:32.002146+01 | 1486335152.00215 |                 0 |              13 |                   416 |                   19 |               2219 |             0 |                0 |          487833 |                     0 |        191841 | 2017-02-05 22:51:16.555195+01

 2017-02-05 23:52:33.085198+01 | 1486335153.0852 |                 0 |              13 |                   416 |                   19 |               2219 |             0 |                0 |          487833 |                     0 |        191841 | 2017-02-05 22:51:16.555195+01

 2017-02-05 23:52:34.164027+01 | 1486335154.16403 |                 0 |              13 |                   416 |                   19 |               2219 |             0 |                0 |          487833 |                     0 |        191841 | 2017-02-05 22:51:16.555195+01

 2017-02-05 23:52:35.263794+01 | 1486335155.26379 |                 0 |              13 |                   416 |                   19 |               2219 |             0 |                0 |          487833 |                     0 |        191841 | 2017-02-05 22:51:16.555195+01

 2017-02-05 23:52:36.372312+01 | 1486335156.37231 |                 0 |              13 |                   416 |                   19 |               2219 |             0 |                0 |          487833 |                     0 |        191841 | 2017-02-05 22:51:16.555195+01

 2017-02-05 23:52:37.481078+01 | 1486335157.48108 |                 0 |              13 |                   416 |                   19 |               2219 |             0 |                0 |          487833 |                     0 |        191841 | 2017-02-05 22:51:16.555195+01

 2017-02-05 23:52:38.581966+01 | 1486335158.58197 |                 0 |              13 |                   416 |                   19 |               2219 |             0 |                0 |          487833 |                     0 |        191841 | 2017-02-05 22:51:16.555195+01

 2017-02-05 23:52:39.673564+01 | 1486335159.67356 |                 0 |              13 |                   416 |                   19 |               2219 |             0 |                0 |          487833 |                     0 |        191841 | 2017-02-05 22:51:16.555195+01

 2017-02-05 23:52:40.784375+01 | 1486335160.78437 |                 0 |              13 |                   416 |                   19 |               2219 |             0 |                0 |          487833 |                     0 |        191841 | 2017-02-05 22:51:16.555195+01

 2017-02-05 23:52:41.872378+01 | 1486335161.87238 |                 0 |              13 |                   416 |                   19 |               2219 |             0 |                0 |          487833 |                     0 |        191841 | 2017-02-05 22:51:16.555195+01

 2017-02-05 23:52:42.966713+01 | 1486335162.96671 |                 0 |              13 |                   416 |                   19 |               2219 |             0 |                0 |          487833 |                     0 |        191841 | 2017-02-05 22:51:16.555195+01

 2017-02-05 23:52:44.062322+01 | 1486335164.06232 |                 0 |              13 |                   416 |                   19 |               2219 |             0 |                0 |          487833 |                     0 |        191841 | 2017-02-05 22:51:16.555195+01

 2017-02-05 23:52:45.155613+01 | 1486335165.15561 |                 0 |              13 |                   416 |                   19 |               2219 |             0 |                0 |          487833 |                     0 |        191841 | 2017-02-05 22:51:16.555195+01

 2017-02-05 23:52:46.247819+01 | 1486335166.24782 |                 0 |              13 |                   416 |                   19 |               2219 |             0 |                0 |          487833 |                     0 |        191841 | 2017-02-05 22:51:16.555195+01

 2017-02-05 23:52:47.339092+01 | 1486335167.33909 |                 0 |              13 |                   416 |                   19 |               2219 |             0 |                0 |          487833 |                     0 |        191841 | 2017-02-05 22:51:16.555195+01

 2017-02-05 23:52:48.429429+01 | 1486335168.42943 |                 0 |              13 |                   416 |                   19 |               2219 |             0 |                0 |          487833 |                     0 |        191841 | 2017-02-05 22:51:16.555195+01

 2017-02-05 23:52:49.548119+01 | 1486335169.54812 |                 0 |              13 |                   416 |                   19 |               2219 |             0 |                0 |          487833 |                     0 |        191841 | 2017-02-05 22:51:16.555195+01

 2017-02-05 23:52:50.652005+01 | 1486335170.652 |                 0 |              13 |                   416 |                   19 |               2219 |             0 |                0 |          487833 |                     0 |        191841 | 2017-02-05 22:51:16.555195+01

 2017-02-05 23:52:51.757474+01 | 1486335171.75747 |                 0 |              13 |                   416 |                   19 |               2219 |             0 |                0 |          487833 |                     0 |        191841 | 2017-02-05 22:51:16.555195+01

 2017-02-05 23:52:52.886928+01 | 1486335172.88693 |                 0 |              13 |                   416 |                   19 |               2219 |             0 |                0 |          487833 |                     0 |        191841 | 2017-02-05 22:51:16.555195+01

 2017-02-05 23:52:53.973772+01 | 1486335173.97377 |                 0 |              13 |                   416 |                   19 |               2219 |             0 |                0 |          487833 |                     0 |        191841 | 2017-02-05 22:51:16.555195+01

 2017-02-05 23:52:55.053146+01 | 1486335175.05315 |                 0 |              13 |                   416 |                   19 |               2219 |             0 |                0 |          487833 |                     0 |        191841 | 2017-02-05 22:51:16.555195+01

 2017-02-05 23:52:56.145408+01 | 1486335176.14541 |                 0 |              13 |                   416 |                   19 |               2219 |             0 |                0 |          487833 |                     0 |        191841 | 2017-02-05 22:51:16.555195+01

 2017-02-05 23:52:57.232777+01 | 1486335177.23278 |                 0 |              13 |                   416 |                   19 |               2219 |             0 |                0 |          487833 |                     0 |        191841 | 2017-02-05 22:51:16.555195+01

 2017-02-05 23:52:58.338946+01 | 1486335178.33895 |                 0 |              13 |                   416 |                   19 |               2219 |             0 |                0 |          487833 |                     0 |        191841 | 2017-02-05 22:51:16.555195+01

 2017-02-05 23:52:59.435959+01 | 1486335179.43596 |                 0 |              13 |                   416 |                   19 |               2219 |             0 |                0 |          487833 |                     0 |        191841 | 2017-02-05 22:51:16.555195+01

 2017-02-05 23:53:00.536255+01 | 1486335180.53625 |                 0 |              13 |                   416 |                   19 |               2219 |             0 |                0 |          487833 |                     0 |        191841 | 2017-02-05 22:51:16.555195+01

 2017-02-05 23:53:01.626541+01 | 1486335181.62654 |                 0 |              13 |                   416 |                   19 |               2219 |             0 |                0 |          487833 |                     0 |        191841 | 2017-02-05 22:51:16.555195+01

 2017-02-05 23:53:02.716272+01 | 1486335182.71627 |                 0 |              13 |                   416 |                   19 |               2219 |             0 |                0 |          487833 |                     0 |        191841 | 2017-02-05 22:51:16.555195+01

 2017-02-05 23:53:03.801787+01 | 1486335183.80179 |                 0 |              13 |                   416 |                   19 |               2219 |             0 |                0 |          487833 |                     0 |        191841 | 2017-02-05 22:51:16.555195+01

 2017-02-05 23:53:04.924406+01 | 1486335184.92441 |                 0 |              13 |                   416 |                   19 |               2219 |             0 |                0 |          487833 |                     0 |        191841 | 2017-02-05 22:51:16.555195+01

 2017-02-05 23:53:06.02477+01 | 1486335186.02477 |                 0 |              13 |                   416 |                   19 |               2219 |             0 |                0 |          487833 |                     0 |        191841 | 2017-02-05 22:51:16.555195+01

 2017-02-05 23:53:07.116399+01 | 1486335187.1164 |                 0 |              13 |                   416 |                   19 |               2219 |             0 |                0 |          487833 |                     0 |        191841 | 2017-02-05 22:51:16.555195+01

 2017-02-05 23:53:08.204801+01 | 1486335188.2048 |                 0 |              13 |                   416 |                   19 |               2219 |             0 |                0 |          487833 |                     0 |        191841 | 2017-02-05 22:51:16.555195+01

 2017-02-05 23:53:09.293701+01 | 1486335189.2937 |                 0 |              13 |                   416 |                   19 |               2219 |             0 |                0 |          487833 |                     0 |        191841 | 2017-02-05 22:51:16.555195+01

 2017-02-05 23:53:10.390927+01 | 1486335190.39093 |                 0 |              13 |                   416 |                   19 |               2219 |             0 |                0 |          487833 |                     0 |        191841 | 2017-02-05 22:51:16.555195+01

 2017-02-05 23:53:11.485707+01 | 1486335191.48571 |                 0 |              13 |                   416 |                   19 |               2219 |             0 |                0 |          487833 |                     0 |        191841 | 2017-02-05 22:51:16.555195+01

 2017-02-05 23:53:12.579179+01 | 1486335192.57918 |                 0 |              13 |                   416 |                   19 |               2219 |             0 |                0 |          487833 |                     0 |        191841 | 2017-02-05 22:51:16.555195+01

 2017-02-05 23:53:13.664647+01 | 1486335193.66465 |                 0 |              13 |                   416 |                   19 |               2219 |             0 |                0 |          487833 |                     0 |        191841 | 2017-02-05 22:51:16.555195+01

 2017-02-05 23:53:14.761487+01 | 1486335194.76149 |                 0 |              13 |                   416 |                   19 |               2219 |             0 |                0 |          487833 |                     0 |        191841 | 2017-02-05 22:51:16.555195+01

 2017-02-05 23:53:15.861003+01 | 1486335195.861 |                 0 |              13 |                   416 |                   19 |               2219 |             0 |                0 |          487833 |                     0 |        191841 | 2017-02-05 22:51:16.555195+01

 2017-02-05 23:53:16.957636+01 | 1486335196.95764 |                 0 |              13 |                   416 |                   19 |               2219 |             0 |                0 |          487833 |                     0 |        191841 | 2017-02-05 22:51:16.555195+01

 2017-02-05 23:53:18.051293+01 | 1486335198.05129 |                 0 |              13 |                   416 |                   19 |               2219 |             0 |                0 |          487833 |                     0 |        191841 | 2017-02-05 22:51:16.555195+01

 2017-02-05 23:53:19.142617+01 | 1486335199.14262 |                 0 |              13 |                   416 |                   19 |               2219 |             0 |                0 |          487833 |                     0 |        191841 | 2017-02-05 22:51:16.555195+01

 2017-02-05 23:53:20.23323+01 | 1486335200.23323 |                 0 |              13 |                   416 |                   19 |               2219 |             0 |                0 |          487833 |                     0 |        191841 | 2017-02-05 22:51:16.555195+01

 2017-02-05 23:53:21.32215+01 | 1486335201.32215 |                 0 |              13 |                   416 |                   19 |               2219 |             0 |                0 |          487833 |                     0 |        191841 | 2017-02-05 22:51:16.555195+01

 2017-02-05 23:53:22.412633+01 | 1486335202.41263 |                 0 |              13 |                   416 |                   19 |               2219 |             0 |                0 |          487833 |                     0 |        191841 | 2017-02-05 22:51:16.555195+01

 2017-02-05 23:53:23.50912+01 | 1486335203.50912 |                 0 |              13 |                   416 |                   19 |               2219 |             0 |                0 |          487833 |                     0 |        191841 | 2017-02-05 22:51:16.555195+01

 2017-02-05 23:53:24.616502+01 | 1486335204.6165 |                 0 |              13 |                   416 |                   19 |               2219 |             0 |                0 |          487833 |                     0 |        191841 | 2017-02-05 22:51:16.555195+01

 2017-02-05 23:53:25.71965+01 | 1486335205.71965 |                 0 |              13 |                   416 |                   19 |               2219 |             0 |                0 |          487833 |                     0 |        191841 | 2017-02-05 22:51:16.555195+01

 2017-02-05 23:53:26.833783+01 | 1486335206.83378 |                 0 |              13 |                   416 |                   19 |               2219 |             0 |                0 |          487833 |                     0 |        191841 | 2017-02-05 22:51:16.555195+01

 2017-02-05 23:53:27.942193+01 | 1486335207.94219 |                 0 |              13 |                   416 |                   19 |               2219 |             0 |                0 |          487833 |                     0 |        191841 | 2017-02-05 22:51:16.555195+01

 2017-02-05 23:53:29.028636+01 | 1486335209.02864 |                 0 |              13 |                   416 |                   19 |               2219 |             0 |                0 |          487833 |                     0 |        191841 | 2017-02-05 22:51:16.555195+01

 2017-02-05 23:53:30.121694+01 | 1486335210.12169 |                 0 |              13 |                   416 |                   19 |               2219 |             0 |                0 |          487833 |                     0 |        191841 | 2017-02-05 22:51:16.555195+01

 2017-02-05 23:53:31.212024+01 | 1486335211.21202 |                 0 |              13 |                   416 |                   19 |               2219 |             0 |                0 |          487833 |                     0 |        191841 | 2017-02-05 22:51:16.555195+01

 2017-02-05 23:53:32.300015+01 | 1486335212.30001 |                 0 |              13 |                   416 |                   19 |               2219 |             0 |                0 |          487833 |                     0 |        191841 | 2017-02-05 22:51:16.555195+01

 2017-02-05 23:53:33.403052+01 | 1486335213.40305 |                 0 |              13 |                   416 |                   19 |               2219 |             0 |                0 |          487833 |                     0 |        191841 | 2017-02-05 22:51:16.555195+01

 2017-02-05 23:53:34.500592+01 | 1486335214.50059 |                 0 |              13 |                   416 |                   19 |               2219 |             0 |                0 |          487833 |                     0 |        191841 | 2017-02-05 22:51:16.555195+01

 2017-02-05 23:53:35.60701+01 | 1486335215.60701 |                 0 |              13 |                   416 |                   19 |               2219 |             0 |                0 |          487833 |                     0 |        191841 | 2017-02-05 22:51:16.555195+01

 2017-02-05 23:53:36.699697+01 | 1486335216.6997 |                 0 |              13 |                   416 |                   19 |               2219 |             0 |                0 |          487833 |                     0 |        191841 | 2017-02-05 22:51:16.555195+01

 2017-02-05 23:53:37.800926+01 | 1486335217.80093 |                 0 |              13 |                   416 |                   19 |               2219 |             0 |                0 |          487833 |                     0 |        191841 | 2017-02-05 22:51:16.555195+01

 2017-02-05 23:53:38.907371+01 | 1486335218.90737 |                 0 |              13 |                   416 |                   19 |               2219 |             0 |                0 |          487833 |                     0 |        191841 | 2017-02-05 22:51:16.555195+01

 2017-02-05 23:53:39.999326+01 | 1486335219.99933 |                 0 |              13 |                   416 |                   19 |               2219 |             0 |                0 |          487833 |                     0 |        191841 | 2017-02-05 22:51:16.555195+01

 2017-02-05 23:53:41.095102+01 | 1486335221.0951 |                 0 |              13 |                   416 |                   19 |               2219 |             0 |                0 |          487833 |                     0 |        191841 | 2017-02-05 22:51:16.555195+01

 2017-02-05 23:53:42.194062+01 | 1486335222.19406 |                 0 |              13 |                   416 |                   19 |               2219 |             0 |                0 |          487833 |                     0 |        191841 | 2017-02-05 22:51:16.555195+01

 2017-02-05 23:53:43.286048+01 | 1486335223.28605 |                 0 |              13 |                   416 |                   19 |               2219 |             0 |                0 |          487833 |                     0 |        191841 | 2017-02-05 22:51:16.555195+01

 2017-02-05 23:53:44.394064+01 | 1486335224.39406 |                 0 |              13 |                   416 |                   19 |               2219 |             0 |                0 |          487833 |                     0 |        191841 | 2017-02-05 22:51:16.555195+01

 2017-02-05 23:53:45.481734+01 | 1486335225.48173 |                 0 |              13 |                   416 |                   19 |               2219 |             0 |                0 |          487833 |                     0 |        191841 | 2017-02-05 22:51:16.555195+01

 2017-02-05 23:53:46.574316+01 | 1486335226.57432 |                 0 |              13 |                   416 |                   19 |               2219 |             0 |                0 |          487833 |                     0 |        191841 | 2017-02-05 22:51:16.555195+01

 2017-02-05 23:53:47.678433+01 | 1486335227.67843 |                 0 |              13 |                   416 |                   19 |               2219 |             0 |                0 |          487833 |                     0 |        191841 | 2017-02-05 22:51:16.555195+01

 2017-02-05 23:53:48.770544+01 | 1486335228.77054 |                 0 |              13 |                   416 |                   19 |               2219 |             0 |                0 |          487833 |                     0 |        191841 | 2017-02-05 22:51:16.555195+01

 2017-02-05 23:53:49.87362+01 | 1486335229.87362 |                 0 |              13 |                   416 |                   19 |               2219 |             0 |                0 |          487833 |                     0 |        191841 | 2017-02-05 22:51:16.555195+01

 2017-02-05 23:53:50.964694+01 | 1486335230.96469 |                 0 |              13 |                   416 |                   19 |               2219 |             0 |                0 |          487833 |                     0 |        191841 | 2017-02-05 22:51:16.555195+01

 2017-02-05 23:53:52.073217+01 | 1486335232.07322 |                 0 |              13 |                   416 |                   19 |               2219 |             0 |                0 |          487833 |                     0 |        191841 | 2017-02-05 22:51:16.555195+01

 2017-02-05 23:53:53.172183+01 | 1486335233.17218 |                 0 |              13 |                   416 |                   19 |               2219 |             0 |                0 |          487833 |                     0 |        191841 | 2017-02-05 22:51:16.555195+01

 2017-02-05 23:53:54.259776+01 | 1486335234.25978 |                 0 |              13 |                   416 |                   19 |               2219 |             0 |                0 |          487833 |                     0 |        191841 | 2017-02-05 22:51:16.555195+01

 2017-02-05 23:53:55.35253+01 | 1486335235.35253 |                 0 |              13 |                   416 |                   19 |               2219 |             0 |                0 |          487833 |                     0 |        191841 | 2017-02-05 22:51:16.555195+01

 2017-02-05 23:53:56.450391+01 | 1486335236.45039 |                 0 |              13 |                   416 |                   19 |               2219 |             0 |                0 |          487833 |                     0 |        191841 | 2017-02-05 22:51:16.555195+01

 2017-02-05 23:53:57.54114+01 | 1486335237.54114 |                 0 |              13 |                   416 |                   19 |               2219 |             0 |                0 |          487833 |                     0 |        191841 | 2017-02-05 22:51:16.555195+01

 2017-02-05 23:53:58.632871+01 | 1486335238.63287 |                 0 |              13 |                   416 |                   19 |               2219 |             0 |                0 |          487833 |                     0 |        191841 | 2017-02-05 22:51:16.555195+01

 2017-02-05 23:53:59.731522+01 | 1486335239.73152 |                 0 |              13 |                   416 |                   19 |               2219 |             0 |                0 |          487833 |                     0 |        191841 | 2017-02-05 22:51:16.555195+01

 2017-02-05 23:54:00.842478+01 | 1486335240.84248 |                 0 |              13 |                   416 |                   19 |               2219 |             0 |                0 |          487833 |                     0 |        191841 | 2017-02-05 22:51:16.555195+01

 2017-02-05 23:54:01.941332+01 | 1486335241.94133 |                 0 |              13 |                   416 |                   19 |               2219 |             0 |                0 |          487833 |                     0 |        191841 | 2017-02-05 22:51:16.555195+01

 2017-02-05 23:54:03.055643+01 | 1486335243.05564 |                 0 |              13 |                   416 |                   19 |               2219 |             0 |                0 |          487833 |                     0 |        191841 | 2017-02-05 22:51:16.555195+01

 2017-02-05 23:54:04.141518+01 | 1486335244.14152 |                 0 |              13 |                   416 |                   19 |               2219 |             0 |                0 |          487833 |                     0 |        191841 | 2017-02-05 22:51:16.555195+01

 2017-02-05 23:54:05.233604+01 | 1486335245.2336 |                 0 |              13 |                   416 |                   19 |               2219 |             0 |                0 |          487833 |                     0 |        191841 | 2017-02-05 22:51:16.555195+01

 2017-02-05 23:54:06.32823+01 | 1486335246.32823 |                 0 |              13 |                   416 |                   19 |               2219 |             0 |                0 |          487833 |                     0 |        191841 | 2017-02-05 22:51:16.555195+01

 2017-02-05 23:54:07.42166+01 | 1486335247.42166 |                 0 |              13 |                   416 |                   19 |               2219 |             0 |                0 |          487833 |                     0 |        191841 | 2017-02-05 22:51:16.555195+01

 2017-02-05 23:54:08.507527+01 | 1486335248.50753 |                 0 |              13 |                   416 |                   19 |               2219 |             0 |                0 |          487833 |                     0 |        191841 | 2017-02-05 22:51:16.555195+01

 2017-02-05 23:54:09.606307+01 | 1486335249.60631 |                 0 |              13 |                   416 |                   19 |               2219 |             0 |                0 |          487833 |                     0 |        191841 | 2017-02-05 22:51:16.555195+01

 2017-02-05 23:54:10.702322+01 | 1486335250.70232 |                 0 |              13 |                   416 |                   19 |               2219 |             0 |                0 |          487833 |                     0 |        191841 | 2017-02-05 22:51:16.555195+01

 2017-02-05 23:54:11.79615+01 | 1486335251.79615 |                 0 |              13 |                   416 |                   19 |               2219 |             0 |                0 |          487833 |                     0 |        191841 | 2017-02-05 22:51:16.555195+01

 2017-02-05 23:54:12.890695+01 | 1486335252.8907 |                 0 |              13 |                   416 |                   19 |               2219 |             0 |                0 |          487833 |                     0 |        191841 | 2017-02-05 22:51:16.555195+01

 2017-02-05 23:54:13.993945+01 | 1486335253.99394 |                 0 |              13 |                   416 |                   19 |               2219 |             0 |                0 |          487833 |                     0 |        191841 | 2017-02-05 22:51:16.555195+01

 2017-02-05 23:54:15.101341+01 | 1486335255.10134 |                 0 |              13 |                   416 |                   19 |               2219 |             0 |                0 |          487833 |                     0 |        191841 | 2017-02-05 22:51:16.555195+01

 2017-02-05 23:54:16.1948+01 | 1486335256.1948 |                 0 |              13 |                   416 |                   19 |               2219 |             0 |                0 |          487833 |                     0 |        191841 | 2017-02-05 22:51:16.555195+01

 2017-02-05 23:54:17.286768+01 | 1486335257.28677 |                 0 |              13 |                   416 |                   19 |               2219 |             0 |                0 |          487833 |                     0 |        191841 | 2017-02-05 22:51:16.555195+01

 2017-02-05 23:54:18.38456+01 | 1486335258.38456 |                 0 |              13 |                   416 |                   19 |               2219 |             0 |                0 |          487833 |                     0 |        191841 | 2017-02-05 22:51:16.555195+01

 2017-02-05 23:54:19.478242+01 | 1486335259.47824 |                 0 |              13 |                   416 |                   19 |               2219 |             0 |                0 |          487833 |                     0 |        191841 | 2017-02-05 22:51:16.555195+01

 2017-02-05 23:54:20.571257+01 | 1486335260.57126 |                 0 |              13 |                   416 |                   19 |               2219 |             0 |                0 |          487833 |                     0 |        191841 | 2017-02-05 22:51:16.555195+01

 2017-02-05 23:54:21.660872+01 | 1486335261.66087 |                 0 |              13 |                   416 |                   19 |               2219 |             0 |                0 |          487833 |                     0 |        191841 | 2017-02-05 22:51:16.555195+01

 2017-02-05 23:54:22.763775+01 | 1486335262.76378 |                 0 |              13 |                   416 |                   19 |               2219 |             0 |                0 |          487833 |                     0 |        191841 | 2017-02-05 22:51:16.555195+01

 2017-02-05 23:54:23.854599+01 | 1486335263.8546 |                 0 |              13 |                   416 |                   19 |               2219 |             0 |                0 |          487833 |                     0 |        191841 | 2017-02-05 22:51:16.555195+01

 2017-02-05 23:54:24.964825+01 | 1486335264.96482 |                 0 |              13 |                   416 |                   19 |               2219 |             0 |                0 |          487833 |                     0 |        191841 | 2017-02-05 22:51:16.555195+01

 2017-02-05 23:54:26.08239+01 | 1486335266.08239 |                 0 |              13 |                   416 |                   19 |               2219 |             0 |                0 |          487833 |                     0 |        191841 | 2017-02-05 22:51:16.555195+01

 2017-02-05 23:54:27.188486+01 | 1486335267.18849 |                 0 |              13 |                   416 |                   19 |               2219 |             0 |                0 |          487833 |                     0 |        191841 | 2017-02-05 22:51:16.555195+01

 2017-02-05 23:54:28.273335+01 | 1486335268.27333 |                 0 |              13 |                   416 |                   19 |               2219 |             0 |                0 |          487833 |                     0 |        191841 | 2017-02-05 22:51:16.555195+01

 2017-02-05 23:54:29.368031+01 | 1486335269.36803 |                 0 |              13 |                   416 |                   19 |               2219 |             0 |                0 |          487833 |                     0 |        191841 | 2017-02-05 22:51:16.555195+01

 2017-02-05 23:54:30.4524+01 | 1486335270.4524 |                 0 |              13 |                   416 |                   19 |               2219 |             0 |                0 |          487833 |                     0 |        191841 | 2017-02-05 22:51:16.555195+01

 2017-02-05 23:54:31.549564+01 | 1486335271.54956 |                 0 |              13 |                   416 |                   19 |               2219 |             0 |                0 |          487833 |                     0 |        191841 | 2017-02-05 22:51:16.555195+01

 2017-02-05 23:54:32.653292+01 | 1486335272.65329 |                 0 |              13 |                   416 |                   19 |               2219 |             0 |                0 |          487833 |                     0 |        191841 | 2017-02-05 22:51:16.555195+01

 2017-02-05 23:54:33.747524+01 | 1486335273.74752 |                 0 |              13 |                   416 |                   19 |               2219 |             0 |                0 |          487833 |                     0 |        191841 | 2017-02-05 22:51:16.555195+01

 2017-02-05 23:54:34.839511+01 | 1486335274.83951 |                 0 |              13 |                   416 |                   19 |               2219 |             0 |                0 |          487833 |                     0 |        191841 | 2017-02-05 22:51:16.555195+01

 2017-02-05 23:54:35.946838+01 | 1486335275.94684 |                 0 |              13 |                   416 |                   19 |               2219 |             0 |                0 |          487833 |                     0 |        191841 | 2017-02-05 22:51:16.555195+01

 2017-02-05 23:54:37.050527+01 | 1486335277.05053 |                 0 |              13 |                   416 |                   19 |               2219 |             0 |                0 |          487833 |                     0 |        191841 | 2017-02-05 22:51:16.555195+01

 2017-02-05 23:54:38.153288+01 | 1486335278.15329 |                 0 |              13 |                   416 |                   19 |               2219 |             0 |                0 |          487833 |                     0 |        191841 | 2017-02-05 22:51:16.555195+01

 2017-02-05 23:54:39.259865+01 | 1486335279.25987 |                 0 |              13 |                   416 |                   19 |               2219 |             0 |                0 |          487833 |                     0 |        191841 | 2017-02-05 22:51:16.555195+01

 2017-02-05 23:54:40.348283+01 | 1486335280.34828 |                 0 |              13 |                   416 |                   19 |               2219 |             0 |                0 |          487833 |                     0 |        191841 | 2017-02-05 22:51:16.555195+01

 2017-02-05 23:54:41.431938+01 | 1486335281.43194 |                 0 |              13 |                   416 |                   19 |               2219 |             0 |                0 |          487833 |                     0 |        191841 | 2017-02-05 22:51:16.555195+01

 2017-02-05 23:54:42.513035+01 | 1486335282.51304 |                 0 |              13 |                   416 |                   19 |               2219 |             0 |                0 |          487833 |                     0 |        191841 | 2017-02-05 22:51:16.555195+01

 2017-02-05 23:54:43.602386+01 | 1486335283.60239 |                 0 |              13 |                   416 |                   19 |               2219 |             0 |                0 |          487833 |                     0 |        191841 | 2017-02-05 22:51:16.555195+01

 2017-02-05 23:54:44.693097+01 | 1486335284.6931 |                 0 |              13 |                   416 |                   19 |               2219 |             0 |                0 |          487833 |                     0 |        191841 | 2017-02-05 22:51:16.555195+01

 2017-02-05 23:54:45.792869+01 | 1486335285.79287 |                 0 |              13 |                   416 |                   19 |               2219 |             0 |                0 |          487833 |                     0 |        191841 | 2017-02-05 22:51:16.555195+01

 2017-02-05 23:54:46.903053+01 | 1486335286.90305 |                 0 |              13 |                   416 |                   19 |               2219 |             0 |                0 |          487833 |                     0 |        191841 | 2017-02-05 22:51:16.555195+01

 2017-02-05 23:54:48.007833+01 | 1486335288.00783 |                 0 |              13 |                   416 |                   19 |               2219 |             0 |                0 |          487833 |                     0 |        191841 | 2017-02-05 22:51:16.555195+01

 2017-02-05 23:54:49.10711+01 | 1486335289.10711 |                 0 |              13 |                   416 |                   19 |               2219 |             0 |                0 |          487833 |                     0 |        191841 | 2017-02-05 22:51:16.555195+01

 2017-02-05 23:54:50.196884+01 | 1486335290.19688 |                 0 |              13 |                   416 |                   19 |               2219 |             0 |                0 |          487833 |                     0 |        191841 | 2017-02-05 22:51:16.555195+01

 2017-02-05 23:54:51.2944+01 | 1486335291.2944 |                 0 |              13 |                   416 |                   19 |               2219 |             0 |                0 |          487833 |                     0 |        191841 | 2017-02-05 22:51:16.555195+01

 2017-02-05 23:54:52.384696+01 | 1486335292.3847 |                 0 |              13 |                   416 |                   19 |               2219 |             0 |                0 |          487833 |                     0 |        191841 | 2017-02-05 22:51:16.555195+01

 2017-02-05 23:54:53.480529+01 | 1486335293.48053 |                 0 |              13 |                   416 |                   19 |               2219 |             0 |                0 |          487833 |                     0 |        191841 | 2017-02-05 22:51:16.555195+01

 2017-02-05 23:54:54.567735+01 | 1486335294.56773 |                 0 |              13 |                   416 |                   19 |               2219 |             0 |                0 |          487833 |                     0 |        191841 | 2017-02-05 22:51:16.555195+01

 2017-02-05 23:54:55.658773+01 | 1486335295.65877 |                 0 |              13 |                   416 |                   19 |               2219 |             0 |                0 |          487833 |                     0 |        191841 | 2017-02-05 22:51:16.555195+01

 2017-02-05 23:54:56.749645+01 | 1486335296.74964 |                 0 |              13 |                   416 |                   19 |               2219 |             0 |                0 |          487833 |                     0 |        191841 | 2017-02-05 22:51:16.555195+01

 2017-02-05 23:54:57.834825+01 | 1486335297.83483 |                 0 |              13 |                   416 |                   19 |               2219 |             0 |                0 |          487833 |                     0 |        191841 | 2017-02-05 22:51:16.555195+01

 2017-02-05 23:54:58.936765+01 | 1486335298.93676 |                 0 |              13 |                   416 |                   19 |               2219 |             0 |                0 |          487833 |                     0 |        191841 | 2017-02-05 22:51:16.555195+01

 2017-02-05 23:55:00.043946+01 | 1486335300.04395 |                 0 |              13 |                   416 |                   19 |               2219 |             0 |                0 |          487833 |                     0 |        191841 | 2017-02-05 22:51:16.555195+01

 2017-02-05 23:55:01.139278+01 | 1486335301.13928 |                 0 |              13 |                   416 |                   19 |               2219 |             0 |                0 |          487833 |                     0 |        191841 | 2017-02-05 22:51:16.555195+01

 2017-02-05 23:55:02.224042+01 | 1486335302.22404 |                 0 |              13 |                   416 |                   19 |               2219 |             0 |                0 |          487833 |                     0 |        191841 | 2017-02-05 22:51:16.555195+01

 2017-02-05 23:55:03.323542+01 | 1486335303.32354 |                 0 |              13 |                   416 |                   19 |               2219 |             0 |                0 |          487833 |                     0 |        191841 | 2017-02-05 22:51:16.555195+01

 2017-02-05 23:55:04.420481+01 | 1486335304.42048 |                 0 |              13 |                   416 |                   19 |               2219 |             0 |                0 |          487833 |                     0 |        191841 | 2017-02-05 22:51:16.555195+01

 2017-02-05 23:55:05.514099+01 | 1486335305.5141 |                 0 |              13 |                   416 |                   19 |               2219 |             0 |                0 |          487833 |                     0 |        191841 | 2017-02-05 22:51:16.555195+01

 2017-02-05 23:55:06.593642+01 | 1486335306.59364 |                 0 |              13 |                   416 |                   19 |               2219 |             0 |                0 |          487833 |                     0 |        191841 | 2017-02-05 22:51:16.555195+01

 2017-02-05 23:55:07.680029+01 | 1486335307.68003 |                 0 |              13 |                   416 |                   19 |               2219 |             0 |                0 |          487833 |                     0 |        191841 | 2017-02-05 22:51:16.555195+01

 2017-02-05 23:55:08.77435+01 | 1486335308.77435 |                 0 |              13 |                   416 |                   19 |               2219 |             0 |                0 |          487833 |                     0 |        191841 | 2017-02-05 22:51:16.555195+01

 2017-02-05 23:55:09.87786+01 | 1486335309.87786 |                 0 |              13 |                   416 |                   19 |               2219 |             0 |                0 |          487833 |                     0 |        191841 | 2017-02-05 22:51:16.555195+01

 2017-02-05 23:55:10.982571+01 | 1486335310.98257 |                 0 |              13 |                   416 |                   19 |               2219 |             0 |                0 |          487833 |                     0 |        191841 | 2017-02-05 22:51:16.555195+01

 2017-02-05 23:55:12.074481+01 | 1486335312.07448 |                 0 |              13 |                   416 |                   19 |               2219 |             0 |                0 |          487833 |                     0 |        191841 | 2017-02-05 22:51:16.555195+01

 2017-02-05 23:55:13.168562+01 | 1486335313.16856 |                 0 |              13 |                   416 |                   19 |               2219 |             0 |                0 |          487833 |                     0 |        191841 | 2017-02-05 22:51:16.555195+01

 2017-02-05 23:55:14.265306+01 | 1486335314.26531 |                 0 |              13 |                   416 |                   19 |               2219 |             0 |                0 |          487833 |                     0 |        191841 | 2017-02-05 22:51:16.555195+01

 2017-02-05 23:55:15.366129+01 | 1486335315.36613 |                 0 |              13 |                   416 |                   19 |               2219 |             0 |                0 |          487833 |                     0 |        191841 | 2017-02-05 22:51:16.555195+01

 2017-02-05 23:55:16.458192+01 | 1486335316.45819 |                 0 |              13 |                   416 |                   19 |               2219 |             0 |                0 |          487833 |                     0 |        191841 | 2017-02-05 22:51:16.555195+01

 2017-02-05 23:55:17.545537+01 | 1486335317.54554 |                 0 |              13 |                   416 |                   19 |               2219 |             0 |                0 |          487833 |                     0 |        191841 | 2017-02-05 22:51:16.555195+01

 2017-02-05 23:55:18.632992+01 | 1486335318.63299 |                 0 |              13 |                   416 |                   19 |               2219 |             0 |                0 |          487833 |                     0 |        191841 | 2017-02-05 22:51:16.555195+01

 2017-02-05 23:55:19.741029+01 | 1486335319.74103 |                 0 |              13 |                   416 |                   19 |               2219 |             0 |                0 |          487833 |                     0 |        191841 | 2017-02-05 22:51:16.555195+01

 2017-02-05 23:55:20.831182+01 | 1486335320.83118 |                 0 |              13 |                   416 |                   19 |               2219 |             0 |                0 |          487833 |                     0 |        191841 | 2017-02-05 22:51:16.555195+01

 2017-02-05 23:55:21.927659+01 | 1486335321.92766 |                 0 |              13 |                   416 |                   19 |               2219 |             0 |                0 |          487833 |                     0 |        191841 | 2017-02-05 22:51:16.555195+01

 2017-02-05 23:55:23.024362+01 | 1486335323.02436 |                 0 |              13 |                   416 |                   19 |               2219 |             0 |                0 |          487833 |                     0 |        191841 | 2017-02-05 22:51:16.555195+01

 2017-02-05 23:55:24.134218+01 | 1486335324.13422 |                 0 |              13 |                   416 |                   19 |               2219 |             0 |                0 |          487833 |                     0 |        191841 | 2017-02-05 22:51:16.555195+01

 2017-02-05 23:55:25.236694+01 | 1486335325.23669 |                 0 |              13 |                   416 |                   19 |               2219 |             0 |                0 |          487833 |                     0 |        191841 | 2017-02-05 22:51:16.555195+01

 2017-02-05 23:55:26.329011+01 | 1486335326.32901 |                 0 |              13 |                   416 |                   19 |               2219 |             0 |                0 |          487833 |                     0 |        191841 | 2017-02-05 22:51:16.555195+01

 2017-02-05 23:55:27.421079+01 | 1486335327.42108 |                 0 |              13 |                   416 |                   19 |               2219 |             0 |                0 |          487833 |                     0 |        191841 | 2017-02-05 22:51:16.555195+01

 2017-02-05 23:55:28.511019+01 | 1486335328.51102 |                 0 |              13 |                   416 |                   19 |               2219 |             0 |                0 |          487833 |                     0 |        191841 | 2017-02-05 22:51:16.555195+01

 2017-02-05 23:55:29.607333+01 | 1486335329.60733 |                 0 |              13 |                   416 |                   19 |               2219 |             0 |                0 |          487833 |                     0 |        191841 | 2017-02-05 22:51:16.555195+01

 2017-02-05 23:55:30.695231+01 | 1486335330.69523 |                 0 |              13 |                   416 |                   19 |               2219 |             0 |                0 |          487833 |                     0 |        191841 | 2017-02-05 22:51:16.555195+01

 2017-02-05 23:55:31.784184+01 | 1486335331.78418 |                 0 |              13 |                   416 |                   19 |               2219 |             0 |                0 |          487833 |                     0 |        191841 | 2017-02-05 22:51:16.555195+01

 2017-02-05 23:55:32.878+01 | 1486335332.878 |                 0 |              13 |                   416 |                   19 |               2219 |             0 |                0 |          487833 |                     0 |        191841 | 2017-02-05 22:51:16.555195+01

 2017-02-05 23:55:33.972144+01 | 1486335333.97214 |                 0 |              13 |                   416 |                   19 |               2219 |             0 |                0 |          487833 |                     0 |        191841 | 2017-02-05 22:51:16.555195+01

 2017-02-05 23:55:35.07348+01 | 1486335335.07348 |                 0 |              13 |                   416 |                   19 |               2219 |             0 |                0 |          487833 |                     0 |        191841 | 2017-02-05 22:51:16.555195+01

 2017-02-05 23:55:36.188825+01 | 1486335336.18882 |                 0 |              13 |                   416 |                   19 |               2219 |             0 |                0 |          487833 |                     0 |        191841 | 2017-02-05 22:51:16.555195+01

 2017-02-05 23:55:37.298531+01 | 1486335337.29853 |                 0 |              13 |                   416 |                   19 |               2219 |             0 |                0 |          487833 |                     0 |        191841 | 2017-02-05 22:51:16.555195+01

 2017-02-05 23:55:38.395893+01 | 1486335338.39589 |                 0 |              13 |                   416 |                   19 |               2219 |             0 |                0 |          487833 |                     0 |        191841 | 2017-02-05 22:51:16.555195+01

 2017-02-05 23:55:39.484208+01 | 1486335339.48421 |                 0 |              13 |                   416 |                   19 |               2219 |             0 |                0 |          487833 |                     0 |        191841 | 2017-02-05 22:51:16.555195+01

 2017-02-05 23:55:40.562829+01 | 1486335340.56283 |                 0 |              13 |                   416 |                   19 |               2219 |             0 |                0 |          487833 |                     0 |        191841 | 2017-02-05 22:51:16.555195+01

 2017-02-05 23:55:41.651028+01 | 1486335341.65103 |                 0 |              13 |                   416 |                   19 |               2219 |             0 |                0 |          487833 |                     0 |        191841 | 2017-02-05 22:51:16.555195+01

 2017-02-05 23:55:42.739938+01 | 1486335342.73994 |                 0 |              13 |                   416 |                   19 |               2219 |             0 |                0 |          487833 |                     0 |        191841 | 2017-02-05 22:51:16.555195+01

 2017-02-05 23:55:43.839565+01 | 1486335343.83957 |                 0 |              13 |                   416 |                   19 |               2219 |             0 |                0 |          487833 |                     0 |        191841 | 2017-02-05 22:51:16.555195+01

 2017-02-05 23:55:44.922809+01 | 1486335344.92281 |                 0 |              13 |                   416 |                   19 |               2219 |             0 |                0 |          487833 |                     0 |        191841 | 2017-02-05 22:51:16.555195+01

 2017-02-05 23:55:46.024433+01 | 1486335346.02443 |                 0 |              13 |                   416 |                   19 |               2219 |             0 |                0 |          487833 |                     0 |        191841 | 2017-02-05 22:51:16.555195+01

 2017-02-05 23:55:47.114612+01 | 1486335347.11461 |                 0 |              13 |                   416 |                   19 |               2219 |             0 |                0 |          487833 |                     0 |        191841 | 2017-02-05 22:51:16.555195+01

 2017-02-05 23:55:48.223352+01 | 1486335348.22335 |                 0 |              13 |                   416 |                   19 |               2219 |             0 |                0 |          487833 |                     0 |        191841 | 2017-02-05 22:51:16.555195+01

 2017-02-05 23:55:49.314378+01 | 1486335349.31438 |                 0 |              13 |                   416 |                   19 |               2219 |             0 |                0 |          487833 |                     0 |        191841 | 2017-02-05 22:51:16.555195+01

 2017-02-05 23:55:50.405786+01 | 1486335350.40579 |                 0 |              13 |                   416 |                   19 |               2219 |             0 |                0 |          487833 |                     0 |        191841 | 2017-02-05 22:51:16.555195+01

 2017-02-05 23:55:51.502837+01 | 1486335351.50284 |                 0 |              13 |                   416 |                   19 |               2219 |             0 |                0 |          487833 |                     0 |        191841 | 2017-02-05 22:51:16.555195+01

 2017-02-05 23:55:52.602342+01 | 1486335352.60234 |                 0 |              13 |                   416 |                   19 |               2219 |             0 |                0 |          487833 |                     0 |        191841 | 2017-02-05 22:51:16.555195+01

 2017-02-05 23:55:53.695129+01 | 1486335353.69513 |                 0 |              13 |                   416 |                   19 |               2219 |             0 |                0 |          487833 |                     0 |        191841 | 2017-02-05 22:51:16.555195+01

 2017-02-05 23:55:54.794937+01 | 1486335354.79494 |                 0 |              13 |                   416 |                   19 |               2219 |             0 |                0 |          487833 |                     0 |        191841 | 2017-02-05 22:51:16.555195+01

 2017-02-05 23:55:55.890792+01 | 1486335355.89079 |                 0 |              13 |                   416 |                   19 |               2219 |             0 |                0 |          487833 |                     0 |        191841 | 2017-02-05 22:51:16.555195+01

 2017-02-05 23:55:56.999925+01 | 1486335356.99992 |                 0 |              13 |                   416 |                   19 |               2219 |             0 |                0 |          487833 |                     0 |        191841 | 2017-02-05 22:51:16.555195+01

 2017-02-05 23:55:58.089403+01 | 1486335358.0894 |                 0 |              13 |                   416 |                   19 |               2219 |             0 |                0 |          487833 |                     0 |        191841 | 2017-02-05 22:51:16.555195+01

 2017-02-05 23:55:59.195291+01 | 1486335359.19529 |                 0 |              13 |                   416 |                   19 |               2219 |             0 |                0 |          487833 |                     0 |        191841 | 2017-02-05 22:51:16.555195+01

 2017-02-05 23:56:00.306901+01 | 1486335360.3069 |                 0 |              13 |                   416 |                   19 |               2219 |             0 |                0 |          487833 |                     0 |        191841 | 2017-02-05 22:51:16.555195+01

 2017-02-05 23:56:01.424497+01 | 1486335361.4245 |                 0 |              13 |                   416 |                   19 |               2219 |             0 |                0 |          487833 |                     0 |        191841 | 2017-02-05 22:51:16.555195+01

 2017-02-05 23:56:02.524463+01 | 1486335362.52446 |                 0 |              13 |                   416 |                   19 |               2219 |             0 |                0 |          487833 |                     0 |        191841 | 2017-02-05 22:51:16.555195+01

 2017-02-05 23:56:03.611423+01 | 1486335363.61142 |                 0 |              13 |                   416 |                   19 |               2219 |             0 |                0 |          487833 |                     0 |        191841 | 2017-02-05 22:51:16.555195+01

 2017-02-05 23:56:04.700828+01 | 1486335364.70083 |                 0 |              13 |                   416 |                   19 |               2219 |             0 |                0 |          487833 |                     0 |        191841 | 2017-02-05 22:51:16.555195+01

 2017-02-05 23:56:05.790429+01 | 1486335365.79043 |                 0 |              13 |                   416 |                   19 |               2219 |             0 |                0 |          487833 |                     0 |        191841 | 2017-02-05 22:51:16.555195+01

 2017-02-05 23:56:06.882313+01 | 1486335366.88231 |                 0 |              13 |                   416 |                   19 |               2219 |             0 |                0 |          487833 |                     0 |        191841 | 2017-02-05 22:51:16.555195+01

 2017-02-05 23:56:07.965669+01 | 1486335367.96567 |                 0 |              13 |                   416 |                   19 |               2219 |             0 |                0 |          487833 |                     0 |        191841 | 2017-02-05 22:51:16.555195+01

 2017-02-05 23:56:09.055832+01 | 1486335369.05583 |                 0 |              13 |                   416 |                   19 |               2219 |             0 |                0 |          487833 |                     0 |        191841 | 2017-02-05 22:51:16.555195+01

 2017-02-05 23:56:10.150494+01 | 1486335370.15049 |                 0 |              13 |                   416 |                   19 |               2219 |             0 |                0 |          487833 |                     0 |        191841 | 2017-02-05 22:51:16.555195+01

 2017-02-05 23:56:11.25606+01 | 1486335371.25606 |                 0 |              13 |                   416 |                   19 |               2219 |             0 |                0 |          487833 |                     0 |        191841 | 2017-02-05 22:51:16.555195+01

 2017-02-05 23:56:12.364641+01 | 1486335372.36464 |                 0 |              13 |                   416 |                   19 |               2219 |             0 |                0 |          487833 |                     0 |        191841 | 2017-02-05 22:51:16.555195+01

 2017-02-05 23:56:13.48597+01 | 1486335373.48597 |                 0 |              13 |                   416 |                   19 |               2219 |             0 |                0 |          487833 |                     0 |        191841 | 2017-02-05 22:51:16.555195+01

 2017-02-05 23:56:14.595503+01 | 1486335374.5955 |                 0 |              13 |                   416 |                   19 |               2219 |             0 |                0 |          487833 |                     0 |        191841 | 2017-02-05 22:51:16.555195+01

 2017-02-05 23:56:15.687329+01 | 1486335375.68733 |                 0 |              13 |                   416 |                   19 |               2219 |             0 |                0 |          487833 |                     0 |        191841 | 2017-02-05 22:51:16.555195+01

 2017-02-05 23:56:16.79062+01 | 1486335376.79062 |                 0 |              13 |                   416 |                   19 |               2219 |             0 |                0 |          487833 |                     0 |        191841 | 2017-02-05 22:51:16.555195+01

 2017-02-05 23:56:17.883447+01 | 1486335377.88345 |                 0 |              13 |                   416 |                   19 |               2219 |             0 |                0 |          487833 |                     0 |        191841 | 2017-02-05 22:51:16.555195+01

 2017-02-05 23:56:18.977352+01 | 1486335378.97735 |                 0 |              13 |                   416 |                   19 |               2219 |             0 |                0 |          487833 |                     0 |        191841 | 2017-02-05 22:51:16.555195+01

 2017-02-05 23:56:20.076055+01 | 1486335380.07606 |                 0 |              13 |                   416 |                   19 |               2219 |             0 |                0 |          487833 |                     0 |        191841 | 2017-02-05 22:51:16.555195+01

 2017-02-05 23:56:21.170257+01 | 1486335381.17026 |                 0 |              13 |                   416 |                   19 |               2219 |             0 |                0 |          487833 |                     0 |        191841 | 2017-02-05 22:51:16.555195+01

 2017-02-05 23:56:22.27119+01 | 1486335382.27119 |                 0 |              13 |                   416 |                   19 |               2219 |             0 |                0 |          487833 |                     0 |        191841 | 2017-02-05 22:51:16.555195+01

 2017-02-05 23:56:23.362509+01 | 1486335383.36251 |                 0 |              13 |                   416 |                   19 |               2219 |             0 |                0 |          487833 |                     0 |        191841 | 2017-02-05 22:51:16.555195+01

 2017-02-05 23:56:24.465805+01 | 1486335384.46581 |                 0 |              13 |                   416 |                   19 |               2219 |             0 |                0 |          487833 |                     0 |        191841 | 2017-02-05 22:51:16.555195+01

 2017-02-05 23:56:25.570124+01 | 1486335385.57012 |                 0 |              13 |                   416 |                   19 |               2219 |             0 |                0 |          487833 |                     0 |        191841 | 2017-02-05 22:51:16.555195+01

 2017-02-05 23:56:26.661639+01 | 1486335386.66164 |                 0 |              13 |                   416 |                   19 |               2219 |             0 |                0 |          487833 |                     0 |        191841 | 2017-02-05 22:51:16.555195+01

 2017-02-05 23:56:27.743994+01 | 1486335387.74399 |                 0 |              13 |                   416 |                   19 |               2219 |             0 |                0 |          487833 |                     0 |        191841 | 2017-02-05 22:51:16.555195+01

 2017-02-05 23:56:28.830527+01 | 1486335388.83053 |                 0 |              13 |                   416 |                   19 |               2219 |             0 |                0 |          487833 |                     0 |        191841 | 2017-02-05 22:51:16.555195+01

 2017-02-05 23:56:29.926119+01 | 1486335389.92612 |                 0 |              13 |                   416 |                   19 |               2219 |             0 |                0 |          487833 |                     0 |        191841 | 2017-02-05 22:51:16.555195+01

 2017-02-05 23:56:31.016306+01 | 1486335391.01631 |                 0 |              13 |                   416 |                   19 |               2219 |             0 |                0 |          487833 |                     0 |        191841 | 2017-02-05 22:51:16.555195+01

 2017-02-05 23:56:32.104993+01 | 1486335392.10499 |                 0 |              13 |                   416 |                   19 |               2219 |             0 |                0 |          487833 |                     0 |        191841 | 2017-02-05 22:51:16.555195+01

 2017-02-05 23:56:33.212437+01 | 1486335393.21244 |                 0 |              13 |                   416 |                   19 |               2219 |             0 |                0 |          487833 |                     0 |        191841 | 2017-02-05 22:51:16.555195+01

 2017-02-05 23:56:34.310325+01 | 1486335394.31032 |                 0 |              13 |                   416 |                   19 |               2219 |             0 |                0 |          487833 |                     0 |        191841 | 2017-02-05 22:51:16.555195+01

 2017-02-05 23:56:35.421503+01 | 1486335395.4215 |                 0 |              13 |                   416 |                   19 |               2219 |             0 |                0 |          487833 |                     0 |        191841 | 2017-02-05 22:51:16.555195+01

 2017-02-05 23:56:36.527457+01 | 1486335396.52746 |                 0 |              13 |                   416 |                   19 |               2219 |             0 |                0 |          487833 |                     0 |        191841 | 2017-02-05 22:51:16.555195+01

 2017-02-05 23:56:37.629638+01 | 1486335397.62964 |                 0 |              13 |                   416 |                   19 |               2219 |             0 |                0 |          487833 |                     0 |        191841 | 2017-02-05 22:51:16.555195+01

 2017-02-05 23:56:38.723899+01 | 1486335398.7239 |                 0 |              13 |                   416 |                   19 |               2219 |             0 |                0 |          487833 |                     0 |        191841 | 2017-02-05 22:51:16.555195+01

 2017-02-05 23:56:39.815152+01 | 1486335399.81515 |                 0 |              13 |                   416 |                   19 |               2219 |             0 |                0 |          487833 |                     0 |        191841 | 2017-02-05 22:51:16.555195+01

 2017-02-05 23:56:40.904031+01 | 1486335400.90403 |                 0 |              13 |                   416 |                   19 |               2219 |             0 |                0 |          487833 |                     0 |        191841 | 2017-02-05 22:51:16.555195+01

 2017-02-05 23:56:42.00403+01 | 1486335402.00403 |                 0 |              13 |                   416 |                   19 |               2219 |             0 |                0 |          487833 |                     0 |        191841 | 2017-02-05 22:51:16.555195+01

