 2017-02-05 13:17:59.334137+01 | 1486297079.33414 |                 0 |               8 |                 63273 |                 1101 |            5875067 |        622541 |             5866 |         6917135 |                     0 |       3034881 | 2017-02-05 12:37:55.464888+01

 2017-02-05 13:18:00.414971+01 | 1486297080.41497 |                 0 |               8 |                 63273 |                 1101 |            5875067 |        622541 |             5866 |         6917135 |                     0 |       3036296 | 2017-02-05 12:37:55.464888+01

 2017-02-05 13:18:01.499029+01 | 1486297081.49903 |                 0 |               8 |                 63273 |                 1101 |            5875067 |        622541 |             5866 |         6917135 |                     0 |       3037920 | 2017-02-05 12:37:55.464888+01

 2017-02-05 13:18:02.57914+01 | 1486297082.57914 |                 0 |               8 |                 63273 |                 1101 |            5875067 |        622541 |             5866 |         6917135 |                     0 |       3039556 | 2017-02-05 12:37:55.464888+01

 2017-02-05 13:18:03.668486+01 | 1486297083.66849 |                 0 |               8 |                 63273 |                 1101 |            5875067 |        622541 |             5866 |         6917135 |                     0 |       3041305 | 2017-02-05 12:37:55.464888+01

 2017-02-05 13:18:04.766561+01 | 1486297084.76656 |                 0 |               8 |                 63273 |                 1101 |            5875067 |        622541 |             5866 |         6917135 |                     0 |       3043678 | 2017-02-05 12:37:55.464888+01

 2017-02-05 13:18:05.856955+01 | 1486297085.85696 |                 0 |               8 |                 63273 |                 1101 |            5875067 |        622541 |             5866 |         6917135 |                     0 |       3045652 | 2017-02-05 12:37:55.464888+01

 2017-02-05 13:18:06.937738+01 | 1486297086.93774 |                 0 |               8 |                 63273 |                 1101 |            5875067 |        622541 |             5866 |         6917135 |                     0 |       3048178 | 2017-02-05 12:37:55.464888+01

 2017-02-05 13:18:08.019242+01 | 1486297088.01924 |                 0 |               8 |                 63273 |                 1101 |            5875067 |        622541 |             5866 |         6917135 |                     0 |       3050515 | 2017-02-05 12:37:55.464888+01

 2017-02-05 13:18:09.106386+01 | 1486297089.10639 |                 0 |               8 |                 63273 |                 1101 |            5875067 |        622541 |             5866 |         6917135 |                     0 |       3052827 | 2017-02-05 12:37:55.464888+01

 2017-02-05 13:18:10.188835+01 | 1486297090.18883 |                 0 |               8 |                 63273 |                 1101 |            5875067 |        622541 |             5866 |         6917135 |                     0 |       3055058 | 2017-02-05 12:37:55.464888+01

 2017-02-05 13:18:11.273142+01 | 1486297091.27314 |                 0 |               8 |                 63273 |                 1101 |            5875067 |        622541 |             5866 |         6917135 |                     0 |       3057565 | 2017-02-05 12:37:55.464888+01

 2017-02-05 13:18:12.354346+01 | 1486297092.35435 |                 0 |               8 |                 63273 |                 1101 |            5875067 |        622541 |             5866 |         6917135 |                     0 |       3060377 | 2017-02-05 12:37:55.464888+01

 2017-02-05 13:18:13.436658+01 | 1486297093.43666 |                 0 |               8 |                 63273 |                 1101 |            5875067 |        622541 |             5866 |         6917135 |                     0 |       3062809 | 2017-02-05 12:37:55.464888+01

 2017-02-05 13:18:14.523378+01 | 1486297094.52338 |                 0 |               8 |                 63273 |                 1101 |            5875067 |        622541 |             5866 |         6917135 |                     0 |       3065689 | 2017-02-05 12:37:55.464888+01

 2017-02-05 13:18:15.611288+01 | 1486297095.61129 |                 0 |               8 |                 63273 |                 1101 |            5875067 |        622541 |             5866 |         6917135 |                     0 |       3068348 | 2017-02-05 12:37:55.464888+01

 2017-02-05 13:18:16.699764+01 | 1486297096.69976 |                 0 |               8 |                 63273 |                 1101 |            5875067 |        622541 |             5866 |         6917135 |                     0 |       3070919 | 2017-02-05 12:37:55.464888+01

 2017-02-05 13:18:17.789209+01 | 1486297097.78921 |                 0 |               8 |                 63273 |                 1101 |            5875067 |        622541 |             5866 |         6917135 |                     0 |       3073931 | 2017-02-05 12:37:55.464888+01

 2017-02-05 13:18:18.873514+01 | 1486297098.87351 |                 0 |               8 |                 63273 |                 1101 |            5875067 |        622541 |             5866 |         6917135 |                     0 |       3076163 | 2017-02-05 12:37:55.464888+01

 2017-02-05 13:18:19.960713+01 | 1486297099.96071 |                 0 |               8 |                 63273 |                 1101 |            5875067 |        622541 |             5866 |         6917135 |                     0 |       3079153 | 2017-02-05 12:37:55.464888+01

 2017-02-05 13:18:21.042346+01 | 1486297101.04235 |                 0 |               8 |                 63273 |                 1101 |            5875067 |        622541 |             5866 |         6917135 |                     0 |       3081773 | 2017-02-05 12:37:55.464888+01

 2017-02-05 13:18:22.130792+01 | 1486297102.13079 |                 0 |               8 |                 63273 |                 1101 |            5875067 |        622541 |             5866 |         6917135 |                     0 |       3084933 | 2017-02-05 12:37:55.464888+01

 2017-02-05 13:18:23.214538+01 | 1486297103.21454 |                 0 |               8 |                 63273 |                 1101 |            5875067 |        622541 |             5866 |         6917135 |                     0 |       3087732 | 2017-02-05 12:37:55.464888+01

 2017-02-05 13:18:24.30154+01 | 1486297104.30154 |                 0 |               8 |                 63273 |                 1101 |            5875067 |        622541 |             5866 |         6917135 |                     0 |       3090065 | 2017-02-05 12:37:55.464888+01

 2017-02-05 13:18:25.387819+01 | 1486297105.38782 |                 0 |               8 |                 63273 |                 1101 |            5875067 |        622541 |             5866 |         6917135 |                     0 |       3093090 | 2017-02-05 12:37:55.464888+01

 2017-02-05 13:18:26.485325+01 | 1486297106.48533 |                 0 |               8 |                 63273 |                 1101 |            5875067 |        622541 |             5866 |         6917135 |                     0 |       3095694 | 2017-02-05 12:37:55.464888+01

 2017-02-05 13:18:27.573632+01 | 1486297107.57363 |                 0 |               8 |                 63273 |                 1101 |            5875067 |        622541 |             5866 |         6917135 |                     0 |       3099218 | 2017-02-05 12:37:55.464888+01

 2017-02-05 13:18:28.657574+01 | 1486297108.65757 |                 0 |               8 |                 63273 |                 1101 |            5875067 |        622541 |             5866 |         6917135 |                     0 |       3102085 | 2017-02-05 12:37:55.464888+01

 2017-02-05 13:18:29.751154+01 | 1486297109.75115 |                 0 |               8 |                 63273 |                 1101 |            5875067 |        622541 |             5866 |         6917135 |                     0 |       3104989 | 2017-02-05 12:37:55.464888+01

 2017-02-05 13:18:30.833637+01 | 1486297110.83364 |                 0 |               8 |                 63273 |                 1101 |            5875067 |        622541 |             5866 |         6917135 |                     0 |       3107345 | 2017-02-05 12:37:55.464888+01

 2017-02-05 13:18:31.917485+01 | 1486297111.91748 |                 0 |               8 |                 63273 |                 1101 |            5875067 |        622541 |             5866 |         6917135 |                     0 |       3109518 | 2017-02-05 12:37:55.464888+01

 2017-02-05 13:18:32.998293+01 | 1486297112.99829 |                 0 |               8 |                 63273 |                 1101 |            5875067 |        622541 |             5866 |         6917135 |                     0 |       3112385 | 2017-02-05 12:37:55.464888+01

 2017-02-05 13:18:34.085758+01 | 1486297114.08576 |                 0 |               8 |                 63273 |                 1101 |            5875067 |        622541 |             5866 |         6917135 |                     0 |       3114686 | 2017-02-05 12:37:55.464888+01

 2017-02-05 13:18:35.169279+01 | 1486297115.16928 |                 0 |               8 |                 63273 |                 1101 |            5875067 |        622812 |             5866 |         6917135 |                     0 |       3117716 | 2017-02-05 12:37:55.464888+01

 2017-02-05 13:18:36.248477+01 | 1486297116.24848 |                 0 |               8 |                 63273 |                 1101 |            5875067 |        623016 |             5866 |         6917135 |                     0 |       3119688 | 2017-02-05 12:37:55.464888+01

 2017-02-05 13:18:37.329265+01 | 1486297117.32927 |                 0 |               8 |                 63273 |                 1101 |            5875067 |        623226 |             5866 |         6917135 |                     0 |       3121504 | 2017-02-05 12:37:55.464888+01

 2017-02-05 13:18:38.415101+01 | 1486297118.4151 |                 0 |               8 |                 63273 |                 1101 |            5875067 |        623571 |             5866 |         6917135 |                     0 |       3124464 | 2017-02-05 12:37:55.464888+01

 2017-02-05 13:18:39.506632+01 | 1486297119.50663 |                 0 |               8 |                 63273 |                 1101 |            5875067 |        623842 |             5866 |         6917135 |                     0 |       3126920 | 2017-02-05 12:37:55.464888+01

 2017-02-05 13:18:40.589125+01 | 1486297120.58912 |                 0 |               8 |                 63273 |                 1101 |            5875067 |        624177 |             5867 |         6917135 |                     0 |       3129906 | 2017-02-05 12:37:55.464888+01

 2017-02-05 13:18:41.676659+01 | 1486297121.67666 |                 0 |               8 |                 63273 |                 1101 |            5875067 |        624446 |             5867 |         6917135 |                     0 |       3132275 | 2017-02-05 12:37:55.464888+01

 2017-02-05 13:18:42.762274+01 | 1486297122.76227 |                 0 |               8 |                 63273 |                 1101 |            5875067 |        624729 |             5868 |         6917135 |                     0 |       3135045 | 2017-02-05 12:37:55.464888+01

 2017-02-05 13:18:43.849508+01 | 1486297123.84951 |                 0 |               8 |                 63273 |                 1101 |            5875067 |        625026 |             5868 |         6917135 |                     0 |       3138109 | 2017-02-05 12:37:55.464888+01

 2017-02-05 13:18:44.93059+01 | 1486297124.93059 |                 0 |               8 |                 63273 |                 1101 |            5875067 |        625298 |             5868 |         6917135 |                     0 |       3140957 | 2017-02-05 12:37:55.464888+01

 2017-02-05 13:18:46.027515+01 | 1486297126.02751 |                 0 |               8 |                 63273 |                 1101 |            5875067 |        625520 |             5868 |         6917135 |                     0 |       3143386 | 2017-02-05 12:37:55.464888+01

 2017-02-05 13:18:47.114005+01 | 1486297127.11401 |                 0 |               8 |                 63273 |                 1101 |            5875067 |        625824 |             5868 |         6917135 |                     0 |       3146636 | 2017-02-05 12:37:55.464888+01

 2017-02-05 13:18:48.206539+01 | 1486297128.20654 |                 0 |               8 |                 63273 |                 1101 |            5875067 |        626035 |             5868 |         6917135 |                     0 |       3149485 | 2017-02-05 12:37:55.464888+01

 2017-02-05 13:18:49.29211+01 | 1486297129.29211 |                 0 |               8 |                 63273 |                 1101 |            5875067 |        626362 |             5869 |         6917135 |                     0 |       3152452 | 2017-02-05 12:37:55.464888+01

 2017-02-05 13:18:50.373384+01 | 1486297130.37338 |                 0 |               8 |                 63273 |                 1101 |            5875067 |        626862 |             5874 |         6917135 |                     0 |       3154965 | 2017-02-05 12:37:55.464888+01

 2017-02-05 13:18:51.459221+01 | 1486297131.45922 |                 0 |               8 |                 63273 |                 1101 |            5875067 |        627362 |             5879 |         6917135 |                     0 |       3157490 | 2017-02-05 12:37:55.464888+01

 2017-02-05 13:18:52.54414+01 | 1486297132.54414 |                 0 |               8 |                 63273 |                 1101 |            5875067 |        627962 |             5885 |         6917135 |                     0 |       3159942 | 2017-02-05 12:37:55.464888+01

 2017-02-05 13:18:53.629563+01 | 1486297133.62956 |                 0 |               8 |                 63273 |                 1101 |            5875067 |        628462 |             5890 |         6917135 |                     0 |       3162517 | 2017-02-05 12:37:55.464888+01

 2017-02-05 13:18:54.714783+01 | 1486297134.71478 |                 0 |               8 |                 63273 |                 1101 |            5875067 |        628962 |             5895 |         6917135 |                     0 |       3164738 | 2017-02-05 12:37:55.464888+01

 2017-02-05 13:18:55.799893+01 | 1486297135.79989 |                 0 |               8 |                 63273 |                 1101 |            5875067 |        629562 |             5901 |         6917135 |                     0 |       3167747 | 2017-02-05 12:37:55.464888+01

 2017-02-05 13:18:56.893284+01 | 1486297136.89328 |                 0 |               8 |                 63273 |                 1101 |            5875067 |        630062 |             5906 |         6917135 |                     0 |       3170567 | 2017-02-05 12:37:55.464888+01

 2017-02-05 13:18:57.978074+01 | 1486297137.97807 |                 0 |               8 |                 63273 |                 1101 |            5875067 |        630662 |             5912 |         6917135 |                     0 |       3174359 | 2017-02-05 12:37:55.464888+01

 2017-02-05 13:18:59.064053+01 | 1486297139.06405 |                 0 |               8 |                 63273 |                 1101 |            5875067 |        631162 |             5917 |         6917135 |                     0 |       3177369 | 2017-02-05 12:37:55.464888+01

 2017-02-05 13:19:00.154238+01 | 1486297140.15424 |                 0 |               8 |                 63273 |                 1101 |            5875067 |        631662 |             5922 |         6917135 |                     0 |       3180694 | 2017-02-05 12:37:55.464888+01

 2017-02-05 13:19:01.249874+01 | 1486297141.24987 |                 0 |               8 |                 63273 |                 1101 |            5875067 |        632262 |             5928 |         6917135 |                     0 |       3184545 | 2017-02-05 12:37:55.464888+01

 2017-02-05 13:19:02.332803+01 | 1486297142.3328 |                 0 |               8 |                 63273 |                 1101 |            5875067 |        632762 |             5933 |         6917135 |                     0 |       3187696 | 2017-02-05 12:37:55.464888+01

 2017-02-05 13:19:03.417272+01 | 1486297143.41727 |                 0 |               8 |                 63273 |                 1101 |            5875067 |        633362 |             5939 |         6917135 |                     0 |       3191247 | 2017-02-05 12:37:55.464888+01

 2017-02-05 13:19:04.512962+01 | 1486297144.51296 |                 0 |               8 |                 63273 |                 1101 |            5875067 |        633862 |             5944 |         6917135 |                     0 |       3194358 | 2017-02-05 12:37:55.464888+01

 2017-02-05 13:19:05.601411+01 | 1486297145.60141 |                 0 |               8 |                 63273 |                 1101 |            5875067 |        634362 |             5949 |         6917135 |                     0 |       3197474 | 2017-02-05 12:37:55.464888+01

 2017-02-05 13:19:06.68878+01 | 1486297146.68878 |                 0 |               8 |                 63273 |                 1101 |            5875067 |        634962 |             5955 |         6917135 |                     0 |       3201200 | 2017-02-05 12:37:55.464888+01

 2017-02-05 13:19:07.77083+01 | 1486297147.77083 |                 0 |               8 |                 63273 |                 1101 |            5875067 |        635462 |             5960 |         6917135 |                     0 |       3204433 | 2017-02-05 12:37:55.464888+01

 2017-02-05 13:19:08.853781+01 | 1486297148.85378 |                 0 |               8 |                 63273 |                 1101 |            5875067 |        635962 |             5965 |         6917135 |                     0 |       3207429 | 2017-02-05 12:37:55.464888+01

 2017-02-05 13:19:09.941215+01 | 1486297149.94122 |                 0 |               8 |                 63273 |                 1101 |            5875067 |        636562 |             5971 |         6917135 |                     0 |       3211139 | 2017-02-05 12:37:55.464888+01

 2017-02-05 13:19:11.020622+01 | 1486297151.02062 |                 0 |               8 |                 63273 |                 1101 |            5875067 |        637062 |             5976 |         6917135 |                     0 |       3214274 | 2017-02-05 12:37:55.464888+01

 2017-02-05 13:19:12.11602+01 | 1486297152.11602 |                 0 |               8 |                 63273 |                 1101 |            5875067 |        637662 |             5982 |         6917135 |                     0 |       3217870 | 2017-02-05 12:37:55.464888+01

 2017-02-05 13:19:13.203521+01 | 1486297153.20352 |                 0 |               8 |                 63273 |                 1101 |            5875067 |        638162 |             5987 |         6917135 |                     0 |       3220639 | 2017-02-05 12:37:55.464888+01

 2017-02-05 13:19:14.289343+01 | 1486297154.28934 |                 0 |               8 |                 63273 |                 1101 |            5875067 |        638662 |             5992 |         6917135 |                     0 |       3223641 | 2017-02-05 12:37:55.464888+01

 2017-02-05 13:19:15.381959+01 | 1486297155.38196 |                 0 |               8 |                 63273 |                 1101 |            5875067 |        639262 |             5998 |         6917135 |                     0 |       3227565 | 2017-02-05 12:37:55.464888+01

 2017-02-05 13:19:16.462598+01 | 1486297156.4626 |                 0 |               8 |                 63273 |                 1101 |            5875067 |        639762 |             6003 |         6917135 |                     0 |       3230525 | 2017-02-05 12:37:55.464888+01

 2017-02-05 13:19:17.546324+01 | 1486297157.54632 |                 0 |               8 |                 63273 |                 1101 |            5875067 |        640262 |             6008 |         6917135 |                     0 |       3233577 | 2017-02-05 12:37:55.464888+01

 2017-02-05 13:19:18.63069+01 | 1486297158.63069 |                 0 |               8 |                 63273 |                 1101 |            5875067 |        640862 |             6014 |         6917135 |                     0 |       3237026 | 2017-02-05 12:37:55.464888+01

 2017-02-05 13:19:19.711379+01 | 1486297159.71138 |                 0 |               8 |                 63273 |                 1101 |            5875067 |        641362 |             6019 |         6917135 |                     0 |       3239788 | 2017-02-05 12:37:55.464888+01

 2017-02-05 13:19:20.795228+01 | 1486297160.79523 |                 0 |               8 |                 63273 |                 1101 |            5875067 |        641862 |             6024 |         6917135 |                     0 |       3242862 | 2017-02-05 12:37:55.464888+01

 2017-02-05 13:19:21.8783+01 | 1486297161.8783 |                 0 |               8 |                 63273 |                 1101 |            5875067 |        642462 |             6030 |         6917135 |                     0 |       3246016 | 2017-02-05 12:37:55.464888+01

 2017-02-05 13:19:22.967146+01 | 1486297162.96715 |                 0 |               8 |                 63273 |                 1101 |            5875067 |        642962 |             6035 |         6917135 |                     0 |       3249343 | 2017-02-05 12:37:55.464888+01

 2017-02-05 13:19:24.0609+01 | 1486297164.0609 |                 0 |               8 |                 63273 |                 1101 |            5875067 |        643562 |             6041 |         6917135 |                     0 |       3253030 | 2017-02-05 12:37:55.464888+01

 2017-02-05 13:19:25.147671+01 | 1486297165.14767 |                 0 |               8 |                 63273 |                 1101 |            5875067 |        644062 |             6046 |         6917135 |                     0 |       3256390 | 2017-02-05 12:37:55.464888+01

 2017-02-05 13:19:26.2395+01 | 1486297166.2395 |                 0 |               8 |                 63273 |                 1101 |            5875067 |        644562 |             6051 |         6917135 |                     0 |       3260015 | 2017-02-05 12:37:55.464888+01

 2017-02-05 13:19:27.325367+01 | 1486297167.32537 |                 0 |               8 |                 63273 |                 1101 |            5875067 |        645162 |             6057 |         6917135 |                     0 |       3264107 | 2017-02-05 12:37:55.464888+01

 2017-02-05 13:19:28.426286+01 | 1486297168.42629 |                 0 |               8 |                 63273 |                 1101 |            5875067 |        645662 |             6062 |         6917135 |                     0 |       3270275 | 2017-02-05 12:37:55.464888+01

 2017-02-05 13:19:29.516027+01 | 1486297169.51603 |                 0 |               8 |                 63273 |                 1101 |            5875067 |        646262 |             6068 |         6917135 |                     0 |       3272210 | 2017-02-05 12:37:55.464888+01

 2017-02-05 13:19:30.60126+01 | 1486297170.60126 |                 0 |               8 |                 63273 |                 1101 |            5875067 |        646762 |             6073 |         6917135 |                     0 |       3273998 | 2017-02-05 12:37:55.464888+01

 2017-02-05 13:19:31.685785+01 | 1486297171.68579 |                 0 |               8 |                 63273 |                 1101 |            5875067 |        647262 |             6078 |         6917135 |                     0 |       3276137 | 2017-02-05 12:37:55.464888+01

 2017-02-05 13:19:32.77245+01 | 1486297172.77245 |                 0 |               8 |                 63273 |                 1101 |            5875067 |        647862 |             6084 |         6917135 |                     0 |       3278532 | 2017-02-05 12:37:55.464888+01

 2017-02-05 13:19:33.85837+01 | 1486297173.85837 |                 0 |               8 |                 63273 |                 1101 |            5875067 |        648362 |             6089 |         6917135 |                     0 |       3280778 | 2017-02-05 12:37:55.464888+01

 2017-02-05 13:19:34.947349+01 | 1486297174.94735 |                 0 |               8 |                 63273 |                 1101 |            5875067 |        648862 |             6094 |         6917135 |                     0 |       3282864 | 2017-02-05 12:37:55.464888+01

 2017-02-05 13:19:36.031189+01 | 1486297176.03119 |                 0 |               8 |                 63273 |                 1101 |            5875067 |        649462 |             6100 |         6917135 |                     0 |       3285263 | 2017-02-05 12:37:55.464888+01

 2017-02-05 13:19:37.114508+01 | 1486297177.11451 |                 0 |               8 |                 63273 |                 1101 |            5875067 |        649962 |             6105 |         6917135 |                     0 |       3287425 | 2017-02-05 12:37:55.464888+01

 2017-02-05 13:19:38.198777+01 | 1486297178.19878 |                 0 |               8 |                 63273 |                 1101 |            5875067 |        650562 |             6111 |         6917135 |                     0 |       3290148 | 2017-02-05 12:37:55.464888+01

 2017-02-05 13:19:39.28687+01 | 1486297179.28687 |                 0 |               8 |                 63273 |                 1101 |            5875067 |        651062 |             6116 |         6917135 |                     0 |       3291865 | 2017-02-05 12:37:55.464888+01

 2017-02-05 13:19:40.3702+01 | 1486297180.3702 |                 0 |               8 |                 63273 |                 1101 |            5875067 |        651562 |             6121 |         6917135 |                     0 |       3294068 | 2017-02-05 12:37:55.464888+01

 2017-02-05 13:19:41.452851+01 | 1486297181.45285 |                 0 |               8 |                 63273 |                 1101 |            5875067 |        652162 |             6127 |         6917135 |                     0 |       3295954 | 2017-02-05 12:37:55.464888+01

 2017-02-05 13:19:42.528911+01 | 1486297182.52891 |                 0 |               8 |                 63273 |                 1101 |            5875067 |        652662 |             6132 |         6917135 |                     0 |       3298105 | 2017-02-05 12:37:55.464888+01

 2017-02-05 13:19:43.609006+01 | 1486297183.60901 |                 0 |               8 |                 63273 |                 1101 |            5875067 |        653162 |             6137 |         6917135 |                     0 |       3299986 | 2017-02-05 12:37:55.464888+01

 2017-02-05 13:19:44.694086+01 | 1486297184.69409 |                 0 |               8 |                 63273 |                 1101 |            5875067 |        653762 |             6143 |         6917135 |                     0 |       3302020 | 2017-02-05 12:37:55.464888+01

 2017-02-05 13:19:45.782304+01 | 1486297185.7823 |                 0 |               8 |                 63273 |                 1101 |            5875067 |        654262 |             6148 |         6917135 |                     0 |       3303771 | 2017-02-05 12:37:55.464888+01

 2017-02-05 13:19:46.869284+01 | 1486297186.86928 |                 0 |               8 |                 63273 |                 1101 |            5875067 |        654762 |             6153 |         6917135 |                     0 |       3305675 | 2017-02-05 12:37:55.464888+01

 2017-02-05 13:19:47.957126+01 | 1486297187.95713 |                 0 |               8 |                 63273 |                 1101 |            5875067 |        655362 |             6159 |         6917135 |                     0 |       3308190 | 2017-02-05 12:37:55.464888+01

 2017-02-05 13:19:49.055414+01 | 1486297189.05541 |                 0 |               8 |                 63273 |                 1101 |            5875067 |        655862 |             6164 |         6917135 |                     0 |       3310266 | 2017-02-05 12:37:55.464888+01

 2017-02-05 13:19:50.146172+01 | 1486297190.14617 |                 0 |               8 |                 63273 |                 1101 |            5875067 |        656462 |             6170 |         6917135 |                     0 |       3312612 | 2017-02-05 12:37:55.464888+01

 2017-02-05 13:19:51.230034+01 | 1486297191.23003 |                 0 |               8 |                 63273 |                 1101 |            5875067 |        656962 |             6175 |         6917135 |                     0 |       3314783 | 2017-02-05 12:37:55.464888+01

 2017-02-05 13:19:52.317884+01 | 1486297192.31788 |                 0 |               8 |                 63273 |                 1101 |            5875067 |        657462 |             6180 |         6917135 |                     0 |       3316495 | 2017-02-05 12:37:55.464888+01

 2017-02-05 13:19:53.406412+01 | 1486297193.40641 |                 0 |               8 |                 63273 |                 1101 |            5875067 |        658062 |             6186 |         6917135 |                     0 |       3318989 | 2017-02-05 12:37:55.464888+01

 2017-02-05 13:19:54.492384+01 | 1486297194.49238 |                 0 |               8 |                 63273 |                 1101 |            5875067 |        658562 |             6191 |         6917135 |                     0 |       3321160 | 2017-02-05 12:37:55.464888+01

 2017-02-05 13:19:55.570926+01 | 1486297195.57093 |                 0 |               8 |                 63273 |                 1101 |            5875067 |        659162 |             6197 |         6917135 |                     0 |       3323321 | 2017-02-05 12:37:55.464888+01

 2017-02-05 13:19:56.655682+01 | 1486297196.65568 |                 0 |               8 |                 63273 |                 1101 |            5875067 |        659662 |             6202 |         6917135 |                     0 |       3325265 | 2017-02-05 12:37:55.464888+01

 2017-02-05 13:19:57.746354+01 | 1486297197.74635 |                 0 |               8 |                 63273 |                 1101 |            5875067 |        660162 |             6207 |         6917135 |                     0 |       3327033 | 2017-02-05 12:37:55.464888+01

 2017-02-05 13:19:58.843021+01 | 1486297198.84302 |                 0 |               8 |                 63273 |                 1101 |            5875067 |        660762 |             6213 |         6917135 |                     0 |       3329326 | 2017-02-05 12:37:55.464888+01

 2017-02-05 13:19:59.929645+01 | 1486297199.92965 |                 0 |               8 |                 63273 |                 1101 |            5875067 |        661262 |             6218 |         6917135 |                     0 |       3330623 | 2017-02-05 12:37:55.464888+01

 2017-02-05 13:20:01.015445+01 | 1486297201.01544 |                 0 |               8 |                 63273 |                 1101 |            5875067 |        661762 |             6223 |         6917135 |                     0 |       3332414 | 2017-02-05 12:37:55.464888+01

 2017-02-05 13:20:02.096017+01 | 1486297202.09602 |                 0 |               8 |                 63273 |                 1101 |            5875067 |        662362 |             6229 |         6917135 |                     0 |       3334779 | 2017-02-05 12:37:55.464888+01

 2017-02-05 13:20:03.179028+01 | 1486297203.17903 |                 0 |               8 |                 63273 |                 1101 |            5875067 |        662862 |             6234 |         6917135 |                     0 |       3336310 | 2017-02-05 12:37:55.464888+01

 2017-02-05 13:20:04.266775+01 | 1486297204.26677 |                 0 |               8 |                 63273 |                 1101 |            5875067 |        663462 |             6240 |         6917135 |                     0 |       3338612 | 2017-02-05 12:37:55.464888+01

 2017-02-05 13:20:05.360365+01 | 1486297205.36036 |                 0 |               8 |                 63273 |                 1101 |            5875067 |        663962 |             6245 |         6917135 |                     0 |       3340754 | 2017-02-05 12:37:55.464888+01

 2017-02-05 13:20:06.449424+01 | 1486297206.44942 |                 0 |               8 |                 63273 |                 1101 |            5875067 |        664462 |             6250 |         6917135 |                     0 |       3342514 | 2017-02-05 12:37:55.464888+01

 2017-02-05 13:20:07.529921+01 | 1486297207.52992 |                 0 |               8 |                 63273 |                 1101 |            5875067 |        665062 |             6256 |         6917135 |                     0 |       3344735 | 2017-02-05 12:37:55.464888+01

 2017-02-05 13:20:08.611524+01 | 1486297208.61152 |                 0 |               8 |                 63273 |                 1101 |            5875067 |        665562 |             6261 |         6917135 |                     0 |       3346866 | 2017-02-05 12:37:55.464888+01

 2017-02-05 13:20:09.697778+01 | 1486297209.69778 |                 0 |               8 |                 63273 |                 1101 |            5875067 |        666062 |             6266 |         6917135 |                     0 |       3348793 | 2017-02-05 12:37:55.464888+01

 2017-02-05 13:20:10.784668+01 | 1486297210.78467 |                 0 |               8 |                 63273 |                 1101 |            5875067 |        666662 |             6272 |         6917135 |                     0 |       3351238 | 2017-02-05 12:37:55.464888+01

 2017-02-05 13:20:11.871543+01 | 1486297211.87154 |                 0 |               8 |                 63273 |                 1101 |            5875067 |        667162 |             6277 |         6917135 |                     0 |       3353084 | 2017-02-05 12:37:55.464888+01

 2017-02-05 13:20:12.932878+01 | 1486297212.93288 |                 0 |               8 |                 63273 |                 1101 |            5875067 |        667762 |             6283 |         6917135 |                     0 |       3355656 | 2017-02-05 12:37:55.464888+01

 2017-02-05 13:20:14.01769+01 | 1486297214.01769 |                 0 |               8 |                 63273 |                 1101 |            5875067 |        668262 |             6288 |         6917135 |                     0 |       3357353 | 2017-02-05 12:37:55.464888+01

 2017-02-05 13:20:15.109939+01 | 1486297215.10994 |                 0 |               8 |                 63273 |                 1101 |            5875067 |        668762 |             6293 |         6917135 |                     0 |       3359391 | 2017-02-05 12:37:55.464888+01

 2017-02-05 13:20:16.202256+01 | 1486297216.20226 |                 0 |               8 |                 63273 |                 1101 |            5875067 |        669362 |             6299 |         6917135 |                     0 |       3361984 | 2017-02-05 12:37:55.464888+01

 2017-02-05 13:20:17.293512+01 | 1486297217.29351 |                 0 |               8 |                 63273 |                 1101 |            5875067 |        669862 |             6304 |         6917135 |                     0 |       3364097 | 2017-02-05 12:37:55.464888+01

 2017-02-05 13:20:18.380088+01 | 1486297218.38009 |                 0 |               8 |                 63273 |                 1101 |            5875067 |        670362 |             6309 |         6917135 |                     0 |       3366343 | 2017-02-05 12:37:55.464888+01

 2017-02-05 13:20:19.471243+01 | 1486297219.47124 |                 0 |               8 |                 63273 |                 1101 |            5875067 |        670962 |             6315 |         6917135 |                     0 |       3368491 | 2017-02-05 12:37:55.464888+01

 2017-02-05 13:20:20.554944+01 | 1486297220.55494 |                 0 |               8 |                 63273 |                 1101 |            5875067 |        671462 |             6320 |         6917135 |                     0 |       3370543 | 2017-02-05 12:37:55.464888+01

 2017-02-05 13:20:21.642408+01 | 1486297221.64241 |                 0 |               8 |                 63273 |                 1101 |            5875067 |        672062 |             6326 |         6917135 |                     0 |       3372968 | 2017-02-05 12:37:55.464888+01

 2017-02-05 13:20:22.726084+01 | 1486297222.72608 |                 0 |               8 |                 63273 |                 1101 |            5875067 |        672562 |             6331 |         6917135 |                     0 |       3375058 | 2017-02-05 12:37:55.464888+01

 2017-02-05 13:20:23.817737+01 | 1486297223.81774 |                 0 |               8 |                 63273 |                 1101 |            5875067 |        673062 |             6336 |         6917135 |                     0 |       3376927 | 2017-02-05 12:37:55.464888+01

 2017-02-05 13:20:24.921029+01 | 1486297224.92103 |                 0 |               8 |                 63273 |                 1101 |            5875067 |        673662 |             6342 |         6917135 |                     0 |       3379444 | 2017-02-05 12:37:55.464888+01

 2017-02-05 13:20:26.009736+01 | 1486297226.00974 |                 0 |               8 |                 63273 |                 1101 |            5875067 |        674162 |             6347 |         6917135 |                     0 |       3381266 | 2017-02-05 12:37:55.464888+01

 2017-02-05 13:20:27.088981+01 | 1486297227.08898 |                 0 |               8 |                 63273 |                 1101 |            5875067 |        674562 |             6351 |         6917135 |                     0 |       3382814 | 2017-02-05 12:37:55.464888+01

 2017-02-05 13:20:28.177285+01 | 1486297228.17728 |                 0 |               8 |                 63273 |                 1101 |            5875067 |        675262 |             6358 |         6917135 |                     0 |       3386026 | 2017-02-05 12:37:55.464888+01

 2017-02-05 13:20:29.26384+01 | 1486297229.26384 |                 0 |               8 |                 63273 |                 1101 |            5875067 |        675762 |             6363 |         6917135 |                     0 |       3387952 | 2017-02-05 12:37:55.464888+01

 2017-02-05 13:20:30.360245+01 | 1486297230.36024 |                 0 |               8 |                 63273 |                 1101 |            5875067 |        676362 |             6369 |         6917135 |                     0 |       3390520 | 2017-02-05 12:37:55.464888+01

 2017-02-05 13:20:31.447679+01 | 1486297231.44768 |                 0 |               8 |                 63273 |                 1101 |            5875067 |        676862 |             6374 |         6917135 |                     0 |       3392233 | 2017-02-05 12:37:55.464888+01

 2017-02-05 13:20:32.530979+01 | 1486297232.53098 |                 0 |               8 |                 63273 |                 1101 |            5875067 |        677362 |             6379 |         6917135 |                     0 |       3394229 | 2017-02-05 12:37:55.464888+01

 2017-02-05 13:20:33.613134+01 | 1486297233.61313 |                 0 |               8 |                 63273 |                 1101 |            5875067 |        677962 |             6385 |         6917135 |                     0 |       3396826 | 2017-02-05 12:37:55.464888+01

 2017-02-05 13:20:34.703792+01 | 1486297234.70379 |                 0 |               8 |                 63273 |                 1101 |            5875067 |        678462 |             6390 |         6917135 |                     0 |       3399257 | 2017-02-05 12:37:55.464888+01

 2017-02-05 13:20:35.796049+01 | 1486297235.79605 |                 0 |               8 |                 63273 |                 1101 |            5875067 |        679062 |             6396 |         6917135 |                     0 |       3401503 | 2017-02-05 12:37:55.464888+01

 2017-02-05 13:20:36.886912+01 | 1486297236.88691 |                 0 |               8 |                 63273 |                 1101 |            5875067 |        679562 |             6401 |         6917135 |                     0 |       3403214 | 2017-02-05 12:37:55.464888+01

 2017-02-05 13:20:37.967607+01 | 1486297237.96761 |                 0 |               8 |                 63273 |                 1101 |            5875067 |        680062 |             6406 |         6917135 |                     0 |       3405265 | 2017-02-05 12:37:55.464888+01

 2017-02-05 13:20:39.062989+01 | 1486297239.06299 |                 0 |               8 |                 63273 |                 1101 |            5875067 |        680662 |             6412 |         6917135 |                     0 |       3407914 | 2017-02-05 12:37:55.464888+01

 2017-02-05 13:20:40.146601+01 | 1486297240.1466 |                 0 |               8 |                 63273 |                 1101 |            5875067 |        681162 |             6417 |         6917135 |                     0 |       3410176 | 2017-02-05 12:37:55.464888+01

 2017-02-05 13:20:41.234753+01 | 1486297241.23475 |                 0 |               8 |                 63273 |                 1101 |            5875067 |        681662 |             6422 |         6917135 |                     0 |       3411943 | 2017-02-05 12:37:55.464888+01

 2017-02-05 13:20:42.319066+01 | 1486297242.31907 |                 0 |               8 |                 63273 |                 1101 |            5875067 |        682262 |             6428 |         6917135 |                     0 |       3414785 | 2017-02-05 12:37:55.464888+01

 2017-02-05 13:20:43.407554+01 | 1486297243.40755 |                 0 |               8 |                 63273 |                 1101 |            5875067 |        682762 |             6433 |         6917135 |                     0 |       3416424 | 2017-02-05 12:37:55.464888+01

 2017-02-05 13:20:44.497875+01 | 1486297244.49787 |                 0 |               8 |                 63273 |                 1101 |            5875067 |        683362 |             6439 |         6917135 |                     0 |       3418872 | 2017-02-05 12:37:55.464888+01

 2017-02-05 13:20:45.576593+01 | 1486297245.57659 |                 0 |               8 |                 63273 |                 1101 |            5875067 |        683862 |             6444 |         6917135 |                     0 |       3421083 | 2017-02-05 12:37:55.464888+01

 2017-02-05 13:20:46.659403+01 | 1486297246.6594 |                 0 |               8 |                 63273 |                 1101 |            5875067 |        684362 |             6449 |         6917135 |                     0 |       3423114 | 2017-02-05 12:37:55.464888+01

 2017-02-05 13:20:47.744639+01 | 1486297247.74464 |                 0 |               8 |                 63273 |                 1101 |            5875067 |        684962 |             6455 |         6917135 |                     0 |       3425588 | 2017-02-05 12:37:55.464888+01

 2017-02-05 13:20:48.841593+01 | 1486297248.84159 |                 0 |               8 |                 63273 |                 1101 |            5875067 |        685462 |             6460 |         6917135 |                     0 |       3427672 | 2017-02-05 12:37:55.464888+01

 2017-02-05 13:20:49.933833+01 | 1486297249.93383 |                 0 |               8 |                 63273 |                 1101 |            5875067 |        685962 |             6465 |         6917135 |                     0 |       3429583 | 2017-02-05 12:37:55.464888+01

 2017-02-05 13:20:51.0175+01 | 1486297251.0175 |                 0 |               8 |                 63273 |                 1101 |            5875067 |        686562 |             6471 |         6917135 |                     0 |       3432134 | 2017-02-05 12:37:55.464888+01

 2017-02-05 13:20:52.108519+01 | 1486297252.10852 |                 0 |               8 |                 63273 |                 1101 |            5875067 |        687062 |             6476 |         6917135 |                     0 |       3434070 | 2017-02-05 12:37:55.464888+01

 2017-02-05 13:20:53.190742+01 | 1486297253.19074 |                 0 |               8 |                 63273 |                 1101 |            5875067 |        687662 |             6482 |         6917135 |                     0 |       3436681 | 2017-02-05 12:37:55.464888+01

 2017-02-05 13:20:54.271282+01 | 1486297254.27128 |                 0 |               8 |                 63273 |                 1101 |            5875067 |        688162 |             6487 |         6917135 |                     0 |       3438834 | 2017-02-05 12:37:55.464888+01

 2017-02-05 13:20:55.356336+01 | 1486297255.35634 |                 0 |               8 |                 63273 |                 1101 |            5875067 |        688662 |             6492 |         6917135 |                     0 |       3440724 | 2017-02-05 12:37:55.464888+01

 2017-02-05 13:20:56.442707+01 | 1486297256.44271 |                 0 |               8 |                 63273 |                 1101 |            5875067 |        689262 |             6498 |         6917135 |                     0 |       3443198 | 2017-02-05 12:37:55.464888+01

 2017-02-05 13:20:57.526759+01 | 1486297257.52676 |                 0 |               8 |                 63273 |                 1101 |            5875067 |        689762 |             6503 |         6917135 |                     0 |       3445445 | 2017-02-05 12:37:55.464888+01

 2017-02-05 13:20:58.609891+01 | 1486297258.60989 |                 0 |               8 |                 63273 |                 1101 |            5875067 |        690262 |             6508 |         6917135 |                     0 |       3447458 | 2017-02-05 12:37:55.464888+01

 2017-02-05 13:20:59.693319+01 | 1486297259.69332 |                 0 |               8 |                 63273 |                 1101 |            5875067 |        690862 |             6514 |         6917135 |                     0 |       3449679 | 2017-02-05 12:37:55.464888+01

 2017-02-05 13:21:00.772002+01 | 1486297260.772 |                 0 |               8 |                 63273 |                 1101 |            5875067 |        691362 |             6519 |         6917135 |                     0 |       3451803 | 2017-02-05 12:37:55.464888+01

 2017-02-05 13:21:01.863932+01 | 1486297261.86393 |                 0 |               8 |                 63273 |                 1101 |            5875067 |        691862 |             6524 |         6917135 |                     0 |       3453880 | 2017-02-05 12:37:55.464888+01

 2017-02-05 13:21:02.951187+01 | 1486297262.95119 |                 0 |               8 |                 63273 |                 1101 |            5875067 |        692462 |             6530 |         6917135 |                     0 |       3456757 | 2017-02-05 12:37:55.464888+01

 2017-02-05 13:21:04.03719+01 | 1486297264.03719 |                 0 |               8 |                 63273 |                 1101 |            5875067 |        692962 |             6535 |         6917135 |                     0 |       3458512 | 2017-02-05 12:37:55.464888+01

 2017-02-05 13:21:05.118895+01 | 1486297265.1189 |                 0 |               8 |                 63273 |                 1101 |            5875067 |        693562 |             6541 |         6917135 |                     0 |       3461209 | 2017-02-05 12:37:55.464888+01

 2017-02-05 13:21:06.203217+01 | 1486297266.20322 |                 0 |               8 |                 63273 |                 1101 |            5875067 |        694062 |             6546 |         6917135 |                     0 |       3463255 | 2017-02-05 12:37:55.464888+01

 2017-02-05 13:21:07.282835+01 | 1486297267.28284 |                 0 |               8 |                 63273 |                 1101 |            5875067 |        694562 |             6551 |         6917135 |                     0 |       3465516 | 2017-02-05 12:37:55.464888+01

 2017-02-05 13:21:08.377024+01 | 1486297268.37702 |                 0 |               8 |                 63273 |                 1101 |            5875067 |        695162 |             6557 |         6917135 |                     0 |       3467905 | 2017-02-05 12:37:55.464888+01

 2017-02-05 13:21:09.466194+01 | 1486297269.46619 |                 0 |               8 |                 63273 |                 1101 |            5875067 |        695662 |             6562 |         7368502 |                     0 |       3469809 | 2017-02-05 12:37:55.464888+01

 2017-02-05 13:21:10.551326+01 | 1486297270.55133 |                 0 |               8 |                 63273 |                 1101 |            5875067 |        696162 |             6567 |         7368502 |                     0 |       3472085 | 2017-02-05 12:37:55.464888+01

 2017-02-05 13:21:11.632045+01 | 1486297271.63205 |                 0 |               8 |                 63273 |                 1101 |            5875067 |        696762 |             6573 |         7368502 |                     0 |       3474673 | 2017-02-05 12:37:55.464888+01

 2017-02-05 13:21:12.726109+01 | 1486297272.72611 |                 0 |               8 |                 63273 |                 1101 |            5875067 |        697262 |             6578 |         7368502 |                     0 |       3476905 | 2017-02-05 12:37:55.464888+01

 2017-02-05 13:21:13.820556+01 | 1486297273.82056 |                 0 |               8 |                 63273 |                 1101 |            5875067 |        697862 |             6584 |         7368502 |                     0 |       3479128 | 2017-02-05 12:37:55.464888+01

 2017-02-05 13:21:14.903509+01 | 1486297274.90351 |                 0 |               8 |                 63273 |                 1101 |            5875067 |        698362 |             6589 |         7368502 |                     0 |       3481309 | 2017-02-05 12:37:55.464888+01

 2017-02-05 13:21:15.999269+01 | 1486297275.99927 |                 0 |               8 |                 63273 |                 1101 |            5875067 |        698862 |             6594 |         7368502 |                     0 |       3483551 | 2017-02-05 12:37:55.464888+01

 2017-02-05 13:21:17.089516+01 | 1486297277.08952 |                 0 |               8 |                 63273 |                 1101 |            5875067 |        699462 |             6600 |         7368502 |                     0 |       3485909 | 2017-02-05 12:37:55.464888+01

 2017-02-05 13:21:18.175522+01 | 1486297278.17552 |                 0 |               8 |                 63273 |                 1101 |            5875067 |        699962 |             6605 |         7368502 |                     0 |       3487938 | 2017-02-05 12:37:55.464888+01

 2017-02-05 13:21:19.266131+01 | 1486297279.26613 |                 0 |               8 |                 63273 |                 1101 |            5875067 |        700462 |             6610 |         7368502 |                     0 |       3490323 | 2017-02-05 12:37:55.464888+01

 2017-02-05 13:21:20.353781+01 | 1486297280.35378 |                 0 |               8 |                 63273 |                 1101 |            5875067 |        701062 |             6616 |         7368502 |                     0 |       3492724 | 2017-02-05 12:37:55.464888+01

 2017-02-05 13:21:21.439196+01 | 1486297281.4392 |                 0 |               8 |                 63273 |                 1101 |            5875067 |        701562 |             6621 |         7368502 |                     0 |       3494572 | 2017-02-05 12:37:55.464888+01

 2017-02-05 13:21:22.51655+01 | 1486297282.51655 |                 0 |               8 |                 63273 |                 1101 |            5875067 |        702162 |             6627 |         7368502 |                     0 |       3497078 | 2017-02-05 12:37:55.464888+01

 2017-02-05 13:21:23.597341+01 | 1486297283.59734 |                 0 |               8 |                 63273 |                 1101 |            5875067 |        702662 |             6632 |         7368502 |                     0 |       3498801 | 2017-02-05 12:37:55.464888+01

 2017-02-05 13:21:24.677722+01 | 1486297284.67772 |                 0 |               8 |                 63273 |                 1101 |            5875067 |        703162 |             6637 |         7368502 |                     0 |       3500749 | 2017-02-05 12:37:55.464888+01

 2017-02-05 13:21:25.758692+01 | 1486297285.75869 |                 0 |               8 |                 63273 |                 1101 |            5875067 |        703762 |             6643 |         7368502 |                     0 |       3502832 | 2017-02-05 12:37:55.464888+01

 2017-02-05 13:21:26.832422+01 | 1486297286.83242 |                 0 |               8 |                 63273 |                 1101 |            5875067 |        704262 |             6648 |         7368502 |                     0 |       3504658 | 2017-02-05 12:37:55.464888+01

 2017-02-05 13:21:27.922145+01 | 1486297287.92214 |                 0 |               8 |                 63273 |                 1101 |            5875067 |        704762 |             6653 |         7368502 |                     0 |       3506709 | 2017-02-05 12:37:55.464888+01

 2017-02-05 13:21:29.007211+01 | 1486297289.00721 |                 0 |               8 |                 63273 |                 1101 |            5875067 |        705362 |             6659 |         7368502 |                     0 |       3509401 | 2017-02-05 12:37:55.464888+01

 2017-02-05 13:21:30.088586+01 | 1486297290.08859 |                 0 |               8 |                 63273 |                 1101 |            5875067 |        705862 |             6664 |         7368502 |                     0 |       3511357 | 2017-02-05 12:37:55.464888+01

 2017-02-05 13:21:31.166755+01 | 1486297291.16675 |                 0 |               8 |                 63273 |                 1101 |            5875067 |        706362 |             6669 |         7368502 |                     0 |       3513607 | 2017-02-05 12:37:55.464888+01

 2017-02-05 13:21:32.2563+01 | 1486297292.2563 |                 0 |               8 |                 63273 |                 1101 |            5875067 |        706962 |             6675 |         7368502 |                     0 |       3515952 | 2017-02-05 12:37:55.464888+01

 2017-02-05 13:21:33.339004+01 | 1486297293.339 |                 0 |               8 |                 63273 |                 1101 |            5875067 |        707462 |             6680 |         7368502 |                     0 |       3517859 | 2017-02-05 12:37:55.464888+01

 2017-02-05 13:21:34.419549+01 | 1486297294.41955 |                 0 |               8 |                 63273 |                 1101 |            5875067 |        707962 |             6685 |         7368502 |                     0 |       3519817 | 2017-02-05 12:37:55.464888+01

 2017-02-05 13:21:35.502369+01 | 1486297295.50237 |                 0 |               8 |                 63273 |                 1101 |            5875067 |        708562 |             6691 |         7368502 |                     0 |       3521937 | 2017-02-05 12:37:55.464888+01

 2017-02-05 13:21:36.582489+01 | 1486297296.58249 |                 0 |               8 |                 63273 |                 1101 |            5875067 |        709062 |             6696 |         7368502 |                     0 |       3523672 | 2017-02-05 12:37:55.464888+01

 2017-02-05 13:21:37.659562+01 | 1486297297.65956 |                 0 |               8 |                 63273 |                 1101 |            5875067 |        709662 |             6702 |         7368502 |                     0 |       3526022 | 2017-02-05 12:37:55.464888+01

 2017-02-05 13:21:38.74645+01 | 1486297298.74645 |                 0 |               8 |                 63273 |                 1101 |            5875067 |        710162 |             6707 |         7368502 |                     0 |       3527908 | 2017-02-05 12:37:55.464888+01

 2017-02-05 13:21:39.82606+01 | 1486297299.82606 |                 0 |               8 |                 63273 |                 1101 |            5875067 |        710662 |             6712 |         7368502 |                     0 |       3530232 | 2017-02-05 12:37:55.464888+01

 2017-02-05 13:21:40.907823+01 | 1486297300.90782 |                 0 |               8 |                 63273 |                 1101 |            5875067 |        711262 |             6718 |         7368502 |                     0 |       3532350 | 2017-02-05 12:37:55.464888+01

 2017-02-05 13:21:41.996816+01 | 1486297301.99682 |                 0 |               8 |                 63273 |                 1101 |            5875067 |        711762 |             6723 |         7368502 |                     0 |       3534314 | 2017-02-05 12:37:55.464888+01

 2017-02-05 13:21:43.092826+01 | 1486297303.09283 |                 0 |               8 |                 63273 |                 1101 |            5875067 |        712262 |             6728 |         7368502 |                     0 |       3536204 | 2017-02-05 12:37:55.464888+01

 2017-02-05 13:21:44.15957+01 | 1486297304.15957 |                 0 |               8 |                 63273 |                 1101 |            5875067 |        712862 |             6734 |         7368502 |                     0 |       3538904 | 2017-02-05 12:37:55.464888+01

 2017-02-05 13:21:45.240215+01 | 1486297305.24022 |                 0 |               8 |                 63273 |                 1101 |            5875067 |        713362 |             6739 |         7368502 |                     0 |       3540608 | 2017-02-05 12:37:55.464888+01

 2017-02-05 13:21:46.322267+01 | 1486297306.32227 |                 0 |               8 |                 63273 |                 1101 |            5875067 |        713862 |             6744 |         7368502 |                     0 |       3542687 | 2017-02-05 12:37:55.464888+01

 2017-02-05 13:21:47.402661+01 | 1486297307.40266 |                 0 |               8 |                 63273 |                 1101 |            5875067 |        714462 |             6750 |         7368502 |                     0 |       3544928 | 2017-02-05 12:37:55.464888+01

 2017-02-05 13:21:48.482232+01 | 1486297308.48223 |                 0 |               8 |                 63273 |                 1101 |            5875067 |        714962 |             6755 |         7368502 |                     0 |       3547219 | 2017-02-05 12:37:55.464888+01

 2017-02-05 13:21:49.568928+01 | 1486297309.56893 |                 0 |               8 |                 63273 |                 1101 |            5875067 |        715462 |             6760 |         7368502 |                     0 |       3548676 | 2017-02-05 12:37:55.464888+01

 2017-02-05 13:21:50.639267+01 | 1486297310.63927 |                 0 |               8 |                 63273 |                 1101 |            5875067 |        716062 |             6766 |         7368502 |                     0 |       3551192 | 2017-02-05 12:37:55.464888+01

 2017-02-05 13:21:51.713722+01 | 1486297311.71372 |                 0 |               8 |                 63273 |                 1101 |            5875067 |        716562 |             6771 |         7368502 |                     0 |       3552691 | 2017-02-05 12:37:55.464888+01

 2017-02-05 13:21:52.796149+01 | 1486297312.79615 |                 0 |               8 |                 63273 |                 1101 |            5875067 |        717062 |             6776 |         7368502 |                     0 |       3554664 | 2017-02-05 12:37:55.464888+01

 2017-02-05 13:21:53.867443+01 | 1486297313.86744 |                 0 |               8 |                 63273 |                 1101 |            5875067 |        717662 |             6782 |         7368502 |                     0 |       3556844 | 2017-02-05 12:37:55.464888+01

 2017-02-05 13:21:54.962076+01 | 1486297314.96208 |                 0 |               8 |                 63273 |                 1101 |            5875067 |        718162 |             6787 |         7368502 |                     0 |       3558701 | 2017-02-05 12:37:55.464888+01

 2017-02-05 13:21:56.06138+01 | 1486297316.06138 |                 0 |               8 |                 63273 |                 1101 |            5875067 |        718662 |             6792 |         7368502 |                     0 |       3560506 | 2017-02-05 12:37:55.464888+01

 2017-02-05 13:21:57.169532+01 | 1486297317.16953 |                 0 |               8 |                 63273 |                 1101 |            5875067 |        719262 |             6798 |         7368502 |                     0 |       3562755 | 2017-02-05 12:37:55.464888+01

 2017-02-05 13:21:58.266358+01 | 1486297318.26636 |                 0 |               8 |                 63273 |                 1101 |            5875067 |        719762 |             6803 |         7368502 |                     0 |       3564611 | 2017-02-05 12:37:55.464888+01

 2017-02-05 13:21:59.358897+01 | 1486297319.3589 |                 0 |               8 |                 63273 |                 1101 |            5875067 |        720362 |             6809 |         7368502 |                     0 |       3566863 | 2017-02-05 12:37:55.464888+01

 2017-02-05 13:22:00.447787+01 | 1486297320.44779 |                 0 |               8 |                 63273 |                 1101 |            5875067 |        720862 |             6814 |         7368502 |                     0 |       3568806 | 2017-02-05 12:37:55.464888+01

 2017-02-05 13:22:01.540784+01 | 1486297321.54078 |                 0 |               8 |                 63273 |                 1101 |            5875067 |        721462 |             6820 |         7368502 |                     0 |       3570930 | 2017-02-05 12:37:55.464888+01

 2017-02-05 13:22:02.626716+01 | 1486297322.62672 |                 0 |               8 |                 63273 |                 1101 |            5875067 |        721962 |             6825 |         7368502 |                     0 |       3572855 | 2017-02-05 12:37:55.464888+01

 2017-02-05 13:22:03.716116+01 | 1486297323.71612 |                 0 |               8 |                 63273 |                 1101 |            5875067 |        722462 |             6830 |         7368502 |                     0 |       3574602 | 2017-02-05 12:37:55.464888+01

 2017-02-05 13:22:04.806147+01 | 1486297324.80615 |                 0 |               8 |                 63273 |                 1101 |            5875067 |        723062 |             6836 |         7368502 |                     0 |       3577197 | 2017-02-05 12:37:55.464888+01

 2017-02-05 13:22:05.891119+01 | 1486297325.89112 |                 0 |               8 |                 63273 |                 1101 |            5875067 |        723562 |             6841 |         7368502 |                     0 |       3578963 | 2017-02-05 12:37:55.464888+01

 2017-02-05 13:22:06.983667+01 | 1486297326.98367 |                 0 |               8 |                 63273 |                 1101 |            5875067 |        724162 |             6847 |         7368502 |                     0 |       3580843 | 2017-02-05 12:37:55.464888+01

 2017-02-05 13:22:08.073296+01 | 1486297328.0733 |                 0 |               8 |                 63273 |                 1101 |            5875067 |        724662 |             6852 |         7368502 |                     0 |       3582646 | 2017-02-05 12:37:55.464888+01

 2017-02-05 13:22:09.180314+01 | 1486297329.18031 |                 0 |               8 |                 63273 |                 1101 |            5875067 |        725162 |             6857 |         7368502 |                     0 |       3584557 | 2017-02-05 12:37:55.464888+01

 2017-02-05 13:22:10.270966+01 | 1486297330.27097 |                 0 |               8 |                 63273 |                 1101 |            5875067 |        725762 |             6863 |         7368502 |                     0 |       3586677 | 2017-02-05 12:37:55.464888+01

 2017-02-05 13:22:11.359386+01 | 1486297331.35939 |                 0 |               8 |                 63273 |                 1101 |            5875067 |        726262 |             6868 |         7368502 |                     0 |       3588599 | 2017-02-05 12:37:55.464888+01

 2017-02-05 13:22:12.444187+01 | 1486297332.44419 |                 0 |               8 |                 63273 |                 1101 |            5875067 |        726862 |             6874 |         7368502 |                     0 |       3591166 | 2017-02-05 12:37:55.464888+01

 2017-02-05 13:22:13.531033+01 | 1486297333.53103 |                 0 |               8 |                 63273 |                 1101 |            5875067 |        727362 |             6879 |         7368502 |                     0 |       3593056 | 2017-02-05 12:37:55.464888+01

 2017-02-05 13:22:14.621298+01 | 1486297334.6213 |                 0 |               8 |                 63273 |                 1101 |            5875067 |        727862 |             6884 |         7368502 |                     0 |       3594960 | 2017-02-05 12:37:55.464888+01

 2017-02-05 13:22:15.707345+01 | 1486297335.70735 |                 0 |               8 |                 63273 |                 1101 |            5875067 |        728462 |             6890 |         7368502 |                     0 |       3597147 | 2017-02-05 12:37:55.464888+01

 2017-02-05 13:22:16.785004+01 | 1486297336.785 |                 0 |               8 |                 63273 |                 1101 |            5875067 |        728962 |             6895 |         7368502 |                     0 |       3599053 | 2017-02-05 12:37:55.464888+01

 2017-02-05 13:22:17.873179+01 | 1486297337.87318 |                 0 |               8 |                 63273 |                 1101 |            5875067 |        729462 |             6900 |         7368502 |                     0 |       3600992 | 2017-02-05 12:37:55.464888+01

 2017-02-05 13:22:18.959411+01 | 1486297338.95941 |                 0 |               8 |                 63273 |                 1101 |            5875067 |        730062 |             6906 |         7368502 |                     0 |       3603182 | 2017-02-05 12:37:55.464888+01

 2017-02-05 13:22:20.046531+01 | 1486297340.04653 |                 0 |               8 |                 63273 |                 1101 |            5875067 |        730562 |             6911 |         7368502 |                     0 |       3605290 | 2017-02-05 12:37:55.464888+01

 2017-02-05 13:22:21.137807+01 | 1486297341.13781 |                 0 |               8 |                 63273 |                 1101 |            5875067 |        731162 |             6917 |         7368502 |                     0 |       3607230 | 2017-02-05 12:37:55.464888+01

 2017-02-05 13:22:22.221956+01 | 1486297342.22196 |                 0 |               8 |                 63273 |                 1101 |            5875067 |        731662 |             6922 |         7368502 |                     0 |       3609227 | 2017-02-05 12:37:55.464888+01

 2017-02-05 13:22:23.315089+01 | 1486297343.31509 |                 0 |               8 |                 63273 |                 1101 |            5875067 |        732162 |             6927 |         7368502 |                     0 |       3611058 | 2017-02-05 12:37:55.464888+01

 2017-02-05 13:22:24.399229+01 | 1486297344.39923 |                 0 |               8 |                 63273 |                 1101 |            5875067 |        732762 |             6933 |         7368502 |                     0 |       3613190 | 2017-02-05 12:37:55.464888+01

 2017-02-05 13:22:25.46963+01 | 1486297345.46963 |                 0 |               8 |                 63273 |                 1101 |            5875067 |        733262 |             6938 |         7368502 |                     0 |       3614643 | 2017-02-05 12:37:55.464888+01

 2017-02-05 13:22:26.553892+01 | 1486297346.55389 |                 0 |               8 |                 63273 |                 1101 |            5875067 |        733762 |             6943 |         7368502 |                     0 |       3615816 | 2017-02-05 12:37:55.464888+01

 2017-02-05 13:22:27.636682+01 | 1486297347.63668 |                 0 |               8 |                 63273 |                 1101 |            5875067 |        734362 |             6949 |         7368502 |                     0 |       3617845 | 2017-02-05 12:37:55.464888+01

 2017-02-05 13:22:28.724908+01 | 1486297348.72491 |                 0 |               8 |                 63273 |                 1101 |            5875067 |        734862 |             6954 |         7368502 |                     0 |       3619626 | 2017-02-05 12:37:55.464888+01

 2017-02-05 13:22:29.805684+01 | 1486297349.80568 |                 0 |               8 |                 63273 |                 1101 |            5875067 |        735362 |             6959 |         7368502 |                     0 |       3620943 | 2017-02-05 12:37:55.464888+01

 2017-02-05 13:22:30.883352+01 | 1486297350.88335 |                 0 |               8 |                 63273 |                 1101 |            5875067 |        735962 |             6965 |         7368502 |                     0 |       3623121 | 2017-02-05 12:37:55.464888+01

 2017-02-05 13:22:31.959336+01 | 1486297351.95934 |                 0 |               8 |                 63273 |                 1101 |            5875067 |        736462 |             6970 |         7368502 |                     0 |       3624751 | 2017-02-05 12:37:55.464888+01

 2017-02-05 13:22:33.045099+01 | 1486297353.0451 |                 0 |               8 |                 63273 |                 1101 |            5875067 |        737062 |             6976 |         7368502 |                     0 |       3627056 | 2017-02-05 12:37:55.464888+01

 2017-02-05 13:22:34.134148+01 | 1486297354.13415 |                 0 |               8 |                 63273 |                 1101 |            5875067 |        737562 |             6981 |         7368502 |                     0 |       3628833 | 2017-02-05 12:37:55.464888+01

 2017-02-05 13:22:35.225538+01 | 1486297355.22554 |                 0 |               8 |                 63273 |                 1101 |            5875067 |        738062 |             6986 |         7368502 |                     0 |       3630771 | 2017-02-05 12:37:55.464888+01

 2017-02-05 13:22:36.313017+01 | 1486297356.31302 |                 0 |               8 |                 63273 |                 1101 |            5875067 |        738662 |             6992 |         7368502 |                     0 |       3633005 | 2017-02-05 12:37:55.464888+01

 2017-02-05 13:22:37.398821+01 | 1486297357.39882 |                 0 |               8 |                 63273 |                 1101 |            5875067 |        739162 |             6997 |         7368502 |                     0 |       3634975 | 2017-02-05 12:37:55.464888+01

 2017-02-05 13:22:38.484256+01 | 1486297358.48426 |                 0 |               8 |                 63273 |                 1101 |            5875067 |        739662 |             7002 |         7368502 |                     0 |       3636847 | 2017-02-05 12:37:55.464888+01

 2017-02-05 13:22:39.569493+01 | 1486297359.56949 |                 0 |               8 |                 63273 |                 1101 |            5875067 |        740262 |             7008 |         7368502 |                     0 |       3638995 | 2017-02-05 12:37:55.464888+01

 2017-02-05 13:22:40.654345+01 | 1486297360.65435 |                 0 |               8 |                 63273 |                 1101 |            5875067 |        740762 |             7013 |         7368502 |                     0 |       3641005 | 2017-02-05 12:37:55.464888+01

 2017-02-05 13:22:41.752443+01 | 1486297361.75244 |                 0 |               8 |                 63273 |                 1101 |            5875067 |        741362 |             7019 |         7368502 |                     0 |       3642957 | 2017-02-05 12:37:55.464888+01

 2017-02-05 13:22:42.844127+01 | 1486297362.84413 |                 0 |               8 |                 63273 |                 1101 |            5875067 |        741862 |             7024 |         7368502 |                     0 |       3644729 | 2017-02-05 12:37:55.464888+01

 2017-02-05 13:22:43.928099+01 | 1486297363.9281 |                 0 |               8 |                 63273 |                 1101 |            5875067 |        742362 |             7029 |         7368502 |                     0 |       3646667 | 2017-02-05 12:37:55.464888+01

 2017-02-05 13:22:44.995644+01 | 1486297364.99564 |                 0 |               8 |                 63273 |                 1101 |            5875067 |        742962 |             7035 |         7368502 |                     0 |       3648918 | 2017-02-05 12:37:55.464888+01

 2017-02-05 13:22:46.086315+01 | 1486297366.08631 |                 0 |               8 |                 63273 |                 1101 |            5875067 |        743462 |             7040 |         7368502 |                     0 |       3650391 | 2017-02-05 12:37:55.464888+01

 2017-02-05 13:22:47.167903+01 | 1486297367.1679 |                 0 |               8 |                 63273 |                 1101 |            5875067 |        743962 |             7045 |         7368502 |                     0 |       3652187 | 2017-02-05 12:37:55.464888+01

 2017-02-05 13:22:48.253382+01 | 1486297368.25338 |                 0 |               8 |                 63273 |                 1101 |            5875067 |        744562 |             7051 |         7368502 |                     0 |       3654094 | 2017-02-05 12:37:55.464888+01

 2017-02-05 13:22:49.340683+01 | 1486297369.34068 |                 0 |               8 |                 63273 |                 1101 |            5875067 |        745062 |             7056 |         7368502 |                     0 |       3655498 | 2017-02-05 12:37:55.464888+01

 2017-02-05 13:22:50.425989+01 | 1486297370.42599 |                 0 |               8 |                 63273 |                 1101 |            5875067 |        745662 |             7062 |         7368502 |                     0 |       3657578 | 2017-02-05 12:37:55.464888+01

 2017-02-05 13:22:51.512696+01 | 1486297371.5127 |                 0 |               8 |                 63273 |                 1101 |            5875067 |        746162 |             7067 |         7368502 |                     0 |       3659254 | 2017-02-05 12:37:55.464888+01

 2017-02-05 13:22:52.599236+01 | 1486297372.59924 |                 0 |               8 |                 63273 |                 1101 |            5875067 |        746662 |             7072 |         7368502 |                     0 |       3660836 | 2017-02-05 12:37:55.464888+01

 2017-02-05 13:22:53.687412+01 | 1486297373.68741 |                 0 |               8 |                 63273 |                 1101 |            5875067 |        747262 |             7078 |         7368502 |                     0 |       3663018 | 2017-02-05 12:37:55.464888+01

 2017-02-05 13:22:54.773927+01 | 1486297374.77393 |                 0 |               8 |                 63273 |                 1101 |            5875067 |        747762 |             7083 |         7368502 |                     0 |       3664894 | 2017-02-05 12:37:55.464888+01

 2017-02-05 13:22:55.860405+01 | 1486297375.8604 |                 0 |               8 |                 63273 |                 1101 |            5875067 |        748262 |             7088 |         7368502 |                     0 |       3666793 | 2017-02-05 12:37:55.464888+01

 2017-02-05 13:22:56.946402+01 | 1486297376.9464 |                 0 |               8 |                 63273 |                 1101 |            5875067 |        748862 |             7094 |         7368502 |                     0 |       3669002 | 2017-02-05 12:37:55.464888+01

 2017-02-05 13:22:58.025499+01 | 1486297378.0255 |                 0 |               8 |                 63273 |                 1101 |            5875067 |        749362 |             7099 |         7368502 |                     0 |       3670834 | 2017-02-05 12:37:55.464888+01

 2017-02-05 13:22:59.120372+01 | 1486297379.12037 |                 0 |               8 |                 63273 |                 1101 |            5875067 |        749962 |             7105 |         7368502 |                     0 |       3672844 | 2017-02-05 12:37:55.464888+01

