 2017-02-05 13:17:59.318587+01 | 1486297079.31859 | pgbench_accounts |      13646643200
 2017-02-05 13:17:59.318587+01 | 1486297079.31859 | pgbench_tellers  |           450560
 2017-02-05 13:17:59.318587+01 | 1486297079.31859 | pgbench_history  |                0
 2017-02-05 13:17:59.318587+01 | 1486297079.31859 | pgbench_branches |            40960

 2017-02-05 13:18:00.400534+01 | 1486297080.40053 | pgbench_accounts |      13646643200
 2017-02-05 13:18:00.400534+01 | 1486297080.40053 | pgbench_tellers  |           450560
 2017-02-05 13:18:00.400534+01 | 1486297080.40053 | pgbench_history  |          4218880
 2017-02-05 13:18:00.400534+01 | 1486297080.40053 | pgbench_branches |            40960

 2017-02-05 13:18:01.482241+01 | 1486297081.48224 | pgbench_accounts |      13646643200
 2017-02-05 13:18:01.482241+01 | 1486297081.48224 | pgbench_tellers  |           450560
 2017-02-05 13:18:01.482241+01 | 1486297081.48224 | pgbench_history  |          4218880
 2017-02-05 13:18:01.482241+01 | 1486297081.48224 | pgbench_branches |            40960

 2017-02-05 13:18:02.562472+01 | 1486297082.56247 | pgbench_accounts |      13646643200
 2017-02-05 13:18:02.562472+01 | 1486297082.56247 | pgbench_tellers  |           450560
 2017-02-05 13:18:02.562472+01 | 1486297082.56247 | pgbench_history  |          6397952
 2017-02-05 13:18:02.562472+01 | 1486297082.56247 | pgbench_branches |            40960

 2017-02-05 13:18:03.648748+01 | 1486297083.64875 | pgbench_accounts |      13646643200
 2017-02-05 13:18:03.648748+01 | 1486297083.64875 | pgbench_tellers  |           450560
 2017-02-05 13:18:03.648748+01 | 1486297083.64875 | pgbench_history  |          9256960
 2017-02-05 13:18:03.648748+01 | 1486297083.64875 | pgbench_branches |            40960

 2017-02-05 13:18:04.747213+01 | 1486297084.74721 | pgbench_accounts |      13646643200
 2017-02-05 13:18:04.747213+01 | 1486297084.74721 | pgbench_tellers  |           450560
 2017-02-05 13:18:04.747213+01 | 1486297084.74721 | pgbench_history  |         11132928
 2017-02-05 13:18:04.747213+01 | 1486297084.74721 | pgbench_branches |            40960

 2017-02-05 13:18:05.841063+01 | 1486297085.84106 | pgbench_accounts |      13646643200
 2017-02-05 13:18:05.841063+01 | 1486297085.84106 | pgbench_tellers  |           450560
 2017-02-05 13:18:05.841063+01 | 1486297085.84106 | pgbench_history  |         14049280
 2017-02-05 13:18:05.841063+01 | 1486297085.84106 | pgbench_branches |            40960

 2017-02-05 13:18:06.922207+01 | 1486297086.92221 | pgbench_accounts |      13646643200
 2017-02-05 13:18:06.922207+01 | 1486297086.92221 | pgbench_tellers  |           450560
 2017-02-05 13:18:06.922207+01 | 1486297086.92221 | pgbench_history  |         16556032
 2017-02-05 13:18:06.922207+01 | 1486297086.92221 | pgbench_branches |            40960

 2017-02-05 13:18:08.003284+01 | 1486297088.00328 | pgbench_accounts |      13646643200
 2017-02-05 13:18:08.003284+01 | 1486297088.00328 | pgbench_tellers  |           450560
 2017-02-05 13:18:08.003284+01 | 1486297088.00328 | pgbench_history  |         20774912
 2017-02-05 13:18:08.003284+01 | 1486297088.00328 | pgbench_branches |            40960

 2017-02-05 13:18:09.089132+01 | 1486297089.08913 | pgbench_accounts |      13646643200
 2017-02-05 13:18:09.089132+01 | 1486297089.08913 | pgbench_tellers  |           450560
 2017-02-05 13:18:09.089132+01 | 1486297089.08913 | pgbench_history  |         22134784
 2017-02-05 13:18:09.089132+01 | 1486297089.08913 | pgbench_branches |            40960

 2017-02-05 13:18:10.173115+01 | 1486297090.17312 | pgbench_accounts |      13646643200
 2017-02-05 13:18:10.173115+01 | 1486297090.17312 | pgbench_tellers  |           450560
 2017-02-05 13:18:10.173115+01 | 1486297090.17312 | pgbench_history  |         25845760
 2017-02-05 13:18:10.173115+01 | 1486297090.17312 | pgbench_branches |            40960

 2017-02-05 13:18:11.256128+01 | 1486297091.25613 | pgbench_accounts |      13646643200
 2017-02-05 13:18:11.256128+01 | 1486297091.25613 | pgbench_tellers  |           450560
 2017-02-05 13:18:11.256128+01 | 1486297091.25613 | pgbench_history  |         29851648
 2017-02-05 13:18:11.256128+01 | 1486297091.25613 | pgbench_branches |            40960

 2017-02-05 13:18:12.339029+01 | 1486297092.33903 | pgbench_accounts |      13646643200
 2017-02-05 13:18:12.339029+01 | 1486297092.33903 | pgbench_tellers  |           450560
 2017-02-05 13:18:12.339029+01 | 1486297092.33903 | pgbench_history  |         31866880
 2017-02-05 13:18:12.339029+01 | 1486297092.33903 | pgbench_branches |            40960

 2017-02-05 13:18:13.421054+01 | 1486297093.42105 | pgbench_accounts |      13646643200
 2017-02-05 13:18:13.421054+01 | 1486297093.42105 | pgbench_tellers  |           450560
 2017-02-05 13:18:13.421054+01 | 1486297093.42105 | pgbench_history  |         34865152
 2017-02-05 13:18:13.421054+01 | 1486297093.42105 | pgbench_branches |            40960

 2017-02-05 13:18:14.505931+01 | 1486297094.50593 | pgbench_accounts |      13646643200
 2017-02-05 13:18:14.505931+01 | 1486297094.50593 | pgbench_tellers  |           450560
 2017-02-05 13:18:14.505931+01 | 1486297094.50593 | pgbench_history  |         39272448
 2017-02-05 13:18:14.505931+01 | 1486297094.50593 | pgbench_branches |            40960

 2017-02-05 13:18:15.596206+01 | 1486297095.59621 | pgbench_accounts |      13646643200
 2017-02-05 13:18:15.596206+01 | 1486297095.59621 | pgbench_tellers  |           450560
 2017-02-05 13:18:15.596206+01 | 1486297095.59621 | pgbench_history  |         41803776
 2017-02-05 13:18:15.596206+01 | 1486297095.59621 | pgbench_branches |            40960

 2017-02-05 13:18:16.681017+01 | 1486297096.68102 | pgbench_accounts |      13646643200
 2017-02-05 13:18:16.681017+01 | 1486297096.68102 | pgbench_tellers  |           450560
 2017-02-05 13:18:16.681017+01 | 1486297096.68102 | pgbench_history  |         45342720
 2017-02-05 13:18:16.681017+01 | 1486297096.68102 | pgbench_branches |            40960

 2017-02-05 13:18:17.770243+01 | 1486297097.77024 | pgbench_accounts |      13646643200
 2017-02-05 13:18:17.770243+01 | 1486297097.77024 | pgbench_tellers  |           450560
 2017-02-05 13:18:17.770243+01 | 1486297097.77024 | pgbench_history  |         49020928
 2017-02-05 13:18:17.770243+01 | 1486297097.77024 | pgbench_branches |            40960

 2017-02-05 13:18:18.857415+01 | 1486297098.85741 | pgbench_accounts |      13646643200
 2017-02-05 13:18:18.857415+01 | 1486297098.85741 | pgbench_tellers  |           450560
 2017-02-05 13:18:18.857415+01 | 1486297098.85741 | pgbench_history  |         52183040
 2017-02-05 13:18:18.857415+01 | 1486297098.85741 | pgbench_branches |            40960

 2017-02-05 13:18:19.944226+01 | 1486297099.94423 | pgbench_accounts |      13646643200
 2017-02-05 13:18:19.944226+01 | 1486297099.94423 | pgbench_tellers  |           450560
 2017-02-05 13:18:19.944226+01 | 1486297099.94423 | pgbench_history  |         55508992
 2017-02-05 13:18:19.944226+01 | 1486297099.94423 | pgbench_branches |            40960

 2017-02-05 13:18:21.022401+01 | 1486297101.0224 | pgbench_accounts |      13646643200
 2017-02-05 13:18:21.022401+01 | 1486297101.0224 | pgbench_tellers  |           450560
 2017-02-05 13:18:21.022401+01 | 1486297101.0224 | pgbench_history  |         58507264
 2017-02-05 13:18:21.022401+01 | 1486297101.0224 | pgbench_branches |            40960

 2017-02-05 13:18:22.113622+01 | 1486297102.11362 | pgbench_accounts |      13646643200
 2017-02-05 13:18:22.113622+01 | 1486297102.11362 | pgbench_tellers  |           450560
 2017-02-05 13:18:22.113622+01 | 1486297102.11362 | pgbench_history  |         63168512
 2017-02-05 13:18:22.113622+01 | 1486297102.11362 | pgbench_branches |            40960

 2017-02-05 13:18:23.198422+01 | 1486297103.19842 | pgbench_accounts |      13646643200
 2017-02-05 13:18:23.198422+01 | 1486297103.19842 | pgbench_tellers  |           450560
 2017-02-05 13:18:23.198422+01 | 1486297103.19842 | pgbench_history  |         67903488
 2017-02-05 13:18:23.198422+01 | 1486297103.19842 | pgbench_branches |            40960

 2017-02-05 13:18:24.283908+01 | 1486297104.28391 | pgbench_accounts |      13646643200
 2017-02-05 13:18:24.283908+01 | 1486297104.28391 | pgbench_tellers  |           450560
 2017-02-05 13:18:24.283908+01 | 1486297104.28391 | pgbench_history  |         70082560
 2017-02-05 13:18:24.283908+01 | 1486297104.28391 | pgbench_branches |            40960

 2017-02-05 13:18:25.366307+01 | 1486297105.36631 | pgbench_accounts |      13646643200
 2017-02-05 13:18:25.366307+01 | 1486297105.36631 | pgbench_tellers  |           450560
 2017-02-05 13:18:25.366307+01 | 1486297105.36631 | pgbench_history  |         73269248
 2017-02-05 13:18:25.366307+01 | 1486297105.36631 | pgbench_branches |            40960

 2017-02-05 13:18:26.467599+01 | 1486297106.4676 | pgbench_accounts |      13646643200
 2017-02-05 13:18:26.467599+01 | 1486297106.4676 | pgbench_tellers  |           450560
 2017-02-05 13:18:26.467599+01 | 1486297106.4676 | pgbench_history  |         76898304
 2017-02-05 13:18:26.467599+01 | 1486297106.4676 | pgbench_branches |            40960

 2017-02-05 13:18:27.558231+01 | 1486297107.55823 | pgbench_accounts |      13646643200
 2017-02-05 13:18:27.558231+01 | 1486297107.55823 | pgbench_tellers  |           450560
 2017-02-05 13:18:27.558231+01 | 1486297107.55823 | pgbench_history  |         80936960
 2017-02-05 13:18:27.558231+01 | 1486297107.55823 | pgbench_branches |            40960

 2017-02-05 13:18:28.639221+01 | 1486297108.63922 | pgbench_accounts |      13646643200
 2017-02-05 13:18:28.639221+01 | 1486297108.63922 | pgbench_tellers  |           450560
 2017-02-05 13:18:28.639221+01 | 1486297108.63922 | pgbench_history  |         83582976
 2017-02-05 13:18:28.639221+01 | 1486297108.63922 | pgbench_branches |            40960

 2017-02-05 13:18:29.733955+01 | 1486297109.73395 | pgbench_accounts |      13646643200
 2017-02-05 13:18:29.733955+01 | 1486297109.73395 | pgbench_tellers  |           450560
 2017-02-05 13:18:29.733955+01 | 1486297109.73395 | pgbench_history  |         87941120
 2017-02-05 13:18:29.733955+01 | 1486297109.73395 | pgbench_branches |            40960

 2017-02-05 13:18:30.819133+01 | 1486297110.81913 | pgbench_accounts |      13646643200
 2017-02-05 13:18:30.819133+01 | 1486297110.81913 | pgbench_tellers  |           450560
 2017-02-05 13:18:30.819133+01 | 1486297110.81913 | pgbench_history  |         90750976
 2017-02-05 13:18:30.819133+01 | 1486297110.81913 | pgbench_branches |            40960

 2017-02-05 13:18:31.899573+01 | 1486297111.89957 | pgbench_accounts |      13646643200
 2017-02-05 13:18:31.899573+01 | 1486297111.89957 | pgbench_tellers  |           450560
 2017-02-05 13:18:31.899573+01 | 1486297111.89957 | pgbench_history  |         94896128
 2017-02-05 13:18:31.899573+01 | 1486297111.89957 | pgbench_branches |            40960

 2017-02-05 13:18:32.981083+01 | 1486297112.98108 | pgbench_accounts |      13646643200
 2017-02-05 13:18:32.981083+01 | 1486297112.98108 | pgbench_tellers  |           450560
 2017-02-05 13:18:32.981083+01 | 1486297112.98108 | pgbench_history  |         97386496
 2017-02-05 13:18:32.981083+01 | 1486297112.98108 | pgbench_branches |            40960

 2017-02-05 13:18:34.066009+01 | 1486297114.06601 | pgbench_accounts |      13646643200
 2017-02-05 13:18:34.066009+01 | 1486297114.06601 | pgbench_tellers  |           450560
 2017-02-05 13:18:34.066009+01 | 1486297114.06601 | pgbench_history  |        100245504
 2017-02-05 13:18:34.066009+01 | 1486297114.06601 | pgbench_branches |            40960

 2017-02-05 13:18:35.150259+01 | 1486297115.15026 | pgbench_accounts |      13646643200
 2017-02-05 13:18:35.150259+01 | 1486297115.15026 | pgbench_tellers  |           450560
 2017-02-05 13:18:35.150259+01 | 1486297115.15026 | pgbench_history  |        106905600
 2017-02-05 13:18:35.150259+01 | 1486297115.15026 | pgbench_branches |            40960

 2017-02-05 13:18:36.234414+01 | 1486297116.23441 | pgbench_accounts |      13646643200
 2017-02-05 13:18:36.234414+01 | 1486297116.23441 | pgbench_tellers  |           450560
 2017-02-05 13:18:36.234414+01 | 1486297116.23441 | pgbench_history  |        106905600
 2017-02-05 13:18:36.234414+01 | 1486297116.23441 | pgbench_branches |            40960

 2017-02-05 13:18:37.312113+01 | 1486297117.31211 | pgbench_accounts |      13646643200
 2017-02-05 13:18:37.312113+01 | 1486297117.31211 | pgbench_tellers  |           450560
 2017-02-05 13:18:37.312113+01 | 1486297117.31211 | pgbench_history  |        110395392
 2017-02-05 13:18:37.312113+01 | 1486297117.31211 | pgbench_branches |            40960

 2017-02-05 13:18:38.396415+01 | 1486297118.39641 | pgbench_accounts |      13646643200
 2017-02-05 13:18:38.396415+01 | 1486297118.39641 | pgbench_tellers  |           450560
 2017-02-05 13:18:38.396415+01 | 1486297118.39641 | pgbench_history  |        113278976
 2017-02-05 13:18:38.396415+01 | 1486297118.39641 | pgbench_branches |            40960

 2017-02-05 13:18:39.485126+01 | 1486297119.48513 | pgbench_accounts |      13646643200
 2017-02-05 13:18:39.485126+01 | 1486297119.48513 | pgbench_tellers  |           450560
 2017-02-05 13:18:39.485126+01 | 1486297119.48513 | pgbench_history  |        119742464
 2017-02-05 13:18:39.485126+01 | 1486297119.48513 | pgbench_branches |            40960

 2017-02-05 13:18:40.571659+01 | 1486297120.57166 | pgbench_accounts |      13646643200
 2017-02-05 13:18:40.571659+01 | 1486297120.57166 | pgbench_tellers  |           450560
 2017-02-05 13:18:40.571659+01 | 1486297120.57166 | pgbench_history  |        120586240
 2017-02-05 13:18:40.571659+01 | 1486297120.57166 | pgbench_branches |            40960

 2017-02-05 13:18:41.658922+01 | 1486297121.65892 | pgbench_accounts |      13646643200
 2017-02-05 13:18:41.658922+01 | 1486297121.65892 | pgbench_tellers  |           450560
 2017-02-05 13:18:41.658922+01 | 1486297121.65892 | pgbench_history  |        124076032
 2017-02-05 13:18:41.658922+01 | 1486297121.65892 | pgbench_branches |            40960

 2017-02-05 13:18:42.746501+01 | 1486297122.7465 | pgbench_accounts |      13646643200
 2017-02-05 13:18:42.746501+01 | 1486297122.7465 | pgbench_tellers  |           450560
 2017-02-05 13:18:42.746501+01 | 1486297122.7465 | pgbench_history  |        128811008
 2017-02-05 13:18:42.746501+01 | 1486297122.7465 | pgbench_branches |            40960

 2017-02-05 13:18:43.828503+01 | 1486297123.8285 | pgbench_accounts |      13646643200
 2017-02-05 13:18:43.828503+01 | 1486297123.8285 | pgbench_tellers  |           450560
 2017-02-05 13:18:43.828503+01 | 1486297123.8285 | pgbench_history  |        131153920
 2017-02-05 13:18:43.828503+01 | 1486297123.8285 | pgbench_branches |            40960

 2017-02-05 13:18:44.916672+01 | 1486297124.91667 | pgbench_accounts |      13646643200
 2017-02-05 13:18:44.916672+01 | 1486297124.91667 | pgbench_tellers  |           450560
 2017-02-05 13:18:44.916672+01 | 1486297124.91667 | pgbench_history  |        135159808
 2017-02-05 13:18:44.916672+01 | 1486297124.91667 | pgbench_branches |            40960

 2017-02-05 13:18:46.005681+01 | 1486297126.00568 | pgbench_accounts |      13646643200
 2017-02-05 13:18:46.005681+01 | 1486297126.00568 | pgbench_tellers  |           450560
 2017-02-05 13:18:46.005681+01 | 1486297126.00568 | pgbench_history  |        138977280
 2017-02-05 13:18:46.005681+01 | 1486297126.00568 | pgbench_branches |            40960

 2017-02-05 13:18:47.097587+01 | 1486297127.09759 | pgbench_accounts |      13646643200
 2017-02-05 13:18:47.097587+01 | 1486297127.09759 | pgbench_tellers  |           450560
 2017-02-05 13:18:47.097587+01 | 1486297127.09759 | pgbench_history  |        142843904
 2017-02-05 13:18:47.097587+01 | 1486297127.09759 | pgbench_branches |            40960

 2017-02-05 13:18:48.188517+01 | 1486297128.18852 | pgbench_accounts |      13646643200
 2017-02-05 13:18:48.188517+01 | 1486297128.18852 | pgbench_tellers  |           450560
 2017-02-05 13:18:48.188517+01 | 1486297128.18852 | pgbench_history  |        147316736
 2017-02-05 13:18:48.188517+01 | 1486297128.18852 | pgbench_branches |            40960

 2017-02-05 13:18:49.274678+01 | 1486297129.27468 | pgbench_accounts |      13646643200
 2017-02-05 13:18:49.274678+01 | 1486297129.27468 | pgbench_tellers  |           450560
 2017-02-05 13:18:49.274678+01 | 1486297129.27468 | pgbench_history  |        149823488
 2017-02-05 13:18:49.274678+01 | 1486297129.27468 | pgbench_branches |            40960

 2017-02-05 13:18:50.357847+01 | 1486297130.35785 | pgbench_accounts |      13646643200
 2017-02-05 13:18:50.357847+01 | 1486297130.35785 | pgbench_tellers  |           450560
 2017-02-05 13:18:50.357847+01 | 1486297130.35785 | pgbench_history  |        153526272
 2017-02-05 13:18:50.357847+01 | 1486297130.35785 | pgbench_branches |            40960

 2017-02-05 13:18:51.443037+01 | 1486297131.44304 | pgbench_accounts |      13646643200
 2017-02-05 13:18:51.443037+01 | 1486297131.44304 | pgbench_tellers  |           450560
 2017-02-05 13:18:51.443037+01 | 1486297131.44304 | pgbench_history  |        158162944
 2017-02-05 13:18:51.443037+01 | 1486297131.44304 | pgbench_branches |            40960

 2017-02-05 13:18:52.529448+01 | 1486297132.52945 | pgbench_accounts |      13646643200
 2017-02-05 13:18:52.529448+01 | 1486297132.52945 | pgbench_tellers  |           450560
 2017-02-05 13:18:52.529448+01 | 1486297132.52945 | pgbench_history  |        159498240
 2017-02-05 13:18:52.529448+01 | 1486297132.52945 | pgbench_branches |            40960

 2017-02-05 13:18:53.613205+01 | 1486297133.6132 | pgbench_accounts |      13646643200
 2017-02-05 13:18:53.613205+01 | 1486297133.6132 | pgbench_tellers  |           450560
 2017-02-05 13:18:53.613205+01 | 1486297133.6132 | pgbench_history  |        163127296
 2017-02-05 13:18:53.613205+01 | 1486297133.6132 | pgbench_branches |            40960

 2017-02-05 13:18:54.699217+01 | 1486297134.69922 | pgbench_accounts |      13646643200
 2017-02-05 13:18:54.699217+01 | 1486297134.69922 | pgbench_tellers  |           450560
 2017-02-05 13:18:54.699217+01 | 1486297134.69922 | pgbench_history  |        166617088
 2017-02-05 13:18:54.699217+01 | 1486297134.69922 | pgbench_branches |            40960

 2017-02-05 13:18:55.783904+01 | 1486297135.7839 | pgbench_accounts |      13646643200
 2017-02-05 13:18:55.783904+01 | 1486297135.7839 | pgbench_tellers  |           450560
 2017-02-05 13:18:55.783904+01 | 1486297135.7839 | pgbench_history  |        169615360
 2017-02-05 13:18:55.783904+01 | 1486297135.7839 | pgbench_branches |            40960

 2017-02-05 13:18:56.876365+01 | 1486297136.87636 | pgbench_accounts |      13646643200
 2017-02-05 13:18:56.876365+01 | 1486297136.87636 | pgbench_tellers  |           450560
 2017-02-05 13:18:56.876365+01 | 1486297136.87636 | pgbench_history  |        173621248
 2017-02-05 13:18:56.876365+01 | 1486297136.87636 | pgbench_branches |            40960

 2017-02-05 13:18:57.961594+01 | 1486297137.96159 | pgbench_accounts |      13646643200
 2017-02-05 13:18:57.961594+01 | 1486297137.96159 | pgbench_tellers  |           450560
 2017-02-05 13:18:57.961594+01 | 1486297137.96159 | pgbench_history  |        177815552
 2017-02-05 13:18:57.961594+01 | 1486297137.96159 | pgbench_branches |            40960

 2017-02-05 13:18:59.047761+01 | 1486297139.04776 | pgbench_accounts |      13646643200
 2017-02-05 13:18:59.047761+01 | 1486297139.04776 | pgbench_tellers  |           450560
 2017-02-05 13:18:59.047761+01 | 1486297139.04776 | pgbench_history  |        181174272
 2017-02-05 13:18:59.047761+01 | 1486297139.04776 | pgbench_branches |            40960

 2017-02-05 13:19:00.134829+01 | 1486297140.13483 | pgbench_accounts |      13646643200
 2017-02-05 13:19:00.134829+01 | 1486297140.13483 | pgbench_tellers  |           450560
 2017-02-05 13:19:00.134829+01 | 1486297140.13483 | pgbench_history  |        186163200
 2017-02-05 13:19:00.134829+01 | 1486297140.13483 | pgbench_branches |            40960

 2017-02-05 13:19:01.233338+01 | 1486297141.23334 | pgbench_accounts |      13646643200
 2017-02-05 13:19:01.233338+01 | 1486297141.23334 | pgbench_tellers  |           450560
 2017-02-05 13:19:01.233338+01 | 1486297141.23334 | pgbench_history  |        189161472
 2017-02-05 13:19:01.233338+01 | 1486297141.23334 | pgbench_branches |            40960

 2017-02-05 13:19:02.315824+01 | 1486297142.31582 | pgbench_accounts |      13646643200
 2017-02-05 13:19:02.315824+01 | 1486297142.31582 | pgbench_tellers  |           450560
 2017-02-05 13:19:02.315824+01 | 1486297142.31582 | pgbench_history  |        193634304
 2017-02-05 13:19:02.315824+01 | 1486297142.31582 | pgbench_branches |            40960

 2017-02-05 13:19:03.397727+01 | 1486297143.39773 | pgbench_accounts |      13646643200
 2017-02-05 13:19:03.397727+01 | 1486297143.39773 | pgbench_tellers  |           450560
 2017-02-05 13:19:03.397727+01 | 1486297143.39773 | pgbench_history  |        195821568
 2017-02-05 13:19:03.397727+01 | 1486297143.39773 | pgbench_branches |            40960

 2017-02-05 13:19:04.496119+01 | 1486297144.49612 | pgbench_accounts |      13646643200
 2017-02-05 13:19:04.496119+01 | 1486297144.49612 | pgbench_tellers  |           450560
 2017-02-05 13:19:04.496119+01 | 1486297144.49612 | pgbench_history  |        199991296
 2017-02-05 13:19:04.496119+01 | 1486297144.49612 | pgbench_branches |            40960

 2017-02-05 13:19:05.585178+01 | 1486297145.58518 | pgbench_accounts |      13646643200
 2017-02-05 13:19:05.585178+01 | 1486297145.58518 | pgbench_tellers  |           450560
 2017-02-05 13:19:05.585178+01 | 1486297145.58518 | pgbench_history  |        203677696
 2017-02-05 13:19:05.585178+01 | 1486297145.58518 | pgbench_branches |            40960

 2017-02-05 13:19:06.674379+01 | 1486297146.67438 | pgbench_accounts |      13646643200
 2017-02-05 13:19:06.674379+01 | 1486297146.67438 | pgbench_tellers  |           450560
 2017-02-05 13:19:06.674379+01 | 1486297146.67438 | pgbench_history  |        207380480
 2017-02-05 13:19:06.674379+01 | 1486297146.67438 | pgbench_branches |            40960

 2017-02-05 13:19:07.754198+01 | 1486297147.7542 | pgbench_accounts |      13646643200
 2017-02-05 13:19:07.754198+01 | 1486297147.7542 | pgbench_tellers  |           450560
 2017-02-05 13:19:07.754198+01 | 1486297147.7542 | pgbench_history  |        211058688
 2017-02-05 13:19:07.754198+01 | 1486297147.7542 | pgbench_branches |            40960

 2017-02-05 13:19:08.835+01 | 1486297148.835 | pgbench_accounts |      13646643200
 2017-02-05 13:19:08.835+01 | 1486297148.835 | pgbench_tellers  |           450560
 2017-02-05 13:19:08.835+01 | 1486297148.835 | pgbench_history  |        215752704
 2017-02-05 13:19:08.835+01 | 1486297148.835 | pgbench_branches |            40960

 2017-02-05 13:19:09.925101+01 | 1486297149.9251 | pgbench_accounts |      13646643200
 2017-02-05 13:19:09.925101+01 | 1486297149.9251 | pgbench_tellers  |           450560
 2017-02-05 13:19:09.925101+01 | 1486297149.9251 | pgbench_history  |        219570176
 2017-02-05 13:19:09.925101+01 | 1486297149.9251 | pgbench_branches |            40960

 2017-02-05 13:19:11.005024+01 | 1486297151.00502 | pgbench_accounts |      13646643200
 2017-02-05 13:19:11.005024+01 | 1486297151.00502 | pgbench_tellers  |           450560
 2017-02-05 13:19:11.005024+01 | 1486297151.00502 | pgbench_history  |        222404608
 2017-02-05 13:19:11.005024+01 | 1486297151.00502 | pgbench_branches |            40960

 2017-02-05 13:19:12.096157+01 | 1486297152.09616 | pgbench_accounts |      13646643200
 2017-02-05 13:19:12.096157+01 | 1486297152.09616 | pgbench_tellers  |           450560
 2017-02-05 13:19:12.096157+01 | 1486297152.09616 | pgbench_history  |        226435072
 2017-02-05 13:19:12.096157+01 | 1486297152.09616 | pgbench_branches |            40960

 2017-02-05 13:19:13.1871+01 | 1486297153.1871 | pgbench_accounts |      13646643200
 2017-02-05 13:19:13.1871+01 | 1486297153.1871 | pgbench_tellers  |           450560
 2017-02-05 13:19:13.1871+01 | 1486297153.1871 | pgbench_history  |        229924864
 2017-02-05 13:19:13.1871+01 | 1486297153.1871 | pgbench_branches |            40960

 2017-02-05 13:19:14.269913+01 | 1486297154.26991 | pgbench_accounts |      13646643200
 2017-02-05 13:19:14.269913+01 | 1486297154.26991 | pgbench_tellers  |           450560
 2017-02-05 13:19:14.269913+01 | 1486297154.26991 | pgbench_history  |        232620032
 2017-02-05 13:19:14.269913+01 | 1486297154.26991 | pgbench_branches |            40960

 2017-02-05 13:19:15.362662+01 | 1486297155.36266 | pgbench_accounts |      13646643200
 2017-02-05 13:19:15.362662+01 | 1486297155.36266 | pgbench_tellers  |           450560
 2017-02-05 13:19:15.362662+01 | 1486297155.36266 | pgbench_history  |        237199360
 2017-02-05 13:19:15.362662+01 | 1486297155.36266 | pgbench_branches |            40960

 2017-02-05 13:19:16.447013+01 | 1486297156.44701 | pgbench_accounts |      13646643200
 2017-02-05 13:19:16.447013+01 | 1486297156.44701 | pgbench_tellers  |           450560
 2017-02-05 13:19:16.447013+01 | 1486297156.44701 | pgbench_history  |        240549888
 2017-02-05 13:19:16.447013+01 | 1486297156.44701 | pgbench_branches |            40960

 2017-02-05 13:19:17.529349+01 | 1486297157.52935 | pgbench_accounts |      13646643200
 2017-02-05 13:19:17.529349+01 | 1486297157.52935 | pgbench_tellers  |           450560
 2017-02-05 13:19:17.529349+01 | 1486297157.52935 | pgbench_history  |        244744192
 2017-02-05 13:19:17.529349+01 | 1486297157.52935 | pgbench_branches |            40960

 2017-02-05 13:19:18.614093+01 | 1486297158.61409 | pgbench_accounts |      13646643200
 2017-02-05 13:19:18.614093+01 | 1486297158.61409 | pgbench_tellers  |           450560
 2017-02-05 13:19:18.614093+01 | 1486297158.61409 | pgbench_history  |        247439360
 2017-02-05 13:19:18.614093+01 | 1486297158.61409 | pgbench_branches |            40960

 2017-02-05 13:19:19.691927+01 | 1486297159.69193 | pgbench_accounts |      13646643200
 2017-02-05 13:19:19.691927+01 | 1486297159.69193 | pgbench_tellers  |           450560
 2017-02-05 13:19:19.691927+01 | 1486297159.69193 | pgbench_history  |        251101184
 2017-02-05 13:19:19.691927+01 | 1486297159.69193 | pgbench_branches |            40960

 2017-02-05 13:19:20.778924+01 | 1486297160.77892 | pgbench_accounts |      13646643200
 2017-02-05 13:19:20.778924+01 | 1486297160.77892 | pgbench_tellers  |           450560
 2017-02-05 13:19:20.778924+01 | 1486297160.77892 | pgbench_history  |        254779392
 2017-02-05 13:19:20.778924+01 | 1486297160.77892 | pgbench_branches |            40960

 2017-02-05 13:19:21.862129+01 | 1486297161.86213 | pgbench_accounts |      13646643200
 2017-02-05 13:19:21.862129+01 | 1486297161.86213 | pgbench_tellers  |           450560
 2017-02-05 13:19:21.862129+01 | 1486297161.86213 | pgbench_history  |        257425408
 2017-02-05 13:19:21.862129+01 | 1486297161.86213 | pgbench_branches |            40960

 2017-02-05 13:19:22.949374+01 | 1486297162.94937 | pgbench_accounts |      13646643200
 2017-02-05 13:19:22.949374+01 | 1486297162.94937 | pgbench_tellers  |           450560
 2017-02-05 13:19:22.949374+01 | 1486297162.94937 | pgbench_history  |        261455872
 2017-02-05 13:19:22.949374+01 | 1486297162.94937 | pgbench_branches |            40960

 2017-02-05 13:19:24.043115+01 | 1486297164.04311 | pgbench_accounts |      13646643200
 2017-02-05 13:19:24.043115+01 | 1486297164.04311 | pgbench_tellers  |           450560
 2017-02-05 13:19:24.043115+01 | 1486297164.04311 | pgbench_history  |        265273344
 2017-02-05 13:19:24.043115+01 | 1486297164.04311 | pgbench_branches |            40960

 2017-02-05 13:19:25.130653+01 | 1486297165.13065 | pgbench_accounts |      13646643200
 2017-02-05 13:19:25.130653+01 | 1486297165.13065 | pgbench_tellers  |           450560
 2017-02-05 13:19:25.130653+01 | 1486297165.13065 | pgbench_history  |        269910016
 2017-02-05 13:19:25.130653+01 | 1486297165.13065 | pgbench_branches |            40960

 2017-02-05 13:19:26.221542+01 | 1486297166.22154 | pgbench_accounts |      13646643200
 2017-02-05 13:19:26.221542+01 | 1486297166.22154 | pgbench_tellers  |           450560
 2017-02-05 13:19:26.221542+01 | 1486297166.22154 | pgbench_history  |        275660800
 2017-02-05 13:19:26.221542+01 | 1486297166.22154 | pgbench_branches |            40960

 2017-02-05 13:19:27.308968+01 | 1486297167.30897 | pgbench_accounts |      13646643200
 2017-02-05 13:19:27.308968+01 | 1486297167.30897 | pgbench_tellers  |           450560
 2017-02-05 13:19:27.308968+01 | 1486297167.30897 | pgbench_history  |        277512192
 2017-02-05 13:19:27.308968+01 | 1486297167.30897 | pgbench_branches |            40960

 2017-02-05 13:19:28.406132+01 | 1486297168.40613 | pgbench_accounts |      13646643200
 2017-02-05 13:19:28.406132+01 | 1486297168.40613 | pgbench_tellers  |           450560
 2017-02-05 13:19:28.406132+01 | 1486297168.40613 | pgbench_history  |        284123136
 2017-02-05 13:19:28.406132+01 | 1486297168.40613 | pgbench_branches |            40960

 2017-02-05 13:19:29.496057+01 | 1486297169.49606 | pgbench_accounts |      13646643200
 2017-02-05 13:19:29.496057+01 | 1486297169.49606 | pgbench_tellers  |           450560
 2017-02-05 13:19:29.496057+01 | 1486297169.49606 | pgbench_history  |        284123136
 2017-02-05 13:19:29.496057+01 | 1486297169.49606 | pgbench_branches |            40960

 2017-02-05 13:19:30.583742+01 | 1486297170.58374 | pgbench_accounts |      13647151104
 2017-02-05 13:19:30.583742+01 | 1486297170.58374 | pgbench_tellers  |           450560
 2017-02-05 13:19:30.583742+01 | 1486297170.58374 | pgbench_history  |        286466048
 2017-02-05 13:19:30.583742+01 | 1486297170.58374 | pgbench_branches |            40960

 2017-02-05 13:19:31.670049+01 | 1486297171.67005 | pgbench_accounts |      13647151104
 2017-02-05 13:19:31.670049+01 | 1486297171.67005 | pgbench_tellers  |           450560
 2017-02-05 13:19:31.670049+01 | 1486297171.67005 | pgbench_history  |        289931264
 2017-02-05 13:19:31.670049+01 | 1486297171.67005 | pgbench_branches |            40960

 2017-02-05 13:19:32.757796+01 | 1486297172.7578 | pgbench_accounts |      13647486976
 2017-02-05 13:19:32.757796+01 | 1486297172.7578 | pgbench_tellers  |           450560
 2017-02-05 13:19:32.757796+01 | 1486297172.7578 | pgbench_history  |        293584896
 2017-02-05 13:19:32.757796+01 | 1486297172.7578 | pgbench_branches |            40960

 2017-02-05 13:19:33.841174+01 | 1486297173.84117 | pgbench_accounts |      13647724544
 2017-02-05 13:19:33.841174+01 | 1486297173.84117 | pgbench_tellers  |           450560
 2017-02-05 13:19:33.841174+01 | 1486297173.84117 | pgbench_history  |        297893888
 2017-02-05 13:19:33.841174+01 | 1486297173.84117 | pgbench_branches |            40960

 2017-02-05 13:19:34.927638+01 | 1486297174.92764 | pgbench_accounts |      13647831040
 2017-02-05 13:19:34.927638+01 | 1486297174.92764 | pgbench_tellers  |           450560
 2017-02-05 13:19:34.927638+01 | 1486297174.92764 | pgbench_history  |        301735936
 2017-02-05 13:19:34.927638+01 | 1486297174.92764 | pgbench_branches |            40960

 2017-02-05 13:19:36.0166+01 | 1486297176.0166 | pgbench_accounts |      13648019456
 2017-02-05 13:19:36.0166+01 | 1486297176.0166 | pgbench_tellers  |           450560
 2017-02-05 13:19:36.0166+01 | 1486297176.0166 | pgbench_history  |        305061888
 2017-02-05 13:19:36.0166+01 | 1486297176.0166 | pgbench_branches |            40960

 2017-02-05 13:19:37.098106+01 | 1486297177.09811 | pgbench_accounts |      13648248832
 2017-02-05 13:19:37.098106+01 | 1486297177.09811 | pgbench_tellers  |           450560
 2017-02-05 13:19:37.098106+01 | 1486297177.09811 | pgbench_history  |        309280768
 2017-02-05 13:19:37.098106+01 | 1486297177.09811 | pgbench_branches |            40960

 2017-02-05 13:19:38.182584+01 | 1486297178.18258 | pgbench_accounts |      13648412672
 2017-02-05 13:19:38.182584+01 | 1486297178.18258 | pgbench_tellers  |           450560
 2017-02-05 13:19:38.182584+01 | 1486297178.18258 | pgbench_history  |        314925056
 2017-02-05 13:19:38.182584+01 | 1486297178.18258 | pgbench_branches |            40960

 2017-02-05 13:19:39.268721+01 | 1486297179.26872 | pgbench_accounts |      13648543744
 2017-02-05 13:19:39.268721+01 | 1486297179.26872 | pgbench_tellers  |           450560
 2017-02-05 13:19:39.268721+01 | 1486297179.26872 | pgbench_history  |        315932672
 2017-02-05 13:19:39.268721+01 | 1486297179.26872 | pgbench_branches |            40960

 2017-02-05 13:19:40.354293+01 | 1486297180.35429 | pgbench_accounts |      13648707584
 2017-02-05 13:19:40.354293+01 | 1486297180.35429 | pgbench_tellers  |           450560
 2017-02-05 13:19:40.354293+01 | 1486297180.35429 | pgbench_history  |        320569344
 2017-02-05 13:19:40.354293+01 | 1486297180.35429 | pgbench_branches |            40960

 2017-02-05 13:19:41.437183+01 | 1486297181.43718 | pgbench_accounts |      13648879616
 2017-02-05 13:19:41.437183+01 | 1486297181.43718 | pgbench_tellers  |           450560
 2017-02-05 13:19:41.437183+01 | 1486297181.43718 | pgbench_history  |        322420736
 2017-02-05 13:19:41.437183+01 | 1486297181.43718 | pgbench_branches |            40960

 2017-02-05 13:19:42.514318+01 | 1486297182.51432 | pgbench_accounts |      13649018880
 2017-02-05 13:19:42.514318+01 | 1486297182.51432 | pgbench_tellers  |           450560
 2017-02-05 13:19:42.514318+01 | 1486297182.51432 | pgbench_history  |        325935104
 2017-02-05 13:19:42.514318+01 | 1486297182.51432 | pgbench_branches |            40960

 2017-02-05 13:19:43.591834+01 | 1486297183.59183 | pgbench_accounts |      13649117184
 2017-02-05 13:19:43.591834+01 | 1486297183.59183 | pgbench_tellers  |           450560
 2017-02-05 13:19:43.591834+01 | 1486297183.59183 | pgbench_history  |        328957952
 2017-02-05 13:19:43.591834+01 | 1486297183.59183 | pgbench_branches |            40960

 2017-02-05 13:19:44.677426+01 | 1486297184.67743 | pgbench_accounts |      13649215488
 2017-02-05 13:19:44.677426+01 | 1486297184.67743 | pgbench_tellers  |           450560
 2017-02-05 13:19:44.677426+01 | 1486297184.67743 | pgbench_history  |        333176832
 2017-02-05 13:19:44.677426+01 | 1486297184.67743 | pgbench_branches |            40960

 2017-02-05 13:19:45.76294+01 | 1486297185.76294 | pgbench_accounts |      13649379328
 2017-02-05 13:19:45.76294+01 | 1486297185.76294 | pgbench_tellers  |           450560
 2017-02-05 13:19:45.76294+01 | 1486297185.76294 | pgbench_history  |        336199680
 2017-02-05 13:19:45.76294+01 | 1486297185.76294 | pgbench_branches |            40960

 2017-02-05 13:19:46.853829+01 | 1486297186.85383 | pgbench_accounts |      13649575936
 2017-02-05 13:19:46.853829+01 | 1486297186.85383 | pgbench_tellers  |           450560
 2017-02-05 13:19:46.853829+01 | 1486297186.85383 | pgbench_history  |        339738624
 2017-02-05 13:19:46.853829+01 | 1486297186.85383 | pgbench_branches |            40960

 2017-02-05 13:19:47.940938+01 | 1486297187.94094 | pgbench_accounts |      13649707008
 2017-02-05 13:19:47.940938+01 | 1486297187.94094 | pgbench_tellers  |           450560
 2017-02-05 13:19:47.940938+01 | 1486297187.94094 | pgbench_history  |        343089152
 2017-02-05 13:19:47.940938+01 | 1486297187.94094 | pgbench_branches |            40960

 2017-02-05 13:19:49.034258+01 | 1486297189.03426 | pgbench_accounts |      13649805312
 2017-02-05 13:19:49.034258+01 | 1486297189.03426 | pgbench_tellers  |           450560
 2017-02-05 13:19:49.034258+01 | 1486297189.03426 | pgbench_history  |        348078080
 2017-02-05 13:19:49.034258+01 | 1486297189.03426 | pgbench_branches |            40960

 2017-02-05 13:19:50.130093+01 | 1486297190.13009 | pgbench_accounts |      13649977344
 2017-02-05 13:19:50.130093+01 | 1486297190.13009 | pgbench_tellers  |           450560
 2017-02-05 13:19:50.130093+01 | 1486297190.13009 | pgbench_history  |        350068736
 2017-02-05 13:19:50.130093+01 | 1486297190.13009 | pgbench_branches |            40960

 2017-02-05 13:19:51.212278+01 | 1486297191.21228 | pgbench_accounts |      13650132992
 2017-02-05 13:19:51.212278+01 | 1486297191.21228 | pgbench_tellers  |           450560
 2017-02-05 13:19:51.212278+01 | 1486297191.21228 | pgbench_history  |        353771520
 2017-02-05 13:19:51.212278+01 | 1486297191.21228 | pgbench_branches |            40960

 2017-02-05 13:19:52.298572+01 | 1486297192.29857 | pgbench_accounts |      13650255872
 2017-02-05 13:19:52.298572+01 | 1486297192.29857 | pgbench_tellers  |           450560
 2017-02-05 13:19:52.298572+01 | 1486297192.29857 | pgbench_history  |        358105088
 2017-02-05 13:19:52.298572+01 | 1486297192.29857 | pgbench_branches |            40960

 2017-02-05 13:19:53.390137+01 | 1486297193.39014 | pgbench_accounts |      13650411520
 2017-02-05 13:19:53.390137+01 | 1486297193.39014 | pgbench_tellers  |           450560
 2017-02-05 13:19:53.390137+01 | 1486297193.39014 | pgbench_history  |        361291776
 2017-02-05 13:19:53.390137+01 | 1486297193.39014 | pgbench_branches |            40960

 2017-02-05 13:19:54.474983+01 | 1486297194.47498 | pgbench_accounts |      13650550784
 2017-02-05 13:19:54.474983+01 | 1486297194.47498 | pgbench_tellers  |           450560
 2017-02-05 13:19:54.474983+01 | 1486297194.47498 | pgbench_history  |        365633536
 2017-02-05 13:19:54.474983+01 | 1486297194.47498 | pgbench_branches |            40960

 2017-02-05 13:19:55.555811+01 | 1486297195.55581 | pgbench_accounts |      13650714624
 2017-02-05 13:19:55.555811+01 | 1486297195.55581 | pgbench_tellers  |           450560
 2017-02-05 13:19:55.555811+01 | 1486297195.55581 | pgbench_history  |        368164864
 2017-02-05 13:19:55.555811+01 | 1486297195.55581 | pgbench_branches |            40960

 2017-02-05 13:19:56.640022+01 | 1486297196.64002 | pgbench_accounts |      13650796544
 2017-02-05 13:19:56.640022+01 | 1486297196.64002 | pgbench_tellers  |           450560
 2017-02-05 13:19:56.640022+01 | 1486297196.64002 | pgbench_history  |        371728384
 2017-02-05 13:19:56.640022+01 | 1486297196.64002 | pgbench_branches |            40960

 2017-02-05 13:19:57.72666+01 | 1486297197.72666 | pgbench_accounts |      13650886656
 2017-02-05 13:19:57.72666+01 | 1486297197.72666 | pgbench_tellers  |           450560
 2017-02-05 13:19:57.72666+01 | 1486297197.72666 | pgbench_history  |        375250944
 2017-02-05 13:19:57.72666+01 | 1486297197.72666 | pgbench_branches |            40960

 2017-02-05 13:19:58.821982+01 | 1486297198.82198 | pgbench_accounts |      13651034112
 2017-02-05 13:19:58.821982+01 | 1486297198.82198 | pgbench_tellers  |           450560
 2017-02-05 13:19:58.821982+01 | 1486297198.82198 | pgbench_history  |        381345792
 2017-02-05 13:19:58.821982+01 | 1486297198.82198 | pgbench_branches |            40960

 2017-02-05 13:19:59.91146+01 | 1486297199.91146 | pgbench_accounts |      13651165184
 2017-02-05 13:19:59.91146+01 | 1486297199.91146 | pgbench_tellers  |           450560
 2017-02-05 13:19:59.91146+01 | 1486297199.91146 | pgbench_history  |        381345792
 2017-02-05 13:19:59.91146+01 | 1486297199.91146 | pgbench_branches |            40960

 2017-02-05 13:20:00.994953+01 | 1486297200.99495 | pgbench_accounts |      13651271680
 2017-02-05 13:20:00.994953+01 | 1486297200.99495 | pgbench_tellers  |           450560
 2017-02-05 13:20:00.994953+01 | 1486297200.99495 | pgbench_history  |        384507904
 2017-02-05 13:20:00.994953+01 | 1486297200.99495 | pgbench_branches |            40960

 2017-02-05 13:20:02.07855+01 | 1486297202.07855 | pgbench_accounts |      13651402752
 2017-02-05 13:20:02.07855+01 | 1486297202.07855 | pgbench_tellers  |           450560
 2017-02-05 13:20:02.07855+01 | 1486297202.07855 | pgbench_history  |        389660672
 2017-02-05 13:20:02.07855+01 | 1486297202.07855 | pgbench_branches |            40960

 2017-02-05 13:20:03.164413+01 | 1486297203.16441 | pgbench_accounts |      13651509248
 2017-02-05 13:20:03.164413+01 | 1486297203.16441 | pgbench_tellers  |           450560
 2017-02-05 13:20:03.164413+01 | 1486297203.16441 | pgbench_history  |        392495104
 2017-02-05 13:20:03.164413+01 | 1486297203.16441 | pgbench_branches |            40960

 2017-02-05 13:20:04.251245+01 | 1486297204.25125 | pgbench_accounts |      13651582976
 2017-02-05 13:20:04.251245+01 | 1486297204.25125 | pgbench_tellers  |           450560
 2017-02-05 13:20:04.251245+01 | 1486297204.25125 | pgbench_history  |        396992512
 2017-02-05 13:20:04.251245+01 | 1486297204.25125 | pgbench_branches |            40960

 2017-02-05 13:20:05.338233+01 | 1486297205.33823 | pgbench_accounts |      13651804160
 2017-02-05 13:20:05.338233+01 | 1486297205.33823 | pgbench_tellers  |           450560
 2017-02-05 13:20:05.338233+01 | 1486297205.33823 | pgbench_history  |        398819328
 2017-02-05 13:20:05.338233+01 | 1486297205.33823 | pgbench_branches |            40960

 2017-02-05 13:20:06.431125+01 | 1486297206.43112 | pgbench_accounts |      13651918848
 2017-02-05 13:20:06.431125+01 | 1486297206.43112 | pgbench_tellers  |           450560
 2017-02-05 13:20:06.431125+01 | 1486297206.43112 | pgbench_history  |        401842176
 2017-02-05 13:20:06.431125+01 | 1486297206.43112 | pgbench_branches |            40960

 2017-02-05 13:20:07.513477+01 | 1486297207.51348 | pgbench_accounts |      13652008960
 2017-02-05 13:20:07.513477+01 | 1486297207.51348 | pgbench_tellers  |           450560
 2017-02-05 13:20:07.513477+01 | 1486297207.51348 | pgbench_history  |        404512768
 2017-02-05 13:20:07.513477+01 | 1486297207.51348 | pgbench_branches |            40960

 2017-02-05 13:20:08.596401+01 | 1486297208.5964 | pgbench_accounts |      13652115456
 2017-02-05 13:20:08.596401+01 | 1486297208.5964 | pgbench_tellers  |           450560
 2017-02-05 13:20:08.596401+01 | 1486297208.5964 | pgbench_history  |        408215552
 2017-02-05 13:20:08.596401+01 | 1486297208.5964 | pgbench_branches |            40960

 2017-02-05 13:20:09.679756+01 | 1486297209.67976 | pgbench_accounts |      13652230144
 2017-02-05 13:20:09.679756+01 | 1486297209.67976 | pgbench_tellers  |           450560
 2017-02-05 13:20:09.679756+01 | 1486297209.67976 | pgbench_history  |        413253632
 2017-02-05 13:20:09.679756+01 | 1486297209.67976 | pgbench_branches |            40960

 2017-02-05 13:20:10.765771+01 | 1486297210.76577 | pgbench_accounts |      13652402176
 2017-02-05 13:20:10.765771+01 | 1486297210.76577 | pgbench_tellers  |           450560
 2017-02-05 13:20:10.765771+01 | 1486297210.76577 | pgbench_history  |        416088064
 2017-02-05 13:20:10.765771+01 | 1486297210.76577 | pgbench_branches |            40960

 2017-02-05 13:20:11.853277+01 | 1486297211.85328 | pgbench_accounts |      13652525056
 2017-02-05 13:20:11.853277+01 | 1486297211.85328 | pgbench_tellers  |           450560
 2017-02-05 13:20:11.853277+01 | 1486297211.85328 | pgbench_history  |        419766272
 2017-02-05 13:20:11.853277+01 | 1486297211.85328 | pgbench_branches |            40960

 2017-02-05 13:20:12.922807+01 | 1486297212.92281 | pgbench_accounts |      13652623360
 2017-02-05 13:20:12.922807+01 | 1486297212.92281 | pgbench_tellers  |           450560
 2017-02-05 13:20:12.922807+01 | 1486297212.92281 | pgbench_history  |        424099840
 2017-02-05 13:20:12.922807+01 | 1486297212.92281 | pgbench_branches |            40960

 2017-02-05 13:20:13.998777+01 | 1486297213.99878 | pgbench_accounts |      13652762624
 2017-02-05 13:20:13.998777+01 | 1486297213.99878 | pgbench_tellers  |           450560
 2017-02-05 13:20:13.998777+01 | 1486297213.99878 | pgbench_history  |        426606592
 2017-02-05 13:20:13.998777+01 | 1486297213.99878 | pgbench_branches |            40960

 2017-02-05 13:20:15.092574+01 | 1486297215.09257 | pgbench_accounts |      13652901888
 2017-02-05 13:20:15.092574+01 | 1486297215.09257 | pgbench_tellers  |           450560
 2017-02-05 13:20:15.092574+01 | 1486297215.09257 | pgbench_history  |        429604864
 2017-02-05 13:20:15.092574+01 | 1486297215.09257 | pgbench_branches |            40960

 2017-02-05 13:20:16.185561+01 | 1486297216.18556 | pgbench_accounts |      13653090304
 2017-02-05 13:20:16.185561+01 | 1486297216.18556 | pgbench_tellers  |           450560
 2017-02-05 13:20:16.185561+01 | 1486297216.18556 | pgbench_history  |        433610752
 2017-02-05 13:20:16.185561+01 | 1486297216.18556 | pgbench_branches |            40960

 2017-02-05 13:20:17.275992+01 | 1486297217.27599 | pgbench_accounts |      13653172224
 2017-02-05 13:20:17.275992+01 | 1486297217.27599 | pgbench_tellers  |           450560
 2017-02-05 13:20:17.275992+01 | 1486297217.27599 | pgbench_history  |        437460992
 2017-02-05 13:20:17.275992+01 | 1486297217.27599 | pgbench_branches |            40960

 2017-02-05 13:20:18.363557+01 | 1486297218.36356 | pgbench_accounts |      13653295104
 2017-02-05 13:20:18.363557+01 | 1486297218.36356 | pgbench_tellers  |           450560
 2017-02-05 13:20:18.363557+01 | 1486297218.36356 | pgbench_history  |        441491456
 2017-02-05 13:20:18.363557+01 | 1486297218.36356 | pgbench_branches |            40960

 2017-02-05 13:20:19.454205+01 | 1486297219.45421 | pgbench_accounts |      13653393408
 2017-02-05 13:20:19.454205+01 | 1486297219.45421 | pgbench_tellers  |           450560
 2017-02-05 13:20:19.454205+01 | 1486297219.45421 | pgbench_history  |        445030400
 2017-02-05 13:20:19.454205+01 | 1486297219.45421 | pgbench_branches |            40960

 2017-02-05 13:20:20.539594+01 | 1486297220.53959 | pgbench_accounts |      13653565440
 2017-02-05 13:20:20.539594+01 | 1486297220.53959 | pgbench_tellers  |           450560
 2017-02-05 13:20:20.539594+01 | 1486297220.53959 | pgbench_history  |        450183168
 2017-02-05 13:20:20.539594+01 | 1486297220.53959 | pgbench_branches |            40960

 2017-02-05 13:20:21.622297+01 | 1486297221.6223 | pgbench_accounts |      13653729280
 2017-02-05 13:20:21.622297+01 | 1486297221.6223 | pgbench_tellers  |           450560
 2017-02-05 13:20:21.622297+01 | 1486297221.6223 | pgbench_history  |        452362240
 2017-02-05 13:20:21.622297+01 | 1486297221.6223 | pgbench_branches |            40960

 2017-02-05 13:20:22.709152+01 | 1486297222.70915 | pgbench_accounts |      13653794816
 2017-02-05 13:20:22.709152+01 | 1486297222.70915 | pgbench_tellers  |           450560
 2017-02-05 13:20:22.709152+01 | 1486297222.70915 | pgbench_history  |        455688192
 2017-02-05 13:20:22.709152+01 | 1486297222.70915 | pgbench_branches |            40960

 2017-02-05 13:20:23.798621+01 | 1486297223.79862 | pgbench_accounts |      13653893120
 2017-02-05 13:20:23.798621+01 | 1486297223.79862 | pgbench_tellers  |           450560
 2017-02-05 13:20:23.798621+01 | 1486297223.79862 | pgbench_history  |        459177984
 2017-02-05 13:20:23.798621+01 | 1486297223.79862 | pgbench_branches |            40960

 2017-02-05 13:20:24.901178+01 | 1486297224.90118 | pgbench_accounts |      13654040576
 2017-02-05 13:20:24.901178+01 | 1486297224.90118 | pgbench_tellers  |           450560
 2017-02-05 13:20:24.901178+01 | 1486297224.90118 | pgbench_history  |        464568320
 2017-02-05 13:20:24.901178+01 | 1486297224.90118 | pgbench_branches |            40960

 2017-02-05 13:20:25.99298+01 | 1486297225.99298 | pgbench_accounts |      13654163456
 2017-02-05 13:20:25.99298+01 | 1486297225.99298 | pgbench_tellers  |           450560
 2017-02-05 13:20:25.99298+01 | 1486297225.99298 | pgbench_history  |        467050496
 2017-02-05 13:20:25.99298+01 | 1486297225.99298 | pgbench_branches |            40960

 2017-02-05 13:20:27.067077+01 | 1486297227.06708 | pgbench_accounts |      13654294528
 2017-02-05 13:20:27.067077+01 | 1486297227.06708 | pgbench_tellers  |           450560
 2017-02-05 13:20:27.067077+01 | 1486297227.06708 | pgbench_history  |        470073344
 2017-02-05 13:20:27.067077+01 | 1486297227.06708 | pgbench_branches |            40960

 2017-02-05 13:20:28.158264+01 | 1486297228.15826 | pgbench_accounts |      13654908928
 2017-02-05 13:20:28.158264+01 | 1486297228.15826 | pgbench_tellers  |           450560
 2017-02-05 13:20:28.158264+01 | 1486297228.15826 | pgbench_history  |        475742208
 2017-02-05 13:20:28.158264+01 | 1486297228.15826 | pgbench_branches |            40960

 2017-02-05 13:20:29.245866+01 | 1486297229.24587 | pgbench_accounts |      13655859200
 2017-02-05 13:20:29.245866+01 | 1486297229.24587 | pgbench_tellers  |           450560
 2017-02-05 13:20:29.245866+01 | 1486297229.24587 | pgbench_history  |        477241344
 2017-02-05 13:20:29.245866+01 | 1486297229.24587 | pgbench_branches |            40960

 2017-02-05 13:20:30.335883+01 | 1486297230.33588 | pgbench_accounts |      13655982080
 2017-02-05 13:20:30.335883+01 | 1486297230.33588 | pgbench_tellers  |           450560
 2017-02-05 13:20:30.335883+01 | 1486297230.33588 | pgbench_history  |        481779712
 2017-02-05 13:20:30.335883+01 | 1486297230.33588 | pgbench_branches |            40960

 2017-02-05 13:20:31.427571+01 | 1486297231.42757 | pgbench_accounts |      13656072192
 2017-02-05 13:20:31.427571+01 | 1486297231.42757 | pgbench_tellers  |           450560
 2017-02-05 13:20:31.427571+01 | 1486297231.42757 | pgbench_history  |        484622336
 2017-02-05 13:20:31.427571+01 | 1486297231.42757 | pgbench_branches |            40960

 2017-02-05 13:20:32.512804+01 | 1486297232.5128 | pgbench_accounts |      13656195072
 2017-02-05 13:20:32.512804+01 | 1486297232.5128 | pgbench_tellers  |           450560
 2017-02-05 13:20:32.512804+01 | 1486297232.5128 | pgbench_history  |        489144320
 2017-02-05 13:20:32.512804+01 | 1486297232.5128 | pgbench_branches |            40960

 2017-02-05 13:20:33.597023+01 | 1486297233.59702 | pgbench_accounts |      13656309760
 2017-02-05 13:20:33.597023+01 | 1486297233.59702 | pgbench_tellers  |           450560
 2017-02-05 13:20:33.597023+01 | 1486297233.59702 | pgbench_history  |        492085248
 2017-02-05 13:20:33.597023+01 | 1486297233.59702 | pgbench_branches |            40960

 2017-02-05 13:20:34.68379+01 | 1486297234.68379 | pgbench_accounts |      13656489984
 2017-02-05 13:20:34.68379+01 | 1486297234.68379 | pgbench_tellers  |           450560
 2017-02-05 13:20:34.68379+01 | 1486297234.68379 | pgbench_history  |        497254400
 2017-02-05 13:20:34.68379+01 | 1486297234.68379 | pgbench_branches |            40960

 2017-02-05 13:20:35.777954+01 | 1486297235.77795 | pgbench_accounts |      13656571904
 2017-02-05 13:20:35.777954+01 | 1486297235.77795 | pgbench_tellers  |           450560
 2017-02-05 13:20:35.777954+01 | 1486297235.77795 | pgbench_history  |        500277248
 2017-02-05 13:20:35.777954+01 | 1486297235.77795 | pgbench_branches |            40960

 2017-02-05 13:20:36.871422+01 | 1486297236.87142 | pgbench_accounts |      13656670208
 2017-02-05 13:20:36.871422+01 | 1486297236.87142 | pgbench_tellers  |           450560
 2017-02-05 13:20:36.871422+01 | 1486297236.87142 | pgbench_history  |        505757696
 2017-02-05 13:20:36.871422+01 | 1486297236.87142 | pgbench_branches |            40960

 2017-02-05 13:20:37.949778+01 | 1486297237.94978 | pgbench_accounts |      13656784896
 2017-02-05 13:20:37.949778+01 | 1486297237.94978 | pgbench_tellers  |           450560
 2017-02-05 13:20:37.949778+01 | 1486297237.94978 | pgbench_history  |        506765312
 2017-02-05 13:20:37.949778+01 | 1486297237.94978 | pgbench_branches |            40960

 2017-02-05 13:20:39.041681+01 | 1486297239.04168 | pgbench_accounts |      13656899584
 2017-02-05 13:20:39.041681+01 | 1486297239.04168 | pgbench_tellers  |           450560
 2017-02-05 13:20:39.041681+01 | 1486297239.04168 | pgbench_history  |        510984192
 2017-02-05 13:20:39.041681+01 | 1486297239.04168 | pgbench_branches |            40960

 2017-02-05 13:20:40.130548+01 | 1486297240.13055 | pgbench_accounts |      13657038848
 2017-02-05 13:20:40.130548+01 | 1486297240.13055 | pgbench_tellers  |           450560
 2017-02-05 13:20:40.130548+01 | 1486297240.13055 | pgbench_history  |        516210688
 2017-02-05 13:20:40.130548+01 | 1486297240.13055 | pgbench_branches |            40960

 2017-02-05 13:20:41.218271+01 | 1486297241.21827 | pgbench_accounts |      13657153536
 2017-02-05 13:20:41.218271+01 | 1486297241.21827 | pgbench_tellers  |           450560
 2017-02-05 13:20:41.218271+01 | 1486297241.21827 | pgbench_history  |        518062080
 2017-02-05 13:20:41.218271+01 | 1486297241.21827 | pgbench_branches |            40960

 2017-02-05 13:20:42.302315+01 | 1486297242.30231 | pgbench_accounts |      13657309184
 2017-02-05 13:20:42.302315+01 | 1486297242.30231 | pgbench_tellers  |           450560
 2017-02-05 13:20:42.302315+01 | 1486297242.30231 | pgbench_history  |        523706368
 2017-02-05 13:20:42.302315+01 | 1486297242.30231 | pgbench_branches |            40960

 2017-02-05 13:20:43.390015+01 | 1486297243.39001 | pgbench_accounts |      13657407488
 2017-02-05 13:20:43.390015+01 | 1486297243.39001 | pgbench_tellers  |           450560
 2017-02-05 13:20:43.390015+01 | 1486297243.39001 | pgbench_history  |        526213120
 2017-02-05 13:20:43.390015+01 | 1486297243.39001 | pgbench_branches |            40960

 2017-02-05 13:20:44.478667+01 | 1486297244.47867 | pgbench_accounts |      13657522176
 2017-02-05 13:20:44.478667+01 | 1486297244.47867 | pgbench_tellers  |           450560
 2017-02-05 13:20:44.478667+01 | 1486297244.47867 | pgbench_history  |        530382848
 2017-02-05 13:20:44.478667+01 | 1486297244.47867 | pgbench_branches |            40960

 2017-02-05 13:20:45.560177+01 | 1486297245.56018 | pgbench_accounts |      13657620480
 2017-02-05 13:20:45.560177+01 | 1486297245.56018 | pgbench_tellers  |           450560
 2017-02-05 13:20:45.560177+01 | 1486297245.56018 | pgbench_history  |        533635072
 2017-02-05 13:20:45.560177+01 | 1486297245.56018 | pgbench_branches |            40960

 2017-02-05 13:20:46.646421+01 | 1486297246.64642 | pgbench_accounts |      13657751552
 2017-02-05 13:20:46.646421+01 | 1486297246.64642 | pgbench_tellers  |           450560
 2017-02-05 13:20:46.646421+01 | 1486297246.64642 | pgbench_history  |        536895488
 2017-02-05 13:20:46.646421+01 | 1486297246.64642 | pgbench_branches |            40960

 2017-02-05 13:20:47.729206+01 | 1486297247.72921 | pgbench_accounts |      13657866240
 2017-02-05 13:20:47.729206+01 | 1486297247.72921 | pgbench_tellers  |           450560
 2017-02-05 13:20:47.729206+01 | 1486297247.72921 | pgbench_history  |        540901376
 2017-02-05 13:20:47.729206+01 | 1486297247.72921 | pgbench_branches |            40960

 2017-02-05 13:20:48.816835+01 | 1486297248.81683 | pgbench_accounts |      13657964544
 2017-02-05 13:20:48.816835+01 | 1486297248.81683 | pgbench_tellers  |           450560
 2017-02-05 13:20:48.816835+01 | 1486297248.81683 | pgbench_history  |        543244288
 2017-02-05 13:20:48.816835+01 | 1486297248.81683 | pgbench_branches |            40960

 2017-02-05 13:20:49.915252+01 | 1486297249.91525 | pgbench_accounts |      13658095616
 2017-02-05 13:20:49.915252+01 | 1486297249.91525 | pgbench_tellers  |           450560
 2017-02-05 13:20:49.915252+01 | 1486297249.91525 | pgbench_history  |        547438592
 2017-02-05 13:20:49.915252+01 | 1486297249.91525 | pgbench_branches |            40960

 2017-02-05 13:20:50.999781+01 | 1486297250.99978 | pgbench_accounts |      13658177536
 2017-02-05 13:20:50.999781+01 | 1486297250.99978 | pgbench_tellers  |           450560
 2017-02-05 13:20:50.999781+01 | 1486297250.99978 | pgbench_history  |        552337408
 2017-02-05 13:20:50.999781+01 | 1486297250.99978 | pgbench_branches |            40960

 2017-02-05 13:20:52.090161+01 | 1486297252.09016 | pgbench_accounts |      13658308608
 2017-02-05 13:20:52.090161+01 | 1486297252.09016 | pgbench_tellers  |           450560
 2017-02-05 13:20:52.090161+01 | 1486297252.09016 | pgbench_history  |        555008000
 2017-02-05 13:20:52.090161+01 | 1486297252.09016 | pgbench_branches |            40960

 2017-02-05 13:20:53.179648+01 | 1486297253.17965 | pgbench_accounts |      13658456064
 2017-02-05 13:20:53.179648+01 | 1486297253.17965 | pgbench_tellers  |           450560
 2017-02-05 13:20:53.179648+01 | 1486297253.17965 | pgbench_history  |        559177728
 2017-02-05 13:20:53.179648+01 | 1486297253.17965 | pgbench_branches |            40960

 2017-02-05 13:20:54.250613+01 | 1486297254.25061 | pgbench_accounts |      13658505216
 2017-02-05 13:20:54.250613+01 | 1486297254.25061 | pgbench_tellers  |           450560
 2017-02-05 13:20:54.250613+01 | 1486297254.25061 | pgbench_history  |        562995200
 2017-02-05 13:20:54.250613+01 | 1486297254.25061 | pgbench_branches |            40960

 2017-02-05 13:20:55.339798+01 | 1486297255.3398 | pgbench_accounts |      13658595328
 2017-02-05 13:20:55.339798+01 | 1486297255.3398 | pgbench_tellers  |           450560
 2017-02-05 13:20:55.339798+01 | 1486297255.3398 | pgbench_history  |        566697984
 2017-02-05 13:20:55.339798+01 | 1486297255.3398 | pgbench_branches |            40960

 2017-02-05 13:20:56.427238+01 | 1486297256.42724 | pgbench_accounts |      13658710016
 2017-02-05 13:20:56.427238+01 | 1486297256.42724 | pgbench_tellers  |           450560
 2017-02-05 13:20:56.427238+01 | 1486297256.42724 | pgbench_history  |        570023936
 2017-02-05 13:20:56.427238+01 | 1486297256.42724 | pgbench_branches |            40960

 2017-02-05 13:20:57.511338+01 | 1486297257.51134 | pgbench_accounts |      13658841088
 2017-02-05 13:20:57.511338+01 | 1486297257.51134 | pgbench_tellers  |           450560
 2017-02-05 13:20:57.511338+01 | 1486297257.51134 | pgbench_history  |        574357504
 2017-02-05 13:20:57.511338+01 | 1486297257.51134 | pgbench_branches |            40960

 2017-02-05 13:20:58.595061+01 | 1486297258.59506 | pgbench_accounts |      13658988544
 2017-02-05 13:20:58.595061+01 | 1486297258.59506 | pgbench_tellers  |           450560
 2017-02-05 13:20:58.595061+01 | 1486297258.59506 | pgbench_history  |        577085440
 2017-02-05 13:20:58.595061+01 | 1486297258.59506 | pgbench_branches |            40960

 2017-02-05 13:20:59.675669+01 | 1486297259.67567 | pgbench_accounts |      13659062272
 2017-02-05 13:20:59.675669+01 | 1486297259.67567 | pgbench_tellers  |           450560
 2017-02-05 13:20:59.675669+01 | 1486297259.67567 | pgbench_history  |        580665344
 2017-02-05 13:20:59.675669+01 | 1486297259.67567 | pgbench_branches |            40960

 2017-02-05 13:21:00.758299+01 | 1486297260.7583 | pgbench_accounts |      13659152384
 2017-02-05 13:21:00.758299+01 | 1486297260.7583 | pgbench_tellers  |           450560
 2017-02-05 13:21:00.758299+01 | 1486297260.7583 | pgbench_history  |        583852032
 2017-02-05 13:21:00.758299+01 | 1486297260.7583 | pgbench_branches |            40960

 2017-02-05 13:21:01.843395+01 | 1486297261.84339 | pgbench_accounts |      13659242496
 2017-02-05 13:21:01.843395+01 | 1486297261.84339 | pgbench_tellers  |           450560
 2017-02-05 13:21:01.843395+01 | 1486297261.84339 | pgbench_history  |        588046336
 2017-02-05 13:21:01.843395+01 | 1486297261.84339 | pgbench_branches |            40960

 2017-02-05 13:21:02.934106+01 | 1486297262.93411 | pgbench_accounts |      13659381760
 2017-02-05 13:21:02.934106+01 | 1486297262.93411 | pgbench_tellers  |           450560
 2017-02-05 13:21:02.934106+01 | 1486297262.93411 | pgbench_history  |        593502208
 2017-02-05 13:21:02.934106+01 | 1486297262.93411 | pgbench_branches |            40960

 2017-02-05 13:21:04.018873+01 | 1486297264.01887 | pgbench_accounts |      13659488256
 2017-02-05 13:21:04.018873+01 | 1486297264.01887 | pgbench_tellers  |           450560
 2017-02-05 13:21:04.018873+01 | 1486297264.01887 | pgbench_history  |        595353600
 2017-02-05 13:21:04.018873+01 | 1486297264.01887 | pgbench_branches |            40960

 2017-02-05 13:21:05.099444+01 | 1486297265.09944 | pgbench_accounts |      13659602944
 2017-02-05 13:21:05.099444+01 | 1486297265.09944 | pgbench_tellers  |           450560
 2017-02-05 13:21:05.099444+01 | 1486297265.09944 | pgbench_history  |        599826432
 2017-02-05 13:21:05.099444+01 | 1486297265.09944 | pgbench_branches |            40960

 2017-02-05 13:21:06.18475+01 | 1486297266.18475 | pgbench_accounts |      13659684864
 2017-02-05 13:21:06.18475+01 | 1486297266.18475 | pgbench_tellers  |           450560
 2017-02-05 13:21:06.18475+01 | 1486297266.18475 | pgbench_history  |        603127808
 2017-02-05 13:21:06.18475+01 | 1486297266.18475 | pgbench_branches |            40960

 2017-02-05 13:21:07.268715+01 | 1486297267.26871 | pgbench_accounts |      13659815936
 2017-02-05 13:21:07.268715+01 | 1486297267.26871 | pgbench_tellers  |           450560
 2017-02-05 13:21:07.268715+01 | 1486297267.26871 | pgbench_history  |        606920704
 2017-02-05 13:21:07.268715+01 | 1486297267.26871 | pgbench_branches |            40960

 2017-02-05 13:21:08.357031+01 | 1486297268.35703 | pgbench_accounts |      13659914240
 2017-02-05 13:21:08.357031+01 | 1486297268.35703 | pgbench_tellers  |           450560
 2017-02-05 13:21:08.357031+01 | 1486297268.35703 | pgbench_history  |        611065856
 2017-02-05 13:21:08.357031+01 | 1486297268.35703 | pgbench_branches |            40960

 2017-02-05 13:21:09.445792+01 | 1486297269.44579 | pgbench_accounts |      13660012544
 2017-02-05 13:21:09.445792+01 | 1486297269.44579 | pgbench_tellers  |           450560
 2017-02-05 13:21:09.445792+01 | 1486297269.44579 | pgbench_history  |        613244928
 2017-02-05 13:21:09.445792+01 | 1486297269.44579 | pgbench_branches |            40960

 2017-02-05 13:21:10.535575+01 | 1486297270.53557 | pgbench_accounts |      13660151808
 2017-02-05 13:21:10.535575+01 | 1486297270.53557 | pgbench_tellers  |           450560
 2017-02-05 13:21:10.535575+01 | 1486297270.53557 | pgbench_history  |        617111552
 2017-02-05 13:21:10.535575+01 | 1486297270.53557 | pgbench_branches |            40960

 2017-02-05 13:21:11.616378+01 | 1486297271.61638 | pgbench_accounts |      13660250112
 2017-02-05 13:21:11.616378+01 | 1486297271.61638 | pgbench_tellers  |           450560
 2017-02-05 13:21:11.616378+01 | 1486297271.61638 | pgbench_history  |        620437504
 2017-02-05 13:21:11.616378+01 | 1486297271.61638 | pgbench_branches |            40960

 2017-02-05 13:21:12.709102+01 | 1486297272.7091 | pgbench_accounts |      13660364800
 2017-02-05 13:21:12.709102+01 | 1486297272.7091 | pgbench_tellers  |           450560
 2017-02-05 13:21:12.709102+01 | 1486297272.7091 | pgbench_history  |        624418816
 2017-02-05 13:21:12.709102+01 | 1486297272.7091 | pgbench_branches |            40960

 2017-02-05 13:21:13.796724+01 | 1486297273.79672 | pgbench_accounts |      13660446720
 2017-02-05 13:21:13.796724+01 | 1486297273.79672 | pgbench_tellers  |           450560
 2017-02-05 13:21:13.796724+01 | 1486297273.79672 | pgbench_history  |        627638272
 2017-02-05 13:21:13.796724+01 | 1486297273.79672 | pgbench_branches |            40960

 2017-02-05 13:21:14.88717+01 | 1486297274.88717 | pgbench_accounts |      13660512256
 2017-02-05 13:21:14.88717+01 | 1486297274.88717 | pgbench_tellers  |           450560
 2017-02-05 13:21:14.88717+01 | 1486297274.88717 | pgbench_history  |        631808000
 2017-02-05 13:21:14.88717+01 | 1486297274.88717 | pgbench_branches |            40960

 2017-02-05 13:21:15.979309+01 | 1486297275.97931 | pgbench_accounts |      13660626944
 2017-02-05 13:21:15.979309+01 | 1486297275.97931 | pgbench_tellers  |           450560
 2017-02-05 13:21:15.979309+01 | 1486297275.97931 | pgbench_history  |        635346944
 2017-02-05 13:21:15.979309+01 | 1486297275.97931 | pgbench_branches |            40960

 2017-02-05 13:21:17.074176+01 | 1486297277.07418 | pgbench_accounts |      13660749824
 2017-02-05 13:21:17.074176+01 | 1486297277.07418 | pgbench_tellers  |           450560
 2017-02-05 13:21:17.074176+01 | 1486297277.07418 | pgbench_history  |        638648320
 2017-02-05 13:21:17.074176+01 | 1486297277.07418 | pgbench_branches |            40960

 2017-02-05 13:21:18.156812+01 | 1486297278.15681 | pgbench_accounts |      13660864512
 2017-02-05 13:21:18.156812+01 | 1486297278.15681 | pgbench_tellers  |           450560
 2017-02-05 13:21:18.156812+01 | 1486297278.15681 | pgbench_history  |        642629632
 2017-02-05 13:21:18.156812+01 | 1486297278.15681 | pgbench_branches |            40960

 2017-02-05 13:21:19.249081+01 | 1486297279.24908 | pgbench_accounts |      13660921856
 2017-02-05 13:21:19.249081+01 | 1486297279.24908 | pgbench_tellers  |           450560
 2017-02-05 13:21:19.249081+01 | 1486297279.24908 | pgbench_history  |        648437760
 2017-02-05 13:21:19.249081+01 | 1486297279.24908 | pgbench_branches |            40960

 2017-02-05 13:21:20.338362+01 | 1486297280.33836 | pgbench_accounts |      13661028352
 2017-02-05 13:21:20.338362+01 | 1486297280.33836 | pgbench_tellers  |           450560
 2017-02-05 13:21:20.338362+01 | 1486297280.33836 | pgbench_history  |        651411456
 2017-02-05 13:21:20.338362+01 | 1486297280.33836 | pgbench_branches |            40960

 2017-02-05 13:21:21.421898+01 | 1486297281.4219 | pgbench_accounts |      13661126656
 2017-02-05 13:21:21.421898+01 | 1486297281.4219 | pgbench_tellers  |           450560
 2017-02-05 13:21:21.421898+01 | 1486297281.4219 | pgbench_history  |        653590528
 2017-02-05 13:21:21.421898+01 | 1486297281.4219 | pgbench_branches |            40960

 2017-02-05 13:21:22.497801+01 | 1486297282.4978 | pgbench_accounts |      13661249536
 2017-02-05 13:21:22.497801+01 | 1486297282.4978 | pgbench_tellers  |           450560
 2017-02-05 13:21:22.497801+01 | 1486297282.4978 | pgbench_history  |        657268736
 2017-02-05 13:21:22.497801+01 | 1486297282.4978 | pgbench_branches |            40960

 2017-02-05 13:21:23.582945+01 | 1486297283.58295 | pgbench_accounts |      13661315072
 2017-02-05 13:21:23.582945+01 | 1486297283.58295 | pgbench_tellers  |           450560
 2017-02-05 13:21:23.582945+01 | 1486297283.58295 | pgbench_history  |        659800064
 2017-02-05 13:21:23.582945+01 | 1486297283.58295 | pgbench_branches |            40960

 2017-02-05 13:21:24.662316+01 | 1486297284.66232 | pgbench_accounts |      13661380608
 2017-02-05 13:21:24.662316+01 | 1486297284.66232 | pgbench_tellers  |           450560
 2017-02-05 13:21:24.662316+01 | 1486297284.66232 | pgbench_history  |        664461312
 2017-02-05 13:21:24.662316+01 | 1486297284.66232 | pgbench_branches |            40960

 2017-02-05 13:21:25.742449+01 | 1486297285.74245 | pgbench_accounts |      13661462528
 2017-02-05 13:21:25.742449+01 | 1486297285.74245 | pgbench_tellers  |           450560
 2017-02-05 13:21:25.742449+01 | 1486297285.74245 | pgbench_history  |        667271168
 2017-02-05 13:21:25.742449+01 | 1486297285.74245 | pgbench_branches |            40960

 2017-02-05 13:21:26.816567+01 | 1486297286.81657 | pgbench_accounts |      13661585408
 2017-02-05 13:21:26.816567+01 | 1486297286.81657 | pgbench_tellers  |           450560
 2017-02-05 13:21:26.816567+01 | 1486297286.81657 | pgbench_history  |        669786112
 2017-02-05 13:21:26.816567+01 | 1486297286.81657 | pgbench_branches |            40960

 2017-02-05 13:21:27.902966+01 | 1486297287.90297 | pgbench_accounts |      13661937664
 2017-02-05 13:21:27.902966+01 | 1486297287.90297 | pgbench_tellers  |           450560
 2017-02-05 13:21:27.902966+01 | 1486297287.90297 | pgbench_history  |        673792000
 2017-02-05 13:21:27.902966+01 | 1486297287.90297 | pgbench_branches |            40960

 2017-02-05 13:21:28.987559+01 | 1486297288.98756 | pgbench_accounts |      13662896128
 2017-02-05 13:21:28.987559+01 | 1486297288.98756 | pgbench_tellers  |           450560
 2017-02-05 13:21:28.987559+01 | 1486297288.98756 | pgbench_history  |        676487168
 2017-02-05 13:21:28.987559+01 | 1486297288.98756 | pgbench_branches |            40960

 2017-02-05 13:21:30.071041+01 | 1486297290.07104 | pgbench_accounts |      13663461376
 2017-02-05 13:21:30.071041+01 | 1486297290.07104 | pgbench_tellers  |           450560
 2017-02-05 13:21:30.071041+01 | 1486297290.07104 | pgbench_history  |        682459136
 2017-02-05 13:21:30.071041+01 | 1486297290.07104 | pgbench_branches |            40960

 2017-02-05 13:21:31.149549+01 | 1486297291.14955 | pgbench_accounts |      13664075776
 2017-02-05 13:21:31.149549+01 | 1486297291.14955 | pgbench_tellers  |           450560
 2017-02-05 13:21:31.149549+01 | 1486297291.14955 | pgbench_history  |        686768128
 2017-02-05 13:21:31.149549+01 | 1486297291.14955 | pgbench_branches |            40960

 2017-02-05 13:21:32.239995+01 | 1486297292.24 | pgbench_accounts |      13664100352
 2017-02-05 13:21:32.239995+01 | 1486297292.24 | pgbench_tellers  |           450560
 2017-02-05 13:21:32.239995+01 | 1486297292.24 | pgbench_history  |        686768128
 2017-02-05 13:21:32.239995+01 | 1486297292.24 | pgbench_branches |            40960

 2017-02-05 13:21:33.323474+01 | 1486297293.32347 | pgbench_accounts |      13664100352
 2017-02-05 13:21:33.323474+01 | 1486297293.32347 | pgbench_tellers  |           450560
 2017-02-05 13:21:33.323474+01 | 1486297293.32347 | pgbench_history  |        689995776
 2017-02-05 13:21:33.323474+01 | 1486297293.32347 | pgbench_branches |            40960

 2017-02-05 13:21:34.402567+01 | 1486297294.40257 | pgbench_accounts |      13664100352
 2017-02-05 13:21:34.402567+01 | 1486297294.40257 | pgbench_tellers  |           450560
 2017-02-05 13:21:34.402567+01 | 1486297294.40257 | pgbench_history  |        694534144
 2017-02-05 13:21:34.402567+01 | 1486297294.40257 | pgbench_branches |            40960

 2017-02-05 13:21:35.484889+01 | 1486297295.48489 | pgbench_accounts |      13664108544
 2017-02-05 13:21:35.484889+01 | 1486297295.48489 | pgbench_tellers  |           450560
 2017-02-05 13:21:35.484889+01 | 1486297295.48489 | pgbench_history  |        698048512
 2017-02-05 13:21:35.484889+01 | 1486297295.48489 | pgbench_branches |            40960

 2017-02-05 13:21:36.566034+01 | 1486297296.56603 | pgbench_accounts |      13664124928
 2017-02-05 13:21:36.566034+01 | 1486297296.56603 | pgbench_tellers  |           450560
 2017-02-05 13:21:36.566034+01 | 1486297296.56603 | pgbench_history  |        699572224
 2017-02-05 13:21:36.566034+01 | 1486297296.56603 | pgbench_branches |            40960

 2017-02-05 13:21:37.644365+01 | 1486297297.64437 | pgbench_accounts |      13664157696
 2017-02-05 13:21:37.644365+01 | 1486297297.64437 | pgbench_tellers  |           450560
 2017-02-05 13:21:37.644365+01 | 1486297297.64437 | pgbench_history  |        703389696
 2017-02-05 13:21:37.644365+01 | 1486297297.64437 | pgbench_branches |            40960

 2017-02-05 13:21:38.730971+01 | 1486297298.73097 | pgbench_accounts |      13664378880
 2017-02-05 13:21:38.730971+01 | 1486297298.73097 | pgbench_tellers  |           450560
 2017-02-05 13:21:38.730971+01 | 1486297298.73097 | pgbench_history  |        707067904
 2017-02-05 13:21:38.730971+01 | 1486297298.73097 | pgbench_branches |            40960

 2017-02-05 13:21:39.809896+01 | 1486297299.8099 | pgbench_accounts |      13664583680
 2017-02-05 13:21:39.809896+01 | 1486297299.8099 | pgbench_tellers  |           450560
 2017-02-05 13:21:39.809896+01 | 1486297299.8099 | pgbench_history  |        712458240
 2017-02-05 13:21:39.809896+01 | 1486297299.8099 | pgbench_branches |            40960

 2017-02-05 13:21:40.892268+01 | 1486297300.89227 | pgbench_accounts |      13664722944
 2017-02-05 13:21:40.892268+01 | 1486297300.89227 | pgbench_tellers  |           450560
 2017-02-05 13:21:40.892268+01 | 1486297300.89227 | pgbench_history  |        714121216
 2017-02-05 13:21:40.892268+01 | 1486297300.89227 | pgbench_branches |            40960

 2017-02-05 13:21:41.979936+01 | 1486297301.97994 | pgbench_accounts |      13664755712
 2017-02-05 13:21:41.979936+01 | 1486297301.97994 | pgbench_tellers  |           450560
 2017-02-05 13:21:41.979936+01 | 1486297301.97994 | pgbench_history  |        716963840
 2017-02-05 13:21:41.979936+01 | 1486297301.97994 | pgbench_branches |            40960

 2017-02-05 13:21:43.073927+01 | 1486297303.07393 | pgbench_accounts |      13664772096
 2017-02-05 13:21:43.073927+01 | 1486297303.07393 | pgbench_tellers  |           450560
 2017-02-05 13:21:43.073927+01 | 1486297303.07393 | pgbench_history  |        720666624
 2017-02-05 13:21:43.073927+01 | 1486297303.07393 | pgbench_branches |            40960

 2017-02-05 13:21:44.149224+01 | 1486297304.14922 | pgbench_accounts |      13664772096
 2017-02-05 13:21:44.149224+01 | 1486297304.14922 | pgbench_tellers  |           450560
 2017-02-05 13:21:44.149224+01 | 1486297304.14922 | pgbench_history  |        725327872
 2017-02-05 13:21:44.149224+01 | 1486297304.14922 | pgbench_branches |            40960

 2017-02-05 13:21:45.22357+01 | 1486297305.22357 | pgbench_accounts |      13664829440
 2017-02-05 13:21:45.22357+01 | 1486297305.22357 | pgbench_tellers  |           450560
 2017-02-05 13:21:45.22357+01 | 1486297305.22357 | pgbench_history  |        727343104
 2017-02-05 13:21:45.22357+01 | 1486297305.22357 | pgbench_branches |            40960

 2017-02-05 13:21:46.304836+01 | 1486297306.30484 | pgbench_accounts |      13664976896
 2017-02-05 13:21:46.304836+01 | 1486297306.30484 | pgbench_tellers  |           450560
 2017-02-05 13:21:46.304836+01 | 1486297306.30484 | pgbench_history  |        730882048
 2017-02-05 13:21:46.304836+01 | 1486297306.30484 | pgbench_branches |            40960

 2017-02-05 13:21:47.383462+01 | 1486297307.38346 | pgbench_accounts |      13665173504
 2017-02-05 13:21:47.383462+01 | 1486297307.38346 | pgbench_tellers  |           450560
 2017-02-05 13:21:47.383462+01 | 1486297307.38346 | pgbench_history  |        735191040
 2017-02-05 13:21:47.383462+01 | 1486297307.38346 | pgbench_branches |            40960

 2017-02-05 13:21:48.46598+01 | 1486297308.46598 | pgbench_accounts |      13665304576
 2017-02-05 13:21:48.46598+01 | 1486297308.46598 | pgbench_tellers  |           450560
 2017-02-05 13:21:48.46598+01 | 1486297308.46598 | pgbench_history  |        740933632
 2017-02-05 13:21:48.46598+01 | 1486297308.46598 | pgbench_branches |            40960

 2017-02-05 13:21:49.545172+01 | 1486297309.54517 | pgbench_accounts |      13665525760
 2017-02-05 13:21:49.545172+01 | 1486297309.54517 | pgbench_tellers  |           450560
 2017-02-05 13:21:49.545172+01 | 1486297309.54517 | pgbench_history  |        740933632
 2017-02-05 13:21:49.545172+01 | 1486297309.54517 | pgbench_branches |            40960

 2017-02-05 13:21:50.625717+01 | 1486297310.62572 | pgbench_accounts |      13665525760
 2017-02-05 13:21:50.625717+01 | 1486297310.62572 | pgbench_tellers  |           450560
 2017-02-05 13:21:50.625717+01 | 1486297310.62572 | pgbench_history  |        746225664
 2017-02-05 13:21:50.625717+01 | 1486297310.62572 | pgbench_branches |            40960

 2017-02-05 13:21:51.694857+01 | 1486297311.69486 | pgbench_accounts |      13665525760
 2017-02-05 13:21:51.694857+01 | 1486297311.69486 | pgbench_tellers  |           450560
 2017-02-05 13:21:51.694857+01 | 1486297311.69486 | pgbench_history  |        747749376
 2017-02-05 13:21:51.694857+01 | 1486297311.69486 | pgbench_branches |            40960

 2017-02-05 13:21:52.778191+01 | 1486297312.77819 | pgbench_accounts |      13665525760
 2017-02-05 13:21:52.778191+01 | 1486297312.77819 | pgbench_tellers  |           450560
 2017-02-05 13:21:52.778191+01 | 1486297312.77819 | pgbench_history  |        750796800
 2017-02-05 13:21:52.778191+01 | 1486297312.77819 | pgbench_branches |            40960

 2017-02-05 13:21:53.853984+01 | 1486297313.85398 | pgbench_accounts |      13665525760
 2017-02-05 13:21:53.853984+01 | 1486297313.85398 | pgbench_tellers  |           450560
 2017-02-05 13:21:53.853984+01 | 1486297313.85398 | pgbench_history  |        753983488
 2017-02-05 13:21:53.853984+01 | 1486297313.85398 | pgbench_branches |            40960

 2017-02-05 13:21:54.9422+01 | 1486297314.9422 | pgbench_accounts |      13665525760
 2017-02-05 13:21:54.9422+01 | 1486297314.9422 | pgbench_tellers  |           450560
 2017-02-05 13:21:54.9422+01 | 1486297314.9422 | pgbench_history  |        758980608
 2017-02-05 13:21:54.9422+01 | 1486297314.9422 | pgbench_branches |            40960

 2017-02-05 13:21:56.044035+01 | 1486297316.04403 | pgbench_accounts |      13665525760
 2017-02-05 13:21:56.044035+01 | 1486297316.04403 | pgbench_tellers  |           450560
 2017-02-05 13:21:56.044035+01 | 1486297316.04403 | pgbench_history  |        760995840
 2017-02-05 13:21:56.044035+01 | 1486297316.04403 | pgbench_branches |            40960

 2017-02-05 13:21:57.143007+01 | 1486297317.14301 | pgbench_accounts |      13665804288
 2017-02-05 13:21:57.143007+01 | 1486297317.14301 | pgbench_tellers  |           450560
 2017-02-05 13:21:57.143007+01 | 1486297317.14301 | pgbench_history  |        763969536
 2017-02-05 13:21:57.143007+01 | 1486297317.14301 | pgbench_branches |            40960

 2017-02-05 13:21:58.247126+01 | 1486297318.24713 | pgbench_accounts |      13665804288
 2017-02-05 13:21:58.247126+01 | 1486297318.24713 | pgbench_tellers  |           450560
 2017-02-05 13:21:58.247126+01 | 1486297318.24713 | pgbench_history  |        768466944
 2017-02-05 13:21:58.247126+01 | 1486297318.24713 | pgbench_branches |            40960

 2017-02-05 13:21:59.340788+01 | 1486297319.34079 | pgbench_accounts |      13665804288
 2017-02-05 13:21:59.340788+01 | 1486297319.34079 | pgbench_tellers  |           450560
 2017-02-05 13:21:59.340788+01 | 1486297319.34079 | pgbench_history  |        770809856
 2017-02-05 13:21:59.340788+01 | 1486297319.34079 | pgbench_branches |            40960

 2017-02-05 13:22:00.430047+01 | 1486297320.43005 | pgbench_accounts |      13666009088
 2017-02-05 13:22:00.430047+01 | 1486297320.43005 | pgbench_tellers  |           450560
 2017-02-05 13:22:00.430047+01 | 1486297320.43005 | pgbench_history  |        775520256
 2017-02-05 13:22:00.430047+01 | 1486297320.43005 | pgbench_branches |            40960

 2017-02-05 13:22:01.521534+01 | 1486297321.52153 | pgbench_accounts |      13666009088
 2017-02-05 13:22:01.521534+01 | 1486297321.52153 | pgbench_tellers  |           450560
 2017-02-05 13:22:01.521534+01 | 1486297321.52153 | pgbench_history  |        777863168
 2017-02-05 13:22:01.521534+01 | 1486297321.52153 | pgbench_branches |            40960

 2017-02-05 13:22:02.610678+01 | 1486297322.61068 | pgbench_accounts |      13666279424
 2017-02-05 13:22:02.610678+01 | 1486297322.61068 | pgbench_tellers  |           450560
 2017-02-05 13:22:02.610678+01 | 1486297322.61068 | pgbench_history  |        780869632
 2017-02-05 13:22:02.610678+01 | 1486297322.61068 | pgbench_branches |            40960

 2017-02-05 13:22:03.696892+01 | 1486297323.69689 | pgbench_accounts |      13666566144
 2017-02-05 13:22:03.696892+01 | 1486297323.69689 | pgbench_tellers  |           450560
 2017-02-05 13:22:03.696892+01 | 1486297323.69689 | pgbench_history  |        784384000
 2017-02-05 13:22:03.696892+01 | 1486297323.69689 | pgbench_branches |            40960

 2017-02-05 13:22:04.787653+01 | 1486297324.78765 | pgbench_accounts |      13666566144
 2017-02-05 13:22:04.787653+01 | 1486297324.78765 | pgbench_tellers  |           450560
 2017-02-05 13:22:04.787653+01 | 1486297324.78765 | pgbench_history  |        790102016
 2017-02-05 13:22:04.787653+01 | 1486297324.78765 | pgbench_branches |            40960

 2017-02-05 13:22:05.872997+01 | 1486297325.873 | pgbench_accounts |      13666566144
 2017-02-05 13:22:05.872997+01 | 1486297325.873 | pgbench_tellers  |           450560
 2017-02-05 13:22:05.872997+01 | 1486297325.873 | pgbench_history  |        791601152
 2017-02-05 13:22:05.872997+01 | 1486297325.873 | pgbench_branches |            40960

 2017-02-05 13:22:06.965028+01 | 1486297326.96503 | pgbench_accounts |      13666566144
 2017-02-05 13:22:06.965028+01 | 1486297326.96503 | pgbench_tellers  |           450560
 2017-02-05 13:22:06.965028+01 | 1486297326.96503 | pgbench_history  |        793944064
 2017-02-05 13:22:06.965028+01 | 1486297326.96503 | pgbench_branches |            40960

 2017-02-05 13:22:08.055552+01 | 1486297328.05555 | pgbench_accounts |      13666566144
 2017-02-05 13:22:08.055552+01 | 1486297328.05555 | pgbench_tellers  |           450560
 2017-02-05 13:22:08.055552+01 | 1486297328.05555 | pgbench_history  |        798277632
 2017-02-05 13:22:08.055552+01 | 1486297328.05555 | pgbench_branches |            40960

 2017-02-05 13:22:09.155942+01 | 1486297329.15594 | pgbench_accounts |      13666566144
 2017-02-05 13:22:09.155942+01 | 1486297329.15594 | pgbench_tellers  |           450560
 2017-02-05 13:22:09.155942+01 | 1486297329.15594 | pgbench_history  |        800161792
 2017-02-05 13:22:09.155942+01 | 1486297329.15594 | pgbench_branches |            40960

 2017-02-05 13:22:10.25338+01 | 1486297330.25338 | pgbench_accounts |      13666852864
 2017-02-05 13:22:10.25338+01 | 1486297330.25338 | pgbench_tellers  |           450560
 2017-02-05 13:22:10.25338+01 | 1486297330.25338 | pgbench_history  |        804462592
 2017-02-05 13:22:10.25338+01 | 1486297330.25338 | pgbench_branches |            40960

 2017-02-05 13:22:11.343624+01 | 1486297331.34362 | pgbench_accounts |      13666967552
 2017-02-05 13:22:11.343624+01 | 1486297331.34362 | pgbench_tellers  |           450560
 2017-02-05 13:22:11.343624+01 | 1486297331.34362 | pgbench_history  |        807518208
 2017-02-05 13:22:11.343624+01 | 1486297331.34362 | pgbench_branches |            40960

 2017-02-05 13:22:12.427698+01 | 1486297332.4277 | pgbench_accounts |      13667147776
 2017-02-05 13:22:12.427698+01 | 1486297332.4277 | pgbench_tellers  |           450560
 2017-02-05 13:22:12.427698+01 | 1486297332.4277 | pgbench_history  |        811499520
 2017-02-05 13:22:12.427698+01 | 1486297332.4277 | pgbench_branches |            40960

 2017-02-05 13:22:13.514406+01 | 1486297333.51441 | pgbench_accounts |      13667221504
 2017-02-05 13:22:13.514406+01 | 1486297333.51441 | pgbench_tellers  |           450560
 2017-02-05 13:22:13.514406+01 | 1486297333.51441 | pgbench_history  |        814194688
 2017-02-05 13:22:13.514406+01 | 1486297333.51441 | pgbench_branches |            40960

 2017-02-05 13:22:14.600721+01 | 1486297334.60072 | pgbench_accounts |      13667221504
 2017-02-05 13:22:14.600721+01 | 1486297334.60072 | pgbench_tellers  |           450560
 2017-02-05 13:22:14.600721+01 | 1486297334.60072 | pgbench_history  |        817709056
 2017-02-05 13:22:14.600721+01 | 1486297334.60072 | pgbench_branches |            40960

 2017-02-05 13:22:15.691478+01 | 1486297335.69148 | pgbench_accounts |      13667221504
 2017-02-05 13:22:15.691478+01 | 1486297335.69148 | pgbench_tellers  |           450560
 2017-02-05 13:22:15.691478+01 | 1486297335.69148 | pgbench_history  |        821108736
 2017-02-05 13:22:15.691478+01 | 1486297335.69148 | pgbench_branches |            40960

 2017-02-05 13:22:16.770536+01 | 1486297336.77054 | pgbench_accounts |      13667246080
 2017-02-05 13:22:16.770536+01 | 1486297336.77054 | pgbench_tellers  |           450560
 2017-02-05 13:22:16.770536+01 | 1486297336.77054 | pgbench_history  |        826286080
 2017-02-05 13:22:16.770536+01 | 1486297336.77054 | pgbench_branches |            40960

 2017-02-05 13:22:17.856392+01 | 1486297337.85639 | pgbench_accounts |      13667311616
 2017-02-05 13:22:17.856392+01 | 1486297337.85639 | pgbench_tellers  |           450560
 2017-02-05 13:22:17.856392+01 | 1486297337.85639 | pgbench_history  |        828792832
 2017-02-05 13:22:17.856392+01 | 1486297337.85639 | pgbench_branches |            40960

 2017-02-05 13:22:18.939931+01 | 1486297338.93993 | pgbench_accounts |      13667418112
 2017-02-05 13:22:18.939931+01 | 1486297338.93993 | pgbench_tellers  |           450560
 2017-02-05 13:22:18.939931+01 | 1486297338.93993 | pgbench_history  |        830996480
 2017-02-05 13:22:18.939931+01 | 1486297338.93993 | pgbench_branches |            40960

 2017-02-05 13:22:20.028712+01 | 1486297340.02871 | pgbench_accounts |      13667614720
 2017-02-05 13:22:20.028712+01 | 1486297340.02871 | pgbench_tellers  |           450560
 2017-02-05 13:22:20.028712+01 | 1486297340.02871 | pgbench_history  |        835796992
 2017-02-05 13:22:20.028712+01 | 1486297340.02871 | pgbench_branches |            40960

 2017-02-05 13:22:21.118006+01 | 1486297341.11801 | pgbench_accounts |      13667729408
 2017-02-05 13:22:21.118006+01 | 1486297341.11801 | pgbench_tellers  |           450560
 2017-02-05 13:22:21.118006+01 | 1486297341.11801 | pgbench_history  |        837648384
 2017-02-05 13:22:21.118006+01 | 1486297341.11801 | pgbench_branches |            40960

 2017-02-05 13:22:22.20487+01 | 1486297342.20487 | pgbench_accounts |      13667803136
 2017-02-05 13:22:22.20487+01 | 1486297342.20487 | pgbench_tellers  |           450560
 2017-02-05 13:22:22.20487+01 | 1486297342.20487 | pgbench_history  |        841654272
 2017-02-05 13:22:22.20487+01 | 1486297342.20487 | pgbench_branches |            40960

 2017-02-05 13:22:23.289401+01 | 1486297343.2894 | pgbench_accounts |      13667868672
 2017-02-05 13:22:23.289401+01 | 1486297343.2894 | pgbench_tellers  |           450560
 2017-02-05 13:22:23.289401+01 | 1486297343.2894 | pgbench_history  |        848519168
 2017-02-05 13:22:23.289401+01 | 1486297343.2894 | pgbench_branches |            40960

 2017-02-05 13:22:24.383893+01 | 1486297344.38389 | pgbench_accounts |      13667885056
 2017-02-05 13:22:24.383893+01 | 1486297344.38389 | pgbench_tellers  |           450560
 2017-02-05 13:22:24.383893+01 | 1486297344.38389 | pgbench_history  |        848519168
 2017-02-05 13:22:24.383893+01 | 1486297344.38389 | pgbench_branches |            40960

 2017-02-05 13:22:25.455359+01 | 1486297345.45536 | pgbench_accounts |      13667909632
 2017-02-05 13:22:25.455359+01 | 1486297345.45536 | pgbench_tellers  |           450560
 2017-02-05 13:22:25.455359+01 | 1486297345.45536 | pgbench_history  |        851730432
 2017-02-05 13:22:25.455359+01 | 1486297345.45536 | pgbench_branches |            40960

 2017-02-05 13:22:26.535313+01 | 1486297346.53531 | pgbench_accounts |      13667934208
 2017-02-05 13:22:26.535313+01 | 1486297346.53531 | pgbench_tellers  |           450560
 2017-02-05 13:22:26.535313+01 | 1486297346.53531 | pgbench_history  |        853417984
 2017-02-05 13:22:26.535313+01 | 1486297346.53531 | pgbench_branches |            40960

 2017-02-05 13:22:27.610715+01 | 1486297347.61071 | pgbench_accounts |      13668073472
 2017-02-05 13:22:27.610715+01 | 1486297347.61071 | pgbench_tellers  |           450560
 2017-02-05 13:22:27.610715+01 | 1486297347.61071 | pgbench_history  |        855646208
 2017-02-05 13:22:27.610715+01 | 1486297347.61071 | pgbench_branches |            40960

 2017-02-05 13:22:28.704826+01 | 1486297348.70483 | pgbench_accounts |      13668278272
 2017-02-05 13:22:28.704826+01 | 1486297348.70483 | pgbench_tellers  |           450560
 2017-02-05 13:22:28.704826+01 | 1486297348.70483 | pgbench_history  |        860708864
 2017-02-05 13:22:28.704826+01 | 1486297348.70483 | pgbench_branches |            40960

 2017-02-05 13:22:29.790813+01 | 1486297349.79081 | pgbench_accounts |      13669851136
 2017-02-05 13:22:29.790813+01 | 1486297349.79081 | pgbench_tellers  |           450560
 2017-02-05 13:22:29.790813+01 | 1486297349.79081 | pgbench_history  |        861224960
 2017-02-05 13:22:29.790813+01 | 1486297349.79081 | pgbench_branches |            40960

 2017-02-05 13:22:30.868699+01 | 1486297350.8687 | pgbench_accounts |      13670047744
 2017-02-05 13:22:30.868699+01 | 1486297350.8687 | pgbench_tellers  |           450560
 2017-02-05 13:22:30.868699+01 | 1486297350.8687 | pgbench_history  |        866942976
 2017-02-05 13:22:30.868699+01 | 1486297350.8687 | pgbench_branches |            40960

 2017-02-05 13:22:31.943821+01 | 1486297351.94382 | pgbench_accounts |      13670047744
 2017-02-05 13:22:31.943821+01 | 1486297351.94382 | pgbench_tellers  |           450560
 2017-02-05 13:22:31.943821+01 | 1486297351.94382 | pgbench_history  |        868114432
 2017-02-05 13:22:31.943821+01 | 1486297351.94382 | pgbench_branches |            40960

 2017-02-05 13:22:33.027669+01 | 1486297353.02767 | pgbench_accounts |      13670367232
 2017-02-05 13:22:33.027669+01 | 1486297353.02767 | pgbench_tellers  |           450560
 2017-02-05 13:22:33.027669+01 | 1486297353.02767 | pgbench_history  |        871301120
 2017-02-05 13:22:33.027669+01 | 1486297353.02767 | pgbench_branches |            40960

 2017-02-05 13:22:34.113474+01 | 1486297354.11347 | pgbench_accounts |      13670367232
 2017-02-05 13:22:34.113474+01 | 1486297354.11347 | pgbench_tellers  |           450560
 2017-02-05 13:22:34.113474+01 | 1486297354.11347 | pgbench_history  |        875470848
 2017-02-05 13:22:34.113474+01 | 1486297354.11347 | pgbench_branches |            40960

 2017-02-05 13:22:35.209624+01 | 1486297355.20962 | pgbench_accounts |      13670367232
 2017-02-05 13:22:35.209624+01 | 1486297355.20962 | pgbench_tellers  |           450560
 2017-02-05 13:22:35.209624+01 | 1486297355.20962 | pgbench_history  |        877649920
 2017-02-05 13:22:35.209624+01 | 1486297355.20962 | pgbench_branches |            40960

 2017-02-05 13:22:36.29516+01 | 1486297356.29516 | pgbench_accounts |      13670842368
 2017-02-05 13:22:36.29516+01 | 1486297356.29516 | pgbench_tellers  |           450560
 2017-02-05 13:22:36.29516+01 | 1486297356.29516 | pgbench_history  |        880836608
 2017-02-05 13:22:36.29516+01 | 1486297356.29516 | pgbench_branches |            40960

 2017-02-05 13:22:37.383461+01 | 1486297357.38346 | pgbench_accounts |      13670850560
 2017-02-05 13:22:37.383461+01 | 1486297357.38346 | pgbench_tellers  |           450560
 2017-02-05 13:22:37.383461+01 | 1486297357.38346 | pgbench_history  |        884539392
 2017-02-05 13:22:37.383461+01 | 1486297357.38346 | pgbench_branches |            40960

 2017-02-05 13:22:38.464322+01 | 1486297358.46432 | pgbench_accounts |      13670858752
 2017-02-05 13:22:38.464322+01 | 1486297358.46432 | pgbench_tellers  |           450560
 2017-02-05 13:22:38.464322+01 | 1486297358.46432 | pgbench_history  |        891265024
 2017-02-05 13:22:38.464322+01 | 1486297358.46432 | pgbench_branches |            40960

 2017-02-05 13:22:39.550114+01 | 1486297359.55011 | pgbench_accounts |      13670866944
 2017-02-05 13:22:39.550114+01 | 1486297359.55011 | pgbench_tellers  |           450560
 2017-02-05 13:22:39.550114+01 | 1486297359.55011 | pgbench_history  |        891265024
 2017-02-05 13:22:39.550114+01 | 1486297359.55011 | pgbench_branches |            40960

 2017-02-05 13:22:40.637014+01 | 1486297360.63701 | pgbench_accounts |      13670899712
 2017-02-05 13:22:40.637014+01 | 1486297360.63701 | pgbench_tellers  |           450560
 2017-02-05 13:22:40.637014+01 | 1486297360.63701 | pgbench_history  |        895483904
 2017-02-05 13:22:40.637014+01 | 1486297360.63701 | pgbench_branches |            40960

 2017-02-05 13:22:41.730143+01 | 1486297361.73014 | pgbench_accounts |      13670957056
 2017-02-05 13:22:41.730143+01 | 1486297361.73014 | pgbench_tellers  |           450560
 2017-02-05 13:22:41.730143+01 | 1486297361.73014 | pgbench_history  |        897826816
 2017-02-05 13:22:41.730143+01 | 1486297361.73014 | pgbench_branches |            40960

 2017-02-05 13:22:42.825773+01 | 1486297362.82577 | pgbench_accounts |      13670981632
 2017-02-05 13:22:42.825773+01 | 1486297362.82577 | pgbench_tellers  |           450560
 2017-02-05 13:22:42.825773+01 | 1486297362.82577 | pgbench_history  |        900554752
 2017-02-05 13:22:42.825773+01 | 1486297362.82577 | pgbench_branches |            40960

 2017-02-05 13:22:43.909904+01 | 1486297363.9099 | pgbench_accounts |      13671055360
 2017-02-05 13:22:43.909904+01 | 1486297363.9099 | pgbench_tellers  |           450560
 2017-02-05 13:22:43.909904+01 | 1486297363.9099 | pgbench_history  |        904290304
 2017-02-05 13:22:43.909904+01 | 1486297363.9099 | pgbench_branches |            40960

 2017-02-05 13:22:44.983301+01 | 1486297364.9833 | pgbench_accounts |      13671161856
 2017-02-05 13:22:44.983301+01 | 1486297364.9833 | pgbench_tellers  |           450560
 2017-02-05 13:22:44.983301+01 | 1486297364.9833 | pgbench_history  |        907476992
 2017-02-05 13:22:44.983301+01 | 1486297364.9833 | pgbench_branches |            40960

 2017-02-05 13:22:46.067347+01 | 1486297366.06735 | pgbench_accounts |      13671325696
 2017-02-05 13:22:46.067347+01 | 1486297366.06735 | pgbench_tellers  |           450560
 2017-02-05 13:22:46.067347+01 | 1486297366.06735 | pgbench_history  |        911482880
 2017-02-05 13:22:46.067347+01 | 1486297366.06735 | pgbench_branches |            40960

 2017-02-05 13:22:47.15106+01 | 1486297367.15106 | pgbench_accounts |      13671464960
 2017-02-05 13:22:47.15106+01 | 1486297367.15106 | pgbench_tellers  |           450560
 2017-02-05 13:22:47.15106+01 | 1486297367.15106 | pgbench_history  |        913334272
 2017-02-05 13:22:47.15106+01 | 1486297367.15106 | pgbench_branches |            40960

 2017-02-05 13:22:48.235942+01 | 1486297368.23594 | pgbench_accounts |      13671497728
 2017-02-05 13:22:48.235942+01 | 1486297368.23594 | pgbench_tellers  |           450560
 2017-02-05 13:22:48.235942+01 | 1486297368.23594 | pgbench_history  |        916684800
 2017-02-05 13:22:48.235942+01 | 1486297368.23594 | pgbench_branches |            40960

 2017-02-05 13:22:49.323575+01 | 1486297369.32358 | pgbench_accounts |      13671505920
 2017-02-05 13:22:49.323575+01 | 1486297369.32358 | pgbench_tellers  |           450560
 2017-02-05 13:22:49.323575+01 | 1486297369.32358 | pgbench_history  |        918863872
 2017-02-05 13:22:49.323575+01 | 1486297369.32358 | pgbench_branches |            40960

 2017-02-05 13:22:50.410003+01 | 1486297370.41 | pgbench_accounts |      13671555072
 2017-02-05 13:22:50.410003+01 | 1486297370.41 | pgbench_tellers  |           450560
 2017-02-05 13:22:50.410003+01 | 1486297370.41 | pgbench_history  |        922427392
 2017-02-05 13:22:50.410003+01 | 1486297370.41 | pgbench_branches |            40960

 2017-02-05 13:22:51.491977+01 | 1486297371.49198 | pgbench_accounts |      13671596032
 2017-02-05 13:22:51.491977+01 | 1486297371.49198 | pgbench_tellers  |           450560
 2017-02-05 13:22:51.491977+01 | 1486297371.49198 | pgbench_history  |        925147136
 2017-02-05 13:22:51.491977+01 | 1486297371.49198 | pgbench_branches |            40960

 2017-02-05 13:22:52.582875+01 | 1486297372.58288 | pgbench_accounts |      13671645184
 2017-02-05 13:22:52.582875+01 | 1486297372.58288 | pgbench_tellers  |           450560
 2017-02-05 13:22:52.582875+01 | 1486297372.58288 | pgbench_history  |        928169984
 2017-02-05 13:22:52.582875+01 | 1486297372.58288 | pgbench_branches |            40960

 2017-02-05 13:22:53.671781+01 | 1486297373.67178 | pgbench_accounts |      13671702528
 2017-02-05 13:22:53.671781+01 | 1486297373.67178 | pgbench_tellers  |           450560
 2017-02-05 13:22:53.671781+01 | 1486297373.67178 | pgbench_history  |        932241408
 2017-02-05 13:22:53.671781+01 | 1486297373.67178 | pgbench_branches |            40960

 2017-02-05 13:22:54.755894+01 | 1486297374.75589 | pgbench_accounts |      13671768064
 2017-02-05 13:22:54.755894+01 | 1486297374.75589 | pgbench_tellers  |           450560
 2017-02-05 13:22:54.755894+01 | 1486297374.75589 | pgbench_history  |        935944192
 2017-02-05 13:22:54.755894+01 | 1486297374.75589 | pgbench_branches |            40960

 2017-02-05 13:22:55.844246+01 | 1486297375.84425 | pgbench_accounts |      13671833600
 2017-02-05 13:22:55.844246+01 | 1486297375.84425 | pgbench_tellers  |           450560
 2017-02-05 13:22:55.844246+01 | 1486297375.84425 | pgbench_history  |        938639360
 2017-02-05 13:22:55.844246+01 | 1486297375.84425 | pgbench_branches |            40960

 2017-02-05 13:22:56.93032+01 | 1486297376.93032 | pgbench_accounts |      13671964672
 2017-02-05 13:22:56.93032+01 | 1486297376.93032 | pgbench_tellers  |           450560
 2017-02-05 13:22:56.93032+01 | 1486297376.93032 | pgbench_history  |        942153728
 2017-02-05 13:22:56.93032+01 | 1486297376.93032 | pgbench_branches |            40960

 2017-02-05 13:22:58.010572+01 | 1486297378.01057 | pgbench_accounts |      13672218624
 2017-02-05 13:22:58.010572+01 | 1486297378.01057 | pgbench_tellers  |           450560
 2017-02-05 13:22:58.010572+01 | 1486297378.01057 | pgbench_history  |        945127424
 2017-02-05 13:22:58.010572+01 | 1486297378.01057 | pgbench_branches |            40960

 2017-02-05 13:22:59.102437+01 | 1486297379.10244 | pgbench_accounts |      13672218624
 2017-02-05 13:22:59.102437+01 | 1486297379.10244 | pgbench_tellers  |           450560
 2017-02-05 13:22:59.102437+01 | 1486297379.10244 | pgbench_history  |        948830208
 2017-02-05 13:22:59.102437+01 | 1486297379.10244 | pgbench_branches |            40960

