 2017-02-05 13:17:59.278098+01 | 1486297079.2781 | 12/61677D18              |           78943583512

 2017-02-05 13:18:00.350015+01 | 1486297080.35001 | 12/709DBC38              |           79198796856

 2017-02-05 13:18:01.431783+01 | 1486297081.43178 | 12/8364C000              |           79513829376

 2017-02-05 13:18:02.514326+01 | 1486297082.51433 | 12/960DD4B8              |           79826900152

 2017-02-05 13:18:03.595904+01 | 1486297083.5959 | 12/A86BD8C8              |           80135051464

 2017-02-05 13:18:04.692015+01 | 1486297084.69201 | 12/BA1D8EC8              |           80431910600

 2017-02-05 13:18:05.784164+01 | 1486297085.78416 | 12/C9E1C268              |           80696427112

 2017-02-05 13:18:06.874897+01 | 1486297086.8749 | 12/D98F2250              |           80959447632

 2017-02-05 13:18:07.953157+01 | 1486297087.95316 | 12/E8128368              |           81202938728

 2017-02-05 13:18:09.037171+01 | 1486297089.03717 | 12/F48795B8              |           81411937720

 2017-02-05 13:18:10.123622+01 | 1486297090.12362 | 13/1C3D500               |           81633989888

 2017-02-05 13:18:11.205838+01 | 1486297091.20584 | 13/E6B7AC8               |           81846303432

 2017-02-05 13:18:12.28933+01 | 1486297092.28933 | 13/19D4E6D0              |           82037761744

 2017-02-05 13:18:13.37058+01 | 1486297093.37058 | 13/24E65820              |           82223454240

 2017-02-05 13:18:14.455287+01 | 1486297094.45529 | 13/2F636758              |           82399422296

 2017-02-05 13:18:15.541587+01 | 1486297095.54159 | 13/39D3C0A0              |           82574557344

 2017-02-05 13:18:16.628988+01 | 1486297096.62899 | 13/43A2E750              |           82739128144

 2017-02-05 13:18:17.71606+01 | 1486297097.71606 | 13/4CC08000              |           82892062720

 2017-02-05 13:18:18.807073+01 | 1486297098.80707 | 13/54841300              |           83022320384

 2017-02-05 13:18:19.890614+01 | 1486297099.89061 | 13/5D60D0F0              |           83171004656

 2017-02-05 13:18:20.97635+01 | 1486297100.97635 | 13/65BDE1B0              |           83311321520

 2017-02-05 13:18:22.060864+01 | 1486297102.06086 | 13/6DABDBA8              |           83444358056

 2017-02-05 13:18:23.149188+01 | 1486297103.14919 | 13/75B15138              |           83578933560

 2017-02-05 13:18:24.231931+01 | 1486297104.23193 | 13/7D40D610              |           83705779728

 2017-02-05 13:18:25.316707+01 | 1486297105.31671 | 13/847C3748              |           83827111752

 2017-02-05 13:18:26.410233+01 | 1486297106.41023 | 13/8BAD61B8              |           83947774392

 2017-02-05 13:18:27.502839+01 | 1486297107.50284 | 13/922E2EC8              |           84056878792

 2017-02-05 13:18:28.590109+01 | 1486297108.59011 | 13/99195A80              |           84172954240

 2017-02-05 13:18:29.674968+01 | 1486297109.67497 | 13/9EF4F358              |           84271231832

 2017-02-05 13:18:30.767302+01 | 1486297110.7673 | 13/A44125E8              |           84360111592

 2017-02-05 13:18:31.851143+01 | 1486297111.85114 | 13/A974FCB0              |           84447394992

 2017-02-05 13:18:32.933444+01 | 1486297112.93344 | 13/AEB8ACE8              |           84535717096

 2017-02-05 13:18:34.014173+01 | 1486297114.01417 | 13/B3B50F88              |           84619366280

 2017-02-05 13:18:35.103063+01 | 1486297115.10306 | 13/B8951338              |           84701156152

 2017-02-05 13:18:36.184622+01 | 1486297116.18462 | 13/BD64FD18              |           84781890840

 2017-02-05 13:18:37.26368+01 | 1486297117.26368 | 13/C131E9C0              |           84845652416

 2017-02-05 13:18:38.344859+01 | 1486297118.34486 | 13/C65BB040              |           84932276288

 2017-02-05 13:18:39.432322+01 | 1486297119.43232 | 13/CB445E90              |           85014634128

 2017-02-05 13:18:40.523129+01 | 1486297120.52313 | 13/CFE56448              |           85092295752

 2017-02-05 13:18:41.604179+01 | 1486297121.60418 | 13/D42A43D0              |           85163918288

 2017-02-05 13:18:42.69349+01 | 1486297122.69349 | 13/D8E3EEB0              |           85243195056

 2017-02-05 13:18:43.778782+01 | 1486297123.77878 | 13/DDA5BFC8              |           85323005896

 2017-02-05 13:18:44.863399+01 | 1486297124.8634 | 13/E270C870              |           85403420784

 2017-02-05 13:18:45.947772+01 | 1486297125.94777 | 13/E6919338              |           85472678712

 2017-02-05 13:18:47.046511+01 | 1486297127.04651 | 13/EB3C4080              |           85550973056

 2017-02-05 13:18:48.131795+01 | 1486297128.13179 | 13/EFA52390              |           85624955792

 2017-02-05 13:18:49.222191+01 | 1486297129.22219 | 13/F3E6B630              |           85696362032

 2017-02-05 13:18:50.307875+01 | 1486297130.30787 | 13/F7FDC848              |           85764982856

 2017-02-05 13:18:51.388112+01 | 1486297131.38811 | 13/FBAF5208              |           85826949640

 2017-02-05 13:18:52.475645+01 | 1486297132.47565 | 13/FF57E970              |           85888330096

 2017-02-05 13:18:53.560718+01 | 1486297133.56072 | 14/32E2F98               |           85952704408

 2017-02-05 13:18:54.646038+01 | 1486297134.64604 | 14/6857860               |           86008756320

 2017-02-05 13:18:55.731719+01 | 1486297135.73172 | 14/A92CE88               |           86076739208

 2017-02-05 13:18:56.815302+01 | 1486297136.8153 | 14/E89D948               |           86143261000

 2017-02-05 13:18:57.90726+01 | 1486297137.90726 | 14/1329F740              |           86220863296

 2017-02-05 13:18:58.996754+01 | 1486297138.99675 | 14/17AFA6E0              |           86296733408

 2017-02-05 13:19:00.081757+01 | 1486297140.08176 | 14/1C537578              |           86374577528

 2017-02-05 13:19:01.172935+01 | 1486297141.17294 | 14/20DF2228              |           86450840104

 2017-02-05 13:19:02.267492+01 | 1486297142.26749 | 14/256EB0B0              |           86527357104

 2017-02-05 13:19:03.347605+01 | 1486297143.3476 | 14/29841F90              |           86595870608

 2017-02-05 13:19:04.435521+01 | 1486297144.43552 | 14/2DC61E48              |           86667304520

 2017-02-05 13:19:05.531383+01 | 1486297145.53138 | 14/320F74B8              |           86739219640

 2017-02-05 13:19:06.618185+01 | 1486297146.61819 | 14/36760748              |           86813050696

 2017-02-05 13:19:07.703536+01 | 1486297147.70354 | 14/3AC019B8              |           86885013944

 2017-02-05 13:19:08.786519+01 | 1486297148.78652 | 14/3EDF8518              |           86954181912

 2017-02-05 13:19:09.876003+01 | 1486297149.876 | 14/42F05638              |           87022392888

 2017-02-05 13:19:10.957436+01 | 1486297150.95744 | 14/4707B4C8              |           87091033288

 2017-02-05 13:19:12.038323+01 | 1486297152.03832 | 14/4B0C8168              |           87158456680

 2017-02-05 13:19:13.134037+01 | 1486297153.13404 | 14/4EBED200              |           87220474368

 2017-02-05 13:19:14.219504+01 | 1486297154.2195 | 14/52F31288              |           87291007624

 2017-02-05 13:19:15.30519+01 | 1486297155.30519 | 14/5706A610              |           87359399440

 2017-02-05 13:19:16.399661+01 | 1486297156.39966 | 14/5AFCFEC8              |           87425875656

 2017-02-05 13:19:17.477463+01 | 1486297157.47746 | 14/5ED51140              |           87490367808

 2017-02-05 13:19:18.562523+01 | 1486297158.56252 | 14/62882D70              |           87552437616

 2017-02-05 13:19:19.646353+01 | 1486297159.64635 | 14/66322158              |           87613907288

 2017-02-05 13:19:20.729955+01 | 1486297160.72995 | 14/69D5E2A8              |           87674970792

 2017-02-05 13:19:21.810316+01 | 1486297161.81032 | 14/6D54A330              |           87733609264

 2017-02-05 13:19:22.896686+01 | 1486297162.89669 | 14/714C3330              |           87800165168

 2017-02-05 13:19:23.986679+01 | 1486297163.98668 | 14/752A3988              |           87865047432

 2017-02-05 13:19:25.079803+01 | 1486297165.0798 | 14/7922F3E8              |           87931679720

 2017-02-05 13:19:26.165665+01 | 1486297166.16566 | 14/7D1D94E8              |           87998436584

 2017-02-05 13:19:27.254708+01 | 1486297167.25471 | 14/8129B498              |           88066339992

 2017-02-05 13:19:28.344723+01 | 1486297168.34472 | 14/86B29B60              |           88159198048

 2017-02-05 13:19:29.443364+01 | 1486297169.44336 | 14/89E9DCC0              |           88213150912

 2017-02-05 13:19:30.533193+01 | 1486297170.53319 | 14/8CDB6580              |           88262534528

 2017-02-05 13:19:31.616775+01 | 1486297171.61678 | 14/900CD4D8              |           88316105944

 2017-02-05 13:19:32.699504+01 | 1486297172.6995 | 14/933A0110              |           88369398032

 2017-02-05 13:19:33.789244+01 | 1486297173.78924 | 14/9666F488              |           88422675592

 2017-02-05 13:19:34.874246+01 | 1486297174.87425 | 14/9995B620              |           88476071456

 2017-02-05 13:19:35.964913+01 | 1486297175.96491 | 14/9C73A938              |           88524171576

 2017-02-05 13:19:37.046712+01 | 1486297177.04671 | 14/9F78A2A0              |           88574829216

 2017-02-05 13:19:38.131064+01 | 1486297178.13106 | 14/A299F7A0              |           88627345312

 2017-02-05 13:19:39.214035+01 | 1486297179.21404 | 14/A590C4C0              |           88677074112

 2017-02-05 13:19:40.303435+01 | 1486297180.30344 | 14/A89499C0              |           88727656896

 2017-02-05 13:19:41.386042+01 | 1486297181.38604 | 14/AB044288              |           88768529032

 2017-02-05 13:19:42.466978+01 | 1486297182.46698 | 14/ADEF3FE8              |           88817483752

 2017-02-05 13:19:43.545922+01 | 1486297183.54592 | 14/B0813DF0              |           88860605936

 2017-02-05 13:19:44.626628+01 | 1486297184.62663 | 14/B2F76100              |           88901902592

 2017-02-05 13:19:45.712565+01 | 1486297185.71256 | 14/B5AE6910              |           88947452176

 2017-02-05 13:19:46.801511+01 | 1486297186.80151 | 14/B8730448              |           88993891400

 2017-02-05 13:19:47.886888+01 | 1486297187.88689 | 14/BB61B820              |           89043089440

 2017-02-05 13:19:48.973316+01 | 1486297188.97332 | 14/BE42DCB0              |           89091398832

 2017-02-05 13:19:50.075519+01 | 1486297190.07552 | 14/C119EFE0              |           89139048416

 2017-02-05 13:19:51.161283+01 | 1486297191.16128 | 14/C402E380              |           89187869568

 2017-02-05 13:19:52.24839+01 | 1486297192.24839 | 14/C6786F40              |           89229127488

 2017-02-05 13:19:53.335342+01 | 1486297193.33534 | 14/C93C16B0              |           89275504304

 2017-02-05 13:19:54.423407+01 | 1486297194.42341 | 14/CC0FA6C0              |           89322923712

 2017-02-05 13:19:55.507278+01 | 1486297195.50728 | 14/CECD0498              |           89368888472

 2017-02-05 13:19:56.586733+01 | 1486297196.58673 | 14/D1702DC8              |           89413135816

 2017-02-05 13:19:57.672218+01 | 1486297197.67222 | 14/D401B520              |           89456227616

 2017-02-05 13:19:58.764271+01 | 1486297198.76427 | 14/D6226E90              |           89491926672

 2017-02-05 13:19:59.861891+01 | 1486297199.86189 | 14/D89C7260              |           89533477472

 2017-02-05 13:20:00.947617+01 | 1486297200.94762 | 14/DB2349B0              |           89575868848

 2017-02-05 13:20:02.03173+01 | 1486297202.03173 | 14/DDA2DC50              |           89617783888

 2017-02-05 13:20:03.112089+01 | 1486297203.11209 | 14/E03FDCC0              |           89661627584

 2017-02-05 13:20:04.195264+01 | 1486297204.19526 | 14/E2CE9708              |           89704535816

 2017-02-05 13:20:05.285873+01 | 1486297205.28587 | 14/E586E508              |           89750170816

 2017-02-05 13:20:06.379436+01 | 1486297206.37944 | 14/E8336A80              |           89795029632

 2017-02-05 13:20:07.464202+01 | 1486297207.4642 | 14/EA96A1F0              |           89835086320

 2017-02-05 13:20:08.545041+01 | 1486297208.54504 | 14/ED3DB520              |           89879590176

 2017-02-05 13:20:09.627312+01 | 1486297209.62731 | 14/EFDD9BE0              |           89923623904

 2017-02-05 13:20:10.713296+01 | 1486297210.7133 | 14/F275CF68              |           89967153000

 2017-02-05 13:20:11.802603+01 | 1486297211.8026 | 14/F519FF20              |           90011467552

 2017-02-05 13:20:12.886533+01 | 1486297212.88653 | 14/F7B19D28              |           90054958376

 2017-02-05 13:20:13.94676+01 | 1486297213.94676 | 14/FA2A4848              |           90096420936

 2017-02-05 13:20:15.033699+01 | 1486297215.0337 | 14/FCD3EBA8              |           90141092776

 2017-02-05 13:20:16.128886+01 | 1486297216.12889 | 14/FF8EBF88              |           90186891144

 2017-02-05 13:20:17.220558+01 | 1486297217.22056 | 15/245D450               |           90232443984

 2017-02-05 13:20:18.310878+01 | 1486297218.31088 | 15/4E6C100               |           90276544768

 2017-02-05 13:20:19.397777+01 | 1486297219.39778 | 15/74EB720               |           90316912416

 2017-02-05 13:20:20.486621+01 | 1486297220.48662 | 15/9D9CEC0               |           90359582400

 2017-02-05 13:20:21.57185+01 | 1486297221.57185 | 15/C6F1DE0               |           90402921952

 2017-02-05 13:20:22.660731+01 | 1486297222.66073 | 15/F0AB968               |           90446674280

 2017-02-05 13:20:23.742253+01 | 1486297223.74225 | 15/1182EFC8              |           90488106952

 2017-02-05 13:20:24.83806+01 | 1486297224.83806 | 15/13D2F7C0              |           90526906304

 2017-02-05 13:20:25.939483+01 | 1486297225.93948 | 15/1665AEC0              |           90570075840

 2017-02-05 13:20:27.025407+01 | 1486297227.02541 | 15/18D83F68              |           90611138408

 2017-02-05 13:20:28.104825+01 | 1486297228.10483 | 15/1B7C1588              |           90655430024

 2017-02-05 13:20:29.193321+01 | 1486297229.19332 | 15/1E896188              |           90706633096

 2017-02-05 13:20:30.281047+01 | 1486297230.28105 | 15/211BF538              |           90749793592

 2017-02-05 13:20:31.379024+01 | 1486297231.37902 | 15/236FC3D8              |           90788840408

 2017-02-05 13:20:32.466645+01 | 1486297232.46665 | 15/25F8C5F8              |           90831373816

 2017-02-05 13:20:33.547179+01 | 1486297233.54718 | 15/288D3360              |           90874655584

 2017-02-05 13:20:34.629478+01 | 1486297234.62948 | 15/2B1CBEA0              |           90917617312

 2017-02-05 13:20:35.721051+01 | 1486297235.72105 | 15/2D8243F0              |           90957825008

 2017-02-05 13:20:36.812133+01 | 1486297236.81213 | 15/2FDBDDF8              |           90997251576

 2017-02-05 13:20:37.902324+01 | 1486297237.90232 | 15/32560478              |           91038811256

 2017-02-05 13:20:38.986873+01 | 1486297238.98687 | 15/34DCE818              |           91081205784

 2017-02-05 13:20:40.078705+01 | 1486297240.07871 | 15/3761F790              |           91123480464

 2017-02-05 13:20:41.166919+01 | 1486297241.16692 | 15/39C795E8              |           91163694568

 2017-02-05 13:20:42.253401+01 | 1486297242.2534 | 15/3C5AED50              |           91206914576

 2017-02-05 13:20:43.341396+01 | 1486297243.3414 | 15/3EA586F0              |           91245348592

 2017-02-05 13:20:44.424911+01 | 1486297244.42491 | 15/411EE8A0              |           91286857888

 2017-02-05 13:20:45.515445+01 | 1486297245.51544 | 15/43A635D8              |           91329279448

 2017-02-05 13:20:46.593387+01 | 1486297246.59339 | 15/46127A28              |           91369929256

 2017-02-05 13:20:47.675026+01 | 1486297247.67503 | 15/486C7460              |           91409380448

 2017-02-05 13:20:48.76065+01 | 1486297248.76065 | 15/4AC35650              |           91448628816

 2017-02-05 13:20:49.861653+01 | 1486297249.86165 | 15/4D308F08              |           91489341192

 2017-02-05 13:20:50.949227+01 | 1486297250.94923 | 15/4F8452C0              |           91528385216

 2017-02-05 13:20:52.034944+01 | 1486297252.03494 | 15/51F6FC40              |           91569454144

 2017-02-05 13:20:53.125926+01 | 1486297253.12593 | 15/54627C48              |           91610053704

 2017-02-05 13:20:54.202798+01 | 1486297254.2028 | 15/56C1F668              |           91649865320

 2017-02-05 13:20:55.288639+01 | 1486297255.28864 | 15/58F40AE0              |           91686701792

 2017-02-05 13:20:56.371968+01 | 1486297256.37197 | 15/5B5FDDD8              |           91727322584

 2017-02-05 13:20:57.459205+01 | 1486297257.4592 | 15/5DD0E668              |           91768284776

 2017-02-05 13:20:58.543786+01 | 1486297258.54379 | 15/60373B80              |           91808545664

 2017-02-05 13:20:59.625875+01 | 1486297259.62587 | 15/62807CD0              |           91846900944

 2017-02-05 13:21:00.708351+01 | 1486297260.70835 | 15/64E59258              |           91887080024

 2017-02-05 13:21:01.786607+01 | 1486297261.78661 | 15/6732B0D0              |           91925688528

 2017-02-05 13:21:02.8832+01 | 1486297262.8832 | 15/698B4970              |           91965049200

 2017-02-05 13:21:03.968114+01 | 1486297263.96811 | 15/6BEA7760              |           92004841312

 2017-02-05 13:21:05.05098+01 | 1486297265.05098 | 15/6E3BCC10              |           92043725840

 2017-02-05 13:21:06.134749+01 | 1486297266.13475 | 15/7093C5B8              |           92083045816

 2017-02-05 13:21:07.21871+01 | 1486297267.21871 | 15/72FBFE10              |           92123430416

 2017-02-05 13:21:08.300086+01 | 1486297268.30009 | 15/752441C0              |           92159623616

 2017-02-05 13:21:09.392301+01 | 1486297269.3923 | 15/7781A9C8              |           92199299528

 2017-02-05 13:21:10.481272+01 | 1486297270.48127 | 15/79E8E838              |           92239620152

 2017-02-05 13:21:11.566915+01 | 1486297271.56692 | 15/7C3E4818              |           92278769688

 2017-02-05 13:21:12.652247+01 | 1486297272.65225 | 15/7E771BA8              |           92316048296

 2017-02-05 13:21:13.742128+01 | 1486297273.74213 | 15/80D17430              |           92355523632

 2017-02-05 13:21:14.835671+01 | 1486297274.83567 | 15/83221EE8              |           92394364648

 2017-02-05 13:21:15.922118+01 | 1486297275.92212 | 15/855C5FE0              |           92431736800

 2017-02-05 13:21:17.016415+01 | 1486297277.01642 | 15/87B87C60              |           92471327840

 2017-02-05 13:21:18.107038+01 | 1486297278.10704 | 15/8A0E5060              |           92510507104

 2017-02-05 13:21:19.193924+01 | 1486297279.19392 | 15/8C32E920              |           92546459936

 2017-02-05 13:21:20.282098+01 | 1486297280.2821 | 15/8E867AD0              |           92585491152

 2017-02-05 13:21:21.368527+01 | 1486297281.36853 | 15/90D6AFE0              |           92624302048

 2017-02-05 13:21:22.454304+01 | 1486297282.4543 | 15/931B0A08              |           92662336008

 2017-02-05 13:21:23.537458+01 | 1486297283.53746 | 15/95279D58              |           92696714584

 2017-02-05 13:21:24.612635+01 | 1486297284.61263 | 15/973E2770              |           92731746160

 2017-02-05 13:21:25.693583+01 | 1486297285.69358 | 15/990364E8              |           92761449704

 2017-02-05 13:21:26.777326+01 | 1486297286.77733 | 15/9B24C0A8              |           92797190312

 2017-02-05 13:21:27.852575+01 | 1486297287.85258 | 15/9D3A3D10              |           92832152848

 2017-02-05 13:21:28.938358+01 | 1486297288.93836 | 15/9FBB2838              |           92874156088

 2017-02-05 13:21:30.021397+01 | 1486297290.0214 | 15/A221FDD0              |           92914449872

 2017-02-05 13:21:31.102547+01 | 1486297291.10255 | 15/A4678390              |           92952560528

 2017-02-05 13:21:32.184692+01 | 1486297292.18469 | 15/A6846688              |           92988008072

 2017-02-05 13:21:33.272311+01 | 1486297293.27231 | 15/A89ACAE0              |           93023029984

 2017-02-05 13:21:34.356764+01 | 1486297294.35676 | 15/AAB09BF8              |           93058014200

 2017-02-05 13:21:35.435088+01 | 1486297295.43509 | 15/ACD4B540              |           93093934400

 2017-02-05 13:21:36.520904+01 | 1486297296.5209 | 15/AEC46220              |           93126418976

 2017-02-05 13:21:37.598084+01 | 1486297297.59808 | 15/B0DF8338              |           93161751352

 2017-02-05 13:21:38.675346+01 | 1486297298.67535 | 15/B2DBDC10              |           93195066384

 2017-02-05 13:21:39.76144+01 | 1486297299.76144 | 15/B4FB63A8              |           93230687144

 2017-02-05 13:21:40.84157+01 | 1486297300.84157 | 15/B72D91B0              |           93267530160

 2017-02-05 13:21:41.924724+01 | 1486297301.92472 | 15/B9635D90              |           93304610192

 2017-02-05 13:21:43.015487+01 | 1486297303.01549 | 15/BB84BD50              |           93340351824

 2017-02-05 13:21:44.111966+01 | 1486297304.11197 | 15/BDB8B2B8              |           93377311416

 2017-02-05 13:21:45.172481+01 | 1486297305.17248 | 15/BFAA2400              |           93409911808

 2017-02-05 13:21:46.256681+01 | 1486297306.25668 | 15/C1DE42D0              |           93446882000

 2017-02-05 13:21:47.33811+01 | 1486297307.33811 | 15/C3FDAB70              |           93482494832

 2017-02-05 13:21:48.418961+01 | 1486297308.41896 | 15/C5F446E8              |           93515433704

 2017-02-05 13:21:49.499673+01 | 1486297309.49967 | 15/C7FD2400              |           93549569024

 2017-02-05 13:21:50.58368+01 | 1486297310.58368 | 15/C9FFFEA8              |           93583310504

 2017-02-05 13:21:51.65464+01 | 1486297311.65464 | 15/CBFFDF00              |           93616856832

 2017-02-05 13:21:52.728863+01 | 1486297312.72886 | 15/CDFFD4A8              |           93650408616

 2017-02-05 13:21:53.813396+01 | 1486297313.8134 | 15/D0060910              |           93684369680

 2017-02-05 13:21:54.883964+01 | 1486297314.88396 | 15/D206A430              |           93717963824

 2017-02-05 13:21:55.98206+01 | 1486297315.98206 | 15/D40C0E90              |           93751873168

 2017-02-05 13:21:57.078432+01 | 1486297317.07843 | 15/D5FFFF38              |           93784637240

 2017-02-05 13:21:58.189044+01 | 1486297318.18904 | 15/D81B8398              |           93819995032

 2017-02-05 13:21:59.286768+01 | 1486297319.28677 | 15/DA253C98              |           93854186648

 2017-02-05 13:22:00.379095+01 | 1486297320.3791 | 15/DC2EB890              |           93888362640

 2017-02-05 13:22:01.466419+01 | 1486297321.46642 | 15/DE195C08              |           93920517128

 2017-02-05 13:22:02.559038+01 | 1486297322.55904 | 15/E0244730              |           93954787120

 2017-02-05 13:22:03.641324+01 | 1486297323.64132 | 15/E207BD48              |           93986471240

 2017-02-05 13:22:04.731504+01 | 1486297324.7315 | 15/E4175F58              |           94021050200

 2017-02-05 13:22:05.822313+01 | 1486297325.82231 | 15/E6246DF0              |           94055460336

 2017-02-05 13:22:06.908954+01 | 1486297326.90895 | 15/E81B30F8              |           94088409336

 2017-02-05 13:22:08.004169+01 | 1486297328.00417 | 15/EA1751A0              |           94121709984

 2017-02-05 13:22:09.090505+01 | 1486297329.0905 | 15/EC04BAE0              |           94154046176

 2017-02-05 13:22:10.195089+01 | 1486297330.19509 | 15/EE147980              |           94188632448

 2017-02-05 13:22:11.290275+01 | 1486297331.29028 | 15/F027C250              |           94223450704

 2017-02-05 13:22:12.376672+01 | 1486297332.37667 | 15/F24A2B38              |           94259260216

 2017-02-05 13:22:13.459279+01 | 1486297333.45928 | 15/F453A460              |           94293435488

 2017-02-05 13:22:14.548934+01 | 1486297334.54893 | 15/F6383820              |           94325192736

 2017-02-05 13:22:15.640042+01 | 1486297335.64004 | 15/F8418D38              |           94359358776

 2017-02-05 13:22:16.722421+01 | 1486297336.72242 | 15/FA49F8B8              |           94393465016

 2017-02-05 13:22:17.80226+01 | 1486297337.80226 | 15/FC51CCF0              |           94427532528

 2017-02-05 13:22:18.891591+01 | 1486297338.89159 | 15/FE50D4F8              |           94461023480

 2017-02-05 13:22:19.975238+01 | 1486297339.97524 | 16/273E20                |           94491852320

 2017-02-05 13:22:21.063632+01 | 1486297341.06363 | 16/2349D70               |           94526283120

 2017-02-05 13:22:22.153113+01 | 1486297342.15311 | 16/44E53F0               |           94561522672

 2017-02-05 13:22:23.239042+01 | 1486297343.23904 | 16/65A4790               |           94595860368

 2017-02-05 13:22:24.332331+01 | 1486297344.33233 | 16/83B8310               |           94627398416

 2017-02-05 13:22:25.416+01 | 1486297345.416 | 16/9FF8C60               |           94657023072

 2017-02-05 13:22:26.485526+01 | 1486297346.48553 | 16/B6E9598               |           94681077144

 2017-02-05 13:22:27.568453+01 | 1486297347.56845 | 16/CFFE838               |           94707378232

 2017-02-05 13:22:28.655676+01 | 1486297348.65568 | 16/EA20668               |           94734780008

 2017-02-05 13:22:29.743709+01 | 1486297349.74371 | 16/10817D60              |           94766202208

 2017-02-05 13:22:30.82083+01 | 1486297350.82083 | 16/128471C8              |           94799950280

 2017-02-05 13:22:31.896221+01 | 1486297351.89622 | 16/1454DD80              |           94830386560

 2017-02-05 13:22:32.976057+01 | 1486297352.97606 | 16/164CF450              |           94863422544

 2017-02-05 13:22:34.063064+01 | 1486297354.06306 | 16/1852A810              |           94897350672

 2017-02-05 13:22:35.153899+01 | 1486297355.1539 | 16/1A38AF60              |           94929203040

 2017-02-05 13:22:36.242234+01 | 1486297356.24223 | 16/1C37CA48              |           94962698824

 2017-02-05 13:22:37.333959+01 | 1486297357.33396 | 16/1E426C78              |           94996950136

 2017-02-05 13:22:38.417727+01 | 1486297358.41773 | 16/204BA5B8              |           95031109048

 2017-02-05 13:22:39.499192+01 | 1486297359.49919 | 16/222CE3A8              |           95062647720

 2017-02-05 13:22:40.585957+01 | 1486297360.58596 | 16/2431EFD8              |           95096532952

 2017-02-05 13:22:41.671629+01 | 1486297361.67163 | 16/261A8830              |           95128553520

 2017-02-05 13:22:42.770876+01 | 1486297362.77088 | 16/28044158              |           95160648024

 2017-02-05 13:22:43.858964+01 | 1486297363.85896 | 16/2A0F3B68              |           95194921832

 2017-02-05 13:22:44.943722+01 | 1486297364.94372 | 16/2BFC3268              |           95227228776

 2017-02-05 13:22:46.015368+01 | 1486297366.01537 | 16/2DB3D850              |           95256041552

 2017-02-05 13:22:47.104392+01 | 1486297367.10439 | 16/2F8D7178              |           95287079288

 2017-02-05 13:22:48.184371+01 | 1486297368.18437 | 16/3158EAA0              |           95317191328

 2017-02-05 13:22:49.269704+01 | 1486297369.2697 | 16/32FFE9D0              |           95344912848

 2017-02-05 13:22:50.359993+01 | 1486297370.35999 | 16/34E27CD0              |           95376538832

 2017-02-05 13:22:51.445068+01 | 1486297371.44507 | 16/36C2F808              |           95408027656

 2017-02-05 13:22:52.533787+01 | 1486297372.53379 | 16/38825A50              |           95437347408

 2017-02-05 13:22:53.617254+01 | 1486297373.61725 | 16/3A7C0710              |           95470487312

 2017-02-05 13:22:54.709689+01 | 1486297374.70969 | 16/3C799AF8              |           95503883000

 2017-02-05 13:22:55.792103+01 | 1486297375.7921 | 16/3E5A5E80              |           95535390336

 2017-02-05 13:22:56.878422+01 | 1486297376.87842 | 16/4055C4B8              |           95568643256

 2017-02-05 13:22:57.961398+01 | 1486297377.9614 | 16/42526DB0              |           95601978800

 2017-02-05 13:22:59.042151+01 | 1486297379.04215 | 16/440E1E10              |           95631056400

