 2017-02-05 20:45:29.678235+01 | 1486323929.67824 | pgbench_branches_pkey |            40960
 2017-02-05 20:45:29.678235+01 | 1486323929.67824 | pgbench_tellers_pkey  |           245760
 2017-02-05 20:45:29.678235+01 | 1486323929.67824 | pgbench_accounts_pkey |       2246197248

 2017-02-05 20:45:30.760522+01 | 1486323930.76052 | pgbench_branches_pkey |            40960
 2017-02-05 20:45:30.760522+01 | 1486323930.76052 | pgbench_tellers_pkey  |           245760
 2017-02-05 20:45:30.760522+01 | 1486323930.76052 | pgbench_accounts_pkey |       2246197248

 2017-02-05 20:45:31.832891+01 | 1486323931.83289 | pgbench_branches_pkey |            40960
 2017-02-05 20:45:31.832891+01 | 1486323931.83289 | pgbench_tellers_pkey  |           245760
 2017-02-05 20:45:31.832891+01 | 1486323931.83289 | pgbench_accounts_pkey |       2246197248

 2017-02-05 20:45:32.909653+01 | 1486323932.90965 | pgbench_branches_pkey |            40960
 2017-02-05 20:45:32.909653+01 | 1486323932.90965 | pgbench_tellers_pkey  |           245760
 2017-02-05 20:45:32.909653+01 | 1486323932.90965 | pgbench_accounts_pkey |       2246197248

 2017-02-05 20:45:33.982039+01 | 1486323933.98204 | pgbench_branches_pkey |            40960
 2017-02-05 20:45:33.982039+01 | 1486323933.98204 | pgbench_tellers_pkey  |           245760
 2017-02-05 20:45:33.982039+01 | 1486323933.98204 | pgbench_accounts_pkey |       2246197248

 2017-02-05 20:45:35.062221+01 | 1486323935.06222 | pgbench_branches_pkey |            40960
 2017-02-05 20:45:35.062221+01 | 1486323935.06222 | pgbench_tellers_pkey  |           245760
 2017-02-05 20:45:35.062221+01 | 1486323935.06222 | pgbench_accounts_pkey |       2246197248

 2017-02-05 20:45:36.142974+01 | 1486323936.14297 | pgbench_branches_pkey |            40960
 2017-02-05 20:45:36.142974+01 | 1486323936.14297 | pgbench_tellers_pkey  |           245760
 2017-02-05 20:45:36.142974+01 | 1486323936.14297 | pgbench_accounts_pkey |       2246197248

 2017-02-05 20:45:37.223655+01 | 1486323937.22365 | pgbench_branches_pkey |            40960
 2017-02-05 20:45:37.223655+01 | 1486323937.22365 | pgbench_tellers_pkey  |           245760
 2017-02-05 20:45:37.223655+01 | 1486323937.22365 | pgbench_accounts_pkey |       2246197248

 2017-02-05 20:45:38.302714+01 | 1486323938.30271 | pgbench_branches_pkey |            40960
 2017-02-05 20:45:38.302714+01 | 1486323938.30271 | pgbench_tellers_pkey  |           245760
 2017-02-05 20:45:38.302714+01 | 1486323938.30271 | pgbench_accounts_pkey |       2246197248

 2017-02-05 20:45:39.382438+01 | 1486323939.38244 | pgbench_branches_pkey |            40960
 2017-02-05 20:45:39.382438+01 | 1486323939.38244 | pgbench_tellers_pkey  |           245760
 2017-02-05 20:45:39.382438+01 | 1486323939.38244 | pgbench_accounts_pkey |       2246197248

 2017-02-05 20:45:40.460248+01 | 1486323940.46025 | pgbench_branches_pkey |            40960
 2017-02-05 20:45:40.460248+01 | 1486323940.46025 | pgbench_tellers_pkey  |           245760
 2017-02-05 20:45:40.460248+01 | 1486323940.46025 | pgbench_accounts_pkey |       2246197248

 2017-02-05 20:45:41.536365+01 | 1486323941.53637 | pgbench_branches_pkey |            40960
 2017-02-05 20:45:41.536365+01 | 1486323941.53637 | pgbench_tellers_pkey  |           245760
 2017-02-05 20:45:41.536365+01 | 1486323941.53637 | pgbench_accounts_pkey |       2246197248

 2017-02-05 20:45:42.612665+01 | 1486323942.61266 | pgbench_branches_pkey |            40960
 2017-02-05 20:45:42.612665+01 | 1486323942.61266 | pgbench_tellers_pkey  |           245760
 2017-02-05 20:45:42.612665+01 | 1486323942.61266 | pgbench_accounts_pkey |       2246197248

 2017-02-05 20:45:43.690507+01 | 1486323943.69051 | pgbench_branches_pkey |            40960
 2017-02-05 20:45:43.690507+01 | 1486323943.69051 | pgbench_tellers_pkey  |           245760
 2017-02-05 20:45:43.690507+01 | 1486323943.69051 | pgbench_accounts_pkey |       2246197248

 2017-02-05 20:45:44.775537+01 | 1486323944.77554 | pgbench_branches_pkey |            40960
 2017-02-05 20:45:44.775537+01 | 1486323944.77554 | pgbench_tellers_pkey  |           245760
 2017-02-05 20:45:44.775537+01 | 1486323944.77554 | pgbench_accounts_pkey |       2246197248

 2017-02-05 20:45:45.853795+01 | 1486323945.8538 | pgbench_branches_pkey |            40960
 2017-02-05 20:45:45.853795+01 | 1486323945.8538 | pgbench_tellers_pkey  |           245760
 2017-02-05 20:45:45.853795+01 | 1486323945.8538 | pgbench_accounts_pkey |       2246197248

 2017-02-05 20:45:46.932045+01 | 1486323946.93204 | pgbench_branches_pkey |            40960
 2017-02-05 20:45:46.932045+01 | 1486323946.93204 | pgbench_tellers_pkey  |           245760
 2017-02-05 20:45:46.932045+01 | 1486323946.93204 | pgbench_accounts_pkey |       2246197248

 2017-02-05 20:45:48.009903+01 | 1486323948.0099 | pgbench_branches_pkey |            40960
 2017-02-05 20:45:48.009903+01 | 1486323948.0099 | pgbench_tellers_pkey  |           245760
 2017-02-05 20:45:48.009903+01 | 1486323948.0099 | pgbench_accounts_pkey |       2246197248

 2017-02-05 20:45:49.083619+01 | 1486323949.08362 | pgbench_branches_pkey |            40960
 2017-02-05 20:45:49.083619+01 | 1486323949.08362 | pgbench_tellers_pkey  |           245760
 2017-02-05 20:45:49.083619+01 | 1486323949.08362 | pgbench_accounts_pkey |       2246197248

 2017-02-05 20:45:50.155465+01 | 1486323950.15546 | pgbench_branches_pkey |            40960
 2017-02-05 20:45:50.155465+01 | 1486323950.15546 | pgbench_tellers_pkey  |           245760
 2017-02-05 20:45:50.155465+01 | 1486323950.15546 | pgbench_accounts_pkey |       2246197248

 2017-02-05 20:45:51.230765+01 | 1486323951.23077 | pgbench_branches_pkey |            40960
 2017-02-05 20:45:51.230765+01 | 1486323951.23077 | pgbench_tellers_pkey  |           245760
 2017-02-05 20:45:51.230765+01 | 1486323951.23077 | pgbench_accounts_pkey |       2246197248

 2017-02-05 20:45:52.310375+01 | 1486323952.31037 | pgbench_branches_pkey |            40960
 2017-02-05 20:45:52.310375+01 | 1486323952.31037 | pgbench_tellers_pkey  |           245760
 2017-02-05 20:45:52.310375+01 | 1486323952.31037 | pgbench_accounts_pkey |       2246197248

 2017-02-05 20:45:53.387276+01 | 1486323953.38728 | pgbench_branches_pkey |            40960
 2017-02-05 20:45:53.387276+01 | 1486323953.38728 | pgbench_tellers_pkey  |           245760
 2017-02-05 20:45:53.387276+01 | 1486323953.38728 | pgbench_accounts_pkey |       2246197248

 2017-02-05 20:45:54.463811+01 | 1486323954.46381 | pgbench_branches_pkey |            40960
 2017-02-05 20:45:54.463811+01 | 1486323954.46381 | pgbench_tellers_pkey  |           245760
 2017-02-05 20:45:54.463811+01 | 1486323954.46381 | pgbench_accounts_pkey |       2246197248

 2017-02-05 20:45:55.542135+01 | 1486323955.54214 | pgbench_branches_pkey |            40960
 2017-02-05 20:45:55.542135+01 | 1486323955.54214 | pgbench_tellers_pkey  |           245760
 2017-02-05 20:45:55.542135+01 | 1486323955.54214 | pgbench_accounts_pkey |       2246197248

 2017-02-05 20:45:56.623059+01 | 1486323956.62306 | pgbench_branches_pkey |            40960
 2017-02-05 20:45:56.623059+01 | 1486323956.62306 | pgbench_tellers_pkey  |           245760
 2017-02-05 20:45:56.623059+01 | 1486323956.62306 | pgbench_accounts_pkey |       2246197248

 2017-02-05 20:45:57.702781+01 | 1486323957.70278 | pgbench_branches_pkey |            40960
 2017-02-05 20:45:57.702781+01 | 1486323957.70278 | pgbench_tellers_pkey  |           245760
 2017-02-05 20:45:57.702781+01 | 1486323957.70278 | pgbench_accounts_pkey |       2246197248

 2017-02-05 20:45:58.784347+01 | 1486323958.78435 | pgbench_branches_pkey |            40960
 2017-02-05 20:45:58.784347+01 | 1486323958.78435 | pgbench_tellers_pkey  |           245760
 2017-02-05 20:45:58.784347+01 | 1486323958.78435 | pgbench_accounts_pkey |       2246197248

 2017-02-05 20:45:59.860021+01 | 1486323959.86002 | pgbench_branches_pkey |            40960
 2017-02-05 20:45:59.860021+01 | 1486323959.86002 | pgbench_tellers_pkey  |           245760
 2017-02-05 20:45:59.860021+01 | 1486323959.86002 | pgbench_accounts_pkey |       2246197248

 2017-02-05 20:46:00.936832+01 | 1486323960.93683 | pgbench_branches_pkey |            40960
 2017-02-05 20:46:00.936832+01 | 1486323960.93683 | pgbench_tellers_pkey  |           245760
 2017-02-05 20:46:00.936832+01 | 1486323960.93683 | pgbench_accounts_pkey |       2246197248

 2017-02-05 20:46:02.019423+01 | 1486323962.01942 | pgbench_branches_pkey |            40960
 2017-02-05 20:46:02.019423+01 | 1486323962.01942 | pgbench_tellers_pkey  |           245760
 2017-02-05 20:46:02.019423+01 | 1486323962.01942 | pgbench_accounts_pkey |       2246197248

 2017-02-05 20:46:03.097334+01 | 1486323963.09733 | pgbench_branches_pkey |            40960
 2017-02-05 20:46:03.097334+01 | 1486323963.09733 | pgbench_tellers_pkey  |           245760
 2017-02-05 20:46:03.097334+01 | 1486323963.09733 | pgbench_accounts_pkey |       2246197248

 2017-02-05 20:46:04.175597+01 | 1486323964.1756 | pgbench_branches_pkey |            40960
 2017-02-05 20:46:04.175597+01 | 1486323964.1756 | pgbench_tellers_pkey  |           245760
 2017-02-05 20:46:04.175597+01 | 1486323964.1756 | pgbench_accounts_pkey |       2246197248

 2017-02-05 20:46:05.244415+01 | 1486323965.24442 | pgbench_branches_pkey |            40960
 2017-02-05 20:46:05.244415+01 | 1486323965.24442 | pgbench_tellers_pkey  |           245760
 2017-02-05 20:46:05.244415+01 | 1486323965.24442 | pgbench_accounts_pkey |       2246197248

 2017-02-05 20:46:06.321017+01 | 1486323966.32102 | pgbench_branches_pkey |            40960
 2017-02-05 20:46:06.321017+01 | 1486323966.32102 | pgbench_tellers_pkey  |           245760
 2017-02-05 20:46:06.321017+01 | 1486323966.32102 | pgbench_accounts_pkey |       2246197248

 2017-02-05 20:46:07.392647+01 | 1486323967.39265 | pgbench_branches_pkey |            40960
 2017-02-05 20:46:07.392647+01 | 1486323967.39265 | pgbench_tellers_pkey  |           245760
 2017-02-05 20:46:07.392647+01 | 1486323967.39265 | pgbench_accounts_pkey |       2246197248

 2017-02-05 20:46:08.473005+01 | 1486323968.47301 | pgbench_branches_pkey |            40960
 2017-02-05 20:46:08.473005+01 | 1486323968.47301 | pgbench_tellers_pkey  |           245760
 2017-02-05 20:46:08.473005+01 | 1486323968.47301 | pgbench_accounts_pkey |       2246197248

 2017-02-05 20:46:09.547394+01 | 1486323969.54739 | pgbench_branches_pkey |            40960
 2017-02-05 20:46:09.547394+01 | 1486323969.54739 | pgbench_tellers_pkey  |           245760
 2017-02-05 20:46:09.547394+01 | 1486323969.54739 | pgbench_accounts_pkey |       2246197248

 2017-02-05 20:46:10.622146+01 | 1486323970.62215 | pgbench_branches_pkey |            40960
 2017-02-05 20:46:10.622146+01 | 1486323970.62215 | pgbench_tellers_pkey  |           245760
 2017-02-05 20:46:10.622146+01 | 1486323970.62215 | pgbench_accounts_pkey |       2246197248

 2017-02-05 20:46:11.698421+01 | 1486323971.69842 | pgbench_branches_pkey |            40960
 2017-02-05 20:46:11.698421+01 | 1486323971.69842 | pgbench_tellers_pkey  |           245760
 2017-02-05 20:46:11.698421+01 | 1486323971.69842 | pgbench_accounts_pkey |       2246197248

 2017-02-05 20:46:12.773862+01 | 1486323972.77386 | pgbench_branches_pkey |            40960
 2017-02-05 20:46:12.773862+01 | 1486323972.77386 | pgbench_tellers_pkey  |           245760
 2017-02-05 20:46:12.773862+01 | 1486323972.77386 | pgbench_accounts_pkey |       2246197248

 2017-02-05 20:46:13.852486+01 | 1486323973.85249 | pgbench_branches_pkey |            40960
 2017-02-05 20:46:13.852486+01 | 1486323973.85249 | pgbench_tellers_pkey  |           245760
 2017-02-05 20:46:13.852486+01 | 1486323973.85249 | pgbench_accounts_pkey |       2246197248

 2017-02-05 20:46:14.92655+01 | 1486323974.92655 | pgbench_branches_pkey |            40960
 2017-02-05 20:46:14.92655+01 | 1486323974.92655 | pgbench_tellers_pkey  |           245760
 2017-02-05 20:46:14.92655+01 | 1486323974.92655 | pgbench_accounts_pkey |       2246197248

 2017-02-05 20:46:15.998111+01 | 1486323975.99811 | pgbench_branches_pkey |            40960
 2017-02-05 20:46:15.998111+01 | 1486323975.99811 | pgbench_tellers_pkey  |           245760
 2017-02-05 20:46:15.998111+01 | 1486323975.99811 | pgbench_accounts_pkey |       2246197248

 2017-02-05 20:46:17.070956+01 | 1486323977.07096 | pgbench_branches_pkey |            40960
 2017-02-05 20:46:17.070956+01 | 1486323977.07096 | pgbench_tellers_pkey  |           245760
 2017-02-05 20:46:17.070956+01 | 1486323977.07096 | pgbench_accounts_pkey |       2246197248

 2017-02-05 20:46:18.146966+01 | 1486323978.14697 | pgbench_branches_pkey |            40960
 2017-02-05 20:46:18.146966+01 | 1486323978.14697 | pgbench_tellers_pkey  |           245760
 2017-02-05 20:46:18.146966+01 | 1486323978.14697 | pgbench_accounts_pkey |       2246197248

 2017-02-05 20:46:19.223502+01 | 1486323979.2235 | pgbench_branches_pkey |            40960
 2017-02-05 20:46:19.223502+01 | 1486323979.2235 | pgbench_tellers_pkey  |           245760
 2017-02-05 20:46:19.223502+01 | 1486323979.2235 | pgbench_accounts_pkey |       2246197248

 2017-02-05 20:46:20.298051+01 | 1486323980.29805 | pgbench_branches_pkey |            40960
 2017-02-05 20:46:20.298051+01 | 1486323980.29805 | pgbench_tellers_pkey  |           245760
 2017-02-05 20:46:20.298051+01 | 1486323980.29805 | pgbench_accounts_pkey |       2246197248

 2017-02-05 20:46:21.374547+01 | 1486323981.37455 | pgbench_branches_pkey |            40960
 2017-02-05 20:46:21.374547+01 | 1486323981.37455 | pgbench_tellers_pkey  |           245760
 2017-02-05 20:46:21.374547+01 | 1486323981.37455 | pgbench_accounts_pkey |       2246197248

 2017-02-05 20:46:22.45229+01 | 1486323982.45229 | pgbench_branches_pkey |            40960
 2017-02-05 20:46:22.45229+01 | 1486323982.45229 | pgbench_tellers_pkey  |           245760
 2017-02-05 20:46:22.45229+01 | 1486323982.45229 | pgbench_accounts_pkey |       2246197248

 2017-02-05 20:46:23.526186+01 | 1486323983.52619 | pgbench_branches_pkey |            40960
 2017-02-05 20:46:23.526186+01 | 1486323983.52619 | pgbench_tellers_pkey  |           245760
 2017-02-05 20:46:23.526186+01 | 1486323983.52619 | pgbench_accounts_pkey |       2246197248

 2017-02-05 20:46:24.607523+01 | 1486323984.60752 | pgbench_branches_pkey |            40960
 2017-02-05 20:46:24.607523+01 | 1486323984.60752 | pgbench_tellers_pkey  |           245760
 2017-02-05 20:46:24.607523+01 | 1486323984.60752 | pgbench_accounts_pkey |       2246197248

 2017-02-05 20:46:25.6832+01 | 1486323985.6832 | pgbench_branches_pkey |            40960
 2017-02-05 20:46:25.6832+01 | 1486323985.6832 | pgbench_tellers_pkey  |           245760
 2017-02-05 20:46:25.6832+01 | 1486323985.6832 | pgbench_accounts_pkey |       2246197248

 2017-02-05 20:46:26.758115+01 | 1486323986.75812 | pgbench_branches_pkey |            40960
 2017-02-05 20:46:26.758115+01 | 1486323986.75812 | pgbench_tellers_pkey  |           245760
 2017-02-05 20:46:26.758115+01 | 1486323986.75812 | pgbench_accounts_pkey |       2246197248

 2017-02-05 20:46:27.830318+01 | 1486323987.83032 | pgbench_branches_pkey |            40960
 2017-02-05 20:46:27.830318+01 | 1486323987.83032 | pgbench_tellers_pkey  |           245760
 2017-02-05 20:46:27.830318+01 | 1486323987.83032 | pgbench_accounts_pkey |       2246197248

 2017-02-05 20:46:28.903511+01 | 1486323988.90351 | pgbench_branches_pkey |            40960
 2017-02-05 20:46:28.903511+01 | 1486323988.90351 | pgbench_tellers_pkey  |           245760
 2017-02-05 20:46:28.903511+01 | 1486323988.90351 | pgbench_accounts_pkey |       2246197248

 2017-02-05 20:46:29.977183+01 | 1486323989.97718 | pgbench_branches_pkey |            40960
 2017-02-05 20:46:29.977183+01 | 1486323989.97718 | pgbench_tellers_pkey  |           245760
 2017-02-05 20:46:29.977183+01 | 1486323989.97718 | pgbench_accounts_pkey |       2246197248

 2017-02-05 20:46:31.05416+01 | 1486323991.05416 | pgbench_branches_pkey |            40960
 2017-02-05 20:46:31.05416+01 | 1486323991.05416 | pgbench_tellers_pkey  |           245760
 2017-02-05 20:46:31.05416+01 | 1486323991.05416 | pgbench_accounts_pkey |       2246197248

 2017-02-05 20:46:32.137466+01 | 1486323992.13747 | pgbench_branches_pkey |            40960
 2017-02-05 20:46:32.137466+01 | 1486323992.13747 | pgbench_tellers_pkey  |           245760
 2017-02-05 20:46:32.137466+01 | 1486323992.13747 | pgbench_accounts_pkey |       2246197248

 2017-02-05 20:46:33.210132+01 | 1486323993.21013 | pgbench_branches_pkey |            40960
 2017-02-05 20:46:33.210132+01 | 1486323993.21013 | pgbench_tellers_pkey  |           245760
 2017-02-05 20:46:33.210132+01 | 1486323993.21013 | pgbench_accounts_pkey |       2246197248

 2017-02-05 20:46:34.301797+01 | 1486323994.3018 | pgbench_branches_pkey |            40960
 2017-02-05 20:46:34.301797+01 | 1486323994.3018 | pgbench_tellers_pkey  |           245760
 2017-02-05 20:46:34.301797+01 | 1486323994.3018 | pgbench_accounts_pkey |       2246197248

 2017-02-05 20:46:35.375125+01 | 1486323995.37512 | pgbench_branches_pkey |            40960
 2017-02-05 20:46:35.375125+01 | 1486323995.37512 | pgbench_tellers_pkey  |           245760
 2017-02-05 20:46:35.375125+01 | 1486323995.37512 | pgbench_accounts_pkey |       2246197248

 2017-02-05 20:46:36.446784+01 | 1486323996.44678 | pgbench_branches_pkey |            40960
 2017-02-05 20:46:36.446784+01 | 1486323996.44678 | pgbench_tellers_pkey  |           245760
 2017-02-05 20:46:36.446784+01 | 1486323996.44678 | pgbench_accounts_pkey |       2246197248

 2017-02-05 20:46:37.528542+01 | 1486323997.52854 | pgbench_branches_pkey |            40960
 2017-02-05 20:46:37.528542+01 | 1486323997.52854 | pgbench_tellers_pkey  |           245760
 2017-02-05 20:46:37.528542+01 | 1486323997.52854 | pgbench_accounts_pkey |       2246197248

 2017-02-05 20:46:38.607756+01 | 1486323998.60776 | pgbench_branches_pkey |            40960
 2017-02-05 20:46:38.607756+01 | 1486323998.60776 | pgbench_tellers_pkey  |           245760
 2017-02-05 20:46:38.607756+01 | 1486323998.60776 | pgbench_accounts_pkey |       2246197248

 2017-02-05 20:46:39.68439+01 | 1486323999.68439 | pgbench_branches_pkey |            40960
 2017-02-05 20:46:39.68439+01 | 1486323999.68439 | pgbench_tellers_pkey  |           245760
 2017-02-05 20:46:39.68439+01 | 1486323999.68439 | pgbench_accounts_pkey |       2246197248

 2017-02-05 20:46:40.764665+01 | 1486324000.76466 | pgbench_branches_pkey |            40960
 2017-02-05 20:46:40.764665+01 | 1486324000.76466 | pgbench_tellers_pkey  |           245760
 2017-02-05 20:46:40.764665+01 | 1486324000.76466 | pgbench_accounts_pkey |       2246197248

 2017-02-05 20:46:41.837999+01 | 1486324001.838 | pgbench_branches_pkey |            40960
 2017-02-05 20:46:41.837999+01 | 1486324001.838 | pgbench_tellers_pkey  |           245760
 2017-02-05 20:46:41.837999+01 | 1486324001.838 | pgbench_accounts_pkey |       2246197248

 2017-02-05 20:46:42.916734+01 | 1486324002.91673 | pgbench_branches_pkey |            40960
 2017-02-05 20:46:42.916734+01 | 1486324002.91673 | pgbench_tellers_pkey  |           245760
 2017-02-05 20:46:42.916734+01 | 1486324002.91673 | pgbench_accounts_pkey |       2246197248

 2017-02-05 20:46:43.993564+01 | 1486324003.99356 | pgbench_branches_pkey |            40960
 2017-02-05 20:46:43.993564+01 | 1486324003.99356 | pgbench_tellers_pkey  |           245760
 2017-02-05 20:46:43.993564+01 | 1486324003.99356 | pgbench_accounts_pkey |       2246197248

 2017-02-05 20:46:45.072353+01 | 1486324005.07235 | pgbench_branches_pkey |            40960
 2017-02-05 20:46:45.072353+01 | 1486324005.07235 | pgbench_tellers_pkey  |           245760
 2017-02-05 20:46:45.072353+01 | 1486324005.07235 | pgbench_accounts_pkey |       2246197248

 2017-02-05 20:46:46.152305+01 | 1486324006.1523 | pgbench_branches_pkey |            40960
 2017-02-05 20:46:46.152305+01 | 1486324006.1523 | pgbench_tellers_pkey  |           245760
 2017-02-05 20:46:46.152305+01 | 1486324006.1523 | pgbench_accounts_pkey |       2246197248

 2017-02-05 20:46:47.229638+01 | 1486324007.22964 | pgbench_branches_pkey |            40960
 2017-02-05 20:46:47.229638+01 | 1486324007.22964 | pgbench_tellers_pkey  |           245760
 2017-02-05 20:46:47.229638+01 | 1486324007.22964 | pgbench_accounts_pkey |       2246197248

 2017-02-05 20:46:48.305989+01 | 1486324008.30599 | pgbench_branches_pkey |            40960
 2017-02-05 20:46:48.305989+01 | 1486324008.30599 | pgbench_tellers_pkey  |           245760
 2017-02-05 20:46:48.305989+01 | 1486324008.30599 | pgbench_accounts_pkey |       2246197248

 2017-02-05 20:46:49.376462+01 | 1486324009.37646 | pgbench_branches_pkey |            40960
 2017-02-05 20:46:49.376462+01 | 1486324009.37646 | pgbench_tellers_pkey  |           245760
 2017-02-05 20:46:49.376462+01 | 1486324009.37646 | pgbench_accounts_pkey |       2246197248

 2017-02-05 20:46:50.450369+01 | 1486324010.45037 | pgbench_branches_pkey |            40960
 2017-02-05 20:46:50.450369+01 | 1486324010.45037 | pgbench_tellers_pkey  |           245760
 2017-02-05 20:46:50.450369+01 | 1486324010.45037 | pgbench_accounts_pkey |       2246197248

 2017-02-05 20:46:51.52613+01 | 1486324011.52613 | pgbench_branches_pkey |            40960
 2017-02-05 20:46:51.52613+01 | 1486324011.52613 | pgbench_tellers_pkey  |           245760
 2017-02-05 20:46:51.52613+01 | 1486324011.52613 | pgbench_accounts_pkey |       2246197248

 2017-02-05 20:46:52.603203+01 | 1486324012.6032 | pgbench_branches_pkey |            40960
 2017-02-05 20:46:52.603203+01 | 1486324012.6032 | pgbench_tellers_pkey  |           245760
 2017-02-05 20:46:52.603203+01 | 1486324012.6032 | pgbench_accounts_pkey |       2246197248

 2017-02-05 20:46:53.68292+01 | 1486324013.68292 | pgbench_branches_pkey |            40960
 2017-02-05 20:46:53.68292+01 | 1486324013.68292 | pgbench_tellers_pkey  |           245760
 2017-02-05 20:46:53.68292+01 | 1486324013.68292 | pgbench_accounts_pkey |       2246197248

 2017-02-05 20:46:54.76222+01 | 1486324014.76222 | pgbench_branches_pkey |            40960
 2017-02-05 20:46:54.76222+01 | 1486324014.76222 | pgbench_tellers_pkey  |           245760
 2017-02-05 20:46:54.76222+01 | 1486324014.76222 | pgbench_accounts_pkey |       2246197248

 2017-02-05 20:46:55.842308+01 | 1486324015.84231 | pgbench_branches_pkey |            40960
 2017-02-05 20:46:55.842308+01 | 1486324015.84231 | pgbench_tellers_pkey  |           245760
 2017-02-05 20:46:55.842308+01 | 1486324015.84231 | pgbench_accounts_pkey |       2246197248

 2017-02-05 20:46:56.917699+01 | 1486324016.9177 | pgbench_branches_pkey |            40960
 2017-02-05 20:46:56.917699+01 | 1486324016.9177 | pgbench_tellers_pkey  |           245760
 2017-02-05 20:46:56.917699+01 | 1486324016.9177 | pgbench_accounts_pkey |       2246197248

 2017-02-05 20:46:57.991988+01 | 1486324017.99199 | pgbench_branches_pkey |            40960
 2017-02-05 20:46:57.991988+01 | 1486324017.99199 | pgbench_tellers_pkey  |           245760
 2017-02-05 20:46:57.991988+01 | 1486324017.99199 | pgbench_accounts_pkey |       2246197248

 2017-02-05 20:46:59.071249+01 | 1486324019.07125 | pgbench_branches_pkey |            40960
 2017-02-05 20:46:59.071249+01 | 1486324019.07125 | pgbench_tellers_pkey  |           245760
 2017-02-05 20:46:59.071249+01 | 1486324019.07125 | pgbench_accounts_pkey |       2246197248

 2017-02-05 20:47:00.147343+01 | 1486324020.14734 | pgbench_branches_pkey |            40960
 2017-02-05 20:47:00.147343+01 | 1486324020.14734 | pgbench_tellers_pkey  |           245760
 2017-02-05 20:47:00.147343+01 | 1486324020.14734 | pgbench_accounts_pkey |       2246197248

 2017-02-05 20:47:01.22438+01 | 1486324021.22438 | pgbench_branches_pkey |            40960
 2017-02-05 20:47:01.22438+01 | 1486324021.22438 | pgbench_tellers_pkey  |           245760
 2017-02-05 20:47:01.22438+01 | 1486324021.22438 | pgbench_accounts_pkey |       2246197248

 2017-02-05 20:47:02.299919+01 | 1486324022.29992 | pgbench_branches_pkey |            40960
 2017-02-05 20:47:02.299919+01 | 1486324022.29992 | pgbench_tellers_pkey  |           245760
 2017-02-05 20:47:02.299919+01 | 1486324022.29992 | pgbench_accounts_pkey |       2246197248

 2017-02-05 20:47:03.379569+01 | 1486324023.37957 | pgbench_branches_pkey |            40960
 2017-02-05 20:47:03.379569+01 | 1486324023.37957 | pgbench_tellers_pkey  |           245760
 2017-02-05 20:47:03.379569+01 | 1486324023.37957 | pgbench_accounts_pkey |       2246197248

 2017-02-05 20:47:04.456188+01 | 1486324024.45619 | pgbench_branches_pkey |            40960
 2017-02-05 20:47:04.456188+01 | 1486324024.45619 | pgbench_tellers_pkey  |           245760
 2017-02-05 20:47:04.456188+01 | 1486324024.45619 | pgbench_accounts_pkey |       2246197248

 2017-02-05 20:47:05.535847+01 | 1486324025.53585 | pgbench_branches_pkey |            40960
 2017-02-05 20:47:05.535847+01 | 1486324025.53585 | pgbench_tellers_pkey  |           245760
 2017-02-05 20:47:05.535847+01 | 1486324025.53585 | pgbench_accounts_pkey |       2246197248

 2017-02-05 20:47:06.613906+01 | 1486324026.61391 | pgbench_branches_pkey |            40960
 2017-02-05 20:47:06.613906+01 | 1486324026.61391 | pgbench_tellers_pkey  |           245760
 2017-02-05 20:47:06.613906+01 | 1486324026.61391 | pgbench_accounts_pkey |       2246197248

 2017-02-05 20:47:07.688711+01 | 1486324027.68871 | pgbench_branches_pkey |            40960
 2017-02-05 20:47:07.688711+01 | 1486324027.68871 | pgbench_tellers_pkey  |           245760
 2017-02-05 20:47:07.688711+01 | 1486324027.68871 | pgbench_accounts_pkey |       2246197248

 2017-02-05 20:47:08.762984+01 | 1486324028.76298 | pgbench_branches_pkey |            40960
 2017-02-05 20:47:08.762984+01 | 1486324028.76298 | pgbench_tellers_pkey  |           245760
 2017-02-05 20:47:08.762984+01 | 1486324028.76298 | pgbench_accounts_pkey |       2246197248

 2017-02-05 20:47:09.834075+01 | 1486324029.83407 | pgbench_branches_pkey |            40960
 2017-02-05 20:47:09.834075+01 | 1486324029.83407 | pgbench_tellers_pkey  |           245760
 2017-02-05 20:47:09.834075+01 | 1486324029.83407 | pgbench_accounts_pkey |       2246197248

 2017-02-05 20:47:10.909272+01 | 1486324030.90927 | pgbench_branches_pkey |            40960
 2017-02-05 20:47:10.909272+01 | 1486324030.90927 | pgbench_tellers_pkey  |           245760
 2017-02-05 20:47:10.909272+01 | 1486324030.90927 | pgbench_accounts_pkey |       2246197248

 2017-02-05 20:47:11.984668+01 | 1486324031.98467 | pgbench_branches_pkey |            40960
 2017-02-05 20:47:11.984668+01 | 1486324031.98467 | pgbench_tellers_pkey  |           245760
 2017-02-05 20:47:11.984668+01 | 1486324031.98467 | pgbench_accounts_pkey |       2246197248

 2017-02-05 20:47:13.062574+01 | 1486324033.06257 | pgbench_branches_pkey |            40960
 2017-02-05 20:47:13.062574+01 | 1486324033.06257 | pgbench_tellers_pkey  |           245760
 2017-02-05 20:47:13.062574+01 | 1486324033.06257 | pgbench_accounts_pkey |       2246197248

 2017-02-05 20:47:14.141946+01 | 1486324034.14195 | pgbench_branches_pkey |            40960
 2017-02-05 20:47:14.141946+01 | 1486324034.14195 | pgbench_tellers_pkey  |           245760
 2017-02-05 20:47:14.141946+01 | 1486324034.14195 | pgbench_accounts_pkey |       2246197248

 2017-02-05 20:47:15.224156+01 | 1486324035.22416 | pgbench_branches_pkey |            40960
 2017-02-05 20:47:15.224156+01 | 1486324035.22416 | pgbench_tellers_pkey  |           245760
 2017-02-05 20:47:15.224156+01 | 1486324035.22416 | pgbench_accounts_pkey |       2246197248

 2017-02-05 20:47:16.298674+01 | 1486324036.29867 | pgbench_branches_pkey |            40960
 2017-02-05 20:47:16.298674+01 | 1486324036.29867 | pgbench_tellers_pkey  |           245760
 2017-02-05 20:47:16.298674+01 | 1486324036.29867 | pgbench_accounts_pkey |       2246197248

 2017-02-05 20:47:17.375556+01 | 1486324037.37556 | pgbench_branches_pkey |            40960
 2017-02-05 20:47:17.375556+01 | 1486324037.37556 | pgbench_tellers_pkey  |           245760
 2017-02-05 20:47:17.375556+01 | 1486324037.37556 | pgbench_accounts_pkey |       2246197248

 2017-02-05 20:47:18.455614+01 | 1486324038.45561 | pgbench_branches_pkey |            40960
 2017-02-05 20:47:18.455614+01 | 1486324038.45561 | pgbench_tellers_pkey  |           245760
 2017-02-05 20:47:18.455614+01 | 1486324038.45561 | pgbench_accounts_pkey |       2246197248

 2017-02-05 20:47:19.527776+01 | 1486324039.52778 | pgbench_branches_pkey |            40960
 2017-02-05 20:47:19.527776+01 | 1486324039.52778 | pgbench_tellers_pkey  |           245760
 2017-02-05 20:47:19.527776+01 | 1486324039.52778 | pgbench_accounts_pkey |       2246197248

 2017-02-05 20:47:20.608157+01 | 1486324040.60816 | pgbench_branches_pkey |            40960
 2017-02-05 20:47:20.608157+01 | 1486324040.60816 | pgbench_tellers_pkey  |           245760
 2017-02-05 20:47:20.608157+01 | 1486324040.60816 | pgbench_accounts_pkey |       2246197248

 2017-02-05 20:47:21.685193+01 | 1486324041.68519 | pgbench_branches_pkey |            40960
 2017-02-05 20:47:21.685193+01 | 1486324041.68519 | pgbench_tellers_pkey  |           245760
 2017-02-05 20:47:21.685193+01 | 1486324041.68519 | pgbench_accounts_pkey |       2246197248

 2017-02-05 20:47:22.758276+01 | 1486324042.75828 | pgbench_branches_pkey |            40960
 2017-02-05 20:47:22.758276+01 | 1486324042.75828 | pgbench_tellers_pkey  |           245760
 2017-02-05 20:47:22.758276+01 | 1486324042.75828 | pgbench_accounts_pkey |       2246197248

 2017-02-05 20:47:23.836635+01 | 1486324043.83664 | pgbench_branches_pkey |            40960
 2017-02-05 20:47:23.836635+01 | 1486324043.83664 | pgbench_tellers_pkey  |           245760
 2017-02-05 20:47:23.836635+01 | 1486324043.83664 | pgbench_accounts_pkey |       2246197248

 2017-02-05 20:47:24.913547+01 | 1486324044.91355 | pgbench_branches_pkey |            40960
 2017-02-05 20:47:24.913547+01 | 1486324044.91355 | pgbench_tellers_pkey  |           245760
 2017-02-05 20:47:24.913547+01 | 1486324044.91355 | pgbench_accounts_pkey |       2246197248

 2017-02-05 20:47:25.992289+01 | 1486324045.99229 | pgbench_branches_pkey |            40960
 2017-02-05 20:47:25.992289+01 | 1486324045.99229 | pgbench_tellers_pkey  |           245760
 2017-02-05 20:47:25.992289+01 | 1486324045.99229 | pgbench_accounts_pkey |       2246197248

 2017-02-05 20:47:27.065187+01 | 1486324047.06519 | pgbench_branches_pkey |            40960
 2017-02-05 20:47:27.065187+01 | 1486324047.06519 | pgbench_tellers_pkey  |           245760
 2017-02-05 20:47:27.065187+01 | 1486324047.06519 | pgbench_accounts_pkey |       2246197248

 2017-02-05 20:47:28.151516+01 | 1486324048.15152 | pgbench_branches_pkey |            40960
 2017-02-05 20:47:28.151516+01 | 1486324048.15152 | pgbench_tellers_pkey  |           245760
 2017-02-05 20:47:28.151516+01 | 1486324048.15152 | pgbench_accounts_pkey |       2246197248

 2017-02-05 20:47:29.228893+01 | 1486324049.22889 | pgbench_branches_pkey |            40960
 2017-02-05 20:47:29.228893+01 | 1486324049.22889 | pgbench_tellers_pkey  |           245760
 2017-02-05 20:47:29.228893+01 | 1486324049.22889 | pgbench_accounts_pkey |       2246197248

 2017-02-05 20:47:30.305025+01 | 1486324050.30503 | pgbench_branches_pkey |            40960
 2017-02-05 20:47:30.305025+01 | 1486324050.30503 | pgbench_tellers_pkey  |           245760
 2017-02-05 20:47:30.305025+01 | 1486324050.30503 | pgbench_accounts_pkey |       2246197248

 2017-02-05 20:47:31.375811+01 | 1486324051.37581 | pgbench_branches_pkey |            40960
 2017-02-05 20:47:31.375811+01 | 1486324051.37581 | pgbench_tellers_pkey  |           245760
 2017-02-05 20:47:31.375811+01 | 1486324051.37581 | pgbench_accounts_pkey |       2246197248

 2017-02-05 20:47:32.451708+01 | 1486324052.45171 | pgbench_branches_pkey |            40960
 2017-02-05 20:47:32.451708+01 | 1486324052.45171 | pgbench_tellers_pkey  |           245760
 2017-02-05 20:47:32.451708+01 | 1486324052.45171 | pgbench_accounts_pkey |       2246197248

 2017-02-05 20:47:33.532251+01 | 1486324053.53225 | pgbench_branches_pkey |            40960
 2017-02-05 20:47:33.532251+01 | 1486324053.53225 | pgbench_tellers_pkey  |           245760
 2017-02-05 20:47:33.532251+01 | 1486324053.53225 | pgbench_accounts_pkey |       2246197248

 2017-02-05 20:47:34.614957+01 | 1486324054.61496 | pgbench_branches_pkey |            40960
 2017-02-05 20:47:34.614957+01 | 1486324054.61496 | pgbench_tellers_pkey  |           245760
 2017-02-05 20:47:34.614957+01 | 1486324054.61496 | pgbench_accounts_pkey |       2246197248

 2017-02-05 20:47:35.688236+01 | 1486324055.68824 | pgbench_branches_pkey |            40960
 2017-02-05 20:47:35.688236+01 | 1486324055.68824 | pgbench_tellers_pkey  |           245760
 2017-02-05 20:47:35.688236+01 | 1486324055.68824 | pgbench_accounts_pkey |       2246197248

 2017-02-05 20:47:36.76352+01 | 1486324056.76352 | pgbench_branches_pkey |            40960
 2017-02-05 20:47:36.76352+01 | 1486324056.76352 | pgbench_tellers_pkey  |           245760
 2017-02-05 20:47:36.76352+01 | 1486324056.76352 | pgbench_accounts_pkey |       2246197248

 2017-02-05 20:47:37.840781+01 | 1486324057.84078 | pgbench_branches_pkey |            40960
 2017-02-05 20:47:37.840781+01 | 1486324057.84078 | pgbench_tellers_pkey  |           245760
 2017-02-05 20:47:37.840781+01 | 1486324057.84078 | pgbench_accounts_pkey |       2246197248

 2017-02-05 20:47:38.920161+01 | 1486324058.92016 | pgbench_branches_pkey |            40960
 2017-02-05 20:47:38.920161+01 | 1486324058.92016 | pgbench_tellers_pkey  |           245760
 2017-02-05 20:47:38.920161+01 | 1486324058.92016 | pgbench_accounts_pkey |       2246197248

 2017-02-05 20:47:39.992896+01 | 1486324059.9929 | pgbench_branches_pkey |            40960
 2017-02-05 20:47:39.992896+01 | 1486324059.9929 | pgbench_tellers_pkey  |           245760
 2017-02-05 20:47:39.992896+01 | 1486324059.9929 | pgbench_accounts_pkey |       2246197248

 2017-02-05 20:47:41.069988+01 | 1486324061.06999 | pgbench_branches_pkey |            40960
 2017-02-05 20:47:41.069988+01 | 1486324061.06999 | pgbench_tellers_pkey  |           245760
 2017-02-05 20:47:41.069988+01 | 1486324061.06999 | pgbench_accounts_pkey |       2246197248

 2017-02-05 20:47:42.144075+01 | 1486324062.14407 | pgbench_branches_pkey |            40960
 2017-02-05 20:47:42.144075+01 | 1486324062.14407 | pgbench_tellers_pkey  |           245760
 2017-02-05 20:47:42.144075+01 | 1486324062.14407 | pgbench_accounts_pkey |       2246197248

 2017-02-05 20:47:43.22238+01 | 1486324063.22238 | pgbench_branches_pkey |            40960
 2017-02-05 20:47:43.22238+01 | 1486324063.22238 | pgbench_tellers_pkey  |           245760
 2017-02-05 20:47:43.22238+01 | 1486324063.22238 | pgbench_accounts_pkey |       2246197248

 2017-02-05 20:47:44.305563+01 | 1486324064.30556 | pgbench_branches_pkey |            40960
 2017-02-05 20:47:44.305563+01 | 1486324064.30556 | pgbench_tellers_pkey  |           245760
 2017-02-05 20:47:44.305563+01 | 1486324064.30556 | pgbench_accounts_pkey |       2246197248

 2017-02-05 20:47:45.381998+01 | 1486324065.382 | pgbench_branches_pkey |            40960
 2017-02-05 20:47:45.381998+01 | 1486324065.382 | pgbench_tellers_pkey  |           245760
 2017-02-05 20:47:45.381998+01 | 1486324065.382 | pgbench_accounts_pkey |       2246197248

 2017-02-05 20:47:46.462761+01 | 1486324066.46276 | pgbench_branches_pkey |            40960
 2017-02-05 20:47:46.462761+01 | 1486324066.46276 | pgbench_tellers_pkey  |           245760
 2017-02-05 20:47:46.462761+01 | 1486324066.46276 | pgbench_accounts_pkey |       2246197248

 2017-02-05 20:47:47.54017+01 | 1486324067.54017 | pgbench_branches_pkey |            40960
 2017-02-05 20:47:47.54017+01 | 1486324067.54017 | pgbench_tellers_pkey  |           245760
 2017-02-05 20:47:47.54017+01 | 1486324067.54017 | pgbench_accounts_pkey |       2246197248

 2017-02-05 20:47:48.615891+01 | 1486324068.61589 | pgbench_branches_pkey |            40960
 2017-02-05 20:47:48.615891+01 | 1486324068.61589 | pgbench_tellers_pkey  |           245760
 2017-02-05 20:47:48.615891+01 | 1486324068.61589 | pgbench_accounts_pkey |       2246197248

 2017-02-05 20:47:49.69237+01 | 1486324069.69237 | pgbench_branches_pkey |            40960
 2017-02-05 20:47:49.69237+01 | 1486324069.69237 | pgbench_tellers_pkey  |           245760
 2017-02-05 20:47:49.69237+01 | 1486324069.69237 | pgbench_accounts_pkey |       2246197248

 2017-02-05 20:47:50.772815+01 | 1486324070.77281 | pgbench_branches_pkey |            40960
 2017-02-05 20:47:50.772815+01 | 1486324070.77281 | pgbench_tellers_pkey  |           245760
 2017-02-05 20:47:50.772815+01 | 1486324070.77281 | pgbench_accounts_pkey |       2246197248

 2017-02-05 20:47:51.847501+01 | 1486324071.8475 | pgbench_branches_pkey |            40960
 2017-02-05 20:47:51.847501+01 | 1486324071.8475 | pgbench_tellers_pkey  |           245760
 2017-02-05 20:47:51.847501+01 | 1486324071.8475 | pgbench_accounts_pkey |       2246197248

 2017-02-05 20:47:52.922562+01 | 1486324072.92256 | pgbench_branches_pkey |            40960
 2017-02-05 20:47:52.922562+01 | 1486324072.92256 | pgbench_tellers_pkey  |           245760
 2017-02-05 20:47:52.922562+01 | 1486324072.92256 | pgbench_accounts_pkey |       2246197248

 2017-02-05 20:47:53.995333+01 | 1486324073.99533 | pgbench_branches_pkey |            40960
 2017-02-05 20:47:53.995333+01 | 1486324073.99533 | pgbench_tellers_pkey  |           245760
 2017-02-05 20:47:53.995333+01 | 1486324073.99533 | pgbench_accounts_pkey |       2246197248

 2017-02-05 20:47:55.072936+01 | 1486324075.07294 | pgbench_branches_pkey |            40960
 2017-02-05 20:47:55.072936+01 | 1486324075.07294 | pgbench_tellers_pkey  |           245760
 2017-02-05 20:47:55.072936+01 | 1486324075.07294 | pgbench_accounts_pkey |       2246197248

 2017-02-05 20:47:56.151878+01 | 1486324076.15188 | pgbench_branches_pkey |            40960
 2017-02-05 20:47:56.151878+01 | 1486324076.15188 | pgbench_tellers_pkey  |           245760
 2017-02-05 20:47:56.151878+01 | 1486324076.15188 | pgbench_accounts_pkey |       2246197248

 2017-02-05 20:47:57.227151+01 | 1486324077.22715 | pgbench_branches_pkey |            40960
 2017-02-05 20:47:57.227151+01 | 1486324077.22715 | pgbench_tellers_pkey  |           245760
 2017-02-05 20:47:57.227151+01 | 1486324077.22715 | pgbench_accounts_pkey |       2246197248

 2017-02-05 20:47:58.302632+01 | 1486324078.30263 | pgbench_branches_pkey |            40960
 2017-02-05 20:47:58.302632+01 | 1486324078.30263 | pgbench_tellers_pkey  |           245760
 2017-02-05 20:47:58.302632+01 | 1486324078.30263 | pgbench_accounts_pkey |       2246197248

 2017-02-05 20:47:59.375322+01 | 1486324079.37532 | pgbench_branches_pkey |            40960
 2017-02-05 20:47:59.375322+01 | 1486324079.37532 | pgbench_tellers_pkey  |           245760
 2017-02-05 20:47:59.375322+01 | 1486324079.37532 | pgbench_accounts_pkey |       2246197248

 2017-02-05 20:48:00.448462+01 | 1486324080.44846 | pgbench_branches_pkey |            40960
 2017-02-05 20:48:00.448462+01 | 1486324080.44846 | pgbench_tellers_pkey  |           245760
 2017-02-05 20:48:00.448462+01 | 1486324080.44846 | pgbench_accounts_pkey |       2246197248

 2017-02-05 20:48:01.529379+01 | 1486324081.52938 | pgbench_branches_pkey |            40960
 2017-02-05 20:48:01.529379+01 | 1486324081.52938 | pgbench_tellers_pkey  |           245760
 2017-02-05 20:48:01.529379+01 | 1486324081.52938 | pgbench_accounts_pkey |       2246197248

 2017-02-05 20:48:02.608704+01 | 1486324082.6087 | pgbench_branches_pkey |            40960
 2017-02-05 20:48:02.608704+01 | 1486324082.6087 | pgbench_tellers_pkey  |           245760
 2017-02-05 20:48:02.608704+01 | 1486324082.6087 | pgbench_accounts_pkey |       2246197248

 2017-02-05 20:48:03.68345+01 | 1486324083.68345 | pgbench_branches_pkey |            40960
 2017-02-05 20:48:03.68345+01 | 1486324083.68345 | pgbench_tellers_pkey  |           245760
 2017-02-05 20:48:03.68345+01 | 1486324083.68345 | pgbench_accounts_pkey |       2246197248

 2017-02-05 20:48:04.75955+01 | 1486324084.75955 | pgbench_branches_pkey |            40960
 2017-02-05 20:48:04.75955+01 | 1486324084.75955 | pgbench_tellers_pkey  |           245760
 2017-02-05 20:48:04.75955+01 | 1486324084.75955 | pgbench_accounts_pkey |       2246197248

 2017-02-05 20:48:05.837418+01 | 1486324085.83742 | pgbench_branches_pkey |            40960
 2017-02-05 20:48:05.837418+01 | 1486324085.83742 | pgbench_tellers_pkey  |           245760
 2017-02-05 20:48:05.837418+01 | 1486324085.83742 | pgbench_accounts_pkey |       2246197248

 2017-02-05 20:48:06.912136+01 | 1486324086.91214 | pgbench_branches_pkey |            40960
 2017-02-05 20:48:06.912136+01 | 1486324086.91214 | pgbench_tellers_pkey  |           245760
 2017-02-05 20:48:06.912136+01 | 1486324086.91214 | pgbench_accounts_pkey |       2246197248

 2017-02-05 20:48:07.989407+01 | 1486324087.98941 | pgbench_branches_pkey |            40960
 2017-02-05 20:48:07.989407+01 | 1486324087.98941 | pgbench_tellers_pkey  |           245760
 2017-02-05 20:48:07.989407+01 | 1486324087.98941 | pgbench_accounts_pkey |       2246197248

 2017-02-05 20:48:09.063793+01 | 1486324089.06379 | pgbench_branches_pkey |            40960
 2017-02-05 20:48:09.063793+01 | 1486324089.06379 | pgbench_tellers_pkey  |           245760
 2017-02-05 20:48:09.063793+01 | 1486324089.06379 | pgbench_accounts_pkey |       2246197248

 2017-02-05 20:48:10.135309+01 | 1486324090.13531 | pgbench_branches_pkey |            40960
 2017-02-05 20:48:10.135309+01 | 1486324090.13531 | pgbench_tellers_pkey  |           245760
 2017-02-05 20:48:10.135309+01 | 1486324090.13531 | pgbench_accounts_pkey |       2246197248

 2017-02-05 20:48:11.207633+01 | 1486324091.20763 | pgbench_branches_pkey |            40960
 2017-02-05 20:48:11.207633+01 | 1486324091.20763 | pgbench_tellers_pkey  |           245760
 2017-02-05 20:48:11.207633+01 | 1486324091.20763 | pgbench_accounts_pkey |       2246197248

 2017-02-05 20:48:12.283432+01 | 1486324092.28343 | pgbench_branches_pkey |            40960
 2017-02-05 20:48:12.283432+01 | 1486324092.28343 | pgbench_tellers_pkey  |           245760
 2017-02-05 20:48:12.283432+01 | 1486324092.28343 | pgbench_accounts_pkey |       2246197248

 2017-02-05 20:48:13.363521+01 | 1486324093.36352 | pgbench_branches_pkey |            40960
 2017-02-05 20:48:13.363521+01 | 1486324093.36352 | pgbench_tellers_pkey  |           245760
 2017-02-05 20:48:13.363521+01 | 1486324093.36352 | pgbench_accounts_pkey |       2246197248

 2017-02-05 20:48:14.432129+01 | 1486324094.43213 | pgbench_branches_pkey |            40960
 2017-02-05 20:48:14.432129+01 | 1486324094.43213 | pgbench_tellers_pkey  |           245760
 2017-02-05 20:48:14.432129+01 | 1486324094.43213 | pgbench_accounts_pkey |       2246197248

 2017-02-05 20:48:15.507497+01 | 1486324095.5075 | pgbench_branches_pkey |            40960
 2017-02-05 20:48:15.507497+01 | 1486324095.5075 | pgbench_tellers_pkey  |           245760
 2017-02-05 20:48:15.507497+01 | 1486324095.5075 | pgbench_accounts_pkey |       2246197248

 2017-02-05 20:48:16.582035+01 | 1486324096.58204 | pgbench_branches_pkey |            40960
 2017-02-05 20:48:16.582035+01 | 1486324096.58204 | pgbench_tellers_pkey  |           245760
 2017-02-05 20:48:16.582035+01 | 1486324096.58204 | pgbench_accounts_pkey |       2246197248

 2017-02-05 20:48:17.66463+01 | 1486324097.66463 | pgbench_branches_pkey |            40960
 2017-02-05 20:48:17.66463+01 | 1486324097.66463 | pgbench_tellers_pkey  |           245760
 2017-02-05 20:48:17.66463+01 | 1486324097.66463 | pgbench_accounts_pkey |       2246197248

 2017-02-05 20:48:18.742165+01 | 1486324098.74217 | pgbench_branches_pkey |            40960
 2017-02-05 20:48:18.742165+01 | 1486324098.74217 | pgbench_tellers_pkey  |           245760
 2017-02-05 20:48:18.742165+01 | 1486324098.74217 | pgbench_accounts_pkey |       2246197248

 2017-02-05 20:48:19.817741+01 | 1486324099.81774 | pgbench_branches_pkey |            40960
 2017-02-05 20:48:19.817741+01 | 1486324099.81774 | pgbench_tellers_pkey  |           245760
 2017-02-05 20:48:19.817741+01 | 1486324099.81774 | pgbench_accounts_pkey |       2246197248

 2017-02-05 20:48:20.894638+01 | 1486324100.89464 | pgbench_branches_pkey |            40960
 2017-02-05 20:48:20.894638+01 | 1486324100.89464 | pgbench_tellers_pkey  |           245760
 2017-02-05 20:48:20.894638+01 | 1486324100.89464 | pgbench_accounts_pkey |       2246197248

 2017-02-05 20:48:21.968962+01 | 1486324101.96896 | pgbench_branches_pkey |            40960
 2017-02-05 20:48:21.968962+01 | 1486324101.96896 | pgbench_tellers_pkey  |           245760
 2017-02-05 20:48:21.968962+01 | 1486324101.96896 | pgbench_accounts_pkey |       2246197248

 2017-02-05 20:48:23.044452+01 | 1486324103.04445 | pgbench_branches_pkey |            40960
 2017-02-05 20:48:23.044452+01 | 1486324103.04445 | pgbench_tellers_pkey  |           245760
 2017-02-05 20:48:23.044452+01 | 1486324103.04445 | pgbench_accounts_pkey |       2246197248

 2017-02-05 20:48:24.120205+01 | 1486324104.1202 | pgbench_branches_pkey |            40960
 2017-02-05 20:48:24.120205+01 | 1486324104.1202 | pgbench_tellers_pkey  |           245760
 2017-02-05 20:48:24.120205+01 | 1486324104.1202 | pgbench_accounts_pkey |       2246197248

 2017-02-05 20:48:25.196739+01 | 1486324105.19674 | pgbench_branches_pkey |            40960
 2017-02-05 20:48:25.196739+01 | 1486324105.19674 | pgbench_tellers_pkey  |           245760
 2017-02-05 20:48:25.196739+01 | 1486324105.19674 | pgbench_accounts_pkey |       2246197248

 2017-02-05 20:48:26.279308+01 | 1486324106.27931 | pgbench_branches_pkey |            40960
 2017-02-05 20:48:26.279308+01 | 1486324106.27931 | pgbench_tellers_pkey  |           245760
 2017-02-05 20:48:26.279308+01 | 1486324106.27931 | pgbench_accounts_pkey |       2246197248

 2017-02-05 20:48:27.35626+01 | 1486324107.35626 | pgbench_branches_pkey |            40960
 2017-02-05 20:48:27.35626+01 | 1486324107.35626 | pgbench_tellers_pkey  |           245760
 2017-02-05 20:48:27.35626+01 | 1486324107.35626 | pgbench_accounts_pkey |       2246197248

 2017-02-05 20:48:28.428335+01 | 1486324108.42833 | pgbench_branches_pkey |            40960
 2017-02-05 20:48:28.428335+01 | 1486324108.42833 | pgbench_tellers_pkey  |           245760
 2017-02-05 20:48:28.428335+01 | 1486324108.42833 | pgbench_accounts_pkey |       2246197248

 2017-02-05 20:48:29.503425+01 | 1486324109.50342 | pgbench_branches_pkey |            40960
 2017-02-05 20:48:29.503425+01 | 1486324109.50342 | pgbench_tellers_pkey  |           245760
 2017-02-05 20:48:29.503425+01 | 1486324109.50342 | pgbench_accounts_pkey |       2246197248

 2017-02-05 20:48:30.579304+01 | 1486324110.5793 | pgbench_branches_pkey |            40960
 2017-02-05 20:48:30.579304+01 | 1486324110.5793 | pgbench_tellers_pkey  |           245760
 2017-02-05 20:48:30.579304+01 | 1486324110.5793 | pgbench_accounts_pkey |       2246197248

 2017-02-05 20:48:31.64589+01 | 1486324111.64589 | pgbench_branches_pkey |            40960
 2017-02-05 20:48:31.64589+01 | 1486324111.64589 | pgbench_tellers_pkey  |           245760
 2017-02-05 20:48:31.64589+01 | 1486324111.64589 | pgbench_accounts_pkey |       2246197248

 2017-02-05 20:48:32.72695+01 | 1486324112.72695 | pgbench_branches_pkey |            40960
 2017-02-05 20:48:32.72695+01 | 1486324112.72695 | pgbench_tellers_pkey  |           245760
 2017-02-05 20:48:32.72695+01 | 1486324112.72695 | pgbench_accounts_pkey |       2246197248

 2017-02-05 20:48:33.806218+01 | 1486324113.80622 | pgbench_branches_pkey |            40960
 2017-02-05 20:48:33.806218+01 | 1486324113.80622 | pgbench_tellers_pkey  |           245760
 2017-02-05 20:48:33.806218+01 | 1486324113.80622 | pgbench_accounts_pkey |       2246197248

 2017-02-05 20:48:34.882971+01 | 1486324114.88297 | pgbench_branches_pkey |            40960
 2017-02-05 20:48:34.882971+01 | 1486324114.88297 | pgbench_tellers_pkey  |           245760
 2017-02-05 20:48:34.882971+01 | 1486324114.88297 | pgbench_accounts_pkey |       2246197248

 2017-02-05 20:48:35.956819+01 | 1486324115.95682 | pgbench_branches_pkey |            40960
 2017-02-05 20:48:35.956819+01 | 1486324115.95682 | pgbench_tellers_pkey  |           245760
 2017-02-05 20:48:35.956819+01 | 1486324115.95682 | pgbench_accounts_pkey |       2246197248

 2017-02-05 20:48:37.034277+01 | 1486324117.03428 | pgbench_branches_pkey |            40960
 2017-02-05 20:48:37.034277+01 | 1486324117.03428 | pgbench_tellers_pkey  |           245760
 2017-02-05 20:48:37.034277+01 | 1486324117.03428 | pgbench_accounts_pkey |       2246197248

 2017-02-05 20:48:38.106205+01 | 1486324118.1062 | pgbench_branches_pkey |            40960
 2017-02-05 20:48:38.106205+01 | 1486324118.1062 | pgbench_tellers_pkey  |           245760
 2017-02-05 20:48:38.106205+01 | 1486324118.1062 | pgbench_accounts_pkey |       2246197248

 2017-02-05 20:48:39.18394+01 | 1486324119.18394 | pgbench_branches_pkey |            40960
 2017-02-05 20:48:39.18394+01 | 1486324119.18394 | pgbench_tellers_pkey  |           245760
 2017-02-05 20:48:39.18394+01 | 1486324119.18394 | pgbench_accounts_pkey |       2246197248

 2017-02-05 20:48:40.260667+01 | 1486324120.26067 | pgbench_branches_pkey |            40960
 2017-02-05 20:48:40.260667+01 | 1486324120.26067 | pgbench_tellers_pkey  |           245760
 2017-02-05 20:48:40.260667+01 | 1486324120.26067 | pgbench_accounts_pkey |       2246197248

 2017-02-05 20:48:41.332813+01 | 1486324121.33281 | pgbench_branches_pkey |            40960
 2017-02-05 20:48:41.332813+01 | 1486324121.33281 | pgbench_tellers_pkey  |           245760
 2017-02-05 20:48:41.332813+01 | 1486324121.33281 | pgbench_accounts_pkey |       2246197248

 2017-02-05 20:48:42.406896+01 | 1486324122.4069 | pgbench_branches_pkey |            40960
 2017-02-05 20:48:42.406896+01 | 1486324122.4069 | pgbench_tellers_pkey  |           245760
 2017-02-05 20:48:42.406896+01 | 1486324122.4069 | pgbench_accounts_pkey |       2246197248

 2017-02-05 20:48:43.482978+01 | 1486324123.48298 | pgbench_branches_pkey |            40960
 2017-02-05 20:48:43.482978+01 | 1486324123.48298 | pgbench_tellers_pkey  |           245760
 2017-02-05 20:48:43.482978+01 | 1486324123.48298 | pgbench_accounts_pkey |       2246197248

 2017-02-05 20:48:44.562916+01 | 1486324124.56292 | pgbench_branches_pkey |            40960
 2017-02-05 20:48:44.562916+01 | 1486324124.56292 | pgbench_tellers_pkey  |           245760
 2017-02-05 20:48:44.562916+01 | 1486324124.56292 | pgbench_accounts_pkey |       2246197248

 2017-02-05 20:48:45.637856+01 | 1486324125.63786 | pgbench_branches_pkey |            40960
 2017-02-05 20:48:45.637856+01 | 1486324125.63786 | pgbench_tellers_pkey  |           245760
 2017-02-05 20:48:45.637856+01 | 1486324125.63786 | pgbench_accounts_pkey |       2246197248

 2017-02-05 20:48:46.710256+01 | 1486324126.71026 | pgbench_branches_pkey |            40960
 2017-02-05 20:48:46.710256+01 | 1486324126.71026 | pgbench_tellers_pkey  |           245760
 2017-02-05 20:48:46.710256+01 | 1486324126.71026 | pgbench_accounts_pkey |       2246197248

 2017-02-05 20:48:47.78807+01 | 1486324127.78807 | pgbench_branches_pkey |            40960
 2017-02-05 20:48:47.78807+01 | 1486324127.78807 | pgbench_tellers_pkey  |           245760
 2017-02-05 20:48:47.78807+01 | 1486324127.78807 | pgbench_accounts_pkey |       2246197248

 2017-02-05 20:48:48.861684+01 | 1486324128.86168 | pgbench_branches_pkey |            40960
 2017-02-05 20:48:48.861684+01 | 1486324128.86168 | pgbench_tellers_pkey  |           245760
 2017-02-05 20:48:48.861684+01 | 1486324128.86168 | pgbench_accounts_pkey |       2246197248

 2017-02-05 20:48:49.937459+01 | 1486324129.93746 | pgbench_branches_pkey |            40960
 2017-02-05 20:48:49.937459+01 | 1486324129.93746 | pgbench_tellers_pkey  |           245760
 2017-02-05 20:48:49.937459+01 | 1486324129.93746 | pgbench_accounts_pkey |       2246197248

 2017-02-05 20:48:51.013681+01 | 1486324131.01368 | pgbench_branches_pkey |            40960
 2017-02-05 20:48:51.013681+01 | 1486324131.01368 | pgbench_tellers_pkey  |           245760
 2017-02-05 20:48:51.013681+01 | 1486324131.01368 | pgbench_accounts_pkey |       2246197248

 2017-02-05 20:48:52.092004+01 | 1486324132.092 | pgbench_branches_pkey |            40960
 2017-02-05 20:48:52.092004+01 | 1486324132.092 | pgbench_tellers_pkey  |           245760
 2017-02-05 20:48:52.092004+01 | 1486324132.092 | pgbench_accounts_pkey |       2246197248

 2017-02-05 20:48:53.170708+01 | 1486324133.17071 | pgbench_branches_pkey |            40960
 2017-02-05 20:48:53.170708+01 | 1486324133.17071 | pgbench_tellers_pkey  |           245760
 2017-02-05 20:48:53.170708+01 | 1486324133.17071 | pgbench_accounts_pkey |       2246197248

 2017-02-05 20:48:54.243776+01 | 1486324134.24378 | pgbench_branches_pkey |            40960
 2017-02-05 20:48:54.243776+01 | 1486324134.24378 | pgbench_tellers_pkey  |           245760
 2017-02-05 20:48:54.243776+01 | 1486324134.24378 | pgbench_accounts_pkey |       2246197248

 2017-02-05 20:48:55.326014+01 | 1486324135.32601 | pgbench_branches_pkey |            40960
 2017-02-05 20:48:55.326014+01 | 1486324135.32601 | pgbench_tellers_pkey  |           245760
 2017-02-05 20:48:55.326014+01 | 1486324135.32601 | pgbench_accounts_pkey |       2246197248

 2017-02-05 20:48:56.404698+01 | 1486324136.4047 | pgbench_branches_pkey |            40960
 2017-02-05 20:48:56.404698+01 | 1486324136.4047 | pgbench_tellers_pkey  |           245760
 2017-02-05 20:48:56.404698+01 | 1486324136.4047 | pgbench_accounts_pkey |       2246197248

 2017-02-05 20:48:57.487898+01 | 1486324137.4879 | pgbench_branches_pkey |            40960
 2017-02-05 20:48:57.487898+01 | 1486324137.4879 | pgbench_tellers_pkey  |           245760
 2017-02-05 20:48:57.487898+01 | 1486324137.4879 | pgbench_accounts_pkey |       2246197248

 2017-02-05 20:48:58.579529+01 | 1486324138.57953 | pgbench_branches_pkey |            40960
 2017-02-05 20:48:58.579529+01 | 1486324138.57953 | pgbench_tellers_pkey  |           245760
 2017-02-05 20:48:58.579529+01 | 1486324138.57953 | pgbench_accounts_pkey |       2246197248

 2017-02-05 20:48:59.65738+01 | 1486324139.65738 | pgbench_branches_pkey |            40960
 2017-02-05 20:48:59.65738+01 | 1486324139.65738 | pgbench_tellers_pkey  |           245760
 2017-02-05 20:48:59.65738+01 | 1486324139.65738 | pgbench_accounts_pkey |       2246197248

 2017-02-05 20:49:00.737941+01 | 1486324140.73794 | pgbench_branches_pkey |            40960
 2017-02-05 20:49:00.737941+01 | 1486324140.73794 | pgbench_tellers_pkey  |           245760
 2017-02-05 20:49:00.737941+01 | 1486324140.73794 | pgbench_accounts_pkey |       2246197248

 2017-02-05 20:49:01.813726+01 | 1486324141.81373 | pgbench_branches_pkey |            40960
 2017-02-05 20:49:01.813726+01 | 1486324141.81373 | pgbench_tellers_pkey  |           245760
 2017-02-05 20:49:01.813726+01 | 1486324141.81373 | pgbench_accounts_pkey |       2246197248

 2017-02-05 20:49:02.888439+01 | 1486324142.88844 | pgbench_branches_pkey |            40960
 2017-02-05 20:49:02.888439+01 | 1486324142.88844 | pgbench_tellers_pkey  |           245760
 2017-02-05 20:49:02.888439+01 | 1486324142.88844 | pgbench_accounts_pkey |       2246197248

 2017-02-05 20:49:03.962871+01 | 1486324143.96287 | pgbench_branches_pkey |            40960
 2017-02-05 20:49:03.962871+01 | 1486324143.96287 | pgbench_tellers_pkey  |           245760
 2017-02-05 20:49:03.962871+01 | 1486324143.96287 | pgbench_accounts_pkey |       2246197248

 2017-02-05 20:49:05.038767+01 | 1486324145.03877 | pgbench_branches_pkey |            40960
 2017-02-05 20:49:05.038767+01 | 1486324145.03877 | pgbench_tellers_pkey  |           245760
 2017-02-05 20:49:05.038767+01 | 1486324145.03877 | pgbench_accounts_pkey |       2246197248

 2017-02-05 20:49:06.114562+01 | 1486324146.11456 | pgbench_branches_pkey |            40960
 2017-02-05 20:49:06.114562+01 | 1486324146.11456 | pgbench_tellers_pkey  |           245760
 2017-02-05 20:49:06.114562+01 | 1486324146.11456 | pgbench_accounts_pkey |       2246197248

 2017-02-05 20:49:07.192457+01 | 1486324147.19246 | pgbench_branches_pkey |            40960
 2017-02-05 20:49:07.192457+01 | 1486324147.19246 | pgbench_tellers_pkey  |           245760
 2017-02-05 20:49:07.192457+01 | 1486324147.19246 | pgbench_accounts_pkey |       2246197248

 2017-02-05 20:49:08.266364+01 | 1486324148.26636 | pgbench_branches_pkey |            40960
 2017-02-05 20:49:08.266364+01 | 1486324148.26636 | pgbench_tellers_pkey  |           245760
 2017-02-05 20:49:08.266364+01 | 1486324148.26636 | pgbench_accounts_pkey |       2246197248

 2017-02-05 20:49:09.339898+01 | 1486324149.3399 | pgbench_branches_pkey |            40960
 2017-02-05 20:49:09.339898+01 | 1486324149.3399 | pgbench_tellers_pkey  |           245760
 2017-02-05 20:49:09.339898+01 | 1486324149.3399 | pgbench_accounts_pkey |       2246197248

 2017-02-05 20:49:10.414511+01 | 1486324150.41451 | pgbench_branches_pkey |            40960
 2017-02-05 20:49:10.414511+01 | 1486324150.41451 | pgbench_tellers_pkey  |           245760
 2017-02-05 20:49:10.414511+01 | 1486324150.41451 | pgbench_accounts_pkey |       2246197248

 2017-02-05 20:49:11.490251+01 | 1486324151.49025 | pgbench_branches_pkey |            40960
 2017-02-05 20:49:11.490251+01 | 1486324151.49025 | pgbench_tellers_pkey  |           245760
 2017-02-05 20:49:11.490251+01 | 1486324151.49025 | pgbench_accounts_pkey |       2246197248

 2017-02-05 20:49:12.567819+01 | 1486324152.56782 | pgbench_branches_pkey |            40960
 2017-02-05 20:49:12.567819+01 | 1486324152.56782 | pgbench_tellers_pkey  |           245760
 2017-02-05 20:49:12.567819+01 | 1486324152.56782 | pgbench_accounts_pkey |       2246197248

 2017-02-05 20:49:13.645311+01 | 1486324153.64531 | pgbench_branches_pkey |            40960
 2017-02-05 20:49:13.645311+01 | 1486324153.64531 | pgbench_tellers_pkey  |           245760
 2017-02-05 20:49:13.645311+01 | 1486324153.64531 | pgbench_accounts_pkey |       2246197248

 2017-02-05 20:49:14.726955+01 | 1486324154.72695 | pgbench_branches_pkey |            40960
 2017-02-05 20:49:14.726955+01 | 1486324154.72695 | pgbench_tellers_pkey  |           245760
 2017-02-05 20:49:14.726955+01 | 1486324154.72695 | pgbench_accounts_pkey |       2246197248

 2017-02-05 20:49:15.799352+01 | 1486324155.79935 | pgbench_branches_pkey |            40960
 2017-02-05 20:49:15.799352+01 | 1486324155.79935 | pgbench_tellers_pkey  |           245760
 2017-02-05 20:49:15.799352+01 | 1486324155.79935 | pgbench_accounts_pkey |       2246197248

 2017-02-05 20:49:16.876411+01 | 1486324156.87641 | pgbench_branches_pkey |            40960
 2017-02-05 20:49:16.876411+01 | 1486324156.87641 | pgbench_tellers_pkey  |           245760
 2017-02-05 20:49:16.876411+01 | 1486324156.87641 | pgbench_accounts_pkey |       2246197248

 2017-02-05 20:49:17.950506+01 | 1486324157.95051 | pgbench_branches_pkey |            40960
 2017-02-05 20:49:17.950506+01 | 1486324157.95051 | pgbench_tellers_pkey  |           245760
 2017-02-05 20:49:17.950506+01 | 1486324157.95051 | pgbench_accounts_pkey |       2246197248

 2017-02-05 20:49:19.027701+01 | 1486324159.0277 | pgbench_branches_pkey |            40960
 2017-02-05 20:49:19.027701+01 | 1486324159.0277 | pgbench_tellers_pkey  |           245760
 2017-02-05 20:49:19.027701+01 | 1486324159.0277 | pgbench_accounts_pkey |       2246197248

 2017-02-05 20:49:20.101251+01 | 1486324160.10125 | pgbench_branches_pkey |            40960
 2017-02-05 20:49:20.101251+01 | 1486324160.10125 | pgbench_tellers_pkey  |           245760
 2017-02-05 20:49:20.101251+01 | 1486324160.10125 | pgbench_accounts_pkey |       2246197248

 2017-02-05 20:49:21.177753+01 | 1486324161.17775 | pgbench_branches_pkey |            40960
 2017-02-05 20:49:21.177753+01 | 1486324161.17775 | pgbench_tellers_pkey  |           245760
 2017-02-05 20:49:21.177753+01 | 1486324161.17775 | pgbench_accounts_pkey |       2246197248

 2017-02-05 20:49:22.256815+01 | 1486324162.25681 | pgbench_branches_pkey |            40960
 2017-02-05 20:49:22.256815+01 | 1486324162.25681 | pgbench_tellers_pkey  |           245760
 2017-02-05 20:49:22.256815+01 | 1486324162.25681 | pgbench_accounts_pkey |       2246197248

 2017-02-05 20:49:23.33207+01 | 1486324163.33207 | pgbench_branches_pkey |            40960
 2017-02-05 20:49:23.33207+01 | 1486324163.33207 | pgbench_tellers_pkey  |           245760
 2017-02-05 20:49:23.33207+01 | 1486324163.33207 | pgbench_accounts_pkey |       2246197248

 2017-02-05 20:49:24.410648+01 | 1486324164.41065 | pgbench_branches_pkey |            40960
 2017-02-05 20:49:24.410648+01 | 1486324164.41065 | pgbench_tellers_pkey  |           245760
 2017-02-05 20:49:24.410648+01 | 1486324164.41065 | pgbench_accounts_pkey |       2246197248

 2017-02-05 20:49:25.485211+01 | 1486324165.48521 | pgbench_branches_pkey |            40960
 2017-02-05 20:49:25.485211+01 | 1486324165.48521 | pgbench_tellers_pkey  |           245760
 2017-02-05 20:49:25.485211+01 | 1486324165.48521 | pgbench_accounts_pkey |       2246197248

 2017-02-05 20:49:26.565518+01 | 1486324166.56552 | pgbench_branches_pkey |            40960
 2017-02-05 20:49:26.565518+01 | 1486324166.56552 | pgbench_tellers_pkey  |           245760
 2017-02-05 20:49:26.565518+01 | 1486324166.56552 | pgbench_accounts_pkey |       2246197248

 2017-02-05 20:49:27.638075+01 | 1486324167.63808 | pgbench_branches_pkey |            40960
 2017-02-05 20:49:27.638075+01 | 1486324167.63808 | pgbench_tellers_pkey  |           245760
 2017-02-05 20:49:27.638075+01 | 1486324167.63808 | pgbench_accounts_pkey |       2246197248

 2017-02-05 20:49:28.711809+01 | 1486324168.71181 | pgbench_branches_pkey |            40960
 2017-02-05 20:49:28.711809+01 | 1486324168.71181 | pgbench_tellers_pkey  |           245760
 2017-02-05 20:49:28.711809+01 | 1486324168.71181 | pgbench_accounts_pkey |       2246197248

 2017-02-05 20:49:29.789387+01 | 1486324169.78939 | pgbench_branches_pkey |            40960
 2017-02-05 20:49:29.789387+01 | 1486324169.78939 | pgbench_tellers_pkey  |           245760
 2017-02-05 20:49:29.789387+01 | 1486324169.78939 | pgbench_accounts_pkey |       2246197248

 2017-02-05 20:49:30.869271+01 | 1486324170.86927 | pgbench_branches_pkey |            40960
 2017-02-05 20:49:30.869271+01 | 1486324170.86927 | pgbench_tellers_pkey  |           245760
 2017-02-05 20:49:30.869271+01 | 1486324170.86927 | pgbench_accounts_pkey |       2246197248

 2017-02-05 20:49:31.94259+01 | 1486324171.94259 | pgbench_branches_pkey |            40960
 2017-02-05 20:49:31.94259+01 | 1486324171.94259 | pgbench_tellers_pkey  |           245760
 2017-02-05 20:49:31.94259+01 | 1486324171.94259 | pgbench_accounts_pkey |       2246197248

 2017-02-05 20:49:33.019371+01 | 1486324173.01937 | pgbench_branches_pkey |            40960
 2017-02-05 20:49:33.019371+01 | 1486324173.01937 | pgbench_tellers_pkey  |           245760
 2017-02-05 20:49:33.019371+01 | 1486324173.01937 | pgbench_accounts_pkey |       2246197248

 2017-02-05 20:49:34.091493+01 | 1486324174.09149 | pgbench_branches_pkey |            40960
 2017-02-05 20:49:34.091493+01 | 1486324174.09149 | pgbench_tellers_pkey  |           245760
 2017-02-05 20:49:34.091493+01 | 1486324174.09149 | pgbench_accounts_pkey |       2246197248

 2017-02-05 20:49:35.158931+01 | 1486324175.15893 | pgbench_branches_pkey |            40960
 2017-02-05 20:49:35.158931+01 | 1486324175.15893 | pgbench_tellers_pkey  |           245760
 2017-02-05 20:49:35.158931+01 | 1486324175.15893 | pgbench_accounts_pkey |       2246197248

 2017-02-05 20:49:36.233051+01 | 1486324176.23305 | pgbench_branches_pkey |            40960
 2017-02-05 20:49:36.233051+01 | 1486324176.23305 | pgbench_tellers_pkey  |           245760
 2017-02-05 20:49:36.233051+01 | 1486324176.23305 | pgbench_accounts_pkey |       2246197248

 2017-02-05 20:49:37.309107+01 | 1486324177.30911 | pgbench_branches_pkey |            40960
 2017-02-05 20:49:37.309107+01 | 1486324177.30911 | pgbench_tellers_pkey  |           245760
 2017-02-05 20:49:37.309107+01 | 1486324177.30911 | pgbench_accounts_pkey |       2246197248

 2017-02-05 20:49:38.383426+01 | 1486324178.38343 | pgbench_branches_pkey |            40960
 2017-02-05 20:49:38.383426+01 | 1486324178.38343 | pgbench_tellers_pkey  |           245760
 2017-02-05 20:49:38.383426+01 | 1486324178.38343 | pgbench_accounts_pkey |       2246197248

 2017-02-05 20:49:39.461606+01 | 1486324179.46161 | pgbench_branches_pkey |            40960
 2017-02-05 20:49:39.461606+01 | 1486324179.46161 | pgbench_tellers_pkey  |           245760
 2017-02-05 20:49:39.461606+01 | 1486324179.46161 | pgbench_accounts_pkey |       2246197248

 2017-02-05 20:49:40.534687+01 | 1486324180.53469 | pgbench_branches_pkey |            40960
 2017-02-05 20:49:40.534687+01 | 1486324180.53469 | pgbench_tellers_pkey  |           245760
 2017-02-05 20:49:40.534687+01 | 1486324180.53469 | pgbench_accounts_pkey |       2246197248

 2017-02-05 20:49:41.615754+01 | 1486324181.61575 | pgbench_branches_pkey |            40960
 2017-02-05 20:49:41.615754+01 | 1486324181.61575 | pgbench_tellers_pkey  |           245760
 2017-02-05 20:49:41.615754+01 | 1486324181.61575 | pgbench_accounts_pkey |       2246197248

 2017-02-05 20:49:42.693727+01 | 1486324182.69373 | pgbench_branches_pkey |            40960
 2017-02-05 20:49:42.693727+01 | 1486324182.69373 | pgbench_tellers_pkey  |           245760
 2017-02-05 20:49:42.693727+01 | 1486324182.69373 | pgbench_accounts_pkey |       2246197248

 2017-02-05 20:49:43.769451+01 | 1486324183.76945 | pgbench_branches_pkey |            40960
 2017-02-05 20:49:43.769451+01 | 1486324183.76945 | pgbench_tellers_pkey  |           245760
 2017-02-05 20:49:43.769451+01 | 1486324183.76945 | pgbench_accounts_pkey |       2246197248

 2017-02-05 20:49:44.848015+01 | 1486324184.84802 | pgbench_branches_pkey |            40960
 2017-02-05 20:49:44.848015+01 | 1486324184.84802 | pgbench_tellers_pkey  |           245760
 2017-02-05 20:49:44.848015+01 | 1486324184.84802 | pgbench_accounts_pkey |       2246197248

 2017-02-05 20:49:45.923066+01 | 1486324185.92307 | pgbench_branches_pkey |            40960
 2017-02-05 20:49:45.923066+01 | 1486324185.92307 | pgbench_tellers_pkey  |           245760
 2017-02-05 20:49:45.923066+01 | 1486324185.92307 | pgbench_accounts_pkey |       2246197248

 2017-02-05 20:49:47.003087+01 | 1486324187.00309 | pgbench_branches_pkey |            40960
 2017-02-05 20:49:47.003087+01 | 1486324187.00309 | pgbench_tellers_pkey  |           245760
 2017-02-05 20:49:47.003087+01 | 1486324187.00309 | pgbench_accounts_pkey |       2246197248

 2017-02-05 20:49:48.077916+01 | 1486324188.07792 | pgbench_branches_pkey |            40960
 2017-02-05 20:49:48.077916+01 | 1486324188.07792 | pgbench_tellers_pkey  |           245760
 2017-02-05 20:49:48.077916+01 | 1486324188.07792 | pgbench_accounts_pkey |       2246197248

 2017-02-05 20:49:49.155049+01 | 1486324189.15505 | pgbench_branches_pkey |            40960
 2017-02-05 20:49:49.155049+01 | 1486324189.15505 | pgbench_tellers_pkey  |           245760
 2017-02-05 20:49:49.155049+01 | 1486324189.15505 | pgbench_accounts_pkey |       2246197248

 2017-02-05 20:49:50.230686+01 | 1486324190.23069 | pgbench_branches_pkey |            40960
 2017-02-05 20:49:50.230686+01 | 1486324190.23069 | pgbench_tellers_pkey  |           245760
 2017-02-05 20:49:50.230686+01 | 1486324190.23069 | pgbench_accounts_pkey |       2246197248

 2017-02-05 20:49:51.308098+01 | 1486324191.3081 | pgbench_branches_pkey |            40960
 2017-02-05 20:49:51.308098+01 | 1486324191.3081 | pgbench_tellers_pkey  |           245760
 2017-02-05 20:49:51.308098+01 | 1486324191.3081 | pgbench_accounts_pkey |       2246197248

 2017-02-05 20:49:52.383252+01 | 1486324192.38325 | pgbench_branches_pkey |            40960
 2017-02-05 20:49:52.383252+01 | 1486324192.38325 | pgbench_tellers_pkey  |           245760
 2017-02-05 20:49:52.383252+01 | 1486324192.38325 | pgbench_accounts_pkey |       2246197248

 2017-02-05 20:49:53.454691+01 | 1486324193.45469 | pgbench_branches_pkey |            40960
 2017-02-05 20:49:53.454691+01 | 1486324193.45469 | pgbench_tellers_pkey  |           245760
 2017-02-05 20:49:53.454691+01 | 1486324193.45469 | pgbench_accounts_pkey |       2246197248

 2017-02-05 20:49:54.532867+01 | 1486324194.53287 | pgbench_branches_pkey |            40960
 2017-02-05 20:49:54.532867+01 | 1486324194.53287 | pgbench_tellers_pkey  |           245760
 2017-02-05 20:49:54.532867+01 | 1486324194.53287 | pgbench_accounts_pkey |       2246197248

 2017-02-05 20:49:55.61206+01 | 1486324195.61206 | pgbench_branches_pkey |            40960
 2017-02-05 20:49:55.61206+01 | 1486324195.61206 | pgbench_tellers_pkey  |           245760
 2017-02-05 20:49:55.61206+01 | 1486324195.61206 | pgbench_accounts_pkey |       2246197248

 2017-02-05 20:49:56.685608+01 | 1486324196.68561 | pgbench_branches_pkey |            40960
 2017-02-05 20:49:56.685608+01 | 1486324196.68561 | pgbench_tellers_pkey  |           245760
 2017-02-05 20:49:56.685608+01 | 1486324196.68561 | pgbench_accounts_pkey |       2246197248

 2017-02-05 20:49:57.759887+01 | 1486324197.75989 | pgbench_branches_pkey |            40960
 2017-02-05 20:49:57.759887+01 | 1486324197.75989 | pgbench_tellers_pkey  |           245760
 2017-02-05 20:49:57.759887+01 | 1486324197.75989 | pgbench_accounts_pkey |       2246197248

 2017-02-05 20:49:58.826421+01 | 1486324198.82642 | pgbench_branches_pkey |            40960
 2017-02-05 20:49:58.826421+01 | 1486324198.82642 | pgbench_tellers_pkey  |           245760
 2017-02-05 20:49:58.826421+01 | 1486324198.82642 | pgbench_accounts_pkey |       2246197248

 2017-02-05 20:49:59.903993+01 | 1486324199.90399 | pgbench_branches_pkey |            40960
 2017-02-05 20:49:59.903993+01 | 1486324199.90399 | pgbench_tellers_pkey  |           245760
 2017-02-05 20:49:59.903993+01 | 1486324199.90399 | pgbench_accounts_pkey |       2246197248

 2017-02-05 20:50:00.981254+01 | 1486324200.98125 | pgbench_branches_pkey |            40960
 2017-02-05 20:50:00.981254+01 | 1486324200.98125 | pgbench_tellers_pkey  |           245760
 2017-02-05 20:50:00.981254+01 | 1486324200.98125 | pgbench_accounts_pkey |       2246197248

 2017-02-05 20:50:02.056077+01 | 1486324202.05608 | pgbench_branches_pkey |            40960
 2017-02-05 20:50:02.056077+01 | 1486324202.05608 | pgbench_tellers_pkey  |           245760
 2017-02-05 20:50:02.056077+01 | 1486324202.05608 | pgbench_accounts_pkey |       2246197248

 2017-02-05 20:50:03.132116+01 | 1486324203.13212 | pgbench_branches_pkey |            40960
 2017-02-05 20:50:03.132116+01 | 1486324203.13212 | pgbench_tellers_pkey  |           245760
 2017-02-05 20:50:03.132116+01 | 1486324203.13212 | pgbench_accounts_pkey |       2246197248

 2017-02-05 20:50:04.211256+01 | 1486324204.21126 | pgbench_branches_pkey |            40960
 2017-02-05 20:50:04.211256+01 | 1486324204.21126 | pgbench_tellers_pkey  |           245760
 2017-02-05 20:50:04.211256+01 | 1486324204.21126 | pgbench_accounts_pkey |       2246197248

 2017-02-05 20:50:05.284101+01 | 1486324205.2841 | pgbench_branches_pkey |            40960
 2017-02-05 20:50:05.284101+01 | 1486324205.2841 | pgbench_tellers_pkey  |           245760
 2017-02-05 20:50:05.284101+01 | 1486324205.2841 | pgbench_accounts_pkey |       2246197248

 2017-02-05 20:50:06.357675+01 | 1486324206.35768 | pgbench_branches_pkey |            40960
 2017-02-05 20:50:06.357675+01 | 1486324206.35768 | pgbench_tellers_pkey  |           245760
 2017-02-05 20:50:06.357675+01 | 1486324206.35768 | pgbench_accounts_pkey |       2246197248

 2017-02-05 20:50:07.432658+01 | 1486324207.43266 | pgbench_branches_pkey |            40960
 2017-02-05 20:50:07.432658+01 | 1486324207.43266 | pgbench_tellers_pkey  |           245760
 2017-02-05 20:50:07.432658+01 | 1486324207.43266 | pgbench_accounts_pkey |       2246197248

 2017-02-05 20:50:08.509357+01 | 1486324208.50936 | pgbench_branches_pkey |            40960
 2017-02-05 20:50:08.509357+01 | 1486324208.50936 | pgbench_tellers_pkey  |           245760
 2017-02-05 20:50:08.509357+01 | 1486324208.50936 | pgbench_accounts_pkey |       2246197248

 2017-02-05 20:50:09.589033+01 | 1486324209.58903 | pgbench_branches_pkey |            40960
 2017-02-05 20:50:09.589033+01 | 1486324209.58903 | pgbench_tellers_pkey  |           245760
 2017-02-05 20:50:09.589033+01 | 1486324209.58903 | pgbench_accounts_pkey |       2246197248

 2017-02-05 20:50:10.662696+01 | 1486324210.6627 | pgbench_branches_pkey |            40960
 2017-02-05 20:50:10.662696+01 | 1486324210.6627 | pgbench_tellers_pkey  |           245760
 2017-02-05 20:50:10.662696+01 | 1486324210.6627 | pgbench_accounts_pkey |       2246197248

 2017-02-05 20:50:11.728009+01 | 1486324211.72801 | pgbench_branches_pkey |            40960
 2017-02-05 20:50:11.728009+01 | 1486324211.72801 | pgbench_tellers_pkey  |           245760
 2017-02-05 20:50:11.728009+01 | 1486324211.72801 | pgbench_accounts_pkey |       2246197248

 2017-02-05 20:50:12.805479+01 | 1486324212.80548 | pgbench_branches_pkey |            40960
 2017-02-05 20:50:12.805479+01 | 1486324212.80548 | pgbench_tellers_pkey  |           245760
 2017-02-05 20:50:12.805479+01 | 1486324212.80548 | pgbench_accounts_pkey |       2246197248

 2017-02-05 20:50:13.883243+01 | 1486324213.88324 | pgbench_branches_pkey |            40960
 2017-02-05 20:50:13.883243+01 | 1486324213.88324 | pgbench_tellers_pkey  |           245760
 2017-02-05 20:50:13.883243+01 | 1486324213.88324 | pgbench_accounts_pkey |       2246197248

 2017-02-05 20:50:14.960187+01 | 1486324214.96019 | pgbench_branches_pkey |            40960
 2017-02-05 20:50:14.960187+01 | 1486324214.96019 | pgbench_tellers_pkey  |           245760
 2017-02-05 20:50:14.960187+01 | 1486324214.96019 | pgbench_accounts_pkey |       2246197248

 2017-02-05 20:50:16.043325+01 | 1486324216.04332 | pgbench_branches_pkey |            40960
 2017-02-05 20:50:16.043325+01 | 1486324216.04332 | pgbench_tellers_pkey  |           245760
 2017-02-05 20:50:16.043325+01 | 1486324216.04332 | pgbench_accounts_pkey |       2246197248

 2017-02-05 20:50:17.117408+01 | 1486324217.11741 | pgbench_branches_pkey |            40960
 2017-02-05 20:50:17.117408+01 | 1486324217.11741 | pgbench_tellers_pkey  |           245760
 2017-02-05 20:50:17.117408+01 | 1486324217.11741 | pgbench_accounts_pkey |       2246197248

 2017-02-05 20:50:18.189919+01 | 1486324218.18992 | pgbench_branches_pkey |            40960
 2017-02-05 20:50:18.189919+01 | 1486324218.18992 | pgbench_tellers_pkey  |           245760
 2017-02-05 20:50:18.189919+01 | 1486324218.18992 | pgbench_accounts_pkey |       2246197248

 2017-02-05 20:50:19.273641+01 | 1486324219.27364 | pgbench_branches_pkey |            40960
 2017-02-05 20:50:19.273641+01 | 1486324219.27364 | pgbench_tellers_pkey  |           245760
 2017-02-05 20:50:19.273641+01 | 1486324219.27364 | pgbench_accounts_pkey |       2246197248

 2017-02-05 20:50:20.349091+01 | 1486324220.34909 | pgbench_branches_pkey |            40960
 2017-02-05 20:50:20.349091+01 | 1486324220.34909 | pgbench_tellers_pkey  |           245760
 2017-02-05 20:50:20.349091+01 | 1486324220.34909 | pgbench_accounts_pkey |       2246197248

 2017-02-05 20:50:21.429621+01 | 1486324221.42962 | pgbench_branches_pkey |            40960
 2017-02-05 20:50:21.429621+01 | 1486324221.42962 | pgbench_tellers_pkey  |           245760
 2017-02-05 20:50:21.429621+01 | 1486324221.42962 | pgbench_accounts_pkey |       2246197248

 2017-02-05 20:50:22.508443+01 | 1486324222.50844 | pgbench_branches_pkey |            40960
 2017-02-05 20:50:22.508443+01 | 1486324222.50844 | pgbench_tellers_pkey  |           245760
 2017-02-05 20:50:22.508443+01 | 1486324222.50844 | pgbench_accounts_pkey |       2246197248

 2017-02-05 20:50:23.582632+01 | 1486324223.58263 | pgbench_branches_pkey |            40960
 2017-02-05 20:50:23.582632+01 | 1486324223.58263 | pgbench_tellers_pkey  |           245760
 2017-02-05 20:50:23.582632+01 | 1486324223.58263 | pgbench_accounts_pkey |       2246197248

 2017-02-05 20:50:24.662491+01 | 1486324224.66249 | pgbench_branches_pkey |            40960
 2017-02-05 20:50:24.662491+01 | 1486324224.66249 | pgbench_tellers_pkey  |           245760
 2017-02-05 20:50:24.662491+01 | 1486324224.66249 | pgbench_accounts_pkey |       2246197248

 2017-02-05 20:50:25.738385+01 | 1486324225.73838 | pgbench_branches_pkey |            40960
 2017-02-05 20:50:25.738385+01 | 1486324225.73838 | pgbench_tellers_pkey  |           245760
 2017-02-05 20:50:25.738385+01 | 1486324225.73838 | pgbench_accounts_pkey |       2246197248

 2017-02-05 20:50:26.809741+01 | 1486324226.80974 | pgbench_branches_pkey |            40960
 2017-02-05 20:50:26.809741+01 | 1486324226.80974 | pgbench_tellers_pkey  |           245760
 2017-02-05 20:50:26.809741+01 | 1486324226.80974 | pgbench_accounts_pkey |       2246197248

 2017-02-05 20:50:27.878227+01 | 1486324227.87823 | pgbench_branches_pkey |            40960
 2017-02-05 20:50:27.878227+01 | 1486324227.87823 | pgbench_tellers_pkey  |           245760
 2017-02-05 20:50:27.878227+01 | 1486324227.87823 | pgbench_accounts_pkey |       2246197248

 2017-02-05 20:50:28.953826+01 | 1486324228.95383 | pgbench_branches_pkey |            40960
 2017-02-05 20:50:28.953826+01 | 1486324228.95383 | pgbench_tellers_pkey  |           245760
 2017-02-05 20:50:28.953826+01 | 1486324228.95383 | pgbench_accounts_pkey |       2246197248

