 2017-02-05 20:45:29.687018+01 | 1486323929.68702 |                 0 |              30 |                306997 |                 5976 |           26796256 |       2966400 |            28055 |        16753532 |                     0 |      12469962 | 2017-02-05 18:10:53.010055+01

 2017-02-05 20:45:30.76699+01 | 1486323930.76699 |                 0 |              30 |                306997 |                 5976 |           26796256 |       2966400 |            28055 |        16753532 |                     0 |      12471145 | 2017-02-05 18:10:53.010055+01

 2017-02-05 20:45:31.840872+01 | 1486323931.84087 |                 0 |              30 |                306997 |                 5976 |           26796256 |       2966400 |            28055 |        16753532 |                     0 |      12471892 | 2017-02-05 18:10:53.010055+01

 2017-02-05 20:45:32.915732+01 | 1486323932.91573 |                 0 |              30 |                306997 |                 5976 |           26796256 |       2966400 |            28055 |        16753532 |                     0 |      12473582 | 2017-02-05 18:10:53.010055+01

 2017-02-05 20:45:33.990794+01 | 1486323933.99079 |                 0 |              30 |                306997 |                 5976 |           26796256 |       2966400 |            28055 |        16753532 |                     0 |      12475184 | 2017-02-05 18:10:53.010055+01

 2017-02-05 20:45:35.071001+01 | 1486323935.071 |                 0 |              30 |                306997 |                 5976 |           26796256 |       2966400 |            28055 |        16753532 |                     0 |      12476755 | 2017-02-05 18:10:53.010055+01

 2017-02-05 20:45:36.151034+01 | 1486323936.15103 |                 0 |              30 |                306997 |                 5976 |           26796256 |       2966400 |            28055 |        16753532 |                     0 |      12478114 | 2017-02-05 18:10:53.010055+01

 2017-02-05 20:45:37.231056+01 | 1486323937.23106 |                 0 |              30 |                306997 |                 5976 |           26796256 |       2966400 |            28055 |        16753532 |                     0 |      12479745 | 2017-02-05 18:10:53.010055+01

 2017-02-05 20:45:38.309482+01 | 1486323938.30948 |                 0 |              30 |                306997 |                 5976 |           26796256 |       2966400 |            28055 |        16753532 |                     0 |      12481356 | 2017-02-05 18:10:53.010055+01

 2017-02-05 20:45:39.389657+01 | 1486323939.38966 |                 0 |              30 |                306997 |                 5976 |           26796256 |       2966400 |            28055 |        16753532 |                     0 |      12483112 | 2017-02-05 18:10:53.010055+01

 2017-02-05 20:45:40.467582+01 | 1486323940.46758 |                 0 |              30 |                306997 |                 5976 |           26796256 |       2966400 |            28055 |        16753532 |                     0 |      12484408 | 2017-02-05 18:10:53.010055+01

 2017-02-05 20:45:41.544069+01 | 1486323941.54407 |                 0 |              30 |                306997 |                 5976 |           26796256 |       2966400 |            28055 |        16753532 |                     0 |      12486159 | 2017-02-05 18:10:53.010055+01

 2017-02-05 20:45:42.62173+01 | 1486323942.62173 |                 0 |              30 |                306997 |                 5976 |           26796256 |       2966400 |            28055 |        16753532 |                     0 |      12487693 | 2017-02-05 18:10:53.010055+01

 2017-02-05 20:45:43.699004+01 | 1486323943.699 |                 0 |              30 |                306997 |                 5976 |           26796256 |       2966400 |            28055 |        16753532 |                     0 |      12489807 | 2017-02-05 18:10:53.010055+01

 2017-02-05 20:45:44.785226+01 | 1486323944.78523 |                 0 |              30 |                306997 |                 5976 |           26796256 |       2966400 |            28055 |        16753532 |                     0 |      12490993 | 2017-02-05 18:10:53.010055+01

 2017-02-05 20:45:45.861422+01 | 1486323945.86142 |                 0 |              30 |                306997 |                 5976 |           26796256 |       2966400 |            28055 |        16753532 |                     0 |      12492541 | 2017-02-05 18:10:53.010055+01

 2017-02-05 20:45:46.939205+01 | 1486323946.9392 |                 0 |              30 |                306997 |                 5976 |           26796256 |       2966400 |            28055 |        16753532 |                     0 |      12494385 | 2017-02-05 18:10:53.010055+01

 2017-02-05 20:45:48.016797+01 | 1486323948.0168 |                 0 |              30 |                306997 |                 5976 |           26796256 |       2966400 |            28055 |        16753532 |                     0 |      12495965 | 2017-02-05 18:10:53.010055+01

 2017-02-05 20:45:49.090423+01 | 1486323949.09042 |                 0 |              30 |                306997 |                 5976 |           26796256 |       2966400 |            28055 |        16753532 |                     0 |      12497965 | 2017-02-05 18:10:53.010055+01

 2017-02-05 20:45:50.161521+01 | 1486323950.16152 |                 0 |              30 |                306997 |                 5976 |           26796256 |       2966400 |            28055 |        16753532 |                     0 |      12499602 | 2017-02-05 18:10:53.010055+01

 2017-02-05 20:45:51.23778+01 | 1486323951.23778 |                 0 |              30 |                306997 |                 5976 |           26796256 |       2966400 |            28055 |        16753532 |                     0 |      12501009 | 2017-02-05 18:10:53.010055+01

 2017-02-05 20:45:52.319377+01 | 1486323952.31938 |                 0 |              30 |                306997 |                 5976 |           26796256 |       2966400 |            28055 |        16753532 |                     0 |      12502857 | 2017-02-05 18:10:53.010055+01

 2017-02-05 20:45:53.394284+01 | 1486323953.39428 |                 0 |              30 |                306997 |                 5976 |           26796256 |       2966400 |            28055 |        16753532 |                     0 |      12504432 | 2017-02-05 18:10:53.010055+01

 2017-02-05 20:45:54.471472+01 | 1486323954.47147 |                 0 |              30 |                306997 |                 5976 |           26796256 |       2966400 |            28055 |        16753532 |                     0 |      12505944 | 2017-02-05 18:10:53.010055+01

 2017-02-05 20:45:55.551274+01 | 1486323955.55127 |                 0 |              30 |                306997 |                 5976 |           26796256 |       2966400 |            28055 |        16753532 |                     0 |      12507848 | 2017-02-05 18:10:53.010055+01

 2017-02-05 20:45:56.629089+01 | 1486323956.62909 |                 0 |              30 |                306997 |                 5976 |           26796256 |       2966400 |            28055 |        16753532 |                     0 |      12509300 | 2017-02-05 18:10:53.010055+01

 2017-02-05 20:45:57.709971+01 | 1486323957.70997 |                 0 |              30 |                306997 |                 5976 |           26796256 |       2966400 |            28055 |        16753532 |                     0 |      12510944 | 2017-02-05 18:10:53.010055+01

 2017-02-05 20:45:58.792215+01 | 1486323958.79222 |                 0 |              30 |                306997 |                 5976 |           26796256 |       2966400 |            28055 |        16753532 |                     0 |      12512387 | 2017-02-05 18:10:53.010055+01

 2017-02-05 20:45:59.869174+01 | 1486323959.86917 |                 0 |              30 |                306997 |                 5976 |           26796256 |       2966400 |            28055 |        16753532 |                     0 |      12513754 | 2017-02-05 18:10:53.010055+01

 2017-02-05 20:46:00.947253+01 | 1486323960.94725 |                 0 |              30 |                306997 |                 5976 |           26796256 |       2966400 |            28055 |        16753532 |                     0 |      12515343 | 2017-02-05 18:10:53.010055+01

 2017-02-05 20:46:02.029218+01 | 1486323962.02922 |                 0 |              30 |                306997 |                 5976 |           26796256 |       2966400 |            28055 |        16753532 |                     0 |      12516748 | 2017-02-05 18:10:53.010055+01

 2017-02-05 20:46:03.104696+01 | 1486323963.1047 |                 0 |              30 |                306997 |                 5976 |           26796256 |       2966400 |            28055 |        16753532 |                     0 |      12518438 | 2017-02-05 18:10:53.010055+01

 2017-02-05 20:46:04.183052+01 | 1486323964.18305 |                 0 |              30 |                306997 |                 5976 |           26796256 |       2966400 |            28055 |        16753532 |                     0 |      12519840 | 2017-02-05 18:10:53.010055+01

 2017-02-05 20:46:05.251838+01 | 1486323965.25184 |                 0 |              30 |                306997 |                 5976 |           26796256 |       2966400 |            28055 |        16753532 |                     0 |      12521062 | 2017-02-05 18:10:53.010055+01

 2017-02-05 20:46:06.327113+01 | 1486323966.32711 |                 0 |              30 |                306997 |                 5976 |           26796256 |       2966400 |            28055 |        16753532 |                     0 |      12522636 | 2017-02-05 18:10:53.010055+01

 2017-02-05 20:46:07.401028+01 | 1486323967.40103 |                 0 |              30 |                306997 |                 5976 |           26796256 |       2966400 |            28055 |        16753532 |                     0 |      12524107 | 2017-02-05 18:10:53.010055+01

 2017-02-05 20:46:08.481193+01 | 1486323968.48119 |                 0 |              30 |                306997 |                 5976 |           26796256 |       2966400 |            28055 |        16753532 |                     0 |      12525325 | 2017-02-05 18:10:53.010055+01

 2017-02-05 20:46:09.556681+01 | 1486323969.55668 |                 0 |              30 |                306997 |                 5976 |           26796256 |       2966400 |            28055 |        16753532 |                     0 |      12526893 | 2017-02-05 18:10:53.010055+01

 2017-02-05 20:46:10.629424+01 | 1486323970.62942 |                 0 |              30 |                306997 |                 5976 |           26796256 |       2966400 |            28055 |        16753532 |                     0 |      12528084 | 2017-02-05 18:10:53.010055+01

 2017-02-05 20:46:11.706768+01 | 1486323971.70677 |                 0 |              30 |                306997 |                 5976 |           26796256 |       2966400 |            28055 |        16753532 |                     0 |      12529422 | 2017-02-05 18:10:53.010055+01

 2017-02-05 20:46:12.781013+01 | 1486323972.78101 |                 0 |              30 |                306997 |                 5976 |           26796256 |       2966400 |            28055 |        16753532 |                     0 |      12531265 | 2017-02-05 18:10:53.010055+01

 2017-02-05 20:46:13.860115+01 | 1486323973.86012 |                 0 |              30 |                306997 |                 5976 |           26796256 |       2966400 |            28055 |        16753532 |                     0 |      12532703 | 2017-02-05 18:10:53.010055+01

 2017-02-05 20:46:14.933686+01 | 1486323974.93369 |                 0 |              30 |                306997 |                 5976 |           26796256 |       2966400 |            28055 |        16753532 |                     0 |      12534504 | 2017-02-05 18:10:53.010055+01

 2017-02-05 20:46:16.003985+01 | 1486323976.00398 |                 0 |              30 |                306997 |                 5976 |           26796256 |       2966400 |            28055 |        16753532 |                     0 |      12535892 | 2017-02-05 18:10:53.010055+01

 2017-02-05 20:46:17.078173+01 | 1486323977.07817 |                 0 |              30 |                306997 |                 5976 |           26796256 |       2966400 |            28055 |        16753532 |                     0 |      12537199 | 2017-02-05 18:10:53.010055+01

 2017-02-05 20:46:18.15408+01 | 1486323978.15408 |                 0 |              30 |                306997 |                 5976 |           26796256 |       2966400 |            28055 |        16753532 |                     0 |      12538905 | 2017-02-05 18:10:53.010055+01

 2017-02-05 20:46:19.23103+01 | 1486323979.23103 |                 0 |              30 |                306997 |                 5976 |           26796256 |       2966400 |            28055 |        16753532 |                     0 |      12540301 | 2017-02-05 18:10:53.010055+01

 2017-02-05 20:46:20.306559+01 | 1486323980.30656 |                 0 |              30 |                306997 |                 5976 |           26796256 |       2966400 |            28055 |        16753532 |                     0 |      12541717 | 2017-02-05 18:10:53.010055+01

 2017-02-05 20:46:21.383931+01 | 1486323981.38393 |                 0 |              30 |                306997 |                 5976 |           26796256 |       2966400 |            28055 |        16753532 |                     0 |      12543388 | 2017-02-05 18:10:53.010055+01

 2017-02-05 20:46:22.458817+01 | 1486323982.45882 |                 0 |              30 |                306997 |                 5976 |           26796256 |       2966400 |            28055 |        16753532 |                     0 |      12544727 | 2017-02-05 18:10:53.010055+01

 2017-02-05 20:46:23.533501+01 | 1486323983.5335 |                 0 |              30 |                306997 |                 5976 |           26796256 |       2966400 |            28055 |        16753532 |                     0 |      12546604 | 2017-02-05 18:10:53.010055+01

 2017-02-05 20:46:24.61576+01 | 1486323984.61576 |                 0 |              30 |                306997 |                 5976 |           26796256 |       2966400 |            28055 |        16753532 |                     0 |      12547749 | 2017-02-05 18:10:53.010055+01

 2017-02-05 20:46:25.692498+01 | 1486323985.6925 |                 0 |              30 |                306997 |                 5976 |           26796256 |       2966400 |            28055 |        16753532 |                     0 |      12549134 | 2017-02-05 18:10:53.010055+01

 2017-02-05 20:46:26.766196+01 | 1486323986.7662 |                 0 |              30 |                306997 |                 5976 |           26796256 |       2966418 |            28055 |        16753532 |                     0 |      12550748 | 2017-02-05 18:10:53.010055+01

 2017-02-05 20:46:27.838031+01 | 1486323987.83803 |                 0 |              30 |                306997 |                 5976 |           26796256 |       2966461 |            28055 |        16753532 |                     0 |      12552143 | 2017-02-05 18:10:53.010055+01

 2017-02-05 20:46:28.910999+01 | 1486323988.911 |                 0 |              30 |                306997 |                 5976 |           26796256 |       2966511 |            28055 |        16753532 |                     0 |      12553590 | 2017-02-05 18:10:53.010055+01

 2017-02-05 20:46:29.984832+01 | 1486323989.98483 |                 0 |              30 |                306997 |                 5976 |           26796256 |       2966569 |            28055 |        16753532 |                     0 |      12555233 | 2017-02-05 18:10:53.010055+01

 2017-02-05 20:46:31.06311+01 | 1486323991.06311 |                 0 |              30 |                306997 |                 5976 |           26796256 |       2966614 |            28055 |        16753532 |                     0 |      12556756 | 2017-02-05 18:10:53.010055+01

 2017-02-05 20:46:32.144984+01 | 1486323992.14498 |                 0 |              30 |                306997 |                 5976 |           26796256 |       2966671 |            28055 |        16753532 |                     0 |      12558258 | 2017-02-05 18:10:53.010055+01

 2017-02-05 20:46:33.217599+01 | 1486323993.2176 |                 0 |              30 |                306997 |                 5976 |           26796256 |       2966719 |            28055 |        16753532 |                     0 |      12559529 | 2017-02-05 18:10:53.010055+01

 2017-02-05 20:46:34.309453+01 | 1486323994.30945 |                 0 |              30 |                306997 |                 5976 |           26796256 |       2966754 |            28055 |        16753532 |                     0 |      12560918 | 2017-02-05 18:10:53.010055+01

 2017-02-05 20:46:35.381801+01 | 1486323995.3818 |                 0 |              30 |                306997 |                 5976 |           26796256 |       2966810 |            28055 |        16753532 |                     0 |      12562535 | 2017-02-05 18:10:53.010055+01

 2017-02-05 20:46:36.453421+01 | 1486323996.45342 |                 0 |              30 |                306997 |                 5976 |           26796256 |       2966837 |            28055 |        16753532 |                     0 |      12563789 | 2017-02-05 18:10:53.010055+01

 2017-02-05 20:46:37.536023+01 | 1486323997.53602 |                 0 |              30 |                306997 |                 5976 |           26796256 |       2966867 |            28055 |        16753532 |                     0 |      12565464 | 2017-02-05 18:10:53.010055+01

 2017-02-05 20:46:38.615746+01 | 1486323998.61575 |                 0 |              30 |                306997 |                 5976 |           26796256 |       2966901 |            28055 |        16753532 |                     0 |      12566983 | 2017-02-05 18:10:53.010055+01

 2017-02-05 20:46:39.692138+01 | 1486323999.69214 |                 0 |              30 |                306997 |                 5976 |           26796256 |       2966937 |            28055 |        16753532 |                     0 |      12568295 | 2017-02-05 18:10:53.010055+01

 2017-02-05 20:46:40.771788+01 | 1486324000.77179 |                 0 |              30 |                306997 |                 5976 |           26796256 |       2967009 |            28055 |        16753532 |                     0 |      12569828 | 2017-02-05 18:10:53.010055+01

 2017-02-05 20:46:41.844667+01 | 1486324001.84467 |                 0 |              30 |                306997 |                 5976 |           26796256 |       2967068 |            28055 |        16753532 |                     0 |      12571364 | 2017-02-05 18:10:53.010055+01

 2017-02-05 20:46:42.922913+01 | 1486324002.92291 |                 0 |              30 |                306997 |                 5976 |           26796256 |       2967120 |            28055 |        16753532 |                     0 |      12572595 | 2017-02-05 18:10:53.010055+01

 2017-02-05 20:46:44.001253+01 | 1486324004.00125 |                 0 |              30 |                306997 |                 5976 |           26796256 |       2967190 |            28055 |        16753532 |                     0 |      12574314 | 2017-02-05 18:10:53.010055+01

 2017-02-05 20:46:45.080317+01 | 1486324005.08032 |                 0 |              30 |                306997 |                 5976 |           26796256 |       2967237 |            28055 |        16753532 |                     0 |      12575410 | 2017-02-05 18:10:53.010055+01

 2017-02-05 20:46:46.159664+01 | 1486324006.15966 |                 0 |              30 |                306997 |                 5976 |           26796256 |       2967286 |            28055 |        16753532 |                     0 |      12576625 | 2017-02-05 18:10:53.010055+01

 2017-02-05 20:46:47.236173+01 | 1486324007.23617 |                 0 |              30 |                306997 |                 5976 |           26796256 |       2967342 |            28055 |        16753532 |                     0 |      12578052 | 2017-02-05 18:10:53.010055+01

 2017-02-05 20:46:48.312762+01 | 1486324008.31276 |                 0 |              30 |                306997 |                 5976 |           26796256 |       2967393 |            28055 |        16753532 |                     0 |      12579111 | 2017-02-05 18:10:53.010055+01

 2017-02-05 20:46:49.382531+01 | 1486324009.38253 |                 0 |              30 |                306997 |                 5976 |           26796256 |       2967458 |            28055 |        16753532 |                     0 |      12580288 | 2017-02-05 18:10:53.010055+01

 2017-02-05 20:46:50.45802+01 | 1486324010.45802 |                 0 |              30 |                306997 |                 5976 |           26796256 |       2967511 |            28055 |        16753532 |                     0 |      12581749 | 2017-02-05 18:10:53.010055+01

 2017-02-05 20:46:51.533513+01 | 1486324011.53351 |                 0 |              30 |                306997 |                 5976 |           26796256 |       2967564 |            28055 |        16753532 |                     0 |      12583114 | 2017-02-05 18:10:53.010055+01

 2017-02-05 20:46:52.610664+01 | 1486324012.61066 |                 0 |              30 |                306997 |                 5976 |           26796256 |       2967617 |            28055 |        16753532 |                     0 |      12584619 | 2017-02-05 18:10:53.010055+01

 2017-02-05 20:46:53.691019+01 | 1486324013.69102 |                 0 |              30 |                306997 |                 5976 |           26796256 |       2967697 |            28055 |        16753532 |                     0 |      12586390 | 2017-02-05 18:10:53.010055+01

 2017-02-05 20:46:54.769196+01 | 1486324014.7692 |                 0 |              30 |                306997 |                 5976 |           26796256 |       2967754 |            28055 |        16753532 |                     0 |      12587846 | 2017-02-05 18:10:53.010055+01

 2017-02-05 20:46:55.849505+01 | 1486324015.8495 |                 0 |              30 |                306997 |                 5976 |           26796256 |       2967825 |            28055 |        16753532 |                     0 |      12589482 | 2017-02-05 18:10:53.010055+01

 2017-02-05 20:46:56.924607+01 | 1486324016.92461 |                 0 |              30 |                306997 |                 5976 |           26796256 |       2967893 |            28055 |        16753532 |                     0 |      12591030 | 2017-02-05 18:10:53.010055+01

 2017-02-05 20:46:58.000258+01 | 1486324018.00026 |                 0 |              30 |                306997 |                 5976 |           26796256 |       2967951 |            28055 |        16753532 |                     0 |      12592609 | 2017-02-05 18:10:53.010055+01

 2017-02-05 20:46:59.078238+01 | 1486324019.07824 |                 0 |              30 |                306997 |                 5976 |           26796256 |       2968464 |            28060 |        16753532 |                     0 |      12594255 | 2017-02-05 18:10:53.010055+01

 2017-02-05 20:47:00.154556+01 | 1486324020.15456 |                 0 |              30 |                306997 |                 5976 |           26796256 |       2968964 |            28065 |        16753532 |                     0 |      12595802 | 2017-02-05 18:10:53.010055+01

 2017-02-05 20:47:01.231275+01 | 1486324021.23128 |                 0 |              30 |                306997 |                 5976 |           26796256 |       2969464 |            28070 |        16753532 |                     0 |      12597364 | 2017-02-05 18:10:53.010055+01

 2017-02-05 20:47:02.306826+01 | 1486324022.30683 |                 0 |              30 |                306997 |                 5976 |           26796256 |       2970064 |            28076 |        16753532 |                     0 |      12598899 | 2017-02-05 18:10:53.010055+01

 2017-02-05 20:47:03.387931+01 | 1486324023.38793 |                 0 |              30 |                306997 |                 5976 |           26796256 |       2970564 |            28081 |        16753532 |                     0 |      12600408 | 2017-02-05 18:10:53.010055+01

 2017-02-05 20:47:04.462982+01 | 1486324024.46298 |                 0 |              30 |                306997 |                 5976 |           26796256 |       2971064 |            28086 |        16753532 |                     0 |      12601827 | 2017-02-05 18:10:53.010055+01

 2017-02-05 20:47:05.543604+01 | 1486324025.5436 |                 0 |              30 |                306997 |                 5976 |           26796256 |       2971664 |            28092 |        16753532 |                     0 |      12603614 | 2017-02-05 18:10:53.010055+01

 2017-02-05 20:47:06.621914+01 | 1486324026.62191 |                 0 |              30 |                306997 |                 5976 |           26796256 |       2972164 |            28097 |        16753532 |                     0 |      12605080 | 2017-02-05 18:10:53.010055+01

 2017-02-05 20:47:07.696369+01 | 1486324027.69637 |                 0 |              30 |                306997 |                 5976 |           26796256 |       2972664 |            28102 |        16753532 |                     0 |      12606372 | 2017-02-05 18:10:53.010055+01

 2017-02-05 20:47:08.770675+01 | 1486324028.77067 |                 0 |              30 |                306997 |                 5976 |           26796256 |       2973264 |            28108 |        16753532 |                     0 |      12608210 | 2017-02-05 18:10:53.010055+01

 2017-02-05 20:47:09.840505+01 | 1486324029.8405 |                 0 |              30 |                306997 |                 5976 |           26796256 |       2973764 |            28113 |        16753532 |                     0 |      12609804 | 2017-02-05 18:10:53.010055+01

 2017-02-05 20:47:10.916122+01 | 1486324030.91612 |                 0 |              30 |                306997 |                 5976 |           26796256 |       2974264 |            28118 |        16753532 |                     0 |      12611037 | 2017-02-05 18:10:53.010055+01

 2017-02-05 20:47:11.991694+01 | 1486324031.99169 |                 0 |              30 |                306997 |                 5976 |           26796256 |       2974864 |            28124 |        16753532 |                     0 |      12612847 | 2017-02-05 18:10:53.010055+01

 2017-02-05 20:47:13.069928+01 | 1486324033.06993 |                 0 |              30 |                306997 |                 5976 |           26796256 |       2975364 |            28129 |        16753532 |                     0 |      12614328 | 2017-02-05 18:10:53.010055+01

 2017-02-05 20:47:14.148056+01 | 1486324034.14806 |                 0 |              30 |                306997 |                 5976 |           26796256 |       2975864 |            28134 |        16753532 |                     0 |      12615841 | 2017-02-05 18:10:53.010055+01

 2017-02-05 20:47:15.231322+01 | 1486324035.23132 |                 0 |              30 |                306997 |                 5976 |           26796256 |       2976464 |            28140 |        16753532 |                     0 |      12617729 | 2017-02-05 18:10:53.010055+01

 2017-02-05 20:47:16.305673+01 | 1486324036.30567 |                 0 |              30 |                306997 |                 5976 |           26796256 |       2976964 |            28145 |        16753532 |                     0 |      12619155 | 2017-02-05 18:10:53.010055+01

 2017-02-05 20:47:17.382711+01 | 1486324037.38271 |                 0 |              30 |                306997 |                 5976 |           26796256 |       2977464 |            28150 |        16753532 |                     0 |      12620553 | 2017-02-05 18:10:53.010055+01

 2017-02-05 20:47:18.462467+01 | 1486324038.46247 |                 0 |              30 |                306997 |                 5976 |           26796256 |       2978064 |            28156 |        16753532 |                     0 |      12622255 | 2017-02-05 18:10:53.010055+01

 2017-02-05 20:47:19.535275+01 | 1486324039.53527 |                 0 |              30 |                306997 |                 5976 |           26796256 |       2978564 |            28161 |        16753532 |                     0 |      12623719 | 2017-02-05 18:10:53.010055+01

 2017-02-05 20:47:20.616224+01 | 1486324040.61622 |                 0 |              30 |                306997 |                 5976 |           26796256 |       2979064 |            28166 |        16753532 |                     0 |      12625612 | 2017-02-05 18:10:53.010055+01

 2017-02-05 20:47:21.693781+01 | 1486324041.69378 |                 0 |              30 |                306997 |                 5976 |           26796256 |       2979664 |            28172 |        16753532 |                     0 |      12627135 | 2017-02-05 18:10:53.010055+01

 2017-02-05 20:47:22.764353+01 | 1486324042.76435 |                 0 |              30 |                306997 |                 5976 |           26796256 |       2980164 |            28177 |        16753532 |                     0 |      12628777 | 2017-02-05 18:10:53.010055+01

 2017-02-05 20:47:23.843231+01 | 1486324043.84323 |                 0 |              30 |                306997 |                 5976 |           26796256 |       2980664 |            28182 |        16753532 |                     0 |      12630208 | 2017-02-05 18:10:53.010055+01

 2017-02-05 20:47:24.922271+01 | 1486324044.92227 |                 0 |              30 |                306997 |                 5976 |           26796256 |       2981264 |            28188 |        16753532 |                     0 |      12631984 | 2017-02-05 18:10:53.010055+01

 2017-02-05 20:47:25.999763+01 | 1486324045.99976 |                 0 |              30 |                306997 |                 5976 |           26796256 |       2981764 |            28193 |        16753532 |                     0 |      12633497 | 2017-02-05 18:10:53.010055+01

 2017-02-05 20:47:27.072361+01 | 1486324047.07236 |                 0 |              30 |                306997 |                 5976 |           26796256 |       2982264 |            28198 |        16753532 |                     0 |      12634798 | 2017-02-05 18:10:53.010055+01

 2017-02-05 20:47:28.157569+01 | 1486324048.15757 |                 0 |              30 |                306997 |                 5976 |           26796256 |       2982864 |            28204 |        16753532 |                     0 |      12636605 | 2017-02-05 18:10:53.010055+01

 2017-02-05 20:47:29.235693+01 | 1486324049.23569 |                 0 |              30 |                306997 |                 5976 |           26796256 |       2983364 |            28209 |        16753532 |                     0 |      12638128 | 2017-02-05 18:10:53.010055+01

 2017-02-05 20:47:30.311284+01 | 1486324050.31128 |                 0 |              30 |                306997 |                 5976 |           26796256 |       2983864 |            28214 |        16753532 |                     0 |      12639586 | 2017-02-05 18:10:53.010055+01

 2017-02-05 20:47:31.382664+01 | 1486324051.38266 |                 0 |              30 |                306997 |                 5976 |           26796256 |       2984464 |            28220 |        16753532 |                     0 |      12641456 | 2017-02-05 18:10:53.010055+01

 2017-02-05 20:47:32.459036+01 | 1486324052.45904 |                 0 |              30 |                306997 |                 5976 |           26796256 |       2984964 |            28225 |        16753532 |                     0 |      12642829 | 2017-02-05 18:10:53.010055+01

 2017-02-05 20:47:33.540147+01 | 1486324053.54015 |                 0 |              30 |                306997 |                 5976 |           26796256 |       2985464 |            28230 |        16753532 |                     0 |      12644331 | 2017-02-05 18:10:53.010055+01

 2017-02-05 20:47:34.620783+01 | 1486324054.62078 |                 0 |              30 |                306997 |                 5976 |           26796256 |       2986064 |            28236 |        16753532 |                     0 |      12645873 | 2017-02-05 18:10:53.010055+01

 2017-02-05 20:47:35.6958+01 | 1486324055.6958 |                 0 |              30 |                306997 |                 5976 |           26796256 |       2986564 |            28241 |        16753532 |                     0 |      12647464 | 2017-02-05 18:10:53.010055+01

 2017-02-05 20:47:36.770519+01 | 1486324056.77052 |                 0 |              30 |                306997 |                 5976 |           26796256 |       2987064 |            28246 |        16753532 |                     0 |      12648896 | 2017-02-05 18:10:53.010055+01

 2017-02-05 20:47:37.849233+01 | 1486324057.84923 |                 0 |              30 |                306997 |                 5976 |           26796256 |       2987664 |            28252 |        16753532 |                     0 |      12650657 | 2017-02-05 18:10:53.010055+01

 2017-02-05 20:47:38.927227+01 | 1486324058.92723 |                 0 |              30 |                306997 |                 5976 |           26796256 |       2988164 |            28257 |        16753532 |                     0 |      12652280 | 2017-02-05 18:10:53.010055+01

 2017-02-05 20:47:40.001589+01 | 1486324060.00159 |                 0 |              30 |                306997 |                 5976 |           26796256 |       2988664 |            28262 |        16753532 |                     0 |      12653865 | 2017-02-05 18:10:53.010055+01

 2017-02-05 20:47:41.076387+01 | 1486324061.07639 |                 0 |              30 |                306997 |                 5976 |           26796256 |       2989264 |            28268 |        16753532 |                     0 |      12655379 | 2017-02-05 18:10:53.010055+01

 2017-02-05 20:47:42.152507+01 | 1486324062.15251 |                 0 |              30 |                306997 |                 5976 |           26796256 |       2989764 |            28273 |        16753532 |                     0 |      12656732 | 2017-02-05 18:10:53.010055+01

 2017-02-05 20:47:43.229839+01 | 1486324063.22984 |                 0 |              30 |                306997 |                 5976 |           26796256 |       2990264 |            28278 |        16753532 |                     0 |      12658446 | 2017-02-05 18:10:53.010055+01

 2017-02-05 20:47:44.314655+01 | 1486324064.31466 |                 0 |              30 |                306997 |                 5976 |           26796256 |       2990864 |            28284 |        16753532 |                     0 |      12660140 | 2017-02-05 18:10:53.010055+01

 2017-02-05 20:47:45.391013+01 | 1486324065.39101 |                 0 |              30 |                306997 |                 5976 |           26796256 |       2991364 |            28289 |        16753532 |                     0 |      12661640 | 2017-02-05 18:10:53.010055+01

 2017-02-05 20:47:46.46932+01 | 1486324066.46932 |                 0 |              30 |                306997 |                 5976 |           26796256 |       2991864 |            28294 |        16753532 |                     0 |      12663258 | 2017-02-05 18:10:53.010055+01

 2017-02-05 20:47:47.547081+01 | 1486324067.54708 |                 0 |              30 |                306997 |                 5976 |           26796256 |       2992464 |            28300 |        16753532 |                     0 |      12665072 | 2017-02-05 18:10:53.010055+01

 2017-02-05 20:47:48.623882+01 | 1486324068.62388 |                 0 |              30 |                306997 |                 5976 |           26796256 |       2992964 |            28305 |        16753532 |                     0 |      12666508 | 2017-02-05 18:10:53.010055+01

 2017-02-05 20:47:49.70154+01 | 1486324069.70154 |                 0 |              30 |                306997 |                 5976 |           26796256 |       2993464 |            28310 |        16753532 |                     0 |      12668102 | 2017-02-05 18:10:53.010055+01

 2017-02-05 20:47:50.780027+01 | 1486324070.78003 |                 0 |              30 |                306997 |                 5976 |           26796256 |       2994064 |            28316 |        16753532 |                     0 |      12669761 | 2017-02-05 18:10:53.010055+01

 2017-02-05 20:47:51.85497+01 | 1486324071.85497 |                 0 |              30 |                306997 |                 5976 |           26796256 |       2994564 |            28321 |        16753532 |                     0 |      12671253 | 2017-02-05 18:10:53.010055+01

 2017-02-05 20:47:52.930123+01 | 1486324072.93012 |                 0 |              30 |                306997 |                 5976 |           26796256 |       2995064 |            28326 |        16753532 |                     0 |      12672592 | 2017-02-05 18:10:53.010055+01

 2017-02-05 20:47:54.001128+01 | 1486324074.00113 |                 0 |              30 |                306997 |                 5976 |           26796256 |       2995664 |            28332 |        16753532 |                     0 |      12674373 | 2017-02-05 18:10:53.010055+01

 2017-02-05 20:47:55.080461+01 | 1486324075.08046 |                 0 |              30 |                306997 |                 5976 |           26796256 |       2996164 |            28337 |        16753532 |                     0 |      12675776 | 2017-02-05 18:10:53.010055+01

 2017-02-05 20:47:56.1587+01 | 1486324076.1587 |                 0 |              30 |                306997 |                 5976 |           26796256 |       2996664 |            28342 |        16753532 |                     0 |      12677330 | 2017-02-05 18:10:53.010055+01

 2017-02-05 20:47:57.234057+01 | 1486324077.23406 |                 0 |              30 |                306997 |                 5976 |           26796256 |       2997264 |            28348 |        16753532 |                     0 |      12679062 | 2017-02-05 18:10:53.010055+01

 2017-02-05 20:47:58.309734+01 | 1486324078.30973 |                 0 |              30 |                306997 |                 5976 |           26796256 |       2997764 |            28353 |        16753532 |                     0 |      12680600 | 2017-02-05 18:10:53.010055+01

 2017-02-05 20:47:59.382558+01 | 1486324079.38256 |                 0 |              30 |                306997 |                 5976 |           26796256 |       2998264 |            28358 |        16753532 |                     0 |      12682159 | 2017-02-05 18:10:53.010055+01

 2017-02-05 20:48:00.455683+01 | 1486324080.45568 |                 0 |              30 |                306997 |                 5976 |           26796256 |       2998864 |            28364 |        16753532 |                     0 |      12683915 | 2017-02-05 18:10:53.010055+01

 2017-02-05 20:48:01.536658+01 | 1486324081.53666 |                 0 |              30 |                306997 |                 5976 |           26796256 |       2999364 |            28369 |        16753532 |                     0 |      12685408 | 2017-02-05 18:10:53.010055+01

 2017-02-05 20:48:02.614901+01 | 1486324082.6149 |                 0 |              30 |                306997 |                 5976 |           26796256 |       2999864 |            28374 |        16753532 |                     0 |      12686884 | 2017-02-05 18:10:53.010055+01

 2017-02-05 20:48:03.69257+01 | 1486324083.69257 |                 0 |              30 |                306997 |                 5976 |           26796256 |       3000464 |            28380 |        16753532 |                     0 |      12688225 | 2017-02-05 18:10:53.010055+01

 2017-02-05 20:48:04.765648+01 | 1486324084.76565 |                 0 |              30 |                306997 |                 5976 |           26796256 |       3000964 |            28385 |        16753532 |                     0 |      12689721 | 2017-02-05 18:10:53.010055+01

 2017-02-05 20:48:05.845479+01 | 1486324085.84548 |                 0 |              30 |                306997 |                 5976 |           26796256 |       3001464 |            28390 |        16753532 |                     0 |      12691023 | 2017-02-05 18:10:53.010055+01

 2017-02-05 20:48:06.919811+01 | 1486324086.91981 |                 0 |              30 |                306997 |                 5976 |           26796256 |       3002064 |            28396 |        16753532 |                     0 |      12692857 | 2017-02-05 18:10:53.010055+01

 2017-02-05 20:48:07.996596+01 | 1486324087.9966 |                 0 |              30 |                306997 |                 5976 |           26796256 |       3002564 |            28401 |        16753532 |                     0 |      12694190 | 2017-02-05 18:10:53.010055+01

 2017-02-05 20:48:09.071008+01 | 1486324089.07101 |                 0 |              30 |                306997 |                 5976 |           26796256 |       3003064 |            28406 |        16753532 |                     0 |      12695596 | 2017-02-05 18:10:53.010055+01

 2017-02-05 20:48:10.142052+01 | 1486324090.14205 |                 0 |              30 |                306997 |                 5976 |           26796256 |       3003664 |            28412 |        16753532 |                     0 |      12697181 | 2017-02-05 18:10:53.010055+01

 2017-02-05 20:48:11.214514+01 | 1486324091.21451 |                 0 |              30 |                306997 |                 5976 |           26796256 |       3004164 |            28417 |        16753532 |                     0 |      12698633 | 2017-02-05 18:10:53.010055+01

 2017-02-05 20:48:12.290498+01 | 1486324092.2905 |                 0 |              30 |                306997 |                 5976 |           26796256 |       3004664 |            28422 |        16753532 |                     0 |      12700013 | 2017-02-05 18:10:53.010055+01

 2017-02-05 20:48:13.368708+01 | 1486324093.36871 |                 0 |              30 |                306997 |                 5976 |           26796256 |       3005264 |            28428 |        16753532 |                     0 |      12701629 | 2017-02-05 18:10:53.010055+01

 2017-02-05 20:48:14.438638+01 | 1486324094.43864 |                 0 |              30 |                306997 |                 5976 |           26796256 |       3005764 |            28433 |        16753532 |                     0 |      12702603 | 2017-02-05 18:10:53.010055+01

 2017-02-05 20:48:15.51446+01 | 1486324095.51446 |                 0 |              30 |                306997 |                 5976 |           26796256 |       3006264 |            28438 |        16753532 |                     0 |      12703833 | 2017-02-05 18:10:53.010055+01

 2017-02-05 20:48:16.590553+01 | 1486324096.59055 |                 0 |              30 |                306997 |                 5976 |           26796256 |       3006864 |            28444 |        16753532 |                     0 |      12705632 | 2017-02-05 18:10:53.010055+01

 2017-02-05 20:48:17.671416+01 | 1486324097.67142 |                 0 |              30 |                306997 |                 5976 |           26796256 |       3007364 |            28449 |        16753532 |                     0 |      12707139 | 2017-02-05 18:10:53.010055+01

 2017-02-05 20:48:18.749209+01 | 1486324098.74921 |                 0 |              30 |                306997 |                 5976 |           26796256 |       3007864 |            28454 |        16753532 |                     0 |      12708656 | 2017-02-05 18:10:53.010055+01

 2017-02-05 20:48:19.825878+01 | 1486324099.82588 |                 0 |              30 |                306997 |                 5976 |           26796256 |       3008464 |            28460 |        16753532 |                     0 |      12710253 | 2017-02-05 18:10:53.010055+01

 2017-02-05 20:48:20.901292+01 | 1486324100.90129 |                 0 |              30 |                306997 |                 5976 |           26796256 |       3008964 |            28465 |        16753532 |                     0 |      12711800 | 2017-02-05 18:10:53.010055+01

 2017-02-05 20:48:21.976248+01 | 1486324101.97625 |                 0 |              30 |                306997 |                 5976 |           26796256 |       3009464 |            28470 |        16753532 |                     0 |      12713400 | 2017-02-05 18:10:53.010055+01

 2017-02-05 20:48:23.051322+01 | 1486324103.05132 |                 0 |              30 |                306997 |                 5976 |           26796256 |       3010064 |            28476 |        16753532 |                     0 |      12714930 | 2017-02-05 18:10:53.010055+01

 2017-02-05 20:48:24.128738+01 | 1486324104.12874 |                 0 |              30 |                306997 |                 5976 |           26796256 |       3010564 |            28481 |        16753532 |                     0 |      12716351 | 2017-02-05 18:10:53.010055+01

 2017-02-05 20:48:25.206402+01 | 1486324105.2064 |                 0 |              30 |                306997 |                 5976 |           26796256 |       3011064 |            28486 |        16753532 |                     0 |      12717923 | 2017-02-05 18:10:53.010055+01

 2017-02-05 20:48:26.287254+01 | 1486324106.28725 |                 0 |              30 |                306997 |                 5976 |           26796256 |       3011664 |            28492 |        16753532 |                     0 |      12719776 | 2017-02-05 18:10:53.010055+01

 2017-02-05 20:48:27.362928+01 | 1486324107.36293 |                 0 |              30 |                306997 |                 5976 |           26796256 |       3012164 |            28497 |        16753532 |                     0 |      12721131 | 2017-02-05 18:10:53.010055+01

 2017-02-05 20:48:28.43564+01 | 1486324108.43564 |                 0 |              30 |                306997 |                 5976 |           26796256 |       3012664 |            28502 |        16753532 |                     0 |      12722536 | 2017-02-05 18:10:53.010055+01

 2017-02-05 20:48:29.510144+01 | 1486324109.51014 |                 0 |              30 |                306997 |                 5976 |           26796256 |       3013264 |            28508 |        16753532 |                     0 |      12724446 | 2017-02-05 18:10:53.010055+01

 2017-02-05 20:48:30.587372+01 | 1486324110.58737 |                 0 |              30 |                306997 |                 5976 |           26796256 |       3013764 |            28513 |        16753532 |                     0 |      12726026 | 2017-02-05 18:10:53.010055+01

 2017-02-05 20:48:31.653578+01 | 1486324111.65358 |                 0 |              30 |                306997 |                 5976 |           26796256 |       3014164 |            28517 |        16753532 |                     0 |      12726986 | 2017-02-05 18:10:53.010055+01

 2017-02-05 20:48:32.735387+01 | 1486324112.73539 |                 0 |              30 |                306997 |                 5976 |           26796256 |       3014864 |            28524 |        16753532 |                     0 |      12728815 | 2017-02-05 18:10:53.010055+01

 2017-02-05 20:48:33.814298+01 | 1486324113.8143 |                 0 |              30 |                306997 |                 5976 |           26796256 |       3015364 |            28529 |        16753532 |                     0 |      12730245 | 2017-02-05 18:10:53.010055+01

 2017-02-05 20:48:34.889042+01 | 1486324114.88904 |                 0 |              30 |                306997 |                 5976 |           26796256 |       3015864 |            28534 |        16753532 |                     0 |      12731744 | 2017-02-05 18:10:53.010055+01

 2017-02-05 20:48:35.963702+01 | 1486324115.9637 |                 0 |              30 |                306997 |                 5976 |           26796256 |       3016464 |            28540 |        16753532 |                     0 |      12733290 | 2017-02-05 18:10:53.010055+01

 2017-02-05 20:48:37.042228+01 | 1486324117.04223 |                 0 |              30 |                306997 |                 5976 |           26796256 |       3016964 |            28545 |        16753532 |                     0 |      12734584 | 2017-02-05 18:10:53.010055+01

 2017-02-05 20:48:38.113336+01 | 1486324118.11334 |                 0 |              30 |                306997 |                 5976 |           26796256 |       3017464 |            28550 |        16753532 |                     0 |      12735902 | 2017-02-05 18:10:53.010055+01

 2017-02-05 20:48:39.191986+01 | 1486324119.19199 |                 0 |              30 |                306997 |                 5976 |           26796256 |       3018064 |            28556 |        16753532 |                     0 |      12737562 | 2017-02-05 18:10:53.010055+01

 2017-02-05 20:48:40.267636+01 | 1486324120.26764 |                 0 |              30 |                306997 |                 5976 |           26796256 |       3018564 |            28561 |        16753532 |                     0 |      12738767 | 2017-02-05 18:10:53.010055+01

 2017-02-05 20:48:41.339732+01 | 1486324121.33973 |                 0 |              30 |                306997 |                 5976 |           26796256 |       3019064 |            28566 |        16753532 |                     0 |      12740076 | 2017-02-05 18:10:53.010055+01

 2017-02-05 20:48:42.413173+01 | 1486324122.41317 |                 0 |              30 |                306997 |                 5976 |           26796256 |       3019664 |            28572 |        16753532 |                     0 |      12741627 | 2017-02-05 18:10:53.010055+01

 2017-02-05 20:48:43.491447+01 | 1486324123.49145 |                 0 |              30 |                306997 |                 5976 |           26796256 |       3020164 |            28577 |        16753532 |                     0 |      12743112 | 2017-02-05 18:10:53.010055+01

 2017-02-05 20:48:44.569306+01 | 1486324124.56931 |                 0 |              30 |                306997 |                 5976 |           26796256 |       3020664 |            28582 |        16753532 |                     0 |      12744272 | 2017-02-05 18:10:53.010055+01

 2017-02-05 20:48:45.644432+01 | 1486324125.64443 |                 0 |              30 |                306997 |                 5976 |           26796256 |       3021264 |            28588 |        16753532 |                     0 |      12745751 | 2017-02-05 18:10:53.010055+01

 2017-02-05 20:48:46.717716+01 | 1486324126.71772 |                 0 |              30 |                306997 |                 5976 |           26796256 |       3021764 |            28593 |        16753532 |                     0 |      12747001 | 2017-02-05 18:10:53.010055+01

 2017-02-05 20:48:47.794509+01 | 1486324127.79451 |                 0 |              30 |                306997 |                 5976 |           26796256 |       3022264 |            28598 |        16753532 |                     0 |      12748306 | 2017-02-05 18:10:53.010055+01

 2017-02-05 20:48:48.868268+01 | 1486324128.86827 |                 0 |              30 |                306997 |                 5976 |           26796256 |       3022864 |            28604 |        16753532 |                     0 |      12749877 | 2017-02-05 18:10:53.010055+01

 2017-02-05 20:48:49.945038+01 | 1486324129.94504 |                 0 |              30 |                306997 |                 5976 |           26796256 |       3023364 |            28609 |        16753532 |                     0 |      12750915 | 2017-02-05 18:10:53.010055+01

 2017-02-05 20:48:51.020303+01 | 1486324131.0203 |                 0 |              30 |                306997 |                 5976 |           26796256 |       3023864 |            28614 |        16753532 |                     0 |      12752384 | 2017-02-05 18:10:53.010055+01

 2017-02-05 20:48:52.100036+01 | 1486324132.10004 |                 0 |              30 |                306997 |                 5976 |           26796256 |       3024464 |            28620 |        16753532 |                     0 |      12754090 | 2017-02-05 18:10:53.010055+01

 2017-02-05 20:48:53.177986+01 | 1486324133.17799 |                 0 |              30 |                306997 |                 5976 |           26796256 |       3024964 |            28625 |        16753532 |                     0 |      12755542 | 2017-02-05 18:10:53.010055+01

 2017-02-05 20:48:54.2523+01 | 1486324134.2523 |                 0 |              30 |                306997 |                 5976 |           26796256 |       3025464 |            28630 |        16753532 |                     0 |      12756976 | 2017-02-05 18:10:53.010055+01

 2017-02-05 20:48:55.333031+01 | 1486324135.33303 |                 0 |              30 |                306997 |                 5976 |           26796256 |       3026064 |            28636 |        16753532 |                     0 |      12758739 | 2017-02-05 18:10:53.010055+01

 2017-02-05 20:48:56.411868+01 | 1486324136.41187 |                 0 |              30 |                306997 |                 5976 |           26796256 |       3026564 |            28641 |        16753532 |                     0 |      12760284 | 2017-02-05 18:10:53.010055+01

 2017-02-05 20:48:57.498684+01 | 1486324137.49868 |                 0 |              30 |                306997 |                 5976 |           26796256 |       3027064 |            28646 |        16753532 |                     0 |      12761795 | 2017-02-05 18:10:53.010055+01

 2017-02-05 20:48:58.58681+01 | 1486324138.58681 |                 0 |              30 |                306997 |                 5976 |           26796256 |       3027664 |            28652 |        16753532 |                     0 |      12763455 | 2017-02-05 18:10:53.010055+01

 2017-02-05 20:48:59.667045+01 | 1486324139.66705 |                 0 |              30 |                306997 |                 5976 |           26796256 |       3028164 |            28657 |        16753532 |                     0 |      12764877 | 2017-02-05 18:10:53.010055+01

 2017-02-05 20:49:00.74467+01 | 1486324140.74467 |                 0 |              30 |                306997 |                 5976 |           26796256 |       3028664 |            28662 |        16753532 |                     0 |      12766227 | 2017-02-05 18:10:53.010055+01

 2017-02-05 20:49:01.821348+01 | 1486324141.82135 |                 0 |              30 |                306997 |                 5976 |           26796256 |       3029264 |            28668 |        16753532 |                     0 |      12768153 | 2017-02-05 18:10:53.010055+01

 2017-02-05 20:49:02.894995+01 | 1486324142.89499 |                 0 |              30 |                306997 |                 5976 |           26796256 |       3029764 |            28673 |        16753532 |                     0 |      12769651 | 2017-02-05 18:10:53.010055+01

 2017-02-05 20:49:03.970083+01 | 1486324143.97008 |                 0 |              30 |                306997 |                 5976 |           26796256 |       3030264 |            28678 |        16753532 |                     0 |      12771386 | 2017-02-05 18:10:53.010055+01

 2017-02-05 20:49:05.044936+01 | 1486324145.04494 |                 0 |              30 |                306997 |                 5976 |           26796256 |       3030864 |            28684 |        16753532 |                     0 |      12773208 | 2017-02-05 18:10:53.010055+01

 2017-02-05 20:49:06.12179+01 | 1486324146.12179 |                 0 |              30 |                306997 |                 5976 |           26796256 |       3031364 |            28689 |        16753532 |                     0 |      12774364 | 2017-02-05 18:10:53.010055+01

 2017-02-05 20:49:07.200182+01 | 1486324147.20018 |                 0 |              30 |                306997 |                 5976 |           26796256 |       3031864 |            28694 |        16753532 |                     0 |      12775985 | 2017-02-05 18:10:53.010055+01

 2017-02-05 20:49:08.273485+01 | 1486324148.27348 |                 0 |              30 |                306997 |                 5976 |           26796256 |       3032464 |            28700 |        16753532 |                     0 |      12777812 | 2017-02-05 18:10:53.010055+01

 2017-02-05 20:49:09.346702+01 | 1486324149.3467 |                 0 |              30 |                306997 |                 5976 |           26796256 |       3032964 |            28705 |        16753532 |                     0 |      12779395 | 2017-02-05 18:10:53.010055+01

 2017-02-05 20:49:10.421789+01 | 1486324150.42179 |                 0 |              30 |                306997 |                 5976 |           26796256 |       3033464 |            28710 |        16753532 |                     0 |      12781154 | 2017-02-05 18:10:53.010055+01

 2017-02-05 20:49:11.497376+01 | 1486324151.49738 |                 0 |              30 |                306997 |                 5976 |           26796256 |       3034064 |            28716 |        16753532 |                     0 |      12782801 | 2017-02-05 18:10:53.010055+01

 2017-02-05 20:49:12.575078+01 | 1486324152.57508 |                 0 |              30 |                306997 |                 5976 |           26796256 |       3034564 |            28721 |        16753532 |                     0 |      12784436 | 2017-02-05 18:10:53.010055+01

 2017-02-05 20:49:13.653056+01 | 1486324153.65306 |                 0 |              30 |                306997 |                 5976 |           26796256 |       3035064 |            28726 |        16753532 |                     0 |      12785952 | 2017-02-05 18:10:53.010055+01

 2017-02-05 20:49:14.734028+01 | 1486324154.73403 |                 0 |              30 |                306997 |                 5976 |           26796256 |       3035664 |            28732 |        16753532 |                     0 |      12787591 | 2017-02-05 18:10:53.010055+01

 2017-02-05 20:49:15.806543+01 | 1486324155.80654 |                 0 |              30 |                306997 |                 5976 |           26796256 |       3036164 |            28737 |        16753532 |                     0 |      12788927 | 2017-02-05 18:10:53.010055+01

 2017-02-05 20:49:16.88223+01 | 1486324156.88223 |                 0 |              30 |                306997 |                 5976 |           26796256 |       3036664 |            28742 |        16753532 |                     0 |      12790381 | 2017-02-05 18:10:53.010055+01

 2017-02-05 20:49:17.959512+01 | 1486324157.95951 |                 0 |              30 |                306997 |                 5976 |           26796256 |       3037264 |            28748 |        16753532 |                     0 |      12792143 | 2017-02-05 18:10:53.010055+01

 2017-02-05 20:49:19.034337+01 | 1486324159.03434 |                 0 |              30 |                306997 |                 5976 |           26796256 |       3037764 |            28753 |        16753532 |                     0 |      12793457 | 2017-02-05 18:10:53.010055+01

 2017-02-05 20:49:20.108136+01 | 1486324160.10814 |                 0 |              30 |                306997 |                 5976 |           26796256 |       3038264 |            28758 |        16753532 |                     0 |      12794781 | 2017-02-05 18:10:53.010055+01

 2017-02-05 20:49:21.185425+01 | 1486324161.18543 |                 0 |              30 |                306997 |                 5976 |           26796256 |       3038864 |            28764 |        16753532 |                     0 |      12796211 | 2017-02-05 18:10:53.010055+01

 2017-02-05 20:49:22.263565+01 | 1486324162.26357 |                 0 |              30 |                306997 |                 5976 |           26796256 |       3039364 |            28769 |        16753532 |                     0 |      12797736 | 2017-02-05 18:10:53.010055+01

 2017-02-05 20:49:23.338986+01 | 1486324163.33899 |                 0 |              30 |                306997 |                 5976 |           26796256 |       3039864 |            28774 |        16753532 |                     0 |      12799052 | 2017-02-05 18:10:53.010055+01

 2017-02-05 20:49:24.418201+01 | 1486324164.4182 |                 0 |              30 |                306997 |                 5976 |           26796256 |       3040464 |            28780 |        16753532 |                     0 |      12800913 | 2017-02-05 18:10:53.010055+01

 2017-02-05 20:49:25.494234+01 | 1486324165.49423 |                 0 |              30 |                306997 |                 5976 |           26796256 |       3040964 |            28785 |        16753532 |                     0 |      12801973 | 2017-02-05 18:10:53.010055+01

 2017-02-05 20:49:26.572086+01 | 1486324166.57209 |                 0 |              30 |                306997 |                 5976 |           26796256 |       3041464 |            28790 |        16753532 |                     0 |      12803449 | 2017-02-05 18:10:53.010055+01

 2017-02-05 20:49:27.645725+01 | 1486324167.64573 |                 0 |              30 |                306997 |                 5976 |           26796256 |       3042064 |            28796 |        16753532 |                     0 |      12805449 | 2017-02-05 18:10:53.010055+01

 2017-02-05 20:49:28.717833+01 | 1486324168.71783 |                 0 |              30 |                306997 |                 5976 |           26796256 |       3042564 |            28801 |        16753532 |                     0 |      12806949 | 2017-02-05 18:10:53.010055+01

 2017-02-05 20:49:29.799141+01 | 1486324169.79914 |                 0 |              30 |                306997 |                 5976 |           26796256 |       3043064 |            28806 |        16753532 |                     0 |      12808305 | 2017-02-05 18:10:53.010055+01

 2017-02-05 20:49:30.875771+01 | 1486324170.87577 |                 0 |              30 |                306997 |                 5976 |           26796256 |       3043664 |            28812 |        16753532 |                     0 |      12810266 | 2017-02-05 18:10:53.010055+01

 2017-02-05 20:49:31.950535+01 | 1486324171.95054 |                 0 |              30 |                306997 |                 5976 |           26796256 |       3044164 |            28817 |        16753532 |                     0 |      12812114 | 2017-02-05 18:10:53.010055+01

 2017-02-05 20:49:33.025625+01 | 1486324173.02562 |                 0 |              30 |                306997 |                 5976 |           26796256 |       3044664 |            28822 |        16753532 |                     0 |      12813526 | 2017-02-05 18:10:53.010055+01

 2017-02-05 20:49:34.097923+01 | 1486324174.09792 |                 0 |              30 |                306997 |                 5976 |           26796256 |       3045264 |            28828 |        16753532 |                     0 |      12815322 | 2017-02-05 18:10:53.010055+01

 2017-02-05 20:49:35.164834+01 | 1486324175.16483 |                 0 |              30 |                306997 |                 5976 |           26796256 |       3045764 |            28833 |        16753532 |                     0 |      12816842 | 2017-02-05 18:10:53.010055+01

 2017-02-05 20:49:36.240706+01 | 1486324176.24071 |                 0 |              30 |                306997 |                 5976 |           26796256 |       3046264 |            28838 |        16753532 |                     0 |      12818403 | 2017-02-05 18:10:53.010055+01

 2017-02-05 20:49:37.314875+01 | 1486324177.31487 |                 0 |              30 |                306997 |                 5976 |           26796256 |       3046864 |            28844 |        16753532 |                     0 |      12820444 | 2017-02-05 18:10:53.010055+01

 2017-02-05 20:49:38.391593+01 | 1486324178.39159 |                 0 |              30 |                306997 |                 5976 |           26796256 |       3047364 |            28849 |        16753532 |                     0 |      12821881 | 2017-02-05 18:10:53.010055+01

 2017-02-05 20:49:39.469112+01 | 1486324179.46911 |                 0 |              30 |                306997 |                 5976 |           26796256 |       3047864 |            28854 |        16753532 |                     0 |      12823757 | 2017-02-05 18:10:53.010055+01

 2017-02-05 20:49:40.541691+01 | 1486324180.54169 |                 0 |              30 |                306997 |                 5976 |           26796256 |       3048464 |            28860 |        16753532 |                     0 |      12825622 | 2017-02-05 18:10:53.010055+01

 2017-02-05 20:49:41.6233+01 | 1486324181.6233 |                 0 |              30 |                306997 |                 5976 |           26796256 |       3048964 |            28865 |        16753532 |                     0 |      12827352 | 2017-02-05 18:10:53.010055+01

 2017-02-05 20:49:42.700374+01 | 1486324182.70037 |                 0 |              30 |                306997 |                 5976 |           26796256 |       3049464 |            28870 |        16753532 |                     0 |      12828892 | 2017-02-05 18:10:53.010055+01

 2017-02-05 20:49:43.776786+01 | 1486324183.77679 |                 0 |              30 |                306997 |                 5976 |           26796256 |       3050064 |            28876 |        16753532 |                     0 |      12830745 | 2017-02-05 18:10:53.010055+01

 2017-02-05 20:49:44.85555+01 | 1486324184.85555 |                 0 |              30 |                306997 |                 5976 |           26796256 |       3050564 |            28881 |        16753532 |                     0 |      12832332 | 2017-02-05 18:10:53.010055+01

 2017-02-05 20:49:45.929451+01 | 1486324185.92945 |                 0 |              30 |                306997 |                 5976 |           26796256 |       3051064 |            28886 |        16753532 |                     0 |      12834018 | 2017-02-05 18:10:53.010055+01

 2017-02-05 20:49:47.01022+01 | 1486324187.01022 |                 0 |              30 |                306997 |                 5976 |           26796256 |       3051664 |            28892 |        16753532 |                     0 |      12835731 | 2017-02-05 18:10:53.010055+01

 2017-02-05 20:49:48.085746+01 | 1486324188.08575 |                 0 |              30 |                306997 |                 5976 |           26796256 |       3052164 |            28897 |        16753532 |                     0 |      12837482 | 2017-02-05 18:10:53.010055+01

 2017-02-05 20:49:49.163402+01 | 1486324189.1634 |                 0 |              30 |                306997 |                 5976 |           26796256 |       3052664 |            28902 |        16753532 |                     0 |      12839207 | 2017-02-05 18:10:53.010055+01

 2017-02-05 20:49:50.239875+01 | 1486324190.23988 |                 0 |              30 |                306997 |                 5976 |           26796256 |       3053264 |            28908 |        16753532 |                     0 |      12841158 | 2017-02-05 18:10:53.010055+01

 2017-02-05 20:49:51.315535+01 | 1486324191.31554 |                 0 |              30 |                306997 |                 5976 |           26796256 |       3053764 |            28913 |        16753532 |                     0 |      12842826 | 2017-02-05 18:10:53.010055+01

 2017-02-05 20:49:52.390402+01 | 1486324192.3904 |                 0 |              30 |                306997 |                 5976 |           26796256 |       3054264 |            28918 |        16753532 |                     0 |      12844539 | 2017-02-05 18:10:53.010055+01

 2017-02-05 20:49:53.462289+01 | 1486324193.46229 |                 0 |              30 |                306997 |                 5976 |           26796256 |       3054864 |            28924 |        16753532 |                     0 |      12846194 | 2017-02-05 18:10:53.010055+01

 2017-02-05 20:49:54.539821+01 | 1486324194.53982 |                 0 |              30 |                306997 |                 5976 |           26796256 |       3055364 |            28929 |        16753532 |                     0 |      12847914 | 2017-02-05 18:10:53.010055+01

 2017-02-05 20:49:55.618849+01 | 1486324195.61885 |                 0 |              30 |                306997 |                 5976 |           26796256 |       3055864 |            28934 |        16753532 |                     0 |      12849631 | 2017-02-05 18:10:53.010055+01

 2017-02-05 20:49:56.692592+01 | 1486324196.69259 |                 0 |              30 |                306997 |                 5976 |           26796256 |       3056464 |            28940 |        16753532 |                     0 |      12851691 | 2017-02-05 18:10:53.010055+01

 2017-02-05 20:49:57.767378+01 | 1486324197.76738 |                 0 |              30 |                306997 |                 5976 |           26796256 |       3056964 |            28945 |        16753532 |                     0 |      12853277 | 2017-02-05 18:10:53.010055+01

 2017-02-05 20:49:58.835226+01 | 1486324198.83523 |                 0 |              30 |                306997 |                 5976 |           26796256 |       3057464 |            28950 |        16753532 |                     0 |      12854781 | 2017-02-05 18:10:53.010055+01

 2017-02-05 20:49:59.912321+01 | 1486324199.91232 |                 0 |              30 |                306997 |                 5976 |           26796256 |       3058064 |            28956 |        16753532 |                     0 |      12856325 | 2017-02-05 18:10:53.010055+01

 2017-02-05 20:50:00.987798+01 | 1486324200.9878 |                 0 |              30 |                306997 |                 5976 |           26796256 |       3058564 |            28961 |        16753532 |                     0 |      12857939 | 2017-02-05 18:10:53.010055+01

 2017-02-05 20:50:02.063101+01 | 1486324202.0631 |                 0 |              30 |                306997 |                 5976 |           26796256 |       3059064 |            28966 |        16753532 |                     0 |      12859709 | 2017-02-05 18:10:53.010055+01

 2017-02-05 20:50:03.139692+01 | 1486324203.13969 |                 0 |              30 |                306997 |                 5976 |           26796256 |       3059564 |            28971 |        16753532 |                     0 |      12861299 | 2017-02-05 18:10:53.010055+01

 2017-02-05 20:50:04.219243+01 | 1486324204.21924 |                 0 |              30 |                306997 |                 5976 |           26796256 |       3060164 |            28977 |        16753532 |                     0 |      12863313 | 2017-02-05 18:10:53.010055+01

 2017-02-05 20:50:05.291968+01 | 1486324205.29197 |                 0 |              30 |                306997 |                 5976 |           26796256 |       3060664 |            28982 |        16753532 |                     0 |      12865020 | 2017-02-05 18:10:53.010055+01

 2017-02-05 20:50:06.364487+01 | 1486324206.36449 |                 0 |              30 |                306997 |                 5976 |           26796256 |       3061264 |            28988 |        16753532 |                     0 |      12866880 | 2017-02-05 18:10:53.010055+01

 2017-02-05 20:50:07.440034+01 | 1486324207.44003 |                 0 |              30 |                306997 |                 5976 |           26796256 |       3061764 |            28993 |        16753532 |                     0 |      12868465 | 2017-02-05 18:10:53.010055+01

 2017-02-05 20:50:08.516423+01 | 1486324208.51642 |                 0 |              30 |                306997 |                 5976 |           26796256 |       3062264 |            28998 |        16753532 |                     0 |      12869966 | 2017-02-05 18:10:53.010055+01

 2017-02-05 20:50:09.594865+01 | 1486324209.59487 |                 0 |              30 |                306997 |                 5976 |           26796256 |       3062864 |            29004 |        16753532 |                     0 |      12871954 | 2017-02-05 18:10:53.010055+01

 2017-02-05 20:50:10.668432+01 | 1486324210.66843 |                 0 |              30 |                306997 |                 5976 |           26796256 |       3063364 |            29009 |        16753532 |                     0 |      12873596 | 2017-02-05 18:10:53.010055+01

 2017-02-05 20:50:11.732876+01 | 1486324211.73288 |                 0 |              30 |                306997 |                 5976 |           26796256 |       3063864 |            29014 |        16753532 |                     0 |      12875216 | 2017-02-05 18:10:53.010055+01

 2017-02-05 20:50:12.812868+01 | 1486324212.81287 |                 0 |              30 |                306997 |                 5976 |           26796256 |       3064364 |            29019 |        16753532 |                     0 |      12876833 | 2017-02-05 18:10:53.010055+01

 2017-02-05 20:50:13.889896+01 | 1486324213.8899 |                 0 |              30 |                306997 |                 5976 |           26796256 |       3064964 |            29025 |        16753532 |                     0 |      12878953 | 2017-02-05 18:10:53.010055+01

 2017-02-05 20:50:14.966962+01 | 1486324214.96696 |                 0 |              30 |                306997 |                 5976 |           26796256 |       3065464 |            29030 |        16753532 |                     0 |      12880310 | 2017-02-05 18:10:53.010055+01

 2017-02-05 20:50:16.05052+01 | 1486324216.05052 |                 0 |              30 |                306997 |                 5976 |           26796256 |       3065964 |            29035 |        16753532 |                     0 |      12881938 | 2017-02-05 18:10:53.010055+01

 2017-02-05 20:50:17.12414+01 | 1486324217.12414 |                 0 |              30 |                306997 |                 5976 |           26796256 |       3066564 |            29041 |        16753532 |                     0 |      12884032 | 2017-02-05 18:10:53.010055+01

 2017-02-05 20:50:18.199265+01 | 1486324218.19927 |                 0 |              30 |                306997 |                 5976 |           26796256 |       3067064 |            29046 |        16753532 |                     0 |      12885696 | 2017-02-05 18:10:53.010055+01

 2017-02-05 20:50:19.279925+01 | 1486324219.27993 |                 0 |              30 |                306997 |                 5976 |           26796256 |       3067564 |            29051 |        16753532 |                     0 |      12887425 | 2017-02-05 18:10:53.010055+01

 2017-02-05 20:50:20.356603+01 | 1486324220.3566 |                 0 |              30 |                306997 |                 5976 |           26796256 |       3068164 |            29057 |        17176157 |                     0 |      12889375 | 2017-02-05 18:10:53.010055+01

 2017-02-05 20:50:21.436849+01 | 1486324221.43685 |                 0 |              30 |                306997 |                 5976 |           26796256 |       3068664 |            29062 |        17176157 |                     0 |      12891083 | 2017-02-05 18:10:53.010055+01

 2017-02-05 20:50:22.515797+01 | 1486324222.5158 |                 0 |              30 |                306997 |                 5976 |           26796256 |       3069164 |            29067 |        17176157 |                     0 |      12893106 | 2017-02-05 18:10:53.010055+01

 2017-02-05 20:50:23.591021+01 | 1486324223.59102 |                 0 |              30 |                306997 |                 5976 |           26796256 |       3069764 |            29073 |        17176157 |                     0 |      12894804 | 2017-02-05 18:10:53.010055+01

 2017-02-05 20:50:24.670723+01 | 1486324224.67072 |                 0 |              30 |                306997 |                 5976 |           26796256 |       3070264 |            29078 |        17176157 |                     0 |      12896456 | 2017-02-05 18:10:53.010055+01

 2017-02-05 20:50:25.744454+01 | 1486324225.74445 |                 0 |              30 |                306997 |                 5976 |           26796256 |       3070864 |            29084 |        17176157 |                     0 |      12898504 | 2017-02-05 18:10:53.010055+01

 2017-02-05 20:50:26.81808+01 | 1486324226.81808 |                 0 |              30 |                306997 |                 5976 |           26796256 |       3071364 |            29089 |        17176157 |                     0 |      12899894 | 2017-02-05 18:10:53.010055+01

 2017-02-05 20:50:27.885126+01 | 1486324227.88513 |                 0 |              30 |                306997 |                 5976 |           26796256 |       3071864 |            29094 |        17176157 |                     0 |      12901439 | 2017-02-05 18:10:53.010055+01

 2017-02-05 20:50:28.960779+01 | 1486324228.96078 |                 0 |              30 |                306997 |                 5976 |           26796256 |       3072364 |            29099 |        17176157 |                     0 |      12902769 | 2017-02-05 18:10:53.010055+01

