 2017-02-05 20:45:29.668945+01 | 1486323929.66895 | pgbench_accounts |      13745299456
 2017-02-05 20:45:29.668945+01 | 1486323929.66895 | pgbench_tellers  |           450560
 2017-02-05 20:45:29.668945+01 | 1486323929.66895 | pgbench_history  |                0
 2017-02-05 20:45:29.668945+01 | 1486323929.66895 | pgbench_branches |            40960

 2017-02-05 20:45:30.753295+01 | 1486323930.75329 | pgbench_accounts |      13745299456
 2017-02-05 20:45:30.753295+01 | 1486323930.75329 | pgbench_tellers  |           450560
 2017-02-05 20:45:30.753295+01 | 1486323930.75329 | pgbench_history  |          3792896
 2017-02-05 20:45:30.753295+01 | 1486323930.75329 | pgbench_branches |            40960

 2017-02-05 20:45:31.823485+01 | 1486323931.82348 | pgbench_accounts |      13745299456
 2017-02-05 20:45:31.823485+01 | 1486323931.82348 | pgbench_tellers  |           450560
 2017-02-05 20:45:31.823485+01 | 1486323931.82348 | pgbench_history  |          3792896
 2017-02-05 20:45:31.823485+01 | 1486323931.82348 | pgbench_branches |            40960

 2017-02-05 20:45:32.902937+01 | 1486323932.90294 | pgbench_accounts |      13745299456
 2017-02-05 20:45:32.902937+01 | 1486323932.90294 | pgbench_tellers  |           450560
 2017-02-05 20:45:32.902937+01 | 1486323932.90294 | pgbench_history  |          6815744
 2017-02-05 20:45:32.902937+01 | 1486323932.90294 | pgbench_branches |            40960

 2017-02-05 20:45:33.975133+01 | 1486323933.97513 | pgbench_accounts |      13745299456
 2017-02-05 20:45:33.975133+01 | 1486323933.97513 | pgbench_tellers  |           450560
 2017-02-05 20:45:33.975133+01 | 1486323933.97513 | pgbench_history  |          9814016
 2017-02-05 20:45:33.975133+01 | 1486323933.97513 | pgbench_branches |            40960

 2017-02-05 20:45:35.05385+01 | 1486323935.05385 | pgbench_accounts |      13745299456
 2017-02-05 20:45:35.05385+01 | 1486323935.05385 | pgbench_tellers  |           450560
 2017-02-05 20:45:35.05385+01 | 1486323935.05385 | pgbench_history  |         11476992
 2017-02-05 20:45:35.05385+01 | 1486323935.05385 | pgbench_branches |            40960

 2017-02-05 20:45:36.135509+01 | 1486323936.13551 | pgbench_accounts |      13745299456
 2017-02-05 20:45:36.135509+01 | 1486323936.13551 | pgbench_tellers  |           450560
 2017-02-05 20:45:36.135509+01 | 1486323936.13551 | pgbench_history  |         13516800
 2017-02-05 20:45:36.135509+01 | 1486323936.13551 | pgbench_branches |            40960

 2017-02-05 20:45:37.216524+01 | 1486323937.21652 | pgbench_accounts |      13745299456
 2017-02-05 20:45:37.216524+01 | 1486323937.21652 | pgbench_tellers  |           450560
 2017-02-05 20:45:37.216524+01 | 1486323937.21652 | pgbench_history  |         16891904
 2017-02-05 20:45:37.216524+01 | 1486323937.21652 | pgbench_branches |            40960

 2017-02-05 20:45:38.295589+01 | 1486323938.29559 | pgbench_accounts |      13745299456
 2017-02-05 20:45:38.295589+01 | 1486323938.29559 | pgbench_tellers  |           450560
 2017-02-05 20:45:38.295589+01 | 1486323938.29559 | pgbench_history  |         19472384
 2017-02-05 20:45:38.295589+01 | 1486323938.29559 | pgbench_branches |            40960

 2017-02-05 20:45:39.374134+01 | 1486323939.37413 | pgbench_accounts |      13745299456
 2017-02-05 20:45:39.374134+01 | 1486323939.37413 | pgbench_tellers  |           450560
 2017-02-05 20:45:39.374134+01 | 1486323939.37413 | pgbench_history  |         22634496
 2017-02-05 20:45:39.374134+01 | 1486323939.37413 | pgbench_branches |            40960

 2017-02-05 20:45:40.453409+01 | 1486323940.45341 | pgbench_accounts |      13745299456
 2017-02-05 20:45:40.453409+01 | 1486323940.45341 | pgbench_tellers  |           450560
 2017-02-05 20:45:40.453409+01 | 1486323940.45341 | pgbench_history  |         24158208
 2017-02-05 20:45:40.453409+01 | 1486323940.45341 | pgbench_branches |            40960

 2017-02-05 20:45:41.529253+01 | 1486323941.52925 | pgbench_accounts |      13745299456
 2017-02-05 20:45:41.529253+01 | 1486323941.52925 | pgbench_tellers  |           450560
 2017-02-05 20:45:41.529253+01 | 1486323941.52925 | pgbench_history  |         26361856
 2017-02-05 20:45:41.529253+01 | 1486323941.52925 | pgbench_branches |            40960

 2017-02-05 20:45:42.605723+01 | 1486323942.60572 | pgbench_accounts |      13745299456
 2017-02-05 20:45:42.605723+01 | 1486323942.60572 | pgbench_tellers  |           450560
 2017-02-05 20:45:42.605723+01 | 1486323942.60572 | pgbench_history  |         29605888
 2017-02-05 20:45:42.605723+01 | 1486323942.60572 | pgbench_branches |            40960

 2017-02-05 20:45:43.683644+01 | 1486323943.68364 | pgbench_accounts |      13745299456
 2017-02-05 20:45:43.683644+01 | 1486323943.68364 | pgbench_tellers  |           450560
 2017-02-05 20:45:43.683644+01 | 1486323943.68364 | pgbench_history  |         34594816
 2017-02-05 20:45:43.683644+01 | 1486323943.68364 | pgbench_branches |            40960

 2017-02-05 20:45:44.768456+01 | 1486323944.76846 | pgbench_accounts |      13745299456
 2017-02-05 20:45:44.768456+01 | 1486323944.76846 | pgbench_tellers  |           450560
 2017-02-05 20:45:44.768456+01 | 1486323944.76846 | pgbench_history  |         34594816
 2017-02-05 20:45:44.768456+01 | 1486323944.76846 | pgbench_branches |            40960

 2017-02-05 20:45:45.84681+01 | 1486323945.84681 | pgbench_accounts |      13745299456
 2017-02-05 20:45:45.84681+01 | 1486323945.84681 | pgbench_tellers  |           450560
 2017-02-05 20:45:45.84681+01 | 1486323945.84681 | pgbench_history  |         37404672
 2017-02-05 20:45:45.84681+01 | 1486323945.84681 | pgbench_branches |            40960

 2017-02-05 20:45:46.923675+01 | 1486323946.92368 | pgbench_accounts |      13745299456
 2017-02-05 20:45:46.923675+01 | 1486323946.92368 | pgbench_tellers  |           450560
 2017-02-05 20:45:46.923675+01 | 1486323946.92368 | pgbench_history  |         40312832
 2017-02-05 20:45:46.923675+01 | 1486323946.92368 | pgbench_branches |            40960

 2017-02-05 20:45:48.002837+01 | 1486323948.00284 | pgbench_accounts |      13745299456
 2017-02-05 20:45:48.002837+01 | 1486323948.00284 | pgbench_tellers  |           450560
 2017-02-05 20:45:48.002837+01 | 1486323948.00284 | pgbench_history  |         43606016
 2017-02-05 20:45:48.002837+01 | 1486323948.00284 | pgbench_branches |            40960

 2017-02-05 20:45:49.076422+01 | 1486323949.07642 | pgbench_accounts |      13745299456
 2017-02-05 20:45:49.076422+01 | 1486323949.07642 | pgbench_tellers  |           450560
 2017-02-05 20:45:49.076422+01 | 1486323949.07642 | pgbench_history  |         46579712
 2017-02-05 20:45:49.076422+01 | 1486323949.07642 | pgbench_branches |            40960

 2017-02-05 20:45:50.147802+01 | 1486323950.1478 | pgbench_accounts |      13745299456
 2017-02-05 20:45:50.147802+01 | 1486323950.1478 | pgbench_tellers  |           450560
 2017-02-05 20:45:50.147802+01 | 1486323950.1478 | pgbench_history  |         49463296
 2017-02-05 20:45:50.147802+01 | 1486323950.1478 | pgbench_branches |            40960

 2017-02-05 20:45:51.222486+01 | 1486323951.22249 | pgbench_accounts |      13745299456
 2017-02-05 20:45:51.222486+01 | 1486323951.22249 | pgbench_tellers  |           450560
 2017-02-05 20:45:51.222486+01 | 1486323951.22249 | pgbench_history  |         52977664
 2017-02-05 20:45:51.222486+01 | 1486323951.22249 | pgbench_branches |            40960

 2017-02-05 20:45:52.302949+01 | 1486323952.30295 | pgbench_accounts |      13745299456
 2017-02-05 20:45:52.302949+01 | 1486323952.30295 | pgbench_tellers  |           450560
 2017-02-05 20:45:52.302949+01 | 1486323952.30295 | pgbench_history  |         55345152
 2017-02-05 20:45:52.302949+01 | 1486323952.30295 | pgbench_branches |            40960

 2017-02-05 20:45:53.379917+01 | 1486323953.37992 | pgbench_accounts |      13745299456
 2017-02-05 20:45:53.379917+01 | 1486323953.37992 | pgbench_tellers  |           450560
 2017-02-05 20:45:53.379917+01 | 1486323953.37992 | pgbench_history  |         59875328
 2017-02-05 20:45:53.379917+01 | 1486323953.37992 | pgbench_branches |            40960

 2017-02-05 20:45:54.455202+01 | 1486323954.4552 | pgbench_accounts |      13745299456
 2017-02-05 20:45:54.455202+01 | 1486323954.4552 | pgbench_tellers  |           450560
 2017-02-05 20:45:54.455202+01 | 1486323954.4552 | pgbench_history  |         60743680
 2017-02-05 20:45:54.455202+01 | 1486323954.4552 | pgbench_branches |            40960

 2017-02-05 20:45:55.534314+01 | 1486323955.53431 | pgbench_accounts |      13745299456
 2017-02-05 20:45:55.534314+01 | 1486323955.53431 | pgbench_tellers  |           450560
 2017-02-05 20:45:55.534314+01 | 1486323955.53431 | pgbench_history  |         63463424
 2017-02-05 20:45:55.534314+01 | 1486323955.53431 | pgbench_branches |            40960

 2017-02-05 20:45:56.616521+01 | 1486323956.61652 | pgbench_accounts |      13745299456
 2017-02-05 20:45:56.616521+01 | 1486323956.61652 | pgbench_tellers  |           450560
 2017-02-05 20:45:56.616521+01 | 1486323956.61652 | pgbench_history  |         66486272
 2017-02-05 20:45:56.616521+01 | 1486323956.61652 | pgbench_branches |            40960

 2017-02-05 20:45:57.696204+01 | 1486323957.6962 | pgbench_accounts |      13745299456
 2017-02-05 20:45:57.696204+01 | 1486323957.6962 | pgbench_tellers  |           450560
 2017-02-05 20:45:57.696204+01 | 1486323957.6962 | pgbench_history  |         68894720
 2017-02-05 20:45:57.696204+01 | 1486323957.6962 | pgbench_branches |            40960

 2017-02-05 20:45:58.775177+01 | 1486323958.77518 | pgbench_accounts |      13745299456
 2017-02-05 20:45:58.775177+01 | 1486323958.77518 | pgbench_tellers  |           450560
 2017-02-05 20:45:58.775177+01 | 1486323958.77518 | pgbench_history  |         71917568
 2017-02-05 20:45:58.775177+01 | 1486323958.77518 | pgbench_branches |            40960

 2017-02-05 20:45:59.852923+01 | 1486323959.85292 | pgbench_accounts |      13745299456
 2017-02-05 20:45:59.852923+01 | 1486323959.85292 | pgbench_tellers  |           450560
 2017-02-05 20:45:59.852923+01 | 1486323959.85292 | pgbench_history  |         76922880
 2017-02-05 20:45:59.852923+01 | 1486323959.85292 | pgbench_branches |            40960

 2017-02-05 20:46:00.928683+01 | 1486323960.92868 | pgbench_accounts |      13745299456
 2017-02-05 20:46:00.928683+01 | 1486323960.92868 | pgbench_tellers  |           450560
 2017-02-05 20:46:00.928683+01 | 1486323960.92868 | pgbench_history  |         77602816
 2017-02-05 20:46:00.928683+01 | 1486323960.92868 | pgbench_branches |            40960

 2017-02-05 20:46:02.012726+01 | 1486323962.01273 | pgbench_accounts |      13745299456
 2017-02-05 20:46:02.012726+01 | 1486323962.01273 | pgbench_tellers  |           450560
 2017-02-05 20:46:02.012726+01 | 1486323962.01273 | pgbench_history  |         79667200
 2017-02-05 20:46:02.012726+01 | 1486323962.01273 | pgbench_branches |            40960

 2017-02-05 20:46:03.090098+01 | 1486323963.0901 | pgbench_accounts |      13745299456
 2017-02-05 20:46:03.090098+01 | 1486323963.0901 | pgbench_tellers  |           450560
 2017-02-05 20:46:03.090098+01 | 1486323963.0901 | pgbench_history  |         82575360
 2017-02-05 20:46:03.090098+01 | 1486323963.0901 | pgbench_branches |            40960

 2017-02-05 20:46:04.168202+01 | 1486323964.1682 | pgbench_accounts |      13745299456
 2017-02-05 20:46:04.168202+01 | 1486323964.1682 | pgbench_tellers  |           450560
 2017-02-05 20:46:04.168202+01 | 1486323964.1682 | pgbench_history  |         85434368
 2017-02-05 20:46:04.168202+01 | 1486323964.1682 | pgbench_branches |            40960

 2017-02-05 20:46:05.237968+01 | 1486323965.23797 | pgbench_accounts |      13745299456
 2017-02-05 20:46:05.237968+01 | 1486323965.23797 | pgbench_tellers  |           450560
 2017-02-05 20:46:05.237968+01 | 1486323965.23797 | pgbench_history  |         87425024
 2017-02-05 20:46:05.237968+01 | 1486323965.23797 | pgbench_branches |            40960

 2017-02-05 20:46:06.314307+01 | 1486323966.31431 | pgbench_accounts |      13745299456
 2017-02-05 20:46:06.314307+01 | 1486323966.31431 | pgbench_tellers  |           450560
 2017-02-05 20:46:06.314307+01 | 1486323966.31431 | pgbench_history  |         90939392
 2017-02-05 20:46:06.314307+01 | 1486323966.31431 | pgbench_branches |            40960

 2017-02-05 20:46:07.385635+01 | 1486323967.38563 | pgbench_accounts |      13745299456
 2017-02-05 20:46:07.385635+01 | 1486323967.38563 | pgbench_tellers  |           450560
 2017-02-05 20:46:07.385635+01 | 1486323967.38563 | pgbench_history  |         93798400
 2017-02-05 20:46:07.385635+01 | 1486323967.38563 | pgbench_branches |            40960

 2017-02-05 20:46:08.464092+01 | 1486323968.46409 | pgbench_accounts |      13745299456
 2017-02-05 20:46:08.464092+01 | 1486323968.46409 | pgbench_tellers  |           450560
 2017-02-05 20:46:08.464092+01 | 1486323968.46409 | pgbench_history  |         95322112
 2017-02-05 20:46:08.464092+01 | 1486323968.46409 | pgbench_branches |            40960

 2017-02-05 20:46:09.538895+01 | 1486323969.53889 | pgbench_accounts |      13745299456
 2017-02-05 20:46:09.538895+01 | 1486323969.53889 | pgbench_tellers  |           450560
 2017-02-05 20:46:09.538895+01 | 1486323969.53889 | pgbench_history  |         98541568
 2017-02-05 20:46:09.538895+01 | 1486323969.53889 | pgbench_branches |            40960

 2017-02-05 20:46:10.614624+01 | 1486323970.61462 | pgbench_accounts |      13745299456
 2017-02-05 20:46:10.614624+01 | 1486323970.61462 | pgbench_tellers  |           450560
 2017-02-05 20:46:10.614624+01 | 1486323970.61462 | pgbench_history  |        100556800
 2017-02-05 20:46:10.614624+01 | 1486323970.61462 | pgbench_branches |            40960

 2017-02-05 20:46:11.690823+01 | 1486323971.69082 | pgbench_accounts |      13745299456
 2017-02-05 20:46:11.690823+01 | 1486323971.69082 | pgbench_tellers  |           450560
 2017-02-05 20:46:11.690823+01 | 1486323971.69082 | pgbench_history  |        103669760
 2017-02-05 20:46:11.690823+01 | 1486323971.69082 | pgbench_branches |            40960

 2017-02-05 20:46:12.766575+01 | 1486323972.76658 | pgbench_accounts |      13745299456
 2017-02-05 20:46:12.766575+01 | 1486323972.76658 | pgbench_tellers  |           450560
 2017-02-05 20:46:12.766575+01 | 1486323972.76658 | pgbench_history  |        106225664
 2017-02-05 20:46:12.766575+01 | 1486323972.76658 | pgbench_branches |            40960

 2017-02-05 20:46:13.845717+01 | 1486323973.84572 | pgbench_accounts |      13745299456
 2017-02-05 20:46:13.845717+01 | 1486323973.84572 | pgbench_tellers  |           450560
 2017-02-05 20:46:13.845717+01 | 1486323973.84572 | pgbench_history  |        109084672
 2017-02-05 20:46:13.845717+01 | 1486323973.84572 | pgbench_branches |            40960

 2017-02-05 20:46:14.920618+01 | 1486323974.92062 | pgbench_accounts |      13745299456
 2017-02-05 20:46:14.920618+01 | 1486323974.92062 | pgbench_tellers  |           450560
 2017-02-05 20:46:14.920618+01 | 1486323974.92062 | pgbench_history  |        112926720
 2017-02-05 20:46:14.920618+01 | 1486323974.92062 | pgbench_branches |            40960

 2017-02-05 20:46:15.991485+01 | 1486323975.99149 | pgbench_accounts |      13745299456
 2017-02-05 20:46:15.991485+01 | 1486323975.99149 | pgbench_tellers  |           450560
 2017-02-05 20:46:15.991485+01 | 1486323975.99149 | pgbench_history  |        115597312
 2017-02-05 20:46:15.991485+01 | 1486323975.99149 | pgbench_branches |            40960

 2017-02-05 20:46:17.063932+01 | 1486323977.06393 | pgbench_accounts |      13745299456
 2017-02-05 20:46:17.063932+01 | 1486323977.06393 | pgbench_tellers  |           450560
 2017-02-05 20:46:17.063932+01 | 1486323977.06393 | pgbench_history  |        117825536
 2017-02-05 20:46:17.063932+01 | 1486323977.06393 | pgbench_branches |            40960

 2017-02-05 20:46:18.139268+01 | 1486323978.13927 | pgbench_accounts |      13745299456
 2017-02-05 20:46:18.139268+01 | 1486323978.13927 | pgbench_tellers  |           450560
 2017-02-05 20:46:18.139268+01 | 1486323978.13927 | pgbench_history  |        121389056
 2017-02-05 20:46:18.139268+01 | 1486323978.13927 | pgbench_branches |            40960

 2017-02-05 20:46:19.215726+01 | 1486323979.21573 | pgbench_accounts |      13745299456
 2017-02-05 20:46:19.215726+01 | 1486323979.21573 | pgbench_tellers  |           450560
 2017-02-05 20:46:19.215726+01 | 1486323979.21573 | pgbench_history  |        123961344
 2017-02-05 20:46:19.215726+01 | 1486323979.21573 | pgbench_branches |            40960

 2017-02-05 20:46:20.290965+01 | 1486323980.29097 | pgbench_accounts |      13745299456
 2017-02-05 20:46:20.290965+01 | 1486323980.29097 | pgbench_tellers  |           450560
 2017-02-05 20:46:20.290965+01 | 1486323980.29097 | pgbench_history  |        126697472
 2017-02-05 20:46:20.290965+01 | 1486323980.29097 | pgbench_branches |            40960

 2017-02-05 20:46:21.366655+01 | 1486323981.36666 | pgbench_accounts |      13745299456
 2017-02-05 20:46:21.366655+01 | 1486323981.36666 | pgbench_tellers  |           450560
 2017-02-05 20:46:21.366655+01 | 1486323981.36666 | pgbench_history  |        130048000
 2017-02-05 20:46:21.366655+01 | 1486323981.36666 | pgbench_branches |            40960

 2017-02-05 20:46:22.445148+01 | 1486323982.44515 | pgbench_accounts |      13745299456
 2017-02-05 20:46:22.445148+01 | 1486323982.44515 | pgbench_tellers  |           450560
 2017-02-05 20:46:22.445148+01 | 1486323982.44515 | pgbench_history  |        132423680
 2017-02-05 20:46:22.445148+01 | 1486323982.44515 | pgbench_branches |            40960

 2017-02-05 20:46:23.519599+01 | 1486323983.5196 | pgbench_accounts |      13745299456
 2017-02-05 20:46:23.519599+01 | 1486323983.5196 | pgbench_tellers  |           450560
 2017-02-05 20:46:23.519599+01 | 1486323983.5196 | pgbench_history  |        137494528
 2017-02-05 20:46:23.519599+01 | 1486323983.5196 | pgbench_branches |            40960

 2017-02-05 20:46:24.597586+01 | 1486323984.59759 | pgbench_accounts |      13745299456
 2017-02-05 20:46:24.597586+01 | 1486323984.59759 | pgbench_tellers  |           450560
 2017-02-05 20:46:24.597586+01 | 1486323984.59759 | pgbench_history  |        138338304
 2017-02-05 20:46:24.597586+01 | 1486323984.59759 | pgbench_branches |            40960

 2017-02-05 20:46:25.674944+01 | 1486323985.67494 | pgbench_accounts |      13745299456
 2017-02-05 20:46:25.674944+01 | 1486323985.67494 | pgbench_tellers  |           450560
 2017-02-05 20:46:25.674944+01 | 1486323985.67494 | pgbench_history  |        141737984
 2017-02-05 20:46:25.674944+01 | 1486323985.67494 | pgbench_branches |            40960

 2017-02-05 20:46:26.750892+01 | 1486323986.75089 | pgbench_accounts |      13745299456
 2017-02-05 20:46:26.750892+01 | 1486323986.75089 | pgbench_tellers  |           450560
 2017-02-05 20:46:26.750892+01 | 1486323986.75089 | pgbench_history  |        144629760
 2017-02-05 20:46:26.750892+01 | 1486323986.75089 | pgbench_branches |            40960

 2017-02-05 20:46:27.82293+01 | 1486323987.82293 | pgbench_accounts |      13745299456
 2017-02-05 20:46:27.82293+01 | 1486323987.82293 | pgbench_tellers  |           450560
 2017-02-05 20:46:27.82293+01 | 1486323987.82293 | pgbench_history  |        148217856
 2017-02-05 20:46:27.82293+01 | 1486323987.82293 | pgbench_branches |            40960

 2017-02-05 20:46:28.896391+01 | 1486323988.89639 | pgbench_accounts |      13745299456
 2017-02-05 20:46:28.896391+01 | 1486323988.89639 | pgbench_tellers  |           450560
 2017-02-05 20:46:28.896391+01 | 1486323988.89639 | pgbench_history  |        151265280
 2017-02-05 20:46:28.896391+01 | 1486323988.89639 | pgbench_branches |            40960

 2017-02-05 20:46:29.968112+01 | 1486323989.96811 | pgbench_accounts |      13745299456
 2017-02-05 20:46:29.968112+01 | 1486323989.96811 | pgbench_tellers  |           450560
 2017-02-05 20:46:29.968112+01 | 1486323989.96811 | pgbench_history  |        153477120
 2017-02-05 20:46:29.968112+01 | 1486323989.96811 | pgbench_branches |            40960

 2017-02-05 20:46:31.045339+01 | 1486323991.04534 | pgbench_accounts |      13745299456
 2017-02-05 20:46:31.045339+01 | 1486323991.04534 | pgbench_tellers  |           450560
 2017-02-05 20:46:31.045339+01 | 1486323991.04534 | pgbench_history  |        156803072
 2017-02-05 20:46:31.045339+01 | 1486323991.04534 | pgbench_branches |            40960

 2017-02-05 20:46:32.128405+01 | 1486323992.12841 | pgbench_accounts |      13745299456
 2017-02-05 20:46:32.128405+01 | 1486323992.12841 | pgbench_tellers  |           450560
 2017-02-05 20:46:32.128405+01 | 1486323992.12841 | pgbench_history  |        161136640
 2017-02-05 20:46:32.128405+01 | 1486323992.12841 | pgbench_branches |            40960

 2017-02-05 20:46:33.201082+01 | 1486323993.20108 | pgbench_accounts |      13745299456
 2017-02-05 20:46:33.201082+01 | 1486323993.20108 | pgbench_tellers  |           450560
 2017-02-05 20:46:33.201082+01 | 1486323993.20108 | pgbench_history  |        161988608
 2017-02-05 20:46:33.201082+01 | 1486323993.20108 | pgbench_branches |            40960

 2017-02-05 20:46:34.293597+01 | 1486323994.2936 | pgbench_accounts |      13745299456
 2017-02-05 20:46:34.293597+01 | 1486323994.2936 | pgbench_tellers  |           450560
 2017-02-05 20:46:34.293597+01 | 1486323994.2936 | pgbench_history  |        164896768
 2017-02-05 20:46:34.293597+01 | 1486323994.2936 | pgbench_branches |            40960

 2017-02-05 20:46:35.368514+01 | 1486323995.36851 | pgbench_accounts |      13745299456
 2017-02-05 20:46:35.368514+01 | 1486323995.36851 | pgbench_tellers  |           450560
 2017-02-05 20:46:35.368514+01 | 1486323995.36851 | pgbench_history  |        167452672
 2017-02-05 20:46:35.368514+01 | 1486323995.36851 | pgbench_branches |            40960

 2017-02-05 20:46:36.439479+01 | 1486323996.43948 | pgbench_accounts |      13745299456
 2017-02-05 20:46:36.439479+01 | 1486323996.43948 | pgbench_tellers  |           450560
 2017-02-05 20:46:36.439479+01 | 1486323996.43948 | pgbench_history  |        170205184
 2017-02-05 20:46:36.439479+01 | 1486323996.43948 | pgbench_branches |            40960

 2017-02-05 20:46:37.519306+01 | 1486323997.51931 | pgbench_accounts |      13745299456
 2017-02-05 20:46:37.519306+01 | 1486323997.51931 | pgbench_tellers  |           450560
 2017-02-05 20:46:37.519306+01 | 1486323997.51931 | pgbench_history  |        174424064
 2017-02-05 20:46:37.519306+01 | 1486323997.51931 | pgbench_branches |            40960

 2017-02-05 20:46:38.599321+01 | 1486323998.59932 | pgbench_accounts |      13745299456
 2017-02-05 20:46:38.599321+01 | 1486323998.59932 | pgbench_tellers  |           450560
 2017-02-05 20:46:38.599321+01 | 1486323998.59932 | pgbench_history  |        176439296
 2017-02-05 20:46:38.599321+01 | 1486323998.59932 | pgbench_branches |            40960

 2017-02-05 20:46:39.676595+01 | 1486323999.67659 | pgbench_accounts |      13745299456
 2017-02-05 20:46:39.676595+01 | 1486323999.67659 | pgbench_tellers  |           450560
 2017-02-05 20:46:39.676595+01 | 1486323999.67659 | pgbench_history  |        179298304
 2017-02-05 20:46:39.676595+01 | 1486323999.67659 | pgbench_branches |            40960

 2017-02-05 20:46:40.756848+01 | 1486324000.75685 | pgbench_accounts |      13745299456
 2017-02-05 20:46:40.756848+01 | 1486324000.75685 | pgbench_tellers  |           450560
 2017-02-05 20:46:40.756848+01 | 1486324000.75685 | pgbench_history  |        182108160
 2017-02-05 20:46:40.756848+01 | 1486324000.75685 | pgbench_branches |            40960

 2017-02-05 20:46:41.831454+01 | 1486324001.83145 | pgbench_accounts |      13745299456
 2017-02-05 20:46:41.831454+01 | 1486324001.83145 | pgbench_tellers  |           450560
 2017-02-05 20:46:41.831454+01 | 1486324001.83145 | pgbench_history  |        184336384
 2017-02-05 20:46:41.831454+01 | 1486324001.83145 | pgbench_branches |            40960

 2017-02-05 20:46:42.909408+01 | 1486324002.90941 | pgbench_accounts |      13745299456
 2017-02-05 20:46:42.909408+01 | 1486324002.90941 | pgbench_tellers  |           450560
 2017-02-05 20:46:42.909408+01 | 1486324002.90941 | pgbench_history  |        186892288
 2017-02-05 20:46:42.909408+01 | 1486324002.90941 | pgbench_branches |            40960

 2017-02-05 20:46:43.985616+01 | 1486324003.98562 | pgbench_accounts |      13745299456
 2017-02-05 20:46:43.985616+01 | 1486324003.98562 | pgbench_tellers  |           450560
 2017-02-05 20:46:43.985616+01 | 1486324003.98562 | pgbench_history  |        191062016
 2017-02-05 20:46:43.985616+01 | 1486324003.98562 | pgbench_branches |            40960

 2017-02-05 20:46:45.065095+01 | 1486324005.06509 | pgbench_accounts |      13745299456
 2017-02-05 20:46:45.065095+01 | 1486324005.06509 | pgbench_tellers  |           450560
 2017-02-05 20:46:45.065095+01 | 1486324005.06509 | pgbench_history  |        192266240
 2017-02-05 20:46:45.065095+01 | 1486324005.06509 | pgbench_branches |            40960

 2017-02-05 20:46:46.144738+01 | 1486324006.14474 | pgbench_accounts |      13745299456
 2017-02-05 20:46:46.144738+01 | 1486324006.14474 | pgbench_tellers  |           450560
 2017-02-05 20:46:46.144738+01 | 1486324006.14474 | pgbench_history  |        194797568
 2017-02-05 20:46:46.144738+01 | 1486324006.14474 | pgbench_branches |            40960

 2017-02-05 20:46:47.222275+01 | 1486324007.22228 | pgbench_accounts |      13745299456
 2017-02-05 20:46:47.222275+01 | 1486324007.22228 | pgbench_tellers  |           450560
 2017-02-05 20:46:47.222275+01 | 1486324007.22228 | pgbench_history  |        198172672
 2017-02-05 20:46:47.222275+01 | 1486324007.22228 | pgbench_branches |            40960

 2017-02-05 20:46:48.298664+01 | 1486324008.29866 | pgbench_accounts |      13745299456
 2017-02-05 20:46:48.298664+01 | 1486324008.29866 | pgbench_tellers  |           450560
 2017-02-05 20:46:48.298664+01 | 1486324008.29866 | pgbench_history  |        199860224
 2017-02-05 20:46:48.298664+01 | 1486324008.29866 | pgbench_branches |            40960

 2017-02-05 20:46:49.369773+01 | 1486324009.36977 | pgbench_accounts |      13745299456
 2017-02-05 20:46:49.369773+01 | 1486324009.36977 | pgbench_tellers  |           450560
 2017-02-05 20:46:49.369773+01 | 1486324009.36977 | pgbench_history  |        201875456
 2017-02-05 20:46:49.369773+01 | 1486324009.36977 | pgbench_branches |            40960

 2017-02-05 20:46:50.443417+01 | 1486324010.44342 | pgbench_accounts |      13745299456
 2017-02-05 20:46:50.443417+01 | 1486324010.44342 | pgbench_tellers  |           450560
 2017-02-05 20:46:50.443417+01 | 1486324010.44342 | pgbench_history  |        204431360
 2017-02-05 20:46:50.443417+01 | 1486324010.44342 | pgbench_branches |            40960

 2017-02-05 20:46:51.519338+01 | 1486324011.51934 | pgbench_accounts |      13745299456
 2017-02-05 20:46:51.519338+01 | 1486324011.51934 | pgbench_tellers  |           450560
 2017-02-05 20:46:51.519338+01 | 1486324011.51934 | pgbench_history  |        208461824
 2017-02-05 20:46:51.519338+01 | 1486324011.51934 | pgbench_branches |            40960

 2017-02-05 20:46:52.596157+01 | 1486324012.59616 | pgbench_accounts |      13745299456
 2017-02-05 20:46:52.596157+01 | 1486324012.59616 | pgbench_tellers  |           450560
 2017-02-05 20:46:52.596157+01 | 1486324012.59616 | pgbench_history  |        210640896
 2017-02-05 20:46:52.596157+01 | 1486324012.59616 | pgbench_branches |            40960

 2017-02-05 20:46:53.674051+01 | 1486324013.67405 | pgbench_accounts |      13745299456
 2017-02-05 20:46:53.674051+01 | 1486324013.67405 | pgbench_tellers  |           450560
 2017-02-05 20:46:53.674051+01 | 1486324013.67405 | pgbench_history  |        213688320
 2017-02-05 20:46:53.674051+01 | 1486324013.67405 | pgbench_branches |            40960

 2017-02-05 20:46:54.755267+01 | 1486324014.75527 | pgbench_accounts |      13745299456
 2017-02-05 20:46:54.755267+01 | 1486324014.75527 | pgbench_tellers  |           450560
 2017-02-05 20:46:54.755267+01 | 1486324014.75527 | pgbench_history  |        216875008
 2017-02-05 20:46:54.755267+01 | 1486324014.75527 | pgbench_branches |            40960

 2017-02-05 20:46:55.834611+01 | 1486324015.83461 | pgbench_accounts |      13745299456
 2017-02-05 20:46:55.834611+01 | 1486324015.83461 | pgbench_tellers  |           450560
 2017-02-05 20:46:55.834611+01 | 1486324015.83461 | pgbench_history  |        219742208
 2017-02-05 20:46:55.834611+01 | 1486324015.83461 | pgbench_branches |            40960

 2017-02-05 20:46:56.911313+01 | 1486324016.91131 | pgbench_accounts |      13745299456
 2017-02-05 20:46:56.911313+01 | 1486324016.91131 | pgbench_tellers  |           450560
 2017-02-05 20:46:56.911313+01 | 1486324016.91131 | pgbench_history  |        222658560
 2017-02-05 20:46:56.911313+01 | 1486324016.91131 | pgbench_branches |            40960

 2017-02-05 20:46:57.985895+01 | 1486324017.98589 | pgbench_accounts |      13745299456
 2017-02-05 20:46:57.985895+01 | 1486324017.98589 | pgbench_tellers  |           450560
 2017-02-05 20:46:57.985895+01 | 1486324017.98589 | pgbench_history  |        226172928
 2017-02-05 20:46:57.985895+01 | 1486324017.98589 | pgbench_branches |            40960

 2017-02-05 20:46:59.063997+01 | 1486324019.064 | pgbench_accounts |      13745299456
 2017-02-05 20:46:59.063997+01 | 1486324019.064 | pgbench_tellers  |           450560
 2017-02-05 20:46:59.063997+01 | 1486324019.064 | pgbench_history  |        228515840
 2017-02-05 20:46:59.063997+01 | 1486324019.064 | pgbench_branches |            40960

 2017-02-05 20:47:00.139506+01 | 1486324020.13951 | pgbench_accounts |      13745299456
 2017-02-05 20:47:00.139506+01 | 1486324020.13951 | pgbench_tellers  |           450560
 2017-02-05 20:47:00.139506+01 | 1486324020.13951 | pgbench_history  |        231186432
 2017-02-05 20:47:00.139506+01 | 1486324020.13951 | pgbench_branches |            40960

 2017-02-05 20:47:01.215278+01 | 1486324021.21528 | pgbench_accounts |      13745299456
 2017-02-05 20:47:01.215278+01 | 1486324021.21528 | pgbench_tellers  |           450560
 2017-02-05 20:47:01.215278+01 | 1486324021.21528 | pgbench_history  |        235405312
 2017-02-05 20:47:01.215278+01 | 1486324021.21528 | pgbench_branches |            40960

 2017-02-05 20:47:02.293492+01 | 1486324022.29349 | pgbench_accounts |      13745299456
 2017-02-05 20:47:02.293492+01 | 1486324022.29349 | pgbench_tellers  |           450560
 2017-02-05 20:47:02.293492+01 | 1486324022.29349 | pgbench_history  |        237076480
 2017-02-05 20:47:02.293492+01 | 1486324022.29349 | pgbench_branches |            40960

 2017-02-05 20:47:03.373353+01 | 1486324023.37335 | pgbench_accounts |      13745299456
 2017-02-05 20:47:03.373353+01 | 1486324023.37335 | pgbench_tellers  |           450560
 2017-02-05 20:47:03.373353+01 | 1486324023.37335 | pgbench_history  |        239951872
 2017-02-05 20:47:03.373353+01 | 1486324023.37335 | pgbench_branches |            40960

 2017-02-05 20:47:04.44862+01 | 1486324024.44862 | pgbench_accounts |      13745299456
 2017-02-05 20:47:04.44862+01 | 1486324024.44862 | pgbench_tellers  |           450560
 2017-02-05 20:47:04.44862+01 | 1486324024.44862 | pgbench_history  |        245481472
 2017-02-05 20:47:04.44862+01 | 1486324024.44862 | pgbench_branches |            40960

 2017-02-05 20:47:05.526154+01 | 1486324025.52615 | pgbench_accounts |      13745299456
 2017-02-05 20:47:05.526154+01 | 1486324025.52615 | pgbench_tellers  |           450560
 2017-02-05 20:47:05.526154+01 | 1486324025.52615 | pgbench_history  |        245858304
 2017-02-05 20:47:05.526154+01 | 1486324025.52615 | pgbench_branches |            40960

 2017-02-05 20:47:06.606683+01 | 1486324026.60668 | pgbench_accounts |      13745299456
 2017-02-05 20:47:06.606683+01 | 1486324026.60668 | pgbench_tellers  |           450560
 2017-02-05 20:47:06.606683+01 | 1486324026.60668 | pgbench_history  |        249511936
 2017-02-05 20:47:06.606683+01 | 1486324026.60668 | pgbench_branches |            40960

 2017-02-05 20:47:07.681763+01 | 1486324027.68176 | pgbench_accounts |      13745299456
 2017-02-05 20:47:07.681763+01 | 1486324027.68176 | pgbench_tellers  |           450560
 2017-02-05 20:47:07.681763+01 | 1486324027.68176 | pgbench_history  |        251748352
 2017-02-05 20:47:07.681763+01 | 1486324027.68176 | pgbench_branches |            40960

 2017-02-05 20:47:08.756258+01 | 1486324028.75626 | pgbench_accounts |      13745299456
 2017-02-05 20:47:08.756258+01 | 1486324028.75626 | pgbench_tellers  |           450560
 2017-02-05 20:47:08.756258+01 | 1486324028.75626 | pgbench_history  |        254443520
 2017-02-05 20:47:08.756258+01 | 1486324028.75626 | pgbench_branches |            40960

 2017-02-05 20:47:09.827479+01 | 1486324029.82748 | pgbench_accounts |      13745299456
 2017-02-05 20:47:09.827479+01 | 1486324029.82748 | pgbench_tellers  |           450560
 2017-02-05 20:47:09.827479+01 | 1486324029.82748 | pgbench_history  |        258514944
 2017-02-05 20:47:09.827479+01 | 1486324029.82748 | pgbench_branches |            40960

 2017-02-05 20:47:10.900162+01 | 1486324030.90016 | pgbench_accounts |      13745299456
 2017-02-05 20:47:10.900162+01 | 1486324030.90016 | pgbench_tellers  |           450560
 2017-02-05 20:47:10.900162+01 | 1486324030.90016 | pgbench_history  |        260202496
 2017-02-05 20:47:10.900162+01 | 1486324030.90016 | pgbench_branches |            40960

 2017-02-05 20:47:11.976125+01 | 1486324031.97613 | pgbench_accounts |      13745299456
 2017-02-05 20:47:11.976125+01 | 1486324031.97613 | pgbench_tellers  |           450560
 2017-02-05 20:47:11.976125+01 | 1486324031.97613 | pgbench_history  |        263471104
 2017-02-05 20:47:11.976125+01 | 1486324031.97613 | pgbench_branches |            40960

 2017-02-05 20:47:13.054571+01 | 1486324033.05457 | pgbench_accounts |      13745299456
 2017-02-05 20:47:13.054571+01 | 1486324033.05457 | pgbench_tellers  |           450560
 2017-02-05 20:47:13.054571+01 | 1486324033.05457 | pgbench_history  |        268484608
 2017-02-05 20:47:13.054571+01 | 1486324033.05457 | pgbench_branches |            40960

 2017-02-05 20:47:14.135392+01 | 1486324034.13539 | pgbench_accounts |      13745299456
 2017-02-05 20:47:14.135392+01 | 1486324034.13539 | pgbench_tellers  |           450560
 2017-02-05 20:47:14.135392+01 | 1486324034.13539 | pgbench_history  |        270475264
 2017-02-05 20:47:14.135392+01 | 1486324034.13539 | pgbench_branches |            40960

 2017-02-05 20:47:15.216194+01 | 1486324035.21619 | pgbench_accounts |      13745299456
 2017-02-05 20:47:15.216194+01 | 1486324035.21619 | pgbench_tellers  |           450560
 2017-02-05 20:47:15.216194+01 | 1486324035.21619 | pgbench_history  |        272982016
 2017-02-05 20:47:15.216194+01 | 1486324035.21619 | pgbench_branches |            40960

 2017-02-05 20:47:16.291671+01 | 1486324036.29167 | pgbench_accounts |      13745299456
 2017-02-05 20:47:16.291671+01 | 1486324036.29167 | pgbench_tellers  |           450560
 2017-02-05 20:47:16.291671+01 | 1486324036.29167 | pgbench_history  |        275005440
 2017-02-05 20:47:16.291671+01 | 1486324036.29167 | pgbench_branches |            40960

 2017-02-05 20:47:17.368312+01 | 1486324037.36831 | pgbench_accounts |      13745299456
 2017-02-05 20:47:17.368312+01 | 1486324037.36831 | pgbench_tellers  |           450560
 2017-02-05 20:47:17.368312+01 | 1486324037.36831 | pgbench_history  |        278077440
 2017-02-05 20:47:17.368312+01 | 1486324037.36831 | pgbench_branches |            40960

 2017-02-05 20:47:18.44728+01 | 1486324038.44728 | pgbench_accounts |      13745299456
 2017-02-05 20:47:18.44728+01 | 1486324038.44728 | pgbench_tellers  |           450560
 2017-02-05 20:47:18.44728+01 | 1486324038.44728 | pgbench_history  |        281010176
 2017-02-05 20:47:18.44728+01 | 1486324038.44728 | pgbench_branches |            40960

 2017-02-05 20:47:19.521546+01 | 1486324039.52155 | pgbench_accounts |      13745299456
 2017-02-05 20:47:19.521546+01 | 1486324039.52155 | pgbench_tellers  |           450560
 2017-02-05 20:47:19.521546+01 | 1486324039.52155 | pgbench_history  |        284196864
 2017-02-05 20:47:19.521546+01 | 1486324039.52155 | pgbench_branches |            40960

 2017-02-05 20:47:20.59909+01 | 1486324040.59909 | pgbench_accounts |      13745299456
 2017-02-05 20:47:20.59909+01 | 1486324040.59909 | pgbench_tellers  |           450560
 2017-02-05 20:47:20.59909+01 | 1486324040.59909 | pgbench_history  |        288858112
 2017-02-05 20:47:20.59909+01 | 1486324040.59909 | pgbench_branches |            40960

 2017-02-05 20:47:21.678332+01 | 1486324041.67833 | pgbench_accounts |      13745299456
 2017-02-05 20:47:21.678332+01 | 1486324041.67833 | pgbench_tellers  |           450560
 2017-02-05 20:47:21.678332+01 | 1486324041.67833 | pgbench_history  |        290029568
 2017-02-05 20:47:21.678332+01 | 1486324041.67833 | pgbench_branches |            40960

 2017-02-05 20:47:22.751812+01 | 1486324042.75181 | pgbench_accounts |      13745299456
 2017-02-05 20:47:22.751812+01 | 1486324042.75181 | pgbench_tellers  |           450560
 2017-02-05 20:47:22.751812+01 | 1486324042.75181 | pgbench_history  |        293249024
 2017-02-05 20:47:22.751812+01 | 1486324042.75181 | pgbench_branches |            40960

 2017-02-05 20:47:23.829613+01 | 1486324043.82961 | pgbench_accounts |      13745299456
 2017-02-05 20:47:23.829613+01 | 1486324043.82961 | pgbench_tellers  |           450560
 2017-02-05 20:47:23.829613+01 | 1486324043.82961 | pgbench_history  |        295968768
 2017-02-05 20:47:23.829613+01 | 1486324043.82961 | pgbench_branches |            40960

 2017-02-05 20:47:24.904654+01 | 1486324044.90465 | pgbench_accounts |      13745299456
 2017-02-05 20:47:24.904654+01 | 1486324044.90465 | pgbench_tellers  |           450560
 2017-02-05 20:47:24.904654+01 | 1486324044.90465 | pgbench_history  |        298762240
 2017-02-05 20:47:24.904654+01 | 1486324044.90465 | pgbench_branches |            40960

 2017-02-05 20:47:25.984856+01 | 1486324045.98486 | pgbench_accounts |      13745299456
 2017-02-05 20:47:25.984856+01 | 1486324045.98486 | pgbench_tellers  |           450560
 2017-02-05 20:47:25.984856+01 | 1486324045.98486 | pgbench_history  |        301621248
 2017-02-05 20:47:25.984856+01 | 1486324045.98486 | pgbench_branches |            40960

 2017-02-05 20:47:27.057615+01 | 1486324047.05762 | pgbench_accounts |      13745299456
 2017-02-05 20:47:27.057615+01 | 1486324047.05762 | pgbench_tellers  |           450560
 2017-02-05 20:47:27.057615+01 | 1486324047.05762 | pgbench_history  |        304160768
 2017-02-05 20:47:27.057615+01 | 1486324047.05762 | pgbench_branches |            40960

 2017-02-05 20:47:28.14481+01 | 1486324048.14481 | pgbench_accounts |      13745299456
 2017-02-05 20:47:28.14481+01 | 1486324048.14481 | pgbench_tellers  |           450560
 2017-02-05 20:47:28.14481+01 | 1486324048.14481 | pgbench_history  |        307208192
 2017-02-05 20:47:28.14481+01 | 1486324048.14481 | pgbench_branches |            40960

 2017-02-05 20:47:29.220553+01 | 1486324049.22055 | pgbench_accounts |      13745299456
 2017-02-05 20:47:29.220553+01 | 1486324049.22055 | pgbench_tellers  |           450560
 2017-02-05 20:47:29.220553+01 | 1486324049.22055 | pgbench_history  |        310738944
 2017-02-05 20:47:29.220553+01 | 1486324049.22055 | pgbench_branches |            40960

 2017-02-05 20:47:30.297953+01 | 1486324050.29795 | pgbench_accounts |      13745299456
 2017-02-05 20:47:30.297953+01 | 1486324050.29795 | pgbench_tellers  |           450560
 2017-02-05 20:47:30.297953+01 | 1486324050.29795 | pgbench_history  |        312958976
 2017-02-05 20:47:30.297953+01 | 1486324050.29795 | pgbench_branches |            40960

 2017-02-05 20:47:31.367621+01 | 1486324051.36762 | pgbench_accounts |      13745299456
 2017-02-05 20:47:31.367621+01 | 1486324051.36762 | pgbench_tellers  |           450560
 2017-02-05 20:47:31.367621+01 | 1486324051.36762 | pgbench_history  |        316325888
 2017-02-05 20:47:31.367621+01 | 1486324051.36762 | pgbench_branches |            40960

 2017-02-05 20:47:32.444663+01 | 1486324052.44466 | pgbench_accounts |      13745299456
 2017-02-05 20:47:32.444663+01 | 1486324052.44466 | pgbench_tellers  |           450560
 2017-02-05 20:47:32.444663+01 | 1486324052.44466 | pgbench_history  |        318668800
 2017-02-05 20:47:32.444663+01 | 1486324052.44466 | pgbench_branches |            40960

 2017-02-05 20:47:33.524072+01 | 1486324053.52407 | pgbench_accounts |      13745299456
 2017-02-05 20:47:33.524072+01 | 1486324053.52407 | pgbench_tellers  |           450560
 2017-02-05 20:47:33.524072+01 | 1486324053.52407 | pgbench_history  |        322207744
 2017-02-05 20:47:33.524072+01 | 1486324053.52407 | pgbench_branches |            40960

 2017-02-05 20:47:34.608149+01 | 1486324054.60815 | pgbench_accounts |      13745299456
 2017-02-05 20:47:34.608149+01 | 1486324054.60815 | pgbench_tellers  |           450560
 2017-02-05 20:47:34.608149+01 | 1486324054.60815 | pgbench_history  |        325091328
 2017-02-05 20:47:34.608149+01 | 1486324054.60815 | pgbench_branches |            40960

 2017-02-05 20:47:35.68118+01 | 1486324055.68118 | pgbench_accounts |      13745299456
 2017-02-05 20:47:35.68118+01 | 1486324055.68118 | pgbench_tellers  |           450560
 2017-02-05 20:47:35.68118+01 | 1486324055.68118 | pgbench_history  |        327761920
 2017-02-05 20:47:35.68118+01 | 1486324055.68118 | pgbench_branches |            40960

 2017-02-05 20:47:36.756094+01 | 1486324056.75609 | pgbench_accounts |      13745299456
 2017-02-05 20:47:36.756094+01 | 1486324056.75609 | pgbench_tellers  |           450560
 2017-02-05 20:47:36.756094+01 | 1486324056.75609 | pgbench_history  |        330973184
 2017-02-05 20:47:36.756094+01 | 1486324056.75609 | pgbench_branches |            40960

 2017-02-05 20:47:37.833285+01 | 1486324057.83329 | pgbench_accounts |      13745299456
 2017-02-05 20:47:37.833285+01 | 1486324057.83329 | pgbench_tellers  |           450560
 2017-02-05 20:47:37.833285+01 | 1486324057.83329 | pgbench_history  |        333012992
 2017-02-05 20:47:37.833285+01 | 1486324057.83329 | pgbench_branches |            40960

 2017-02-05 20:47:38.912907+01 | 1486324058.91291 | pgbench_accounts |      13745299456
 2017-02-05 20:47:38.912907+01 | 1486324058.91291 | pgbench_tellers  |           450560
 2017-02-05 20:47:38.912907+01 | 1486324058.91291 | pgbench_history  |        336584704
 2017-02-05 20:47:38.912907+01 | 1486324058.91291 | pgbench_branches |            40960

 2017-02-05 20:47:39.986328+01 | 1486324059.98633 | pgbench_accounts |      13745299456
 2017-02-05 20:47:39.986328+01 | 1486324059.98633 | pgbench_tellers  |           450560
 2017-02-05 20:47:39.986328+01 | 1486324059.98633 | pgbench_history  |        340238336
 2017-02-05 20:47:39.986328+01 | 1486324059.98633 | pgbench_branches |            40960

 2017-02-05 20:47:41.062108+01 | 1486324061.06211 | pgbench_accounts |      13745299456
 2017-02-05 20:47:41.062108+01 | 1486324061.06211 | pgbench_tellers  |           450560
 2017-02-05 20:47:41.062108+01 | 1486324061.06211 | pgbench_history  |        342253568
 2017-02-05 20:47:41.062108+01 | 1486324061.06211 | pgbench_branches |            40960

 2017-02-05 20:47:42.137178+01 | 1486324062.13718 | pgbench_accounts |      13745299456
 2017-02-05 20:47:42.137178+01 | 1486324062.13718 | pgbench_tellers  |           450560
 2017-02-05 20:47:42.137178+01 | 1486324062.13718 | pgbench_history  |        345817088
 2017-02-05 20:47:42.137178+01 | 1486324062.13718 | pgbench_branches |            40960

 2017-02-05 20:47:43.215369+01 | 1486324063.21537 | pgbench_accounts |      13745299456
 2017-02-05 20:47:43.215369+01 | 1486324063.21537 | pgbench_tellers  |           450560
 2017-02-05 20:47:43.215369+01 | 1486324063.21537 | pgbench_history  |        348184576
 2017-02-05 20:47:43.215369+01 | 1486324063.21537 | pgbench_branches |            40960

 2017-02-05 20:47:44.296949+01 | 1486324064.29695 | pgbench_accounts |      13745299456
 2017-02-05 20:47:44.296949+01 | 1486324064.29695 | pgbench_tellers  |           450560
 2017-02-05 20:47:44.296949+01 | 1486324064.29695 | pgbench_history  |        350715904
 2017-02-05 20:47:44.296949+01 | 1486324064.29695 | pgbench_branches |            40960

 2017-02-05 20:47:45.375437+01 | 1486324065.37544 | pgbench_accounts |      13745299456
 2017-02-05 20:47:45.375437+01 | 1486324065.37544 | pgbench_tellers  |           450560
 2017-02-05 20:47:45.375437+01 | 1486324065.37544 | pgbench_history  |        353935360
 2017-02-05 20:47:45.375437+01 | 1486324065.37544 | pgbench_branches |            40960

 2017-02-05 20:47:46.456057+01 | 1486324066.45606 | pgbench_accounts |      13745299456
 2017-02-05 20:47:46.456057+01 | 1486324066.45606 | pgbench_tellers  |           450560
 2017-02-05 20:47:46.456057+01 | 1486324066.45606 | pgbench_history  |        357425152
 2017-02-05 20:47:46.456057+01 | 1486324066.45606 | pgbench_branches |            40960

 2017-02-05 20:47:47.53271+01 | 1486324067.53271 | pgbench_accounts |      13745299456
 2017-02-05 20:47:47.53271+01 | 1486324067.53271 | pgbench_tellers  |           450560
 2017-02-05 20:47:47.53271+01 | 1486324067.53271 | pgbench_history  |        360751104
 2017-02-05 20:47:47.53271+01 | 1486324067.53271 | pgbench_branches |            40960

 2017-02-05 20:47:48.609051+01 | 1486324068.60905 | pgbench_accounts |      13745299456
 2017-02-05 20:47:48.609051+01 | 1486324068.60905 | pgbench_tellers  |           450560
 2017-02-05 20:47:48.609051+01 | 1486324068.60905 | pgbench_history  |        362471424
 2017-02-05 20:47:48.609051+01 | 1486324068.60905 | pgbench_branches |            40960

 2017-02-05 20:47:49.685374+01 | 1486324069.68537 | pgbench_accounts |      13745299456
 2017-02-05 20:47:49.685374+01 | 1486324069.68537 | pgbench_tellers  |           450560
 2017-02-05 20:47:49.685374+01 | 1486324069.68537 | pgbench_history  |        366379008
 2017-02-05 20:47:49.685374+01 | 1486324069.68537 | pgbench_branches |            40960

 2017-02-05 20:47:50.765886+01 | 1486324070.76589 | pgbench_accounts |      13745299456
 2017-02-05 20:47:50.765886+01 | 1486324070.76589 | pgbench_tellers  |           450560
 2017-02-05 20:47:50.765886+01 | 1486324070.76589 | pgbench_history  |        368238592
 2017-02-05 20:47:50.765886+01 | 1486324070.76589 | pgbench_branches |            40960

 2017-02-05 20:47:51.8401+01 | 1486324071.8401 | pgbench_accounts |      13745299456
 2017-02-05 20:47:51.8401+01 | 1486324071.8401 | pgbench_tellers  |           450560
 2017-02-05 20:47:51.8401+01 | 1486324071.8401 | pgbench_history  |        372219904
 2017-02-05 20:47:51.8401+01 | 1486324071.8401 | pgbench_branches |            40960

 2017-02-05 20:47:52.915808+01 | 1486324072.91581 | pgbench_accounts |      13745299456
 2017-02-05 20:47:52.915808+01 | 1486324072.91581 | pgbench_tellers  |           450560
 2017-02-05 20:47:52.915808+01 | 1486324072.91581 | pgbench_history  |        374562816
 2017-02-05 20:47:52.915808+01 | 1486324072.91581 | pgbench_branches |            40960

 2017-02-05 20:47:53.988772+01 | 1486324073.98877 | pgbench_accounts |      13745299456
 2017-02-05 20:47:53.988772+01 | 1486324073.98877 | pgbench_tellers  |           450560
 2017-02-05 20:47:53.988772+01 | 1486324073.98877 | pgbench_history  |        377241600
 2017-02-05 20:47:53.988772+01 | 1486324073.98877 | pgbench_branches |            40960

 2017-02-05 20:47:55.063041+01 | 1486324075.06304 | pgbench_accounts |      13745299456
 2017-02-05 20:47:55.063041+01 | 1486324075.06304 | pgbench_tellers  |           450560
 2017-02-05 20:47:55.063041+01 | 1486324075.06304 | pgbench_history  |        380944384
 2017-02-05 20:47:55.063041+01 | 1486324075.06304 | pgbench_branches |            40960

 2017-02-05 20:47:56.144553+01 | 1486324076.14455 | pgbench_accounts |      13745299456
 2017-02-05 20:47:56.144553+01 | 1486324076.14455 | pgbench_tellers  |           450560
 2017-02-05 20:47:56.144553+01 | 1486324076.14455 | pgbench_history  |        382795776
 2017-02-05 20:47:56.144553+01 | 1486324076.14455 | pgbench_branches |            40960

 2017-02-05 20:47:57.220325+01 | 1486324077.22032 | pgbench_accounts |      13745299456
 2017-02-05 20:47:57.220325+01 | 1486324077.22032 | pgbench_tellers  |           450560
 2017-02-05 20:47:57.220325+01 | 1486324077.22032 | pgbench_history  |        385712128
 2017-02-05 20:47:57.220325+01 | 1486324077.22032 | pgbench_branches |            40960

 2017-02-05 20:47:58.294275+01 | 1486324078.29428 | pgbench_accounts |      13745299456
 2017-02-05 20:47:58.294275+01 | 1486324078.29428 | pgbench_tellers  |           450560
 2017-02-05 20:47:58.294275+01 | 1486324078.29428 | pgbench_history  |        389529600
 2017-02-05 20:47:58.294275+01 | 1486324078.29428 | pgbench_branches |            40960

 2017-02-05 20:47:59.368878+01 | 1486324079.36888 | pgbench_accounts |      13745299456
 2017-02-05 20:47:59.368878+01 | 1486324079.36888 | pgbench_tellers  |           450560
 2017-02-05 20:47:59.368878+01 | 1486324079.36888 | pgbench_history  |        392888320
 2017-02-05 20:47:59.368878+01 | 1486324079.36888 | pgbench_branches |            40960

 2017-02-05 20:48:00.440114+01 | 1486324080.44011 | pgbench_accounts |      13745299456
 2017-02-05 20:48:00.440114+01 | 1486324080.44011 | pgbench_tellers  |           450560
 2017-02-05 20:48:00.440114+01 | 1486324080.44011 | pgbench_history  |        394739712
 2017-02-05 20:48:00.440114+01 | 1486324080.44011 | pgbench_branches |            40960

 2017-02-05 20:48:01.522071+01 | 1486324081.52207 | pgbench_accounts |      13745299456
 2017-02-05 20:48:01.522071+01 | 1486324081.52207 | pgbench_tellers  |           450560
 2017-02-05 20:48:01.522071+01 | 1486324081.52207 | pgbench_history  |        397926400
 2017-02-05 20:48:01.522071+01 | 1486324081.52207 | pgbench_branches |            40960

 2017-02-05 20:48:02.601068+01 | 1486324082.60107 | pgbench_accounts |      13745299456
 2017-02-05 20:48:02.601068+01 | 1486324082.60107 | pgbench_tellers  |           450560
 2017-02-05 20:48:02.601068+01 | 1486324082.60107 | pgbench_history  |        401276928
 2017-02-05 20:48:02.601068+01 | 1486324082.60107 | pgbench_branches |            40960

 2017-02-05 20:48:03.676048+01 | 1486324083.67605 | pgbench_accounts |      13745299456
 2017-02-05 20:48:03.676048+01 | 1486324083.67605 | pgbench_tellers  |           450560
 2017-02-05 20:48:03.676048+01 | 1486324083.67605 | pgbench_history  |        402989056
 2017-02-05 20:48:03.676048+01 | 1486324083.67605 | pgbench_branches |            40960

 2017-02-05 20:48:04.751301+01 | 1486324084.7513 | pgbench_accounts |      13745299456
 2017-02-05 20:48:04.751301+01 | 1486324084.7513 | pgbench_tellers  |           450560
 2017-02-05 20:48:04.751301+01 | 1486324084.7513 | pgbench_history  |        406315008
 2017-02-05 20:48:04.751301+01 | 1486324084.7513 | pgbench_branches |            40960

 2017-02-05 20:48:05.829534+01 | 1486324085.82953 | pgbench_accounts |      13745299456
 2017-02-05 20:48:05.829534+01 | 1486324085.82953 | pgbench_tellers  |           450560
 2017-02-05 20:48:05.829534+01 | 1486324085.82953 | pgbench_history  |        411000832
 2017-02-05 20:48:05.829534+01 | 1486324085.82953 | pgbench_branches |            40960

 2017-02-05 20:48:06.904544+01 | 1486324086.90454 | pgbench_accounts |      13745299456
 2017-02-05 20:48:06.904544+01 | 1486324086.90454 | pgbench_tellers  |           450560
 2017-02-05 20:48:06.904544+01 | 1486324086.90454 | pgbench_history  |        412008448
 2017-02-05 20:48:06.904544+01 | 1486324086.90454 | pgbench_branches |            40960

 2017-02-05 20:48:07.982548+01 | 1486324087.98255 | pgbench_accounts |      13745299456
 2017-02-05 20:48:07.982548+01 | 1486324087.98255 | pgbench_tellers  |           450560
 2017-02-05 20:48:07.982548+01 | 1486324087.98255 | pgbench_history  |        414375936
 2017-02-05 20:48:07.982548+01 | 1486324087.98255 | pgbench_branches |            40960

 2017-02-05 20:48:09.056689+01 | 1486324089.05669 | pgbench_accounts |      13745299456
 2017-02-05 20:48:09.056689+01 | 1486324089.05669 | pgbench_tellers  |           450560
 2017-02-05 20:48:09.056689+01 | 1486324089.05669 | pgbench_history  |        417398784
 2017-02-05 20:48:09.056689+01 | 1486324089.05669 | pgbench_branches |            40960

 2017-02-05 20:48:10.128617+01 | 1486324090.12862 | pgbench_accounts |      13745299456
 2017-02-05 20:48:10.128617+01 | 1486324090.12862 | pgbench_tellers  |           450560
 2017-02-05 20:48:10.128617+01 | 1486324090.12862 | pgbench_history  |        419577856
 2017-02-05 20:48:10.128617+01 | 1486324090.12862 | pgbench_branches |            40960

 2017-02-05 20:48:11.200673+01 | 1486324091.20067 | pgbench_accounts |      13745299456
 2017-02-05 20:48:11.200673+01 | 1486324091.20067 | pgbench_tellers  |           450560
 2017-02-05 20:48:11.200673+01 | 1486324091.20067 | pgbench_history  |        422928384
 2017-02-05 20:48:11.200673+01 | 1486324091.20067 | pgbench_branches |            40960

 2017-02-05 20:48:12.277186+01 | 1486324092.27719 | pgbench_accounts |      13745299456
 2017-02-05 20:48:12.277186+01 | 1486324092.27719 | pgbench_tellers  |           450560
 2017-02-05 20:48:12.277186+01 | 1486324092.27719 | pgbench_history  |        424943616
 2017-02-05 20:48:12.277186+01 | 1486324092.27719 | pgbench_branches |            40960

 2017-02-05 20:48:13.353907+01 | 1486324093.35391 | pgbench_accounts |      13745299456
 2017-02-05 20:48:13.353907+01 | 1486324093.35391 | pgbench_tellers  |           450560
 2017-02-05 20:48:13.353907+01 | 1486324093.35391 | pgbench_history  |        427663360
 2017-02-05 20:48:13.353907+01 | 1486324093.35391 | pgbench_branches |            40960

 2017-02-05 20:48:14.425179+01 | 1486324094.42518 | pgbench_accounts |      13745299456
 2017-02-05 20:48:14.425179+01 | 1486324094.42518 | pgbench_tellers  |           450560
 2017-02-05 20:48:14.425179+01 | 1486324094.42518 | pgbench_history  |        431644672
 2017-02-05 20:48:14.425179+01 | 1486324094.42518 | pgbench_branches |            40960

 2017-02-05 20:48:15.499996+01 | 1486324095.5 | pgbench_accounts |      13745299456
 2017-02-05 20:48:15.499996+01 | 1486324095.5 | pgbench_tellers  |           450560
 2017-02-05 20:48:15.499996+01 | 1486324095.5 | pgbench_history  |        433012736
 2017-02-05 20:48:15.499996+01 | 1486324095.5 | pgbench_branches |            40960

 2017-02-05 20:48:16.572659+01 | 1486324096.57266 | pgbench_accounts |      13745299456
 2017-02-05 20:48:16.572659+01 | 1486324096.57266 | pgbench_tellers  |           450560
 2017-02-05 20:48:16.572659+01 | 1486324096.57266 | pgbench_history  |        435240960
 2017-02-05 20:48:16.572659+01 | 1486324096.57266 | pgbench_branches |            40960

 2017-02-05 20:48:17.657631+01 | 1486324097.65763 | pgbench_accounts |      13745299456
 2017-02-05 20:48:17.657631+01 | 1486324097.65763 | pgbench_tellers  |           450560
 2017-02-05 20:48:17.657631+01 | 1486324097.65763 | pgbench_history  |        438263808
 2017-02-05 20:48:17.657631+01 | 1486324097.65763 | pgbench_branches |            40960

 2017-02-05 20:48:18.733207+01 | 1486324098.73321 | pgbench_accounts |      13745299456
 2017-02-05 20:48:18.733207+01 | 1486324098.73321 | pgbench_tellers  |           450560
 2017-02-05 20:48:18.733207+01 | 1486324098.73321 | pgbench_history  |        441475072
 2017-02-05 20:48:18.733207+01 | 1486324098.73321 | pgbench_branches |            40960

 2017-02-05 20:48:19.807692+01 | 1486324099.80769 | pgbench_accounts |      13745299456
 2017-02-05 20:48:19.807692+01 | 1486324099.80769 | pgbench_tellers  |           450560
 2017-02-05 20:48:19.807692+01 | 1486324099.80769 | pgbench_history  |        443867136
 2017-02-05 20:48:19.807692+01 | 1486324099.80769 | pgbench_branches |            40960

 2017-02-05 20:48:20.887929+01 | 1486324100.88793 | pgbench_accounts |      13745299456
 2017-02-05 20:48:20.887929+01 | 1486324100.88793 | pgbench_tellers  |           450560
 2017-02-05 20:48:20.887929+01 | 1486324100.88793 | pgbench_history  |        446865408
 2017-02-05 20:48:20.887929+01 | 1486324100.88793 | pgbench_branches |            40960

 2017-02-05 20:48:21.961187+01 | 1486324101.96119 | pgbench_accounts |      13745299456
 2017-02-05 20:48:21.961187+01 | 1486324101.96119 | pgbench_tellers  |           450560
 2017-02-05 20:48:21.961187+01 | 1486324101.96119 | pgbench_history  |        450453504
 2017-02-05 20:48:21.961187+01 | 1486324101.96119 | pgbench_branches |            40960

 2017-02-05 20:48:23.036351+01 | 1486324103.03635 | pgbench_accounts |      13745299456
 2017-02-05 20:48:23.036351+01 | 1486324103.03635 | pgbench_tellers  |           450560
 2017-02-05 20:48:23.036351+01 | 1486324103.03635 | pgbench_history  |        452845568
 2017-02-05 20:48:23.036351+01 | 1486324103.03635 | pgbench_branches |            40960

 2017-02-05 20:48:24.113015+01 | 1486324104.11301 | pgbench_accounts |      13745299456
 2017-02-05 20:48:24.113015+01 | 1486324104.11301 | pgbench_tellers  |           450560
 2017-02-05 20:48:24.113015+01 | 1486324104.11301 | pgbench_history  |        455589888
 2017-02-05 20:48:24.113015+01 | 1486324104.11301 | pgbench_branches |            40960

 2017-02-05 20:48:25.189811+01 | 1486324105.18981 | pgbench_accounts |      13745299456
 2017-02-05 20:48:25.189811+01 | 1486324105.18981 | pgbench_tellers  |           450560
 2017-02-05 20:48:25.189811+01 | 1486324105.18981 | pgbench_history  |        459309056
 2017-02-05 20:48:25.189811+01 | 1486324105.18981 | pgbench_branches |            40960

 2017-02-05 20:48:26.269871+01 | 1486324106.26987 | pgbench_accounts |      13745299456
 2017-02-05 20:48:26.269871+01 | 1486324106.26987 | pgbench_tellers  |           450560
 2017-02-05 20:48:26.269871+01 | 1486324106.26987 | pgbench_history  |        461815808
 2017-02-05 20:48:26.269871+01 | 1486324106.26987 | pgbench_branches |            40960

 2017-02-05 20:48:27.348733+01 | 1486324107.34873 | pgbench_accounts |      13745299456
 2017-02-05 20:48:27.348733+01 | 1486324107.34873 | pgbench_tellers  |           450560
 2017-02-05 20:48:27.348733+01 | 1486324107.34873 | pgbench_history  |        464723968
 2017-02-05 20:48:27.348733+01 | 1486324107.34873 | pgbench_branches |            40960

 2017-02-05 20:48:28.421141+01 | 1486324108.42114 | pgbench_accounts |      13745299456
 2017-02-05 20:48:28.421141+01 | 1486324108.42114 | pgbench_tellers  |           450560
 2017-02-05 20:48:28.421141+01 | 1486324108.42114 | pgbench_history  |        466960384
 2017-02-05 20:48:28.421141+01 | 1486324108.42114 | pgbench_branches |            40960

 2017-02-05 20:48:29.496742+01 | 1486324109.49674 | pgbench_accounts |      13745299456
 2017-02-05 20:48:29.496742+01 | 1486324109.49674 | pgbench_tellers  |           450560
 2017-02-05 20:48:29.496742+01 | 1486324109.49674 | pgbench_history  |        470990848
 2017-02-05 20:48:29.496742+01 | 1486324109.49674 | pgbench_branches |            40960

 2017-02-05 20:48:30.570603+01 | 1486324110.5706 | pgbench_accounts |      13745299456
 2017-02-05 20:48:30.570603+01 | 1486324110.5706 | pgbench_tellers  |           450560
 2017-02-05 20:48:30.570603+01 | 1486324110.5706 | pgbench_history  |        474619904
 2017-02-05 20:48:30.570603+01 | 1486324110.5706 | pgbench_branches |            40960

 2017-02-05 20:48:31.638916+01 | 1486324111.63892 | pgbench_accounts |      13745299456
 2017-02-05 20:48:31.638916+01 | 1486324111.63892 | pgbench_tellers  |           450560
 2017-02-05 20:48:31.638916+01 | 1486324111.63892 | pgbench_history  |        475979776
 2017-02-05 20:48:31.638916+01 | 1486324111.63892 | pgbench_branches |            40960

 2017-02-05 20:48:32.718616+01 | 1486324112.71862 | pgbench_accounts |      13745299456
 2017-02-05 20:48:32.718616+01 | 1486324112.71862 | pgbench_tellers  |           450560
 2017-02-05 20:48:32.718616+01 | 1486324112.71862 | pgbench_history  |        478208000
 2017-02-05 20:48:32.718616+01 | 1486324112.71862 | pgbench_branches |            40960

 2017-02-05 20:48:33.79849+01 | 1486324113.79849 | pgbench_accounts |      13745299456
 2017-02-05 20:48:33.79849+01 | 1486324113.79849 | pgbench_tellers  |           450560
 2017-02-05 20:48:33.79849+01 | 1486324113.79849 | pgbench_history  |        482213888
 2017-02-05 20:48:33.79849+01 | 1486324113.79849 | pgbench_branches |            40960

 2017-02-05 20:48:34.875438+01 | 1486324114.87544 | pgbench_accounts |      13745299456
 2017-02-05 20:48:34.875438+01 | 1486324114.87544 | pgbench_tellers  |           450560
 2017-02-05 20:48:34.875438+01 | 1486324114.87544 | pgbench_history  |        484040704
 2017-02-05 20:48:34.875438+01 | 1486324114.87544 | pgbench_branches |            40960

 2017-02-05 20:48:35.950405+01 | 1486324115.9504 | pgbench_accounts |      13745299456
 2017-02-05 20:48:35.950405+01 | 1486324115.9504 | pgbench_tellers  |           450560
 2017-02-05 20:48:35.950405+01 | 1486324115.9504 | pgbench_history  |        486572032
 2017-02-05 20:48:35.950405+01 | 1486324115.9504 | pgbench_branches |            40960

 2017-02-05 20:48:37.025721+01 | 1486324117.02572 | pgbench_accounts |      13745299456
 2017-02-05 20:48:37.025721+01 | 1486324117.02572 | pgbench_tellers  |           450560
 2017-02-05 20:48:37.025721+01 | 1486324117.02572 | pgbench_history  |        488783872
 2017-02-05 20:48:37.025721+01 | 1486324117.02572 | pgbench_branches |            40960

 2017-02-05 20:48:38.100326+01 | 1486324118.10033 | pgbench_accounts |      13745299456
 2017-02-05 20:48:38.100326+01 | 1486324118.10033 | pgbench_tellers  |           450560
 2017-02-05 20:48:38.100326+01 | 1486324118.10033 | pgbench_history  |        491454464
 2017-02-05 20:48:38.100326+01 | 1486324118.10033 | pgbench_branches |            40960

 2017-02-05 20:48:39.176604+01 | 1486324119.1766 | pgbench_accounts |      13745299456
 2017-02-05 20:48:39.176604+01 | 1486324119.1766 | pgbench_tellers  |           450560
 2017-02-05 20:48:39.176604+01 | 1486324119.1766 | pgbench_history  |        494665728
 2017-02-05 20:48:39.176604+01 | 1486324119.1766 | pgbench_branches |            40960

 2017-02-05 20:48:40.253799+01 | 1486324120.2538 | pgbench_accounts |      13745299456
 2017-02-05 20:48:40.253799+01 | 1486324120.2538 | pgbench_tellers  |           450560
 2017-02-05 20:48:40.253799+01 | 1486324120.2538 | pgbench_history  |        497500160
 2017-02-05 20:48:40.253799+01 | 1486324120.2538 | pgbench_branches |            40960

 2017-02-05 20:48:41.325726+01 | 1486324121.32573 | pgbench_accounts |      13745299456
 2017-02-05 20:48:41.325726+01 | 1486324121.32573 | pgbench_tellers  |           450560
 2017-02-05 20:48:41.325726+01 | 1486324121.32573 | pgbench_history  |        498860032
 2017-02-05 20:48:41.325726+01 | 1486324121.32573 | pgbench_branches |            40960

 2017-02-05 20:48:42.399603+01 | 1486324122.3996 | pgbench_accounts |      13745299456
 2017-02-05 20:48:42.399603+01 | 1486324122.3996 | pgbench_tellers  |           450560
 2017-02-05 20:48:42.399603+01 | 1486324122.3996 | pgbench_history  |        501415936
 2017-02-05 20:48:42.399603+01 | 1486324122.3996 | pgbench_branches |            40960

 2017-02-05 20:48:43.474052+01 | 1486324123.47405 | pgbench_accounts |      13745299456
 2017-02-05 20:48:43.474052+01 | 1486324123.47405 | pgbench_tellers  |           450560
 2017-02-05 20:48:43.474052+01 | 1486324123.47405 | pgbench_history  |        505397248
 2017-02-05 20:48:43.474052+01 | 1486324123.47405 | pgbench_branches |            40960

 2017-02-05 20:48:44.554046+01 | 1486324124.55405 | pgbench_accounts |      13745299456
 2017-02-05 20:48:44.554046+01 | 1486324124.55405 | pgbench_tellers  |           450560
 2017-02-05 20:48:44.554046+01 | 1486324124.55405 | pgbench_history  |        506757120
 2017-02-05 20:48:44.554046+01 | 1486324124.55405 | pgbench_branches |            40960

 2017-02-05 20:48:45.630053+01 | 1486324125.63005 | pgbench_accounts |      13745299456
 2017-02-05 20:48:45.630053+01 | 1486324125.63005 | pgbench_tellers  |           450560
 2017-02-05 20:48:45.630053+01 | 1486324125.63005 | pgbench_history  |        509140992
 2017-02-05 20:48:45.630053+01 | 1486324125.63005 | pgbench_branches |            40960

 2017-02-05 20:48:46.703622+01 | 1486324126.70362 | pgbench_accounts |      13745299456
 2017-02-05 20:48:46.703622+01 | 1486324126.70362 | pgbench_tellers  |           450560
 2017-02-05 20:48:46.703622+01 | 1486324126.70362 | pgbench_history  |        512335872
 2017-02-05 20:48:46.703622+01 | 1486324126.70362 | pgbench_branches |            40960

 2017-02-05 20:48:47.78073+01 | 1486324127.78073 | pgbench_accounts |      13745299456
 2017-02-05 20:48:47.78073+01 | 1486324127.78073 | pgbench_tellers  |           450560
 2017-02-05 20:48:47.78073+01 | 1486324127.78073 | pgbench_history  |        514039808
 2017-02-05 20:48:47.78073+01 | 1486324127.78073 | pgbench_branches |            40960

 2017-02-05 20:48:48.855207+01 | 1486324128.85521 | pgbench_accounts |      13745299456
 2017-02-05 20:48:48.855207+01 | 1486324128.85521 | pgbench_tellers  |           450560
 2017-02-05 20:48:48.855207+01 | 1486324128.85521 | pgbench_history  |        516743168
 2017-02-05 20:48:48.855207+01 | 1486324128.85521 | pgbench_branches |            40960

 2017-02-05 20:48:49.930249+01 | 1486324129.93025 | pgbench_accounts |      13745299456
 2017-02-05 20:48:49.930249+01 | 1486324129.93025 | pgbench_tellers  |           450560
 2017-02-05 20:48:49.930249+01 | 1486324129.93025 | pgbench_history  |        518275072
 2017-02-05 20:48:49.930249+01 | 1486324129.93025 | pgbench_branches |            40960

 2017-02-05 20:48:51.007458+01 | 1486324131.00746 | pgbench_accounts |      13745299456
 2017-02-05 20:48:51.007458+01 | 1486324131.00746 | pgbench_tellers  |           450560
 2017-02-05 20:48:51.007458+01 | 1486324131.00746 | pgbench_history  |        520994816
 2017-02-05 20:48:51.007458+01 | 1486324131.00746 | pgbench_branches |            40960

 2017-02-05 20:48:52.083084+01 | 1486324132.08308 | pgbench_accounts |      13745299456
 2017-02-05 20:48:52.083084+01 | 1486324132.08308 | pgbench_tellers  |           450560
 2017-02-05 20:48:52.083084+01 | 1486324132.08308 | pgbench_history  |        523853824
 2017-02-05 20:48:52.083084+01 | 1486324132.08308 | pgbench_branches |            40960

 2017-02-05 20:48:53.163158+01 | 1486324133.16316 | pgbench_accounts |      13745299456
 2017-02-05 20:48:53.163158+01 | 1486324133.16316 | pgbench_tellers  |           450560
 2017-02-05 20:48:53.163158+01 | 1486324133.16316 | pgbench_history  |        527392768
 2017-02-05 20:48:53.163158+01 | 1486324133.16316 | pgbench_branches |            40960

 2017-02-05 20:48:54.236617+01 | 1486324134.23662 | pgbench_accounts |      13745299456
 2017-02-05 20:48:54.236617+01 | 1486324134.23662 | pgbench_tellers  |           450560
 2017-02-05 20:48:54.236617+01 | 1486324134.23662 | pgbench_history  |        529760256
 2017-02-05 20:48:54.236617+01 | 1486324134.23662 | pgbench_branches |            40960

 2017-02-05 20:48:55.317717+01 | 1486324135.31772 | pgbench_accounts |      13745299456
 2017-02-05 20:48:55.317717+01 | 1486324135.31772 | pgbench_tellers  |           450560
 2017-02-05 20:48:55.317717+01 | 1486324135.31772 | pgbench_history  |        532316160
 2017-02-05 20:48:55.317717+01 | 1486324135.31772 | pgbench_branches |            40960

 2017-02-05 20:48:56.396769+01 | 1486324136.39677 | pgbench_accounts |      13745299456
 2017-02-05 20:48:56.396769+01 | 1486324136.39677 | pgbench_tellers  |           450560
 2017-02-05 20:48:56.396769+01 | 1486324136.39677 | pgbench_history  |        535175168
 2017-02-05 20:48:56.396769+01 | 1486324136.39677 | pgbench_branches |            40960

 2017-02-05 20:48:57.479272+01 | 1486324137.47927 | pgbench_accounts |      13745299456
 2017-02-05 20:48:57.479272+01 | 1486324137.47927 | pgbench_tellers  |           450560
 2017-02-05 20:48:57.479272+01 | 1486324137.47927 | pgbench_history  |        538042368
 2017-02-05 20:48:57.479272+01 | 1486324137.47927 | pgbench_branches |            40960

 2017-02-05 20:48:58.571975+01 | 1486324138.57197 | pgbench_accounts |      13745299456
 2017-02-05 20:48:58.571975+01 | 1486324138.57197 | pgbench_tellers  |           450560
 2017-02-05 20:48:58.571975+01 | 1486324138.57197 | pgbench_history  |        541720576
 2017-02-05 20:48:58.571975+01 | 1486324138.57197 | pgbench_branches |            40960

 2017-02-05 20:48:59.64951+01 | 1486324139.64951 | pgbench_accounts |      13745299456
 2017-02-05 20:48:59.64951+01 | 1486324139.64951 | pgbench_tellers  |           450560
 2017-02-05 20:48:59.64951+01 | 1486324139.64951 | pgbench_history  |        544555008
 2017-02-05 20:48:59.64951+01 | 1486324139.64951 | pgbench_branches |            40960

 2017-02-05 20:49:00.731439+01 | 1486324140.73144 | pgbench_accounts |      13745299456
 2017-02-05 20:49:00.731439+01 | 1486324140.73144 | pgbench_tellers  |           450560
 2017-02-05 20:49:00.731439+01 | 1486324140.73144 | pgbench_history  |        546619392
 2017-02-05 20:49:00.731439+01 | 1486324140.73144 | pgbench_branches |            40960

 2017-02-05 20:49:01.806442+01 | 1486324141.80644 | pgbench_accounts |      13745299456
 2017-02-05 20:49:01.806442+01 | 1486324141.80644 | pgbench_tellers  |           450560
 2017-02-05 20:49:01.806442+01 | 1486324141.80644 | pgbench_history  |        549478400
 2017-02-05 20:49:01.806442+01 | 1486324141.80644 | pgbench_branches |            40960

 2017-02-05 20:49:02.881014+01 | 1486324142.88101 | pgbench_accounts |      13745299456
 2017-02-05 20:49:02.881014+01 | 1486324142.88101 | pgbench_tellers  |           450560
 2017-02-05 20:49:02.881014+01 | 1486324142.88101 | pgbench_history  |        552501248
 2017-02-05 20:49:02.881014+01 | 1486324142.88101 | pgbench_branches |            40960

 2017-02-05 20:49:03.954761+01 | 1486324143.95476 | pgbench_accounts |      13745299456
 2017-02-05 20:49:03.954761+01 | 1486324143.95476 | pgbench_tellers  |           450560
 2017-02-05 20:49:03.954761+01 | 1486324143.95476 | pgbench_history  |        556523520
 2017-02-05 20:49:03.954761+01 | 1486324143.95476 | pgbench_branches |            40960

 2017-02-05 20:49:05.029906+01 | 1486324145.02991 | pgbench_accounts |      13745299456
 2017-02-05 20:49:05.029906+01 | 1486324145.02991 | pgbench_tellers  |           450560
 2017-02-05 20:49:05.029906+01 | 1486324145.02991 | pgbench_history  |        559194112
 2017-02-05 20:49:05.029906+01 | 1486324145.02991 | pgbench_branches |            40960

 2017-02-05 20:49:06.106708+01 | 1486324146.10671 | pgbench_accounts |      13745299456
 2017-02-05 20:49:06.106708+01 | 1486324146.10671 | pgbench_tellers  |           450560
 2017-02-05 20:49:06.106708+01 | 1486324146.10671 | pgbench_history  |        560529408
 2017-02-05 20:49:06.106708+01 | 1486324146.10671 | pgbench_branches |            40960

 2017-02-05 20:49:07.183069+01 | 1486324147.18307 | pgbench_accounts |      13745299456
 2017-02-05 20:49:07.183069+01 | 1486324147.18307 | pgbench_tellers  |           450560
 2017-02-05 20:49:07.183069+01 | 1486324147.18307 | pgbench_history  |        563888128
 2017-02-05 20:49:07.183069+01 | 1486324147.18307 | pgbench_branches |            40960

 2017-02-05 20:49:08.259243+01 | 1486324148.25924 | pgbench_accounts |      13745299456
 2017-02-05 20:49:08.259243+01 | 1486324148.25924 | pgbench_tellers  |           450560
 2017-02-05 20:49:08.259243+01 | 1486324148.25924 | pgbench_history  |        567427072
 2017-02-05 20:49:08.259243+01 | 1486324148.25924 | pgbench_branches |            40960

 2017-02-05 20:49:09.332121+01 | 1486324149.33212 | pgbench_accounts |      13745299456
 2017-02-05 20:49:09.332121+01 | 1486324149.33212 | pgbench_tellers  |           450560
 2017-02-05 20:49:09.332121+01 | 1486324149.33212 | pgbench_history  |        569794560
 2017-02-05 20:49:09.332121+01 | 1486324149.33212 | pgbench_branches |            40960

 2017-02-05 20:49:10.40726+01 | 1486324150.40726 | pgbench_accounts |      13745299456
 2017-02-05 20:49:10.40726+01 | 1486324150.40726 | pgbench_tellers  |           450560
 2017-02-05 20:49:10.40726+01 | 1486324150.40726 | pgbench_history  |        573284352
 2017-02-05 20:49:10.40726+01 | 1486324150.40726 | pgbench_branches |            40960

 2017-02-05 20:49:11.482531+01 | 1486324151.48253 | pgbench_accounts |      13745299456
 2017-02-05 20:49:11.482531+01 | 1486324151.48253 | pgbench_tellers  |           450560
 2017-02-05 20:49:11.482531+01 | 1486324151.48253 | pgbench_history  |        575193088
 2017-02-05 20:49:11.482531+01 | 1486324151.48253 | pgbench_branches |            40960

 2017-02-05 20:49:12.559786+01 | 1486324152.55979 | pgbench_accounts |      13745299456
 2017-02-05 20:49:12.559786+01 | 1486324152.55979 | pgbench_tellers  |           450560
 2017-02-05 20:49:12.559786+01 | 1486324152.55979 | pgbench_history  |        578568192
 2017-02-05 20:49:12.559786+01 | 1486324152.55979 | pgbench_branches |            40960

 2017-02-05 20:49:13.638186+01 | 1486324153.63819 | pgbench_accounts |      13745299456
 2017-02-05 20:49:13.638186+01 | 1486324153.63819 | pgbench_tellers  |           450560
 2017-02-05 20:49:13.638186+01 | 1486324153.63819 | pgbench_history  |        583041024
 2017-02-05 20:49:13.638186+01 | 1486324153.63819 | pgbench_branches |            40960

 2017-02-05 20:49:14.719344+01 | 1486324154.71934 | pgbench_accounts |      13745299456
 2017-02-05 20:49:14.719344+01 | 1486324154.71934 | pgbench_tellers  |           450560
 2017-02-05 20:49:14.719344+01 | 1486324154.71934 | pgbench_history  |        584212480
 2017-02-05 20:49:14.719344+01 | 1486324154.71934 | pgbench_branches |            40960

 2017-02-05 20:49:15.792585+01 | 1486324155.79258 | pgbench_accounts |      13745299456
 2017-02-05 20:49:15.792585+01 | 1486324155.79258 | pgbench_tellers  |           450560
 2017-02-05 20:49:15.792585+01 | 1486324155.79258 | pgbench_history  |        586760192
 2017-02-05 20:49:15.792585+01 | 1486324155.79258 | pgbench_branches |            40960

 2017-02-05 20:49:16.869544+01 | 1486324156.86954 | pgbench_accounts |      13745299456
 2017-02-05 20:49:16.869544+01 | 1486324156.86954 | pgbench_tellers  |           450560
 2017-02-05 20:49:16.869544+01 | 1486324156.86954 | pgbench_history  |        588800000
 2017-02-05 20:49:16.869544+01 | 1486324156.86954 | pgbench_branches |            40960

 2017-02-05 20:49:17.94274+01 | 1486324157.94274 | pgbench_accounts |      13745299456
 2017-02-05 20:49:17.94274+01 | 1486324157.94274 | pgbench_tellers  |           450560
 2017-02-05 20:49:17.94274+01 | 1486324157.94274 | pgbench_history  |        592322560
 2017-02-05 20:49:17.94274+01 | 1486324157.94274 | pgbench_branches |            40960

 2017-02-05 20:49:19.019877+01 | 1486324159.01988 | pgbench_accounts |      13745299456
 2017-02-05 20:49:19.019877+01 | 1486324159.01988 | pgbench_tellers  |           450560
 2017-02-05 20:49:19.019877+01 | 1486324159.01988 | pgbench_history  |        594477056
 2017-02-05 20:49:19.019877+01 | 1486324159.01988 | pgbench_branches |            40960

 2017-02-05 20:49:20.094248+01 | 1486324160.09425 | pgbench_accounts |      13745299456
 2017-02-05 20:49:20.094248+01 | 1486324160.09425 | pgbench_tellers  |           450560
 2017-02-05 20:49:20.094248+01 | 1486324160.09425 | pgbench_history  |        596361216
 2017-02-05 20:49:20.094248+01 | 1486324160.09425 | pgbench_branches |            40960

 2017-02-05 20:49:21.168899+01 | 1486324161.1689 | pgbench_accounts |      13745299456
 2017-02-05 20:49:21.168899+01 | 1486324161.1689 | pgbench_tellers  |           450560
 2017-02-05 20:49:21.168899+01 | 1486324161.1689 | pgbench_history  |        599408640
 2017-02-05 20:49:21.168899+01 | 1486324161.1689 | pgbench_branches |            40960

 2017-02-05 20:49:22.247726+01 | 1486324162.24773 | pgbench_accounts |      13745299456
 2017-02-05 20:49:22.247726+01 | 1486324162.24773 | pgbench_tellers  |           450560
 2017-02-05 20:49:22.247726+01 | 1486324162.24773 | pgbench_history  |        601939968
 2017-02-05 20:49:22.247726+01 | 1486324162.24773 | pgbench_branches |            40960

 2017-02-05 20:49:23.325645+01 | 1486324163.32564 | pgbench_accounts |      13745299456
 2017-02-05 20:49:23.325645+01 | 1486324163.32564 | pgbench_tellers  |           450560
 2017-02-05 20:49:23.325645+01 | 1486324163.32564 | pgbench_history  |        604332032
 2017-02-05 20:49:23.325645+01 | 1486324163.32564 | pgbench_branches |            40960

 2017-02-05 20:49:24.403253+01 | 1486324164.40325 | pgbench_accounts |      13745299456
 2017-02-05 20:49:24.403253+01 | 1486324164.40325 | pgbench_tellers  |           450560
 2017-02-05 20:49:24.403253+01 | 1486324164.40325 | pgbench_history  |        607494144
 2017-02-05 20:49:24.403253+01 | 1486324164.40325 | pgbench_branches |            40960

 2017-02-05 20:49:25.4779+01 | 1486324165.4779 | pgbench_accounts |      13745299456
 2017-02-05 20:49:25.4779+01 | 1486324165.4779 | pgbench_tellers  |           450560
 2017-02-05 20:49:25.4779+01 | 1486324165.4779 | pgbench_history  |        609509376
 2017-02-05 20:49:25.4779+01 | 1486324165.4779 | pgbench_branches |            40960

 2017-02-05 20:49:26.556593+01 | 1486324166.55659 | pgbench_accounts |      13745299456
 2017-02-05 20:49:26.556593+01 | 1486324166.55659 | pgbench_tellers  |           450560
 2017-02-05 20:49:26.556593+01 | 1486324166.55659 | pgbench_history  |        611573760
 2017-02-05 20:49:26.556593+01 | 1486324166.55659 | pgbench_branches |            40960

 2017-02-05 20:49:27.63094+01 | 1486324167.63094 | pgbench_accounts |      13745299456
 2017-02-05 20:49:27.63094+01 | 1486324167.63094 | pgbench_tellers  |           450560
 2017-02-05 20:49:27.63094+01 | 1486324167.63094 | pgbench_history  |        614957056
 2017-02-05 20:49:27.63094+01 | 1486324167.63094 | pgbench_branches |            40960

 2017-02-05 20:49:28.704965+01 | 1486324168.70497 | pgbench_accounts |      13745299456
 2017-02-05 20:49:28.704965+01 | 1486324168.70497 | pgbench_tellers  |           450560
 2017-02-05 20:49:28.704965+01 | 1486324168.70497 | pgbench_history  |        617324544
 2017-02-05 20:49:28.704965+01 | 1486324168.70497 | pgbench_branches |            40960

 2017-02-05 20:49:29.779063+01 | 1486324169.77906 | pgbench_accounts |      13745299456
 2017-02-05 20:49:29.779063+01 | 1486324169.77906 | pgbench_tellers  |           450560
 2017-02-05 20:49:29.779063+01 | 1486324169.77906 | pgbench_history  |        620019712
 2017-02-05 20:49:29.779063+01 | 1486324169.77906 | pgbench_branches |            40960

 2017-02-05 20:49:30.863244+01 | 1486324170.86324 | pgbench_accounts |      13745299456
 2017-02-05 20:49:30.863244+01 | 1486324170.86324 | pgbench_tellers  |           450560
 2017-02-05 20:49:30.863244+01 | 1486324170.86324 | pgbench_history  |        622878720
 2017-02-05 20:49:30.863244+01 | 1486324170.86324 | pgbench_branches |            40960

 2017-02-05 20:49:31.935066+01 | 1486324171.93507 | pgbench_accounts |      13745299456
 2017-02-05 20:49:31.935066+01 | 1486324171.93507 | pgbench_tellers  |           450560
 2017-02-05 20:49:31.935066+01 | 1486324171.93507 | pgbench_history  |        627048448
 2017-02-05 20:49:31.935066+01 | 1486324171.93507 | pgbench_branches |            40960

 2017-02-05 20:49:33.010757+01 | 1486324173.01076 | pgbench_accounts |      13745299456
 2017-02-05 20:49:33.010757+01 | 1486324173.01076 | pgbench_tellers  |           450560
 2017-02-05 20:49:33.010757+01 | 1486324173.01076 | pgbench_history  |        628219904
 2017-02-05 20:49:33.010757+01 | 1486324173.01076 | pgbench_branches |            40960

 2017-02-05 20:49:34.085163+01 | 1486324174.08516 | pgbench_accounts |      13745299456
 2017-02-05 20:49:34.085163+01 | 1486324174.08516 | pgbench_tellers  |           450560
 2017-02-05 20:49:34.085163+01 | 1486324174.08516 | pgbench_history  |        631554048
 2017-02-05 20:49:34.085163+01 | 1486324174.08516 | pgbench_branches |            40960

 2017-02-05 20:49:35.152101+01 | 1486324175.1521 | pgbench_accounts |      13745299456
 2017-02-05 20:49:35.152101+01 | 1486324175.1521 | pgbench_tellers  |           450560
 2017-02-05 20:49:35.152101+01 | 1486324175.1521 | pgbench_history  |        634224640
 2017-02-05 20:49:35.152101+01 | 1486324175.1521 | pgbench_branches |            40960

 2017-02-05 20:49:36.226225+01 | 1486324176.22622 | pgbench_accounts |      13745299456
 2017-02-05 20:49:36.226225+01 | 1486324176.22622 | pgbench_tellers  |           450560
 2017-02-05 20:49:36.226225+01 | 1486324176.22622 | pgbench_history  |        638861312
 2017-02-05 20:49:36.226225+01 | 1486324176.22622 | pgbench_branches |            40960

 2017-02-05 20:49:37.302636+01 | 1486324177.30264 | pgbench_accounts |      13745299456
 2017-02-05 20:49:37.302636+01 | 1486324177.30264 | pgbench_tellers  |           450560
 2017-02-05 20:49:37.302636+01 | 1486324177.30264 | pgbench_history  |        640057344
 2017-02-05 20:49:37.302636+01 | 1486324177.30264 | pgbench_branches |            40960

 2017-02-05 20:49:38.375262+01 | 1486324178.37526 | pgbench_accounts |      13745299456
 2017-02-05 20:49:38.375262+01 | 1486324178.37526 | pgbench_tellers  |           450560
 2017-02-05 20:49:38.375262+01 | 1486324178.37526 | pgbench_history  |        643137536
 2017-02-05 20:49:38.375262+01 | 1486324178.37526 | pgbench_branches |            40960

 2017-02-05 20:49:39.454092+01 | 1486324179.45409 | pgbench_accounts |      13745299456
 2017-02-05 20:49:39.454092+01 | 1486324179.45409 | pgbench_tellers  |           450560
 2017-02-05 20:49:39.454092+01 | 1486324179.45409 | pgbench_history  |        646299648
 2017-02-05 20:49:39.454092+01 | 1486324179.45409 | pgbench_branches |            40960

 2017-02-05 20:49:40.52774+01 | 1486324180.52774 | pgbench_accounts |      13745299456
 2017-02-05 20:49:40.52774+01 | 1486324180.52774 | pgbench_tellers  |           450560
 2017-02-05 20:49:40.52774+01 | 1486324180.52774 | pgbench_history  |        648347648
 2017-02-05 20:49:40.52774+01 | 1486324180.52774 | pgbench_branches |            40960

 2017-02-05 20:49:41.605973+01 | 1486324181.60597 | pgbench_accounts |      13745299456
 2017-02-05 20:49:41.605973+01 | 1486324181.60597 | pgbench_tellers  |           450560
 2017-02-05 20:49:41.605973+01 | 1486324181.60597 | pgbench_history  |        651780096
 2017-02-05 20:49:41.605973+01 | 1486324181.60597 | pgbench_branches |            40960

 2017-02-05 20:49:42.686192+01 | 1486324182.68619 | pgbench_accounts |      13745299456
 2017-02-05 20:49:42.686192+01 | 1486324182.68619 | pgbench_tellers  |           450560
 2017-02-05 20:49:42.686192+01 | 1486324182.68619 | pgbench_history  |        654786560
 2017-02-05 20:49:42.686192+01 | 1486324182.68619 | pgbench_branches |            40960

 2017-02-05 20:49:43.762181+01 | 1486324183.76218 | pgbench_accounts |      13745299456
 2017-02-05 20:49:43.762181+01 | 1486324183.76218 | pgbench_tellers  |           450560
 2017-02-05 20:49:43.762181+01 | 1486324183.76218 | pgbench_history  |        657342464
 2017-02-05 20:49:43.762181+01 | 1486324183.76218 | pgbench_branches |            40960

 2017-02-05 20:49:44.838501+01 | 1486324184.8385 | pgbench_accounts |      13745299456
 2017-02-05 20:49:44.838501+01 | 1486324184.8385 | pgbench_tellers  |           450560
 2017-02-05 20:49:44.838501+01 | 1486324184.8385 | pgbench_history  |        661086208
 2017-02-05 20:49:44.838501+01 | 1486324184.8385 | pgbench_branches |            40960

 2017-02-05 20:49:45.915937+01 | 1486324185.91594 | pgbench_accounts |      13745299456
 2017-02-05 20:49:45.915937+01 | 1486324185.91594 | pgbench_tellers  |           450560
 2017-02-05 20:49:45.915937+01 | 1486324185.91594 | pgbench_history  |        663150592
 2017-02-05 20:49:45.915937+01 | 1486324185.91594 | pgbench_branches |            40960

 2017-02-05 20:49:46.995211+01 | 1486324186.99521 | pgbench_accounts |      13745299456
 2017-02-05 20:49:46.995211+01 | 1486324186.99521 | pgbench_tellers  |           450560
 2017-02-05 20:49:46.995211+01 | 1486324186.99521 | pgbench_history  |        665354240
 2017-02-05 20:49:46.995211+01 | 1486324186.99521 | pgbench_branches |            40960

 2017-02-05 20:49:48.068608+01 | 1486324188.06861 | pgbench_accounts |      13745299456
 2017-02-05 20:49:48.068608+01 | 1486324188.06861 | pgbench_tellers  |           450560
 2017-02-05 20:49:48.068608+01 | 1486324188.06861 | pgbench_history  |        670031872
 2017-02-05 20:49:48.068608+01 | 1486324188.06861 | pgbench_branches |            40960

 2017-02-05 20:49:49.147168+01 | 1486324189.14717 | pgbench_accounts |      13745299456
 2017-02-05 20:49:49.147168+01 | 1486324189.14717 | pgbench_tellers  |           450560
 2017-02-05 20:49:49.147168+01 | 1486324189.14717 | pgbench_history  |        671555584
 2017-02-05 20:49:49.147168+01 | 1486324189.14717 | pgbench_branches |            40960

 2017-02-05 20:49:50.223897+01 | 1486324190.2239 | pgbench_accounts |      13745299456
 2017-02-05 20:49:50.223897+01 | 1486324190.2239 | pgbench_tellers  |           450560
 2017-02-05 20:49:50.223897+01 | 1486324190.2239 | pgbench_history  |        674578432
 2017-02-05 20:49:50.223897+01 | 1486324190.2239 | pgbench_branches |            40960

 2017-02-05 20:49:51.300773+01 | 1486324191.30077 | pgbench_accounts |      13745299456
 2017-02-05 20:49:51.300773+01 | 1486324191.30077 | pgbench_tellers  |           450560
 2017-02-05 20:49:51.300773+01 | 1486324191.30077 | pgbench_history  |        677601280
 2017-02-05 20:49:51.300773+01 | 1486324191.30077 | pgbench_branches |            40960

 2017-02-05 20:49:52.376474+01 | 1486324192.37647 | pgbench_accounts |      13745299456
 2017-02-05 20:49:52.376474+01 | 1486324192.37647 | pgbench_tellers  |           450560
 2017-02-05 20:49:52.376474+01 | 1486324192.37647 | pgbench_history  |        680960000
 2017-02-05 20:49:52.376474+01 | 1486324192.37647 | pgbench_branches |            40960

 2017-02-05 20:49:53.447567+01 | 1486324193.44757 | pgbench_accounts |      13745299456
 2017-02-05 20:49:53.447567+01 | 1486324193.44757 | pgbench_tellers  |           450560
 2017-02-05 20:49:53.447567+01 | 1486324193.44757 | pgbench_history  |        682647552
 2017-02-05 20:49:53.447567+01 | 1486324193.44757 | pgbench_branches |            40960

 2017-02-05 20:49:54.525942+01 | 1486324194.52594 | pgbench_accounts |      13745299456
 2017-02-05 20:49:54.525942+01 | 1486324194.52594 | pgbench_tellers  |           450560
 2017-02-05 20:49:54.525942+01 | 1486324194.52594 | pgbench_history  |        685858816
 2017-02-05 20:49:54.525942+01 | 1486324194.52594 | pgbench_branches |            40960

 2017-02-05 20:49:55.602935+01 | 1486324195.60294 | pgbench_accounts |      13745299456
 2017-02-05 20:49:55.602935+01 | 1486324195.60294 | pgbench_tellers  |           450560
 2017-02-05 20:49:55.602935+01 | 1486324195.60294 | pgbench_history  |        688717824
 2017-02-05 20:49:55.602935+01 | 1486324195.60294 | pgbench_branches |            40960

 2017-02-05 20:49:56.679268+01 | 1486324196.67927 | pgbench_accounts |      13745299456
 2017-02-05 20:49:56.679268+01 | 1486324196.67927 | pgbench_tellers  |           450560
 2017-02-05 20:49:56.679268+01 | 1486324196.67927 | pgbench_history  |        692084736
 2017-02-05 20:49:56.679268+01 | 1486324196.67927 | pgbench_branches |            40960

 2017-02-05 20:49:57.751774+01 | 1486324197.75177 | pgbench_accounts |      13745299456
 2017-02-05 20:49:57.751774+01 | 1486324197.75177 | pgbench_tellers  |           450560
 2017-02-05 20:49:57.751774+01 | 1486324197.75177 | pgbench_history  |        694616064
 2017-02-05 20:49:57.751774+01 | 1486324197.75177 | pgbench_branches |            40960

 2017-02-05 20:49:58.819898+01 | 1486324198.8199 | pgbench_accounts |      13745299456
 2017-02-05 20:49:58.819898+01 | 1486324198.8199 | pgbench_tellers  |           450560
 2017-02-05 20:49:58.819898+01 | 1486324198.8199 | pgbench_history  |        696983552
 2017-02-05 20:49:58.819898+01 | 1486324198.8199 | pgbench_branches |            40960

 2017-02-05 20:49:59.896944+01 | 1486324199.89694 | pgbench_accounts |      13745299456
 2017-02-05 20:49:59.896944+01 | 1486324199.89694 | pgbench_tellers  |           450560
 2017-02-05 20:49:59.896944+01 | 1486324199.89694 | pgbench_history  |        699711488
 2017-02-05 20:49:59.896944+01 | 1486324199.89694 | pgbench_branches |            40960

 2017-02-05 20:50:00.97413+01 | 1486324200.97413 | pgbench_accounts |      13745299456
 2017-02-05 20:50:00.97413+01 | 1486324200.97413 | pgbench_tellers  |           450560
 2017-02-05 20:50:00.97413+01 | 1486324200.97413 | pgbench_history  |        702406656
 2017-02-05 20:50:00.97413+01 | 1486324200.97413 | pgbench_branches |            40960

 2017-02-05 20:50:02.049682+01 | 1486324202.04968 | pgbench_accounts |      13745299456
 2017-02-05 20:50:02.049682+01 | 1486324202.04968 | pgbench_tellers  |           450560
 2017-02-05 20:50:02.049682+01 | 1486324202.04968 | pgbench_history  |        705101824
 2017-02-05 20:50:02.049682+01 | 1486324202.04968 | pgbench_branches |            40960

 2017-02-05 20:50:03.124918+01 | 1486324203.12492 | pgbench_accounts |      13745299456
 2017-02-05 20:50:03.124918+01 | 1486324203.12492 | pgbench_tellers  |           450560
 2017-02-05 20:50:03.124918+01 | 1486324203.12492 | pgbench_history  |        707821568
 2017-02-05 20:50:03.124918+01 | 1486324203.12492 | pgbench_branches |            40960

 2017-02-05 20:50:04.202322+01 | 1486324204.20232 | pgbench_accounts |      13745299456
 2017-02-05 20:50:04.202322+01 | 1486324204.20232 | pgbench_tellers  |           450560
 2017-02-05 20:50:04.202322+01 | 1486324204.20232 | pgbench_history  |        711180288
 2017-02-05 20:50:04.202322+01 | 1486324204.20232 | pgbench_branches |            40960

 2017-02-05 20:50:05.275651+01 | 1486324205.27565 | pgbench_accounts |      13745299456
 2017-02-05 20:50:05.275651+01 | 1486324205.27565 | pgbench_tellers  |           450560
 2017-02-05 20:50:05.275651+01 | 1486324205.27565 | pgbench_history  |        714694656
 2017-02-05 20:50:05.275651+01 | 1486324205.27565 | pgbench_branches |            40960

 2017-02-05 20:50:06.350217+01 | 1486324206.35022 | pgbench_accounts |      13745299456
 2017-02-05 20:50:06.350217+01 | 1486324206.35022 | pgbench_tellers  |           450560
 2017-02-05 20:50:06.350217+01 | 1486324206.35022 | pgbench_history  |        716734464
 2017-02-05 20:50:06.350217+01 | 1486324206.35022 | pgbench_branches |            40960

 2017-02-05 20:50:07.423455+01 | 1486324207.42345 | pgbench_accounts |      13745299456
 2017-02-05 20:50:07.423455+01 | 1486324207.42345 | pgbench_tellers  |           450560
 2017-02-05 20:50:07.423455+01 | 1486324207.42345 | pgbench_history  |        720068608
 2017-02-05 20:50:07.423455+01 | 1486324207.42345 | pgbench_branches |            40960

 2017-02-05 20:50:08.502696+01 | 1486324208.5027 | pgbench_accounts |      13745299456
 2017-02-05 20:50:08.502696+01 | 1486324208.5027 | pgbench_tellers  |           450560
 2017-02-05 20:50:08.502696+01 | 1486324208.5027 | pgbench_history  |        722444288
 2017-02-05 20:50:08.502696+01 | 1486324208.5027 | pgbench_branches |            40960

 2017-02-05 20:50:09.580991+01 | 1486324209.58099 | pgbench_accounts |      13745299456
 2017-02-05 20:50:09.580991+01 | 1486324209.58099 | pgbench_tellers  |           450560
 2017-02-05 20:50:09.580991+01 | 1486324209.58099 | pgbench_history  |        725254144
 2017-02-05 20:50:09.580991+01 | 1486324209.58099 | pgbench_branches |            40960

 2017-02-05 20:50:10.656542+01 | 1486324210.65654 | pgbench_accounts |      13745299456
 2017-02-05 20:50:10.656542+01 | 1486324210.65654 | pgbench_tellers  |           450560
 2017-02-05 20:50:10.656542+01 | 1486324210.65654 | pgbench_history  |        728326144
 2017-02-05 20:50:10.656542+01 | 1486324210.65654 | pgbench_branches |            40960

 2017-02-05 20:50:11.722792+01 | 1486324211.72279 | pgbench_accounts |      13745299456
 2017-02-05 20:50:11.722792+01 | 1486324211.72279 | pgbench_tellers  |           450560
 2017-02-05 20:50:11.722792+01 | 1486324211.72279 | pgbench_history  |        730644480
 2017-02-05 20:50:11.722792+01 | 1486324211.72279 | pgbench_branches |            40960

 2017-02-05 20:50:12.795788+01 | 1486324212.79579 | pgbench_accounts |      13745299456
 2017-02-05 20:50:12.795788+01 | 1486324212.79579 | pgbench_tellers  |           450560
 2017-02-05 20:50:12.795788+01 | 1486324212.79579 | pgbench_history  |        734298112
 2017-02-05 20:50:12.795788+01 | 1486324212.79579 | pgbench_branches |            40960

 2017-02-05 20:50:13.876411+01 | 1486324213.87641 | pgbench_accounts |      13745299456
 2017-02-05 20:50:13.876411+01 | 1486324213.87641 | pgbench_tellers  |           450560
 2017-02-05 20:50:13.876411+01 | 1486324213.87641 | pgbench_history  |        737787904
 2017-02-05 20:50:13.876411+01 | 1486324213.87641 | pgbench_branches |            40960

 2017-02-05 20:50:14.951829+01 | 1486324214.95183 | pgbench_accounts |      13745299456
 2017-02-05 20:50:14.951829+01 | 1486324214.95183 | pgbench_tellers  |           450560
 2017-02-05 20:50:14.951829+01 | 1486324214.95183 | pgbench_history  |        738959360
 2017-02-05 20:50:14.951829+01 | 1486324214.95183 | pgbench_branches |            40960

 2017-02-05 20:50:16.035186+01 | 1486324216.03519 | pgbench_accounts |      13745299456
 2017-02-05 20:50:16.035186+01 | 1486324216.03519 | pgbench_tellers  |           450560
 2017-02-05 20:50:16.035186+01 | 1486324216.03519 | pgbench_history  |        742178816
 2017-02-05 20:50:16.035186+01 | 1486324216.03519 | pgbench_branches |            40960

 2017-02-05 20:50:17.110084+01 | 1486324217.11008 | pgbench_accounts |      13745299456
 2017-02-05 20:50:17.110084+01 | 1486324217.11008 | pgbench_tellers  |           450560
 2017-02-05 20:50:17.110084+01 | 1486324217.11008 | pgbench_history  |        744660992
 2017-02-05 20:50:17.110084+01 | 1486324217.11008 | pgbench_branches |            40960

 2017-02-05 20:50:18.182864+01 | 1486324218.18286 | pgbench_accounts |      13745299456
 2017-02-05 20:50:18.182864+01 | 1486324218.18286 | pgbench_tellers  |           450560
 2017-02-05 20:50:18.182864+01 | 1486324218.18286 | pgbench_history  |        747683840
 2017-02-05 20:50:18.182864+01 | 1486324218.18286 | pgbench_branches |            40960

 2017-02-05 20:50:19.266766+01 | 1486324219.26677 | pgbench_accounts |      13745299456
 2017-02-05 20:50:19.266766+01 | 1486324219.26677 | pgbench_tellers  |           450560
 2017-02-05 20:50:19.266766+01 | 1486324219.26677 | pgbench_history  |        750567424
 2017-02-05 20:50:19.266766+01 | 1486324219.26677 | pgbench_branches |            40960

 2017-02-05 20:50:20.341439+01 | 1486324220.34144 | pgbench_accounts |      13745299456
 2017-02-05 20:50:20.341439+01 | 1486324220.34144 | pgbench_tellers  |           450560
 2017-02-05 20:50:20.341439+01 | 1486324220.34144 | pgbench_history  |        753238016
 2017-02-05 20:50:20.341439+01 | 1486324220.34144 | pgbench_branches |            40960

 2017-02-05 20:50:21.422322+01 | 1486324221.42232 | pgbench_accounts |      13745299456
 2017-02-05 20:50:21.422322+01 | 1486324221.42232 | pgbench_tellers  |           450560
 2017-02-05 20:50:21.422322+01 | 1486324221.42232 | pgbench_history  |        755965952
 2017-02-05 20:50:21.422322+01 | 1486324221.42232 | pgbench_branches |            40960

 2017-02-05 20:50:22.49965+01 | 1486324222.49965 | pgbench_accounts |      13745299456
 2017-02-05 20:50:22.49965+01 | 1486324222.49965 | pgbench_tellers  |           450560
 2017-02-05 20:50:22.49965+01 | 1486324222.49965 | pgbench_history  |        759832576
 2017-02-05 20:50:22.49965+01 | 1486324222.49965 | pgbench_branches |            40960

 2017-02-05 20:50:23.574139+01 | 1486324223.57414 | pgbench_accounts |      13745299456
 2017-02-05 20:50:23.574139+01 | 1486324223.57414 | pgbench_tellers  |           450560
 2017-02-05 20:50:23.574139+01 | 1486324223.57414 | pgbench_history  |        762019840
 2017-02-05 20:50:23.574139+01 | 1486324223.57414 | pgbench_branches |            40960

 2017-02-05 20:50:24.656057+01 | 1486324224.65606 | pgbench_accounts |      13745299456
 2017-02-05 20:50:24.656057+01 | 1486324224.65606 | pgbench_tellers  |           450560
 2017-02-05 20:50:24.656057+01 | 1486324224.65606 | pgbench_history  |        764551168
 2017-02-05 20:50:24.656057+01 | 1486324224.65606 | pgbench_branches |            40960

 2017-02-05 20:50:25.731848+01 | 1486324225.73185 | pgbench_accounts |      13745299456
 2017-02-05 20:50:25.731848+01 | 1486324225.73185 | pgbench_tellers  |           450560
 2017-02-05 20:50:25.731848+01 | 1486324225.73185 | pgbench_history  |        768770048
 2017-02-05 20:50:25.731848+01 | 1486324225.73185 | pgbench_branches |            40960

 2017-02-05 20:50:26.803666+01 | 1486324226.80367 | pgbench_accounts |      13745299456
 2017-02-05 20:50:26.803666+01 | 1486324226.80367 | pgbench_tellers  |           450560
 2017-02-05 20:50:26.803666+01 | 1486324226.80367 | pgbench_history  |        769835008
 2017-02-05 20:50:26.803666+01 | 1486324226.80367 | pgbench_branches |            40960

 2017-02-05 20:50:27.871163+01 | 1486324227.87116 | pgbench_accounts |      13745299456
 2017-02-05 20:50:27.871163+01 | 1486324227.87116 | pgbench_tellers  |           450560
 2017-02-05 20:50:27.871163+01 | 1486324227.87116 | pgbench_history  |        772120576
 2017-02-05 20:50:27.871163+01 | 1486324227.87116 | pgbench_branches |            40960

 2017-02-05 20:50:28.946207+01 | 1486324228.94621 | pgbench_accounts |      13745299456
 2017-02-05 20:50:28.946207+01 | 1486324228.94621 | pgbench_tellers  |           450560
 2017-02-05 20:50:28.946207+01 | 1486324228.94621 | pgbench_history  |        774840320
 2017-02-05 20:50:28.946207+01 | 1486324228.94621 | pgbench_branches |            40960

