 2017-02-03 21:07:08.668503+01 | 1486152428.6685 |                 0 |              27 |                  1040 |                   14 |                 65 |          1250 |                9 |         4916041 |                     0 |    1414152266 | 2017-02-03 18:53:18.816171+01

 2017-02-03 21:07:09.74723+01 | 1486152429.74723 |                 0 |              27 |                  1040 |                   14 |                 65 |          1250 |                9 |         4916041 |                     0 |    1414231319 | 2017-02-03 18:53:18.816171+01

 2017-02-03 21:07:10.83653+01 | 1486152430.83653 |                 0 |              27 |                  1040 |                   14 |                 65 |          1250 |                9 |         4916041 |                     0 |    1414308932 | 2017-02-03 18:53:18.816171+01

 2017-02-03 21:07:11.923058+01 | 1486152431.92306 |                 0 |              27 |                  1040 |                   14 |                 65 |          1250 |                9 |         4916041 |                     0 |    1414389066 | 2017-02-03 18:53:18.816171+01

 2017-02-03 21:07:13.01069+01 | 1486152433.01069 |                 0 |              27 |                  1040 |                   14 |                 65 |          1250 |                9 |         4916041 |                     0 |    1414484366 | 2017-02-03 18:53:18.816171+01

 2017-02-03 21:07:14.086725+01 | 1486152434.08672 |                 0 |              27 |                  1040 |                   14 |                 65 |          1250 |                9 |         4916041 |                     0 |    1414568775 | 2017-02-03 18:53:18.816171+01

 2017-02-03 21:07:15.171694+01 | 1486152435.17169 |                 0 |              27 |                  1040 |                   14 |                 65 |          1251 |                9 |         4916041 |                     0 |    1414653777 | 2017-02-03 18:53:18.816171+01

 2017-02-03 21:07:16.250794+01 | 1486152436.25079 |                 0 |              27 |                  1040 |                   14 |                 65 |          1251 |                9 |         4916041 |                     0 |    1414756211 | 2017-02-03 18:53:18.816171+01

 2017-02-03 21:07:17.328635+01 | 1486152437.32863 |                 0 |              27 |                  1040 |                   14 |                 65 |          1251 |                9 |         4916041 |                     0 |    1414842694 | 2017-02-03 18:53:18.816171+01

 2017-02-03 21:07:18.414071+01 | 1486152438.41407 |                 0 |              27 |                  1040 |                   14 |                 65 |          1253 |                9 |         4916041 |                     0 |    1414930739 | 2017-02-03 18:53:18.816171+01

 2017-02-03 21:07:19.490265+01 | 1486152439.49026 |                 0 |              27 |                  1040 |                   14 |                 65 |          1253 |                9 |         4916041 |                     0 |    1415031144 | 2017-02-03 18:53:18.816171+01

 2017-02-03 21:07:20.577939+01 | 1486152440.57794 |                 0 |              27 |                  1040 |                   14 |                 65 |          1253 |                9 |         4916041 |                     0 |    1415120250 | 2017-02-03 18:53:18.816171+01

 2017-02-03 21:07:21.658878+01 | 1486152441.65888 |                 0 |              27 |                  1040 |                   14 |                 65 |          1253 |                9 |         4916041 |                     0 |    1415225990 | 2017-02-03 18:53:18.816171+01

 2017-02-03 21:07:22.740405+01 | 1486152442.74041 |                 0 |              27 |                  1040 |                   14 |                 65 |          1253 |                9 |         4916041 |                     0 |    1415313299 | 2017-02-03 18:53:18.816171+01

 2017-02-03 21:07:23.8257+01 | 1486152443.8257 |                 0 |              27 |                  1040 |                   14 |                 65 |          1253 |                9 |         4916041 |                     0 |    1415398696 | 2017-02-03 18:53:18.816171+01

 2017-02-03 21:07:24.904833+01 | 1486152444.90483 |                 0 |              27 |                  1040 |                   14 |                 65 |          1253 |                9 |         4916041 |                     0 |    1415502870 | 2017-02-03 18:53:18.816171+01

 2017-02-03 21:07:25.992542+01 | 1486152445.99254 |                 0 |              27 |                  1040 |                   14 |                 65 |          1253 |                9 |         4916041 |                     0 |    1415591526 | 2017-02-03 18:53:18.816171+01

 2017-02-03 21:07:27.083064+01 | 1486152447.08306 |                 0 |              27 |                  1040 |                   14 |                 65 |          1253 |                9 |         4916041 |                     0 |    1415677541 | 2017-02-03 18:53:18.816171+01

 2017-02-03 21:07:28.154655+01 | 1486152448.15465 |                 0 |              27 |                  1040 |                   14 |                 65 |          1254 |                9 |         4916041 |                     0 |    1415782007 | 2017-02-03 18:53:18.816171+01

 2017-02-03 21:07:29.228197+01 | 1486152449.2282 |                 0 |              27 |                  1040 |                   14 |                 65 |          1254 |                9 |         4916041 |                     0 |    1415869521 | 2017-02-03 18:53:18.816171+01

 2017-02-03 21:07:30.295441+01 | 1486152450.29544 |                 0 |              27 |                  1040 |                   14 |                 65 |          1254 |                9 |         4916041 |                     0 |    1415959888 | 2017-02-03 18:53:18.816171+01

 2017-02-03 21:07:31.378164+01 | 1486152451.37816 |                 0 |              27 |                  1040 |                   14 |                 65 |          1254 |                9 |         4916041 |                     0 |    1416047763 | 2017-02-03 18:53:18.816171+01

 2017-02-03 21:07:32.464949+01 | 1486152452.46495 |                 0 |              27 |                  1040 |                   14 |                 65 |          1254 |                9 |         4916041 |                     0 |    1416151218 | 2017-02-03 18:53:18.816171+01

 2017-02-03 21:07:33.541557+01 | 1486152453.54156 |                 0 |              27 |                  1040 |                   14 |                 65 |          1254 |                9 |         4916041 |                     0 |    1416237315 | 2017-02-03 18:53:18.816171+01

 2017-02-03 21:07:34.620686+01 | 1486152454.62069 |                 0 |              27 |                  1040 |                   14 |                 65 |          1254 |                9 |         4916041 |                     0 |    1416342984 | 2017-02-03 18:53:18.816171+01

 2017-02-03 21:07:35.695397+01 | 1486152455.6954 |                 0 |              27 |                  1040 |                   14 |                 65 |          1254 |                9 |         4916041 |                     0 |    1416432807 | 2017-02-03 18:53:18.816171+01

 2017-02-03 21:07:36.766322+01 | 1486152456.76632 |                 0 |              27 |                  1040 |                   14 |                 65 |          1254 |                9 |         4916041 |                     0 |    1416525317 | 2017-02-03 18:53:18.816171+01

 2017-02-03 21:07:37.842015+01 | 1486152457.84202 |                 0 |              27 |                  1040 |                   14 |                 65 |          1254 |                9 |         4916041 |                     0 |    1416615316 | 2017-02-03 18:53:18.816171+01

 2017-02-03 21:07:38.926783+01 | 1486152458.92678 |                 0 |              27 |                  1040 |                   14 |                 65 |          1254 |                9 |         4916041 |                     0 |    1416720290 | 2017-02-03 18:53:18.816171+01

 2017-02-03 21:07:40.012716+01 | 1486152460.01272 |                 0 |              27 |                  1040 |                   14 |                 65 |          1254 |                9 |         4916041 |                     0 |    1416808657 | 2017-02-03 18:53:18.816171+01

 2017-02-03 21:07:41.096347+01 | 1486152461.09635 |                 0 |              27 |                  1040 |                   14 |                 65 |          1254 |                9 |         4916041 |                     0 |    1416894940 | 2017-02-03 18:53:18.816171+01

 2017-02-03 21:07:42.177286+01 | 1486152462.17729 |                 0 |              27 |                  1040 |                   14 |                 65 |          1254 |                9 |         4916041 |                     0 |    1417002379 | 2017-02-03 18:53:18.816171+01

 2017-02-03 21:07:43.24781+01 | 1486152463.24781 |                 0 |              27 |                  1040 |                   14 |                 65 |          1254 |                9 |         4916041 |                     0 |    1417089716 | 2017-02-03 18:53:18.816171+01

 2017-02-03 21:07:44.326794+01 | 1486152464.32679 |                 0 |              27 |                  1040 |                   14 |                 65 |          1254 |                9 |         4916041 |                     0 |    1417179080 | 2017-02-03 18:53:18.816171+01

 2017-02-03 21:07:45.401596+01 | 1486152465.4016 |                 0 |              27 |                  1040 |                   14 |                 65 |          1254 |                9 |         4916041 |                     0 |    1417283746 | 2017-02-03 18:53:18.816171+01

 2017-02-03 21:07:46.479782+01 | 1486152466.47978 |                 0 |              27 |                  1040 |                   14 |                 65 |          1254 |                9 |         4916041 |                     0 |    1417371971 | 2017-02-03 18:53:18.816171+01

 2017-02-03 21:07:47.558489+01 | 1486152467.55849 |                 0 |              27 |                  1040 |                   14 |                 65 |          1254 |                9 |         4916041 |                     0 |    1417460014 | 2017-02-03 18:53:18.816171+01

 2017-02-03 21:07:48.631152+01 | 1486152468.63115 |                 0 |              27 |                  1040 |                   14 |                 65 |          1254 |                9 |         4916041 |                     0 |    1417567302 | 2017-02-03 18:53:18.816171+01

 2017-02-03 21:07:49.704553+01 | 1486152469.70455 |                 0 |              27 |                  1040 |                   14 |                 65 |          1254 |                9 |         4916041 |                     0 |    1417654814 | 2017-02-03 18:53:18.816171+01

 2017-02-03 21:07:50.781166+01 | 1486152470.78117 |                 0 |              27 |                  1040 |                   14 |                 65 |          1254 |                9 |         4916041 |                     0 |    1417743254 | 2017-02-03 18:53:18.816171+01

 2017-02-03 21:07:51.850995+01 | 1486152471.851 |                 0 |              27 |                  1040 |                   14 |                 65 |          1254 |                9 |         4916041 |                     0 |    1417849420 | 2017-02-03 18:53:18.816171+01

 2017-02-03 21:07:52.926229+01 | 1486152472.92623 |                 0 |              27 |                  1040 |                   14 |                 65 |          1254 |                9 |         4916041 |                     0 |    1417921190 | 2017-02-03 18:53:18.816171+01

 2017-02-03 21:07:54.004745+01 | 1486152474.00475 |                 0 |              27 |                  1040 |                   14 |                 65 |          1254 |                9 |         4916041 |                     0 |    1418025828 | 2017-02-03 18:53:18.816171+01

 2017-02-03 21:07:55.089488+01 | 1486152475.08949 |                 0 |              27 |                  1040 |                   14 |                 65 |          1254 |                9 |         4916041 |                     0 |    1418131209 | 2017-02-03 18:53:18.816171+01

 2017-02-03 21:07:56.164865+01 | 1486152476.16487 |                 0 |              27 |                  1040 |                   14 |                 65 |          1254 |                9 |         4916041 |                     0 |    1418220641 | 2017-02-03 18:53:18.816171+01

 2017-02-03 21:07:57.247449+01 | 1486152477.24745 |                 0 |              27 |                  1040 |                   14 |                 65 |          1254 |                9 |         4916041 |                     0 |    1418310676 | 2017-02-03 18:53:18.816171+01

 2017-02-03 21:07:58.322406+01 | 1486152478.32241 |                 0 |              27 |                  1040 |                   14 |                 65 |          1254 |                9 |         4916041 |                     0 |    1418419162 | 2017-02-03 18:53:18.816171+01

 2017-02-03 21:07:59.407663+01 | 1486152479.40766 |                 0 |              27 |                  1040 |                   14 |                 65 |          1254 |                9 |         4916041 |                     0 |    1418510190 | 2017-02-03 18:53:18.816171+01

 2017-02-03 21:08:00.490642+01 | 1486152480.49064 |                 0 |              27 |                  1040 |                   14 |                 65 |          1254 |                9 |         4916041 |                     0 |    1418599449 | 2017-02-03 18:53:18.816171+01

 2017-02-03 21:08:01.562685+01 | 1486152481.56269 |                 0 |              27 |                  1040 |                   14 |                 65 |          1254 |                9 |         4916041 |                     0 |    1418704768 | 2017-02-03 18:53:18.816171+01

 2017-02-03 21:08:02.65164+01 | 1486152482.65164 |                 0 |              27 |                  1040 |                   14 |                 65 |          1254 |                9 |         4916041 |                     0 |    1418793077 | 2017-02-03 18:53:18.816171+01

 2017-02-03 21:08:03.73654+01 | 1486152483.73654 |                 0 |              27 |                  1040 |                   14 |                 65 |          1254 |                9 |         4916041 |                     0 |    1418878301 | 2017-02-03 18:53:18.816171+01

 2017-02-03 21:08:04.813283+01 | 1486152484.81328 |                 0 |              27 |                  1040 |                   14 |                 65 |          1254 |                9 |         4916041 |                     0 |    1418985379 | 2017-02-03 18:53:18.816171+01

 2017-02-03 21:08:05.889474+01 | 1486152485.88947 |                 0 |              27 |                  1040 |                   14 |                 65 |          1254 |                9 |         4916041 |                     0 |    1419073855 | 2017-02-03 18:53:18.816171+01

 2017-02-03 21:08:06.973015+01 | 1486152486.97302 |                 0 |              27 |                  1040 |                   14 |                 65 |          1254 |                9 |         4916041 |                     0 |    1419160273 | 2017-02-03 18:53:18.816171+01

 2017-02-03 21:08:08.056285+01 | 1486152488.05628 |                 0 |              27 |                  1040 |                   14 |                 65 |          1254 |                9 |         4916041 |                     0 |    1419269933 | 2017-02-03 18:53:18.816171+01

 2017-02-03 21:08:09.14435+01 | 1486152489.14435 |                 0 |              27 |                  1040 |                   14 |                 65 |          1254 |                9 |         4916041 |                     0 |    1419362922 | 2017-02-03 18:53:18.816171+01

 2017-02-03 21:08:10.22869+01 | 1486152490.22869 |                 0 |              27 |                  1040 |                   14 |                 65 |          1254 |                9 |         4916041 |                     0 |    1419450757 | 2017-02-03 18:53:18.816171+01

 2017-02-03 21:08:11.309772+01 | 1486152491.30977 |                 0 |              27 |                  1040 |                   14 |                 65 |          1254 |                9 |         4916041 |                     0 |    1419558614 | 2017-02-03 18:53:18.816171+01

 2017-02-03 21:08:12.390028+01 | 1486152492.39003 |                 0 |              27 |                  1040 |                   14 |                 65 |          1254 |                9 |         4916041 |                     0 |    1419646941 | 2017-02-03 18:53:18.816171+01

 2017-02-03 21:08:13.468132+01 | 1486152493.46813 |                 0 |              27 |                  1040 |                   14 |                 65 |          1254 |                9 |         4916041 |                     0 |    1419736164 | 2017-02-03 18:53:18.816171+01

 2017-02-03 21:08:14.544064+01 | 1486152494.54406 |                 0 |              27 |                  1040 |                   14 |                 65 |          1254 |                9 |         4916041 |                     0 |    1419846415 | 2017-02-03 18:53:18.816171+01

 2017-02-03 21:08:15.622363+01 | 1486152495.62236 |                 0 |              27 |                  1040 |                   14 |                 65 |          1254 |                9 |         4916041 |                     0 |    1419934251 | 2017-02-03 18:53:18.816171+01

 2017-02-03 21:08:16.693456+01 | 1486152496.69346 |                 0 |              27 |                  1040 |                   14 |                 65 |          1254 |                9 |         4916041 |                     0 |    1420024534 | 2017-02-03 18:53:18.816171+01

 2017-02-03 21:08:17.781139+01 | 1486152497.78114 |                 0 |              27 |                  1040 |                   14 |                 65 |          1254 |                9 |         4916041 |                     0 |    1420133272 | 2017-02-03 18:53:18.816171+01

 2017-02-03 21:08:18.862519+01 | 1486152498.86252 |                 0 |              27 |                  1040 |                   14 |                 65 |          1254 |                9 |         4916041 |                     0 |    1420223658 | 2017-02-03 18:53:18.816171+01

 2017-02-03 21:08:19.941882+01 | 1486152499.94188 |                 0 |              27 |                  1040 |                   14 |                 65 |          1254 |                9 |         4916041 |                     0 |    1420312161 | 2017-02-03 18:53:18.816171+01

 2017-02-03 21:08:21.023534+01 | 1486152501.02353 |                 0 |              27 |                  1040 |                   14 |                 65 |          1254 |                9 |         4916041 |                     0 |    1420420333 | 2017-02-03 18:53:18.816171+01

 2017-02-03 21:08:22.10535+01 | 1486152502.10535 |                 0 |              27 |                  1040 |                   14 |                 65 |          1254 |                9 |         4916041 |                     0 |    1420507859 | 2017-02-03 18:53:18.816171+01

 2017-02-03 21:08:23.194709+01 | 1486152503.19471 |                 0 |              27 |                  1040 |                   14 |                 65 |          1254 |                9 |         4916041 |                     0 |    1420596929 | 2017-02-03 18:53:18.816171+01

 2017-02-03 21:08:24.27893+01 | 1486152504.27893 |                 0 |              27 |                  1040 |                   14 |                 65 |          1254 |                9 |         4916041 |                     0 |    1420704663 | 2017-02-03 18:53:18.816171+01

 2017-02-03 21:08:25.364796+01 | 1486152505.3648 |                 0 |              27 |                  1040 |                   14 |                 65 |          1254 |                9 |         4916041 |                     0 |    1420792836 | 2017-02-03 18:53:18.816171+01

 2017-02-03 21:08:26.448084+01 | 1486152506.44808 |                 0 |              27 |                  1040 |                   14 |                 65 |          1254 |                9 |         4916041 |                     0 |    1420881004 | 2017-02-03 18:53:18.816171+01

 2017-02-03 21:08:27.526104+01 | 1486152507.5261 |                 0 |              27 |                  1040 |                   14 |                 65 |          1254 |                9 |         4916041 |                     0 |    1420990307 | 2017-02-03 18:53:18.816171+01

 2017-02-03 21:08:28.597675+01 | 1486152508.59768 |                 0 |              27 |                  1040 |                   14 |                 65 |          1254 |                9 |         4916041 |                     0 |    1421080966 | 2017-02-03 18:53:18.816171+01

 2017-02-03 21:08:29.68645+01 | 1486152509.68645 |                 0 |              27 |                  1040 |                   14 |                 65 |          1254 |                9 |         4916041 |                     0 |    1421170408 | 2017-02-03 18:53:18.816171+01

 2017-02-03 21:08:30.759469+01 | 1486152510.75947 |                 0 |              27 |                  1040 |                   14 |                 65 |          1254 |                9 |         4916041 |                     0 |    1421276240 | 2017-02-03 18:53:18.816171+01

 2017-02-03 21:08:31.833446+01 | 1486152511.83345 |                 0 |              27 |                  1040 |                   14 |                 65 |          1254 |                9 |         4916041 |                     0 |    1421368403 | 2017-02-03 18:53:18.816171+01

 2017-02-03 21:08:32.906048+01 | 1486152512.90605 |                 0 |              27 |                  1040 |                   14 |                 65 |          1254 |                9 |         4916041 |                     0 |    1421458536 | 2017-02-03 18:53:18.816171+01

 2017-02-03 21:08:33.977659+01 | 1486152513.97766 |                 0 |              27 |                  1040 |                   14 |                 65 |          1254 |                9 |         4916041 |                     0 |    1421563972 | 2017-02-03 18:53:18.816171+01

 2017-02-03 21:08:35.058087+01 | 1486152515.05809 |                 0 |              27 |                  1040 |                   14 |                 65 |          1254 |                9 |         4916041 |                     0 |    1421655544 | 2017-02-03 18:53:18.816171+01

 2017-02-03 21:08:36.139269+01 | 1486152516.13927 |                 0 |              27 |                  1040 |                   14 |                 65 |          1254 |                9 |         4916041 |                     0 |    1421744661 | 2017-02-03 18:53:18.816171+01

 2017-02-03 21:08:37.222789+01 | 1486152517.22279 |                 0 |              27 |                  1040 |                   14 |                 65 |          1254 |                9 |         4916041 |                     0 |    1421854374 | 2017-02-03 18:53:18.816171+01

 2017-02-03 21:08:38.298784+01 | 1486152518.29878 |                 0 |              27 |                  1040 |                   14 |                 65 |          1254 |                9 |         4916041 |                     0 |    1421944218 | 2017-02-03 18:53:18.816171+01

 2017-02-03 21:08:39.375394+01 | 1486152519.37539 |                 0 |              27 |                  1040 |                   14 |                 65 |          1254 |                9 |         4916041 |                     0 |    1422034359 | 2017-02-03 18:53:18.816171+01

 2017-02-03 21:08:40.453551+01 | 1486152520.45355 |                 0 |              27 |                  1040 |                   14 |                 65 |          1254 |                9 |         4916041 |                     0 |    1422142981 | 2017-02-03 18:53:18.816171+01

 2017-02-03 21:08:41.539236+01 | 1486152521.53924 |                 0 |              27 |                  1040 |                   14 |                 65 |          1254 |                9 |         4916041 |                     0 |    1422230839 | 2017-02-03 18:53:18.816171+01

 2017-02-03 21:08:42.620563+01 | 1486152522.62056 |                 0 |              27 |                  1040 |                   14 |                 65 |          1254 |                9 |         4916041 |                     0 |    1422319311 | 2017-02-03 18:53:18.816171+01

 2017-02-03 21:08:43.697933+01 | 1486152523.69793 |                 0 |              27 |                  1040 |                   14 |                 65 |          1254 |                9 |         4916041 |                     0 |    1422425154 | 2017-02-03 18:53:18.816171+01

 2017-02-03 21:08:44.781093+01 | 1486152524.78109 |                 0 |              27 |                  1040 |                   14 |                 65 |          1254 |                9 |         4916041 |                     0 |    1422510165 | 2017-02-03 18:53:18.816171+01

 2017-02-03 21:08:45.864222+01 | 1486152525.86422 |                 0 |              27 |                  1040 |                   14 |                 65 |          1254 |                9 |         4916041 |                     0 |    1422599898 | 2017-02-03 18:53:18.816171+01

 2017-02-03 21:08:46.945062+01 | 1486152526.94506 |                 0 |              27 |                  1040 |                   14 |                 65 |          1254 |                9 |         4916041 |                     0 |    1422705088 | 2017-02-03 18:53:18.816171+01

 2017-02-03 21:08:48.022892+01 | 1486152528.02289 |                 0 |              27 |                  1040 |                   14 |                 65 |          1254 |                9 |         4916041 |                     0 |    1422798105 | 2017-02-03 18:53:18.816171+01

 2017-02-03 21:08:49.098079+01 | 1486152529.09808 |                 0 |              27 |                  1040 |                   14 |                 65 |          1254 |                9 |         4916041 |                     0 |    1422888258 | 2017-02-03 18:53:18.816171+01

 2017-02-03 21:08:50.180607+01 | 1486152530.18061 |                 0 |              27 |                  1040 |                   14 |                 65 |          1254 |                9 |         4916041 |                     0 |    1422977145 | 2017-02-03 18:53:18.816171+01

 2017-02-03 21:08:51.256882+01 | 1486152531.25688 |                 0 |              27 |                  1040 |                   14 |                 65 |          1254 |                9 |         4916041 |                     0 |    1423084651 | 2017-02-03 18:53:18.816171+01

 2017-02-03 21:08:52.335741+01 | 1486152532.33574 |                 0 |              27 |                  1040 |                   14 |                 65 |          1254 |                9 |         4916041 |                     0 |    1423173322 | 2017-02-03 18:53:18.816171+01

 2017-02-03 21:08:53.422218+01 | 1486152533.42222 |                 0 |              27 |                  1040 |                   14 |                 65 |          1254 |                9 |         4916041 |                     0 |    1423261072 | 2017-02-03 18:53:18.816171+01

 2017-02-03 21:08:54.501506+01 | 1486152534.50151 |                 0 |              27 |                  1040 |                   14 |                 65 |          1254 |                9 |         4916041 |                     0 |    1423367509 | 2017-02-03 18:53:18.816171+01

 2017-02-03 21:08:55.585698+01 | 1486152535.5857 |                 0 |              27 |                  1040 |                   14 |                 65 |          1254 |                9 |         4916041 |                     0 |    1423456617 | 2017-02-03 18:53:18.816171+01

 2017-02-03 21:08:56.668853+01 | 1486152536.66885 |                 0 |              27 |                  1040 |                   14 |                 65 |          1254 |                9 |         4916041 |                     0 |    1423564269 | 2017-02-03 18:53:18.816171+01

 2017-02-03 21:08:57.737814+01 | 1486152537.73781 |                 0 |              27 |                  1040 |                   14 |                 65 |          1254 |                9 |         4916041 |                     0 |    1423653376 | 2017-02-03 18:53:18.816171+01

 2017-02-03 21:08:58.813696+01 | 1486152538.8137 |                 0 |              27 |                  1040 |                   14 |                 65 |          1254 |                9 |         4916041 |                     0 |    1423741276 | 2017-02-03 18:53:18.816171+01

 2017-02-03 21:08:59.880737+01 | 1486152539.88074 |                 0 |              27 |                  1040 |                   14 |                 65 |          1254 |                9 |         4916041 |                     0 |    1423831254 | 2017-02-03 18:53:18.816171+01

 2017-02-03 21:09:00.964822+01 | 1486152540.96482 |                 0 |              27 |                  1040 |                   14 |                 65 |          1254 |                9 |         4916041 |                     0 |    1423939299 | 2017-02-03 18:53:18.816171+01

 2017-02-03 21:09:02.03593+01 | 1486152542.03593 |                 0 |              27 |                  1040 |                   14 |                 65 |          1254 |                9 |         4916041 |                     0 |    1424027297 | 2017-02-03 18:53:18.816171+01

 2017-02-03 21:09:03.12014+01 | 1486152543.12014 |                 0 |              27 |                  1040 |                   14 |                 65 |          1254 |                9 |         4916041 |                     0 |    1424116479 | 2017-02-03 18:53:18.816171+01

 2017-02-03 21:09:04.199743+01 | 1486152544.19974 |                 0 |              27 |                  1040 |                   14 |                 65 |          1254 |                9 |         4916041 |                     0 |    1424222852 | 2017-02-03 18:53:18.816171+01

 2017-02-03 21:09:05.283264+01 | 1486152545.28326 |                 0 |              27 |                  1040 |                   14 |                 65 |          1254 |                9 |         4916041 |                     0 |    1424311573 | 2017-02-03 18:53:18.816171+01

 2017-02-03 21:09:06.355252+01 | 1486152546.35525 |                 0 |              27 |                  1040 |                   14 |                 65 |          1254 |                9 |         4916041 |                     0 |    1424402361 | 2017-02-03 18:53:18.816171+01

 2017-02-03 21:09:07.435082+01 | 1486152547.43508 |                 0 |              27 |                  1040 |                   14 |                 65 |          1254 |                9 |         4916041 |                     0 |    1424508964 | 2017-02-03 18:53:18.816171+01

 2017-02-03 21:09:08.517023+01 | 1486152548.51702 |                 0 |              27 |                  1040 |                   14 |                 65 |          1254 |                9 |         4916041 |                     0 |    1424600282 | 2017-02-03 18:53:18.816171+01

 2017-02-03 21:09:09.599716+01 | 1486152549.59972 |                 0 |              27 |                  1040 |                   14 |                 65 |          1254 |                9 |         4916041 |                     0 |    1424691386 | 2017-02-03 18:53:18.816171+01

 2017-02-03 21:09:10.676592+01 | 1486152550.67659 |                 0 |              27 |                  1040 |                   14 |                 65 |          1254 |                9 |         4916041 |                     0 |    1424797920 | 2017-02-03 18:53:18.816171+01

 2017-02-03 21:09:11.752194+01 | 1486152551.75219 |                 0 |              27 |                  1040 |                   14 |                 65 |          1254 |                9 |         4916041 |                     0 |    1424889351 | 2017-02-03 18:53:18.816171+01

 2017-02-03 21:09:12.827819+01 | 1486152552.82782 |                 0 |              27 |                  1040 |                   14 |                 65 |          1254 |                9 |         4916041 |                     0 |    1424979215 | 2017-02-03 18:53:18.816171+01

 2017-02-03 21:09:13.902811+01 | 1486152553.90281 |                 0 |              27 |                  1040 |                   14 |                 65 |          1254 |                9 |         4916041 |                     0 |    1425086666 | 2017-02-03 18:53:18.816171+01

 2017-02-03 21:09:14.981875+01 | 1486152554.98187 |                 0 |              27 |                  1040 |                   14 |                 65 |          1254 |                9 |         4916041 |                     0 |    1425178485 | 2017-02-03 18:53:18.816171+01

 2017-02-03 21:09:16.066396+01 | 1486152556.0664 |                 0 |              27 |                  1040 |                   14 |                 65 |          1254 |                9 |         4916041 |                     0 |    1425268218 | 2017-02-03 18:53:18.816171+01

 2017-02-03 21:09:17.147859+01 | 1486152557.14786 |                 0 |              27 |                  1040 |                   14 |                 65 |          1254 |                9 |         4916041 |                     0 |    1425376942 | 2017-02-03 18:53:18.816171+01

 2017-02-03 21:09:18.234224+01 | 1486152558.23422 |                 0 |              27 |                  1040 |                   14 |                 65 |          1254 |                9 |         4916041 |                     0 |    1425467324 | 2017-02-03 18:53:18.816171+01

 2017-02-03 21:09:19.305306+01 | 1486152559.30531 |                 0 |              27 |                  1040 |                   14 |                 65 |          1254 |                9 |         4916041 |                     0 |    1425553090 | 2017-02-03 18:53:18.816171+01

 2017-02-03 21:09:20.389763+01 | 1486152560.38976 |                 0 |              27 |                  1040 |                   14 |                 65 |          1254 |                9 |         4916041 |                     0 |    1425659900 | 2017-02-03 18:53:18.816171+01

 2017-02-03 21:09:21.471823+01 | 1486152561.47182 |                 0 |              27 |                  1040 |                   14 |                 65 |          1254 |                9 |         4916041 |                     0 |    1425746428 | 2017-02-03 18:53:18.816171+01

 2017-02-03 21:09:22.542955+01 | 1486152562.54295 |                 0 |              27 |                  1040 |                   14 |                 65 |          1254 |                9 |         4916041 |                     0 |    1425835890 | 2017-02-03 18:53:18.816171+01

 2017-02-03 21:09:23.62314+01 | 1486152563.62314 |                 0 |              27 |                  1040 |                   14 |                 65 |          1254 |                9 |         4916041 |                     0 |    1425941986 | 2017-02-03 18:53:18.816171+01

 2017-02-03 21:09:24.701134+01 | 1486152564.70113 |                 0 |              27 |                  1040 |                   14 |                 65 |          1254 |                9 |         4916041 |                     0 |    1426032584 | 2017-02-03 18:53:18.816171+01

 2017-02-03 21:09:25.779953+01 | 1486152565.77995 |                 0 |              27 |                  1040 |                   14 |                 65 |          1254 |                9 |         4916041 |                     0 |    1426123140 | 2017-02-03 18:53:18.816171+01

 2017-02-03 21:09:26.860379+01 | 1486152566.86038 |                 0 |              27 |                  1040 |                   14 |                 65 |          1254 |                9 |         4916041 |                     0 |    1426229336 | 2017-02-03 18:53:18.816171+01

 2017-02-03 21:09:27.931884+01 | 1486152567.93188 |                 0 |              27 |                  1040 |                   14 |                 65 |          1254 |                9 |         4916041 |                     0 |    1426320102 | 2017-02-03 18:53:18.816171+01

 2017-02-03 21:09:29.008944+01 | 1486152569.00894 |                 0 |              27 |                  1040 |                   14 |                 65 |          1254 |                9 |         4916041 |                     0 |    1426412989 | 2017-02-03 18:53:18.816171+01

 2017-02-03 21:09:30.086286+01 | 1486152570.08629 |                 0 |              27 |                  1040 |                   14 |                 65 |          1254 |                9 |         4916041 |                     0 |    1426503246 | 2017-02-03 18:53:18.816171+01

 2017-02-03 21:09:31.158422+01 | 1486152571.15842 |                 0 |              27 |                  1040 |                   14 |                 65 |          1254 |                9 |         4916041 |                     0 |    1426611238 | 2017-02-03 18:53:18.816171+01

 2017-02-03 21:09:32.235621+01 | 1486152572.23562 |                 0 |              27 |                  1040 |                   14 |                 65 |          1254 |                9 |         4916041 |                     0 |    1426702187 | 2017-02-03 18:53:18.816171+01

 2017-02-03 21:09:33.308623+01 | 1486152573.30862 |                 0 |              27 |                  1040 |                   14 |                 65 |          1254 |                9 |         4916041 |                     0 |    1426792932 | 2017-02-03 18:53:18.816171+01

 2017-02-03 21:09:34.393431+01 | 1486152574.39343 |                 0 |              27 |                  1040 |                   14 |                 65 |          1254 |                9 |         4916041 |                     0 |    1426902804 | 2017-02-03 18:53:18.816171+01

 2017-02-03 21:09:35.471949+01 | 1486152575.47195 |                 0 |              27 |                  1040 |                   14 |                 65 |          1254 |                9 |         4916041 |                     0 |    1426995798 | 2017-02-03 18:53:18.816171+01

 2017-02-03 21:09:36.556354+01 | 1486152576.55635 |                 0 |              27 |                  1040 |                   14 |                 65 |          1254 |                9 |         4916041 |                     0 |    1427083933 | 2017-02-03 18:53:18.816171+01

 2017-02-03 21:09:37.63587+01 | 1486152577.63587 |                 0 |              27 |                  1040 |                   14 |                 65 |          1254 |                9 |         4916041 |                     0 |    1427188479 | 2017-02-03 18:53:18.816171+01

 2017-02-03 21:09:38.718895+01 | 1486152578.71889 |                 0 |              27 |                  1040 |                   14 |                 65 |          1254 |                9 |         4916041 |                     0 |    1427276332 | 2017-02-03 18:53:18.816171+01

 2017-02-03 21:09:39.799773+01 | 1486152579.79977 |                 0 |              27 |                  1040 |                   14 |                 65 |          1254 |                9 |         4916041 |                     0 |    1427366633 | 2017-02-03 18:53:18.816171+01

 2017-02-03 21:09:40.875182+01 | 1486152580.87518 |                 0 |              27 |                  1040 |                   14 |                 65 |          1254 |                9 |         4916041 |                     0 |    1427473006 | 2017-02-03 18:53:18.816171+01

 2017-02-03 21:09:41.965676+01 | 1486152581.96568 |                 0 |              27 |                  1040 |                   14 |                 65 |          1254 |                9 |         4916041 |                     0 |    1427560082 | 2017-02-03 18:53:18.816171+01

 2017-02-03 21:09:43.044886+01 | 1486152583.04489 |                 0 |              27 |                  1040 |                   14 |                 65 |          1254 |                9 |         4916041 |                     0 |    1427650176 | 2017-02-03 18:53:18.816171+01

 2017-02-03 21:09:44.125834+01 | 1486152584.12583 |                 0 |              27 |                  1040 |                   14 |                 65 |          1254 |                9 |         4916041 |                     0 |    1427756440 | 2017-02-03 18:53:18.816171+01

 2017-02-03 21:09:45.195721+01 | 1486152585.19572 |                 0 |              27 |                  1040 |                   14 |                 65 |          1254 |                9 |         4916041 |                     0 |    1427847124 | 2017-02-03 18:53:18.816171+01

 2017-02-03 21:09:46.267381+01 | 1486152586.26738 |                 0 |              27 |                  1040 |                   14 |                 65 |          1254 |                9 |         4916041 |                     0 |    1427936466 | 2017-02-03 18:53:18.816171+01

 2017-02-03 21:09:47.343976+01 | 1486152587.34398 |                 0 |              27 |                  1040 |                   14 |                 65 |          1254 |                9 |         4916041 |                     0 |    1428046796 | 2017-02-03 18:53:18.816171+01

 2017-02-03 21:09:48.426265+01 | 1486152588.42627 |                 0 |              27 |                  1040 |                   14 |                 65 |          1254 |                9 |         4916041 |                     0 |    1428137363 | 2017-02-03 18:53:18.816171+01

 2017-02-03 21:09:49.516554+01 | 1486152589.51655 |                 0 |              27 |                  1040 |                   14 |                 65 |          1254 |                9 |         4916041 |                     0 |    1428227596 | 2017-02-03 18:53:18.816171+01

 2017-02-03 21:09:50.606907+01 | 1486152590.60691 |                 0 |              27 |                  1040 |                   14 |                 65 |          1254 |                9 |         4916041 |                     0 |    1428333167 | 2017-02-03 18:53:18.816171+01

 2017-02-03 21:09:51.685406+01 | 1486152591.68541 |                 0 |              27 |                  1040 |                   14 |                 65 |          1254 |                9 |         4916041 |                     0 |    1428422109 | 2017-02-03 18:53:18.816171+01

 2017-02-03 21:09:52.753725+01 | 1486152592.75373 |                 0 |              27 |                  1040 |                   14 |                 65 |          1254 |                9 |         4916041 |                     0 |    1428510662 | 2017-02-03 18:53:18.816171+01

 2017-02-03 21:09:53.828036+01 | 1486152593.82804 |                 0 |              27 |                  1040 |                   14 |                 65 |          1254 |                9 |         4916041 |                     0 |    1428617570 | 2017-02-03 18:53:18.816171+01

 2017-02-03 21:09:54.901063+01 | 1486152594.90106 |                 0 |              27 |                  1040 |                   14 |                 65 |          1254 |                9 |         4916041 |                     0 |    1428708521 | 2017-02-03 18:53:18.816171+01

 2017-02-03 21:09:55.97914+01 | 1486152595.97914 |                 0 |              27 |                  1040 |                   14 |                 65 |          1254 |                9 |         4916041 |                     0 |    1428797307 | 2017-02-03 18:53:18.816171+01

 2017-02-03 21:09:57.059542+01 | 1486152597.05954 |                 0 |              27 |                  1040 |                   14 |                 65 |          1254 |                9 |         4916041 |                     0 |    1428904949 | 2017-02-03 18:53:18.816171+01

 2017-02-03 21:09:58.13176+01 | 1486152598.13176 |                 0 |              27 |                  1040 |                   14 |                 65 |          1254 |                9 |         4916041 |                     0 |    1428992046 | 2017-02-03 18:53:18.816171+01

 2017-02-03 21:09:59.212984+01 | 1486152599.21298 |                 0 |              27 |                  1040 |                   14 |                 65 |          1254 |                9 |         4916041 |                     0 |    1429081415 | 2017-02-03 18:53:18.816171+01

 2017-02-03 21:10:00.298938+01 | 1486152600.29894 |                 0 |              27 |                  1040 |                   14 |                 65 |          1254 |                9 |         4916041 |                     0 |    1429189903 | 2017-02-03 18:53:18.816171+01

 2017-02-03 21:10:01.37391+01 | 1486152601.37391 |                 0 |              27 |                  1040 |                   14 |                 65 |          1254 |                9 |         4916041 |                     0 |    1429277102 | 2017-02-03 18:53:18.816171+01

 2017-02-03 21:10:02.453803+01 | 1486152602.4538 |                 0 |              27 |                  1040 |                   14 |                 65 |          1254 |                9 |         4916041 |                     0 |    1429363153 | 2017-02-03 18:53:18.816171+01

 2017-02-03 21:10:03.542608+01 | 1486152603.54261 |                 0 |              27 |                  1040 |                   14 |                 65 |          1254 |                9 |         4916041 |                     0 |    1429467654 | 2017-02-03 18:53:18.816171+01

 2017-02-03 21:10:04.612276+01 | 1486152604.61228 |                 0 |              27 |                  1040 |                   14 |                 65 |          1254 |                9 |         4916041 |                     0 |    1429558260 | 2017-02-03 18:53:18.816171+01

 2017-02-03 21:10:05.699394+01 | 1486152605.69939 |                 0 |              27 |                  1040 |                   14 |                 65 |          1254 |                9 |         4916041 |                     0 |    1429649651 | 2017-02-03 18:53:18.816171+01

 2017-02-03 21:10:06.779963+01 | 1486152606.77996 |                 0 |              27 |                  1040 |                   14 |                 65 |          1254 |                9 |         4916041 |                     0 |    1429759005 | 2017-02-03 18:53:18.816171+01

 2017-02-03 21:10:07.855073+01 | 1486152607.85507 |                 0 |              27 |                  1040 |                   14 |                 65 |          1254 |                9 |         4916041 |                     0 |    1429848918 | 2017-02-03 18:53:18.816171+01

 2017-02-03 21:10:08.925942+01 | 1486152608.92594 |                 0 |              27 |                  1040 |                   14 |                 65 |          1254 |                9 |         4916041 |                     0 |    1429936737 | 2017-02-03 18:53:18.816171+01

 2017-02-03 21:10:10.006062+01 | 1486152610.00606 |                 0 |              27 |                  1040 |                   14 |                 65 |          1254 |                9 |         4916041 |                     0 |    1430026273 | 2017-02-03 18:53:18.816171+01

 2017-02-03 21:10:11.078719+01 | 1486152611.07872 |                 0 |              27 |                  1040 |                   14 |                 65 |          1254 |                9 |         4916041 |                     0 |    1430130431 | 2017-02-03 18:53:18.816171+01

 2017-02-03 21:10:12.15084+01 | 1486152612.15084 |                 0 |              27 |                  1040 |                   14 |                 65 |          1254 |                9 |         4916041 |                     0 |    1430217000 | 2017-02-03 18:53:18.816171+01

 2017-02-03 21:10:13.227333+01 | 1486152613.22733 |                 0 |              27 |                  1040 |                   14 |                 65 |          1254 |                9 |         4916041 |                     0 |    1430305134 | 2017-02-03 18:53:18.816171+01

 2017-02-03 21:10:14.304803+01 | 1486152614.3048 |                 0 |              27 |                  1040 |                   14 |                 65 |          1254 |                9 |         4916041 |                     0 |    1430412015 | 2017-02-03 18:53:18.816171+01

 2017-02-03 21:10:15.385143+01 | 1486152615.38514 |                 0 |              27 |                  1040 |                   14 |                 65 |          1254 |                9 |         4916041 |                     0 |    1430501787 | 2017-02-03 18:53:18.816171+01

 2017-02-03 21:10:16.469677+01 | 1486152616.46968 |                 0 |              27 |                  1040 |                   14 |                 65 |          1254 |                9 |         4916041 |                     0 |    1430590693 | 2017-02-03 18:53:18.816171+01

 2017-02-03 21:10:17.552756+01 | 1486152617.55276 |                 0 |              27 |                  1040 |                   14 |                 65 |          1254 |                9 |         4916041 |                     0 |    1430696595 | 2017-02-03 18:53:18.816171+01

 2017-02-03 21:10:18.636329+01 | 1486152618.63633 |                 0 |              27 |                  1040 |                   14 |                 65 |          1254 |                9 |         4916041 |                     0 |    1430784262 | 2017-02-03 18:53:18.816171+01

 2017-02-03 21:10:19.716243+01 | 1486152619.71624 |                 0 |              27 |                  1040 |                   14 |                 65 |          1254 |                9 |         4916041 |                     0 |    1430873013 | 2017-02-03 18:53:18.816171+01

 2017-02-03 21:10:20.7956+01 | 1486152620.7956 |                 0 |              27 |                  1040 |                   14 |                 65 |          1254 |                9 |         4916041 |                     0 |    1430980448 | 2017-02-03 18:53:18.816171+01

 2017-02-03 21:10:21.881856+01 | 1486152621.88186 |                 0 |              27 |                  1040 |                   14 |                 65 |          1254 |                9 |         4916041 |                     0 |    1431070757 | 2017-02-03 18:53:18.816171+01

 2017-02-03 21:10:22.964134+01 | 1486152622.96413 |                 0 |              27 |                  1040 |                   14 |                 65 |          1254 |                9 |         4916041 |                     0 |    1431161000 | 2017-02-03 18:53:18.816171+01

 2017-02-03 21:10:24.044228+01 | 1486152624.04423 |                 0 |              27 |                  1040 |                   14 |                 65 |          1254 |                9 |         4916041 |                     0 |    1431266819 | 2017-02-03 18:53:18.816171+01

 2017-02-03 21:10:25.124931+01 | 1486152625.12493 |                 0 |              27 |                  1040 |                   14 |                 65 |          1254 |                9 |         4916041 |                     0 |    1431353657 | 2017-02-03 18:53:18.816171+01

 2017-02-03 21:10:26.207796+01 | 1486152626.2078 |                 0 |              27 |                  1040 |                   14 |                 65 |          1254 |                9 |         4916041 |                     0 |    1431443075 | 2017-02-03 18:53:18.816171+01

 2017-02-03 21:10:27.302744+01 | 1486152627.30274 |                 0 |              27 |                  1040 |                   14 |                 65 |          1254 |                9 |         4916041 |                     0 |    1431550111 | 2017-02-03 18:53:18.816171+01

 2017-02-03 21:10:28.386254+01 | 1486152628.38625 |                 0 |              27 |                  1040 |                   14 |                 65 |          1254 |                9 |         4916041 |                     0 |    1431639644 | 2017-02-03 18:53:18.816171+01

 2017-02-03 21:10:29.462682+01 | 1486152629.46268 |                 0 |              27 |                  1040 |                   14 |                 65 |          1254 |                9 |         4916041 |                     0 |    1431728297 | 2017-02-03 18:53:18.816171+01

 2017-02-03 21:10:30.547642+01 | 1486152630.54764 |                 0 |              27 |                  1040 |                   14 |                 65 |          1254 |                9 |         4916041 |                     0 |    1431831600 | 2017-02-03 18:53:18.816171+01

 2017-02-03 21:10:31.626166+01 | 1486152631.62617 |                 0 |              27 |                  1040 |                   14 |                 65 |          1254 |                9 |         4916041 |                     0 |    1431920550 | 2017-02-03 18:53:18.816171+01

 2017-02-03 21:10:32.709471+01 | 1486152632.70947 |                 0 |              27 |                  1040 |                   14 |                 65 |          1254 |                9 |         4916041 |                     0 |    1432012600 | 2017-02-03 18:53:18.816171+01

 2017-02-03 21:10:33.795448+01 | 1486152633.79545 |                 0 |              27 |                  1040 |                   14 |                 65 |          1254 |                9 |         4916041 |                     0 |    1432121401 | 2017-02-03 18:53:18.816171+01

 2017-02-03 21:10:34.872725+01 | 1486152634.87273 |                 0 |              27 |                  1040 |                   14 |                 65 |          1254 |                9 |         4916041 |                     0 |    1432209280 | 2017-02-03 18:53:18.816171+01

 2017-02-03 21:10:35.945805+01 | 1486152635.94581 |                 0 |              27 |                  1040 |                   14 |                 65 |          1254 |                9 |         4916041 |                     0 |    1432300063 | 2017-02-03 18:53:18.816171+01

 2017-02-03 21:10:37.028081+01 | 1486152637.02808 |                 0 |              27 |                  1040 |                   14 |                 65 |          1254 |                9 |         4916041 |                     0 |    1432405560 | 2017-02-03 18:53:18.816171+01

 2017-02-03 21:10:38.113586+01 | 1486152638.11359 |                 0 |              27 |                  1040 |                   14 |                 65 |          1254 |                9 |         4916041 |                     0 |    1432495029 | 2017-02-03 18:53:18.816171+01

 2017-02-03 21:10:39.202326+01 | 1486152639.20233 |                 0 |              27 |                  1040 |                   14 |                 65 |          1254 |                9 |         4916041 |                     0 |    1432585269 | 2017-02-03 18:53:18.816171+01

 2017-02-03 21:10:40.286839+01 | 1486152640.28684 |                 0 |              27 |                  1040 |                   14 |                 65 |          1254 |                9 |         4916041 |                     0 |    1432692732 | 2017-02-03 18:53:18.816171+01

 2017-02-03 21:10:41.367743+01 | 1486152641.36774 |                 0 |              27 |                  1040 |                   14 |                 65 |          1254 |                9 |         4916041 |                     0 |    1432780594 | 2017-02-03 18:53:18.816171+01

 2017-02-03 21:10:42.448194+01 | 1486152642.44819 |                 0 |              27 |                  1040 |                   14 |                 65 |          1254 |                9 |         4916041 |                     0 |    1432888876 | 2017-02-03 18:53:18.816171+01

 2017-02-03 21:10:43.525939+01 | 1486152643.52594 |                 0 |              27 |                  1040 |                   14 |                 65 |          1254 |                9 |         4916041 |                     0 |    1432978127 | 2017-02-03 18:53:18.816171+01

 2017-02-03 21:10:44.610522+01 | 1486152644.61052 |                 0 |              27 |                  1040 |                   14 |                 65 |          1254 |                9 |         4916041 |                     0 |    1433065364 | 2017-02-03 18:53:18.816171+01

 2017-02-03 21:10:45.693482+01 | 1486152645.69348 |                 0 |              27 |                  1040 |                   14 |                 65 |          1254 |                9 |         4916041 |                     0 |    1433170628 | 2017-02-03 18:53:18.816171+01

 2017-02-03 21:10:46.779439+01 | 1486152646.77944 |                 0 |              27 |                  1040 |                   14 |                 65 |          1254 |                9 |         4916041 |                     0 |    1433261290 | 2017-02-03 18:53:18.816171+01

 2017-02-03 21:10:47.865698+01 | 1486152647.8657 |                 0 |              27 |                  1040 |                   14 |                 65 |          1254 |                9 |         4916041 |                     0 |    1433349686 | 2017-02-03 18:53:18.816171+01

 2017-02-03 21:10:48.948485+01 | 1486152648.94848 |                 0 |              27 |                  1040 |                   14 |                 65 |          1254 |                9 |         4916041 |                     0 |    1433454661 | 2017-02-03 18:53:18.816171+01

 2017-02-03 21:10:50.028109+01 | 1486152650.02811 |                 0 |              27 |                  1040 |                   14 |                 65 |          1254 |                9 |         4916041 |                     0 |    1433543743 | 2017-02-03 18:53:18.816171+01

 2017-02-03 21:10:51.108307+01 | 1486152651.10831 |                 0 |              27 |                  1040 |                   14 |                 65 |          1254 |                9 |         4916041 |                     0 |    1433632006 | 2017-02-03 18:53:18.816171+01

 2017-02-03 21:10:52.181782+01 | 1486152652.18178 |                 0 |              27 |                  1040 |                   14 |                 65 |          1254 |                9 |         4916041 |                     0 |    1433736519 | 2017-02-03 18:53:18.816171+01

 2017-02-03 21:10:53.256874+01 | 1486152653.25687 |                 0 |              27 |                  1040 |                   14 |                 65 |          1254 |                9 |         4916041 |                     0 |    1433824808 | 2017-02-03 18:53:18.816171+01

 2017-02-03 21:10:54.338591+01 | 1486152654.33859 |                 0 |              27 |                  1040 |                   14 |                 65 |          1254 |                9 |         4916041 |                     0 |    1433913820 | 2017-02-03 18:53:18.816171+01

 2017-02-03 21:10:55.420019+01 | 1486152655.42002 |                 0 |              27 |                  1040 |                   14 |                 65 |          1254 |                9 |         4916041 |                     0 |    1434020682 | 2017-02-03 18:53:18.816171+01

 2017-02-03 21:10:56.511903+01 | 1486152656.5119 |                 0 |              27 |                  1040 |                   14 |                 65 |          1254 |                9 |         4916041 |                     0 |    1434108495 | 2017-02-03 18:53:18.816171+01

 2017-02-03 21:10:57.590693+01 | 1486152657.59069 |                 0 |              27 |                  1040 |                   14 |                 65 |          1254 |                9 |         4916041 |                     0 |    1434196707 | 2017-02-03 18:53:18.816171+01

 2017-02-03 21:10:58.681122+01 | 1486152658.68112 |                 0 |              27 |                  1040 |                   14 |                 65 |          1254 |                9 |         4916041 |                     0 |    1434301900 | 2017-02-03 18:53:18.816171+01

 2017-02-03 21:10:59.765432+01 | 1486152659.76543 |                 0 |              27 |                  1040 |                   14 |                 65 |          1254 |                9 |         4916041 |                     0 |    1434393097 | 2017-02-03 18:53:18.816171+01

 2017-02-03 21:11:00.846253+01 | 1486152660.84625 |                 0 |              27 |                  1040 |                   14 |                 65 |          1254 |                9 |         4916041 |                     0 |    1434482661 | 2017-02-03 18:53:18.816171+01

 2017-02-03 21:11:01.924788+01 | 1486152661.92479 |                 0 |              27 |                  1040 |                   14 |                 65 |          1254 |                9 |         4916041 |                     0 |    1434591402 | 2017-02-03 18:53:18.816171+01

 2017-02-03 21:11:02.997785+01 | 1486152662.99779 |                 0 |              27 |                  1040 |                   14 |                 65 |          1254 |                9 |         4916041 |                     0 |    1434680878 | 2017-02-03 18:53:18.816171+01

 2017-02-03 21:11:04.082412+01 | 1486152664.08241 |                 0 |              27 |                  1040 |                   14 |                 65 |          1254 |                9 |         4916041 |                     0 |    1434770094 | 2017-02-03 18:53:18.816171+01

 2017-02-03 21:11:05.161835+01 | 1486152665.16183 |                 0 |              27 |                  1040 |                   14 |                 65 |          1254 |                9 |         4916041 |                     0 |    1434877862 | 2017-02-03 18:53:18.816171+01

 2017-02-03 21:11:06.235412+01 | 1486152666.23541 |                 0 |              27 |                  1040 |                   14 |                 65 |          1254 |                9 |         4916041 |                     0 |    1434967486 | 2017-02-03 18:53:18.816171+01

 2017-02-03 21:11:07.304526+01 | 1486152667.30453 |                 0 |              27 |                  1040 |                   14 |                 65 |          1254 |                9 |         4916041 |                     0 |    1435057156 | 2017-02-03 18:53:18.816171+01

 2017-02-03 21:11:08.374586+01 | 1486152668.37459 |                 0 |              27 |                  1040 |                   14 |                 65 |          1254 |                9 |         4916041 |                     0 |    1435165454 | 2017-02-03 18:53:18.816171+01

 2017-02-03 21:11:09.450694+01 | 1486152669.45069 |                 0 |              27 |                  1040 |                   14 |                 65 |          1254 |                9 |         4916041 |                     0 |    1435254169 | 2017-02-03 18:53:18.816171+01

 2017-02-03 21:11:10.533439+01 | 1486152670.53344 |                 0 |              27 |                  1040 |                   14 |                 65 |          1254 |                9 |         4916041 |                     0 |    1435345000 | 2017-02-03 18:53:18.816171+01

 2017-02-03 21:11:11.614743+01 | 1486152671.61474 |                 0 |              27 |                  1040 |                   14 |                 65 |          1254 |                9 |         4916041 |                     0 |    1435452633 | 2017-02-03 18:53:18.816171+01

 2017-02-03 21:11:12.687192+01 | 1486152672.68719 |                 0 |              27 |                  1040 |                   14 |                 65 |          1254 |                9 |         4916041 |                     0 |    1435542432 | 2017-02-03 18:53:18.816171+01

 2017-02-03 21:11:13.757341+01 | 1486152673.75734 |                 0 |              27 |                  1040 |                   14 |                 65 |          1254 |                9 |         4916041 |                     0 |    1435630020 | 2017-02-03 18:53:18.816171+01

 2017-02-03 21:11:14.827375+01 | 1486152674.82737 |                 0 |              27 |                  1040 |                   14 |                 65 |          1254 |                9 |         4916041 |                     0 |    1435719283 | 2017-02-03 18:53:18.816171+01

 2017-02-03 21:11:15.905652+01 | 1486152675.90565 |                 0 |              27 |                  1040 |                   14 |                 65 |          1254 |                9 |         4916041 |                     0 |    1435827895 | 2017-02-03 18:53:18.816171+01

 2017-02-03 21:11:16.989981+01 | 1486152676.98998 |                 0 |              27 |                  1040 |                   14 |                 65 |          1254 |                9 |         4916041 |                     0 |    1435915719 | 2017-02-03 18:53:18.816171+01

 2017-02-03 21:11:18.071755+01 | 1486152678.07175 |                 0 |              27 |                  1040 |                   14 |                 65 |          1254 |                9 |         4916041 |                     0 |    1436005001 | 2017-02-03 18:53:18.816171+01

 2017-02-03 21:11:19.158468+01 | 1486152679.15847 |                 0 |              27 |                  1040 |                   14 |                 65 |          1254 |                9 |         4916041 |                     0 |    1436112927 | 2017-02-03 18:53:18.816171+01

 2017-02-03 21:11:20.245331+01 | 1486152680.24533 |                 0 |              27 |                  1040 |                   14 |                 65 |          1254 |                9 |         4916041 |                     0 |    1436205050 | 2017-02-03 18:53:18.816171+01

 2017-02-03 21:11:21.32397+01 | 1486152681.32397 |                 0 |              27 |                  1040 |                   14 |                 65 |          1254 |                9 |         4916041 |                     0 |    1436293404 | 2017-02-03 18:53:18.816171+01

 2017-02-03 21:11:22.395127+01 | 1486152682.39513 |                 0 |              27 |                  1040 |                   14 |                 65 |          1254 |                9 |         4916041 |                     0 |    1436402840 | 2017-02-03 18:53:18.816171+01

 2017-02-03 21:11:23.477758+01 | 1486152683.47776 |                 0 |              27 |                  1040 |                   14 |                 65 |          1254 |                9 |         4916041 |                     0 |    1436492361 | 2017-02-03 18:53:18.816171+01

 2017-02-03 21:11:24.558746+01 | 1486152684.55875 |                 0 |              27 |                  1040 |                   14 |                 65 |          1254 |                9 |         4916041 |                     0 |    1436579597 | 2017-02-03 18:53:18.816171+01

 2017-02-03 21:11:25.63532+01 | 1486152685.63532 |                 0 |              27 |                  1040 |                   14 |                 65 |          1254 |                9 |         4916041 |                     0 |    1436685461 | 2017-02-03 18:53:18.816171+01

 2017-02-03 21:11:26.711044+01 | 1486152686.71104 |                 0 |              27 |                  1040 |                   14 |                 65 |          1254 |                9 |         4916041 |                     0 |    1436774946 | 2017-02-03 18:53:18.816171+01

 2017-02-03 21:11:27.792026+01 | 1486152687.79203 |                 0 |              27 |                  1040 |                   14 |                 65 |          1254 |                9 |         4916041 |                     0 |    1436864034 | 2017-02-03 18:53:18.816171+01

 2017-02-03 21:11:28.871659+01 | 1486152688.87166 |                 0 |              27 |                  1040 |                   14 |                 65 |          1254 |                9 |         4916041 |                     0 |    1436971632 | 2017-02-03 18:53:18.816171+01

 2017-02-03 21:11:29.959351+01 | 1486152689.95935 |                 0 |              27 |                  1040 |                   14 |                 65 |          1254 |                9 |         4916041 |                     0 |    1437061970 | 2017-02-03 18:53:18.816171+01

 2017-02-03 21:11:31.046735+01 | 1486152691.04674 |                 0 |              27 |                  1040 |                   14 |                 65 |          1254 |                9 |         4916041 |                     0 |    1437150884 | 2017-02-03 18:53:18.816171+01

 2017-02-03 21:11:32.117773+01 | 1486152692.11777 |                 0 |              27 |                  1040 |                   14 |                 65 |          1254 |                9 |         4916041 |                     0 |    1437254525 | 2017-02-03 18:53:18.816171+01

 2017-02-03 21:11:33.19414+01 | 1486152693.19414 |                 0 |              27 |                  1040 |                   14 |                 65 |          1254 |                9 |         4916041 |                     0 |    1437345757 | 2017-02-03 18:53:18.816171+01

 2017-02-03 21:11:34.282361+01 | 1486152694.28236 |                 0 |              27 |                  1040 |                   14 |                 65 |          1254 |                9 |         4916041 |                     0 |    1437437372 | 2017-02-03 18:53:18.816171+01

 2017-02-03 21:11:35.368606+01 | 1486152695.36861 |                 0 |              27 |                  1040 |                   14 |                 65 |          1254 |                9 |         4916041 |                     0 |    1437545157 | 2017-02-03 18:53:18.816171+01

 2017-02-03 21:11:36.458112+01 | 1486152696.45811 |                 0 |              27 |                  1040 |                   14 |                 65 |          1254 |                9 |         4916041 |                     0 |    1437633766 | 2017-02-03 18:53:18.816171+01

 2017-02-03 21:11:37.543271+01 | 1486152697.54327 |                 0 |              27 |                  1040 |                   14 |                 65 |          1254 |                9 |         4916041 |                     0 |    1437723396 | 2017-02-03 18:53:18.816171+01

 2017-02-03 21:11:38.6258+01 | 1486152698.6258 |                 0 |              27 |                  1040 |                   14 |                 65 |          1254 |                9 |         4916041 |                     0 |    1437830767 | 2017-02-03 18:53:18.816171+01

 2017-02-03 21:11:39.711509+01 | 1486152699.71151 |                 0 |              27 |                  1040 |                   14 |                 65 |          1254 |                9 |         4916041 |                     0 |    1437920797 | 2017-02-03 18:53:18.816171+01

 2017-02-03 21:11:40.792124+01 | 1486152700.79212 |                 0 |              27 |                  1040 |                   14 |                 65 |          1254 |                9 |         4916041 |                     0 |    1438026504 | 2017-02-03 18:53:18.816171+01

 2017-02-03 21:11:41.881786+01 | 1486152701.88179 |                 0 |              27 |                  1040 |                   14 |                 65 |          1254 |                9 |         4916041 |                     0 |    1438115785 | 2017-02-03 18:53:18.816171+01

 2017-02-03 21:11:42.963343+01 | 1486152702.96334 |                 0 |              27 |                  1040 |                   14 |                 65 |          1254 |                9 |         4916041 |                     0 |    1438203750 | 2017-02-03 18:53:18.816171+01

 2017-02-03 21:11:44.042378+01 | 1486152704.04238 |                 0 |              27 |                  1040 |                   14 |                 65 |          1254 |                9 |         4916041 |                     0 |    1438310934 | 2017-02-03 18:53:18.816171+01

 2017-02-03 21:11:45.128968+01 | 1486152705.12897 |                 0 |              27 |                  1040 |                   14 |                 65 |          1254 |                9 |         4916041 |                     0 |    1438401603 | 2017-02-03 18:53:18.816171+01

 2017-02-03 21:11:46.213496+01 | 1486152706.2135 |                 0 |              27 |                  1040 |                   14 |                 65 |          1254 |                9 |         4916041 |                     0 |    1438491905 | 2017-02-03 18:53:18.816171+01

 2017-02-03 21:11:47.30098+01 | 1486152707.30098 |                 0 |              27 |                  1040 |                   14 |                 65 |          1254 |                9 |         4916041 |                     0 |    1438601857 | 2017-02-03 18:53:18.816171+01

 2017-02-03 21:11:48.385107+01 | 1486152708.38511 |                 0 |              27 |                  1040 |                   14 |                 65 |          1254 |                9 |         4916041 |                     0 |    1438691430 | 2017-02-03 18:53:18.816171+01

 2017-02-03 21:11:49.479586+01 | 1486152709.47959 |                 0 |              27 |                  1040 |                   14 |                 65 |          1254 |                9 |         4916041 |                     0 |    1438782377 | 2017-02-03 18:53:18.816171+01

 2017-02-03 21:11:50.556468+01 | 1486152710.55647 |                 0 |              27 |                  1040 |                   14 |                 65 |          1254 |                9 |         4916041 |                     0 |    1438886950 | 2017-02-03 18:53:18.816171+01

 2017-02-03 21:11:51.631189+01 | 1486152711.63119 |                 0 |              27 |                  1040 |                   14 |                 65 |          1254 |                9 |         4916041 |                     0 |    1438975983 | 2017-02-03 18:53:18.816171+01

 2017-02-03 21:11:52.694697+01 | 1486152712.6947 |                 0 |              27 |                  1040 |                   14 |                 65 |          1254 |                9 |         4916041 |                     0 |    1439064893 | 2017-02-03 18:53:18.816171+01

 2017-02-03 21:11:53.770567+01 | 1486152713.77057 |                 0 |              27 |                  1040 |                   14 |                 65 |          1254 |                9 |         4916041 |                     0 |    1439174353 | 2017-02-03 18:53:18.816171+01

 2017-02-03 21:11:54.858752+01 | 1486152714.85875 |                 0 |              27 |                  1040 |                   14 |                 65 |          1254 |                9 |         4916041 |                     0 |    1439261844 | 2017-02-03 18:53:18.816171+01

 2017-02-03 21:11:55.945536+01 | 1486152715.94554 |                 0 |              27 |                  1040 |                   14 |                 65 |          1254 |                9 |         4916041 |                     0 |    1439350900 | 2017-02-03 18:53:18.816171+01

 2017-02-03 21:11:57.028244+01 | 1486152717.02824 |                 0 |              27 |                  1040 |                   14 |                 65 |          1254 |                9 |         4916041 |                     0 |    1439458173 | 2017-02-03 18:53:18.816171+01

 2017-02-03 21:11:58.108918+01 | 1486152718.10892 |                 0 |              27 |                  1040 |                   14 |                 65 |          1254 |                9 |         4916041 |                     0 |    1439548570 | 2017-02-03 18:53:18.816171+01

 2017-02-03 21:11:59.187129+01 | 1486152719.18713 |                 0 |              27 |                  1040 |                   14 |                 65 |          1254 |                9 |         4916041 |                     0 |    1439636735 | 2017-02-03 18:53:18.816171+01

 2017-02-03 21:12:00.261305+01 | 1486152720.26131 |                 0 |              27 |                  1040 |                   14 |                 65 |          1254 |                9 |         4916041 |                     0 |    1439745798 | 2017-02-03 18:53:18.816171+01

 2017-02-03 21:12:01.346818+01 | 1486152721.34682 |                 0 |              27 |                  1040 |                   14 |                 65 |          1254 |                9 |         4916041 |                     0 |    1439835543 | 2017-02-03 18:53:18.816171+01

 2017-02-03 21:12:02.43707+01 | 1486152722.43707 |                 0 |              27 |                  1040 |                   14 |                 65 |          1254 |                9 |         4916041 |                     0 |    1439924700 | 2017-02-03 18:53:18.816171+01

 2017-02-03 21:12:03.514189+01 | 1486152723.51419 |                 0 |              27 |                  1040 |                   14 |                 65 |          1254 |                9 |         4916041 |                     0 |    1440031279 | 2017-02-03 18:53:18.816171+01

 2017-02-03 21:12:04.591214+01 | 1486152724.59121 |                 0 |              27 |                  1040 |                   14 |                 65 |          1254 |                9 |         4916041 |                     0 |    1440122935 | 2017-02-03 18:53:18.816171+01

 2017-02-03 21:12:05.684425+01 | 1486152725.68443 |                 0 |              27 |                  1040 |                   14 |                 65 |          1254 |                9 |         4916041 |                     0 |    1440213006 | 2017-02-03 18:53:18.816171+01

 2017-02-03 21:12:06.761609+01 | 1486152726.76161 |                 0 |              27 |                  1040 |                   14 |                 65 |          1254 |                9 |         4916041 |                     0 |    1440321303 | 2017-02-03 18:53:18.816171+01

 2017-02-03 21:12:07.843201+01 | 1486152727.8432 |                 0 |              27 |                  1040 |                   14 |                 65 |          1254 |                9 |         4916041 |                     0 |    1440411368 | 2017-02-03 18:53:18.816171+01

