 2017-02-06 09:36:46.44869+01 | 1486370206.44869 | pgbench_accounts |      13429514240
 2017-02-06 09:36:46.44869+01 | 1486370206.44869 | pgbench_tellers  |           450560
 2017-02-06 09:36:46.44869+01 | 1486370206.44869 | pgbench_history  |                0
 2017-02-06 09:36:46.44869+01 | 1486370206.44869 | pgbench_branches |            40960

 2017-02-06 09:36:47.597388+01 | 1486370207.59739 | pgbench_accounts |      13429514240
 2017-02-06 09:36:47.597388+01 | 1486370207.59739 | pgbench_tellers  |           450560
 2017-02-06 09:36:47.597388+01 | 1486370207.59739 | pgbench_history  |                0
 2017-02-06 09:36:47.597388+01 | 1486370207.59739 | pgbench_branches |            40960

 2017-02-06 09:36:48.752671+01 | 1486370208.75267 | pgbench_accounts |      13429514240
 2017-02-06 09:36:48.752671+01 | 1486370208.75267 | pgbench_tellers  |           450560
 2017-02-06 09:36:48.752671+01 | 1486370208.75267 | pgbench_history  |                0
 2017-02-06 09:36:48.752671+01 | 1486370208.75267 | pgbench_branches |            40960

 2017-02-06 09:36:49.886813+01 | 1486370209.88681 | pgbench_accounts |      13429514240
 2017-02-06 09:36:49.886813+01 | 1486370209.88681 | pgbench_tellers  |           450560
 2017-02-06 09:36:49.886813+01 | 1486370209.88681 | pgbench_history  |                0
 2017-02-06 09:36:49.886813+01 | 1486370209.88681 | pgbench_branches |            40960

 2017-02-06 09:36:51.027863+01 | 1486370211.02786 | pgbench_accounts |      13429514240
 2017-02-06 09:36:51.027863+01 | 1486370211.02786 | pgbench_tellers  |           450560
 2017-02-06 09:36:51.027863+01 | 1486370211.02786 | pgbench_history  |                0
 2017-02-06 09:36:51.027863+01 | 1486370211.02786 | pgbench_branches |            40960

 2017-02-06 09:36:52.165255+01 | 1486370212.16526 | pgbench_accounts |      13429514240
 2017-02-06 09:36:52.165255+01 | 1486370212.16526 | pgbench_tellers  |           450560
 2017-02-06 09:36:52.165255+01 | 1486370212.16526 | pgbench_history  |                0
 2017-02-06 09:36:52.165255+01 | 1486370212.16526 | pgbench_branches |            40960

 2017-02-06 09:36:53.314125+01 | 1486370213.31413 | pgbench_accounts |      13429514240
 2017-02-06 09:36:53.314125+01 | 1486370213.31413 | pgbench_tellers  |           450560
 2017-02-06 09:36:53.314125+01 | 1486370213.31413 | pgbench_history  |                0
 2017-02-06 09:36:53.314125+01 | 1486370213.31413 | pgbench_branches |            40960

 2017-02-06 09:36:54.453181+01 | 1486370214.45318 | pgbench_accounts |      13429514240
 2017-02-06 09:36:54.453181+01 | 1486370214.45318 | pgbench_tellers  |           450560
 2017-02-06 09:36:54.453181+01 | 1486370214.45318 | pgbench_history  |                0
 2017-02-06 09:36:54.453181+01 | 1486370214.45318 | pgbench_branches |            40960

 2017-02-06 09:36:55.594169+01 | 1486370215.59417 | pgbench_accounts |      13429514240
 2017-02-06 09:36:55.594169+01 | 1486370215.59417 | pgbench_tellers  |           450560
 2017-02-06 09:36:55.594169+01 | 1486370215.59417 | pgbench_history  |                0
 2017-02-06 09:36:55.594169+01 | 1486370215.59417 | pgbench_branches |            40960

 2017-02-06 09:36:56.747745+01 | 1486370216.74775 | pgbench_accounts |      13429514240
 2017-02-06 09:36:56.747745+01 | 1486370216.74775 | pgbench_tellers  |           450560
 2017-02-06 09:36:56.747745+01 | 1486370216.74775 | pgbench_history  |                0
 2017-02-06 09:36:56.747745+01 | 1486370216.74775 | pgbench_branches |            40960

 2017-02-06 09:36:57.889996+01 | 1486370217.89 | pgbench_accounts |      13429514240
 2017-02-06 09:36:57.889996+01 | 1486370217.89 | pgbench_tellers  |           450560
 2017-02-06 09:36:57.889996+01 | 1486370217.89 | pgbench_history  |                0
 2017-02-06 09:36:57.889996+01 | 1486370217.89 | pgbench_branches |            40960

 2017-02-06 09:36:59.035481+01 | 1486370219.03548 | pgbench_accounts |      13429514240
 2017-02-06 09:36:59.035481+01 | 1486370219.03548 | pgbench_tellers  |           450560
 2017-02-06 09:36:59.035481+01 | 1486370219.03548 | pgbench_history  |                0
 2017-02-06 09:36:59.035481+01 | 1486370219.03548 | pgbench_branches |            40960

 2017-02-06 09:37:00.178654+01 | 1486370220.17865 | pgbench_accounts |      13429514240
 2017-02-06 09:37:00.178654+01 | 1486370220.17865 | pgbench_tellers  |           450560
 2017-02-06 09:37:00.178654+01 | 1486370220.17865 | pgbench_history  |                0
 2017-02-06 09:37:00.178654+01 | 1486370220.17865 | pgbench_branches |            40960

 2017-02-06 09:37:01.315738+01 | 1486370221.31574 | pgbench_accounts |      13429514240
 2017-02-06 09:37:01.315738+01 | 1486370221.31574 | pgbench_tellers  |           450560
 2017-02-06 09:37:01.315738+01 | 1486370221.31574 | pgbench_history  |                0
 2017-02-06 09:37:01.315738+01 | 1486370221.31574 | pgbench_branches |            40960

 2017-02-06 09:37:02.448773+01 | 1486370222.44877 | pgbench_accounts |      13429514240
 2017-02-06 09:37:02.448773+01 | 1486370222.44877 | pgbench_tellers  |           450560
 2017-02-06 09:37:02.448773+01 | 1486370222.44877 | pgbench_history  |                0
 2017-02-06 09:37:02.448773+01 | 1486370222.44877 | pgbench_branches |            40960

 2017-02-06 09:37:03.607271+01 | 1486370223.60727 | pgbench_accounts |      13429514240
 2017-02-06 09:37:03.607271+01 | 1486370223.60727 | pgbench_tellers  |           450560
 2017-02-06 09:37:03.607271+01 | 1486370223.60727 | pgbench_history  |                0
 2017-02-06 09:37:03.607271+01 | 1486370223.60727 | pgbench_branches |            40960

 2017-02-06 09:37:04.757738+01 | 1486370224.75774 | pgbench_accounts |      13429514240
 2017-02-06 09:37:04.757738+01 | 1486370224.75774 | pgbench_tellers  |           450560
 2017-02-06 09:37:04.757738+01 | 1486370224.75774 | pgbench_history  |                0
 2017-02-06 09:37:04.757738+01 | 1486370224.75774 | pgbench_branches |            40960

 2017-02-06 09:37:05.911752+01 | 1486370225.91175 | pgbench_accounts |      13429514240
 2017-02-06 09:37:05.911752+01 | 1486370225.91175 | pgbench_tellers  |           450560
 2017-02-06 09:37:05.911752+01 | 1486370225.91175 | pgbench_history  |                0
 2017-02-06 09:37:05.911752+01 | 1486370225.91175 | pgbench_branches |            40960

 2017-02-06 09:37:07.067617+01 | 1486370227.06762 | pgbench_accounts |      13429514240
 2017-02-06 09:37:07.067617+01 | 1486370227.06762 | pgbench_tellers  |           450560
 2017-02-06 09:37:07.067617+01 | 1486370227.06762 | pgbench_history  |                0
 2017-02-06 09:37:07.067617+01 | 1486370227.06762 | pgbench_branches |            40960

 2017-02-06 09:37:08.20761+01 | 1486370228.20761 | pgbench_accounts |      13429514240
 2017-02-06 09:37:08.20761+01 | 1486370228.20761 | pgbench_tellers  |           450560
 2017-02-06 09:37:08.20761+01 | 1486370228.20761 | pgbench_history  |                0
 2017-02-06 09:37:08.20761+01 | 1486370228.20761 | pgbench_branches |            40960

 2017-02-06 09:37:09.317563+01 | 1486370229.31756 | pgbench_accounts |      13429514240
 2017-02-06 09:37:09.317563+01 | 1486370229.31756 | pgbench_tellers  |           450560
 2017-02-06 09:37:09.317563+01 | 1486370229.31756 | pgbench_history  |                0
 2017-02-06 09:37:09.317563+01 | 1486370229.31756 | pgbench_branches |            40960

 2017-02-06 09:37:10.441368+01 | 1486370230.44137 | pgbench_accounts |      13429514240
 2017-02-06 09:37:10.441368+01 | 1486370230.44137 | pgbench_tellers  |           450560
 2017-02-06 09:37:10.441368+01 | 1486370230.44137 | pgbench_history  |                0
 2017-02-06 09:37:10.441368+01 | 1486370230.44137 | pgbench_branches |            40960

 2017-02-06 09:37:11.55055+01 | 1486370231.55055 | pgbench_accounts |      13429514240
 2017-02-06 09:37:11.55055+01 | 1486370231.55055 | pgbench_tellers  |           450560
 2017-02-06 09:37:11.55055+01 | 1486370231.55055 | pgbench_history  |                0
 2017-02-06 09:37:11.55055+01 | 1486370231.55055 | pgbench_branches |            40960

 2017-02-06 09:37:12.723881+01 | 1486370232.72388 | pgbench_accounts |      13429514240
 2017-02-06 09:37:12.723881+01 | 1486370232.72388 | pgbench_tellers  |           450560
 2017-02-06 09:37:12.723881+01 | 1486370232.72388 | pgbench_history  |                0
 2017-02-06 09:37:12.723881+01 | 1486370232.72388 | pgbench_branches |            40960

 2017-02-06 09:37:13.899893+01 | 1486370233.89989 | pgbench_accounts |      13429514240
 2017-02-06 09:37:13.899893+01 | 1486370233.89989 | pgbench_tellers  |           450560
 2017-02-06 09:37:13.899893+01 | 1486370233.89989 | pgbench_history  |                0
 2017-02-06 09:37:13.899893+01 | 1486370233.89989 | pgbench_branches |            40960

 2017-02-06 09:37:15.052825+01 | 1486370235.05282 | pgbench_accounts |      13429514240
 2017-02-06 09:37:15.052825+01 | 1486370235.05282 | pgbench_tellers  |           450560
 2017-02-06 09:37:15.052825+01 | 1486370235.05282 | pgbench_history  |                0
 2017-02-06 09:37:15.052825+01 | 1486370235.05282 | pgbench_branches |            40960

 2017-02-06 09:37:16.221035+01 | 1486370236.22104 | pgbench_accounts |      13429514240
 2017-02-06 09:37:16.221035+01 | 1486370236.22104 | pgbench_tellers  |           450560
 2017-02-06 09:37:16.221035+01 | 1486370236.22104 | pgbench_history  |                0
 2017-02-06 09:37:16.221035+01 | 1486370236.22104 | pgbench_branches |            40960

 2017-02-06 09:37:17.366324+01 | 1486370237.36632 | pgbench_accounts |      13429514240
 2017-02-06 09:37:17.366324+01 | 1486370237.36632 | pgbench_tellers  |           450560
 2017-02-06 09:37:17.366324+01 | 1486370237.36632 | pgbench_history  |                0
 2017-02-06 09:37:17.366324+01 | 1486370237.36632 | pgbench_branches |            40960

 2017-02-06 09:37:18.527073+01 | 1486370238.52707 | pgbench_accounts |      13429514240
 2017-02-06 09:37:18.527073+01 | 1486370238.52707 | pgbench_tellers  |           450560
 2017-02-06 09:37:18.527073+01 | 1486370238.52707 | pgbench_history  |                0
 2017-02-06 09:37:18.527073+01 | 1486370238.52707 | pgbench_branches |            40960

 2017-02-06 09:37:19.658262+01 | 1486370239.65826 | pgbench_accounts |      13429514240
 2017-02-06 09:37:19.658262+01 | 1486370239.65826 | pgbench_tellers  |           450560
 2017-02-06 09:37:19.658262+01 | 1486370239.65826 | pgbench_history  |                0
 2017-02-06 09:37:19.658262+01 | 1486370239.65826 | pgbench_branches |            40960

 2017-02-06 09:37:20.796945+01 | 1486370240.79695 | pgbench_accounts |      13429514240
 2017-02-06 09:37:20.796945+01 | 1486370240.79695 | pgbench_tellers  |           450560
 2017-02-06 09:37:20.796945+01 | 1486370240.79695 | pgbench_history  |                0
 2017-02-06 09:37:20.796945+01 | 1486370240.79695 | pgbench_branches |            40960

 2017-02-06 09:37:21.922187+01 | 1486370241.92219 | pgbench_accounts |      13429514240
 2017-02-06 09:37:21.922187+01 | 1486370241.92219 | pgbench_tellers  |           450560
 2017-02-06 09:37:21.922187+01 | 1486370241.92219 | pgbench_history  |                0
 2017-02-06 09:37:21.922187+01 | 1486370241.92219 | pgbench_branches |            40960

 2017-02-06 09:37:23.073976+01 | 1486370243.07398 | pgbench_accounts |      13429514240
 2017-02-06 09:37:23.073976+01 | 1486370243.07398 | pgbench_tellers  |           450560
 2017-02-06 09:37:23.073976+01 | 1486370243.07398 | pgbench_history  |                0
 2017-02-06 09:37:23.073976+01 | 1486370243.07398 | pgbench_branches |            40960

 2017-02-06 09:37:24.190405+01 | 1486370244.1904 | pgbench_accounts |      13429514240
 2017-02-06 09:37:24.190405+01 | 1486370244.1904 | pgbench_tellers  |           450560
 2017-02-06 09:37:24.190405+01 | 1486370244.1904 | pgbench_history  |                0
 2017-02-06 09:37:24.190405+01 | 1486370244.1904 | pgbench_branches |            40960

 2017-02-06 09:37:25.327234+01 | 1486370245.32723 | pgbench_accounts |      13429514240
 2017-02-06 09:37:25.327234+01 | 1486370245.32723 | pgbench_tellers  |           450560
 2017-02-06 09:37:25.327234+01 | 1486370245.32723 | pgbench_history  |                0
 2017-02-06 09:37:25.327234+01 | 1486370245.32723 | pgbench_branches |            40960

 2017-02-06 09:37:26.459705+01 | 1486370246.45971 | pgbench_accounts |      13429514240
 2017-02-06 09:37:26.459705+01 | 1486370246.45971 | pgbench_tellers  |           450560
 2017-02-06 09:37:26.459705+01 | 1486370246.45971 | pgbench_history  |                0
 2017-02-06 09:37:26.459705+01 | 1486370246.45971 | pgbench_branches |            40960

 2017-02-06 09:37:27.591879+01 | 1486370247.59188 | pgbench_accounts |      13429514240
 2017-02-06 09:37:27.591879+01 | 1486370247.59188 | pgbench_tellers  |           450560
 2017-02-06 09:37:27.591879+01 | 1486370247.59188 | pgbench_history  |                0
 2017-02-06 09:37:27.591879+01 | 1486370247.59188 | pgbench_branches |            40960

 2017-02-06 09:37:28.739859+01 | 1486370248.73986 | pgbench_accounts |      13429514240
 2017-02-06 09:37:28.739859+01 | 1486370248.73986 | pgbench_tellers  |           450560
 2017-02-06 09:37:28.739859+01 | 1486370248.73986 | pgbench_history  |                0
 2017-02-06 09:37:28.739859+01 | 1486370248.73986 | pgbench_branches |            40960

 2017-02-06 09:37:29.919582+01 | 1486370249.91958 | pgbench_accounts |      13429514240
 2017-02-06 09:37:29.919582+01 | 1486370249.91958 | pgbench_tellers  |           450560
 2017-02-06 09:37:29.919582+01 | 1486370249.91958 | pgbench_history  |                0
 2017-02-06 09:37:29.919582+01 | 1486370249.91958 | pgbench_branches |            40960

 2017-02-06 09:37:31.068638+01 | 1486370251.06864 | pgbench_accounts |      13429514240
 2017-02-06 09:37:31.068638+01 | 1486370251.06864 | pgbench_tellers  |           450560
 2017-02-06 09:37:31.068638+01 | 1486370251.06864 | pgbench_history  |                0
 2017-02-06 09:37:31.068638+01 | 1486370251.06864 | pgbench_branches |            40960

 2017-02-06 09:37:32.212568+01 | 1486370252.21257 | pgbench_accounts |      13429514240
 2017-02-06 09:37:32.212568+01 | 1486370252.21257 | pgbench_tellers  |           450560
 2017-02-06 09:37:32.212568+01 | 1486370252.21257 | pgbench_history  |                0
 2017-02-06 09:37:32.212568+01 | 1486370252.21257 | pgbench_branches |            40960

 2017-02-06 09:37:33.347723+01 | 1486370253.34772 | pgbench_accounts |      13429514240
 2017-02-06 09:37:33.347723+01 | 1486370253.34772 | pgbench_tellers  |           450560
 2017-02-06 09:37:33.347723+01 | 1486370253.34772 | pgbench_history  |                0
 2017-02-06 09:37:33.347723+01 | 1486370253.34772 | pgbench_branches |            40960

 2017-02-06 09:37:34.477694+01 | 1486370254.47769 | pgbench_accounts |      13429514240
 2017-02-06 09:37:34.477694+01 | 1486370254.47769 | pgbench_tellers  |           450560
 2017-02-06 09:37:34.477694+01 | 1486370254.47769 | pgbench_history  |                0
 2017-02-06 09:37:34.477694+01 | 1486370254.47769 | pgbench_branches |            40960

 2017-02-06 09:37:35.602996+01 | 1486370255.603 | pgbench_accounts |      13429514240
 2017-02-06 09:37:35.602996+01 | 1486370255.603 | pgbench_tellers  |           450560
 2017-02-06 09:37:35.602996+01 | 1486370255.603 | pgbench_history  |                0
 2017-02-06 09:37:35.602996+01 | 1486370255.603 | pgbench_branches |            40960

 2017-02-06 09:37:36.754413+01 | 1486370256.75441 | pgbench_accounts |      13429514240
 2017-02-06 09:37:36.754413+01 | 1486370256.75441 | pgbench_tellers  |           450560
 2017-02-06 09:37:36.754413+01 | 1486370256.75441 | pgbench_history  |                0
 2017-02-06 09:37:36.754413+01 | 1486370256.75441 | pgbench_branches |            40960

 2017-02-06 09:37:37.911599+01 | 1486370257.9116 | pgbench_accounts |      13429514240
 2017-02-06 09:37:37.911599+01 | 1486370257.9116 | pgbench_tellers  |           450560
 2017-02-06 09:37:37.911599+01 | 1486370257.9116 | pgbench_history  |                0
 2017-02-06 09:37:37.911599+01 | 1486370257.9116 | pgbench_branches |            40960

 2017-02-06 09:37:39.045173+01 | 1486370259.04517 | pgbench_accounts |      13429514240
 2017-02-06 09:37:39.045173+01 | 1486370259.04517 | pgbench_tellers  |           450560
 2017-02-06 09:37:39.045173+01 | 1486370259.04517 | pgbench_history  |                0
 2017-02-06 09:37:39.045173+01 | 1486370259.04517 | pgbench_branches |            40960

 2017-02-06 09:37:40.21112+01 | 1486370260.21112 | pgbench_accounts |      13429514240
 2017-02-06 09:37:40.21112+01 | 1486370260.21112 | pgbench_tellers  |           450560
 2017-02-06 09:37:40.21112+01 | 1486370260.21112 | pgbench_history  |                0
 2017-02-06 09:37:40.21112+01 | 1486370260.21112 | pgbench_branches |            40960

 2017-02-06 09:37:41.404138+01 | 1486370261.40414 | pgbench_accounts |      13429514240
 2017-02-06 09:37:41.404138+01 | 1486370261.40414 | pgbench_tellers  |           450560
 2017-02-06 09:37:41.404138+01 | 1486370261.40414 | pgbench_history  |                0
 2017-02-06 09:37:41.404138+01 | 1486370261.40414 | pgbench_branches |            40960

 2017-02-06 09:37:42.535114+01 | 1486370262.53511 | pgbench_accounts |      13429514240
 2017-02-06 09:37:42.535114+01 | 1486370262.53511 | pgbench_tellers  |           450560
 2017-02-06 09:37:42.535114+01 | 1486370262.53511 | pgbench_history  |                0
 2017-02-06 09:37:42.535114+01 | 1486370262.53511 | pgbench_branches |            40960

 2017-02-06 09:37:43.699568+01 | 1486370263.69957 | pgbench_accounts |      13429514240
 2017-02-06 09:37:43.699568+01 | 1486370263.69957 | pgbench_tellers  |           450560
 2017-02-06 09:37:43.699568+01 | 1486370263.69957 | pgbench_history  |                0
 2017-02-06 09:37:43.699568+01 | 1486370263.69957 | pgbench_branches |            40960

 2017-02-06 09:37:44.821953+01 | 1486370264.82195 | pgbench_accounts |      13429514240
 2017-02-06 09:37:44.821953+01 | 1486370264.82195 | pgbench_tellers  |           450560
 2017-02-06 09:37:44.821953+01 | 1486370264.82195 | pgbench_history  |                0
 2017-02-06 09:37:44.821953+01 | 1486370264.82195 | pgbench_branches |            40960

 2017-02-06 09:37:45.971943+01 | 1486370265.97194 | pgbench_accounts |      13429514240
 2017-02-06 09:37:45.971943+01 | 1486370265.97194 | pgbench_tellers  |           450560
 2017-02-06 09:37:45.971943+01 | 1486370265.97194 | pgbench_history  |                0
 2017-02-06 09:37:45.971943+01 | 1486370265.97194 | pgbench_branches |            40960

 2017-02-06 09:37:47.126056+01 | 1486370267.12606 | pgbench_accounts |      13429514240
 2017-02-06 09:37:47.126056+01 | 1486370267.12606 | pgbench_tellers  |           450560
 2017-02-06 09:37:47.126056+01 | 1486370267.12606 | pgbench_history  |                0
 2017-02-06 09:37:47.126056+01 | 1486370267.12606 | pgbench_branches |            40960

 2017-02-06 09:37:48.277608+01 | 1486370268.27761 | pgbench_accounts |      13429514240
 2017-02-06 09:37:48.277608+01 | 1486370268.27761 | pgbench_tellers  |           450560
 2017-02-06 09:37:48.277608+01 | 1486370268.27761 | pgbench_history  |                0
 2017-02-06 09:37:48.277608+01 | 1486370268.27761 | pgbench_branches |            40960

 2017-02-06 09:37:49.40171+01 | 1486370269.40171 | pgbench_accounts |      13429514240
 2017-02-06 09:37:49.40171+01 | 1486370269.40171 | pgbench_tellers  |           450560
 2017-02-06 09:37:49.40171+01 | 1486370269.40171 | pgbench_history  |                0
 2017-02-06 09:37:49.40171+01 | 1486370269.40171 | pgbench_branches |            40960

 2017-02-06 09:37:50.542082+01 | 1486370270.54208 | pgbench_accounts |      13429514240
 2017-02-06 09:37:50.542082+01 | 1486370270.54208 | pgbench_tellers  |           450560
 2017-02-06 09:37:50.542082+01 | 1486370270.54208 | pgbench_history  |                0
 2017-02-06 09:37:50.542082+01 | 1486370270.54208 | pgbench_branches |            40960

 2017-02-06 09:37:51.699512+01 | 1486370271.69951 | pgbench_accounts |      13429514240
 2017-02-06 09:37:51.699512+01 | 1486370271.69951 | pgbench_tellers  |           450560
 2017-02-06 09:37:51.699512+01 | 1486370271.69951 | pgbench_history  |                0
 2017-02-06 09:37:51.699512+01 | 1486370271.69951 | pgbench_branches |            40960

 2017-02-06 09:37:52.829872+01 | 1486370272.82987 | pgbench_accounts |      13429514240
 2017-02-06 09:37:52.829872+01 | 1486370272.82987 | pgbench_tellers  |           450560
 2017-02-06 09:37:52.829872+01 | 1486370272.82987 | pgbench_history  |                0
 2017-02-06 09:37:52.829872+01 | 1486370272.82987 | pgbench_branches |            40960

 2017-02-06 09:37:53.938055+01 | 1486370273.93806 | pgbench_accounts |      13429514240
 2017-02-06 09:37:53.938055+01 | 1486370273.93806 | pgbench_tellers  |           450560
 2017-02-06 09:37:53.938055+01 | 1486370273.93806 | pgbench_history  |                0
 2017-02-06 09:37:53.938055+01 | 1486370273.93806 | pgbench_branches |            40960

 2017-02-06 09:37:55.092704+01 | 1486370275.0927 | pgbench_accounts |      13429514240
 2017-02-06 09:37:55.092704+01 | 1486370275.0927 | pgbench_tellers  |           450560
 2017-02-06 09:37:55.092704+01 | 1486370275.0927 | pgbench_history  |                0
 2017-02-06 09:37:55.092704+01 | 1486370275.0927 | pgbench_branches |            40960

 2017-02-06 09:37:56.224338+01 | 1486370276.22434 | pgbench_accounts |      13429514240
 2017-02-06 09:37:56.224338+01 | 1486370276.22434 | pgbench_tellers  |           450560
 2017-02-06 09:37:56.224338+01 | 1486370276.22434 | pgbench_history  |                0
 2017-02-06 09:37:56.224338+01 | 1486370276.22434 | pgbench_branches |            40960

 2017-02-06 09:37:57.391249+01 | 1486370277.39125 | pgbench_accounts |      13429514240
 2017-02-06 09:37:57.391249+01 | 1486370277.39125 | pgbench_tellers  |           450560
 2017-02-06 09:37:57.391249+01 | 1486370277.39125 | pgbench_history  |                0
 2017-02-06 09:37:57.391249+01 | 1486370277.39125 | pgbench_branches |            40960

 2017-02-06 09:37:58.543581+01 | 1486370278.54358 | pgbench_accounts |      13429514240
 2017-02-06 09:37:58.543581+01 | 1486370278.54358 | pgbench_tellers  |           450560
 2017-02-06 09:37:58.543581+01 | 1486370278.54358 | pgbench_history  |                0
 2017-02-06 09:37:58.543581+01 | 1486370278.54358 | pgbench_branches |            40960

 2017-02-06 09:37:59.704338+01 | 1486370279.70434 | pgbench_accounts |      13429514240
 2017-02-06 09:37:59.704338+01 | 1486370279.70434 | pgbench_tellers  |           450560
 2017-02-06 09:37:59.704338+01 | 1486370279.70434 | pgbench_history  |                0
 2017-02-06 09:37:59.704338+01 | 1486370279.70434 | pgbench_branches |            40960

 2017-02-06 09:38:00.847284+01 | 1486370280.84728 | pgbench_accounts |      13429514240
 2017-02-06 09:38:00.847284+01 | 1486370280.84728 | pgbench_tellers  |           450560
 2017-02-06 09:38:00.847284+01 | 1486370280.84728 | pgbench_history  |                0
 2017-02-06 09:38:00.847284+01 | 1486370280.84728 | pgbench_branches |            40960

 2017-02-06 09:38:01.970493+01 | 1486370281.97049 | pgbench_accounts |      13429514240
 2017-02-06 09:38:01.970493+01 | 1486370281.97049 | pgbench_tellers  |           450560
 2017-02-06 09:38:01.970493+01 | 1486370281.97049 | pgbench_history  |                0
 2017-02-06 09:38:01.970493+01 | 1486370281.97049 | pgbench_branches |            40960

 2017-02-06 09:38:03.135899+01 | 1486370283.1359 | pgbench_accounts |      13429514240
 2017-02-06 09:38:03.135899+01 | 1486370283.1359 | pgbench_tellers  |           450560
 2017-02-06 09:38:03.135899+01 | 1486370283.1359 | pgbench_history  |                0
 2017-02-06 09:38:03.135899+01 | 1486370283.1359 | pgbench_branches |            40960

 2017-02-06 09:38:04.275561+01 | 1486370284.27556 | pgbench_accounts |      13429514240
 2017-02-06 09:38:04.275561+01 | 1486370284.27556 | pgbench_tellers  |           450560
 2017-02-06 09:38:04.275561+01 | 1486370284.27556 | pgbench_history  |                0
 2017-02-06 09:38:04.275561+01 | 1486370284.27556 | pgbench_branches |            40960

 2017-02-06 09:38:05.441154+01 | 1486370285.44115 | pgbench_accounts |      13429514240
 2017-02-06 09:38:05.441154+01 | 1486370285.44115 | pgbench_tellers  |           450560
 2017-02-06 09:38:05.441154+01 | 1486370285.44115 | pgbench_history  |                0
 2017-02-06 09:38:05.441154+01 | 1486370285.44115 | pgbench_branches |            40960

 2017-02-06 09:38:06.589066+01 | 1486370286.58907 | pgbench_accounts |      13429514240
 2017-02-06 09:38:06.589066+01 | 1486370286.58907 | pgbench_tellers  |           450560
 2017-02-06 09:38:06.589066+01 | 1486370286.58907 | pgbench_history  |                0
 2017-02-06 09:38:06.589066+01 | 1486370286.58907 | pgbench_branches |            40960

 2017-02-06 09:38:07.779749+01 | 1486370287.77975 | pgbench_accounts |      13429514240
 2017-02-06 09:38:07.779749+01 | 1486370287.77975 | pgbench_tellers  |           450560
 2017-02-06 09:38:07.779749+01 | 1486370287.77975 | pgbench_history  |                0
 2017-02-06 09:38:07.779749+01 | 1486370287.77975 | pgbench_branches |            40960

 2017-02-06 09:38:08.904902+01 | 1486370288.9049 | pgbench_accounts |      13429514240
 2017-02-06 09:38:08.904902+01 | 1486370288.9049 | pgbench_tellers  |           450560
 2017-02-06 09:38:08.904902+01 | 1486370288.9049 | pgbench_history  |                0
 2017-02-06 09:38:08.904902+01 | 1486370288.9049 | pgbench_branches |            40960

 2017-02-06 09:38:10.072027+01 | 1486370290.07203 | pgbench_accounts |      13429514240
 2017-02-06 09:38:10.072027+01 | 1486370290.07203 | pgbench_tellers  |           450560
 2017-02-06 09:38:10.072027+01 | 1486370290.07203 | pgbench_history  |                0
 2017-02-06 09:38:10.072027+01 | 1486370290.07203 | pgbench_branches |            40960

 2017-02-06 09:38:11.202865+01 | 1486370291.20286 | pgbench_accounts |      13429514240
 2017-02-06 09:38:11.202865+01 | 1486370291.20286 | pgbench_tellers  |           450560
 2017-02-06 09:38:11.202865+01 | 1486370291.20286 | pgbench_history  |                0
 2017-02-06 09:38:11.202865+01 | 1486370291.20286 | pgbench_branches |            40960

 2017-02-06 09:38:12.338526+01 | 1486370292.33853 | pgbench_accounts |      13429514240
 2017-02-06 09:38:12.338526+01 | 1486370292.33853 | pgbench_tellers  |           450560
 2017-02-06 09:38:12.338526+01 | 1486370292.33853 | pgbench_history  |                0
 2017-02-06 09:38:12.338526+01 | 1486370292.33853 | pgbench_branches |            40960

 2017-02-06 09:38:13.49188+01 | 1486370293.49188 | pgbench_accounts |      13429514240
 2017-02-06 09:38:13.49188+01 | 1486370293.49188 | pgbench_tellers  |           450560
 2017-02-06 09:38:13.49188+01 | 1486370293.49188 | pgbench_history  |                0
 2017-02-06 09:38:13.49188+01 | 1486370293.49188 | pgbench_branches |            40960

 2017-02-06 09:38:14.65253+01 | 1486370294.65253 | pgbench_accounts |      13429514240
 2017-02-06 09:38:14.65253+01 | 1486370294.65253 | pgbench_tellers  |           450560
 2017-02-06 09:38:14.65253+01 | 1486370294.65253 | pgbench_history  |                0
 2017-02-06 09:38:14.65253+01 | 1486370294.65253 | pgbench_branches |            40960

 2017-02-06 09:38:15.795518+01 | 1486370295.79552 | pgbench_accounts |      13429514240
 2017-02-06 09:38:15.795518+01 | 1486370295.79552 | pgbench_tellers  |           450560
 2017-02-06 09:38:15.795518+01 | 1486370295.79552 | pgbench_history  |                0
 2017-02-06 09:38:15.795518+01 | 1486370295.79552 | pgbench_branches |            40960

 2017-02-06 09:38:16.920497+01 | 1486370296.9205 | pgbench_accounts |      13429514240
 2017-02-06 09:38:16.920497+01 | 1486370296.9205 | pgbench_tellers  |           450560
 2017-02-06 09:38:16.920497+01 | 1486370296.9205 | pgbench_history  |                0
 2017-02-06 09:38:16.920497+01 | 1486370296.9205 | pgbench_branches |            40960

 2017-02-06 09:38:18.054698+01 | 1486370298.0547 | pgbench_accounts |      13429514240
 2017-02-06 09:38:18.054698+01 | 1486370298.0547 | pgbench_tellers  |           450560
 2017-02-06 09:38:18.054698+01 | 1486370298.0547 | pgbench_history  |                0
 2017-02-06 09:38:18.054698+01 | 1486370298.0547 | pgbench_branches |            40960

 2017-02-06 09:38:19.184306+01 | 1486370299.18431 | pgbench_accounts |      13429514240
 2017-02-06 09:38:19.184306+01 | 1486370299.18431 | pgbench_tellers  |           450560
 2017-02-06 09:38:19.184306+01 | 1486370299.18431 | pgbench_history  |                0
 2017-02-06 09:38:19.184306+01 | 1486370299.18431 | pgbench_branches |            40960

 2017-02-06 09:38:20.317447+01 | 1486370300.31745 | pgbench_accounts |      13429514240
 2017-02-06 09:38:20.317447+01 | 1486370300.31745 | pgbench_tellers  |           450560
 2017-02-06 09:38:20.317447+01 | 1486370300.31745 | pgbench_history  |                0
 2017-02-06 09:38:20.317447+01 | 1486370300.31745 | pgbench_branches |            40960

 2017-02-06 09:38:21.462243+01 | 1486370301.46224 | pgbench_accounts |      13429514240
 2017-02-06 09:38:21.462243+01 | 1486370301.46224 | pgbench_tellers  |           450560
 2017-02-06 09:38:21.462243+01 | 1486370301.46224 | pgbench_history  |                0
 2017-02-06 09:38:21.462243+01 | 1486370301.46224 | pgbench_branches |            40960

 2017-02-06 09:38:22.621556+01 | 1486370302.62156 | pgbench_accounts |      13429514240
 2017-02-06 09:38:22.621556+01 | 1486370302.62156 | pgbench_tellers  |           450560
 2017-02-06 09:38:22.621556+01 | 1486370302.62156 | pgbench_history  |                0
 2017-02-06 09:38:22.621556+01 | 1486370302.62156 | pgbench_branches |            40960

 2017-02-06 09:38:23.766598+01 | 1486370303.7666 | pgbench_accounts |      13429514240
 2017-02-06 09:38:23.766598+01 | 1486370303.7666 | pgbench_tellers  |           450560
 2017-02-06 09:38:23.766598+01 | 1486370303.7666 | pgbench_history  |                0
 2017-02-06 09:38:23.766598+01 | 1486370303.7666 | pgbench_branches |            40960

 2017-02-06 09:38:24.907515+01 | 1486370304.90752 | pgbench_accounts |      13429514240
 2017-02-06 09:38:24.907515+01 | 1486370304.90752 | pgbench_tellers  |           450560
 2017-02-06 09:38:24.907515+01 | 1486370304.90752 | pgbench_history  |                0
 2017-02-06 09:38:24.907515+01 | 1486370304.90752 | pgbench_branches |            40960

 2017-02-06 09:38:26.037731+01 | 1486370306.03773 | pgbench_accounts |      13429514240
 2017-02-06 09:38:26.037731+01 | 1486370306.03773 | pgbench_tellers  |           450560
 2017-02-06 09:38:26.037731+01 | 1486370306.03773 | pgbench_history  |                0
 2017-02-06 09:38:26.037731+01 | 1486370306.03773 | pgbench_branches |            40960

 2017-02-06 09:38:27.156863+01 | 1486370307.15686 | pgbench_accounts |      13429514240
 2017-02-06 09:38:27.156863+01 | 1486370307.15686 | pgbench_tellers  |           450560
 2017-02-06 09:38:27.156863+01 | 1486370307.15686 | pgbench_history  |                0
 2017-02-06 09:38:27.156863+01 | 1486370307.15686 | pgbench_branches |            40960

 2017-02-06 09:38:28.275116+01 | 1486370308.27512 | pgbench_accounts |      13429514240
 2017-02-06 09:38:28.275116+01 | 1486370308.27512 | pgbench_tellers  |           450560
 2017-02-06 09:38:28.275116+01 | 1486370308.27512 | pgbench_history  |                0
 2017-02-06 09:38:28.275116+01 | 1486370308.27512 | pgbench_branches |            40960

 2017-02-06 09:38:29.396197+01 | 1486370309.3962 | pgbench_accounts |      13429514240
 2017-02-06 09:38:29.396197+01 | 1486370309.3962 | pgbench_tellers  |           450560
 2017-02-06 09:38:29.396197+01 | 1486370309.3962 | pgbench_history  |                0
 2017-02-06 09:38:29.396197+01 | 1486370309.3962 | pgbench_branches |            40960

 2017-02-06 09:38:30.554826+01 | 1486370310.55483 | pgbench_accounts |      13429514240
 2017-02-06 09:38:30.554826+01 | 1486370310.55483 | pgbench_tellers  |           450560
 2017-02-06 09:38:30.554826+01 | 1486370310.55483 | pgbench_history  |                0
 2017-02-06 09:38:30.554826+01 | 1486370310.55483 | pgbench_branches |            40960

 2017-02-06 09:38:31.690221+01 | 1486370311.69022 | pgbench_accounts |      13429514240
 2017-02-06 09:38:31.690221+01 | 1486370311.69022 | pgbench_tellers  |           450560
 2017-02-06 09:38:31.690221+01 | 1486370311.69022 | pgbench_history  |                0
 2017-02-06 09:38:31.690221+01 | 1486370311.69022 | pgbench_branches |            40960

 2017-02-06 09:38:32.837418+01 | 1486370312.83742 | pgbench_accounts |      13429514240
 2017-02-06 09:38:32.837418+01 | 1486370312.83742 | pgbench_tellers  |           450560
 2017-02-06 09:38:32.837418+01 | 1486370312.83742 | pgbench_history  |                0
 2017-02-06 09:38:32.837418+01 | 1486370312.83742 | pgbench_branches |            40960

 2017-02-06 09:38:33.965186+01 | 1486370313.96519 | pgbench_accounts |      13429514240
 2017-02-06 09:38:33.965186+01 | 1486370313.96519 | pgbench_tellers  |           450560
 2017-02-06 09:38:33.965186+01 | 1486370313.96519 | pgbench_history  |                0
 2017-02-06 09:38:33.965186+01 | 1486370313.96519 | pgbench_branches |            40960

 2017-02-06 09:38:35.141377+01 | 1486370315.14138 | pgbench_accounts |      13429514240
 2017-02-06 09:38:35.141377+01 | 1486370315.14138 | pgbench_tellers  |           450560
 2017-02-06 09:38:35.141377+01 | 1486370315.14138 | pgbench_history  |                0
 2017-02-06 09:38:35.141377+01 | 1486370315.14138 | pgbench_branches |            40960

 2017-02-06 09:38:36.290187+01 | 1486370316.29019 | pgbench_accounts |      13429514240
 2017-02-06 09:38:36.290187+01 | 1486370316.29019 | pgbench_tellers  |           450560
 2017-02-06 09:38:36.290187+01 | 1486370316.29019 | pgbench_history  |                0
 2017-02-06 09:38:36.290187+01 | 1486370316.29019 | pgbench_branches |            40960

 2017-02-06 09:38:37.420478+01 | 1486370317.42048 | pgbench_accounts |      13429514240
 2017-02-06 09:38:37.420478+01 | 1486370317.42048 | pgbench_tellers  |           450560
 2017-02-06 09:38:37.420478+01 | 1486370317.42048 | pgbench_history  |                0
 2017-02-06 09:38:37.420478+01 | 1486370317.42048 | pgbench_branches |            40960

 2017-02-06 09:38:38.56282+01 | 1486370318.56282 | pgbench_accounts |      13429514240
 2017-02-06 09:38:38.56282+01 | 1486370318.56282 | pgbench_tellers  |           450560
 2017-02-06 09:38:38.56282+01 | 1486370318.56282 | pgbench_history  |                0
 2017-02-06 09:38:38.56282+01 | 1486370318.56282 | pgbench_branches |            40960

 2017-02-06 09:38:39.715202+01 | 1486370319.7152 | pgbench_accounts |      13429514240
 2017-02-06 09:38:39.715202+01 | 1486370319.7152 | pgbench_tellers  |           450560
 2017-02-06 09:38:39.715202+01 | 1486370319.7152 | pgbench_history  |                0
 2017-02-06 09:38:39.715202+01 | 1486370319.7152 | pgbench_branches |            40960

 2017-02-06 09:38:40.872289+01 | 1486370320.87229 | pgbench_accounts |      13429514240
 2017-02-06 09:38:40.872289+01 | 1486370320.87229 | pgbench_tellers  |           450560
 2017-02-06 09:38:40.872289+01 | 1486370320.87229 | pgbench_history  |                0
 2017-02-06 09:38:40.872289+01 | 1486370320.87229 | pgbench_branches |            40960

 2017-02-06 09:38:42.016386+01 | 1486370322.01639 | pgbench_accounts |      13429514240
 2017-02-06 09:38:42.016386+01 | 1486370322.01639 | pgbench_tellers  |           450560
 2017-02-06 09:38:42.016386+01 | 1486370322.01639 | pgbench_history  |                0
 2017-02-06 09:38:42.016386+01 | 1486370322.01639 | pgbench_branches |            40960

 2017-02-06 09:38:43.158354+01 | 1486370323.15835 | pgbench_accounts |      13429514240
 2017-02-06 09:38:43.158354+01 | 1486370323.15835 | pgbench_tellers  |           450560
 2017-02-06 09:38:43.158354+01 | 1486370323.15835 | pgbench_history  |                0
 2017-02-06 09:38:43.158354+01 | 1486370323.15835 | pgbench_branches |            40960

 2017-02-06 09:38:44.306299+01 | 1486370324.3063 | pgbench_accounts |      13429514240
 2017-02-06 09:38:44.306299+01 | 1486370324.3063 | pgbench_tellers  |           450560
 2017-02-06 09:38:44.306299+01 | 1486370324.3063 | pgbench_history  |                0
 2017-02-06 09:38:44.306299+01 | 1486370324.3063 | pgbench_branches |            40960

 2017-02-06 09:38:45.440469+01 | 1486370325.44047 | pgbench_accounts |      13429514240
 2017-02-06 09:38:45.440469+01 | 1486370325.44047 | pgbench_tellers  |           450560
 2017-02-06 09:38:45.440469+01 | 1486370325.44047 | pgbench_history  |                0
 2017-02-06 09:38:45.440469+01 | 1486370325.44047 | pgbench_branches |            40960

 2017-02-06 09:38:46.568521+01 | 1486370326.56852 | pgbench_accounts |      13429514240
 2017-02-06 09:38:46.568521+01 | 1486370326.56852 | pgbench_tellers  |           450560
 2017-02-06 09:38:46.568521+01 | 1486370326.56852 | pgbench_history  |                0
 2017-02-06 09:38:46.568521+01 | 1486370326.56852 | pgbench_branches |            40960

 2017-02-06 09:38:47.713624+01 | 1486370327.71362 | pgbench_accounts |      13429514240
 2017-02-06 09:38:47.713624+01 | 1486370327.71362 | pgbench_tellers  |           450560
 2017-02-06 09:38:47.713624+01 | 1486370327.71362 | pgbench_history  |                0
 2017-02-06 09:38:47.713624+01 | 1486370327.71362 | pgbench_branches |            40960

 2017-02-06 09:38:48.848775+01 | 1486370328.84877 | pgbench_accounts |      13429514240
 2017-02-06 09:38:48.848775+01 | 1486370328.84877 | pgbench_tellers  |           450560
 2017-02-06 09:38:48.848775+01 | 1486370328.84877 | pgbench_history  |                0
 2017-02-06 09:38:48.848775+01 | 1486370328.84877 | pgbench_branches |            40960

 2017-02-06 09:38:49.981775+01 | 1486370329.98178 | pgbench_accounts |      13429514240
 2017-02-06 09:38:49.981775+01 | 1486370329.98178 | pgbench_tellers  |           450560
 2017-02-06 09:38:49.981775+01 | 1486370329.98178 | pgbench_history  |                0
 2017-02-06 09:38:49.981775+01 | 1486370329.98178 | pgbench_branches |            40960

 2017-02-06 09:38:51.137037+01 | 1486370331.13704 | pgbench_accounts |      13429514240
 2017-02-06 09:38:51.137037+01 | 1486370331.13704 | pgbench_tellers  |           450560
 2017-02-06 09:38:51.137037+01 | 1486370331.13704 | pgbench_history  |                0
 2017-02-06 09:38:51.137037+01 | 1486370331.13704 | pgbench_branches |            40960

 2017-02-06 09:38:52.286933+01 | 1486370332.28693 | pgbench_accounts |      13429514240
 2017-02-06 09:38:52.286933+01 | 1486370332.28693 | pgbench_tellers  |           450560
 2017-02-06 09:38:52.286933+01 | 1486370332.28693 | pgbench_history  |                0
 2017-02-06 09:38:52.286933+01 | 1486370332.28693 | pgbench_branches |            40960

 2017-02-06 09:38:53.427383+01 | 1486370333.42738 | pgbench_accounts |      13429514240
 2017-02-06 09:38:53.427383+01 | 1486370333.42738 | pgbench_tellers  |           450560
 2017-02-06 09:38:53.427383+01 | 1486370333.42738 | pgbench_history  |                0
 2017-02-06 09:38:53.427383+01 | 1486370333.42738 | pgbench_branches |            40960

 2017-02-06 09:38:54.58657+01 | 1486370334.58657 | pgbench_accounts |      13429514240
 2017-02-06 09:38:54.58657+01 | 1486370334.58657 | pgbench_tellers  |           450560
 2017-02-06 09:38:54.58657+01 | 1486370334.58657 | pgbench_history  |                0
 2017-02-06 09:38:54.58657+01 | 1486370334.58657 | pgbench_branches |            40960

 2017-02-06 09:38:55.719671+01 | 1486370335.71967 | pgbench_accounts |      13429514240
 2017-02-06 09:38:55.719671+01 | 1486370335.71967 | pgbench_tellers  |           450560
 2017-02-06 09:38:55.719671+01 | 1486370335.71967 | pgbench_history  |                0
 2017-02-06 09:38:55.719671+01 | 1486370335.71967 | pgbench_branches |            40960

 2017-02-06 09:38:56.869488+01 | 1486370336.86949 | pgbench_accounts |      13429514240
 2017-02-06 09:38:56.869488+01 | 1486370336.86949 | pgbench_tellers  |           450560
 2017-02-06 09:38:56.869488+01 | 1486370336.86949 | pgbench_history  |                0
 2017-02-06 09:38:56.869488+01 | 1486370336.86949 | pgbench_branches |            40960

 2017-02-06 09:38:58.012566+01 | 1486370338.01257 | pgbench_accounts |      13429514240
 2017-02-06 09:38:58.012566+01 | 1486370338.01257 | pgbench_tellers  |           450560
 2017-02-06 09:38:58.012566+01 | 1486370338.01257 | pgbench_history  |                0
 2017-02-06 09:38:58.012566+01 | 1486370338.01257 | pgbench_branches |            40960

 2017-02-06 09:38:59.157407+01 | 1486370339.15741 | pgbench_accounts |      13429514240
 2017-02-06 09:38:59.157407+01 | 1486370339.15741 | pgbench_tellers  |           450560
 2017-02-06 09:38:59.157407+01 | 1486370339.15741 | pgbench_history  |                0
 2017-02-06 09:38:59.157407+01 | 1486370339.15741 | pgbench_branches |            40960

 2017-02-06 09:39:00.323196+01 | 1486370340.3232 | pgbench_accounts |      13429514240
 2017-02-06 09:39:00.323196+01 | 1486370340.3232 | pgbench_tellers  |           450560
 2017-02-06 09:39:00.323196+01 | 1486370340.3232 | pgbench_history  |                0
 2017-02-06 09:39:00.323196+01 | 1486370340.3232 | pgbench_branches |            40960

 2017-02-06 09:39:01.454643+01 | 1486370341.45464 | pgbench_accounts |      13429514240
 2017-02-06 09:39:01.454643+01 | 1486370341.45464 | pgbench_tellers  |           450560
 2017-02-06 09:39:01.454643+01 | 1486370341.45464 | pgbench_history  |                0
 2017-02-06 09:39:01.454643+01 | 1486370341.45464 | pgbench_branches |            40960

 2017-02-06 09:39:02.585964+01 | 1486370342.58596 | pgbench_accounts |      13429514240
 2017-02-06 09:39:02.585964+01 | 1486370342.58596 | pgbench_tellers  |           450560
 2017-02-06 09:39:02.585964+01 | 1486370342.58596 | pgbench_history  |                0
 2017-02-06 09:39:02.585964+01 | 1486370342.58596 | pgbench_branches |            40960

 2017-02-06 09:39:03.69261+01 | 1486370343.69261 | pgbench_accounts |      13429514240
 2017-02-06 09:39:03.69261+01 | 1486370343.69261 | pgbench_tellers  |           450560
 2017-02-06 09:39:03.69261+01 | 1486370343.69261 | pgbench_history  |                0
 2017-02-06 09:39:03.69261+01 | 1486370343.69261 | pgbench_branches |            40960

 2017-02-06 09:39:04.838792+01 | 1486370344.83879 | pgbench_accounts |      13429514240
 2017-02-06 09:39:04.838792+01 | 1486370344.83879 | pgbench_tellers  |           450560
 2017-02-06 09:39:04.838792+01 | 1486370344.83879 | pgbench_history  |                0
 2017-02-06 09:39:04.838792+01 | 1486370344.83879 | pgbench_branches |            40960

 2017-02-06 09:39:05.954283+01 | 1486370345.95428 | pgbench_accounts |      13429514240
 2017-02-06 09:39:05.954283+01 | 1486370345.95428 | pgbench_tellers  |           450560
 2017-02-06 09:39:05.954283+01 | 1486370345.95428 | pgbench_history  |                0
 2017-02-06 09:39:05.954283+01 | 1486370345.95428 | pgbench_branches |            40960

 2017-02-06 09:39:07.070987+01 | 1486370347.07099 | pgbench_accounts |      13429514240
 2017-02-06 09:39:07.070987+01 | 1486370347.07099 | pgbench_tellers  |           450560
 2017-02-06 09:39:07.070987+01 | 1486370347.07099 | pgbench_history  |                0
 2017-02-06 09:39:07.070987+01 | 1486370347.07099 | pgbench_branches |            40960

 2017-02-06 09:39:08.250978+01 | 1486370348.25098 | pgbench_accounts |      13429514240
 2017-02-06 09:39:08.250978+01 | 1486370348.25098 | pgbench_tellers  |           450560
 2017-02-06 09:39:08.250978+01 | 1486370348.25098 | pgbench_history  |                0
 2017-02-06 09:39:08.250978+01 | 1486370348.25098 | pgbench_branches |            40960

 2017-02-06 09:39:09.410436+01 | 1486370349.41044 | pgbench_accounts |      13429514240
 2017-02-06 09:39:09.410436+01 | 1486370349.41044 | pgbench_tellers  |           450560
 2017-02-06 09:39:09.410436+01 | 1486370349.41044 | pgbench_history  |                0
 2017-02-06 09:39:09.410436+01 | 1486370349.41044 | pgbench_branches |            40960

 2017-02-06 09:39:10.526289+01 | 1486370350.52629 | pgbench_accounts |      13429514240
 2017-02-06 09:39:10.526289+01 | 1486370350.52629 | pgbench_tellers  |           450560
 2017-02-06 09:39:10.526289+01 | 1486370350.52629 | pgbench_history  |                0
 2017-02-06 09:39:10.526289+01 | 1486370350.52629 | pgbench_branches |            40960

 2017-02-06 09:39:11.652963+01 | 1486370351.65296 | pgbench_accounts |      13429514240
 2017-02-06 09:39:11.652963+01 | 1486370351.65296 | pgbench_tellers  |           450560
 2017-02-06 09:39:11.652963+01 | 1486370351.65296 | pgbench_history  |                0
 2017-02-06 09:39:11.652963+01 | 1486370351.65296 | pgbench_branches |            40960

 2017-02-06 09:39:12.793625+01 | 1486370352.79363 | pgbench_accounts |      13429514240
 2017-02-06 09:39:12.793625+01 | 1486370352.79363 | pgbench_tellers  |           450560
 2017-02-06 09:39:12.793625+01 | 1486370352.79363 | pgbench_history  |                0
 2017-02-06 09:39:12.793625+01 | 1486370352.79363 | pgbench_branches |            40960

 2017-02-06 09:39:13.951207+01 | 1486370353.95121 | pgbench_accounts |      13429514240
 2017-02-06 09:39:13.951207+01 | 1486370353.95121 | pgbench_tellers  |           450560
 2017-02-06 09:39:13.951207+01 | 1486370353.95121 | pgbench_history  |                0
 2017-02-06 09:39:13.951207+01 | 1486370353.95121 | pgbench_branches |            40960

 2017-02-06 09:39:15.093611+01 | 1486370355.09361 | pgbench_accounts |      13429514240
 2017-02-06 09:39:15.093611+01 | 1486370355.09361 | pgbench_tellers  |           450560
 2017-02-06 09:39:15.093611+01 | 1486370355.09361 | pgbench_history  |                0
 2017-02-06 09:39:15.093611+01 | 1486370355.09361 | pgbench_branches |            40960

 2017-02-06 09:39:16.238573+01 | 1486370356.23857 | pgbench_accounts |      13429514240
 2017-02-06 09:39:16.238573+01 | 1486370356.23857 | pgbench_tellers  |           450560
 2017-02-06 09:39:16.238573+01 | 1486370356.23857 | pgbench_history  |                0
 2017-02-06 09:39:16.238573+01 | 1486370356.23857 | pgbench_branches |            40960

 2017-02-06 09:39:17.397958+01 | 1486370357.39796 | pgbench_accounts |      13429514240
 2017-02-06 09:39:17.397958+01 | 1486370357.39796 | pgbench_tellers  |           450560
 2017-02-06 09:39:17.397958+01 | 1486370357.39796 | pgbench_history  |                0
 2017-02-06 09:39:17.397958+01 | 1486370357.39796 | pgbench_branches |            40960

 2017-02-06 09:39:18.551041+01 | 1486370358.55104 | pgbench_accounts |      13429514240
 2017-02-06 09:39:18.551041+01 | 1486370358.55104 | pgbench_tellers  |           450560
 2017-02-06 09:39:18.551041+01 | 1486370358.55104 | pgbench_history  |                0
 2017-02-06 09:39:18.551041+01 | 1486370358.55104 | pgbench_branches |            40960

 2017-02-06 09:39:19.702765+01 | 1486370359.70276 | pgbench_accounts |      13429514240
 2017-02-06 09:39:19.702765+01 | 1486370359.70276 | pgbench_tellers  |           450560
 2017-02-06 09:39:19.702765+01 | 1486370359.70276 | pgbench_history  |                0
 2017-02-06 09:39:19.702765+01 | 1486370359.70276 | pgbench_branches |            40960

 2017-02-06 09:39:20.823812+01 | 1486370360.82381 | pgbench_accounts |      13429514240
 2017-02-06 09:39:20.823812+01 | 1486370360.82381 | pgbench_tellers  |           450560
 2017-02-06 09:39:20.823812+01 | 1486370360.82381 | pgbench_history  |                0
 2017-02-06 09:39:20.823812+01 | 1486370360.82381 | pgbench_branches |            40960

 2017-02-06 09:39:21.967602+01 | 1486370361.9676 | pgbench_accounts |      13429514240
 2017-02-06 09:39:21.967602+01 | 1486370361.9676 | pgbench_tellers  |           450560
 2017-02-06 09:39:21.967602+01 | 1486370361.9676 | pgbench_history  |                0
 2017-02-06 09:39:21.967602+01 | 1486370361.9676 | pgbench_branches |            40960

 2017-02-06 09:39:23.112344+01 | 1486370363.11234 | pgbench_accounts |      13429514240
 2017-02-06 09:39:23.112344+01 | 1486370363.11234 | pgbench_tellers  |           450560
 2017-02-06 09:39:23.112344+01 | 1486370363.11234 | pgbench_history  |                0
 2017-02-06 09:39:23.112344+01 | 1486370363.11234 | pgbench_branches |            40960

 2017-02-06 09:39:24.294539+01 | 1486370364.29454 | pgbench_accounts |      13429514240
 2017-02-06 09:39:24.294539+01 | 1486370364.29454 | pgbench_tellers  |           450560
 2017-02-06 09:39:24.294539+01 | 1486370364.29454 | pgbench_history  |                0
 2017-02-06 09:39:24.294539+01 | 1486370364.29454 | pgbench_branches |            40960

 2017-02-06 09:39:25.442266+01 | 1486370365.44227 | pgbench_accounts |      13429514240
 2017-02-06 09:39:25.442266+01 | 1486370365.44227 | pgbench_tellers  |           450560
 2017-02-06 09:39:25.442266+01 | 1486370365.44227 | pgbench_history  |                0
 2017-02-06 09:39:25.442266+01 | 1486370365.44227 | pgbench_branches |            40960

 2017-02-06 09:39:26.605874+01 | 1486370366.60587 | pgbench_accounts |      13429514240
 2017-02-06 09:39:26.605874+01 | 1486370366.60587 | pgbench_tellers  |           450560
 2017-02-06 09:39:26.605874+01 | 1486370366.60587 | pgbench_history  |                0
 2017-02-06 09:39:26.605874+01 | 1486370366.60587 | pgbench_branches |            40960

 2017-02-06 09:39:27.761819+01 | 1486370367.76182 | pgbench_accounts |      13429514240
 2017-02-06 09:39:27.761819+01 | 1486370367.76182 | pgbench_tellers  |           450560
 2017-02-06 09:39:27.761819+01 | 1486370367.76182 | pgbench_history  |                0
 2017-02-06 09:39:27.761819+01 | 1486370367.76182 | pgbench_branches |            40960

 2017-02-06 09:39:28.903501+01 | 1486370368.9035 | pgbench_accounts |      13429514240
 2017-02-06 09:39:28.903501+01 | 1486370368.9035 | pgbench_tellers  |           450560
 2017-02-06 09:39:28.903501+01 | 1486370368.9035 | pgbench_history  |                0
 2017-02-06 09:39:28.903501+01 | 1486370368.9035 | pgbench_branches |            40960

 2017-02-06 09:39:30.030227+01 | 1486370370.03023 | pgbench_accounts |      13429514240
 2017-02-06 09:39:30.030227+01 | 1486370370.03023 | pgbench_tellers  |           450560
 2017-02-06 09:39:30.030227+01 | 1486370370.03023 | pgbench_history  |                0
 2017-02-06 09:39:30.030227+01 | 1486370370.03023 | pgbench_branches |            40960

 2017-02-06 09:39:31.183158+01 | 1486370371.18316 | pgbench_accounts |      13429514240
 2017-02-06 09:39:31.183158+01 | 1486370371.18316 | pgbench_tellers  |           450560
 2017-02-06 09:39:31.183158+01 | 1486370371.18316 | pgbench_history  |                0
 2017-02-06 09:39:31.183158+01 | 1486370371.18316 | pgbench_branches |            40960

 2017-02-06 09:39:32.344357+01 | 1486370372.34436 | pgbench_accounts |      13429514240
 2017-02-06 09:39:32.344357+01 | 1486370372.34436 | pgbench_tellers  |           450560
 2017-02-06 09:39:32.344357+01 | 1486370372.34436 | pgbench_history  |                0
 2017-02-06 09:39:32.344357+01 | 1486370372.34436 | pgbench_branches |            40960

 2017-02-06 09:39:33.511462+01 | 1486370373.51146 | pgbench_accounts |      13429514240
 2017-02-06 09:39:33.511462+01 | 1486370373.51146 | pgbench_tellers  |           450560
 2017-02-06 09:39:33.511462+01 | 1486370373.51146 | pgbench_history  |                0
 2017-02-06 09:39:33.511462+01 | 1486370373.51146 | pgbench_branches |            40960

 2017-02-06 09:39:34.695781+01 | 1486370374.69578 | pgbench_accounts |      13429514240
 2017-02-06 09:39:34.695781+01 | 1486370374.69578 | pgbench_tellers  |           450560
 2017-02-06 09:39:34.695781+01 | 1486370374.69578 | pgbench_history  |                0
 2017-02-06 09:39:34.695781+01 | 1486370374.69578 | pgbench_branches |            40960

 2017-02-06 09:39:35.823548+01 | 1486370375.82355 | pgbench_accounts |      13429514240
 2017-02-06 09:39:35.823548+01 | 1486370375.82355 | pgbench_tellers  |           450560
 2017-02-06 09:39:35.823548+01 | 1486370375.82355 | pgbench_history  |                0
 2017-02-06 09:39:35.823548+01 | 1486370375.82355 | pgbench_branches |            40960

 2017-02-06 09:39:36.97172+01 | 1486370376.97172 | pgbench_accounts |      13429514240
 2017-02-06 09:39:36.97172+01 | 1486370376.97172 | pgbench_tellers  |           450560
 2017-02-06 09:39:36.97172+01 | 1486370376.97172 | pgbench_history  |                0
 2017-02-06 09:39:36.97172+01 | 1486370376.97172 | pgbench_branches |            40960

 2017-02-06 09:39:38.118709+01 | 1486370378.11871 | pgbench_accounts |      13429514240
 2017-02-06 09:39:38.118709+01 | 1486370378.11871 | pgbench_tellers  |           450560
 2017-02-06 09:39:38.118709+01 | 1486370378.11871 | pgbench_history  |                0
 2017-02-06 09:39:38.118709+01 | 1486370378.11871 | pgbench_branches |            40960

 2017-02-06 09:39:39.276223+01 | 1486370379.27622 | pgbench_accounts |      13429514240
 2017-02-06 09:39:39.276223+01 | 1486370379.27622 | pgbench_tellers  |           450560
 2017-02-06 09:39:39.276223+01 | 1486370379.27622 | pgbench_history  |                0
 2017-02-06 09:39:39.276223+01 | 1486370379.27622 | pgbench_branches |            40960

 2017-02-06 09:39:40.409033+01 | 1486370380.40903 | pgbench_accounts |      13429514240
 2017-02-06 09:39:40.409033+01 | 1486370380.40903 | pgbench_tellers  |           450560
 2017-02-06 09:39:40.409033+01 | 1486370380.40903 | pgbench_history  |                0
 2017-02-06 09:39:40.409033+01 | 1486370380.40903 | pgbench_branches |            40960

 2017-02-06 09:39:41.572728+01 | 1486370381.57273 | pgbench_accounts |      13429514240
 2017-02-06 09:39:41.572728+01 | 1486370381.57273 | pgbench_tellers  |           450560
 2017-02-06 09:39:41.572728+01 | 1486370381.57273 | pgbench_history  |                0
 2017-02-06 09:39:41.572728+01 | 1486370381.57273 | pgbench_branches |            40960

 2017-02-06 09:39:42.759111+01 | 1486370382.75911 | pgbench_accounts |      13429514240
 2017-02-06 09:39:42.759111+01 | 1486370382.75911 | pgbench_tellers  |           450560
 2017-02-06 09:39:42.759111+01 | 1486370382.75911 | pgbench_history  |                0
 2017-02-06 09:39:42.759111+01 | 1486370382.75911 | pgbench_branches |            40960

 2017-02-06 09:39:43.899441+01 | 1486370383.89944 | pgbench_accounts |      13429514240
 2017-02-06 09:39:43.899441+01 | 1486370383.89944 | pgbench_tellers  |           450560
 2017-02-06 09:39:43.899441+01 | 1486370383.89944 | pgbench_history  |                0
 2017-02-06 09:39:43.899441+01 | 1486370383.89944 | pgbench_branches |            40960

 2017-02-06 09:39:45.041446+01 | 1486370385.04145 | pgbench_accounts |      13429514240
 2017-02-06 09:39:45.041446+01 | 1486370385.04145 | pgbench_tellers  |           450560
 2017-02-06 09:39:45.041446+01 | 1486370385.04145 | pgbench_history  |                0
 2017-02-06 09:39:45.041446+01 | 1486370385.04145 | pgbench_branches |            40960

 2017-02-06 09:39:46.225108+01 | 1486370386.22511 | pgbench_accounts |      13429514240
 2017-02-06 09:39:46.225108+01 | 1486370386.22511 | pgbench_tellers  |           450560
 2017-02-06 09:39:46.225108+01 | 1486370386.22511 | pgbench_history  |                0
 2017-02-06 09:39:46.225108+01 | 1486370386.22511 | pgbench_branches |            40960

 2017-02-06 09:39:47.3584+01 | 1486370387.3584 | pgbench_accounts |      13429514240
 2017-02-06 09:39:47.3584+01 | 1486370387.3584 | pgbench_tellers  |           450560
 2017-02-06 09:39:47.3584+01 | 1486370387.3584 | pgbench_history  |                0
 2017-02-06 09:39:47.3584+01 | 1486370387.3584 | pgbench_branches |            40960

 2017-02-06 09:39:48.490303+01 | 1486370388.4903 | pgbench_accounts |      13429514240
 2017-02-06 09:39:48.490303+01 | 1486370388.4903 | pgbench_tellers  |           450560
 2017-02-06 09:39:48.490303+01 | 1486370388.4903 | pgbench_history  |                0
 2017-02-06 09:39:48.490303+01 | 1486370388.4903 | pgbench_branches |            40960

 2017-02-06 09:39:49.673216+01 | 1486370389.67322 | pgbench_accounts |      13429514240
 2017-02-06 09:39:49.673216+01 | 1486370389.67322 | pgbench_tellers  |           450560
 2017-02-06 09:39:49.673216+01 | 1486370389.67322 | pgbench_history  |                0
 2017-02-06 09:39:49.673216+01 | 1486370389.67322 | pgbench_branches |            40960

 2017-02-06 09:39:50.808395+01 | 1486370390.80839 | pgbench_accounts |      13429514240
 2017-02-06 09:39:50.808395+01 | 1486370390.80839 | pgbench_tellers  |           450560
 2017-02-06 09:39:50.808395+01 | 1486370390.80839 | pgbench_history  |                0
 2017-02-06 09:39:50.808395+01 | 1486370390.80839 | pgbench_branches |            40960

 2017-02-06 09:39:51.971887+01 | 1486370391.97189 | pgbench_accounts |      13429514240
 2017-02-06 09:39:51.971887+01 | 1486370391.97189 | pgbench_tellers  |           450560
 2017-02-06 09:39:51.971887+01 | 1486370391.97189 | pgbench_history  |                0
 2017-02-06 09:39:51.971887+01 | 1486370391.97189 | pgbench_branches |            40960

 2017-02-06 09:39:53.124019+01 | 1486370393.12402 | pgbench_accounts |      13429514240
 2017-02-06 09:39:53.124019+01 | 1486370393.12402 | pgbench_tellers  |           450560
 2017-02-06 09:39:53.124019+01 | 1486370393.12402 | pgbench_history  |                0
 2017-02-06 09:39:53.124019+01 | 1486370393.12402 | pgbench_branches |            40960

 2017-02-06 09:39:54.280115+01 | 1486370394.28011 | pgbench_accounts |      13429514240
 2017-02-06 09:39:54.280115+01 | 1486370394.28011 | pgbench_tellers  |           450560
 2017-02-06 09:39:54.280115+01 | 1486370394.28011 | pgbench_history  |                0
 2017-02-06 09:39:54.280115+01 | 1486370394.28011 | pgbench_branches |            40960

 2017-02-06 09:39:55.402202+01 | 1486370395.4022 | pgbench_accounts |      13429514240
 2017-02-06 09:39:55.402202+01 | 1486370395.4022 | pgbench_tellers  |           450560
 2017-02-06 09:39:55.402202+01 | 1486370395.4022 | pgbench_history  |                0
 2017-02-06 09:39:55.402202+01 | 1486370395.4022 | pgbench_branches |            40960

 2017-02-06 09:39:56.571372+01 | 1486370396.57137 | pgbench_accounts |      13429514240
 2017-02-06 09:39:56.571372+01 | 1486370396.57137 | pgbench_tellers  |           450560
 2017-02-06 09:39:56.571372+01 | 1486370396.57137 | pgbench_history  |                0
 2017-02-06 09:39:56.571372+01 | 1486370396.57137 | pgbench_branches |            40960

 2017-02-06 09:39:57.701687+01 | 1486370397.70169 | pgbench_accounts |      13429514240
 2017-02-06 09:39:57.701687+01 | 1486370397.70169 | pgbench_tellers  |           450560
 2017-02-06 09:39:57.701687+01 | 1486370397.70169 | pgbench_history  |                0
 2017-02-06 09:39:57.701687+01 | 1486370397.70169 | pgbench_branches |            40960

 2017-02-06 09:39:58.853307+01 | 1486370398.85331 | pgbench_accounts |      13429514240
 2017-02-06 09:39:58.853307+01 | 1486370398.85331 | pgbench_tellers  |           450560
 2017-02-06 09:39:58.853307+01 | 1486370398.85331 | pgbench_history  |                0
 2017-02-06 09:39:58.853307+01 | 1486370398.85331 | pgbench_branches |            40960

 2017-02-06 09:40:00.005121+01 | 1486370400.00512 | pgbench_accounts |      13429514240
 2017-02-06 09:40:00.005121+01 | 1486370400.00512 | pgbench_tellers  |           450560
 2017-02-06 09:40:00.005121+01 | 1486370400.00512 | pgbench_history  |                0
 2017-02-06 09:40:00.005121+01 | 1486370400.00512 | pgbench_branches |            40960

 2017-02-06 09:40:01.151855+01 | 1486370401.15185 | pgbench_accounts |      13429514240
 2017-02-06 09:40:01.151855+01 | 1486370401.15185 | pgbench_tellers  |           450560
 2017-02-06 09:40:01.151855+01 | 1486370401.15185 | pgbench_history  |                0
 2017-02-06 09:40:01.151855+01 | 1486370401.15185 | pgbench_branches |            40960

 2017-02-06 09:40:02.304912+01 | 1486370402.30491 | pgbench_accounts |      13429514240
 2017-02-06 09:40:02.304912+01 | 1486370402.30491 | pgbench_tellers  |           450560
 2017-02-06 09:40:02.304912+01 | 1486370402.30491 | pgbench_history  |                0
 2017-02-06 09:40:02.304912+01 | 1486370402.30491 | pgbench_branches |            40960

 2017-02-06 09:40:03.419672+01 | 1486370403.41967 | pgbench_accounts |      13429514240
 2017-02-06 09:40:03.419672+01 | 1486370403.41967 | pgbench_tellers  |           450560
 2017-02-06 09:40:03.419672+01 | 1486370403.41967 | pgbench_history  |                0
 2017-02-06 09:40:03.419672+01 | 1486370403.41967 | pgbench_branches |            40960

 2017-02-06 09:40:04.56476+01 | 1486370404.56476 | pgbench_accounts |      13429514240
 2017-02-06 09:40:04.56476+01 | 1486370404.56476 | pgbench_tellers  |           450560
 2017-02-06 09:40:04.56476+01 | 1486370404.56476 | pgbench_history  |                0
 2017-02-06 09:40:04.56476+01 | 1486370404.56476 | pgbench_branches |            40960

 2017-02-06 09:40:05.709515+01 | 1486370405.70952 | pgbench_accounts |      13429514240
 2017-02-06 09:40:05.709515+01 | 1486370405.70952 | pgbench_tellers  |           450560
 2017-02-06 09:40:05.709515+01 | 1486370405.70952 | pgbench_history  |                0
 2017-02-06 09:40:05.709515+01 | 1486370405.70952 | pgbench_branches |            40960

 2017-02-06 09:40:06.834971+01 | 1486370406.83497 | pgbench_accounts |      13429514240
 2017-02-06 09:40:06.834971+01 | 1486370406.83497 | pgbench_tellers  |           450560
 2017-02-06 09:40:06.834971+01 | 1486370406.83497 | pgbench_history  |                0
 2017-02-06 09:40:06.834971+01 | 1486370406.83497 | pgbench_branches |            40960

 2017-02-06 09:40:08.014934+01 | 1486370408.01493 | pgbench_accounts |      13429514240
 2017-02-06 09:40:08.014934+01 | 1486370408.01493 | pgbench_tellers  |           450560
 2017-02-06 09:40:08.014934+01 | 1486370408.01493 | pgbench_history  |                0
 2017-02-06 09:40:08.014934+01 | 1486370408.01493 | pgbench_branches |            40960

 2017-02-06 09:40:09.149166+01 | 1486370409.14917 | pgbench_accounts |      13429514240
 2017-02-06 09:40:09.149166+01 | 1486370409.14917 | pgbench_tellers  |           450560
 2017-02-06 09:40:09.149166+01 | 1486370409.14917 | pgbench_history  |                0
 2017-02-06 09:40:09.149166+01 | 1486370409.14917 | pgbench_branches |            40960

 2017-02-06 09:40:10.323417+01 | 1486370410.32342 | pgbench_accounts |      13429514240
 2017-02-06 09:40:10.323417+01 | 1486370410.32342 | pgbench_tellers  |           450560
 2017-02-06 09:40:10.323417+01 | 1486370410.32342 | pgbench_history  |                0
 2017-02-06 09:40:10.323417+01 | 1486370410.32342 | pgbench_branches |            40960

 2017-02-06 09:40:11.461999+01 | 1486370411.462 | pgbench_accounts |      13429514240
 2017-02-06 09:40:11.461999+01 | 1486370411.462 | pgbench_tellers  |           450560
 2017-02-06 09:40:11.461999+01 | 1486370411.462 | pgbench_history  |                0
 2017-02-06 09:40:11.461999+01 | 1486370411.462 | pgbench_branches |            40960

 2017-02-06 09:40:12.621547+01 | 1486370412.62155 | pgbench_accounts |      13429514240
 2017-02-06 09:40:12.621547+01 | 1486370412.62155 | pgbench_tellers  |           450560
 2017-02-06 09:40:12.621547+01 | 1486370412.62155 | pgbench_history  |                0
 2017-02-06 09:40:12.621547+01 | 1486370412.62155 | pgbench_branches |            40960

 2017-02-06 09:40:13.747827+01 | 1486370413.74783 | pgbench_accounts |      13429514240
 2017-02-06 09:40:13.747827+01 | 1486370413.74783 | pgbench_tellers  |           450560
 2017-02-06 09:40:13.747827+01 | 1486370413.74783 | pgbench_history  |                0
 2017-02-06 09:40:13.747827+01 | 1486370413.74783 | pgbench_branches |            40960

 2017-02-06 09:40:14.893385+01 | 1486370414.89338 | pgbench_accounts |      13429514240
 2017-02-06 09:40:14.893385+01 | 1486370414.89338 | pgbench_tellers  |           450560
 2017-02-06 09:40:14.893385+01 | 1486370414.89338 | pgbench_history  |                0
 2017-02-06 09:40:14.893385+01 | 1486370414.89338 | pgbench_branches |            40960

 2017-02-06 09:40:16.038919+01 | 1486370416.03892 | pgbench_accounts |      13429514240
 2017-02-06 09:40:16.038919+01 | 1486370416.03892 | pgbench_tellers  |           450560
 2017-02-06 09:40:16.038919+01 | 1486370416.03892 | pgbench_history  |                0
 2017-02-06 09:40:16.038919+01 | 1486370416.03892 | pgbench_branches |            40960

 2017-02-06 09:40:17.190725+01 | 1486370417.19073 | pgbench_accounts |      13429514240
 2017-02-06 09:40:17.190725+01 | 1486370417.19073 | pgbench_tellers  |           450560
 2017-02-06 09:40:17.190725+01 | 1486370417.19073 | pgbench_history  |                0
 2017-02-06 09:40:17.190725+01 | 1486370417.19073 | pgbench_branches |            40960

 2017-02-06 09:40:18.379266+01 | 1486370418.37927 | pgbench_accounts |      13429514240
 2017-02-06 09:40:18.379266+01 | 1486370418.37927 | pgbench_tellers  |           450560
 2017-02-06 09:40:18.379266+01 | 1486370418.37927 | pgbench_history  |                0
 2017-02-06 09:40:18.379266+01 | 1486370418.37927 | pgbench_branches |            40960

 2017-02-06 09:40:19.581032+01 | 1486370419.58103 | pgbench_accounts |      13429514240
 2017-02-06 09:40:19.581032+01 | 1486370419.58103 | pgbench_tellers  |           450560
 2017-02-06 09:40:19.581032+01 | 1486370419.58103 | pgbench_history  |                0
 2017-02-06 09:40:19.581032+01 | 1486370419.58103 | pgbench_branches |            40960

 2017-02-06 09:40:20.73921+01 | 1486370420.73921 | pgbench_accounts |      13429514240
 2017-02-06 09:40:20.73921+01 | 1486370420.73921 | pgbench_tellers  |           450560
 2017-02-06 09:40:20.73921+01 | 1486370420.73921 | pgbench_history  |                0
 2017-02-06 09:40:20.73921+01 | 1486370420.73921 | pgbench_branches |            40960

 2017-02-06 09:40:21.871388+01 | 1486370421.87139 | pgbench_accounts |      13429514240
 2017-02-06 09:40:21.871388+01 | 1486370421.87139 | pgbench_tellers  |           450560
 2017-02-06 09:40:21.871388+01 | 1486370421.87139 | pgbench_history  |                0
 2017-02-06 09:40:21.871388+01 | 1486370421.87139 | pgbench_branches |            40960

 2017-02-06 09:40:23.022112+01 | 1486370423.02211 | pgbench_accounts |      13429514240
 2017-02-06 09:40:23.022112+01 | 1486370423.02211 | pgbench_tellers  |           450560
 2017-02-06 09:40:23.022112+01 | 1486370423.02211 | pgbench_history  |                0
 2017-02-06 09:40:23.022112+01 | 1486370423.02211 | pgbench_branches |            40960

 2017-02-06 09:40:24.156723+01 | 1486370424.15672 | pgbench_accounts |      13429514240
 2017-02-06 09:40:24.156723+01 | 1486370424.15672 | pgbench_tellers  |           450560
 2017-02-06 09:40:24.156723+01 | 1486370424.15672 | pgbench_history  |                0
 2017-02-06 09:40:24.156723+01 | 1486370424.15672 | pgbench_branches |            40960

 2017-02-06 09:40:25.280212+01 | 1486370425.28021 | pgbench_accounts |      13429514240
 2017-02-06 09:40:25.280212+01 | 1486370425.28021 | pgbench_tellers  |           450560
 2017-02-06 09:40:25.280212+01 | 1486370425.28021 | pgbench_history  |                0
 2017-02-06 09:40:25.280212+01 | 1486370425.28021 | pgbench_branches |            40960

 2017-02-06 09:40:26.441935+01 | 1486370426.44194 | pgbench_accounts |      13429514240
 2017-02-06 09:40:26.441935+01 | 1486370426.44194 | pgbench_tellers  |           450560
 2017-02-06 09:40:26.441935+01 | 1486370426.44194 | pgbench_history  |                0
 2017-02-06 09:40:26.441935+01 | 1486370426.44194 | pgbench_branches |            40960

 2017-02-06 09:40:27.615685+01 | 1486370427.61568 | pgbench_accounts |      13429514240
 2017-02-06 09:40:27.615685+01 | 1486370427.61568 | pgbench_tellers  |           450560
 2017-02-06 09:40:27.615685+01 | 1486370427.61568 | pgbench_history  |                0
 2017-02-06 09:40:27.615685+01 | 1486370427.61568 | pgbench_branches |            40960

 2017-02-06 09:40:28.758949+01 | 1486370428.75895 | pgbench_accounts |      13429514240
 2017-02-06 09:40:28.758949+01 | 1486370428.75895 | pgbench_tellers  |           450560
 2017-02-06 09:40:28.758949+01 | 1486370428.75895 | pgbench_history  |                0
 2017-02-06 09:40:28.758949+01 | 1486370428.75895 | pgbench_branches |            40960

 2017-02-06 09:40:29.893022+01 | 1486370429.89302 | pgbench_accounts |      13429514240
 2017-02-06 09:40:29.893022+01 | 1486370429.89302 | pgbench_tellers  |           450560
 2017-02-06 09:40:29.893022+01 | 1486370429.89302 | pgbench_history  |                0
 2017-02-06 09:40:29.893022+01 | 1486370429.89302 | pgbench_branches |            40960

 2017-02-06 09:40:31.043963+01 | 1486370431.04396 | pgbench_accounts |      13429514240
 2017-02-06 09:40:31.043963+01 | 1486370431.04396 | pgbench_tellers  |           450560
 2017-02-06 09:40:31.043963+01 | 1486370431.04396 | pgbench_history  |                0
 2017-02-06 09:40:31.043963+01 | 1486370431.04396 | pgbench_branches |            40960

 2017-02-06 09:40:32.202437+01 | 1486370432.20244 | pgbench_accounts |      13429514240
 2017-02-06 09:40:32.202437+01 | 1486370432.20244 | pgbench_tellers  |           450560
 2017-02-06 09:40:32.202437+01 | 1486370432.20244 | pgbench_history  |                0
 2017-02-06 09:40:32.202437+01 | 1486370432.20244 | pgbench_branches |            40960

 2017-02-06 09:40:33.369599+01 | 1486370433.3696 | pgbench_accounts |      13429514240
 2017-02-06 09:40:33.369599+01 | 1486370433.3696 | pgbench_tellers  |           450560
 2017-02-06 09:40:33.369599+01 | 1486370433.3696 | pgbench_history  |                0
 2017-02-06 09:40:33.369599+01 | 1486370433.3696 | pgbench_branches |            40960

 2017-02-06 09:40:34.508558+01 | 1486370434.50856 | pgbench_accounts |      13429514240
 2017-02-06 09:40:34.508558+01 | 1486370434.50856 | pgbench_tellers  |           450560
 2017-02-06 09:40:34.508558+01 | 1486370434.50856 | pgbench_history  |                0
 2017-02-06 09:40:34.508558+01 | 1486370434.50856 | pgbench_branches |            40960

 2017-02-06 09:40:35.643537+01 | 1486370435.64354 | pgbench_accounts |      13429514240
 2017-02-06 09:40:35.643537+01 | 1486370435.64354 | pgbench_tellers  |           450560
 2017-02-06 09:40:35.643537+01 | 1486370435.64354 | pgbench_history  |                0
 2017-02-06 09:40:35.643537+01 | 1486370435.64354 | pgbench_branches |            40960

 2017-02-06 09:40:36.759442+01 | 1486370436.75944 | pgbench_accounts |      13429514240
 2017-02-06 09:40:36.759442+01 | 1486370436.75944 | pgbench_tellers  |           450560
 2017-02-06 09:40:36.759442+01 | 1486370436.75944 | pgbench_history  |                0
 2017-02-06 09:40:36.759442+01 | 1486370436.75944 | pgbench_branches |            40960

 2017-02-06 09:40:37.931438+01 | 1486370437.93144 | pgbench_accounts |      13429514240
 2017-02-06 09:40:37.931438+01 | 1486370437.93144 | pgbench_tellers  |           450560
 2017-02-06 09:40:37.931438+01 | 1486370437.93144 | pgbench_history  |                0
 2017-02-06 09:40:37.931438+01 | 1486370437.93144 | pgbench_branches |            40960

 2017-02-06 09:40:39.097009+01 | 1486370439.09701 | pgbench_accounts |      13429514240
 2017-02-06 09:40:39.097009+01 | 1486370439.09701 | pgbench_tellers  |           450560
 2017-02-06 09:40:39.097009+01 | 1486370439.09701 | pgbench_history  |                0
 2017-02-06 09:40:39.097009+01 | 1486370439.09701 | pgbench_branches |            40960

 2017-02-06 09:40:40.246636+01 | 1486370440.24664 | pgbench_accounts |      13429514240
 2017-02-06 09:40:40.246636+01 | 1486370440.24664 | pgbench_tellers  |           450560
 2017-02-06 09:40:40.246636+01 | 1486370440.24664 | pgbench_history  |                0
 2017-02-06 09:40:40.246636+01 | 1486370440.24664 | pgbench_branches |            40960

 2017-02-06 09:40:41.397521+01 | 1486370441.39752 | pgbench_accounts |      13429514240
 2017-02-06 09:40:41.397521+01 | 1486370441.39752 | pgbench_tellers  |           450560
 2017-02-06 09:40:41.397521+01 | 1486370441.39752 | pgbench_history  |                0
 2017-02-06 09:40:41.397521+01 | 1486370441.39752 | pgbench_branches |            40960

 2017-02-06 09:40:42.530061+01 | 1486370442.53006 | pgbench_accounts |      13429514240
 2017-02-06 09:40:42.530061+01 | 1486370442.53006 | pgbench_tellers  |           450560
 2017-02-06 09:40:42.530061+01 | 1486370442.53006 | pgbench_history  |                0
 2017-02-06 09:40:42.530061+01 | 1486370442.53006 | pgbench_branches |            40960

 2017-02-06 09:40:43.701274+01 | 1486370443.70127 | pgbench_accounts |      13429514240
 2017-02-06 09:40:43.701274+01 | 1486370443.70127 | pgbench_tellers  |           450560
 2017-02-06 09:40:43.701274+01 | 1486370443.70127 | pgbench_history  |                0
 2017-02-06 09:40:43.701274+01 | 1486370443.70127 | pgbench_branches |            40960

 2017-02-06 09:40:44.863709+01 | 1486370444.86371 | pgbench_accounts |      13429514240
 2017-02-06 09:40:44.863709+01 | 1486370444.86371 | pgbench_tellers  |           450560
 2017-02-06 09:40:44.863709+01 | 1486370444.86371 | pgbench_history  |                0
 2017-02-06 09:40:44.863709+01 | 1486370444.86371 | pgbench_branches |            40960

 2017-02-06 09:40:46.005813+01 | 1486370446.00581 | pgbench_accounts |      13429514240
 2017-02-06 09:40:46.005813+01 | 1486370446.00581 | pgbench_tellers  |           450560
 2017-02-06 09:40:46.005813+01 | 1486370446.00581 | pgbench_history  |                0
 2017-02-06 09:40:46.005813+01 | 1486370446.00581 | pgbench_branches |            40960

 2017-02-06 09:40:47.141679+01 | 1486370447.14168 | pgbench_accounts |      13429514240
 2017-02-06 09:40:47.141679+01 | 1486370447.14168 | pgbench_tellers  |           450560
 2017-02-06 09:40:47.141679+01 | 1486370447.14168 | pgbench_history  |                0
 2017-02-06 09:40:47.141679+01 | 1486370447.14168 | pgbench_branches |            40960

 2017-02-06 09:40:48.285513+01 | 1486370448.28551 | pgbench_accounts |      13429514240
 2017-02-06 09:40:48.285513+01 | 1486370448.28551 | pgbench_tellers  |           450560
 2017-02-06 09:40:48.285513+01 | 1486370448.28551 | pgbench_history  |                0
 2017-02-06 09:40:48.285513+01 | 1486370448.28551 | pgbench_branches |            40960

 2017-02-06 09:40:49.453128+01 | 1486370449.45313 | pgbench_accounts |      13429514240
 2017-02-06 09:40:49.453128+01 | 1486370449.45313 | pgbench_tellers  |           450560
 2017-02-06 09:40:49.453128+01 | 1486370449.45313 | pgbench_history  |                0
 2017-02-06 09:40:49.453128+01 | 1486370449.45313 | pgbench_branches |            40960

 2017-02-06 09:40:50.627987+01 | 1486370450.62799 | pgbench_accounts |      13429514240
 2017-02-06 09:40:50.627987+01 | 1486370450.62799 | pgbench_tellers  |           450560
 2017-02-06 09:40:50.627987+01 | 1486370450.62799 | pgbench_history  |                0
 2017-02-06 09:40:50.627987+01 | 1486370450.62799 | pgbench_branches |            40960

 2017-02-06 09:40:51.764615+01 | 1486370451.76462 | pgbench_accounts |      13429514240
 2017-02-06 09:40:51.764615+01 | 1486370451.76462 | pgbench_tellers  |           450560
 2017-02-06 09:40:51.764615+01 | 1486370451.76462 | pgbench_history  |                0
 2017-02-06 09:40:51.764615+01 | 1486370451.76462 | pgbench_branches |            40960

 2017-02-06 09:40:52.909831+01 | 1486370452.90983 | pgbench_accounts |      13429514240
 2017-02-06 09:40:52.909831+01 | 1486370452.90983 | pgbench_tellers  |           450560
 2017-02-06 09:40:52.909831+01 | 1486370452.90983 | pgbench_history  |                0
 2017-02-06 09:40:52.909831+01 | 1486370452.90983 | pgbench_branches |            40960

 2017-02-06 09:40:54.048739+01 | 1486370454.04874 | pgbench_accounts |      13429514240
 2017-02-06 09:40:54.048739+01 | 1486370454.04874 | pgbench_tellers  |           450560
 2017-02-06 09:40:54.048739+01 | 1486370454.04874 | pgbench_history  |                0
 2017-02-06 09:40:54.048739+01 | 1486370454.04874 | pgbench_branches |            40960

 2017-02-06 09:40:55.189827+01 | 1486370455.18983 | pgbench_accounts |      13429514240
 2017-02-06 09:40:55.189827+01 | 1486370455.18983 | pgbench_tellers  |           450560
 2017-02-06 09:40:55.189827+01 | 1486370455.18983 | pgbench_history  |                0
 2017-02-06 09:40:55.189827+01 | 1486370455.18983 | pgbench_branches |            40960

 2017-02-06 09:40:56.31918+01 | 1486370456.31918 | pgbench_accounts |      13429514240
 2017-02-06 09:40:56.31918+01 | 1486370456.31918 | pgbench_tellers  |           450560
 2017-02-06 09:40:56.31918+01 | 1486370456.31918 | pgbench_history  |                0
 2017-02-06 09:40:56.31918+01 | 1486370456.31918 | pgbench_branches |            40960

 2017-02-06 09:40:57.473926+01 | 1486370457.47393 | pgbench_accounts |      13429514240
 2017-02-06 09:40:57.473926+01 | 1486370457.47393 | pgbench_tellers  |           450560
 2017-02-06 09:40:57.473926+01 | 1486370457.47393 | pgbench_history  |                0
 2017-02-06 09:40:57.473926+01 | 1486370457.47393 | pgbench_branches |            40960

 2017-02-06 09:40:58.617713+01 | 1486370458.61771 | pgbench_accounts |      13429514240
 2017-02-06 09:40:58.617713+01 | 1486370458.61771 | pgbench_tellers  |           450560
 2017-02-06 09:40:58.617713+01 | 1486370458.61771 | pgbench_history  |                0
 2017-02-06 09:40:58.617713+01 | 1486370458.61771 | pgbench_branches |            40960

 2017-02-06 09:40:59.760703+01 | 1486370459.7607 | pgbench_accounts |      13429514240
 2017-02-06 09:40:59.760703+01 | 1486370459.7607 | pgbench_tellers  |           450560
 2017-02-06 09:40:59.760703+01 | 1486370459.7607 | pgbench_history  |                0
 2017-02-06 09:40:59.760703+01 | 1486370459.7607 | pgbench_branches |            40960

 2017-02-06 09:41:00.890748+01 | 1486370460.89075 | pgbench_accounts |      13429514240
 2017-02-06 09:41:00.890748+01 | 1486370460.89075 | pgbench_tellers  |           450560
 2017-02-06 09:41:00.890748+01 | 1486370460.89075 | pgbench_history  |                0
 2017-02-06 09:41:00.890748+01 | 1486370460.89075 | pgbench_branches |            40960

 2017-02-06 09:41:02.043121+01 | 1486370462.04312 | pgbench_accounts |      13429514240
 2017-02-06 09:41:02.043121+01 | 1486370462.04312 | pgbench_tellers  |           450560
 2017-02-06 09:41:02.043121+01 | 1486370462.04312 | pgbench_history  |                0
 2017-02-06 09:41:02.043121+01 | 1486370462.04312 | pgbench_branches |            40960

 2017-02-06 09:41:03.231827+01 | 1486370463.23183 | pgbench_accounts |      13429514240
 2017-02-06 09:41:03.231827+01 | 1486370463.23183 | pgbench_tellers  |           450560
 2017-02-06 09:41:03.231827+01 | 1486370463.23183 | pgbench_history  |                0
 2017-02-06 09:41:03.231827+01 | 1486370463.23183 | pgbench_branches |            40960

 2017-02-06 09:41:04.366901+01 | 1486370464.3669 | pgbench_accounts |      13429514240
 2017-02-06 09:41:04.366901+01 | 1486370464.3669 | pgbench_tellers  |           450560
 2017-02-06 09:41:04.366901+01 | 1486370464.3669 | pgbench_history  |                0
 2017-02-06 09:41:04.366901+01 | 1486370464.3669 | pgbench_branches |            40960

 2017-02-06 09:41:05.518002+01 | 1486370465.518 | pgbench_accounts |      13429514240
 2017-02-06 09:41:05.518002+01 | 1486370465.518 | pgbench_tellers  |           450560
 2017-02-06 09:41:05.518002+01 | 1486370465.518 | pgbench_history  |                0
 2017-02-06 09:41:05.518002+01 | 1486370465.518 | pgbench_branches |            40960

 2017-02-06 09:41:06.66482+01 | 1486370466.66482 | pgbench_accounts |      13429514240
 2017-02-06 09:41:06.66482+01 | 1486370466.66482 | pgbench_tellers  |           450560
 2017-02-06 09:41:06.66482+01 | 1486370466.66482 | pgbench_history  |                0
 2017-02-06 09:41:06.66482+01 | 1486370466.66482 | pgbench_branches |            40960

 2017-02-06 09:41:07.818611+01 | 1486370467.81861 | pgbench_accounts |      13429514240
 2017-02-06 09:41:07.818611+01 | 1486370467.81861 | pgbench_tellers  |           450560
 2017-02-06 09:41:07.818611+01 | 1486370467.81861 | pgbench_history  |                0
 2017-02-06 09:41:07.818611+01 | 1486370467.81861 | pgbench_branches |            40960

 2017-02-06 09:41:08.953928+01 | 1486370468.95393 | pgbench_accounts |      13429514240
 2017-02-06 09:41:08.953928+01 | 1486370468.95393 | pgbench_tellers  |           450560
 2017-02-06 09:41:08.953928+01 | 1486370468.95393 | pgbench_history  |                0
 2017-02-06 09:41:08.953928+01 | 1486370468.95393 | pgbench_branches |            40960

 2017-02-06 09:41:10.105465+01 | 1486370470.10546 | pgbench_accounts |      13429514240
 2017-02-06 09:41:10.105465+01 | 1486370470.10546 | pgbench_tellers  |           450560
 2017-02-06 09:41:10.105465+01 | 1486370470.10546 | pgbench_history  |                0
 2017-02-06 09:41:10.105465+01 | 1486370470.10546 | pgbench_branches |            40960

 2017-02-06 09:41:11.251491+01 | 1486370471.25149 | pgbench_accounts |      13429514240
 2017-02-06 09:41:11.251491+01 | 1486370471.25149 | pgbench_tellers  |           450560
 2017-02-06 09:41:11.251491+01 | 1486370471.25149 | pgbench_history  |                0
 2017-02-06 09:41:11.251491+01 | 1486370471.25149 | pgbench_branches |            40960

 2017-02-06 09:41:12.403349+01 | 1486370472.40335 | pgbench_accounts |      13429514240
 2017-02-06 09:41:12.403349+01 | 1486370472.40335 | pgbench_tellers  |           450560
 2017-02-06 09:41:12.403349+01 | 1486370472.40335 | pgbench_history  |                0
 2017-02-06 09:41:12.403349+01 | 1486370472.40335 | pgbench_branches |            40960

 2017-02-06 09:41:13.543931+01 | 1486370473.54393 | pgbench_accounts |      13429514240
 2017-02-06 09:41:13.543931+01 | 1486370473.54393 | pgbench_tellers  |           450560
 2017-02-06 09:41:13.543931+01 | 1486370473.54393 | pgbench_history  |                0
 2017-02-06 09:41:13.543931+01 | 1486370473.54393 | pgbench_branches |            40960

 2017-02-06 09:41:14.703475+01 | 1486370474.70347 | pgbench_accounts |      13429514240
 2017-02-06 09:41:14.703475+01 | 1486370474.70347 | pgbench_tellers  |           450560
 2017-02-06 09:41:14.703475+01 | 1486370474.70347 | pgbench_history  |                0
 2017-02-06 09:41:14.703475+01 | 1486370474.70347 | pgbench_branches |            40960

 2017-02-06 09:41:15.859414+01 | 1486370475.85941 | pgbench_accounts |      13429514240
 2017-02-06 09:41:15.859414+01 | 1486370475.85941 | pgbench_tellers  |           450560
 2017-02-06 09:41:15.859414+01 | 1486370475.85941 | pgbench_history  |                0
 2017-02-06 09:41:15.859414+01 | 1486370475.85941 | pgbench_branches |            40960

 2017-02-06 09:41:17.00937+01 | 1486370477.00937 | pgbench_accounts |      13429514240
 2017-02-06 09:41:17.00937+01 | 1486370477.00937 | pgbench_tellers  |           450560
 2017-02-06 09:41:17.00937+01 | 1486370477.00937 | pgbench_history  |                0
 2017-02-06 09:41:17.00937+01 | 1486370477.00937 | pgbench_branches |            40960

 2017-02-06 09:41:18.159817+01 | 1486370478.15982 | pgbench_accounts |      13429514240
 2017-02-06 09:41:18.159817+01 | 1486370478.15982 | pgbench_tellers  |           450560
 2017-02-06 09:41:18.159817+01 | 1486370478.15982 | pgbench_history  |                0
 2017-02-06 09:41:18.159817+01 | 1486370478.15982 | pgbench_branches |            40960

 2017-02-06 09:41:19.302534+01 | 1486370479.30253 | pgbench_accounts |      13429514240
 2017-02-06 09:41:19.302534+01 | 1486370479.30253 | pgbench_tellers  |           450560
 2017-02-06 09:41:19.302534+01 | 1486370479.30253 | pgbench_history  |                0
 2017-02-06 09:41:19.302534+01 | 1486370479.30253 | pgbench_branches |            40960

 2017-02-06 09:41:20.459014+01 | 1486370480.45901 | pgbench_accounts |      13429514240
 2017-02-06 09:41:20.459014+01 | 1486370480.45901 | pgbench_tellers  |           450560
 2017-02-06 09:41:20.459014+01 | 1486370480.45901 | pgbench_history  |                0
 2017-02-06 09:41:20.459014+01 | 1486370480.45901 | pgbench_branches |            40960

 2017-02-06 09:41:21.608451+01 | 1486370481.60845 | pgbench_accounts |      13429514240
 2017-02-06 09:41:21.608451+01 | 1486370481.60845 | pgbench_tellers  |           450560
 2017-02-06 09:41:21.608451+01 | 1486370481.60845 | pgbench_history  |                0
 2017-02-06 09:41:21.608451+01 | 1486370481.60845 | pgbench_branches |            40960

 2017-02-06 09:41:22.766345+01 | 1486370482.76635 | pgbench_accounts |      13429514240
 2017-02-06 09:41:22.766345+01 | 1486370482.76635 | pgbench_tellers  |           450560
 2017-02-06 09:41:22.766345+01 | 1486370482.76635 | pgbench_history  |                0
 2017-02-06 09:41:22.766345+01 | 1486370482.76635 | pgbench_branches |            40960

 2017-02-06 09:41:23.914064+01 | 1486370483.91406 | pgbench_accounts |      13429514240
 2017-02-06 09:41:23.914064+01 | 1486370483.91406 | pgbench_tellers  |           450560
 2017-02-06 09:41:23.914064+01 | 1486370483.91406 | pgbench_history  |                0
 2017-02-06 09:41:23.914064+01 | 1486370483.91406 | pgbench_branches |            40960

 2017-02-06 09:41:25.030799+01 | 1486370485.0308 | pgbench_accounts |      13429514240
 2017-02-06 09:41:25.030799+01 | 1486370485.0308 | pgbench_tellers  |           450560
 2017-02-06 09:41:25.030799+01 | 1486370485.0308 | pgbench_history  |                0
 2017-02-06 09:41:25.030799+01 | 1486370485.0308 | pgbench_branches |            40960

 2017-02-06 09:41:26.20095+01 | 1486370486.20095 | pgbench_accounts |      13429514240
 2017-02-06 09:41:26.20095+01 | 1486370486.20095 | pgbench_tellers  |           450560
 2017-02-06 09:41:26.20095+01 | 1486370486.20095 | pgbench_history  |                0
 2017-02-06 09:41:26.20095+01 | 1486370486.20095 | pgbench_branches |            40960

 2017-02-06 09:41:27.332217+01 | 1486370487.33222 | pgbench_accounts |      13429514240
 2017-02-06 09:41:27.332217+01 | 1486370487.33222 | pgbench_tellers  |           450560
 2017-02-06 09:41:27.332217+01 | 1486370487.33222 | pgbench_history  |                0
 2017-02-06 09:41:27.332217+01 | 1486370487.33222 | pgbench_branches |            40960

 2017-02-06 09:41:28.470179+01 | 1486370488.47018 | pgbench_accounts |      13429514240
 2017-02-06 09:41:28.470179+01 | 1486370488.47018 | pgbench_tellers  |           450560
 2017-02-06 09:41:28.470179+01 | 1486370488.47018 | pgbench_history  |                0
 2017-02-06 09:41:28.470179+01 | 1486370488.47018 | pgbench_branches |            40960

 2017-02-06 09:41:29.60391+01 | 1486370489.60391 | pgbench_accounts |      13429514240
 2017-02-06 09:41:29.60391+01 | 1486370489.60391 | pgbench_tellers  |           450560
 2017-02-06 09:41:29.60391+01 | 1486370489.60391 | pgbench_history  |                0
 2017-02-06 09:41:29.60391+01 | 1486370489.60391 | pgbench_branches |            40960

 2017-02-06 09:41:30.760986+01 | 1486370490.76099 | pgbench_accounts |      13429514240
 2017-02-06 09:41:30.760986+01 | 1486370490.76099 | pgbench_tellers  |           450560
 2017-02-06 09:41:30.760986+01 | 1486370490.76099 | pgbench_history  |                0
 2017-02-06 09:41:30.760986+01 | 1486370490.76099 | pgbench_branches |            40960

 2017-02-06 09:41:31.890122+01 | 1486370491.89012 | pgbench_accounts |      13429514240
 2017-02-06 09:41:31.890122+01 | 1486370491.89012 | pgbench_tellers  |           450560
 2017-02-06 09:41:31.890122+01 | 1486370491.89012 | pgbench_history  |                0
 2017-02-06 09:41:31.890122+01 | 1486370491.89012 | pgbench_branches |            40960

 2017-02-06 09:41:33.035285+01 | 1486370493.03528 | pgbench_accounts |      13429514240
 2017-02-06 09:41:33.035285+01 | 1486370493.03528 | pgbench_tellers  |           450560
 2017-02-06 09:41:33.035285+01 | 1486370493.03528 | pgbench_history  |                0
 2017-02-06 09:41:33.035285+01 | 1486370493.03528 | pgbench_branches |            40960

 2017-02-06 09:41:34.1833+01 | 1486370494.1833 | pgbench_accounts |      13429514240
 2017-02-06 09:41:34.1833+01 | 1486370494.1833 | pgbench_tellers  |           450560
 2017-02-06 09:41:34.1833+01 | 1486370494.1833 | pgbench_history  |                0
 2017-02-06 09:41:34.1833+01 | 1486370494.1833 | pgbench_branches |            40960

 2017-02-06 09:41:35.327166+01 | 1486370495.32717 | pgbench_accounts |      13429514240
 2017-02-06 09:41:35.327166+01 | 1486370495.32717 | pgbench_tellers  |           450560
 2017-02-06 09:41:35.327166+01 | 1486370495.32717 | pgbench_history  |                0
 2017-02-06 09:41:35.327166+01 | 1486370495.32717 | pgbench_branches |            40960

 2017-02-06 09:41:36.48151+01 | 1486370496.48151 | pgbench_accounts |      13429514240
 2017-02-06 09:41:36.48151+01 | 1486370496.48151 | pgbench_tellers  |           450560
 2017-02-06 09:41:36.48151+01 | 1486370496.48151 | pgbench_history  |                0
 2017-02-06 09:41:36.48151+01 | 1486370496.48151 | pgbench_branches |            40960

 2017-02-06 09:41:37.649071+01 | 1486370497.64907 | pgbench_accounts |      13429514240
 2017-02-06 09:41:37.649071+01 | 1486370497.64907 | pgbench_tellers  |           450560
 2017-02-06 09:41:37.649071+01 | 1486370497.64907 | pgbench_history  |                0
 2017-02-06 09:41:37.649071+01 | 1486370497.64907 | pgbench_branches |            40960

 2017-02-06 09:41:38.795347+01 | 1486370498.79535 | pgbench_accounts |      13429514240
 2017-02-06 09:41:38.795347+01 | 1486370498.79535 | pgbench_tellers  |           450560
 2017-02-06 09:41:38.795347+01 | 1486370498.79535 | pgbench_history  |                0
 2017-02-06 09:41:38.795347+01 | 1486370498.79535 | pgbench_branches |            40960

 2017-02-06 09:41:39.969108+01 | 1486370499.96911 | pgbench_accounts |      13429514240
 2017-02-06 09:41:39.969108+01 | 1486370499.96911 | pgbench_tellers  |           450560
 2017-02-06 09:41:39.969108+01 | 1486370499.96911 | pgbench_history  |                0
 2017-02-06 09:41:39.969108+01 | 1486370499.96911 | pgbench_branches |            40960

 2017-02-06 09:41:41.132346+01 | 1486370501.13235 | pgbench_accounts |      13429514240
 2017-02-06 09:41:41.132346+01 | 1486370501.13235 | pgbench_tellers  |           450560
 2017-02-06 09:41:41.132346+01 | 1486370501.13235 | pgbench_history  |                0
 2017-02-06 09:41:41.132346+01 | 1486370501.13235 | pgbench_branches |            40960

 2017-02-06 09:41:42.319766+01 | 1486370502.31977 | pgbench_accounts |      13429514240
 2017-02-06 09:41:42.319766+01 | 1486370502.31977 | pgbench_tellers  |           450560
 2017-02-06 09:41:42.319766+01 | 1486370502.31977 | pgbench_history  |                0
 2017-02-06 09:41:42.319766+01 | 1486370502.31977 | pgbench_branches |            40960

 2017-02-06 09:41:43.438208+01 | 1486370503.43821 | pgbench_accounts |      13429514240
 2017-02-06 09:41:43.438208+01 | 1486370503.43821 | pgbench_tellers  |           450560
 2017-02-06 09:41:43.438208+01 | 1486370503.43821 | pgbench_history  |                0
 2017-02-06 09:41:43.438208+01 | 1486370503.43821 | pgbench_branches |            40960

 2017-02-06 09:41:44.585934+01 | 1486370504.58593 | pgbench_accounts |      13429514240
 2017-02-06 09:41:44.585934+01 | 1486370504.58593 | pgbench_tellers  |           450560
 2017-02-06 09:41:44.585934+01 | 1486370504.58593 | pgbench_history  |                0
 2017-02-06 09:41:44.585934+01 | 1486370504.58593 | pgbench_branches |            40960

 2017-02-06 09:41:45.755068+01 | 1486370505.75507 | pgbench_accounts |      13429514240
 2017-02-06 09:41:45.755068+01 | 1486370505.75507 | pgbench_tellers  |           450560
 2017-02-06 09:41:45.755068+01 | 1486370505.75507 | pgbench_history  |                0
 2017-02-06 09:41:45.755068+01 | 1486370505.75507 | pgbench_branches |            40960

