 2017-02-05 14:46:19.609105+01 | 1486302379.60911 | pgbench_branches_pkey |            40960
 2017-02-05 14:46:19.609105+01 | 1486302379.60911 | pgbench_tellers_pkey  |           245760
 2017-02-05 14:46:19.609105+01 | 1486302379.60911 | pgbench_accounts_pkey |       2246197248

 2017-02-05 14:46:20.692994+01 | 1486302380.69299 | pgbench_branches_pkey |            40960
 2017-02-05 14:46:20.692994+01 | 1486302380.69299 | pgbench_tellers_pkey  |           245760
 2017-02-05 14:46:20.692994+01 | 1486302380.69299 | pgbench_accounts_pkey |       2246197248

 2017-02-05 14:46:21.783032+01 | 1486302381.78303 | pgbench_branches_pkey |            40960
 2017-02-05 14:46:21.783032+01 | 1486302381.78303 | pgbench_tellers_pkey  |           245760
 2017-02-05 14:46:21.783032+01 | 1486302381.78303 | pgbench_accounts_pkey |       2246197248

 2017-02-05 14:46:22.869082+01 | 1486302382.86908 | pgbench_branches_pkey |            40960
 2017-02-05 14:46:22.869082+01 | 1486302382.86908 | pgbench_tellers_pkey  |           245760
 2017-02-05 14:46:22.869082+01 | 1486302382.86908 | pgbench_accounts_pkey |       2246197248

 2017-02-05 14:46:23.9425+01 | 1486302383.9425 | pgbench_branches_pkey |            40960
 2017-02-05 14:46:23.9425+01 | 1486302383.9425 | pgbench_tellers_pkey  |           245760
 2017-02-05 14:46:23.9425+01 | 1486302383.9425 | pgbench_accounts_pkey |       2246197248

 2017-02-05 14:46:25.026942+01 | 1486302385.02694 | pgbench_branches_pkey |            40960
 2017-02-05 14:46:25.026942+01 | 1486302385.02694 | pgbench_tellers_pkey  |           245760
 2017-02-05 14:46:25.026942+01 | 1486302385.02694 | pgbench_accounts_pkey |       2246197248

 2017-02-05 14:46:26.109791+01 | 1486302386.10979 | pgbench_branches_pkey |            40960
 2017-02-05 14:46:26.109791+01 | 1486302386.10979 | pgbench_tellers_pkey  |           245760
 2017-02-05 14:46:26.109791+01 | 1486302386.10979 | pgbench_accounts_pkey |       2246197248

 2017-02-05 14:46:27.187599+01 | 1486302387.1876 | pgbench_branches_pkey |            40960
 2017-02-05 14:46:27.187599+01 | 1486302387.1876 | pgbench_tellers_pkey  |           245760
 2017-02-05 14:46:27.187599+01 | 1486302387.1876 | pgbench_accounts_pkey |       2246197248

 2017-02-05 14:46:28.266717+01 | 1486302388.26672 | pgbench_branches_pkey |            40960
 2017-02-05 14:46:28.266717+01 | 1486302388.26672 | pgbench_tellers_pkey  |           245760
 2017-02-05 14:46:28.266717+01 | 1486302388.26672 | pgbench_accounts_pkey |       2246197248

 2017-02-05 14:46:29.357617+01 | 1486302389.35762 | pgbench_branches_pkey |            40960
 2017-02-05 14:46:29.357617+01 | 1486302389.35762 | pgbench_tellers_pkey  |           245760
 2017-02-05 14:46:29.357617+01 | 1486302389.35762 | pgbench_accounts_pkey |       2246197248

 2017-02-05 14:46:30.436851+01 | 1486302390.43685 | pgbench_branches_pkey |            40960
 2017-02-05 14:46:30.436851+01 | 1486302390.43685 | pgbench_tellers_pkey  |           245760
 2017-02-05 14:46:30.436851+01 | 1486302390.43685 | pgbench_accounts_pkey |       2246197248

 2017-02-05 14:46:31.515558+01 | 1486302391.51556 | pgbench_branches_pkey |            40960
 2017-02-05 14:46:31.515558+01 | 1486302391.51556 | pgbench_tellers_pkey  |           245760
 2017-02-05 14:46:31.515558+01 | 1486302391.51556 | pgbench_accounts_pkey |       2246197248

 2017-02-05 14:46:32.59254+01 | 1486302392.59254 | pgbench_branches_pkey |            40960
 2017-02-05 14:46:32.59254+01 | 1486302392.59254 | pgbench_tellers_pkey  |           245760
 2017-02-05 14:46:32.59254+01 | 1486302392.59254 | pgbench_accounts_pkey |       2246197248

 2017-02-05 14:46:33.680144+01 | 1486302393.68014 | pgbench_branches_pkey |            40960
 2017-02-05 14:46:33.680144+01 | 1486302393.68014 | pgbench_tellers_pkey  |           245760
 2017-02-05 14:46:33.680144+01 | 1486302393.68014 | pgbench_accounts_pkey |       2246197248

 2017-02-05 14:46:34.755829+01 | 1486302394.75583 | pgbench_branches_pkey |            40960
 2017-02-05 14:46:34.755829+01 | 1486302394.75583 | pgbench_tellers_pkey  |           245760
 2017-02-05 14:46:34.755829+01 | 1486302394.75583 | pgbench_accounts_pkey |       2246197248

 2017-02-05 14:46:35.834567+01 | 1486302395.83457 | pgbench_branches_pkey |            40960
 2017-02-05 14:46:35.834567+01 | 1486302395.83457 | pgbench_tellers_pkey  |           245760
 2017-02-05 14:46:35.834567+01 | 1486302395.83457 | pgbench_accounts_pkey |       2246197248

 2017-02-05 14:46:36.913822+01 | 1486302396.91382 | pgbench_branches_pkey |            40960
 2017-02-05 14:46:36.913822+01 | 1486302396.91382 | pgbench_tellers_pkey  |           245760
 2017-02-05 14:46:36.913822+01 | 1486302396.91382 | pgbench_accounts_pkey |       2246197248

 2017-02-05 14:46:37.997142+01 | 1486302397.99714 | pgbench_branches_pkey |            40960
 2017-02-05 14:46:37.997142+01 | 1486302397.99714 | pgbench_tellers_pkey  |           245760
 2017-02-05 14:46:37.997142+01 | 1486302397.99714 | pgbench_accounts_pkey |       2246197248

 2017-02-05 14:46:39.079425+01 | 1486302399.07943 | pgbench_branches_pkey |            40960
 2017-02-05 14:46:39.079425+01 | 1486302399.07943 | pgbench_tellers_pkey  |           245760
 2017-02-05 14:46:39.079425+01 | 1486302399.07943 | pgbench_accounts_pkey |       2246197248

 2017-02-05 14:46:40.160901+01 | 1486302400.1609 | pgbench_branches_pkey |            40960
 2017-02-05 14:46:40.160901+01 | 1486302400.1609 | pgbench_tellers_pkey  |           245760
 2017-02-05 14:46:40.160901+01 | 1486302400.1609 | pgbench_accounts_pkey |       2246197248

 2017-02-05 14:46:41.245652+01 | 1486302401.24565 | pgbench_branches_pkey |            40960
 2017-02-05 14:46:41.245652+01 | 1486302401.24565 | pgbench_tellers_pkey  |           245760
 2017-02-05 14:46:41.245652+01 | 1486302401.24565 | pgbench_accounts_pkey |       2246197248

 2017-02-05 14:46:42.326759+01 | 1486302402.32676 | pgbench_branches_pkey |            40960
 2017-02-05 14:46:42.326759+01 | 1486302402.32676 | pgbench_tellers_pkey  |           245760
 2017-02-05 14:46:42.326759+01 | 1486302402.32676 | pgbench_accounts_pkey |       2246197248

 2017-02-05 14:46:43.420171+01 | 1486302403.42017 | pgbench_branches_pkey |            40960
 2017-02-05 14:46:43.420171+01 | 1486302403.42017 | pgbench_tellers_pkey  |           245760
 2017-02-05 14:46:43.420171+01 | 1486302403.42017 | pgbench_accounts_pkey |       2246197248

 2017-02-05 14:46:44.502789+01 | 1486302404.50279 | pgbench_branches_pkey |            40960
 2017-02-05 14:46:44.502789+01 | 1486302404.50279 | pgbench_tellers_pkey  |           245760
 2017-02-05 14:46:44.502789+01 | 1486302404.50279 | pgbench_accounts_pkey |       2246197248

 2017-02-05 14:46:45.587656+01 | 1486302405.58766 | pgbench_branches_pkey |            40960
 2017-02-05 14:46:45.587656+01 | 1486302405.58766 | pgbench_tellers_pkey  |           245760
 2017-02-05 14:46:45.587656+01 | 1486302405.58766 | pgbench_accounts_pkey |       2246197248

 2017-02-05 14:46:46.666589+01 | 1486302406.66659 | pgbench_branches_pkey |            40960
 2017-02-05 14:46:46.666589+01 | 1486302406.66659 | pgbench_tellers_pkey  |           245760
 2017-02-05 14:46:46.666589+01 | 1486302406.66659 | pgbench_accounts_pkey |       2246197248

 2017-02-05 14:46:47.744661+01 | 1486302407.74466 | pgbench_branches_pkey |            40960
 2017-02-05 14:46:47.744661+01 | 1486302407.74466 | pgbench_tellers_pkey  |           245760
 2017-02-05 14:46:47.744661+01 | 1486302407.74466 | pgbench_accounts_pkey |       2246197248

 2017-02-05 14:46:48.82317+01 | 1486302408.82317 | pgbench_branches_pkey |            40960
 2017-02-05 14:46:48.82317+01 | 1486302408.82317 | pgbench_tellers_pkey  |           245760
 2017-02-05 14:46:48.82317+01 | 1486302408.82317 | pgbench_accounts_pkey |       2246197248

 2017-02-05 14:46:49.907309+01 | 1486302409.90731 | pgbench_branches_pkey |            40960
 2017-02-05 14:46:49.907309+01 | 1486302409.90731 | pgbench_tellers_pkey  |           245760
 2017-02-05 14:46:49.907309+01 | 1486302409.90731 | pgbench_accounts_pkey |       2246197248

 2017-02-05 14:46:50.987551+01 | 1486302410.98755 | pgbench_branches_pkey |            40960
 2017-02-05 14:46:50.987551+01 | 1486302410.98755 | pgbench_tellers_pkey  |           245760
 2017-02-05 14:46:50.987551+01 | 1486302410.98755 | pgbench_accounts_pkey |       2246197248

 2017-02-05 14:46:52.066313+01 | 1486302412.06631 | pgbench_branches_pkey |            40960
 2017-02-05 14:46:52.066313+01 | 1486302412.06631 | pgbench_tellers_pkey  |           245760
 2017-02-05 14:46:52.066313+01 | 1486302412.06631 | pgbench_accounts_pkey |       2246197248

 2017-02-05 14:46:53.147228+01 | 1486302413.14723 | pgbench_branches_pkey |            40960
 2017-02-05 14:46:53.147228+01 | 1486302413.14723 | pgbench_tellers_pkey  |           245760
 2017-02-05 14:46:53.147228+01 | 1486302413.14723 | pgbench_accounts_pkey |       2246197248

 2017-02-05 14:46:54.227253+01 | 1486302414.22725 | pgbench_branches_pkey |            40960
 2017-02-05 14:46:54.227253+01 | 1486302414.22725 | pgbench_tellers_pkey  |           245760
 2017-02-05 14:46:54.227253+01 | 1486302414.22725 | pgbench_accounts_pkey |       2246197248

 2017-02-05 14:46:55.308157+01 | 1486302415.30816 | pgbench_branches_pkey |            40960
 2017-02-05 14:46:55.308157+01 | 1486302415.30816 | pgbench_tellers_pkey  |           245760
 2017-02-05 14:46:55.308157+01 | 1486302415.30816 | pgbench_accounts_pkey |       2246197248

 2017-02-05 14:46:56.389519+01 | 1486302416.38952 | pgbench_branches_pkey |            40960
 2017-02-05 14:46:56.389519+01 | 1486302416.38952 | pgbench_tellers_pkey  |           245760
 2017-02-05 14:46:56.389519+01 | 1486302416.38952 | pgbench_accounts_pkey |       2246197248

 2017-02-05 14:46:57.4772+01 | 1486302417.4772 | pgbench_branches_pkey |            40960
 2017-02-05 14:46:57.4772+01 | 1486302417.4772 | pgbench_tellers_pkey  |           245760
 2017-02-05 14:46:57.4772+01 | 1486302417.4772 | pgbench_accounts_pkey |       2246197248

 2017-02-05 14:46:58.556193+01 | 1486302418.55619 | pgbench_branches_pkey |            40960
 2017-02-05 14:46:58.556193+01 | 1486302418.55619 | pgbench_tellers_pkey  |           245760
 2017-02-05 14:46:58.556193+01 | 1486302418.55619 | pgbench_accounts_pkey |       2246197248

 2017-02-05 14:46:59.637295+01 | 1486302419.6373 | pgbench_branches_pkey |            40960
 2017-02-05 14:46:59.637295+01 | 1486302419.6373 | pgbench_tellers_pkey  |           245760
 2017-02-05 14:46:59.637295+01 | 1486302419.6373 | pgbench_accounts_pkey |       2246197248

 2017-02-05 14:47:00.716554+01 | 1486302420.71655 | pgbench_branches_pkey |            40960
 2017-02-05 14:47:00.716554+01 | 1486302420.71655 | pgbench_tellers_pkey  |           245760
 2017-02-05 14:47:00.716554+01 | 1486302420.71655 | pgbench_accounts_pkey |       2246197248

 2017-02-05 14:47:01.796386+01 | 1486302421.79639 | pgbench_branches_pkey |            40960
 2017-02-05 14:47:01.796386+01 | 1486302421.79639 | pgbench_tellers_pkey  |           245760
 2017-02-05 14:47:01.796386+01 | 1486302421.79639 | pgbench_accounts_pkey |       2246197248

 2017-02-05 14:47:02.875371+01 | 1486302422.87537 | pgbench_branches_pkey |            40960
 2017-02-05 14:47:02.875371+01 | 1486302422.87537 | pgbench_tellers_pkey  |           245760
 2017-02-05 14:47:02.875371+01 | 1486302422.87537 | pgbench_accounts_pkey |       2246197248

 2017-02-05 14:47:03.947626+01 | 1486302423.94763 | pgbench_branches_pkey |            40960
 2017-02-05 14:47:03.947626+01 | 1486302423.94763 | pgbench_tellers_pkey  |           245760
 2017-02-05 14:47:03.947626+01 | 1486302423.94763 | pgbench_accounts_pkey |       2246197248

 2017-02-05 14:47:05.033097+01 | 1486302425.0331 | pgbench_branches_pkey |            40960
 2017-02-05 14:47:05.033097+01 | 1486302425.0331 | pgbench_tellers_pkey  |           245760
 2017-02-05 14:47:05.033097+01 | 1486302425.0331 | pgbench_accounts_pkey |       2246197248

 2017-02-05 14:47:06.118+01 | 1486302426.118 | pgbench_branches_pkey |            40960
 2017-02-05 14:47:06.118+01 | 1486302426.118 | pgbench_tellers_pkey  |           245760
 2017-02-05 14:47:06.118+01 | 1486302426.118 | pgbench_accounts_pkey |       2246197248

 2017-02-05 14:47:07.198201+01 | 1486302427.1982 | pgbench_branches_pkey |            40960
 2017-02-05 14:47:07.198201+01 | 1486302427.1982 | pgbench_tellers_pkey  |           245760
 2017-02-05 14:47:07.198201+01 | 1486302427.1982 | pgbench_accounts_pkey |       2246197248

 2017-02-05 14:47:08.28636+01 | 1486302428.28636 | pgbench_branches_pkey |            40960
 2017-02-05 14:47:08.28636+01 | 1486302428.28636 | pgbench_tellers_pkey  |           245760
 2017-02-05 14:47:08.28636+01 | 1486302428.28636 | pgbench_accounts_pkey |       2246197248

 2017-02-05 14:47:09.368779+01 | 1486302429.36878 | pgbench_branches_pkey |            40960
 2017-02-05 14:47:09.368779+01 | 1486302429.36878 | pgbench_tellers_pkey  |           245760
 2017-02-05 14:47:09.368779+01 | 1486302429.36878 | pgbench_accounts_pkey |       2246197248

 2017-02-05 14:47:10.439953+01 | 1486302430.43995 | pgbench_branches_pkey |            40960
 2017-02-05 14:47:10.439953+01 | 1486302430.43995 | pgbench_tellers_pkey  |           245760
 2017-02-05 14:47:10.439953+01 | 1486302430.43995 | pgbench_accounts_pkey |       2246197248

 2017-02-05 14:47:11.521442+01 | 1486302431.52144 | pgbench_branches_pkey |            40960
 2017-02-05 14:47:11.521442+01 | 1486302431.52144 | pgbench_tellers_pkey  |           245760
 2017-02-05 14:47:11.521442+01 | 1486302431.52144 | pgbench_accounts_pkey |       2246197248

 2017-02-05 14:47:12.602193+01 | 1486302432.60219 | pgbench_branches_pkey |            40960
 2017-02-05 14:47:12.602193+01 | 1486302432.60219 | pgbench_tellers_pkey  |           245760
 2017-02-05 14:47:12.602193+01 | 1486302432.60219 | pgbench_accounts_pkey |       2246197248

 2017-02-05 14:47:13.68359+01 | 1486302433.68359 | pgbench_branches_pkey |            40960
 2017-02-05 14:47:13.68359+01 | 1486302433.68359 | pgbench_tellers_pkey  |           245760
 2017-02-05 14:47:13.68359+01 | 1486302433.68359 | pgbench_accounts_pkey |       2246197248

 2017-02-05 14:47:14.771076+01 | 1486302434.77108 | pgbench_branches_pkey |            40960
 2017-02-05 14:47:14.771076+01 | 1486302434.77108 | pgbench_tellers_pkey  |           245760
 2017-02-05 14:47:14.771076+01 | 1486302434.77108 | pgbench_accounts_pkey |       2246197248

 2017-02-05 14:47:15.856537+01 | 1486302435.85654 | pgbench_branches_pkey |            40960
 2017-02-05 14:47:15.856537+01 | 1486302435.85654 | pgbench_tellers_pkey  |           245760
 2017-02-05 14:47:15.856537+01 | 1486302435.85654 | pgbench_accounts_pkey |       2246197248

 2017-02-05 14:47:16.944092+01 | 1486302436.94409 | pgbench_branches_pkey |            40960
 2017-02-05 14:47:16.944092+01 | 1486302436.94409 | pgbench_tellers_pkey  |           245760
 2017-02-05 14:47:16.944092+01 | 1486302436.94409 | pgbench_accounts_pkey |       2246197248

 2017-02-05 14:47:18.02638+01 | 1486302438.02638 | pgbench_branches_pkey |            40960
 2017-02-05 14:47:18.02638+01 | 1486302438.02638 | pgbench_tellers_pkey  |           245760
 2017-02-05 14:47:18.02638+01 | 1486302438.02638 | pgbench_accounts_pkey |       2246197248

 2017-02-05 14:47:19.115436+01 | 1486302439.11544 | pgbench_branches_pkey |            40960
 2017-02-05 14:47:19.115436+01 | 1486302439.11544 | pgbench_tellers_pkey  |           245760
 2017-02-05 14:47:19.115436+01 | 1486302439.11544 | pgbench_accounts_pkey |       2246197248

 2017-02-05 14:47:20.193744+01 | 1486302440.19374 | pgbench_branches_pkey |            40960
 2017-02-05 14:47:20.193744+01 | 1486302440.19374 | pgbench_tellers_pkey  |           245760
 2017-02-05 14:47:20.193744+01 | 1486302440.19374 | pgbench_accounts_pkey |       2246197248

 2017-02-05 14:47:21.273868+01 | 1486302441.27387 | pgbench_branches_pkey |            40960
 2017-02-05 14:47:21.273868+01 | 1486302441.27387 | pgbench_tellers_pkey  |           245760
 2017-02-05 14:47:21.273868+01 | 1486302441.27387 | pgbench_accounts_pkey |       2246197248

 2017-02-05 14:47:22.356962+01 | 1486302442.35696 | pgbench_branches_pkey |            40960
 2017-02-05 14:47:22.356962+01 | 1486302442.35696 | pgbench_tellers_pkey  |           245760
 2017-02-05 14:47:22.356962+01 | 1486302442.35696 | pgbench_accounts_pkey |       2246197248

 2017-02-05 14:47:23.43832+01 | 1486302443.43832 | pgbench_branches_pkey |            40960
 2017-02-05 14:47:23.43832+01 | 1486302443.43832 | pgbench_tellers_pkey  |           245760
 2017-02-05 14:47:23.43832+01 | 1486302443.43832 | pgbench_accounts_pkey |       2246197248

 2017-02-05 14:47:24.517888+01 | 1486302444.51789 | pgbench_branches_pkey |            40960
 2017-02-05 14:47:24.517888+01 | 1486302444.51789 | pgbench_tellers_pkey  |           245760
 2017-02-05 14:47:24.517888+01 | 1486302444.51789 | pgbench_accounts_pkey |       2246197248

 2017-02-05 14:47:25.595666+01 | 1486302445.59567 | pgbench_branches_pkey |            40960
 2017-02-05 14:47:25.595666+01 | 1486302445.59567 | pgbench_tellers_pkey  |           245760
 2017-02-05 14:47:25.595666+01 | 1486302445.59567 | pgbench_accounts_pkey |       2246197248

 2017-02-05 14:47:26.674056+01 | 1486302446.67406 | pgbench_branches_pkey |            40960
 2017-02-05 14:47:26.674056+01 | 1486302446.67406 | pgbench_tellers_pkey  |           245760
 2017-02-05 14:47:26.674056+01 | 1486302446.67406 | pgbench_accounts_pkey |       2246197248

 2017-02-05 14:47:27.750696+01 | 1486302447.7507 | pgbench_branches_pkey |            40960
 2017-02-05 14:47:27.750696+01 | 1486302447.7507 | pgbench_tellers_pkey  |           245760
 2017-02-05 14:47:27.750696+01 | 1486302447.7507 | pgbench_accounts_pkey |       2246197248

 2017-02-05 14:47:28.83127+01 | 1486302448.83127 | pgbench_branches_pkey |            40960
 2017-02-05 14:47:28.83127+01 | 1486302448.83127 | pgbench_tellers_pkey  |           245760
 2017-02-05 14:47:28.83127+01 | 1486302448.83127 | pgbench_accounts_pkey |       2246197248

 2017-02-05 14:47:29.910457+01 | 1486302449.91046 | pgbench_branches_pkey |            40960
 2017-02-05 14:47:29.910457+01 | 1486302449.91046 | pgbench_tellers_pkey  |           245760
 2017-02-05 14:47:29.910457+01 | 1486302449.91046 | pgbench_accounts_pkey |       2246197248

 2017-02-05 14:47:30.992912+01 | 1486302450.99291 | pgbench_branches_pkey |            40960
 2017-02-05 14:47:30.992912+01 | 1486302450.99291 | pgbench_tellers_pkey  |           245760
 2017-02-05 14:47:30.992912+01 | 1486302450.99291 | pgbench_accounts_pkey |       2246197248

 2017-02-05 14:47:32.087123+01 | 1486302452.08712 | pgbench_branches_pkey |            40960
 2017-02-05 14:47:32.087123+01 | 1486302452.08712 | pgbench_tellers_pkey  |           245760
 2017-02-05 14:47:32.087123+01 | 1486302452.08712 | pgbench_accounts_pkey |       2246197248

 2017-02-05 14:47:33.171638+01 | 1486302453.17164 | pgbench_branches_pkey |            40960
 2017-02-05 14:47:33.171638+01 | 1486302453.17164 | pgbench_tellers_pkey  |           245760
 2017-02-05 14:47:33.171638+01 | 1486302453.17164 | pgbench_accounts_pkey |       2246197248

 2017-02-05 14:47:34.256678+01 | 1486302454.25668 | pgbench_branches_pkey |            40960
 2017-02-05 14:47:34.256678+01 | 1486302454.25668 | pgbench_tellers_pkey  |           245760
 2017-02-05 14:47:34.256678+01 | 1486302454.25668 | pgbench_accounts_pkey |       2246197248

 2017-02-05 14:47:35.340999+01 | 1486302455.341 | pgbench_branches_pkey |            40960
 2017-02-05 14:47:35.340999+01 | 1486302455.341 | pgbench_tellers_pkey  |           245760
 2017-02-05 14:47:35.340999+01 | 1486302455.341 | pgbench_accounts_pkey |       2246197248

 2017-02-05 14:47:36.427006+01 | 1486302456.42701 | pgbench_branches_pkey |            40960
 2017-02-05 14:47:36.427006+01 | 1486302456.42701 | pgbench_tellers_pkey  |           245760
 2017-02-05 14:47:36.427006+01 | 1486302456.42701 | pgbench_accounts_pkey |       2246197248

 2017-02-05 14:47:37.505739+01 | 1486302457.50574 | pgbench_branches_pkey |            40960
 2017-02-05 14:47:37.505739+01 | 1486302457.50574 | pgbench_tellers_pkey  |           245760
 2017-02-05 14:47:37.505739+01 | 1486302457.50574 | pgbench_accounts_pkey |       2246197248

 2017-02-05 14:47:38.581496+01 | 1486302458.5815 | pgbench_branches_pkey |            40960
 2017-02-05 14:47:38.581496+01 | 1486302458.5815 | pgbench_tellers_pkey  |           245760
 2017-02-05 14:47:38.581496+01 | 1486302458.5815 | pgbench_accounts_pkey |       2246197248

 2017-02-05 14:47:39.661821+01 | 1486302459.66182 | pgbench_branches_pkey |            40960
 2017-02-05 14:47:39.661821+01 | 1486302459.66182 | pgbench_tellers_pkey  |           245760
 2017-02-05 14:47:39.661821+01 | 1486302459.66182 | pgbench_accounts_pkey |       2246197248

 2017-02-05 14:47:40.739309+01 | 1486302460.73931 | pgbench_branches_pkey |            40960
 2017-02-05 14:47:40.739309+01 | 1486302460.73931 | pgbench_tellers_pkey  |           245760
 2017-02-05 14:47:40.739309+01 | 1486302460.73931 | pgbench_accounts_pkey |       2246197248

 2017-02-05 14:47:41.818883+01 | 1486302461.81888 | pgbench_branches_pkey |            40960
 2017-02-05 14:47:41.818883+01 | 1486302461.81888 | pgbench_tellers_pkey  |           245760
 2017-02-05 14:47:41.818883+01 | 1486302461.81888 | pgbench_accounts_pkey |       2246197248

 2017-02-05 14:47:42.904248+01 | 1486302462.90425 | pgbench_branches_pkey |            40960
 2017-02-05 14:47:42.904248+01 | 1486302462.90425 | pgbench_tellers_pkey  |           245760
 2017-02-05 14:47:42.904248+01 | 1486302462.90425 | pgbench_accounts_pkey |       2246197248

 2017-02-05 14:47:43.991281+01 | 1486302463.99128 | pgbench_branches_pkey |            40960
 2017-02-05 14:47:43.991281+01 | 1486302463.99128 | pgbench_tellers_pkey  |           245760
 2017-02-05 14:47:43.991281+01 | 1486302463.99128 | pgbench_accounts_pkey |       2246197248

 2017-02-05 14:47:45.07743+01 | 1486302465.07743 | pgbench_branches_pkey |            40960
 2017-02-05 14:47:45.07743+01 | 1486302465.07743 | pgbench_tellers_pkey  |           245760
 2017-02-05 14:47:45.07743+01 | 1486302465.07743 | pgbench_accounts_pkey |       2246197248

 2017-02-05 14:47:46.162571+01 | 1486302466.16257 | pgbench_branches_pkey |            40960
 2017-02-05 14:47:46.162571+01 | 1486302466.16257 | pgbench_tellers_pkey  |           245760
 2017-02-05 14:47:46.162571+01 | 1486302466.16257 | pgbench_accounts_pkey |       2246197248

 2017-02-05 14:47:47.256628+01 | 1486302467.25663 | pgbench_branches_pkey |            40960
 2017-02-05 14:47:47.256628+01 | 1486302467.25663 | pgbench_tellers_pkey  |           245760
 2017-02-05 14:47:47.256628+01 | 1486302467.25663 | pgbench_accounts_pkey |       2246197248

 2017-02-05 14:47:48.338188+01 | 1486302468.33819 | pgbench_branches_pkey |            40960
 2017-02-05 14:47:48.338188+01 | 1486302468.33819 | pgbench_tellers_pkey  |           245760
 2017-02-05 14:47:48.338188+01 | 1486302468.33819 | pgbench_accounts_pkey |       2246197248

 2017-02-05 14:47:49.420083+01 | 1486302469.42008 | pgbench_branches_pkey |            40960
 2017-02-05 14:47:49.420083+01 | 1486302469.42008 | pgbench_tellers_pkey  |           245760
 2017-02-05 14:47:49.420083+01 | 1486302469.42008 | pgbench_accounts_pkey |       2246197248

 2017-02-05 14:47:50.498807+01 | 1486302470.49881 | pgbench_branches_pkey |            40960
 2017-02-05 14:47:50.498807+01 | 1486302470.49881 | pgbench_tellers_pkey  |           245760
 2017-02-05 14:47:50.498807+01 | 1486302470.49881 | pgbench_accounts_pkey |       2246197248

 2017-02-05 14:47:51.57028+01 | 1486302471.57028 | pgbench_branches_pkey |            40960
 2017-02-05 14:47:51.57028+01 | 1486302471.57028 | pgbench_tellers_pkey  |           245760
 2017-02-05 14:47:51.57028+01 | 1486302471.57028 | pgbench_accounts_pkey |       2246197248

 2017-02-05 14:47:52.651959+01 | 1486302472.65196 | pgbench_branches_pkey |            40960
 2017-02-05 14:47:52.651959+01 | 1486302472.65196 | pgbench_tellers_pkey  |           245760
 2017-02-05 14:47:52.651959+01 | 1486302472.65196 | pgbench_accounts_pkey |       2246197248

 2017-02-05 14:47:53.730797+01 | 1486302473.7308 | pgbench_branches_pkey |            40960
 2017-02-05 14:47:53.730797+01 | 1486302473.7308 | pgbench_tellers_pkey  |           245760
 2017-02-05 14:47:53.730797+01 | 1486302473.7308 | pgbench_accounts_pkey |       2246197248

 2017-02-05 14:47:54.810052+01 | 1486302474.81005 | pgbench_branches_pkey |            40960
 2017-02-05 14:47:54.810052+01 | 1486302474.81005 | pgbench_tellers_pkey  |           245760
 2017-02-05 14:47:54.810052+01 | 1486302474.81005 | pgbench_accounts_pkey |       2246197248

 2017-02-05 14:47:55.896258+01 | 1486302475.89626 | pgbench_branches_pkey |            40960
 2017-02-05 14:47:55.896258+01 | 1486302475.89626 | pgbench_tellers_pkey  |           245760
 2017-02-05 14:47:55.896258+01 | 1486302475.89626 | pgbench_accounts_pkey |       2246197248

 2017-02-05 14:47:56.976363+01 | 1486302476.97636 | pgbench_branches_pkey |            40960
 2017-02-05 14:47:56.976363+01 | 1486302476.97636 | pgbench_tellers_pkey  |           245760
 2017-02-05 14:47:56.976363+01 | 1486302476.97636 | pgbench_accounts_pkey |       2246197248

 2017-02-05 14:47:58.062095+01 | 1486302478.06209 | pgbench_branches_pkey |            40960
 2017-02-05 14:47:58.062095+01 | 1486302478.06209 | pgbench_tellers_pkey  |           245760
 2017-02-05 14:47:58.062095+01 | 1486302478.06209 | pgbench_accounts_pkey |       2246197248

 2017-02-05 14:47:59.149306+01 | 1486302479.14931 | pgbench_branches_pkey |            40960
 2017-02-05 14:47:59.149306+01 | 1486302479.14931 | pgbench_tellers_pkey  |           245760
 2017-02-05 14:47:59.149306+01 | 1486302479.14931 | pgbench_accounts_pkey |       2246197248

 2017-02-05 14:48:00.231198+01 | 1486302480.2312 | pgbench_branches_pkey |            40960
 2017-02-05 14:48:00.231198+01 | 1486302480.2312 | pgbench_tellers_pkey  |           245760
 2017-02-05 14:48:00.231198+01 | 1486302480.2312 | pgbench_accounts_pkey |       2246197248

 2017-02-05 14:48:01.319421+01 | 1486302481.31942 | pgbench_branches_pkey |            40960
 2017-02-05 14:48:01.319421+01 | 1486302481.31942 | pgbench_tellers_pkey  |           245760
 2017-02-05 14:48:01.319421+01 | 1486302481.31942 | pgbench_accounts_pkey |       2246197248

 2017-02-05 14:48:02.405951+01 | 1486302482.40595 | pgbench_branches_pkey |            40960
 2017-02-05 14:48:02.405951+01 | 1486302482.40595 | pgbench_tellers_pkey  |           245760
 2017-02-05 14:48:02.405951+01 | 1486302482.40595 | pgbench_accounts_pkey |       2246197248

 2017-02-05 14:48:03.495341+01 | 1486302483.49534 | pgbench_branches_pkey |            40960
 2017-02-05 14:48:03.495341+01 | 1486302483.49534 | pgbench_tellers_pkey  |           245760
 2017-02-05 14:48:03.495341+01 | 1486302483.49534 | pgbench_accounts_pkey |       2246197248

 2017-02-05 14:48:04.580644+01 | 1486302484.58064 | pgbench_branches_pkey |            40960
 2017-02-05 14:48:04.580644+01 | 1486302484.58064 | pgbench_tellers_pkey  |           245760
 2017-02-05 14:48:04.580644+01 | 1486302484.58064 | pgbench_accounts_pkey |       2246197248

 2017-02-05 14:48:05.664192+01 | 1486302485.66419 | pgbench_branches_pkey |            40960
 2017-02-05 14:48:05.664192+01 | 1486302485.66419 | pgbench_tellers_pkey  |           245760
 2017-02-05 14:48:05.664192+01 | 1486302485.66419 | pgbench_accounts_pkey |       2246197248

 2017-02-05 14:48:06.741673+01 | 1486302486.74167 | pgbench_branches_pkey |            40960
 2017-02-05 14:48:06.741673+01 | 1486302486.74167 | pgbench_tellers_pkey  |           245760
 2017-02-05 14:48:06.741673+01 | 1486302486.74167 | pgbench_accounts_pkey |       2246197248

 2017-02-05 14:48:07.8199+01 | 1486302487.8199 | pgbench_branches_pkey |            40960
 2017-02-05 14:48:07.8199+01 | 1486302487.8199 | pgbench_tellers_pkey  |           245760
 2017-02-05 14:48:07.8199+01 | 1486302487.8199 | pgbench_accounts_pkey |       2246197248

 2017-02-05 14:48:08.903249+01 | 1486302488.90325 | pgbench_branches_pkey |            40960
 2017-02-05 14:48:08.903249+01 | 1486302488.90325 | pgbench_tellers_pkey  |           245760
 2017-02-05 14:48:08.903249+01 | 1486302488.90325 | pgbench_accounts_pkey |       2246197248

 2017-02-05 14:48:09.990605+01 | 1486302489.99061 | pgbench_branches_pkey |            40960
 2017-02-05 14:48:09.990605+01 | 1486302489.99061 | pgbench_tellers_pkey  |           245760
 2017-02-05 14:48:09.990605+01 | 1486302489.99061 | pgbench_accounts_pkey |       2246197248

 2017-02-05 14:48:11.06977+01 | 1486302491.06977 | pgbench_branches_pkey |            40960
 2017-02-05 14:48:11.06977+01 | 1486302491.06977 | pgbench_tellers_pkey  |           245760
 2017-02-05 14:48:11.06977+01 | 1486302491.06977 | pgbench_accounts_pkey |       2246197248

 2017-02-05 14:48:12.157202+01 | 1486302492.1572 | pgbench_branches_pkey |            40960
 2017-02-05 14:48:12.157202+01 | 1486302492.1572 | pgbench_tellers_pkey  |           245760
 2017-02-05 14:48:12.157202+01 | 1486302492.1572 | pgbench_accounts_pkey |       2246197248

 2017-02-05 14:48:13.246274+01 | 1486302493.24627 | pgbench_branches_pkey |            40960
 2017-02-05 14:48:13.246274+01 | 1486302493.24627 | pgbench_tellers_pkey  |           245760
 2017-02-05 14:48:13.246274+01 | 1486302493.24627 | pgbench_accounts_pkey |       2246197248

 2017-02-05 14:48:14.330949+01 | 1486302494.33095 | pgbench_branches_pkey |            40960
 2017-02-05 14:48:14.330949+01 | 1486302494.33095 | pgbench_tellers_pkey  |           245760
 2017-02-05 14:48:14.330949+01 | 1486302494.33095 | pgbench_accounts_pkey |       2246197248

 2017-02-05 14:48:15.414184+01 | 1486302495.41418 | pgbench_branches_pkey |            40960
 2017-02-05 14:48:15.414184+01 | 1486302495.41418 | pgbench_tellers_pkey  |           245760
 2017-02-05 14:48:15.414184+01 | 1486302495.41418 | pgbench_accounts_pkey |       2246197248

 2017-02-05 14:48:16.497013+01 | 1486302496.49701 | pgbench_branches_pkey |            40960
 2017-02-05 14:48:16.497013+01 | 1486302496.49701 | pgbench_tellers_pkey  |           245760
 2017-02-05 14:48:16.497013+01 | 1486302496.49701 | pgbench_accounts_pkey |       2246197248

 2017-02-05 14:48:17.576471+01 | 1486302497.57647 | pgbench_branches_pkey |            40960
 2017-02-05 14:48:17.576471+01 | 1486302497.57647 | pgbench_tellers_pkey  |           245760
 2017-02-05 14:48:17.576471+01 | 1486302497.57647 | pgbench_accounts_pkey |       2246197248

 2017-02-05 14:48:18.652866+01 | 1486302498.65287 | pgbench_branches_pkey |            40960
 2017-02-05 14:48:18.652866+01 | 1486302498.65287 | pgbench_tellers_pkey  |           245760
 2017-02-05 14:48:18.652866+01 | 1486302498.65287 | pgbench_accounts_pkey |       2246197248

 2017-02-05 14:48:19.730627+01 | 1486302499.73063 | pgbench_branches_pkey |            40960
 2017-02-05 14:48:19.730627+01 | 1486302499.73063 | pgbench_tellers_pkey  |           245760
 2017-02-05 14:48:19.730627+01 | 1486302499.73063 | pgbench_accounts_pkey |       2246197248

 2017-02-05 14:48:20.808156+01 | 1486302500.80816 | pgbench_branches_pkey |            40960
 2017-02-05 14:48:20.808156+01 | 1486302500.80816 | pgbench_tellers_pkey  |           245760
 2017-02-05 14:48:20.808156+01 | 1486302500.80816 | pgbench_accounts_pkey |       2246197248

 2017-02-05 14:48:21.897687+01 | 1486302501.89769 | pgbench_branches_pkey |            40960
 2017-02-05 14:48:21.897687+01 | 1486302501.89769 | pgbench_tellers_pkey  |           245760
 2017-02-05 14:48:21.897687+01 | 1486302501.89769 | pgbench_accounts_pkey |       2246197248

 2017-02-05 14:48:22.979812+01 | 1486302502.97981 | pgbench_branches_pkey |            40960
 2017-02-05 14:48:22.979812+01 | 1486302502.97981 | pgbench_tellers_pkey  |           245760
 2017-02-05 14:48:22.979812+01 | 1486302502.97981 | pgbench_accounts_pkey |       2246197248

 2017-02-05 14:48:24.065956+01 | 1486302504.06596 | pgbench_branches_pkey |            40960
 2017-02-05 14:48:24.065956+01 | 1486302504.06596 | pgbench_tellers_pkey  |           245760
 2017-02-05 14:48:24.065956+01 | 1486302504.06596 | pgbench_accounts_pkey |       2246197248

 2017-02-05 14:48:25.150644+01 | 1486302505.15064 | pgbench_branches_pkey |            40960
 2017-02-05 14:48:25.150644+01 | 1486302505.15064 | pgbench_tellers_pkey  |           245760
 2017-02-05 14:48:25.150644+01 | 1486302505.15064 | pgbench_accounts_pkey |       2246197248

 2017-02-05 14:48:26.226773+01 | 1486302506.22677 | pgbench_branches_pkey |            40960
 2017-02-05 14:48:26.226773+01 | 1486302506.22677 | pgbench_tellers_pkey  |           245760
 2017-02-05 14:48:26.226773+01 | 1486302506.22677 | pgbench_accounts_pkey |       2246197248

 2017-02-05 14:48:27.316615+01 | 1486302507.31662 | pgbench_branches_pkey |            40960
 2017-02-05 14:48:27.316615+01 | 1486302507.31662 | pgbench_tellers_pkey  |           245760
 2017-02-05 14:48:27.316615+01 | 1486302507.31662 | pgbench_accounts_pkey |       2246197248

 2017-02-05 14:48:28.406532+01 | 1486302508.40653 | pgbench_branches_pkey |            40960
 2017-02-05 14:48:28.406532+01 | 1486302508.40653 | pgbench_tellers_pkey  |           245760
 2017-02-05 14:48:28.406532+01 | 1486302508.40653 | pgbench_accounts_pkey |       2246197248

 2017-02-05 14:48:29.497292+01 | 1486302509.49729 | pgbench_branches_pkey |            40960
 2017-02-05 14:48:29.497292+01 | 1486302509.49729 | pgbench_tellers_pkey  |           245760
 2017-02-05 14:48:29.497292+01 | 1486302509.49729 | pgbench_accounts_pkey |       2246197248

 2017-02-05 14:48:30.58539+01 | 1486302510.58539 | pgbench_branches_pkey |            40960
 2017-02-05 14:48:30.58539+01 | 1486302510.58539 | pgbench_tellers_pkey  |           245760
 2017-02-05 14:48:30.58539+01 | 1486302510.58539 | pgbench_accounts_pkey |       2246197248

 2017-02-05 14:48:31.671267+01 | 1486302511.67127 | pgbench_branches_pkey |            40960
 2017-02-05 14:48:31.671267+01 | 1486302511.67127 | pgbench_tellers_pkey  |           245760
 2017-02-05 14:48:31.671267+01 | 1486302511.67127 | pgbench_accounts_pkey |       2246197248

 2017-02-05 14:48:32.74427+01 | 1486302512.74427 | pgbench_branches_pkey |            40960
 2017-02-05 14:48:32.74427+01 | 1486302512.74427 | pgbench_tellers_pkey  |           245760
 2017-02-05 14:48:32.74427+01 | 1486302512.74427 | pgbench_accounts_pkey |       2246197248

 2017-02-05 14:48:33.822607+01 | 1486302513.82261 | pgbench_branches_pkey |            40960
 2017-02-05 14:48:33.822607+01 | 1486302513.82261 | pgbench_tellers_pkey  |           245760
 2017-02-05 14:48:33.822607+01 | 1486302513.82261 | pgbench_accounts_pkey |       2246197248

 2017-02-05 14:48:34.912089+01 | 1486302514.91209 | pgbench_branches_pkey |            40960
 2017-02-05 14:48:34.912089+01 | 1486302514.91209 | pgbench_tellers_pkey  |           245760
 2017-02-05 14:48:34.912089+01 | 1486302514.91209 | pgbench_accounts_pkey |       2246197248

 2017-02-05 14:48:35.991959+01 | 1486302515.99196 | pgbench_branches_pkey |            40960
 2017-02-05 14:48:35.991959+01 | 1486302515.99196 | pgbench_tellers_pkey  |           245760
 2017-02-05 14:48:35.991959+01 | 1486302515.99196 | pgbench_accounts_pkey |       2246197248

 2017-02-05 14:48:37.076527+01 | 1486302517.07653 | pgbench_branches_pkey |            40960
 2017-02-05 14:48:37.076527+01 | 1486302517.07653 | pgbench_tellers_pkey  |           245760
 2017-02-05 14:48:37.076527+01 | 1486302517.07653 | pgbench_accounts_pkey |       2246197248

 2017-02-05 14:48:38.16615+01 | 1486302518.16615 | pgbench_branches_pkey |            40960
 2017-02-05 14:48:38.16615+01 | 1486302518.16615 | pgbench_tellers_pkey  |           245760
 2017-02-05 14:48:38.16615+01 | 1486302518.16615 | pgbench_accounts_pkey |       2246197248

 2017-02-05 14:48:39.243983+01 | 1486302519.24398 | pgbench_branches_pkey |            40960
 2017-02-05 14:48:39.243983+01 | 1486302519.24398 | pgbench_tellers_pkey  |           245760
 2017-02-05 14:48:39.243983+01 | 1486302519.24398 | pgbench_accounts_pkey |       2246197248

 2017-02-05 14:48:40.328538+01 | 1486302520.32854 | pgbench_branches_pkey |            40960
 2017-02-05 14:48:40.328538+01 | 1486302520.32854 | pgbench_tellers_pkey  |           245760
 2017-02-05 14:48:40.328538+01 | 1486302520.32854 | pgbench_accounts_pkey |       2246197248

 2017-02-05 14:48:41.414172+01 | 1486302521.41417 | pgbench_branches_pkey |            40960
 2017-02-05 14:48:41.414172+01 | 1486302521.41417 | pgbench_tellers_pkey  |           245760
 2017-02-05 14:48:41.414172+01 | 1486302521.41417 | pgbench_accounts_pkey |       2246197248

 2017-02-05 14:48:42.497558+01 | 1486302522.49756 | pgbench_branches_pkey |            40960
 2017-02-05 14:48:42.497558+01 | 1486302522.49756 | pgbench_tellers_pkey  |           245760
 2017-02-05 14:48:42.497558+01 | 1486302522.49756 | pgbench_accounts_pkey |       2246197248

 2017-02-05 14:48:43.580743+01 | 1486302523.58074 | pgbench_branches_pkey |            40960
 2017-02-05 14:48:43.580743+01 | 1486302523.58074 | pgbench_tellers_pkey  |           245760
 2017-02-05 14:48:43.580743+01 | 1486302523.58074 | pgbench_accounts_pkey |       2246197248

 2017-02-05 14:48:44.661553+01 | 1486302524.66155 | pgbench_branches_pkey |            40960
 2017-02-05 14:48:44.661553+01 | 1486302524.66155 | pgbench_tellers_pkey  |           245760
 2017-02-05 14:48:44.661553+01 | 1486302524.66155 | pgbench_accounts_pkey |       2246197248

 2017-02-05 14:48:45.742052+01 | 1486302525.74205 | pgbench_branches_pkey |            40960
 2017-02-05 14:48:45.742052+01 | 1486302525.74205 | pgbench_tellers_pkey  |           245760
 2017-02-05 14:48:45.742052+01 | 1486302525.74205 | pgbench_accounts_pkey |       2246197248

 2017-02-05 14:48:46.822568+01 | 1486302526.82257 | pgbench_branches_pkey |            40960
 2017-02-05 14:48:46.822568+01 | 1486302526.82257 | pgbench_tellers_pkey  |           245760
 2017-02-05 14:48:46.822568+01 | 1486302526.82257 | pgbench_accounts_pkey |       2246197248

 2017-02-05 14:48:47.899353+01 | 1486302527.89935 | pgbench_branches_pkey |            40960
 2017-02-05 14:48:47.899353+01 | 1486302527.89935 | pgbench_tellers_pkey  |           245760
 2017-02-05 14:48:47.899353+01 | 1486302527.89935 | pgbench_accounts_pkey |       2246197248

 2017-02-05 14:48:48.976086+01 | 1486302528.97609 | pgbench_branches_pkey |            40960
 2017-02-05 14:48:48.976086+01 | 1486302528.97609 | pgbench_tellers_pkey  |           245760
 2017-02-05 14:48:48.976086+01 | 1486302528.97609 | pgbench_accounts_pkey |       2246197248

 2017-02-05 14:48:50.055857+01 | 1486302530.05586 | pgbench_branches_pkey |            40960
 2017-02-05 14:48:50.055857+01 | 1486302530.05586 | pgbench_tellers_pkey  |           245760
 2017-02-05 14:48:50.055857+01 | 1486302530.05586 | pgbench_accounts_pkey |       2246197248

 2017-02-05 14:48:51.136532+01 | 1486302531.13653 | pgbench_branches_pkey |            40960
 2017-02-05 14:48:51.136532+01 | 1486302531.13653 | pgbench_tellers_pkey  |           245760
 2017-02-05 14:48:51.136532+01 | 1486302531.13653 | pgbench_accounts_pkey |       2246197248

 2017-02-05 14:48:52.214917+01 | 1486302532.21492 | pgbench_branches_pkey |            40960
 2017-02-05 14:48:52.214917+01 | 1486302532.21492 | pgbench_tellers_pkey  |           245760
 2017-02-05 14:48:52.214917+01 | 1486302532.21492 | pgbench_accounts_pkey |       2246197248

 2017-02-05 14:48:53.301646+01 | 1486302533.30165 | pgbench_branches_pkey |            40960
 2017-02-05 14:48:53.301646+01 | 1486302533.30165 | pgbench_tellers_pkey  |           245760
 2017-02-05 14:48:53.301646+01 | 1486302533.30165 | pgbench_accounts_pkey |       2246197248

 2017-02-05 14:48:54.38437+01 | 1486302534.38437 | pgbench_branches_pkey |            40960
 2017-02-05 14:48:54.38437+01 | 1486302534.38437 | pgbench_tellers_pkey  |           245760
 2017-02-05 14:48:54.38437+01 | 1486302534.38437 | pgbench_accounts_pkey |       2246197248

 2017-02-05 14:48:55.468981+01 | 1486302535.46898 | pgbench_branches_pkey |            40960
 2017-02-05 14:48:55.468981+01 | 1486302535.46898 | pgbench_tellers_pkey  |           245760
 2017-02-05 14:48:55.468981+01 | 1486302535.46898 | pgbench_accounts_pkey |       2246197248

 2017-02-05 14:48:56.552301+01 | 1486302536.5523 | pgbench_branches_pkey |            40960
 2017-02-05 14:48:56.552301+01 | 1486302536.5523 | pgbench_tellers_pkey  |           245760
 2017-02-05 14:48:56.552301+01 | 1486302536.5523 | pgbench_accounts_pkey |       2246197248

 2017-02-05 14:48:57.630778+01 | 1486302537.63078 | pgbench_branches_pkey |            40960
 2017-02-05 14:48:57.630778+01 | 1486302537.63078 | pgbench_tellers_pkey  |           245760
 2017-02-05 14:48:57.630778+01 | 1486302537.63078 | pgbench_accounts_pkey |       2246197248

 2017-02-05 14:48:58.705805+01 | 1486302538.70581 | pgbench_branches_pkey |            40960
 2017-02-05 14:48:58.705805+01 | 1486302538.70581 | pgbench_tellers_pkey  |           245760
 2017-02-05 14:48:58.705805+01 | 1486302538.70581 | pgbench_accounts_pkey |       2246197248

 2017-02-05 14:48:59.788278+01 | 1486302539.78828 | pgbench_branches_pkey |            40960
 2017-02-05 14:48:59.788278+01 | 1486302539.78828 | pgbench_tellers_pkey  |           245760
 2017-02-05 14:48:59.788278+01 | 1486302539.78828 | pgbench_accounts_pkey |       2246197248

 2017-02-05 14:49:00.861201+01 | 1486302540.8612 | pgbench_branches_pkey |            40960
 2017-02-05 14:49:00.861201+01 | 1486302540.8612 | pgbench_tellers_pkey  |           245760
 2017-02-05 14:49:00.861201+01 | 1486302540.8612 | pgbench_accounts_pkey |       2246197248

 2017-02-05 14:49:01.944589+01 | 1486302541.94459 | pgbench_branches_pkey |            40960
 2017-02-05 14:49:01.944589+01 | 1486302541.94459 | pgbench_tellers_pkey  |           245760
 2017-02-05 14:49:01.944589+01 | 1486302541.94459 | pgbench_accounts_pkey |       2246197248

 2017-02-05 14:49:03.024282+01 | 1486302543.02428 | pgbench_branches_pkey |            40960
 2017-02-05 14:49:03.024282+01 | 1486302543.02428 | pgbench_tellers_pkey  |           245760
 2017-02-05 14:49:03.024282+01 | 1486302543.02428 | pgbench_accounts_pkey |       2246197248

 2017-02-05 14:49:04.094433+01 | 1486302544.09443 | pgbench_branches_pkey |            40960
 2017-02-05 14:49:04.094433+01 | 1486302544.09443 | pgbench_tellers_pkey  |           245760
 2017-02-05 14:49:04.094433+01 | 1486302544.09443 | pgbench_accounts_pkey |       2246197248

 2017-02-05 14:49:05.176194+01 | 1486302545.17619 | pgbench_branches_pkey |            40960
 2017-02-05 14:49:05.176194+01 | 1486302545.17619 | pgbench_tellers_pkey  |           245760
 2017-02-05 14:49:05.176194+01 | 1486302545.17619 | pgbench_accounts_pkey |       2246197248

 2017-02-05 14:49:06.254615+01 | 1486302546.25462 | pgbench_branches_pkey |            40960
 2017-02-05 14:49:06.254615+01 | 1486302546.25462 | pgbench_tellers_pkey  |           245760
 2017-02-05 14:49:06.254615+01 | 1486302546.25462 | pgbench_accounts_pkey |       2246197248

 2017-02-05 14:49:07.329279+01 | 1486302547.32928 | pgbench_branches_pkey |            40960
 2017-02-05 14:49:07.329279+01 | 1486302547.32928 | pgbench_tellers_pkey  |           245760
 2017-02-05 14:49:07.329279+01 | 1486302547.32928 | pgbench_accounts_pkey |       2246197248

 2017-02-05 14:49:08.409516+01 | 1486302548.40952 | pgbench_branches_pkey |            40960
 2017-02-05 14:49:08.409516+01 | 1486302548.40952 | pgbench_tellers_pkey  |           245760
 2017-02-05 14:49:08.409516+01 | 1486302548.40952 | pgbench_accounts_pkey |       2246197248

 2017-02-05 14:49:09.497169+01 | 1486302549.49717 | pgbench_branches_pkey |            40960
 2017-02-05 14:49:09.497169+01 | 1486302549.49717 | pgbench_tellers_pkey  |           245760
 2017-02-05 14:49:09.497169+01 | 1486302549.49717 | pgbench_accounts_pkey |       2246197248

 2017-02-05 14:49:10.582472+01 | 1486302550.58247 | pgbench_branches_pkey |            40960
 2017-02-05 14:49:10.582472+01 | 1486302550.58247 | pgbench_tellers_pkey  |           245760
 2017-02-05 14:49:10.582472+01 | 1486302550.58247 | pgbench_accounts_pkey |       2246197248

 2017-02-05 14:49:11.66418+01 | 1486302551.66418 | pgbench_branches_pkey |            40960
 2017-02-05 14:49:11.66418+01 | 1486302551.66418 | pgbench_tellers_pkey  |           245760
 2017-02-05 14:49:11.66418+01 | 1486302551.66418 | pgbench_accounts_pkey |       2246197248

 2017-02-05 14:49:12.744227+01 | 1486302552.74423 | pgbench_branches_pkey |            40960
 2017-02-05 14:49:12.744227+01 | 1486302552.74423 | pgbench_tellers_pkey  |           245760
 2017-02-05 14:49:12.744227+01 | 1486302552.74423 | pgbench_accounts_pkey |       2246197248

 2017-02-05 14:49:13.822172+01 | 1486302553.82217 | pgbench_branches_pkey |            40960
 2017-02-05 14:49:13.822172+01 | 1486302553.82217 | pgbench_tellers_pkey  |           245760
 2017-02-05 14:49:13.822172+01 | 1486302553.82217 | pgbench_accounts_pkey |       2246197248

 2017-02-05 14:49:14.90261+01 | 1486302554.90261 | pgbench_branches_pkey |            40960
 2017-02-05 14:49:14.90261+01 | 1486302554.90261 | pgbench_tellers_pkey  |           245760
 2017-02-05 14:49:14.90261+01 | 1486302554.90261 | pgbench_accounts_pkey |       2246197248

 2017-02-05 14:49:15.982366+01 | 1486302555.98237 | pgbench_branches_pkey |            40960
 2017-02-05 14:49:15.982366+01 | 1486302555.98237 | pgbench_tellers_pkey  |           245760
 2017-02-05 14:49:15.982366+01 | 1486302555.98237 | pgbench_accounts_pkey |       2246197248

 2017-02-05 14:49:17.062407+01 | 1486302557.06241 | pgbench_branches_pkey |            40960
 2017-02-05 14:49:17.062407+01 | 1486302557.06241 | pgbench_tellers_pkey  |           245760
 2017-02-05 14:49:17.062407+01 | 1486302557.06241 | pgbench_accounts_pkey |       2246197248

 2017-02-05 14:49:18.143414+01 | 1486302558.14341 | pgbench_branches_pkey |            40960
 2017-02-05 14:49:18.143414+01 | 1486302558.14341 | pgbench_tellers_pkey  |           245760
 2017-02-05 14:49:18.143414+01 | 1486302558.14341 | pgbench_accounts_pkey |       2246197248

 2017-02-05 14:49:19.226517+01 | 1486302559.22652 | pgbench_branches_pkey |            40960
 2017-02-05 14:49:19.226517+01 | 1486302559.22652 | pgbench_tellers_pkey  |           245760
 2017-02-05 14:49:19.226517+01 | 1486302559.22652 | pgbench_accounts_pkey |       2246197248

 2017-02-05 14:49:20.311595+01 | 1486302560.31159 | pgbench_branches_pkey |            40960
 2017-02-05 14:49:20.311595+01 | 1486302560.31159 | pgbench_tellers_pkey  |           245760
 2017-02-05 14:49:20.311595+01 | 1486302560.31159 | pgbench_accounts_pkey |       2246197248

 2017-02-05 14:49:21.406006+01 | 1486302561.40601 | pgbench_branches_pkey |            40960
 2017-02-05 14:49:21.406006+01 | 1486302561.40601 | pgbench_tellers_pkey  |           245760
 2017-02-05 14:49:21.406006+01 | 1486302561.40601 | pgbench_accounts_pkey |       2246197248

 2017-02-05 14:49:22.487246+01 | 1486302562.48725 | pgbench_branches_pkey |            40960
 2017-02-05 14:49:22.487246+01 | 1486302562.48725 | pgbench_tellers_pkey  |           245760
 2017-02-05 14:49:22.487246+01 | 1486302562.48725 | pgbench_accounts_pkey |       2246197248

 2017-02-05 14:49:23.570724+01 | 1486302563.57072 | pgbench_branches_pkey |            40960
 2017-02-05 14:49:23.570724+01 | 1486302563.57072 | pgbench_tellers_pkey  |           245760
 2017-02-05 14:49:23.570724+01 | 1486302563.57072 | pgbench_accounts_pkey |       2246197248

 2017-02-05 14:49:24.656182+01 | 1486302564.65618 | pgbench_branches_pkey |            40960
 2017-02-05 14:49:24.656182+01 | 1486302564.65618 | pgbench_tellers_pkey  |           245760
 2017-02-05 14:49:24.656182+01 | 1486302564.65618 | pgbench_accounts_pkey |       2246197248

 2017-02-05 14:49:25.72953+01 | 1486302565.72953 | pgbench_branches_pkey |            40960
 2017-02-05 14:49:25.72953+01 | 1486302565.72953 | pgbench_tellers_pkey  |           245760
 2017-02-05 14:49:25.72953+01 | 1486302565.72953 | pgbench_accounts_pkey |       2246197248

 2017-02-05 14:49:26.81105+01 | 1486302566.81105 | pgbench_branches_pkey |            40960
 2017-02-05 14:49:26.81105+01 | 1486302566.81105 | pgbench_tellers_pkey  |           245760
 2017-02-05 14:49:26.81105+01 | 1486302566.81105 | pgbench_accounts_pkey |       2246197248

 2017-02-05 14:49:27.891217+01 | 1486302567.89122 | pgbench_branches_pkey |            40960
 2017-02-05 14:49:27.891217+01 | 1486302567.89122 | pgbench_tellers_pkey  |           245760
 2017-02-05 14:49:27.891217+01 | 1486302567.89122 | pgbench_accounts_pkey |       2246197248

 2017-02-05 14:49:28.971219+01 | 1486302568.97122 | pgbench_branches_pkey |            40960
 2017-02-05 14:49:28.971219+01 | 1486302568.97122 | pgbench_tellers_pkey  |           245760
 2017-02-05 14:49:28.971219+01 | 1486302568.97122 | pgbench_accounts_pkey |       2246197248

 2017-02-05 14:49:30.051667+01 | 1486302570.05167 | pgbench_branches_pkey |            40960
 2017-02-05 14:49:30.051667+01 | 1486302570.05167 | pgbench_tellers_pkey  |           245760
 2017-02-05 14:49:30.051667+01 | 1486302570.05167 | pgbench_accounts_pkey |       2246197248

 2017-02-05 14:49:31.128409+01 | 1486302571.12841 | pgbench_branches_pkey |            40960
 2017-02-05 14:49:31.128409+01 | 1486302571.12841 | pgbench_tellers_pkey  |           245760
 2017-02-05 14:49:31.128409+01 | 1486302571.12841 | pgbench_accounts_pkey |       2246197248

 2017-02-05 14:49:32.210357+01 | 1486302572.21036 | pgbench_branches_pkey |            40960
 2017-02-05 14:49:32.210357+01 | 1486302572.21036 | pgbench_tellers_pkey  |           245760
 2017-02-05 14:49:32.210357+01 | 1486302572.21036 | pgbench_accounts_pkey |       2246197248

 2017-02-05 14:49:33.296593+01 | 1486302573.29659 | pgbench_branches_pkey |            40960
 2017-02-05 14:49:33.296593+01 | 1486302573.29659 | pgbench_tellers_pkey  |           245760
 2017-02-05 14:49:33.296593+01 | 1486302573.29659 | pgbench_accounts_pkey |       2246197248

 2017-02-05 14:49:34.379409+01 | 1486302574.37941 | pgbench_branches_pkey |            40960
 2017-02-05 14:49:34.379409+01 | 1486302574.37941 | pgbench_tellers_pkey  |           245760
 2017-02-05 14:49:34.379409+01 | 1486302574.37941 | pgbench_accounts_pkey |       2246197248

 2017-02-05 14:49:35.460829+01 | 1486302575.46083 | pgbench_branches_pkey |            40960
 2017-02-05 14:49:35.460829+01 | 1486302575.46083 | pgbench_tellers_pkey  |           245760
 2017-02-05 14:49:35.460829+01 | 1486302575.46083 | pgbench_accounts_pkey |       2246197248

 2017-02-05 14:49:36.540873+01 | 1486302576.54087 | pgbench_branches_pkey |            40960
 2017-02-05 14:49:36.540873+01 | 1486302576.54087 | pgbench_tellers_pkey  |           245760
 2017-02-05 14:49:36.540873+01 | 1486302576.54087 | pgbench_accounts_pkey |       2246197248

 2017-02-05 14:49:37.617747+01 | 1486302577.61775 | pgbench_branches_pkey |            40960
 2017-02-05 14:49:37.617747+01 | 1486302577.61775 | pgbench_tellers_pkey  |           245760
 2017-02-05 14:49:37.617747+01 | 1486302577.61775 | pgbench_accounts_pkey |       2246197248

 2017-02-05 14:49:38.700998+01 | 1486302578.701 | pgbench_branches_pkey |            40960
 2017-02-05 14:49:38.700998+01 | 1486302578.701 | pgbench_tellers_pkey  |           245760
 2017-02-05 14:49:38.700998+01 | 1486302578.701 | pgbench_accounts_pkey |       2246197248

 2017-02-05 14:49:39.7838+01 | 1486302579.7838 | pgbench_branches_pkey |            40960
 2017-02-05 14:49:39.7838+01 | 1486302579.7838 | pgbench_tellers_pkey  |           245760
 2017-02-05 14:49:39.7838+01 | 1486302579.7838 | pgbench_accounts_pkey |       2246197248

 2017-02-05 14:49:40.864579+01 | 1486302580.86458 | pgbench_branches_pkey |            40960
 2017-02-05 14:49:40.864579+01 | 1486302580.86458 | pgbench_tellers_pkey  |           245760
 2017-02-05 14:49:40.864579+01 | 1486302580.86458 | pgbench_accounts_pkey |       2246197248

 2017-02-05 14:49:41.948685+01 | 1486302581.94868 | pgbench_branches_pkey |            40960
 2017-02-05 14:49:41.948685+01 | 1486302581.94868 | pgbench_tellers_pkey  |           245760
 2017-02-05 14:49:41.948685+01 | 1486302581.94868 | pgbench_accounts_pkey |       2246197248

 2017-02-05 14:49:43.032392+01 | 1486302583.03239 | pgbench_branches_pkey |            40960
 2017-02-05 14:49:43.032392+01 | 1486302583.03239 | pgbench_tellers_pkey  |           245760
 2017-02-05 14:49:43.032392+01 | 1486302583.03239 | pgbench_accounts_pkey |       2246197248

 2017-02-05 14:49:44.108678+01 | 1486302584.10868 | pgbench_branches_pkey |            40960
 2017-02-05 14:49:44.108678+01 | 1486302584.10868 | pgbench_tellers_pkey  |           245760
 2017-02-05 14:49:44.108678+01 | 1486302584.10868 | pgbench_accounts_pkey |       2246197248

 2017-02-05 14:49:45.191411+01 | 1486302585.19141 | pgbench_branches_pkey |            40960
 2017-02-05 14:49:45.191411+01 | 1486302585.19141 | pgbench_tellers_pkey  |           245760
 2017-02-05 14:49:45.191411+01 | 1486302585.19141 | pgbench_accounts_pkey |       2246197248

 2017-02-05 14:49:46.274892+01 | 1486302586.27489 | pgbench_branches_pkey |            40960
 2017-02-05 14:49:46.274892+01 | 1486302586.27489 | pgbench_tellers_pkey  |           245760
 2017-02-05 14:49:46.274892+01 | 1486302586.27489 | pgbench_accounts_pkey |       2246197248

 2017-02-05 14:49:47.359931+01 | 1486302587.35993 | pgbench_branches_pkey |            40960
 2017-02-05 14:49:47.359931+01 | 1486302587.35993 | pgbench_tellers_pkey  |           245760
 2017-02-05 14:49:47.359931+01 | 1486302587.35993 | pgbench_accounts_pkey |       2246197248

 2017-02-05 14:49:48.448406+01 | 1486302588.44841 | pgbench_branches_pkey |            40960
 2017-02-05 14:49:48.448406+01 | 1486302588.44841 | pgbench_tellers_pkey  |           245760
 2017-02-05 14:49:48.448406+01 | 1486302588.44841 | pgbench_accounts_pkey |       2246197248

 2017-02-05 14:49:49.534274+01 | 1486302589.53427 | pgbench_branches_pkey |            40960
 2017-02-05 14:49:49.534274+01 | 1486302589.53427 | pgbench_tellers_pkey  |           245760
 2017-02-05 14:49:49.534274+01 | 1486302589.53427 | pgbench_accounts_pkey |       2246197248

 2017-02-05 14:49:50.614161+01 | 1486302590.61416 | pgbench_branches_pkey |            40960
 2017-02-05 14:49:50.614161+01 | 1486302590.61416 | pgbench_tellers_pkey  |           245760
 2017-02-05 14:49:50.614161+01 | 1486302590.61416 | pgbench_accounts_pkey |       2246197248

 2017-02-05 14:49:51.69258+01 | 1486302591.69258 | pgbench_branches_pkey |            40960
 2017-02-05 14:49:51.69258+01 | 1486302591.69258 | pgbench_tellers_pkey  |           245760
 2017-02-05 14:49:51.69258+01 | 1486302591.69258 | pgbench_accounts_pkey |       2246197248

 2017-02-05 14:49:52.771893+01 | 1486302592.77189 | pgbench_branches_pkey |            40960
 2017-02-05 14:49:52.771893+01 | 1486302592.77189 | pgbench_tellers_pkey  |           245760
 2017-02-05 14:49:52.771893+01 | 1486302592.77189 | pgbench_accounts_pkey |       2246197248

 2017-02-05 14:49:53.84962+01 | 1486302593.84962 | pgbench_branches_pkey |            40960
 2017-02-05 14:49:53.84962+01 | 1486302593.84962 | pgbench_tellers_pkey  |           245760
 2017-02-05 14:49:53.84962+01 | 1486302593.84962 | pgbench_accounts_pkey |       2246197248

 2017-02-05 14:49:54.930277+01 | 1486302594.93028 | pgbench_branches_pkey |            40960
 2017-02-05 14:49:54.930277+01 | 1486302594.93028 | pgbench_tellers_pkey  |           245760
 2017-02-05 14:49:54.930277+01 | 1486302594.93028 | pgbench_accounts_pkey |       2246197248

 2017-02-05 14:49:56.013567+01 | 1486302596.01357 | pgbench_branches_pkey |            40960
 2017-02-05 14:49:56.013567+01 | 1486302596.01357 | pgbench_tellers_pkey  |           245760
 2017-02-05 14:49:56.013567+01 | 1486302596.01357 | pgbench_accounts_pkey |       2246197248

 2017-02-05 14:49:57.08985+01 | 1486302597.08985 | pgbench_branches_pkey |            40960
 2017-02-05 14:49:57.08985+01 | 1486302597.08985 | pgbench_tellers_pkey  |           245760
 2017-02-05 14:49:57.08985+01 | 1486302597.08985 | pgbench_accounts_pkey |       2246197248

 2017-02-05 14:49:58.177698+01 | 1486302598.1777 | pgbench_branches_pkey |            40960
 2017-02-05 14:49:58.177698+01 | 1486302598.1777 | pgbench_tellers_pkey  |           245760
 2017-02-05 14:49:58.177698+01 | 1486302598.1777 | pgbench_accounts_pkey |       2246197248

 2017-02-05 14:49:59.258883+01 | 1486302599.25888 | pgbench_branches_pkey |            40960
 2017-02-05 14:49:59.258883+01 | 1486302599.25888 | pgbench_tellers_pkey  |           245760
 2017-02-05 14:49:59.258883+01 | 1486302599.25888 | pgbench_accounts_pkey |       2246197248

 2017-02-05 14:50:00.338967+01 | 1486302600.33897 | pgbench_branches_pkey |            40960
 2017-02-05 14:50:00.338967+01 | 1486302600.33897 | pgbench_tellers_pkey  |           245760
 2017-02-05 14:50:00.338967+01 | 1486302600.33897 | pgbench_accounts_pkey |       2246197248

 2017-02-05 14:50:01.419738+01 | 1486302601.41974 | pgbench_branches_pkey |            40960
 2017-02-05 14:50:01.419738+01 | 1486302601.41974 | pgbench_tellers_pkey  |           245760
 2017-02-05 14:50:01.419738+01 | 1486302601.41974 | pgbench_accounts_pkey |       2246197248

 2017-02-05 14:50:02.504385+01 | 1486302602.50438 | pgbench_branches_pkey |            40960
 2017-02-05 14:50:02.504385+01 | 1486302602.50438 | pgbench_tellers_pkey  |           245760
 2017-02-05 14:50:02.504385+01 | 1486302602.50438 | pgbench_accounts_pkey |       2246197248

 2017-02-05 14:50:03.581432+01 | 1486302603.58143 | pgbench_branches_pkey |            40960
 2017-02-05 14:50:03.581432+01 | 1486302603.58143 | pgbench_tellers_pkey  |           245760
 2017-02-05 14:50:03.581432+01 | 1486302603.58143 | pgbench_accounts_pkey |       2246197248

 2017-02-05 14:50:04.666186+01 | 1486302604.66619 | pgbench_branches_pkey |            40960
 2017-02-05 14:50:04.666186+01 | 1486302604.66619 | pgbench_tellers_pkey  |           245760
 2017-02-05 14:50:04.666186+01 | 1486302604.66619 | pgbench_accounts_pkey |       2246197248

 2017-02-05 14:50:05.740255+01 | 1486302605.74026 | pgbench_branches_pkey |            40960
 2017-02-05 14:50:05.740255+01 | 1486302605.74026 | pgbench_tellers_pkey  |           245760
 2017-02-05 14:50:05.740255+01 | 1486302605.74026 | pgbench_accounts_pkey |       2246197248

 2017-02-05 14:50:06.817285+01 | 1486302606.81729 | pgbench_branches_pkey |            40960
 2017-02-05 14:50:06.817285+01 | 1486302606.81729 | pgbench_tellers_pkey  |           245760
 2017-02-05 14:50:06.817285+01 | 1486302606.81729 | pgbench_accounts_pkey |       2246197248

 2017-02-05 14:50:07.899138+01 | 1486302607.89914 | pgbench_branches_pkey |            40960
 2017-02-05 14:50:07.899138+01 | 1486302607.89914 | pgbench_tellers_pkey  |           245760
 2017-02-05 14:50:07.899138+01 | 1486302607.89914 | pgbench_accounts_pkey |       2246197248

 2017-02-05 14:50:08.978103+01 | 1486302608.9781 | pgbench_branches_pkey |            40960
 2017-02-05 14:50:08.978103+01 | 1486302608.9781 | pgbench_tellers_pkey  |           245760
 2017-02-05 14:50:08.978103+01 | 1486302608.9781 | pgbench_accounts_pkey |       2246197248

 2017-02-05 14:50:10.053209+01 | 1486302610.05321 | pgbench_branches_pkey |            40960
 2017-02-05 14:50:10.053209+01 | 1486302610.05321 | pgbench_tellers_pkey  |           245760
 2017-02-05 14:50:10.053209+01 | 1486302610.05321 | pgbench_accounts_pkey |       2246197248

 2017-02-05 14:50:11.137943+01 | 1486302611.13794 | pgbench_branches_pkey |            40960
 2017-02-05 14:50:11.137943+01 | 1486302611.13794 | pgbench_tellers_pkey  |           245760
 2017-02-05 14:50:11.137943+01 | 1486302611.13794 | pgbench_accounts_pkey |       2246197248

 2017-02-05 14:50:12.228093+01 | 1486302612.22809 | pgbench_branches_pkey |            40960
 2017-02-05 14:50:12.228093+01 | 1486302612.22809 | pgbench_tellers_pkey  |           245760
 2017-02-05 14:50:12.228093+01 | 1486302612.22809 | pgbench_accounts_pkey |       2246197248

 2017-02-05 14:50:13.296107+01 | 1486302613.29611 | pgbench_branches_pkey |            40960
 2017-02-05 14:50:13.296107+01 | 1486302613.29611 | pgbench_tellers_pkey  |           245760
 2017-02-05 14:50:13.296107+01 | 1486302613.29611 | pgbench_accounts_pkey |       2246197248

 2017-02-05 14:50:14.380516+01 | 1486302614.38052 | pgbench_branches_pkey |            40960
 2017-02-05 14:50:14.380516+01 | 1486302614.38052 | pgbench_tellers_pkey  |           245760
 2017-02-05 14:50:14.380516+01 | 1486302614.38052 | pgbench_accounts_pkey |       2246197248

 2017-02-05 14:50:15.459905+01 | 1486302615.4599 | pgbench_branches_pkey |            40960
 2017-02-05 14:50:15.459905+01 | 1486302615.4599 | pgbench_tellers_pkey  |           245760
 2017-02-05 14:50:15.459905+01 | 1486302615.4599 | pgbench_accounts_pkey |       2246197248

 2017-02-05 14:50:16.543711+01 | 1486302616.54371 | pgbench_branches_pkey |            40960
 2017-02-05 14:50:16.543711+01 | 1486302616.54371 | pgbench_tellers_pkey  |           245760
 2017-02-05 14:50:16.543711+01 | 1486302616.54371 | pgbench_accounts_pkey |       2246197248

 2017-02-05 14:50:17.641171+01 | 1486302617.64117 | pgbench_branches_pkey |            40960
 2017-02-05 14:50:17.641171+01 | 1486302617.64117 | pgbench_tellers_pkey  |           245760
 2017-02-05 14:50:17.641171+01 | 1486302617.64117 | pgbench_accounts_pkey |       2246197248

 2017-02-05 14:50:18.719388+01 | 1486302618.71939 | pgbench_branches_pkey |            40960
 2017-02-05 14:50:18.719388+01 | 1486302618.71939 | pgbench_tellers_pkey  |           245760
 2017-02-05 14:50:18.719388+01 | 1486302618.71939 | pgbench_accounts_pkey |       2246197248

 2017-02-05 14:50:19.795684+01 | 1486302619.79568 | pgbench_branches_pkey |            40960
 2017-02-05 14:50:19.795684+01 | 1486302619.79568 | pgbench_tellers_pkey  |           245760
 2017-02-05 14:50:19.795684+01 | 1486302619.79568 | pgbench_accounts_pkey |       2246197248

 2017-02-05 14:50:20.876981+01 | 1486302620.87698 | pgbench_branches_pkey |            40960
 2017-02-05 14:50:20.876981+01 | 1486302620.87698 | pgbench_tellers_pkey  |           245760
 2017-02-05 14:50:20.876981+01 | 1486302620.87698 | pgbench_accounts_pkey |       2246197248

 2017-02-05 14:50:21.949362+01 | 1486302621.94936 | pgbench_branches_pkey |            40960
 2017-02-05 14:50:21.949362+01 | 1486302621.94936 | pgbench_tellers_pkey  |           245760
 2017-02-05 14:50:21.949362+01 | 1486302621.94936 | pgbench_accounts_pkey |       2246197248

 2017-02-05 14:50:23.023223+01 | 1486302623.02322 | pgbench_branches_pkey |            40960
 2017-02-05 14:50:23.023223+01 | 1486302623.02322 | pgbench_tellers_pkey  |           245760
 2017-02-05 14:50:23.023223+01 | 1486302623.02322 | pgbench_accounts_pkey |       2246197248

 2017-02-05 14:50:24.099586+01 | 1486302624.09959 | pgbench_branches_pkey |            40960
 2017-02-05 14:50:24.099586+01 | 1486302624.09959 | pgbench_tellers_pkey  |           245760
 2017-02-05 14:50:24.099586+01 | 1486302624.09959 | pgbench_accounts_pkey |       2246197248

 2017-02-05 14:50:25.187757+01 | 1486302625.18776 | pgbench_branches_pkey |            40960
 2017-02-05 14:50:25.187757+01 | 1486302625.18776 | pgbench_tellers_pkey  |           245760
 2017-02-05 14:50:25.187757+01 | 1486302625.18776 | pgbench_accounts_pkey |       2246197248

 2017-02-05 14:50:26.269518+01 | 1486302626.26952 | pgbench_branches_pkey |            40960
 2017-02-05 14:50:26.269518+01 | 1486302626.26952 | pgbench_tellers_pkey  |           245760
 2017-02-05 14:50:26.269518+01 | 1486302626.26952 | pgbench_accounts_pkey |       2246197248

 2017-02-05 14:50:27.353113+01 | 1486302627.35311 | pgbench_branches_pkey |            40960
 2017-02-05 14:50:27.353113+01 | 1486302627.35311 | pgbench_tellers_pkey  |           245760
 2017-02-05 14:50:27.353113+01 | 1486302627.35311 | pgbench_accounts_pkey |       2246197248

 2017-02-05 14:50:28.430847+01 | 1486302628.43085 | pgbench_branches_pkey |            40960
 2017-02-05 14:50:28.430847+01 | 1486302628.43085 | pgbench_tellers_pkey  |           245760
 2017-02-05 14:50:28.430847+01 | 1486302628.43085 | pgbench_accounts_pkey |       2246197248

 2017-02-05 14:50:29.505024+01 | 1486302629.50502 | pgbench_branches_pkey |            40960
 2017-02-05 14:50:29.505024+01 | 1486302629.50502 | pgbench_tellers_pkey  |           245760
 2017-02-05 14:50:29.505024+01 | 1486302629.50502 | pgbench_accounts_pkey |       2246197248

 2017-02-05 14:50:30.589752+01 | 1486302630.58975 | pgbench_branches_pkey |            40960
 2017-02-05 14:50:30.589752+01 | 1486302630.58975 | pgbench_tellers_pkey  |           245760
 2017-02-05 14:50:30.589752+01 | 1486302630.58975 | pgbench_accounts_pkey |       2246197248

 2017-02-05 14:50:31.666849+01 | 1486302631.66685 | pgbench_branches_pkey |            40960
 2017-02-05 14:50:31.666849+01 | 1486302631.66685 | pgbench_tellers_pkey  |           245760
 2017-02-05 14:50:31.666849+01 | 1486302631.66685 | pgbench_accounts_pkey |       2246197248

 2017-02-05 14:50:32.743571+01 | 1486302632.74357 | pgbench_branches_pkey |            40960
 2017-02-05 14:50:32.743571+01 | 1486302632.74357 | pgbench_tellers_pkey  |           245760
 2017-02-05 14:50:32.743571+01 | 1486302632.74357 | pgbench_accounts_pkey |       2246197248

 2017-02-05 14:50:33.82328+01 | 1486302633.82328 | pgbench_branches_pkey |            40960
 2017-02-05 14:50:33.82328+01 | 1486302633.82328 | pgbench_tellers_pkey  |           245760
 2017-02-05 14:50:33.82328+01 | 1486302633.82328 | pgbench_accounts_pkey |       2246197248

 2017-02-05 14:50:34.902416+01 | 1486302634.90242 | pgbench_branches_pkey |            40960
 2017-02-05 14:50:34.902416+01 | 1486302634.90242 | pgbench_tellers_pkey  |           245760
 2017-02-05 14:50:34.902416+01 | 1486302634.90242 | pgbench_accounts_pkey |       2246197248

 2017-02-05 14:50:35.980369+01 | 1486302635.98037 | pgbench_branches_pkey |            40960
 2017-02-05 14:50:35.980369+01 | 1486302635.98037 | pgbench_tellers_pkey  |           245760
 2017-02-05 14:50:35.980369+01 | 1486302635.98037 | pgbench_accounts_pkey |       2246197248

 2017-02-05 14:50:37.062752+01 | 1486302637.06275 | pgbench_branches_pkey |            40960
 2017-02-05 14:50:37.062752+01 | 1486302637.06275 | pgbench_tellers_pkey  |           245760
 2017-02-05 14:50:37.062752+01 | 1486302637.06275 | pgbench_accounts_pkey |       2246197248

 2017-02-05 14:50:38.142233+01 | 1486302638.14223 | pgbench_branches_pkey |            40960
 2017-02-05 14:50:38.142233+01 | 1486302638.14223 | pgbench_tellers_pkey  |           245760
 2017-02-05 14:50:38.142233+01 | 1486302638.14223 | pgbench_accounts_pkey |       2246197248

 2017-02-05 14:50:39.228653+01 | 1486302639.22865 | pgbench_branches_pkey |            40960
 2017-02-05 14:50:39.228653+01 | 1486302639.22865 | pgbench_tellers_pkey  |           245760
 2017-02-05 14:50:39.228653+01 | 1486302639.22865 | pgbench_accounts_pkey |       2246197248

 2017-02-05 14:50:40.31599+01 | 1486302640.31599 | pgbench_branches_pkey |            40960
 2017-02-05 14:50:40.31599+01 | 1486302640.31599 | pgbench_tellers_pkey  |           245760
 2017-02-05 14:50:40.31599+01 | 1486302640.31599 | pgbench_accounts_pkey |       2246197248

 2017-02-05 14:50:41.408388+01 | 1486302641.40839 | pgbench_branches_pkey |            40960
 2017-02-05 14:50:41.408388+01 | 1486302641.40839 | pgbench_tellers_pkey  |           245760
 2017-02-05 14:50:41.408388+01 | 1486302641.40839 | pgbench_accounts_pkey |       2246197248

 2017-02-05 14:50:42.48863+01 | 1486302642.48863 | pgbench_branches_pkey |            40960
 2017-02-05 14:50:42.48863+01 | 1486302642.48863 | pgbench_tellers_pkey  |           245760
 2017-02-05 14:50:42.48863+01 | 1486302642.48863 | pgbench_accounts_pkey |       2246197248

 2017-02-05 14:50:43.585046+01 | 1486302643.58505 | pgbench_branches_pkey |            40960
 2017-02-05 14:50:43.585046+01 | 1486302643.58505 | pgbench_tellers_pkey  |           245760
 2017-02-05 14:50:43.585046+01 | 1486302643.58505 | pgbench_accounts_pkey |       2246197248

 2017-02-05 14:50:44.668286+01 | 1486302644.66829 | pgbench_branches_pkey |            40960
 2017-02-05 14:50:44.668286+01 | 1486302644.66829 | pgbench_tellers_pkey  |           245760
 2017-02-05 14:50:44.668286+01 | 1486302644.66829 | pgbench_accounts_pkey |       2246197248

 2017-02-05 14:50:45.747802+01 | 1486302645.7478 | pgbench_branches_pkey |            40960
 2017-02-05 14:50:45.747802+01 | 1486302645.7478 | pgbench_tellers_pkey  |           245760
 2017-02-05 14:50:45.747802+01 | 1486302645.7478 | pgbench_accounts_pkey |       2246197248

 2017-02-05 14:50:46.826232+01 | 1486302646.82623 | pgbench_branches_pkey |            40960
 2017-02-05 14:50:46.826232+01 | 1486302646.82623 | pgbench_tellers_pkey  |           245760
 2017-02-05 14:50:46.826232+01 | 1486302646.82623 | pgbench_accounts_pkey |       2246197248

 2017-02-05 14:50:47.90227+01 | 1486302647.90227 | pgbench_branches_pkey |            40960
 2017-02-05 14:50:47.90227+01 | 1486302647.90227 | pgbench_tellers_pkey  |           245760
 2017-02-05 14:50:47.90227+01 | 1486302647.90227 | pgbench_accounts_pkey |       2246197248

 2017-02-05 14:50:48.981387+01 | 1486302648.98139 | pgbench_branches_pkey |            40960
 2017-02-05 14:50:48.981387+01 | 1486302648.98139 | pgbench_tellers_pkey  |           245760
 2017-02-05 14:50:48.981387+01 | 1486302648.98139 | pgbench_accounts_pkey |       2246197248

 2017-02-05 14:50:50.072686+01 | 1486302650.07269 | pgbench_branches_pkey |            40960
 2017-02-05 14:50:50.072686+01 | 1486302650.07269 | pgbench_tellers_pkey  |           245760
 2017-02-05 14:50:50.072686+01 | 1486302650.07269 | pgbench_accounts_pkey |       2246197248

 2017-02-05 14:50:51.14814+01 | 1486302651.14814 | pgbench_branches_pkey |            40960
 2017-02-05 14:50:51.14814+01 | 1486302651.14814 | pgbench_tellers_pkey  |           245760
 2017-02-05 14:50:51.14814+01 | 1486302651.14814 | pgbench_accounts_pkey |       2246197248

 2017-02-05 14:50:52.232809+01 | 1486302652.23281 | pgbench_branches_pkey |            40960
 2017-02-05 14:50:52.232809+01 | 1486302652.23281 | pgbench_tellers_pkey  |           245760
 2017-02-05 14:50:52.232809+01 | 1486302652.23281 | pgbench_accounts_pkey |       2246197248

 2017-02-05 14:50:53.309789+01 | 1486302653.30979 | pgbench_branches_pkey |            40960
 2017-02-05 14:50:53.309789+01 | 1486302653.30979 | pgbench_tellers_pkey  |           245760
 2017-02-05 14:50:53.309789+01 | 1486302653.30979 | pgbench_accounts_pkey |       2246197248

 2017-02-05 14:50:54.392694+01 | 1486302654.39269 | pgbench_branches_pkey |            40960
 2017-02-05 14:50:54.392694+01 | 1486302654.39269 | pgbench_tellers_pkey  |           245760
 2017-02-05 14:50:54.392694+01 | 1486302654.39269 | pgbench_accounts_pkey |       2246197248

 2017-02-05 14:50:55.476861+01 | 1486302655.47686 | pgbench_branches_pkey |            40960
 2017-02-05 14:50:55.476861+01 | 1486302655.47686 | pgbench_tellers_pkey  |           245760
 2017-02-05 14:50:55.476861+01 | 1486302655.47686 | pgbench_accounts_pkey |       2246197248

 2017-02-05 14:50:56.56362+01 | 1486302656.56362 | pgbench_branches_pkey |            40960
 2017-02-05 14:50:56.56362+01 | 1486302656.56362 | pgbench_tellers_pkey  |           245760
 2017-02-05 14:50:56.56362+01 | 1486302656.56362 | pgbench_accounts_pkey |       2246197248

 2017-02-05 14:50:57.641775+01 | 1486302657.64177 | pgbench_branches_pkey |            40960
 2017-02-05 14:50:57.641775+01 | 1486302657.64177 | pgbench_tellers_pkey  |           245760
 2017-02-05 14:50:57.641775+01 | 1486302657.64177 | pgbench_accounts_pkey |       2246197248

 2017-02-05 14:50:58.725321+01 | 1486302658.72532 | pgbench_branches_pkey |            40960
 2017-02-05 14:50:58.725321+01 | 1486302658.72532 | pgbench_tellers_pkey  |           245760
 2017-02-05 14:50:58.725321+01 | 1486302658.72532 | pgbench_accounts_pkey |       2246197248

 2017-02-05 14:50:59.802644+01 | 1486302659.80264 | pgbench_branches_pkey |            40960
 2017-02-05 14:50:59.802644+01 | 1486302659.80264 | pgbench_tellers_pkey  |           245760
 2017-02-05 14:50:59.802644+01 | 1486302659.80264 | pgbench_accounts_pkey |       2246197248

 2017-02-05 14:51:00.881565+01 | 1486302660.88157 | pgbench_branches_pkey |            40960
 2017-02-05 14:51:00.881565+01 | 1486302660.88157 | pgbench_tellers_pkey  |           245760
 2017-02-05 14:51:00.881565+01 | 1486302660.88157 | pgbench_accounts_pkey |       2246197248

 2017-02-05 14:51:01.954274+01 | 1486302661.95427 | pgbench_branches_pkey |            40960
 2017-02-05 14:51:01.954274+01 | 1486302661.95427 | pgbench_tellers_pkey  |           245760
 2017-02-05 14:51:01.954274+01 | 1486302661.95427 | pgbench_accounts_pkey |       2246197248

 2017-02-05 14:51:03.033252+01 | 1486302663.03325 | pgbench_branches_pkey |            40960
 2017-02-05 14:51:03.033252+01 | 1486302663.03325 | pgbench_tellers_pkey  |           245760
 2017-02-05 14:51:03.033252+01 | 1486302663.03325 | pgbench_accounts_pkey |       2246197248

 2017-02-05 14:51:04.104752+01 | 1486302664.10475 | pgbench_branches_pkey |            40960
 2017-02-05 14:51:04.104752+01 | 1486302664.10475 | pgbench_tellers_pkey  |           245760
 2017-02-05 14:51:04.104752+01 | 1486302664.10475 | pgbench_accounts_pkey |       2246197248

 2017-02-05 14:51:05.190624+01 | 1486302665.19062 | pgbench_branches_pkey |            40960
 2017-02-05 14:51:05.190624+01 | 1486302665.19062 | pgbench_tellers_pkey  |           245760
 2017-02-05 14:51:05.190624+01 | 1486302665.19062 | pgbench_accounts_pkey |       2246197248

 2017-02-05 14:51:06.271119+01 | 1486302666.27112 | pgbench_branches_pkey |            40960
 2017-02-05 14:51:06.271119+01 | 1486302666.27112 | pgbench_tellers_pkey  |           245760
 2017-02-05 14:51:06.271119+01 | 1486302666.27112 | pgbench_accounts_pkey |       2246197248

 2017-02-05 14:51:07.354887+01 | 1486302667.35489 | pgbench_branches_pkey |            40960
 2017-02-05 14:51:07.354887+01 | 1486302667.35489 | pgbench_tellers_pkey  |           245760
 2017-02-05 14:51:07.354887+01 | 1486302667.35489 | pgbench_accounts_pkey |       2246197248

 2017-02-05 14:51:08.442276+01 | 1486302668.44228 | pgbench_branches_pkey |            40960
 2017-02-05 14:51:08.442276+01 | 1486302668.44228 | pgbench_tellers_pkey  |           245760
 2017-02-05 14:51:08.442276+01 | 1486302668.44228 | pgbench_accounts_pkey |       2246197248

 2017-02-05 14:51:09.529315+01 | 1486302669.52931 | pgbench_branches_pkey |            40960
 2017-02-05 14:51:09.529315+01 | 1486302669.52931 | pgbench_tellers_pkey  |           245760
 2017-02-05 14:51:09.529315+01 | 1486302669.52931 | pgbench_accounts_pkey |       2246197248

 2017-02-05 14:51:10.612304+01 | 1486302670.6123 | pgbench_branches_pkey |            40960
 2017-02-05 14:51:10.612304+01 | 1486302670.6123 | pgbench_tellers_pkey  |           245760
 2017-02-05 14:51:10.612304+01 | 1486302670.6123 | pgbench_accounts_pkey |       2246197248

 2017-02-05 14:51:11.693833+01 | 1486302671.69383 | pgbench_branches_pkey |            40960
 2017-02-05 14:51:11.693833+01 | 1486302671.69383 | pgbench_tellers_pkey  |           245760
 2017-02-05 14:51:11.693833+01 | 1486302671.69383 | pgbench_accounts_pkey |       2246197248

 2017-02-05 14:51:12.769077+01 | 1486302672.76908 | pgbench_branches_pkey |            40960
 2017-02-05 14:51:12.769077+01 | 1486302672.76908 | pgbench_tellers_pkey  |           245760
 2017-02-05 14:51:12.769077+01 | 1486302672.76908 | pgbench_accounts_pkey |       2246197248

 2017-02-05 14:51:13.853122+01 | 1486302673.85312 | pgbench_branches_pkey |            40960
 2017-02-05 14:51:13.853122+01 | 1486302673.85312 | pgbench_tellers_pkey  |           245760
 2017-02-05 14:51:13.853122+01 | 1486302673.85312 | pgbench_accounts_pkey |       2246197248

 2017-02-05 14:51:14.926709+01 | 1486302674.92671 | pgbench_branches_pkey |            40960
 2017-02-05 14:51:14.926709+01 | 1486302674.92671 | pgbench_tellers_pkey  |           245760
 2017-02-05 14:51:14.926709+01 | 1486302674.92671 | pgbench_accounts_pkey |       2246197248

 2017-02-05 14:51:16.011207+01 | 1486302676.01121 | pgbench_branches_pkey |            40960
 2017-02-05 14:51:16.011207+01 | 1486302676.01121 | pgbench_tellers_pkey  |           245760
 2017-02-05 14:51:16.011207+01 | 1486302676.01121 | pgbench_accounts_pkey |       2246197248

 2017-02-05 14:51:17.088848+01 | 1486302677.08885 | pgbench_branches_pkey |            40960
 2017-02-05 14:51:17.088848+01 | 1486302677.08885 | pgbench_tellers_pkey  |           245760
 2017-02-05 14:51:17.088848+01 | 1486302677.08885 | pgbench_accounts_pkey |       2246197248

 2017-02-05 14:51:18.167833+01 | 1486302678.16783 | pgbench_branches_pkey |            40960
 2017-02-05 14:51:18.167833+01 | 1486302678.16783 | pgbench_tellers_pkey  |           245760
 2017-02-05 14:51:18.167833+01 | 1486302678.16783 | pgbench_accounts_pkey |       2246197248

 2017-02-05 14:51:19.244216+01 | 1486302679.24422 | pgbench_branches_pkey |            40960
 2017-02-05 14:51:19.244216+01 | 1486302679.24422 | pgbench_tellers_pkey  |           245760
 2017-02-05 14:51:19.244216+01 | 1486302679.24422 | pgbench_accounts_pkey |       2246197248

