 2017-02-03 17:32:47.871815+01 | 1486139567.87181 |                 0 |              17 |                   497 |                    2 |               2243 |             0 |                0 |          487853 |                     0 |        191842 | 2017-02-03 16:12:20.928298+01

 2017-02-03 17:32:48.952469+01 | 1486139568.95247 |                 0 |              17 |                   497 |                    2 |               2243 |             0 |                0 |          487853 |                     0 |        191842 | 2017-02-03 16:12:20.928298+01

 2017-02-03 17:32:50.046432+01 | 1486139570.04643 |                 0 |              17 |                   497 |                    2 |               2243 |             0 |                0 |          487853 |                     0 |        191842 | 2017-02-03 16:12:20.928298+01

 2017-02-03 17:32:51.133586+01 | 1486139571.13359 |                 0 |              17 |                   497 |                    2 |               2243 |             0 |                0 |          487853 |                     0 |        191842 | 2017-02-03 16:12:20.928298+01

 2017-02-03 17:32:52.217699+01 | 1486139572.2177 |                 0 |              17 |                   497 |                    2 |               2243 |             0 |                0 |          487853 |                     0 |        191842 | 2017-02-03 16:12:20.928298+01

 2017-02-03 17:32:53.298696+01 | 1486139573.2987 |                 0 |              17 |                   497 |                    2 |               2243 |             0 |                0 |          487853 |                     0 |        191842 | 2017-02-03 16:12:20.928298+01

 2017-02-03 17:32:54.379586+01 | 1486139574.37959 |                 0 |              17 |                   497 |                    2 |               2243 |             0 |                0 |          487853 |                     0 |        191842 | 2017-02-03 16:12:20.928298+01

 2017-02-03 17:32:55.463437+01 | 1486139575.46344 |                 0 |              17 |                   497 |                    2 |               2243 |             0 |                0 |          487853 |                     0 |        191842 | 2017-02-03 16:12:20.928298+01

 2017-02-03 17:32:56.557457+01 | 1486139576.55746 |                 0 |              17 |                   497 |                    2 |               2243 |             0 |                0 |          487853 |                     0 |        191842 | 2017-02-03 16:12:20.928298+01

 2017-02-03 17:32:57.652494+01 | 1486139577.65249 |                 0 |              17 |                   497 |                    2 |               2243 |             0 |                0 |          487853 |                     0 |        191842 | 2017-02-03 16:12:20.928298+01

 2017-02-03 17:32:58.734882+01 | 1486139578.73488 |                 0 |              17 |                   497 |                    2 |               2243 |             0 |                0 |          487853 |                     0 |        191842 | 2017-02-03 16:12:20.928298+01

 2017-02-03 17:32:59.823472+01 | 1486139579.82347 |                 0 |              17 |                   497 |                    2 |               2243 |             0 |                0 |          487853 |                     0 |        191842 | 2017-02-03 16:12:20.928298+01

 2017-02-03 17:33:00.910368+01 | 1486139580.91037 |                 0 |              17 |                   497 |                    2 |               2243 |             0 |                0 |          487853 |                     0 |        191842 | 2017-02-03 16:12:20.928298+01

 2017-02-03 17:33:02.000529+01 | 1486139582.00053 |                 0 |              17 |                   497 |                    2 |               2243 |             0 |                0 |          487853 |                     0 |        191842 | 2017-02-03 16:12:20.928298+01

 2017-02-03 17:33:03.086745+01 | 1486139583.08675 |                 0 |              17 |                   497 |                    2 |               2243 |             0 |                0 |          487853 |                     0 |        191842 | 2017-02-03 16:12:20.928298+01

 2017-02-03 17:33:04.179698+01 | 1486139584.1797 |                 0 |              17 |                   497 |                    2 |               2243 |             0 |                0 |          487853 |                     0 |        191842 | 2017-02-03 16:12:20.928298+01

 2017-02-03 17:33:05.261154+01 | 1486139585.26115 |                 0 |              17 |                   497 |                    2 |               2243 |             0 |                0 |          487853 |                     0 |        191842 | 2017-02-03 16:12:20.928298+01

 2017-02-03 17:33:06.353745+01 | 1486139586.35374 |                 0 |              17 |                   497 |                    2 |               2243 |             0 |                0 |          487853 |                     0 |        191842 | 2017-02-03 16:12:20.928298+01

 2017-02-03 17:33:07.437217+01 | 1486139587.43722 |                 0 |              17 |                   497 |                    2 |               2243 |             0 |                0 |          487853 |                     0 |        191842 | 2017-02-03 16:12:20.928298+01

 2017-02-03 17:33:08.52664+01 | 1486139588.52664 |                 0 |              17 |                   497 |                    2 |               2243 |             0 |                0 |          487853 |                     0 |        191842 | 2017-02-03 16:12:20.928298+01

 2017-02-03 17:33:09.615525+01 | 1486139589.61553 |                 0 |              17 |                   497 |                    2 |               2243 |             0 |                0 |          487853 |                     0 |        191842 | 2017-02-03 16:12:20.928298+01

 2017-02-03 17:33:10.702267+01 | 1486139590.70227 |                 0 |              17 |                   497 |                    2 |               2243 |             0 |                0 |          487853 |                     0 |        191842 | 2017-02-03 16:12:20.928298+01

 2017-02-03 17:33:11.790116+01 | 1486139591.79012 |                 0 |              17 |                   497 |                    2 |               2243 |             0 |                0 |          487853 |                     0 |        191842 | 2017-02-03 16:12:20.928298+01

 2017-02-03 17:33:12.886561+01 | 1486139592.88656 |                 0 |              17 |                   497 |                    2 |               2243 |             0 |                0 |          487853 |                     0 |        191842 | 2017-02-03 16:12:20.928298+01

 2017-02-03 17:33:13.977116+01 | 1486139593.97712 |                 0 |              17 |                   497 |                    2 |               2243 |             0 |                0 |          487853 |                     0 |        191842 | 2017-02-03 16:12:20.928298+01

 2017-02-03 17:33:15.069105+01 | 1486139595.0691 |                 0 |              17 |                   497 |                    2 |               2243 |             0 |                0 |          487853 |                     0 |        191842 | 2017-02-03 16:12:20.928298+01

 2017-02-03 17:33:16.158502+01 | 1486139596.1585 |                 0 |              17 |                   497 |                    2 |               2243 |             0 |                0 |          487853 |                     0 |        191842 | 2017-02-03 16:12:20.928298+01

 2017-02-03 17:33:17.248166+01 | 1486139597.24817 |                 0 |              17 |                   497 |                    2 |               2243 |             0 |                0 |          487853 |                     0 |        191842 | 2017-02-03 16:12:20.928298+01

 2017-02-03 17:33:18.336587+01 | 1486139598.33659 |                 0 |              17 |                   497 |                    2 |               2243 |             0 |                0 |          487853 |                     0 |        191842 | 2017-02-03 16:12:20.928298+01

 2017-02-03 17:33:19.426206+01 | 1486139599.42621 |                 0 |              17 |                   497 |                    2 |               2243 |             0 |                0 |          487853 |                     0 |        191842 | 2017-02-03 16:12:20.928298+01

 2017-02-03 17:33:20.514282+01 | 1486139600.51428 |                 0 |              17 |                   497 |                    2 |               2243 |             0 |                0 |          487853 |                     0 |        191842 | 2017-02-03 16:12:20.928298+01

 2017-02-03 17:33:21.598297+01 | 1486139601.5983 |                 0 |              17 |                   497 |                    2 |               2243 |             0 |                0 |          487853 |                     0 |        191842 | 2017-02-03 16:12:20.928298+01

 2017-02-03 17:33:22.692347+01 | 1486139602.69235 |                 0 |              17 |                   497 |                    2 |               2243 |             0 |                0 |          487853 |                     0 |        191842 | 2017-02-03 16:12:20.928298+01

 2017-02-03 17:33:23.774052+01 | 1486139603.77405 |                 0 |              17 |                   497 |                    2 |               2243 |             0 |                0 |          487853 |                     0 |        191842 | 2017-02-03 16:12:20.928298+01

 2017-02-03 17:33:24.859257+01 | 1486139604.85926 |                 0 |              17 |                   497 |                    2 |               2243 |             0 |                0 |          487853 |                     0 |        191842 | 2017-02-03 16:12:20.928298+01

 2017-02-03 17:33:25.946487+01 | 1486139605.94649 |                 0 |              17 |                   497 |                    2 |               2243 |             0 |                0 |          487853 |                     0 |        191842 | 2017-02-03 16:12:20.928298+01

 2017-02-03 17:33:27.038725+01 | 1486139607.03872 |                 0 |              17 |                   497 |                    2 |               2243 |             0 |                0 |          487853 |                     0 |        191842 | 2017-02-03 16:12:20.928298+01

 2017-02-03 17:33:28.125792+01 | 1486139608.12579 |                 0 |              17 |                   497 |                    2 |               2243 |             0 |                0 |          487853 |                     0 |        191842 | 2017-02-03 16:12:20.928298+01

 2017-02-03 17:33:29.203558+01 | 1486139609.20356 |                 0 |              17 |                   497 |                    2 |               2243 |             0 |                0 |          487853 |                     0 |        191842 | 2017-02-03 16:12:20.928298+01

 2017-02-03 17:33:30.292051+01 | 1486139610.29205 |                 0 |              17 |                   497 |                    2 |               2243 |             0 |                0 |          487853 |                     0 |        191842 | 2017-02-03 16:12:20.928298+01

 2017-02-03 17:33:31.38095+01 | 1486139611.38095 |                 0 |              17 |                   497 |                    2 |               2243 |             0 |                0 |          487853 |                     0 |        191842 | 2017-02-03 16:12:20.928298+01

 2017-02-03 17:33:32.46608+01 | 1486139612.46608 |                 0 |              17 |                   497 |                    2 |               2243 |             0 |                0 |          487853 |                     0 |        191842 | 2017-02-03 16:12:20.928298+01

 2017-02-03 17:33:33.553323+01 | 1486139613.55332 |                 0 |              17 |                   497 |                    2 |               2243 |             0 |                0 |          487853 |                     0 |        191842 | 2017-02-03 16:12:20.928298+01

 2017-02-03 17:33:34.636207+01 | 1486139614.63621 |                 0 |              17 |                   497 |                    2 |               2243 |             0 |                0 |          487853 |                     0 |        191842 | 2017-02-03 16:12:20.928298+01

 2017-02-03 17:33:35.720378+01 | 1486139615.72038 |                 0 |              17 |                   497 |                    2 |               2243 |             0 |                0 |          487853 |                     0 |        191842 | 2017-02-03 16:12:20.928298+01

 2017-02-03 17:33:36.814118+01 | 1486139616.81412 |                 0 |              17 |                   497 |                    2 |               2243 |             0 |                0 |          487853 |                     0 |        191842 | 2017-02-03 16:12:20.928298+01

 2017-02-03 17:33:37.89887+01 | 1486139617.89887 |                 0 |              17 |                   497 |                    2 |               2243 |             0 |                0 |          487853 |                     0 |        191842 | 2017-02-03 16:12:20.928298+01

 2017-02-03 17:33:38.987961+01 | 1486139618.98796 |                 0 |              17 |                   497 |                    2 |               2243 |             0 |                0 |          487853 |                     0 |        191842 | 2017-02-03 16:12:20.928298+01

 2017-02-03 17:33:40.072365+01 | 1486139620.07237 |                 0 |              17 |                   497 |                    2 |               2243 |             0 |                0 |          487853 |                     0 |        191842 | 2017-02-03 16:12:20.928298+01

 2017-02-03 17:33:41.156724+01 | 1486139621.15672 |                 0 |              17 |                   497 |                    2 |               2243 |             0 |                0 |          487853 |                     0 |        191842 | 2017-02-03 16:12:20.928298+01

 2017-02-03 17:33:42.24197+01 | 1486139622.24197 |                 0 |              17 |                   497 |                    2 |               2243 |             0 |                0 |          487853 |                     0 |        191842 | 2017-02-03 16:12:20.928298+01

 2017-02-03 17:33:43.32823+01 | 1486139623.32823 |                 0 |              17 |                   497 |                    2 |               2243 |             0 |                0 |          487853 |                     0 |        191842 | 2017-02-03 16:12:20.928298+01

 2017-02-03 17:33:44.416773+01 | 1486139624.41677 |                 0 |              17 |                   497 |                    2 |               2243 |             0 |                0 |          487853 |                     0 |        191842 | 2017-02-03 16:12:20.928298+01

 2017-02-03 17:33:45.503196+01 | 1486139625.5032 |                 0 |              17 |                   497 |                    2 |               2243 |             0 |                0 |          487853 |                     0 |        191842 | 2017-02-03 16:12:20.928298+01

 2017-02-03 17:33:46.588006+01 | 1486139626.58801 |                 0 |              17 |                   497 |                    2 |               2243 |             0 |                0 |          487853 |                     0 |        191842 | 2017-02-03 16:12:20.928298+01

 2017-02-03 17:33:47.673088+01 | 1486139627.67309 |                 0 |              17 |                   497 |                    2 |               2243 |             0 |                0 |          487853 |                     0 |        191842 | 2017-02-03 16:12:20.928298+01

 2017-02-03 17:33:48.759438+01 | 1486139628.75944 |                 0 |              17 |                   497 |                    2 |               2243 |             0 |                0 |          487853 |                     0 |        191842 | 2017-02-03 16:12:20.928298+01

 2017-02-03 17:33:49.846958+01 | 1486139629.84696 |                 0 |              17 |                   497 |                    2 |               2243 |             0 |                0 |          487853 |                     0 |        191842 | 2017-02-03 16:12:20.928298+01

 2017-02-03 17:33:50.940693+01 | 1486139630.94069 |                 0 |              17 |                   497 |                    2 |               2243 |             0 |                0 |          487853 |                     0 |        191842 | 2017-02-03 16:12:20.928298+01

 2017-02-03 17:33:52.031154+01 | 1486139632.03115 |                 0 |              17 |                   497 |                    2 |               2243 |             0 |                0 |          487853 |                     0 |        191842 | 2017-02-03 16:12:20.928298+01

 2017-02-03 17:33:53.116946+01 | 1486139633.11695 |                 0 |              17 |                   497 |                    2 |               2243 |             0 |                0 |          487853 |                     0 |        191842 | 2017-02-03 16:12:20.928298+01

 2017-02-03 17:33:54.209464+01 | 1486139634.20946 |                 0 |              17 |                   497 |                    2 |               2243 |             0 |                0 |          487853 |                     0 |        191842 | 2017-02-03 16:12:20.928298+01

 2017-02-03 17:33:55.300896+01 | 1486139635.3009 |                 0 |              17 |                   497 |                    2 |               2243 |             0 |                0 |          487853 |                     0 |        191842 | 2017-02-03 16:12:20.928298+01

 2017-02-03 17:33:56.39505+01 | 1486139636.39505 |                 0 |              17 |                   497 |                    2 |               2243 |             0 |                0 |          487853 |                     0 |        191842 | 2017-02-03 16:12:20.928298+01

 2017-02-03 17:33:57.473831+01 | 1486139637.47383 |                 0 |              17 |                   497 |                    2 |               2243 |             0 |                0 |          487853 |                     0 |        191842 | 2017-02-03 16:12:20.928298+01

 2017-02-03 17:33:58.560447+01 | 1486139638.56045 |                 0 |              17 |                   497 |                    2 |               2243 |             0 |                0 |          487853 |                     0 |        191842 | 2017-02-03 16:12:20.928298+01

 2017-02-03 17:33:59.651556+01 | 1486139639.65156 |                 0 |              17 |                   497 |                    2 |               2243 |             0 |                0 |          487853 |                     0 |        191842 | 2017-02-03 16:12:20.928298+01

 2017-02-03 17:34:00.739837+01 | 1486139640.73984 |                 0 |              17 |                   497 |                    2 |               2243 |             0 |                0 |          487853 |                     0 |        191842 | 2017-02-03 16:12:20.928298+01

 2017-02-03 17:34:01.82162+01 | 1486139641.82162 |                 0 |              17 |                   497 |                    2 |               2243 |             0 |                0 |          487853 |                     0 |        191842 | 2017-02-03 16:12:20.928298+01

 2017-02-03 17:34:02.916891+01 | 1486139642.91689 |                 0 |              17 |                   497 |                    2 |               2243 |             0 |                0 |          487853 |                     0 |        191842 | 2017-02-03 16:12:20.928298+01

 2017-02-03 17:34:04.001544+01 | 1486139644.00154 |                 0 |              17 |                   497 |                    2 |               2243 |             0 |                0 |          487853 |                     0 |        191842 | 2017-02-03 16:12:20.928298+01

 2017-02-03 17:34:05.093035+01 | 1486139645.09303 |                 0 |              17 |                   497 |                    2 |               2243 |             0 |                0 |          487853 |                     0 |        191842 | 2017-02-03 16:12:20.928298+01

 2017-02-03 17:34:06.185132+01 | 1486139646.18513 |                 0 |              17 |                   497 |                    2 |               2243 |             0 |                0 |          487853 |                     0 |        191842 | 2017-02-03 16:12:20.928298+01

 2017-02-03 17:34:07.271646+01 | 1486139647.27165 |                 0 |              17 |                   497 |                    2 |               2243 |             0 |                0 |          487853 |                     0 |        191842 | 2017-02-03 16:12:20.928298+01

 2017-02-03 17:34:08.362631+01 | 1486139648.36263 |                 0 |              17 |                   497 |                    2 |               2243 |             0 |                0 |          487853 |                     0 |        191842 | 2017-02-03 16:12:20.928298+01

 2017-02-03 17:34:09.451495+01 | 1486139649.45149 |                 0 |              17 |                   497 |                    2 |               2243 |             0 |                0 |          487853 |                     0 |        191842 | 2017-02-03 16:12:20.928298+01

 2017-02-03 17:34:10.544628+01 | 1486139650.54463 |                 0 |              17 |                   497 |                    2 |               2243 |             0 |                0 |          487853 |                     0 |        191842 | 2017-02-03 16:12:20.928298+01

 2017-02-03 17:34:11.63605+01 | 1486139651.63605 |                 0 |              17 |                   497 |                    2 |               2243 |             0 |                0 |          487853 |                     0 |        191842 | 2017-02-03 16:12:20.928298+01

 2017-02-03 17:34:12.722247+01 | 1486139652.72225 |                 0 |              17 |                   497 |                    2 |               2243 |             0 |                0 |          487853 |                     0 |        191842 | 2017-02-03 16:12:20.928298+01

 2017-02-03 17:34:13.819799+01 | 1486139653.8198 |                 0 |              17 |                   497 |                    2 |               2243 |             0 |                0 |          487853 |                     0 |        191842 | 2017-02-03 16:12:20.928298+01

 2017-02-03 17:34:14.907756+01 | 1486139654.90776 |                 0 |              17 |                   497 |                    2 |               2243 |             0 |                0 |          487853 |                     0 |        191842 | 2017-02-03 16:12:20.928298+01

 2017-02-03 17:34:16.002097+01 | 1486139656.0021 |                 0 |              17 |                   497 |                    2 |               2243 |             0 |                0 |          487853 |                     0 |        191842 | 2017-02-03 16:12:20.928298+01

 2017-02-03 17:34:17.089575+01 | 1486139657.08958 |                 0 |              17 |                   497 |                    2 |               2243 |             0 |                0 |          487853 |                     0 |        191842 | 2017-02-03 16:12:20.928298+01

 2017-02-03 17:34:18.179738+01 | 1486139658.17974 |                 0 |              17 |                   497 |                    2 |               2243 |             0 |                0 |          487853 |                     0 |        191842 | 2017-02-03 16:12:20.928298+01

 2017-02-03 17:34:19.265251+01 | 1486139659.26525 |                 0 |              17 |                   497 |                    2 |               2243 |             0 |                0 |          487853 |                     0 |        191842 | 2017-02-03 16:12:20.928298+01

 2017-02-03 17:34:20.356609+01 | 1486139660.35661 |                 0 |              17 |                   497 |                    2 |               2243 |             0 |                0 |          487853 |                     0 |        191842 | 2017-02-03 16:12:20.928298+01

 2017-02-03 17:34:21.445218+01 | 1486139661.44522 |                 0 |              17 |                   497 |                    2 |               2243 |             0 |                0 |          487853 |                     0 |        191842 | 2017-02-03 16:12:20.928298+01

 2017-02-03 17:34:22.524441+01 | 1486139662.52444 |                 0 |              17 |                   497 |                    2 |               2243 |             0 |                0 |          487853 |                     0 |        191842 | 2017-02-03 16:12:20.928298+01

 2017-02-03 17:34:23.611307+01 | 1486139663.61131 |                 0 |              17 |                   497 |                    2 |               2243 |             0 |                0 |          487853 |                     0 |        191842 | 2017-02-03 16:12:20.928298+01

 2017-02-03 17:34:24.693806+01 | 1486139664.69381 |                 0 |              17 |                   497 |                    2 |               2243 |             0 |                0 |          487853 |                     0 |        191842 | 2017-02-03 16:12:20.928298+01

 2017-02-03 17:34:25.778135+01 | 1486139665.77814 |                 0 |              17 |                   497 |                    2 |               2243 |             0 |                0 |          487853 |                     0 |        191842 | 2017-02-03 16:12:20.928298+01

 2017-02-03 17:34:26.863304+01 | 1486139666.8633 |                 0 |              17 |                   497 |                    2 |               2243 |             0 |                0 |          487853 |                     0 |        191842 | 2017-02-03 16:12:20.928298+01

 2017-02-03 17:34:27.945128+01 | 1486139667.94513 |                 0 |              17 |                   497 |                    2 |               2243 |             0 |                0 |          487853 |                     0 |        191842 | 2017-02-03 16:12:20.928298+01

 2017-02-03 17:34:29.029669+01 | 1486139669.02967 |                 0 |              17 |                   497 |                    2 |               2243 |             0 |                0 |          487853 |                     0 |        191842 | 2017-02-03 16:12:20.928298+01

 2017-02-03 17:34:30.122237+01 | 1486139670.12224 |                 0 |              17 |                   497 |                    2 |               2243 |             0 |                0 |          487853 |                     0 |        191842 | 2017-02-03 16:12:20.928298+01

 2017-02-03 17:34:31.203025+01 | 1486139671.20303 |                 0 |              17 |                   497 |                    2 |               2243 |             0 |                0 |          487853 |                     0 |        191842 | 2017-02-03 16:12:20.928298+01

 2017-02-03 17:34:32.295295+01 | 1486139672.2953 |                 0 |              17 |                   497 |                    2 |               2243 |             0 |                0 |          487853 |                     0 |        191842 | 2017-02-03 16:12:20.928298+01

 2017-02-03 17:34:33.384104+01 | 1486139673.3841 |                 0 |              17 |                   497 |                    2 |               2243 |             0 |                0 |          487853 |                     0 |        191842 | 2017-02-03 16:12:20.928298+01

 2017-02-03 17:34:34.474489+01 | 1486139674.47449 |                 0 |              17 |                   497 |                    2 |               2243 |             0 |                0 |          487853 |                     0 |        191842 | 2017-02-03 16:12:20.928298+01

 2017-02-03 17:34:35.568471+01 | 1486139675.56847 |                 0 |              17 |                   497 |                    2 |               2243 |             0 |                0 |          487853 |                     0 |        191842 | 2017-02-03 16:12:20.928298+01

 2017-02-03 17:34:36.654376+01 | 1486139676.65438 |                 0 |              17 |                   497 |                    2 |               2243 |             0 |                0 |          487853 |                     0 |        191842 | 2017-02-03 16:12:20.928298+01

 2017-02-03 17:34:37.742648+01 | 1486139677.74265 |                 0 |              17 |                   497 |                    2 |               2243 |             0 |                0 |          487853 |                     0 |        191842 | 2017-02-03 16:12:20.928298+01

 2017-02-03 17:34:38.829168+01 | 1486139678.82917 |                 0 |              17 |                   497 |                    2 |               2243 |             0 |                0 |          487853 |                     0 |        191842 | 2017-02-03 16:12:20.928298+01

 2017-02-03 17:34:39.919451+01 | 1486139679.91945 |                 0 |              17 |                   497 |                    2 |               2243 |             0 |                0 |          487853 |                     0 |        191842 | 2017-02-03 16:12:20.928298+01

 2017-02-03 17:34:41.007985+01 | 1486139681.00799 |                 0 |              17 |                   497 |                    2 |               2243 |             0 |                0 |          487853 |                     0 |        191842 | 2017-02-03 16:12:20.928298+01

 2017-02-03 17:34:42.099474+01 | 1486139682.09947 |                 0 |              17 |                   497 |                    2 |               2243 |             0 |                0 |          487853 |                     0 |        191842 | 2017-02-03 16:12:20.928298+01

 2017-02-03 17:34:43.187057+01 | 1486139683.18706 |                 0 |              17 |                   497 |                    2 |               2243 |             0 |                0 |          487853 |                     0 |        191842 | 2017-02-03 16:12:20.928298+01

 2017-02-03 17:34:44.267919+01 | 1486139684.26792 |                 0 |              17 |                   497 |                    2 |               2243 |             0 |                0 |          487853 |                     0 |        191842 | 2017-02-03 16:12:20.928298+01

 2017-02-03 17:34:45.35477+01 | 1486139685.35477 |                 0 |              17 |                   497 |                    2 |               2243 |             0 |                0 |          487853 |                     0 |        191842 | 2017-02-03 16:12:20.928298+01

 2017-02-03 17:34:46.44673+01 | 1486139686.44673 |                 0 |              17 |                   497 |                    2 |               2243 |             0 |                0 |          487853 |                     0 |        191842 | 2017-02-03 16:12:20.928298+01

 2017-02-03 17:34:47.530215+01 | 1486139687.53022 |                 0 |              17 |                   497 |                    2 |               2243 |             0 |                0 |          487853 |                     0 |        191842 | 2017-02-03 16:12:20.928298+01

 2017-02-03 17:34:48.616827+01 | 1486139688.61683 |                 0 |              17 |                   497 |                    2 |               2243 |             0 |                0 |          487853 |                     0 |        191842 | 2017-02-03 16:12:20.928298+01

 2017-02-03 17:34:49.705892+01 | 1486139689.70589 |                 0 |              17 |                   497 |                    2 |               2243 |             0 |                0 |          487853 |                     0 |        191842 | 2017-02-03 16:12:20.928298+01

 2017-02-03 17:34:50.791099+01 | 1486139690.7911 |                 0 |              17 |                   497 |                    2 |               2243 |             0 |                0 |          487853 |                     0 |        191842 | 2017-02-03 16:12:20.928298+01

 2017-02-03 17:34:51.880548+01 | 1486139691.88055 |                 0 |              17 |                   497 |                    2 |               2243 |             0 |                0 |          487853 |                     0 |        191842 | 2017-02-03 16:12:20.928298+01

 2017-02-03 17:34:52.96435+01 | 1486139692.96435 |                 0 |              17 |                   497 |                    2 |               2243 |             0 |                0 |          487853 |                     0 |        191842 | 2017-02-03 16:12:20.928298+01

 2017-02-03 17:34:54.056259+01 | 1486139694.05626 |                 0 |              17 |                   497 |                    2 |               2243 |             0 |                0 |          487853 |                     0 |        191842 | 2017-02-03 16:12:20.928298+01

 2017-02-03 17:34:55.150415+01 | 1486139695.15041 |                 0 |              17 |                   497 |                    2 |               2243 |             0 |                0 |          487853 |                     0 |        191842 | 2017-02-03 16:12:20.928298+01

 2017-02-03 17:34:56.24286+01 | 1486139696.24286 |                 0 |              17 |                   497 |                    2 |               2243 |             0 |                0 |          487853 |                     0 |        191842 | 2017-02-03 16:12:20.928298+01

 2017-02-03 17:34:57.32129+01 | 1486139697.32129 |                 0 |              17 |                   497 |                    2 |               2243 |             0 |                0 |          487853 |                     0 |        191842 | 2017-02-03 16:12:20.928298+01

 2017-02-03 17:34:58.406585+01 | 1486139698.40658 |                 0 |              17 |                   497 |                    2 |               2243 |             0 |                0 |          487853 |                     0 |        191842 | 2017-02-03 16:12:20.928298+01

 2017-02-03 17:34:59.497717+01 | 1486139699.49772 |                 0 |              17 |                   497 |                    2 |               2243 |             0 |                0 |          487853 |                     0 |        191842 | 2017-02-03 16:12:20.928298+01

 2017-02-03 17:35:00.585038+01 | 1486139700.58504 |                 0 |              17 |                   497 |                    2 |               2243 |             0 |                0 |          487853 |                     0 |        191842 | 2017-02-03 16:12:20.928298+01

 2017-02-03 17:35:01.669855+01 | 1486139701.66986 |                 0 |              17 |                   497 |                    2 |               2243 |             0 |                0 |          487853 |                     0 |        191842 | 2017-02-03 16:12:20.928298+01

 2017-02-03 17:35:02.755094+01 | 1486139702.75509 |                 0 |              17 |                   497 |                    2 |               2243 |             0 |                0 |          487853 |                     0 |        191842 | 2017-02-03 16:12:20.928298+01

 2017-02-03 17:35:03.847533+01 | 1486139703.84753 |                 0 |              17 |                   497 |                    2 |               2243 |             0 |                0 |          487853 |                     0 |        191842 | 2017-02-03 16:12:20.928298+01

 2017-02-03 17:35:04.935654+01 | 1486139704.93565 |                 0 |              17 |                   497 |                    2 |               2243 |             0 |                0 |          487853 |                     0 |        191842 | 2017-02-03 16:12:20.928298+01

 2017-02-03 17:35:06.021997+01 | 1486139706.022 |                 0 |              17 |                   497 |                    2 |               2243 |             0 |                0 |          487853 |                     0 |        191842 | 2017-02-03 16:12:20.928298+01

 2017-02-03 17:35:07.105028+01 | 1486139707.10503 |                 0 |              17 |                   497 |                    2 |               2243 |             0 |                0 |          487853 |                     0 |        191842 | 2017-02-03 16:12:20.928298+01

 2017-02-03 17:35:08.191206+01 | 1486139708.19121 |                 0 |              17 |                   497 |                    2 |               2243 |             0 |                0 |          487853 |                     0 |        191842 | 2017-02-03 16:12:20.928298+01

 2017-02-03 17:35:09.282495+01 | 1486139709.2825 |                 0 |              17 |                   497 |                    2 |               2243 |             0 |                0 |          487853 |                     0 |        191842 | 2017-02-03 16:12:20.928298+01

 2017-02-03 17:35:10.367569+01 | 1486139710.36757 |                 0 |              17 |                   497 |                    2 |               2243 |             0 |                0 |          487853 |                     0 |        191842 | 2017-02-03 16:12:20.928298+01

 2017-02-03 17:35:11.456498+01 | 1486139711.4565 |                 0 |              17 |                   497 |                    2 |               2243 |             0 |                0 |          487853 |                     0 |        191842 | 2017-02-03 16:12:20.928298+01

 2017-02-03 17:35:12.538733+01 | 1486139712.53873 |                 0 |              17 |                   497 |                    2 |               2243 |             0 |                0 |          487853 |                     0 |        191842 | 2017-02-03 16:12:20.928298+01

 2017-02-03 17:35:13.619297+01 | 1486139713.6193 |                 0 |              17 |                   497 |                    2 |               2243 |             0 |                0 |          487853 |                     0 |        191842 | 2017-02-03 16:12:20.928298+01

 2017-02-03 17:35:14.699562+01 | 1486139714.69956 |                 0 |              17 |                   497 |                    2 |               2243 |             0 |                0 |          487853 |                     0 |        191842 | 2017-02-03 16:12:20.928298+01

 2017-02-03 17:35:15.779318+01 | 1486139715.77932 |                 0 |              17 |                   497 |                    2 |               2243 |             0 |                0 |          487853 |                     0 |        191842 | 2017-02-03 16:12:20.928298+01

 2017-02-03 17:35:16.864404+01 | 1486139716.8644 |                 0 |              17 |                   497 |                    2 |               2243 |             0 |                0 |          487853 |                     0 |        191842 | 2017-02-03 16:12:20.928298+01

 2017-02-03 17:35:17.954636+01 | 1486139717.95464 |                 0 |              17 |                   497 |                    2 |               2243 |             0 |                0 |          487853 |                     0 |        191842 | 2017-02-03 16:12:20.928298+01

 2017-02-03 17:35:19.049087+01 | 1486139719.04909 |                 0 |              17 |                   497 |                    2 |               2243 |             0 |                0 |          487853 |                     0 |        191842 | 2017-02-03 16:12:20.928298+01

 2017-02-03 17:35:20.14417+01 | 1486139720.14417 |                 0 |              17 |                   497 |                    2 |               2243 |             0 |                0 |          487853 |                     0 |        191842 | 2017-02-03 16:12:20.928298+01

 2017-02-03 17:35:21.228693+01 | 1486139721.22869 |                 0 |              17 |                   497 |                    2 |               2243 |             0 |                0 |          487853 |                     0 |        191842 | 2017-02-03 16:12:20.928298+01

 2017-02-03 17:35:22.312628+01 | 1486139722.31263 |                 0 |              17 |                   497 |                    2 |               2243 |             0 |                0 |          487853 |                     0 |        191842 | 2017-02-03 16:12:20.928298+01

 2017-02-03 17:35:23.398945+01 | 1486139723.39895 |                 0 |              17 |                   497 |                    2 |               2243 |             0 |                0 |          487853 |                     0 |        191842 | 2017-02-03 16:12:20.928298+01

 2017-02-03 17:35:24.487573+01 | 1486139724.48757 |                 0 |              17 |                   497 |                    2 |               2243 |             0 |                0 |          487853 |                     0 |        191842 | 2017-02-03 16:12:20.928298+01

 2017-02-03 17:35:25.573874+01 | 1486139725.57387 |                 0 |              17 |                   497 |                    2 |               2243 |             0 |                0 |          487853 |                     0 |        191842 | 2017-02-03 16:12:20.928298+01

 2017-02-03 17:35:26.664361+01 | 1486139726.66436 |                 0 |              17 |                   497 |                    2 |               2243 |             0 |                0 |          487853 |                     0 |        191842 | 2017-02-03 16:12:20.928298+01

 2017-02-03 17:35:27.756589+01 | 1486139727.75659 |                 0 |              17 |                   497 |                    2 |               2243 |             0 |                0 |          487853 |                     0 |        191842 | 2017-02-03 16:12:20.928298+01

 2017-02-03 17:35:28.844472+01 | 1486139728.84447 |                 0 |              17 |                   497 |                    2 |               2243 |             0 |                0 |          487853 |                     0 |        191842 | 2017-02-03 16:12:20.928298+01

 2017-02-03 17:35:29.931947+01 | 1486139729.93195 |                 0 |              17 |                   497 |                    2 |               2243 |             0 |                0 |          487853 |                     0 |        191842 | 2017-02-03 16:12:20.928298+01

 2017-02-03 17:35:31.022994+01 | 1486139731.02299 |                 0 |              17 |                   497 |                    2 |               2243 |             0 |                0 |          487853 |                     0 |        191842 | 2017-02-03 16:12:20.928298+01

 2017-02-03 17:35:32.115384+01 | 1486139732.11538 |                 0 |              17 |                   497 |                    2 |               2243 |             0 |                0 |          487853 |                     0 |        191842 | 2017-02-03 16:12:20.928298+01

 2017-02-03 17:35:33.206472+01 | 1486139733.20647 |                 0 |              17 |                   497 |                    2 |               2243 |             0 |                0 |          487853 |                     0 |        191842 | 2017-02-03 16:12:20.928298+01

 2017-02-03 17:35:34.297247+01 | 1486139734.29725 |                 0 |              17 |                   497 |                    2 |               2243 |             0 |                0 |          487853 |                     0 |        191842 | 2017-02-03 16:12:20.928298+01

 2017-02-03 17:35:35.383786+01 | 1486139735.38379 |                 0 |              17 |                   497 |                    2 |               2243 |             0 |                0 |          487853 |                     0 |        191842 | 2017-02-03 16:12:20.928298+01

 2017-02-03 17:35:36.46816+01 | 1486139736.46816 |                 0 |              17 |                   497 |                    2 |               2243 |             0 |                0 |          487853 |                     0 |        191842 | 2017-02-03 16:12:20.928298+01

 2017-02-03 17:35:37.553519+01 | 1486139737.55352 |                 0 |              17 |                   497 |                    2 |               2243 |             0 |                0 |          487853 |                     0 |        191842 | 2017-02-03 16:12:20.928298+01

 2017-02-03 17:35:38.641813+01 | 1486139738.64181 |                 0 |              17 |                   497 |                    2 |               2243 |             0 |                0 |          487853 |                     0 |        191842 | 2017-02-03 16:12:20.928298+01

 2017-02-03 17:35:39.732189+01 | 1486139739.73219 |                 0 |              17 |                   497 |                    2 |               2243 |             0 |                0 |          487853 |                     0 |        191842 | 2017-02-03 16:12:20.928298+01

 2017-02-03 17:35:40.818379+01 | 1486139740.81838 |                 0 |              17 |                   497 |                    2 |               2243 |             0 |                0 |          487853 |                     0 |        191842 | 2017-02-03 16:12:20.928298+01

 2017-02-03 17:35:41.905755+01 | 1486139741.90576 |                 0 |              17 |                   497 |                    2 |               2243 |             0 |                0 |          487853 |                     0 |        191842 | 2017-02-03 16:12:20.928298+01

 2017-02-03 17:35:42.991009+01 | 1486139742.99101 |                 0 |              17 |                   497 |                    2 |               2243 |             0 |                0 |          487853 |                     0 |        191842 | 2017-02-03 16:12:20.928298+01

 2017-02-03 17:35:44.080896+01 | 1486139744.0809 |                 0 |              17 |                   497 |                    2 |               2243 |             0 |                0 |          487853 |                     0 |        191842 | 2017-02-03 16:12:20.928298+01

 2017-02-03 17:35:45.167549+01 | 1486139745.16755 |                 0 |              17 |                   497 |                    2 |               2243 |             0 |                0 |          487853 |                     0 |        191842 | 2017-02-03 16:12:20.928298+01

 2017-02-03 17:35:46.260478+01 | 1486139746.26048 |                 0 |              17 |                   497 |                    2 |               2243 |             0 |                0 |          487853 |                     0 |        191842 | 2017-02-03 16:12:20.928298+01

 2017-02-03 17:35:47.344785+01 | 1486139747.34478 |                 0 |              17 |                   497 |                    2 |               2243 |             0 |                0 |          487853 |                     0 |        191842 | 2017-02-03 16:12:20.928298+01

 2017-02-03 17:35:48.432834+01 | 1486139748.43283 |                 0 |              17 |                   497 |                    2 |               2243 |             0 |                0 |          487853 |                     0 |        191842 | 2017-02-03 16:12:20.928298+01

 2017-02-03 17:35:49.514791+01 | 1486139749.51479 |                 0 |              17 |                   497 |                    2 |               2243 |             0 |                0 |          487853 |                     0 |        191842 | 2017-02-03 16:12:20.928298+01

 2017-02-03 17:35:50.605089+01 | 1486139750.60509 |                 0 |              17 |                   497 |                    2 |               2243 |             0 |                0 |          487853 |                     0 |        191842 | 2017-02-03 16:12:20.928298+01

 2017-02-03 17:35:51.692214+01 | 1486139751.69221 |                 0 |              17 |                   497 |                    2 |               2243 |             0 |                0 |          487853 |                     0 |        191842 | 2017-02-03 16:12:20.928298+01

 2017-02-03 17:35:52.777707+01 | 1486139752.77771 |                 0 |              17 |                   497 |                    2 |               2243 |             0 |                0 |          487853 |                     0 |        191842 | 2017-02-03 16:12:20.928298+01

 2017-02-03 17:35:53.864839+01 | 1486139753.86484 |                 0 |              17 |                   497 |                    2 |               2243 |             0 |                0 |          487853 |                     0 |        191842 | 2017-02-03 16:12:20.928298+01

 2017-02-03 17:35:54.952308+01 | 1486139754.95231 |                 0 |              17 |                   497 |                    2 |               2243 |             0 |                0 |          487853 |                     0 |        191842 | 2017-02-03 16:12:20.928298+01

 2017-02-03 17:35:56.033929+01 | 1486139756.03393 |                 0 |              17 |                   497 |                    2 |               2243 |             0 |                0 |          487853 |                     0 |        191842 | 2017-02-03 16:12:20.928298+01

 2017-02-03 17:35:57.125578+01 | 1486139757.12558 |                 0 |              17 |                   497 |                    2 |               2243 |             0 |                0 |          487853 |                     0 |        191842 | 2017-02-03 16:12:20.928298+01

 2017-02-03 17:35:58.22031+01 | 1486139758.22031 |                 0 |              17 |                   497 |                    2 |               2243 |             0 |                0 |          487853 |                     0 |        191842 | 2017-02-03 16:12:20.928298+01

 2017-02-03 17:35:59.312416+01 | 1486139759.31242 |                 0 |              17 |                   497 |                    2 |               2243 |             0 |                0 |          487853 |                     0 |        191842 | 2017-02-03 16:12:20.928298+01

 2017-02-03 17:36:00.405537+01 | 1486139760.40554 |                 0 |              17 |                   497 |                    2 |               2243 |             0 |                0 |          487853 |                     0 |        191842 | 2017-02-03 16:12:20.928298+01

 2017-02-03 17:36:01.494256+01 | 1486139761.49426 |                 0 |              17 |                   497 |                    2 |               2243 |             0 |                0 |          487853 |                     0 |        191842 | 2017-02-03 16:12:20.928298+01

 2017-02-03 17:36:02.582998+01 | 1486139762.583 |                 0 |              17 |                   497 |                    2 |               2243 |             0 |                0 |          487853 |                     0 |        191842 | 2017-02-03 16:12:20.928298+01

 2017-02-03 17:36:03.666026+01 | 1486139763.66603 |                 0 |              17 |                   497 |                    2 |               2243 |             0 |                0 |          487853 |                     0 |        191842 | 2017-02-03 16:12:20.928298+01

 2017-02-03 17:36:04.752974+01 | 1486139764.75297 |                 0 |              17 |                   497 |                    2 |               2243 |             0 |                0 |          487853 |                     0 |        191842 | 2017-02-03 16:12:20.928298+01

 2017-02-03 17:36:05.843632+01 | 1486139765.84363 |                 0 |              17 |                   497 |                    2 |               2243 |             0 |                0 |          487853 |                     0 |        191842 | 2017-02-03 16:12:20.928298+01

 2017-02-03 17:36:06.934355+01 | 1486139766.93436 |                 0 |              17 |                   497 |                    2 |               2243 |             0 |                0 |          487853 |                     0 |        191842 | 2017-02-03 16:12:20.928298+01

 2017-02-03 17:36:08.019417+01 | 1486139768.01942 |                 0 |              17 |                   497 |                    2 |               2243 |             0 |                0 |          487853 |                     0 |        191842 | 2017-02-03 16:12:20.928298+01

 2017-02-03 17:36:09.112638+01 | 1486139769.11264 |                 0 |              17 |                   497 |                    2 |               2243 |             0 |                0 |          487853 |                     0 |        191842 | 2017-02-03 16:12:20.928298+01

 2017-02-03 17:36:10.20387+01 | 1486139770.20387 |                 0 |              17 |                   497 |                    2 |               2243 |             0 |                0 |          487853 |                     0 |        191842 | 2017-02-03 16:12:20.928298+01

 2017-02-03 17:36:11.294543+01 | 1486139771.29454 |                 0 |              17 |                   497 |                    2 |               2243 |             0 |                0 |          487853 |                     0 |        191842 | 2017-02-03 16:12:20.928298+01

 2017-02-03 17:36:12.38594+01 | 1486139772.38594 |                 0 |              17 |                   497 |                    2 |               2243 |             0 |                0 |          487853 |                     0 |        191842 | 2017-02-03 16:12:20.928298+01

 2017-02-03 17:36:13.477367+01 | 1486139773.47737 |                 0 |              17 |                   497 |                    2 |               2243 |             0 |                0 |          487853 |                     0 |        191842 | 2017-02-03 16:12:20.928298+01

 2017-02-03 17:36:14.561388+01 | 1486139774.56139 |                 0 |              17 |                   497 |                    2 |               2243 |             0 |                0 |          487853 |                     0 |        191842 | 2017-02-03 16:12:20.928298+01

 2017-02-03 17:36:15.644293+01 | 1486139775.64429 |                 0 |              17 |                   497 |                    2 |               2243 |             0 |                0 |          487853 |                     0 |        191842 | 2017-02-03 16:12:20.928298+01

 2017-02-03 17:36:16.730213+01 | 1486139776.73021 |                 0 |              17 |                   497 |                    2 |               2243 |             0 |                0 |          487853 |                     0 |        191842 | 2017-02-03 16:12:20.928298+01

 2017-02-03 17:36:17.817166+01 | 1486139777.81717 |                 0 |              17 |                   497 |                    2 |               2243 |             0 |                0 |          487853 |                     0 |        191842 | 2017-02-03 16:12:20.928298+01

 2017-02-03 17:36:18.908507+01 | 1486139778.90851 |                 0 |              17 |                   497 |                    2 |               2243 |             0 |                0 |          487853 |                     0 |        191842 | 2017-02-03 16:12:20.928298+01

 2017-02-03 17:36:19.999167+01 | 1486139779.99917 |                 0 |              17 |                   497 |                    2 |               2243 |             0 |                0 |          487853 |                     0 |        191842 | 2017-02-03 16:12:20.928298+01

 2017-02-03 17:36:21.084792+01 | 1486139781.08479 |                 0 |              17 |                   497 |                    2 |               2243 |             0 |                0 |          487853 |                     0 |        191842 | 2017-02-03 16:12:20.928298+01

 2017-02-03 17:36:22.172575+01 | 1486139782.17257 |                 0 |              17 |                   497 |                    2 |               2243 |             0 |                0 |          487853 |                     0 |        191842 | 2017-02-03 16:12:20.928298+01

 2017-02-03 17:36:23.261664+01 | 1486139783.26166 |                 0 |              17 |                   497 |                    2 |               2243 |             0 |                0 |          487853 |                     0 |        191842 | 2017-02-03 16:12:20.928298+01

 2017-02-03 17:36:24.348925+01 | 1486139784.34893 |                 0 |              17 |                   497 |                    2 |               2243 |             0 |                0 |          487853 |                     0 |        191842 | 2017-02-03 16:12:20.928298+01

 2017-02-03 17:36:25.437819+01 | 1486139785.43782 |                 0 |              17 |                   497 |                    2 |               2243 |             0 |                0 |          487853 |                     0 |        191842 | 2017-02-03 16:12:20.928298+01

 2017-02-03 17:36:26.528915+01 | 1486139786.52891 |                 0 |              17 |                   497 |                    2 |               2243 |             0 |                0 |          487853 |                     0 |        191842 | 2017-02-03 16:12:20.928298+01

 2017-02-03 17:36:27.617289+01 | 1486139787.61729 |                 0 |              17 |                   497 |                    2 |               2243 |             0 |                0 |          487853 |                     0 |        191842 | 2017-02-03 16:12:20.928298+01

 2017-02-03 17:36:28.701149+01 | 1486139788.70115 |                 0 |              17 |                   497 |                    2 |               2243 |             0 |                0 |          487853 |                     0 |        191842 | 2017-02-03 16:12:20.928298+01

 2017-02-03 17:36:29.79015+01 | 1486139789.79015 |                 0 |              17 |                   497 |                    2 |               2243 |             0 |                0 |          487853 |                     0 |        191842 | 2017-02-03 16:12:20.928298+01

 2017-02-03 17:36:30.884107+01 | 1486139790.88411 |                 0 |              17 |                   497 |                    2 |               2243 |             0 |                0 |          487853 |                     0 |        191842 | 2017-02-03 16:12:20.928298+01

 2017-02-03 17:36:31.974526+01 | 1486139791.97453 |                 0 |              17 |                   497 |                    2 |               2243 |             0 |                0 |          487853 |                     0 |        191842 | 2017-02-03 16:12:20.928298+01

 2017-02-03 17:36:33.065144+01 | 1486139793.06514 |                 0 |              17 |                   497 |                    2 |               2243 |             0 |                0 |          487853 |                     0 |        191842 | 2017-02-03 16:12:20.928298+01

 2017-02-03 17:36:34.150114+01 | 1486139794.15011 |                 0 |              17 |                   497 |                    2 |               2243 |             0 |                0 |          487853 |                     0 |        191842 | 2017-02-03 16:12:20.928298+01

 2017-02-03 17:36:35.235209+01 | 1486139795.23521 |                 0 |              17 |                   497 |                    2 |               2243 |             0 |                0 |          487853 |                     0 |        191842 | 2017-02-03 16:12:20.928298+01

 2017-02-03 17:36:36.322589+01 | 1486139796.32259 |                 0 |              17 |                   497 |                    2 |               2243 |             0 |                0 |          487853 |                     0 |        191842 | 2017-02-03 16:12:20.928298+01

 2017-02-03 17:36:37.414551+01 | 1486139797.41455 |                 0 |              17 |                   497 |                    2 |               2243 |             0 |                0 |          487853 |                     0 |        191842 | 2017-02-03 16:12:20.928298+01

 2017-02-03 17:36:38.500666+01 | 1486139798.50067 |                 0 |              17 |                   497 |                    2 |               2243 |             0 |                0 |          487853 |                     0 |        191842 | 2017-02-03 16:12:20.928298+01

 2017-02-03 17:36:39.590162+01 | 1486139799.59016 |                 0 |              17 |                   497 |                    2 |               2243 |             0 |                0 |          487853 |                     0 |        191842 | 2017-02-03 16:12:20.928298+01

 2017-02-03 17:36:40.676941+01 | 1486139800.67694 |                 0 |              17 |                   497 |                    2 |               2243 |             0 |                0 |          487853 |                     0 |        191842 | 2017-02-03 16:12:20.928298+01

 2017-02-03 17:36:41.765544+01 | 1486139801.76554 |                 0 |              17 |                   497 |                    2 |               2243 |             0 |                0 |          487853 |                     0 |        191842 | 2017-02-03 16:12:20.928298+01

 2017-02-03 17:36:42.850802+01 | 1486139802.8508 |                 0 |              17 |                   497 |                    2 |               2243 |             0 |                0 |          487853 |                     0 |        191842 | 2017-02-03 16:12:20.928298+01

 2017-02-03 17:36:43.939596+01 | 1486139803.9396 |                 0 |              17 |                   497 |                    2 |               2243 |             0 |                0 |          487853 |                     0 |        191842 | 2017-02-03 16:12:20.928298+01

 2017-02-03 17:36:45.031132+01 | 1486139805.03113 |                 0 |              17 |                   497 |                    2 |               2243 |             0 |                0 |          487853 |                     0 |        191842 | 2017-02-03 16:12:20.928298+01

 2017-02-03 17:36:46.115091+01 | 1486139806.11509 |                 0 |              17 |                   497 |                    2 |               2243 |             0 |                0 |          487853 |                     0 |        191842 | 2017-02-03 16:12:20.928298+01

 2017-02-03 17:36:47.202789+01 | 1486139807.20279 |                 0 |              17 |                   497 |                    2 |               2243 |             0 |                0 |          487853 |                     0 |        191842 | 2017-02-03 16:12:20.928298+01

 2017-02-03 17:36:48.298398+01 | 1486139808.2984 |                 0 |              17 |                   497 |                    2 |               2243 |             0 |                0 |          487853 |                     0 |        191842 | 2017-02-03 16:12:20.928298+01

 2017-02-03 17:36:49.387781+01 | 1486139809.38778 |                 0 |              17 |                   497 |                    2 |               2243 |             0 |                0 |          487853 |                     0 |        191842 | 2017-02-03 16:12:20.928298+01

 2017-02-03 17:36:50.472362+01 | 1486139810.47236 |                 0 |              17 |                   497 |                    2 |               2243 |             0 |                0 |          487853 |                     0 |        191842 | 2017-02-03 16:12:20.928298+01

 2017-02-03 17:36:51.561114+01 | 1486139811.56111 |                 0 |              17 |                   497 |                    2 |               2243 |             0 |                0 |          487853 |                     0 |        191842 | 2017-02-03 16:12:20.928298+01

 2017-02-03 17:36:52.64292+01 | 1486139812.64292 |                 0 |              17 |                   497 |                    2 |               2243 |             0 |                0 |          487853 |                     0 |        191842 | 2017-02-03 16:12:20.928298+01

 2017-02-03 17:36:53.716027+01 | 1486139813.71603 |                 0 |              17 |                   497 |                    2 |               2243 |             0 |                0 |          487853 |                     0 |        191842 | 2017-02-03 16:12:20.928298+01

 2017-02-03 17:36:54.803392+01 | 1486139814.80339 |                 0 |              17 |                   497 |                    2 |               2243 |             0 |                0 |          487853 |                     0 |        191842 | 2017-02-03 16:12:20.928298+01

 2017-02-03 17:36:55.889015+01 | 1486139815.88901 |                 0 |              17 |                   497 |                    2 |               2243 |             0 |                0 |          487853 |                     0 |        191842 | 2017-02-03 16:12:20.928298+01

 2017-02-03 17:36:56.970559+01 | 1486139816.97056 |                 0 |              17 |                   497 |                    2 |               2243 |             0 |                0 |          487853 |                     0 |        191842 | 2017-02-03 16:12:20.928298+01

 2017-02-03 17:36:58.057215+01 | 1486139818.05721 |                 0 |              17 |                   497 |                    2 |               2243 |             0 |                0 |          487853 |                     0 |        191842 | 2017-02-03 16:12:20.928298+01

 2017-02-03 17:36:59.150051+01 | 1486139819.15005 |                 0 |              17 |                   497 |                    2 |               2243 |             0 |                0 |          487853 |                     0 |        191842 | 2017-02-03 16:12:20.928298+01

 2017-02-03 17:37:00.238516+01 | 1486139820.23852 |                 0 |              17 |                   497 |                    2 |               2243 |             0 |                0 |          487853 |                     0 |        191842 | 2017-02-03 16:12:20.928298+01

 2017-02-03 17:37:01.330216+01 | 1486139821.33022 |                 0 |              17 |                   497 |                    2 |               2243 |             0 |                0 |          487853 |                     0 |        191842 | 2017-02-03 16:12:20.928298+01

 2017-02-03 17:37:02.419152+01 | 1486139822.41915 |                 0 |              17 |                   497 |                    2 |               2243 |             0 |                0 |          487853 |                     0 |        191842 | 2017-02-03 16:12:20.928298+01

 2017-02-03 17:37:03.506239+01 | 1486139823.50624 |                 0 |              17 |                   497 |                    2 |               2243 |             0 |                0 |          487853 |                     0 |        191842 | 2017-02-03 16:12:20.928298+01

 2017-02-03 17:37:04.595158+01 | 1486139824.59516 |                 0 |              17 |                   497 |                    2 |               2243 |             0 |                0 |          487853 |                     0 |        191842 | 2017-02-03 16:12:20.928298+01

 2017-02-03 17:37:05.681365+01 | 1486139825.68137 |                 0 |              17 |                   497 |                    2 |               2243 |             0 |                0 |          487853 |                     0 |        191842 | 2017-02-03 16:12:20.928298+01

 2017-02-03 17:37:06.767246+01 | 1486139826.76725 |                 0 |              17 |                   497 |                    2 |               2243 |             0 |                0 |          487853 |                     0 |        191842 | 2017-02-03 16:12:20.928298+01

 2017-02-03 17:37:07.855594+01 | 1486139827.85559 |                 0 |              17 |                   497 |                    2 |               2243 |             0 |                0 |          487853 |                     0 |        191842 | 2017-02-03 16:12:20.928298+01

 2017-02-03 17:37:08.947714+01 | 1486139828.94771 |                 0 |              17 |                   497 |                    2 |               2243 |             0 |                0 |          487853 |                     0 |        191842 | 2017-02-03 16:12:20.928298+01

 2017-02-03 17:37:10.03976+01 | 1486139830.03976 |                 0 |              17 |                   497 |                    2 |               2243 |             0 |                0 |          487853 |                     0 |        191842 | 2017-02-03 16:12:20.928298+01

 2017-02-03 17:37:11.12768+01 | 1486139831.12768 |                 0 |              17 |                   497 |                    2 |               2243 |             0 |                0 |          487853 |                     0 |        191842 | 2017-02-03 16:12:20.928298+01

 2017-02-03 17:37:12.216716+01 | 1486139832.21672 |                 0 |              17 |                   497 |                    2 |               2243 |             0 |                0 |          487853 |                     0 |        191842 | 2017-02-03 16:12:20.928298+01

 2017-02-03 17:37:13.306241+01 | 1486139833.30624 |                 0 |              17 |                   497 |                    2 |               2243 |             0 |                0 |          487853 |                     0 |        191842 | 2017-02-03 16:12:20.928298+01

 2017-02-03 17:37:14.397628+01 | 1486139834.39763 |                 0 |              17 |                   497 |                    2 |               2243 |             0 |                0 |          487853 |                     0 |        191842 | 2017-02-03 16:12:20.928298+01

 2017-02-03 17:37:15.484661+01 | 1486139835.48466 |                 0 |              17 |                   497 |                    2 |               2243 |             0 |                0 |          487853 |                     0 |        191842 | 2017-02-03 16:12:20.928298+01

 2017-02-03 17:37:16.569473+01 | 1486139836.56947 |                 0 |              17 |                   497 |                    2 |               2243 |             0 |                0 |          487853 |                     0 |        191842 | 2017-02-03 16:12:20.928298+01

 2017-02-03 17:37:17.661749+01 | 1486139837.66175 |                 0 |              17 |                   497 |                    2 |               2243 |             0 |                0 |          487853 |                     0 |        191842 | 2017-02-03 16:12:20.928298+01

 2017-02-03 17:37:18.746416+01 | 1486139838.74642 |                 0 |              17 |                   497 |                    2 |               2243 |             0 |                0 |          487853 |                     0 |        191842 | 2017-02-03 16:12:20.928298+01

 2017-02-03 17:37:19.835128+01 | 1486139839.83513 |                 0 |              17 |                   497 |                    2 |               2243 |             0 |                0 |          487853 |                     0 |        191842 | 2017-02-03 16:12:20.928298+01

 2017-02-03 17:37:20.924691+01 | 1486139840.92469 |                 0 |              17 |                   497 |                    2 |               2243 |             0 |                0 |          487853 |                     0 |        191842 | 2017-02-03 16:12:20.928298+01

 2017-02-03 17:37:22.012987+01 | 1486139842.01299 |                 0 |              17 |                   497 |                    2 |               2243 |             0 |                0 |          487853 |                     0 |        191842 | 2017-02-03 16:12:20.928298+01

 2017-02-03 17:37:23.097125+01 | 1486139843.09713 |                 0 |              17 |                   497 |                    2 |               2243 |             0 |                0 |          487853 |                     0 |        191842 | 2017-02-03 16:12:20.928298+01

 2017-02-03 17:37:24.182733+01 | 1486139844.18273 |                 0 |              17 |                   497 |                    2 |               2243 |             0 |                0 |          487853 |                     0 |        191842 | 2017-02-03 16:12:20.928298+01

 2017-02-03 17:37:25.265535+01 | 1486139845.26554 |                 0 |              17 |                   497 |                    2 |               2243 |             0 |                0 |          487853 |                     0 |        191842 | 2017-02-03 16:12:20.928298+01

 2017-02-03 17:37:26.356232+01 | 1486139846.35623 |                 0 |              17 |                   497 |                    2 |               2243 |             0 |                0 |          487853 |                     0 |        191842 | 2017-02-03 16:12:20.928298+01

 2017-02-03 17:37:27.443415+01 | 1486139847.44341 |                 0 |              17 |                   497 |                    2 |               2243 |             0 |                0 |          487853 |                     0 |        191842 | 2017-02-03 16:12:20.928298+01

 2017-02-03 17:37:28.5328+01 | 1486139848.5328 |                 0 |              17 |                   497 |                    2 |               2243 |             0 |                0 |          487853 |                     0 |        191842 | 2017-02-03 16:12:20.928298+01

 2017-02-03 17:37:29.626127+01 | 1486139849.62613 |                 0 |              17 |                   497 |                    2 |               2243 |             0 |                0 |          487853 |                     0 |        191842 | 2017-02-03 16:12:20.928298+01

 2017-02-03 17:37:30.708954+01 | 1486139850.70895 |                 0 |              17 |                   497 |                    2 |               2243 |             0 |                0 |          487853 |                     0 |        191842 | 2017-02-03 16:12:20.928298+01

 2017-02-03 17:37:31.792156+01 | 1486139851.79216 |                 0 |              17 |                   497 |                    2 |               2243 |             0 |                0 |          487853 |                     0 |        191842 | 2017-02-03 16:12:20.928298+01

 2017-02-03 17:37:32.88045+01 | 1486139852.88045 |                 0 |              17 |                   497 |                    2 |               2243 |             0 |                0 |          487853 |                     0 |        191842 | 2017-02-03 16:12:20.928298+01

 2017-02-03 17:37:33.96749+01 | 1486139853.96749 |                 0 |              17 |                   497 |                    2 |               2243 |             0 |                0 |          487853 |                     0 |        191842 | 2017-02-03 16:12:20.928298+01

 2017-02-03 17:37:35.056832+01 | 1486139855.05683 |                 0 |              17 |                   497 |                    2 |               2243 |             0 |                0 |          487853 |                     0 |        191842 | 2017-02-03 16:12:20.928298+01

 2017-02-03 17:37:36.135071+01 | 1486139856.13507 |                 0 |              17 |                   497 |                    2 |               2243 |             0 |                0 |          487853 |                     0 |        191842 | 2017-02-03 16:12:20.928298+01

 2017-02-03 17:37:37.227187+01 | 1486139857.22719 |                 0 |              17 |                   497 |                    2 |               2243 |             0 |                0 |          487853 |                     0 |        191842 | 2017-02-03 16:12:20.928298+01

 2017-02-03 17:37:38.320072+01 | 1486139858.32007 |                 0 |              17 |                   497 |                    2 |               2243 |             0 |                0 |          487853 |                     0 |        191842 | 2017-02-03 16:12:20.928298+01

 2017-02-03 17:37:39.408323+01 | 1486139859.40832 |                 0 |              17 |                   497 |                    2 |               2243 |             0 |                0 |          487853 |                     0 |        191842 | 2017-02-03 16:12:20.928298+01

 2017-02-03 17:37:40.498405+01 | 1486139860.4984 |                 0 |              17 |                   497 |                    2 |               2243 |             0 |                0 |          487853 |                     0 |        191842 | 2017-02-03 16:12:20.928298+01

 2017-02-03 17:37:41.586748+01 | 1486139861.58675 |                 0 |              17 |                   497 |                    2 |               2243 |             0 |                0 |          487853 |                     0 |        191842 | 2017-02-03 16:12:20.928298+01

 2017-02-03 17:37:42.679469+01 | 1486139862.67947 |                 0 |              17 |                   497 |                    2 |               2243 |             0 |                0 |          487853 |                     0 |        191842 | 2017-02-03 16:12:20.928298+01

 2017-02-03 17:37:43.765806+01 | 1486139863.76581 |                 0 |              17 |                   497 |                    2 |               2243 |             0 |                0 |          487853 |                     0 |        191842 | 2017-02-03 16:12:20.928298+01

 2017-02-03 17:37:44.854065+01 | 1486139864.85406 |                 0 |              17 |                   497 |                    2 |               2243 |             0 |                0 |          487853 |                     0 |        191842 | 2017-02-03 16:12:20.928298+01

 2017-02-03 17:37:45.943368+01 | 1486139865.94337 |                 0 |              17 |                   497 |                    2 |               2243 |             0 |                0 |          487853 |                     0 |        191842 | 2017-02-03 16:12:20.928298+01

 2017-02-03 17:37:47.032628+01 | 1486139867.03263 |                 0 |              17 |                   497 |                    2 |               2243 |             0 |                0 |          487853 |                     0 |        191842 | 2017-02-03 16:12:20.928298+01

