 2017-02-03 17:32:47.79987+01 | 1486139567.79987 | 0/4E3CE2A0               |            1312613024

 2017-02-03 17:32:48.887914+01 | 1486139568.88791 | 0/4E3CE2D8               |            1312613080

 2017-02-03 17:32:49.971255+01 | 1486139569.97126 | 0/4E3CE2D8               |            1312613080

 2017-02-03 17:32:51.063801+01 | 1486139571.0638 | 0/4E3CE2D8               |            1312613080

 2017-02-03 17:32:52.149883+01 | 1486139572.14988 | 0/4E3CE2D8               |            1312613080

 2017-02-03 17:32:53.236165+01 | 1486139573.23617 | 0/4E3CE2D8               |            1312613080

 2017-02-03 17:32:54.317423+01 | 1486139574.31742 | 0/4E3CE2D8               |            1312613080

 2017-02-03 17:32:55.397194+01 | 1486139575.39719 | 0/4E3CE2D8               |            1312613080

 2017-02-03 17:32:56.482773+01 | 1486139576.48277 | 0/4E3CE2D8               |            1312613080

 2017-02-03 17:32:57.577002+01 | 1486139577.577 | 0/4E3CE2D8               |            1312613080

 2017-02-03 17:32:58.668703+01 | 1486139578.6687 | 0/4E3CE2D8               |            1312613080

 2017-02-03 17:32:59.750797+01 | 1486139579.7508 | 0/4E3CE2D8               |            1312613080

 2017-02-03 17:33:00.841833+01 | 1486139580.84183 | 0/4E3CE2D8               |            1312613080

 2017-02-03 17:33:01.929719+01 | 1486139581.92972 | 0/4E3CE2D8               |            1312613080

 2017-02-03 17:33:03.017555+01 | 1486139583.01755 | 0/4E3CE2D8               |            1312613080

 2017-02-03 17:33:04.107895+01 | 1486139584.10789 | 0/4E3CE2D8               |            1312613080

 2017-02-03 17:33:05.195504+01 | 1486139585.1955 | 0/4E3CE2D8               |            1312613080

 2017-02-03 17:33:06.278026+01 | 1486139586.27803 | 0/4E3CE2D8               |            1312613080

 2017-02-03 17:33:07.370088+01 | 1486139587.37009 | 0/4E3CE2D8               |            1312613080

 2017-02-03 17:33:08.454352+01 | 1486139588.45435 | 0/4E3CE2D8               |            1312613080

 2017-02-03 17:33:09.544129+01 | 1486139589.54413 | 0/4E3CE2D8               |            1312613080

 2017-02-03 17:33:10.632352+01 | 1486139590.63235 | 0/4E3CE2D8               |            1312613080

 2017-02-03 17:33:11.718224+01 | 1486139591.71822 | 0/4E3CE2D8               |            1312613080

 2017-02-03 17:33:12.80629+01 | 1486139592.80629 | 0/4E3CE2D8               |            1312613080

 2017-02-03 17:33:13.905294+01 | 1486139593.90529 | 0/4E3CE2D8               |            1312613080

 2017-02-03 17:33:14.995779+01 | 1486139594.99578 | 0/4E3CE2D8               |            1312613080

 2017-02-03 17:33:16.088707+01 | 1486139596.08871 | 0/4E3CE2D8               |            1312613080

 2017-02-03 17:33:17.177266+01 | 1486139597.17727 | 0/4E3CE2D8               |            1312613080

 2017-02-03 17:33:18.26476+01 | 1486139598.26476 | 0/4E3CE2D8               |            1312613080

 2017-02-03 17:33:19.353169+01 | 1486139599.35317 | 0/4E3CE2D8               |            1312613080

 2017-02-03 17:33:20.443787+01 | 1486139600.44379 | 0/4E3CE2D8               |            1312613080

 2017-02-03 17:33:21.528504+01 | 1486139601.5285 | 0/4E3CE2D8               |            1312613080

 2017-02-03 17:33:22.615653+01 | 1486139602.61565 | 0/4E3CE2D8               |            1312613080

 2017-02-03 17:33:23.707974+01 | 1486139603.70797 | 0/4E3CE2D8               |            1312613080

 2017-02-03 17:33:24.790529+01 | 1486139604.79053 | 0/4E3CE2D8               |            1312613080

 2017-02-03 17:33:25.875656+01 | 1486139605.87566 | 0/4E3CE2D8               |            1312613080

 2017-02-03 17:33:26.964339+01 | 1486139606.96434 | 0/4E3CE2D8               |            1312613080

 2017-02-03 17:33:28.056596+01 | 1486139608.0566 | 0/4E3CE2D8               |            1312613080

 2017-02-03 17:33:29.141742+01 | 1486139609.14174 | 0/4E3CE2D8               |            1312613080

 2017-02-03 17:33:30.220385+01 | 1486139610.22039 | 0/4E3CE2D8               |            1312613080

 2017-02-03 17:33:31.307581+01 | 1486139611.30758 | 0/4E3CE2D8               |            1312613080

 2017-02-03 17:33:32.395398+01 | 1486139612.3954 | 0/4E3CE2D8               |            1312613080

 2017-02-03 17:33:33.482772+01 | 1486139613.48277 | 0/4E3CE2D8               |            1312613080

 2017-02-03 17:33:34.569502+01 | 1486139614.5695 | 0/4E3CE2D8               |            1312613080

 2017-02-03 17:33:35.651273+01 | 1486139615.65127 | 0/4E3CE2D8               |            1312613080

 2017-02-03 17:33:36.736635+01 | 1486139616.73663 | 0/4E3CE2D8               |            1312613080

 2017-02-03 17:33:37.831136+01 | 1486139617.83114 | 0/4E3CE2D8               |            1312613080

 2017-02-03 17:33:38.917785+01 | 1486139618.91778 | 0/4E3CE2D8               |            1312613080

 2017-02-03 17:33:40.003917+01 | 1486139620.00392 | 0/4E3CE2D8               |            1312613080

 2017-02-03 17:33:41.089284+01 | 1486139621.08928 | 0/4E3CE2D8               |            1312613080

 2017-02-03 17:33:42.173719+01 | 1486139622.17372 | 0/4E3CE2D8               |            1312613080

 2017-02-03 17:33:43.259125+01 | 1486139623.25912 | 0/4E3CE2D8               |            1312613080

 2017-02-03 17:33:44.346714+01 | 1486139624.34671 | 0/4E3CE2D8               |            1312613080

 2017-02-03 17:33:45.434887+01 | 1486139625.43489 | 0/4E3CE2D8               |            1312613080

 2017-02-03 17:33:46.517528+01 | 1486139626.51753 | 0/4E3CE2D8               |            1312613080

 2017-02-03 17:33:47.606519+01 | 1486139627.60652 | 0/4E3CE2D8               |            1312613080

 2017-02-03 17:33:48.689602+01 | 1486139628.6896 | 0/4E3CE2D8               |            1312613080

 2017-02-03 17:33:49.77715+01 | 1486139629.77715 | 0/4E3CE2D8               |            1312613080

 2017-02-03 17:33:50.863528+01 | 1486139630.86353 | 0/4E3CE2D8               |            1312613080

 2017-02-03 17:33:51.956984+01 | 1486139631.95698 | 0/4E3CE2D8               |            1312613080

 2017-02-03 17:33:53.049467+01 | 1486139633.04947 | 0/4E3CE2D8               |            1312613080

 2017-02-03 17:33:54.135302+01 | 1486139634.1353 | 0/4E3CE2D8               |            1312613080

 2017-02-03 17:33:55.227497+01 | 1486139635.2275 | 0/4E3CE2D8               |            1312613080

 2017-02-03 17:33:56.32004+01 | 1486139636.32004 | 0/4E3CE2D8               |            1312613080

 2017-02-03 17:33:57.410426+01 | 1486139637.41043 | 0/4E3CE2D8               |            1312613080

 2017-02-03 17:33:58.490179+01 | 1486139638.49018 | 0/4E3CE2D8               |            1312613080

 2017-02-03 17:33:59.578147+01 | 1486139639.57815 | 0/4E3CE2D8               |            1312613080

 2017-02-03 17:34:00.673039+01 | 1486139640.67304 | 0/4E3CE2D8               |            1312613080

 2017-02-03 17:34:01.758377+01 | 1486139641.75838 | 0/4E3CE2D8               |            1312613080

 2017-02-03 17:34:02.841852+01 | 1486139642.84185 | 0/4E3CE2D8               |            1312613080

 2017-02-03 17:34:03.934162+01 | 1486139643.93416 | 0/4E3CE2D8               |            1312613080

 2017-02-03 17:34:05.018716+01 | 1486139645.01872 | 0/4E3CE2D8               |            1312613080

 2017-02-03 17:34:06.111677+01 | 1486139646.11168 | 0/4E3CE2D8               |            1312613080

 2017-02-03 17:34:07.20226+01 | 1486139647.20226 | 0/4E3CE2D8               |            1312613080

 2017-02-03 17:34:08.287972+01 | 1486139648.28797 | 0/4E3CE2D8               |            1312613080

 2017-02-03 17:34:09.380451+01 | 1486139649.38045 | 0/4E3CE2D8               |            1312613080

 2017-02-03 17:34:10.471178+01 | 1486139650.47118 | 0/4E3CE2D8               |            1312613080

 2017-02-03 17:34:11.561878+01 | 1486139651.56188 | 0/4E3CE2D8               |            1312613080

 2017-02-03 17:34:12.65207+01 | 1486139652.65207 | 0/4E3CE2D8               |            1312613080

 2017-02-03 17:34:13.73924+01 | 1486139653.73924 | 0/4E3CE2D8               |            1312613080

 2017-02-03 17:34:14.837167+01 | 1486139654.83717 | 0/4E3CE2D8               |            1312613080

 2017-02-03 17:34:15.926977+01 | 1486139655.92698 | 0/4E3CE2D8               |            1312613080

 2017-02-03 17:34:17.019872+01 | 1486139657.01987 | 0/4E3CE2D8               |            1312613080

 2017-02-03 17:34:18.109126+01 | 1486139658.10913 | 0/4E3CE2D8               |            1312613080

 2017-02-03 17:34:19.197337+01 | 1486139659.19734 | 0/4E3CE2D8               |            1312613080

 2017-02-03 17:34:20.281274+01 | 1486139660.28127 | 0/4E3CE2D8               |            1312613080

 2017-02-03 17:34:21.375135+01 | 1486139661.37513 | 0/4E3CE2D8               |            1312613080

 2017-02-03 17:34:22.461252+01 | 1486139662.46125 | 0/4E3CE2D8               |            1312613080

 2017-02-03 17:34:23.541984+01 | 1486139663.54198 | 0/4E3CE2D8               |            1312613080

 2017-02-03 17:34:24.628287+01 | 1486139664.62829 | 0/4E3CE2D8               |            1312613080

 2017-02-03 17:34:25.710692+01 | 1486139665.71069 | 0/4E3CE2D8               |            1312613080

 2017-02-03 17:34:26.795491+01 | 1486139666.79549 | 0/4E3CE2D8               |            1312613080

 2017-02-03 17:34:27.880725+01 | 1486139667.88072 | 0/4E3CE2D8               |            1312613080

 2017-02-03 17:34:28.960247+01 | 1486139668.96025 | 0/4E3CE2D8               |            1312613080

 2017-02-03 17:34:30.047681+01 | 1486139670.04768 | 0/4E3CE2D8               |            1312613080

 2017-02-03 17:34:31.135823+01 | 1486139671.13582 | 0/4E3CE2D8               |            1312613080

 2017-02-03 17:34:32.220594+01 | 1486139672.22059 | 0/4E3CE2D8               |            1312613080

 2017-02-03 17:34:33.312696+01 | 1486139673.3127 | 0/4E3CE2D8               |            1312613080

 2017-02-03 17:34:34.401583+01 | 1486139674.40158 | 0/4E3CE2D8               |            1312613080

 2017-02-03 17:34:35.49215+01 | 1486139675.49215 | 0/4E3CE2D8               |            1312613080

 2017-02-03 17:34:36.585608+01 | 1486139676.58561 | 0/4E3CE2D8               |            1312613080

 2017-02-03 17:34:37.671522+01 | 1486139677.67152 | 0/4E3CE2D8               |            1312613080

 2017-02-03 17:34:38.759676+01 | 1486139678.75968 | 0/4E3CE2D8               |            1312613080

 2017-02-03 17:34:39.846157+01 | 1486139679.84616 | 0/4E3CE2D8               |            1312613080

 2017-02-03 17:34:40.936191+01 | 1486139680.93619 | 0/4E3CE2D8               |            1312613080

 2017-02-03 17:34:42.02566+01 | 1486139682.02566 | 0/4E3CE2D8               |            1312613080

 2017-02-03 17:34:43.115618+01 | 1486139683.11562 | 0/4E3CE2D8               |            1312613080

 2017-02-03 17:34:44.204011+01 | 1486139684.20401 | 0/4E3CE2D8               |            1312613080

 2017-02-03 17:34:45.285297+01 | 1486139685.2853 | 0/4E3CE2D8               |            1312613080

 2017-02-03 17:34:46.372203+01 | 1486139686.3722 | 0/4E3CE2D8               |            1312613080

 2017-02-03 17:34:47.462859+01 | 1486139687.46286 | 0/4E3CE2D8               |            1312613080

 2017-02-03 17:34:48.546824+01 | 1486139688.54682 | 0/4E3CE2D8               |            1312613080

 2017-02-03 17:34:49.635373+01 | 1486139689.63537 | 0/4E3CE2D8               |            1312613080

 2017-02-03 17:34:50.723324+01 | 1486139690.72332 | 0/4E3CE2D8               |            1312613080

 2017-02-03 17:34:51.810251+01 | 1486139691.81025 | 0/4E3CE2D8               |            1312613080

 2017-02-03 17:34:52.894183+01 | 1486139692.89418 | 0/4E3CE2D8               |            1312613080

 2017-02-03 17:34:53.98173+01 | 1486139693.98173 | 0/4E3CE2D8               |            1312613080

 2017-02-03 17:34:55.074756+01 | 1486139695.07476 | 0/4E3CE2D8               |            1312613080

 2017-02-03 17:34:56.168347+01 | 1486139696.16835 | 0/4E3CE2D8               |            1312613080

 2017-02-03 17:34:57.258503+01 | 1486139697.2585 | 0/4E3CE2D8               |            1312613080

 2017-02-03 17:34:58.337861+01 | 1486139698.33786 | 0/4E3CE2D8               |            1312613080

 2017-02-03 17:34:59.425246+01 | 1486139699.42525 | 0/4E3CE2D8               |            1312613080

 2017-02-03 17:35:00.514765+01 | 1486139700.51477 | 0/4E3CE2D8               |            1312613080

 2017-02-03 17:35:01.601727+01 | 1486139701.60173 | 0/4E3CE2D8               |            1312613080

 2017-02-03 17:35:02.685061+01 | 1486139702.68506 | 0/4E3CE2D8               |            1312613080

 2017-02-03 17:35:03.774405+01 | 1486139703.77441 | 0/4E3CE2D8               |            1312613080

 2017-02-03 17:35:04.863583+01 | 1486139704.86358 | 0/4E3CE2D8               |            1312613080

 2017-02-03 17:35:05.952496+01 | 1486139705.9525 | 0/4E3CE2D8               |            1312613080

 2017-02-03 17:35:07.038255+01 | 1486139707.03825 | 0/4E3CE2D8               |            1312613080

 2017-02-03 17:35:08.121785+01 | 1486139708.12178 | 0/4E3CE2D8               |            1312613080

 2017-02-03 17:35:09.207183+01 | 1486139709.20718 | 0/4E3CE2D8               |            1312613080

 2017-02-03 17:35:10.298025+01 | 1486139710.29802 | 0/4E3CE2D8               |            1312613080

 2017-02-03 17:35:11.38607+01 | 1486139711.38607 | 0/4E3CE2D8               |            1312613080

 2017-02-03 17:35:12.475007+01 | 1486139712.47501 | 0/4E3CE2D8               |            1312613080

 2017-02-03 17:35:13.552738+01 | 1486139713.55274 | 0/4E3CE2D8               |            1312613080

 2017-02-03 17:35:14.634181+01 | 1486139714.63418 | 0/4E3CE2D8               |            1312613080

 2017-02-03 17:35:15.716103+01 | 1486139715.7161 | 0/4E3CE2D8               |            1312613080

 2017-02-03 17:35:16.79448+01 | 1486139716.79448 | 0/4E3CE2D8               |            1312613080

 2017-02-03 17:35:17.882436+01 | 1486139717.88244 | 0/4E3CE2D8               |            1312613080

 2017-02-03 17:35:18.972038+01 | 1486139718.97204 | 0/4E3CE2D8               |            1312613080

 2017-02-03 17:35:20.065102+01 | 1486139720.0651 | 0/4E3CE2D8               |            1312613080

 2017-02-03 17:35:21.162149+01 | 1486139721.16215 | 0/4E3CE2D8               |            1312613080

 2017-02-03 17:35:22.24499+01 | 1486139722.24499 | 0/4E3CE2D8               |            1312613080

 2017-02-03 17:35:23.330674+01 | 1486139723.33067 | 0/4E3CE2D8               |            1312613080

 2017-02-03 17:35:24.414964+01 | 1486139724.41496 | 0/4E3CE2D8               |            1312613080

 2017-02-03 17:35:25.50354+01 | 1486139725.50354 | 0/4E3CE2D8               |            1312613080

 2017-02-03 17:35:26.592295+01 | 1486139726.59229 | 0/4E3CE2D8               |            1312613080

 2017-02-03 17:35:27.680994+01 | 1486139727.68099 | 0/4E3CE2D8               |            1312613080

 2017-02-03 17:35:28.772737+01 | 1486139728.77274 | 0/4E3CE2D8               |            1312613080

 2017-02-03 17:35:29.864218+01 | 1486139729.86422 | 0/4E3CE2D8               |            1312613080

 2017-02-03 17:35:30.951624+01 | 1486139730.95162 | 0/4E3CE2D8               |            1312613080

 2017-02-03 17:35:32.03995+01 | 1486139732.03995 | 0/4E3CE2D8               |            1312613080

 2017-02-03 17:35:33.134599+01 | 1486139733.1346 | 0/4E3CE2D8               |            1312613080

 2017-02-03 17:35:34.223331+01 | 1486139734.22333 | 0/4E3CE2D8               |            1312613080

 2017-02-03 17:35:35.312701+01 | 1486139735.3127 | 0/4E3CE2D8               |            1312613080

 2017-02-03 17:35:36.401128+01 | 1486139736.40113 | 0/4E3CE2D8               |            1312613080

 2017-02-03 17:35:37.485987+01 | 1486139737.48599 | 0/4E3CE2D8               |            1312613080

 2017-02-03 17:35:38.570364+01 | 1486139738.57036 | 0/4E3CE2D8               |            1312613080

 2017-02-03 17:35:39.657817+01 | 1486139739.65782 | 0/4E3CE2D8               |            1312613080

 2017-02-03 17:35:40.748741+01 | 1486139740.74874 | 0/4E3CE2D8               |            1312613080

 2017-02-03 17:35:41.835128+01 | 1486139741.83513 | 0/4E3CE2D8               |            1312613080

 2017-02-03 17:35:42.922406+01 | 1486139742.92241 | 0/4E3CE2D8               |            1312613080

 2017-02-03 17:35:44.007368+01 | 1486139744.00737 | 0/4E3CE2D8               |            1312613080

 2017-02-03 17:35:45.096425+01 | 1486139745.09643 | 0/4E3CE2D8               |            1312613080

 2017-02-03 17:35:46.186225+01 | 1486139746.18622 | 0/4E3CE2D8               |            1312613080

 2017-02-03 17:35:47.277864+01 | 1486139747.27786 | 0/4E3CE2D8               |            1312613080

 2017-02-03 17:35:48.360308+01 | 1486139748.36031 | 0/4E3CE2D8               |            1312613080

 2017-02-03 17:35:49.450176+01 | 1486139749.45018 | 0/4E3CE2D8               |            1312613080

 2017-02-03 17:35:50.532659+01 | 1486139750.53266 | 0/4E3CE2D8               |            1312613080

 2017-02-03 17:35:51.622748+01 | 1486139751.62275 | 0/4E3CE2D8               |            1312613080

 2017-02-03 17:35:52.708792+01 | 1486139752.70879 | 0/4E3CE2D8               |            1312613080

 2017-02-03 17:35:53.79309+01 | 1486139753.79309 | 0/4E3CE2D8               |            1312613080

 2017-02-03 17:35:54.883305+01 | 1486139754.88331 | 0/4E3CE2D8               |            1312613080

 2017-02-03 17:35:55.968829+01 | 1486139755.96883 | 0/4E3CE2D8               |            1312613080

 2017-02-03 17:35:57.052445+01 | 1486139757.05244 | 0/4E3CE2D8               |            1312613080

 2017-02-03 17:35:58.146042+01 | 1486139758.14604 | 0/4E3CE2D8               |            1312613080

 2017-02-03 17:35:59.23742+01 | 1486139759.23742 | 0/4E3CE2D8               |            1312613080

 2017-02-03 17:36:00.330191+01 | 1486139760.33019 | 0/4E3CE2D8               |            1312613080

 2017-02-03 17:36:01.421768+01 | 1486139761.42177 | 0/4E3CE2D8               |            1312613080

 2017-02-03 17:36:02.511588+01 | 1486139762.51159 | 0/4E3CE2D8               |            1312613080

 2017-02-03 17:36:03.599097+01 | 1486139763.5991 | 0/4E3CE2D8               |            1312613080

 2017-02-03 17:36:04.683081+01 | 1486139764.68308 | 0/4E3CE2D8               |            1312613080

 2017-02-03 17:36:05.772259+01 | 1486139765.77226 | 0/4E3CE2D8               |            1312613080

 2017-02-03 17:36:06.861501+01 | 1486139766.8615 | 0/4E3CE2D8               |            1312613080

 2017-02-03 17:36:07.951408+01 | 1486139767.95141 | 0/4E3CE2D8               |            1312613080

 2017-02-03 17:36:09.036974+01 | 1486139769.03697 | 0/4E3CE2D8               |            1312613080

 2017-02-03 17:36:10.1317+01 | 1486139770.1317 | 0/4E3CE2D8               |            1312613080

 2017-02-03 17:36:11.223022+01 | 1486139771.22302 | 0/4E3CE2D8               |            1312613080

 2017-02-03 17:36:12.311617+01 | 1486139772.31162 | 0/4E3CE2D8               |            1312613080

 2017-02-03 17:36:13.402896+01 | 1486139773.4029 | 0/4E3CE2D8               |            1312613080

 2017-02-03 17:36:14.491583+01 | 1486139774.49158 | 0/4E3CE2D8               |            1312613080

 2017-02-03 17:36:15.57775+01 | 1486139775.57775 | 0/4E3CE2D8               |            1312613080

 2017-02-03 17:36:16.661302+01 | 1486139776.6613 | 0/4E3CE2D8               |            1312613080

 2017-02-03 17:36:17.746515+01 | 1486139777.74652 | 0/4E3CE2D8               |            1312613080

 2017-02-03 17:36:18.835858+01 | 1486139778.83586 | 0/4E3CE2D8               |            1312613080

 2017-02-03 17:36:19.926052+01 | 1486139779.92605 | 0/4E3CE2D8               |            1312613080

 2017-02-03 17:36:21.016206+01 | 1486139781.01621 | 0/4E3CE2D8               |            1312613080

 2017-02-03 17:36:22.101252+01 | 1486139782.10125 | 0/4E3CE2D8               |            1312613080

 2017-02-03 17:36:23.189117+01 | 1486139783.18912 | 0/4E3CE2D8               |            1312613080

 2017-02-03 17:36:24.279351+01 | 1486139784.27935 | 0/4E3CE2D8               |            1312613080

 2017-02-03 17:36:25.365952+01 | 1486139785.36595 | 0/4E3CE2D8               |            1312613080

 2017-02-03 17:36:26.456118+01 | 1486139786.45612 | 0/4E3CE2D8               |            1312613080

 2017-02-03 17:36:27.54622+01 | 1486139787.54622 | 0/4E3CE2D8               |            1312613080

 2017-02-03 17:36:28.6338+01 | 1486139788.6338 | 0/4E3CE2D8               |            1312613080

 2017-02-03 17:36:29.717035+01 | 1486139789.71704 | 0/4E3CE2D8               |            1312613080

 2017-02-03 17:36:30.809053+01 | 1486139790.80905 | 0/4E3CE2D8               |            1312613080

 2017-02-03 17:36:31.901575+01 | 1486139791.90158 | 0/4E3CE2D8               |            1312613080

 2017-02-03 17:36:32.992178+01 | 1486139792.99218 | 0/4E3CE2D8               |            1312613080

 2017-02-03 17:36:34.081999+01 | 1486139794.082 | 0/4E3CE2D8               |            1312613080

 2017-02-03 17:36:35.169054+01 | 1486139795.16905 | 0/4E3CE2D8               |            1312613080

 2017-02-03 17:36:36.251464+01 | 1486139796.25146 | 0/4E3CE2D8               |            1312613080

 2017-02-03 17:36:37.341103+01 | 1486139797.3411 | 0/4E3CE2D8               |            1312613080

 2017-02-03 17:36:38.430309+01 | 1486139798.43031 | 0/4E3CE2D8               |            1312613080

 2017-02-03 17:36:39.519274+01 | 1486139799.51927 | 0/4E3CE2D8               |            1312613080

 2017-02-03 17:36:40.60743+01 | 1486139800.60743 | 0/4E3CE2D8               |            1312613080

 2017-02-03 17:36:41.697227+01 | 1486139801.69723 | 0/4E3CE2D8               |            1312613080

 2017-02-03 17:36:42.780671+01 | 1486139802.78067 | 0/4E3CE2D8               |            1312613080

 2017-02-03 17:36:43.868233+01 | 1486139803.86823 | 0/4E3CE2D8               |            1312613080

 2017-02-03 17:36:44.957634+01 | 1486139804.95763 | 0/4E3CE2D8               |            1312613080

 2017-02-03 17:36:46.046068+01 | 1486139806.04607 | 0/4E3CE2D8               |            1312613080

 2017-02-03 17:36:47.129402+01 | 1486139807.1294 | 0/4E3CE2D8               |            1312613080

 2017-02-03 17:36:48.220824+01 | 1486139808.22082 | 0/4E3CE2D8               |            1312613080

 2017-02-03 17:36:49.320564+01 | 1486139809.32056 | 0/4E3CE2D8               |            1312613080

 2017-02-03 17:36:50.405007+01 | 1486139810.40501 | 0/4E3CE2D8               |            1312613080

 2017-02-03 17:36:51.4903+01 | 1486139811.4903 | 0/4E3CE2D8               |            1312613080

 2017-02-03 17:36:52.576914+01 | 1486139812.57691 | 0/4E3CE2D8               |            1312613080

 2017-02-03 17:36:53.657631+01 | 1486139813.65763 | 0/4E3CE2D8               |            1312613080

 2017-02-03 17:36:54.733442+01 | 1486139814.73344 | 0/4E3CE2D8               |            1312613080

 2017-02-03 17:36:55.81974+01 | 1486139815.81974 | 0/4E3CE2D8               |            1312613080

 2017-02-03 17:36:56.904305+01 | 1486139816.9043 | 0/4E3CE2D8               |            1312613080

 2017-02-03 17:36:57.987087+01 | 1486139817.98709 | 0/4E3CE2D8               |            1312613080

 2017-02-03 17:36:59.079337+01 | 1486139819.07934 | 0/4E3CE2D8               |            1312613080

 2017-02-03 17:37:00.168002+01 | 1486139820.168 | 0/4E3CE2D8               |            1312613080

 2017-02-03 17:37:01.255432+01 | 1486139821.25543 | 0/4E3CE2D8               |            1312613080

 2017-02-03 17:37:02.349251+01 | 1486139822.34925 | 0/4E3CE2D8               |            1312613080

 2017-02-03 17:37:03.435854+01 | 1486139823.43585 | 0/4E3CE2D8               |            1312613080

 2017-02-03 17:37:04.522837+01 | 1486139824.52284 | 0/4E3CE2D8               |            1312613080

 2017-02-03 17:37:05.612123+01 | 1486139825.61212 | 0/4E3CE2D8               |            1312613080

 2017-02-03 17:37:06.698314+01 | 1486139826.69831 | 0/4E3CE2D8               |            1312613080

 2017-02-03 17:37:07.784394+01 | 1486139827.78439 | 0/4E3CE2D8               |            1312613080

 2017-02-03 17:37:08.872873+01 | 1486139828.87287 | 0/4E3CE2D8               |            1312613080

 2017-02-03 17:37:09.968279+01 | 1486139829.96828 | 0/4E3CE2D8               |            1312613080

 2017-02-03 17:37:11.057031+01 | 1486139831.05703 | 0/4E3CE2D8               |            1312613080

 2017-02-03 17:37:12.146502+01 | 1486139832.1465 | 0/4E3CE2D8               |            1312613080

 2017-02-03 17:37:13.234899+01 | 1486139833.2349 | 0/4E3CE2D8               |            1312613080

 2017-02-03 17:37:14.324336+01 | 1486139834.32434 | 0/4E3CE2D8               |            1312613080

 2017-02-03 17:37:15.414057+01 | 1486139835.41406 | 0/4E3CE2D8               |            1312613080

 2017-02-03 17:37:16.501032+01 | 1486139836.50103 | 0/4E3CE2D8               |            1312613080

 2017-02-03 17:37:17.58711+01 | 1486139837.58711 | 0/4E3CE2D8               |            1312613080

 2017-02-03 17:37:18.679585+01 | 1486139838.67958 | 0/4E3CE2D8               |            1312613080

 2017-02-03 17:37:19.763715+01 | 1486139839.76372 | 0/4E3CE2D8               |            1312613080

 2017-02-03 17:37:20.85281+01 | 1486139840.85281 | 0/4E3CE2D8               |            1312613080

 2017-02-03 17:37:21.940995+01 | 1486139841.94099 | 0/4E3CE2D8               |            1312613080

 2017-02-03 17:37:23.029146+01 | 1486139843.02915 | 0/4E3CE2D8               |            1312613080

 2017-02-03 17:37:24.114043+01 | 1486139844.11404 | 0/4E3CE2D8               |            1312613080

 2017-02-03 17:37:25.198098+01 | 1486139845.1981 | 0/4E3CE2D8               |            1312613080

 2017-02-03 17:37:26.283037+01 | 1486139846.28304 | 0/4E3CE2D8               |            1312613080

 2017-02-03 17:37:27.372904+01 | 1486139847.3729 | 0/4E3CE2D8               |            1312613080

 2017-02-03 17:37:28.461322+01 | 1486139848.46132 | 0/4E3CE2D8               |            1312613080

 2017-02-03 17:37:29.550963+01 | 1486139849.55096 | 0/4E3CE2D8               |            1312613080

 2017-02-03 17:37:30.643961+01 | 1486139850.64396 | 0/4E3CE2D8               |            1312613080

 2017-02-03 17:37:31.7248+01 | 1486139851.7248 | 0/4E3CE2D8               |            1312613080

 2017-02-03 17:37:32.807761+01 | 1486139852.80776 | 0/4E3CE2D8               |            1312613080

 2017-02-03 17:37:33.89843+01 | 1486139853.89843 | 0/4E3CE2D8               |            1312613080

 2017-02-03 17:37:34.987416+01 | 1486139854.98742 | 0/4E3CE2D8               |            1312613080

 2017-02-03 17:37:36.07071+01 | 1486139856.07071 | 0/4E3CE2D8               |            1312613080

 2017-02-03 17:37:37.153737+01 | 1486139857.15374 | 0/4E3CE2D8               |            1312613080

 2017-02-03 17:37:38.246371+01 | 1486139858.24637 | 0/4E3CE2D8               |            1312613080

 2017-02-03 17:37:39.338552+01 | 1486139859.33855 | 0/4E3CE2D8               |            1312613080

 2017-02-03 17:37:40.426957+01 | 1486139860.42696 | 0/4E3CE2D8               |            1312613080

 2017-02-03 17:37:41.513892+01 | 1486139861.51389 | 0/4E3CE2D8               |            1312613080

 2017-02-03 17:37:42.605052+01 | 1486139862.60505 | 0/4E3CE2D8               |            1312613080

 2017-02-03 17:37:43.694337+01 | 1486139863.69434 | 0/4E3CE2D8               |            1312613080

 2017-02-03 17:37:44.784007+01 | 1486139864.78401 | 0/4E3CE2D8               |            1312613080

 2017-02-03 17:37:45.872081+01 | 1486139865.87208 | 0/4E3CE2D8               |            1312613080

 2017-02-03 17:37:46.960888+01 | 1486139866.96089 | 0/4E3CE2D8               |            1312613080

