 2017-02-04 01:59:40.483765+01 | 1486169980.48376 | pgbench_branches_pkey |          1957888
 2017-02-04 01:59:40.483765+01 | 1486169980.48376 | pgbench_tellers_pkey  |          9527296
 2017-02-04 01:59:40.483765+01 | 1486169980.48376 | pgbench_accounts_pkey |       2246197248

 2017-02-04 01:59:41.573197+01 | 1486169981.5732 | pgbench_branches_pkey |          1957888
 2017-02-04 01:59:41.573197+01 | 1486169981.5732 | pgbench_tellers_pkey  |          9527296
 2017-02-04 01:59:41.573197+01 | 1486169981.5732 | pgbench_accounts_pkey |       2246197248

 2017-02-04 01:59:42.6553+01 | 1486169982.6553 | pgbench_branches_pkey |          1957888
 2017-02-04 01:59:42.6553+01 | 1486169982.6553 | pgbench_tellers_pkey  |          9527296
 2017-02-04 01:59:42.6553+01 | 1486169982.6553 | pgbench_accounts_pkey |       2246197248

 2017-02-04 01:59:43.724418+01 | 1486169983.72442 | pgbench_branches_pkey |          1957888
 2017-02-04 01:59:43.724418+01 | 1486169983.72442 | pgbench_tellers_pkey  |          9527296
 2017-02-04 01:59:43.724418+01 | 1486169983.72442 | pgbench_accounts_pkey |       2246197248

 2017-02-04 01:59:44.805571+01 | 1486169984.80557 | pgbench_branches_pkey |          1957888
 2017-02-04 01:59:44.805571+01 | 1486169984.80557 | pgbench_tellers_pkey  |          9527296
 2017-02-04 01:59:44.805571+01 | 1486169984.80557 | pgbench_accounts_pkey |       2246197248

 2017-02-04 01:59:45.887451+01 | 1486169985.88745 | pgbench_branches_pkey |          1957888
 2017-02-04 01:59:45.887451+01 | 1486169985.88745 | pgbench_tellers_pkey  |          9527296
 2017-02-04 01:59:45.887451+01 | 1486169985.88745 | pgbench_accounts_pkey |       2246197248

 2017-02-04 01:59:46.964729+01 | 1486169986.96473 | pgbench_branches_pkey |          1957888
 2017-02-04 01:59:46.964729+01 | 1486169986.96473 | pgbench_tellers_pkey  |          9527296
 2017-02-04 01:59:46.964729+01 | 1486169986.96473 | pgbench_accounts_pkey |       2246197248

 2017-02-04 01:59:48.047416+01 | 1486169988.04742 | pgbench_branches_pkey |          1957888
 2017-02-04 01:59:48.047416+01 | 1486169988.04742 | pgbench_tellers_pkey  |          9527296
 2017-02-04 01:59:48.047416+01 | 1486169988.04742 | pgbench_accounts_pkey |       2246197248

 2017-02-04 01:59:49.127346+01 | 1486169989.12735 | pgbench_branches_pkey |          1957888
 2017-02-04 01:59:49.127346+01 | 1486169989.12735 | pgbench_tellers_pkey  |          9527296
 2017-02-04 01:59:49.127346+01 | 1486169989.12735 | pgbench_accounts_pkey |       2246197248

 2017-02-04 01:59:50.202873+01 | 1486169990.20287 | pgbench_branches_pkey |          1957888
 2017-02-04 01:59:50.202873+01 | 1486169990.20287 | pgbench_tellers_pkey  |          9527296
 2017-02-04 01:59:50.202873+01 | 1486169990.20287 | pgbench_accounts_pkey |       2246197248

 2017-02-04 01:59:51.283495+01 | 1486169991.28349 | pgbench_branches_pkey |          1957888
 2017-02-04 01:59:51.283495+01 | 1486169991.28349 | pgbench_tellers_pkey  |          9527296
 2017-02-04 01:59:51.283495+01 | 1486169991.28349 | pgbench_accounts_pkey |       2246197248

 2017-02-04 01:59:52.362683+01 | 1486169992.36268 | pgbench_branches_pkey |          1957888
 2017-02-04 01:59:52.362683+01 | 1486169992.36268 | pgbench_tellers_pkey  |          9527296
 2017-02-04 01:59:52.362683+01 | 1486169992.36268 | pgbench_accounts_pkey |       2246197248

 2017-02-04 01:59:53.44435+01 | 1486169993.44435 | pgbench_branches_pkey |          1957888
 2017-02-04 01:59:53.44435+01 | 1486169993.44435 | pgbench_tellers_pkey  |          9527296
 2017-02-04 01:59:53.44435+01 | 1486169993.44435 | pgbench_accounts_pkey |       2246197248

 2017-02-04 01:59:54.524879+01 | 1486169994.52488 | pgbench_branches_pkey |          1957888
 2017-02-04 01:59:54.524879+01 | 1486169994.52488 | pgbench_tellers_pkey  |          9527296
 2017-02-04 01:59:54.524879+01 | 1486169994.52488 | pgbench_accounts_pkey |       2246197248

 2017-02-04 01:59:55.604665+01 | 1486169995.60467 | pgbench_branches_pkey |          1957888
 2017-02-04 01:59:55.604665+01 | 1486169995.60467 | pgbench_tellers_pkey  |          9527296
 2017-02-04 01:59:55.604665+01 | 1486169995.60467 | pgbench_accounts_pkey |       2246197248

 2017-02-04 01:59:56.690619+01 | 1486169996.69062 | pgbench_branches_pkey |          1957888
 2017-02-04 01:59:56.690619+01 | 1486169996.69062 | pgbench_tellers_pkey  |          9527296
 2017-02-04 01:59:56.690619+01 | 1486169996.69062 | pgbench_accounts_pkey |       2246197248

 2017-02-04 01:59:57.773153+01 | 1486169997.77315 | pgbench_branches_pkey |          1957888
 2017-02-04 01:59:57.773153+01 | 1486169997.77315 | pgbench_tellers_pkey  |          9527296
 2017-02-04 01:59:57.773153+01 | 1486169997.77315 | pgbench_accounts_pkey |       2246197248

 2017-02-04 01:59:58.856565+01 | 1486169998.85656 | pgbench_branches_pkey |          1957888
 2017-02-04 01:59:58.856565+01 | 1486169998.85656 | pgbench_tellers_pkey  |          9527296
 2017-02-04 01:59:58.856565+01 | 1486169998.85656 | pgbench_accounts_pkey |       2246197248

 2017-02-04 01:59:59.935961+01 | 1486169999.93596 | pgbench_branches_pkey |          1957888
 2017-02-04 01:59:59.935961+01 | 1486169999.93596 | pgbench_tellers_pkey  |          9527296
 2017-02-04 01:59:59.935961+01 | 1486169999.93596 | pgbench_accounts_pkey |       2246197248

 2017-02-04 02:00:01.015248+01 | 1486170001.01525 | pgbench_branches_pkey |          1957888
 2017-02-04 02:00:01.015248+01 | 1486170001.01525 | pgbench_tellers_pkey  |          9527296
 2017-02-04 02:00:01.015248+01 | 1486170001.01525 | pgbench_accounts_pkey |       2246197248

 2017-02-04 02:00:02.097244+01 | 1486170002.09724 | pgbench_branches_pkey |          1957888
 2017-02-04 02:00:02.097244+01 | 1486170002.09724 | pgbench_tellers_pkey  |          9527296
 2017-02-04 02:00:02.097244+01 | 1486170002.09724 | pgbench_accounts_pkey |       2246197248

 2017-02-04 02:00:03.182761+01 | 1486170003.18276 | pgbench_branches_pkey |          1957888
 2017-02-04 02:00:03.182761+01 | 1486170003.18276 | pgbench_tellers_pkey  |          9527296
 2017-02-04 02:00:03.182761+01 | 1486170003.18276 | pgbench_accounts_pkey |       2246197248

 2017-02-04 02:00:04.260541+01 | 1486170004.26054 | pgbench_branches_pkey |          1957888
 2017-02-04 02:00:04.260541+01 | 1486170004.26054 | pgbench_tellers_pkey  |          9527296
 2017-02-04 02:00:04.260541+01 | 1486170004.26054 | pgbench_accounts_pkey |       2246197248

 2017-02-04 02:00:05.336935+01 | 1486170005.33694 | pgbench_branches_pkey |          1957888
 2017-02-04 02:00:05.336935+01 | 1486170005.33694 | pgbench_tellers_pkey  |          9527296
 2017-02-04 02:00:05.336935+01 | 1486170005.33694 | pgbench_accounts_pkey |       2246197248

 2017-02-04 02:00:06.420647+01 | 1486170006.42065 | pgbench_branches_pkey |          1957888
 2017-02-04 02:00:06.420647+01 | 1486170006.42065 | pgbench_tellers_pkey  |          9527296
 2017-02-04 02:00:06.420647+01 | 1486170006.42065 | pgbench_accounts_pkey |       2246197248

 2017-02-04 02:00:07.499489+01 | 1486170007.49949 | pgbench_branches_pkey |          1957888
 2017-02-04 02:00:07.499489+01 | 1486170007.49949 | pgbench_tellers_pkey  |          9527296
 2017-02-04 02:00:07.499489+01 | 1486170007.49949 | pgbench_accounts_pkey |       2246197248

 2017-02-04 02:00:08.582195+01 | 1486170008.5822 | pgbench_branches_pkey |          1957888
 2017-02-04 02:00:08.582195+01 | 1486170008.5822 | pgbench_tellers_pkey  |          9527296
 2017-02-04 02:00:08.582195+01 | 1486170008.5822 | pgbench_accounts_pkey |       2246197248

 2017-02-04 02:00:09.668637+01 | 1486170009.66864 | pgbench_branches_pkey |          1957888
 2017-02-04 02:00:09.668637+01 | 1486170009.66864 | pgbench_tellers_pkey  |          9527296
 2017-02-04 02:00:09.668637+01 | 1486170009.66864 | pgbench_accounts_pkey |       2246197248

 2017-02-04 02:00:10.751812+01 | 1486170010.75181 | pgbench_branches_pkey |          1957888
 2017-02-04 02:00:10.751812+01 | 1486170010.75181 | pgbench_tellers_pkey  |          9527296
 2017-02-04 02:00:10.751812+01 | 1486170010.75181 | pgbench_accounts_pkey |       2246197248

 2017-02-04 02:00:11.831416+01 | 1486170011.83142 | pgbench_branches_pkey |          1957888
 2017-02-04 02:00:11.831416+01 | 1486170011.83142 | pgbench_tellers_pkey  |          9527296
 2017-02-04 02:00:11.831416+01 | 1486170011.83142 | pgbench_accounts_pkey |       2246197248

 2017-02-04 02:00:12.91044+01 | 1486170012.91044 | pgbench_branches_pkey |          1957888
 2017-02-04 02:00:12.91044+01 | 1486170012.91044 | pgbench_tellers_pkey  |          9527296
 2017-02-04 02:00:12.91044+01 | 1486170012.91044 | pgbench_accounts_pkey |       2246197248

 2017-02-04 02:00:13.992517+01 | 1486170013.99252 | pgbench_branches_pkey |          1957888
 2017-02-04 02:00:13.992517+01 | 1486170013.99252 | pgbench_tellers_pkey  |          9527296
 2017-02-04 02:00:13.992517+01 | 1486170013.99252 | pgbench_accounts_pkey |       2246197248

 2017-02-04 02:00:15.080571+01 | 1486170015.08057 | pgbench_branches_pkey |          1957888
 2017-02-04 02:00:15.080571+01 | 1486170015.08057 | pgbench_tellers_pkey  |          9527296
 2017-02-04 02:00:15.080571+01 | 1486170015.08057 | pgbench_accounts_pkey |       2246197248

 2017-02-04 02:00:16.157345+01 | 1486170016.15735 | pgbench_branches_pkey |          1957888
 2017-02-04 02:00:16.157345+01 | 1486170016.15735 | pgbench_tellers_pkey  |          9527296
 2017-02-04 02:00:16.157345+01 | 1486170016.15735 | pgbench_accounts_pkey |       2246197248

 2017-02-04 02:00:17.244731+01 | 1486170017.24473 | pgbench_branches_pkey |          1957888
 2017-02-04 02:00:17.244731+01 | 1486170017.24473 | pgbench_tellers_pkey  |          9527296
 2017-02-04 02:00:17.244731+01 | 1486170017.24473 | pgbench_accounts_pkey |       2246197248

 2017-02-04 02:00:18.324799+01 | 1486170018.3248 | pgbench_branches_pkey |          1957888
 2017-02-04 02:00:18.324799+01 | 1486170018.3248 | pgbench_tellers_pkey  |          9527296
 2017-02-04 02:00:18.324799+01 | 1486170018.3248 | pgbench_accounts_pkey |       2246197248

 2017-02-04 02:00:19.405412+01 | 1486170019.40541 | pgbench_branches_pkey |          1957888
 2017-02-04 02:00:19.405412+01 | 1486170019.40541 | pgbench_tellers_pkey  |          9527296
 2017-02-04 02:00:19.405412+01 | 1486170019.40541 | pgbench_accounts_pkey |       2246197248

 2017-02-04 02:00:20.490971+01 | 1486170020.49097 | pgbench_branches_pkey |          1957888
 2017-02-04 02:00:20.490971+01 | 1486170020.49097 | pgbench_tellers_pkey  |          9527296
 2017-02-04 02:00:20.490971+01 | 1486170020.49097 | pgbench_accounts_pkey |       2246197248

 2017-02-04 02:00:21.575672+01 | 1486170021.57567 | pgbench_branches_pkey |          1957888
 2017-02-04 02:00:21.575672+01 | 1486170021.57567 | pgbench_tellers_pkey  |          9527296
 2017-02-04 02:00:21.575672+01 | 1486170021.57567 | pgbench_accounts_pkey |       2246197248

 2017-02-04 02:00:22.648185+01 | 1486170022.64819 | pgbench_branches_pkey |          1957888
 2017-02-04 02:00:22.648185+01 | 1486170022.64819 | pgbench_tellers_pkey  |          9527296
 2017-02-04 02:00:22.648185+01 | 1486170022.64819 | pgbench_accounts_pkey |       2246197248

 2017-02-04 02:00:23.727135+01 | 1486170023.72713 | pgbench_branches_pkey |          1957888
 2017-02-04 02:00:23.727135+01 | 1486170023.72713 | pgbench_tellers_pkey  |          9527296
 2017-02-04 02:00:23.727135+01 | 1486170023.72713 | pgbench_accounts_pkey |       2246197248

 2017-02-04 02:00:24.810273+01 | 1486170024.81027 | pgbench_branches_pkey |          1957888
 2017-02-04 02:00:24.810273+01 | 1486170024.81027 | pgbench_tellers_pkey  |          9527296
 2017-02-04 02:00:24.810273+01 | 1486170024.81027 | pgbench_accounts_pkey |       2246197248

 2017-02-04 02:00:25.907187+01 | 1486170025.90719 | pgbench_branches_pkey |          1957888
 2017-02-04 02:00:25.907187+01 | 1486170025.90719 | pgbench_tellers_pkey  |          9527296
 2017-02-04 02:00:25.907187+01 | 1486170025.90719 | pgbench_accounts_pkey |       2246197248

 2017-02-04 02:00:26.984474+01 | 1486170026.98447 | pgbench_branches_pkey |          1957888
 2017-02-04 02:00:26.984474+01 | 1486170026.98447 | pgbench_tellers_pkey  |          9527296
 2017-02-04 02:00:26.984474+01 | 1486170026.98447 | pgbench_accounts_pkey |       2246197248

 2017-02-04 02:00:28.054067+01 | 1486170028.05407 | pgbench_branches_pkey |          1957888
 2017-02-04 02:00:28.054067+01 | 1486170028.05407 | pgbench_tellers_pkey  |          9527296
 2017-02-04 02:00:28.054067+01 | 1486170028.05407 | pgbench_accounts_pkey |       2246197248

 2017-02-04 02:00:29.134739+01 | 1486170029.13474 | pgbench_branches_pkey |          1957888
 2017-02-04 02:00:29.134739+01 | 1486170029.13474 | pgbench_tellers_pkey  |          9527296
 2017-02-04 02:00:29.134739+01 | 1486170029.13474 | pgbench_accounts_pkey |       2246197248

 2017-02-04 02:00:30.215819+01 | 1486170030.21582 | pgbench_branches_pkey |          1957888
 2017-02-04 02:00:30.215819+01 | 1486170030.21582 | pgbench_tellers_pkey  |          9527296
 2017-02-04 02:00:30.215819+01 | 1486170030.21582 | pgbench_accounts_pkey |       2246197248

 2017-02-04 02:00:31.313971+01 | 1486170031.31397 | pgbench_branches_pkey |          1957888
 2017-02-04 02:00:31.313971+01 | 1486170031.31397 | pgbench_tellers_pkey  |          9527296
 2017-02-04 02:00:31.313971+01 | 1486170031.31397 | pgbench_accounts_pkey |       2246197248

 2017-02-04 02:00:32.398253+01 | 1486170032.39825 | pgbench_branches_pkey |          1957888
 2017-02-04 02:00:32.398253+01 | 1486170032.39825 | pgbench_tellers_pkey  |          9527296
 2017-02-04 02:00:32.398253+01 | 1486170032.39825 | pgbench_accounts_pkey |       2246197248

 2017-02-04 02:00:33.483418+01 | 1486170033.48342 | pgbench_branches_pkey |          1957888
 2017-02-04 02:00:33.483418+01 | 1486170033.48342 | pgbench_tellers_pkey  |          9527296
 2017-02-04 02:00:33.483418+01 | 1486170033.48342 | pgbench_accounts_pkey |       2246197248

 2017-02-04 02:00:34.56555+01 | 1486170034.56555 | pgbench_branches_pkey |          1957888
 2017-02-04 02:00:34.56555+01 | 1486170034.56555 | pgbench_tellers_pkey  |          9527296
 2017-02-04 02:00:34.56555+01 | 1486170034.56555 | pgbench_accounts_pkey |       2246197248

 2017-02-04 02:00:35.634708+01 | 1486170035.63471 | pgbench_branches_pkey |          1957888
 2017-02-04 02:00:35.634708+01 | 1486170035.63471 | pgbench_tellers_pkey  |          9527296
 2017-02-04 02:00:35.634708+01 | 1486170035.63471 | pgbench_accounts_pkey |       2246197248

 2017-02-04 02:00:36.709725+01 | 1486170036.70972 | pgbench_branches_pkey |          1957888
 2017-02-04 02:00:36.709725+01 | 1486170036.70972 | pgbench_tellers_pkey  |          9527296
 2017-02-04 02:00:36.709725+01 | 1486170036.70972 | pgbench_accounts_pkey |       2246197248

 2017-02-04 02:00:37.795262+01 | 1486170037.79526 | pgbench_branches_pkey |          1957888
 2017-02-04 02:00:37.795262+01 | 1486170037.79526 | pgbench_tellers_pkey  |          9527296
 2017-02-04 02:00:37.795262+01 | 1486170037.79526 | pgbench_accounts_pkey |       2246197248

 2017-02-04 02:00:38.882539+01 | 1486170038.88254 | pgbench_branches_pkey |          1957888
 2017-02-04 02:00:38.882539+01 | 1486170038.88254 | pgbench_tellers_pkey  |          9527296
 2017-02-04 02:00:38.882539+01 | 1486170038.88254 | pgbench_accounts_pkey |       2246197248

 2017-02-04 02:00:39.965136+01 | 1486170039.96514 | pgbench_branches_pkey |          1957888
 2017-02-04 02:00:39.965136+01 | 1486170039.96514 | pgbench_tellers_pkey  |          9527296
 2017-02-04 02:00:39.965136+01 | 1486170039.96514 | pgbench_accounts_pkey |       2246197248

 2017-02-04 02:00:41.04685+01 | 1486170041.04685 | pgbench_branches_pkey |          1957888
 2017-02-04 02:00:41.04685+01 | 1486170041.04685 | pgbench_tellers_pkey  |          9527296
 2017-02-04 02:00:41.04685+01 | 1486170041.04685 | pgbench_accounts_pkey |       2246197248

 2017-02-04 02:00:42.135418+01 | 1486170042.13542 | pgbench_branches_pkey |          1957888
 2017-02-04 02:00:42.135418+01 | 1486170042.13542 | pgbench_tellers_pkey  |          9527296
 2017-02-04 02:00:42.135418+01 | 1486170042.13542 | pgbench_accounts_pkey |       2246197248

 2017-02-04 02:00:43.215478+01 | 1486170043.21548 | pgbench_branches_pkey |          1957888
 2017-02-04 02:00:43.215478+01 | 1486170043.21548 | pgbench_tellers_pkey  |          9527296
 2017-02-04 02:00:43.215478+01 | 1486170043.21548 | pgbench_accounts_pkey |       2246197248

 2017-02-04 02:00:44.311571+01 | 1486170044.31157 | pgbench_branches_pkey |          1957888
 2017-02-04 02:00:44.311571+01 | 1486170044.31157 | pgbench_tellers_pkey  |          9527296
 2017-02-04 02:00:44.311571+01 | 1486170044.31157 | pgbench_accounts_pkey |       2246197248

 2017-02-04 02:00:45.383603+01 | 1486170045.3836 | pgbench_branches_pkey |          1957888
 2017-02-04 02:00:45.383603+01 | 1486170045.3836 | pgbench_tellers_pkey  |          9527296
 2017-02-04 02:00:45.383603+01 | 1486170045.3836 | pgbench_accounts_pkey |       2246197248

 2017-02-04 02:00:46.459684+01 | 1486170046.45968 | pgbench_branches_pkey |          1957888
 2017-02-04 02:00:46.459684+01 | 1486170046.45968 | pgbench_tellers_pkey  |          9527296
 2017-02-04 02:00:46.459684+01 | 1486170046.45968 | pgbench_accounts_pkey |       2246197248

 2017-02-04 02:00:47.549621+01 | 1486170047.54962 | pgbench_branches_pkey |          1957888
 2017-02-04 02:00:47.549621+01 | 1486170047.54962 | pgbench_tellers_pkey  |          9527296
 2017-02-04 02:00:47.549621+01 | 1486170047.54962 | pgbench_accounts_pkey |       2246197248

 2017-02-04 02:00:48.640733+01 | 1486170048.64073 | pgbench_branches_pkey |          1957888
 2017-02-04 02:00:48.640733+01 | 1486170048.64073 | pgbench_tellers_pkey  |          9527296
 2017-02-04 02:00:48.640733+01 | 1486170048.64073 | pgbench_accounts_pkey |       2246197248

 2017-02-04 02:00:49.731589+01 | 1486170049.73159 | pgbench_branches_pkey |          1957888
 2017-02-04 02:00:49.731589+01 | 1486170049.73159 | pgbench_tellers_pkey  |          9527296
 2017-02-04 02:00:49.731589+01 | 1486170049.73159 | pgbench_accounts_pkey |       2246197248

 2017-02-04 02:00:50.811128+01 | 1486170050.81113 | pgbench_branches_pkey |          1957888
 2017-02-04 02:00:50.811128+01 | 1486170050.81113 | pgbench_tellers_pkey  |          9527296
 2017-02-04 02:00:50.811128+01 | 1486170050.81113 | pgbench_accounts_pkey |       2246197248

 2017-02-04 02:00:51.90021+01 | 1486170051.90021 | pgbench_branches_pkey |          1957888
 2017-02-04 02:00:51.90021+01 | 1486170051.90021 | pgbench_tellers_pkey  |          9527296
 2017-02-04 02:00:51.90021+01 | 1486170051.90021 | pgbench_accounts_pkey |       2246197248

 2017-02-04 02:00:52.980339+01 | 1486170052.98034 | pgbench_branches_pkey |          1957888
 2017-02-04 02:00:52.980339+01 | 1486170052.98034 | pgbench_tellers_pkey  |          9527296
 2017-02-04 02:00:52.980339+01 | 1486170052.98034 | pgbench_accounts_pkey |       2246197248

 2017-02-04 02:00:54.041665+01 | 1486170054.04167 | pgbench_branches_pkey |          1957888
 2017-02-04 02:00:54.041665+01 | 1486170054.04167 | pgbench_tellers_pkey  |          9527296
 2017-02-04 02:00:54.041665+01 | 1486170054.04167 | pgbench_accounts_pkey |       2246197248

 2017-02-04 02:00:55.131287+01 | 1486170055.13129 | pgbench_branches_pkey |          1957888
 2017-02-04 02:00:55.131287+01 | 1486170055.13129 | pgbench_tellers_pkey  |          9527296
 2017-02-04 02:00:55.131287+01 | 1486170055.13129 | pgbench_accounts_pkey |       2246197248

 2017-02-04 02:00:56.20544+01 | 1486170056.20544 | pgbench_branches_pkey |          1957888
 2017-02-04 02:00:56.20544+01 | 1486170056.20544 | pgbench_tellers_pkey  |          9527296
 2017-02-04 02:00:56.20544+01 | 1486170056.20544 | pgbench_accounts_pkey |       2246197248

 2017-02-04 02:00:57.282214+01 | 1486170057.28221 | pgbench_branches_pkey |          1957888
 2017-02-04 02:00:57.282214+01 | 1486170057.28221 | pgbench_tellers_pkey  |          9527296
 2017-02-04 02:00:57.282214+01 | 1486170057.28221 | pgbench_accounts_pkey |       2246197248

 2017-02-04 02:00:58.364969+01 | 1486170058.36497 | pgbench_branches_pkey |          1957888
 2017-02-04 02:00:58.364969+01 | 1486170058.36497 | pgbench_tellers_pkey  |          9527296
 2017-02-04 02:00:58.364969+01 | 1486170058.36497 | pgbench_accounts_pkey |       2246197248

 2017-02-04 02:00:59.437695+01 | 1486170059.4377 | pgbench_branches_pkey |          1957888
 2017-02-04 02:00:59.437695+01 | 1486170059.4377 | pgbench_tellers_pkey  |          9527296
 2017-02-04 02:00:59.437695+01 | 1486170059.4377 | pgbench_accounts_pkey |       2246197248

 2017-02-04 02:01:00.5126+01 | 1486170060.5126 | pgbench_branches_pkey |          1957888
 2017-02-04 02:01:00.5126+01 | 1486170060.5126 | pgbench_tellers_pkey  |          9527296
 2017-02-04 02:01:00.5126+01 | 1486170060.5126 | pgbench_accounts_pkey |       2246197248

 2017-02-04 02:01:01.584951+01 | 1486170061.58495 | pgbench_branches_pkey |          1957888
 2017-02-04 02:01:01.584951+01 | 1486170061.58495 | pgbench_tellers_pkey  |          9527296
 2017-02-04 02:01:01.584951+01 | 1486170061.58495 | pgbench_accounts_pkey |       2246197248

 2017-02-04 02:01:02.662154+01 | 1486170062.66215 | pgbench_branches_pkey |          1957888
 2017-02-04 02:01:02.662154+01 | 1486170062.66215 | pgbench_tellers_pkey  |          9527296
 2017-02-04 02:01:02.662154+01 | 1486170062.66215 | pgbench_accounts_pkey |       2246197248

 2017-02-04 02:01:03.746779+01 | 1486170063.74678 | pgbench_branches_pkey |          1957888
 2017-02-04 02:01:03.746779+01 | 1486170063.74678 | pgbench_tellers_pkey  |          9527296
 2017-02-04 02:01:03.746779+01 | 1486170063.74678 | pgbench_accounts_pkey |       2246197248

 2017-02-04 02:01:04.829274+01 | 1486170064.82927 | pgbench_branches_pkey |          1957888
 2017-02-04 02:01:04.829274+01 | 1486170064.82927 | pgbench_tellers_pkey  |          9527296
 2017-02-04 02:01:04.829274+01 | 1486170064.82927 | pgbench_accounts_pkey |       2246197248

 2017-02-04 02:01:05.899792+01 | 1486170065.89979 | pgbench_branches_pkey |          1957888
 2017-02-04 02:01:05.899792+01 | 1486170065.89979 | pgbench_tellers_pkey  |          9527296
 2017-02-04 02:01:05.899792+01 | 1486170065.89979 | pgbench_accounts_pkey |       2246197248

 2017-02-04 02:01:06.968821+01 | 1486170066.96882 | pgbench_branches_pkey |          1957888
 2017-02-04 02:01:06.968821+01 | 1486170066.96882 | pgbench_tellers_pkey  |          9527296
 2017-02-04 02:01:06.968821+01 | 1486170066.96882 | pgbench_accounts_pkey |       2246197248

 2017-02-04 02:01:08.047156+01 | 1486170068.04716 | pgbench_branches_pkey |          1957888
 2017-02-04 02:01:08.047156+01 | 1486170068.04716 | pgbench_tellers_pkey  |          9527296
 2017-02-04 02:01:08.047156+01 | 1486170068.04716 | pgbench_accounts_pkey |       2246197248

 2017-02-04 02:01:09.131862+01 | 1486170069.13186 | pgbench_branches_pkey |          1957888
 2017-02-04 02:01:09.131862+01 | 1486170069.13186 | pgbench_tellers_pkey  |          9527296
 2017-02-04 02:01:09.131862+01 | 1486170069.13186 | pgbench_accounts_pkey |       2246197248

 2017-02-04 02:01:10.209419+01 | 1486170070.20942 | pgbench_branches_pkey |          1957888
 2017-02-04 02:01:10.209419+01 | 1486170070.20942 | pgbench_tellers_pkey  |          9527296
 2017-02-04 02:01:10.209419+01 | 1486170070.20942 | pgbench_accounts_pkey |       2246197248

 2017-02-04 02:01:11.284551+01 | 1486170071.28455 | pgbench_branches_pkey |          1957888
 2017-02-04 02:01:11.284551+01 | 1486170071.28455 | pgbench_tellers_pkey  |          9527296
 2017-02-04 02:01:11.284551+01 | 1486170071.28455 | pgbench_accounts_pkey |       2246197248

 2017-02-04 02:01:12.37302+01 | 1486170072.37302 | pgbench_branches_pkey |          1957888
 2017-02-04 02:01:12.37302+01 | 1486170072.37302 | pgbench_tellers_pkey  |          9527296
 2017-02-04 02:01:12.37302+01 | 1486170072.37302 | pgbench_accounts_pkey |       2246197248

 2017-02-04 02:01:13.451707+01 | 1486170073.45171 | pgbench_branches_pkey |          1957888
 2017-02-04 02:01:13.451707+01 | 1486170073.45171 | pgbench_tellers_pkey  |          9527296
 2017-02-04 02:01:13.451707+01 | 1486170073.45171 | pgbench_accounts_pkey |       2246197248

 2017-02-04 02:01:14.527988+01 | 1486170074.52799 | pgbench_branches_pkey |          1957888
 2017-02-04 02:01:14.527988+01 | 1486170074.52799 | pgbench_tellers_pkey  |          9527296
 2017-02-04 02:01:14.527988+01 | 1486170074.52799 | pgbench_accounts_pkey |       2246197248

 2017-02-04 02:01:15.605574+01 | 1486170075.60557 | pgbench_branches_pkey |          1957888
 2017-02-04 02:01:15.605574+01 | 1486170075.60557 | pgbench_tellers_pkey  |          9527296
 2017-02-04 02:01:15.605574+01 | 1486170075.60557 | pgbench_accounts_pkey |       2246197248

 2017-02-04 02:01:16.705838+01 | 1486170076.70584 | pgbench_branches_pkey |          1957888
 2017-02-04 02:01:16.705838+01 | 1486170076.70584 | pgbench_tellers_pkey  |          9527296
 2017-02-04 02:01:16.705838+01 | 1486170076.70584 | pgbench_accounts_pkey |       2246197248

 2017-02-04 02:01:17.792652+01 | 1486170077.79265 | pgbench_branches_pkey |          1957888
 2017-02-04 02:01:17.792652+01 | 1486170077.79265 | pgbench_tellers_pkey  |          9527296
 2017-02-04 02:01:17.792652+01 | 1486170077.79265 | pgbench_accounts_pkey |       2246197248

 2017-02-04 02:01:18.884702+01 | 1486170078.8847 | pgbench_branches_pkey |          1957888
 2017-02-04 02:01:18.884702+01 | 1486170078.8847 | pgbench_tellers_pkey  |          9527296
 2017-02-04 02:01:18.884702+01 | 1486170078.8847 | pgbench_accounts_pkey |       2246197248

 2017-02-04 02:01:19.963453+01 | 1486170079.96345 | pgbench_branches_pkey |          1957888
 2017-02-04 02:01:19.963453+01 | 1486170079.96345 | pgbench_tellers_pkey  |          9527296
 2017-02-04 02:01:19.963453+01 | 1486170079.96345 | pgbench_accounts_pkey |       2246197248

 2017-02-04 02:01:21.046404+01 | 1486170081.0464 | pgbench_branches_pkey |          1957888
 2017-02-04 02:01:21.046404+01 | 1486170081.0464 | pgbench_tellers_pkey  |          9527296
 2017-02-04 02:01:21.046404+01 | 1486170081.0464 | pgbench_accounts_pkey |       2246197248

 2017-02-04 02:01:22.121552+01 | 1486170082.12155 | pgbench_branches_pkey |          1957888
 2017-02-04 02:01:22.121552+01 | 1486170082.12155 | pgbench_tellers_pkey  |          9527296
 2017-02-04 02:01:22.121552+01 | 1486170082.12155 | pgbench_accounts_pkey |       2246197248

 2017-02-04 02:01:23.199881+01 | 1486170083.19988 | pgbench_branches_pkey |          1957888
 2017-02-04 02:01:23.199881+01 | 1486170083.19988 | pgbench_tellers_pkey  |          9527296
 2017-02-04 02:01:23.199881+01 | 1486170083.19988 | pgbench_accounts_pkey |       2246197248

 2017-02-04 02:01:24.280879+01 | 1486170084.28088 | pgbench_branches_pkey |          1957888
 2017-02-04 02:01:24.280879+01 | 1486170084.28088 | pgbench_tellers_pkey  |          9527296
 2017-02-04 02:01:24.280879+01 | 1486170084.28088 | pgbench_accounts_pkey |       2246197248

 2017-02-04 02:01:25.374937+01 | 1486170085.37494 | pgbench_branches_pkey |          1957888
 2017-02-04 02:01:25.374937+01 | 1486170085.37494 | pgbench_tellers_pkey  |          9527296
 2017-02-04 02:01:25.374937+01 | 1486170085.37494 | pgbench_accounts_pkey |       2246197248

 2017-02-04 02:01:26.462826+01 | 1486170086.46283 | pgbench_branches_pkey |          1957888
 2017-02-04 02:01:26.462826+01 | 1486170086.46283 | pgbench_tellers_pkey  |          9527296
 2017-02-04 02:01:26.462826+01 | 1486170086.46283 | pgbench_accounts_pkey |       2246197248

 2017-02-04 02:01:27.539596+01 | 1486170087.5396 | pgbench_branches_pkey |          1957888
 2017-02-04 02:01:27.539596+01 | 1486170087.5396 | pgbench_tellers_pkey  |          9527296
 2017-02-04 02:01:27.539596+01 | 1486170087.5396 | pgbench_accounts_pkey |       2246197248

 2017-02-04 02:01:28.611985+01 | 1486170088.61198 | pgbench_branches_pkey |          1957888
 2017-02-04 02:01:28.611985+01 | 1486170088.61198 | pgbench_tellers_pkey  |          9527296
 2017-02-04 02:01:28.611985+01 | 1486170088.61198 | pgbench_accounts_pkey |       2246197248

 2017-02-04 02:01:29.687018+01 | 1486170089.68702 | pgbench_branches_pkey |          1957888
 2017-02-04 02:01:29.687018+01 | 1486170089.68702 | pgbench_tellers_pkey  |          9527296
 2017-02-04 02:01:29.687018+01 | 1486170089.68702 | pgbench_accounts_pkey |       2246197248

 2017-02-04 02:01:30.763923+01 | 1486170090.76392 | pgbench_branches_pkey |          1957888
 2017-02-04 02:01:30.763923+01 | 1486170090.76392 | pgbench_tellers_pkey  |          9527296
 2017-02-04 02:01:30.763923+01 | 1486170090.76392 | pgbench_accounts_pkey |       2246197248

 2017-02-04 02:01:31.853757+01 | 1486170091.85376 | pgbench_branches_pkey |          1957888
 2017-02-04 02:01:31.853757+01 | 1486170091.85376 | pgbench_tellers_pkey  |          9527296
 2017-02-04 02:01:31.853757+01 | 1486170091.85376 | pgbench_accounts_pkey |       2246197248

 2017-02-04 02:01:32.933828+01 | 1486170092.93383 | pgbench_branches_pkey |          1957888
 2017-02-04 02:01:32.933828+01 | 1486170092.93383 | pgbench_tellers_pkey  |          9527296
 2017-02-04 02:01:32.933828+01 | 1486170092.93383 | pgbench_accounts_pkey |       2246197248

 2017-02-04 02:01:34.013077+01 | 1486170094.01308 | pgbench_branches_pkey |          1957888
 2017-02-04 02:01:34.013077+01 | 1486170094.01308 | pgbench_tellers_pkey  |          9527296
 2017-02-04 02:01:34.013077+01 | 1486170094.01308 | pgbench_accounts_pkey |       2246197248

 2017-02-04 02:01:35.094155+01 | 1486170095.09416 | pgbench_branches_pkey |          1957888
 2017-02-04 02:01:35.094155+01 | 1486170095.09416 | pgbench_tellers_pkey  |          9527296
 2017-02-04 02:01:35.094155+01 | 1486170095.09416 | pgbench_accounts_pkey |       2246197248

 2017-02-04 02:01:36.17729+01 | 1486170096.17729 | pgbench_branches_pkey |          1957888
 2017-02-04 02:01:36.17729+01 | 1486170096.17729 | pgbench_tellers_pkey  |          9527296
 2017-02-04 02:01:36.17729+01 | 1486170096.17729 | pgbench_accounts_pkey |       2246197248

 2017-02-04 02:01:37.266925+01 | 1486170097.26693 | pgbench_branches_pkey |          1957888
 2017-02-04 02:01:37.266925+01 | 1486170097.26693 | pgbench_tellers_pkey  |          9527296
 2017-02-04 02:01:37.266925+01 | 1486170097.26693 | pgbench_accounts_pkey |       2246197248

 2017-02-04 02:01:38.356252+01 | 1486170098.35625 | pgbench_branches_pkey |          1957888
 2017-02-04 02:01:38.356252+01 | 1486170098.35625 | pgbench_tellers_pkey  |          9527296
 2017-02-04 02:01:38.356252+01 | 1486170098.35625 | pgbench_accounts_pkey |       2246197248

 2017-02-04 02:01:39.43881+01 | 1486170099.43881 | pgbench_branches_pkey |          1957888
 2017-02-04 02:01:39.43881+01 | 1486170099.43881 | pgbench_tellers_pkey  |          9527296
 2017-02-04 02:01:39.43881+01 | 1486170099.43881 | pgbench_accounts_pkey |       2246197248

 2017-02-04 02:01:40.523016+01 | 1486170100.52302 | pgbench_branches_pkey |          1957888
 2017-02-04 02:01:40.523016+01 | 1486170100.52302 | pgbench_tellers_pkey  |          9527296
 2017-02-04 02:01:40.523016+01 | 1486170100.52302 | pgbench_accounts_pkey |       2246197248

 2017-02-04 02:01:41.603778+01 | 1486170101.60378 | pgbench_branches_pkey |          1957888
 2017-02-04 02:01:41.603778+01 | 1486170101.60378 | pgbench_tellers_pkey  |          9527296
 2017-02-04 02:01:41.603778+01 | 1486170101.60378 | pgbench_accounts_pkey |       2246197248

 2017-02-04 02:01:42.689315+01 | 1486170102.68932 | pgbench_branches_pkey |          1957888
 2017-02-04 02:01:42.689315+01 | 1486170102.68932 | pgbench_tellers_pkey  |          9527296
 2017-02-04 02:01:42.689315+01 | 1486170102.68932 | pgbench_accounts_pkey |       2246197248

 2017-02-04 02:01:43.766944+01 | 1486170103.76694 | pgbench_branches_pkey |          1957888
 2017-02-04 02:01:43.766944+01 | 1486170103.76694 | pgbench_tellers_pkey  |          9527296
 2017-02-04 02:01:43.766944+01 | 1486170103.76694 | pgbench_accounts_pkey |       2246197248

 2017-02-04 02:01:44.824615+01 | 1486170104.82462 | pgbench_branches_pkey |          1957888
 2017-02-04 02:01:44.824615+01 | 1486170104.82462 | pgbench_tellers_pkey  |          9527296
 2017-02-04 02:01:44.824615+01 | 1486170104.82462 | pgbench_accounts_pkey |       2246197248

 2017-02-04 02:01:45.909558+01 | 1486170105.90956 | pgbench_branches_pkey |          1957888
 2017-02-04 02:01:45.909558+01 | 1486170105.90956 | pgbench_tellers_pkey  |          9527296
 2017-02-04 02:01:45.909558+01 | 1486170105.90956 | pgbench_accounts_pkey |       2246197248

 2017-02-04 02:01:47.003101+01 | 1486170107.0031 | pgbench_branches_pkey |          1957888
 2017-02-04 02:01:47.003101+01 | 1486170107.0031 | pgbench_tellers_pkey  |          9527296
 2017-02-04 02:01:47.003101+01 | 1486170107.0031 | pgbench_accounts_pkey |       2246197248

 2017-02-04 02:01:48.087544+01 | 1486170108.08754 | pgbench_branches_pkey |          1957888
 2017-02-04 02:01:48.087544+01 | 1486170108.08754 | pgbench_tellers_pkey  |          9527296
 2017-02-04 02:01:48.087544+01 | 1486170108.08754 | pgbench_accounts_pkey |       2246197248

 2017-02-04 02:01:49.172686+01 | 1486170109.17269 | pgbench_branches_pkey |          1957888
 2017-02-04 02:01:49.172686+01 | 1486170109.17269 | pgbench_tellers_pkey  |          9527296
 2017-02-04 02:01:49.172686+01 | 1486170109.17269 | pgbench_accounts_pkey |       2246197248

 2017-02-04 02:01:50.256711+01 | 1486170110.25671 | pgbench_branches_pkey |          1957888
 2017-02-04 02:01:50.256711+01 | 1486170110.25671 | pgbench_tellers_pkey  |          9527296
 2017-02-04 02:01:50.256711+01 | 1486170110.25671 | pgbench_accounts_pkey |       2246197248

 2017-02-04 02:01:51.33517+01 | 1486170111.33517 | pgbench_branches_pkey |          1957888
 2017-02-04 02:01:51.33517+01 | 1486170111.33517 | pgbench_tellers_pkey  |          9527296
 2017-02-04 02:01:51.33517+01 | 1486170111.33517 | pgbench_accounts_pkey |       2246197248

 2017-02-04 02:01:52.437337+01 | 1486170112.43734 | pgbench_branches_pkey |          1957888
 2017-02-04 02:01:52.437337+01 | 1486170112.43734 | pgbench_tellers_pkey  |          9527296
 2017-02-04 02:01:52.437337+01 | 1486170112.43734 | pgbench_accounts_pkey |       2246197248

 2017-02-04 02:01:53.514851+01 | 1486170113.51485 | pgbench_branches_pkey |          1957888
 2017-02-04 02:01:53.514851+01 | 1486170113.51485 | pgbench_tellers_pkey  |          9527296
 2017-02-04 02:01:53.514851+01 | 1486170113.51485 | pgbench_accounts_pkey |       2246197248

 2017-02-04 02:01:54.592538+01 | 1486170114.59254 | pgbench_branches_pkey |          1957888
 2017-02-04 02:01:54.592538+01 | 1486170114.59254 | pgbench_tellers_pkey  |          9527296
 2017-02-04 02:01:54.592538+01 | 1486170114.59254 | pgbench_accounts_pkey |       2246197248

 2017-02-04 02:01:55.682028+01 | 1486170115.68203 | pgbench_branches_pkey |          1957888
 2017-02-04 02:01:55.682028+01 | 1486170115.68203 | pgbench_tellers_pkey  |          9527296
 2017-02-04 02:01:55.682028+01 | 1486170115.68203 | pgbench_accounts_pkey |       2246197248

 2017-02-04 02:01:56.766141+01 | 1486170116.76614 | pgbench_branches_pkey |          1957888
 2017-02-04 02:01:56.766141+01 | 1486170116.76614 | pgbench_tellers_pkey  |          9527296
 2017-02-04 02:01:56.766141+01 | 1486170116.76614 | pgbench_accounts_pkey |       2246197248

 2017-02-04 02:01:57.849051+01 | 1486170117.84905 | pgbench_branches_pkey |          1957888
 2017-02-04 02:01:57.849051+01 | 1486170117.84905 | pgbench_tellers_pkey  |          9527296
 2017-02-04 02:01:57.849051+01 | 1486170117.84905 | pgbench_accounts_pkey |       2246197248

 2017-02-04 02:01:58.924616+01 | 1486170118.92462 | pgbench_branches_pkey |          1957888
 2017-02-04 02:01:58.924616+01 | 1486170118.92462 | pgbench_tellers_pkey  |          9527296
 2017-02-04 02:01:58.924616+01 | 1486170118.92462 | pgbench_accounts_pkey |       2246197248

 2017-02-04 02:02:00.003799+01 | 1486170120.0038 | pgbench_branches_pkey |          1957888
 2017-02-04 02:02:00.003799+01 | 1486170120.0038 | pgbench_tellers_pkey  |          9527296
 2017-02-04 02:02:00.003799+01 | 1486170120.0038 | pgbench_accounts_pkey |       2246197248

 2017-02-04 02:02:01.111332+01 | 1486170121.11133 | pgbench_branches_pkey |          1957888
 2017-02-04 02:02:01.111332+01 | 1486170121.11133 | pgbench_tellers_pkey  |          9527296
 2017-02-04 02:02:01.111332+01 | 1486170121.11133 | pgbench_accounts_pkey |       2246197248

 2017-02-04 02:02:02.201277+01 | 1486170122.20128 | pgbench_branches_pkey |          1957888
 2017-02-04 02:02:02.201277+01 | 1486170122.20128 | pgbench_tellers_pkey  |          9527296
 2017-02-04 02:02:02.201277+01 | 1486170122.20128 | pgbench_accounts_pkey |       2246197248

 2017-02-04 02:02:03.26996+01 | 1486170123.26996 | pgbench_branches_pkey |          1957888
 2017-02-04 02:02:03.26996+01 | 1486170123.26996 | pgbench_tellers_pkey  |          9527296
 2017-02-04 02:02:03.26996+01 | 1486170123.26996 | pgbench_accounts_pkey |       2246197248

 2017-02-04 02:02:04.34004+01 | 1486170124.34004 | pgbench_branches_pkey |          1957888
 2017-02-04 02:02:04.34004+01 | 1486170124.34004 | pgbench_tellers_pkey  |          9527296
 2017-02-04 02:02:04.34004+01 | 1486170124.34004 | pgbench_accounts_pkey |       2246197248

 2017-02-04 02:02:05.422747+01 | 1486170125.42275 | pgbench_branches_pkey |          1957888
 2017-02-04 02:02:05.422747+01 | 1486170125.42275 | pgbench_tellers_pkey  |          9527296
 2017-02-04 02:02:05.422747+01 | 1486170125.42275 | pgbench_accounts_pkey |       2246197248

 2017-02-04 02:02:06.506613+01 | 1486170126.50661 | pgbench_branches_pkey |          1957888
 2017-02-04 02:02:06.506613+01 | 1486170126.50661 | pgbench_tellers_pkey  |          9527296
 2017-02-04 02:02:06.506613+01 | 1486170126.50661 | pgbench_accounts_pkey |       2246197248

 2017-02-04 02:02:07.583486+01 | 1486170127.58349 | pgbench_branches_pkey |          1957888
 2017-02-04 02:02:07.583486+01 | 1486170127.58349 | pgbench_tellers_pkey  |          9527296
 2017-02-04 02:02:07.583486+01 | 1486170127.58349 | pgbench_accounts_pkey |       2246197248

 2017-02-04 02:02:08.657122+01 | 1486170128.65712 | pgbench_branches_pkey |          1957888
 2017-02-04 02:02:08.657122+01 | 1486170128.65712 | pgbench_tellers_pkey  |          9527296
 2017-02-04 02:02:08.657122+01 | 1486170128.65712 | pgbench_accounts_pkey |       2246197248

 2017-02-04 02:02:09.735803+01 | 1486170129.7358 | pgbench_branches_pkey |          1957888
 2017-02-04 02:02:09.735803+01 | 1486170129.7358 | pgbench_tellers_pkey  |          9527296
 2017-02-04 02:02:09.735803+01 | 1486170129.7358 | pgbench_accounts_pkey |       2246197248

 2017-02-04 02:02:10.804382+01 | 1486170130.80438 | pgbench_branches_pkey |          1957888
 2017-02-04 02:02:10.804382+01 | 1486170130.80438 | pgbench_tellers_pkey  |          9527296
 2017-02-04 02:02:10.804382+01 | 1486170130.80438 | pgbench_accounts_pkey |       2246197248

 2017-02-04 02:02:11.875982+01 | 1486170131.87598 | pgbench_branches_pkey |          1957888
 2017-02-04 02:02:11.875982+01 | 1486170131.87598 | pgbench_tellers_pkey  |          9527296
 2017-02-04 02:02:11.875982+01 | 1486170131.87598 | pgbench_accounts_pkey |       2246197248

 2017-02-04 02:02:12.961591+01 | 1486170132.96159 | pgbench_branches_pkey |          1957888
 2017-02-04 02:02:12.961591+01 | 1486170132.96159 | pgbench_tellers_pkey  |          9527296
 2017-02-04 02:02:12.961591+01 | 1486170132.96159 | pgbench_accounts_pkey |       2246197248

 2017-02-04 02:02:14.047548+01 | 1486170134.04755 | pgbench_branches_pkey |          1957888
 2017-02-04 02:02:14.047548+01 | 1486170134.04755 | pgbench_tellers_pkey  |          9527296
 2017-02-04 02:02:14.047548+01 | 1486170134.04755 | pgbench_accounts_pkey |       2246197248

 2017-02-04 02:02:15.120546+01 | 1486170135.12055 | pgbench_branches_pkey |          1957888
 2017-02-04 02:02:15.120546+01 | 1486170135.12055 | pgbench_tellers_pkey  |          9527296
 2017-02-04 02:02:15.120546+01 | 1486170135.12055 | pgbench_accounts_pkey |       2246197248

 2017-02-04 02:02:16.193069+01 | 1486170136.19307 | pgbench_branches_pkey |          1957888
 2017-02-04 02:02:16.193069+01 | 1486170136.19307 | pgbench_tellers_pkey  |          9527296
 2017-02-04 02:02:16.193069+01 | 1486170136.19307 | pgbench_accounts_pkey |       2246197248

 2017-02-04 02:02:17.27054+01 | 1486170137.27054 | pgbench_branches_pkey |          1957888
 2017-02-04 02:02:17.27054+01 | 1486170137.27054 | pgbench_tellers_pkey  |          9527296
 2017-02-04 02:02:17.27054+01 | 1486170137.27054 | pgbench_accounts_pkey |       2246197248

 2017-02-04 02:02:18.359254+01 | 1486170138.35925 | pgbench_branches_pkey |          1957888
 2017-02-04 02:02:18.359254+01 | 1486170138.35925 | pgbench_tellers_pkey  |          9527296
 2017-02-04 02:02:18.359254+01 | 1486170138.35925 | pgbench_accounts_pkey |       2246197248

 2017-02-04 02:02:19.433559+01 | 1486170139.43356 | pgbench_branches_pkey |          1957888
 2017-02-04 02:02:19.433559+01 | 1486170139.43356 | pgbench_tellers_pkey  |          9527296
 2017-02-04 02:02:19.433559+01 | 1486170139.43356 | pgbench_accounts_pkey |       2246197248

 2017-02-04 02:02:20.526247+01 | 1486170140.52625 | pgbench_branches_pkey |          1957888
 2017-02-04 02:02:20.526247+01 | 1486170140.52625 | pgbench_tellers_pkey  |          9527296
 2017-02-04 02:02:20.526247+01 | 1486170140.52625 | pgbench_accounts_pkey |       2246197248

 2017-02-04 02:02:21.599983+01 | 1486170141.59998 | pgbench_branches_pkey |          1957888
 2017-02-04 02:02:21.599983+01 | 1486170141.59998 | pgbench_tellers_pkey  |          9527296
 2017-02-04 02:02:21.599983+01 | 1486170141.59998 | pgbench_accounts_pkey |       2246197248

 2017-02-04 02:02:22.677103+01 | 1486170142.6771 | pgbench_branches_pkey |          1957888
 2017-02-04 02:02:22.677103+01 | 1486170142.6771 | pgbench_tellers_pkey  |          9527296
 2017-02-04 02:02:22.677103+01 | 1486170142.6771 | pgbench_accounts_pkey |       2246197248

 2017-02-04 02:02:23.739936+01 | 1486170143.73994 | pgbench_branches_pkey |          1957888
 2017-02-04 02:02:23.739936+01 | 1486170143.73994 | pgbench_tellers_pkey  |          9527296
 2017-02-04 02:02:23.739936+01 | 1486170143.73994 | pgbench_accounts_pkey |       2246197248

 2017-02-04 02:02:24.817257+01 | 1486170144.81726 | pgbench_branches_pkey |          1957888
 2017-02-04 02:02:24.817257+01 | 1486170144.81726 | pgbench_tellers_pkey  |          9527296
 2017-02-04 02:02:24.817257+01 | 1486170144.81726 | pgbench_accounts_pkey |       2246197248

 2017-02-04 02:02:25.887673+01 | 1486170145.88767 | pgbench_branches_pkey |          1957888
 2017-02-04 02:02:25.887673+01 | 1486170145.88767 | pgbench_tellers_pkey  |          9527296
 2017-02-04 02:02:25.887673+01 | 1486170145.88767 | pgbench_accounts_pkey |       2246197248

 2017-02-04 02:02:26.961389+01 | 1486170146.96139 | pgbench_branches_pkey |          1957888
 2017-02-04 02:02:26.961389+01 | 1486170146.96139 | pgbench_tellers_pkey  |          9527296
 2017-02-04 02:02:26.961389+01 | 1486170146.96139 | pgbench_accounts_pkey |       2246197248

 2017-02-04 02:02:28.039634+01 | 1486170148.03963 | pgbench_branches_pkey |          1957888
 2017-02-04 02:02:28.039634+01 | 1486170148.03963 | pgbench_tellers_pkey  |          9527296
 2017-02-04 02:02:28.039634+01 | 1486170148.03963 | pgbench_accounts_pkey |       2246197248

 2017-02-04 02:02:29.115727+01 | 1486170149.11573 | pgbench_branches_pkey |          1957888
 2017-02-04 02:02:29.115727+01 | 1486170149.11573 | pgbench_tellers_pkey  |          9527296
 2017-02-04 02:02:29.115727+01 | 1486170149.11573 | pgbench_accounts_pkey |       2246197248

 2017-02-04 02:02:30.201517+01 | 1486170150.20152 | pgbench_branches_pkey |          1957888
 2017-02-04 02:02:30.201517+01 | 1486170150.20152 | pgbench_tellers_pkey  |          9527296
 2017-02-04 02:02:30.201517+01 | 1486170150.20152 | pgbench_accounts_pkey |       2246197248

 2017-02-04 02:02:31.293908+01 | 1486170151.29391 | pgbench_branches_pkey |          1957888
 2017-02-04 02:02:31.293908+01 | 1486170151.29391 | pgbench_tellers_pkey  |          9527296
 2017-02-04 02:02:31.293908+01 | 1486170151.29391 | pgbench_accounts_pkey |       2246197248

 2017-02-04 02:02:32.387485+01 | 1486170152.38749 | pgbench_branches_pkey |          1957888
 2017-02-04 02:02:32.387485+01 | 1486170152.38749 | pgbench_tellers_pkey  |          9527296
 2017-02-04 02:02:32.387485+01 | 1486170152.38749 | pgbench_accounts_pkey |       2246197248

 2017-02-04 02:02:33.472241+01 | 1486170153.47224 | pgbench_branches_pkey |          1957888
 2017-02-04 02:02:33.472241+01 | 1486170153.47224 | pgbench_tellers_pkey  |          9527296
 2017-02-04 02:02:33.472241+01 | 1486170153.47224 | pgbench_accounts_pkey |       2246197248

 2017-02-04 02:02:34.578924+01 | 1486170154.57892 | pgbench_branches_pkey |          1957888
 2017-02-04 02:02:34.578924+01 | 1486170154.57892 | pgbench_tellers_pkey  |          9527296
 2017-02-04 02:02:34.578924+01 | 1486170154.57892 | pgbench_accounts_pkey |       2246197248

 2017-02-04 02:02:35.673773+01 | 1486170155.67377 | pgbench_branches_pkey |          1957888
 2017-02-04 02:02:35.673773+01 | 1486170155.67377 | pgbench_tellers_pkey  |          9527296
 2017-02-04 02:02:35.673773+01 | 1486170155.67377 | pgbench_accounts_pkey |       2246197248

 2017-02-04 02:02:36.749256+01 | 1486170156.74926 | pgbench_branches_pkey |          1957888
 2017-02-04 02:02:36.749256+01 | 1486170156.74926 | pgbench_tellers_pkey  |          9527296
 2017-02-04 02:02:36.749256+01 | 1486170156.74926 | pgbench_accounts_pkey |       2246197248

 2017-02-04 02:02:37.828483+01 | 1486170157.82848 | pgbench_branches_pkey |          1957888
 2017-02-04 02:02:37.828483+01 | 1486170157.82848 | pgbench_tellers_pkey  |          9527296
 2017-02-04 02:02:37.828483+01 | 1486170157.82848 | pgbench_accounts_pkey |       2246197248

 2017-02-04 02:02:38.907889+01 | 1486170158.90789 | pgbench_branches_pkey |          1957888
 2017-02-04 02:02:38.907889+01 | 1486170158.90789 | pgbench_tellers_pkey  |          9527296
 2017-02-04 02:02:38.907889+01 | 1486170158.90789 | pgbench_accounts_pkey |       2246197248

 2017-02-04 02:02:39.979185+01 | 1486170159.97919 | pgbench_branches_pkey |          1957888
 2017-02-04 02:02:39.979185+01 | 1486170159.97919 | pgbench_tellers_pkey  |          9527296
 2017-02-04 02:02:39.979185+01 | 1486170159.97919 | pgbench_accounts_pkey |       2246197248

 2017-02-04 02:02:41.053277+01 | 1486170161.05328 | pgbench_branches_pkey |          1957888
 2017-02-04 02:02:41.053277+01 | 1486170161.05328 | pgbench_tellers_pkey  |          9527296
 2017-02-04 02:02:41.053277+01 | 1486170161.05328 | pgbench_accounts_pkey |       2246197248

 2017-02-04 02:02:42.126542+01 | 1486170162.12654 | pgbench_branches_pkey |          1957888
 2017-02-04 02:02:42.126542+01 | 1486170162.12654 | pgbench_tellers_pkey  |          9527296
 2017-02-04 02:02:42.126542+01 | 1486170162.12654 | pgbench_accounts_pkey |       2246197248

 2017-02-04 02:02:43.183478+01 | 1486170163.18348 | pgbench_branches_pkey |          1957888
 2017-02-04 02:02:43.183478+01 | 1486170163.18348 | pgbench_tellers_pkey  |          9527296
 2017-02-04 02:02:43.183478+01 | 1486170163.18348 | pgbench_accounts_pkey |       2246197248

 2017-02-04 02:02:44.260351+01 | 1486170164.26035 | pgbench_branches_pkey |          1957888
 2017-02-04 02:02:44.260351+01 | 1486170164.26035 | pgbench_tellers_pkey  |          9527296
 2017-02-04 02:02:44.260351+01 | 1486170164.26035 | pgbench_accounts_pkey |       2246197248

 2017-02-04 02:02:45.325283+01 | 1486170165.32528 | pgbench_branches_pkey |          1957888
 2017-02-04 02:02:45.325283+01 | 1486170165.32528 | pgbench_tellers_pkey  |          9527296
 2017-02-04 02:02:45.325283+01 | 1486170165.32528 | pgbench_accounts_pkey |       2246197248

 2017-02-04 02:02:46.405168+01 | 1486170166.40517 | pgbench_branches_pkey |          1957888
 2017-02-04 02:02:46.405168+01 | 1486170166.40517 | pgbench_tellers_pkey  |          9527296
 2017-02-04 02:02:46.405168+01 | 1486170166.40517 | pgbench_accounts_pkey |       2246197248

 2017-02-04 02:02:47.475022+01 | 1486170167.47502 | pgbench_branches_pkey |          1957888
 2017-02-04 02:02:47.475022+01 | 1486170167.47502 | pgbench_tellers_pkey  |          9527296
 2017-02-04 02:02:47.475022+01 | 1486170167.47502 | pgbench_accounts_pkey |       2246197248

 2017-02-04 02:02:48.56012+01 | 1486170168.56012 | pgbench_branches_pkey |          1957888
 2017-02-04 02:02:48.56012+01 | 1486170168.56012 | pgbench_tellers_pkey  |          9527296
 2017-02-04 02:02:48.56012+01 | 1486170168.56012 | pgbench_accounts_pkey |       2246197248

 2017-02-04 02:02:49.645616+01 | 1486170169.64562 | pgbench_branches_pkey |          1957888
 2017-02-04 02:02:49.645616+01 | 1486170169.64562 | pgbench_tellers_pkey  |          9527296
 2017-02-04 02:02:49.645616+01 | 1486170169.64562 | pgbench_accounts_pkey |       2246197248

 2017-02-04 02:02:50.728252+01 | 1486170170.72825 | pgbench_branches_pkey |          1957888
 2017-02-04 02:02:50.728252+01 | 1486170170.72825 | pgbench_tellers_pkey  |          9527296
 2017-02-04 02:02:50.728252+01 | 1486170170.72825 | pgbench_accounts_pkey |       2246197248

 2017-02-04 02:02:51.809162+01 | 1486170171.80916 | pgbench_branches_pkey |          1957888
 2017-02-04 02:02:51.809162+01 | 1486170171.80916 | pgbench_tellers_pkey  |          9527296
 2017-02-04 02:02:51.809162+01 | 1486170171.80916 | pgbench_accounts_pkey |       2246197248

 2017-02-04 02:02:52.893915+01 | 1486170172.89391 | pgbench_branches_pkey |          1957888
 2017-02-04 02:02:52.893915+01 | 1486170172.89391 | pgbench_tellers_pkey  |          9527296
 2017-02-04 02:02:52.893915+01 | 1486170172.89391 | pgbench_accounts_pkey |       2246197248

 2017-02-04 02:02:53.985701+01 | 1486170173.9857 | pgbench_branches_pkey |          1957888
 2017-02-04 02:02:53.985701+01 | 1486170173.9857 | pgbench_tellers_pkey  |          9527296
 2017-02-04 02:02:53.985701+01 | 1486170173.9857 | pgbench_accounts_pkey |       2246197248

 2017-02-04 02:02:55.05941+01 | 1486170175.05941 | pgbench_branches_pkey |          1957888
 2017-02-04 02:02:55.05941+01 | 1486170175.05941 | pgbench_tellers_pkey  |          9527296
 2017-02-04 02:02:55.05941+01 | 1486170175.05941 | pgbench_accounts_pkey |       2246197248

 2017-02-04 02:02:56.133683+01 | 1486170176.13368 | pgbench_branches_pkey |          1957888
 2017-02-04 02:02:56.133683+01 | 1486170176.13368 | pgbench_tellers_pkey  |          9527296
 2017-02-04 02:02:56.133683+01 | 1486170176.13368 | pgbench_accounts_pkey |       2246197248

 2017-02-04 02:02:57.211813+01 | 1486170177.21181 | pgbench_branches_pkey |          1957888
 2017-02-04 02:02:57.211813+01 | 1486170177.21181 | pgbench_tellers_pkey  |          9527296
 2017-02-04 02:02:57.211813+01 | 1486170177.21181 | pgbench_accounts_pkey |       2246197248

 2017-02-04 02:02:58.303224+01 | 1486170178.30322 | pgbench_branches_pkey |          1957888
 2017-02-04 02:02:58.303224+01 | 1486170178.30322 | pgbench_tellers_pkey  |          9527296
 2017-02-04 02:02:58.303224+01 | 1486170178.30322 | pgbench_accounts_pkey |       2246197248

 2017-02-04 02:02:59.38591+01 | 1486170179.38591 | pgbench_branches_pkey |          1957888
 2017-02-04 02:02:59.38591+01 | 1486170179.38591 | pgbench_tellers_pkey  |          9527296
 2017-02-04 02:02:59.38591+01 | 1486170179.38591 | pgbench_accounts_pkey |       2246197248

 2017-02-04 02:03:00.471704+01 | 1486170180.4717 | pgbench_branches_pkey |          1957888
 2017-02-04 02:03:00.471704+01 | 1486170180.4717 | pgbench_tellers_pkey  |          9527296
 2017-02-04 02:03:00.471704+01 | 1486170180.4717 | pgbench_accounts_pkey |       2246197248

 2017-02-04 02:03:01.554783+01 | 1486170181.55478 | pgbench_branches_pkey |          1957888
 2017-02-04 02:03:01.554783+01 | 1486170181.55478 | pgbench_tellers_pkey  |          9527296
 2017-02-04 02:03:01.554783+01 | 1486170181.55478 | pgbench_accounts_pkey |       2246197248

 2017-02-04 02:03:02.639111+01 | 1486170182.63911 | pgbench_branches_pkey |          1957888
 2017-02-04 02:03:02.639111+01 | 1486170182.63911 | pgbench_tellers_pkey  |          9527296
 2017-02-04 02:03:02.639111+01 | 1486170182.63911 | pgbench_accounts_pkey |       2246197248

 2017-02-04 02:03:03.723822+01 | 1486170183.72382 | pgbench_branches_pkey |          1957888
 2017-02-04 02:03:03.723822+01 | 1486170183.72382 | pgbench_tellers_pkey  |          9527296
 2017-02-04 02:03:03.723822+01 | 1486170183.72382 | pgbench_accounts_pkey |       2246197248

 2017-02-04 02:03:04.808526+01 | 1486170184.80853 | pgbench_branches_pkey |          1957888
 2017-02-04 02:03:04.808526+01 | 1486170184.80853 | pgbench_tellers_pkey  |          9527296
 2017-02-04 02:03:04.808526+01 | 1486170184.80853 | pgbench_accounts_pkey |       2246197248

 2017-02-04 02:03:05.896301+01 | 1486170185.8963 | pgbench_branches_pkey |          1957888
 2017-02-04 02:03:05.896301+01 | 1486170185.8963 | pgbench_tellers_pkey  |          9527296
 2017-02-04 02:03:05.896301+01 | 1486170185.8963 | pgbench_accounts_pkey |       2246197248

 2017-02-04 02:03:06.981354+01 | 1486170186.98135 | pgbench_branches_pkey |          1957888
 2017-02-04 02:03:06.981354+01 | 1486170186.98135 | pgbench_tellers_pkey  |          9527296
 2017-02-04 02:03:06.981354+01 | 1486170186.98135 | pgbench_accounts_pkey |       2246197248

 2017-02-04 02:03:08.055874+01 | 1486170188.05587 | pgbench_branches_pkey |          1957888
 2017-02-04 02:03:08.055874+01 | 1486170188.05587 | pgbench_tellers_pkey  |          9527296
 2017-02-04 02:03:08.055874+01 | 1486170188.05587 | pgbench_accounts_pkey |       2246197248

 2017-02-04 02:03:09.129466+01 | 1486170189.12947 | pgbench_branches_pkey |          1957888
 2017-02-04 02:03:09.129466+01 | 1486170189.12947 | pgbench_tellers_pkey  |          9527296
 2017-02-04 02:03:09.129466+01 | 1486170189.12947 | pgbench_accounts_pkey |       2246197248

 2017-02-04 02:03:10.202604+01 | 1486170190.2026 | pgbench_branches_pkey |          1957888
 2017-02-04 02:03:10.202604+01 | 1486170190.2026 | pgbench_tellers_pkey  |          9527296
 2017-02-04 02:03:10.202604+01 | 1486170190.2026 | pgbench_accounts_pkey |       2246197248

 2017-02-04 02:03:11.281053+01 | 1486170191.28105 | pgbench_branches_pkey |          1957888
 2017-02-04 02:03:11.281053+01 | 1486170191.28105 | pgbench_tellers_pkey  |          9527296
 2017-02-04 02:03:11.281053+01 | 1486170191.28105 | pgbench_accounts_pkey |       2246197248

 2017-02-04 02:03:12.354802+01 | 1486170192.3548 | pgbench_branches_pkey |          1957888
 2017-02-04 02:03:12.354802+01 | 1486170192.3548 | pgbench_tellers_pkey  |          9527296
 2017-02-04 02:03:12.354802+01 | 1486170192.3548 | pgbench_accounts_pkey |       2246197248

 2017-02-04 02:03:13.444417+01 | 1486170193.44442 | pgbench_branches_pkey |          1957888
 2017-02-04 02:03:13.444417+01 | 1486170193.44442 | pgbench_tellers_pkey  |          9527296
 2017-02-04 02:03:13.444417+01 | 1486170193.44442 | pgbench_accounts_pkey |       2246197248

 2017-02-04 02:03:14.53042+01 | 1486170194.53042 | pgbench_branches_pkey |          1957888
 2017-02-04 02:03:14.53042+01 | 1486170194.53042 | pgbench_tellers_pkey  |          9527296
 2017-02-04 02:03:14.53042+01 | 1486170194.53042 | pgbench_accounts_pkey |       2246197248

 2017-02-04 02:03:15.609955+01 | 1486170195.60996 | pgbench_branches_pkey |          1957888
 2017-02-04 02:03:15.609955+01 | 1486170195.60996 | pgbench_tellers_pkey  |          9527296
 2017-02-04 02:03:15.609955+01 | 1486170195.60996 | pgbench_accounts_pkey |       2246197248

 2017-02-04 02:03:16.685532+01 | 1486170196.68553 | pgbench_branches_pkey |          1957888
 2017-02-04 02:03:16.685532+01 | 1486170196.68553 | pgbench_tellers_pkey  |          9527296
 2017-02-04 02:03:16.685532+01 | 1486170196.68553 | pgbench_accounts_pkey |       2246197248

 2017-02-04 02:03:17.769482+01 | 1486170197.76948 | pgbench_branches_pkey |          1957888
 2017-02-04 02:03:17.769482+01 | 1486170197.76948 | pgbench_tellers_pkey  |          9527296
 2017-02-04 02:03:17.769482+01 | 1486170197.76948 | pgbench_accounts_pkey |       2246197248

 2017-02-04 02:03:18.856095+01 | 1486170198.8561 | pgbench_branches_pkey |          1957888
 2017-02-04 02:03:18.856095+01 | 1486170198.8561 | pgbench_tellers_pkey  |          9527296
 2017-02-04 02:03:18.856095+01 | 1486170198.8561 | pgbench_accounts_pkey |       2246197248

 2017-02-04 02:03:19.948437+01 | 1486170199.94844 | pgbench_branches_pkey |          1957888
 2017-02-04 02:03:19.948437+01 | 1486170199.94844 | pgbench_tellers_pkey  |          9527296
 2017-02-04 02:03:19.948437+01 | 1486170199.94844 | pgbench_accounts_pkey |       2246197248

 2017-02-04 02:03:21.028895+01 | 1486170201.02889 | pgbench_branches_pkey |          1957888
 2017-02-04 02:03:21.028895+01 | 1486170201.02889 | pgbench_tellers_pkey  |          9527296
 2017-02-04 02:03:21.028895+01 | 1486170201.02889 | pgbench_accounts_pkey |       2246197248

 2017-02-04 02:03:22.103983+01 | 1486170202.10398 | pgbench_branches_pkey |          1957888
 2017-02-04 02:03:22.103983+01 | 1486170202.10398 | pgbench_tellers_pkey  |          9527296
 2017-02-04 02:03:22.103983+01 | 1486170202.10398 | pgbench_accounts_pkey |       2246197248

 2017-02-04 02:03:23.181632+01 | 1486170203.18163 | pgbench_branches_pkey |          1957888
 2017-02-04 02:03:23.181632+01 | 1486170203.18163 | pgbench_tellers_pkey  |          9527296
 2017-02-04 02:03:23.181632+01 | 1486170203.18163 | pgbench_accounts_pkey |       2246197248

 2017-02-04 02:03:24.259989+01 | 1486170204.25999 | pgbench_branches_pkey |          1957888
 2017-02-04 02:03:24.259989+01 | 1486170204.25999 | pgbench_tellers_pkey  |          9527296
 2017-02-04 02:03:24.259989+01 | 1486170204.25999 | pgbench_accounts_pkey |       2246197248

 2017-02-04 02:03:25.340452+01 | 1486170205.34045 | pgbench_branches_pkey |          1957888
 2017-02-04 02:03:25.340452+01 | 1486170205.34045 | pgbench_tellers_pkey  |          9527296
 2017-02-04 02:03:25.340452+01 | 1486170205.34045 | pgbench_accounts_pkey |       2246197248

 2017-02-04 02:03:26.406601+01 | 1486170206.4066 | pgbench_branches_pkey |          1957888
 2017-02-04 02:03:26.406601+01 | 1486170206.4066 | pgbench_tellers_pkey  |          9527296
 2017-02-04 02:03:26.406601+01 | 1486170206.4066 | pgbench_accounts_pkey |       2246197248

 2017-02-04 02:03:27.480942+01 | 1486170207.48094 | pgbench_branches_pkey |          1957888
 2017-02-04 02:03:27.480942+01 | 1486170207.48094 | pgbench_tellers_pkey  |          9527296
 2017-02-04 02:03:27.480942+01 | 1486170207.48094 | pgbench_accounts_pkey |       2246197248

 2017-02-04 02:03:28.568055+01 | 1486170208.56805 | pgbench_branches_pkey |          1957888
 2017-02-04 02:03:28.568055+01 | 1486170208.56805 | pgbench_tellers_pkey  |          9527296
 2017-02-04 02:03:28.568055+01 | 1486170208.56805 | pgbench_accounts_pkey |       2246197248

 2017-02-04 02:03:29.652085+01 | 1486170209.65209 | pgbench_branches_pkey |          1957888
 2017-02-04 02:03:29.652085+01 | 1486170209.65209 | pgbench_tellers_pkey  |          9527296
 2017-02-04 02:03:29.652085+01 | 1486170209.65209 | pgbench_accounts_pkey |       2246197248

 2017-02-04 02:03:30.743123+01 | 1486170210.74312 | pgbench_branches_pkey |          1957888
 2017-02-04 02:03:30.743123+01 | 1486170210.74312 | pgbench_tellers_pkey  |          9527296
 2017-02-04 02:03:30.743123+01 | 1486170210.74312 | pgbench_accounts_pkey |       2246197248

 2017-02-04 02:03:31.819639+01 | 1486170211.81964 | pgbench_branches_pkey |          1957888
 2017-02-04 02:03:31.819639+01 | 1486170211.81964 | pgbench_tellers_pkey  |          9527296
 2017-02-04 02:03:31.819639+01 | 1486170211.81964 | pgbench_accounts_pkey |       2246197248

 2017-02-04 02:03:32.894148+01 | 1486170212.89415 | pgbench_branches_pkey |          1957888
 2017-02-04 02:03:32.894148+01 | 1486170212.89415 | pgbench_tellers_pkey  |          9527296
 2017-02-04 02:03:32.894148+01 | 1486170212.89415 | pgbench_accounts_pkey |       2246197248

 2017-02-04 02:03:33.9767+01 | 1486170213.9767 | pgbench_branches_pkey |          1957888
 2017-02-04 02:03:33.9767+01 | 1486170213.9767 | pgbench_tellers_pkey  |          9527296
 2017-02-04 02:03:33.9767+01 | 1486170213.9767 | pgbench_accounts_pkey |       2246197248

 2017-02-04 02:03:35.047713+01 | 1486170215.04771 | pgbench_branches_pkey |          1957888
 2017-02-04 02:03:35.047713+01 | 1486170215.04771 | pgbench_tellers_pkey  |          9527296
 2017-02-04 02:03:35.047713+01 | 1486170215.04771 | pgbench_accounts_pkey |       2246197248

 2017-02-04 02:03:36.127245+01 | 1486170216.12724 | pgbench_branches_pkey |          1957888
 2017-02-04 02:03:36.127245+01 | 1486170216.12724 | pgbench_tellers_pkey  |          9527296
 2017-02-04 02:03:36.127245+01 | 1486170216.12724 | pgbench_accounts_pkey |       2246197248

 2017-02-04 02:03:37.201035+01 | 1486170217.20104 | pgbench_branches_pkey |          1957888
 2017-02-04 02:03:37.201035+01 | 1486170217.20104 | pgbench_tellers_pkey  |          9527296
 2017-02-04 02:03:37.201035+01 | 1486170217.20104 | pgbench_accounts_pkey |       2246197248

 2017-02-04 02:03:38.281458+01 | 1486170218.28146 | pgbench_branches_pkey |          1957888
 2017-02-04 02:03:38.281458+01 | 1486170218.28146 | pgbench_tellers_pkey  |          9527296
 2017-02-04 02:03:38.281458+01 | 1486170218.28146 | pgbench_accounts_pkey |       2246197248

 2017-02-04 02:03:39.352447+01 | 1486170219.35245 | pgbench_branches_pkey |          1957888
 2017-02-04 02:03:39.352447+01 | 1486170219.35245 | pgbench_tellers_pkey  |          9527296
 2017-02-04 02:03:39.352447+01 | 1486170219.35245 | pgbench_accounts_pkey |       2246197248

 2017-02-04 02:03:40.435299+01 | 1486170220.4353 | pgbench_branches_pkey |          1957888
 2017-02-04 02:03:40.435299+01 | 1486170220.4353 | pgbench_tellers_pkey  |          9527296
 2017-02-04 02:03:40.435299+01 | 1486170220.4353 | pgbench_accounts_pkey |       2246197248

 2017-02-04 02:03:41.525408+01 | 1486170221.52541 | pgbench_branches_pkey |          1957888
 2017-02-04 02:03:41.525408+01 | 1486170221.52541 | pgbench_tellers_pkey  |          9527296
 2017-02-04 02:03:41.525408+01 | 1486170221.52541 | pgbench_accounts_pkey |       2246197248

 2017-02-04 02:03:42.607363+01 | 1486170222.60736 | pgbench_branches_pkey |          1957888
 2017-02-04 02:03:42.607363+01 | 1486170222.60736 | pgbench_tellers_pkey  |          9527296
 2017-02-04 02:03:42.607363+01 | 1486170222.60736 | pgbench_accounts_pkey |       2246197248

 2017-02-04 02:03:43.687376+01 | 1486170223.68738 | pgbench_branches_pkey |          1957888
 2017-02-04 02:03:43.687376+01 | 1486170223.68738 | pgbench_tellers_pkey  |          9527296
 2017-02-04 02:03:43.687376+01 | 1486170223.68738 | pgbench_accounts_pkey |       2246197248

 2017-02-04 02:03:44.787973+01 | 1486170224.78797 | pgbench_branches_pkey |          1957888
 2017-02-04 02:03:44.787973+01 | 1486170224.78797 | pgbench_tellers_pkey  |          9527296
 2017-02-04 02:03:44.787973+01 | 1486170224.78797 | pgbench_accounts_pkey |       2246197248

 2017-02-04 02:03:45.857211+01 | 1486170225.85721 | pgbench_branches_pkey |          1957888
 2017-02-04 02:03:45.857211+01 | 1486170225.85721 | pgbench_tellers_pkey  |          9527296
 2017-02-04 02:03:45.857211+01 | 1486170225.85721 | pgbench_accounts_pkey |       2246197248

 2017-02-04 02:03:46.943216+01 | 1486170226.94322 | pgbench_branches_pkey |          1957888
 2017-02-04 02:03:46.943216+01 | 1486170226.94322 | pgbench_tellers_pkey  |          9527296
 2017-02-04 02:03:46.943216+01 | 1486170226.94322 | pgbench_accounts_pkey |       2246197248

 2017-02-04 02:03:48.023487+01 | 1486170228.02349 | pgbench_branches_pkey |          1957888
 2017-02-04 02:03:48.023487+01 | 1486170228.02349 | pgbench_tellers_pkey  |          9527296
 2017-02-04 02:03:48.023487+01 | 1486170228.02349 | pgbench_accounts_pkey |       2246197248

 2017-02-04 02:03:49.107542+01 | 1486170229.10754 | pgbench_branches_pkey |          1957888
 2017-02-04 02:03:49.107542+01 | 1486170229.10754 | pgbench_tellers_pkey  |          9527296
 2017-02-04 02:03:49.107542+01 | 1486170229.10754 | pgbench_accounts_pkey |       2246197248

 2017-02-04 02:03:50.183582+01 | 1486170230.18358 | pgbench_branches_pkey |          1957888
 2017-02-04 02:03:50.183582+01 | 1486170230.18358 | pgbench_tellers_pkey  |          9527296
 2017-02-04 02:03:50.183582+01 | 1486170230.18358 | pgbench_accounts_pkey |       2246197248

 2017-02-04 02:03:51.268503+01 | 1486170231.2685 | pgbench_branches_pkey |          1957888
 2017-02-04 02:03:51.268503+01 | 1486170231.2685 | pgbench_tellers_pkey  |          9527296
 2017-02-04 02:03:51.268503+01 | 1486170231.2685 | pgbench_accounts_pkey |       2246197248

 2017-02-04 02:03:52.349398+01 | 1486170232.3494 | pgbench_branches_pkey |          1957888
 2017-02-04 02:03:52.349398+01 | 1486170232.3494 | pgbench_tellers_pkey  |          9527296
 2017-02-04 02:03:52.349398+01 | 1486170232.3494 | pgbench_accounts_pkey |       2246197248

 2017-02-04 02:03:53.42467+01 | 1486170233.42467 | pgbench_branches_pkey |          1957888
 2017-02-04 02:03:53.42467+01 | 1486170233.42467 | pgbench_tellers_pkey  |          9527296
 2017-02-04 02:03:53.42467+01 | 1486170233.42467 | pgbench_accounts_pkey |       2246197248

 2017-02-04 02:03:54.505205+01 | 1486170234.5052 | pgbench_branches_pkey |          1957888
 2017-02-04 02:03:54.505205+01 | 1486170234.5052 | pgbench_tellers_pkey  |          9527296
 2017-02-04 02:03:54.505205+01 | 1486170234.5052 | pgbench_accounts_pkey |       2246197248

 2017-02-04 02:03:55.580017+01 | 1486170235.58002 | pgbench_branches_pkey |          1957888
 2017-02-04 02:03:55.580017+01 | 1486170235.58002 | pgbench_tellers_pkey  |          9527296
 2017-02-04 02:03:55.580017+01 | 1486170235.58002 | pgbench_accounts_pkey |       2246197248

 2017-02-04 02:03:56.645576+01 | 1486170236.64558 | pgbench_branches_pkey |          1957888
 2017-02-04 02:03:56.645576+01 | 1486170236.64558 | pgbench_tellers_pkey  |          9527296
 2017-02-04 02:03:56.645576+01 | 1486170236.64558 | pgbench_accounts_pkey |       2246197248

 2017-02-04 02:03:57.723632+01 | 1486170237.72363 | pgbench_branches_pkey |          1957888
 2017-02-04 02:03:57.723632+01 | 1486170237.72363 | pgbench_tellers_pkey  |          9527296
 2017-02-04 02:03:57.723632+01 | 1486170237.72363 | pgbench_accounts_pkey |       2246197248

 2017-02-04 02:03:58.800126+01 | 1486170238.80013 | pgbench_branches_pkey |          1957888
 2017-02-04 02:03:58.800126+01 | 1486170238.80013 | pgbench_tellers_pkey  |          9527296
 2017-02-04 02:03:58.800126+01 | 1486170238.80013 | pgbench_accounts_pkey |       2246197248

 2017-02-04 02:03:59.880933+01 | 1486170239.88093 | pgbench_branches_pkey |          1957888
 2017-02-04 02:03:59.880933+01 | 1486170239.88093 | pgbench_tellers_pkey  |          9527296
 2017-02-04 02:03:59.880933+01 | 1486170239.88093 | pgbench_accounts_pkey |       2246197248

 2017-02-04 02:04:00.973596+01 | 1486170240.9736 | pgbench_branches_pkey |          1957888
 2017-02-04 02:04:00.973596+01 | 1486170240.9736 | pgbench_tellers_pkey  |          9527296
 2017-02-04 02:04:00.973596+01 | 1486170240.9736 | pgbench_accounts_pkey |       2246197248

 2017-02-04 02:04:02.057409+01 | 1486170242.05741 | pgbench_branches_pkey |          1957888
 2017-02-04 02:04:02.057409+01 | 1486170242.05741 | pgbench_tellers_pkey  |          9527296
 2017-02-04 02:04:02.057409+01 | 1486170242.05741 | pgbench_accounts_pkey |       2246197248

 2017-02-04 02:04:03.134176+01 | 1486170243.13418 | pgbench_branches_pkey |          1957888
 2017-02-04 02:04:03.134176+01 | 1486170243.13418 | pgbench_tellers_pkey  |          9527296
 2017-02-04 02:04:03.134176+01 | 1486170243.13418 | pgbench_accounts_pkey |       2246197248

 2017-02-04 02:04:04.218286+01 | 1486170244.21829 | pgbench_branches_pkey |          1957888
 2017-02-04 02:04:04.218286+01 | 1486170244.21829 | pgbench_tellers_pkey  |          9527296
 2017-02-04 02:04:04.218286+01 | 1486170244.21829 | pgbench_accounts_pkey |       2246197248

 2017-02-04 02:04:05.303035+01 | 1486170245.30304 | pgbench_branches_pkey |          1957888
 2017-02-04 02:04:05.303035+01 | 1486170245.30304 | pgbench_tellers_pkey  |          9527296
 2017-02-04 02:04:05.303035+01 | 1486170245.30304 | pgbench_accounts_pkey |       2246197248

 2017-02-04 02:04:06.380412+01 | 1486170246.38041 | pgbench_branches_pkey |          1957888
 2017-02-04 02:04:06.380412+01 | 1486170246.38041 | pgbench_tellers_pkey  |          9527296
 2017-02-04 02:04:06.380412+01 | 1486170246.38041 | pgbench_accounts_pkey |       2246197248

 2017-02-04 02:04:07.464457+01 | 1486170247.46446 | pgbench_branches_pkey |          1957888
 2017-02-04 02:04:07.464457+01 | 1486170247.46446 | pgbench_tellers_pkey  |          9527296
 2017-02-04 02:04:07.464457+01 | 1486170247.46446 | pgbench_accounts_pkey |       2246197248

 2017-02-04 02:04:08.545595+01 | 1486170248.54559 | pgbench_branches_pkey |          1957888
 2017-02-04 02:04:08.545595+01 | 1486170248.54559 | pgbench_tellers_pkey  |          9527296
 2017-02-04 02:04:08.545595+01 | 1486170248.54559 | pgbench_accounts_pkey |       2246197248

 2017-02-04 02:04:09.627518+01 | 1486170249.62752 | pgbench_branches_pkey |          1957888
 2017-02-04 02:04:09.627518+01 | 1486170249.62752 | pgbench_tellers_pkey  |          9527296
 2017-02-04 02:04:09.627518+01 | 1486170249.62752 | pgbench_accounts_pkey |       2246197248

 2017-02-04 02:04:10.712737+01 | 1486170250.71274 | pgbench_branches_pkey |          1957888
 2017-02-04 02:04:10.712737+01 | 1486170250.71274 | pgbench_tellers_pkey  |          9527296
 2017-02-04 02:04:10.712737+01 | 1486170250.71274 | pgbench_accounts_pkey |       2246197248

 2017-02-04 02:04:11.796241+01 | 1486170251.79624 | pgbench_branches_pkey |          1957888
 2017-02-04 02:04:11.796241+01 | 1486170251.79624 | pgbench_tellers_pkey  |          9527296
 2017-02-04 02:04:11.796241+01 | 1486170251.79624 | pgbench_accounts_pkey |       2246197248

 2017-02-04 02:04:12.884453+01 | 1486170252.88445 | pgbench_branches_pkey |          1957888
 2017-02-04 02:04:12.884453+01 | 1486170252.88445 | pgbench_tellers_pkey  |          9527296
 2017-02-04 02:04:12.884453+01 | 1486170252.88445 | pgbench_accounts_pkey |       2246197248

 2017-02-04 02:04:13.969128+01 | 1486170253.96913 | pgbench_branches_pkey |          1957888
 2017-02-04 02:04:13.969128+01 | 1486170253.96913 | pgbench_tellers_pkey  |          9527296
 2017-02-04 02:04:13.969128+01 | 1486170253.96913 | pgbench_accounts_pkey |       2246197248

 2017-02-04 02:04:15.054026+01 | 1486170255.05403 | pgbench_branches_pkey |          1957888
 2017-02-04 02:04:15.054026+01 | 1486170255.05403 | pgbench_tellers_pkey  |          9527296
 2017-02-04 02:04:15.054026+01 | 1486170255.05403 | pgbench_accounts_pkey |       2246197248

 2017-02-04 02:04:16.140982+01 | 1486170256.14098 | pgbench_branches_pkey |          1957888
 2017-02-04 02:04:16.140982+01 | 1486170256.14098 | pgbench_tellers_pkey  |          9527296
 2017-02-04 02:04:16.140982+01 | 1486170256.14098 | pgbench_accounts_pkey |       2246197248

 2017-02-04 02:04:17.212052+01 | 1486170257.21205 | pgbench_branches_pkey |          1957888
 2017-02-04 02:04:17.212052+01 | 1486170257.21205 | pgbench_tellers_pkey  |          9527296
 2017-02-04 02:04:17.212052+01 | 1486170257.21205 | pgbench_accounts_pkey |       2246197248

 2017-02-04 02:04:18.29428+01 | 1486170258.29428 | pgbench_branches_pkey |          1957888
 2017-02-04 02:04:18.29428+01 | 1486170258.29428 | pgbench_tellers_pkey  |          9527296
 2017-02-04 02:04:18.29428+01 | 1486170258.29428 | pgbench_accounts_pkey |       2246197248

 2017-02-04 02:04:19.370605+01 | 1486170259.3706 | pgbench_branches_pkey |          1957888
 2017-02-04 02:04:19.370605+01 | 1486170259.3706 | pgbench_tellers_pkey  |          9527296
 2017-02-04 02:04:19.370605+01 | 1486170259.3706 | pgbench_accounts_pkey |       2246197248

 2017-02-04 02:04:20.467639+01 | 1486170260.46764 | pgbench_branches_pkey |          1957888
 2017-02-04 02:04:20.467639+01 | 1486170260.46764 | pgbench_tellers_pkey  |          9527296
 2017-02-04 02:04:20.467639+01 | 1486170260.46764 | pgbench_accounts_pkey |       2246197248

 2017-02-04 02:04:21.550048+01 | 1486170261.55005 | pgbench_branches_pkey |          1957888
 2017-02-04 02:04:21.550048+01 | 1486170261.55005 | pgbench_tellers_pkey  |          9527296
 2017-02-04 02:04:21.550048+01 | 1486170261.55005 | pgbench_accounts_pkey |       2246197248

 2017-02-04 02:04:22.628635+01 | 1486170262.62863 | pgbench_branches_pkey |          1957888
 2017-02-04 02:04:22.628635+01 | 1486170262.62863 | pgbench_tellers_pkey  |          9527296
 2017-02-04 02:04:22.628635+01 | 1486170262.62863 | pgbench_accounts_pkey |       2246197248

 2017-02-04 02:04:23.706735+01 | 1486170263.70673 | pgbench_branches_pkey |          1957888
 2017-02-04 02:04:23.706735+01 | 1486170263.70673 | pgbench_tellers_pkey  |          9527296
 2017-02-04 02:04:23.706735+01 | 1486170263.70673 | pgbench_accounts_pkey |       2246197248

 2017-02-04 02:04:24.789564+01 | 1486170264.78956 | pgbench_branches_pkey |          1957888
 2017-02-04 02:04:24.789564+01 | 1486170264.78956 | pgbench_tellers_pkey  |          9527296
 2017-02-04 02:04:24.789564+01 | 1486170264.78956 | pgbench_accounts_pkey |       2246197248

 2017-02-04 02:04:25.870734+01 | 1486170265.87073 | pgbench_branches_pkey |          1957888
 2017-02-04 02:04:25.870734+01 | 1486170265.87073 | pgbench_tellers_pkey  |          9527296
 2017-02-04 02:04:25.870734+01 | 1486170265.87073 | pgbench_accounts_pkey |       2246197248

 2017-02-04 02:04:26.958766+01 | 1486170266.95877 | pgbench_branches_pkey |          1957888
 2017-02-04 02:04:26.958766+01 | 1486170266.95877 | pgbench_tellers_pkey  |          9527296
 2017-02-04 02:04:26.958766+01 | 1486170266.95877 | pgbench_accounts_pkey |       2246197248

 2017-02-04 02:04:28.049485+01 | 1486170268.04948 | pgbench_branches_pkey |          1957888
 2017-02-04 02:04:28.049485+01 | 1486170268.04948 | pgbench_tellers_pkey  |          9527296
 2017-02-04 02:04:28.049485+01 | 1486170268.04948 | pgbench_accounts_pkey |       2246197248

 2017-02-04 02:04:29.122931+01 | 1486170269.12293 | pgbench_branches_pkey |          1957888
 2017-02-04 02:04:29.122931+01 | 1486170269.12293 | pgbench_tellers_pkey  |          9527296
 2017-02-04 02:04:29.122931+01 | 1486170269.12293 | pgbench_accounts_pkey |       2246197248

 2017-02-04 02:04:30.201206+01 | 1486170270.20121 | pgbench_branches_pkey |          1957888
 2017-02-04 02:04:30.201206+01 | 1486170270.20121 | pgbench_tellers_pkey  |          9527296
 2017-02-04 02:04:30.201206+01 | 1486170270.20121 | pgbench_accounts_pkey |       2246197248

 2017-02-04 02:04:31.281516+01 | 1486170271.28152 | pgbench_branches_pkey |          1957888
 2017-02-04 02:04:31.281516+01 | 1486170271.28152 | pgbench_tellers_pkey  |          9527296
 2017-02-04 02:04:31.281516+01 | 1486170271.28152 | pgbench_accounts_pkey |       2246197248

 2017-02-04 02:04:32.3611+01 | 1486170272.3611 | pgbench_branches_pkey |          1957888
 2017-02-04 02:04:32.3611+01 | 1486170272.3611 | pgbench_tellers_pkey  |          9527296
 2017-02-04 02:04:32.3611+01 | 1486170272.3611 | pgbench_accounts_pkey |       2246197248

 2017-02-04 02:04:33.443583+01 | 1486170273.44358 | pgbench_branches_pkey |          1957888
 2017-02-04 02:04:33.443583+01 | 1486170273.44358 | pgbench_tellers_pkey  |          9527296
 2017-02-04 02:04:33.443583+01 | 1486170273.44358 | pgbench_accounts_pkey |       2246197248

 2017-02-04 02:04:34.53463+01 | 1486170274.53463 | pgbench_branches_pkey |          1957888
 2017-02-04 02:04:34.53463+01 | 1486170274.53463 | pgbench_tellers_pkey  |          9527296
 2017-02-04 02:04:34.53463+01 | 1486170274.53463 | pgbench_accounts_pkey |       2246197248

 2017-02-04 02:04:35.605946+01 | 1486170275.60595 | pgbench_branches_pkey |          1957888
 2017-02-04 02:04:35.605946+01 | 1486170275.60595 | pgbench_tellers_pkey  |          9527296
 2017-02-04 02:04:35.605946+01 | 1486170275.60595 | pgbench_accounts_pkey |       2246197248

 2017-02-04 02:04:36.68714+01 | 1486170276.68714 | pgbench_branches_pkey |          1957888
 2017-02-04 02:04:36.68714+01 | 1486170276.68714 | pgbench_tellers_pkey  |          9527296
 2017-02-04 02:04:36.68714+01 | 1486170276.68714 | pgbench_accounts_pkey |       2246197248

 2017-02-04 02:04:37.770087+01 | 1486170277.77009 | pgbench_branches_pkey |          1957888
 2017-02-04 02:04:37.770087+01 | 1486170277.77009 | pgbench_tellers_pkey  |          9527296
 2017-02-04 02:04:37.770087+01 | 1486170277.77009 | pgbench_accounts_pkey |       2246197248

 2017-02-04 02:04:38.835552+01 | 1486170278.83555 | pgbench_branches_pkey |          1957888
 2017-02-04 02:04:38.835552+01 | 1486170278.83555 | pgbench_tellers_pkey  |          9527296
 2017-02-04 02:04:38.835552+01 | 1486170278.83555 | pgbench_accounts_pkey |       2246197248

 2017-02-04 02:04:39.921654+01 | 1486170279.92165 | pgbench_branches_pkey |          1957888
 2017-02-04 02:04:39.921654+01 | 1486170279.92165 | pgbench_tellers_pkey  |          9527296
 2017-02-04 02:04:39.921654+01 | 1486170279.92165 | pgbench_accounts_pkey |       2246197248

