 2017-02-04 01:59:40.4738+01 | 1486169980.4738 | pgbench_accounts |      13912825856
 2017-02-04 01:59:40.4738+01 | 1486169980.4738 | pgbench_tellers  |         27975680
 2017-02-04 01:59:40.4738+01 | 1486169980.4738 | pgbench_history  |        430325760
 2017-02-04 01:59:40.4738+01 | 1486169980.4738 | pgbench_branches |         11476992

 2017-02-04 01:59:41.564954+01 | 1486169981.56495 | pgbench_accounts |      13912825856
 2017-02-04 01:59:41.564954+01 | 1486169981.56495 | pgbench_tellers  |         27975680
 2017-02-04 01:59:41.564954+01 | 1486169981.56495 | pgbench_history  |          1196032
 2017-02-04 01:59:41.564954+01 | 1486169981.56495 | pgbench_branches |         11476992

 2017-02-04 01:59:42.646663+01 | 1486169982.64666 | pgbench_accounts |      13912825856
 2017-02-04 01:59:42.646663+01 | 1486169982.64666 | pgbench_tellers  |         27975680
 2017-02-04 01:59:42.646663+01 | 1486169982.64666 | pgbench_history  |          3579904
 2017-02-04 01:59:42.646663+01 | 1486169982.64666 | pgbench_branches |         11476992

 2017-02-04 01:59:43.717776+01 | 1486169983.71778 | pgbench_accounts |      13912825856
 2017-02-04 01:59:43.717776+01 | 1486169983.71778 | pgbench_tellers  |         27975680
 2017-02-04 01:59:43.717776+01 | 1486169983.71778 | pgbench_history  |          4939776
 2017-02-04 01:59:43.717776+01 | 1486169983.71778 | pgbench_branches |         11476992

 2017-02-04 01:59:44.7984+01 | 1486169984.7984 | pgbench_accounts |      13912825856
 2017-02-04 01:59:44.7984+01 | 1486169984.7984 | pgbench_tellers  |         27975680
 2017-02-04 01:59:44.7984+01 | 1486169984.7984 | pgbench_history  |          6299648
 2017-02-04 01:59:44.7984+01 | 1486169984.7984 | pgbench_branches |         11476992

 2017-02-04 01:59:45.876981+01 | 1486169985.87698 | pgbench_accounts |      13912825856
 2017-02-04 01:59:45.876981+01 | 1486169985.87698 | pgbench_tellers  |         27975680
 2017-02-04 01:59:45.876981+01 | 1486169985.87698 | pgbench_history  |          8781824
 2017-02-04 01:59:45.876981+01 | 1486169985.87698 | pgbench_branches |         11476992

 2017-02-04 01:59:46.956563+01 | 1486169986.95656 | pgbench_accounts |      13912825856
 2017-02-04 01:59:46.956563+01 | 1486169986.95656 | pgbench_tellers  |         27975680
 2017-02-04 01:59:46.956563+01 | 1486169986.95656 | pgbench_history  |          9977856
 2017-02-04 01:59:46.956563+01 | 1486169986.95656 | pgbench_branches |         11476992

 2017-02-04 01:59:48.03962+01 | 1486169988.03962 | pgbench_accounts |      13912825856
 2017-02-04 01:59:48.03962+01 | 1486169988.03962 | pgbench_tellers  |         27975680
 2017-02-04 01:59:48.03962+01 | 1486169988.03962 | pgbench_history  |         12222464
 2017-02-04 01:59:48.03962+01 | 1486169988.03962 | pgbench_branches |         11476992

 2017-02-04 01:59:49.119498+01 | 1486169989.1195 | pgbench_accounts |      13912825856
 2017-02-04 01:59:49.119498+01 | 1486169989.1195 | pgbench_tellers  |         27975680
 2017-02-04 01:59:49.119498+01 | 1486169989.1195 | pgbench_history  |         13582336
 2017-02-04 01:59:49.119498+01 | 1486169989.1195 | pgbench_branches |         11476992

 2017-02-04 01:59:50.19535+01 | 1486169990.19535 | pgbench_accounts |      13912825856
 2017-02-04 01:59:50.19535+01 | 1486169990.19535 | pgbench_tellers  |         27975680
 2017-02-04 01:59:50.19535+01 | 1486169990.19535 | pgbench_history  |         15433728
 2017-02-04 01:59:50.19535+01 | 1486169990.19535 | pgbench_branches |         11476992

 2017-02-04 01:59:51.276881+01 | 1486169991.27688 | pgbench_accounts |      13912825856
 2017-02-04 01:59:51.276881+01 | 1486169991.27688 | pgbench_tellers  |         27975680
 2017-02-04 01:59:51.276881+01 | 1486169991.27688 | pgbench_history  |         17661952
 2017-02-04 01:59:51.276881+01 | 1486169991.27688 | pgbench_branches |         11476992

 2017-02-04 01:59:52.354453+01 | 1486169992.35445 | pgbench_accounts |      13912825856
 2017-02-04 01:59:52.354453+01 | 1486169992.35445 | pgbench_tellers  |         27975680
 2017-02-04 01:59:52.354453+01 | 1486169992.35445 | pgbench_history  |         19357696
 2017-02-04 01:59:52.354453+01 | 1486169992.35445 | pgbench_branches |         11476992

 2017-02-04 01:59:53.436658+01 | 1486169993.43666 | pgbench_accounts |      13912825856
 2017-02-04 01:59:53.436658+01 | 1486169993.43666 | pgbench_tellers  |         27975680
 2017-02-04 01:59:53.436658+01 | 1486169993.43666 | pgbench_history  |         21913600
 2017-02-04 01:59:53.436658+01 | 1486169993.43666 | pgbench_branches |         11476992

 2017-02-04 01:59:54.515637+01 | 1486169994.51564 | pgbench_accounts |      13912825856
 2017-02-04 01:59:54.515637+01 | 1486169994.51564 | pgbench_tellers  |         27975680
 2017-02-04 01:59:54.515637+01 | 1486169994.51564 | pgbench_history  |         23625728
 2017-02-04 01:59:54.515637+01 | 1486169994.51564 | pgbench_branches |         11476992

 2017-02-04 01:59:55.59685+01 | 1486169995.59685 | pgbench_accounts |      13912825856
 2017-02-04 01:59:55.59685+01 | 1486169995.59685 | pgbench_tellers  |         27975680
 2017-02-04 01:59:55.59685+01 | 1486169995.59685 | pgbench_history  |         24985600
 2017-02-04 01:59:55.59685+01 | 1486169995.59685 | pgbench_branches |         11476992

 2017-02-04 01:59:56.681366+01 | 1486169996.68137 | pgbench_accounts |      13912825856
 2017-02-04 01:59:56.681366+01 | 1486169996.68137 | pgbench_tellers  |         27975680
 2017-02-04 01:59:56.681366+01 | 1486169996.68137 | pgbench_history  |         27541504
 2017-02-04 01:59:56.681366+01 | 1486169996.68137 | pgbench_branches |         11476992

 2017-02-04 01:59:57.763906+01 | 1486169997.76391 | pgbench_accounts |      13912825856
 2017-02-04 01:59:57.763906+01 | 1486169997.76391 | pgbench_tellers  |         27975680
 2017-02-04 01:59:57.763906+01 | 1486169997.76391 | pgbench_history  |         29089792
 2017-02-04 01:59:57.763906+01 | 1486169997.76391 | pgbench_branches |         11476992

 2017-02-04 01:59:58.847784+01 | 1486169998.84778 | pgbench_accounts |      13912825856
 2017-02-04 01:59:58.847784+01 | 1486169998.84778 | pgbench_tellers  |         27975680
 2017-02-04 01:59:58.847784+01 | 1486169998.84778 | pgbench_history  |         31621120
 2017-02-04 01:59:58.847784+01 | 1486169998.84778 | pgbench_branches |         11476992

 2017-02-04 01:59:59.927315+01 | 1486169999.92731 | pgbench_accounts |      13912825856
 2017-02-04 01:59:59.927315+01 | 1486169999.92731 | pgbench_tellers  |         27975680
 2017-02-04 01:59:59.927315+01 | 1486169999.92731 | pgbench_history  |         33447936
 2017-02-04 01:59:59.927315+01 | 1486169999.92731 | pgbench_branches |         11476992

 2017-02-04 02:00:01.00713+01 | 1486170001.00713 | pgbench_accounts |      13912825856
 2017-02-04 02:00:01.00713+01 | 1486170001.00713 | pgbench_tellers  |         27975680
 2017-02-04 02:00:01.00713+01 | 1486170001.00713 | pgbench_history  |         35135488
 2017-02-04 02:00:01.00713+01 | 1486170001.00713 | pgbench_branches |         11476992

 2017-02-04 02:00:02.090139+01 | 1486170002.09014 | pgbench_accounts |      13912825856
 2017-02-04 02:00:02.090139+01 | 1486170002.09014 | pgbench_tellers  |         27975680
 2017-02-04 02:00:02.090139+01 | 1486170002.09014 | pgbench_history  |         37175296
 2017-02-04 02:00:02.090139+01 | 1486170002.09014 | pgbench_branches |         11476992

 2017-02-04 02:00:03.174827+01 | 1486170003.17483 | pgbench_accounts |      13912825856
 2017-02-04 02:00:03.174827+01 | 1486170003.17483 | pgbench_tellers  |         27975680
 2017-02-04 02:00:03.174827+01 | 1486170003.17483 | pgbench_history  |         40230912
 2017-02-04 02:00:03.174827+01 | 1486170003.17483 | pgbench_branches |         11476992

 2017-02-04 02:00:04.252581+01 | 1486170004.25258 | pgbench_accounts |      13912825856
 2017-02-04 02:00:04.252581+01 | 1486170004.25258 | pgbench_tellers  |         27975680
 2017-02-04 02:00:04.252581+01 | 1486170004.25258 | pgbench_history  |         41754624
 2017-02-04 02:00:04.252581+01 | 1486170004.25258 | pgbench_branches |         11476992

 2017-02-04 02:00:05.329967+01 | 1486170005.32997 | pgbench_accounts |      13912825856
 2017-02-04 02:00:05.329967+01 | 1486170005.32997 | pgbench_tellers  |         27975680
 2017-02-04 02:00:05.329967+01 | 1486170005.32997 | pgbench_history  |         43794432
 2017-02-04 02:00:05.329967+01 | 1486170005.32997 | pgbench_branches |         11476992

 2017-02-04 02:00:06.413594+01 | 1486170006.41359 | pgbench_accounts |      13912825856
 2017-02-04 02:00:06.413594+01 | 1486170006.41359 | pgbench_tellers  |         27975680
 2017-02-04 02:00:06.413594+01 | 1486170006.41359 | pgbench_history  |         45506560
 2017-02-04 02:00:06.413594+01 | 1486170006.41359 | pgbench_branches |         11476992

 2017-02-04 02:00:07.493199+01 | 1486170007.4932 | pgbench_accounts |      13912825856
 2017-02-04 02:00:07.493199+01 | 1486170007.4932 | pgbench_tellers  |         27975680
 2017-02-04 02:00:07.493199+01 | 1486170007.4932 | pgbench_history  |         46874624
 2017-02-04 02:00:07.493199+01 | 1486170007.4932 | pgbench_branches |         11476992

 2017-02-04 02:00:08.573761+01 | 1486170008.57376 | pgbench_accounts |      13912825856
 2017-02-04 02:00:08.573761+01 | 1486170008.57376 | pgbench_tellers  |         27975680
 2017-02-04 02:00:08.573761+01 | 1486170008.57376 | pgbench_history  |         49078272
 2017-02-04 02:00:08.573761+01 | 1486170008.57376 | pgbench_branches |         11476992

 2017-02-04 02:00:09.661359+01 | 1486170009.66136 | pgbench_accounts |      13912825856
 2017-02-04 02:00:09.661359+01 | 1486170009.66136 | pgbench_tellers  |         27975680
 2017-02-04 02:00:09.661359+01 | 1486170009.66136 | pgbench_history  |         50601984
 2017-02-04 02:00:09.661359+01 | 1486170009.66136 | pgbench_branches |         11476992

 2017-02-04 02:00:10.743811+01 | 1486170010.74381 | pgbench_accounts |      13912825856
 2017-02-04 02:00:10.743811+01 | 1486170010.74381 | pgbench_tellers  |         27975680
 2017-02-04 02:00:10.743811+01 | 1486170010.74381 | pgbench_history  |         53297152
 2017-02-04 02:00:10.743811+01 | 1486170010.74381 | pgbench_branches |         11476992

 2017-02-04 02:00:11.823505+01 | 1486170011.8235 | pgbench_accounts |      13912825856
 2017-02-04 02:00:11.823505+01 | 1486170011.8235 | pgbench_tellers  |         27975680
 2017-02-04 02:00:11.823505+01 | 1486170011.8235 | pgbench_history  |         54329344
 2017-02-04 02:00:11.823505+01 | 1486170011.8235 | pgbench_branches |         11476992

 2017-02-04 02:00:12.902923+01 | 1486170012.90292 | pgbench_accounts |      13912825856
 2017-02-04 02:00:12.902923+01 | 1486170012.90292 | pgbench_tellers  |         27975680
 2017-02-04 02:00:12.902923+01 | 1486170012.90292 | pgbench_history  |         55664640
 2017-02-04 02:00:12.902923+01 | 1486170012.90292 | pgbench_branches |         11476992

 2017-02-04 02:00:13.98568+01 | 1486170013.98568 | pgbench_accounts |      13912825856
 2017-02-04 02:00:13.98568+01 | 1486170013.98568 | pgbench_tellers  |         27975680
 2017-02-04 02:00:13.98568+01 | 1486170013.98568 | pgbench_history  |         57655296
 2017-02-04 02:00:13.98568+01 | 1486170013.98568 | pgbench_branches |         11476992

 2017-02-04 02:00:15.072272+01 | 1486170015.07227 | pgbench_accounts |      13912825856
 2017-02-04 02:00:15.072272+01 | 1486170015.07227 | pgbench_tellers  |         27975680
 2017-02-04 02:00:15.072272+01 | 1486170015.07227 | pgbench_history  |         59228160
 2017-02-04 02:00:15.072272+01 | 1486170015.07227 | pgbench_branches |         11476992

 2017-02-04 02:00:16.150143+01 | 1486170016.15014 | pgbench_accounts |      13912825856
 2017-02-04 02:00:16.150143+01 | 1486170016.15014 | pgbench_tellers  |         27975680
 2017-02-04 02:00:16.150143+01 | 1486170016.15014 | pgbench_history  |         61595648
 2017-02-04 02:00:16.150143+01 | 1486170016.15014 | pgbench_branches |         11476992

 2017-02-04 02:00:17.234738+01 | 1486170017.23474 | pgbench_accounts |      13912825856
 2017-02-04 02:00:17.234738+01 | 1486170017.23474 | pgbench_tellers  |         27975680
 2017-02-04 02:00:17.234738+01 | 1486170017.23474 | pgbench_history  |         63913984
 2017-02-04 02:00:17.234738+01 | 1486170017.23474 | pgbench_branches |         11476992

 2017-02-04 02:00:18.316945+01 | 1486170018.31695 | pgbench_accounts |      13912825856
 2017-02-04 02:00:18.316945+01 | 1486170018.31695 | pgbench_tellers  |         27975680
 2017-02-04 02:00:18.316945+01 | 1486170018.31695 | pgbench_history  |         65134592
 2017-02-04 02:00:18.316945+01 | 1486170018.31695 | pgbench_branches |         11476992

 2017-02-04 02:00:19.397104+01 | 1486170019.3971 | pgbench_accounts |      13912825856
 2017-02-04 02:00:19.397104+01 | 1486170019.3971 | pgbench_tellers  |         27975680
 2017-02-04 02:00:19.397104+01 | 1486170019.3971 | pgbench_history  |         67149824
 2017-02-04 02:00:19.397104+01 | 1486170019.3971 | pgbench_branches |         11476992

 2017-02-04 02:00:20.482229+01 | 1486170020.48223 | pgbench_accounts |      13912825856
 2017-02-04 02:00:20.482229+01 | 1486170020.48223 | pgbench_tellers  |         27975680
 2017-02-04 02:00:20.482229+01 | 1486170020.48223 | pgbench_history  |         70967296
 2017-02-04 02:00:20.482229+01 | 1486170020.48223 | pgbench_branches |         11476992

 2017-02-04 02:00:21.568225+01 | 1486170021.56822 | pgbench_accounts |      13912825856
 2017-02-04 02:00:21.568225+01 | 1486170021.56822 | pgbench_tellers  |         27975680
 2017-02-04 02:00:21.568225+01 | 1486170021.56822 | pgbench_history  |         70967296
 2017-02-04 02:00:21.568225+01 | 1486170021.56822 | pgbench_branches |         11476992

 2017-02-04 02:00:22.642503+01 | 1486170022.6425 | pgbench_accounts |      13912825856
 2017-02-04 02:00:22.642503+01 | 1486170022.6425 | pgbench_tellers  |         27975680
 2017-02-04 02:00:22.642503+01 | 1486170022.6425 | pgbench_history  |         72654848
 2017-02-04 02:00:22.642503+01 | 1486170022.6425 | pgbench_branches |         11476992

 2017-02-04 02:00:23.717741+01 | 1486170023.71774 | pgbench_accounts |      13912825856
 2017-02-04 02:00:23.717741+01 | 1486170023.71774 | pgbench_tellers  |         27975680
 2017-02-04 02:00:23.717741+01 | 1486170023.71774 | pgbench_history  |         74391552
 2017-02-04 02:00:23.717741+01 | 1486170023.71774 | pgbench_branches |         11476992

 2017-02-04 02:00:24.802532+01 | 1486170024.80253 | pgbench_accounts |      13912825856
 2017-02-04 02:00:24.802532+01 | 1486170024.80253 | pgbench_tellers  |         27975680
 2017-02-04 02:00:24.802532+01 | 1486170024.80253 | pgbench_history  |         76079104
 2017-02-04 02:00:24.802532+01 | 1486170024.80253 | pgbench_branches |         11476992

 2017-02-04 02:00:25.898213+01 | 1486170025.89821 | pgbench_accounts |      13912825856
 2017-02-04 02:00:25.898213+01 | 1486170025.89821 | pgbench_tellers  |         27975680
 2017-02-04 02:00:25.898213+01 | 1486170025.89821 | pgbench_history  |         77955072
 2017-02-04 02:00:25.898213+01 | 1486170025.89821 | pgbench_branches |         11476992

 2017-02-04 02:00:26.978358+01 | 1486170026.97836 | pgbench_accounts |      13912825856
 2017-02-04 02:00:26.978358+01 | 1486170026.97836 | pgbench_tellers  |         27975680
 2017-02-04 02:00:26.978358+01 | 1486170026.97836 | pgbench_history  |         80003072
 2017-02-04 02:00:26.978358+01 | 1486170026.97836 | pgbench_branches |         11476992

 2017-02-04 02:00:28.047919+01 | 1486170028.04792 | pgbench_accounts |      13912825856
 2017-02-04 02:00:28.047919+01 | 1486170028.04792 | pgbench_tellers  |         27975680
 2017-02-04 02:00:28.047919+01 | 1486170028.04792 | pgbench_history  |         82042880
 2017-02-04 02:00:28.047919+01 | 1486170028.04792 | pgbench_branches |         11476992

 2017-02-04 02:00:29.127586+01 | 1486170029.12759 | pgbench_accounts |      13912825856
 2017-02-04 02:00:29.127586+01 | 1486170029.12759 | pgbench_tellers  |         27975680
 2017-02-04 02:00:29.127586+01 | 1486170029.12759 | pgbench_history  |         85999616
 2017-02-04 02:00:29.127586+01 | 1486170029.12759 | pgbench_branches |         11476992

 2017-02-04 02:00:30.209048+01 | 1486170030.20905 | pgbench_accounts |      13912825856
 2017-02-04 02:00:30.209048+01 | 1486170030.20905 | pgbench_tellers  |         27975680
 2017-02-04 02:00:30.209048+01 | 1486170030.20905 | pgbench_history  |         85999616
 2017-02-04 02:00:30.209048+01 | 1486170030.20905 | pgbench_branches |         11476992

 2017-02-04 02:00:31.305805+01 | 1486170031.3058 | pgbench_accounts |      13912825856
 2017-02-04 02:00:31.305805+01 | 1486170031.3058 | pgbench_tellers  |         27975680
 2017-02-04 02:00:31.305805+01 | 1486170031.3058 | pgbench_history  |         87007232
 2017-02-04 02:00:31.305805+01 | 1486170031.3058 | pgbench_branches |         11476992

 2017-02-04 02:00:32.390057+01 | 1486170032.39006 | pgbench_accounts |      13912825856
 2017-02-04 02:00:32.390057+01 | 1486170032.39006 | pgbench_tellers  |         27975680
 2017-02-04 02:00:32.390057+01 | 1486170032.39006 | pgbench_history  |         88694784
 2017-02-04 02:00:32.390057+01 | 1486170032.39006 | pgbench_branches |         11476992

 2017-02-04 02:00:33.47364+01 | 1486170033.47364 | pgbench_accounts |      13912825856
 2017-02-04 02:00:33.47364+01 | 1486170033.47364 | pgbench_tellers  |         27975680
 2017-02-04 02:00:33.47364+01 | 1486170033.47364 | pgbench_history  |         90898432
 2017-02-04 02:00:33.47364+01 | 1486170033.47364 | pgbench_branches |         11476992

 2017-02-04 02:00:34.557028+01 | 1486170034.55703 | pgbench_accounts |      13912825856
 2017-02-04 02:00:34.557028+01 | 1486170034.55703 | pgbench_tellers  |         27975680
 2017-02-04 02:00:34.557028+01 | 1486170034.55703 | pgbench_history  |         92463104
 2017-02-04 02:00:34.557028+01 | 1486170034.55703 | pgbench_branches |         11476992

 2017-02-04 02:00:35.629811+01 | 1486170035.62981 | pgbench_accounts |      13912825856
 2017-02-04 02:00:35.629811+01 | 1486170035.62981 | pgbench_tellers  |         27975680
 2017-02-04 02:00:35.629811+01 | 1486170035.62981 | pgbench_history  |         94216192
 2017-02-04 02:00:35.629811+01 | 1486170035.62981 | pgbench_branches |         11476992

 2017-02-04 02:00:36.701274+01 | 1486170036.70127 | pgbench_accounts |      13912825856
 2017-02-04 02:00:36.701274+01 | 1486170036.70127 | pgbench_tellers  |         27975680
 2017-02-04 02:00:36.701274+01 | 1486170036.70127 | pgbench_history  |         96632832
 2017-02-04 02:00:36.701274+01 | 1486170036.70127 | pgbench_branches |         11476992

 2017-02-04 02:00:37.786596+01 | 1486170037.7866 | pgbench_accounts |      13912825856
 2017-02-04 02:00:37.786596+01 | 1486170037.7866 | pgbench_tellers  |         27975680
 2017-02-04 02:00:37.786596+01 | 1486170037.7866 | pgbench_history  |         98344960
 2017-02-04 02:00:37.786596+01 | 1486170037.7866 | pgbench_branches |         11476992

 2017-02-04 02:00:38.873187+01 | 1486170038.87319 | pgbench_accounts |      13912825856
 2017-02-04 02:00:38.873187+01 | 1486170038.87319 | pgbench_tellers  |         27975680
 2017-02-04 02:00:38.873187+01 | 1486170038.87319 | pgbench_history  |        100360192
 2017-02-04 02:00:38.873187+01 | 1486170038.87319 | pgbench_branches |         11476992

 2017-02-04 02:00:39.959206+01 | 1486170039.95921 | pgbench_accounts |      13912825856
 2017-02-04 02:00:39.959206+01 | 1486170039.95921 | pgbench_tellers  |         27975680
 2017-02-04 02:00:39.959206+01 | 1486170039.95921 | pgbench_history  |        102563840
 2017-02-04 02:00:39.959206+01 | 1486170039.95921 | pgbench_branches |         11476992

 2017-02-04 02:00:41.03799+01 | 1486170041.03799 | pgbench_accounts |      13912825856
 2017-02-04 02:00:41.03799+01 | 1486170041.03799 | pgbench_tellers  |         27975680
 2017-02-04 02:00:41.03799+01 | 1486170041.03799 | pgbench_history  |        103571456
 2017-02-04 02:00:41.03799+01 | 1486170041.03799 | pgbench_branches |         11476992

 2017-02-04 02:00:42.12368+01 | 1486170042.12368 | pgbench_accounts |      13912825856
 2017-02-04 02:00:42.12368+01 | 1486170042.12368 | pgbench_tellers  |         27975680
 2017-02-04 02:00:42.12368+01 | 1486170042.12368 | pgbench_history  |        105308160
 2017-02-04 02:00:42.12368+01 | 1486170042.12368 | pgbench_branches |         11476992

 2017-02-04 02:00:43.20475+01 | 1486170043.20475 | pgbench_accounts |      13912825856
 2017-02-04 02:00:43.20475+01 | 1486170043.20475 | pgbench_tellers  |         27975680
 2017-02-04 02:00:43.20475+01 | 1486170043.20475 | pgbench_history  |        107675648
 2017-02-04 02:00:43.20475+01 | 1486170043.20475 | pgbench_branches |         11476992

 2017-02-04 02:00:44.302061+01 | 1486170044.30206 | pgbench_accounts |      13912825856
 2017-02-04 02:00:44.302061+01 | 1486170044.30206 | pgbench_tellers  |         27975680
 2017-02-04 02:00:44.302061+01 | 1486170044.30206 | pgbench_history  |        109199360
 2017-02-04 02:00:44.302061+01 | 1486170044.30206 | pgbench_branches |         11476992

 2017-02-04 02:00:45.375773+01 | 1486170045.37577 | pgbench_accounts |      13912825856
 2017-02-04 02:00:45.375773+01 | 1486170045.37577 | pgbench_tellers  |         27975680
 2017-02-04 02:00:45.375773+01 | 1486170045.37577 | pgbench_history  |        111869952
 2017-02-04 02:00:45.375773+01 | 1486170045.37577 | pgbench_branches |         11476992

 2017-02-04 02:00:46.451081+01 | 1486170046.45108 | pgbench_accounts |      13912825856
 2017-02-04 02:00:46.451081+01 | 1486170046.45108 | pgbench_tellers  |         27975680
 2017-02-04 02:00:46.451081+01 | 1486170046.45108 | pgbench_history  |        111869952
 2017-02-04 02:00:46.451081+01 | 1486170046.45108 | pgbench_branches |         11476992

 2017-02-04 02:00:47.54304+01 | 1486170047.54304 | pgbench_accounts |      13912825856
 2017-02-04 02:00:47.54304+01 | 1486170047.54304 | pgbench_tellers  |         27975680
 2017-02-04 02:00:47.54304+01 | 1486170047.54304 | pgbench_history  |        113246208
 2017-02-04 02:00:47.54304+01 | 1486170047.54304 | pgbench_branches |         11476992

 2017-02-04 02:00:48.632337+01 | 1486170048.63234 | pgbench_accounts |      13912825856
 2017-02-04 02:00:48.632337+01 | 1486170048.63234 | pgbench_tellers  |         27975680
 2017-02-04 02:00:48.632337+01 | 1486170048.63234 | pgbench_history  |        115146752
 2017-02-04 02:00:48.632337+01 | 1486170048.63234 | pgbench_branches |         11476992

 2017-02-04 02:00:49.722343+01 | 1486170049.72234 | pgbench_accounts |      13912825856
 2017-02-04 02:00:49.722343+01 | 1486170049.72234 | pgbench_tellers  |         27975680
 2017-02-04 02:00:49.722343+01 | 1486170049.72234 | pgbench_history  |        116154368
 2017-02-04 02:00:49.722343+01 | 1486170049.72234 | pgbench_branches |         11476992

 2017-02-04 02:00:50.801282+01 | 1486170050.80128 | pgbench_accounts |      13912825856
 2017-02-04 02:00:50.801282+01 | 1486170050.80128 | pgbench_tellers  |         27975680
 2017-02-04 02:00:50.801282+01 | 1486170050.80128 | pgbench_history  |        120373248
 2017-02-04 02:00:50.801282+01 | 1486170050.80128 | pgbench_branches |         11476992

 2017-02-04 02:00:51.890406+01 | 1486170051.89041 | pgbench_accounts |      13912825856
 2017-02-04 02:00:51.890406+01 | 1486170051.89041 | pgbench_tellers  |         27975680
 2017-02-04 02:00:51.890406+01 | 1486170051.89041 | pgbench_history  |        120373248
 2017-02-04 02:00:51.890406+01 | 1486170051.89041 | pgbench_branches |         11476992

 2017-02-04 02:00:52.972332+01 | 1486170052.97233 | pgbench_accounts |      13912825856
 2017-02-04 02:00:52.972332+01 | 1486170052.97233 | pgbench_tellers  |         27975680
 2017-02-04 02:00:52.972332+01 | 1486170052.97233 | pgbench_history  |        120373248
 2017-02-04 02:00:52.972332+01 | 1486170052.97233 | pgbench_branches |         11476992

 2017-02-04 02:00:54.036064+01 | 1486170054.03606 | pgbench_accounts |      13912825856
 2017-02-04 02:00:54.036064+01 | 1486170054.03606 | pgbench_tellers  |         27975680
 2017-02-04 02:00:54.036064+01 | 1486170054.03606 | pgbench_history  |        121217024
 2017-02-04 02:00:54.036064+01 | 1486170054.03606 | pgbench_branches |         11476992

 2017-02-04 02:00:55.122303+01 | 1486170055.1223 | pgbench_accounts |      13912825856
 2017-02-04 02:00:55.122303+01 | 1486170055.1223 | pgbench_tellers  |         27975680
 2017-02-04 02:00:55.122303+01 | 1486170055.1223 | pgbench_history  |        123092992
 2017-02-04 02:00:55.122303+01 | 1486170055.1223 | pgbench_branches |         11476992

 2017-02-04 02:00:56.199022+01 | 1486170056.19902 | pgbench_accounts |      13912825856
 2017-02-04 02:00:56.199022+01 | 1486170056.19902 | pgbench_tellers  |         27975680
 2017-02-04 02:00:56.199022+01 | 1486170056.19902 | pgbench_history  |        123936768
 2017-02-04 02:00:56.199022+01 | 1486170056.19902 | pgbench_branches |         11476992

 2017-02-04 02:00:57.274335+01 | 1486170057.27433 | pgbench_accounts |      13912825856
 2017-02-04 02:00:57.274335+01 | 1486170057.27433 | pgbench_tellers  |         27975680
 2017-02-04 02:00:57.274335+01 | 1486170057.27433 | pgbench_history  |        126328832
 2017-02-04 02:00:57.274335+01 | 1486170057.27433 | pgbench_branches |         11476992

 2017-02-04 02:00:58.356336+01 | 1486170058.35634 | pgbench_accounts |      13912825856
 2017-02-04 02:00:58.356336+01 | 1486170058.35634 | pgbench_tellers  |         27975680
 2017-02-04 02:00:58.356336+01 | 1486170058.35634 | pgbench_history  |        127664128
 2017-02-04 02:00:58.356336+01 | 1486170058.35634 | pgbench_branches |         11476992

 2017-02-04 02:00:59.431239+01 | 1486170059.43124 | pgbench_accounts |      13912825856
 2017-02-04 02:00:59.431239+01 | 1486170059.43124 | pgbench_tellers  |         27975680
 2017-02-04 02:00:59.431239+01 | 1486170059.43124 | pgbench_history  |        129024000
 2017-02-04 02:00:59.431239+01 | 1486170059.43124 | pgbench_branches |         11476992

 2017-02-04 02:01:00.505128+01 | 1486170060.50513 | pgbench_accounts |      13912825856
 2017-02-04 02:01:00.505128+01 | 1486170060.50513 | pgbench_tellers  |         27975680
 2017-02-04 02:01:00.505128+01 | 1486170060.50513 | pgbench_history  |        132186112
 2017-02-04 02:01:00.505128+01 | 1486170060.50513 | pgbench_branches |         11476992

 2017-02-04 02:01:01.578128+01 | 1486170061.57813 | pgbench_accounts |      13912825856
 2017-02-04 02:01:01.578128+01 | 1486170061.57813 | pgbench_tellers  |         27975680
 2017-02-04 02:01:01.578128+01 | 1486170061.57813 | pgbench_history  |        132186112
 2017-02-04 02:01:01.578128+01 | 1486170061.57813 | pgbench_branches |         11476992

 2017-02-04 02:01:02.655755+01 | 1486170062.65576 | pgbench_accounts |      13912825856
 2017-02-04 02:01:02.655755+01 | 1486170062.65576 | pgbench_tellers  |         27975680
 2017-02-04 02:01:02.655755+01 | 1486170062.65576 | pgbench_history  |        134062080
 2017-02-04 02:01:02.655755+01 | 1486170062.65576 | pgbench_branches |         11476992

 2017-02-04 02:01:03.736382+01 | 1486170063.73638 | pgbench_accounts |      13912825856
 2017-02-04 02:01:03.736382+01 | 1486170063.73638 | pgbench_tellers  |         27975680
 2017-02-04 02:01:03.736382+01 | 1486170063.73638 | pgbench_history  |        136298496
 2017-02-04 02:01:03.736382+01 | 1486170063.73638 | pgbench_branches |         11476992

 2017-02-04 02:01:04.820776+01 | 1486170064.82078 | pgbench_accounts |      13912825856
 2017-02-04 02:01:04.820776+01 | 1486170064.82078 | pgbench_tellers  |         27975680
 2017-02-04 02:01:04.820776+01 | 1486170064.82078 | pgbench_history  |        137519104
 2017-02-04 02:01:04.820776+01 | 1486170064.82078 | pgbench_branches |         11476992

 2017-02-04 02:01:05.893836+01 | 1486170065.89384 | pgbench_accounts |      13912825856
 2017-02-04 02:01:05.893836+01 | 1486170065.89384 | pgbench_tellers  |         27975680
 2017-02-04 02:01:05.893836+01 | 1486170065.89384 | pgbench_history  |        139108352
 2017-02-04 02:01:05.893836+01 | 1486170065.89384 | pgbench_branches |         11476992

 2017-02-04 02:01:06.962904+01 | 1486170066.9629 | pgbench_accounts |      13912825856
 2017-02-04 02:01:06.962904+01 | 1486170066.9629 | pgbench_tellers  |         27975680
 2017-02-04 02:01:06.962904+01 | 1486170066.9629 | pgbench_history  |        140820480
 2017-02-04 02:01:06.962904+01 | 1486170066.9629 | pgbench_branches |         11476992

 2017-02-04 02:01:08.038407+01 | 1486170068.03841 | pgbench_accounts |      13912825856
 2017-02-04 02:01:08.038407+01 | 1486170068.03841 | pgbench_tellers  |         27975680
 2017-02-04 02:01:08.038407+01 | 1486170068.03841 | pgbench_history  |        142647296
 2017-02-04 02:01:08.038407+01 | 1486170068.03841 | pgbench_branches |         11476992

 2017-02-04 02:01:09.125694+01 | 1486170069.12569 | pgbench_accounts |      13912825856
 2017-02-04 02:01:09.125694+01 | 1486170069.12569 | pgbench_tellers  |         27975680
 2017-02-04 02:01:09.125694+01 | 1486170069.12569 | pgbench_history  |        144031744
 2017-02-04 02:01:09.125694+01 | 1486170069.12569 | pgbench_branches |         11476992

 2017-02-04 02:01:10.203007+01 | 1486170070.20301 | pgbench_accounts |      13912825856
 2017-02-04 02:01:10.203007+01 | 1486170070.20301 | pgbench_tellers  |         27975680
 2017-02-04 02:01:10.203007+01 | 1486170070.20301 | pgbench_history  |        145596416
 2017-02-04 02:01:10.203007+01 | 1486170070.20301 | pgbench_branches |         11476992

 2017-02-04 02:01:11.276956+01 | 1486170071.27696 | pgbench_accounts |      13912825856
 2017-02-04 02:01:11.276956+01 | 1486170071.27696 | pgbench_tellers  |         27975680
 2017-02-04 02:01:11.276956+01 | 1486170071.27696 | pgbench_history  |        147587072
 2017-02-04 02:01:11.276956+01 | 1486170071.27696 | pgbench_branches |         11476992

 2017-02-04 02:01:12.36378+01 | 1486170072.36378 | pgbench_accounts |      13912825856
 2017-02-04 02:01:12.36378+01 | 1486170072.36378 | pgbench_tellers  |         27975680
 2017-02-04 02:01:12.36378+01 | 1486170072.36378 | pgbench_history  |        149307392
 2017-02-04 02:01:12.36378+01 | 1486170072.36378 | pgbench_branches |         11476992

 2017-02-04 02:01:13.445909+01 | 1486170073.44591 | pgbench_accounts |      13912825856
 2017-02-04 02:01:13.445909+01 | 1486170073.44591 | pgbench_tellers  |         27975680
 2017-02-04 02:01:13.445909+01 | 1486170073.44591 | pgbench_history  |        151158784
 2017-02-04 02:01:13.445909+01 | 1486170073.44591 | pgbench_branches |         11476992

 2017-02-04 02:01:14.521158+01 | 1486170074.52116 | pgbench_accounts |      13912825856
 2017-02-04 02:01:14.521158+01 | 1486170074.52116 | pgbench_tellers  |         27975680
 2017-02-04 02:01:14.521158+01 | 1486170074.52116 | pgbench_history  |        152518656
 2017-02-04 02:01:14.521158+01 | 1486170074.52116 | pgbench_branches |         11476992

 2017-02-04 02:01:15.598253+01 | 1486170075.59825 | pgbench_accounts |      13912825856
 2017-02-04 02:01:15.598253+01 | 1486170075.59825 | pgbench_tellers  |         27975680
 2017-02-04 02:01:15.598253+01 | 1486170075.59825 | pgbench_history  |        154075136
 2017-02-04 02:01:15.598253+01 | 1486170075.59825 | pgbench_branches |         11476992

 2017-02-04 02:01:16.697144+01 | 1486170076.69714 | pgbench_accounts |      13912825856
 2017-02-04 02:01:16.697144+01 | 1486170076.69714 | pgbench_tellers  |         27975680
 2017-02-04 02:01:16.697144+01 | 1486170076.69714 | pgbench_history  |        155656192
 2017-02-04 02:01:16.697144+01 | 1486170076.69714 | pgbench_branches |         11476992

 2017-02-04 02:01:17.784527+01 | 1486170077.78453 | pgbench_accounts |      13912825856
 2017-02-04 02:01:17.784527+01 | 1486170077.78453 | pgbench_tellers  |         27975680
 2017-02-04 02:01:17.784527+01 | 1486170077.78453 | pgbench_history  |        156852224
 2017-02-04 02:01:17.784527+01 | 1486170077.78453 | pgbench_branches |         11476992

 2017-02-04 02:01:18.875236+01 | 1486170078.87524 | pgbench_accounts |      13912825856
 2017-02-04 02:01:18.875236+01 | 1486170078.87524 | pgbench_tellers  |         27975680
 2017-02-04 02:01:18.875236+01 | 1486170078.87524 | pgbench_history  |        158048256
 2017-02-04 02:01:18.875236+01 | 1486170078.87524 | pgbench_branches |         11476992

 2017-02-04 02:01:19.955963+01 | 1486170079.95596 | pgbench_accounts |      13912825856
 2017-02-04 02:01:19.955963+01 | 1486170079.95596 | pgbench_tellers  |         27975680
 2017-02-04 02:01:19.955963+01 | 1486170079.95596 | pgbench_history  |        160120832
 2017-02-04 02:01:19.955963+01 | 1486170079.95596 | pgbench_branches |         11476992

 2017-02-04 02:01:21.038311+01 | 1486170081.03831 | pgbench_accounts |      13912825856
 2017-02-04 02:01:21.038311+01 | 1486170081.03831 | pgbench_tellers  |         27975680
 2017-02-04 02:01:21.038311+01 | 1486170081.03831 | pgbench_history  |        162111488
 2017-02-04 02:01:21.038311+01 | 1486170081.03831 | pgbench_branches |         11476992

 2017-02-04 02:01:22.114577+01 | 1486170082.11458 | pgbench_accounts |      13912825856
 2017-02-04 02:01:22.114577+01 | 1486170082.11458 | pgbench_tellers  |         27975680
 2017-02-04 02:01:22.114577+01 | 1486170082.11458 | pgbench_history  |        163495936
 2017-02-04 02:01:22.114577+01 | 1486170082.11458 | pgbench_branches |         11476992

 2017-02-04 02:01:23.190348+01 | 1486170083.19035 | pgbench_accounts |      13912825856
 2017-02-04 02:01:23.190348+01 | 1486170083.19035 | pgbench_tellers  |         27975680
 2017-02-04 02:01:23.190348+01 | 1486170083.19035 | pgbench_history  |        164855808
 2017-02-04 02:01:23.190348+01 | 1486170083.19035 | pgbench_branches |         11476992

 2017-02-04 02:01:24.273174+01 | 1486170084.27317 | pgbench_accounts |      13912825856
 2017-02-04 02:01:24.273174+01 | 1486170084.27317 | pgbench_tellers  |         27975680
 2017-02-04 02:01:24.273174+01 | 1486170084.27317 | pgbench_history  |        166748160
 2017-02-04 02:01:24.273174+01 | 1486170084.27317 | pgbench_branches |         11476992

 2017-02-04 02:01:25.363511+01 | 1486170085.36351 | pgbench_accounts |      13912825856
 2017-02-04 02:01:25.363511+01 | 1486170085.36351 | pgbench_tellers  |         27975680
 2017-02-04 02:01:25.363511+01 | 1486170085.36351 | pgbench_history  |        168599552
 2017-02-04 02:01:25.363511+01 | 1486170085.36351 | pgbench_branches |         11476992

 2017-02-04 02:01:26.455348+01 | 1486170086.45535 | pgbench_accounts |      13912825856
 2017-02-04 02:01:26.455348+01 | 1486170086.45535 | pgbench_tellers  |         27975680
 2017-02-04 02:01:26.455348+01 | 1486170086.45535 | pgbench_history  |        170639360
 2017-02-04 02:01:26.455348+01 | 1486170086.45535 | pgbench_branches |         11476992

 2017-02-04 02:01:27.531717+01 | 1486170087.53172 | pgbench_accounts |      13912825856
 2017-02-04 02:01:27.531717+01 | 1486170087.53172 | pgbench_tellers  |         27975680
 2017-02-04 02:01:27.531717+01 | 1486170087.53172 | pgbench_history  |        171999232
 2017-02-04 02:01:27.531717+01 | 1486170087.53172 | pgbench_branches |         11476992

 2017-02-04 02:01:28.605217+01 | 1486170088.60522 | pgbench_accounts |      13912825856
 2017-02-04 02:01:28.605217+01 | 1486170088.60522 | pgbench_tellers  |         27975680
 2017-02-04 02:01:28.605217+01 | 1486170088.60522 | pgbench_history  |        174383104
 2017-02-04 02:01:28.605217+01 | 1486170088.60522 | pgbench_branches |         11476992

 2017-02-04 02:01:29.679421+01 | 1486170089.67942 | pgbench_accounts |      13912825856
 2017-02-04 02:01:29.679421+01 | 1486170089.67942 | pgbench_tellers  |         27975680
 2017-02-04 02:01:29.679421+01 | 1486170089.67942 | pgbench_history  |        175415296
 2017-02-04 02:01:29.679421+01 | 1486170089.67942 | pgbench_branches |         11476992

 2017-02-04 02:01:30.757648+01 | 1486170090.75765 | pgbench_accounts |      13912825856
 2017-02-04 02:01:30.757648+01 | 1486170090.75765 | pgbench_tellers  |         27975680
 2017-02-04 02:01:30.757648+01 | 1486170090.75765 | pgbench_history  |        177455104
 2017-02-04 02:01:30.757648+01 | 1486170090.75765 | pgbench_branches |         11476992

 2017-02-04 02:01:31.844468+01 | 1486170091.84447 | pgbench_accounts |      13912825856
 2017-02-04 02:01:31.844468+01 | 1486170091.84447 | pgbench_tellers  |         27975680
 2017-02-04 02:01:31.844468+01 | 1486170091.84447 | pgbench_history  |        179011584
 2017-02-04 02:01:31.844468+01 | 1486170091.84447 | pgbench_branches |         11476992

 2017-02-04 02:01:32.92701+01 | 1486170092.92701 | pgbench_accounts |      13912825856
 2017-02-04 02:01:32.92701+01 | 1486170092.92701 | pgbench_tellers  |         27975680
 2017-02-04 02:01:32.92701+01 | 1486170092.92701 | pgbench_history  |        180748288
 2017-02-04 02:01:32.92701+01 | 1486170092.92701 | pgbench_branches |         11476992

 2017-02-04 02:01:34.007284+01 | 1486170094.00728 | pgbench_accounts |      13912825856
 2017-02-04 02:01:34.007284+01 | 1486170094.00728 | pgbench_tellers  |         27975680
 2017-02-04 02:01:34.007284+01 | 1486170094.00728 | pgbench_history  |        182657024
 2017-02-04 02:01:34.007284+01 | 1486170094.00728 | pgbench_branches |         11476992

 2017-02-04 02:01:35.08451+01 | 1486170095.08451 | pgbench_accounts |      13912825856
 2017-02-04 02:01:35.08451+01 | 1486170095.08451 | pgbench_tellers  |         27975680
 2017-02-04 02:01:35.08451+01 | 1486170095.08451 | pgbench_history  |        185049088
 2017-02-04 02:01:35.08451+01 | 1486170095.08451 | pgbench_branches |         11476992

 2017-02-04 02:01:36.169937+01 | 1486170096.16994 | pgbench_accounts |      13912825856
 2017-02-04 02:01:36.169937+01 | 1486170096.16994 | pgbench_tellers  |         27975680
 2017-02-04 02:01:36.169937+01 | 1486170096.16994 | pgbench_history  |        186572800
 2017-02-04 02:01:36.169937+01 | 1486170096.16994 | pgbench_branches |         11476992

 2017-02-04 02:01:37.257607+01 | 1486170097.25761 | pgbench_accounts |      13912825856
 2017-02-04 02:01:37.257607+01 | 1486170097.25761 | pgbench_tellers  |         27975680
 2017-02-04 02:01:37.257607+01 | 1486170097.25761 | pgbench_history  |        188284928
 2017-02-04 02:01:37.257607+01 | 1486170097.25761 | pgbench_branches |         11476992

 2017-02-04 02:01:38.348436+01 | 1486170098.34844 | pgbench_accounts |      13912825856
 2017-02-04 02:01:38.348436+01 | 1486170098.34844 | pgbench_tellers  |         27975680
 2017-02-04 02:01:38.348436+01 | 1486170098.34844 | pgbench_history  |        190504960
 2017-02-04 02:01:38.348436+01 | 1486170098.34844 | pgbench_branches |         11476992

 2017-02-04 02:01:39.427573+01 | 1486170099.42757 | pgbench_accounts |      13912825856
 2017-02-04 02:01:39.427573+01 | 1486170099.42757 | pgbench_tellers  |         27975680
 2017-02-04 02:01:39.427573+01 | 1486170099.42757 | pgbench_history  |        192520192
 2017-02-04 02:01:39.427573+01 | 1486170099.42757 | pgbench_branches |         11476992

 2017-02-04 02:01:40.514635+01 | 1486170100.51464 | pgbench_accounts |      13912825856
 2017-02-04 02:01:40.514635+01 | 1486170100.51464 | pgbench_tellers  |         27975680
 2017-02-04 02:01:40.514635+01 | 1486170100.51464 | pgbench_history  |        193691648
 2017-02-04 02:01:40.514635+01 | 1486170100.51464 | pgbench_branches |         11476992

 2017-02-04 02:01:41.596666+01 | 1486170101.59667 | pgbench_accounts |      13912825856
 2017-02-04 02:01:41.596666+01 | 1486170101.59667 | pgbench_tellers  |         27975680
 2017-02-04 02:01:41.596666+01 | 1486170101.59667 | pgbench_history  |        195084288
 2017-02-04 02:01:41.596666+01 | 1486170101.59667 | pgbench_branches |         11476992

 2017-02-04 02:01:42.68232+01 | 1486170102.68232 | pgbench_accounts |      13912825856
 2017-02-04 02:01:42.68232+01 | 1486170102.68232 | pgbench_tellers  |         27975680
 2017-02-04 02:01:42.68232+01 | 1486170102.68232 | pgbench_history  |        197296128
 2017-02-04 02:01:42.68232+01 | 1486170102.68232 | pgbench_branches |         11476992

 2017-02-04 02:01:43.76013+01 | 1486170103.76013 | pgbench_accounts |      13912825856
 2017-02-04 02:01:43.76013+01 | 1486170103.76013 | pgbench_tellers  |         27975680
 2017-02-04 02:01:43.76013+01 | 1486170103.76013 | pgbench_history  |        198164480
 2017-02-04 02:01:43.76013+01 | 1486170103.76013 | pgbench_branches |         11476992

 2017-02-04 02:01:44.81738+01 | 1486170104.81738 | pgbench_accounts |      13912825856
 2017-02-04 02:01:44.81738+01 | 1486170104.81738 | pgbench_tellers  |         27975680
 2017-02-04 02:01:44.81738+01 | 1486170104.81738 | pgbench_history  |        199204864
 2017-02-04 02:01:44.81738+01 | 1486170104.81738 | pgbench_branches |         11476992

 2017-02-04 02:01:45.901859+01 | 1486170105.90186 | pgbench_accounts |      13912825856
 2017-02-04 02:01:45.901859+01 | 1486170105.90186 | pgbench_tellers  |         27975680
 2017-02-04 02:01:45.901859+01 | 1486170105.90186 | pgbench_history  |        200376320
 2017-02-04 02:01:45.901859+01 | 1486170105.90186 | pgbench_branches |         11476992

 2017-02-04 02:01:46.993857+01 | 1486170106.99386 | pgbench_accounts |      13912825856
 2017-02-04 02:01:46.993857+01 | 1486170106.99386 | pgbench_tellers  |         27975680
 2017-02-04 02:01:46.993857+01 | 1486170106.99386 | pgbench_history  |        202063872
 2017-02-04 02:01:46.993857+01 | 1486170106.99386 | pgbench_branches |         11476992

 2017-02-04 02:01:48.077638+01 | 1486170108.07764 | pgbench_accounts |      13912825856
 2017-02-04 02:01:48.077638+01 | 1486170108.07764 | pgbench_tellers  |         27975680
 2017-02-04 02:01:48.077638+01 | 1486170108.07764 | pgbench_history  |        203440128
 2017-02-04 02:01:48.077638+01 | 1486170108.07764 | pgbench_branches |         11476992

 2017-02-04 02:01:49.163266+01 | 1486170109.16327 | pgbench_accounts |      13912825856
 2017-02-04 02:01:49.163266+01 | 1486170109.16327 | pgbench_tellers  |         27975680
 2017-02-04 02:01:49.163266+01 | 1486170109.16327 | pgbench_history  |        205004800
 2017-02-04 02:01:49.163266+01 | 1486170109.16327 | pgbench_branches |         11476992

 2017-02-04 02:01:50.247295+01 | 1486170110.24729 | pgbench_accounts |      13912825856
 2017-02-04 02:01:50.247295+01 | 1486170110.24729 | pgbench_tellers  |         27975680
 2017-02-04 02:01:50.247295+01 | 1486170110.24729 | pgbench_history  |        205881344
 2017-02-04 02:01:50.247295+01 | 1486170110.24729 | pgbench_branches |         11476992

 2017-02-04 02:01:51.326298+01 | 1486170111.3263 | pgbench_accounts |      13912825856
 2017-02-04 02:01:51.326298+01 | 1486170111.3263 | pgbench_tellers  |         27975680
 2017-02-04 02:01:51.326298+01 | 1486170111.3263 | pgbench_history  |        207265792
 2017-02-04 02:01:51.326298+01 | 1486170111.3263 | pgbench_branches |         11476992

 2017-02-04 02:01:52.429291+01 | 1486170112.42929 | pgbench_accounts |      13912825856
 2017-02-04 02:01:52.429291+01 | 1486170112.42929 | pgbench_tellers  |         27975680
 2017-02-04 02:01:52.429291+01 | 1486170112.42929 | pgbench_history  |        208658432
 2017-02-04 02:01:52.429291+01 | 1486170112.42929 | pgbench_branches |         11476992

 2017-02-04 02:01:53.507379+01 | 1486170113.50738 | pgbench_accounts |      13912825856
 2017-02-04 02:01:53.507379+01 | 1486170113.50738 | pgbench_tellers  |         27975680
 2017-02-04 02:01:53.507379+01 | 1486170113.50738 | pgbench_history  |        210378752
 2017-02-04 02:01:53.507379+01 | 1486170113.50738 | pgbench_branches |         11476992

 2017-02-04 02:01:54.583572+01 | 1486170114.58357 | pgbench_accounts |      13912825856
 2017-02-04 02:01:54.583572+01 | 1486170114.58357 | pgbench_tellers  |         27975680
 2017-02-04 02:01:54.583572+01 | 1486170114.58357 | pgbench_history  |        212066304
 2017-02-04 02:01:54.583572+01 | 1486170114.58357 | pgbench_branches |         11476992

 2017-02-04 02:01:55.671872+01 | 1486170115.67187 | pgbench_accounts |      13912825856
 2017-02-04 02:01:55.671872+01 | 1486170115.67187 | pgbench_tellers  |         27975680
 2017-02-04 02:01:55.671872+01 | 1486170115.67187 | pgbench_history  |        214081536
 2017-02-04 02:01:55.671872+01 | 1486170115.67187 | pgbench_branches |         11476992

 2017-02-04 02:01:56.760411+01 | 1486170116.76041 | pgbench_accounts |      13912825856
 2017-02-04 02:01:56.760411+01 | 1486170116.76041 | pgbench_tellers  |         27975680
 2017-02-04 02:01:56.760411+01 | 1486170116.76041 | pgbench_history  |        215449600
 2017-02-04 02:01:56.760411+01 | 1486170116.76041 | pgbench_branches |         11476992

 2017-02-04 02:01:57.840961+01 | 1486170117.84096 | pgbench_accounts |      13912825856
 2017-02-04 02:01:57.840961+01 | 1486170117.84096 | pgbench_tellers  |         27975680
 2017-02-04 02:01:57.840961+01 | 1486170117.84096 | pgbench_history  |        217010176
 2017-02-04 02:01:57.840961+01 | 1486170117.84096 | pgbench_branches |         11476992

 2017-02-04 02:01:58.918082+01 | 1486170118.91808 | pgbench_accounts |      13912825856
 2017-02-04 02:01:58.918082+01 | 1486170118.91808 | pgbench_tellers  |         27975680
 2017-02-04 02:01:58.918082+01 | 1486170118.91808 | pgbench_history  |        218513408
 2017-02-04 02:01:58.918082+01 | 1486170118.91808 | pgbench_branches |         11476992

 2017-02-04 02:01:59.99763+01 | 1486170119.99763 | pgbench_accounts |      13912825856
 2017-02-04 02:01:59.99763+01 | 1486170119.99763 | pgbench_tellers  |         27975680
 2017-02-04 02:01:59.99763+01 | 1486170119.99763 | pgbench_history  |        220364800
 2017-02-04 02:01:59.99763+01 | 1486170119.99763 | pgbench_branches |         11476992

 2017-02-04 02:02:01.099606+01 | 1486170121.09961 | pgbench_accounts |      13912825856
 2017-02-04 02:02:01.099606+01 | 1486170121.09961 | pgbench_tellers  |         27975680
 2017-02-04 02:02:01.099606+01 | 1486170121.09961 | pgbench_history  |        221208576
 2017-02-04 02:02:01.099606+01 | 1486170121.09961 | pgbench_branches |         11476992

 2017-02-04 02:02:02.193043+01 | 1486170122.19304 | pgbench_accounts |      13912825856
 2017-02-04 02:02:02.193043+01 | 1486170122.19304 | pgbench_tellers  |         27975680
 2017-02-04 02:02:02.193043+01 | 1486170122.19304 | pgbench_history  |        223059968
 2017-02-04 02:02:02.193043+01 | 1486170122.19304 | pgbench_branches |         11476992

 2017-02-04 02:02:03.264346+01 | 1486170123.26435 | pgbench_accounts |      13912825856
 2017-02-04 02:02:03.264346+01 | 1486170123.26435 | pgbench_tellers  |         27975680
 2017-02-04 02:02:03.264346+01 | 1486170123.26435 | pgbench_history  |        224092160
 2017-02-04 02:02:03.264346+01 | 1486170123.26435 | pgbench_branches |         11476992

 2017-02-04 02:02:04.333799+01 | 1486170124.3338 | pgbench_accounts |      13912825856
 2017-02-04 02:02:04.333799+01 | 1486170124.3338 | pgbench_tellers  |         27975680
 2017-02-04 02:02:04.333799+01 | 1486170124.3338 | pgbench_history  |        225968128
 2017-02-04 02:02:04.333799+01 | 1486170124.3338 | pgbench_branches |         11476992

 2017-02-04 02:02:05.414069+01 | 1486170125.41407 | pgbench_accounts |      13912825856
 2017-02-04 02:02:05.414069+01 | 1486170125.41407 | pgbench_tellers  |         27975680
 2017-02-04 02:02:05.414069+01 | 1486170125.41407 | pgbench_history  |        227500032
 2017-02-04 02:02:05.414069+01 | 1486170125.41407 | pgbench_branches |         11476992

 2017-02-04 02:02:06.499259+01 | 1486170126.49926 | pgbench_accounts |      13912825856
 2017-02-04 02:02:06.499259+01 | 1486170126.49926 | pgbench_tellers  |         27975680
 2017-02-04 02:02:06.499259+01 | 1486170126.49926 | pgbench_history  |        229400576
 2017-02-04 02:02:06.499259+01 | 1486170126.49926 | pgbench_branches |         11476992

 2017-02-04 02:02:07.577137+01 | 1486170127.57714 | pgbench_accounts |      13912825856
 2017-02-04 02:02:07.577137+01 | 1486170127.57714 | pgbench_tellers  |         27975680
 2017-02-04 02:02:07.577137+01 | 1486170127.57714 | pgbench_history  |        231718912
 2017-02-04 02:02:07.577137+01 | 1486170127.57714 | pgbench_branches |         11476992

 2017-02-04 02:02:08.651523+01 | 1486170128.65152 | pgbench_accounts |      13912825856
 2017-02-04 02:02:08.651523+01 | 1486170128.65152 | pgbench_tellers  |         27975680
 2017-02-04 02:02:08.651523+01 | 1486170128.65152 | pgbench_history  |        233242624
 2017-02-04 02:02:08.651523+01 | 1486170128.65152 | pgbench_branches |         11476992

 2017-02-04 02:02:09.729206+01 | 1486170129.72921 | pgbench_accounts |      13912825856
 2017-02-04 02:02:09.729206+01 | 1486170129.72921 | pgbench_tellers  |         27975680
 2017-02-04 02:02:09.729206+01 | 1486170129.72921 | pgbench_history  |        235126784
 2017-02-04 02:02:09.729206+01 | 1486170129.72921 | pgbench_branches |         11476992

 2017-02-04 02:02:10.79713+01 | 1486170130.79713 | pgbench_accounts |      13912825856
 2017-02-04 02:02:10.79713+01 | 1486170130.79713 | pgbench_tellers  |         27975680
 2017-02-04 02:02:10.79713+01 | 1486170130.79713 | pgbench_history  |        235995136
 2017-02-04 02:02:10.79713+01 | 1486170130.79713 | pgbench_branches |         11476992

 2017-02-04 02:02:11.869432+01 | 1486170131.86943 | pgbench_accounts |      13912825856
 2017-02-04 02:02:11.869432+01 | 1486170131.86943 | pgbench_tellers  |         27975680
 2017-02-04 02:02:11.869432+01 | 1486170131.86943 | pgbench_history  |        238010368
 2017-02-04 02:02:11.869432+01 | 1486170131.86943 | pgbench_branches |         11476992

 2017-02-04 02:02:12.951781+01 | 1486170132.95178 | pgbench_accounts |      13912825856
 2017-02-04 02:02:12.951781+01 | 1486170132.95178 | pgbench_tellers  |         27975680
 2017-02-04 02:02:12.951781+01 | 1486170132.95178 | pgbench_history  |        238526464
 2017-02-04 02:02:12.951781+01 | 1486170132.95178 | pgbench_branches |         11476992

 2017-02-04 02:02:14.039619+01 | 1486170134.03962 | pgbench_accounts |      13912825856
 2017-02-04 02:02:14.039619+01 | 1486170134.03962 | pgbench_tellers  |         27975680
 2017-02-04 02:02:14.039619+01 | 1486170134.03962 | pgbench_history  |        240435200
 2017-02-04 02:02:14.039619+01 | 1486170134.03962 | pgbench_branches |         11476992

 2017-02-04 02:02:15.114155+01 | 1486170135.11416 | pgbench_accounts |      13912825856
 2017-02-04 02:02:15.114155+01 | 1486170135.11416 | pgbench_tellers  |         27975680
 2017-02-04 02:02:15.114155+01 | 1486170135.11416 | pgbench_history  |        241147904
 2017-02-04 02:02:15.114155+01 | 1486170135.11416 | pgbench_branches |         11476992

 2017-02-04 02:02:16.187059+01 | 1486170136.18706 | pgbench_accounts |      13912825856
 2017-02-04 02:02:16.187059+01 | 1486170136.18706 | pgbench_tellers  |         27975680
 2017-02-04 02:02:16.187059+01 | 1486170136.18706 | pgbench_history  |        243818496
 2017-02-04 02:02:16.187059+01 | 1486170136.18706 | pgbench_branches |         11476992

 2017-02-04 02:02:17.260281+01 | 1486170137.26028 | pgbench_accounts |      13912825856
 2017-02-04 02:02:17.260281+01 | 1486170137.26028 | pgbench_tellers  |         27975680
 2017-02-04 02:02:17.260281+01 | 1486170137.26028 | pgbench_history  |        244334592
 2017-02-04 02:02:17.260281+01 | 1486170137.26028 | pgbench_branches |         11476992

 2017-02-04 02:02:18.352175+01 | 1486170138.35217 | pgbench_accounts |      13912825856
 2017-02-04 02:02:18.352175+01 | 1486170138.35217 | pgbench_tellers  |         27975680
 2017-02-04 02:02:18.352175+01 | 1486170138.35217 | pgbench_history  |        245694464
 2017-02-04 02:02:18.352175+01 | 1486170138.35217 | pgbench_branches |         11476992

 2017-02-04 02:02:19.426322+01 | 1486170139.42632 | pgbench_accounts |      13912825856
 2017-02-04 02:02:19.426322+01 | 1486170139.42632 | pgbench_tellers  |         27975680
 2017-02-04 02:02:19.426322+01 | 1486170139.42632 | pgbench_history  |        248201216
 2017-02-04 02:02:19.426322+01 | 1486170139.42632 | pgbench_branches |         11476992

 2017-02-04 02:02:20.516302+01 | 1486170140.5163 | pgbench_accounts |      13912825856
 2017-02-04 02:02:20.516302+01 | 1486170140.5163 | pgbench_tellers  |         27975680
 2017-02-04 02:02:20.516302+01 | 1486170140.5163 | pgbench_history  |        248201216
 2017-02-04 02:02:20.516302+01 | 1486170140.5163 | pgbench_branches |         11476992

 2017-02-04 02:02:21.59344+01 | 1486170141.59344 | pgbench_accounts |      13912825856
 2017-02-04 02:02:21.59344+01 | 1486170141.59344 | pgbench_tellers  |         27975680
 2017-02-04 02:02:21.59344+01 | 1486170141.59344 | pgbench_history  |        249888768
 2017-02-04 02:02:21.59344+01 | 1486170141.59344 | pgbench_branches |         11476992

 2017-02-04 02:02:22.670388+01 | 1486170142.67039 | pgbench_accounts |      13912825856
 2017-02-04 02:02:22.670388+01 | 1486170142.67039 | pgbench_tellers  |         27975680
 2017-02-04 02:02:22.670388+01 | 1486170142.67039 | pgbench_history  |        252395520
 2017-02-04 02:02:22.670388+01 | 1486170142.67039 | pgbench_branches |         11476992

 2017-02-04 02:02:23.734095+01 | 1486170143.7341 | pgbench_accounts |      13912825856
 2017-02-04 02:02:23.734095+01 | 1486170143.7341 | pgbench_tellers  |         27975680
 2017-02-04 02:02:23.734095+01 | 1486170143.7341 | pgbench_history  |        252395520
 2017-02-04 02:02:23.734095+01 | 1486170143.7341 | pgbench_branches |         11476992

 2017-02-04 02:02:24.810363+01 | 1486170144.81036 | pgbench_accounts |      13912825856
 2017-02-04 02:02:24.810363+01 | 1486170144.81036 | pgbench_tellers  |         27975680
 2017-02-04 02:02:24.810363+01 | 1486170144.81036 | pgbench_history  |        254271488
 2017-02-04 02:02:24.810363+01 | 1486170144.81036 | pgbench_branches |         11476992

 2017-02-04 02:02:25.881542+01 | 1486170145.88154 | pgbench_accounts |      13912825856
 2017-02-04 02:02:25.881542+01 | 1486170145.88154 | pgbench_tellers  |         27975680
 2017-02-04 02:02:25.881542+01 | 1486170145.88154 | pgbench_history  |        257597440
 2017-02-04 02:02:25.881542+01 | 1486170145.88154 | pgbench_branches |         11476992

 2017-02-04 02:02:26.954055+01 | 1486170146.95406 | pgbench_accounts |      13912825856
 2017-02-04 02:02:26.954055+01 | 1486170146.95406 | pgbench_tellers  |         27975680
 2017-02-04 02:02:26.954055+01 | 1486170146.95406 | pgbench_history  |        257597440
 2017-02-04 02:02:26.954055+01 | 1486170146.95406 | pgbench_branches |         11476992

 2017-02-04 02:02:28.033053+01 | 1486170148.03305 | pgbench_accounts |      13912825856
 2017-02-04 02:02:28.033053+01 | 1486170148.03305 | pgbench_tellers  |         27975680
 2017-02-04 02:02:28.033053+01 | 1486170148.03305 | pgbench_history  |        260128768
 2017-02-04 02:02:28.033053+01 | 1486170148.03305 | pgbench_branches |         11476992

 2017-02-04 02:02:29.10799+01 | 1486170149.10799 | pgbench_accounts |      13912825856
 2017-02-04 02:02:29.10799+01 | 1486170149.10799 | pgbench_tellers  |         27975680
 2017-02-04 02:02:29.10799+01 | 1486170149.10799 | pgbench_history  |        261488640
 2017-02-04 02:02:29.10799+01 | 1486170149.10799 | pgbench_branches |         11476992

 2017-02-04 02:02:30.193017+01 | 1486170150.19302 | pgbench_accounts |      13912825856
 2017-02-04 02:02:30.193017+01 | 1486170150.19302 | pgbench_tellers  |         27975680
 2017-02-04 02:02:30.193017+01 | 1486170150.19302 | pgbench_history  |        263397376
 2017-02-04 02:02:30.193017+01 | 1486170150.19302 | pgbench_branches |         11476992

 2017-02-04 02:02:31.283016+01 | 1486170151.28302 | pgbench_accounts |      13912825856
 2017-02-04 02:02:31.283016+01 | 1486170151.28302 | pgbench_tellers  |         27975680
 2017-02-04 02:02:31.283016+01 | 1486170151.28302 | pgbench_history  |        264986624
 2017-02-04 02:02:31.283016+01 | 1486170151.28302 | pgbench_branches |         11476992

 2017-02-04 02:02:32.376229+01 | 1486170152.37623 | pgbench_accounts |      13912825856
 2017-02-04 02:02:32.376229+01 | 1486170152.37623 | pgbench_tellers  |         27975680
 2017-02-04 02:02:32.376229+01 | 1486170152.37623 | pgbench_history  |        267132928
 2017-02-04 02:02:32.376229+01 | 1486170152.37623 | pgbench_branches |         11476992

 2017-02-04 02:02:33.463912+01 | 1486170153.46391 | pgbench_accounts |      13912825856
 2017-02-04 02:02:33.463912+01 | 1486170153.46391 | pgbench_tellers  |         27975680
 2017-02-04 02:02:33.463912+01 | 1486170153.46391 | pgbench_history  |        268525568
 2017-02-04 02:02:33.463912+01 | 1486170153.46391 | pgbench_branches |         11476992

 2017-02-04 02:02:34.570119+01 | 1486170154.57012 | pgbench_accounts |      13912825856
 2017-02-04 02:02:34.570119+01 | 1486170154.57012 | pgbench_tellers  |         27975680
 2017-02-04 02:02:34.570119+01 | 1486170154.57012 | pgbench_history  |        271900672
 2017-02-04 02:02:34.570119+01 | 1486170154.57012 | pgbench_branches |         11476992

 2017-02-04 02:02:35.662635+01 | 1486170155.66264 | pgbench_accounts |      13912825856
 2017-02-04 02:02:35.662635+01 | 1486170155.66264 | pgbench_tellers  |         27975680
 2017-02-04 02:02:35.662635+01 | 1486170155.66264 | pgbench_history  |        273563648
 2017-02-04 02:02:35.662635+01 | 1486170155.66264 | pgbench_branches |         11476992

 2017-02-04 02:02:36.742779+01 | 1486170156.74278 | pgbench_accounts |      13912825856
 2017-02-04 02:02:36.742779+01 | 1486170156.74278 | pgbench_tellers  |         27975680
 2017-02-04 02:02:36.742779+01 | 1486170156.74278 | pgbench_history  |        274243584
 2017-02-04 02:02:36.742779+01 | 1486170156.74278 | pgbench_branches |         11476992

 2017-02-04 02:02:37.817678+01 | 1486170157.81768 | pgbench_accounts |      13912825856
 2017-02-04 02:02:37.817678+01 | 1486170157.81768 | pgbench_tellers  |         27975680
 2017-02-04 02:02:37.817678+01 | 1486170157.81768 | pgbench_history  |        276815872
 2017-02-04 02:02:37.817678+01 | 1486170157.81768 | pgbench_branches |         11476992

 2017-02-04 02:02:38.900987+01 | 1486170158.90099 | pgbench_accounts |      13912825856
 2017-02-04 02:02:38.900987+01 | 1486170158.90099 | pgbench_tellers  |         27975680
 2017-02-04 02:02:38.900987+01 | 1486170158.90099 | pgbench_history  |        278847488
 2017-02-04 02:02:38.900987+01 | 1486170158.90099 | pgbench_branches |         11476992

 2017-02-04 02:02:39.972472+01 | 1486170159.97247 | pgbench_accounts |      13912825856
 2017-02-04 02:02:39.972472+01 | 1486170159.97247 | pgbench_tellers  |         27975680
 2017-02-04 02:02:39.972472+01 | 1486170159.97247 | pgbench_history  |        282009600
 2017-02-04 02:02:39.972472+01 | 1486170159.97247 | pgbench_branches |         11476992

 2017-02-04 02:02:41.046128+01 | 1486170161.04613 | pgbench_accounts |      13912825856
 2017-02-04 02:02:41.046128+01 | 1486170161.04613 | pgbench_tellers  |         27975680
 2017-02-04 02:02:41.046128+01 | 1486170161.04613 | pgbench_history  |        282009600
 2017-02-04 02:02:41.046128+01 | 1486170161.04613 | pgbench_branches |         11476992

 2017-02-04 02:02:42.12008+01 | 1486170162.12008 | pgbench_accounts |      13912825856
 2017-02-04 02:02:42.12008+01 | 1486170162.12008 | pgbench_tellers  |         27975680
 2017-02-04 02:02:42.12008+01 | 1486170162.12008 | pgbench_history  |        284655616
 2017-02-04 02:02:42.12008+01 | 1486170162.12008 | pgbench_branches |         11476992

 2017-02-04 02:02:43.177098+01 | 1486170163.1771 | pgbench_accounts |      13912825856
 2017-02-04 02:02:43.177098+01 | 1486170163.1771 | pgbench_tellers  |         27975680
 2017-02-04 02:02:43.177098+01 | 1486170163.1771 | pgbench_history  |        284655616
 2017-02-04 02:02:43.177098+01 | 1486170163.1771 | pgbench_branches |         11476992

 2017-02-04 02:02:44.250918+01 | 1486170164.25092 | pgbench_accounts |      13912825856
 2017-02-04 02:02:44.250918+01 | 1486170164.25092 | pgbench_tellers  |         27975680
 2017-02-04 02:02:44.250918+01 | 1486170164.25092 | pgbench_history  |        285687808
 2017-02-04 02:02:44.250918+01 | 1486170164.25092 | pgbench_branches |         11476992

 2017-02-04 02:02:45.318807+01 | 1486170165.31881 | pgbench_accounts |      13912825856
 2017-02-04 02:02:45.318807+01 | 1486170165.31881 | pgbench_tellers  |         27975680
 2017-02-04 02:02:45.318807+01 | 1486170165.31881 | pgbench_history  |        287047680
 2017-02-04 02:02:45.318807+01 | 1486170165.31881 | pgbench_branches |         11476992

 2017-02-04 02:02:46.397308+01 | 1486170166.39731 | pgbench_accounts |      13912825856
 2017-02-04 02:02:46.397308+01 | 1486170166.39731 | pgbench_tellers  |         27975680
 2017-02-04 02:02:46.397308+01 | 1486170166.39731 | pgbench_history  |        289415168
 2017-02-04 02:02:46.397308+01 | 1486170166.39731 | pgbench_branches |         11476992

 2017-02-04 02:02:47.468082+01 | 1486170167.46808 | pgbench_accounts |      13912825856
 2017-02-04 02:02:47.468082+01 | 1486170167.46808 | pgbench_tellers  |         27975680
 2017-02-04 02:02:47.468082+01 | 1486170167.46808 | pgbench_history  |        290586624
 2017-02-04 02:02:47.468082+01 | 1486170167.46808 | pgbench_branches |         11476992

 2017-02-04 02:02:48.549009+01 | 1486170168.54901 | pgbench_accounts |      13912825856
 2017-02-04 02:02:48.549009+01 | 1486170168.54901 | pgbench_tellers  |         27975680
 2017-02-04 02:02:48.549009+01 | 1486170168.54901 | pgbench_history  |        292298752
 2017-02-04 02:02:48.549009+01 | 1486170168.54901 | pgbench_branches |         11476992

 2017-02-04 02:02:49.637641+01 | 1486170169.63764 | pgbench_accounts |      13912825856
 2017-02-04 02:02:49.637641+01 | 1486170169.63764 | pgbench_tellers  |         27975680
 2017-02-04 02:02:49.637641+01 | 1486170169.63764 | pgbench_history  |        294518784
 2017-02-04 02:02:49.637641+01 | 1486170169.63764 | pgbench_branches |         11476992

 2017-02-04 02:02:50.720318+01 | 1486170170.72032 | pgbench_accounts |      13912825856
 2017-02-04 02:02:50.720318+01 | 1486170170.72032 | pgbench_tellers  |         27975680
 2017-02-04 02:02:50.720318+01 | 1486170170.72032 | pgbench_history  |        296067072
 2017-02-04 02:02:50.720318+01 | 1486170170.72032 | pgbench_branches |         11476992

 2017-02-04 02:02:51.801275+01 | 1486170171.80128 | pgbench_accounts |      13912825856
 2017-02-04 02:02:51.801275+01 | 1486170171.80128 | pgbench_tellers  |         27975680
 2017-02-04 02:02:51.801275+01 | 1486170171.80128 | pgbench_history  |        297648128
 2017-02-04 02:02:51.801275+01 | 1486170171.80128 | pgbench_branches |         11476992

 2017-02-04 02:02:52.886303+01 | 1486170172.8863 | pgbench_accounts |      13912825856
 2017-02-04 02:02:52.886303+01 | 1486170172.8863 | pgbench_tellers  |         27975680
 2017-02-04 02:02:52.886303+01 | 1486170172.8863 | pgbench_history  |        299048960
 2017-02-04 02:02:52.886303+01 | 1486170172.8863 | pgbench_branches |         11476992

 2017-02-04 02:02:53.977038+01 | 1486170173.97704 | pgbench_accounts |      13912825856
 2017-02-04 02:02:53.977038+01 | 1486170173.97704 | pgbench_tellers  |         27975680
 2017-02-04 02:02:53.977038+01 | 1486170173.97704 | pgbench_history  |        301088768
 2017-02-04 02:02:53.977038+01 | 1486170173.97704 | pgbench_branches |         11476992

 2017-02-04 02:02:55.053818+01 | 1486170175.05382 | pgbench_accounts |      13912825856
 2017-02-04 02:02:55.053818+01 | 1486170175.05382 | pgbench_tellers  |         27975680
 2017-02-04 02:02:55.053818+01 | 1486170175.05382 | pgbench_history  |        302800896
 2017-02-04 02:02:55.053818+01 | 1486170175.05382 | pgbench_branches |         11476992

 2017-02-04 02:02:56.125873+01 | 1486170176.12587 | pgbench_accounts |      13912825856
 2017-02-04 02:02:56.125873+01 | 1486170176.12587 | pgbench_tellers  |         27975680
 2017-02-04 02:02:56.125873+01 | 1486170176.12587 | pgbench_history  |        303849472
 2017-02-04 02:02:56.125873+01 | 1486170176.12587 | pgbench_branches |         12156928

 2017-02-04 02:02:57.20407+01 | 1486170177.20407 | pgbench_accounts |      13912825856
 2017-02-04 02:02:57.20407+01 | 1486170177.20407 | pgbench_tellers  |         27975680
 2017-02-04 02:02:57.20407+01 | 1486170177.20407 | pgbench_history  |        305397760
 2017-02-04 02:02:57.20407+01 | 1486170177.20407 | pgbench_branches |         12156928

 2017-02-04 02:02:58.292233+01 | 1486170178.29223 | pgbench_accounts |      13912825856
 2017-02-04 02:02:58.292233+01 | 1486170178.29223 | pgbench_tellers  |         27975680
 2017-02-04 02:02:58.292233+01 | 1486170178.29223 | pgbench_history  |        307953664
 2017-02-04 02:02:58.292233+01 | 1486170178.29223 | pgbench_branches |         12156928

 2017-02-04 02:02:59.377635+01 | 1486170179.37764 | pgbench_accounts |      13912825856
 2017-02-04 02:02:59.377635+01 | 1486170179.37764 | pgbench_tellers  |         27975680
 2017-02-04 02:02:59.377635+01 | 1486170179.37764 | pgbench_history  |        309313536
 2017-02-04 02:02:59.377635+01 | 1486170179.37764 | pgbench_branches |         12156928

 2017-02-04 02:03:00.463117+01 | 1486170180.46312 | pgbench_accounts |      13912825856
 2017-02-04 02:03:00.463117+01 | 1486170180.46312 | pgbench_tellers  |         27975680
 2017-02-04 02:03:00.463117+01 | 1486170180.46312 | pgbench_history  |        311091200
 2017-02-04 02:03:00.463117+01 | 1486170180.46312 | pgbench_branches |         12156928

 2017-02-04 02:03:01.548438+01 | 1486170181.54844 | pgbench_accounts |      13912825856
 2017-02-04 02:03:01.548438+01 | 1486170181.54844 | pgbench_tellers  |         27975680
 2017-02-04 02:03:01.548438+01 | 1486170181.54844 | pgbench_history  |        313139200
 2017-02-04 02:03:01.548438+01 | 1486170181.54844 | pgbench_branches |         12156928

 2017-02-04 02:03:02.6275+01 | 1486170182.6275 | pgbench_accounts |      13912825856
 2017-02-04 02:03:02.6275+01 | 1486170182.6275 | pgbench_tellers  |         27975680
 2017-02-04 02:03:02.6275+01 | 1486170182.6275 | pgbench_history  |        314998784
 2017-02-04 02:03:02.6275+01 | 1486170182.6275 | pgbench_branches |         12156928

 2017-02-04 02:03:03.715643+01 | 1486170183.71564 | pgbench_accounts |      13912825856
 2017-02-04 02:03:03.715643+01 | 1486170183.71564 | pgbench_tellers  |         27975680
 2017-02-04 02:03:03.715643+01 | 1486170183.71564 | pgbench_history  |        317718528
 2017-02-04 02:03:03.715643+01 | 1486170183.71564 | pgbench_branches |         12156928

 2017-02-04 02:03:04.801214+01 | 1486170184.80121 | pgbench_accounts |      13912825856
 2017-02-04 02:03:04.801214+01 | 1486170184.80121 | pgbench_tellers  |         27975680
 2017-02-04 02:03:04.801214+01 | 1486170184.80121 | pgbench_history  |        318750720
 2017-02-04 02:03:04.801214+01 | 1486170184.80121 | pgbench_branches |         12156928

 2017-02-04 02:03:05.886632+01 | 1486170185.88663 | pgbench_accounts |      13912825856
 2017-02-04 02:03:05.886632+01 | 1486170185.88663 | pgbench_tellers  |         27975680
 2017-02-04 02:03:05.886632+01 | 1486170185.88663 | pgbench_history  |        321093632
 2017-02-04 02:03:05.886632+01 | 1486170185.88663 | pgbench_branches |         12156928

 2017-02-04 02:03:06.973776+01 | 1486170186.97378 | pgbench_accounts |      13912825856
 2017-02-04 02:03:06.973776+01 | 1486170186.97378 | pgbench_tellers  |         27975680
 2017-02-04 02:03:06.973776+01 | 1486170186.97378 | pgbench_history  |        321798144
 2017-02-04 02:03:06.973776+01 | 1486170186.97378 | pgbench_branches |         12156928

 2017-02-04 02:03:08.048557+01 | 1486170188.04856 | pgbench_accounts |      13912825856
 2017-02-04 02:03:08.048557+01 | 1486170188.04856 | pgbench_tellers  |         27975680
 2017-02-04 02:03:08.048557+01 | 1486170188.04856 | pgbench_history  |        324493312
 2017-02-04 02:03:08.048557+01 | 1486170188.04856 | pgbench_branches |         12156928

 2017-02-04 02:03:09.122471+01 | 1486170189.12247 | pgbench_accounts |      13912825856
 2017-02-04 02:03:09.122471+01 | 1486170189.12247 | pgbench_tellers  |         27975680
 2017-02-04 02:03:09.122471+01 | 1486170189.12247 | pgbench_history  |        326025216
 2017-02-04 02:03:09.122471+01 | 1486170189.12247 | pgbench_branches |         12156928

 2017-02-04 02:03:10.194985+01 | 1486170190.19498 | pgbench_accounts |      13912825856
 2017-02-04 02:03:10.194985+01 | 1486170190.19498 | pgbench_tellers  |         27975680
 2017-02-04 02:03:10.194985+01 | 1486170190.19498 | pgbench_history  |        327901184
 2017-02-04 02:03:10.194985+01 | 1486170190.19498 | pgbench_branches |         12156928

 2017-02-04 02:03:11.274335+01 | 1486170191.27433 | pgbench_accounts |      13912825856
 2017-02-04 02:03:11.274335+01 | 1486170191.27433 | pgbench_tellers  |         27975680
 2017-02-04 02:03:11.274335+01 | 1486170191.27433 | pgbench_history  |        329285632
 2017-02-04 02:03:11.274335+01 | 1486170191.27433 | pgbench_branches |         12156928

 2017-02-04 02:03:12.347743+01 | 1486170192.34774 | pgbench_accounts |      13912825856
 2017-02-04 02:03:12.347743+01 | 1486170192.34774 | pgbench_tellers  |         27975680
 2017-02-04 02:03:12.347743+01 | 1486170192.34774 | pgbench_history  |        331300864
 2017-02-04 02:03:12.347743+01 | 1486170192.34774 | pgbench_branches |         12156928

 2017-02-04 02:03:13.434471+01 | 1486170193.43447 | pgbench_accounts |      13912825856
 2017-02-04 02:03:13.434471+01 | 1486170193.43447 | pgbench_tellers  |         27975680
 2017-02-04 02:03:13.434471+01 | 1486170193.43447 | pgbench_history  |        332849152
 2017-02-04 02:03:13.434471+01 | 1486170193.43447 | pgbench_branches |         12156928

 2017-02-04 02:03:14.520075+01 | 1486170194.52008 | pgbench_accounts |      13912825856
 2017-02-04 02:03:14.520075+01 | 1486170194.52008 | pgbench_tellers  |         27975680
 2017-02-04 02:03:14.520075+01 | 1486170194.52008 | pgbench_history  |        335077376
 2017-02-04 02:03:14.520075+01 | 1486170194.52008 | pgbench_branches |         12156928

 2017-02-04 02:03:15.602608+01 | 1486170195.60261 | pgbench_accounts |      13912825856
 2017-02-04 02:03:15.602608+01 | 1486170195.60261 | pgbench_tellers  |         27975680
 2017-02-04 02:03:15.602608+01 | 1486170195.60261 | pgbench_history  |        336470016
 2017-02-04 02:03:15.602608+01 | 1486170195.60261 | pgbench_branches |         12156928

 2017-02-04 02:03:16.678713+01 | 1486170196.67871 | pgbench_accounts |      13912825856
 2017-02-04 02:03:16.678713+01 | 1486170196.67871 | pgbench_tellers  |         27975680
 2017-02-04 02:03:16.678713+01 | 1486170196.67871 | pgbench_history  |        338534400
 2017-02-04 02:03:16.678713+01 | 1486170196.67871 | pgbench_branches |         12156928

 2017-02-04 02:03:17.762832+01 | 1486170197.76283 | pgbench_accounts |      13912825856
 2017-02-04 02:03:17.762832+01 | 1486170197.76283 | pgbench_tellers  |         27975680
 2017-02-04 02:03:17.762832+01 | 1486170197.76283 | pgbench_history  |        340246528
 2017-02-04 02:03:17.762832+01 | 1486170197.76283 | pgbench_branches |         12156928

 2017-02-04 02:03:18.848983+01 | 1486170198.84898 | pgbench_accounts |      13912825856
 2017-02-04 02:03:18.848983+01 | 1486170198.84898 | pgbench_tellers  |         27975680
 2017-02-04 02:03:18.848983+01 | 1486170198.84898 | pgbench_history  |        344465408
 2017-02-04 02:03:18.848983+01 | 1486170198.84898 | pgbench_branches |         12156928

 2017-02-04 02:03:19.937989+01 | 1486170199.93799 | pgbench_accounts |      13912825856
 2017-02-04 02:03:19.937989+01 | 1486170199.93799 | pgbench_tellers  |         27975680
 2017-02-04 02:03:19.937989+01 | 1486170199.93799 | pgbench_history  |        344465408
 2017-02-04 02:03:19.937989+01 | 1486170199.93799 | pgbench_branches |         12156928

 2017-02-04 02:03:21.021552+01 | 1486170201.02155 | pgbench_accounts |      13912825856
 2017-02-04 02:03:21.021552+01 | 1486170201.02155 | pgbench_tellers  |         27975680
 2017-02-04 02:03:21.021552+01 | 1486170201.02155 | pgbench_history  |        345473024
 2017-02-04 02:03:21.021552+01 | 1486170201.02155 | pgbench_branches |         12156928

 2017-02-04 02:03:22.096094+01 | 1486170202.09609 | pgbench_accounts |      13912825856
 2017-02-04 02:03:22.096094+01 | 1486170202.09609 | pgbench_tellers  |         27975680
 2017-02-04 02:03:22.096094+01 | 1486170202.09609 | pgbench_history  |        347193344
 2017-02-04 02:03:22.096094+01 | 1486170202.09609 | pgbench_branches |         12156928

 2017-02-04 02:03:23.172399+01 | 1486170203.1724 | pgbench_accounts |      13912825856
 2017-02-04 02:03:23.172399+01 | 1486170203.1724 | pgbench_tellers  |         27975680
 2017-02-04 02:03:23.172399+01 | 1486170203.1724 | pgbench_history  |        348913664
 2017-02-04 02:03:23.172399+01 | 1486170203.1724 | pgbench_branches |         12156928

 2017-02-04 02:03:24.251947+01 | 1486170204.25195 | pgbench_accounts |      13912825856
 2017-02-04 02:03:24.251947+01 | 1486170204.25195 | pgbench_tellers  |         27975680
 2017-02-04 02:03:24.251947+01 | 1486170204.25195 | pgbench_history  |        350978048
 2017-02-04 02:03:24.251947+01 | 1486170204.25195 | pgbench_branches |         12156928

 2017-02-04 02:03:25.333593+01 | 1486170205.33359 | pgbench_accounts |      13912825856
 2017-02-04 02:03:25.333593+01 | 1486170205.33359 | pgbench_tellers  |         27975680
 2017-02-04 02:03:25.333593+01 | 1486170205.33359 | pgbench_history  |        352837632
 2017-02-04 02:03:25.333593+01 | 1486170205.33359 | pgbench_branches |         12156928

 2017-02-04 02:03:26.399462+01 | 1486170206.39946 | pgbench_accounts |      13912825856
 2017-02-04 02:03:26.399462+01 | 1486170206.39946 | pgbench_tellers  |         27975680
 2017-02-04 02:03:26.399462+01 | 1486170206.39946 | pgbench_history  |        355672064
 2017-02-04 02:03:26.399462+01 | 1486170206.39946 | pgbench_branches |         12156928

 2017-02-04 02:03:27.471987+01 | 1486170207.47199 | pgbench_accounts |      13912825856
 2017-02-04 02:03:27.471987+01 | 1486170207.47199 | pgbench_tellers  |         27975680
 2017-02-04 02:03:27.471987+01 | 1486170207.47199 | pgbench_history  |        356515840
 2017-02-04 02:03:27.471987+01 | 1486170207.47199 | pgbench_branches |         12156928

 2017-02-04 02:03:28.56099+01 | 1486170208.56099 | pgbench_accounts |      13912825856
 2017-02-04 02:03:28.56099+01 | 1486170208.56099 | pgbench_tellers  |         27975680
 2017-02-04 02:03:28.56099+01 | 1486170208.56099 | pgbench_history  |        358064128
 2017-02-04 02:03:28.56099+01 | 1486170208.56099 | pgbench_branches |         12156928

 2017-02-04 02:03:29.642788+01 | 1486170209.64279 | pgbench_accounts |      13912825856
 2017-02-04 02:03:29.642788+01 | 1486170209.64279 | pgbench_tellers  |         27975680
 2017-02-04 02:03:29.642788+01 | 1486170209.64279 | pgbench_history  |        359612416
 2017-02-04 02:03:29.642788+01 | 1486170209.64279 | pgbench_branches |         12156928

 2017-02-04 02:03:30.733275+01 | 1486170210.73327 | pgbench_accounts |      13912825856
 2017-02-04 02:03:30.733275+01 | 1486170210.73327 | pgbench_tellers  |         27975680
 2017-02-04 02:03:30.733275+01 | 1486170210.73327 | pgbench_history  |        361340928
 2017-02-04 02:03:30.733275+01 | 1486170210.73327 | pgbench_branches |         12156928

 2017-02-04 02:03:31.804224+01 | 1486170211.80422 | pgbench_accounts |      13912825856
 2017-02-04 02:03:31.804224+01 | 1486170211.80422 | pgbench_tellers  |         27975680
 2017-02-04 02:03:31.804224+01 | 1486170211.80422 | pgbench_history  |        362897408
 2017-02-04 02:03:31.804224+01 | 1486170211.80422 | pgbench_branches |         12156928

 2017-02-04 02:03:32.888317+01 | 1486170212.88832 | pgbench_accounts |      13912825856
 2017-02-04 02:03:32.888317+01 | 1486170212.88832 | pgbench_tellers  |         27975680
 2017-02-04 02:03:32.888317+01 | 1486170212.88832 | pgbench_history  |        364806144
 2017-02-04 02:03:32.888317+01 | 1486170212.88832 | pgbench_branches |         12156928

 2017-02-04 02:03:33.970197+01 | 1486170213.9702 | pgbench_accounts |      13912825856
 2017-02-04 02:03:33.970197+01 | 1486170213.9702 | pgbench_tellers  |         27975680
 2017-02-04 02:03:33.970197+01 | 1486170213.9702 | pgbench_history  |        366854144
 2017-02-04 02:03:33.970197+01 | 1486170213.9702 | pgbench_branches |         12156928

 2017-02-04 02:03:35.04071+01 | 1486170215.04071 | pgbench_accounts |      13912825856
 2017-02-04 02:03:35.04071+01 | 1486170215.04071 | pgbench_tellers  |         27975680
 2017-02-04 02:03:35.04071+01 | 1486170215.04071 | pgbench_history  |        368386048
 2017-02-04 02:03:35.04071+01 | 1486170215.04071 | pgbench_branches |         12156928

 2017-02-04 02:03:36.120325+01 | 1486170216.12033 | pgbench_accounts |      13912825856
 2017-02-04 02:03:36.120325+01 | 1486170216.12033 | pgbench_tellers  |         27975680
 2017-02-04 02:03:36.120325+01 | 1486170216.12033 | pgbench_history  |        370753536
 2017-02-04 02:03:36.120325+01 | 1486170216.12033 | pgbench_branches |         12156928

 2017-02-04 02:03:37.19342+01 | 1486170217.19342 | pgbench_accounts |      13912825856
 2017-02-04 02:03:37.19342+01 | 1486170217.19342 | pgbench_tellers  |         27975680
 2017-02-04 02:03:37.19342+01 | 1486170217.19342 | pgbench_history  |        372441088
 2017-02-04 02:03:37.19342+01 | 1486170217.19342 | pgbench_branches |         12156928

 2017-02-04 02:03:38.274048+01 | 1486170218.27405 | pgbench_accounts |      13912825856
 2017-02-04 02:03:38.274048+01 | 1486170218.27405 | pgbench_tellers  |         27975680
 2017-02-04 02:03:38.274048+01 | 1486170218.27405 | pgbench_history  |        374644736
 2017-02-04 02:03:38.274048+01 | 1486170218.27405 | pgbench_branches |         12156928

 2017-02-04 02:03:39.34558+01 | 1486170219.34558 | pgbench_accounts |      13912825856
 2017-02-04 02:03:39.34558+01 | 1486170219.34558 | pgbench_tellers  |         27975680
 2017-02-04 02:03:39.34558+01 | 1486170219.34558 | pgbench_history  |        376012800
 2017-02-04 02:03:39.34558+01 | 1486170219.34558 | pgbench_branches |         12156928

 2017-02-04 02:03:40.424661+01 | 1486170220.42466 | pgbench_accounts |      13912825856
 2017-02-04 02:03:40.424661+01 | 1486170220.42466 | pgbench_tellers  |         27975680
 2017-02-04 02:03:40.424661+01 | 1486170220.42466 | pgbench_history  |        377888768
 2017-02-04 02:03:40.424661+01 | 1486170220.42466 | pgbench_branches |         12156928

 2017-02-04 02:03:41.516707+01 | 1486170221.51671 | pgbench_accounts |      13912825856
 2017-02-04 02:03:41.516707+01 | 1486170221.51671 | pgbench_tellers  |         27975680
 2017-02-04 02:03:41.516707+01 | 1486170221.51671 | pgbench_history  |        379600896
 2017-02-04 02:03:41.516707+01 | 1486170221.51671 | pgbench_branches |         12156928

 2017-02-04 02:03:42.599035+01 | 1486170222.59904 | pgbench_accounts |      13912825856
 2017-02-04 02:03:42.599035+01 | 1486170222.59904 | pgbench_tellers  |         27975680
 2017-02-04 02:03:42.599035+01 | 1486170222.59904 | pgbench_history  |        381313024
 2017-02-04 02:03:42.599035+01 | 1486170222.59904 | pgbench_branches |         12156928

 2017-02-04 02:03:43.676015+01 | 1486170223.67601 | pgbench_accounts |      13912825856
 2017-02-04 02:03:43.676015+01 | 1486170223.67601 | pgbench_tellers  |         27975680
 2017-02-04 02:03:43.676015+01 | 1486170223.67601 | pgbench_history  |        383197184
 2017-02-04 02:03:43.676015+01 | 1486170223.67601 | pgbench_branches |         12156928

 2017-02-04 02:03:44.777279+01 | 1486170224.77728 | pgbench_accounts |      13912825856
 2017-02-04 02:03:44.777279+01 | 1486170224.77728 | pgbench_tellers  |         27975680
 2017-02-04 02:03:44.777279+01 | 1486170224.77728 | pgbench_history  |        384917504
 2017-02-04 02:03:44.777279+01 | 1486170224.77728 | pgbench_branches |         12509184

 2017-02-04 02:03:45.849306+01 | 1486170225.84931 | pgbench_accounts |      13912825856
 2017-02-04 02:03:45.849306+01 | 1486170225.84931 | pgbench_tellers  |         27975680
 2017-02-04 02:03:45.849306+01 | 1486170225.84931 | pgbench_history  |        386490368
 2017-02-04 02:03:45.849306+01 | 1486170225.84931 | pgbench_branches |         12509184

 2017-02-04 02:03:46.934917+01 | 1486170226.93492 | pgbench_accounts |      13912825856
 2017-02-04 02:03:46.934917+01 | 1486170226.93492 | pgbench_tellers  |         27975680
 2017-02-04 02:03:46.934917+01 | 1486170226.93492 | pgbench_history  |        389398528
 2017-02-04 02:03:46.934917+01 | 1486170226.93492 | pgbench_branches |         12509184

 2017-02-04 02:03:48.016103+01 | 1486170228.0161 | pgbench_accounts |      13912825856
 2017-02-04 02:03:48.016103+01 | 1486170228.0161 | pgbench_tellers  |         27975680
 2017-02-04 02:03:48.016103+01 | 1486170228.0161 | pgbench_history  |        390086656
 2017-02-04 02:03:48.016103+01 | 1486170228.0161 | pgbench_branches |         12509184

 2017-02-04 02:03:49.099206+01 | 1486170229.09921 | pgbench_accounts |      13912825856
 2017-02-04 02:03:49.099206+01 | 1486170229.09921 | pgbench_tellers  |         27975680
 2017-02-04 02:03:49.099206+01 | 1486170229.09921 | pgbench_history  |        391733248
 2017-02-04 02:03:49.099206+01 | 1486170229.09921 | pgbench_branches |         12509184

 2017-02-04 02:03:50.177512+01 | 1486170230.17751 | pgbench_accounts |      13912825856
 2017-02-04 02:03:50.177512+01 | 1486170230.17751 | pgbench_tellers  |         27975680
 2017-02-04 02:03:50.177512+01 | 1486170230.17751 | pgbench_history  |        393920512
 2017-02-04 02:03:50.177512+01 | 1486170230.17751 | pgbench_branches |         12509184

 2017-02-04 02:03:51.260731+01 | 1486170231.26073 | pgbench_accounts |      13912825856
 2017-02-04 02:03:51.260731+01 | 1486170231.26073 | pgbench_tellers  |         27975680
 2017-02-04 02:03:51.260731+01 | 1486170231.26073 | pgbench_history  |        395780096
 2017-02-04 02:03:51.260731+01 | 1486170231.26073 | pgbench_branches |         12509184

 2017-02-04 02:03:52.34157+01 | 1486170232.34157 | pgbench_accounts |      13912825856
 2017-02-04 02:03:52.34157+01 | 1486170232.34157 | pgbench_tellers  |         27975680
 2017-02-04 02:03:52.34157+01 | 1486170232.34157 | pgbench_history  |        396787712
 2017-02-04 02:03:52.34157+01 | 1486170232.34157 | pgbench_branches |         12509184

 2017-02-04 02:03:53.416875+01 | 1486170233.41687 | pgbench_accounts |      13912825856
 2017-02-04 02:03:53.416875+01 | 1486170233.41687 | pgbench_tellers  |         27975680
 2017-02-04 02:03:53.416875+01 | 1486170233.41687 | pgbench_history  |        398663680
 2017-02-04 02:03:53.416875+01 | 1486170233.41687 | pgbench_branches |         12509184

 2017-02-04 02:03:54.497155+01 | 1486170234.49715 | pgbench_accounts |      13912825856
 2017-02-04 02:03:54.497155+01 | 1486170234.49715 | pgbench_tellers  |         27975680
 2017-02-04 02:03:54.497155+01 | 1486170234.49715 | pgbench_history  |        399204352
 2017-02-04 02:03:54.497155+01 | 1486170234.49715 | pgbench_branches |         12509184

 2017-02-04 02:03:55.573903+01 | 1486170235.5739 | pgbench_accounts |      13912825856
 2017-02-04 02:03:55.573903+01 | 1486170235.5739 | pgbench_tellers  |         27975680
 2017-02-04 02:03:55.573903+01 | 1486170235.5739 | pgbench_history  |        401358848
 2017-02-04 02:03:55.573903+01 | 1486170235.5739 | pgbench_branches |         12509184

 2017-02-04 02:03:56.639635+01 | 1486170236.63964 | pgbench_accounts |      13912825856
 2017-02-04 02:03:56.639635+01 | 1486170236.63964 | pgbench_tellers  |         27975680
 2017-02-04 02:03:56.639635+01 | 1486170236.63964 | pgbench_history  |        401555456
 2017-02-04 02:03:56.639635+01 | 1486170236.63964 | pgbench_branches |         12509184

 2017-02-04 02:03:57.714691+01 | 1486170237.71469 | pgbench_accounts |      13912825856
 2017-02-04 02:03:57.714691+01 | 1486170237.71469 | pgbench_tellers  |         27975680
 2017-02-04 02:03:57.714691+01 | 1486170237.71469 | pgbench_history  |        403087360
 2017-02-04 02:03:57.714691+01 | 1486170237.71469 | pgbench_branches |         12509184

 2017-02-04 02:03:58.793527+01 | 1486170238.79353 | pgbench_accounts |      13912825856
 2017-02-04 02:03:58.793527+01 | 1486170238.79353 | pgbench_tellers  |         27975680
 2017-02-04 02:03:58.793527+01 | 1486170238.79353 | pgbench_history  |        404963328
 2017-02-04 02:03:58.793527+01 | 1486170238.79353 | pgbench_branches |         13025280

 2017-02-04 02:03:59.87347+01 | 1486170239.87347 | pgbench_accounts |      13912825856
 2017-02-04 02:03:59.87347+01 | 1486170239.87347 | pgbench_tellers  |         27975680
 2017-02-04 02:03:59.87347+01 | 1486170239.87347 | pgbench_history  |        406331392
 2017-02-04 02:03:59.87347+01 | 1486170239.87347 | pgbench_branches |         13025280

 2017-02-04 02:04:00.963417+01 | 1486170240.96342 | pgbench_accounts |      13912825856
 2017-02-04 02:04:00.963417+01 | 1486170240.96342 | pgbench_tellers  |         27975680
 2017-02-04 02:04:00.963417+01 | 1486170240.96342 | pgbench_history  |        407584768
 2017-02-04 02:04:00.963417+01 | 1486170240.96342 | pgbench_branches |         13025280

 2017-02-04 02:04:02.048505+01 | 1486170242.04851 | pgbench_accounts |      13912825856
 2017-02-04 02:04:02.048505+01 | 1486170242.04851 | pgbench_tellers  |         27975680
 2017-02-04 02:04:02.048505+01 | 1486170242.04851 | pgbench_history  |        409600000
 2017-02-04 02:04:02.048505+01 | 1486170242.04851 | pgbench_branches |         13025280

 2017-02-04 02:04:03.127357+01 | 1486170243.12736 | pgbench_accounts |      13912825856
 2017-02-04 02:04:03.127357+01 | 1486170243.12736 | pgbench_tellers  |         27975680
 2017-02-04 02:04:03.127357+01 | 1486170243.12736 | pgbench_history  |        411369472
 2017-02-04 02:04:03.127357+01 | 1486170243.12736 | pgbench_branches |         13025280

 2017-02-04 02:04:04.211722+01 | 1486170244.21172 | pgbench_accounts |      13912825856
 2017-02-04 02:04:04.211722+01 | 1486170244.21172 | pgbench_tellers  |         27975680
 2017-02-04 02:04:04.211722+01 | 1486170244.21172 | pgbench_history  |        413270016
 2017-02-04 02:04:04.211722+01 | 1486170244.21172 | pgbench_branches |         13025280

 2017-02-04 02:04:05.294222+01 | 1486170245.29422 | pgbench_accounts |      13912825856
 2017-02-04 02:04:05.294222+01 | 1486170245.29422 | pgbench_tellers  |         27975680
 2017-02-04 02:04:05.294222+01 | 1486170245.29422 | pgbench_history  |        415129600
 2017-02-04 02:04:05.294222+01 | 1486170245.29422 | pgbench_branches |         13025280

 2017-02-04 02:04:06.373211+01 | 1486170246.37321 | pgbench_accounts |      13912825856
 2017-02-04 02:04:06.373211+01 | 1486170246.37321 | pgbench_tellers  |         27975680
 2017-02-04 02:04:06.373211+01 | 1486170246.37321 | pgbench_history  |        416563200
 2017-02-04 02:04:06.373211+01 | 1486170246.37321 | pgbench_branches |         13025280

 2017-02-04 02:04:07.454934+01 | 1486170247.45493 | pgbench_accounts |      13912825856
 2017-02-04 02:04:07.454934+01 | 1486170247.45493 | pgbench_tellers  |         27975680
 2017-02-04 02:04:07.454934+01 | 1486170247.45493 | pgbench_history  |        418390016
 2017-02-04 02:04:07.454934+01 | 1486170247.45493 | pgbench_branches |         13025280

 2017-02-04 02:04:08.538307+01 | 1486170248.53831 | pgbench_accounts |      13912825856
 2017-02-04 02:04:08.538307+01 | 1486170248.53831 | pgbench_tellers  |         27975680
 2017-02-04 02:04:08.538307+01 | 1486170248.53831 | pgbench_history  |        420265984
 2017-02-04 02:04:08.538307+01 | 1486170248.53831 | pgbench_branches |         13025280

 2017-02-04 02:04:09.61981+01 | 1486170249.61981 | pgbench_accounts |      13912825856
 2017-02-04 02:04:09.61981+01 | 1486170249.61981 | pgbench_tellers  |         27975680
 2017-02-04 02:04:09.61981+01 | 1486170249.61981 | pgbench_history  |        422305792
 2017-02-04 02:04:09.61981+01 | 1486170249.61981 | pgbench_branches |         13025280

 2017-02-04 02:04:10.703292+01 | 1486170250.70329 | pgbench_accounts |      13912825856
 2017-02-04 02:04:10.703292+01 | 1486170250.70329 | pgbench_tellers  |         27975680
 2017-02-04 02:04:10.703292+01 | 1486170250.70329 | pgbench_history  |        423690240
 2017-02-04 02:04:10.703292+01 | 1486170250.70329 | pgbench_branches |         13025280

 2017-02-04 02:04:11.787972+01 | 1486170251.78797 | pgbench_accounts |      13912825856
 2017-02-04 02:04:11.787972+01 | 1486170251.78797 | pgbench_tellers  |         27975680
 2017-02-04 02:04:11.787972+01 | 1486170251.78797 | pgbench_history  |        425443328
 2017-02-04 02:04:11.787972+01 | 1486170251.78797 | pgbench_branches |         13025280

 2017-02-04 02:04:12.87462+01 | 1486170252.87462 | pgbench_accounts |      13912825856
 2017-02-04 02:04:12.87462+01 | 1486170252.87462 | pgbench_tellers  |         27975680
 2017-02-04 02:04:12.87462+01 | 1486170252.87462 | pgbench_history  |        427515904
 2017-02-04 02:04:12.87462+01 | 1486170252.87462 | pgbench_branches |         13025280

 2017-02-04 02:04:13.959252+01 | 1486170253.95925 | pgbench_accounts |      13912825856
 2017-02-04 02:04:13.959252+01 | 1486170253.95925 | pgbench_tellers  |         27975680
 2017-02-04 02:04:13.959252+01 | 1486170253.95925 | pgbench_history  |        429834240
 2017-02-04 02:04:13.959252+01 | 1486170253.95925 | pgbench_branches |         13025280

 2017-02-04 02:04:15.046181+01 | 1486170255.04618 | pgbench_accounts |      13912825856
 2017-02-04 02:04:15.046181+01 | 1486170255.04618 | pgbench_tellers  |         27975680
 2017-02-04 02:04:15.046181+01 | 1486170255.04618 | pgbench_history  |        430735360
 2017-02-04 02:04:15.046181+01 | 1486170255.04618 | pgbench_branches |         13025280

 2017-02-04 02:04:16.132736+01 | 1486170256.13274 | pgbench_accounts |      13912825856
 2017-02-04 02:04:16.132736+01 | 1486170256.13274 | pgbench_tellers  |         27975680
 2017-02-04 02:04:16.132736+01 | 1486170256.13274 | pgbench_history  |        432472064
 2017-02-04 02:04:16.132736+01 | 1486170256.13274 | pgbench_branches |         13025280

 2017-02-04 02:04:17.206227+01 | 1486170257.20623 | pgbench_accounts |      13912825856
 2017-02-04 02:04:17.206227+01 | 1486170257.20623 | pgbench_tellers  |         27975680
 2017-02-04 02:04:17.206227+01 | 1486170257.20623 | pgbench_history  |        436125696
 2017-02-04 02:04:17.206227+01 | 1486170257.20623 | pgbench_branches |         13025280

 2017-02-04 02:04:18.288396+01 | 1486170258.2884 | pgbench_accounts |      13912825856
 2017-02-04 02:04:18.288396+01 | 1486170258.2884 | pgbench_tellers  |         27975680
 2017-02-04 02:04:18.288396+01 | 1486170258.2884 | pgbench_history  |        436125696
 2017-02-04 02:04:18.288396+01 | 1486170258.2884 | pgbench_branches |         13025280

 2017-02-04 02:04:19.36047+01 | 1486170259.36047 | pgbench_accounts |      13912825856
 2017-02-04 02:04:19.36047+01 | 1486170259.36047 | pgbench_tellers  |         27975680
 2017-02-04 02:04:19.36047+01 | 1486170259.36047 | pgbench_history  |        438337536
 2017-02-04 02:04:19.36047+01 | 1486170259.36047 | pgbench_branches |         13025280

 2017-02-04 02:04:20.45865+01 | 1486170260.45865 | pgbench_accounts |      13912825856
 2017-02-04 02:04:20.45865+01 | 1486170260.45865 | pgbench_tellers  |         27975680
 2017-02-04 02:04:20.45865+01 | 1486170260.45865 | pgbench_history  |        438697984
 2017-02-04 02:04:20.45865+01 | 1486170260.45865 | pgbench_branches |         13025280

 2017-02-04 02:04:21.543252+01 | 1486170261.54325 | pgbench_accounts |      13912825856
 2017-02-04 02:04:21.543252+01 | 1486170261.54325 | pgbench_tellers  |         27975680
 2017-02-04 02:04:21.543252+01 | 1486170261.54325 | pgbench_history  |        440279040
 2017-02-04 02:04:21.543252+01 | 1486170261.54325 | pgbench_branches |         13025280

 2017-02-04 02:04:22.622178+01 | 1486170262.62218 | pgbench_accounts |      13912825856
 2017-02-04 02:04:22.622178+01 | 1486170262.62218 | pgbench_tellers  |         27975680
 2017-02-04 02:04:22.622178+01 | 1486170262.62218 | pgbench_history  |        441671680
 2017-02-04 02:04:22.622178+01 | 1486170262.62218 | pgbench_branches |         13025280

 2017-02-04 02:04:23.699495+01 | 1486170263.6995 | pgbench_accounts |      13912825856
 2017-02-04 02:04:23.699495+01 | 1486170263.6995 | pgbench_tellers  |         27975680
 2017-02-04 02:04:23.699495+01 | 1486170263.6995 | pgbench_history  |        443523072
 2017-02-04 02:04:23.699495+01 | 1486170263.6995 | pgbench_branches |         13025280

 2017-02-04 02:04:24.782381+01 | 1486170264.78238 | pgbench_accounts |      13912825856
 2017-02-04 02:04:24.782381+01 | 1486170264.78238 | pgbench_tellers  |         27975680
 2017-02-04 02:04:24.782381+01 | 1486170264.78238 | pgbench_history  |        445349888
 2017-02-04 02:04:24.782381+01 | 1486170264.78238 | pgbench_branches |         13025280

 2017-02-04 02:04:25.863334+01 | 1486170265.86333 | pgbench_accounts |      13912825856
 2017-02-04 02:04:25.863334+01 | 1486170265.86333 | pgbench_tellers  |         27975680
 2017-02-04 02:04:25.863334+01 | 1486170265.86333 | pgbench_history  |        445702144
 2017-02-04 02:04:25.863334+01 | 1486170265.86333 | pgbench_branches |         13025280

 2017-02-04 02:04:26.949263+01 | 1486170266.94926 | pgbench_accounts |      13912825856
 2017-02-04 02:04:26.949263+01 | 1486170266.94926 | pgbench_tellers  |         27975680
 2017-02-04 02:04:26.949263+01 | 1486170266.94926 | pgbench_history  |        448888832
 2017-02-04 02:04:26.949263+01 | 1486170266.94926 | pgbench_branches |         13025280

 2017-02-04 02:04:28.040293+01 | 1486170268.04029 | pgbench_accounts |      13912825856
 2017-02-04 02:04:28.040293+01 | 1486170268.04029 | pgbench_tellers  |         27975680
 2017-02-04 02:04:28.040293+01 | 1486170268.04029 | pgbench_history  |        449732608
 2017-02-04 02:04:28.040293+01 | 1486170268.04029 | pgbench_branches |         13025280

 2017-02-04 02:04:29.116639+01 | 1486170269.11664 | pgbench_accounts |      13912825856
 2017-02-04 02:04:29.116639+01 | 1486170269.11664 | pgbench_tellers  |         27975680
 2017-02-04 02:04:29.116639+01 | 1486170269.11664 | pgbench_history  |        451289088
 2017-02-04 02:04:29.116639+01 | 1486170269.11664 | pgbench_branches |         13025280

 2017-02-04 02:04:30.194942+01 | 1486170270.19494 | pgbench_accounts |      13912825856
 2017-02-04 02:04:30.194942+01 | 1486170270.19494 | pgbench_tellers  |         27975680
 2017-02-04 02:04:30.194942+01 | 1486170270.19494 | pgbench_history  |        453165056
 2017-02-04 02:04:30.194942+01 | 1486170270.19494 | pgbench_branches |         13025280

 2017-02-04 02:04:31.274331+01 | 1486170271.27433 | pgbench_accounts |      13912825856
 2017-02-04 02:04:31.274331+01 | 1486170271.27433 | pgbench_tellers  |         27975680
 2017-02-04 02:04:31.274331+01 | 1486170271.27433 | pgbench_history  |        454361088
 2017-02-04 02:04:31.274331+01 | 1486170271.27433 | pgbench_branches |         13025280

 2017-02-04 02:04:32.353205+01 | 1486170272.3532 | pgbench_accounts |      13912825856
 2017-02-04 02:04:32.353205+01 | 1486170272.3532 | pgbench_tellers  |         27975680
 2017-02-04 02:04:32.353205+01 | 1486170272.3532 | pgbench_history  |        457220096
 2017-02-04 02:04:32.353205+01 | 1486170272.3532 | pgbench_branches |         13025280

 2017-02-04 02:04:33.434492+01 | 1486170273.43449 | pgbench_accounts |      13912825856
 2017-02-04 02:04:33.434492+01 | 1486170273.43449 | pgbench_tellers  |         27975680
 2017-02-04 02:04:33.434492+01 | 1486170273.43449 | pgbench_history  |        457736192
 2017-02-04 02:04:33.434492+01 | 1486170273.43449 | pgbench_branches |         13025280

 2017-02-04 02:04:34.527263+01 | 1486170274.52726 | pgbench_accounts |      13912825856
 2017-02-04 02:04:34.527263+01 | 1486170274.52726 | pgbench_tellers  |         27975680
 2017-02-04 02:04:34.527263+01 | 1486170274.52726 | pgbench_history  |        459505664
 2017-02-04 02:04:34.527263+01 | 1486170274.52726 | pgbench_branches |         13025280

 2017-02-04 02:04:35.599624+01 | 1486170275.59962 | pgbench_accounts |      13912825856
 2017-02-04 02:04:35.599624+01 | 1486170275.59962 | pgbench_tellers  |         27975680
 2017-02-04 02:04:35.599624+01 | 1486170275.59962 | pgbench_history  |        461406208
 2017-02-04 02:04:35.599624+01 | 1486170275.59962 | pgbench_branches |         13025280

 2017-02-04 02:04:36.676168+01 | 1486170276.67617 | pgbench_accounts |      13912825856
 2017-02-04 02:04:36.676168+01 | 1486170276.67617 | pgbench_tellers  |         27975680
 2017-02-04 02:04:36.676168+01 | 1486170276.67617 | pgbench_history  |        463446016
 2017-02-04 02:04:36.676168+01 | 1486170276.67617 | pgbench_branches |         13025280

 2017-02-04 02:04:37.76341+01 | 1486170277.76341 | pgbench_accounts |      13912825856
 2017-02-04 02:04:37.76341+01 | 1486170277.76341 | pgbench_tellers  |         27975680
 2017-02-04 02:04:37.76341+01 | 1486170277.76341 | pgbench_history  |        464642048
 2017-02-04 02:04:37.76341+01 | 1486170277.76341 | pgbench_branches |         13025280

 2017-02-04 02:04:38.830718+01 | 1486170278.83072 | pgbench_accounts |      13912825856
 2017-02-04 02:04:38.830718+01 | 1486170278.83072 | pgbench_tellers  |         27975680
 2017-02-04 02:04:38.830718+01 | 1486170278.83072 | pgbench_history  |        466665472
 2017-02-04 02:04:38.830718+01 | 1486170278.83072 | pgbench_branches |         13025280

 2017-02-04 02:04:39.914054+01 | 1486170279.91405 | pgbench_accounts |      13912825856
 2017-02-04 02:04:39.914054+01 | 1486170279.91405 | pgbench_tellers  |         27975680
 2017-02-04 02:04:39.914054+01 | 1486170279.91405 | pgbench_history  |        468189184
 2017-02-04 02:04:39.914054+01 | 1486170279.91405 | pgbench_branches |         13025280

