 2017-02-04 13:51:16.379729+01 | 1486212676.37973 | pgbench_accounts |       1380958208
 2017-02-04 13:51:16.379729+01 | 1486212676.37973 | pgbench_tellers  |          3842048
 2017-02-04 13:51:16.379729+01 | 1486212676.37973 | pgbench_history  |                0
 2017-02-04 13:51:16.379729+01 | 1486212676.37973 | pgbench_branches |           942080

 2017-02-04 13:51:17.47559+01 | 1486212677.47559 | pgbench_accounts |       1380958208
 2017-02-04 13:51:17.47559+01 | 1486212677.47559 | pgbench_tellers  |          3842048
 2017-02-04 13:51:17.47559+01 | 1486212677.47559 | pgbench_history  |          1687552
 2017-02-04 13:51:17.47559+01 | 1486212677.47559 | pgbench_branches |           942080

 2017-02-04 13:51:18.560546+01 | 1486212678.56055 | pgbench_accounts |       1380958208
 2017-02-04 13:51:18.560546+01 | 1486212678.56055 | pgbench_tellers  |          3842048
 2017-02-04 13:51:18.560546+01 | 1486212678.56055 | pgbench_history  |          4096000
 2017-02-04 13:51:18.560546+01 | 1486212678.56055 | pgbench_branches |           942080

 2017-02-04 13:51:19.657411+01 | 1486212679.65741 | pgbench_accounts |       1380958208
 2017-02-04 13:51:19.657411+01 | 1486212679.65741 | pgbench_tellers  |          3842048
 2017-02-04 13:51:19.657411+01 | 1486212679.65741 | pgbench_history  |          5595136
 2017-02-04 13:51:19.657411+01 | 1486212679.65741 | pgbench_branches |           942080

 2017-02-04 13:51:20.745662+01 | 1486212680.74566 | pgbench_accounts |       1380958208
 2017-02-04 13:51:20.745662+01 | 1486212680.74566 | pgbench_tellers  |          3842048
 2017-02-04 13:51:20.745662+01 | 1486212680.74566 | pgbench_history  |          6602752
 2017-02-04 13:51:20.745662+01 | 1486212680.74566 | pgbench_branches |           942080

 2017-02-04 13:51:21.826465+01 | 1486212681.82646 | pgbench_accounts |       1380958208
 2017-02-04 13:51:21.826465+01 | 1486212681.82646 | pgbench_tellers  |          3842048
 2017-02-04 13:51:21.826465+01 | 1486212681.82646 | pgbench_history  |          9003008
 2017-02-04 13:51:21.826465+01 | 1486212681.82646 | pgbench_branches |           942080

 2017-02-04 13:51:22.914908+01 | 1486212682.91491 | pgbench_accounts |       1380958208
 2017-02-04 13:51:22.914908+01 | 1486212682.91491 | pgbench_tellers  |          3842048
 2017-02-04 13:51:22.914908+01 | 1486212682.91491 | pgbench_history  |         10903552
 2017-02-04 13:51:22.914908+01 | 1486212682.91491 | pgbench_branches |           942080

 2017-02-04 13:51:23.99831+01 | 1486212683.99831 | pgbench_accounts |       1380958208
 2017-02-04 13:51:23.99831+01 | 1486212683.99831 | pgbench_tellers  |          3842048
 2017-02-04 13:51:23.99831+01 | 1486212683.99831 | pgbench_history  |         13623296
 2017-02-04 13:51:23.99831+01 | 1486212683.99831 | pgbench_branches |           942080

 2017-02-04 13:51:25.08654+01 | 1486212685.08654 | pgbench_accounts |       1380958208
 2017-02-04 13:51:25.08654+01 | 1486212685.08654 | pgbench_tellers  |          3842048
 2017-02-04 13:51:25.08654+01 | 1486212685.08654 | pgbench_history  |         15474688
 2017-02-04 13:51:25.08654+01 | 1486212685.08654 | pgbench_branches |           942080

 2017-02-04 13:51:26.164337+01 | 1486212686.16434 | pgbench_accounts |       1380958208
 2017-02-04 13:51:26.164337+01 | 1486212686.16434 | pgbench_tellers  |          3842048
 2017-02-04 13:51:26.164337+01 | 1486212686.16434 | pgbench_history  |         17678336
 2017-02-04 13:51:26.164337+01 | 1486212686.16434 | pgbench_branches |           942080

 2017-02-04 13:51:27.240785+01 | 1486212687.24078 | pgbench_accounts |       1380958208
 2017-02-04 13:51:27.240785+01 | 1486212687.24078 | pgbench_tellers  |          3842048
 2017-02-04 13:51:27.240785+01 | 1486212687.24078 | pgbench_history  |         20586496
 2017-02-04 13:51:27.240785+01 | 1486212687.24078 | pgbench_branches |           942080

 2017-02-04 13:51:28.310393+01 | 1486212688.31039 | pgbench_accounts |       1380958208
 2017-02-04 13:51:28.310393+01 | 1486212688.31039 | pgbench_tellers  |          3842048
 2017-02-04 13:51:28.310393+01 | 1486212688.31039 | pgbench_history  |         22331392
 2017-02-04 13:51:28.310393+01 | 1486212688.31039 | pgbench_branches |           942080

 2017-02-04 13:51:29.385465+01 | 1486212689.38546 | pgbench_accounts |       1380958208
 2017-02-04 13:51:29.385465+01 | 1486212689.38546 | pgbench_tellers  |          3842048
 2017-02-04 13:51:29.385465+01 | 1486212689.38546 | pgbench_history  |         25518080
 2017-02-04 13:51:29.385465+01 | 1486212689.38546 | pgbench_branches |           942080

 2017-02-04 13:51:30.463189+01 | 1486212690.46319 | pgbench_accounts |       1380958208
 2017-02-04 13:51:30.463189+01 | 1486212690.46319 | pgbench_tellers  |          3842048
 2017-02-04 13:51:30.463189+01 | 1486212690.46319 | pgbench_history  |         26714112
 2017-02-04 13:51:30.463189+01 | 1486212690.46319 | pgbench_branches |           942080

 2017-02-04 13:51:31.554287+01 | 1486212691.55429 | pgbench_accounts |       1380958208
 2017-02-04 13:51:31.554287+01 | 1486212691.55429 | pgbench_tellers  |          3842048
 2017-02-04 13:51:31.554287+01 | 1486212691.55429 | pgbench_history  |         29761536
 2017-02-04 13:51:31.554287+01 | 1486212691.55429 | pgbench_branches |           942080

 2017-02-04 13:51:32.63771+01 | 1486212692.63771 | pgbench_accounts |       1380958208
 2017-02-04 13:51:32.63771+01 | 1486212692.63771 | pgbench_tellers  |          3842048
 2017-02-04 13:51:32.63771+01 | 1486212692.63771 | pgbench_history  |         32292864
 2017-02-04 13:51:32.63771+01 | 1486212692.63771 | pgbench_branches |           942080

 2017-02-04 13:51:33.717605+01 | 1486212693.71761 | pgbench_accounts |       1380958208
 2017-02-04 13:51:33.717605+01 | 1486212693.71761 | pgbench_tellers  |          3842048
 2017-02-04 13:51:33.717605+01 | 1486212693.71761 | pgbench_history  |         34775040
 2017-02-04 13:51:33.717605+01 | 1486212693.71761 | pgbench_branches |           942080

 2017-02-04 13:51:34.798219+01 | 1486212694.79822 | pgbench_accounts |       1380958208
 2017-02-04 13:51:34.798219+01 | 1486212694.79822 | pgbench_tellers  |          3842048
 2017-02-04 13:51:34.798219+01 | 1486212694.79822 | pgbench_history  |         36298752
 2017-02-04 13:51:34.798219+01 | 1486212694.79822 | pgbench_branches |           942080

 2017-02-04 13:51:35.890287+01 | 1486212695.89029 | pgbench_accounts |       1380958208
 2017-02-04 13:51:35.890287+01 | 1486212695.89029 | pgbench_tellers  |          3842048
 2017-02-04 13:51:35.890287+01 | 1486212695.89029 | pgbench_history  |         39010304
 2017-02-04 13:51:35.890287+01 | 1486212695.89029 | pgbench_branches |           942080

 2017-02-04 13:51:36.977767+01 | 1486212696.97777 | pgbench_accounts |       1380958208
 2017-02-04 13:51:36.977767+01 | 1486212696.97777 | pgbench_tellers  |          3842048
 2017-02-04 13:51:36.977767+01 | 1486212696.97777 | pgbench_history  |         41353216
 2017-02-04 13:51:36.977767+01 | 1486212696.97777 | pgbench_branches |           942080

 2017-02-04 13:51:38.055979+01 | 1486212698.05598 | pgbench_accounts |       1380958208
 2017-02-04 13:51:38.055979+01 | 1486212698.05598 | pgbench_tellers  |          3842048
 2017-02-04 13:51:38.055979+01 | 1486212698.05598 | pgbench_history  |         43720704
 2017-02-04 13:51:38.055979+01 | 1486212698.05598 | pgbench_branches |           942080

 2017-02-04 13:51:39.142526+01 | 1486212699.14253 | pgbench_accounts |       1380958208
 2017-02-04 13:51:39.142526+01 | 1486212699.14253 | pgbench_tellers  |          3842048
 2017-02-04 13:51:39.142526+01 | 1486212699.14253 | pgbench_history  |         45580288
 2017-02-04 13:51:39.142526+01 | 1486212699.14253 | pgbench_branches |           942080

 2017-02-04 13:51:40.228027+01 | 1486212700.22803 | pgbench_accounts |       1380958208
 2017-02-04 13:51:40.228027+01 | 1486212700.22803 | pgbench_tellers  |          3842048
 2017-02-04 13:51:40.228027+01 | 1486212700.22803 | pgbench_history  |         48816128
 2017-02-04 13:51:40.228027+01 | 1486212700.22803 | pgbench_branches |           942080

 2017-02-04 13:51:41.307491+01 | 1486212701.30749 | pgbench_accounts |       1380958208
 2017-02-04 13:51:41.307491+01 | 1486212701.30749 | pgbench_tellers  |          3842048
 2017-02-04 13:51:41.307491+01 | 1486212701.30749 | pgbench_history  |         50667520
 2017-02-04 13:51:41.307491+01 | 1486212701.30749 | pgbench_branches |           942080

 2017-02-04 13:51:42.390424+01 | 1486212702.39042 | pgbench_accounts |       1380958208
 2017-02-04 13:51:42.390424+01 | 1486212702.39042 | pgbench_tellers  |          3842048
 2017-02-04 13:51:42.390424+01 | 1486212702.39042 | pgbench_history  |         52396032
 2017-02-04 13:51:42.390424+01 | 1486212702.39042 | pgbench_branches |           942080

 2017-02-04 13:51:43.482698+01 | 1486212703.4827 | pgbench_accounts |       1380958208
 2017-02-04 13:51:43.482698+01 | 1486212703.4827 | pgbench_tellers  |          3842048
 2017-02-04 13:51:43.482698+01 | 1486212703.4827 | pgbench_history  |         54951936
 2017-02-04 13:51:43.482698+01 | 1486212703.4827 | pgbench_branches |           942080

 2017-02-04 13:51:44.562673+01 | 1486212704.56267 | pgbench_accounts |       1380958208
 2017-02-04 13:51:44.562673+01 | 1486212704.56267 | pgbench_tellers  |          3842048
 2017-02-04 13:51:44.562673+01 | 1486212704.56267 | pgbench_history  |         58163200
 2017-02-04 13:51:44.562673+01 | 1486212704.56267 | pgbench_branches |           942080

 2017-02-04 13:51:45.646402+01 | 1486212705.6464 | pgbench_accounts |       1380958208
 2017-02-04 13:51:45.646402+01 | 1486212705.6464 | pgbench_tellers  |          3842048
 2017-02-04 13:51:45.646402+01 | 1486212705.6464 | pgbench_history  |         59498496
 2017-02-04 13:51:45.646402+01 | 1486212705.6464 | pgbench_branches |           942080

 2017-02-04 13:51:46.725093+01 | 1486212706.72509 | pgbench_accounts |       1380958208
 2017-02-04 13:51:46.725093+01 | 1486212706.72509 | pgbench_tellers  |          3842048
 2017-02-04 13:51:46.725093+01 | 1486212706.72509 | pgbench_history  |         62087168
 2017-02-04 13:51:46.725093+01 | 1486212706.72509 | pgbench_branches |           942080

 2017-02-04 13:51:47.812595+01 | 1486212707.81259 | pgbench_accounts |       1380958208
 2017-02-04 13:51:47.812595+01 | 1486212707.81259 | pgbench_tellers  |          3842048
 2017-02-04 13:51:47.812595+01 | 1486212707.81259 | pgbench_history  |         63938560
 2017-02-04 13:51:47.812595+01 | 1486212707.81259 | pgbench_branches |           942080

 2017-02-04 13:51:48.90359+01 | 1486212708.90359 | pgbench_accounts |       1380958208
 2017-02-04 13:51:48.90359+01 | 1486212708.90359 | pgbench_tellers  |          3842048
 2017-02-04 13:51:48.90359+01 | 1486212708.90359 | pgbench_history  |         66822144
 2017-02-04 13:51:48.90359+01 | 1486212708.90359 | pgbench_branches |           942080

 2017-02-04 13:51:49.98875+01 | 1486212709.98875 | pgbench_accounts |       1380958208
 2017-02-04 13:51:49.98875+01 | 1486212709.98875 | pgbench_tellers  |          3842048
 2017-02-04 13:51:49.98875+01 | 1486212709.98875 | pgbench_history  |         69025792
 2017-02-04 13:51:49.98875+01 | 1486212709.98875 | pgbench_branches |           942080

 2017-02-04 13:51:51.075251+01 | 1486212711.07525 | pgbench_accounts |       1380958208
 2017-02-04 13:51:51.075251+01 | 1486212711.07525 | pgbench_tellers  |          3842048
 2017-02-04 13:51:51.075251+01 | 1486212711.07525 | pgbench_history  |         71434240
 2017-02-04 13:51:51.075251+01 | 1486212711.07525 | pgbench_branches |           942080

 2017-02-04 13:51:52.170286+01 | 1486212712.17029 | pgbench_accounts |       1380958208
 2017-02-04 13:51:52.170286+01 | 1486212712.17029 | pgbench_tellers  |          3842048
 2017-02-04 13:51:52.170286+01 | 1486212712.17029 | pgbench_history  |         74457088
 2017-02-04 13:51:52.170286+01 | 1486212712.17029 | pgbench_branches |           942080

 2017-02-04 13:51:53.254536+01 | 1486212713.25454 | pgbench_accounts |       1380958208
 2017-02-04 13:51:53.254536+01 | 1486212713.25454 | pgbench_tellers  |          3842048
 2017-02-04 13:51:53.254536+01 | 1486212713.25454 | pgbench_history  |         75325440
 2017-02-04 13:51:53.254536+01 | 1486212713.25454 | pgbench_branches |           942080

 2017-02-04 13:51:54.328777+01 | 1486212714.32878 | pgbench_accounts |       1380958208
 2017-02-04 13:51:54.328777+01 | 1486212714.32878 | pgbench_tellers  |          3842048
 2017-02-04 13:51:54.328777+01 | 1486212714.32878 | pgbench_history  |         78184448
 2017-02-04 13:51:54.328777+01 | 1486212714.32878 | pgbench_branches |           942080

 2017-02-04 13:51:55.410625+01 | 1486212715.41062 | pgbench_accounts |       1380958208
 2017-02-04 13:51:55.410625+01 | 1486212715.41062 | pgbench_tellers  |          3842048
 2017-02-04 13:51:55.410625+01 | 1486212715.41062 | pgbench_history  |         80224256
 2017-02-04 13:51:55.410625+01 | 1486212715.41062 | pgbench_branches |           942080

 2017-02-04 13:51:56.494917+01 | 1486212716.49492 | pgbench_accounts |       1380958208
 2017-02-04 13:51:56.494917+01 | 1486212716.49492 | pgbench_tellers  |          3842048
 2017-02-04 13:51:56.494917+01 | 1486212716.49492 | pgbench_history  |         82763776
 2017-02-04 13:51:56.494917+01 | 1486212716.49492 | pgbench_branches |          1785856

 2017-02-04 13:51:57.580979+01 | 1486212717.58098 | pgbench_accounts |       1380958208
 2017-02-04 13:51:57.580979+01 | 1486212717.58098 | pgbench_tellers  |          3842048
 2017-02-04 13:51:57.580979+01 | 1486212717.58098 | pgbench_history  |         85131264
 2017-02-04 13:51:57.580979+01 | 1486212717.58098 | pgbench_branches |          1785856

 2017-02-04 13:51:58.665076+01 | 1486212718.66508 | pgbench_accounts |       1380958208
 2017-02-04 13:51:58.665076+01 | 1486212718.66508 | pgbench_tellers  |          3842048
 2017-02-04 13:51:58.665076+01 | 1486212718.66508 | pgbench_history  |         86982656
 2017-02-04 13:51:58.665076+01 | 1486212718.66508 | pgbench_branches |          1785856

 2017-02-04 13:51:59.762752+01 | 1486212719.76275 | pgbench_accounts |       1380958208
 2017-02-04 13:51:59.762752+01 | 1486212719.76275 | pgbench_tellers  |          3842048
 2017-02-04 13:51:59.762752+01 | 1486212719.76275 | pgbench_history  |         89374720
 2017-02-04 13:51:59.762752+01 | 1486212719.76275 | pgbench_branches |          1785856

 2017-02-04 13:52:00.856607+01 | 1486212720.85661 | pgbench_accounts |       1380958208
 2017-02-04 13:52:00.856607+01 | 1486212720.85661 | pgbench_tellers  |          3842048
 2017-02-04 13:52:00.856607+01 | 1486212720.85661 | pgbench_history  |         92094464
 2017-02-04 13:52:00.856607+01 | 1486212720.85661 | pgbench_branches |          1785856

 2017-02-04 13:52:01.950382+01 | 1486212721.95038 | pgbench_accounts |       1380958208
 2017-02-04 13:52:01.950382+01 | 1486212721.95038 | pgbench_tellers  |          3842048
 2017-02-04 13:52:01.950382+01 | 1486212721.95038 | pgbench_history  |         93995008
 2017-02-04 13:52:01.950382+01 | 1486212721.95038 | pgbench_branches |          1785856

 2017-02-04 13:52:03.033233+01 | 1486212723.03323 | pgbench_accounts |       1380958208
 2017-02-04 13:52:03.033233+01 | 1486212723.03323 | pgbench_tellers  |          3842048
 2017-02-04 13:52:03.033233+01 | 1486212723.03323 | pgbench_history  |         96182272
 2017-02-04 13:52:03.033233+01 | 1486212723.03323 | pgbench_branches |          1785856

 2017-02-04 13:52:04.116733+01 | 1486212724.11673 | pgbench_accounts |       1380958208
 2017-02-04 13:52:04.116733+01 | 1486212724.11673 | pgbench_tellers  |          3842048
 2017-02-04 13:52:04.116733+01 | 1486212724.11673 | pgbench_history  |         98385920
 2017-02-04 13:52:04.116733+01 | 1486212724.11673 | pgbench_branches |          1785856

 2017-02-04 13:52:05.201718+01 | 1486212725.20172 | pgbench_accounts |       1380958208
 2017-02-04 13:52:05.201718+01 | 1486212725.20172 | pgbench_tellers  |          3842048
 2017-02-04 13:52:05.201718+01 | 1486212725.20172 | pgbench_history  |        101384192
 2017-02-04 13:52:05.201718+01 | 1486212725.20172 | pgbench_branches |          1785856

 2017-02-04 13:52:06.27972+01 | 1486212726.27972 | pgbench_accounts |       1380958208
 2017-02-04 13:52:06.27972+01 | 1486212726.27972 | pgbench_tellers  |          3842048
 2017-02-04 13:52:06.27972+01 | 1486212726.27972 | pgbench_history  |        103047168
 2017-02-04 13:52:06.27972+01 | 1486212726.27972 | pgbench_branches |          1785856

 2017-02-04 13:52:07.355743+01 | 1486212727.35574 | pgbench_accounts |       1380958208
 2017-02-04 13:52:07.355743+01 | 1486212727.35574 | pgbench_tellers  |          3842048
 2017-02-04 13:52:07.355743+01 | 1486212727.35574 | pgbench_history  |        106102784
 2017-02-04 13:52:07.355743+01 | 1486212727.35574 | pgbench_branches |          1785856

 2017-02-04 13:52:08.437499+01 | 1486212728.4375 | pgbench_accounts |       1380958208
 2017-02-04 13:52:08.437499+01 | 1486212728.4375 | pgbench_tellers  |          3842048
 2017-02-04 13:52:08.437499+01 | 1486212728.4375 | pgbench_history  |        107790336
 2017-02-04 13:52:08.437499+01 | 1486212728.4375 | pgbench_branches |          1785856

 2017-02-04 13:52:09.521869+01 | 1486212729.52187 | pgbench_accounts |       1380958208
 2017-02-04 13:52:09.521869+01 | 1486212729.52187 | pgbench_tellers  |          3842048
 2017-02-04 13:52:09.521869+01 | 1486212729.52187 | pgbench_history  |        111493120
 2017-02-04 13:52:09.521869+01 | 1486212729.52187 | pgbench_branches |          1785856

 2017-02-04 13:52:10.607589+01 | 1486212730.60759 | pgbench_accounts |       1380958208
 2017-02-04 13:52:10.607589+01 | 1486212730.60759 | pgbench_tellers  |          3842048
 2017-02-04 13:52:10.607589+01 | 1486212730.60759 | pgbench_history  |        112500736
 2017-02-04 13:52:10.607589+01 | 1486212730.60759 | pgbench_branches |          1785856

 2017-02-04 13:52:11.694605+01 | 1486212731.69461 | pgbench_accounts |       1380958208
 2017-02-04 13:52:11.694605+01 | 1486212731.69461 | pgbench_tellers  |          3842048
 2017-02-04 13:52:11.694605+01 | 1486212731.69461 | pgbench_history  |        114728960
 2017-02-04 13:52:11.694605+01 | 1486212731.69461 | pgbench_branches |          1785856

 2017-02-04 13:52:12.777691+01 | 1486212732.77769 | pgbench_accounts |       1380958208
 2017-02-04 13:52:12.777691+01 | 1486212732.77769 | pgbench_tellers  |          3842048
 2017-02-04 13:52:12.777691+01 | 1486212732.77769 | pgbench_history  |        117596160
 2017-02-04 13:52:12.777691+01 | 1486212732.77769 | pgbench_branches |          1785856

 2017-02-04 13:52:13.856642+01 | 1486212733.85664 | pgbench_accounts |       1380958208
 2017-02-04 13:52:13.856642+01 | 1486212733.85664 | pgbench_tellers  |          3842048
 2017-02-04 13:52:13.856642+01 | 1486212733.85664 | pgbench_history  |        119939072
 2017-02-04 13:52:13.856642+01 | 1486212733.85664 | pgbench_branches |          1785856

 2017-02-04 13:52:14.945314+01 | 1486212734.94531 | pgbench_accounts |       1380958208
 2017-02-04 13:52:14.945314+01 | 1486212734.94531 | pgbench_tellers  |          3842048
 2017-02-04 13:52:14.945314+01 | 1486212734.94531 | pgbench_history  |        121708544
 2017-02-04 13:52:14.945314+01 | 1486212734.94531 | pgbench_branches |          1785856

 2017-02-04 13:52:16.031219+01 | 1486212736.03122 | pgbench_accounts |       1380958208
 2017-02-04 13:52:16.031219+01 | 1486212736.03122 | pgbench_tellers  |          3842048
 2017-02-04 13:52:16.031219+01 | 1486212736.03122 | pgbench_history  |        123912192
 2017-02-04 13:52:16.031219+01 | 1486212736.03122 | pgbench_branches |          1785856

 2017-02-04 13:52:17.117482+01 | 1486212737.11748 | pgbench_accounts |       1380958208
 2017-02-04 13:52:17.117482+01 | 1486212737.11748 | pgbench_tellers  |          3842048
 2017-02-04 13:52:17.117482+01 | 1486212737.11748 | pgbench_history  |        127401984
 2017-02-04 13:52:17.117482+01 | 1486212737.11748 | pgbench_branches |          1785856

 2017-02-04 13:52:18.201003+01 | 1486212738.201 | pgbench_accounts |       1380958208
 2017-02-04 13:52:18.201003+01 | 1486212738.201 | pgbench_tellers  |          3842048
 2017-02-04 13:52:18.201003+01 | 1486212738.201 | pgbench_history  |        129146880
 2017-02-04 13:52:18.201003+01 | 1486212738.201 | pgbench_branches |          1785856

 2017-02-04 13:52:19.282731+01 | 1486212739.28273 | pgbench_accounts |       1380958208
 2017-02-04 13:52:19.282731+01 | 1486212739.28273 | pgbench_tellers  |          3842048
 2017-02-04 13:52:19.282731+01 | 1486212739.28273 | pgbench_history  |        131137536
 2017-02-04 13:52:19.282731+01 | 1486212739.28273 | pgbench_branches |          1785856

 2017-02-04 13:52:20.356188+01 | 1486212740.35619 | pgbench_accounts |       1380958208
 2017-02-04 13:52:20.356188+01 | 1486212740.35619 | pgbench_tellers  |          3842048
 2017-02-04 13:52:20.356188+01 | 1486212740.35619 | pgbench_history  |        135356416
 2017-02-04 13:52:20.356188+01 | 1486212740.35619 | pgbench_branches |          1785856

 2017-02-04 13:52:21.437078+01 | 1486212741.43708 | pgbench_accounts |       1380958208
 2017-02-04 13:52:21.437078+01 | 1486212741.43708 | pgbench_tellers  |          3842048
 2017-02-04 13:52:21.437078+01 | 1486212741.43708 | pgbench_history  |        135356416
 2017-02-04 13:52:21.437078+01 | 1486212741.43708 | pgbench_branches |          1785856

 2017-02-04 13:52:22.51465+01 | 1486212742.51465 | pgbench_accounts |       1380958208
 2017-02-04 13:52:22.51465+01 | 1486212742.51465 | pgbench_tellers  |          3842048
 2017-02-04 13:52:22.51465+01 | 1486212742.51465 | pgbench_history  |        138919936
 2017-02-04 13:52:22.51465+01 | 1486212742.51465 | pgbench_branches |          1785856

 2017-02-04 13:52:23.601929+01 | 1486212743.60193 | pgbench_accounts |       1380958208
 2017-02-04 13:52:23.601929+01 | 1486212743.60193 | pgbench_tellers  |          3842048
 2017-02-04 13:52:23.601929+01 | 1486212743.60193 | pgbench_history  |        139763712
 2017-02-04 13:52:23.601929+01 | 1486212743.60193 | pgbench_branches |          1785856

 2017-02-04 13:52:24.684768+01 | 1486212744.68477 | pgbench_accounts |       1380958208
 2017-02-04 13:52:24.684768+01 | 1486212744.68477 | pgbench_tellers  |          3842048
 2017-02-04 13:52:24.684768+01 | 1486212744.68477 | pgbench_history  |        145178624
 2017-02-04 13:52:24.684768+01 | 1486212744.68477 | pgbench_branches |          1785856

 2017-02-04 13:52:25.773477+01 | 1486212745.77348 | pgbench_accounts |       1380958208
 2017-02-04 13:52:25.773477+01 | 1486212745.77348 | pgbench_tellers  |          3842048
 2017-02-04 13:52:25.773477+01 | 1486212745.77348 | pgbench_history  |        145178624
 2017-02-04 13:52:25.773477+01 | 1486212745.77348 | pgbench_branches |          1785856

 2017-02-04 13:52:26.859216+01 | 1486212746.85922 | pgbench_accounts |       1380958208
 2017-02-04 13:52:26.859216+01 | 1486212746.85922 | pgbench_tellers  |          3842048
 2017-02-04 13:52:26.859216+01 | 1486212746.85922 | pgbench_history  |        148013056
 2017-02-04 13:52:26.859216+01 | 1486212746.85922 | pgbench_branches |          1785856

 2017-02-04 13:52:27.940907+01 | 1486212747.94091 | pgbench_accounts |       1380958208
 2017-02-04 13:52:27.940907+01 | 1486212747.94091 | pgbench_tellers  |          3842048
 2017-02-04 13:52:27.940907+01 | 1486212747.94091 | pgbench_history  |        150847488
 2017-02-04 13:52:27.940907+01 | 1486212747.94091 | pgbench_branches |          1785856

 2017-02-04 13:52:29.027773+01 | 1486212749.02777 | pgbench_accounts |       1380958208
 2017-02-04 13:52:29.027773+01 | 1486212749.02777 | pgbench_tellers  |          3842048
 2017-02-04 13:52:29.027773+01 | 1486212749.02777 | pgbench_history  |        151691264
 2017-02-04 13:52:29.027773+01 | 1486212749.02777 | pgbench_branches |          1785856

 2017-02-04 13:52:30.114054+01 | 1486212750.11405 | pgbench_accounts |       1380958208
 2017-02-04 13:52:30.114054+01 | 1486212750.11405 | pgbench_tellers  |          3842048
 2017-02-04 13:52:30.114054+01 | 1486212750.11405 | pgbench_history  |        154927104
 2017-02-04 13:52:30.114054+01 | 1486212750.11405 | pgbench_branches |          1785856

 2017-02-04 13:52:31.201929+01 | 1486212751.20193 | pgbench_accounts |       1380958208
 2017-02-04 13:52:31.201929+01 | 1486212751.20193 | pgbench_tellers  |          3842048
 2017-02-04 13:52:31.201929+01 | 1486212751.20193 | pgbench_history  |        157106176
 2017-02-04 13:52:31.201929+01 | 1486212751.20193 | pgbench_branches |          1785856

 2017-02-04 13:52:32.283669+01 | 1486212752.28367 | pgbench_accounts |       1380958208
 2017-02-04 13:52:32.283669+01 | 1486212752.28367 | pgbench_tellers  |          3842048
 2017-02-04 13:52:32.283669+01 | 1486212752.28367 | pgbench_history  |        159449088
 2017-02-04 13:52:32.283669+01 | 1486212752.28367 | pgbench_branches |          1785856

 2017-02-04 13:52:33.360677+01 | 1486212753.36068 | pgbench_accounts |       1380958208
 2017-02-04 13:52:33.360677+01 | 1486212753.36068 | pgbench_tellers  |          3842048
 2017-02-04 13:52:33.360677+01 | 1486212753.36068 | pgbench_history  |        161144832
 2017-02-04 13:52:33.360677+01 | 1486212753.36068 | pgbench_branches |          1785856

 2017-02-04 13:52:34.438722+01 | 1486212754.43872 | pgbench_accounts |       1380958208
 2017-02-04 13:52:34.438722+01 | 1486212754.43872 | pgbench_tellers  |          3842048
 2017-02-04 13:52:34.438722+01 | 1486212754.43872 | pgbench_history  |        163135488
 2017-02-04 13:52:34.438722+01 | 1486212754.43872 | pgbench_branches |          2629632

 2017-02-04 13:52:35.515382+01 | 1486212755.51538 | pgbench_accounts |       1380958208
 2017-02-04 13:52:35.515382+01 | 1486212755.51538 | pgbench_tellers  |          3842048
 2017-02-04 13:52:35.515382+01 | 1486212755.51538 | pgbench_history  |        165502976
 2017-02-04 13:52:35.515382+01 | 1486212755.51538 | pgbench_branches |          2629632

 2017-02-04 13:52:36.61206+01 | 1486212756.61206 | pgbench_accounts |       1380958208
 2017-02-04 13:52:36.61206+01 | 1486212756.61206 | pgbench_tellers  |          3842048
 2017-02-04 13:52:36.61206+01 | 1486212756.61206 | pgbench_history  |        167706624
 2017-02-04 13:52:36.61206+01 | 1486212756.61206 | pgbench_branches |          2629632

 2017-02-04 13:52:37.694647+01 | 1486212757.69465 | pgbench_accounts |       1380958208
 2017-02-04 13:52:37.694647+01 | 1486212757.69465 | pgbench_tellers  |          3842048
 2017-02-04 13:52:37.694647+01 | 1486212757.69465 | pgbench_history  |        170893312
 2017-02-04 13:52:37.694647+01 | 1486212757.69465 | pgbench_branches |          2629632

 2017-02-04 13:52:38.774076+01 | 1486212758.77408 | pgbench_accounts |       1380958208
 2017-02-04 13:52:38.774076+01 | 1486212758.77408 | pgbench_tellers  |          3842048
 2017-02-04 13:52:38.774076+01 | 1486212758.77408 | pgbench_history  |        171900928
 2017-02-04 13:52:38.774076+01 | 1486212758.77408 | pgbench_branches |          2629632

 2017-02-04 13:52:39.860755+01 | 1486212759.86075 | pgbench_accounts |       1380958208
 2017-02-04 13:52:39.860755+01 | 1486212759.86075 | pgbench_tellers  |          3842048
 2017-02-04 13:52:39.860755+01 | 1486212759.86075 | pgbench_history  |        173965312
 2017-02-04 13:52:39.860755+01 | 1486212759.86075 | pgbench_branches |          2629632

 2017-02-04 13:52:40.94498+01 | 1486212760.94498 | pgbench_accounts |       1380958208
 2017-02-04 13:52:40.94498+01 | 1486212760.94498 | pgbench_tellers  |          3842048
 2017-02-04 13:52:40.94498+01 | 1486212760.94498 | pgbench_history  |        176308224
 2017-02-04 13:52:40.94498+01 | 1486212760.94498 | pgbench_branches |          2629632

 2017-02-04 13:52:42.03031+01 | 1486212762.03031 | pgbench_accounts |       1380958208
 2017-02-04 13:52:42.03031+01 | 1486212762.03031 | pgbench_tellers  |          3842048
 2017-02-04 13:52:42.03031+01 | 1486212762.03031 | pgbench_history  |        178626560
 2017-02-04 13:52:42.03031+01 | 1486212762.03031 | pgbench_branches |          2629632

 2017-02-04 13:52:43.113161+01 | 1486212763.11316 | pgbench_accounts |       1380958208
 2017-02-04 13:52:43.113161+01 | 1486212763.11316 | pgbench_tellers  |          3842048
 2017-02-04 13:52:43.113161+01 | 1486212763.11316 | pgbench_history  |        181534720
 2017-02-04 13:52:43.113161+01 | 1486212763.11316 | pgbench_branches |          2629632

 2017-02-04 13:52:44.200924+01 | 1486212764.20092 | pgbench_accounts |       1380958208
 2017-02-04 13:52:44.200924+01 | 1486212764.20092 | pgbench_tellers  |          3842048
 2017-02-04 13:52:44.200924+01 | 1486212764.20092 | pgbench_history  |        183271424
 2017-02-04 13:52:44.200924+01 | 1486212764.20092 | pgbench_branches |          2629632

 2017-02-04 13:52:45.290617+01 | 1486212765.29062 | pgbench_accounts |       1380958208
 2017-02-04 13:52:45.290617+01 | 1486212765.29062 | pgbench_tellers  |          3842048
 2017-02-04 13:52:45.290617+01 | 1486212765.29062 | pgbench_history  |        185450496
 2017-02-04 13:52:45.290617+01 | 1486212765.29062 | pgbench_branches |          2629632

 2017-02-04 13:52:46.372444+01 | 1486212766.37244 | pgbench_accounts |       1380958208
 2017-02-04 13:52:46.372444+01 | 1486212766.37244 | pgbench_tellers  |          3842048
 2017-02-04 13:52:46.372444+01 | 1486212766.37244 | pgbench_history  |        188039168
 2017-02-04 13:52:46.372444+01 | 1486212766.37244 | pgbench_branches |          2629632

 2017-02-04 13:52:47.456531+01 | 1486212767.45653 | pgbench_accounts |       1380958208
 2017-02-04 13:52:47.456531+01 | 1486212767.45653 | pgbench_tellers  |          3842048
 2017-02-04 13:52:47.456531+01 | 1486212767.45653 | pgbench_history  |        190578688
 2017-02-04 13:52:47.456531+01 | 1486212767.45653 | pgbench_branches |          2629632

 2017-02-04 13:52:48.526026+01 | 1486212768.52603 | pgbench_accounts |       1380958208
 2017-02-04 13:52:48.526026+01 | 1486212768.52603 | pgbench_tellers  |          3842048
 2017-02-04 13:52:48.526026+01 | 1486212768.52603 | pgbench_history  |        192782336
 2017-02-04 13:52:48.526026+01 | 1486212768.52603 | pgbench_branches |          2629632

 2017-02-04 13:52:49.618979+01 | 1486212769.61898 | pgbench_accounts |       1380958208
 2017-02-04 13:52:49.618979+01 | 1486212769.61898 | pgbench_tellers  |          3842048
 2017-02-04 13:52:49.618979+01 | 1486212769.61898 | pgbench_history  |        194822144
 2017-02-04 13:52:49.618979+01 | 1486212769.61898 | pgbench_branches |          2629632

 2017-02-04 13:52:50.69921+01 | 1486212770.69921 | pgbench_accounts |       1380958208
 2017-02-04 13:52:50.69921+01 | 1486212770.69921 | pgbench_tellers  |          3842048
 2017-02-04 13:52:50.69921+01 | 1486212770.69921 | pgbench_history  |        196534272
 2017-02-04 13:52:50.69921+01 | 1486212770.69921 | pgbench_branches |          2629632

 2017-02-04 13:52:51.789578+01 | 1486212771.78958 | pgbench_accounts |       1380958208
 2017-02-04 13:52:51.789578+01 | 1486212771.78958 | pgbench_tellers  |          3842048
 2017-02-04 13:52:51.789578+01 | 1486212771.78958 | pgbench_history  |        199065600
 2017-02-04 13:52:51.789578+01 | 1486212771.78958 | pgbench_branches |          2629632

 2017-02-04 13:52:52.870438+01 | 1486212772.87044 | pgbench_accounts |       1380958208
 2017-02-04 13:52:52.870438+01 | 1486212772.87044 | pgbench_tellers  |          3842048
 2017-02-04 13:52:52.870438+01 | 1486212772.87044 | pgbench_history  |        202088448
 2017-02-04 13:52:52.870438+01 | 1486212772.87044 | pgbench_branches |          2629632

 2017-02-04 13:52:53.952894+01 | 1486212773.95289 | pgbench_accounts |       1380958208
 2017-02-04 13:52:53.952894+01 | 1486212773.95289 | pgbench_tellers  |          3842048
 2017-02-04 13:52:53.952894+01 | 1486212773.95289 | pgbench_history  |        203612160
 2017-02-04 13:52:53.952894+01 | 1486212773.95289 | pgbench_branches |          2629632

 2017-02-04 13:52:55.025477+01 | 1486212775.02548 | pgbench_accounts |       1380958208
 2017-02-04 13:52:55.025477+01 | 1486212775.02548 | pgbench_tellers  |          3842048
 2017-02-04 13:52:55.025477+01 | 1486212775.02548 | pgbench_history  |        207831040
 2017-02-04 13:52:55.025477+01 | 1486212775.02548 | pgbench_branches |          2629632

 2017-02-04 13:52:56.110154+01 | 1486212776.11015 | pgbench_accounts |       1380958208
 2017-02-04 13:52:56.110154+01 | 1486212776.11015 | pgbench_tellers  |          3842048
 2017-02-04 13:52:56.110154+01 | 1486212776.11015 | pgbench_history  |        207831040
 2017-02-04 13:52:56.110154+01 | 1486212776.11015 | pgbench_branches |          2629632

 2017-02-04 13:52:57.187733+01 | 1486212777.18773 | pgbench_accounts |       1380958208
 2017-02-04 13:52:57.187733+01 | 1486212777.18773 | pgbench_tellers  |          3842048
 2017-02-04 13:52:57.187733+01 | 1486212777.18773 | pgbench_history  |        210714624
 2017-02-04 13:52:57.187733+01 | 1486212777.18773 | pgbench_branches |          2629632

 2017-02-04 13:52:58.269847+01 | 1486212778.26985 | pgbench_accounts |       1380958208
 2017-02-04 13:52:58.269847+01 | 1486212778.26985 | pgbench_tellers  |          3842048
 2017-02-04 13:52:58.269847+01 | 1486212778.26985 | pgbench_history  |        211943424
 2017-02-04 13:52:58.269847+01 | 1486212778.26985 | pgbench_branches |          2629632

 2017-02-04 13:52:59.356419+01 | 1486212779.35642 | pgbench_accounts |       1380958208
 2017-02-04 13:52:59.356419+01 | 1486212779.35642 | pgbench_tellers  |          3842048
 2017-02-04 13:52:59.356419+01 | 1486212779.35642 | pgbench_history  |        214360064
 2017-02-04 13:52:59.356419+01 | 1486212779.35642 | pgbench_branches |          2629632

 2017-02-04 13:53:00.431655+01 | 1486212780.43165 | pgbench_accounts |       1380958208
 2017-02-04 13:53:00.431655+01 | 1486212780.43165 | pgbench_tellers  |          3842048
 2017-02-04 13:53:00.431655+01 | 1486212780.43165 | pgbench_history  |        217391104
 2017-02-04 13:53:00.431655+01 | 1486212780.43165 | pgbench_branches |          2629632

 2017-02-04 13:53:01.512958+01 | 1486212781.51296 | pgbench_accounts |       1380958208
 2017-02-04 13:53:01.512958+01 | 1486212781.51296 | pgbench_tellers  |          3842048
 2017-02-04 13:53:01.512958+01 | 1486212781.51296 | pgbench_history  |        220258304
 2017-02-04 13:53:01.512958+01 | 1486212781.51296 | pgbench_branches |          2629632

 2017-02-04 13:53:02.600614+01 | 1486212782.60061 | pgbench_accounts |       1380958208
 2017-02-04 13:53:02.600614+01 | 1486212782.60061 | pgbench_tellers  |          3842048
 2017-02-04 13:53:02.600614+01 | 1486212782.60061 | pgbench_history  |        221110272
 2017-02-04 13:53:02.600614+01 | 1486212782.60061 | pgbench_branches |          2629632

 2017-02-04 13:53:03.685514+01 | 1486212783.68551 | pgbench_accounts |       1380958208
 2017-02-04 13:53:03.685514+01 | 1486212783.68551 | pgbench_tellers  |          3842048
 2017-02-04 13:53:03.685514+01 | 1486212783.68551 | pgbench_history  |        223289344
 2017-02-04 13:53:03.685514+01 | 1486212783.68551 | pgbench_branches |          2629632

 2017-02-04 13:53:04.773745+01 | 1486212784.77375 | pgbench_accounts |       1380958208
 2017-02-04 13:53:04.773745+01 | 1486212784.77375 | pgbench_tellers  |          3842048
 2017-02-04 13:53:04.773745+01 | 1486212784.77375 | pgbench_history  |        225189888
 2017-02-04 13:53:04.773745+01 | 1486212784.77375 | pgbench_branches |          2629632

 2017-02-04 13:53:05.858785+01 | 1486212785.85878 | pgbench_accounts |       1380958208
 2017-02-04 13:53:05.858785+01 | 1486212785.85878 | pgbench_tellers  |          3842048
 2017-02-04 13:53:05.858785+01 | 1486212785.85878 | pgbench_history  |        227540992
 2017-02-04 13:53:05.858785+01 | 1486212785.85878 | pgbench_branches |          2629632

 2017-02-04 13:53:06.943545+01 | 1486212786.94355 | pgbench_accounts |       1380958208
 2017-02-04 13:53:06.943545+01 | 1486212786.94355 | pgbench_tellers  |          3842048
 2017-02-04 13:53:06.943545+01 | 1486212786.94355 | pgbench_history  |        229744640
 2017-02-04 13:53:06.943545+01 | 1486212786.94355 | pgbench_branches |          2629632

 2017-02-04 13:53:08.034767+01 | 1486212788.03477 | pgbench_accounts |       1380958208
 2017-02-04 13:53:08.034767+01 | 1486212788.03477 | pgbench_tellers  |          3842048
 2017-02-04 13:53:08.034767+01 | 1486212788.03477 | pgbench_history  |        232931328
 2017-02-04 13:53:08.034767+01 | 1486212788.03477 | pgbench_branches |          2629632

 2017-02-04 13:53:09.120656+01 | 1486212789.12066 | pgbench_accounts |       1380958208
 2017-02-04 13:53:09.120656+01 | 1486212789.12066 | pgbench_tellers  |          3842048
 2017-02-04 13:53:09.120656+01 | 1486212789.12066 | pgbench_history  |        234831872
 2017-02-04 13:53:09.120656+01 | 1486212789.12066 | pgbench_branches |          2629632

 2017-02-04 13:53:10.205799+01 | 1486212790.2058 | pgbench_accounts |       1380958208
 2017-02-04 13:53:10.205799+01 | 1486212790.2058 | pgbench_tellers  |          3842048
 2017-02-04 13:53:10.205799+01 | 1486212790.2058 | pgbench_history  |        236240896
 2017-02-04 13:53:10.205799+01 | 1486212790.2058 | pgbench_branches |          2629632

 2017-02-04 13:53:11.288895+01 | 1486212791.28889 | pgbench_accounts |       1380958208
 2017-02-04 13:53:11.288895+01 | 1486212791.28889 | pgbench_tellers  |          3842048
 2017-02-04 13:53:11.288895+01 | 1486212791.28889 | pgbench_history  |        238583808
 2017-02-04 13:53:11.288895+01 | 1486212791.28889 | pgbench_branches |          2629632

 2017-02-04 13:53:12.372375+01 | 1486212792.37238 | pgbench_accounts |       1380958208
 2017-02-04 13:53:12.372375+01 | 1486212792.37238 | pgbench_tellers  |          3842048
 2017-02-04 13:53:12.372375+01 | 1486212792.37238 | pgbench_history  |        241909760
 2017-02-04 13:53:12.372375+01 | 1486212792.37238 | pgbench_branches |          2629632

 2017-02-04 13:53:13.450764+01 | 1486212793.45076 | pgbench_accounts |       1380958208
 2017-02-04 13:53:13.450764+01 | 1486212793.45076 | pgbench_tellers  |          3842048
 2017-02-04 13:53:13.450764+01 | 1486212793.45076 | pgbench_history  |        242941952
 2017-02-04 13:53:13.450764+01 | 1486212793.45076 | pgbench_branches |          2629632

 2017-02-04 13:53:14.543002+01 | 1486212794.543 | pgbench_accounts |       1380958208
 2017-02-04 13:53:14.543002+01 | 1486212794.543 | pgbench_tellers  |          3842048
 2017-02-04 13:53:14.543002+01 | 1486212794.543 | pgbench_history  |        245702656
 2017-02-04 13:53:14.543002+01 | 1486212794.543 | pgbench_branches |          2629632

 2017-02-04 13:53:15.628047+01 | 1486212795.62805 | pgbench_accounts |       1380958208
 2017-02-04 13:53:15.628047+01 | 1486212795.62805 | pgbench_tellers  |          3842048
 2017-02-04 13:53:15.628047+01 | 1486212795.62805 | pgbench_history  |        247275520
 2017-02-04 13:53:15.628047+01 | 1486212795.62805 | pgbench_branches |          2629632

 2017-02-04 13:53:16.711951+01 | 1486212796.71195 | pgbench_accounts |       1380958208
 2017-02-04 13:53:16.711951+01 | 1486212796.71195 | pgbench_tellers  |          3842048
 2017-02-04 13:53:16.711951+01 | 1486212796.71195 | pgbench_history  |        249831424
 2017-02-04 13:53:16.711951+01 | 1486212796.71195 | pgbench_branches |          2629632

 2017-02-04 13:53:17.803477+01 | 1486212797.80348 | pgbench_accounts |       1380958208
 2017-02-04 13:53:17.803477+01 | 1486212797.80348 | pgbench_tellers  |          3842048
 2017-02-04 13:53:17.803477+01 | 1486212797.80348 | pgbench_history  |        252174336
 2017-02-04 13:53:17.803477+01 | 1486212797.80348 | pgbench_branches |          2629632

 2017-02-04 13:53:18.888098+01 | 1486212798.8881 | pgbench_accounts |       1380958208
 2017-02-04 13:53:18.888098+01 | 1486212798.8881 | pgbench_tellers  |          3842048
 2017-02-04 13:53:18.888098+01 | 1486212798.8881 | pgbench_history  |        254238720
 2017-02-04 13:53:18.888098+01 | 1486212798.8881 | pgbench_branches |          2629632

 2017-02-04 13:53:19.973176+01 | 1486212799.97318 | pgbench_accounts |       1380958208
 2017-02-04 13:53:19.973176+01 | 1486212799.97318 | pgbench_tellers  |          3842048
 2017-02-04 13:53:19.973176+01 | 1486212799.97318 | pgbench_history  |        256311296
 2017-02-04 13:53:19.973176+01 | 1486212799.97318 | pgbench_branches |          2629632

 2017-02-04 13:53:21.061055+01 | 1486212801.06105 | pgbench_accounts |       1380958208
 2017-02-04 13:53:21.061055+01 | 1486212801.06105 | pgbench_tellers  |          3842048
 2017-02-04 13:53:21.061055+01 | 1486212801.06105 | pgbench_history  |        258990080
 2017-02-04 13:53:21.061055+01 | 1486212801.06105 | pgbench_branches |          2629632

 2017-02-04 13:53:22.13868+01 | 1486212802.13868 | pgbench_accounts |       1380958208
 2017-02-04 13:53:22.13868+01 | 1486212802.13868 | pgbench_tellers  |          3842048
 2017-02-04 13:53:22.13868+01 | 1486212802.13868 | pgbench_history  |        261373952
 2017-02-04 13:53:22.13868+01 | 1486212802.13868 | pgbench_branches |          2629632

 2017-02-04 13:53:23.231547+01 | 1486212803.23155 | pgbench_accounts |       1380958208
 2017-02-04 13:53:23.231547+01 | 1486212803.23155 | pgbench_tellers  |          3842048
 2017-02-04 13:53:23.231547+01 | 1486212803.23155 | pgbench_history  |        264536064
 2017-02-04 13:53:23.231547+01 | 1486212803.23155 | pgbench_branches |          2629632

 2017-02-04 13:53:24.312564+01 | 1486212804.31256 | pgbench_accounts |       1380958208
 2017-02-04 13:53:24.312564+01 | 1486212804.31256 | pgbench_tellers  |          3842048
 2017-02-04 13:53:24.312564+01 | 1486212804.31256 | pgbench_history  |        265895936
 2017-02-04 13:53:24.312564+01 | 1486212804.31256 | pgbench_branches |          2629632

 2017-02-04 13:53:25.39054+01 | 1486212805.39054 | pgbench_accounts |       1380958208
 2017-02-04 13:53:25.39054+01 | 1486212805.39054 | pgbench_tellers  |          3842048
 2017-02-04 13:53:25.39054+01 | 1486212805.39054 | pgbench_history  |        267452416
 2017-02-04 13:53:25.39054+01 | 1486212805.39054 | pgbench_branches |          2629632

 2017-02-04 13:53:26.472117+01 | 1486212806.47212 | pgbench_accounts |       1380958208
 2017-02-04 13:53:26.472117+01 | 1486212806.47212 | pgbench_tellers  |          3842048
 2017-02-04 13:53:26.472117+01 | 1486212806.47212 | pgbench_history  |        269885440
 2017-02-04 13:53:26.472117+01 | 1486212806.47212 | pgbench_branches |          2629632

 2017-02-04 13:53:27.555317+01 | 1486212807.55532 | pgbench_accounts |       1380958208
 2017-02-04 13:53:27.555317+01 | 1486212807.55532 | pgbench_tellers  |          3842048
 2017-02-04 13:53:27.555317+01 | 1486212807.55532 | pgbench_history  |        271761408
 2017-02-04 13:53:27.555317+01 | 1486212807.55532 | pgbench_branches |          2629632

 2017-02-04 13:53:28.637732+01 | 1486212808.63773 | pgbench_accounts |       1380958208
 2017-02-04 13:53:28.637732+01 | 1486212808.63773 | pgbench_tellers  |          3842048
 2017-02-04 13:53:28.637732+01 | 1486212808.63773 | pgbench_history  |        273997824
 2017-02-04 13:53:28.637732+01 | 1486212808.63773 | pgbench_branches |          2629632

 2017-02-04 13:53:29.728867+01 | 1486212809.72887 | pgbench_accounts |       1380958208
 2017-02-04 13:53:29.728867+01 | 1486212809.72887 | pgbench_tellers  |          3842048
 2017-02-04 13:53:29.728867+01 | 1486212809.72887 | pgbench_history  |        276340736
 2017-02-04 13:53:29.728867+01 | 1486212809.72887 | pgbench_branches |          2629632

 2017-02-04 13:53:30.818677+01 | 1486212810.81868 | pgbench_accounts |       1380958208
 2017-02-04 13:53:30.818677+01 | 1486212810.81868 | pgbench_tellers  |          3842048
 2017-02-04 13:53:30.818677+01 | 1486212810.81868 | pgbench_history  |        278544384
 2017-02-04 13:53:30.818677+01 | 1486212810.81868 | pgbench_branches |          2629632

 2017-02-04 13:53:31.901242+01 | 1486212811.90124 | pgbench_accounts |       1380958208
 2017-02-04 13:53:31.901242+01 | 1486212811.90124 | pgbench_tellers  |          3842048
 2017-02-04 13:53:31.901242+01 | 1486212811.90124 | pgbench_history  |        281313280
 2017-02-04 13:53:31.901242+01 | 1486212811.90124 | pgbench_branches |          2629632

 2017-02-04 13:53:32.987086+01 | 1486212812.98709 | pgbench_accounts |       1380958208
 2017-02-04 13:53:32.987086+01 | 1486212812.98709 | pgbench_tellers  |          3842048
 2017-02-04 13:53:32.987086+01 | 1486212812.98709 | pgbench_history  |        282894336
 2017-02-04 13:53:32.987086+01 | 1486212812.98709 | pgbench_branches |          2629632

 2017-02-04 13:53:34.056188+01 | 1486212814.05619 | pgbench_accounts |       1380958208
 2017-02-04 13:53:34.056188+01 | 1486212814.05619 | pgbench_tellers  |          3842048
 2017-02-04 13:53:34.056188+01 | 1486212814.05619 | pgbench_history  |        285917184
 2017-02-04 13:53:34.056188+01 | 1486212814.05619 | pgbench_branches |          2629632

 2017-02-04 13:53:35.144227+01 | 1486212815.14423 | pgbench_accounts |       1380958208
 2017-02-04 13:53:35.144227+01 | 1486212815.14423 | pgbench_tellers  |          3842048
 2017-02-04 13:53:35.144227+01 | 1486212815.14423 | pgbench_history  |        287932416
 2017-02-04 13:53:35.144227+01 | 1486212815.14423 | pgbench_branches |          2629632

 2017-02-04 13:53:36.223258+01 | 1486212816.22326 | pgbench_accounts |       1380958208
 2017-02-04 13:53:36.223258+01 | 1486212816.22326 | pgbench_tellers  |          3842048
 2017-02-04 13:53:36.223258+01 | 1486212816.22326 | pgbench_history  |        289316864
 2017-02-04 13:53:36.223258+01 | 1486212816.22326 | pgbench_branches |          2629632

 2017-02-04 13:53:37.307623+01 | 1486212817.30762 | pgbench_accounts |       1380958208
 2017-02-04 13:53:37.307623+01 | 1486212817.30762 | pgbench_tellers  |          3842048
 2017-02-04 13:53:37.307623+01 | 1486212817.30762 | pgbench_history  |        291848192
 2017-02-04 13:53:37.307623+01 | 1486212817.30762 | pgbench_branches |          2629632

 2017-02-04 13:53:38.388686+01 | 1486212818.38869 | pgbench_accounts |       1380958208
 2017-02-04 13:53:38.388686+01 | 1486212818.38869 | pgbench_tellers  |          3842048
 2017-02-04 13:53:38.388686+01 | 1486212818.38869 | pgbench_history  |        293838848
 2017-02-04 13:53:38.388686+01 | 1486212818.38869 | pgbench_branches |          2629632

 2017-02-04 13:53:39.469735+01 | 1486212819.46973 | pgbench_accounts |       1380958208
 2017-02-04 13:53:39.469735+01 | 1486212819.46973 | pgbench_tellers  |          3842048
 2017-02-04 13:53:39.469735+01 | 1486212819.46973 | pgbench_history  |        296042496
 2017-02-04 13:53:39.469735+01 | 1486212819.46973 | pgbench_branches |          2629632

 2017-02-04 13:53:40.551093+01 | 1486212820.55109 | pgbench_accounts |       1380958208
 2017-02-04 13:53:40.551093+01 | 1486212820.55109 | pgbench_tellers  |          3842048
 2017-02-04 13:53:40.551093+01 | 1486212820.55109 | pgbench_history  |        298770432
 2017-02-04 13:53:40.551093+01 | 1486212820.55109 | pgbench_branches |          2629632

 2017-02-04 13:53:41.630277+01 | 1486212821.63028 | pgbench_accounts |       1380958208
 2017-02-04 13:53:41.630277+01 | 1486212821.63028 | pgbench_tellers  |          3842048
 2017-02-04 13:53:41.630277+01 | 1486212821.63028 | pgbench_history  |        300621824
 2017-02-04 13:53:41.630277+01 | 1486212821.63028 | pgbench_branches |          2629632

 2017-02-04 13:53:42.717729+01 | 1486212822.71773 | pgbench_accounts |       1380958208
 2017-02-04 13:53:42.717729+01 | 1486212822.71773 | pgbench_tellers  |          3842048
 2017-02-04 13:53:42.717729+01 | 1486212822.71773 | pgbench_history  |        303153152
 2017-02-04 13:53:42.717729+01 | 1486212822.71773 | pgbench_branches |          2629632

 2017-02-04 13:53:43.800706+01 | 1486212823.80071 | pgbench_accounts |       1380958208
 2017-02-04 13:53:43.800706+01 | 1486212823.80071 | pgbench_tellers  |          3842048
 2017-02-04 13:53:43.800706+01 | 1486212823.80071 | pgbench_history  |        305676288
 2017-02-04 13:53:43.800706+01 | 1486212823.80071 | pgbench_branches |          2629632

 2017-02-04 13:53:44.889629+01 | 1486212824.88963 | pgbench_accounts |       1380958208
 2017-02-04 13:53:44.889629+01 | 1486212824.88963 | pgbench_tellers  |          3842048
 2017-02-04 13:53:44.889629+01 | 1486212824.88963 | pgbench_history  |        308019200
 2017-02-04 13:53:44.889629+01 | 1486212824.88963 | pgbench_branches |          2629632

 2017-02-04 13:53:45.976039+01 | 1486212825.97604 | pgbench_accounts |       1380958208
 2017-02-04 13:53:45.976039+01 | 1486212825.97604 | pgbench_tellers  |          3842048
 2017-02-04 13:53:45.976039+01 | 1486212825.97604 | pgbench_history  |        310550528
 2017-02-04 13:53:45.976039+01 | 1486212825.97604 | pgbench_branches |          2629632

 2017-02-04 13:53:47.067747+01 | 1486212827.06775 | pgbench_accounts |       1380958208
 2017-02-04 13:53:47.067747+01 | 1486212827.06775 | pgbench_tellers  |          3842048
 2017-02-04 13:53:47.067747+01 | 1486212827.06775 | pgbench_history  |        312729600
 2017-02-04 13:53:47.067747+01 | 1486212827.06775 | pgbench_branches |          2629632

 2017-02-04 13:53:48.14873+01 | 1486212828.14873 | pgbench_accounts |       1380958208
 2017-02-04 13:53:48.14873+01 | 1486212828.14873 | pgbench_tellers  |          3842048
 2017-02-04 13:53:48.14873+01 | 1486212828.14873 | pgbench_history  |        315236352
 2017-02-04 13:53:48.14873+01 | 1486212828.14873 | pgbench_branches |          2629632

 2017-02-04 13:53:49.236851+01 | 1486212829.23685 | pgbench_accounts |       1380958208
 2017-02-04 13:53:49.236851+01 | 1486212829.23685 | pgbench_tellers  |          3842048
 2017-02-04 13:53:49.236851+01 | 1486212829.23685 | pgbench_history  |        316760064
 2017-02-04 13:53:49.236851+01 | 1486212829.23685 | pgbench_branches |          2629632

 2017-02-04 13:53:50.328094+01 | 1486212830.32809 | pgbench_accounts |       1380958208
 2017-02-04 13:53:50.328094+01 | 1486212830.32809 | pgbench_tellers  |          3842048
 2017-02-04 13:53:50.328094+01 | 1486212830.32809 | pgbench_history  |        319922176
 2017-02-04 13:53:50.328094+01 | 1486212830.32809 | pgbench_branches |          2629632

 2017-02-04 13:53:51.408838+01 | 1486212831.40884 | pgbench_accounts |       1380958208
 2017-02-04 13:53:51.408838+01 | 1486212831.40884 | pgbench_tellers  |          3842048
 2017-02-04 13:53:51.408838+01 | 1486212831.40884 | pgbench_history  |        320790528
 2017-02-04 13:53:51.408838+01 | 1486212831.40884 | pgbench_branches |          2629632

 2017-02-04 13:53:52.489251+01 | 1486212832.48925 | pgbench_accounts |       1380958208
 2017-02-04 13:53:52.489251+01 | 1486212832.48925 | pgbench_tellers  |          3842048
 2017-02-04 13:53:52.489251+01 | 1486212832.48925 | pgbench_history  |        322854912
 2017-02-04 13:53:52.489251+01 | 1486212832.48925 | pgbench_branches |          2629632

 2017-02-04 13:53:53.566298+01 | 1486212833.5663 | pgbench_accounts |       1380958208
 2017-02-04 13:53:53.566298+01 | 1486212833.5663 | pgbench_tellers  |          3842048
 2017-02-04 13:53:53.566298+01 | 1486212833.5663 | pgbench_history  |        325222400
 2017-02-04 13:53:53.566298+01 | 1486212833.5663 | pgbench_branches |          2629632

 2017-02-04 13:53:54.647952+01 | 1486212834.64795 | pgbench_accounts |       1380958208
 2017-02-04 13:53:54.647952+01 | 1486212834.64795 | pgbench_tellers  |          3842048
 2017-02-04 13:53:54.647952+01 | 1486212834.64795 | pgbench_history  |        327426048
 2017-02-04 13:53:54.647952+01 | 1486212834.64795 | pgbench_branches |          2629632

 2017-02-04 13:53:55.736166+01 | 1486212835.73617 | pgbench_accounts |       1380958208
 2017-02-04 13:53:55.736166+01 | 1486212835.73617 | pgbench_tellers  |          3842048
 2017-02-04 13:53:55.736166+01 | 1486212835.73617 | pgbench_history  |        330194944
 2017-02-04 13:53:55.736166+01 | 1486212835.73617 | pgbench_branches |          2629632

 2017-02-04 13:53:56.819347+01 | 1486212836.81935 | pgbench_accounts |       1380958208
 2017-02-04 13:53:56.819347+01 | 1486212836.81935 | pgbench_tellers  |          3842048
 2017-02-04 13:53:56.819347+01 | 1486212836.81935 | pgbench_history  |        332054528
 2017-02-04 13:53:56.819347+01 | 1486212836.81935 | pgbench_branches |          2629632

 2017-02-04 13:53:57.915794+01 | 1486212837.91579 | pgbench_accounts |       1380958208
 2017-02-04 13:53:57.915794+01 | 1486212837.91579 | pgbench_tellers  |          3842048
 2017-02-04 13:53:57.915794+01 | 1486212837.91579 | pgbench_history  |        333938688
 2017-02-04 13:53:57.915794+01 | 1486212837.91579 | pgbench_branches |          2629632

 2017-02-04 13:53:58.999967+01 | 1486212838.99997 | pgbench_accounts |       1380958208
 2017-02-04 13:53:58.999967+01 | 1486212838.99997 | pgbench_tellers  |          3842048
 2017-02-04 13:53:58.999967+01 | 1486212838.99997 | pgbench_history  |        336584704
 2017-02-04 13:53:58.999967+01 | 1486212838.99997 | pgbench_branches |          2629632

 2017-02-04 13:54:00.093892+01 | 1486212840.09389 | pgbench_accounts |       1380958208
 2017-02-04 13:54:00.093892+01 | 1486212840.09389 | pgbench_tellers  |          3842048
 2017-02-04 13:54:00.093892+01 | 1486212840.09389 | pgbench_history  |        338976768
 2017-02-04 13:54:00.093892+01 | 1486212840.09389 | pgbench_branches |          2629632

 2017-02-04 13:54:01.17169+01 | 1486212841.17169 | pgbench_accounts |       1380958208
 2017-02-04 13:54:01.17169+01 | 1486212841.17169 | pgbench_tellers  |          3842048
 2017-02-04 13:54:01.17169+01 | 1486212841.17169 | pgbench_history  |        340803584
 2017-02-04 13:54:01.17169+01 | 1486212841.17169 | pgbench_branches |          2629632

 2017-02-04 13:54:02.2527+01 | 1486212842.2527 | pgbench_accounts |       1380958208
 2017-02-04 13:54:02.2527+01 | 1486212842.2527 | pgbench_tellers  |          3842048
 2017-02-04 13:54:02.2527+01 | 1486212842.2527 | pgbench_history  |        343801856
 2017-02-04 13:54:02.2527+01 | 1486212842.2527 | pgbench_branches |          2629632

 2017-02-04 13:54:03.335414+01 | 1486212843.33541 | pgbench_accounts |       1380958208
 2017-02-04 13:54:03.335414+01 | 1486212843.33541 | pgbench_tellers  |          3842048
 2017-02-04 13:54:03.335414+01 | 1486212843.33541 | pgbench_history  |        345677824
 2017-02-04 13:54:03.335414+01 | 1486212843.33541 | pgbench_branches |          2629632

 2017-02-04 13:54:04.413143+01 | 1486212844.41314 | pgbench_accounts |       1380958208
 2017-02-04 13:54:04.413143+01 | 1486212844.41314 | pgbench_tellers  |          3842048
 2017-02-04 13:54:04.413143+01 | 1486212844.41314 | pgbench_history  |        347717632
 2017-02-04 13:54:04.413143+01 | 1486212844.41314 | pgbench_branches |          2629632

 2017-02-04 13:54:05.490051+01 | 1486212845.49005 | pgbench_accounts |       1380958208
 2017-02-04 13:54:05.490051+01 | 1486212845.49005 | pgbench_tellers  |          3842048
 2017-02-04 13:54:05.490051+01 | 1486212845.49005 | pgbench_history  |        349782016
 2017-02-04 13:54:05.490051+01 | 1486212845.49005 | pgbench_branches |          2629632

 2017-02-04 13:54:06.563471+01 | 1486212846.56347 | pgbench_accounts |       1380958208
 2017-02-04 13:54:06.563471+01 | 1486212846.56347 | pgbench_tellers  |          3842048
 2017-02-04 13:54:06.563471+01 | 1486212846.56347 | pgbench_history  |        351518720
 2017-02-04 13:54:06.563471+01 | 1486212846.56347 | pgbench_branches |          2629632

 2017-02-04 13:54:07.638113+01 | 1486212847.63811 | pgbench_accounts |       1380958208
 2017-02-04 13:54:07.638113+01 | 1486212847.63811 | pgbench_tellers  |          3842048
 2017-02-04 13:54:07.638113+01 | 1486212847.63811 | pgbench_history  |        353566720
 2017-02-04 13:54:07.638113+01 | 1486212847.63811 | pgbench_branches |          2629632

 2017-02-04 13:54:08.726592+01 | 1486212848.72659 | pgbench_accounts |       1380958208
 2017-02-04 13:54:08.726592+01 | 1486212848.72659 | pgbench_tellers  |          3842048
 2017-02-04 13:54:08.726592+01 | 1486212848.72659 | pgbench_history  |        355966976
 2017-02-04 13:54:08.726592+01 | 1486212848.72659 | pgbench_branches |          2629632

 2017-02-04 13:54:09.803261+01 | 1486212849.80326 | pgbench_accounts |       1380958208
 2017-02-04 13:54:09.803261+01 | 1486212849.80326 | pgbench_tellers  |          3842048
 2017-02-04 13:54:09.803261+01 | 1486212849.80326 | pgbench_history  |        358686720
 2017-02-04 13:54:09.803261+01 | 1486212849.80326 | pgbench_branches |          2629632

 2017-02-04 13:54:10.888081+01 | 1486212850.88808 | pgbench_accounts |       1380958208
 2017-02-04 13:54:10.888081+01 | 1486212850.88808 | pgbench_tellers  |          3842048
 2017-02-04 13:54:10.888081+01 | 1486212850.88808 | pgbench_history  |        360022016
 2017-02-04 13:54:10.888081+01 | 1486212850.88808 | pgbench_branches |          2629632

 2017-02-04 13:54:11.966782+01 | 1486212851.96678 | pgbench_accounts |       1380958208
 2017-02-04 13:54:11.966782+01 | 1486212851.96678 | pgbench_tellers  |          3842048
 2017-02-04 13:54:11.966782+01 | 1486212851.96678 | pgbench_history  |        364240896
 2017-02-04 13:54:11.966782+01 | 1486212851.96678 | pgbench_branches |          2629632

 2017-02-04 13:54:13.052717+01 | 1486212853.05272 | pgbench_accounts |       1380958208
 2017-02-04 13:54:13.052717+01 | 1486212853.05272 | pgbench_tellers  |          3842048
 2017-02-04 13:54:13.052717+01 | 1486212853.05272 | pgbench_history  |        364240896
 2017-02-04 13:54:13.052717+01 | 1486212853.05272 | pgbench_branches |          2629632

 2017-02-04 13:54:14.135225+01 | 1486212854.13523 | pgbench_accounts |       1380958208
 2017-02-04 13:54:14.135225+01 | 1486212854.13523 | pgbench_tellers  |          3842048
 2017-02-04 13:54:14.135225+01 | 1486212854.13523 | pgbench_history  |        366583808
 2017-02-04 13:54:14.135225+01 | 1486212854.13523 | pgbench_branches |          2629632

 2017-02-04 13:54:15.220531+01 | 1486212855.22053 | pgbench_accounts |       1380958208
 2017-02-04 13:54:15.220531+01 | 1486212855.22053 | pgbench_tellers  |          3842048
 2017-02-04 13:54:15.220531+01 | 1486212855.22053 | pgbench_history  |        368525312
 2017-02-04 13:54:15.220531+01 | 1486212855.22053 | pgbench_branches |          2629632

 2017-02-04 13:54:16.30908+01 | 1486212856.30908 | pgbench_accounts |       1380958208
 2017-02-04 13:54:16.30908+01 | 1486212856.30908 | pgbench_tellers  |          3842048
 2017-02-04 13:54:16.30908+01 | 1486212856.30908 | pgbench_history  |        370589696
 2017-02-04 13:54:16.30908+01 | 1486212856.30908 | pgbench_branches |          2629632

 2017-02-04 13:54:17.389182+01 | 1486212857.38918 | pgbench_accounts |       1380958208
 2017-02-04 13:54:17.389182+01 | 1486212857.38918 | pgbench_tellers  |          3842048
 2017-02-04 13:54:17.389182+01 | 1486212857.38918 | pgbench_history  |        372604928
 2017-02-04 13:54:17.389182+01 | 1486212857.38918 | pgbench_branches |          2629632

 2017-02-04 13:54:18.463643+01 | 1486212858.46364 | pgbench_accounts |       1380958208
 2017-02-04 13:54:18.463643+01 | 1486212858.46364 | pgbench_tellers  |          3842048
 2017-02-04 13:54:18.463643+01 | 1486212858.46364 | pgbench_history  |        374669312
 2017-02-04 13:54:18.463643+01 | 1486212858.46364 | pgbench_branches |          2629632

 2017-02-04 13:54:19.544791+01 | 1486212859.54479 | pgbench_accounts |       1380958208
 2017-02-04 13:54:19.544791+01 | 1486212859.54479 | pgbench_tellers  |          3842048
 2017-02-04 13:54:19.544791+01 | 1486212859.54479 | pgbench_history  |        377176064
 2017-02-04 13:54:19.544791+01 | 1486212859.54479 | pgbench_branches |          2629632

 2017-02-04 13:54:20.627456+01 | 1486212860.62746 | pgbench_accounts |       1380958208
 2017-02-04 13:54:20.627456+01 | 1486212860.62746 | pgbench_tellers  |          3842048
 2017-02-04 13:54:20.627456+01 | 1486212860.62746 | pgbench_history  |        380420096
 2017-02-04 13:54:20.627456+01 | 1486212860.62746 | pgbench_branches |          2629632

 2017-02-04 13:54:21.712607+01 | 1486212861.71261 | pgbench_accounts |       1380958208
 2017-02-04 13:54:21.712607+01 | 1486212861.71261 | pgbench_tellers  |          3842048
 2017-02-04 13:54:21.712607+01 | 1486212861.71261 | pgbench_history  |        381968384
 2017-02-04 13:54:21.712607+01 | 1486212861.71261 | pgbench_branches |          2629632

 2017-02-04 13:54:22.792167+01 | 1486212862.79217 | pgbench_accounts |       1380958208
 2017-02-04 13:54:22.792167+01 | 1486212862.79217 | pgbench_tellers  |          3842048
 2017-02-04 13:54:22.792167+01 | 1486212862.79217 | pgbench_history  |        384360448
 2017-02-04 13:54:22.792167+01 | 1486212862.79217 | pgbench_branches |          2629632

 2017-02-04 13:54:23.882662+01 | 1486212863.88266 | pgbench_accounts |       1380958208
 2017-02-04 13:54:23.882662+01 | 1486212863.88266 | pgbench_tellers  |          3842048
 2017-02-04 13:54:23.882662+01 | 1486212863.88266 | pgbench_history  |        387506176
 2017-02-04 13:54:23.882662+01 | 1486212863.88266 | pgbench_branches |          2629632

 2017-02-04 13:54:24.966167+01 | 1486212864.96617 | pgbench_accounts |       1380958208
 2017-02-04 13:54:24.966167+01 | 1486212864.96617 | pgbench_tellers  |          3842048
 2017-02-04 13:54:24.966167+01 | 1486212864.96617 | pgbench_history  |        388841472
 2017-02-04 13:54:24.966167+01 | 1486212864.96617 | pgbench_branches |          2629632

 2017-02-04 13:54:26.052263+01 | 1486212866.05226 | pgbench_accounts |       1380958208
 2017-02-04 13:54:26.052263+01 | 1486212866.05226 | pgbench_tellers  |          3842048
 2017-02-04 13:54:26.052263+01 | 1486212866.05226 | pgbench_history  |        390766592
 2017-02-04 13:54:26.052263+01 | 1486212866.05226 | pgbench_branches |          2629632

 2017-02-04 13:54:27.139373+01 | 1486212867.13937 | pgbench_accounts |       1380958208
 2017-02-04 13:54:27.139373+01 | 1486212867.13937 | pgbench_tellers  |          3842048
 2017-02-04 13:54:27.139373+01 | 1486212867.13937 | pgbench_history  |        394993664
 2017-02-04 13:54:27.139373+01 | 1486212867.13937 | pgbench_branches |          2629632

 2017-02-04 13:54:28.225104+01 | 1486212868.2251 | pgbench_accounts |       1380958208
 2017-02-04 13:54:28.225104+01 | 1486212868.2251 | pgbench_tellers  |          3842048
 2017-02-04 13:54:28.225104+01 | 1486212868.2251 | pgbench_history  |        395837440
 2017-02-04 13:54:28.225104+01 | 1486212868.2251 | pgbench_branches |          2629632

 2017-02-04 13:54:29.313321+01 | 1486212869.31332 | pgbench_accounts |       1380958208
 2017-02-04 13:54:29.313321+01 | 1486212869.31332 | pgbench_tellers  |          3842048
 2017-02-04 13:54:29.313321+01 | 1486212869.31332 | pgbench_history  |        397410304
 2017-02-04 13:54:29.313321+01 | 1486212869.31332 | pgbench_branches |          2629632

 2017-02-04 13:54:30.398669+01 | 1486212870.39867 | pgbench_accounts |       1380958208
 2017-02-04 13:54:30.398669+01 | 1486212870.39867 | pgbench_tellers  |          3842048
 2017-02-04 13:54:30.398669+01 | 1486212870.39867 | pgbench_history  |        399769600
 2017-02-04 13:54:30.398669+01 | 1486212870.39867 | pgbench_branches |          2629632

 2017-02-04 13:54:31.47395+01 | 1486212871.47395 | pgbench_accounts |       1380958208
 2017-02-04 13:54:31.47395+01 | 1486212871.47395 | pgbench_tellers  |          3842048
 2017-02-04 13:54:31.47395+01 | 1486212871.47395 | pgbench_history  |        402120704
 2017-02-04 13:54:31.47395+01 | 1486212871.47395 | pgbench_branches |          2629632

 2017-02-04 13:54:32.551761+01 | 1486212872.55176 | pgbench_accounts |       1380958208
 2017-02-04 13:54:32.551761+01 | 1486212872.55176 | pgbench_tellers  |          3842048
 2017-02-04 13:54:32.551761+01 | 1486212872.55176 | pgbench_history  |        404537344
 2017-02-04 13:54:32.551761+01 | 1486212872.55176 | pgbench_branches |          2629632

 2017-02-04 13:54:33.631099+01 | 1486212873.6311 | pgbench_accounts |       1380958208
 2017-02-04 13:54:33.631099+01 | 1486212873.6311 | pgbench_tellers  |          3842048
 2017-02-04 13:54:33.631099+01 | 1486212873.6311 | pgbench_history  |        407371776
 2017-02-04 13:54:33.631099+01 | 1486212873.6311 | pgbench_branches |          2629632

 2017-02-04 13:54:34.716053+01 | 1486212874.71605 | pgbench_accounts |       1380958208
 2017-02-04 13:54:34.716053+01 | 1486212874.71605 | pgbench_tellers  |          3842048
 2017-02-04 13:54:34.716053+01 | 1486212874.71605 | pgbench_history  |        408920064
 2017-02-04 13:54:34.716053+01 | 1486212874.71605 | pgbench_branches |          2629632

 2017-02-04 13:54:35.809347+01 | 1486212875.80935 | pgbench_accounts |       1380958208
 2017-02-04 13:54:35.809347+01 | 1486212875.80935 | pgbench_tellers  |          3842048
 2017-02-04 13:54:35.809347+01 | 1486212875.80935 | pgbench_history  |        411295744
 2017-02-04 13:54:35.809347+01 | 1486212875.80935 | pgbench_branches |          2629632

 2017-02-04 13:54:36.895645+01 | 1486212876.89564 | pgbench_accounts |       1380958208
 2017-02-04 13:54:36.895645+01 | 1486212876.89564 | pgbench_tellers  |          3842048
 2017-02-04 13:54:36.895645+01 | 1486212876.89564 | pgbench_history  |        413392896
 2017-02-04 13:54:36.895645+01 | 1486212876.89564 | pgbench_branches |          2629632

 2017-02-04 13:54:37.97722+01 | 1486212877.97722 | pgbench_accounts |       1380958208
 2017-02-04 13:54:37.97722+01 | 1486212877.97722 | pgbench_tellers  |          3842048
 2017-02-04 13:54:37.97722+01 | 1486212877.97722 | pgbench_history  |        416251904
 2017-02-04 13:54:37.97722+01 | 1486212877.97722 | pgbench_branches |          2629632

 2017-02-04 13:54:39.06723+01 | 1486212879.06723 | pgbench_accounts |       1380958208
 2017-02-04 13:54:39.06723+01 | 1486212879.06723 | pgbench_tellers  |          3842048
 2017-02-04 13:54:39.06723+01 | 1486212879.06723 | pgbench_history  |        418275328
 2017-02-04 13:54:39.06723+01 | 1486212879.06723 | pgbench_branches |          2629632

 2017-02-04 13:54:40.151877+01 | 1486212880.15188 | pgbench_accounts |       1380958208
 2017-02-04 13:54:40.151877+01 | 1486212880.15188 | pgbench_tellers  |          3842048
 2017-02-04 13:54:40.151877+01 | 1486212880.15188 | pgbench_history  |        419962880
 2017-02-04 13:54:40.151877+01 | 1486212880.15188 | pgbench_branches |          2629632

 2017-02-04 13:54:41.234809+01 | 1486212881.23481 | pgbench_accounts |       1380958208
 2017-02-04 13:54:41.234809+01 | 1486212881.23481 | pgbench_tellers  |          3842048
 2017-02-04 13:54:41.234809+01 | 1486212881.23481 | pgbench_history  |        422543360
 2017-02-04 13:54:41.234809+01 | 1486212881.23481 | pgbench_branches |          2629632

 2017-02-04 13:54:42.319765+01 | 1486212882.31977 | pgbench_accounts |       1380958208
 2017-02-04 13:54:42.319765+01 | 1486212882.31977 | pgbench_tellers  |          3842048
 2017-02-04 13:54:42.319765+01 | 1486212882.31977 | pgbench_history  |        424935424
 2017-02-04 13:54:42.319765+01 | 1486212882.31977 | pgbench_branches |          2629632

 2017-02-04 13:54:43.404234+01 | 1486212883.40423 | pgbench_accounts |       1380958208
 2017-02-04 13:54:43.404234+01 | 1486212883.40423 | pgbench_tellers  |          3842048
 2017-02-04 13:54:43.404234+01 | 1486212883.40423 | pgbench_history  |        426819584
 2017-02-04 13:54:43.404234+01 | 1486212883.40423 | pgbench_branches |          2629632

 2017-02-04 13:54:44.488424+01 | 1486212884.48842 | pgbench_accounts |       1380958208
 2017-02-04 13:54:44.488424+01 | 1486212884.48842 | pgbench_tellers  |          3842048
 2017-02-04 13:54:44.488424+01 | 1486212884.48842 | pgbench_history  |        430825472
 2017-02-04 13:54:44.488424+01 | 1486212884.48842 | pgbench_branches |          2629632

 2017-02-04 13:54:45.571115+01 | 1486212885.57112 | pgbench_accounts |       1380958208
 2017-02-04 13:54:45.571115+01 | 1486212885.57112 | pgbench_tellers  |          3842048
 2017-02-04 13:54:45.571115+01 | 1486212885.57112 | pgbench_history  |        432160768
 2017-02-04 13:54:45.571115+01 | 1486212885.57112 | pgbench_branches |          2629632

 2017-02-04 13:54:46.650758+01 | 1486212886.65076 | pgbench_accounts |       1380958208
 2017-02-04 13:54:46.650758+01 | 1486212886.65076 | pgbench_tellers  |          3842048
 2017-02-04 13:54:46.650758+01 | 1486212886.65076 | pgbench_history  |        433356800
 2017-02-04 13:54:46.650758+01 | 1486212886.65076 | pgbench_branches |          2629632

 2017-02-04 13:54:47.733302+01 | 1486212887.7333 | pgbench_accounts |       1380958208
 2017-02-04 13:54:47.733302+01 | 1486212887.7333 | pgbench_tellers  |          3842048
 2017-02-04 13:54:47.733302+01 | 1486212887.7333 | pgbench_history  |        435798016
 2017-02-04 13:54:47.733302+01 | 1486212887.7333 | pgbench_branches |          2629632

 2017-02-04 13:54:48.824465+01 | 1486212888.82447 | pgbench_accounts |       1380958208
 2017-02-04 13:54:48.824465+01 | 1486212888.82447 | pgbench_tellers  |          3842048
 2017-02-04 13:54:48.824465+01 | 1486212888.82447 | pgbench_history  |        438681600
 2017-02-04 13:54:48.824465+01 | 1486212888.82447 | pgbench_branches |          2629632

 2017-02-04 13:54:49.911206+01 | 1486212889.91121 | pgbench_accounts |       1380958208
 2017-02-04 13:54:49.911206+01 | 1486212889.91121 | pgbench_tellers  |          3842048
 2017-02-04 13:54:49.911206+01 | 1486212889.91121 | pgbench_history  |        440369152
 2017-02-04 13:54:49.911206+01 | 1486212889.91121 | pgbench_branches |          2629632

 2017-02-04 13:54:50.990297+01 | 1486212890.9903 | pgbench_accounts |       1380958208
 2017-02-04 13:54:50.990297+01 | 1486212890.9903 | pgbench_tellers  |          3842048
 2017-02-04 13:54:50.990297+01 | 1486212890.9903 | pgbench_history  |        442580992
 2017-02-04 13:54:50.990297+01 | 1486212890.9903 | pgbench_branches |          2629632

 2017-02-04 13:54:52.07246+01 | 1486212892.07246 | pgbench_accounts |       1380958208
 2017-02-04 13:54:52.07246+01 | 1486212892.07246 | pgbench_tellers  |          3842048
 2017-02-04 13:54:52.07246+01 | 1486212892.07246 | pgbench_history  |        444653568
 2017-02-04 13:54:52.07246+01 | 1486212892.07246 | pgbench_branches |          2629632

 2017-02-04 13:54:53.157819+01 | 1486212893.15782 | pgbench_accounts |       1380958208
 2017-02-04 13:54:53.157819+01 | 1486212893.15782 | pgbench_tellers  |          3842048
 2017-02-04 13:54:53.157819+01 | 1486212893.15782 | pgbench_history  |        447488000
 2017-02-04 13:54:53.157819+01 | 1486212893.15782 | pgbench_branches |          2629632

 2017-02-04 13:54:54.242523+01 | 1486212894.24252 | pgbench_accounts |       1380958208
 2017-02-04 13:54:54.242523+01 | 1486212894.24252 | pgbench_tellers  |          3842048
 2017-02-04 13:54:54.242523+01 | 1486212894.24252 | pgbench_history  |        449699840
 2017-02-04 13:54:54.242523+01 | 1486212894.24252 | pgbench_branches |          2629632

 2017-02-04 13:54:55.326653+01 | 1486212895.32665 | pgbench_accounts |       1380958208
 2017-02-04 13:54:55.326653+01 | 1486212895.32665 | pgbench_tellers  |          3842048
 2017-02-04 13:54:55.326653+01 | 1486212895.32665 | pgbench_history  |        451739648
 2017-02-04 13:54:55.326653+01 | 1486212895.32665 | pgbench_branches |          2629632

 2017-02-04 13:54:56.417776+01 | 1486212896.41778 | pgbench_accounts |       1380958208
 2017-02-04 13:54:56.417776+01 | 1486212896.41778 | pgbench_tellers  |          3842048
 2017-02-04 13:54:56.417776+01 | 1486212896.41778 | pgbench_history  |        453959680
 2017-02-04 13:54:56.417776+01 | 1486212896.41778 | pgbench_branches |          2629632

 2017-02-04 13:54:57.493324+01 | 1486212897.49332 | pgbench_accounts |       1380958208
 2017-02-04 13:54:57.493324+01 | 1486212897.49332 | pgbench_tellers  |          3842048
 2017-02-04 13:54:57.493324+01 | 1486212897.49332 | pgbench_history  |        456466432
 2017-02-04 13:54:57.493324+01 | 1486212897.49332 | pgbench_branches |          2629632

 2017-02-04 13:54:58.576301+01 | 1486212898.5763 | pgbench_accounts |       1380958208
 2017-02-04 13:54:58.576301+01 | 1486212898.5763 | pgbench_tellers  |          3842048
 2017-02-04 13:54:58.576301+01 | 1486212898.5763 | pgbench_history  |        457826304
 2017-02-04 13:54:58.576301+01 | 1486212898.5763 | pgbench_branches |          2629632

 2017-02-04 13:54:59.663887+01 | 1486212899.66389 | pgbench_accounts |       1380958208
 2017-02-04 13:54:59.663887+01 | 1486212899.66389 | pgbench_tellers  |          3842048
 2017-02-04 13:54:59.663887+01 | 1486212899.66389 | pgbench_history  |        460300288
 2017-02-04 13:54:59.663887+01 | 1486212899.66389 | pgbench_branches |          2629632

 2017-02-04 13:55:00.744241+01 | 1486212900.74424 | pgbench_accounts |       1380958208
 2017-02-04 13:55:00.744241+01 | 1486212900.74424 | pgbench_tellers  |          3842048
 2017-02-04 13:55:00.744241+01 | 1486212900.74424 | pgbench_history  |        462888960
 2017-02-04 13:55:00.744241+01 | 1486212900.74424 | pgbench_branches |          2629632

 2017-02-04 13:55:01.834325+01 | 1486212901.83433 | pgbench_accounts |       1380958208
 2017-02-04 13:55:01.834325+01 | 1486212901.83433 | pgbench_tellers  |          3842048
 2017-02-04 13:55:01.834325+01 | 1486212901.83433 | pgbench_history  |        464437248
 2017-02-04 13:55:01.834325+01 | 1486212901.83433 | pgbench_branches |          2629632

 2017-02-04 13:55:02.916942+01 | 1486212902.91694 | pgbench_accounts |       1380958208
 2017-02-04 13:55:02.916942+01 | 1486212902.91694 | pgbench_tellers  |          3842048
 2017-02-04 13:55:02.916942+01 | 1486212902.91694 | pgbench_history  |        466853888
 2017-02-04 13:55:02.916942+01 | 1486212902.91694 | pgbench_branches |          2629632

 2017-02-04 13:55:03.997489+01 | 1486212903.99749 | pgbench_accounts |       1380958208
 2017-02-04 13:55:03.997489+01 | 1486212903.99749 | pgbench_tellers  |          3842048
 2017-02-04 13:55:03.997489+01 | 1486212903.99749 | pgbench_history  |        470679552
 2017-02-04 13:55:03.997489+01 | 1486212903.99749 | pgbench_branches |          2629632

 2017-02-04 13:55:05.083443+01 | 1486212905.08344 | pgbench_accounts |       1380958208
 2017-02-04 13:55:05.083443+01 | 1486212905.08344 | pgbench_tellers  |          3842048
 2017-02-04 13:55:05.083443+01 | 1486212905.08344 | pgbench_history  |        471547904
 2017-02-04 13:55:05.083443+01 | 1486212905.08344 | pgbench_branches |          2629632

 2017-02-04 13:55:06.17119+01 | 1486212906.17119 | pgbench_accounts |       1380958208
 2017-02-04 13:55:06.17119+01 | 1486212906.17119 | pgbench_tellers  |          3842048
 2017-02-04 13:55:06.17119+01 | 1486212906.17119 | pgbench_history  |        474275840
 2017-02-04 13:55:06.17119+01 | 1486212906.17119 | pgbench_branches |          2629632

 2017-02-04 13:55:07.261546+01 | 1486212907.26155 | pgbench_accounts |       1380958208
 2017-02-04 13:55:07.261546+01 | 1486212907.26155 | pgbench_tellers  |          3842048
 2017-02-04 13:55:07.261546+01 | 1486212907.26155 | pgbench_history  |        475963392
 2017-02-04 13:55:07.261546+01 | 1486212907.26155 | pgbench_branches |          2629632

 2017-02-04 13:55:08.343071+01 | 1486212908.34307 | pgbench_accounts |       1380958208
 2017-02-04 13:55:08.343071+01 | 1486212908.34307 | pgbench_tellers  |          3842048
 2017-02-04 13:55:08.343071+01 | 1486212908.34307 | pgbench_history  |        478191616
 2017-02-04 13:55:08.343071+01 | 1486212908.34307 | pgbench_branches |          2629632

 2017-02-04 13:55:09.431651+01 | 1486212909.43165 | pgbench_accounts |       1380958208
 2017-02-04 13:55:09.431651+01 | 1486212909.43165 | pgbench_tellers  |          3842048
 2017-02-04 13:55:09.431651+01 | 1486212909.43165 | pgbench_history  |        480583680
 2017-02-04 13:55:09.431651+01 | 1486212909.43165 | pgbench_branches |          2629632

 2017-02-04 13:55:10.511534+01 | 1486212910.51153 | pgbench_accounts |       1380958208
 2017-02-04 13:55:10.511534+01 | 1486212910.51153 | pgbench_tellers  |          3842048
 2017-02-04 13:55:10.511534+01 | 1486212910.51153 | pgbench_history  |        483139584
 2017-02-04 13:55:10.511534+01 | 1486212910.51153 | pgbench_branches |          2629632

 2017-02-04 13:55:11.59513+01 | 1486212911.59513 | pgbench_accounts |       1380958208
 2017-02-04 13:55:11.59513+01 | 1486212911.59513 | pgbench_tellers  |          3842048
 2017-02-04 13:55:11.59513+01 | 1486212911.59513 | pgbench_history  |        486547456
 2017-02-04 13:55:11.59513+01 | 1486212911.59513 | pgbench_branches |          2629632

 2017-02-04 13:55:12.673076+01 | 1486212912.67308 | pgbench_accounts |       1380958208
 2017-02-04 13:55:12.673076+01 | 1486212912.67308 | pgbench_tellers  |          3842048
 2017-02-04 13:55:12.673076+01 | 1486212912.67308 | pgbench_history  |        487424000
 2017-02-04 13:55:12.673076+01 | 1486212912.67308 | pgbench_branches |          2629632

 2017-02-04 13:55:13.752371+01 | 1486212913.75237 | pgbench_accounts |       1380958208
 2017-02-04 13:55:13.752371+01 | 1486212913.75237 | pgbench_tellers  |          3842048
 2017-02-04 13:55:13.752371+01 | 1486212913.75237 | pgbench_history  |        489529344
 2017-02-04 13:55:13.752371+01 | 1486212913.75237 | pgbench_branches |          2629632

 2017-02-04 13:55:14.842953+01 | 1486212914.84295 | pgbench_accounts |       1380958208
 2017-02-04 13:55:14.842953+01 | 1486212914.84295 | pgbench_tellers  |          3842048
 2017-02-04 13:55:14.842953+01 | 1486212914.84295 | pgbench_history  |        492060672
 2017-02-04 13:55:14.842953+01 | 1486212914.84295 | pgbench_branches |          2629632

 2017-02-04 13:55:15.927785+01 | 1486212915.92778 | pgbench_accounts |       1380958208
 2017-02-04 13:55:15.927785+01 | 1486212915.92778 | pgbench_tellers  |          3842048
 2017-02-04 13:55:15.927785+01 | 1486212915.92778 | pgbench_history  |        493887488
 2017-02-04 13:55:15.927785+01 | 1486212915.92778 | pgbench_branches |          2629632

 2017-02-04 13:55:17.020447+01 | 1486212917.02045 | pgbench_accounts |       1380958208
 2017-02-04 13:55:17.020447+01 | 1486212917.02045 | pgbench_tellers  |          3842048
 2017-02-04 13:55:17.020447+01 | 1486212917.02045 | pgbench_history  |        496254976
 2017-02-04 13:55:17.020447+01 | 1486212917.02045 | pgbench_branches |          2629632

 2017-02-04 13:55:18.110541+01 | 1486212918.11054 | pgbench_accounts |       1380958208
 2017-02-04 13:55:18.110541+01 | 1486212918.11054 | pgbench_tellers  |          3842048
 2017-02-04 13:55:18.110541+01 | 1486212918.11054 | pgbench_history  |        501465088
 2017-02-04 13:55:18.110541+01 | 1486212918.11054 | pgbench_branches |          2629632

 2017-02-04 13:55:19.198386+01 | 1486212919.19839 | pgbench_accounts |       1380958208
 2017-02-04 13:55:19.198386+01 | 1486212919.19839 | pgbench_tellers  |          3842048
 2017-02-04 13:55:19.198386+01 | 1486212919.19839 | pgbench_history  |        501465088
 2017-02-04 13:55:19.198386+01 | 1486212919.19839 | pgbench_branches |          2629632

 2017-02-04 13:55:20.282732+01 | 1486212920.28273 | pgbench_accounts |       1380958208
 2017-02-04 13:55:20.282732+01 | 1486212920.28273 | pgbench_tellers  |          3842048
 2017-02-04 13:55:20.282732+01 | 1486212920.28273 | pgbench_history  |        502824960
 2017-02-04 13:55:20.282732+01 | 1486212920.28273 | pgbench_branches |          2629632

 2017-02-04 13:55:21.369267+01 | 1486212921.36927 | pgbench_accounts |       1380958208
 2017-02-04 13:55:21.369267+01 | 1486212921.36927 | pgbench_tellers  |          3842048
 2017-02-04 13:55:21.369267+01 | 1486212921.36927 | pgbench_history  |        506642432
 2017-02-04 13:55:21.369267+01 | 1486212921.36927 | pgbench_branches |          2629632

 2017-02-04 13:55:22.45361+01 | 1486212922.45361 | pgbench_accounts |       1380958208
 2017-02-04 13:55:22.45361+01 | 1486212922.45361 | pgbench_tellers  |          3842048
 2017-02-04 13:55:22.45361+01 | 1486212922.45361 | pgbench_history  |        507355136
 2017-02-04 13:55:22.45361+01 | 1486212922.45361 | pgbench_branches |          2629632

 2017-02-04 13:55:23.530629+01 | 1486212923.53063 | pgbench_accounts |       1380958208
 2017-02-04 13:55:23.530629+01 | 1486212923.53063 | pgbench_tellers  |          3842048
 2017-02-04 13:55:23.530629+01 | 1486212923.53063 | pgbench_history  |        510189568
 2017-02-04 13:55:23.530629+01 | 1486212923.53063 | pgbench_branches |          2629632

 2017-02-04 13:55:24.611883+01 | 1486212924.61188 | pgbench_accounts |       1380958208
 2017-02-04 13:55:24.611883+01 | 1486212924.61188 | pgbench_tellers  |          3842048
 2017-02-04 13:55:24.611883+01 | 1486212924.61188 | pgbench_history  |        512745472
 2017-02-04 13:55:24.611883+01 | 1486212924.61188 | pgbench_branches |          2629632

 2017-02-04 13:55:25.68718+01 | 1486212925.68718 | pgbench_accounts |       1380958208
 2017-02-04 13:55:25.68718+01 | 1486212925.68718 | pgbench_tellers  |          3842048
 2017-02-04 13:55:25.68718+01 | 1486212925.68718 | pgbench_history  |        514596864
 2017-02-04 13:55:25.68718+01 | 1486212925.68718 | pgbench_branches |          2629632

 2017-02-04 13:55:26.767156+01 | 1486212926.76716 | pgbench_accounts |       1380958208
 2017-02-04 13:55:26.767156+01 | 1486212926.76716 | pgbench_tellers  |          3842048
 2017-02-04 13:55:26.767156+01 | 1486212926.76716 | pgbench_history  |        516448256
 2017-02-04 13:55:26.767156+01 | 1486212926.76716 | pgbench_branches |          2629632

 2017-02-04 13:55:27.849273+01 | 1486212927.84927 | pgbench_accounts |       1380958208
 2017-02-04 13:55:27.849273+01 | 1486212927.84927 | pgbench_tellers  |          3842048
 2017-02-04 13:55:27.849273+01 | 1486212927.84927 | pgbench_history  |        518881280
 2017-02-04 13:55:27.849273+01 | 1486212927.84927 | pgbench_branches |          2629632

 2017-02-04 13:55:28.944432+01 | 1486212928.94443 | pgbench_accounts |       1380958208
 2017-02-04 13:55:28.944432+01 | 1486212928.94443 | pgbench_tellers  |          3842048
 2017-02-04 13:55:28.944432+01 | 1486212928.94443 | pgbench_history  |        521158656
 2017-02-04 13:55:28.944432+01 | 1486212928.94443 | pgbench_branches |          2629632

 2017-02-04 13:55:30.024635+01 | 1486212930.02464 | pgbench_accounts |       1380958208
 2017-02-04 13:55:30.024635+01 | 1486212930.02464 | pgbench_tellers  |          3842048
 2017-02-04 13:55:30.024635+01 | 1486212930.02464 | pgbench_history  |        523042816
 2017-02-04 13:55:30.024635+01 | 1486212930.02464 | pgbench_branches |          2629632

 2017-02-04 13:55:31.112201+01 | 1486212931.1122 | pgbench_accounts |       1380958208
 2017-02-04 13:55:31.112201+01 | 1486212931.1122 | pgbench_tellers  |          3842048
 2017-02-04 13:55:31.112201+01 | 1486212931.1122 | pgbench_history  |        525959168
 2017-02-04 13:55:31.112201+01 | 1486212931.1122 | pgbench_branches |          2629632

 2017-02-04 13:55:32.194446+01 | 1486212932.19445 | pgbench_accounts |       1380958208
 2017-02-04 13:55:32.194446+01 | 1486212932.19445 | pgbench_tellers  |          3842048
 2017-02-04 13:55:32.194446+01 | 1486212932.19445 | pgbench_history  |        527884288
 2017-02-04 13:55:32.194446+01 | 1486212932.19445 | pgbench_branches |          2629632

 2017-02-04 13:55:33.2745+01 | 1486212933.2745 | pgbench_accounts |       1380958208
 2017-02-04 13:55:33.2745+01 | 1486212933.2745 | pgbench_tellers  |          3842048
 2017-02-04 13:55:33.2745+01 | 1486212933.2745 | pgbench_history  |        530251776
 2017-02-04 13:55:33.2745+01 | 1486212933.2745 | pgbench_branches |          2629632

 2017-02-04 13:55:34.360309+01 | 1486212934.36031 | pgbench_accounts |       1380958208
 2017-02-04 13:55:34.360309+01 | 1486212934.36031 | pgbench_tellers  |          3842048
 2017-02-04 13:55:34.360309+01 | 1486212934.36031 | pgbench_history  |        531996672
 2017-02-04 13:55:34.360309+01 | 1486212934.36031 | pgbench_branches |          2629632

 2017-02-04 13:55:35.427427+01 | 1486212935.42743 | pgbench_accounts |       1380958208
 2017-02-04 13:55:35.427427+01 | 1486212935.42743 | pgbench_tellers  |          3842048
 2017-02-04 13:55:35.427427+01 | 1486212935.42743 | pgbench_history  |        533733376
 2017-02-04 13:55:35.427427+01 | 1486212935.42743 | pgbench_branches |          2629632

 2017-02-04 13:55:36.517224+01 | 1486212936.51722 | pgbench_accounts |       1380958208
 2017-02-04 13:55:36.517224+01 | 1486212936.51722 | pgbench_tellers  |          3842048
 2017-02-04 13:55:36.517224+01 | 1486212936.51722 | pgbench_history  |        536109056
 2017-02-04 13:55:36.517224+01 | 1486212936.51722 | pgbench_branches |          2629632

 2017-02-04 13:55:37.597269+01 | 1486212937.59727 | pgbench_accounts |       1380958208
 2017-02-04 13:55:37.597269+01 | 1486212937.59727 | pgbench_tellers  |          3842048
 2017-02-04 13:55:37.597269+01 | 1486212937.59727 | pgbench_history  |        538345472
 2017-02-04 13:55:37.597269+01 | 1486212937.59727 | pgbench_branches |          2629632

 2017-02-04 13:55:38.677912+01 | 1486212938.67791 | pgbench_accounts |       1380958208
 2017-02-04 13:55:38.677912+01 | 1486212938.67791 | pgbench_tellers  |          3842048
 2017-02-04 13:55:38.677912+01 | 1486212938.67791 | pgbench_history  |        541040640
 2017-02-04 13:55:38.677912+01 | 1486212938.67791 | pgbench_branches |          2629632

 2017-02-04 13:55:39.757563+01 | 1486212939.75756 | pgbench_accounts |       1380958208
 2017-02-04 13:55:39.757563+01 | 1486212939.75756 | pgbench_tellers  |          3842048
 2017-02-04 13:55:39.757563+01 | 1486212939.75756 | pgbench_history  |        543383552
 2017-02-04 13:55:39.757563+01 | 1486212939.75756 | pgbench_branches |          2629632

 2017-02-04 13:55:40.846187+01 | 1486212940.84619 | pgbench_accounts |       1380958208
 2017-02-04 13:55:40.846187+01 | 1486212940.84619 | pgbench_tellers  |          3842048
 2017-02-04 13:55:40.846187+01 | 1486212940.84619 | pgbench_history  |        545398784
 2017-02-04 13:55:40.846187+01 | 1486212940.84619 | pgbench_branches |          2629632

 2017-02-04 13:55:41.929196+01 | 1486212941.9292 | pgbench_accounts |       1380958208
 2017-02-04 13:55:41.929196+01 | 1486212941.9292 | pgbench_tellers  |          3842048
 2017-02-04 13:55:41.929196+01 | 1486212941.9292 | pgbench_history  |        547389440
 2017-02-04 13:55:41.929196+01 | 1486212941.9292 | pgbench_branches |          2629632

 2017-02-04 13:55:43.017398+01 | 1486212943.0174 | pgbench_accounts |       1380958208
 2017-02-04 13:55:43.017398+01 | 1486212943.0174 | pgbench_tellers  |          3842048
 2017-02-04 13:55:43.017398+01 | 1486212943.0174 | pgbench_history  |        549896192
 2017-02-04 13:55:43.017398+01 | 1486212943.0174 | pgbench_branches |          2629632

 2017-02-04 13:55:44.107523+01 | 1486212944.10752 | pgbench_accounts |       1380958208
 2017-02-04 13:55:44.107523+01 | 1486212944.10752 | pgbench_tellers  |          3842048
 2017-02-04 13:55:44.107523+01 | 1486212944.10752 | pgbench_history  |        552263680
 2017-02-04 13:55:44.107523+01 | 1486212944.10752 | pgbench_branches |          2629632

 2017-02-04 13:55:45.200141+01 | 1486212945.20014 | pgbench_accounts |       1380958208
 2017-02-04 13:55:45.200141+01 | 1486212945.20014 | pgbench_tellers  |          3842048
 2017-02-04 13:55:45.200141+01 | 1486212945.20014 | pgbench_history  |        554139648
 2017-02-04 13:55:45.200141+01 | 1486212945.20014 | pgbench_branches |          2629632

 2017-02-04 13:55:46.285035+01 | 1486212946.28503 | pgbench_accounts |       1380958208
 2017-02-04 13:55:46.285035+01 | 1486212946.28503 | pgbench_tellers  |          3842048
 2017-02-04 13:55:46.285035+01 | 1486212946.28503 | pgbench_history  |        556670976
 2017-02-04 13:55:46.285035+01 | 1486212946.28503 | pgbench_branches |          2629632

 2017-02-04 13:55:47.370304+01 | 1486212947.3703 | pgbench_accounts |       1380958208
 2017-02-04 13:55:47.370304+01 | 1486212947.3703 | pgbench_tellers  |          3842048
 2017-02-04 13:55:47.370304+01 | 1486212947.3703 | pgbench_history  |        559808512
 2017-02-04 13:55:47.370304+01 | 1486212947.3703 | pgbench_branches |          2629632

 2017-02-04 13:55:48.453879+01 | 1486212948.45388 | pgbench_accounts |       1380958208
 2017-02-04 13:55:48.453879+01 | 1486212948.45388 | pgbench_tellers  |          3842048
 2017-02-04 13:55:48.453879+01 | 1486212948.45388 | pgbench_history  |        561659904
 2017-02-04 13:55:48.453879+01 | 1486212948.45388 | pgbench_branches |          2629632

 2017-02-04 13:55:49.533651+01 | 1486212949.53365 | pgbench_accounts |       1380958208
 2017-02-04 13:55:49.533651+01 | 1486212949.53365 | pgbench_tellers  |          3842048
 2017-02-04 13:55:49.533651+01 | 1486212949.53365 | pgbench_history  |        563224576
 2017-02-04 13:55:49.533651+01 | 1486212949.53365 | pgbench_branches |          2629632

 2017-02-04 13:55:50.615998+01 | 1486212950.616 | pgbench_accounts |       1380958208
 2017-02-04 13:55:50.615998+01 | 1486212950.616 | pgbench_tellers  |          3842048
 2017-02-04 13:55:50.615998+01 | 1486212950.616 | pgbench_history  |        565100544
 2017-02-04 13:55:50.615998+01 | 1486212950.616 | pgbench_branches |          2629632

 2017-02-04 13:55:51.698655+01 | 1486212951.69865 | pgbench_accounts |       1380958208
 2017-02-04 13:55:51.698655+01 | 1486212951.69865 | pgbench_tellers  |          3842048
 2017-02-04 13:55:51.698655+01 | 1486212951.69865 | pgbench_history  |        567517184
 2017-02-04 13:55:51.698655+01 | 1486212951.69865 | pgbench_branches |          2629632

 2017-02-04 13:55:52.785273+01 | 1486212952.78527 | pgbench_accounts |       1380958208
 2017-02-04 13:55:52.785273+01 | 1486212952.78527 | pgbench_tellers  |          3842048
 2017-02-04 13:55:52.785273+01 | 1486212952.78527 | pgbench_history  |        569556992
 2017-02-04 13:55:52.785273+01 | 1486212952.78527 | pgbench_branches |          2629632

 2017-02-04 13:55:53.867395+01 | 1486212953.86739 | pgbench_accounts |       1380958208
 2017-02-04 13:55:53.867395+01 | 1486212953.86739 | pgbench_tellers  |          3842048
 2017-02-04 13:55:53.867395+01 | 1486212953.86739 | pgbench_history  |        571809792
 2017-02-04 13:55:53.867395+01 | 1486212953.86739 | pgbench_branches |          2629632

 2017-02-04 13:55:54.957084+01 | 1486212954.95708 | pgbench_accounts |       1380958208
 2017-02-04 13:55:54.957084+01 | 1486212954.95708 | pgbench_tellers  |          3842048
 2017-02-04 13:55:54.957084+01 | 1486212954.95708 | pgbench_history  |        573939712
 2017-02-04 13:55:54.957084+01 | 1486212954.95708 | pgbench_branches |          2629632

 2017-02-04 13:55:56.041541+01 | 1486212956.04154 | pgbench_accounts |       1380958208
 2017-02-04 13:55:56.041541+01 | 1486212956.04154 | pgbench_tellers  |          3842048
 2017-02-04 13:55:56.041541+01 | 1486212956.04154 | pgbench_history  |        576192512
 2017-02-04 13:55:56.041541+01 | 1486212956.04154 | pgbench_branches |          2629632

 2017-02-04 13:55:57.120953+01 | 1486212957.12095 | pgbench_accounts |       1380958208
 2017-02-04 13:55:57.120953+01 | 1486212957.12095 | pgbench_tellers  |          3842048
 2017-02-04 13:55:57.120953+01 | 1486212957.12095 | pgbench_history  |        578453504
 2017-02-04 13:55:57.120953+01 | 1486212957.12095 | pgbench_branches |          2629632

 2017-02-04 13:55:58.207559+01 | 1486212958.20756 | pgbench_accounts |       1380958208
 2017-02-04 13:55:58.207559+01 | 1486212958.20756 | pgbench_tellers  |          3842048
 2017-02-04 13:55:58.207559+01 | 1486212958.20756 | pgbench_history  |        580542464
 2017-02-04 13:55:58.207559+01 | 1486212958.20756 | pgbench_branches |          2629632

 2017-02-04 13:55:59.285286+01 | 1486212959.28529 | pgbench_accounts |       1380958208
 2017-02-04 13:55:59.285286+01 | 1486212959.28529 | pgbench_tellers  |          3842048
 2017-02-04 13:55:59.285286+01 | 1486212959.28529 | pgbench_history  |        582934528
 2017-02-04 13:55:59.285286+01 | 1486212959.28529 | pgbench_branches |          2629632

 2017-02-04 13:56:00.379474+01 | 1486212960.37947 | pgbench_accounts |       1380958208
 2017-02-04 13:56:00.379474+01 | 1486212960.37947 | pgbench_tellers  |          3842048
 2017-02-04 13:56:00.379474+01 | 1486212960.37947 | pgbench_history  |        584974336
 2017-02-04 13:56:00.379474+01 | 1486212960.37947 | pgbench_branches |          2629632

 2017-02-04 13:56:01.466183+01 | 1486212961.46618 | pgbench_accounts |       1380958208
 2017-02-04 13:56:01.466183+01 | 1486212961.46618 | pgbench_tellers  |          3842048
 2017-02-04 13:56:01.466183+01 | 1486212961.46618 | pgbench_history  |        588627968
 2017-02-04 13:56:01.466183+01 | 1486212961.46618 | pgbench_branches |          2629632

 2017-02-04 13:56:02.549536+01 | 1486212962.54954 | pgbench_accounts |       1380958208
 2017-02-04 13:56:02.549536+01 | 1486212962.54954 | pgbench_tellers  |          3842048
 2017-02-04 13:56:02.549536+01 | 1486212962.54954 | pgbench_history  |        589471744
 2017-02-04 13:56:02.549536+01 | 1486212962.54954 | pgbench_branches |          2629632

 2017-02-04 13:56:03.631471+01 | 1486212963.63147 | pgbench_accounts |       1380958208
 2017-02-04 13:56:03.631471+01 | 1486212963.63147 | pgbench_tellers  |          3842048
 2017-02-04 13:56:03.631471+01 | 1486212963.63147 | pgbench_history  |        591814656
 2017-02-04 13:56:03.631471+01 | 1486212963.63147 | pgbench_branches |          2629632

 2017-02-04 13:56:04.707528+01 | 1486212964.70753 | pgbench_accounts |       1380958208
 2017-02-04 13:56:04.707528+01 | 1486212964.70753 | pgbench_tellers  |          3842048
 2017-02-04 13:56:04.707528+01 | 1486212964.70753 | pgbench_history  |        593854464
 2017-02-04 13:56:04.707528+01 | 1486212964.70753 | pgbench_branches |          2629632

 2017-02-04 13:56:05.783247+01 | 1486212965.78325 | pgbench_accounts |       1380958208
 2017-02-04 13:56:05.783247+01 | 1486212965.78325 | pgbench_tellers  |          3842048
 2017-02-04 13:56:05.783247+01 | 1486212965.78325 | pgbench_history  |        596754432
 2017-02-04 13:56:05.783247+01 | 1486212965.78325 | pgbench_branches |          2629632

 2017-02-04 13:56:06.860997+01 | 1486212966.861 | pgbench_accounts |       1380958208
 2017-02-04 13:56:06.860997+01 | 1486212966.861 | pgbench_tellers  |          3842048
 2017-02-04 13:56:06.860997+01 | 1486212966.861 | pgbench_history  |        598441984
 2017-02-04 13:56:06.860997+01 | 1486212966.861 | pgbench_branches |          2629632

 2017-02-04 13:56:07.942746+01 | 1486212967.94275 | pgbench_accounts |       1380958208
 2017-02-04 13:56:07.942746+01 | 1486212967.94275 | pgbench_tellers  |          3842048
 2017-02-04 13:56:07.942746+01 | 1486212967.94275 | pgbench_history  |        600842240
 2017-02-04 13:56:07.942746+01 | 1486212967.94275 | pgbench_branches |          2629632

 2017-02-04 13:56:09.02571+01 | 1486212969.02571 | pgbench_accounts |       1380958208
 2017-02-04 13:56:09.02571+01 | 1486212969.02571 | pgbench_tellers  |          3842048
 2017-02-04 13:56:09.02571+01 | 1486212969.02571 | pgbench_history  |        603209728
 2017-02-04 13:56:09.02571+01 | 1486212969.02571 | pgbench_branches |          2629632

 2017-02-04 13:56:10.112545+01 | 1486212970.11255 | pgbench_accounts |       1380958208
 2017-02-04 13:56:10.112545+01 | 1486212970.11255 | pgbench_tellers  |          3842048
 2017-02-04 13:56:10.112545+01 | 1486212970.11255 | pgbench_history  |        605085696
 2017-02-04 13:56:10.112545+01 | 1486212970.11255 | pgbench_branches |          2629632

 2017-02-04 13:56:11.198079+01 | 1486212971.19808 | pgbench_accounts |       1380958208
 2017-02-04 13:56:11.198079+01 | 1486212971.19808 | pgbench_tellers  |          3842048
 2017-02-04 13:56:11.198079+01 | 1486212971.19808 | pgbench_history  |        607125504
 2017-02-04 13:56:11.198079+01 | 1486212971.19808 | pgbench_branches |          2629632

 2017-02-04 13:56:12.287054+01 | 1486212972.28705 | pgbench_accounts |       1380958208
 2017-02-04 13:56:12.287054+01 | 1486212972.28705 | pgbench_tellers  |          3842048
 2017-02-04 13:56:12.287054+01 | 1486212972.28705 | pgbench_history  |        609566720
 2017-02-04 13:56:12.287054+01 | 1486212972.28705 | pgbench_branches |          2629632

 2017-02-04 13:56:13.369264+01 | 1486212973.36926 | pgbench_accounts |       1380958208
 2017-02-04 13:56:13.369264+01 | 1486212973.36926 | pgbench_tellers  |          3842048
 2017-02-04 13:56:13.369264+01 | 1486212973.36926 | pgbench_history  |        612204544
 2017-02-04 13:56:13.369264+01 | 1486212973.36926 | pgbench_branches |          2629632

 2017-02-04 13:56:14.452531+01 | 1486212974.45253 | pgbench_accounts |       1380958208
 2017-02-04 13:56:14.452531+01 | 1486212974.45253 | pgbench_tellers  |          3842048
 2017-02-04 13:56:14.452531+01 | 1486212974.45253 | pgbench_history  |        614219776
 2017-02-04 13:56:14.452531+01 | 1486212974.45253 | pgbench_branches |          2629632

 2017-02-04 13:56:15.533146+01 | 1486212975.53315 | pgbench_accounts |       1380958208
 2017-02-04 13:56:15.533146+01 | 1486212975.53315 | pgbench_tellers  |          3842048
 2017-02-04 13:56:15.533146+01 | 1486212975.53315 | pgbench_history  |        616890368
 2017-02-04 13:56:15.533146+01 | 1486212975.53315 | pgbench_branches |          2629632

