 2017-02-03 17:12:47.112596+01 | 1486138367.1126 | 0/4E3B69B0               |            1312516528

 2017-02-03 17:12:48.201462+01 | 1486138368.20146 | 0/4E3B69B0               |            1312516528

 2017-02-03 17:12:49.289497+01 | 1486138369.2895 | 0/4E3B69B0               |            1312516528

 2017-02-03 17:12:50.374001+01 | 1486138370.374 | 0/4E3B69B0               |            1312516528

 2017-02-03 17:12:51.460958+01 | 1486138371.46096 | 0/4E3B69B0               |            1312516528

 2017-02-03 17:12:52.555544+01 | 1486138372.55554 | 0/4E3B69B0               |            1312516528

 2017-02-03 17:12:53.64346+01 | 1486138373.64346 | 0/4E3B69E8               |            1312516584

 2017-02-03 17:12:54.750131+01 | 1486138374.75013 | 0/4E3B69E8               |            1312516584

 2017-02-03 17:12:55.856284+01 | 1486138375.85628 | 0/4E3B69E8               |            1312516584

 2017-02-03 17:12:56.964961+01 | 1486138376.96496 | 0/4E3B69E8               |            1312516584

 2017-02-03 17:12:58.071862+01 | 1486138378.07186 | 0/4E3B69E8               |            1312516584

 2017-02-03 17:12:59.15993+01 | 1486138379.15993 | 0/4E3B69E8               |            1312516584

 2017-02-03 17:13:00.250306+01 | 1486138380.25031 | 0/4E3B69E8               |            1312516584

 2017-02-03 17:13:01.341061+01 | 1486138381.34106 | 0/4E3B69E8               |            1312516584

 2017-02-03 17:13:02.430442+01 | 1486138382.43044 | 0/4E3B69E8               |            1312516584

 2017-02-03 17:13:03.520375+01 | 1486138383.52038 | 0/4E3B69E8               |            1312516584

 2017-02-03 17:13:04.630241+01 | 1486138384.63024 | 0/4E3B69E8               |            1312516584

 2017-02-03 17:13:05.742879+01 | 1486138385.74288 | 0/4E3B69E8               |            1312516584

 2017-02-03 17:13:06.842217+01 | 1486138386.84222 | 0/4E3B69E8               |            1312516584

 2017-02-03 17:13:07.949856+01 | 1486138387.94986 | 0/4E3B69E8               |            1312516584

 2017-02-03 17:13:09.059157+01 | 1486138389.05916 | 0/4E3B69E8               |            1312516584

 2017-02-03 17:13:10.144704+01 | 1486138390.1447 | 0/4E3B69E8               |            1312516584

 2017-02-03 17:13:11.228583+01 | 1486138391.22858 | 0/4E3B69E8               |            1312516584

 2017-02-03 17:13:12.32311+01 | 1486138392.32311 | 0/4E3B69E8               |            1312516584

 2017-02-03 17:13:13.410952+01 | 1486138393.41095 | 0/4E3B69E8               |            1312516584

 2017-02-03 17:13:14.50382+01 | 1486138394.50382 | 0/4E3B69E8               |            1312516584

 2017-02-03 17:13:15.601575+01 | 1486138395.60157 | 0/4E3B69E8               |            1312516584

 2017-02-03 17:13:16.714627+01 | 1486138396.71463 | 0/4E3B69E8               |            1312516584

 2017-02-03 17:13:17.808986+01 | 1486138397.80899 | 0/4E3B69E8               |            1312516584

 2017-02-03 17:13:18.909757+01 | 1486138398.90976 | 0/4E3B69E8               |            1312516584

 2017-02-03 17:13:20.016476+01 | 1486138400.01648 | 0/4E3B69E8               |            1312516584

 2017-02-03 17:13:21.145372+01 | 1486138401.14537 | 0/4E3B69E8               |            1312516584

 2017-02-03 17:13:22.235562+01 | 1486138402.23556 | 0/4E3B69E8               |            1312516584

 2017-02-03 17:13:23.322251+01 | 1486138403.32225 | 0/4E3B69E8               |            1312516584

 2017-02-03 17:13:24.413166+01 | 1486138404.41317 | 0/4E3B69E8               |            1312516584

 2017-02-03 17:13:25.500135+01 | 1486138405.50013 | 0/4E3B69E8               |            1312516584

 2017-02-03 17:13:26.598152+01 | 1486138406.59815 | 0/4E3B69E8               |            1312516584

 2017-02-03 17:13:27.703824+01 | 1486138407.70382 | 0/4E3B69E8               |            1312516584

 2017-02-03 17:13:28.804486+01 | 1486138408.80449 | 0/4E3B69E8               |            1312516584

 2017-02-03 17:13:29.922995+01 | 1486138409.923 | 0/4E3B69E8               |            1312516584

 2017-02-03 17:13:31.042281+01 | 1486138411.04228 | 0/4E3B69E8               |            1312516584

 2017-02-03 17:13:32.171421+01 | 1486138412.17142 | 0/4E3B69E8               |            1312516584

 2017-02-03 17:13:33.254879+01 | 1486138413.25488 | 0/4E3B69E8               |            1312516584

 2017-02-03 17:13:34.339033+01 | 1486138414.33903 | 0/4E3B69E8               |            1312516584

 2017-02-03 17:13:35.423968+01 | 1486138415.42397 | 0/4E3B69E8               |            1312516584

 2017-02-03 17:13:36.50634+01 | 1486138416.50634 | 0/4E3B69E8               |            1312516584

 2017-02-03 17:13:37.594092+01 | 1486138417.59409 | 0/4E3B69E8               |            1312516584

 2017-02-03 17:13:38.682662+01 | 1486138418.68266 | 0/4E3B69E8               |            1312516584

 2017-02-03 17:13:39.779922+01 | 1486138419.77992 | 0/4E3B69E8               |            1312516584

 2017-02-03 17:13:40.874702+01 | 1486138420.8747 | 0/4E3B69E8               |            1312516584

 2017-02-03 17:13:41.966416+01 | 1486138421.96642 | 0/4E3B69E8               |            1312516584

 2017-02-03 17:13:43.077427+01 | 1486138423.07743 | 0/4E3B69E8               |            1312516584

 2017-02-03 17:13:44.205179+01 | 1486138424.20518 | 0/4E3B69E8               |            1312516584

 2017-02-03 17:13:45.30374+01 | 1486138425.30374 | 0/4E3B69E8               |            1312516584

 2017-02-03 17:13:46.385795+01 | 1486138426.3858 | 0/4E3B69E8               |            1312516584

 2017-02-03 17:13:47.471761+01 | 1486138427.47176 | 0/4E3B69E8               |            1312516584

 2017-02-03 17:13:48.560489+01 | 1486138428.56049 | 0/4E3B69E8               |            1312516584

 2017-02-03 17:13:49.651033+01 | 1486138429.65103 | 0/4E3B69E8               |            1312516584

 2017-02-03 17:13:50.743371+01 | 1486138430.74337 | 0/4E3B69E8               |            1312516584

 2017-02-03 17:13:51.835527+01 | 1486138431.83553 | 0/4E3B69E8               |            1312516584

 2017-02-03 17:13:52.93438+01 | 1486138432.93438 | 0/4E3B69E8               |            1312516584

 2017-02-03 17:13:54.019679+01 | 1486138434.01968 | 0/4E3B69E8               |            1312516584

 2017-02-03 17:13:55.132532+01 | 1486138435.13253 | 0/4E3B69E8               |            1312516584

 2017-02-03 17:13:56.230378+01 | 1486138436.23038 | 0/4E3B69E8               |            1312516584

 2017-02-03 17:13:57.317475+01 | 1486138437.31748 | 0/4E3B69E8               |            1312516584

 2017-02-03 17:13:58.404286+01 | 1486138438.40429 | 0/4E3B69E8               |            1312516584

 2017-02-03 17:13:59.487739+01 | 1486138439.48774 | 0/4E3B69E8               |            1312516584

 2017-02-03 17:14:00.573999+01 | 1486138440.574 | 0/4E3B69E8               |            1312516584

 2017-02-03 17:14:01.662838+01 | 1486138441.66284 | 0/4E3B69E8               |            1312516584

 2017-02-03 17:14:02.762023+01 | 1486138442.76202 | 0/4E3B69E8               |            1312516584

 2017-02-03 17:14:03.855133+01 | 1486138443.85513 | 0/4E3B69E8               |            1312516584

 2017-02-03 17:14:04.939489+01 | 1486138444.93949 | 0/4E3B69E8               |            1312516584

 2017-02-03 17:14:06.032476+01 | 1486138446.03248 | 0/4E3B69E8               |            1312516584

 2017-02-03 17:14:07.120898+01 | 1486138447.1209 | 0/4E3B69E8               |            1312516584

 2017-02-03 17:14:08.220393+01 | 1486138448.22039 | 0/4E3B69E8               |            1312516584

 2017-02-03 17:14:09.32958+01 | 1486138449.32958 | 0/4E3B69E8               |            1312516584

 2017-02-03 17:14:10.414882+01 | 1486138450.41488 | 0/4E3B69E8               |            1312516584

 2017-02-03 17:14:11.508725+01 | 1486138451.50872 | 0/4E3B69E8               |            1312516584

 2017-02-03 17:14:12.587664+01 | 1486138452.58766 | 0/4E3B69E8               |            1312516584

 2017-02-03 17:14:13.670279+01 | 1486138453.67028 | 0/4E3B69E8               |            1312516584

 2017-02-03 17:14:14.756745+01 | 1486138454.75675 | 0/4E3B69E8               |            1312516584

 2017-02-03 17:14:15.850618+01 | 1486138455.85062 | 0/4E3B69E8               |            1312516584

 2017-02-03 17:14:16.943546+01 | 1486138456.94355 | 0/4E3B69E8               |            1312516584

 2017-02-03 17:14:18.052176+01 | 1486138458.05218 | 0/4E3B69E8               |            1312516584

 2017-02-03 17:14:19.168918+01 | 1486138459.16892 | 0/4E3B69E8               |            1312516584

 2017-02-03 17:14:20.270008+01 | 1486138460.27001 | 0/4E3B69E8               |            1312516584

 2017-02-03 17:14:21.369621+01 | 1486138461.36962 | 0/4E3B69E8               |            1312516584

 2017-02-03 17:14:22.461918+01 | 1486138462.46192 | 0/4E3B69E8               |            1312516584

 2017-02-03 17:14:23.557773+01 | 1486138463.55777 | 0/4E3B69E8               |            1312516584

 2017-02-03 17:14:24.644561+01 | 1486138464.64456 | 0/4E3B69E8               |            1312516584

 2017-02-03 17:14:25.733948+01 | 1486138465.73395 | 0/4E3B69E8               |            1312516584

 2017-02-03 17:14:26.827009+01 | 1486138466.82701 | 0/4E3B69E8               |            1312516584

 2017-02-03 17:14:27.935331+01 | 1486138467.93533 | 0/4E3B69E8               |            1312516584

 2017-02-03 17:14:29.029389+01 | 1486138469.02939 | 0/4E3B69E8               |            1312516584

 2017-02-03 17:14:30.124796+01 | 1486138470.1248 | 0/4E3B69E8               |            1312516584

 2017-02-03 17:14:31.223246+01 | 1486138471.22325 | 0/4E3B69E8               |            1312516584

 2017-02-03 17:14:32.32201+01 | 1486138472.32201 | 0/4E3B69E8               |            1312516584

 2017-02-03 17:14:33.425982+01 | 1486138473.42598 | 0/4E3B69E8               |            1312516584

 2017-02-03 17:14:34.511538+01 | 1486138474.51154 | 0/4E3B69E8               |            1312516584

 2017-02-03 17:14:35.594604+01 | 1486138475.5946 | 0/4E3B69E8               |            1312516584

 2017-02-03 17:14:36.685724+01 | 1486138476.68572 | 0/4E3B69E8               |            1312516584

 2017-02-03 17:14:37.779102+01 | 1486138477.7791 | 0/4E3B69E8               |            1312516584

 2017-02-03 17:14:38.884372+01 | 1486138478.88437 | 0/4E3B69E8               |            1312516584

 2017-02-03 17:14:39.994176+01 | 1486138479.99418 | 0/4E3B69E8               |            1312516584

 2017-02-03 17:14:41.080513+01 | 1486138481.08051 | 0/4E3B69E8               |            1312516584

 2017-02-03 17:14:42.192547+01 | 1486138482.19255 | 0/4E3B69E8               |            1312516584

 2017-02-03 17:14:43.305117+01 | 1486138483.30512 | 0/4E3B69E8               |            1312516584

 2017-02-03 17:14:44.398936+01 | 1486138484.39894 | 0/4E3B69E8               |            1312516584

 2017-02-03 17:14:45.498935+01 | 1486138485.49893 | 0/4E3B69E8               |            1312516584

 2017-02-03 17:14:46.579509+01 | 1486138486.57951 | 0/4E3B69E8               |            1312516584

 2017-02-03 17:14:47.666529+01 | 1486138487.66653 | 0/4E3B69E8               |            1312516584

 2017-02-03 17:14:48.759185+01 | 1486138488.75919 | 0/4E3B69E8               |            1312516584

 2017-02-03 17:14:49.859097+01 | 1486138489.8591 | 0/4E3B69E8               |            1312516584

 2017-02-03 17:14:50.960124+01 | 1486138490.96012 | 0/4E3B69E8               |            1312516584

 2017-02-03 17:14:52.065149+01 | 1486138492.06515 | 0/4E3B69E8               |            1312516584

 2017-02-03 17:14:53.171477+01 | 1486138493.17148 | 0/4E3B69E8               |            1312516584

 2017-02-03 17:14:54.313029+01 | 1486138494.31303 | 0/4E3B69E8               |            1312516584

 2017-02-03 17:14:55.464839+01 | 1486138495.46484 | 0/4E3B69E8               |            1312516584

 2017-02-03 17:14:56.557953+01 | 1486138496.55795 | 0/4E3B69E8               |            1312516584

 2017-02-03 17:14:57.649114+01 | 1486138497.64911 | 0/4E3B69E8               |            1312516584

 2017-02-03 17:14:58.74047+01 | 1486138498.74047 | 0/4E3B69E8               |            1312516584

 2017-02-03 17:14:59.835099+01 | 1486138499.8351 | 0/4E3B69E8               |            1312516584

 2017-02-03 17:15:00.933858+01 | 1486138500.93386 | 0/4E3B69E8               |            1312516584

 2017-02-03 17:15:02.037165+01 | 1486138502.03716 | 0/4E3B69E8               |            1312516584

 2017-02-03 17:15:03.141006+01 | 1486138503.14101 | 0/4E3B69E8               |            1312516584

 2017-02-03 17:15:04.244724+01 | 1486138504.24472 | 0/4E3B69E8               |            1312516584

 2017-02-03 17:15:05.352974+01 | 1486138505.35297 | 0/4E3B69E8               |            1312516584

 2017-02-03 17:15:06.464175+01 | 1486138506.46417 | 0/4E3B69E8               |            1312516584

 2017-02-03 17:15:07.560965+01 | 1486138507.56097 | 0/4E3B69E8               |            1312516584

 2017-02-03 17:15:08.655251+01 | 1486138508.65525 | 0/4E3B69E8               |            1312516584

 2017-02-03 17:15:09.752875+01 | 1486138509.75288 | 0/4E3B69E8               |            1312516584

 2017-02-03 17:15:10.84078+01 | 1486138510.84078 | 0/4E3B69E8               |            1312516584

 2017-02-03 17:15:11.945205+01 | 1486138511.9452 | 0/4E3B69E8               |            1312516584

 2017-02-03 17:15:13.04768+01 | 1486138513.04768 | 0/4E3B69E8               |            1312516584

 2017-02-03 17:15:14.137296+01 | 1486138514.1373 | 0/4E3B69E8               |            1312516584

 2017-02-03 17:15:15.25308+01 | 1486138515.25308 | 0/4E3B69E8               |            1312516584

 2017-02-03 17:15:16.348587+01 | 1486138516.34859 | 0/4E3B69E8               |            1312516584

 2017-02-03 17:15:17.463974+01 | 1486138517.46397 | 0/4E3B69E8               |            1312516584

 2017-02-03 17:15:18.568526+01 | 1486138518.56853 | 0/4E3B69E8               |            1312516584

 2017-02-03 17:15:19.659978+01 | 1486138519.65998 | 0/4E3B69E8               |            1312516584

 2017-02-03 17:15:20.743059+01 | 1486138520.74306 | 0/4E3B69E8               |            1312516584

 2017-02-03 17:15:21.834373+01 | 1486138521.83437 | 0/4E3B69E8               |            1312516584

 2017-02-03 17:15:22.926457+01 | 1486138522.92646 | 0/4E3B69E8               |            1312516584

 2017-02-03 17:15:24.004584+01 | 1486138524.00458 | 0/4E3B69E8               |            1312516584

 2017-02-03 17:15:25.104194+01 | 1486138525.10419 | 0/4E3B69E8               |            1312516584

 2017-02-03 17:15:26.210901+01 | 1486138526.2109 | 0/4E3B69E8               |            1312516584

 2017-02-03 17:15:27.324101+01 | 1486138527.3241 | 0/4E3B69E8               |            1312516584

 2017-02-03 17:15:28.41999+01 | 1486138528.41999 | 0/4E3B69E8               |            1312516584

 2017-02-03 17:15:29.52677+01 | 1486138529.52677 | 0/4E3B69E8               |            1312516584

 2017-02-03 17:15:30.630011+01 | 1486138530.63001 | 0/4E3B69E8               |            1312516584

 2017-02-03 17:15:31.72116+01 | 1486138531.72116 | 0/4E3B69E8               |            1312516584

 2017-02-03 17:15:32.809085+01 | 1486138532.80908 | 0/4E3B69E8               |            1312516584

 2017-02-03 17:15:33.897476+01 | 1486138533.89748 | 0/4E3B69E8               |            1312516584

 2017-02-03 17:15:34.988309+01 | 1486138534.98831 | 0/4E3B69E8               |            1312516584

 2017-02-03 17:15:36.080749+01 | 1486138536.08075 | 0/4E3B69E8               |            1312516584

 2017-02-03 17:15:37.20294+01 | 1486138537.20294 | 0/4E3B69E8               |            1312516584

 2017-02-03 17:15:38.313248+01 | 1486138538.31325 | 0/4E3B69E8               |            1312516584

 2017-02-03 17:15:39.430283+01 | 1486138539.43028 | 0/4E3B69E8               |            1312516584

 2017-02-03 17:15:40.544432+01 | 1486138540.54443 | 0/4E3B69E8               |            1312516584

 2017-02-03 17:15:41.657642+01 | 1486138541.65764 | 0/4E3B69E8               |            1312516584

 2017-02-03 17:15:42.748665+01 | 1486138542.74867 | 0/4E3B69E8               |            1312516584

 2017-02-03 17:15:43.837906+01 | 1486138543.83791 | 0/4E3B69E8               |            1312516584

 2017-02-03 17:15:44.927614+01 | 1486138544.92761 | 0/4E3B69E8               |            1312516584

 2017-02-03 17:15:46.016061+01 | 1486138546.01606 | 0/4E3B69E8               |            1312516584

 2017-02-03 17:15:47.109085+01 | 1486138547.10909 | 0/4E3B69E8               |            1312516584

 2017-02-03 17:15:48.204605+01 | 1486138548.20461 | 0/4E3B69E8               |            1312516584

 2017-02-03 17:15:49.318395+01 | 1486138549.31839 | 0/4E3B69E8               |            1312516584

 2017-02-03 17:15:50.418012+01 | 1486138550.41801 | 0/4E3B69E8               |            1312516584

 2017-02-03 17:15:51.508276+01 | 1486138551.50828 | 0/4E3B69E8               |            1312516584

 2017-02-03 17:15:52.611541+01 | 1486138552.61154 | 0/4E3B69E8               |            1312516584

 2017-02-03 17:15:53.728591+01 | 1486138553.72859 | 0/4E3B69E8               |            1312516584

 2017-02-03 17:15:54.808056+01 | 1486138554.80806 | 0/4E3B69E8               |            1312516584

 2017-02-03 17:15:55.895636+01 | 1486138555.89564 | 0/4E3B69E8               |            1312516584

 2017-02-03 17:15:56.977037+01 | 1486138556.97704 | 0/4E3B69E8               |            1312516584

 2017-02-03 17:15:58.065242+01 | 1486138558.06524 | 0/4E3B69E8               |            1312516584

 2017-02-03 17:15:59.156666+01 | 1486138559.15667 | 0/4E3B69E8               |            1312516584

 2017-02-03 17:16:00.24675+01 | 1486138560.24675 | 0/4E3B69E8               |            1312516584

 2017-02-03 17:16:01.3419+01 | 1486138561.3419 | 0/4E3B69E8               |            1312516584

 2017-02-03 17:16:02.457568+01 | 1486138562.45757 | 0/4E3B69E8               |            1312516584

 2017-02-03 17:16:03.550952+01 | 1486138563.55095 | 0/4E3B69E8               |            1312516584

 2017-02-03 17:16:04.684541+01 | 1486138564.68454 | 0/4E3B69E8               |            1312516584

 2017-02-03 17:16:05.779821+01 | 1486138565.77982 | 0/4E3B69E8               |            1312516584

 2017-02-03 17:16:06.877114+01 | 1486138566.87711 | 0/4E3B69E8               |            1312516584

 2017-02-03 17:16:07.963682+01 | 1486138567.96368 | 0/4E3B69E8               |            1312516584

 2017-02-03 17:16:09.049636+01 | 1486138569.04964 | 0/4E3B69E8               |            1312516584

 2017-02-03 17:16:10.132422+01 | 1486138570.13242 | 0/4E3B69E8               |            1312516584

 2017-02-03 17:16:11.239801+01 | 1486138571.2398 | 0/4E3B69E8               |            1312516584

 2017-02-03 17:16:12.346232+01 | 1486138572.34623 | 0/4E3B69E8               |            1312516584

 2017-02-03 17:16:13.463106+01 | 1486138573.46311 | 0/4E3B69E8               |            1312516584

 2017-02-03 17:16:14.563027+01 | 1486138574.56303 | 0/4E3B69E8               |            1312516584

 2017-02-03 17:16:15.662188+01 | 1486138575.66219 | 0/4E3B69E8               |            1312516584

 2017-02-03 17:16:16.771609+01 | 1486138576.77161 | 0/4E3B69E8               |            1312516584

 2017-02-03 17:16:17.858608+01 | 1486138577.85861 | 0/4E3B69E8               |            1312516584

 2017-02-03 17:16:18.945572+01 | 1486138578.94557 | 0/4E3B69E8               |            1312516584

 2017-02-03 17:16:20.028498+01 | 1486138580.0285 | 0/4E3B69E8               |            1312516584

 2017-02-03 17:16:21.115961+01 | 1486138581.11596 | 0/4E3B69E8               |            1312516584

 2017-02-03 17:16:22.212023+01 | 1486138582.21202 | 0/4E3B69E8               |            1312516584

 2017-02-03 17:16:23.303172+01 | 1486138583.30317 | 0/4E3B69E8               |            1312516584

 2017-02-03 17:16:24.401491+01 | 1486138584.40149 | 0/4E3B69E8               |            1312516584

 2017-02-03 17:16:25.509011+01 | 1486138585.50901 | 0/4E3B69E8               |            1312516584

 2017-02-03 17:16:26.591082+01 | 1486138586.59108 | 0/4E3B69E8               |            1312516584

 2017-02-03 17:16:27.74013+01 | 1486138587.74013 | 0/4E3B69E8               |            1312516584

 2017-02-03 17:16:28.839236+01 | 1486138588.83924 | 0/4E3B69E8               |            1312516584

 2017-02-03 17:16:29.922614+01 | 1486138589.92261 | 0/4E3B69E8               |            1312516584

 2017-02-03 17:16:31.006816+01 | 1486138591.00682 | 0/4E3B69E8               |            1312516584

 2017-02-03 17:16:32.091732+01 | 1486138592.09173 | 0/4E3B69E8               |            1312516584

 2017-02-03 17:16:33.187272+01 | 1486138593.18727 | 0/4E3B69E8               |            1312516584

 2017-02-03 17:16:34.273866+01 | 1486138594.27387 | 0/4E3B69E8               |            1312516584

 2017-02-03 17:16:35.372522+01 | 1486138595.37252 | 0/4E3B69E8               |            1312516584

 2017-02-03 17:16:36.479584+01 | 1486138596.47958 | 0/4E3B69E8               |            1312516584

 2017-02-03 17:16:37.563146+01 | 1486138597.56315 | 0/4E3B69E8               |            1312516584

 2017-02-03 17:16:38.66726+01 | 1486138598.66726 | 0/4E3B69E8               |            1312516584

 2017-02-03 17:16:39.808828+01 | 1486138599.80883 | 0/4E3B69E8               |            1312516584

 2017-02-03 17:16:40.914511+01 | 1486138600.91451 | 0/4E3B69E8               |            1312516584

 2017-02-03 17:16:41.998141+01 | 1486138601.99814 | 0/4E3B69E8               |            1312516584

 2017-02-03 17:16:43.077033+01 | 1486138603.07703 | 0/4E3B69E8               |            1312516584

 2017-02-03 17:16:44.169734+01 | 1486138604.16973 | 0/4E3B69E8               |            1312516584

 2017-02-03 17:16:45.258821+01 | 1486138605.25882 | 0/4E3B69E8               |            1312516584

 2017-02-03 17:16:46.357373+01 | 1486138606.35737 | 0/4E3B69E8               |            1312516584

 2017-02-03 17:16:47.45947+01 | 1486138607.45947 | 0/4E3B69E8               |            1312516584

 2017-02-03 17:16:48.564913+01 | 1486138608.56491 | 0/4E3B69E8               |            1312516584

 2017-02-03 17:16:49.690603+01 | 1486138609.6906 | 0/4E3B69E8               |            1312516584

 2017-02-03 17:16:50.788118+01 | 1486138610.78812 | 0/4E3B69E8               |            1312516584

 2017-02-03 17:16:51.900126+01 | 1486138611.90013 | 0/4E3B69E8               |            1312516584

 2017-02-03 17:16:53.000837+01 | 1486138613.00084 | 0/4E3B69E8               |            1312516584

 2017-02-03 17:16:54.080374+01 | 1486138614.08037 | 0/4E3B69E8               |            1312516584

 2017-02-03 17:16:55.173804+01 | 1486138615.1738 | 0/4E3B69E8               |            1312516584

 2017-02-03 17:16:56.267078+01 | 1486138616.26708 | 0/4E3B69E8               |            1312516584

 2017-02-03 17:16:57.350464+01 | 1486138617.35046 | 0/4E3B69E8               |            1312516584

 2017-02-03 17:16:58.452974+01 | 1486138618.45297 | 0/4E3B69E8               |            1312516584

 2017-02-03 17:16:59.564315+01 | 1486138619.56432 | 0/4E3B69E8               |            1312516584

 2017-02-03 17:17:00.684272+01 | 1486138620.68427 | 0/4E3B69E8               |            1312516584

 2017-02-03 17:17:01.817533+01 | 1486138621.81753 | 0/4E3B69E8               |            1312516584

 2017-02-03 17:17:02.926805+01 | 1486138622.92681 | 0/4E3B69E8               |            1312516584

 2017-02-03 17:17:04.024027+01 | 1486138624.02403 | 0/4E3B69E8               |            1312516584

 2017-02-03 17:17:05.108754+01 | 1486138625.10875 | 0/4E3B69E8               |            1312516584

 2017-02-03 17:17:06.1918+01 | 1486138626.1918 | 0/4E3B69E8               |            1312516584

 2017-02-03 17:17:07.280815+01 | 1486138627.28081 | 0/4E3B69E8               |            1312516584

 2017-02-03 17:17:08.380164+01 | 1486138628.38016 | 0/4E3B69E8               |            1312516584

 2017-02-03 17:17:09.47859+01 | 1486138629.47859 | 0/4E3B69E8               |            1312516584

 2017-02-03 17:17:10.56784+01 | 1486138630.56784 | 0/4E3B69E8               |            1312516584

 2017-02-03 17:17:11.673885+01 | 1486138631.67389 | 0/4E3B69E8               |            1312516584

 2017-02-03 17:17:12.770175+01 | 1486138632.77017 | 0/4E3B69E8               |            1312516584

 2017-02-03 17:17:13.886908+01 | 1486138633.88691 | 0/4E3B69E8               |            1312516584

 2017-02-03 17:17:15.018953+01 | 1486138635.01895 | 0/4E3B69E8               |            1312516584

 2017-02-03 17:17:16.105903+01 | 1486138636.1059 | 0/4E3B69E8               |            1312516584

 2017-02-03 17:17:17.196323+01 | 1486138637.19632 | 0/4E3B69E8               |            1312516584

 2017-02-03 17:17:18.285545+01 | 1486138638.28555 | 0/4E3B69E8               |            1312516584

 2017-02-03 17:17:19.384868+01 | 1486138639.38487 | 0/4E3B69E8               |            1312516584

 2017-02-03 17:17:20.467205+01 | 1486138640.46721 | 0/4E3B69E8               |            1312516584

 2017-02-03 17:17:21.574011+01 | 1486138641.57401 | 0/4E3B69E8               |            1312516584

 2017-02-03 17:17:22.67059+01 | 1486138642.67059 | 0/4E3B69E8               |            1312516584

 2017-02-03 17:17:23.774609+01 | 1486138643.77461 | 0/4E3B69E8               |            1312516584

 2017-02-03 17:17:24.88118+01 | 1486138644.88118 | 0/4E3B69E8               |            1312516584

 2017-02-03 17:17:26.004876+01 | 1486138646.00488 | 0/4E3B69E8               |            1312516584

 2017-02-03 17:17:27.122741+01 | 1486138647.12274 | 0/4E3B69E8               |            1312516584

 2017-02-03 17:17:28.218048+01 | 1486138648.21805 | 0/4E3B69E8               |            1312516584

 2017-02-03 17:17:29.316457+01 | 1486138649.31646 | 0/4E3B69E8               |            1312516584

 2017-02-03 17:17:30.409395+01 | 1486138650.40939 | 0/4E3B69E8               |            1312516584

 2017-02-03 17:17:31.507094+01 | 1486138651.50709 | 0/4E3B69E8               |            1312516584

 2017-02-03 17:17:32.592742+01 | 1486138652.59274 | 0/4E3B69E8               |            1312516584

 2017-02-03 17:17:33.680773+01 | 1486138653.68077 | 0/4E3B69E8               |            1312516584

 2017-02-03 17:17:34.793205+01 | 1486138654.79321 | 0/4E3B69E8               |            1312516584

 2017-02-03 17:17:35.879878+01 | 1486138655.87988 | 0/4E3B69E8               |            1312516584

 2017-02-03 17:17:36.998126+01 | 1486138656.99813 | 0/4E3B69E8               |            1312516584

 2017-02-03 17:17:38.106883+01 | 1486138658.10688 | 0/4E3B69E8               |            1312516584

 2017-02-03 17:17:39.201557+01 | 1486138659.20156 | 0/4E3B69E8               |            1312516584

 2017-02-03 17:17:40.289513+01 | 1486138660.28951 | 0/4E3B69E8               |            1312516584

 2017-02-03 17:17:41.389191+01 | 1486138661.38919 | 0/4E3B69E8               |            1312516584

 2017-02-03 17:17:42.50346+01 | 1486138662.50346 | 0/4E3B69E8               |            1312516584

 2017-02-03 17:17:43.606947+01 | 1486138663.60695 | 0/4E3B69E8               |            1312516584

 2017-02-03 17:17:44.708928+01 | 1486138664.70893 | 0/4E3B69E8               |            1312516584

 2017-02-03 17:17:45.833937+01 | 1486138665.83394 | 0/4E3B69E8               |            1312516584

 2017-02-03 17:17:46.946533+01 | 1486138666.94653 | 0/4E3B69E8               |            1312516584

